<?xml version="1.0" encoding="UTF-8" standalone="no"?>
<!-- Created with CurveBenchmark -->
<svg
	xmlns:dc="http://purl.org/dc/elements/1.1/"
	xmlns:cc="http://creativecommons.org/ns#"
	xmlns:rdf="http://www.w3.org/1999/02/22-rdf-syntax-ns#"
	xmlns:svg="http://www.w3.org/2000/svg"
	xmlns="http://www.w3.org/2000/svg"
	xmlns:sodipodi="http://sodipodi.sourceforge.net/DTD/sodipodi-0.dtd"
	xmlns:inkscape="http://www.inkscape.org/namespaces/inkscape"
	width="1000"
	height="1000"
	id="svg2"
	version="1.1"
	sodipodi:docname="manifold/peel-car-18.png.txt">
<defs
	id="defs4" />
<metadata
	id="metadata7">
	<rdf:RDF>
		<cc:Work
			rdf:about="">
			<dc:format>image/svg+xml</dc:format>
			<dc:type
				rdf:resource="http://purl.org/dc/dcmitype/StillImage" />
			<dc:title></dc:title>
		</cc:Work>
	</rdf:RDF>
</metadata>
<g
	inkscape:label="Layer 1"
	inkscape:groupmode="layer"
	id="layer1">
	<path style="fill:none;stroke:red;stroke-width:1px;stroke-linecap:butt;stroke-linejoin:miter;stroke-opacity:1" d="M 4,245.555 4,236.008 z" id="boundary" inkscape:connector-curvature="0" />
	<path style="fill:none;stroke:red;stroke-width:1px;stroke-linecap:butt;stroke-linejoin:miter;stroke-opacity:1" d="M 4,236.008 4,226.46 z" id="boundary" inkscape:connector-curvature="0" />
	<path style="fill:none;stroke:red;stroke-width:1px;stroke-linecap:butt;stroke-linejoin:miter;stroke-opacity:1" d="M 4,226.46 11.6381,218.822 z" id="boundary" inkscape:connector-curvature="0" />
	<path style="fill:none;stroke:red;stroke-width:1px;stroke-linecap:butt;stroke-linejoin:miter;stroke-opacity:1" d="M 4,255.103 4,245.555 z" id="boundary" inkscape:connector-curvature="0" />
	<path style="fill:none;stroke:red;stroke-width:1px;stroke-linecap:butt;stroke-linejoin:miter;stroke-opacity:1" d="M 4,255.103 8.77382,263.696 z" id="boundary" inkscape:connector-curvature="0" />
	<path style="fill:none;stroke:red;stroke-width:1px;stroke-linecap:butt;stroke-linejoin:miter;stroke-opacity:1" d="M 27.8691,326.71 27.8691,317.163 z" id="boundary" inkscape:connector-curvature="0" />
	<path style="fill:none;stroke:red;stroke-width:1px;stroke-linecap:butt;stroke-linejoin:miter;stroke-opacity:1" d="M 13.5476,272.289 18.3215,280.882 z" id="boundary" inkscape:connector-curvature="0" />
	<path style="fill:none;stroke:red;stroke-width:1px;stroke-linecap:butt;stroke-linejoin:miter;stroke-opacity:1" d="M 11.6381,218.822 19.2762,211.184 z" id="boundary" inkscape:connector-curvature="0" />
	<path style="fill:none;stroke:red;stroke-width:1px;stroke-linecap:butt;stroke-linejoin:miter;stroke-opacity:1" d="M 18.3215,280.882 23.0953,289.474 z" id="boundary" inkscape:connector-curvature="0" />
	<path style="fill:none;stroke:red;stroke-width:1px;stroke-linecap:butt;stroke-linejoin:miter;stroke-opacity:1" d="M 8.77382,263.696 13.5476,272.289 z" id="boundary" inkscape:connector-curvature="0" />
	<path style="fill:none;stroke:red;stroke-width:1px;stroke-linecap:butt;stroke-linejoin:miter;stroke-opacity:1" d="M 27.8691,307.615 27.8691,317.163 z" id="boundary" inkscape:connector-curvature="0" />
	<path style="fill:none;stroke:red;stroke-width:1px;stroke-linecap:butt;stroke-linejoin:miter;stroke-opacity:1" d="M 35.5072,199.727 26.9143,204.5 z" id="boundary" inkscape:connector-curvature="0" />
	<path style="fill:none;stroke:red;stroke-width:1px;stroke-linecap:butt;stroke-linejoin:miter;stroke-opacity:1" d="M 26.9143,204.5 19.2762,211.184 z" id="boundary" inkscape:connector-curvature="0" />
	<path style="fill:none;stroke:red;stroke-width:1px;stroke-linecap:butt;stroke-linejoin:miter;stroke-opacity:1" d="M 32.6429,383.041 32.6429,392.589 z" id="boundary" inkscape:connector-curvature="0" />
	<path style="fill:none;stroke:red;stroke-width:1px;stroke-linecap:butt;stroke-linejoin:miter;stroke-opacity:1" d="M 35.5072,199.727 44.1001,194.953 z" id="boundary" inkscape:connector-curvature="0" />
	<path style="fill:none;stroke:red;stroke-width:1px;stroke-linecap:butt;stroke-linejoin:miter;stroke-opacity:1" d="M 27.8691,298.067 27.8691,307.615 z" id="boundary" inkscape:connector-curvature="0" />
	<path style="fill:none;stroke:red;stroke-width:1px;stroke-linecap:butt;stroke-linejoin:miter;stroke-opacity:1" d="M 27.8691,298.067 23.0953,289.474 z" id="boundary" inkscape:connector-curvature="0" />
	<path style="fill:none;stroke:red;stroke-width:1px;stroke-linecap:butt;stroke-linejoin:miter;stroke-opacity:1" d="M 27.8691,336.258 27.8691,326.71 z" id="boundary" inkscape:connector-curvature="0" />
	<path style="fill:none;stroke:red;stroke-width:1px;stroke-linecap:butt;stroke-linejoin:miter;stroke-opacity:1" d="M 99.4764,175.858 89.9288,175.858 z" id="boundary" inkscape:connector-curvature="0" />
	<path style="fill:none;stroke:red;stroke-width:1px;stroke-linecap:butt;stroke-linejoin:miter;stroke-opacity:1" d="M 89.9288,175.858 80.3811,178.722 z" id="boundary" inkscape:connector-curvature="0" />
	<path style="fill:none;stroke:red;stroke-width:1px;stroke-linecap:butt;stroke-linejoin:miter;stroke-opacity:1" d="M 27.8691,336.258 27.8691,345.806 z" id="boundary" inkscape:connector-curvature="0" />
	<path style="fill:none;stroke:red;stroke-width:1px;stroke-linecap:butt;stroke-linejoin:miter;stroke-opacity:1" d="M 27.8691,345.806 27.8691,355.353 z" id="boundary" inkscape:connector-curvature="0" />
	<path style="fill:none;stroke:red;stroke-width:1px;stroke-linecap:butt;stroke-linejoin:miter;stroke-opacity:1" d="M 27.8691,355.353 32.6429,363.946 z" id="boundary" inkscape:connector-curvature="0" />
	<path style="fill:none;stroke:red;stroke-width:1px;stroke-linecap:butt;stroke-linejoin:miter;stroke-opacity:1" d="M 32.6429,363.946 32.6429,373.494 z" id="boundary" inkscape:connector-curvature="0" />
	<path style="fill:none;stroke:red;stroke-width:1px;stroke-linecap:butt;stroke-linejoin:miter;stroke-opacity:1" d="M 44.1001,194.953 52.693,190.179 z" id="boundary" inkscape:connector-curvature="0" />
	<path style="fill:none;stroke:red;stroke-width:1px;stroke-linecap:butt;stroke-linejoin:miter;stroke-opacity:1" d="M 32.6429,373.494 32.6429,383.041 z" id="boundary" inkscape:connector-curvature="0" />
	<path style="fill:none;stroke:red;stroke-width:1px;stroke-linecap:butt;stroke-linejoin:miter;stroke-opacity:1" d="M 51.7382,443.192 57.4668,450.83 z" id="boundary" inkscape:connector-curvature="0" />
	<path style="fill:none;stroke:red;stroke-width:1px;stroke-linecap:butt;stroke-linejoin:miter;stroke-opacity:1" d="M 32.6429,392.589 32.6429,402.137 z" id="boundary" inkscape:connector-curvature="0" />
	<path style="fill:none;stroke:red;stroke-width:1px;stroke-linecap:butt;stroke-linejoin:miter;stroke-opacity:1" d="M 32.6429,402.137 32.6429,411.684 z" id="boundary" inkscape:connector-curvature="0" />
	<path style="fill:none;stroke:red;stroke-width:1px;stroke-linecap:butt;stroke-linejoin:miter;stroke-opacity:1" d="M 32.6429,411.684 32.6429,421.232 z" id="boundary" inkscape:connector-curvature="0" />
	<path style="fill:none;stroke:red;stroke-width:1px;stroke-linecap:butt;stroke-linejoin:miter;stroke-opacity:1" d="M 70.8335,183.496 61.2859,185.405 z" id="boundary" inkscape:connector-curvature="0" />
	<path style="fill:none;stroke:red;stroke-width:1px;stroke-linecap:butt;stroke-linejoin:miter;stroke-opacity:1" d="M 61.2859,185.405 52.693,190.179 z" id="boundary" inkscape:connector-curvature="0" />
	<path style="fill:none;stroke:red;stroke-width:1px;stroke-linecap:butt;stroke-linejoin:miter;stroke-opacity:1" d="M 32.6429,421.232 39.3263,428.87 z" id="boundary" inkscape:connector-curvature="0" />
	<path style="fill:none;stroke:red;stroke-width:1px;stroke-linecap:butt;stroke-linejoin:miter;stroke-opacity:1" d="M 39.3263,428.87 46.9644,434.599 z" id="boundary" inkscape:connector-curvature="0" />
	<path style="fill:none;stroke:red;stroke-width:1px;stroke-linecap:butt;stroke-linejoin:miter;stroke-opacity:1" d="M 46.9644,434.599 51.7382,443.192 z" id="boundary" inkscape:connector-curvature="0" />
	<path style="fill:none;stroke:red;stroke-width:1px;stroke-linecap:butt;stroke-linejoin:miter;stroke-opacity:1" d="M 80.3811,178.722 70.8335,183.496 z" id="boundary" inkscape:connector-curvature="0" />
	<path style="fill:none;stroke:red;stroke-width:1px;stroke-linecap:butt;stroke-linejoin:miter;stroke-opacity:1" d="M 109.024,175.858 99.4764,175.858 z" id="boundary" inkscape:connector-curvature="0" />
	<path style="fill:none;stroke:red;stroke-width:1px;stroke-linecap:butt;stroke-linejoin:miter;stroke-opacity:1" d="M 57.4668,450.83 66.0597,455.603 z" id="boundary" inkscape:connector-curvature="0" />
	<path style="fill:none;stroke:red;stroke-width:1px;stroke-linecap:butt;stroke-linejoin:miter;stroke-opacity:1" d="M 75.6073,458.468 84.2002,463.242 z" id="boundary" inkscape:connector-curvature="0" />
	<path style="fill:none;stroke:red;stroke-width:1px;stroke-linecap:butt;stroke-linejoin:miter;stroke-opacity:1" d="M 75.6073,458.468 66.0597,455.603 z" id="boundary" inkscape:connector-curvature="0" />
	<path style="fill:none;stroke:red;stroke-width:1px;stroke-linecap:butt;stroke-linejoin:miter;stroke-opacity:1" d="M 368.72,439.372 359.172,439.372 z" id="boundary" inkscape:connector-curvature="0" />
	<path style="fill:none;stroke:red;stroke-width:1px;stroke-linecap:butt;stroke-linejoin:miter;stroke-opacity:1" d="M 109.024,175.858 118.572,175.858 z" id="boundary" inkscape:connector-curvature="0" />
	<path style="fill:none;stroke:red;stroke-width:1px;stroke-linecap:butt;stroke-linejoin:miter;stroke-opacity:1" d="M 93.7478,463.242 84.2002,463.242 z" id="boundary" inkscape:connector-curvature="0" />
	<path style="fill:none;stroke:red;stroke-width:1px;stroke-linecap:butt;stroke-linejoin:miter;stroke-opacity:1" d="M 455.603,463.242 464.196,468.015 z" id="boundary" inkscape:connector-curvature="0" />
	<path style="fill:none;stroke:red;stroke-width:1px;stroke-linecap:butt;stroke-linejoin:miter;stroke-opacity:1" d="M 103.295,463.242 93.7478,463.242 z" id="boundary" inkscape:connector-curvature="0" />
	<path style="fill:none;stroke:red;stroke-width:1px;stroke-linecap:butt;stroke-linejoin:miter;stroke-opacity:1" d="M 118.572,175.858 128.119,175.858 z" id="boundary" inkscape:connector-curvature="0" />
	<path style="fill:none;stroke:red;stroke-width:1px;stroke-linecap:butt;stroke-linejoin:miter;stroke-opacity:1" d="M 244.601,439.372 254.148,439.372 z" id="boundary" inkscape:connector-curvature="0" />
	<path style="fill:none;stroke:red;stroke-width:1px;stroke-linecap:butt;stroke-linejoin:miter;stroke-opacity:1" d="M 112.843,463.242 103.295,463.242 z" id="boundary" inkscape:connector-curvature="0" />
	<path style="fill:none;stroke:red;stroke-width:1px;stroke-linecap:butt;stroke-linejoin:miter;stroke-opacity:1" d="M 128.119,175.858 137.667,175.858 z" id="boundary" inkscape:connector-curvature="0" />
	<path style="fill:none;stroke:red;stroke-width:1px;stroke-linecap:butt;stroke-linejoin:miter;stroke-opacity:1" d="M 122.391,463.242 112.843,463.242 z" id="boundary" inkscape:connector-curvature="0" />
	<path style="fill:none;stroke:red;stroke-width:1px;stroke-linecap:butt;stroke-linejoin:miter;stroke-opacity:1" d="M 207.365,429.825 215.958,434.599 z" id="boundary" inkscape:connector-curvature="0" />
	<path style="fill:none;stroke:red;stroke-width:1px;stroke-linecap:butt;stroke-linejoin:miter;stroke-opacity:1" d="M 207.365,429.825 197.817,429.825 z" id="boundary" inkscape:connector-curvature="0" />
	<path style="fill:none;stroke:red;stroke-width:1px;stroke-linecap:butt;stroke-linejoin:miter;stroke-opacity:1" d="M 122.391,463.242 130.984,458.468 z" id="boundary" inkscape:connector-curvature="0" />
	<path style="fill:none;stroke:red;stroke-width:1px;stroke-linecap:butt;stroke-linejoin:miter;stroke-opacity:1" d="M 197.817,429.825 188.269,429.825 z" id="boundary" inkscape:connector-curvature="0" />
	<path style="fill:none;stroke:red;stroke-width:1px;stroke-linecap:butt;stroke-linejoin:miter;stroke-opacity:1" d="M 169.174,429.825 178.722,429.825 z" id="boundary" inkscape:connector-curvature="0" />
	<path style="fill:none;stroke:red;stroke-width:1px;stroke-linecap:butt;stroke-linejoin:miter;stroke-opacity:1" d="M 137.667,175.858 146.26,171.084 z" id="boundary" inkscape:connector-curvature="0" />
	<path style="fill:none;stroke:red;stroke-width:1px;stroke-linecap:butt;stroke-linejoin:miter;stroke-opacity:1" d="M 146.26,171.084 155.808,171.084 z" id="boundary" inkscape:connector-curvature="0" />
	<path style="fill:none;stroke:red;stroke-width:1px;stroke-linecap:butt;stroke-linejoin:miter;stroke-opacity:1" d="M 130.984,458.468 139.577,453.694 z" id="boundary" inkscape:connector-curvature="0" />
	<path style="fill:none;stroke:red;stroke-width:1px;stroke-linecap:butt;stroke-linejoin:miter;stroke-opacity:1" d="M 151.988,436.508 159.627,429.825 z" id="boundary" inkscape:connector-curvature="0" />
	<path style="fill:none;stroke:red;stroke-width:1px;stroke-linecap:butt;stroke-linejoin:miter;stroke-opacity:1" d="M 159.627,429.825 169.174,429.825 z" id="boundary" inkscape:connector-curvature="0" />
	<path style="fill:none;stroke:red;stroke-width:1px;stroke-linecap:butt;stroke-linejoin:miter;stroke-opacity:1" d="M 139.577,453.694 147.215,446.056 z" id="boundary" inkscape:connector-curvature="0" />
	<path style="fill:none;stroke:red;stroke-width:1px;stroke-linecap:butt;stroke-linejoin:miter;stroke-opacity:1" d="M 147.215,446.056 151.988,436.508 z" id="boundary" inkscape:connector-curvature="0" />
	<path style="fill:none;stroke:red;stroke-width:1px;stroke-linecap:butt;stroke-linejoin:miter;stroke-opacity:1" d="M 155.808,171.084 165.355,171.084 z" id="boundary" inkscape:connector-curvature="0" />
	<path style="fill:none;stroke:red;stroke-width:1px;stroke-linecap:butt;stroke-linejoin:miter;stroke-opacity:1" d="M 178.722,429.825 188.269,429.825 z" id="boundary" inkscape:connector-curvature="0" />
	<path style="fill:none;stroke:red;stroke-width:1px;stroke-linecap:butt;stroke-linejoin:miter;stroke-opacity:1" d="M 165.355,171.084 174.903,171.084 z" id="boundary" inkscape:connector-curvature="0" />
	<path style="fill:none;stroke:red;stroke-width:1px;stroke-linecap:butt;stroke-linejoin:miter;stroke-opacity:1" d="M 174.903,171.084 183.496,166.31 z" id="boundary" inkscape:connector-curvature="0" />
	<path style="fill:none;stroke:red;stroke-width:1px;stroke-linecap:butt;stroke-linejoin:miter;stroke-opacity:1" d="M 183.496,166.31 193.043,166.31 z" id="boundary" inkscape:connector-curvature="0" />
	<path style="fill:none;stroke:red;stroke-width:1px;stroke-linecap:butt;stroke-linejoin:miter;stroke-opacity:1" d="M 193.043,166.31 202.591,166.31 z" id="boundary" inkscape:connector-curvature="0" />
	<path style="fill:none;stroke:red;stroke-width:1px;stroke-linecap:butt;stroke-linejoin:miter;stroke-opacity:1" d="M 235.053,437.463 225.505,434.599 z" id="boundary" inkscape:connector-curvature="0" />
	<path style="fill:none;stroke:red;stroke-width:1px;stroke-linecap:butt;stroke-linejoin:miter;stroke-opacity:1" d="M 225.505,434.599 215.958,434.599 z" id="boundary" inkscape:connector-curvature="0" />
	<path style="fill:none;stroke:red;stroke-width:1px;stroke-linecap:butt;stroke-linejoin:miter;stroke-opacity:1" d="M 202.591,166.31 212.139,166.31 z" id="boundary" inkscape:connector-curvature="0" />
	<path style="fill:none;stroke:red;stroke-width:1px;stroke-linecap:butt;stroke-linejoin:miter;stroke-opacity:1" d="M 244.601,439.372 235.053,437.463 z" id="boundary" inkscape:connector-curvature="0" />
	<path style="fill:none;stroke:red;stroke-width:1px;stroke-linecap:butt;stroke-linejoin:miter;stroke-opacity:1" d="M 212.139,166.31 221.686,161.536 z" id="boundary" inkscape:connector-curvature="0" />
	<path style="fill:none;stroke:red;stroke-width:1px;stroke-linecap:butt;stroke-linejoin:miter;stroke-opacity:1" d="M 221.686,161.536 231.234,161.536 z" id="boundary" inkscape:connector-curvature="0" />
	<path style="fill:none;stroke:red;stroke-width:1px;stroke-linecap:butt;stroke-linejoin:miter;stroke-opacity:1" d="M 231.234,161.536 240.782,156.762 z" id="boundary" inkscape:connector-curvature="0" />
	<path style="fill:none;stroke:red;stroke-width:1px;stroke-linecap:butt;stroke-linejoin:miter;stroke-opacity:1" d="M 240.782,156.762 250.329,156.762 z" id="boundary" inkscape:connector-curvature="0" />
	<path style="fill:none;stroke:red;stroke-width:1px;stroke-linecap:butt;stroke-linejoin:miter;stroke-opacity:1" d="M 254.148,439.372 263.696,439.372 z" id="boundary" inkscape:connector-curvature="0" />
	<path style="fill:none;stroke:red;stroke-width:1px;stroke-linecap:butt;stroke-linejoin:miter;stroke-opacity:1" d="M 266.56,126.21 257.013,130.984 z" id="boundary" inkscape:connector-curvature="0" />
	<path style="fill:none;stroke:red;stroke-width:1px;stroke-linecap:butt;stroke-linejoin:miter;stroke-opacity:1" d="M 257.013,130.984 252.239,140.531 z" id="boundary" inkscape:connector-curvature="0" />
	<path style="fill:none;stroke:red;stroke-width:1px;stroke-linecap:butt;stroke-linejoin:miter;stroke-opacity:1" d="M 250.329,156.762 252.239,140.531 z" id="boundary" inkscape:connector-curvature="0" />
	<path style="fill:none;stroke:red;stroke-width:1px;stroke-linecap:butt;stroke-linejoin:miter;stroke-opacity:1" d="M 263.696,439.372 273.244,439.372 z" id="boundary" inkscape:connector-curvature="0" />
	<path style="fill:none;stroke:red;stroke-width:1px;stroke-linecap:butt;stroke-linejoin:miter;stroke-opacity:1" d="M 349.625,439.372 359.172,439.372 z" id="boundary" inkscape:connector-curvature="0" />
	<path style="fill:none;stroke:red;stroke-width:1px;stroke-linecap:butt;stroke-linejoin:miter;stroke-opacity:1" d="M 273.244,439.372 282.791,439.372 z" id="boundary" inkscape:connector-curvature="0" />
	<path style="fill:none;stroke:red;stroke-width:1px;stroke-linecap:butt;stroke-linejoin:miter;stroke-opacity:1" d="M 266.56,126.21 276.108,123.346 z" id="boundary" inkscape:connector-curvature="0" />
	<path style="fill:none;stroke:red;stroke-width:1px;stroke-linecap:butt;stroke-linejoin:miter;stroke-opacity:1" d="M 282.791,439.372 292.339,439.372 z" id="boundary" inkscape:connector-curvature="0" />
	<path style="fill:none;stroke:red;stroke-width:1px;stroke-linecap:butt;stroke-linejoin:miter;stroke-opacity:1" d="M 276.108,123.346 285.655,121.436 z" id="boundary" inkscape:connector-curvature="0" />
	<path style="fill:none;stroke:red;stroke-width:1px;stroke-linecap:butt;stroke-linejoin:miter;stroke-opacity:1" d="M 320.982,439.372 311.434,439.372 z" id="boundary" inkscape:connector-curvature="0" />
	<path style="fill:none;stroke:red;stroke-width:1px;stroke-linecap:butt;stroke-linejoin:miter;stroke-opacity:1" d="M 304.751,118.572 295.203,118.572 z" id="boundary" inkscape:connector-curvature="0" />
	<path style="fill:none;stroke:red;stroke-width:1px;stroke-linecap:butt;stroke-linejoin:miter;stroke-opacity:1" d="M 295.203,118.572 285.655,121.436 z" id="boundary" inkscape:connector-curvature="0" />
	<path style="fill:none;stroke:red;stroke-width:1px;stroke-linecap:butt;stroke-linejoin:miter;stroke-opacity:1" d="M 330.529,439.372 320.982,439.372 z" id="boundary" inkscape:connector-curvature="0" />
	<path style="fill:none;stroke:red;stroke-width:1px;stroke-linecap:butt;stroke-linejoin:miter;stroke-opacity:1" d="M 292.339,439.372 301.886,439.372 z" id="boundary" inkscape:connector-curvature="0" />
	<path style="fill:none;stroke:red;stroke-width:1px;stroke-linecap:butt;stroke-linejoin:miter;stroke-opacity:1" d="M 340.077,439.372 330.529,439.372 z" id="boundary" inkscape:connector-curvature="0" />
	<path style="fill:none;stroke:red;stroke-width:1px;stroke-linecap:butt;stroke-linejoin:miter;stroke-opacity:1" d="M 301.886,439.372 311.434,439.372 z" id="boundary" inkscape:connector-curvature="0" />
	<path style="fill:none;stroke:red;stroke-width:1px;stroke-linecap:butt;stroke-linejoin:miter;stroke-opacity:1" d="M 341.032,80.3811 331.484,85.155 z" id="boundary" inkscape:connector-curvature="0" />
	<path style="fill:none;stroke:red;stroke-width:1px;stroke-linecap:butt;stroke-linejoin:miter;stroke-opacity:1" d="M 404.046,90.8835 410.73,98.5217 z" id="boundary" inkscape:connector-curvature="0" />
	<path style="fill:none;stroke:red;stroke-width:1px;stroke-linecap:butt;stroke-linejoin:miter;stroke-opacity:1" d="M 410.73,98.5217 415.503,107.115 z" id="boundary" inkscape:connector-curvature="0" />
	<path style="fill:none;stroke:red;stroke-width:1px;stroke-linecap:butt;stroke-linejoin:miter;stroke-opacity:1" d="M 304.751,118.572 314.298,111.888 z" id="boundary" inkscape:connector-curvature="0" />
	<path style="fill:none;stroke:red;stroke-width:1px;stroke-linecap:butt;stroke-linejoin:miter;stroke-opacity:1" d="M 314.298,111.888 319.072,102.341 z" id="boundary" inkscape:connector-curvature="0" />
	<path style="fill:none;stroke:red;stroke-width:1px;stroke-linecap:butt;stroke-linejoin:miter;stroke-opacity:1" d="M 319.072,102.341 323.846,92.7931 z" id="boundary" inkscape:connector-curvature="0" />
	<path style="fill:none;stroke:red;stroke-width:1px;stroke-linecap:butt;stroke-linejoin:miter;stroke-opacity:1" d="M 323.846,92.7931 331.484,85.155 z" id="boundary" inkscape:connector-curvature="0" />
	<path style="fill:none;stroke:red;stroke-width:1px;stroke-linecap:butt;stroke-linejoin:miter;stroke-opacity:1" d="M 447.965,457.513 455.603,463.242 z" id="boundary" inkscape:connector-curvature="0" />
	<path style="fill:none;stroke:red;stroke-width:1px;stroke-linecap:butt;stroke-linejoin:miter;stroke-opacity:1" d="M 360.127,75.6073 350.579,75.6073 z" id="boundary" inkscape:connector-curvature="0" />
	<path style="fill:none;stroke:red;stroke-width:1px;stroke-linecap:butt;stroke-linejoin:miter;stroke-opacity:1" d="M 350.579,75.6073 341.032,80.3811 z" id="boundary" inkscape:connector-curvature="0" />
	<path style="fill:none;stroke:red;stroke-width:1px;stroke-linecap:butt;stroke-linejoin:miter;stroke-opacity:1" d="M 369.675,75.6073 360.127,75.6073 z" id="boundary" inkscape:connector-curvature="0" />
	<path style="fill:none;stroke:red;stroke-width:1px;stroke-linecap:butt;stroke-linejoin:miter;stroke-opacity:1" d="M 340.077,439.372 349.625,439.372 z" id="boundary" inkscape:connector-curvature="0" />
	<path style="fill:none;stroke:red;stroke-width:1px;stroke-linecap:butt;stroke-linejoin:miter;stroke-opacity:1" d="M 447.965,457.513 443.192,448.92 z" id="boundary" inkscape:connector-curvature="0" />
	<path style="fill:none;stroke:red;stroke-width:1px;stroke-linecap:butt;stroke-linejoin:miter;stroke-opacity:1" d="M 377.313,434.599 386.86,434.599 z" id="boundary" inkscape:connector-curvature="0" />
	<path style="fill:none;stroke:red;stroke-width:1px;stroke-linecap:butt;stroke-linejoin:miter;stroke-opacity:1" d="M 377.313,434.599 368.72,439.372 z" id="boundary" inkscape:connector-curvature="0" />
	<path style="fill:none;stroke:red;stroke-width:1px;stroke-linecap:butt;stroke-linejoin:miter;stroke-opacity:1" d="M 387.815,80.3811 379.222,75.6073 z" id="boundary" inkscape:connector-curvature="0" />
	<path style="fill:none;stroke:red;stroke-width:1px;stroke-linecap:butt;stroke-linejoin:miter;stroke-opacity:1" d="M 379.222,75.6073 369.675,75.6073 z" id="boundary" inkscape:connector-curvature="0" />
	<path style="fill:none;stroke:red;stroke-width:1px;stroke-linecap:butt;stroke-linejoin:miter;stroke-opacity:1" d="M 405.956,425.051 396.408,429.825 z" id="boundary" inkscape:connector-curvature="0" />
	<path style="fill:none;stroke:red;stroke-width:1px;stroke-linecap:butt;stroke-linejoin:miter;stroke-opacity:1" d="M 396.408,85.155 387.815,80.3811 z" id="boundary" inkscape:connector-curvature="0" />
	<path style="fill:none;stroke:red;stroke-width:1px;stroke-linecap:butt;stroke-linejoin:miter;stroke-opacity:1" d="M 413.594,418.368 405.956,425.051 z" id="boundary" inkscape:connector-curvature="0" />
	<path style="fill:none;stroke:red;stroke-width:1px;stroke-linecap:butt;stroke-linejoin:miter;stroke-opacity:1" d="M 404.046,90.8835 396.408,85.155 z" id="boundary" inkscape:connector-curvature="0" />
	<path style="fill:none;stroke:red;stroke-width:1px;stroke-linecap:butt;stroke-linejoin:miter;stroke-opacity:1" d="M 386.86,434.599 396.408,429.825 z" id="boundary" inkscape:connector-curvature="0" />
	<path style="fill:none;stroke:red;stroke-width:1px;stroke-linecap:butt;stroke-linejoin:miter;stroke-opacity:1" d="M 438.418,429.825 438.418,420.277 z" id="boundary" inkscape:connector-curvature="0" />
	<path style="fill:none;stroke:red;stroke-width:1px;stroke-linecap:butt;stroke-linejoin:miter;stroke-opacity:1" d="M 438.418,420.277 438.418,410.73 z" id="boundary" inkscape:connector-curvature="0" />
	<path style="fill:none;stroke:red;stroke-width:1px;stroke-linecap:butt;stroke-linejoin:miter;stroke-opacity:1" d="M 419.322,116.662 415.503,107.115 z" id="boundary" inkscape:connector-curvature="0" />
	<path style="fill:none;stroke:red;stroke-width:1px;stroke-linecap:butt;stroke-linejoin:miter;stroke-opacity:1" d="M 438.418,410.73 438.418,401.182 z" id="boundary" inkscape:connector-curvature="0" />
	<path style="fill:none;stroke:red;stroke-width:1px;stroke-linecap:butt;stroke-linejoin:miter;stroke-opacity:1" d="M 438.418,401.182 428.87,401.182 z" id="boundary" inkscape:connector-curvature="0" />
	<path style="fill:none;stroke:red;stroke-width:1px;stroke-linecap:butt;stroke-linejoin:miter;stroke-opacity:1" d="M 413.594,418.368 420.277,405.956 z" id="boundary" inkscape:connector-curvature="0" />
	<path style="fill:none;stroke:red;stroke-width:1px;stroke-linecap:butt;stroke-linejoin:miter;stroke-opacity:1" d="M 420.277,405.956 428.87,401.182 z" id="boundary" inkscape:connector-curvature="0" />
	<path style="fill:none;stroke:red;stroke-width:1px;stroke-linecap:butt;stroke-linejoin:miter;stroke-opacity:1" d="M 419.322,116.662 428.87,118.572 z" id="boundary" inkscape:connector-curvature="0" />
	<path style="fill:none;stroke:red;stroke-width:1px;stroke-linecap:butt;stroke-linejoin:miter;stroke-opacity:1" d="M 428.87,118.572 434.599,110.934 z" id="boundary" inkscape:connector-curvature="0" />
	<path style="fill:none;stroke:red;stroke-width:1px;stroke-linecap:butt;stroke-linejoin:miter;stroke-opacity:1" d="M 552.035,4 542.487,4 z" id="boundary" inkscape:connector-curvature="0" />
	<path style="fill:none;stroke:red;stroke-width:1px;stroke-linecap:butt;stroke-linejoin:miter;stroke-opacity:1" d="M 447.965,78.4716 455.603,70.8335 z" id="boundary" inkscape:connector-curvature="0" />
	<path style="fill:none;stroke:red;stroke-width:1px;stroke-linecap:butt;stroke-linejoin:miter;stroke-opacity:1" d="M 447.965,78.4716 443.192,88.0192 z" id="boundary" inkscape:connector-curvature="0" />
	<path style="fill:none;stroke:red;stroke-width:1px;stroke-linecap:butt;stroke-linejoin:miter;stroke-opacity:1" d="M 441.282,439.372 438.418,429.825 z" id="boundary" inkscape:connector-curvature="0" />
	<path style="fill:none;stroke:red;stroke-width:1px;stroke-linecap:butt;stroke-linejoin:miter;stroke-opacity:1" d="M 443.192,448.92 441.282,439.372 z" id="boundary" inkscape:connector-curvature="0" />
	<path style="fill:none;stroke:red;stroke-width:1px;stroke-linecap:butt;stroke-linejoin:miter;stroke-opacity:1" d="M 434.599,110.934 439.372,101.386 z" id="boundary" inkscape:connector-curvature="0" />
	<path style="fill:none;stroke:red;stroke-width:1px;stroke-linecap:butt;stroke-linejoin:miter;stroke-opacity:1" d="M 443.192,88.0192 439.372,101.386 z" id="boundary" inkscape:connector-curvature="0" />
	<path style="fill:none;stroke:red;stroke-width:1px;stroke-linecap:butt;stroke-linejoin:miter;stroke-opacity:1" d="M 514.799,8.77382 505.251,8.77382 z" id="boundary" inkscape:connector-curvature="0" />
	<path style="fill:none;stroke:red;stroke-width:1px;stroke-linecap:butt;stroke-linejoin:miter;stroke-opacity:1" d="M 505.251,8.77382 496.658,13.5476 z" id="boundary" inkscape:connector-curvature="0" />
	<path style="fill:none;stroke:red;stroke-width:1px;stroke-linecap:butt;stroke-linejoin:miter;stroke-opacity:1" d="M 455.603,70.8335 460.377,61.2859 z" id="boundary" inkscape:connector-curvature="0" />
	<path style="fill:none;stroke:red;stroke-width:1px;stroke-linecap:butt;stroke-linejoin:miter;stroke-opacity:1" d="M 474.699,32.6429 469.925,42.1906 z" id="boundary" inkscape:connector-curvature="0" />
	<path style="fill:none;stroke:red;stroke-width:1px;stroke-linecap:butt;stroke-linejoin:miter;stroke-opacity:1" d="M 460.377,61.2859 465.151,51.7382 z" id="boundary" inkscape:connector-curvature="0" />
	<path style="fill:none;stroke:red;stroke-width:1px;stroke-linecap:butt;stroke-linejoin:miter;stroke-opacity:1" d="M 465.151,51.7382 469.925,42.1906 z" id="boundary" inkscape:connector-curvature="0" />
	<path style="fill:none;stroke:red;stroke-width:1px;stroke-linecap:butt;stroke-linejoin:miter;stroke-opacity:1" d="M 464.196,468.015 473.744,468.015 z" id="boundary" inkscape:connector-curvature="0" />
	<path style="fill:none;stroke:red;stroke-width:1px;stroke-linecap:butt;stroke-linejoin:miter;stroke-opacity:1" d="M 496.658,13.5476 488.065,18.3215 z" id="boundary" inkscape:connector-curvature="0" />
	<path style="fill:none;stroke:red;stroke-width:1px;stroke-linecap:butt;stroke-linejoin:miter;stroke-opacity:1" d="M 474.699,32.6429 479.473,23.0953 z" id="boundary" inkscape:connector-curvature="0" />
	<path style="fill:none;stroke:red;stroke-width:1px;stroke-linecap:butt;stroke-linejoin:miter;stroke-opacity:1" d="M 479.473,23.0953 488.065,18.3215 z" id="boundary" inkscape:connector-curvature="0" />
	<path style="fill:none;stroke:red;stroke-width:1px;stroke-linecap:butt;stroke-linejoin:miter;stroke-opacity:1" d="M 473.744,468.015 483.292,468.015 z" id="boundary" inkscape:connector-curvature="0" />
	<path style="fill:none;stroke:red;stroke-width:1px;stroke-linecap:butt;stroke-linejoin:miter;stroke-opacity:1" d="M 483.292,468.015 492.839,468.015 z" id="boundary" inkscape:connector-curvature="0" />
	<path style="fill:none;stroke:red;stroke-width:1px;stroke-linecap:butt;stroke-linejoin:miter;stroke-opacity:1" d="M 532.939,4 542.487,4 z" id="boundary" inkscape:connector-curvature="0" />
	<path style="fill:none;stroke:red;stroke-width:1px;stroke-linecap:butt;stroke-linejoin:miter;stroke-opacity:1" d="M 492.839,468.015 502.387,468.015 z" id="boundary" inkscape:connector-curvature="0" />
	<path style="fill:none;stroke:red;stroke-width:1px;stroke-linecap:butt;stroke-linejoin:miter;stroke-opacity:1" d="M 523.392,4 532.939,4 z" id="boundary" inkscape:connector-curvature="0" />
	<path style="fill:none;stroke:red;stroke-width:1px;stroke-linecap:butt;stroke-linejoin:miter;stroke-opacity:1" d="M 523.392,4 514.799,8.77382 z" id="boundary" inkscape:connector-curvature="0" />
	<path style="fill:none;stroke:red;stroke-width:1px;stroke-linecap:butt;stroke-linejoin:miter;stroke-opacity:1" d="M 502.387,468.015 511.935,468.015 z" id="boundary" inkscape:connector-curvature="0" />
	<path style="fill:none;stroke:red;stroke-width:1px;stroke-linecap:butt;stroke-linejoin:miter;stroke-opacity:1" d="M 552.035,4 561.582,4 z" id="boundary" inkscape:connector-curvature="0" />
	<path style="fill:none;stroke:red;stroke-width:1px;stroke-linecap:butt;stroke-linejoin:miter;stroke-opacity:1" d="M 511.935,468.015 521.482,468.015 z" id="boundary" inkscape:connector-curvature="0" />
	<path style="fill:none;stroke:red;stroke-width:1px;stroke-linecap:butt;stroke-linejoin:miter;stroke-opacity:1" d="M 521.482,468.015 531.03,468.015 z" id="boundary" inkscape:connector-curvature="0" />
	<path style="fill:none;stroke:red;stroke-width:1px;stroke-linecap:butt;stroke-linejoin:miter;stroke-opacity:1" d="M 706.706,391.634 697.159,391.634 z" id="boundary" inkscape:connector-curvature="0" />
	<path style="fill:none;stroke:red;stroke-width:1px;stroke-linecap:butt;stroke-linejoin:miter;stroke-opacity:1" d="M 561.582,4 571.13,4 z" id="boundary" inkscape:connector-curvature="0" />
	<path style="fill:none;stroke:red;stroke-width:1px;stroke-linecap:butt;stroke-linejoin:miter;stroke-opacity:1" d="M 531.03,468.015 540.577,468.015 z" id="boundary" inkscape:connector-curvature="0" />
	<path style="fill:none;stroke:red;stroke-width:1px;stroke-linecap:butt;stroke-linejoin:miter;stroke-opacity:1" d="M 540.577,468.015 549.17,463.242 z" id="boundary" inkscape:connector-curvature="0" />
	<path style="fill:none;stroke:red;stroke-width:1px;stroke-linecap:butt;stroke-linejoin:miter;stroke-opacity:1" d="M 658.968,391.634 649.421,391.634 z" id="boundary" inkscape:connector-curvature="0" />
	<path style="fill:none;stroke:red;stroke-width:1px;stroke-linecap:butt;stroke-linejoin:miter;stroke-opacity:1" d="M 571.13,4 580.678,4 z" id="boundary" inkscape:connector-curvature="0" />
	<path style="fill:none;stroke:red;stroke-width:1px;stroke-linecap:butt;stroke-linejoin:miter;stroke-opacity:1" d="M 549.17,463.242 556.808,456.558 z" id="boundary" inkscape:connector-curvature="0" />
	<path style="fill:none;stroke:red;stroke-width:1px;stroke-linecap:butt;stroke-linejoin:miter;stroke-opacity:1" d="M 573.039,429.825 568.266,439.372 z" id="boundary" inkscape:connector-curvature="0" />
	<path style="fill:none;stroke:red;stroke-width:1px;stroke-linecap:butt;stroke-linejoin:miter;stroke-opacity:1" d="M 611.23,391.634 620.778,391.634 z" id="boundary" inkscape:connector-curvature="0" />
	<path style="fill:none;stroke:red;stroke-width:1px;stroke-linecap:butt;stroke-linejoin:miter;stroke-opacity:1" d="M 611.23,391.634 601.682,396.408 z" id="boundary" inkscape:connector-curvature="0" />
	<path style="fill:none;stroke:red;stroke-width:1px;stroke-linecap:butt;stroke-linejoin:miter;stroke-opacity:1" d="M 556.808,456.558 563.492,448.92 z" id="boundary" inkscape:connector-curvature="0" />
	<path style="fill:none;stroke:red;stroke-width:1px;stroke-linecap:butt;stroke-linejoin:miter;stroke-opacity:1" d="M 563.492,448.92 568.266,439.372 z" id="boundary" inkscape:connector-curvature="0" />
	<path style="fill:none;stroke:red;stroke-width:1px;stroke-linecap:butt;stroke-linejoin:miter;stroke-opacity:1" d="M 573.039,429.825 577.813,415.503 z" id="boundary" inkscape:connector-curvature="0" />
	<path style="fill:none;stroke:red;stroke-width:1px;stroke-linecap:butt;stroke-linejoin:miter;stroke-opacity:1" d="M 590.225,4 580.678,4 z" id="boundary" inkscape:connector-curvature="0" />
	<path style="fill:none;stroke:red;stroke-width:1px;stroke-linecap:butt;stroke-linejoin:miter;stroke-opacity:1" d="M 592.135,396.408 601.682,396.408 z" id="boundary" inkscape:connector-curvature="0" />
	<path style="fill:none;stroke:red;stroke-width:1px;stroke-linecap:butt;stroke-linejoin:miter;stroke-opacity:1" d="M 582.587,401.182 592.135,396.408 z" id="boundary" inkscape:connector-curvature="0" />
	<path style="fill:none;stroke:red;stroke-width:1px;stroke-linecap:butt;stroke-linejoin:miter;stroke-opacity:1" d="M 582.587,401.182 577.813,415.503 z" id="boundary" inkscape:connector-curvature="0" />
	<path style="fill:none;stroke:red;stroke-width:1px;stroke-linecap:butt;stroke-linejoin:miter;stroke-opacity:1" d="M 599.773,4 590.225,4 z" id="boundary" inkscape:connector-curvature="0" />
	<path style="fill:none;stroke:red;stroke-width:1px;stroke-linecap:butt;stroke-linejoin:miter;stroke-opacity:1" d="M 609.321,4 599.773,4 z" id="boundary" inkscape:connector-curvature="0" />
	<path style="fill:none;stroke:red;stroke-width:1px;stroke-linecap:butt;stroke-linejoin:miter;stroke-opacity:1" d="M 630.325,391.634 620.778,391.634 z" id="boundary" inkscape:connector-curvature="0" />
	<path style="fill:none;stroke:red;stroke-width:1px;stroke-linecap:butt;stroke-linejoin:miter;stroke-opacity:1" d="M 618.868,4.95476 628.416,8.77382 z" id="boundary" inkscape:connector-curvature="0" />
	<path style="fill:none;stroke:red;stroke-width:1px;stroke-linecap:butt;stroke-linejoin:miter;stroke-opacity:1" d="M 618.868,4.95476 609.321,4 z" id="boundary" inkscape:connector-curvature="0" />
	<path style="fill:none;stroke:red;stroke-width:1px;stroke-linecap:butt;stroke-linejoin:miter;stroke-opacity:1" d="M 639.873,391.634 630.325,391.634 z" id="boundary" inkscape:connector-curvature="0" />
	<path style="fill:none;stroke:red;stroke-width:1px;stroke-linecap:butt;stroke-linejoin:miter;stroke-opacity:1" d="M 649.421,391.634 639.873,391.634 z" id="boundary" inkscape:connector-curvature="0" />
	<path style="fill:none;stroke:red;stroke-width:1px;stroke-linecap:butt;stroke-linejoin:miter;stroke-opacity:1" d="M 768.766,92.7931 773.54,101.386 z" id="boundary" inkscape:connector-curvature="0" />
	<path style="fill:none;stroke:red;stroke-width:1px;stroke-linecap:butt;stroke-linejoin:miter;stroke-opacity:1" d="M 773.54,101.386 776.404,110.934 z" id="boundary" inkscape:connector-curvature="0" />
	<path style="fill:none;stroke:red;stroke-width:1px;stroke-linecap:butt;stroke-linejoin:miter;stroke-opacity:1" d="M 668.516,391.634 658.968,391.634 z" id="boundary" inkscape:connector-curvature="0" />
	<path style="fill:none;stroke:red;stroke-width:1px;stroke-linecap:butt;stroke-linejoin:miter;stroke-opacity:1" d="M 628.416,8.77382 637.963,8.77382 z" id="boundary" inkscape:connector-curvature="0" />
	<path style="fill:none;stroke:red;stroke-width:1px;stroke-linecap:butt;stroke-linejoin:miter;stroke-opacity:1" d="M 678.064,391.634 668.516,391.634 z" id="boundary" inkscape:connector-curvature="0" />
	<path style="fill:none;stroke:red;stroke-width:1px;stroke-linecap:butt;stroke-linejoin:miter;stroke-opacity:1" d="M 637.963,8.77382 647.511,8.77382 z" id="boundary" inkscape:connector-curvature="0" />
	<path style="fill:none;stroke:red;stroke-width:1px;stroke-linecap:butt;stroke-linejoin:miter;stroke-opacity:1" d="M 647.511,8.77382 656.104,13.5476 z" id="boundary" inkscape:connector-curvature="0" />
	<path style="fill:none;stroke:red;stroke-width:1px;stroke-linecap:butt;stroke-linejoin:miter;stroke-opacity:1" d="M 687.611,391.634 678.064,391.634 z" id="boundary" inkscape:connector-curvature="0" />
	<path style="fill:none;stroke:red;stroke-width:1px;stroke-linecap:butt;stroke-linejoin:miter;stroke-opacity:1" d="M 763.992,64.1501 767.811,73.6978 z" id="boundary" inkscape:connector-curvature="0" />
	<path style="fill:none;stroke:red;stroke-width:1px;stroke-linecap:butt;stroke-linejoin:miter;stroke-opacity:1" d="M 767.811,73.6978 768.766,83.2454 z" id="boundary" inkscape:connector-curvature="0" />
	<path style="fill:none;stroke:red;stroke-width:1px;stroke-linecap:butt;stroke-linejoin:miter;stroke-opacity:1" d="M 697.159,391.634 687.611,391.634 z" id="boundary" inkscape:connector-curvature="0" />
	<path style="fill:none;stroke:red;stroke-width:1px;stroke-linecap:butt;stroke-linejoin:miter;stroke-opacity:1" d="M 656.104,13.5476 665.652,13.5476 z" id="boundary" inkscape:connector-curvature="0" />
	<path style="fill:none;stroke:red;stroke-width:1px;stroke-linecap:butt;stroke-linejoin:miter;stroke-opacity:1" d="M 768.766,92.7931 768.766,83.2454 z" id="boundary" inkscape:connector-curvature="0" />
	<path style="fill:none;stroke:red;stroke-width:1px;stroke-linecap:butt;stroke-linejoin:miter;stroke-opacity:1" d="M 665.652,13.5476 675.199,13.5476 z" id="boundary" inkscape:connector-curvature="0" />
	<path style="fill:none;stroke:red;stroke-width:1px;stroke-linecap:butt;stroke-linejoin:miter;stroke-opacity:1" d="M 721.028,23.0953 711.48,23.0953 z" id="boundary" inkscape:connector-curvature="0" />
	<path style="fill:none;stroke:red;stroke-width:1px;stroke-linecap:butt;stroke-linejoin:miter;stroke-opacity:1" d="M 716.254,391.634 706.706,391.634 z" id="boundary" inkscape:connector-curvature="0" />
	<path style="fill:none;stroke:red;stroke-width:1px;stroke-linecap:butt;stroke-linejoin:miter;stroke-opacity:1" d="M 675.199,13.5476 684.747,13.5476 z" id="boundary" inkscape:connector-curvature="0" />
	<path style="fill:none;stroke:red;stroke-width:1px;stroke-linecap:butt;stroke-linejoin:miter;stroke-opacity:1" d="M 684.747,13.5476 693.34,18.3215 z" id="boundary" inkscape:connector-curvature="0" />
	<path style="fill:none;stroke:red;stroke-width:1px;stroke-linecap:butt;stroke-linejoin:miter;stroke-opacity:1" d="M 725.802,391.634 735.349,391.634 z" id="boundary" inkscape:connector-curvature="0" />
	<path style="fill:none;stroke:red;stroke-width:1px;stroke-linecap:butt;stroke-linejoin:miter;stroke-opacity:1" d="M 754.445,391.634 744.897,391.634 z" id="boundary" inkscape:connector-curvature="0" />
	<path style="fill:none;stroke:red;stroke-width:1px;stroke-linecap:butt;stroke-linejoin:miter;stroke-opacity:1" d="M 759.218,45.0549 763.038,54.6025 z" id="boundary" inkscape:connector-curvature="0" />
	<path style="fill:none;stroke:red;stroke-width:1px;stroke-linecap:butt;stroke-linejoin:miter;stroke-opacity:1" d="M 763.038,54.6025 763.992,64.1501 z" id="boundary" inkscape:connector-curvature="0" />
	<path style="fill:none;stroke:red;stroke-width:1px;stroke-linecap:butt;stroke-linejoin:miter;stroke-opacity:1" d="M 693.34,18.3215 702.887,18.3215 z" id="boundary" inkscape:connector-curvature="0" />
	<path style="fill:none;stroke:red;stroke-width:1px;stroke-linecap:butt;stroke-linejoin:miter;stroke-opacity:1" d="M 702.887,18.3215 711.48,23.0953 z" id="boundary" inkscape:connector-curvature="0" />
	<path style="fill:none;stroke:red;stroke-width:1px;stroke-linecap:butt;stroke-linejoin:miter;stroke-opacity:1" d="M 773.54,391.634 763.992,391.634 z" id="boundary" inkscape:connector-curvature="0" />
	<path style="fill:none;stroke:red;stroke-width:1px;stroke-linecap:butt;stroke-linejoin:miter;stroke-opacity:1" d="M 735.349,391.634 744.897,391.634 z" id="boundary" inkscape:connector-curvature="0" />
	<path style="fill:none;stroke:red;stroke-width:1px;stroke-linecap:butt;stroke-linejoin:miter;stroke-opacity:1" d="M 730.576,23.0953 721.028,23.0953 z" id="boundary" inkscape:connector-curvature="0" />
	<path style="fill:none;stroke:red;stroke-width:1px;stroke-linecap:butt;stroke-linejoin:miter;stroke-opacity:1" d="M 754.445,391.634 763.992,391.634 z" id="boundary" inkscape:connector-curvature="0" />
	<path style="fill:none;stroke:red;stroke-width:1px;stroke-linecap:butt;stroke-linejoin:miter;stroke-opacity:1" d="M 754.445,36.462 759.218,45.0549 z" id="boundary" inkscape:connector-curvature="0" />
	<path style="fill:none;stroke:red;stroke-width:1px;stroke-linecap:butt;stroke-linejoin:miter;stroke-opacity:1" d="M 815.55,422.187 811.731,412.639 z" id="boundary" inkscape:connector-curvature="0" />
	<path style="fill:none;stroke:red;stroke-width:1px;stroke-linecap:butt;stroke-linejoin:miter;stroke-opacity:1" d="M 811.731,412.639 804.092,405.956 z" id="boundary" inkscape:connector-curvature="0" />
	<path style="fill:none;stroke:red;stroke-width:1px;stroke-linecap:butt;stroke-linejoin:miter;stroke-opacity:1" d="M 754.445,36.462 747.761,28.8239 z" id="boundary" inkscape:connector-curvature="0" />
	<path style="fill:none;stroke:red;stroke-width:1px;stroke-linecap:butt;stroke-linejoin:miter;stroke-opacity:1" d="M 730.576,23.0953 740.123,23.0953 z" id="boundary" inkscape:connector-curvature="0" />
	<path style="fill:none;stroke:red;stroke-width:1px;stroke-linecap:butt;stroke-linejoin:miter;stroke-opacity:1" d="M 740.123,23.0953 747.761,28.8239 z" id="boundary" inkscape:connector-curvature="0" />
	<path style="fill:none;stroke:red;stroke-width:1px;stroke-linecap:butt;stroke-linejoin:miter;stroke-opacity:1" d="M 783.088,391.634 773.54,391.634 z" id="boundary" inkscape:connector-curvature="0" />
	<path style="fill:none;stroke:red;stroke-width:1px;stroke-linecap:butt;stroke-linejoin:miter;stroke-opacity:1" d="M 792.635,391.634 783.088,391.634 z" id="boundary" inkscape:connector-curvature="0" />
	<path style="fill:none;stroke:red;stroke-width:1px;stroke-linecap:butt;stroke-linejoin:miter;stroke-opacity:1" d="M 833.69,429.825 843.238,429.825 z" id="boundary" inkscape:connector-curvature="0" />
	<path style="fill:none;stroke:red;stroke-width:1px;stroke-linecap:butt;stroke-linejoin:miter;stroke-opacity:1" d="M 806.957,136.712 800.273,129.074 z" id="boundary" inkscape:connector-curvature="0" />
	<path style="fill:none;stroke:red;stroke-width:1px;stroke-linecap:butt;stroke-linejoin:miter;stroke-opacity:1" d="M 800.273,129.074 792.635,122.391 z" id="boundary" inkscape:connector-curvature="0" />
	<path style="fill:none;stroke:red;stroke-width:1px;stroke-linecap:butt;stroke-linejoin:miter;stroke-opacity:1" d="M 801.228,396.408 804.092,405.956 z" id="boundary" inkscape:connector-curvature="0" />
	<path style="fill:none;stroke:red;stroke-width:1px;stroke-linecap:butt;stroke-linejoin:miter;stroke-opacity:1" d="M 801.228,396.408 792.635,391.634 z" id="boundary" inkscape:connector-curvature="0" />
	<path style="fill:none;stroke:red;stroke-width:1px;stroke-linecap:butt;stroke-linejoin:miter;stroke-opacity:1" d="M 792.635,122.391 785.952,114.753 z" id="boundary" inkscape:connector-curvature="0" />
	<path style="fill:none;stroke:red;stroke-width:1px;stroke-linecap:butt;stroke-linejoin:miter;stroke-opacity:1" d="M 785.952,114.753 776.404,110.934 z" id="boundary" inkscape:connector-curvature="0" />
	<path style="fill:none;stroke:red;stroke-width:1px;stroke-linecap:butt;stroke-linejoin:miter;stroke-opacity:1" d="M 725.802,391.634 716.254,391.634 z" id="boundary" inkscape:connector-curvature="0" />
	<path style="fill:none;stroke:red;stroke-width:1px;stroke-linecap:butt;stroke-linejoin:miter;stroke-opacity:1" d="M 814.595,143.396 821.278,151.034 z" id="boundary" inkscape:connector-curvature="0" />
	<path style="fill:none;stroke:red;stroke-width:1px;stroke-linecap:butt;stroke-linejoin:miter;stroke-opacity:1" d="M 814.595,143.396 806.957,136.712 z" id="boundary" inkscape:connector-curvature="0" />
	<path style="fill:none;stroke:red;stroke-width:1px;stroke-linecap:butt;stroke-linejoin:miter;stroke-opacity:1" d="M 833.69,429.825 825.097,425.051 z" id="boundary" inkscape:connector-curvature="0" />
	<path style="fill:none;stroke:red;stroke-width:1px;stroke-linecap:butt;stroke-linejoin:miter;stroke-opacity:1" d="M 825.097,425.051 815.55,422.187 z" id="boundary" inkscape:connector-curvature="0" />
	<path style="fill:none;stroke:red;stroke-width:1px;stroke-linecap:butt;stroke-linejoin:miter;stroke-opacity:1" d="M 830.826,151.988 839.419,156.762 z" id="boundary" inkscape:connector-curvature="0" />
	<path style="fill:none;stroke:red;stroke-width:1px;stroke-linecap:butt;stroke-linejoin:miter;stroke-opacity:1" d="M 830.826,151.988 821.278,151.034 z" id="boundary" inkscape:connector-curvature="0" />
	<path style="fill:none;stroke:red;stroke-width:1px;stroke-linecap:butt;stroke-linejoin:miter;stroke-opacity:1" d="M 848.966,156.762 839.419,156.762 z" id="boundary" inkscape:connector-curvature="0" />
	<path style="fill:none;stroke:red;stroke-width:1px;stroke-linecap:butt;stroke-linejoin:miter;stroke-opacity:1" d="M 858.514,156.762 867.107,161.536 z" id="boundary" inkscape:connector-curvature="0" />
	<path style="fill:none;stroke:red;stroke-width:1px;stroke-linecap:butt;stroke-linejoin:miter;stroke-opacity:1" d="M 858.514,156.762 848.966,156.762 z" id="boundary" inkscape:connector-curvature="0" />
	<path style="fill:none;stroke:red;stroke-width:1px;stroke-linecap:butt;stroke-linejoin:miter;stroke-opacity:1" d="M 878.564,410.73 888.112,405.956 z" id="boundary" inkscape:connector-curvature="0" />
	<path style="fill:none;stroke:red;stroke-width:1px;stroke-linecap:butt;stroke-linejoin:miter;stroke-opacity:1" d="M 843.238,429.825 851.831,425.051 z" id="boundary" inkscape:connector-curvature="0" />
	<path style="fill:none;stroke:red;stroke-width:1px;stroke-linecap:butt;stroke-linejoin:miter;stroke-opacity:1" d="M 860.423,420.277 851.831,425.051 z" id="boundary" inkscape:connector-curvature="0" />
	<path style="fill:none;stroke:red;stroke-width:1px;stroke-linecap:butt;stroke-linejoin:miter;stroke-opacity:1" d="M 869.016,415.503 878.564,410.73 z" id="boundary" inkscape:connector-curvature="0" />
	<path style="fill:none;stroke:red;stroke-width:1px;stroke-linecap:butt;stroke-linejoin:miter;stroke-opacity:1" d="M 869.016,415.503 860.423,420.277 z" id="boundary" inkscape:connector-curvature="0" />
	<path style="fill:none;stroke:red;stroke-width:1px;stroke-linecap:butt;stroke-linejoin:miter;stroke-opacity:1" d="M 867.107,161.536 876.654,161.536 z" id="boundary" inkscape:connector-curvature="0" />
	<path style="fill:none;stroke:red;stroke-width:1px;stroke-linecap:butt;stroke-linejoin:miter;stroke-opacity:1" d="M 876.654,161.536 886.202,161.536 z" id="boundary" inkscape:connector-curvature="0" />
	<path style="fill:none;stroke:red;stroke-width:1px;stroke-linecap:butt;stroke-linejoin:miter;stroke-opacity:1" d="M 886.202,161.536 895.75,161.536 z" id="boundary" inkscape:connector-curvature="0" />
	<path style="fill:none;stroke:red;stroke-width:1px;stroke-linecap:butt;stroke-linejoin:miter;stroke-opacity:1" d="M 944.443,329.575 952.081,323.846 z" id="boundary" inkscape:connector-curvature="0" />
	<path style="fill:none;stroke:red;stroke-width:1px;stroke-linecap:butt;stroke-linejoin:miter;stroke-opacity:1" d="M 888.112,405.956 895.75,399.272 z" id="boundary" inkscape:connector-curvature="0" />
	<path style="fill:none;stroke:red;stroke-width:1px;stroke-linecap:butt;stroke-linejoin:miter;stroke-opacity:1" d="M 895.75,399.272 900.524,389.725 z" id="boundary" inkscape:connector-curvature="0" />
	<path style="fill:none;stroke:red;stroke-width:1px;stroke-linecap:butt;stroke-linejoin:miter;stroke-opacity:1" d="M 895.75,161.536 905.297,161.536 z" id="boundary" inkscape:connector-curvature="0" />
	<path style="fill:none;stroke:red;stroke-width:1px;stroke-linecap:butt;stroke-linejoin:miter;stroke-opacity:1" d="M 900.524,389.725 905.297,380.177 z" id="boundary" inkscape:connector-curvature="0" />
	<path style="fill:none;stroke:red;stroke-width:1px;stroke-linecap:butt;stroke-linejoin:miter;stroke-opacity:1" d="M 944.443,329.575 935.85,334.348 z" id="boundary" inkscape:connector-curvature="0" />
	<path style="fill:none;stroke:red;stroke-width:1px;stroke-linecap:butt;stroke-linejoin:miter;stroke-opacity:1" d="M 935.85,334.348 929.167,341.987 z" id="boundary" inkscape:connector-curvature="0" />
	<path style="fill:none;stroke:red;stroke-width:1px;stroke-linecap:butt;stroke-linejoin:miter;stroke-opacity:1" d="M 911.981,353.444 919.619,346.76 z" id="boundary" inkscape:connector-curvature="0" />
	<path style="fill:none;stroke:red;stroke-width:1px;stroke-linecap:butt;stroke-linejoin:miter;stroke-opacity:1" d="M 911.981,353.444 910.071,370.629 z" id="boundary" inkscape:connector-curvature="0" />
	<path style="fill:none;stroke:red;stroke-width:1px;stroke-linecap:butt;stroke-linejoin:miter;stroke-opacity:1" d="M 905.297,380.177 910.071,370.629 z" id="boundary" inkscape:connector-curvature="0" />
	<path style="fill:none;stroke:red;stroke-width:1px;stroke-linecap:butt;stroke-linejoin:miter;stroke-opacity:1" d="M 919.619,346.76 929.167,341.987 z" id="boundary" inkscape:connector-curvature="0" />
	<path style="fill:none;stroke:red;stroke-width:1px;stroke-linecap:butt;stroke-linejoin:miter;stroke-opacity:1" d="M 905.297,161.536 914.845,161.536 z" id="boundary" inkscape:connector-curvature="0" />
	<path style="fill:none;stroke:red;stroke-width:1px;stroke-linecap:butt;stroke-linejoin:miter;stroke-opacity:1" d="M 914.845,161.536 924.393,161.536 z" id="boundary" inkscape:connector-curvature="0" />
	<path style="fill:none;stroke:red;stroke-width:1px;stroke-linecap:butt;stroke-linejoin:miter;stroke-opacity:1" d="M 924.393,161.536 933.94,161.536 z" id="boundary" inkscape:connector-curvature="0" />
	<path style="fill:none;stroke:red;stroke-width:1px;stroke-linecap:butt;stroke-linejoin:miter;stroke-opacity:1" d="M 933.94,161.536 943.488,161.536 z" id="boundary" inkscape:connector-curvature="0" />
	<path style="fill:none;stroke:red;stroke-width:1px;stroke-linecap:butt;stroke-linejoin:miter;stroke-opacity:1" d="M 993.136,193.998 993.136,203.546 z" id="boundary" inkscape:connector-curvature="0" />
	<path style="fill:none;stroke:red;stroke-width:1px;stroke-linecap:butt;stroke-linejoin:miter;stroke-opacity:1" d="M 943.488,161.536 953.036,161.536 z" id="boundary" inkscape:connector-curvature="0" />
	<path style="fill:none;stroke:red;stroke-width:1px;stroke-linecap:butt;stroke-linejoin:miter;stroke-opacity:1" d="M 952.081,323.846 959.719,310.479 z" id="boundary" inkscape:connector-curvature="0" />
	<path style="fill:none;stroke:red;stroke-width:1px;stroke-linecap:butt;stroke-linejoin:miter;stroke-opacity:1" d="M 953.036,161.536 962.583,161.536 z" id="boundary" inkscape:connector-curvature="0" />
	<path style="fill:none;stroke:red;stroke-width:1px;stroke-linecap:butt;stroke-linejoin:miter;stroke-opacity:1" d="M 962.583,161.536 971.176,166.31 z" id="boundary" inkscape:connector-curvature="0" />
	<path style="fill:none;stroke:red;stroke-width:1px;stroke-linecap:butt;stroke-linejoin:miter;stroke-opacity:1" d="M 959.719,310.479 964.493,300.932 z" id="boundary" inkscape:connector-curvature="0" />
	<path style="fill:none;stroke:red;stroke-width:1px;stroke-linecap:butt;stroke-linejoin:miter;stroke-opacity:1" d="M 969.267,291.384 964.493,300.932 z" id="boundary" inkscape:connector-curvature="0" />
	<path style="fill:none;stroke:red;stroke-width:1px;stroke-linecap:butt;stroke-linejoin:miter;stroke-opacity:1" d="M 979.769,171.084 971.176,166.31 z" id="boundary" inkscape:connector-curvature="0" />
	<path style="fill:none;stroke:red;stroke-width:1px;stroke-linecap:butt;stroke-linejoin:miter;stroke-opacity:1" d="M 974.04,281.836 969.267,291.384 z" id="boundary" inkscape:connector-curvature="0" />
	<path style="fill:none;stroke:red;stroke-width:1px;stroke-linecap:butt;stroke-linejoin:miter;stroke-opacity:1" d="M 978.814,267.515 983.588,257.967 z" id="boundary" inkscape:connector-curvature="0" />
	<path style="fill:none;stroke:red;stroke-width:1px;stroke-linecap:butt;stroke-linejoin:miter;stroke-opacity:1" d="M 978.814,267.515 974.04,281.836 z" id="boundary" inkscape:connector-curvature="0" />
	<path style="fill:none;stroke:red;stroke-width:1px;stroke-linecap:butt;stroke-linejoin:miter;stroke-opacity:1" d="M 979.769,171.084 988.362,175.858 z" id="boundary" inkscape:connector-curvature="0" />
	<path style="fill:none;stroke:red;stroke-width:1px;stroke-linecap:butt;stroke-linejoin:miter;stroke-opacity:1" d="M 983.588,248.42 983.588,257.967 z" id="boundary" inkscape:connector-curvature="0" />
	<path style="fill:none;stroke:red;stroke-width:1px;stroke-linecap:butt;stroke-linejoin:miter;stroke-opacity:1" d="M 991.226,241.736 996,232.189 z" id="boundary" inkscape:connector-curvature="0" />
	<path style="fill:none;stroke:red;stroke-width:1px;stroke-linecap:butt;stroke-linejoin:miter;stroke-opacity:1" d="M 993.136,193.998 993.136,184.45 z" id="boundary" inkscape:connector-curvature="0" />
	<path style="fill:none;stroke:red;stroke-width:1px;stroke-linecap:butt;stroke-linejoin:miter;stroke-opacity:1" d="M 993.136,184.45 988.362,175.858 z" id="boundary" inkscape:connector-curvature="0" />
	<path style="fill:none;stroke:red;stroke-width:1px;stroke-linecap:butt;stroke-linejoin:miter;stroke-opacity:1" d="M 983.588,248.42 991.226,241.736 z" id="boundary" inkscape:connector-curvature="0" />
	<path style="fill:none;stroke:red;stroke-width:1px;stroke-linecap:butt;stroke-linejoin:miter;stroke-opacity:1" d="M 993.136,213.093 993.136,203.546 z" id="boundary" inkscape:connector-curvature="0" />
	<path style="fill:none;stroke:red;stroke-width:1px;stroke-linecap:butt;stroke-linejoin:miter;stroke-opacity:1" d="M 993.136,222.641 993.136,213.093 z" id="boundary" inkscape:connector-curvature="0" />
	<path style="fill:none;stroke:red;stroke-width:1px;stroke-linecap:butt;stroke-linejoin:miter;stroke-opacity:1" d="M 993.136,222.641 996,232.189 z" id="boundary" inkscape:connector-curvature="0" />
	<circle cx="4" cy="226.46" r="4" fill="#0" id="circle0"/>
	<circle cx="4" cy="236.008" r="4" fill="#0" id="circle1"/>
	<circle cx="4" cy="245.555" r="4" fill="#0" id="circle2"/>
	<circle cx="4" cy="255.103" r="4" fill="#0" id="circle3"/>
	<circle cx="8.77382" cy="263.696" r="4" fill="#0" id="circle4"/>
	<circle cx="11.6381" cy="218.822" r="4" fill="#0" id="circle5"/>
	<circle cx="13.5476" cy="272.289" r="4" fill="#0" id="circle6"/>
	<circle cx="18.3215" cy="280.882" r="4" fill="#0" id="circle7"/>
	<circle cx="19.2762" cy="211.184" r="4" fill="#0" id="circle8"/>
	<circle cx="23.0953" cy="289.474" r="4" fill="#0" id="circle9"/>
	<circle cx="26.9143" cy="204.5" r="4" fill="#0" id="circle10"/>
	<circle cx="27.8691" cy="298.067" r="4" fill="#0" id="circle11"/>
	<circle cx="27.8691" cy="307.615" r="4" fill="#0" id="circle12"/>
	<circle cx="27.8691" cy="317.163" r="4" fill="#0" id="circle13"/>
	<circle cx="27.8691" cy="326.71" r="4" fill="#0" id="circle14"/>
	<circle cx="27.8691" cy="336.258" r="4" fill="#0" id="circle15"/>
	<circle cx="27.8691" cy="345.806" r="4" fill="#0" id="circle16"/>
	<circle cx="27.8691" cy="355.353" r="4" fill="#0" id="circle17"/>
	<circle cx="32.6429" cy="363.946" r="4" fill="#0" id="circle18"/>
	<circle cx="32.6429" cy="373.494" r="4" fill="#0" id="circle19"/>
	<circle cx="32.6429" cy="383.041" r="4" fill="#0" id="circle20"/>
	<circle cx="32.6429" cy="392.589" r="4" fill="#0" id="circle21"/>
	<circle cx="32.6429" cy="402.137" r="4" fill="#0" id="circle22"/>
	<circle cx="32.6429" cy="411.684" r="4" fill="#0" id="circle23"/>
	<circle cx="32.6429" cy="421.232" r="4" fill="#0" id="circle24"/>
	<circle cx="35.5072" cy="199.727" r="4" fill="#0" id="circle25"/>
	<circle cx="39.3263" cy="428.87" r="4" fill="#0" id="circle26"/>
	<circle cx="44.1001" cy="194.953" r="4" fill="#0" id="circle27"/>
	<circle cx="46.9644" cy="434.599" r="4" fill="#0" id="circle28"/>
	<circle cx="51.7382" cy="443.192" r="4" fill="#0" id="circle29"/>
	<circle cx="52.693" cy="190.179" r="4" fill="#0" id="circle30"/>
	<circle cx="57.4668" cy="450.83" r="4" fill="#0" id="circle31"/>
	<circle cx="61.2859" cy="185.405" r="4" fill="#0" id="circle32"/>
	<circle cx="66.0597" cy="455.603" r="4" fill="#0" id="circle33"/>
	<circle cx="70.8335" cy="183.496" r="4" fill="#0" id="circle34"/>
	<circle cx="75.6073" cy="458.468" r="4" fill="#0" id="circle35"/>
	<circle cx="80.3811" cy="178.722" r="4" fill="#0" id="circle36"/>
	<circle cx="84.2002" cy="463.242" r="4" fill="#0" id="circle37"/>
	<circle cx="89.9288" cy="175.858" r="4" fill="#0" id="circle38"/>
	<circle cx="93.7478" cy="463.242" r="4" fill="#0" id="circle39"/>
	<circle cx="99.4764" cy="175.858" r="4" fill="#0" id="circle40"/>
	<circle cx="103.295" cy="463.242" r="4" fill="#0" id="circle41"/>
	<circle cx="109.024" cy="175.858" r="4" fill="#0" id="circle42"/>
	<circle cx="112.843" cy="463.242" r="4" fill="#0" id="circle43"/>
	<circle cx="118.572" cy="175.858" r="4" fill="#0" id="circle44"/>
	<circle cx="122.391" cy="463.242" r="4" fill="#0" id="circle45"/>
	<circle cx="128.119" cy="175.858" r="4" fill="#0" id="circle46"/>
	<circle cx="130.984" cy="458.468" r="4" fill="#0" id="circle47"/>
	<circle cx="137.667" cy="175.858" r="4" fill="#0" id="circle48"/>
	<circle cx="139.577" cy="453.694" r="4" fill="#0" id="circle49"/>
	<circle cx="146.26" cy="171.084" r="4" fill="#0" id="circle50"/>
	<circle cx="147.215" cy="446.056" r="4" fill="#0" id="circle51"/>
	<circle cx="151.988" cy="436.508" r="4" fill="#0" id="circle52"/>
	<circle cx="155.808" cy="171.084" r="4" fill="#0" id="circle53"/>
	<circle cx="159.627" cy="429.825" r="4" fill="#0" id="circle54"/>
	<circle cx="165.355" cy="171.084" r="4" fill="#0" id="circle55"/>
	<circle cx="169.174" cy="429.825" r="4" fill="#0" id="circle56"/>
	<circle cx="174.903" cy="171.084" r="4" fill="#0" id="circle57"/>
	<circle cx="178.722" cy="429.825" r="4" fill="#0" id="circle58"/>
	<circle cx="183.496" cy="166.31" r="4" fill="#0" id="circle59"/>
	<circle cx="188.269" cy="429.825" r="4" fill="#0" id="circle60"/>
	<circle cx="193.043" cy="166.31" r="4" fill="#0" id="circle61"/>
	<circle cx="197.817" cy="429.825" r="4" fill="#0" id="circle62"/>
	<circle cx="202.591" cy="166.31" r="4" fill="#0" id="circle63"/>
	<circle cx="207.365" cy="429.825" r="4" fill="#0" id="circle64"/>
	<circle cx="212.139" cy="166.31" r="4" fill="#0" id="circle65"/>
	<circle cx="215.958" cy="434.599" r="4" fill="#0" id="circle66"/>
	<circle cx="221.686" cy="161.536" r="4" fill="#0" id="circle67"/>
	<circle cx="225.505" cy="434.599" r="4" fill="#0" id="circle68"/>
	<circle cx="231.234" cy="161.536" r="4" fill="#0" id="circle69"/>
	<circle cx="235.053" cy="437.463" r="4" fill="#0" id="circle70"/>
	<circle cx="240.782" cy="156.762" r="4" fill="#0" id="circle71"/>
	<circle cx="244.601" cy="439.372" r="4" fill="#0" id="circle72"/>
	<circle cx="250.329" cy="156.762" r="4" fill="#0" id="circle73"/>
	<circle cx="252.239" cy="140.531" r="4" fill="#0" id="circle74"/>
	<circle cx="254.148" cy="439.372" r="4" fill="#0" id="circle75"/>
	<circle cx="257.013" cy="130.984" r="4" fill="#0" id="circle76"/>
	<circle cx="263.696" cy="439.372" r="4" fill="#0" id="circle77"/>
	<circle cx="266.56" cy="126.21" r="4" fill="#0" id="circle78"/>
	<circle cx="273.244" cy="439.372" r="4" fill="#0" id="circle79"/>
	<circle cx="276.108" cy="123.346" r="4" fill="#0" id="circle80"/>
	<circle cx="282.791" cy="439.372" r="4" fill="#0" id="circle81"/>
	<circle cx="285.655" cy="121.436" r="4" fill="#0" id="circle82"/>
	<circle cx="292.339" cy="439.372" r="4" fill="#0" id="circle83"/>
	<circle cx="295.203" cy="118.572" r="4" fill="#0" id="circle84"/>
	<circle cx="301.886" cy="439.372" r="4" fill="#0" id="circle85"/>
	<circle cx="304.751" cy="118.572" r="4" fill="#0" id="circle86"/>
	<circle cx="311.434" cy="439.372" r="4" fill="#0" id="circle87"/>
	<circle cx="314.298" cy="111.888" r="4" fill="#0" id="circle88"/>
	<circle cx="319.072" cy="102.341" r="4" fill="#0" id="circle89"/>
	<circle cx="320.982" cy="439.372" r="4" fill="#0" id="circle90"/>
	<circle cx="323.846" cy="92.7931" r="4" fill="#0" id="circle91"/>
	<circle cx="330.529" cy="439.372" r="4" fill="#0" id="circle92"/>
	<circle cx="331.484" cy="85.155" r="4" fill="#0" id="circle93"/>
	<circle cx="340.077" cy="439.372" r="4" fill="#0" id="circle94"/>
	<circle cx="341.032" cy="80.3811" r="4" fill="#0" id="circle95"/>
	<circle cx="349.625" cy="439.372" r="4" fill="#0" id="circle96"/>
	<circle cx="350.579" cy="75.6073" r="4" fill="#0" id="circle97"/>
	<circle cx="359.172" cy="439.372" r="4" fill="#0" id="circle98"/>
	<circle cx="360.127" cy="75.6073" r="4" fill="#0" id="circle99"/>
	<circle cx="368.72" cy="439.372" r="4" fill="#0" id="circle100"/>
	<circle cx="369.675" cy="75.6073" r="4" fill="#0" id="circle101"/>
	<circle cx="377.313" cy="434.599" r="4" fill="#0" id="circle102"/>
	<circle cx="379.222" cy="75.6073" r="4" fill="#0" id="circle103"/>
	<circle cx="386.86" cy="434.599" r="4" fill="#0" id="circle104"/>
	<circle cx="387.815" cy="80.3811" r="4" fill="#0" id="circle105"/>
	<circle cx="396.408" cy="85.155" r="4" fill="#0" id="circle106"/>
	<circle cx="396.408" cy="429.825" r="4" fill="#0" id="circle107"/>
	<circle cx="404.046" cy="90.8835" r="4" fill="#0" id="circle108"/>
	<circle cx="405.956" cy="425.051" r="4" fill="#0" id="circle109"/>
	<circle cx="410.73" cy="98.5217" r="4" fill="#0" id="circle110"/>
	<circle cx="413.594" cy="418.368" r="4" fill="#0" id="circle111"/>
	<circle cx="415.503" cy="107.115" r="4" fill="#0" id="circle112"/>
	<circle cx="419.322" cy="116.662" r="4" fill="#0" id="circle113"/>
	<circle cx="420.277" cy="405.956" r="4" fill="#0" id="circle114"/>
	<circle cx="428.87" cy="118.572" r="4" fill="#0" id="circle115"/>
	<circle cx="428.87" cy="401.182" r="4" fill="#0" id="circle116"/>
	<circle cx="434.599" cy="110.934" r="4" fill="#0" id="circle117"/>
	<circle cx="438.418" cy="401.182" r="4" fill="#0" id="circle118"/>
	<circle cx="438.418" cy="410.73" r="4" fill="#0" id="circle119"/>
	<circle cx="438.418" cy="420.277" r="4" fill="#0" id="circle120"/>
	<circle cx="438.418" cy="429.825" r="4" fill="#0" id="circle121"/>
	<circle cx="439.372" cy="101.386" r="4" fill="#0" id="circle122"/>
	<circle cx="441.282" cy="439.372" r="4" fill="#0" id="circle123"/>
	<circle cx="443.192" cy="88.0192" r="4" fill="#0" id="circle124"/>
	<circle cx="443.192" cy="448.92" r="4" fill="#0" id="circle125"/>
	<circle cx="447.965" cy="78.4716" r="4" fill="#0" id="circle126"/>
	<circle cx="447.965" cy="457.513" r="4" fill="#0" id="circle127"/>
	<circle cx="455.603" cy="70.8335" r="4" fill="#0" id="circle128"/>
	<circle cx="455.603" cy="463.242" r="4" fill="#0" id="circle129"/>
	<circle cx="460.377" cy="61.2859" r="4" fill="#0" id="circle130"/>
	<circle cx="464.196" cy="468.015" r="4" fill="#0" id="circle131"/>
	<circle cx="465.151" cy="51.7382" r="4" fill="#0" id="circle132"/>
	<circle cx="469.925" cy="42.1906" r="4" fill="#0" id="circle133"/>
	<circle cx="473.744" cy="468.015" r="4" fill="#0" id="circle134"/>
	<circle cx="474.699" cy="32.6429" r="4" fill="#0" id="circle135"/>
	<circle cx="479.473" cy="23.0953" r="4" fill="#0" id="circle136"/>
	<circle cx="483.292" cy="468.015" r="4" fill="#0" id="circle137"/>
	<circle cx="488.065" cy="18.3215" r="4" fill="#0" id="circle138"/>
	<circle cx="492.839" cy="468.015" r="4" fill="#0" id="circle139"/>
	<circle cx="496.658" cy="13.5476" r="4" fill="#0" id="circle140"/>
	<circle cx="502.387" cy="468.015" r="4" fill="#0" id="circle141"/>
	<circle cx="505.251" cy="8.77382" r="4" fill="#0" id="circle142"/>
	<circle cx="511.935" cy="468.015" r="4" fill="#0" id="circle143"/>
	<circle cx="514.799" cy="8.77382" r="4" fill="#0" id="circle144"/>
	<circle cx="521.482" cy="468.015" r="4" fill="#0" id="circle145"/>
	<circle cx="523.392" cy="4" r="4" fill="#0" id="circle146"/>
	<circle cx="531.03" cy="468.015" r="4" fill="#0" id="circle147"/>
	<circle cx="532.939" cy="4" r="4" fill="#0" id="circle148"/>
	<circle cx="540.577" cy="468.015" r="4" fill="#0" id="circle149"/>
	<circle cx="542.487" cy="4" r="4" fill="#0" id="circle150"/>
	<circle cx="549.17" cy="463.242" r="4" fill="#0" id="circle151"/>
	<circle cx="552.035" cy="4" r="4" fill="#0" id="circle152"/>
	<circle cx="556.808" cy="456.558" r="4" fill="#0" id="circle153"/>
	<circle cx="561.582" cy="4" r="4" fill="#0" id="circle154"/>
	<circle cx="563.492" cy="448.92" r="4" fill="#0" id="circle155"/>
	<circle cx="568.266" cy="439.372" r="4" fill="#0" id="circle156"/>
	<circle cx="571.13" cy="4" r="4" fill="#0" id="circle157"/>
	<circle cx="573.039" cy="429.825" r="4" fill="#0" id="circle158"/>
	<circle cx="577.813" cy="415.503" r="4" fill="#0" id="circle159"/>
	<circle cx="580.678" cy="4" r="4" fill="#0" id="circle160"/>
	<circle cx="582.587" cy="401.182" r="4" fill="#0" id="circle161"/>
	<circle cx="590.225" cy="4" r="4" fill="#0" id="circle162"/>
	<circle cx="592.135" cy="396.408" r="4" fill="#0" id="circle163"/>
	<circle cx="599.773" cy="4" r="4" fill="#0" id="circle164"/>
	<circle cx="601.682" cy="396.408" r="4" fill="#0" id="circle165"/>
	<circle cx="609.321" cy="4" r="4" fill="#0" id="circle166"/>
	<circle cx="611.23" cy="391.634" r="4" fill="#0" id="circle167"/>
	<circle cx="618.868" cy="4.95476" r="4" fill="#0" id="circle168"/>
	<circle cx="620.778" cy="391.634" r="4" fill="#0" id="circle169"/>
	<circle cx="628.416" cy="8.77382" r="4" fill="#0" id="circle170"/>
	<circle cx="630.325" cy="391.634" r="4" fill="#0" id="circle171"/>
	<circle cx="637.963" cy="8.77382" r="4" fill="#0" id="circle172"/>
	<circle cx="639.873" cy="391.634" r="4" fill="#0" id="circle173"/>
	<circle cx="647.511" cy="8.77382" r="4" fill="#0" id="circle174"/>
	<circle cx="649.421" cy="391.634" r="4" fill="#0" id="circle175"/>
	<circle cx="656.104" cy="13.5476" r="4" fill="#0" id="circle176"/>
	<circle cx="658.968" cy="391.634" r="4" fill="#0" id="circle177"/>
	<circle cx="665.652" cy="13.5476" r="4" fill="#0" id="circle178"/>
	<circle cx="668.516" cy="391.634" r="4" fill="#0" id="circle179"/>
	<circle cx="675.199" cy="13.5476" r="4" fill="#0" id="circle180"/>
	<circle cx="678.064" cy="391.634" r="4" fill="#0" id="circle181"/>
	<circle cx="684.747" cy="13.5476" r="4" fill="#0" id="circle182"/>
	<circle cx="687.611" cy="391.634" r="4" fill="#0" id="circle183"/>
	<circle cx="693.34" cy="18.3215" r="4" fill="#0" id="circle184"/>
	<circle cx="697.159" cy="391.634" r="4" fill="#0" id="circle185"/>
	<circle cx="702.887" cy="18.3215" r="4" fill="#0" id="circle186"/>
	<circle cx="706.706" cy="391.634" r="4" fill="#0" id="circle187"/>
	<circle cx="711.48" cy="23.0953" r="4" fill="#0" id="circle188"/>
	<circle cx="716.254" cy="391.634" r="4" fill="#0" id="circle189"/>
	<circle cx="721.028" cy="23.0953" r="4" fill="#0" id="circle190"/>
	<circle cx="725.802" cy="391.634" r="4" fill="#0" id="circle191"/>
	<circle cx="730.576" cy="23.0953" r="4" fill="#0" id="circle192"/>
	<circle cx="735.349" cy="391.634" r="4" fill="#0" id="circle193"/>
	<circle cx="740.123" cy="23.0953" r="4" fill="#0" id="circle194"/>
	<circle cx="744.897" cy="391.634" r="4" fill="#0" id="circle195"/>
	<circle cx="747.761" cy="28.8239" r="4" fill="#0" id="circle196"/>
	<circle cx="754.445" cy="36.462" r="4" fill="#0" id="circle197"/>
	<circle cx="754.445" cy="391.634" r="4" fill="#0" id="circle198"/>
	<circle cx="759.218" cy="45.0549" r="4" fill="#0" id="circle199"/>
	<circle cx="763.038" cy="54.6025" r="4" fill="#0" id="circle200"/>
	<circle cx="763.992" cy="64.1501" r="4" fill="#0" id="circle201"/>
	<circle cx="763.992" cy="391.634" r="4" fill="#0" id="circle202"/>
	<circle cx="767.811" cy="73.6978" r="4" fill="#0" id="circle203"/>
	<circle cx="768.766" cy="83.2454" r="4" fill="#0" id="circle204"/>
	<circle cx="768.766" cy="92.7931" r="4" fill="#0" id="circle205"/>
	<circle cx="773.54" cy="101.386" r="4" fill="#0" id="circle206"/>
	<circle cx="773.54" cy="391.634" r="4" fill="#0" id="circle207"/>
	<circle cx="776.404" cy="110.934" r="4" fill="#0" id="circle208"/>
	<circle cx="783.088" cy="391.634" r="4" fill="#0" id="circle209"/>
	<circle cx="785.952" cy="114.753" r="4" fill="#0" id="circle210"/>
	<circle cx="792.635" cy="122.391" r="4" fill="#0" id="circle211"/>
	<circle cx="792.635" cy="391.634" r="4" fill="#0" id="circle212"/>
	<circle cx="800.273" cy="129.074" r="4" fill="#0" id="circle213"/>
	<circle cx="801.228" cy="396.408" r="4" fill="#0" id="circle214"/>
	<circle cx="804.092" cy="405.956" r="4" fill="#0" id="circle215"/>
	<circle cx="806.957" cy="136.712" r="4" fill="#0" id="circle216"/>
	<circle cx="811.731" cy="412.639" r="4" fill="#0" id="circle217"/>
	<circle cx="814.595" cy="143.396" r="4" fill="#0" id="circle218"/>
	<circle cx="815.55" cy="422.187" r="4" fill="#0" id="circle219"/>
	<circle cx="821.278" cy="151.034" r="4" fill="#0" id="circle220"/>
	<circle cx="825.097" cy="425.051" r="4" fill="#0" id="circle221"/>
	<circle cx="830.826" cy="151.988" r="4" fill="#0" id="circle222"/>
	<circle cx="833.69" cy="429.825" r="4" fill="#0" id="circle223"/>
	<circle cx="839.419" cy="156.762" r="4" fill="#0" id="circle224"/>
	<circle cx="843.238" cy="429.825" r="4" fill="#0" id="circle225"/>
	<circle cx="848.966" cy="156.762" r="4" fill="#0" id="circle226"/>
	<circle cx="851.831" cy="425.051" r="4" fill="#0" id="circle227"/>
	<circle cx="858.514" cy="156.762" r="4" fill="#0" id="circle228"/>
	<circle cx="860.423" cy="420.277" r="4" fill="#0" id="circle229"/>
	<circle cx="867.107" cy="161.536" r="4" fill="#0" id="circle230"/>
	<circle cx="869.016" cy="415.503" r="4" fill="#0" id="circle231"/>
	<circle cx="876.654" cy="161.536" r="4" fill="#0" id="circle232"/>
	<circle cx="878.564" cy="410.73" r="4" fill="#0" id="circle233"/>
	<circle cx="886.202" cy="161.536" r="4" fill="#0" id="circle234"/>
	<circle cx="888.112" cy="405.956" r="4" fill="#0" id="circle235"/>
	<circle cx="895.75" cy="161.536" r="4" fill="#0" id="circle236"/>
	<circle cx="895.75" cy="399.272" r="4" fill="#0" id="circle237"/>
	<circle cx="900.524" cy="389.725" r="4" fill="#0" id="circle238"/>
	<circle cx="905.297" cy="161.536" r="4" fill="#0" id="circle239"/>
	<circle cx="905.297" cy="380.177" r="4" fill="#0" id="circle240"/>
	<circle cx="910.071" cy="370.629" r="4" fill="#0" id="circle241"/>
	<circle cx="911.981" cy="353.444" r="4" fill="#0" id="circle242"/>
	<circle cx="914.845" cy="161.536" r="4" fill="#0" id="circle243"/>
	<circle cx="919.619" cy="346.76" r="4" fill="#0" id="circle244"/>
	<circle cx="924.393" cy="161.536" r="4" fill="#0" id="circle245"/>
	<circle cx="929.167" cy="341.987" r="4" fill="#0" id="circle246"/>
	<circle cx="933.94" cy="161.536" r="4" fill="#0" id="circle247"/>
	<circle cx="935.85" cy="334.348" r="4" fill="#0" id="circle248"/>
	<circle cx="943.488" cy="161.536" r="4" fill="#0" id="circle249"/>
	<circle cx="944.443" cy="329.575" r="4" fill="#0" id="circle250"/>
	<circle cx="952.081" cy="323.846" r="4" fill="#0" id="circle251"/>
	<circle cx="953.036" cy="161.536" r="4" fill="#0" id="circle252"/>
	<circle cx="959.719" cy="310.479" r="4" fill="#0" id="circle253"/>
	<circle cx="962.583" cy="161.536" r="4" fill="#0" id="circle254"/>
	<circle cx="964.493" cy="300.932" r="4" fill="#0" id="circle255"/>
	<circle cx="969.267" cy="291.384" r="4" fill="#0" id="circle256"/>
	<circle cx="971.176" cy="166.31" r="4" fill="#0" id="circle257"/>
	<circle cx="974.04" cy="281.836" r="4" fill="#0" id="circle258"/>
	<circle cx="978.814" cy="267.515" r="4" fill="#0" id="circle259"/>
	<circle cx="979.769" cy="171.084" r="4" fill="#0" id="circle260"/>
	<circle cx="983.588" cy="248.42" r="4" fill="#0" id="circle261"/>
	<circle cx="983.588" cy="257.967" r="4" fill="#0" id="circle262"/>
	<circle cx="988.362" cy="175.858" r="4" fill="#0" id="circle263"/>
	<circle cx="991.226" cy="241.736" r="4" fill="#0" id="circle264"/>
	<circle cx="993.136" cy="184.45" r="4" fill="#0" id="circle265"/>
	<circle cx="993.136" cy="193.998" r="4" fill="#0" id="circle266"/>
	<circle cx="993.136" cy="203.546" r="4" fill="#0" id="circle267"/>
	<circle cx="993.136" cy="213.093" r="4" fill="#0" id="circle268"/>
	<circle cx="993.136" cy="222.641" r="4" fill="#0" id="circle269"/>
	<circle cx="996" cy="232.189" r="4" fill="#0" id="circle270"/>
	</g>
</svg>