<?xml version="1.0" encoding="UTF-8" standalone="no"?>
<!-- Created with CurveBenchmark -->
<svg
	xmlns:dc="http://purl.org/dc/elements/1.1/"
	xmlns:cc="http://creativecommons.org/ns#"
	xmlns:rdf="http://www.w3.org/1999/02/22-rdf-syntax-ns#"
	xmlns:svg="http://www.w3.org/2000/svg"
	xmlns="http://www.w3.org/2000/svg"
	xmlns:sodipodi="http://sodipodi.sourceforge.net/DTD/sodipodi-0.dtd"
	xmlns:inkscape="http://www.inkscape.org/namespaces/inkscape"
	width="1000"
	height="1000"
	id="svg2"
	version="1.1"
	sodipodi:docname="manifold/peel-ray06.png.txt">
<defs
	id="defs4" />
<metadata
	id="metadata7">
	<rdf:RDF>
		<cc:Work
			rdf:about="">
			<dc:format>image/svg+xml</dc:format>
			<dc:type
				rdf:resource="http://purl.org/dc/dcmitype/StillImage" />
			<dc:title></dc:title>
		</cc:Work>
	</rdf:RDF>
</metadata>
<g
	inkscape:label="Layer 1"
	inkscape:groupmode="layer"
	id="layer1">
	<path style="fill:none;stroke:red;stroke-width:1px;stroke-linecap:butt;stroke-linejoin:miter;stroke-opacity:1" d="M 11.7379,409.466 4,395.538 z" id="boundary" inkscape:connector-curvature="0" />
	<path style="fill:none;stroke:red;stroke-width:1px;stroke-linecap:butt;stroke-linejoin:miter;stroke-opacity:1" d="M 4,395.538 4,380.062 z" id="boundary" inkscape:connector-curvature="0" />
	<path style="fill:none;stroke:red;stroke-width:1px;stroke-linecap:butt;stroke-linejoin:miter;stroke-opacity:1" d="M 4,380.062 11.7379,364.587 z" id="boundary" inkscape:connector-curvature="0" />
	<path style="fill:none;stroke:red;stroke-width:1px;stroke-linecap:butt;stroke-linejoin:miter;stroke-opacity:1" d="M 24.1186,352.206 11.7379,364.587 z" id="boundary" inkscape:connector-curvature="0" />
	<path style="fill:none;stroke:red;stroke-width:1px;stroke-linecap:butt;stroke-linejoin:miter;stroke-opacity:1" d="M 11.7379,409.466 19.4758,423.395 z" id="boundary" inkscape:connector-curvature="0" />
	<path style="fill:none;stroke:red;stroke-width:1px;stroke-linecap:butt;stroke-linejoin:miter;stroke-opacity:1" d="M 24.1186,438.871 19.4758,423.395 z" id="boundary" inkscape:connector-curvature="0" />
	<path style="fill:none;stroke:red;stroke-width:1px;stroke-linecap:butt;stroke-linejoin:miter;stroke-opacity:1" d="M 36.4992,339.825 24.1186,352.206 z" id="boundary" inkscape:connector-curvature="0" />
	<path style="fill:none;stroke:red;stroke-width:1px;stroke-linecap:butt;stroke-linejoin:miter;stroke-opacity:1" d="M 36.4992,449.704 24.1186,438.871 z" id="boundary" inkscape:connector-curvature="0" />
	<path style="fill:none;stroke:red;stroke-width:1px;stroke-linecap:butt;stroke-linejoin:miter;stroke-opacity:1" d="M 48.8799,328.992 62.8081,321.254 z" id="boundary" inkscape:connector-curvature="0" />
	<path style="fill:none;stroke:red;stroke-width:1px;stroke-linecap:butt;stroke-linejoin:miter;stroke-opacity:1" d="M 48.8799,328.992 36.4992,339.825 z" id="boundary" inkscape:connector-curvature="0" />
	<path style="fill:none;stroke:red;stroke-width:1px;stroke-linecap:butt;stroke-linejoin:miter;stroke-opacity:1" d="M 47.3323,462.084 36.4992,449.704 z" id="boundary" inkscape:connector-curvature="0" />
	<path style="fill:none;stroke:red;stroke-width:1px;stroke-linecap:butt;stroke-linejoin:miter;stroke-opacity:1" d="M 58.1654,474.465 65.9033,488.393 z" id="boundary" inkscape:connector-curvature="0" />
	<path style="fill:none;stroke:red;stroke-width:1px;stroke-linecap:butt;stroke-linejoin:miter;stroke-opacity:1" d="M 58.1654,474.465 47.3323,462.084 z" id="boundary" inkscape:connector-curvature="0" />
	<path style="fill:none;stroke:red;stroke-width:1px;stroke-linecap:butt;stroke-linejoin:miter;stroke-opacity:1" d="M 282.565,124.711 273.279,143.282 z" id="boundary" inkscape:connector-curvature="0" />
	<path style="fill:none;stroke:red;stroke-width:1px;stroke-linecap:butt;stroke-linejoin:miter;stroke-opacity:1" d="M 273.279,143.282 260.899,154.115 z" id="boundary" inkscape:connector-curvature="0" />
	<path style="fill:none;stroke:red;stroke-width:1px;stroke-linecap:butt;stroke-linejoin:miter;stroke-opacity:1" d="M 75.1888,308.874 62.8081,321.254 z" id="boundary" inkscape:connector-curvature="0" />
	<path style="fill:none;stroke:red;stroke-width:1px;stroke-linecap:butt;stroke-linejoin:miter;stroke-opacity:1" d="M 75.1888,308.874 87.5694,298.041 z" id="boundary" inkscape:connector-curvature="0" />
	<path style="fill:none;stroke:red;stroke-width:1px;stroke-linecap:butt;stroke-linejoin:miter;stroke-opacity:1" d="M 87.5694,298.041 101.498,290.303 z" id="boundary" inkscape:connector-curvature="0" />
	<path style="fill:none;stroke:red;stroke-width:1px;stroke-linecap:butt;stroke-linejoin:miter;stroke-opacity:1" d="M 78.2839,499.226 65.9033,488.393 z" id="boundary" inkscape:connector-curvature="0" />
	<path style="fill:none;stroke:red;stroke-width:1px;stroke-linecap:butt;stroke-linejoin:miter;stroke-opacity:1" d="M 89.117,511.607 78.2839,499.226 z" id="boundary" inkscape:connector-curvature="0" />
	<path style="fill:none;stroke:red;stroke-width:1px;stroke-linecap:butt;stroke-linejoin:miter;stroke-opacity:1" d="M 101.498,290.303 116.973,282.565 z" id="boundary" inkscape:connector-curvature="0" />
	<path style="fill:none;stroke:red;stroke-width:1px;stroke-linecap:butt;stroke-linejoin:miter;stroke-opacity:1" d="M 211.376,220.661 198.995,231.495 z" id="boundary" inkscape:connector-curvature="0" />
	<path style="fill:none;stroke:red;stroke-width:1px;stroke-linecap:butt;stroke-linejoin:miter;stroke-opacity:1" d="M 101.498,522.44 89.117,511.607 z" id="boundary" inkscape:connector-curvature="0" />
	<path style="fill:none;stroke:red;stroke-width:1px;stroke-linecap:butt;stroke-linejoin:miter;stroke-opacity:1" d="M 116.973,282.565 132.449,274.827 z" id="boundary" inkscape:connector-curvature="0" />
	<path style="fill:none;stroke:red;stroke-width:1px;stroke-linecap:butt;stroke-linejoin:miter;stroke-opacity:1" d="M 112.331,534.821 101.498,522.44 z" id="boundary" inkscape:connector-curvature="0" />
	<path style="fill:none;stroke:red;stroke-width:1px;stroke-linecap:butt;stroke-linejoin:miter;stroke-opacity:1" d="M 198.995,231.495 188.162,243.875 z" id="boundary" inkscape:connector-curvature="0" />
	<path style="fill:none;stroke:red;stroke-width:1px;stroke-linecap:butt;stroke-linejoin:miter;stroke-opacity:1" d="M 188.162,243.875 174.234,251.613 z" id="boundary" inkscape:connector-curvature="0" />
	<path style="fill:none;stroke:red;stroke-width:1px;stroke-linecap:butt;stroke-linejoin:miter;stroke-opacity:1" d="M 124.711,545.654 112.331,534.821 z" id="boundary" inkscape:connector-curvature="0" />
	<path style="fill:none;stroke:red;stroke-width:1px;stroke-linecap:butt;stroke-linejoin:miter;stroke-opacity:1" d="M 132.449,274.827 146.378,267.089 z" id="boundary" inkscape:connector-curvature="0" />
	<path style="fill:none;stroke:red;stroke-width:1px;stroke-linecap:butt;stroke-linejoin:miter;stroke-opacity:1" d="M 135.544,558.034 124.711,545.654 z" id="boundary" inkscape:connector-curvature="0" />
	<path style="fill:none;stroke:red;stroke-width:1px;stroke-linecap:butt;stroke-linejoin:miter;stroke-opacity:1" d="M 151.02,562.677 135.544,558.034 z" id="boundary" inkscape:connector-curvature="0" />
	<path style="fill:none;stroke:red;stroke-width:1px;stroke-linecap:butt;stroke-linejoin:miter;stroke-opacity:1" d="M 160.306,259.351 146.378,267.089 z" id="boundary" inkscape:connector-curvature="0" />
	<path style="fill:none;stroke:red;stroke-width:1px;stroke-linecap:butt;stroke-linejoin:miter;stroke-opacity:1" d="M 160.306,575.058 151.02,562.677 z" id="boundary" inkscape:connector-curvature="0" />
	<path style="fill:none;stroke:red;stroke-width:1px;stroke-linecap:butt;stroke-linejoin:miter;stroke-opacity:1" d="M 172.686,585.891 160.306,575.058 z" id="boundary" inkscape:connector-curvature="0" />
	<path style="fill:none;stroke:red;stroke-width:1px;stroke-linecap:butt;stroke-linejoin:miter;stroke-opacity:1" d="M 160.306,259.351 174.234,251.613 z" id="boundary" inkscape:connector-curvature="0" />
	<path style="fill:none;stroke:red;stroke-width:1px;stroke-linecap:butt;stroke-linejoin:miter;stroke-opacity:1" d="M 172.686,585.891 183.52,598.271 z" id="boundary" inkscape:connector-curvature="0" />
	<path style="fill:none;stroke:red;stroke-width:1px;stroke-linecap:butt;stroke-linejoin:miter;stroke-opacity:1" d="M 233.042,640.056 245.423,650.889 z" id="boundary" inkscape:connector-curvature="0" />
	<path style="fill:none;stroke:red;stroke-width:1px;stroke-linecap:butt;stroke-linejoin:miter;stroke-opacity:1" d="M 245.423,650.889 256.256,663.27 z" id="boundary" inkscape:connector-curvature="0" />
	<path style="fill:none;stroke:red;stroke-width:1px;stroke-linecap:butt;stroke-linejoin:miter;stroke-opacity:1" d="M 198.995,604.462 183.52,598.271 z" id="boundary" inkscape:connector-curvature="0" />
	<path style="fill:none;stroke:red;stroke-width:1px;stroke-linecap:butt;stroke-linejoin:miter;stroke-opacity:1" d="M 209.828,616.842 198.995,604.462 z" id="boundary" inkscape:connector-curvature="0" />
	<path style="fill:none;stroke:red;stroke-width:1px;stroke-linecap:butt;stroke-linejoin:miter;stroke-opacity:1" d="M 222.209,627.676 233.042,640.056 z" id="boundary" inkscape:connector-curvature="0" />
	<path style="fill:none;stroke:red;stroke-width:1px;stroke-linecap:butt;stroke-linejoin:miter;stroke-opacity:1" d="M 222.209,627.676 209.828,616.842 z" id="boundary" inkscape:connector-curvature="0" />
	<path style="fill:none;stroke:red;stroke-width:1px;stroke-linecap:butt;stroke-linejoin:miter;stroke-opacity:1" d="M 222.209,208.281 211.376,220.661 z" id="boundary" inkscape:connector-curvature="0" />
	<path style="fill:none;stroke:red;stroke-width:1px;stroke-linecap:butt;stroke-linejoin:miter;stroke-opacity:1" d="M 229.947,192.805 222.209,208.281 z" id="boundary" inkscape:connector-curvature="0" />
	<path style="fill:none;stroke:red;stroke-width:1px;stroke-linecap:butt;stroke-linejoin:miter;stroke-opacity:1" d="M 237.685,177.329 250.066,166.496 z" id="boundary" inkscape:connector-curvature="0" />
	<path style="fill:none;stroke:red;stroke-width:1px;stroke-linecap:butt;stroke-linejoin:miter;stroke-opacity:1" d="M 237.685,177.329 229.947,192.805 z" id="boundary" inkscape:connector-curvature="0" />
	<path style="fill:none;stroke:red;stroke-width:1px;stroke-linecap:butt;stroke-linejoin:miter;stroke-opacity:1" d="M 250.066,166.496 260.899,154.115 z" id="boundary" inkscape:connector-curvature="0" />
	<path style="fill:none;stroke:red;stroke-width:1px;stroke-linecap:butt;stroke-linejoin:miter;stroke-opacity:1" d="M 256.256,663.27 270.184,671.008 z" id="boundary" inkscape:connector-curvature="0" />
	<path style="fill:none;stroke:red;stroke-width:1px;stroke-linecap:butt;stroke-linejoin:miter;stroke-opacity:1" d="M 284.112,678.746 270.184,671.008 z" id="boundary" inkscape:connector-curvature="0" />
	<path style="fill:none;stroke:red;stroke-width:1px;stroke-linecap:butt;stroke-linejoin:miter;stroke-opacity:1" d="M 282.565,124.711 294.945,112.331 z" id="boundary" inkscape:connector-curvature="0" />
	<path style="fill:none;stroke:red;stroke-width:1px;stroke-linecap:butt;stroke-linejoin:miter;stroke-opacity:1" d="M 294.945,112.331 307.326,99.9501 z" id="boundary" inkscape:connector-curvature="0" />
	<path style="fill:none;stroke:red;stroke-width:1px;stroke-linecap:butt;stroke-linejoin:miter;stroke-opacity:1" d="M 305.778,712.793 305.778,728.268 z" id="boundary" inkscape:connector-curvature="0" />
	<path style="fill:none;stroke:red;stroke-width:1px;stroke-linecap:butt;stroke-linejoin:miter;stroke-opacity:1" d="M 299.588,678.746 284.112,678.746 z" id="boundary" inkscape:connector-curvature="0" />
	<path style="fill:none;stroke:red;stroke-width:1px;stroke-linecap:butt;stroke-linejoin:miter;stroke-opacity:1" d="M 307.326,99.9501 319.707,89.117 z" id="boundary" inkscape:connector-curvature="0" />
	<path style="fill:none;stroke:red;stroke-width:1px;stroke-linecap:butt;stroke-linejoin:miter;stroke-opacity:1" d="M 319.707,89.117 333.635,81.3791 z" id="boundary" inkscape:connector-curvature="0" />
	<path style="fill:none;stroke:red;stroke-width:1px;stroke-linecap:butt;stroke-linejoin:miter;stroke-opacity:1" d="M 305.778,728.268 315.064,740.649 z" id="boundary" inkscape:connector-curvature="0" />
	<path style="fill:none;stroke:red;stroke-width:1px;stroke-linecap:butt;stroke-linejoin:miter;stroke-opacity:1" d="M 313.516,697.317 305.778,712.793 z" id="boundary" inkscape:connector-curvature="0" />
	<path style="fill:none;stroke:red;stroke-width:1px;stroke-linecap:butt;stroke-linejoin:miter;stroke-opacity:1" d="M 299.588,678.746 315.064,671.008 z" id="boundary" inkscape:connector-curvature="0" />
	<path style="fill:none;stroke:red;stroke-width:1px;stroke-linecap:butt;stroke-linejoin:miter;stroke-opacity:1" d="M 325.897,684.936 313.516,697.317 z" id="boundary" inkscape:connector-curvature="0" />
	<path style="fill:none;stroke:red;stroke-width:1px;stroke-linecap:butt;stroke-linejoin:miter;stroke-opacity:1" d="M 333.635,81.3791 349.111,73.6412 z" id="boundary" inkscape:connector-curvature="0" />
	<path style="fill:none;stroke:red;stroke-width:1px;stroke-linecap:butt;stroke-linejoin:miter;stroke-opacity:1" d="M 325.897,684.936 333.635,671.008 z" id="boundary" inkscape:connector-curvature="0" />
	<path style="fill:none;stroke:red;stroke-width:1px;stroke-linecap:butt;stroke-linejoin:miter;stroke-opacity:1" d="M 403.276,794.814 415.657,805.647 z" id="boundary" inkscape:connector-curvature="0" />
	<path style="fill:none;stroke:red;stroke-width:1px;stroke-linecap:butt;stroke-linejoin:miter;stroke-opacity:1" d="M 349.111,73.6412 363.039,65.9033 z" id="boundary" inkscape:connector-curvature="0" />
	<path style="fill:none;stroke:red;stroke-width:1px;stroke-linecap:butt;stroke-linejoin:miter;stroke-opacity:1" d="M 341.373,739.101 328.992,748.387 z" id="boundary" inkscape:connector-curvature="0" />
	<path style="fill:none;stroke:red;stroke-width:1px;stroke-linecap:butt;stroke-linejoin:miter;stroke-opacity:1" d="M 328.992,748.387 315.064,740.649 z" id="boundary" inkscape:connector-curvature="0" />
	<path style="fill:none;stroke:red;stroke-width:1px;stroke-linecap:butt;stroke-linejoin:miter;stroke-opacity:1" d="M 392.443,53.5226 376.967,58.1654 z" id="boundary" inkscape:connector-curvature="0" />
	<path style="fill:none;stroke:red;stroke-width:1px;stroke-linecap:butt;stroke-linejoin:miter;stroke-opacity:1" d="M 376.967,58.1654 363.039,65.9033 z" id="boundary" inkscape:connector-curvature="0" />
	<path style="fill:none;stroke:red;stroke-width:1px;stroke-linecap:butt;stroke-linejoin:miter;stroke-opacity:1" d="M 375.42,740.649 375.42,756.125 z" id="boundary" inkscape:connector-curvature="0" />
	<path style="fill:none;stroke:red;stroke-width:1px;stroke-linecap:butt;stroke-linejoin:miter;stroke-opacity:1" d="M 356.849,731.363 341.373,739.101 z" id="boundary" inkscape:connector-curvature="0" />
	<path style="fill:none;stroke:red;stroke-width:1px;stroke-linecap:butt;stroke-linejoin:miter;stroke-opacity:1" d="M 584.343,65.9033 598.271,73.6412 z" id="boundary" inkscape:connector-curvature="0" />
	<path style="fill:none;stroke:red;stroke-width:1px;stroke-linecap:butt;stroke-linejoin:miter;stroke-opacity:1" d="M 372.324,725.173 375.42,740.649 z" id="boundary" inkscape:connector-curvature="0" />
	<path style="fill:none;stroke:red;stroke-width:1px;stroke-linecap:butt;stroke-linejoin:miter;stroke-opacity:1" d="M 372.324,725.173 356.849,731.363 z" id="boundary" inkscape:connector-curvature="0" />
	<path style="fill:none;stroke:red;stroke-width:1px;stroke-linecap:butt;stroke-linejoin:miter;stroke-opacity:1" d="M 528.63,34.9516 542.559,42.6895 z" id="boundary" inkscape:connector-curvature="0" />
	<path style="fill:none;stroke:red;stroke-width:1px;stroke-linecap:butt;stroke-linejoin:miter;stroke-opacity:1" d="M 423.395,42.6895 407.919,45.7847 z" id="boundary" inkscape:connector-curvature="0" />
	<path style="fill:none;stroke:red;stroke-width:1px;stroke-linecap:butt;stroke-linejoin:miter;stroke-opacity:1" d="M 407.919,45.7847 392.443,53.5226 z" id="boundary" inkscape:connector-curvature="0" />
	<path style="fill:none;stroke:red;stroke-width:1px;stroke-linecap:butt;stroke-linejoin:miter;stroke-opacity:1" d="M 383.158,770.053 375.42,756.125 z" id="boundary" inkscape:connector-curvature="0" />
	<path style="fill:none;stroke:red;stroke-width:1px;stroke-linecap:butt;stroke-linejoin:miter;stroke-opacity:1" d="M 437.323,31.8565 423.395,42.6895 z" id="boundary" inkscape:connector-curvature="0" />
	<path style="fill:none;stroke:red;stroke-width:1px;stroke-linecap:butt;stroke-linejoin:miter;stroke-opacity:1" d="M 392.443,782.434 383.158,770.053 z" id="boundary" inkscape:connector-curvature="0" />
	<path style="fill:none;stroke:red;stroke-width:1px;stroke-linecap:butt;stroke-linejoin:miter;stroke-opacity:1" d="M 403.276,794.814 392.443,782.434 z" id="boundary" inkscape:connector-curvature="0" />
	<path style="fill:none;stroke:red;stroke-width:1px;stroke-linecap:butt;stroke-linejoin:miter;stroke-opacity:1" d="M 505.417,13.2855 516.25,25.6661 z" id="boundary" inkscape:connector-curvature="0" />
	<path style="fill:none;stroke:red;stroke-width:1px;stroke-linecap:butt;stroke-linejoin:miter;stroke-opacity:1" d="M 460.537,850.527 468.275,864.456 z" id="boundary" inkscape:connector-curvature="0" />
	<path style="fill:none;stroke:red;stroke-width:1px;stroke-linecap:butt;stroke-linejoin:miter;stroke-opacity:1" d="M 449.704,19.4758 437.323,31.8565 z" id="boundary" inkscape:connector-curvature="0" />
	<path style="fill:none;stroke:red;stroke-width:1px;stroke-linecap:butt;stroke-linejoin:miter;stroke-opacity:1" d="M 431.133,802.552 415.657,805.647 z" id="boundary" inkscape:connector-curvature="0" />
	<path style="fill:none;stroke:red;stroke-width:1px;stroke-linecap:butt;stroke-linejoin:miter;stroke-opacity:1" d="M 446.608,805.647 452.799,821.123 z" id="boundary" inkscape:connector-curvature="0" />
	<path style="fill:none;stroke:red;stroke-width:1px;stroke-linecap:butt;stroke-linejoin:miter;stroke-opacity:1" d="M 446.608,805.647 431.133,802.552 z" id="boundary" inkscape:connector-curvature="0" />
	<path style="fill:none;stroke:red;stroke-width:1px;stroke-linecap:butt;stroke-linejoin:miter;stroke-opacity:1" d="M 438.871,771.601 438.871,787.076 z" id="boundary" inkscape:connector-curvature="0" />
	<path style="fill:none;stroke:red;stroke-width:1px;stroke-linecap:butt;stroke-linejoin:miter;stroke-opacity:1" d="M 449.704,19.4758 462.084,7.09516 z" id="boundary" inkscape:connector-curvature="0" />
	<path style="fill:none;stroke:red;stroke-width:1px;stroke-linecap:butt;stroke-linejoin:miter;stroke-opacity:1" d="M 462.084,7.09516 477.56,4 z" id="boundary" inkscape:connector-curvature="0" />
	<path style="fill:none;stroke:red;stroke-width:1px;stroke-linecap:butt;stroke-linejoin:miter;stroke-opacity:1" d="M 493.036,4 505.417,13.2855 z" id="boundary" inkscape:connector-curvature="0" />
	<path style="fill:none;stroke:red;stroke-width:1px;stroke-linecap:butt;stroke-linejoin:miter;stroke-opacity:1" d="M 493.036,4 477.56,4 z" id="boundary" inkscape:connector-curvature="0" />
	<path style="fill:none;stroke:red;stroke-width:1px;stroke-linecap:butt;stroke-linejoin:miter;stroke-opacity:1" d="M 460.537,835.051 460.537,850.527 z" id="boundary" inkscape:connector-curvature="0" />
	<path style="fill:none;stroke:red;stroke-width:1px;stroke-linecap:butt;stroke-linejoin:miter;stroke-opacity:1" d="M 460.537,835.051 452.799,821.123 z" id="boundary" inkscape:connector-curvature="0" />
	<path style="fill:none;stroke:red;stroke-width:1px;stroke-linecap:butt;stroke-linejoin:miter;stroke-opacity:1" d="M 468.275,864.456 476.012,878.384 z" id="boundary" inkscape:connector-curvature="0" />
	<path style="fill:none;stroke:red;stroke-width:1px;stroke-linecap:butt;stroke-linejoin:miter;stroke-opacity:1" d="M 516.25,25.6661 528.63,34.9516 z" id="boundary" inkscape:connector-curvature="0" />
	<path style="fill:none;stroke:red;stroke-width:1px;stroke-linecap:butt;stroke-linejoin:miter;stroke-opacity:1" d="M 508.512,810.29 508.512,794.814 z" id="boundary" inkscape:connector-curvature="0" />
	<path style="fill:none;stroke:red;stroke-width:1px;stroke-linecap:butt;stroke-linejoin:miter;stroke-opacity:1" d="M 485.298,890.764 476.012,878.384 z" id="boundary" inkscape:connector-curvature="0" />
	<path style="fill:none;stroke:red;stroke-width:1px;stroke-linecap:butt;stroke-linejoin:miter;stroke-opacity:1" d="M 542.559,42.6895 556.487,50.4275 z" id="boundary" inkscape:connector-curvature="0" />
	<path style="fill:none;stroke:red;stroke-width:1px;stroke-linecap:butt;stroke-linejoin:miter;stroke-opacity:1" d="M 496.131,903.145 485.298,890.764 z" id="boundary" inkscape:connector-curvature="0" />
	<path style="fill:none;stroke:red;stroke-width:1px;stroke-linecap:butt;stroke-linejoin:miter;stroke-opacity:1" d="M 593.629,647.794 593.629,632.318 z" id="boundary" inkscape:connector-curvature="0" />
	<path style="fill:none;stroke:red;stroke-width:1px;stroke-linecap:butt;stroke-linejoin:miter;stroke-opacity:1" d="M 523.988,838.147 523.988,853.622 z" id="boundary" inkscape:connector-curvature="0" />
	<path style="fill:none;stroke:red;stroke-width:1px;stroke-linecap:butt;stroke-linejoin:miter;stroke-opacity:1" d="M 523.988,838.147 516.25,824.218 z" id="boundary" inkscape:connector-curvature="0" />
	<path style="fill:none;stroke:red;stroke-width:1px;stroke-linecap:butt;stroke-linejoin:miter;stroke-opacity:1" d="M 570.415,58.1654 584.343,65.9033 z" id="boundary" inkscape:connector-curvature="0" />
	<path style="fill:none;stroke:red;stroke-width:1px;stroke-linecap:butt;stroke-linejoin:miter;stroke-opacity:1" d="M 556.487,50.4275 570.415,58.1654 z" id="boundary" inkscape:connector-curvature="0" />
	<path style="fill:none;stroke:red;stroke-width:1px;stroke-linecap:butt;stroke-linejoin:miter;stroke-opacity:1" d="M 508.512,810.29 523.988,810.29 z" id="boundary" inkscape:connector-curvature="0" />
	<path style="fill:none;stroke:red;stroke-width:1px;stroke-linecap:butt;stroke-linejoin:miter;stroke-opacity:1" d="M 514.702,929.454 508.512,913.978 z" id="boundary" inkscape:connector-curvature="0" />
	<path style="fill:none;stroke:red;stroke-width:1px;stroke-linecap:butt;stroke-linejoin:miter;stroke-opacity:1" d="M 508.512,913.978 496.131,903.145 z" id="boundary" inkscape:connector-curvature="0" />
	<path style="fill:none;stroke:red;stroke-width:1px;stroke-linecap:butt;stroke-linejoin:miter;stroke-opacity:1" d="M 531.725,867.551 523.988,853.622 z" id="boundary" inkscape:connector-curvature="0" />
	<path style="fill:none;stroke:red;stroke-width:1px;stroke-linecap:butt;stroke-linejoin:miter;stroke-opacity:1" d="M 523.988,810.29 539.463,810.29 z" id="boundary" inkscape:connector-curvature="0" />
	<path style="fill:none;stroke:red;stroke-width:1px;stroke-linecap:butt;stroke-linejoin:miter;stroke-opacity:1" d="M 539.463,794.814 539.463,779.339 z" id="boundary" inkscape:connector-curvature="0" />
	<path style="fill:none;stroke:red;stroke-width:1px;stroke-linecap:butt;stroke-linejoin:miter;stroke-opacity:1" d="M 542.559,879.931 554.939,890.764 z" id="boundary" inkscape:connector-curvature="0" />
	<path style="fill:none;stroke:red;stroke-width:1px;stroke-linecap:butt;stroke-linejoin:miter;stroke-opacity:1" d="M 531.725,867.551 542.559,879.931 z" id="boundary" inkscape:connector-curvature="0" />
	<path style="fill:none;stroke:red;stroke-width:1px;stroke-linecap:butt;stroke-linejoin:miter;stroke-opacity:1" d="M 539.463,810.29 539.463,794.814 z" id="boundary" inkscape:connector-curvature="0" />
	<path style="fill:none;stroke:red;stroke-width:1px;stroke-linecap:butt;stroke-linejoin:miter;stroke-opacity:1" d="M 514.702,929.454 527.083,940.287 z" id="boundary" inkscape:connector-curvature="0" />
	<path style="fill:none;stroke:red;stroke-width:1px;stroke-linecap:butt;stroke-linejoin:miter;stroke-opacity:1" d="M 554.939,890.764 565.772,903.145 z" id="boundary" inkscape:connector-curvature="0" />
	<path style="fill:none;stroke:red;stroke-width:1px;stroke-linecap:butt;stroke-linejoin:miter;stroke-opacity:1" d="M 539.463,949.573 527.083,940.287 z" id="boundary" inkscape:connector-curvature="0" />
	<path style="fill:none;stroke:red;stroke-width:1px;stroke-linecap:butt;stroke-linejoin:miter;stroke-opacity:1" d="M 554.939,787.076 570.415,771.601 z" id="boundary" inkscape:connector-curvature="0" />
	<path style="fill:none;stroke:red;stroke-width:1px;stroke-linecap:butt;stroke-linejoin:miter;stroke-opacity:1" d="M 568.867,960.406 554.939,952.668 z" id="boundary" inkscape:connector-curvature="0" />
	<path style="fill:none;stroke:red;stroke-width:1px;stroke-linecap:butt;stroke-linejoin:miter;stroke-opacity:1" d="M 554.939,952.668 539.463,949.573 z" id="boundary" inkscape:connector-curvature="0" />
	<path style="fill:none;stroke:red;stroke-width:1px;stroke-linecap:butt;stroke-linejoin:miter;stroke-opacity:1" d="M 581.248,909.335 565.772,903.145 z" id="boundary" inkscape:connector-curvature="0" />
	<path style="fill:none;stroke:red;stroke-width:1px;stroke-linecap:butt;stroke-linejoin:miter;stroke-opacity:1" d="M 581.248,971.239 568.867,960.406 z" id="boundary" inkscape:connector-curvature="0" />
	<path style="fill:none;stroke:red;stroke-width:1px;stroke-linecap:butt;stroke-linejoin:miter;stroke-opacity:1" d="M 570.415,771.601 578.153,748.387 z" id="boundary" inkscape:connector-curvature="0" />
	<path style="fill:none;stroke:red;stroke-width:1px;stroke-linecap:butt;stroke-linejoin:miter;stroke-opacity:1" d="M 578.153,732.911 578.153,748.387 z" id="boundary" inkscape:connector-curvature="0" />
	<path style="fill:none;stroke:red;stroke-width:1px;stroke-linecap:butt;stroke-linejoin:miter;stroke-opacity:1" d="M 613.747,732.911 599.819,725.173 z" id="boundary" inkscape:connector-curvature="0" />
	<path style="fill:none;stroke:red;stroke-width:1px;stroke-linecap:butt;stroke-linejoin:miter;stroke-opacity:1" d="M 578.153,732.911 585.891,717.435 z" id="boundary" inkscape:connector-curvature="0" />
	<path style="fill:none;stroke:red;stroke-width:1px;stroke-linecap:butt;stroke-linejoin:miter;stroke-opacity:1" d="M 585.891,717.435 599.819,725.173 z" id="boundary" inkscape:connector-curvature="0" />
	<path style="fill:none;stroke:red;stroke-width:1px;stroke-linecap:butt;stroke-linejoin:miter;stroke-opacity:1" d="M 581.248,909.335 592.081,921.716 z" id="boundary" inkscape:connector-curvature="0" />
	<path style="fill:none;stroke:red;stroke-width:1px;stroke-linecap:butt;stroke-linejoin:miter;stroke-opacity:1" d="M 595.176,978.977 581.248,971.239 z" id="boundary" inkscape:connector-curvature="0" />
	<path style="fill:none;stroke:red;stroke-width:1px;stroke-linecap:butt;stroke-linejoin:miter;stroke-opacity:1" d="M 592.081,921.716 607.557,927.906 z" id="boundary" inkscape:connector-curvature="0" />
	<path style="fill:none;stroke:red;stroke-width:1px;stroke-linecap:butt;stroke-linejoin:miter;stroke-opacity:1" d="M 593.629,647.794 601.367,661.722 z" id="boundary" inkscape:connector-curvature="0" />
	<path style="fill:none;stroke:red;stroke-width:1px;stroke-linecap:butt;stroke-linejoin:miter;stroke-opacity:1" d="M 638.509,99.9501 626.128,89.117 z" id="boundary" inkscape:connector-curvature="0" />
	<path style="fill:none;stroke:red;stroke-width:1px;stroke-linecap:butt;stroke-linejoin:miter;stroke-opacity:1" d="M 626.128,89.117 612.2,81.3791 z" id="boundary" inkscape:connector-curvature="0" />
	<path style="fill:none;stroke:red;stroke-width:1px;stroke-linecap:butt;stroke-linejoin:miter;stroke-opacity:1" d="M 613.747,732.911 627.676,740.649 z" id="boundary" inkscape:connector-curvature="0" />
	<path style="fill:none;stroke:red;stroke-width:1px;stroke-linecap:butt;stroke-linejoin:miter;stroke-opacity:1" d="M 638.509,99.9501 647.794,112.331 z" id="boundary" inkscape:connector-curvature="0" />
	<path style="fill:none;stroke:red;stroke-width:1px;stroke-linecap:butt;stroke-linejoin:miter;stroke-opacity:1" d="M 601.367,661.722 613.747,671.008 z" id="boundary" inkscape:connector-curvature="0" />
	<path style="fill:none;stroke:red;stroke-width:1px;stroke-linecap:butt;stroke-linejoin:miter;stroke-opacity:1" d="M 616.842,652.437 607.557,640.056 z" id="boundary" inkscape:connector-curvature="0" />
	<path style="fill:none;stroke:red;stroke-width:1px;stroke-linecap:butt;stroke-linejoin:miter;stroke-opacity:1" d="M 619.938,686.484 613.747,671.008 z" id="boundary" inkscape:connector-curvature="0" />
	<path style="fill:none;stroke:red;stroke-width:1px;stroke-linecap:butt;stroke-linejoin:miter;stroke-opacity:1" d="M 598.271,73.6412 612.2,81.3791 z" id="boundary" inkscape:connector-curvature="0" />
	<path style="fill:none;stroke:red;stroke-width:1px;stroke-linecap:butt;stroke-linejoin:miter;stroke-opacity:1" d="M 623.033,932.549 607.557,927.906 z" id="boundary" inkscape:connector-curvature="0" />
	<path style="fill:none;stroke:red;stroke-width:1px;stroke-linecap:butt;stroke-linejoin:miter;stroke-opacity:1" d="M 660.175,121.616 666.365,137.092 z" id="boundary" inkscape:connector-curvature="0" />
	<path style="fill:none;stroke:red;stroke-width:1px;stroke-linecap:butt;stroke-linejoin:miter;stroke-opacity:1" d="M 660.175,121.616 647.794,112.331 z" id="boundary" inkscape:connector-curvature="0" />
	<path style="fill:none;stroke:red;stroke-width:1px;stroke-linecap:butt;stroke-linejoin:miter;stroke-opacity:1" d="M 632.318,715.888 627.676,700.412 z" id="boundary" inkscape:connector-curvature="0" />
	<path style="fill:none;stroke:red;stroke-width:1px;stroke-linecap:butt;stroke-linejoin:miter;stroke-opacity:1" d="M 616.842,652.437 629.223,663.27 z" id="boundary" inkscape:connector-curvature="0" />
	<path style="fill:none;stroke:red;stroke-width:1px;stroke-linecap:butt;stroke-linejoin:miter;stroke-opacity:1" d="M 627.676,700.412 619.938,686.484 z" id="boundary" inkscape:connector-curvature="0" />
	<path style="fill:none;stroke:red;stroke-width:1px;stroke-linecap:butt;stroke-linejoin:miter;stroke-opacity:1" d="M 610.652,985.167 595.176,978.977 z" id="boundary" inkscape:connector-curvature="0" />
	<path style="fill:none;stroke:red;stroke-width:1px;stroke-linecap:butt;stroke-linejoin:miter;stroke-opacity:1" d="M 636.961,940.287 623.033,932.549 z" id="boundary" inkscape:connector-curvature="0" />
	<path style="fill:none;stroke:red;stroke-width:1px;stroke-linecap:butt;stroke-linejoin:miter;stroke-opacity:1" d="M 629.223,663.27 643.151,671.008 z" id="boundary" inkscape:connector-curvature="0" />
	<path style="fill:none;stroke:red;stroke-width:1px;stroke-linecap:butt;stroke-linejoin:miter;stroke-opacity:1" d="M 627.676,740.649 640.056,729.816 z" id="boundary" inkscape:connector-curvature="0" />
	<path style="fill:none;stroke:red;stroke-width:1px;stroke-linecap:butt;stroke-linejoin:miter;stroke-opacity:1" d="M 640.056,729.816 632.318,715.888 z" id="boundary" inkscape:connector-curvature="0" />
	<path style="fill:none;stroke:red;stroke-width:1px;stroke-linecap:butt;stroke-linejoin:miter;stroke-opacity:1" d="M 643.151,671.008 658.627,677.198 z" id="boundary" inkscape:connector-curvature="0" />
	<path style="fill:none;stroke:red;stroke-width:1px;stroke-linecap:butt;stroke-linejoin:miter;stroke-opacity:1" d="M 626.128,988.262 610.652,985.167 z" id="boundary" inkscape:connector-curvature="0" />
	<path style="fill:none;stroke:red;stroke-width:1px;stroke-linecap:butt;stroke-linejoin:miter;stroke-opacity:1" d="M 641.604,988.262 626.128,988.262 z" id="boundary" inkscape:connector-curvature="0" />
	<path style="fill:none;stroke:red;stroke-width:1px;stroke-linecap:butt;stroke-linejoin:miter;stroke-opacity:1" d="M 652.437,940.287 636.961,940.287 z" id="boundary" inkscape:connector-curvature="0" />
	<path style="fill:none;stroke:red;stroke-width:1px;stroke-linecap:butt;stroke-linejoin:miter;stroke-opacity:1" d="M 658.627,677.198 674.103,677.198 z" id="boundary" inkscape:connector-curvature="0" />
	<path style="fill:none;stroke:red;stroke-width:1px;stroke-linecap:butt;stroke-linejoin:miter;stroke-opacity:1" d="M 657.08,988.262 641.604,988.262 z" id="boundary" inkscape:connector-curvature="0" />
	<path style="fill:none;stroke:red;stroke-width:1px;stroke-linecap:butt;stroke-linejoin:miter;stroke-opacity:1" d="M 689.579,160.306 678.746,147.925 z" id="boundary" inkscape:connector-curvature="0" />
	<path style="fill:none;stroke:red;stroke-width:1px;stroke-linecap:butt;stroke-linejoin:miter;stroke-opacity:1" d="M 678.746,147.925 666.365,137.092 z" id="boundary" inkscape:connector-curvature="0" />
	<path style="fill:none;stroke:red;stroke-width:1px;stroke-linecap:butt;stroke-linejoin:miter;stroke-opacity:1" d="M 667.913,940.287 652.437,940.287 z" id="boundary" inkscape:connector-curvature="0" />
	<path style="fill:none;stroke:red;stroke-width:1px;stroke-linecap:butt;stroke-linejoin:miter;stroke-opacity:1" d="M 674.103,677.198 689.579,669.46 z" id="boundary" inkscape:connector-curvature="0" />
	<path style="fill:none;stroke:red;stroke-width:1px;stroke-linecap:butt;stroke-linejoin:miter;stroke-opacity:1" d="M 672.555,988.262 657.08,988.262 z" id="boundary" inkscape:connector-curvature="0" />
	<path style="fill:none;stroke:red;stroke-width:1px;stroke-linecap:butt;stroke-linejoin:miter;stroke-opacity:1" d="M 667.913,940.287 681.841,932.549 z" id="boundary" inkscape:connector-curvature="0" />
	<path style="fill:none;stroke:red;stroke-width:1px;stroke-linecap:butt;stroke-linejoin:miter;stroke-opacity:1" d="M 686.484,996 672.555,988.262 z" id="boundary" inkscape:connector-curvature="0" />
	<path style="fill:none;stroke:red;stroke-width:1px;stroke-linecap:butt;stroke-linejoin:miter;stroke-opacity:1" d="M 708.15,186.615 701.959,171.139 z" id="boundary" inkscape:connector-curvature="0" />
	<path style="fill:none;stroke:red;stroke-width:1px;stroke-linecap:butt;stroke-linejoin:miter;stroke-opacity:1" d="M 701.959,171.139 689.579,160.306 z" id="boundary" inkscape:connector-curvature="0" />
	<path style="fill:none;stroke:red;stroke-width:1px;stroke-linecap:butt;stroke-linejoin:miter;stroke-opacity:1" d="M 681.841,932.549 695.769,940.287 z" id="boundary" inkscape:connector-curvature="0" />
	<path style="fill:none;stroke:red;stroke-width:1px;stroke-linecap:butt;stroke-linejoin:miter;stroke-opacity:1" d="M 689.579,669.46 705.055,661.722 z" id="boundary" inkscape:connector-curvature="0" />
	<path style="fill:none;stroke:red;stroke-width:1px;stroke-linecap:butt;stroke-linejoin:miter;stroke-opacity:1" d="M 701.959,996 686.484,996 z" id="boundary" inkscape:connector-curvature="0" />
	<path style="fill:none;stroke:red;stroke-width:1px;stroke-linecap:butt;stroke-linejoin:miter;stroke-opacity:1" d="M 695.769,940.287 711.245,940.287 z" id="boundary" inkscape:connector-curvature="0" />
	<path style="fill:none;stroke:red;stroke-width:1px;stroke-linecap:butt;stroke-linejoin:miter;stroke-opacity:1" d="M 739.101,223.757 731.363,209.828 z" id="boundary" inkscape:connector-curvature="0" />
	<path style="fill:none;stroke:red;stroke-width:1px;stroke-linecap:butt;stroke-linejoin:miter;stroke-opacity:1" d="M 731.363,209.828 720.53,197.448 z" id="boundary" inkscape:connector-curvature="0" />
	<path style="fill:none;stroke:red;stroke-width:1px;stroke-linecap:butt;stroke-linejoin:miter;stroke-opacity:1" d="M 717.435,647.794 705.055,661.722 z" id="boundary" inkscape:connector-curvature="0" />
	<path style="fill:none;stroke:red;stroke-width:1px;stroke-linecap:butt;stroke-linejoin:miter;stroke-opacity:1" d="M 717.435,647.794 732.911,640.056 z" id="boundary" inkscape:connector-curvature="0" />
	<path style="fill:none;stroke:red;stroke-width:1px;stroke-linecap:butt;stroke-linejoin:miter;stroke-opacity:1" d="M 717.435,988.262 701.959,996 z" id="boundary" inkscape:connector-curvature="0" />
	<path style="fill:none;stroke:red;stroke-width:1px;stroke-linecap:butt;stroke-linejoin:miter;stroke-opacity:1" d="M 708.15,186.615 720.53,197.448 z" id="boundary" inkscape:connector-curvature="0" />
	<path style="fill:none;stroke:red;stroke-width:1px;stroke-linecap:butt;stroke-linejoin:miter;stroke-opacity:1" d="M 732.911,988.262 717.435,988.262 z" id="boundary" inkscape:connector-curvature="0" />
	<path style="fill:none;stroke:red;stroke-width:1px;stroke-linecap:butt;stroke-linejoin:miter;stroke-opacity:1" d="M 725.173,948.025 711.245,940.287 z" id="boundary" inkscape:connector-curvature="0" />
	<path style="fill:none;stroke:red;stroke-width:1px;stroke-linecap:butt;stroke-linejoin:miter;stroke-opacity:1" d="M 739.101,223.757 748.387,236.137 z" id="boundary" inkscape:connector-curvature="0" />
	<path style="fill:none;stroke:red;stroke-width:1px;stroke-linecap:butt;stroke-linejoin:miter;stroke-opacity:1" d="M 740.649,948.025 725.173,948.025 z" id="boundary" inkscape:connector-curvature="0" />
	<path style="fill:none;stroke:red;stroke-width:1px;stroke-linecap:butt;stroke-linejoin:miter;stroke-opacity:1" d="M 732.911,640.056 745.292,629.223 z" id="boundary" inkscape:connector-curvature="0" />
	<path style="fill:none;stroke:red;stroke-width:1px;stroke-linecap:butt;stroke-linejoin:miter;stroke-opacity:1" d="M 746.839,980.524 732.911,988.262 z" id="boundary" inkscape:connector-curvature="0" />
	<path style="fill:none;stroke:red;stroke-width:1px;stroke-linecap:butt;stroke-linejoin:miter;stroke-opacity:1" d="M 745.292,629.223 756.125,616.842 z" id="boundary" inkscape:connector-curvature="0" />
	<path style="fill:none;stroke:red;stroke-width:1px;stroke-linecap:butt;stroke-linejoin:miter;stroke-opacity:1" d="M 783.981,598.271 768.505,606.009 z" id="boundary" inkscape:connector-curvature="0" />
	<path style="fill:none;stroke:red;stroke-width:1px;stroke-linecap:butt;stroke-linejoin:miter;stroke-opacity:1" d="M 768.505,606.009 756.125,616.842 z" id="boundary" inkscape:connector-curvature="0" />
	<path style="fill:none;stroke:red;stroke-width:1px;stroke-linecap:butt;stroke-linejoin:miter;stroke-opacity:1" d="M 762.315,975.881 746.839,980.524 z" id="boundary" inkscape:connector-curvature="0" />
	<path style="fill:none;stroke:red;stroke-width:1px;stroke-linecap:butt;stroke-linejoin:miter;stroke-opacity:1" d="M 760.768,245.423 748.387,236.137 z" id="boundary" inkscape:connector-curvature="0" />
	<path style="fill:none;stroke:red;stroke-width:1px;stroke-linecap:butt;stroke-linejoin:miter;stroke-opacity:1" d="M 740.649,948.025 756.125,943.382 z" id="boundary" inkscape:connector-curvature="0" />
	<path style="fill:none;stroke:red;stroke-width:1px;stroke-linecap:butt;stroke-linejoin:miter;stroke-opacity:1" d="M 756.125,943.382 771.601,935.644 z" id="boundary" inkscape:connector-curvature="0" />
	<path style="fill:none;stroke:red;stroke-width:1px;stroke-linecap:butt;stroke-linejoin:miter;stroke-opacity:1" d="M 777.791,972.786 793.267,972.786 z" id="boundary" inkscape:connector-curvature="0" />
	<path style="fill:none;stroke:red;stroke-width:1px;stroke-linecap:butt;stroke-linejoin:miter;stroke-opacity:1" d="M 777.791,972.786 762.315,975.881 z" id="boundary" inkscape:connector-curvature="0" />
	<path style="fill:none;stroke:red;stroke-width:1px;stroke-linecap:butt;stroke-linejoin:miter;stroke-opacity:1" d="M 760.768,245.423 774.696,253.161 z" id="boundary" inkscape:connector-curvature="0" />
	<path style="fill:none;stroke:red;stroke-width:1px;stroke-linecap:butt;stroke-linejoin:miter;stroke-opacity:1" d="M 771.601,935.644 783.981,924.811 z" id="boundary" inkscape:connector-curvature="0" />
	<path style="fill:none;stroke:red;stroke-width:1px;stroke-linecap:butt;stroke-linejoin:miter;stroke-opacity:1" d="M 774.696,253.161 790.172,259.351 z" id="boundary" inkscape:connector-curvature="0" />
	<path style="fill:none;stroke:red;stroke-width:1px;stroke-linecap:butt;stroke-linejoin:miter;stroke-opacity:1" d="M 783.981,924.811 799.457,924.811 z" id="boundary" inkscape:connector-curvature="0" />
	<path style="fill:none;stroke:red;stroke-width:1px;stroke-linecap:butt;stroke-linejoin:miter;stroke-opacity:1" d="M 783.981,598.271 794.814,585.891 z" id="boundary" inkscape:connector-curvature="0" />
	<path style="fill:none;stroke:red;stroke-width:1px;stroke-linecap:butt;stroke-linejoin:miter;stroke-opacity:1" d="M 790.172,259.351 804.1,267.089 z" id="boundary" inkscape:connector-curvature="0" />
	<path style="fill:none;stroke:red;stroke-width:1px;stroke-linecap:butt;stroke-linejoin:miter;stroke-opacity:1" d="M 794.814,585.891 807.195,575.058 z" id="boundary" inkscape:connector-curvature="0" />
	<path style="fill:none;stroke:red;stroke-width:1px;stroke-linecap:butt;stroke-linejoin:miter;stroke-opacity:1" d="M 807.195,965.048 793.267,972.786 z" id="boundary" inkscape:connector-curvature="0" />
	<path style="fill:none;stroke:red;stroke-width:1px;stroke-linecap:butt;stroke-linejoin:miter;stroke-opacity:1" d="M 807.195,575.058 818.028,562.677 z" id="boundary" inkscape:connector-curvature="0" />
	<path style="fill:none;stroke:red;stroke-width:1px;stroke-linecap:butt;stroke-linejoin:miter;stroke-opacity:1" d="M 814.933,924.811 799.457,924.811 z" id="boundary" inkscape:connector-curvature="0" />
	<path style="fill:none;stroke:red;stroke-width:1px;stroke-linecap:butt;stroke-linejoin:miter;stroke-opacity:1" d="M 822.671,961.953 807.195,965.048 z" id="boundary" inkscape:connector-curvature="0" />
	<path style="fill:none;stroke:red;stroke-width:1px;stroke-linecap:butt;stroke-linejoin:miter;stroke-opacity:1" d="M 804.1,267.089 818.028,274.827 z" id="boundary" inkscape:connector-curvature="0" />
	<path style="fill:none;stroke:red;stroke-width:1px;stroke-linecap:butt;stroke-linejoin:miter;stroke-opacity:1" d="M 818.028,274.827 830.409,284.112 z" id="boundary" inkscape:connector-curvature="0" />
	<path style="fill:none;stroke:red;stroke-width:1px;stroke-linecap:butt;stroke-linejoin:miter;stroke-opacity:1" d="M 818.028,562.677 830.409,551.844 z" id="boundary" inkscape:connector-curvature="0" />
	<path style="fill:none;stroke:red;stroke-width:1px;stroke-linecap:butt;stroke-linejoin:miter;stroke-opacity:1" d="M 830.409,551.844 845.885,544.106 z" id="boundary" inkscape:connector-curvature="0" />
	<path style="fill:none;stroke:red;stroke-width:1px;stroke-linecap:butt;stroke-linejoin:miter;stroke-opacity:1" d="M 838.147,957.31 822.671,961.953 z" id="boundary" inkscape:connector-curvature="0" />
	<path style="fill:none;stroke:red;stroke-width:1px;stroke-linecap:butt;stroke-linejoin:miter;stroke-opacity:1" d="M 830.409,924.811 814.933,924.811 z" id="boundary" inkscape:connector-curvature="0" />
	<path style="fill:none;stroke:red;stroke-width:1px;stroke-linecap:butt;stroke-linejoin:miter;stroke-opacity:1" d="M 836.599,909.335 830.409,924.811 z" id="boundary" inkscape:connector-curvature="0" />
	<path style="fill:none;stroke:red;stroke-width:1px;stroke-linecap:butt;stroke-linejoin:miter;stroke-opacity:1" d="M 836.599,909.335 850.527,901.598 z" id="boundary" inkscape:connector-curvature="0" />
	<path style="fill:none;stroke:red;stroke-width:1px;stroke-linecap:butt;stroke-linejoin:miter;stroke-opacity:1" d="M 830.409,284.112 844.337,291.85 z" id="boundary" inkscape:connector-curvature="0" />
	<path style="fill:none;stroke:red;stroke-width:1px;stroke-linecap:butt;stroke-linejoin:miter;stroke-opacity:1" d="M 844.337,291.85 856.718,302.683 z" id="boundary" inkscape:connector-curvature="0" />
	<path style="fill:none;stroke:red;stroke-width:1px;stroke-linecap:butt;stroke-linejoin:miter;stroke-opacity:1" d="M 845.885,544.106 856.718,531.725 z" id="boundary" inkscape:connector-curvature="0" />
	<path style="fill:none;stroke:red;stroke-width:1px;stroke-linecap:butt;stroke-linejoin:miter;stroke-opacity:1" d="M 852.075,948.025 838.147,957.31 z" id="boundary" inkscape:connector-curvature="0" />
	<path style="fill:none;stroke:red;stroke-width:1px;stroke-linecap:butt;stroke-linejoin:miter;stroke-opacity:1" d="M 856.718,531.725 869.098,520.892 z" id="boundary" inkscape:connector-curvature="0" />
	<path style="fill:none;stroke:red;stroke-width:1px;stroke-linecap:butt;stroke-linejoin:miter;stroke-opacity:1" d="M 867.551,940.287 852.075,948.025 z" id="boundary" inkscape:connector-curvature="0" />
	<path style="fill:none;stroke:red;stroke-width:1px;stroke-linecap:butt;stroke-linejoin:miter;stroke-opacity:1" d="M 850.527,901.598 864.456,893.86 z" id="boundary" inkscape:connector-curvature="0" />
	<path style="fill:none;stroke:red;stroke-width:1px;stroke-linecap:butt;stroke-linejoin:miter;stroke-opacity:1" d="M 864.456,893.86 878.384,886.122 z" id="boundary" inkscape:connector-curvature="0" />
	<path style="fill:none;stroke:red;stroke-width:1px;stroke-linecap:butt;stroke-linejoin:miter;stroke-opacity:1" d="M 883.027,932.549 867.551,940.287 z" id="boundary" inkscape:connector-curvature="0" />
	<path style="fill:none;stroke:red;stroke-width:1px;stroke-linecap:butt;stroke-linejoin:miter;stroke-opacity:1" d="M 870.646,310.421 856.718,302.683 z" id="boundary" inkscape:connector-curvature="0" />
	<path style="fill:none;stroke:red;stroke-width:1px;stroke-linecap:butt;stroke-linejoin:miter;stroke-opacity:1" d="M 869.098,520.892 879.931,508.512 z" id="boundary" inkscape:connector-curvature="0" />
	<path style="fill:none;stroke:red;stroke-width:1px;stroke-linecap:butt;stroke-linejoin:miter;stroke-opacity:1" d="M 879.931,508.512 892.312,497.679 z" id="boundary" inkscape:connector-curvature="0" />
	<path style="fill:none;stroke:red;stroke-width:1px;stroke-linecap:butt;stroke-linejoin:miter;stroke-opacity:1" d="M 870.646,310.421 886.122,316.612 z" id="boundary" inkscape:connector-curvature="0" />
	<path style="fill:none;stroke:red;stroke-width:1px;stroke-linecap:butt;stroke-linejoin:miter;stroke-opacity:1" d="M 886.122,316.612 895.407,328.992 z" id="boundary" inkscape:connector-curvature="0" />
	<path style="fill:none;stroke:red;stroke-width:1px;stroke-linecap:butt;stroke-linejoin:miter;stroke-opacity:1" d="M 878.384,886.122 892.312,878.384 z" id="boundary" inkscape:connector-curvature="0" />
	<path style="fill:none;stroke:red;stroke-width:1px;stroke-linecap:butt;stroke-linejoin:miter;stroke-opacity:1" d="M 892.312,497.679 900.05,482.203 z" id="boundary" inkscape:connector-curvature="0" />
	<path style="fill:none;stroke:red;stroke-width:1px;stroke-linecap:butt;stroke-linejoin:miter;stroke-opacity:1" d="M 895.407,910.883 883.027,932.549 z" id="boundary" inkscape:connector-curvature="0" />
	<path style="fill:none;stroke:red;stroke-width:1px;stroke-linecap:butt;stroke-linejoin:miter;stroke-opacity:1" d="M 892.312,878.384 906.24,870.646 z" id="boundary" inkscape:connector-curvature="0" />
	<path style="fill:none;stroke:red;stroke-width:1px;stroke-linecap:butt;stroke-linejoin:miter;stroke-opacity:1" d="M 907.788,900.05 895.407,910.883 z" id="boundary" inkscape:connector-curvature="0" />
	<path style="fill:none;stroke:red;stroke-width:1px;stroke-linecap:butt;stroke-linejoin:miter;stroke-opacity:1" d="M 895.407,328.992 907.788,338.278 z" id="boundary" inkscape:connector-curvature="0" />
	<path style="fill:none;stroke:red;stroke-width:1px;stroke-linecap:butt;stroke-linejoin:miter;stroke-opacity:1" d="M 907.788,466.727 900.05,482.203 z" id="boundary" inkscape:connector-curvature="0" />
	<path style="fill:none;stroke:red;stroke-width:1px;stroke-linecap:butt;stroke-linejoin:miter;stroke-opacity:1" d="M 907.788,338.278 918.621,350.658 z" id="boundary" inkscape:connector-curvature="0" />
	<path style="fill:none;stroke:red;stroke-width:1px;stroke-linecap:butt;stroke-linejoin:miter;stroke-opacity:1" d="M 907.788,466.727 918.621,454.346 z" id="boundary" inkscape:connector-curvature="0" />
	<path style="fill:none;stroke:red;stroke-width:1px;stroke-linecap:butt;stroke-linejoin:miter;stroke-opacity:1" d="M 931.002,361.491 918.621,350.658 z" id="boundary" inkscape:connector-curvature="0" />
	<path style="fill:none;stroke:red;stroke-width:1px;stroke-linecap:butt;stroke-linejoin:miter;stroke-opacity:1" d="M 918.621,454.346 926.359,438.871 z" id="boundary" inkscape:connector-curvature="0" />
	<path style="fill:none;stroke:red;stroke-width:1px;stroke-linecap:butt;stroke-linejoin:miter;stroke-opacity:1" d="M 926.359,438.871 934.097,423.395 z" id="boundary" inkscape:connector-curvature="0" />
	<path style="fill:none;stroke:red;stroke-width:1px;stroke-linecap:butt;stroke-linejoin:miter;stroke-opacity:1" d="M 934.097,423.395 946.477,412.562 z" id="boundary" inkscape:connector-curvature="0" />
	<path style="fill:none;stroke:red;stroke-width:1px;stroke-linecap:butt;stroke-linejoin:miter;stroke-opacity:1" d="M 931.002,361.491 937.192,376.967 z" id="boundary" inkscape:connector-curvature="0" />
	<path style="fill:none;stroke:red;stroke-width:1px;stroke-linecap:butt;stroke-linejoin:miter;stroke-opacity:1" d="M 946.477,412.562 944.93,390.895 z" id="boundary" inkscape:connector-curvature="0" />
	<path style="fill:none;stroke:red;stroke-width:1px;stroke-linecap:butt;stroke-linejoin:miter;stroke-opacity:1" d="M 937.192,376.967 944.93,390.895 z" id="boundary" inkscape:connector-curvature="0" />
	<circle cx="4" cy="380.062" r="4" fill="#0" id="circle0"/>
	<circle cx="4" cy="395.538" r="4" fill="#0" id="circle1"/>
	<circle cx="11.7379" cy="364.587" r="4" fill="#0" id="circle2"/>
	<circle cx="11.7379" cy="409.466" r="4" fill="#0" id="circle3"/>
	<circle cx="19.4758" cy="423.395" r="4" fill="#0" id="circle4"/>
	<circle cx="24.1186" cy="352.206" r="4" fill="#0" id="circle5"/>
	<circle cx="24.1186" cy="438.871" r="4" fill="#0" id="circle6"/>
	<circle cx="36.4992" cy="339.825" r="4" fill="#0" id="circle7"/>
	<circle cx="36.4992" cy="449.704" r="4" fill="#0" id="circle8"/>
	<circle cx="47.3323" cy="462.084" r="4" fill="#0" id="circle9"/>
	<circle cx="48.8799" cy="328.992" r="4" fill="#0" id="circle10"/>
	<circle cx="58.1654" cy="474.465" r="4" fill="#0" id="circle11"/>
	<circle cx="62.8081" cy="321.254" r="4" fill="#0" id="circle12"/>
	<circle cx="65.9033" cy="488.393" r="4" fill="#0" id="circle13"/>
	<circle cx="75.1888" cy="308.874" r="4" fill="#0" id="circle14"/>
	<circle cx="78.2839" cy="499.226" r="4" fill="#0" id="circle15"/>
	<circle cx="87.5694" cy="298.041" r="4" fill="#0" id="circle16"/>
	<circle cx="89.117" cy="511.607" r="4" fill="#0" id="circle17"/>
	<circle cx="101.498" cy="290.303" r="4" fill="#0" id="circle18"/>
	<circle cx="101.498" cy="522.44" r="4" fill="#0" id="circle19"/>
	<circle cx="112.331" cy="534.821" r="4" fill="#0" id="circle20"/>
	<circle cx="116.973" cy="282.565" r="4" fill="#0" id="circle21"/>
	<circle cx="124.711" cy="545.654" r="4" fill="#0" id="circle22"/>
	<circle cx="132.449" cy="274.827" r="4" fill="#0" id="circle23"/>
	<circle cx="135.544" cy="558.034" r="4" fill="#0" id="circle24"/>
	<circle cx="146.378" cy="267.089" r="4" fill="#0" id="circle25"/>
	<circle cx="151.02" cy="562.677" r="4" fill="#0" id="circle26"/>
	<circle cx="160.306" cy="259.351" r="4" fill="#0" id="circle27"/>
	<circle cx="160.306" cy="575.058" r="4" fill="#0" id="circle28"/>
	<circle cx="172.686" cy="585.891" r="4" fill="#0" id="circle29"/>
	<circle cx="174.234" cy="251.613" r="4" fill="#0" id="circle30"/>
	<circle cx="183.52" cy="598.271" r="4" fill="#0" id="circle31"/>
	<circle cx="188.162" cy="243.875" r="4" fill="#0" id="circle32"/>
	<circle cx="198.995" cy="231.495" r="4" fill="#0" id="circle33"/>
	<circle cx="198.995" cy="604.462" r="4" fill="#0" id="circle34"/>
	<circle cx="209.828" cy="616.842" r="4" fill="#0" id="circle35"/>
	<circle cx="211.376" cy="220.661" r="4" fill="#0" id="circle36"/>
	<circle cx="222.209" cy="208.281" r="4" fill="#0" id="circle37"/>
	<circle cx="222.209" cy="627.676" r="4" fill="#0" id="circle38"/>
	<circle cx="229.947" cy="192.805" r="4" fill="#0" id="circle39"/>
	<circle cx="233.042" cy="640.056" r="4" fill="#0" id="circle40"/>
	<circle cx="237.685" cy="177.329" r="4" fill="#0" id="circle41"/>
	<circle cx="245.423" cy="650.889" r="4" fill="#0" id="circle42"/>
	<circle cx="250.066" cy="166.496" r="4" fill="#0" id="circle43"/>
	<circle cx="256.256" cy="663.27" r="4" fill="#0" id="circle44"/>
	<circle cx="260.899" cy="154.115" r="4" fill="#0" id="circle45"/>
	<circle cx="270.184" cy="671.008" r="4" fill="#0" id="circle46"/>
	<circle cx="273.279" cy="143.282" r="4" fill="#0" id="circle47"/>
	<circle cx="282.565" cy="124.711" r="4" fill="#0" id="circle48"/>
	<circle cx="284.112" cy="678.746" r="4" fill="#0" id="circle49"/>
	<circle cx="294.945" cy="112.331" r="4" fill="#0" id="circle50"/>
	<circle cx="299.588" cy="678.746" r="4" fill="#0" id="circle51"/>
	<circle cx="305.778" cy="712.793" r="4" fill="#0" id="circle52"/>
	<circle cx="305.778" cy="728.268" r="4" fill="#0" id="circle53"/>
	<circle cx="307.326" cy="99.9501" r="4" fill="#0" id="circle54"/>
	<circle cx="313.516" cy="697.317" r="4" fill="#0" id="circle55"/>
	<circle cx="315.064" cy="671.008" r="4" fill="#0" id="circle56"/>
	<circle cx="315.064" cy="740.649" r="4" fill="#0" id="circle57"/>
	<circle cx="319.707" cy="89.117" r="4" fill="#0" id="circle58"/>
	<circle cx="325.897" cy="684.936" r="4" fill="#0" id="circle59"/>
	<circle cx="328.992" cy="748.387" r="4" fill="#0" id="circle60"/>
	<circle cx="333.635" cy="81.3791" r="4" fill="#0" id="circle61"/>
	<circle cx="333.635" cy="671.008" r="4" fill="#0" id="circle62"/>
	<circle cx="341.373" cy="739.101" r="4" fill="#0" id="circle63"/>
	<circle cx="349.111" cy="73.6412" r="4" fill="#0" id="circle64"/>
	<circle cx="356.849" cy="731.363" r="4" fill="#0" id="circle65"/>
	<circle cx="363.039" cy="65.9033" r="4" fill="#0" id="circle66"/>
	<circle cx="372.324" cy="725.173" r="4" fill="#0" id="circle67"/>
	<circle cx="375.42" cy="740.649" r="4" fill="#0" id="circle68"/>
	<circle cx="375.42" cy="756.125" r="4" fill="#0" id="circle69"/>
	<circle cx="376.967" cy="58.1654" r="4" fill="#0" id="circle70"/>
	<circle cx="383.158" cy="770.053" r="4" fill="#0" id="circle71"/>
	<circle cx="392.443" cy="53.5226" r="4" fill="#0" id="circle72"/>
	<circle cx="392.443" cy="782.434" r="4" fill="#0" id="circle73"/>
	<circle cx="403.276" cy="794.814" r="4" fill="#0" id="circle74"/>
	<circle cx="407.919" cy="45.7847" r="4" fill="#0" id="circle75"/>
	<circle cx="415.657" cy="805.647" r="4" fill="#0" id="circle76"/>
	<circle cx="423.395" cy="42.6895" r="4" fill="#0" id="circle77"/>
	<circle cx="431.133" cy="802.552" r="4" fill="#0" id="circle78"/>
	<circle cx="437.323" cy="31.8565" r="4" fill="#0" id="circle79"/>
	<circle cx="438.871" cy="771.601" r="4" fill="#0" id="circle80"/>
	<circle cx="438.871" cy="787.076" r="4" fill="#0" id="circle81"/>
	<circle cx="446.608" cy="805.647" r="4" fill="#0" id="circle82"/>
	<circle cx="449.704" cy="19.4758" r="4" fill="#0" id="circle83"/>
	<circle cx="452.799" cy="821.123" r="4" fill="#0" id="circle84"/>
	<circle cx="460.537" cy="835.051" r="4" fill="#0" id="circle85"/>
	<circle cx="460.537" cy="850.527" r="4" fill="#0" id="circle86"/>
	<circle cx="462.084" cy="7.09516" r="4" fill="#0" id="circle87"/>
	<circle cx="468.275" cy="864.456" r="4" fill="#0" id="circle88"/>
	<circle cx="476.012" cy="878.384" r="4" fill="#0" id="circle89"/>
	<circle cx="477.56" cy="4" r="4" fill="#0" id="circle90"/>
	<circle cx="485.298" cy="890.764" r="4" fill="#0" id="circle91"/>
	<circle cx="493.036" cy="4" r="4" fill="#0" id="circle92"/>
	<circle cx="496.131" cy="903.145" r="4" fill="#0" id="circle93"/>
	<circle cx="505.417" cy="13.2855" r="4" fill="#0" id="circle94"/>
	<circle cx="508.512" cy="794.814" r="4" fill="#0" id="circle95"/>
	<circle cx="508.512" cy="810.29" r="4" fill="#0" id="circle96"/>
	<circle cx="508.512" cy="913.978" r="4" fill="#0" id="circle97"/>
	<circle cx="514.702" cy="929.454" r="4" fill="#0" id="circle98"/>
	<circle cx="516.25" cy="25.6661" r="4" fill="#0" id="circle99"/>
	<circle cx="516.25" cy="824.218" r="4" fill="#0" id="circle100"/>
	<circle cx="523.988" cy="810.29" r="4" fill="#0" id="circle101"/>
	<circle cx="523.988" cy="838.147" r="4" fill="#0" id="circle102"/>
	<circle cx="523.988" cy="853.622" r="4" fill="#0" id="circle103"/>
	<circle cx="527.083" cy="940.287" r="4" fill="#0" id="circle104"/>
	<circle cx="528.63" cy="34.9516" r="4" fill="#0" id="circle105"/>
	<circle cx="531.725" cy="867.551" r="4" fill="#0" id="circle106"/>
	<circle cx="539.463" cy="779.339" r="4" fill="#0" id="circle107"/>
	<circle cx="539.463" cy="794.814" r="4" fill="#0" id="circle108"/>
	<circle cx="539.463" cy="810.29" r="4" fill="#0" id="circle109"/>
	<circle cx="539.463" cy="949.573" r="4" fill="#0" id="circle110"/>
	<circle cx="542.559" cy="42.6895" r="4" fill="#0" id="circle111"/>
	<circle cx="542.559" cy="879.931" r="4" fill="#0" id="circle112"/>
	<circle cx="554.939" cy="787.076" r="4" fill="#0" id="circle113"/>
	<circle cx="554.939" cy="890.764" r="4" fill="#0" id="circle114"/>
	<circle cx="554.939" cy="952.668" r="4" fill="#0" id="circle115"/>
	<circle cx="556.487" cy="50.4275" r="4" fill="#0" id="circle116"/>
	<circle cx="565.772" cy="903.145" r="4" fill="#0" id="circle117"/>
	<circle cx="568.867" cy="960.406" r="4" fill="#0" id="circle118"/>
	<circle cx="570.415" cy="58.1654" r="4" fill="#0" id="circle119"/>
	<circle cx="570.415" cy="771.601" r="4" fill="#0" id="circle120"/>
	<circle cx="578.153" cy="732.911" r="4" fill="#0" id="circle121"/>
	<circle cx="578.153" cy="748.387" r="4" fill="#0" id="circle122"/>
	<circle cx="581.248" cy="909.335" r="4" fill="#0" id="circle123"/>
	<circle cx="581.248" cy="971.239" r="4" fill="#0" id="circle124"/>
	<circle cx="584.343" cy="65.9033" r="4" fill="#0" id="circle125"/>
	<circle cx="585.891" cy="717.435" r="4" fill="#0" id="circle126"/>
	<circle cx="592.081" cy="921.716" r="4" fill="#0" id="circle127"/>
	<circle cx="593.629" cy="632.318" r="4" fill="#0" id="circle128"/>
	<circle cx="593.629" cy="647.794" r="4" fill="#0" id="circle129"/>
	<circle cx="595.176" cy="978.977" r="4" fill="#0" id="circle130"/>
	<circle cx="598.271" cy="73.6412" r="4" fill="#0" id="circle131"/>
	<circle cx="599.819" cy="725.173" r="4" fill="#0" id="circle132"/>
	<circle cx="601.367" cy="661.722" r="4" fill="#0" id="circle133"/>
	<circle cx="607.557" cy="640.056" r="4" fill="#0" id="circle134"/>
	<circle cx="607.557" cy="927.906" r="4" fill="#0" id="circle135"/>
	<circle cx="610.652" cy="985.167" r="4" fill="#0" id="circle136"/>
	<circle cx="612.2" cy="81.3791" r="4" fill="#0" id="circle137"/>
	<circle cx="613.747" cy="671.008" r="4" fill="#0" id="circle138"/>
	<circle cx="613.747" cy="732.911" r="4" fill="#0" id="circle139"/>
	<circle cx="616.842" cy="652.437" r="4" fill="#0" id="circle140"/>
	<circle cx="619.938" cy="686.484" r="4" fill="#0" id="circle141"/>
	<circle cx="623.033" cy="932.549" r="4" fill="#0" id="circle142"/>
	<circle cx="626.128" cy="89.117" r="4" fill="#0" id="circle143"/>
	<circle cx="626.128" cy="988.262" r="4" fill="#0" id="circle144"/>
	<circle cx="627.676" cy="700.412" r="4" fill="#0" id="circle145"/>
	<circle cx="627.676" cy="740.649" r="4" fill="#0" id="circle146"/>
	<circle cx="629.223" cy="663.27" r="4" fill="#0" id="circle147"/>
	<circle cx="632.318" cy="715.888" r="4" fill="#0" id="circle148"/>
	<circle cx="636.961" cy="940.287" r="4" fill="#0" id="circle149"/>
	<circle cx="638.509" cy="99.9501" r="4" fill="#0" id="circle150"/>
	<circle cx="640.056" cy="729.816" r="4" fill="#0" id="circle151"/>
	<circle cx="641.604" cy="988.262" r="4" fill="#0" id="circle152"/>
	<circle cx="643.151" cy="671.008" r="4" fill="#0" id="circle153"/>
	<circle cx="647.794" cy="112.331" r="4" fill="#0" id="circle154"/>
	<circle cx="652.437" cy="940.287" r="4" fill="#0" id="circle155"/>
	<circle cx="657.08" cy="988.262" r="4" fill="#0" id="circle156"/>
	<circle cx="658.627" cy="677.198" r="4" fill="#0" id="circle157"/>
	<circle cx="660.175" cy="121.616" r="4" fill="#0" id="circle158"/>
	<circle cx="666.365" cy="137.092" r="4" fill="#0" id="circle159"/>
	<circle cx="667.913" cy="940.287" r="4" fill="#0" id="circle160"/>
	<circle cx="672.555" cy="988.262" r="4" fill="#0" id="circle161"/>
	<circle cx="674.103" cy="677.198" r="4" fill="#0" id="circle162"/>
	<circle cx="678.746" cy="147.925" r="4" fill="#0" id="circle163"/>
	<circle cx="681.841" cy="932.549" r="4" fill="#0" id="circle164"/>
	<circle cx="686.484" cy="996" r="4" fill="#0" id="circle165"/>
	<circle cx="689.579" cy="160.306" r="4" fill="#0" id="circle166"/>
	<circle cx="689.579" cy="669.46" r="4" fill="#0" id="circle167"/>
	<circle cx="695.769" cy="940.287" r="4" fill="#0" id="circle168"/>
	<circle cx="701.959" cy="171.139" r="4" fill="#0" id="circle169"/>
	<circle cx="701.959" cy="996" r="4" fill="#0" id="circle170"/>
	<circle cx="705.055" cy="661.722" r="4" fill="#0" id="circle171"/>
	<circle cx="708.15" cy="186.615" r="4" fill="#0" id="circle172"/>
	<circle cx="711.245" cy="940.287" r="4" fill="#0" id="circle173"/>
	<circle cx="717.435" cy="647.794" r="4" fill="#0" id="circle174"/>
	<circle cx="717.435" cy="988.262" r="4" fill="#0" id="circle175"/>
	<circle cx="720.53" cy="197.448" r="4" fill="#0" id="circle176"/>
	<circle cx="725.173" cy="948.025" r="4" fill="#0" id="circle177"/>
	<circle cx="731.363" cy="209.828" r="4" fill="#0" id="circle178"/>
	<circle cx="732.911" cy="640.056" r="4" fill="#0" id="circle179"/>
	<circle cx="732.911" cy="988.262" r="4" fill="#0" id="circle180"/>
	<circle cx="739.101" cy="223.757" r="4" fill="#0" id="circle181"/>
	<circle cx="740.649" cy="948.025" r="4" fill="#0" id="circle182"/>
	<circle cx="745.292" cy="629.223" r="4" fill="#0" id="circle183"/>
	<circle cx="746.839" cy="980.524" r="4" fill="#0" id="circle184"/>
	<circle cx="748.387" cy="236.137" r="4" fill="#0" id="circle185"/>
	<circle cx="756.125" cy="616.842" r="4" fill="#0" id="circle186"/>
	<circle cx="756.125" cy="943.382" r="4" fill="#0" id="circle187"/>
	<circle cx="760.768" cy="245.423" r="4" fill="#0" id="circle188"/>
	<circle cx="762.315" cy="975.881" r="4" fill="#0" id="circle189"/>
	<circle cx="768.505" cy="606.009" r="4" fill="#0" id="circle190"/>
	<circle cx="771.601" cy="935.644" r="4" fill="#0" id="circle191"/>
	<circle cx="774.696" cy="253.161" r="4" fill="#0" id="circle192"/>
	<circle cx="777.791" cy="972.786" r="4" fill="#0" id="circle193"/>
	<circle cx="783.981" cy="598.271" r="4" fill="#0" id="circle194"/>
	<circle cx="783.981" cy="924.811" r="4" fill="#0" id="circle195"/>
	<circle cx="790.172" cy="259.351" r="4" fill="#0" id="circle196"/>
	<circle cx="793.267" cy="972.786" r="4" fill="#0" id="circle197"/>
	<circle cx="794.814" cy="585.891" r="4" fill="#0" id="circle198"/>
	<circle cx="799.457" cy="924.811" r="4" fill="#0" id="circle199"/>
	<circle cx="804.1" cy="267.089" r="4" fill="#0" id="circle200"/>
	<circle cx="807.195" cy="575.058" r="4" fill="#0" id="circle201"/>
	<circle cx="807.195" cy="965.048" r="4" fill="#0" id="circle202"/>
	<circle cx="814.933" cy="924.811" r="4" fill="#0" id="circle203"/>
	<circle cx="818.028" cy="274.827" r="4" fill="#0" id="circle204"/>
	<circle cx="818.028" cy="562.677" r="4" fill="#0" id="circle205"/>
	<circle cx="822.671" cy="961.953" r="4" fill="#0" id="circle206"/>
	<circle cx="830.409" cy="284.112" r="4" fill="#0" id="circle207"/>
	<circle cx="830.409" cy="551.844" r="4" fill="#0" id="circle208"/>
	<circle cx="830.409" cy="924.811" r="4" fill="#0" id="circle209"/>
	<circle cx="836.599" cy="909.335" r="4" fill="#0" id="circle210"/>
	<circle cx="838.147" cy="957.31" r="4" fill="#0" id="circle211"/>
	<circle cx="844.337" cy="291.85" r="4" fill="#0" id="circle212"/>
	<circle cx="845.885" cy="544.106" r="4" fill="#0" id="circle213"/>
	<circle cx="850.527" cy="901.598" r="4" fill="#0" id="circle214"/>
	<circle cx="852.075" cy="948.025" r="4" fill="#0" id="circle215"/>
	<circle cx="856.718" cy="302.683" r="4" fill="#0" id="circle216"/>
	<circle cx="856.718" cy="531.725" r="4" fill="#0" id="circle217"/>
	<circle cx="864.456" cy="893.86" r="4" fill="#0" id="circle218"/>
	<circle cx="867.551" cy="940.287" r="4" fill="#0" id="circle219"/>
	<circle cx="869.098" cy="520.892" r="4" fill="#0" id="circle220"/>
	<circle cx="870.646" cy="310.421" r="4" fill="#0" id="circle221"/>
	<circle cx="878.384" cy="886.122" r="4" fill="#0" id="circle222"/>
	<circle cx="879.931" cy="508.512" r="4" fill="#0" id="circle223"/>
	<circle cx="883.027" cy="932.549" r="4" fill="#0" id="circle224"/>
	<circle cx="886.122" cy="316.612" r="4" fill="#0" id="circle225"/>
	<circle cx="892.312" cy="497.679" r="4" fill="#0" id="circle226"/>
	<circle cx="892.312" cy="878.384" r="4" fill="#0" id="circle227"/>
	<circle cx="895.407" cy="328.992" r="4" fill="#0" id="circle228"/>
	<circle cx="895.407" cy="910.883" r="4" fill="#0" id="circle229"/>
	<circle cx="900.05" cy="482.203" r="4" fill="#0" id="circle230"/>
	<circle cx="906.24" cy="870.646" r="4" fill="#0" id="circle231"/>
	<circle cx="907.788" cy="338.278" r="4" fill="#0" id="circle232"/>
	<circle cx="907.788" cy="466.727" r="4" fill="#0" id="circle233"/>
	<circle cx="907.788" cy="900.05" r="4" fill="#0" id="circle234"/>
	<circle cx="918.621" cy="350.658" r="4" fill="#0" id="circle235"/>
	<circle cx="918.621" cy="454.346" r="4" fill="#0" id="circle236"/>
	<circle cx="926.359" cy="438.871" r="4" fill="#0" id="circle237"/>
	<circle cx="931.002" cy="361.491" r="4" fill="#0" id="circle238"/>
	<circle cx="934.097" cy="423.395" r="4" fill="#0" id="circle239"/>
	<circle cx="937.192" cy="376.967" r="4" fill="#0" id="circle240"/>
	<circle cx="944.93" cy="390.895" r="4" fill="#0" id="circle241"/>
	<circle cx="946.477" cy="412.562" r="4" fill="#0" id="circle242"/>
	</g>
</svg>