<?xml version="1.0" encoding="UTF-8" standalone="no"?>
<!-- Created with CurveBenchmark -->
<svg
	xmlns:dc="http://purl.org/dc/elements/1.1/"
	xmlns:cc="http://creativecommons.org/ns#"
	xmlns:rdf="http://www.w3.org/1999/02/22-rdf-syntax-ns#"
	xmlns:svg="http://www.w3.org/2000/svg"
	xmlns="http://www.w3.org/2000/svg"
	xmlns:sodipodi="http://sodipodi.sourceforge.net/DTD/sodipodi-0.dtd"
	xmlns:inkscape="http://www.inkscape.org/namespaces/inkscape"
	width="1000"
	height="1000"
	id="svg2"
	version="1.1"
	sodipodi:docname="manifold/peel-chopper07.png.txt">
<defs
	id="defs4" />
<metadata
	id="metadata7">
	<rdf:RDF>
		<cc:Work
			rdf:about="">
			<dc:format>image/svg+xml</dc:format>
			<dc:type
				rdf:resource="http://purl.org/dc/dcmitype/StillImage" />
			<dc:title></dc:title>
		</cc:Work>
	</rdf:RDF>
</metadata>
<g
	inkscape:label="Layer 1"
	inkscape:groupmode="layer"
	id="layer1">
	<path style="fill:none;stroke:red;stroke-width:1px;stroke-linecap:butt;stroke-linejoin:miter;stroke-opacity:1" d="M 4,648.891 4,630.622 z" id="boundary" inkscape:connector-curvature="0" />
	<path style="fill:none;stroke:red;stroke-width:1px;stroke-linecap:butt;stroke-linejoin:miter;stroke-opacity:1" d="M 4,630.622 18.6151,616.007 z" id="boundary" inkscape:connector-curvature="0" />
	<path style="fill:none;stroke:red;stroke-width:1px;stroke-linecap:butt;stroke-linejoin:miter;stroke-opacity:1" d="M 18.6151,616.007 36.884,616.007 z" id="boundary" inkscape:connector-curvature="0" />
	<path style="fill:none;stroke:red;stroke-width:1px;stroke-linecap:butt;stroke-linejoin:miter;stroke-opacity:1" d="M 4,648.891 13.1344,665.333 z" id="boundary" inkscape:connector-curvature="0" />
	<path style="fill:none;stroke:red;stroke-width:1px;stroke-linecap:butt;stroke-linejoin:miter;stroke-opacity:1" d="M 13.1344,665.333 25.9227,679.948 z" id="boundary" inkscape:connector-curvature="0" />
	<path style="fill:none;stroke:red;stroke-width:1px;stroke-linecap:butt;stroke-linejoin:miter;stroke-opacity:1" d="M 31.4033,438.799 31.4033,420.53 z" id="boundary" inkscape:connector-curvature="0" />
	<path style="fill:none;stroke:red;stroke-width:1px;stroke-linecap:butt;stroke-linejoin:miter;stroke-opacity:1" d="M 31.4033,420.53 31.4033,402.262 z" id="boundary" inkscape:connector-curvature="0" />
	<path style="fill:none;stroke:red;stroke-width:1px;stroke-linecap:butt;stroke-linejoin:miter;stroke-opacity:1" d="M 31.4033,457.068 31.4033,438.799 z" id="boundary" inkscape:connector-curvature="0" />
	<path style="fill:none;stroke:red;stroke-width:1px;stroke-linecap:butt;stroke-linejoin:miter;stroke-opacity:1" d="M 44.1915,681.775 25.9227,679.948 z" id="boundary" inkscape:connector-curvature="0" />
	<path style="fill:none;stroke:red;stroke-width:1px;stroke-linecap:butt;stroke-linejoin:miter;stroke-opacity:1" d="M 31.4033,475.337 31.4033,457.068 z" id="boundary" inkscape:connector-curvature="0" />
	<path style="fill:none;stroke:red;stroke-width:1px;stroke-linecap:butt;stroke-linejoin:miter;stroke-opacity:1" d="M 31.4033,402.262 40.5378,383.993 z" id="boundary" inkscape:connector-curvature="0" />
	<path style="fill:none;stroke:red;stroke-width:1px;stroke-linecap:butt;stroke-linejoin:miter;stroke-opacity:1" d="M 31.4033,493.606 31.4033,475.337 z" id="boundary" inkscape:connector-curvature="0" />
	<path style="fill:none;stroke:red;stroke-width:1px;stroke-linecap:butt;stroke-linejoin:miter;stroke-opacity:1" d="M 31.4033,511.875 31.4033,493.606 z" id="boundary" inkscape:connector-curvature="0" />
	<path style="fill:none;stroke:red;stroke-width:1px;stroke-linecap:butt;stroke-linejoin:miter;stroke-opacity:1" d="M 31.4033,530.144 31.4033,511.875 z" id="boundary" inkscape:connector-curvature="0" />
	<path style="fill:none;stroke:red;stroke-width:1px;stroke-linecap:butt;stroke-linejoin:miter;stroke-opacity:1" d="M 49.6722,356.589 40.5378,383.993 z" id="boundary" inkscape:connector-curvature="0" />
	<path style="fill:none;stroke:red;stroke-width:1px;stroke-linecap:butt;stroke-linejoin:miter;stroke-opacity:1" d="M 40.5378,546.586 31.4033,530.144 z" id="boundary" inkscape:connector-curvature="0" />
	<path style="fill:none;stroke:red;stroke-width:1px;stroke-linecap:butt;stroke-linejoin:miter;stroke-opacity:1" d="M 36.884,616.007 53.326,625.142 z" id="boundary" inkscape:connector-curvature="0" />
	<path style="fill:none;stroke:red;stroke-width:1px;stroke-linecap:butt;stroke-linejoin:miter;stroke-opacity:1" d="M 49.6722,563.028 40.5378,546.586 z" id="boundary" inkscape:connector-curvature="0" />
	<path style="fill:none;stroke:red;stroke-width:1px;stroke-linecap:butt;stroke-linejoin:miter;stroke-opacity:1" d="M 60.6335,661.68 60.6335,643.411 z" id="boundary" inkscape:connector-curvature="0" />
	<path style="fill:none;stroke:red;stroke-width:1px;stroke-linecap:butt;stroke-linejoin:miter;stroke-opacity:1" d="M 49.6722,563.028 67.9411,563.028 z" id="boundary" inkscape:connector-curvature="0" />
	<path style="fill:none;stroke:red;stroke-width:1px;stroke-linecap:butt;stroke-linejoin:miter;stroke-opacity:1" d="M 62.4604,681.775 80.7293,687.256 z" id="boundary" inkscape:connector-curvature="0" />
	<path style="fill:none;stroke:red;stroke-width:1px;stroke-linecap:butt;stroke-linejoin:miter;stroke-opacity:1" d="M 62.4604,681.775 44.1915,681.775 z" id="boundary" inkscape:connector-curvature="0" />
	<path style="fill:none;stroke:red;stroke-width:1px;stroke-linecap:butt;stroke-linejoin:miter;stroke-opacity:1" d="M 60.6335,643.411 53.326,625.142 z" id="boundary" inkscape:connector-curvature="0" />
	<path style="fill:none;stroke:red;stroke-width:1px;stroke-linecap:butt;stroke-linejoin:miter;stroke-opacity:1" d="M 58.8066,329.186 49.6722,356.589 z" id="boundary" inkscape:connector-curvature="0" />
	<path style="fill:none;stroke:red;stroke-width:1px;stroke-linecap:butt;stroke-linejoin:miter;stroke-opacity:1" d="M 58.8066,329.186 58.8066,310.917 z" id="boundary" inkscape:connector-curvature="0" />
	<path style="fill:none;stroke:red;stroke-width:1px;stroke-linecap:butt;stroke-linejoin:miter;stroke-opacity:1" d="M 77.0755,274.379 91.6906,259.764 z" id="boundary" inkscape:connector-curvature="0" />
	<path style="fill:none;stroke:red;stroke-width:1px;stroke-linecap:butt;stroke-linejoin:miter;stroke-opacity:1" d="M 77.0755,274.379 67.9411,292.648 z" id="boundary" inkscape:connector-curvature="0" />
	<path style="fill:none;stroke:red;stroke-width:1px;stroke-linecap:butt;stroke-linejoin:miter;stroke-opacity:1" d="M 60.6335,661.68 78.9024,661.68 z" id="boundary" inkscape:connector-curvature="0" />
	<path style="fill:none;stroke:red;stroke-width:1px;stroke-linecap:butt;stroke-linejoin:miter;stroke-opacity:1" d="M 58.8066,310.917 67.9411,292.648 z" id="boundary" inkscape:connector-curvature="0" />
	<path style="fill:none;stroke:red;stroke-width:1px;stroke-linecap:butt;stroke-linejoin:miter;stroke-opacity:1" d="M 84.3831,572.162 67.9411,563.028 z" id="boundary" inkscape:connector-curvature="0" />
	<path style="fill:none;stroke:red;stroke-width:1px;stroke-linecap:butt;stroke-linejoin:miter;stroke-opacity:1" d="M 100.825,581.297 84.3831,572.162 z" id="boundary" inkscape:connector-curvature="0" />
	<path style="fill:none;stroke:red;stroke-width:1px;stroke-linecap:butt;stroke-linejoin:miter;stroke-opacity:1" d="M 80.7293,687.256 98.9982,690.91 z" id="boundary" inkscape:connector-curvature="0" />
	<path style="fill:none;stroke:red;stroke-width:1px;stroke-linecap:butt;stroke-linejoin:miter;stroke-opacity:1" d="M 78.9024,661.68 97.1713,661.68 z" id="boundary" inkscape:connector-curvature="0" />
	<path style="fill:none;stroke:red;stroke-width:1px;stroke-linecap:butt;stroke-linejoin:miter;stroke-opacity:1" d="M 97.1713,661.68 115.44,661.68 z" id="boundary" inkscape:connector-curvature="0" />
	<path style="fill:none;stroke:red;stroke-width:1px;stroke-linecap:butt;stroke-linejoin:miter;stroke-opacity:1" d="M 91.6906,259.764 104.479,237.842 z" id="boundary" inkscape:connector-curvature="0" />
	<path style="fill:none;stroke:red;stroke-width:1px;stroke-linecap:butt;stroke-linejoin:miter;stroke-opacity:1" d="M 104.479,237.842 119.094,223.227 z" id="boundary" inkscape:connector-curvature="0" />
	<path style="fill:none;stroke:red;stroke-width:1px;stroke-linecap:butt;stroke-linejoin:miter;stroke-opacity:1" d="M 168.42,183.035 186.689,177.554 z" id="boundary" inkscape:connector-curvature="0" />
	<path style="fill:none;stroke:red;stroke-width:1px;stroke-linecap:butt;stroke-linejoin:miter;stroke-opacity:1" d="M 117.267,690.91 135.536,690.91 z" id="boundary" inkscape:connector-curvature="0" />
	<path style="fill:none;stroke:red;stroke-width:1px;stroke-linecap:butt;stroke-linejoin:miter;stroke-opacity:1" d="M 117.267,690.91 98.9982,690.91 z" id="boundary" inkscape:connector-curvature="0" />
	<path style="fill:none;stroke:red;stroke-width:1px;stroke-linecap:butt;stroke-linejoin:miter;stroke-opacity:1" d="M 119.094,581.297 100.825,581.297 z" id="boundary" inkscape:connector-curvature="0" />
	<path style="fill:none;stroke:red;stroke-width:1px;stroke-linecap:butt;stroke-linejoin:miter;stroke-opacity:1" d="M 115.44,661.68 131.882,652.545 z" id="boundary" inkscape:connector-curvature="0" />
	<path style="fill:none;stroke:red;stroke-width:1px;stroke-linecap:butt;stroke-linejoin:miter;stroke-opacity:1" d="M 133.709,208.611 119.094,223.227 z" id="boundary" inkscape:connector-curvature="0" />
	<path style="fill:none;stroke:red;stroke-width:1px;stroke-linecap:butt;stroke-linejoin:miter;stroke-opacity:1" d="M 119.094,581.297 137.363,581.297 z" id="boundary" inkscape:connector-curvature="0" />
	<path style="fill:none;stroke:red;stroke-width:1px;stroke-linecap:butt;stroke-linejoin:miter;stroke-opacity:1" d="M 137.363,581.297 155.632,581.297 z" id="boundary" inkscape:connector-curvature="0" />
	<path style="fill:none;stroke:red;stroke-width:1px;stroke-linecap:butt;stroke-linejoin:miter;stroke-opacity:1" d="M 131.882,652.545 150.151,648.891 z" id="boundary" inkscape:connector-curvature="0" />
	<path style="fill:none;stroke:red;stroke-width:1px;stroke-linecap:butt;stroke-linejoin:miter;stroke-opacity:1" d="M 223.227,663.506 204.958,663.506 z" id="boundary" inkscape:connector-curvature="0" />
	<path style="fill:none;stroke:red;stroke-width:1px;stroke-linecap:butt;stroke-linejoin:miter;stroke-opacity:1" d="M 133.709,208.611 150.151,192.169 z" id="boundary" inkscape:connector-curvature="0" />
	<path style="fill:none;stroke:red;stroke-width:1px;stroke-linecap:butt;stroke-linejoin:miter;stroke-opacity:1" d="M 150.151,192.169 168.42,183.035 z" id="boundary" inkscape:connector-curvature="0" />
	<path style="fill:none;stroke:red;stroke-width:1px;stroke-linecap:butt;stroke-linejoin:miter;stroke-opacity:1" d="M 150.151,648.891 168.42,648.891 z" id="boundary" inkscape:connector-curvature="0" />
	<path style="fill:none;stroke:red;stroke-width:1px;stroke-linecap:butt;stroke-linejoin:miter;stroke-opacity:1" d="M 151.978,681.775 135.536,690.91 z" id="boundary" inkscape:connector-curvature="0" />
	<path style="fill:none;stroke:red;stroke-width:1px;stroke-linecap:butt;stroke-linejoin:miter;stroke-opacity:1" d="M 186.689,614.18 186.689,595.912 z" id="boundary" inkscape:connector-curvature="0" />
	<path style="fill:none;stroke:red;stroke-width:1px;stroke-linecap:butt;stroke-linejoin:miter;stroke-opacity:1" d="M 151.978,681.775 170.247,672.641 z" id="boundary" inkscape:connector-curvature="0" />
	<path style="fill:none;stroke:red;stroke-width:1px;stroke-linecap:butt;stroke-linejoin:miter;stroke-opacity:1" d="M 155.632,581.297 173.901,581.297 z" id="boundary" inkscape:connector-curvature="0" />
	<path style="fill:none;stroke:red;stroke-width:1px;stroke-linecap:butt;stroke-linejoin:miter;stroke-opacity:1" d="M 186.689,595.912 173.901,581.297 z" id="boundary" inkscape:connector-curvature="0" />
	<path style="fill:none;stroke:red;stroke-width:1px;stroke-linecap:butt;stroke-linejoin:miter;stroke-opacity:1" d="M 186.689,663.506 204.958,663.506 z" id="boundary" inkscape:connector-curvature="0" />
	<path style="fill:none;stroke:red;stroke-width:1px;stroke-linecap:butt;stroke-linejoin:miter;stroke-opacity:1" d="M 186.689,663.506 170.247,672.641 z" id="boundary" inkscape:connector-curvature="0" />
	<path style="fill:none;stroke:red;stroke-width:1px;stroke-linecap:butt;stroke-linejoin:miter;stroke-opacity:1" d="M 186.689,177.554 203.131,168.42 z" id="boundary" inkscape:connector-curvature="0" />
	<path style="fill:none;stroke:red;stroke-width:1px;stroke-linecap:butt;stroke-linejoin:miter;stroke-opacity:1" d="M 203.131,168.42 221.4,168.42 z" id="boundary" inkscape:connector-curvature="0" />
	<path style="fill:none;stroke:red;stroke-width:1px;stroke-linecap:butt;stroke-linejoin:miter;stroke-opacity:1" d="M 186.689,632.449 186.689,614.18 z" id="boundary" inkscape:connector-curvature="0" />
	<path style="fill:none;stroke:red;stroke-width:1px;stroke-linecap:butt;stroke-linejoin:miter;stroke-opacity:1" d="M 237.842,159.285 221.4,168.42 z" id="boundary" inkscape:connector-curvature="0" />
	<path style="fill:none;stroke:red;stroke-width:1px;stroke-linecap:butt;stroke-linejoin:miter;stroke-opacity:1" d="M 223.227,663.506 241.495,658.026 z" id="boundary" inkscape:connector-curvature="0" />
	<path style="fill:none;stroke:red;stroke-width:1px;stroke-linecap:butt;stroke-linejoin:miter;stroke-opacity:1" d="M 256.11,150.151 274.379,150.151 z" id="boundary" inkscape:connector-curvature="0" />
	<path style="fill:none;stroke:red;stroke-width:1px;stroke-linecap:butt;stroke-linejoin:miter;stroke-opacity:1" d="M 256.11,150.151 237.842,159.285 z" id="boundary" inkscape:connector-curvature="0" />
	<path style="fill:none;stroke:red;stroke-width:1px;stroke-linecap:butt;stroke-linejoin:miter;stroke-opacity:1" d="M 294.475,654.372 312.744,654.372 z" id="boundary" inkscape:connector-curvature="0" />
	<path style="fill:none;stroke:red;stroke-width:1px;stroke-linecap:butt;stroke-linejoin:miter;stroke-opacity:1" d="M 274.379,150.151 292.648,150.151 z" id="boundary" inkscape:connector-curvature="0" />
	<path style="fill:none;stroke:red;stroke-width:1px;stroke-linecap:butt;stroke-linejoin:miter;stroke-opacity:1" d="M 259.764,648.891 278.033,645.238 z" id="boundary" inkscape:connector-curvature="0" />
	<path style="fill:none;stroke:red;stroke-width:1px;stroke-linecap:butt;stroke-linejoin:miter;stroke-opacity:1" d="M 278.033,645.238 294.475,654.372 z" id="boundary" inkscape:connector-curvature="0" />
	<path style="fill:none;stroke:red;stroke-width:1px;stroke-linecap:butt;stroke-linejoin:miter;stroke-opacity:1" d="M 241.495,658.026 259.764,648.891 z" id="boundary" inkscape:connector-curvature="0" />
	<path style="fill:none;stroke:red;stroke-width:1px;stroke-linecap:butt;stroke-linejoin:miter;stroke-opacity:1" d="M 422.357,645.238 404.088,645.238 z" id="boundary" inkscape:connector-curvature="0" />
	<path style="fill:none;stroke:red;stroke-width:1px;stroke-linecap:butt;stroke-linejoin:miter;stroke-opacity:1" d="M 323.705,46.0184 323.705,27.7495 z" id="boundary" inkscape:connector-curvature="0" />
	<path style="fill:none;stroke:red;stroke-width:1px;stroke-linecap:butt;stroke-linejoin:miter;stroke-opacity:1" d="M 312.744,654.372 331.013,654.372 z" id="boundary" inkscape:connector-curvature="0" />
	<path style="fill:none;stroke:red;stroke-width:1px;stroke-linecap:butt;stroke-linejoin:miter;stroke-opacity:1" d="M 292.648,150.151 309.09,141.017 z" id="boundary" inkscape:connector-curvature="0" />
	<path style="fill:none;stroke:red;stroke-width:1px;stroke-linecap:butt;stroke-linejoin:miter;stroke-opacity:1" d="M 309.09,141.017 327.359,141.017 z" id="boundary" inkscape:connector-curvature="0" />
	<path style="fill:none;stroke:red;stroke-width:1px;stroke-linecap:butt;stroke-linejoin:miter;stroke-opacity:1" d="M 385.82,645.238 404.088,645.238 z" id="boundary" inkscape:connector-curvature="0" />
	<path style="fill:none;stroke:red;stroke-width:1px;stroke-linecap:butt;stroke-linejoin:miter;stroke-opacity:1" d="M 327.359,141.017 345.628,141.017 z" id="boundary" inkscape:connector-curvature="0" />
	<path style="fill:none;stroke:red;stroke-width:1px;stroke-linecap:butt;stroke-linejoin:miter;stroke-opacity:1" d="M 323.705,27.7495 338.32,13.1344 z" id="boundary" inkscape:connector-curvature="0" />
	<path style="fill:none;stroke:red;stroke-width:1px;stroke-linecap:butt;stroke-linejoin:miter;stroke-opacity:1" d="M 341.974,51.4991 323.705,46.0184 z" id="boundary" inkscape:connector-curvature="0" />
	<path style="fill:none;stroke:red;stroke-width:1px;stroke-linecap:butt;stroke-linejoin:miter;stroke-opacity:1" d="M 367.551,645.238 385.82,645.238 z" id="boundary" inkscape:connector-curvature="0" />
	<path style="fill:none;stroke:red;stroke-width:1px;stroke-linecap:butt;stroke-linejoin:miter;stroke-opacity:1" d="M 367.551,645.238 349.282,650.718 z" id="boundary" inkscape:connector-curvature="0" />
	<path style="fill:none;stroke:red;stroke-width:1px;stroke-linecap:butt;stroke-linejoin:miter;stroke-opacity:1" d="M 331.013,654.372 349.282,650.718 z" id="boundary" inkscape:connector-curvature="0" />
	<path style="fill:none;stroke:red;stroke-width:1px;stroke-linecap:butt;stroke-linejoin:miter;stroke-opacity:1" d="M 369.378,67.9411 360.243,51.4991 z" id="boundary" inkscape:connector-curvature="0" />
	<path style="fill:none;stroke:red;stroke-width:1px;stroke-linecap:butt;stroke-linejoin:miter;stroke-opacity:1" d="M 360.243,51.4991 341.974,51.4991 z" id="boundary" inkscape:connector-curvature="0" />
	<path style="fill:none;stroke:red;stroke-width:1px;stroke-linecap:butt;stroke-linejoin:miter;stroke-opacity:1" d="M 338.32,13.1344 354.762,4 z" id="boundary" inkscape:connector-curvature="0" />
	<path style="fill:none;stroke:red;stroke-width:1px;stroke-linecap:butt;stroke-linejoin:miter;stroke-opacity:1" d="M 345.628,141.017 362.07,131.882 z" id="boundary" inkscape:connector-curvature="0" />
	<path style="fill:none;stroke:red;stroke-width:1px;stroke-linecap:butt;stroke-linejoin:miter;stroke-opacity:1" d="M 426.011,58.8066 416.877,42.3646 z" id="boundary" inkscape:connector-curvature="0" />
	<path style="fill:none;stroke:red;stroke-width:1px;stroke-linecap:butt;stroke-linejoin:miter;stroke-opacity:1" d="M 362.07,131.882 380.339,126.401 z" id="boundary" inkscape:connector-curvature="0" />
	<path style="fill:none;stroke:red;stroke-width:1px;stroke-linecap:butt;stroke-linejoin:miter;stroke-opacity:1" d="M 360.243,91.6906 369.378,67.9411 z" id="boundary" inkscape:connector-curvature="0" />
	<path style="fill:none;stroke:red;stroke-width:1px;stroke-linecap:butt;stroke-linejoin:miter;stroke-opacity:1" d="M 371.204,106.306 360.243,91.6906 z" id="boundary" inkscape:connector-curvature="0" />
	<path style="fill:none;stroke:red;stroke-width:1px;stroke-linecap:butt;stroke-linejoin:miter;stroke-opacity:1" d="M 354.762,4 373.031,4 z" id="boundary" inkscape:connector-curvature="0" />
	<path style="fill:none;stroke:red;stroke-width:1px;stroke-linecap:butt;stroke-linejoin:miter;stroke-opacity:1" d="M 380.339,126.401 371.204,106.306 z" id="boundary" inkscape:connector-curvature="0" />
	<path style="fill:none;stroke:red;stroke-width:1px;stroke-linecap:butt;stroke-linejoin:miter;stroke-opacity:1" d="M 373.031,4 391.3,4 z" id="boundary" inkscape:connector-curvature="0" />
	<path style="fill:none;stroke:red;stroke-width:1px;stroke-linecap:butt;stroke-linejoin:miter;stroke-opacity:1" d="M 409.569,4 391.3,4 z" id="boundary" inkscape:connector-curvature="0" />
	<path style="fill:none;stroke:red;stroke-width:1px;stroke-linecap:butt;stroke-linejoin:miter;stroke-opacity:1" d="M 658.026,544.759 639.757,544.759 z" id="boundary" inkscape:connector-curvature="0" />
	<path style="fill:none;stroke:red;stroke-width:1px;stroke-linecap:butt;stroke-linejoin:miter;stroke-opacity:1" d="M 444.28,590.431 444.28,572.162 z" id="boundary" inkscape:connector-curvature="0" />
	<path style="fill:none;stroke:red;stroke-width:1px;stroke-linecap:butt;stroke-linejoin:miter;stroke-opacity:1" d="M 416.877,42.3646 435.145,33.2302 z" id="boundary" inkscape:connector-curvature="0" />
	<path style="fill:none;stroke:red;stroke-width:1px;stroke-linecap:butt;stroke-linejoin:miter;stroke-opacity:1" d="M 444.28,58.8066 426.011,58.8066 z" id="boundary" inkscape:connector-curvature="0" />
	<path style="fill:none;stroke:red;stroke-width:1px;stroke-linecap:butt;stroke-linejoin:miter;stroke-opacity:1" d="M 427.838,4 409.569,4 z" id="boundary" inkscape:connector-curvature="0" />
	<path style="fill:none;stroke:red;stroke-width:1px;stroke-linecap:butt;stroke-linejoin:miter;stroke-opacity:1" d="M 566.681,544.759 584.95,544.759 z" id="boundary" inkscape:connector-curvature="0" />
	<path style="fill:none;stroke:red;stroke-width:1px;stroke-linecap:butt;stroke-linejoin:miter;stroke-opacity:1" d="M 444.28,590.431 453.414,606.873 z" id="boundary" inkscape:connector-curvature="0" />
	<path style="fill:none;stroke:red;stroke-width:1px;stroke-linecap:butt;stroke-linejoin:miter;stroke-opacity:1" d="M 427.838,4 446.107,4 z" id="boundary" inkscape:connector-curvature="0" />
	<path style="fill:none;stroke:red;stroke-width:1px;stroke-linecap:butt;stroke-linejoin:miter;stroke-opacity:1" d="M 447.934,106.306 444.28,88.0368 z" id="boundary" inkscape:connector-curvature="0" />
	<path style="fill:none;stroke:red;stroke-width:1px;stroke-linecap:butt;stroke-linejoin:miter;stroke-opacity:1" d="M 435.145,33.2302 451.587,24.0958 z" id="boundary" inkscape:connector-curvature="0" />
	<path style="fill:none;stroke:red;stroke-width:1px;stroke-linecap:butt;stroke-linejoin:miter;stroke-opacity:1" d="M 444.28,88.0368 462.549,82.5562 z" id="boundary" inkscape:connector-curvature="0" />
	<path style="fill:none;stroke:red;stroke-width:1px;stroke-linecap:butt;stroke-linejoin:miter;stroke-opacity:1" d="M 422.357,645.238 438.799,636.103 z" id="boundary" inkscape:connector-curvature="0" />
	<path style="fill:none;stroke:red;stroke-width:1px;stroke-linecap:butt;stroke-linejoin:miter;stroke-opacity:1" d="M 457.068,122.748 447.934,106.306 z" id="boundary" inkscape:connector-curvature="0" />
	<path style="fill:none;stroke:red;stroke-width:1px;stroke-linecap:butt;stroke-linejoin:miter;stroke-opacity:1" d="M 444.28,572.162 458.895,559.374 z" id="boundary" inkscape:connector-curvature="0" />
	<path style="fill:none;stroke:red;stroke-width:1px;stroke-linecap:butt;stroke-linejoin:miter;stroke-opacity:1" d="M 453.414,606.873 453.414,625.142 z" id="boundary" inkscape:connector-curvature="0" />
	<path style="fill:none;stroke:red;stroke-width:1px;stroke-linecap:butt;stroke-linejoin:miter;stroke-opacity:1" d="M 453.414,625.142 438.799,636.103 z" id="boundary" inkscape:connector-curvature="0" />
	<path style="fill:none;stroke:red;stroke-width:1px;stroke-linecap:butt;stroke-linejoin:miter;stroke-opacity:1" d="M 511.875,544.759 493.606,544.759 z" id="boundary" inkscape:connector-curvature="0" />
	<path style="fill:none;stroke:red;stroke-width:1px;stroke-linecap:butt;stroke-linejoin:miter;stroke-opacity:1" d="M 493.606,544.759 477.164,553.893 z" id="boundary" inkscape:connector-curvature="0" />
	<path style="fill:none;stroke:red;stroke-width:1px;stroke-linecap:butt;stroke-linejoin:miter;stroke-opacity:1" d="M 458.895,559.374 477.164,553.893 z" id="boundary" inkscape:connector-curvature="0" />
	<path style="fill:none;stroke:red;stroke-width:1px;stroke-linecap:butt;stroke-linejoin:miter;stroke-opacity:1" d="M 457.068,122.748 475.337,122.748 z" id="boundary" inkscape:connector-curvature="0" />
	<path style="fill:none;stroke:red;stroke-width:1px;stroke-linecap:butt;stroke-linejoin:miter;stroke-opacity:1" d="M 446.107,4 464.376,4 z" id="boundary" inkscape:connector-curvature="0" />
	<path style="fill:none;stroke:red;stroke-width:1px;stroke-linecap:butt;stroke-linejoin:miter;stroke-opacity:1" d="M 548.413,544.759 566.681,544.759 z" id="boundary" inkscape:connector-curvature="0" />
	<path style="fill:none;stroke:red;stroke-width:1px;stroke-linecap:butt;stroke-linejoin:miter;stroke-opacity:1" d="M 511.875,544.759 530.144,544.759 z" id="boundary" inkscape:connector-curvature="0" />
	<path style="fill:none;stroke:red;stroke-width:1px;stroke-linecap:butt;stroke-linejoin:miter;stroke-opacity:1" d="M 475.337,122.748 493.606,122.748 z" id="boundary" inkscape:connector-curvature="0" />
	<path style="fill:none;stroke:red;stroke-width:1px;stroke-linecap:butt;stroke-linejoin:miter;stroke-opacity:1" d="M 493.606,122.748 506.394,137.363 z" id="boundary" inkscape:connector-curvature="0" />
	<path style="fill:none;stroke:red;stroke-width:1px;stroke-linecap:butt;stroke-linejoin:miter;stroke-opacity:1" d="M 639.757,261.591 636.103,243.322 z" id="boundary" inkscape:connector-curvature="0" />
	<path style="fill:none;stroke:red;stroke-width:1px;stroke-linecap:butt;stroke-linejoin:miter;stroke-opacity:1" d="M 530.144,544.759 548.413,544.759 z" id="boundary" inkscape:connector-curvature="0" />
	<path style="fill:none;stroke:red;stroke-width:1px;stroke-linecap:butt;stroke-linejoin:miter;stroke-opacity:1" d="M 524.663,141.017 506.394,137.363 z" id="boundary" inkscape:connector-curvature="0" />
	<path style="fill:none;stroke:red;stroke-width:1px;stroke-linecap:butt;stroke-linejoin:miter;stroke-opacity:1" d="M 524.663,141.017 542.932,141.017 z" id="boundary" inkscape:connector-curvature="0" />
	<path style="fill:none;stroke:red;stroke-width:1px;stroke-linecap:butt;stroke-linejoin:miter;stroke-opacity:1" d="M 584.95,544.759 603.219,544.759 z" id="boundary" inkscape:connector-curvature="0" />
	<path style="fill:none;stroke:red;stroke-width:1px;stroke-linecap:butt;stroke-linejoin:miter;stroke-opacity:1" d="M 579.47,141.017 561.201,141.017 z" id="boundary" inkscape:connector-curvature="0" />
	<path style="fill:none;stroke:red;stroke-width:1px;stroke-linecap:butt;stroke-linejoin:miter;stroke-opacity:1" d="M 542.932,141.017 561.201,141.017 z" id="boundary" inkscape:connector-curvature="0" />
	<path style="fill:none;stroke:red;stroke-width:1px;stroke-linecap:butt;stroke-linejoin:miter;stroke-opacity:1" d="M 603.219,544.759 621.488,544.759 z" id="boundary" inkscape:connector-curvature="0" />
	<path style="fill:none;stroke:red;stroke-width:1px;stroke-linecap:butt;stroke-linejoin:miter;stroke-opacity:1" d="M 621.488,544.759 639.757,544.759 z" id="boundary" inkscape:connector-curvature="0" />
	<path style="fill:none;stroke:red;stroke-width:1px;stroke-linecap:butt;stroke-linejoin:miter;stroke-opacity:1" d="M 626.969,159.285 616.007,144.67 z" id="boundary" inkscape:connector-curvature="0" />
	<path style="fill:none;stroke:red;stroke-width:1px;stroke-linecap:butt;stroke-linejoin:miter;stroke-opacity:1" d="M 616.007,144.67 597.738,141.017 z" id="boundary" inkscape:connector-curvature="0" />
	<path style="fill:none;stroke:red;stroke-width:1px;stroke-linecap:butt;stroke-linejoin:miter;stroke-opacity:1" d="M 579.47,141.017 597.738,141.017 z" id="boundary" inkscape:connector-curvature="0" />
	<path style="fill:none;stroke:red;stroke-width:1px;stroke-linecap:butt;stroke-linejoin:miter;stroke-opacity:1" d="M 676.295,544.759 658.026,544.759 z" id="boundary" inkscape:connector-curvature="0" />
	<path style="fill:none;stroke:red;stroke-width:1px;stroke-linecap:butt;stroke-linejoin:miter;stroke-opacity:1" d="M 639.757,261.591 654.372,274.379 z" id="boundary" inkscape:connector-curvature="0" />
	<path style="fill:none;stroke:red;stroke-width:1px;stroke-linecap:butt;stroke-linejoin:miter;stroke-opacity:1" d="M 694.564,544.759 676.295,544.759 z" id="boundary" inkscape:connector-curvature="0" />
	<path style="fill:none;stroke:red;stroke-width:1px;stroke-linecap:butt;stroke-linejoin:miter;stroke-opacity:1" d="M 700.044,407.742 700.044,426.011 z" id="boundary" inkscape:connector-curvature="0" />
	<path style="fill:none;stroke:red;stroke-width:1px;stroke-linecap:butt;stroke-linejoin:miter;stroke-opacity:1" d="M 645.238,159.285 626.969,159.285 z" id="boundary" inkscape:connector-curvature="0" />
	<path style="fill:none;stroke:red;stroke-width:1px;stroke-linecap:butt;stroke-linejoin:miter;stroke-opacity:1" d="M 636.103,243.322 652.545,234.188 z" id="boundary" inkscape:connector-curvature="0" />
	<path style="fill:none;stroke:red;stroke-width:1px;stroke-linecap:butt;stroke-linejoin:miter;stroke-opacity:1" d="M 694.564,544.759 712.832,544.759 z" id="boundary" inkscape:connector-curvature="0" />
	<path style="fill:none;stroke:red;stroke-width:1px;stroke-linecap:butt;stroke-linejoin:miter;stroke-opacity:1" d="M 700.044,426.011 700.044,444.28 z" id="boundary" inkscape:connector-curvature="0" />
	<path style="fill:none;stroke:red;stroke-width:1px;stroke-linecap:butt;stroke-linejoin:miter;stroke-opacity:1" d="M 654.372,274.379 672.641,278.033 z" id="boundary" inkscape:connector-curvature="0" />
	<path style="fill:none;stroke:red;stroke-width:1px;stroke-linecap:butt;stroke-linejoin:miter;stroke-opacity:1" d="M 652.545,234.188 670.814,234.188 z" id="boundary" inkscape:connector-curvature="0" />
	<path style="fill:none;stroke:red;stroke-width:1px;stroke-linecap:butt;stroke-linejoin:miter;stroke-opacity:1" d="M 645.238,159.285 663.506,159.285 z" id="boundary" inkscape:connector-curvature="0" />
	<path style="fill:none;stroke:red;stroke-width:1px;stroke-linecap:butt;stroke-linejoin:miter;stroke-opacity:1" d="M 712.832,544.759 731.101,544.759 z" id="boundary" inkscape:connector-curvature="0" />
	<path style="fill:none;stroke:red;stroke-width:1px;stroke-linecap:butt;stroke-linejoin:miter;stroke-opacity:1" d="M 670.814,234.188 681.775,215.919 z" id="boundary" inkscape:connector-curvature="0" />
	<path style="fill:none;stroke:red;stroke-width:1px;stroke-linecap:butt;stroke-linejoin:miter;stroke-opacity:1" d="M 663.506,159.285 681.775,164.766 z" id="boundary" inkscape:connector-curvature="0" />
	<path style="fill:none;stroke:red;stroke-width:1px;stroke-linecap:butt;stroke-linejoin:miter;stroke-opacity:1" d="M 681.775,164.766 690.91,181.208 z" id="boundary" inkscape:connector-curvature="0" />
	<path style="fill:none;stroke:red;stroke-width:1px;stroke-linecap:butt;stroke-linejoin:miter;stroke-opacity:1" d="M 690.91,199.477 681.775,215.919 z" id="boundary" inkscape:connector-curvature="0" />
	<path style="fill:none;stroke:red;stroke-width:1px;stroke-linecap:butt;stroke-linejoin:miter;stroke-opacity:1" d="M 690.91,199.477 690.91,181.208 z" id="boundary" inkscape:connector-curvature="0" />
	<path style="fill:none;stroke:red;stroke-width:1px;stroke-linecap:butt;stroke-linejoin:miter;stroke-opacity:1" d="M 672.641,278.033 690.91,278.033 z" id="boundary" inkscape:connector-curvature="0" />
	<path style="fill:none;stroke:red;stroke-width:1px;stroke-linecap:butt;stroke-linejoin:miter;stroke-opacity:1" d="M 690.91,278.033 709.179,278.033 z" id="boundary" inkscape:connector-curvature="0" />
	<path style="fill:none;stroke:red;stroke-width:1px;stroke-linecap:butt;stroke-linejoin:miter;stroke-opacity:1" d="M 709.179,460.722 700.044,444.28 z" id="boundary" inkscape:connector-curvature="0" />
	<path style="fill:none;stroke:red;stroke-width:1px;stroke-linecap:butt;stroke-linejoin:miter;stroke-opacity:1" d="M 700.044,407.742 716.486,398.608 z" id="boundary" inkscape:connector-curvature="0" />
	<path style="fill:none;stroke:red;stroke-width:1px;stroke-linecap:butt;stroke-linejoin:miter;stroke-opacity:1" d="M 716.486,398.608 732.928,389.473 z" id="boundary" inkscape:connector-curvature="0" />
	<path style="fill:none;stroke:red;stroke-width:1px;stroke-linecap:butt;stroke-linejoin:miter;stroke-opacity:1" d="M 709.179,460.722 727.448,460.722 z" id="boundary" inkscape:connector-curvature="0" />
	<path style="fill:none;stroke:red;stroke-width:1px;stroke-linecap:butt;stroke-linejoin:miter;stroke-opacity:1" d="M 731.101,544.759 749.37,542.932 z" id="boundary" inkscape:connector-curvature="0" />
	<path style="fill:none;stroke:red;stroke-width:1px;stroke-linecap:butt;stroke-linejoin:miter;stroke-opacity:1" d="M 709.179,278.033 727.448,278.033 z" id="boundary" inkscape:connector-curvature="0" />
	<path style="fill:none;stroke:red;stroke-width:1px;stroke-linecap:butt;stroke-linejoin:miter;stroke-opacity:1" d="M 727.448,460.722 745.716,466.203 z" id="boundary" inkscape:connector-curvature="0" />
	<path style="fill:none;stroke:red;stroke-width:1px;stroke-linecap:butt;stroke-linejoin:miter;stroke-opacity:1" d="M 727.448,278.033 745.716,278.033 z" id="boundary" inkscape:connector-curvature="0" />
	<path style="fill:none;stroke:red;stroke-width:1px;stroke-linecap:butt;stroke-linejoin:miter;stroke-opacity:1" d="M 732.928,389.473 751.197,385.82 z" id="boundary" inkscape:connector-curvature="0" />
	<path style="fill:none;stroke:red;stroke-width:1px;stroke-linecap:butt;stroke-linejoin:miter;stroke-opacity:1" d="M 745.716,466.203 745.716,484.471 z" id="boundary" inkscape:connector-curvature="0" />
	<path style="fill:none;stroke:red;stroke-width:1px;stroke-linecap:butt;stroke-linejoin:miter;stroke-opacity:1" d="M 767.639,533.797 749.37,542.932 z" id="boundary" inkscape:connector-curvature="0" />
	<path style="fill:none;stroke:red;stroke-width:1px;stroke-linecap:butt;stroke-linejoin:miter;stroke-opacity:1" d="M 745.716,484.471 758.505,499.087 z" id="boundary" inkscape:connector-curvature="0" />
	<path style="fill:none;stroke:red;stroke-width:1px;stroke-linecap:butt;stroke-linejoin:miter;stroke-opacity:1" d="M 751.197,385.82 769.466,385.82 z" id="boundary" inkscape:connector-curvature="0" />
	<path style="fill:none;stroke:red;stroke-width:1px;stroke-linecap:butt;stroke-linejoin:miter;stroke-opacity:1" d="M 763.985,272.552 745.716,278.033 z" id="boundary" inkscape:connector-curvature="0" />
	<path style="fill:none;stroke:red;stroke-width:1px;stroke-linecap:butt;stroke-linejoin:miter;stroke-opacity:1" d="M 769.466,385.82 787.735,376.685 z" id="boundary" inkscape:connector-curvature="0" />
	<path style="fill:none;stroke:red;stroke-width:1px;stroke-linecap:butt;stroke-linejoin:miter;stroke-opacity:1" d="M 855.33,334.667 837.061,343.801 z" id="boundary" inkscape:connector-curvature="0" />
	<path style="fill:none;stroke:red;stroke-width:1px;stroke-linecap:butt;stroke-linejoin:miter;stroke-opacity:1" d="M 837.061,343.801 822.446,360.243 z" id="boundary" inkscape:connector-curvature="0" />
	<path style="fill:none;stroke:red;stroke-width:1px;stroke-linecap:butt;stroke-linejoin:miter;stroke-opacity:1" d="M 758.505,499.087 773.12,511.875 z" id="boundary" inkscape:connector-curvature="0" />
	<path style="fill:none;stroke:red;stroke-width:1px;stroke-linecap:butt;stroke-linejoin:miter;stroke-opacity:1" d="M 787.735,376.685 806.004,371.204 z" id="boundary" inkscape:connector-curvature="0" />
	<path style="fill:none;stroke:red;stroke-width:1px;stroke-linecap:butt;stroke-linejoin:miter;stroke-opacity:1" d="M 773.12,511.875 767.639,533.797 z" id="boundary" inkscape:connector-curvature="0" />
	<path style="fill:none;stroke:red;stroke-width:1px;stroke-linecap:butt;stroke-linejoin:miter;stroke-opacity:1" d="M 763.985,272.552 782.254,268.899 z" id="boundary" inkscape:connector-curvature="0" />
	<path style="fill:none;stroke:red;stroke-width:1px;stroke-linecap:butt;stroke-linejoin:miter;stroke-opacity:1" d="M 806.004,371.204 822.446,360.243 z" id="boundary" inkscape:connector-curvature="0" />
	<path style="fill:none;stroke:red;stroke-width:1px;stroke-linecap:butt;stroke-linejoin:miter;stroke-opacity:1" d="M 782.254,268.899 800.523,268.899 z" id="boundary" inkscape:connector-curvature="0" />
	<path style="fill:none;stroke:red;stroke-width:1px;stroke-linecap:butt;stroke-linejoin:miter;stroke-opacity:1" d="M 873.599,325.532 891.867,325.532 z" id="boundary" inkscape:connector-curvature="0" />
	<path style="fill:none;stroke:red;stroke-width:1px;stroke-linecap:butt;stroke-linejoin:miter;stroke-opacity:1" d="M 873.599,325.532 855.33,334.667 z" id="boundary" inkscape:connector-curvature="0" />
	<path style="fill:none;stroke:red;stroke-width:1px;stroke-linecap:butt;stroke-linejoin:miter;stroke-opacity:1" d="M 800.523,268.899 818.792,268.899 z" id="boundary" inkscape:connector-curvature="0" />
	<path style="fill:none;stroke:red;stroke-width:1px;stroke-linecap:butt;stroke-linejoin:miter;stroke-opacity:1" d="M 818.792,268.899 837.061,268.899 z" id="boundary" inkscape:connector-curvature="0" />
	<path style="fill:none;stroke:red;stroke-width:1px;stroke-linecap:butt;stroke-linejoin:miter;stroke-opacity:1" d="M 837.061,268.899 855.33,263.418 z" id="boundary" inkscape:connector-curvature="0" />
	<path style="fill:none;stroke:red;stroke-width:1px;stroke-linecap:butt;stroke-linejoin:miter;stroke-opacity:1" d="M 908.309,316.398 891.867,325.532 z" id="boundary" inkscape:connector-curvature="0" />
	<path style="fill:none;stroke:red;stroke-width:1px;stroke-linecap:butt;stroke-linejoin:miter;stroke-opacity:1" d="M 855.33,263.418 869.945,250.63 z" id="boundary" inkscape:connector-curvature="0" />
	<path style="fill:none;stroke:red;stroke-width:1px;stroke-linecap:butt;stroke-linejoin:miter;stroke-opacity:1" d="M 955.808,298.129 937.54,298.129 z" id="boundary" inkscape:connector-curvature="0" />
	<path style="fill:none;stroke:red;stroke-width:1px;stroke-linecap:butt;stroke-linejoin:miter;stroke-opacity:1" d="M 904.656,241.495 886.387,241.495 z" id="boundary" inkscape:connector-curvature="0" />
	<path style="fill:none;stroke:red;stroke-width:1px;stroke-linecap:butt;stroke-linejoin:miter;stroke-opacity:1" d="M 869.945,250.63 886.387,241.495 z" id="boundary" inkscape:connector-curvature="0" />
	<path style="fill:none;stroke:red;stroke-width:1px;stroke-linecap:butt;stroke-linejoin:miter;stroke-opacity:1" d="M 919.271,298.129 937.54,298.129 z" id="boundary" inkscape:connector-curvature="0" />
	<path style="fill:none;stroke:red;stroke-width:1px;stroke-linecap:butt;stroke-linejoin:miter;stroke-opacity:1" d="M 919.271,298.129 908.309,316.398 z" id="boundary" inkscape:connector-curvature="0" />
	<path style="fill:none;stroke:red;stroke-width:1px;stroke-linecap:butt;stroke-linejoin:miter;stroke-opacity:1" d="M 904.656,241.495 922.924,232.361 z" id="boundary" inkscape:connector-curvature="0" />
	<path style="fill:none;stroke:red;stroke-width:1px;stroke-linecap:butt;stroke-linejoin:miter;stroke-opacity:1" d="M 955.808,298.129 972.25,288.994 z" id="boundary" inkscape:connector-curvature="0" />
	<path style="fill:none;stroke:red;stroke-width:1px;stroke-linecap:butt;stroke-linejoin:miter;stroke-opacity:1" d="M 922.924,232.361 941.193,232.361 z" id="boundary" inkscape:connector-curvature="0" />
	<path style="fill:none;stroke:red;stroke-width:1px;stroke-linecap:butt;stroke-linejoin:miter;stroke-opacity:1" d="M 972.25,288.994 986.866,278.033 z" id="boundary" inkscape:connector-curvature="0" />
	<path style="fill:none;stroke:red;stroke-width:1px;stroke-linecap:butt;stroke-linejoin:miter;stroke-opacity:1" d="M 941.193,232.361 959.462,232.361 z" id="boundary" inkscape:connector-curvature="0" />
	<path style="fill:none;stroke:red;stroke-width:1px;stroke-linecap:butt;stroke-linejoin:miter;stroke-opacity:1" d="M 959.462,232.361 977.731,232.361 z" id="boundary" inkscape:connector-curvature="0" />
	<path style="fill:none;stroke:red;stroke-width:1px;stroke-linecap:butt;stroke-linejoin:miter;stroke-opacity:1" d="M 977.731,232.361 996,232.361 z" id="boundary" inkscape:connector-curvature="0" />
	<path style="fill:none;stroke:red;stroke-width:1px;stroke-linecap:butt;stroke-linejoin:miter;stroke-opacity:1" d="M 996,232.361 996,259.764 z" id="boundary" inkscape:connector-curvature="0" />
	<path style="fill:none;stroke:red;stroke-width:1px;stroke-linecap:butt;stroke-linejoin:miter;stroke-opacity:1" d="M 996,259.764 986.866,278.033 z" id="boundary" inkscape:connector-curvature="0" />
	<circle cx="4" cy="630.622" r="4" fill="#0" id="circle0"/>
	<circle cx="4" cy="648.891" r="4" fill="#0" id="circle1"/>
	<circle cx="13.1344" cy="665.333" r="4" fill="#0" id="circle2"/>
	<circle cx="18.6151" cy="616.007" r="4" fill="#0" id="circle3"/>
	<circle cx="25.9227" cy="679.948" r="4" fill="#0" id="circle4"/>
	<circle cx="31.4033" cy="402.262" r="4" fill="#0" id="circle5"/>
	<circle cx="31.4033" cy="420.53" r="4" fill="#0" id="circle6"/>
	<circle cx="31.4033" cy="438.799" r="4" fill="#0" id="circle7"/>
	<circle cx="31.4033" cy="457.068" r="4" fill="#0" id="circle8"/>
	<circle cx="31.4033" cy="475.337" r="4" fill="#0" id="circle9"/>
	<circle cx="31.4033" cy="493.606" r="4" fill="#0" id="circle10"/>
	<circle cx="31.4033" cy="511.875" r="4" fill="#0" id="circle11"/>
	<circle cx="31.4033" cy="530.144" r="4" fill="#0" id="circle12"/>
	<circle cx="36.884" cy="616.007" r="4" fill="#0" id="circle13"/>
	<circle cx="40.5378" cy="383.993" r="4" fill="#0" id="circle14"/>
	<circle cx="40.5378" cy="546.586" r="4" fill="#0" id="circle15"/>
	<circle cx="44.1915" cy="681.775" r="4" fill="#0" id="circle16"/>
	<circle cx="49.6722" cy="356.589" r="4" fill="#0" id="circle17"/>
	<circle cx="49.6722" cy="563.028" r="4" fill="#0" id="circle18"/>
	<circle cx="53.326" cy="625.142" r="4" fill="#0" id="circle19"/>
	<circle cx="58.8066" cy="310.917" r="4" fill="#0" id="circle20"/>
	<circle cx="58.8066" cy="329.186" r="4" fill="#0" id="circle21"/>
	<circle cx="60.6335" cy="643.411" r="4" fill="#0" id="circle22"/>
	<circle cx="60.6335" cy="661.68" r="4" fill="#0" id="circle23"/>
	<circle cx="62.4604" cy="681.775" r="4" fill="#0" id="circle24"/>
	<circle cx="67.9411" cy="292.648" r="4" fill="#0" id="circle25"/>
	<circle cx="67.9411" cy="563.028" r="4" fill="#0" id="circle26"/>
	<circle cx="77.0755" cy="274.379" r="4" fill="#0" id="circle27"/>
	<circle cx="78.9024" cy="661.68" r="4" fill="#0" id="circle28"/>
	<circle cx="80.7293" cy="687.256" r="4" fill="#0" id="circle29"/>
	<circle cx="84.3831" cy="572.162" r="4" fill="#0" id="circle30"/>
	<circle cx="91.6906" cy="259.764" r="4" fill="#0" id="circle31"/>
	<circle cx="97.1713" cy="661.68" r="4" fill="#0" id="circle32"/>
	<circle cx="98.9982" cy="690.91" r="4" fill="#0" id="circle33"/>
	<circle cx="100.825" cy="581.297" r="4" fill="#0" id="circle34"/>
	<circle cx="104.479" cy="237.842" r="4" fill="#0" id="circle35"/>
	<circle cx="115.44" cy="661.68" r="4" fill="#0" id="circle36"/>
	<circle cx="117.267" cy="690.91" r="4" fill="#0" id="circle37"/>
	<circle cx="119.094" cy="223.227" r="4" fill="#0" id="circle38"/>
	<circle cx="119.094" cy="581.297" r="4" fill="#0" id="circle39"/>
	<circle cx="131.882" cy="652.545" r="4" fill="#0" id="circle40"/>
	<circle cx="133.709" cy="208.611" r="4" fill="#0" id="circle41"/>
	<circle cx="135.536" cy="690.91" r="4" fill="#0" id="circle42"/>
	<circle cx="137.363" cy="581.297" r="4" fill="#0" id="circle43"/>
	<circle cx="150.151" cy="192.169" r="4" fill="#0" id="circle44"/>
	<circle cx="150.151" cy="648.891" r="4" fill="#0" id="circle45"/>
	<circle cx="151.978" cy="681.775" r="4" fill="#0" id="circle46"/>
	<circle cx="155.632" cy="581.297" r="4" fill="#0" id="circle47"/>
	<circle cx="168.42" cy="183.035" r="4" fill="#0" id="circle48"/>
	<circle cx="168.42" cy="648.891" r="4" fill="#0" id="circle49"/>
	<circle cx="170.247" cy="672.641" r="4" fill="#0" id="circle50"/>
	<circle cx="173.901" cy="581.297" r="4" fill="#0" id="circle51"/>
	<circle cx="186.689" cy="177.554" r="4" fill="#0" id="circle52"/>
	<circle cx="186.689" cy="595.912" r="4" fill="#0" id="circle53"/>
	<circle cx="186.689" cy="614.18" r="4" fill="#0" id="circle54"/>
	<circle cx="186.689" cy="632.449" r="4" fill="#0" id="circle55"/>
	<circle cx="186.689" cy="663.506" r="4" fill="#0" id="circle56"/>
	<circle cx="203.131" cy="168.42" r="4" fill="#0" id="circle57"/>
	<circle cx="204.958" cy="663.506" r="4" fill="#0" id="circle58"/>
	<circle cx="221.4" cy="168.42" r="4" fill="#0" id="circle59"/>
	<circle cx="223.227" cy="663.506" r="4" fill="#0" id="circle60"/>
	<circle cx="237.842" cy="159.285" r="4" fill="#0" id="circle61"/>
	<circle cx="241.495" cy="658.026" r="4" fill="#0" id="circle62"/>
	<circle cx="256.11" cy="150.151" r="4" fill="#0" id="circle63"/>
	<circle cx="259.764" cy="648.891" r="4" fill="#0" id="circle64"/>
	<circle cx="274.379" cy="150.151" r="4" fill="#0" id="circle65"/>
	<circle cx="278.033" cy="645.238" r="4" fill="#0" id="circle66"/>
	<circle cx="292.648" cy="150.151" r="4" fill="#0" id="circle67"/>
	<circle cx="294.475" cy="654.372" r="4" fill="#0" id="circle68"/>
	<circle cx="309.09" cy="141.017" r="4" fill="#0" id="circle69"/>
	<circle cx="312.744" cy="654.372" r="4" fill="#0" id="circle70"/>
	<circle cx="323.705" cy="27.7495" r="4" fill="#0" id="circle71"/>
	<circle cx="323.705" cy="46.0184" r="4" fill="#0" id="circle72"/>
	<circle cx="327.359" cy="141.017" r="4" fill="#0" id="circle73"/>
	<circle cx="331.013" cy="654.372" r="4" fill="#0" id="circle74"/>
	<circle cx="338.32" cy="13.1344" r="4" fill="#0" id="circle75"/>
	<circle cx="341.974" cy="51.4991" r="4" fill="#0" id="circle76"/>
	<circle cx="345.628" cy="141.017" r="4" fill="#0" id="circle77"/>
	<circle cx="349.282" cy="650.718" r="4" fill="#0" id="circle78"/>
	<circle cx="354.762" cy="4" r="4" fill="#0" id="circle79"/>
	<circle cx="360.243" cy="51.4991" r="4" fill="#0" id="circle80"/>
	<circle cx="360.243" cy="91.6906" r="4" fill="#0" id="circle81"/>
	<circle cx="362.07" cy="131.882" r="4" fill="#0" id="circle82"/>
	<circle cx="367.551" cy="645.238" r="4" fill="#0" id="circle83"/>
	<circle cx="369.378" cy="67.9411" r="4" fill="#0" id="circle84"/>
	<circle cx="371.204" cy="106.306" r="4" fill="#0" id="circle85"/>
	<circle cx="373.031" cy="4" r="4" fill="#0" id="circle86"/>
	<circle cx="380.339" cy="126.401" r="4" fill="#0" id="circle87"/>
	<circle cx="385.82" cy="645.238" r="4" fill="#0" id="circle88"/>
	<circle cx="391.3" cy="4" r="4" fill="#0" id="circle89"/>
	<circle cx="404.088" cy="645.238" r="4" fill="#0" id="circle90"/>
	<circle cx="409.569" cy="4" r="4" fill="#0" id="circle91"/>
	<circle cx="416.877" cy="42.3646" r="4" fill="#0" id="circle92"/>
	<circle cx="422.357" cy="645.238" r="4" fill="#0" id="circle93"/>
	<circle cx="426.011" cy="58.8066" r="4" fill="#0" id="circle94"/>
	<circle cx="427.838" cy="4" r="4" fill="#0" id="circle95"/>
	<circle cx="435.145" cy="33.2302" r="4" fill="#0" id="circle96"/>
	<circle cx="438.799" cy="636.103" r="4" fill="#0" id="circle97"/>
	<circle cx="444.28" cy="58.8066" r="4" fill="#0" id="circle98"/>
	<circle cx="444.28" cy="88.0368" r="4" fill="#0" id="circle99"/>
	<circle cx="444.28" cy="572.162" r="4" fill="#0" id="circle100"/>
	<circle cx="444.28" cy="590.431" r="4" fill="#0" id="circle101"/>
	<circle cx="446.107" cy="4" r="4" fill="#0" id="circle102"/>
	<circle cx="447.934" cy="106.306" r="4" fill="#0" id="circle103"/>
	<circle cx="451.587" cy="24.0958" r="4" fill="#0" id="circle104"/>
	<circle cx="453.414" cy="606.873" r="4" fill="#0" id="circle105"/>
	<circle cx="453.414" cy="625.142" r="4" fill="#0" id="circle106"/>
	<circle cx="457.068" cy="122.748" r="4" fill="#0" id="circle107"/>
	<circle cx="458.895" cy="559.374" r="4" fill="#0" id="circle108"/>
	<circle cx="462.549" cy="82.5562" r="4" fill="#0" id="circle109"/>
	<circle cx="464.376" cy="4" r="4" fill="#0" id="circle110"/>
	<circle cx="475.337" cy="122.748" r="4" fill="#0" id="circle111"/>
	<circle cx="477.164" cy="553.893" r="4" fill="#0" id="circle112"/>
	<circle cx="493.606" cy="122.748" r="4" fill="#0" id="circle113"/>
	<circle cx="493.606" cy="544.759" r="4" fill="#0" id="circle114"/>
	<circle cx="506.394" cy="137.363" r="4" fill="#0" id="circle115"/>
	<circle cx="511.875" cy="544.759" r="4" fill="#0" id="circle116"/>
	<circle cx="524.663" cy="141.017" r="4" fill="#0" id="circle117"/>
	<circle cx="530.144" cy="544.759" r="4" fill="#0" id="circle118"/>
	<circle cx="542.932" cy="141.017" r="4" fill="#0" id="circle119"/>
	<circle cx="548.413" cy="544.759" r="4" fill="#0" id="circle120"/>
	<circle cx="561.201" cy="141.017" r="4" fill="#0" id="circle121"/>
	<circle cx="566.681" cy="544.759" r="4" fill="#0" id="circle122"/>
	<circle cx="579.47" cy="141.017" r="4" fill="#0" id="circle123"/>
	<circle cx="584.95" cy="544.759" r="4" fill="#0" id="circle124"/>
	<circle cx="597.738" cy="141.017" r="4" fill="#0" id="circle125"/>
	<circle cx="603.219" cy="544.759" r="4" fill="#0" id="circle126"/>
	<circle cx="616.007" cy="144.67" r="4" fill="#0" id="circle127"/>
	<circle cx="621.488" cy="544.759" r="4" fill="#0" id="circle128"/>
	<circle cx="626.969" cy="159.285" r="4" fill="#0" id="circle129"/>
	<circle cx="636.103" cy="243.322" r="4" fill="#0" id="circle130"/>
	<circle cx="639.757" cy="261.591" r="4" fill="#0" id="circle131"/>
	<circle cx="639.757" cy="544.759" r="4" fill="#0" id="circle132"/>
	<circle cx="645.238" cy="159.285" r="4" fill="#0" id="circle133"/>
	<circle cx="652.545" cy="234.188" r="4" fill="#0" id="circle134"/>
	<circle cx="654.372" cy="274.379" r="4" fill="#0" id="circle135"/>
	<circle cx="658.026" cy="544.759" r="4" fill="#0" id="circle136"/>
	<circle cx="663.506" cy="159.285" r="4" fill="#0" id="circle137"/>
	<circle cx="670.814" cy="234.188" r="4" fill="#0" id="circle138"/>
	<circle cx="672.641" cy="278.033" r="4" fill="#0" id="circle139"/>
	<circle cx="676.295" cy="544.759" r="4" fill="#0" id="circle140"/>
	<circle cx="681.775" cy="164.766" r="4" fill="#0" id="circle141"/>
	<circle cx="681.775" cy="215.919" r="4" fill="#0" id="circle142"/>
	<circle cx="690.91" cy="181.208" r="4" fill="#0" id="circle143"/>
	<circle cx="690.91" cy="199.477" r="4" fill="#0" id="circle144"/>
	<circle cx="690.91" cy="278.033" r="4" fill="#0" id="circle145"/>
	<circle cx="694.564" cy="544.759" r="4" fill="#0" id="circle146"/>
	<circle cx="700.044" cy="407.742" r="4" fill="#0" id="circle147"/>
	<circle cx="700.044" cy="426.011" r="4" fill="#0" id="circle148"/>
	<circle cx="700.044" cy="444.28" r="4" fill="#0" id="circle149"/>
	<circle cx="709.179" cy="278.033" r="4" fill="#0" id="circle150"/>
	<circle cx="709.179" cy="460.722" r="4" fill="#0" id="circle151"/>
	<circle cx="712.832" cy="544.759" r="4" fill="#0" id="circle152"/>
	<circle cx="716.486" cy="398.608" r="4" fill="#0" id="circle153"/>
	<circle cx="727.448" cy="278.033" r="4" fill="#0" id="circle154"/>
	<circle cx="727.448" cy="460.722" r="4" fill="#0" id="circle155"/>
	<circle cx="731.101" cy="544.759" r="4" fill="#0" id="circle156"/>
	<circle cx="732.928" cy="389.473" r="4" fill="#0" id="circle157"/>
	<circle cx="745.716" cy="278.033" r="4" fill="#0" id="circle158"/>
	<circle cx="745.716" cy="466.203" r="4" fill="#0" id="circle159"/>
	<circle cx="745.716" cy="484.471" r="4" fill="#0" id="circle160"/>
	<circle cx="749.37" cy="542.932" r="4" fill="#0" id="circle161"/>
	<circle cx="751.197" cy="385.82" r="4" fill="#0" id="circle162"/>
	<circle cx="758.505" cy="499.087" r="4" fill="#0" id="circle163"/>
	<circle cx="763.985" cy="272.552" r="4" fill="#0" id="circle164"/>
	<circle cx="767.639" cy="533.797" r="4" fill="#0" id="circle165"/>
	<circle cx="769.466" cy="385.82" r="4" fill="#0" id="circle166"/>
	<circle cx="773.12" cy="511.875" r="4" fill="#0" id="circle167"/>
	<circle cx="782.254" cy="268.899" r="4" fill="#0" id="circle168"/>
	<circle cx="787.735" cy="376.685" r="4" fill="#0" id="circle169"/>
	<circle cx="800.523" cy="268.899" r="4" fill="#0" id="circle170"/>
	<circle cx="806.004" cy="371.204" r="4" fill="#0" id="circle171"/>
	<circle cx="818.792" cy="268.899" r="4" fill="#0" id="circle172"/>
	<circle cx="822.446" cy="360.243" r="4" fill="#0" id="circle173"/>
	<circle cx="837.061" cy="268.899" r="4" fill="#0" id="circle174"/>
	<circle cx="837.061" cy="343.801" r="4" fill="#0" id="circle175"/>
	<circle cx="855.33" cy="263.418" r="4" fill="#0" id="circle176"/>
	<circle cx="855.33" cy="334.667" r="4" fill="#0" id="circle177"/>
	<circle cx="869.945" cy="250.63" r="4" fill="#0" id="circle178"/>
	<circle cx="873.599" cy="325.532" r="4" fill="#0" id="circle179"/>
	<circle cx="886.387" cy="241.495" r="4" fill="#0" id="circle180"/>
	<circle cx="891.867" cy="325.532" r="4" fill="#0" id="circle181"/>
	<circle cx="904.656" cy="241.495" r="4" fill="#0" id="circle182"/>
	<circle cx="908.309" cy="316.398" r="4" fill="#0" id="circle183"/>
	<circle cx="919.271" cy="298.129" r="4" fill="#0" id="circle184"/>
	<circle cx="922.924" cy="232.361" r="4" fill="#0" id="circle185"/>
	<circle cx="937.54" cy="298.129" r="4" fill="#0" id="circle186"/>
	<circle cx="941.193" cy="232.361" r="4" fill="#0" id="circle187"/>
	<circle cx="955.808" cy="298.129" r="4" fill="#0" id="circle188"/>
	<circle cx="959.462" cy="232.361" r="4" fill="#0" id="circle189"/>
	<circle cx="972.25" cy="288.994" r="4" fill="#0" id="circle190"/>
	<circle cx="977.731" cy="232.361" r="4" fill="#0" id="circle191"/>
	<circle cx="986.866" cy="278.033" r="4" fill="#0" id="circle192"/>
	<circle cx="996" cy="232.361" r="4" fill="#0" id="circle193"/>
	<circle cx="996" cy="259.764" r="4" fill="#0" id="circle194"/>
	</g>
</svg>