<?xml version="1.0" encoding="UTF-8" standalone="no"?>
<!-- Created with CurveBenchmark -->
<svg
	xmlns:dc="http://purl.org/dc/elements/1.1/"
	xmlns:cc="http://creativecommons.org/ns#"
	xmlns:rdf="http://www.w3.org/1999/02/22-rdf-syntax-ns#"
	xmlns:svg="http://www.w3.org/2000/svg"
	xmlns="http://www.w3.org/2000/svg"
	xmlns:sodipodi="http://sodipodi.sourceforge.net/DTD/sodipodi-0.dtd"
	xmlns:inkscape="http://www.inkscape.org/namespaces/inkscape"
	width="1000"
	height="1000"
	id="svg2"
	version="1.1"
	sodipodi:docname="manifold/peel-kk0741.png.txt">
<defs
	id="defs4" />
<metadata
	id="metadata7">
	<rdf:RDF>
		<cc:Work
			rdf:about="">
			<dc:format>image/svg+xml</dc:format>
			<dc:type
				rdf:resource="http://purl.org/dc/dcmitype/StillImage" />
			<dc:title></dc:title>
		</cc:Work>
	</rdf:RDF>
</metadata>
<g
	inkscape:label="Layer 1"
	inkscape:groupmode="layer"
	id="layer1">
	<path style="fill:none;stroke:red;stroke-width:1px;stroke-linecap:butt;stroke-linejoin:miter;stroke-opacity:1" d="M 12.0914,322.799 4,308.235 z" id="boundary" inkscape:connector-curvature="0" />
	<path style="fill:none;stroke:red;stroke-width:1px;stroke-linecap:butt;stroke-linejoin:miter;stroke-opacity:1" d="M 4,308.235 4,292.052 z" id="boundary" inkscape:connector-curvature="0" />
	<path style="fill:none;stroke:red;stroke-width:1px;stroke-linecap:butt;stroke-linejoin:miter;stroke-opacity:1" d="M 4,292.052 16.9462,279.106 z" id="boundary" inkscape:connector-curvature="0" />
	<path style="fill:none;stroke:red;stroke-width:1px;stroke-linecap:butt;stroke-linejoin:miter;stroke-opacity:1" d="M 20.1827,337.364 25.0375,353.546 z" id="boundary" inkscape:connector-curvature="0" />
	<path style="fill:none;stroke:red;stroke-width:1px;stroke-linecap:butt;stroke-linejoin:miter;stroke-opacity:1" d="M 20.1827,337.364 12.0914,322.799 z" id="boundary" inkscape:connector-curvature="0" />
	<path style="fill:none;stroke:red;stroke-width:1px;stroke-linecap:butt;stroke-linejoin:miter;stroke-opacity:1" d="M 16.9462,279.106 25.0375,262.923 z" id="boundary" inkscape:connector-curvature="0" />
	<path style="fill:none;stroke:red;stroke-width:1px;stroke-linecap:butt;stroke-linejoin:miter;stroke-opacity:1" d="M 25.0375,262.923 37.9837,249.977 z" id="boundary" inkscape:connector-curvature="0" />
	<path style="fill:none;stroke:red;stroke-width:1px;stroke-linecap:butt;stroke-linejoin:miter;stroke-opacity:1" d="M 44.4568,381.057 52.5481,395.622 z" id="boundary" inkscape:connector-curvature="0" />
	<path style="fill:none;stroke:red;stroke-width:1px;stroke-linecap:butt;stroke-linejoin:miter;stroke-opacity:1" d="M 25.0375,353.546 37.9837,364.874 z" id="boundary" inkscape:connector-curvature="0" />
	<path style="fill:none;stroke:red;stroke-width:1px;stroke-linecap:butt;stroke-linejoin:miter;stroke-opacity:1" d="M 37.9837,364.874 44.4568,381.057 z" id="boundary" inkscape:connector-curvature="0" />
	<path style="fill:none;stroke:red;stroke-width:1px;stroke-linecap:butt;stroke-linejoin:miter;stroke-opacity:1" d="M 62.2577,225.703 46.075,233.794 z" id="boundary" inkscape:connector-curvature="0" />
	<path style="fill:none;stroke:red;stroke-width:1px;stroke-linecap:butt;stroke-linejoin:miter;stroke-opacity:1" d="M 46.075,233.794 37.9837,249.977 z" id="boundary" inkscape:connector-curvature="0" />
	<path style="fill:none;stroke:red;stroke-width:1px;stroke-linecap:butt;stroke-linejoin:miter;stroke-opacity:1" d="M 165.827,539.648 157.736,525.083 z" id="boundary" inkscape:connector-curvature="0" />
	<path style="fill:none;stroke:red;stroke-width:1px;stroke-linecap:butt;stroke-linejoin:miter;stroke-opacity:1" d="M 52.5481,395.622 63.876,408.568 z" id="boundary" inkscape:connector-curvature="0" />
	<path style="fill:none;stroke:red;stroke-width:1px;stroke-linecap:butt;stroke-linejoin:miter;stroke-opacity:1" d="M 76.8222,418.277 86.5318,431.223 z" id="boundary" inkscape:connector-curvature="0" />
	<path style="fill:none;stroke:red;stroke-width:1px;stroke-linecap:butt;stroke-linejoin:miter;stroke-opacity:1" d="M 76.8222,418.277 63.876,408.568 z" id="boundary" inkscape:connector-curvature="0" />
	<path style="fill:none;stroke:red;stroke-width:1px;stroke-linecap:butt;stroke-linejoin:miter;stroke-opacity:1" d="M 62.2577,225.703 70.3491,209.52 z" id="boundary" inkscape:connector-curvature="0" />
	<path style="fill:none;stroke:red;stroke-width:1px;stroke-linecap:butt;stroke-linejoin:miter;stroke-opacity:1" d="M 70.3491,209.52 84.9135,194.956 z" id="boundary" inkscape:connector-curvature="0" />
	<path style="fill:none;stroke:red;stroke-width:1px;stroke-linecap:butt;stroke-linejoin:miter;stroke-opacity:1" d="M 130.225,483.008 138.316,497.573 z" id="boundary" inkscape:connector-curvature="0" />
	<path style="fill:none;stroke:red;stroke-width:1px;stroke-linecap:butt;stroke-linejoin:miter;stroke-opacity:1" d="M 99.478,442.551 110.806,455.498 z" id="boundary" inkscape:connector-curvature="0" />
	<path style="fill:none;stroke:red;stroke-width:1px;stroke-linecap:butt;stroke-linejoin:miter;stroke-opacity:1" d="M 99.478,442.551 86.5318,431.223 z" id="boundary" inkscape:connector-curvature="0" />
	<path style="fill:none;stroke:red;stroke-width:1px;stroke-linecap:butt;stroke-linejoin:miter;stroke-opacity:1" d="M 84.9135,194.956 101.096,178.773 z" id="boundary" inkscape:connector-curvature="0" />
	<path style="fill:none;stroke:red;stroke-width:1px;stroke-linecap:butt;stroke-linejoin:miter;stroke-opacity:1" d="M 101.096,178.773 117.279,173.918 z" id="boundary" inkscape:connector-curvature="0" />
	<path style="fill:none;stroke:red;stroke-width:1px;stroke-linecap:butt;stroke-linejoin:miter;stroke-opacity:1" d="M 117.279,173.918 131.843,165.827 z" id="boundary" inkscape:connector-curvature="0" />
	<path style="fill:none;stroke:red;stroke-width:1px;stroke-linecap:butt;stroke-linejoin:miter;stroke-opacity:1" d="M 110.806,455.498 123.752,466.825 z" id="boundary" inkscape:connector-curvature="0" />
	<path style="fill:none;stroke:red;stroke-width:1px;stroke-linecap:butt;stroke-linejoin:miter;stroke-opacity:1" d="M 123.752,466.825 130.225,483.008 z" id="boundary" inkscape:connector-curvature="0" />
	<path style="fill:none;stroke:red;stroke-width:1px;stroke-linecap:butt;stroke-linejoin:miter;stroke-opacity:1" d="M 146.408,157.736 131.843,165.827 z" id="boundary" inkscape:connector-curvature="0" />
	<path style="fill:none;stroke:red;stroke-width:1px;stroke-linecap:butt;stroke-linejoin:miter;stroke-opacity:1" d="M 149.644,510.519 157.736,525.083 z" id="boundary" inkscape:connector-curvature="0" />
	<path style="fill:none;stroke:red;stroke-width:1px;stroke-linecap:butt;stroke-linejoin:miter;stroke-opacity:1" d="M 149.644,510.519 138.316,497.573 z" id="boundary" inkscape:connector-curvature="0" />
	<path style="fill:none;stroke:red;stroke-width:1px;stroke-linecap:butt;stroke-linejoin:miter;stroke-opacity:1" d="M 418.277,83.2953 431.223,94.6232 z" id="boundary" inkscape:connector-curvature="0" />
	<path style="fill:none;stroke:red;stroke-width:1px;stroke-linecap:butt;stroke-linejoin:miter;stroke-opacity:1" d="M 431.223,94.6232 442.551,107.569 z" id="boundary" inkscape:connector-curvature="0" />
	<path style="fill:none;stroke:red;stroke-width:1px;stroke-linecap:butt;stroke-linejoin:miter;stroke-opacity:1" d="M 165.827,539.648 175.537,552.594 z" id="boundary" inkscape:connector-curvature="0" />
	<path style="fill:none;stroke:red;stroke-width:1px;stroke-linecap:butt;stroke-linejoin:miter;stroke-opacity:1" d="M 175.537,552.594 183.628,567.158 z" id="boundary" inkscape:connector-curvature="0" />
	<path style="fill:none;stroke:red;stroke-width:1px;stroke-linecap:butt;stroke-linejoin:miter;stroke-opacity:1" d="M 146.408,157.736 154.499,141.553 z" id="boundary" inkscape:connector-curvature="0" />
	<path style="fill:none;stroke:red;stroke-width:1px;stroke-linecap:butt;stroke-linejoin:miter;stroke-opacity:1" d="M 154.499,141.553 170.682,133.462 z" id="boundary" inkscape:connector-curvature="0" />
	<path style="fill:none;stroke:red;stroke-width:1px;stroke-linecap:butt;stroke-linejoin:miter;stroke-opacity:1" d="M 406.949,70.3491 418.277,83.2953 z" id="boundary" inkscape:connector-curvature="0" />
	<path style="fill:none;stroke:red;stroke-width:1px;stroke-linecap:butt;stroke-linejoin:miter;stroke-opacity:1" d="M 406.949,70.3491 394.003,60.6395 z" id="boundary" inkscape:connector-curvature="0" />
	<path style="fill:none;stroke:red;stroke-width:1px;stroke-linecap:butt;stroke-linejoin:miter;stroke-opacity:1" d="M 170.682,133.462 182.01,105.951 z" id="boundary" inkscape:connector-curvature="0" />
	<path style="fill:none;stroke:red;stroke-width:1px;stroke-linecap:butt;stroke-linejoin:miter;stroke-opacity:1" d="M 182.01,105.951 194.956,93.0049 z" id="boundary" inkscape:connector-curvature="0" />
	<path style="fill:none;stroke:red;stroke-width:1px;stroke-linecap:butt;stroke-linejoin:miter;stroke-opacity:1" d="M 194.956,93.0049 207.902,80.0587 z" id="boundary" inkscape:connector-curvature="0" />
	<path style="fill:none;stroke:red;stroke-width:1px;stroke-linecap:butt;stroke-linejoin:miter;stroke-opacity:1" d="M 183.628,567.158 194.956,580.104 z" id="boundary" inkscape:connector-curvature="0" />
	<path style="fill:none;stroke:red;stroke-width:1px;stroke-linecap:butt;stroke-linejoin:miter;stroke-opacity:1" d="M 214.375,607.615 222.467,622.179 z" id="boundary" inkscape:connector-curvature="0" />
	<path style="fill:none;stroke:red;stroke-width:1px;stroke-linecap:butt;stroke-linejoin:miter;stroke-opacity:1" d="M 214.375,607.615 203.047,594.669 z" id="boundary" inkscape:connector-curvature="0" />
	<path style="fill:none;stroke:red;stroke-width:1px;stroke-linecap:butt;stroke-linejoin:miter;stroke-opacity:1" d="M 194.956,580.104 203.047,594.669 z" id="boundary" inkscape:connector-curvature="0" />
	<path style="fill:none;stroke:red;stroke-width:1px;stroke-linecap:butt;stroke-linejoin:miter;stroke-opacity:1" d="M 340.6,21.801 327.654,12.0914 z" id="boundary" inkscape:connector-curvature="0" />
	<path style="fill:none;stroke:red;stroke-width:1px;stroke-linecap:butt;stroke-linejoin:miter;stroke-opacity:1" d="M 207.902,80.0587 215.993,63.876 z" id="boundary" inkscape:connector-curvature="0" />
	<path style="fill:none;stroke:red;stroke-width:1px;stroke-linecap:butt;stroke-linejoin:miter;stroke-opacity:1" d="M 215.993,63.876 228.94,52.5481 z" id="boundary" inkscape:connector-curvature="0" />
	<path style="fill:none;stroke:red;stroke-width:1px;stroke-linecap:butt;stroke-linejoin:miter;stroke-opacity:1" d="M 280.724,7.23654 296.907,4 z" id="boundary" inkscape:connector-curvature="0" />
	<path style="fill:none;stroke:red;stroke-width:1px;stroke-linecap:butt;stroke-linejoin:miter;stroke-opacity:1" d="M 228.94,52.5481 235.413,36.3654 z" id="boundary" inkscape:connector-curvature="0" />
	<path style="fill:none;stroke:red;stroke-width:1px;stroke-linecap:butt;stroke-linejoin:miter;stroke-opacity:1" d="M 235.413,36.3654 251.595,28.2741 z" id="boundary" inkscape:connector-curvature="0" />
	<path style="fill:none;stroke:red;stroke-width:1px;stroke-linecap:butt;stroke-linejoin:miter;stroke-opacity:1" d="M 222.467,622.179 233.794,635.126 z" id="boundary" inkscape:connector-curvature="0" />
	<path style="fill:none;stroke:red;stroke-width:1px;stroke-linecap:butt;stroke-linejoin:miter;stroke-opacity:1" d="M 296.907,4 313.09,4 z" id="boundary" inkscape:connector-curvature="0" />
	<path style="fill:none;stroke:red;stroke-width:1px;stroke-linecap:butt;stroke-linejoin:miter;stroke-opacity:1" d="M 313.09,4 327.654,12.0914 z" id="boundary" inkscape:connector-curvature="0" />
	<path style="fill:none;stroke:red;stroke-width:1px;stroke-linecap:butt;stroke-linejoin:miter;stroke-opacity:1" d="M 233.794,635.126 246.741,644.835 z" id="boundary" inkscape:connector-curvature="0" />
	<path style="fill:none;stroke:red;stroke-width:1px;stroke-linecap:butt;stroke-linejoin:miter;stroke-opacity:1" d="M 251.595,28.2741 264.542,15.3279 z" id="boundary" inkscape:connector-curvature="0" />
	<path style="fill:none;stroke:red;stroke-width:1px;stroke-linecap:butt;stroke-linejoin:miter;stroke-opacity:1" d="M 264.542,15.3279 280.724,7.23654 z" id="boundary" inkscape:connector-curvature="0" />
	<path style="fill:none;stroke:red;stroke-width:1px;stroke-linecap:butt;stroke-linejoin:miter;stroke-opacity:1" d="M 246.741,644.835 261.305,652.927 z" id="boundary" inkscape:connector-curvature="0" />
	<path style="fill:none;stroke:red;stroke-width:1px;stroke-linecap:butt;stroke-linejoin:miter;stroke-opacity:1" d="M 261.305,652.927 275.869,661.018 z" id="boundary" inkscape:connector-curvature="0" />
	<path style="fill:none;stroke:red;stroke-width:1px;stroke-linecap:butt;stroke-linejoin:miter;stroke-opacity:1" d="M 275.869,661.018 292.052,661.018 z" id="boundary" inkscape:connector-curvature="0" />
	<path style="fill:none;stroke:red;stroke-width:1px;stroke-linecap:butt;stroke-linejoin:miter;stroke-opacity:1" d="M 306.617,652.927 322.799,652.927 z" id="boundary" inkscape:connector-curvature="0" />
	<path style="fill:none;stroke:red;stroke-width:1px;stroke-linecap:butt;stroke-linejoin:miter;stroke-opacity:1" d="M 306.617,652.927 292.052,661.018 z" id="boundary" inkscape:connector-curvature="0" />
	<path style="fill:none;stroke:red;stroke-width:1px;stroke-linecap:butt;stroke-linejoin:miter;stroke-opacity:1" d="M 340.6,21.801 356.783,28.2741 z" id="boundary" inkscape:connector-curvature="0" />
	<path style="fill:none;stroke:red;stroke-width:1px;stroke-linecap:butt;stroke-linejoin:miter;stroke-opacity:1" d="M 356.783,28.2741 368.111,41.2202 z" id="boundary" inkscape:connector-curvature="0" />
	<path style="fill:none;stroke:red;stroke-width:1px;stroke-linecap:butt;stroke-linejoin:miter;stroke-opacity:1" d="M 337.364,644.835 353.546,636.744 z" id="boundary" inkscape:connector-curvature="0" />
	<path style="fill:none;stroke:red;stroke-width:1px;stroke-linecap:butt;stroke-linejoin:miter;stroke-opacity:1" d="M 337.364,644.835 322.799,652.927 z" id="boundary" inkscape:connector-curvature="0" />
	<path style="fill:none;stroke:red;stroke-width:1px;stroke-linecap:butt;stroke-linejoin:miter;stroke-opacity:1" d="M 966.871,361.638 950.688,361.638 z" id="boundary" inkscape:connector-curvature="0" />
	<path style="fill:none;stroke:red;stroke-width:1px;stroke-linecap:butt;stroke-linejoin:miter;stroke-opacity:1" d="M 934.506,361.638 918.323,361.638 z" id="boundary" inkscape:connector-curvature="0" />
	<path style="fill:none;stroke:red;stroke-width:1px;stroke-linecap:butt;stroke-linejoin:miter;stroke-opacity:1" d="M 384.294,47.6933 394.003,60.6395 z" id="boundary" inkscape:connector-curvature="0" />
	<path style="fill:none;stroke:red;stroke-width:1px;stroke-linecap:butt;stroke-linejoin:miter;stroke-opacity:1" d="M 384.294,47.6933 368.111,41.2202 z" id="boundary" inkscape:connector-curvature="0" />
	<path style="fill:none;stroke:red;stroke-width:1px;stroke-linecap:butt;stroke-linejoin:miter;stroke-opacity:1" d="M 397.24,610.852 382.675,620.561 z" id="boundary" inkscape:connector-curvature="0" />
	<path style="fill:none;stroke:red;stroke-width:1px;stroke-linecap:butt;stroke-linejoin:miter;stroke-opacity:1" d="M 353.546,636.744 368.111,628.653 z" id="boundary" inkscape:connector-curvature="0" />
	<path style="fill:none;stroke:red;stroke-width:1px;stroke-linecap:butt;stroke-linejoin:miter;stroke-opacity:1" d="M 853.592,361.638 837.409,361.638 z" id="boundary" inkscape:connector-curvature="0" />
	<path style="fill:none;stroke:red;stroke-width:1px;stroke-linecap:butt;stroke-linejoin:miter;stroke-opacity:1" d="M 756.496,361.638 772.679,361.638 z" id="boundary" inkscape:connector-curvature="0" />
	<path style="fill:none;stroke:red;stroke-width:1px;stroke-linecap:butt;stroke-linejoin:miter;stroke-opacity:1" d="M 368.111,628.653 382.675,620.561 z" id="boundary" inkscape:connector-curvature="0" />
	<path style="fill:none;stroke:red;stroke-width:1px;stroke-linecap:butt;stroke-linejoin:miter;stroke-opacity:1" d="M 410.186,596.287 423.132,584.959 z" id="boundary" inkscape:connector-curvature="0" />
	<path style="fill:none;stroke:red;stroke-width:1px;stroke-linecap:butt;stroke-linejoin:miter;stroke-opacity:1" d="M 410.186,596.287 397.24,610.852 z" id="boundary" inkscape:connector-curvature="0" />
	<path style="fill:none;stroke:red;stroke-width:1px;stroke-linecap:butt;stroke-linejoin:miter;stroke-opacity:1" d="M 740.313,361.638 724.131,361.638 z" id="boundary" inkscape:connector-curvature="0" />
	<path style="fill:none;stroke:red;stroke-width:1px;stroke-linecap:butt;stroke-linejoin:miter;stroke-opacity:1" d="M 442.551,107.569 455.498,118.897 z" id="boundary" inkscape:connector-curvature="0" />
	<path style="fill:none;stroke:red;stroke-width:1px;stroke-linecap:butt;stroke-linejoin:miter;stroke-opacity:1" d="M 455.498,118.897 466.825,131.843 z" id="boundary" inkscape:connector-curvature="0" />
	<path style="fill:none;stroke:red;stroke-width:1px;stroke-linecap:butt;stroke-linejoin:miter;stroke-opacity:1" d="M 434.46,572.013 447.406,560.685 z" id="boundary" inkscape:connector-curvature="0" />
	<path style="fill:none;stroke:red;stroke-width:1px;stroke-linecap:butt;stroke-linejoin:miter;stroke-opacity:1" d="M 434.46,572.013 423.132,584.959 z" id="boundary" inkscape:connector-curvature="0" />
	<path style="fill:none;stroke:red;stroke-width:1px;stroke-linecap:butt;stroke-linejoin:miter;stroke-opacity:1" d="M 707.948,361.638 724.131,361.638 z" id="boundary" inkscape:connector-curvature="0" />
	<path style="fill:none;stroke:red;stroke-width:1px;stroke-linecap:butt;stroke-linejoin:miter;stroke-opacity:1" d="M 466.825,131.843 479.772,143.171 z" id="boundary" inkscape:connector-curvature="0" />
	<path style="fill:none;stroke:red;stroke-width:1px;stroke-linecap:butt;stroke-linejoin:miter;stroke-opacity:1" d="M 458.734,547.739 471.68,536.411 z" id="boundary" inkscape:connector-curvature="0" />
	<path style="fill:none;stroke:red;stroke-width:1px;stroke-linecap:butt;stroke-linejoin:miter;stroke-opacity:1" d="M 458.734,547.739 447.406,560.685 z" id="boundary" inkscape:connector-curvature="0" />
	<path style="fill:none;stroke:red;stroke-width:1px;stroke-linecap:butt;stroke-linejoin:miter;stroke-opacity:1" d="M 479.772,143.171 491.1,156.117 z" id="boundary" inkscape:connector-curvature="0" />
	<path style="fill:none;stroke:red;stroke-width:1px;stroke-linecap:butt;stroke-linejoin:miter;stroke-opacity:1" d="M 491.1,156.117 499.191,170.682 z" id="boundary" inkscape:connector-curvature="0" />
	<path style="fill:none;stroke:red;stroke-width:1px;stroke-linecap:butt;stroke-linejoin:miter;stroke-opacity:1" d="M 691.765,361.638 707.948,361.638 z" id="boundary" inkscape:connector-curvature="0" />
	<path style="fill:none;stroke:red;stroke-width:1px;stroke-linecap:butt;stroke-linejoin:miter;stroke-opacity:1" d="M 515.374,215.993 515.374,232.176 z" id="boundary" inkscape:connector-curvature="0" />
	<path style="fill:none;stroke:red;stroke-width:1px;stroke-linecap:butt;stroke-linejoin:miter;stroke-opacity:1" d="M 483.008,523.465 495.954,512.137 z" id="boundary" inkscape:connector-curvature="0" />
	<path style="fill:none;stroke:red;stroke-width:1px;stroke-linecap:butt;stroke-linejoin:miter;stroke-opacity:1" d="M 483.008,523.465 471.68,536.411 z" id="boundary" inkscape:connector-curvature="0" />
	<path style="fill:none;stroke:red;stroke-width:1px;stroke-linecap:butt;stroke-linejoin:miter;stroke-opacity:1" d="M 507.282,185.246 499.191,170.682 z" id="boundary" inkscape:connector-curvature="0" />
	<path style="fill:none;stroke:red;stroke-width:1px;stroke-linecap:butt;stroke-linejoin:miter;stroke-opacity:1" d="M 691.765,361.638 675.582,361.638 z" id="boundary" inkscape:connector-curvature="0" />
	<path style="fill:none;stroke:red;stroke-width:1px;stroke-linecap:butt;stroke-linejoin:miter;stroke-opacity:1" d="M 507.282,185.246 515.374,199.811 z" id="boundary" inkscape:connector-curvature="0" />
	<path style="fill:none;stroke:red;stroke-width:1px;stroke-linecap:butt;stroke-linejoin:miter;stroke-opacity:1" d="M 515.374,199.811 515.374,215.993 z" id="boundary" inkscape:connector-curvature="0" />
	<path style="fill:none;stroke:red;stroke-width:1px;stroke-linecap:butt;stroke-linejoin:miter;stroke-opacity:1" d="M 584.959,415.041 596.287,394.003 z" id="boundary" inkscape:connector-curvature="0" />
	<path style="fill:none;stroke:red;stroke-width:1px;stroke-linecap:butt;stroke-linejoin:miter;stroke-opacity:1" d="M 495.954,512.137 504.046,495.954 z" id="boundary" inkscape:connector-curvature="0" />
	<path style="fill:none;stroke:red;stroke-width:1px;stroke-linecap:butt;stroke-linejoin:miter;stroke-opacity:1" d="M 568.777,423.132 552.594,426.369 z" id="boundary" inkscape:connector-curvature="0" />
	<path style="fill:none;stroke:red;stroke-width:1px;stroke-linecap:butt;stroke-linejoin:miter;stroke-opacity:1" d="M 552.594,426.369 538.029,434.46 z" id="boundary" inkscape:connector-curvature="0" />
	<path style="fill:none;stroke:red;stroke-width:1px;stroke-linecap:butt;stroke-linejoin:miter;stroke-opacity:1" d="M 515.374,458.734 523.465,442.551 z" id="boundary" inkscape:connector-curvature="0" />
	<path style="fill:none;stroke:red;stroke-width:1px;stroke-linecap:butt;stroke-linejoin:miter;stroke-opacity:1" d="M 523.465,442.551 538.029,434.46 z" id="boundary" inkscape:connector-curvature="0" />
	<path style="fill:none;stroke:red;stroke-width:1px;stroke-linecap:butt;stroke-linejoin:miter;stroke-opacity:1" d="M 568.777,423.132 584.959,415.041 z" id="boundary" inkscape:connector-curvature="0" />
	<path style="fill:none;stroke:red;stroke-width:1px;stroke-linecap:butt;stroke-linejoin:miter;stroke-opacity:1" d="M 504.046,495.954 512.137,479.772 z" id="boundary" inkscape:connector-curvature="0" />
	<path style="fill:none;stroke:red;stroke-width:1px;stroke-linecap:butt;stroke-linejoin:miter;stroke-opacity:1" d="M 512.137,479.772 515.374,458.734 z" id="boundary" inkscape:connector-curvature="0" />
	<path style="fill:none;stroke:red;stroke-width:1px;stroke-linecap:butt;stroke-linejoin:miter;stroke-opacity:1" d="M 515.374,232.176 523.465,246.741 z" id="boundary" inkscape:connector-curvature="0" />
	<path style="fill:none;stroke:red;stroke-width:1px;stroke-linecap:butt;stroke-linejoin:miter;stroke-opacity:1" d="M 555.83,251.595 539.648,246.741 z" id="boundary" inkscape:connector-curvature="0" />
	<path style="fill:none;stroke:red;stroke-width:1px;stroke-linecap:butt;stroke-linejoin:miter;stroke-opacity:1" d="M 523.465,246.741 539.648,246.741 z" id="boundary" inkscape:connector-curvature="0" />
	<path style="fill:none;stroke:red;stroke-width:1px;stroke-linecap:butt;stroke-linejoin:miter;stroke-opacity:1" d="M 580.104,288.816 583.341,304.998 z" id="boundary" inkscape:connector-curvature="0" />
	<path style="fill:none;stroke:red;stroke-width:1px;stroke-linecap:butt;stroke-linejoin:miter;stroke-opacity:1" d="M 580.104,272.633 580.104,288.816 z" id="boundary" inkscape:connector-curvature="0" />
	<path style="fill:none;stroke:red;stroke-width:1px;stroke-linecap:butt;stroke-linejoin:miter;stroke-opacity:1" d="M 580.104,272.633 570.395,259.687 z" id="boundary" inkscape:connector-curvature="0" />
	<path style="fill:none;stroke:red;stroke-width:1px;stroke-linecap:butt;stroke-linejoin:miter;stroke-opacity:1" d="M 570.395,259.687 555.83,251.595 z" id="boundary" inkscape:connector-curvature="0" />
	<path style="fill:none;stroke:red;stroke-width:1px;stroke-linecap:butt;stroke-linejoin:miter;stroke-opacity:1" d="M 627.034,369.729 643.217,364.874 z" id="boundary" inkscape:connector-curvature="0" />
	<path style="fill:none;stroke:red;stroke-width:1px;stroke-linecap:butt;stroke-linejoin:miter;stroke-opacity:1" d="M 610.852,369.729 627.034,369.729 z" id="boundary" inkscape:connector-curvature="0" />
	<path style="fill:none;stroke:red;stroke-width:1px;stroke-linecap:butt;stroke-linejoin:miter;stroke-opacity:1" d="M 596.287,394.003 596.287,377.821 z" id="boundary" inkscape:connector-curvature="0" />
	<path style="fill:none;stroke:red;stroke-width:1px;stroke-linecap:butt;stroke-linejoin:miter;stroke-opacity:1" d="M 583.341,304.998 599.524,311.471 z" id="boundary" inkscape:connector-curvature="0" />
	<path style="fill:none;stroke:red;stroke-width:1px;stroke-linecap:butt;stroke-linejoin:miter;stroke-opacity:1" d="M 596.287,377.821 610.852,369.729 z" id="boundary" inkscape:connector-curvature="0" />
	<path style="fill:none;stroke:red;stroke-width:1px;stroke-linecap:butt;stroke-linejoin:miter;stroke-opacity:1" d="M 675.582,361.638 659.4,361.638 z" id="boundary" inkscape:connector-curvature="0" />
	<path style="fill:none;stroke:red;stroke-width:1px;stroke-linecap:butt;stroke-linejoin:miter;stroke-opacity:1" d="M 659.4,361.638 643.217,364.874 z" id="boundary" inkscape:connector-curvature="0" />
	<path style="fill:none;stroke:red;stroke-width:1px;stroke-linecap:butt;stroke-linejoin:miter;stroke-opacity:1" d="M 599.524,311.471 614.088,319.563 z" id="boundary" inkscape:connector-curvature="0" />
	<path style="fill:none;stroke:red;stroke-width:1px;stroke-linecap:butt;stroke-linejoin:miter;stroke-opacity:1" d="M 614.088,319.563 630.271,319.563 z" id="boundary" inkscape:connector-curvature="0" />
	<path style="fill:none;stroke:red;stroke-width:1px;stroke-linecap:butt;stroke-linejoin:miter;stroke-opacity:1" d="M 756.496,361.638 740.313,361.638 z" id="boundary" inkscape:connector-curvature="0" />
	<path style="fill:none;stroke:red;stroke-width:1px;stroke-linecap:butt;stroke-linejoin:miter;stroke-opacity:1" d="M 630.271,319.563 646.454,319.563 z" id="boundary" inkscape:connector-curvature="0" />
	<path style="fill:none;stroke:red;stroke-width:1px;stroke-linecap:butt;stroke-linejoin:miter;stroke-opacity:1" d="M 646.454,319.563 662.636,319.563 z" id="boundary" inkscape:connector-curvature="0" />
	<path style="fill:none;stroke:red;stroke-width:1px;stroke-linecap:butt;stroke-linejoin:miter;stroke-opacity:1" d="M 662.636,319.563 678.819,319.563 z" id="boundary" inkscape:connector-curvature="0" />
	<path style="fill:none;stroke:red;stroke-width:1px;stroke-linecap:butt;stroke-linejoin:miter;stroke-opacity:1" d="M 772.679,361.638 788.861,361.638 z" id="boundary" inkscape:connector-curvature="0" />
	<path style="fill:none;stroke:red;stroke-width:1px;stroke-linecap:butt;stroke-linejoin:miter;stroke-opacity:1" d="M 678.819,319.563 695.002,319.563 z" id="boundary" inkscape:connector-curvature="0" />
	<path style="fill:none;stroke:red;stroke-width:1px;stroke-linecap:butt;stroke-linejoin:miter;stroke-opacity:1" d="M 695.002,319.563 709.566,327.654 z" id="boundary" inkscape:connector-curvature="0" />
	<path style="fill:none;stroke:red;stroke-width:1px;stroke-linecap:butt;stroke-linejoin:miter;stroke-opacity:1" d="M 788.861,361.638 805.044,361.638 z" id="boundary" inkscape:connector-curvature="0" />
	<path style="fill:none;stroke:red;stroke-width:1px;stroke-linecap:butt;stroke-linejoin:miter;stroke-opacity:1" d="M 805.044,361.638 821.227,361.638 z" id="boundary" inkscape:connector-curvature="0" />
	<path style="fill:none;stroke:red;stroke-width:1px;stroke-linecap:butt;stroke-linejoin:miter;stroke-opacity:1" d="M 709.566,327.654 725.749,327.654 z" id="boundary" inkscape:connector-curvature="0" />
	<path style="fill:none;stroke:red;stroke-width:1px;stroke-linecap:butt;stroke-linejoin:miter;stroke-opacity:1" d="M 821.227,361.638 837.409,361.638 z" id="boundary" inkscape:connector-curvature="0" />
	<path style="fill:none;stroke:red;stroke-width:1px;stroke-linecap:butt;stroke-linejoin:miter;stroke-opacity:1" d="M 725.749,327.654 741.931,327.654 z" id="boundary" inkscape:connector-curvature="0" />
	<path style="fill:none;stroke:red;stroke-width:1px;stroke-linecap:butt;stroke-linejoin:miter;stroke-opacity:1" d="M 869.775,361.638 853.592,361.638 z" id="boundary" inkscape:connector-curvature="0" />
	<path style="fill:none;stroke:red;stroke-width:1px;stroke-linecap:butt;stroke-linejoin:miter;stroke-opacity:1" d="M 741.931,327.654 758.114,327.654 z" id="boundary" inkscape:connector-curvature="0" />
	<path style="fill:none;stroke:red;stroke-width:1px;stroke-linecap:butt;stroke-linejoin:miter;stroke-opacity:1" d="M 758.114,327.654 774.297,327.654 z" id="boundary" inkscape:connector-curvature="0" />
	<path style="fill:none;stroke:red;stroke-width:1px;stroke-linecap:butt;stroke-linejoin:miter;stroke-opacity:1" d="M 869.775,361.638 885.958,361.638 z" id="boundary" inkscape:connector-curvature="0" />
	<path style="fill:none;stroke:red;stroke-width:1px;stroke-linecap:butt;stroke-linejoin:miter;stroke-opacity:1" d="M 774.297,327.654 790.48,327.654 z" id="boundary" inkscape:connector-curvature="0" />
	<path style="fill:none;stroke:red;stroke-width:1px;stroke-linecap:butt;stroke-linejoin:miter;stroke-opacity:1" d="M 885.958,361.638 902.14,361.638 z" id="boundary" inkscape:connector-curvature="0" />
	<path style="fill:none;stroke:red;stroke-width:1px;stroke-linecap:butt;stroke-linejoin:miter;stroke-opacity:1" d="M 790.48,327.654 806.662,327.654 z" id="boundary" inkscape:connector-curvature="0" />
	<path style="fill:none;stroke:red;stroke-width:1px;stroke-linecap:butt;stroke-linejoin:miter;stroke-opacity:1" d="M 902.14,361.638 918.323,361.638 z" id="boundary" inkscape:connector-curvature="0" />
	<path style="fill:none;stroke:red;stroke-width:1px;stroke-linecap:butt;stroke-linejoin:miter;stroke-opacity:1" d="M 806.662,327.654 822.845,327.654 z" id="boundary" inkscape:connector-curvature="0" />
	<path style="fill:none;stroke:red;stroke-width:1px;stroke-linecap:butt;stroke-linejoin:miter;stroke-opacity:1" d="M 950.688,361.638 934.506,361.638 z" id="boundary" inkscape:connector-curvature="0" />
	<path style="fill:none;stroke:red;stroke-width:1px;stroke-linecap:butt;stroke-linejoin:miter;stroke-opacity:1" d="M 822.845,327.654 839.028,327.654 z" id="boundary" inkscape:connector-curvature="0" />
	<path style="fill:none;stroke:red;stroke-width:1px;stroke-linecap:butt;stroke-linejoin:miter;stroke-opacity:1" d="M 839.028,327.654 855.21,327.654 z" id="boundary" inkscape:connector-curvature="0" />
	<path style="fill:none;stroke:red;stroke-width:1px;stroke-linecap:butt;stroke-linejoin:miter;stroke-opacity:1" d="M 983.054,361.638 966.871,361.638 z" id="boundary" inkscape:connector-curvature="0" />
	<path style="fill:none;stroke:red;stroke-width:1px;stroke-linecap:butt;stroke-linejoin:miter;stroke-opacity:1" d="M 855.21,327.654 871.393,327.654 z" id="boundary" inkscape:connector-curvature="0" />
	<path style="fill:none;stroke:red;stroke-width:1px;stroke-linecap:butt;stroke-linejoin:miter;stroke-opacity:1" d="M 871.393,327.654 887.576,327.654 z" id="boundary" inkscape:connector-curvature="0" />
	<path style="fill:none;stroke:red;stroke-width:1px;stroke-linecap:butt;stroke-linejoin:miter;stroke-opacity:1" d="M 887.576,327.654 903.759,327.654 z" id="boundary" inkscape:connector-curvature="0" />
	<path style="fill:none;stroke:red;stroke-width:1px;stroke-linecap:butt;stroke-linejoin:miter;stroke-opacity:1" d="M 903.759,327.654 919.941,327.654 z" id="boundary" inkscape:connector-curvature="0" />
	<path style="fill:none;stroke:red;stroke-width:1px;stroke-linecap:butt;stroke-linejoin:miter;stroke-opacity:1" d="M 919.941,327.654 934.506,335.746 z" id="boundary" inkscape:connector-curvature="0" />
	<path style="fill:none;stroke:red;stroke-width:1px;stroke-linecap:butt;stroke-linejoin:miter;stroke-opacity:1" d="M 934.506,335.746 950.688,335.746 z" id="boundary" inkscape:connector-curvature="0" />
	<path style="fill:none;stroke:red;stroke-width:1px;stroke-linecap:butt;stroke-linejoin:miter;stroke-opacity:1" d="M 950.688,335.746 966.871,335.746 z" id="boundary" inkscape:connector-curvature="0" />
	<path style="fill:none;stroke:red;stroke-width:1px;stroke-linecap:butt;stroke-linejoin:miter;stroke-opacity:1" d="M 966.871,335.746 983.054,338.982 z" id="boundary" inkscape:connector-curvature="0" />
	<path style="fill:none;stroke:red;stroke-width:1px;stroke-linecap:butt;stroke-linejoin:miter;stroke-opacity:1" d="M 983.054,338.982 996,351.928 z" id="boundary" inkscape:connector-curvature="0" />
	<path style="fill:none;stroke:red;stroke-width:1px;stroke-linecap:butt;stroke-linejoin:miter;stroke-opacity:1" d="M 996,351.928 983.054,361.638 z" id="boundary" inkscape:connector-curvature="0" />
	<circle cx="4" cy="292.052" r="4" fill="#0" id="circle0"/>
	<circle cx="4" cy="308.235" r="4" fill="#0" id="circle1"/>
	<circle cx="12.0914" cy="322.799" r="4" fill="#0" id="circle2"/>
	<circle cx="16.9462" cy="279.106" r="4" fill="#0" id="circle3"/>
	<circle cx="20.1827" cy="337.364" r="4" fill="#0" id="circle4"/>
	<circle cx="25.0375" cy="262.923" r="4" fill="#0" id="circle5"/>
	<circle cx="25.0375" cy="353.546" r="4" fill="#0" id="circle6"/>
	<circle cx="37.9837" cy="249.977" r="4" fill="#0" id="circle7"/>
	<circle cx="37.9837" cy="364.874" r="4" fill="#0" id="circle8"/>
	<circle cx="44.4568" cy="381.057" r="4" fill="#0" id="circle9"/>
	<circle cx="46.075" cy="233.794" r="4" fill="#0" id="circle10"/>
	<circle cx="52.5481" cy="395.622" r="4" fill="#0" id="circle11"/>
	<circle cx="62.2577" cy="225.703" r="4" fill="#0" id="circle12"/>
	<circle cx="63.876" cy="408.568" r="4" fill="#0" id="circle13"/>
	<circle cx="70.3491" cy="209.52" r="4" fill="#0" id="circle14"/>
	<circle cx="76.8222" cy="418.277" r="4" fill="#0" id="circle15"/>
	<circle cx="84.9135" cy="194.956" r="4" fill="#0" id="circle16"/>
	<circle cx="86.5318" cy="431.223" r="4" fill="#0" id="circle17"/>
	<circle cx="99.478" cy="442.551" r="4" fill="#0" id="circle18"/>
	<circle cx="101.096" cy="178.773" r="4" fill="#0" id="circle19"/>
	<circle cx="110.806" cy="455.498" r="4" fill="#0" id="circle20"/>
	<circle cx="117.279" cy="173.918" r="4" fill="#0" id="circle21"/>
	<circle cx="123.752" cy="466.825" r="4" fill="#0" id="circle22"/>
	<circle cx="130.225" cy="483.008" r="4" fill="#0" id="circle23"/>
	<circle cx="131.843" cy="165.827" r="4" fill="#0" id="circle24"/>
	<circle cx="138.316" cy="497.573" r="4" fill="#0" id="circle25"/>
	<circle cx="146.408" cy="157.736" r="4" fill="#0" id="circle26"/>
	<circle cx="149.644" cy="510.519" r="4" fill="#0" id="circle27"/>
	<circle cx="154.499" cy="141.553" r="4" fill="#0" id="circle28"/>
	<circle cx="157.736" cy="525.083" r="4" fill="#0" id="circle29"/>
	<circle cx="165.827" cy="539.648" r="4" fill="#0" id="circle30"/>
	<circle cx="170.682" cy="133.462" r="4" fill="#0" id="circle31"/>
	<circle cx="175.537" cy="552.594" r="4" fill="#0" id="circle32"/>
	<circle cx="182.01" cy="105.951" r="4" fill="#0" id="circle33"/>
	<circle cx="183.628" cy="567.158" r="4" fill="#0" id="circle34"/>
	<circle cx="194.956" cy="93.0049" r="4" fill="#0" id="circle35"/>
	<circle cx="194.956" cy="580.104" r="4" fill="#0" id="circle36"/>
	<circle cx="203.047" cy="594.669" r="4" fill="#0" id="circle37"/>
	<circle cx="207.902" cy="80.0587" r="4" fill="#0" id="circle38"/>
	<circle cx="214.375" cy="607.615" r="4" fill="#0" id="circle39"/>
	<circle cx="215.993" cy="63.876" r="4" fill="#0" id="circle40"/>
	<circle cx="222.467" cy="622.179" r="4" fill="#0" id="circle41"/>
	<circle cx="228.94" cy="52.5481" r="4" fill="#0" id="circle42"/>
	<circle cx="233.794" cy="635.126" r="4" fill="#0" id="circle43"/>
	<circle cx="235.413" cy="36.3654" r="4" fill="#0" id="circle44"/>
	<circle cx="246.741" cy="644.835" r="4" fill="#0" id="circle45"/>
	<circle cx="251.595" cy="28.2741" r="4" fill="#0" id="circle46"/>
	<circle cx="261.305" cy="652.927" r="4" fill="#0" id="circle47"/>
	<circle cx="264.542" cy="15.3279" r="4" fill="#0" id="circle48"/>
	<circle cx="275.869" cy="661.018" r="4" fill="#0" id="circle49"/>
	<circle cx="280.724" cy="7.23654" r="4" fill="#0" id="circle50"/>
	<circle cx="292.052" cy="661.018" r="4" fill="#0" id="circle51"/>
	<circle cx="296.907" cy="4" r="4" fill="#0" id="circle52"/>
	<circle cx="306.617" cy="652.927" r="4" fill="#0" id="circle53"/>
	<circle cx="313.09" cy="4" r="4" fill="#0" id="circle54"/>
	<circle cx="322.799" cy="652.927" r="4" fill="#0" id="circle55"/>
	<circle cx="327.654" cy="12.0914" r="4" fill="#0" id="circle56"/>
	<circle cx="337.364" cy="644.835" r="4" fill="#0" id="circle57"/>
	<circle cx="340.6" cy="21.801" r="4" fill="#0" id="circle58"/>
	<circle cx="353.546" cy="636.744" r="4" fill="#0" id="circle59"/>
	<circle cx="356.783" cy="28.2741" r="4" fill="#0" id="circle60"/>
	<circle cx="368.111" cy="41.2202" r="4" fill="#0" id="circle61"/>
	<circle cx="368.111" cy="628.653" r="4" fill="#0" id="circle62"/>
	<circle cx="382.675" cy="620.561" r="4" fill="#0" id="circle63"/>
	<circle cx="384.294" cy="47.6933" r="4" fill="#0" id="circle64"/>
	<circle cx="394.003" cy="60.6395" r="4" fill="#0" id="circle65"/>
	<circle cx="397.24" cy="610.852" r="4" fill="#0" id="circle66"/>
	<circle cx="406.949" cy="70.3491" r="4" fill="#0" id="circle67"/>
	<circle cx="410.186" cy="596.287" r="4" fill="#0" id="circle68"/>
	<circle cx="418.277" cy="83.2953" r="4" fill="#0" id="circle69"/>
	<circle cx="423.132" cy="584.959" r="4" fill="#0" id="circle70"/>
	<circle cx="431.223" cy="94.6232" r="4" fill="#0" id="circle71"/>
	<circle cx="434.46" cy="572.013" r="4" fill="#0" id="circle72"/>
	<circle cx="442.551" cy="107.569" r="4" fill="#0" id="circle73"/>
	<circle cx="447.406" cy="560.685" r="4" fill="#0" id="circle74"/>
	<circle cx="455.498" cy="118.897" r="4" fill="#0" id="circle75"/>
	<circle cx="458.734" cy="547.739" r="4" fill="#0" id="circle76"/>
	<circle cx="466.825" cy="131.843" r="4" fill="#0" id="circle77"/>
	<circle cx="471.68" cy="536.411" r="4" fill="#0" id="circle78"/>
	<circle cx="479.772" cy="143.171" r="4" fill="#0" id="circle79"/>
	<circle cx="483.008" cy="523.465" r="4" fill="#0" id="circle80"/>
	<circle cx="491.1" cy="156.117" r="4" fill="#0" id="circle81"/>
	<circle cx="495.954" cy="512.137" r="4" fill="#0" id="circle82"/>
	<circle cx="499.191" cy="170.682" r="4" fill="#0" id="circle83"/>
	<circle cx="504.046" cy="495.954" r="4" fill="#0" id="circle84"/>
	<circle cx="507.282" cy="185.246" r="4" fill="#0" id="circle85"/>
	<circle cx="512.137" cy="479.772" r="4" fill="#0" id="circle86"/>
	<circle cx="515.374" cy="199.811" r="4" fill="#0" id="circle87"/>
	<circle cx="515.374" cy="215.993" r="4" fill="#0" id="circle88"/>
	<circle cx="515.374" cy="232.176" r="4" fill="#0" id="circle89"/>
	<circle cx="515.374" cy="458.734" r="4" fill="#0" id="circle90"/>
	<circle cx="523.465" cy="246.741" r="4" fill="#0" id="circle91"/>
	<circle cx="523.465" cy="442.551" r="4" fill="#0" id="circle92"/>
	<circle cx="538.029" cy="434.46" r="4" fill="#0" id="circle93"/>
	<circle cx="539.648" cy="246.741" r="4" fill="#0" id="circle94"/>
	<circle cx="552.594" cy="426.369" r="4" fill="#0" id="circle95"/>
	<circle cx="555.83" cy="251.595" r="4" fill="#0" id="circle96"/>
	<circle cx="568.777" cy="423.132" r="4" fill="#0" id="circle97"/>
	<circle cx="570.395" cy="259.687" r="4" fill="#0" id="circle98"/>
	<circle cx="580.104" cy="272.633" r="4" fill="#0" id="circle99"/>
	<circle cx="580.104" cy="288.816" r="4" fill="#0" id="circle100"/>
	<circle cx="583.341" cy="304.998" r="4" fill="#0" id="circle101"/>
	<circle cx="584.959" cy="415.041" r="4" fill="#0" id="circle102"/>
	<circle cx="596.287" cy="377.821" r="4" fill="#0" id="circle103"/>
	<circle cx="596.287" cy="394.003" r="4" fill="#0" id="circle104"/>
	<circle cx="599.524" cy="311.471" r="4" fill="#0" id="circle105"/>
	<circle cx="610.852" cy="369.729" r="4" fill="#0" id="circle106"/>
	<circle cx="614.088" cy="319.563" r="4" fill="#0" id="circle107"/>
	<circle cx="627.034" cy="369.729" r="4" fill="#0" id="circle108"/>
	<circle cx="630.271" cy="319.563" r="4" fill="#0" id="circle109"/>
	<circle cx="643.217" cy="364.874" r="4" fill="#0" id="circle110"/>
	<circle cx="646.454" cy="319.563" r="4" fill="#0" id="circle111"/>
	<circle cx="659.4" cy="361.638" r="4" fill="#0" id="circle112"/>
	<circle cx="662.636" cy="319.563" r="4" fill="#0" id="circle113"/>
	<circle cx="675.582" cy="361.638" r="4" fill="#0" id="circle114"/>
	<circle cx="678.819" cy="319.563" r="4" fill="#0" id="circle115"/>
	<circle cx="691.765" cy="361.638" r="4" fill="#0" id="circle116"/>
	<circle cx="695.002" cy="319.563" r="4" fill="#0" id="circle117"/>
	<circle cx="707.948" cy="361.638" r="4" fill="#0" id="circle118"/>
	<circle cx="709.566" cy="327.654" r="4" fill="#0" id="circle119"/>
	<circle cx="724.131" cy="361.638" r="4" fill="#0" id="circle120"/>
	<circle cx="725.749" cy="327.654" r="4" fill="#0" id="circle121"/>
	<circle cx="740.313" cy="361.638" r="4" fill="#0" id="circle122"/>
	<circle cx="741.931" cy="327.654" r="4" fill="#0" id="circle123"/>
	<circle cx="756.496" cy="361.638" r="4" fill="#0" id="circle124"/>
	<circle cx="758.114" cy="327.654" r="4" fill="#0" id="circle125"/>
	<circle cx="772.679" cy="361.638" r="4" fill="#0" id="circle126"/>
	<circle cx="774.297" cy="327.654" r="4" fill="#0" id="circle127"/>
	<circle cx="788.861" cy="361.638" r="4" fill="#0" id="circle128"/>
	<circle cx="790.48" cy="327.654" r="4" fill="#0" id="circle129"/>
	<circle cx="805.044" cy="361.638" r="4" fill="#0" id="circle130"/>
	<circle cx="806.662" cy="327.654" r="4" fill="#0" id="circle131"/>
	<circle cx="821.227" cy="361.638" r="4" fill="#0" id="circle132"/>
	<circle cx="822.845" cy="327.654" r="4" fill="#0" id="circle133"/>
	<circle cx="837.409" cy="361.638" r="4" fill="#0" id="circle134"/>
	<circle cx="839.028" cy="327.654" r="4" fill="#0" id="circle135"/>
	<circle cx="853.592" cy="361.638" r="4" fill="#0" id="circle136"/>
	<circle cx="855.21" cy="327.654" r="4" fill="#0" id="circle137"/>
	<circle cx="869.775" cy="361.638" r="4" fill="#0" id="circle138"/>
	<circle cx="871.393" cy="327.654" r="4" fill="#0" id="circle139"/>
	<circle cx="885.958" cy="361.638" r="4" fill="#0" id="circle140"/>
	<circle cx="887.576" cy="327.654" r="4" fill="#0" id="circle141"/>
	<circle cx="902.14" cy="361.638" r="4" fill="#0" id="circle142"/>
	<circle cx="903.759" cy="327.654" r="4" fill="#0" id="circle143"/>
	<circle cx="918.323" cy="361.638" r="4" fill="#0" id="circle144"/>
	<circle cx="919.941" cy="327.654" r="4" fill="#0" id="circle145"/>
	<circle cx="934.506" cy="335.746" r="4" fill="#0" id="circle146"/>
	<circle cx="934.506" cy="361.638" r="4" fill="#0" id="circle147"/>
	<circle cx="950.688" cy="335.746" r="4" fill="#0" id="circle148"/>
	<circle cx="950.688" cy="361.638" r="4" fill="#0" id="circle149"/>
	<circle cx="966.871" cy="335.746" r="4" fill="#0" id="circle150"/>
	<circle cx="966.871" cy="361.638" r="4" fill="#0" id="circle151"/>
	<circle cx="983.054" cy="338.982" r="4" fill="#0" id="circle152"/>
	<circle cx="983.054" cy="361.638" r="4" fill="#0" id="circle153"/>
	<circle cx="996" cy="351.928" r="4" fill="#0" id="circle154"/>
	</g>
</svg>