<?xml version="1.0" encoding="UTF-8" standalone="no"?>
<!-- Created with CurveBenchmark -->
<svg
	xmlns:dc="http://purl.org/dc/elements/1.1/"
	xmlns:cc="http://creativecommons.org/ns#"
	xmlns:rdf="http://www.w3.org/1999/02/22-rdf-syntax-ns#"
	xmlns:svg="http://www.w3.org/2000/svg"
	xmlns="http://www.w3.org/2000/svg"
	xmlns:sodipodi="http://sodipodi.sourceforge.net/DTD/sodipodi-0.dtd"
	xmlns:inkscape="http://www.inkscape.org/namespaces/inkscape"
	width="1000"
	height="1000"
	id="svg2"
	version="1.1"
	sodipodi:docname="manifold/peel-fish0755.png.txt">
<defs
	id="defs4" />
<metadata
	id="metadata7">
	<rdf:RDF>
		<cc:Work
			rdf:about="">
			<dc:format>image/svg+xml</dc:format>
			<dc:type
				rdf:resource="http://purl.org/dc/dcmitype/StillImage" />
			<dc:title></dc:title>
		</cc:Work>
	</rdf:RDF>
</metadata>
<g
	inkscape:label="Layer 1"
	inkscape:groupmode="layer"
	id="layer1">
	<path style="fill:none;stroke:red;stroke-width:1px;stroke-linecap:butt;stroke-linejoin:miter;stroke-opacity:1" d="M 29.6552,89.5172 15.4023,96.6437 z" id="boundary" inkscape:connector-curvature="0" />
	<path style="fill:none;stroke:red;stroke-width:1px;stroke-linecap:butt;stroke-linejoin:miter;stroke-opacity:1" d="M 4,122.299 4,108.046 z" id="boundary" inkscape:connector-curvature="0" />
	<path style="fill:none;stroke:red;stroke-width:1px;stroke-linecap:butt;stroke-linejoin:miter;stroke-opacity:1" d="M 4,108.046 15.4023,96.6437 z" id="boundary" inkscape:connector-curvature="0" />
	<path style="fill:none;stroke:red;stroke-width:1px;stroke-linecap:butt;stroke-linejoin:miter;stroke-opacity:1" d="M 15.4023,146.529 4,136.552 z" id="boundary" inkscape:connector-curvature="0" />
	<path style="fill:none;stroke:red;stroke-width:1px;stroke-linecap:butt;stroke-linejoin:miter;stroke-opacity:1" d="M 4,136.552 4,122.299 z" id="boundary" inkscape:connector-curvature="0" />
	<path style="fill:none;stroke:red;stroke-width:1px;stroke-linecap:butt;stroke-linejoin:miter;stroke-opacity:1" d="M 25.3793,157.931 15.4023,146.529 z" id="boundary" inkscape:connector-curvature="0" />
	<path style="fill:none;stroke:red;stroke-width:1px;stroke-linecap:butt;stroke-linejoin:miter;stroke-opacity:1" d="M 39.6322,162.207 25.3793,157.931 z" id="boundary" inkscape:connector-curvature="0" />
	<path style="fill:none;stroke:red;stroke-width:1px;stroke-linecap:butt;stroke-linejoin:miter;stroke-opacity:1" d="M 42.4828,82.3908 56.7356,82.3908 z" id="boundary" inkscape:connector-curvature="0" />
	<path style="fill:none;stroke:red;stroke-width:1px;stroke-linecap:butt;stroke-linejoin:miter;stroke-opacity:1" d="M 42.4828,82.3908 29.6552,89.5172 z" id="boundary" inkscape:connector-curvature="0" />
	<path style="fill:none;stroke:red;stroke-width:1px;stroke-linecap:butt;stroke-linejoin:miter;stroke-opacity:1" d="M 48.1839,173.609 39.6322,162.207 z" id="boundary" inkscape:connector-curvature="0" />
	<path style="fill:none;stroke:red;stroke-width:1px;stroke-linecap:butt;stroke-linejoin:miter;stroke-opacity:1" d="M 62.4368,179.31 48.1839,173.609 z" id="boundary" inkscape:connector-curvature="0" />
	<path style="fill:none;stroke:red;stroke-width:1px;stroke-linecap:butt;stroke-linejoin:miter;stroke-opacity:1" d="M 69.5632,75.2644 56.7356,82.3908 z" id="boundary" inkscape:connector-curvature="0" />
	<path style="fill:none;stroke:red;stroke-width:1px;stroke-linecap:butt;stroke-linejoin:miter;stroke-opacity:1" d="M 75.2644,186.437 62.4368,179.31 z" id="boundary" inkscape:connector-curvature="0" />
	<path style="fill:none;stroke:red;stroke-width:1px;stroke-linecap:butt;stroke-linejoin:miter;stroke-opacity:1" d="M 83.8161,70.9885 69.5632,75.2644 z" id="boundary" inkscape:connector-curvature="0" />
	<path style="fill:none;stroke:red;stroke-width:1px;stroke-linecap:butt;stroke-linejoin:miter;stroke-opacity:1" d="M 89.5172,190.713 75.2644,186.437 z" id="boundary" inkscape:connector-curvature="0" />
	<path style="fill:none;stroke:red;stroke-width:1px;stroke-linecap:butt;stroke-linejoin:miter;stroke-opacity:1" d="M 98.069,68.1379 83.8161,70.9885 z" id="boundary" inkscape:connector-curvature="0" />
	<path style="fill:none;stroke:red;stroke-width:1px;stroke-linecap:butt;stroke-linejoin:miter;stroke-opacity:1" d="M 102.345,197.839 89.5172,190.713 z" id="boundary" inkscape:connector-curvature="0" />
	<path style="fill:none;stroke:red;stroke-width:1px;stroke-linecap:butt;stroke-linejoin:miter;stroke-opacity:1" d="M 112.322,63.8621 98.069,68.1379 z" id="boundary" inkscape:connector-curvature="0" />
	<path style="fill:none;stroke:red;stroke-width:1px;stroke-linecap:butt;stroke-linejoin:miter;stroke-opacity:1" d="M 115.172,204.966 102.345,197.839 z" id="boundary" inkscape:connector-curvature="0" />
	<path style="fill:none;stroke:red;stroke-width:1px;stroke-linecap:butt;stroke-linejoin:miter;stroke-opacity:1" d="M 126.575,61.0115 112.322,63.8621 z" id="boundary" inkscape:connector-curvature="0" />
	<path style="fill:none;stroke:red;stroke-width:1px;stroke-linecap:butt;stroke-linejoin:miter;stroke-opacity:1" d="M 126.575,61.0115 140.828,61.0115 z" id="boundary" inkscape:connector-curvature="0" />
	<path style="fill:none;stroke:red;stroke-width:1px;stroke-linecap:butt;stroke-linejoin:miter;stroke-opacity:1" d="M 143.678,212.092 129.425,210.667 z" id="boundary" inkscape:connector-curvature="0" />
	<path style="fill:none;stroke:red;stroke-width:1px;stroke-linecap:butt;stroke-linejoin:miter;stroke-opacity:1" d="M 129.425,210.667 115.172,204.966 z" id="boundary" inkscape:connector-curvature="0" />
	<path style="fill:none;stroke:red;stroke-width:1px;stroke-linecap:butt;stroke-linejoin:miter;stroke-opacity:1" d="M 155.08,56.7356 140.828,61.0115 z" id="boundary" inkscape:connector-curvature="0" />
	<path style="fill:none;stroke:red;stroke-width:1px;stroke-linecap:butt;stroke-linejoin:miter;stroke-opacity:1" d="M 157.931,212.092 143.678,212.092 z" id="boundary" inkscape:connector-curvature="0" />
	<path style="fill:none;stroke:red;stroke-width:1px;stroke-linecap:butt;stroke-linejoin:miter;stroke-opacity:1" d="M 169.333,53.8851 183.586,53.8851 z" id="boundary" inkscape:connector-curvature="0" />
	<path style="fill:none;stroke:red;stroke-width:1px;stroke-linecap:butt;stroke-linejoin:miter;stroke-opacity:1" d="M 169.333,53.8851 155.08,56.7356 z" id="boundary" inkscape:connector-curvature="0" />
	<path style="fill:none;stroke:red;stroke-width:1px;stroke-linecap:butt;stroke-linejoin:miter;stroke-opacity:1" d="M 170.759,219.218 157.931,212.092 z" id="boundary" inkscape:connector-curvature="0" />
	<path style="fill:none;stroke:red;stroke-width:1px;stroke-linecap:butt;stroke-linejoin:miter;stroke-opacity:1" d="M 183.586,53.8851 197.839,53.8851 z" id="boundary" inkscape:connector-curvature="0" />
	<path style="fill:none;stroke:red;stroke-width:1px;stroke-linecap:butt;stroke-linejoin:miter;stroke-opacity:1" d="M 400.23,276.23 413.057,283.356 z" id="boundary" inkscape:connector-curvature="0" />
	<path style="fill:none;stroke:red;stroke-width:1px;stroke-linecap:butt;stroke-linejoin:miter;stroke-opacity:1" d="M 185.011,219.218 170.759,219.218 z" id="boundary" inkscape:connector-curvature="0" />
	<path style="fill:none;stroke:red;stroke-width:1px;stroke-linecap:butt;stroke-linejoin:miter;stroke-opacity:1" d="M 199.264,223.494 185.011,219.218 z" id="boundary" inkscape:connector-curvature="0" />
	<path style="fill:none;stroke:red;stroke-width:1px;stroke-linecap:butt;stroke-linejoin:miter;stroke-opacity:1" d="M 210.667,46.7586 224.92,46.7586 z" id="boundary" inkscape:connector-curvature="0" />
	<path style="fill:none;stroke:red;stroke-width:1px;stroke-linecap:butt;stroke-linejoin:miter;stroke-opacity:1" d="M 210.667,46.7586 197.839,53.8851 z" id="boundary" inkscape:connector-curvature="0" />
	<path style="fill:none;stroke:red;stroke-width:1px;stroke-linecap:butt;stroke-linejoin:miter;stroke-opacity:1" d="M 213.517,226.345 199.264,223.494 z" id="boundary" inkscape:connector-curvature="0" />
	<path style="fill:none;stroke:red;stroke-width:1px;stroke-linecap:butt;stroke-linejoin:miter;stroke-opacity:1" d="M 224.92,46.7586 239.172,46.7586 z" id="boundary" inkscape:connector-curvature="0" />
	<path style="fill:none;stroke:red;stroke-width:1px;stroke-linecap:butt;stroke-linejoin:miter;stroke-opacity:1" d="M 376,259.126 390.253,264.828 z" id="boundary" inkscape:connector-curvature="0" />
	<path style="fill:none;stroke:red;stroke-width:1px;stroke-linecap:butt;stroke-linejoin:miter;stroke-opacity:1" d="M 390.253,264.828 400.23,276.23 z" id="boundary" inkscape:connector-curvature="0" />
	<path style="fill:none;stroke:red;stroke-width:1px;stroke-linecap:butt;stroke-linejoin:miter;stroke-opacity:1" d="M 227.77,226.345 213.517,226.345 z" id="boundary" inkscape:connector-curvature="0" />
	<path style="fill:none;stroke:red;stroke-width:1px;stroke-linecap:butt;stroke-linejoin:miter;stroke-opacity:1" d="M 242.023,226.345 227.77,226.345 z" id="boundary" inkscape:connector-curvature="0" />
	<path style="fill:none;stroke:red;stroke-width:1px;stroke-linecap:butt;stroke-linejoin:miter;stroke-opacity:1" d="M 253.425,43.908 239.172,46.7586 z" id="boundary" inkscape:connector-curvature="0" />
	<path style="fill:none;stroke:red;stroke-width:1px;stroke-linecap:butt;stroke-linejoin:miter;stroke-opacity:1" d="M 256.276,226.345 242.023,226.345 z" id="boundary" inkscape:connector-curvature="0" />
	<path style="fill:none;stroke:red;stroke-width:1px;stroke-linecap:butt;stroke-linejoin:miter;stroke-opacity:1" d="M 267.678,39.6322 281.931,39.6322 z" id="boundary" inkscape:connector-curvature="0" />
	<path style="fill:none;stroke:red;stroke-width:1px;stroke-linecap:butt;stroke-linejoin:miter;stroke-opacity:1" d="M 267.678,39.6322 253.425,43.908 z" id="boundary" inkscape:connector-curvature="0" />
	<path style="fill:none;stroke:red;stroke-width:1px;stroke-linecap:butt;stroke-linejoin:miter;stroke-opacity:1" d="M 270.529,226.345 256.276,226.345 z" id="boundary" inkscape:connector-curvature="0" />
	<path style="fill:none;stroke:red;stroke-width:1px;stroke-linecap:butt;stroke-linejoin:miter;stroke-opacity:1" d="M 283.356,233.471 270.529,226.345 z" id="boundary" inkscape:connector-curvature="0" />
	<path style="fill:none;stroke:red;stroke-width:1px;stroke-linecap:butt;stroke-linejoin:miter;stroke-opacity:1" d="M 296.184,39.6322 281.931,39.6322 z" id="boundary" inkscape:connector-curvature="0" />
	<path style="fill:none;stroke:red;stroke-width:1px;stroke-linecap:butt;stroke-linejoin:miter;stroke-opacity:1" d="M 353.195,243.448 367.448,247.724 z" id="boundary" inkscape:connector-curvature="0" />
	<path style="fill:none;stroke:red;stroke-width:1px;stroke-linecap:butt;stroke-linejoin:miter;stroke-opacity:1" d="M 367.448,247.724 376,259.126 z" id="boundary" inkscape:connector-curvature="0" />
	<path style="fill:none;stroke:red;stroke-width:1px;stroke-linecap:butt;stroke-linejoin:miter;stroke-opacity:1" d="M 297.609,233.471 283.356,233.471 z" id="boundary" inkscape:connector-curvature="0" />
	<path style="fill:none;stroke:red;stroke-width:1px;stroke-linecap:butt;stroke-linejoin:miter;stroke-opacity:1" d="M 309.011,32.5057 323.264,32.5057 z" id="boundary" inkscape:connector-curvature="0" />
	<path style="fill:none;stroke:red;stroke-width:1px;stroke-linecap:butt;stroke-linejoin:miter;stroke-opacity:1" d="M 309.011,32.5057 296.184,39.6322 z" id="boundary" inkscape:connector-curvature="0" />
	<path style="fill:none;stroke:red;stroke-width:1px;stroke-linecap:butt;stroke-linejoin:miter;stroke-opacity:1" d="M 311.862,233.471 297.609,233.471 z" id="boundary" inkscape:connector-curvature="0" />
	<path style="fill:none;stroke:red;stroke-width:1px;stroke-linecap:butt;stroke-linejoin:miter;stroke-opacity:1" d="M 323.264,32.5057 337.517,33.931 z" id="boundary" inkscape:connector-curvature="0" />
	<path style="fill:none;stroke:red;stroke-width:1px;stroke-linecap:butt;stroke-linejoin:miter;stroke-opacity:1" d="M 337.517,33.931 351.77,39.6322 z" id="boundary" inkscape:connector-curvature="0" />
	<path style="fill:none;stroke:red;stroke-width:1px;stroke-linecap:butt;stroke-linejoin:miter;stroke-opacity:1" d="M 326.115,233.471 311.862,233.471 z" id="boundary" inkscape:connector-curvature="0" />
	<path style="fill:none;stroke:red;stroke-width:1px;stroke-linecap:butt;stroke-linejoin:miter;stroke-opacity:1" d="M 340.368,236.322 353.195,243.448 z" id="boundary" inkscape:connector-curvature="0" />
	<path style="fill:none;stroke:red;stroke-width:1px;stroke-linecap:butt;stroke-linejoin:miter;stroke-opacity:1" d="M 340.368,236.322 326.115,233.471 z" id="boundary" inkscape:connector-curvature="0" />
	<path style="fill:none;stroke:red;stroke-width:1px;stroke-linecap:butt;stroke-linejoin:miter;stroke-opacity:1" d="M 366.023,39.6322 351.77,39.6322 z" id="boundary" inkscape:connector-curvature="0" />
	<path style="fill:none;stroke:red;stroke-width:1px;stroke-linecap:butt;stroke-linejoin:miter;stroke-opacity:1" d="M 366.023,39.6322 380.276,39.6322 z" id="boundary" inkscape:connector-curvature="0" />
	<path style="fill:none;stroke:red;stroke-width:1px;stroke-linecap:butt;stroke-linejoin:miter;stroke-opacity:1" d="M 380.276,39.6322 394.529,39.6322 z" id="boundary" inkscape:connector-curvature="0" />
	<path style="fill:none;stroke:red;stroke-width:1px;stroke-linecap:butt;stroke-linejoin:miter;stroke-opacity:1" d="M 394.529,39.6322 407.356,32.5057 z" id="boundary" inkscape:connector-curvature="0" />
	<path style="fill:none;stroke:red;stroke-width:1px;stroke-linecap:butt;stroke-linejoin:miter;stroke-opacity:1" d="M 413.057,283.356 425.885,290.483 z" id="boundary" inkscape:connector-curvature="0" />
	<path style="fill:none;stroke:red;stroke-width:1px;stroke-linecap:butt;stroke-linejoin:miter;stroke-opacity:1" d="M 418.759,21.1034 407.356,32.5057 z" id="boundary" inkscape:connector-curvature="0" />
	<path style="fill:none;stroke:red;stroke-width:1px;stroke-linecap:butt;stroke-linejoin:miter;stroke-opacity:1" d="M 418.759,21.1034 430.161,11.1264 z" id="boundary" inkscape:connector-curvature="0" />
	<path style="fill:none;stroke:red;stroke-width:1px;stroke-linecap:butt;stroke-linejoin:miter;stroke-opacity:1" d="M 430.161,11.1264 442.989,4 z" id="boundary" inkscape:connector-curvature="0" />
	<path style="fill:none;stroke:red;stroke-width:1px;stroke-linecap:butt;stroke-linejoin:miter;stroke-opacity:1" d="M 442.989,4 455.816,11.1264 z" id="boundary" inkscape:connector-curvature="0" />
	<path style="fill:none;stroke:red;stroke-width:1px;stroke-linecap:butt;stroke-linejoin:miter;stroke-opacity:1" d="M 440.138,290.483 425.885,290.483 z" id="boundary" inkscape:connector-curvature="0" />
	<path style="fill:none;stroke:red;stroke-width:1px;stroke-linecap:butt;stroke-linejoin:miter;stroke-opacity:1" d="M 455.816,11.1264 467.218,21.1034 z" id="boundary" inkscape:connector-curvature="0" />
	<path style="fill:none;stroke:red;stroke-width:1px;stroke-linecap:butt;stroke-linejoin:miter;stroke-opacity:1" d="M 452.966,283.356 440.138,290.483 z" id="boundary" inkscape:connector-curvature="0" />
	<path style="fill:none;stroke:red;stroke-width:1px;stroke-linecap:butt;stroke-linejoin:miter;stroke-opacity:1" d="M 467.218,21.1034 475.77,32.5057 z" id="boundary" inkscape:connector-curvature="0" />
	<path style="fill:none;stroke:red;stroke-width:1px;stroke-linecap:butt;stroke-linejoin:miter;stroke-opacity:1" d="M 464.368,274.805 452.966,283.356 z" id="boundary" inkscape:connector-curvature="0" />
	<path style="fill:none;stroke:red;stroke-width:1px;stroke-linecap:butt;stroke-linejoin:miter;stroke-opacity:1" d="M 475.77,32.5057 487.172,41.0575 z" id="boundary" inkscape:connector-curvature="0" />
	<path style="fill:none;stroke:red;stroke-width:1px;stroke-linecap:butt;stroke-linejoin:miter;stroke-opacity:1" d="M 478.621,267.678 464.368,274.805 z" id="boundary" inkscape:connector-curvature="0" />
	<path style="fill:none;stroke:red;stroke-width:1px;stroke-linecap:butt;stroke-linejoin:miter;stroke-opacity:1" d="M 487.172,41.0575 500,48.1839 z" id="boundary" inkscape:connector-curvature="0" />
	<path style="fill:none;stroke:red;stroke-width:1px;stroke-linecap:butt;stroke-linejoin:miter;stroke-opacity:1" d="M 596.92,212.092 611.172,212.092 z" id="boundary" inkscape:connector-curvature="0" />
	<path style="fill:none;stroke:red;stroke-width:1px;stroke-linecap:butt;stroke-linejoin:miter;stroke-opacity:1" d="M 490.023,254.851 478.621,267.678 z" id="boundary" inkscape:connector-curvature="0" />
	<path style="fill:none;stroke:red;stroke-width:1px;stroke-linecap:butt;stroke-linejoin:miter;stroke-opacity:1" d="M 501.425,244.874 515.678,237.747 z" id="boundary" inkscape:connector-curvature="0" />
	<path style="fill:none;stroke:red;stroke-width:1px;stroke-linecap:butt;stroke-linejoin:miter;stroke-opacity:1" d="M 501.425,244.874 490.023,254.851 z" id="boundary" inkscape:connector-curvature="0" />
	<path style="fill:none;stroke:red;stroke-width:1px;stroke-linecap:butt;stroke-linejoin:miter;stroke-opacity:1" d="M 514.253,53.8851 500,48.1839 z" id="boundary" inkscape:connector-curvature="0" />
	<path style="fill:none;stroke:red;stroke-width:1px;stroke-linecap:butt;stroke-linejoin:miter;stroke-opacity:1" d="M 528.506,53.8851 541.333,61.0115 z" id="boundary" inkscape:connector-curvature="0" />
	<path style="fill:none;stroke:red;stroke-width:1px;stroke-linecap:butt;stroke-linejoin:miter;stroke-opacity:1" d="M 528.506,53.8851 514.253,53.8851 z" id="boundary" inkscape:connector-curvature="0" />
	<path style="fill:none;stroke:red;stroke-width:1px;stroke-linecap:butt;stroke-linejoin:miter;stroke-opacity:1" d="M 529.931,230.621 515.678,237.747 z" id="boundary" inkscape:connector-curvature="0" />
	<path style="fill:none;stroke:red;stroke-width:1px;stroke-linecap:butt;stroke-linejoin:miter;stroke-opacity:1" d="M 539.908,219.218 529.931,230.621 z" id="boundary" inkscape:connector-curvature="0" />
	<path style="fill:none;stroke:red;stroke-width:1px;stroke-linecap:butt;stroke-linejoin:miter;stroke-opacity:1" d="M 554.161,219.218 568.414,219.218 z" id="boundary" inkscape:connector-curvature="0" />
	<path style="fill:none;stroke:red;stroke-width:1px;stroke-linecap:butt;stroke-linejoin:miter;stroke-opacity:1" d="M 554.161,219.218 539.908,219.218 z" id="boundary" inkscape:connector-curvature="0" />
	<path style="fill:none;stroke:red;stroke-width:1px;stroke-linecap:butt;stroke-linejoin:miter;stroke-opacity:1" d="M 555.586,61.0115 541.333,61.0115 z" id="boundary" inkscape:connector-curvature="0" />
	<path style="fill:none;stroke:red;stroke-width:1px;stroke-linecap:butt;stroke-linejoin:miter;stroke-opacity:1" d="M 569.839,61.0115 555.586,61.0115 z" id="boundary" inkscape:connector-curvature="0" />
	<path style="fill:none;stroke:red;stroke-width:1px;stroke-linecap:butt;stroke-linejoin:miter;stroke-opacity:1" d="M 582.667,212.092 596.92,212.092 z" id="boundary" inkscape:connector-curvature="0" />
	<path style="fill:none;stroke:red;stroke-width:1px;stroke-linecap:butt;stroke-linejoin:miter;stroke-opacity:1" d="M 582.667,212.092 568.414,219.218 z" id="boundary" inkscape:connector-curvature="0" />
	<path style="fill:none;stroke:red;stroke-width:1px;stroke-linecap:butt;stroke-linejoin:miter;stroke-opacity:1" d="M 584.092,61.0115 569.839,61.0115 z" id="boundary" inkscape:connector-curvature="0" />
	<path style="fill:none;stroke:red;stroke-width:1px;stroke-linecap:butt;stroke-linejoin:miter;stroke-opacity:1" d="M 598.345,61.0115 584.092,61.0115 z" id="boundary" inkscape:connector-curvature="0" />
	<path style="fill:none;stroke:red;stroke-width:1px;stroke-linecap:butt;stroke-linejoin:miter;stroke-opacity:1" d="M 777.931,176.46 792.184,176.46 z" id="boundary" inkscape:connector-curvature="0" />
	<path style="fill:none;stroke:red;stroke-width:1px;stroke-linecap:butt;stroke-linejoin:miter;stroke-opacity:1" d="M 612.598,61.0115 598.345,61.0115 z" id="boundary" inkscape:connector-curvature="0" />
	<path style="fill:none;stroke:red;stroke-width:1px;stroke-linecap:butt;stroke-linejoin:miter;stroke-opacity:1" d="M 638.253,200.69 652.506,197.839 z" id="boundary" inkscape:connector-curvature="0" />
	<path style="fill:none;stroke:red;stroke-width:1px;stroke-linecap:butt;stroke-linejoin:miter;stroke-opacity:1" d="M 624,204.966 611.172,212.092 z" id="boundary" inkscape:connector-curvature="0" />
	<path style="fill:none;stroke:red;stroke-width:1px;stroke-linecap:butt;stroke-linejoin:miter;stroke-opacity:1" d="M 625.425,53.8851 638.253,61.0115 z" id="boundary" inkscape:connector-curvature="0" />
	<path style="fill:none;stroke:red;stroke-width:1px;stroke-linecap:butt;stroke-linejoin:miter;stroke-opacity:1" d="M 625.425,53.8851 612.598,61.0115 z" id="boundary" inkscape:connector-curvature="0" />
	<path style="fill:none;stroke:red;stroke-width:1px;stroke-linecap:butt;stroke-linejoin:miter;stroke-opacity:1" d="M 638.253,200.69 624,204.966 z" id="boundary" inkscape:connector-curvature="0" />
	<path style="fill:none;stroke:red;stroke-width:1px;stroke-linecap:butt;stroke-linejoin:miter;stroke-opacity:1" d="M 652.506,61.0115 665.333,68.1379 z" id="boundary" inkscape:connector-curvature="0" />
	<path style="fill:none;stroke:red;stroke-width:1px;stroke-linecap:butt;stroke-linejoin:miter;stroke-opacity:1" d="M 652.506,61.0115 638.253,61.0115 z" id="boundary" inkscape:connector-curvature="0" />
	<path style="fill:none;stroke:red;stroke-width:1px;stroke-linecap:butt;stroke-linejoin:miter;stroke-opacity:1" d="M 860.598,197.839 873.425,204.966 z" id="boundary" inkscape:connector-curvature="0" />
	<path style="fill:none;stroke:red;stroke-width:1px;stroke-linecap:butt;stroke-linejoin:miter;stroke-opacity:1" d="M 706.667,183.586 720.92,182.161 z" id="boundary" inkscape:connector-curvature="0" />
	<path style="fill:none;stroke:red;stroke-width:1px;stroke-linecap:butt;stroke-linejoin:miter;stroke-opacity:1" d="M 665.333,190.713 652.506,197.839 z" id="boundary" inkscape:connector-curvature="0" />
	<path style="fill:none;stroke:red;stroke-width:1px;stroke-linecap:butt;stroke-linejoin:miter;stroke-opacity:1" d="M 678.161,75.2644 665.333,68.1379 z" id="boundary" inkscape:connector-curvature="0" />
	<path style="fill:none;stroke:red;stroke-width:1px;stroke-linecap:butt;stroke-linejoin:miter;stroke-opacity:1" d="M 679.586,190.713 665.333,190.713 z" id="boundary" inkscape:connector-curvature="0" />
	<path style="fill:none;stroke:red;stroke-width:1px;stroke-linecap:butt;stroke-linejoin:miter;stroke-opacity:1" d="M 690.989,82.3908 678.161,75.2644 z" id="boundary" inkscape:connector-curvature="0" />
	<path style="fill:none;stroke:red;stroke-width:1px;stroke-linecap:butt;stroke-linejoin:miter;stroke-opacity:1" d="M 692.414,183.586 679.586,190.713 z" id="boundary" inkscape:connector-curvature="0" />
	<path style="fill:none;stroke:red;stroke-width:1px;stroke-linecap:butt;stroke-linejoin:miter;stroke-opacity:1" d="M 705.241,82.3908 718.069,89.5172 z" id="boundary" inkscape:connector-curvature="0" />
	<path style="fill:none;stroke:red;stroke-width:1px;stroke-linecap:butt;stroke-linejoin:miter;stroke-opacity:1" d="M 705.241,82.3908 690.989,82.3908 z" id="boundary" inkscape:connector-curvature="0" />
	<path style="fill:none;stroke:red;stroke-width:1px;stroke-linecap:butt;stroke-linejoin:miter;stroke-opacity:1" d="M 706.667,183.586 692.414,183.586 z" id="boundary" inkscape:connector-curvature="0" />
	<path style="fill:none;stroke:red;stroke-width:1px;stroke-linecap:butt;stroke-linejoin:miter;stroke-opacity:1" d="M 749.425,176.46 763.678,176.46 z" id="boundary" inkscape:connector-curvature="0" />
	<path style="fill:none;stroke:red;stroke-width:1px;stroke-linecap:butt;stroke-linejoin:miter;stroke-opacity:1" d="M 732.322,93.7931 718.069,89.5172 z" id="boundary" inkscape:connector-curvature="0" />
	<path style="fill:none;stroke:red;stroke-width:1px;stroke-linecap:butt;stroke-linejoin:miter;stroke-opacity:1" d="M 860.598,197.839 847.77,190.713 z" id="boundary" inkscape:connector-curvature="0" />
	<path style="fill:none;stroke:red;stroke-width:1px;stroke-linecap:butt;stroke-linejoin:miter;stroke-opacity:1" d="M 735.172,176.46 720.92,182.161 z" id="boundary" inkscape:connector-curvature="0" />
	<path style="fill:none;stroke:red;stroke-width:1px;stroke-linecap:butt;stroke-linejoin:miter;stroke-opacity:1" d="M 745.149,100.92 732.322,93.7931 z" id="boundary" inkscape:connector-curvature="0" />
	<path style="fill:none;stroke:red;stroke-width:1px;stroke-linecap:butt;stroke-linejoin:miter;stroke-opacity:1" d="M 749.425,176.46 735.172,176.46 z" id="boundary" inkscape:connector-curvature="0" />
	<path style="fill:none;stroke:red;stroke-width:1px;stroke-linecap:butt;stroke-linejoin:miter;stroke-opacity:1" d="M 759.402,103.77 745.149,100.92 z" id="boundary" inkscape:connector-curvature="0" />
	<path style="fill:none;stroke:red;stroke-width:1px;stroke-linecap:butt;stroke-linejoin:miter;stroke-opacity:1" d="M 806.437,176.46 820.69,182.161 z" id="boundary" inkscape:connector-curvature="0" />
	<path style="fill:none;stroke:red;stroke-width:1px;stroke-linecap:butt;stroke-linejoin:miter;stroke-opacity:1" d="M 806.437,176.46 792.184,176.46 z" id="boundary" inkscape:connector-curvature="0" />
	<path style="fill:none;stroke:red;stroke-width:1px;stroke-linecap:butt;stroke-linejoin:miter;stroke-opacity:1" d="M 773.655,103.77 759.402,103.77 z" id="boundary" inkscape:connector-curvature="0" />
	<path style="fill:none;stroke:red;stroke-width:1px;stroke-linecap:butt;stroke-linejoin:miter;stroke-opacity:1" d="M 763.678,176.46 777.931,176.46 z" id="boundary" inkscape:connector-curvature="0" />
	<path style="fill:none;stroke:red;stroke-width:1px;stroke-linecap:butt;stroke-linejoin:miter;stroke-opacity:1" d="M 787.908,103.77 773.655,103.77 z" id="boundary" inkscape:connector-curvature="0" />
	<path style="fill:none;stroke:red;stroke-width:1px;stroke-linecap:butt;stroke-linejoin:miter;stroke-opacity:1" d="M 802.161,103.77 787.908,103.77 z" id="boundary" inkscape:connector-curvature="0" />
	<path style="fill:none;stroke:red;stroke-width:1px;stroke-linecap:butt;stroke-linejoin:miter;stroke-opacity:1" d="M 847.77,190.713 834.943,183.586 z" id="boundary" inkscape:connector-curvature="0" />
	<path style="fill:none;stroke:red;stroke-width:1px;stroke-linecap:butt;stroke-linejoin:miter;stroke-opacity:1" d="M 834.943,183.586 820.69,182.161 z" id="boundary" inkscape:connector-curvature="0" />
	<path style="fill:none;stroke:red;stroke-width:1px;stroke-linecap:butt;stroke-linejoin:miter;stroke-opacity:1" d="M 816.414,103.77 802.161,103.77 z" id="boundary" inkscape:connector-curvature="0" />
	<path style="fill:none;stroke:red;stroke-width:1px;stroke-linecap:butt;stroke-linejoin:miter;stroke-opacity:1" d="M 873.425,204.966 886.253,212.092 z" id="boundary" inkscape:connector-curvature="0" />
	<path style="fill:none;stroke:red;stroke-width:1px;stroke-linecap:butt;stroke-linejoin:miter;stroke-opacity:1" d="M 816.414,103.77 830.667,103.77 z" id="boundary" inkscape:connector-curvature="0" />
	<path style="fill:none;stroke:red;stroke-width:1px;stroke-linecap:butt;stroke-linejoin:miter;stroke-opacity:1" d="M 843.494,96.6437 857.747,96.6437 z" id="boundary" inkscape:connector-curvature="0" />
	<path style="fill:none;stroke:red;stroke-width:1px;stroke-linecap:butt;stroke-linejoin:miter;stroke-opacity:1" d="M 843.494,96.6437 830.667,103.77 z" id="boundary" inkscape:connector-curvature="0" />
	<path style="fill:none;stroke:red;stroke-width:1px;stroke-linecap:butt;stroke-linejoin:miter;stroke-opacity:1" d="M 870.575,89.5172 857.747,96.6437 z" id="boundary" inkscape:connector-curvature="0" />
	<path style="fill:none;stroke:red;stroke-width:1px;stroke-linecap:butt;stroke-linejoin:miter;stroke-opacity:1" d="M 883.402,82.3908 870.575,89.5172 z" id="boundary" inkscape:connector-curvature="0" />
	<path style="fill:none;stroke:red;stroke-width:1px;stroke-linecap:butt;stroke-linejoin:miter;stroke-opacity:1" d="M 931.862,126.575 931.862,140.828 z" id="boundary" inkscape:connector-curvature="0" />
	<path style="fill:none;stroke:red;stroke-width:1px;stroke-linecap:butt;stroke-linejoin:miter;stroke-opacity:1" d="M 913.333,219.218 927.586,224.92 z" id="boundary" inkscape:connector-curvature="0" />
	<path style="fill:none;stroke:red;stroke-width:1px;stroke-linecap:butt;stroke-linejoin:miter;stroke-opacity:1" d="M 896.23,75.2644 910.483,70.9885 z" id="boundary" inkscape:connector-curvature="0" />
	<path style="fill:none;stroke:red;stroke-width:1px;stroke-linecap:butt;stroke-linejoin:miter;stroke-opacity:1" d="M 900.506,212.092 913.333,219.218 z" id="boundary" inkscape:connector-curvature="0" />
	<path style="fill:none;stroke:red;stroke-width:1px;stroke-linecap:butt;stroke-linejoin:miter;stroke-opacity:1" d="M 900.506,212.092 886.253,212.092 z" id="boundary" inkscape:connector-curvature="0" />
	<path style="fill:none;stroke:red;stroke-width:1px;stroke-linecap:butt;stroke-linejoin:miter;stroke-opacity:1" d="M 883.402,82.3908 896.23,75.2644 z" id="boundary" inkscape:connector-curvature="0" />
	<path style="fill:none;stroke:red;stroke-width:1px;stroke-linecap:butt;stroke-linejoin:miter;stroke-opacity:1" d="M 924.736,63.8621 910.483,70.9885 z" id="boundary" inkscape:connector-curvature="0" />
	<path style="fill:none;stroke:red;stroke-width:1px;stroke-linecap:butt;stroke-linejoin:miter;stroke-opacity:1" d="M 934.713,155.08 931.862,140.828 z" id="boundary" inkscape:connector-curvature="0" />
	<path style="fill:none;stroke:red;stroke-width:1px;stroke-linecap:butt;stroke-linejoin:miter;stroke-opacity:1" d="M 941.839,226.345 956.092,232.046 z" id="boundary" inkscape:connector-curvature="0" />
	<path style="fill:none;stroke:red;stroke-width:1px;stroke-linecap:butt;stroke-linejoin:miter;stroke-opacity:1" d="M 941.839,226.345 927.586,224.92 z" id="boundary" inkscape:connector-curvature="0" />
	<path style="fill:none;stroke:red;stroke-width:1px;stroke-linecap:butt;stroke-linejoin:miter;stroke-opacity:1" d="M 924.736,63.8621 938.989,56.7356 z" id="boundary" inkscape:connector-curvature="0" />
	<path style="fill:none;stroke:red;stroke-width:1px;stroke-linecap:butt;stroke-linejoin:miter;stroke-opacity:1" d="M 941.839,167.908 934.713,155.08 z" id="boundary" inkscape:connector-curvature="0" />
	<path style="fill:none;stroke:red;stroke-width:1px;stroke-linecap:butt;stroke-linejoin:miter;stroke-opacity:1" d="M 943.264,116.598 931.862,126.575 z" id="boundary" inkscape:connector-curvature="0" />
	<path style="fill:none;stroke:red;stroke-width:1px;stroke-linecap:butt;stroke-linejoin:miter;stroke-opacity:1" d="M 954.667,175.034 941.839,167.908 z" id="boundary" inkscape:connector-curvature="0" />
	<path style="fill:none;stroke:red;stroke-width:1px;stroke-linecap:butt;stroke-linejoin:miter;stroke-opacity:1" d="M 943.264,116.598 953.241,105.195 z" id="boundary" inkscape:connector-curvature="0" />
	<path style="fill:none;stroke:red;stroke-width:1px;stroke-linecap:butt;stroke-linejoin:miter;stroke-opacity:1" d="M 953.241,53.8851 938.989,56.7356 z" id="boundary" inkscape:connector-curvature="0" />
	<path style="fill:none;stroke:red;stroke-width:1px;stroke-linecap:butt;stroke-linejoin:miter;stroke-opacity:1" d="M 964.644,95.2184 953.241,105.195 z" id="boundary" inkscape:connector-curvature="0" />
	<path style="fill:none;stroke:red;stroke-width:1px;stroke-linecap:butt;stroke-linejoin:miter;stroke-opacity:1" d="M 966.069,185.011 954.667,175.034 z" id="boundary" inkscape:connector-curvature="0" />
	<path style="fill:none;stroke:red;stroke-width:1px;stroke-linecap:butt;stroke-linejoin:miter;stroke-opacity:1" d="M 970.345,233.471 956.092,232.046 z" id="boundary" inkscape:connector-curvature="0" />
	<path style="fill:none;stroke:red;stroke-width:1px;stroke-linecap:butt;stroke-linejoin:miter;stroke-opacity:1" d="M 966.069,46.7586 953.241,53.8851 z" id="boundary" inkscape:connector-curvature="0" />
	<path style="fill:none;stroke:red;stroke-width:1px;stroke-linecap:butt;stroke-linejoin:miter;stroke-opacity:1" d="M 966.069,185.011 974.621,196.414 z" id="boundary" inkscape:connector-curvature="0" />
	<path style="fill:none;stroke:red;stroke-width:1px;stroke-linecap:butt;stroke-linejoin:miter;stroke-opacity:1" d="M 974.621,83.8161 964.644,95.2184 z" id="boundary" inkscape:connector-curvature="0" />
	<path style="fill:none;stroke:red;stroke-width:1px;stroke-linecap:butt;stroke-linejoin:miter;stroke-opacity:1" d="M 974.621,83.8161 986.023,73.8391 z" id="boundary" inkscape:connector-curvature="0" />
	<path style="fill:none;stroke:red;stroke-width:1px;stroke-linecap:butt;stroke-linejoin:miter;stroke-opacity:1" d="M 984.598,233.471 970.345,233.471 z" id="boundary" inkscape:connector-curvature="0" />
	<path style="fill:none;stroke:red;stroke-width:1px;stroke-linecap:butt;stroke-linejoin:miter;stroke-opacity:1" d="M 966.069,46.7586 980.322,46.7586 z" id="boundary" inkscape:connector-curvature="0" />
	<path style="fill:none;stroke:red;stroke-width:1px;stroke-linecap:butt;stroke-linejoin:miter;stroke-opacity:1" d="M 986.023,204.966 974.621,196.414 z" id="boundary" inkscape:connector-curvature="0" />
	<path style="fill:none;stroke:red;stroke-width:1px;stroke-linecap:butt;stroke-linejoin:miter;stroke-opacity:1" d="M 980.322,46.7586 994.575,46.7586 z" id="boundary" inkscape:connector-curvature="0" />
	<path style="fill:none;stroke:red;stroke-width:1px;stroke-linecap:butt;stroke-linejoin:miter;stroke-opacity:1" d="M 986.023,204.966 991.724,219.218 z" id="boundary" inkscape:connector-curvature="0" />
	<path style="fill:none;stroke:red;stroke-width:1px;stroke-linecap:butt;stroke-linejoin:miter;stroke-opacity:1" d="M 996,62.4368 986.023,73.8391 z" id="boundary" inkscape:connector-curvature="0" />
	<path style="fill:none;stroke:red;stroke-width:1px;stroke-linecap:butt;stroke-linejoin:miter;stroke-opacity:1" d="M 991.724,219.218 984.598,233.471 z" id="boundary" inkscape:connector-curvature="0" />
	<path style="fill:none;stroke:red;stroke-width:1px;stroke-linecap:butt;stroke-linejoin:miter;stroke-opacity:1" d="M 994.575,46.7586 996,62.4368 z" id="boundary" inkscape:connector-curvature="0" />
	<circle cx="4" cy="108.046" r="4" fill="#0" id="circle0"/>
	<circle cx="4" cy="122.299" r="4" fill="#0" id="circle1"/>
	<circle cx="4" cy="136.552" r="4" fill="#0" id="circle2"/>
	<circle cx="15.4023" cy="96.6437" r="4" fill="#0" id="circle3"/>
	<circle cx="15.4023" cy="146.529" r="4" fill="#0" id="circle4"/>
	<circle cx="25.3793" cy="157.931" r="4" fill="#0" id="circle5"/>
	<circle cx="29.6552" cy="89.5172" r="4" fill="#0" id="circle6"/>
	<circle cx="39.6322" cy="162.207" r="4" fill="#0" id="circle7"/>
	<circle cx="42.4828" cy="82.3908" r="4" fill="#0" id="circle8"/>
	<circle cx="48.1839" cy="173.609" r="4" fill="#0" id="circle9"/>
	<circle cx="56.7356" cy="82.3908" r="4" fill="#0" id="circle10"/>
	<circle cx="62.4368" cy="179.31" r="4" fill="#0" id="circle11"/>
	<circle cx="69.5632" cy="75.2644" r="4" fill="#0" id="circle12"/>
	<circle cx="75.2644" cy="186.437" r="4" fill="#0" id="circle13"/>
	<circle cx="83.8161" cy="70.9885" r="4" fill="#0" id="circle14"/>
	<circle cx="89.5172" cy="190.713" r="4" fill="#0" id="circle15"/>
	<circle cx="98.069" cy="68.1379" r="4" fill="#0" id="circle16"/>
	<circle cx="102.345" cy="197.839" r="4" fill="#0" id="circle17"/>
	<circle cx="112.322" cy="63.8621" r="4" fill="#0" id="circle18"/>
	<circle cx="115.172" cy="204.966" r="4" fill="#0" id="circle19"/>
	<circle cx="126.575" cy="61.0115" r="4" fill="#0" id="circle20"/>
	<circle cx="129.425" cy="210.667" r="4" fill="#0" id="circle21"/>
	<circle cx="140.828" cy="61.0115" r="4" fill="#0" id="circle22"/>
	<circle cx="143.678" cy="212.092" r="4" fill="#0" id="circle23"/>
	<circle cx="155.08" cy="56.7356" r="4" fill="#0" id="circle24"/>
	<circle cx="157.931" cy="212.092" r="4" fill="#0" id="circle25"/>
	<circle cx="169.333" cy="53.8851" r="4" fill="#0" id="circle26"/>
	<circle cx="170.759" cy="219.218" r="4" fill="#0" id="circle27"/>
	<circle cx="183.586" cy="53.8851" r="4" fill="#0" id="circle28"/>
	<circle cx="185.011" cy="219.218" r="4" fill="#0" id="circle29"/>
	<circle cx="197.839" cy="53.8851" r="4" fill="#0" id="circle30"/>
	<circle cx="199.264" cy="223.494" r="4" fill="#0" id="circle31"/>
	<circle cx="210.667" cy="46.7586" r="4" fill="#0" id="circle32"/>
	<circle cx="213.517" cy="226.345" r="4" fill="#0" id="circle33"/>
	<circle cx="224.92" cy="46.7586" r="4" fill="#0" id="circle34"/>
	<circle cx="227.77" cy="226.345" r="4" fill="#0" id="circle35"/>
	<circle cx="239.172" cy="46.7586" r="4" fill="#0" id="circle36"/>
	<circle cx="242.023" cy="226.345" r="4" fill="#0" id="circle37"/>
	<circle cx="253.425" cy="43.908" r="4" fill="#0" id="circle38"/>
	<circle cx="256.276" cy="226.345" r="4" fill="#0" id="circle39"/>
	<circle cx="267.678" cy="39.6322" r="4" fill="#0" id="circle40"/>
	<circle cx="270.529" cy="226.345" r="4" fill="#0" id="circle41"/>
	<circle cx="281.931" cy="39.6322" r="4" fill="#0" id="circle42"/>
	<circle cx="283.356" cy="233.471" r="4" fill="#0" id="circle43"/>
	<circle cx="296.184" cy="39.6322" r="4" fill="#0" id="circle44"/>
	<circle cx="297.609" cy="233.471" r="4" fill="#0" id="circle45"/>
	<circle cx="309.011" cy="32.5057" r="4" fill="#0" id="circle46"/>
	<circle cx="311.862" cy="233.471" r="4" fill="#0" id="circle47"/>
	<circle cx="323.264" cy="32.5057" r="4" fill="#0" id="circle48"/>
	<circle cx="326.115" cy="233.471" r="4" fill="#0" id="circle49"/>
	<circle cx="337.517" cy="33.931" r="4" fill="#0" id="circle50"/>
	<circle cx="340.368" cy="236.322" r="4" fill="#0" id="circle51"/>
	<circle cx="351.77" cy="39.6322" r="4" fill="#0" id="circle52"/>
	<circle cx="353.195" cy="243.448" r="4" fill="#0" id="circle53"/>
	<circle cx="366.023" cy="39.6322" r="4" fill="#0" id="circle54"/>
	<circle cx="367.448" cy="247.724" r="4" fill="#0" id="circle55"/>
	<circle cx="376" cy="259.126" r="4" fill="#0" id="circle56"/>
	<circle cx="380.276" cy="39.6322" r="4" fill="#0" id="circle57"/>
	<circle cx="390.253" cy="264.828" r="4" fill="#0" id="circle58"/>
	<circle cx="394.529" cy="39.6322" r="4" fill="#0" id="circle59"/>
	<circle cx="400.23" cy="276.23" r="4" fill="#0" id="circle60"/>
	<circle cx="407.356" cy="32.5057" r="4" fill="#0" id="circle61"/>
	<circle cx="413.057" cy="283.356" r="4" fill="#0" id="circle62"/>
	<circle cx="418.759" cy="21.1034" r="4" fill="#0" id="circle63"/>
	<circle cx="425.885" cy="290.483" r="4" fill="#0" id="circle64"/>
	<circle cx="430.161" cy="11.1264" r="4" fill="#0" id="circle65"/>
	<circle cx="440.138" cy="290.483" r="4" fill="#0" id="circle66"/>
	<circle cx="442.989" cy="4" r="4" fill="#0" id="circle67"/>
	<circle cx="452.966" cy="283.356" r="4" fill="#0" id="circle68"/>
	<circle cx="455.816" cy="11.1264" r="4" fill="#0" id="circle69"/>
	<circle cx="464.368" cy="274.805" r="4" fill="#0" id="circle70"/>
	<circle cx="467.218" cy="21.1034" r="4" fill="#0" id="circle71"/>
	<circle cx="475.77" cy="32.5057" r="4" fill="#0" id="circle72"/>
	<circle cx="478.621" cy="267.678" r="4" fill="#0" id="circle73"/>
	<circle cx="487.172" cy="41.0575" r="4" fill="#0" id="circle74"/>
	<circle cx="490.023" cy="254.851" r="4" fill="#0" id="circle75"/>
	<circle cx="500" cy="48.1839" r="4" fill="#0" id="circle76"/>
	<circle cx="501.425" cy="244.874" r="4" fill="#0" id="circle77"/>
	<circle cx="514.253" cy="53.8851" r="4" fill="#0" id="circle78"/>
	<circle cx="515.678" cy="237.747" r="4" fill="#0" id="circle79"/>
	<circle cx="528.506" cy="53.8851" r="4" fill="#0" id="circle80"/>
	<circle cx="529.931" cy="230.621" r="4" fill="#0" id="circle81"/>
	<circle cx="539.908" cy="219.218" r="4" fill="#0" id="circle82"/>
	<circle cx="541.333" cy="61.0115" r="4" fill="#0" id="circle83"/>
	<circle cx="554.161" cy="219.218" r="4" fill="#0" id="circle84"/>
	<circle cx="555.586" cy="61.0115" r="4" fill="#0" id="circle85"/>
	<circle cx="568.414" cy="219.218" r="4" fill="#0" id="circle86"/>
	<circle cx="569.839" cy="61.0115" r="4" fill="#0" id="circle87"/>
	<circle cx="582.667" cy="212.092" r="4" fill="#0" id="circle88"/>
	<circle cx="584.092" cy="61.0115" r="4" fill="#0" id="circle89"/>
	<circle cx="596.92" cy="212.092" r="4" fill="#0" id="circle90"/>
	<circle cx="598.345" cy="61.0115" r="4" fill="#0" id="circle91"/>
	<circle cx="611.172" cy="212.092" r="4" fill="#0" id="circle92"/>
	<circle cx="612.598" cy="61.0115" r="4" fill="#0" id="circle93"/>
	<circle cx="624" cy="204.966" r="4" fill="#0" id="circle94"/>
	<circle cx="625.425" cy="53.8851" r="4" fill="#0" id="circle95"/>
	<circle cx="638.253" cy="61.0115" r="4" fill="#0" id="circle96"/>
	<circle cx="638.253" cy="200.69" r="4" fill="#0" id="circle97"/>
	<circle cx="652.506" cy="61.0115" r="4" fill="#0" id="circle98"/>
	<circle cx="652.506" cy="197.839" r="4" fill="#0" id="circle99"/>
	<circle cx="665.333" cy="68.1379" r="4" fill="#0" id="circle100"/>
	<circle cx="665.333" cy="190.713" r="4" fill="#0" id="circle101"/>
	<circle cx="678.161" cy="75.2644" r="4" fill="#0" id="circle102"/>
	<circle cx="679.586" cy="190.713" r="4" fill="#0" id="circle103"/>
	<circle cx="690.989" cy="82.3908" r="4" fill="#0" id="circle104"/>
	<circle cx="692.414" cy="183.586" r="4" fill="#0" id="circle105"/>
	<circle cx="705.241" cy="82.3908" r="4" fill="#0" id="circle106"/>
	<circle cx="706.667" cy="183.586" r="4" fill="#0" id="circle107"/>
	<circle cx="718.069" cy="89.5172" r="4" fill="#0" id="circle108"/>
	<circle cx="720.92" cy="182.161" r="4" fill="#0" id="circle109"/>
	<circle cx="732.322" cy="93.7931" r="4" fill="#0" id="circle110"/>
	<circle cx="735.172" cy="176.46" r="4" fill="#0" id="circle111"/>
	<circle cx="745.149" cy="100.92" r="4" fill="#0" id="circle112"/>
	<circle cx="749.425" cy="176.46" r="4" fill="#0" id="circle113"/>
	<circle cx="759.402" cy="103.77" r="4" fill="#0" id="circle114"/>
	<circle cx="763.678" cy="176.46" r="4" fill="#0" id="circle115"/>
	<circle cx="773.655" cy="103.77" r="4" fill="#0" id="circle116"/>
	<circle cx="777.931" cy="176.46" r="4" fill="#0" id="circle117"/>
	<circle cx="787.908" cy="103.77" r="4" fill="#0" id="circle118"/>
	<circle cx="792.184" cy="176.46" r="4" fill="#0" id="circle119"/>
	<circle cx="802.161" cy="103.77" r="4" fill="#0" id="circle120"/>
	<circle cx="806.437" cy="176.46" r="4" fill="#0" id="circle121"/>
	<circle cx="816.414" cy="103.77" r="4" fill="#0" id="circle122"/>
	<circle cx="820.69" cy="182.161" r="4" fill="#0" id="circle123"/>
	<circle cx="830.667" cy="103.77" r="4" fill="#0" id="circle124"/>
	<circle cx="834.943" cy="183.586" r="4" fill="#0" id="circle125"/>
	<circle cx="843.494" cy="96.6437" r="4" fill="#0" id="circle126"/>
	<circle cx="847.77" cy="190.713" r="4" fill="#0" id="circle127"/>
	<circle cx="857.747" cy="96.6437" r="4" fill="#0" id="circle128"/>
	<circle cx="860.598" cy="197.839" r="4" fill="#0" id="circle129"/>
	<circle cx="870.575" cy="89.5172" r="4" fill="#0" id="circle130"/>
	<circle cx="873.425" cy="204.966" r="4" fill="#0" id="circle131"/>
	<circle cx="883.402" cy="82.3908" r="4" fill="#0" id="circle132"/>
	<circle cx="886.253" cy="212.092" r="4" fill="#0" id="circle133"/>
	<circle cx="896.23" cy="75.2644" r="4" fill="#0" id="circle134"/>
	<circle cx="900.506" cy="212.092" r="4" fill="#0" id="circle135"/>
	<circle cx="910.483" cy="70.9885" r="4" fill="#0" id="circle136"/>
	<circle cx="913.333" cy="219.218" r="4" fill="#0" id="circle137"/>
	<circle cx="924.736" cy="63.8621" r="4" fill="#0" id="circle138"/>
	<circle cx="927.586" cy="224.92" r="4" fill="#0" id="circle139"/>
	<circle cx="931.862" cy="126.575" r="4" fill="#0" id="circle140"/>
	<circle cx="931.862" cy="140.828" r="4" fill="#0" id="circle141"/>
	<circle cx="934.713" cy="155.08" r="4" fill="#0" id="circle142"/>
	<circle cx="938.989" cy="56.7356" r="4" fill="#0" id="circle143"/>
	<circle cx="941.839" cy="167.908" r="4" fill="#0" id="circle144"/>
	<circle cx="941.839" cy="226.345" r="4" fill="#0" id="circle145"/>
	<circle cx="943.264" cy="116.598" r="4" fill="#0" id="circle146"/>
	<circle cx="953.241" cy="53.8851" r="4" fill="#0" id="circle147"/>
	<circle cx="953.241" cy="105.195" r="4" fill="#0" id="circle148"/>
	<circle cx="954.667" cy="175.034" r="4" fill="#0" id="circle149"/>
	<circle cx="956.092" cy="232.046" r="4" fill="#0" id="circle150"/>
	<circle cx="964.644" cy="95.2184" r="4" fill="#0" id="circle151"/>
	<circle cx="966.069" cy="46.7586" r="4" fill="#0" id="circle152"/>
	<circle cx="966.069" cy="185.011" r="4" fill="#0" id="circle153"/>
	<circle cx="970.345" cy="233.471" r="4" fill="#0" id="circle154"/>
	<circle cx="974.621" cy="83.8161" r="4" fill="#0" id="circle155"/>
	<circle cx="974.621" cy="196.414" r="4" fill="#0" id="circle156"/>
	<circle cx="980.322" cy="46.7586" r="4" fill="#0" id="circle157"/>
	<circle cx="984.598" cy="233.471" r="4" fill="#0" id="circle158"/>
	<circle cx="986.023" cy="73.8391" r="4" fill="#0" id="circle159"/>
	<circle cx="986.023" cy="204.966" r="4" fill="#0" id="circle160"/>
	<circle cx="991.724" cy="219.218" r="4" fill="#0" id="circle161"/>
	<circle cx="994.575" cy="46.7586" r="4" fill="#0" id="circle162"/>
	<circle cx="996" cy="62.4368" r="4" fill="#0" id="circle163"/>
	</g>
</svg>