<?xml version="1.0" encoding="UTF-8" standalone="no"?>
<!-- Created with CurveBenchmark -->
<svg
	xmlns:dc="http://purl.org/dc/elements/1.1/"
	xmlns:cc="http://creativecommons.org/ns#"
	xmlns:rdf="http://www.w3.org/1999/02/22-rdf-syntax-ns#"
	xmlns:svg="http://www.w3.org/2000/svg"
	xmlns="http://www.w3.org/2000/svg"
	xmlns:sodipodi="http://sodipodi.sourceforge.net/DTD/sodipodi-0.dtd"
	xmlns:inkscape="http://www.inkscape.org/namespaces/inkscape"
	width="1000"
	height="1000"
	id="svg2"
	version="1.1"
	sodipodi:docname="manifold/peel-woodenspoonbinary16.png.txt">
<defs
	id="defs4" />
<metadata
	id="metadata7">
	<rdf:RDF>
		<cc:Work
			rdf:about="">
			<dc:format>image/svg+xml</dc:format>
			<dc:type
				rdf:resource="http://purl.org/dc/dcmitype/StillImage" />
			<dc:title></dc:title>
		</cc:Work>
	</rdf:RDF>
</metadata>
<g
	inkscape:label="Layer 1"
	inkscape:groupmode="layer"
	id="layer1">
	<path style="fill:none;stroke:red;stroke-width:1px;stroke-linecap:butt;stroke-linejoin:miter;stroke-opacity:1" d="M 6.37131,122.566 7.16175,130.47 z" id="boundary" inkscape:connector-curvature="0" />
	<path style="fill:none;stroke:red;stroke-width:1px;stroke-linecap:butt;stroke-linejoin:miter;stroke-opacity:1" d="M 4.79044,89.3673 4.79044,81.4629 z" id="boundary" inkscape:connector-curvature="0" />
	<path style="fill:none;stroke:red;stroke-width:1px;stroke-linecap:butt;stroke-linejoin:miter;stroke-opacity:1" d="M 5.58088,114.661 4,106.757 z" id="boundary" inkscape:connector-curvature="0" />
	<path style="fill:none;stroke:red;stroke-width:1px;stroke-linecap:butt;stroke-linejoin:miter;stroke-opacity:1" d="M 4,106.757 4.79044,97.2717 z" id="boundary" inkscape:connector-curvature="0" />
	<path style="fill:none;stroke:red;stroke-width:1px;stroke-linecap:butt;stroke-linejoin:miter;stroke-opacity:1" d="M 4.79044,97.2717 4.79044,89.3673 z" id="boundary" inkscape:connector-curvature="0" />
	<path style="fill:none;stroke:red;stroke-width:1px;stroke-linecap:butt;stroke-linejoin:miter;stroke-opacity:1" d="M 4.79044,81.4629 7.16175,73.5586 z" id="boundary" inkscape:connector-curvature="0" />
	<path style="fill:none;stroke:red;stroke-width:1px;stroke-linecap:butt;stroke-linejoin:miter;stroke-opacity:1" d="M 6.37131,122.566 5.58088,114.661 z" id="boundary" inkscape:connector-curvature="0" />
	<path style="fill:none;stroke:red;stroke-width:1px;stroke-linecap:butt;stroke-linejoin:miter;stroke-opacity:1" d="M 13.4853,55.3785 9.53307,63.2829 z" id="boundary" inkscape:connector-curvature="0" />
	<path style="fill:none;stroke:red;stroke-width:1px;stroke-linecap:butt;stroke-linejoin:miter;stroke-opacity:1" d="M 9.53307,63.2829 7.16175,73.5586 z" id="boundary" inkscape:connector-curvature="0" />
	<path style="fill:none;stroke:red;stroke-width:1px;stroke-linecap:butt;stroke-linejoin:miter;stroke-opacity:1" d="M 13.4853,55.3785 18.2279,47.4741 z" id="boundary" inkscape:connector-curvature="0" />
	<path style="fill:none;stroke:red;stroke-width:1px;stroke-linecap:butt;stroke-linejoin:miter;stroke-opacity:1" d="M 18.2279,47.4741 22.9705,41.1506 z" id="boundary" inkscape:connector-curvature="0" />
	<path style="fill:none;stroke:red;stroke-width:1px;stroke-linecap:butt;stroke-linejoin:miter;stroke-opacity:1" d="M 22.9705,41.1506 29.294,34.8271 z" id="boundary" inkscape:connector-curvature="0" />
	<path style="fill:none;stroke:red;stroke-width:1px;stroke-linecap:butt;stroke-linejoin:miter;stroke-opacity:1" d="M 7.16175,130.47 7.95219,138.375 z" id="boundary" inkscape:connector-curvature="0" />
	<path style="fill:none;stroke:red;stroke-width:1px;stroke-linecap:butt;stroke-linejoin:miter;stroke-opacity:1" d="M 14.2757,153.393 10.3235,146.279 z" id="boundary" inkscape:connector-curvature="0" />
	<path style="fill:none;stroke:red;stroke-width:1px;stroke-linecap:butt;stroke-linejoin:miter;stroke-opacity:1" d="M 41.941,23.761 49.055,19.0183 z" id="boundary" inkscape:connector-curvature="0" />
	<path style="fill:none;stroke:red;stroke-width:1px;stroke-linecap:butt;stroke-linejoin:miter;stroke-opacity:1" d="M 49.055,19.0183 56.9594,15.8566 z" id="boundary" inkscape:connector-curvature="0" />
	<path style="fill:none;stroke:red;stroke-width:1px;stroke-linecap:butt;stroke-linejoin:miter;stroke-opacity:1" d="M 7.95219,138.375 10.3235,146.279 z" id="boundary" inkscape:connector-curvature="0" />
	<path style="fill:none;stroke:red;stroke-width:1px;stroke-linecap:butt;stroke-linejoin:miter;stroke-opacity:1" d="M 18.2279,160.507 21.3896,168.411 z" id="boundary" inkscape:connector-curvature="0" />
	<path style="fill:none;stroke:red;stroke-width:1px;stroke-linecap:butt;stroke-linejoin:miter;stroke-opacity:1" d="M 18.2279,160.507 14.2757,153.393 z" id="boundary" inkscape:connector-curvature="0" />
	<path style="fill:none;stroke:red;stroke-width:1px;stroke-linecap:butt;stroke-linejoin:miter;stroke-opacity:1" d="M 21.3896,168.411 24.5514,176.316 z" id="boundary" inkscape:connector-curvature="0" />
	<path style="fill:none;stroke:red;stroke-width:1px;stroke-linecap:butt;stroke-linejoin:miter;stroke-opacity:1" d="M 35.6175,28.5036 41.941,23.761 z" id="boundary" inkscape:connector-curvature="0" />
	<path style="fill:none;stroke:red;stroke-width:1px;stroke-linecap:butt;stroke-linejoin:miter;stroke-opacity:1" d="M 35.6175,28.5036 29.294,34.8271 z" id="boundary" inkscape:connector-curvature="0" />
	<path style="fill:none;stroke:red;stroke-width:1px;stroke-linecap:butt;stroke-linejoin:miter;stroke-opacity:1" d="M 64.8637,13.4853 56.9594,15.8566 z" id="boundary" inkscape:connector-curvature="0" />
	<path style="fill:none;stroke:red;stroke-width:1px;stroke-linecap:butt;stroke-linejoin:miter;stroke-opacity:1" d="M 33.2462,189.753 37.1984,196.867 z" id="boundary" inkscape:connector-curvature="0" />
	<path style="fill:none;stroke:red;stroke-width:1px;stroke-linecap:butt;stroke-linejoin:miter;stroke-opacity:1" d="M 33.2462,189.753 28.5036,183.429 z" id="boundary" inkscape:connector-curvature="0" />
	<path style="fill:none;stroke:red;stroke-width:1px;stroke-linecap:butt;stroke-linejoin:miter;stroke-opacity:1" d="M 24.5514,176.316 28.5036,183.429 z" id="boundary" inkscape:connector-curvature="0" />
	<path style="fill:none;stroke:red;stroke-width:1px;stroke-linecap:butt;stroke-linejoin:miter;stroke-opacity:1" d="M 64.8637,13.4853 72.7681,11.1139 z" id="boundary" inkscape:connector-curvature="0" />
	<path style="fill:none;stroke:red;stroke-width:1px;stroke-linecap:butt;stroke-linejoin:miter;stroke-opacity:1" d="M 37.1984,196.867 41.941,203.19 z" id="boundary" inkscape:connector-curvature="0" />
	<path style="fill:none;stroke:red;stroke-width:1px;stroke-linecap:butt;stroke-linejoin:miter;stroke-opacity:1" d="M 52.2167,215.837 56.9594,222.161 z" id="boundary" inkscape:connector-curvature="0" />
	<path style="fill:none;stroke:red;stroke-width:1px;stroke-linecap:butt;stroke-linejoin:miter;stroke-opacity:1" d="M 52.2167,215.837 45.8932,210.304 z" id="boundary" inkscape:connector-curvature="0" />
	<path style="fill:none;stroke:red;stroke-width:1px;stroke-linecap:butt;stroke-linejoin:miter;stroke-opacity:1" d="M 41.941,203.19 45.8932,210.304 z" id="boundary" inkscape:connector-curvature="0" />
	<path style="fill:none;stroke:red;stroke-width:1px;stroke-linecap:butt;stroke-linejoin:miter;stroke-opacity:1" d="M 80.6725,8.74263 88.5769,7.16175 z" id="boundary" inkscape:connector-curvature="0" />
	<path style="fill:none;stroke:red;stroke-width:1px;stroke-linecap:butt;stroke-linejoin:miter;stroke-opacity:1" d="M 80.6725,8.74263 72.7681,11.1139 z" id="boundary" inkscape:connector-curvature="0" />
	<path style="fill:none;stroke:red;stroke-width:1px;stroke-linecap:butt;stroke-linejoin:miter;stroke-opacity:1" d="M 104.386,4.79044 112.29,4.79044 z" id="boundary" inkscape:connector-curvature="0" />
	<path style="fill:none;stroke:red;stroke-width:1px;stroke-linecap:butt;stroke-linejoin:miter;stroke-opacity:1" d="M 104.386,4.79044 96.4813,5.58088 z" id="boundary" inkscape:connector-curvature="0" />
	<path style="fill:none;stroke:red;stroke-width:1px;stroke-linecap:butt;stroke-linejoin:miter;stroke-opacity:1" d="M 56.9594,222.161 61.702,228.484 z" id="boundary" inkscape:connector-curvature="0" />
	<path style="fill:none;stroke:red;stroke-width:1px;stroke-linecap:butt;stroke-linejoin:miter;stroke-opacity:1" d="M 88.5769,7.16175 96.4813,5.58088 z" id="boundary" inkscape:connector-curvature="0" />
	<path style="fill:none;stroke:red;stroke-width:1px;stroke-linecap:butt;stroke-linejoin:miter;stroke-opacity:1" d="M 112.29,4.79044 120.194,4 z" id="boundary" inkscape:connector-curvature="0" />
	<path style="fill:none;stroke:red;stroke-width:1px;stroke-linecap:butt;stroke-linejoin:miter;stroke-opacity:1" d="M 120.194,4 128.099,4 z" id="boundary" inkscape:connector-curvature="0" />
	<path style="fill:none;stroke:red;stroke-width:1px;stroke-linecap:butt;stroke-linejoin:miter;stroke-opacity:1" d="M 61.702,228.484 67.2351,234.808 z" id="boundary" inkscape:connector-curvature="0" />
	<path style="fill:none;stroke:red;stroke-width:1px;stroke-linecap:butt;stroke-linejoin:miter;stroke-opacity:1" d="M 67.2351,234.808 72.7681,241.131 z" id="boundary" inkscape:connector-curvature="0" />
	<path style="fill:none;stroke:red;stroke-width:1px;stroke-linecap:butt;stroke-linejoin:miter;stroke-opacity:1" d="M 72.7681,241.131 79.0916,245.874 z" id="boundary" inkscape:connector-curvature="0" />
	<path style="fill:none;stroke:red;stroke-width:1px;stroke-linecap:butt;stroke-linejoin:miter;stroke-opacity:1" d="M 86.2056,249.826 92.5291,254.569 z" id="boundary" inkscape:connector-curvature="0" />
	<path style="fill:none;stroke:red;stroke-width:1px;stroke-linecap:butt;stroke-linejoin:miter;stroke-opacity:1" d="M 86.2056,249.826 79.0916,245.874 z" id="boundary" inkscape:connector-curvature="0" />
	<path style="fill:none;stroke:red;stroke-width:1px;stroke-linecap:butt;stroke-linejoin:miter;stroke-opacity:1" d="M 143.908,5.58088 151.812,7.16175 z" id="boundary" inkscape:connector-curvature="0" />
	<path style="fill:none;stroke:red;stroke-width:1px;stroke-linecap:butt;stroke-linejoin:miter;stroke-opacity:1" d="M 143.908,5.58088 136.003,4.79044 z" id="boundary" inkscape:connector-curvature="0" />
	<path style="fill:none;stroke:red;stroke-width:1px;stroke-linecap:butt;stroke-linejoin:miter;stroke-opacity:1" d="M 92.5291,254.569 98.8526,259.312 z" id="boundary" inkscape:connector-curvature="0" />
	<path style="fill:none;stroke:red;stroke-width:1px;stroke-linecap:butt;stroke-linejoin:miter;stroke-opacity:1" d="M 128.099,4 136.003,4.79044 z" id="boundary" inkscape:connector-curvature="0" />
	<path style="fill:none;stroke:red;stroke-width:1px;stroke-linecap:butt;stroke-linejoin:miter;stroke-opacity:1" d="M 98.8526,259.312 105.176,264.054 z" id="boundary" inkscape:connector-curvature="0" />
	<path style="fill:none;stroke:red;stroke-width:1px;stroke-linecap:butt;stroke-linejoin:miter;stroke-opacity:1" d="M 151.812,7.16175 159.716,8.74263 z" id="boundary" inkscape:connector-curvature="0" />
	<path style="fill:none;stroke:red;stroke-width:1px;stroke-linecap:butt;stroke-linejoin:miter;stroke-opacity:1" d="M 118.614,272.749 111.5,268.797 z" id="boundary" inkscape:connector-curvature="0" />
	<path style="fill:none;stroke:red;stroke-width:1px;stroke-linecap:butt;stroke-linejoin:miter;stroke-opacity:1" d="M 105.176,264.054 111.5,268.797 z" id="boundary" inkscape:connector-curvature="0" />
	<path style="fill:none;stroke:red;stroke-width:1px;stroke-linecap:butt;stroke-linejoin:miter;stroke-opacity:1" d="M 167.621,10.3235 159.716,8.74263 z" id="boundary" inkscape:connector-curvature="0" />
	<path style="fill:none;stroke:red;stroke-width:1px;stroke-linecap:butt;stroke-linejoin:miter;stroke-opacity:1" d="M 125.727,276.701 132.051,281.444 z" id="boundary" inkscape:connector-curvature="0" />
	<path style="fill:none;stroke:red;stroke-width:1px;stroke-linecap:butt;stroke-linejoin:miter;stroke-opacity:1" d="M 125.727,276.701 118.614,272.749 z" id="boundary" inkscape:connector-curvature="0" />
	<path style="fill:none;stroke:red;stroke-width:1px;stroke-linecap:butt;stroke-linejoin:miter;stroke-opacity:1" d="M 167.621,10.3235 175.525,11.9044 z" id="boundary" inkscape:connector-curvature="0" />
	<path style="fill:none;stroke:red;stroke-width:1px;stroke-linecap:butt;stroke-linejoin:miter;stroke-opacity:1" d="M 175.525,11.9044 183.429,14.2757 z" id="boundary" inkscape:connector-curvature="0" />
	<path style="fill:none;stroke:red;stroke-width:1px;stroke-linecap:butt;stroke-linejoin:miter;stroke-opacity:1" d="M 153.393,293.3 146.279,289.348 z" id="boundary" inkscape:connector-curvature="0" />
	<path style="fill:none;stroke:red;stroke-width:1px;stroke-linecap:butt;stroke-linejoin:miter;stroke-opacity:1" d="M 199.238,19.8088 191.334,16.647 z" id="boundary" inkscape:connector-curvature="0" />
	<path style="fill:none;stroke:red;stroke-width:1px;stroke-linecap:butt;stroke-linejoin:miter;stroke-opacity:1" d="M 191.334,16.647 183.429,14.2757 z" id="boundary" inkscape:connector-curvature="0" />
	<path style="fill:none;stroke:red;stroke-width:1px;stroke-linecap:butt;stroke-linejoin:miter;stroke-opacity:1" d="M 719.347,620.542 713.023,615.799 z" id="boundary" inkscape:connector-curvature="0" />
	<path style="fill:none;stroke:red;stroke-width:1px;stroke-linecap:butt;stroke-linejoin:miter;stroke-opacity:1" d="M 132.051,281.444 139.165,285.396 z" id="boundary" inkscape:connector-curvature="0" />
	<path style="fill:none;stroke:red;stroke-width:1px;stroke-linecap:butt;stroke-linejoin:miter;stroke-opacity:1" d="M 713.023,615.799 706.7,611.057 z" id="boundary" inkscape:connector-curvature="0" />
	<path style="fill:none;stroke:red;stroke-width:1px;stroke-linecap:butt;stroke-linejoin:miter;stroke-opacity:1" d="M 207.143,22.9705 199.238,19.8088 z" id="boundary" inkscape:connector-curvature="0" />
	<path style="fill:none;stroke:red;stroke-width:1px;stroke-linecap:butt;stroke-linejoin:miter;stroke-opacity:1" d="M 222.161,30.0845 215.047,26.1323 z" id="boundary" inkscape:connector-curvature="0" />
	<path style="fill:none;stroke:red;stroke-width:1px;stroke-linecap:butt;stroke-linejoin:miter;stroke-opacity:1" d="M 215.047,26.1323 207.143,22.9705 z" id="boundary" inkscape:connector-curvature="0" />
	<path style="fill:none;stroke:red;stroke-width:1px;stroke-linecap:butt;stroke-linejoin:miter;stroke-opacity:1" d="M 700.376,605.524 706.7,611.057 z" id="boundary" inkscape:connector-curvature="0" />
	<path style="fill:none;stroke:red;stroke-width:1px;stroke-linecap:butt;stroke-linejoin:miter;stroke-opacity:1" d="M 700.376,605.524 694.053,600.781 z" id="boundary" inkscape:connector-curvature="0" />
	<path style="fill:none;stroke:red;stroke-width:1px;stroke-linecap:butt;stroke-linejoin:miter;stroke-opacity:1" d="M 229.275,34.0367 222.161,30.0845 z" id="boundary" inkscape:connector-curvature="0" />
	<path style="fill:none;stroke:red;stroke-width:1px;stroke-linecap:butt;stroke-linejoin:miter;stroke-opacity:1" d="M 694.053,600.781 687.729,596.038 z" id="boundary" inkscape:connector-curvature="0" />
	<path style="fill:none;stroke:red;stroke-width:1px;stroke-linecap:butt;stroke-linejoin:miter;stroke-opacity:1" d="M 236.389,37.9888 229.275,34.0367 z" id="boundary" inkscape:connector-curvature="0" />
	<path style="fill:none;stroke:red;stroke-width:1px;stroke-linecap:butt;stroke-linejoin:miter;stroke-opacity:1" d="M 681.406,591.296 687.729,596.038 z" id="boundary" inkscape:connector-curvature="0" />
	<path style="fill:none;stroke:red;stroke-width:1px;stroke-linecap:butt;stroke-linejoin:miter;stroke-opacity:1" d="M 681.406,591.296 675.082,586.553 z" id="boundary" inkscape:connector-curvature="0" />
	<path style="fill:none;stroke:red;stroke-width:1px;stroke-linecap:butt;stroke-linejoin:miter;stroke-opacity:1" d="M 236.389,37.9888 243.503,41.941 z" id="boundary" inkscape:connector-curvature="0" />
	<path style="fill:none;stroke:red;stroke-width:1px;stroke-linecap:butt;stroke-linejoin:miter;stroke-opacity:1" d="M 243.503,41.941 249.826,46.6837 z" id="boundary" inkscape:connector-curvature="0" />
	<path style="fill:none;stroke:red;stroke-width:1px;stroke-linecap:butt;stroke-linejoin:miter;stroke-opacity:1" d="M 268.006,340.727 260.102,339.146 z" id="boundary" inkscape:connector-curvature="0" />
	<path style="fill:none;stroke:red;stroke-width:1px;stroke-linecap:butt;stroke-linejoin:miter;stroke-opacity:1" d="M 181.849,309.109 188.963,313.061 z" id="boundary" inkscape:connector-curvature="0" />
	<path style="fill:none;stroke:red;stroke-width:1px;stroke-linecap:butt;stroke-linejoin:miter;stroke-opacity:1" d="M 188.963,313.061 196.867,316.223 z" id="boundary" inkscape:connector-curvature="0" />
	<path style="fill:none;stroke:red;stroke-width:1px;stroke-linecap:butt;stroke-linejoin:miter;stroke-opacity:1" d="M 504.347,451.388 509.88,457.712 z" id="boundary" inkscape:connector-curvature="0" />
	<path style="fill:none;stroke:red;stroke-width:1px;stroke-linecap:butt;stroke-linejoin:miter;stroke-opacity:1" d="M 504.347,451.388 498.024,446.645 z" id="boundary" inkscape:connector-curvature="0" />
	<path style="fill:none;stroke:red;stroke-width:1px;stroke-linecap:butt;stroke-linejoin:miter;stroke-opacity:1" d="M 256.94,50.6359 263.264,56.1689 z" id="boundary" inkscape:connector-curvature="0" />
	<path style="fill:none;stroke:red;stroke-width:1px;stroke-linecap:butt;stroke-linejoin:miter;stroke-opacity:1" d="M 256.94,50.6359 249.826,46.6837 z" id="boundary" inkscape:connector-curvature="0" />
	<path style="fill:none;stroke:red;stroke-width:1px;stroke-linecap:butt;stroke-linejoin:miter;stroke-opacity:1" d="M 498.024,446.645 491.7,441.903 z" id="boundary" inkscape:connector-curvature="0" />
	<path style="fill:none;stroke:red;stroke-width:1px;stroke-linecap:butt;stroke-linejoin:miter;stroke-opacity:1" d="M 263.264,56.1689 269.587,60.9116 z" id="boundary" inkscape:connector-curvature="0" />
	<path style="fill:none;stroke:red;stroke-width:1px;stroke-linecap:butt;stroke-linejoin:miter;stroke-opacity:1" d="M 269.587,60.9116 275.911,66.4446 z" id="boundary" inkscape:connector-curvature="0" />
	<path style="fill:none;stroke:red;stroke-width:1px;stroke-linecap:butt;stroke-linejoin:miter;stroke-opacity:1" d="M 282.234,71.9777 275.911,66.4446 z" id="boundary" inkscape:connector-curvature="0" />
	<path style="fill:none;stroke:red;stroke-width:1px;stroke-linecap:butt;stroke-linejoin:miter;stroke-opacity:1" d="M 294.091,83.8343 288.558,77.5108 z" id="boundary" inkscape:connector-curvature="0" />
	<path style="fill:none;stroke:red;stroke-width:1px;stroke-linecap:butt;stroke-linejoin:miter;stroke-opacity:1" d="M 288.558,77.5108 282.234,71.9777 z" id="boundary" inkscape:connector-curvature="0" />
	<path style="fill:none;stroke:red;stroke-width:1px;stroke-linecap:butt;stroke-linejoin:miter;stroke-opacity:1" d="M 485.377,437.16 491.7,441.903 z" id="boundary" inkscape:connector-curvature="0" />
	<path style="fill:none;stroke:red;stroke-width:1px;stroke-linecap:butt;stroke-linejoin:miter;stroke-opacity:1" d="M 299.624,90.1578 294.091,83.8343 z" id="boundary" inkscape:connector-curvature="0" />
	<path style="fill:none;stroke:red;stroke-width:1px;stroke-linecap:butt;stroke-linejoin:miter;stroke-opacity:1" d="M 236.389,331.241 228.484,328.87 z" id="boundary" inkscape:connector-curvature="0" />
	<path style="fill:none;stroke:red;stroke-width:1px;stroke-linecap:butt;stroke-linejoin:miter;stroke-opacity:1" d="M 146.279,289.348 139.165,285.396 z" id="boundary" inkscape:connector-curvature="0" />
	<path style="fill:none;stroke:red;stroke-width:1px;stroke-linecap:butt;stroke-linejoin:miter;stroke-opacity:1" d="M 220.58,325.708 228.484,328.87 z" id="boundary" inkscape:connector-curvature="0" />
	<path style="fill:none;stroke:red;stroke-width:1px;stroke-linecap:butt;stroke-linejoin:miter;stroke-opacity:1" d="M 244.293,332.822 252.198,335.984 z" id="boundary" inkscape:connector-curvature="0" />
	<path style="fill:none;stroke:red;stroke-width:1px;stroke-linecap:butt;stroke-linejoin:miter;stroke-opacity:1" d="M 244.293,332.822 236.389,331.241 z" id="boundary" inkscape:connector-curvature="0" />
	<path style="fill:none;stroke:red;stroke-width:1px;stroke-linecap:butt;stroke-linejoin:miter;stroke-opacity:1" d="M 252.198,335.984 260.102,339.146 z" id="boundary" inkscape:connector-curvature="0" />
	<path style="fill:none;stroke:red;stroke-width:1px;stroke-linecap:butt;stroke-linejoin:miter;stroke-opacity:1" d="M 305.947,95.6908 310.69,102.014 z" id="boundary" inkscape:connector-curvature="0" />
	<path style="fill:none;stroke:red;stroke-width:1px;stroke-linecap:butt;stroke-linejoin:miter;stroke-opacity:1" d="M 305.947,95.6908 299.624,90.1578 z" id="boundary" inkscape:connector-curvature="0" />
	<path style="fill:none;stroke:red;stroke-width:1px;stroke-linecap:butt;stroke-linejoin:miter;stroke-opacity:1" d="M 453.759,412.657 460.083,417.399 z" id="boundary" inkscape:connector-curvature="0" />
	<path style="fill:none;stroke:red;stroke-width:1px;stroke-linecap:butt;stroke-linejoin:miter;stroke-opacity:1" d="M 153.393,293.3 160.507,297.253 z" id="boundary" inkscape:connector-curvature="0" />
	<path style="fill:none;stroke:red;stroke-width:1px;stroke-linecap:butt;stroke-linejoin:miter;stroke-opacity:1" d="M 167.621,301.205 160.507,297.253 z" id="boundary" inkscape:connector-curvature="0" />
	<path style="fill:none;stroke:red;stroke-width:1px;stroke-linecap:butt;stroke-linejoin:miter;stroke-opacity:1" d="M 434.789,398.429 441.112,403.171 z" id="boundary" inkscape:connector-curvature="0" />
	<path style="fill:none;stroke:red;stroke-width:1px;stroke-linecap:butt;stroke-linejoin:miter;stroke-opacity:1" d="M 317.014,107.547 321.756,113.871 z" id="boundary" inkscape:connector-curvature="0" />
	<path style="fill:none;stroke:red;stroke-width:1px;stroke-linecap:butt;stroke-linejoin:miter;stroke-opacity:1" d="M 317.014,107.547 310.69,102.014 z" id="boundary" inkscape:connector-curvature="0" />
	<path style="fill:none;stroke:red;stroke-width:1px;stroke-linecap:butt;stroke-linejoin:miter;stroke-opacity:1" d="M 275.911,342.308 268.006,340.727 z" id="boundary" inkscape:connector-curvature="0" />
	<path style="fill:none;stroke:red;stroke-width:1px;stroke-linecap:butt;stroke-linejoin:miter;stroke-opacity:1" d="M 321.756,113.871 326.499,120.194 z" id="boundary" inkscape:connector-curvature="0" />
	<path style="fill:none;stroke:red;stroke-width:1px;stroke-linecap:butt;stroke-linejoin:miter;stroke-opacity:1" d="M 181.849,309.109 174.735,305.157 z" id="boundary" inkscape:connector-curvature="0" />
	<path style="fill:none;stroke:red;stroke-width:1px;stroke-linecap:butt;stroke-linejoin:miter;stroke-opacity:1" d="M 283.815,343.888 275.911,342.308 z" id="boundary" inkscape:connector-curvature="0" />
	<path style="fill:none;stroke:red;stroke-width:1px;stroke-linecap:butt;stroke-linejoin:miter;stroke-opacity:1" d="M 174.735,305.157 167.621,301.205 z" id="boundary" inkscape:connector-curvature="0" />
	<path style="fill:none;stroke:red;stroke-width:1px;stroke-linecap:butt;stroke-linejoin:miter;stroke-opacity:1" d="M 331.241,126.518 326.499,120.194 z" id="boundary" inkscape:connector-curvature="0" />
	<path style="fill:none;stroke:red;stroke-width:1px;stroke-linecap:butt;stroke-linejoin:miter;stroke-opacity:1" d="M 291.72,345.469 299.624,347.841 z" id="boundary" inkscape:connector-curvature="0" />
	<path style="fill:none;stroke:red;stroke-width:1px;stroke-linecap:butt;stroke-linejoin:miter;stroke-opacity:1" d="M 291.72,345.469 283.815,343.888 z" id="boundary" inkscape:connector-curvature="0" />
	<path style="fill:none;stroke:red;stroke-width:1px;stroke-linecap:butt;stroke-linejoin:miter;stroke-opacity:1" d="M 331.241,126.518 335.984,132.841 z" id="boundary" inkscape:connector-curvature="0" />
	<path style="fill:none;stroke:red;stroke-width:1px;stroke-linecap:butt;stroke-linejoin:miter;stroke-opacity:1" d="M 422.142,388.153 415.818,383.41 z" id="boundary" inkscape:connector-curvature="0" />
	<path style="fill:none;stroke:red;stroke-width:1px;stroke-linecap:butt;stroke-linejoin:miter;stroke-opacity:1" d="M 415.818,383.41 408.704,379.458 z" id="boundary" inkscape:connector-curvature="0" />
	<path style="fill:none;stroke:red;stroke-width:1px;stroke-linecap:butt;stroke-linejoin:miter;stroke-opacity:1" d="M 335.984,132.841 340.727,139.165 z" id="boundary" inkscape:connector-curvature="0" />
	<path style="fill:none;stroke:red;stroke-width:1px;stroke-linecap:butt;stroke-linejoin:miter;stroke-opacity:1" d="M 801.552,686.148 807.876,690.891 z" id="boundary" inkscape:connector-curvature="0" />
	<path style="fill:none;stroke:red;stroke-width:1px;stroke-linecap:butt;stroke-linejoin:miter;stroke-opacity:1" d="M 204.771,319.385 196.867,316.223 z" id="boundary" inkscape:connector-curvature="0" />
	<path style="fill:none;stroke:red;stroke-width:1px;stroke-linecap:butt;stroke-linejoin:miter;stroke-opacity:1" d="M 345.469,145.488 349.422,152.602 z" id="boundary" inkscape:connector-curvature="0" />
	<path style="fill:none;stroke:red;stroke-width:1px;stroke-linecap:butt;stroke-linejoin:miter;stroke-opacity:1" d="M 345.469,145.488 340.727,139.165 z" id="boundary" inkscape:connector-curvature="0" />
	<path style="fill:none;stroke:red;stroke-width:1px;stroke-linecap:butt;stroke-linejoin:miter;stroke-opacity:1" d="M 307.528,349.422 299.624,347.841 z" id="boundary" inkscape:connector-curvature="0" />
	<path style="fill:none;stroke:red;stroke-width:1px;stroke-linecap:butt;stroke-linejoin:miter;stroke-opacity:1" d="M 384.991,216.628 387.363,224.532 z" id="boundary" inkscape:connector-curvature="0" />
	<path style="fill:none;stroke:red;stroke-width:1px;stroke-linecap:butt;stroke-linejoin:miter;stroke-opacity:1" d="M 384.991,216.628 381.039,209.514 z" id="boundary" inkscape:connector-curvature="0" />
	<path style="fill:none;stroke:red;stroke-width:1px;stroke-linecap:butt;stroke-linejoin:miter;stroke-opacity:1" d="M 315.433,351.002 323.337,353.374 z" id="boundary" inkscape:connector-curvature="0" />
	<path style="fill:none;stroke:red;stroke-width:1px;stroke-linecap:butt;stroke-linejoin:miter;stroke-opacity:1" d="M 315.433,351.002 307.528,349.422 z" id="boundary" inkscape:connector-curvature="0" />
	<path style="fill:none;stroke:red;stroke-width:1px;stroke-linecap:butt;stroke-linejoin:miter;stroke-opacity:1" d="M 349.422,152.602 353.374,159.716 z" id="boundary" inkscape:connector-curvature="0" />
	<path style="fill:none;stroke:red;stroke-width:1px;stroke-linecap:butt;stroke-linejoin:miter;stroke-opacity:1" d="M 845.817,720.137 839.493,715.394 z" id="boundary" inkscape:connector-curvature="0" />
	<path style="fill:none;stroke:red;stroke-width:1px;stroke-linecap:butt;stroke-linejoin:miter;stroke-opacity:1" d="M 212.676,322.547 204.771,319.385 z" id="boundary" inkscape:connector-curvature="0" />
	<path style="fill:none;stroke:red;stroke-width:1px;stroke-linecap:butt;stroke-linejoin:miter;stroke-opacity:1" d="M 401.59,375.506 394.476,371.554 z" id="boundary" inkscape:connector-curvature="0" />
	<path style="fill:none;stroke:red;stroke-width:1px;stroke-linecap:butt;stroke-linejoin:miter;stroke-opacity:1" d="M 220.58,325.708 212.676,322.547 z" id="boundary" inkscape:connector-curvature="0" />
	<path style="fill:none;stroke:red;stroke-width:1px;stroke-linecap:butt;stroke-linejoin:miter;stroke-opacity:1" d="M 592.086,520.947 598.41,526.48 z" id="boundary" inkscape:connector-curvature="0" />
	<path style="fill:none;stroke:red;stroke-width:1px;stroke-linecap:butt;stroke-linejoin:miter;stroke-opacity:1" d="M 592.086,520.947 585.763,516.204 z" id="boundary" inkscape:connector-curvature="0" />
	<path style="fill:none;stroke:red;stroke-width:1px;stroke-linecap:butt;stroke-linejoin:miter;stroke-opacity:1" d="M 362.069,173.154 358.116,166.04 z" id="boundary" inkscape:connector-curvature="0" />
	<path style="fill:none;stroke:red;stroke-width:1px;stroke-linecap:butt;stroke-linejoin:miter;stroke-opacity:1" d="M 358.116,166.04 353.374,159.716 z" id="boundary" inkscape:connector-curvature="0" />
	<path style="fill:none;stroke:red;stroke-width:1px;stroke-linecap:butt;stroke-linejoin:miter;stroke-opacity:1" d="M 331.241,354.164 323.337,353.374 z" id="boundary" inkscape:connector-curvature="0" />
	<path style="fill:none;stroke:red;stroke-width:1px;stroke-linecap:butt;stroke-linejoin:miter;stroke-opacity:1" d="M 366.021,180.268 362.069,173.154 z" id="boundary" inkscape:connector-curvature="0" />
	<path style="fill:none;stroke:red;stroke-width:1px;stroke-linecap:butt;stroke-linejoin:miter;stroke-opacity:1" d="M 339.146,354.955 347.05,358.116 z" id="boundary" inkscape:connector-curvature="0" />
	<path style="fill:none;stroke:red;stroke-width:1px;stroke-linecap:butt;stroke-linejoin:miter;stroke-opacity:1" d="M 339.146,354.955 331.241,354.164 z" id="boundary" inkscape:connector-curvature="0" />
	<path style="fill:none;stroke:red;stroke-width:1px;stroke-linecap:butt;stroke-linejoin:miter;stroke-opacity:1" d="M 369.973,187.382 366.021,180.268 z" id="boundary" inkscape:connector-curvature="0" />
	<path style="fill:none;stroke:red;stroke-width:1px;stroke-linecap:butt;stroke-linejoin:miter;stroke-opacity:1" d="M 373.925,194.496 377.087,202.4 z" id="boundary" inkscape:connector-curvature="0" />
	<path style="fill:none;stroke:red;stroke-width:1px;stroke-linecap:butt;stroke-linejoin:miter;stroke-opacity:1" d="M 373.925,194.496 369.973,187.382 z" id="boundary" inkscape:connector-curvature="0" />
	<path style="fill:none;stroke:red;stroke-width:1px;stroke-linecap:butt;stroke-linejoin:miter;stroke-opacity:1" d="M 347.05,358.116 354.955,359.697 z" id="boundary" inkscape:connector-curvature="0" />
	<path style="fill:none;stroke:red;stroke-width:1px;stroke-linecap:butt;stroke-linejoin:miter;stroke-opacity:1" d="M 370.763,363.649 378.668,366.811 z" id="boundary" inkscape:connector-curvature="0" />
	<path style="fill:none;stroke:red;stroke-width:1px;stroke-linecap:butt;stroke-linejoin:miter;stroke-opacity:1" d="M 523.318,466.406 528.851,472.73 z" id="boundary" inkscape:connector-curvature="0" />
	<path style="fill:none;stroke:red;stroke-width:1px;stroke-linecap:butt;stroke-linejoin:miter;stroke-opacity:1" d="M 523.318,466.406 516.204,462.454 z" id="boundary" inkscape:connector-curvature="0" />
	<path style="fill:none;stroke:red;stroke-width:1px;stroke-linecap:butt;stroke-linejoin:miter;stroke-opacity:1" d="M 381.039,209.514 377.087,202.4 z" id="boundary" inkscape:connector-curvature="0" />
	<path style="fill:none;stroke:red;stroke-width:1px;stroke-linecap:butt;stroke-linejoin:miter;stroke-opacity:1" d="M 362.859,361.278 370.763,363.649 z" id="boundary" inkscape:connector-curvature="0" />
	<path style="fill:none;stroke:red;stroke-width:1px;stroke-linecap:butt;stroke-linejoin:miter;stroke-opacity:1" d="M 362.859,361.278 354.955,359.697 z" id="boundary" inkscape:connector-curvature="0" />
	<path style="fill:none;stroke:red;stroke-width:1px;stroke-linecap:butt;stroke-linejoin:miter;stroke-opacity:1" d="M 408.704,379.458 401.59,375.506 z" id="boundary" inkscape:connector-curvature="0" />
	<path style="fill:none;stroke:red;stroke-width:1px;stroke-linecap:butt;stroke-linejoin:miter;stroke-opacity:1" d="M 391.315,231.646 387.363,224.532 z" id="boundary" inkscape:connector-curvature="0" />
	<path style="fill:none;stroke:red;stroke-width:1px;stroke-linecap:butt;stroke-linejoin:miter;stroke-opacity:1" d="M 428.465,393.686 422.142,388.153 z" id="boundary" inkscape:connector-curvature="0" />
	<path style="fill:none;stroke:red;stroke-width:1px;stroke-linecap:butt;stroke-linejoin:miter;stroke-opacity:1" d="M 391.315,231.646 395.267,238.76 z" id="boundary" inkscape:connector-curvature="0" />
	<path style="fill:none;stroke:red;stroke-width:1px;stroke-linecap:butt;stroke-linejoin:miter;stroke-opacity:1" d="M 395.267,238.76 398.429,246.665 z" id="boundary" inkscape:connector-curvature="0" />
	<path style="fill:none;stroke:red;stroke-width:1px;stroke-linecap:butt;stroke-linejoin:miter;stroke-opacity:1" d="M 466.406,422.142 472.73,426.884 z" id="boundary" inkscape:connector-curvature="0" />
	<path style="fill:none;stroke:red;stroke-width:1px;stroke-linecap:butt;stroke-linejoin:miter;stroke-opacity:1" d="M 472.73,426.884 479.053,432.418 z" id="boundary" inkscape:connector-curvature="0" />
	<path style="fill:none;stroke:red;stroke-width:1px;stroke-linecap:butt;stroke-linejoin:miter;stroke-opacity:1" d="M 386.572,368.392 394.476,371.554 z" id="boundary" inkscape:connector-curvature="0" />
	<path style="fill:none;stroke:red;stroke-width:1px;stroke-linecap:butt;stroke-linejoin:miter;stroke-opacity:1" d="M 386.572,368.392 378.668,366.811 z" id="boundary" inkscape:connector-curvature="0" />
	<path style="fill:none;stroke:red;stroke-width:1px;stroke-linecap:butt;stroke-linejoin:miter;stroke-opacity:1" d="M 402.381,253.778 404.752,261.683 z" id="boundary" inkscape:connector-curvature="0" />
	<path style="fill:none;stroke:red;stroke-width:1px;stroke-linecap:butt;stroke-linejoin:miter;stroke-opacity:1" d="M 402.381,253.778 398.429,246.665 z" id="boundary" inkscape:connector-curvature="0" />
	<path style="fill:none;stroke:red;stroke-width:1px;stroke-linecap:butt;stroke-linejoin:miter;stroke-opacity:1" d="M 422.932,298.833 418.98,291.72 z" id="boundary" inkscape:connector-curvature="0" />
	<path style="fill:none;stroke:red;stroke-width:1px;stroke-linecap:butt;stroke-linejoin:miter;stroke-opacity:1" d="M 408.704,268.797 404.752,261.683 z" id="boundary" inkscape:connector-curvature="0" />
	<path style="fill:none;stroke:red;stroke-width:1px;stroke-linecap:butt;stroke-linejoin:miter;stroke-opacity:1" d="M 411.866,276.701 408.704,268.797 z" id="boundary" inkscape:connector-curvature="0" />
	<path style="fill:none;stroke:red;stroke-width:1px;stroke-linecap:butt;stroke-linejoin:miter;stroke-opacity:1" d="M 415.818,283.815 411.866,276.701 z" id="boundary" inkscape:connector-curvature="0" />
	<path style="fill:none;stroke:red;stroke-width:1px;stroke-linecap:butt;stroke-linejoin:miter;stroke-opacity:1" d="M 428.465,393.686 434.789,398.429 z" id="boundary" inkscape:connector-curvature="0" />
	<path style="fill:none;stroke:red;stroke-width:1px;stroke-linecap:butt;stroke-linejoin:miter;stroke-opacity:1" d="M 418.98,291.72 415.818,283.815 z" id="boundary" inkscape:connector-curvature="0" />
	<path style="fill:none;stroke:red;stroke-width:1px;stroke-linecap:butt;stroke-linejoin:miter;stroke-opacity:1" d="M 426.884,305.947 422.932,298.833 z" id="boundary" inkscape:connector-curvature="0" />
	<path style="fill:none;stroke:red;stroke-width:1px;stroke-linecap:butt;stroke-linejoin:miter;stroke-opacity:1" d="M 426.884,305.947 431.627,312.271 z" id="boundary" inkscape:connector-curvature="0" />
	<path style="fill:none;stroke:red;stroke-width:1px;stroke-linecap:butt;stroke-linejoin:miter;stroke-opacity:1" d="M 441.112,403.171 447.436,407.914 z" id="boundary" inkscape:connector-curvature="0" />
	<path style="fill:none;stroke:red;stroke-width:1px;stroke-linecap:butt;stroke-linejoin:miter;stroke-opacity:1" d="M 435.579,319.385 431.627,312.271 z" id="boundary" inkscape:connector-curvature="0" />
	<path style="fill:none;stroke:red;stroke-width:1px;stroke-linecap:butt;stroke-linejoin:miter;stroke-opacity:1" d="M 447.436,407.914 453.759,412.657 z" id="boundary" inkscape:connector-curvature="0" />
	<path style="fill:none;stroke:red;stroke-width:1px;stroke-linecap:butt;stroke-linejoin:miter;stroke-opacity:1" d="M 441.112,325.708 435.579,319.385 z" id="boundary" inkscape:connector-curvature="0" />
	<path style="fill:none;stroke:red;stroke-width:1px;stroke-linecap:butt;stroke-linejoin:miter;stroke-opacity:1" d="M 441.112,325.708 445.855,332.032 z" id="boundary" inkscape:connector-curvature="0" />
	<path style="fill:none;stroke:red;stroke-width:1px;stroke-linecap:butt;stroke-linejoin:miter;stroke-opacity:1" d="M 466.406,422.142 460.083,417.399 z" id="boundary" inkscape:connector-curvature="0" />
	<path style="fill:none;stroke:red;stroke-width:1px;stroke-linecap:butt;stroke-linejoin:miter;stroke-opacity:1" d="M 445.855,332.032 452.178,336.775 z" id="boundary" inkscape:connector-curvature="0" />
	<path style="fill:none;stroke:red;stroke-width:1px;stroke-linecap:butt;stroke-linejoin:miter;stroke-opacity:1" d="M 452.178,336.775 457.712,343.098 z" id="boundary" inkscape:connector-curvature="0" />
	<path style="fill:none;stroke:red;stroke-width:1px;stroke-linecap:butt;stroke-linejoin:miter;stroke-opacity:1" d="M 464.825,347.05 457.712,343.098 z" id="boundary" inkscape:connector-curvature="0" />
	<path style="fill:none;stroke:red;stroke-width:1px;stroke-linecap:butt;stroke-linejoin:miter;stroke-opacity:1" d="M 464.825,347.05 471.149,352.583 z" id="boundary" inkscape:connector-curvature="0" />
	<path style="fill:none;stroke:red;stroke-width:1px;stroke-linecap:butt;stroke-linejoin:miter;stroke-opacity:1" d="M 479.053,432.418 485.377,437.16 z" id="boundary" inkscape:connector-curvature="0" />
	<path style="fill:none;stroke:red;stroke-width:1px;stroke-linecap:butt;stroke-linejoin:miter;stroke-opacity:1" d="M 477.473,357.326 482.215,363.649 z" id="boundary" inkscape:connector-curvature="0" />
	<path style="fill:none;stroke:red;stroke-width:1px;stroke-linecap:butt;stroke-linejoin:miter;stroke-opacity:1" d="M 477.473,357.326 471.149,352.583 z" id="boundary" inkscape:connector-curvature="0" />
	<path style="fill:none;stroke:red;stroke-width:1px;stroke-linecap:butt;stroke-linejoin:miter;stroke-opacity:1" d="M 509.88,457.712 516.204,462.454 z" id="boundary" inkscape:connector-curvature="0" />
	<path style="fill:none;stroke:red;stroke-width:1px;stroke-linecap:butt;stroke-linejoin:miter;stroke-opacity:1" d="M 489.329,367.602 482.215,363.649 z" id="boundary" inkscape:connector-curvature="0" />
	<path style="fill:none;stroke:red;stroke-width:1px;stroke-linecap:butt;stroke-linejoin:miter;stroke-opacity:1" d="M 489.329,367.602 495.653,373.135 z" id="boundary" inkscape:connector-curvature="0" />
	<path style="fill:none;stroke:red;stroke-width:1px;stroke-linecap:butt;stroke-linejoin:miter;stroke-opacity:1" d="M 528.851,472.73 535.175,477.473 z" id="boundary" inkscape:connector-curvature="0" />
	<path style="fill:none;stroke:red;stroke-width:1px;stroke-linecap:butt;stroke-linejoin:miter;stroke-opacity:1" d="M 501.976,378.668 495.653,373.135 z" id="boundary" inkscape:connector-curvature="0" />
	<path style="fill:none;stroke:red;stroke-width:1px;stroke-linecap:butt;stroke-linejoin:miter;stroke-opacity:1" d="M 535.175,477.473 541.498,482.215 z" id="boundary" inkscape:connector-curvature="0" />
	<path style="fill:none;stroke:red;stroke-width:1px;stroke-linecap:butt;stroke-linejoin:miter;stroke-opacity:1" d="M 508.3,383.41 501.976,378.668 z" id="boundary" inkscape:connector-curvature="0" />
	<path style="fill:none;stroke:red;stroke-width:1px;stroke-linecap:butt;stroke-linejoin:miter;stroke-opacity:1" d="M 541.498,482.215 547.822,486.958 z" id="boundary" inkscape:connector-curvature="0" />
	<path style="fill:none;stroke:red;stroke-width:1px;stroke-linecap:butt;stroke-linejoin:miter;stroke-opacity:1" d="M 515.414,387.363 520.947,393.686 z" id="boundary" inkscape:connector-curvature="0" />
	<path style="fill:none;stroke:red;stroke-width:1px;stroke-linecap:butt;stroke-linejoin:miter;stroke-opacity:1" d="M 515.414,387.363 508.3,383.41 z" id="boundary" inkscape:connector-curvature="0" />
	<path style="fill:none;stroke:red;stroke-width:1px;stroke-linecap:butt;stroke-linejoin:miter;stroke-opacity:1" d="M 547.822,486.958 554.145,491.7 z" id="boundary" inkscape:connector-curvature="0" />
	<path style="fill:none;stroke:red;stroke-width:1px;stroke-linecap:butt;stroke-linejoin:miter;stroke-opacity:1" d="M 554.145,491.7 560.469,496.443 z" id="boundary" inkscape:connector-curvature="0" />
	<path style="fill:none;stroke:red;stroke-width:1px;stroke-linecap:butt;stroke-linejoin:miter;stroke-opacity:1" d="M 527.27,398.429 520.947,393.686 z" id="boundary" inkscape:connector-curvature="0" />
	<path style="fill:none;stroke:red;stroke-width:1px;stroke-linecap:butt;stroke-linejoin:miter;stroke-opacity:1" d="M 560.469,496.443 566.792,501.186 z" id="boundary" inkscape:connector-curvature="0" />
	<path style="fill:none;stroke:red;stroke-width:1px;stroke-linecap:butt;stroke-linejoin:miter;stroke-opacity:1" d="M 533.594,403.171 527.27,398.429 z" id="boundary" inkscape:connector-curvature="0" />
	<path style="fill:none;stroke:red;stroke-width:1px;stroke-linecap:butt;stroke-linejoin:miter;stroke-opacity:1" d="M 539.917,407.914 533.594,403.171 z" id="boundary" inkscape:connector-curvature="0" />
	<path style="fill:none;stroke:red;stroke-width:1px;stroke-linecap:butt;stroke-linejoin:miter;stroke-opacity:1" d="M 539.917,407.914 546.241,412.657 z" id="boundary" inkscape:connector-curvature="0" />
	<path style="fill:none;stroke:red;stroke-width:1px;stroke-linecap:butt;stroke-linejoin:miter;stroke-opacity:1" d="M 573.116,505.928 579.439,511.461 z" id="boundary" inkscape:connector-curvature="0" />
	<path style="fill:none;stroke:red;stroke-width:1px;stroke-linecap:butt;stroke-linejoin:miter;stroke-opacity:1" d="M 573.116,505.928 566.792,501.186 z" id="boundary" inkscape:connector-curvature="0" />
	<path style="fill:none;stroke:red;stroke-width:1px;stroke-linecap:butt;stroke-linejoin:miter;stroke-opacity:1" d="M 552.564,417.399 546.241,412.657 z" id="boundary" inkscape:connector-curvature="0" />
	<path style="fill:none;stroke:red;stroke-width:1px;stroke-linecap:butt;stroke-linejoin:miter;stroke-opacity:1" d="M 585.763,516.204 579.439,511.461 z" id="boundary" inkscape:connector-curvature="0" />
	<path style="fill:none;stroke:red;stroke-width:1px;stroke-linecap:butt;stroke-linejoin:miter;stroke-opacity:1" d="M 558.888,422.142 552.564,417.399 z" id="boundary" inkscape:connector-curvature="0" />
	<path style="fill:none;stroke:red;stroke-width:1px;stroke-linecap:butt;stroke-linejoin:miter;stroke-opacity:1" d="M 558.888,422.142 565.211,426.884 z" id="boundary" inkscape:connector-curvature="0" />
	<path style="fill:none;stroke:red;stroke-width:1px;stroke-linecap:butt;stroke-linejoin:miter;stroke-opacity:1" d="M 565.211,426.884 571.535,432.418 z" id="boundary" inkscape:connector-curvature="0" />
	<path style="fill:none;stroke:red;stroke-width:1px;stroke-linecap:butt;stroke-linejoin:miter;stroke-opacity:1" d="M 611.847,535.965 618.171,541.498 z" id="boundary" inkscape:connector-curvature="0" />
	<path style="fill:none;stroke:red;stroke-width:1px;stroke-linecap:butt;stroke-linejoin:miter;stroke-opacity:1" d="M 577.858,437.951 571.535,432.418 z" id="boundary" inkscape:connector-curvature="0" />
	<path style="fill:none;stroke:red;stroke-width:1px;stroke-linecap:butt;stroke-linejoin:miter;stroke-opacity:1" d="M 584.972,441.903 577.858,437.951 z" id="boundary" inkscape:connector-curvature="0" />
	<path style="fill:none;stroke:red;stroke-width:1px;stroke-linecap:butt;stroke-linejoin:miter;stroke-opacity:1" d="M 624.494,546.241 618.171,541.498 z" id="boundary" inkscape:connector-curvature="0" />
	<path style="fill:none;stroke:red;stroke-width:1px;stroke-linecap:butt;stroke-linejoin:miter;stroke-opacity:1" d="M 591.296,447.436 584.972,441.903 z" id="boundary" inkscape:connector-curvature="0" />
	<path style="fill:none;stroke:red;stroke-width:1px;stroke-linecap:butt;stroke-linejoin:miter;stroke-opacity:1" d="M 630.818,550.983 637.141,556.516 z" id="boundary" inkscape:connector-curvature="0" />
	<path style="fill:none;stroke:red;stroke-width:1px;stroke-linecap:butt;stroke-linejoin:miter;stroke-opacity:1" d="M 630.818,550.983 624.494,546.241 z" id="boundary" inkscape:connector-curvature="0" />
	<path style="fill:none;stroke:red;stroke-width:1px;stroke-linecap:butt;stroke-linejoin:miter;stroke-opacity:1" d="M 597.619,452.969 591.296,447.436 z" id="boundary" inkscape:connector-curvature="0" />
	<path style="fill:none;stroke:red;stroke-width:1px;stroke-linecap:butt;stroke-linejoin:miter;stroke-opacity:1" d="M 603.943,457.712 597.619,452.969 z" id="boundary" inkscape:connector-curvature="0" />
	<path style="fill:none;stroke:red;stroke-width:1px;stroke-linecap:butt;stroke-linejoin:miter;stroke-opacity:1" d="M 598.41,526.48 605.524,530.432 z" id="boundary" inkscape:connector-curvature="0" />
	<path style="fill:none;stroke:red;stroke-width:1px;stroke-linecap:butt;stroke-linejoin:miter;stroke-opacity:1" d="M 605.524,530.432 611.847,535.965 z" id="boundary" inkscape:connector-curvature="0" />
	<path style="fill:none;stroke:red;stroke-width:1px;stroke-linecap:butt;stroke-linejoin:miter;stroke-opacity:1" d="M 610.266,462.454 603.943,457.712 z" id="boundary" inkscape:connector-curvature="0" />
	<path style="fill:none;stroke:red;stroke-width:1px;stroke-linecap:butt;stroke-linejoin:miter;stroke-opacity:1" d="M 643.465,561.259 649.788,566.002 z" id="boundary" inkscape:connector-curvature="0" />
	<path style="fill:none;stroke:red;stroke-width:1px;stroke-linecap:butt;stroke-linejoin:miter;stroke-opacity:1" d="M 616.59,467.197 610.266,462.454 z" id="boundary" inkscape:connector-curvature="0" />
	<path style="fill:none;stroke:red;stroke-width:1px;stroke-linecap:butt;stroke-linejoin:miter;stroke-opacity:1" d="M 643.465,561.259 637.141,556.516 z" id="boundary" inkscape:connector-curvature="0" />
	<path style="fill:none;stroke:red;stroke-width:1px;stroke-linecap:butt;stroke-linejoin:miter;stroke-opacity:1" d="M 622.913,472.73 616.59,467.197 z" id="boundary" inkscape:connector-curvature="0" />
	<path style="fill:none;stroke:red;stroke-width:1px;stroke-linecap:butt;stroke-linejoin:miter;stroke-opacity:1" d="M 668.759,581.02 675.082,586.553 z" id="boundary" inkscape:connector-curvature="0" />
	<path style="fill:none;stroke:red;stroke-width:1px;stroke-linecap:butt;stroke-linejoin:miter;stroke-opacity:1" d="M 629.237,477.473 622.913,472.73 z" id="boundary" inkscape:connector-curvature="0" />
	<path style="fill:none;stroke:red;stroke-width:1px;stroke-linecap:butt;stroke-linejoin:miter;stroke-opacity:1" d="M 656.112,570.744 649.788,566.002 z" id="boundary" inkscape:connector-curvature="0" />
	<path style="fill:none;stroke:red;stroke-width:1px;stroke-linecap:butt;stroke-linejoin:miter;stroke-opacity:1" d="M 635.56,482.215 629.237,477.473 z" id="boundary" inkscape:connector-curvature="0" />
	<path style="fill:none;stroke:red;stroke-width:1px;stroke-linecap:butt;stroke-linejoin:miter;stroke-opacity:1" d="M 641.884,486.958 635.56,482.215 z" id="boundary" inkscape:connector-curvature="0" />
	<path style="fill:none;stroke:red;stroke-width:1px;stroke-linecap:butt;stroke-linejoin:miter;stroke-opacity:1" d="M 656.112,570.744 662.435,575.487 z" id="boundary" inkscape:connector-curvature="0" />
	<path style="fill:none;stroke:red;stroke-width:1px;stroke-linecap:butt;stroke-linejoin:miter;stroke-opacity:1" d="M 662.435,575.487 668.759,581.02 z" id="boundary" inkscape:connector-curvature="0" />
	<path style="fill:none;stroke:red;stroke-width:1px;stroke-linecap:butt;stroke-linejoin:miter;stroke-opacity:1" d="M 648.207,491.7 641.884,486.958 z" id="boundary" inkscape:connector-curvature="0" />
	<path style="fill:none;stroke:red;stroke-width:1px;stroke-linecap:butt;stroke-linejoin:miter;stroke-opacity:1" d="M 648.207,491.7 654.531,497.233 z" id="boundary" inkscape:connector-curvature="0" />
	<path style="fill:none;stroke:red;stroke-width:1px;stroke-linecap:butt;stroke-linejoin:miter;stroke-opacity:1" d="M 660.854,501.976 654.531,497.233 z" id="boundary" inkscape:connector-curvature="0" />
	<path style="fill:none;stroke:red;stroke-width:1px;stroke-linecap:butt;stroke-linejoin:miter;stroke-opacity:1" d="M 667.178,506.719 660.854,501.976 z" id="boundary" inkscape:connector-curvature="0" />
	<path style="fill:none;stroke:red;stroke-width:1px;stroke-linecap:butt;stroke-linejoin:miter;stroke-opacity:1" d="M 738.317,635.56 744.641,641.093 z" id="boundary" inkscape:connector-curvature="0" />
	<path style="fill:none;stroke:red;stroke-width:1px;stroke-linecap:butt;stroke-linejoin:miter;stroke-opacity:1" d="M 738.317,635.56 731.994,630.818 z" id="boundary" inkscape:connector-curvature="0" />
	<path style="fill:none;stroke:red;stroke-width:1px;stroke-linecap:butt;stroke-linejoin:miter;stroke-opacity:1" d="M 673.501,511.461 667.178,506.719 z" id="boundary" inkscape:connector-curvature="0" />
	<path style="fill:none;stroke:red;stroke-width:1px;stroke-linecap:butt;stroke-linejoin:miter;stroke-opacity:1" d="M 679.825,516.204 673.501,511.461 z" id="boundary" inkscape:connector-curvature="0" />
	<path style="fill:none;stroke:red;stroke-width:1px;stroke-linecap:butt;stroke-linejoin:miter;stroke-opacity:1" d="M 725.67,625.284 731.994,630.818 z" id="boundary" inkscape:connector-curvature="0" />
	<path style="fill:none;stroke:red;stroke-width:1px;stroke-linecap:butt;stroke-linejoin:miter;stroke-opacity:1" d="M 725.67,625.284 719.347,620.542 z" id="boundary" inkscape:connector-curvature="0" />
	<path style="fill:none;stroke:red;stroke-width:1px;stroke-linecap:butt;stroke-linejoin:miter;stroke-opacity:1" d="M 686.148,520.947 679.825,516.204 z" id="boundary" inkscape:connector-curvature="0" />
	<path style="fill:none;stroke:red;stroke-width:1px;stroke-linecap:butt;stroke-linejoin:miter;stroke-opacity:1" d="M 692.472,525.689 686.148,520.947 z" id="boundary" inkscape:connector-curvature="0" />
	<path style="fill:none;stroke:red;stroke-width:1px;stroke-linecap:butt;stroke-linejoin:miter;stroke-opacity:1" d="M 692.472,525.689 698.005,532.013 z" id="boundary" inkscape:connector-curvature="0" />
	<path style="fill:none;stroke:red;stroke-width:1px;stroke-linecap:butt;stroke-linejoin:miter;stroke-opacity:1" d="M 751.755,645.045 744.641,641.093 z" id="boundary" inkscape:connector-curvature="0" />
	<path style="fill:none;stroke:red;stroke-width:1px;stroke-linecap:butt;stroke-linejoin:miter;stroke-opacity:1" d="M 705.119,535.965 698.005,532.013 z" id="boundary" inkscape:connector-curvature="0" />
	<path style="fill:none;stroke:red;stroke-width:1px;stroke-linecap:butt;stroke-linejoin:miter;stroke-opacity:1" d="M 705.119,535.965 711.442,540.708 z" id="boundary" inkscape:connector-curvature="0" />
	<path style="fill:none;stroke:red;stroke-width:1px;stroke-linecap:butt;stroke-linejoin:miter;stroke-opacity:1" d="M 776.258,664.806 782.582,670.339 z" id="boundary" inkscape:connector-curvature="0" />
	<path style="fill:none;stroke:red;stroke-width:1px;stroke-linecap:butt;stroke-linejoin:miter;stroke-opacity:1" d="M 711.442,540.708 717.766,546.241 z" id="boundary" inkscape:connector-curvature="0" />
	<path style="fill:none;stroke:red;stroke-width:1px;stroke-linecap:butt;stroke-linejoin:miter;stroke-opacity:1" d="M 782.582,670.339 788.905,675.082 z" id="boundary" inkscape:connector-curvature="0" />
	<path style="fill:none;stroke:red;stroke-width:1px;stroke-linecap:butt;stroke-linejoin:miter;stroke-opacity:1" d="M 788.905,675.082 795.229,680.615 z" id="boundary" inkscape:connector-curvature="0" />
	<path style="fill:none;stroke:red;stroke-width:1px;stroke-linecap:butt;stroke-linejoin:miter;stroke-opacity:1" d="M 724.089,551.774 717.766,546.241 z" id="boundary" inkscape:connector-curvature="0" />
	<path style="fill:none;stroke:red;stroke-width:1px;stroke-linecap:butt;stroke-linejoin:miter;stroke-opacity:1" d="M 795.229,680.615 801.552,686.148 z" id="boundary" inkscape:connector-curvature="0" />
	<path style="fill:none;stroke:red;stroke-width:1px;stroke-linecap:butt;stroke-linejoin:miter;stroke-opacity:1" d="M 730.413,556.516 724.089,551.774 z" id="boundary" inkscape:connector-curvature="0" />
	<path style="fill:none;stroke:red;stroke-width:1px;stroke-linecap:butt;stroke-linejoin:miter;stroke-opacity:1" d="M 736.736,561.259 730.413,556.516 z" id="boundary" inkscape:connector-curvature="0" />
	<path style="fill:none;stroke:red;stroke-width:1px;stroke-linecap:butt;stroke-linejoin:miter;stroke-opacity:1" d="M 814.199,695.633 807.876,690.891 z" id="boundary" inkscape:connector-curvature="0" />
	<path style="fill:none;stroke:red;stroke-width:1px;stroke-linecap:butt;stroke-linejoin:miter;stroke-opacity:1" d="M 743.06,566.002 736.736,561.259 z" id="boundary" inkscape:connector-curvature="0" />
	<path style="fill:none;stroke:red;stroke-width:1px;stroke-linecap:butt;stroke-linejoin:miter;stroke-opacity:1" d="M 749.383,570.744 743.06,566.002 z" id="boundary" inkscape:connector-curvature="0" />
	<path style="fill:none;stroke:red;stroke-width:1px;stroke-linecap:butt;stroke-linejoin:miter;stroke-opacity:1" d="M 826.846,705.119 820.523,700.376 z" id="boundary" inkscape:connector-curvature="0" />
	<path style="fill:none;stroke:red;stroke-width:1px;stroke-linecap:butt;stroke-linejoin:miter;stroke-opacity:1" d="M 755.707,575.487 749.383,570.744 z" id="boundary" inkscape:connector-curvature="0" />
	<path style="fill:none;stroke:red;stroke-width:1px;stroke-linecap:butt;stroke-linejoin:miter;stroke-opacity:1" d="M 751.755,645.045 758.078,649.788 z" id="boundary" inkscape:connector-curvature="0" />
	<path style="fill:none;stroke:red;stroke-width:1px;stroke-linecap:butt;stroke-linejoin:miter;stroke-opacity:1" d="M 758.078,649.788 762.821,656.112 z" id="boundary" inkscape:connector-curvature="0" />
	<path style="fill:none;stroke:red;stroke-width:1px;stroke-linecap:butt;stroke-linejoin:miter;stroke-opacity:1" d="M 762.03,580.229 755.707,575.487 z" id="boundary" inkscape:connector-curvature="0" />
	<path style="fill:none;stroke:red;stroke-width:1px;stroke-linecap:butt;stroke-linejoin:miter;stroke-opacity:1" d="M 762.03,580.229 768.354,584.972 z" id="boundary" inkscape:connector-curvature="0" />
	<path style="fill:none;stroke:red;stroke-width:1px;stroke-linecap:butt;stroke-linejoin:miter;stroke-opacity:1" d="M 833.17,709.861 826.846,705.119 z" id="boundary" inkscape:connector-curvature="0" />
	<path style="fill:none;stroke:red;stroke-width:1px;stroke-linecap:butt;stroke-linejoin:miter;stroke-opacity:1" d="M 768.354,584.972 773.887,591.296 z" id="boundary" inkscape:connector-curvature="0" />
	<path style="fill:none;stroke:red;stroke-width:1px;stroke-linecap:butt;stroke-linejoin:miter;stroke-opacity:1" d="M 773.887,591.296 780.21,596.038 z" id="boundary" inkscape:connector-curvature="0" />
	<path style="fill:none;stroke:red;stroke-width:1px;stroke-linecap:butt;stroke-linejoin:miter;stroke-opacity:1" d="M 769.935,660.064 776.258,664.806 z" id="boundary" inkscape:connector-curvature="0" />
	<path style="fill:none;stroke:red;stroke-width:1px;stroke-linecap:butt;stroke-linejoin:miter;stroke-opacity:1" d="M 769.935,660.064 762.821,656.112 z" id="boundary" inkscape:connector-curvature="0" />
	<path style="fill:none;stroke:red;stroke-width:1px;stroke-linecap:butt;stroke-linejoin:miter;stroke-opacity:1" d="M 862.416,747.012 866.368,754.126 z" id="boundary" inkscape:connector-curvature="0" />
	<path style="fill:none;stroke:red;stroke-width:1px;stroke-linecap:butt;stroke-linejoin:miter;stroke-opacity:1" d="M 833.17,709.861 839.493,715.394 z" id="boundary" inkscape:connector-curvature="0" />
	<path style="fill:none;stroke:red;stroke-width:1px;stroke-linecap:butt;stroke-linejoin:miter;stroke-opacity:1" d="M 787.324,599.99 780.21,596.038 z" id="boundary" inkscape:connector-curvature="0" />
	<path style="fill:none;stroke:red;stroke-width:1px;stroke-linecap:butt;stroke-linejoin:miter;stroke-opacity:1" d="M 793.648,604.733 787.324,599.99 z" id="boundary" inkscape:connector-curvature="0" />
	<path style="fill:none;stroke:red;stroke-width:1px;stroke-linecap:butt;stroke-linejoin:miter;stroke-opacity:1" d="M 845.817,720.137 852.14,725.67 z" id="boundary" inkscape:connector-curvature="0" />
	<path style="fill:none;stroke:red;stroke-width:1px;stroke-linecap:butt;stroke-linejoin:miter;stroke-opacity:1" d="M 852.14,725.67 856.883,731.994 z" id="boundary" inkscape:connector-curvature="0" />
	<path style="fill:none;stroke:red;stroke-width:1px;stroke-linecap:butt;stroke-linejoin:miter;stroke-opacity:1" d="M 799.971,610.266 793.648,604.733 z" id="boundary" inkscape:connector-curvature="0" />
	<path style="fill:none;stroke:red;stroke-width:1px;stroke-linecap:butt;stroke-linejoin:miter;stroke-opacity:1" d="M 820.523,700.376 814.199,695.633 z" id="boundary" inkscape:connector-curvature="0" />
	<path style="fill:none;stroke:red;stroke-width:1px;stroke-linecap:butt;stroke-linejoin:miter;stroke-opacity:1" d="M 806.295,615.799 799.971,610.266 z" id="boundary" inkscape:connector-curvature="0" />
	<path style="fill:none;stroke:red;stroke-width:1px;stroke-linecap:butt;stroke-linejoin:miter;stroke-opacity:1" d="M 812.618,620.542 806.295,615.799 z" id="boundary" inkscape:connector-curvature="0" />
	<path style="fill:none;stroke:red;stroke-width:1px;stroke-linecap:butt;stroke-linejoin:miter;stroke-opacity:1" d="M 818.942,625.284 812.618,620.542 z" id="boundary" inkscape:connector-curvature="0" />
	<path style="fill:none;stroke:red;stroke-width:1px;stroke-linecap:butt;stroke-linejoin:miter;stroke-opacity:1" d="M 825.265,630.027 818.942,625.284 z" id="boundary" inkscape:connector-curvature="0" />
	<path style="fill:none;stroke:red;stroke-width:1px;stroke-linecap:butt;stroke-linejoin:miter;stroke-opacity:1" d="M 825.265,630.027 831.589,634.77 z" id="boundary" inkscape:connector-curvature="0" />
	<path style="fill:none;stroke:red;stroke-width:1px;stroke-linecap:butt;stroke-linejoin:miter;stroke-opacity:1" d="M 831.589,634.77 837.912,639.512 z" id="boundary" inkscape:connector-curvature="0" />
	<path style="fill:none;stroke:red;stroke-width:1px;stroke-linecap:butt;stroke-linejoin:miter;stroke-opacity:1" d="M 837.912,639.512 844.236,645.045 z" id="boundary" inkscape:connector-curvature="0" />
	<path style="fill:none;stroke:red;stroke-width:1px;stroke-linecap:butt;stroke-linejoin:miter;stroke-opacity:1" d="M 844.236,645.045 850.559,650.578 z" id="boundary" inkscape:connector-curvature="0" />
	<path style="fill:none;stroke:red;stroke-width:1px;stroke-linecap:butt;stroke-linejoin:miter;stroke-opacity:1" d="M 856.883,655.321 850.559,650.578 z" id="boundary" inkscape:connector-curvature="0" />
	<path style="fill:none;stroke:red;stroke-width:1px;stroke-linecap:butt;stroke-linejoin:miter;stroke-opacity:1" d="M 863.206,660.064 856.883,655.321 z" id="boundary" inkscape:connector-curvature="0" />
	<path style="fill:none;stroke:red;stroke-width:1px;stroke-linecap:butt;stroke-linejoin:miter;stroke-opacity:1" d="M 869.53,664.806 863.206,660.064 z" id="boundary" inkscape:connector-curvature="0" />
	<path style="fill:none;stroke:red;stroke-width:1px;stroke-linecap:butt;stroke-linejoin:miter;stroke-opacity:1" d="M 869.53,664.806 875.853,670.339 z" id="boundary" inkscape:connector-curvature="0" />
	<path style="fill:none;stroke:red;stroke-width:1px;stroke-linecap:butt;stroke-linejoin:miter;stroke-opacity:1" d="M 856.883,731.994 863.997,735.946 z" id="boundary" inkscape:connector-curvature="0" />
	<path style="fill:none;stroke:red;stroke-width:1px;stroke-linecap:butt;stroke-linejoin:miter;stroke-opacity:1" d="M 873.482,758.078 866.368,754.126 z" id="boundary" inkscape:connector-curvature="0" />
	<path style="fill:none;stroke:red;stroke-width:1px;stroke-linecap:butt;stroke-linejoin:miter;stroke-opacity:1" d="M 863.997,735.946 862.416,747.012 z" id="boundary" inkscape:connector-curvature="0" />
	<path style="fill:none;stroke:red;stroke-width:1px;stroke-linecap:butt;stroke-linejoin:miter;stroke-opacity:1" d="M 882.177,675.082 888.5,679.825 z" id="boundary" inkscape:connector-curvature="0" />
	<path style="fill:none;stroke:red;stroke-width:1px;stroke-linecap:butt;stroke-linejoin:miter;stroke-opacity:1" d="M 875.853,670.339 882.177,675.082 z" id="boundary" inkscape:connector-curvature="0" />
	<path style="fill:none;stroke:red;stroke-width:1px;stroke-linecap:butt;stroke-linejoin:miter;stroke-opacity:1" d="M 881.386,754.126 889.291,754.126 z" id="boundary" inkscape:connector-curvature="0" />
	<path style="fill:none;stroke:red;stroke-width:1px;stroke-linecap:butt;stroke-linejoin:miter;stroke-opacity:1" d="M 889.291,754.126 895.614,758.869 z" id="boundary" inkscape:connector-curvature="0" />
	<path style="fill:none;stroke:red;stroke-width:1px;stroke-linecap:butt;stroke-linejoin:miter;stroke-opacity:1" d="M 873.482,758.078 881.386,754.126 z" id="boundary" inkscape:connector-curvature="0" />
	<path style="fill:none;stroke:red;stroke-width:1px;stroke-linecap:butt;stroke-linejoin:miter;stroke-opacity:1" d="M 894.824,684.567 888.5,679.825 z" id="boundary" inkscape:connector-curvature="0" />
	<path style="fill:none;stroke:red;stroke-width:1px;stroke-linecap:butt;stroke-linejoin:miter;stroke-opacity:1" d="M 900.357,765.192 907.471,769.144 z" id="boundary" inkscape:connector-curvature="0" />
	<path style="fill:none;stroke:red;stroke-width:1px;stroke-linecap:butt;stroke-linejoin:miter;stroke-opacity:1" d="M 907.471,769.144 913.794,774.677 z" id="boundary" inkscape:connector-curvature="0" />
	<path style="fill:none;stroke:red;stroke-width:1px;stroke-linecap:butt;stroke-linejoin:miter;stroke-opacity:1" d="M 901.147,690.1 894.824,684.567 z" id="boundary" inkscape:connector-curvature="0" />
	<path style="fill:none;stroke:red;stroke-width:1px;stroke-linecap:butt;stroke-linejoin:miter;stroke-opacity:1" d="M 901.147,690.1 907.471,694.843 z" id="boundary" inkscape:connector-curvature="0" />
	<path style="fill:none;stroke:red;stroke-width:1px;stroke-linecap:butt;stroke-linejoin:miter;stroke-opacity:1" d="M 895.614,758.869 900.357,765.192 z" id="boundary" inkscape:connector-curvature="0" />
	<path style="fill:none;stroke:red;stroke-width:1px;stroke-linecap:butt;stroke-linejoin:miter;stroke-opacity:1" d="M 907.471,694.843 913.794,699.586 z" id="boundary" inkscape:connector-curvature="0" />
	<path style="fill:none;stroke:red;stroke-width:1px;stroke-linecap:butt;stroke-linejoin:miter;stroke-opacity:1" d="M 920.118,704.328 913.794,699.586 z" id="boundary" inkscape:connector-curvature="0" />
	<path style="fill:none;stroke:red;stroke-width:1px;stroke-linecap:butt;stroke-linejoin:miter;stroke-opacity:1" d="M 913.794,774.677 920.908,778.629 z" id="boundary" inkscape:connector-curvature="0" />
	<path style="fill:none;stroke:red;stroke-width:1px;stroke-linecap:butt;stroke-linejoin:miter;stroke-opacity:1" d="M 920.908,778.629 927.232,784.163 z" id="boundary" inkscape:connector-curvature="0" />
	<path style="fill:none;stroke:red;stroke-width:1px;stroke-linecap:butt;stroke-linejoin:miter;stroke-opacity:1" d="M 926.441,709.071 920.118,704.328 z" id="boundary" inkscape:connector-curvature="0" />
	<path style="fill:none;stroke:red;stroke-width:1px;stroke-linecap:butt;stroke-linejoin:miter;stroke-opacity:1" d="M 927.232,784.163 933.555,789.696 z" id="boundary" inkscape:connector-curvature="0" />
	<path style="fill:none;stroke:red;stroke-width:1px;stroke-linecap:butt;stroke-linejoin:miter;stroke-opacity:1" d="M 932.765,713.814 926.441,709.071 z" id="boundary" inkscape:connector-curvature="0" />
	<path style="fill:none;stroke:red;stroke-width:1px;stroke-linecap:butt;stroke-linejoin:miter;stroke-opacity:1" d="M 939.088,719.347 932.765,713.814 z" id="boundary" inkscape:connector-curvature="0" />
	<path style="fill:none;stroke:red;stroke-width:1px;stroke-linecap:butt;stroke-linejoin:miter;stroke-opacity:1" d="M 945.412,724.88 939.088,719.347 z" id="boundary" inkscape:connector-curvature="0" />
	<path style="fill:none;stroke:red;stroke-width:1px;stroke-linecap:butt;stroke-linejoin:miter;stroke-opacity:1" d="M 933.555,789.696 939.879,794.438 z" id="boundary" inkscape:connector-curvature="0" />
	<path style="fill:none;stroke:red;stroke-width:1px;stroke-linecap:butt;stroke-linejoin:miter;stroke-opacity:1" d="M 939.879,794.438 945.412,800.762 z" id="boundary" inkscape:connector-curvature="0" />
	<path style="fill:none;stroke:red;stroke-width:1px;stroke-linecap:butt;stroke-linejoin:miter;stroke-opacity:1" d="M 953.316,728.041 958.059,734.365 z" id="boundary" inkscape:connector-curvature="0" />
	<path style="fill:none;stroke:red;stroke-width:1px;stroke-linecap:butt;stroke-linejoin:miter;stroke-opacity:1" d="M 953.316,728.041 945.412,724.88 z" id="boundary" inkscape:connector-curvature="0" />
	<path style="fill:none;stroke:red;stroke-width:1px;stroke-linecap:butt;stroke-linejoin:miter;stroke-opacity:1" d="M 958.059,734.365 964.382,739.898 z" id="boundary" inkscape:connector-curvature="0" />
	<path style="fill:none;stroke:red;stroke-width:1px;stroke-linecap:butt;stroke-linejoin:miter;stroke-opacity:1" d="M 945.412,800.762 952.526,804.714 z" id="boundary" inkscape:connector-curvature="0" />
	<path style="fill:none;stroke:red;stroke-width:1px;stroke-linecap:butt;stroke-linejoin:miter;stroke-opacity:1" d="M 970.706,744.641 964.382,739.898 z" id="boundary" inkscape:connector-curvature="0" />
	<path style="fill:none;stroke:red;stroke-width:1px;stroke-linecap:butt;stroke-linejoin:miter;stroke-opacity:1" d="M 977.82,748.593 983.353,754.916 z" id="boundary" inkscape:connector-curvature="0" />
	<path style="fill:none;stroke:red;stroke-width:1px;stroke-linecap:butt;stroke-linejoin:miter;stroke-opacity:1" d="M 977.82,748.593 970.706,744.641 z" id="boundary" inkscape:connector-curvature="0" />
	<path style="fill:none;stroke:red;stroke-width:1px;stroke-linecap:butt;stroke-linejoin:miter;stroke-opacity:1" d="M 952.526,804.714 960.43,807.876 z" id="boundary" inkscape:connector-curvature="0" />
	<path style="fill:none;stroke:red;stroke-width:1px;stroke-linecap:butt;stroke-linejoin:miter;stroke-opacity:1" d="M 960.43,807.876 968.335,807.876 z" id="boundary" inkscape:connector-curvature="0" />
	<path style="fill:none;stroke:red;stroke-width:1px;stroke-linecap:butt;stroke-linejoin:miter;stroke-opacity:1" d="M 976.239,805.504 984.143,804.714 z" id="boundary" inkscape:connector-curvature="0" />
	<path style="fill:none;stroke:red;stroke-width:1px;stroke-linecap:butt;stroke-linejoin:miter;stroke-opacity:1" d="M 976.239,805.504 968.335,807.876 z" id="boundary" inkscape:connector-curvature="0" />
	<path style="fill:none;stroke:red;stroke-width:1px;stroke-linecap:butt;stroke-linejoin:miter;stroke-opacity:1" d="M 988.886,761.24 983.353,754.916 z" id="boundary" inkscape:connector-curvature="0" />
	<path style="fill:none;stroke:red;stroke-width:1px;stroke-linecap:butt;stroke-linejoin:miter;stroke-opacity:1" d="M 995.21,775.468 993.629,767.563 z" id="boundary" inkscape:connector-curvature="0" />
	<path style="fill:none;stroke:red;stroke-width:1px;stroke-linecap:butt;stroke-linejoin:miter;stroke-opacity:1" d="M 993.629,767.563 988.886,761.24 z" id="boundary" inkscape:connector-curvature="0" />
	<path style="fill:none;stroke:red;stroke-width:1px;stroke-linecap:butt;stroke-linejoin:miter;stroke-opacity:1" d="M 996,783.372 995.21,775.468 z" id="boundary" inkscape:connector-curvature="0" />
	<path style="fill:none;stroke:red;stroke-width:1px;stroke-linecap:butt;stroke-linejoin:miter;stroke-opacity:1" d="M 996,791.276 996,783.372 z" id="boundary" inkscape:connector-curvature="0" />
	<path style="fill:none;stroke:red;stroke-width:1px;stroke-linecap:butt;stroke-linejoin:miter;stroke-opacity:1" d="M 984.143,804.714 991.257,800.762 z" id="boundary" inkscape:connector-curvature="0" />
	<path style="fill:none;stroke:red;stroke-width:1px;stroke-linecap:butt;stroke-linejoin:miter;stroke-opacity:1" d="M 991.257,800.762 996,791.276 z" id="boundary" inkscape:connector-curvature="0" />
	<circle cx="4" cy="106.757" r="4" fill="#0" id="circle0"/>
	<circle cx="4.79044" cy="81.4629" r="4" fill="#0" id="circle1"/>
	<circle cx="4.79044" cy="89.3673" r="4" fill="#0" id="circle2"/>
	<circle cx="4.79044" cy="97.2717" r="4" fill="#0" id="circle3"/>
	<circle cx="5.58088" cy="114.661" r="4" fill="#0" id="circle4"/>
	<circle cx="6.37131" cy="122.566" r="4" fill="#0" id="circle5"/>
	<circle cx="7.16175" cy="73.5586" r="4" fill="#0" id="circle6"/>
	<circle cx="7.16175" cy="130.47" r="4" fill="#0" id="circle7"/>
	<circle cx="7.95219" cy="138.375" r="4" fill="#0" id="circle8"/>
	<circle cx="9.53307" cy="63.2829" r="4" fill="#0" id="circle9"/>
	<circle cx="10.3235" cy="146.279" r="4" fill="#0" id="circle10"/>
	<circle cx="13.4853" cy="55.3785" r="4" fill="#0" id="circle11"/>
	<circle cx="14.2757" cy="153.393" r="4" fill="#0" id="circle12"/>
	<circle cx="18.2279" cy="47.4741" r="4" fill="#0" id="circle13"/>
	<circle cx="18.2279" cy="160.507" r="4" fill="#0" id="circle14"/>
	<circle cx="21.3896" cy="168.411" r="4" fill="#0" id="circle15"/>
	<circle cx="22.9705" cy="41.1506" r="4" fill="#0" id="circle16"/>
	<circle cx="24.5514" cy="176.316" r="4" fill="#0" id="circle17"/>
	<circle cx="28.5036" cy="183.429" r="4" fill="#0" id="circle18"/>
	<circle cx="29.294" cy="34.8271" r="4" fill="#0" id="circle19"/>
	<circle cx="33.2462" cy="189.753" r="4" fill="#0" id="circle20"/>
	<circle cx="35.6175" cy="28.5036" r="4" fill="#0" id="circle21"/>
	<circle cx="37.1984" cy="196.867" r="4" fill="#0" id="circle22"/>
	<circle cx="41.941" cy="23.761" r="4" fill="#0" id="circle23"/>
	<circle cx="41.941" cy="203.19" r="4" fill="#0" id="circle24"/>
	<circle cx="45.8932" cy="210.304" r="4" fill="#0" id="circle25"/>
	<circle cx="49.055" cy="19.0183" r="4" fill="#0" id="circle26"/>
	<circle cx="52.2167" cy="215.837" r="4" fill="#0" id="circle27"/>
	<circle cx="56.9594" cy="15.8566" r="4" fill="#0" id="circle28"/>
	<circle cx="56.9594" cy="222.161" r="4" fill="#0" id="circle29"/>
	<circle cx="61.702" cy="228.484" r="4" fill="#0" id="circle30"/>
	<circle cx="64.8637" cy="13.4853" r="4" fill="#0" id="circle31"/>
	<circle cx="67.2351" cy="234.808" r="4" fill="#0" id="circle32"/>
	<circle cx="72.7681" cy="11.1139" r="4" fill="#0" id="circle33"/>
	<circle cx="72.7681" cy="241.131" r="4" fill="#0" id="circle34"/>
	<circle cx="79.0916" cy="245.874" r="4" fill="#0" id="circle35"/>
	<circle cx="80.6725" cy="8.74263" r="4" fill="#0" id="circle36"/>
	<circle cx="86.2056" cy="249.826" r="4" fill="#0" id="circle37"/>
	<circle cx="88.5769" cy="7.16175" r="4" fill="#0" id="circle38"/>
	<circle cx="92.5291" cy="254.569" r="4" fill="#0" id="circle39"/>
	<circle cx="96.4813" cy="5.58088" r="4" fill="#0" id="circle40"/>
	<circle cx="98.8526" cy="259.312" r="4" fill="#0" id="circle41"/>
	<circle cx="104.386" cy="4.79044" r="4" fill="#0" id="circle42"/>
	<circle cx="105.176" cy="264.054" r="4" fill="#0" id="circle43"/>
	<circle cx="111.5" cy="268.797" r="4" fill="#0" id="circle44"/>
	<circle cx="112.29" cy="4.79044" r="4" fill="#0" id="circle45"/>
	<circle cx="118.614" cy="272.749" r="4" fill="#0" id="circle46"/>
	<circle cx="120.194" cy="4" r="4" fill="#0" id="circle47"/>
	<circle cx="125.727" cy="276.701" r="4" fill="#0" id="circle48"/>
	<circle cx="128.099" cy="4" r="4" fill="#0" id="circle49"/>
	<circle cx="132.051" cy="281.444" r="4" fill="#0" id="circle50"/>
	<circle cx="136.003" cy="4.79044" r="4" fill="#0" id="circle51"/>
	<circle cx="139.165" cy="285.396" r="4" fill="#0" id="circle52"/>
	<circle cx="143.908" cy="5.58088" r="4" fill="#0" id="circle53"/>
	<circle cx="146.279" cy="289.348" r="4" fill="#0" id="circle54"/>
	<circle cx="151.812" cy="7.16175" r="4" fill="#0" id="circle55"/>
	<circle cx="153.393" cy="293.3" r="4" fill="#0" id="circle56"/>
	<circle cx="159.716" cy="8.74263" r="4" fill="#0" id="circle57"/>
	<circle cx="160.507" cy="297.253" r="4" fill="#0" id="circle58"/>
	<circle cx="167.621" cy="10.3235" r="4" fill="#0" id="circle59"/>
	<circle cx="167.621" cy="301.205" r="4" fill="#0" id="circle60"/>
	<circle cx="174.735" cy="305.157" r="4" fill="#0" id="circle61"/>
	<circle cx="175.525" cy="11.9044" r="4" fill="#0" id="circle62"/>
	<circle cx="181.849" cy="309.109" r="4" fill="#0" id="circle63"/>
	<circle cx="183.429" cy="14.2757" r="4" fill="#0" id="circle64"/>
	<circle cx="188.963" cy="313.061" r="4" fill="#0" id="circle65"/>
	<circle cx="191.334" cy="16.647" r="4" fill="#0" id="circle66"/>
	<circle cx="196.867" cy="316.223" r="4" fill="#0" id="circle67"/>
	<circle cx="199.238" cy="19.8088" r="4" fill="#0" id="circle68"/>
	<circle cx="204.771" cy="319.385" r="4" fill="#0" id="circle69"/>
	<circle cx="207.143" cy="22.9705" r="4" fill="#0" id="circle70"/>
	<circle cx="212.676" cy="322.547" r="4" fill="#0" id="circle71"/>
	<circle cx="215.047" cy="26.1323" r="4" fill="#0" id="circle72"/>
	<circle cx="220.58" cy="325.708" r="4" fill="#0" id="circle73"/>
	<circle cx="222.161" cy="30.0845" r="4" fill="#0" id="circle74"/>
	<circle cx="228.484" cy="328.87" r="4" fill="#0" id="circle75"/>
	<circle cx="229.275" cy="34.0367" r="4" fill="#0" id="circle76"/>
	<circle cx="236.389" cy="37.9888" r="4" fill="#0" id="circle77"/>
	<circle cx="236.389" cy="331.241" r="4" fill="#0" id="circle78"/>
	<circle cx="243.503" cy="41.941" r="4" fill="#0" id="circle79"/>
	<circle cx="244.293" cy="332.822" r="4" fill="#0" id="circle80"/>
	<circle cx="249.826" cy="46.6837" r="4" fill="#0" id="circle81"/>
	<circle cx="252.198" cy="335.984" r="4" fill="#0" id="circle82"/>
	<circle cx="256.94" cy="50.6359" r="4" fill="#0" id="circle83"/>
	<circle cx="260.102" cy="339.146" r="4" fill="#0" id="circle84"/>
	<circle cx="263.264" cy="56.1689" r="4" fill="#0" id="circle85"/>
	<circle cx="268.006" cy="340.727" r="4" fill="#0" id="circle86"/>
	<circle cx="269.587" cy="60.9116" r="4" fill="#0" id="circle87"/>
	<circle cx="275.911" cy="66.4446" r="4" fill="#0" id="circle88"/>
	<circle cx="275.911" cy="342.308" r="4" fill="#0" id="circle89"/>
	<circle cx="282.234" cy="71.9777" r="4" fill="#0" id="circle90"/>
	<circle cx="283.815" cy="343.888" r="4" fill="#0" id="circle91"/>
	<circle cx="288.558" cy="77.5108" r="4" fill="#0" id="circle92"/>
	<circle cx="291.72" cy="345.469" r="4" fill="#0" id="circle93"/>
	<circle cx="294.091" cy="83.8343" r="4" fill="#0" id="circle94"/>
	<circle cx="299.624" cy="90.1578" r="4" fill="#0" id="circle95"/>
	<circle cx="299.624" cy="347.841" r="4" fill="#0" id="circle96"/>
	<circle cx="305.947" cy="95.6908" r="4" fill="#0" id="circle97"/>
	<circle cx="307.528" cy="349.422" r="4" fill="#0" id="circle98"/>
	<circle cx="310.69" cy="102.014" r="4" fill="#0" id="circle99"/>
	<circle cx="315.433" cy="351.002" r="4" fill="#0" id="circle100"/>
	<circle cx="317.014" cy="107.547" r="4" fill="#0" id="circle101"/>
	<circle cx="321.756" cy="113.871" r="4" fill="#0" id="circle102"/>
	<circle cx="323.337" cy="353.374" r="4" fill="#0" id="circle103"/>
	<circle cx="326.499" cy="120.194" r="4" fill="#0" id="circle104"/>
	<circle cx="331.241" cy="126.518" r="4" fill="#0" id="circle105"/>
	<circle cx="331.241" cy="354.164" r="4" fill="#0" id="circle106"/>
	<circle cx="335.984" cy="132.841" r="4" fill="#0" id="circle107"/>
	<circle cx="339.146" cy="354.955" r="4" fill="#0" id="circle108"/>
	<circle cx="340.727" cy="139.165" r="4" fill="#0" id="circle109"/>
	<circle cx="345.469" cy="145.488" r="4" fill="#0" id="circle110"/>
	<circle cx="347.05" cy="358.116" r="4" fill="#0" id="circle111"/>
	<circle cx="349.422" cy="152.602" r="4" fill="#0" id="circle112"/>
	<circle cx="353.374" cy="159.716" r="4" fill="#0" id="circle113"/>
	<circle cx="354.955" cy="359.697" r="4" fill="#0" id="circle114"/>
	<circle cx="358.116" cy="166.04" r="4" fill="#0" id="circle115"/>
	<circle cx="362.069" cy="173.154" r="4" fill="#0" id="circle116"/>
	<circle cx="362.859" cy="361.278" r="4" fill="#0" id="circle117"/>
	<circle cx="366.021" cy="180.268" r="4" fill="#0" id="circle118"/>
	<circle cx="369.973" cy="187.382" r="4" fill="#0" id="circle119"/>
	<circle cx="370.763" cy="363.649" r="4" fill="#0" id="circle120"/>
	<circle cx="373.925" cy="194.496" r="4" fill="#0" id="circle121"/>
	<circle cx="377.087" cy="202.4" r="4" fill="#0" id="circle122"/>
	<circle cx="378.668" cy="366.811" r="4" fill="#0" id="circle123"/>
	<circle cx="381.039" cy="209.514" r="4" fill="#0" id="circle124"/>
	<circle cx="384.991" cy="216.628" r="4" fill="#0" id="circle125"/>
	<circle cx="386.572" cy="368.392" r="4" fill="#0" id="circle126"/>
	<circle cx="387.363" cy="224.532" r="4" fill="#0" id="circle127"/>
	<circle cx="391.315" cy="231.646" r="4" fill="#0" id="circle128"/>
	<circle cx="394.476" cy="371.554" r="4" fill="#0" id="circle129"/>
	<circle cx="395.267" cy="238.76" r="4" fill="#0" id="circle130"/>
	<circle cx="398.429" cy="246.665" r="4" fill="#0" id="circle131"/>
	<circle cx="401.59" cy="375.506" r="4" fill="#0" id="circle132"/>
	<circle cx="402.381" cy="253.778" r="4" fill="#0" id="circle133"/>
	<circle cx="404.752" cy="261.683" r="4" fill="#0" id="circle134"/>
	<circle cx="408.704" cy="268.797" r="4" fill="#0" id="circle135"/>
	<circle cx="408.704" cy="379.458" r="4" fill="#0" id="circle136"/>
	<circle cx="411.866" cy="276.701" r="4" fill="#0" id="circle137"/>
	<circle cx="415.818" cy="283.815" r="4" fill="#0" id="circle138"/>
	<circle cx="415.818" cy="383.41" r="4" fill="#0" id="circle139"/>
	<circle cx="418.98" cy="291.72" r="4" fill="#0" id="circle140"/>
	<circle cx="422.142" cy="388.153" r="4" fill="#0" id="circle141"/>
	<circle cx="422.932" cy="298.833" r="4" fill="#0" id="circle142"/>
	<circle cx="426.884" cy="305.947" r="4" fill="#0" id="circle143"/>
	<circle cx="428.465" cy="393.686" r="4" fill="#0" id="circle144"/>
	<circle cx="431.627" cy="312.271" r="4" fill="#0" id="circle145"/>
	<circle cx="434.789" cy="398.429" r="4" fill="#0" id="circle146"/>
	<circle cx="435.579" cy="319.385" r="4" fill="#0" id="circle147"/>
	<circle cx="441.112" cy="325.708" r="4" fill="#0" id="circle148"/>
	<circle cx="441.112" cy="403.171" r="4" fill="#0" id="circle149"/>
	<circle cx="445.855" cy="332.032" r="4" fill="#0" id="circle150"/>
	<circle cx="447.436" cy="407.914" r="4" fill="#0" id="circle151"/>
	<circle cx="452.178" cy="336.775" r="4" fill="#0" id="circle152"/>
	<circle cx="453.759" cy="412.657" r="4" fill="#0" id="circle153"/>
	<circle cx="457.712" cy="343.098" r="4" fill="#0" id="circle154"/>
	<circle cx="460.083" cy="417.399" r="4" fill="#0" id="circle155"/>
	<circle cx="464.825" cy="347.05" r="4" fill="#0" id="circle156"/>
	<circle cx="466.406" cy="422.142" r="4" fill="#0" id="circle157"/>
	<circle cx="471.149" cy="352.583" r="4" fill="#0" id="circle158"/>
	<circle cx="472.73" cy="426.884" r="4" fill="#0" id="circle159"/>
	<circle cx="477.473" cy="357.326" r="4" fill="#0" id="circle160"/>
	<circle cx="479.053" cy="432.418" r="4" fill="#0" id="circle161"/>
	<circle cx="482.215" cy="363.649" r="4" fill="#0" id="circle162"/>
	<circle cx="485.377" cy="437.16" r="4" fill="#0" id="circle163"/>
	<circle cx="489.329" cy="367.602" r="4" fill="#0" id="circle164"/>
	<circle cx="491.7" cy="441.903" r="4" fill="#0" id="circle165"/>
	<circle cx="495.653" cy="373.135" r="4" fill="#0" id="circle166"/>
	<circle cx="498.024" cy="446.645" r="4" fill="#0" id="circle167"/>
	<circle cx="501.976" cy="378.668" r="4" fill="#0" id="circle168"/>
	<circle cx="504.347" cy="451.388" r="4" fill="#0" id="circle169"/>
	<circle cx="508.3" cy="383.41" r="4" fill="#0" id="circle170"/>
	<circle cx="509.88" cy="457.712" r="4" fill="#0" id="circle171"/>
	<circle cx="515.414" cy="387.363" r="4" fill="#0" id="circle172"/>
	<circle cx="516.204" cy="462.454" r="4" fill="#0" id="circle173"/>
	<circle cx="520.947" cy="393.686" r="4" fill="#0" id="circle174"/>
	<circle cx="523.318" cy="466.406" r="4" fill="#0" id="circle175"/>
	<circle cx="527.27" cy="398.429" r="4" fill="#0" id="circle176"/>
	<circle cx="528.851" cy="472.73" r="4" fill="#0" id="circle177"/>
	<circle cx="533.594" cy="403.171" r="4" fill="#0" id="circle178"/>
	<circle cx="535.175" cy="477.473" r="4" fill="#0" id="circle179"/>
	<circle cx="539.917" cy="407.914" r="4" fill="#0" id="circle180"/>
	<circle cx="541.498" cy="482.215" r="4" fill="#0" id="circle181"/>
	<circle cx="546.241" cy="412.657" r="4" fill="#0" id="circle182"/>
	<circle cx="547.822" cy="486.958" r="4" fill="#0" id="circle183"/>
	<circle cx="552.564" cy="417.399" r="4" fill="#0" id="circle184"/>
	<circle cx="554.145" cy="491.7" r="4" fill="#0" id="circle185"/>
	<circle cx="558.888" cy="422.142" r="4" fill="#0" id="circle186"/>
	<circle cx="560.469" cy="496.443" r="4" fill="#0" id="circle187"/>
	<circle cx="565.211" cy="426.884" r="4" fill="#0" id="circle188"/>
	<circle cx="566.792" cy="501.186" r="4" fill="#0" id="circle189"/>
	<circle cx="571.535" cy="432.418" r="4" fill="#0" id="circle190"/>
	<circle cx="573.116" cy="505.928" r="4" fill="#0" id="circle191"/>
	<circle cx="577.858" cy="437.951" r="4" fill="#0" id="circle192"/>
	<circle cx="579.439" cy="511.461" r="4" fill="#0" id="circle193"/>
	<circle cx="584.972" cy="441.903" r="4" fill="#0" id="circle194"/>
	<circle cx="585.763" cy="516.204" r="4" fill="#0" id="circle195"/>
	<circle cx="591.296" cy="447.436" r="4" fill="#0" id="circle196"/>
	<circle cx="592.086" cy="520.947" r="4" fill="#0" id="circle197"/>
	<circle cx="597.619" cy="452.969" r="4" fill="#0" id="circle198"/>
	<circle cx="598.41" cy="526.48" r="4" fill="#0" id="circle199"/>
	<circle cx="603.943" cy="457.712" r="4" fill="#0" id="circle200"/>
	<circle cx="605.524" cy="530.432" r="4" fill="#0" id="circle201"/>
	<circle cx="610.266" cy="462.454" r="4" fill="#0" id="circle202"/>
	<circle cx="611.847" cy="535.965" r="4" fill="#0" id="circle203"/>
	<circle cx="616.59" cy="467.197" r="4" fill="#0" id="circle204"/>
	<circle cx="618.171" cy="541.498" r="4" fill="#0" id="circle205"/>
	<circle cx="622.913" cy="472.73" r="4" fill="#0" id="circle206"/>
	<circle cx="624.494" cy="546.241" r="4" fill="#0" id="circle207"/>
	<circle cx="629.237" cy="477.473" r="4" fill="#0" id="circle208"/>
	<circle cx="630.818" cy="550.983" r="4" fill="#0" id="circle209"/>
	<circle cx="635.56" cy="482.215" r="4" fill="#0" id="circle210"/>
	<circle cx="637.141" cy="556.516" r="4" fill="#0" id="circle211"/>
	<circle cx="641.884" cy="486.958" r="4" fill="#0" id="circle212"/>
	<circle cx="643.465" cy="561.259" r="4" fill="#0" id="circle213"/>
	<circle cx="648.207" cy="491.7" r="4" fill="#0" id="circle214"/>
	<circle cx="649.788" cy="566.002" r="4" fill="#0" id="circle215"/>
	<circle cx="654.531" cy="497.233" r="4" fill="#0" id="circle216"/>
	<circle cx="656.112" cy="570.744" r="4" fill="#0" id="circle217"/>
	<circle cx="660.854" cy="501.976" r="4" fill="#0" id="circle218"/>
	<circle cx="662.435" cy="575.487" r="4" fill="#0" id="circle219"/>
	<circle cx="667.178" cy="506.719" r="4" fill="#0" id="circle220"/>
	<circle cx="668.759" cy="581.02" r="4" fill="#0" id="circle221"/>
	<circle cx="673.501" cy="511.461" r="4" fill="#0" id="circle222"/>
	<circle cx="675.082" cy="586.553" r="4" fill="#0" id="circle223"/>
	<circle cx="679.825" cy="516.204" r="4" fill="#0" id="circle224"/>
	<circle cx="681.406" cy="591.296" r="4" fill="#0" id="circle225"/>
	<circle cx="686.148" cy="520.947" r="4" fill="#0" id="circle226"/>
	<circle cx="687.729" cy="596.038" r="4" fill="#0" id="circle227"/>
	<circle cx="692.472" cy="525.689" r="4" fill="#0" id="circle228"/>
	<circle cx="694.053" cy="600.781" r="4" fill="#0" id="circle229"/>
	<circle cx="698.005" cy="532.013" r="4" fill="#0" id="circle230"/>
	<circle cx="700.376" cy="605.524" r="4" fill="#0" id="circle231"/>
	<circle cx="705.119" cy="535.965" r="4" fill="#0" id="circle232"/>
	<circle cx="706.7" cy="611.057" r="4" fill="#0" id="circle233"/>
	<circle cx="711.442" cy="540.708" r="4" fill="#0" id="circle234"/>
	<circle cx="713.023" cy="615.799" r="4" fill="#0" id="circle235"/>
	<circle cx="717.766" cy="546.241" r="4" fill="#0" id="circle236"/>
	<circle cx="719.347" cy="620.542" r="4" fill="#0" id="circle237"/>
	<circle cx="724.089" cy="551.774" r="4" fill="#0" id="circle238"/>
	<circle cx="725.67" cy="625.284" r="4" fill="#0" id="circle239"/>
	<circle cx="730.413" cy="556.516" r="4" fill="#0" id="circle240"/>
	<circle cx="731.994" cy="630.818" r="4" fill="#0" id="circle241"/>
	<circle cx="736.736" cy="561.259" r="4" fill="#0" id="circle242"/>
	<circle cx="738.317" cy="635.56" r="4" fill="#0" id="circle243"/>
	<circle cx="743.06" cy="566.002" r="4" fill="#0" id="circle244"/>
	<circle cx="744.641" cy="641.093" r="4" fill="#0" id="circle245"/>
	<circle cx="749.383" cy="570.744" r="4" fill="#0" id="circle246"/>
	<circle cx="751.755" cy="645.045" r="4" fill="#0" id="circle247"/>
	<circle cx="755.707" cy="575.487" r="4" fill="#0" id="circle248"/>
	<circle cx="758.078" cy="649.788" r="4" fill="#0" id="circle249"/>
	<circle cx="762.03" cy="580.229" r="4" fill="#0" id="circle250"/>
	<circle cx="762.821" cy="656.112" r="4" fill="#0" id="circle251"/>
	<circle cx="768.354" cy="584.972" r="4" fill="#0" id="circle252"/>
	<circle cx="769.935" cy="660.064" r="4" fill="#0" id="circle253"/>
	<circle cx="773.887" cy="591.296" r="4" fill="#0" id="circle254"/>
	<circle cx="776.258" cy="664.806" r="4" fill="#0" id="circle255"/>
	<circle cx="780.21" cy="596.038" r="4" fill="#0" id="circle256"/>
	<circle cx="782.582" cy="670.339" r="4" fill="#0" id="circle257"/>
	<circle cx="787.324" cy="599.99" r="4" fill="#0" id="circle258"/>
	<circle cx="788.905" cy="675.082" r="4" fill="#0" id="circle259"/>
	<circle cx="793.648" cy="604.733" r="4" fill="#0" id="circle260"/>
	<circle cx="795.229" cy="680.615" r="4" fill="#0" id="circle261"/>
	<circle cx="799.971" cy="610.266" r="4" fill="#0" id="circle262"/>
	<circle cx="801.552" cy="686.148" r="4" fill="#0" id="circle263"/>
	<circle cx="806.295" cy="615.799" r="4" fill="#0" id="circle264"/>
	<circle cx="807.876" cy="690.891" r="4" fill="#0" id="circle265"/>
	<circle cx="812.618" cy="620.542" r="4" fill="#0" id="circle266"/>
	<circle cx="814.199" cy="695.633" r="4" fill="#0" id="circle267"/>
	<circle cx="818.942" cy="625.284" r="4" fill="#0" id="circle268"/>
	<circle cx="820.523" cy="700.376" r="4" fill="#0" id="circle269"/>
	<circle cx="825.265" cy="630.027" r="4" fill="#0" id="circle270"/>
	<circle cx="826.846" cy="705.119" r="4" fill="#0" id="circle271"/>
	<circle cx="831.589" cy="634.77" r="4" fill="#0" id="circle272"/>
	<circle cx="833.17" cy="709.861" r="4" fill="#0" id="circle273"/>
	<circle cx="837.912" cy="639.512" r="4" fill="#0" id="circle274"/>
	<circle cx="839.493" cy="715.394" r="4" fill="#0" id="circle275"/>
	<circle cx="844.236" cy="645.045" r="4" fill="#0" id="circle276"/>
	<circle cx="845.817" cy="720.137" r="4" fill="#0" id="circle277"/>
	<circle cx="850.559" cy="650.578" r="4" fill="#0" id="circle278"/>
	<circle cx="852.14" cy="725.67" r="4" fill="#0" id="circle279"/>
	<circle cx="856.883" cy="655.321" r="4" fill="#0" id="circle280"/>
	<circle cx="856.883" cy="731.994" r="4" fill="#0" id="circle281"/>
	<circle cx="862.416" cy="747.012" r="4" fill="#0" id="circle282"/>
	<circle cx="863.206" cy="660.064" r="4" fill="#0" id="circle283"/>
	<circle cx="863.997" cy="735.946" r="4" fill="#0" id="circle284"/>
	<circle cx="866.368" cy="754.126" r="4" fill="#0" id="circle285"/>
	<circle cx="869.53" cy="664.806" r="4" fill="#0" id="circle286"/>
	<circle cx="873.482" cy="758.078" r="4" fill="#0" id="circle287"/>
	<circle cx="875.853" cy="670.339" r="4" fill="#0" id="circle288"/>
	<circle cx="881.386" cy="754.126" r="4" fill="#0" id="circle289"/>
	<circle cx="882.177" cy="675.082" r="4" fill="#0" id="circle290"/>
	<circle cx="888.5" cy="679.825" r="4" fill="#0" id="circle291"/>
	<circle cx="889.291" cy="754.126" r="4" fill="#0" id="circle292"/>
	<circle cx="894.824" cy="684.567" r="4" fill="#0" id="circle293"/>
	<circle cx="895.614" cy="758.869" r="4" fill="#0" id="circle294"/>
	<circle cx="900.357" cy="765.192" r="4" fill="#0" id="circle295"/>
	<circle cx="901.147" cy="690.1" r="4" fill="#0" id="circle296"/>
	<circle cx="907.471" cy="694.843" r="4" fill="#0" id="circle297"/>
	<circle cx="907.471" cy="769.144" r="4" fill="#0" id="circle298"/>
	<circle cx="913.794" cy="699.586" r="4" fill="#0" id="circle299"/>
	<circle cx="913.794" cy="774.677" r="4" fill="#0" id="circle300"/>
	<circle cx="920.118" cy="704.328" r="4" fill="#0" id="circle301"/>
	<circle cx="920.908" cy="778.629" r="4" fill="#0" id="circle302"/>
	<circle cx="926.441" cy="709.071" r="4" fill="#0" id="circle303"/>
	<circle cx="927.232" cy="784.163" r="4" fill="#0" id="circle304"/>
	<circle cx="932.765" cy="713.814" r="4" fill="#0" id="circle305"/>
	<circle cx="933.555" cy="789.696" r="4" fill="#0" id="circle306"/>
	<circle cx="939.088" cy="719.347" r="4" fill="#0" id="circle307"/>
	<circle cx="939.879" cy="794.438" r="4" fill="#0" id="circle308"/>
	<circle cx="945.412" cy="724.88" r="4" fill="#0" id="circle309"/>
	<circle cx="945.412" cy="800.762" r="4" fill="#0" id="circle310"/>
	<circle cx="952.526" cy="804.714" r="4" fill="#0" id="circle311"/>
	<circle cx="953.316" cy="728.041" r="4" fill="#0" id="circle312"/>
	<circle cx="958.059" cy="734.365" r="4" fill="#0" id="circle313"/>
	<circle cx="960.43" cy="807.876" r="4" fill="#0" id="circle314"/>
	<circle cx="964.382" cy="739.898" r="4" fill="#0" id="circle315"/>
	<circle cx="968.335" cy="807.876" r="4" fill="#0" id="circle316"/>
	<circle cx="970.706" cy="744.641" r="4" fill="#0" id="circle317"/>
	<circle cx="976.239" cy="805.504" r="4" fill="#0" id="circle318"/>
	<circle cx="977.82" cy="748.593" r="4" fill="#0" id="circle319"/>
	<circle cx="983.353" cy="754.916" r="4" fill="#0" id="circle320"/>
	<circle cx="984.143" cy="804.714" r="4" fill="#0" id="circle321"/>
	<circle cx="988.886" cy="761.24" r="4" fill="#0" id="circle322"/>
	<circle cx="991.257" cy="800.762" r="4" fill="#0" id="circle323"/>
	<circle cx="993.629" cy="767.563" r="4" fill="#0" id="circle324"/>
	<circle cx="995.21" cy="775.468" r="4" fill="#0" id="circle325"/>
	<circle cx="996" cy="783.372" r="4" fill="#0" id="circle326"/>
	<circle cx="996" cy="791.276" r="4" fill="#0" id="circle327"/>
	</g>
</svg>