<?xml version="1.0" encoding="UTF-8" standalone="no"?>
<!-- Created with CurveBenchmark -->
<svg
	xmlns:dc="http://purl.org/dc/elements/1.1/"
	xmlns:cc="http://creativecommons.org/ns#"
	xmlns:rdf="http://www.w3.org/1999/02/22-rdf-syntax-ns#"
	xmlns:svg="http://www.w3.org/2000/svg"
	xmlns="http://www.w3.org/2000/svg"
	xmlns:sodipodi="http://sodipodi.sourceforge.net/DTD/sodipodi-0.dtd"
	xmlns:inkscape="http://www.inkscape.org/namespaces/inkscape"
	width="1000"
	height="1000"
	id="svg2"
	version="1.1"
	sodipodi:docname="manifold/peel-mgen1fp.png.txt">
<defs
	id="defs4" />
<metadata
	id="metadata7">
	<rdf:RDF>
		<cc:Work
			rdf:about="">
			<dc:format>image/svg+xml</dc:format>
			<dc:type
				rdf:resource="http://purl.org/dc/dcmitype/StillImage" />
			<dc:title></dc:title>
		</cc:Work>
	</rdf:RDF>
</metadata>
<g
	inkscape:label="Layer 1"
	inkscape:groupmode="layer"
	id="layer1">
	<path style="fill:none;stroke:red;stroke-width:1px;stroke-linecap:butt;stroke-linejoin:miter;stroke-opacity:1" d="M 20.8493,741.155 31.38,720.093 z" id="boundary" inkscape:connector-curvature="0" />
	<path style="fill:none;stroke:red;stroke-width:1px;stroke-linecap:butt;stroke-linejoin:miter;stroke-opacity:1" d="M 4,758.004 25.0616,764.323 z" id="boundary" inkscape:connector-curvature="0" />
	<path style="fill:none;stroke:red;stroke-width:1px;stroke-linecap:butt;stroke-linejoin:miter;stroke-opacity:1" d="M 44.017,774.854 58.7601,791.703 z" id="boundary" inkscape:connector-curvature="0" />
	<path style="fill:none;stroke:red;stroke-width:1px;stroke-linecap:butt;stroke-linejoin:miter;stroke-opacity:1" d="M 44.017,774.854 25.0616,764.323 z" id="boundary" inkscape:connector-curvature="0" />
	<path style="fill:none;stroke:red;stroke-width:1px;stroke-linecap:butt;stroke-linejoin:miter;stroke-opacity:1" d="M 48.2293,300.968 35.5924,284.119 z" id="boundary" inkscape:connector-curvature="0" />
	<path style="fill:none;stroke:red;stroke-width:1px;stroke-linecap:butt;stroke-linejoin:miter;stroke-opacity:1" d="M 56.6539,273.588 35.5924,284.119 z" id="boundary" inkscape:connector-curvature="0" />
	<path style="fill:none;stroke:red;stroke-width:1px;stroke-linecap:butt;stroke-linejoin:miter;stroke-opacity:1" d="M 48.2293,703.244 65.0786,688.501 z" id="boundary" inkscape:connector-curvature="0" />
	<path style="fill:none;stroke:red;stroke-width:1px;stroke-linecap:butt;stroke-linejoin:miter;stroke-opacity:1" d="M 31.38,720.093 48.2293,703.244 z" id="boundary" inkscape:connector-curvature="0" />
	<path style="fill:none;stroke:red;stroke-width:1px;stroke-linecap:butt;stroke-linejoin:miter;stroke-opacity:1" d="M 88.2463,81.9278 98.7771,100.883 z" id="boundary" inkscape:connector-curvature="0" />
	<path style="fill:none;stroke:red;stroke-width:1px;stroke-linecap:butt;stroke-linejoin:miter;stroke-opacity:1" d="M 98.7771,100.883 105.096,121.945 z" id="boundary" inkscape:connector-curvature="0" />
	<path style="fill:none;stroke:red;stroke-width:1px;stroke-linecap:butt;stroke-linejoin:miter;stroke-opacity:1" d="M 67.1847,311.499 48.2293,300.968 z" id="boundary" inkscape:connector-curvature="0" />
	<path style="fill:none;stroke:red;stroke-width:1px;stroke-linecap:butt;stroke-linejoin:miter;stroke-opacity:1" d="M 58.7601,791.703 79.8217,789.597 z" id="boundary" inkscape:connector-curvature="0" />
	<path style="fill:none;stroke:red;stroke-width:1px;stroke-linecap:butt;stroke-linejoin:miter;stroke-opacity:1" d="M 77.7155,267.27 56.6539,273.588 z" id="boundary" inkscape:connector-curvature="0" />
	<path style="fill:none;stroke:red;stroke-width:1px;stroke-linecap:butt;stroke-linejoin:miter;stroke-opacity:1" d="M 88.2463,81.9278 77.7155,62.9724 z" id="boundary" inkscape:connector-curvature="0" />
	<path style="fill:none;stroke:red;stroke-width:1px;stroke-linecap:butt;stroke-linejoin:miter;stroke-opacity:1" d="M 86.1401,322.03 67.1847,311.499 z" id="boundary" inkscape:connector-curvature="0" />
	<path style="fill:none;stroke:red;stroke-width:1px;stroke-linecap:butt;stroke-linejoin:miter;stroke-opacity:1" d="M 195.66,802.234 206.191,821.189 z" id="boundary" inkscape:connector-curvature="0" />
	<path style="fill:none;stroke:red;stroke-width:1px;stroke-linecap:butt;stroke-linejoin:miter;stroke-opacity:1" d="M 79.8217,789.597 100.883,785.384 z" id="boundary" inkscape:connector-curvature="0" />
	<path style="fill:none;stroke:red;stroke-width:1px;stroke-linecap:butt;stroke-linejoin:miter;stroke-opacity:1" d="M 65.0786,688.501 84.034,677.97 z" id="boundary" inkscape:connector-curvature="0" />
	<path style="fill:none;stroke:red;stroke-width:1px;stroke-linecap:butt;stroke-linejoin:miter;stroke-opacity:1" d="M 98.7771,263.057 77.7155,267.27 z" id="boundary" inkscape:connector-curvature="0" />
	<path style="fill:none;stroke:red;stroke-width:1px;stroke-linecap:butt;stroke-linejoin:miter;stroke-opacity:1" d="M 119.839,589.512 119.839,557.919 z" id="boundary" inkscape:connector-curvature="0" />
	<path style="fill:none;stroke:red;stroke-width:1px;stroke-linecap:butt;stroke-linejoin:miter;stroke-opacity:1" d="M 107.202,322.03 86.1401,322.03 z" id="boundary" inkscape:connector-curvature="0" />
	<path style="fill:none;stroke:red;stroke-width:1px;stroke-linecap:butt;stroke-linejoin:miter;stroke-opacity:1" d="M 100.883,785.384 121.945,785.384 z" id="boundary" inkscape:connector-curvature="0" />
	<path style="fill:none;stroke:red;stroke-width:1px;stroke-linecap:butt;stroke-linejoin:miter;stroke-opacity:1" d="M 124.051,77.7155 105.096,67.1847 z" id="boundary" inkscape:connector-curvature="0" />
	<path style="fill:none;stroke:red;stroke-width:1px;stroke-linecap:butt;stroke-linejoin:miter;stroke-opacity:1" d="M 84.034,677.97 102.989,667.439 z" id="boundary" inkscape:connector-curvature="0" />
	<path style="fill:none;stroke:red;stroke-width:1px;stroke-linecap:butt;stroke-linejoin:miter;stroke-opacity:1" d="M 105.096,121.945 121.945,136.688 z" id="boundary" inkscape:connector-curvature="0" />
	<path style="fill:none;stroke:red;stroke-width:1px;stroke-linecap:butt;stroke-linejoin:miter;stroke-opacity:1" d="M 121.945,136.688 130.369,168.28 z" id="boundary" inkscape:connector-curvature="0" />
	<path style="fill:none;stroke:red;stroke-width:1px;stroke-linecap:butt;stroke-linejoin:miter;stroke-opacity:1" d="M 124.051,77.7155 143.006,88.2463 z" id="boundary" inkscape:connector-curvature="0" />
	<path style="fill:none;stroke:red;stroke-width:1px;stroke-linecap:butt;stroke-linejoin:miter;stroke-opacity:1" d="M 130.369,168.28 130.369,189.342 z" id="boundary" inkscape:connector-curvature="0" />
	<path style="fill:none;stroke:red;stroke-width:1px;stroke-linecap:butt;stroke-linejoin:miter;stroke-opacity:1" d="M 128.263,317.817 107.202,322.03 z" id="boundary" inkscape:connector-curvature="0" />
	<path style="fill:none;stroke:red;stroke-width:1px;stroke-linecap:butt;stroke-linejoin:miter;stroke-opacity:1" d="M 98.7771,263.057 119.839,263.057 z" id="boundary" inkscape:connector-curvature="0" />
	<path style="fill:none;stroke:red;stroke-width:1px;stroke-linecap:butt;stroke-linejoin:miter;stroke-opacity:1" d="M 130.369,210.403 130.369,189.342 z" id="boundary" inkscape:connector-curvature="0" />
	<path style="fill:none;stroke:red;stroke-width:1px;stroke-linecap:butt;stroke-linejoin:miter;stroke-opacity:1" d="M 119.839,652.696 102.989,667.439 z" id="boundary" inkscape:connector-curvature="0" />
	<path style="fill:none;stroke:red;stroke-width:1px;stroke-linecap:butt;stroke-linejoin:miter;stroke-opacity:1" d="M 119.839,557.919 130.369,536.858 z" id="boundary" inkscape:connector-curvature="0" />
	<path style="fill:none;stroke:red;stroke-width:1px;stroke-linecap:butt;stroke-linejoin:miter;stroke-opacity:1" d="M 130.369,536.858 130.369,515.796 z" id="boundary" inkscape:connector-curvature="0" />
	<path style="fill:none;stroke:red;stroke-width:1px;stroke-linecap:butt;stroke-linejoin:miter;stroke-opacity:1" d="M 195.66,802.234 180.917,785.384 z" id="boundary" inkscape:connector-curvature="0" />
	<path style="fill:none;stroke:red;stroke-width:1px;stroke-linecap:butt;stroke-linejoin:miter;stroke-opacity:1" d="M 130.369,231.465 130.369,210.403 z" id="boundary" inkscape:connector-curvature="0" />
	<path style="fill:none;stroke:red;stroke-width:1px;stroke-linecap:butt;stroke-linejoin:miter;stroke-opacity:1" d="M 143.006,88.2463 164.068,88.2463 z" id="boundary" inkscape:connector-curvature="0" />
	<path style="fill:none;stroke:red;stroke-width:1px;stroke-linecap:butt;stroke-linejoin:miter;stroke-opacity:1" d="M 164.068,88.2463 185.13,94.5648 z" id="boundary" inkscape:connector-curvature="0" />
	<path style="fill:none;stroke:red;stroke-width:1px;stroke-linecap:butt;stroke-linejoin:miter;stroke-opacity:1" d="M 119.839,263.057 130.369,231.465 z" id="boundary" inkscape:connector-curvature="0" />
	<path style="fill:none;stroke:red;stroke-width:1px;stroke-linecap:butt;stroke-linejoin:miter;stroke-opacity:1" d="M 149.325,311.499 128.263,317.817 z" id="boundary" inkscape:connector-curvature="0" />
	<path style="fill:none;stroke:red;stroke-width:1px;stroke-linecap:butt;stroke-linejoin:miter;stroke-opacity:1" d="M 140.9,484.204 130.369,515.796 z" id="boundary" inkscape:connector-curvature="0" />
	<path style="fill:none;stroke:red;stroke-width:1px;stroke-linecap:butt;stroke-linejoin:miter;stroke-opacity:1" d="M 119.839,589.512 130.369,608.467 z" id="boundary" inkscape:connector-curvature="0" />
	<path style="fill:none;stroke:red;stroke-width:1px;stroke-linecap:butt;stroke-linejoin:miter;stroke-opacity:1" d="M 130.369,608.467 130.369,629.529 z" id="boundary" inkscape:connector-curvature="0" />
	<path style="fill:none;stroke:red;stroke-width:1px;stroke-linecap:butt;stroke-linejoin:miter;stroke-opacity:1" d="M 140.9,484.204 151.431,463.142 z" id="boundary" inkscape:connector-curvature="0" />
	<path style="fill:none;stroke:red;stroke-width:1px;stroke-linecap:butt;stroke-linejoin:miter;stroke-opacity:1" d="M 130.369,629.529 119.839,652.696 z" id="boundary" inkscape:connector-curvature="0" />
	<path style="fill:none;stroke:red;stroke-width:1px;stroke-linecap:butt;stroke-linejoin:miter;stroke-opacity:1" d="M 151.431,463.142 161.962,442.081 z" id="boundary" inkscape:connector-curvature="0" />
	<path style="fill:none;stroke:red;stroke-width:1px;stroke-linecap:butt;stroke-linejoin:miter;stroke-opacity:1" d="M 149.325,311.499 168.28,322.03 z" id="boundary" inkscape:connector-curvature="0" />
	<path style="fill:none;stroke:red;stroke-width:1px;stroke-linecap:butt;stroke-linejoin:miter;stroke-opacity:1" d="M 121.945,785.384 140.9,774.854 z" id="boundary" inkscape:connector-curvature="0" />
	<path style="fill:none;stroke:red;stroke-width:1px;stroke-linecap:butt;stroke-linejoin:miter;stroke-opacity:1" d="M 140.9,774.854 161.962,774.854 z" id="boundary" inkscape:connector-curvature="0" />
	<path style="fill:none;stroke:red;stroke-width:1px;stroke-linecap:butt;stroke-linejoin:miter;stroke-opacity:1" d="M 185.13,94.5648 204.085,84.034 z" id="boundary" inkscape:connector-curvature="0" />
	<path style="fill:none;stroke:red;stroke-width:1px;stroke-linecap:butt;stroke-linejoin:miter;stroke-opacity:1" d="M 161.962,442.081 172.493,421.019 z" id="boundary" inkscape:connector-curvature="0" />
	<path style="fill:none;stroke:red;stroke-width:1px;stroke-linecap:butt;stroke-linejoin:miter;stroke-opacity:1" d="M 161.962,774.854 180.917,785.384 z" id="boundary" inkscape:connector-curvature="0" />
	<path style="fill:none;stroke:red;stroke-width:1px;stroke-linecap:butt;stroke-linejoin:miter;stroke-opacity:1" d="M 183.023,399.958 172.493,421.019 z" id="boundary" inkscape:connector-curvature="0" />
	<path style="fill:none;stroke:red;stroke-width:1px;stroke-linecap:butt;stroke-linejoin:miter;stroke-opacity:1" d="M 206.191,821.189 214.616,842.251 z" id="boundary" inkscape:connector-curvature="0" />
	<path style="fill:none;stroke:red;stroke-width:1px;stroke-linecap:butt;stroke-linejoin:miter;stroke-opacity:1" d="M 185.13,336.773 168.28,322.03 z" id="boundary" inkscape:connector-curvature="0" />
	<path style="fill:none;stroke:red;stroke-width:1px;stroke-linecap:butt;stroke-linejoin:miter;stroke-opacity:1" d="M 199.873,383.108 183.023,399.958 z" id="boundary" inkscape:connector-curvature="0" />
	<path style="fill:none;stroke:red;stroke-width:1px;stroke-linecap:butt;stroke-linejoin:miter;stroke-opacity:1" d="M 204.085,84.034 225.146,73.5032 z" id="boundary" inkscape:connector-curvature="0" />
	<path style="fill:none;stroke:red;stroke-width:1px;stroke-linecap:butt;stroke-linejoin:miter;stroke-opacity:1" d="M 199.873,353.622 185.13,336.773 z" id="boundary" inkscape:connector-curvature="0" />
	<path style="fill:none;stroke:red;stroke-width:1px;stroke-linecap:butt;stroke-linejoin:miter;stroke-opacity:1" d="M 225.146,73.5032 246.208,62.9724 z" id="boundary" inkscape:connector-curvature="0" />
	<path style="fill:none;stroke:red;stroke-width:1px;stroke-linecap:butt;stroke-linejoin:miter;stroke-opacity:1" d="M 199.873,383.108 199.873,353.622 z" id="boundary" inkscape:connector-curvature="0" />
	<path style="fill:none;stroke:red;stroke-width:1px;stroke-linecap:butt;stroke-linejoin:miter;stroke-opacity:1" d="M 225.146,861.206 214.616,842.251 z" id="boundary" inkscape:connector-curvature="0" />
	<path style="fill:none;stroke:red;stroke-width:1px;stroke-linecap:butt;stroke-linejoin:miter;stroke-opacity:1" d="M 235.677,880.161 225.146,861.206 z" id="boundary" inkscape:connector-curvature="0" />
	<path style="fill:none;stroke:red;stroke-width:1px;stroke-linecap:butt;stroke-linejoin:miter;stroke-opacity:1" d="M 246.208,62.9724 267.27,52.4416 z" id="boundary" inkscape:connector-curvature="0" />
	<path style="fill:none;stroke:red;stroke-width:1px;stroke-linecap:butt;stroke-linejoin:miter;stroke-opacity:1" d="M 267.27,52.4416 288.331,46.1231 z" id="boundary" inkscape:connector-curvature="0" />
	<path style="fill:none;stroke:red;stroke-width:1px;stroke-linecap:butt;stroke-linejoin:miter;stroke-opacity:1" d="M 258.845,915.966 248.314,897.011 z" id="boundary" inkscape:connector-curvature="0" />
	<path style="fill:none;stroke:red;stroke-width:1px;stroke-linecap:butt;stroke-linejoin:miter;stroke-opacity:1" d="M 248.314,897.011 235.677,880.161 z" id="boundary" inkscape:connector-curvature="0" />
	<path style="fill:none;stroke:red;stroke-width:1px;stroke-linecap:butt;stroke-linejoin:miter;stroke-opacity:1" d="M 267.27,937.028 258.845,915.966 z" id="boundary" inkscape:connector-curvature="0" />
	<path style="fill:none;stroke:red;stroke-width:1px;stroke-linecap:butt;stroke-linejoin:miter;stroke-opacity:1" d="M 284.119,951.771 267.27,937.028 z" id="boundary" inkscape:connector-curvature="0" />
	<path style="fill:none;stroke:red;stroke-width:1px;stroke-linecap:butt;stroke-linejoin:miter;stroke-opacity:1" d="M 288.331,46.1231 307.287,35.5924 z" id="boundary" inkscape:connector-curvature="0" />
	<path style="fill:none;stroke:red;stroke-width:1px;stroke-linecap:butt;stroke-linejoin:miter;stroke-opacity:1" d="M 284.119,951.771 300.968,964.408 z" id="boundary" inkscape:connector-curvature="0" />
	<path style="fill:none;stroke:red;stroke-width:1px;stroke-linecap:butt;stroke-linejoin:miter;stroke-opacity:1" d="M 307.287,35.5924 326.242,25.0616 z" id="boundary" inkscape:connector-curvature="0" />
	<path style="fill:none;stroke:red;stroke-width:1px;stroke-linecap:butt;stroke-linejoin:miter;stroke-opacity:1" d="M 326.242,25.0616 347.304,14.5308 z" id="boundary" inkscape:connector-curvature="0" />
	<path style="fill:none;stroke:red;stroke-width:1px;stroke-linecap:butt;stroke-linejoin:miter;stroke-opacity:1" d="M 347.304,14.5308 368.365,14.5308 z" id="boundary" inkscape:connector-curvature="0" />
	<path style="fill:none;stroke:red;stroke-width:1px;stroke-linecap:butt;stroke-linejoin:miter;stroke-opacity:1" d="M 300.968,964.408 319.924,974.938 z" id="boundary" inkscape:connector-curvature="0" />
	<path style="fill:none;stroke:red;stroke-width:1px;stroke-linecap:butt;stroke-linejoin:miter;stroke-opacity:1" d="M 368.365,14.5308 389.427,14.5308 z" id="boundary" inkscape:connector-curvature="0" />
	<path style="fill:none;stroke:red;stroke-width:1px;stroke-linecap:butt;stroke-linejoin:miter;stroke-opacity:1" d="M 389.427,14.5308 410.488,14.5308 z" id="boundary" inkscape:connector-curvature="0" />
	<path style="fill:none;stroke:red;stroke-width:1px;stroke-linecap:butt;stroke-linejoin:miter;stroke-opacity:1" d="M 338.879,985.469 359.941,985.469 z" id="boundary" inkscape:connector-curvature="0" />
	<path style="fill:none;stroke:red;stroke-width:1px;stroke-linecap:butt;stroke-linejoin:miter;stroke-opacity:1" d="M 359.941,985.469 378.896,996 z" id="boundary" inkscape:connector-curvature="0" />
	<path style="fill:none;stroke:red;stroke-width:1px;stroke-linecap:butt;stroke-linejoin:miter;stroke-opacity:1" d="M 338.879,985.469 319.924,974.938 z" id="boundary" inkscape:connector-curvature="0" />
	<path style="fill:none;stroke:red;stroke-width:1px;stroke-linecap:butt;stroke-linejoin:miter;stroke-opacity:1" d="M 410.488,14.5308 431.55,14.5308 z" id="boundary" inkscape:connector-curvature="0" />
	<path style="fill:none;stroke:red;stroke-width:1px;stroke-linecap:butt;stroke-linejoin:miter;stroke-opacity:1" d="M 378.896,996 399.958,996 z" id="boundary" inkscape:connector-curvature="0" />
	<path style="fill:none;stroke:red;stroke-width:1px;stroke-linecap:butt;stroke-linejoin:miter;stroke-opacity:1" d="M 399.958,996 421.019,996 z" id="boundary" inkscape:connector-curvature="0" />
	<path style="fill:none;stroke:red;stroke-width:1px;stroke-linecap:butt;stroke-linejoin:miter;stroke-opacity:1" d="M 452.611,4 431.55,14.5308 z" id="boundary" inkscape:connector-curvature="0" />
	<path style="fill:none;stroke:red;stroke-width:1px;stroke-linecap:butt;stroke-linejoin:miter;stroke-opacity:1" d="M 452.611,4 471.567,14.5308 z" id="boundary" inkscape:connector-curvature="0" />
	<path style="fill:none;stroke:red;stroke-width:1px;stroke-linecap:butt;stroke-linejoin:miter;stroke-opacity:1" d="M 442.081,996 461.036,985.469 z" id="boundary" inkscape:connector-curvature="0" />
	<path style="fill:none;stroke:red;stroke-width:1px;stroke-linecap:butt;stroke-linejoin:miter;stroke-opacity:1" d="M 461.036,985.469 482.098,985.469 z" id="boundary" inkscape:connector-curvature="0" />
	<path style="fill:none;stroke:red;stroke-width:1px;stroke-linecap:butt;stroke-linejoin:miter;stroke-opacity:1" d="M 442.081,996 421.019,996 z" id="boundary" inkscape:connector-curvature="0" />
	<path style="fill:none;stroke:red;stroke-width:1px;stroke-linecap:butt;stroke-linejoin:miter;stroke-opacity:1" d="M 492.628,6.10616 471.567,14.5308 z" id="boundary" inkscape:connector-curvature="0" />
	<path style="fill:none;stroke:red;stroke-width:1px;stroke-linecap:butt;stroke-linejoin:miter;stroke-opacity:1" d="M 492.628,6.10616 513.69,14.5308 z" id="boundary" inkscape:connector-curvature="0" />
	<path style="fill:none;stroke:red;stroke-width:1px;stroke-linecap:butt;stroke-linejoin:miter;stroke-opacity:1" d="M 513.69,14.5308 534.752,14.5308 z" id="boundary" inkscape:connector-curvature="0" />
	<path style="fill:none;stroke:red;stroke-width:1px;stroke-linecap:butt;stroke-linejoin:miter;stroke-opacity:1" d="M 534.752,14.5308 553.707,25.0616 z" id="boundary" inkscape:connector-curvature="0" />
	<path style="fill:none;stroke:red;stroke-width:1px;stroke-linecap:butt;stroke-linejoin:miter;stroke-opacity:1" d="M 482.098,985.469 501.053,974.938 z" id="boundary" inkscape:connector-curvature="0" />
	<path style="fill:none;stroke:red;stroke-width:1px;stroke-linecap:butt;stroke-linejoin:miter;stroke-opacity:1" d="M 501.053,974.938 522.115,964.408 z" id="boundary" inkscape:connector-curvature="0" />
	<path style="fill:none;stroke:red;stroke-width:1px;stroke-linecap:butt;stroke-linejoin:miter;stroke-opacity:1" d="M 522.115,964.408 543.176,953.877 z" id="boundary" inkscape:connector-curvature="0" />
	<path style="fill:none;stroke:red;stroke-width:1px;stroke-linecap:butt;stroke-linejoin:miter;stroke-opacity:1" d="M 574.769,25.0616 553.707,25.0616 z" id="boundary" inkscape:connector-curvature="0" />
	<path style="fill:none;stroke:red;stroke-width:1px;stroke-linecap:butt;stroke-linejoin:miter;stroke-opacity:1" d="M 574.769,25.0616 593.724,35.5924 z" id="boundary" inkscape:connector-curvature="0" />
	<path style="fill:none;stroke:red;stroke-width:1px;stroke-linecap:butt;stroke-linejoin:miter;stroke-opacity:1" d="M 562.132,943.346 543.176,953.877 z" id="boundary" inkscape:connector-curvature="0" />
	<path style="fill:none;stroke:red;stroke-width:1px;stroke-linecap:butt;stroke-linejoin:miter;stroke-opacity:1" d="M 614.786,39.8047 593.724,35.5924 z" id="boundary" inkscape:connector-curvature="0" />
	<path style="fill:none;stroke:red;stroke-width:1px;stroke-linecap:butt;stroke-linejoin:miter;stroke-opacity:1" d="M 614.786,39.8047 633.741,50.3355 z" id="boundary" inkscape:connector-curvature="0" />
	<path style="fill:none;stroke:red;stroke-width:1px;stroke-linecap:butt;stroke-linejoin:miter;stroke-opacity:1" d="M 578.981,930.709 562.132,943.346 z" id="boundary" inkscape:connector-curvature="0" />
	<path style="fill:none;stroke:red;stroke-width:1px;stroke-linecap:butt;stroke-linejoin:miter;stroke-opacity:1" d="M 578.981,930.709 595.83,901.223 z" id="boundary" inkscape:connector-curvature="0" />
	<path style="fill:none;stroke:red;stroke-width:1px;stroke-linecap:butt;stroke-linejoin:miter;stroke-opacity:1" d="M 595.83,901.223 606.361,880.161 z" id="boundary" inkscape:connector-curvature="0" />
	<path style="fill:none;stroke:red;stroke-width:1px;stroke-linecap:butt;stroke-linejoin:miter;stroke-opacity:1" d="M 633.741,50.3355 654.803,58.7601 z" id="boundary" inkscape:connector-curvature="0" />
	<path style="fill:none;stroke:red;stroke-width:1px;stroke-linecap:butt;stroke-linejoin:miter;stroke-opacity:1" d="M 654.803,58.7601 669.546,75.6093 z" id="boundary" inkscape:connector-curvature="0" />
	<path style="fill:none;stroke:red;stroke-width:1px;stroke-linecap:butt;stroke-linejoin:miter;stroke-opacity:1" d="M 606.361,880.161 616.892,859.1 z" id="boundary" inkscape:connector-curvature="0" />
	<path style="fill:none;stroke:red;stroke-width:1px;stroke-linecap:butt;stroke-linejoin:miter;stroke-opacity:1" d="M 616.892,859.1 627.423,838.038 z" id="boundary" inkscape:connector-curvature="0" />
	<path style="fill:none;stroke:red;stroke-width:1px;stroke-linecap:butt;stroke-linejoin:miter;stroke-opacity:1" d="M 627.423,838.038 637.953,816.977 z" id="boundary" inkscape:connector-curvature="0" />
	<path style="fill:none;stroke:red;stroke-width:1px;stroke-linecap:butt;stroke-linejoin:miter;stroke-opacity:1" d="M 637.953,816.977 648.484,795.915 z" id="boundary" inkscape:connector-curvature="0" />
	<path style="fill:none;stroke:red;stroke-width:1px;stroke-linecap:butt;stroke-linejoin:miter;stroke-opacity:1" d="M 648.484,795.915 659.015,774.854 z" id="boundary" inkscape:connector-curvature="0" />
	<path style="fill:none;stroke:red;stroke-width:1px;stroke-linecap:butt;stroke-linejoin:miter;stroke-opacity:1" d="M 690.607,84.034 669.546,75.6093 z" id="boundary" inkscape:connector-curvature="0" />
	<path style="fill:none;stroke:red;stroke-width:1px;stroke-linecap:butt;stroke-linejoin:miter;stroke-opacity:1" d="M 669.546,311.499 669.546,332.561 z" id="boundary" inkscape:connector-curvature="0" />
	<path style="fill:none;stroke:red;stroke-width:1px;stroke-linecap:butt;stroke-linejoin:miter;stroke-opacity:1" d="M 690.607,84.034 705.35,100.883 z" id="boundary" inkscape:connector-curvature="0" />
	<path style="fill:none;stroke:red;stroke-width:1px;stroke-linecap:butt;stroke-linejoin:miter;stroke-opacity:1" d="M 690.607,300.968 669.546,311.499 z" id="boundary" inkscape:connector-curvature="0" />
	<path style="fill:none;stroke:red;stroke-width:1px;stroke-linecap:butt;stroke-linejoin:miter;stroke-opacity:1" d="M 680.076,351.516 669.546,332.561 z" id="boundary" inkscape:connector-curvature="0" />
	<path style="fill:none;stroke:red;stroke-width:1px;stroke-linecap:butt;stroke-linejoin:miter;stroke-opacity:1" d="M 659.015,774.854 669.546,753.792 z" id="boundary" inkscape:connector-curvature="0" />
	<path style="fill:none;stroke:red;stroke-width:1px;stroke-linecap:butt;stroke-linejoin:miter;stroke-opacity:1" d="M 690.607,370.471 680.076,351.516 z" id="boundary" inkscape:connector-curvature="0" />
	<path style="fill:none;stroke:red;stroke-width:1px;stroke-linecap:butt;stroke-linejoin:miter;stroke-opacity:1" d="M 705.35,100.883 715.881,119.839 z" id="boundary" inkscape:connector-curvature="0" />
	<path style="fill:none;stroke:red;stroke-width:1px;stroke-linecap:butt;stroke-linejoin:miter;stroke-opacity:1" d="M 732.73,185.13 732.73,157.749 z" id="boundary" inkscape:connector-curvature="0" />
	<path style="fill:none;stroke:red;stroke-width:1px;stroke-linecap:butt;stroke-linejoin:miter;stroke-opacity:1" d="M 711.669,300.968 690.607,300.968 z" id="boundary" inkscape:connector-curvature="0" />
	<path style="fill:none;stroke:red;stroke-width:1px;stroke-linecap:butt;stroke-linejoin:miter;stroke-opacity:1" d="M 701.138,389.427 690.607,370.471 z" id="boundary" inkscape:connector-curvature="0" />
	<path style="fill:none;stroke:red;stroke-width:1px;stroke-linecap:butt;stroke-linejoin:miter;stroke-opacity:1" d="M 680.076,732.73 690.607,701.138 z" id="boundary" inkscape:connector-curvature="0" />
	<path style="fill:none;stroke:red;stroke-width:1px;stroke-linecap:butt;stroke-linejoin:miter;stroke-opacity:1" d="M 690.607,701.138 701.138,680.076 z" id="boundary" inkscape:connector-curvature="0" />
	<path style="fill:none;stroke:red;stroke-width:1px;stroke-linecap:butt;stroke-linejoin:miter;stroke-opacity:1" d="M 680.076,732.73 669.546,753.792 z" id="boundary" inkscape:connector-curvature="0" />
	<path style="fill:none;stroke:red;stroke-width:1px;stroke-linecap:butt;stroke-linejoin:miter;stroke-opacity:1" d="M 730.624,290.437 711.669,300.968 z" id="boundary" inkscape:connector-curvature="0" />
	<path style="fill:none;stroke:red;stroke-width:1px;stroke-linecap:butt;stroke-linejoin:miter;stroke-opacity:1" d="M 711.669,408.382 701.138,389.427 z" id="boundary" inkscape:connector-curvature="0" />
	<path style="fill:none;stroke:red;stroke-width:1px;stroke-linecap:butt;stroke-linejoin:miter;stroke-opacity:1" d="M 701.138,680.076 711.669,648.484 z" id="boundary" inkscape:connector-curvature="0" />
	<path style="fill:none;stroke:red;stroke-width:1px;stroke-linecap:butt;stroke-linejoin:miter;stroke-opacity:1" d="M 711.669,648.484 722.2,627.423 z" id="boundary" inkscape:connector-curvature="0" />
	<path style="fill:none;stroke:red;stroke-width:1px;stroke-linecap:butt;stroke-linejoin:miter;stroke-opacity:1" d="M 730.624,136.688 715.881,119.839 z" id="boundary" inkscape:connector-curvature="0" />
	<path style="fill:none;stroke:red;stroke-width:1px;stroke-linecap:butt;stroke-linejoin:miter;stroke-opacity:1" d="M 730.624,136.688 732.73,157.749 z" id="boundary" inkscape:connector-curvature="0" />
	<path style="fill:none;stroke:red;stroke-width:1px;stroke-linecap:butt;stroke-linejoin:miter;stroke-opacity:1" d="M 730.624,290.437 749.58,279.907 z" id="boundary" inkscape:connector-curvature="0" />
	<path style="fill:none;stroke:red;stroke-width:1px;stroke-linecap:butt;stroke-linejoin:miter;stroke-opacity:1" d="M 749.58,279.907 770.641,275.694 z" id="boundary" inkscape:connector-curvature="0" />
	<path style="fill:none;stroke:red;stroke-width:1px;stroke-linecap:butt;stroke-linejoin:miter;stroke-opacity:1" d="M 726.412,448.399 722.2,427.338 z" id="boundary" inkscape:connector-curvature="0" />
	<path style="fill:none;stroke:red;stroke-width:1px;stroke-linecap:butt;stroke-linejoin:miter;stroke-opacity:1" d="M 722.2,427.338 711.669,408.382 z" id="boundary" inkscape:connector-curvature="0" />
	<path style="fill:none;stroke:red;stroke-width:1px;stroke-linecap:butt;stroke-linejoin:miter;stroke-opacity:1" d="M 736.943,467.355 726.412,448.399 z" id="boundary" inkscape:connector-curvature="0" />
	<path style="fill:none;stroke:red;stroke-width:1px;stroke-linecap:butt;stroke-linejoin:miter;stroke-opacity:1" d="M 743.261,204.085 732.73,185.13 z" id="boundary" inkscape:connector-curvature="0" />
	<path style="fill:none;stroke:red;stroke-width:1px;stroke-linecap:butt;stroke-linejoin:miter;stroke-opacity:1" d="M 743.261,488.416 743.261,509.478 z" id="boundary" inkscape:connector-curvature="0" />
	<path style="fill:none;stroke:red;stroke-width:1px;stroke-linecap:butt;stroke-linejoin:miter;stroke-opacity:1" d="M 743.261,488.416 736.943,467.355 z" id="boundary" inkscape:connector-curvature="0" />
	<path style="fill:none;stroke:red;stroke-width:1px;stroke-linecap:butt;stroke-linejoin:miter;stroke-opacity:1" d="M 732.73,574.769 732.73,553.707 z" id="boundary" inkscape:connector-curvature="0" />
	<path style="fill:none;stroke:red;stroke-width:1px;stroke-linecap:butt;stroke-linejoin:miter;stroke-opacity:1" d="M 722.2,627.423 732.73,595.83 z" id="boundary" inkscape:connector-curvature="0" />
	<path style="fill:none;stroke:red;stroke-width:1px;stroke-linecap:butt;stroke-linejoin:miter;stroke-opacity:1" d="M 732.73,595.83 732.73,574.769 z" id="boundary" inkscape:connector-curvature="0" />
	<path style="fill:none;stroke:red;stroke-width:1px;stroke-linecap:butt;stroke-linejoin:miter;stroke-opacity:1" d="M 743.261,509.478 743.261,530.539 z" id="boundary" inkscape:connector-curvature="0" />
	<path style="fill:none;stroke:red;stroke-width:1px;stroke-linecap:butt;stroke-linejoin:miter;stroke-opacity:1" d="M 743.261,530.539 732.73,553.707 z" id="boundary" inkscape:connector-curvature="0" />
	<path style="fill:none;stroke:red;stroke-width:1px;stroke-linecap:butt;stroke-linejoin:miter;stroke-opacity:1" d="M 764.323,204.085 743.261,204.085 z" id="boundary" inkscape:connector-curvature="0" />
	<path style="fill:none;stroke:red;stroke-width:1px;stroke-linecap:butt;stroke-linejoin:miter;stroke-opacity:1" d="M 770.641,275.694 791.703,265.163 z" id="boundary" inkscape:connector-curvature="0" />
	<path style="fill:none;stroke:red;stroke-width:1px;stroke-linecap:butt;stroke-linejoin:miter;stroke-opacity:1" d="M 812.764,254.633 791.703,265.163 z" id="boundary" inkscape:connector-curvature="0" />
	<path style="fill:none;stroke:red;stroke-width:1px;stroke-linecap:butt;stroke-linejoin:miter;stroke-opacity:1" d="M 804.34,210.403 783.278,214.616 z" id="boundary" inkscape:connector-curvature="0" />
	<path style="fill:none;stroke:red;stroke-width:1px;stroke-linecap:butt;stroke-linejoin:miter;stroke-opacity:1" d="M 783.278,214.616 764.323,204.085 z" id="boundary" inkscape:connector-curvature="0" />
	<path style="fill:none;stroke:red;stroke-width:1px;stroke-linecap:butt;stroke-linejoin:miter;stroke-opacity:1" d="M 812.764,254.633 827.507,237.783 z" id="boundary" inkscape:connector-curvature="0" />
	<path style="fill:none;stroke:red;stroke-width:1px;stroke-linecap:butt;stroke-linejoin:miter;stroke-opacity:1" d="M 825.401,204.085 804.34,210.403 z" id="boundary" inkscape:connector-curvature="0" />
	<path style="fill:none;stroke:red;stroke-width:1px;stroke-linecap:butt;stroke-linejoin:miter;stroke-opacity:1" d="M 846.463,208.297 825.401,204.085 z" id="boundary" inkscape:connector-curvature="0" />
	<circle cx="4" cy="758.004" r="4" fill="#0" id="circle0"/>
	<circle cx="20.8493" cy="741.155" r="4" fill="#0" id="circle1"/>
	<circle cx="25.0616" cy="764.323" r="4" fill="#0" id="circle2"/>
	<circle cx="31.38" cy="720.093" r="4" fill="#0" id="circle3"/>
	<circle cx="35.5924" cy="284.119" r="4" fill="#0" id="circle4"/>
	<circle cx="44.017" cy="774.854" r="4" fill="#0" id="circle5"/>
	<circle cx="48.2293" cy="300.968" r="4" fill="#0" id="circle6"/>
	<circle cx="48.2293" cy="703.244" r="4" fill="#0" id="circle7"/>
	<circle cx="56.6539" cy="273.588" r="4" fill="#0" id="circle8"/>
	<circle cx="58.7601" cy="791.703" r="4" fill="#0" id="circle9"/>
	<circle cx="65.0786" cy="688.501" r="4" fill="#0" id="circle10"/>
	<circle cx="67.1847" cy="311.499" r="4" fill="#0" id="circle11"/>
	<circle cx="77.7155" cy="62.9724" r="4" fill="#0" id="circle12"/>
	<circle cx="77.7155" cy="267.27" r="4" fill="#0" id="circle13"/>
	<circle cx="79.8217" cy="789.597" r="4" fill="#0" id="circle14"/>
	<circle cx="84.034" cy="677.97" r="4" fill="#0" id="circle15"/>
	<circle cx="86.1401" cy="322.03" r="4" fill="#0" id="circle16"/>
	<circle cx="88.2463" cy="81.9278" r="4" fill="#0" id="circle17"/>
	<circle cx="98.7771" cy="100.883" r="4" fill="#0" id="circle18"/>
	<circle cx="98.7771" cy="263.057" r="4" fill="#0" id="circle19"/>
	<circle cx="100.883" cy="785.384" r="4" fill="#0" id="circle20"/>
	<circle cx="102.989" cy="667.439" r="4" fill="#0" id="circle21"/>
	<circle cx="105.096" cy="67.1847" r="4" fill="#0" id="circle22"/>
	<circle cx="105.096" cy="121.945" r="4" fill="#0" id="circle23"/>
	<circle cx="107.202" cy="322.03" r="4" fill="#0" id="circle24"/>
	<circle cx="119.839" cy="263.057" r="4" fill="#0" id="circle25"/>
	<circle cx="119.839" cy="557.919" r="4" fill="#0" id="circle26"/>
	<circle cx="119.839" cy="589.512" r="4" fill="#0" id="circle27"/>
	<circle cx="119.839" cy="652.696" r="4" fill="#0" id="circle28"/>
	<circle cx="121.945" cy="136.688" r="4" fill="#0" id="circle29"/>
	<circle cx="121.945" cy="785.384" r="4" fill="#0" id="circle30"/>
	<circle cx="124.051" cy="77.7155" r="4" fill="#0" id="circle31"/>
	<circle cx="128.263" cy="317.817" r="4" fill="#0" id="circle32"/>
	<circle cx="130.369" cy="168.28" r="4" fill="#0" id="circle33"/>
	<circle cx="130.369" cy="189.342" r="4" fill="#0" id="circle34"/>
	<circle cx="130.369" cy="210.403" r="4" fill="#0" id="circle35"/>
	<circle cx="130.369" cy="231.465" r="4" fill="#0" id="circle36"/>
	<circle cx="130.369" cy="515.796" r="4" fill="#0" id="circle37"/>
	<circle cx="130.369" cy="536.858" r="4" fill="#0" id="circle38"/>
	<circle cx="130.369" cy="608.467" r="4" fill="#0" id="circle39"/>
	<circle cx="130.369" cy="629.529" r="4" fill="#0" id="circle40"/>
	<circle cx="140.9" cy="484.204" r="4" fill="#0" id="circle41"/>
	<circle cx="140.9" cy="774.854" r="4" fill="#0" id="circle42"/>
	<circle cx="143.006" cy="88.2463" r="4" fill="#0" id="circle43"/>
	<circle cx="149.325" cy="311.499" r="4" fill="#0" id="circle44"/>
	<circle cx="151.431" cy="463.142" r="4" fill="#0" id="circle45"/>
	<circle cx="161.962" cy="442.081" r="4" fill="#0" id="circle46"/>
	<circle cx="161.962" cy="774.854" r="4" fill="#0" id="circle47"/>
	<circle cx="164.068" cy="88.2463" r="4" fill="#0" id="circle48"/>
	<circle cx="168.28" cy="322.03" r="4" fill="#0" id="circle49"/>
	<circle cx="172.493" cy="421.019" r="4" fill="#0" id="circle50"/>
	<circle cx="180.917" cy="785.384" r="4" fill="#0" id="circle51"/>
	<circle cx="183.023" cy="399.958" r="4" fill="#0" id="circle52"/>
	<circle cx="185.13" cy="94.5648" r="4" fill="#0" id="circle53"/>
	<circle cx="185.13" cy="336.773" r="4" fill="#0" id="circle54"/>
	<circle cx="195.66" cy="802.234" r="4" fill="#0" id="circle55"/>
	<circle cx="199.873" cy="353.622" r="4" fill="#0" id="circle56"/>
	<circle cx="199.873" cy="383.108" r="4" fill="#0" id="circle57"/>
	<circle cx="204.085" cy="84.034" r="4" fill="#0" id="circle58"/>
	<circle cx="206.191" cy="821.189" r="4" fill="#0" id="circle59"/>
	<circle cx="214.616" cy="842.251" r="4" fill="#0" id="circle60"/>
	<circle cx="225.146" cy="73.5032" r="4" fill="#0" id="circle61"/>
	<circle cx="225.146" cy="861.206" r="4" fill="#0" id="circle62"/>
	<circle cx="235.677" cy="880.161" r="4" fill="#0" id="circle63"/>
	<circle cx="246.208" cy="62.9724" r="4" fill="#0" id="circle64"/>
	<circle cx="248.314" cy="897.011" r="4" fill="#0" id="circle65"/>
	<circle cx="258.845" cy="915.966" r="4" fill="#0" id="circle66"/>
	<circle cx="267.27" cy="52.4416" r="4" fill="#0" id="circle67"/>
	<circle cx="267.27" cy="937.028" r="4" fill="#0" id="circle68"/>
	<circle cx="284.119" cy="951.771" r="4" fill="#0" id="circle69"/>
	<circle cx="288.331" cy="46.1231" r="4" fill="#0" id="circle70"/>
	<circle cx="300.968" cy="964.408" r="4" fill="#0" id="circle71"/>
	<circle cx="307.287" cy="35.5924" r="4" fill="#0" id="circle72"/>
	<circle cx="319.924" cy="974.938" r="4" fill="#0" id="circle73"/>
	<circle cx="326.242" cy="25.0616" r="4" fill="#0" id="circle74"/>
	<circle cx="338.879" cy="985.469" r="4" fill="#0" id="circle75"/>
	<circle cx="347.304" cy="14.5308" r="4" fill="#0" id="circle76"/>
	<circle cx="359.941" cy="985.469" r="4" fill="#0" id="circle77"/>
	<circle cx="368.365" cy="14.5308" r="4" fill="#0" id="circle78"/>
	<circle cx="378.896" cy="996" r="4" fill="#0" id="circle79"/>
	<circle cx="389.427" cy="14.5308" r="4" fill="#0" id="circle80"/>
	<circle cx="399.958" cy="996" r="4" fill="#0" id="circle81"/>
	<circle cx="410.488" cy="14.5308" r="4" fill="#0" id="circle82"/>
	<circle cx="421.019" cy="996" r="4" fill="#0" id="circle83"/>
	<circle cx="431.55" cy="14.5308" r="4" fill="#0" id="circle84"/>
	<circle cx="442.081" cy="996" r="4" fill="#0" id="circle85"/>
	<circle cx="452.611" cy="4" r="4" fill="#0" id="circle86"/>
	<circle cx="461.036" cy="985.469" r="4" fill="#0" id="circle87"/>
	<circle cx="471.567" cy="14.5308" r="4" fill="#0" id="circle88"/>
	<circle cx="482.098" cy="985.469" r="4" fill="#0" id="circle89"/>
	<circle cx="492.628" cy="6.10616" r="4" fill="#0" id="circle90"/>
	<circle cx="501.053" cy="974.938" r="4" fill="#0" id="circle91"/>
	<circle cx="513.69" cy="14.5308" r="4" fill="#0" id="circle92"/>
	<circle cx="522.115" cy="964.408" r="4" fill="#0" id="circle93"/>
	<circle cx="534.752" cy="14.5308" r="4" fill="#0" id="circle94"/>
	<circle cx="543.176" cy="953.877" r="4" fill="#0" id="circle95"/>
	<circle cx="553.707" cy="25.0616" r="4" fill="#0" id="circle96"/>
	<circle cx="562.132" cy="943.346" r="4" fill="#0" id="circle97"/>
	<circle cx="574.769" cy="25.0616" r="4" fill="#0" id="circle98"/>
	<circle cx="578.981" cy="930.709" r="4" fill="#0" id="circle99"/>
	<circle cx="593.724" cy="35.5924" r="4" fill="#0" id="circle100"/>
	<circle cx="595.83" cy="901.223" r="4" fill="#0" id="circle101"/>
	<circle cx="606.361" cy="880.161" r="4" fill="#0" id="circle102"/>
	<circle cx="614.786" cy="39.8047" r="4" fill="#0" id="circle103"/>
	<circle cx="616.892" cy="859.1" r="4" fill="#0" id="circle104"/>
	<circle cx="627.423" cy="838.038" r="4" fill="#0" id="circle105"/>
	<circle cx="633.741" cy="50.3355" r="4" fill="#0" id="circle106"/>
	<circle cx="637.953" cy="816.977" r="4" fill="#0" id="circle107"/>
	<circle cx="648.484" cy="795.915" r="4" fill="#0" id="circle108"/>
	<circle cx="654.803" cy="58.7601" r="4" fill="#0" id="circle109"/>
	<circle cx="659.015" cy="774.854" r="4" fill="#0" id="circle110"/>
	<circle cx="669.546" cy="75.6093" r="4" fill="#0" id="circle111"/>
	<circle cx="669.546" cy="311.499" r="4" fill="#0" id="circle112"/>
	<circle cx="669.546" cy="332.561" r="4" fill="#0" id="circle113"/>
	<circle cx="669.546" cy="753.792" r="4" fill="#0" id="circle114"/>
	<circle cx="680.076" cy="351.516" r="4" fill="#0" id="circle115"/>
	<circle cx="680.076" cy="732.73" r="4" fill="#0" id="circle116"/>
	<circle cx="690.607" cy="84.034" r="4" fill="#0" id="circle117"/>
	<circle cx="690.607" cy="300.968" r="4" fill="#0" id="circle118"/>
	<circle cx="690.607" cy="370.471" r="4" fill="#0" id="circle119"/>
	<circle cx="690.607" cy="701.138" r="4" fill="#0" id="circle120"/>
	<circle cx="701.138" cy="389.427" r="4" fill="#0" id="circle121"/>
	<circle cx="701.138" cy="680.076" r="4" fill="#0" id="circle122"/>
	<circle cx="705.35" cy="100.883" r="4" fill="#0" id="circle123"/>
	<circle cx="711.669" cy="300.968" r="4" fill="#0" id="circle124"/>
	<circle cx="711.669" cy="408.382" r="4" fill="#0" id="circle125"/>
	<circle cx="711.669" cy="648.484" r="4" fill="#0" id="circle126"/>
	<circle cx="715.881" cy="119.839" r="4" fill="#0" id="circle127"/>
	<circle cx="722.2" cy="427.338" r="4" fill="#0" id="circle128"/>
	<circle cx="722.2" cy="627.423" r="4" fill="#0" id="circle129"/>
	<circle cx="726.412" cy="448.399" r="4" fill="#0" id="circle130"/>
	<circle cx="730.624" cy="136.688" r="4" fill="#0" id="circle131"/>
	<circle cx="730.624" cy="290.437" r="4" fill="#0" id="circle132"/>
	<circle cx="732.73" cy="157.749" r="4" fill="#0" id="circle133"/>
	<circle cx="732.73" cy="185.13" r="4" fill="#0" id="circle134"/>
	<circle cx="732.73" cy="553.707" r="4" fill="#0" id="circle135"/>
	<circle cx="732.73" cy="574.769" r="4" fill="#0" id="circle136"/>
	<circle cx="732.73" cy="595.83" r="4" fill="#0" id="circle137"/>
	<circle cx="736.943" cy="467.355" r="4" fill="#0" id="circle138"/>
	<circle cx="743.261" cy="204.085" r="4" fill="#0" id="circle139"/>
	<circle cx="743.261" cy="488.416" r="4" fill="#0" id="circle140"/>
	<circle cx="743.261" cy="509.478" r="4" fill="#0" id="circle141"/>
	<circle cx="743.261" cy="530.539" r="4" fill="#0" id="circle142"/>
	<circle cx="749.58" cy="279.907" r="4" fill="#0" id="circle143"/>
	<circle cx="764.323" cy="204.085" r="4" fill="#0" id="circle144"/>
	<circle cx="770.641" cy="275.694" r="4" fill="#0" id="circle145"/>
	<circle cx="783.278" cy="214.616" r="4" fill="#0" id="circle146"/>
	<circle cx="791.703" cy="265.163" r="4" fill="#0" id="circle147"/>
	<circle cx="804.34" cy="210.403" r="4" fill="#0" id="circle148"/>
	<circle cx="812.764" cy="254.633" r="4" fill="#0" id="circle149"/>
	<circle cx="825.401" cy="204.085" r="4" fill="#0" id="circle150"/>
	<circle cx="827.507" cy="237.783" r="4" fill="#0" id="circle151"/>
	<circle cx="846.463" cy="208.297" r="4" fill="#0" id="circle152"/>
	</g>
</svg>