<?xml version="1.0" encoding="UTF-8" standalone="no"?>
<!-- Created with CurveBenchmark -->
<svg
	xmlns:dc="http://purl.org/dc/elements/1.1/"
	xmlns:cc="http://creativecommons.org/ns#"
	xmlns:rdf="http://www.w3.org/1999/02/22-rdf-syntax-ns#"
	xmlns:svg="http://www.w3.org/2000/svg"
	xmlns="http://www.w3.org/2000/svg"
	xmlns:sodipodi="http://sodipodi.sourceforge.net/DTD/sodipodi-0.dtd"
	xmlns:inkscape="http://www.inkscape.org/namespaces/inkscape"
	width="1000"
	height="1000"
	id="svg2"
	version="1.1"
	sodipodi:docname="manifold/peel-hammer075.png.txt">
<defs
	id="defs4" />
<metadata
	id="metadata7">
	<rdf:RDF>
		<cc:Work
			rdf:about="">
			<dc:format>image/svg+xml</dc:format>
			<dc:type
				rdf:resource="http://purl.org/dc/dcmitype/StillImage" />
			<dc:title></dc:title>
		</cc:Work>
	</rdf:RDF>
</metadata>
<g
	inkscape:label="Layer 1"
	inkscape:groupmode="layer"
	id="layer1">
	<path style="fill:none;stroke:red;stroke-width:1px;stroke-linecap:butt;stroke-linejoin:miter;stroke-opacity:1" d="M 21.2522,67.258 9.75072,113.264 z" id="boundary" inkscape:connector-curvature="0" />
	<path style="fill:none;stroke:red;stroke-width:1px;stroke-linecap:butt;stroke-linejoin:miter;stroke-opacity:1" d="M 73.0087,265.658 73.0087,294.412 z" id="boundary" inkscape:connector-curvature="0" />
	<path style="fill:none;stroke:red;stroke-width:1px;stroke-linecap:butt;stroke-linejoin:miter;stroke-opacity:1" d="M 27.0029,179.397 4,159.27 z" id="boundary" inkscape:connector-curvature="0" />
	<path style="fill:none;stroke:red;stroke-width:1px;stroke-linecap:butt;stroke-linejoin:miter;stroke-opacity:1" d="M 4,159.27 9.75072,113.264 z" id="boundary" inkscape:connector-curvature="0" />
	<path style="fill:none;stroke:red;stroke-width:1px;stroke-linecap:butt;stroke-linejoin:miter;stroke-opacity:1" d="M 75.8841,4 104.638,4 z" id="boundary" inkscape:connector-curvature="0" />
	<path style="fill:none;stroke:red;stroke-width:1px;stroke-linecap:butt;stroke-linejoin:miter;stroke-opacity:1" d="M 47.1304,12.6261 75.8841,4 z" id="boundary" inkscape:connector-curvature="0" />
	<path style="fill:none;stroke:red;stroke-width:1px;stroke-linecap:butt;stroke-linejoin:miter;stroke-opacity:1" d="M 47.1304,12.6261 32.7536,38.5043 z" id="boundary" inkscape:connector-curvature="0" />
	<path style="fill:none;stroke:red;stroke-width:1px;stroke-linecap:butt;stroke-linejoin:miter;stroke-opacity:1" d="M 27.0029,179.397 55.7565,179.397 z" id="boundary" inkscape:connector-curvature="0" />
	<path style="fill:none;stroke:red;stroke-width:1px;stroke-linecap:butt;stroke-linejoin:miter;stroke-opacity:1" d="M 44.2551,964.371 44.2551,935.617 z" id="boundary" inkscape:connector-curvature="0" />
	<path style="fill:none;stroke:red;stroke-width:1px;stroke-linecap:butt;stroke-linejoin:miter;stroke-opacity:1" d="M 50.0058,469.809 50.0058,498.562 z" id="boundary" inkscape:connector-curvature="0" />
	<path style="fill:none;stroke:red;stroke-width:1px;stroke-linecap:butt;stroke-linejoin:miter;stroke-opacity:1" d="M 44.2551,993.125 44.2551,964.371 z" id="boundary" inkscape:connector-curvature="0" />
	<path style="fill:none;stroke:red;stroke-width:1px;stroke-linecap:butt;stroke-linejoin:miter;stroke-opacity:1" d="M 50.0058,527.316 50.0058,498.562 z" id="boundary" inkscape:connector-curvature="0" />
	<path style="fill:none;stroke:red;stroke-width:1px;stroke-linecap:butt;stroke-linejoin:miter;stroke-opacity:1" d="M 50.0058,556.07 50.0058,527.316 z" id="boundary" inkscape:connector-curvature="0" />
	<path style="fill:none;stroke:red;stroke-width:1px;stroke-linecap:butt;stroke-linejoin:miter;stroke-opacity:1" d="M 50.0058,584.823 50.0058,556.07 z" id="boundary" inkscape:connector-curvature="0" />
	<path style="fill:none;stroke:red;stroke-width:1px;stroke-linecap:butt;stroke-linejoin:miter;stroke-opacity:1" d="M 55.7565,179.397 67.258,208.151 z" id="boundary" inkscape:connector-curvature="0" />
	<path style="fill:none;stroke:red;stroke-width:1px;stroke-linecap:butt;stroke-linejoin:miter;stroke-opacity:1" d="M 50.0058,613.577 50.0058,584.823 z" id="boundary" inkscape:connector-curvature="0" />
	<path style="fill:none;stroke:red;stroke-width:1px;stroke-linecap:butt;stroke-linejoin:miter;stroke-opacity:1" d="M 73.0087,236.904 67.258,208.151 z" id="boundary" inkscape:connector-curvature="0" />
	<path style="fill:none;stroke:red;stroke-width:1px;stroke-linecap:butt;stroke-linejoin:miter;stroke-opacity:1" d="M 50.0058,642.33 50.0058,613.577 z" id="boundary" inkscape:connector-curvature="0" />
	<path style="fill:none;stroke:red;stroke-width:1px;stroke-linecap:butt;stroke-linejoin:miter;stroke-opacity:1" d="M 50.0058,671.084 50.0058,642.33 z" id="boundary" inkscape:connector-curvature="0" />
	<path style="fill:none;stroke:red;stroke-width:1px;stroke-linecap:butt;stroke-linejoin:miter;stroke-opacity:1" d="M 144.893,429.554 150.643,458.307 z" id="boundary" inkscape:connector-curvature="0" />
	<path style="fill:none;stroke:red;stroke-width:1px;stroke-linecap:butt;stroke-linejoin:miter;stroke-opacity:1" d="M 50.0058,699.838 50.0058,671.084 z" id="boundary" inkscape:connector-curvature="0" />
	<path style="fill:none;stroke:red;stroke-width:1px;stroke-linecap:butt;stroke-linejoin:miter;stroke-opacity:1" d="M 67.258,435.304 73.0087,380.672 z" id="boundary" inkscape:connector-curvature="0" />
	<path style="fill:none;stroke:red;stroke-width:1px;stroke-linecap:butt;stroke-linejoin:miter;stroke-opacity:1" d="M 50.0058,728.591 50.0058,699.838 z" id="boundary" inkscape:connector-curvature="0" />
	<path style="fill:none;stroke:red;stroke-width:1px;stroke-linecap:butt;stroke-linejoin:miter;stroke-opacity:1" d="M 139.142,400.8 139.142,372.046 z" id="boundary" inkscape:connector-curvature="0" />
	<path style="fill:none;stroke:red;stroke-width:1px;stroke-linecap:butt;stroke-linejoin:miter;stroke-opacity:1" d="M 139.142,343.293 139.142,372.046 z" id="boundary" inkscape:connector-curvature="0" />
	<path style="fill:none;stroke:red;stroke-width:1px;stroke-linecap:butt;stroke-linejoin:miter;stroke-opacity:1" d="M 50.0058,757.345 50.0058,728.591 z" id="boundary" inkscape:connector-curvature="0" />
	<path style="fill:none;stroke:red;stroke-width:1px;stroke-linecap:butt;stroke-linejoin:miter;stroke-opacity:1" d="M 73.0087,351.919 73.0087,380.672 z" id="boundary" inkscape:connector-curvature="0" />
	<path style="fill:none;stroke:red;stroke-width:1px;stroke-linecap:butt;stroke-linejoin:miter;stroke-opacity:1" d="M 50.0058,786.099 50.0058,757.345 z" id="boundary" inkscape:connector-curvature="0" />
	<path style="fill:none;stroke:red;stroke-width:1px;stroke-linecap:butt;stroke-linejoin:miter;stroke-opacity:1" d="M 144.893,429.554 139.142,400.8 z" id="boundary" inkscape:connector-curvature="0" />
	<path style="fill:none;stroke:red;stroke-width:1px;stroke-linecap:butt;stroke-linejoin:miter;stroke-opacity:1" d="M 50.0058,814.852 50.0058,786.099 z" id="boundary" inkscape:connector-curvature="0" />
	<path style="fill:none;stroke:red;stroke-width:1px;stroke-linecap:butt;stroke-linejoin:miter;stroke-opacity:1" d="M 167.896,481.31 167.896,510.064 z" id="boundary" inkscape:connector-curvature="0" />
	<path style="fill:none;stroke:red;stroke-width:1px;stroke-linecap:butt;stroke-linejoin:miter;stroke-opacity:1" d="M 167.896,481.31 150.643,458.307 z" id="boundary" inkscape:connector-curvature="0" />
	<path style="fill:none;stroke:red;stroke-width:1px;stroke-linecap:butt;stroke-linejoin:miter;stroke-opacity:1" d="M 50.0058,843.606 50.0058,814.852 z" id="boundary" inkscape:connector-curvature="0" />
	<path style="fill:none;stroke:red;stroke-width:1px;stroke-linecap:butt;stroke-linejoin:miter;stroke-opacity:1" d="M 167.896,538.817 167.896,510.064 z" id="boundary" inkscape:connector-curvature="0" />
	<path style="fill:none;stroke:red;stroke-width:1px;stroke-linecap:butt;stroke-linejoin:miter;stroke-opacity:1" d="M 50.0058,872.359 50.0058,843.606 z" id="boundary" inkscape:connector-curvature="0" />
	<path style="fill:none;stroke:red;stroke-width:1px;stroke-linecap:butt;stroke-linejoin:miter;stroke-opacity:1" d="M 44.2551,935.617 50.0058,901.113 z" id="boundary" inkscape:connector-curvature="0" />
	<path style="fill:none;stroke:red;stroke-width:1px;stroke-linecap:butt;stroke-linejoin:miter;stroke-opacity:1" d="M 50.0058,901.113 50.0058,872.359 z" id="boundary" inkscape:connector-curvature="0" />
	<path style="fill:none;stroke:red;stroke-width:1px;stroke-linecap:butt;stroke-linejoin:miter;stroke-opacity:1" d="M 167.896,941.368 167.896,912.614 z" id="boundary" inkscape:connector-curvature="0" />
	<path style="fill:none;stroke:red;stroke-width:1px;stroke-linecap:butt;stroke-linejoin:miter;stroke-opacity:1" d="M 139.142,314.539 139.142,343.293 z" id="boundary" inkscape:connector-curvature="0" />
	<path style="fill:none;stroke:red;stroke-width:1px;stroke-linecap:butt;stroke-linejoin:miter;stroke-opacity:1" d="M 167.896,682.586 167.896,653.832 z" id="boundary" inkscape:connector-curvature="0" />
	<path style="fill:none;stroke:red;stroke-width:1px;stroke-linecap:butt;stroke-linejoin:miter;stroke-opacity:1" d="M 73.0087,996 44.2551,993.125 z" id="boundary" inkscape:connector-curvature="0" />
	<path style="fill:none;stroke:red;stroke-width:1px;stroke-linecap:butt;stroke-linejoin:miter;stroke-opacity:1" d="M 73.0087,323.165 73.0087,351.919 z" id="boundary" inkscape:connector-curvature="0" />
	<path style="fill:none;stroke:red;stroke-width:1px;stroke-linecap:butt;stroke-linejoin:miter;stroke-opacity:1" d="M 167.896,768.846 167.896,740.093 z" id="boundary" inkscape:connector-curvature="0" />
	<path style="fill:none;stroke:red;stroke-width:1px;stroke-linecap:butt;stroke-linejoin:miter;stroke-opacity:1" d="M 73.0087,236.904 73.0087,265.658 z" id="boundary" inkscape:connector-curvature="0" />
	<path style="fill:none;stroke:red;stroke-width:1px;stroke-linecap:butt;stroke-linejoin:miter;stroke-opacity:1" d="M 32.7536,38.5043 21.2522,67.258 z" id="boundary" inkscape:connector-curvature="0" />
	<path style="fill:none;stroke:red;stroke-width:1px;stroke-linecap:butt;stroke-linejoin:miter;stroke-opacity:1" d="M 73.0087,294.412 73.0087,323.165 z" id="boundary" inkscape:connector-curvature="0" />
	<path style="fill:none;stroke:red;stroke-width:1px;stroke-linecap:butt;stroke-linejoin:miter;stroke-opacity:1" d="M 133.391,4 104.638,4 z" id="boundary" inkscape:connector-curvature="0" />
	<path style="fill:none;stroke:red;stroke-width:1px;stroke-linecap:butt;stroke-linejoin:miter;stroke-opacity:1" d="M 50.0058,469.809 67.258,435.304 z" id="boundary" inkscape:connector-curvature="0" />
	<path style="fill:none;stroke:red;stroke-width:1px;stroke-linecap:butt;stroke-linejoin:miter;stroke-opacity:1" d="M 144.893,199.525 144.893,228.278 z" id="boundary" inkscape:connector-curvature="0" />
	<path style="fill:none;stroke:red;stroke-width:1px;stroke-linecap:butt;stroke-linejoin:miter;stroke-opacity:1" d="M 167.896,855.107 167.896,826.354 z" id="boundary" inkscape:connector-curvature="0" />
	<path style="fill:none;stroke:red;stroke-width:1px;stroke-linecap:butt;stroke-linejoin:miter;stroke-opacity:1" d="M 139.142,257.032 139.142,285.786 z" id="boundary" inkscape:connector-curvature="0" />
	<path style="fill:none;stroke:red;stroke-width:1px;stroke-linecap:butt;stroke-linejoin:miter;stroke-opacity:1" d="M 101.762,996 73.0087,996 z" id="boundary" inkscape:connector-curvature="0" />
	<path style="fill:none;stroke:red;stroke-width:1px;stroke-linecap:butt;stroke-linejoin:miter;stroke-opacity:1" d="M 139.142,285.786 139.142,314.539 z" id="boundary" inkscape:connector-curvature="0" />
	<path style="fill:none;stroke:red;stroke-width:1px;stroke-linecap:butt;stroke-linejoin:miter;stroke-opacity:1" d="M 167.896,883.861 167.896,912.614 z" id="boundary" inkscape:connector-curvature="0" />
	<path style="fill:none;stroke:red;stroke-width:1px;stroke-linecap:butt;stroke-linejoin:miter;stroke-opacity:1" d="M 139.142,257.032 144.893,228.278 z" id="boundary" inkscape:connector-curvature="0" />
	<path style="fill:none;stroke:red;stroke-width:1px;stroke-linecap:butt;stroke-linejoin:miter;stroke-opacity:1" d="M 167.896,567.571 167.896,538.817 z" id="boundary" inkscape:connector-curvature="0" />
	<path style="fill:none;stroke:red;stroke-width:1px;stroke-linecap:butt;stroke-linejoin:miter;stroke-opacity:1" d="M 167.896,596.325 167.896,567.571 z" id="boundary" inkscape:connector-curvature="0" />
	<path style="fill:none;stroke:red;stroke-width:1px;stroke-linecap:butt;stroke-linejoin:miter;stroke-opacity:1" d="M 144.893,199.525 156.394,147.768 z" id="boundary" inkscape:connector-curvature="0" />
	<path style="fill:none;stroke:red;stroke-width:1px;stroke-linecap:butt;stroke-linejoin:miter;stroke-opacity:1" d="M 167.896,883.861 167.896,855.107 z" id="boundary" inkscape:connector-curvature="0" />
	<path style="fill:none;stroke:red;stroke-width:1px;stroke-linecap:butt;stroke-linejoin:miter;stroke-opacity:1" d="M 156.394,147.768 162.145,96.0116 z" id="boundary" inkscape:connector-curvature="0" />
	<path style="fill:none;stroke:red;stroke-width:1px;stroke-linecap:butt;stroke-linejoin:miter;stroke-opacity:1" d="M 162.145,96.0116 185.148,73.0087 z" id="boundary" inkscape:connector-curvature="0" />
	<path style="fill:none;stroke:red;stroke-width:1px;stroke-linecap:butt;stroke-linejoin:miter;stroke-opacity:1" d="M 133.391,4 162.145,4 z" id="boundary" inkscape:connector-curvature="0" />
	<path style="fill:none;stroke:red;stroke-width:1px;stroke-linecap:butt;stroke-linejoin:miter;stroke-opacity:1" d="M 167.896,625.078 167.896,596.325 z" id="boundary" inkscape:connector-curvature="0" />
	<path style="fill:none;stroke:red;stroke-width:1px;stroke-linecap:butt;stroke-linejoin:miter;stroke-opacity:1" d="M 188.023,18.3768 185.148,73.0087 z" id="boundary" inkscape:connector-curvature="0" />
	<path style="fill:none;stroke:red;stroke-width:1px;stroke-linecap:butt;stroke-linejoin:miter;stroke-opacity:1" d="M 188.023,18.3768 162.145,4 z" id="boundary" inkscape:connector-curvature="0" />
	<path style="fill:none;stroke:red;stroke-width:1px;stroke-linecap:butt;stroke-linejoin:miter;stroke-opacity:1" d="M 167.896,653.832 167.896,625.078 z" id="boundary" inkscape:connector-curvature="0" />
	<path style="fill:none;stroke:red;stroke-width:1px;stroke-linecap:butt;stroke-linejoin:miter;stroke-opacity:1" d="M 167.896,682.586 167.896,711.339 z" id="boundary" inkscape:connector-curvature="0" />
	<path style="fill:none;stroke:red;stroke-width:1px;stroke-linecap:butt;stroke-linejoin:miter;stroke-opacity:1" d="M 167.896,711.339 167.896,740.093 z" id="boundary" inkscape:connector-curvature="0" />
	<path style="fill:none;stroke:red;stroke-width:1px;stroke-linecap:butt;stroke-linejoin:miter;stroke-opacity:1" d="M 167.896,797.6 167.896,768.846 z" id="boundary" inkscape:connector-curvature="0" />
	<path style="fill:none;stroke:red;stroke-width:1px;stroke-linecap:butt;stroke-linejoin:miter;stroke-opacity:1" d="M 167.896,826.354 167.896,797.6 z" id="boundary" inkscape:connector-curvature="0" />
	<path style="fill:none;stroke:red;stroke-width:1px;stroke-linecap:butt;stroke-linejoin:miter;stroke-opacity:1" d="M 101.762,996 130.516,996 z" id="boundary" inkscape:connector-curvature="0" />
	<path style="fill:none;stroke:red;stroke-width:1px;stroke-linecap:butt;stroke-linejoin:miter;stroke-opacity:1" d="M 167.896,941.368 173.646,970.122 z" id="boundary" inkscape:connector-curvature="0" />
	<path style="fill:none;stroke:red;stroke-width:1px;stroke-linecap:butt;stroke-linejoin:miter;stroke-opacity:1" d="M 173.646,970.122 159.27,996 z" id="boundary" inkscape:connector-curvature="0" />
	<path style="fill:none;stroke:red;stroke-width:1px;stroke-linecap:butt;stroke-linejoin:miter;stroke-opacity:1" d="M 159.27,996 130.516,996 z" id="boundary" inkscape:connector-curvature="0" />
	<circle cx="4" cy="159.27" r="4" fill="#0" id="circle0"/>
	<circle cx="9.75072" cy="113.264" r="4" fill="#0" id="circle1"/>
	<circle cx="21.2522" cy="67.258" r="4" fill="#0" id="circle2"/>
	<circle cx="27.0029" cy="179.397" r="4" fill="#0" id="circle3"/>
	<circle cx="32.7536" cy="38.5043" r="4" fill="#0" id="circle4"/>
	<circle cx="44.2551" cy="935.617" r="4" fill="#0" id="circle5"/>
	<circle cx="44.2551" cy="964.371" r="4" fill="#0" id="circle6"/>
	<circle cx="44.2551" cy="993.125" r="4" fill="#0" id="circle7"/>
	<circle cx="47.1304" cy="12.6261" r="4" fill="#0" id="circle8"/>
	<circle cx="50.0058" cy="469.809" r="4" fill="#0" id="circle9"/>
	<circle cx="50.0058" cy="498.562" r="4" fill="#0" id="circle10"/>
	<circle cx="50.0058" cy="527.316" r="4" fill="#0" id="circle11"/>
	<circle cx="50.0058" cy="556.07" r="4" fill="#0" id="circle12"/>
	<circle cx="50.0058" cy="584.823" r="4" fill="#0" id="circle13"/>
	<circle cx="50.0058" cy="613.577" r="4" fill="#0" id="circle14"/>
	<circle cx="50.0058" cy="642.33" r="4" fill="#0" id="circle15"/>
	<circle cx="50.0058" cy="671.084" r="4" fill="#0" id="circle16"/>
	<circle cx="50.0058" cy="699.838" r="4" fill="#0" id="circle17"/>
	<circle cx="50.0058" cy="728.591" r="4" fill="#0" id="circle18"/>
	<circle cx="50.0058" cy="757.345" r="4" fill="#0" id="circle19"/>
	<circle cx="50.0058" cy="786.099" r="4" fill="#0" id="circle20"/>
	<circle cx="50.0058" cy="814.852" r="4" fill="#0" id="circle21"/>
	<circle cx="50.0058" cy="843.606" r="4" fill="#0" id="circle22"/>
	<circle cx="50.0058" cy="872.359" r="4" fill="#0" id="circle23"/>
	<circle cx="50.0058" cy="901.113" r="4" fill="#0" id="circle24"/>
	<circle cx="55.7565" cy="179.397" r="4" fill="#0" id="circle25"/>
	<circle cx="67.258" cy="208.151" r="4" fill="#0" id="circle26"/>
	<circle cx="67.258" cy="435.304" r="4" fill="#0" id="circle27"/>
	<circle cx="73.0087" cy="236.904" r="4" fill="#0" id="circle28"/>
	<circle cx="73.0087" cy="265.658" r="4" fill="#0" id="circle29"/>
	<circle cx="73.0087" cy="294.412" r="4" fill="#0" id="circle30"/>
	<circle cx="73.0087" cy="323.165" r="4" fill="#0" id="circle31"/>
	<circle cx="73.0087" cy="351.919" r="4" fill="#0" id="circle32"/>
	<circle cx="73.0087" cy="380.672" r="4" fill="#0" id="circle33"/>
	<circle cx="73.0087" cy="996" r="4" fill="#0" id="circle34"/>
	<circle cx="75.8841" cy="4" r="4" fill="#0" id="circle35"/>
	<circle cx="101.762" cy="996" r="4" fill="#0" id="circle36"/>
	<circle cx="104.638" cy="4" r="4" fill="#0" id="circle37"/>
	<circle cx="130.516" cy="996" r="4" fill="#0" id="circle38"/>
	<circle cx="133.391" cy="4" r="4" fill="#0" id="circle39"/>
	<circle cx="139.142" cy="257.032" r="4" fill="#0" id="circle40"/>
	<circle cx="139.142" cy="285.786" r="4" fill="#0" id="circle41"/>
	<circle cx="139.142" cy="314.539" r="4" fill="#0" id="circle42"/>
	<circle cx="139.142" cy="343.293" r="4" fill="#0" id="circle43"/>
	<circle cx="139.142" cy="372.046" r="4" fill="#0" id="circle44"/>
	<circle cx="139.142" cy="400.8" r="4" fill="#0" id="circle45"/>
	<circle cx="144.893" cy="199.525" r="4" fill="#0" id="circle46"/>
	<circle cx="144.893" cy="228.278" r="4" fill="#0" id="circle47"/>
	<circle cx="144.893" cy="429.554" r="4" fill="#0" id="circle48"/>
	<circle cx="150.643" cy="458.307" r="4" fill="#0" id="circle49"/>
	<circle cx="156.394" cy="147.768" r="4" fill="#0" id="circle50"/>
	<circle cx="159.27" cy="996" r="4" fill="#0" id="circle51"/>
	<circle cx="162.145" cy="4" r="4" fill="#0" id="circle52"/>
	<circle cx="162.145" cy="96.0116" r="4" fill="#0" id="circle53"/>
	<circle cx="167.896" cy="481.31" r="4" fill="#0" id="circle54"/>
	<circle cx="167.896" cy="510.064" r="4" fill="#0" id="circle55"/>
	<circle cx="167.896" cy="538.817" r="4" fill="#0" id="circle56"/>
	<circle cx="167.896" cy="567.571" r="4" fill="#0" id="circle57"/>
	<circle cx="167.896" cy="596.325" r="4" fill="#0" id="circle58"/>
	<circle cx="167.896" cy="625.078" r="4" fill="#0" id="circle59"/>
	<circle cx="167.896" cy="653.832" r="4" fill="#0" id="circle60"/>
	<circle cx="167.896" cy="682.586" r="4" fill="#0" id="circle61"/>
	<circle cx="167.896" cy="711.339" r="4" fill="#0" id="circle62"/>
	<circle cx="167.896" cy="740.093" r="4" fill="#0" id="circle63"/>
	<circle cx="167.896" cy="768.846" r="4" fill="#0" id="circle64"/>
	<circle cx="167.896" cy="797.6" r="4" fill="#0" id="circle65"/>
	<circle cx="167.896" cy="826.354" r="4" fill="#0" id="circle66"/>
	<circle cx="167.896" cy="855.107" r="4" fill="#0" id="circle67"/>
	<circle cx="167.896" cy="883.861" r="4" fill="#0" id="circle68"/>
	<circle cx="167.896" cy="912.614" r="4" fill="#0" id="circle69"/>
	<circle cx="167.896" cy="941.368" r="4" fill="#0" id="circle70"/>
	<circle cx="173.646" cy="970.122" r="4" fill="#0" id="circle71"/>
	<circle cx="185.148" cy="73.0087" r="4" fill="#0" id="circle72"/>
	<circle cx="188.023" cy="18.3768" r="4" fill="#0" id="circle73"/>
	</g>
</svg>