<?xml version="1.0" encoding="UTF-8" standalone="no"?>
<!-- Created with CurveBenchmark -->
<svg
	xmlns:dc="http://purl.org/dc/elements/1.1/"
	xmlns:cc="http://creativecommons.org/ns#"
	xmlns:rdf="http://www.w3.org/1999/02/22-rdf-syntax-ns#"
	xmlns:svg="http://www.w3.org/2000/svg"
	xmlns="http://www.w3.org/2000/svg"
	xmlns:sodipodi="http://sodipodi.sourceforge.net/DTD/sodipodi-0.dtd"
	xmlns:inkscape="http://www.inkscape.org/namespaces/inkscape"
	width="1000"
	height="1000"
	id="svg2"
	version="1.1"
	sodipodi:docname="manifold/peel-brick12.png.txt">
<defs
	id="defs4" />
<metadata
	id="metadata7">
	<rdf:RDF>
		<cc:Work
			rdf:about="">
			<dc:format>image/svg+xml</dc:format>
			<dc:type
				rdf:resource="http://purl.org/dc/dcmitype/StillImage" />
			<dc:title></dc:title>
		</cc:Work>
	</rdf:RDF>
</metadata>
<g
	inkscape:label="Layer 1"
	inkscape:groupmode="layer"
	id="layer1">
	<path style="fill:none;stroke:red;stroke-width:1px;stroke-linecap:butt;stroke-linejoin:miter;stroke-opacity:1" d="M 13.3409,259.94 4,243.126 z" id="boundary" inkscape:connector-curvature="0" />
	<path style="fill:none;stroke:red;stroke-width:1px;stroke-linecap:butt;stroke-linejoin:miter;stroke-opacity:1" d="M 4,243.126 4,224.444 z" id="boundary" inkscape:connector-curvature="0" />
	<path style="fill:none;stroke:red;stroke-width:1px;stroke-linecap:butt;stroke-linejoin:miter;stroke-opacity:1" d="M 4,224.444 13.3409,205.763 z" id="boundary" inkscape:connector-curvature="0" />
	<path style="fill:none;stroke:red;stroke-width:1px;stroke-linecap:butt;stroke-linejoin:miter;stroke-opacity:1" d="M 28.2863,190.817 13.3409,205.763 z" id="boundary" inkscape:connector-curvature="0" />
	<path style="fill:none;stroke:red;stroke-width:1px;stroke-linecap:butt;stroke-linejoin:miter;stroke-opacity:1" d="M 28.2863,190.817 45.0998,181.476 z" id="boundary" inkscape:connector-curvature="0" />
	<path style="fill:none;stroke:red;stroke-width:1px;stroke-linecap:butt;stroke-linejoin:miter;stroke-opacity:1" d="M 39.4953,286.094 22.6817,276.753 z" id="boundary" inkscape:connector-curvature="0" />
	<path style="fill:none;stroke:red;stroke-width:1px;stroke-linecap:butt;stroke-linejoin:miter;stroke-opacity:1" d="M 22.6817,276.753 13.3409,259.94 z" id="boundary" inkscape:connector-curvature="0" />
	<path style="fill:none;stroke:red;stroke-width:1px;stroke-linecap:butt;stroke-linejoin:miter;stroke-opacity:1" d="M 58.177,286.094 39.4953,286.094 z" id="boundary" inkscape:connector-curvature="0" />
	<path style="fill:none;stroke:red;stroke-width:1px;stroke-linecap:butt;stroke-linejoin:miter;stroke-opacity:1" d="M 61.9134,172.136 45.0998,181.476 z" id="boundary" inkscape:connector-curvature="0" />
	<path style="fill:none;stroke:red;stroke-width:1px;stroke-linecap:butt;stroke-linejoin:miter;stroke-opacity:1" d="M 282.358,323.458 265.544,314.117 z" id="boundary" inkscape:connector-curvature="0" />
	<path style="fill:none;stroke:red;stroke-width:1px;stroke-linecap:butt;stroke-linejoin:miter;stroke-opacity:1" d="M 265.544,314.117 246.863,308.512 z" id="boundary" inkscape:connector-curvature="0" />
	<path style="fill:none;stroke:red;stroke-width:1px;stroke-linecap:butt;stroke-linejoin:miter;stroke-opacity:1" d="M 97.4087,56.3089 97.4087,37.6271 z" id="boundary" inkscape:connector-curvature="0" />
	<path style="fill:none;stroke:red;stroke-width:1px;stroke-linecap:butt;stroke-linejoin:miter;stroke-opacity:1" d="M 78.7269,159.058 61.9134,172.136 z" id="boundary" inkscape:connector-curvature="0" />
	<path style="fill:none;stroke:red;stroke-width:1px;stroke-linecap:butt;stroke-linejoin:miter;stroke-opacity:1" d="M 97.4087,74.9906 97.4087,56.3089 z" id="boundary" inkscape:connector-curvature="0" />
	<path style="fill:none;stroke:red;stroke-width:1px;stroke-linecap:butt;stroke-linejoin:miter;stroke-opacity:1" d="M 93.6723,144.113 78.7269,159.058 z" id="boundary" inkscape:connector-curvature="0" />
	<path style="fill:none;stroke:red;stroke-width:1px;stroke-linecap:butt;stroke-linejoin:miter;stroke-opacity:1" d="M 93.6723,276.753 76.8588,286.094 z" id="boundary" inkscape:connector-curvature="0" />
	<path style="fill:none;stroke:red;stroke-width:1px;stroke-linecap:butt;stroke-linejoin:miter;stroke-opacity:1" d="M 76.8588,286.094 58.177,286.094 z" id="boundary" inkscape:connector-curvature="0" />
	<path style="fill:none;stroke:red;stroke-width:1px;stroke-linecap:butt;stroke-linejoin:miter;stroke-opacity:1" d="M 129.168,267.412 147.849,267.412 z" id="boundary" inkscape:connector-curvature="0" />
	<path style="fill:none;stroke:red;stroke-width:1px;stroke-linecap:butt;stroke-linejoin:miter;stroke-opacity:1" d="M 97.4087,74.9906 97.4087,93.6723 z" id="boundary" inkscape:connector-curvature="0" />
	<path style="fill:none;stroke:red;stroke-width:1px;stroke-linecap:butt;stroke-linejoin:miter;stroke-opacity:1" d="M 97.4087,112.354 97.4087,93.6723 z" id="boundary" inkscape:connector-curvature="0" />
	<path style="fill:none;stroke:red;stroke-width:1px;stroke-linecap:butt;stroke-linejoin:miter;stroke-opacity:1" d="M 97.4087,37.6271 106.75,18.9454 z" id="boundary" inkscape:connector-curvature="0" />
	<path style="fill:none;stroke:red;stroke-width:1px;stroke-linecap:butt;stroke-linejoin:miter;stroke-opacity:1" d="M 106.75,18.9454 125.431,13.3409 z" id="boundary" inkscape:connector-curvature="0" />
	<path style="fill:none;stroke:red;stroke-width:1px;stroke-linecap:butt;stroke-linejoin:miter;stroke-opacity:1" d="M 93.6723,144.113 97.4087,112.354 z" id="boundary" inkscape:connector-curvature="0" />
	<path style="fill:none;stroke:red;stroke-width:1px;stroke-linecap:butt;stroke-linejoin:miter;stroke-opacity:1" d="M 125.431,13.3409 144.113,13.3409 z" id="boundary" inkscape:connector-curvature="0" />
	<path style="fill:none;stroke:red;stroke-width:1px;stroke-linecap:butt;stroke-linejoin:miter;stroke-opacity:1" d="M 162.795,13.3409 144.113,13.3409 z" id="boundary" inkscape:connector-curvature="0" />
	<path style="fill:none;stroke:red;stroke-width:1px;stroke-linecap:butt;stroke-linejoin:miter;stroke-opacity:1" d="M 110.486,267.412 93.6723,276.753 z" id="boundary" inkscape:connector-curvature="0" />
	<path style="fill:none;stroke:red;stroke-width:1px;stroke-linecap:butt;stroke-linejoin:miter;stroke-opacity:1" d="M 129.168,267.412 110.486,267.412 z" id="boundary" inkscape:connector-curvature="0" />
	<path style="fill:none;stroke:red;stroke-width:1px;stroke-linecap:butt;stroke-linejoin:miter;stroke-opacity:1" d="M 198.29,4 216.972,4 z" id="boundary" inkscape:connector-curvature="0" />
	<path style="fill:none;stroke:red;stroke-width:1px;stroke-linecap:butt;stroke-linejoin:miter;stroke-opacity:1" d="M 181.476,267.412 198.29,276.753 z" id="boundary" inkscape:connector-curvature="0" />
	<path style="fill:none;stroke:red;stroke-width:1px;stroke-linecap:butt;stroke-linejoin:miter;stroke-opacity:1" d="M 164.663,258.072 147.849,267.412 z" id="boundary" inkscape:connector-curvature="0" />
	<path style="fill:none;stroke:red;stroke-width:1px;stroke-linecap:butt;stroke-linejoin:miter;stroke-opacity:1" d="M 179.608,4 198.29,4 z" id="boundary" inkscape:connector-curvature="0" />
	<path style="fill:none;stroke:red;stroke-width:1px;stroke-linecap:butt;stroke-linejoin:miter;stroke-opacity:1" d="M 179.608,4 162.795,13.3409 z" id="boundary" inkscape:connector-curvature="0" />
	<path style="fill:none;stroke:red;stroke-width:1px;stroke-linecap:butt;stroke-linejoin:miter;stroke-opacity:1" d="M 181.476,267.412 164.663,258.072 z" id="boundary" inkscape:connector-curvature="0" />
	<path style="fill:none;stroke:red;stroke-width:1px;stroke-linecap:butt;stroke-linejoin:miter;stroke-opacity:1" d="M 302.908,35.7589 314.117,50.7043 z" id="boundary" inkscape:connector-curvature="0" />
	<path style="fill:none;stroke:red;stroke-width:1px;stroke-linecap:butt;stroke-linejoin:miter;stroke-opacity:1" d="M 198.29,276.753 215.104,286.094 z" id="boundary" inkscape:connector-curvature="0" />
	<path style="fill:none;stroke:red;stroke-width:1px;stroke-linecap:butt;stroke-linejoin:miter;stroke-opacity:1" d="M 287.962,22.6817 302.908,35.7589 z" id="boundary" inkscape:connector-curvature="0" />
	<path style="fill:none;stroke:red;stroke-width:1px;stroke-linecap:butt;stroke-linejoin:miter;stroke-opacity:1" d="M 287.962,22.6817 271.149,13.3409 z" id="boundary" inkscape:connector-curvature="0" />
	<path style="fill:none;stroke:red;stroke-width:1px;stroke-linecap:butt;stroke-linejoin:miter;stroke-opacity:1" d="M 271.149,13.3409 254.335,4 z" id="boundary" inkscape:connector-curvature="0" />
	<path style="fill:none;stroke:red;stroke-width:1px;stroke-linecap:butt;stroke-linejoin:miter;stroke-opacity:1" d="M 254.335,4 235.653,4 z" id="boundary" inkscape:connector-curvature="0" />
	<path style="fill:none;stroke:red;stroke-width:1px;stroke-linecap:butt;stroke-linejoin:miter;stroke-opacity:1" d="M 233.785,293.567 246.863,308.512 z" id="boundary" inkscape:connector-curvature="0" />
	<path style="fill:none;stroke:red;stroke-width:1px;stroke-linecap:butt;stroke-linejoin:miter;stroke-opacity:1" d="M 233.785,293.567 215.104,286.094 z" id="boundary" inkscape:connector-curvature="0" />
	<path style="fill:none;stroke:red;stroke-width:1px;stroke-linecap:butt;stroke-linejoin:miter;stroke-opacity:1" d="M 216.972,4 235.653,4 z" id="boundary" inkscape:connector-curvature="0" />
	<path style="fill:none;stroke:red;stroke-width:1px;stroke-linecap:butt;stroke-linejoin:miter;stroke-opacity:1" d="M 301.04,323.458 282.358,323.458 z" id="boundary" inkscape:connector-curvature="0" />
	<path style="fill:none;stroke:red;stroke-width:1px;stroke-linecap:butt;stroke-linejoin:miter;stroke-opacity:1" d="M 357.085,323.458 338.403,323.458 z" id="boundary" inkscape:connector-curvature="0" />
	<path style="fill:none;stroke:red;stroke-width:1px;stroke-linecap:butt;stroke-linejoin:miter;stroke-opacity:1" d="M 319.721,323.458 301.04,323.458 z" id="boundary" inkscape:connector-curvature="0" />
	<path style="fill:none;stroke:red;stroke-width:1px;stroke-linecap:butt;stroke-linejoin:miter;stroke-opacity:1" d="M 332.798,50.7043 349.612,60.0452 z" id="boundary" inkscape:connector-curvature="0" />
	<path style="fill:none;stroke:red;stroke-width:1px;stroke-linecap:butt;stroke-linejoin:miter;stroke-opacity:1" d="M 332.798,50.7043 314.117,50.7043 z" id="boundary" inkscape:connector-curvature="0" />
	<path style="fill:none;stroke:red;stroke-width:1px;stroke-linecap:butt;stroke-linejoin:miter;stroke-opacity:1" d="M 375.766,323.458 357.085,323.458 z" id="boundary" inkscape:connector-curvature="0" />
	<path style="fill:none;stroke:red;stroke-width:1px;stroke-linecap:butt;stroke-linejoin:miter;stroke-opacity:1" d="M 338.403,323.458 319.721,323.458 z" id="boundary" inkscape:connector-curvature="0" />
	<path style="fill:none;stroke:red;stroke-width:1px;stroke-linecap:butt;stroke-linejoin:miter;stroke-opacity:1" d="M 394.448,323.458 375.766,323.458 z" id="boundary" inkscape:connector-curvature="0" />
	<path style="fill:none;stroke:red;stroke-width:1px;stroke-linecap:butt;stroke-linejoin:miter;stroke-opacity:1" d="M 368.294,60.0452 349.612,60.0452 z" id="boundary" inkscape:connector-curvature="0" />
	<path style="fill:none;stroke:red;stroke-width:1px;stroke-linecap:butt;stroke-linejoin:miter;stroke-opacity:1" d="M 413.13,323.458 394.448,323.458 z" id="boundary" inkscape:connector-curvature="0" />
	<path style="fill:none;stroke:red;stroke-width:1px;stroke-linecap:butt;stroke-linejoin:miter;stroke-opacity:1" d="M 386.976,60.0452 368.294,60.0452 z" id="boundary" inkscape:connector-curvature="0" />
	<path style="fill:none;stroke:red;stroke-width:1px;stroke-linecap:butt;stroke-linejoin:miter;stroke-opacity:1" d="M 431.812,323.458 413.13,323.458 z" id="boundary" inkscape:connector-curvature="0" />
	<path style="fill:none;stroke:red;stroke-width:1px;stroke-linecap:butt;stroke-linejoin:miter;stroke-opacity:1" d="M 405.657,60.0452 386.976,60.0452 z" id="boundary" inkscape:connector-curvature="0" />
	<path style="fill:none;stroke:red;stroke-width:1px;stroke-linecap:butt;stroke-linejoin:miter;stroke-opacity:1" d="M 450.493,323.458 431.812,323.458 z" id="boundary" inkscape:connector-curvature="0" />
	<path style="fill:none;stroke:red;stroke-width:1px;stroke-linecap:butt;stroke-linejoin:miter;stroke-opacity:1" d="M 422.471,50.7043 441.153,50.7043 z" id="boundary" inkscape:connector-curvature="0" />
	<path style="fill:none;stroke:red;stroke-width:1px;stroke-linecap:butt;stroke-linejoin:miter;stroke-opacity:1" d="M 422.471,50.7043 405.657,60.0452 z" id="boundary" inkscape:connector-curvature="0" />
	<path style="fill:none;stroke:red;stroke-width:1px;stroke-linecap:butt;stroke-linejoin:miter;stroke-opacity:1" d="M 469.175,319.721 450.493,323.458 z" id="boundary" inkscape:connector-curvature="0" />
	<path style="fill:none;stroke:red;stroke-width:1px;stroke-linecap:butt;stroke-linejoin:miter;stroke-opacity:1" d="M 441.153,50.7043 459.834,50.7043 z" id="boundary" inkscape:connector-curvature="0" />
	<path style="fill:none;stroke:red;stroke-width:1px;stroke-linecap:butt;stroke-linejoin:miter;stroke-opacity:1" d="M 478.516,50.7043 459.834,50.7043 z" id="boundary" inkscape:connector-curvature="0" />
	<path style="fill:none;stroke:red;stroke-width:1px;stroke-linecap:butt;stroke-linejoin:miter;stroke-opacity:1" d="M 687.751,332.798 670.938,323.458 z" id="boundary" inkscape:connector-curvature="0" />
	<path style="fill:none;stroke:red;stroke-width:1px;stroke-linecap:butt;stroke-linejoin:miter;stroke-opacity:1" d="M 487.857,314.117 469.175,319.721 z" id="boundary" inkscape:connector-curvature="0" />
	<path style="fill:none;stroke:red;stroke-width:1px;stroke-linecap:butt;stroke-linejoin:miter;stroke-opacity:1" d="M 495.33,41.3635 514.011,41.3635 z" id="boundary" inkscape:connector-curvature="0" />
	<path style="fill:none;stroke:red;stroke-width:1px;stroke-linecap:butt;stroke-linejoin:miter;stroke-opacity:1" d="M 495.33,41.3635 478.516,50.7043 z" id="boundary" inkscape:connector-curvature="0" />
	<path style="fill:none;stroke:red;stroke-width:1px;stroke-linecap:butt;stroke-linejoin:miter;stroke-opacity:1" d="M 506.539,310.38 487.857,314.117 z" id="boundary" inkscape:connector-curvature="0" />
	<path style="fill:none;stroke:red;stroke-width:1px;stroke-linecap:butt;stroke-linejoin:miter;stroke-opacity:1" d="M 543.902,304.776 562.584,304.776 z" id="boundary" inkscape:connector-curvature="0" />
	<path style="fill:none;stroke:red;stroke-width:1px;stroke-linecap:butt;stroke-linejoin:miter;stroke-opacity:1" d="M 525.22,304.776 506.539,310.38 z" id="boundary" inkscape:connector-curvature="0" />
	<path style="fill:none;stroke:red;stroke-width:1px;stroke-linecap:butt;stroke-linejoin:miter;stroke-opacity:1" d="M 530.825,32.0226 549.507,32.0226 z" id="boundary" inkscape:connector-curvature="0" />
	<path style="fill:none;stroke:red;stroke-width:1px;stroke-linecap:butt;stroke-linejoin:miter;stroke-opacity:1" d="M 530.825,32.0226 514.011,41.3635 z" id="boundary" inkscape:connector-curvature="0" />
	<path style="fill:none;stroke:red;stroke-width:1px;stroke-linecap:butt;stroke-linejoin:miter;stroke-opacity:1" d="M 543.902,304.776 525.22,304.776 z" id="boundary" inkscape:connector-curvature="0" />
	<path style="fill:none;stroke:red;stroke-width:1px;stroke-linecap:butt;stroke-linejoin:miter;stroke-opacity:1" d="M 599.947,304.776 581.266,304.776 z" id="boundary" inkscape:connector-curvature="0" />
	<path style="fill:none;stroke:red;stroke-width:1px;stroke-linecap:butt;stroke-linejoin:miter;stroke-opacity:1" d="M 568.188,24.5499 586.87,22.6817 z" id="boundary" inkscape:connector-curvature="0" />
	<path style="fill:none;stroke:red;stroke-width:1px;stroke-linecap:butt;stroke-linejoin:miter;stroke-opacity:1" d="M 568.188,24.5499 549.507,32.0226 z" id="boundary" inkscape:connector-curvature="0" />
	<path style="fill:none;stroke:red;stroke-width:1px;stroke-linecap:butt;stroke-linejoin:miter;stroke-opacity:1" d="M 670.938,323.458 654.124,314.117 z" id="boundary" inkscape:connector-curvature="0" />
	<path style="fill:none;stroke:red;stroke-width:1px;stroke-linecap:butt;stroke-linejoin:miter;stroke-opacity:1" d="M 581.266,304.776 562.584,304.776 z" id="boundary" inkscape:connector-curvature="0" />
	<path style="fill:none;stroke:red;stroke-width:1px;stroke-linecap:butt;stroke-linejoin:miter;stroke-opacity:1" d="M 586.87,22.6817 605.552,22.6817 z" id="boundary" inkscape:connector-curvature="0" />
	<path style="fill:none;stroke:red;stroke-width:1px;stroke-linecap:butt;stroke-linejoin:miter;stroke-opacity:1" d="M 599.947,304.776 618.629,304.776 z" id="boundary" inkscape:connector-curvature="0" />
	<path style="fill:none;stroke:red;stroke-width:1px;stroke-linecap:butt;stroke-linejoin:miter;stroke-opacity:1" d="M 618.629,304.776 637.311,304.776 z" id="boundary" inkscape:connector-curvature="0" />
	<path style="fill:none;stroke:red;stroke-width:1px;stroke-linecap:butt;stroke-linejoin:miter;stroke-opacity:1" d="M 637.311,304.776 654.124,314.117 z" id="boundary" inkscape:connector-curvature="0" />
	<path style="fill:none;stroke:red;stroke-width:1px;stroke-linecap:butt;stroke-linejoin:miter;stroke-opacity:1" d="M 622.365,13.3409 641.047,13.3409 z" id="boundary" inkscape:connector-curvature="0" />
	<path style="fill:none;stroke:red;stroke-width:1px;stroke-linecap:butt;stroke-linejoin:miter;stroke-opacity:1" d="M 622.365,13.3409 605.552,22.6817 z" id="boundary" inkscape:connector-curvature="0" />
	<path style="fill:none;stroke:red;stroke-width:1px;stroke-linecap:butt;stroke-linejoin:miter;stroke-opacity:1" d="M 672.806,33.8908 687.751,46.968 z" id="boundary" inkscape:connector-curvature="0" />
	<path style="fill:none;stroke:red;stroke-width:1px;stroke-linecap:butt;stroke-linejoin:miter;stroke-opacity:1" d="M 641.047,13.3409 657.861,22.6817 z" id="boundary" inkscape:connector-curvature="0" />
	<path style="fill:none;stroke:red;stroke-width:1px;stroke-linecap:butt;stroke-linejoin:miter;stroke-opacity:1" d="M 704.565,342.139 715.774,357.085 z" id="boundary" inkscape:connector-curvature="0" />
	<path style="fill:none;stroke:red;stroke-width:1px;stroke-linecap:butt;stroke-linejoin:miter;stroke-opacity:1" d="M 704.565,342.139 687.751,332.798 z" id="boundary" inkscape:connector-curvature="0" />
	<path style="fill:none;stroke:red;stroke-width:1px;stroke-linecap:butt;stroke-linejoin:miter;stroke-opacity:1" d="M 657.861,22.6817 672.806,33.8908 z" id="boundary" inkscape:connector-curvature="0" />
	<path style="fill:none;stroke:red;stroke-width:1px;stroke-linecap:butt;stroke-linejoin:miter;stroke-opacity:1" d="M 732.588,84.3315 719.51,69.3861 z" id="boundary" inkscape:connector-curvature="0" />
	<path style="fill:none;stroke:red;stroke-width:1px;stroke-linecap:butt;stroke-linejoin:miter;stroke-opacity:1" d="M 719.51,69.3861 704.565,56.3089 z" id="boundary" inkscape:connector-curvature="0" />
	<path style="fill:none;stroke:red;stroke-width:1px;stroke-linecap:butt;stroke-linejoin:miter;stroke-opacity:1" d="M 704.565,56.3089 687.751,46.968 z" id="boundary" inkscape:connector-curvature="0" />
	<path style="fill:none;stroke:red;stroke-width:1px;stroke-linecap:butt;stroke-linejoin:miter;stroke-opacity:1" d="M 730.719,370.162 715.774,357.085 z" id="boundary" inkscape:connector-curvature="0" />
	<path style="fill:none;stroke:red;stroke-width:1px;stroke-linecap:butt;stroke-linejoin:miter;stroke-opacity:1" d="M 801.71,88.0678 784.896,97.4087 z" id="boundary" inkscape:connector-curvature="0" />
	<path style="fill:none;stroke:red;stroke-width:1px;stroke-linecap:butt;stroke-linejoin:miter;stroke-opacity:1" d="M 784.896,97.4087 766.215,97.4087 z" id="boundary" inkscape:connector-curvature="0" />
	<path style="fill:none;stroke:red;stroke-width:1px;stroke-linecap:butt;stroke-linejoin:miter;stroke-opacity:1" d="M 747.533,97.4087 732.588,84.3315 z" id="boundary" inkscape:connector-curvature="0" />
	<path style="fill:none;stroke:red;stroke-width:1px;stroke-linecap:butt;stroke-linejoin:miter;stroke-opacity:1" d="M 766.215,97.4087 747.533,97.4087 z" id="boundary" inkscape:connector-curvature="0" />
	<path style="fill:none;stroke:red;stroke-width:1px;stroke-linecap:butt;stroke-linejoin:miter;stroke-opacity:1" d="M 749.401,370.162 730.719,370.162 z" id="boundary" inkscape:connector-curvature="0" />
	<path style="fill:none;stroke:red;stroke-width:1px;stroke-linecap:butt;stroke-linejoin:miter;stroke-opacity:1" d="M 784.896,360.821 768.083,370.162 z" id="boundary" inkscape:connector-curvature="0" />
	<path style="fill:none;stroke:red;stroke-width:1px;stroke-linecap:butt;stroke-linejoin:miter;stroke-opacity:1" d="M 768.083,370.162 749.401,370.162 z" id="boundary" inkscape:connector-curvature="0" />
	<path style="fill:none;stroke:red;stroke-width:1px;stroke-linecap:butt;stroke-linejoin:miter;stroke-opacity:1" d="M 801.71,88.0678 820.392,88.0678 z" id="boundary" inkscape:connector-curvature="0" />
	<path style="fill:none;stroke:red;stroke-width:1px;stroke-linecap:butt;stroke-linejoin:miter;stroke-opacity:1" d="M 803.578,360.821 784.896,360.821 z" id="boundary" inkscape:connector-curvature="0" />
	<path style="fill:none;stroke:red;stroke-width:1px;stroke-linecap:butt;stroke-linejoin:miter;stroke-opacity:1" d="M 822.26,360.821 803.578,360.821 z" id="boundary" inkscape:connector-curvature="0" />
	<path style="fill:none;stroke:red;stroke-width:1px;stroke-linecap:butt;stroke-linejoin:miter;stroke-opacity:1" d="M 837.205,78.7269 820.392,88.0678 z" id="boundary" inkscape:connector-curvature="0" />
	<path style="fill:none;stroke:red;stroke-width:1px;stroke-linecap:butt;stroke-linejoin:miter;stroke-opacity:1" d="M 840.942,360.821 822.26,360.821 z" id="boundary" inkscape:connector-curvature="0" />
	<path style="fill:none;stroke:red;stroke-width:1px;stroke-linecap:butt;stroke-linejoin:miter;stroke-opacity:1" d="M 854.019,69.3861 837.205,78.7269 z" id="boundary" inkscape:connector-curvature="0" />
	<path style="fill:none;stroke:red;stroke-width:1px;stroke-linecap:butt;stroke-linejoin:miter;stroke-opacity:1" d="M 859.623,358.953 840.942,360.821 z" id="boundary" inkscape:connector-curvature="0" />
	<path style="fill:none;stroke:red;stroke-width:1px;stroke-linecap:butt;stroke-linejoin:miter;stroke-opacity:1" d="M 874.569,248.731 883.91,265.544 z" id="boundary" inkscape:connector-curvature="0" />
	<path style="fill:none;stroke:red;stroke-width:1px;stroke-linecap:butt;stroke-linejoin:miter;stroke-opacity:1" d="M 870.832,60.0452 889.514,60.0452 z" id="boundary" inkscape:connector-curvature="0" />
	<path style="fill:none;stroke:red;stroke-width:1px;stroke-linecap:butt;stroke-linejoin:miter;stroke-opacity:1" d="M 870.832,60.0452 854.019,69.3861 z" id="boundary" inkscape:connector-curvature="0" />
	<path style="fill:none;stroke:red;stroke-width:1px;stroke-linecap:butt;stroke-linejoin:miter;stroke-opacity:1" d="M 883.91,230.049 874.569,248.731 z" id="boundary" inkscape:connector-curvature="0" />
	<path style="fill:none;stroke:red;stroke-width:1px;stroke-linecap:butt;stroke-linejoin:miter;stroke-opacity:1" d="M 883.91,265.544 893.25,282.358 z" id="boundary" inkscape:connector-curvature="0" />
	<path style="fill:none;stroke:red;stroke-width:1px;stroke-linecap:butt;stroke-linejoin:miter;stroke-opacity:1" d="M 896.987,349.612 878.305,351.48 z" id="boundary" inkscape:connector-curvature="0" />
	<path style="fill:none;stroke:red;stroke-width:1px;stroke-linecap:butt;stroke-linejoin:miter;stroke-opacity:1" d="M 878.305,351.48 859.623,358.953 z" id="boundary" inkscape:connector-curvature="0" />
	<path style="fill:none;stroke:red;stroke-width:1px;stroke-linecap:butt;stroke-linejoin:miter;stroke-opacity:1" d="M 883.91,230.049 902.591,220.708 z" id="boundary" inkscape:connector-curvature="0" />
	<path style="fill:none;stroke:red;stroke-width:1px;stroke-linecap:butt;stroke-linejoin:miter;stroke-opacity:1" d="M 902.591,299.171 902.591,317.853 z" id="boundary" inkscape:connector-curvature="0" />
	<path style="fill:none;stroke:red;stroke-width:1px;stroke-linecap:butt;stroke-linejoin:miter;stroke-opacity:1" d="M 902.591,299.171 893.25,282.358 z" id="boundary" inkscape:connector-curvature="0" />
	<path style="fill:none;stroke:red;stroke-width:1px;stroke-linecap:butt;stroke-linejoin:miter;stroke-opacity:1" d="M 902.591,220.708 917.537,207.631 z" id="boundary" inkscape:connector-curvature="0" />
	<path style="fill:none;stroke:red;stroke-width:1px;stroke-linecap:butt;stroke-linejoin:miter;stroke-opacity:1" d="M 889.514,60.0452 906.328,50.7043 z" id="boundary" inkscape:connector-curvature="0" />
	<path style="fill:none;stroke:red;stroke-width:1px;stroke-linecap:butt;stroke-linejoin:miter;stroke-opacity:1" d="M 906.328,50.7043 923.141,60.0452 z" id="boundary" inkscape:connector-curvature="0" />
	<path style="fill:none;stroke:red;stroke-width:1px;stroke-linecap:butt;stroke-linejoin:miter;stroke-opacity:1" d="M 902.591,317.853 896.987,349.612 z" id="boundary" inkscape:connector-curvature="0" />
	<path style="fill:none;stroke:red;stroke-width:1px;stroke-linecap:butt;stroke-linejoin:miter;stroke-opacity:1" d="M 917.537,207.631 936.218,198.29 z" id="boundary" inkscape:connector-curvature="0" />
	<path style="fill:none;stroke:red;stroke-width:1px;stroke-linecap:butt;stroke-linejoin:miter;stroke-opacity:1" d="M 923.141,60.0452 939.955,69.3861 z" id="boundary" inkscape:connector-curvature="0" />
	<path style="fill:none;stroke:red;stroke-width:1px;stroke-linecap:butt;stroke-linejoin:miter;stroke-opacity:1" d="M 939.955,69.3861 949.296,86.1996 z" id="boundary" inkscape:connector-curvature="0" />
	<path style="fill:none;stroke:red;stroke-width:1px;stroke-linecap:butt;stroke-linejoin:miter;stroke-opacity:1" d="M 936.218,198.29 949.296,183.345 z" id="boundary" inkscape:connector-curvature="0" />
	<path style="fill:none;stroke:red;stroke-width:1px;stroke-linecap:butt;stroke-linejoin:miter;stroke-opacity:1" d="M 949.296,183.345 966.109,174.004 z" id="boundary" inkscape:connector-curvature="0" />
	<path style="fill:none;stroke:red;stroke-width:1px;stroke-linecap:butt;stroke-linejoin:miter;stroke-opacity:1" d="M 966.109,174.004 982.923,164.663 z" id="boundary" inkscape:connector-curvature="0" />
	<path style="fill:none;stroke:red;stroke-width:1px;stroke-linecap:butt;stroke-linejoin:miter;stroke-opacity:1" d="M 964.241,99.2768 971.714,117.959 z" id="boundary" inkscape:connector-curvature="0" />
	<path style="fill:none;stroke:red;stroke-width:1px;stroke-linecap:butt;stroke-linejoin:miter;stroke-opacity:1" d="M 964.241,99.2768 949.296,86.1996 z" id="boundary" inkscape:connector-curvature="0" />
	<path style="fill:none;stroke:red;stroke-width:1px;stroke-linecap:butt;stroke-linejoin:miter;stroke-opacity:1" d="M 986.659,131.036 971.714,117.959 z" id="boundary" inkscape:connector-curvature="0" />
	<path style="fill:none;stroke:red;stroke-width:1px;stroke-linecap:butt;stroke-linejoin:miter;stroke-opacity:1" d="M 996,147.849 982.923,164.663 z" id="boundary" inkscape:connector-curvature="0" />
	<path style="fill:none;stroke:red;stroke-width:1px;stroke-linecap:butt;stroke-linejoin:miter;stroke-opacity:1" d="M 996,147.849 986.659,131.036 z" id="boundary" inkscape:connector-curvature="0" />
	<circle cx="4" cy="224.444" r="4" fill="#0" id="circle0"/>
	<circle cx="4" cy="243.126" r="4" fill="#0" id="circle1"/>
	<circle cx="13.3409" cy="205.763" r="4" fill="#0" id="circle2"/>
	<circle cx="13.3409" cy="259.94" r="4" fill="#0" id="circle3"/>
	<circle cx="22.6817" cy="276.753" r="4" fill="#0" id="circle4"/>
	<circle cx="28.2863" cy="190.817" r="4" fill="#0" id="circle5"/>
	<circle cx="39.4953" cy="286.094" r="4" fill="#0" id="circle6"/>
	<circle cx="45.0998" cy="181.476" r="4" fill="#0" id="circle7"/>
	<circle cx="58.177" cy="286.094" r="4" fill="#0" id="circle8"/>
	<circle cx="61.9134" cy="172.136" r="4" fill="#0" id="circle9"/>
	<circle cx="76.8588" cy="286.094" r="4" fill="#0" id="circle10"/>
	<circle cx="78.7269" cy="159.058" r="4" fill="#0" id="circle11"/>
	<circle cx="93.6723" cy="144.113" r="4" fill="#0" id="circle12"/>
	<circle cx="93.6723" cy="276.753" r="4" fill="#0" id="circle13"/>
	<circle cx="97.4087" cy="37.6271" r="4" fill="#0" id="circle14"/>
	<circle cx="97.4087" cy="56.3089" r="4" fill="#0" id="circle15"/>
	<circle cx="97.4087" cy="74.9906" r="4" fill="#0" id="circle16"/>
	<circle cx="97.4087" cy="93.6723" r="4" fill="#0" id="circle17"/>
	<circle cx="97.4087" cy="112.354" r="4" fill="#0" id="circle18"/>
	<circle cx="106.75" cy="18.9454" r="4" fill="#0" id="circle19"/>
	<circle cx="110.486" cy="267.412" r="4" fill="#0" id="circle20"/>
	<circle cx="125.431" cy="13.3409" r="4" fill="#0" id="circle21"/>
	<circle cx="129.168" cy="267.412" r="4" fill="#0" id="circle22"/>
	<circle cx="144.113" cy="13.3409" r="4" fill="#0" id="circle23"/>
	<circle cx="147.849" cy="267.412" r="4" fill="#0" id="circle24"/>
	<circle cx="162.795" cy="13.3409" r="4" fill="#0" id="circle25"/>
	<circle cx="164.663" cy="258.072" r="4" fill="#0" id="circle26"/>
	<circle cx="179.608" cy="4" r="4" fill="#0" id="circle27"/>
	<circle cx="181.476" cy="267.412" r="4" fill="#0" id="circle28"/>
	<circle cx="198.29" cy="4" r="4" fill="#0" id="circle29"/>
	<circle cx="198.29" cy="276.753" r="4" fill="#0" id="circle30"/>
	<circle cx="215.104" cy="286.094" r="4" fill="#0" id="circle31"/>
	<circle cx="216.972" cy="4" r="4" fill="#0" id="circle32"/>
	<circle cx="233.785" cy="293.567" r="4" fill="#0" id="circle33"/>
	<circle cx="235.653" cy="4" r="4" fill="#0" id="circle34"/>
	<circle cx="246.863" cy="308.512" r="4" fill="#0" id="circle35"/>
	<circle cx="254.335" cy="4" r="4" fill="#0" id="circle36"/>
	<circle cx="265.544" cy="314.117" r="4" fill="#0" id="circle37"/>
	<circle cx="271.149" cy="13.3409" r="4" fill="#0" id="circle38"/>
	<circle cx="282.358" cy="323.458" r="4" fill="#0" id="circle39"/>
	<circle cx="287.962" cy="22.6817" r="4" fill="#0" id="circle40"/>
	<circle cx="301.04" cy="323.458" r="4" fill="#0" id="circle41"/>
	<circle cx="302.908" cy="35.7589" r="4" fill="#0" id="circle42"/>
	<circle cx="314.117" cy="50.7043" r="4" fill="#0" id="circle43"/>
	<circle cx="319.721" cy="323.458" r="4" fill="#0" id="circle44"/>
	<circle cx="332.798" cy="50.7043" r="4" fill="#0" id="circle45"/>
	<circle cx="338.403" cy="323.458" r="4" fill="#0" id="circle46"/>
	<circle cx="349.612" cy="60.0452" r="4" fill="#0" id="circle47"/>
	<circle cx="357.085" cy="323.458" r="4" fill="#0" id="circle48"/>
	<circle cx="368.294" cy="60.0452" r="4" fill="#0" id="circle49"/>
	<circle cx="375.766" cy="323.458" r="4" fill="#0" id="circle50"/>
	<circle cx="386.976" cy="60.0452" r="4" fill="#0" id="circle51"/>
	<circle cx="394.448" cy="323.458" r="4" fill="#0" id="circle52"/>
	<circle cx="405.657" cy="60.0452" r="4" fill="#0" id="circle53"/>
	<circle cx="413.13" cy="323.458" r="4" fill="#0" id="circle54"/>
	<circle cx="422.471" cy="50.7043" r="4" fill="#0" id="circle55"/>
	<circle cx="431.812" cy="323.458" r="4" fill="#0" id="circle56"/>
	<circle cx="441.153" cy="50.7043" r="4" fill="#0" id="circle57"/>
	<circle cx="450.493" cy="323.458" r="4" fill="#0" id="circle58"/>
	<circle cx="459.834" cy="50.7043" r="4" fill="#0" id="circle59"/>
	<circle cx="469.175" cy="319.721" r="4" fill="#0" id="circle60"/>
	<circle cx="478.516" cy="50.7043" r="4" fill="#0" id="circle61"/>
	<circle cx="487.857" cy="314.117" r="4" fill="#0" id="circle62"/>
	<circle cx="495.33" cy="41.3635" r="4" fill="#0" id="circle63"/>
	<circle cx="506.539" cy="310.38" r="4" fill="#0" id="circle64"/>
	<circle cx="514.011" cy="41.3635" r="4" fill="#0" id="circle65"/>
	<circle cx="525.22" cy="304.776" r="4" fill="#0" id="circle66"/>
	<circle cx="530.825" cy="32.0226" r="4" fill="#0" id="circle67"/>
	<circle cx="543.902" cy="304.776" r="4" fill="#0" id="circle68"/>
	<circle cx="549.507" cy="32.0226" r="4" fill="#0" id="circle69"/>
	<circle cx="562.584" cy="304.776" r="4" fill="#0" id="circle70"/>
	<circle cx="568.188" cy="24.5499" r="4" fill="#0" id="circle71"/>
	<circle cx="581.266" cy="304.776" r="4" fill="#0" id="circle72"/>
	<circle cx="586.87" cy="22.6817" r="4" fill="#0" id="circle73"/>
	<circle cx="599.947" cy="304.776" r="4" fill="#0" id="circle74"/>
	<circle cx="605.552" cy="22.6817" r="4" fill="#0" id="circle75"/>
	<circle cx="618.629" cy="304.776" r="4" fill="#0" id="circle76"/>
	<circle cx="622.365" cy="13.3409" r="4" fill="#0" id="circle77"/>
	<circle cx="637.311" cy="304.776" r="4" fill="#0" id="circle78"/>
	<circle cx="641.047" cy="13.3409" r="4" fill="#0" id="circle79"/>
	<circle cx="654.124" cy="314.117" r="4" fill="#0" id="circle80"/>
	<circle cx="657.861" cy="22.6817" r="4" fill="#0" id="circle81"/>
	<circle cx="670.938" cy="323.458" r="4" fill="#0" id="circle82"/>
	<circle cx="672.806" cy="33.8908" r="4" fill="#0" id="circle83"/>
	<circle cx="687.751" cy="46.968" r="4" fill="#0" id="circle84"/>
	<circle cx="687.751" cy="332.798" r="4" fill="#0" id="circle85"/>
	<circle cx="704.565" cy="56.3089" r="4" fill="#0" id="circle86"/>
	<circle cx="704.565" cy="342.139" r="4" fill="#0" id="circle87"/>
	<circle cx="715.774" cy="357.085" r="4" fill="#0" id="circle88"/>
	<circle cx="719.51" cy="69.3861" r="4" fill="#0" id="circle89"/>
	<circle cx="730.719" cy="370.162" r="4" fill="#0" id="circle90"/>
	<circle cx="732.588" cy="84.3315" r="4" fill="#0" id="circle91"/>
	<circle cx="747.533" cy="97.4087" r="4" fill="#0" id="circle92"/>
	<circle cx="749.401" cy="370.162" r="4" fill="#0" id="circle93"/>
	<circle cx="766.215" cy="97.4087" r="4" fill="#0" id="circle94"/>
	<circle cx="768.083" cy="370.162" r="4" fill="#0" id="circle95"/>
	<circle cx="784.896" cy="97.4087" r="4" fill="#0" id="circle96"/>
	<circle cx="784.896" cy="360.821" r="4" fill="#0" id="circle97"/>
	<circle cx="801.71" cy="88.0678" r="4" fill="#0" id="circle98"/>
	<circle cx="803.578" cy="360.821" r="4" fill="#0" id="circle99"/>
	<circle cx="820.392" cy="88.0678" r="4" fill="#0" id="circle100"/>
	<circle cx="822.26" cy="360.821" r="4" fill="#0" id="circle101"/>
	<circle cx="837.205" cy="78.7269" r="4" fill="#0" id="circle102"/>
	<circle cx="840.942" cy="360.821" r="4" fill="#0" id="circle103"/>
	<circle cx="854.019" cy="69.3861" r="4" fill="#0" id="circle104"/>
	<circle cx="859.623" cy="358.953" r="4" fill="#0" id="circle105"/>
	<circle cx="870.832" cy="60.0452" r="4" fill="#0" id="circle106"/>
	<circle cx="874.569" cy="248.731" r="4" fill="#0" id="circle107"/>
	<circle cx="878.305" cy="351.48" r="4" fill="#0" id="circle108"/>
	<circle cx="883.91" cy="230.049" r="4" fill="#0" id="circle109"/>
	<circle cx="883.91" cy="265.544" r="4" fill="#0" id="circle110"/>
	<circle cx="889.514" cy="60.0452" r="4" fill="#0" id="circle111"/>
	<circle cx="893.25" cy="282.358" r="4" fill="#0" id="circle112"/>
	<circle cx="896.987" cy="349.612" r="4" fill="#0" id="circle113"/>
	<circle cx="902.591" cy="220.708" r="4" fill="#0" id="circle114"/>
	<circle cx="902.591" cy="299.171" r="4" fill="#0" id="circle115"/>
	<circle cx="902.591" cy="317.853" r="4" fill="#0" id="circle116"/>
	<circle cx="906.328" cy="50.7043" r="4" fill="#0" id="circle117"/>
	<circle cx="917.537" cy="207.631" r="4" fill="#0" id="circle118"/>
	<circle cx="923.141" cy="60.0452" r="4" fill="#0" id="circle119"/>
	<circle cx="936.218" cy="198.29" r="4" fill="#0" id="circle120"/>
	<circle cx="939.955" cy="69.3861" r="4" fill="#0" id="circle121"/>
	<circle cx="949.296" cy="86.1996" r="4" fill="#0" id="circle122"/>
	<circle cx="949.296" cy="183.345" r="4" fill="#0" id="circle123"/>
	<circle cx="964.241" cy="99.2768" r="4" fill="#0" id="circle124"/>
	<circle cx="966.109" cy="174.004" r="4" fill="#0" id="circle125"/>
	<circle cx="971.714" cy="117.959" r="4" fill="#0" id="circle126"/>
	<circle cx="982.923" cy="164.663" r="4" fill="#0" id="circle127"/>
	<circle cx="986.659" cy="131.036" r="4" fill="#0" id="circle128"/>
	<circle cx="996" cy="147.849" r="4" fill="#0" id="circle129"/>
	</g>
</svg>