<?xml version="1.0" encoding="UTF-8" standalone="no"?>
<!-- Created with CurveBenchmark -->
<svg
	xmlns:dc="http://purl.org/dc/elements/1.1/"
	xmlns:cc="http://creativecommons.org/ns#"
	xmlns:rdf="http://www.w3.org/1999/02/22-rdf-syntax-ns#"
	xmlns:svg="http://www.w3.org/2000/svg"
	xmlns="http://www.w3.org/2000/svg"
	xmlns:sodipodi="http://sodipodi.sourceforge.net/DTD/sodipodi-0.dtd"
	xmlns:inkscape="http://www.inkscape.org/namespaces/inkscape"
	width="1000"
	height="1000"
	id="svg2"
	version="1.1"
	sodipodi:docname="manifold/peel-brick-03.png.txt">
<defs
	id="defs4" />
<metadata
	id="metadata7">
	<rdf:RDF>
		<cc:Work
			rdf:about="">
			<dc:format>image/svg+xml</dc:format>
			<dc:type
				rdf:resource="http://purl.org/dc/dcmitype/StillImage" />
			<dc:title></dc:title>
		</cc:Work>
	</rdf:RDF>
</metadata>
<g
	inkscape:label="Layer 1"
	inkscape:groupmode="layer"
	id="layer1">
	<path style="fill:none;stroke:red;stroke-width:1px;stroke-linecap:butt;stroke-linejoin:miter;stroke-opacity:1" d="M 15.06,229.455 8.25386,236.261 z" id="boundary" inkscape:connector-curvature="0" />
	<path style="fill:none;stroke:red;stroke-width:1px;stroke-linecap:butt;stroke-linejoin:miter;stroke-opacity:1" d="M 4,253.276 4,244.768 z" id="boundary" inkscape:connector-curvature="0" />
	<path style="fill:none;stroke:red;stroke-width:1px;stroke-linecap:butt;stroke-linejoin:miter;stroke-opacity:1" d="M 4,244.768 8.25386,236.261 z" id="boundary" inkscape:connector-curvature="0" />
	<path style="fill:none;stroke:red;stroke-width:1px;stroke-linecap:butt;stroke-linejoin:miter;stroke-opacity:1" d="M 4,253.276 4,261.784 z" id="boundary" inkscape:connector-curvature="0" />
	<path style="fill:none;stroke:red;stroke-width:1px;stroke-linecap:butt;stroke-linejoin:miter;stroke-opacity:1" d="M 15.06,229.455 21.8662,222.648 z" id="boundary" inkscape:connector-curvature="0" />
	<path style="fill:none;stroke:red;stroke-width:1px;stroke-linecap:butt;stroke-linejoin:miter;stroke-opacity:1" d="M 4,261.784 4,270.292 z" id="boundary" inkscape:connector-curvature="0" />
	<path style="fill:none;stroke:red;stroke-width:1px;stroke-linecap:butt;stroke-linejoin:miter;stroke-opacity:1" d="M 21.8662,222.648 28.6724,216.693 z" id="boundary" inkscape:connector-curvature="0" />
	<path style="fill:none;stroke:red;stroke-width:1px;stroke-linecap:butt;stroke-linejoin:miter;stroke-opacity:1" d="M 4,278.799 4,270.292 z" id="boundary" inkscape:connector-curvature="0" />
	<path style="fill:none;stroke:red;stroke-width:1px;stroke-linecap:butt;stroke-linejoin:miter;stroke-opacity:1" d="M 41.434,203.931 34.6278,209.887 z" id="boundary" inkscape:connector-curvature="0" />
	<path style="fill:none;stroke:red;stroke-width:1px;stroke-linecap:butt;stroke-linejoin:miter;stroke-opacity:1" d="M 34.6278,209.887 28.6724,216.693 z" id="boundary" inkscape:connector-curvature="0" />
	<path style="fill:none;stroke:red;stroke-width:1px;stroke-linecap:butt;stroke-linejoin:miter;stroke-opacity:1" d="M 4,312.83 4,304.322 z" id="boundary" inkscape:connector-curvature="0" />
	<path style="fill:none;stroke:red;stroke-width:1px;stroke-linecap:butt;stroke-linejoin:miter;stroke-opacity:1" d="M 4,321.338 4,312.83 z" id="boundary" inkscape:connector-curvature="0" />
	<path style="fill:none;stroke:red;stroke-width:1px;stroke-linecap:butt;stroke-linejoin:miter;stroke-opacity:1" d="M 4,329.846 4,321.338 z" id="boundary" inkscape:connector-curvature="0" />
	<path style="fill:none;stroke:red;stroke-width:1px;stroke-linecap:butt;stroke-linejoin:miter;stroke-opacity:1" d="M 4,338.353 4,329.846 z" id="boundary" inkscape:connector-curvature="0" />
	<path style="fill:none;stroke:red;stroke-width:1px;stroke-linecap:butt;stroke-linejoin:miter;stroke-opacity:1" d="M 8.25386,354.518 4,346.861 z" id="boundary" inkscape:connector-curvature="0" />
	<path style="fill:none;stroke:red;stroke-width:1px;stroke-linecap:butt;stroke-linejoin:miter;stroke-opacity:1" d="M 4,346.861 4,338.353 z" id="boundary" inkscape:connector-curvature="0" />
	<path style="fill:none;stroke:red;stroke-width:1px;stroke-linecap:butt;stroke-linejoin:miter;stroke-opacity:1" d="M 4,295.815 4,304.322 z" id="boundary" inkscape:connector-curvature="0" />
	<path style="fill:none;stroke:red;stroke-width:1px;stroke-linecap:butt;stroke-linejoin:miter;stroke-opacity:1" d="M 22.717,364.727 14.2093,361.324 z" id="boundary" inkscape:connector-curvature="0" />
	<path style="fill:none;stroke:red;stroke-width:1px;stroke-linecap:butt;stroke-linejoin:miter;stroke-opacity:1" d="M 14.2093,361.324 8.25386,354.518 z" id="boundary" inkscape:connector-curvature="0" />
	<path style="fill:none;stroke:red;stroke-width:1px;stroke-linecap:butt;stroke-linejoin:miter;stroke-opacity:1" d="M 4,287.307 4,295.815 z" id="boundary" inkscape:connector-curvature="0" />
	<path style="fill:none;stroke:red;stroke-width:1px;stroke-linecap:butt;stroke-linejoin:miter;stroke-opacity:1" d="M 31.2247,366.429 22.717,364.727 z" id="boundary" inkscape:connector-curvature="0" />
	<path style="fill:none;stroke:red;stroke-width:1px;stroke-linecap:butt;stroke-linejoin:miter;stroke-opacity:1" d="M 39.7324,366.429 48.2401,366.429 z" id="boundary" inkscape:connector-curvature="0" />
	<path style="fill:none;stroke:red;stroke-width:1px;stroke-linecap:butt;stroke-linejoin:miter;stroke-opacity:1" d="M 39.7324,366.429 31.2247,366.429 z" id="boundary" inkscape:connector-curvature="0" />
	<path style="fill:none;stroke:red;stroke-width:1px;stroke-linecap:butt;stroke-linejoin:miter;stroke-opacity:1" d="M 4,278.799 4,287.307 z" id="boundary" inkscape:connector-curvature="0" />
	<path style="fill:none;stroke:red;stroke-width:1px;stroke-linecap:butt;stroke-linejoin:miter;stroke-opacity:1" d="M 132.467,357.921 123.959,357.921 z" id="boundary" inkscape:connector-curvature="0" />
	<path style="fill:none;stroke:red;stroke-width:1px;stroke-linecap:butt;stroke-linejoin:miter;stroke-opacity:1" d="M 47.3894,197.125 41.434,203.931 z" id="boundary" inkscape:connector-curvature="0" />
	<path style="fill:none;stroke:red;stroke-width:1px;stroke-linecap:butt;stroke-linejoin:miter;stroke-opacity:1" d="M 47.3894,197.125 54.1955,191.17 z" id="boundary" inkscape:connector-curvature="0" />
	<path style="fill:none;stroke:red;stroke-width:1px;stroke-linecap:butt;stroke-linejoin:miter;stroke-opacity:1" d="M 54.1955,191.17 61.8525,186.916 z" id="boundary" inkscape:connector-curvature="0" />
	<path style="fill:none;stroke:red;stroke-width:1px;stroke-linecap:butt;stroke-linejoin:miter;stroke-opacity:1" d="M 93.331,61.8525 93.331,53.3448 z" id="boundary" inkscape:connector-curvature="0" />
	<path style="fill:none;stroke:red;stroke-width:1px;stroke-linecap:butt;stroke-linejoin:miter;stroke-opacity:1" d="M 140.974,357.921 132.467,357.921 z" id="boundary" inkscape:connector-curvature="0" />
	<path style="fill:none;stroke:red;stroke-width:1px;stroke-linecap:butt;stroke-linejoin:miter;stroke-opacity:1" d="M 157.99,357.921 149.482,357.921 z" id="boundary" inkscape:connector-curvature="0" />
	<path style="fill:none;stroke:red;stroke-width:1px;stroke-linecap:butt;stroke-linejoin:miter;stroke-opacity:1" d="M 93.331,70.3602 93.331,61.8525 z" id="boundary" inkscape:connector-curvature="0" />
	<path style="fill:none;stroke:red;stroke-width:1px;stroke-linecap:butt;stroke-linejoin:miter;stroke-opacity:1" d="M 64.4048,362.175 56.7479,366.429 z" id="boundary" inkscape:connector-curvature="0" />
	<path style="fill:none;stroke:red;stroke-width:1px;stroke-linecap:butt;stroke-linejoin:miter;stroke-opacity:1" d="M 56.7479,366.429 48.2401,366.429 z" id="boundary" inkscape:connector-curvature="0" />
	<path style="fill:none;stroke:red;stroke-width:1px;stroke-linecap:butt;stroke-linejoin:miter;stroke-opacity:1" d="M 68.6587,180.11 77.1664,175.856 z" id="boundary" inkscape:connector-curvature="0" />
	<path style="fill:none;stroke:red;stroke-width:1px;stroke-linecap:butt;stroke-linejoin:miter;stroke-opacity:1" d="M 68.6587,180.11 61.8525,186.916 z" id="boundary" inkscape:connector-curvature="0" />
	<path style="fill:none;stroke:red;stroke-width:1px;stroke-linecap:butt;stroke-linejoin:miter;stroke-opacity:1" d="M 72.9125,362.175 64.4048,362.175 z" id="boundary" inkscape:connector-curvature="0" />
	<path style="fill:none;stroke:red;stroke-width:1px;stroke-linecap:butt;stroke-linejoin:miter;stroke-opacity:1" d="M 89.928,357.921 98.4357,357.921 z" id="boundary" inkscape:connector-curvature="0" />
	<path style="fill:none;stroke:red;stroke-width:1px;stroke-linecap:butt;stroke-linejoin:miter;stroke-opacity:1" d="M 81.4202,167.348 77.1664,175.856 z" id="boundary" inkscape:connector-curvature="0" />
	<path style="fill:none;stroke:red;stroke-width:1px;stroke-linecap:butt;stroke-linejoin:miter;stroke-opacity:1" d="M 81.4202,167.348 88.2264,161.393 z" id="boundary" inkscape:connector-curvature="0" />
	<path style="fill:none;stroke:red;stroke-width:1px;stroke-linecap:butt;stroke-linejoin:miter;stroke-opacity:1" d="M 93.331,70.3602 93.331,78.8679 z" id="boundary" inkscape:connector-curvature="0" />
	<path style="fill:none;stroke:red;stroke-width:1px;stroke-linecap:butt;stroke-linejoin:miter;stroke-opacity:1" d="M 81.4202,357.921 72.9125,362.175 z" id="boundary" inkscape:connector-curvature="0" />
	<path style="fill:none;stroke:red;stroke-width:1px;stroke-linecap:butt;stroke-linejoin:miter;stroke-opacity:1" d="M 89.928,357.921 81.4202,357.921 z" id="boundary" inkscape:connector-curvature="0" />
	<path style="fill:none;stroke:red;stroke-width:1px;stroke-linecap:butt;stroke-linejoin:miter;stroke-opacity:1" d="M 93.331,95.8834 93.331,87.3756 z" id="boundary" inkscape:connector-curvature="0" />
	<path style="fill:none;stroke:red;stroke-width:1px;stroke-linecap:butt;stroke-linejoin:miter;stroke-opacity:1" d="M 98.4357,357.921 106.943,357.921 z" id="boundary" inkscape:connector-curvature="0" />
	<path style="fill:none;stroke:red;stroke-width:1px;stroke-linecap:butt;stroke-linejoin:miter;stroke-opacity:1" d="M 93.331,87.3756 93.331,78.8679 z" id="boundary" inkscape:connector-curvature="0" />
	<path style="fill:none;stroke:red;stroke-width:1px;stroke-linecap:butt;stroke-linejoin:miter;stroke-opacity:1" d="M 93.331,104.391 93.331,95.8834 z" id="boundary" inkscape:connector-curvature="0" />
	<path style="fill:none;stroke:red;stroke-width:1px;stroke-linecap:butt;stroke-linejoin:miter;stroke-opacity:1" d="M 93.331,53.3448 97.5849,44.837 z" id="boundary" inkscape:connector-curvature="0" />
	<path style="fill:none;stroke:red;stroke-width:1px;stroke-linecap:butt;stroke-linejoin:miter;stroke-opacity:1" d="M 93.331,104.391 93.331,112.899 z" id="boundary" inkscape:connector-curvature="0" />
	<path style="fill:none;stroke:red;stroke-width:1px;stroke-linecap:butt;stroke-linejoin:miter;stroke-opacity:1" d="M 93.331,112.899 93.331,121.407 z" id="boundary" inkscape:connector-curvature="0" />
	<path style="fill:none;stroke:red;stroke-width:1px;stroke-linecap:butt;stroke-linejoin:miter;stroke-opacity:1" d="M 108.645,29.5232 101.839,36.3293 z" id="boundary" inkscape:connector-curvature="0" />
	<path style="fill:none;stroke:red;stroke-width:1px;stroke-linecap:butt;stroke-linejoin:miter;stroke-opacity:1" d="M 101.839,36.3293 97.5849,44.837 z" id="boundary" inkscape:connector-curvature="0" />
	<path style="fill:none;stroke:red;stroke-width:1px;stroke-linecap:butt;stroke-linejoin:miter;stroke-opacity:1" d="M 93.331,129.914 93.331,121.407 z" id="boundary" inkscape:connector-curvature="0" />
	<path style="fill:none;stroke:red;stroke-width:1px;stroke-linecap:butt;stroke-linejoin:miter;stroke-opacity:1" d="M 108.645,29.5232 115.451,22.717 z" id="boundary" inkscape:connector-curvature="0" />
	<path style="fill:none;stroke:red;stroke-width:1px;stroke-linecap:butt;stroke-linejoin:miter;stroke-opacity:1" d="M 115.451,22.717 123.959,18.4631 z" id="boundary" inkscape:connector-curvature="0" />
	<path style="fill:none;stroke:red;stroke-width:1px;stroke-linecap:butt;stroke-linejoin:miter;stroke-opacity:1" d="M 93.331,138.422 93.331,129.914 z" id="boundary" inkscape:connector-curvature="0" />
	<path style="fill:none;stroke:red;stroke-width:1px;stroke-linecap:butt;stroke-linejoin:miter;stroke-opacity:1" d="M 93.331,146.93 93.331,138.422 z" id="boundary" inkscape:connector-curvature="0" />
	<path style="fill:none;stroke:red;stroke-width:1px;stroke-linecap:butt;stroke-linejoin:miter;stroke-opacity:1" d="M 88.2264,161.393 93.331,146.93 z" id="boundary" inkscape:connector-curvature="0" />
	<path style="fill:none;stroke:red;stroke-width:1px;stroke-linecap:butt;stroke-linejoin:miter;stroke-opacity:1" d="M 140.974,12.5077 149.482,9.9554 z" id="boundary" inkscape:connector-curvature="0" />
	<path style="fill:none;stroke:red;stroke-width:1px;stroke-linecap:butt;stroke-linejoin:miter;stroke-opacity:1" d="M 149.482,9.9554 157.99,8.25386 z" id="boundary" inkscape:connector-curvature="0" />
	<path style="fill:none;stroke:red;stroke-width:1px;stroke-linecap:butt;stroke-linejoin:miter;stroke-opacity:1" d="M 132.467,14.2093 140.974,12.5077 z" id="boundary" inkscape:connector-curvature="0" />
	<path style="fill:none;stroke:red;stroke-width:1px;stroke-linecap:butt;stroke-linejoin:miter;stroke-opacity:1" d="M 132.467,14.2093 123.959,18.4631 z" id="boundary" inkscape:connector-curvature="0" />
	<path style="fill:none;stroke:red;stroke-width:1px;stroke-linecap:butt;stroke-linejoin:miter;stroke-opacity:1" d="M 106.943,357.921 115.451,357.921 z" id="boundary" inkscape:connector-curvature="0" />
	<path style="fill:none;stroke:red;stroke-width:1px;stroke-linecap:butt;stroke-linejoin:miter;stroke-opacity:1" d="M 191.17,4 182.662,4 z" id="boundary" inkscape:connector-curvature="0" />
	<path style="fill:none;stroke:red;stroke-width:1px;stroke-linecap:butt;stroke-linejoin:miter;stroke-opacity:1" d="M 174.154,4 182.662,4 z" id="boundary" inkscape:connector-curvature="0" />
	<path style="fill:none;stroke:red;stroke-width:1px;stroke-linecap:butt;stroke-linejoin:miter;stroke-opacity:1" d="M 207.334,9.9554 199.678,5.70154 z" id="boundary" inkscape:connector-curvature="0" />
	<path style="fill:none;stroke:red;stroke-width:1px;stroke-linecap:butt;stroke-linejoin:miter;stroke-opacity:1" d="M 199.678,5.70154 191.17,4 z" id="boundary" inkscape:connector-curvature="0" />
	<path style="fill:none;stroke:red;stroke-width:1px;stroke-linecap:butt;stroke-linejoin:miter;stroke-opacity:1" d="M 123.959,357.921 115.451,357.921 z" id="boundary" inkscape:connector-curvature="0" />
	<path style="fill:none;stroke:red;stroke-width:1px;stroke-linecap:butt;stroke-linejoin:miter;stroke-opacity:1" d="M 157.99,8.25386 165.647,4 z" id="boundary" inkscape:connector-curvature="0" />
	<path style="fill:none;stroke:red;stroke-width:1px;stroke-linecap:butt;stroke-linejoin:miter;stroke-opacity:1" d="M 165.647,4 174.154,4 z" id="boundary" inkscape:connector-curvature="0" />
	<path style="fill:none;stroke:red;stroke-width:1px;stroke-linecap:butt;stroke-linejoin:miter;stroke-opacity:1" d="M 149.482,357.921 140.974,357.921 z" id="boundary" inkscape:connector-curvature="0" />
	<path style="fill:none;stroke:red;stroke-width:1px;stroke-linecap:butt;stroke-linejoin:miter;stroke-opacity:1" d="M 166.497,357.921 157.99,357.921 z" id="boundary" inkscape:connector-curvature="0" />
	<path style="fill:none;stroke:red;stroke-width:1px;stroke-linecap:butt;stroke-linejoin:miter;stroke-opacity:1" d="M 217.544,366.429 225.201,370.683 z" id="boundary" inkscape:connector-curvature="0" />
	<path style="fill:none;stroke:red;stroke-width:1px;stroke-linecap:butt;stroke-linejoin:miter;stroke-opacity:1" d="M 217.544,366.429 209.036,363.877 z" id="boundary" inkscape:connector-curvature="0" />
	<path style="fill:none;stroke:red;stroke-width:1px;stroke-linecap:butt;stroke-linejoin:miter;stroke-opacity:1" d="M 207.334,9.9554 215.842,12.5077 z" id="boundary" inkscape:connector-curvature="0" />
	<path style="fill:none;stroke:red;stroke-width:1px;stroke-linecap:butt;stroke-linejoin:miter;stroke-opacity:1" d="M 225.201,370.683 232.858,374.937 z" id="boundary" inkscape:connector-curvature="0" />
	<path style="fill:none;stroke:red;stroke-width:1px;stroke-linecap:butt;stroke-linejoin:miter;stroke-opacity:1" d="M 232.858,374.937 237.962,381.743 z" id="boundary" inkscape:connector-curvature="0" />
	<path style="fill:none;stroke:red;stroke-width:1px;stroke-linecap:butt;stroke-linejoin:miter;stroke-opacity:1" d="M 192.021,359.623 200.528,362.175 z" id="boundary" inkscape:connector-curvature="0" />
	<path style="fill:none;stroke:red;stroke-width:1px;stroke-linecap:butt;stroke-linejoin:miter;stroke-opacity:1" d="M 175.005,357.921 166.497,357.921 z" id="boundary" inkscape:connector-curvature="0" />
	<path style="fill:none;stroke:red;stroke-width:1px;stroke-linecap:butt;stroke-linejoin:miter;stroke-opacity:1" d="M 183.513,357.921 192.021,359.623 z" id="boundary" inkscape:connector-curvature="0" />
	<path style="fill:none;stroke:red;stroke-width:1px;stroke-linecap:butt;stroke-linejoin:miter;stroke-opacity:1" d="M 183.513,357.921 175.005,357.921 z" id="boundary" inkscape:connector-curvature="0" />
	<path style="fill:none;stroke:red;stroke-width:1px;stroke-linecap:butt;stroke-linejoin:miter;stroke-opacity:1" d="M 237.962,381.743 242.216,389.4 z" id="boundary" inkscape:connector-curvature="0" />
	<path style="fill:none;stroke:red;stroke-width:1px;stroke-linecap:butt;stroke-linejoin:miter;stroke-opacity:1" d="M 232.858,13.3585 241.365,16.7616 z" id="boundary" inkscape:connector-curvature="0" />
	<path style="fill:none;stroke:red;stroke-width:1px;stroke-linecap:butt;stroke-linejoin:miter;stroke-opacity:1" d="M 232.858,13.3585 224.35,12.5077 z" id="boundary" inkscape:connector-curvature="0" />
	<path style="fill:none;stroke:red;stroke-width:1px;stroke-linecap:butt;stroke-linejoin:miter;stroke-opacity:1" d="M 200.528,362.175 209.036,363.877 z" id="boundary" inkscape:connector-curvature="0" />
	<path style="fill:none;stroke:red;stroke-width:1px;stroke-linecap:butt;stroke-linejoin:miter;stroke-opacity:1" d="M 224.35,12.5077 215.842,12.5077 z" id="boundary" inkscape:connector-curvature="0" />
	<path style="fill:none;stroke:red;stroke-width:1px;stroke-linecap:butt;stroke-linejoin:miter;stroke-opacity:1" d="M 257.53,21.8662 264.336,27.8216 z" id="boundary" inkscape:connector-curvature="0" />
	<path style="fill:none;stroke:red;stroke-width:1px;stroke-linecap:butt;stroke-linejoin:miter;stroke-opacity:1" d="M 242.216,389.4 249.022,395.355 z" id="boundary" inkscape:connector-curvature="0" />
	<path style="fill:none;stroke:red;stroke-width:1px;stroke-linecap:butt;stroke-linejoin:miter;stroke-opacity:1" d="M 257.53,21.8662 249.873,17.6123 z" id="boundary" inkscape:connector-curvature="0" />
	<path style="fill:none;stroke:red;stroke-width:1px;stroke-linecap:butt;stroke-linejoin:miter;stroke-opacity:1" d="M 249.873,17.6123 241.365,16.7616 z" id="boundary" inkscape:connector-curvature="0" />
	<path style="fill:none;stroke:red;stroke-width:1px;stroke-linecap:butt;stroke-linejoin:miter;stroke-opacity:1" d="M 288.158,38.0309 280.501,33.777 z" id="boundary" inkscape:connector-curvature="0" />
	<path style="fill:none;stroke:red;stroke-width:1px;stroke-linecap:butt;stroke-linejoin:miter;stroke-opacity:1" d="M 256.679,399.609 263.485,404.714 z" id="boundary" inkscape:connector-curvature="0" />
	<path style="fill:none;stroke:red;stroke-width:1px;stroke-linecap:butt;stroke-linejoin:miter;stroke-opacity:1" d="M 256.679,399.609 249.022,395.355 z" id="boundary" inkscape:connector-curvature="0" />
	<path style="fill:none;stroke:red;stroke-width:1px;stroke-linecap:butt;stroke-linejoin:miter;stroke-opacity:1" d="M 280.501,33.777 272.844,29.5232 z" id="boundary" inkscape:connector-curvature="0" />
	<path style="fill:none;stroke:red;stroke-width:1px;stroke-linecap:butt;stroke-linejoin:miter;stroke-opacity:1" d="M 272.844,29.5232 264.336,27.8216 z" id="boundary" inkscape:connector-curvature="0" />
	<path style="fill:none;stroke:red;stroke-width:1px;stroke-linecap:butt;stroke-linejoin:miter;stroke-opacity:1" d="M 271.142,408.967 277.098,415.774 z" id="boundary" inkscape:connector-curvature="0" />
	<path style="fill:none;stroke:red;stroke-width:1px;stroke-linecap:butt;stroke-linejoin:miter;stroke-opacity:1" d="M 271.142,408.967 263.485,404.714 z" id="boundary" inkscape:connector-curvature="0" />
	<path style="fill:none;stroke:red;stroke-width:1px;stroke-linecap:butt;stroke-linejoin:miter;stroke-opacity:1" d="M 277.098,415.774 283.904,421.729 z" id="boundary" inkscape:connector-curvature="0" />
	<path style="fill:none;stroke:red;stroke-width:1px;stroke-linecap:butt;stroke-linejoin:miter;stroke-opacity:1" d="M 288.158,38.0309 295.815,42.2847 z" id="boundary" inkscape:connector-curvature="0" />
	<path style="fill:none;stroke:red;stroke-width:1px;stroke-linecap:butt;stroke-linejoin:miter;stroke-opacity:1" d="M 295.815,42.2847 303.472,46.5386 z" id="boundary" inkscape:connector-curvature="0" />
	<path style="fill:none;stroke:red;stroke-width:1px;stroke-linecap:butt;stroke-linejoin:miter;stroke-opacity:1" d="M 291.561,425.983 283.904,421.729 z" id="boundary" inkscape:connector-curvature="0" />
	<path style="fill:none;stroke:red;stroke-width:1px;stroke-linecap:butt;stroke-linejoin:miter;stroke-opacity:1" d="M 303.472,46.5386 311.129,50.7925 z" id="boundary" inkscape:connector-curvature="0" />
	<path style="fill:none;stroke:red;stroke-width:1px;stroke-linecap:butt;stroke-linejoin:miter;stroke-opacity:1" d="M 311.129,50.7925 319.636,53.3448 z" id="boundary" inkscape:connector-curvature="0" />
	<path style="fill:none;stroke:red;stroke-width:1px;stroke-linecap:butt;stroke-linejoin:miter;stroke-opacity:1" d="M 319.636,53.3448 327.293,57.5986 z" id="boundary" inkscape:connector-curvature="0" />
	<path style="fill:none;stroke:red;stroke-width:1px;stroke-linecap:butt;stroke-linejoin:miter;stroke-opacity:1" d="M 300.069,425.983 291.561,425.983 z" id="boundary" inkscape:connector-curvature="0" />
	<path style="fill:none;stroke:red;stroke-width:1px;stroke-linecap:butt;stroke-linejoin:miter;stroke-opacity:1" d="M 327.293,57.5986 335.801,61.0017 z" id="boundary" inkscape:connector-curvature="0" />
	<path style="fill:none;stroke:red;stroke-width:1px;stroke-linecap:butt;stroke-linejoin:miter;stroke-opacity:1" d="M 308.576,429.386 300.069,425.983 z" id="boundary" inkscape:connector-curvature="0" />
	<path style="fill:none;stroke:red;stroke-width:1px;stroke-linecap:butt;stroke-linejoin:miter;stroke-opacity:1" d="M 317.084,430.237 308.576,429.386 z" id="boundary" inkscape:connector-curvature="0" />
	<path style="fill:none;stroke:red;stroke-width:1px;stroke-linecap:butt;stroke-linejoin:miter;stroke-opacity:1" d="M 344.309,63.554 351.966,67.8079 z" id="boundary" inkscape:connector-curvature="0" />
	<path style="fill:none;stroke:red;stroke-width:1px;stroke-linecap:butt;stroke-linejoin:miter;stroke-opacity:1" d="M 344.309,63.554 335.801,61.0017 z" id="boundary" inkscape:connector-curvature="0" />
	<path style="fill:none;stroke:red;stroke-width:1px;stroke-linecap:butt;stroke-linejoin:miter;stroke-opacity:1" d="M 325.592,430.237 317.084,430.237 z" id="boundary" inkscape:connector-curvature="0" />
	<path style="fill:none;stroke:red;stroke-width:1px;stroke-linecap:butt;stroke-linejoin:miter;stroke-opacity:1" d="M 351.966,67.8079 359.623,72.0617 z" id="boundary" inkscape:connector-curvature="0" />
	<path style="fill:none;stroke:red;stroke-width:1px;stroke-linecap:butt;stroke-linejoin:miter;stroke-opacity:1" d="M 385.146,430.237 376.638,430.237 z" id="boundary" inkscape:connector-curvature="0" />
	<path style="fill:none;stroke:red;stroke-width:1px;stroke-linecap:butt;stroke-linejoin:miter;stroke-opacity:1" d="M 334.099,430.237 325.592,430.237 z" id="boundary" inkscape:connector-curvature="0" />
	<path style="fill:none;stroke:red;stroke-width:1px;stroke-linecap:butt;stroke-linejoin:miter;stroke-opacity:1" d="M 393.654,430.237 385.146,430.237 z" id="boundary" inkscape:connector-curvature="0" />
	<path style="fill:none;stroke:red;stroke-width:1px;stroke-linecap:butt;stroke-linejoin:miter;stroke-opacity:1" d="M 342.607,430.237 334.099,430.237 z" id="boundary" inkscape:connector-curvature="0" />
	<path style="fill:none;stroke:red;stroke-width:1px;stroke-linecap:butt;stroke-linejoin:miter;stroke-opacity:1" d="M 367.28,76.3156 359.623,72.0617 z" id="boundary" inkscape:connector-curvature="0" />
	<path style="fill:none;stroke:red;stroke-width:1px;stroke-linecap:butt;stroke-linejoin:miter;stroke-opacity:1" d="M 351.115,430.237 342.607,430.237 z" id="boundary" inkscape:connector-curvature="0" />
	<path style="fill:none;stroke:red;stroke-width:1px;stroke-linecap:butt;stroke-linejoin:miter;stroke-opacity:1" d="M 359.623,430.237 351.115,430.237 z" id="boundary" inkscape:connector-curvature="0" />
	<path style="fill:none;stroke:red;stroke-width:1px;stroke-linecap:butt;stroke-linejoin:miter;stroke-opacity:1" d="M 383.444,80.5695 391.101,84.8233 z" id="boundary" inkscape:connector-curvature="0" />
	<path style="fill:none;stroke:red;stroke-width:1px;stroke-linecap:butt;stroke-linejoin:miter;stroke-opacity:1" d="M 375.787,76.3156 383.444,80.5695 z" id="boundary" inkscape:connector-curvature="0" />
	<path style="fill:none;stroke:red;stroke-width:1px;stroke-linecap:butt;stroke-linejoin:miter;stroke-opacity:1" d="M 375.787,76.3156 367.28,76.3156 z" id="boundary" inkscape:connector-curvature="0" />
	<path style="fill:none;stroke:red;stroke-width:1px;stroke-linecap:butt;stroke-linejoin:miter;stroke-opacity:1" d="M 787.561,462.566 781.605,455.76 z" id="boundary" inkscape:connector-curvature="0" />
	<path style="fill:none;stroke:red;stroke-width:1px;stroke-linecap:butt;stroke-linejoin:miter;stroke-opacity:1" d="M 794.367,468.521 787.561,462.566 z" id="boundary" inkscape:connector-curvature="0" />
	<path style="fill:none;stroke:red;stroke-width:1px;stroke-linecap:butt;stroke-linejoin:miter;stroke-opacity:1" d="M 359.623,430.237 368.13,430.237 z" id="boundary" inkscape:connector-curvature="0" />
	<path style="fill:none;stroke:red;stroke-width:1px;stroke-linecap:butt;stroke-linejoin:miter;stroke-opacity:1" d="M 368.13,430.237 376.638,430.237 z" id="boundary" inkscape:connector-curvature="0" />
	<path style="fill:none;stroke:red;stroke-width:1px;stroke-linecap:butt;stroke-linejoin:miter;stroke-opacity:1" d="M 399.609,84.8233 407.266,89.0772 z" id="boundary" inkscape:connector-curvature="0" />
	<path style="fill:none;stroke:red;stroke-width:1px;stroke-linecap:butt;stroke-linejoin:miter;stroke-opacity:1" d="M 399.609,84.8233 391.101,84.8233 z" id="boundary" inkscape:connector-curvature="0" />
	<path style="fill:none;stroke:red;stroke-width:1px;stroke-linecap:butt;stroke-linejoin:miter;stroke-opacity:1" d="M 757.784,447.252 765.441,451.506 z" id="boundary" inkscape:connector-curvature="0" />
	<path style="fill:none;stroke:red;stroke-width:1px;stroke-linecap:butt;stroke-linejoin:miter;stroke-opacity:1" d="M 401.31,425.983 393.654,430.237 z" id="boundary" inkscape:connector-curvature="0" />
	<path style="fill:none;stroke:red;stroke-width:1px;stroke-linecap:butt;stroke-linejoin:miter;stroke-opacity:1" d="M 409.818,425.983 401.31,425.983 z" id="boundary" inkscape:connector-curvature="0" />
	<path style="fill:none;stroke:red;stroke-width:1px;stroke-linecap:butt;stroke-linejoin:miter;stroke-opacity:1" d="M 415.774,89.0772 407.266,89.0772 z" id="boundary" inkscape:connector-curvature="0" />
	<path style="fill:none;stroke:red;stroke-width:1px;stroke-linecap:butt;stroke-linejoin:miter;stroke-opacity:1" d="M 418.326,425.983 409.818,425.983 z" id="boundary" inkscape:connector-curvature="0" />
	<path style="fill:none;stroke:red;stroke-width:1px;stroke-linecap:butt;stroke-linejoin:miter;stroke-opacity:1" d="M 424.281,89.0772 415.774,89.0772 z" id="boundary" inkscape:connector-curvature="0" />
	<path style="fill:none;stroke:red;stroke-width:1px;stroke-linecap:butt;stroke-linejoin:miter;stroke-opacity:1" d="M 426.834,425.983 418.326,425.983 z" id="boundary" inkscape:connector-curvature="0" />
	<path style="fill:none;stroke:red;stroke-width:1px;stroke-linecap:butt;stroke-linejoin:miter;stroke-opacity:1" d="M 432.789,89.0772 424.281,89.0772 z" id="boundary" inkscape:connector-curvature="0" />
	<path style="fill:none;stroke:red;stroke-width:1px;stroke-linecap:butt;stroke-linejoin:miter;stroke-opacity:1" d="M 435.341,425.983 426.834,425.983 z" id="boundary" inkscape:connector-curvature="0" />
	<path style="fill:none;stroke:red;stroke-width:1px;stroke-linecap:butt;stroke-linejoin:miter;stroke-opacity:1" d="M 441.297,89.0772 432.789,89.0772 z" id="boundary" inkscape:connector-curvature="0" />
	<path style="fill:none;stroke:red;stroke-width:1px;stroke-linecap:butt;stroke-linejoin:miter;stroke-opacity:1" d="M 443.849,425.983 435.341,425.983 z" id="boundary" inkscape:connector-curvature="0" />
	<path style="fill:none;stroke:red;stroke-width:1px;stroke-linecap:butt;stroke-linejoin:miter;stroke-opacity:1" d="M 449.804,89.0772 441.297,89.0772 z" id="boundary" inkscape:connector-curvature="0" />
	<path style="fill:none;stroke:red;stroke-width:1px;stroke-linecap:butt;stroke-linejoin:miter;stroke-opacity:1" d="M 451.506,421.729 443.849,425.983 z" id="boundary" inkscape:connector-curvature="0" />
	<path style="fill:none;stroke:red;stroke-width:1px;stroke-linecap:butt;stroke-linejoin:miter;stroke-opacity:1" d="M 458.312,89.0772 449.804,89.0772 z" id="boundary" inkscape:connector-curvature="0" />
	<path style="fill:none;stroke:red;stroke-width:1px;stroke-linecap:butt;stroke-linejoin:miter;stroke-opacity:1" d="M 460.014,421.729 451.506,421.729 z" id="boundary" inkscape:connector-curvature="0" />
	<path style="fill:none;stroke:red;stroke-width:1px;stroke-linecap:butt;stroke-linejoin:miter;stroke-opacity:1" d="M 466.82,89.0772 458.312,89.0772 z" id="boundary" inkscape:connector-curvature="0" />
	<path style="fill:none;stroke:red;stroke-width:1px;stroke-linecap:butt;stroke-linejoin:miter;stroke-opacity:1" d="M 635.273,391.952 643.78,391.952 z" id="boundary" inkscape:connector-curvature="0" />
	<path style="fill:none;stroke:red;stroke-width:1px;stroke-linecap:butt;stroke-linejoin:miter;stroke-opacity:1" d="M 468.521,417.475 460.014,421.729 z" id="boundary" inkscape:connector-curvature="0" />
	<path style="fill:none;stroke:red;stroke-width:1px;stroke-linecap:butt;stroke-linejoin:miter;stroke-opacity:1" d="M 475.328,89.0772 466.82,89.0772 z" id="boundary" inkscape:connector-curvature="0" />
	<path style="fill:none;stroke:red;stroke-width:1px;stroke-linecap:butt;stroke-linejoin:miter;stroke-opacity:1" d="M 477.029,417.475 468.521,417.475 z" id="boundary" inkscape:connector-curvature="0" />
	<path style="fill:none;stroke:red;stroke-width:1px;stroke-linecap:butt;stroke-linejoin:miter;stroke-opacity:1" d="M 483.835,89.0772 475.328,89.0772 z" id="boundary" inkscape:connector-curvature="0" />
	<path style="fill:none;stroke:red;stroke-width:1px;stroke-linecap:butt;stroke-linejoin:miter;stroke-opacity:1" d="M 484.686,413.221 477.029,417.475 z" id="boundary" inkscape:connector-curvature="0" />
	<path style="fill:none;stroke:red;stroke-width:1px;stroke-linecap:butt;stroke-linejoin:miter;stroke-opacity:1" d="M 492.343,89.0772 483.835,89.0772 z" id="boundary" inkscape:connector-curvature="0" />
	<path style="fill:none;stroke:red;stroke-width:1px;stroke-linecap:butt;stroke-linejoin:miter;stroke-opacity:1" d="M 492.343,408.967 484.686,413.221 z" id="boundary" inkscape:connector-curvature="0" />
	<path style="fill:none;stroke:red;stroke-width:1px;stroke-linecap:butt;stroke-linejoin:miter;stroke-opacity:1" d="M 500.851,89.0772 492.343,89.0772 z" id="boundary" inkscape:connector-curvature="0" />
	<path style="fill:none;stroke:red;stroke-width:1px;stroke-linecap:butt;stroke-linejoin:miter;stroke-opacity:1" d="M 500.851,407.266 492.343,408.967 z" id="boundary" inkscape:connector-curvature="0" />
	<path style="fill:none;stroke:red;stroke-width:1px;stroke-linecap:butt;stroke-linejoin:miter;stroke-opacity:1" d="M 508.508,84.8233 500.851,89.0772 z" id="boundary" inkscape:connector-curvature="0" />
	<path style="fill:none;stroke:red;stroke-width:1px;stroke-linecap:butt;stroke-linejoin:miter;stroke-opacity:1" d="M 509.358,404.714 517.866,403.012 z" id="boundary" inkscape:connector-curvature="0" />
	<path style="fill:none;stroke:red;stroke-width:1px;stroke-linecap:butt;stroke-linejoin:miter;stroke-opacity:1" d="M 509.358,404.714 500.851,407.266 z" id="boundary" inkscape:connector-curvature="0" />
	<path style="fill:none;stroke:red;stroke-width:1px;stroke-linecap:butt;stroke-linejoin:miter;stroke-opacity:1" d="M 516.165,80.5695 524.672,77.1664 z" id="boundary" inkscape:connector-curvature="0" />
	<path style="fill:none;stroke:red;stroke-width:1px;stroke-linecap:butt;stroke-linejoin:miter;stroke-opacity:1" d="M 516.165,80.5695 508.508,84.8233 z" id="boundary" inkscape:connector-curvature="0" />
	<path style="fill:none;stroke:red;stroke-width:1px;stroke-linecap:butt;stroke-linejoin:miter;stroke-opacity:1" d="M 526.374,400.46 534.882,400.46 z" id="boundary" inkscape:connector-curvature="0" />
	<path style="fill:none;stroke:red;stroke-width:1px;stroke-linecap:butt;stroke-linejoin:miter;stroke-opacity:1" d="M 526.374,400.46 517.866,403.012 z" id="boundary" inkscape:connector-curvature="0" />
	<path style="fill:none;stroke:red;stroke-width:1px;stroke-linecap:butt;stroke-linejoin:miter;stroke-opacity:1" d="M 533.18,72.9125 524.672,77.1664 z" id="boundary" inkscape:connector-curvature="0" />
	<path style="fill:none;stroke:red;stroke-width:1px;stroke-linecap:butt;stroke-linejoin:miter;stroke-opacity:1" d="M 534.882,400.46 543.389,400.46 z" id="boundary" inkscape:connector-curvature="0" />
	<path style="fill:none;stroke:red;stroke-width:1px;stroke-linecap:butt;stroke-linejoin:miter;stroke-opacity:1" d="M 541.688,68.6587 550.196,67.8079 z" id="boundary" inkscape:connector-curvature="0" />
	<path style="fill:none;stroke:red;stroke-width:1px;stroke-linecap:butt;stroke-linejoin:miter;stroke-opacity:1" d="M 541.688,68.6587 533.18,72.9125 z" id="boundary" inkscape:connector-curvature="0" />
	<path style="fill:none;stroke:red;stroke-width:1px;stroke-linecap:butt;stroke-linejoin:miter;stroke-opacity:1" d="M 568.062,396.206 576.569,396.206 z" id="boundary" inkscape:connector-curvature="0" />
	<path style="fill:none;stroke:red;stroke-width:1px;stroke-linecap:butt;stroke-linejoin:miter;stroke-opacity:1" d="M 551.046,396.206 543.389,400.46 z" id="boundary" inkscape:connector-curvature="0" />
	<path style="fill:none;stroke:red;stroke-width:1px;stroke-linecap:butt;stroke-linejoin:miter;stroke-opacity:1" d="M 557.852,63.554 566.36,61.0017 z" id="boundary" inkscape:connector-curvature="0" />
	<path style="fill:none;stroke:red;stroke-width:1px;stroke-linecap:butt;stroke-linejoin:miter;stroke-opacity:1" d="M 557.852,63.554 550.196,67.8079 z" id="boundary" inkscape:connector-curvature="0" />
	<path style="fill:none;stroke:red;stroke-width:1px;stroke-linecap:butt;stroke-linejoin:miter;stroke-opacity:1" d="M 559.554,396.206 551.046,396.206 z" id="boundary" inkscape:connector-curvature="0" />
	<path style="fill:none;stroke:red;stroke-width:1px;stroke-linecap:butt;stroke-linejoin:miter;stroke-opacity:1" d="M 566.36,61.0017 574.868,59.3002 z" id="boundary" inkscape:connector-curvature="0" />
	<path style="fill:none;stroke:red;stroke-width:1px;stroke-linecap:butt;stroke-linejoin:miter;stroke-opacity:1" d="M 574.868,59.3002 583.376,59.3002 z" id="boundary" inkscape:connector-curvature="0" />
	<path style="fill:none;stroke:red;stroke-width:1px;stroke-linecap:butt;stroke-linejoin:miter;stroke-opacity:1" d="M 559.554,396.206 568.062,396.206 z" id="boundary" inkscape:connector-curvature="0" />
	<path style="fill:none;stroke:red;stroke-width:1px;stroke-linecap:butt;stroke-linejoin:miter;stroke-opacity:1" d="M 601.242,391.952 609.75,391.952 z" id="boundary" inkscape:connector-curvature="0" />
	<path style="fill:none;stroke:red;stroke-width:1px;stroke-linecap:butt;stroke-linejoin:miter;stroke-opacity:1" d="M 583.376,59.3002 591.883,59.3002 z" id="boundary" inkscape:connector-curvature="0" />
	<path style="fill:none;stroke:red;stroke-width:1px;stroke-linecap:butt;stroke-linejoin:miter;stroke-opacity:1" d="M 609.75,391.952 618.257,391.952 z" id="boundary" inkscape:connector-curvature="0" />
	<path style="fill:none;stroke:red;stroke-width:1px;stroke-linecap:butt;stroke-linejoin:miter;stroke-opacity:1" d="M 584.226,391.952 576.569,396.206 z" id="boundary" inkscape:connector-curvature="0" />
	<path style="fill:none;stroke:red;stroke-width:1px;stroke-linecap:butt;stroke-linejoin:miter;stroke-opacity:1" d="M 591.883,59.3002 600.391,59.3002 z" id="boundary" inkscape:connector-curvature="0" />
	<path style="fill:none;stroke:red;stroke-width:1px;stroke-linecap:butt;stroke-linejoin:miter;stroke-opacity:1" d="M 592.734,391.952 584.226,391.952 z" id="boundary" inkscape:connector-curvature="0" />
	<path style="fill:none;stroke:red;stroke-width:1px;stroke-linecap:butt;stroke-linejoin:miter;stroke-opacity:1" d="M 601.242,391.952 592.734,391.952 z" id="boundary" inkscape:connector-curvature="0" />
	<path style="fill:none;stroke:red;stroke-width:1px;stroke-linecap:butt;stroke-linejoin:miter;stroke-opacity:1" d="M 608.899,59.3002 600.391,59.3002 z" id="boundary" inkscape:connector-curvature="0" />
	<path style="fill:none;stroke:red;stroke-width:1px;stroke-linecap:butt;stroke-linejoin:miter;stroke-opacity:1" d="M 635.273,391.952 626.765,391.952 z" id="boundary" inkscape:connector-curvature="0" />
	<path style="fill:none;stroke:red;stroke-width:1px;stroke-linecap:butt;stroke-linejoin:miter;stroke-opacity:1" d="M 616.556,55.0463 625.063,55.0463 z" id="boundary" inkscape:connector-curvature="0" />
	<path style="fill:none;stroke:red;stroke-width:1px;stroke-linecap:butt;stroke-linejoin:miter;stroke-opacity:1" d="M 616.556,55.0463 608.899,59.3002 z" id="boundary" inkscape:connector-curvature="0" />
	<path style="fill:none;stroke:red;stroke-width:1px;stroke-linecap:butt;stroke-linejoin:miter;stroke-opacity:1" d="M 668.453,396.206 676.11,400.46 z" id="boundary" inkscape:connector-curvature="0" />
	<path style="fill:none;stroke:red;stroke-width:1px;stroke-linecap:butt;stroke-linejoin:miter;stroke-opacity:1" d="M 625.063,55.0463 633.571,55.0463 z" id="boundary" inkscape:connector-curvature="0" />
	<path style="fill:none;stroke:red;stroke-width:1px;stroke-linecap:butt;stroke-linejoin:miter;stroke-opacity:1" d="M 676.11,400.46 683.767,404.714 z" id="boundary" inkscape:connector-curvature="0" />
	<path style="fill:none;stroke:red;stroke-width:1px;stroke-linecap:butt;stroke-linejoin:miter;stroke-opacity:1" d="M 633.571,55.0463 642.079,55.0463 z" id="boundary" inkscape:connector-curvature="0" />
	<path style="fill:none;stroke:red;stroke-width:1px;stroke-linecap:butt;stroke-linejoin:miter;stroke-opacity:1" d="M 618.257,391.952 626.765,391.952 z" id="boundary" inkscape:connector-curvature="0" />
	<path style="fill:none;stroke:red;stroke-width:1px;stroke-linecap:butt;stroke-linejoin:miter;stroke-opacity:1" d="M 652.288,391.952 643.78,391.952 z" id="boundary" inkscape:connector-curvature="0" />
	<path style="fill:none;stroke:red;stroke-width:1px;stroke-linecap:butt;stroke-linejoin:miter;stroke-opacity:1" d="M 642.079,55.0463 650.587,55.0463 z" id="boundary" inkscape:connector-curvature="0" />
	<path style="fill:none;stroke:red;stroke-width:1px;stroke-linecap:butt;stroke-linejoin:miter;stroke-opacity:1" d="M 668.453,396.206 660.796,391.952 z" id="boundary" inkscape:connector-curvature="0" />
	<path style="fill:none;stroke:red;stroke-width:1px;stroke-linecap:butt;stroke-linejoin:miter;stroke-opacity:1" d="M 660.796,391.952 652.288,391.952 z" id="boundary" inkscape:connector-curvature="0" />
	<path style="fill:none;stroke:red;stroke-width:1px;stroke-linecap:butt;stroke-linejoin:miter;stroke-opacity:1" d="M 659.094,55.0463 650.587,55.0463 z" id="boundary" inkscape:connector-curvature="0" />
	<path style="fill:none;stroke:red;stroke-width:1px;stroke-linecap:butt;stroke-linejoin:miter;stroke-opacity:1" d="M 707.588,413.221 714.395,418.326 z" id="boundary" inkscape:connector-curvature="0" />
	<path style="fill:none;stroke:red;stroke-width:1px;stroke-linecap:butt;stroke-linejoin:miter;stroke-opacity:1" d="M 739.918,78.0172 733.111,72.0617 z" id="boundary" inkscape:connector-curvature="0" />
	<path style="fill:none;stroke:red;stroke-width:1px;stroke-linecap:butt;stroke-linejoin:miter;stroke-opacity:1" d="M 733.111,72.0617 725.455,67.8079 z" id="boundary" inkscape:connector-curvature="0" />
	<path style="fill:none;stroke:red;stroke-width:1px;stroke-linecap:butt;stroke-linejoin:miter;stroke-opacity:1" d="M 659.094,55.0463 667.602,55.0463 z" id="boundary" inkscape:connector-curvature="0" />
	<path style="fill:none;stroke:red;stroke-width:1px;stroke-linecap:butt;stroke-linejoin:miter;stroke-opacity:1" d="M 699.931,408.967 707.588,413.221 z" id="boundary" inkscape:connector-curvature="0" />
	<path style="fill:none;stroke:red;stroke-width:1px;stroke-linecap:butt;stroke-linejoin:miter;stroke-opacity:1" d="M 710.141,59.3002 717.798,63.554 z" id="boundary" inkscape:connector-curvature="0" />
	<path style="fill:none;stroke:red;stroke-width:1px;stroke-linecap:butt;stroke-linejoin:miter;stroke-opacity:1" d="M 710.141,59.3002 701.633,56.7479 z" id="boundary" inkscape:connector-curvature="0" />
	<path style="fill:none;stroke:red;stroke-width:1px;stroke-linecap:butt;stroke-linejoin:miter;stroke-opacity:1" d="M 667.602,55.0463 676.11,55.0463 z" id="boundary" inkscape:connector-curvature="0" />
	<path style="fill:none;stroke:red;stroke-width:1px;stroke-linecap:butt;stroke-linejoin:miter;stroke-opacity:1" d="M 701.633,56.7479 693.125,55.0463 z" id="boundary" inkscape:connector-curvature="0" />
	<path style="fill:none;stroke:red;stroke-width:1px;stroke-linecap:butt;stroke-linejoin:miter;stroke-opacity:1" d="M 693.125,55.0463 684.617,55.0463 z" id="boundary" inkscape:connector-curvature="0" />
	<path style="fill:none;stroke:red;stroke-width:1px;stroke-linecap:butt;stroke-linejoin:miter;stroke-opacity:1" d="M 728.007,428.535 734.813,434.491 z" id="boundary" inkscape:connector-curvature="0" />
	<path style="fill:none;stroke:red;stroke-width:1px;stroke-linecap:butt;stroke-linejoin:miter;stroke-opacity:1" d="M 692.274,404.714 699.931,408.967 z" id="boundary" inkscape:connector-curvature="0" />
	<path style="fill:none;stroke:red;stroke-width:1px;stroke-linecap:butt;stroke-linejoin:miter;stroke-opacity:1" d="M 692.274,404.714 683.767,404.714 z" id="boundary" inkscape:connector-curvature="0" />
	<path style="fill:none;stroke:red;stroke-width:1px;stroke-linecap:butt;stroke-linejoin:miter;stroke-opacity:1" d="M 676.11,55.0463 684.617,55.0463 z" id="boundary" inkscape:connector-curvature="0" />
	<path style="fill:none;stroke:red;stroke-width:1px;stroke-linecap:butt;stroke-linejoin:miter;stroke-opacity:1" d="M 722.902,421.729 728.007,428.535 z" id="boundary" inkscape:connector-curvature="0" />
	<path style="fill:none;stroke:red;stroke-width:1px;stroke-linecap:butt;stroke-linejoin:miter;stroke-opacity:1" d="M 722.902,421.729 714.395,418.326 z" id="boundary" inkscape:connector-curvature="0" />
	<path style="fill:none;stroke:red;stroke-width:1px;stroke-linecap:butt;stroke-linejoin:miter;stroke-opacity:1" d="M 739.918,78.0172 745.022,84.8233 z" id="boundary" inkscape:connector-curvature="0" />
	<path style="fill:none;stroke:red;stroke-width:1px;stroke-linecap:butt;stroke-linejoin:miter;stroke-opacity:1" d="M 717.798,63.554 725.455,67.8079 z" id="boundary" inkscape:connector-curvature="0" />
	<path style="fill:none;stroke:red;stroke-width:1px;stroke-linecap:butt;stroke-linejoin:miter;stroke-opacity:1" d="M 734.813,434.491 742.47,438.744 z" id="boundary" inkscape:connector-curvature="0" />
	<path style="fill:none;stroke:red;stroke-width:1px;stroke-linecap:butt;stroke-linejoin:miter;stroke-opacity:1" d="M 920.281,110.346 911.774,110.346 z" id="boundary" inkscape:connector-curvature="0" />
	<path style="fill:none;stroke:red;stroke-width:1px;stroke-linecap:butt;stroke-linejoin:miter;stroke-opacity:1" d="M 745.022,84.8233 753.53,87.3756 z" id="boundary" inkscape:connector-curvature="0" />
	<path style="fill:none;stroke:red;stroke-width:1px;stroke-linecap:butt;stroke-linejoin:miter;stroke-opacity:1" d="M 753.53,87.3756 762.038,89.0772 z" id="boundary" inkscape:connector-curvature="0" />
	<path style="fill:none;stroke:red;stroke-width:1px;stroke-linecap:butt;stroke-linejoin:miter;stroke-opacity:1" d="M 757.784,447.252 750.978,442.148 z" id="boundary" inkscape:connector-curvature="0" />
	<path style="fill:none;stroke:red;stroke-width:1px;stroke-linecap:butt;stroke-linejoin:miter;stroke-opacity:1" d="M 750.978,442.148 742.47,438.744 z" id="boundary" inkscape:connector-curvature="0" />
	<path style="fill:none;stroke:red;stroke-width:1px;stroke-linecap:butt;stroke-linejoin:miter;stroke-opacity:1" d="M 762.038,89.0772 770.545,89.0772 z" id="boundary" inkscape:connector-curvature="0" />
	<path style="fill:none;stroke:red;stroke-width:1px;stroke-linecap:butt;stroke-linejoin:miter;stroke-opacity:1" d="M 770.545,89.0772 778.202,93.331 z" id="boundary" inkscape:connector-curvature="0" />
	<path style="fill:none;stroke:red;stroke-width:1px;stroke-linecap:butt;stroke-linejoin:miter;stroke-opacity:1" d="M 778.202,93.331 786.71,95.0326 z" id="boundary" inkscape:connector-curvature="0" />
	<path style="fill:none;stroke:red;stroke-width:1px;stroke-linecap:butt;stroke-linejoin:miter;stroke-opacity:1" d="M 786.71,95.0326 794.367,99.2864 z" id="boundary" inkscape:connector-curvature="0" />
	<path style="fill:none;stroke:red;stroke-width:1px;stroke-linecap:butt;stroke-linejoin:miter;stroke-opacity:1" d="M 810.532,106.093 802.875,101.839 z" id="boundary" inkscape:connector-curvature="0" />
	<path style="fill:none;stroke:red;stroke-width:1px;stroke-linecap:butt;stroke-linejoin:miter;stroke-opacity:1" d="M 802.875,101.839 794.367,99.2864 z" id="boundary" inkscape:connector-curvature="0" />
	<path style="fill:none;stroke:red;stroke-width:1px;stroke-linecap:butt;stroke-linejoin:miter;stroke-opacity:1" d="M 910.923,319.636 910.923,311.129 z" id="boundary" inkscape:connector-curvature="0" />
	<path style="fill:none;stroke:red;stroke-width:1px;stroke-linecap:butt;stroke-linejoin:miter;stroke-opacity:1" d="M 773.949,451.506 765.441,451.506 z" id="boundary" inkscape:connector-curvature="0" />
	<path style="fill:none;stroke:red;stroke-width:1px;stroke-linecap:butt;stroke-linejoin:miter;stroke-opacity:1" d="M 781.605,455.76 773.949,451.506 z" id="boundary" inkscape:connector-curvature="0" />
	<path style="fill:none;stroke:red;stroke-width:1px;stroke-linecap:butt;stroke-linejoin:miter;stroke-opacity:1" d="M 819.039,106.093 810.532,106.093 z" id="boundary" inkscape:connector-curvature="0" />
	<path style="fill:none;stroke:red;stroke-width:1px;stroke-linecap:butt;stroke-linejoin:miter;stroke-opacity:1" d="M 827.547,106.093 819.039,106.093 z" id="boundary" inkscape:connector-curvature="0" />
	<path style="fill:none;stroke:red;stroke-width:1px;stroke-linecap:butt;stroke-linejoin:miter;stroke-opacity:1" d="M 802.875,468.521 794.367,468.521 z" id="boundary" inkscape:connector-curvature="0" />
	<path style="fill:none;stroke:red;stroke-width:1px;stroke-linecap:butt;stroke-linejoin:miter;stroke-opacity:1" d="M 811.383,468.521 802.875,468.521 z" id="boundary" inkscape:connector-curvature="0" />
	<path style="fill:none;stroke:red;stroke-width:1px;stroke-linecap:butt;stroke-linejoin:miter;stroke-opacity:1" d="M 910.923,328.144 910.923,336.652 z" id="boundary" inkscape:connector-curvature="0" />
	<path style="fill:none;stroke:red;stroke-width:1px;stroke-linecap:butt;stroke-linejoin:miter;stroke-opacity:1" d="M 819.89,468.521 811.383,468.521 z" id="boundary" inkscape:connector-curvature="0" />
	<path style="fill:none;stroke:red;stroke-width:1px;stroke-linecap:butt;stroke-linejoin:miter;stroke-opacity:1" d="M 836.055,106.093 827.547,106.093 z" id="boundary" inkscape:connector-curvature="0" />
	<path style="fill:none;stroke:red;stroke-width:1px;stroke-linecap:butt;stroke-linejoin:miter;stroke-opacity:1" d="M 828.398,468.521 819.89,468.521 z" id="boundary" inkscape:connector-curvature="0" />
	<path style="fill:none;stroke:red;stroke-width:1px;stroke-linecap:butt;stroke-linejoin:miter;stroke-opacity:1" d="M 836.055,106.093 844.563,106.093 z" id="boundary" inkscape:connector-curvature="0" />
	<path style="fill:none;stroke:red;stroke-width:1px;stroke-linecap:butt;stroke-linejoin:miter;stroke-opacity:1" d="M 910.923,353.667 910.923,345.16 z" id="boundary" inkscape:connector-curvature="0" />
	<path style="fill:none;stroke:red;stroke-width:1px;stroke-linecap:butt;stroke-linejoin:miter;stroke-opacity:1" d="M 844.563,106.093 853.07,106.093 z" id="boundary" inkscape:connector-curvature="0" />
	<path style="fill:none;stroke:red;stroke-width:1px;stroke-linecap:butt;stroke-linejoin:miter;stroke-opacity:1" d="M 836.906,468.521 828.398,468.521 z" id="boundary" inkscape:connector-curvature="0" />
	<path style="fill:none;stroke:red;stroke-width:1px;stroke-linecap:butt;stroke-linejoin:miter;stroke-opacity:1" d="M 845.413,468.521 836.906,468.521 z" id="boundary" inkscape:connector-curvature="0" />
	<path style="fill:none;stroke:red;stroke-width:1px;stroke-linecap:butt;stroke-linejoin:miter;stroke-opacity:1" d="M 861.578,106.093 869.235,110.346 z" id="boundary" inkscape:connector-curvature="0" />
	<path style="fill:none;stroke:red;stroke-width:1px;stroke-linecap:butt;stroke-linejoin:miter;stroke-opacity:1" d="M 861.578,106.093 853.07,106.093 z" id="boundary" inkscape:connector-curvature="0" />
	<path style="fill:none;stroke:red;stroke-width:1px;stroke-linecap:butt;stroke-linejoin:miter;stroke-opacity:1" d="M 862.429,462.566 853.921,466.82 z" id="boundary" inkscape:connector-curvature="0" />
	<path style="fill:none;stroke:red;stroke-width:1px;stroke-linecap:butt;stroke-linejoin:miter;stroke-opacity:1" d="M 853.921,466.82 845.413,468.521 z" id="boundary" inkscape:connector-curvature="0" />
	<path style="fill:none;stroke:red;stroke-width:1px;stroke-linecap:butt;stroke-linejoin:miter;stroke-opacity:1" d="M 910.923,328.144 910.923,319.636 z" id="boundary" inkscape:connector-curvature="0" />
	<path style="fill:none;stroke:red;stroke-width:1px;stroke-linecap:butt;stroke-linejoin:miter;stroke-opacity:1" d="M 870.937,458.312 862.429,462.566 z" id="boundary" inkscape:connector-curvature="0" />
	<path style="fill:none;stroke:red;stroke-width:1px;stroke-linecap:butt;stroke-linejoin:miter;stroke-opacity:1" d="M 877.743,110.346 869.235,110.346 z" id="boundary" inkscape:connector-curvature="0" />
	<path style="fill:none;stroke:red;stroke-width:1px;stroke-linecap:butt;stroke-linejoin:miter;stroke-opacity:1" d="M 879.444,455.76 870.937,458.312 z" id="boundary" inkscape:connector-curvature="0" />
	<path style="fill:none;stroke:red;stroke-width:1px;stroke-linecap:butt;stroke-linejoin:miter;stroke-opacity:1" d="M 910.923,336.652 910.923,345.16 z" id="boundary" inkscape:connector-curvature="0" />
	<path style="fill:none;stroke:red;stroke-width:1px;stroke-linecap:butt;stroke-linejoin:miter;stroke-opacity:1" d="M 886.25,110.346 877.743,110.346 z" id="boundary" inkscape:connector-curvature="0" />
	<path style="fill:none;stroke:red;stroke-width:1px;stroke-linecap:butt;stroke-linejoin:miter;stroke-opacity:1" d="M 887.101,451.506 879.444,455.76 z" id="boundary" inkscape:connector-curvature="0" />
	<path style="fill:none;stroke:red;stroke-width:1px;stroke-linecap:butt;stroke-linejoin:miter;stroke-opacity:1" d="M 894.758,110.346 886.25,110.346 z" id="boundary" inkscape:connector-curvature="0" />
	<path style="fill:none;stroke:red;stroke-width:1px;stroke-linecap:butt;stroke-linejoin:miter;stroke-opacity:1" d="M 895.609,450.655 887.101,451.506 z" id="boundary" inkscape:connector-curvature="0" />
	<path style="fill:none;stroke:red;stroke-width:1px;stroke-linecap:butt;stroke-linejoin:miter;stroke-opacity:1" d="M 903.266,110.346 894.758,110.346 z" id="boundary" inkscape:connector-curvature="0" />
	<path style="fill:none;stroke:red;stroke-width:1px;stroke-linecap:butt;stroke-linejoin:miter;stroke-opacity:1" d="M 904.117,447.252 895.609,450.655 z" id="boundary" inkscape:connector-curvature="0" />
	<path style="fill:none;stroke:red;stroke-width:1px;stroke-linecap:butt;stroke-linejoin:miter;stroke-opacity:1" d="M 903.266,110.346 911.774,110.346 z" id="boundary" inkscape:connector-curvature="0" />
	<path style="fill:none;stroke:red;stroke-width:1px;stroke-linecap:butt;stroke-linejoin:miter;stroke-opacity:1" d="M 910.923,362.175 910.923,353.667 z" id="boundary" inkscape:connector-curvature="0" />
	<path style="fill:none;stroke:red;stroke-width:1px;stroke-linecap:butt;stroke-linejoin:miter;stroke-opacity:1" d="M 910.923,370.683 910.923,362.175 z" id="boundary" inkscape:connector-curvature="0" />
	<path style="fill:none;stroke:red;stroke-width:1px;stroke-linecap:butt;stroke-linejoin:miter;stroke-opacity:1" d="M 910.923,311.129 915.177,302.621 z" id="boundary" inkscape:connector-curvature="0" />
	<path style="fill:none;stroke:red;stroke-width:1px;stroke-linecap:butt;stroke-linejoin:miter;stroke-opacity:1" d="M 910.923,379.19 910.923,370.683 z" id="boundary" inkscape:connector-curvature="0" />
	<path style="fill:none;stroke:red;stroke-width:1px;stroke-linecap:butt;stroke-linejoin:miter;stroke-opacity:1" d="M 921.983,296.666 915.177,302.621 z" id="boundary" inkscape:connector-curvature="0" />
	<path style="fill:none;stroke:red;stroke-width:1px;stroke-linecap:butt;stroke-linejoin:miter;stroke-opacity:1" d="M 910.923,379.19 910.923,387.698 z" id="boundary" inkscape:connector-curvature="0" />
	<path style="fill:none;stroke:red;stroke-width:1px;stroke-linecap:butt;stroke-linejoin:miter;stroke-opacity:1" d="M 921.983,296.666 930.491,292.412 z" id="boundary" inkscape:connector-curvature="0" />
	<path style="fill:none;stroke:red;stroke-width:1px;stroke-linecap:butt;stroke-linejoin:miter;stroke-opacity:1" d="M 930.491,292.412 938.998,288.158 z" id="boundary" inkscape:connector-curvature="0" />
	<path style="fill:none;stroke:red;stroke-width:1px;stroke-linecap:butt;stroke-linejoin:miter;stroke-opacity:1" d="M 912.624,396.206 910.923,387.698 z" id="boundary" inkscape:connector-curvature="0" />
	<path style="fill:none;stroke:red;stroke-width:1px;stroke-linecap:butt;stroke-linejoin:miter;stroke-opacity:1" d="M 912.624,396.206 916.878,403.863 z" id="boundary" inkscape:connector-curvature="0" />
	<path style="fill:none;stroke:red;stroke-width:1px;stroke-linecap:butt;stroke-linejoin:miter;stroke-opacity:1" d="M 996,185.214 996,193.722 z" id="boundary" inkscape:connector-curvature="0" />
	<path style="fill:none;stroke:red;stroke-width:1px;stroke-linecap:butt;stroke-linejoin:miter;stroke-opacity:1" d="M 904.117,447.252 912.624,447.252 z" id="boundary" inkscape:connector-curvature="0" />
	<path style="fill:none;stroke:red;stroke-width:1px;stroke-linecap:butt;stroke-linejoin:miter;stroke-opacity:1" d="M 916.878,403.863 922.834,410.669 z" id="boundary" inkscape:connector-curvature="0" />
	<path style="fill:none;stroke:red;stroke-width:1px;stroke-linecap:butt;stroke-linejoin:miter;stroke-opacity:1" d="M 920.281,442.998 912.624,447.252 z" id="boundary" inkscape:connector-curvature="0" />
	<path style="fill:none;stroke:red;stroke-width:1px;stroke-linecap:butt;stroke-linejoin:miter;stroke-opacity:1" d="M 937.297,110.346 928.789,110.346 z" id="boundary" inkscape:connector-curvature="0" />
	<path style="fill:none;stroke:red;stroke-width:1px;stroke-linecap:butt;stroke-linejoin:miter;stroke-opacity:1" d="M 927.938,417.475 927.938,425.983 z" id="boundary" inkscape:connector-curvature="0" />
	<path style="fill:none;stroke:red;stroke-width:1px;stroke-linecap:butt;stroke-linejoin:miter;stroke-opacity:1" d="M 927.938,417.475 922.834,410.669 z" id="boundary" inkscape:connector-curvature="0" />
	<path style="fill:none;stroke:red;stroke-width:1px;stroke-linecap:butt;stroke-linejoin:miter;stroke-opacity:1" d="M 920.281,110.346 928.789,110.346 z" id="boundary" inkscape:connector-curvature="0" />
	<path style="fill:none;stroke:red;stroke-width:1px;stroke-linecap:butt;stroke-linejoin:miter;stroke-opacity:1" d="M 927.938,425.983 927.087,436.192 z" id="boundary" inkscape:connector-curvature="0" />
	<path style="fill:none;stroke:red;stroke-width:1px;stroke-linecap:butt;stroke-linejoin:miter;stroke-opacity:1" d="M 927.087,436.192 920.281,442.998 z" id="boundary" inkscape:connector-curvature="0" />
	<path style="fill:none;stroke:red;stroke-width:1px;stroke-linecap:butt;stroke-linejoin:miter;stroke-opacity:1" d="M 964.521,262.635 957.715,268.59 z" id="boundary" inkscape:connector-curvature="0" />
	<path style="fill:none;stroke:red;stroke-width:1px;stroke-linecap:butt;stroke-linejoin:miter;stroke-opacity:1" d="M 957.715,268.59 951.76,275.396 z" id="boundary" inkscape:connector-curvature="0" />
	<path style="fill:none;stroke:red;stroke-width:1px;stroke-linecap:butt;stroke-linejoin:miter;stroke-opacity:1" d="M 996,176.707 996,168.199 z" id="boundary" inkscape:connector-curvature="0" />
	<path style="fill:none;stroke:red;stroke-width:1px;stroke-linecap:butt;stroke-linejoin:miter;stroke-opacity:1" d="M 938.998,288.158 944.954,281.352 z" id="boundary" inkscape:connector-curvature="0" />
	<path style="fill:none;stroke:red;stroke-width:1px;stroke-linecap:butt;stroke-linejoin:miter;stroke-opacity:1" d="M 944.954,281.352 951.76,275.396 z" id="boundary" inkscape:connector-curvature="0" />
	<path style="fill:none;stroke:red;stroke-width:1px;stroke-linecap:butt;stroke-linejoin:miter;stroke-opacity:1" d="M 945.804,110.346 954.312,110.346 z" id="boundary" inkscape:connector-curvature="0" />
	<path style="fill:none;stroke:red;stroke-width:1px;stroke-linecap:butt;stroke-linejoin:miter;stroke-opacity:1" d="M 937.297,110.346 945.804,110.346 z" id="boundary" inkscape:connector-curvature="0" />
	<path style="fill:none;stroke:red;stroke-width:1px;stroke-linecap:butt;stroke-linejoin:miter;stroke-opacity:1" d="M 954.312,110.346 962.82,110.346 z" id="boundary" inkscape:connector-curvature="0" />
	<path style="fill:none;stroke:red;stroke-width:1px;stroke-linecap:butt;stroke-linejoin:miter;stroke-opacity:1" d="M 977.283,245.619 970.477,251.575 z" id="boundary" inkscape:connector-curvature="0" />
	<path style="fill:none;stroke:red;stroke-width:1px;stroke-linecap:butt;stroke-linejoin:miter;stroke-opacity:1" d="M 970.477,251.575 964.521,262.635 z" id="boundary" inkscape:connector-curvature="0" />
	<path style="fill:none;stroke:red;stroke-width:1px;stroke-linecap:butt;stroke-linejoin:miter;stroke-opacity:1" d="M 962.82,110.346 970.477,114.6 z" id="boundary" inkscape:connector-curvature="0" />
	<path style="fill:none;stroke:red;stroke-width:1px;stroke-linecap:butt;stroke-linejoin:miter;stroke-opacity:1" d="M 970.477,114.6 974.731,122.257 z" id="boundary" inkscape:connector-curvature="0" />
	<path style="fill:none;stroke:red;stroke-width:1px;stroke-linecap:butt;stroke-linejoin:miter;stroke-opacity:1" d="M 974.731,122.257 978.985,129.914 z" id="boundary" inkscape:connector-curvature="0" />
	<path style="fill:none;stroke:red;stroke-width:1px;stroke-linecap:butt;stroke-linejoin:miter;stroke-opacity:1" d="M 977.283,245.619 981.537,237.111 z" id="boundary" inkscape:connector-curvature="0" />
	<path style="fill:none;stroke:red;stroke-width:1px;stroke-linecap:butt;stroke-linejoin:miter;stroke-opacity:1" d="M 981.537,237.111 987.492,230.305 z" id="boundary" inkscape:connector-curvature="0" />
	<path style="fill:none;stroke:red;stroke-width:1px;stroke-linecap:butt;stroke-linejoin:miter;stroke-opacity:1" d="M 996,168.199 996,159.691 z" id="boundary" inkscape:connector-curvature="0" />
	<path style="fill:none;stroke:red;stroke-width:1px;stroke-linecap:butt;stroke-linejoin:miter;stroke-opacity:1" d="M 978.985,129.914 984.94,136.72 z" id="boundary" inkscape:connector-curvature="0" />
	<path style="fill:none;stroke:red;stroke-width:1px;stroke-linecap:butt;stroke-linejoin:miter;stroke-opacity:1" d="M 996,176.707 996,185.214 z" id="boundary" inkscape:connector-curvature="0" />
	<path style="fill:none;stroke:red;stroke-width:1px;stroke-linecap:butt;stroke-linejoin:miter;stroke-opacity:1" d="M 991.746,142.676 995.149,151.184 z" id="boundary" inkscape:connector-curvature="0" />
	<path style="fill:none;stroke:red;stroke-width:1px;stroke-linecap:butt;stroke-linejoin:miter;stroke-opacity:1" d="M 991.746,142.676 984.94,136.72 z" id="boundary" inkscape:connector-curvature="0" />
	<path style="fill:none;stroke:red;stroke-width:1px;stroke-linecap:butt;stroke-linejoin:miter;stroke-opacity:1" d="M 991.746,221.798 987.492,230.305 z" id="boundary" inkscape:connector-curvature="0" />
	<path style="fill:none;stroke:red;stroke-width:1px;stroke-linecap:butt;stroke-linejoin:miter;stroke-opacity:1" d="M 995.149,151.184 996,159.691 z" id="boundary" inkscape:connector-curvature="0" />
	<path style="fill:none;stroke:red;stroke-width:1px;stroke-linecap:butt;stroke-linejoin:miter;stroke-opacity:1" d="M 996,210.738 991.746,221.798 z" id="boundary" inkscape:connector-curvature="0" />
	<path style="fill:none;stroke:red;stroke-width:1px;stroke-linecap:butt;stroke-linejoin:miter;stroke-opacity:1" d="M 996,193.722 996,202.23 z" id="boundary" inkscape:connector-curvature="0" />
	<path style="fill:none;stroke:red;stroke-width:1px;stroke-linecap:butt;stroke-linejoin:miter;stroke-opacity:1" d="M 996,210.738 996,202.23 z" id="boundary" inkscape:connector-curvature="0" />
	<circle cx="4" cy="244.768" r="4" fill="#0" id="circle0"/>
	<circle cx="4" cy="253.276" r="4" fill="#0" id="circle1"/>
	<circle cx="4" cy="261.784" r="4" fill="#0" id="circle2"/>
	<circle cx="4" cy="270.292" r="4" fill="#0" id="circle3"/>
	<circle cx="4" cy="278.799" r="4" fill="#0" id="circle4"/>
	<circle cx="4" cy="287.307" r="4" fill="#0" id="circle5"/>
	<circle cx="4" cy="295.815" r="4" fill="#0" id="circle6"/>
	<circle cx="4" cy="304.322" r="4" fill="#0" id="circle7"/>
	<circle cx="4" cy="312.83" r="4" fill="#0" id="circle8"/>
	<circle cx="4" cy="321.338" r="4" fill="#0" id="circle9"/>
	<circle cx="4" cy="329.846" r="4" fill="#0" id="circle10"/>
	<circle cx="4" cy="338.353" r="4" fill="#0" id="circle11"/>
	<circle cx="4" cy="346.861" r="4" fill="#0" id="circle12"/>
	<circle cx="8.25386" cy="236.261" r="4" fill="#0" id="circle13"/>
	<circle cx="8.25386" cy="354.518" r="4" fill="#0" id="circle14"/>
	<circle cx="14.2093" cy="361.324" r="4" fill="#0" id="circle15"/>
	<circle cx="15.06" cy="229.455" r="4" fill="#0" id="circle16"/>
	<circle cx="21.8662" cy="222.648" r="4" fill="#0" id="circle17"/>
	<circle cx="22.717" cy="364.727" r="4" fill="#0" id="circle18"/>
	<circle cx="28.6724" cy="216.693" r="4" fill="#0" id="circle19"/>
	<circle cx="31.2247" cy="366.429" r="4" fill="#0" id="circle20"/>
	<circle cx="34.6278" cy="209.887" r="4" fill="#0" id="circle21"/>
	<circle cx="39.7324" cy="366.429" r="4" fill="#0" id="circle22"/>
	<circle cx="41.434" cy="203.931" r="4" fill="#0" id="circle23"/>
	<circle cx="47.3894" cy="197.125" r="4" fill="#0" id="circle24"/>
	<circle cx="48.2401" cy="366.429" r="4" fill="#0" id="circle25"/>
	<circle cx="54.1955" cy="191.17" r="4" fill="#0" id="circle26"/>
	<circle cx="56.7479" cy="366.429" r="4" fill="#0" id="circle27"/>
	<circle cx="61.8525" cy="186.916" r="4" fill="#0" id="circle28"/>
	<circle cx="64.4048" cy="362.175" r="4" fill="#0" id="circle29"/>
	<circle cx="68.6587" cy="180.11" r="4" fill="#0" id="circle30"/>
	<circle cx="72.9125" cy="362.175" r="4" fill="#0" id="circle31"/>
	<circle cx="77.1664" cy="175.856" r="4" fill="#0" id="circle32"/>
	<circle cx="81.4202" cy="167.348" r="4" fill="#0" id="circle33"/>
	<circle cx="81.4202" cy="357.921" r="4" fill="#0" id="circle34"/>
	<circle cx="88.2264" cy="161.393" r="4" fill="#0" id="circle35"/>
	<circle cx="89.928" cy="357.921" r="4" fill="#0" id="circle36"/>
	<circle cx="93.331" cy="53.3448" r="4" fill="#0" id="circle37"/>
	<circle cx="93.331" cy="61.8525" r="4" fill="#0" id="circle38"/>
	<circle cx="93.331" cy="70.3602" r="4" fill="#0" id="circle39"/>
	<circle cx="93.331" cy="78.8679" r="4" fill="#0" id="circle40"/>
	<circle cx="93.331" cy="87.3756" r="4" fill="#0" id="circle41"/>
	<circle cx="93.331" cy="95.8834" r="4" fill="#0" id="circle42"/>
	<circle cx="93.331" cy="104.391" r="4" fill="#0" id="circle43"/>
	<circle cx="93.331" cy="112.899" r="4" fill="#0" id="circle44"/>
	<circle cx="93.331" cy="121.407" r="4" fill="#0" id="circle45"/>
	<circle cx="93.331" cy="129.914" r="4" fill="#0" id="circle46"/>
	<circle cx="93.331" cy="138.422" r="4" fill="#0" id="circle47"/>
	<circle cx="93.331" cy="146.93" r="4" fill="#0" id="circle48"/>
	<circle cx="97.5849" cy="44.837" r="4" fill="#0" id="circle49"/>
	<circle cx="98.4357" cy="357.921" r="4" fill="#0" id="circle50"/>
	<circle cx="101.839" cy="36.3293" r="4" fill="#0" id="circle51"/>
	<circle cx="106.943" cy="357.921" r="4" fill="#0" id="circle52"/>
	<circle cx="108.645" cy="29.5232" r="4" fill="#0" id="circle53"/>
	<circle cx="115.451" cy="22.717" r="4" fill="#0" id="circle54"/>
	<circle cx="115.451" cy="357.921" r="4" fill="#0" id="circle55"/>
	<circle cx="123.959" cy="18.4631" r="4" fill="#0" id="circle56"/>
	<circle cx="123.959" cy="357.921" r="4" fill="#0" id="circle57"/>
	<circle cx="132.467" cy="14.2093" r="4" fill="#0" id="circle58"/>
	<circle cx="132.467" cy="357.921" r="4" fill="#0" id="circle59"/>
	<circle cx="140.974" cy="12.5077" r="4" fill="#0" id="circle60"/>
	<circle cx="140.974" cy="357.921" r="4" fill="#0" id="circle61"/>
	<circle cx="149.482" cy="9.9554" r="4" fill="#0" id="circle62"/>
	<circle cx="149.482" cy="357.921" r="4" fill="#0" id="circle63"/>
	<circle cx="157.99" cy="8.25386" r="4" fill="#0" id="circle64"/>
	<circle cx="157.99" cy="357.921" r="4" fill="#0" id="circle65"/>
	<circle cx="165.647" cy="4" r="4" fill="#0" id="circle66"/>
	<circle cx="166.497" cy="357.921" r="4" fill="#0" id="circle67"/>
	<circle cx="174.154" cy="4" r="4" fill="#0" id="circle68"/>
	<circle cx="175.005" cy="357.921" r="4" fill="#0" id="circle69"/>
	<circle cx="182.662" cy="4" r="4" fill="#0" id="circle70"/>
	<circle cx="183.513" cy="357.921" r="4" fill="#0" id="circle71"/>
	<circle cx="191.17" cy="4" r="4" fill="#0" id="circle72"/>
	<circle cx="192.021" cy="359.623" r="4" fill="#0" id="circle73"/>
	<circle cx="199.678" cy="5.70154" r="4" fill="#0" id="circle74"/>
	<circle cx="200.528" cy="362.175" r="4" fill="#0" id="circle75"/>
	<circle cx="207.334" cy="9.9554" r="4" fill="#0" id="circle76"/>
	<circle cx="209.036" cy="363.877" r="4" fill="#0" id="circle77"/>
	<circle cx="215.842" cy="12.5077" r="4" fill="#0" id="circle78"/>
	<circle cx="217.544" cy="366.429" r="4" fill="#0" id="circle79"/>
	<circle cx="224.35" cy="12.5077" r="4" fill="#0" id="circle80"/>
	<circle cx="225.201" cy="370.683" r="4" fill="#0" id="circle81"/>
	<circle cx="232.858" cy="13.3585" r="4" fill="#0" id="circle82"/>
	<circle cx="232.858" cy="374.937" r="4" fill="#0" id="circle83"/>
	<circle cx="237.962" cy="381.743" r="4" fill="#0" id="circle84"/>
	<circle cx="241.365" cy="16.7616" r="4" fill="#0" id="circle85"/>
	<circle cx="242.216" cy="389.4" r="4" fill="#0" id="circle86"/>
	<circle cx="249.022" cy="395.355" r="4" fill="#0" id="circle87"/>
	<circle cx="249.873" cy="17.6123" r="4" fill="#0" id="circle88"/>
	<circle cx="256.679" cy="399.609" r="4" fill="#0" id="circle89"/>
	<circle cx="257.53" cy="21.8662" r="4" fill="#0" id="circle90"/>
	<circle cx="263.485" cy="404.714" r="4" fill="#0" id="circle91"/>
	<circle cx="264.336" cy="27.8216" r="4" fill="#0" id="circle92"/>
	<circle cx="271.142" cy="408.967" r="4" fill="#0" id="circle93"/>
	<circle cx="272.844" cy="29.5232" r="4" fill="#0" id="circle94"/>
	<circle cx="277.098" cy="415.774" r="4" fill="#0" id="circle95"/>
	<circle cx="280.501" cy="33.777" r="4" fill="#0" id="circle96"/>
	<circle cx="283.904" cy="421.729" r="4" fill="#0" id="circle97"/>
	<circle cx="288.158" cy="38.0309" r="4" fill="#0" id="circle98"/>
	<circle cx="291.561" cy="425.983" r="4" fill="#0" id="circle99"/>
	<circle cx="295.815" cy="42.2847" r="4" fill="#0" id="circle100"/>
	<circle cx="300.069" cy="425.983" r="4" fill="#0" id="circle101"/>
	<circle cx="303.472" cy="46.5386" r="4" fill="#0" id="circle102"/>
	<circle cx="308.576" cy="429.386" r="4" fill="#0" id="circle103"/>
	<circle cx="311.129" cy="50.7925" r="4" fill="#0" id="circle104"/>
	<circle cx="317.084" cy="430.237" r="4" fill="#0" id="circle105"/>
	<circle cx="319.636" cy="53.3448" r="4" fill="#0" id="circle106"/>
	<circle cx="325.592" cy="430.237" r="4" fill="#0" id="circle107"/>
	<circle cx="327.293" cy="57.5986" r="4" fill="#0" id="circle108"/>
	<circle cx="334.099" cy="430.237" r="4" fill="#0" id="circle109"/>
	<circle cx="335.801" cy="61.0017" r="4" fill="#0" id="circle110"/>
	<circle cx="342.607" cy="430.237" r="4" fill="#0" id="circle111"/>
	<circle cx="344.309" cy="63.554" r="4" fill="#0" id="circle112"/>
	<circle cx="351.115" cy="430.237" r="4" fill="#0" id="circle113"/>
	<circle cx="351.966" cy="67.8079" r="4" fill="#0" id="circle114"/>
	<circle cx="359.623" cy="72.0617" r="4" fill="#0" id="circle115"/>
	<circle cx="359.623" cy="430.237" r="4" fill="#0" id="circle116"/>
	<circle cx="367.28" cy="76.3156" r="4" fill="#0" id="circle117"/>
	<circle cx="368.13" cy="430.237" r="4" fill="#0" id="circle118"/>
	<circle cx="375.787" cy="76.3156" r="4" fill="#0" id="circle119"/>
	<circle cx="376.638" cy="430.237" r="4" fill="#0" id="circle120"/>
	<circle cx="383.444" cy="80.5695" r="4" fill="#0" id="circle121"/>
	<circle cx="385.146" cy="430.237" r="4" fill="#0" id="circle122"/>
	<circle cx="391.101" cy="84.8233" r="4" fill="#0" id="circle123"/>
	<circle cx="393.654" cy="430.237" r="4" fill="#0" id="circle124"/>
	<circle cx="399.609" cy="84.8233" r="4" fill="#0" id="circle125"/>
	<circle cx="401.31" cy="425.983" r="4" fill="#0" id="circle126"/>
	<circle cx="407.266" cy="89.0772" r="4" fill="#0" id="circle127"/>
	<circle cx="409.818" cy="425.983" r="4" fill="#0" id="circle128"/>
	<circle cx="415.774" cy="89.0772" r="4" fill="#0" id="circle129"/>
	<circle cx="418.326" cy="425.983" r="4" fill="#0" id="circle130"/>
	<circle cx="424.281" cy="89.0772" r="4" fill="#0" id="circle131"/>
	<circle cx="426.834" cy="425.983" r="4" fill="#0" id="circle132"/>
	<circle cx="432.789" cy="89.0772" r="4" fill="#0" id="circle133"/>
	<circle cx="435.341" cy="425.983" r="4" fill="#0" id="circle134"/>
	<circle cx="441.297" cy="89.0772" r="4" fill="#0" id="circle135"/>
	<circle cx="443.849" cy="425.983" r="4" fill="#0" id="circle136"/>
	<circle cx="449.804" cy="89.0772" r="4" fill="#0" id="circle137"/>
	<circle cx="451.506" cy="421.729" r="4" fill="#0" id="circle138"/>
	<circle cx="458.312" cy="89.0772" r="4" fill="#0" id="circle139"/>
	<circle cx="460.014" cy="421.729" r="4" fill="#0" id="circle140"/>
	<circle cx="466.82" cy="89.0772" r="4" fill="#0" id="circle141"/>
	<circle cx="468.521" cy="417.475" r="4" fill="#0" id="circle142"/>
	<circle cx="475.328" cy="89.0772" r="4" fill="#0" id="circle143"/>
	<circle cx="477.029" cy="417.475" r="4" fill="#0" id="circle144"/>
	<circle cx="483.835" cy="89.0772" r="4" fill="#0" id="circle145"/>
	<circle cx="484.686" cy="413.221" r="4" fill="#0" id="circle146"/>
	<circle cx="492.343" cy="89.0772" r="4" fill="#0" id="circle147"/>
	<circle cx="492.343" cy="408.967" r="4" fill="#0" id="circle148"/>
	<circle cx="500.851" cy="89.0772" r="4" fill="#0" id="circle149"/>
	<circle cx="500.851" cy="407.266" r="4" fill="#0" id="circle150"/>
	<circle cx="508.508" cy="84.8233" r="4" fill="#0" id="circle151"/>
	<circle cx="509.358" cy="404.714" r="4" fill="#0" id="circle152"/>
	<circle cx="516.165" cy="80.5695" r="4" fill="#0" id="circle153"/>
	<circle cx="517.866" cy="403.012" r="4" fill="#0" id="circle154"/>
	<circle cx="524.672" cy="77.1664" r="4" fill="#0" id="circle155"/>
	<circle cx="526.374" cy="400.46" r="4" fill="#0" id="circle156"/>
	<circle cx="533.18" cy="72.9125" r="4" fill="#0" id="circle157"/>
	<circle cx="534.882" cy="400.46" r="4" fill="#0" id="circle158"/>
	<circle cx="541.688" cy="68.6587" r="4" fill="#0" id="circle159"/>
	<circle cx="543.389" cy="400.46" r="4" fill="#0" id="circle160"/>
	<circle cx="550.196" cy="67.8079" r="4" fill="#0" id="circle161"/>
	<circle cx="551.046" cy="396.206" r="4" fill="#0" id="circle162"/>
	<circle cx="557.852" cy="63.554" r="4" fill="#0" id="circle163"/>
	<circle cx="559.554" cy="396.206" r="4" fill="#0" id="circle164"/>
	<circle cx="566.36" cy="61.0017" r="4" fill="#0" id="circle165"/>
	<circle cx="568.062" cy="396.206" r="4" fill="#0" id="circle166"/>
	<circle cx="574.868" cy="59.3002" r="4" fill="#0" id="circle167"/>
	<circle cx="576.569" cy="396.206" r="4" fill="#0" id="circle168"/>
	<circle cx="583.376" cy="59.3002" r="4" fill="#0" id="circle169"/>
	<circle cx="584.226" cy="391.952" r="4" fill="#0" id="circle170"/>
	<circle cx="591.883" cy="59.3002" r="4" fill="#0" id="circle171"/>
	<circle cx="592.734" cy="391.952" r="4" fill="#0" id="circle172"/>
	<circle cx="600.391" cy="59.3002" r="4" fill="#0" id="circle173"/>
	<circle cx="601.242" cy="391.952" r="4" fill="#0" id="circle174"/>
	<circle cx="608.899" cy="59.3002" r="4" fill="#0" id="circle175"/>
	<circle cx="609.75" cy="391.952" r="4" fill="#0" id="circle176"/>
	<circle cx="616.556" cy="55.0463" r="4" fill="#0" id="circle177"/>
	<circle cx="618.257" cy="391.952" r="4" fill="#0" id="circle178"/>
	<circle cx="625.063" cy="55.0463" r="4" fill="#0" id="circle179"/>
	<circle cx="626.765" cy="391.952" r="4" fill="#0" id="circle180"/>
	<circle cx="633.571" cy="55.0463" r="4" fill="#0" id="circle181"/>
	<circle cx="635.273" cy="391.952" r="4" fill="#0" id="circle182"/>
	<circle cx="642.079" cy="55.0463" r="4" fill="#0" id="circle183"/>
	<circle cx="643.78" cy="391.952" r="4" fill="#0" id="circle184"/>
	<circle cx="650.587" cy="55.0463" r="4" fill="#0" id="circle185"/>
	<circle cx="652.288" cy="391.952" r="4" fill="#0" id="circle186"/>
	<circle cx="659.094" cy="55.0463" r="4" fill="#0" id="circle187"/>
	<circle cx="660.796" cy="391.952" r="4" fill="#0" id="circle188"/>
	<circle cx="667.602" cy="55.0463" r="4" fill="#0" id="circle189"/>
	<circle cx="668.453" cy="396.206" r="4" fill="#0" id="circle190"/>
	<circle cx="676.11" cy="55.0463" r="4" fill="#0" id="circle191"/>
	<circle cx="676.11" cy="400.46" r="4" fill="#0" id="circle192"/>
	<circle cx="683.767" cy="404.714" r="4" fill="#0" id="circle193"/>
	<circle cx="684.617" cy="55.0463" r="4" fill="#0" id="circle194"/>
	<circle cx="692.274" cy="404.714" r="4" fill="#0" id="circle195"/>
	<circle cx="693.125" cy="55.0463" r="4" fill="#0" id="circle196"/>
	<circle cx="699.931" cy="408.967" r="4" fill="#0" id="circle197"/>
	<circle cx="701.633" cy="56.7479" r="4" fill="#0" id="circle198"/>
	<circle cx="707.588" cy="413.221" r="4" fill="#0" id="circle199"/>
	<circle cx="710.141" cy="59.3002" r="4" fill="#0" id="circle200"/>
	<circle cx="714.395" cy="418.326" r="4" fill="#0" id="circle201"/>
	<circle cx="717.798" cy="63.554" r="4" fill="#0" id="circle202"/>
	<circle cx="722.902" cy="421.729" r="4" fill="#0" id="circle203"/>
	<circle cx="725.455" cy="67.8079" r="4" fill="#0" id="circle204"/>
	<circle cx="728.007" cy="428.535" r="4" fill="#0" id="circle205"/>
	<circle cx="733.111" cy="72.0617" r="4" fill="#0" id="circle206"/>
	<circle cx="734.813" cy="434.491" r="4" fill="#0" id="circle207"/>
	<circle cx="739.918" cy="78.0172" r="4" fill="#0" id="circle208"/>
	<circle cx="742.47" cy="438.744" r="4" fill="#0" id="circle209"/>
	<circle cx="745.022" cy="84.8233" r="4" fill="#0" id="circle210"/>
	<circle cx="750.978" cy="442.148" r="4" fill="#0" id="circle211"/>
	<circle cx="753.53" cy="87.3756" r="4" fill="#0" id="circle212"/>
	<circle cx="757.784" cy="447.252" r="4" fill="#0" id="circle213"/>
	<circle cx="762.038" cy="89.0772" r="4" fill="#0" id="circle214"/>
	<circle cx="765.441" cy="451.506" r="4" fill="#0" id="circle215"/>
	<circle cx="770.545" cy="89.0772" r="4" fill="#0" id="circle216"/>
	<circle cx="773.949" cy="451.506" r="4" fill="#0" id="circle217"/>
	<circle cx="778.202" cy="93.331" r="4" fill="#0" id="circle218"/>
	<circle cx="781.605" cy="455.76" r="4" fill="#0" id="circle219"/>
	<circle cx="786.71" cy="95.0326" r="4" fill="#0" id="circle220"/>
	<circle cx="787.561" cy="462.566" r="4" fill="#0" id="circle221"/>
	<circle cx="794.367" cy="99.2864" r="4" fill="#0" id="circle222"/>
	<circle cx="794.367" cy="468.521" r="4" fill="#0" id="circle223"/>
	<circle cx="802.875" cy="101.839" r="4" fill="#0" id="circle224"/>
	<circle cx="802.875" cy="468.521" r="4" fill="#0" id="circle225"/>
	<circle cx="810.532" cy="106.093" r="4" fill="#0" id="circle226"/>
	<circle cx="811.383" cy="468.521" r="4" fill="#0" id="circle227"/>
	<circle cx="819.039" cy="106.093" r="4" fill="#0" id="circle228"/>
	<circle cx="819.89" cy="468.521" r="4" fill="#0" id="circle229"/>
	<circle cx="827.547" cy="106.093" r="4" fill="#0" id="circle230"/>
	<circle cx="828.398" cy="468.521" r="4" fill="#0" id="circle231"/>
	<circle cx="836.055" cy="106.093" r="4" fill="#0" id="circle232"/>
	<circle cx="836.906" cy="468.521" r="4" fill="#0" id="circle233"/>
	<circle cx="844.563" cy="106.093" r="4" fill="#0" id="circle234"/>
	<circle cx="845.413" cy="468.521" r="4" fill="#0" id="circle235"/>
	<circle cx="853.07" cy="106.093" r="4" fill="#0" id="circle236"/>
	<circle cx="853.921" cy="466.82" r="4" fill="#0" id="circle237"/>
	<circle cx="861.578" cy="106.093" r="4" fill="#0" id="circle238"/>
	<circle cx="862.429" cy="462.566" r="4" fill="#0" id="circle239"/>
	<circle cx="869.235" cy="110.346" r="4" fill="#0" id="circle240"/>
	<circle cx="870.937" cy="458.312" r="4" fill="#0" id="circle241"/>
	<circle cx="877.743" cy="110.346" r="4" fill="#0" id="circle242"/>
	<circle cx="879.444" cy="455.76" r="4" fill="#0" id="circle243"/>
	<circle cx="886.25" cy="110.346" r="4" fill="#0" id="circle244"/>
	<circle cx="887.101" cy="451.506" r="4" fill="#0" id="circle245"/>
	<circle cx="894.758" cy="110.346" r="4" fill="#0" id="circle246"/>
	<circle cx="895.609" cy="450.655" r="4" fill="#0" id="circle247"/>
	<circle cx="903.266" cy="110.346" r="4" fill="#0" id="circle248"/>
	<circle cx="904.117" cy="447.252" r="4" fill="#0" id="circle249"/>
	<circle cx="910.923" cy="311.129" r="4" fill="#0" id="circle250"/>
	<circle cx="910.923" cy="319.636" r="4" fill="#0" id="circle251"/>
	<circle cx="910.923" cy="328.144" r="4" fill="#0" id="circle252"/>
	<circle cx="910.923" cy="336.652" r="4" fill="#0" id="circle253"/>
	<circle cx="910.923" cy="345.16" r="4" fill="#0" id="circle254"/>
	<circle cx="910.923" cy="353.667" r="4" fill="#0" id="circle255"/>
	<circle cx="910.923" cy="362.175" r="4" fill="#0" id="circle256"/>
	<circle cx="910.923" cy="370.683" r="4" fill="#0" id="circle257"/>
	<circle cx="910.923" cy="379.19" r="4" fill="#0" id="circle258"/>
	<circle cx="910.923" cy="387.698" r="4" fill="#0" id="circle259"/>
	<circle cx="911.774" cy="110.346" r="4" fill="#0" id="circle260"/>
	<circle cx="912.624" cy="396.206" r="4" fill="#0" id="circle261"/>
	<circle cx="912.624" cy="447.252" r="4" fill="#0" id="circle262"/>
	<circle cx="915.177" cy="302.621" r="4" fill="#0" id="circle263"/>
	<circle cx="916.878" cy="403.863" r="4" fill="#0" id="circle264"/>
	<circle cx="920.281" cy="110.346" r="4" fill="#0" id="circle265"/>
	<circle cx="920.281" cy="442.998" r="4" fill="#0" id="circle266"/>
	<circle cx="921.983" cy="296.666" r="4" fill="#0" id="circle267"/>
	<circle cx="922.834" cy="410.669" r="4" fill="#0" id="circle268"/>
	<circle cx="927.087" cy="436.192" r="4" fill="#0" id="circle269"/>
	<circle cx="927.938" cy="417.475" r="4" fill="#0" id="circle270"/>
	<circle cx="927.938" cy="425.983" r="4" fill="#0" id="circle271"/>
	<circle cx="928.789" cy="110.346" r="4" fill="#0" id="circle272"/>
	<circle cx="930.491" cy="292.412" r="4" fill="#0" id="circle273"/>
	<circle cx="937.297" cy="110.346" r="4" fill="#0" id="circle274"/>
	<circle cx="938.998" cy="288.158" r="4" fill="#0" id="circle275"/>
	<circle cx="944.954" cy="281.352" r="4" fill="#0" id="circle276"/>
	<circle cx="945.804" cy="110.346" r="4" fill="#0" id="circle277"/>
	<circle cx="951.76" cy="275.396" r="4" fill="#0" id="circle278"/>
	<circle cx="954.312" cy="110.346" r="4" fill="#0" id="circle279"/>
	<circle cx="957.715" cy="268.59" r="4" fill="#0" id="circle280"/>
	<circle cx="962.82" cy="110.346" r="4" fill="#0" id="circle281"/>
	<circle cx="964.521" cy="262.635" r="4" fill="#0" id="circle282"/>
	<circle cx="970.477" cy="114.6" r="4" fill="#0" id="circle283"/>
	<circle cx="970.477" cy="251.575" r="4" fill="#0" id="circle284"/>
	<circle cx="974.731" cy="122.257" r="4" fill="#0" id="circle285"/>
	<circle cx="977.283" cy="245.619" r="4" fill="#0" id="circle286"/>
	<circle cx="978.985" cy="129.914" r="4" fill="#0" id="circle287"/>
	<circle cx="981.537" cy="237.111" r="4" fill="#0" id="circle288"/>
	<circle cx="984.94" cy="136.72" r="4" fill="#0" id="circle289"/>
	<circle cx="987.492" cy="230.305" r="4" fill="#0" id="circle290"/>
	<circle cx="991.746" cy="142.676" r="4" fill="#0" id="circle291"/>
	<circle cx="991.746" cy="221.798" r="4" fill="#0" id="circle292"/>
	<circle cx="995.149" cy="151.184" r="4" fill="#0" id="circle293"/>
	<circle cx="996" cy="159.691" r="4" fill="#0" id="circle294"/>
	<circle cx="996" cy="168.199" r="4" fill="#0" id="circle295"/>
	<circle cx="996" cy="176.707" r="4" fill="#0" id="circle296"/>
	<circle cx="996" cy="185.214" r="4" fill="#0" id="circle297"/>
	<circle cx="996" cy="193.722" r="4" fill="#0" id="circle298"/>
	<circle cx="996" cy="202.23" r="4" fill="#0" id="circle299"/>
	<circle cx="996" cy="210.738" r="4" fill="#0" id="circle300"/>
	</g>
</svg>