<?xml version="1.0" encoding="UTF-8" standalone="no"?>
<!-- Created with CurveBenchmark -->
<svg
	xmlns:dc="http://purl.org/dc/elements/1.1/"
	xmlns:cc="http://creativecommons.org/ns#"
	xmlns:rdf="http://www.w3.org/1999/02/22-rdf-syntax-ns#"
	xmlns:svg="http://www.w3.org/2000/svg"
	xmlns="http://www.w3.org/2000/svg"
	xmlns:sodipodi="http://sodipodi.sourceforge.net/DTD/sodipodi-0.dtd"
	xmlns:inkscape="http://www.inkscape.org/namespaces/inkscape"
	width="1000"
	height="1000"
	id="svg2"
	version="1.1"
	sodipodi:docname="manifold/peel-ray0470.png.txt">
<defs
	id="defs4" />
<metadata
	id="metadata7">
	<rdf:RDF>
		<cc:Work
			rdf:about="">
			<dc:format>image/svg+xml</dc:format>
			<dc:type
				rdf:resource="http://purl.org/dc/dcmitype/StillImage" />
			<dc:title></dc:title>
		</cc:Work>
	</rdf:RDF>
</metadata>
<g
	inkscape:label="Layer 1"
	inkscape:groupmode="layer"
	id="layer1">
	<path style="fill:none;stroke:red;stroke-width:1px;stroke-linecap:butt;stroke-linejoin:miter;stroke-opacity:1" d="M 4,266.038 4,255.028 z" id="boundary" inkscape:connector-curvature="0" />
	<path style="fill:none;stroke:red;stroke-width:1px;stroke-linecap:butt;stroke-linejoin:miter;stroke-opacity:1" d="M 4,255.028 9.50499,244.018 z" id="boundary" inkscape:connector-curvature="0" />
	<path style="fill:none;stroke:red;stroke-width:1px;stroke-linecap:butt;stroke-linejoin:miter;stroke-opacity:1" d="M 4,277.048 4,266.038 z" id="boundary" inkscape:connector-curvature="0" />
	<path style="fill:none;stroke:red;stroke-width:1px;stroke-linecap:butt;stroke-linejoin:miter;stroke-opacity:1" d="M 9.50499,297.967 4,288.058 z" id="boundary" inkscape:connector-curvature="0" />
	<path style="fill:none;stroke:red;stroke-width:1px;stroke-linecap:butt;stroke-linejoin:miter;stroke-opacity:1" d="M 4,288.058 4,277.048 z" id="boundary" inkscape:connector-curvature="0" />
	<path style="fill:none;stroke:red;stroke-width:1px;stroke-linecap:butt;stroke-linejoin:miter;stroke-opacity:1" d="M 15.01,233.008 23.818,224.2 z" id="boundary" inkscape:connector-curvature="0" />
	<path style="fill:none;stroke:red;stroke-width:1px;stroke-linecap:butt;stroke-linejoin:miter;stroke-opacity:1" d="M 15.01,233.008 9.50499,244.018 z" id="boundary" inkscape:connector-curvature="0" />
	<path style="fill:none;stroke:red;stroke-width:1px;stroke-linecap:butt;stroke-linejoin:miter;stroke-opacity:1" d="M 9.50499,297.967 15.01,307.876 z" id="boundary" inkscape:connector-curvature="0" />
	<path style="fill:none;stroke:red;stroke-width:1px;stroke-linecap:butt;stroke-linejoin:miter;stroke-opacity:1" d="M 18.313,318.886 15.01,307.876 z" id="boundary" inkscape:connector-curvature="0" />
	<path style="fill:none;stroke:red;stroke-width:1px;stroke-linecap:butt;stroke-linejoin:miter;stroke-opacity:1" d="M 23.818,224.2 32.626,215.392 z" id="boundary" inkscape:connector-curvature="0" />
	<path style="fill:none;stroke:red;stroke-width:1px;stroke-linecap:butt;stroke-linejoin:miter;stroke-opacity:1" d="M 26.02,327.694 18.313,318.886 z" id="boundary" inkscape:connector-curvature="0" />
	<path style="fill:none;stroke:red;stroke-width:1px;stroke-linecap:butt;stroke-linejoin:miter;stroke-opacity:1" d="M 32.626,215.392 38.131,204.382 z" id="boundary" inkscape:connector-curvature="0" />
	<path style="fill:none;stroke:red;stroke-width:1px;stroke-linecap:butt;stroke-linejoin:miter;stroke-opacity:1" d="M 38.131,204.382 48.04,194.473 z" id="boundary" inkscape:connector-curvature="0" />
	<path style="fill:none;stroke:red;stroke-width:1px;stroke-linecap:butt;stroke-linejoin:miter;stroke-opacity:1" d="M 26.02,338.704 26.02,327.694 z" id="boundary" inkscape:connector-curvature="0" />
	<path style="fill:none;stroke:red;stroke-width:1px;stroke-linecap:butt;stroke-linejoin:miter;stroke-opacity:1" d="M 31.525,348.613 26.02,338.704 z" id="boundary" inkscape:connector-curvature="0" />
	<path style="fill:none;stroke:red;stroke-width:1px;stroke-linecap:butt;stroke-linejoin:miter;stroke-opacity:1" d="M 37.03,358.522 31.525,348.613 z" id="boundary" inkscape:connector-curvature="0" />
	<path style="fill:none;stroke:red;stroke-width:1px;stroke-linecap:butt;stroke-linejoin:miter;stroke-opacity:1" d="M 37.03,358.522 42.535,368.431 z" id="boundary" inkscape:connector-curvature="0" />
	<path style="fill:none;stroke:red;stroke-width:1px;stroke-linecap:butt;stroke-linejoin:miter;stroke-opacity:1" d="M 42.535,368.431 45.838,379.441 z" id="boundary" inkscape:connector-curvature="0" />
	<path style="fill:none;stroke:red;stroke-width:1px;stroke-linecap:butt;stroke-linejoin:miter;stroke-opacity:1" d="M 48.04,899.112 37.03,899.112 z" id="boundary" inkscape:connector-curvature="0" />
	<path style="fill:none;stroke:red;stroke-width:1px;stroke-linecap:butt;stroke-linejoin:miter;stroke-opacity:1" d="M 70.0599,177.958 59.0499,183.463 z" id="boundary" inkscape:connector-curvature="0" />
	<path style="fill:none;stroke:red;stroke-width:1px;stroke-linecap:butt;stroke-linejoin:miter;stroke-opacity:1" d="M 59.0499,183.463 48.04,194.473 z" id="boundary" inkscape:connector-curvature="0" />
	<path style="fill:none;stroke:red;stroke-width:1px;stroke-linecap:butt;stroke-linejoin:miter;stroke-opacity:1" d="M 45.838,379.441 51.343,389.35 z" id="boundary" inkscape:connector-curvature="0" />
	<path style="fill:none;stroke:red;stroke-width:1px;stroke-linecap:butt;stroke-linejoin:miter;stroke-opacity:1" d="M 51.343,389.35 59.0499,398.158 z" id="boundary" inkscape:connector-curvature="0" />
	<path style="fill:none;stroke:red;stroke-width:1px;stroke-linecap:butt;stroke-linejoin:miter;stroke-opacity:1" d="M 59.0499,398.158 59.0499,409.168 z" id="boundary" inkscape:connector-curvature="0" />
	<path style="fill:none;stroke:red;stroke-width:1px;stroke-linecap:butt;stroke-linejoin:miter;stroke-opacity:1" d="M 161.443,902.415 170.251,910.122 z" id="boundary" inkscape:connector-curvature="0" />
	<path style="fill:none;stroke:red;stroke-width:1px;stroke-linecap:butt;stroke-linejoin:miter;stroke-opacity:1" d="M 51.343,879.294 56.8479,890.304 z" id="boundary" inkscape:connector-curvature="0" />
	<path style="fill:none;stroke:red;stroke-width:1px;stroke-linecap:butt;stroke-linejoin:miter;stroke-opacity:1" d="M 51.343,879.294 42.535,888.102 z" id="boundary" inkscape:connector-curvature="0" />
	<path style="fill:none;stroke:red;stroke-width:1px;stroke-linecap:butt;stroke-linejoin:miter;stroke-opacity:1" d="M 56.8479,890.304 48.04,899.112 z" id="boundary" inkscape:connector-curvature="0" />
	<path style="fill:none;stroke:red;stroke-width:1px;stroke-linecap:butt;stroke-linejoin:miter;stroke-opacity:1" d="M 112.999,839.658 104.191,847.365 z" id="boundary" inkscape:connector-curvature="0" />
	<path style="fill:none;stroke:red;stroke-width:1px;stroke-linecap:butt;stroke-linejoin:miter;stroke-opacity:1" d="M 64.5549,419.077 59.0499,409.168 z" id="boundary" inkscape:connector-curvature="0" />
	<path style="fill:none;stroke:red;stroke-width:1px;stroke-linecap:butt;stroke-linejoin:miter;stroke-opacity:1" d="M 75.5649,438.895 70.0599,428.986 z" id="boundary" inkscape:connector-curvature="0" />
	<path style="fill:none;stroke:red;stroke-width:1px;stroke-linecap:butt;stroke-linejoin:miter;stroke-opacity:1" d="M 70.0599,428.986 64.5549,419.077 z" id="boundary" inkscape:connector-curvature="0" />
	<path style="fill:none;stroke:red;stroke-width:1px;stroke-linecap:butt;stroke-linejoin:miter;stroke-opacity:1" d="M 60.1509,870.486 65.6559,880.395 z" id="boundary" inkscape:connector-curvature="0" />
	<path style="fill:none;stroke:red;stroke-width:1px;stroke-linecap:butt;stroke-linejoin:miter;stroke-opacity:1" d="M 78.8679,169.15 70.0599,177.958 z" id="boundary" inkscape:connector-curvature="0" />
	<path style="fill:none;stroke:red;stroke-width:1px;stroke-linecap:butt;stroke-linejoin:miter;stroke-opacity:1" d="M 68.9589,862.779 76.6659,871.587 z" id="boundary" inkscape:connector-curvature="0" />
	<path style="fill:none;stroke:red;stroke-width:1px;stroke-linecap:butt;stroke-linejoin:miter;stroke-opacity:1" d="M 68.9589,862.779 60.1509,870.486 z" id="boundary" inkscape:connector-curvature="0" />
	<path style="fill:none;stroke:red;stroke-width:1px;stroke-linecap:butt;stroke-linejoin:miter;stroke-opacity:1" d="M 76.6659,871.587 84.3729,862.779 z" id="boundary" inkscape:connector-curvature="0" />
	<path style="fill:none;stroke:red;stroke-width:1px;stroke-linecap:butt;stroke-linejoin:miter;stroke-opacity:1" d="M 76.6659,853.971 84.3729,862.779 z" id="boundary" inkscape:connector-curvature="0" />
	<path style="fill:none;stroke:red;stroke-width:1px;stroke-linecap:butt;stroke-linejoin:miter;stroke-opacity:1" d="M 76.6659,853.971 68.9589,862.779 z" id="boundary" inkscape:connector-curvature="0" />
	<path style="fill:none;stroke:red;stroke-width:1px;stroke-linecap:butt;stroke-linejoin:miter;stroke-opacity:1" d="M 86.5749,458.713 82.1709,447.703 z" id="boundary" inkscape:connector-curvature="0" />
	<path style="fill:none;stroke:red;stroke-width:1px;stroke-linecap:butt;stroke-linejoin:miter;stroke-opacity:1" d="M 82.1709,447.703 75.5649,438.895 z" id="boundary" inkscape:connector-curvature="0" />
	<path style="fill:none;stroke:red;stroke-width:1px;stroke-linecap:butt;stroke-linejoin:miter;stroke-opacity:1" d="M 98.6859,158.14 87.6759,160.342 z" id="boundary" inkscape:connector-curvature="0" />
	<path style="fill:none;stroke:red;stroke-width:1px;stroke-linecap:butt;stroke-linejoin:miter;stroke-opacity:1" d="M 87.6759,160.342 78.8679,169.15 z" id="boundary" inkscape:connector-curvature="0" />
	<path style="fill:none;stroke:red;stroke-width:1px;stroke-linecap:butt;stroke-linejoin:miter;stroke-opacity:1" d="M 141.625,850.668 138.322,839.658 z" id="boundary" inkscape:connector-curvature="0" />
	<path style="fill:none;stroke:red;stroke-width:1px;stroke-linecap:butt;stroke-linejoin:miter;stroke-opacity:1" d="M 93.1809,852.87 104.191,847.365 z" id="boundary" inkscape:connector-curvature="0" />
	<path style="fill:none;stroke:red;stroke-width:1px;stroke-linecap:butt;stroke-linejoin:miter;stroke-opacity:1" d="M 86.5749,844.062 93.1809,852.87 z" id="boundary" inkscape:connector-curvature="0" />
	<path style="fill:none;stroke:red;stroke-width:1px;stroke-linecap:butt;stroke-linejoin:miter;stroke-opacity:1" d="M 86.5749,458.713 95.3829,466.42 z" id="boundary" inkscape:connector-curvature="0" />
	<path style="fill:none;stroke:red;stroke-width:1px;stroke-linecap:butt;stroke-linejoin:miter;stroke-opacity:1" d="M 95.3829,466.42 99.7869,477.43 z" id="boundary" inkscape:connector-curvature="0" />
	<path style="fill:none;stroke:red;stroke-width:1px;stroke-linecap:butt;stroke-linejoin:miter;stroke-opacity:1" d="M 141.625,861.678 141.625,850.668 z" id="boundary" inkscape:connector-curvature="0" />
	<path style="fill:none;stroke:red;stroke-width:1px;stroke-linecap:butt;stroke-linejoin:miter;stroke-opacity:1" d="M 98.6859,158.14 108.595,150.433 z" id="boundary" inkscape:connector-curvature="0" />
	<path style="fill:none;stroke:red;stroke-width:1px;stroke-linecap:butt;stroke-linejoin:miter;stroke-opacity:1" d="M 108.595,150.433 119.605,144.928 z" id="boundary" inkscape:connector-curvature="0" />
	<path style="fill:none;stroke:red;stroke-width:1px;stroke-linecap:butt;stroke-linejoin:miter;stroke-opacity:1" d="M 119.605,144.928 130.615,139.423 z" id="boundary" inkscape:connector-curvature="0" />
	<path style="fill:none;stroke:red;stroke-width:1px;stroke-linecap:butt;stroke-linejoin:miter;stroke-opacity:1" d="M 108.595,484.036 111.898,495.046 z" id="boundary" inkscape:connector-curvature="0" />
	<path style="fill:none;stroke:red;stroke-width:1px;stroke-linecap:butt;stroke-linejoin:miter;stroke-opacity:1" d="M 108.595,484.036 99.7869,477.43 z" id="boundary" inkscape:connector-curvature="0" />
	<path style="fill:none;stroke:red;stroke-width:1px;stroke-linecap:butt;stroke-linejoin:miter;stroke-opacity:1" d="M 112.999,839.658 120.706,830.85 z" id="boundary" inkscape:connector-curvature="0" />
	<path style="fill:none;stroke:red;stroke-width:1px;stroke-linecap:butt;stroke-linejoin:miter;stroke-opacity:1" d="M 108.595,822.042 97.5849,833.052 z" id="boundary" inkscape:connector-curvature="0" />
	<path style="fill:none;stroke:red;stroke-width:1px;stroke-linecap:butt;stroke-linejoin:miter;stroke-opacity:1" d="M 150.433,125.11 161.443,119.605 z" id="boundary" inkscape:connector-curvature="0" />
	<path style="fill:none;stroke:red;stroke-width:1px;stroke-linecap:butt;stroke-linejoin:miter;stroke-opacity:1" d="M 111.898,495.046 120.706,502.752 z" id="boundary" inkscape:connector-curvature="0" />
	<path style="fill:none;stroke:red;stroke-width:1px;stroke-linecap:butt;stroke-linejoin:miter;stroke-opacity:1" d="M 119.605,811.032 108.595,822.042 z" id="boundary" inkscape:connector-curvature="0" />
	<path style="fill:none;stroke:red;stroke-width:1px;stroke-linecap:butt;stroke-linejoin:miter;stroke-opacity:1" d="M 120.706,502.752 128.413,511.56 z" id="boundary" inkscape:connector-curvature="0" />
	<path style="fill:none;stroke:red;stroke-width:1px;stroke-linecap:butt;stroke-linejoin:miter;stroke-opacity:1" d="M 128.413,511.56 133.918,521.469 z" id="boundary" inkscape:connector-curvature="0" />
	<path style="fill:none;stroke:red;stroke-width:1px;stroke-linecap:butt;stroke-linejoin:miter;stroke-opacity:1" d="M 130.615,139.423 139.423,130.615 z" id="boundary" inkscape:connector-curvature="0" />
	<path style="fill:none;stroke:red;stroke-width:1px;stroke-linecap:butt;stroke-linejoin:miter;stroke-opacity:1" d="M 139.423,130.615 150.433,125.11 z" id="boundary" inkscape:connector-curvature="0" />
	<path style="fill:none;stroke:red;stroke-width:1px;stroke-linecap:butt;stroke-linejoin:miter;stroke-opacity:1" d="M 131.716,830.85 138.322,839.658 z" id="boundary" inkscape:connector-curvature="0" />
	<path style="fill:none;stroke:red;stroke-width:1px;stroke-linecap:butt;stroke-linejoin:miter;stroke-opacity:1" d="M 131.716,830.85 120.706,830.85 z" id="boundary" inkscape:connector-curvature="0" />
	<path style="fill:none;stroke:red;stroke-width:1px;stroke-linecap:butt;stroke-linejoin:miter;stroke-opacity:1" d="M 130.615,805.527 119.605,811.032 z" id="boundary" inkscape:connector-curvature="0" />
	<path style="fill:none;stroke:red;stroke-width:1px;stroke-linecap:butt;stroke-linejoin:miter;stroke-opacity:1" d="M 133.918,521.469 141.625,530.277 z" id="boundary" inkscape:connector-curvature="0" />
	<path style="fill:none;stroke:red;stroke-width:1px;stroke-linecap:butt;stroke-linejoin:miter;stroke-opacity:1" d="M 161.443,119.605 172.453,114.1 z" id="boundary" inkscape:connector-curvature="0" />
	<path style="fill:none;stroke:red;stroke-width:1px;stroke-linecap:butt;stroke-linejoin:miter;stroke-opacity:1" d="M 130.615,805.527 139.423,796.719 z" id="boundary" inkscape:connector-curvature="0" />
	<path style="fill:none;stroke:red;stroke-width:1px;stroke-linecap:butt;stroke-linejoin:miter;stroke-opacity:1" d="M 147.13,871.587 141.625,861.678 z" id="boundary" inkscape:connector-curvature="0" />
	<path style="fill:none;stroke:red;stroke-width:1px;stroke-linecap:butt;stroke-linejoin:miter;stroke-opacity:1" d="M 152.635,881.496 147.13,871.587 z" id="boundary" inkscape:connector-curvature="0" />
	<path style="fill:none;stroke:red;stroke-width:1px;stroke-linecap:butt;stroke-linejoin:miter;stroke-opacity:1" d="M 139.423,796.719 144.928,785.709 z" id="boundary" inkscape:connector-curvature="0" />
	<path style="fill:none;stroke:red;stroke-width:1px;stroke-linecap:butt;stroke-linejoin:miter;stroke-opacity:1" d="M 141.625,530.277 152.635,533.58 z" id="boundary" inkscape:connector-curvature="0" />
	<path style="fill:none;stroke:red;stroke-width:1px;stroke-linecap:butt;stroke-linejoin:miter;stroke-opacity:1" d="M 154.837,780.204 144.928,785.709 z" id="boundary" inkscape:connector-curvature="0" />
	<path style="fill:none;stroke:red;stroke-width:1px;stroke-linecap:butt;stroke-linejoin:miter;stroke-opacity:1" d="M 158.14,891.405 152.635,881.496 z" id="boundary" inkscape:connector-curvature="0" />
	<path style="fill:none;stroke:red;stroke-width:1px;stroke-linecap:butt;stroke-linejoin:miter;stroke-opacity:1" d="M 159.241,830.85 159.241,819.84 z" id="boundary" inkscape:connector-curvature="0" />
	<path style="fill:none;stroke:red;stroke-width:1px;stroke-linecap:butt;stroke-linejoin:miter;stroke-opacity:1" d="M 161.443,902.415 158.14,891.405 z" id="boundary" inkscape:connector-curvature="0" />
	<path style="fill:none;stroke:red;stroke-width:1px;stroke-linecap:butt;stroke-linejoin:miter;stroke-opacity:1" d="M 159.241,841.86 159.241,852.87 z" id="boundary" inkscape:connector-curvature="0" />
	<path style="fill:none;stroke:red;stroke-width:1px;stroke-linecap:butt;stroke-linejoin:miter;stroke-opacity:1" d="M 162.544,539.085 152.635,533.58 z" id="boundary" inkscape:connector-curvature="0" />
	<path style="fill:none;stroke:red;stroke-width:1px;stroke-linecap:butt;stroke-linejoin:miter;stroke-opacity:1" d="M 169.15,568.812 169.15,579.822 z" id="boundary" inkscape:connector-curvature="0" />
	<path style="fill:none;stroke:red;stroke-width:1px;stroke-linecap:butt;stroke-linejoin:miter;stroke-opacity:1" d="M 160.342,770.295 154.837,780.204 z" id="boundary" inkscape:connector-curvature="0" />
	<path style="fill:none;stroke:red;stroke-width:1px;stroke-linecap:butt;stroke-linejoin:miter;stroke-opacity:1" d="M 159.241,841.86 159.241,830.85 z" id="boundary" inkscape:connector-curvature="0" />
	<path style="fill:none;stroke:red;stroke-width:1px;stroke-linecap:butt;stroke-linejoin:miter;stroke-opacity:1" d="M 183.463,108.595 172.453,114.1 z" id="boundary" inkscape:connector-curvature="0" />
	<path style="fill:none;stroke:red;stroke-width:1px;stroke-linecap:butt;stroke-linejoin:miter;stroke-opacity:1" d="M 159.241,863.88 159.241,852.87 z" id="boundary" inkscape:connector-curvature="0" />
	<path style="fill:none;stroke:red;stroke-width:1px;stroke-linecap:butt;stroke-linejoin:miter;stroke-opacity:1" d="M 159.241,819.84 168.049,812.133 z" id="boundary" inkscape:connector-curvature="0" />
	<path style="fill:none;stroke:red;stroke-width:1px;stroke-linecap:butt;stroke-linejoin:miter;stroke-opacity:1" d="M 159.241,863.88 164.746,873.789 z" id="boundary" inkscape:connector-curvature="0" />
	<path style="fill:none;stroke:red;stroke-width:1px;stroke-linecap:butt;stroke-linejoin:miter;stroke-opacity:1" d="M 164.746,873.789 170.251,883.698 z" id="boundary" inkscape:connector-curvature="0" />
	<path style="fill:none;stroke:red;stroke-width:1px;stroke-linecap:butt;stroke-linejoin:miter;stroke-opacity:1" d="M 170.251,910.122 180.16,915.627 z" id="boundary" inkscape:connector-curvature="0" />
	<path style="fill:none;stroke:red;stroke-width:1px;stroke-linecap:butt;stroke-linejoin:miter;stroke-opacity:1" d="M 180.16,915.627 186.766,924.435 z" id="boundary" inkscape:connector-curvature="0" />
	<path style="fill:none;stroke:red;stroke-width:1px;stroke-linecap:butt;stroke-linejoin:miter;stroke-opacity:1" d="M 183.463,108.595 194.473,103.09 z" id="boundary" inkscape:connector-curvature="0" />
	<path style="fill:none;stroke:red;stroke-width:1px;stroke-linecap:butt;stroke-linejoin:miter;stroke-opacity:1" d="M 168.049,812.133 175.756,803.325 z" id="boundary" inkscape:connector-curvature="0" />
	<path style="fill:none;stroke:red;stroke-width:1px;stroke-linecap:butt;stroke-linejoin:miter;stroke-opacity:1" d="M 174.655,589.731 169.15,579.822 z" id="boundary" inkscape:connector-curvature="0" />
	<path style="fill:none;stroke:red;stroke-width:1px;stroke-linecap:butt;stroke-linejoin:miter;stroke-opacity:1" d="M 169.15,568.812 174.655,555.6 z" id="boundary" inkscape:connector-curvature="0" />
	<path style="fill:none;stroke:red;stroke-width:1px;stroke-linecap:butt;stroke-linejoin:miter;stroke-opacity:1" d="M 169.15,761.487 160.342,770.295 z" id="boundary" inkscape:connector-curvature="0" />
	<path style="fill:none;stroke:red;stroke-width:1px;stroke-linecap:butt;stroke-linejoin:miter;stroke-opacity:1" d="M 174.655,555.6 172.453,544.59 z" id="boundary" inkscape:connector-curvature="0" />
	<path style="fill:none;stroke:red;stroke-width:1px;stroke-linecap:butt;stroke-linejoin:miter;stroke-opacity:1" d="M 172.453,544.59 162.544,539.085 z" id="boundary" inkscape:connector-curvature="0" />
	<path style="fill:none;stroke:red;stroke-width:1px;stroke-linecap:butt;stroke-linejoin:miter;stroke-opacity:1" d="M 179.059,891.405 170.251,883.698 z" id="boundary" inkscape:connector-curvature="0" />
	<path style="fill:none;stroke:red;stroke-width:1px;stroke-linecap:butt;stroke-linejoin:miter;stroke-opacity:1" d="M 186.766,924.435 193.372,933.243 z" id="boundary" inkscape:connector-curvature="0" />
	<path style="fill:none;stroke:red;stroke-width:1px;stroke-linecap:butt;stroke-linejoin:miter;stroke-opacity:1" d="M 182.362,598.539 174.655,589.731 z" id="boundary" inkscape:connector-curvature="0" />
	<path style="fill:none;stroke:red;stroke-width:1px;stroke-linecap:butt;stroke-linejoin:miter;stroke-opacity:1" d="M 181.261,792.315 175.756,803.325 z" id="boundary" inkscape:connector-curvature="0" />
	<path style="fill:none;stroke:red;stroke-width:1px;stroke-linecap:butt;stroke-linejoin:miter;stroke-opacity:1" d="M 180.16,750.477 169.15,761.487 z" id="boundary" inkscape:connector-curvature="0" />
	<path style="fill:none;stroke:red;stroke-width:1px;stroke-linecap:butt;stroke-linejoin:miter;stroke-opacity:1" d="M 184.564,901.314 179.059,891.405 z" id="boundary" inkscape:connector-curvature="0" />
	<path style="fill:none;stroke:red;stroke-width:1px;stroke-linecap:butt;stroke-linejoin:miter;stroke-opacity:1" d="M 182.362,598.539 191.17,605.145 z" id="boundary" inkscape:connector-curvature="0" />
	<path style="fill:none;stroke:red;stroke-width:1px;stroke-linecap:butt;stroke-linejoin:miter;stroke-opacity:1" d="M 181.261,792.315 191.17,786.81 z" id="boundary" inkscape:connector-curvature="0" />
	<path style="fill:none;stroke:red;stroke-width:1px;stroke-linecap:butt;stroke-linejoin:miter;stroke-opacity:1" d="M 180.16,750.477 191.17,739.467 z" id="boundary" inkscape:connector-curvature="0" />
	<path style="fill:none;stroke:red;stroke-width:1px;stroke-linecap:butt;stroke-linejoin:miter;stroke-opacity:1" d="M 192.271,910.122 184.564,901.314 z" id="boundary" inkscape:connector-curvature="0" />
	<path style="fill:none;stroke:red;stroke-width:1px;stroke-linecap:butt;stroke-linejoin:miter;stroke-opacity:1" d="M 193.372,933.243 202.18,939.849 z" id="boundary" inkscape:connector-curvature="0" />
	<path style="fill:none;stroke:red;stroke-width:1px;stroke-linecap:butt;stroke-linejoin:miter;stroke-opacity:1" d="M 191.17,786.81 199.978,780.204 z" id="boundary" inkscape:connector-curvature="0" />
	<path style="fill:none;stroke:red;stroke-width:1px;stroke-linecap:butt;stroke-linejoin:miter;stroke-opacity:1" d="M 191.17,605.145 202.18,605.145 z" id="boundary" inkscape:connector-curvature="0" />
	<path style="fill:none;stroke:red;stroke-width:1px;stroke-linecap:butt;stroke-linejoin:miter;stroke-opacity:1" d="M 202.18,915.627 192.271,910.122 z" id="boundary" inkscape:connector-curvature="0" />
	<path style="fill:none;stroke:red;stroke-width:1px;stroke-linecap:butt;stroke-linejoin:miter;stroke-opacity:1" d="M 227.503,962.97 219.796,954.162 z" id="boundary" inkscape:connector-curvature="0" />
	<path style="fill:none;stroke:red;stroke-width:1px;stroke-linecap:butt;stroke-linejoin:miter;stroke-opacity:1" d="M 219.796,954.162 210.988,946.455 z" id="boundary" inkscape:connector-curvature="0" />
	<path style="fill:none;stroke:red;stroke-width:1px;stroke-linecap:butt;stroke-linejoin:miter;stroke-opacity:1" d="M 194.473,103.09 205.483,97.5849 z" id="boundary" inkscape:connector-curvature="0" />
	<path style="fill:none;stroke:red;stroke-width:1px;stroke-linecap:butt;stroke-linejoin:miter;stroke-opacity:1" d="M 202.18,728.457 191.17,739.467 z" id="boundary" inkscape:connector-curvature="0" />
	<path style="fill:none;stroke:red;stroke-width:1px;stroke-linecap:butt;stroke-linejoin:miter;stroke-opacity:1" d="M 202.18,605.145 213.19,605.145 z" id="boundary" inkscape:connector-curvature="0" />
	<path style="fill:none;stroke:red;stroke-width:1px;stroke-linecap:butt;stroke-linejoin:miter;stroke-opacity:1" d="M 205.483,770.295 199.978,780.204 z" id="boundary" inkscape:connector-curvature="0" />
	<path style="fill:none;stroke:red;stroke-width:1px;stroke-linecap:butt;stroke-linejoin:miter;stroke-opacity:1" d="M 210.988,923.334 202.18,915.627 z" id="boundary" inkscape:connector-curvature="0" />
	<path style="fill:none;stroke:red;stroke-width:1px;stroke-linecap:butt;stroke-linejoin:miter;stroke-opacity:1" d="M 225.301,753.78 214.291,759.285 z" id="boundary" inkscape:connector-curvature="0" />
	<path style="fill:none;stroke:red;stroke-width:1px;stroke-linecap:butt;stroke-linejoin:miter;stroke-opacity:1" d="M 214.291,759.285 205.483,770.295 z" id="boundary" inkscape:connector-curvature="0" />
	<path style="fill:none;stroke:red;stroke-width:1px;stroke-linecap:butt;stroke-linejoin:miter;stroke-opacity:1" d="M 202.18,939.849 210.988,946.455 z" id="boundary" inkscape:connector-curvature="0" />
	<path style="fill:none;stroke:red;stroke-width:1px;stroke-linecap:butt;stroke-linejoin:miter;stroke-opacity:1" d="M 216.493,92.0799 205.483,97.5849 z" id="boundary" inkscape:connector-curvature="0" />
	<path style="fill:none;stroke:red;stroke-width:1px;stroke-linecap:butt;stroke-linejoin:miter;stroke-opacity:1" d="M 202.18,728.457 213.19,717.447 z" id="boundary" inkscape:connector-curvature="0" />
	<path style="fill:none;stroke:red;stroke-width:1px;stroke-linecap:butt;stroke-linejoin:miter;stroke-opacity:1" d="M 214.291,934.344 210.988,923.334 z" id="boundary" inkscape:connector-curvature="0" />
	<path style="fill:none;stroke:red;stroke-width:1px;stroke-linecap:butt;stroke-linejoin:miter;stroke-opacity:1" d="M 456.511,96.4839 448.804,87.6759 z" id="boundary" inkscape:connector-curvature="0" />
	<path style="fill:none;stroke:red;stroke-width:1px;stroke-linecap:butt;stroke-linejoin:miter;stroke-opacity:1" d="M 448.804,87.6759 439.996,81.0699 z" id="boundary" inkscape:connector-curvature="0" />
	<path style="fill:none;stroke:red;stroke-width:1px;stroke-linecap:butt;stroke-linejoin:miter;stroke-opacity:1" d="M 213.19,717.447 221.998,708.639 z" id="boundary" inkscape:connector-curvature="0" />
	<path style="fill:none;stroke:red;stroke-width:1px;stroke-linecap:butt;stroke-linejoin:miter;stroke-opacity:1" d="M 223.099,940.95 214.291,934.344 z" id="boundary" inkscape:connector-curvature="0" />
	<path style="fill:none;stroke:red;stroke-width:1px;stroke-linecap:butt;stroke-linejoin:miter;stroke-opacity:1" d="M 213.19,605.145 224.2,605.145 z" id="boundary" inkscape:connector-curvature="0" />
	<path style="fill:none;stroke:red;stroke-width:1px;stroke-linecap:butt;stroke-linejoin:miter;stroke-opacity:1" d="M 226.402,86.5749 235.21,78.8679 z" id="boundary" inkscape:connector-curvature="0" />
	<path style="fill:none;stroke:red;stroke-width:1px;stroke-linecap:butt;stroke-linejoin:miter;stroke-opacity:1" d="M 235.21,78.8679 246.22,73.3629 z" id="boundary" inkscape:connector-curvature="0" />
	<path style="fill:none;stroke:red;stroke-width:1px;stroke-linecap:butt;stroke-linejoin:miter;stroke-opacity:1" d="M 218.695,667.902 225.301,676.71 z" id="boundary" inkscape:connector-curvature="0" />
	<path style="fill:none;stroke:red;stroke-width:1px;stroke-linecap:butt;stroke-linejoin:miter;stroke-opacity:1" d="M 233.008,946.455 223.099,940.95 z" id="boundary" inkscape:connector-curvature="0" />
	<path style="fill:none;stroke:red;stroke-width:1px;stroke-linecap:butt;stroke-linejoin:miter;stroke-opacity:1" d="M 218.695,667.902 227.503,659.094 z" id="boundary" inkscape:connector-curvature="0" />
	<path style="fill:none;stroke:red;stroke-width:1px;stroke-linecap:butt;stroke-linejoin:miter;stroke-opacity:1" d="M 230.806,699.831 221.998,708.639 z" id="boundary" inkscape:connector-curvature="0" />
	<path style="fill:none;stroke:red;stroke-width:1px;stroke-linecap:butt;stroke-linejoin:miter;stroke-opacity:1" d="M 225.301,753.78 234.109,746.073 z" id="boundary" inkscape:connector-curvature="0" />
	<path style="fill:none;stroke:red;stroke-width:1px;stroke-linecap:butt;stroke-linejoin:miter;stroke-opacity:1" d="M 273.745,51.343 264.937,59.0499 z" id="boundary" inkscape:connector-curvature="0" />
	<path style="fill:none;stroke:red;stroke-width:1px;stroke-linecap:butt;stroke-linejoin:miter;stroke-opacity:1" d="M 225.301,676.71 235.21,671.205 z" id="boundary" inkscape:connector-curvature="0" />
	<path style="fill:none;stroke:red;stroke-width:1px;stroke-linecap:butt;stroke-linejoin:miter;stroke-opacity:1" d="M 224.2,605.145 235.21,605.145 z" id="boundary" inkscape:connector-curvature="0" />
	<path style="fill:none;stroke:red;stroke-width:1px;stroke-linecap:butt;stroke-linejoin:miter;stroke-opacity:1" d="M 268.24,979.485 278.149,984.99 z" id="boundary" inkscape:connector-curvature="0" />
	<path style="fill:none;stroke:red;stroke-width:1px;stroke-linecap:butt;stroke-linejoin:miter;stroke-opacity:1" d="M 238.513,962.97 227.503,962.97 z" id="boundary" inkscape:connector-curvature="0" />
	<path style="fill:none;stroke:red;stroke-width:1px;stroke-linecap:butt;stroke-linejoin:miter;stroke-opacity:1" d="M 227.503,659.094 236.311,650.286 z" id="boundary" inkscape:connector-curvature="0" />
	<path style="fill:none;stroke:red;stroke-width:1px;stroke-linecap:butt;stroke-linejoin:miter;stroke-opacity:1" d="M 230.806,699.831 236.311,688.821 z" id="boundary" inkscape:connector-curvature="0" />
	<path style="fill:none;stroke:red;stroke-width:1px;stroke-linecap:butt;stroke-linejoin:miter;stroke-opacity:1" d="M 216.493,92.0799 226.402,86.5749 z" id="boundary" inkscape:connector-curvature="0" />
	<path style="fill:none;stroke:red;stroke-width:1px;stroke-linecap:butt;stroke-linejoin:miter;stroke-opacity:1" d="M 233.008,946.455 244.018,950.859 z" id="boundary" inkscape:connector-curvature="0" />
	<path style="fill:none;stroke:red;stroke-width:1px;stroke-linecap:butt;stroke-linejoin:miter;stroke-opacity:1" d="M 236.311,650.286 245.119,642.579 z" id="boundary" inkscape:connector-curvature="0" />
	<path style="fill:none;stroke:red;stroke-width:1px;stroke-linecap:butt;stroke-linejoin:miter;stroke-opacity:1" d="M 236.311,688.821 245.119,681.114 z" id="boundary" inkscape:connector-curvature="0" />
	<path style="fill:none;stroke:red;stroke-width:1px;stroke-linecap:butt;stroke-linejoin:miter;stroke-opacity:1" d="M 414.673,59.0499 424.582,64.5549 z" id="boundary" inkscape:connector-curvature="0" />
	<path style="fill:none;stroke:red;stroke-width:1px;stroke-linecap:butt;stroke-linejoin:miter;stroke-opacity:1" d="M 424.582,64.5549 433.39,72.2619 z" id="boundary" inkscape:connector-curvature="0" />
	<path style="fill:none;stroke:red;stroke-width:1px;stroke-linecap:butt;stroke-linejoin:miter;stroke-opacity:1" d="M 241.816,737.265 234.109,746.073 z" id="boundary" inkscape:connector-curvature="0" />
	<path style="fill:none;stroke:red;stroke-width:1px;stroke-linecap:butt;stroke-linejoin:miter;stroke-opacity:1" d="M 235.21,671.205 245.119,665.7 z" id="boundary" inkscape:connector-curvature="0" />
	<path style="fill:none;stroke:red;stroke-width:1px;stroke-linecap:butt;stroke-linejoin:miter;stroke-opacity:1" d="M 247.321,970.677 238.513,962.97 z" id="boundary" inkscape:connector-curvature="0" />
	<path style="fill:none;stroke:red;stroke-width:1px;stroke-linecap:butt;stroke-linejoin:miter;stroke-opacity:1" d="M 251.725,959.667 244.018,950.859 z" id="boundary" inkscape:connector-curvature="0" />
	<path style="fill:none;stroke:red;stroke-width:1px;stroke-linecap:butt;stroke-linejoin:miter;stroke-opacity:1" d="M 235.21,605.145 246.22,605.145 z" id="boundary" inkscape:connector-curvature="0" />
	<path style="fill:none;stroke:red;stroke-width:1px;stroke-linecap:butt;stroke-linejoin:miter;stroke-opacity:1" d="M 246.22,605.145 251.725,623.862 z" id="boundary" inkscape:connector-curvature="0" />
	<path style="fill:none;stroke:red;stroke-width:1px;stroke-linecap:butt;stroke-linejoin:miter;stroke-opacity:1" d="M 245.119,642.579 251.725,623.862 z" id="boundary" inkscape:connector-curvature="0" />
	<path style="fill:none;stroke:red;stroke-width:1px;stroke-linecap:butt;stroke-linejoin:miter;stroke-opacity:1" d="M 255.028,64.5549 264.937,59.0499 z" id="boundary" inkscape:connector-curvature="0" />
	<path style="fill:none;stroke:red;stroke-width:1px;stroke-linecap:butt;stroke-linejoin:miter;stroke-opacity:1" d="M 255.028,64.5549 246.22,73.3629 z" id="boundary" inkscape:connector-curvature="0" />
	<path style="fill:none;stroke:red;stroke-width:1px;stroke-linecap:butt;stroke-linejoin:miter;stroke-opacity:1" d="M 252.826,726.255 241.816,737.265 z" id="boundary" inkscape:connector-curvature="0" />
	<path style="fill:none;stroke:red;stroke-width:1px;stroke-linecap:butt;stroke-linejoin:miter;stroke-opacity:1" d="M 278.149,984.99 288.058,990.495 z" id="boundary" inkscape:connector-curvature="0" />
	<path style="fill:none;stroke:red;stroke-width:1px;stroke-linecap:butt;stroke-linejoin:miter;stroke-opacity:1" d="M 371.734,21.616 379.441,30.424 z" id="boundary" inkscape:connector-curvature="0" />
	<path style="fill:none;stroke:red;stroke-width:1px;stroke-linecap:butt;stroke-linejoin:miter;stroke-opacity:1" d="M 258.331,973.98 247.321,970.677 z" id="boundary" inkscape:connector-curvature="0" />
	<path style="fill:none;stroke:red;stroke-width:1px;stroke-linecap:butt;stroke-linejoin:miter;stroke-opacity:1" d="M 388.249,37.03 395.956,45.838 z" id="boundary" inkscape:connector-curvature="0" />
	<path style="fill:none;stroke:red;stroke-width:1px;stroke-linecap:butt;stroke-linejoin:miter;stroke-opacity:1" d="M 388.249,37.03 379.441,30.424 z" id="boundary" inkscape:connector-curvature="0" />
	<path style="fill:none;stroke:red;stroke-width:1px;stroke-linecap:butt;stroke-linejoin:miter;stroke-opacity:1" d="M 252.826,726.255 263.836,715.245 z" id="boundary" inkscape:connector-curvature="0" />
	<path style="fill:none;stroke:red;stroke-width:1px;stroke-linecap:butt;stroke-linejoin:miter;stroke-opacity:1" d="M 262.735,961.869 251.725,959.667 z" id="boundary" inkscape:connector-curvature="0" />
	<path style="fill:none;stroke:red;stroke-width:1px;stroke-linecap:butt;stroke-linejoin:miter;stroke-opacity:1" d="M 268.24,979.485 258.331,973.98 z" id="boundary" inkscape:connector-curvature="0" />
	<path style="fill:none;stroke:red;stroke-width:1px;stroke-linecap:butt;stroke-linejoin:miter;stroke-opacity:1" d="M 263.836,715.245 274.846,704.235 z" id="boundary" inkscape:connector-curvature="0" />
	<path style="fill:none;stroke:red;stroke-width:1px;stroke-linecap:butt;stroke-linejoin:miter;stroke-opacity:1" d="M 271.543,968.475 262.735,961.869 z" id="boundary" inkscape:connector-curvature="0" />
	<path style="fill:none;stroke:red;stroke-width:1px;stroke-linecap:butt;stroke-linejoin:miter;stroke-opacity:1" d="M 295.765,34.828 284.755,40.333 z" id="boundary" inkscape:connector-curvature="0" />
	<path style="fill:none;stroke:red;stroke-width:1px;stroke-linecap:butt;stroke-linejoin:miter;stroke-opacity:1" d="M 284.755,40.333 273.745,51.343 z" id="boundary" inkscape:connector-curvature="0" />
	<path style="fill:none;stroke:red;stroke-width:1px;stroke-linecap:butt;stroke-linejoin:miter;stroke-opacity:1" d="M 325.492,15.01 315.583,20.515 z" id="boundary" inkscape:connector-curvature="0" />
	<path style="fill:none;stroke:red;stroke-width:1px;stroke-linecap:butt;stroke-linejoin:miter;stroke-opacity:1" d="M 274.846,704.235 285.856,698.73 z" id="boundary" inkscape:connector-curvature="0" />
	<path style="fill:none;stroke:red;stroke-width:1px;stroke-linecap:butt;stroke-linejoin:miter;stroke-opacity:1" d="M 292.462,978.384 282.553,972.879 z" id="boundary" inkscape:connector-curvature="0" />
	<path style="fill:none;stroke:red;stroke-width:1px;stroke-linecap:butt;stroke-linejoin:miter;stroke-opacity:1" d="M 285.856,698.73 294.664,691.023 z" id="boundary" inkscape:connector-curvature="0" />
	<path style="fill:none;stroke:red;stroke-width:1px;stroke-linecap:butt;stroke-linejoin:miter;stroke-opacity:1" d="M 312.28,722.952 323.29,722.952 z" id="boundary" inkscape:connector-curvature="0" />
	<path style="fill:none;stroke:red;stroke-width:1px;stroke-linecap:butt;stroke-linejoin:miter;stroke-opacity:1" d="M 302.371,983.889 292.462,978.384 z" id="boundary" inkscape:connector-curvature="0" />
	<path style="fill:none;stroke:red;stroke-width:1px;stroke-linecap:butt;stroke-linejoin:miter;stroke-opacity:1" d="M 295.765,34.828 304.573,26.02 z" id="boundary" inkscape:connector-curvature="0" />
	<path style="fill:none;stroke:red;stroke-width:1px;stroke-linecap:butt;stroke-linejoin:miter;stroke-opacity:1" d="M 304.573,26.02 315.583,20.515 z" id="boundary" inkscape:connector-curvature="0" />
	<path style="fill:none;stroke:red;stroke-width:1px;stroke-linecap:butt;stroke-linejoin:miter;stroke-opacity:1" d="M 323.29,682.215 323.29,693.225 z" id="boundary" inkscape:connector-curvature="0" />
	<path style="fill:none;stroke:red;stroke-width:1px;stroke-linecap:butt;stroke-linejoin:miter;stroke-opacity:1" d="M 302.371,676.71 294.664,691.023 z" id="boundary" inkscape:connector-curvature="0" />
	<path style="fill:none;stroke:red;stroke-width:1px;stroke-linecap:butt;stroke-linejoin:miter;stroke-opacity:1" d="M 302.371,676.71 313.381,665.7 z" id="boundary" inkscape:connector-curvature="0" />
	<path style="fill:none;stroke:red;stroke-width:1px;stroke-linecap:butt;stroke-linejoin:miter;stroke-opacity:1" d="M 310.078,996 299.068,994.899 z" id="boundary" inkscape:connector-curvature="0" />
	<path style="fill:none;stroke:red;stroke-width:1px;stroke-linecap:butt;stroke-linejoin:miter;stroke-opacity:1" d="M 325.492,15.01 334.3,7.303 z" id="boundary" inkscape:connector-curvature="0" />
	<path style="fill:none;stroke:red;stroke-width:1px;stroke-linecap:butt;stroke-linejoin:miter;stroke-opacity:1" d="M 302.371,983.889 313.381,983.889 z" id="boundary" inkscape:connector-curvature="0" />
	<path style="fill:none;stroke:red;stroke-width:1px;stroke-linecap:butt;stroke-linejoin:miter;stroke-opacity:1" d="M 313.381,665.7 323.29,671.205 z" id="boundary" inkscape:connector-curvature="0" />
	<path style="fill:none;stroke:red;stroke-width:1px;stroke-linecap:butt;stroke-linejoin:miter;stroke-opacity:1" d="M 323.29,671.205 323.29,682.215 z" id="boundary" inkscape:connector-curvature="0" />
	<path style="fill:none;stroke:red;stroke-width:1px;stroke-linecap:butt;stroke-linejoin:miter;stroke-opacity:1" d="M 321.088,996 310.078,996 z" id="boundary" inkscape:connector-curvature="0" />
	<path style="fill:none;stroke:red;stroke-width:1px;stroke-linecap:butt;stroke-linejoin:miter;stroke-opacity:1" d="M 334.3,7.303 345.31,4 z" id="boundary" inkscape:connector-curvature="0" />
	<path style="fill:none;stroke:red;stroke-width:1px;stroke-linecap:butt;stroke-linejoin:miter;stroke-opacity:1" d="M 356.32,6.202 362.926,15.01 z" id="boundary" inkscape:connector-curvature="0" />
	<path style="fill:none;stroke:red;stroke-width:1px;stroke-linecap:butt;stroke-linejoin:miter;stroke-opacity:1" d="M 356.32,6.202 345.31,4 z" id="boundary" inkscape:connector-curvature="0" />
	<path style="fill:none;stroke:red;stroke-width:1px;stroke-linecap:butt;stroke-linejoin:miter;stroke-opacity:1" d="M 323.29,693.225 337.603,703.134 z" id="boundary" inkscape:connector-curvature="0" />
	<path style="fill:none;stroke:red;stroke-width:1px;stroke-linecap:butt;stroke-linejoin:miter;stroke-opacity:1" d="M 346.411,665.7 346.411,654.69 z" id="boundary" inkscape:connector-curvature="0" />
	<path style="fill:none;stroke:red;stroke-width:1px;stroke-linecap:butt;stroke-linejoin:miter;stroke-opacity:1" d="M 313.381,983.889 324.391,983.889 z" id="boundary" inkscape:connector-curvature="0" />
	<path style="fill:none;stroke:red;stroke-width:1px;stroke-linecap:butt;stroke-linejoin:miter;stroke-opacity:1" d="M 332.098,714.144 323.29,722.952 z" id="boundary" inkscape:connector-curvature="0" />
	<path style="fill:none;stroke:red;stroke-width:1px;stroke-linecap:butt;stroke-linejoin:miter;stroke-opacity:1" d="M 346.411,687.72 346.411,676.71 z" id="boundary" inkscape:connector-curvature="0" />
	<path style="fill:none;stroke:red;stroke-width:1px;stroke-linecap:butt;stroke-linejoin:miter;stroke-opacity:1" d="M 332.098,996 321.088,996 z" id="boundary" inkscape:connector-curvature="0" />
	<path style="fill:none;stroke:red;stroke-width:1px;stroke-linecap:butt;stroke-linejoin:miter;stroke-opacity:1" d="M 362.926,15.01 371.734,21.616 z" id="boundary" inkscape:connector-curvature="0" />
	<path style="fill:none;stroke:red;stroke-width:1px;stroke-linecap:butt;stroke-linejoin:miter;stroke-opacity:1" d="M 335.401,983.889 324.391,983.889 z" id="boundary" inkscape:connector-curvature="0" />
	<path style="fill:none;stroke:red;stroke-width:1px;stroke-linecap:butt;stroke-linejoin:miter;stroke-opacity:1" d="M 332.098,714.144 337.603,703.134 z" id="boundary" inkscape:connector-curvature="0" />
	<path style="fill:none;stroke:red;stroke-width:1px;stroke-linecap:butt;stroke-linejoin:miter;stroke-opacity:1" d="M 410.269,632.67 399.259,632.67 z" id="boundary" inkscape:connector-curvature="0" />
	<path style="fill:none;stroke:red;stroke-width:1px;stroke-linecap:butt;stroke-linejoin:miter;stroke-opacity:1" d="M 343.108,996 332.098,996 z" id="boundary" inkscape:connector-curvature="0" />
	<path style="fill:none;stroke:red;stroke-width:1px;stroke-linecap:butt;stroke-linejoin:miter;stroke-opacity:1" d="M 346.411,643.68 346.411,632.67 z" id="boundary" inkscape:connector-curvature="0" />
	<path style="fill:none;stroke:red;stroke-width:1px;stroke-linecap:butt;stroke-linejoin:miter;stroke-opacity:1" d="M 346.411,654.69 346.411,643.68 z" id="boundary" inkscape:connector-curvature="0" />
	<path style="fill:none;stroke:red;stroke-width:1px;stroke-linecap:butt;stroke-linejoin:miter;stroke-opacity:1" d="M 346.411,632.67 356.32,627.165 z" id="boundary" inkscape:connector-curvature="0" />
	<path style="fill:none;stroke:red;stroke-width:1px;stroke-linecap:butt;stroke-linejoin:miter;stroke-opacity:1" d="M 346.411,676.71 346.411,665.7 z" id="boundary" inkscape:connector-curvature="0" />
	<path style="fill:none;stroke:red;stroke-width:1px;stroke-linecap:butt;stroke-linejoin:miter;stroke-opacity:1" d="M 356.32,627.165 367.33,627.165 z" id="boundary" inkscape:connector-curvature="0" />
	<path style="fill:none;stroke:red;stroke-width:1px;stroke-linecap:butt;stroke-linejoin:miter;stroke-opacity:1" d="M 377.239,632.67 367.33,627.165 z" id="boundary" inkscape:connector-curvature="0" />
	<path style="fill:none;stroke:red;stroke-width:1px;stroke-linecap:butt;stroke-linejoin:miter;stroke-opacity:1" d="M 421.279,632.67 410.269,632.67 z" id="boundary" inkscape:connector-curvature="0" />
	<path style="fill:none;stroke:red;stroke-width:1px;stroke-linecap:butt;stroke-linejoin:miter;stroke-opacity:1" d="M 346.411,983.889 335.401,983.889 z" id="boundary" inkscape:connector-curvature="0" />
	<path style="fill:none;stroke:red;stroke-width:1px;stroke-linecap:butt;stroke-linejoin:miter;stroke-opacity:1" d="M 354.118,996 343.108,996 z" id="boundary" inkscape:connector-curvature="0" />
	<path style="fill:none;stroke:red;stroke-width:1px;stroke-linecap:butt;stroke-linejoin:miter;stroke-opacity:1" d="M 388.249,632.67 377.239,632.67 z" id="boundary" inkscape:connector-curvature="0" />
	<path style="fill:none;stroke:red;stroke-width:1px;stroke-linecap:butt;stroke-linejoin:miter;stroke-opacity:1" d="M 357.421,983.889 346.411,983.889 z" id="boundary" inkscape:connector-curvature="0" />
	<path style="fill:none;stroke:red;stroke-width:1px;stroke-linecap:butt;stroke-linejoin:miter;stroke-opacity:1" d="M 365.128,994.899 354.118,996 z" id="boundary" inkscape:connector-curvature="0" />
	<path style="fill:none;stroke:red;stroke-width:1px;stroke-linecap:butt;stroke-linejoin:miter;stroke-opacity:1" d="M 367.33,978.384 357.421,983.889 z" id="boundary" inkscape:connector-curvature="0" />
	<path style="fill:none;stroke:red;stroke-width:1px;stroke-linecap:butt;stroke-linejoin:miter;stroke-opacity:1" d="M 395.956,45.838 405.865,51.343 z" id="boundary" inkscape:connector-curvature="0" />
	<path style="fill:none;stroke:red;stroke-width:1px;stroke-linecap:butt;stroke-linejoin:miter;stroke-opacity:1" d="M 405.865,51.343 414.673,59.0499 z" id="boundary" inkscape:connector-curvature="0" />
	<path style="fill:none;stroke:red;stroke-width:1px;stroke-linecap:butt;stroke-linejoin:miter;stroke-opacity:1" d="M 376.138,990.495 365.128,994.899 z" id="boundary" inkscape:connector-curvature="0" />
	<path style="fill:none;stroke:red;stroke-width:1px;stroke-linecap:butt;stroke-linejoin:miter;stroke-opacity:1" d="M 388.249,632.67 399.259,632.67 z" id="boundary" inkscape:connector-curvature="0" />
	<path style="fill:none;stroke:red;stroke-width:1px;stroke-linecap:butt;stroke-linejoin:miter;stroke-opacity:1" d="M 387.148,989.394 376.138,990.495 z" id="boundary" inkscape:connector-curvature="0" />
	<path style="fill:none;stroke:red;stroke-width:1px;stroke-linecap:butt;stroke-linejoin:miter;stroke-opacity:1" d="M 378.34,976.182 367.33,978.384 z" id="boundary" inkscape:connector-curvature="0" />
	<path style="fill:none;stroke:red;stroke-width:1px;stroke-linecap:butt;stroke-linejoin:miter;stroke-opacity:1" d="M 378.34,976.182 389.35,970.677 z" id="boundary" inkscape:connector-curvature="0" />
	<path style="fill:none;stroke:red;stroke-width:1px;stroke-linecap:butt;stroke-linejoin:miter;stroke-opacity:1" d="M 433.39,72.2619 439.996,81.0699 z" id="boundary" inkscape:connector-curvature="0" />
	<path style="fill:none;stroke:red;stroke-width:1px;stroke-linecap:butt;stroke-linejoin:miter;stroke-opacity:1" d="M 389.35,970.677 395.956,979.485 z" id="boundary" inkscape:connector-curvature="0" />
	<path style="fill:none;stroke:red;stroke-width:1px;stroke-linecap:butt;stroke-linejoin:miter;stroke-opacity:1" d="M 432.289,630.468 421.279,632.67 z" id="boundary" inkscape:connector-curvature="0" />
	<path style="fill:none;stroke:red;stroke-width:1px;stroke-linecap:butt;stroke-linejoin:miter;stroke-opacity:1" d="M 400.36,965.172 389.35,970.677 z" id="boundary" inkscape:connector-curvature="0" />
	<path style="fill:none;stroke:red;stroke-width:1px;stroke-linecap:butt;stroke-linejoin:miter;stroke-opacity:1" d="M 406.966,979.485 395.956,979.485 z" id="boundary" inkscape:connector-curvature="0" />
	<path style="fill:none;stroke:red;stroke-width:1px;stroke-linecap:butt;stroke-linejoin:miter;stroke-opacity:1" d="M 411.37,961.869 400.36,965.172 z" id="boundary" inkscape:connector-curvature="0" />
	<path style="fill:none;stroke:red;stroke-width:1px;stroke-linecap:butt;stroke-linejoin:miter;stroke-opacity:1" d="M 428.986,580.923 423.481,571.014 z" id="boundary" inkscape:connector-curvature="0" />
	<path style="fill:none;stroke:red;stroke-width:1px;stroke-linecap:butt;stroke-linejoin:miter;stroke-opacity:1" d="M 416.875,973.98 406.966,979.485 z" id="boundary" inkscape:connector-curvature="0" />
	<path style="fill:none;stroke:red;stroke-width:1px;stroke-linecap:butt;stroke-linejoin:miter;stroke-opacity:1" d="M 422.38,959.667 411.37,961.869 z" id="boundary" inkscape:connector-curvature="0" />
	<path style="fill:none;stroke:red;stroke-width:1px;stroke-linecap:butt;stroke-linejoin:miter;stroke-opacity:1" d="M 428.986,561.105 439.996,563.307 z" id="boundary" inkscape:connector-curvature="0" />
	<path style="fill:none;stroke:red;stroke-width:1px;stroke-linecap:butt;stroke-linejoin:miter;stroke-opacity:1" d="M 428.986,968.475 422.38,959.667 z" id="boundary" inkscape:connector-curvature="0" />
	<path style="fill:none;stroke:red;stroke-width:1px;stroke-linecap:butt;stroke-linejoin:miter;stroke-opacity:1" d="M 439.996,599.64 437.794,588.63 z" id="boundary" inkscape:connector-curvature="0" />
	<path style="fill:none;stroke:red;stroke-width:1px;stroke-linecap:butt;stroke-linejoin:miter;stroke-opacity:1" d="M 437.794,588.63 428.986,580.923 z" id="boundary" inkscape:connector-curvature="0" />
	<path style="fill:none;stroke:red;stroke-width:1px;stroke-linecap:butt;stroke-linejoin:miter;stroke-opacity:1" d="M 428.986,561.105 417.976,561.105 z" id="boundary" inkscape:connector-curvature="0" />
	<path style="fill:none;stroke:red;stroke-width:1px;stroke-linecap:butt;stroke-linejoin:miter;stroke-opacity:1" d="M 478.531,122.908 473.026,112.999 z" id="boundary" inkscape:connector-curvature="0" />
	<path style="fill:none;stroke:red;stroke-width:1px;stroke-linecap:butt;stroke-linejoin:miter;stroke-opacity:1" d="M 473.026,112.999 465.319,104.191 z" id="boundary" inkscape:connector-curvature="0" />
	<path style="fill:none;stroke:red;stroke-width:1px;stroke-linecap:butt;stroke-linejoin:miter;stroke-opacity:1" d="M 439.996,962.97 428.986,968.475 z" id="boundary" inkscape:connector-curvature="0" />
	<path style="fill:none;stroke:red;stroke-width:1px;stroke-linecap:butt;stroke-linejoin:miter;stroke-opacity:1" d="M 439.996,610.65 439.996,599.64 z" id="boundary" inkscape:connector-curvature="0" />
	<path style="fill:none;stroke:red;stroke-width:1px;stroke-linecap:butt;stroke-linejoin:miter;stroke-opacity:1" d="M 456.511,96.4839 465.319,104.191 z" id="boundary" inkscape:connector-curvature="0" />
	<path style="fill:none;stroke:red;stroke-width:1px;stroke-linecap:butt;stroke-linejoin:miter;stroke-opacity:1" d="M 439.996,563.307 451.006,566.61 z" id="boundary" inkscape:connector-curvature="0" />
	<path style="fill:none;stroke:red;stroke-width:1px;stroke-linecap:butt;stroke-linejoin:miter;stroke-opacity:1" d="M 439.996,610.65 439.996,621.66 z" id="boundary" inkscape:connector-curvature="0" />
	<path style="fill:none;stroke:red;stroke-width:1px;stroke-linecap:butt;stroke-linejoin:miter;stroke-opacity:1" d="M 439.996,621.66 432.289,630.468 z" id="boundary" inkscape:connector-curvature="0" />
	<path style="fill:none;stroke:red;stroke-width:1px;stroke-linecap:butt;stroke-linejoin:miter;stroke-opacity:1" d="M 442.198,950.859 431.188,950.859 z" id="boundary" inkscape:connector-curvature="0" />
	<path style="fill:none;stroke:red;stroke-width:1px;stroke-linecap:butt;stroke-linejoin:miter;stroke-opacity:1" d="M 462.016,561.105 473.026,561.105 z" id="boundary" inkscape:connector-curvature="0" />
	<path style="fill:none;stroke:red;stroke-width:1px;stroke-linecap:butt;stroke-linejoin:miter;stroke-opacity:1" d="M 462.016,561.105 451.006,566.61 z" id="boundary" inkscape:connector-curvature="0" />
	<path style="fill:none;stroke:red;stroke-width:1px;stroke-linecap:butt;stroke-linejoin:miter;stroke-opacity:1" d="M 451.006,957.465 442.198,950.859 z" id="boundary" inkscape:connector-curvature="0" />
	<path style="fill:none;stroke:red;stroke-width:1px;stroke-linecap:butt;stroke-linejoin:miter;stroke-opacity:1" d="M 462.016,939.849 452.107,945.354 z" id="boundary" inkscape:connector-curvature="0" />
	<path style="fill:none;stroke:red;stroke-width:1px;stroke-linecap:butt;stroke-linejoin:miter;stroke-opacity:1" d="M 462.016,939.849 471.925,934.344 z" id="boundary" inkscape:connector-curvature="0" />
	<path style="fill:none;stroke:red;stroke-width:1px;stroke-linecap:butt;stroke-linejoin:miter;stroke-opacity:1" d="M 478.531,122.908 488.44,128.413 z" id="boundary" inkscape:connector-curvature="0" />
	<path style="fill:none;stroke:red;stroke-width:1px;stroke-linecap:butt;stroke-linejoin:miter;stroke-opacity:1" d="M 499.45,132.817 506.055,141.625 z" id="boundary" inkscape:connector-curvature="0" />
	<path style="fill:none;stroke:red;stroke-width:1px;stroke-linecap:butt;stroke-linejoin:miter;stroke-opacity:1" d="M 499.45,132.817 488.44,128.413 z" id="boundary" inkscape:connector-curvature="0" />
	<path style="fill:none;stroke:red;stroke-width:1px;stroke-linecap:butt;stroke-linejoin:miter;stroke-opacity:1" d="M 473.026,946.455 462.016,951.96 z" id="boundary" inkscape:connector-curvature="0" />
	<path style="fill:none;stroke:red;stroke-width:1px;stroke-linecap:butt;stroke-linejoin:miter;stroke-opacity:1" d="M 473.026,561.105 481.834,553.398 z" id="boundary" inkscape:connector-curvature="0" />
	<path style="fill:none;stroke:red;stroke-width:1px;stroke-linecap:butt;stroke-linejoin:miter;stroke-opacity:1" d="M 481.834,553.398 492.844,547.893 z" id="boundary" inkscape:connector-curvature="0" />
	<path style="fill:none;stroke:red;stroke-width:1px;stroke-linecap:butt;stroke-linejoin:miter;stroke-opacity:1" d="M 471.925,934.344 481.834,928.839 z" id="boundary" inkscape:connector-curvature="0" />
	<path style="fill:none;stroke:red;stroke-width:1px;stroke-linecap:butt;stroke-linejoin:miter;stroke-opacity:1" d="M 492.844,547.893 503.853,542.388 z" id="boundary" inkscape:connector-curvature="0" />
	<path style="fill:none;stroke:red;stroke-width:1px;stroke-linecap:butt;stroke-linejoin:miter;stroke-opacity:1" d="M 484.036,940.95 473.026,946.455 z" id="boundary" inkscape:connector-curvature="0" />
	<path style="fill:none;stroke:red;stroke-width:1px;stroke-linecap:butt;stroke-linejoin:miter;stroke-opacity:1" d="M 492.844,928.839 481.834,928.839 z" id="boundary" inkscape:connector-curvature="0" />
	<path style="fill:none;stroke:red;stroke-width:1px;stroke-linecap:butt;stroke-linejoin:miter;stroke-opacity:1" d="M 501.651,935.445 492.844,928.839 z" id="boundary" inkscape:connector-curvature="0" />
	<path style="fill:none;stroke:red;stroke-width:1px;stroke-linecap:butt;stroke-linejoin:miter;stroke-opacity:1" d="M 547.893,503.853 554.499,495.046 z" id="boundary" inkscape:connector-curvature="0" />
	<path style="fill:none;stroke:red;stroke-width:1px;stroke-linecap:butt;stroke-linejoin:miter;stroke-opacity:1" d="M 554.499,495.046 563.307,488.44 z" id="boundary" inkscape:connector-curvature="0" />
	<path style="fill:none;stroke:red;stroke-width:1px;stroke-linecap:butt;stroke-linejoin:miter;stroke-opacity:1" d="M 503.853,542.388 511.56,533.58 z" id="boundary" inkscape:connector-curvature="0" />
	<path style="fill:none;stroke:red;stroke-width:1px;stroke-linecap:butt;stroke-linejoin:miter;stroke-opacity:1" d="M 511.56,533.58 520.368,525.873 z" id="boundary" inkscape:connector-curvature="0" />
	<path style="fill:none;stroke:red;stroke-width:1px;stroke-linecap:butt;stroke-linejoin:miter;stroke-opacity:1" d="M 520.368,525.873 531.378,520.368 z" id="boundary" inkscape:connector-curvature="0" />
	<path style="fill:none;stroke:red;stroke-width:1px;stroke-linecap:butt;stroke-linejoin:miter;stroke-opacity:1" d="M 517.065,144.928 526.974,150.433 z" id="boundary" inkscape:connector-curvature="0" />
	<path style="fill:none;stroke:red;stroke-width:1px;stroke-linecap:butt;stroke-linejoin:miter;stroke-opacity:1" d="M 517.065,144.928 506.055,141.625 z" id="boundary" inkscape:connector-curvature="0" />
	<path style="fill:none;stroke:red;stroke-width:1px;stroke-linecap:butt;stroke-linejoin:miter;stroke-opacity:1" d="M 526.974,150.433 535.782,158.14 z" id="boundary" inkscape:connector-curvature="0" />
	<path style="fill:none;stroke:red;stroke-width:1px;stroke-linecap:butt;stroke-linejoin:miter;stroke-opacity:1" d="M 536.883,509.358 547.893,503.853 z" id="boundary" inkscape:connector-curvature="0" />
	<path style="fill:none;stroke:red;stroke-width:1px;stroke-linecap:butt;stroke-linejoin:miter;stroke-opacity:1" d="M 536.883,509.358 531.378,520.368 z" id="boundary" inkscape:connector-curvature="0" />
	<path style="fill:none;stroke:red;stroke-width:1px;stroke-linecap:butt;stroke-linejoin:miter;stroke-opacity:1" d="M 545.691,163.645 535.782,158.14 z" id="boundary" inkscape:connector-curvature="0" />
	<path style="fill:none;stroke:red;stroke-width:1px;stroke-linecap:butt;stroke-linejoin:miter;stroke-opacity:1" d="M 555.6,169.15 564.408,175.756 z" id="boundary" inkscape:connector-curvature="0" />
	<path style="fill:none;stroke:red;stroke-width:1px;stroke-linecap:butt;stroke-linejoin:miter;stroke-opacity:1" d="M 564.408,175.756 572.115,184.564 z" id="boundary" inkscape:connector-curvature="0" />
	<path style="fill:none;stroke:red;stroke-width:1px;stroke-linecap:butt;stroke-linejoin:miter;stroke-opacity:1" d="M 563.307,488.44 572.115,478.531 z" id="boundary" inkscape:connector-curvature="0" />
	<path style="fill:none;stroke:red;stroke-width:1px;stroke-linecap:butt;stroke-linejoin:miter;stroke-opacity:1" d="M 572.115,478.531 580.923,470.824 z" id="boundary" inkscape:connector-curvature="0" />
	<path style="fill:none;stroke:red;stroke-width:1px;stroke-linecap:butt;stroke-linejoin:miter;stroke-opacity:1" d="M 545.691,163.645 555.6,169.15 z" id="boundary" inkscape:connector-curvature="0" />
	<path style="fill:none;stroke:red;stroke-width:1px;stroke-linecap:butt;stroke-linejoin:miter;stroke-opacity:1" d="M 580.923,191.17 588.63,199.978 z" id="boundary" inkscape:connector-curvature="0" />
	<path style="fill:none;stroke:red;stroke-width:1px;stroke-linecap:butt;stroke-linejoin:miter;stroke-opacity:1" d="M 580.923,191.17 572.115,184.564 z" id="boundary" inkscape:connector-curvature="0" />
	<path style="fill:none;stroke:red;stroke-width:1px;stroke-linecap:butt;stroke-linejoin:miter;stroke-opacity:1" d="M 580.923,470.824 588.63,462.016 z" id="boundary" inkscape:connector-curvature="0" />
	<path style="fill:none;stroke:red;stroke-width:1px;stroke-linecap:butt;stroke-linejoin:miter;stroke-opacity:1" d="M 588.63,462.016 594.135,451.006 z" id="boundary" inkscape:connector-curvature="0" />
	<path style="fill:none;stroke:red;stroke-width:1px;stroke-linecap:butt;stroke-linejoin:miter;stroke-opacity:1" d="M 594.135,451.006 602.943,443.299 z" id="boundary" inkscape:connector-curvature="0" />
	<path style="fill:none;stroke:red;stroke-width:1px;stroke-linecap:butt;stroke-linejoin:miter;stroke-opacity:1" d="M 597.438,207.685 605.145,216.493 z" id="boundary" inkscape:connector-curvature="0" />
	<path style="fill:none;stroke:red;stroke-width:1px;stroke-linecap:butt;stroke-linejoin:miter;stroke-opacity:1" d="M 597.438,207.685 588.63,199.978 z" id="boundary" inkscape:connector-curvature="0" />
	<path style="fill:none;stroke:red;stroke-width:1px;stroke-linecap:butt;stroke-linejoin:miter;stroke-opacity:1" d="M 616.155,417.976 608.448,432.289 z" id="boundary" inkscape:connector-curvature="0" />
	<path style="fill:none;stroke:red;stroke-width:1px;stroke-linecap:butt;stroke-linejoin:miter;stroke-opacity:1" d="M 602.943,443.299 608.448,432.289 z" id="boundary" inkscape:connector-curvature="0" />
	<path style="fill:none;stroke:red;stroke-width:1px;stroke-linecap:butt;stroke-linejoin:miter;stroke-opacity:1" d="M 612.852,225.301 605.145,216.493 z" id="boundary" inkscape:connector-curvature="0" />
	<path style="fill:none;stroke:red;stroke-width:1px;stroke-linecap:butt;stroke-linejoin:miter;stroke-opacity:1" d="M 616.155,417.976 621.66,406.966 z" id="boundary" inkscape:connector-curvature="0" />
	<path style="fill:none;stroke:red;stroke-width:1px;stroke-linecap:butt;stroke-linejoin:miter;stroke-opacity:1" d="M 621.66,406.966 630.468,399.259 z" id="boundary" inkscape:connector-curvature="0" />
	<path style="fill:none;stroke:red;stroke-width:1px;stroke-linecap:butt;stroke-linejoin:miter;stroke-opacity:1" d="M 621.66,233.008 629.367,241.816 z" id="boundary" inkscape:connector-curvature="0" />
	<path style="fill:none;stroke:red;stroke-width:1px;stroke-linecap:butt;stroke-linejoin:miter;stroke-opacity:1" d="M 629.367,241.816 634.872,251.725 z" id="boundary" inkscape:connector-curvature="0" />
	<path style="fill:none;stroke:red;stroke-width:1px;stroke-linecap:butt;stroke-linejoin:miter;stroke-opacity:1" d="M 612.852,225.301 621.66,233.008 z" id="boundary" inkscape:connector-curvature="0" />
	<path style="fill:none;stroke:red;stroke-width:1px;stroke-linecap:butt;stroke-linejoin:miter;stroke-opacity:1" d="M 643.68,373.936 652.488,366.229 z" id="boundary" inkscape:connector-curvature="0" />
	<path style="fill:none;stroke:red;stroke-width:1px;stroke-linecap:butt;stroke-linejoin:miter;stroke-opacity:1" d="M 632.67,384.946 630.468,399.259 z" id="boundary" inkscape:connector-curvature="0" />
	<path style="fill:none;stroke:red;stroke-width:1px;stroke-linecap:butt;stroke-linejoin:miter;stroke-opacity:1" d="M 643.68,373.936 632.67,384.946 z" id="boundary" inkscape:connector-curvature="0" />
	<path style="fill:none;stroke:red;stroke-width:1px;stroke-linecap:butt;stroke-linejoin:miter;stroke-opacity:1" d="M 643.68,258.331 634.872,251.725 z" id="boundary" inkscape:connector-curvature="0" />
	<path style="fill:none;stroke:red;stroke-width:1px;stroke-linecap:butt;stroke-linejoin:miter;stroke-opacity:1" d="M 643.68,258.331 649.185,268.24 z" id="boundary" inkscape:connector-curvature="0" />
	<path style="fill:none;stroke:red;stroke-width:1px;stroke-linecap:butt;stroke-linejoin:miter;stroke-opacity:1" d="M 649.185,268.24 654.69,278.149 z" id="boundary" inkscape:connector-curvature="0" />
	<path style="fill:none;stroke:red;stroke-width:1px;stroke-linecap:butt;stroke-linejoin:miter;stroke-opacity:1" d="M 660.195,340.906 665.7,330.997 z" id="boundary" inkscape:connector-curvature="0" />
	<path style="fill:none;stroke:red;stroke-width:1px;stroke-linecap:butt;stroke-linejoin:miter;stroke-opacity:1" d="M 654.69,351.916 652.488,366.229 z" id="boundary" inkscape:connector-curvature="0" />
	<path style="fill:none;stroke:red;stroke-width:1px;stroke-linecap:butt;stroke-linejoin:miter;stroke-opacity:1" d="M 660.195,288.058 654.69,278.149 z" id="boundary" inkscape:connector-curvature="0" />
	<path style="fill:none;stroke:red;stroke-width:1px;stroke-linecap:butt;stroke-linejoin:miter;stroke-opacity:1" d="M 660.195,340.906 654.69,351.916 z" id="boundary" inkscape:connector-curvature="0" />
	<path style="fill:none;stroke:red;stroke-width:1px;stroke-linecap:butt;stroke-linejoin:miter;stroke-opacity:1" d="M 665.7,297.967 665.7,308.977 z" id="boundary" inkscape:connector-curvature="0" />
	<path style="fill:none;stroke:red;stroke-width:1px;stroke-linecap:butt;stroke-linejoin:miter;stroke-opacity:1" d="M 665.7,297.967 660.195,288.058 z" id="boundary" inkscape:connector-curvature="0" />
	<path style="fill:none;stroke:red;stroke-width:1px;stroke-linecap:butt;stroke-linejoin:miter;stroke-opacity:1" d="M 665.7,319.987 665.7,308.977 z" id="boundary" inkscape:connector-curvature="0" />
	<path style="fill:none;stroke:red;stroke-width:1px;stroke-linecap:butt;stroke-linejoin:miter;stroke-opacity:1" d="M 665.7,330.997 665.7,319.987 z" id="boundary" inkscape:connector-curvature="0" />
	<circle cx="4" cy="255.028" r="4" fill="#0" id="circle0"/>
	<circle cx="4" cy="266.038" r="4" fill="#0" id="circle1"/>
	<circle cx="4" cy="277.048" r="4" fill="#0" id="circle2"/>
	<circle cx="4" cy="288.058" r="4" fill="#0" id="circle3"/>
	<circle cx="9.50499" cy="244.018" r="4" fill="#0" id="circle4"/>
	<circle cx="9.50499" cy="297.967" r="4" fill="#0" id="circle5"/>
	<circle cx="15.01" cy="233.008" r="4" fill="#0" id="circle6"/>
	<circle cx="15.01" cy="307.876" r="4" fill="#0" id="circle7"/>
	<circle cx="18.313" cy="318.886" r="4" fill="#0" id="circle8"/>
	<circle cx="23.818" cy="224.2" r="4" fill="#0" id="circle9"/>
	<circle cx="26.02" cy="327.694" r="4" fill="#0" id="circle10"/>
	<circle cx="26.02" cy="338.704" r="4" fill="#0" id="circle11"/>
	<circle cx="31.525" cy="348.613" r="4" fill="#0" id="circle12"/>
	<circle cx="32.626" cy="215.392" r="4" fill="#0" id="circle13"/>
	<circle cx="37.03" cy="358.522" r="4" fill="#0" id="circle14"/>
	<circle cx="37.03" cy="899.112" r="4" fill="#0" id="circle15"/>
	<circle cx="38.131" cy="204.382" r="4" fill="#0" id="circle16"/>
	<circle cx="42.535" cy="368.431" r="4" fill="#0" id="circle17"/>
	<circle cx="42.535" cy="888.102" r="4" fill="#0" id="circle18"/>
	<circle cx="45.838" cy="379.441" r="4" fill="#0" id="circle19"/>
	<circle cx="48.04" cy="194.473" r="4" fill="#0" id="circle20"/>
	<circle cx="48.04" cy="899.112" r="4" fill="#0" id="circle21"/>
	<circle cx="51.343" cy="389.35" r="4" fill="#0" id="circle22"/>
	<circle cx="51.343" cy="879.294" r="4" fill="#0" id="circle23"/>
	<circle cx="56.8479" cy="890.304" r="4" fill="#0" id="circle24"/>
	<circle cx="59.0499" cy="183.463" r="4" fill="#0" id="circle25"/>
	<circle cx="59.0499" cy="398.158" r="4" fill="#0" id="circle26"/>
	<circle cx="59.0499" cy="409.168" r="4" fill="#0" id="circle27"/>
	<circle cx="60.1509" cy="870.486" r="4" fill="#0" id="circle28"/>
	<circle cx="64.5549" cy="419.077" r="4" fill="#0" id="circle29"/>
	<circle cx="65.6559" cy="880.395" r="4" fill="#0" id="circle30"/>
	<circle cx="68.9589" cy="862.779" r="4" fill="#0" id="circle31"/>
	<circle cx="70.0599" cy="177.958" r="4" fill="#0" id="circle32"/>
	<circle cx="70.0599" cy="428.986" r="4" fill="#0" id="circle33"/>
	<circle cx="75.5649" cy="438.895" r="4" fill="#0" id="circle34"/>
	<circle cx="76.6659" cy="853.971" r="4" fill="#0" id="circle35"/>
	<circle cx="76.6659" cy="871.587" r="4" fill="#0" id="circle36"/>
	<circle cx="78.8679" cy="169.15" r="4" fill="#0" id="circle37"/>
	<circle cx="82.1709" cy="447.703" r="4" fill="#0" id="circle38"/>
	<circle cx="84.3729" cy="862.779" r="4" fill="#0" id="circle39"/>
	<circle cx="86.5749" cy="458.713" r="4" fill="#0" id="circle40"/>
	<circle cx="86.5749" cy="844.062" r="4" fill="#0" id="circle41"/>
	<circle cx="87.6759" cy="160.342" r="4" fill="#0" id="circle42"/>
	<circle cx="93.1809" cy="852.87" r="4" fill="#0" id="circle43"/>
	<circle cx="95.3829" cy="466.42" r="4" fill="#0" id="circle44"/>
	<circle cx="97.5849" cy="833.052" r="4" fill="#0" id="circle45"/>
	<circle cx="98.6859" cy="158.14" r="4" fill="#0" id="circle46"/>
	<circle cx="99.7869" cy="477.43" r="4" fill="#0" id="circle47"/>
	<circle cx="104.191" cy="847.365" r="4" fill="#0" id="circle48"/>
	<circle cx="108.595" cy="150.433" r="4" fill="#0" id="circle49"/>
	<circle cx="108.595" cy="484.036" r="4" fill="#0" id="circle50"/>
	<circle cx="108.595" cy="822.042" r="4" fill="#0" id="circle51"/>
	<circle cx="111.898" cy="495.046" r="4" fill="#0" id="circle52"/>
	<circle cx="112.999" cy="839.658" r="4" fill="#0" id="circle53"/>
	<circle cx="119.605" cy="144.928" r="4" fill="#0" id="circle54"/>
	<circle cx="119.605" cy="811.032" r="4" fill="#0" id="circle55"/>
	<circle cx="120.706" cy="502.752" r="4" fill="#0" id="circle56"/>
	<circle cx="120.706" cy="830.85" r="4" fill="#0" id="circle57"/>
	<circle cx="128.413" cy="511.56" r="4" fill="#0" id="circle58"/>
	<circle cx="130.615" cy="139.423" r="4" fill="#0" id="circle59"/>
	<circle cx="130.615" cy="805.527" r="4" fill="#0" id="circle60"/>
	<circle cx="131.716" cy="830.85" r="4" fill="#0" id="circle61"/>
	<circle cx="133.918" cy="521.469" r="4" fill="#0" id="circle62"/>
	<circle cx="138.322" cy="839.658" r="4" fill="#0" id="circle63"/>
	<circle cx="139.423" cy="130.615" r="4" fill="#0" id="circle64"/>
	<circle cx="139.423" cy="796.719" r="4" fill="#0" id="circle65"/>
	<circle cx="141.625" cy="530.277" r="4" fill="#0" id="circle66"/>
	<circle cx="141.625" cy="850.668" r="4" fill="#0" id="circle67"/>
	<circle cx="141.625" cy="861.678" r="4" fill="#0" id="circle68"/>
	<circle cx="144.928" cy="785.709" r="4" fill="#0" id="circle69"/>
	<circle cx="147.13" cy="871.587" r="4" fill="#0" id="circle70"/>
	<circle cx="150.433" cy="125.11" r="4" fill="#0" id="circle71"/>
	<circle cx="152.635" cy="533.58" r="4" fill="#0" id="circle72"/>
	<circle cx="152.635" cy="881.496" r="4" fill="#0" id="circle73"/>
	<circle cx="154.837" cy="780.204" r="4" fill="#0" id="circle74"/>
	<circle cx="158.14" cy="891.405" r="4" fill="#0" id="circle75"/>
	<circle cx="159.241" cy="819.84" r="4" fill="#0" id="circle76"/>
	<circle cx="159.241" cy="830.85" r="4" fill="#0" id="circle77"/>
	<circle cx="159.241" cy="841.86" r="4" fill="#0" id="circle78"/>
	<circle cx="159.241" cy="852.87" r="4" fill="#0" id="circle79"/>
	<circle cx="159.241" cy="863.88" r="4" fill="#0" id="circle80"/>
	<circle cx="160.342" cy="770.295" r="4" fill="#0" id="circle81"/>
	<circle cx="161.443" cy="119.605" r="4" fill="#0" id="circle82"/>
	<circle cx="161.443" cy="902.415" r="4" fill="#0" id="circle83"/>
	<circle cx="162.544" cy="539.085" r="4" fill="#0" id="circle84"/>
	<circle cx="164.746" cy="873.789" r="4" fill="#0" id="circle85"/>
	<circle cx="168.049" cy="812.133" r="4" fill="#0" id="circle86"/>
	<circle cx="169.15" cy="568.812" r="4" fill="#0" id="circle87"/>
	<circle cx="169.15" cy="579.822" r="4" fill="#0" id="circle88"/>
	<circle cx="169.15" cy="761.487" r="4" fill="#0" id="circle89"/>
	<circle cx="170.251" cy="883.698" r="4" fill="#0" id="circle90"/>
	<circle cx="170.251" cy="910.122" r="4" fill="#0" id="circle91"/>
	<circle cx="172.453" cy="114.1" r="4" fill="#0" id="circle92"/>
	<circle cx="172.453" cy="544.59" r="4" fill="#0" id="circle93"/>
	<circle cx="174.655" cy="555.6" r="4" fill="#0" id="circle94"/>
	<circle cx="174.655" cy="589.731" r="4" fill="#0" id="circle95"/>
	<circle cx="175.756" cy="803.325" r="4" fill="#0" id="circle96"/>
	<circle cx="179.059" cy="891.405" r="4" fill="#0" id="circle97"/>
	<circle cx="180.16" cy="750.477" r="4" fill="#0" id="circle98"/>
	<circle cx="180.16" cy="915.627" r="4" fill="#0" id="circle99"/>
	<circle cx="181.261" cy="792.315" r="4" fill="#0" id="circle100"/>
	<circle cx="182.362" cy="598.539" r="4" fill="#0" id="circle101"/>
	<circle cx="183.463" cy="108.595" r="4" fill="#0" id="circle102"/>
	<circle cx="184.564" cy="901.314" r="4" fill="#0" id="circle103"/>
	<circle cx="186.766" cy="924.435" r="4" fill="#0" id="circle104"/>
	<circle cx="191.17" cy="605.145" r="4" fill="#0" id="circle105"/>
	<circle cx="191.17" cy="739.467" r="4" fill="#0" id="circle106"/>
	<circle cx="191.17" cy="786.81" r="4" fill="#0" id="circle107"/>
	<circle cx="192.271" cy="910.122" r="4" fill="#0" id="circle108"/>
	<circle cx="193.372" cy="933.243" r="4" fill="#0" id="circle109"/>
	<circle cx="194.473" cy="103.09" r="4" fill="#0" id="circle110"/>
	<circle cx="199.978" cy="780.204" r="4" fill="#0" id="circle111"/>
	<circle cx="202.18" cy="605.145" r="4" fill="#0" id="circle112"/>
	<circle cx="202.18" cy="728.457" r="4" fill="#0" id="circle113"/>
	<circle cx="202.18" cy="915.627" r="4" fill="#0" id="circle114"/>
	<circle cx="202.18" cy="939.849" r="4" fill="#0" id="circle115"/>
	<circle cx="205.483" cy="97.5849" r="4" fill="#0" id="circle116"/>
	<circle cx="205.483" cy="770.295" r="4" fill="#0" id="circle117"/>
	<circle cx="210.988" cy="923.334" r="4" fill="#0" id="circle118"/>
	<circle cx="210.988" cy="946.455" r="4" fill="#0" id="circle119"/>
	<circle cx="213.19" cy="605.145" r="4" fill="#0" id="circle120"/>
	<circle cx="213.19" cy="717.447" r="4" fill="#0" id="circle121"/>
	<circle cx="214.291" cy="759.285" r="4" fill="#0" id="circle122"/>
	<circle cx="214.291" cy="934.344" r="4" fill="#0" id="circle123"/>
	<circle cx="216.493" cy="92.0799" r="4" fill="#0" id="circle124"/>
	<circle cx="218.695" cy="667.902" r="4" fill="#0" id="circle125"/>
	<circle cx="219.796" cy="954.162" r="4" fill="#0" id="circle126"/>
	<circle cx="221.998" cy="708.639" r="4" fill="#0" id="circle127"/>
	<circle cx="223.099" cy="940.95" r="4" fill="#0" id="circle128"/>
	<circle cx="224.2" cy="605.145" r="4" fill="#0" id="circle129"/>
	<circle cx="225.301" cy="676.71" r="4" fill="#0" id="circle130"/>
	<circle cx="225.301" cy="753.78" r="4" fill="#0" id="circle131"/>
	<circle cx="226.402" cy="86.5749" r="4" fill="#0" id="circle132"/>
	<circle cx="227.503" cy="659.094" r="4" fill="#0" id="circle133"/>
	<circle cx="227.503" cy="962.97" r="4" fill="#0" id="circle134"/>
	<circle cx="230.806" cy="699.831" r="4" fill="#0" id="circle135"/>
	<circle cx="233.008" cy="946.455" r="4" fill="#0" id="circle136"/>
	<circle cx="234.109" cy="746.073" r="4" fill="#0" id="circle137"/>
	<circle cx="235.21" cy="78.8679" r="4" fill="#0" id="circle138"/>
	<circle cx="235.21" cy="605.145" r="4" fill="#0" id="circle139"/>
	<circle cx="235.21" cy="671.205" r="4" fill="#0" id="circle140"/>
	<circle cx="236.311" cy="650.286" r="4" fill="#0" id="circle141"/>
	<circle cx="236.311" cy="688.821" r="4" fill="#0" id="circle142"/>
	<circle cx="238.513" cy="962.97" r="4" fill="#0" id="circle143"/>
	<circle cx="241.816" cy="737.265" r="4" fill="#0" id="circle144"/>
	<circle cx="244.018" cy="950.859" r="4" fill="#0" id="circle145"/>
	<circle cx="245.119" cy="642.579" r="4" fill="#0" id="circle146"/>
	<circle cx="245.119" cy="665.7" r="4" fill="#0" id="circle147"/>
	<circle cx="245.119" cy="681.114" r="4" fill="#0" id="circle148"/>
	<circle cx="246.22" cy="73.3629" r="4" fill="#0" id="circle149"/>
	<circle cx="246.22" cy="605.145" r="4" fill="#0" id="circle150"/>
	<circle cx="247.321" cy="970.677" r="4" fill="#0" id="circle151"/>
	<circle cx="251.725" cy="623.862" r="4" fill="#0" id="circle152"/>
	<circle cx="251.725" cy="959.667" r="4" fill="#0" id="circle153"/>
	<circle cx="252.826" cy="726.255" r="4" fill="#0" id="circle154"/>
	<circle cx="255.028" cy="64.5549" r="4" fill="#0" id="circle155"/>
	<circle cx="258.331" cy="973.98" r="4" fill="#0" id="circle156"/>
	<circle cx="262.735" cy="961.869" r="4" fill="#0" id="circle157"/>
	<circle cx="263.836" cy="715.245" r="4" fill="#0" id="circle158"/>
	<circle cx="264.937" cy="59.0499" r="4" fill="#0" id="circle159"/>
	<circle cx="268.24" cy="979.485" r="4" fill="#0" id="circle160"/>
	<circle cx="271.543" cy="968.475" r="4" fill="#0" id="circle161"/>
	<circle cx="273.745" cy="51.343" r="4" fill="#0" id="circle162"/>
	<circle cx="274.846" cy="704.235" r="4" fill="#0" id="circle163"/>
	<circle cx="278.149" cy="984.99" r="4" fill="#0" id="circle164"/>
	<circle cx="282.553" cy="972.879" r="4" fill="#0" id="circle165"/>
	<circle cx="284.755" cy="40.333" r="4" fill="#0" id="circle166"/>
	<circle cx="285.856" cy="698.73" r="4" fill="#0" id="circle167"/>
	<circle cx="288.058" cy="990.495" r="4" fill="#0" id="circle168"/>
	<circle cx="292.462" cy="978.384" r="4" fill="#0" id="circle169"/>
	<circle cx="294.664" cy="691.023" r="4" fill="#0" id="circle170"/>
	<circle cx="295.765" cy="34.828" r="4" fill="#0" id="circle171"/>
	<circle cx="299.068" cy="994.899" r="4" fill="#0" id="circle172"/>
	<circle cx="302.371" cy="676.71" r="4" fill="#0" id="circle173"/>
	<circle cx="302.371" cy="983.889" r="4" fill="#0" id="circle174"/>
	<circle cx="304.573" cy="26.02" r="4" fill="#0" id="circle175"/>
	<circle cx="310.078" cy="996" r="4" fill="#0" id="circle176"/>
	<circle cx="312.28" cy="722.952" r="4" fill="#0" id="circle177"/>
	<circle cx="313.381" cy="665.7" r="4" fill="#0" id="circle178"/>
	<circle cx="313.381" cy="983.889" r="4" fill="#0" id="circle179"/>
	<circle cx="315.583" cy="20.515" r="4" fill="#0" id="circle180"/>
	<circle cx="317.785" cy="711.942" r="4" fill="#0" id="circle181"/>
	<circle cx="321.088" cy="996" r="4" fill="#0" id="circle182"/>
	<circle cx="323.29" cy="671.205" r="4" fill="#0" id="circle183"/>
	<circle cx="323.29" cy="682.215" r="4" fill="#0" id="circle184"/>
	<circle cx="323.29" cy="693.225" r="4" fill="#0" id="circle185"/>
	<circle cx="323.29" cy="722.952" r="4" fill="#0" id="circle186"/>
	<circle cx="324.391" cy="983.889" r="4" fill="#0" id="circle187"/>
	<circle cx="325.492" cy="15.01" r="4" fill="#0" id="circle188"/>
	<circle cx="332.098" cy="714.144" r="4" fill="#0" id="circle189"/>
	<circle cx="332.098" cy="996" r="4" fill="#0" id="circle190"/>
	<circle cx="334.3" cy="7.303" r="4" fill="#0" id="circle191"/>
	<circle cx="335.401" cy="983.889" r="4" fill="#0" id="circle192"/>
	<circle cx="337.603" cy="703.134" r="4" fill="#0" id="circle193"/>
	<circle cx="343.108" cy="996" r="4" fill="#0" id="circle194"/>
	<circle cx="345.31" cy="4" r="4" fill="#0" id="circle195"/>
	<circle cx="346.411" cy="632.67" r="4" fill="#0" id="circle196"/>
	<circle cx="346.411" cy="643.68" r="4" fill="#0" id="circle197"/>
	<circle cx="346.411" cy="654.69" r="4" fill="#0" id="circle198"/>
	<circle cx="346.411" cy="665.7" r="4" fill="#0" id="circle199"/>
	<circle cx="346.411" cy="676.71" r="4" fill="#0" id="circle200"/>
	<circle cx="346.411" cy="687.72" r="4" fill="#0" id="circle201"/>
	<circle cx="346.411" cy="983.889" r="4" fill="#0" id="circle202"/>
	<circle cx="354.118" cy="996" r="4" fill="#0" id="circle203"/>
	<circle cx="356.32" cy="6.202" r="4" fill="#0" id="circle204"/>
	<circle cx="356.32" cy="627.165" r="4" fill="#0" id="circle205"/>
	<circle cx="357.421" cy="983.889" r="4" fill="#0" id="circle206"/>
	<circle cx="362.926" cy="15.01" r="4" fill="#0" id="circle207"/>
	<circle cx="365.128" cy="994.899" r="4" fill="#0" id="circle208"/>
	<circle cx="367.33" cy="627.165" r="4" fill="#0" id="circle209"/>
	<circle cx="367.33" cy="978.384" r="4" fill="#0" id="circle210"/>
	<circle cx="371.734" cy="21.616" r="4" fill="#0" id="circle211"/>
	<circle cx="376.138" cy="990.495" r="4" fill="#0" id="circle212"/>
	<circle cx="377.239" cy="632.67" r="4" fill="#0" id="circle213"/>
	<circle cx="378.34" cy="976.182" r="4" fill="#0" id="circle214"/>
	<circle cx="379.441" cy="30.424" r="4" fill="#0" id="circle215"/>
	<circle cx="387.148" cy="989.394" r="4" fill="#0" id="circle216"/>
	<circle cx="388.249" cy="37.03" r="4" fill="#0" id="circle217"/>
	<circle cx="388.249" cy="632.67" r="4" fill="#0" id="circle218"/>
	<circle cx="389.35" cy="970.677" r="4" fill="#0" id="circle219"/>
	<circle cx="395.956" cy="45.838" r="4" fill="#0" id="circle220"/>
	<circle cx="395.956" cy="979.485" r="4" fill="#0" id="circle221"/>
	<circle cx="399.259" cy="632.67" r="4" fill="#0" id="circle222"/>
	<circle cx="400.36" cy="965.172" r="4" fill="#0" id="circle223"/>
	<circle cx="405.865" cy="51.343" r="4" fill="#0" id="circle224"/>
	<circle cx="406.966" cy="979.485" r="4" fill="#0" id="circle225"/>
	<circle cx="410.269" cy="632.67" r="4" fill="#0" id="circle226"/>
	<circle cx="411.37" cy="961.869" r="4" fill="#0" id="circle227"/>
	<circle cx="414.673" cy="59.0499" r="4" fill="#0" id="circle228"/>
	<circle cx="416.875" cy="973.98" r="4" fill="#0" id="circle229"/>
	<circle cx="417.976" cy="561.105" r="4" fill="#0" id="circle230"/>
	<circle cx="421.279" cy="632.67" r="4" fill="#0" id="circle231"/>
	<circle cx="422.38" cy="959.667" r="4" fill="#0" id="circle232"/>
	<circle cx="423.481" cy="571.014" r="4" fill="#0" id="circle233"/>
	<circle cx="424.582" cy="64.5549" r="4" fill="#0" id="circle234"/>
	<circle cx="428.986" cy="561.105" r="4" fill="#0" id="circle235"/>
	<circle cx="428.986" cy="580.923" r="4" fill="#0" id="circle236"/>
	<circle cx="428.986" cy="968.475" r="4" fill="#0" id="circle237"/>
	<circle cx="431.188" cy="950.859" r="4" fill="#0" id="circle238"/>
	<circle cx="432.289" cy="630.468" r="4" fill="#0" id="circle239"/>
	<circle cx="433.39" cy="72.2619" r="4" fill="#0" id="circle240"/>
	<circle cx="437.794" cy="588.63" r="4" fill="#0" id="circle241"/>
	<circle cx="439.996" cy="81.0699" r="4" fill="#0" id="circle242"/>
	<circle cx="439.996" cy="563.307" r="4" fill="#0" id="circle243"/>
	<circle cx="439.996" cy="599.64" r="4" fill="#0" id="circle244"/>
	<circle cx="439.996" cy="610.65" r="4" fill="#0" id="circle245"/>
	<circle cx="439.996" cy="621.66" r="4" fill="#0" id="circle246"/>
	<circle cx="439.996" cy="962.97" r="4" fill="#0" id="circle247"/>
	<circle cx="442.198" cy="950.859" r="4" fill="#0" id="circle248"/>
	<circle cx="448.804" cy="87.6759" r="4" fill="#0" id="circle249"/>
	<circle cx="451.006" cy="566.61" r="4" fill="#0" id="circle250"/>
	<circle cx="451.006" cy="957.465" r="4" fill="#0" id="circle251"/>
	<circle cx="452.107" cy="945.354" r="4" fill="#0" id="circle252"/>
	<circle cx="456.511" cy="96.4839" r="4" fill="#0" id="circle253"/>
	<circle cx="462.016" cy="561.105" r="4" fill="#0" id="circle254"/>
	<circle cx="462.016" cy="939.849" r="4" fill="#0" id="circle255"/>
	<circle cx="462.016" cy="951.96" r="4" fill="#0" id="circle256"/>
	<circle cx="465.319" cy="104.191" r="4" fill="#0" id="circle257"/>
	<circle cx="471.925" cy="934.344" r="4" fill="#0" id="circle258"/>
	<circle cx="473.026" cy="112.999" r="4" fill="#0" id="circle259"/>
	<circle cx="473.026" cy="561.105" r="4" fill="#0" id="circle260"/>
	<circle cx="473.026" cy="946.455" r="4" fill="#0" id="circle261"/>
	<circle cx="478.531" cy="122.908" r="4" fill="#0" id="circle262"/>
	<circle cx="481.834" cy="553.398" r="4" fill="#0" id="circle263"/>
	<circle cx="481.834" cy="928.839" r="4" fill="#0" id="circle264"/>
	<circle cx="484.036" cy="940.95" r="4" fill="#0" id="circle265"/>
	<circle cx="488.44" cy="128.413" r="4" fill="#0" id="circle266"/>
	<circle cx="492.844" cy="547.893" r="4" fill="#0" id="circle267"/>
	<circle cx="492.844" cy="928.839" r="4" fill="#0" id="circle268"/>
	<circle cx="499.45" cy="132.817" r="4" fill="#0" id="circle269"/>
	<circle cx="501.651" cy="935.445" r="4" fill="#0" id="circle270"/>
	<circle cx="502.752" cy="923.334" r="4" fill="#0" id="circle271"/>
	<circle cx="503.853" cy="542.388" r="4" fill="#0" id="circle272"/>
	<circle cx="506.055" cy="141.625" r="4" fill="#0" id="circle273"/>
	<circle cx="511.56" cy="533.58" r="4" fill="#0" id="circle274"/>
	<circle cx="517.065" cy="144.928" r="4" fill="#0" id="circle275"/>
	<circle cx="520.368" cy="525.873" r="4" fill="#0" id="circle276"/>
	<circle cx="526.974" cy="150.433" r="4" fill="#0" id="circle277"/>
	<circle cx="531.378" cy="520.368" r="4" fill="#0" id="circle278"/>
	<circle cx="535.782" cy="158.14" r="4" fill="#0" id="circle279"/>
	<circle cx="536.883" cy="509.358" r="4" fill="#0" id="circle280"/>
	<circle cx="545.691" cy="163.645" r="4" fill="#0" id="circle281"/>
	<circle cx="547.893" cy="503.853" r="4" fill="#0" id="circle282"/>
	<circle cx="554.499" cy="495.046" r="4" fill="#0" id="circle283"/>
	<circle cx="555.6" cy="169.15" r="4" fill="#0" id="circle284"/>
	<circle cx="563.307" cy="488.44" r="4" fill="#0" id="circle285"/>
	<circle cx="564.408" cy="175.756" r="4" fill="#0" id="circle286"/>
	<circle cx="572.115" cy="184.564" r="4" fill="#0" id="circle287"/>
	<circle cx="572.115" cy="478.531" r="4" fill="#0" id="circle288"/>
	<circle cx="580.923" cy="191.17" r="4" fill="#0" id="circle289"/>
	<circle cx="580.923" cy="470.824" r="4" fill="#0" id="circle290"/>
	<circle cx="588.63" cy="199.978" r="4" fill="#0" id="circle291"/>
	<circle cx="588.63" cy="462.016" r="4" fill="#0" id="circle292"/>
	<circle cx="594.135" cy="451.006" r="4" fill="#0" id="circle293"/>
	<circle cx="597.438" cy="207.685" r="4" fill="#0" id="circle294"/>
	<circle cx="602.943" cy="443.299" r="4" fill="#0" id="circle295"/>
	<circle cx="605.145" cy="216.493" r="4" fill="#0" id="circle296"/>
	<circle cx="608.448" cy="432.289" r="4" fill="#0" id="circle297"/>
	<circle cx="612.852" cy="225.301" r="4" fill="#0" id="circle298"/>
	<circle cx="616.155" cy="417.976" r="4" fill="#0" id="circle299"/>
	<circle cx="621.66" cy="233.008" r="4" fill="#0" id="circle300"/>
	<circle cx="621.66" cy="406.966" r="4" fill="#0" id="circle301"/>
	<circle cx="629.367" cy="241.816" r="4" fill="#0" id="circle302"/>
	<circle cx="630.468" cy="399.259" r="4" fill="#0" id="circle303"/>
	<circle cx="632.67" cy="384.946" r="4" fill="#0" id="circle304"/>
	<circle cx="634.872" cy="251.725" r="4" fill="#0" id="circle305"/>
	<circle cx="643.68" cy="258.331" r="4" fill="#0" id="circle306"/>
	<circle cx="643.68" cy="373.936" r="4" fill="#0" id="circle307"/>
	<circle cx="649.185" cy="268.24" r="4" fill="#0" id="circle308"/>
	<circle cx="652.488" cy="366.229" r="4" fill="#0" id="circle309"/>
	<circle cx="654.69" cy="278.149" r="4" fill="#0" id="circle310"/>
	<circle cx="654.69" cy="351.916" r="4" fill="#0" id="circle311"/>
	<circle cx="660.195" cy="288.058" r="4" fill="#0" id="circle312"/>
	<circle cx="660.195" cy="340.906" r="4" fill="#0" id="circle313"/>
	<circle cx="665.7" cy="297.967" r="4" fill="#0" id="circle314"/>
	<circle cx="665.7" cy="308.977" r="4" fill="#0" id="circle315"/>
	<circle cx="665.7" cy="319.987" r="4" fill="#0" id="circle316"/>
	<circle cx="665.7" cy="330.997" r="4" fill="#0" id="circle317"/>
	</g>
</svg>