<?xml version="1.0" encoding="UTF-8" standalone="no"?>
<!-- Created with CurveBenchmark -->
<svg
	xmlns:dc="http://purl.org/dc/elements/1.1/"
	xmlns:cc="http://creativecommons.org/ns#"
	xmlns:rdf="http://www.w3.org/1999/02/22-rdf-syntax-ns#"
	xmlns:svg="http://www.w3.org/2000/svg"
	xmlns="http://www.w3.org/2000/svg"
	xmlns:sodipodi="http://sodipodi.sourceforge.net/DTD/sodipodi-0.dtd"
	xmlns:inkscape="http://www.inkscape.org/namespaces/inkscape"
	width="1000"
	height="1000"
	id="svg2"
	version="1.1"
	sodipodi:docname="manifold/peel-cat46.png.txt">
<defs
	id="defs4" />
<metadata
	id="metadata7">
	<rdf:RDF>
		<cc:Work
			rdf:about="">
			<dc:format>image/svg+xml</dc:format>
			<dc:type
				rdf:resource="http://purl.org/dc/dcmitype/StillImage" />
			<dc:title></dc:title>
		</cc:Work>
	</rdf:RDF>
</metadata>
<g
	inkscape:label="Layer 1"
	inkscape:groupmode="layer"
	id="layer1">
	<path style="fill:none;stroke:red;stroke-width:1px;stroke-linecap:butt;stroke-linejoin:miter;stroke-opacity:1" d="M 11.147,257.003 4,244.138 z" id="boundary" inkscape:connector-curvature="0" />
	<path style="fill:none;stroke:red;stroke-width:1px;stroke-linecap:butt;stroke-linejoin:miter;stroke-opacity:1" d="M 4,244.138 4,229.844 z" id="boundary" inkscape:connector-curvature="0" />
	<path style="fill:none;stroke:red;stroke-width:1px;stroke-linecap:butt;stroke-linejoin:miter;stroke-opacity:1" d="M 4,229.844 18.2939,225.556 z" id="boundary" inkscape:connector-curvature="0" />
	<path style="fill:none;stroke:red;stroke-width:1px;stroke-linecap:butt;stroke-linejoin:miter;stroke-opacity:1" d="M 18.2939,225.556 32.5879,225.556 z" id="boundary" inkscape:connector-curvature="0" />
	<path style="fill:none;stroke:red;stroke-width:1px;stroke-linecap:butt;stroke-linejoin:miter;stroke-opacity:1" d="M 18.2939,269.867 11.147,257.003 z" id="boundary" inkscape:connector-curvature="0" />
	<path style="fill:none;stroke:red;stroke-width:1px;stroke-linecap:butt;stroke-linejoin:miter;stroke-opacity:1" d="M 18.2939,269.867 26.8703,281.303 z" id="boundary" inkscape:connector-curvature="0" />
	<path style="fill:none;stroke:red;stroke-width:1px;stroke-linecap:butt;stroke-linejoin:miter;stroke-opacity:1" d="M 45.4524,232.703 32.5879,225.556 z" id="boundary" inkscape:connector-curvature="0" />
	<path style="fill:none;stroke:red;stroke-width:1px;stroke-linecap:butt;stroke-linejoin:miter;stroke-opacity:1" d="M 25.4409,357.061 25.4409,371.354 z" id="boundary" inkscape:connector-curvature="0" />
	<path style="fill:none;stroke:red;stroke-width:1px;stroke-linecap:butt;stroke-linejoin:miter;stroke-opacity:1" d="M 25.4409,357.061 18.2939,344.196 z" id="boundary" inkscape:connector-curvature="0" />
	<path style="fill:none;stroke:red;stroke-width:1px;stroke-linecap:butt;stroke-linejoin:miter;stroke-opacity:1" d="M 98.3401,204.115 111.205,211.262 z" id="boundary" inkscape:connector-curvature="0" />
	<path style="fill:none;stroke:red;stroke-width:1px;stroke-linecap:butt;stroke-linejoin:miter;stroke-opacity:1" d="M 18.2939,344.196 29.7291,332.761 z" id="boundary" inkscape:connector-curvature="0" />
	<path style="fill:none;stroke:red;stroke-width:1px;stroke-linecap:butt;stroke-linejoin:miter;stroke-opacity:1" d="M 32.5879,295.597 32.5879,309.89 z" id="boundary" inkscape:connector-curvature="0" />
	<path style="fill:none;stroke:red;stroke-width:1px;stroke-linecap:butt;stroke-linejoin:miter;stroke-opacity:1" d="M 32.5879,295.597 26.8703,281.303 z" id="boundary" inkscape:connector-curvature="0" />
	<path style="fill:none;stroke:red;stroke-width:1px;stroke-linecap:butt;stroke-linejoin:miter;stroke-opacity:1" d="M 58.317,239.85 45.4524,232.703 z" id="boundary" inkscape:connector-curvature="0" />
	<path style="fill:none;stroke:red;stroke-width:1px;stroke-linecap:butt;stroke-linejoin:miter;stroke-opacity:1" d="M 29.7291,332.761 32.5879,309.89 z" id="boundary" inkscape:connector-curvature="0" />
	<path style="fill:none;stroke:red;stroke-width:1px;stroke-linecap:butt;stroke-linejoin:miter;stroke-opacity:1" d="M 25.4409,371.354 32.5879,384.219 z" id="boundary" inkscape:connector-curvature="0" />
	<path style="fill:none;stroke:red;stroke-width:1px;stroke-linecap:butt;stroke-linejoin:miter;stroke-opacity:1" d="M 32.5879,384.219 32.5879,398.513 z" id="boundary" inkscape:connector-curvature="0" />
	<path style="fill:none;stroke:red;stroke-width:1px;stroke-linecap:butt;stroke-linejoin:miter;stroke-opacity:1" d="M 32.5879,398.513 39.7349,411.378 z" id="boundary" inkscape:connector-curvature="0" />
	<path style="fill:none;stroke:red;stroke-width:1px;stroke-linecap:butt;stroke-linejoin:miter;stroke-opacity:1" d="M 39.7349,411.378 39.7349,425.671 z" id="boundary" inkscape:connector-curvature="0" />
	<path style="fill:none;stroke:red;stroke-width:1px;stroke-linecap:butt;stroke-linejoin:miter;stroke-opacity:1" d="M 48.3112,437.107 39.7349,425.671 z" id="boundary" inkscape:connector-curvature="0" />
	<path style="fill:none;stroke:red;stroke-width:1px;stroke-linecap:butt;stroke-linejoin:miter;stroke-opacity:1" d="M 111.205,211.262 124.069,218.409 z" id="boundary" inkscape:connector-curvature="0" />
	<path style="fill:none;stroke:red;stroke-width:1px;stroke-linecap:butt;stroke-linejoin:miter;stroke-opacity:1" d="M 162.663,236.991 151.228,226.986 z" id="boundary" inkscape:connector-curvature="0" />
	<path style="fill:none;stroke:red;stroke-width:1px;stroke-linecap:butt;stroke-linejoin:miter;stroke-opacity:1" d="M 58.317,448.542 48.3112,437.107 z" id="boundary" inkscape:connector-curvature="0" />
	<path style="fill:none;stroke:red;stroke-width:1px;stroke-linecap:butt;stroke-linejoin:miter;stroke-opacity:1" d="M 71.1816,455.689 58.317,448.542 z" id="boundary" inkscape:connector-curvature="0" />
	<path style="fill:none;stroke:red;stroke-width:1px;stroke-linecap:butt;stroke-linejoin:miter;stroke-opacity:1" d="M 68.3228,228.415 61.1758,215.55 z" id="boundary" inkscape:connector-curvature="0" />
	<path style="fill:none;stroke:red;stroke-width:1px;stroke-linecap:butt;stroke-linejoin:miter;stroke-opacity:1" d="M 61.1758,215.55 61.1758,201.256 z" id="boundary" inkscape:connector-curvature="0" />
	<path style="fill:none;stroke:red;stroke-width:1px;stroke-linecap:butt;stroke-linejoin:miter;stroke-opacity:1" d="M 58.317,239.85 68.3228,228.415 z" id="boundary" inkscape:connector-curvature="0" />
	<path style="fill:none;stroke:red;stroke-width:1px;stroke-linecap:butt;stroke-linejoin:miter;stroke-opacity:1" d="M 85.4755,455.689 98.3401,462.836 z" id="boundary" inkscape:connector-curvature="0" />
	<path style="fill:none;stroke:red;stroke-width:1px;stroke-linecap:butt;stroke-linejoin:miter;stroke-opacity:1" d="M 85.4755,455.689 71.1816,455.689 z" id="boundary" inkscape:connector-curvature="0" />
	<path style="fill:none;stroke:red;stroke-width:1px;stroke-linecap:butt;stroke-linejoin:miter;stroke-opacity:1" d="M 85.4755,196.968 72.611,189.821 z" id="boundary" inkscape:connector-curvature="0" />
	<path style="fill:none;stroke:red;stroke-width:1px;stroke-linecap:butt;stroke-linejoin:miter;stroke-opacity:1" d="M 72.611,189.821 61.1758,201.256 z" id="boundary" inkscape:connector-curvature="0" />
	<path style="fill:none;stroke:red;stroke-width:1px;stroke-linecap:butt;stroke-linejoin:miter;stroke-opacity:1" d="M 85.4755,196.968 98.3401,204.115 z" id="boundary" inkscape:connector-curvature="0" />
	<path style="fill:none;stroke:red;stroke-width:1px;stroke-linecap:butt;stroke-linejoin:miter;stroke-opacity:1" d="M 498.571,632.934 498.571,647.228 z" id="boundary" inkscape:connector-curvature="0" />
	<path style="fill:none;stroke:red;stroke-width:1px;stroke-linecap:butt;stroke-linejoin:miter;stroke-opacity:1" d="M 112.634,462.836 98.3401,462.836 z" id="boundary" inkscape:connector-curvature="0" />
	<path style="fill:none;stroke:red;stroke-width:1px;stroke-linecap:butt;stroke-linejoin:miter;stroke-opacity:1" d="M 138.363,219.839 151.228,226.986 z" id="boundary" inkscape:connector-curvature="0" />
	<path style="fill:none;stroke:red;stroke-width:1px;stroke-linecap:butt;stroke-linejoin:miter;stroke-opacity:1" d="M 138.363,219.839 124.069,218.409 z" id="boundary" inkscape:connector-curvature="0" />
	<path style="fill:none;stroke:red;stroke-width:1px;stroke-linecap:butt;stroke-linejoin:miter;stroke-opacity:1" d="M 139.793,698.686 152.657,705.833 z" id="boundary" inkscape:connector-curvature="0" />
	<path style="fill:none;stroke:red;stroke-width:1px;stroke-linecap:butt;stroke-linejoin:miter;stroke-opacity:1" d="M 139.793,698.686 125.499,694.398 z" id="boundary" inkscape:connector-curvature="0" />
	<path style="fill:none;stroke:red;stroke-width:1px;stroke-linecap:butt;stroke-linejoin:miter;stroke-opacity:1" d="M 125.499,680.104 125.499,694.398 z" id="boundary" inkscape:connector-curvature="0" />
	<path style="fill:none;stroke:red;stroke-width:1px;stroke-linecap:butt;stroke-linejoin:miter;stroke-opacity:1" d="M 125.499,680.104 136.934,668.669 z" id="boundary" inkscape:connector-curvature="0" />
	<path style="fill:none;stroke:red;stroke-width:1px;stroke-linecap:butt;stroke-linejoin:miter;stroke-opacity:1" d="M 126.928,462.836 112.634,462.836 z" id="boundary" inkscape:connector-curvature="0" />
	<path style="fill:none;stroke:red;stroke-width:1px;stroke-linecap:butt;stroke-linejoin:miter;stroke-opacity:1" d="M 126.928,462.836 141.222,455.689 z" id="boundary" inkscape:connector-curvature="0" />
	<path style="fill:none;stroke:red;stroke-width:1px;stroke-linecap:butt;stroke-linejoin:miter;stroke-opacity:1" d="M 141.222,455.689 154.086,462.836 z" id="boundary" inkscape:connector-curvature="0" />
	<path style="fill:none;stroke:red;stroke-width:1px;stroke-linecap:butt;stroke-linejoin:miter;stroke-opacity:1" d="M 136.934,668.669 148.369,657.233 z" id="boundary" inkscape:connector-curvature="0" />
	<path style="fill:none;stroke:red;stroke-width:1px;stroke-linecap:butt;stroke-linejoin:miter;stroke-opacity:1" d="M 162.663,236.991 174.098,246.997 z" id="boundary" inkscape:connector-curvature="0" />
	<path style="fill:none;stroke:red;stroke-width:1px;stroke-linecap:butt;stroke-linejoin:miter;stroke-opacity:1" d="M 152.657,705.833 166.951,705.833 z" id="boundary" inkscape:connector-curvature="0" />
	<path style="fill:none;stroke:red;stroke-width:1px;stroke-linecap:butt;stroke-linejoin:miter;stroke-opacity:1" d="M 148.369,657.233 159.804,647.228 z" id="boundary" inkscape:connector-curvature="0" />
	<path style="fill:none;stroke:red;stroke-width:1px;stroke-linecap:butt;stroke-linejoin:miter;stroke-opacity:1" d="M 159.804,647.228 174.098,647.228 z" id="boundary" inkscape:connector-curvature="0" />
	<path style="fill:none;stroke:red;stroke-width:1px;stroke-linecap:butt;stroke-linejoin:miter;stroke-opacity:1" d="M 174.098,246.997 186.963,254.144 z" id="boundary" inkscape:connector-curvature="0" />
	<path style="fill:none;stroke:red;stroke-width:1px;stroke-linecap:butt;stroke-linejoin:miter;stroke-opacity:1" d="M 154.086,462.836 168.38,462.836 z" id="boundary" inkscape:connector-curvature="0" />
	<path style="fill:none;stroke:red;stroke-width:1px;stroke-linecap:butt;stroke-linejoin:miter;stroke-opacity:1" d="M 174.098,647.228 179.816,632.934 z" id="boundary" inkscape:connector-curvature="0" />
	<path style="fill:none;stroke:red;stroke-width:1px;stroke-linecap:butt;stroke-linejoin:miter;stroke-opacity:1" d="M 179.816,632.934 194.11,625.787 z" id="boundary" inkscape:connector-curvature="0" />
	<path style="fill:none;stroke:red;stroke-width:1px;stroke-linecap:butt;stroke-linejoin:miter;stroke-opacity:1" d="M 166.951,705.833 181.245,705.833 z" id="boundary" inkscape:connector-curvature="0" />
	<path style="fill:none;stroke:red;stroke-width:1px;stroke-linecap:butt;stroke-linejoin:miter;stroke-opacity:1" d="M 182.674,462.836 168.38,462.836 z" id="boundary" inkscape:connector-curvature="0" />
	<path style="fill:none;stroke:red;stroke-width:1px;stroke-linecap:butt;stroke-linejoin:miter;stroke-opacity:1" d="M 225.556,455.689 232.703,468.553 z" id="boundary" inkscape:connector-curvature="0" />
	<path style="fill:none;stroke:red;stroke-width:1px;stroke-linecap:butt;stroke-linejoin:miter;stroke-opacity:1" d="M 182.674,462.836 194.11,454.259 z" id="boundary" inkscape:connector-curvature="0" />
	<path style="fill:none;stroke:red;stroke-width:1px;stroke-linecap:butt;stroke-linejoin:miter;stroke-opacity:1" d="M 271.297,648.657 258.432,655.804 z" id="boundary" inkscape:connector-curvature="0" />
	<path style="fill:none;stroke:red;stroke-width:1px;stroke-linecap:butt;stroke-linejoin:miter;stroke-opacity:1" d="M 219.839,441.395 225.556,455.689 z" id="boundary" inkscape:connector-curvature="0" />
	<path style="fill:none;stroke:red;stroke-width:1px;stroke-linecap:butt;stroke-linejoin:miter;stroke-opacity:1" d="M 219.839,441.395 205.545,441.395 z" id="boundary" inkscape:connector-curvature="0" />
	<path style="fill:none;stroke:red;stroke-width:1px;stroke-linecap:butt;stroke-linejoin:miter;stroke-opacity:1" d="M 205.545,441.395 194.11,454.259 z" id="boundary" inkscape:connector-curvature="0" />
	<path style="fill:none;stroke:red;stroke-width:1px;stroke-linecap:butt;stroke-linejoin:miter;stroke-opacity:1" d="M 186.963,254.144 201.256,254.144 z" id="boundary" inkscape:connector-curvature="0" />
	<path style="fill:none;stroke:red;stroke-width:1px;stroke-linecap:butt;stroke-linejoin:miter;stroke-opacity:1" d="M 201.256,254.144 214.121,261.291 z" id="boundary" inkscape:connector-curvature="0" />
	<path style="fill:none;stroke:red;stroke-width:1px;stroke-linecap:butt;stroke-linejoin:miter;stroke-opacity:1" d="M 194.11,625.787 205.545,614.352 z" id="boundary" inkscape:connector-curvature="0" />
	<path style="fill:none;stroke:red;stroke-width:1px;stroke-linecap:butt;stroke-linejoin:miter;stroke-opacity:1" d="M 219.839,677.245 232.703,670.098 z" id="boundary" inkscape:connector-curvature="0" />
	<path style="fill:none;stroke:red;stroke-width:1px;stroke-linecap:butt;stroke-linejoin:miter;stroke-opacity:1" d="M 219.839,677.245 208.403,697.256 z" id="boundary" inkscape:connector-curvature="0" />
	<path style="fill:none;stroke:red;stroke-width:1px;stroke-linecap:butt;stroke-linejoin:miter;stroke-opacity:1" d="M 181.245,705.833 195.539,705.833 z" id="boundary" inkscape:connector-curvature="0" />
	<path style="fill:none;stroke:red;stroke-width:1px;stroke-linecap:butt;stroke-linejoin:miter;stroke-opacity:1" d="M 195.539,705.833 208.403,697.256 z" id="boundary" inkscape:connector-curvature="0" />
	<path style="fill:none;stroke:red;stroke-width:1px;stroke-linecap:butt;stroke-linejoin:miter;stroke-opacity:1" d="M 214.121,261.291 226.986,268.438 z" id="boundary" inkscape:connector-curvature="0" />
	<path style="fill:none;stroke:red;stroke-width:1px;stroke-linecap:butt;stroke-linejoin:miter;stroke-opacity:1" d="M 205.545,614.352 219.839,607.205 z" id="boundary" inkscape:connector-curvature="0" />
	<path style="fill:none;stroke:red;stroke-width:1px;stroke-linecap:butt;stroke-linejoin:miter;stroke-opacity:1" d="M 232.703,670.098 244.138,661.522 z" id="boundary" inkscape:connector-curvature="0" />
	<path style="fill:none;stroke:red;stroke-width:1px;stroke-linecap:butt;stroke-linejoin:miter;stroke-opacity:1" d="M 244.138,661.522 258.432,655.804 z" id="boundary" inkscape:connector-curvature="0" />
	<path style="fill:none;stroke:red;stroke-width:1px;stroke-linecap:butt;stroke-linejoin:miter;stroke-opacity:1" d="M 251.285,491.424 241.28,479.988 z" id="boundary" inkscape:connector-curvature="0" />
	<path style="fill:none;stroke:red;stroke-width:1px;stroke-linecap:butt;stroke-linejoin:miter;stroke-opacity:1" d="M 241.28,479.988 232.703,468.553 z" id="boundary" inkscape:connector-curvature="0" />
	<path style="fill:none;stroke:red;stroke-width:1px;stroke-linecap:butt;stroke-linejoin:miter;stroke-opacity:1" d="M 252.715,277.014 241.28,268.438 z" id="boundary" inkscape:connector-curvature="0" />
	<path style="fill:none;stroke:red;stroke-width:1px;stroke-linecap:butt;stroke-linejoin:miter;stroke-opacity:1" d="M 241.28,268.438 226.986,268.438 z" id="boundary" inkscape:connector-curvature="0" />
	<path style="fill:none;stroke:red;stroke-width:1px;stroke-linecap:butt;stroke-linejoin:miter;stroke-opacity:1" d="M 219.839,607.205 234.133,600.058 z" id="boundary" inkscape:connector-curvature="0" />
	<path style="fill:none;stroke:red;stroke-width:1px;stroke-linecap:butt;stroke-linejoin:miter;stroke-opacity:1" d="M 234.133,600.058 245.568,590.052 z" id="boundary" inkscape:connector-curvature="0" />
	<path style="fill:none;stroke:red;stroke-width:1px;stroke-linecap:butt;stroke-linejoin:miter;stroke-opacity:1" d="M 268.438,515.723 262.72,501.429 z" id="boundary" inkscape:connector-curvature="0" />
	<path style="fill:none;stroke:red;stroke-width:1px;stroke-linecap:butt;stroke-linejoin:miter;stroke-opacity:1" d="M 262.72,501.429 251.285,491.424 z" id="boundary" inkscape:connector-curvature="0" />
	<path style="fill:none;stroke:red;stroke-width:1px;stroke-linecap:butt;stroke-linejoin:miter;stroke-opacity:1" d="M 295.597,282.732 281.303,282.732 z" id="boundary" inkscape:connector-curvature="0" />
	<path style="fill:none;stroke:red;stroke-width:1px;stroke-linecap:butt;stroke-linejoin:miter;stroke-opacity:1" d="M 245.568,590.052 258.432,582.905 z" id="boundary" inkscape:connector-curvature="0" />
	<path style="fill:none;stroke:red;stroke-width:1px;stroke-linecap:butt;stroke-linejoin:miter;stroke-opacity:1" d="M 284.161,641.51 271.297,648.657 z" id="boundary" inkscape:connector-curvature="0" />
	<path style="fill:none;stroke:red;stroke-width:1px;stroke-linecap:butt;stroke-linejoin:miter;stroke-opacity:1" d="M 267.009,282.732 252.715,277.014 z" id="boundary" inkscape:connector-curvature="0" />
	<path style="fill:none;stroke:red;stroke-width:1px;stroke-linecap:butt;stroke-linejoin:miter;stroke-opacity:1" d="M 258.432,582.905 269.867,571.47 z" id="boundary" inkscape:connector-curvature="0" />
	<path style="fill:none;stroke:red;stroke-width:1px;stroke-linecap:butt;stroke-linejoin:miter;stroke-opacity:1" d="M 298.455,634.363 284.161,641.51 z" id="boundary" inkscape:connector-curvature="0" />
	<path style="fill:none;stroke:red;stroke-width:1px;stroke-linecap:butt;stroke-linejoin:miter;stroke-opacity:1" d="M 267.009,282.732 281.303,282.732 z" id="boundary" inkscape:connector-curvature="0" />
	<path style="fill:none;stroke:red;stroke-width:1px;stroke-linecap:butt;stroke-linejoin:miter;stroke-opacity:1" d="M 309.89,282.732 295.597,282.732 z" id="boundary" inkscape:connector-curvature="0" />
	<path style="fill:none;stroke:red;stroke-width:1px;stroke-linecap:butt;stroke-linejoin:miter;stroke-opacity:1" d="M 277.014,557.176 282.732,540.023 z" id="boundary" inkscape:connector-curvature="0" />
	<path style="fill:none;stroke:red;stroke-width:1px;stroke-linecap:butt;stroke-linejoin:miter;stroke-opacity:1" d="M 268.438,515.723 279.873,525.729 z" id="boundary" inkscape:connector-curvature="0" />
	<path style="fill:none;stroke:red;stroke-width:1px;stroke-linecap:butt;stroke-linejoin:miter;stroke-opacity:1" d="M 269.867,571.47 277.014,557.176 z" id="boundary" inkscape:connector-curvature="0" />
	<path style="fill:none;stroke:red;stroke-width:1px;stroke-linecap:butt;stroke-linejoin:miter;stroke-opacity:1" d="M 279.873,525.729 282.732,540.023 z" id="boundary" inkscape:connector-curvature="0" />
	<path style="fill:none;stroke:red;stroke-width:1px;stroke-linecap:butt;stroke-linejoin:miter;stroke-opacity:1" d="M 375.643,694.398 375.643,680.104 z" id="boundary" inkscape:connector-curvature="0" />
	<path style="fill:none;stroke:red;stroke-width:1px;stroke-linecap:butt;stroke-linejoin:miter;stroke-opacity:1" d="M 298.455,634.363 311.32,627.216 z" id="boundary" inkscape:connector-curvature="0" />
	<path style="fill:none;stroke:red;stroke-width:1px;stroke-linecap:butt;stroke-linejoin:miter;stroke-opacity:1" d="M 309.89,282.732 322.755,275.585 z" id="boundary" inkscape:connector-curvature="0" />
	<path style="fill:none;stroke:red;stroke-width:1px;stroke-linecap:butt;stroke-linejoin:miter;stroke-opacity:1" d="M 322.755,275.585 337.049,268.438 z" id="boundary" inkscape:connector-curvature="0" />
	<path style="fill:none;stroke:red;stroke-width:1px;stroke-linecap:butt;stroke-linejoin:miter;stroke-opacity:1" d="M 337.049,268.438 351.343,268.438 z" id="boundary" inkscape:connector-curvature="0" />
	<path style="fill:none;stroke:red;stroke-width:1px;stroke-linecap:butt;stroke-linejoin:miter;stroke-opacity:1" d="M 351.343,604.346 337.049,611.493 z" id="boundary" inkscape:connector-curvature="0" />
	<path style="fill:none;stroke:red;stroke-width:1px;stroke-linecap:butt;stroke-linejoin:miter;stroke-opacity:1" d="M 322.755,618.64 337.049,611.493 z" id="boundary" inkscape:connector-curvature="0" />
	<path style="fill:none;stroke:red;stroke-width:1px;stroke-linecap:butt;stroke-linejoin:miter;stroke-opacity:1" d="M 311.32,627.216 322.755,618.64 z" id="boundary" inkscape:connector-curvature="0" />
	<path style="fill:none;stroke:red;stroke-width:1px;stroke-linecap:butt;stroke-linejoin:miter;stroke-opacity:1" d="M 405.66,272.726 418.524,279.873 z" id="boundary" inkscape:connector-curvature="0" />
	<path style="fill:none;stroke:red;stroke-width:1px;stroke-linecap:butt;stroke-linejoin:miter;stroke-opacity:1" d="M 391.366,268.438 405.66,272.726 z" id="boundary" inkscape:connector-curvature="0" />
	<path style="fill:none;stroke:red;stroke-width:1px;stroke-linecap:butt;stroke-linejoin:miter;stroke-opacity:1" d="M 391.366,268.438 377.072,268.438 z" id="boundary" inkscape:connector-curvature="0" />
	<path style="fill:none;stroke:red;stroke-width:1px;stroke-linecap:butt;stroke-linejoin:miter;stroke-opacity:1" d="M 362.778,591.481 375.643,584.334 z" id="boundary" inkscape:connector-curvature="0" />
	<path style="fill:none;stroke:red;stroke-width:1px;stroke-linecap:butt;stroke-linejoin:miter;stroke-opacity:1" d="M 351.343,604.346 362.778,591.481 z" id="boundary" inkscape:connector-curvature="0" />
	<path style="fill:none;stroke:red;stroke-width:1px;stroke-linecap:butt;stroke-linejoin:miter;stroke-opacity:1" d="M 375.643,694.398 389.937,698.686 z" id="boundary" inkscape:connector-curvature="0" />
	<path style="fill:none;stroke:red;stroke-width:1px;stroke-linecap:butt;stroke-linejoin:miter;stroke-opacity:1" d="M 389.937,698.686 402.801,705.833 z" id="boundary" inkscape:connector-curvature="0" />
	<path style="fill:none;stroke:red;stroke-width:1px;stroke-linecap:butt;stroke-linejoin:miter;stroke-opacity:1" d="M 351.343,268.438 364.207,261.291 z" id="boundary" inkscape:connector-curvature="0" />
	<path style="fill:none;stroke:red;stroke-width:1px;stroke-linecap:butt;stroke-linejoin:miter;stroke-opacity:1" d="M 364.207,261.291 377.072,268.438 z" id="boundary" inkscape:connector-curvature="0" />
	<path style="fill:none;stroke:red;stroke-width:1px;stroke-linecap:butt;stroke-linejoin:miter;stroke-opacity:1" d="M 375.643,584.334 387.078,575.758 z" id="boundary" inkscape:connector-curvature="0" />
	<path style="fill:none;stroke:red;stroke-width:1px;stroke-linecap:butt;stroke-linejoin:miter;stroke-opacity:1" d="M 375.643,680.104 387.078,668.669 z" id="boundary" inkscape:connector-curvature="0" />
	<path style="fill:none;stroke:red;stroke-width:1px;stroke-linecap:butt;stroke-linejoin:miter;stroke-opacity:1" d="M 387.078,575.758 398.513,562.893 z" id="boundary" inkscape:connector-curvature="0" />
	<path style="fill:none;stroke:red;stroke-width:1px;stroke-linecap:butt;stroke-linejoin:miter;stroke-opacity:1" d="M 411.378,555.746 415.666,570.04 z" id="boundary" inkscape:connector-curvature="0" />
	<path style="fill:none;stroke:red;stroke-width:1px;stroke-linecap:butt;stroke-linejoin:miter;stroke-opacity:1" d="M 411.378,555.746 398.513,562.893 z" id="boundary" inkscape:connector-curvature="0" />
	<path style="fill:none;stroke:red;stroke-width:1px;stroke-linecap:butt;stroke-linejoin:miter;stroke-opacity:1" d="M 387.078,668.669 399.942,661.522 z" id="boundary" inkscape:connector-curvature="0" />
	<path style="fill:none;stroke:red;stroke-width:1px;stroke-linecap:butt;stroke-linejoin:miter;stroke-opacity:1" d="M 417.095,705.833 402.801,705.833 z" id="boundary" inkscape:connector-curvature="0" />
	<path style="fill:none;stroke:red;stroke-width:1px;stroke-linecap:butt;stroke-linejoin:miter;stroke-opacity:1" d="M 425.671,597.199 425.671,611.493 z" id="boundary" inkscape:connector-curvature="0" />
	<path style="fill:none;stroke:red;stroke-width:1px;stroke-linecap:butt;stroke-linejoin:miter;stroke-opacity:1" d="M 425.671,597.199 418.524,584.334 z" id="boundary" inkscape:connector-curvature="0" />
	<path style="fill:none;stroke:red;stroke-width:1px;stroke-linecap:butt;stroke-linejoin:miter;stroke-opacity:1" d="M 399.942,661.522 414.236,661.522 z" id="boundary" inkscape:connector-curvature="0" />
	<path style="fill:none;stroke:red;stroke-width:1px;stroke-linecap:butt;stroke-linejoin:miter;stroke-opacity:1" d="M 415.666,570.04 418.524,584.334 z" id="boundary" inkscape:connector-curvature="0" />
	<path style="fill:none;stroke:red;stroke-width:1px;stroke-linecap:butt;stroke-linejoin:miter;stroke-opacity:1" d="M 461.406,282.732 447.112,282.732 z" id="boundary" inkscape:connector-curvature="0" />
	<path style="fill:none;stroke:red;stroke-width:1px;stroke-linecap:butt;stroke-linejoin:miter;stroke-opacity:1" d="M 432.818,282.732 418.524,279.873 z" id="boundary" inkscape:connector-curvature="0" />
	<path style="fill:none;stroke:red;stroke-width:1px;stroke-linecap:butt;stroke-linejoin:miter;stroke-opacity:1" d="M 432.818,624.357 432.818,638.651 z" id="boundary" inkscape:connector-curvature="0" />
	<path style="fill:none;stroke:red;stroke-width:1px;stroke-linecap:butt;stroke-linejoin:miter;stroke-opacity:1" d="M 432.818,624.357 425.671,611.493 z" id="boundary" inkscape:connector-curvature="0" />
	<path style="fill:none;stroke:red;stroke-width:1px;stroke-linecap:butt;stroke-linejoin:miter;stroke-opacity:1" d="M 491.424,562.893 491.424,548.599 z" id="boundary" inkscape:connector-curvature="0" />
	<path style="fill:none;stroke:red;stroke-width:1px;stroke-linecap:butt;stroke-linejoin:miter;stroke-opacity:1" d="M 447.112,282.732 432.818,282.732 z" id="boundary" inkscape:connector-curvature="0" />
	<path style="fill:none;stroke:red;stroke-width:1px;stroke-linecap:butt;stroke-linejoin:miter;stroke-opacity:1" d="M 414.236,661.522 428.53,655.804 z" id="boundary" inkscape:connector-curvature="0" />
	<path style="fill:none;stroke:red;stroke-width:1px;stroke-linecap:butt;stroke-linejoin:miter;stroke-opacity:1" d="M 417.095,705.833 431.389,705.833 z" id="boundary" inkscape:connector-curvature="0" />
	<path style="fill:none;stroke:red;stroke-width:1px;stroke-linecap:butt;stroke-linejoin:miter;stroke-opacity:1" d="M 475.7,282.732 461.406,282.732 z" id="boundary" inkscape:connector-curvature="0" />
	<path style="fill:none;stroke:red;stroke-width:1px;stroke-linecap:butt;stroke-linejoin:miter;stroke-opacity:1" d="M 428.53,655.804 432.818,638.651 z" id="boundary" inkscape:connector-curvature="0" />
	<path style="fill:none;stroke:red;stroke-width:1px;stroke-linecap:butt;stroke-linejoin:miter;stroke-opacity:1" d="M 489.994,282.732 475.7,282.732 z" id="boundary" inkscape:connector-curvature="0" />
	<path style="fill:none;stroke:red;stroke-width:1px;stroke-linecap:butt;stroke-linejoin:miter;stroke-opacity:1" d="M 431.389,705.833 445.683,705.833 z" id="boundary" inkscape:connector-curvature="0" />
	<path style="fill:none;stroke:red;stroke-width:1px;stroke-linecap:butt;stroke-linejoin:miter;stroke-opacity:1" d="M 445.683,705.833 459.977,705.833 z" id="boundary" inkscape:connector-curvature="0" />
	<path style="fill:none;stroke:red;stroke-width:1px;stroke-linecap:butt;stroke-linejoin:miter;stroke-opacity:1" d="M 498.571,690.11 498.571,675.816 z" id="boundary" inkscape:connector-curvature="0" />
	<path style="fill:none;stroke:red;stroke-width:1px;stroke-linecap:butt;stroke-linejoin:miter;stroke-opacity:1" d="M 498.571,575.758 498.571,590.052 z" id="boundary" inkscape:connector-curvature="0" />
	<path style="fill:none;stroke:red;stroke-width:1px;stroke-linecap:butt;stroke-linejoin:miter;stroke-opacity:1" d="M 498.571,575.758 491.424,562.893 z" id="boundary" inkscape:connector-curvature="0" />
	<path style="fill:none;stroke:red;stroke-width:1px;stroke-linecap:butt;stroke-linejoin:miter;stroke-opacity:1" d="M 498.571,590.052 498.571,604.346 z" id="boundary" inkscape:connector-curvature="0" />
	<path style="fill:none;stroke:red;stroke-width:1px;stroke-linecap:butt;stroke-linejoin:miter;stroke-opacity:1" d="M 504.288,282.732 489.994,282.732 z" id="boundary" inkscape:connector-curvature="0" />
	<path style="fill:none;stroke:red;stroke-width:1px;stroke-linecap:butt;stroke-linejoin:miter;stroke-opacity:1" d="M 491.424,548.599 505.718,548.599 z" id="boundary" inkscape:connector-curvature="0" />
	<path style="fill:none;stroke:red;stroke-width:1px;stroke-linecap:butt;stroke-linejoin:miter;stroke-opacity:1" d="M 498.571,618.64 498.571,604.346 z" id="boundary" inkscape:connector-curvature="0" />
	<path style="fill:none;stroke:red;stroke-width:1px;stroke-linecap:butt;stroke-linejoin:miter;stroke-opacity:1" d="M 498.571,632.934 498.571,618.64 z" id="boundary" inkscape:connector-curvature="0" />
	<path style="fill:none;stroke:red;stroke-width:1px;stroke-linecap:butt;stroke-linejoin:miter;stroke-opacity:1" d="M 498.571,647.228 498.571,661.522 z" id="boundary" inkscape:connector-curvature="0" />
	<path style="fill:none;stroke:red;stroke-width:1px;stroke-linecap:butt;stroke-linejoin:miter;stroke-opacity:1" d="M 505.718,548.599 520.012,548.599 z" id="boundary" inkscape:connector-curvature="0" />
	<path style="fill:none;stroke:red;stroke-width:1px;stroke-linecap:butt;stroke-linejoin:miter;stroke-opacity:1" d="M 498.571,661.522 498.571,675.816 z" id="boundary" inkscape:connector-curvature="0" />
	<path style="fill:none;stroke:red;stroke-width:1px;stroke-linecap:butt;stroke-linejoin:miter;stroke-opacity:1" d="M 520.012,548.599 534.305,548.599 z" id="boundary" inkscape:connector-curvature="0" />
	<path style="fill:none;stroke:red;stroke-width:1px;stroke-linecap:butt;stroke-linejoin:miter;stroke-opacity:1" d="M 474.271,705.833 459.977,705.833 z" id="boundary" inkscape:connector-curvature="0" />
	<path style="fill:none;stroke:red;stroke-width:1px;stroke-linecap:butt;stroke-linejoin:miter;stroke-opacity:1" d="M 474.271,705.833 488.565,705.833 z" id="boundary" inkscape:connector-curvature="0" />
	<path style="fill:none;stroke:red;stroke-width:1px;stroke-linecap:butt;stroke-linejoin:miter;stroke-opacity:1" d="M 488.565,705.833 498.571,690.11 z" id="boundary" inkscape:connector-curvature="0" />
	<path style="fill:none;stroke:red;stroke-width:1px;stroke-linecap:butt;stroke-linejoin:miter;stroke-opacity:1" d="M 548.599,541.452 534.305,548.599 z" id="boundary" inkscape:connector-curvature="0" />
	<path style="fill:none;stroke:red;stroke-width:1px;stroke-linecap:butt;stroke-linejoin:miter;stroke-opacity:1" d="M 560.035,531.447 574.329,524.3 z" id="boundary" inkscape:connector-curvature="0" />
	<path style="fill:none;stroke:red;stroke-width:1px;stroke-linecap:butt;stroke-linejoin:miter;stroke-opacity:1" d="M 560.035,531.447 548.599,541.452 z" id="boundary" inkscape:connector-curvature="0" />
	<path style="fill:none;stroke:red;stroke-width:1px;stroke-linecap:butt;stroke-linejoin:miter;stroke-opacity:1" d="M 504.288,282.732 518.582,279.873 z" id="boundary" inkscape:connector-curvature="0" />
	<path style="fill:none;stroke:red;stroke-width:1px;stroke-linecap:butt;stroke-linejoin:miter;stroke-opacity:1" d="M 518.582,279.873 532.876,272.726 z" id="boundary" inkscape:connector-curvature="0" />
	<path style="fill:none;stroke:red;stroke-width:1px;stroke-linecap:butt;stroke-linejoin:miter;stroke-opacity:1" d="M 532.876,272.726 547.17,268.438 z" id="boundary" inkscape:connector-curvature="0" />
	<path style="fill:none;stroke:red;stroke-width:1px;stroke-linecap:butt;stroke-linejoin:miter;stroke-opacity:1" d="M 595.769,502.859 584.334,512.865 z" id="boundary" inkscape:connector-curvature="0" />
	<path style="fill:none;stroke:red;stroke-width:1px;stroke-linecap:butt;stroke-linejoin:miter;stroke-opacity:1" d="M 561.464,265.579 547.17,268.438 z" id="boundary" inkscape:connector-curvature="0" />
	<path style="fill:none;stroke:red;stroke-width:1px;stroke-linecap:butt;stroke-linejoin:miter;stroke-opacity:1" d="M 654.375,501.429 661.522,514.294 z" id="boundary" inkscape:connector-curvature="0" />
	<path style="fill:none;stroke:red;stroke-width:1px;stroke-linecap:butt;stroke-linejoin:miter;stroke-opacity:1" d="M 610.063,495.712 595.769,502.859 z" id="boundary" inkscape:connector-curvature="0" />
	<path style="fill:none;stroke:red;stroke-width:1px;stroke-linecap:butt;stroke-linejoin:miter;stroke-opacity:1" d="M 561.464,265.579 575.758,261.291 z" id="boundary" inkscape:connector-curvature="0" />
	<path style="fill:none;stroke:red;stroke-width:1px;stroke-linecap:butt;stroke-linejoin:miter;stroke-opacity:1" d="M 574.329,524.3 584.334,512.865 z" id="boundary" inkscape:connector-curvature="0" />
	<path style="fill:none;stroke:red;stroke-width:1px;stroke-linecap:butt;stroke-linejoin:miter;stroke-opacity:1" d="M 630.075,246.997 615.781,246.997 z" id="boundary" inkscape:connector-curvature="0" />
	<path style="fill:none;stroke:red;stroke-width:1px;stroke-linecap:butt;stroke-linejoin:miter;stroke-opacity:1" d="M 575.758,261.291 588.622,254.144 z" id="boundary" inkscape:connector-curvature="0" />
	<path style="fill:none;stroke:red;stroke-width:1px;stroke-linecap:butt;stroke-linejoin:miter;stroke-opacity:1" d="M 611.493,680.104 622.928,690.11 z" id="boundary" inkscape:connector-curvature="0" />
	<path style="fill:none;stroke:red;stroke-width:1px;stroke-linecap:butt;stroke-linejoin:miter;stroke-opacity:1" d="M 588.622,254.144 601.487,246.997 z" id="boundary" inkscape:connector-curvature="0" />
	<path style="fill:none;stroke:red;stroke-width:1px;stroke-linecap:butt;stroke-linejoin:miter;stroke-opacity:1" d="M 601.487,246.997 615.781,246.997 z" id="boundary" inkscape:connector-curvature="0" />
	<path style="fill:none;stroke:red;stroke-width:1px;stroke-linecap:butt;stroke-linejoin:miter;stroke-opacity:1" d="M 648.657,691.539 662.951,691.539 z" id="boundary" inkscape:connector-curvature="0" />
	<path style="fill:none;stroke:red;stroke-width:1px;stroke-linecap:butt;stroke-linejoin:miter;stroke-opacity:1" d="M 648.657,691.539 634.363,698.686 z" id="boundary" inkscape:connector-curvature="0" />
	<path style="fill:none;stroke:red;stroke-width:1px;stroke-linecap:butt;stroke-linejoin:miter;stroke-opacity:1" d="M 622.928,690.11 634.363,698.686 z" id="boundary" inkscape:connector-curvature="0" />
	<path style="fill:none;stroke:red;stroke-width:1px;stroke-linecap:butt;stroke-linejoin:miter;stroke-opacity:1" d="M 611.493,680.104 611.493,665.81 z" id="boundary" inkscape:connector-curvature="0" />
	<path style="fill:none;stroke:red;stroke-width:1px;stroke-linecap:butt;stroke-linejoin:miter;stroke-opacity:1" d="M 611.493,665.81 622.928,654.375 z" id="boundary" inkscape:connector-curvature="0" />
	<path style="fill:none;stroke:red;stroke-width:1px;stroke-linecap:butt;stroke-linejoin:miter;stroke-opacity:1" d="M 648.657,472.841 634.363,469.983 z" id="boundary" inkscape:connector-curvature="0" />
	<path style="fill:none;stroke:red;stroke-width:1px;stroke-linecap:butt;stroke-linejoin:miter;stroke-opacity:1" d="M 634.363,469.983 624.357,488.565 z" id="boundary" inkscape:connector-curvature="0" />
	<path style="fill:none;stroke:red;stroke-width:1px;stroke-linecap:butt;stroke-linejoin:miter;stroke-opacity:1" d="M 654.375,501.429 654.375,487.135 z" id="boundary" inkscape:connector-curvature="0" />
	<path style="fill:none;stroke:red;stroke-width:1px;stroke-linecap:butt;stroke-linejoin:miter;stroke-opacity:1" d="M 624.357,488.565 610.063,495.712 z" id="boundary" inkscape:connector-curvature="0" />
	<path style="fill:none;stroke:red;stroke-width:1px;stroke-linecap:butt;stroke-linejoin:miter;stroke-opacity:1" d="M 630.075,246.997 644.369,239.85 z" id="boundary" inkscape:connector-curvature="0" />
	<path style="fill:none;stroke:red;stroke-width:1px;stroke-linecap:butt;stroke-linejoin:miter;stroke-opacity:1" d="M 644.369,239.85 658.663,239.85 z" id="boundary" inkscape:connector-curvature="0" />
	<path style="fill:none;stroke:red;stroke-width:1px;stroke-linecap:butt;stroke-linejoin:miter;stroke-opacity:1" d="M 622.928,654.375 637.222,654.375 z" id="boundary" inkscape:connector-curvature="0" />
	<path style="fill:none;stroke:red;stroke-width:1px;stroke-linecap:butt;stroke-linejoin:miter;stroke-opacity:1" d="M 637.222,654.375 648.657,642.939 z" id="boundary" inkscape:connector-curvature="0" />
	<path style="fill:none;stroke:red;stroke-width:1px;stroke-linecap:butt;stroke-linejoin:miter;stroke-opacity:1" d="M 648.657,472.841 654.375,487.135 z" id="boundary" inkscape:connector-curvature="0" />
	<path style="fill:none;stroke:red;stroke-width:1px;stroke-linecap:butt;stroke-linejoin:miter;stroke-opacity:1" d="M 662.951,691.539 677.245,691.539 z" id="boundary" inkscape:connector-curvature="0" />
	<path style="fill:none;stroke:red;stroke-width:1px;stroke-linecap:butt;stroke-linejoin:miter;stroke-opacity:1" d="M 672.957,239.85 658.663,239.85 z" id="boundary" inkscape:connector-curvature="0" />
	<path style="fill:none;stroke:red;stroke-width:1px;stroke-linecap:butt;stroke-linejoin:miter;stroke-opacity:1" d="M 648.657,642.939 655.804,628.646 z" id="boundary" inkscape:connector-curvature="0" />
	<path style="fill:none;stroke:red;stroke-width:1px;stroke-linecap:butt;stroke-linejoin:miter;stroke-opacity:1" d="M 687.251,239.85 672.957,239.85 z" id="boundary" inkscape:connector-curvature="0" />
	<path style="fill:none;stroke:red;stroke-width:1px;stroke-linecap:butt;stroke-linejoin:miter;stroke-opacity:1" d="M 655.804,628.646 667.239,618.64 z" id="boundary" inkscape:connector-curvature="0" />
	<path style="fill:none;stroke:red;stroke-width:1px;stroke-linecap:butt;stroke-linejoin:miter;stroke-opacity:1" d="M 661.522,514.294 671.527,525.729 z" id="boundary" inkscape:connector-curvature="0" />
	<path style="fill:none;stroke:red;stroke-width:1px;stroke-linecap:butt;stroke-linejoin:miter;stroke-opacity:1" d="M 671.527,525.729 682.963,534.305 z" id="boundary" inkscape:connector-curvature="0" />
	<path style="fill:none;stroke:red;stroke-width:1px;stroke-linecap:butt;stroke-linejoin:miter;stroke-opacity:1" d="M 682.963,534.305 691.539,545.741 z" id="boundary" inkscape:connector-curvature="0" />
	<path style="fill:none;stroke:red;stroke-width:1px;stroke-linecap:butt;stroke-linejoin:miter;stroke-opacity:1" d="M 677.245,691.539 690.11,684.392 z" id="boundary" inkscape:connector-curvature="0" />
	<path style="fill:none;stroke:red;stroke-width:1px;stroke-linecap:butt;stroke-linejoin:miter;stroke-opacity:1" d="M 728.703,246.997 741.568,254.144 z" id="boundary" inkscape:connector-curvature="0" />
	<path style="fill:none;stroke:red;stroke-width:1px;stroke-linecap:butt;stroke-linejoin:miter;stroke-opacity:1" d="M 761.579,101.199 761.579,86.9049 z" id="boundary" inkscape:connector-curvature="0" />
	<path style="fill:none;stroke:red;stroke-width:1px;stroke-linecap:butt;stroke-linejoin:miter;stroke-opacity:1" d="M 680.104,611.493 667.239,618.64 z" id="boundary" inkscape:connector-curvature="0" />
	<path style="fill:none;stroke:red;stroke-width:1px;stroke-linecap:butt;stroke-linejoin:miter;stroke-opacity:1" d="M 680.104,611.493 694.398,611.493 z" id="boundary" inkscape:connector-curvature="0" />
	<path style="fill:none;stroke:red;stroke-width:1px;stroke-linecap:butt;stroke-linejoin:miter;stroke-opacity:1" d="M 701.545,239.85 687.251,239.85 z" id="boundary" inkscape:connector-curvature="0" />
	<path style="fill:none;stroke:red;stroke-width:1px;stroke-linecap:butt;stroke-linejoin:miter;stroke-opacity:1" d="M 761.579,101.199 761.579,115.493 z" id="boundary" inkscape:connector-curvature="0" />
	<path style="fill:none;stroke:red;stroke-width:1px;stroke-linecap:butt;stroke-linejoin:miter;stroke-opacity:1" d="M 728.703,246.997 715.839,239.85 z" id="boundary" inkscape:connector-curvature="0" />
	<path style="fill:none;stroke:red;stroke-width:1px;stroke-linecap:butt;stroke-linejoin:miter;stroke-opacity:1" d="M 715.839,239.85 701.545,239.85 z" id="boundary" inkscape:connector-curvature="0" />
	<path style="fill:none;stroke:red;stroke-width:1px;stroke-linecap:butt;stroke-linejoin:miter;stroke-opacity:1" d="M 698.686,670.098 711.55,662.951 z" id="boundary" inkscape:connector-curvature="0" />
	<path style="fill:none;stroke:red;stroke-width:1px;stroke-linecap:butt;stroke-linejoin:miter;stroke-opacity:1" d="M 698.686,670.098 690.11,684.392 z" id="boundary" inkscape:connector-curvature="0" />
	<path style="fill:none;stroke:red;stroke-width:1px;stroke-linecap:butt;stroke-linejoin:miter;stroke-opacity:1" d="M 702.974,555.746 691.539,545.741 z" id="boundary" inkscape:connector-curvature="0" />
	<path style="fill:none;stroke:red;stroke-width:1px;stroke-linecap:butt;stroke-linejoin:miter;stroke-opacity:1" d="M 705.833,600.058 717.268,590.052 z" id="boundary" inkscape:connector-curvature="0" />
	<path style="fill:none;stroke:red;stroke-width:1px;stroke-linecap:butt;stroke-linejoin:miter;stroke-opacity:1" d="M 717.268,590.052 711.55,567.182 z" id="boundary" inkscape:connector-curvature="0" />
	<path style="fill:none;stroke:red;stroke-width:1px;stroke-linecap:butt;stroke-linejoin:miter;stroke-opacity:1" d="M 768.726,261.291 755.862,254.144 z" id="boundary" inkscape:connector-curvature="0" />
	<path style="fill:none;stroke:red;stroke-width:1px;stroke-linecap:butt;stroke-linejoin:miter;stroke-opacity:1" d="M 755.862,254.144 741.568,254.144 z" id="boundary" inkscape:connector-curvature="0" />
	<path style="fill:none;stroke:red;stroke-width:1px;stroke-linecap:butt;stroke-linejoin:miter;stroke-opacity:1" d="M 761.579,129.787 761.579,115.493 z" id="boundary" inkscape:connector-curvature="0" />
	<path style="fill:none;stroke:red;stroke-width:1px;stroke-linecap:butt;stroke-linejoin:miter;stroke-opacity:1" d="M 694.398,611.493 705.833,600.058 z" id="boundary" inkscape:connector-curvature="0" />
	<path style="fill:none;stroke:red;stroke-width:1px;stroke-linecap:butt;stroke-linejoin:miter;stroke-opacity:1" d="M 734.421,641.51 748.715,634.363 z" id="boundary" inkscape:connector-curvature="0" />
	<path style="fill:none;stroke:red;stroke-width:1px;stroke-linecap:butt;stroke-linejoin:miter;stroke-opacity:1" d="M 702.974,555.746 711.55,567.182 z" id="boundary" inkscape:connector-curvature="0" />
	<path style="fill:none;stroke:red;stroke-width:1px;stroke-linecap:butt;stroke-linejoin:miter;stroke-opacity:1" d="M 720.127,648.657 734.421,641.51 z" id="boundary" inkscape:connector-curvature="0" />
	<path style="fill:none;stroke:red;stroke-width:1px;stroke-linecap:butt;stroke-linejoin:miter;stroke-opacity:1" d="M 720.127,648.657 711.55,662.951 z" id="boundary" inkscape:connector-curvature="0" />
	<path style="fill:none;stroke:red;stroke-width:1px;stroke-linecap:butt;stroke-linejoin:miter;stroke-opacity:1" d="M 820.184,348.484 820.184,362.778 z" id="boundary" inkscape:connector-curvature="0" />
	<path style="fill:none;stroke:red;stroke-width:1px;stroke-linecap:butt;stroke-linejoin:miter;stroke-opacity:1" d="M 875.931,644.369 884.507,655.804 z" id="boundary" inkscape:connector-curvature="0" />
	<path style="fill:none;stroke:red;stroke-width:1px;stroke-linecap:butt;stroke-linejoin:miter;stroke-opacity:1" d="M 763.009,627.216 777.303,620.069 z" id="boundary" inkscape:connector-curvature="0" />
	<path style="fill:none;stroke:red;stroke-width:1px;stroke-linecap:butt;stroke-linejoin:miter;stroke-opacity:1" d="M 763.009,627.216 748.715,634.363 z" id="boundary" inkscape:connector-curvature="0" />
	<path style="fill:none;stroke:red;stroke-width:1px;stroke-linecap:butt;stroke-linejoin:miter;stroke-opacity:1" d="M 761.579,144.081 761.579,129.787 z" id="boundary" inkscape:connector-curvature="0" />
	<path style="fill:none;stroke:red;stroke-width:1px;stroke-linecap:butt;stroke-linejoin:miter;stroke-opacity:1" d="M 775.873,184.104 783.02,196.968 z" id="boundary" inkscape:connector-curvature="0" />
	<path style="fill:none;stroke:red;stroke-width:1px;stroke-linecap:butt;stroke-linejoin:miter;stroke-opacity:1" d="M 783.02,196.968 783.02,211.262 z" id="boundary" inkscape:connector-curvature="0" />
	<path style="fill:none;stroke:red;stroke-width:1px;stroke-linecap:butt;stroke-linejoin:miter;stroke-opacity:1" d="M 761.579,144.081 768.726,156.945 z" id="boundary" inkscape:connector-curvature="0" />
	<path style="fill:none;stroke:red;stroke-width:1px;stroke-linecap:butt;stroke-linejoin:miter;stroke-opacity:1" d="M 761.579,86.9049 768.726,72.611 z" id="boundary" inkscape:connector-curvature="0" />
	<path style="fill:none;stroke:red;stroke-width:1px;stroke-linecap:butt;stroke-linejoin:miter;stroke-opacity:1" d="M 768.726,156.945 775.873,169.81 z" id="boundary" inkscape:connector-curvature="0" />
	<path style="fill:none;stroke:red;stroke-width:1px;stroke-linecap:butt;stroke-linejoin:miter;stroke-opacity:1" d="M 775.873,169.81 775.873,184.104 z" id="boundary" inkscape:connector-curvature="0" />
	<path style="fill:none;stroke:red;stroke-width:1px;stroke-linecap:butt;stroke-linejoin:miter;stroke-opacity:1" d="M 834.478,76.8991 834.478,91.1931 z" id="boundary" inkscape:connector-curvature="0" />
	<path style="fill:none;stroke:red;stroke-width:1px;stroke-linecap:butt;stroke-linejoin:miter;stroke-opacity:1" d="M 775.873,58.317 768.726,72.611 z" id="boundary" inkscape:connector-curvature="0" />
	<path style="fill:none;stroke:red;stroke-width:1px;stroke-linecap:butt;stroke-linejoin:miter;stroke-opacity:1" d="M 834.478,105.487 834.478,91.1931 z" id="boundary" inkscape:connector-curvature="0" />
	<path style="fill:none;stroke:red;stroke-width:1px;stroke-linecap:butt;stroke-linejoin:miter;stroke-opacity:1" d="M 777.303,620.069 791.597,612.922 z" id="boundary" inkscape:connector-curvature="0" />
	<path style="fill:none;stroke:red;stroke-width:1px;stroke-linecap:butt;stroke-linejoin:miter;stroke-opacity:1" d="M 777.303,534.305 777.303,520.012 z" id="boundary" inkscape:connector-curvature="0" />
	<path style="fill:none;stroke:red;stroke-width:1px;stroke-linecap:butt;stroke-linejoin:miter;stroke-opacity:1" d="M 787.308,561.464 797.314,572.899 z" id="boundary" inkscape:connector-curvature="0" />
	<path style="fill:none;stroke:red;stroke-width:1px;stroke-linecap:butt;stroke-linejoin:miter;stroke-opacity:1" d="M 797.314,572.899 798.744,598.628 z" id="boundary" inkscape:connector-curvature="0" />
	<path style="fill:none;stroke:red;stroke-width:1px;stroke-linecap:butt;stroke-linejoin:miter;stroke-opacity:1" d="M 783.02,211.262 783.02,225.556 z" id="boundary" inkscape:connector-curvature="0" />
	<path style="fill:none;stroke:red;stroke-width:1px;stroke-linecap:butt;stroke-linejoin:miter;stroke-opacity:1" d="M 794.455,25.4409 783.02,36.8761 z" id="boundary" inkscape:connector-curvature="0" />
	<path style="fill:none;stroke:red;stroke-width:1px;stroke-linecap:butt;stroke-linejoin:miter;stroke-opacity:1" d="M 780.161,548.599 777.303,534.305 z" id="boundary" inkscape:connector-curvature="0" />
	<path style="fill:none;stroke:red;stroke-width:1px;stroke-linecap:butt;stroke-linejoin:miter;stroke-opacity:1" d="M 794.455,25.4409 807.32,18.2939 z" id="boundary" inkscape:connector-curvature="0" />
	<path style="fill:none;stroke:red;stroke-width:1px;stroke-linecap:butt;stroke-linejoin:miter;stroke-opacity:1" d="M 780.161,548.599 787.308,561.464 z" id="boundary" inkscape:connector-curvature="0" />
	<path style="fill:none;stroke:red;stroke-width:1px;stroke-linecap:butt;stroke-linejoin:miter;stroke-opacity:1" d="M 775.873,58.317 783.02,36.8761 z" id="boundary" inkscape:connector-curvature="0" />
	<path style="fill:none;stroke:red;stroke-width:1px;stroke-linecap:butt;stroke-linejoin:miter;stroke-opacity:1" d="M 783.02,225.556 783.02,239.85 z" id="boundary" inkscape:connector-curvature="0" />
	<path style="fill:none;stroke:red;stroke-width:1px;stroke-linecap:butt;stroke-linejoin:miter;stroke-opacity:1" d="M 791.597,612.922 798.744,598.628 z" id="boundary" inkscape:connector-curvature="0" />
	<path style="fill:none;stroke:red;stroke-width:1px;stroke-linecap:butt;stroke-linejoin:miter;stroke-opacity:1" d="M 807.32,18.2939 820.184,11.147 z" id="boundary" inkscape:connector-curvature="0" />
	<path style="fill:none;stroke:red;stroke-width:1px;stroke-linecap:butt;stroke-linejoin:miter;stroke-opacity:1" d="M 783.02,254.144 768.726,261.291 z" id="boundary" inkscape:connector-curvature="0" />
	<path style="fill:none;stroke:red;stroke-width:1px;stroke-linecap:butt;stroke-linejoin:miter;stroke-opacity:1" d="M 783.02,254.144 783.02,239.85 z" id="boundary" inkscape:connector-curvature="0" />
	<path style="fill:none;stroke:red;stroke-width:1px;stroke-linecap:butt;stroke-linejoin:miter;stroke-opacity:1" d="M 847.343,4 833.049,4 z" id="boundary" inkscape:connector-curvature="0" />
	<path style="fill:none;stroke:red;stroke-width:1px;stroke-linecap:butt;stroke-linejoin:miter;stroke-opacity:1" d="M 834.478,119.781 834.478,105.487 z" id="boundary" inkscape:connector-curvature="0" />
	<path style="fill:none;stroke:red;stroke-width:1px;stroke-linecap:butt;stroke-linejoin:miter;stroke-opacity:1" d="M 790.167,527.159 797.314,540.023 z" id="boundary" inkscape:connector-curvature="0" />
	<path style="fill:none;stroke:red;stroke-width:1px;stroke-linecap:butt;stroke-linejoin:miter;stroke-opacity:1" d="M 837.337,134.075 834.478,119.781 z" id="boundary" inkscape:connector-curvature="0" />
	<path style="fill:none;stroke:red;stroke-width:1px;stroke-linecap:butt;stroke-linejoin:miter;stroke-opacity:1" d="M 821.614,555.746 835.908,555.746 z" id="boundary" inkscape:connector-curvature="0" />
	<path style="fill:none;stroke:red;stroke-width:1px;stroke-linecap:butt;stroke-linejoin:miter;stroke-opacity:1" d="M 813.037,461.406 805.89,448.542 z" id="boundary" inkscape:connector-curvature="0" />
	<path style="fill:none;stroke:red;stroke-width:1px;stroke-linecap:butt;stroke-linejoin:miter;stroke-opacity:1" d="M 797.314,540.023 808.749,548.599 z" id="boundary" inkscape:connector-curvature="0" />
	<path style="fill:none;stroke:red;stroke-width:1px;stroke-linecap:butt;stroke-linejoin:miter;stroke-opacity:1" d="M 808.749,548.599 821.614,555.746 z" id="boundary" inkscape:connector-curvature="0" />
	<path style="fill:none;stroke:red;stroke-width:1px;stroke-linecap:butt;stroke-linejoin:miter;stroke-opacity:1" d="M 820.184,377.072 820.184,391.366 z" id="boundary" inkscape:connector-curvature="0" />
	<path style="fill:none;stroke:red;stroke-width:1px;stroke-linecap:butt;stroke-linejoin:miter;stroke-opacity:1" d="M 805.89,448.542 813.037,434.248 z" id="boundary" inkscape:connector-curvature="0" />
	<path style="fill:none;stroke:red;stroke-width:1px;stroke-linecap:butt;stroke-linejoin:miter;stroke-opacity:1" d="M 835.908,555.746 850.202,555.746 z" id="boundary" inkscape:connector-curvature="0" />
	<path style="fill:none;stroke:red;stroke-width:1px;stroke-linecap:butt;stroke-linejoin:miter;stroke-opacity:1" d="M 825.902,468.553 813.037,461.406 z" id="boundary" inkscape:connector-curvature="0" />
	<path style="fill:none;stroke:red;stroke-width:1px;stroke-linecap:butt;stroke-linejoin:miter;stroke-opacity:1" d="M 848.772,161.233 841.625,148.369 z" id="boundary" inkscape:connector-curvature="0" />
	<path style="fill:none;stroke:red;stroke-width:1px;stroke-linecap:butt;stroke-linejoin:miter;stroke-opacity:1" d="M 820.184,377.072 820.184,362.778 z" id="boundary" inkscape:connector-curvature="0" />
	<path style="fill:none;stroke:red;stroke-width:1px;stroke-linecap:butt;stroke-linejoin:miter;stroke-opacity:1" d="M 825.902,468.553 837.337,477.13 z" id="boundary" inkscape:connector-curvature="0" />
	<path style="fill:none;stroke:red;stroke-width:1px;stroke-linecap:butt;stroke-linejoin:miter;stroke-opacity:1" d="M 820.184,405.66 820.184,391.366 z" id="boundary" inkscape:connector-curvature="0" />
	<path style="fill:none;stroke:red;stroke-width:1px;stroke-linecap:butt;stroke-linejoin:miter;stroke-opacity:1" d="M 820.184,348.484 834.478,341.337 z" id="boundary" inkscape:connector-curvature="0" />
	<path style="fill:none;stroke:red;stroke-width:1px;stroke-linecap:butt;stroke-linejoin:miter;stroke-opacity:1" d="M 820.184,419.954 813.037,434.248 z" id="boundary" inkscape:connector-curvature="0" />
	<path style="fill:none;stroke:red;stroke-width:1px;stroke-linecap:butt;stroke-linejoin:miter;stroke-opacity:1" d="M 820.184,419.954 820.184,405.66 z" id="boundary" inkscape:connector-curvature="0" />
	<path style="fill:none;stroke:red;stroke-width:1px;stroke-linecap:butt;stroke-linejoin:miter;stroke-opacity:1" d="M 845.914,331.331 834.478,341.337 z" id="boundary" inkscape:connector-curvature="0" />
	<path style="fill:none;stroke:red;stroke-width:1px;stroke-linecap:butt;stroke-linejoin:miter;stroke-opacity:1" d="M 888.795,562.893 894.513,577.187 z" id="boundary" inkscape:connector-curvature="0" />
	<path style="fill:none;stroke:red;stroke-width:1px;stroke-linecap:butt;stroke-linejoin:miter;stroke-opacity:1" d="M 888.795,562.893 875.931,555.746 z" id="boundary" inkscape:connector-curvature="0" />
	<path style="fill:none;stroke:red;stroke-width:1px;stroke-linecap:butt;stroke-linejoin:miter;stroke-opacity:1" d="M 820.184,11.147 833.049,4 z" id="boundary" inkscape:connector-curvature="0" />
	<path style="fill:none;stroke:red;stroke-width:1px;stroke-linecap:butt;stroke-linejoin:miter;stroke-opacity:1" d="M 841.625,148.369 837.337,134.075 z" id="boundary" inkscape:connector-curvature="0" />
	<path style="fill:none;stroke:red;stroke-width:1px;stroke-linecap:butt;stroke-linejoin:miter;stroke-opacity:1" d="M 837.337,477.13 851.631,482.847 z" id="boundary" inkscape:connector-curvature="0" />
	<path style="fill:none;stroke:red;stroke-width:1px;stroke-linecap:butt;stroke-linejoin:miter;stroke-opacity:1" d="M 855.919,174.098 855.919,188.392 z" id="boundary" inkscape:connector-curvature="0" />
	<path style="fill:none;stroke:red;stroke-width:1px;stroke-linecap:butt;stroke-linejoin:miter;stroke-opacity:1" d="M 855.919,174.098 848.772,161.233 z" id="boundary" inkscape:connector-curvature="0" />
	<path style="fill:none;stroke:red;stroke-width:1px;stroke-linecap:butt;stroke-linejoin:miter;stroke-opacity:1" d="M 834.478,76.8991 841.625,62.6052 z" id="boundary" inkscape:connector-curvature="0" />
	<path style="fill:none;stroke:red;stroke-width:1px;stroke-linecap:butt;stroke-linejoin:miter;stroke-opacity:1" d="M 853.061,52.5994 841.625,62.6052 z" id="boundary" inkscape:connector-curvature="0" />
	<path style="fill:none;stroke:red;stroke-width:1px;stroke-linecap:butt;stroke-linejoin:miter;stroke-opacity:1" d="M 853.061,52.5994 867.354,45.4524 z" id="boundary" inkscape:connector-curvature="0" />
	<path style="fill:none;stroke:red;stroke-width:1px;stroke-linecap:butt;stroke-linejoin:miter;stroke-opacity:1" d="M 850.202,555.746 863.066,548.599 z" id="boundary" inkscape:connector-curvature="0" />
	<path style="fill:none;stroke:red;stroke-width:1px;stroke-linecap:butt;stroke-linejoin:miter;stroke-opacity:1" d="M 863.066,548.599 875.931,555.746 z" id="boundary" inkscape:connector-curvature="0" />
	<path style="fill:none;stroke:red;stroke-width:1px;stroke-linecap:butt;stroke-linejoin:miter;stroke-opacity:1" d="M 855.919,188.392 863.066,201.256 z" id="boundary" inkscape:connector-curvature="0" />
	<path style="fill:none;stroke:red;stroke-width:1px;stroke-linecap:butt;stroke-linejoin:miter;stroke-opacity:1" d="M 855.919,319.896 863.066,305.602 z" id="boundary" inkscape:connector-curvature="0" />
	<path style="fill:none;stroke:red;stroke-width:1px;stroke-linecap:butt;stroke-linejoin:miter;stroke-opacity:1" d="M 863.066,201.256 868.784,215.55 z" id="boundary" inkscape:connector-curvature="0" />
	<path style="fill:none;stroke:red;stroke-width:1px;stroke-linecap:butt;stroke-linejoin:miter;stroke-opacity:1" d="M 864.496,489.994 851.631,482.847 z" id="boundary" inkscape:connector-curvature="0" />
	<path style="fill:none;stroke:red;stroke-width:1px;stroke-linecap:butt;stroke-linejoin:miter;stroke-opacity:1" d="M 894.513,48.3112 908.807,54.0288 z" id="boundary" inkscape:connector-curvature="0" />
	<path style="fill:none;stroke:red;stroke-width:1px;stroke-linecap:butt;stroke-linejoin:miter;stroke-opacity:1" d="M 881.648,41.1643 894.513,48.3112 z" id="boundary" inkscape:connector-curvature="0" />
	<path style="fill:none;stroke:red;stroke-width:1px;stroke-linecap:butt;stroke-linejoin:miter;stroke-opacity:1" d="M 881.648,41.1643 867.354,45.4524 z" id="boundary" inkscape:connector-curvature="0" />
	<path style="fill:none;stroke:red;stroke-width:1px;stroke-linecap:butt;stroke-linejoin:miter;stroke-opacity:1" d="M 868.784,215.55 870.213,229.844 z" id="boundary" inkscape:connector-curvature="0" />
	<path style="fill:none;stroke:red;stroke-width:1px;stroke-linecap:butt;stroke-linejoin:miter;stroke-opacity:1" d="M 845.914,331.331 855.919,319.896 z" id="boundary" inkscape:connector-curvature="0" />
	<path style="fill:none;stroke:red;stroke-width:1px;stroke-linecap:butt;stroke-linejoin:miter;stroke-opacity:1" d="M 861.637,4 847.343,4 z" id="boundary" inkscape:connector-curvature="0" />
	<path style="fill:none;stroke:red;stroke-width:1px;stroke-linecap:butt;stroke-linejoin:miter;stroke-opacity:1" d="M 864.496,489.994 878.79,489.994 z" id="boundary" inkscape:connector-curvature="0" />
	<path style="fill:none;stroke:red;stroke-width:1px;stroke-linecap:butt;stroke-linejoin:miter;stroke-opacity:1" d="M 878.79,489.994 891.654,497.141 z" id="boundary" inkscape:connector-curvature="0" />
	<path style="fill:none;stroke:red;stroke-width:1px;stroke-linecap:butt;stroke-linejoin:miter;stroke-opacity:1" d="M 870.213,229.844 870.213,244.138 z" id="boundary" inkscape:connector-curvature="0" />
	<path style="fill:none;stroke:red;stroke-width:1px;stroke-linecap:butt;stroke-linejoin:miter;stroke-opacity:1" d="M 863.066,305.602 870.213,291.308 z" id="boundary" inkscape:connector-curvature="0" />
	<path style="fill:none;stroke:red;stroke-width:1px;stroke-linecap:butt;stroke-linejoin:miter;stroke-opacity:1" d="M 935.965,62.6052 923.101,55.4582 z" id="boundary" inkscape:connector-curvature="0" />
	<path style="fill:none;stroke:red;stroke-width:1px;stroke-linecap:butt;stroke-linejoin:miter;stroke-opacity:1" d="M 923.101,55.4582 908.807,54.0288 z" id="boundary" inkscape:connector-curvature="0" />
	<path style="fill:none;stroke:red;stroke-width:1px;stroke-linecap:butt;stroke-linejoin:miter;stroke-opacity:1" d="M 875.931,4 861.637,4 z" id="boundary" inkscape:connector-curvature="0" />
	<path style="fill:none;stroke:red;stroke-width:1px;stroke-linecap:butt;stroke-linejoin:miter;stroke-opacity:1" d="M 884.507,655.804 897.372,662.951 z" id="boundary" inkscape:connector-curvature="0" />
	<path style="fill:none;stroke:red;stroke-width:1px;stroke-linecap:butt;stroke-linejoin:miter;stroke-opacity:1" d="M 870.213,291.308 870.213,277.014 z" id="boundary" inkscape:connector-curvature="0" />
	<path style="fill:none;stroke:red;stroke-width:1px;stroke-linecap:butt;stroke-linejoin:miter;stroke-opacity:1" d="M 870.213,244.138 877.36,257.003 z" id="boundary" inkscape:connector-curvature="0" />
	<path style="fill:none;stroke:red;stroke-width:1px;stroke-linecap:butt;stroke-linejoin:miter;stroke-opacity:1" d="M 870.213,277.014 877.36,257.003 z" id="boundary" inkscape:connector-curvature="0" />
	<path style="fill:none;stroke:red;stroke-width:1px;stroke-linecap:butt;stroke-linejoin:miter;stroke-opacity:1" d="M 875.931,644.369 883.078,630.075 z" id="boundary" inkscape:connector-curvature="0" />
	<path style="fill:none;stroke:red;stroke-width:1px;stroke-linecap:butt;stroke-linejoin:miter;stroke-opacity:1" d="M 897.372,662.951 910.236,670.098 z" id="boundary" inkscape:connector-curvature="0" />
	<path style="fill:none;stroke:red;stroke-width:1px;stroke-linecap:butt;stroke-linejoin:miter;stroke-opacity:1" d="M 904.519,4 890.225,4 z" id="boundary" inkscape:connector-curvature="0" />
	<path style="fill:none;stroke:red;stroke-width:1px;stroke-linecap:butt;stroke-linejoin:miter;stroke-opacity:1" d="M 901.66,590.052 894.513,577.187 z" id="boundary" inkscape:connector-curvature="0" />
	<path style="fill:none;stroke:red;stroke-width:1px;stroke-linecap:butt;stroke-linejoin:miter;stroke-opacity:1" d="M 891.654,497.141 905.948,497.141 z" id="boundary" inkscape:connector-curvature="0" />
	<path style="fill:none;stroke:red;stroke-width:1px;stroke-linecap:butt;stroke-linejoin:miter;stroke-opacity:1" d="M 875.931,4 890.225,4 z" id="boundary" inkscape:connector-curvature="0" />
	<path style="fill:none;stroke:red;stroke-width:1px;stroke-linecap:butt;stroke-linejoin:miter;stroke-opacity:1" d="M 910.236,670.098 924.53,670.098 z" id="boundary" inkscape:connector-curvature="0" />
	<path style="fill:none;stroke:red;stroke-width:1px;stroke-linecap:butt;stroke-linejoin:miter;stroke-opacity:1" d="M 918.813,6.85879 904.519,4 z" id="boundary" inkscape:connector-curvature="0" />
	<path style="fill:none;stroke:red;stroke-width:1px;stroke-linecap:butt;stroke-linejoin:miter;stroke-opacity:1" d="M 897.372,625.787 904.519,604.346 z" id="boundary" inkscape:connector-curvature="0" />
	<path style="fill:none;stroke:red;stroke-width:1px;stroke-linecap:butt;stroke-linejoin:miter;stroke-opacity:1" d="M 883.078,630.075 897.372,625.787 z" id="boundary" inkscape:connector-curvature="0" />
	<path style="fill:none;stroke:red;stroke-width:1px;stroke-linecap:butt;stroke-linejoin:miter;stroke-opacity:1" d="M 920.242,497.141 931.677,505.718 z" id="boundary" inkscape:connector-curvature="0" />
	<path style="fill:none;stroke:red;stroke-width:1px;stroke-linecap:butt;stroke-linejoin:miter;stroke-opacity:1" d="M 920.242,497.141 905.948,497.141 z" id="boundary" inkscape:connector-curvature="0" />
	<path style="fill:none;stroke:red;stroke-width:1px;stroke-linecap:butt;stroke-linejoin:miter;stroke-opacity:1" d="M 904.519,604.346 901.66,590.052 z" id="boundary" inkscape:connector-curvature="0" />
	<path style="fill:none;stroke:red;stroke-width:1px;stroke-linecap:butt;stroke-linejoin:miter;stroke-opacity:1" d="M 931.677,505.718 937.395,520.012 z" id="boundary" inkscape:connector-curvature="0" />
	<path style="fill:none;stroke:red;stroke-width:1px;stroke-linecap:butt;stroke-linejoin:miter;stroke-opacity:1" d="M 937.395,520.012 944.542,532.876 z" id="boundary" inkscape:connector-curvature="0" />
	<path style="fill:none;stroke:red;stroke-width:1px;stroke-linecap:butt;stroke-linejoin:miter;stroke-opacity:1" d="M 924.53,670.098 938.824,670.098 z" id="boundary" inkscape:connector-curvature="0" />
	<path style="fill:none;stroke:red;stroke-width:1px;stroke-linecap:butt;stroke-linejoin:miter;stroke-opacity:1" d="M 931.677,14.0058 918.813,6.85879 z" id="boundary" inkscape:connector-curvature="0" />
	<path style="fill:none;stroke:red;stroke-width:1px;stroke-linecap:butt;stroke-linejoin:miter;stroke-opacity:1" d="M 948.83,547.17 944.542,532.876 z" id="boundary" inkscape:connector-curvature="0" />
	<path style="fill:none;stroke:red;stroke-width:1px;stroke-linecap:butt;stroke-linejoin:miter;stroke-opacity:1" d="M 938.824,670.098 953.118,670.098 z" id="boundary" inkscape:connector-curvature="0" />
	<path style="fill:none;stroke:red;stroke-width:1px;stroke-linecap:butt;stroke-linejoin:miter;stroke-opacity:1" d="M 948.83,55.4582 935.965,62.6052 z" id="boundary" inkscape:connector-curvature="0" />
	<path style="fill:none;stroke:red;stroke-width:1px;stroke-linecap:butt;stroke-linejoin:miter;stroke-opacity:1" d="M 931.677,14.0058 945.971,19.7233 z" id="boundary" inkscape:connector-curvature="0" />
	<path style="fill:none;stroke:red;stroke-width:1px;stroke-linecap:butt;stroke-linejoin:miter;stroke-opacity:1" d="M 948.83,55.4582 960.265,45.4524 z" id="boundary" inkscape:connector-curvature="0" />
	<path style="fill:none;stroke:red;stroke-width:1px;stroke-linecap:butt;stroke-linejoin:miter;stroke-opacity:1" d="M 963.124,572.899 955.977,560.035 z" id="boundary" inkscape:connector-curvature="0" />
	<path style="fill:none;stroke:red;stroke-width:1px;stroke-linecap:butt;stroke-linejoin:miter;stroke-opacity:1" d="M 955.977,560.035 948.83,547.17 z" id="boundary" inkscape:connector-curvature="0" />
	<path style="fill:none;stroke:red;stroke-width:1px;stroke-linecap:butt;stroke-linejoin:miter;stroke-opacity:1" d="M 953.118,670.098 967.412,670.098 z" id="boundary" inkscape:connector-curvature="0" />
	<path style="fill:none;stroke:red;stroke-width:1px;stroke-linecap:butt;stroke-linejoin:miter;stroke-opacity:1" d="M 963.124,572.899 973.13,584.334 z" id="boundary" inkscape:connector-curvature="0" />
	<path style="fill:none;stroke:red;stroke-width:1px;stroke-linecap:butt;stroke-linejoin:miter;stroke-opacity:1" d="M 960.265,45.4524 958.836,26.8703 z" id="boundary" inkscape:connector-curvature="0" />
	<path style="fill:none;stroke:red;stroke-width:1px;stroke-linecap:butt;stroke-linejoin:miter;stroke-opacity:1" d="M 958.836,26.8703 945.971,19.7233 z" id="boundary" inkscape:connector-curvature="0" />
	<path style="fill:none;stroke:red;stroke-width:1px;stroke-linecap:butt;stroke-linejoin:miter;stroke-opacity:1" d="M 991.712,607.205 991.712,621.499 z" id="boundary" inkscape:connector-curvature="0" />
	<path style="fill:none;stroke:red;stroke-width:1px;stroke-linecap:butt;stroke-linejoin:miter;stroke-opacity:1" d="M 991.712,607.205 984.565,594.34 z" id="boundary" inkscape:connector-curvature="0" />
	<path style="fill:none;stroke:red;stroke-width:1px;stroke-linecap:butt;stroke-linejoin:miter;stroke-opacity:1" d="M 984.565,594.34 973.13,584.334 z" id="boundary" inkscape:connector-curvature="0" />
	<path style="fill:none;stroke:red;stroke-width:1px;stroke-linecap:butt;stroke-linejoin:miter;stroke-opacity:1" d="M 996,635.793 991.712,621.499 z" id="boundary" inkscape:connector-curvature="0" />
	<path style="fill:none;stroke:red;stroke-width:1px;stroke-linecap:butt;stroke-linejoin:miter;stroke-opacity:1" d="M 967.412,670.098 981.706,667.239 z" id="boundary" inkscape:connector-curvature="0" />
	<path style="fill:none;stroke:red;stroke-width:1px;stroke-linecap:butt;stroke-linejoin:miter;stroke-opacity:1" d="M 981.706,667.239 991.712,655.804 z" id="boundary" inkscape:connector-curvature="0" />
	<path style="fill:none;stroke:red;stroke-width:1px;stroke-linecap:butt;stroke-linejoin:miter;stroke-opacity:1" d="M 991.712,655.804 996,635.793 z" id="boundary" inkscape:connector-curvature="0" />
	<circle cx="4" cy="229.844" r="4" fill="#0" id="circle0"/>
	<circle cx="4" cy="244.138" r="4" fill="#0" id="circle1"/>
	<circle cx="11.147" cy="257.003" r="4" fill="#0" id="circle2"/>
	<circle cx="18.2939" cy="225.556" r="4" fill="#0" id="circle3"/>
	<circle cx="18.2939" cy="269.867" r="4" fill="#0" id="circle4"/>
	<circle cx="18.2939" cy="344.196" r="4" fill="#0" id="circle5"/>
	<circle cx="25.4409" cy="357.061" r="4" fill="#0" id="circle6"/>
	<circle cx="25.4409" cy="371.354" r="4" fill="#0" id="circle7"/>
	<circle cx="26.8703" cy="281.303" r="4" fill="#0" id="circle8"/>
	<circle cx="29.7291" cy="332.761" r="4" fill="#0" id="circle9"/>
	<circle cx="32.5879" cy="225.556" r="4" fill="#0" id="circle10"/>
	<circle cx="32.5879" cy="295.597" r="4" fill="#0" id="circle11"/>
	<circle cx="32.5879" cy="309.89" r="4" fill="#0" id="circle12"/>
	<circle cx="32.5879" cy="384.219" r="4" fill="#0" id="circle13"/>
	<circle cx="32.5879" cy="398.513" r="4" fill="#0" id="circle14"/>
	<circle cx="39.7349" cy="411.378" r="4" fill="#0" id="circle15"/>
	<circle cx="39.7349" cy="425.671" r="4" fill="#0" id="circle16"/>
	<circle cx="45.4524" cy="232.703" r="4" fill="#0" id="circle17"/>
	<circle cx="48.3112" cy="437.107" r="4" fill="#0" id="circle18"/>
	<circle cx="58.317" cy="239.85" r="4" fill="#0" id="circle19"/>
	<circle cx="58.317" cy="448.542" r="4" fill="#0" id="circle20"/>
	<circle cx="61.1758" cy="201.256" r="4" fill="#0" id="circle21"/>
	<circle cx="61.1758" cy="215.55" r="4" fill="#0" id="circle22"/>
	<circle cx="68.3228" cy="228.415" r="4" fill="#0" id="circle23"/>
	<circle cx="71.1816" cy="455.689" r="4" fill="#0" id="circle24"/>
	<circle cx="72.611" cy="189.821" r="4" fill="#0" id="circle25"/>
	<circle cx="85.4755" cy="196.968" r="4" fill="#0" id="circle26"/>
	<circle cx="85.4755" cy="455.689" r="4" fill="#0" id="circle27"/>
	<circle cx="98.3401" cy="204.115" r="4" fill="#0" id="circle28"/>
	<circle cx="98.3401" cy="462.836" r="4" fill="#0" id="circle29"/>
	<circle cx="111.205" cy="211.262" r="4" fill="#0" id="circle30"/>
	<circle cx="112.634" cy="462.836" r="4" fill="#0" id="circle31"/>
	<circle cx="124.069" cy="218.409" r="4" fill="#0" id="circle32"/>
	<circle cx="125.499" cy="680.104" r="4" fill="#0" id="circle33"/>
	<circle cx="125.499" cy="694.398" r="4" fill="#0" id="circle34"/>
	<circle cx="126.928" cy="462.836" r="4" fill="#0" id="circle35"/>
	<circle cx="136.934" cy="668.669" r="4" fill="#0" id="circle36"/>
	<circle cx="138.363" cy="219.839" r="4" fill="#0" id="circle37"/>
	<circle cx="139.793" cy="698.686" r="4" fill="#0" id="circle38"/>
	<circle cx="141.222" cy="455.689" r="4" fill="#0" id="circle39"/>
	<circle cx="148.369" cy="657.233" r="4" fill="#0" id="circle40"/>
	<circle cx="151.228" cy="226.986" r="4" fill="#0" id="circle41"/>
	<circle cx="152.657" cy="705.833" r="4" fill="#0" id="circle42"/>
	<circle cx="154.086" cy="462.836" r="4" fill="#0" id="circle43"/>
	<circle cx="159.804" cy="647.228" r="4" fill="#0" id="circle44"/>
	<circle cx="162.663" cy="236.991" r="4" fill="#0" id="circle45"/>
	<circle cx="166.951" cy="705.833" r="4" fill="#0" id="circle46"/>
	<circle cx="168.38" cy="462.836" r="4" fill="#0" id="circle47"/>
	<circle cx="174.098" cy="246.997" r="4" fill="#0" id="circle48"/>
	<circle cx="174.098" cy="647.228" r="4" fill="#0" id="circle49"/>
	<circle cx="179.816" cy="632.934" r="4" fill="#0" id="circle50"/>
	<circle cx="181.245" cy="705.833" r="4" fill="#0" id="circle51"/>
	<circle cx="182.674" cy="462.836" r="4" fill="#0" id="circle52"/>
	<circle cx="186.963" cy="254.144" r="4" fill="#0" id="circle53"/>
	<circle cx="194.11" cy="454.259" r="4" fill="#0" id="circle54"/>
	<circle cx="194.11" cy="625.787" r="4" fill="#0" id="circle55"/>
	<circle cx="195.539" cy="705.833" r="4" fill="#0" id="circle56"/>
	<circle cx="201.256" cy="254.144" r="4" fill="#0" id="circle57"/>
	<circle cx="205.545" cy="441.395" r="4" fill="#0" id="circle58"/>
	<circle cx="205.545" cy="614.352" r="4" fill="#0" id="circle59"/>
	<circle cx="208.403" cy="697.256" r="4" fill="#0" id="circle60"/>
	<circle cx="214.121" cy="261.291" r="4" fill="#0" id="circle61"/>
	<circle cx="219.839" cy="441.395" r="4" fill="#0" id="circle62"/>
	<circle cx="219.839" cy="607.205" r="4" fill="#0" id="circle63"/>
	<circle cx="219.839" cy="677.245" r="4" fill="#0" id="circle64"/>
	<circle cx="225.556" cy="455.689" r="4" fill="#0" id="circle65"/>
	<circle cx="226.986" cy="268.438" r="4" fill="#0" id="circle66"/>
	<circle cx="232.703" cy="468.553" r="4" fill="#0" id="circle67"/>
	<circle cx="232.703" cy="670.098" r="4" fill="#0" id="circle68"/>
	<circle cx="234.133" cy="600.058" r="4" fill="#0" id="circle69"/>
	<circle cx="241.28" cy="268.438" r="4" fill="#0" id="circle70"/>
	<circle cx="241.28" cy="479.988" r="4" fill="#0" id="circle71"/>
	<circle cx="244.138" cy="661.522" r="4" fill="#0" id="circle72"/>
	<circle cx="245.568" cy="590.052" r="4" fill="#0" id="circle73"/>
	<circle cx="251.285" cy="491.424" r="4" fill="#0" id="circle74"/>
	<circle cx="252.715" cy="277.014" r="4" fill="#0" id="circle75"/>
	<circle cx="258.432" cy="582.905" r="4" fill="#0" id="circle76"/>
	<circle cx="258.432" cy="655.804" r="4" fill="#0" id="circle77"/>
	<circle cx="262.72" cy="501.429" r="4" fill="#0" id="circle78"/>
	<circle cx="267.009" cy="282.732" r="4" fill="#0" id="circle79"/>
	<circle cx="268.438" cy="515.723" r="4" fill="#0" id="circle80"/>
	<circle cx="269.867" cy="571.47" r="4" fill="#0" id="circle81"/>
	<circle cx="271.297" cy="648.657" r="4" fill="#0" id="circle82"/>
	<circle cx="277.014" cy="557.176" r="4" fill="#0" id="circle83"/>
	<circle cx="279.873" cy="525.729" r="4" fill="#0" id="circle84"/>
	<circle cx="281.303" cy="282.732" r="4" fill="#0" id="circle85"/>
	<circle cx="282.732" cy="540.023" r="4" fill="#0" id="circle86"/>
	<circle cx="284.161" cy="641.51" r="4" fill="#0" id="circle87"/>
	<circle cx="295.597" cy="282.732" r="4" fill="#0" id="circle88"/>
	<circle cx="298.455" cy="634.363" r="4" fill="#0" id="circle89"/>
	<circle cx="309.89" cy="282.732" r="4" fill="#0" id="circle90"/>
	<circle cx="311.32" cy="627.216" r="4" fill="#0" id="circle91"/>
	<circle cx="322.755" cy="275.585" r="4" fill="#0" id="circle92"/>
	<circle cx="322.755" cy="618.64" r="4" fill="#0" id="circle93"/>
	<circle cx="337.049" cy="268.438" r="4" fill="#0" id="circle94"/>
	<circle cx="337.049" cy="611.493" r="4" fill="#0" id="circle95"/>
	<circle cx="351.343" cy="268.438" r="4" fill="#0" id="circle96"/>
	<circle cx="351.343" cy="604.346" r="4" fill="#0" id="circle97"/>
	<circle cx="362.778" cy="591.481" r="4" fill="#0" id="circle98"/>
	<circle cx="364.207" cy="261.291" r="4" fill="#0" id="circle99"/>
	<circle cx="375.643" cy="584.334" r="4" fill="#0" id="circle100"/>
	<circle cx="375.643" cy="680.104" r="4" fill="#0" id="circle101"/>
	<circle cx="375.643" cy="694.398" r="4" fill="#0" id="circle102"/>
	<circle cx="377.072" cy="268.438" r="4" fill="#0" id="circle103"/>
	<circle cx="387.078" cy="575.758" r="4" fill="#0" id="circle104"/>
	<circle cx="387.078" cy="668.669" r="4" fill="#0" id="circle105"/>
	<circle cx="389.937" cy="698.686" r="4" fill="#0" id="circle106"/>
	<circle cx="391.366" cy="268.438" r="4" fill="#0" id="circle107"/>
	<circle cx="398.513" cy="562.893" r="4" fill="#0" id="circle108"/>
	<circle cx="399.942" cy="661.522" r="4" fill="#0" id="circle109"/>
	<circle cx="402.801" cy="705.833" r="4" fill="#0" id="circle110"/>
	<circle cx="405.66" cy="272.726" r="4" fill="#0" id="circle111"/>
	<circle cx="411.378" cy="555.746" r="4" fill="#0" id="circle112"/>
	<circle cx="414.236" cy="661.522" r="4" fill="#0" id="circle113"/>
	<circle cx="415.666" cy="570.04" r="4" fill="#0" id="circle114"/>
	<circle cx="417.095" cy="705.833" r="4" fill="#0" id="circle115"/>
	<circle cx="418.524" cy="279.873" r="4" fill="#0" id="circle116"/>
	<circle cx="418.524" cy="584.334" r="4" fill="#0" id="circle117"/>
	<circle cx="425.671" cy="597.199" r="4" fill="#0" id="circle118"/>
	<circle cx="425.671" cy="611.493" r="4" fill="#0" id="circle119"/>
	<circle cx="428.53" cy="655.804" r="4" fill="#0" id="circle120"/>
	<circle cx="431.389" cy="705.833" r="4" fill="#0" id="circle121"/>
	<circle cx="432.818" cy="282.732" r="4" fill="#0" id="circle122"/>
	<circle cx="432.818" cy="624.357" r="4" fill="#0" id="circle123"/>
	<circle cx="432.818" cy="638.651" r="4" fill="#0" id="circle124"/>
	<circle cx="445.683" cy="705.833" r="4" fill="#0" id="circle125"/>
	<circle cx="447.112" cy="282.732" r="4" fill="#0" id="circle126"/>
	<circle cx="459.977" cy="705.833" r="4" fill="#0" id="circle127"/>
	<circle cx="461.406" cy="282.732" r="4" fill="#0" id="circle128"/>
	<circle cx="474.271" cy="705.833" r="4" fill="#0" id="circle129"/>
	<circle cx="475.7" cy="282.732" r="4" fill="#0" id="circle130"/>
	<circle cx="488.565" cy="705.833" r="4" fill="#0" id="circle131"/>
	<circle cx="489.994" cy="282.732" r="4" fill="#0" id="circle132"/>
	<circle cx="491.424" cy="548.599" r="4" fill="#0" id="circle133"/>
	<circle cx="491.424" cy="562.893" r="4" fill="#0" id="circle134"/>
	<circle cx="498.571" cy="575.758" r="4" fill="#0" id="circle135"/>
	<circle cx="498.571" cy="590.052" r="4" fill="#0" id="circle136"/>
	<circle cx="498.571" cy="604.346" r="4" fill="#0" id="circle137"/>
	<circle cx="498.571" cy="618.64" r="4" fill="#0" id="circle138"/>
	<circle cx="498.571" cy="632.934" r="4" fill="#0" id="circle139"/>
	<circle cx="498.571" cy="647.228" r="4" fill="#0" id="circle140"/>
	<circle cx="498.571" cy="661.522" r="4" fill="#0" id="circle141"/>
	<circle cx="498.571" cy="675.816" r="4" fill="#0" id="circle142"/>
	<circle cx="498.571" cy="690.11" r="4" fill="#0" id="circle143"/>
	<circle cx="504.288" cy="282.732" r="4" fill="#0" id="circle144"/>
	<circle cx="505.718" cy="548.599" r="4" fill="#0" id="circle145"/>
	<circle cx="518.582" cy="279.873" r="4" fill="#0" id="circle146"/>
	<circle cx="520.012" cy="548.599" r="4" fill="#0" id="circle147"/>
	<circle cx="532.876" cy="272.726" r="4" fill="#0" id="circle148"/>
	<circle cx="534.305" cy="548.599" r="4" fill="#0" id="circle149"/>
	<circle cx="547.17" cy="268.438" r="4" fill="#0" id="circle150"/>
	<circle cx="548.599" cy="541.452" r="4" fill="#0" id="circle151"/>
	<circle cx="560.035" cy="531.447" r="4" fill="#0" id="circle152"/>
	<circle cx="561.464" cy="265.579" r="4" fill="#0" id="circle153"/>
	<circle cx="574.329" cy="524.3" r="4" fill="#0" id="circle154"/>
	<circle cx="575.758" cy="261.291" r="4" fill="#0" id="circle155"/>
	<circle cx="584.334" cy="512.865" r="4" fill="#0" id="circle156"/>
	<circle cx="588.622" cy="254.144" r="4" fill="#0" id="circle157"/>
	<circle cx="595.769" cy="502.859" r="4" fill="#0" id="circle158"/>
	<circle cx="601.487" cy="246.997" r="4" fill="#0" id="circle159"/>
	<circle cx="610.063" cy="495.712" r="4" fill="#0" id="circle160"/>
	<circle cx="611.493" cy="665.81" r="4" fill="#0" id="circle161"/>
	<circle cx="611.493" cy="680.104" r="4" fill="#0" id="circle162"/>
	<circle cx="615.781" cy="246.997" r="4" fill="#0" id="circle163"/>
	<circle cx="622.928" cy="654.375" r="4" fill="#0" id="circle164"/>
	<circle cx="622.928" cy="690.11" r="4" fill="#0" id="circle165"/>
	<circle cx="624.357" cy="488.565" r="4" fill="#0" id="circle166"/>
	<circle cx="630.075" cy="246.997" r="4" fill="#0" id="circle167"/>
	<circle cx="634.363" cy="469.983" r="4" fill="#0" id="circle168"/>
	<circle cx="634.363" cy="698.686" r="4" fill="#0" id="circle169"/>
	<circle cx="637.222" cy="654.375" r="4" fill="#0" id="circle170"/>
	<circle cx="644.369" cy="239.85" r="4" fill="#0" id="circle171"/>
	<circle cx="648.657" cy="472.841" r="4" fill="#0" id="circle172"/>
	<circle cx="648.657" cy="642.939" r="4" fill="#0" id="circle173"/>
	<circle cx="648.657" cy="691.539" r="4" fill="#0" id="circle174"/>
	<circle cx="654.375" cy="487.135" r="4" fill="#0" id="circle175"/>
	<circle cx="654.375" cy="501.429" r="4" fill="#0" id="circle176"/>
	<circle cx="655.804" cy="628.646" r="4" fill="#0" id="circle177"/>
	<circle cx="658.663" cy="239.85" r="4" fill="#0" id="circle178"/>
	<circle cx="661.522" cy="514.294" r="4" fill="#0" id="circle179"/>
	<circle cx="662.951" cy="691.539" r="4" fill="#0" id="circle180"/>
	<circle cx="667.239" cy="618.64" r="4" fill="#0" id="circle181"/>
	<circle cx="671.527" cy="525.729" r="4" fill="#0" id="circle182"/>
	<circle cx="672.957" cy="239.85" r="4" fill="#0" id="circle183"/>
	<circle cx="677.245" cy="691.539" r="4" fill="#0" id="circle184"/>
	<circle cx="680.104" cy="611.493" r="4" fill="#0" id="circle185"/>
	<circle cx="682.963" cy="534.305" r="4" fill="#0" id="circle186"/>
	<circle cx="687.251" cy="239.85" r="4" fill="#0" id="circle187"/>
	<circle cx="690.11" cy="684.392" r="4" fill="#0" id="circle188"/>
	<circle cx="691.539" cy="545.741" r="4" fill="#0" id="circle189"/>
	<circle cx="694.398" cy="611.493" r="4" fill="#0" id="circle190"/>
	<circle cx="698.686" cy="670.098" r="4" fill="#0" id="circle191"/>
	<circle cx="701.545" cy="239.85" r="4" fill="#0" id="circle192"/>
	<circle cx="702.974" cy="555.746" r="4" fill="#0" id="circle193"/>
	<circle cx="705.833" cy="600.058" r="4" fill="#0" id="circle194"/>
	<circle cx="711.55" cy="567.182" r="4" fill="#0" id="circle195"/>
	<circle cx="711.55" cy="662.951" r="4" fill="#0" id="circle196"/>
	<circle cx="715.839" cy="239.85" r="4" fill="#0" id="circle197"/>
	<circle cx="717.268" cy="590.052" r="4" fill="#0" id="circle198"/>
	<circle cx="720.127" cy="648.657" r="4" fill="#0" id="circle199"/>
	<circle cx="728.703" cy="246.997" r="4" fill="#0" id="circle200"/>
	<circle cx="734.421" cy="641.51" r="4" fill="#0" id="circle201"/>
	<circle cx="741.568" cy="254.144" r="4" fill="#0" id="circle202"/>
	<circle cx="748.715" cy="634.363" r="4" fill="#0" id="circle203"/>
	<circle cx="755.862" cy="254.144" r="4" fill="#0" id="circle204"/>
	<circle cx="761.579" cy="86.9049" r="4" fill="#0" id="circle205"/>
	<circle cx="761.579" cy="101.199" r="4" fill="#0" id="circle206"/>
	<circle cx="761.579" cy="115.493" r="4" fill="#0" id="circle207"/>
	<circle cx="761.579" cy="129.787" r="4" fill="#0" id="circle208"/>
	<circle cx="761.579" cy="144.081" r="4" fill="#0" id="circle209"/>
	<circle cx="763.009" cy="627.216" r="4" fill="#0" id="circle210"/>
	<circle cx="768.726" cy="72.611" r="4" fill="#0" id="circle211"/>
	<circle cx="768.726" cy="156.945" r="4" fill="#0" id="circle212"/>
	<circle cx="768.726" cy="261.291" r="4" fill="#0" id="circle213"/>
	<circle cx="775.873" cy="58.317" r="4" fill="#0" id="circle214"/>
	<circle cx="775.873" cy="169.81" r="4" fill="#0" id="circle215"/>
	<circle cx="775.873" cy="184.104" r="4" fill="#0" id="circle216"/>
	<circle cx="777.303" cy="520.012" r="4" fill="#0" id="circle217"/>
	<circle cx="777.303" cy="534.305" r="4" fill="#0" id="circle218"/>
	<circle cx="777.303" cy="620.069" r="4" fill="#0" id="circle219"/>
	<circle cx="780.161" cy="548.599" r="4" fill="#0" id="circle220"/>
	<circle cx="783.02" cy="36.8761" r="4" fill="#0" id="circle221"/>
	<circle cx="783.02" cy="196.968" r="4" fill="#0" id="circle222"/>
	<circle cx="783.02" cy="211.262" r="4" fill="#0" id="circle223"/>
	<circle cx="783.02" cy="225.556" r="4" fill="#0" id="circle224"/>
	<circle cx="783.02" cy="239.85" r="4" fill="#0" id="circle225"/>
	<circle cx="783.02" cy="254.144" r="4" fill="#0" id="circle226"/>
	<circle cx="787.308" cy="561.464" r="4" fill="#0" id="circle227"/>
	<circle cx="790.167" cy="527.159" r="4" fill="#0" id="circle228"/>
	<circle cx="791.597" cy="612.922" r="4" fill="#0" id="circle229"/>
	<circle cx="794.455" cy="25.4409" r="4" fill="#0" id="circle230"/>
	<circle cx="797.314" cy="540.023" r="4" fill="#0" id="circle231"/>
	<circle cx="797.314" cy="572.899" r="4" fill="#0" id="circle232"/>
	<circle cx="798.744" cy="598.628" r="4" fill="#0" id="circle233"/>
	<circle cx="805.89" cy="448.542" r="4" fill="#0" id="circle234"/>
	<circle cx="807.32" cy="18.2939" r="4" fill="#0" id="circle235"/>
	<circle cx="808.749" cy="548.599" r="4" fill="#0" id="circle236"/>
	<circle cx="813.037" cy="434.248" r="4" fill="#0" id="circle237"/>
	<circle cx="813.037" cy="461.406" r="4" fill="#0" id="circle238"/>
	<circle cx="820.184" cy="11.147" r="4" fill="#0" id="circle239"/>
	<circle cx="820.184" cy="348.484" r="4" fill="#0" id="circle240"/>
	<circle cx="820.184" cy="362.778" r="4" fill="#0" id="circle241"/>
	<circle cx="820.184" cy="377.072" r="4" fill="#0" id="circle242"/>
	<circle cx="820.184" cy="391.366" r="4" fill="#0" id="circle243"/>
	<circle cx="820.184" cy="405.66" r="4" fill="#0" id="circle244"/>
	<circle cx="820.184" cy="419.954" r="4" fill="#0" id="circle245"/>
	<circle cx="821.614" cy="555.746" r="4" fill="#0" id="circle246"/>
	<circle cx="825.902" cy="468.553" r="4" fill="#0" id="circle247"/>
	<circle cx="833.049" cy="4" r="4" fill="#0" id="circle248"/>
	<circle cx="834.478" cy="76.8991" r="4" fill="#0" id="circle249"/>
	<circle cx="834.478" cy="91.1931" r="4" fill="#0" id="circle250"/>
	<circle cx="834.478" cy="105.487" r="4" fill="#0" id="circle251"/>
	<circle cx="834.478" cy="119.781" r="4" fill="#0" id="circle252"/>
	<circle cx="834.478" cy="341.337" r="4" fill="#0" id="circle253"/>
	<circle cx="835.908" cy="555.746" r="4" fill="#0" id="circle254"/>
	<circle cx="837.337" cy="134.075" r="4" fill="#0" id="circle255"/>
	<circle cx="837.337" cy="477.13" r="4" fill="#0" id="circle256"/>
	<circle cx="841.625" cy="62.6052" r="4" fill="#0" id="circle257"/>
	<circle cx="841.625" cy="148.369" r="4" fill="#0" id="circle258"/>
	<circle cx="845.914" cy="331.331" r="4" fill="#0" id="circle259"/>
	<circle cx="847.343" cy="4" r="4" fill="#0" id="circle260"/>
	<circle cx="848.772" cy="161.233" r="4" fill="#0" id="circle261"/>
	<circle cx="850.202" cy="555.746" r="4" fill="#0" id="circle262"/>
	<circle cx="851.631" cy="482.847" r="4" fill="#0" id="circle263"/>
	<circle cx="853.061" cy="52.5994" r="4" fill="#0" id="circle264"/>
	<circle cx="855.919" cy="174.098" r="4" fill="#0" id="circle265"/>
	<circle cx="855.919" cy="188.392" r="4" fill="#0" id="circle266"/>
	<circle cx="855.919" cy="319.896" r="4" fill="#0" id="circle267"/>
	<circle cx="861.637" cy="4" r="4" fill="#0" id="circle268"/>
	<circle cx="863.066" cy="201.256" r="4" fill="#0" id="circle269"/>
	<circle cx="863.066" cy="305.602" r="4" fill="#0" id="circle270"/>
	<circle cx="863.066" cy="548.599" r="4" fill="#0" id="circle271"/>
	<circle cx="864.496" cy="489.994" r="4" fill="#0" id="circle272"/>
	<circle cx="867.354" cy="45.4524" r="4" fill="#0" id="circle273"/>
	<circle cx="868.784" cy="215.55" r="4" fill="#0" id="circle274"/>
	<circle cx="870.213" cy="229.844" r="4" fill="#0" id="circle275"/>
	<circle cx="870.213" cy="244.138" r="4" fill="#0" id="circle276"/>
	<circle cx="870.213" cy="277.014" r="4" fill="#0" id="circle277"/>
	<circle cx="870.213" cy="291.308" r="4" fill="#0" id="circle278"/>
	<circle cx="875.931" cy="4" r="4" fill="#0" id="circle279"/>
	<circle cx="875.931" cy="555.746" r="4" fill="#0" id="circle280"/>
	<circle cx="875.931" cy="644.369" r="4" fill="#0" id="circle281"/>
	<circle cx="877.36" cy="257.003" r="4" fill="#0" id="circle282"/>
	<circle cx="878.79" cy="489.994" r="4" fill="#0" id="circle283"/>
	<circle cx="881.648" cy="41.1643" r="4" fill="#0" id="circle284"/>
	<circle cx="883.078" cy="630.075" r="4" fill="#0" id="circle285"/>
	<circle cx="884.507" cy="655.804" r="4" fill="#0" id="circle286"/>
	<circle cx="888.795" cy="562.893" r="4" fill="#0" id="circle287"/>
	<circle cx="890.225" cy="4" r="4" fill="#0" id="circle288"/>
	<circle cx="891.654" cy="497.141" r="4" fill="#0" id="circle289"/>
	<circle cx="894.513" cy="48.3112" r="4" fill="#0" id="circle290"/>
	<circle cx="894.513" cy="577.187" r="4" fill="#0" id="circle291"/>
	<circle cx="897.372" cy="625.787" r="4" fill="#0" id="circle292"/>
	<circle cx="897.372" cy="662.951" r="4" fill="#0" id="circle293"/>
	<circle cx="901.66" cy="590.052" r="4" fill="#0" id="circle294"/>
	<circle cx="904.519" cy="4" r="4" fill="#0" id="circle295"/>
	<circle cx="904.519" cy="604.346" r="4" fill="#0" id="circle296"/>
	<circle cx="905.948" cy="497.141" r="4" fill="#0" id="circle297"/>
	<circle cx="908.807" cy="54.0288" r="4" fill="#0" id="circle298"/>
	<circle cx="910.236" cy="670.098" r="4" fill="#0" id="circle299"/>
	<circle cx="918.813" cy="6.85879" r="4" fill="#0" id="circle300"/>
	<circle cx="920.242" cy="497.141" r="4" fill="#0" id="circle301"/>
	<circle cx="923.101" cy="55.4582" r="4" fill="#0" id="circle302"/>
	<circle cx="924.53" cy="670.098" r="4" fill="#0" id="circle303"/>
	<circle cx="931.677" cy="14.0058" r="4" fill="#0" id="circle304"/>
	<circle cx="931.677" cy="505.718" r="4" fill="#0" id="circle305"/>
	<circle cx="935.965" cy="62.6052" r="4" fill="#0" id="circle306"/>
	<circle cx="937.395" cy="520.012" r="4" fill="#0" id="circle307"/>
	<circle cx="938.824" cy="670.098" r="4" fill="#0" id="circle308"/>
	<circle cx="944.542" cy="532.876" r="4" fill="#0" id="circle309"/>
	<circle cx="945.971" cy="19.7233" r="4" fill="#0" id="circle310"/>
	<circle cx="948.83" cy="55.4582" r="4" fill="#0" id="circle311"/>
	<circle cx="948.83" cy="547.17" r="4" fill="#0" id="circle312"/>
	<circle cx="953.118" cy="670.098" r="4" fill="#0" id="circle313"/>
	<circle cx="955.977" cy="560.035" r="4" fill="#0" id="circle314"/>
	<circle cx="958.836" cy="26.8703" r="4" fill="#0" id="circle315"/>
	<circle cx="960.265" cy="45.4524" r="4" fill="#0" id="circle316"/>
	<circle cx="963.124" cy="572.899" r="4" fill="#0" id="circle317"/>
	<circle cx="967.412" cy="670.098" r="4" fill="#0" id="circle318"/>
	<circle cx="973.13" cy="584.334" r="4" fill="#0" id="circle319"/>
	<circle cx="981.706" cy="667.239" r="4" fill="#0" id="circle320"/>
	<circle cx="984.565" cy="594.34" r="4" fill="#0" id="circle321"/>
	<circle cx="991.712" cy="607.205" r="4" fill="#0" id="circle322"/>
	<circle cx="991.712" cy="621.499" r="4" fill="#0" id="circle323"/>
	<circle cx="991.712" cy="655.804" r="4" fill="#0" id="circle324"/>
	<circle cx="996" cy="635.793" r="4" fill="#0" id="circle325"/>
	</g>
</svg>