<?xml version="1.0" encoding="UTF-8" standalone="no"?>
<!-- Created with CurveBenchmark -->
<svg
	xmlns:dc="http://purl.org/dc/elements/1.1/"
	xmlns:cc="http://creativecommons.org/ns#"
	xmlns:rdf="http://www.w3.org/1999/02/22-rdf-syntax-ns#"
	xmlns:svg="http://www.w3.org/2000/svg"
	xmlns="http://www.w3.org/2000/svg"
	xmlns:sodipodi="http://sodipodi.sourceforge.net/DTD/sodipodi-0.dtd"
	xmlns:inkscape="http://www.inkscape.org/namespaces/inkscape"
	width="1000"
	height="1000"
	id="svg2"
	version="1.1"
	sodipodi:docname="manifold/peel-sink060.png.txt">
<defs
	id="defs4" />
<metadata
	id="metadata7">
	<rdf:RDF>
		<cc:Work
			rdf:about="">
			<dc:format>image/svg+xml</dc:format>
			<dc:type
				rdf:resource="http://purl.org/dc/dcmitype/StillImage" />
			<dc:title></dc:title>
		</cc:Work>
	</rdf:RDF>
</metadata>
<g
	inkscape:label="Layer 1"
	inkscape:groupmode="layer"
	id="layer1">
	<path style="fill:none;stroke:red;stroke-width:1px;stroke-linecap:butt;stroke-linejoin:miter;stroke-opacity:1" d="M 47.5512,318.537 4,294.341 z" id="boundary" inkscape:connector-curvature="0" />
	<path style="fill:none;stroke:red;stroke-width:1px;stroke-linecap:butt;stroke-linejoin:miter;stroke-opacity:1" d="M 4,294.341 13.678,216.917 z" id="boundary" inkscape:connector-curvature="0" />
	<path style="fill:none;stroke:red;stroke-width:1px;stroke-linecap:butt;stroke-linejoin:miter;stroke-opacity:1" d="M 13.678,216.917 13.678,168.527 z" id="boundary" inkscape:connector-curvature="0" />
	<path style="fill:none;stroke:red;stroke-width:1px;stroke-linecap:butt;stroke-linejoin:miter;stroke-opacity:1" d="M 216.917,362.088 241.112,405.639 z" id="boundary" inkscape:connector-curvature="0" />
	<path style="fill:none;stroke:red;stroke-width:1px;stroke-linecap:butt;stroke-linejoin:miter;stroke-opacity:1" d="M 13.678,168.527 62.0683,168.527 z" id="boundary" inkscape:connector-curvature="0" />
	<path style="fill:none;stroke:red;stroke-width:1px;stroke-linecap:butt;stroke-linejoin:miter;stroke-opacity:1" d="M 62.0683,168.527 110.459,168.527 z" id="boundary" inkscape:connector-curvature="0" />
	<path style="fill:none;stroke:red;stroke-width:1px;stroke-linecap:butt;stroke-linejoin:miter;stroke-opacity:1" d="M 47.5512,318.537 95.9415,318.537 z" id="boundary" inkscape:connector-curvature="0" />
	<path style="fill:none;stroke:red;stroke-width:1px;stroke-linecap:butt;stroke-linejoin:miter;stroke-opacity:1" d="M 144.332,318.537 95.9415,318.537 z" id="boundary" inkscape:connector-curvature="0" />
	<path style="fill:none;stroke:red;stroke-width:1px;stroke-linecap:butt;stroke-linejoin:miter;stroke-opacity:1" d="M 192.722,318.537 216.917,362.088 z" id="boundary" inkscape:connector-curvature="0" />
	<path style="fill:none;stroke:red;stroke-width:1px;stroke-linecap:butt;stroke-linejoin:miter;stroke-opacity:1" d="M 192.722,318.537 144.332,318.537 z" id="boundary" inkscape:connector-curvature="0" />
	<path style="fill:none;stroke:red;stroke-width:1px;stroke-linecap:butt;stroke-linejoin:miter;stroke-opacity:1" d="M 110.459,168.527 158.849,168.527 z" id="boundary" inkscape:connector-curvature="0" />
	<path style="fill:none;stroke:red;stroke-width:1px;stroke-linecap:butt;stroke-linejoin:miter;stroke-opacity:1" d="M 158.849,168.527 207.239,178.205 z" id="boundary" inkscape:connector-curvature="0" />
	<path style="fill:none;stroke:red;stroke-width:1px;stroke-linecap:butt;stroke-linejoin:miter;stroke-opacity:1" d="M 207.239,178.205 250.79,154.01 z" id="boundary" inkscape:connector-curvature="0" />
	<path style="fill:none;stroke:red;stroke-width:1px;stroke-linecap:butt;stroke-linejoin:miter;stroke-opacity:1" d="M 381.444,647.59 381.444,599.2 z" id="boundary" inkscape:connector-curvature="0" />
	<path style="fill:none;stroke:red;stroke-width:1px;stroke-linecap:butt;stroke-linejoin:miter;stroke-opacity:1" d="M 226.595,110.459 226.595,62.0683 z" id="boundary" inkscape:connector-curvature="0" />
	<path style="fill:none;stroke:red;stroke-width:1px;stroke-linecap:butt;stroke-linejoin:miter;stroke-opacity:1" d="M 250.79,154.01 226.595,110.459 z" id="boundary" inkscape:connector-curvature="0" />
	<path style="fill:none;stroke:red;stroke-width:1px;stroke-linecap:butt;stroke-linejoin:miter;stroke-opacity:1" d="M 241.112,405.639 279.824,434.673 z" id="boundary" inkscape:connector-curvature="0" />
	<path style="fill:none;stroke:red;stroke-width:1px;stroke-linecap:butt;stroke-linejoin:miter;stroke-opacity:1" d="M 255.629,23.3561 226.595,62.0683 z" id="boundary" inkscape:connector-curvature="0" />
	<path style="fill:none;stroke:red;stroke-width:1px;stroke-linecap:butt;stroke-linejoin:miter;stroke-opacity:1" d="M 381.444,647.59 381.444,695.98 z" id="boundary" inkscape:connector-curvature="0" />
	<path style="fill:none;stroke:red;stroke-width:1px;stroke-linecap:butt;stroke-linejoin:miter;stroke-opacity:1" d="M 299.18,168.527 347.571,168.527 z" id="boundary" inkscape:connector-curvature="0" />
	<path style="fill:none;stroke:red;stroke-width:1px;stroke-linecap:butt;stroke-linejoin:miter;stroke-opacity:1" d="M 255.629,23.3561 304.02,4 z" id="boundary" inkscape:connector-curvature="0" />
	<path style="fill:none;stroke:red;stroke-width:1px;stroke-linecap:butt;stroke-linejoin:miter;stroke-opacity:1" d="M 304.02,4 333.054,42.7122 z" id="boundary" inkscape:connector-curvature="0" />
	<path style="fill:none;stroke:red;stroke-width:1px;stroke-linecap:butt;stroke-linejoin:miter;stroke-opacity:1" d="M 381.444,550.81 381.444,502.42 z" id="boundary" inkscape:connector-curvature="0" />
	<path style="fill:none;stroke:red;stroke-width:1px;stroke-linecap:butt;stroke-linejoin:miter;stroke-opacity:1" d="M 362.088,81.4244 333.054,42.7122 z" id="boundary" inkscape:connector-curvature="0" />
	<path style="fill:none;stroke:red;stroke-width:1px;stroke-linecap:butt;stroke-linejoin:miter;stroke-opacity:1" d="M 395.961,168.527 347.571,168.527 z" id="boundary" inkscape:connector-curvature="0" />
	<path style="fill:none;stroke:red;stroke-width:1px;stroke-linecap:butt;stroke-linejoin:miter;stroke-opacity:1" d="M 323.376,952.449 347.571,996 z" id="boundary" inkscape:connector-curvature="0" />
	<path style="fill:none;stroke:red;stroke-width:1px;stroke-linecap:butt;stroke-linejoin:miter;stroke-opacity:1" d="M 347.571,996 395.961,996 z" id="boundary" inkscape:connector-curvature="0" />
	<path style="fill:none;stroke:red;stroke-width:1px;stroke-linecap:butt;stroke-linejoin:miter;stroke-opacity:1" d="M 381.444,695.98 381.444,744.371 z" id="boundary" inkscape:connector-curvature="0" />
	<path style="fill:none;stroke:red;stroke-width:1px;stroke-linecap:butt;stroke-linejoin:miter;stroke-opacity:1" d="M 352.41,904.059 371.766,836.312 z" id="boundary" inkscape:connector-curvature="0" />
	<path style="fill:none;stroke:red;stroke-width:1px;stroke-linecap:butt;stroke-linejoin:miter;stroke-opacity:1" d="M 323.376,952.449 352.41,904.059 z" id="boundary" inkscape:connector-curvature="0" />
	<path style="fill:none;stroke:red;stroke-width:1px;stroke-linecap:butt;stroke-linejoin:miter;stroke-opacity:1" d="M 328.215,454.029 279.824,434.673 z" id="boundary" inkscape:connector-curvature="0" />
	<path style="fill:none;stroke:red;stroke-width:1px;stroke-linecap:butt;stroke-linejoin:miter;stroke-opacity:1" d="M 328.215,454.029 376.605,454.029 z" id="boundary" inkscape:connector-curvature="0" />
	<path style="fill:none;stroke:red;stroke-width:1px;stroke-linecap:butt;stroke-linejoin:miter;stroke-opacity:1" d="M 376.605,454.029 381.444,502.42 z" id="boundary" inkscape:connector-curvature="0" />
	<path style="fill:none;stroke:red;stroke-width:1px;stroke-linecap:butt;stroke-linejoin:miter;stroke-opacity:1" d="M 381.444,550.81 381.444,599.2 z" id="boundary" inkscape:connector-curvature="0" />
	<path style="fill:none;stroke:red;stroke-width:1px;stroke-linecap:butt;stroke-linejoin:miter;stroke-opacity:1" d="M 492.741,168.527 531.454,197.561 z" id="boundary" inkscape:connector-curvature="0" />
	<path style="fill:none;stroke:red;stroke-width:1px;stroke-linecap:butt;stroke-linejoin:miter;stroke-opacity:1" d="M 492.741,168.527 444.351,168.527 z" id="boundary" inkscape:connector-curvature="0" />
	<path style="fill:none;stroke:red;stroke-width:1px;stroke-linecap:butt;stroke-linejoin:miter;stroke-opacity:1" d="M 531.454,197.561 555.649,241.112 z" id="boundary" inkscape:connector-curvature="0" />
	<path style="fill:none;stroke:red;stroke-width:1px;stroke-linecap:butt;stroke-linejoin:miter;stroke-opacity:1" d="M 550.81,458.868 550.81,410.478 z" id="boundary" inkscape:connector-curvature="0" />
	<path style="fill:none;stroke:red;stroke-width:1px;stroke-linecap:butt;stroke-linejoin:miter;stroke-opacity:1" d="M 371.766,836.312 381.444,744.371 z" id="boundary" inkscape:connector-curvature="0" />
	<path style="fill:none;stroke:red;stroke-width:1px;stroke-linecap:butt;stroke-linejoin:miter;stroke-opacity:1" d="M 395.961,168.527 444.351,168.527 z" id="boundary" inkscape:connector-curvature="0" />
	<path style="fill:none;stroke:red;stroke-width:1px;stroke-linecap:butt;stroke-linejoin:miter;stroke-opacity:1" d="M 550.81,555.649 550.81,507.259 z" id="boundary" inkscape:connector-curvature="0" />
	<path style="fill:none;stroke:red;stroke-width:1px;stroke-linecap:butt;stroke-linejoin:miter;stroke-opacity:1" d="M 550.81,604.039 550.81,555.649 z" id="boundary" inkscape:connector-curvature="0" />
	<path style="fill:none;stroke:red;stroke-width:1px;stroke-linecap:butt;stroke-linejoin:miter;stroke-opacity:1" d="M 395.961,996 444.351,996 z" id="boundary" inkscape:connector-curvature="0" />
	<path style="fill:none;stroke:red;stroke-width:1px;stroke-linecap:butt;stroke-linejoin:miter;stroke-opacity:1" d="M 550.81,458.868 550.81,507.259 z" id="boundary" inkscape:connector-curvature="0" />
	<path style="fill:none;stroke:red;stroke-width:1px;stroke-linecap:butt;stroke-linejoin:miter;stroke-opacity:1" d="M 492.741,996 541.132,996 z" id="boundary" inkscape:connector-curvature="0" />
	<path style="fill:none;stroke:red;stroke-width:1px;stroke-linecap:butt;stroke-linejoin:miter;stroke-opacity:1" d="M 550.81,604.039 550.81,652.429 z" id="boundary" inkscape:connector-curvature="0" />
	<path style="fill:none;stroke:red;stroke-width:1px;stroke-linecap:butt;stroke-linejoin:miter;stroke-opacity:1" d="M 589.522,362.088 550.81,410.478 z" id="boundary" inkscape:connector-curvature="0" />
	<path style="fill:none;stroke:red;stroke-width:1px;stroke-linecap:butt;stroke-linejoin:miter;stroke-opacity:1" d="M 550.81,700.82 550.81,652.429 z" id="boundary" inkscape:connector-curvature="0" />
	<path style="fill:none;stroke:red;stroke-width:1px;stroke-linecap:butt;stroke-linejoin:miter;stroke-opacity:1" d="M 662.107,318.537 710.498,318.537 z" id="boundary" inkscape:connector-curvature="0" />
	<path style="fill:none;stroke:red;stroke-width:1px;stroke-linecap:butt;stroke-linejoin:miter;stroke-opacity:1" d="M 550.81,749.21 550.81,700.82 z" id="boundary" inkscape:connector-curvature="0" />
	<path style="fill:none;stroke:red;stroke-width:1px;stroke-linecap:butt;stroke-linejoin:miter;stroke-opacity:1" d="M 550.81,797.6 550.81,749.21 z" id="boundary" inkscape:connector-curvature="0" />
	<path style="fill:none;stroke:red;stroke-width:1px;stroke-linecap:butt;stroke-linejoin:miter;stroke-opacity:1" d="M 589.522,362.088 613.717,318.537 z" id="boundary" inkscape:connector-curvature="0" />
	<path style="fill:none;stroke:red;stroke-width:1px;stroke-linecap:butt;stroke-linejoin:miter;stroke-opacity:1" d="M 613.717,318.537 662.107,318.537 z" id="boundary" inkscape:connector-curvature="0" />
	<path style="fill:none;stroke:red;stroke-width:1px;stroke-linecap:butt;stroke-linejoin:miter;stroke-opacity:1" d="M 550.81,845.99 550.81,797.6 z" id="boundary" inkscape:connector-curvature="0" />
	<path style="fill:none;stroke:red;stroke-width:1px;stroke-linecap:butt;stroke-linejoin:miter;stroke-opacity:1" d="M 565.327,894.38 550.81,845.99 z" id="boundary" inkscape:connector-curvature="0" />
	<path style="fill:none;stroke:red;stroke-width:1px;stroke-linecap:butt;stroke-linejoin:miter;stroke-opacity:1" d="M 565.327,894.38 589.522,937.932 z" id="boundary" inkscape:connector-curvature="0" />
	<path style="fill:none;stroke:red;stroke-width:1px;stroke-linecap:butt;stroke-linejoin:miter;stroke-opacity:1" d="M 492.741,996 444.351,996 z" id="boundary" inkscape:connector-curvature="0" />
	<path style="fill:none;stroke:red;stroke-width:1px;stroke-linecap:butt;stroke-linejoin:miter;stroke-opacity:1" d="M 555.649,241.112 599.2,265.307 z" id="boundary" inkscape:connector-curvature="0" />
	<path style="fill:none;stroke:red;stroke-width:1px;stroke-linecap:butt;stroke-linejoin:miter;stroke-opacity:1" d="M 589.522,937.932 589.522,996 z" id="boundary" inkscape:connector-curvature="0" />
	<path style="fill:none;stroke:red;stroke-width:1px;stroke-linecap:butt;stroke-linejoin:miter;stroke-opacity:1" d="M 589.522,996 541.132,996 z" id="boundary" inkscape:connector-curvature="0" />
	<path style="fill:none;stroke:red;stroke-width:1px;stroke-linecap:butt;stroke-linejoin:miter;stroke-opacity:1" d="M 758.888,318.537 710.498,318.537 z" id="boundary" inkscape:connector-curvature="0" />
	<path style="fill:none;stroke:red;stroke-width:1px;stroke-linecap:butt;stroke-linejoin:miter;stroke-opacity:1" d="M 599.2,265.307 647.59,265.307 z" id="boundary" inkscape:connector-curvature="0" />
	<path style="fill:none;stroke:red;stroke-width:1px;stroke-linecap:butt;stroke-linejoin:miter;stroke-opacity:1" d="M 647.59,265.307 695.98,265.307 z" id="boundary" inkscape:connector-curvature="0" />
	<path style="fill:none;stroke:red;stroke-width:1px;stroke-linecap:butt;stroke-linejoin:miter;stroke-opacity:1" d="M 758.888,318.537 744.371,265.307 z" id="boundary" inkscape:connector-curvature="0" />
	<path style="fill:none;stroke:red;stroke-width:1px;stroke-linecap:butt;stroke-linejoin:miter;stroke-opacity:1" d="M 695.98,265.307 744.371,265.307 z" id="boundary" inkscape:connector-curvature="0" />
	<circle cx="4" cy="294.341" r="4" fill="#0" id="circle0"/>
	<circle cx="13.678" cy="168.527" r="4" fill="#0" id="circle1"/>
	<circle cx="13.678" cy="216.917" r="4" fill="#0" id="circle2"/>
	<circle cx="47.5512" cy="318.537" r="4" fill="#0" id="circle3"/>
	<circle cx="62.0683" cy="168.527" r="4" fill="#0" id="circle4"/>
	<circle cx="95.9415" cy="318.537" r="4" fill="#0" id="circle5"/>
	<circle cx="110.459" cy="168.527" r="4" fill="#0" id="circle6"/>
	<circle cx="144.332" cy="318.537" r="4" fill="#0" id="circle7"/>
	<circle cx="158.849" cy="168.527" r="4" fill="#0" id="circle8"/>
	<circle cx="192.722" cy="318.537" r="4" fill="#0" id="circle9"/>
	<circle cx="207.239" cy="178.205" r="4" fill="#0" id="circle10"/>
	<circle cx="216.917" cy="362.088" r="4" fill="#0" id="circle11"/>
	<circle cx="226.595" cy="62.0683" r="4" fill="#0" id="circle12"/>
	<circle cx="226.595" cy="110.459" r="4" fill="#0" id="circle13"/>
	<circle cx="241.112" cy="405.639" r="4" fill="#0" id="circle14"/>
	<circle cx="250.79" cy="154.01" r="4" fill="#0" id="circle15"/>
	<circle cx="255.629" cy="23.3561" r="4" fill="#0" id="circle16"/>
	<circle cx="279.824" cy="434.673" r="4" fill="#0" id="circle17"/>
	<circle cx="299.18" cy="168.527" r="4" fill="#0" id="circle18"/>
	<circle cx="304.02" cy="4" r="4" fill="#0" id="circle19"/>
	<circle cx="323.376" cy="952.449" r="4" fill="#0" id="circle20"/>
	<circle cx="328.215" cy="454.029" r="4" fill="#0" id="circle21"/>
	<circle cx="333.054" cy="42.7122" r="4" fill="#0" id="circle22"/>
	<circle cx="347.571" cy="168.527" r="4" fill="#0" id="circle23"/>
	<circle cx="347.571" cy="996" r="4" fill="#0" id="circle24"/>
	<circle cx="352.41" cy="904.059" r="4" fill="#0" id="circle25"/>
	<circle cx="362.088" cy="81.4244" r="4" fill="#0" id="circle26"/>
	<circle cx="371.766" cy="836.312" r="4" fill="#0" id="circle27"/>
	<circle cx="376.605" cy="454.029" r="4" fill="#0" id="circle28"/>
	<circle cx="381.444" cy="502.42" r="4" fill="#0" id="circle29"/>
	<circle cx="381.444" cy="550.81" r="4" fill="#0" id="circle30"/>
	<circle cx="381.444" cy="599.2" r="4" fill="#0" id="circle31"/>
	<circle cx="381.444" cy="647.59" r="4" fill="#0" id="circle32"/>
	<circle cx="381.444" cy="695.98" r="4" fill="#0" id="circle33"/>
	<circle cx="381.444" cy="744.371" r="4" fill="#0" id="circle34"/>
	<circle cx="395.961" cy="168.527" r="4" fill="#0" id="circle35"/>
	<circle cx="395.961" cy="996" r="4" fill="#0" id="circle36"/>
	<circle cx="444.351" cy="168.527" r="4" fill="#0" id="circle37"/>
	<circle cx="444.351" cy="996" r="4" fill="#0" id="circle38"/>
	<circle cx="492.741" cy="168.527" r="4" fill="#0" id="circle39"/>
	<circle cx="492.741" cy="996" r="4" fill="#0" id="circle40"/>
	<circle cx="531.454" cy="197.561" r="4" fill="#0" id="circle41"/>
	<circle cx="541.132" cy="996" r="4" fill="#0" id="circle42"/>
	<circle cx="550.81" cy="410.478" r="4" fill="#0" id="circle43"/>
	<circle cx="550.81" cy="458.868" r="4" fill="#0" id="circle44"/>
	<circle cx="550.81" cy="507.259" r="4" fill="#0" id="circle45"/>
	<circle cx="550.81" cy="555.649" r="4" fill="#0" id="circle46"/>
	<circle cx="550.81" cy="604.039" r="4" fill="#0" id="circle47"/>
	<circle cx="550.81" cy="652.429" r="4" fill="#0" id="circle48"/>
	<circle cx="550.81" cy="700.82" r="4" fill="#0" id="circle49"/>
	<circle cx="550.81" cy="749.21" r="4" fill="#0" id="circle50"/>
	<circle cx="550.81" cy="797.6" r="4" fill="#0" id="circle51"/>
	<circle cx="550.81" cy="845.99" r="4" fill="#0" id="circle52"/>
	<circle cx="555.649" cy="241.112" r="4" fill="#0" id="circle53"/>
	<circle cx="565.327" cy="894.38" r="4" fill="#0" id="circle54"/>
	<circle cx="589.522" cy="362.088" r="4" fill="#0" id="circle55"/>
	<circle cx="589.522" cy="937.932" r="4" fill="#0" id="circle56"/>
	<circle cx="589.522" cy="996" r="4" fill="#0" id="circle57"/>
	<circle cx="599.2" cy="265.307" r="4" fill="#0" id="circle58"/>
	<circle cx="613.717" cy="318.537" r="4" fill="#0" id="circle59"/>
	<circle cx="647.59" cy="265.307" r="4" fill="#0" id="circle60"/>
	<circle cx="662.107" cy="318.537" r="4" fill="#0" id="circle61"/>
	<circle cx="695.98" cy="265.307" r="4" fill="#0" id="circle62"/>
	<circle cx="710.498" cy="318.537" r="4" fill="#0" id="circle63"/>
	<circle cx="744.371" cy="265.307" r="4" fill="#0" id="circle64"/>
	<circle cx="758.888" cy="318.537" r="4" fill="#0" id="circle65"/>
	</g>
</svg>