<?xml version="1.0" encoding="UTF-8" standalone="no"?>
<!-- Created with CurveBenchmark -->
<svg
	xmlns:dc="http://purl.org/dc/elements/1.1/"
	xmlns:cc="http://creativecommons.org/ns#"
	xmlns:rdf="http://www.w3.org/1999/02/22-rdf-syntax-ns#"
	xmlns:svg="http://www.w3.org/2000/svg"
	xmlns="http://www.w3.org/2000/svg"
	xmlns:sodipodi="http://sodipodi.sourceforge.net/DTD/sodipodi-0.dtd"
	xmlns:inkscape="http://www.inkscape.org/namespaces/inkscape"
	width="1000"
	height="1000"
	id="svg2"
	version="1.1"
	sodipodi:docname="manifold/peel-tool59.png.txt">
<defs
	id="defs4" />
<metadata
	id="metadata7">
	<rdf:RDF>
		<cc:Work
			rdf:about="">
			<dc:format>image/svg+xml</dc:format>
			<dc:type
				rdf:resource="http://purl.org/dc/dcmitype/StillImage" />
			<dc:title></dc:title>
		</cc:Work>
	</rdf:RDF>
</metadata>
<g
	inkscape:label="Layer 1"
	inkscape:groupmode="layer"
	id="layer1">
	<path style="fill:none;stroke:red;stroke-width:1px;stroke-linecap:butt;stroke-linejoin:miter;stroke-opacity:1" d="M 25.1064,56.766 46.2128,35.6596 z" id="boundary" inkscape:connector-curvature="0" />
	<path style="fill:none;stroke:red;stroke-width:1px;stroke-linecap:butt;stroke-linejoin:miter;stroke-opacity:1" d="M 19.8298,98.9787 4,77.8723 z" id="boundary" inkscape:connector-curvature="0" />
	<path style="fill:none;stroke:red;stroke-width:1px;stroke-linecap:butt;stroke-linejoin:miter;stroke-opacity:1" d="M 4,77.8723 25.1064,56.766 z" id="boundary" inkscape:connector-curvature="0" />
	<path style="fill:none;stroke:red;stroke-width:1px;stroke-linecap:butt;stroke-linejoin:miter;stroke-opacity:1" d="M 43.5745,175.489 17.1915,183.404 z" id="boundary" inkscape:connector-curvature="0" />
	<path style="fill:none;stroke:red;stroke-width:1px;stroke-linecap:butt;stroke-linejoin:miter;stroke-opacity:1" d="M 30.383,207.149 56.766,217.702 z" id="boundary" inkscape:connector-curvature="0" />
	<path style="fill:none;stroke:red;stroke-width:1px;stroke-linecap:butt;stroke-linejoin:miter;stroke-opacity:1" d="M 17.1915,183.404 30.383,207.149 z" id="boundary" inkscape:connector-curvature="0" />
	<path style="fill:none;stroke:red;stroke-width:1px;stroke-linecap:butt;stroke-linejoin:miter;stroke-opacity:1" d="M 56.766,217.702 80.5106,230.894 z" id="boundary" inkscape:connector-curvature="0" />
	<path style="fill:none;stroke:red;stroke-width:1px;stroke-linecap:butt;stroke-linejoin:miter;stroke-opacity:1" d="M 19.8298,98.9787 46.2128,98.9787 z" id="boundary" inkscape:connector-curvature="0" />
	<path style="fill:none;stroke:red;stroke-width:1px;stroke-linecap:butt;stroke-linejoin:miter;stroke-opacity:1" d="M 43.5745,175.489 69.9574,175.489 z" id="boundary" inkscape:connector-curvature="0" />
	<path style="fill:none;stroke:red;stroke-width:1px;stroke-linecap:butt;stroke-linejoin:miter;stroke-opacity:1" d="M 72.5957,22.4681 46.2128,35.6596 z" id="boundary" inkscape:connector-curvature="0" />
	<path style="fill:none;stroke:red;stroke-width:1px;stroke-linecap:butt;stroke-linejoin:miter;stroke-opacity:1" d="M 46.2128,98.9787 72.5957,98.9787 z" id="boundary" inkscape:connector-curvature="0" />
	<path style="fill:none;stroke:red;stroke-width:1px;stroke-linecap:butt;stroke-linejoin:miter;stroke-opacity:1" d="M 80.5106,230.894 106.894,230.894 z" id="boundary" inkscape:connector-curvature="0" />
	<path style="fill:none;stroke:red;stroke-width:1px;stroke-linecap:butt;stroke-linejoin:miter;stroke-opacity:1" d="M 93.7021,162.298 69.9574,175.489 z" id="boundary" inkscape:connector-curvature="0" />
	<path style="fill:none;stroke:red;stroke-width:1px;stroke-linecap:butt;stroke-linejoin:miter;stroke-opacity:1" d="M 72.5957,22.4681 98.9787,9.2766 z" id="boundary" inkscape:connector-curvature="0" />
	<path style="fill:none;stroke:red;stroke-width:1px;stroke-linecap:butt;stroke-linejoin:miter;stroke-opacity:1" d="M 72.5957,98.9787 98.9787,85.7872 z" id="boundary" inkscape:connector-curvature="0" />
	<path style="fill:none;stroke:red;stroke-width:1px;stroke-linecap:butt;stroke-linejoin:miter;stroke-opacity:1" d="M 112.17,141.191 135.915,122.723 z" id="boundary" inkscape:connector-curvature="0" />
	<path style="fill:none;stroke:red;stroke-width:1px;stroke-linecap:butt;stroke-linejoin:miter;stroke-opacity:1" d="M 135.915,122.723 122.723,98.9787 z" id="boundary" inkscape:connector-curvature="0" />
	<path style="fill:none;stroke:red;stroke-width:1px;stroke-linecap:butt;stroke-linejoin:miter;stroke-opacity:1" d="M 112.17,141.191 93.7021,162.298 z" id="boundary" inkscape:connector-curvature="0" />
	<path style="fill:none;stroke:red;stroke-width:1px;stroke-linecap:butt;stroke-linejoin:miter;stroke-opacity:1" d="M 98.9787,9.2766 125.362,4 z" id="boundary" inkscape:connector-curvature="0" />
	<path style="fill:none;stroke:red;stroke-width:1px;stroke-linecap:butt;stroke-linejoin:miter;stroke-opacity:1" d="M 106.894,230.894 133.277,230.894 z" id="boundary" inkscape:connector-curvature="0" />
	<path style="fill:none;stroke:red;stroke-width:1px;stroke-linecap:butt;stroke-linejoin:miter;stroke-opacity:1" d="M 98.9787,85.7872 122.723,98.9787 z" id="boundary" inkscape:connector-curvature="0" />
	<path style="fill:none;stroke:red;stroke-width:1px;stroke-linecap:butt;stroke-linejoin:miter;stroke-opacity:1" d="M 874.638,270.468 898.383,283.66 z" id="boundary" inkscape:connector-curvature="0" />
	<path style="fill:none;stroke:red;stroke-width:1px;stroke-linecap:butt;stroke-linejoin:miter;stroke-opacity:1" d="M 125.362,4 151.745,4 z" id="boundary" inkscape:connector-curvature="0" />
	<path style="fill:none;stroke:red;stroke-width:1px;stroke-linecap:butt;stroke-linejoin:miter;stroke-opacity:1" d="M 204.511,11.9149 178.128,4 z" id="boundary" inkscape:connector-curvature="0" />
	<path style="fill:none;stroke:red;stroke-width:1px;stroke-linecap:butt;stroke-linejoin:miter;stroke-opacity:1" d="M 439.319,191.319 412.936,191.319 z" id="boundary" inkscape:connector-curvature="0" />
	<path style="fill:none;stroke:red;stroke-width:1px;stroke-linecap:butt;stroke-linejoin:miter;stroke-opacity:1" d="M 151.745,4 178.128,4 z" id="boundary" inkscape:connector-curvature="0" />
	<path style="fill:none;stroke:red;stroke-width:1px;stroke-linecap:butt;stroke-linejoin:miter;stroke-opacity:1" d="M 133.277,230.894 159.66,225.617 z" id="boundary" inkscape:connector-curvature="0" />
	<path style="fill:none;stroke:red;stroke-width:1px;stroke-linecap:butt;stroke-linejoin:miter;stroke-opacity:1" d="M 310.043,178.128 283.66,178.128 z" id="boundary" inkscape:connector-curvature="0" />
	<path style="fill:none;stroke:red;stroke-width:1px;stroke-linecap:butt;stroke-linejoin:miter;stroke-opacity:1" d="M 228.255,25.1064 204.511,11.9149 z" id="boundary" inkscape:connector-curvature="0" />
	<path style="fill:none;stroke:red;stroke-width:1px;stroke-linecap:butt;stroke-linejoin:miter;stroke-opacity:1" d="M 159.66,225.617 186.043,212.426 z" id="boundary" inkscape:connector-curvature="0" />
	<path style="fill:none;stroke:red;stroke-width:1px;stroke-linecap:butt;stroke-linejoin:miter;stroke-opacity:1" d="M 204.511,191.319 230.894,191.319 z" id="boundary" inkscape:connector-curvature="0" />
	<path style="fill:none;stroke:red;stroke-width:1px;stroke-linecap:butt;stroke-linejoin:miter;stroke-opacity:1" d="M 204.511,191.319 186.043,212.426 z" id="boundary" inkscape:connector-curvature="0" />
	<path style="fill:none;stroke:red;stroke-width:1px;stroke-linecap:butt;stroke-linejoin:miter;stroke-opacity:1" d="M 671.489,217.702 697.872,217.702 z" id="boundary" inkscape:connector-curvature="0" />
	<path style="fill:none;stroke:red;stroke-width:1px;stroke-linecap:butt;stroke-linejoin:miter;stroke-opacity:1" d="M 228.255,25.1064 249.362,43.5745 z" id="boundary" inkscape:connector-curvature="0" />
	<path style="fill:none;stroke:red;stroke-width:1px;stroke-linecap:butt;stroke-linejoin:miter;stroke-opacity:1" d="M 515.83,204.511 492.085,191.319 z" id="boundary" inkscape:connector-curvature="0" />
	<path style="fill:none;stroke:red;stroke-width:1px;stroke-linecap:butt;stroke-linejoin:miter;stroke-opacity:1" d="M 492.085,191.319 465.702,191.319 z" id="boundary" inkscape:connector-curvature="0" />
	<path style="fill:none;stroke:red;stroke-width:1px;stroke-linecap:butt;stroke-linejoin:miter;stroke-opacity:1" d="M 257.277,178.128 283.66,178.128 z" id="boundary" inkscape:connector-curvature="0" />
	<path style="fill:none;stroke:red;stroke-width:1px;stroke-linecap:butt;stroke-linejoin:miter;stroke-opacity:1" d="M 257.277,178.128 230.894,191.319 z" id="boundary" inkscape:connector-curvature="0" />
	<path style="fill:none;stroke:red;stroke-width:1px;stroke-linecap:butt;stroke-linejoin:miter;stroke-opacity:1" d="M 310.043,178.128 336.426,178.128 z" id="boundary" inkscape:connector-curvature="0" />
	<path style="fill:none;stroke:red;stroke-width:1px;stroke-linecap:butt;stroke-linejoin:miter;stroke-opacity:1" d="M 249.362,43.5745 273.106,56.766 z" id="boundary" inkscape:connector-curvature="0" />
	<path style="fill:none;stroke:red;stroke-width:1px;stroke-linecap:butt;stroke-linejoin:miter;stroke-opacity:1" d="M 273.106,56.766 299.489,56.766 z" id="boundary" inkscape:connector-curvature="0" />
	<path style="fill:none;stroke:red;stroke-width:1px;stroke-linecap:butt;stroke-linejoin:miter;stroke-opacity:1" d="M 299.489,56.766 323.234,69.9574 z" id="boundary" inkscape:connector-curvature="0" />
	<path style="fill:none;stroke:red;stroke-width:1px;stroke-linecap:butt;stroke-linejoin:miter;stroke-opacity:1" d="M 336.426,178.128 362.809,178.128 z" id="boundary" inkscape:connector-curvature="0" />
	<path style="fill:none;stroke:red;stroke-width:1px;stroke-linecap:butt;stroke-linejoin:miter;stroke-opacity:1" d="M 323.234,69.9574 349.617,77.8723 z" id="boundary" inkscape:connector-curvature="0" />
	<path style="fill:none;stroke:red;stroke-width:1px;stroke-linecap:butt;stroke-linejoin:miter;stroke-opacity:1" d="M 362.809,178.128 389.191,178.128 z" id="boundary" inkscape:connector-curvature="0" />
	<path style="fill:none;stroke:red;stroke-width:1px;stroke-linecap:butt;stroke-linejoin:miter;stroke-opacity:1" d="M 389.191,178.128 412.936,191.319 z" id="boundary" inkscape:connector-curvature="0" />
	<path style="fill:none;stroke:red;stroke-width:1px;stroke-linecap:butt;stroke-linejoin:miter;stroke-opacity:1" d="M 349.617,77.8723 376,83.1489 z" id="boundary" inkscape:connector-curvature="0" />
	<path style="fill:none;stroke:red;stroke-width:1px;stroke-linecap:butt;stroke-linejoin:miter;stroke-opacity:1" d="M 376,83.1489 402.383,91.0638 z" id="boundary" inkscape:connector-curvature="0" />
	<path style="fill:none;stroke:red;stroke-width:1px;stroke-linecap:butt;stroke-linejoin:miter;stroke-opacity:1" d="M 465.702,191.319 439.319,191.319 z" id="boundary" inkscape:connector-curvature="0" />
	<path style="fill:none;stroke:red;stroke-width:1px;stroke-linecap:butt;stroke-linejoin:miter;stroke-opacity:1" d="M 402.383,91.0638 428.766,96.3404 z" id="boundary" inkscape:connector-curvature="0" />
	<path style="fill:none;stroke:red;stroke-width:1px;stroke-linecap:butt;stroke-linejoin:miter;stroke-opacity:1" d="M 428.766,96.3404 455.149,96.3404 z" id="boundary" inkscape:connector-curvature="0" />
	<path style="fill:none;stroke:red;stroke-width:1px;stroke-linecap:butt;stroke-linejoin:miter;stroke-opacity:1" d="M 542.213,204.511 568.596,204.511 z" id="boundary" inkscape:connector-curvature="0" />
	<path style="fill:none;stroke:red;stroke-width:1px;stroke-linecap:butt;stroke-linejoin:miter;stroke-opacity:1" d="M 455.149,96.3404 478.894,109.532 z" id="boundary" inkscape:connector-curvature="0" />
	<path style="fill:none;stroke:red;stroke-width:1px;stroke-linecap:butt;stroke-linejoin:miter;stroke-opacity:1" d="M 515.83,204.511 542.213,204.511 z" id="boundary" inkscape:connector-curvature="0" />
	<path style="fill:none;stroke:red;stroke-width:1px;stroke-linecap:butt;stroke-linejoin:miter;stroke-opacity:1" d="M 478.894,109.532 505.277,109.532 z" id="boundary" inkscape:connector-curvature="0" />
	<path style="fill:none;stroke:red;stroke-width:1px;stroke-linecap:butt;stroke-linejoin:miter;stroke-opacity:1" d="M 505.277,109.532 531.66,109.532 z" id="boundary" inkscape:connector-curvature="0" />
	<path style="fill:none;stroke:red;stroke-width:1px;stroke-linecap:butt;stroke-linejoin:miter;stroke-opacity:1" d="M 568.596,204.511 594.979,204.511 z" id="boundary" inkscape:connector-curvature="0" />
	<path style="fill:none;stroke:red;stroke-width:1px;stroke-linecap:butt;stroke-linejoin:miter;stroke-opacity:1" d="M 531.66,109.532 558.043,109.532 z" id="boundary" inkscape:connector-curvature="0" />
	<path style="fill:none;stroke:red;stroke-width:1px;stroke-linecap:butt;stroke-linejoin:miter;stroke-opacity:1" d="M 594.979,204.511 621.362,204.511 z" id="boundary" inkscape:connector-curvature="0" />
	<path style="fill:none;stroke:red;stroke-width:1px;stroke-linecap:butt;stroke-linejoin:miter;stroke-opacity:1" d="M 558.043,109.532 584.426,109.532 z" id="boundary" inkscape:connector-curvature="0" />
	<path style="fill:none;stroke:red;stroke-width:1px;stroke-linecap:butt;stroke-linejoin:miter;stroke-opacity:1" d="M 621.362,204.511 647.745,204.511 z" id="boundary" inkscape:connector-curvature="0" />
	<path style="fill:none;stroke:red;stroke-width:1px;stroke-linecap:butt;stroke-linejoin:miter;stroke-opacity:1" d="M 647.745,204.511 671.489,217.702 z" id="boundary" inkscape:connector-curvature="0" />
	<path style="fill:none;stroke:red;stroke-width:1px;stroke-linecap:butt;stroke-linejoin:miter;stroke-opacity:1" d="M 584.426,109.532 610.809,109.532 z" id="boundary" inkscape:connector-curvature="0" />
	<path style="fill:none;stroke:red;stroke-width:1px;stroke-linecap:butt;stroke-linejoin:miter;stroke-opacity:1" d="M 874.638,270.468 850.894,257.277 z" id="boundary" inkscape:connector-curvature="0" />
	<path style="fill:none;stroke:red;stroke-width:1px;stroke-linecap:butt;stroke-linejoin:miter;stroke-opacity:1" d="M 610.809,109.532 637.191,109.532 z" id="boundary" inkscape:connector-curvature="0" />
	<path style="fill:none;stroke:red;stroke-width:1px;stroke-linecap:butt;stroke-linejoin:miter;stroke-opacity:1" d="M 637.191,109.532 663.574,109.532 z" id="boundary" inkscape:connector-curvature="0" />
	<path style="fill:none;stroke:red;stroke-width:1px;stroke-linecap:butt;stroke-linejoin:miter;stroke-opacity:1" d="M 663.574,109.532 689.957,114.809 z" id="boundary" inkscape:connector-curvature="0" />
	<path style="fill:none;stroke:red;stroke-width:1px;stroke-linecap:butt;stroke-linejoin:miter;stroke-opacity:1" d="M 697.872,217.702 724.255,217.702 z" id="boundary" inkscape:connector-curvature="0" />
	<path style="fill:none;stroke:red;stroke-width:1px;stroke-linecap:butt;stroke-linejoin:miter;stroke-opacity:1" d="M 724.255,217.702 750.638,217.702 z" id="boundary" inkscape:connector-curvature="0" />
	<path style="fill:none;stroke:red;stroke-width:1px;stroke-linecap:butt;stroke-linejoin:miter;stroke-opacity:1" d="M 750.638,217.702 777.021,228.255 z" id="boundary" inkscape:connector-curvature="0" />
	<path style="fill:none;stroke:red;stroke-width:1px;stroke-linecap:butt;stroke-linejoin:miter;stroke-opacity:1" d="M 689.957,114.809 716.34,122.723 z" id="boundary" inkscape:connector-curvature="0" />
	<path style="fill:none;stroke:red;stroke-width:1px;stroke-linecap:butt;stroke-linejoin:miter;stroke-opacity:1" d="M 850.894,257.277 829.787,241.447 z" id="boundary" inkscape:connector-curvature="0" />
	<path style="fill:none;stroke:red;stroke-width:1px;stroke-linecap:butt;stroke-linejoin:miter;stroke-opacity:1" d="M 716.34,122.723 742.723,122.723 z" id="boundary" inkscape:connector-curvature="0" />
	<path style="fill:none;stroke:red;stroke-width:1px;stroke-linecap:butt;stroke-linejoin:miter;stroke-opacity:1" d="M 777.021,228.255 803.404,230.894 z" id="boundary" inkscape:connector-curvature="0" />
	<path style="fill:none;stroke:red;stroke-width:1px;stroke-linecap:butt;stroke-linejoin:miter;stroke-opacity:1" d="M 803.404,230.894 829.787,241.447 z" id="boundary" inkscape:connector-curvature="0" />
	<path style="fill:none;stroke:red;stroke-width:1px;stroke-linecap:butt;stroke-linejoin:miter;stroke-opacity:1" d="M 742.723,122.723 769.106,117.447 z" id="boundary" inkscape:connector-curvature="0" />
	<path style="fill:none;stroke:red;stroke-width:1px;stroke-linecap:butt;stroke-linejoin:miter;stroke-opacity:1" d="M 769.106,117.447 795.489,109.532 z" id="boundary" inkscape:connector-curvature="0" />
	<path style="fill:none;stroke:red;stroke-width:1px;stroke-linecap:butt;stroke-linejoin:miter;stroke-opacity:1" d="M 795.489,109.532 819.234,96.3404 z" id="boundary" inkscape:connector-curvature="0" />
	<path style="fill:none;stroke:red;stroke-width:1px;stroke-linecap:butt;stroke-linejoin:miter;stroke-opacity:1" d="M 903.66,151.745 903.66,178.128 z" id="boundary" inkscape:connector-curvature="0" />
	<path style="fill:none;stroke:red;stroke-width:1px;stroke-linecap:butt;stroke-linejoin:miter;stroke-opacity:1" d="M 869.362,83.1489 842.979,83.1489 z" id="boundary" inkscape:connector-curvature="0" />
	<path style="fill:none;stroke:red;stroke-width:1px;stroke-linecap:butt;stroke-linejoin:miter;stroke-opacity:1" d="M 819.234,96.3404 842.979,83.1489 z" id="boundary" inkscape:connector-curvature="0" />
	<path style="fill:none;stroke:red;stroke-width:1px;stroke-linecap:butt;stroke-linejoin:miter;stroke-opacity:1" d="M 869.362,83.1489 893.106,69.9574 z" id="boundary" inkscape:connector-curvature="0" />
	<path style="fill:none;stroke:red;stroke-width:1px;stroke-linecap:butt;stroke-linejoin:miter;stroke-opacity:1" d="M 893.106,69.9574 916.851,83.1489 z" id="boundary" inkscape:connector-curvature="0" />
	<path style="fill:none;stroke:red;stroke-width:1px;stroke-linecap:butt;stroke-linejoin:miter;stroke-opacity:1" d="M 903.66,204.511 903.66,178.128 z" id="boundary" inkscape:connector-curvature="0" />
	<path style="fill:none;stroke:red;stroke-width:1px;stroke-linecap:butt;stroke-linejoin:miter;stroke-opacity:1" d="M 903.66,204.511 930.043,215.064 z" id="boundary" inkscape:connector-curvature="0" />
	<path style="fill:none;stroke:red;stroke-width:1px;stroke-linecap:butt;stroke-linejoin:miter;stroke-opacity:1" d="M 903.66,151.745 927.404,138.553 z" id="boundary" inkscape:connector-curvature="0" />
	<path style="fill:none;stroke:red;stroke-width:1px;stroke-linecap:butt;stroke-linejoin:miter;stroke-opacity:1" d="M 927.404,138.553 951.149,125.362 z" id="boundary" inkscape:connector-curvature="0" />
	<path style="fill:none;stroke:red;stroke-width:1px;stroke-linecap:butt;stroke-linejoin:miter;stroke-opacity:1" d="M 898.383,283.66 924.766,283.66 z" id="boundary" inkscape:connector-curvature="0" />
	<path style="fill:none;stroke:red;stroke-width:1px;stroke-linecap:butt;stroke-linejoin:miter;stroke-opacity:1" d="M 916.851,83.1489 943.234,91.0638 z" id="boundary" inkscape:connector-curvature="0" />
	<path style="fill:none;stroke:red;stroke-width:1px;stroke-linecap:butt;stroke-linejoin:miter;stroke-opacity:1" d="M 948.511,270.468 924.766,283.66 z" id="boundary" inkscape:connector-curvature="0" />
	<path style="fill:none;stroke:red;stroke-width:1px;stroke-linecap:butt;stroke-linejoin:miter;stroke-opacity:1" d="M 972.255,257.277 948.511,270.468 z" id="boundary" inkscape:connector-curvature="0" />
	<path style="fill:none;stroke:red;stroke-width:1px;stroke-linecap:butt;stroke-linejoin:miter;stroke-opacity:1" d="M 930.043,215.064 956.426,215.064 z" id="boundary" inkscape:connector-curvature="0" />
	<path style="fill:none;stroke:red;stroke-width:1px;stroke-linecap:butt;stroke-linejoin:miter;stroke-opacity:1" d="M 951.149,125.362 977.532,125.362 z" id="boundary" inkscape:connector-curvature="0" />
	<path style="fill:none;stroke:red;stroke-width:1px;stroke-linecap:butt;stroke-linejoin:miter;stroke-opacity:1" d="M 977.532,125.362 969.617,96.3404 z" id="boundary" inkscape:connector-curvature="0" />
	<path style="fill:none;stroke:red;stroke-width:1px;stroke-linecap:butt;stroke-linejoin:miter;stroke-opacity:1" d="M 943.234,91.0638 969.617,96.3404 z" id="boundary" inkscape:connector-curvature="0" />
	<path style="fill:none;stroke:red;stroke-width:1px;stroke-linecap:butt;stroke-linejoin:miter;stroke-opacity:1" d="M 956.426,215.064 982.809,215.064 z" id="boundary" inkscape:connector-curvature="0" />
	<path style="fill:none;stroke:red;stroke-width:1px;stroke-linecap:butt;stroke-linejoin:miter;stroke-opacity:1" d="M 982.809,215.064 996,244.085 z" id="boundary" inkscape:connector-curvature="0" />
	<path style="fill:none;stroke:red;stroke-width:1px;stroke-linecap:butt;stroke-linejoin:miter;stroke-opacity:1" d="M 996,244.085 972.255,257.277 z" id="boundary" inkscape:connector-curvature="0" />
	<circle cx="4" cy="77.8723" r="4" fill="#0" id="circle0"/>
	<circle cx="17.1915" cy="183.404" r="4" fill="#0" id="circle1"/>
	<circle cx="19.8298" cy="98.9787" r="4" fill="#0" id="circle2"/>
	<circle cx="25.1064" cy="56.766" r="4" fill="#0" id="circle3"/>
	<circle cx="30.383" cy="207.149" r="4" fill="#0" id="circle4"/>
	<circle cx="43.5745" cy="175.489" r="4" fill="#0" id="circle5"/>
	<circle cx="46.2128" cy="35.6596" r="4" fill="#0" id="circle6"/>
	<circle cx="46.2128" cy="98.9787" r="4" fill="#0" id="circle7"/>
	<circle cx="56.766" cy="217.702" r="4" fill="#0" id="circle8"/>
	<circle cx="69.9574" cy="175.489" r="4" fill="#0" id="circle9"/>
	<circle cx="72.5957" cy="22.4681" r="4" fill="#0" id="circle10"/>
	<circle cx="72.5957" cy="98.9787" r="4" fill="#0" id="circle11"/>
	<circle cx="80.5106" cy="230.894" r="4" fill="#0" id="circle12"/>
	<circle cx="93.7021" cy="162.298" r="4" fill="#0" id="circle13"/>
	<circle cx="98.9787" cy="9.2766" r="4" fill="#0" id="circle14"/>
	<circle cx="98.9787" cy="85.7872" r="4" fill="#0" id="circle15"/>
	<circle cx="106.894" cy="230.894" r="4" fill="#0" id="circle16"/>
	<circle cx="112.17" cy="141.191" r="4" fill="#0" id="circle17"/>
	<circle cx="122.723" cy="98.9787" r="4" fill="#0" id="circle18"/>
	<circle cx="125.362" cy="4" r="4" fill="#0" id="circle19"/>
	<circle cx="133.277" cy="230.894" r="4" fill="#0" id="circle20"/>
	<circle cx="135.915" cy="122.723" r="4" fill="#0" id="circle21"/>
	<circle cx="151.745" cy="4" r="4" fill="#0" id="circle22"/>
	<circle cx="159.66" cy="225.617" r="4" fill="#0" id="circle23"/>
	<circle cx="178.128" cy="4" r="4" fill="#0" id="circle24"/>
	<circle cx="186.043" cy="212.426" r="4" fill="#0" id="circle25"/>
	<circle cx="204.511" cy="11.9149" r="4" fill="#0" id="circle26"/>
	<circle cx="204.511" cy="191.319" r="4" fill="#0" id="circle27"/>
	<circle cx="228.255" cy="25.1064" r="4" fill="#0" id="circle28"/>
	<circle cx="230.894" cy="191.319" r="4" fill="#0" id="circle29"/>
	<circle cx="249.362" cy="43.5745" r="4" fill="#0" id="circle30"/>
	<circle cx="257.277" cy="178.128" r="4" fill="#0" id="circle31"/>
	<circle cx="273.106" cy="56.766" r="4" fill="#0" id="circle32"/>
	<circle cx="283.66" cy="178.128" r="4" fill="#0" id="circle33"/>
	<circle cx="299.489" cy="56.766" r="4" fill="#0" id="circle34"/>
	<circle cx="310.043" cy="178.128" r="4" fill="#0" id="circle35"/>
	<circle cx="323.234" cy="69.9574" r="4" fill="#0" id="circle36"/>
	<circle cx="336.426" cy="178.128" r="4" fill="#0" id="circle37"/>
	<circle cx="349.617" cy="77.8723" r="4" fill="#0" id="circle38"/>
	<circle cx="362.809" cy="178.128" r="4" fill="#0" id="circle39"/>
	<circle cx="376" cy="83.1489" r="4" fill="#0" id="circle40"/>
	<circle cx="389.191" cy="178.128" r="4" fill="#0" id="circle41"/>
	<circle cx="402.383" cy="91.0638" r="4" fill="#0" id="circle42"/>
	<circle cx="412.936" cy="191.319" r="4" fill="#0" id="circle43"/>
	<circle cx="428.766" cy="96.3404" r="4" fill="#0" id="circle44"/>
	<circle cx="439.319" cy="191.319" r="4" fill="#0" id="circle45"/>
	<circle cx="455.149" cy="96.3404" r="4" fill="#0" id="circle46"/>
	<circle cx="465.702" cy="191.319" r="4" fill="#0" id="circle47"/>
	<circle cx="478.894" cy="109.532" r="4" fill="#0" id="circle48"/>
	<circle cx="492.085" cy="191.319" r="4" fill="#0" id="circle49"/>
	<circle cx="505.277" cy="109.532" r="4" fill="#0" id="circle50"/>
	<circle cx="515.83" cy="204.511" r="4" fill="#0" id="circle51"/>
	<circle cx="531.66" cy="109.532" r="4" fill="#0" id="circle52"/>
	<circle cx="542.213" cy="204.511" r="4" fill="#0" id="circle53"/>
	<circle cx="558.043" cy="109.532" r="4" fill="#0" id="circle54"/>
	<circle cx="568.596" cy="204.511" r="4" fill="#0" id="circle55"/>
	<circle cx="584.426" cy="109.532" r="4" fill="#0" id="circle56"/>
	<circle cx="594.979" cy="204.511" r="4" fill="#0" id="circle57"/>
	<circle cx="610.809" cy="109.532" r="4" fill="#0" id="circle58"/>
	<circle cx="621.362" cy="204.511" r="4" fill="#0" id="circle59"/>
	<circle cx="637.191" cy="109.532" r="4" fill="#0" id="circle60"/>
	<circle cx="647.745" cy="204.511" r="4" fill="#0" id="circle61"/>
	<circle cx="663.574" cy="109.532" r="4" fill="#0" id="circle62"/>
	<circle cx="671.489" cy="217.702" r="4" fill="#0" id="circle63"/>
	<circle cx="689.957" cy="114.809" r="4" fill="#0" id="circle64"/>
	<circle cx="697.872" cy="217.702" r="4" fill="#0" id="circle65"/>
	<circle cx="716.34" cy="122.723" r="4" fill="#0" id="circle66"/>
	<circle cx="724.255" cy="217.702" r="4" fill="#0" id="circle67"/>
	<circle cx="742.723" cy="122.723" r="4" fill="#0" id="circle68"/>
	<circle cx="750.638" cy="217.702" r="4" fill="#0" id="circle69"/>
	<circle cx="769.106" cy="117.447" r="4" fill="#0" id="circle70"/>
	<circle cx="777.021" cy="228.255" r="4" fill="#0" id="circle71"/>
	<circle cx="795.489" cy="109.532" r="4" fill="#0" id="circle72"/>
	<circle cx="803.404" cy="230.894" r="4" fill="#0" id="circle73"/>
	<circle cx="819.234" cy="96.3404" r="4" fill="#0" id="circle74"/>
	<circle cx="829.787" cy="241.447" r="4" fill="#0" id="circle75"/>
	<circle cx="842.979" cy="83.1489" r="4" fill="#0" id="circle76"/>
	<circle cx="850.894" cy="257.277" r="4" fill="#0" id="circle77"/>
	<circle cx="869.362" cy="83.1489" r="4" fill="#0" id="circle78"/>
	<circle cx="874.638" cy="270.468" r="4" fill="#0" id="circle79"/>
	<circle cx="893.106" cy="69.9574" r="4" fill="#0" id="circle80"/>
	<circle cx="898.383" cy="283.66" r="4" fill="#0" id="circle81"/>
	<circle cx="903.66" cy="151.745" r="4" fill="#0" id="circle82"/>
	<circle cx="903.66" cy="178.128" r="4" fill="#0" id="circle83"/>
	<circle cx="903.66" cy="204.511" r="4" fill="#0" id="circle84"/>
	<circle cx="916.851" cy="83.1489" r="4" fill="#0" id="circle85"/>
	<circle cx="924.766" cy="283.66" r="4" fill="#0" id="circle86"/>
	<circle cx="927.404" cy="138.553" r="4" fill="#0" id="circle87"/>
	<circle cx="930.043" cy="215.064" r="4" fill="#0" id="circle88"/>
	<circle cx="943.234" cy="91.0638" r="4" fill="#0" id="circle89"/>
	<circle cx="948.511" cy="270.468" r="4" fill="#0" id="circle90"/>
	<circle cx="951.149" cy="125.362" r="4" fill="#0" id="circle91"/>
	<circle cx="956.426" cy="215.064" r="4" fill="#0" id="circle92"/>
	<circle cx="969.617" cy="96.3404" r="4" fill="#0" id="circle93"/>
	<circle cx="972.255" cy="257.277" r="4" fill="#0" id="circle94"/>
	<circle cx="977.532" cy="125.362" r="4" fill="#0" id="circle95"/>
	<circle cx="982.809" cy="215.064" r="4" fill="#0" id="circle96"/>
	<circle cx="996" cy="244.085" r="4" fill="#0" id="circle97"/>
	</g>
</svg>