<?xml version="1.0" encoding="UTF-8" standalone="no"?>
<!-- Created with CurveBenchmark -->
<svg
	xmlns:dc="http://purl.org/dc/elements/1.1/"
	xmlns:cc="http://creativecommons.org/ns#"
	xmlns:rdf="http://www.w3.org/1999/02/22-rdf-syntax-ns#"
	xmlns:svg="http://www.w3.org/2000/svg"
	xmlns="http://www.w3.org/2000/svg"
	xmlns:sodipodi="http://sodipodi.sourceforge.net/DTD/sodipodi-0.dtd"
	xmlns:inkscape="http://www.inkscape.org/namespaces/inkscape"
	width="1000"
	height="1000"
	id="svg2"
	version="1.1"
	sodipodi:docname="manifold/peel-hammer05.png.txt">
<defs
	id="defs4" />
<metadata
	id="metadata7">
	<rdf:RDF>
		<cc:Work
			rdf:about="">
			<dc:format>image/svg+xml</dc:format>
			<dc:type
				rdf:resource="http://purl.org/dc/dcmitype/StillImage" />
			<dc:title></dc:title>
		</cc:Work>
	</rdf:RDF>
</metadata>
<g
	inkscape:label="Layer 1"
	inkscape:groupmode="layer"
	id="layer1">
	<path style="fill:none;stroke:red;stroke-width:1px;stroke-linecap:butt;stroke-linejoin:miter;stroke-opacity:1" d="M 40.6728,150.691 22.3364,150.691 z" id="boundary" inkscape:connector-curvature="0" />
	<path style="fill:none;stroke:red;stroke-width:1px;stroke-linecap:butt;stroke-linejoin:miter;stroke-opacity:1" d="M 4,174.529 4,156.192 z" id="boundary" inkscape:connector-curvature="0" />
	<path style="fill:none;stroke:red;stroke-width:1px;stroke-linecap:butt;stroke-linejoin:miter;stroke-opacity:1" d="M 4,156.192 22.3364,150.691 z" id="boundary" inkscape:connector-curvature="0" />
	<path style="fill:none;stroke:red;stroke-width:1px;stroke-linecap:butt;stroke-linejoin:miter;stroke-opacity:1" d="M 4,220.37 4,202.033 z" id="boundary" inkscape:connector-curvature="0" />
	<path style="fill:none;stroke:red;stroke-width:1px;stroke-linecap:butt;stroke-linejoin:miter;stroke-opacity:1" d="M 37.0055,262.543 18.6691,260.71 z" id="boundary" inkscape:connector-curvature="0" />
	<path style="fill:none;stroke:red;stroke-width:1px;stroke-linecap:butt;stroke-linejoin:miter;stroke-opacity:1" d="M 4,247.874 4,220.37 z" id="boundary" inkscape:connector-curvature="0" />
	<path style="fill:none;stroke:red;stroke-width:1px;stroke-linecap:butt;stroke-linejoin:miter;stroke-opacity:1" d="M 4,247.874 18.6691,260.71 z" id="boundary" inkscape:connector-curvature="0" />
	<path style="fill:none;stroke:red;stroke-width:1px;stroke-linecap:butt;stroke-linejoin:miter;stroke-opacity:1" d="M 4,202.033 4,174.529 z" id="boundary" inkscape:connector-curvature="0" />
	<path style="fill:none;stroke:red;stroke-width:1px;stroke-linecap:butt;stroke-linejoin:miter;stroke-opacity:1" d="M 55.342,262.543 37.0055,262.543 z" id="boundary" inkscape:connector-curvature="0" />
	<path style="fill:none;stroke:red;stroke-width:1px;stroke-linecap:butt;stroke-linejoin:miter;stroke-opacity:1" d="M 40.6728,150.691 59.0092,150.691 z" id="boundary" inkscape:connector-curvature="0" />
	<path style="fill:none;stroke:red;stroke-width:1px;stroke-linecap:butt;stroke-linejoin:miter;stroke-opacity:1" d="M 73.6784,262.543 55.342,262.543 z" id="boundary" inkscape:connector-curvature="0" />
	<path style="fill:none;stroke:red;stroke-width:1px;stroke-linecap:butt;stroke-linejoin:miter;stroke-opacity:1" d="M 92.0148,262.543 73.6784,262.543 z" id="boundary" inkscape:connector-curvature="0" />
	<path style="fill:none;stroke:red;stroke-width:1px;stroke-linecap:butt;stroke-linejoin:miter;stroke-opacity:1" d="M 59.0092,150.691 77.3457,150.691 z" id="boundary" inkscape:connector-curvature="0" />
	<path style="fill:none;stroke:red;stroke-width:1px;stroke-linecap:butt;stroke-linejoin:miter;stroke-opacity:1" d="M 110.351,262.543 92.0148,262.543 z" id="boundary" inkscape:connector-curvature="0" />
	<path style="fill:none;stroke:red;stroke-width:1px;stroke-linecap:butt;stroke-linejoin:miter;stroke-opacity:1" d="M 77.3457,150.691 95.6821,150.691 z" id="boundary" inkscape:connector-curvature="0" />
	<path style="fill:none;stroke:red;stroke-width:1px;stroke-linecap:butt;stroke-linejoin:miter;stroke-opacity:1" d="M 128.688,262.543 110.351,262.543 z" id="boundary" inkscape:connector-curvature="0" />
	<path style="fill:none;stroke:red;stroke-width:1px;stroke-linecap:butt;stroke-linejoin:miter;stroke-opacity:1" d="M 95.6821,150.691 114.018,150.691 z" id="boundary" inkscape:connector-curvature="0" />
	<path style="fill:none;stroke:red;stroke-width:1px;stroke-linecap:butt;stroke-linejoin:miter;stroke-opacity:1" d="M 147.024,262.543 128.688,262.543 z" id="boundary" inkscape:connector-curvature="0" />
	<path style="fill:none;stroke:red;stroke-width:1px;stroke-linecap:butt;stroke-linejoin:miter;stroke-opacity:1" d="M 114.018,150.691 132.355,150.691 z" id="boundary" inkscape:connector-curvature="0" />
	<path style="fill:none;stroke:red;stroke-width:1px;stroke-linecap:butt;stroke-linejoin:miter;stroke-opacity:1" d="M 165.36,262.543 147.024,262.543 z" id="boundary" inkscape:connector-curvature="0" />
	<path style="fill:none;stroke:red;stroke-width:1px;stroke-linecap:butt;stroke-linejoin:miter;stroke-opacity:1" d="M 132.355,150.691 150.691,150.691 z" id="boundary" inkscape:connector-curvature="0" />
	<path style="fill:none;stroke:red;stroke-width:1px;stroke-linecap:butt;stroke-linejoin:miter;stroke-opacity:1" d="M 183.697,262.543 165.36,262.543 z" id="boundary" inkscape:connector-curvature="0" />
	<path style="fill:none;stroke:red;stroke-width:1px;stroke-linecap:butt;stroke-linejoin:miter;stroke-opacity:1" d="M 150.691,150.691 169.028,150.691 z" id="boundary" inkscape:connector-curvature="0" />
	<path style="fill:none;stroke:red;stroke-width:1px;stroke-linecap:butt;stroke-linejoin:miter;stroke-opacity:1" d="M 202.033,262.543 183.697,262.543 z" id="boundary" inkscape:connector-curvature="0" />
	<path style="fill:none;stroke:red;stroke-width:1px;stroke-linecap:butt;stroke-linejoin:miter;stroke-opacity:1" d="M 169.028,150.691 187.364,150.691 z" id="boundary" inkscape:connector-curvature="0" />
	<path style="fill:none;stroke:red;stroke-width:1px;stroke-linecap:butt;stroke-linejoin:miter;stroke-opacity:1" d="M 220.37,262.543 202.033,262.543 z" id="boundary" inkscape:connector-curvature="0" />
	<path style="fill:none;stroke:red;stroke-width:1px;stroke-linecap:butt;stroke-linejoin:miter;stroke-opacity:1" d="M 187.364,150.691 205.701,150.691 z" id="boundary" inkscape:connector-curvature="0" />
	<path style="fill:none;stroke:red;stroke-width:1px;stroke-linecap:butt;stroke-linejoin:miter;stroke-opacity:1" d="M 238.706,262.543 220.37,262.543 z" id="boundary" inkscape:connector-curvature="0" />
	<path style="fill:none;stroke:red;stroke-width:1px;stroke-linecap:butt;stroke-linejoin:miter;stroke-opacity:1" d="M 205.701,150.691 224.037,150.691 z" id="boundary" inkscape:connector-curvature="0" />
	<path style="fill:none;stroke:red;stroke-width:1px;stroke-linecap:butt;stroke-linejoin:miter;stroke-opacity:1" d="M 257.043,262.543 238.706,262.543 z" id="boundary" inkscape:connector-curvature="0" />
	<path style="fill:none;stroke:red;stroke-width:1px;stroke-linecap:butt;stroke-linejoin:miter;stroke-opacity:1" d="M 224.037,150.691 242.373,150.691 z" id="boundary" inkscape:connector-curvature="0" />
	<path style="fill:none;stroke:red;stroke-width:1px;stroke-linecap:butt;stroke-linejoin:miter;stroke-opacity:1" d="M 275.379,262.543 257.043,262.543 z" id="boundary" inkscape:connector-curvature="0" />
	<path style="fill:none;stroke:red;stroke-width:1px;stroke-linecap:butt;stroke-linejoin:miter;stroke-opacity:1" d="M 242.373,150.691 260.71,150.691 z" id="boundary" inkscape:connector-curvature="0" />
	<path style="fill:none;stroke:red;stroke-width:1px;stroke-linecap:butt;stroke-linejoin:miter;stroke-opacity:1" d="M 293.715,262.543 275.379,262.543 z" id="boundary" inkscape:connector-curvature="0" />
	<path style="fill:none;stroke:red;stroke-width:1px;stroke-linecap:butt;stroke-linejoin:miter;stroke-opacity:1" d="M 260.71,150.691 279.046,150.691 z" id="boundary" inkscape:connector-curvature="0" />
	<path style="fill:none;stroke:red;stroke-width:1px;stroke-linecap:butt;stroke-linejoin:miter;stroke-opacity:1" d="M 312.052,262.543 293.715,262.543 z" id="boundary" inkscape:connector-curvature="0" />
	<path style="fill:none;stroke:red;stroke-width:1px;stroke-linecap:butt;stroke-linejoin:miter;stroke-opacity:1" d="M 279.046,150.691 297.383,150.691 z" id="boundary" inkscape:connector-curvature="0" />
	<path style="fill:none;stroke:red;stroke-width:1px;stroke-linecap:butt;stroke-linejoin:miter;stroke-opacity:1" d="M 330.388,262.543 312.052,262.543 z" id="boundary" inkscape:connector-curvature="0" />
	<path style="fill:none;stroke:red;stroke-width:1px;stroke-linecap:butt;stroke-linejoin:miter;stroke-opacity:1" d="M 297.383,150.691 315.719,150.691 z" id="boundary" inkscape:connector-curvature="0" />
	<path style="fill:none;stroke:red;stroke-width:1px;stroke-linecap:butt;stroke-linejoin:miter;stroke-opacity:1" d="M 348.725,262.543 330.388,262.543 z" id="boundary" inkscape:connector-curvature="0" />
	<path style="fill:none;stroke:red;stroke-width:1px;stroke-linecap:butt;stroke-linejoin:miter;stroke-opacity:1" d="M 315.719,150.691 334.055,150.691 z" id="boundary" inkscape:connector-curvature="0" />
	<path style="fill:none;stroke:red;stroke-width:1px;stroke-linecap:butt;stroke-linejoin:miter;stroke-opacity:1" d="M 367.061,262.543 348.725,262.543 z" id="boundary" inkscape:connector-curvature="0" />
	<path style="fill:none;stroke:red;stroke-width:1px;stroke-linecap:butt;stroke-linejoin:miter;stroke-opacity:1" d="M 334.055,150.691 352.392,150.691 z" id="boundary" inkscape:connector-curvature="0" />
	<path style="fill:none;stroke:red;stroke-width:1px;stroke-linecap:butt;stroke-linejoin:miter;stroke-opacity:1" d="M 385.397,262.543 367.061,262.543 z" id="boundary" inkscape:connector-curvature="0" />
	<path style="fill:none;stroke:red;stroke-width:1px;stroke-linecap:butt;stroke-linejoin:miter;stroke-opacity:1" d="M 352.392,150.691 370.728,150.691 z" id="boundary" inkscape:connector-curvature="0" />
	<path style="fill:none;stroke:red;stroke-width:1px;stroke-linecap:butt;stroke-linejoin:miter;stroke-opacity:1" d="M 403.734,262.543 385.397,262.543 z" id="boundary" inkscape:connector-curvature="0" />
	<path style="fill:none;stroke:red;stroke-width:1px;stroke-linecap:butt;stroke-linejoin:miter;stroke-opacity:1" d="M 370.728,150.691 389.065,150.691 z" id="boundary" inkscape:connector-curvature="0" />
	<path style="fill:none;stroke:red;stroke-width:1px;stroke-linecap:butt;stroke-linejoin:miter;stroke-opacity:1" d="M 422.07,262.543 403.734,262.543 z" id="boundary" inkscape:connector-curvature="0" />
	<path style="fill:none;stroke:red;stroke-width:1px;stroke-linecap:butt;stroke-linejoin:miter;stroke-opacity:1" d="M 389.065,150.691 407.401,150.691 z" id="boundary" inkscape:connector-curvature="0" />
	<path style="fill:none;stroke:red;stroke-width:1px;stroke-linecap:butt;stroke-linejoin:miter;stroke-opacity:1" d="M 440.407,262.543 422.07,262.543 z" id="boundary" inkscape:connector-curvature="0" />
	<path style="fill:none;stroke:red;stroke-width:1px;stroke-linecap:butt;stroke-linejoin:miter;stroke-opacity:1" d="M 407.401,150.691 425.738,150.691 z" id="boundary" inkscape:connector-curvature="0" />
	<path style="fill:none;stroke:red;stroke-width:1px;stroke-linecap:butt;stroke-linejoin:miter;stroke-opacity:1" d="M 458.743,262.543 440.407,262.543 z" id="boundary" inkscape:connector-curvature="0" />
	<path style="fill:none;stroke:red;stroke-width:1px;stroke-linecap:butt;stroke-linejoin:miter;stroke-opacity:1" d="M 425.738,150.691 444.074,150.691 z" id="boundary" inkscape:connector-curvature="0" />
	<path style="fill:none;stroke:red;stroke-width:1px;stroke-linecap:butt;stroke-linejoin:miter;stroke-opacity:1" d="M 477.079,262.543 458.743,262.543 z" id="boundary" inkscape:connector-curvature="0" />
	<path style="fill:none;stroke:red;stroke-width:1px;stroke-linecap:butt;stroke-linejoin:miter;stroke-opacity:1" d="M 444.074,150.691 462.41,150.691 z" id="boundary" inkscape:connector-curvature="0" />
	<path style="fill:none;stroke:red;stroke-width:1px;stroke-linecap:butt;stroke-linejoin:miter;stroke-opacity:1" d="M 495.416,262.543 477.079,262.543 z" id="boundary" inkscape:connector-curvature="0" />
	<path style="fill:none;stroke:red;stroke-width:1px;stroke-linecap:butt;stroke-linejoin:miter;stroke-opacity:1" d="M 462.41,150.691 480.747,150.691 z" id="boundary" inkscape:connector-curvature="0" />
	<path style="fill:none;stroke:red;stroke-width:1px;stroke-linecap:butt;stroke-linejoin:miter;stroke-opacity:1" d="M 513.752,262.543 495.416,262.543 z" id="boundary" inkscape:connector-curvature="0" />
	<path style="fill:none;stroke:red;stroke-width:1px;stroke-linecap:butt;stroke-linejoin:miter;stroke-opacity:1" d="M 480.747,150.691 499.083,150.691 z" id="boundary" inkscape:connector-curvature="0" />
	<path style="fill:none;stroke:red;stroke-width:1px;stroke-linecap:butt;stroke-linejoin:miter;stroke-opacity:1" d="M 532.089,262.543 513.752,262.543 z" id="boundary" inkscape:connector-curvature="0" />
	<path style="fill:none;stroke:red;stroke-width:1px;stroke-linecap:butt;stroke-linejoin:miter;stroke-opacity:1" d="M 499.083,150.691 517.42,150.691 z" id="boundary" inkscape:connector-curvature="0" />
	<path style="fill:none;stroke:red;stroke-width:1px;stroke-linecap:butt;stroke-linejoin:miter;stroke-opacity:1" d="M 550.425,262.543 532.089,262.543 z" id="boundary" inkscape:connector-curvature="0" />
	<path style="fill:none;stroke:red;stroke-width:1px;stroke-linecap:butt;stroke-linejoin:miter;stroke-opacity:1" d="M 517.42,150.691 535.756,150.691 z" id="boundary" inkscape:connector-curvature="0" />
	<path style="fill:none;stroke:red;stroke-width:1px;stroke-linecap:butt;stroke-linejoin:miter;stroke-opacity:1" d="M 568.762,262.543 550.425,262.543 z" id="boundary" inkscape:connector-curvature="0" />
	<path style="fill:none;stroke:red;stroke-width:1px;stroke-linecap:butt;stroke-linejoin:miter;stroke-opacity:1" d="M 535.756,150.691 554.092,150.691 z" id="boundary" inkscape:connector-curvature="0" />
	<path style="fill:none;stroke:red;stroke-width:1px;stroke-linecap:butt;stroke-linejoin:miter;stroke-opacity:1" d="M 587.098,262.543 568.762,262.543 z" id="boundary" inkscape:connector-curvature="0" />
	<path style="fill:none;stroke:red;stroke-width:1px;stroke-linecap:butt;stroke-linejoin:miter;stroke-opacity:1" d="M 554.092,150.691 572.429,150.691 z" id="boundary" inkscape:connector-curvature="0" />
	<path style="fill:none;stroke:red;stroke-width:1px;stroke-linecap:butt;stroke-linejoin:miter;stroke-opacity:1" d="M 605.434,262.543 587.098,262.543 z" id="boundary" inkscape:connector-curvature="0" />
	<path style="fill:none;stroke:red;stroke-width:1px;stroke-linecap:butt;stroke-linejoin:miter;stroke-opacity:1" d="M 572.429,150.691 590.765,150.691 z" id="boundary" inkscape:connector-curvature="0" />
	<path style="fill:none;stroke:red;stroke-width:1px;stroke-linecap:butt;stroke-linejoin:miter;stroke-opacity:1" d="M 623.771,262.543 605.434,262.543 z" id="boundary" inkscape:connector-curvature="0" />
	<path style="fill:none;stroke:red;stroke-width:1px;stroke-linecap:butt;stroke-linejoin:miter;stroke-opacity:1" d="M 590.765,150.691 609.102,150.691 z" id="boundary" inkscape:connector-curvature="0" />
	<path style="fill:none;stroke:red;stroke-width:1px;stroke-linecap:butt;stroke-linejoin:miter;stroke-opacity:1" d="M 642.107,262.543 623.771,262.543 z" id="boundary" inkscape:connector-curvature="0" />
	<path style="fill:none;stroke:red;stroke-width:1px;stroke-linecap:butt;stroke-linejoin:miter;stroke-opacity:1" d="M 609.102,150.691 627.438,150.691 z" id="boundary" inkscape:connector-curvature="0" />
	<path style="fill:none;stroke:red;stroke-width:1px;stroke-linecap:butt;stroke-linejoin:miter;stroke-opacity:1" d="M 660.444,262.543 642.107,262.543 z" id="boundary" inkscape:connector-curvature="0" />
	<path style="fill:none;stroke:red;stroke-width:1px;stroke-linecap:butt;stroke-linejoin:miter;stroke-opacity:1" d="M 627.438,150.691 645.774,150.691 z" id="boundary" inkscape:connector-curvature="0" />
	<path style="fill:none;stroke:red;stroke-width:1px;stroke-linecap:butt;stroke-linejoin:miter;stroke-opacity:1" d="M 678.78,262.543 660.444,262.543 z" id="boundary" inkscape:connector-curvature="0" />
	<path style="fill:none;stroke:red;stroke-width:1px;stroke-linecap:butt;stroke-linejoin:miter;stroke-opacity:1" d="M 645.774,150.691 664.111,150.691 z" id="boundary" inkscape:connector-curvature="0" />
	<path style="fill:none;stroke:red;stroke-width:1px;stroke-linecap:butt;stroke-linejoin:miter;stroke-opacity:1" d="M 697.116,262.543 678.78,262.543 z" id="boundary" inkscape:connector-curvature="0" />
	<path style="fill:none;stroke:red;stroke-width:1px;stroke-linecap:butt;stroke-linejoin:miter;stroke-opacity:1" d="M 664.111,150.691 682.447,150.691 z" id="boundary" inkscape:connector-curvature="0" />
	<path style="fill:none;stroke:red;stroke-width:1px;stroke-linecap:butt;stroke-linejoin:miter;stroke-opacity:1" d="M 715.453,262.543 697.116,262.543 z" id="boundary" inkscape:connector-curvature="0" />
	<path style="fill:none;stroke:red;stroke-width:1px;stroke-linecap:butt;stroke-linejoin:miter;stroke-opacity:1" d="M 682.447,150.691 700.784,150.691 z" id="boundary" inkscape:connector-curvature="0" />
	<path style="fill:none;stroke:red;stroke-width:1px;stroke-linecap:butt;stroke-linejoin:miter;stroke-opacity:1" d="M 774.129,46.1738 774.129,18.6691 z" id="boundary" inkscape:connector-curvature="0" />
	<path style="fill:none;stroke:red;stroke-width:1px;stroke-linecap:butt;stroke-linejoin:miter;stroke-opacity:1" d="M 792.466,312.052 792.466,339.556 z" id="boundary" inkscape:connector-curvature="0" />
	<path style="fill:none;stroke:red;stroke-width:1px;stroke-linecap:butt;stroke-linejoin:miter;stroke-opacity:1" d="M 700.784,150.691 719.12,150.691 z" id="boundary" inkscape:connector-curvature="0" />
	<path style="fill:none;stroke:red;stroke-width:1px;stroke-linecap:butt;stroke-linejoin:miter;stroke-opacity:1" d="M 715.453,262.543 733.789,262.543 z" id="boundary" inkscape:connector-curvature="0" />
	<path style="fill:none;stroke:red;stroke-width:1px;stroke-linecap:butt;stroke-linejoin:miter;stroke-opacity:1" d="M 752.126,262.543 733.789,262.543 z" id="boundary" inkscape:connector-curvature="0" />
	<path style="fill:none;stroke:red;stroke-width:1px;stroke-linecap:butt;stroke-linejoin:miter;stroke-opacity:1" d="M 719.12,150.691 737.457,150.691 z" id="boundary" inkscape:connector-curvature="0" />
	<path style="fill:none;stroke:red;stroke-width:1px;stroke-linecap:butt;stroke-linejoin:miter;stroke-opacity:1" d="M 774.129,46.1738 774.129,73.6784 z" id="boundary" inkscape:connector-curvature="0" />
	<path style="fill:none;stroke:red;stroke-width:1px;stroke-linecap:butt;stroke-linejoin:miter;stroke-opacity:1" d="M 764.961,458.743 783.298,464.244 z" id="boundary" inkscape:connector-curvature="0" />
	<path style="fill:none;stroke:red;stroke-width:1px;stroke-linecap:butt;stroke-linejoin:miter;stroke-opacity:1" d="M 737.457,150.691 755.793,150.691 z" id="boundary" inkscape:connector-curvature="0" />
	<path style="fill:none;stroke:red;stroke-width:1px;stroke-linecap:butt;stroke-linejoin:miter;stroke-opacity:1" d="M 752.126,262.543 770.462,262.543 z" id="boundary" inkscape:connector-curvature="0" />
	<path style="fill:none;stroke:red;stroke-width:1px;stroke-linecap:butt;stroke-linejoin:miter;stroke-opacity:1" d="M 774.129,150.691 755.793,150.691 z" id="boundary" inkscape:connector-curvature="0" />
	<path style="fill:none;stroke:red;stroke-width:1px;stroke-linecap:butt;stroke-linejoin:miter;stroke-opacity:1" d="M 774.129,431.238 764.961,458.743 z" id="boundary" inkscape:connector-curvature="0" />
	<path style="fill:none;stroke:red;stroke-width:1px;stroke-linecap:butt;stroke-linejoin:miter;stroke-opacity:1" d="M 774.129,18.6691 788.799,4 z" id="boundary" inkscape:connector-curvature="0" />
	<path style="fill:none;stroke:red;stroke-width:1px;stroke-linecap:butt;stroke-linejoin:miter;stroke-opacity:1" d="M 807.135,4 788.799,4 z" id="boundary" inkscape:connector-curvature="0" />
	<path style="fill:none;stroke:red;stroke-width:1px;stroke-linecap:butt;stroke-linejoin:miter;stroke-opacity:1" d="M 783.298,126.854 774.129,110.351 z" id="boundary" inkscape:connector-curvature="0" />
	<path style="fill:none;stroke:red;stroke-width:1px;stroke-linecap:butt;stroke-linejoin:miter;stroke-opacity:1" d="M 774.129,73.6784 783.298,90.1811 z" id="boundary" inkscape:connector-curvature="0" />
	<path style="fill:none;stroke:red;stroke-width:1px;stroke-linecap:butt;stroke-linejoin:miter;stroke-opacity:1" d="M 792.466,147.024 774.129,150.691 z" id="boundary" inkscape:connector-curvature="0" />
	<path style="fill:none;stroke:red;stroke-width:1px;stroke-linecap:butt;stroke-linejoin:miter;stroke-opacity:1" d="M 774.129,110.351 783.298,90.1811 z" id="boundary" inkscape:connector-curvature="0" />
	<path style="fill:none;stroke:red;stroke-width:1px;stroke-linecap:butt;stroke-linejoin:miter;stroke-opacity:1" d="M 770.462,262.543 788.799,262.543 z" id="boundary" inkscape:connector-curvature="0" />
	<path style="fill:none;stroke:red;stroke-width:1px;stroke-linecap:butt;stroke-linejoin:miter;stroke-opacity:1" d="M 807.135,4 825.471,4 z" id="boundary" inkscape:connector-curvature="0" />
	<path style="fill:none;stroke:red;stroke-width:1px;stroke-linecap:butt;stroke-linejoin:miter;stroke-opacity:1" d="M 783.298,385.397 783.298,403.734 z" id="boundary" inkscape:connector-curvature="0" />
	<path style="fill:none;stroke:red;stroke-width:1px;stroke-linecap:butt;stroke-linejoin:miter;stroke-opacity:1" d="M 783.298,403.734 774.129,431.238 z" id="boundary" inkscape:connector-curvature="0" />
	<path style="fill:none;stroke:red;stroke-width:1px;stroke-linecap:butt;stroke-linejoin:miter;stroke-opacity:1" d="M 801.634,125.02 783.298,126.854 z" id="boundary" inkscape:connector-curvature="0" />
	<path style="fill:none;stroke:red;stroke-width:1px;stroke-linecap:butt;stroke-linejoin:miter;stroke-opacity:1" d="M 977.664,134.189 977.664,161.693 z" id="boundary" inkscape:connector-curvature="0" />
	<path style="fill:none;stroke:red;stroke-width:1px;stroke-linecap:butt;stroke-linejoin:miter;stroke-opacity:1" d="M 788.799,262.543 801.634,277.213 z" id="boundary" inkscape:connector-curvature="0" />
	<path style="fill:none;stroke:red;stroke-width:1px;stroke-linecap:butt;stroke-linejoin:miter;stroke-opacity:1" d="M 792.466,357.893 783.298,385.397 z" id="boundary" inkscape:connector-curvature="0" />
	<path style="fill:none;stroke:red;stroke-width:1px;stroke-linecap:butt;stroke-linejoin:miter;stroke-opacity:1" d="M 792.466,357.893 792.466,339.556 z" id="boundary" inkscape:connector-curvature="0" />
	<path style="fill:none;stroke:red;stroke-width:1px;stroke-linecap:butt;stroke-linejoin:miter;stroke-opacity:1" d="M 801.634,295.549 792.466,312.052 z" id="boundary" inkscape:connector-curvature="0" />
	<path style="fill:none;stroke:red;stroke-width:1px;stroke-linecap:butt;stroke-linejoin:miter;stroke-opacity:1" d="M 801.634,295.549 801.634,277.213 z" id="boundary" inkscape:connector-curvature="0" />
	<path style="fill:none;stroke:red;stroke-width:1px;stroke-linecap:butt;stroke-linejoin:miter;stroke-opacity:1" d="M 843.808,4 862.144,4 z" id="boundary" inkscape:connector-curvature="0" />
	<path style="fill:none;stroke:red;stroke-width:1px;stroke-linecap:butt;stroke-linejoin:miter;stroke-opacity:1" d="M 783.298,464.244 801.634,458.743 z" id="boundary" inkscape:connector-curvature="0" />
	<path style="fill:none;stroke:red;stroke-width:1px;stroke-linecap:butt;stroke-linejoin:miter;stroke-opacity:1" d="M 843.808,4 825.471,4 z" id="boundary" inkscape:connector-curvature="0" />
	<path style="fill:none;stroke:red;stroke-width:1px;stroke-linecap:butt;stroke-linejoin:miter;stroke-opacity:1" d="M 801.634,458.743 819.97,449.575 z" id="boundary" inkscape:connector-curvature="0" />
	<path style="fill:none;stroke:red;stroke-width:1px;stroke-linecap:butt;stroke-linejoin:miter;stroke-opacity:1" d="M 819.97,449.575 838.307,440.407 z" id="boundary" inkscape:connector-curvature="0" />
	<path style="fill:none;stroke:red;stroke-width:1px;stroke-linecap:butt;stroke-linejoin:miter;stroke-opacity:1" d="M 880.481,4 862.144,4 z" id="boundary" inkscape:connector-curvature="0" />
	<path style="fill:none;stroke:red;stroke-width:1px;stroke-linecap:butt;stroke-linejoin:miter;stroke-opacity:1" d="M 838.307,440.407 856.643,431.238 z" id="boundary" inkscape:connector-curvature="0" />
	<path style="fill:none;stroke:red;stroke-width:1px;stroke-linecap:butt;stroke-linejoin:miter;stroke-opacity:1" d="M 871.312,418.403 887.815,409.235 z" id="boundary" inkscape:connector-curvature="0" />
	<path style="fill:none;stroke:red;stroke-width:1px;stroke-linecap:butt;stroke-linejoin:miter;stroke-opacity:1" d="M 871.312,418.403 856.643,431.238 z" id="boundary" inkscape:connector-curvature="0" />
	<path style="fill:none;stroke:red;stroke-width:1px;stroke-linecap:butt;stroke-linejoin:miter;stroke-opacity:1" d="M 898.817,4 880.481,4 z" id="boundary" inkscape:connector-curvature="0" />
	<path style="fill:none;stroke:red;stroke-width:1px;stroke-linecap:butt;stroke-linejoin:miter;stroke-opacity:1" d="M 917.153,4 898.817,4 z" id="boundary" inkscape:connector-curvature="0" />
	<path style="fill:none;stroke:red;stroke-width:1px;stroke-linecap:butt;stroke-linejoin:miter;stroke-opacity:1" d="M 935.49,4 917.153,4 z" id="boundary" inkscape:connector-curvature="0" />
	<path style="fill:none;stroke:red;stroke-width:1px;stroke-linecap:butt;stroke-linejoin:miter;stroke-opacity:1" d="M 887.815,409.235 902.484,394.566 z" id="boundary" inkscape:connector-curvature="0" />
	<path style="fill:none;stroke:red;stroke-width:1px;stroke-linecap:butt;stroke-linejoin:miter;stroke-opacity:1" d="M 926.322,361.56 917.153,379.896 z" id="boundary" inkscape:connector-curvature="0" />
	<path style="fill:none;stroke:red;stroke-width:1px;stroke-linecap:butt;stroke-linejoin:miter;stroke-opacity:1" d="M 902.484,394.566 917.153,379.896 z" id="boundary" inkscape:connector-curvature="0" />
	<path style="fill:none;stroke:red;stroke-width:1px;stroke-linecap:butt;stroke-linejoin:miter;stroke-opacity:1" d="M 935.49,343.224 950.159,317.553 z" id="boundary" inkscape:connector-curvature="0" />
	<path style="fill:none;stroke:red;stroke-width:1px;stroke-linecap:butt;stroke-linejoin:miter;stroke-opacity:1" d="M 935.49,343.224 926.322,361.56 z" id="boundary" inkscape:connector-curvature="0" />
	<path style="fill:none;stroke:red;stroke-width:1px;stroke-linecap:butt;stroke-linejoin:miter;stroke-opacity:1" d="M 996,40.6728 996,60.8429 z" id="boundary" inkscape:connector-curvature="0" />
	<path style="fill:none;stroke:red;stroke-width:1px;stroke-linecap:butt;stroke-linejoin:miter;stroke-opacity:1" d="M 950.159,317.553 959.327,299.216 z" id="boundary" inkscape:connector-curvature="0" />
	<path style="fill:none;stroke:red;stroke-width:1px;stroke-linecap:butt;stroke-linejoin:miter;stroke-opacity:1" d="M 959.327,299.216 968.495,280.88 z" id="boundary" inkscape:connector-curvature="0" />
	<path style="fill:none;stroke:red;stroke-width:1px;stroke-linecap:butt;stroke-linejoin:miter;stroke-opacity:1" d="M 996,40.6728 996,22.3364 z" id="boundary" inkscape:connector-curvature="0" />
	<path style="fill:none;stroke:red;stroke-width:1px;stroke-linecap:butt;stroke-linejoin:miter;stroke-opacity:1" d="M 977.664,180.03 977.664,161.693 z" id="boundary" inkscape:connector-curvature="0" />
	<path style="fill:none;stroke:red;stroke-width:1px;stroke-linecap:butt;stroke-linejoin:miter;stroke-opacity:1" d="M 977.664,198.366 977.664,180.03 z" id="boundary" inkscape:connector-curvature="0" />
	<path style="fill:none;stroke:red;stroke-width:1px;stroke-linecap:butt;stroke-linejoin:miter;stroke-opacity:1" d="M 996,22.3364 990.499,4 z" id="boundary" inkscape:connector-curvature="0" />
	<path style="fill:none;stroke:red;stroke-width:1px;stroke-linecap:butt;stroke-linejoin:miter;stroke-opacity:1" d="M 990.499,4 972.163,4 z" id="boundary" inkscape:connector-curvature="0" />
	<path style="fill:none;stroke:red;stroke-width:1px;stroke-linecap:butt;stroke-linejoin:miter;stroke-opacity:1" d="M 972.163,4 953.826,4 z" id="boundary" inkscape:connector-curvature="0" />
	<path style="fill:none;stroke:red;stroke-width:1px;stroke-linecap:butt;stroke-linejoin:miter;stroke-opacity:1" d="M 977.664,216.702 977.664,198.366 z" id="boundary" inkscape:connector-curvature="0" />
	<path style="fill:none;stroke:red;stroke-width:1px;stroke-linecap:butt;stroke-linejoin:miter;stroke-opacity:1" d="M 994.166,125.02 977.664,134.189 z" id="boundary" inkscape:connector-curvature="0" />
	<path style="fill:none;stroke:red;stroke-width:1px;stroke-linecap:butt;stroke-linejoin:miter;stroke-opacity:1" d="M 977.664,235.039 977.664,216.702 z" id="boundary" inkscape:connector-curvature="0" />
	<path style="fill:none;stroke:red;stroke-width:1px;stroke-linecap:butt;stroke-linejoin:miter;stroke-opacity:1" d="M 977.664,235.039 977.664,253.375 z" id="boundary" inkscape:connector-curvature="0" />
	<path style="fill:none;stroke:red;stroke-width:1px;stroke-linecap:butt;stroke-linejoin:miter;stroke-opacity:1" d="M 977.664,253.375 968.495,280.88 z" id="boundary" inkscape:connector-curvature="0" />
	<path style="fill:none;stroke:red;stroke-width:1px;stroke-linecap:butt;stroke-linejoin:miter;stroke-opacity:1" d="M 953.826,4 935.49,4 z" id="boundary" inkscape:connector-curvature="0" />
	<path style="fill:none;stroke:red;stroke-width:1px;stroke-linecap:butt;stroke-linejoin:miter;stroke-opacity:1" d="M 996,88.3475 996,60.8429 z" id="boundary" inkscape:connector-curvature="0" />
	<path style="fill:none;stroke:red;stroke-width:1px;stroke-linecap:butt;stroke-linejoin:miter;stroke-opacity:1" d="M 996,106.684 996,88.3475 z" id="boundary" inkscape:connector-curvature="0" />
	<path style="fill:none;stroke:red;stroke-width:1px;stroke-linecap:butt;stroke-linejoin:miter;stroke-opacity:1" d="M 994.166,125.02 996,106.684 z" id="boundary" inkscape:connector-curvature="0" />
	<circle cx="4" cy="156.192" r="4" fill="#0" id="circle0"/>
	<circle cx="4" cy="174.529" r="4" fill="#0" id="circle1"/>
	<circle cx="4" cy="202.033" r="4" fill="#0" id="circle2"/>
	<circle cx="4" cy="220.37" r="4" fill="#0" id="circle3"/>
	<circle cx="4" cy="247.874" r="4" fill="#0" id="circle4"/>
	<circle cx="18.6691" cy="260.71" r="4" fill="#0" id="circle5"/>
	<circle cx="22.3364" cy="150.691" r="4" fill="#0" id="circle6"/>
	<circle cx="37.0055" cy="262.543" r="4" fill="#0" id="circle7"/>
	<circle cx="40.6728" cy="150.691" r="4" fill="#0" id="circle8"/>
	<circle cx="55.342" cy="262.543" r="4" fill="#0" id="circle9"/>
	<circle cx="59.0092" cy="150.691" r="4" fill="#0" id="circle10"/>
	<circle cx="73.6784" cy="262.543" r="4" fill="#0" id="circle11"/>
	<circle cx="77.3457" cy="150.691" r="4" fill="#0" id="circle12"/>
	<circle cx="92.0148" cy="262.543" r="4" fill="#0" id="circle13"/>
	<circle cx="95.6821" cy="150.691" r="4" fill="#0" id="circle14"/>
	<circle cx="110.351" cy="262.543" r="4" fill="#0" id="circle15"/>
	<circle cx="114.018" cy="150.691" r="4" fill="#0" id="circle16"/>
	<circle cx="128.688" cy="262.543" r="4" fill="#0" id="circle17"/>
	<circle cx="132.355" cy="150.691" r="4" fill="#0" id="circle18"/>
	<circle cx="147.024" cy="262.543" r="4" fill="#0" id="circle19"/>
	<circle cx="150.691" cy="150.691" r="4" fill="#0" id="circle20"/>
	<circle cx="165.36" cy="262.543" r="4" fill="#0" id="circle21"/>
	<circle cx="169.028" cy="150.691" r="4" fill="#0" id="circle22"/>
	<circle cx="183.697" cy="262.543" r="4" fill="#0" id="circle23"/>
	<circle cx="187.364" cy="150.691" r="4" fill="#0" id="circle24"/>
	<circle cx="202.033" cy="262.543" r="4" fill="#0" id="circle25"/>
	<circle cx="205.701" cy="150.691" r="4" fill="#0" id="circle26"/>
	<circle cx="220.37" cy="262.543" r="4" fill="#0" id="circle27"/>
	<circle cx="224.037" cy="150.691" r="4" fill="#0" id="circle28"/>
	<circle cx="238.706" cy="262.543" r="4" fill="#0" id="circle29"/>
	<circle cx="242.373" cy="150.691" r="4" fill="#0" id="circle30"/>
	<circle cx="257.043" cy="262.543" r="4" fill="#0" id="circle31"/>
	<circle cx="260.71" cy="150.691" r="4" fill="#0" id="circle32"/>
	<circle cx="275.379" cy="262.543" r="4" fill="#0" id="circle33"/>
	<circle cx="279.046" cy="150.691" r="4" fill="#0" id="circle34"/>
	<circle cx="293.715" cy="262.543" r="4" fill="#0" id="circle35"/>
	<circle cx="297.383" cy="150.691" r="4" fill="#0" id="circle36"/>
	<circle cx="312.052" cy="262.543" r="4" fill="#0" id="circle37"/>
	<circle cx="315.719" cy="150.691" r="4" fill="#0" id="circle38"/>
	<circle cx="330.388" cy="262.543" r="4" fill="#0" id="circle39"/>
	<circle cx="334.055" cy="150.691" r="4" fill="#0" id="circle40"/>
	<circle cx="348.725" cy="262.543" r="4" fill="#0" id="circle41"/>
	<circle cx="352.392" cy="150.691" r="4" fill="#0" id="circle42"/>
	<circle cx="367.061" cy="262.543" r="4" fill="#0" id="circle43"/>
	<circle cx="370.728" cy="150.691" r="4" fill="#0" id="circle44"/>
	<circle cx="385.397" cy="262.543" r="4" fill="#0" id="circle45"/>
	<circle cx="389.065" cy="150.691" r="4" fill="#0" id="circle46"/>
	<circle cx="403.734" cy="262.543" r="4" fill="#0" id="circle47"/>
	<circle cx="407.401" cy="150.691" r="4" fill="#0" id="circle48"/>
	<circle cx="422.07" cy="262.543" r="4" fill="#0" id="circle49"/>
	<circle cx="425.738" cy="150.691" r="4" fill="#0" id="circle50"/>
	<circle cx="440.407" cy="262.543" r="4" fill="#0" id="circle51"/>
	<circle cx="444.074" cy="150.691" r="4" fill="#0" id="circle52"/>
	<circle cx="458.743" cy="262.543" r="4" fill="#0" id="circle53"/>
	<circle cx="462.41" cy="150.691" r="4" fill="#0" id="circle54"/>
	<circle cx="477.079" cy="262.543" r="4" fill="#0" id="circle55"/>
	<circle cx="480.747" cy="150.691" r="4" fill="#0" id="circle56"/>
	<circle cx="495.416" cy="262.543" r="4" fill="#0" id="circle57"/>
	<circle cx="499.083" cy="150.691" r="4" fill="#0" id="circle58"/>
	<circle cx="513.752" cy="262.543" r="4" fill="#0" id="circle59"/>
	<circle cx="517.42" cy="150.691" r="4" fill="#0" id="circle60"/>
	<circle cx="532.089" cy="262.543" r="4" fill="#0" id="circle61"/>
	<circle cx="535.756" cy="150.691" r="4" fill="#0" id="circle62"/>
	<circle cx="550.425" cy="262.543" r="4" fill="#0" id="circle63"/>
	<circle cx="554.092" cy="150.691" r="4" fill="#0" id="circle64"/>
	<circle cx="568.762" cy="262.543" r="4" fill="#0" id="circle65"/>
	<circle cx="572.429" cy="150.691" r="4" fill="#0" id="circle66"/>
	<circle cx="587.098" cy="262.543" r="4" fill="#0" id="circle67"/>
	<circle cx="590.765" cy="150.691" r="4" fill="#0" id="circle68"/>
	<circle cx="605.434" cy="262.543" r="4" fill="#0" id="circle69"/>
	<circle cx="609.102" cy="150.691" r="4" fill="#0" id="circle70"/>
	<circle cx="623.771" cy="262.543" r="4" fill="#0" id="circle71"/>
	<circle cx="627.438" cy="150.691" r="4" fill="#0" id="circle72"/>
	<circle cx="642.107" cy="262.543" r="4" fill="#0" id="circle73"/>
	<circle cx="645.774" cy="150.691" r="4" fill="#0" id="circle74"/>
	<circle cx="660.444" cy="262.543" r="4" fill="#0" id="circle75"/>
	<circle cx="664.111" cy="150.691" r="4" fill="#0" id="circle76"/>
	<circle cx="678.78" cy="262.543" r="4" fill="#0" id="circle77"/>
	<circle cx="682.447" cy="150.691" r="4" fill="#0" id="circle78"/>
	<circle cx="697.116" cy="262.543" r="4" fill="#0" id="circle79"/>
	<circle cx="700.784" cy="150.691" r="4" fill="#0" id="circle80"/>
	<circle cx="715.453" cy="262.543" r="4" fill="#0" id="circle81"/>
	<circle cx="719.12" cy="150.691" r="4" fill="#0" id="circle82"/>
	<circle cx="733.789" cy="262.543" r="4" fill="#0" id="circle83"/>
	<circle cx="737.457" cy="150.691" r="4" fill="#0" id="circle84"/>
	<circle cx="752.126" cy="262.543" r="4" fill="#0" id="circle85"/>
	<circle cx="755.793" cy="150.691" r="4" fill="#0" id="circle86"/>
	<circle cx="764.961" cy="458.743" r="4" fill="#0" id="circle87"/>
	<circle cx="770.462" cy="262.543" r="4" fill="#0" id="circle88"/>
	<circle cx="774.129" cy="18.6691" r="4" fill="#0" id="circle89"/>
	<circle cx="774.129" cy="46.1738" r="4" fill="#0" id="circle90"/>
	<circle cx="774.129" cy="73.6784" r="4" fill="#0" id="circle91"/>
	<circle cx="774.129" cy="110.351" r="4" fill="#0" id="circle92"/>
	<circle cx="774.129" cy="150.691" r="4" fill="#0" id="circle93"/>
	<circle cx="774.129" cy="431.238" r="4" fill="#0" id="circle94"/>
	<circle cx="783.298" cy="90.1811" r="4" fill="#0" id="circle95"/>
	<circle cx="783.298" cy="126.854" r="4" fill="#0" id="circle96"/>
	<circle cx="783.298" cy="385.397" r="4" fill="#0" id="circle97"/>
	<circle cx="783.298" cy="403.734" r="4" fill="#0" id="circle98"/>
	<circle cx="783.298" cy="464.244" r="4" fill="#0" id="circle99"/>
	<circle cx="788.799" cy="4" r="4" fill="#0" id="circle100"/>
	<circle cx="788.799" cy="262.543" r="4" fill="#0" id="circle101"/>
	<circle cx="792.466" cy="147.024" r="4" fill="#0" id="circle102"/>
	<circle cx="792.466" cy="312.052" r="4" fill="#0" id="circle103"/>
	<circle cx="792.466" cy="339.556" r="4" fill="#0" id="circle104"/>
	<circle cx="792.466" cy="357.893" r="4" fill="#0" id="circle105"/>
	<circle cx="801.634" cy="125.02" r="4" fill="#0" id="circle106"/>
	<circle cx="801.634" cy="277.213" r="4" fill="#0" id="circle107"/>
	<circle cx="801.634" cy="295.549" r="4" fill="#0" id="circle108"/>
	<circle cx="801.634" cy="458.743" r="4" fill="#0" id="circle109"/>
	<circle cx="807.135" cy="4" r="4" fill="#0" id="circle110"/>
	<circle cx="819.97" cy="449.575" r="4" fill="#0" id="circle111"/>
	<circle cx="825.471" cy="4" r="4" fill="#0" id="circle112"/>
	<circle cx="838.307" cy="440.407" r="4" fill="#0" id="circle113"/>
	<circle cx="843.808" cy="4" r="4" fill="#0" id="circle114"/>
	<circle cx="856.643" cy="431.238" r="4" fill="#0" id="circle115"/>
	<circle cx="862.144" cy="4" r="4" fill="#0" id="circle116"/>
	<circle cx="871.312" cy="418.403" r="4" fill="#0" id="circle117"/>
	<circle cx="880.481" cy="4" r="4" fill="#0" id="circle118"/>
	<circle cx="887.815" cy="409.235" r="4" fill="#0" id="circle119"/>
	<circle cx="898.817" cy="4" r="4" fill="#0" id="circle120"/>
	<circle cx="902.484" cy="394.566" r="4" fill="#0" id="circle121"/>
	<circle cx="917.153" cy="4" r="4" fill="#0" id="circle122"/>
	<circle cx="917.153" cy="379.896" r="4" fill="#0" id="circle123"/>
	<circle cx="926.322" cy="361.56" r="4" fill="#0" id="circle124"/>
	<circle cx="935.49" cy="4" r="4" fill="#0" id="circle125"/>
	<circle cx="935.49" cy="343.224" r="4" fill="#0" id="circle126"/>
	<circle cx="950.159" cy="317.553" r="4" fill="#0" id="circle127"/>
	<circle cx="953.826" cy="4" r="4" fill="#0" id="circle128"/>
	<circle cx="959.327" cy="299.216" r="4" fill="#0" id="circle129"/>
	<circle cx="968.495" cy="280.88" r="4" fill="#0" id="circle130"/>
	<circle cx="972.163" cy="4" r="4" fill="#0" id="circle131"/>
	<circle cx="977.664" cy="134.189" r="4" fill="#0" id="circle132"/>
	<circle cx="977.664" cy="161.693" r="4" fill="#0" id="circle133"/>
	<circle cx="977.664" cy="180.03" r="4" fill="#0" id="circle134"/>
	<circle cx="977.664" cy="198.366" r="4" fill="#0" id="circle135"/>
	<circle cx="977.664" cy="216.702" r="4" fill="#0" id="circle136"/>
	<circle cx="977.664" cy="235.039" r="4" fill="#0" id="circle137"/>
	<circle cx="977.664" cy="253.375" r="4" fill="#0" id="circle138"/>
	<circle cx="990.499" cy="4" r="4" fill="#0" id="circle139"/>
	<circle cx="994.166" cy="125.02" r="4" fill="#0" id="circle140"/>
	<circle cx="996" cy="22.3364" r="4" fill="#0" id="circle141"/>
	<circle cx="996" cy="40.6728" r="4" fill="#0" id="circle142"/>
	<circle cx="996" cy="60.8429" r="4" fill="#0" id="circle143"/>
	<circle cx="996" cy="88.3475" r="4" fill="#0" id="circle144"/>
	<circle cx="996" cy="106.684" r="4" fill="#0" id="circle145"/>
	</g>
</svg>