<?xml version="1.0" encoding="UTF-8" standalone="no"?>
<!-- Created with CurveBenchmark -->
<svg
	xmlns:dc="http://purl.org/dc/elements/1.1/"
	xmlns:cc="http://creativecommons.org/ns#"
	xmlns:rdf="http://www.w3.org/1999/02/22-rdf-syntax-ns#"
	xmlns:svg="http://www.w3.org/2000/svg"
	xmlns="http://www.w3.org/2000/svg"
	xmlns:sodipodi="http://sodipodi.sourceforge.net/DTD/sodipodi-0.dtd"
	xmlns:inkscape="http://www.inkscape.org/namespaces/inkscape"
	width="1000"
	height="1000"
	id="svg2"
	version="1.1"
	sodipodi:docname="manifold/peel-fish155.png.txt">
<defs
	id="defs4" />
<metadata
	id="metadata7">
	<rdf:RDF>
		<cc:Work
			rdf:about="">
			<dc:format>image/svg+xml</dc:format>
			<dc:type
				rdf:resource="http://purl.org/dc/dcmitype/StillImage" />
			<dc:title></dc:title>
		</cc:Work>
	</rdf:RDF>
</metadata>
<g
	inkscape:label="Layer 1"
	inkscape:groupmode="layer"
	id="layer1">
	<path style="fill:none;stroke:red;stroke-width:1px;stroke-linecap:butt;stroke-linejoin:miter;stroke-opacity:1" d="M 16.2469,199.951 10.1235,169.333 z" id="boundary" inkscape:connector-curvature="0" />
	<path style="fill:none;stroke:red;stroke-width:1px;stroke-linecap:butt;stroke-linejoin:miter;stroke-opacity:1" d="M 10.1235,169.333 4,138.716 z" id="boundary" inkscape:connector-curvature="0" />
	<path style="fill:none;stroke:red;stroke-width:1px;stroke-linecap:butt;stroke-linejoin:miter;stroke-opacity:1" d="M 16.2469,304.049 4,346.914 z" id="boundary" inkscape:connector-curvature="0" />
	<path style="fill:none;stroke:red;stroke-width:1px;stroke-linecap:butt;stroke-linejoin:miter;stroke-opacity:1" d="M 4,138.716 34.6173,132.593 z" id="boundary" inkscape:connector-curvature="0" />
	<path style="fill:none;stroke:red;stroke-width:1px;stroke-linecap:butt;stroke-linejoin:miter;stroke-opacity:1" d="M 22.3704,230.568 22.3704,261.185 z" id="boundary" inkscape:connector-curvature="0" />
	<path style="fill:none;stroke:red;stroke-width:1px;stroke-linecap:butt;stroke-linejoin:miter;stroke-opacity:1" d="M 22.3704,230.568 16.2469,199.951 z" id="boundary" inkscape:connector-curvature="0" />
	<path style="fill:none;stroke:red;stroke-width:1px;stroke-linecap:butt;stroke-linejoin:miter;stroke-opacity:1" d="M 28.4938,368.346 4,346.914 z" id="boundary" inkscape:connector-curvature="0" />
	<path style="fill:none;stroke:red;stroke-width:1px;stroke-linecap:butt;stroke-linejoin:miter;stroke-opacity:1" d="M 34.6173,132.593 65.2346,141.778 z" id="boundary" inkscape:connector-curvature="0" />
	<path style="fill:none;stroke:red;stroke-width:1px;stroke-linecap:butt;stroke-linejoin:miter;stroke-opacity:1" d="M 22.3704,261.185 16.2469,304.049 z" id="boundary" inkscape:connector-curvature="0" />
	<path style="fill:none;stroke:red;stroke-width:1px;stroke-linecap:butt;stroke-linejoin:miter;stroke-opacity:1" d="M 65.2346,141.778 95.8519,154.025 z" id="boundary" inkscape:connector-curvature="0" />
	<path style="fill:none;stroke:red;stroke-width:1px;stroke-linecap:butt;stroke-linejoin:miter;stroke-opacity:1" d="M 59.1111,368.346 28.4938,368.346 z" id="boundary" inkscape:connector-curvature="0" />
	<path style="fill:none;stroke:red;stroke-width:1px;stroke-linecap:butt;stroke-linejoin:miter;stroke-opacity:1" d="M 95.8519,154.025 123.407,169.333 z" id="boundary" inkscape:connector-curvature="0" />
	<path style="fill:none;stroke:red;stroke-width:1px;stroke-linecap:butt;stroke-linejoin:miter;stroke-opacity:1" d="M 242.815,386.716 273.432,398.963 z" id="boundary" inkscape:connector-curvature="0" />
	<path style="fill:none;stroke:red;stroke-width:1px;stroke-linecap:butt;stroke-linejoin:miter;stroke-opacity:1" d="M 300.988,98.9136 276.494,117.284 z" id="boundary" inkscape:connector-curvature="0" />
	<path style="fill:none;stroke:red;stroke-width:1px;stroke-linecap:butt;stroke-linejoin:miter;stroke-opacity:1" d="M 89.7284,356.099 59.1111,368.346 z" id="boundary" inkscape:connector-curvature="0" />
	<path style="fill:none;stroke:red;stroke-width:1px;stroke-linecap:butt;stroke-linejoin:miter;stroke-opacity:1" d="M 230.568,356.099 242.815,386.716 z" id="boundary" inkscape:connector-curvature="0" />
	<path style="fill:none;stroke:red;stroke-width:1px;stroke-linecap:butt;stroke-linejoin:miter;stroke-opacity:1" d="M 120.346,343.852 89.7284,356.099 z" id="boundary" inkscape:connector-curvature="0" />
	<path style="fill:none;stroke:red;stroke-width:1px;stroke-linecap:butt;stroke-linejoin:miter;stroke-opacity:1" d="M 144.84,325.481 120.346,343.852 z" id="boundary" inkscape:connector-curvature="0" />
	<path style="fill:none;stroke:red;stroke-width:1px;stroke-linecap:butt;stroke-linejoin:miter;stroke-opacity:1" d="M 154.025,181.58 123.407,169.333 z" id="boundary" inkscape:connector-curvature="0" />
	<path style="fill:none;stroke:red;stroke-width:1px;stroke-linecap:butt;stroke-linejoin:miter;stroke-opacity:1" d="M 169.333,307.111 144.84,325.481 z" id="boundary" inkscape:connector-curvature="0" />
	<path style="fill:none;stroke:red;stroke-width:1px;stroke-linecap:butt;stroke-linejoin:miter;stroke-opacity:1" d="M 181.58,196.889 154.025,181.58 z" id="boundary" inkscape:connector-curvature="0" />
	<path style="fill:none;stroke:red;stroke-width:1px;stroke-linecap:butt;stroke-linejoin:miter;stroke-opacity:1" d="M 199.951,300.988 218.321,325.481 z" id="boundary" inkscape:connector-curvature="0" />
	<path style="fill:none;stroke:red;stroke-width:1px;stroke-linecap:butt;stroke-linejoin:miter;stroke-opacity:1" d="M 199.951,300.988 169.333,307.111 z" id="boundary" inkscape:connector-curvature="0" />
	<path style="fill:none;stroke:red;stroke-width:1px;stroke-linecap:butt;stroke-linejoin:miter;stroke-opacity:1" d="M 212.198,193.827 181.58,196.889 z" id="boundary" inkscape:connector-curvature="0" />
	<path style="fill:none;stroke:red;stroke-width:1px;stroke-linecap:butt;stroke-linejoin:miter;stroke-opacity:1" d="M 218.321,325.481 230.568,356.099 z" id="boundary" inkscape:connector-curvature="0" />
	<path style="fill:none;stroke:red;stroke-width:1px;stroke-linecap:butt;stroke-linejoin:miter;stroke-opacity:1" d="M 227.506,166.272 252,141.778 z" id="boundary" inkscape:connector-curvature="0" />
	<path style="fill:none;stroke:red;stroke-width:1px;stroke-linecap:butt;stroke-linejoin:miter;stroke-opacity:1" d="M 227.506,166.272 212.198,193.827 z" id="boundary" inkscape:connector-curvature="0" />
	<path style="fill:none;stroke:red;stroke-width:1px;stroke-linecap:butt;stroke-linejoin:miter;stroke-opacity:1" d="M 536.741,475.506 561.235,496.938 z" id="boundary" inkscape:connector-curvature="0" />
	<path style="fill:none;stroke:red;stroke-width:1px;stroke-linecap:butt;stroke-linejoin:miter;stroke-opacity:1" d="M 252,141.778 276.494,117.284 z" id="boundary" inkscape:connector-curvature="0" />
	<path style="fill:none;stroke:red;stroke-width:1px;stroke-linecap:butt;stroke-linejoin:miter;stroke-opacity:1" d="M 359.16,89.7284 389.778,101.975 z" id="boundary" inkscape:connector-curvature="0" />
	<path style="fill:none;stroke:red;stroke-width:1px;stroke-linecap:butt;stroke-linejoin:miter;stroke-opacity:1" d="M 304.049,398.963 273.432,398.963 z" id="boundary" inkscape:connector-curvature="0" />
	<path style="fill:none;stroke:red;stroke-width:1px;stroke-linecap:butt;stroke-linejoin:miter;stroke-opacity:1" d="M 328.543,83.6049 359.16,89.7284 z" id="boundary" inkscape:connector-curvature="0" />
	<path style="fill:none;stroke:red;stroke-width:1px;stroke-linecap:butt;stroke-linejoin:miter;stroke-opacity:1" d="M 328.543,83.6049 300.988,98.9136 z" id="boundary" inkscape:connector-curvature="0" />
	<path style="fill:none;stroke:red;stroke-width:1px;stroke-linecap:butt;stroke-linejoin:miter;stroke-opacity:1" d="M 334.667,392.84 304.049,398.963 z" id="boundary" inkscape:connector-curvature="0" />
	<path style="fill:none;stroke:red;stroke-width:1px;stroke-linecap:butt;stroke-linejoin:miter;stroke-opacity:1" d="M 536.741,414.272 536.741,444.889 z" id="boundary" inkscape:connector-curvature="0" />
	<path style="fill:none;stroke:red;stroke-width:1px;stroke-linecap:butt;stroke-linejoin:miter;stroke-opacity:1" d="M 365.284,380.593 334.667,392.84 z" id="boundary" inkscape:connector-curvature="0" />
	<path style="fill:none;stroke:red;stroke-width:1px;stroke-linecap:butt;stroke-linejoin:miter;stroke-opacity:1" d="M 389.778,101.975 420.395,114.222 z" id="boundary" inkscape:connector-curvature="0" />
	<path style="fill:none;stroke:red;stroke-width:1px;stroke-linecap:butt;stroke-linejoin:miter;stroke-opacity:1" d="M 395.901,374.469 426.519,380.593 z" id="boundary" inkscape:connector-curvature="0" />
	<path style="fill:none;stroke:red;stroke-width:1px;stroke-linecap:butt;stroke-linejoin:miter;stroke-opacity:1" d="M 395.901,374.469 365.284,380.593 z" id="boundary" inkscape:connector-curvature="0" />
	<path style="fill:none;stroke:red;stroke-width:1px;stroke-linecap:butt;stroke-linejoin:miter;stroke-opacity:1" d="M 444.889,89.7284 472.444,74.4198 z" id="boundary" inkscape:connector-curvature="0" />
	<path style="fill:none;stroke:red;stroke-width:1px;stroke-linecap:butt;stroke-linejoin:miter;stroke-opacity:1" d="M 444.889,89.7284 420.395,114.222 z" id="boundary" inkscape:connector-curvature="0" />
	<path style="fill:none;stroke:red;stroke-width:1px;stroke-linecap:butt;stroke-linejoin:miter;stroke-opacity:1" d="M 487.753,383.654 457.136,380.593 z" id="boundary" inkscape:connector-curvature="0" />
	<path style="fill:none;stroke:red;stroke-width:1px;stroke-linecap:butt;stroke-linejoin:miter;stroke-opacity:1" d="M 457.136,380.593 426.519,380.593 z" id="boundary" inkscape:connector-curvature="0" />
	<path style="fill:none;stroke:red;stroke-width:1px;stroke-linecap:butt;stroke-linejoin:miter;stroke-opacity:1" d="M 487.753,383.654 518.37,386.716 z" id="boundary" inkscape:connector-curvature="0" />
	<path style="fill:none;stroke:red;stroke-width:1px;stroke-linecap:butt;stroke-linejoin:miter;stroke-opacity:1" d="M 500,59.1111 472.444,74.4198 z" id="boundary" inkscape:connector-curvature="0" />
	<path style="fill:none;stroke:red;stroke-width:1px;stroke-linecap:butt;stroke-linejoin:miter;stroke-opacity:1" d="M 536.741,475.506 536.741,444.889 z" id="boundary" inkscape:connector-curvature="0" />
	<path style="fill:none;stroke:red;stroke-width:1px;stroke-linecap:butt;stroke-linejoin:miter;stroke-opacity:1" d="M 524.494,40.7407 555.111,31.5556 z" id="boundary" inkscape:connector-curvature="0" />
	<path style="fill:none;stroke:red;stroke-width:1px;stroke-linecap:butt;stroke-linejoin:miter;stroke-opacity:1" d="M 524.494,40.7407 500,59.1111 z" id="boundary" inkscape:connector-curvature="0" />
	<path style="fill:none;stroke:red;stroke-width:1px;stroke-linecap:butt;stroke-linejoin:miter;stroke-opacity:1" d="M 555.111,31.5556 585.728,22.3704 z" id="boundary" inkscape:connector-curvature="0" />
	<path style="fill:none;stroke:red;stroke-width:1px;stroke-linecap:butt;stroke-linejoin:miter;stroke-opacity:1" d="M 552.049,386.716 536.741,414.272 z" id="boundary" inkscape:connector-curvature="0" />
	<path style="fill:none;stroke:red;stroke-width:1px;stroke-linecap:butt;stroke-linejoin:miter;stroke-opacity:1" d="M 680.642,56.0494 665.333,28.4938 z" id="boundary" inkscape:connector-curvature="0" />
	<path style="fill:none;stroke:red;stroke-width:1px;stroke-linecap:butt;stroke-linejoin:miter;stroke-opacity:1" d="M 665.333,28.4938 646.963,4 z" id="boundary" inkscape:connector-curvature="0" />
	<path style="fill:none;stroke:red;stroke-width:1px;stroke-linecap:butt;stroke-linejoin:miter;stroke-opacity:1" d="M 646.963,4 616.346,10.1235 z" id="boundary" inkscape:connector-curvature="0" />
	<path style="fill:none;stroke:red;stroke-width:1px;stroke-linecap:butt;stroke-linejoin:miter;stroke-opacity:1" d="M 591.852,490.815 561.235,496.938 z" id="boundary" inkscape:connector-curvature="0" />
	<path style="fill:none;stroke:red;stroke-width:1px;stroke-linecap:butt;stroke-linejoin:miter;stroke-opacity:1" d="M 585.728,22.3704 616.346,10.1235 z" id="boundary" inkscape:connector-curvature="0" />
	<path style="fill:none;stroke:red;stroke-width:1px;stroke-linecap:butt;stroke-linejoin:miter;stroke-opacity:1" d="M 622.469,493.877 591.852,490.815 z" id="boundary" inkscape:connector-curvature="0" />
	<path style="fill:none;stroke:red;stroke-width:1px;stroke-linecap:butt;stroke-linejoin:miter;stroke-opacity:1" d="M 702.074,98.9136 680.642,56.0494 z" id="boundary" inkscape:connector-curvature="0" />
	<path style="fill:none;stroke:red;stroke-width:1px;stroke-linecap:butt;stroke-linejoin:miter;stroke-opacity:1" d="M 653.086,496.938 622.469,493.877 z" id="boundary" inkscape:connector-curvature="0" />
	<path style="fill:none;stroke:red;stroke-width:1px;stroke-linecap:butt;stroke-linejoin:miter;stroke-opacity:1" d="M 677.58,478.568 653.086,496.938 z" id="boundary" inkscape:connector-curvature="0" />
	<path style="fill:none;stroke:red;stroke-width:1px;stroke-linecap:butt;stroke-linejoin:miter;stroke-opacity:1" d="M 699.012,451.012 677.58,478.568 z" id="boundary" inkscape:connector-curvature="0" />
	<path style="fill:none;stroke:red;stroke-width:1px;stroke-linecap:butt;stroke-linejoin:miter;stroke-opacity:1" d="M 702.074,98.9136 729.63,114.222 z" id="boundary" inkscape:connector-curvature="0" />
	<path style="fill:none;stroke:red;stroke-width:1px;stroke-linecap:butt;stroke-linejoin:miter;stroke-opacity:1" d="M 757.185,392.84 787.802,380.593 z" id="boundary" inkscape:connector-curvature="0" />
	<path style="fill:none;stroke:red;stroke-width:1px;stroke-linecap:butt;stroke-linejoin:miter;stroke-opacity:1" d="M 714.321,423.457 699.012,451.012 z" id="boundary" inkscape:connector-curvature="0" />
	<path style="fill:none;stroke:red;stroke-width:1px;stroke-linecap:butt;stroke-linejoin:miter;stroke-opacity:1" d="M 726.568,392.84 714.321,423.457 z" id="boundary" inkscape:connector-curvature="0" />
	<path style="fill:none;stroke:red;stroke-width:1px;stroke-linecap:butt;stroke-linejoin:miter;stroke-opacity:1" d="M 757.185,392.84 726.568,392.84 z" id="boundary" inkscape:connector-curvature="0" />
	<path style="fill:none;stroke:red;stroke-width:1px;stroke-linecap:butt;stroke-linejoin:miter;stroke-opacity:1" d="M 760.247,120.346 729.63,114.222 z" id="boundary" inkscape:connector-curvature="0" />
	<path style="fill:none;stroke:red;stroke-width:1px;stroke-linecap:butt;stroke-linejoin:miter;stroke-opacity:1" d="M 787.802,380.593 818.42,368.346 z" id="boundary" inkscape:connector-curvature="0" />
	<path style="fill:none;stroke:red;stroke-width:1px;stroke-linecap:butt;stroke-linejoin:miter;stroke-opacity:1" d="M 790.864,126.469 760.247,120.346 z" id="boundary" inkscape:connector-curvature="0" />
	<path style="fill:none;stroke:red;stroke-width:1px;stroke-linecap:butt;stroke-linejoin:miter;stroke-opacity:1" d="M 821.481,138.716 790.864,126.469 z" id="boundary" inkscape:connector-curvature="0" />
	<path style="fill:none;stroke:red;stroke-width:1px;stroke-linecap:butt;stroke-linejoin:miter;stroke-opacity:1" d="M 849.037,356.099 879.654,349.975 z" id="boundary" inkscape:connector-curvature="0" />
	<path style="fill:none;stroke:red;stroke-width:1px;stroke-linecap:butt;stroke-linejoin:miter;stroke-opacity:1" d="M 849.037,356.099 818.42,368.346 z" id="boundary" inkscape:connector-curvature="0" />
	<path style="fill:none;stroke:red;stroke-width:1px;stroke-linecap:butt;stroke-linejoin:miter;stroke-opacity:1" d="M 852.099,150.963 821.481,138.716 z" id="boundary" inkscape:connector-curvature="0" />
	<path style="fill:none;stroke:red;stroke-width:1px;stroke-linecap:butt;stroke-linejoin:miter;stroke-opacity:1" d="M 882.716,163.21 852.099,150.963 z" id="boundary" inkscape:connector-curvature="0" />
	<path style="fill:none;stroke:red;stroke-width:1px;stroke-linecap:butt;stroke-linejoin:miter;stroke-opacity:1" d="M 907.21,334.667 879.654,349.975 z" id="boundary" inkscape:connector-curvature="0" />
	<path style="fill:none;stroke:red;stroke-width:1px;stroke-linecap:butt;stroke-linejoin:miter;stroke-opacity:1" d="M 910.272,178.519 882.716,163.21 z" id="boundary" inkscape:connector-curvature="0" />
	<path style="fill:none;stroke:red;stroke-width:1px;stroke-linecap:butt;stroke-linejoin:miter;stroke-opacity:1" d="M 931.704,316.296 907.21,334.667 z" id="boundary" inkscape:connector-curvature="0" />
	<path style="fill:none;stroke:red;stroke-width:1px;stroke-linecap:butt;stroke-linejoin:miter;stroke-opacity:1" d="M 940.889,190.765 910.272,178.519 z" id="boundary" inkscape:connector-curvature="0" />
	<path style="fill:none;stroke:red;stroke-width:1px;stroke-linecap:butt;stroke-linejoin:miter;stroke-opacity:1" d="M 956.198,291.802 931.704,316.296 z" id="boundary" inkscape:connector-curvature="0" />
	<path style="fill:none;stroke:red;stroke-width:1px;stroke-linecap:butt;stroke-linejoin:miter;stroke-opacity:1" d="M 968.444,206.074 940.889,190.765 z" id="boundary" inkscape:connector-curvature="0" />
	<path style="fill:none;stroke:red;stroke-width:1px;stroke-linecap:butt;stroke-linejoin:miter;stroke-opacity:1" d="M 974.568,267.309 956.198,291.802 z" id="boundary" inkscape:connector-curvature="0" />
	<path style="fill:none;stroke:red;stroke-width:1px;stroke-linecap:butt;stroke-linejoin:miter;stroke-opacity:1" d="M 996,221.383 974.568,267.309 z" id="boundary" inkscape:connector-curvature="0" />
	<path style="fill:none;stroke:red;stroke-width:1px;stroke-linecap:butt;stroke-linejoin:miter;stroke-opacity:1" d="M 996,221.383 968.444,206.074 z" id="boundary" inkscape:connector-curvature="0" />
	<circle cx="4" cy="138.716" r="4" fill="#0" id="circle0"/>
	<circle cx="4" cy="346.914" r="4" fill="#0" id="circle1"/>
	<circle cx="10.1235" cy="169.333" r="4" fill="#0" id="circle2"/>
	<circle cx="16.2469" cy="199.951" r="4" fill="#0" id="circle3"/>
	<circle cx="16.2469" cy="304.049" r="4" fill="#0" id="circle4"/>
	<circle cx="22.3704" cy="230.568" r="4" fill="#0" id="circle5"/>
	<circle cx="22.3704" cy="261.185" r="4" fill="#0" id="circle6"/>
	<circle cx="28.4938" cy="368.346" r="4" fill="#0" id="circle7"/>
	<circle cx="34.6173" cy="132.593" r="4" fill="#0" id="circle8"/>
	<circle cx="59.1111" cy="368.346" r="4" fill="#0" id="circle9"/>
	<circle cx="65.2346" cy="141.778" r="4" fill="#0" id="circle10"/>
	<circle cx="89.7284" cy="356.099" r="4" fill="#0" id="circle11"/>
	<circle cx="95.8519" cy="154.025" r="4" fill="#0" id="circle12"/>
	<circle cx="120.346" cy="343.852" r="4" fill="#0" id="circle13"/>
	<circle cx="123.407" cy="169.333" r="4" fill="#0" id="circle14"/>
	<circle cx="144.84" cy="325.481" r="4" fill="#0" id="circle15"/>
	<circle cx="154.025" cy="181.58" r="4" fill="#0" id="circle16"/>
	<circle cx="169.333" cy="307.111" r="4" fill="#0" id="circle17"/>
	<circle cx="181.58" cy="196.889" r="4" fill="#0" id="circle18"/>
	<circle cx="199.951" cy="300.988" r="4" fill="#0" id="circle19"/>
	<circle cx="212.198" cy="193.827" r="4" fill="#0" id="circle20"/>
	<circle cx="218.321" cy="325.481" r="4" fill="#0" id="circle21"/>
	<circle cx="227.506" cy="166.272" r="4" fill="#0" id="circle22"/>
	<circle cx="230.568" cy="356.099" r="4" fill="#0" id="circle23"/>
	<circle cx="242.815" cy="386.716" r="4" fill="#0" id="circle24"/>
	<circle cx="252" cy="141.778" r="4" fill="#0" id="circle25"/>
	<circle cx="273.432" cy="398.963" r="4" fill="#0" id="circle26"/>
	<circle cx="276.494" cy="117.284" r="4" fill="#0" id="circle27"/>
	<circle cx="300.988" cy="98.9136" r="4" fill="#0" id="circle28"/>
	<circle cx="304.049" cy="398.963" r="4" fill="#0" id="circle29"/>
	<circle cx="328.543" cy="83.6049" r="4" fill="#0" id="circle30"/>
	<circle cx="334.667" cy="392.84" r="4" fill="#0" id="circle31"/>
	<circle cx="359.16" cy="89.7284" r="4" fill="#0" id="circle32"/>
	<circle cx="365.284" cy="380.593" r="4" fill="#0" id="circle33"/>
	<circle cx="389.778" cy="101.975" r="4" fill="#0" id="circle34"/>
	<circle cx="395.901" cy="374.469" r="4" fill="#0" id="circle35"/>
	<circle cx="420.395" cy="114.222" r="4" fill="#0" id="circle36"/>
	<circle cx="426.519" cy="380.593" r="4" fill="#0" id="circle37"/>
	<circle cx="444.889" cy="89.7284" r="4" fill="#0" id="circle38"/>
	<circle cx="457.136" cy="380.593" r="4" fill="#0" id="circle39"/>
	<circle cx="472.444" cy="74.4198" r="4" fill="#0" id="circle40"/>
	<circle cx="487.753" cy="383.654" r="4" fill="#0" id="circle41"/>
	<circle cx="500" cy="59.1111" r="4" fill="#0" id="circle42"/>
	<circle cx="518.37" cy="386.716" r="4" fill="#0" id="circle43"/>
	<circle cx="524.494" cy="40.7407" r="4" fill="#0" id="circle44"/>
	<circle cx="536.741" cy="414.272" r="4" fill="#0" id="circle45"/>
	<circle cx="536.741" cy="444.889" r="4" fill="#0" id="circle46"/>
	<circle cx="536.741" cy="475.506" r="4" fill="#0" id="circle47"/>
	<circle cx="552.049" cy="386.716" r="4" fill="#0" id="circle48"/>
	<circle cx="555.111" cy="31.5556" r="4" fill="#0" id="circle49"/>
	<circle cx="561.235" cy="496.938" r="4" fill="#0" id="circle50"/>
	<circle cx="585.728" cy="22.3704" r="4" fill="#0" id="circle51"/>
	<circle cx="591.852" cy="490.815" r="4" fill="#0" id="circle52"/>
	<circle cx="616.346" cy="10.1235" r="4" fill="#0" id="circle53"/>
	<circle cx="622.469" cy="493.877" r="4" fill="#0" id="circle54"/>
	<circle cx="646.963" cy="4" r="4" fill="#0" id="circle55"/>
	<circle cx="653.086" cy="496.938" r="4" fill="#0" id="circle56"/>
	<circle cx="665.333" cy="28.4938" r="4" fill="#0" id="circle57"/>
	<circle cx="677.58" cy="478.568" r="4" fill="#0" id="circle58"/>
	<circle cx="680.642" cy="56.0494" r="4" fill="#0" id="circle59"/>
	<circle cx="699.012" cy="451.012" r="4" fill="#0" id="circle60"/>
	<circle cx="702.074" cy="98.9136" r="4" fill="#0" id="circle61"/>
	<circle cx="714.321" cy="423.457" r="4" fill="#0" id="circle62"/>
	<circle cx="726.568" cy="392.84" r="4" fill="#0" id="circle63"/>
	<circle cx="729.63" cy="114.222" r="4" fill="#0" id="circle64"/>
	<circle cx="757.185" cy="392.84" r="4" fill="#0" id="circle65"/>
	<circle cx="760.247" cy="120.346" r="4" fill="#0" id="circle66"/>
	<circle cx="787.802" cy="380.593" r="4" fill="#0" id="circle67"/>
	<circle cx="790.864" cy="126.469" r="4" fill="#0" id="circle68"/>
	<circle cx="818.42" cy="368.346" r="4" fill="#0" id="circle69"/>
	<circle cx="821.481" cy="138.716" r="4" fill="#0" id="circle70"/>
	<circle cx="849.037" cy="356.099" r="4" fill="#0" id="circle71"/>
	<circle cx="852.099" cy="150.963" r="4" fill="#0" id="circle72"/>
	<circle cx="879.654" cy="349.975" r="4" fill="#0" id="circle73"/>
	<circle cx="882.716" cy="163.21" r="4" fill="#0" id="circle74"/>
	<circle cx="907.21" cy="334.667" r="4" fill="#0" id="circle75"/>
	<circle cx="910.272" cy="178.519" r="4" fill="#0" id="circle76"/>
	<circle cx="931.704" cy="316.296" r="4" fill="#0" id="circle77"/>
	<circle cx="940.889" cy="190.765" r="4" fill="#0" id="circle78"/>
	<circle cx="956.198" cy="291.802" r="4" fill="#0" id="circle79"/>
	<circle cx="968.444" cy="206.074" r="4" fill="#0" id="circle80"/>
	<circle cx="974.568" cy="267.309" r="4" fill="#0" id="circle81"/>
	<circle cx="996" cy="221.383" r="4" fill="#0" id="circle82"/>
	</g>
</svg>