<?xml version="1.0" encoding="UTF-8" standalone="no"?>
<!-- Created with CurveBenchmark -->
<svg
	xmlns:dc="http://purl.org/dc/elements/1.1/"
	xmlns:cc="http://creativecommons.org/ns#"
	xmlns:rdf="http://www.w3.org/1999/02/22-rdf-syntax-ns#"
	xmlns:svg="http://www.w3.org/2000/svg"
	xmlns="http://www.w3.org/2000/svg"
	xmlns:sodipodi="http://sodipodi.sourceforge.net/DTD/sodipodi-0.dtd"
	xmlns:inkscape="http://www.inkscape.org/namespaces/inkscape"
	width="1000"
	height="1000"
	id="svg2"
	version="1.1"
	sodipodi:docname="manifold/peel-cat43.png.txt">
<defs
	id="defs4" />
<metadata
	id="metadata7">
	<rdf:RDF>
		<cc:Work
			rdf:about="">
			<dc:format>image/svg+xml</dc:format>
			<dc:type
				rdf:resource="http://purl.org/dc/dcmitype/StillImage" />
			<dc:title></dc:title>
		</cc:Work>
	</rdf:RDF>
</metadata>
<g
	inkscape:label="Layer 1"
	inkscape:groupmode="layer"
	id="layer1">
	<path style="fill:none;stroke:red;stroke-width:1px;stroke-linecap:butt;stroke-linejoin:miter;stroke-opacity:1" d="M 16.2848,149.882 4,139.133 z" id="boundary" inkscape:connector-curvature="0" />
	<path style="fill:none;stroke:red;stroke-width:1px;stroke-linecap:butt;stroke-linejoin:miter;stroke-opacity:1" d="M 4,139.133 4,123.777 z" id="boundary" inkscape:connector-curvature="0" />
	<path style="fill:none;stroke:red;stroke-width:1px;stroke-linecap:butt;stroke-linejoin:miter;stroke-opacity:1" d="M 4,123.777 16.2848,111.492 z" id="boundary" inkscape:connector-curvature="0" />
	<path style="fill:none;stroke:red;stroke-width:1px;stroke-linecap:butt;stroke-linejoin:miter;stroke-opacity:1" d="M 22.4272,165.238 16.2848,149.882 z" id="boundary" inkscape:connector-curvature="0" />
	<path style="fill:none;stroke:red;stroke-width:1px;stroke-linecap:butt;stroke-linejoin:miter;stroke-opacity:1" d="M 16.2848,111.492 31.6409,103.814 z" id="boundary" inkscape:connector-curvature="0" />
	<path style="fill:none;stroke:red;stroke-width:1px;stroke-linecap:butt;stroke-linejoin:miter;stroke-opacity:1" d="M 46.9969,73.1022 39.3189,88.4582 z" id="boundary" inkscape:connector-curvature="0" />
	<path style="fill:none;stroke:red;stroke-width:1px;stroke-linecap:butt;stroke-linejoin:miter;stroke-opacity:1" d="M 37.7833,171.381 22.4272,165.238 z" id="boundary" inkscape:connector-curvature="0" />
	<path style="fill:none;stroke:red;stroke-width:1px;stroke-linecap:butt;stroke-linejoin:miter;stroke-opacity:1" d="M 39.3189,88.4582 31.6409,103.814 z" id="boundary" inkscape:connector-curvature="0" />
	<path style="fill:none;stroke:red;stroke-width:1px;stroke-linecap:butt;stroke-linejoin:miter;stroke-opacity:1" d="M 68.4954,179.059 83.8514,182.13 z" id="boundary" inkscape:connector-curvature="0" />
	<path style="fill:none;stroke:red;stroke-width:1px;stroke-linecap:butt;stroke-linejoin:miter;stroke-opacity:1" d="M 46.9969,73.1022 59.2817,60.8173 z" id="boundary" inkscape:connector-curvature="0" />
	<path style="fill:none;stroke:red;stroke-width:1px;stroke-linecap:butt;stroke-linejoin:miter;stroke-opacity:1" d="M 53.1393,174.452 37.7833,171.381 z" id="boundary" inkscape:connector-curvature="0" />
	<path style="fill:none;stroke:red;stroke-width:1px;stroke-linecap:butt;stroke-linejoin:miter;stroke-opacity:1" d="M 145.276,242.019 149.882,257.375 z" id="boundary" inkscape:connector-curvature="0" />
	<path style="fill:none;stroke:red;stroke-width:1px;stroke-linecap:butt;stroke-linejoin:miter;stroke-opacity:1" d="M 68.4954,179.059 53.1393,174.452 z" id="boundary" inkscape:connector-curvature="0" />
	<path style="fill:none;stroke:red;stroke-width:1px;stroke-linecap:butt;stroke-linejoin:miter;stroke-opacity:1" d="M 71.5666,50.0681 59.2817,60.8173 z" id="boundary" inkscape:connector-curvature="0" />
	<path style="fill:none;stroke:red;stroke-width:1px;stroke-linecap:butt;stroke-linejoin:miter;stroke-opacity:1" d="M 131.455,212.842 139.133,226.663 z" id="boundary" inkscape:connector-curvature="0" />
	<path style="fill:none;stroke:red;stroke-width:1px;stroke-linecap:butt;stroke-linejoin:miter;stroke-opacity:1" d="M 71.5666,50.0681 80.7802,23.9628 z" id="boundary" inkscape:connector-curvature="0" />
	<path style="fill:none;stroke:red;stroke-width:1px;stroke-linecap:butt;stroke-linejoin:miter;stroke-opacity:1" d="M 80.7802,23.9628 80.7802,8.60681 z" id="boundary" inkscape:connector-curvature="0" />
	<path style="fill:none;stroke:red;stroke-width:1px;stroke-linecap:butt;stroke-linejoin:miter;stroke-opacity:1" d="M 96.1362,4 108.421,13.2136 z" id="boundary" inkscape:connector-curvature="0" />
	<path style="fill:none;stroke:red;stroke-width:1px;stroke-linecap:butt;stroke-linejoin:miter;stroke-opacity:1" d="M 96.1362,4 80.7802,8.60681 z" id="boundary" inkscape:connector-curvature="0" />
	<path style="fill:none;stroke:red;stroke-width:1px;stroke-linecap:butt;stroke-linejoin:miter;stroke-opacity:1" d="M 108.421,13.2136 120.706,23.9628 z" id="boundary" inkscape:connector-curvature="0" />
	<path style="fill:none;stroke:red;stroke-width:1px;stroke-linecap:butt;stroke-linejoin:miter;stroke-opacity:1" d="M 113.028,189.808 126.848,197.486 z" id="boundary" inkscape:connector-curvature="0" />
	<path style="fill:none;stroke:red;stroke-width:1px;stroke-linecap:butt;stroke-linejoin:miter;stroke-opacity:1" d="M 126.848,197.486 131.455,212.842 z" id="boundary" inkscape:connector-curvature="0" />
	<path style="fill:none;stroke:red;stroke-width:1px;stroke-linecap:butt;stroke-linejoin:miter;stroke-opacity:1" d="M 99.2074,182.13 83.8514,182.13 z" id="boundary" inkscape:connector-curvature="0" />
	<path style="fill:none;stroke:red;stroke-width:1px;stroke-linecap:butt;stroke-linejoin:miter;stroke-opacity:1" d="M 113.028,189.808 99.2074,182.13 z" id="boundary" inkscape:connector-curvature="0" />
	<path style="fill:none;stroke:red;stroke-width:1px;stroke-linecap:butt;stroke-linejoin:miter;stroke-opacity:1" d="M 120.706,23.9628 134.526,31.6409 z" id="boundary" inkscape:connector-curvature="0" />
	<path style="fill:none;stroke:red;stroke-width:1px;stroke-linecap:butt;stroke-linejoin:miter;stroke-opacity:1" d="M 159.096,50.0681 149.882,37.7833 z" id="boundary" inkscape:connector-curvature="0" />
	<path style="fill:none;stroke:red;stroke-width:1px;stroke-linecap:butt;stroke-linejoin:miter;stroke-opacity:1" d="M 149.882,37.7833 134.526,31.6409 z" id="boundary" inkscape:connector-curvature="0" />
	<path style="fill:none;stroke:red;stroke-width:1px;stroke-linecap:butt;stroke-linejoin:miter;stroke-opacity:1" d="M 171.381,59.2817 159.096,50.0681 z" id="boundary" inkscape:connector-curvature="0" />
	<path style="fill:none;stroke:red;stroke-width:1px;stroke-linecap:butt;stroke-linejoin:miter;stroke-opacity:1" d="M 139.133,226.663 145.276,242.019 z" id="boundary" inkscape:connector-curvature="0" />
	<path style="fill:none;stroke:red;stroke-width:1px;stroke-linecap:butt;stroke-linejoin:miter;stroke-opacity:1" d="M 182.13,71.5666 171.381,59.2817 z" id="boundary" inkscape:connector-curvature="0" />
	<path style="fill:none;stroke:red;stroke-width:1px;stroke-linecap:butt;stroke-linejoin:miter;stroke-opacity:1" d="M 149.882,257.375 159.096,269.659 z" id="boundary" inkscape:connector-curvature="0" />
	<path style="fill:none;stroke:red;stroke-width:1px;stroke-linecap:butt;stroke-linejoin:miter;stroke-opacity:1" d="M 159.096,269.659 165.238,285.015 z" id="boundary" inkscape:connector-curvature="0" />
	<path style="fill:none;stroke:red;stroke-width:1px;stroke-linecap:butt;stroke-linejoin:miter;stroke-opacity:1" d="M 194.415,82.3158 205.164,94.6006 z" id="boundary" inkscape:connector-curvature="0" />
	<path style="fill:none;stroke:red;stroke-width:1px;stroke-linecap:butt;stroke-linejoin:miter;stroke-opacity:1" d="M 182.13,71.5666 194.415,82.3158 z" id="boundary" inkscape:connector-curvature="0" />
	<path style="fill:none;stroke:red;stroke-width:1px;stroke-linecap:butt;stroke-linejoin:miter;stroke-opacity:1" d="M 205.164,94.6006 220.52,100.743 z" id="boundary" inkscape:connector-curvature="0" />
	<path style="fill:none;stroke:red;stroke-width:1px;stroke-linecap:butt;stroke-linejoin:miter;stroke-opacity:1" d="M 220.52,100.743 232.805,111.492 z" id="boundary" inkscape:connector-curvature="0" />
	<path style="fill:none;stroke:red;stroke-width:1px;stroke-linecap:butt;stroke-linejoin:miter;stroke-opacity:1" d="M 172.916,298.836 165.238,285.015 z" id="boundary" inkscape:connector-curvature="0" />
	<path style="fill:none;stroke:red;stroke-width:1px;stroke-linecap:butt;stroke-linejoin:miter;stroke-opacity:1" d="M 183.666,311.121 172.916,298.836 z" id="boundary" inkscape:connector-curvature="0" />
	<path style="fill:none;stroke:red;stroke-width:1px;stroke-linecap:butt;stroke-linejoin:miter;stroke-opacity:1" d="M 232.805,111.492 246.625,119.17 z" id="boundary" inkscape:connector-curvature="0" />
	<path style="fill:none;stroke:red;stroke-width:1px;stroke-linecap:butt;stroke-linejoin:miter;stroke-opacity:1" d="M 195.95,320.334 183.666,311.121 z" id="boundary" inkscape:connector-curvature="0" />
	<path style="fill:none;stroke:red;stroke-width:1px;stroke-linecap:butt;stroke-linejoin:miter;stroke-opacity:1" d="M 205.164,332.619 195.95,320.334 z" id="boundary" inkscape:connector-curvature="0" />
	<path style="fill:none;stroke:red;stroke-width:1px;stroke-linecap:butt;stroke-linejoin:miter;stroke-opacity:1" d="M 205.164,332.619 217.449,343.368 z" id="boundary" inkscape:connector-curvature="0" />
	<path style="fill:none;stroke:red;stroke-width:1px;stroke-linecap:butt;stroke-linejoin:miter;stroke-opacity:1" d="M 217.449,343.368 231.269,351.046 z" id="boundary" inkscape:connector-curvature="0" />
	<path style="fill:none;stroke:red;stroke-width:1px;stroke-linecap:butt;stroke-linejoin:miter;stroke-opacity:1" d="M 275.802,126.848 261.981,119.17 z" id="boundary" inkscape:connector-curvature="0" />
	<path style="fill:none;stroke:red;stroke-width:1px;stroke-linecap:butt;stroke-linejoin:miter;stroke-opacity:1" d="M 261.981,119.17 246.625,119.17 z" id="boundary" inkscape:connector-curvature="0" />
	<path style="fill:none;stroke:red;stroke-width:1px;stroke-linecap:butt;stroke-linejoin:miter;stroke-opacity:1" d="M 234.341,569.102 226.663,584.458 z" id="boundary" inkscape:connector-curvature="0" />
	<path style="fill:none;stroke:red;stroke-width:1px;stroke-linecap:butt;stroke-linejoin:miter;stroke-opacity:1" d="M 245.09,358.724 257.375,367.938 z" id="boundary" inkscape:connector-curvature="0" />
	<path style="fill:none;stroke:red;stroke-width:1px;stroke-linecap:butt;stroke-linejoin:miter;stroke-opacity:1" d="M 257.375,367.938 265.053,381.759 z" id="boundary" inkscape:connector-curvature="0" />
	<path style="fill:none;stroke:red;stroke-width:1px;stroke-linecap:butt;stroke-linejoin:miter;stroke-opacity:1" d="M 238.947,595.207 226.663,584.458 z" id="boundary" inkscape:connector-curvature="0" />
	<path style="fill:none;stroke:red;stroke-width:1px;stroke-linecap:butt;stroke-linejoin:miter;stroke-opacity:1" d="M 231.269,351.046 245.09,358.724 z" id="boundary" inkscape:connector-curvature="0" />
	<path style="fill:none;stroke:red;stroke-width:1px;stroke-linecap:butt;stroke-linejoin:miter;stroke-opacity:1" d="M 249.697,561.424 234.341,569.102 z" id="boundary" inkscape:connector-curvature="0" />
	<path style="fill:none;stroke:red;stroke-width:1px;stroke-linecap:butt;stroke-linejoin:miter;stroke-opacity:1" d="M 272.731,415.542 272.731,395.579 z" id="boundary" inkscape:connector-curvature="0" />
	<path style="fill:none;stroke:red;stroke-width:1px;stroke-linecap:butt;stroke-linejoin:miter;stroke-opacity:1" d="M 272.731,395.579 265.053,381.759 z" id="boundary" inkscape:connector-curvature="0" />
	<path style="fill:none;stroke:red;stroke-width:1px;stroke-linecap:butt;stroke-linejoin:miter;stroke-opacity:1" d="M 291.158,126.848 275.802,126.848 z" id="boundary" inkscape:connector-curvature="0" />
	<path style="fill:none;stroke:red;stroke-width:1px;stroke-linecap:butt;stroke-linejoin:miter;stroke-opacity:1" d="M 261.981,549.139 249.697,561.424 z" id="boundary" inkscape:connector-curvature="0" />
	<path style="fill:none;stroke:red;stroke-width:1px;stroke-linecap:butt;stroke-linejoin:miter;stroke-opacity:1" d="M 266.588,596.743 251.232,604.421 z" id="boundary" inkscape:connector-curvature="0" />
	<path style="fill:none;stroke:red;stroke-width:1px;stroke-linecap:butt;stroke-linejoin:miter;stroke-opacity:1" d="M 251.232,604.421 238.947,595.207 z" id="boundary" inkscape:connector-curvature="0" />
	<path style="fill:none;stroke:red;stroke-width:1px;stroke-linecap:butt;stroke-linejoin:miter;stroke-opacity:1" d="M 265.053,530.712 261.981,549.139 z" id="boundary" inkscape:connector-curvature="0" />
	<path style="fill:none;stroke:red;stroke-width:1px;stroke-linecap:butt;stroke-linejoin:miter;stroke-opacity:1" d="M 272.731,415.542 272.731,430.898 z" id="boundary" inkscape:connector-curvature="0" />
	<path style="fill:none;stroke:red;stroke-width:1px;stroke-linecap:butt;stroke-linejoin:miter;stroke-opacity:1" d="M 304.978,527.641 304.978,542.997 z" id="boundary" inkscape:connector-curvature="0" />
	<path style="fill:none;stroke:red;stroke-width:1px;stroke-linecap:butt;stroke-linejoin:miter;stroke-opacity:1" d="M 272.731,446.254 272.731,430.898 z" id="boundary" inkscape:connector-curvature="0" />
	<path style="fill:none;stroke:red;stroke-width:1px;stroke-linecap:butt;stroke-linejoin:miter;stroke-opacity:1" d="M 306.514,126.848 291.158,126.848 z" id="boundary" inkscape:connector-curvature="0" />
	<path style="fill:none;stroke:red;stroke-width:1px;stroke-linecap:butt;stroke-linejoin:miter;stroke-opacity:1" d="M 272.731,461.61 272.731,446.254 z" id="boundary" inkscape:connector-curvature="0" />
	<path style="fill:none;stroke:red;stroke-width:1px;stroke-linecap:butt;stroke-linejoin:miter;stroke-opacity:1" d="M 306.514,126.848 321.87,126.848 z" id="boundary" inkscape:connector-curvature="0" />
	<path style="fill:none;stroke:red;stroke-width:1px;stroke-linecap:butt;stroke-linejoin:miter;stroke-opacity:1" d="M 321.87,126.848 337.226,126.848 z" id="boundary" inkscape:connector-curvature="0" />
	<path style="fill:none;stroke:red;stroke-width:1px;stroke-linecap:butt;stroke-linejoin:miter;stroke-opacity:1" d="M 272.731,476.966 272.731,461.61 z" id="boundary" inkscape:connector-curvature="0" />
	<path style="fill:none;stroke:red;stroke-width:1px;stroke-linecap:butt;stroke-linejoin:miter;stroke-opacity:1" d="M 272.731,492.322 272.731,476.966 z" id="boundary" inkscape:connector-curvature="0" />
	<path style="fill:none;stroke:red;stroke-width:1px;stroke-linecap:butt;stroke-linejoin:miter;stroke-opacity:1" d="M 272.731,492.322 272.731,507.678 z" id="boundary" inkscape:connector-curvature="0" />
	<path style="fill:none;stroke:red;stroke-width:1px;stroke-linecap:butt;stroke-linejoin:miter;stroke-opacity:1" d="M 272.731,507.678 265.053,530.712 z" id="boundary" inkscape:connector-curvature="0" />
	<path style="fill:none;stroke:red;stroke-width:1px;stroke-linecap:butt;stroke-linejoin:miter;stroke-opacity:1" d="M 304.978,512.285 304.978,527.641 z" id="boundary" inkscape:connector-curvature="0" />
	<path style="fill:none;stroke:red;stroke-width:1px;stroke-linecap:butt;stroke-linejoin:miter;stroke-opacity:1" d="M 280.409,589.065 266.588,596.743 z" id="boundary" inkscape:connector-curvature="0" />
	<path style="fill:none;stroke:red;stroke-width:1px;stroke-linecap:butt;stroke-linejoin:miter;stroke-opacity:1" d="M 289.622,573.709 280.409,589.065 z" id="boundary" inkscape:connector-curvature="0" />
	<path style="fill:none;stroke:red;stroke-width:1px;stroke-linecap:butt;stroke-linejoin:miter;stroke-opacity:1" d="M 648.954,598.279 641.276,584.458 z" id="boundary" inkscape:connector-curvature="0" />
	<path style="fill:none;stroke:red;stroke-width:1px;stroke-linecap:butt;stroke-linejoin:miter;stroke-opacity:1" d="M 301.907,562.96 289.622,573.709 z" id="boundary" inkscape:connector-curvature="0" />
	<path style="fill:none;stroke:red;stroke-width:1px;stroke-linecap:butt;stroke-linejoin:miter;stroke-opacity:1" d="M 323.406,550.675 337.226,558.353 z" id="boundary" inkscape:connector-curvature="0" />
	<path style="fill:none;stroke:red;stroke-width:1px;stroke-linecap:butt;stroke-linejoin:miter;stroke-opacity:1" d="M 337.226,126.848 352.582,126.848 z" id="boundary" inkscape:connector-curvature="0" />
	<path style="fill:none;stroke:red;stroke-width:1px;stroke-linecap:butt;stroke-linejoin:miter;stroke-opacity:1" d="M 304.978,542.997 301.907,562.96 z" id="boundary" inkscape:connector-curvature="0" />
	<path style="fill:none;stroke:red;stroke-width:1px;stroke-linecap:butt;stroke-linejoin:miter;stroke-opacity:1" d="M 304.978,512.285 312.656,496.929 z" id="boundary" inkscape:connector-curvature="0" />
	<path style="fill:none;stroke:red;stroke-width:1px;stroke-linecap:butt;stroke-linejoin:miter;stroke-opacity:1" d="M 320.334,481.573 312.656,496.929 z" id="boundary" inkscape:connector-curvature="0" />
	<path style="fill:none;stroke:red;stroke-width:1px;stroke-linecap:butt;stroke-linejoin:miter;stroke-opacity:1" d="M 318.799,535.319 323.406,550.675 z" id="boundary" inkscape:connector-curvature="0" />
	<path style="fill:none;stroke:red;stroke-width:1px;stroke-linecap:butt;stroke-linejoin:miter;stroke-opacity:1" d="M 367.938,126.848 352.582,126.848 z" id="boundary" inkscape:connector-curvature="0" />
	<path style="fill:none;stroke:red;stroke-width:1px;stroke-linecap:butt;stroke-linejoin:miter;stroke-opacity:1" d="M 321.87,519.963 318.799,535.319 z" id="boundary" inkscape:connector-curvature="0" />
	<path style="fill:none;stroke:red;stroke-width:1px;stroke-linecap:butt;stroke-linejoin:miter;stroke-opacity:1" d="M 329.548,504.607 321.87,519.963 z" id="boundary" inkscape:connector-curvature="0" />
	<path style="fill:none;stroke:red;stroke-width:1px;stroke-linecap:butt;stroke-linejoin:miter;stroke-opacity:1" d="M 334.155,473.895 334.155,489.251 z" id="boundary" inkscape:connector-curvature="0" />
	<path style="fill:none;stroke:red;stroke-width:1px;stroke-linecap:butt;stroke-linejoin:miter;stroke-opacity:1" d="M 329.548,504.607 334.155,489.251 z" id="boundary" inkscape:connector-curvature="0" />
	<path style="fill:none;stroke:red;stroke-width:1px;stroke-linecap:butt;stroke-linejoin:miter;stroke-opacity:1" d="M 374.08,466.217 374.08,450.861 z" id="boundary" inkscape:connector-curvature="0" />
	<path style="fill:none;stroke:red;stroke-width:1px;stroke-linecap:butt;stroke-linejoin:miter;stroke-opacity:1" d="M 351.046,550.675 337.226,558.353 z" id="boundary" inkscape:connector-curvature="0" />
	<path style="fill:none;stroke:red;stroke-width:1px;stroke-linecap:butt;stroke-linejoin:miter;stroke-opacity:1" d="M 371.009,524.57 374.08,496.929 z" id="boundary" inkscape:connector-curvature="0" />
	<path style="fill:none;stroke:red;stroke-width:1px;stroke-linecap:butt;stroke-linejoin:miter;stroke-opacity:1" d="M 358.724,535.319 351.046,550.675 z" id="boundary" inkscape:connector-curvature="0" />
	<path style="fill:none;stroke:red;stroke-width:1px;stroke-linecap:butt;stroke-linejoin:miter;stroke-opacity:1" d="M 374.08,420.149 374.08,404.793 z" id="boundary" inkscape:connector-curvature="0" />
	<path style="fill:none;stroke:red;stroke-width:1px;stroke-linecap:butt;stroke-linejoin:miter;stroke-opacity:1" d="M 371.009,524.57 358.724,535.319 z" id="boundary" inkscape:connector-curvature="0" />
	<path style="fill:none;stroke:red;stroke-width:1px;stroke-linecap:butt;stroke-linejoin:miter;stroke-opacity:1" d="M 500,358.724 513.82,351.046 z" id="boundary" inkscape:connector-curvature="0" />
	<path style="fill:none;stroke:red;stroke-width:1px;stroke-linecap:butt;stroke-linejoin:miter;stroke-opacity:1" d="M 513.82,351.046 529.176,351.046 z" id="boundary" inkscape:connector-curvature="0" />
	<path style="fill:none;stroke:red;stroke-width:1px;stroke-linecap:butt;stroke-linejoin:miter;stroke-opacity:1" d="M 383.294,126.848 367.938,126.848 z" id="boundary" inkscape:connector-curvature="0" />
	<path style="fill:none;stroke:red;stroke-width:1px;stroke-linecap:butt;stroke-linejoin:miter;stroke-opacity:1" d="M 374.08,420.149 374.08,435.505 z" id="boundary" inkscape:connector-curvature="0" />
	<path style="fill:none;stroke:red;stroke-width:1px;stroke-linecap:butt;stroke-linejoin:miter;stroke-opacity:1" d="M 374.08,404.793 381.759,389.437 z" id="boundary" inkscape:connector-curvature="0" />
	<path style="fill:none;stroke:red;stroke-width:1px;stroke-linecap:butt;stroke-linejoin:miter;stroke-opacity:1" d="M 374.08,435.505 374.08,450.861 z" id="boundary" inkscape:connector-curvature="0" />
	<path style="fill:none;stroke:red;stroke-width:1px;stroke-linecap:butt;stroke-linejoin:miter;stroke-opacity:1" d="M 374.08,481.573 374.08,466.217 z" id="boundary" inkscape:connector-curvature="0" />
	<path style="fill:none;stroke:red;stroke-width:1px;stroke-linecap:butt;stroke-linejoin:miter;stroke-opacity:1" d="M 409.399,374.08 394.043,378.687 z" id="boundary" inkscape:connector-curvature="0" />
	<path style="fill:none;stroke:red;stroke-width:1px;stroke-linecap:butt;stroke-linejoin:miter;stroke-opacity:1" d="M 394.043,378.687 381.759,389.437 z" id="boundary" inkscape:connector-curvature="0" />
	<path style="fill:none;stroke:red;stroke-width:1px;stroke-linecap:butt;stroke-linejoin:miter;stroke-opacity:1" d="M 374.08,481.573 374.08,496.929 z" id="boundary" inkscape:connector-curvature="0" />
	<path style="fill:none;stroke:red;stroke-width:1px;stroke-linecap:butt;stroke-linejoin:miter;stroke-opacity:1" d="M 409.399,374.08 424.755,374.08 z" id="boundary" inkscape:connector-curvature="0" />
	<path style="fill:none;stroke:red;stroke-width:1px;stroke-linecap:butt;stroke-linejoin:miter;stroke-opacity:1" d="M 424.755,374.08 440.111,374.08 z" id="boundary" inkscape:connector-curvature="0" />
	<path style="fill:none;stroke:red;stroke-width:1px;stroke-linecap:butt;stroke-linejoin:miter;stroke-opacity:1" d="M 398.65,126.848 383.294,126.848 z" id="boundary" inkscape:connector-curvature="0" />
	<path style="fill:none;stroke:red;stroke-width:1px;stroke-linecap:butt;stroke-linejoin:miter;stroke-opacity:1" d="M 414.006,126.848 398.65,126.848 z" id="boundary" inkscape:connector-curvature="0" />
	<path style="fill:none;stroke:red;stroke-width:1px;stroke-linecap:butt;stroke-linejoin:miter;stroke-opacity:1" d="M 429.362,126.848 414.006,126.848 z" id="boundary" inkscape:connector-curvature="0" />
	<path style="fill:none;stroke:red;stroke-width:1px;stroke-linecap:butt;stroke-linejoin:miter;stroke-opacity:1" d="M 440.111,374.08 453.932,366.402 z" id="boundary" inkscape:connector-curvature="0" />
	<path style="fill:none;stroke:red;stroke-width:1px;stroke-linecap:butt;stroke-linejoin:miter;stroke-opacity:1" d="M 453.932,366.402 469.288,366.402 z" id="boundary" inkscape:connector-curvature="0" />
	<path style="fill:none;stroke:red;stroke-width:1px;stroke-linecap:butt;stroke-linejoin:miter;stroke-opacity:1" d="M 443.183,119.17 458.539,119.17 z" id="boundary" inkscape:connector-curvature="0" />
	<path style="fill:none;stroke:red;stroke-width:1px;stroke-linecap:butt;stroke-linejoin:miter;stroke-opacity:1" d="M 443.183,119.17 429.362,126.848 z" id="boundary" inkscape:connector-curvature="0" />
	<path style="fill:none;stroke:red;stroke-width:1px;stroke-linecap:butt;stroke-linejoin:miter;stroke-opacity:1" d="M 469.288,366.402 484.644,364.867 z" id="boundary" inkscape:connector-curvature="0" />
	<path style="fill:none;stroke:red;stroke-width:1px;stroke-linecap:butt;stroke-linejoin:miter;stroke-opacity:1" d="M 458.539,119.17 473.895,119.17 z" id="boundary" inkscape:connector-curvature="0" />
	<path style="fill:none;stroke:red;stroke-width:1px;stroke-linecap:butt;stroke-linejoin:miter;stroke-opacity:1" d="M 484.644,364.867 500,358.724 z" id="boundary" inkscape:connector-curvature="0" />
	<path style="fill:none;stroke:red;stroke-width:1px;stroke-linecap:butt;stroke-linejoin:miter;stroke-opacity:1" d="M 489.251,114.563 473.895,119.17 z" id="boundary" inkscape:connector-curvature="0" />
	<path style="fill:none;stroke:red;stroke-width:1px;stroke-linecap:butt;stroke-linejoin:miter;stroke-opacity:1" d="M 582.923,364.867 590.601,378.687 z" id="boundary" inkscape:connector-curvature="0" />
	<path style="fill:none;stroke:red;stroke-width:1px;stroke-linecap:butt;stroke-linejoin:miter;stroke-opacity:1" d="M 504.607,111.492 519.963,111.492 z" id="boundary" inkscape:connector-curvature="0" />
	<path style="fill:none;stroke:red;stroke-width:1px;stroke-linecap:butt;stroke-linejoin:miter;stroke-opacity:1" d="M 504.607,111.492 489.251,114.563 z" id="boundary" inkscape:connector-curvature="0" />
	<path style="fill:none;stroke:red;stroke-width:1px;stroke-linecap:butt;stroke-linejoin:miter;stroke-opacity:1" d="M 544.533,351.046 529.176,351.046 z" id="boundary" inkscape:connector-curvature="0" />
	<path style="fill:none;stroke:red;stroke-width:1px;stroke-linecap:butt;stroke-linejoin:miter;stroke-opacity:1" d="M 559.889,351.046 544.533,351.046 z" id="boundary" inkscape:connector-curvature="0" />
	<path style="fill:none;stroke:red;stroke-width:1px;stroke-linecap:butt;stroke-linejoin:miter;stroke-opacity:1" d="M 535.319,106.885 519.963,111.492 z" id="boundary" inkscape:connector-curvature="0" />
	<path style="fill:none;stroke:red;stroke-width:1px;stroke-linecap:butt;stroke-linejoin:miter;stroke-opacity:1" d="M 550.675,103.814 566.031,103.814 z" id="boundary" inkscape:connector-curvature="0" />
	<path style="fill:none;stroke:red;stroke-width:1px;stroke-linecap:butt;stroke-linejoin:miter;stroke-opacity:1" d="M 550.675,103.814 535.319,106.885 z" id="boundary" inkscape:connector-curvature="0" />
	<path style="fill:none;stroke:red;stroke-width:1px;stroke-linecap:butt;stroke-linejoin:miter;stroke-opacity:1" d="M 559.889,351.046 575.245,351.046 z" id="boundary" inkscape:connector-curvature="0" />
	<path style="fill:none;stroke:red;stroke-width:1px;stroke-linecap:butt;stroke-linejoin:miter;stroke-opacity:1" d="M 575.245,351.046 582.923,364.867 z" id="boundary" inkscape:connector-curvature="0" />
	<path style="fill:none;stroke:red;stroke-width:1px;stroke-linecap:butt;stroke-linejoin:miter;stroke-opacity:1" d="M 602.885,389.437 612.099,401.721 z" id="boundary" inkscape:connector-curvature="0" />
	<path style="fill:none;stroke:red;stroke-width:1px;stroke-linecap:butt;stroke-linejoin:miter;stroke-opacity:1" d="M 602.885,389.437 590.601,378.687 z" id="boundary" inkscape:connector-curvature="0" />
	<path style="fill:none;stroke:red;stroke-width:1px;stroke-linecap:butt;stroke-linejoin:miter;stroke-opacity:1" d="M 581.387,103.814 566.031,103.814 z" id="boundary" inkscape:connector-curvature="0" />
	<path style="fill:none;stroke:red;stroke-width:1px;stroke-linecap:butt;stroke-linejoin:miter;stroke-opacity:1" d="M 595.207,96.1362 610.563,96.1362 z" id="boundary" inkscape:connector-curvature="0" />
	<path style="fill:none;stroke:red;stroke-width:1px;stroke-linecap:butt;stroke-linejoin:miter;stroke-opacity:1" d="M 595.207,96.1362 581.387,103.814 z" id="boundary" inkscape:connector-curvature="0" />
	<path style="fill:none;stroke:red;stroke-width:1px;stroke-linecap:butt;stroke-linejoin:miter;stroke-opacity:1" d="M 610.563,96.1362 625.92,96.1362 z" id="boundary" inkscape:connector-curvature="0" />
	<path style="fill:none;stroke:red;stroke-width:1px;stroke-linecap:butt;stroke-linejoin:miter;stroke-opacity:1" d="M 719.591,320.334 719.591,304.978 z" id="boundary" inkscape:connector-curvature="0" />
	<path style="fill:none;stroke:red;stroke-width:1px;stroke-linecap:butt;stroke-linejoin:miter;stroke-opacity:1" d="M 624.384,412.471 612.099,401.721 z" id="boundary" inkscape:connector-curvature="0" />
	<path style="fill:none;stroke:red;stroke-width:1px;stroke-linecap:butt;stroke-linejoin:miter;stroke-opacity:1" d="M 625.92,96.1362 641.276,96.1362 z" id="boundary" inkscape:connector-curvature="0" />
	<path style="fill:none;stroke:red;stroke-width:1px;stroke-linecap:butt;stroke-linejoin:miter;stroke-opacity:1" d="M 719.591,335.69 719.591,320.334 z" id="boundary" inkscape:connector-curvature="0" />
	<path style="fill:none;stroke:red;stroke-width:1px;stroke-linecap:butt;stroke-linejoin:miter;stroke-opacity:1" d="M 650.489,430.898 638.204,420.149 z" id="boundary" inkscape:connector-curvature="0" />
	<path style="fill:none;stroke:red;stroke-width:1px;stroke-linecap:butt;stroke-linejoin:miter;stroke-opacity:1" d="M 656.632,96.1362 641.276,96.1362 z" id="boundary" inkscape:connector-curvature="0" />
	<path style="fill:none;stroke:red;stroke-width:1px;stroke-linecap:butt;stroke-linejoin:miter;stroke-opacity:1" d="M 685.808,103.814 671.988,96.1362 z" id="boundary" inkscape:connector-curvature="0" />
	<path style="fill:none;stroke:red;stroke-width:1px;stroke-linecap:butt;stroke-linejoin:miter;stroke-opacity:1" d="M 671.988,96.1362 656.632,96.1362 z" id="boundary" inkscape:connector-curvature="0" />
	<path style="fill:none;stroke:red;stroke-width:1px;stroke-linecap:butt;stroke-linejoin:miter;stroke-opacity:1" d="M 638.204,420.149 624.384,412.471 z" id="boundary" inkscape:connector-curvature="0" />
	<path style="fill:none;stroke:red;stroke-width:1px;stroke-linecap:butt;stroke-linejoin:miter;stroke-opacity:1" d="M 664.31,604.421 648.954,598.279 z" id="boundary" inkscape:connector-curvature="0" />
	<path style="fill:none;stroke:red;stroke-width:1px;stroke-linecap:butt;stroke-linejoin:miter;stroke-opacity:1" d="M 653.56,572.173 641.276,584.458 z" id="boundary" inkscape:connector-curvature="0" />
	<path style="fill:none;stroke:red;stroke-width:1px;stroke-linecap:butt;stroke-linejoin:miter;stroke-opacity:1" d="M 656.632,538.39 668.916,549.139 z" id="boundary" inkscape:connector-curvature="0" />
	<path style="fill:none;stroke:red;stroke-width:1px;stroke-linecap:butt;stroke-linejoin:miter;stroke-opacity:1" d="M 685.808,103.814 701.164,103.814 z" id="boundary" inkscape:connector-curvature="0" />
	<path style="fill:none;stroke:red;stroke-width:1px;stroke-linecap:butt;stroke-linejoin:miter;stroke-opacity:1" d="M 701.164,103.814 714.985,111.492 z" id="boundary" inkscape:connector-curvature="0" />
	<path style="fill:none;stroke:red;stroke-width:1px;stroke-linecap:butt;stroke-linejoin:miter;stroke-opacity:1" d="M 656.632,523.034 656.632,538.39 z" id="boundary" inkscape:connector-curvature="0" />
	<path style="fill:none;stroke:red;stroke-width:1px;stroke-linecap:butt;stroke-linejoin:miter;stroke-opacity:1" d="M 656.632,523.034 668.916,510.749 z" id="boundary" inkscape:connector-curvature="0" />
	<path style="fill:none;stroke:red;stroke-width:1px;stroke-linecap:butt;stroke-linejoin:miter;stroke-opacity:1" d="M 650.489,430.898 664.31,438.576 z" id="boundary" inkscape:connector-curvature="0" />
	<path style="fill:none;stroke:red;stroke-width:1px;stroke-linecap:butt;stroke-linejoin:miter;stroke-opacity:1" d="M 664.31,438.576 671.988,452.396 z" id="boundary" inkscape:connector-curvature="0" />
	<path style="fill:none;stroke:red;stroke-width:1px;stroke-linecap:butt;stroke-linejoin:miter;stroke-opacity:1" d="M 714.985,111.492 728.805,119.17 z" id="boundary" inkscape:connector-curvature="0" />
	<path style="fill:none;stroke:red;stroke-width:1px;stroke-linecap:butt;stroke-linejoin:miter;stroke-opacity:1" d="M 668.916,549.139 668.916,564.495 z" id="boundary" inkscape:connector-curvature="0" />
	<path style="fill:none;stroke:red;stroke-width:1px;stroke-linecap:butt;stroke-linejoin:miter;stroke-opacity:1" d="M 668.916,564.495 653.56,572.173 z" id="boundary" inkscape:connector-curvature="0" />
	<path style="fill:none;stroke:red;stroke-width:1px;stroke-linecap:butt;stroke-linejoin:miter;stroke-opacity:1" d="M 682.737,464.681 671.988,452.396 z" id="boundary" inkscape:connector-curvature="0" />
	<path style="fill:none;stroke:red;stroke-width:1px;stroke-linecap:butt;stroke-linejoin:miter;stroke-opacity:1" d="M 679.666,604.421 664.31,604.421 z" id="boundary" inkscape:connector-curvature="0" />
	<path style="fill:none;stroke:red;stroke-width:1px;stroke-linecap:butt;stroke-linejoin:miter;stroke-opacity:1" d="M 668.916,510.749 684.272,510.749 z" id="boundary" inkscape:connector-curvature="0" />
	<path style="fill:none;stroke:red;stroke-width:1px;stroke-linecap:butt;stroke-linejoin:miter;stroke-opacity:1" d="M 691.95,495.393 684.272,510.749 z" id="boundary" inkscape:connector-curvature="0" />
	<path style="fill:none;stroke:red;stroke-width:1px;stroke-linecap:butt;stroke-linejoin:miter;stroke-opacity:1" d="M 719.591,351.046 719.591,335.69 z" id="boundary" inkscape:connector-curvature="0" />
	<path style="fill:none;stroke:red;stroke-width:1px;stroke-linecap:butt;stroke-linejoin:miter;stroke-opacity:1" d="M 693.486,596.743 679.666,604.421 z" id="boundary" inkscape:connector-curvature="0" />
	<path style="fill:none;stroke:red;stroke-width:1px;stroke-linecap:butt;stroke-linejoin:miter;stroke-opacity:1" d="M 695.022,473.895 691.95,495.393 z" id="boundary" inkscape:connector-curvature="0" />
	<path style="fill:none;stroke:red;stroke-width:1px;stroke-linecap:butt;stroke-linejoin:miter;stroke-opacity:1" d="M 682.737,464.681 695.022,473.895 z" id="boundary" inkscape:connector-curvature="0" />
	<path style="fill:none;stroke:red;stroke-width:1px;stroke-linecap:butt;stroke-linejoin:miter;stroke-opacity:1" d="M 707.307,587.529 693.486,596.743 z" id="boundary" inkscape:connector-curvature="0" />
	<path style="fill:none;stroke:red;stroke-width:1px;stroke-linecap:butt;stroke-linejoin:miter;stroke-opacity:1" d="M 714.985,572.173 707.307,587.529 z" id="boundary" inkscape:connector-curvature="0" />
	<path style="fill:none;stroke:red;stroke-width:1px;stroke-linecap:butt;stroke-linejoin:miter;stroke-opacity:1" d="M 719.591,351.046 722.663,366.402 z" id="boundary" inkscape:connector-curvature="0" />
	<path style="fill:none;stroke:red;stroke-width:1px;stroke-linecap:butt;stroke-linejoin:miter;stroke-opacity:1" d="M 965.288,417.077 980.644,423.22 z" id="boundary" inkscape:connector-curvature="0" />
	<path style="fill:none;stroke:red;stroke-width:1px;stroke-linecap:butt;stroke-linejoin:miter;stroke-opacity:1" d="M 727.269,289.622 734.947,274.266 z" id="boundary" inkscape:connector-curvature="0" />
	<path style="fill:none;stroke:red;stroke-width:1px;stroke-linecap:butt;stroke-linejoin:miter;stroke-opacity:1" d="M 734.947,274.266 750.303,266.588 z" id="boundary" inkscape:connector-curvature="0" />
	<path style="fill:none;stroke:red;stroke-width:1px;stroke-linecap:butt;stroke-linejoin:miter;stroke-opacity:1" d="M 722.663,366.402 730.341,380.223 z" id="boundary" inkscape:connector-curvature="0" />
	<path style="fill:none;stroke:red;stroke-width:1px;stroke-linecap:butt;stroke-linejoin:miter;stroke-opacity:1" d="M 719.591,304.978 727.269,289.622 z" id="boundary" inkscape:connector-curvature="0" />
	<path style="fill:none;stroke:red;stroke-width:1px;stroke-linecap:butt;stroke-linejoin:miter;stroke-opacity:1" d="M 730.341,380.223 741.09,392.508 z" id="boundary" inkscape:connector-curvature="0" />
	<path style="fill:none;stroke:red;stroke-width:1px;stroke-linecap:butt;stroke-linejoin:miter;stroke-opacity:1" d="M 807.121,289.622 819.406,300.372 z" id="boundary" inkscape:connector-curvature="0" />
	<path style="fill:none;stroke:red;stroke-width:1px;stroke-linecap:butt;stroke-linejoin:miter;stroke-opacity:1" d="M 750.303,404.793 750.303,420.149 z" id="boundary" inkscape:connector-curvature="0" />
	<path style="fill:none;stroke:red;stroke-width:1px;stroke-linecap:butt;stroke-linejoin:miter;stroke-opacity:1" d="M 750.303,404.793 741.09,392.508 z" id="boundary" inkscape:connector-curvature="0" />
	<path style="fill:none;stroke:red;stroke-width:1px;stroke-linecap:butt;stroke-linejoin:miter;stroke-opacity:1" d="M 788.693,263.517 800.978,274.266 z" id="boundary" inkscape:connector-curvature="0" />
	<path style="fill:none;stroke:red;stroke-width:1px;stroke-linecap:butt;stroke-linejoin:miter;stroke-opacity:1" d="M 800.978,274.266 807.121,289.622 z" id="boundary" inkscape:connector-curvature="0" />
	<path style="fill:none;stroke:red;stroke-width:1px;stroke-linecap:butt;stroke-linejoin:miter;stroke-opacity:1" d="M 727.269,550.675 714.985,572.173 z" id="boundary" inkscape:connector-curvature="0" />
	<path style="fill:none;stroke:red;stroke-width:1px;stroke-linecap:butt;stroke-linejoin:miter;stroke-opacity:1" d="M 928.433,387.901 917.684,375.616 z" id="boundary" inkscape:connector-curvature="0" />
	<path style="fill:none;stroke:red;stroke-width:1px;stroke-linecap:butt;stroke-linejoin:miter;stroke-opacity:1" d="M 917.684,375.616 905.399,366.402 z" id="boundary" inkscape:connector-curvature="0" />
	<path style="fill:none;stroke:red;stroke-width:1px;stroke-linecap:butt;stroke-linejoin:miter;stroke-opacity:1" d="M 734.947,519.963 734.947,535.319 z" id="boundary" inkscape:connector-curvature="0" />
	<path style="fill:none;stroke:red;stroke-width:1px;stroke-linecap:butt;stroke-linejoin:miter;stroke-opacity:1" d="M 728.805,119.17 742.625,126.848 z" id="boundary" inkscape:connector-curvature="0" />
	<path style="fill:none;stroke:red;stroke-width:1px;stroke-linecap:butt;stroke-linejoin:miter;stroke-opacity:1" d="M 734.947,535.319 727.269,550.675 z" id="boundary" inkscape:connector-curvature="0" />
	<path style="fill:none;stroke:red;stroke-width:1px;stroke-linecap:butt;stroke-linejoin:miter;stroke-opacity:1" d="M 734.947,519.963 747.232,509.214 z" id="boundary" inkscape:connector-curvature="0" />
	<path style="fill:none;stroke:red;stroke-width:1px;stroke-linecap:butt;stroke-linejoin:miter;stroke-opacity:1" d="M 891.579,358.724 905.399,366.402 z" id="boundary" inkscape:connector-curvature="0" />
	<path style="fill:none;stroke:red;stroke-width:1px;stroke-linecap:butt;stroke-linejoin:miter;stroke-opacity:1" d="M 779.48,251.232 788.693,263.517 z" id="boundary" inkscape:connector-curvature="0" />
	<path style="fill:none;stroke:red;stroke-width:1px;stroke-linecap:butt;stroke-linejoin:miter;stroke-opacity:1" d="M 877.759,351.046 891.579,358.724 z" id="boundary" inkscape:connector-curvature="0" />
	<path style="fill:none;stroke:red;stroke-width:1px;stroke-linecap:butt;stroke-linejoin:miter;stroke-opacity:1" d="M 742.625,126.848 756.446,134.526 z" id="boundary" inkscape:connector-curvature="0" />
	<path style="fill:none;stroke:red;stroke-width:1px;stroke-linecap:butt;stroke-linejoin:miter;stroke-opacity:1" d="M 750.303,420.149 757.981,433.969 z" id="boundary" inkscape:connector-curvature="0" />
	<path style="fill:none;stroke:red;stroke-width:1px;stroke-linecap:butt;stroke-linejoin:miter;stroke-opacity:1" d="M 757.981,433.969 757.981,449.325 z" id="boundary" inkscape:connector-curvature="0" />
	<path style="fill:none;stroke:red;stroke-width:1px;stroke-linecap:butt;stroke-linejoin:miter;stroke-opacity:1" d="M 750.303,266.588 757.981,243.554 z" id="boundary" inkscape:connector-curvature="0" />
	<path style="fill:none;stroke:red;stroke-width:1px;stroke-linecap:butt;stroke-linejoin:miter;stroke-opacity:1" d="M 750.303,481.573 747.232,509.214 z" id="boundary" inkscape:connector-curvature="0" />
	<path style="fill:none;stroke:red;stroke-width:1px;stroke-linecap:butt;stroke-linejoin:miter;stroke-opacity:1" d="M 779.48,235.876 779.48,251.232 z" id="boundary" inkscape:connector-curvature="0" />
	<path style="fill:none;stroke:red;stroke-width:1px;stroke-linecap:butt;stroke-linejoin:miter;stroke-opacity:1" d="M 757.981,464.681 757.981,449.325 z" id="boundary" inkscape:connector-curvature="0" />
	<path style="fill:none;stroke:red;stroke-width:1px;stroke-linecap:butt;stroke-linejoin:miter;stroke-opacity:1" d="M 765.659,228.198 779.48,235.876 z" id="boundary" inkscape:connector-curvature="0" />
	<path style="fill:none;stroke:red;stroke-width:1px;stroke-linecap:butt;stroke-linejoin:miter;stroke-opacity:1" d="M 765.659,228.198 757.981,243.554 z" id="boundary" inkscape:connector-curvature="0" />
	<path style="fill:none;stroke:red;stroke-width:1px;stroke-linecap:butt;stroke-linejoin:miter;stroke-opacity:1" d="M 768.731,143.74 756.446,134.526 z" id="boundary" inkscape:connector-curvature="0" />
	<path style="fill:none;stroke:red;stroke-width:1px;stroke-linecap:butt;stroke-linejoin:miter;stroke-opacity:1" d="M 750.303,481.573 757.981,464.681 z" id="boundary" inkscape:connector-curvature="0" />
	<path style="fill:none;stroke:red;stroke-width:1px;stroke-linecap:butt;stroke-linejoin:miter;stroke-opacity:1" d="M 837.833,326.477 851.653,334.155 z" id="boundary" inkscape:connector-curvature="0" />
	<path style="fill:none;stroke:red;stroke-width:1px;stroke-linecap:butt;stroke-linejoin:miter;stroke-opacity:1" d="M 768.731,143.74 781.015,154.489 z" id="boundary" inkscape:connector-curvature="0" />
	<path style="fill:none;stroke:red;stroke-width:1px;stroke-linecap:butt;stroke-linejoin:miter;stroke-opacity:1" d="M 781.015,154.489 788.693,168.31 z" id="boundary" inkscape:connector-curvature="0" />
	<path style="fill:none;stroke:red;stroke-width:1px;stroke-linecap:butt;stroke-linejoin:miter;stroke-opacity:1" d="M 819.406,300.372 830.155,312.656 z" id="boundary" inkscape:connector-curvature="0" />
	<path style="fill:none;stroke:red;stroke-width:1px;stroke-linecap:butt;stroke-linejoin:miter;stroke-opacity:1" d="M 808.656,191.344 802.514,175.988 z" id="boundary" inkscape:connector-curvature="0" />
	<path style="fill:none;stroke:red;stroke-width:1px;stroke-linecap:butt;stroke-linejoin:miter;stroke-opacity:1" d="M 802.514,175.988 788.693,168.31 z" id="boundary" inkscape:connector-curvature="0" />
	<path style="fill:none;stroke:red;stroke-width:1px;stroke-linecap:butt;stroke-linejoin:miter;stroke-opacity:1" d="M 811.728,206.7 820.941,218.985 z" id="boundary" inkscape:connector-curvature="0" />
	<path style="fill:none;stroke:red;stroke-width:1px;stroke-linecap:butt;stroke-linejoin:miter;stroke-opacity:1" d="M 830.155,312.656 837.833,326.477 z" id="boundary" inkscape:connector-curvature="0" />
	<path style="fill:none;stroke:red;stroke-width:1px;stroke-linecap:butt;stroke-linejoin:miter;stroke-opacity:1" d="M 811.728,206.7 808.656,191.344 z" id="boundary" inkscape:connector-curvature="0" />
	<path style="fill:none;stroke:red;stroke-width:1px;stroke-linecap:butt;stroke-linejoin:miter;stroke-opacity:1" d="M 827.084,234.341 820.941,218.985 z" id="boundary" inkscape:connector-curvature="0" />
	<path style="fill:none;stroke:red;stroke-width:1px;stroke-linecap:butt;stroke-linejoin:miter;stroke-opacity:1" d="M 851.653,334.155 863.938,343.368 z" id="boundary" inkscape:connector-curvature="0" />
	<path style="fill:none;stroke:red;stroke-width:1px;stroke-linecap:butt;stroke-linejoin:miter;stroke-opacity:1" d="M 842.44,261.981 834.762,248.161 z" id="boundary" inkscape:connector-curvature="0" />
	<path style="fill:none;stroke:red;stroke-width:1px;stroke-linecap:butt;stroke-linejoin:miter;stroke-opacity:1" d="M 827.084,234.341 834.762,248.161 z" id="boundary" inkscape:connector-curvature="0" />
	<path style="fill:none;stroke:red;stroke-width:1px;stroke-linecap:butt;stroke-linejoin:miter;stroke-opacity:1" d="M 877.759,351.046 863.938,343.368 z" id="boundary" inkscape:connector-curvature="0" />
	<path style="fill:none;stroke:red;stroke-width:1px;stroke-linecap:butt;stroke-linejoin:miter;stroke-opacity:1" d="M 850.118,275.802 859.331,288.087 z" id="boundary" inkscape:connector-curvature="0" />
	<path style="fill:none;stroke:red;stroke-width:1px;stroke-linecap:butt;stroke-linejoin:miter;stroke-opacity:1" d="M 850.118,275.802 842.44,261.981 z" id="boundary" inkscape:connector-curvature="0" />
	<path style="fill:none;stroke:red;stroke-width:1px;stroke-linecap:butt;stroke-linejoin:miter;stroke-opacity:1" d="M 859.331,288.087 871.616,298.836 z" id="boundary" inkscape:connector-curvature="0" />
	<path style="fill:none;stroke:red;stroke-width:1px;stroke-linecap:butt;stroke-linejoin:miter;stroke-opacity:1" d="M 871.616,298.836 880.83,311.121 z" id="boundary" inkscape:connector-curvature="0" />
	<path style="fill:none;stroke:red;stroke-width:1px;stroke-linecap:butt;stroke-linejoin:miter;stroke-opacity:1" d="M 880.83,311.121 888.508,324.941 z" id="boundary" inkscape:connector-curvature="0" />
	<path style="fill:none;stroke:red;stroke-width:1px;stroke-linecap:butt;stroke-linejoin:miter;stroke-opacity:1" d="M 956.074,404.793 965.288,417.077 z" id="boundary" inkscape:connector-curvature="0" />
	<path style="fill:none;stroke:red;stroke-width:1px;stroke-linecap:butt;stroke-linejoin:miter;stroke-opacity:1" d="M 903.864,326.477 888.508,324.941 z" id="boundary" inkscape:connector-curvature="0" />
	<path style="fill:none;stroke:red;stroke-width:1px;stroke-linecap:butt;stroke-linejoin:miter;stroke-opacity:1" d="M 943.789,394.043 956.074,404.793 z" id="boundary" inkscape:connector-curvature="0" />
	<path style="fill:none;stroke:red;stroke-width:1px;stroke-linecap:butt;stroke-linejoin:miter;stroke-opacity:1" d="M 943.789,394.043 928.433,387.901 z" id="boundary" inkscape:connector-curvature="0" />
	<path style="fill:none;stroke:red;stroke-width:1px;stroke-linecap:butt;stroke-linejoin:miter;stroke-opacity:1" d="M 916.149,335.69 903.864,326.477 z" id="boundary" inkscape:connector-curvature="0" />
	<path style="fill:none;stroke:red;stroke-width:1px;stroke-linecap:butt;stroke-linejoin:miter;stroke-opacity:1" d="M 929.969,343.368 916.149,335.69 z" id="boundary" inkscape:connector-curvature="0" />
	<path style="fill:none;stroke:red;stroke-width:1px;stroke-linecap:butt;stroke-linejoin:miter;stroke-opacity:1" d="M 929.969,343.368 942.254,354.118 z" id="boundary" inkscape:connector-curvature="0" />
	<path style="fill:none;stroke:red;stroke-width:1px;stroke-linecap:butt;stroke-linejoin:miter;stroke-opacity:1" d="M 954.539,364.867 942.254,354.118 z" id="boundary" inkscape:connector-curvature="0" />
	<path style="fill:none;stroke:red;stroke-width:1px;stroke-linecap:butt;stroke-linejoin:miter;stroke-opacity:1" d="M 968.359,372.545 954.539,364.867 z" id="boundary" inkscape:connector-curvature="0" />
	<path style="fill:none;stroke:red;stroke-width:1px;stroke-linecap:butt;stroke-linejoin:miter;stroke-opacity:1" d="M 968.359,372.545 979.108,384.83 z" id="boundary" inkscape:connector-curvature="0" />
	<path style="fill:none;stroke:red;stroke-width:1px;stroke-linecap:butt;stroke-linejoin:miter;stroke-opacity:1" d="M 979.108,384.83 988.322,397.115 z" id="boundary" inkscape:connector-curvature="0" />
	<path style="fill:none;stroke:red;stroke-width:1px;stroke-linecap:butt;stroke-linejoin:miter;stroke-opacity:1" d="M 996,410.935 980.644,423.22 z" id="boundary" inkscape:connector-curvature="0" />
	<path style="fill:none;stroke:red;stroke-width:1px;stroke-linecap:butt;stroke-linejoin:miter;stroke-opacity:1" d="M 996,410.935 988.322,397.115 z" id="boundary" inkscape:connector-curvature="0" />
	<circle cx="4" cy="123.777" r="4" fill="#0" id="circle0"/>
	<circle cx="4" cy="139.133" r="4" fill="#0" id="circle1"/>
	<circle cx="16.2848" cy="111.492" r="4" fill="#0" id="circle2"/>
	<circle cx="16.2848" cy="149.882" r="4" fill="#0" id="circle3"/>
	<circle cx="22.4272" cy="165.238" r="4" fill="#0" id="circle4"/>
	<circle cx="31.6409" cy="103.814" r="4" fill="#0" id="circle5"/>
	<circle cx="37.7833" cy="171.381" r="4" fill="#0" id="circle6"/>
	<circle cx="39.3189" cy="88.4582" r="4" fill="#0" id="circle7"/>
	<circle cx="46.9969" cy="73.1022" r="4" fill="#0" id="circle8"/>
	<circle cx="53.1393" cy="174.452" r="4" fill="#0" id="circle9"/>
	<circle cx="59.2817" cy="60.8173" r="4" fill="#0" id="circle10"/>
	<circle cx="68.4954" cy="179.059" r="4" fill="#0" id="circle11"/>
	<circle cx="71.5666" cy="50.0681" r="4" fill="#0" id="circle12"/>
	<circle cx="80.7802" cy="8.60681" r="4" fill="#0" id="circle13"/>
	<circle cx="80.7802" cy="23.9628" r="4" fill="#0" id="circle14"/>
	<circle cx="83.8514" cy="182.13" r="4" fill="#0" id="circle15"/>
	<circle cx="96.1362" cy="4" r="4" fill="#0" id="circle16"/>
	<circle cx="99.2074" cy="182.13" r="4" fill="#0" id="circle17"/>
	<circle cx="108.421" cy="13.2136" r="4" fill="#0" id="circle18"/>
	<circle cx="113.028" cy="189.808" r="4" fill="#0" id="circle19"/>
	<circle cx="120.706" cy="23.9628" r="4" fill="#0" id="circle20"/>
	<circle cx="126.848" cy="197.486" r="4" fill="#0" id="circle21"/>
	<circle cx="131.455" cy="212.842" r="4" fill="#0" id="circle22"/>
	<circle cx="134.526" cy="31.6409" r="4" fill="#0" id="circle23"/>
	<circle cx="139.133" cy="226.663" r="4" fill="#0" id="circle24"/>
	<circle cx="145.276" cy="242.019" r="4" fill="#0" id="circle25"/>
	<circle cx="149.882" cy="37.7833" r="4" fill="#0" id="circle26"/>
	<circle cx="149.882" cy="257.375" r="4" fill="#0" id="circle27"/>
	<circle cx="159.096" cy="50.0681" r="4" fill="#0" id="circle28"/>
	<circle cx="159.096" cy="269.659" r="4" fill="#0" id="circle29"/>
	<circle cx="165.238" cy="285.015" r="4" fill="#0" id="circle30"/>
	<circle cx="171.381" cy="59.2817" r="4" fill="#0" id="circle31"/>
	<circle cx="172.916" cy="298.836" r="4" fill="#0" id="circle32"/>
	<circle cx="182.13" cy="71.5666" r="4" fill="#0" id="circle33"/>
	<circle cx="183.666" cy="311.121" r="4" fill="#0" id="circle34"/>
	<circle cx="194.415" cy="82.3158" r="4" fill="#0" id="circle35"/>
	<circle cx="195.95" cy="320.334" r="4" fill="#0" id="circle36"/>
	<circle cx="205.164" cy="94.6006" r="4" fill="#0" id="circle37"/>
	<circle cx="205.164" cy="332.619" r="4" fill="#0" id="circle38"/>
	<circle cx="217.449" cy="343.368" r="4" fill="#0" id="circle39"/>
	<circle cx="220.52" cy="100.743" r="4" fill="#0" id="circle40"/>
	<circle cx="226.663" cy="584.458" r="4" fill="#0" id="circle41"/>
	<circle cx="231.269" cy="351.046" r="4" fill="#0" id="circle42"/>
	<circle cx="232.805" cy="111.492" r="4" fill="#0" id="circle43"/>
	<circle cx="234.341" cy="569.102" r="4" fill="#0" id="circle44"/>
	<circle cx="238.947" cy="595.207" r="4" fill="#0" id="circle45"/>
	<circle cx="245.09" cy="358.724" r="4" fill="#0" id="circle46"/>
	<circle cx="246.625" cy="119.17" r="4" fill="#0" id="circle47"/>
	<circle cx="249.697" cy="561.424" r="4" fill="#0" id="circle48"/>
	<circle cx="251.232" cy="604.421" r="4" fill="#0" id="circle49"/>
	<circle cx="257.375" cy="367.938" r="4" fill="#0" id="circle50"/>
	<circle cx="261.981" cy="119.17" r="4" fill="#0" id="circle51"/>
	<circle cx="261.981" cy="549.139" r="4" fill="#0" id="circle52"/>
	<circle cx="265.053" cy="381.759" r="4" fill="#0" id="circle53"/>
	<circle cx="265.053" cy="530.712" r="4" fill="#0" id="circle54"/>
	<circle cx="266.588" cy="596.743" r="4" fill="#0" id="circle55"/>
	<circle cx="272.731" cy="395.579" r="4" fill="#0" id="circle56"/>
	<circle cx="272.731" cy="415.542" r="4" fill="#0" id="circle57"/>
	<circle cx="272.731" cy="430.898" r="4" fill="#0" id="circle58"/>
	<circle cx="272.731" cy="446.254" r="4" fill="#0" id="circle59"/>
	<circle cx="272.731" cy="461.61" r="4" fill="#0" id="circle60"/>
	<circle cx="272.731" cy="476.966" r="4" fill="#0" id="circle61"/>
	<circle cx="272.731" cy="492.322" r="4" fill="#0" id="circle62"/>
	<circle cx="272.731" cy="507.678" r="4" fill="#0" id="circle63"/>
	<circle cx="275.802" cy="126.848" r="4" fill="#0" id="circle64"/>
	<circle cx="280.409" cy="589.065" r="4" fill="#0" id="circle65"/>
	<circle cx="289.622" cy="573.709" r="4" fill="#0" id="circle66"/>
	<circle cx="291.158" cy="126.848" r="4" fill="#0" id="circle67"/>
	<circle cx="301.907" cy="562.96" r="4" fill="#0" id="circle68"/>
	<circle cx="304.978" cy="512.285" r="4" fill="#0" id="circle69"/>
	<circle cx="304.978" cy="527.641" r="4" fill="#0" id="circle70"/>
	<circle cx="304.978" cy="542.997" r="4" fill="#0" id="circle71"/>
	<circle cx="306.514" cy="126.848" r="4" fill="#0" id="circle72"/>
	<circle cx="312.656" cy="496.929" r="4" fill="#0" id="circle73"/>
	<circle cx="318.799" cy="535.319" r="4" fill="#0" id="circle74"/>
	<circle cx="320.334" cy="481.573" r="4" fill="#0" id="circle75"/>
	<circle cx="321.87" cy="126.848" r="4" fill="#0" id="circle76"/>
	<circle cx="321.87" cy="519.963" r="4" fill="#0" id="circle77"/>
	<circle cx="323.406" cy="550.675" r="4" fill="#0" id="circle78"/>
	<circle cx="329.548" cy="504.607" r="4" fill="#0" id="circle79"/>
	<circle cx="334.155" cy="473.895" r="4" fill="#0" id="circle80"/>
	<circle cx="334.155" cy="489.251" r="4" fill="#0" id="circle81"/>
	<circle cx="337.226" cy="126.848" r="4" fill="#0" id="circle82"/>
	<circle cx="337.226" cy="558.353" r="4" fill="#0" id="circle83"/>
	<circle cx="351.046" cy="550.675" r="4" fill="#0" id="circle84"/>
	<circle cx="352.582" cy="126.848" r="4" fill="#0" id="circle85"/>
	<circle cx="358.724" cy="535.319" r="4" fill="#0" id="circle86"/>
	<circle cx="367.938" cy="126.848" r="4" fill="#0" id="circle87"/>
	<circle cx="371.009" cy="524.57" r="4" fill="#0" id="circle88"/>
	<circle cx="374.08" cy="404.793" r="4" fill="#0" id="circle89"/>
	<circle cx="374.08" cy="420.149" r="4" fill="#0" id="circle90"/>
	<circle cx="374.08" cy="435.505" r="4" fill="#0" id="circle91"/>
	<circle cx="374.08" cy="450.861" r="4" fill="#0" id="circle92"/>
	<circle cx="374.08" cy="466.217" r="4" fill="#0" id="circle93"/>
	<circle cx="374.08" cy="481.573" r="4" fill="#0" id="circle94"/>
	<circle cx="374.08" cy="496.929" r="4" fill="#0" id="circle95"/>
	<circle cx="381.759" cy="389.437" r="4" fill="#0" id="circle96"/>
	<circle cx="383.294" cy="126.848" r="4" fill="#0" id="circle97"/>
	<circle cx="394.043" cy="378.687" r="4" fill="#0" id="circle98"/>
	<circle cx="398.65" cy="126.848" r="4" fill="#0" id="circle99"/>
	<circle cx="409.399" cy="374.08" r="4" fill="#0" id="circle100"/>
	<circle cx="414.006" cy="126.848" r="4" fill="#0" id="circle101"/>
	<circle cx="424.755" cy="374.08" r="4" fill="#0" id="circle102"/>
	<circle cx="429.362" cy="126.848" r="4" fill="#0" id="circle103"/>
	<circle cx="440.111" cy="374.08" r="4" fill="#0" id="circle104"/>
	<circle cx="443.183" cy="119.17" r="4" fill="#0" id="circle105"/>
	<circle cx="453.932" cy="366.402" r="4" fill="#0" id="circle106"/>
	<circle cx="458.539" cy="119.17" r="4" fill="#0" id="circle107"/>
	<circle cx="469.288" cy="366.402" r="4" fill="#0" id="circle108"/>
	<circle cx="473.895" cy="119.17" r="4" fill="#0" id="circle109"/>
	<circle cx="484.644" cy="364.867" r="4" fill="#0" id="circle110"/>
	<circle cx="489.251" cy="114.563" r="4" fill="#0" id="circle111"/>
	<circle cx="500" cy="358.724" r="4" fill="#0" id="circle112"/>
	<circle cx="504.607" cy="111.492" r="4" fill="#0" id="circle113"/>
	<circle cx="513.82" cy="351.046" r="4" fill="#0" id="circle114"/>
	<circle cx="519.963" cy="111.492" r="4" fill="#0" id="circle115"/>
	<circle cx="529.176" cy="351.046" r="4" fill="#0" id="circle116"/>
	<circle cx="535.319" cy="106.885" r="4" fill="#0" id="circle117"/>
	<circle cx="544.533" cy="351.046" r="4" fill="#0" id="circle118"/>
	<circle cx="550.675" cy="103.814" r="4" fill="#0" id="circle119"/>
	<circle cx="559.889" cy="351.046" r="4" fill="#0" id="circle120"/>
	<circle cx="566.031" cy="103.814" r="4" fill="#0" id="circle121"/>
	<circle cx="575.245" cy="351.046" r="4" fill="#0" id="circle122"/>
	<circle cx="581.387" cy="103.814" r="4" fill="#0" id="circle123"/>
	<circle cx="582.923" cy="364.867" r="4" fill="#0" id="circle124"/>
	<circle cx="590.601" cy="378.687" r="4" fill="#0" id="circle125"/>
	<circle cx="595.207" cy="96.1362" r="4" fill="#0" id="circle126"/>
	<circle cx="602.885" cy="389.437" r="4" fill="#0" id="circle127"/>
	<circle cx="610.563" cy="96.1362" r="4" fill="#0" id="circle128"/>
	<circle cx="612.099" cy="401.721" r="4" fill="#0" id="circle129"/>
	<circle cx="624.384" cy="412.471" r="4" fill="#0" id="circle130"/>
	<circle cx="625.92" cy="96.1362" r="4" fill="#0" id="circle131"/>
	<circle cx="638.204" cy="420.149" r="4" fill="#0" id="circle132"/>
	<circle cx="641.276" cy="96.1362" r="4" fill="#0" id="circle133"/>
	<circle cx="641.276" cy="584.458" r="4" fill="#0" id="circle134"/>
	<circle cx="648.954" cy="598.279" r="4" fill="#0" id="circle135"/>
	<circle cx="650.489" cy="430.898" r="4" fill="#0" id="circle136"/>
	<circle cx="653.56" cy="572.173" r="4" fill="#0" id="circle137"/>
	<circle cx="656.632" cy="96.1362" r="4" fill="#0" id="circle138"/>
	<circle cx="656.632" cy="523.034" r="4" fill="#0" id="circle139"/>
	<circle cx="656.632" cy="538.39" r="4" fill="#0" id="circle140"/>
	<circle cx="664.31" cy="438.576" r="4" fill="#0" id="circle141"/>
	<circle cx="664.31" cy="604.421" r="4" fill="#0" id="circle142"/>
	<circle cx="668.916" cy="510.749" r="4" fill="#0" id="circle143"/>
	<circle cx="668.916" cy="549.139" r="4" fill="#0" id="circle144"/>
	<circle cx="668.916" cy="564.495" r="4" fill="#0" id="circle145"/>
	<circle cx="671.988" cy="96.1362" r="4" fill="#0" id="circle146"/>
	<circle cx="671.988" cy="452.396" r="4" fill="#0" id="circle147"/>
	<circle cx="679.666" cy="604.421" r="4" fill="#0" id="circle148"/>
	<circle cx="682.737" cy="464.681" r="4" fill="#0" id="circle149"/>
	<circle cx="684.272" cy="510.749" r="4" fill="#0" id="circle150"/>
	<circle cx="685.808" cy="103.814" r="4" fill="#0" id="circle151"/>
	<circle cx="691.95" cy="495.393" r="4" fill="#0" id="circle152"/>
	<circle cx="693.486" cy="596.743" r="4" fill="#0" id="circle153"/>
	<circle cx="695.022" cy="473.895" r="4" fill="#0" id="circle154"/>
	<circle cx="701.164" cy="103.814" r="4" fill="#0" id="circle155"/>
	<circle cx="707.307" cy="587.529" r="4" fill="#0" id="circle156"/>
	<circle cx="714.985" cy="111.492" r="4" fill="#0" id="circle157"/>
	<circle cx="714.985" cy="572.173" r="4" fill="#0" id="circle158"/>
	<circle cx="719.591" cy="304.978" r="4" fill="#0" id="circle159"/>
	<circle cx="719.591" cy="320.334" r="4" fill="#0" id="circle160"/>
	<circle cx="719.591" cy="335.69" r="4" fill="#0" id="circle161"/>
	<circle cx="719.591" cy="351.046" r="4" fill="#0" id="circle162"/>
	<circle cx="722.663" cy="366.402" r="4" fill="#0" id="circle163"/>
	<circle cx="727.269" cy="289.622" r="4" fill="#0" id="circle164"/>
	<circle cx="727.269" cy="550.675" r="4" fill="#0" id="circle165"/>
	<circle cx="728.805" cy="119.17" r="4" fill="#0" id="circle166"/>
	<circle cx="730.341" cy="380.223" r="4" fill="#0" id="circle167"/>
	<circle cx="734.947" cy="274.266" r="4" fill="#0" id="circle168"/>
	<circle cx="734.947" cy="519.963" r="4" fill="#0" id="circle169"/>
	<circle cx="734.947" cy="535.319" r="4" fill="#0" id="circle170"/>
	<circle cx="741.09" cy="392.508" r="4" fill="#0" id="circle171"/>
	<circle cx="742.625" cy="126.848" r="4" fill="#0" id="circle172"/>
	<circle cx="747.232" cy="509.214" r="4" fill="#0" id="circle173"/>
	<circle cx="750.303" cy="266.588" r="4" fill="#0" id="circle174"/>
	<circle cx="750.303" cy="404.793" r="4" fill="#0" id="circle175"/>
	<circle cx="750.303" cy="420.149" r="4" fill="#0" id="circle176"/>
	<circle cx="750.303" cy="481.573" r="4" fill="#0" id="circle177"/>
	<circle cx="756.446" cy="134.526" r="4" fill="#0" id="circle178"/>
	<circle cx="757.981" cy="243.554" r="4" fill="#0" id="circle179"/>
	<circle cx="757.981" cy="433.969" r="4" fill="#0" id="circle180"/>
	<circle cx="757.981" cy="449.325" r="4" fill="#0" id="circle181"/>
	<circle cx="757.981" cy="464.681" r="4" fill="#0" id="circle182"/>
	<circle cx="765.659" cy="228.198" r="4" fill="#0" id="circle183"/>
	<circle cx="768.731" cy="143.74" r="4" fill="#0" id="circle184"/>
	<circle cx="779.48" cy="235.876" r="4" fill="#0" id="circle185"/>
	<circle cx="779.48" cy="251.232" r="4" fill="#0" id="circle186"/>
	<circle cx="781.015" cy="154.489" r="4" fill="#0" id="circle187"/>
	<circle cx="788.693" cy="168.31" r="4" fill="#0" id="circle188"/>
	<circle cx="788.693" cy="263.517" r="4" fill="#0" id="circle189"/>
	<circle cx="800.978" cy="274.266" r="4" fill="#0" id="circle190"/>
	<circle cx="802.514" cy="175.988" r="4" fill="#0" id="circle191"/>
	<circle cx="807.121" cy="289.622" r="4" fill="#0" id="circle192"/>
	<circle cx="808.656" cy="191.344" r="4" fill="#0" id="circle193"/>
	<circle cx="811.728" cy="206.7" r="4" fill="#0" id="circle194"/>
	<circle cx="819.406" cy="300.372" r="4" fill="#0" id="circle195"/>
	<circle cx="820.941" cy="218.985" r="4" fill="#0" id="circle196"/>
	<circle cx="827.084" cy="234.341" r="4" fill="#0" id="circle197"/>
	<circle cx="830.155" cy="312.656" r="4" fill="#0" id="circle198"/>
	<circle cx="834.762" cy="248.161" r="4" fill="#0" id="circle199"/>
	<circle cx="837.833" cy="326.477" r="4" fill="#0" id="circle200"/>
	<circle cx="842.44" cy="261.981" r="4" fill="#0" id="circle201"/>
	<circle cx="850.118" cy="275.802" r="4" fill="#0" id="circle202"/>
	<circle cx="851.653" cy="334.155" r="4" fill="#0" id="circle203"/>
	<circle cx="859.331" cy="288.087" r="4" fill="#0" id="circle204"/>
	<circle cx="863.938" cy="343.368" r="4" fill="#0" id="circle205"/>
	<circle cx="871.616" cy="298.836" r="4" fill="#0" id="circle206"/>
	<circle cx="877.759" cy="351.046" r="4" fill="#0" id="circle207"/>
	<circle cx="880.83" cy="311.121" r="4" fill="#0" id="circle208"/>
	<circle cx="888.508" cy="324.941" r="4" fill="#0" id="circle209"/>
	<circle cx="891.579" cy="358.724" r="4" fill="#0" id="circle210"/>
	<circle cx="903.864" cy="326.477" r="4" fill="#0" id="circle211"/>
	<circle cx="905.399" cy="366.402" r="4" fill="#0" id="circle212"/>
	<circle cx="916.149" cy="335.69" r="4" fill="#0" id="circle213"/>
	<circle cx="917.684" cy="375.616" r="4" fill="#0" id="circle214"/>
	<circle cx="928.433" cy="387.901" r="4" fill="#0" id="circle215"/>
	<circle cx="929.969" cy="343.368" r="4" fill="#0" id="circle216"/>
	<circle cx="942.254" cy="354.118" r="4" fill="#0" id="circle217"/>
	<circle cx="943.789" cy="394.043" r="4" fill="#0" id="circle218"/>
	<circle cx="954.539" cy="364.867" r="4" fill="#0" id="circle219"/>
	<circle cx="956.074" cy="404.793" r="4" fill="#0" id="circle220"/>
	<circle cx="965.288" cy="417.077" r="4" fill="#0" id="circle221"/>
	<circle cx="968.359" cy="372.545" r="4" fill="#0" id="circle222"/>
	<circle cx="979.108" cy="384.83" r="4" fill="#0" id="circle223"/>
	<circle cx="980.644" cy="423.22" r="4" fill="#0" id="circle224"/>
	<circle cx="988.322" cy="397.115" r="4" fill="#0" id="circle225"/>
	<circle cx="996" cy="410.935" r="4" fill="#0" id="circle226"/>
	</g>
</svg>