<?xml version="1.0" encoding="UTF-8" standalone="no"?>
<!-- Created with CurveBenchmark -->
<svg
	xmlns:dc="http://purl.org/dc/elements/1.1/"
	xmlns:cc="http://creativecommons.org/ns#"
	xmlns:rdf="http://www.w3.org/1999/02/22-rdf-syntax-ns#"
	xmlns:svg="http://www.w3.org/2000/svg"
	xmlns="http://www.w3.org/2000/svg"
	xmlns:sodipodi="http://sodipodi.sourceforge.net/DTD/sodipodi-0.dtd"
	xmlns:inkscape="http://www.inkscape.org/namespaces/inkscape"
	width="1000"
	height="1000"
	id="svg2"
	version="1.1"
	sodipodi:docname="manifold/peel-children12.png.txt">
<defs
	id="defs4" />
<metadata
	id="metadata7">
	<rdf:RDF>
		<cc:Work
			rdf:about="">
			<dc:format>image/svg+xml</dc:format>
			<dc:type
				rdf:resource="http://purl.org/dc/dcmitype/StillImage" />
			<dc:title></dc:title>
		</cc:Work>
	</rdf:RDF>
</metadata>
<g
	inkscape:label="Layer 1"
	inkscape:groupmode="layer"
	id="layer1">
	<path style="fill:none;stroke:red;stroke-width:1px;stroke-linecap:butt;stroke-linejoin:miter;stroke-opacity:1" d="M 25.4576,410.043 28.7587,426.549 z" id="boundary" inkscape:connector-curvature="0" />
	<path style="fill:none;stroke:red;stroke-width:1px;stroke-linecap:butt;stroke-linejoin:miter;stroke-opacity:1" d="M 28.7587,426.549 28.7587,443.055 z" id="boundary" inkscape:connector-curvature="0" />
	<path style="fill:none;stroke:red;stroke-width:1px;stroke-linecap:butt;stroke-linejoin:miter;stroke-opacity:1" d="M 4,314.309 12.2529,297.804 z" id="boundary" inkscape:connector-curvature="0" />
	<path style="fill:none;stroke:red;stroke-width:1px;stroke-linecap:butt;stroke-linejoin:miter;stroke-opacity:1" d="M 4,314.309 12.2529,329.165 z" id="boundary" inkscape:connector-curvature="0" />
	<path style="fill:none;stroke:red;stroke-width:1px;stroke-linecap:butt;stroke-linejoin:miter;stroke-opacity:1" d="M 12.2529,362.176 12.2529,345.671 z" id="boundary" inkscape:connector-curvature="0" />
	<path style="fill:none;stroke:red;stroke-width:1px;stroke-linecap:butt;stroke-linejoin:miter;stroke-opacity:1" d="M 12.2529,345.671 12.2529,329.165 z" id="boundary" inkscape:connector-curvature="0" />
	<path style="fill:none;stroke:red;stroke-width:1px;stroke-linecap:butt;stroke-linejoin:miter;stroke-opacity:1" d="M 12.2529,297.804 25.4576,284.599 z" id="boundary" inkscape:connector-curvature="0" />
	<path style="fill:none;stroke:red;stroke-width:1px;stroke-linecap:butt;stroke-linejoin:miter;stroke-opacity:1" d="M 12.2529,378.682 12.2529,362.176 z" id="boundary" inkscape:connector-curvature="0" />
	<path style="fill:none;stroke:red;stroke-width:1px;stroke-linecap:butt;stroke-linejoin:miter;stroke-opacity:1" d="M 20.5058,393.537 12.2529,378.682 z" id="boundary" inkscape:connector-curvature="0" />
	<path style="fill:none;stroke:red;stroke-width:1px;stroke-linecap:butt;stroke-linejoin:miter;stroke-opacity:1" d="M 25.4576,284.599 38.6622,271.394 z" id="boundary" inkscape:connector-curvature="0" />
	<path style="fill:none;stroke:red;stroke-width:1px;stroke-linecap:butt;stroke-linejoin:miter;stroke-opacity:1" d="M 25.4576,410.043 20.5058,393.537 z" id="boundary" inkscape:connector-curvature="0" />
	<path style="fill:none;stroke:red;stroke-width:1px;stroke-linecap:butt;stroke-linejoin:miter;stroke-opacity:1" d="M 38.6622,271.394 51.8669,259.84 z" id="boundary" inkscape:connector-curvature="0" />
	<path style="fill:none;stroke:red;stroke-width:1px;stroke-linecap:butt;stroke-linejoin:miter;stroke-opacity:1" d="M 28.7587,107.987 28.7587,124.493 z" id="boundary" inkscape:connector-curvature="0" />
	<path style="fill:none;stroke:red;stroke-width:1px;stroke-linecap:butt;stroke-linejoin:miter;stroke-opacity:1" d="M 28.7587,107.987 28.7587,91.4809 z" id="boundary" inkscape:connector-curvature="0" />
	<path style="fill:none;stroke:red;stroke-width:1px;stroke-linecap:butt;stroke-linejoin:miter;stroke-opacity:1" d="M 28.7587,91.4809 28.7587,74.975 z" id="boundary" inkscape:connector-curvature="0" />
	<path style="fill:none;stroke:red;stroke-width:1px;stroke-linecap:butt;stroke-linejoin:miter;stroke-opacity:1" d="M 45.2646,558.596 45.2646,575.101 z" id="boundary" inkscape:connector-curvature="0" />
	<path style="fill:none;stroke:red;stroke-width:1px;stroke-linecap:butt;stroke-linejoin:miter;stroke-opacity:1" d="M 37.0116,139.348 28.7587,124.493 z" id="boundary" inkscape:connector-curvature="0" />
	<path style="fill:none;stroke:red;stroke-width:1px;stroke-linecap:butt;stroke-linejoin:miter;stroke-opacity:1" d="M 28.7587,74.975 37.0116,58.4692 z" id="boundary" inkscape:connector-curvature="0" />
	<path style="fill:none;stroke:red;stroke-width:1px;stroke-linecap:butt;stroke-linejoin:miter;stroke-opacity:1" d="M 50.2163,45.2646 37.0116,58.4692 z" id="boundary" inkscape:connector-curvature="0" />
	<path style="fill:none;stroke:red;stroke-width:1px;stroke-linecap:butt;stroke-linejoin:miter;stroke-opacity:1" d="M 294.502,314.309 294.502,330.815 z" id="boundary" inkscape:connector-curvature="0" />
	<path style="fill:none;stroke:red;stroke-width:1px;stroke-linecap:butt;stroke-linejoin:miter;stroke-opacity:1" d="M 28.7587,443.055 28.7587,459.561 z" id="boundary" inkscape:connector-curvature="0" />
	<path style="fill:none;stroke:red;stroke-width:1px;stroke-linecap:butt;stroke-linejoin:miter;stroke-opacity:1" d="M 33.7105,476.067 37.0116,492.572 z" id="boundary" inkscape:connector-curvature="0" />
	<path style="fill:none;stroke:red;stroke-width:1px;stroke-linecap:butt;stroke-linejoin:miter;stroke-opacity:1" d="M 37.0116,492.572 37.0116,509.078 z" id="boundary" inkscape:connector-curvature="0" />
	<path style="fill:none;stroke:red;stroke-width:1px;stroke-linecap:butt;stroke-linejoin:miter;stroke-opacity:1" d="M 28.7587,459.561 33.7105,476.067 z" id="boundary" inkscape:connector-curvature="0" />
	<path style="fill:none;stroke:red;stroke-width:1px;stroke-linecap:butt;stroke-linejoin:miter;stroke-opacity:1" d="M 45.2646,154.203 37.0116,139.348 z" id="boundary" inkscape:connector-curvature="0" />
	<path style="fill:none;stroke:red;stroke-width:1px;stroke-linecap:butt;stroke-linejoin:miter;stroke-opacity:1" d="M 41.9634,525.584 45.2646,542.09 z" id="boundary" inkscape:connector-curvature="0" />
	<path style="fill:none;stroke:red;stroke-width:1px;stroke-linecap:butt;stroke-linejoin:miter;stroke-opacity:1" d="M 45.2646,542.09 45.2646,558.596 z" id="boundary" inkscape:connector-curvature="0" />
	<path style="fill:none;stroke:red;stroke-width:1px;stroke-linecap:butt;stroke-linejoin:miter;stroke-opacity:1" d="M 273.045,251.587 277.997,268.093 z" id="boundary" inkscape:connector-curvature="0" />
	<path style="fill:none;stroke:red;stroke-width:1px;stroke-linecap:butt;stroke-linejoin:miter;stroke-opacity:1" d="M 273.045,251.587 264.792,236.732 z" id="boundary" inkscape:connector-curvature="0" />
	<path style="fill:none;stroke:red;stroke-width:1px;stroke-linecap:butt;stroke-linejoin:miter;stroke-opacity:1" d="M 63.421,246.636 76.6256,235.082 z" id="boundary" inkscape:connector-curvature="0" />
	<path style="fill:none;stroke:red;stroke-width:1px;stroke-linecap:butt;stroke-linejoin:miter;stroke-opacity:1" d="M 63.421,246.636 51.8669,259.84 z" id="boundary" inkscape:connector-curvature="0" />
	<path style="fill:none;stroke:red;stroke-width:1px;stroke-linecap:butt;stroke-linejoin:miter;stroke-opacity:1" d="M 37.0116,509.078 41.9634,525.584 z" id="boundary" inkscape:connector-curvature="0" />
	<path style="fill:none;stroke:red;stroke-width:1px;stroke-linecap:butt;stroke-linejoin:miter;stroke-opacity:1" d="M 55.1681,167.408 45.2646,154.203 z" id="boundary" inkscape:connector-curvature="0" />
	<path style="fill:none;stroke:red;stroke-width:1px;stroke-linecap:butt;stroke-linejoin:miter;stroke-opacity:1" d="M 53.5175,589.957 56.8186,606.463 z" id="boundary" inkscape:connector-curvature="0" />
	<path style="fill:none;stroke:red;stroke-width:1px;stroke-linecap:butt;stroke-linejoin:miter;stroke-opacity:1" d="M 53.5175,589.957 45.2646,575.101 z" id="boundary" inkscape:connector-curvature="0" />
	<path style="fill:none;stroke:red;stroke-width:1px;stroke-linecap:butt;stroke-linejoin:miter;stroke-opacity:1" d="M 78.2762,192.166 78.2762,208.672 z" id="boundary" inkscape:connector-curvature="0" />
	<path style="fill:none;stroke:red;stroke-width:1px;stroke-linecap:butt;stroke-linejoin:miter;stroke-opacity:1" d="M 79.9268,23.807 63.421,32.0599 z" id="boundary" inkscape:connector-curvature="0" />
	<path style="fill:none;stroke:red;stroke-width:1px;stroke-linecap:butt;stroke-linejoin:miter;stroke-opacity:1" d="M 63.421,32.0599 50.2163,45.2646 z" id="boundary" inkscape:connector-curvature="0" />
	<path style="fill:none;stroke:red;stroke-width:1px;stroke-linecap:butt;stroke-linejoin:miter;stroke-opacity:1" d="M 78.2762,208.672 76.6256,235.082 z" id="boundary" inkscape:connector-curvature="0" />
	<path style="fill:none;stroke:red;stroke-width:1px;stroke-linecap:butt;stroke-linejoin:miter;stroke-opacity:1" d="M 261.491,220.226 264.792,236.732 z" id="boundary" inkscape:connector-curvature="0" />
	<path style="fill:none;stroke:red;stroke-width:1px;stroke-linecap:butt;stroke-linejoin:miter;stroke-opacity:1" d="M 56.8186,606.463 61.7704,622.968 z" id="boundary" inkscape:connector-curvature="0" />
	<path style="fill:none;stroke:red;stroke-width:1px;stroke-linecap:butt;stroke-linejoin:miter;stroke-opacity:1" d="M 61.7704,622.968 61.7704,639.474 z" id="boundary" inkscape:connector-curvature="0" />
	<path style="fill:none;stroke:red;stroke-width:1px;stroke-linecap:butt;stroke-linejoin:miter;stroke-opacity:1" d="M 70.0233,654.329 61.7704,639.474 z" id="boundary" inkscape:connector-curvature="0" />
	<path style="fill:none;stroke:red;stroke-width:1px;stroke-linecap:butt;stroke-linejoin:miter;stroke-opacity:1" d="M 261.491,203.72 261.491,220.226 z" id="boundary" inkscape:connector-curvature="0" />
	<path style="fill:none;stroke:red;stroke-width:1px;stroke-linecap:butt;stroke-linejoin:miter;stroke-opacity:1" d="M 55.1681,167.408 68.3727,178.962 z" id="boundary" inkscape:connector-curvature="0" />
	<path style="fill:none;stroke:red;stroke-width:1px;stroke-linecap:butt;stroke-linejoin:miter;stroke-opacity:1" d="M 78.2762,192.166 68.3727,178.962 z" id="boundary" inkscape:connector-curvature="0" />
	<path style="fill:none;stroke:red;stroke-width:1px;stroke-linecap:butt;stroke-linejoin:miter;stroke-opacity:1" d="M 286.25,282.948 277.997,268.093 z" id="boundary" inkscape:connector-curvature="0" />
	<path style="fill:none;stroke:red;stroke-width:1px;stroke-linecap:butt;stroke-linejoin:miter;stroke-opacity:1" d="M 78.2762,669.185 70.0233,654.329 z" id="boundary" inkscape:connector-curvature="0" />
	<path style="fill:none;stroke:red;stroke-width:1px;stroke-linecap:butt;stroke-linejoin:miter;stroke-opacity:1" d="M 142.649,4 159.155,4 z" id="boundary" inkscape:connector-curvature="0" />
	<path style="fill:none;stroke:red;stroke-width:1px;stroke-linecap:butt;stroke-linejoin:miter;stroke-opacity:1" d="M 109.637,4 126.143,4 z" id="boundary" inkscape:connector-curvature="0" />
	<path style="fill:none;stroke:red;stroke-width:1px;stroke-linecap:butt;stroke-linejoin:miter;stroke-opacity:1" d="M 109.637,4 96.4326,15.5541 z" id="boundary" inkscape:connector-curvature="0" />
	<path style="fill:none;stroke:red;stroke-width:1px;stroke-linecap:butt;stroke-linejoin:miter;stroke-opacity:1" d="M 126.143,4 142.649,4 z" id="boundary" inkscape:connector-curvature="0" />
	<path style="fill:none;stroke:red;stroke-width:1px;stroke-linecap:butt;stroke-linejoin:miter;stroke-opacity:1" d="M 96.4326,15.5541 79.9268,23.807 z" id="boundary" inkscape:connector-curvature="0" />
	<path style="fill:none;stroke:red;stroke-width:1px;stroke-linecap:butt;stroke-linejoin:miter;stroke-opacity:1" d="M 86.5291,684.04 78.2762,669.185 z" id="boundary" inkscape:connector-curvature="0" />
	<path style="fill:none;stroke:red;stroke-width:1px;stroke-linecap:butt;stroke-linejoin:miter;stroke-opacity:1" d="M 94.782,824.339 86.5291,809.484 z" id="boundary" inkscape:connector-curvature="0" />
	<path style="fill:none;stroke:red;stroke-width:1px;stroke-linecap:butt;stroke-linejoin:miter;stroke-opacity:1" d="M 94.782,784.725 86.5291,809.484 z" id="boundary" inkscape:connector-curvature="0" />
	<path style="fill:none;stroke:red;stroke-width:1px;stroke-linecap:butt;stroke-linejoin:miter;stroke-opacity:1" d="M 107.987,707.148 103.035,690.642 z" id="boundary" inkscape:connector-curvature="0" />
	<path style="fill:none;stroke:red;stroke-width:1px;stroke-linecap:butt;stroke-linejoin:miter;stroke-opacity:1" d="M 103.035,690.642 86.5291,684.04 z" id="boundary" inkscape:connector-curvature="0" />
	<path style="fill:none;stroke:red;stroke-width:1px;stroke-linecap:butt;stroke-linejoin:miter;stroke-opacity:1" d="M 94.782,784.725 103.035,759.967 z" id="boundary" inkscape:connector-curvature="0" />
	<path style="fill:none;stroke:red;stroke-width:1px;stroke-linecap:butt;stroke-linejoin:miter;stroke-opacity:1" d="M 94.782,824.339 103.035,839.195 z" id="boundary" inkscape:connector-curvature="0" />
	<path style="fill:none;stroke:red;stroke-width:1px;stroke-linecap:butt;stroke-linejoin:miter;stroke-opacity:1" d="M 111.288,723.654 107.987,707.148 z" id="boundary" inkscape:connector-curvature="0" />
	<path style="fill:none;stroke:red;stroke-width:1px;stroke-linecap:butt;stroke-linejoin:miter;stroke-opacity:1" d="M 103.035,839.195 103.035,855.7 z" id="boundary" inkscape:connector-curvature="0" />
	<path style="fill:none;stroke:red;stroke-width:1px;stroke-linecap:butt;stroke-linejoin:miter;stroke-opacity:1" d="M 111.288,740.16 103.035,759.967 z" id="boundary" inkscape:connector-curvature="0" />
	<path style="fill:none;stroke:red;stroke-width:1px;stroke-linecap:butt;stroke-linejoin:miter;stroke-opacity:1" d="M 111.288,723.654 111.288,740.16 z" id="boundary" inkscape:connector-curvature="0" />
	<path style="fill:none;stroke:red;stroke-width:1px;stroke-linecap:butt;stroke-linejoin:miter;stroke-opacity:1" d="M 159.155,4 175.661,4 z" id="boundary" inkscape:connector-curvature="0" />
	<path style="fill:none;stroke:red;stroke-width:1px;stroke-linecap:butt;stroke-linejoin:miter;stroke-opacity:1" d="M 103.035,855.7 111.288,870.556 z" id="boundary" inkscape:connector-curvature="0" />
	<path style="fill:none;stroke:red;stroke-width:1px;stroke-linecap:butt;stroke-linejoin:miter;stroke-opacity:1" d="M 192.166,5.65058 207.022,13.9035 z" id="boundary" inkscape:connector-curvature="0" />
	<path style="fill:none;stroke:red;stroke-width:1px;stroke-linecap:butt;stroke-linejoin:miter;stroke-opacity:1" d="M 192.166,5.65058 175.661,4 z" id="boundary" inkscape:connector-curvature="0" />
	<path style="fill:none;stroke:red;stroke-width:1px;stroke-linecap:butt;stroke-linejoin:miter;stroke-opacity:1" d="M 111.288,870.556 111.288,887.062 z" id="boundary" inkscape:connector-curvature="0" />
	<path style="fill:none;stroke:red;stroke-width:1px;stroke-linecap:butt;stroke-linejoin:miter;stroke-opacity:1" d="M 111.288,887.062 111.288,903.567 z" id="boundary" inkscape:connector-curvature="0" />
	<path style="fill:none;stroke:red;stroke-width:1px;stroke-linecap:butt;stroke-linejoin:miter;stroke-opacity:1" d="M 111.288,903.567 111.288,920.073 z" id="boundary" inkscape:connector-curvature="0" />
	<path style="fill:none;stroke:red;stroke-width:1px;stroke-linecap:butt;stroke-linejoin:miter;stroke-opacity:1" d="M 111.288,920.073 103.035,941.531 z" id="boundary" inkscape:connector-curvature="0" />
	<path style="fill:none;stroke:red;stroke-width:1px;stroke-linecap:butt;stroke-linejoin:miter;stroke-opacity:1" d="M 256.539,880.459 253.238,863.953 z" id="boundary" inkscape:connector-curvature="0" />
	<path style="fill:none;stroke:red;stroke-width:1px;stroke-linecap:butt;stroke-linejoin:miter;stroke-opacity:1" d="M 103.035,941.531 111.288,956.386 z" id="boundary" inkscape:connector-curvature="0" />
	<path style="fill:none;stroke:red;stroke-width:1px;stroke-linecap:butt;stroke-linejoin:miter;stroke-opacity:1" d="M 207.022,13.9035 223.527,20.5058 z" id="boundary" inkscape:connector-curvature="0" />
	<path style="fill:none;stroke:red;stroke-width:1px;stroke-linecap:butt;stroke-linejoin:miter;stroke-opacity:1" d="M 223.527,20.5058 235.082,33.7105 z" id="boundary" inkscape:connector-curvature="0" />
	<path style="fill:none;stroke:red;stroke-width:1px;stroke-linecap:butt;stroke-linejoin:miter;stroke-opacity:1" d="M 111.288,956.386 119.541,971.241 z" id="boundary" inkscape:connector-curvature="0" />
	<path style="fill:none;stroke:red;stroke-width:1px;stroke-linecap:butt;stroke-linejoin:miter;stroke-opacity:1" d="M 119.541,971.241 134.396,979.494 z" id="boundary" inkscape:connector-curvature="0" />
	<path style="fill:none;stroke:red;stroke-width:1px;stroke-linecap:butt;stroke-linejoin:miter;stroke-opacity:1" d="M 165.757,987.747 149.251,987.747 z" id="boundary" inkscape:connector-curvature="0" />
	<path style="fill:none;stroke:red;stroke-width:1px;stroke-linecap:butt;stroke-linejoin:miter;stroke-opacity:1" d="M 235.082,33.7105 251.587,40.3128 z" id="boundary" inkscape:connector-curvature="0" />
	<path style="fill:none;stroke:red;stroke-width:1px;stroke-linecap:butt;stroke-linejoin:miter;stroke-opacity:1" d="M 251.587,40.3128 261.491,53.5175 z" id="boundary" inkscape:connector-curvature="0" />
	<path style="fill:none;stroke:red;stroke-width:1px;stroke-linecap:butt;stroke-linejoin:miter;stroke-opacity:1" d="M 134.396,979.494 149.251,987.747 z" id="boundary" inkscape:connector-curvature="0" />
	<path style="fill:none;stroke:red;stroke-width:1px;stroke-linecap:butt;stroke-linejoin:miter;stroke-opacity:1" d="M 182.263,987.747 197.118,996 z" id="boundary" inkscape:connector-curvature="0" />
	<path style="fill:none;stroke:red;stroke-width:1px;stroke-linecap:butt;stroke-linejoin:miter;stroke-opacity:1" d="M 182.263,987.747 165.757,987.747 z" id="boundary" inkscape:connector-curvature="0" />
	<path style="fill:none;stroke:red;stroke-width:1px;stroke-linecap:butt;stroke-linejoin:miter;stroke-opacity:1" d="M 261.491,53.5175 269.744,68.3727 z" id="boundary" inkscape:connector-curvature="0" />
	<path style="fill:none;stroke:red;stroke-width:1px;stroke-linecap:butt;stroke-linejoin:miter;stroke-opacity:1" d="M 294.502,690.642 294.502,674.136 z" id="boundary" inkscape:connector-curvature="0" />
	<path style="fill:none;stroke:red;stroke-width:1px;stroke-linecap:butt;stroke-linejoin:miter;stroke-opacity:1" d="M 197.118,996 213.624,996 z" id="boundary" inkscape:connector-curvature="0" />
	<path style="fill:none;stroke:red;stroke-width:1px;stroke-linecap:butt;stroke-linejoin:miter;stroke-opacity:1" d="M 264.792,895.314 256.539,880.459 z" id="boundary" inkscape:connector-curvature="0" />
	<path style="fill:none;stroke:red;stroke-width:1px;stroke-linecap:butt;stroke-linejoin:miter;stroke-opacity:1" d="M 261.491,987.747 277.997,987.747 z" id="boundary" inkscape:connector-curvature="0" />
	<path style="fill:none;stroke:red;stroke-width:1px;stroke-linecap:butt;stroke-linejoin:miter;stroke-opacity:1" d="M 261.491,987.747 246.636,996 z" id="boundary" inkscape:connector-curvature="0" />
	<path style="fill:none;stroke:red;stroke-width:1px;stroke-linecap:butt;stroke-linejoin:miter;stroke-opacity:1" d="M 230.13,996 213.624,996 z" id="boundary" inkscape:connector-curvature="0" />
	<path style="fill:none;stroke:red;stroke-width:1px;stroke-linecap:butt;stroke-linejoin:miter;stroke-opacity:1" d="M 294.502,297.804 294.502,314.309 z" id="boundary" inkscape:connector-curvature="0" />
	<path style="fill:none;stroke:red;stroke-width:1px;stroke-linecap:butt;stroke-linejoin:miter;stroke-opacity:1" d="M 294.502,297.804 286.25,282.948 z" id="boundary" inkscape:connector-curvature="0" />
	<path style="fill:none;stroke:red;stroke-width:1px;stroke-linecap:butt;stroke-linejoin:miter;stroke-opacity:1" d="M 253.238,863.953 261.491,847.448 z" id="boundary" inkscape:connector-curvature="0" />
	<path style="fill:none;stroke:red;stroke-width:1px;stroke-linecap:butt;stroke-linejoin:miter;stroke-opacity:1" d="M 277.997,99.7338 277.997,116.24 z" id="boundary" inkscape:connector-curvature="0" />
	<path style="fill:none;stroke:red;stroke-width:1px;stroke-linecap:butt;stroke-linejoin:miter;stroke-opacity:1" d="M 261.491,847.448 269.744,822.689 z" id="boundary" inkscape:connector-curvature="0" />
	<path style="fill:none;stroke:red;stroke-width:1px;stroke-linecap:butt;stroke-linejoin:miter;stroke-opacity:1" d="M 230.13,996 246.636,996 z" id="boundary" inkscape:connector-curvature="0" />
	<path style="fill:none;stroke:red;stroke-width:1px;stroke-linecap:butt;stroke-linejoin:miter;stroke-opacity:1" d="M 297.804,385.285 294.502,368.779 z" id="boundary" inkscape:connector-curvature="0" />
	<path style="fill:none;stroke:red;stroke-width:1px;stroke-linecap:butt;stroke-linejoin:miter;stroke-opacity:1" d="M 261.491,203.72 269.744,178.962 z" id="boundary" inkscape:connector-curvature="0" />
	<path style="fill:none;stroke:red;stroke-width:1px;stroke-linecap:butt;stroke-linejoin:miter;stroke-opacity:1" d="M 276.346,908.519 264.792,895.314 z" id="boundary" inkscape:connector-curvature="0" />
	<path style="fill:none;stroke:red;stroke-width:1px;stroke-linecap:butt;stroke-linejoin:miter;stroke-opacity:1" d="M 269.744,822.689 269.744,806.183 z" id="boundary" inkscape:connector-curvature="0" />
	<path style="fill:none;stroke:red;stroke-width:1px;stroke-linecap:butt;stroke-linejoin:miter;stroke-opacity:1" d="M 276.346,908.519 289.551,920.073 z" id="boundary" inkscape:connector-curvature="0" />
	<path style="fill:none;stroke:red;stroke-width:1px;stroke-linecap:butt;stroke-linejoin:miter;stroke-opacity:1" d="M 277.997,99.7338 277.997,83.228 z" id="boundary" inkscape:connector-curvature="0" />
	<path style="fill:none;stroke:red;stroke-width:1px;stroke-linecap:butt;stroke-linejoin:miter;stroke-opacity:1" d="M 277.997,83.228 269.744,68.3727 z" id="boundary" inkscape:connector-curvature="0" />
	<path style="fill:none;stroke:red;stroke-width:1px;stroke-linecap:butt;stroke-linejoin:miter;stroke-opacity:1" d="M 269.744,806.183 277.997,781.424 z" id="boundary" inkscape:connector-curvature="0" />
	<path style="fill:none;stroke:red;stroke-width:1px;stroke-linecap:butt;stroke-linejoin:miter;stroke-opacity:1" d="M 277.997,781.424 277.997,764.918 z" id="boundary" inkscape:connector-curvature="0" />
	<path style="fill:none;stroke:red;stroke-width:1px;stroke-linecap:butt;stroke-linejoin:miter;stroke-opacity:1" d="M 277.997,116.24 277.997,132.745 z" id="boundary" inkscape:connector-curvature="0" />
	<path style="fill:none;stroke:red;stroke-width:1px;stroke-linecap:butt;stroke-linejoin:miter;stroke-opacity:1" d="M 277.997,149.251 269.744,178.962 z" id="boundary" inkscape:connector-curvature="0" />
	<path style="fill:none;stroke:red;stroke-width:1px;stroke-linecap:butt;stroke-linejoin:miter;stroke-opacity:1" d="M 277.997,149.251 277.997,132.745 z" id="boundary" inkscape:connector-curvature="0" />
	<path style="fill:none;stroke:red;stroke-width:1px;stroke-linecap:butt;stroke-linejoin:miter;stroke-opacity:1" d="M 297.804,385.285 302.755,401.79 z" id="boundary" inkscape:connector-curvature="0" />
	<path style="fill:none;stroke:red;stroke-width:1px;stroke-linecap:butt;stroke-linejoin:miter;stroke-opacity:1" d="M 292.852,979.494 309.358,974.542 z" id="boundary" inkscape:connector-curvature="0" />
	<path style="fill:none;stroke:red;stroke-width:1px;stroke-linecap:butt;stroke-linejoin:miter;stroke-opacity:1" d="M 292.852,979.494 277.997,987.747 z" id="boundary" inkscape:connector-curvature="0" />
	<path style="fill:none;stroke:red;stroke-width:1px;stroke-linecap:butt;stroke-linejoin:miter;stroke-opacity:1" d="M 277.997,764.918 286.25,748.413 z" id="boundary" inkscape:connector-curvature="0" />
	<path style="fill:none;stroke:red;stroke-width:1px;stroke-linecap:butt;stroke-linejoin:miter;stroke-opacity:1" d="M 294.502,674.136 309.358,665.884 z" id="boundary" inkscape:connector-curvature="0" />
	<path style="fill:none;stroke:red;stroke-width:1px;stroke-linecap:butt;stroke-linejoin:miter;stroke-opacity:1" d="M 294.502,690.642 294.502,707.148 z" id="boundary" inkscape:connector-curvature="0" />
	<path style="fill:none;stroke:red;stroke-width:1px;stroke-linecap:butt;stroke-linejoin:miter;stroke-opacity:1" d="M 311.008,416.646 311.008,433.151 z" id="boundary" inkscape:connector-curvature="0" />
	<path style="fill:none;stroke:red;stroke-width:1px;stroke-linecap:butt;stroke-linejoin:miter;stroke-opacity:1" d="M 311.008,416.646 302.755,401.79 z" id="boundary" inkscape:connector-curvature="0" />
	<path style="fill:none;stroke:red;stroke-width:1px;stroke-linecap:butt;stroke-linejoin:miter;stroke-opacity:1" d="M 294.502,330.815 302.755,345.671 z" id="boundary" inkscape:connector-curvature="0" />
	<path style="fill:none;stroke:red;stroke-width:1px;stroke-linecap:butt;stroke-linejoin:miter;stroke-opacity:1" d="M 294.502,368.779 302.755,345.671 z" id="boundary" inkscape:connector-curvature="0" />
	<path style="fill:none;stroke:red;stroke-width:1px;stroke-linecap:butt;stroke-linejoin:miter;stroke-opacity:1" d="M 294.502,723.654 286.25,748.413 z" id="boundary" inkscape:connector-curvature="0" />
	<path style="fill:none;stroke:red;stroke-width:1px;stroke-linecap:butt;stroke-linejoin:miter;stroke-opacity:1" d="M 294.502,723.654 294.502,707.148 z" id="boundary" inkscape:connector-curvature="0" />
	<path style="fill:none;stroke:red;stroke-width:1px;stroke-linecap:butt;stroke-linejoin:miter;stroke-opacity:1" d="M 319.261,448.007 311.008,433.151 z" id="boundary" inkscape:connector-curvature="0" />
	<path style="fill:none;stroke:red;stroke-width:1px;stroke-linecap:butt;stroke-linejoin:miter;stroke-opacity:1" d="M 322.562,655.98 309.358,665.884 z" id="boundary" inkscape:connector-curvature="0" />
	<path style="fill:none;stroke:red;stroke-width:1px;stroke-linecap:butt;stroke-linejoin:miter;stroke-opacity:1" d="M 289.551,920.073 304.406,928.326 z" id="boundary" inkscape:connector-curvature="0" />
	<path style="fill:none;stroke:red;stroke-width:1px;stroke-linecap:butt;stroke-linejoin:miter;stroke-opacity:1" d="M 304.406,928.326 320.912,928.326 z" id="boundary" inkscape:connector-curvature="0" />
	<path style="fill:none;stroke:red;stroke-width:1px;stroke-linecap:butt;stroke-linejoin:miter;stroke-opacity:1" d="M 325.864,966.29 309.358,974.542 z" id="boundary" inkscape:connector-curvature="0" />
	<path style="fill:none;stroke:red;stroke-width:1px;stroke-linecap:butt;stroke-linejoin:miter;stroke-opacity:1" d="M 327.514,462.862 319.261,448.007 z" id="boundary" inkscape:connector-curvature="0" />
	<path style="fill:none;stroke:red;stroke-width:1px;stroke-linecap:butt;stroke-linejoin:miter;stroke-opacity:1" d="M 334.116,479.368 335.767,495.874 z" id="boundary" inkscape:connector-curvature="0" />
	<path style="fill:none;stroke:red;stroke-width:1px;stroke-linecap:butt;stroke-linejoin:miter;stroke-opacity:1" d="M 334.116,479.368 327.514,462.862 z" id="boundary" inkscape:connector-curvature="0" />
	<path style="fill:none;stroke:red;stroke-width:1px;stroke-linecap:butt;stroke-linejoin:miter;stroke-opacity:1" d="M 327.514,632.872 327.514,616.366 z" id="boundary" inkscape:connector-curvature="0" />
	<path style="fill:none;stroke:red;stroke-width:1px;stroke-linecap:butt;stroke-linejoin:miter;stroke-opacity:1" d="M 352.273,591.607 340.719,604.812 z" id="boundary" inkscape:connector-curvature="0" />
	<path style="fill:none;stroke:red;stroke-width:1px;stroke-linecap:butt;stroke-linejoin:miter;stroke-opacity:1" d="M 322.562,655.98 327.514,632.872 z" id="boundary" inkscape:connector-curvature="0" />
	<path style="fill:none;stroke:red;stroke-width:1px;stroke-linecap:butt;stroke-linejoin:miter;stroke-opacity:1" d="M 320.912,928.326 334.116,939.88 z" id="boundary" inkscape:connector-curvature="0" />
	<path style="fill:none;stroke:red;stroke-width:1px;stroke-linecap:butt;stroke-linejoin:miter;stroke-opacity:1" d="M 344.02,510.729 348.972,527.235 z" id="boundary" inkscape:connector-curvature="0" />
	<path style="fill:none;stroke:red;stroke-width:1px;stroke-linecap:butt;stroke-linejoin:miter;stroke-opacity:1" d="M 344.02,510.729 335.767,495.874 z" id="boundary" inkscape:connector-curvature="0" />
	<path style="fill:none;stroke:red;stroke-width:1px;stroke-linecap:butt;stroke-linejoin:miter;stroke-opacity:1" d="M 334.116,939.88 325.864,966.29 z" id="boundary" inkscape:connector-curvature="0" />
	<path style="fill:none;stroke:red;stroke-width:1px;stroke-linecap:butt;stroke-linejoin:miter;stroke-opacity:1" d="M 352.273,543.74 352.273,560.246 z" id="boundary" inkscape:connector-curvature="0" />
	<path style="fill:none;stroke:red;stroke-width:1px;stroke-linecap:butt;stroke-linejoin:miter;stroke-opacity:1" d="M 352.273,543.74 348.972,527.235 z" id="boundary" inkscape:connector-curvature="0" />
	<path style="fill:none;stroke:red;stroke-width:1px;stroke-linecap:butt;stroke-linejoin:miter;stroke-opacity:1" d="M 327.514,616.366 340.719,604.812 z" id="boundary" inkscape:connector-curvature="0" />
	<path style="fill:none;stroke:red;stroke-width:1px;stroke-linecap:butt;stroke-linejoin:miter;stroke-opacity:1" d="M 352.273,560.246 360.526,575.101 z" id="boundary" inkscape:connector-curvature="0" />
	<path style="fill:none;stroke:red;stroke-width:1px;stroke-linecap:butt;stroke-linejoin:miter;stroke-opacity:1" d="M 352.273,591.607 360.526,575.101 z" id="boundary" inkscape:connector-curvature="0" />
	<circle cx="4" cy="314.309" r="4" fill="#0" id="circle0"/>
	<circle cx="12.2529" cy="297.804" r="4" fill="#0" id="circle1"/>
	<circle cx="12.2529" cy="329.165" r="4" fill="#0" id="circle2"/>
	<circle cx="12.2529" cy="345.671" r="4" fill="#0" id="circle3"/>
	<circle cx="12.2529" cy="362.176" r="4" fill="#0" id="circle4"/>
	<circle cx="12.2529" cy="378.682" r="4" fill="#0" id="circle5"/>
	<circle cx="20.5058" cy="393.537" r="4" fill="#0" id="circle6"/>
	<circle cx="25.4576" cy="284.599" r="4" fill="#0" id="circle7"/>
	<circle cx="25.4576" cy="410.043" r="4" fill="#0" id="circle8"/>
	<circle cx="28.7587" cy="74.975" r="4" fill="#0" id="circle9"/>
	<circle cx="28.7587" cy="91.4809" r="4" fill="#0" id="circle10"/>
	<circle cx="28.7587" cy="107.987" r="4" fill="#0" id="circle11"/>
	<circle cx="28.7587" cy="124.493" r="4" fill="#0" id="circle12"/>
	<circle cx="28.7587" cy="426.549" r="4" fill="#0" id="circle13"/>
	<circle cx="28.7587" cy="443.055" r="4" fill="#0" id="circle14"/>
	<circle cx="28.7587" cy="459.561" r="4" fill="#0" id="circle15"/>
	<circle cx="33.7105" cy="476.067" r="4" fill="#0" id="circle16"/>
	<circle cx="37.0116" cy="58.4692" r="4" fill="#0" id="circle17"/>
	<circle cx="37.0116" cy="139.348" r="4" fill="#0" id="circle18"/>
	<circle cx="37.0116" cy="492.572" r="4" fill="#0" id="circle19"/>
	<circle cx="37.0116" cy="509.078" r="4" fill="#0" id="circle20"/>
	<circle cx="38.6622" cy="271.394" r="4" fill="#0" id="circle21"/>
	<circle cx="41.9634" cy="525.584" r="4" fill="#0" id="circle22"/>
	<circle cx="45.2646" cy="154.203" r="4" fill="#0" id="circle23"/>
	<circle cx="45.2646" cy="542.09" r="4" fill="#0" id="circle24"/>
	<circle cx="45.2646" cy="558.596" r="4" fill="#0" id="circle25"/>
	<circle cx="45.2646" cy="575.101" r="4" fill="#0" id="circle26"/>
	<circle cx="50.2163" cy="45.2646" r="4" fill="#0" id="circle27"/>
	<circle cx="51.8669" cy="259.84" r="4" fill="#0" id="circle28"/>
	<circle cx="53.5175" cy="589.957" r="4" fill="#0" id="circle29"/>
	<circle cx="55.1681" cy="167.408" r="4" fill="#0" id="circle30"/>
	<circle cx="56.8186" cy="606.463" r="4" fill="#0" id="circle31"/>
	<circle cx="61.7704" cy="622.968" r="4" fill="#0" id="circle32"/>
	<circle cx="61.7704" cy="639.474" r="4" fill="#0" id="circle33"/>
	<circle cx="63.421" cy="32.0599" r="4" fill="#0" id="circle34"/>
	<circle cx="63.421" cy="246.636" r="4" fill="#0" id="circle35"/>
	<circle cx="68.3727" cy="178.962" r="4" fill="#0" id="circle36"/>
	<circle cx="70.0233" cy="654.329" r="4" fill="#0" id="circle37"/>
	<circle cx="76.6256" cy="235.082" r="4" fill="#0" id="circle38"/>
	<circle cx="78.2762" cy="192.166" r="4" fill="#0" id="circle39"/>
	<circle cx="78.2762" cy="208.672" r="4" fill="#0" id="circle40"/>
	<circle cx="78.2762" cy="669.185" r="4" fill="#0" id="circle41"/>
	<circle cx="79.9268" cy="23.807" r="4" fill="#0" id="circle42"/>
	<circle cx="86.5291" cy="684.04" r="4" fill="#0" id="circle43"/>
	<circle cx="86.5291" cy="809.484" r="4" fill="#0" id="circle44"/>
	<circle cx="94.782" cy="784.725" r="4" fill="#0" id="circle45"/>
	<circle cx="94.782" cy="824.339" r="4" fill="#0" id="circle46"/>
	<circle cx="96.4326" cy="15.5541" r="4" fill="#0" id="circle47"/>
	<circle cx="103.035" cy="690.642" r="4" fill="#0" id="circle48"/>
	<circle cx="103.035" cy="759.967" r="4" fill="#0" id="circle49"/>
	<circle cx="103.035" cy="839.195" r="4" fill="#0" id="circle50"/>
	<circle cx="103.035" cy="855.7" r="4" fill="#0" id="circle51"/>
	<circle cx="103.035" cy="941.531" r="4" fill="#0" id="circle52"/>
	<circle cx="107.987" cy="707.148" r="4" fill="#0" id="circle53"/>
	<circle cx="109.637" cy="4" r="4" fill="#0" id="circle54"/>
	<circle cx="111.288" cy="723.654" r="4" fill="#0" id="circle55"/>
	<circle cx="111.288" cy="740.16" r="4" fill="#0" id="circle56"/>
	<circle cx="111.288" cy="870.556" r="4" fill="#0" id="circle57"/>
	<circle cx="111.288" cy="887.062" r="4" fill="#0" id="circle58"/>
	<circle cx="111.288" cy="903.567" r="4" fill="#0" id="circle59"/>
	<circle cx="111.288" cy="920.073" r="4" fill="#0" id="circle60"/>
	<circle cx="111.288" cy="956.386" r="4" fill="#0" id="circle61"/>
	<circle cx="119.541" cy="971.241" r="4" fill="#0" id="circle62"/>
	<circle cx="126.143" cy="4" r="4" fill="#0" id="circle63"/>
	<circle cx="134.396" cy="979.494" r="4" fill="#0" id="circle64"/>
	<circle cx="142.649" cy="4" r="4" fill="#0" id="circle65"/>
	<circle cx="149.251" cy="987.747" r="4" fill="#0" id="circle66"/>
	<circle cx="159.155" cy="4" r="4" fill="#0" id="circle67"/>
	<circle cx="165.757" cy="987.747" r="4" fill="#0" id="circle68"/>
	<circle cx="175.661" cy="4" r="4" fill="#0" id="circle69"/>
	<circle cx="182.263" cy="987.747" r="4" fill="#0" id="circle70"/>
	<circle cx="192.166" cy="5.65058" r="4" fill="#0" id="circle71"/>
	<circle cx="197.118" cy="996" r="4" fill="#0" id="circle72"/>
	<circle cx="207.022" cy="13.9035" r="4" fill="#0" id="circle73"/>
	<circle cx="213.624" cy="996" r="4" fill="#0" id="circle74"/>
	<circle cx="223.527" cy="20.5058" r="4" fill="#0" id="circle75"/>
	<circle cx="230.13" cy="996" r="4" fill="#0" id="circle76"/>
	<circle cx="235.082" cy="33.7105" r="4" fill="#0" id="circle77"/>
	<circle cx="246.636" cy="996" r="4" fill="#0" id="circle78"/>
	<circle cx="251.587" cy="40.3128" r="4" fill="#0" id="circle79"/>
	<circle cx="253.238" cy="863.953" r="4" fill="#0" id="circle80"/>
	<circle cx="256.539" cy="880.459" r="4" fill="#0" id="circle81"/>
	<circle cx="261.491" cy="53.5175" r="4" fill="#0" id="circle82"/>
	<circle cx="261.491" cy="203.72" r="4" fill="#0" id="circle83"/>
	<circle cx="261.491" cy="220.226" r="4" fill="#0" id="circle84"/>
	<circle cx="261.491" cy="847.448" r="4" fill="#0" id="circle85"/>
	<circle cx="261.491" cy="987.747" r="4" fill="#0" id="circle86"/>
	<circle cx="264.792" cy="236.732" r="4" fill="#0" id="circle87"/>
	<circle cx="264.792" cy="895.314" r="4" fill="#0" id="circle88"/>
	<circle cx="269.744" cy="68.3727" r="4" fill="#0" id="circle89"/>
	<circle cx="269.744" cy="178.962" r="4" fill="#0" id="circle90"/>
	<circle cx="269.744" cy="806.183" r="4" fill="#0" id="circle91"/>
	<circle cx="269.744" cy="822.689" r="4" fill="#0" id="circle92"/>
	<circle cx="273.045" cy="251.587" r="4" fill="#0" id="circle93"/>
	<circle cx="276.346" cy="908.519" r="4" fill="#0" id="circle94"/>
	<circle cx="277.997" cy="83.228" r="4" fill="#0" id="circle95"/>
	<circle cx="277.997" cy="99.7338" r="4" fill="#0" id="circle96"/>
	<circle cx="277.997" cy="116.24" r="4" fill="#0" id="circle97"/>
	<circle cx="277.997" cy="132.745" r="4" fill="#0" id="circle98"/>
	<circle cx="277.997" cy="149.251" r="4" fill="#0" id="circle99"/>
	<circle cx="277.997" cy="268.093" r="4" fill="#0" id="circle100"/>
	<circle cx="277.997" cy="764.918" r="4" fill="#0" id="circle101"/>
	<circle cx="277.997" cy="781.424" r="4" fill="#0" id="circle102"/>
	<circle cx="277.997" cy="987.747" r="4" fill="#0" id="circle103"/>
	<circle cx="286.25" cy="282.948" r="4" fill="#0" id="circle104"/>
	<circle cx="286.25" cy="748.413" r="4" fill="#0" id="circle105"/>
	<circle cx="289.551" cy="920.073" r="4" fill="#0" id="circle106"/>
	<circle cx="292.852" cy="979.494" r="4" fill="#0" id="circle107"/>
	<circle cx="294.502" cy="297.804" r="4" fill="#0" id="circle108"/>
	<circle cx="294.502" cy="314.309" r="4" fill="#0" id="circle109"/>
	<circle cx="294.502" cy="330.815" r="4" fill="#0" id="circle110"/>
	<circle cx="294.502" cy="368.779" r="4" fill="#0" id="circle111"/>
	<circle cx="294.502" cy="674.136" r="4" fill="#0" id="circle112"/>
	<circle cx="294.502" cy="690.642" r="4" fill="#0" id="circle113"/>
	<circle cx="294.502" cy="707.148" r="4" fill="#0" id="circle114"/>
	<circle cx="294.502" cy="723.654" r="4" fill="#0" id="circle115"/>
	<circle cx="297.804" cy="385.285" r="4" fill="#0" id="circle116"/>
	<circle cx="302.755" cy="345.671" r="4" fill="#0" id="circle117"/>
	<circle cx="302.755" cy="401.79" r="4" fill="#0" id="circle118"/>
	<circle cx="304.406" cy="928.326" r="4" fill="#0" id="circle119"/>
	<circle cx="309.358" cy="665.884" r="4" fill="#0" id="circle120"/>
	<circle cx="309.358" cy="974.542" r="4" fill="#0" id="circle121"/>
	<circle cx="311.008" cy="416.646" r="4" fill="#0" id="circle122"/>
	<circle cx="311.008" cy="433.151" r="4" fill="#0" id="circle123"/>
	<circle cx="319.261" cy="448.007" r="4" fill="#0" id="circle124"/>
	<circle cx="320.912" cy="928.326" r="4" fill="#0" id="circle125"/>
	<circle cx="322.562" cy="655.98" r="4" fill="#0" id="circle126"/>
	<circle cx="325.864" cy="966.29" r="4" fill="#0" id="circle127"/>
	<circle cx="327.514" cy="462.862" r="4" fill="#0" id="circle128"/>
	<circle cx="327.514" cy="616.366" r="4" fill="#0" id="circle129"/>
	<circle cx="327.514" cy="632.872" r="4" fill="#0" id="circle130"/>
	<circle cx="334.116" cy="479.368" r="4" fill="#0" id="circle131"/>
	<circle cx="334.116" cy="939.88" r="4" fill="#0" id="circle132"/>
	<circle cx="335.767" cy="495.874" r="4" fill="#0" id="circle133"/>
	<circle cx="340.719" cy="604.812" r="4" fill="#0" id="circle134"/>
	<circle cx="344.02" cy="510.729" r="4" fill="#0" id="circle135"/>
	<circle cx="348.972" cy="527.235" r="4" fill="#0" id="circle136"/>
	<circle cx="352.273" cy="543.74" r="4" fill="#0" id="circle137"/>
	<circle cx="352.273" cy="560.246" r="4" fill="#0" id="circle138"/>
	<circle cx="352.273" cy="591.607" r="4" fill="#0" id="circle139"/>
	<circle cx="360.526" cy="575.101" r="4" fill="#0" id="circle140"/>
	</g>
</svg>