<?xml version="1.0" encoding="UTF-8" standalone="no"?>
<!-- Created with CurveBenchmark -->
<svg
	xmlns:dc="http://purl.org/dc/elements/1.1/"
	xmlns:cc="http://creativecommons.org/ns#"
	xmlns:rdf="http://www.w3.org/1999/02/22-rdf-syntax-ns#"
	xmlns:svg="http://www.w3.org/2000/svg"
	xmlns="http://www.w3.org/2000/svg"
	xmlns:sodipodi="http://sodipodi.sourceforge.net/DTD/sodipodi-0.dtd"
	xmlns:inkscape="http://www.inkscape.org/namespaces/inkscape"
	width="1000"
	height="1000"
	id="svg2"
	version="1.1"
	sodipodi:docname="manifold/peel-teddy305.png.txt">
<defs
	id="defs4" />
<metadata
	id="metadata7">
	<rdf:RDF>
		<cc:Work
			rdf:about="">
			<dc:format>image/svg+xml</dc:format>
			<dc:type
				rdf:resource="http://purl.org/dc/dcmitype/StillImage" />
			<dc:title></dc:title>
		</cc:Work>
	</rdf:RDF>
</metadata>
<g
	inkscape:label="Layer 1"
	inkscape:groupmode="layer"
	id="layer1">
	<path style="fill:none;stroke:red;stroke-width:1px;stroke-linecap:butt;stroke-linejoin:miter;stroke-opacity:1" d="M 9.65242,761.425 4,789.687 z" id="boundary" inkscape:connector-curvature="0" />
	<path style="fill:none;stroke:red;stroke-width:1px;stroke-linecap:butt;stroke-linejoin:miter;stroke-opacity:1" d="M 23.7835,735.989 52.0456,727.51 z" id="boundary" inkscape:connector-curvature="0" />
	<path style="fill:none;stroke:red;stroke-width:1px;stroke-linecap:butt;stroke-linejoin:miter;stroke-opacity:1" d="M 23.7835,735.989 9.65242,761.425 z" id="boundary" inkscape:connector-curvature="0" />
	<path style="fill:none;stroke:red;stroke-width:1px;stroke-linecap:butt;stroke-linejoin:miter;stroke-opacity:1" d="M 52.0456,727.51 80.3077,727.51 z" id="boundary" inkscape:connector-curvature="0" />
	<path style="fill:none;stroke:red;stroke-width:1px;stroke-linecap:butt;stroke-linejoin:miter;stroke-opacity:1" d="M 4,817.949 4,789.687 z" id="boundary" inkscape:connector-curvature="0" />
	<path style="fill:none;stroke:red;stroke-width:1px;stroke-linecap:butt;stroke-linejoin:miter;stroke-opacity:1" d="M 108.57,727.51 80.3077,727.51 z" id="boundary" inkscape:connector-curvature="0" />
	<path style="fill:none;stroke:red;stroke-width:1px;stroke-linecap:butt;stroke-linejoin:miter;stroke-opacity:1" d="M 9.65242,902.735 15.3048,930.997 z" id="boundary" inkscape:connector-curvature="0" />
	<path style="fill:none;stroke:red;stroke-width:1px;stroke-linecap:butt;stroke-linejoin:miter;stroke-opacity:1" d="M 43.567,979.043 20.9573,959.259 z" id="boundary" inkscape:connector-curvature="0" />
	<path style="fill:none;stroke:red;stroke-width:1px;stroke-linecap:butt;stroke-linejoin:miter;stroke-opacity:1" d="M 20.9573,959.259 15.3048,930.997 z" id="boundary" inkscape:connector-curvature="0" />
	<path style="fill:none;stroke:red;stroke-width:1px;stroke-linecap:butt;stroke-linejoin:miter;stroke-opacity:1" d="M 4,846.211 4,817.949 z" id="boundary" inkscape:connector-curvature="0" />
	<path style="fill:none;stroke:red;stroke-width:1px;stroke-linecap:butt;stroke-linejoin:miter;stroke-opacity:1" d="M 83.1339,512.718 91.6125,540.98 z" id="boundary" inkscape:connector-curvature="0" />
	<path style="fill:none;stroke:red;stroke-width:1px;stroke-linecap:butt;stroke-linejoin:miter;stroke-opacity:1" d="M 4,874.473 4,846.211 z" id="boundary" inkscape:connector-curvature="0" />
	<path style="fill:none;stroke:red;stroke-width:1px;stroke-linecap:butt;stroke-linejoin:miter;stroke-opacity:1" d="M 100.091,569.242 91.6125,540.98 z" id="boundary" inkscape:connector-curvature="0" />
	<path style="fill:none;stroke:red;stroke-width:1px;stroke-linecap:butt;stroke-linejoin:miter;stroke-opacity:1" d="M 114.222,594.678 100.091,569.242 z" id="boundary" inkscape:connector-curvature="0" />
	<path style="fill:none;stroke:red;stroke-width:1px;stroke-linecap:butt;stroke-linejoin:miter;stroke-opacity:1" d="M 94.4387,484.456 83.1339,512.718 z" id="boundary" inkscape:connector-curvature="0" />
	<path style="fill:none;stroke:red;stroke-width:1px;stroke-linecap:butt;stroke-linejoin:miter;stroke-opacity:1" d="M 94.4387,996 66.1766,996 z" id="boundary" inkscape:connector-curvature="0" />
	<path style="fill:none;stroke:red;stroke-width:1px;stroke-linecap:butt;stroke-linejoin:miter;stroke-opacity:1" d="M 66.1766,996 43.567,979.043 z" id="boundary" inkscape:connector-curvature="0" />
	<path style="fill:none;stroke:red;stroke-width:1px;stroke-linecap:butt;stroke-linejoin:miter;stroke-opacity:1" d="M 111.396,461.846 136.832,447.715 z" id="boundary" inkscape:connector-curvature="0" />
	<path style="fill:none;stroke:red;stroke-width:1px;stroke-linecap:butt;stroke-linejoin:miter;stroke-opacity:1" d="M 111.396,461.846 94.4387,484.456 z" id="boundary" inkscape:connector-curvature="0" />
	<path style="fill:none;stroke:red;stroke-width:1px;stroke-linecap:butt;stroke-linejoin:miter;stroke-opacity:1" d="M 122.701,264.011 122.701,235.749 z" id="boundary" inkscape:connector-curvature="0" />
	<path style="fill:none;stroke:red;stroke-width:1px;stroke-linecap:butt;stroke-linejoin:miter;stroke-opacity:1" d="M 4,874.473 9.65242,902.735 z" id="boundary" inkscape:connector-curvature="0" />
	<path style="fill:none;stroke:red;stroke-width:1px;stroke-linecap:butt;stroke-linejoin:miter;stroke-opacity:1" d="M 136.832,447.715 165.094,439.236 z" id="boundary" inkscape:connector-curvature="0" />
	<path style="fill:none;stroke:red;stroke-width:1px;stroke-linecap:butt;stroke-linejoin:miter;stroke-opacity:1" d="M 122.701,996 94.4387,996 z" id="boundary" inkscape:connector-curvature="0" />
	<path style="fill:none;stroke:red;stroke-width:1px;stroke-linecap:butt;stroke-linejoin:miter;stroke-opacity:1" d="M 136.832,320.536 134.006,292.274 z" id="boundary" inkscape:connector-curvature="0" />
	<path style="fill:none;stroke:red;stroke-width:1px;stroke-linecap:butt;stroke-linejoin:miter;stroke-opacity:1" d="M 134.006,292.274 122.701,264.011 z" id="boundary" inkscape:connector-curvature="0" />
	<path style="fill:none;stroke:red;stroke-width:1px;stroke-linecap:butt;stroke-linejoin:miter;stroke-opacity:1" d="M 108.57,727.51 131.179,687.943 z" id="boundary" inkscape:connector-curvature="0" />
	<path style="fill:none;stroke:red;stroke-width:1px;stroke-linecap:butt;stroke-linejoin:miter;stroke-opacity:1" d="M 131.179,687.943 128.353,659.681 z" id="boundary" inkscape:connector-curvature="0" />
	<path style="fill:none;stroke:red;stroke-width:1px;stroke-linecap:butt;stroke-linejoin:miter;stroke-opacity:1" d="M 122.701,235.749 145.311,218.792 z" id="boundary" inkscape:connector-curvature="0" />
	<path style="fill:none;stroke:red;stroke-width:1px;stroke-linecap:butt;stroke-linejoin:miter;stroke-opacity:1" d="M 114.222,594.678 134.006,620.114 z" id="boundary" inkscape:connector-curvature="0" />
	<path style="fill:none;stroke:red;stroke-width:1px;stroke-linecap:butt;stroke-linejoin:miter;stroke-opacity:1" d="M 134.006,620.114 128.353,659.681 z" id="boundary" inkscape:connector-curvature="0" />
	<path style="fill:none;stroke:red;stroke-width:1px;stroke-linecap:butt;stroke-linejoin:miter;stroke-opacity:1" d="M 136.832,320.536 148.137,348.798 z" id="boundary" inkscape:connector-curvature="0" />
	<path style="fill:none;stroke:red;stroke-width:1px;stroke-linecap:butt;stroke-linejoin:miter;stroke-opacity:1" d="M 165.094,439.236 193.356,433.584 z" id="boundary" inkscape:connector-curvature="0" />
	<path style="fill:none;stroke:red;stroke-width:1px;stroke-linecap:butt;stroke-linejoin:miter;stroke-opacity:1" d="M 145.311,218.792 167.92,201.835 z" id="boundary" inkscape:connector-curvature="0" />
	<path style="fill:none;stroke:red;stroke-width:1px;stroke-linecap:butt;stroke-linejoin:miter;stroke-opacity:1" d="M 148.137,348.798 173.573,362.929 z" id="boundary" inkscape:connector-curvature="0" />
	<path style="fill:none;stroke:red;stroke-width:1px;stroke-linecap:butt;stroke-linejoin:miter;stroke-opacity:1" d="M 150.963,990.348 122.701,996 z" id="boundary" inkscape:connector-curvature="0" />
	<path style="fill:none;stroke:red;stroke-width:1px;stroke-linecap:butt;stroke-linejoin:miter;stroke-opacity:1" d="M 193.356,433.584 221.618,419.453 z" id="boundary" inkscape:connector-curvature="0" />
	<path style="fill:none;stroke:red;stroke-width:1px;stroke-linecap:butt;stroke-linejoin:miter;stroke-opacity:1" d="M 179.225,996 150.963,990.348 z" id="boundary" inkscape:connector-curvature="0" />
	<path style="fill:none;stroke:red;stroke-width:1px;stroke-linecap:butt;stroke-linejoin:miter;stroke-opacity:1" d="M 167.92,201.835 196.182,190.53 z" id="boundary" inkscape:connector-curvature="0" />
	<path style="fill:none;stroke:red;stroke-width:1px;stroke-linecap:butt;stroke-linejoin:miter;stroke-opacity:1" d="M 173.573,362.929 201.835,368.581 z" id="boundary" inkscape:connector-curvature="0" />
	<path style="fill:none;stroke:red;stroke-width:1px;stroke-linecap:butt;stroke-linejoin:miter;stroke-opacity:1" d="M 221.618,419.453 218.792,391.191 z" id="boundary" inkscape:connector-curvature="0" />
	<path style="fill:none;stroke:red;stroke-width:1px;stroke-linecap:butt;stroke-linejoin:miter;stroke-opacity:1" d="M 201.835,368.581 218.792,391.191 z" id="boundary" inkscape:connector-curvature="0" />
	<path style="fill:none;stroke:red;stroke-width:1px;stroke-linecap:butt;stroke-linejoin:miter;stroke-opacity:1" d="M 280.969,122.701 266.838,148.137 z" id="boundary" inkscape:connector-curvature="0" />
	<path style="fill:none;stroke:red;stroke-width:1px;stroke-linecap:butt;stroke-linejoin:miter;stroke-opacity:1" d="M 224.444,184.877 249.88,170.746 z" id="boundary" inkscape:connector-curvature="0" />
	<path style="fill:none;stroke:red;stroke-width:1px;stroke-linecap:butt;stroke-linejoin:miter;stroke-opacity:1" d="M 207.487,996 179.225,996 z" id="boundary" inkscape:connector-curvature="0" />
	<path style="fill:none;stroke:red;stroke-width:1px;stroke-linecap:butt;stroke-linejoin:miter;stroke-opacity:1" d="M 566.416,427.932 566.416,456.194 z" id="boundary" inkscape:connector-curvature="0" />
	<path style="fill:none;stroke:red;stroke-width:1px;stroke-linecap:butt;stroke-linejoin:miter;stroke-opacity:1" d="M 566.416,427.932 560.764,399.67 z" id="boundary" inkscape:connector-curvature="0" />
	<path style="fill:none;stroke:red;stroke-width:1px;stroke-linecap:butt;stroke-linejoin:miter;stroke-opacity:1" d="M 196.182,190.53 224.444,184.877 z" id="boundary" inkscape:connector-curvature="0" />
	<path style="fill:none;stroke:red;stroke-width:1px;stroke-linecap:butt;stroke-linejoin:miter;stroke-opacity:1" d="M 572.068,597.504 572.068,569.242 z" id="boundary" inkscape:connector-curvature="0" />
	<path style="fill:none;stroke:red;stroke-width:1px;stroke-linecap:butt;stroke-linejoin:miter;stroke-opacity:1" d="M 572.068,569.242 566.416,540.98 z" id="boundary" inkscape:connector-curvature="0" />
	<path style="fill:none;stroke:red;stroke-width:1px;stroke-linecap:butt;stroke-linejoin:miter;stroke-opacity:1" d="M 597.504,139.658 608.809,167.92 z" id="boundary" inkscape:connector-curvature="0" />
	<path style="fill:none;stroke:red;stroke-width:1px;stroke-linecap:butt;stroke-linejoin:miter;stroke-opacity:1" d="M 297.926,100.091 320.536,77.4815 z" id="boundary" inkscape:connector-curvature="0" />
	<path style="fill:none;stroke:red;stroke-width:1px;stroke-linecap:butt;stroke-linejoin:miter;stroke-opacity:1" d="M 264.011,990.348 235.749,996 z" id="boundary" inkscape:connector-curvature="0" />
	<path style="fill:none;stroke:red;stroke-width:1px;stroke-linecap:butt;stroke-linejoin:miter;stroke-opacity:1" d="M 235.749,996 207.487,996 z" id="boundary" inkscape:connector-curvature="0" />
	<path style="fill:none;stroke:red;stroke-width:1px;stroke-linecap:butt;stroke-linejoin:miter;stroke-opacity:1" d="M 320.536,77.4815 343.145,54.8718 z" id="boundary" inkscape:connector-curvature="0" />
	<path style="fill:none;stroke:red;stroke-width:1px;stroke-linecap:butt;stroke-linejoin:miter;stroke-opacity:1" d="M 249.88,170.746 266.838,148.137 z" id="boundary" inkscape:connector-curvature="0" />
	<path style="fill:none;stroke:red;stroke-width:1px;stroke-linecap:butt;stroke-linejoin:miter;stroke-opacity:1" d="M 515.544,26.6097 521.197,54.8718 z" id="boundary" inkscape:connector-curvature="0" />
	<path style="fill:none;stroke:red;stroke-width:1px;stroke-linecap:butt;stroke-linejoin:miter;stroke-opacity:1" d="M 515.544,26.6097 492.934,9.65242 z" id="boundary" inkscape:connector-curvature="0" />
	<path style="fill:none;stroke:red;stroke-width:1px;stroke-linecap:butt;stroke-linejoin:miter;stroke-opacity:1" d="M 292.274,979.043 264.011,990.348 z" id="boundary" inkscape:connector-curvature="0" />
	<path style="fill:none;stroke:red;stroke-width:1px;stroke-linecap:butt;stroke-linejoin:miter;stroke-opacity:1" d="M 492.934,9.65242 464.672,4 z" id="boundary" inkscape:connector-curvature="0" />
	<path style="fill:none;stroke:red;stroke-width:1px;stroke-linecap:butt;stroke-linejoin:miter;stroke-opacity:1" d="M 320.536,979.043 292.274,979.043 z" id="boundary" inkscape:connector-curvature="0" />
	<path style="fill:none;stroke:red;stroke-width:1px;stroke-linecap:butt;stroke-linejoin:miter;stroke-opacity:1" d="M 280.969,122.701 297.926,100.091 z" id="boundary" inkscape:connector-curvature="0" />
	<path style="fill:none;stroke:red;stroke-width:1px;stroke-linecap:butt;stroke-linejoin:miter;stroke-opacity:1" d="M 357.276,29.4359 343.145,54.8718 z" id="boundary" inkscape:connector-curvature="0" />
	<path style="fill:none;stroke:red;stroke-width:1px;stroke-linecap:butt;stroke-linejoin:miter;stroke-opacity:1" d="M 436.41,9.65242 408.148,4 z" id="boundary" inkscape:connector-curvature="0" />
	<path style="fill:none;stroke:red;stroke-width:1px;stroke-linecap:butt;stroke-linejoin:miter;stroke-opacity:1" d="M 348.798,984.695 320.536,979.043 z" id="boundary" inkscape:connector-curvature="0" />
	<path style="fill:none;stroke:red;stroke-width:1px;stroke-linecap:butt;stroke-linejoin:miter;stroke-opacity:1" d="M 357.276,29.4359 379.886,9.65242 z" id="boundary" inkscape:connector-curvature="0" />
	<path style="fill:none;stroke:red;stroke-width:1px;stroke-linecap:butt;stroke-linejoin:miter;stroke-opacity:1" d="M 379.886,9.65242 408.148,4 z" id="boundary" inkscape:connector-curvature="0" />
	<path style="fill:none;stroke:red;stroke-width:1px;stroke-linecap:butt;stroke-linejoin:miter;stroke-opacity:1" d="M 377.06,984.695 405.322,990.348 z" id="boundary" inkscape:connector-curvature="0" />
	<path style="fill:none;stroke:red;stroke-width:1px;stroke-linecap:butt;stroke-linejoin:miter;stroke-opacity:1" d="M 377.06,984.695 348.798,984.695 z" id="boundary" inkscape:connector-curvature="0" />
	<path style="fill:none;stroke:red;stroke-width:1px;stroke-linecap:butt;stroke-linejoin:miter;stroke-opacity:1" d="M 464.672,4 436.41,9.65242 z" id="boundary" inkscape:connector-curvature="0" />
	<path style="fill:none;stroke:red;stroke-width:1px;stroke-linecap:butt;stroke-linejoin:miter;stroke-opacity:1" d="M 433.584,990.348 461.846,996 z" id="boundary" inkscape:connector-curvature="0" />
	<path style="fill:none;stroke:red;stroke-width:1px;stroke-linecap:butt;stroke-linejoin:miter;stroke-opacity:1" d="M 433.584,990.348 405.322,990.348 z" id="boundary" inkscape:connector-curvature="0" />
	<path style="fill:none;stroke:red;stroke-width:1px;stroke-linecap:butt;stroke-linejoin:miter;stroke-opacity:1" d="M 560.764,823.601 560.764,851.863 z" id="boundary" inkscape:connector-curvature="0" />
	<path style="fill:none;stroke:red;stroke-width:1px;stroke-linecap:butt;stroke-linejoin:miter;stroke-opacity:1" d="M 521.197,54.8718 538.154,77.4815 z" id="boundary" inkscape:connector-curvature="0" />
	<path style="fill:none;stroke:red;stroke-width:1px;stroke-linecap:butt;stroke-linejoin:miter;stroke-opacity:1" d="M 490.108,990.348 461.846,996 z" id="boundary" inkscape:connector-curvature="0" />
	<path style="fill:none;stroke:red;stroke-width:1px;stroke-linecap:butt;stroke-linejoin:miter;stroke-opacity:1" d="M 518.37,979.043 490.108,990.348 z" id="boundary" inkscape:connector-curvature="0" />
	<path style="fill:none;stroke:red;stroke-width:1px;stroke-linecap:butt;stroke-linejoin:miter;stroke-opacity:1" d="M 549.459,930.997 543.806,959.259 z" id="boundary" inkscape:connector-curvature="0" />
	<path style="fill:none;stroke:red;stroke-width:1px;stroke-linecap:butt;stroke-linejoin:miter;stroke-opacity:1" d="M 543.806,959.259 518.37,979.043 z" id="boundary" inkscape:connector-curvature="0" />
	<path style="fill:none;stroke:red;stroke-width:1px;stroke-linecap:butt;stroke-linejoin:miter;stroke-opacity:1" d="M 555.111,902.735 549.459,930.997 z" id="boundary" inkscape:connector-curvature="0" />
	<path style="fill:none;stroke:red;stroke-width:1px;stroke-linecap:butt;stroke-linejoin:miter;stroke-opacity:1" d="M 566.416,456.194 566.416,484.456 z" id="boundary" inkscape:connector-curvature="0" />
	<path style="fill:none;stroke:red;stroke-width:1px;stroke-linecap:butt;stroke-linejoin:miter;stroke-opacity:1" d="M 538.154,77.4815 563.59,91.6125 z" id="boundary" inkscape:connector-curvature="0" />
	<path style="fill:none;stroke:red;stroke-width:1px;stroke-linecap:butt;stroke-linejoin:miter;stroke-opacity:1" d="M 560.764,795.339 560.764,823.601 z" id="boundary" inkscape:connector-curvature="0" />
	<path style="fill:none;stroke:red;stroke-width:1px;stroke-linecap:butt;stroke-linejoin:miter;stroke-opacity:1" d="M 563.59,91.6125 583.373,114.222 z" id="boundary" inkscape:connector-curvature="0" />
	<path style="fill:none;stroke:red;stroke-width:1px;stroke-linecap:butt;stroke-linejoin:miter;stroke-opacity:1" d="M 560.764,399.67 574.895,374.234 z" id="boundary" inkscape:connector-curvature="0" />
	<path style="fill:none;stroke:red;stroke-width:1px;stroke-linecap:butt;stroke-linejoin:miter;stroke-opacity:1" d="M 560.764,851.863 555.111,902.735 z" id="boundary" inkscape:connector-curvature="0" />
	<path style="fill:none;stroke:red;stroke-width:1px;stroke-linecap:butt;stroke-linejoin:miter;stroke-opacity:1" d="M 566.416,484.456 566.416,512.718 z" id="boundary" inkscape:connector-curvature="0" />
	<path style="fill:none;stroke:red;stroke-width:1px;stroke-linecap:butt;stroke-linejoin:miter;stroke-opacity:1" d="M 566.416,512.718 566.416,540.98 z" id="boundary" inkscape:connector-curvature="0" />
	<path style="fill:none;stroke:red;stroke-width:1px;stroke-linecap:butt;stroke-linejoin:miter;stroke-opacity:1" d="M 583.373,114.222 597.504,139.658 z" id="boundary" inkscape:connector-curvature="0" />
	<path style="fill:none;stroke:red;stroke-width:1px;stroke-linecap:butt;stroke-linejoin:miter;stroke-opacity:1" d="M 574.895,374.234 589.026,348.798 z" id="boundary" inkscape:connector-curvature="0" />
	<path style="fill:none;stroke:red;stroke-width:1px;stroke-linecap:butt;stroke-linejoin:miter;stroke-opacity:1" d="M 572.068,597.504 572.068,625.766 z" id="boundary" inkscape:connector-curvature="0" />
	<path style="fill:none;stroke:red;stroke-width:1px;stroke-linecap:butt;stroke-linejoin:miter;stroke-opacity:1" d="M 572.068,625.766 572.068,654.028 z" id="boundary" inkscape:connector-curvature="0" />
	<path style="fill:none;stroke:red;stroke-width:1px;stroke-linecap:butt;stroke-linejoin:miter;stroke-opacity:1" d="M 605.983,320.536 620.114,295.1 z" id="boundary" inkscape:connector-curvature="0" />
	<path style="fill:none;stroke:red;stroke-width:1px;stroke-linecap:butt;stroke-linejoin:miter;stroke-opacity:1" d="M 572.068,682.291 572.068,654.028 z" id="boundary" inkscape:connector-curvature="0" />
	<path style="fill:none;stroke:red;stroke-width:1px;stroke-linecap:butt;stroke-linejoin:miter;stroke-opacity:1" d="M 605.983,320.536 589.026,348.798 z" id="boundary" inkscape:connector-curvature="0" />
	<path style="fill:none;stroke:red;stroke-width:1px;stroke-linecap:butt;stroke-linejoin:miter;stroke-opacity:1" d="M 572.068,710.553 572.068,682.291 z" id="boundary" inkscape:connector-curvature="0" />
	<path style="fill:none;stroke:red;stroke-width:1px;stroke-linecap:butt;stroke-linejoin:miter;stroke-opacity:1" d="M 572.068,738.815 572.068,710.553 z" id="boundary" inkscape:connector-curvature="0" />
	<path style="fill:none;stroke:red;stroke-width:1px;stroke-linecap:butt;stroke-linejoin:miter;stroke-opacity:1" d="M 560.764,795.339 572.068,767.077 z" id="boundary" inkscape:connector-curvature="0" />
	<path style="fill:none;stroke:red;stroke-width:1px;stroke-linecap:butt;stroke-linejoin:miter;stroke-opacity:1" d="M 572.068,767.077 572.068,738.815 z" id="boundary" inkscape:connector-curvature="0" />
	<path style="fill:none;stroke:red;stroke-width:1px;stroke-linecap:butt;stroke-linejoin:miter;stroke-opacity:1" d="M 608.809,167.92 617.288,196.182 z" id="boundary" inkscape:connector-curvature="0" />
	<path style="fill:none;stroke:red;stroke-width:1px;stroke-linecap:butt;stroke-linejoin:miter;stroke-opacity:1" d="M 617.288,196.182 622.94,224.444 z" id="boundary" inkscape:connector-curvature="0" />
	<path style="fill:none;stroke:red;stroke-width:1px;stroke-linecap:butt;stroke-linejoin:miter;stroke-opacity:1" d="M 622.94,224.444 622.94,252.707 z" id="boundary" inkscape:connector-curvature="0" />
	<path style="fill:none;stroke:red;stroke-width:1px;stroke-linecap:butt;stroke-linejoin:miter;stroke-opacity:1" d="M 622.94,252.707 620.114,295.1 z" id="boundary" inkscape:connector-curvature="0" />
	<circle cx="4" cy="789.687" r="4" fill="#0" id="circle0"/>
	<circle cx="4" cy="817.949" r="4" fill="#0" id="circle1"/>
	<circle cx="4" cy="846.211" r="4" fill="#0" id="circle2"/>
	<circle cx="4" cy="874.473" r="4" fill="#0" id="circle3"/>
	<circle cx="9.65242" cy="761.425" r="4" fill="#0" id="circle4"/>
	<circle cx="9.65242" cy="902.735" r="4" fill="#0" id="circle5"/>
	<circle cx="15.3048" cy="930.997" r="4" fill="#0" id="circle6"/>
	<circle cx="20.9573" cy="959.259" r="4" fill="#0" id="circle7"/>
	<circle cx="23.7835" cy="735.989" r="4" fill="#0" id="circle8"/>
	<circle cx="43.567" cy="979.043" r="4" fill="#0" id="circle9"/>
	<circle cx="52.0456" cy="727.51" r="4" fill="#0" id="circle10"/>
	<circle cx="66.1766" cy="996" r="4" fill="#0" id="circle11"/>
	<circle cx="80.3077" cy="727.51" r="4" fill="#0" id="circle12"/>
	<circle cx="83.1339" cy="512.718" r="4" fill="#0" id="circle13"/>
	<circle cx="91.6125" cy="540.98" r="4" fill="#0" id="circle14"/>
	<circle cx="94.4387" cy="484.456" r="4" fill="#0" id="circle15"/>
	<circle cx="94.4387" cy="996" r="4" fill="#0" id="circle16"/>
	<circle cx="100.091" cy="569.242" r="4" fill="#0" id="circle17"/>
	<circle cx="108.57" cy="727.51" r="4" fill="#0" id="circle18"/>
	<circle cx="111.396" cy="461.846" r="4" fill="#0" id="circle19"/>
	<circle cx="114.222" cy="594.678" r="4" fill="#0" id="circle20"/>
	<circle cx="122.701" cy="235.749" r="4" fill="#0" id="circle21"/>
	<circle cx="122.701" cy="264.011" r="4" fill="#0" id="circle22"/>
	<circle cx="122.701" cy="996" r="4" fill="#0" id="circle23"/>
	<circle cx="128.353" cy="659.681" r="4" fill="#0" id="circle24"/>
	<circle cx="131.179" cy="687.943" r="4" fill="#0" id="circle25"/>
	<circle cx="134.006" cy="292.274" r="4" fill="#0" id="circle26"/>
	<circle cx="134.006" cy="620.114" r="4" fill="#0" id="circle27"/>
	<circle cx="136.832" cy="320.536" r="4" fill="#0" id="circle28"/>
	<circle cx="136.832" cy="447.715" r="4" fill="#0" id="circle29"/>
	<circle cx="145.311" cy="218.792" r="4" fill="#0" id="circle30"/>
	<circle cx="148.137" cy="348.798" r="4" fill="#0" id="circle31"/>
	<circle cx="150.963" cy="990.348" r="4" fill="#0" id="circle32"/>
	<circle cx="165.094" cy="439.236" r="4" fill="#0" id="circle33"/>
	<circle cx="167.92" cy="201.835" r="4" fill="#0" id="circle34"/>
	<circle cx="173.573" cy="362.929" r="4" fill="#0" id="circle35"/>
	<circle cx="179.225" cy="996" r="4" fill="#0" id="circle36"/>
	<circle cx="193.356" cy="433.584" r="4" fill="#0" id="circle37"/>
	<circle cx="196.182" cy="190.53" r="4" fill="#0" id="circle38"/>
	<circle cx="201.835" cy="368.581" r="4" fill="#0" id="circle39"/>
	<circle cx="207.487" cy="996" r="4" fill="#0" id="circle40"/>
	<circle cx="218.792" cy="391.191" r="4" fill="#0" id="circle41"/>
	<circle cx="221.618" cy="419.453" r="4" fill="#0" id="circle42"/>
	<circle cx="224.444" cy="184.877" r="4" fill="#0" id="circle43"/>
	<circle cx="235.749" cy="996" r="4" fill="#0" id="circle44"/>
	<circle cx="249.88" cy="170.746" r="4" fill="#0" id="circle45"/>
	<circle cx="264.011" cy="990.348" r="4" fill="#0" id="circle46"/>
	<circle cx="266.838" cy="148.137" r="4" fill="#0" id="circle47"/>
	<circle cx="280.969" cy="122.701" r="4" fill="#0" id="circle48"/>
	<circle cx="292.274" cy="979.043" r="4" fill="#0" id="circle49"/>
	<circle cx="297.926" cy="100.091" r="4" fill="#0" id="circle50"/>
	<circle cx="320.536" cy="77.4815" r="4" fill="#0" id="circle51"/>
	<circle cx="320.536" cy="979.043" r="4" fill="#0" id="circle52"/>
	<circle cx="343.145" cy="54.8718" r="4" fill="#0" id="circle53"/>
	<circle cx="348.798" cy="984.695" r="4" fill="#0" id="circle54"/>
	<circle cx="357.276" cy="29.4359" r="4" fill="#0" id="circle55"/>
	<circle cx="377.06" cy="984.695" r="4" fill="#0" id="circle56"/>
	<circle cx="379.886" cy="9.65242" r="4" fill="#0" id="circle57"/>
	<circle cx="405.322" cy="990.348" r="4" fill="#0" id="circle58"/>
	<circle cx="408.148" cy="4" r="4" fill="#0" id="circle59"/>
	<circle cx="433.584" cy="990.348" r="4" fill="#0" id="circle60"/>
	<circle cx="436.41" cy="9.65242" r="4" fill="#0" id="circle61"/>
	<circle cx="461.846" cy="996" r="4" fill="#0" id="circle62"/>
	<circle cx="464.672" cy="4" r="4" fill="#0" id="circle63"/>
	<circle cx="490.108" cy="990.348" r="4" fill="#0" id="circle64"/>
	<circle cx="492.934" cy="9.65242" r="4" fill="#0" id="circle65"/>
	<circle cx="515.544" cy="26.6097" r="4" fill="#0" id="circle66"/>
	<circle cx="518.37" cy="979.043" r="4" fill="#0" id="circle67"/>
	<circle cx="521.197" cy="54.8718" r="4" fill="#0" id="circle68"/>
	<circle cx="538.154" cy="77.4815" r="4" fill="#0" id="circle69"/>
	<circle cx="543.806" cy="959.259" r="4" fill="#0" id="circle70"/>
	<circle cx="549.459" cy="930.997" r="4" fill="#0" id="circle71"/>
	<circle cx="555.111" cy="902.735" r="4" fill="#0" id="circle72"/>
	<circle cx="560.764" cy="399.67" r="4" fill="#0" id="circle73"/>
	<circle cx="560.764" cy="795.339" r="4" fill="#0" id="circle74"/>
	<circle cx="560.764" cy="823.601" r="4" fill="#0" id="circle75"/>
	<circle cx="560.764" cy="851.863" r="4" fill="#0" id="circle76"/>
	<circle cx="563.59" cy="91.6125" r="4" fill="#0" id="circle77"/>
	<circle cx="566.416" cy="427.932" r="4" fill="#0" id="circle78"/>
	<circle cx="566.416" cy="456.194" r="4" fill="#0" id="circle79"/>
	<circle cx="566.416" cy="484.456" r="4" fill="#0" id="circle80"/>
	<circle cx="566.416" cy="512.718" r="4" fill="#0" id="circle81"/>
	<circle cx="566.416" cy="540.98" r="4" fill="#0" id="circle82"/>
	<circle cx="572.068" cy="569.242" r="4" fill="#0" id="circle83"/>
	<circle cx="572.068" cy="597.504" r="4" fill="#0" id="circle84"/>
	<circle cx="572.068" cy="625.766" r="4" fill="#0" id="circle85"/>
	<circle cx="572.068" cy="654.028" r="4" fill="#0" id="circle86"/>
	<circle cx="572.068" cy="682.291" r="4" fill="#0" id="circle87"/>
	<circle cx="572.068" cy="710.553" r="4" fill="#0" id="circle88"/>
	<circle cx="572.068" cy="738.815" r="4" fill="#0" id="circle89"/>
	<circle cx="572.068" cy="767.077" r="4" fill="#0" id="circle90"/>
	<circle cx="574.895" cy="374.234" r="4" fill="#0" id="circle91"/>
	<circle cx="583.373" cy="114.222" r="4" fill="#0" id="circle92"/>
	<circle cx="589.026" cy="348.798" r="4" fill="#0" id="circle93"/>
	<circle cx="597.504" cy="139.658" r="4" fill="#0" id="circle94"/>
	<circle cx="605.983" cy="320.536" r="4" fill="#0" id="circle95"/>
	<circle cx="608.809" cy="167.92" r="4" fill="#0" id="circle96"/>
	<circle cx="617.288" cy="196.182" r="4" fill="#0" id="circle97"/>
	<circle cx="620.114" cy="295.1" r="4" fill="#0" id="circle98"/>
	<circle cx="622.94" cy="224.444" r="4" fill="#0" id="circle99"/>
	<circle cx="622.94" cy="252.707" r="4" fill="#0" id="circle100"/>
	</g>
</svg>