<?xml version="1.0" encoding="UTF-8" standalone="no"?>
<!-- Created with CurveBenchmark -->
<svg
	xmlns:dc="http://purl.org/dc/elements/1.1/"
	xmlns:cc="http://creativecommons.org/ns#"
	xmlns:rdf="http://www.w3.org/1999/02/22-rdf-syntax-ns#"
	xmlns:svg="http://www.w3.org/2000/svg"
	xmlns="http://www.w3.org/2000/svg"
	xmlns:sodipodi="http://sodipodi.sourceforge.net/DTD/sodipodi-0.dtd"
	xmlns:inkscape="http://www.inkscape.org/namespaces/inkscape"
	width="1000"
	height="1000"
	id="svg2"
	version="1.1"
	sodipodi:docname="manifold/peel-spoon-12.png.txt">
<defs
	id="defs4" />
<metadata
	id="metadata7">
	<rdf:RDF>
		<cc:Work
			rdf:about="">
			<dc:format>image/svg+xml</dc:format>
			<dc:type
				rdf:resource="http://purl.org/dc/dcmitype/StillImage" />
			<dc:title></dc:title>
		</cc:Work>
	</rdf:RDF>
</metadata>
<g
	inkscape:label="Layer 1"
	inkscape:groupmode="layer"
	id="layer1">
	<path style="fill:none;stroke:red;stroke-width:1px;stroke-linecap:butt;stroke-linejoin:miter;stroke-opacity:1" d="M 8.3281,655.812 8.3281,664.468 z" id="boundary" inkscape:connector-curvature="0" />
	<path style="fill:none;stroke:red;stroke-width:1px;stroke-linecap:butt;stroke-linejoin:miter;stroke-opacity:1" d="M 8.3281,664.468 4,677.452 z" id="boundary" inkscape:connector-curvature="0" />
	<path style="fill:none;stroke:red;stroke-width:1px;stroke-linecap:butt;stroke-linejoin:miter;stroke-opacity:1" d="M 8.3281,655.812 8.3281,647.155 z" id="boundary" inkscape:connector-curvature="0" />
	<path style="fill:none;stroke:red;stroke-width:1px;stroke-linecap:butt;stroke-linejoin:miter;stroke-opacity:1" d="M 4,677.452 4,686.108 z" id="boundary" inkscape:connector-curvature="0" />
	<path style="fill:none;stroke:red;stroke-width:1px;stroke-linecap:butt;stroke-linejoin:miter;stroke-opacity:1" d="M 4,686.108 4,694.764 z" id="boundary" inkscape:connector-curvature="0" />
	<path style="fill:none;stroke:red;stroke-width:1px;stroke-linecap:butt;stroke-linejoin:miter;stroke-opacity:1" d="M 4,694.764 4,703.421 z" id="boundary" inkscape:connector-curvature="0" />
	<path style="fill:none;stroke:red;stroke-width:1px;stroke-linecap:butt;stroke-linejoin:miter;stroke-opacity:1" d="M 21.3124,621.187 16.9843,629.843 z" id="boundary" inkscape:connector-curvature="0" />
	<path style="fill:none;stroke:red;stroke-width:1px;stroke-linecap:butt;stroke-linejoin:miter;stroke-opacity:1" d="M 268.88,510.387 275.805,515.581 z" id="boundary" inkscape:connector-curvature="0" />
	<path style="fill:none;stroke:red;stroke-width:1px;stroke-linecap:butt;stroke-linejoin:miter;stroke-opacity:1" d="M 275.805,515.581 279.267,524.237 z" id="boundary" inkscape:connector-curvature="0" />
	<path style="fill:none;stroke:red;stroke-width:1px;stroke-linecap:butt;stroke-linejoin:miter;stroke-opacity:1" d="M 290.52,538.087 286.192,530.297 z" id="boundary" inkscape:connector-curvature="0" />
	<path style="fill:none;stroke:red;stroke-width:1px;stroke-linecap:butt;stroke-linejoin:miter;stroke-opacity:1" d="M 286.192,530.297 279.267,524.237 z" id="boundary" inkscape:connector-curvature="0" />
	<path style="fill:none;stroke:red;stroke-width:1px;stroke-linecap:butt;stroke-linejoin:miter;stroke-opacity:1" d="M 4,712.077 4,720.733 z" id="boundary" inkscape:connector-curvature="0" />
	<path style="fill:none;stroke:red;stroke-width:1px;stroke-linecap:butt;stroke-linejoin:miter;stroke-opacity:1" d="M 4,746.702 4,738.045 z" id="boundary" inkscape:connector-curvature="0" />
	<path style="fill:none;stroke:red;stroke-width:1px;stroke-linecap:butt;stroke-linejoin:miter;stroke-opacity:1" d="M 4,746.702 4,755.358 z" id="boundary" inkscape:connector-curvature="0" />
	<path style="fill:none;stroke:red;stroke-width:1px;stroke-linecap:butt;stroke-linejoin:miter;stroke-opacity:1" d="M 8.3281,647.155 12.6562,638.499 z" id="boundary" inkscape:connector-curvature="0" />
	<path style="fill:none;stroke:red;stroke-width:1px;stroke-linecap:butt;stroke-linejoin:miter;stroke-opacity:1" d="M 8.3281,771.805 4,764.014 z" id="boundary" inkscape:connector-curvature="0" />
	<path style="fill:none;stroke:red;stroke-width:1px;stroke-linecap:butt;stroke-linejoin:miter;stroke-opacity:1" d="M 4,764.014 4,755.358 z" id="boundary" inkscape:connector-curvature="0" />
	<path style="fill:none;stroke:red;stroke-width:1px;stroke-linecap:butt;stroke-linejoin:miter;stroke-opacity:1" d="M 8.3281,780.461 8.3281,771.805 z" id="boundary" inkscape:connector-curvature="0" />
	<path style="fill:none;stroke:red;stroke-width:1px;stroke-linecap:butt;stroke-linejoin:miter;stroke-opacity:1" d="M 12.6562,638.499 16.9843,629.843 z" id="boundary" inkscape:connector-curvature="0" />
	<path style="fill:none;stroke:red;stroke-width:1px;stroke-linecap:butt;stroke-linejoin:miter;stroke-opacity:1" d="M 8.3281,789.117 8.3281,780.461 z" id="boundary" inkscape:connector-curvature="0" />
	<path style="fill:none;stroke:red;stroke-width:1px;stroke-linecap:butt;stroke-linejoin:miter;stroke-opacity:1" d="M 8.3281,797.773 8.3281,789.117 z" id="boundary" inkscape:connector-curvature="0" />
	<path style="fill:none;stroke:red;stroke-width:1px;stroke-linecap:butt;stroke-linejoin:miter;stroke-opacity:1" d="M 8.3281,806.429 8.3281,797.773 z" id="boundary" inkscape:connector-curvature="0" />
	<path style="fill:none;stroke:red;stroke-width:1px;stroke-linecap:butt;stroke-linejoin:miter;stroke-opacity:1" d="M 12.6562,814.22 8.3281,806.429 z" id="boundary" inkscape:connector-curvature="0" />
	<path style="fill:none;stroke:red;stroke-width:1px;stroke-linecap:butt;stroke-linejoin:miter;stroke-opacity:1" d="M 107.874,498.269 107.874,489.613 z" id="boundary" inkscape:connector-curvature="0" />
	<path style="fill:none;stroke:red;stroke-width:1px;stroke-linecap:butt;stroke-linejoin:miter;stroke-opacity:1" d="M 12.6562,822.876 12.6562,814.22 z" id="boundary" inkscape:connector-curvature="0" />
	<path style="fill:none;stroke:red;stroke-width:1px;stroke-linecap:butt;stroke-linejoin:miter;stroke-opacity:1" d="M 16.9843,830.667 12.6562,822.876 z" id="boundary" inkscape:connector-curvature="0" />
	<path style="fill:none;stroke:red;stroke-width:1px;stroke-linecap:butt;stroke-linejoin:miter;stroke-opacity:1" d="M 16.9843,839.323 16.9843,830.667 z" id="boundary" inkscape:connector-curvature="0" />
	<path style="fill:none;stroke:red;stroke-width:1px;stroke-linecap:butt;stroke-linejoin:miter;stroke-opacity:1" d="M 29.9686,599.546 25.6405,608.202 z" id="boundary" inkscape:connector-curvature="0" />
	<path style="fill:none;stroke:red;stroke-width:1px;stroke-linecap:butt;stroke-linejoin:miter;stroke-opacity:1" d="M 25.6405,608.202 21.3124,621.187 z" id="boundary" inkscape:connector-curvature="0" />
	<path style="fill:none;stroke:red;stroke-width:1px;stroke-linecap:butt;stroke-linejoin:miter;stroke-opacity:1" d="M 18.7155,847.979 16.9843,839.323 z" id="boundary" inkscape:connector-curvature="0" />
	<path style="fill:none;stroke:red;stroke-width:1px;stroke-linecap:butt;stroke-linejoin:miter;stroke-opacity:1" d="M 21.3124,856.635 18.7155,847.979 z" id="boundary" inkscape:connector-curvature="0" />
	<path style="fill:none;stroke:red;stroke-width:1px;stroke-linecap:butt;stroke-linejoin:miter;stroke-opacity:1" d="M 23.0436,865.291 21.3124,856.635 z" id="boundary" inkscape:connector-curvature="0" />
	<path style="fill:none;stroke:red;stroke-width:1px;stroke-linecap:butt;stroke-linejoin:miter;stroke-opacity:1" d="M 100.084,507.791 107.874,498.269 z" id="boundary" inkscape:connector-curvature="0" />
	<path style="fill:none;stroke:red;stroke-width:1px;stroke-linecap:butt;stroke-linejoin:miter;stroke-opacity:1" d="M 27.3717,873.082 23.0436,865.291 z" id="boundary" inkscape:connector-curvature="0" />
	<path style="fill:none;stroke:red;stroke-width:1px;stroke-linecap:butt;stroke-linejoin:miter;stroke-opacity:1" d="M 255.03,499.134 246.373,495.672 z" id="boundary" inkscape:connector-curvature="0" />
	<path style="fill:none;stroke:red;stroke-width:1px;stroke-linecap:butt;stroke-linejoin:miter;stroke-opacity:1" d="M 30.8342,881.738 27.3717,873.082 z" id="boundary" inkscape:connector-curvature="0" />
	<path style="fill:none;stroke:red;stroke-width:1px;stroke-linecap:butt;stroke-linejoin:miter;stroke-opacity:1" d="M 68.9215,132.112 68.9215,123.455 z" id="boundary" inkscape:connector-curvature="0" />
	<path style="fill:none;stroke:red;stroke-width:1px;stroke-linecap:butt;stroke-linejoin:miter;stroke-opacity:1" d="M 68.9215,140.768 68.9215,132.112 z" id="boundary" inkscape:connector-curvature="0" />
	<path style="fill:none;stroke:red;stroke-width:1px;stroke-linecap:butt;stroke-linejoin:miter;stroke-opacity:1" d="M 38.6248,582.234 42.9529,573.578 z" id="boundary" inkscape:connector-curvature="0" />
	<path style="fill:none;stroke:red;stroke-width:1px;stroke-linecap:butt;stroke-linejoin:miter;stroke-opacity:1" d="M 68.9215,140.768 68.9215,149.424 z" id="boundary" inkscape:connector-curvature="0" />
	<path style="fill:none;stroke:red;stroke-width:1px;stroke-linecap:butt;stroke-linejoin:miter;stroke-opacity:1" d="M 41.2216,896.454 35.1623,889.529 z" id="boundary" inkscape:connector-curvature="0" />
	<path style="fill:none;stroke:red;stroke-width:1px;stroke-linecap:butt;stroke-linejoin:miter;stroke-opacity:1" d="M 35.1623,889.529 30.8342,881.738 z" id="boundary" inkscape:connector-curvature="0" />
	<path style="fill:none;stroke:red;stroke-width:1px;stroke-linecap:butt;stroke-linejoin:miter;stroke-opacity:1" d="M 42.9529,573.578 47.281,564.921 z" id="boundary" inkscape:connector-curvature="0" />
	<path style="fill:none;stroke:red;stroke-width:1px;stroke-linecap:butt;stroke-linejoin:miter;stroke-opacity:1" d="M 47.281,564.921 54.2059,557.997 z" id="boundary" inkscape:connector-curvature="0" />
	<path style="fill:none;stroke:red;stroke-width:1px;stroke-linecap:butt;stroke-linejoin:miter;stroke-opacity:1" d="M 51.6091,911.169 55.9372,918.96 z" id="boundary" inkscape:connector-curvature="0" />
	<path style="fill:none;stroke:red;stroke-width:1px;stroke-linecap:butt;stroke-linejoin:miter;stroke-opacity:1" d="M 68.9215,158.08 68.9215,149.424 z" id="boundary" inkscape:connector-curvature="0" />
	<path style="fill:none;stroke:red;stroke-width:1px;stroke-linecap:butt;stroke-linejoin:miter;stroke-opacity:1" d="M 74.1152,533.759 67.1902,540.684 z" id="boundary" inkscape:connector-curvature="0" />
	<path style="fill:none;stroke:red;stroke-width:1px;stroke-linecap:butt;stroke-linejoin:miter;stroke-opacity:1" d="M 68.9215,166.736 68.9215,158.08 z" id="boundary" inkscape:connector-curvature="0" />
	<path style="fill:none;stroke:red;stroke-width:1px;stroke-linecap:butt;stroke-linejoin:miter;stroke-opacity:1" d="M 47.281,903.379 41.2216,896.454 z" id="boundary" inkscape:connector-curvature="0" />
	<path style="fill:none;stroke:red;stroke-width:1px;stroke-linecap:butt;stroke-linejoin:miter;stroke-opacity:1" d="M 51.6091,911.169 47.281,903.379 z" id="boundary" inkscape:connector-curvature="0" />
	<path style="fill:none;stroke:red;stroke-width:1px;stroke-linecap:butt;stroke-linejoin:miter;stroke-opacity:1" d="M 229.927,476.628 231.658,485.284 z" id="boundary" inkscape:connector-curvature="0" />
	<path style="fill:none;stroke:red;stroke-width:1px;stroke-linecap:butt;stroke-linejoin:miter;stroke-opacity:1" d="M 73.2496,191.839 73.2496,200.496 z" id="boundary" inkscape:connector-curvature="0" />
	<path style="fill:none;stroke:red;stroke-width:1px;stroke-linecap:butt;stroke-linejoin:miter;stroke-opacity:1" d="M 60.2653,547.609 67.1902,540.684 z" id="boundary" inkscape:connector-curvature="0" />
	<path style="fill:none;stroke:red;stroke-width:1px;stroke-linecap:butt;stroke-linejoin:miter;stroke-opacity:1" d="M 60.2653,547.609 54.2059,557.997 z" id="boundary" inkscape:connector-curvature="0" />
	<path style="fill:none;stroke:red;stroke-width:1px;stroke-linecap:butt;stroke-linejoin:miter;stroke-opacity:1" d="M 60.2653,926.75 55.9372,918.96 z" id="boundary" inkscape:connector-curvature="0" />
	<path style="fill:none;stroke:red;stroke-width:1px;stroke-linecap:butt;stroke-linejoin:miter;stroke-opacity:1" d="M 107.874,480.956 107.874,489.613 z" id="boundary" inkscape:connector-curvature="0" />
	<path style="fill:none;stroke:red;stroke-width:1px;stroke-linecap:butt;stroke-linejoin:miter;stroke-opacity:1" d="M 73.2496,209.152 73.2496,200.496 z" id="boundary" inkscape:connector-curvature="0" />
	<path style="fill:none;stroke:red;stroke-width:1px;stroke-linecap:butt;stroke-linejoin:miter;stroke-opacity:1" d="M 73.2496,174.527 73.2496,183.183 z" id="boundary" inkscape:connector-curvature="0" />
	<path style="fill:none;stroke:red;stroke-width:1px;stroke-linecap:butt;stroke-linejoin:miter;stroke-opacity:1" d="M 73.2496,174.527 68.9215,166.736 z" id="boundary" inkscape:connector-curvature="0" />
	<path style="fill:none;stroke:red;stroke-width:1px;stroke-linecap:butt;stroke-linejoin:miter;stroke-opacity:1" d="M 73.2496,183.183 73.2496,191.839 z" id="boundary" inkscape:connector-curvature="0" />
	<path style="fill:none;stroke:red;stroke-width:1px;stroke-linecap:butt;stroke-linejoin:miter;stroke-opacity:1" d="M 68.9215,123.455 73.2496,110.471 z" id="boundary" inkscape:connector-curvature="0" />
	<path style="fill:none;stroke:red;stroke-width:1px;stroke-linecap:butt;stroke-linejoin:miter;stroke-opacity:1" d="M 73.2496,110.471 73.2496,101.815 z" id="boundary" inkscape:connector-curvature="0" />
	<path style="fill:none;stroke:red;stroke-width:1px;stroke-linecap:butt;stroke-linejoin:miter;stroke-opacity:1" d="M 34.2967,590.89 29.9686,599.546 z" id="boundary" inkscape:connector-curvature="0" />
	<path style="fill:none;stroke:red;stroke-width:1px;stroke-linecap:butt;stroke-linejoin:miter;stroke-opacity:1" d="M 255.895,76.712 255.895,68.0558 z" id="boundary" inkscape:connector-curvature="0" />
	<path style="fill:none;stroke:red;stroke-width:1px;stroke-linecap:butt;stroke-linejoin:miter;stroke-opacity:1" d="M 255.895,68.0558 251.567,60.2653 z" id="boundary" inkscape:connector-curvature="0" />
	<path style="fill:none;stroke:red;stroke-width:1px;stroke-linecap:butt;stroke-linejoin:miter;stroke-opacity:1" d="M 72.3839,939.735 65.459,933.675 z" id="boundary" inkscape:connector-curvature="0" />
	<path style="fill:none;stroke:red;stroke-width:1px;stroke-linecap:butt;stroke-linejoin:miter;stroke-opacity:1" d="M 65.459,933.675 60.2653,926.75 z" id="boundary" inkscape:connector-curvature="0" />
	<path style="fill:none;stroke:red;stroke-width:1px;stroke-linecap:butt;stroke-linejoin:miter;stroke-opacity:1" d="M 78.4433,946.66 72.3839,939.735 z" id="boundary" inkscape:connector-curvature="0" />
	<path style="fill:none;stroke:red;stroke-width:1px;stroke-linecap:butt;stroke-linejoin:miter;stroke-opacity:1" d="M 38.6248,582.234 34.2967,590.89 z" id="boundary" inkscape:connector-curvature="0" />
	<path style="fill:none;stroke:red;stroke-width:1px;stroke-linecap:butt;stroke-linejoin:miter;stroke-opacity:1" d="M 73.2496,209.152 77.5777,216.942 z" id="boundary" inkscape:connector-curvature="0" />
	<path style="fill:none;stroke:red;stroke-width:1px;stroke-linecap:butt;stroke-linejoin:miter;stroke-opacity:1" d="M 73.2496,101.815 77.5777,93.1588 z" id="boundary" inkscape:connector-curvature="0" />
	<path style="fill:none;stroke:red;stroke-width:1px;stroke-linecap:butt;stroke-linejoin:miter;stroke-opacity:1" d="M 77.5777,93.1588 81.9058,84.5026 z" id="boundary" inkscape:connector-curvature="0" />
	<path style="fill:none;stroke:red;stroke-width:1px;stroke-linecap:butt;stroke-linejoin:miter;stroke-opacity:1" d="M 77.5777,216.942 77.5777,225.599 z" id="boundary" inkscape:connector-curvature="0" />
	<path style="fill:none;stroke:red;stroke-width:1px;stroke-linecap:butt;stroke-linejoin:miter;stroke-opacity:1" d="M 81.9058,242.045 83.637,250.702 z" id="boundary" inkscape:connector-curvature="0" />
	<path style="fill:none;stroke:red;stroke-width:1px;stroke-linecap:butt;stroke-linejoin:miter;stroke-opacity:1" d="M 231.658,485.284 240.314,488.747 z" id="boundary" inkscape:connector-curvature="0" />
	<path style="fill:none;stroke:red;stroke-width:1px;stroke-linecap:butt;stroke-linejoin:miter;stroke-opacity:1" d="M 240.314,488.747 246.373,495.672 z" id="boundary" inkscape:connector-curvature="0" />
	<path style="fill:none;stroke:red;stroke-width:1px;stroke-linecap:butt;stroke-linejoin:miter;stroke-opacity:1" d="M 81.9058,233.389 81.9058,242.045 z" id="boundary" inkscape:connector-curvature="0" />
	<path style="fill:none;stroke:red;stroke-width:1px;stroke-linecap:butt;stroke-linejoin:miter;stroke-opacity:1" d="M 81.9058,233.389 77.5777,225.599 z" id="boundary" inkscape:connector-curvature="0" />
	<path style="fill:none;stroke:red;stroke-width:1px;stroke-linecap:butt;stroke-linejoin:miter;stroke-opacity:1" d="M 74.1152,533.759 78.4433,525.103 z" id="boundary" inkscape:connector-curvature="0" />
	<path style="fill:none;stroke:red;stroke-width:1px;stroke-linecap:butt;stroke-linejoin:miter;stroke-opacity:1" d="M 225.599,23.9092 231.658,30.8342 z" id="boundary" inkscape:connector-curvature="0" />
	<path style="fill:none;stroke:red;stroke-width:1px;stroke-linecap:butt;stroke-linejoin:miter;stroke-opacity:1" d="M 225.599,23.9092 216.942,20.4468 z" id="boundary" inkscape:connector-curvature="0" />
	<path style="fill:none;stroke:red;stroke-width:1px;stroke-linecap:butt;stroke-linejoin:miter;stroke-opacity:1" d="M 78.4433,525.103 85.3682,519.044 z" id="boundary" inkscape:connector-curvature="0" />
	<path style="fill:none;stroke:red;stroke-width:1px;stroke-linecap:butt;stroke-linejoin:miter;stroke-opacity:1" d="M 99.2182,300.908 99.2182,309.564 z" id="boundary" inkscape:connector-curvature="0" />
	<path style="fill:none;stroke:red;stroke-width:1px;stroke-linecap:butt;stroke-linejoin:miter;stroke-opacity:1" d="M 91.4276,267.148 87.9651,258.492 z" id="boundary" inkscape:connector-curvature="0" />
	<path style="fill:none;stroke:red;stroke-width:1px;stroke-linecap:butt;stroke-linejoin:miter;stroke-opacity:1" d="M 87.9651,258.492 83.637,250.702 z" id="boundary" inkscape:connector-curvature="0" />
	<path style="fill:none;stroke:red;stroke-width:1px;stroke-linecap:butt;stroke-linejoin:miter;stroke-opacity:1" d="M 99.2182,292.251 99.2182,300.908 z" id="boundary" inkscape:connector-curvature="0" />
	<path style="fill:none;stroke:red;stroke-width:1px;stroke-linecap:butt;stroke-linejoin:miter;stroke-opacity:1" d="M 90.562,67.1902 86.2339,75.8464 z" id="boundary" inkscape:connector-curvature="0" />
	<path style="fill:none;stroke:red;stroke-width:1px;stroke-linecap:butt;stroke-linejoin:miter;stroke-opacity:1" d="M 85.3682,519.044 91.4276,512.119 z" id="boundary" inkscape:connector-curvature="0" />
	<path style="fill:none;stroke:red;stroke-width:1px;stroke-linecap:butt;stroke-linejoin:miter;stroke-opacity:1" d="M 91.4276,512.119 100.084,507.791 z" id="boundary" inkscape:connector-curvature="0" />
	<path style="fill:none;stroke:red;stroke-width:1px;stroke-linecap:butt;stroke-linejoin:miter;stroke-opacity:1" d="M 94.8901,58.534 101.815,51.6091 z" id="boundary" inkscape:connector-curvature="0" />
	<path style="fill:none;stroke:red;stroke-width:1px;stroke-linecap:butt;stroke-linejoin:miter;stroke-opacity:1" d="M 94.8901,58.534 90.562,67.1902 z" id="boundary" inkscape:connector-curvature="0" />
	<path style="fill:none;stroke:red;stroke-width:1px;stroke-linecap:butt;stroke-linejoin:miter;stroke-opacity:1" d="M 85.3682,952.719 78.4433,946.66 z" id="boundary" inkscape:connector-curvature="0" />
	<path style="fill:none;stroke:red;stroke-width:1px;stroke-linecap:butt;stroke-linejoin:miter;stroke-opacity:1" d="M 95.7557,274.939 91.4276,267.148 z" id="boundary" inkscape:connector-curvature="0" />
	<path style="fill:none;stroke:red;stroke-width:1px;stroke-linecap:butt;stroke-linejoin:miter;stroke-opacity:1" d="M 91.4276,959.644 85.3682,952.719 z" id="boundary" inkscape:connector-curvature="0" />
	<path style="fill:none;stroke:red;stroke-width:1px;stroke-linecap:butt;stroke-linejoin:miter;stroke-opacity:1" d="M 99.2182,283.595 99.2182,292.251 z" id="boundary" inkscape:connector-curvature="0" />
	<path style="fill:none;stroke:red;stroke-width:1px;stroke-linecap:butt;stroke-linejoin:miter;stroke-opacity:1" d="M 99.2182,283.595 95.7557,274.939 z" id="boundary" inkscape:connector-curvature="0" />
	<path style="fill:none;stroke:red;stroke-width:1px;stroke-linecap:butt;stroke-linejoin:miter;stroke-opacity:1" d="M 194.436,5.73124 202.227,10.0593 z" id="boundary" inkscape:connector-curvature="0" />
	<path style="fill:none;stroke:red;stroke-width:1px;stroke-linecap:butt;stroke-linejoin:miter;stroke-opacity:1" d="M 194.436,5.73124 185.78,4 z" id="boundary" inkscape:connector-curvature="0" />
	<path style="fill:none;stroke:red;stroke-width:1px;stroke-linecap:butt;stroke-linejoin:miter;stroke-opacity:1" d="M 107.874,41.2216 114.799,34.2967 z" id="boundary" inkscape:connector-curvature="0" />
	<path style="fill:none;stroke:red;stroke-width:1px;stroke-linecap:butt;stroke-linejoin:miter;stroke-opacity:1" d="M 107.874,41.2216 101.815,51.6091 z" id="boundary" inkscape:connector-curvature="0" />
	<path style="fill:none;stroke:red;stroke-width:1px;stroke-linecap:butt;stroke-linejoin:miter;stroke-opacity:1" d="M 99.2182,309.564 99.2182,318.22 z" id="boundary" inkscape:connector-curvature="0" />
	<path style="fill:none;stroke:red;stroke-width:1px;stroke-linecap:butt;stroke-linejoin:miter;stroke-opacity:1" d="M 99.2182,318.22 99.2182,326.876 z" id="boundary" inkscape:connector-curvature="0" />
	<path style="fill:none;stroke:red;stroke-width:1px;stroke-linecap:butt;stroke-linejoin:miter;stroke-opacity:1" d="M 128.649,21.3124 121.724,27.3717 z" id="boundary" inkscape:connector-curvature="0" />
	<path style="fill:none;stroke:red;stroke-width:1px;stroke-linecap:butt;stroke-linejoin:miter;stroke-opacity:1" d="M 99.2182,326.876 99.2182,335.532 z" id="boundary" inkscape:connector-curvature="0" />
	<path style="fill:none;stroke:red;stroke-width:1px;stroke-linecap:butt;stroke-linejoin:miter;stroke-opacity:1" d="M 225.599,338.129 225.599,329.473 z" id="boundary" inkscape:connector-curvature="0" />
	<path style="fill:none;stroke:red;stroke-width:1px;stroke-linecap:butt;stroke-linejoin:miter;stroke-opacity:1" d="M 99.2182,335.532 99.2182,344.188 z" id="boundary" inkscape:connector-curvature="0" />
	<path style="fill:none;stroke:red;stroke-width:1px;stroke-linecap:butt;stroke-linejoin:miter;stroke-opacity:1" d="M 143.365,10.0593 152.021,8.3281 z" id="boundary" inkscape:connector-curvature="0" />
	<path style="fill:none;stroke:red;stroke-width:1px;stroke-linecap:butt;stroke-linejoin:miter;stroke-opacity:1" d="M 99.2182,344.188 99.2182,352.845 z" id="boundary" inkscape:connector-curvature="0" />
	<path style="fill:none;stroke:red;stroke-width:1px;stroke-linecap:butt;stroke-linejoin:miter;stroke-opacity:1" d="M 168.468,4 177.124,4 z" id="boundary" inkscape:connector-curvature="0" />
	<path style="fill:none;stroke:red;stroke-width:1px;stroke-linecap:butt;stroke-linejoin:miter;stroke-opacity:1" d="M 168.468,4 160.677,8.3281 z" id="boundary" inkscape:connector-curvature="0" />
	<path style="fill:none;stroke:red;stroke-width:1px;stroke-linecap:butt;stroke-linejoin:miter;stroke-opacity:1" d="M 99.2182,352.845 99.2182,361.501 z" id="boundary" inkscape:connector-curvature="0" />
	<path style="fill:none;stroke:red;stroke-width:1px;stroke-linecap:butt;stroke-linejoin:miter;stroke-opacity:1" d="M 242.045,45.5497 246.373,53.3403 z" id="boundary" inkscape:connector-curvature="0" />
	<path style="fill:none;stroke:red;stroke-width:1px;stroke-linecap:butt;stroke-linejoin:miter;stroke-opacity:1" d="M 99.2182,361.501 99.2182,370.157 z" id="boundary" inkscape:connector-curvature="0" />
	<path style="fill:none;stroke:red;stroke-width:1px;stroke-linecap:butt;stroke-linejoin:miter;stroke-opacity:1" d="M 268.88,203.958 268.88,195.302 z" id="boundary" inkscape:connector-curvature="0" />
	<path style="fill:none;stroke:red;stroke-width:1px;stroke-linecap:butt;stroke-linejoin:miter;stroke-opacity:1" d="M 99.2182,370.157 99.2182,378.813 z" id="boundary" inkscape:connector-curvature="0" />
	<path style="fill:none;stroke:red;stroke-width:1px;stroke-linecap:butt;stroke-linejoin:miter;stroke-opacity:1" d="M 103.546,395.26 103.546,403.916 z" id="boundary" inkscape:connector-curvature="0" />
	<path style="fill:none;stroke:red;stroke-width:1px;stroke-linecap:butt;stroke-linejoin:miter;stroke-opacity:1" d="M 103.546,395.26 103.546,386.604 z" id="boundary" inkscape:connector-curvature="0" />
	<path style="fill:none;stroke:red;stroke-width:1px;stroke-linecap:butt;stroke-linejoin:miter;stroke-opacity:1" d="M 103.546,386.604 99.2182,378.813 z" id="boundary" inkscape:connector-curvature="0" />
	<path style="fill:none;stroke:red;stroke-width:1px;stroke-linecap:butt;stroke-linejoin:miter;stroke-opacity:1" d="M 225.599,346.785 225.599,338.129 z" id="boundary" inkscape:connector-curvature="0" />
	<path style="fill:none;stroke:red;stroke-width:1px;stroke-linecap:butt;stroke-linejoin:miter;stroke-opacity:1" d="M 103.546,403.916 103.546,412.572 z" id="boundary" inkscape:connector-curvature="0" />
	<path style="fill:none;stroke:red;stroke-width:1px;stroke-linecap:butt;stroke-linejoin:miter;stroke-opacity:1" d="M 103.546,412.572 103.546,421.229 z" id="boundary" inkscape:connector-curvature="0" />
	<path style="fill:none;stroke:red;stroke-width:1px;stroke-linecap:butt;stroke-linejoin:miter;stroke-opacity:1" d="M 152.021,8.3281 160.677,8.3281 z" id="boundary" inkscape:connector-curvature="0" />
	<path style="fill:none;stroke:red;stroke-width:1px;stroke-linecap:butt;stroke-linejoin:miter;stroke-opacity:1" d="M 103.546,421.229 107.874,429.019 z" id="boundary" inkscape:connector-curvature="0" />
	<path style="fill:none;stroke:red;stroke-width:1px;stroke-linecap:butt;stroke-linejoin:miter;stroke-opacity:1" d="M 107.874,437.675 107.874,446.332 z" id="boundary" inkscape:connector-curvature="0" />
	<path style="fill:none;stroke:red;stroke-width:1px;stroke-linecap:butt;stroke-linejoin:miter;stroke-opacity:1" d="M 185.78,4 177.124,4 z" id="boundary" inkscape:connector-curvature="0" />
	<path style="fill:none;stroke:red;stroke-width:1px;stroke-linecap:butt;stroke-linejoin:miter;stroke-opacity:1" d="M 107.874,437.675 107.874,429.019 z" id="boundary" inkscape:connector-curvature="0" />
	<path style="fill:none;stroke:red;stroke-width:1px;stroke-linecap:butt;stroke-linejoin:miter;stroke-opacity:1" d="M 225.599,355.442 225.599,346.785 z" id="boundary" inkscape:connector-curvature="0" />
	<path style="fill:none;stroke:red;stroke-width:1px;stroke-linecap:butt;stroke-linejoin:miter;stroke-opacity:1" d="M 107.874,446.332 107.874,454.988 z" id="boundary" inkscape:connector-curvature="0" />
	<path style="fill:none;stroke:red;stroke-width:1px;stroke-linecap:butt;stroke-linejoin:miter;stroke-opacity:1" d="M 106.143,970.031 98.3525,965.703 z" id="boundary" inkscape:connector-curvature="0" />
	<path style="fill:none;stroke:red;stroke-width:1px;stroke-linecap:butt;stroke-linejoin:miter;stroke-opacity:1" d="M 98.3525,965.703 91.4276,959.644 z" id="boundary" inkscape:connector-curvature="0" />
	<path style="fill:none;stroke:red;stroke-width:1px;stroke-linecap:butt;stroke-linejoin:miter;stroke-opacity:1" d="M 107.874,463.644 107.874,454.988 z" id="boundary" inkscape:connector-curvature="0" />
	<path style="fill:none;stroke:red;stroke-width:1px;stroke-linecap:butt;stroke-linejoin:miter;stroke-opacity:1" d="M 128.649,21.3124 134.709,14.3874 z" id="boundary" inkscape:connector-curvature="0" />
	<path style="fill:none;stroke:red;stroke-width:1px;stroke-linecap:butt;stroke-linejoin:miter;stroke-opacity:1" d="M 134.709,14.3874 143.365,10.0593 z" id="boundary" inkscape:connector-curvature="0" />
	<path style="fill:none;stroke:red;stroke-width:1px;stroke-linecap:butt;stroke-linejoin:miter;stroke-opacity:1" d="M 210.883,13.5218 216.942,20.4468 z" id="boundary" inkscape:connector-curvature="0" />
	<path style="fill:none;stroke:red;stroke-width:1px;stroke-linecap:butt;stroke-linejoin:miter;stroke-opacity:1" d="M 210.883,13.5218 202.227,10.0593 z" id="boundary" inkscape:connector-curvature="0" />
	<path style="fill:none;stroke:red;stroke-width:1px;stroke-linecap:butt;stroke-linejoin:miter;stroke-opacity:1" d="M 107.874,472.3 107.874,463.644 z" id="boundary" inkscape:connector-curvature="0" />
	<path style="fill:none;stroke:red;stroke-width:1px;stroke-linecap:butt;stroke-linejoin:miter;stroke-opacity:1" d="M 107.874,480.956 107.874,472.3 z" id="boundary" inkscape:connector-curvature="0" />
	<path style="fill:none;stroke:red;stroke-width:1px;stroke-linecap:butt;stroke-linejoin:miter;stroke-opacity:1" d="M 114.799,34.2967 121.724,27.3717 z" id="boundary" inkscape:connector-curvature="0" />
	<path style="fill:none;stroke:red;stroke-width:1px;stroke-linecap:butt;stroke-linejoin:miter;stroke-opacity:1" d="M 242.045,45.5497 238.583,36.8935 z" id="boundary" inkscape:connector-curvature="0" />
	<path style="fill:none;stroke:red;stroke-width:1px;stroke-linecap:butt;stroke-linejoin:miter;stroke-opacity:1" d="M 238.583,36.8935 231.658,30.8342 z" id="boundary" inkscape:connector-curvature="0" />
	<path style="fill:none;stroke:red;stroke-width:1px;stroke-linecap:butt;stroke-linejoin:miter;stroke-opacity:1" d="M 251.567,60.2653 246.373,53.3403 z" id="boundary" inkscape:connector-curvature="0" />
	<path style="fill:none;stroke:red;stroke-width:1px;stroke-linecap:butt;stroke-linejoin:miter;stroke-opacity:1" d="M 227.33,459.316 225.599,450.66 z" id="boundary" inkscape:connector-curvature="0" />
	<path style="fill:none;stroke:red;stroke-width:1px;stroke-linecap:butt;stroke-linejoin:miter;stroke-opacity:1" d="M 113.934,974.36 106.143,970.031 z" id="boundary" inkscape:connector-curvature="0" />
	<path style="fill:none;stroke:red;stroke-width:1px;stroke-linecap:butt;stroke-linejoin:miter;stroke-opacity:1" d="M 121.724,978.688 113.934,974.36 z" id="boundary" inkscape:connector-curvature="0" />
	<path style="fill:none;stroke:red;stroke-width:1px;stroke-linecap:butt;stroke-linejoin:miter;stroke-opacity:1" d="M 129.515,983.016 121.724,978.688 z" id="boundary" inkscape:connector-curvature="0" />
	<path style="fill:none;stroke:red;stroke-width:1px;stroke-linecap:butt;stroke-linejoin:miter;stroke-opacity:1" d="M 137.305,987.344 129.515,983.016 z" id="boundary" inkscape:connector-curvature="0" />
	<path style="fill:none;stroke:red;stroke-width:1px;stroke-linecap:butt;stroke-linejoin:miter;stroke-opacity:1" d="M 153.752,991.672 145.096,991.672 z" id="boundary" inkscape:connector-curvature="0" />
	<path style="fill:none;stroke:red;stroke-width:1px;stroke-linecap:butt;stroke-linejoin:miter;stroke-opacity:1" d="M 145.096,991.672 137.305,987.344 z" id="boundary" inkscape:connector-curvature="0" />
	<path style="fill:none;stroke:red;stroke-width:1px;stroke-linecap:butt;stroke-linejoin:miter;stroke-opacity:1" d="M 225.599,355.442 225.599,364.098 z" id="boundary" inkscape:connector-curvature="0" />
	<path style="fill:none;stroke:red;stroke-width:1px;stroke-linecap:butt;stroke-linejoin:miter;stroke-opacity:1" d="M 162.408,995.134 153.752,991.672 z" id="boundary" inkscape:connector-curvature="0" />
	<path style="fill:none;stroke:red;stroke-width:1px;stroke-linecap:butt;stroke-linejoin:miter;stroke-opacity:1" d="M 171.065,996 162.408,995.134 z" id="boundary" inkscape:connector-curvature="0" />
	<path style="fill:none;stroke:red;stroke-width:1px;stroke-linecap:butt;stroke-linejoin:miter;stroke-opacity:1" d="M 225.599,372.754 225.599,364.098 z" id="boundary" inkscape:connector-curvature="0" />
	<path style="fill:none;stroke:red;stroke-width:1px;stroke-linecap:butt;stroke-linejoin:miter;stroke-opacity:1" d="M 179.721,996 171.065,996 z" id="boundary" inkscape:connector-curvature="0" />
	<path style="fill:none;stroke:red;stroke-width:1px;stroke-linecap:butt;stroke-linejoin:miter;stroke-opacity:1" d="M 225.599,381.41 225.599,372.754 z" id="boundary" inkscape:connector-curvature="0" />
	<path style="fill:none;stroke:red;stroke-width:1px;stroke-linecap:butt;stroke-linejoin:miter;stroke-opacity:1" d="M 225.599,390.066 225.599,381.41 z" id="boundary" inkscape:connector-curvature="0" />
	<path style="fill:none;stroke:red;stroke-width:1px;stroke-linecap:butt;stroke-linejoin:miter;stroke-opacity:1" d="M 197.033,991.672 188.377,995.134 z" id="boundary" inkscape:connector-curvature="0" />
	<path style="fill:none;stroke:red;stroke-width:1px;stroke-linecap:butt;stroke-linejoin:miter;stroke-opacity:1" d="M 188.377,995.134 179.721,996 z" id="boundary" inkscape:connector-curvature="0" />
	<path style="fill:none;stroke:red;stroke-width:1px;stroke-linecap:butt;stroke-linejoin:miter;stroke-opacity:1" d="M 205.689,990.806 197.033,991.672 z" id="boundary" inkscape:connector-curvature="0" />
	<path style="fill:none;stroke:red;stroke-width:1px;stroke-linecap:butt;stroke-linejoin:miter;stroke-opacity:1" d="M 225.599,398.723 225.599,390.066 z" id="boundary" inkscape:connector-curvature="0" />
	<path style="fill:none;stroke:red;stroke-width:1px;stroke-linecap:butt;stroke-linejoin:miter;stroke-opacity:1" d="M 214.346,986.478 205.689,990.806 z" id="boundary" inkscape:connector-curvature="0" />
	<path style="fill:none;stroke:red;stroke-width:1px;stroke-linecap:butt;stroke-linejoin:miter;stroke-opacity:1" d="M 225.599,398.723 225.599,407.379 z" id="boundary" inkscape:connector-curvature="0" />
	<path style="fill:none;stroke:red;stroke-width:1px;stroke-linecap:butt;stroke-linejoin:miter;stroke-opacity:1" d="M 225.599,416.035 225.599,407.379 z" id="boundary" inkscape:connector-curvature="0" />
	<path style="fill:none;stroke:red;stroke-width:1px;stroke-linecap:butt;stroke-linejoin:miter;stroke-opacity:1" d="M 225.599,329.473 229.927,316.489 z" id="boundary" inkscape:connector-curvature="0" />
	<path style="fill:none;stroke:red;stroke-width:1px;stroke-linecap:butt;stroke-linejoin:miter;stroke-opacity:1" d="M 225.599,424.691 225.599,416.035 z" id="boundary" inkscape:connector-curvature="0" />
	<path style="fill:none;stroke:red;stroke-width:1px;stroke-linecap:butt;stroke-linejoin:miter;stroke-opacity:1" d="M 225.599,433.347 225.599,424.691 z" id="boundary" inkscape:connector-curvature="0" />
	<path style="fill:none;stroke:red;stroke-width:1px;stroke-linecap:butt;stroke-linejoin:miter;stroke-opacity:1" d="M 229.927,316.489 234.255,307.832 z" id="boundary" inkscape:connector-curvature="0" />
	<path style="fill:none;stroke:red;stroke-width:1px;stroke-linecap:butt;stroke-linejoin:miter;stroke-opacity:1" d="M 225.599,442.003 225.599,433.347 z" id="boundary" inkscape:connector-curvature="0" />
	<path style="fill:none;stroke:red;stroke-width:1px;stroke-linecap:butt;stroke-linejoin:miter;stroke-opacity:1" d="M 234.255,307.832 234.255,299.176 z" id="boundary" inkscape:connector-curvature="0" />
	<path style="fill:none;stroke:red;stroke-width:1px;stroke-linecap:butt;stroke-linejoin:miter;stroke-opacity:1" d="M 225.599,442.003 225.599,450.66 z" id="boundary" inkscape:connector-curvature="0" />
	<path style="fill:none;stroke:red;stroke-width:1px;stroke-linecap:butt;stroke-linejoin:miter;stroke-opacity:1" d="M 245.508,284.461 251.567,273.208 z" id="boundary" inkscape:connector-curvature="0" />
	<path style="fill:none;stroke:red;stroke-width:1px;stroke-linecap:butt;stroke-linejoin:miter;stroke-opacity:1" d="M 227.33,459.316 229.927,467.972 z" id="boundary" inkscape:connector-curvature="0" />
	<path style="fill:none;stroke:red;stroke-width:1px;stroke-linecap:butt;stroke-linejoin:miter;stroke-opacity:1" d="M 229.927,467.972 229.927,476.628 z" id="boundary" inkscape:connector-curvature="0" />
	<path style="fill:none;stroke:red;stroke-width:1px;stroke-linecap:butt;stroke-linejoin:miter;stroke-opacity:1" d="M 255.03,499.134 262.82,503.462 z" id="boundary" inkscape:connector-curvature="0" />
	<path style="fill:none;stroke:red;stroke-width:1px;stroke-linecap:butt;stroke-linejoin:miter;stroke-opacity:1" d="M 262.82,503.462 268.88,510.387 z" id="boundary" inkscape:connector-curvature="0" />
	<path style="fill:none;stroke:red;stroke-width:1px;stroke-linecap:butt;stroke-linejoin:miter;stroke-opacity:1" d="M 295.714,545.012 299.176,553.668 z" id="boundary" inkscape:connector-curvature="0" />
	<path style="fill:none;stroke:red;stroke-width:1px;stroke-linecap:butt;stroke-linejoin:miter;stroke-opacity:1" d="M 295.714,545.012 290.52,538.087 z" id="boundary" inkscape:connector-curvature="0" />
	<path style="fill:none;stroke:red;stroke-width:1px;stroke-linecap:butt;stroke-linejoin:miter;stroke-opacity:1" d="M 238.583,290.52 245.508,284.461 z" id="boundary" inkscape:connector-curvature="0" />
	<path style="fill:none;stroke:red;stroke-width:1px;stroke-linecap:butt;stroke-linejoin:miter;stroke-opacity:1" d="M 303.504,561.459 299.176,553.668 z" id="boundary" inkscape:connector-curvature="0" />
	<path style="fill:none;stroke:red;stroke-width:1px;stroke-linecap:butt;stroke-linejoin:miter;stroke-opacity:1" d="M 223.002,982.15 214.346,986.478 z" id="boundary" inkscape:connector-curvature="0" />
	<path style="fill:none;stroke:red;stroke-width:1px;stroke-linecap:butt;stroke-linejoin:miter;stroke-opacity:1" d="M 234.255,299.176 238.583,290.52 z" id="boundary" inkscape:connector-curvature="0" />
	<path style="fill:none;stroke:red;stroke-width:1px;stroke-linecap:butt;stroke-linejoin:miter;stroke-opacity:1" d="M 238.583,970.031 231.658,977.822 z" id="boundary" inkscape:connector-curvature="0" />
	<path style="fill:none;stroke:red;stroke-width:1px;stroke-linecap:butt;stroke-linejoin:miter;stroke-opacity:1" d="M 231.658,977.822 223.002,982.15 z" id="boundary" inkscape:connector-curvature="0" />
	<path style="fill:none;stroke:red;stroke-width:1px;stroke-linecap:butt;stroke-linejoin:miter;stroke-opacity:1" d="M 307.832,569.25 311.295,577.906 z" id="boundary" inkscape:connector-curvature="0" />
	<path style="fill:none;stroke:red;stroke-width:1px;stroke-linecap:butt;stroke-linejoin:miter;stroke-opacity:1" d="M 311.295,577.906 312.161,586.562 z" id="boundary" inkscape:connector-curvature="0" />
	<path style="fill:none;stroke:red;stroke-width:1px;stroke-linecap:butt;stroke-linejoin:miter;stroke-opacity:1" d="M 245.508,963.972 238.583,970.031 z" id="boundary" inkscape:connector-curvature="0" />
	<path style="fill:none;stroke:red;stroke-width:1px;stroke-linecap:butt;stroke-linejoin:miter;stroke-opacity:1" d="M 81.9058,84.5026 86.2339,75.8464 z" id="boundary" inkscape:connector-curvature="0" />
	<path style="fill:none;stroke:red;stroke-width:1px;stroke-linecap:butt;stroke-linejoin:miter;stroke-opacity:1" d="M 255.895,76.712 260.223,84.5026 z" id="boundary" inkscape:connector-curvature="0" />
	<path style="fill:none;stroke:red;stroke-width:1px;stroke-linecap:butt;stroke-linejoin:miter;stroke-opacity:1" d="M 260.223,84.5026 263.686,93.1588 z" id="boundary" inkscape:connector-curvature="0" />
	<path style="fill:none;stroke:red;stroke-width:1px;stroke-linecap:butt;stroke-linejoin:miter;stroke-opacity:1" d="M 307.832,569.25 303.504,561.459 z" id="boundary" inkscape:connector-curvature="0" />
	<path style="fill:none;stroke:red;stroke-width:1px;stroke-linecap:butt;stroke-linejoin:miter;stroke-opacity:1" d="M 255.895,948.391 251.567,957.047 z" id="boundary" inkscape:connector-curvature="0" />
	<path style="fill:none;stroke:red;stroke-width:1px;stroke-linecap:butt;stroke-linejoin:miter;stroke-opacity:1" d="M 251.567,957.047 245.508,963.972 z" id="boundary" inkscape:connector-curvature="0" />
	<path style="fill:none;stroke:red;stroke-width:1px;stroke-linecap:butt;stroke-linejoin:miter;stroke-opacity:1" d="M 251.567,273.208 255.895,264.551 z" id="boundary" inkscape:connector-curvature="0" />
	<path style="fill:none;stroke:red;stroke-width:1px;stroke-linecap:butt;stroke-linejoin:miter;stroke-opacity:1" d="M 255.895,264.551 260.223,255.895 z" id="boundary" inkscape:connector-curvature="0" />
	<path style="fill:none;stroke:red;stroke-width:1px;stroke-linecap:butt;stroke-linejoin:miter;stroke-opacity:1" d="M 262.82,942.332 255.895,948.391 z" id="boundary" inkscape:connector-curvature="0" />
	<path style="fill:none;stroke:red;stroke-width:1px;stroke-linecap:butt;stroke-linejoin:miter;stroke-opacity:1" d="M 263.686,93.1588 268.014,100.949 z" id="boundary" inkscape:connector-curvature="0" />
	<path style="fill:none;stroke:red;stroke-width:1px;stroke-linecap:butt;stroke-linejoin:miter;stroke-opacity:1" d="M 268.014,100.949 268.88,109.606 z" id="boundary" inkscape:connector-curvature="0" />
	<path style="fill:none;stroke:red;stroke-width:1px;stroke-linecap:butt;stroke-linejoin:miter;stroke-opacity:1" d="M 260.223,255.895 264.551,247.239 z" id="boundary" inkscape:connector-curvature="0" />
	<path style="fill:none;stroke:red;stroke-width:1px;stroke-linecap:butt;stroke-linejoin:miter;stroke-opacity:1" d="M 264.551,247.239 264.551,238.583 z" id="boundary" inkscape:connector-curvature="0" />
	<path style="fill:none;stroke:red;stroke-width:1px;stroke-linecap:butt;stroke-linejoin:miter;stroke-opacity:1" d="M 273.208,126.918 273.208,135.574 z" id="boundary" inkscape:connector-curvature="0" />
	<path style="fill:none;stroke:red;stroke-width:1px;stroke-linecap:butt;stroke-linejoin:miter;stroke-opacity:1" d="M 273.208,126.918 271.476,118.262 z" id="boundary" inkscape:connector-curvature="0" />
	<path style="fill:none;stroke:red;stroke-width:1px;stroke-linecap:butt;stroke-linejoin:miter;stroke-opacity:1" d="M 271.476,118.262 268.88,109.606 z" id="boundary" inkscape:connector-curvature="0" />
	<path style="fill:none;stroke:red;stroke-width:1px;stroke-linecap:butt;stroke-linejoin:miter;stroke-opacity:1" d="M 268.88,203.958 268.88,212.614 z" id="boundary" inkscape:connector-curvature="0" />
	<path style="fill:none;stroke:red;stroke-width:1px;stroke-linecap:butt;stroke-linejoin:miter;stroke-opacity:1" d="M 268.88,221.271 268.88,212.614 z" id="boundary" inkscape:connector-curvature="0" />
	<path style="fill:none;stroke:red;stroke-width:1px;stroke-linecap:butt;stroke-linejoin:miter;stroke-opacity:1" d="M 268.88,229.927 264.551,238.583 z" id="boundary" inkscape:connector-curvature="0" />
	<path style="fill:none;stroke:red;stroke-width:1px;stroke-linecap:butt;stroke-linejoin:miter;stroke-opacity:1" d="M 268.88,229.927 268.88,221.271 z" id="boundary" inkscape:connector-curvature="0" />
	<path style="fill:none;stroke:red;stroke-width:1px;stroke-linecap:butt;stroke-linejoin:miter;stroke-opacity:1" d="M 273.208,135.574 273.208,144.23 z" id="boundary" inkscape:connector-curvature="0" />
	<path style="fill:none;stroke:red;stroke-width:1px;stroke-linecap:butt;stroke-linejoin:miter;stroke-opacity:1" d="M 273.208,144.23 273.208,152.887 z" id="boundary" inkscape:connector-curvature="0" />
	<path style="fill:none;stroke:red;stroke-width:1px;stroke-linecap:butt;stroke-linejoin:miter;stroke-opacity:1" d="M 273.208,161.543 273.208,152.887 z" id="boundary" inkscape:connector-curvature="0" />
	<path style="fill:none;stroke:red;stroke-width:1px;stroke-linecap:butt;stroke-linejoin:miter;stroke-opacity:1" d="M 268.88,931.079 262.82,942.332 z" id="boundary" inkscape:connector-curvature="0" />
	<path style="fill:none;stroke:red;stroke-width:1px;stroke-linecap:butt;stroke-linejoin:miter;stroke-opacity:1" d="M 273.208,170.199 273.208,161.543 z" id="boundary" inkscape:connector-curvature="0" />
	<path style="fill:none;stroke:red;stroke-width:1px;stroke-linecap:butt;stroke-linejoin:miter;stroke-opacity:1" d="M 275.805,925.019 268.88,931.079 z" id="boundary" inkscape:connector-curvature="0" />
	<path style="fill:none;stroke:red;stroke-width:1px;stroke-linecap:butt;stroke-linejoin:miter;stroke-opacity:1" d="M 273.208,178.855 273.208,170.199 z" id="boundary" inkscape:connector-curvature="0" />
	<path style="fill:none;stroke:red;stroke-width:1px;stroke-linecap:butt;stroke-linejoin:miter;stroke-opacity:1" d="M 273.208,187.511 268.88,195.302 z" id="boundary" inkscape:connector-curvature="0" />
	<path style="fill:none;stroke:red;stroke-width:1px;stroke-linecap:butt;stroke-linejoin:miter;stroke-opacity:1" d="M 273.208,187.511 273.208,178.855 z" id="boundary" inkscape:connector-curvature="0" />
	<path style="fill:none;stroke:red;stroke-width:1px;stroke-linecap:butt;stroke-linejoin:miter;stroke-opacity:1" d="M 315.623,595.218 316.489,603.874 z" id="boundary" inkscape:connector-curvature="0" />
	<path style="fill:none;stroke:red;stroke-width:1px;stroke-linecap:butt;stroke-linejoin:miter;stroke-opacity:1" d="M 315.623,595.218 312.161,586.562 z" id="boundary" inkscape:connector-curvature="0" />
	<path style="fill:none;stroke:red;stroke-width:1px;stroke-linecap:butt;stroke-linejoin:miter;stroke-opacity:1" d="M 281.864,918.094 288.789,912.035 z" id="boundary" inkscape:connector-curvature="0" />
	<path style="fill:none;stroke:red;stroke-width:1px;stroke-linecap:butt;stroke-linejoin:miter;stroke-opacity:1" d="M 281.864,918.094 275.805,925.019 z" id="boundary" inkscape:connector-curvature="0" />
	<path style="fill:none;stroke:red;stroke-width:1px;stroke-linecap:butt;stroke-linejoin:miter;stroke-opacity:1" d="M 294.848,900.782 288.789,912.035 z" id="boundary" inkscape:connector-curvature="0" />
	<path style="fill:none;stroke:red;stroke-width:1px;stroke-linecap:butt;stroke-linejoin:miter;stroke-opacity:1" d="M 299.176,892.126 294.848,900.782 z" id="boundary" inkscape:connector-curvature="0" />
	<path style="fill:none;stroke:red;stroke-width:1px;stroke-linecap:butt;stroke-linejoin:miter;stroke-opacity:1" d="M 325.145,628.112 325.145,619.455 z" id="boundary" inkscape:connector-curvature="0" />
	<path style="fill:none;stroke:red;stroke-width:1px;stroke-linecap:butt;stroke-linejoin:miter;stroke-opacity:1" d="M 325.145,619.455 320.817,611.665 z" id="boundary" inkscape:connector-curvature="0" />
	<path style="fill:none;stroke:red;stroke-width:1px;stroke-linecap:butt;stroke-linejoin:miter;stroke-opacity:1" d="M 303.504,883.469 299.176,892.126 z" id="boundary" inkscape:connector-curvature="0" />
	<path style="fill:none;stroke:red;stroke-width:1px;stroke-linecap:butt;stroke-linejoin:miter;stroke-opacity:1" d="M 320.817,611.665 316.489,603.874 z" id="boundary" inkscape:connector-curvature="0" />
	<path style="fill:none;stroke:red;stroke-width:1px;stroke-linecap:butt;stroke-linejoin:miter;stroke-opacity:1" d="M 329.473,653.215 329.473,661.871 z" id="boundary" inkscape:connector-curvature="0" />
	<path style="fill:none;stroke:red;stroke-width:1px;stroke-linecap:butt;stroke-linejoin:miter;stroke-opacity:1" d="M 329.473,644.558 329.473,653.215 z" id="boundary" inkscape:connector-curvature="0" />
	<path style="fill:none;stroke:red;stroke-width:1px;stroke-linecap:butt;stroke-linejoin:miter;stroke-opacity:1" d="M 307.832,874.813 303.504,883.469 z" id="boundary" inkscape:connector-curvature="0" />
	<path style="fill:none;stroke:red;stroke-width:1px;stroke-linecap:butt;stroke-linejoin:miter;stroke-opacity:1" d="M 329.473,661.871 329.473,670.527 z" id="boundary" inkscape:connector-curvature="0" />
	<path style="fill:none;stroke:red;stroke-width:1px;stroke-linecap:butt;stroke-linejoin:miter;stroke-opacity:1" d="M 333.801,686.974 333.801,695.63 z" id="boundary" inkscape:connector-curvature="0" />
	<path style="fill:none;stroke:red;stroke-width:1px;stroke-linecap:butt;stroke-linejoin:miter;stroke-opacity:1" d="M 312.161,866.157 307.832,874.813 z" id="boundary" inkscape:connector-curvature="0" />
	<path style="fill:none;stroke:red;stroke-width:1px;stroke-linecap:butt;stroke-linejoin:miter;stroke-opacity:1" d="M 316.489,853.173 312.161,866.157 z" id="boundary" inkscape:connector-curvature="0" />
	<path style="fill:none;stroke:red;stroke-width:1px;stroke-linecap:butt;stroke-linejoin:miter;stroke-opacity:1" d="M 316.489,853.173 316.489,844.517 z" id="boundary" inkscape:connector-curvature="0" />
	<path style="fill:none;stroke:red;stroke-width:1px;stroke-linecap:butt;stroke-linejoin:miter;stroke-opacity:1" d="M 320.817,827.204 320.817,835.86 z" id="boundary" inkscape:connector-curvature="0" />
	<path style="fill:none;stroke:red;stroke-width:1px;stroke-linecap:butt;stroke-linejoin:miter;stroke-opacity:1" d="M 320.817,835.86 316.489,844.517 z" id="boundary" inkscape:connector-curvature="0" />
	<path style="fill:none;stroke:red;stroke-width:1px;stroke-linecap:butt;stroke-linejoin:miter;stroke-opacity:1" d="M 329.473,635.902 329.473,644.558 z" id="boundary" inkscape:connector-curvature="0" />
	<path style="fill:none;stroke:red;stroke-width:1px;stroke-linecap:butt;stroke-linejoin:miter;stroke-opacity:1" d="M 329.473,635.902 325.145,628.112 z" id="boundary" inkscape:connector-curvature="0" />
	<path style="fill:none;stroke:red;stroke-width:1px;stroke-linecap:butt;stroke-linejoin:miter;stroke-opacity:1" d="M 320.817,827.204 325.145,814.22 z" id="boundary" inkscape:connector-curvature="0" />
	<path style="fill:none;stroke:red;stroke-width:1px;stroke-linecap:butt;stroke-linejoin:miter;stroke-opacity:1" d="M 329.473,805.564 325.145,814.22 z" id="boundary" inkscape:connector-curvature="0" />
	<path style="fill:none;stroke:red;stroke-width:1px;stroke-linecap:butt;stroke-linejoin:miter;stroke-opacity:1" d="M 4,703.421 4,712.077 z" id="boundary" inkscape:connector-curvature="0" />
	<path style="fill:none;stroke:red;stroke-width:1px;stroke-linecap:butt;stroke-linejoin:miter;stroke-opacity:1" d="M 333.801,695.63 333.801,704.286 z" id="boundary" inkscape:connector-curvature="0" />
	<path style="fill:none;stroke:red;stroke-width:1px;stroke-linecap:butt;stroke-linejoin:miter;stroke-opacity:1" d="M 333.801,704.286 333.801,712.942 z" id="boundary" inkscape:connector-curvature="0" />
	<path style="fill:none;stroke:red;stroke-width:1px;stroke-linecap:butt;stroke-linejoin:miter;stroke-opacity:1" d="M 333.801,712.942 333.801,721.599 z" id="boundary" inkscape:connector-curvature="0" />
	<path style="fill:none;stroke:red;stroke-width:1px;stroke-linecap:butt;stroke-linejoin:miter;stroke-opacity:1" d="M 333.801,678.318 333.801,686.974 z" id="boundary" inkscape:connector-curvature="0" />
	<path style="fill:none;stroke:red;stroke-width:1px;stroke-linecap:butt;stroke-linejoin:miter;stroke-opacity:1" d="M 333.801,678.318 329.473,670.527 z" id="boundary" inkscape:connector-curvature="0" />
	<path style="fill:none;stroke:red;stroke-width:1px;stroke-linecap:butt;stroke-linejoin:miter;stroke-opacity:1" d="M 333.801,790.848 329.473,805.564 z" id="boundary" inkscape:connector-curvature="0" />
	<path style="fill:none;stroke:red;stroke-width:1px;stroke-linecap:butt;stroke-linejoin:miter;stroke-opacity:1" d="M 4,720.733 4,729.389 z" id="boundary" inkscape:connector-curvature="0" />
	<path style="fill:none;stroke:red;stroke-width:1px;stroke-linecap:butt;stroke-linejoin:miter;stroke-opacity:1" d="M 333.801,721.599 333.801,730.255 z" id="boundary" inkscape:connector-curvature="0" />
	<path style="fill:none;stroke:red;stroke-width:1px;stroke-linecap:butt;stroke-linejoin:miter;stroke-opacity:1" d="M 4,729.389 4,738.045 z" id="boundary" inkscape:connector-curvature="0" />
	<path style="fill:none;stroke:red;stroke-width:1px;stroke-linecap:butt;stroke-linejoin:miter;stroke-opacity:1" d="M 333.801,738.911 333.801,730.255 z" id="boundary" inkscape:connector-curvature="0" />
	<path style="fill:none;stroke:red;stroke-width:1px;stroke-linecap:butt;stroke-linejoin:miter;stroke-opacity:1" d="M 333.801,747.567 333.801,738.911 z" id="boundary" inkscape:connector-curvature="0" />
	<path style="fill:none;stroke:red;stroke-width:1px;stroke-linecap:butt;stroke-linejoin:miter;stroke-opacity:1" d="M 333.801,756.223 333.801,747.567 z" id="boundary" inkscape:connector-curvature="0" />
	<path style="fill:none;stroke:red;stroke-width:1px;stroke-linecap:butt;stroke-linejoin:miter;stroke-opacity:1" d="M 333.801,764.88 333.801,756.223 z" id="boundary" inkscape:connector-curvature="0" />
	<path style="fill:none;stroke:red;stroke-width:1px;stroke-linecap:butt;stroke-linejoin:miter;stroke-opacity:1" d="M 333.801,764.88 333.801,773.536 z" id="boundary" inkscape:connector-curvature="0" />
	<path style="fill:none;stroke:red;stroke-width:1px;stroke-linecap:butt;stroke-linejoin:miter;stroke-opacity:1" d="M 333.801,773.536 333.801,782.192 z" id="boundary" inkscape:connector-curvature="0" />
	<path style="fill:none;stroke:red;stroke-width:1px;stroke-linecap:butt;stroke-linejoin:miter;stroke-opacity:1" d="M 333.801,790.848 333.801,782.192 z" id="boundary" inkscape:connector-curvature="0" />
	<circle cx="4" cy="677.452" r="4" fill="#0" id="circle0"/>
	<circle cx="4" cy="686.108" r="4" fill="#0" id="circle1"/>
	<circle cx="4" cy="694.764" r="4" fill="#0" id="circle2"/>
	<circle cx="4" cy="703.421" r="4" fill="#0" id="circle3"/>
	<circle cx="4" cy="712.077" r="4" fill="#0" id="circle4"/>
	<circle cx="4" cy="720.733" r="4" fill="#0" id="circle5"/>
	<circle cx="4" cy="729.389" r="4" fill="#0" id="circle6"/>
	<circle cx="4" cy="738.045" r="4" fill="#0" id="circle7"/>
	<circle cx="4" cy="746.702" r="4" fill="#0" id="circle8"/>
	<circle cx="4" cy="755.358" r="4" fill="#0" id="circle9"/>
	<circle cx="4" cy="764.014" r="4" fill="#0" id="circle10"/>
	<circle cx="8.3281" cy="647.155" r="4" fill="#0" id="circle11"/>
	<circle cx="8.3281" cy="655.812" r="4" fill="#0" id="circle12"/>
	<circle cx="8.3281" cy="664.468" r="4" fill="#0" id="circle13"/>
	<circle cx="8.3281" cy="771.805" r="4" fill="#0" id="circle14"/>
	<circle cx="8.3281" cy="780.461" r="4" fill="#0" id="circle15"/>
	<circle cx="8.3281" cy="789.117" r="4" fill="#0" id="circle16"/>
	<circle cx="8.3281" cy="797.773" r="4" fill="#0" id="circle17"/>
	<circle cx="8.3281" cy="806.429" r="4" fill="#0" id="circle18"/>
	<circle cx="12.6562" cy="638.499" r="4" fill="#0" id="circle19"/>
	<circle cx="12.6562" cy="814.22" r="4" fill="#0" id="circle20"/>
	<circle cx="12.6562" cy="822.876" r="4" fill="#0" id="circle21"/>
	<circle cx="16.9843" cy="629.843" r="4" fill="#0" id="circle22"/>
	<circle cx="16.9843" cy="830.667" r="4" fill="#0" id="circle23"/>
	<circle cx="16.9843" cy="839.323" r="4" fill="#0" id="circle24"/>
	<circle cx="18.7155" cy="847.979" r="4" fill="#0" id="circle25"/>
	<circle cx="21.3124" cy="621.187" r="4" fill="#0" id="circle26"/>
	<circle cx="21.3124" cy="856.635" r="4" fill="#0" id="circle27"/>
	<circle cx="23.0436" cy="865.291" r="4" fill="#0" id="circle28"/>
	<circle cx="25.6405" cy="608.202" r="4" fill="#0" id="circle29"/>
	<circle cx="27.3717" cy="873.082" r="4" fill="#0" id="circle30"/>
	<circle cx="29.9686" cy="599.546" r="4" fill="#0" id="circle31"/>
	<circle cx="30.8342" cy="881.738" r="4" fill="#0" id="circle32"/>
	<circle cx="34.2967" cy="590.89" r="4" fill="#0" id="circle33"/>
	<circle cx="35.1623" cy="889.529" r="4" fill="#0" id="circle34"/>
	<circle cx="38.6248" cy="582.234" r="4" fill="#0" id="circle35"/>
	<circle cx="41.2216" cy="896.454" r="4" fill="#0" id="circle36"/>
	<circle cx="42.9529" cy="573.578" r="4" fill="#0" id="circle37"/>
	<circle cx="47.281" cy="564.921" r="4" fill="#0" id="circle38"/>
	<circle cx="47.281" cy="903.379" r="4" fill="#0" id="circle39"/>
	<circle cx="51.6091" cy="911.169" r="4" fill="#0" id="circle40"/>
	<circle cx="54.2059" cy="557.997" r="4" fill="#0" id="circle41"/>
	<circle cx="55.9372" cy="918.96" r="4" fill="#0" id="circle42"/>
	<circle cx="60.2653" cy="547.609" r="4" fill="#0" id="circle43"/>
	<circle cx="60.2653" cy="926.75" r="4" fill="#0" id="circle44"/>
	<circle cx="65.459" cy="933.675" r="4" fill="#0" id="circle45"/>
	<circle cx="67.1902" cy="540.684" r="4" fill="#0" id="circle46"/>
	<circle cx="68.9215" cy="123.455" r="4" fill="#0" id="circle47"/>
	<circle cx="68.9215" cy="132.112" r="4" fill="#0" id="circle48"/>
	<circle cx="68.9215" cy="140.768" r="4" fill="#0" id="circle49"/>
	<circle cx="68.9215" cy="149.424" r="4" fill="#0" id="circle50"/>
	<circle cx="68.9215" cy="158.08" r="4" fill="#0" id="circle51"/>
	<circle cx="68.9215" cy="166.736" r="4" fill="#0" id="circle52"/>
	<circle cx="72.3839" cy="939.735" r="4" fill="#0" id="circle53"/>
	<circle cx="73.2496" cy="101.815" r="4" fill="#0" id="circle54"/>
	<circle cx="73.2496" cy="110.471" r="4" fill="#0" id="circle55"/>
	<circle cx="73.2496" cy="174.527" r="4" fill="#0" id="circle56"/>
	<circle cx="73.2496" cy="183.183" r="4" fill="#0" id="circle57"/>
	<circle cx="73.2496" cy="191.839" r="4" fill="#0" id="circle58"/>
	<circle cx="73.2496" cy="200.496" r="4" fill="#0" id="circle59"/>
	<circle cx="73.2496" cy="209.152" r="4" fill="#0" id="circle60"/>
	<circle cx="74.1152" cy="533.759" r="4" fill="#0" id="circle61"/>
	<circle cx="77.5777" cy="93.1588" r="4" fill="#0" id="circle62"/>
	<circle cx="77.5777" cy="216.942" r="4" fill="#0" id="circle63"/>
	<circle cx="77.5777" cy="225.599" r="4" fill="#0" id="circle64"/>
	<circle cx="78.4433" cy="525.103" r="4" fill="#0" id="circle65"/>
	<circle cx="78.4433" cy="946.66" r="4" fill="#0" id="circle66"/>
	<circle cx="81.9058" cy="84.5026" r="4" fill="#0" id="circle67"/>
	<circle cx="81.9058" cy="233.389" r="4" fill="#0" id="circle68"/>
	<circle cx="81.9058" cy="242.045" r="4" fill="#0" id="circle69"/>
	<circle cx="83.637" cy="250.702" r="4" fill="#0" id="circle70"/>
	<circle cx="85.3682" cy="519.044" r="4" fill="#0" id="circle71"/>
	<circle cx="85.3682" cy="952.719" r="4" fill="#0" id="circle72"/>
	<circle cx="86.2339" cy="75.8464" r="4" fill="#0" id="circle73"/>
	<circle cx="87.9651" cy="258.492" r="4" fill="#0" id="circle74"/>
	<circle cx="90.562" cy="67.1902" r="4" fill="#0" id="circle75"/>
	<circle cx="91.4276" cy="267.148" r="4" fill="#0" id="circle76"/>
	<circle cx="91.4276" cy="512.119" r="4" fill="#0" id="circle77"/>
	<circle cx="91.4276" cy="959.644" r="4" fill="#0" id="circle78"/>
	<circle cx="94.8901" cy="58.534" r="4" fill="#0" id="circle79"/>
	<circle cx="95.7557" cy="274.939" r="4" fill="#0" id="circle80"/>
	<circle cx="98.3525" cy="965.703" r="4" fill="#0" id="circle81"/>
	<circle cx="99.2182" cy="283.595" r="4" fill="#0" id="circle82"/>
	<circle cx="99.2182" cy="292.251" r="4" fill="#0" id="circle83"/>
	<circle cx="99.2182" cy="300.908" r="4" fill="#0" id="circle84"/>
	<circle cx="99.2182" cy="309.564" r="4" fill="#0" id="circle85"/>
	<circle cx="99.2182" cy="318.22" r="4" fill="#0" id="circle86"/>
	<circle cx="99.2182" cy="326.876" r="4" fill="#0" id="circle87"/>
	<circle cx="99.2182" cy="335.532" r="4" fill="#0" id="circle88"/>
	<circle cx="99.2182" cy="344.188" r="4" fill="#0" id="circle89"/>
	<circle cx="99.2182" cy="352.845" r="4" fill="#0" id="circle90"/>
	<circle cx="99.2182" cy="361.501" r="4" fill="#0" id="circle91"/>
	<circle cx="99.2182" cy="370.157" r="4" fill="#0" id="circle92"/>
	<circle cx="99.2182" cy="378.813" r="4" fill="#0" id="circle93"/>
	<circle cx="100.084" cy="507.791" r="4" fill="#0" id="circle94"/>
	<circle cx="101.815" cy="51.6091" r="4" fill="#0" id="circle95"/>
	<circle cx="103.546" cy="386.604" r="4" fill="#0" id="circle96"/>
	<circle cx="103.546" cy="395.26" r="4" fill="#0" id="circle97"/>
	<circle cx="103.546" cy="403.916" r="4" fill="#0" id="circle98"/>
	<circle cx="103.546" cy="412.572" r="4" fill="#0" id="circle99"/>
	<circle cx="103.546" cy="421.229" r="4" fill="#0" id="circle100"/>
	<circle cx="106.143" cy="970.031" r="4" fill="#0" id="circle101"/>
	<circle cx="107.874" cy="41.2216" r="4" fill="#0" id="circle102"/>
	<circle cx="107.874" cy="429.019" r="4" fill="#0" id="circle103"/>
	<circle cx="107.874" cy="437.675" r="4" fill="#0" id="circle104"/>
	<circle cx="107.874" cy="446.332" r="4" fill="#0" id="circle105"/>
	<circle cx="107.874" cy="454.988" r="4" fill="#0" id="circle106"/>
	<circle cx="107.874" cy="463.644" r="4" fill="#0" id="circle107"/>
	<circle cx="107.874" cy="472.3" r="4" fill="#0" id="circle108"/>
	<circle cx="107.874" cy="480.956" r="4" fill="#0" id="circle109"/>
	<circle cx="107.874" cy="489.613" r="4" fill="#0" id="circle110"/>
	<circle cx="107.874" cy="498.269" r="4" fill="#0" id="circle111"/>
	<circle cx="113.934" cy="974.36" r="4" fill="#0" id="circle112"/>
	<circle cx="114.799" cy="34.2967" r="4" fill="#0" id="circle113"/>
	<circle cx="121.724" cy="27.3717" r="4" fill="#0" id="circle114"/>
	<circle cx="121.724" cy="978.688" r="4" fill="#0" id="circle115"/>
	<circle cx="128.649" cy="21.3124" r="4" fill="#0" id="circle116"/>
	<circle cx="129.515" cy="983.016" r="4" fill="#0" id="circle117"/>
	<circle cx="134.709" cy="14.3874" r="4" fill="#0" id="circle118"/>
	<circle cx="137.305" cy="987.344" r="4" fill="#0" id="circle119"/>
	<circle cx="143.365" cy="10.0593" r="4" fill="#0" id="circle120"/>
	<circle cx="145.096" cy="991.672" r="4" fill="#0" id="circle121"/>
	<circle cx="152.021" cy="8.3281" r="4" fill="#0" id="circle122"/>
	<circle cx="153.752" cy="991.672" r="4" fill="#0" id="circle123"/>
	<circle cx="160.677" cy="8.3281" r="4" fill="#0" id="circle124"/>
	<circle cx="162.408" cy="995.134" r="4" fill="#0" id="circle125"/>
	<circle cx="168.468" cy="4" r="4" fill="#0" id="circle126"/>
	<circle cx="171.065" cy="996" r="4" fill="#0" id="circle127"/>
	<circle cx="177.124" cy="4" r="4" fill="#0" id="circle128"/>
	<circle cx="179.721" cy="996" r="4" fill="#0" id="circle129"/>
	<circle cx="185.78" cy="4" r="4" fill="#0" id="circle130"/>
	<circle cx="188.377" cy="995.134" r="4" fill="#0" id="circle131"/>
	<circle cx="194.436" cy="5.73124" r="4" fill="#0" id="circle132"/>
	<circle cx="197.033" cy="991.672" r="4" fill="#0" id="circle133"/>
	<circle cx="202.227" cy="10.0593" r="4" fill="#0" id="circle134"/>
	<circle cx="205.689" cy="990.806" r="4" fill="#0" id="circle135"/>
	<circle cx="210.883" cy="13.5218" r="4" fill="#0" id="circle136"/>
	<circle cx="214.346" cy="986.478" r="4" fill="#0" id="circle137"/>
	<circle cx="216.942" cy="20.4468" r="4" fill="#0" id="circle138"/>
	<circle cx="223.002" cy="982.15" r="4" fill="#0" id="circle139"/>
	<circle cx="225.599" cy="23.9092" r="4" fill="#0" id="circle140"/>
	<circle cx="225.599" cy="329.473" r="4" fill="#0" id="circle141"/>
	<circle cx="225.599" cy="338.129" r="4" fill="#0" id="circle142"/>
	<circle cx="225.599" cy="346.785" r="4" fill="#0" id="circle143"/>
	<circle cx="225.599" cy="355.442" r="4" fill="#0" id="circle144"/>
	<circle cx="225.599" cy="364.098" r="4" fill="#0" id="circle145"/>
	<circle cx="225.599" cy="372.754" r="4" fill="#0" id="circle146"/>
	<circle cx="225.599" cy="381.41" r="4" fill="#0" id="circle147"/>
	<circle cx="225.599" cy="390.066" r="4" fill="#0" id="circle148"/>
	<circle cx="225.599" cy="398.723" r="4" fill="#0" id="circle149"/>
	<circle cx="225.599" cy="407.379" r="4" fill="#0" id="circle150"/>
	<circle cx="225.599" cy="416.035" r="4" fill="#0" id="circle151"/>
	<circle cx="225.599" cy="424.691" r="4" fill="#0" id="circle152"/>
	<circle cx="225.599" cy="433.347" r="4" fill="#0" id="circle153"/>
	<circle cx="225.599" cy="442.003" r="4" fill="#0" id="circle154"/>
	<circle cx="225.599" cy="450.66" r="4" fill="#0" id="circle155"/>
	<circle cx="227.33" cy="459.316" r="4" fill="#0" id="circle156"/>
	<circle cx="229.927" cy="316.489" r="4" fill="#0" id="circle157"/>
	<circle cx="229.927" cy="467.972" r="4" fill="#0" id="circle158"/>
	<circle cx="229.927" cy="476.628" r="4" fill="#0" id="circle159"/>
	<circle cx="231.658" cy="30.8342" r="4" fill="#0" id="circle160"/>
	<circle cx="231.658" cy="485.284" r="4" fill="#0" id="circle161"/>
	<circle cx="231.658" cy="977.822" r="4" fill="#0" id="circle162"/>
	<circle cx="234.255" cy="299.176" r="4" fill="#0" id="circle163"/>
	<circle cx="234.255" cy="307.832" r="4" fill="#0" id="circle164"/>
	<circle cx="238.583" cy="36.8935" r="4" fill="#0" id="circle165"/>
	<circle cx="238.583" cy="290.52" r="4" fill="#0" id="circle166"/>
	<circle cx="238.583" cy="970.031" r="4" fill="#0" id="circle167"/>
	<circle cx="240.314" cy="488.747" r="4" fill="#0" id="circle168"/>
	<circle cx="242.045" cy="45.5497" r="4" fill="#0" id="circle169"/>
	<circle cx="245.508" cy="284.461" r="4" fill="#0" id="circle170"/>
	<circle cx="245.508" cy="963.972" r="4" fill="#0" id="circle171"/>
	<circle cx="246.373" cy="53.3403" r="4" fill="#0" id="circle172"/>
	<circle cx="246.373" cy="495.672" r="4" fill="#0" id="circle173"/>
	<circle cx="251.567" cy="60.2653" r="4" fill="#0" id="circle174"/>
	<circle cx="251.567" cy="273.208" r="4" fill="#0" id="circle175"/>
	<circle cx="251.567" cy="957.047" r="4" fill="#0" id="circle176"/>
	<circle cx="255.03" cy="499.134" r="4" fill="#0" id="circle177"/>
	<circle cx="255.895" cy="68.0558" r="4" fill="#0" id="circle178"/>
	<circle cx="255.895" cy="76.712" r="4" fill="#0" id="circle179"/>
	<circle cx="255.895" cy="264.551" r="4" fill="#0" id="circle180"/>
	<circle cx="255.895" cy="948.391" r="4" fill="#0" id="circle181"/>
	<circle cx="260.223" cy="84.5026" r="4" fill="#0" id="circle182"/>
	<circle cx="260.223" cy="255.895" r="4" fill="#0" id="circle183"/>
	<circle cx="262.82" cy="503.462" r="4" fill="#0" id="circle184"/>
	<circle cx="262.82" cy="942.332" r="4" fill="#0" id="circle185"/>
	<circle cx="263.686" cy="93.1588" r="4" fill="#0" id="circle186"/>
	<circle cx="264.551" cy="238.583" r="4" fill="#0" id="circle187"/>
	<circle cx="264.551" cy="247.239" r="4" fill="#0" id="circle188"/>
	<circle cx="268.014" cy="100.949" r="4" fill="#0" id="circle189"/>
	<circle cx="268.88" cy="109.606" r="4" fill="#0" id="circle190"/>
	<circle cx="268.88" cy="195.302" r="4" fill="#0" id="circle191"/>
	<circle cx="268.88" cy="203.958" r="4" fill="#0" id="circle192"/>
	<circle cx="268.88" cy="212.614" r="4" fill="#0" id="circle193"/>
	<circle cx="268.88" cy="221.271" r="4" fill="#0" id="circle194"/>
	<circle cx="268.88" cy="229.927" r="4" fill="#0" id="circle195"/>
	<circle cx="268.88" cy="510.387" r="4" fill="#0" id="circle196"/>
	<circle cx="268.88" cy="931.079" r="4" fill="#0" id="circle197"/>
	<circle cx="271.476" cy="118.262" r="4" fill="#0" id="circle198"/>
	<circle cx="273.208" cy="126.918" r="4" fill="#0" id="circle199"/>
	<circle cx="273.208" cy="135.574" r="4" fill="#0" id="circle200"/>
	<circle cx="273.208" cy="144.23" r="4" fill="#0" id="circle201"/>
	<circle cx="273.208" cy="152.887" r="4" fill="#0" id="circle202"/>
	<circle cx="273.208" cy="161.543" r="4" fill="#0" id="circle203"/>
	<circle cx="273.208" cy="170.199" r="4" fill="#0" id="circle204"/>
	<circle cx="273.208" cy="178.855" r="4" fill="#0" id="circle205"/>
	<circle cx="273.208" cy="187.511" r="4" fill="#0" id="circle206"/>
	<circle cx="275.805" cy="515.581" r="4" fill="#0" id="circle207"/>
	<circle cx="275.805" cy="925.019" r="4" fill="#0" id="circle208"/>
	<circle cx="279.267" cy="524.237" r="4" fill="#0" id="circle209"/>
	<circle cx="281.864" cy="918.094" r="4" fill="#0" id="circle210"/>
	<circle cx="286.192" cy="530.297" r="4" fill="#0" id="circle211"/>
	<circle cx="288.789" cy="912.035" r="4" fill="#0" id="circle212"/>
	<circle cx="290.52" cy="538.087" r="4" fill="#0" id="circle213"/>
	<circle cx="294.848" cy="900.782" r="4" fill="#0" id="circle214"/>
	<circle cx="295.714" cy="545.012" r="4" fill="#0" id="circle215"/>
	<circle cx="299.176" cy="553.668" r="4" fill="#0" id="circle216"/>
	<circle cx="299.176" cy="892.126" r="4" fill="#0" id="circle217"/>
	<circle cx="303.504" cy="561.459" r="4" fill="#0" id="circle218"/>
	<circle cx="303.504" cy="883.469" r="4" fill="#0" id="circle219"/>
	<circle cx="307.832" cy="569.25" r="4" fill="#0" id="circle220"/>
	<circle cx="307.832" cy="874.813" r="4" fill="#0" id="circle221"/>
	<circle cx="311.295" cy="577.906" r="4" fill="#0" id="circle222"/>
	<circle cx="312.161" cy="586.562" r="4" fill="#0" id="circle223"/>
	<circle cx="312.161" cy="866.157" r="4" fill="#0" id="circle224"/>
	<circle cx="315.623" cy="595.218" r="4" fill="#0" id="circle225"/>
	<circle cx="316.489" cy="603.874" r="4" fill="#0" id="circle226"/>
	<circle cx="316.489" cy="844.517" r="4" fill="#0" id="circle227"/>
	<circle cx="316.489" cy="853.173" r="4" fill="#0" id="circle228"/>
	<circle cx="320.817" cy="611.665" r="4" fill="#0" id="circle229"/>
	<circle cx="320.817" cy="827.204" r="4" fill="#0" id="circle230"/>
	<circle cx="320.817" cy="835.86" r="4" fill="#0" id="circle231"/>
	<circle cx="325.145" cy="619.455" r="4" fill="#0" id="circle232"/>
	<circle cx="325.145" cy="628.112" r="4" fill="#0" id="circle233"/>
	<circle cx="325.145" cy="814.22" r="4" fill="#0" id="circle234"/>
	<circle cx="329.473" cy="635.902" r="4" fill="#0" id="circle235"/>
	<circle cx="329.473" cy="644.558" r="4" fill="#0" id="circle236"/>
	<circle cx="329.473" cy="653.215" r="4" fill="#0" id="circle237"/>
	<circle cx="329.473" cy="661.871" r="4" fill="#0" id="circle238"/>
	<circle cx="329.473" cy="670.527" r="4" fill="#0" id="circle239"/>
	<circle cx="329.473" cy="805.564" r="4" fill="#0" id="circle240"/>
	<circle cx="333.801" cy="678.318" r="4" fill="#0" id="circle241"/>
	<circle cx="333.801" cy="686.974" r="4" fill="#0" id="circle242"/>
	<circle cx="333.801" cy="695.63" r="4" fill="#0" id="circle243"/>
	<circle cx="333.801" cy="704.286" r="4" fill="#0" id="circle244"/>
	<circle cx="333.801" cy="712.942" r="4" fill="#0" id="circle245"/>
	<circle cx="333.801" cy="721.599" r="4" fill="#0" id="circle246"/>
	<circle cx="333.801" cy="730.255" r="4" fill="#0" id="circle247"/>
	<circle cx="333.801" cy="738.911" r="4" fill="#0" id="circle248"/>
	<circle cx="333.801" cy="747.567" r="4" fill="#0" id="circle249"/>
	<circle cx="333.801" cy="756.223" r="4" fill="#0" id="circle250"/>
	<circle cx="333.801" cy="764.88" r="4" fill="#0" id="circle251"/>
	<circle cx="333.801" cy="773.536" r="4" fill="#0" id="circle252"/>
	<circle cx="333.801" cy="782.192" r="4" fill="#0" id="circle253"/>
	<circle cx="333.801" cy="790.848" r="4" fill="#0" id="circle254"/>
	</g>
</svg>