<?xml version="1.0" encoding="UTF-8" standalone="no"?>
<!-- Created with CurveBenchmark -->
<svg
	xmlns:dc="http://purl.org/dc/elements/1.1/"
	xmlns:cc="http://creativecommons.org/ns#"
	xmlns:rdf="http://www.w3.org/1999/02/22-rdf-syntax-ns#"
	xmlns:svg="http://www.w3.org/2000/svg"
	xmlns="http://www.w3.org/2000/svg"
	xmlns:sodipodi="http://sodipodi.sourceforge.net/DTD/sodipodi-0.dtd"
	xmlns:inkscape="http://www.inkscape.org/namespaces/inkscape"
	width="1000"
	height="1000"
	id="svg2"
	version="1.1"
	sodipodi:docname="manifold/peel-Heart08.png.txt">
<defs
	id="defs4" />
<metadata
	id="metadata7">
	<rdf:RDF>
		<cc:Work
			rdf:about="">
			<dc:format>image/svg+xml</dc:format>
			<dc:type
				rdf:resource="http://purl.org/dc/dcmitype/StillImage" />
			<dc:title></dc:title>
		</cc:Work>
	</rdf:RDF>
</metadata>
<g
	inkscape:label="Layer 1"
	inkscape:groupmode="layer"
	id="layer1">
	<path style="fill:none;stroke:red;stroke-width:1px;stroke-linecap:butt;stroke-linejoin:miter;stroke-opacity:1" d="M 4,349.125 4,330.266 z" id="boundary" inkscape:connector-curvature="0" />
	<path style="fill:none;stroke:red;stroke-width:1px;stroke-linecap:butt;stroke-linejoin:miter;stroke-opacity:1" d="M 4,330.266 4,311.407 z" id="boundary" inkscape:connector-curvature="0" />
	<path style="fill:none;stroke:red;stroke-width:1px;stroke-linecap:butt;stroke-linejoin:miter;stroke-opacity:1" d="M 4,311.407 13.4297,292.548 z" id="boundary" inkscape:connector-curvature="0" />
	<path style="fill:none;stroke:red;stroke-width:1px;stroke-linecap:butt;stroke-linejoin:miter;stroke-opacity:1" d="M 22.8593,273.688 13.4297,292.548 z" id="boundary" inkscape:connector-curvature="0" />
	<path style="fill:none;stroke:red;stroke-width:1px;stroke-linecap:butt;stroke-linejoin:miter;stroke-opacity:1" d="M 4,367.985 4,349.125 z" id="boundary" inkscape:connector-curvature="0" />
	<path style="fill:none;stroke:red;stroke-width:1px;stroke-linecap:butt;stroke-linejoin:miter;stroke-opacity:1" d="M 13.4297,403.817 4,386.844 z" id="boundary" inkscape:connector-curvature="0" />
	<path style="fill:none;stroke:red;stroke-width:1px;stroke-linecap:butt;stroke-linejoin:miter;stroke-opacity:1" d="M 4,386.844 4,367.985 z" id="boundary" inkscape:connector-curvature="0" />
	<path style="fill:none;stroke:red;stroke-width:1px;stroke-linecap:butt;stroke-linejoin:miter;stroke-opacity:1" d="M 22.8593,254.829 22.8593,273.688 z" id="boundary" inkscape:connector-curvature="0" />
	<path style="fill:none;stroke:red;stroke-width:1px;stroke-linecap:butt;stroke-linejoin:miter;stroke-opacity:1" d="M 22.8593,420.791 13.4297,403.817 z" id="boundary" inkscape:connector-curvature="0" />
	<path style="fill:none;stroke:red;stroke-width:1px;stroke-linecap:butt;stroke-linejoin:miter;stroke-opacity:1" d="M 32.289,235.97 41.7186,217.11 z" id="boundary" inkscape:connector-curvature="0" />
	<path style="fill:none;stroke:red;stroke-width:1px;stroke-linecap:butt;stroke-linejoin:miter;stroke-opacity:1" d="M 41.7186,217.11 56.8061,202.023 z" id="boundary" inkscape:connector-curvature="0" />
	<path style="fill:none;stroke:red;stroke-width:1px;stroke-linecap:butt;stroke-linejoin:miter;stroke-opacity:1" d="M 22.8593,254.829 32.289,235.97 z" id="boundary" inkscape:connector-curvature="0" />
	<path style="fill:none;stroke:red;stroke-width:1px;stroke-linecap:butt;stroke-linejoin:miter;stroke-opacity:1" d="M 43.6046,452.852 32.289,437.764 z" id="boundary" inkscape:connector-curvature="0" />
	<path style="fill:none;stroke:red;stroke-width:1px;stroke-linecap:butt;stroke-linejoin:miter;stroke-opacity:1" d="M 32.289,437.764 22.8593,420.791 z" id="boundary" inkscape:connector-curvature="0" />
	<path style="fill:none;stroke:red;stroke-width:1px;stroke-linecap:butt;stroke-linejoin:miter;stroke-opacity:1" d="M 56.8061,202.023 71.8935,186.935 z" id="boundary" inkscape:connector-curvature="0" />
	<path style="fill:none;stroke:red;stroke-width:1px;stroke-linecap:butt;stroke-linejoin:miter;stroke-opacity:1" d="M 71.8935,481.141 56.8061,467.939 z" id="boundary" inkscape:connector-curvature="0" />
	<path style="fill:none;stroke:red;stroke-width:1px;stroke-linecap:butt;stroke-linejoin:miter;stroke-opacity:1" d="M 56.8061,467.939 43.6046,452.852 z" id="boundary" inkscape:connector-curvature="0" />
	<path style="fill:none;stroke:red;stroke-width:1px;stroke-linecap:butt;stroke-linejoin:miter;stroke-opacity:1" d="M 81.3232,168.076 71.8935,186.935 z" id="boundary" inkscape:connector-curvature="0" />
	<path style="fill:none;stroke:red;stroke-width:1px;stroke-linecap:butt;stroke-linejoin:miter;stroke-opacity:1" d="M 85.0951,496.228 71.8935,481.141 z" id="boundary" inkscape:connector-curvature="0" />
	<path style="fill:none;stroke:red;stroke-width:1px;stroke-linecap:butt;stroke-linejoin:miter;stroke-opacity:1" d="M 90.7529,149.217 105.84,136.015 z" id="boundary" inkscape:connector-curvature="0" />
	<path style="fill:none;stroke:red;stroke-width:1px;stroke-linecap:butt;stroke-linejoin:miter;stroke-opacity:1" d="M 90.7529,149.217 81.3232,168.076 z" id="boundary" inkscape:connector-curvature="0" />
	<path style="fill:none;stroke:red;stroke-width:1px;stroke-linecap:butt;stroke-linejoin:miter;stroke-opacity:1" d="M 100.183,509.43 85.0951,496.228 z" id="boundary" inkscape:connector-curvature="0" />
	<path style="fill:none;stroke:red;stroke-width:1px;stroke-linecap:butt;stroke-linejoin:miter;stroke-opacity:1" d="M 113.384,524.517 100.183,509.43 z" id="boundary" inkscape:connector-curvature="0" />
	<path style="fill:none;stroke:red;stroke-width:1px;stroke-linecap:butt;stroke-linejoin:miter;stroke-opacity:1" d="M 117.156,113.384 132.243,98.2966 z" id="boundary" inkscape:connector-curvature="0" />
	<path style="fill:none;stroke:red;stroke-width:1px;stroke-linecap:butt;stroke-linejoin:miter;stroke-opacity:1" d="M 117.156,113.384 105.84,136.015 z" id="boundary" inkscape:connector-curvature="0" />
	<path style="fill:none;stroke:red;stroke-width:1px;stroke-linecap:butt;stroke-linejoin:miter;stroke-opacity:1" d="M 128.471,537.719 113.384,524.517 z" id="boundary" inkscape:connector-curvature="0" />
	<path style="fill:none;stroke:red;stroke-width:1px;stroke-linecap:butt;stroke-linejoin:miter;stroke-opacity:1" d="M 145.445,547.148 128.471,537.719 z" id="boundary" inkscape:connector-curvature="0" />
	<path style="fill:none;stroke:red;stroke-width:1px;stroke-linecap:butt;stroke-linejoin:miter;stroke-opacity:1" d="M 185.049,36.0608 171.848,51.1483 z" id="boundary" inkscape:connector-curvature="0" />
	<path style="fill:none;stroke:red;stroke-width:1px;stroke-linecap:butt;stroke-linejoin:miter;stroke-opacity:1" d="M 154.875,564.122 145.445,547.148 z" id="boundary" inkscape:connector-curvature="0" />
	<path style="fill:none;stroke:red;stroke-width:1px;stroke-linecap:butt;stroke-linejoin:miter;stroke-opacity:1" d="M 252.943,4 269.916,13.4297 z" id="boundary" inkscape:connector-curvature="0" />
	<path style="fill:none;stroke:red;stroke-width:1px;stroke-linecap:butt;stroke-linejoin:miter;stroke-opacity:1" d="M 156.76,64.3498 171.848,51.1483 z" id="boundary" inkscape:connector-curvature="0" />
	<path style="fill:none;stroke:red;stroke-width:1px;stroke-linecap:butt;stroke-linejoin:miter;stroke-opacity:1" d="M 156.76,64.3498 147.331,83.2091 z" id="boundary" inkscape:connector-curvature="0" />
	<path style="fill:none;stroke:red;stroke-width:1px;stroke-linecap:butt;stroke-linejoin:miter;stroke-opacity:1" d="M 132.243,98.2966 147.331,83.2091 z" id="boundary" inkscape:connector-curvature="0" />
	<path style="fill:none;stroke:red;stroke-width:1px;stroke-linecap:butt;stroke-linejoin:miter;stroke-opacity:1" d="M 320.837,41.7186 334.038,56.8061 z" id="boundary" inkscape:connector-curvature="0" />
	<path style="fill:none;stroke:red;stroke-width:1px;stroke-linecap:butt;stroke-linejoin:miter;stroke-opacity:1" d="M 320.837,41.7186 303.863,32.289 z" id="boundary" inkscape:connector-curvature="0" />
	<path style="fill:none;stroke:red;stroke-width:1px;stroke-linecap:butt;stroke-linejoin:miter;stroke-opacity:1" d="M 173.734,571.665 154.875,564.122 z" id="boundary" inkscape:connector-curvature="0" />
	<path style="fill:none;stroke:red;stroke-width:1px;stroke-linecap:butt;stroke-linejoin:miter;stroke-opacity:1" d="M 217.11,13.4297 200.137,22.8593 z" id="boundary" inkscape:connector-curvature="0" />
	<path style="fill:none;stroke:red;stroke-width:1px;stroke-linecap:butt;stroke-linejoin:miter;stroke-opacity:1" d="M 185.049,586.753 173.734,571.665 z" id="boundary" inkscape:connector-curvature="0" />
	<path style="fill:none;stroke:red;stroke-width:1px;stroke-linecap:butt;stroke-linejoin:miter;stroke-opacity:1" d="M 252.943,4 234.084,4 z" id="boundary" inkscape:connector-curvature="0" />
	<path style="fill:none;stroke:red;stroke-width:1px;stroke-linecap:butt;stroke-linejoin:miter;stroke-opacity:1" d="M 234.084,4 217.11,13.4297 z" id="boundary" inkscape:connector-curvature="0" />
	<path style="fill:none;stroke:red;stroke-width:1px;stroke-linecap:butt;stroke-linejoin:miter;stroke-opacity:1" d="M 200.137,22.8593 185.049,36.0608 z" id="boundary" inkscape:connector-curvature="0" />
	<path style="fill:none;stroke:red;stroke-width:1px;stroke-linecap:butt;stroke-linejoin:miter;stroke-opacity:1" d="M 200.137,599.954 185.049,586.753 z" id="boundary" inkscape:connector-curvature="0" />
	<path style="fill:none;stroke:red;stroke-width:1px;stroke-linecap:butt;stroke-linejoin:miter;stroke-opacity:1" d="M 245.399,637.673 260.487,650.875 z" id="boundary" inkscape:connector-curvature="0" />
	<path style="fill:none;stroke:red;stroke-width:1px;stroke-linecap:butt;stroke-linejoin:miter;stroke-opacity:1" d="M 260.487,650.875 273.688,665.962 z" id="boundary" inkscape:connector-curvature="0" />
	<path style="fill:none;stroke:red;stroke-width:1px;stroke-linecap:butt;stroke-linejoin:miter;stroke-opacity:1" d="M 217.11,609.384 200.137,599.954 z" id="boundary" inkscape:connector-curvature="0" />
	<path style="fill:none;stroke:red;stroke-width:1px;stroke-linecap:butt;stroke-linejoin:miter;stroke-opacity:1" d="M 288.776,19.0875 303.863,32.289 z" id="boundary" inkscape:connector-curvature="0" />
	<path style="fill:none;stroke:red;stroke-width:1px;stroke-linecap:butt;stroke-linejoin:miter;stroke-opacity:1" d="M 288.776,19.0875 269.916,13.4297 z" id="boundary" inkscape:connector-curvature="0" />
	<path style="fill:none;stroke:red;stroke-width:1px;stroke-linecap:butt;stroke-linejoin:miter;stroke-opacity:1" d="M 232.198,622.586 217.11,609.384 z" id="boundary" inkscape:connector-curvature="0" />
	<path style="fill:none;stroke:red;stroke-width:1px;stroke-linecap:butt;stroke-linejoin:miter;stroke-opacity:1" d="M 245.399,637.673 232.198,622.586 z" id="boundary" inkscape:connector-curvature="0" />
	<path style="fill:none;stroke:red;stroke-width:1px;stroke-linecap:butt;stroke-linejoin:miter;stroke-opacity:1" d="M 352.897,64.3498 364.213,79.4373 z" id="boundary" inkscape:connector-curvature="0" />
	<path style="fill:none;stroke:red;stroke-width:1px;stroke-linecap:butt;stroke-linejoin:miter;stroke-opacity:1" d="M 352.897,64.3498 334.038,56.8061 z" id="boundary" inkscape:connector-curvature="0" />
	<path style="fill:none;stroke:red;stroke-width:1px;stroke-linecap:butt;stroke-linejoin:miter;stroke-opacity:1" d="M 386.844,109.612 396.274,126.586 z" id="boundary" inkscape:connector-curvature="0" />
	<path style="fill:none;stroke:red;stroke-width:1px;stroke-linecap:butt;stroke-linejoin:miter;stroke-opacity:1" d="M 598.068,85.0951 586.753,107.726 z" id="boundary" inkscape:connector-curvature="0" />
	<path style="fill:none;stroke:red;stroke-width:1px;stroke-linecap:butt;stroke-linejoin:miter;stroke-opacity:1" d="M 586.753,107.726 571.665,120.928 z" id="boundary" inkscape:connector-curvature="0" />
	<path style="fill:none;stroke:red;stroke-width:1px;stroke-linecap:butt;stroke-linejoin:miter;stroke-opacity:1" d="M 477.369,258.601 494.342,268.03 z" id="boundary" inkscape:connector-curvature="0" />
	<path style="fill:none;stroke:red;stroke-width:1px;stroke-linecap:butt;stroke-linejoin:miter;stroke-opacity:1" d="M 364.213,79.4373 379.3,90.7529 z" id="boundary" inkscape:connector-curvature="0" />
	<path style="fill:none;stroke:red;stroke-width:1px;stroke-linecap:butt;stroke-linejoin:miter;stroke-opacity:1" d="M 379.3,90.7529 386.844,109.612 z" id="boundary" inkscape:connector-curvature="0" />
	<path style="fill:none;stroke:red;stroke-width:1px;stroke-linecap:butt;stroke-linejoin:miter;stroke-opacity:1" d="M 292.548,673.506 273.688,665.962 z" id="boundary" inkscape:connector-curvature="0" />
	<path style="fill:none;stroke:red;stroke-width:1px;stroke-linecap:butt;stroke-linejoin:miter;stroke-opacity:1" d="M 305.749,688.593 292.548,673.506 z" id="boundary" inkscape:connector-curvature="0" />
	<path style="fill:none;stroke:red;stroke-width:1px;stroke-linecap:butt;stroke-linejoin:miter;stroke-opacity:1" d="M 562.236,139.787 552.806,158.646 z" id="boundary" inkscape:connector-curvature="0" />
	<path style="fill:none;stroke:red;stroke-width:1px;stroke-linecap:butt;stroke-linejoin:miter;stroke-opacity:1" d="M 430.221,173.734 420.791,156.76 z" id="boundary" inkscape:connector-curvature="0" />
	<path style="fill:none;stroke:red;stroke-width:1px;stroke-linecap:butt;stroke-linejoin:miter;stroke-opacity:1" d="M 420.791,156.76 409.475,141.673 z" id="boundary" inkscape:connector-curvature="0" />
	<path style="fill:none;stroke:red;stroke-width:1px;stroke-linecap:butt;stroke-linejoin:miter;stroke-opacity:1" d="M 396.274,126.586 409.475,141.673 z" id="boundary" inkscape:connector-curvature="0" />
	<path style="fill:none;stroke:red;stroke-width:1px;stroke-linecap:butt;stroke-linejoin:miter;stroke-opacity:1" d="M 320.837,701.795 305.749,688.593 z" id="boundary" inkscape:connector-curvature="0" />
	<path style="fill:none;stroke:red;stroke-width:1px;stroke-linecap:butt;stroke-linejoin:miter;stroke-opacity:1" d="M 337.81,711.224 320.837,701.795 z" id="boundary" inkscape:connector-curvature="0" />
	<path style="fill:none;stroke:red;stroke-width:1px;stroke-linecap:butt;stroke-linejoin:miter;stroke-opacity:1" d="M 352.897,722.54 364.213,737.627 z" id="boundary" inkscape:connector-curvature="0" />
	<path style="fill:none;stroke:red;stroke-width:1px;stroke-linecap:butt;stroke-linejoin:miter;stroke-opacity:1" d="M 352.897,722.54 337.81,711.224 z" id="boundary" inkscape:connector-curvature="0" />
	<path style="fill:none;stroke:red;stroke-width:1px;stroke-linecap:butt;stroke-linejoin:miter;stroke-opacity:1" d="M 430.221,173.734 439.65,190.707 z" id="boundary" inkscape:connector-curvature="0" />
	<path style="fill:none;stroke:red;stroke-width:1px;stroke-linecap:butt;stroke-linejoin:miter;stroke-opacity:1" d="M 439.65,190.707 449.08,207.681 z" id="boundary" inkscape:connector-curvature="0" />
	<path style="fill:none;stroke:red;stroke-width:1px;stroke-linecap:butt;stroke-linejoin:miter;stroke-opacity:1" d="M 458.51,224.654 449.08,207.681 z" id="boundary" inkscape:connector-curvature="0" />
	<path style="fill:none;stroke:red;stroke-width:1px;stroke-linecap:butt;stroke-linejoin:miter;stroke-opacity:1" d="M 543.376,177.506 533.947,196.365 z" id="boundary" inkscape:connector-curvature="0" />
	<path style="fill:none;stroke:red;stroke-width:1px;stroke-linecap:butt;stroke-linejoin:miter;stroke-opacity:1" d="M 437.764,799.863 450.966,814.951 z" id="boundary" inkscape:connector-curvature="0" />
	<path style="fill:none;stroke:red;stroke-width:1px;stroke-linecap:butt;stroke-linejoin:miter;stroke-opacity:1" d="M 383.072,745.171 364.213,737.627 z" id="boundary" inkscape:connector-curvature="0" />
	<path style="fill:none;stroke:red;stroke-width:1px;stroke-linecap:butt;stroke-linejoin:miter;stroke-opacity:1" d="M 467.939,241.627 458.51,224.654 z" id="boundary" inkscape:connector-curvature="0" />
	<path style="fill:none;stroke:red;stroke-width:1px;stroke-linecap:butt;stroke-linejoin:miter;stroke-opacity:1" d="M 396.274,760.259 383.072,745.171 z" id="boundary" inkscape:connector-curvature="0" />
	<path style="fill:none;stroke:red;stroke-width:1px;stroke-linecap:butt;stroke-linejoin:miter;stroke-opacity:1" d="M 515.087,234.084 505.658,252.943 z" id="boundary" inkscape:connector-curvature="0" />
	<path style="fill:none;stroke:red;stroke-width:1px;stroke-linecap:butt;stroke-linejoin:miter;stroke-opacity:1" d="M 477.369,258.601 467.939,241.627 z" id="boundary" inkscape:connector-curvature="0" />
	<path style="fill:none;stroke:red;stroke-width:1px;stroke-linecap:butt;stroke-linejoin:miter;stroke-opacity:1" d="M 411.361,773.46 396.274,760.259 z" id="boundary" inkscape:connector-curvature="0" />
	<path style="fill:none;stroke:red;stroke-width:1px;stroke-linecap:butt;stroke-linejoin:miter;stroke-opacity:1" d="M 428.335,782.89 411.361,773.46 z" id="boundary" inkscape:connector-curvature="0" />
	<path style="fill:none;stroke:red;stroke-width:1px;stroke-linecap:butt;stroke-linejoin:miter;stroke-opacity:1" d="M 428.335,782.89 437.764,799.863 z" id="boundary" inkscape:connector-curvature="0" />
	<path style="fill:none;stroke:red;stroke-width:1px;stroke-linecap:butt;stroke-linejoin:miter;stroke-opacity:1" d="M 466.053,826.266 477.369,841.354 z" id="boundary" inkscape:connector-curvature="0" />
	<path style="fill:none;stroke:red;stroke-width:1px;stroke-linecap:butt;stroke-linejoin:miter;stroke-opacity:1" d="M 466.053,826.266 450.966,814.951 z" id="boundary" inkscape:connector-curvature="0" />
	<path style="fill:none;stroke:red;stroke-width:1px;stroke-linecap:butt;stroke-linejoin:miter;stroke-opacity:1" d="M 496.228,835.696 477.369,841.354 z" id="boundary" inkscape:connector-curvature="0" />
	<path style="fill:none;stroke:red;stroke-width:1px;stroke-linecap:butt;stroke-linejoin:miter;stroke-opacity:1" d="M 505.658,252.943 494.342,268.03 z" id="boundary" inkscape:connector-curvature="0" />
	<path style="fill:none;stroke:red;stroke-width:1px;stroke-linecap:butt;stroke-linejoin:miter;stroke-opacity:1" d="M 515.087,826.266 496.228,835.696 z" id="boundary" inkscape:connector-curvature="0" />
	<path style="fill:none;stroke:red;stroke-width:1px;stroke-linecap:butt;stroke-linejoin:miter;stroke-opacity:1" d="M 524.517,215.224 515.087,234.084 z" id="boundary" inkscape:connector-curvature="0" />
	<path style="fill:none;stroke:red;stroke-width:1px;stroke-linecap:butt;stroke-linejoin:miter;stroke-opacity:1" d="M 530.175,813.065 515.087,826.266 z" id="boundary" inkscape:connector-curvature="0" />
	<path style="fill:none;stroke:red;stroke-width:1px;stroke-linecap:butt;stroke-linejoin:miter;stroke-opacity:1" d="M 533.947,196.365 524.517,215.224 z" id="boundary" inkscape:connector-curvature="0" />
	<path style="fill:none;stroke:red;stroke-width:1px;stroke-linecap:butt;stroke-linejoin:miter;stroke-opacity:1" d="M 549.034,803.635 530.175,813.065 z" id="boundary" inkscape:connector-curvature="0" />
	<path style="fill:none;stroke:red;stroke-width:1px;stroke-linecap:butt;stroke-linejoin:miter;stroke-opacity:1" d="M 682.935,28.5171 701.795,19.0875 z" id="boundary" inkscape:connector-curvature="0" />
	<path style="fill:none;stroke:red;stroke-width:1px;stroke-linecap:butt;stroke-linejoin:miter;stroke-opacity:1" d="M 777.232,17.2015 758.373,13.4297 z" id="boundary" inkscape:connector-curvature="0" />
	<path style="fill:none;stroke:red;stroke-width:1px;stroke-linecap:butt;stroke-linejoin:miter;stroke-opacity:1" d="M 758.373,13.4297 739.513,13.4297 z" id="boundary" inkscape:connector-curvature="0" />
	<path style="fill:none;stroke:red;stroke-width:1px;stroke-linecap:butt;stroke-linejoin:miter;stroke-opacity:1" d="M 567.894,794.205 549.034,803.635 z" id="boundary" inkscape:connector-curvature="0" />
	<path style="fill:none;stroke:red;stroke-width:1px;stroke-linecap:butt;stroke-linejoin:miter;stroke-opacity:1" d="M 543.376,177.506 552.806,158.646 z" id="boundary" inkscape:connector-curvature="0" />
	<path style="fill:none;stroke:red;stroke-width:1px;stroke-linecap:butt;stroke-linejoin:miter;stroke-opacity:1" d="M 571.665,120.928 562.236,139.787 z" id="boundary" inkscape:connector-curvature="0" />
	<path style="fill:none;stroke:red;stroke-width:1px;stroke-linecap:butt;stroke-linejoin:miter;stroke-opacity:1" d="M 581.095,779.118 567.894,794.205 z" id="boundary" inkscape:connector-curvature="0" />
	<path style="fill:none;stroke:red;stroke-width:1px;stroke-linecap:butt;stroke-linejoin:miter;stroke-opacity:1" d="M 599.954,769.688 581.095,779.118 z" id="boundary" inkscape:connector-curvature="0" />
	<path style="fill:none;stroke:red;stroke-width:1px;stroke-linecap:butt;stroke-linejoin:miter;stroke-opacity:1" d="M 598.068,85.0951 616.928,75.6654 z" id="boundary" inkscape:connector-curvature="0" />
	<path style="fill:none;stroke:red;stroke-width:1px;stroke-linecap:butt;stroke-linejoin:miter;stroke-opacity:1" d="M 626.357,56.8061 616.928,75.6654 z" id="boundary" inkscape:connector-curvature="0" />
	<path style="fill:none;stroke:red;stroke-width:1px;stroke-linecap:butt;stroke-linejoin:miter;stroke-opacity:1" d="M 615.042,756.487 599.954,769.688 z" id="boundary" inkscape:connector-curvature="0" />
	<path style="fill:none;stroke:red;stroke-width:1px;stroke-linecap:butt;stroke-linejoin:miter;stroke-opacity:1" d="M 633.901,747.057 652.76,737.627 z" id="boundary" inkscape:connector-curvature="0" />
	<path style="fill:none;stroke:red;stroke-width:1px;stroke-linecap:butt;stroke-linejoin:miter;stroke-opacity:1" d="M 777.232,17.2015 796.091,22.8593 z" id="boundary" inkscape:connector-curvature="0" />
	<path style="fill:none;stroke:red;stroke-width:1px;stroke-linecap:butt;stroke-linejoin:miter;stroke-opacity:1" d="M 633.901,747.057 615.042,756.487 z" id="boundary" inkscape:connector-curvature="0" />
	<path style="fill:none;stroke:red;stroke-width:1px;stroke-linecap:butt;stroke-linejoin:miter;stroke-opacity:1" d="M 626.357,56.8061 645.217,47.3764 z" id="boundary" inkscape:connector-curvature="0" />
	<path style="fill:none;stroke:red;stroke-width:1px;stroke-linecap:butt;stroke-linejoin:miter;stroke-opacity:1" d="M 645.217,47.3764 664.076,37.9468 z" id="boundary" inkscape:connector-curvature="0" />
	<path style="fill:none;stroke:red;stroke-width:1px;stroke-linecap:butt;stroke-linejoin:miter;stroke-opacity:1" d="M 720.654,13.4297 739.513,13.4297 z" id="boundary" inkscape:connector-curvature="0" />
	<path style="fill:none;stroke:red;stroke-width:1px;stroke-linecap:butt;stroke-linejoin:miter;stroke-opacity:1" d="M 720.654,13.4297 701.795,19.0875 z" id="boundary" inkscape:connector-curvature="0" />
	<path style="fill:none;stroke:red;stroke-width:1px;stroke-linecap:butt;stroke-linejoin:miter;stroke-opacity:1" d="M 671.62,728.198 652.76,737.627 z" id="boundary" inkscape:connector-curvature="0" />
	<path style="fill:none;stroke:red;stroke-width:1px;stroke-linecap:butt;stroke-linejoin:miter;stroke-opacity:1" d="M 682.935,28.5171 664.076,37.9468 z" id="boundary" inkscape:connector-curvature="0" />
	<path style="fill:none;stroke:red;stroke-width:1px;stroke-linecap:butt;stroke-linejoin:miter;stroke-opacity:1" d="M 690.479,718.768 671.62,728.198 z" id="boundary" inkscape:connector-curvature="0" />
	<path style="fill:none;stroke:red;stroke-width:1px;stroke-linecap:butt;stroke-linejoin:miter;stroke-opacity:1" d="M 709.338,709.338 690.479,718.768 z" id="boundary" inkscape:connector-curvature="0" />
	<path style="fill:none;stroke:red;stroke-width:1px;stroke-linecap:butt;stroke-linejoin:miter;stroke-opacity:1" d="M 831.924,36.0608 814.951,26.6312 z" id="boundary" inkscape:connector-curvature="0" />
	<path style="fill:none;stroke:red;stroke-width:1px;stroke-linecap:butt;stroke-linejoin:miter;stroke-opacity:1" d="M 814.951,26.6312 796.091,22.8593 z" id="boundary" inkscape:connector-curvature="0" />
	<path style="fill:none;stroke:red;stroke-width:1px;stroke-linecap:butt;stroke-linejoin:miter;stroke-opacity:1" d="M 722.54,694.251 709.338,709.338 z" id="boundary" inkscape:connector-curvature="0" />
	<path style="fill:none;stroke:red;stroke-width:1px;stroke-linecap:butt;stroke-linejoin:miter;stroke-opacity:1" d="M 737.627,681.049 722.54,694.251 z" id="boundary" inkscape:connector-curvature="0" />
	<path style="fill:none;stroke:red;stroke-width:1px;stroke-linecap:butt;stroke-linejoin:miter;stroke-opacity:1" d="M 737.627,681.049 756.487,671.62 z" id="boundary" inkscape:connector-curvature="0" />
	<path style="fill:none;stroke:red;stroke-width:1px;stroke-linecap:butt;stroke-linejoin:miter;stroke-opacity:1" d="M 775.346,662.19 756.487,671.62 z" id="boundary" inkscape:connector-curvature="0" />
	<path style="fill:none;stroke:red;stroke-width:1px;stroke-linecap:butt;stroke-linejoin:miter;stroke-opacity:1" d="M 831.924,36.0608 850.783,43.6046 z" id="boundary" inkscape:connector-curvature="0" />
	<path style="fill:none;stroke:red;stroke-width:1px;stroke-linecap:butt;stroke-linejoin:miter;stroke-opacity:1" d="M 850.783,43.6046 867.757,53.0342 z" id="boundary" inkscape:connector-curvature="0" />
	<path style="fill:none;stroke:red;stroke-width:1px;stroke-linecap:butt;stroke-linejoin:miter;stroke-opacity:1" d="M 788.548,647.103 775.346,662.19 z" id="boundary" inkscape:connector-curvature="0" />
	<path style="fill:none;stroke:red;stroke-width:1px;stroke-linecap:butt;stroke-linejoin:miter;stroke-opacity:1" d="M 805.521,637.673 788.548,647.103 z" id="boundary" inkscape:connector-curvature="0" />
	<path style="fill:none;stroke:red;stroke-width:1px;stroke-linecap:butt;stroke-linejoin:miter;stroke-opacity:1" d="M 820.608,626.357 805.521,637.673 z" id="boundary" inkscape:connector-curvature="0" />
	<path style="fill:none;stroke:red;stroke-width:1px;stroke-linecap:butt;stroke-linejoin:miter;stroke-opacity:1" d="M 830.038,609.384 820.608,626.357 z" id="boundary" inkscape:connector-curvature="0" />
	<path style="fill:none;stroke:red;stroke-width:1px;stroke-linecap:butt;stroke-linejoin:miter;stroke-opacity:1" d="M 899.817,75.6654 914.905,88.8669 z" id="boundary" inkscape:connector-curvature="0" />
	<path style="fill:none;stroke:red;stroke-width:1px;stroke-linecap:butt;stroke-linejoin:miter;stroke-opacity:1" d="M 847.011,599.954 830.038,609.384 z" id="boundary" inkscape:connector-curvature="0" />
	<path style="fill:none;stroke:red;stroke-width:1px;stroke-linecap:butt;stroke-linejoin:miter;stroke-opacity:1" d="M 899.817,75.6654 886.616,60.5779 z" id="boundary" inkscape:connector-curvature="0" />
	<path style="fill:none;stroke:red;stroke-width:1px;stroke-linecap:butt;stroke-linejoin:miter;stroke-opacity:1" d="M 886.616,60.5779 867.757,53.0342 z" id="boundary" inkscape:connector-curvature="0" />
	<path style="fill:none;stroke:red;stroke-width:1px;stroke-linecap:butt;stroke-linejoin:miter;stroke-opacity:1" d="M 854.555,581.095 847.011,599.954 z" id="boundary" inkscape:connector-curvature="0" />
	<path style="fill:none;stroke:red;stroke-width:1px;stroke-linecap:butt;stroke-linejoin:miter;stroke-opacity:1" d="M 873.414,571.665 854.555,581.095 z" id="boundary" inkscape:connector-curvature="0" />
	<path style="fill:none;stroke:red;stroke-width:1px;stroke-linecap:butt;stroke-linejoin:miter;stroke-opacity:1" d="M 882.844,552.806 873.414,571.665 z" id="boundary" inkscape:connector-curvature="0" />
	<path style="fill:none;stroke:red;stroke-width:1px;stroke-linecap:butt;stroke-linejoin:miter;stroke-opacity:1" d="M 897.932,539.605 882.844,552.806 z" id="boundary" inkscape:connector-curvature="0" />
	<path style="fill:none;stroke:red;stroke-width:1px;stroke-linecap:butt;stroke-linejoin:miter;stroke-opacity:1" d="M 911.133,524.517 926.221,511.316 z" id="boundary" inkscape:connector-curvature="0" />
	<path style="fill:none;stroke:red;stroke-width:1px;stroke-linecap:butt;stroke-linejoin:miter;stroke-opacity:1" d="M 911.133,524.517 897.932,539.605 z" id="boundary" inkscape:connector-curvature="0" />
	<path style="fill:none;stroke:red;stroke-width:1px;stroke-linecap:butt;stroke-linejoin:miter;stroke-opacity:1" d="M 971.483,164.304 977.141,183.163 z" id="boundary" inkscape:connector-curvature="0" />
	<path style="fill:none;stroke:red;stroke-width:1px;stroke-linecap:butt;stroke-linejoin:miter;stroke-opacity:1" d="M 971.483,164.304 962.053,147.331 z" id="boundary" inkscape:connector-curvature="0" />
	<path style="fill:none;stroke:red;stroke-width:1px;stroke-linecap:butt;stroke-linejoin:miter;stroke-opacity:1" d="M 931.878,98.2966 939.422,117.156 z" id="boundary" inkscape:connector-curvature="0" />
	<path style="fill:none;stroke:red;stroke-width:1px;stroke-linecap:butt;stroke-linejoin:miter;stroke-opacity:1" d="M 931.878,98.2966 914.905,88.8669 z" id="boundary" inkscape:connector-curvature="0" />
	<path style="fill:none;stroke:red;stroke-width:1px;stroke-linecap:butt;stroke-linejoin:miter;stroke-opacity:1" d="M 939.422,486.798 926.221,511.316 z" id="boundary" inkscape:connector-curvature="0" />
	<path style="fill:none;stroke:red;stroke-width:1px;stroke-linecap:butt;stroke-linejoin:miter;stroke-opacity:1" d="M 948.852,467.939 939.422,486.798 z" id="boundary" inkscape:connector-curvature="0" />
	<path style="fill:none;stroke:red;stroke-width:1px;stroke-linecap:butt;stroke-linejoin:miter;stroke-opacity:1" d="M 954.51,128.471 962.053,147.331 z" id="boundary" inkscape:connector-curvature="0" />
	<path style="fill:none;stroke:red;stroke-width:1px;stroke-linecap:butt;stroke-linejoin:miter;stroke-opacity:1" d="M 954.51,128.471 939.422,117.156 z" id="boundary" inkscape:connector-curvature="0" />
	<path style="fill:none;stroke:red;stroke-width:1px;stroke-linecap:butt;stroke-linejoin:miter;stroke-opacity:1" d="M 958.281,449.08 948.852,467.939 z" id="boundary" inkscape:connector-curvature="0" />
	<path style="fill:none;stroke:red;stroke-width:1px;stroke-linecap:butt;stroke-linejoin:miter;stroke-opacity:1" d="M 967.711,430.221 958.281,449.08 z" id="boundary" inkscape:connector-curvature="0" />
	<path style="fill:none;stroke:red;stroke-width:1px;stroke-linecap:butt;stroke-linejoin:miter;stroke-opacity:1" d="M 986.57,200.137 986.57,218.996 z" id="boundary" inkscape:connector-curvature="0" />
	<path style="fill:none;stroke:red;stroke-width:1px;stroke-linecap:butt;stroke-linejoin:miter;stroke-opacity:1" d="M 986.57,200.137 977.141,183.163 z" id="boundary" inkscape:connector-curvature="0" />
	<path style="fill:none;stroke:red;stroke-width:1px;stroke-linecap:butt;stroke-linejoin:miter;stroke-opacity:1" d="M 977.141,411.361 967.711,430.221 z" id="boundary" inkscape:connector-curvature="0" />
	<path style="fill:none;stroke:red;stroke-width:1px;stroke-linecap:butt;stroke-linejoin:miter;stroke-opacity:1" d="M 977.141,411.361 977.141,392.502 z" id="boundary" inkscape:connector-curvature="0" />
	<path style="fill:none;stroke:red;stroke-width:1px;stroke-linecap:butt;stroke-linejoin:miter;stroke-opacity:1" d="M 986.57,345.354 986.57,364.213 z" id="boundary" inkscape:connector-curvature="0" />
	<path style="fill:none;stroke:red;stroke-width:1px;stroke-linecap:butt;stroke-linejoin:miter;stroke-opacity:1" d="M 986.57,364.213 977.141,392.502 z" id="boundary" inkscape:connector-curvature="0" />
	<path style="fill:none;stroke:red;stroke-width:1px;stroke-linecap:butt;stroke-linejoin:miter;stroke-opacity:1" d="M 986.57,218.996 996,235.97 z" id="boundary" inkscape:connector-curvature="0" />
	<path style="fill:none;stroke:red;stroke-width:1px;stroke-linecap:butt;stroke-linejoin:miter;stroke-opacity:1" d="M 996,254.829 996,273.688 z" id="boundary" inkscape:connector-curvature="0" />
	<path style="fill:none;stroke:red;stroke-width:1px;stroke-linecap:butt;stroke-linejoin:miter;stroke-opacity:1" d="M 996,235.97 996,254.829 z" id="boundary" inkscape:connector-curvature="0" />
	<path style="fill:none;stroke:red;stroke-width:1px;stroke-linecap:butt;stroke-linejoin:miter;stroke-opacity:1" d="M 996,273.688 996,292.548 z" id="boundary" inkscape:connector-curvature="0" />
	<path style="fill:none;stroke:red;stroke-width:1px;stroke-linecap:butt;stroke-linejoin:miter;stroke-opacity:1" d="M 996,292.548 996,311.407 z" id="boundary" inkscape:connector-curvature="0" />
	<path style="fill:none;stroke:red;stroke-width:1px;stroke-linecap:butt;stroke-linejoin:miter;stroke-opacity:1" d="M 996,311.407 986.57,345.354 z" id="boundary" inkscape:connector-curvature="0" />
	<circle cx="4" cy="311.407" r="4" fill="#0" id="circle0"/>
	<circle cx="4" cy="330.266" r="4" fill="#0" id="circle1"/>
	<circle cx="4" cy="349.125" r="4" fill="#0" id="circle2"/>
	<circle cx="4" cy="367.985" r="4" fill="#0" id="circle3"/>
	<circle cx="4" cy="386.844" r="4" fill="#0" id="circle4"/>
	<circle cx="13.4297" cy="292.548" r="4" fill="#0" id="circle5"/>
	<circle cx="13.4297" cy="403.817" r="4" fill="#0" id="circle6"/>
	<circle cx="22.8593" cy="254.829" r="4" fill="#0" id="circle7"/>
	<circle cx="22.8593" cy="273.688" r="4" fill="#0" id="circle8"/>
	<circle cx="22.8593" cy="420.791" r="4" fill="#0" id="circle9"/>
	<circle cx="32.289" cy="235.97" r="4" fill="#0" id="circle10"/>
	<circle cx="32.289" cy="437.764" r="4" fill="#0" id="circle11"/>
	<circle cx="41.7186" cy="217.11" r="4" fill="#0" id="circle12"/>
	<circle cx="43.6046" cy="452.852" r="4" fill="#0" id="circle13"/>
	<circle cx="56.8061" cy="202.023" r="4" fill="#0" id="circle14"/>
	<circle cx="56.8061" cy="467.939" r="4" fill="#0" id="circle15"/>
	<circle cx="71.8935" cy="186.935" r="4" fill="#0" id="circle16"/>
	<circle cx="71.8935" cy="481.141" r="4" fill="#0" id="circle17"/>
	<circle cx="81.3232" cy="168.076" r="4" fill="#0" id="circle18"/>
	<circle cx="85.0951" cy="496.228" r="4" fill="#0" id="circle19"/>
	<circle cx="90.7529" cy="149.217" r="4" fill="#0" id="circle20"/>
	<circle cx="100.183" cy="509.43" r="4" fill="#0" id="circle21"/>
	<circle cx="105.84" cy="136.015" r="4" fill="#0" id="circle22"/>
	<circle cx="113.384" cy="524.517" r="4" fill="#0" id="circle23"/>
	<circle cx="117.156" cy="113.384" r="4" fill="#0" id="circle24"/>
	<circle cx="128.471" cy="537.719" r="4" fill="#0" id="circle25"/>
	<circle cx="132.243" cy="98.2966" r="4" fill="#0" id="circle26"/>
	<circle cx="145.445" cy="547.148" r="4" fill="#0" id="circle27"/>
	<circle cx="147.331" cy="83.2091" r="4" fill="#0" id="circle28"/>
	<circle cx="154.875" cy="564.122" r="4" fill="#0" id="circle29"/>
	<circle cx="156.76" cy="64.3498" r="4" fill="#0" id="circle30"/>
	<circle cx="171.848" cy="51.1483" r="4" fill="#0" id="circle31"/>
	<circle cx="173.734" cy="571.665" r="4" fill="#0" id="circle32"/>
	<circle cx="185.049" cy="36.0608" r="4" fill="#0" id="circle33"/>
	<circle cx="185.049" cy="586.753" r="4" fill="#0" id="circle34"/>
	<circle cx="200.137" cy="22.8593" r="4" fill="#0" id="circle35"/>
	<circle cx="200.137" cy="599.954" r="4" fill="#0" id="circle36"/>
	<circle cx="217.11" cy="13.4297" r="4" fill="#0" id="circle37"/>
	<circle cx="217.11" cy="609.384" r="4" fill="#0" id="circle38"/>
	<circle cx="232.198" cy="622.586" r="4" fill="#0" id="circle39"/>
	<circle cx="234.084" cy="4" r="4" fill="#0" id="circle40"/>
	<circle cx="245.399" cy="637.673" r="4" fill="#0" id="circle41"/>
	<circle cx="252.943" cy="4" r="4" fill="#0" id="circle42"/>
	<circle cx="260.487" cy="650.875" r="4" fill="#0" id="circle43"/>
	<circle cx="269.916" cy="13.4297" r="4" fill="#0" id="circle44"/>
	<circle cx="273.688" cy="665.962" r="4" fill="#0" id="circle45"/>
	<circle cx="288.776" cy="19.0875" r="4" fill="#0" id="circle46"/>
	<circle cx="292.548" cy="673.506" r="4" fill="#0" id="circle47"/>
	<circle cx="303.863" cy="32.289" r="4" fill="#0" id="circle48"/>
	<circle cx="305.749" cy="688.593" r="4" fill="#0" id="circle49"/>
	<circle cx="320.837" cy="41.7186" r="4" fill="#0" id="circle50"/>
	<circle cx="320.837" cy="701.795" r="4" fill="#0" id="circle51"/>
	<circle cx="334.038" cy="56.8061" r="4" fill="#0" id="circle52"/>
	<circle cx="337.81" cy="711.224" r="4" fill="#0" id="circle53"/>
	<circle cx="352.897" cy="64.3498" r="4" fill="#0" id="circle54"/>
	<circle cx="352.897" cy="722.54" r="4" fill="#0" id="circle55"/>
	<circle cx="364.213" cy="79.4373" r="4" fill="#0" id="circle56"/>
	<circle cx="364.213" cy="737.627" r="4" fill="#0" id="circle57"/>
	<circle cx="379.3" cy="90.7529" r="4" fill="#0" id="circle58"/>
	<circle cx="383.072" cy="745.171" r="4" fill="#0" id="circle59"/>
	<circle cx="386.844" cy="109.612" r="4" fill="#0" id="circle60"/>
	<circle cx="396.274" cy="126.586" r="4" fill="#0" id="circle61"/>
	<circle cx="396.274" cy="760.259" r="4" fill="#0" id="circle62"/>
	<circle cx="409.475" cy="141.673" r="4" fill="#0" id="circle63"/>
	<circle cx="411.361" cy="773.46" r="4" fill="#0" id="circle64"/>
	<circle cx="420.791" cy="156.76" r="4" fill="#0" id="circle65"/>
	<circle cx="428.335" cy="782.89" r="4" fill="#0" id="circle66"/>
	<circle cx="430.221" cy="173.734" r="4" fill="#0" id="circle67"/>
	<circle cx="437.764" cy="799.863" r="4" fill="#0" id="circle68"/>
	<circle cx="439.65" cy="190.707" r="4" fill="#0" id="circle69"/>
	<circle cx="449.08" cy="207.681" r="4" fill="#0" id="circle70"/>
	<circle cx="450.966" cy="814.951" r="4" fill="#0" id="circle71"/>
	<circle cx="458.51" cy="224.654" r="4" fill="#0" id="circle72"/>
	<circle cx="466.053" cy="826.266" r="4" fill="#0" id="circle73"/>
	<circle cx="467.939" cy="241.627" r="4" fill="#0" id="circle74"/>
	<circle cx="477.369" cy="258.601" r="4" fill="#0" id="circle75"/>
	<circle cx="477.369" cy="841.354" r="4" fill="#0" id="circle76"/>
	<circle cx="494.342" cy="268.03" r="4" fill="#0" id="circle77"/>
	<circle cx="496.228" cy="835.696" r="4" fill="#0" id="circle78"/>
	<circle cx="505.658" cy="252.943" r="4" fill="#0" id="circle79"/>
	<circle cx="515.087" cy="234.084" r="4" fill="#0" id="circle80"/>
	<circle cx="515.087" cy="826.266" r="4" fill="#0" id="circle81"/>
	<circle cx="524.517" cy="215.224" r="4" fill="#0" id="circle82"/>
	<circle cx="530.175" cy="813.065" r="4" fill="#0" id="circle83"/>
	<circle cx="533.947" cy="196.365" r="4" fill="#0" id="circle84"/>
	<circle cx="543.376" cy="177.506" r="4" fill="#0" id="circle85"/>
	<circle cx="549.034" cy="803.635" r="4" fill="#0" id="circle86"/>
	<circle cx="552.806" cy="158.646" r="4" fill="#0" id="circle87"/>
	<circle cx="562.236" cy="139.787" r="4" fill="#0" id="circle88"/>
	<circle cx="567.894" cy="794.205" r="4" fill="#0" id="circle89"/>
	<circle cx="571.665" cy="120.928" r="4" fill="#0" id="circle90"/>
	<circle cx="581.095" cy="779.118" r="4" fill="#0" id="circle91"/>
	<circle cx="586.753" cy="107.726" r="4" fill="#0" id="circle92"/>
	<circle cx="598.068" cy="85.0951" r="4" fill="#0" id="circle93"/>
	<circle cx="599.954" cy="769.688" r="4" fill="#0" id="circle94"/>
	<circle cx="615.042" cy="756.487" r="4" fill="#0" id="circle95"/>
	<circle cx="616.928" cy="75.6654" r="4" fill="#0" id="circle96"/>
	<circle cx="626.357" cy="56.8061" r="4" fill="#0" id="circle97"/>
	<circle cx="633.901" cy="747.057" r="4" fill="#0" id="circle98"/>
	<circle cx="645.217" cy="47.3764" r="4" fill="#0" id="circle99"/>
	<circle cx="652.76" cy="737.627" r="4" fill="#0" id="circle100"/>
	<circle cx="664.076" cy="37.9468" r="4" fill="#0" id="circle101"/>
	<circle cx="671.62" cy="728.198" r="4" fill="#0" id="circle102"/>
	<circle cx="682.935" cy="28.5171" r="4" fill="#0" id="circle103"/>
	<circle cx="690.479" cy="718.768" r="4" fill="#0" id="circle104"/>
	<circle cx="701.795" cy="19.0875" r="4" fill="#0" id="circle105"/>
	<circle cx="709.338" cy="709.338" r="4" fill="#0" id="circle106"/>
	<circle cx="720.654" cy="13.4297" r="4" fill="#0" id="circle107"/>
	<circle cx="722.54" cy="694.251" r="4" fill="#0" id="circle108"/>
	<circle cx="737.627" cy="681.049" r="4" fill="#0" id="circle109"/>
	<circle cx="739.513" cy="13.4297" r="4" fill="#0" id="circle110"/>
	<circle cx="756.487" cy="671.62" r="4" fill="#0" id="circle111"/>
	<circle cx="758.373" cy="13.4297" r="4" fill="#0" id="circle112"/>
	<circle cx="775.346" cy="662.19" r="4" fill="#0" id="circle113"/>
	<circle cx="777.232" cy="17.2015" r="4" fill="#0" id="circle114"/>
	<circle cx="788.548" cy="647.103" r="4" fill="#0" id="circle115"/>
	<circle cx="796.091" cy="22.8593" r="4" fill="#0" id="circle116"/>
	<circle cx="805.521" cy="637.673" r="4" fill="#0" id="circle117"/>
	<circle cx="814.951" cy="26.6312" r="4" fill="#0" id="circle118"/>
	<circle cx="820.608" cy="626.357" r="4" fill="#0" id="circle119"/>
	<circle cx="830.038" cy="609.384" r="4" fill="#0" id="circle120"/>
	<circle cx="831.924" cy="36.0608" r="4" fill="#0" id="circle121"/>
	<circle cx="847.011" cy="599.954" r="4" fill="#0" id="circle122"/>
	<circle cx="850.783" cy="43.6046" r="4" fill="#0" id="circle123"/>
	<circle cx="854.555" cy="581.095" r="4" fill="#0" id="circle124"/>
	<circle cx="867.757" cy="53.0342" r="4" fill="#0" id="circle125"/>
	<circle cx="873.414" cy="571.665" r="4" fill="#0" id="circle126"/>
	<circle cx="882.844" cy="552.806" r="4" fill="#0" id="circle127"/>
	<circle cx="886.616" cy="60.5779" r="4" fill="#0" id="circle128"/>
	<circle cx="897.932" cy="539.605" r="4" fill="#0" id="circle129"/>
	<circle cx="899.817" cy="75.6654" r="4" fill="#0" id="circle130"/>
	<circle cx="911.133" cy="524.517" r="4" fill="#0" id="circle131"/>
	<circle cx="914.905" cy="88.8669" r="4" fill="#0" id="circle132"/>
	<circle cx="926.221" cy="511.316" r="4" fill="#0" id="circle133"/>
	<circle cx="931.878" cy="98.2966" r="4" fill="#0" id="circle134"/>
	<circle cx="939.422" cy="117.156" r="4" fill="#0" id="circle135"/>
	<circle cx="939.422" cy="486.798" r="4" fill="#0" id="circle136"/>
	<circle cx="948.852" cy="467.939" r="4" fill="#0" id="circle137"/>
	<circle cx="954.51" cy="128.471" r="4" fill="#0" id="circle138"/>
	<circle cx="958.281" cy="449.08" r="4" fill="#0" id="circle139"/>
	<circle cx="962.053" cy="147.331" r="4" fill="#0" id="circle140"/>
	<circle cx="967.711" cy="430.221" r="4" fill="#0" id="circle141"/>
	<circle cx="971.483" cy="164.304" r="4" fill="#0" id="circle142"/>
	<circle cx="977.141" cy="183.163" r="4" fill="#0" id="circle143"/>
	<circle cx="977.141" cy="392.502" r="4" fill="#0" id="circle144"/>
	<circle cx="977.141" cy="411.361" r="4" fill="#0" id="circle145"/>
	<circle cx="986.57" cy="200.137" r="4" fill="#0" id="circle146"/>
	<circle cx="986.57" cy="218.996" r="4" fill="#0" id="circle147"/>
	<circle cx="986.57" cy="345.354" r="4" fill="#0" id="circle148"/>
	<circle cx="986.57" cy="364.213" r="4" fill="#0" id="circle149"/>
	<circle cx="996" cy="235.97" r="4" fill="#0" id="circle150"/>
	<circle cx="996" cy="254.829" r="4" fill="#0" id="circle151"/>
	<circle cx="996" cy="273.688" r="4" fill="#0" id="circle152"/>
	<circle cx="996" cy="292.548" r="4" fill="#0" id="circle153"/>
	<circle cx="996" cy="311.407" r="4" fill="#0" id="circle154"/>
	</g>
</svg>