<?xml version="1.0" encoding="UTF-8" standalone="no"?>
<!-- Created with CurveBenchmark -->
<svg
	xmlns:dc="http://purl.org/dc/elements/1.1/"
	xmlns:cc="http://creativecommons.org/ns#"
	xmlns:rdf="http://www.w3.org/1999/02/22-rdf-syntax-ns#"
	xmlns:svg="http://www.w3.org/2000/svg"
	xmlns="http://www.w3.org/2000/svg"
	xmlns:sodipodi="http://sodipodi.sourceforge.net/DTD/sodipodi-0.dtd"
	xmlns:inkscape="http://www.inkscape.org/namespaces/inkscape"
	width="1000"
	height="1000"
	id="svg2"
	version="1.1"
	sodipodi:docname="manifold/peel-woodenspoonbinary53.png.txt">
<defs
	id="defs4" />
<metadata
	id="metadata7">
	<rdf:RDF>
		<cc:Work
			rdf:about="">
			<dc:format>image/svg+xml</dc:format>
			<dc:type
				rdf:resource="http://purl.org/dc/dcmitype/StillImage" />
			<dc:title></dc:title>
		</cc:Work>
	</rdf:RDF>
</metadata>
<g
	inkscape:label="Layer 1"
	inkscape:groupmode="layer"
	id="layer1">
	<path style="fill:none;stroke:red;stroke-width:1px;stroke-linecap:butt;stroke-linejoin:miter;stroke-opacity:1" d="M 4,518.81 11.9202,491.09 z" id="boundary" inkscape:connector-curvature="0" />
	<path style="fill:none;stroke:red;stroke-width:1px;stroke-linecap:butt;stroke-linejoin:miter;stroke-opacity:1" d="M 4,538.611 4,518.81 z" id="boundary" inkscape:connector-curvature="0" />
	<path style="fill:none;stroke:red;stroke-width:1px;stroke-linecap:butt;stroke-linejoin:miter;stroke-opacity:1" d="M 4,538.611 7.96008,558.411 z" id="boundary" inkscape:connector-curvature="0" />
	<path style="fill:none;stroke:red;stroke-width:1px;stroke-linecap:butt;stroke-linejoin:miter;stroke-opacity:1" d="M 19.8403,471.289 31.7206,453.469 z" id="boundary" inkscape:connector-curvature="0" />
	<path style="fill:none;stroke:red;stroke-width:1px;stroke-linecap:butt;stroke-linejoin:miter;stroke-opacity:1" d="M 11.9202,491.09 19.8403,471.289 z" id="boundary" inkscape:connector-curvature="0" />
	<path style="fill:none;stroke:red;stroke-width:1px;stroke-linecap:butt;stroke-linejoin:miter;stroke-opacity:1" d="M 7.96008,558.411 17.8603,576.232 z" id="boundary" inkscape:connector-curvature="0" />
	<path style="fill:none;stroke:red;stroke-width:1px;stroke-linecap:butt;stroke-linejoin:miter;stroke-opacity:1" d="M 17.8603,576.232 33.7006,588.112 z" id="boundary" inkscape:connector-curvature="0" />
	<path style="fill:none;stroke:red;stroke-width:1px;stroke-linecap:butt;stroke-linejoin:miter;stroke-opacity:1" d="M 101.022,625.733 116.862,639.593 z" id="boundary" inkscape:connector-curvature="0" />
	<path style="fill:none;stroke:red;stroke-width:1px;stroke-linecap:butt;stroke-linejoin:miter;stroke-opacity:1" d="M 31.7206,453.469 45.5808,437.629 z" id="boundary" inkscape:connector-curvature="0" />
	<path style="fill:none;stroke:red;stroke-width:1px;stroke-linecap:butt;stroke-linejoin:miter;stroke-opacity:1" d="M 33.7006,588.112 51.521,598.012 z" id="boundary" inkscape:connector-curvature="0" />
	<path style="fill:none;stroke:red;stroke-width:1px;stroke-linecap:butt;stroke-linejoin:miter;stroke-opacity:1" d="M 71.3214,603.952 51.521,598.012 z" id="boundary" inkscape:connector-curvature="0" />
	<path style="fill:none;stroke:red;stroke-width:1px;stroke-linecap:butt;stroke-linejoin:miter;stroke-opacity:1" d="M 45.5808,437.629 59.4411,421.788 z" id="boundary" inkscape:connector-curvature="0" />
	<path style="fill:none;stroke:red;stroke-width:1px;stroke-linecap:butt;stroke-linejoin:miter;stroke-opacity:1" d="M 91.1218,607.912 101.022,625.733 z" id="boundary" inkscape:connector-curvature="0" />
	<path style="fill:none;stroke:red;stroke-width:1px;stroke-linecap:butt;stroke-linejoin:miter;stroke-opacity:1" d="M 91.1218,607.912 71.3214,603.952 z" id="boundary" inkscape:connector-curvature="0" />
	<path style="fill:none;stroke:red;stroke-width:1px;stroke-linecap:butt;stroke-linejoin:miter;stroke-opacity:1" d="M 59.4411,421.788 75.2814,407.928 z" id="boundary" inkscape:connector-curvature="0" />
	<path style="fill:none;stroke:red;stroke-width:1px;stroke-linecap:butt;stroke-linejoin:miter;stroke-opacity:1" d="M 75.2814,407.928 93.1018,396.048 z" id="boundary" inkscape:connector-curvature="0" />
	<path style="fill:none;stroke:red;stroke-width:1px;stroke-linecap:butt;stroke-linejoin:miter;stroke-opacity:1" d="M 93.1018,396.048 112.902,386.148 z" id="boundary" inkscape:connector-curvature="0" />
	<path style="fill:none;stroke:red;stroke-width:1px;stroke-linecap:butt;stroke-linejoin:miter;stroke-opacity:1" d="M 152.503,374.267 132.703,378.228 z" id="boundary" inkscape:connector-curvature="0" />
	<path style="fill:none;stroke:red;stroke-width:1px;stroke-linecap:butt;stroke-linejoin:miter;stroke-opacity:1" d="M 132.703,378.228 112.902,386.148 z" id="boundary" inkscape:connector-curvature="0" />
	<path style="fill:none;stroke:red;stroke-width:1px;stroke-linecap:butt;stroke-linejoin:miter;stroke-opacity:1" d="M 116.862,639.593 136.663,635.633 z" id="boundary" inkscape:connector-curvature="0" />
	<path style="fill:none;stroke:red;stroke-width:1px;stroke-linecap:butt;stroke-linejoin:miter;stroke-opacity:1" d="M 136.663,635.633 156.463,631.673 z" id="boundary" inkscape:connector-curvature="0" />
	<path style="fill:none;stroke:red;stroke-width:1px;stroke-linecap:butt;stroke-linejoin:miter;stroke-opacity:1" d="M 152.503,374.267 172.303,368.327 z" id="boundary" inkscape:connector-curvature="0" />
	<path style="fill:none;stroke:red;stroke-width:1px;stroke-linecap:butt;stroke-linejoin:miter;stroke-opacity:1" d="M 172.303,368.327 192.104,366.347 z" id="boundary" inkscape:connector-curvature="0" />
	<path style="fill:none;stroke:red;stroke-width:1px;stroke-linecap:butt;stroke-linejoin:miter;stroke-opacity:1" d="M 156.463,631.673 176.263,625.733 z" id="boundary" inkscape:connector-curvature="0" />
	<path style="fill:none;stroke:red;stroke-width:1px;stroke-linecap:butt;stroke-linejoin:miter;stroke-opacity:1" d="M 437.629,356.447 421.788,370.307 z" id="boundary" inkscape:connector-curvature="0" />
	<path style="fill:none;stroke:red;stroke-width:1px;stroke-linecap:butt;stroke-linejoin:miter;stroke-opacity:1" d="M 176.263,625.733 196.064,619.792 z" id="boundary" inkscape:connector-curvature="0" />
	<path style="fill:none;stroke:red;stroke-width:1px;stroke-linecap:butt;stroke-linejoin:miter;stroke-opacity:1" d="M 215.864,609.892 235.665,601.972 z" id="boundary" inkscape:connector-curvature="0" />
	<path style="fill:none;stroke:red;stroke-width:1px;stroke-linecap:butt;stroke-linejoin:miter;stroke-opacity:1" d="M 215.864,609.892 196.064,619.792 z" id="boundary" inkscape:connector-curvature="0" />
	<path style="fill:none;stroke:red;stroke-width:1px;stroke-linecap:butt;stroke-linejoin:miter;stroke-opacity:1" d="M 192.104,366.347 211.904,364.367 z" id="boundary" inkscape:connector-curvature="0" />
	<path style="fill:none;stroke:red;stroke-width:1px;stroke-linecap:butt;stroke-linejoin:miter;stroke-opacity:1" d="M 211.904,364.367 231.705,362.387 z" id="boundary" inkscape:connector-curvature="0" />
	<path style="fill:none;stroke:red;stroke-width:1px;stroke-linecap:butt;stroke-linejoin:miter;stroke-opacity:1" d="M 522.77,297.046 540.591,287.146 z" id="boundary" inkscape:connector-curvature="0" />
	<path style="fill:none;stroke:red;stroke-width:1px;stroke-linecap:butt;stroke-linejoin:miter;stroke-opacity:1" d="M 522.77,297.046 504.95,308.926 z" id="boundary" inkscape:connector-curvature="0" />
	<path style="fill:none;stroke:red;stroke-width:1px;stroke-linecap:butt;stroke-linejoin:miter;stroke-opacity:1" d="M 231.705,362.387 251.505,360.407 z" id="boundary" inkscape:connector-curvature="0" />
	<path style="fill:none;stroke:red;stroke-width:1px;stroke-linecap:butt;stroke-linejoin:miter;stroke-opacity:1" d="M 253.485,592.072 235.665,601.972 z" id="boundary" inkscape:connector-curvature="0" />
	<path style="fill:none;stroke:red;stroke-width:1px;stroke-linecap:butt;stroke-linejoin:miter;stroke-opacity:1" d="M 251.505,360.407 271.305,360.407 z" id="boundary" inkscape:connector-curvature="0" />
	<path style="fill:none;stroke:red;stroke-width:1px;stroke-linecap:butt;stroke-linejoin:miter;stroke-opacity:1" d="M 665.333,215.864 683.154,205.964 z" id="boundary" inkscape:connector-curvature="0" />
	<path style="fill:none;stroke:red;stroke-width:1px;stroke-linecap:butt;stroke-linejoin:miter;stroke-opacity:1" d="M 271.305,580.192 253.485,592.072 z" id="boundary" inkscape:connector-curvature="0" />
	<path style="fill:none;stroke:red;stroke-width:1px;stroke-linecap:butt;stroke-linejoin:miter;stroke-opacity:1" d="M 950.459,89.1417 968.279,77.2615 z" id="boundary" inkscape:connector-curvature="0" />
	<path style="fill:none;stroke:red;stroke-width:1px;stroke-linecap:butt;stroke-linejoin:miter;stroke-opacity:1" d="M 287.146,568.311 271.305,580.192 z" id="boundary" inkscape:connector-curvature="0" />
	<path style="fill:none;stroke:red;stroke-width:1px;stroke-linecap:butt;stroke-linejoin:miter;stroke-opacity:1" d="M 271.305,360.407 291.106,358.427 z" id="boundary" inkscape:connector-curvature="0" />
	<path style="fill:none;stroke:red;stroke-width:1px;stroke-linecap:butt;stroke-linejoin:miter;stroke-opacity:1" d="M 342.587,499.01 330.707,518.81 z" id="boundary" inkscape:connector-curvature="0" />
	<path style="fill:none;stroke:red;stroke-width:1px;stroke-linecap:butt;stroke-linejoin:miter;stroke-opacity:1" d="M 302.986,552.471 287.146,568.311 z" id="boundary" inkscape:connector-curvature="0" />
	<path style="fill:none;stroke:red;stroke-width:1px;stroke-linecap:butt;stroke-linejoin:miter;stroke-opacity:1" d="M 291.106,358.427 310.906,356.447 z" id="boundary" inkscape:connector-curvature="0" />
	<path style="fill:none;stroke:red;stroke-width:1px;stroke-linecap:butt;stroke-linejoin:miter;stroke-opacity:1" d="M 310.906,356.447 328.727,346.547 z" id="boundary" inkscape:connector-curvature="0" />
	<path style="fill:none;stroke:red;stroke-width:1px;stroke-linecap:butt;stroke-linejoin:miter;stroke-opacity:1" d="M 318.826,534.651 302.986,552.471 z" id="boundary" inkscape:connector-curvature="0" />
	<path style="fill:none;stroke:red;stroke-width:1px;stroke-linecap:butt;stroke-linejoin:miter;stroke-opacity:1" d="M 330.707,518.81 318.826,534.651 z" id="boundary" inkscape:connector-curvature="0" />
	<path style="fill:none;stroke:red;stroke-width:1px;stroke-linecap:butt;stroke-linejoin:miter;stroke-opacity:1" d="M 504.95,308.926 487.13,318.826 z" id="boundary" inkscape:connector-curvature="0" />
	<path style="fill:none;stroke:red;stroke-width:1px;stroke-linecap:butt;stroke-linejoin:miter;stroke-opacity:1" d="M 487.13,318.826 469.309,330.707 z" id="boundary" inkscape:connector-curvature="0" />
	<path style="fill:none;stroke:red;stroke-width:1px;stroke-linecap:butt;stroke-linejoin:miter;stroke-opacity:1" d="M 328.727,346.547 348.527,336.647 z" id="boundary" inkscape:connector-curvature="0" />
	<path style="fill:none;stroke:red;stroke-width:1px;stroke-linecap:butt;stroke-linejoin:miter;stroke-opacity:1" d="M 370.307,433.669 378.228,413.868 z" id="boundary" inkscape:connector-curvature="0" />
	<path style="fill:none;stroke:red;stroke-width:1px;stroke-linecap:butt;stroke-linejoin:miter;stroke-opacity:1" d="M 378.228,413.868 390.108,398.028 z" id="boundary" inkscape:connector-curvature="0" />
	<path style="fill:none;stroke:red;stroke-width:1px;stroke-linecap:butt;stroke-linejoin:miter;stroke-opacity:1" d="M 352.487,479.21 342.587,499.01 z" id="boundary" inkscape:connector-curvature="0" />
	<path style="fill:none;stroke:red;stroke-width:1px;stroke-linecap:butt;stroke-linejoin:miter;stroke-opacity:1" d="M 421.788,370.307 405.948,382.188 z" id="boundary" inkscape:connector-curvature="0" />
	<path style="fill:none;stroke:red;stroke-width:1px;stroke-linecap:butt;stroke-linejoin:miter;stroke-opacity:1" d="M 362.387,457.429 352.487,479.21 z" id="boundary" inkscape:connector-curvature="0" />
	<path style="fill:none;stroke:red;stroke-width:1px;stroke-linecap:butt;stroke-linejoin:miter;stroke-opacity:1" d="M 348.527,336.647 366.347,326.747 z" id="boundary" inkscape:connector-curvature="0" />
	<path style="fill:none;stroke:red;stroke-width:1px;stroke-linecap:butt;stroke-linejoin:miter;stroke-opacity:1" d="M 362.387,457.429 370.307,433.669 z" id="boundary" inkscape:connector-curvature="0" />
	<path style="fill:none;stroke:red;stroke-width:1px;stroke-linecap:butt;stroke-linejoin:miter;stroke-opacity:1" d="M 390.108,398.028 405.948,382.188 z" id="boundary" inkscape:connector-curvature="0" />
	<path style="fill:none;stroke:red;stroke-width:1px;stroke-linecap:butt;stroke-linejoin:miter;stroke-opacity:1" d="M 366.347,326.747 384.168,316.846 z" id="boundary" inkscape:connector-curvature="0" />
	<path style="fill:none;stroke:red;stroke-width:1px;stroke-linecap:butt;stroke-linejoin:miter;stroke-opacity:1" d="M 453.469,342.587 469.309,330.707 z" id="boundary" inkscape:connector-curvature="0" />
	<path style="fill:none;stroke:red;stroke-width:1px;stroke-linecap:butt;stroke-linejoin:miter;stroke-opacity:1" d="M 453.469,342.587 437.629,356.447 z" id="boundary" inkscape:connector-curvature="0" />
	<path style="fill:none;stroke:red;stroke-width:1px;stroke-linecap:butt;stroke-linejoin:miter;stroke-opacity:1" d="M 384.168,316.846 401.988,306.946 z" id="boundary" inkscape:connector-curvature="0" />
	<path style="fill:none;stroke:red;stroke-width:1px;stroke-linecap:butt;stroke-linejoin:miter;stroke-opacity:1" d="M 401.988,306.946 419.808,295.066 z" id="boundary" inkscape:connector-curvature="0" />
	<path style="fill:none;stroke:red;stroke-width:1px;stroke-linecap:butt;stroke-linejoin:miter;stroke-opacity:1" d="M 419.808,295.066 437.629,285.166 z" id="boundary" inkscape:connector-curvature="0" />
	<path style="fill:none;stroke:red;stroke-width:1px;stroke-linecap:butt;stroke-linejoin:miter;stroke-opacity:1" d="M 437.629,285.166 455.449,275.265 z" id="boundary" inkscape:connector-curvature="0" />
	<path style="fill:none;stroke:red;stroke-width:1px;stroke-linecap:butt;stroke-linejoin:miter;stroke-opacity:1" d="M 455.449,275.265 473.269,263.385 z" id="boundary" inkscape:connector-curvature="0" />
	<path style="fill:none;stroke:red;stroke-width:1px;stroke-linecap:butt;stroke-linejoin:miter;stroke-opacity:1" d="M 558.411,277.246 540.591,287.146 z" id="boundary" inkscape:connector-curvature="0" />
	<path style="fill:none;stroke:red;stroke-width:1px;stroke-linecap:butt;stroke-linejoin:miter;stroke-opacity:1" d="M 473.269,263.385 491.09,253.485 z" id="boundary" inkscape:connector-curvature="0" />
	<path style="fill:none;stroke:red;stroke-width:1px;stroke-linecap:butt;stroke-linejoin:miter;stroke-opacity:1" d="M 576.232,267.345 558.411,277.246 z" id="boundary" inkscape:connector-curvature="0" />
	<path style="fill:none;stroke:red;stroke-width:1px;stroke-linecap:butt;stroke-linejoin:miter;stroke-opacity:1" d="M 491.09,253.485 508.91,243.585 z" id="boundary" inkscape:connector-curvature="0" />
	<path style="fill:none;stroke:red;stroke-width:1px;stroke-linecap:butt;stroke-linejoin:miter;stroke-opacity:1" d="M 592.072,255.465 609.892,245.565 z" id="boundary" inkscape:connector-curvature="0" />
	<path style="fill:none;stroke:red;stroke-width:1px;stroke-linecap:butt;stroke-linejoin:miter;stroke-opacity:1" d="M 592.072,255.465 576.232,267.345 z" id="boundary" inkscape:connector-curvature="0" />
	<path style="fill:none;stroke:red;stroke-width:1px;stroke-linecap:butt;stroke-linejoin:miter;stroke-opacity:1" d="M 508.91,243.585 526.731,233.685 z" id="boundary" inkscape:connector-curvature="0" />
	<path style="fill:none;stroke:red;stroke-width:1px;stroke-linecap:butt;stroke-linejoin:miter;stroke-opacity:1" d="M 526.731,233.685 544.551,223.784 z" id="boundary" inkscape:connector-curvature="0" />
	<path style="fill:none;stroke:red;stroke-width:1px;stroke-linecap:butt;stroke-linejoin:miter;stroke-opacity:1" d="M 627.713,233.685 647.513,225.764 z" id="boundary" inkscape:connector-curvature="0" />
	<path style="fill:none;stroke:red;stroke-width:1px;stroke-linecap:butt;stroke-linejoin:miter;stroke-opacity:1" d="M 627.713,233.685 609.892,245.565 z" id="boundary" inkscape:connector-curvature="0" />
	<path style="fill:none;stroke:red;stroke-width:1px;stroke-linecap:butt;stroke-linejoin:miter;stroke-opacity:1" d="M 544.551,223.784 564.351,213.884 z" id="boundary" inkscape:connector-curvature="0" />
	<path style="fill:none;stroke:red;stroke-width:1px;stroke-linecap:butt;stroke-linejoin:miter;stroke-opacity:1" d="M 564.351,213.884 582.172,202.004 z" id="boundary" inkscape:connector-curvature="0" />
	<path style="fill:none;stroke:red;stroke-width:1px;stroke-linecap:butt;stroke-linejoin:miter;stroke-opacity:1" d="M 665.333,215.864 647.513,225.764 z" id="boundary" inkscape:connector-curvature="0" />
	<path style="fill:none;stroke:red;stroke-width:1px;stroke-linecap:butt;stroke-linejoin:miter;stroke-opacity:1" d="M 582.172,202.004 599.992,192.104 z" id="boundary" inkscape:connector-curvature="0" />
	<path style="fill:none;stroke:red;stroke-width:1px;stroke-linecap:butt;stroke-linejoin:miter;stroke-opacity:1" d="M 683.154,205.964 700.974,196.064 z" id="boundary" inkscape:connector-curvature="0" />
	<path style="fill:none;stroke:red;stroke-width:1px;stroke-linecap:butt;stroke-linejoin:miter;stroke-opacity:1" d="M 599.992,192.104 617.812,182.204 z" id="boundary" inkscape:connector-curvature="0" />
	<path style="fill:none;stroke:red;stroke-width:1px;stroke-linecap:butt;stroke-linejoin:miter;stroke-opacity:1" d="M 700.974,196.064 718.794,186.164 z" id="boundary" inkscape:connector-curvature="0" />
	<path style="fill:none;stroke:red;stroke-width:1px;stroke-linecap:butt;stroke-linejoin:miter;stroke-opacity:1" d="M 617.812,182.204 635.633,172.303 z" id="boundary" inkscape:connector-curvature="0" />
	<path style="fill:none;stroke:red;stroke-width:1px;stroke-linecap:butt;stroke-linejoin:miter;stroke-opacity:1" d="M 718.794,186.164 738.595,176.263 z" id="boundary" inkscape:connector-curvature="0" />
	<path style="fill:none;stroke:red;stroke-width:1px;stroke-linecap:butt;stroke-linejoin:miter;stroke-opacity:1" d="M 738.595,176.263 758.395,168.343 z" id="boundary" inkscape:connector-curvature="0" />
	<path style="fill:none;stroke:red;stroke-width:1px;stroke-linecap:butt;stroke-linejoin:miter;stroke-opacity:1" d="M 635.633,172.303 653.453,162.403 z" id="boundary" inkscape:connector-curvature="0" />
	<path style="fill:none;stroke:red;stroke-width:1px;stroke-linecap:butt;stroke-linejoin:miter;stroke-opacity:1" d="M 653.453,162.403 671.273,150.523 z" id="boundary" inkscape:connector-curvature="0" />
	<path style="fill:none;stroke:red;stroke-width:1px;stroke-linecap:butt;stroke-linejoin:miter;stroke-opacity:1" d="M 833.637,130.723 853.437,120.822 z" id="boundary" inkscape:connector-curvature="0" />
	<path style="fill:none;stroke:red;stroke-width:1px;stroke-linecap:butt;stroke-linejoin:miter;stroke-opacity:1" d="M 853.437,120.822 873.238,112.902 z" id="boundary" inkscape:connector-curvature="0" />
	<path style="fill:none;stroke:red;stroke-width:1px;stroke-linecap:butt;stroke-linejoin:miter;stroke-opacity:1" d="M 671.273,150.523 689.094,140.623 z" id="boundary" inkscape:connector-curvature="0" />
	<path style="fill:none;stroke:red;stroke-width:1px;stroke-linecap:butt;stroke-linejoin:miter;stroke-opacity:1" d="M 776.216,158.443 796.016,150.523 z" id="boundary" inkscape:connector-curvature="0" />
	<path style="fill:none;stroke:red;stroke-width:1px;stroke-linecap:butt;stroke-linejoin:miter;stroke-opacity:1" d="M 776.216,158.443 758.395,168.343 z" id="boundary" inkscape:connector-curvature="0" />
	<path style="fill:none;stroke:red;stroke-width:1px;stroke-linecap:butt;stroke-linejoin:miter;stroke-opacity:1" d="M 689.094,140.623 706.914,130.723 z" id="boundary" inkscape:connector-curvature="0" />
	<path style="fill:none;stroke:red;stroke-width:1px;stroke-linecap:butt;stroke-linejoin:miter;stroke-opacity:1" d="M 706.914,130.723 724.735,120.822 z" id="boundary" inkscape:connector-curvature="0" />
	<path style="fill:none;stroke:red;stroke-width:1px;stroke-linecap:butt;stroke-linejoin:miter;stroke-opacity:1" d="M 813.836,140.623 833.637,130.723 z" id="boundary" inkscape:connector-curvature="0" />
	<path style="fill:none;stroke:red;stroke-width:1px;stroke-linecap:butt;stroke-linejoin:miter;stroke-opacity:1" d="M 813.836,140.623 796.016,150.523 z" id="boundary" inkscape:connector-curvature="0" />
	<path style="fill:none;stroke:red;stroke-width:1px;stroke-linecap:butt;stroke-linejoin:miter;stroke-opacity:1" d="M 724.735,120.822 744.535,110.922 z" id="boundary" inkscape:connector-curvature="0" />
	<path style="fill:none;stroke:red;stroke-width:1px;stroke-linecap:butt;stroke-linejoin:miter;stroke-opacity:1" d="M 744.535,110.922 762.355,101.022 z" id="boundary" inkscape:connector-curvature="0" />
	<path style="fill:none;stroke:red;stroke-width:1px;stroke-linecap:butt;stroke-linejoin:miter;stroke-opacity:1" d="M 762.355,101.022 778.196,89.1417 z" id="boundary" inkscape:connector-curvature="0" />
	<path style="fill:none;stroke:red;stroke-width:1px;stroke-linecap:butt;stroke-linejoin:miter;stroke-opacity:1" d="M 778.196,89.1417 796.016,79.2415 z" id="boundary" inkscape:connector-curvature="0" />
	<path style="fill:none;stroke:red;stroke-width:1px;stroke-linecap:butt;stroke-linejoin:miter;stroke-opacity:1" d="M 796.016,79.2415 813.836,69.3413 z" id="boundary" inkscape:connector-curvature="0" />
	<path style="fill:none;stroke:red;stroke-width:1px;stroke-linecap:butt;stroke-linejoin:miter;stroke-opacity:1" d="M 813.836,69.3413 831.657,59.4411 z" id="boundary" inkscape:connector-curvature="0" />
	<path style="fill:none;stroke:red;stroke-width:1px;stroke-linecap:butt;stroke-linejoin:miter;stroke-opacity:1" d="M 930.659,85.1816 950.459,89.1417 z" id="boundary" inkscape:connector-curvature="0" />
	<path style="fill:none;stroke:red;stroke-width:1px;stroke-linecap:butt;stroke-linejoin:miter;stroke-opacity:1" d="M 930.659,85.1816 910.858,93.1018 z" id="boundary" inkscape:connector-curvature="0" />
	<path style="fill:none;stroke:red;stroke-width:1px;stroke-linecap:butt;stroke-linejoin:miter;stroke-opacity:1" d="M 831.657,59.4411 849.477,49.5409 z" id="boundary" inkscape:connector-curvature="0" />
	<path style="fill:none;stroke:red;stroke-width:1px;stroke-linecap:butt;stroke-linejoin:miter;stroke-opacity:1" d="M 873.238,112.902 891.058,101.022 z" id="boundary" inkscape:connector-curvature="0" />
	<path style="fill:none;stroke:red;stroke-width:1px;stroke-linecap:butt;stroke-linejoin:miter;stroke-opacity:1" d="M 891.058,101.022 910.858,93.1018 z" id="boundary" inkscape:connector-curvature="0" />
	<path style="fill:none;stroke:red;stroke-width:1px;stroke-linecap:butt;stroke-linejoin:miter;stroke-opacity:1" d="M 849.477,49.5409 869.277,41.6208 z" id="boundary" inkscape:connector-curvature="0" />
	<path style="fill:none;stroke:red;stroke-width:1px;stroke-linecap:butt;stroke-linejoin:miter;stroke-opacity:1" d="M 869.277,41.6208 889.078,31.7206 z" id="boundary" inkscape:connector-curvature="0" />
	<path style="fill:none;stroke:red;stroke-width:1px;stroke-linecap:butt;stroke-linejoin:miter;stroke-opacity:1" d="M 889.078,31.7206 908.878,27.7605 z" id="boundary" inkscape:connector-curvature="0" />
	<path style="fill:none;stroke:red;stroke-width:1px;stroke-linecap:butt;stroke-linejoin:miter;stroke-opacity:1" d="M 908.878,27.7605 928.679,27.7605 z" id="boundary" inkscape:connector-curvature="0" />
	<path style="fill:none;stroke:red;stroke-width:1px;stroke-linecap:butt;stroke-linejoin:miter;stroke-opacity:1" d="M 928.679,27.7605 948.479,17.8603 z" id="boundary" inkscape:connector-curvature="0" />
	<path style="fill:none;stroke:red;stroke-width:1px;stroke-linecap:butt;stroke-linejoin:miter;stroke-opacity:1" d="M 948.479,17.8603 964.319,4 z" id="boundary" inkscape:connector-curvature="0" />
	<path style="fill:none;stroke:red;stroke-width:1px;stroke-linecap:butt;stroke-linejoin:miter;stroke-opacity:1" d="M 980.16,59.4411 968.279,77.2615 z" id="boundary" inkscape:connector-curvature="0" />
	<path style="fill:none;stroke:red;stroke-width:1px;stroke-linecap:butt;stroke-linejoin:miter;stroke-opacity:1" d="M 964.319,4 984.12,4 z" id="boundary" inkscape:connector-curvature="0" />
	<path style="fill:none;stroke:red;stroke-width:1px;stroke-linecap:butt;stroke-linejoin:miter;stroke-opacity:1" d="M 984.12,4 996,19.8403 z" id="boundary" inkscape:connector-curvature="0" />
	<path style="fill:none;stroke:red;stroke-width:1px;stroke-linecap:butt;stroke-linejoin:miter;stroke-opacity:1" d="M 990.06,39.6407 980.16,59.4411 z" id="boundary" inkscape:connector-curvature="0" />
	<path style="fill:none;stroke:red;stroke-width:1px;stroke-linecap:butt;stroke-linejoin:miter;stroke-opacity:1" d="M 996,19.8403 990.06,39.6407 z" id="boundary" inkscape:connector-curvature="0" />
	<circle cx="4" cy="518.81" r="4" fill="#0" id="circle0"/>
	<circle cx="4" cy="538.611" r="4" fill="#0" id="circle1"/>
	<circle cx="7.96008" cy="558.411" r="4" fill="#0" id="circle2"/>
	<circle cx="11.9202" cy="491.09" r="4" fill="#0" id="circle3"/>
	<circle cx="17.8603" cy="576.232" r="4" fill="#0" id="circle4"/>
	<circle cx="19.8403" cy="471.289" r="4" fill="#0" id="circle5"/>
	<circle cx="31.7206" cy="453.469" r="4" fill="#0" id="circle6"/>
	<circle cx="33.7006" cy="588.112" r="4" fill="#0" id="circle7"/>
	<circle cx="45.5808" cy="437.629" r="4" fill="#0" id="circle8"/>
	<circle cx="51.521" cy="598.012" r="4" fill="#0" id="circle9"/>
	<circle cx="59.4411" cy="421.788" r="4" fill="#0" id="circle10"/>
	<circle cx="71.3214" cy="603.952" r="4" fill="#0" id="circle11"/>
	<circle cx="75.2814" cy="407.928" r="4" fill="#0" id="circle12"/>
	<circle cx="91.1218" cy="607.912" r="4" fill="#0" id="circle13"/>
	<circle cx="93.1018" cy="396.048" r="4" fill="#0" id="circle14"/>
	<circle cx="101.022" cy="625.733" r="4" fill="#0" id="circle15"/>
	<circle cx="112.902" cy="386.148" r="4" fill="#0" id="circle16"/>
	<circle cx="116.862" cy="639.593" r="4" fill="#0" id="circle17"/>
	<circle cx="132.703" cy="378.228" r="4" fill="#0" id="circle18"/>
	<circle cx="136.663" cy="635.633" r="4" fill="#0" id="circle19"/>
	<circle cx="152.503" cy="374.267" r="4" fill="#0" id="circle20"/>
	<circle cx="156.463" cy="631.673" r="4" fill="#0" id="circle21"/>
	<circle cx="172.303" cy="368.327" r="4" fill="#0" id="circle22"/>
	<circle cx="176.263" cy="625.733" r="4" fill="#0" id="circle23"/>
	<circle cx="192.104" cy="366.347" r="4" fill="#0" id="circle24"/>
	<circle cx="196.064" cy="619.792" r="4" fill="#0" id="circle25"/>
	<circle cx="211.904" cy="364.367" r="4" fill="#0" id="circle26"/>
	<circle cx="215.864" cy="609.892" r="4" fill="#0" id="circle27"/>
	<circle cx="231.705" cy="362.387" r="4" fill="#0" id="circle28"/>
	<circle cx="235.665" cy="601.972" r="4" fill="#0" id="circle29"/>
	<circle cx="251.505" cy="360.407" r="4" fill="#0" id="circle30"/>
	<circle cx="253.485" cy="592.072" r="4" fill="#0" id="circle31"/>
	<circle cx="271.305" cy="360.407" r="4" fill="#0" id="circle32"/>
	<circle cx="271.305" cy="580.192" r="4" fill="#0" id="circle33"/>
	<circle cx="287.146" cy="568.311" r="4" fill="#0" id="circle34"/>
	<circle cx="291.106" cy="358.427" r="4" fill="#0" id="circle35"/>
	<circle cx="302.986" cy="552.471" r="4" fill="#0" id="circle36"/>
	<circle cx="310.906" cy="356.447" r="4" fill="#0" id="circle37"/>
	<circle cx="318.826" cy="534.651" r="4" fill="#0" id="circle38"/>
	<circle cx="328.727" cy="346.547" r="4" fill="#0" id="circle39"/>
	<circle cx="330.707" cy="518.81" r="4" fill="#0" id="circle40"/>
	<circle cx="342.587" cy="499.01" r="4" fill="#0" id="circle41"/>
	<circle cx="348.527" cy="336.647" r="4" fill="#0" id="circle42"/>
	<circle cx="352.487" cy="479.21" r="4" fill="#0" id="circle43"/>
	<circle cx="362.387" cy="457.429" r="4" fill="#0" id="circle44"/>
	<circle cx="366.347" cy="326.747" r="4" fill="#0" id="circle45"/>
	<circle cx="370.307" cy="433.669" r="4" fill="#0" id="circle46"/>
	<circle cx="378.228" cy="413.868" r="4" fill="#0" id="circle47"/>
	<circle cx="384.168" cy="316.846" r="4" fill="#0" id="circle48"/>
	<circle cx="390.108" cy="398.028" r="4" fill="#0" id="circle49"/>
	<circle cx="401.988" cy="306.946" r="4" fill="#0" id="circle50"/>
	<circle cx="405.948" cy="382.188" r="4" fill="#0" id="circle51"/>
	<circle cx="419.808" cy="295.066" r="4" fill="#0" id="circle52"/>
	<circle cx="421.788" cy="370.307" r="4" fill="#0" id="circle53"/>
	<circle cx="437.629" cy="285.166" r="4" fill="#0" id="circle54"/>
	<circle cx="437.629" cy="356.447" r="4" fill="#0" id="circle55"/>
	<circle cx="453.469" cy="342.587" r="4" fill="#0" id="circle56"/>
	<circle cx="455.449" cy="275.265" r="4" fill="#0" id="circle57"/>
	<circle cx="469.309" cy="330.707" r="4" fill="#0" id="circle58"/>
	<circle cx="473.269" cy="263.385" r="4" fill="#0" id="circle59"/>
	<circle cx="487.13" cy="318.826" r="4" fill="#0" id="circle60"/>
	<circle cx="491.09" cy="253.485" r="4" fill="#0" id="circle61"/>
	<circle cx="504.95" cy="308.926" r="4" fill="#0" id="circle62"/>
	<circle cx="508.91" cy="243.585" r="4" fill="#0" id="circle63"/>
	<circle cx="522.77" cy="297.046" r="4" fill="#0" id="circle64"/>
	<circle cx="526.731" cy="233.685" r="4" fill="#0" id="circle65"/>
	<circle cx="540.591" cy="287.146" r="4" fill="#0" id="circle66"/>
	<circle cx="544.551" cy="223.784" r="4" fill="#0" id="circle67"/>
	<circle cx="558.411" cy="277.246" r="4" fill="#0" id="circle68"/>
	<circle cx="564.351" cy="213.884" r="4" fill="#0" id="circle69"/>
	<circle cx="576.232" cy="267.345" r="4" fill="#0" id="circle70"/>
	<circle cx="582.172" cy="202.004" r="4" fill="#0" id="circle71"/>
	<circle cx="592.072" cy="255.465" r="4" fill="#0" id="circle72"/>
	<circle cx="599.992" cy="192.104" r="4" fill="#0" id="circle73"/>
	<circle cx="609.892" cy="245.565" r="4" fill="#0" id="circle74"/>
	<circle cx="617.812" cy="182.204" r="4" fill="#0" id="circle75"/>
	<circle cx="627.713" cy="233.685" r="4" fill="#0" id="circle76"/>
	<circle cx="635.633" cy="172.303" r="4" fill="#0" id="circle77"/>
	<circle cx="647.513" cy="225.764" r="4" fill="#0" id="circle78"/>
	<circle cx="653.453" cy="162.403" r="4" fill="#0" id="circle79"/>
	<circle cx="665.333" cy="215.864" r="4" fill="#0" id="circle80"/>
	<circle cx="671.273" cy="150.523" r="4" fill="#0" id="circle81"/>
	<circle cx="683.154" cy="205.964" r="4" fill="#0" id="circle82"/>
	<circle cx="689.094" cy="140.623" r="4" fill="#0" id="circle83"/>
	<circle cx="700.974" cy="196.064" r="4" fill="#0" id="circle84"/>
	<circle cx="706.914" cy="130.723" r="4" fill="#0" id="circle85"/>
	<circle cx="718.794" cy="186.164" r="4" fill="#0" id="circle86"/>
	<circle cx="724.735" cy="120.822" r="4" fill="#0" id="circle87"/>
	<circle cx="738.595" cy="176.263" r="4" fill="#0" id="circle88"/>
	<circle cx="744.535" cy="110.922" r="4" fill="#0" id="circle89"/>
	<circle cx="758.395" cy="168.343" r="4" fill="#0" id="circle90"/>
	<circle cx="762.355" cy="101.022" r="4" fill="#0" id="circle91"/>
	<circle cx="776.216" cy="158.443" r="4" fill="#0" id="circle92"/>
	<circle cx="778.196" cy="89.1417" r="4" fill="#0" id="circle93"/>
	<circle cx="796.016" cy="79.2415" r="4" fill="#0" id="circle94"/>
	<circle cx="796.016" cy="150.523" r="4" fill="#0" id="circle95"/>
	<circle cx="813.836" cy="69.3413" r="4" fill="#0" id="circle96"/>
	<circle cx="813.836" cy="140.623" r="4" fill="#0" id="circle97"/>
	<circle cx="831.657" cy="59.4411" r="4" fill="#0" id="circle98"/>
	<circle cx="833.637" cy="130.723" r="4" fill="#0" id="circle99"/>
	<circle cx="849.477" cy="49.5409" r="4" fill="#0" id="circle100"/>
	<circle cx="853.437" cy="120.822" r="4" fill="#0" id="circle101"/>
	<circle cx="869.277" cy="41.6208" r="4" fill="#0" id="circle102"/>
	<circle cx="873.238" cy="112.902" r="4" fill="#0" id="circle103"/>
	<circle cx="889.078" cy="31.7206" r="4" fill="#0" id="circle104"/>
	<circle cx="891.058" cy="101.022" r="4" fill="#0" id="circle105"/>
	<circle cx="908.878" cy="27.7605" r="4" fill="#0" id="circle106"/>
	<circle cx="910.858" cy="93.1018" r="4" fill="#0" id="circle107"/>
	<circle cx="928.679" cy="27.7605" r="4" fill="#0" id="circle108"/>
	<circle cx="930.659" cy="85.1816" r="4" fill="#0" id="circle109"/>
	<circle cx="948.479" cy="17.8603" r="4" fill="#0" id="circle110"/>
	<circle cx="950.459" cy="89.1417" r="4" fill="#0" id="circle111"/>
	<circle cx="964.319" cy="4" r="4" fill="#0" id="circle112"/>
	<circle cx="968.279" cy="77.2615" r="4" fill="#0" id="circle113"/>
	<circle cx="980.16" cy="59.4411" r="4" fill="#0" id="circle114"/>
	<circle cx="984.12" cy="4" r="4" fill="#0" id="circle115"/>
	<circle cx="990.06" cy="39.6407" r="4" fill="#0" id="circle116"/>
	<circle cx="996" cy="19.8403" r="4" fill="#0" id="circle117"/>
	</g>
</svg>