<?xml version="1.0" encoding="UTF-8" standalone="no"?>
<!-- Created with CurveBenchmark -->
<svg
	xmlns:dc="http://purl.org/dc/elements/1.1/"
	xmlns:cc="http://creativecommons.org/ns#"
	xmlns:rdf="http://www.w3.org/1999/02/22-rdf-syntax-ns#"
	xmlns:svg="http://www.w3.org/2000/svg"
	xmlns="http://www.w3.org/2000/svg"
	xmlns:sodipodi="http://sodipodi.sourceforge.net/DTD/sodipodi-0.dtd"
	xmlns:inkscape="http://www.inkscape.org/namespaces/inkscape"
	width="1000"
	height="1000"
	id="svg2"
	version="1.1"
	sodipodi:docname="manifold/peel-textbox12.png.txt">
<defs
	id="defs4" />
<metadata
	id="metadata7">
	<rdf:RDF>
		<cc:Work
			rdf:about="">
			<dc:format>image/svg+xml</dc:format>
			<dc:type
				rdf:resource="http://purl.org/dc/dcmitype/StillImage" />
			<dc:title></dc:title>
		</cc:Work>
	</rdf:RDF>
</metadata>
<g
	inkscape:label="Layer 1"
	inkscape:groupmode="layer"
	id="layer1">
	<path style="fill:none;stroke:red;stroke-width:1px;stroke-linecap:butt;stroke-linejoin:miter;stroke-opacity:1" d="M 12.9209,250.216 4,268.058 z" id="boundary" inkscape:connector-curvature="0" />
	<path style="fill:none;stroke:red;stroke-width:1px;stroke-linecap:butt;stroke-linejoin:miter;stroke-opacity:1" d="M 4,268.058 4,285.899 z" id="boundary" inkscape:connector-curvature="0" />
	<path style="fill:none;stroke:red;stroke-width:1px;stroke-linecap:butt;stroke-linejoin:miter;stroke-opacity:1" d="M 12.9209,250.216 12.9209,232.374 z" id="boundary" inkscape:connector-curvature="0" />
	<path style="fill:none;stroke:red;stroke-width:1px;stroke-linecap:butt;stroke-linejoin:miter;stroke-opacity:1" d="M 12.9209,319.799 4,303.741 z" id="boundary" inkscape:connector-curvature="0" />
	<path style="fill:none;stroke:red;stroke-width:1px;stroke-linecap:butt;stroke-linejoin:miter;stroke-opacity:1" d="M 4,303.741 4,285.899 z" id="boundary" inkscape:connector-curvature="0" />
	<path style="fill:none;stroke:red;stroke-width:1px;stroke-linecap:butt;stroke-linejoin:miter;stroke-opacity:1" d="M 12.9209,232.374 30.7626,223.453 z" id="boundary" inkscape:connector-curvature="0" />
	<path style="fill:none;stroke:red;stroke-width:1px;stroke-linecap:butt;stroke-linejoin:miter;stroke-opacity:1" d="M 30.7626,223.453 30.7626,205.612 z" id="boundary" inkscape:connector-curvature="0" />
	<path style="fill:none;stroke:red;stroke-width:1px;stroke-linecap:butt;stroke-linejoin:miter;stroke-opacity:1" d="M 12.9209,337.64 12.9209,319.799 z" id="boundary" inkscape:connector-curvature="0" />
	<path style="fill:none;stroke:red;stroke-width:1px;stroke-linecap:butt;stroke-linejoin:miter;stroke-opacity:1" d="M 21.8417,353.698 12.9209,337.64 z" id="boundary" inkscape:connector-curvature="0" />
	<path style="fill:none;stroke:red;stroke-width:1px;stroke-linecap:butt;stroke-linejoin:miter;stroke-opacity:1" d="M 30.7626,205.612 39.6835,178.849 z" id="boundary" inkscape:connector-curvature="0" />
	<path style="fill:none;stroke:red;stroke-width:1px;stroke-linecap:butt;stroke-linejoin:miter;stroke-opacity:1" d="M 30.7626,369.755 21.8417,353.698 z" id="boundary" inkscape:connector-curvature="0" />
	<path style="fill:none;stroke:red;stroke-width:1px;stroke-linecap:butt;stroke-linejoin:miter;stroke-opacity:1" d="M 39.6835,178.849 57.5252,161.007 z" id="boundary" inkscape:connector-curvature="0" />
	<path style="fill:none;stroke:red;stroke-width:1px;stroke-linecap:butt;stroke-linejoin:miter;stroke-opacity:1" d="M 53.9568,398.302 39.6835,385.813 z" id="boundary" inkscape:connector-curvature="0" />
	<path style="fill:none;stroke:red;stroke-width:1px;stroke-linecap:butt;stroke-linejoin:miter;stroke-opacity:1" d="M 39.6835,385.813 30.7626,369.755 z" id="boundary" inkscape:connector-curvature="0" />
	<path style="fill:none;stroke:red;stroke-width:1px;stroke-linecap:butt;stroke-linejoin:miter;stroke-opacity:1" d="M 57.5252,161.007 71.7986,146.734 z" id="boundary" inkscape:connector-curvature="0" />
	<path style="fill:none;stroke:red;stroke-width:1px;stroke-linecap:butt;stroke-linejoin:miter;stroke-opacity:1" d="M 71.7986,146.734 89.6403,137.813 z" id="boundary" inkscape:connector-curvature="0" />
	<path style="fill:none;stroke:red;stroke-width:1px;stroke-linecap:butt;stroke-linejoin:miter;stroke-opacity:1" d="M 57.5252,416.144 53.9568,398.302 z" id="boundary" inkscape:connector-curvature="0" />
	<path style="fill:none;stroke:red;stroke-width:1px;stroke-linecap:butt;stroke-linejoin:miter;stroke-opacity:1" d="M 68.2302,430.417 57.5252,416.144 z" id="boundary" inkscape:connector-curvature="0" />
	<path style="fill:none;stroke:red;stroke-width:1px;stroke-linecap:butt;stroke-linejoin:miter;stroke-opacity:1" d="M 84.2878,439.338 68.2302,430.417 z" id="boundary" inkscape:connector-curvature="0" />
	<path style="fill:none;stroke:red;stroke-width:1px;stroke-linecap:butt;stroke-linejoin:miter;stroke-opacity:1" d="M 98.5612,451.827 84.2878,439.338 z" id="boundary" inkscape:connector-curvature="0" />
	<path style="fill:none;stroke:red;stroke-width:1px;stroke-linecap:butt;stroke-linejoin:miter;stroke-opacity:1" d="M 98.5612,119.971 89.6403,137.813 z" id="boundary" inkscape:connector-curvature="0" />
	<path style="fill:none;stroke:red;stroke-width:1px;stroke-linecap:butt;stroke-linejoin:miter;stroke-opacity:1" d="M 98.5612,119.971 116.403,111.05 z" id="boundary" inkscape:connector-curvature="0" />
	<path style="fill:none;stroke:red;stroke-width:1px;stroke-linecap:butt;stroke-linejoin:miter;stroke-opacity:1" d="M 116.403,458.964 98.5612,451.827 z" id="boundary" inkscape:connector-curvature="0" />
	<path style="fill:none;stroke:red;stroke-width:1px;stroke-linecap:butt;stroke-linejoin:miter;stroke-opacity:1" d="M 125.324,93.2086 143.165,93.2086 z" id="boundary" inkscape:connector-curvature="0" />
	<path style="fill:none;stroke:red;stroke-width:1px;stroke-linecap:butt;stroke-linejoin:miter;stroke-opacity:1" d="M 125.324,93.2086 116.403,111.05 z" id="boundary" inkscape:connector-curvature="0" />
	<path style="fill:none;stroke:red;stroke-width:1px;stroke-linecap:butt;stroke-linejoin:miter;stroke-opacity:1" d="M 130.676,469.669 116.403,458.964 z" id="boundary" inkscape:connector-curvature="0" />
	<path style="fill:none;stroke:red;stroke-width:1px;stroke-linecap:butt;stroke-linejoin:miter;stroke-opacity:1" d="M 146.734,478.59 130.676,469.669 z" id="boundary" inkscape:connector-curvature="0" />
	<path style="fill:none;stroke:red;stroke-width:1px;stroke-linecap:butt;stroke-linejoin:miter;stroke-opacity:1" d="M 159.223,84.2878 143.165,93.2086 z" id="boundary" inkscape:connector-curvature="0" />
	<path style="fill:none;stroke:red;stroke-width:1px;stroke-linecap:butt;stroke-linejoin:miter;stroke-opacity:1" d="M 464.317,746.216 458.964,728.374 z" id="boundary" inkscape:connector-curvature="0" />
	<path style="fill:none;stroke:red;stroke-width:1px;stroke-linecap:butt;stroke-linejoin:miter;stroke-opacity:1" d="M 173.496,71.7986 191.338,66.446 z" id="boundary" inkscape:connector-curvature="0" />
	<path style="fill:none;stroke:red;stroke-width:1px;stroke-linecap:butt;stroke-linejoin:miter;stroke-opacity:1" d="M 173.496,71.7986 159.223,84.2878 z" id="boundary" inkscape:connector-curvature="0" />
	<path style="fill:none;stroke:red;stroke-width:1px;stroke-linecap:butt;stroke-linejoin:miter;stroke-opacity:1" d="M 458.964,710.532 458.964,728.374 z" id="boundary" inkscape:connector-curvature="0" />
	<path style="fill:none;stroke:red;stroke-width:1px;stroke-linecap:butt;stroke-linejoin:miter;stroke-opacity:1" d="M 162.791,487.511 146.734,478.59 z" id="boundary" inkscape:connector-curvature="0" />
	<path style="fill:none;stroke:red;stroke-width:1px;stroke-linecap:butt;stroke-linejoin:miter;stroke-opacity:1" d="M 191.338,66.446 209.18,62.8777 z" id="boundary" inkscape:connector-curvature="0" />
	<path style="fill:none;stroke:red;stroke-width:1px;stroke-linecap:butt;stroke-linejoin:miter;stroke-opacity:1" d="M 467.885,781.899 467.885,764.058 z" id="boundary" inkscape:connector-curvature="0" />
	<path style="fill:none;stroke:red;stroke-width:1px;stroke-linecap:butt;stroke-linejoin:miter;stroke-opacity:1" d="M 467.885,764.058 464.317,746.216 z" id="boundary" inkscape:connector-curvature="0" />
	<path style="fill:none;stroke:red;stroke-width:1px;stroke-linecap:butt;stroke-linejoin:miter;stroke-opacity:1" d="M 196.691,496.432 178.849,496.432 z" id="boundary" inkscape:connector-curvature="0" />
	<path style="fill:none;stroke:red;stroke-width:1px;stroke-linecap:butt;stroke-linejoin:miter;stroke-opacity:1" d="M 178.849,496.432 162.791,487.511 z" id="boundary" inkscape:connector-curvature="0" />
	<path style="fill:none;stroke:red;stroke-width:1px;stroke-linecap:butt;stroke-linejoin:miter;stroke-opacity:1" d="M 210.964,508.921 196.691,496.432 z" id="boundary" inkscape:connector-curvature="0" />
	<path style="fill:none;stroke:red;stroke-width:1px;stroke-linecap:butt;stroke-linejoin:miter;stroke-opacity:1" d="M 227.022,57.5252 244.863,57.5252 z" id="boundary" inkscape:connector-curvature="0" />
	<path style="fill:none;stroke:red;stroke-width:1px;stroke-linecap:butt;stroke-linejoin:miter;stroke-opacity:1" d="M 227.022,57.5252 209.18,62.8777 z" id="boundary" inkscape:connector-curvature="0" />
	<path style="fill:none;stroke:red;stroke-width:1px;stroke-linecap:butt;stroke-linejoin:miter;stroke-opacity:1" d="M 228.806,514.273 210.964,508.921 z" id="boundary" inkscape:connector-curvature="0" />
	<path style="fill:none;stroke:red;stroke-width:1px;stroke-linecap:butt;stroke-linejoin:miter;stroke-opacity:1" d="M 244.863,523.194 228.806,514.273 z" id="boundary" inkscape:connector-curvature="0" />
	<path style="fill:none;stroke:red;stroke-width:1px;stroke-linecap:butt;stroke-linejoin:miter;stroke-opacity:1" d="M 255.568,43.2518 273.41,39.6835 z" id="boundary" inkscape:connector-curvature="0" />
	<path style="fill:none;stroke:red;stroke-width:1px;stroke-linecap:butt;stroke-linejoin:miter;stroke-opacity:1" d="M 255.568,43.2518 244.863,57.5252 z" id="boundary" inkscape:connector-curvature="0" />
	<path style="fill:none;stroke:red;stroke-width:1px;stroke-linecap:butt;stroke-linejoin:miter;stroke-opacity:1" d="M 441.122,667.712 441.122,649.871 z" id="boundary" inkscape:connector-curvature="0" />
	<path style="fill:none;stroke:red;stroke-width:1px;stroke-linecap:butt;stroke-linejoin:miter;stroke-opacity:1" d="M 441.122,649.871 432.201,633.813 z" id="boundary" inkscape:connector-curvature="0" />
	<path style="fill:none;stroke:red;stroke-width:1px;stroke-linecap:butt;stroke-linejoin:miter;stroke-opacity:1" d="M 262.705,523.194 244.863,523.194 z" id="boundary" inkscape:connector-curvature="0" />
	<path style="fill:none;stroke:red;stroke-width:1px;stroke-linecap:butt;stroke-linejoin:miter;stroke-opacity:1" d="M 273.41,39.6835 291.252,34.3309 z" id="boundary" inkscape:connector-curvature="0" />
	<path style="fill:none;stroke:red;stroke-width:1px;stroke-linecap:butt;stroke-linejoin:miter;stroke-opacity:1" d="M 280.547,523.194 262.705,523.194 z" id="boundary" inkscape:connector-curvature="0" />
	<path style="fill:none;stroke:red;stroke-width:1px;stroke-linecap:butt;stroke-linejoin:miter;stroke-opacity:1" d="M 291.252,34.3309 309.094,30.7626 z" id="boundary" inkscape:connector-curvature="0" />
	<path style="fill:none;stroke:red;stroke-width:1px;stroke-linecap:butt;stroke-linejoin:miter;stroke-opacity:1" d="M 309.094,30.7626 326.935,30.7626 z" id="boundary" inkscape:connector-curvature="0" />
	<path style="fill:none;stroke:red;stroke-width:1px;stroke-linecap:butt;stroke-linejoin:miter;stroke-opacity:1" d="M 291.252,537.468 280.547,523.194 z" id="boundary" inkscape:connector-curvature="0" />
	<path style="fill:none;stroke:red;stroke-width:1px;stroke-linecap:butt;stroke-linejoin:miter;stroke-opacity:1" d="M 326.935,30.7626 344.777,30.7626 z" id="boundary" inkscape:connector-curvature="0" />
	<path style="fill:none;stroke:red;stroke-width:1px;stroke-linecap:butt;stroke-linejoin:miter;stroke-opacity:1" d="M 362.619,549.957 344.777,544.604 z" id="boundary" inkscape:connector-curvature="0" />
	<path style="fill:none;stroke:red;stroke-width:1px;stroke-linecap:butt;stroke-linejoin:miter;stroke-opacity:1" d="M 309.094,541.036 291.252,537.468 z" id="boundary" inkscape:connector-curvature="0" />
	<path style="fill:none;stroke:red;stroke-width:1px;stroke-linecap:butt;stroke-linejoin:miter;stroke-opacity:1" d="M 432.201,598.129 432.201,615.971 z" id="boundary" inkscape:connector-curvature="0" />
	<path style="fill:none;stroke:red;stroke-width:1px;stroke-linecap:butt;stroke-linejoin:miter;stroke-opacity:1" d="M 432.201,598.129 423.281,582.072 z" id="boundary" inkscape:connector-curvature="0" />
	<path style="fill:none;stroke:red;stroke-width:1px;stroke-linecap:butt;stroke-linejoin:miter;stroke-opacity:1" d="M 326.935,541.036 309.094,541.036 z" id="boundary" inkscape:connector-curvature="0" />
	<path style="fill:none;stroke:red;stroke-width:1px;stroke-linecap:butt;stroke-linejoin:miter;stroke-opacity:1" d="M 344.777,544.604 326.935,541.036 z" id="boundary" inkscape:connector-curvature="0" />
	<path style="fill:none;stroke:red;stroke-width:1px;stroke-linecap:butt;stroke-linejoin:miter;stroke-opacity:1" d="M 355.482,14.705 373.324,12.9209 z" id="boundary" inkscape:connector-curvature="0" />
	<path style="fill:none;stroke:red;stroke-width:1px;stroke-linecap:butt;stroke-linejoin:miter;stroke-opacity:1" d="M 355.482,14.705 344.777,30.7626 z" id="boundary" inkscape:connector-curvature="0" />
	<path style="fill:none;stroke:red;stroke-width:1px;stroke-linecap:butt;stroke-linejoin:miter;stroke-opacity:1" d="M 432.201,615.971 432.201,633.813 z" id="boundary" inkscape:connector-curvature="0" />
	<path style="fill:none;stroke:red;stroke-width:1px;stroke-linecap:butt;stroke-linejoin:miter;stroke-opacity:1" d="M 373.324,12.9209 391.165,12.9209 z" id="boundary" inkscape:connector-curvature="0" />
	<path style="fill:none;stroke:red;stroke-width:1px;stroke-linecap:butt;stroke-linejoin:miter;stroke-opacity:1" d="M 396.518,558.878 412.576,567.799 z" id="boundary" inkscape:connector-curvature="0" />
	<path style="fill:none;stroke:red;stroke-width:1px;stroke-linecap:butt;stroke-linejoin:miter;stroke-opacity:1" d="M 412.576,567.799 423.281,582.072 z" id="boundary" inkscape:connector-curvature="0" />
	<path style="fill:none;stroke:red;stroke-width:1px;stroke-linecap:butt;stroke-linejoin:miter;stroke-opacity:1" d="M 380.46,549.957 362.619,549.957 z" id="boundary" inkscape:connector-curvature="0" />
	<path style="fill:none;stroke:red;stroke-width:1px;stroke-linecap:butt;stroke-linejoin:miter;stroke-opacity:1" d="M 391.165,12.9209 409.007,12.9209 z" id="boundary" inkscape:connector-curvature="0" />
	<path style="fill:none;stroke:red;stroke-width:1px;stroke-linecap:butt;stroke-linejoin:miter;stroke-opacity:1" d="M 396.518,558.878 380.46,549.957 z" id="boundary" inkscape:connector-curvature="0" />
	<path style="fill:none;stroke:red;stroke-width:1px;stroke-linecap:butt;stroke-linejoin:miter;stroke-opacity:1" d="M 409.007,12.9209 426.849,12.9209 z" id="boundary" inkscape:connector-curvature="0" />
	<path style="fill:none;stroke:red;stroke-width:1px;stroke-linecap:butt;stroke-linejoin:miter;stroke-opacity:1" d="M 426.849,12.9209 444.691,12.9209 z" id="boundary" inkscape:connector-curvature="0" />
	<path style="fill:none;stroke:red;stroke-width:1px;stroke-linecap:butt;stroke-linejoin:miter;stroke-opacity:1" d="M 498.216,4 480.374,4 z" id="boundary" inkscape:connector-curvature="0" />
	<path style="fill:none;stroke:red;stroke-width:1px;stroke-linecap:butt;stroke-linejoin:miter;stroke-opacity:1" d="M 498.216,4 516.058,4 z" id="boundary" inkscape:connector-curvature="0" />
	<path style="fill:none;stroke:red;stroke-width:1px;stroke-linecap:butt;stroke-linejoin:miter;stroke-opacity:1" d="M 549.957,12.9209 533.899,4 z" id="boundary" inkscape:connector-curvature="0" />
	<path style="fill:none;stroke:red;stroke-width:1px;stroke-linecap:butt;stroke-linejoin:miter;stroke-opacity:1" d="M 533.899,4 516.058,4 z" id="boundary" inkscape:connector-curvature="0" />
	<path style="fill:none;stroke:red;stroke-width:1px;stroke-linecap:butt;stroke-linejoin:miter;stroke-opacity:1" d="M 480.374,4 462.532,5.78417 z" id="boundary" inkscape:connector-curvature="0" />
	<path style="fill:none;stroke:red;stroke-width:1px;stroke-linecap:butt;stroke-linejoin:miter;stroke-opacity:1" d="M 462.532,5.78417 444.691,12.9209 z" id="boundary" inkscape:connector-curvature="0" />
	<path style="fill:none;stroke:red;stroke-width:1px;stroke-linecap:butt;stroke-linejoin:miter;stroke-opacity:1" d="M 441.122,685.554 441.122,667.712 z" id="boundary" inkscape:connector-curvature="0" />
	<path style="fill:none;stroke:red;stroke-width:1px;stroke-linecap:butt;stroke-linejoin:miter;stroke-opacity:1" d="M 603.482,594.561 603.482,612.403 z" id="boundary" inkscape:connector-curvature="0" />
	<path style="fill:none;stroke:red;stroke-width:1px;stroke-linecap:butt;stroke-linejoin:miter;stroke-opacity:1" d="M 467.885,781.899 473.237,799.741 z" id="boundary" inkscape:connector-curvature="0" />
	<path style="fill:none;stroke:red;stroke-width:1px;stroke-linecap:butt;stroke-linejoin:miter;stroke-opacity:1" d="M 458.964,692.691 441.122,685.554 z" id="boundary" inkscape:connector-curvature="0" />
	<path style="fill:none;stroke:red;stroke-width:1px;stroke-linecap:butt;stroke-linejoin:miter;stroke-opacity:1" d="M 458.964,710.532 458.964,692.691 z" id="boundary" inkscape:connector-curvature="0" />
	<path style="fill:none;stroke:red;stroke-width:1px;stroke-linecap:butt;stroke-linejoin:miter;stroke-opacity:1" d="M 487.511,849.698 485.727,831.856 z" id="boundary" inkscape:connector-curvature="0" />
	<path style="fill:none;stroke:red;stroke-width:1px;stroke-linecap:butt;stroke-linejoin:miter;stroke-opacity:1" d="M 496.432,903.223 494.647,885.381 z" id="boundary" inkscape:connector-curvature="0" />
	<path style="fill:none;stroke:red;stroke-width:1px;stroke-linecap:butt;stroke-linejoin:miter;stroke-opacity:1" d="M 487.511,849.698 494.647,867.54 z" id="boundary" inkscape:connector-curvature="0" />
	<path style="fill:none;stroke:red;stroke-width:1px;stroke-linecap:butt;stroke-linejoin:miter;stroke-opacity:1" d="M 494.647,867.54 494.647,885.381 z" id="boundary" inkscape:connector-curvature="0" />
	<path style="fill:none;stroke:red;stroke-width:1px;stroke-linecap:butt;stroke-linejoin:miter;stroke-opacity:1" d="M 485.727,814.014 485.727,831.856 z" id="boundary" inkscape:connector-curvature="0" />
	<path style="fill:none;stroke:red;stroke-width:1px;stroke-linecap:butt;stroke-linejoin:miter;stroke-opacity:1" d="M 485.727,814.014 473.237,799.741 z" id="boundary" inkscape:connector-curvature="0" />
	<path style="fill:none;stroke:red;stroke-width:1px;stroke-linecap:butt;stroke-linejoin:miter;stroke-opacity:1" d="M 567.799,817.583 567.799,835.424 z" id="boundary" inkscape:connector-curvature="0" />
	<path style="fill:none;stroke:red;stroke-width:1px;stroke-linecap:butt;stroke-linejoin:miter;stroke-opacity:1" d="M 567.799,799.741 567.799,817.583 z" id="boundary" inkscape:connector-curvature="0" />
	<path style="fill:none;stroke:red;stroke-width:1px;stroke-linecap:butt;stroke-linejoin:miter;stroke-opacity:1" d="M 567.799,12.9209 549.957,12.9209 z" id="boundary" inkscape:connector-curvature="0" />
	<path style="fill:none;stroke:red;stroke-width:1px;stroke-linecap:butt;stroke-linejoin:miter;stroke-opacity:1" d="M 585.64,12.9209 567.799,12.9209 z" id="boundary" inkscape:connector-curvature="0" />
	<path style="fill:none;stroke:red;stroke-width:1px;stroke-linecap:butt;stroke-linejoin:miter;stroke-opacity:1" d="M 512.489,929.986 514.273,947.827 z" id="boundary" inkscape:connector-curvature="0" />
	<path style="fill:none;stroke:red;stroke-width:1px;stroke-linecap:butt;stroke-linejoin:miter;stroke-opacity:1" d="M 512.489,912.144 496.432,903.223 z" id="boundary" inkscape:connector-curvature="0" />
	<path style="fill:none;stroke:red;stroke-width:1px;stroke-linecap:butt;stroke-linejoin:miter;stroke-opacity:1" d="M 512.489,929.986 512.489,912.144 z" id="boundary" inkscape:connector-curvature="0" />
	<path style="fill:none;stroke:red;stroke-width:1px;stroke-linecap:butt;stroke-linejoin:miter;stroke-opacity:1" d="M 603.482,12.9209 585.64,12.9209 z" id="boundary" inkscape:connector-curvature="0" />
	<path style="fill:none;stroke:red;stroke-width:1px;stroke-linecap:butt;stroke-linejoin:miter;stroke-opacity:1" d="M 514.273,947.827 521.41,965.669 z" id="boundary" inkscape:connector-curvature="0" />
	<path style="fill:none;stroke:red;stroke-width:1px;stroke-linecap:butt;stroke-linejoin:miter;stroke-opacity:1" d="M 521.41,965.669 535.683,976.374 z" id="boundary" inkscape:connector-curvature="0" />
	<path style="fill:none;stroke:red;stroke-width:1px;stroke-linecap:butt;stroke-linejoin:miter;stroke-opacity:1" d="M 541.036,942.475 549.957,915.712 z" id="boundary" inkscape:connector-curvature="0" />
	<path style="fill:none;stroke:red;stroke-width:1px;stroke-linecap:butt;stroke-linejoin:miter;stroke-opacity:1" d="M 549.957,880.029 549.957,897.871 z" id="boundary" inkscape:connector-curvature="0" />
	<path style="fill:none;stroke:red;stroke-width:1px;stroke-linecap:butt;stroke-linejoin:miter;stroke-opacity:1" d="M 549.957,897.871 549.957,915.712 z" id="boundary" inkscape:connector-curvature="0" />
	<path style="fill:none;stroke:red;stroke-width:1px;stroke-linecap:butt;stroke-linejoin:miter;stroke-opacity:1" d="M 567.799,853.266 567.799,835.424 z" id="boundary" inkscape:connector-curvature="0" />
	<path style="fill:none;stroke:red;stroke-width:1px;stroke-linecap:butt;stroke-linejoin:miter;stroke-opacity:1" d="M 576.719,755.137 576.719,737.295 z" id="boundary" inkscape:connector-curvature="0" />
	<path style="fill:none;stroke:red;stroke-width:1px;stroke-linecap:butt;stroke-linejoin:miter;stroke-opacity:1" d="M 549.957,880.029 567.799,871.108 z" id="boundary" inkscape:connector-curvature="0" />
	<path style="fill:none;stroke:red;stroke-width:1px;stroke-linecap:butt;stroke-linejoin:miter;stroke-opacity:1" d="M 567.799,871.108 567.799,853.266 z" id="boundary" inkscape:connector-curvature="0" />
	<path style="fill:none;stroke:red;stroke-width:1px;stroke-linecap:butt;stroke-linejoin:miter;stroke-opacity:1" d="M 567.799,799.741 576.719,772.978 z" id="boundary" inkscape:connector-curvature="0" />
	<path style="fill:none;stroke:red;stroke-width:1px;stroke-linecap:butt;stroke-linejoin:miter;stroke-opacity:1" d="M 576.719,772.978 576.719,755.137 z" id="boundary" inkscape:connector-curvature="0" />
	<path style="fill:none;stroke:red;stroke-width:1px;stroke-linecap:butt;stroke-linejoin:miter;stroke-opacity:1" d="M 585.64,683.77 585.64,665.928 z" id="boundary" inkscape:connector-curvature="0" />
	<path style="fill:none;stroke:red;stroke-width:1px;stroke-linecap:butt;stroke-linejoin:miter;stroke-opacity:1" d="M 585.64,701.612 585.64,683.77 z" id="boundary" inkscape:connector-curvature="0" />
	<path style="fill:none;stroke:red;stroke-width:1px;stroke-linecap:butt;stroke-linejoin:miter;stroke-opacity:1" d="M 576.719,737.295 585.64,719.453 z" id="boundary" inkscape:connector-curvature="0" />
	<path style="fill:none;stroke:red;stroke-width:1px;stroke-linecap:butt;stroke-linejoin:miter;stroke-opacity:1" d="M 585.64,719.453 585.64,701.612 z" id="boundary" inkscape:connector-curvature="0" />
	<path style="fill:none;stroke:red;stroke-width:1px;stroke-linecap:butt;stroke-linejoin:miter;stroke-opacity:1" d="M 603.482,630.245 603.482,648.086 z" id="boundary" inkscape:connector-curvature="0" />
	<path style="fill:none;stroke:red;stroke-width:1px;stroke-linecap:butt;stroke-linejoin:miter;stroke-opacity:1" d="M 603.482,630.245 603.482,612.403 z" id="boundary" inkscape:connector-curvature="0" />
	<path style="fill:none;stroke:red;stroke-width:1px;stroke-linecap:butt;stroke-linejoin:miter;stroke-opacity:1" d="M 603.482,648.086 585.64,665.928 z" id="boundary" inkscape:connector-curvature="0" />
	<path style="fill:none;stroke:red;stroke-width:1px;stroke-linecap:butt;stroke-linejoin:miter;stroke-opacity:1" d="M 621.324,12.9209 639.165,12.9209 z" id="boundary" inkscape:connector-curvature="0" />
	<path style="fill:none;stroke:red;stroke-width:1px;stroke-linecap:butt;stroke-linejoin:miter;stroke-opacity:1" d="M 612.403,567.799 630.245,549.957 z" id="boundary" inkscape:connector-curvature="0" />
	<path style="fill:none;stroke:red;stroke-width:1px;stroke-linecap:butt;stroke-linejoin:miter;stroke-opacity:1" d="M 630.245,549.957 648.086,549.957 z" id="boundary" inkscape:connector-curvature="0" />
	<path style="fill:none;stroke:red;stroke-width:1px;stroke-linecap:butt;stroke-linejoin:miter;stroke-opacity:1" d="M 603.482,594.561 612.403,567.799 z" id="boundary" inkscape:connector-curvature="0" />
	<path style="fill:none;stroke:red;stroke-width:1px;stroke-linecap:butt;stroke-linejoin:miter;stroke-opacity:1" d="M 683.77,541.036 701.612,541.036 z" id="boundary" inkscape:connector-curvature="0" />
	<path style="fill:none;stroke:red;stroke-width:1px;stroke-linecap:butt;stroke-linejoin:miter;stroke-opacity:1" d="M 683.77,541.036 665.928,549.957 z" id="boundary" inkscape:connector-curvature="0" />
	<path style="fill:none;stroke:red;stroke-width:1px;stroke-linecap:butt;stroke-linejoin:miter;stroke-opacity:1" d="M 648.086,549.957 665.928,549.957 z" id="boundary" inkscape:connector-curvature="0" />
	<path style="fill:none;stroke:red;stroke-width:1px;stroke-linecap:butt;stroke-linejoin:miter;stroke-opacity:1" d="M 603.482,12.9209 621.324,12.9209 z" id="boundary" inkscape:connector-curvature="0" />
	<path style="fill:none;stroke:red;stroke-width:1px;stroke-linecap:butt;stroke-linejoin:miter;stroke-opacity:1" d="M 639.165,12.9209 657.007,18.2734 z" id="boundary" inkscape:connector-curvature="0" />
	<path style="fill:none;stroke:red;stroke-width:1px;stroke-linecap:butt;stroke-linejoin:miter;stroke-opacity:1" d="M 657.007,18.2734 671.281,30.7626 z" id="boundary" inkscape:connector-curvature="0" />
	<path style="fill:none;stroke:red;stroke-width:1px;stroke-linecap:butt;stroke-linejoin:miter;stroke-opacity:1" d="M 719.453,541.036 701.612,541.036 z" id="boundary" inkscape:connector-curvature="0" />
	<path style="fill:none;stroke:red;stroke-width:1px;stroke-linecap:butt;stroke-linejoin:miter;stroke-opacity:1" d="M 755.137,523.194 772.978,523.194 z" id="boundary" inkscape:connector-curvature="0" />
	<path style="fill:none;stroke:red;stroke-width:1px;stroke-linecap:butt;stroke-linejoin:miter;stroke-opacity:1" d="M 689.122,30.7626 671.281,30.7626 z" id="boundary" inkscape:connector-curvature="0" />
	<path style="fill:none;stroke:red;stroke-width:1px;stroke-linecap:butt;stroke-linejoin:miter;stroke-opacity:1" d="M 706.964,30.7626 723.022,39.6835 z" id="boundary" inkscape:connector-curvature="0" />
	<path style="fill:none;stroke:red;stroke-width:1px;stroke-linecap:butt;stroke-linejoin:miter;stroke-opacity:1" d="M 706.964,30.7626 689.122,30.7626 z" id="boundary" inkscape:connector-curvature="0" />
	<path style="fill:none;stroke:red;stroke-width:1px;stroke-linecap:butt;stroke-linejoin:miter;stroke-opacity:1" d="M 719.453,541.036 737.295,523.194 z" id="boundary" inkscape:connector-curvature="0" />
	<path style="fill:none;stroke:red;stroke-width:1px;stroke-linecap:butt;stroke-linejoin:miter;stroke-opacity:1" d="M 737.295,523.194 755.137,523.194 z" id="boundary" inkscape:connector-curvature="0" />
	<path style="fill:none;stroke:red;stroke-width:1px;stroke-linecap:butt;stroke-linejoin:miter;stroke-opacity:1" d="M 740.863,39.6835 755.137,50.3885 z" id="boundary" inkscape:connector-curvature="0" />
	<path style="fill:none;stroke:red;stroke-width:1px;stroke-linecap:butt;stroke-linejoin:miter;stroke-opacity:1" d="M 740.863,39.6835 723.022,39.6835 z" id="boundary" inkscape:connector-curvature="0" />
	<path style="fill:none;stroke:red;stroke-width:1px;stroke-linecap:butt;stroke-linejoin:miter;stroke-opacity:1" d="M 772.978,57.5252 789.036,66.446 z" id="boundary" inkscape:connector-curvature="0" />
	<path style="fill:none;stroke:red;stroke-width:1px;stroke-linecap:butt;stroke-linejoin:miter;stroke-opacity:1" d="M 772.978,57.5252 755.137,50.3885 z" id="boundary" inkscape:connector-curvature="0" />
	<path style="fill:none;stroke:red;stroke-width:1px;stroke-linecap:butt;stroke-linejoin:miter;stroke-opacity:1" d="M 772.978,523.194 789.036,514.273 z" id="boundary" inkscape:connector-curvature="0" />
	<path style="fill:none;stroke:red;stroke-width:1px;stroke-linecap:butt;stroke-linejoin:miter;stroke-opacity:1" d="M 789.036,514.273 806.878,508.921 z" id="boundary" inkscape:connector-curvature="0" />
	<path style="fill:none;stroke:red;stroke-width:1px;stroke-linecap:butt;stroke-linejoin:miter;stroke-opacity:1" d="M 806.878,66.446 824.719,70.0144 z" id="boundary" inkscape:connector-curvature="0" />
	<path style="fill:none;stroke:red;stroke-width:1px;stroke-linecap:butt;stroke-linejoin:miter;stroke-opacity:1" d="M 824.719,70.0144 835.424,84.2878 z" id="boundary" inkscape:connector-curvature="0" />
	<path style="fill:none;stroke:red;stroke-width:1px;stroke-linecap:butt;stroke-linejoin:miter;stroke-opacity:1" d="M 855.05,487.511 837.209,487.511 z" id="boundary" inkscape:connector-curvature="0" />
	<path style="fill:none;stroke:red;stroke-width:1px;stroke-linecap:butt;stroke-linejoin:miter;stroke-opacity:1" d="M 837.209,487.511 821.151,496.432 z" id="boundary" inkscape:connector-curvature="0" />
	<path style="fill:none;stroke:red;stroke-width:1px;stroke-linecap:butt;stroke-linejoin:miter;stroke-opacity:1" d="M 789.036,66.446 806.878,66.446 z" id="boundary" inkscape:connector-curvature="0" />
	<path style="fill:none;stroke:red;stroke-width:1px;stroke-linecap:butt;stroke-linejoin:miter;stroke-opacity:1" d="M 821.151,496.432 806.878,508.921 z" id="boundary" inkscape:connector-curvature="0" />
	<path style="fill:none;stroke:red;stroke-width:1px;stroke-linecap:butt;stroke-linejoin:miter;stroke-opacity:1" d="M 853.266,89.6403 835.424,84.2878 z" id="boundary" inkscape:connector-curvature="0" />
	<path style="fill:none;stroke:red;stroke-width:1px;stroke-linecap:butt;stroke-linejoin:miter;stroke-opacity:1" d="M 862.187,469.669 855.05,487.511 z" id="boundary" inkscape:connector-curvature="0" />
	<path style="fill:none;stroke:red;stroke-width:1px;stroke-linecap:butt;stroke-linejoin:miter;stroke-opacity:1" d="M 871.108,93.2086 880.029,109.266 z" id="boundary" inkscape:connector-curvature="0" />
	<path style="fill:none;stroke:red;stroke-width:1px;stroke-linecap:butt;stroke-linejoin:miter;stroke-opacity:1" d="M 871.108,93.2086 853.266,89.6403 z" id="boundary" inkscape:connector-curvature="0" />
	<path style="fill:none;stroke:red;stroke-width:1px;stroke-linecap:butt;stroke-linejoin:miter;stroke-opacity:1" d="M 880.029,469.669 862.187,469.669 z" id="boundary" inkscape:connector-curvature="0" />
	<path style="fill:none;stroke:red;stroke-width:1px;stroke-linecap:butt;stroke-linejoin:miter;stroke-opacity:1" d="M 894.302,457.18 880.029,469.669 z" id="boundary" inkscape:connector-curvature="0" />
	<path style="fill:none;stroke:red;stroke-width:1px;stroke-linecap:butt;stroke-linejoin:miter;stroke-opacity:1" d="M 894.302,457.18 912.144,448.259 z" id="boundary" inkscape:connector-curvature="0" />
	<path style="fill:none;stroke:red;stroke-width:1px;stroke-linecap:butt;stroke-linejoin:miter;stroke-opacity:1" d="M 897.871,116.403 913.928,125.324 z" id="boundary" inkscape:connector-curvature="0" />
	<path style="fill:none;stroke:red;stroke-width:1px;stroke-linecap:butt;stroke-linejoin:miter;stroke-opacity:1" d="M 913.928,125.324 922.849,141.381 z" id="boundary" inkscape:connector-curvature="0" />
	<path style="fill:none;stroke:red;stroke-width:1px;stroke-linecap:butt;stroke-linejoin:miter;stroke-opacity:1" d="M 880.029,109.266 897.871,116.403 z" id="boundary" inkscape:connector-curvature="0" />
	<path style="fill:none;stroke:red;stroke-width:1px;stroke-linecap:butt;stroke-linejoin:miter;stroke-opacity:1" d="M 921.065,430.417 912.144,448.259 z" id="boundary" inkscape:connector-curvature="0" />
	<path style="fill:none;stroke:red;stroke-width:1px;stroke-linecap:butt;stroke-linejoin:miter;stroke-opacity:1" d="M 922.849,141.381 933.554,155.655 z" id="boundary" inkscape:connector-curvature="0" />
	<path style="fill:none;stroke:red;stroke-width:1px;stroke-linecap:butt;stroke-linejoin:miter;stroke-opacity:1" d="M 924.633,407.223 921.065,430.417 z" id="boundary" inkscape:connector-curvature="0" />
	<path style="fill:none;stroke:red;stroke-width:1px;stroke-linecap:butt;stroke-linejoin:miter;stroke-opacity:1" d="M 933.554,155.655 942.475,171.712 z" id="boundary" inkscape:connector-curvature="0" />
	<path style="fill:none;stroke:red;stroke-width:1px;stroke-linecap:butt;stroke-linejoin:miter;stroke-opacity:1" d="M 942.475,398.302 924.633,407.223 z" id="boundary" inkscape:connector-curvature="0" />
	<path style="fill:none;stroke:red;stroke-width:1px;stroke-linecap:butt;stroke-linejoin:miter;stroke-opacity:1" d="M 942.475,171.712 951.396,187.77 z" id="boundary" inkscape:connector-curvature="0" />
	<path style="fill:none;stroke:red;stroke-width:1px;stroke-linecap:butt;stroke-linejoin:miter;stroke-opacity:1" d="M 951.396,380.46 942.475,398.302 z" id="boundary" inkscape:connector-curvature="0" />
	<path style="fill:none;stroke:red;stroke-width:1px;stroke-linecap:butt;stroke-linejoin:miter;stroke-opacity:1" d="M 963.885,202.043 969.237,219.885 z" id="boundary" inkscape:connector-curvature="0" />
	<path style="fill:none;stroke:red;stroke-width:1px;stroke-linecap:butt;stroke-linejoin:miter;stroke-opacity:1" d="M 963.885,202.043 951.396,187.77 z" id="boundary" inkscape:connector-curvature="0" />
	<path style="fill:none;stroke:red;stroke-width:1px;stroke-linecap:butt;stroke-linejoin:miter;stroke-opacity:1" d="M 969.237,353.698 969.237,371.54 z" id="boundary" inkscape:connector-curvature="0" />
	<path style="fill:none;stroke:red;stroke-width:1px;stroke-linecap:butt;stroke-linejoin:miter;stroke-opacity:1" d="M 969.237,371.54 951.396,380.46 z" id="boundary" inkscape:connector-curvature="0" />
	<path style="fill:none;stroke:red;stroke-width:1px;stroke-linecap:butt;stroke-linejoin:miter;stroke-opacity:1" d="M 969.237,219.885 978.158,235.942 z" id="boundary" inkscape:connector-curvature="0" />
	<path style="fill:none;stroke:red;stroke-width:1px;stroke-linecap:butt;stroke-linejoin:miter;stroke-opacity:1" d="M 978.158,235.942 978.158,253.784 z" id="boundary" inkscape:connector-curvature="0" />
	<path style="fill:none;stroke:red;stroke-width:1px;stroke-linecap:butt;stroke-linejoin:miter;stroke-opacity:1" d="M 978.158,318.014 978.158,335.856 z" id="boundary" inkscape:connector-curvature="0" />
	<path style="fill:none;stroke:red;stroke-width:1px;stroke-linecap:butt;stroke-linejoin:miter;stroke-opacity:1" d="M 978.158,335.856 969.237,353.698 z" id="boundary" inkscape:connector-curvature="0" />
	<path style="fill:none;stroke:red;stroke-width:1px;stroke-linecap:butt;stroke-linejoin:miter;stroke-opacity:1" d="M 978.158,253.784 992.432,264.489 z" id="boundary" inkscape:connector-curvature="0" />
	<path style="fill:none;stroke:red;stroke-width:1px;stroke-linecap:butt;stroke-linejoin:miter;stroke-opacity:1" d="M 978.158,318.014 996,300.173 z" id="boundary" inkscape:connector-curvature="0" />
	<path style="fill:none;stroke:red;stroke-width:1px;stroke-linecap:butt;stroke-linejoin:miter;stroke-opacity:1" d="M 992.432,264.489 996,282.331 z" id="boundary" inkscape:connector-curvature="0" />
	<path style="fill:none;stroke:red;stroke-width:1px;stroke-linecap:butt;stroke-linejoin:miter;stroke-opacity:1" d="M 996,282.331 996,300.173 z" id="boundary" inkscape:connector-curvature="0" />
	<circle cx="4" cy="268.058" r="4" fill="#0" id="circle0"/>
	<circle cx="4" cy="285.899" r="4" fill="#0" id="circle1"/>
	<circle cx="4" cy="303.741" r="4" fill="#0" id="circle2"/>
	<circle cx="12.9209" cy="232.374" r="4" fill="#0" id="circle3"/>
	<circle cx="12.9209" cy="250.216" r="4" fill="#0" id="circle4"/>
	<circle cx="12.9209" cy="319.799" r="4" fill="#0" id="circle5"/>
	<circle cx="12.9209" cy="337.64" r="4" fill="#0" id="circle6"/>
	<circle cx="21.8417" cy="353.698" r="4" fill="#0" id="circle7"/>
	<circle cx="30.7626" cy="205.612" r="4" fill="#0" id="circle8"/>
	<circle cx="30.7626" cy="223.453" r="4" fill="#0" id="circle9"/>
	<circle cx="30.7626" cy="369.755" r="4" fill="#0" id="circle10"/>
	<circle cx="39.6835" cy="178.849" r="4" fill="#0" id="circle11"/>
	<circle cx="39.6835" cy="385.813" r="4" fill="#0" id="circle12"/>
	<circle cx="53.9568" cy="398.302" r="4" fill="#0" id="circle13"/>
	<circle cx="57.5252" cy="161.007" r="4" fill="#0" id="circle14"/>
	<circle cx="57.5252" cy="416.144" r="4" fill="#0" id="circle15"/>
	<circle cx="68.2302" cy="430.417" r="4" fill="#0" id="circle16"/>
	<circle cx="71.7986" cy="146.734" r="4" fill="#0" id="circle17"/>
	<circle cx="84.2878" cy="439.338" r="4" fill="#0" id="circle18"/>
	<circle cx="89.6403" cy="137.813" r="4" fill="#0" id="circle19"/>
	<circle cx="98.5612" cy="119.971" r="4" fill="#0" id="circle20"/>
	<circle cx="98.5612" cy="451.827" r="4" fill="#0" id="circle21"/>
	<circle cx="116.403" cy="111.05" r="4" fill="#0" id="circle22"/>
	<circle cx="116.403" cy="458.964" r="4" fill="#0" id="circle23"/>
	<circle cx="125.324" cy="93.2086" r="4" fill="#0" id="circle24"/>
	<circle cx="130.676" cy="469.669" r="4" fill="#0" id="circle25"/>
	<circle cx="143.165" cy="93.2086" r="4" fill="#0" id="circle26"/>
	<circle cx="146.734" cy="478.59" r="4" fill="#0" id="circle27"/>
	<circle cx="159.223" cy="84.2878" r="4" fill="#0" id="circle28"/>
	<circle cx="162.791" cy="487.511" r="4" fill="#0" id="circle29"/>
	<circle cx="173.496" cy="71.7986" r="4" fill="#0" id="circle30"/>
	<circle cx="178.849" cy="496.432" r="4" fill="#0" id="circle31"/>
	<circle cx="191.338" cy="66.446" r="4" fill="#0" id="circle32"/>
	<circle cx="196.691" cy="496.432" r="4" fill="#0" id="circle33"/>
	<circle cx="209.18" cy="62.8777" r="4" fill="#0" id="circle34"/>
	<circle cx="210.964" cy="508.921" r="4" fill="#0" id="circle35"/>
	<circle cx="227.022" cy="57.5252" r="4" fill="#0" id="circle36"/>
	<circle cx="228.806" cy="514.273" r="4" fill="#0" id="circle37"/>
	<circle cx="244.863" cy="57.5252" r="4" fill="#0" id="circle38"/>
	<circle cx="244.863" cy="523.194" r="4" fill="#0" id="circle39"/>
	<circle cx="255.568" cy="43.2518" r="4" fill="#0" id="circle40"/>
	<circle cx="262.705" cy="523.194" r="4" fill="#0" id="circle41"/>
	<circle cx="273.41" cy="39.6835" r="4" fill="#0" id="circle42"/>
	<circle cx="280.547" cy="523.194" r="4" fill="#0" id="circle43"/>
	<circle cx="291.252" cy="34.3309" r="4" fill="#0" id="circle44"/>
	<circle cx="291.252" cy="537.468" r="4" fill="#0" id="circle45"/>
	<circle cx="309.094" cy="30.7626" r="4" fill="#0" id="circle46"/>
	<circle cx="309.094" cy="541.036" r="4" fill="#0" id="circle47"/>
	<circle cx="326.935" cy="30.7626" r="4" fill="#0" id="circle48"/>
	<circle cx="326.935" cy="541.036" r="4" fill="#0" id="circle49"/>
	<circle cx="344.777" cy="30.7626" r="4" fill="#0" id="circle50"/>
	<circle cx="344.777" cy="544.604" r="4" fill="#0" id="circle51"/>
	<circle cx="355.482" cy="14.705" r="4" fill="#0" id="circle52"/>
	<circle cx="362.619" cy="549.957" r="4" fill="#0" id="circle53"/>
	<circle cx="373.324" cy="12.9209" r="4" fill="#0" id="circle54"/>
	<circle cx="380.46" cy="549.957" r="4" fill="#0" id="circle55"/>
	<circle cx="391.165" cy="12.9209" r="4" fill="#0" id="circle56"/>
	<circle cx="396.518" cy="558.878" r="4" fill="#0" id="circle57"/>
	<circle cx="409.007" cy="12.9209" r="4" fill="#0" id="circle58"/>
	<circle cx="412.576" cy="567.799" r="4" fill="#0" id="circle59"/>
	<circle cx="423.281" cy="582.072" r="4" fill="#0" id="circle60"/>
	<circle cx="426.849" cy="12.9209" r="4" fill="#0" id="circle61"/>
	<circle cx="432.201" cy="598.129" r="4" fill="#0" id="circle62"/>
	<circle cx="432.201" cy="615.971" r="4" fill="#0" id="circle63"/>
	<circle cx="432.201" cy="633.813" r="4" fill="#0" id="circle64"/>
	<circle cx="441.122" cy="649.871" r="4" fill="#0" id="circle65"/>
	<circle cx="441.122" cy="667.712" r="4" fill="#0" id="circle66"/>
	<circle cx="441.122" cy="685.554" r="4" fill="#0" id="circle67"/>
	<circle cx="444.691" cy="12.9209" r="4" fill="#0" id="circle68"/>
	<circle cx="458.964" cy="692.691" r="4" fill="#0" id="circle69"/>
	<circle cx="458.964" cy="710.532" r="4" fill="#0" id="circle70"/>
	<circle cx="458.964" cy="728.374" r="4" fill="#0" id="circle71"/>
	<circle cx="462.532" cy="5.78417" r="4" fill="#0" id="circle72"/>
	<circle cx="464.317" cy="746.216" r="4" fill="#0" id="circle73"/>
	<circle cx="467.885" cy="764.058" r="4" fill="#0" id="circle74"/>
	<circle cx="467.885" cy="781.899" r="4" fill="#0" id="circle75"/>
	<circle cx="473.237" cy="799.741" r="4" fill="#0" id="circle76"/>
	<circle cx="480.374" cy="4" r="4" fill="#0" id="circle77"/>
	<circle cx="485.727" cy="814.014" r="4" fill="#0" id="circle78"/>
	<circle cx="485.727" cy="831.856" r="4" fill="#0" id="circle79"/>
	<circle cx="487.511" cy="849.698" r="4" fill="#0" id="circle80"/>
	<circle cx="494.647" cy="867.54" r="4" fill="#0" id="circle81"/>
	<circle cx="494.647" cy="885.381" r="4" fill="#0" id="circle82"/>
	<circle cx="496.432" cy="903.223" r="4" fill="#0" id="circle83"/>
	<circle cx="498.216" cy="4" r="4" fill="#0" id="circle84"/>
	<circle cx="512.489" cy="912.144" r="4" fill="#0" id="circle85"/>
	<circle cx="512.489" cy="929.986" r="4" fill="#0" id="circle86"/>
	<circle cx="514.273" cy="947.827" r="4" fill="#0" id="circle87"/>
	<circle cx="516.058" cy="4" r="4" fill="#0" id="circle88"/>
	<circle cx="521.41" cy="965.669" r="4" fill="#0" id="circle89"/>
	<circle cx="533.899" cy="4" r="4" fill="#0" id="circle90"/>
	<circle cx="535.683" cy="976.374" r="4" fill="#0" id="circle91"/>
	<circle cx="541.036" cy="942.475" r="4" fill="#0" id="circle92"/>
	<circle cx="549.957" cy="12.9209" r="4" fill="#0" id="circle93"/>
	<circle cx="549.957" cy="880.029" r="4" fill="#0" id="circle94"/>
	<circle cx="549.957" cy="897.871" r="4" fill="#0" id="circle95"/>
	<circle cx="549.957" cy="915.712" r="4" fill="#0" id="circle96"/>
	<circle cx="567.799" cy="12.9209" r="4" fill="#0" id="circle97"/>
	<circle cx="567.799" cy="799.741" r="4" fill="#0" id="circle98"/>
	<circle cx="567.799" cy="817.583" r="4" fill="#0" id="circle99"/>
	<circle cx="567.799" cy="835.424" r="4" fill="#0" id="circle100"/>
	<circle cx="567.799" cy="853.266" r="4" fill="#0" id="circle101"/>
	<circle cx="567.799" cy="871.108" r="4" fill="#0" id="circle102"/>
	<circle cx="576.719" cy="737.295" r="4" fill="#0" id="circle103"/>
	<circle cx="576.719" cy="755.137" r="4" fill="#0" id="circle104"/>
	<circle cx="576.719" cy="772.978" r="4" fill="#0" id="circle105"/>
	<circle cx="585.64" cy="12.9209" r="4" fill="#0" id="circle106"/>
	<circle cx="585.64" cy="665.928" r="4" fill="#0" id="circle107"/>
	<circle cx="585.64" cy="683.77" r="4" fill="#0" id="circle108"/>
	<circle cx="585.64" cy="701.612" r="4" fill="#0" id="circle109"/>
	<circle cx="585.64" cy="719.453" r="4" fill="#0" id="circle110"/>
	<circle cx="603.482" cy="12.9209" r="4" fill="#0" id="circle111"/>
	<circle cx="603.482" cy="594.561" r="4" fill="#0" id="circle112"/>
	<circle cx="603.482" cy="612.403" r="4" fill="#0" id="circle113"/>
	<circle cx="603.482" cy="630.245" r="4" fill="#0" id="circle114"/>
	<circle cx="603.482" cy="648.086" r="4" fill="#0" id="circle115"/>
	<circle cx="612.403" cy="567.799" r="4" fill="#0" id="circle116"/>
	<circle cx="621.324" cy="12.9209" r="4" fill="#0" id="circle117"/>
	<circle cx="630.245" cy="549.957" r="4" fill="#0" id="circle118"/>
	<circle cx="639.165" cy="12.9209" r="4" fill="#0" id="circle119"/>
	<circle cx="648.086" cy="549.957" r="4" fill="#0" id="circle120"/>
	<circle cx="657.007" cy="18.2734" r="4" fill="#0" id="circle121"/>
	<circle cx="665.928" cy="549.957" r="4" fill="#0" id="circle122"/>
	<circle cx="671.281" cy="30.7626" r="4" fill="#0" id="circle123"/>
	<circle cx="683.77" cy="541.036" r="4" fill="#0" id="circle124"/>
	<circle cx="689.122" cy="30.7626" r="4" fill="#0" id="circle125"/>
	<circle cx="701.612" cy="541.036" r="4" fill="#0" id="circle126"/>
	<circle cx="706.964" cy="30.7626" r="4" fill="#0" id="circle127"/>
	<circle cx="719.453" cy="541.036" r="4" fill="#0" id="circle128"/>
	<circle cx="723.022" cy="39.6835" r="4" fill="#0" id="circle129"/>
	<circle cx="737.295" cy="523.194" r="4" fill="#0" id="circle130"/>
	<circle cx="740.863" cy="39.6835" r="4" fill="#0" id="circle131"/>
	<circle cx="755.137" cy="50.3885" r="4" fill="#0" id="circle132"/>
	<circle cx="755.137" cy="523.194" r="4" fill="#0" id="circle133"/>
	<circle cx="772.978" cy="57.5252" r="4" fill="#0" id="circle134"/>
	<circle cx="772.978" cy="523.194" r="4" fill="#0" id="circle135"/>
	<circle cx="789.036" cy="66.446" r="4" fill="#0" id="circle136"/>
	<circle cx="789.036" cy="514.273" r="4" fill="#0" id="circle137"/>
	<circle cx="806.878" cy="66.446" r="4" fill="#0" id="circle138"/>
	<circle cx="806.878" cy="508.921" r="4" fill="#0" id="circle139"/>
	<circle cx="821.151" cy="496.432" r="4" fill="#0" id="circle140"/>
	<circle cx="824.719" cy="70.0144" r="4" fill="#0" id="circle141"/>
	<circle cx="835.424" cy="84.2878" r="4" fill="#0" id="circle142"/>
	<circle cx="837.209" cy="487.511" r="4" fill="#0" id="circle143"/>
	<circle cx="853.266" cy="89.6403" r="4" fill="#0" id="circle144"/>
	<circle cx="855.05" cy="487.511" r="4" fill="#0" id="circle145"/>
	<circle cx="862.187" cy="469.669" r="4" fill="#0" id="circle146"/>
	<circle cx="871.108" cy="93.2086" r="4" fill="#0" id="circle147"/>
	<circle cx="880.029" cy="109.266" r="4" fill="#0" id="circle148"/>
	<circle cx="880.029" cy="469.669" r="4" fill="#0" id="circle149"/>
	<circle cx="894.302" cy="457.18" r="4" fill="#0" id="circle150"/>
	<circle cx="897.871" cy="116.403" r="4" fill="#0" id="circle151"/>
	<circle cx="912.144" cy="448.259" r="4" fill="#0" id="circle152"/>
	<circle cx="913.928" cy="125.324" r="4" fill="#0" id="circle153"/>
	<circle cx="921.065" cy="430.417" r="4" fill="#0" id="circle154"/>
	<circle cx="922.849" cy="141.381" r="4" fill="#0" id="circle155"/>
	<circle cx="924.633" cy="407.223" r="4" fill="#0" id="circle156"/>
	<circle cx="933.554" cy="155.655" r="4" fill="#0" id="circle157"/>
	<circle cx="942.475" cy="171.712" r="4" fill="#0" id="circle158"/>
	<circle cx="942.475" cy="398.302" r="4" fill="#0" id="circle159"/>
	<circle cx="951.396" cy="187.77" r="4" fill="#0" id="circle160"/>
	<circle cx="951.396" cy="380.46" r="4" fill="#0" id="circle161"/>
	<circle cx="963.885" cy="202.043" r="4" fill="#0" id="circle162"/>
	<circle cx="969.237" cy="219.885" r="4" fill="#0" id="circle163"/>
	<circle cx="969.237" cy="353.698" r="4" fill="#0" id="circle164"/>
	<circle cx="969.237" cy="371.54" r="4" fill="#0" id="circle165"/>
	<circle cx="978.158" cy="235.942" r="4" fill="#0" id="circle166"/>
	<circle cx="978.158" cy="253.784" r="4" fill="#0" id="circle167"/>
	<circle cx="978.158" cy="318.014" r="4" fill="#0" id="circle168"/>
	<circle cx="978.158" cy="335.856" r="4" fill="#0" id="circle169"/>
	<circle cx="992.432" cy="264.489" r="4" fill="#0" id="circle170"/>
	<circle cx="996" cy="282.331" r="4" fill="#0" id="circle171"/>
	<circle cx="996" cy="300.173" r="4" fill="#0" id="circle172"/>
	</g>
</svg>