<?xml version="1.0" encoding="UTF-8" standalone="no"?>
<!-- Created with CurveBenchmark -->
<svg
	xmlns:dc="http://purl.org/dc/elements/1.1/"
	xmlns:cc="http://creativecommons.org/ns#"
	xmlns:rdf="http://www.w3.org/1999/02/22-rdf-syntax-ns#"
	xmlns:svg="http://www.w3.org/2000/svg"
	xmlns="http://www.w3.org/2000/svg"
	xmlns:sodipodi="http://sodipodi.sourceforge.net/DTD/sodipodi-0.dtd"
	xmlns:inkscape="http://www.inkscape.org/namespaces/inkscape"
	width="1000"
	height="1000"
	id="svg2"
	version="1.1"
	sodipodi:docname="manifold/peel-spoon-11.png.txt">
<defs
	id="defs4" />
<metadata
	id="metadata7">
	<rdf:RDF>
		<cc:Work
			rdf:about="">
			<dc:format>image/svg+xml</dc:format>
			<dc:type
				rdf:resource="http://purl.org/dc/dcmitype/StillImage" />
			<dc:title></dc:title>
		</cc:Work>
	</rdf:RDF>
</metadata>
<g
	inkscape:label="Layer 1"
	inkscape:groupmode="layer"
	id="layer1">
	<path style="fill:none;stroke:red;stroke-width:1px;stroke-linecap:butt;stroke-linejoin:miter;stroke-opacity:1" d="M 14.6053,52.9474 8.07895,59.4737 z" id="boundary" inkscape:connector-curvature="0" />
	<path style="fill:none;stroke:red;stroke-width:1px;stroke-linecap:butt;stroke-linejoin:miter;stroke-opacity:1" d="M 4,75.7895 4,67.6316 z" id="boundary" inkscape:connector-curvature="0" />
	<path style="fill:none;stroke:red;stroke-width:1px;stroke-linecap:butt;stroke-linejoin:miter;stroke-opacity:1" d="M 4,67.6316 8.07895,59.4737 z" id="boundary" inkscape:connector-curvature="0" />
	<path style="fill:none;stroke:red;stroke-width:1px;stroke-linecap:butt;stroke-linejoin:miter;stroke-opacity:1" d="M 8.07895,99.4474 4,92.1053 z" id="boundary" inkscape:connector-curvature="0" />
	<path style="fill:none;stroke:red;stroke-width:1px;stroke-linecap:butt;stroke-linejoin:miter;stroke-opacity:1" d="M 4,92.1053 4,83.9474 z" id="boundary" inkscape:connector-curvature="0" />
	<path style="fill:none;stroke:red;stroke-width:1px;stroke-linecap:butt;stroke-linejoin:miter;stroke-opacity:1" d="M 13.7895,105.974 8.07895,99.4474 z" id="boundary" inkscape:connector-curvature="0" />
	<path style="fill:none;stroke:red;stroke-width:1px;stroke-linecap:butt;stroke-linejoin:miter;stroke-opacity:1" d="M 4,75.7895 4,83.9474 z" id="boundary" inkscape:connector-curvature="0" />
	<path style="fill:none;stroke:red;stroke-width:1px;stroke-linecap:butt;stroke-linejoin:miter;stroke-opacity:1" d="M 20.3158,110.868 13.7895,105.974 z" id="boundary" inkscape:connector-curvature="0" />
	<path style="fill:none;stroke:red;stroke-width:1px;stroke-linecap:butt;stroke-linejoin:miter;stroke-opacity:1" d="M 21.1316,46.4211 29.2895,42.3421 z" id="boundary" inkscape:connector-curvature="0" />
	<path style="fill:none;stroke:red;stroke-width:1px;stroke-linecap:butt;stroke-linejoin:miter;stroke-opacity:1" d="M 21.1316,46.4211 14.6053,52.9474 z" id="boundary" inkscape:connector-curvature="0" />
	<path style="fill:none;stroke:red;stroke-width:1px;stroke-linecap:butt;stroke-linejoin:miter;stroke-opacity:1" d="M 25.2105,117.395 20.3158,110.868 z" id="boundary" inkscape:connector-curvature="0" />
	<path style="fill:none;stroke:red;stroke-width:1px;stroke-linecap:butt;stroke-linejoin:miter;stroke-opacity:1" d="M 29.2895,42.3421 37.4474,40.7105 z" id="boundary" inkscape:connector-curvature="0" />
	<path style="fill:none;stroke:red;stroke-width:1px;stroke-linecap:butt;stroke-linejoin:miter;stroke-opacity:1" d="M 37.4474,40.7105 45.6053,40.7105 z" id="boundary" inkscape:connector-curvature="0" />
	<path style="fill:none;stroke:red;stroke-width:1px;stroke-linecap:butt;stroke-linejoin:miter;stroke-opacity:1" d="M 25.2105,117.395 31.7368,123.105 z" id="boundary" inkscape:connector-curvature="0" />
	<path style="fill:none;stroke:red;stroke-width:1px;stroke-linecap:butt;stroke-linejoin:miter;stroke-opacity:1" d="M 45.6053,40.7105 53.7632,40.7105 z" id="boundary" inkscape:connector-curvature="0" />
	<path style="fill:none;stroke:red;stroke-width:1px;stroke-linecap:butt;stroke-linejoin:miter;stroke-opacity:1" d="M 53.7632,40.7105 61.1053,44.7895 z" id="boundary" inkscape:connector-curvature="0" />
	<path style="fill:none;stroke:red;stroke-width:1px;stroke-linecap:butt;stroke-linejoin:miter;stroke-opacity:1" d="M 61.1053,44.7895 67.6316,49.6842 z" id="boundary" inkscape:connector-curvature="0" />
	<path style="fill:none;stroke:red;stroke-width:1px;stroke-linecap:butt;stroke-linejoin:miter;stroke-opacity:1" d="M 54.5789,131.263 46.4211,131.263 z" id="boundary" inkscape:connector-curvature="0" />
	<path style="fill:none;stroke:red;stroke-width:1px;stroke-linecap:butt;stroke-linejoin:miter;stroke-opacity:1" d="M 46.4211,131.263 39.0789,127.184 z" id="boundary" inkscape:connector-curvature="0" />
	<path style="fill:none;stroke:red;stroke-width:1px;stroke-linecap:butt;stroke-linejoin:miter;stroke-opacity:1" d="M 74.1579,55.3947 67.6316,49.6842 z" id="boundary" inkscape:connector-curvature="0" />
	<path style="fill:none;stroke:red;stroke-width:1px;stroke-linecap:butt;stroke-linejoin:miter;stroke-opacity:1" d="M 61.9211,135.342 54.5789,131.263 z" id="boundary" inkscape:connector-curvature="0" />
	<path style="fill:none;stroke:red;stroke-width:1px;stroke-linecap:butt;stroke-linejoin:miter;stroke-opacity:1" d="M 592.184,83.1316 585.658,89.6579 z" id="boundary" inkscape:connector-curvature="0" />
	<path style="fill:none;stroke:red;stroke-width:1px;stroke-linecap:butt;stroke-linejoin:miter;stroke-opacity:1" d="M 31.7368,123.105 39.0789,127.184 z" id="boundary" inkscape:connector-curvature="0" />
	<path style="fill:none;stroke:red;stroke-width:1px;stroke-linecap:butt;stroke-linejoin:miter;stroke-opacity:1" d="M 70.0789,135.342 61.9211,135.342 z" id="boundary" inkscape:connector-curvature="0" />
	<path style="fill:none;stroke:red;stroke-width:1px;stroke-linecap:butt;stroke-linejoin:miter;stroke-opacity:1" d="M 74.1579,55.3947 82.3158,57.0263 z" id="boundary" inkscape:connector-curvature="0" />
	<path style="fill:none;stroke:red;stroke-width:1px;stroke-linecap:butt;stroke-linejoin:miter;stroke-opacity:1" d="M 82.3158,57.0263 89.6579,61.1053 z" id="boundary" inkscape:connector-curvature="0" />
	<path style="fill:none;stroke:red;stroke-width:1px;stroke-linecap:butt;stroke-linejoin:miter;stroke-opacity:1" d="M 77.4211,139.421 70.0789,135.342 z" id="boundary" inkscape:connector-curvature="0" />
	<path style="fill:none;stroke:red;stroke-width:1px;stroke-linecap:butt;stroke-linejoin:miter;stroke-opacity:1" d="M 85.5789,139.421 77.4211,139.421 z" id="boundary" inkscape:connector-curvature="0" />
	<path style="fill:none;stroke:red;stroke-width:1px;stroke-linecap:butt;stroke-linejoin:miter;stroke-opacity:1" d="M 97.8158,61.1053 105.158,65.1842 z" id="boundary" inkscape:connector-curvature="0" />
	<path style="fill:none;stroke:red;stroke-width:1px;stroke-linecap:butt;stroke-linejoin:miter;stroke-opacity:1" d="M 97.8158,61.1053 89.6579,61.1053 z" id="boundary" inkscape:connector-curvature="0" />
	<path style="fill:none;stroke:red;stroke-width:1px;stroke-linecap:butt;stroke-linejoin:miter;stroke-opacity:1" d="M 101.079,143.5 93.7368,139.421 z" id="boundary" inkscape:connector-curvature="0" />
	<path style="fill:none;stroke:red;stroke-width:1px;stroke-linecap:butt;stroke-linejoin:miter;stroke-opacity:1" d="M 93.7368,139.421 85.5789,139.421 z" id="boundary" inkscape:connector-curvature="0" />
	<path style="fill:none;stroke:red;stroke-width:1px;stroke-linecap:butt;stroke-linejoin:miter;stroke-opacity:1" d="M 105.158,65.1842 113.316,65.1842 z" id="boundary" inkscape:connector-curvature="0" />
	<path style="fill:none;stroke:red;stroke-width:1px;stroke-linecap:butt;stroke-linejoin:miter;stroke-opacity:1" d="M 109.237,143.5 101.079,143.5 z" id="boundary" inkscape:connector-curvature="0" />
	<path style="fill:none;stroke:red;stroke-width:1px;stroke-linecap:butt;stroke-linejoin:miter;stroke-opacity:1" d="M 116.579,147.579 109.237,143.5 z" id="boundary" inkscape:connector-curvature="0" />
	<path style="fill:none;stroke:red;stroke-width:1px;stroke-linecap:butt;stroke-linejoin:miter;stroke-opacity:1" d="M 113.316,65.1842 121.474,66 z" id="boundary" inkscape:connector-curvature="0" />
	<path style="fill:none;stroke:red;stroke-width:1px;stroke-linecap:butt;stroke-linejoin:miter;stroke-opacity:1" d="M 121.474,66 129.632,69.2632 z" id="boundary" inkscape:connector-curvature="0" />
	<path style="fill:none;stroke:red;stroke-width:1px;stroke-linecap:butt;stroke-linejoin:miter;stroke-opacity:1" d="M 124.737,147.579 116.579,147.579 z" id="boundary" inkscape:connector-curvature="0" />
	<path style="fill:none;stroke:red;stroke-width:1px;stroke-linecap:butt;stroke-linejoin:miter;stroke-opacity:1" d="M 132.895,150.842 124.737,147.579 z" id="boundary" inkscape:connector-curvature="0" />
	<path style="fill:none;stroke:red;stroke-width:1px;stroke-linecap:butt;stroke-linejoin:miter;stroke-opacity:1" d="M 137.789,70.0789 145.947,73.3421 z" id="boundary" inkscape:connector-curvature="0" />
	<path style="fill:none;stroke:red;stroke-width:1px;stroke-linecap:butt;stroke-linejoin:miter;stroke-opacity:1" d="M 137.789,70.0789 129.632,69.2632 z" id="boundary" inkscape:connector-curvature="0" />
	<path style="fill:none;stroke:red;stroke-width:1px;stroke-linecap:butt;stroke-linejoin:miter;stroke-opacity:1" d="M 141.053,151.658 132.895,150.842 z" id="boundary" inkscape:connector-curvature="0" />
	<path style="fill:none;stroke:red;stroke-width:1px;stroke-linecap:butt;stroke-linejoin:miter;stroke-opacity:1" d="M 149.211,154.921 141.053,151.658 z" id="boundary" inkscape:connector-curvature="0" />
	<path style="fill:none;stroke:red;stroke-width:1px;stroke-linecap:butt;stroke-linejoin:miter;stroke-opacity:1" d="M 154.105,73.3421 161.447,77.4211 z" id="boundary" inkscape:connector-curvature="0" />
	<path style="fill:none;stroke:red;stroke-width:1px;stroke-linecap:butt;stroke-linejoin:miter;stroke-opacity:1" d="M 154.105,73.3421 145.947,73.3421 z" id="boundary" inkscape:connector-curvature="0" />
	<path style="fill:none;stroke:red;stroke-width:1px;stroke-linecap:butt;stroke-linejoin:miter;stroke-opacity:1" d="M 157.368,155.737 149.211,154.921 z" id="boundary" inkscape:connector-curvature="0" />
	<path style="fill:none;stroke:red;stroke-width:1px;stroke-linecap:butt;stroke-linejoin:miter;stroke-opacity:1" d="M 169.605,77.4211 176.947,81.5 z" id="boundary" inkscape:connector-curvature="0" />
	<path style="fill:none;stroke:red;stroke-width:1px;stroke-linecap:butt;stroke-linejoin:miter;stroke-opacity:1" d="M 169.605,77.4211 161.447,77.4211 z" id="boundary" inkscape:connector-curvature="0" />
	<path style="fill:none;stroke:red;stroke-width:1px;stroke-linecap:butt;stroke-linejoin:miter;stroke-opacity:1" d="M 172.868,159.816 165.526,155.737 z" id="boundary" inkscape:connector-curvature="0" />
	<path style="fill:none;stroke:red;stroke-width:1px;stroke-linecap:butt;stroke-linejoin:miter;stroke-opacity:1" d="M 165.526,155.737 157.368,155.737 z" id="boundary" inkscape:connector-curvature="0" />
	<path style="fill:none;stroke:red;stroke-width:1px;stroke-linecap:butt;stroke-linejoin:miter;stroke-opacity:1" d="M 176.947,81.5 185.105,81.5 z" id="boundary" inkscape:connector-curvature="0" />
	<path style="fill:none;stroke:red;stroke-width:1px;stroke-linecap:butt;stroke-linejoin:miter;stroke-opacity:1" d="M 181.026,159.816 172.868,159.816 z" id="boundary" inkscape:connector-curvature="0" />
	<path style="fill:none;stroke:red;stroke-width:1px;stroke-linecap:butt;stroke-linejoin:miter;stroke-opacity:1" d="M 189.184,162.263 181.026,159.816 z" id="boundary" inkscape:connector-curvature="0" />
	<path style="fill:none;stroke:red;stroke-width:1px;stroke-linecap:butt;stroke-linejoin:miter;stroke-opacity:1" d="M 185.105,81.5 193.263,81.5 z" id="boundary" inkscape:connector-curvature="0" />
	<path style="fill:none;stroke:red;stroke-width:1px;stroke-linecap:butt;stroke-linejoin:miter;stroke-opacity:1" d="M 193.263,81.5 200.605,85.5789 z" id="boundary" inkscape:connector-curvature="0" />
	<path style="fill:none;stroke:red;stroke-width:1px;stroke-linecap:butt;stroke-linejoin:miter;stroke-opacity:1" d="M 197.342,163.895 205.5,166.342 z" id="boundary" inkscape:connector-curvature="0" />
	<path style="fill:none;stroke:red;stroke-width:1px;stroke-linecap:butt;stroke-linejoin:miter;stroke-opacity:1" d="M 197.342,163.895 189.184,162.263 z" id="boundary" inkscape:connector-curvature="0" />
	<path style="fill:none;stroke:red;stroke-width:1px;stroke-linecap:butt;stroke-linejoin:miter;stroke-opacity:1" d="M 208.763,85.5789 216.921,88.0263 z" id="boundary" inkscape:connector-curvature="0" />
	<path style="fill:none;stroke:red;stroke-width:1px;stroke-linecap:butt;stroke-linejoin:miter;stroke-opacity:1" d="M 208.763,85.5789 200.605,85.5789 z" id="boundary" inkscape:connector-curvature="0" />
	<path style="fill:none;stroke:red;stroke-width:1px;stroke-linecap:butt;stroke-linejoin:miter;stroke-opacity:1" d="M 216.921,88.0263 225.079,89.6579 z" id="boundary" inkscape:connector-curvature="0" />
	<path style="fill:none;stroke:red;stroke-width:1px;stroke-linecap:butt;stroke-linejoin:miter;stroke-opacity:1" d="M 205.5,166.342 213.658,167.974 z" id="boundary" inkscape:connector-curvature="0" />
	<path style="fill:none;stroke:red;stroke-width:1px;stroke-linecap:butt;stroke-linejoin:miter;stroke-opacity:1" d="M 221.816,167.974 213.658,167.974 z" id="boundary" inkscape:connector-curvature="0" />
	<path style="fill:none;stroke:red;stroke-width:1px;stroke-linecap:butt;stroke-linejoin:miter;stroke-opacity:1" d="M 229.974,167.974 221.816,167.974 z" id="boundary" inkscape:connector-curvature="0" />
	<path style="fill:none;stroke:red;stroke-width:1px;stroke-linecap:butt;stroke-linejoin:miter;stroke-opacity:1" d="M 233.237,89.6579 225.079,89.6579 z" id="boundary" inkscape:connector-curvature="0" />
	<path style="fill:none;stroke:red;stroke-width:1px;stroke-linecap:butt;stroke-linejoin:miter;stroke-opacity:1" d="M 238.132,167.974 229.974,167.974 z" id="boundary" inkscape:connector-curvature="0" />
	<path style="fill:none;stroke:red;stroke-width:1px;stroke-linecap:butt;stroke-linejoin:miter;stroke-opacity:1" d="M 241.395,89.6579 233.237,89.6579 z" id="boundary" inkscape:connector-curvature="0" />
	<path style="fill:none;stroke:red;stroke-width:1px;stroke-linecap:butt;stroke-linejoin:miter;stroke-opacity:1" d="M 241.395,89.6579 249.553,89.6579 z" id="boundary" inkscape:connector-curvature="0" />
	<path style="fill:none;stroke:red;stroke-width:1px;stroke-linecap:butt;stroke-linejoin:miter;stroke-opacity:1" d="M 249.553,89.6579 256.895,93.7368 z" id="boundary" inkscape:connector-curvature="0" />
	<path style="fill:none;stroke:red;stroke-width:1px;stroke-linecap:butt;stroke-linejoin:miter;stroke-opacity:1" d="M 238.132,167.974 245.474,172.053 z" id="boundary" inkscape:connector-curvature="0" />
	<path style="fill:none;stroke:red;stroke-width:1px;stroke-linecap:butt;stroke-linejoin:miter;stroke-opacity:1" d="M 253.632,172.053 245.474,172.053 z" id="boundary" inkscape:connector-curvature="0" />
	<path style="fill:none;stroke:red;stroke-width:1px;stroke-linecap:butt;stroke-linejoin:miter;stroke-opacity:1" d="M 261.789,172.053 253.632,172.053 z" id="boundary" inkscape:connector-curvature="0" />
	<path style="fill:none;stroke:red;stroke-width:1px;stroke-linecap:butt;stroke-linejoin:miter;stroke-opacity:1" d="M 265.053,93.7368 256.895,93.7368 z" id="boundary" inkscape:connector-curvature="0" />
	<path style="fill:none;stroke:red;stroke-width:1px;stroke-linecap:butt;stroke-linejoin:miter;stroke-opacity:1" d="M 269.947,172.053 261.789,172.053 z" id="boundary" inkscape:connector-curvature="0" />
	<path style="fill:none;stroke:red;stroke-width:1px;stroke-linecap:butt;stroke-linejoin:miter;stroke-opacity:1" d="M 273.211,93.7368 265.053,93.7368 z" id="boundary" inkscape:connector-curvature="0" />
	<path style="fill:none;stroke:red;stroke-width:1px;stroke-linecap:butt;stroke-linejoin:miter;stroke-opacity:1" d="M 278.105,172.053 285.447,176.132 z" id="boundary" inkscape:connector-curvature="0" />
	<path style="fill:none;stroke:red;stroke-width:1px;stroke-linecap:butt;stroke-linejoin:miter;stroke-opacity:1" d="M 278.105,172.053 269.947,172.053 z" id="boundary" inkscape:connector-curvature="0" />
	<path style="fill:none;stroke:red;stroke-width:1px;stroke-linecap:butt;stroke-linejoin:miter;stroke-opacity:1" d="M 281.368,93.7368 273.211,93.7368 z" id="boundary" inkscape:connector-curvature="0" />
	<path style="fill:none;stroke:red;stroke-width:1px;stroke-linecap:butt;stroke-linejoin:miter;stroke-opacity:1" d="M 281.368,93.7368 289.526,95.3684 z" id="boundary" inkscape:connector-curvature="0" />
	<path style="fill:none;stroke:red;stroke-width:1px;stroke-linecap:butt;stroke-linejoin:miter;stroke-opacity:1" d="M 289.526,95.3684 297.684,97.8158 z" id="boundary" inkscape:connector-curvature="0" />
	<path style="fill:none;stroke:red;stroke-width:1px;stroke-linecap:butt;stroke-linejoin:miter;stroke-opacity:1" d="M 293.605,176.132 285.447,176.132 z" id="boundary" inkscape:connector-curvature="0" />
	<path style="fill:none;stroke:red;stroke-width:1px;stroke-linecap:butt;stroke-linejoin:miter;stroke-opacity:1" d="M 301.763,176.132 293.605,176.132 z" id="boundary" inkscape:connector-curvature="0" />
	<path style="fill:none;stroke:red;stroke-width:1px;stroke-linecap:butt;stroke-linejoin:miter;stroke-opacity:1" d="M 305.842,97.8158 297.684,97.8158 z" id="boundary" inkscape:connector-curvature="0" />
	<path style="fill:none;stroke:red;stroke-width:1px;stroke-linecap:butt;stroke-linejoin:miter;stroke-opacity:1" d="M 309.921,176.132 301.763,176.132 z" id="boundary" inkscape:connector-curvature="0" />
	<path style="fill:none;stroke:red;stroke-width:1px;stroke-linecap:butt;stroke-linejoin:miter;stroke-opacity:1" d="M 314,97.8158 305.842,97.8158 z" id="boundary" inkscape:connector-curvature="0" />
	<path style="fill:none;stroke:red;stroke-width:1px;stroke-linecap:butt;stroke-linejoin:miter;stroke-opacity:1" d="M 318.079,176.132 325.421,180.211 z" id="boundary" inkscape:connector-curvature="0" />
	<path style="fill:none;stroke:red;stroke-width:1px;stroke-linecap:butt;stroke-linejoin:miter;stroke-opacity:1" d="M 318.079,176.132 309.921,176.132 z" id="boundary" inkscape:connector-curvature="0" />
	<path style="fill:none;stroke:red;stroke-width:1px;stroke-linecap:butt;stroke-linejoin:miter;stroke-opacity:1" d="M 322.158,97.8158 314,97.8158 z" id="boundary" inkscape:connector-curvature="0" />
	<path style="fill:none;stroke:red;stroke-width:1px;stroke-linecap:butt;stroke-linejoin:miter;stroke-opacity:1" d="M 322.158,97.8158 330.316,99.4474 z" id="boundary" inkscape:connector-curvature="0" />
	<path style="fill:none;stroke:red;stroke-width:1px;stroke-linecap:butt;stroke-linejoin:miter;stroke-opacity:1" d="M 330.316,99.4474 338.474,101.895 z" id="boundary" inkscape:connector-curvature="0" />
	<path style="fill:none;stroke:red;stroke-width:1px;stroke-linecap:butt;stroke-linejoin:miter;stroke-opacity:1" d="M 333.579,180.211 325.421,180.211 z" id="boundary" inkscape:connector-curvature="0" />
	<path style="fill:none;stroke:red;stroke-width:1px;stroke-linecap:butt;stroke-linejoin:miter;stroke-opacity:1" d="M 341.737,180.211 333.579,180.211 z" id="boundary" inkscape:connector-curvature="0" />
	<path style="fill:none;stroke:red;stroke-width:1px;stroke-linecap:butt;stroke-linejoin:miter;stroke-opacity:1" d="M 346.632,101.895 338.474,101.895 z" id="boundary" inkscape:connector-curvature="0" />
	<path style="fill:none;stroke:red;stroke-width:1px;stroke-linecap:butt;stroke-linejoin:miter;stroke-opacity:1" d="M 349.895,180.211 341.737,180.211 z" id="boundary" inkscape:connector-curvature="0" />
	<path style="fill:none;stroke:red;stroke-width:1px;stroke-linecap:butt;stroke-linejoin:miter;stroke-opacity:1" d="M 354.789,101.895 346.632,101.895 z" id="boundary" inkscape:connector-curvature="0" />
	<path style="fill:none;stroke:red;stroke-width:1px;stroke-linecap:butt;stroke-linejoin:miter;stroke-opacity:1" d="M 354.789,101.895 362.947,101.895 z" id="boundary" inkscape:connector-curvature="0" />
	<path style="fill:none;stroke:red;stroke-width:1px;stroke-linecap:butt;stroke-linejoin:miter;stroke-opacity:1" d="M 362.947,101.895 370.289,105.974 z" id="boundary" inkscape:connector-curvature="0" />
	<path style="fill:none;stroke:red;stroke-width:1px;stroke-linecap:butt;stroke-linejoin:miter;stroke-opacity:1" d="M 349.895,180.211 357.237,184.289 z" id="boundary" inkscape:connector-curvature="0" />
	<path style="fill:none;stroke:red;stroke-width:1px;stroke-linecap:butt;stroke-linejoin:miter;stroke-opacity:1" d="M 365.395,184.289 357.237,184.289 z" id="boundary" inkscape:connector-curvature="0" />
	<path style="fill:none;stroke:red;stroke-width:1px;stroke-linecap:butt;stroke-linejoin:miter;stroke-opacity:1" d="M 373.553,184.289 381.711,184.289 z" id="boundary" inkscape:connector-curvature="0" />
	<path style="fill:none;stroke:red;stroke-width:1px;stroke-linecap:butt;stroke-linejoin:miter;stroke-opacity:1" d="M 373.553,184.289 365.395,184.289 z" id="boundary" inkscape:connector-curvature="0" />
	<path style="fill:none;stroke:red;stroke-width:1px;stroke-linecap:butt;stroke-linejoin:miter;stroke-opacity:1" d="M 378.447,105.974 370.289,105.974 z" id="boundary" inkscape:connector-curvature="0" />
	<path style="fill:none;stroke:red;stroke-width:1px;stroke-linecap:butt;stroke-linejoin:miter;stroke-opacity:1" d="M 381.711,184.289 389.868,184.289 z" id="boundary" inkscape:connector-curvature="0" />
	<path style="fill:none;stroke:red;stroke-width:1px;stroke-linecap:butt;stroke-linejoin:miter;stroke-opacity:1" d="M 386.605,105.974 378.447,105.974 z" id="boundary" inkscape:connector-curvature="0" />
	<path style="fill:none;stroke:red;stroke-width:1px;stroke-linecap:butt;stroke-linejoin:miter;stroke-opacity:1" d="M 389.868,184.289 398.026,184.289 z" id="boundary" inkscape:connector-curvature="0" />
	<path style="fill:none;stroke:red;stroke-width:1px;stroke-linecap:butt;stroke-linejoin:miter;stroke-opacity:1" d="M 394.763,105.974 386.605,105.974 z" id="boundary" inkscape:connector-curvature="0" />
	<path style="fill:none;stroke:red;stroke-width:1px;stroke-linecap:butt;stroke-linejoin:miter;stroke-opacity:1" d="M 398.026,184.289 406.184,184.289 z" id="boundary" inkscape:connector-curvature="0" />
	<path style="fill:none;stroke:red;stroke-width:1px;stroke-linecap:butt;stroke-linejoin:miter;stroke-opacity:1" d="M 402.921,105.974 394.763,105.974 z" id="boundary" inkscape:connector-curvature="0" />
	<path style="fill:none;stroke:red;stroke-width:1px;stroke-linecap:butt;stroke-linejoin:miter;stroke-opacity:1" d="M 406.184,184.289 414.342,184.289 z" id="boundary" inkscape:connector-curvature="0" />
	<path style="fill:none;stroke:red;stroke-width:1px;stroke-linecap:butt;stroke-linejoin:miter;stroke-opacity:1" d="M 411.079,105.974 402.921,105.974 z" id="boundary" inkscape:connector-curvature="0" />
	<path style="fill:none;stroke:red;stroke-width:1px;stroke-linecap:butt;stroke-linejoin:miter;stroke-opacity:1" d="M 414.342,184.289 422.5,184.289 z" id="boundary" inkscape:connector-curvature="0" />
	<path style="fill:none;stroke:red;stroke-width:1px;stroke-linecap:butt;stroke-linejoin:miter;stroke-opacity:1" d="M 419.237,105.974 411.079,105.974 z" id="boundary" inkscape:connector-curvature="0" />
	<path style="fill:none;stroke:red;stroke-width:1px;stroke-linecap:butt;stroke-linejoin:miter;stroke-opacity:1" d="M 422.5,184.289 430.658,184.289 z" id="boundary" inkscape:connector-curvature="0" />
	<path style="fill:none;stroke:red;stroke-width:1px;stroke-linecap:butt;stroke-linejoin:miter;stroke-opacity:1" d="M 427.395,105.974 419.237,105.974 z" id="boundary" inkscape:connector-curvature="0" />
	<path style="fill:none;stroke:red;stroke-width:1px;stroke-linecap:butt;stroke-linejoin:miter;stroke-opacity:1" d="M 430.658,184.289 438.816,184.289 z" id="boundary" inkscape:connector-curvature="0" />
	<path style="fill:none;stroke:red;stroke-width:1px;stroke-linecap:butt;stroke-linejoin:miter;stroke-opacity:1" d="M 435.553,105.974 427.395,105.974 z" id="boundary" inkscape:connector-curvature="0" />
	<path style="fill:none;stroke:red;stroke-width:1px;stroke-linecap:butt;stroke-linejoin:miter;stroke-opacity:1" d="M 438.816,184.289 446.974,184.289 z" id="boundary" inkscape:connector-curvature="0" />
	<path style="fill:none;stroke:red;stroke-width:1px;stroke-linecap:butt;stroke-linejoin:miter;stroke-opacity:1" d="M 443.711,105.974 435.553,105.974 z" id="boundary" inkscape:connector-curvature="0" />
	<path style="fill:none;stroke:red;stroke-width:1px;stroke-linecap:butt;stroke-linejoin:miter;stroke-opacity:1" d="M 446.974,184.289 455.132,184.289 z" id="boundary" inkscape:connector-curvature="0" />
	<path style="fill:none;stroke:red;stroke-width:1px;stroke-linecap:butt;stroke-linejoin:miter;stroke-opacity:1" d="M 451.868,105.974 443.711,105.974 z" id="boundary" inkscape:connector-curvature="0" />
	<path style="fill:none;stroke:red;stroke-width:1px;stroke-linecap:butt;stroke-linejoin:miter;stroke-opacity:1" d="M 455.132,184.289 463.289,184.289 z" id="boundary" inkscape:connector-curvature="0" />
	<path style="fill:none;stroke:red;stroke-width:1px;stroke-linecap:butt;stroke-linejoin:miter;stroke-opacity:1" d="M 460.026,105.974 451.868,105.974 z" id="boundary" inkscape:connector-curvature="0" />
	<path style="fill:none;stroke:red;stroke-width:1px;stroke-linecap:butt;stroke-linejoin:miter;stroke-opacity:1" d="M 463.289,184.289 471.447,184.289 z" id="boundary" inkscape:connector-curvature="0" />
	<path style="fill:none;stroke:red;stroke-width:1px;stroke-linecap:butt;stroke-linejoin:miter;stroke-opacity:1" d="M 468.184,105.974 460.026,105.974 z" id="boundary" inkscape:connector-curvature="0" />
	<path style="fill:none;stroke:red;stroke-width:1px;stroke-linecap:butt;stroke-linejoin:miter;stroke-opacity:1" d="M 471.447,184.289 479.605,184.289 z" id="boundary" inkscape:connector-curvature="0" />
	<path style="fill:none;stroke:red;stroke-width:1px;stroke-linecap:butt;stroke-linejoin:miter;stroke-opacity:1" d="M 476.342,105.974 468.184,105.974 z" id="boundary" inkscape:connector-curvature="0" />
	<path style="fill:none;stroke:red;stroke-width:1px;stroke-linecap:butt;stroke-linejoin:miter;stroke-opacity:1" d="M 479.605,184.289 487.763,184.289 z" id="boundary" inkscape:connector-curvature="0" />
	<path style="fill:none;stroke:red;stroke-width:1px;stroke-linecap:butt;stroke-linejoin:miter;stroke-opacity:1" d="M 484.5,105.974 476.342,105.974 z" id="boundary" inkscape:connector-curvature="0" />
	<path style="fill:none;stroke:red;stroke-width:1px;stroke-linecap:butt;stroke-linejoin:miter;stroke-opacity:1" d="M 487.763,184.289 495.921,184.289 z" id="boundary" inkscape:connector-curvature="0" />
	<path style="fill:none;stroke:red;stroke-width:1px;stroke-linecap:butt;stroke-linejoin:miter;stroke-opacity:1" d="M 492.658,105.974 484.5,105.974 z" id="boundary" inkscape:connector-curvature="0" />
	<path style="fill:none;stroke:red;stroke-width:1px;stroke-linecap:butt;stroke-linejoin:miter;stroke-opacity:1" d="M 495.921,184.289 504.079,184.289 z" id="boundary" inkscape:connector-curvature="0" />
	<path style="fill:none;stroke:red;stroke-width:1px;stroke-linecap:butt;stroke-linejoin:miter;stroke-opacity:1" d="M 500.816,105.974 492.658,105.974 z" id="boundary" inkscape:connector-curvature="0" />
	<path style="fill:none;stroke:red;stroke-width:1px;stroke-linecap:butt;stroke-linejoin:miter;stroke-opacity:1" d="M 504.079,184.289 512.237,184.289 z" id="boundary" inkscape:connector-curvature="0" />
	<path style="fill:none;stroke:red;stroke-width:1px;stroke-linecap:butt;stroke-linejoin:miter;stroke-opacity:1" d="M 508.974,105.974 500.816,105.974 z" id="boundary" inkscape:connector-curvature="0" />
	<path style="fill:none;stroke:red;stroke-width:1px;stroke-linecap:butt;stroke-linejoin:miter;stroke-opacity:1" d="M 516.316,101.895 524.474,101.895 z" id="boundary" inkscape:connector-curvature="0" />
	<path style="fill:none;stroke:red;stroke-width:1px;stroke-linecap:butt;stroke-linejoin:miter;stroke-opacity:1" d="M 516.316,101.895 508.974,105.974 z" id="boundary" inkscape:connector-curvature="0" />
	<path style="fill:none;stroke:red;stroke-width:1px;stroke-linecap:butt;stroke-linejoin:miter;stroke-opacity:1" d="M 519.579,180.211 512.237,184.289 z" id="boundary" inkscape:connector-curvature="0" />
	<path style="fill:none;stroke:red;stroke-width:1px;stroke-linecap:butt;stroke-linejoin:miter;stroke-opacity:1" d="M 527.737,180.211 519.579,180.211 z" id="boundary" inkscape:connector-curvature="0" />
	<path style="fill:none;stroke:red;stroke-width:1px;stroke-linecap:butt;stroke-linejoin:miter;stroke-opacity:1" d="M 532.632,101.895 524.474,101.895 z" id="boundary" inkscape:connector-curvature="0" />
	<path style="fill:none;stroke:red;stroke-width:1px;stroke-linecap:butt;stroke-linejoin:miter;stroke-opacity:1" d="M 535.895,180.211 527.737,180.211 z" id="boundary" inkscape:connector-curvature="0" />
	<path style="fill:none;stroke:red;stroke-width:1px;stroke-linecap:butt;stroke-linejoin:miter;stroke-opacity:1" d="M 540.789,101.895 532.632,101.895 z" id="boundary" inkscape:connector-curvature="0" />
	<path style="fill:none;stroke:red;stroke-width:1px;stroke-linecap:butt;stroke-linejoin:miter;stroke-opacity:1" d="M 544.053,180.211 535.895,180.211 z" id="boundary" inkscape:connector-curvature="0" />
	<path style="fill:none;stroke:red;stroke-width:1px;stroke-linecap:butt;stroke-linejoin:miter;stroke-opacity:1" d="M 548.947,97.8158 557.105,97.8158 z" id="boundary" inkscape:connector-curvature="0" />
	<path style="fill:none;stroke:red;stroke-width:1px;stroke-linecap:butt;stroke-linejoin:miter;stroke-opacity:1" d="M 548.947,97.8158 540.789,101.895 z" id="boundary" inkscape:connector-curvature="0" />
	<path style="fill:none;stroke:red;stroke-width:1px;stroke-linecap:butt;stroke-linejoin:miter;stroke-opacity:1" d="M 552.211,180.211 544.053,180.211 z" id="boundary" inkscape:connector-curvature="0" />
	<path style="fill:none;stroke:red;stroke-width:1px;stroke-linecap:butt;stroke-linejoin:miter;stroke-opacity:1" d="M 737.395,163.895 729.237,163.895 z" id="boundary" inkscape:connector-curvature="0" />
	<path style="fill:none;stroke:red;stroke-width:1px;stroke-linecap:butt;stroke-linejoin:miter;stroke-opacity:1" d="M 559.553,176.132 552.211,180.211 z" id="boundary" inkscape:connector-curvature="0" />
	<path style="fill:none;stroke:red;stroke-width:1px;stroke-linecap:butt;stroke-linejoin:miter;stroke-opacity:1" d="M 565.263,97.8158 557.105,97.8158 z" id="boundary" inkscape:connector-curvature="0" />
	<path style="fill:none;stroke:red;stroke-width:1px;stroke-linecap:butt;stroke-linejoin:miter;stroke-opacity:1" d="M 567.711,176.132 559.553,176.132 z" id="boundary" inkscape:connector-curvature="0" />
	<path style="fill:none;stroke:red;stroke-width:1px;stroke-linecap:butt;stroke-linejoin:miter;stroke-opacity:1" d="M 573.421,97.8158 565.263,97.8158 z" id="boundary" inkscape:connector-curvature="0" />
	<path style="fill:none;stroke:red;stroke-width:1px;stroke-linecap:butt;stroke-linejoin:miter;stroke-opacity:1" d="M 575.868,176.132 567.711,176.132 z" id="boundary" inkscape:connector-curvature="0" />
	<path style="fill:none;stroke:red;stroke-width:1px;stroke-linecap:butt;stroke-linejoin:miter;stroke-opacity:1" d="M 581.579,97.8158 573.421,97.8158 z" id="boundary" inkscape:connector-curvature="0" />
	<path style="fill:none;stroke:red;stroke-width:1px;stroke-linecap:butt;stroke-linejoin:miter;stroke-opacity:1" d="M 584.026,176.132 575.868,176.132 z" id="boundary" inkscape:connector-curvature="0" />
	<path style="fill:none;stroke:red;stroke-width:1px;stroke-linecap:butt;stroke-linejoin:miter;stroke-opacity:1" d="M 585.658,89.6579 581.579,97.8158 z" id="boundary" inkscape:connector-curvature="0" />
	<path style="fill:none;stroke:red;stroke-width:1px;stroke-linecap:butt;stroke-linejoin:miter;stroke-opacity:1" d="M 592.184,176.132 584.026,176.132 z" id="boundary" inkscape:connector-curvature="0" />
	<path style="fill:none;stroke:red;stroke-width:1px;stroke-linecap:butt;stroke-linejoin:miter;stroke-opacity:1" d="M 592.184,83.1316 598.711,77.4211 z" id="boundary" inkscape:connector-curvature="0" />
	<path style="fill:none;stroke:red;stroke-width:1px;stroke-linecap:butt;stroke-linejoin:miter;stroke-opacity:1" d="M 604.421,70.8947 598.711,77.4211 z" id="boundary" inkscape:connector-curvature="0" />
	<path style="fill:none;stroke:red;stroke-width:1px;stroke-linecap:butt;stroke-linejoin:miter;stroke-opacity:1" d="M 721.079,163.895 729.237,163.895 z" id="boundary" inkscape:connector-curvature="0" />
	<path style="fill:none;stroke:red;stroke-width:1px;stroke-linecap:butt;stroke-linejoin:miter;stroke-opacity:1" d="M 599.526,172.053 592.184,176.132 z" id="boundary" inkscape:connector-curvature="0" />
	<path style="fill:none;stroke:red;stroke-width:1px;stroke-linecap:butt;stroke-linejoin:miter;stroke-opacity:1" d="M 604.421,70.8947 610.947,65.1842 z" id="boundary" inkscape:connector-curvature="0" />
	<path style="fill:none;stroke:red;stroke-width:1px;stroke-linecap:butt;stroke-linejoin:miter;stroke-opacity:1" d="M 610.947,65.1842 618.289,61.1053 z" id="boundary" inkscape:connector-curvature="0" />
	<path style="fill:none;stroke:red;stroke-width:1px;stroke-linecap:butt;stroke-linejoin:miter;stroke-opacity:1" d="M 607.684,172.053 599.526,172.053 z" id="boundary" inkscape:connector-curvature="0" />
	<path style="fill:none;stroke:red;stroke-width:1px;stroke-linecap:butt;stroke-linejoin:miter;stroke-opacity:1" d="M 615.842,172.053 607.684,172.053 z" id="boundary" inkscape:connector-curvature="0" />
	<path style="fill:none;stroke:red;stroke-width:1px;stroke-linecap:butt;stroke-linejoin:miter;stroke-opacity:1" d="M 624,172.053 615.842,172.053 z" id="boundary" inkscape:connector-curvature="0" />
	<path style="fill:none;stroke:red;stroke-width:1px;stroke-linecap:butt;stroke-linejoin:miter;stroke-opacity:1" d="M 624.816,54.5789 618.289,61.1053 z" id="boundary" inkscape:connector-curvature="0" />
	<path style="fill:none;stroke:red;stroke-width:1px;stroke-linecap:butt;stroke-linejoin:miter;stroke-opacity:1" d="M 656.632,167.974 664.789,167.974 z" id="boundary" inkscape:connector-curvature="0" />
	<path style="fill:none;stroke:red;stroke-width:1px;stroke-linecap:butt;stroke-linejoin:miter;stroke-opacity:1" d="M 631.342,48.8684 624.816,54.5789 z" id="boundary" inkscape:connector-curvature="0" />
	<path style="fill:none;stroke:red;stroke-width:1px;stroke-linecap:butt;stroke-linejoin:miter;stroke-opacity:1" d="M 632.158,169.605 624,172.053 z" id="boundary" inkscape:connector-curvature="0" />
	<path style="fill:none;stroke:red;stroke-width:1px;stroke-linecap:butt;stroke-linejoin:miter;stroke-opacity:1" d="M 637.053,42.3421 645.211,38.2632 z" id="boundary" inkscape:connector-curvature="0" />
	<path style="fill:none;stroke:red;stroke-width:1px;stroke-linecap:butt;stroke-linejoin:miter;stroke-opacity:1" d="M 637.053,42.3421 631.342,48.8684 z" id="boundary" inkscape:connector-curvature="0" />
	<path style="fill:none;stroke:red;stroke-width:1px;stroke-linecap:butt;stroke-linejoin:miter;stroke-opacity:1" d="M 640.316,167.974 648.474,167.974 z" id="boundary" inkscape:connector-curvature="0" />
	<path style="fill:none;stroke:red;stroke-width:1px;stroke-linecap:butt;stroke-linejoin:miter;stroke-opacity:1" d="M 640.316,167.974 632.158,169.605 z" id="boundary" inkscape:connector-curvature="0" />
	<path style="fill:none;stroke:red;stroke-width:1px;stroke-linecap:butt;stroke-linejoin:miter;stroke-opacity:1" d="M 645.211,38.2632 653.368,34.1842 z" id="boundary" inkscape:connector-curvature="0" />
	<path style="fill:none;stroke:red;stroke-width:1px;stroke-linecap:butt;stroke-linejoin:miter;stroke-opacity:1" d="M 661.526,30.1053 669.684,28.4737 z" id="boundary" inkscape:connector-curvature="0" />
	<path style="fill:none;stroke:red;stroke-width:1px;stroke-linecap:butt;stroke-linejoin:miter;stroke-opacity:1" d="M 661.526,30.1053 653.368,34.1842 z" id="boundary" inkscape:connector-curvature="0" />
	<path style="fill:none;stroke:red;stroke-width:1px;stroke-linecap:butt;stroke-linejoin:miter;stroke-opacity:1" d="M 648.474,167.974 656.632,167.974 z" id="boundary" inkscape:connector-curvature="0" />
	<path style="fill:none;stroke:red;stroke-width:1px;stroke-linecap:butt;stroke-linejoin:miter;stroke-opacity:1" d="M 745.553,163.895 737.395,163.895 z" id="boundary" inkscape:connector-curvature="0" />
	<path style="fill:none;stroke:red;stroke-width:1px;stroke-linecap:butt;stroke-linejoin:miter;stroke-opacity:1" d="M 704.763,163.895 712.921,163.895 z" id="boundary" inkscape:connector-curvature="0" />
	<path style="fill:none;stroke:red;stroke-width:1px;stroke-linecap:butt;stroke-linejoin:miter;stroke-opacity:1" d="M 672.132,163.895 664.789,167.974 z" id="boundary" inkscape:connector-curvature="0" />
	<path style="fill:none;stroke:red;stroke-width:1px;stroke-linecap:butt;stroke-linejoin:miter;stroke-opacity:1" d="M 677.026,24.3947 669.684,28.4737 z" id="boundary" inkscape:connector-curvature="0" />
	<path style="fill:none;stroke:red;stroke-width:1px;stroke-linecap:butt;stroke-linejoin:miter;stroke-opacity:1" d="M 680.289,163.895 672.132,163.895 z" id="boundary" inkscape:connector-curvature="0" />
	<path style="fill:none;stroke:red;stroke-width:1px;stroke-linecap:butt;stroke-linejoin:miter;stroke-opacity:1" d="M 684.368,20.3158 692.526,20.3158 z" id="boundary" inkscape:connector-curvature="0" />
	<path style="fill:none;stroke:red;stroke-width:1px;stroke-linecap:butt;stroke-linejoin:miter;stroke-opacity:1" d="M 684.368,20.3158 677.026,24.3947 z" id="boundary" inkscape:connector-curvature="0" />
	<path style="fill:none;stroke:red;stroke-width:1px;stroke-linecap:butt;stroke-linejoin:miter;stroke-opacity:1" d="M 688.447,163.895 680.289,163.895 z" id="boundary" inkscape:connector-curvature="0" />
	<path style="fill:none;stroke:red;stroke-width:1px;stroke-linecap:butt;stroke-linejoin:miter;stroke-opacity:1" d="M 696.605,163.895 688.447,163.895 z" id="boundary" inkscape:connector-curvature="0" />
	<path style="fill:none;stroke:red;stroke-width:1px;stroke-linecap:butt;stroke-linejoin:miter;stroke-opacity:1" d="M 699.868,16.2368 708.026,16.2368 z" id="boundary" inkscape:connector-curvature="0" />
	<path style="fill:none;stroke:red;stroke-width:1px;stroke-linecap:butt;stroke-linejoin:miter;stroke-opacity:1" d="M 699.868,16.2368 692.526,20.3158 z" id="boundary" inkscape:connector-curvature="0" />
	<path style="fill:none;stroke:red;stroke-width:1px;stroke-linecap:butt;stroke-linejoin:miter;stroke-opacity:1" d="M 696.605,163.895 704.763,163.895 z" id="boundary" inkscape:connector-curvature="0" />
	<path style="fill:none;stroke:red;stroke-width:1px;stroke-linecap:butt;stroke-linejoin:miter;stroke-opacity:1" d="M 708.026,16.2368 716.184,16.2368 z" id="boundary" inkscape:connector-curvature="0" />
	<path style="fill:none;stroke:red;stroke-width:1px;stroke-linecap:butt;stroke-linejoin:miter;stroke-opacity:1" d="M 712.921,163.895 721.079,163.895 z" id="boundary" inkscape:connector-curvature="0" />
	<path style="fill:none;stroke:red;stroke-width:1px;stroke-linecap:butt;stroke-linejoin:miter;stroke-opacity:1" d="M 745.553,163.895 753.711,163.895 z" id="boundary" inkscape:connector-curvature="0" />
	<path style="fill:none;stroke:red;stroke-width:1px;stroke-linecap:butt;stroke-linejoin:miter;stroke-opacity:1" d="M 723.526,12.1579 731.684,12.1579 z" id="boundary" inkscape:connector-curvature="0" />
	<path style="fill:none;stroke:red;stroke-width:1px;stroke-linecap:butt;stroke-linejoin:miter;stroke-opacity:1" d="M 723.526,12.1579 716.184,16.2368 z" id="boundary" inkscape:connector-curvature="0" />
	<path style="fill:none;stroke:red;stroke-width:1px;stroke-linecap:butt;stroke-linejoin:miter;stroke-opacity:1" d="M 753.711,163.895 761.868,163.895 z" id="boundary" inkscape:connector-curvature="0" />
	<path style="fill:none;stroke:red;stroke-width:1px;stroke-linecap:butt;stroke-linejoin:miter;stroke-opacity:1" d="M 739.026,8.07895 747.184,8.07895 z" id="boundary" inkscape:connector-curvature="0" />
	<path style="fill:none;stroke:red;stroke-width:1px;stroke-linecap:butt;stroke-linejoin:miter;stroke-opacity:1" d="M 739.026,8.07895 731.684,12.1579 z" id="boundary" inkscape:connector-curvature="0" />
	<path style="fill:none;stroke:red;stroke-width:1px;stroke-linecap:butt;stroke-linejoin:miter;stroke-opacity:1" d="M 770.026,163.895 761.868,163.895 z" id="boundary" inkscape:connector-curvature="0" />
	<path style="fill:none;stroke:red;stroke-width:1px;stroke-linecap:butt;stroke-linejoin:miter;stroke-opacity:1" d="M 755.342,5.63158 747.184,8.07895 z" id="boundary" inkscape:connector-curvature="0" />
	<path style="fill:none;stroke:red;stroke-width:1px;stroke-linecap:butt;stroke-linejoin:miter;stroke-opacity:1" d="M 778.184,163.895 770.026,163.895 z" id="boundary" inkscape:connector-curvature="0" />
	<path style="fill:none;stroke:red;stroke-width:1px;stroke-linecap:butt;stroke-linejoin:miter;stroke-opacity:1" d="M 763.5,4 771.658,4 z" id="boundary" inkscape:connector-curvature="0" />
	<path style="fill:none;stroke:red;stroke-width:1px;stroke-linecap:butt;stroke-linejoin:miter;stroke-opacity:1" d="M 763.5,4 755.342,5.63158 z" id="boundary" inkscape:connector-curvature="0" />
	<path style="fill:none;stroke:red;stroke-width:1px;stroke-linecap:butt;stroke-linejoin:miter;stroke-opacity:1" d="M 786.342,163.895 778.184,163.895 z" id="boundary" inkscape:connector-curvature="0" />
	<path style="fill:none;stroke:red;stroke-width:1px;stroke-linecap:butt;stroke-linejoin:miter;stroke-opacity:1" d="M 794.5,163.895 786.342,163.895 z" id="boundary" inkscape:connector-curvature="0" />
	<path style="fill:none;stroke:red;stroke-width:1px;stroke-linecap:butt;stroke-linejoin:miter;stroke-opacity:1" d="M 779.816,4 771.658,4 z" id="boundary" inkscape:connector-curvature="0" />
	<path style="fill:none;stroke:red;stroke-width:1px;stroke-linecap:butt;stroke-linejoin:miter;stroke-opacity:1" d="M 802.658,163.895 794.5,163.895 z" id="boundary" inkscape:connector-curvature="0" />
	<path style="fill:none;stroke:red;stroke-width:1px;stroke-linecap:butt;stroke-linejoin:miter;stroke-opacity:1" d="M 787.974,4 779.816,4 z" id="boundary" inkscape:connector-curvature="0" />
	<path style="fill:none;stroke:red;stroke-width:1px;stroke-linecap:butt;stroke-linejoin:miter;stroke-opacity:1" d="M 818.158,167.974 810.816,163.895 z" id="boundary" inkscape:connector-curvature="0" />
	<path style="fill:none;stroke:red;stroke-width:1px;stroke-linecap:butt;stroke-linejoin:miter;stroke-opacity:1" d="M 810.816,163.895 802.658,163.895 z" id="boundary" inkscape:connector-curvature="0" />
	<path style="fill:none;stroke:red;stroke-width:1px;stroke-linecap:butt;stroke-linejoin:miter;stroke-opacity:1" d="M 796.132,4 787.974,4 z" id="boundary" inkscape:connector-curvature="0" />
	<path style="fill:none;stroke:red;stroke-width:1px;stroke-linecap:butt;stroke-linejoin:miter;stroke-opacity:1" d="M 804.289,4 796.132,4 z" id="boundary" inkscape:connector-curvature="0" />
	<path style="fill:none;stroke:red;stroke-width:1px;stroke-linecap:butt;stroke-linejoin:miter;stroke-opacity:1" d="M 812.447,4 804.289,4 z" id="boundary" inkscape:connector-curvature="0" />
	<path style="fill:none;stroke:red;stroke-width:1px;stroke-linecap:butt;stroke-linejoin:miter;stroke-opacity:1" d="M 898.105,180.211 906.263,181.842 z" id="boundary" inkscape:connector-curvature="0" />
	<path style="fill:none;stroke:red;stroke-width:1px;stroke-linecap:butt;stroke-linejoin:miter;stroke-opacity:1" d="M 906.263,181.842 914.421,184.289 z" id="boundary" inkscape:connector-curvature="0" />
	<path style="fill:none;stroke:red;stroke-width:1px;stroke-linecap:butt;stroke-linejoin:miter;stroke-opacity:1" d="M 820.605,4 812.447,4 z" id="boundary" inkscape:connector-curvature="0" />
	<path style="fill:none;stroke:red;stroke-width:1px;stroke-linecap:butt;stroke-linejoin:miter;stroke-opacity:1" d="M 820.605,4 828.763,4 z" id="boundary" inkscape:connector-curvature="0" />
	<path style="fill:none;stroke:red;stroke-width:1px;stroke-linecap:butt;stroke-linejoin:miter;stroke-opacity:1" d="M 826.316,167.974 818.158,167.974 z" id="boundary" inkscape:connector-curvature="0" />
	<path style="fill:none;stroke:red;stroke-width:1px;stroke-linecap:butt;stroke-linejoin:miter;stroke-opacity:1" d="M 828.763,4 836.921,4 z" id="boundary" inkscape:connector-curvature="0" />
	<path style="fill:none;stroke:red;stroke-width:1px;stroke-linecap:butt;stroke-linejoin:miter;stroke-opacity:1" d="M 836.921,4 844.263,8.07895 z" id="boundary" inkscape:connector-curvature="0" />
	<path style="fill:none;stroke:red;stroke-width:1px;stroke-linecap:butt;stroke-linejoin:miter;stroke-opacity:1" d="M 834.474,167.974 826.316,167.974 z" id="boundary" inkscape:connector-curvature="0" />
	<path style="fill:none;stroke:red;stroke-width:1px;stroke-linecap:butt;stroke-linejoin:miter;stroke-opacity:1" d="M 842.632,167.974 834.474,167.974 z" id="boundary" inkscape:connector-curvature="0" />
	<path style="fill:none;stroke:red;stroke-width:1px;stroke-linecap:butt;stroke-linejoin:miter;stroke-opacity:1" d="M 850.789,167.974 858.132,172.053 z" id="boundary" inkscape:connector-curvature="0" />
	<path style="fill:none;stroke:red;stroke-width:1px;stroke-linecap:butt;stroke-linejoin:miter;stroke-opacity:1" d="M 850.789,167.974 842.632,167.974 z" id="boundary" inkscape:connector-curvature="0" />
	<path style="fill:none;stroke:red;stroke-width:1px;stroke-linecap:butt;stroke-linejoin:miter;stroke-opacity:1" d="M 852.421,8.07895 859.763,12.1579 z" id="boundary" inkscape:connector-curvature="0" />
	<path style="fill:none;stroke:red;stroke-width:1px;stroke-linecap:butt;stroke-linejoin:miter;stroke-opacity:1" d="M 852.421,8.07895 844.263,8.07895 z" id="boundary" inkscape:connector-curvature="0" />
	<path style="fill:none;stroke:red;stroke-width:1px;stroke-linecap:butt;stroke-linejoin:miter;stroke-opacity:1" d="M 898.105,180.211 889.947,177.763 z" id="boundary" inkscape:connector-curvature="0" />
	<path style="fill:none;stroke:red;stroke-width:1px;stroke-linecap:butt;stroke-linejoin:miter;stroke-opacity:1" d="M 859.763,12.1579 867.921,12.1579 z" id="boundary" inkscape:connector-curvature="0" />
	<path style="fill:none;stroke:red;stroke-width:1px;stroke-linecap:butt;stroke-linejoin:miter;stroke-opacity:1" d="M 866.289,172.053 873.632,176.132 z" id="boundary" inkscape:connector-curvature="0" />
	<path style="fill:none;stroke:red;stroke-width:1px;stroke-linecap:butt;stroke-linejoin:miter;stroke-opacity:1" d="M 866.289,172.053 858.132,172.053 z" id="boundary" inkscape:connector-curvature="0" />
	<path style="fill:none;stroke:red;stroke-width:1px;stroke-linecap:butt;stroke-linejoin:miter;stroke-opacity:1" d="M 867.921,12.1579 876.079,12.9737 z" id="boundary" inkscape:connector-curvature="0" />
	<path style="fill:none;stroke:red;stroke-width:1px;stroke-linecap:butt;stroke-linejoin:miter;stroke-opacity:1" d="M 876.079,12.9737 884.237,16.2368 z" id="boundary" inkscape:connector-curvature="0" />
	<path style="fill:none;stroke:red;stroke-width:1px;stroke-linecap:butt;stroke-linejoin:miter;stroke-opacity:1" d="M 906.263,26.8421 899.737,21.1316 z" id="boundary" inkscape:connector-curvature="0" />
	<path style="fill:none;stroke:red;stroke-width:1px;stroke-linecap:butt;stroke-linejoin:miter;stroke-opacity:1" d="M 881.789,176.132 889.947,177.763 z" id="boundary" inkscape:connector-curvature="0" />
	<path style="fill:none;stroke:red;stroke-width:1px;stroke-linecap:butt;stroke-linejoin:miter;stroke-opacity:1" d="M 881.789,176.132 873.632,176.132 z" id="boundary" inkscape:connector-curvature="0" />
	<path style="fill:none;stroke:red;stroke-width:1px;stroke-linecap:butt;stroke-linejoin:miter;stroke-opacity:1" d="M 884.237,16.2368 892.395,17.0526 z" id="boundary" inkscape:connector-curvature="0" />
	<path style="fill:none;stroke:red;stroke-width:1px;stroke-linecap:butt;stroke-linejoin:miter;stroke-opacity:1" d="M 892.395,17.0526 899.737,21.1316 z" id="boundary" inkscape:connector-curvature="0" />
	<path style="fill:none;stroke:red;stroke-width:1px;stroke-linecap:butt;stroke-linejoin:miter;stroke-opacity:1" d="M 912.789,32.5526 906.263,26.8421 z" id="boundary" inkscape:connector-curvature="0" />
	<path style="fill:none;stroke:red;stroke-width:1px;stroke-linecap:butt;stroke-linejoin:miter;stroke-opacity:1" d="M 920.132,36.6316 925.842,43.1579 z" id="boundary" inkscape:connector-curvature="0" />
	<path style="fill:none;stroke:red;stroke-width:1px;stroke-linecap:butt;stroke-linejoin:miter;stroke-opacity:1" d="M 920.132,36.6316 912.789,32.5526 z" id="boundary" inkscape:connector-curvature="0" />
	<path style="fill:none;stroke:red;stroke-width:1px;stroke-linecap:butt;stroke-linejoin:miter;stroke-opacity:1" d="M 930.737,188.368 922.579,185.921 z" id="boundary" inkscape:connector-curvature="0" />
	<path style="fill:none;stroke:red;stroke-width:1px;stroke-linecap:butt;stroke-linejoin:miter;stroke-opacity:1" d="M 922.579,185.921 914.421,184.289 z" id="boundary" inkscape:connector-curvature="0" />
	<path style="fill:none;stroke:red;stroke-width:1px;stroke-linecap:butt;stroke-linejoin:miter;stroke-opacity:1" d="M 934,46.4211 938.895,52.9474 z" id="boundary" inkscape:connector-curvature="0" />
	<path style="fill:none;stroke:red;stroke-width:1px;stroke-linecap:butt;stroke-linejoin:miter;stroke-opacity:1" d="M 934,46.4211 925.842,43.1579 z" id="boundary" inkscape:connector-curvature="0" />
	<path style="fill:none;stroke:red;stroke-width:1px;stroke-linecap:butt;stroke-linejoin:miter;stroke-opacity:1" d="M 945.421,57.8421 951.132,64.3684 z" id="boundary" inkscape:connector-curvature="0" />
	<path style="fill:none;stroke:red;stroke-width:1px;stroke-linecap:butt;stroke-linejoin:miter;stroke-opacity:1" d="M 945.421,57.8421 938.895,52.9474 z" id="boundary" inkscape:connector-curvature="0" />
	<path style="fill:none;stroke:red;stroke-width:1px;stroke-linecap:butt;stroke-linejoin:miter;stroke-opacity:1" d="M 960.921,78.2368 957.658,70.0789 z" id="boundary" inkscape:connector-curvature="0" />
	<path style="fill:none;stroke:red;stroke-width:1px;stroke-linecap:butt;stroke-linejoin:miter;stroke-opacity:1" d="M 957.658,70.0789 951.132,64.3684 z" id="boundary" inkscape:connector-curvature="0" />
	<path style="fill:none;stroke:red;stroke-width:1px;stroke-linecap:butt;stroke-linejoin:miter;stroke-opacity:1" d="M 938.895,188.368 930.737,188.368 z" id="boundary" inkscape:connector-curvature="0" />
	<path style="fill:none;stroke:red;stroke-width:1px;stroke-linecap:butt;stroke-linejoin:miter;stroke-opacity:1" d="M 960.921,78.2368 967.447,83.9474 z" id="boundary" inkscape:connector-curvature="0" />
	<path style="fill:none;stroke:red;stroke-width:1px;stroke-linecap:butt;stroke-linejoin:miter;stroke-opacity:1" d="M 967.447,83.9474 971.526,91.2895 z" id="boundary" inkscape:connector-curvature="0" />
	<path style="fill:none;stroke:red;stroke-width:1px;stroke-linecap:butt;stroke-linejoin:miter;stroke-opacity:1" d="M 938.895,188.368 946.237,192.447 z" id="boundary" inkscape:connector-curvature="0" />
	<path style="fill:none;stroke:red;stroke-width:1px;stroke-linecap:butt;stroke-linejoin:miter;stroke-opacity:1" d="M 954.395,192.447 946.237,192.447 z" id="boundary" inkscape:connector-curvature="0" />
	<path style="fill:none;stroke:red;stroke-width:1px;stroke-linecap:butt;stroke-linejoin:miter;stroke-opacity:1" d="M 971.526,91.2895 975.605,98.6316 z" id="boundary" inkscape:connector-curvature="0" />
	<path style="fill:none;stroke:red;stroke-width:1px;stroke-linecap:butt;stroke-linejoin:miter;stroke-opacity:1" d="M 979.684,105.974 975.605,98.6316 z" id="boundary" inkscape:connector-curvature="0" />
	<path style="fill:none;stroke:red;stroke-width:1px;stroke-linecap:butt;stroke-linejoin:miter;stroke-opacity:1" d="M 970.711,190 962.553,192.447 z" id="boundary" inkscape:connector-curvature="0" />
	<path style="fill:none;stroke:red;stroke-width:1px;stroke-linecap:butt;stroke-linejoin:miter;stroke-opacity:1" d="M 962.553,192.447 954.395,192.447 z" id="boundary" inkscape:connector-curvature="0" />
	<path style="fill:none;stroke:red;stroke-width:1px;stroke-linecap:butt;stroke-linejoin:miter;stroke-opacity:1" d="M 983.763,113.316 979.684,105.974 z" id="boundary" inkscape:connector-curvature="0" />
	<path style="fill:none;stroke:red;stroke-width:1px;stroke-linecap:butt;stroke-linejoin:miter;stroke-opacity:1" d="M 983.763,113.316 987.842,120.658 z" id="boundary" inkscape:connector-curvature="0" />
	<path style="fill:none;stroke:red;stroke-width:1px;stroke-linecap:butt;stroke-linejoin:miter;stroke-opacity:1" d="M 985.395,179.395 978.868,185.921 z" id="boundary" inkscape:connector-curvature="0" />
	<path style="fill:none;stroke:red;stroke-width:1px;stroke-linecap:butt;stroke-linejoin:miter;stroke-opacity:1" d="M 978.868,185.921 970.711,190 z" id="boundary" inkscape:connector-curvature="0" />
	<path style="fill:none;stroke:red;stroke-width:1px;stroke-linecap:butt;stroke-linejoin:miter;stroke-opacity:1" d="M 987.842,120.658 991.105,128.816 z" id="boundary" inkscape:connector-curvature="0" />
	<path style="fill:none;stroke:red;stroke-width:1px;stroke-linecap:butt;stroke-linejoin:miter;stroke-opacity:1" d="M 991.105,128.816 991.921,136.974 z" id="boundary" inkscape:connector-curvature="0" />
	<path style="fill:none;stroke:red;stroke-width:1px;stroke-linecap:butt;stroke-linejoin:miter;stroke-opacity:1" d="M 991.921,167.974 985.395,179.395 z" id="boundary" inkscape:connector-curvature="0" />
	<path style="fill:none;stroke:red;stroke-width:1px;stroke-linecap:butt;stroke-linejoin:miter;stroke-opacity:1" d="M 996,144.316 996,152.474 z" id="boundary" inkscape:connector-curvature="0" />
	<path style="fill:none;stroke:red;stroke-width:1px;stroke-linecap:butt;stroke-linejoin:miter;stroke-opacity:1" d="M 996,144.316 991.921,136.974 z" id="boundary" inkscape:connector-curvature="0" />
	<path style="fill:none;stroke:red;stroke-width:1px;stroke-linecap:butt;stroke-linejoin:miter;stroke-opacity:1" d="M 996,160.632 991.921,167.974 z" id="boundary" inkscape:connector-curvature="0" />
	<path style="fill:none;stroke:red;stroke-width:1px;stroke-linecap:butt;stroke-linejoin:miter;stroke-opacity:1" d="M 996,160.632 996,152.474 z" id="boundary" inkscape:connector-curvature="0" />
	<circle cx="4" cy="67.6316" r="4" fill="#0" id="circle0"/>
	<circle cx="4" cy="75.7895" r="4" fill="#0" id="circle1"/>
	<circle cx="4" cy="83.9474" r="4" fill="#0" id="circle2"/>
	<circle cx="4" cy="92.1053" r="4" fill="#0" id="circle3"/>
	<circle cx="8.07895" cy="59.4737" r="4" fill="#0" id="circle4"/>
	<circle cx="8.07895" cy="99.4474" r="4" fill="#0" id="circle5"/>
	<circle cx="13.7895" cy="105.974" r="4" fill="#0" id="circle6"/>
	<circle cx="14.6053" cy="52.9474" r="4" fill="#0" id="circle7"/>
	<circle cx="20.3158" cy="110.868" r="4" fill="#0" id="circle8"/>
	<circle cx="21.1316" cy="46.4211" r="4" fill="#0" id="circle9"/>
	<circle cx="25.2105" cy="117.395" r="4" fill="#0" id="circle10"/>
	<circle cx="29.2895" cy="42.3421" r="4" fill="#0" id="circle11"/>
	<circle cx="31.7368" cy="123.105" r="4" fill="#0" id="circle12"/>
	<circle cx="37.4474" cy="40.7105" r="4" fill="#0" id="circle13"/>
	<circle cx="39.0789" cy="127.184" r="4" fill="#0" id="circle14"/>
	<circle cx="45.6053" cy="40.7105" r="4" fill="#0" id="circle15"/>
	<circle cx="46.4211" cy="131.263" r="4" fill="#0" id="circle16"/>
	<circle cx="53.7632" cy="40.7105" r="4" fill="#0" id="circle17"/>
	<circle cx="54.5789" cy="131.263" r="4" fill="#0" id="circle18"/>
	<circle cx="61.1053" cy="44.7895" r="4" fill="#0" id="circle19"/>
	<circle cx="61.9211" cy="135.342" r="4" fill="#0" id="circle20"/>
	<circle cx="67.6316" cy="49.6842" r="4" fill="#0" id="circle21"/>
	<circle cx="70.0789" cy="135.342" r="4" fill="#0" id="circle22"/>
	<circle cx="74.1579" cy="55.3947" r="4" fill="#0" id="circle23"/>
	<circle cx="77.4211" cy="139.421" r="4" fill="#0" id="circle24"/>
	<circle cx="82.3158" cy="57.0263" r="4" fill="#0" id="circle25"/>
	<circle cx="85.5789" cy="139.421" r="4" fill="#0" id="circle26"/>
	<circle cx="89.6579" cy="61.1053" r="4" fill="#0" id="circle27"/>
	<circle cx="93.7368" cy="139.421" r="4" fill="#0" id="circle28"/>
	<circle cx="97.8158" cy="61.1053" r="4" fill="#0" id="circle29"/>
	<circle cx="101.079" cy="143.5" r="4" fill="#0" id="circle30"/>
	<circle cx="105.158" cy="65.1842" r="4" fill="#0" id="circle31"/>
	<circle cx="109.237" cy="143.5" r="4" fill="#0" id="circle32"/>
	<circle cx="113.316" cy="65.1842" r="4" fill="#0" id="circle33"/>
	<circle cx="116.579" cy="147.579" r="4" fill="#0" id="circle34"/>
	<circle cx="121.474" cy="66" r="4" fill="#0" id="circle35"/>
	<circle cx="124.737" cy="147.579" r="4" fill="#0" id="circle36"/>
	<circle cx="129.632" cy="69.2632" r="4" fill="#0" id="circle37"/>
	<circle cx="132.895" cy="150.842" r="4" fill="#0" id="circle38"/>
	<circle cx="137.789" cy="70.0789" r="4" fill="#0" id="circle39"/>
	<circle cx="141.053" cy="151.658" r="4" fill="#0" id="circle40"/>
	<circle cx="145.947" cy="73.3421" r="4" fill="#0" id="circle41"/>
	<circle cx="149.211" cy="154.921" r="4" fill="#0" id="circle42"/>
	<circle cx="154.105" cy="73.3421" r="4" fill="#0" id="circle43"/>
	<circle cx="157.368" cy="155.737" r="4" fill="#0" id="circle44"/>
	<circle cx="161.447" cy="77.4211" r="4" fill="#0" id="circle45"/>
	<circle cx="165.526" cy="155.737" r="4" fill="#0" id="circle46"/>
	<circle cx="169.605" cy="77.4211" r="4" fill="#0" id="circle47"/>
	<circle cx="172.868" cy="159.816" r="4" fill="#0" id="circle48"/>
	<circle cx="176.947" cy="81.5" r="4" fill="#0" id="circle49"/>
	<circle cx="181.026" cy="159.816" r="4" fill="#0" id="circle50"/>
	<circle cx="185.105" cy="81.5" r="4" fill="#0" id="circle51"/>
	<circle cx="189.184" cy="162.263" r="4" fill="#0" id="circle52"/>
	<circle cx="193.263" cy="81.5" r="4" fill="#0" id="circle53"/>
	<circle cx="197.342" cy="163.895" r="4" fill="#0" id="circle54"/>
	<circle cx="200.605" cy="85.5789" r="4" fill="#0" id="circle55"/>
	<circle cx="205.5" cy="166.342" r="4" fill="#0" id="circle56"/>
	<circle cx="208.763" cy="85.5789" r="4" fill="#0" id="circle57"/>
	<circle cx="213.658" cy="167.974" r="4" fill="#0" id="circle58"/>
	<circle cx="216.921" cy="88.0263" r="4" fill="#0" id="circle59"/>
	<circle cx="221.816" cy="167.974" r="4" fill="#0" id="circle60"/>
	<circle cx="225.079" cy="89.6579" r="4" fill="#0" id="circle61"/>
	<circle cx="229.974" cy="167.974" r="4" fill="#0" id="circle62"/>
	<circle cx="233.237" cy="89.6579" r="4" fill="#0" id="circle63"/>
	<circle cx="238.132" cy="167.974" r="4" fill="#0" id="circle64"/>
	<circle cx="241.395" cy="89.6579" r="4" fill="#0" id="circle65"/>
	<circle cx="245.474" cy="172.053" r="4" fill="#0" id="circle66"/>
	<circle cx="249.553" cy="89.6579" r="4" fill="#0" id="circle67"/>
	<circle cx="253.632" cy="172.053" r="4" fill="#0" id="circle68"/>
	<circle cx="256.895" cy="93.7368" r="4" fill="#0" id="circle69"/>
	<circle cx="261.789" cy="172.053" r="4" fill="#0" id="circle70"/>
	<circle cx="265.053" cy="93.7368" r="4" fill="#0" id="circle71"/>
	<circle cx="269.947" cy="172.053" r="4" fill="#0" id="circle72"/>
	<circle cx="273.211" cy="93.7368" r="4" fill="#0" id="circle73"/>
	<circle cx="278.105" cy="172.053" r="4" fill="#0" id="circle74"/>
	<circle cx="281.368" cy="93.7368" r="4" fill="#0" id="circle75"/>
	<circle cx="285.447" cy="176.132" r="4" fill="#0" id="circle76"/>
	<circle cx="289.526" cy="95.3684" r="4" fill="#0" id="circle77"/>
	<circle cx="293.605" cy="176.132" r="4" fill="#0" id="circle78"/>
	<circle cx="297.684" cy="97.8158" r="4" fill="#0" id="circle79"/>
	<circle cx="301.763" cy="176.132" r="4" fill="#0" id="circle80"/>
	<circle cx="305.842" cy="97.8158" r="4" fill="#0" id="circle81"/>
	<circle cx="309.921" cy="176.132" r="4" fill="#0" id="circle82"/>
	<circle cx="314" cy="97.8158" r="4" fill="#0" id="circle83"/>
	<circle cx="318.079" cy="176.132" r="4" fill="#0" id="circle84"/>
	<circle cx="322.158" cy="97.8158" r="4" fill="#0" id="circle85"/>
	<circle cx="325.421" cy="180.211" r="4" fill="#0" id="circle86"/>
	<circle cx="330.316" cy="99.4474" r="4" fill="#0" id="circle87"/>
	<circle cx="333.579" cy="180.211" r="4" fill="#0" id="circle88"/>
	<circle cx="338.474" cy="101.895" r="4" fill="#0" id="circle89"/>
	<circle cx="341.737" cy="180.211" r="4" fill="#0" id="circle90"/>
	<circle cx="346.632" cy="101.895" r="4" fill="#0" id="circle91"/>
	<circle cx="349.895" cy="180.211" r="4" fill="#0" id="circle92"/>
	<circle cx="354.789" cy="101.895" r="4" fill="#0" id="circle93"/>
	<circle cx="357.237" cy="184.289" r="4" fill="#0" id="circle94"/>
	<circle cx="362.947" cy="101.895" r="4" fill="#0" id="circle95"/>
	<circle cx="365.395" cy="184.289" r="4" fill="#0" id="circle96"/>
	<circle cx="370.289" cy="105.974" r="4" fill="#0" id="circle97"/>
	<circle cx="373.553" cy="184.289" r="4" fill="#0" id="circle98"/>
	<circle cx="378.447" cy="105.974" r="4" fill="#0" id="circle99"/>
	<circle cx="381.711" cy="184.289" r="4" fill="#0" id="circle100"/>
	<circle cx="386.605" cy="105.974" r="4" fill="#0" id="circle101"/>
	<circle cx="389.868" cy="184.289" r="4" fill="#0" id="circle102"/>
	<circle cx="394.763" cy="105.974" r="4" fill="#0" id="circle103"/>
	<circle cx="398.026" cy="184.289" r="4" fill="#0" id="circle104"/>
	<circle cx="402.921" cy="105.974" r="4" fill="#0" id="circle105"/>
	<circle cx="406.184" cy="184.289" r="4" fill="#0" id="circle106"/>
	<circle cx="411.079" cy="105.974" r="4" fill="#0" id="circle107"/>
	<circle cx="414.342" cy="184.289" r="4" fill="#0" id="circle108"/>
	<circle cx="419.237" cy="105.974" r="4" fill="#0" id="circle109"/>
	<circle cx="422.5" cy="184.289" r="4" fill="#0" id="circle110"/>
	<circle cx="427.395" cy="105.974" r="4" fill="#0" id="circle111"/>
	<circle cx="430.658" cy="184.289" r="4" fill="#0" id="circle112"/>
	<circle cx="435.553" cy="105.974" r="4" fill="#0" id="circle113"/>
	<circle cx="438.816" cy="184.289" r="4" fill="#0" id="circle114"/>
	<circle cx="443.711" cy="105.974" r="4" fill="#0" id="circle115"/>
	<circle cx="446.974" cy="184.289" r="4" fill="#0" id="circle116"/>
	<circle cx="451.868" cy="105.974" r="4" fill="#0" id="circle117"/>
	<circle cx="455.132" cy="184.289" r="4" fill="#0" id="circle118"/>
	<circle cx="460.026" cy="105.974" r="4" fill="#0" id="circle119"/>
	<circle cx="463.289" cy="184.289" r="4" fill="#0" id="circle120"/>
	<circle cx="468.184" cy="105.974" r="4" fill="#0" id="circle121"/>
	<circle cx="471.447" cy="184.289" r="4" fill="#0" id="circle122"/>
	<circle cx="476.342" cy="105.974" r="4" fill="#0" id="circle123"/>
	<circle cx="479.605" cy="184.289" r="4" fill="#0" id="circle124"/>
	<circle cx="484.5" cy="105.974" r="4" fill="#0" id="circle125"/>
	<circle cx="487.763" cy="184.289" r="4" fill="#0" id="circle126"/>
	<circle cx="492.658" cy="105.974" r="4" fill="#0" id="circle127"/>
	<circle cx="495.921" cy="184.289" r="4" fill="#0" id="circle128"/>
	<circle cx="500.816" cy="105.974" r="4" fill="#0" id="circle129"/>
	<circle cx="504.079" cy="184.289" r="4" fill="#0" id="circle130"/>
	<circle cx="508.974" cy="105.974" r="4" fill="#0" id="circle131"/>
	<circle cx="512.237" cy="184.289" r="4" fill="#0" id="circle132"/>
	<circle cx="516.316" cy="101.895" r="4" fill="#0" id="circle133"/>
	<circle cx="519.579" cy="180.211" r="4" fill="#0" id="circle134"/>
	<circle cx="524.474" cy="101.895" r="4" fill="#0" id="circle135"/>
	<circle cx="527.737" cy="180.211" r="4" fill="#0" id="circle136"/>
	<circle cx="532.632" cy="101.895" r="4" fill="#0" id="circle137"/>
	<circle cx="535.895" cy="180.211" r="4" fill="#0" id="circle138"/>
	<circle cx="540.789" cy="101.895" r="4" fill="#0" id="circle139"/>
	<circle cx="544.053" cy="180.211" r="4" fill="#0" id="circle140"/>
	<circle cx="548.947" cy="97.8158" r="4" fill="#0" id="circle141"/>
	<circle cx="552.211" cy="180.211" r="4" fill="#0" id="circle142"/>
	<circle cx="557.105" cy="97.8158" r="4" fill="#0" id="circle143"/>
	<circle cx="559.553" cy="176.132" r="4" fill="#0" id="circle144"/>
	<circle cx="565.263" cy="97.8158" r="4" fill="#0" id="circle145"/>
	<circle cx="567.711" cy="176.132" r="4" fill="#0" id="circle146"/>
	<circle cx="573.421" cy="97.8158" r="4" fill="#0" id="circle147"/>
	<circle cx="575.868" cy="176.132" r="4" fill="#0" id="circle148"/>
	<circle cx="581.579" cy="97.8158" r="4" fill="#0" id="circle149"/>
	<circle cx="584.026" cy="176.132" r="4" fill="#0" id="circle150"/>
	<circle cx="585.658" cy="89.6579" r="4" fill="#0" id="circle151"/>
	<circle cx="592.184" cy="83.1316" r="4" fill="#0" id="circle152"/>
	<circle cx="592.184" cy="176.132" r="4" fill="#0" id="circle153"/>
	<circle cx="598.711" cy="77.4211" r="4" fill="#0" id="circle154"/>
	<circle cx="599.526" cy="172.053" r="4" fill="#0" id="circle155"/>
	<circle cx="604.421" cy="70.8947" r="4" fill="#0" id="circle156"/>
	<circle cx="607.684" cy="172.053" r="4" fill="#0" id="circle157"/>
	<circle cx="610.947" cy="65.1842" r="4" fill="#0" id="circle158"/>
	<circle cx="615.842" cy="172.053" r="4" fill="#0" id="circle159"/>
	<circle cx="618.289" cy="61.1053" r="4" fill="#0" id="circle160"/>
	<circle cx="624" cy="172.053" r="4" fill="#0" id="circle161"/>
	<circle cx="624.816" cy="54.5789" r="4" fill="#0" id="circle162"/>
	<circle cx="631.342" cy="48.8684" r="4" fill="#0" id="circle163"/>
	<circle cx="632.158" cy="169.605" r="4" fill="#0" id="circle164"/>
	<circle cx="637.053" cy="42.3421" r="4" fill="#0" id="circle165"/>
	<circle cx="640.316" cy="167.974" r="4" fill="#0" id="circle166"/>
	<circle cx="645.211" cy="38.2632" r="4" fill="#0" id="circle167"/>
	<circle cx="648.474" cy="167.974" r="4" fill="#0" id="circle168"/>
	<circle cx="653.368" cy="34.1842" r="4" fill="#0" id="circle169"/>
	<circle cx="656.632" cy="167.974" r="4" fill="#0" id="circle170"/>
	<circle cx="661.526" cy="30.1053" r="4" fill="#0" id="circle171"/>
	<circle cx="664.789" cy="167.974" r="4" fill="#0" id="circle172"/>
	<circle cx="669.684" cy="28.4737" r="4" fill="#0" id="circle173"/>
	<circle cx="672.132" cy="163.895" r="4" fill="#0" id="circle174"/>
	<circle cx="677.026" cy="24.3947" r="4" fill="#0" id="circle175"/>
	<circle cx="680.289" cy="163.895" r="4" fill="#0" id="circle176"/>
	<circle cx="684.368" cy="20.3158" r="4" fill="#0" id="circle177"/>
	<circle cx="688.447" cy="163.895" r="4" fill="#0" id="circle178"/>
	<circle cx="692.526" cy="20.3158" r="4" fill="#0" id="circle179"/>
	<circle cx="696.605" cy="163.895" r="4" fill="#0" id="circle180"/>
	<circle cx="699.868" cy="16.2368" r="4" fill="#0" id="circle181"/>
	<circle cx="704.763" cy="163.895" r="4" fill="#0" id="circle182"/>
	<circle cx="708.026" cy="16.2368" r="4" fill="#0" id="circle183"/>
	<circle cx="712.921" cy="163.895" r="4" fill="#0" id="circle184"/>
	<circle cx="716.184" cy="16.2368" r="4" fill="#0" id="circle185"/>
	<circle cx="721.079" cy="163.895" r="4" fill="#0" id="circle186"/>
	<circle cx="723.526" cy="12.1579" r="4" fill="#0" id="circle187"/>
	<circle cx="729.237" cy="163.895" r="4" fill="#0" id="circle188"/>
	<circle cx="731.684" cy="12.1579" r="4" fill="#0" id="circle189"/>
	<circle cx="737.395" cy="163.895" r="4" fill="#0" id="circle190"/>
	<circle cx="739.026" cy="8.07895" r="4" fill="#0" id="circle191"/>
	<circle cx="745.553" cy="163.895" r="4" fill="#0" id="circle192"/>
	<circle cx="747.184" cy="8.07895" r="4" fill="#0" id="circle193"/>
	<circle cx="753.711" cy="163.895" r="4" fill="#0" id="circle194"/>
	<circle cx="755.342" cy="5.63158" r="4" fill="#0" id="circle195"/>
	<circle cx="761.868" cy="163.895" r="4" fill="#0" id="circle196"/>
	<circle cx="763.5" cy="4" r="4" fill="#0" id="circle197"/>
	<circle cx="770.026" cy="163.895" r="4" fill="#0" id="circle198"/>
	<circle cx="771.658" cy="4" r="4" fill="#0" id="circle199"/>
	<circle cx="778.184" cy="163.895" r="4" fill="#0" id="circle200"/>
	<circle cx="779.816" cy="4" r="4" fill="#0" id="circle201"/>
	<circle cx="786.342" cy="163.895" r="4" fill="#0" id="circle202"/>
	<circle cx="787.974" cy="4" r="4" fill="#0" id="circle203"/>
	<circle cx="794.5" cy="163.895" r="4" fill="#0" id="circle204"/>
	<circle cx="796.132" cy="4" r="4" fill="#0" id="circle205"/>
	<circle cx="802.658" cy="163.895" r="4" fill="#0" id="circle206"/>
	<circle cx="804.289" cy="4" r="4" fill="#0" id="circle207"/>
	<circle cx="810.816" cy="163.895" r="4" fill="#0" id="circle208"/>
	<circle cx="812.447" cy="4" r="4" fill="#0" id="circle209"/>
	<circle cx="818.158" cy="167.974" r="4" fill="#0" id="circle210"/>
	<circle cx="820.605" cy="4" r="4" fill="#0" id="circle211"/>
	<circle cx="826.316" cy="167.974" r="4" fill="#0" id="circle212"/>
	<circle cx="828.763" cy="4" r="4" fill="#0" id="circle213"/>
	<circle cx="834.474" cy="167.974" r="4" fill="#0" id="circle214"/>
	<circle cx="836.921" cy="4" r="4" fill="#0" id="circle215"/>
	<circle cx="842.632" cy="167.974" r="4" fill="#0" id="circle216"/>
	<circle cx="844.263" cy="8.07895" r="4" fill="#0" id="circle217"/>
	<circle cx="850.789" cy="167.974" r="4" fill="#0" id="circle218"/>
	<circle cx="852.421" cy="8.07895" r="4" fill="#0" id="circle219"/>
	<circle cx="858.132" cy="172.053" r="4" fill="#0" id="circle220"/>
	<circle cx="859.763" cy="12.1579" r="4" fill="#0" id="circle221"/>
	<circle cx="866.289" cy="172.053" r="4" fill="#0" id="circle222"/>
	<circle cx="867.921" cy="12.1579" r="4" fill="#0" id="circle223"/>
	<circle cx="873.632" cy="176.132" r="4" fill="#0" id="circle224"/>
	<circle cx="876.079" cy="12.9737" r="4" fill="#0" id="circle225"/>
	<circle cx="881.789" cy="176.132" r="4" fill="#0" id="circle226"/>
	<circle cx="884.237" cy="16.2368" r="4" fill="#0" id="circle227"/>
	<circle cx="889.947" cy="177.763" r="4" fill="#0" id="circle228"/>
	<circle cx="892.395" cy="17.0526" r="4" fill="#0" id="circle229"/>
	<circle cx="898.105" cy="180.211" r="4" fill="#0" id="circle230"/>
	<circle cx="899.737" cy="21.1316" r="4" fill="#0" id="circle231"/>
	<circle cx="906.263" cy="26.8421" r="4" fill="#0" id="circle232"/>
	<circle cx="906.263" cy="181.842" r="4" fill="#0" id="circle233"/>
	<circle cx="912.789" cy="32.5526" r="4" fill="#0" id="circle234"/>
	<circle cx="914.421" cy="184.289" r="4" fill="#0" id="circle235"/>
	<circle cx="920.132" cy="36.6316" r="4" fill="#0" id="circle236"/>
	<circle cx="922.579" cy="185.921" r="4" fill="#0" id="circle237"/>
	<circle cx="925.842" cy="43.1579" r="4" fill="#0" id="circle238"/>
	<circle cx="930.737" cy="188.368" r="4" fill="#0" id="circle239"/>
	<circle cx="934" cy="46.4211" r="4" fill="#0" id="circle240"/>
	<circle cx="938.895" cy="52.9474" r="4" fill="#0" id="circle241"/>
	<circle cx="938.895" cy="188.368" r="4" fill="#0" id="circle242"/>
	<circle cx="945.421" cy="57.8421" r="4" fill="#0" id="circle243"/>
	<circle cx="946.237" cy="192.447" r="4" fill="#0" id="circle244"/>
	<circle cx="951.132" cy="64.3684" r="4" fill="#0" id="circle245"/>
	<circle cx="954.395" cy="192.447" r="4" fill="#0" id="circle246"/>
	<circle cx="957.658" cy="70.0789" r="4" fill="#0" id="circle247"/>
	<circle cx="960.921" cy="78.2368" r="4" fill="#0" id="circle248"/>
	<circle cx="962.553" cy="192.447" r="4" fill="#0" id="circle249"/>
	<circle cx="967.447" cy="83.9474" r="4" fill="#0" id="circle250"/>
	<circle cx="970.711" cy="190" r="4" fill="#0" id="circle251"/>
	<circle cx="971.526" cy="91.2895" r="4" fill="#0" id="circle252"/>
	<circle cx="975.605" cy="98.6316" r="4" fill="#0" id="circle253"/>
	<circle cx="978.868" cy="185.921" r="4" fill="#0" id="circle254"/>
	<circle cx="979.684" cy="105.974" r="4" fill="#0" id="circle255"/>
	<circle cx="983.763" cy="113.316" r="4" fill="#0" id="circle256"/>
	<circle cx="985.395" cy="179.395" r="4" fill="#0" id="circle257"/>
	<circle cx="987.842" cy="120.658" r="4" fill="#0" id="circle258"/>
	<circle cx="991.105" cy="128.816" r="4" fill="#0" id="circle259"/>
	<circle cx="991.921" cy="136.974" r="4" fill="#0" id="circle260"/>
	<circle cx="991.921" cy="167.974" r="4" fill="#0" id="circle261"/>
	<circle cx="996" cy="144.316" r="4" fill="#0" id="circle262"/>
	<circle cx="996" cy="152.474" r="4" fill="#0" id="circle263"/>
	<circle cx="996" cy="160.632" r="4" fill="#0" id="circle264"/>
	</g>
</svg>