<?xml version="1.0" encoding="UTF-8" standalone="no"?>
<!-- Created with CurveBenchmark -->
<svg
	xmlns:dc="http://purl.org/dc/elements/1.1/"
	xmlns:cc="http://creativecommons.org/ns#"
	xmlns:rdf="http://www.w3.org/1999/02/22-rdf-syntax-ns#"
	xmlns:svg="http://www.w3.org/2000/svg"
	xmlns="http://www.w3.org/2000/svg"
	xmlns:sodipodi="http://sodipodi.sourceforge.net/DTD/sodipodi-0.dtd"
	xmlns:inkscape="http://www.inkscape.org/namespaces/inkscape"
	width="1000"
	height="1000"
	id="svg2"
	version="1.1"
	sodipodi:docname="manifold/peel-fish025.png.txt">
<defs
	id="defs4" />
<metadata
	id="metadata7">
	<rdf:RDF>
		<cc:Work
			rdf:about="">
			<dc:format>image/svg+xml</dc:format>
			<dc:type
				rdf:resource="http://purl.org/dc/dcmitype/StillImage" />
			<dc:title></dc:title>
		</cc:Work>
	</rdf:RDF>
</metadata>
<g
	inkscape:label="Layer 1"
	inkscape:groupmode="layer"
	id="layer1">
	<path style="fill:none;stroke:red;stroke-width:1px;stroke-linecap:butt;stroke-linejoin:miter;stroke-opacity:1" d="M 39.8554,266.94 18.9398,243.036 z" id="boundary" inkscape:connector-curvature="0" />
	<path style="fill:none;stroke:red;stroke-width:1px;stroke-linecap:butt;stroke-linejoin:miter;stroke-opacity:1" d="M 18.9398,243.036 4,216.145 z" id="boundary" inkscape:connector-curvature="0" />
	<path style="fill:none;stroke:red;stroke-width:1px;stroke-linecap:butt;stroke-linejoin:miter;stroke-opacity:1" d="M 4,216.145 27.9036,198.217 z" id="boundary" inkscape:connector-curvature="0" />
	<path style="fill:none;stroke:red;stroke-width:1px;stroke-linecap:butt;stroke-linejoin:miter;stroke-opacity:1" d="M 57.7831,290.843 39.8554,266.94 z" id="boundary" inkscape:connector-curvature="0" />
	<path style="fill:none;stroke:red;stroke-width:1px;stroke-linecap:butt;stroke-linejoin:miter;stroke-opacity:1" d="M 54.7952,183.277 27.9036,198.217 z" id="boundary" inkscape:connector-curvature="0" />
	<path style="fill:none;stroke:red;stroke-width:1px;stroke-linecap:butt;stroke-linejoin:miter;stroke-opacity:1" d="M 81.6867,168.337 54.7952,183.277 z" id="boundary" inkscape:connector-curvature="0" />
	<path style="fill:none;stroke:red;stroke-width:1px;stroke-linecap:butt;stroke-linejoin:miter;stroke-opacity:1" d="M 81.6867,311.759 57.7831,290.843 z" id="boundary" inkscape:connector-curvature="0" />
	<path style="fill:none;stroke:red;stroke-width:1px;stroke-linecap:butt;stroke-linejoin:miter;stroke-opacity:1" d="M 108.578,153.398 81.6867,168.337 z" id="boundary" inkscape:connector-curvature="0" />
	<path style="fill:none;stroke:red;stroke-width:1px;stroke-linecap:butt;stroke-linejoin:miter;stroke-opacity:1" d="M 108.578,326.699 81.6867,311.759 z" id="boundary" inkscape:connector-curvature="0" />
	<path style="fill:none;stroke:red;stroke-width:1px;stroke-linecap:butt;stroke-linejoin:miter;stroke-opacity:1" d="M 138.458,141.446 108.578,153.398 z" id="boundary" inkscape:connector-curvature="0" />
	<path style="fill:none;stroke:red;stroke-width:1px;stroke-linecap:butt;stroke-linejoin:miter;stroke-opacity:1" d="M 308.771,452.193 332.675,473.108 z" id="boundary" inkscape:connector-curvature="0" />
	<path style="fill:none;stroke:red;stroke-width:1px;stroke-linecap:butt;stroke-linejoin:miter;stroke-opacity:1" d="M 138.458,338.651 108.578,326.699 z" id="boundary" inkscape:connector-curvature="0" />
	<path style="fill:none;stroke:red;stroke-width:1px;stroke-linecap:butt;stroke-linejoin:miter;stroke-opacity:1" d="M 168.337,132.482 138.458,141.446 z" id="boundary" inkscape:connector-curvature="0" />
	<path style="fill:none;stroke:red;stroke-width:1px;stroke-linecap:butt;stroke-linejoin:miter;stroke-opacity:1" d="M 168.337,350.602 138.458,338.651 z" id="boundary" inkscape:connector-curvature="0" />
	<path style="fill:none;stroke:red;stroke-width:1px;stroke-linecap:butt;stroke-linejoin:miter;stroke-opacity:1" d="M 198.217,120.53 168.337,132.482 z" id="boundary" inkscape:connector-curvature="0" />
	<path style="fill:none;stroke:red;stroke-width:1px;stroke-linecap:butt;stroke-linejoin:miter;stroke-opacity:1" d="M 198.217,362.554 168.337,350.602 z" id="boundary" inkscape:connector-curvature="0" />
	<path style="fill:none;stroke:red;stroke-width:1px;stroke-linecap:butt;stroke-linejoin:miter;stroke-opacity:1" d="M 228.096,108.578 198.217,120.53 z" id="boundary" inkscape:connector-curvature="0" />
	<path style="fill:none;stroke:red;stroke-width:1px;stroke-linecap:butt;stroke-linejoin:miter;stroke-opacity:1" d="M 228.096,374.506 198.217,362.554 z" id="boundary" inkscape:connector-curvature="0" />
	<path style="fill:none;stroke:red;stroke-width:1px;stroke-linecap:butt;stroke-linejoin:miter;stroke-opacity:1" d="M 257.976,102.602 228.096,108.578 z" id="boundary" inkscape:connector-curvature="0" />
	<path style="fill:none;stroke:red;stroke-width:1px;stroke-linecap:butt;stroke-linejoin:miter;stroke-opacity:1" d="M 293.831,425.301 308.771,452.193 z" id="boundary" inkscape:connector-curvature="0" />
	<path style="fill:none;stroke:red;stroke-width:1px;stroke-linecap:butt;stroke-linejoin:miter;stroke-opacity:1" d="M 257.976,380.482 228.096,374.506 z" id="boundary" inkscape:connector-curvature="0" />
	<path style="fill:none;stroke:red;stroke-width:1px;stroke-linecap:butt;stroke-linejoin:miter;stroke-opacity:1" d="M 257.976,380.482 284.867,395.422 z" id="boundary" inkscape:connector-curvature="0" />
	<path style="fill:none;stroke:red;stroke-width:1px;stroke-linecap:butt;stroke-linejoin:miter;stroke-opacity:1" d="M 284.867,395.422 293.831,425.301 z" id="boundary" inkscape:connector-curvature="0" />
	<path style="fill:none;stroke:red;stroke-width:1px;stroke-linecap:butt;stroke-linejoin:miter;stroke-opacity:1" d="M 257.976,102.602 287.855,96.6265 z" id="boundary" inkscape:connector-curvature="0" />
	<path style="fill:none;stroke:red;stroke-width:1px;stroke-linecap:butt;stroke-linejoin:miter;stroke-opacity:1" d="M 296.819,48.8193 326.699,30.8916 z" id="boundary" inkscape:connector-curvature="0" />
	<path style="fill:none;stroke:red;stroke-width:1px;stroke-linecap:butt;stroke-linejoin:miter;stroke-opacity:1" d="M 296.819,48.8193 287.855,96.6265 z" id="boundary" inkscape:connector-curvature="0" />
	<path style="fill:none;stroke:red;stroke-width:1px;stroke-linecap:butt;stroke-linejoin:miter;stroke-opacity:1" d="M 431.277,18.9398 401.398,6.98795 z" id="boundary" inkscape:connector-curvature="0" />
	<path style="fill:none;stroke:red;stroke-width:1px;stroke-linecap:butt;stroke-linejoin:miter;stroke-opacity:1" d="M 401.398,6.98795 371.518,9.9759 z" id="boundary" inkscape:connector-curvature="0" />
	<path style="fill:none;stroke:red;stroke-width:1px;stroke-linecap:butt;stroke-linejoin:miter;stroke-opacity:1" d="M 341.639,4 371.518,9.9759 z" id="boundary" inkscape:connector-curvature="0" />
	<path style="fill:none;stroke:red;stroke-width:1px;stroke-linecap:butt;stroke-linejoin:miter;stroke-opacity:1" d="M 341.639,4 326.699,30.8916 z" id="boundary" inkscape:connector-curvature="0" />
	<path style="fill:none;stroke:red;stroke-width:1px;stroke-linecap:butt;stroke-linejoin:miter;stroke-opacity:1" d="M 485.06,42.8434 461.157,24.9157 z" id="boundary" inkscape:connector-curvature="0" />
	<path style="fill:none;stroke:red;stroke-width:1px;stroke-linecap:butt;stroke-linejoin:miter;stroke-opacity:1" d="M 461.157,24.9157 431.277,18.9398 z" id="boundary" inkscape:connector-curvature="0" />
	<path style="fill:none;stroke:red;stroke-width:1px;stroke-linecap:butt;stroke-linejoin:miter;stroke-opacity:1" d="M 389.446,473.108 359.566,488.048 z" id="boundary" inkscape:connector-curvature="0" />
	<path style="fill:none;stroke:red;stroke-width:1px;stroke-linecap:butt;stroke-linejoin:miter;stroke-opacity:1" d="M 359.566,488.048 332.675,473.108 z" id="boundary" inkscape:connector-curvature="0" />
	<path style="fill:none;stroke:red;stroke-width:1px;stroke-linecap:butt;stroke-linejoin:miter;stroke-opacity:1" d="M 419.325,482.072 389.446,473.108 z" id="boundary" inkscape:connector-curvature="0" />
	<path style="fill:none;stroke:red;stroke-width:1px;stroke-linecap:butt;stroke-linejoin:miter;stroke-opacity:1" d="M 449.205,482.072 419.325,482.072 z" id="boundary" inkscape:connector-curvature="0" />
	<path style="fill:none;stroke:red;stroke-width:1px;stroke-linecap:butt;stroke-linejoin:miter;stroke-opacity:1" d="M 452.193,374.506 461.157,404.386 z" id="boundary" inkscape:connector-curvature="0" />
	<path style="fill:none;stroke:red;stroke-width:1px;stroke-linecap:butt;stroke-linejoin:miter;stroke-opacity:1" d="M 467.133,434.265 461.157,404.386 z" id="boundary" inkscape:connector-curvature="0" />
	<path style="fill:none;stroke:red;stroke-width:1px;stroke-linecap:butt;stroke-linejoin:miter;stroke-opacity:1" d="M 482.072,368.53 511.952,368.53 z" id="boundary" inkscape:connector-curvature="0" />
	<path style="fill:none;stroke:red;stroke-width:1px;stroke-linecap:butt;stroke-linejoin:miter;stroke-opacity:1" d="M 467.133,434.265 449.205,482.072 z" id="boundary" inkscape:connector-curvature="0" />
	<path style="fill:none;stroke:red;stroke-width:1px;stroke-linecap:butt;stroke-linejoin:miter;stroke-opacity:1" d="M 452.193,374.506 482.072,368.53 z" id="boundary" inkscape:connector-curvature="0" />
	<path style="fill:none;stroke:red;stroke-width:1px;stroke-linecap:butt;stroke-linejoin:miter;stroke-opacity:1" d="M 511.952,368.53 541.831,368.53 z" id="boundary" inkscape:connector-curvature="0" />
	<path style="fill:none;stroke:red;stroke-width:1px;stroke-linecap:butt;stroke-linejoin:miter;stroke-opacity:1" d="M 514.94,54.7952 485.06,42.8434 z" id="boundary" inkscape:connector-curvature="0" />
	<path style="fill:none;stroke:red;stroke-width:1px;stroke-linecap:butt;stroke-linejoin:miter;stroke-opacity:1" d="M 514.94,54.7952 544.819,66.747 z" id="boundary" inkscape:connector-curvature="0" />
	<path style="fill:none;stroke:red;stroke-width:1px;stroke-linecap:butt;stroke-linejoin:miter;stroke-opacity:1" d="M 544.819,66.747 565.735,90.6506 z" id="boundary" inkscape:connector-curvature="0" />
	<path style="fill:none;stroke:red;stroke-width:1px;stroke-linecap:butt;stroke-linejoin:miter;stroke-opacity:1" d="M 541.831,368.53 571.711,368.53 z" id="boundary" inkscape:connector-curvature="0" />
	<path style="fill:none;stroke:red;stroke-width:1px;stroke-linecap:butt;stroke-linejoin:miter;stroke-opacity:1" d="M 595.614,96.6265 565.735,90.6506 z" id="boundary" inkscape:connector-curvature="0" />
	<path style="fill:none;stroke:red;stroke-width:1px;stroke-linecap:butt;stroke-linejoin:miter;stroke-opacity:1" d="M 601.59,362.554 631.47,362.554 z" id="boundary" inkscape:connector-curvature="0" />
	<path style="fill:none;stroke:red;stroke-width:1px;stroke-linecap:butt;stroke-linejoin:miter;stroke-opacity:1" d="M 631.47,362.554 661.349,374.506 z" id="boundary" inkscape:connector-curvature="0" />
	<path style="fill:none;stroke:red;stroke-width:1px;stroke-linecap:butt;stroke-linejoin:miter;stroke-opacity:1" d="M 601.59,362.554 571.711,368.53 z" id="boundary" inkscape:connector-curvature="0" />
	<path style="fill:none;stroke:red;stroke-width:1px;stroke-linecap:butt;stroke-linejoin:miter;stroke-opacity:1" d="M 712.145,90.6506 733.06,114.554 z" id="boundary" inkscape:connector-curvature="0" />
	<path style="fill:none;stroke:red;stroke-width:1px;stroke-linecap:butt;stroke-linejoin:miter;stroke-opacity:1" d="M 595.614,96.6265 625.494,84.6747 z" id="boundary" inkscape:connector-curvature="0" />
	<path style="fill:none;stroke:red;stroke-width:1px;stroke-linecap:butt;stroke-linejoin:miter;stroke-opacity:1" d="M 655.373,72.7229 685.253,75.7108 z" id="boundary" inkscape:connector-curvature="0" />
	<path style="fill:none;stroke:red;stroke-width:1px;stroke-linecap:butt;stroke-linejoin:miter;stroke-opacity:1" d="M 655.373,72.7229 625.494,84.6747 z" id="boundary" inkscape:connector-curvature="0" />
	<path style="fill:none;stroke:red;stroke-width:1px;stroke-linecap:butt;stroke-linejoin:miter;stroke-opacity:1" d="M 685.253,75.7108 712.145,90.6506 z" id="boundary" inkscape:connector-curvature="0" />
	<path style="fill:none;stroke:red;stroke-width:1px;stroke-linecap:butt;stroke-linejoin:miter;stroke-opacity:1" d="M 691.229,383.47 661.349,374.506 z" id="boundary" inkscape:connector-curvature="0" />
	<path style="fill:none;stroke:red;stroke-width:1px;stroke-linecap:butt;stroke-linejoin:miter;stroke-opacity:1" d="M 756.964,135.47 733.06,114.554 z" id="boundary" inkscape:connector-curvature="0" />
	<path style="fill:none;stroke:red;stroke-width:1px;stroke-linecap:butt;stroke-linejoin:miter;stroke-opacity:1" d="M 721.108,386.458 691.229,383.47 z" id="boundary" inkscape:connector-curvature="0" />
	<path style="fill:none;stroke:red;stroke-width:1px;stroke-linecap:butt;stroke-linejoin:miter;stroke-opacity:1" d="M 774.892,159.373 756.964,135.47 z" id="boundary" inkscape:connector-curvature="0" />
	<path style="fill:none;stroke:red;stroke-width:1px;stroke-linecap:butt;stroke-linejoin:miter;stroke-opacity:1" d="M 750.988,380.482 721.108,386.458 z" id="boundary" inkscape:connector-curvature="0" />
	<path style="fill:none;stroke:red;stroke-width:1px;stroke-linecap:butt;stroke-linejoin:miter;stroke-opacity:1" d="M 918.313,344.627 948.193,353.59 z" id="boundary" inkscape:connector-curvature="0" />
	<path style="fill:none;stroke:red;stroke-width:1px;stroke-linecap:butt;stroke-linejoin:miter;stroke-opacity:1" d="M 765.928,353.59 750.988,380.482 z" id="boundary" inkscape:connector-curvature="0" />
	<path style="fill:none;stroke:red;stroke-width:1px;stroke-linecap:butt;stroke-linejoin:miter;stroke-opacity:1" d="M 837.639,299.807 861.542,317.735 z" id="boundary" inkscape:connector-curvature="0" />
	<path style="fill:none;stroke:red;stroke-width:1px;stroke-linecap:butt;stroke-linejoin:miter;stroke-opacity:1" d="M 777.88,317.735 765.928,353.59 z" id="boundary" inkscape:connector-curvature="0" />
	<path style="fill:none;stroke:red;stroke-width:1px;stroke-linecap:butt;stroke-linejoin:miter;stroke-opacity:1" d="M 780.867,284.867 777.88,317.735 z" id="boundary" inkscape:connector-curvature="0" />
	<path style="fill:none;stroke:red;stroke-width:1px;stroke-linecap:butt;stroke-linejoin:miter;stroke-opacity:1" d="M 810.747,284.867 837.639,299.807 z" id="boundary" inkscape:connector-curvature="0" />
	<path style="fill:none;stroke:red;stroke-width:1px;stroke-linecap:butt;stroke-linejoin:miter;stroke-opacity:1" d="M 792.819,183.277 774.892,159.373 z" id="boundary" inkscape:connector-curvature="0" />
	<path style="fill:none;stroke:red;stroke-width:1px;stroke-linecap:butt;stroke-linejoin:miter;stroke-opacity:1" d="M 780.867,284.867 810.747,284.867 z" id="boundary" inkscape:connector-curvature="0" />
	<path style="fill:none;stroke:red;stroke-width:1px;stroke-linecap:butt;stroke-linejoin:miter;stroke-opacity:1" d="M 822.699,180.289 792.819,183.277 z" id="boundary" inkscape:connector-curvature="0" />
	<path style="fill:none;stroke:red;stroke-width:1px;stroke-linecap:butt;stroke-linejoin:miter;stroke-opacity:1" d="M 852.578,168.337 822.699,180.289 z" id="boundary" inkscape:connector-curvature="0" />
	<path style="fill:none;stroke:red;stroke-width:1px;stroke-linecap:butt;stroke-linejoin:miter;stroke-opacity:1" d="M 861.542,317.735 888.434,332.675 z" id="boundary" inkscape:connector-curvature="0" />
	<path style="fill:none;stroke:red;stroke-width:1px;stroke-linecap:butt;stroke-linejoin:miter;stroke-opacity:1" d="M 879.47,153.398 852.578,168.337 z" id="boundary" inkscape:connector-curvature="0" />
	<path style="fill:none;stroke:red;stroke-width:1px;stroke-linecap:butt;stroke-linejoin:miter;stroke-opacity:1" d="M 975.084,210.169 975.084,240.048 z" id="boundary" inkscape:connector-curvature="0" />
	<path style="fill:none;stroke:red;stroke-width:1px;stroke-linecap:butt;stroke-linejoin:miter;stroke-opacity:1" d="M 906.361,138.458 879.47,153.398 z" id="boundary" inkscape:connector-curvature="0" />
	<path style="fill:none;stroke:red;stroke-width:1px;stroke-linecap:butt;stroke-linejoin:miter;stroke-opacity:1" d="M 918.313,344.627 888.434,332.675 z" id="boundary" inkscape:connector-curvature="0" />
	<path style="fill:none;stroke:red;stroke-width:1px;stroke-linecap:butt;stroke-linejoin:miter;stroke-opacity:1" d="M 936.241,126.506 906.361,138.458 z" id="boundary" inkscape:connector-curvature="0" />
	<path style="fill:none;stroke:red;stroke-width:1px;stroke-linecap:butt;stroke-linejoin:miter;stroke-opacity:1" d="M 948.193,353.59 978.072,356.578 z" id="boundary" inkscape:connector-curvature="0" />
	<path style="fill:none;stroke:red;stroke-width:1px;stroke-linecap:butt;stroke-linejoin:miter;stroke-opacity:1" d="M 975.084,269.928 975.084,240.048 z" id="boundary" inkscape:connector-curvature="0" />
	<path style="fill:none;stroke:red;stroke-width:1px;stroke-linecap:butt;stroke-linejoin:miter;stroke-opacity:1" d="M 966.12,120.53 936.241,126.506 z" id="boundary" inkscape:connector-curvature="0" />
	<path style="fill:none;stroke:red;stroke-width:1px;stroke-linecap:butt;stroke-linejoin:miter;stroke-opacity:1" d="M 984.048,299.807 993.012,329.687 z" id="boundary" inkscape:connector-curvature="0" />
	<path style="fill:none;stroke:red;stroke-width:1px;stroke-linecap:butt;stroke-linejoin:miter;stroke-opacity:1" d="M 975.084,269.928 984.048,299.807 z" id="boundary" inkscape:connector-curvature="0" />
	<path style="fill:none;stroke:red;stroke-width:1px;stroke-linecap:butt;stroke-linejoin:miter;stroke-opacity:1" d="M 975.084,210.169 987.036,162.361 z" id="boundary" inkscape:connector-curvature="0" />
	<path style="fill:none;stroke:red;stroke-width:1px;stroke-linecap:butt;stroke-linejoin:miter;stroke-opacity:1" d="M 993.012,329.687 978.072,356.578 z" id="boundary" inkscape:connector-curvature="0" />
	<path style="fill:none;stroke:red;stroke-width:1px;stroke-linecap:butt;stroke-linejoin:miter;stroke-opacity:1" d="M 996,129.494 987.036,162.361 z" id="boundary" inkscape:connector-curvature="0" />
	<path style="fill:none;stroke:red;stroke-width:1px;stroke-linecap:butt;stroke-linejoin:miter;stroke-opacity:1" d="M 966.12,120.53 996,129.494 z" id="boundary" inkscape:connector-curvature="0" />
	<circle cx="4" cy="216.145" r="4" fill="#0" id="circle0"/>
	<circle cx="18.9398" cy="243.036" r="4" fill="#0" id="circle1"/>
	<circle cx="27.9036" cy="198.217" r="4" fill="#0" id="circle2"/>
	<circle cx="39.8554" cy="266.94" r="4" fill="#0" id="circle3"/>
	<circle cx="54.7952" cy="183.277" r="4" fill="#0" id="circle4"/>
	<circle cx="57.7831" cy="290.843" r="4" fill="#0" id="circle5"/>
	<circle cx="81.6867" cy="168.337" r="4" fill="#0" id="circle6"/>
	<circle cx="81.6867" cy="311.759" r="4" fill="#0" id="circle7"/>
	<circle cx="108.578" cy="153.398" r="4" fill="#0" id="circle8"/>
	<circle cx="108.578" cy="326.699" r="4" fill="#0" id="circle9"/>
	<circle cx="138.458" cy="141.446" r="4" fill="#0" id="circle10"/>
	<circle cx="138.458" cy="338.651" r="4" fill="#0" id="circle11"/>
	<circle cx="168.337" cy="132.482" r="4" fill="#0" id="circle12"/>
	<circle cx="168.337" cy="350.602" r="4" fill="#0" id="circle13"/>
	<circle cx="198.217" cy="120.53" r="4" fill="#0" id="circle14"/>
	<circle cx="198.217" cy="362.554" r="4" fill="#0" id="circle15"/>
	<circle cx="228.096" cy="108.578" r="4" fill="#0" id="circle16"/>
	<circle cx="228.096" cy="374.506" r="4" fill="#0" id="circle17"/>
	<circle cx="257.976" cy="102.602" r="4" fill="#0" id="circle18"/>
	<circle cx="257.976" cy="380.482" r="4" fill="#0" id="circle19"/>
	<circle cx="284.867" cy="395.422" r="4" fill="#0" id="circle20"/>
	<circle cx="287.855" cy="96.6265" r="4" fill="#0" id="circle21"/>
	<circle cx="293.831" cy="425.301" r="4" fill="#0" id="circle22"/>
	<circle cx="296.819" cy="48.8193" r="4" fill="#0" id="circle23"/>
	<circle cx="308.771" cy="452.193" r="4" fill="#0" id="circle24"/>
	<circle cx="326.699" cy="30.8916" r="4" fill="#0" id="circle25"/>
	<circle cx="332.675" cy="473.108" r="4" fill="#0" id="circle26"/>
	<circle cx="341.639" cy="4" r="4" fill="#0" id="circle27"/>
	<circle cx="359.566" cy="488.048" r="4" fill="#0" id="circle28"/>
	<circle cx="371.518" cy="9.9759" r="4" fill="#0" id="circle29"/>
	<circle cx="389.446" cy="473.108" r="4" fill="#0" id="circle30"/>
	<circle cx="401.398" cy="6.98795" r="4" fill="#0" id="circle31"/>
	<circle cx="419.325" cy="482.072" r="4" fill="#0" id="circle32"/>
	<circle cx="431.277" cy="18.9398" r="4" fill="#0" id="circle33"/>
	<circle cx="449.205" cy="482.072" r="4" fill="#0" id="circle34"/>
	<circle cx="452.193" cy="374.506" r="4" fill="#0" id="circle35"/>
	<circle cx="461.157" cy="24.9157" r="4" fill="#0" id="circle36"/>
	<circle cx="461.157" cy="404.386" r="4" fill="#0" id="circle37"/>
	<circle cx="467.133" cy="434.265" r="4" fill="#0" id="circle38"/>
	<circle cx="482.072" cy="368.53" r="4" fill="#0" id="circle39"/>
	<circle cx="485.06" cy="42.8434" r="4" fill="#0" id="circle40"/>
	<circle cx="511.952" cy="368.53" r="4" fill="#0" id="circle41"/>
	<circle cx="514.94" cy="54.7952" r="4" fill="#0" id="circle42"/>
	<circle cx="541.831" cy="368.53" r="4" fill="#0" id="circle43"/>
	<circle cx="544.819" cy="66.747" r="4" fill="#0" id="circle44"/>
	<circle cx="565.735" cy="90.6506" r="4" fill="#0" id="circle45"/>
	<circle cx="571.711" cy="368.53" r="4" fill="#0" id="circle46"/>
	<circle cx="595.614" cy="96.6265" r="4" fill="#0" id="circle47"/>
	<circle cx="601.59" cy="362.554" r="4" fill="#0" id="circle48"/>
	<circle cx="625.494" cy="84.6747" r="4" fill="#0" id="circle49"/>
	<circle cx="631.47" cy="362.554" r="4" fill="#0" id="circle50"/>
	<circle cx="655.373" cy="72.7229" r="4" fill="#0" id="circle51"/>
	<circle cx="661.349" cy="374.506" r="4" fill="#0" id="circle52"/>
	<circle cx="685.253" cy="75.7108" r="4" fill="#0" id="circle53"/>
	<circle cx="691.229" cy="383.47" r="4" fill="#0" id="circle54"/>
	<circle cx="712.145" cy="90.6506" r="4" fill="#0" id="circle55"/>
	<circle cx="721.108" cy="386.458" r="4" fill="#0" id="circle56"/>
	<circle cx="733.06" cy="114.554" r="4" fill="#0" id="circle57"/>
	<circle cx="750.988" cy="380.482" r="4" fill="#0" id="circle58"/>
	<circle cx="756.964" cy="135.47" r="4" fill="#0" id="circle59"/>
	<circle cx="765.928" cy="353.59" r="4" fill="#0" id="circle60"/>
	<circle cx="774.892" cy="159.373" r="4" fill="#0" id="circle61"/>
	<circle cx="777.88" cy="317.735" r="4" fill="#0" id="circle62"/>
	<circle cx="780.867" cy="284.867" r="4" fill="#0" id="circle63"/>
	<circle cx="792.819" cy="183.277" r="4" fill="#0" id="circle64"/>
	<circle cx="810.747" cy="284.867" r="4" fill="#0" id="circle65"/>
	<circle cx="822.699" cy="180.289" r="4" fill="#0" id="circle66"/>
	<circle cx="837.639" cy="299.807" r="4" fill="#0" id="circle67"/>
	<circle cx="852.578" cy="168.337" r="4" fill="#0" id="circle68"/>
	<circle cx="861.542" cy="317.735" r="4" fill="#0" id="circle69"/>
	<circle cx="879.47" cy="153.398" r="4" fill="#0" id="circle70"/>
	<circle cx="888.434" cy="332.675" r="4" fill="#0" id="circle71"/>
	<circle cx="906.361" cy="138.458" r="4" fill="#0" id="circle72"/>
	<circle cx="918.313" cy="344.627" r="4" fill="#0" id="circle73"/>
	<circle cx="936.241" cy="126.506" r="4" fill="#0" id="circle74"/>
	<circle cx="948.193" cy="353.59" r="4" fill="#0" id="circle75"/>
	<circle cx="966.12" cy="120.53" r="4" fill="#0" id="circle76"/>
	<circle cx="975.084" cy="210.169" r="4" fill="#0" id="circle77"/>
	<circle cx="975.084" cy="240.048" r="4" fill="#0" id="circle78"/>
	<circle cx="975.084" cy="269.928" r="4" fill="#0" id="circle79"/>
	<circle cx="978.072" cy="356.578" r="4" fill="#0" id="circle80"/>
	<circle cx="984.048" cy="299.807" r="4" fill="#0" id="circle81"/>
	<circle cx="987.036" cy="162.361" r="4" fill="#0" id="circle82"/>
	<circle cx="993.012" cy="329.687" r="4" fill="#0" id="circle83"/>
	<circle cx="996" cy="129.494" r="4" fill="#0" id="circle84"/>
	</g>
</svg>