<?xml version="1.0" encoding="UTF-8" standalone="no"?>
<!-- Created with CurveBenchmark -->
<svg
	xmlns:dc="http://purl.org/dc/elements/1.1/"
	xmlns:cc="http://creativecommons.org/ns#"
	xmlns:rdf="http://www.w3.org/1999/02/22-rdf-syntax-ns#"
	xmlns:svg="http://www.w3.org/2000/svg"
	xmlns="http://www.w3.org/2000/svg"
	xmlns:sodipodi="http://sodipodi.sourceforge.net/DTD/sodipodi-0.dtd"
	xmlns:inkscape="http://www.inkscape.org/namespaces/inkscape"
	width="1000"
	height="1000"
	id="svg2"
	version="1.1"
	sodipodi:docname="manifold/peel-fish040.png.txt">
<defs
	id="defs4" />
<metadata
	id="metadata7">
	<rdf:RDF>
		<cc:Work
			rdf:about="">
			<dc:format>image/svg+xml</dc:format>
			<dc:type
				rdf:resource="http://purl.org/dc/dcmitype/StillImage" />
			<dc:title></dc:title>
		</cc:Work>
	</rdf:RDF>
</metadata>
<g
	inkscape:label="Layer 1"
	inkscape:groupmode="layer"
	id="layer1">
	<path style="fill:none;stroke:red;stroke-width:1px;stroke-linecap:butt;stroke-linejoin:miter;stroke-opacity:1" d="M 35.6596,317.078 14.5532,288.936 z" id="boundary" inkscape:connector-curvature="0" />
	<path style="fill:none;stroke:red;stroke-width:1px;stroke-linecap:butt;stroke-linejoin:miter;stroke-opacity:1" d="M 14.5532,288.936 4,253.759 z" id="boundary" inkscape:connector-curvature="0" />
	<path style="fill:none;stroke:red;stroke-width:1px;stroke-linecap:butt;stroke-linejoin:miter;stroke-opacity:1" d="M 4,253.759 32.1418,225.617 z" id="boundary" inkscape:connector-curvature="0" />
	<path style="fill:none;stroke:red;stroke-width:1px;stroke-linecap:butt;stroke-linejoin:miter;stroke-opacity:1" d="M 63.8014,208.028 32.1418,225.617 z" id="boundary" inkscape:connector-curvature="0" />
	<path style="fill:none;stroke:red;stroke-width:1px;stroke-linecap:butt;stroke-linejoin:miter;stroke-opacity:1" d="M 35.6596,317.078 56.766,345.22 z" id="boundary" inkscape:connector-curvature="0" />
	<path style="fill:none;stroke:red;stroke-width:1px;stroke-linecap:butt;stroke-linejoin:miter;stroke-opacity:1" d="M 91.9433,183.404 127.121,169.333 z" id="boundary" inkscape:connector-curvature="0" />
	<path style="fill:none;stroke:red;stroke-width:1px;stroke-linecap:butt;stroke-linejoin:miter;stroke-opacity:1" d="M 91.9433,183.404 63.8014,208.028 z" id="boundary" inkscape:connector-curvature="0" />
	<path style="fill:none;stroke:red;stroke-width:1px;stroke-linecap:butt;stroke-linejoin:miter;stroke-opacity:1" d="M 109.532,390.95 77.8723,373.362 z" id="boundary" inkscape:connector-curvature="0" />
	<path style="fill:none;stroke:red;stroke-width:1px;stroke-linecap:butt;stroke-linejoin:miter;stroke-opacity:1" d="M 77.8723,373.362 56.766,345.22 z" id="boundary" inkscape:connector-curvature="0" />
	<path style="fill:none;stroke:red;stroke-width:1px;stroke-linecap:butt;stroke-linejoin:miter;stroke-opacity:1" d="M 144.709,405.021 109.532,390.95 z" id="boundary" inkscape:connector-curvature="0" />
	<path style="fill:none;stroke:red;stroke-width:1px;stroke-linecap:butt;stroke-linejoin:miter;stroke-opacity:1" d="M 162.298,155.262 127.121,169.333 z" id="boundary" inkscape:connector-curvature="0" />
	<path style="fill:none;stroke:red;stroke-width:1px;stroke-linecap:butt;stroke-linejoin:miter;stroke-opacity:1" d="M 271.348,468.34 278.383,503.518 z" id="boundary" inkscape:connector-curvature="0" />
	<path style="fill:none;stroke:red;stroke-width:1px;stroke-linecap:butt;stroke-linejoin:miter;stroke-opacity:1" d="M 179.887,415.574 144.709,405.021 z" id="boundary" inkscape:connector-curvature="0" />
	<path style="fill:none;stroke:red;stroke-width:1px;stroke-linecap:butt;stroke-linejoin:miter;stroke-opacity:1" d="M 197.475,141.191 162.298,155.262 z" id="boundary" inkscape:connector-curvature="0" />
	<path style="fill:none;stroke:red;stroke-width:1px;stroke-linecap:butt;stroke-linejoin:miter;stroke-opacity:1" d="M 211.546,433.163 179.887,415.574 z" id="boundary" inkscape:connector-curvature="0" />
	<path style="fill:none;stroke:red;stroke-width:1px;stroke-linecap:butt;stroke-linejoin:miter;stroke-opacity:1" d="M 232.652,127.121 197.475,141.191 z" id="boundary" inkscape:connector-curvature="0" />
	<path style="fill:none;stroke:red;stroke-width:1px;stroke-linecap:butt;stroke-linejoin:miter;stroke-opacity:1" d="M 278.383,503.518 292.454,538.695 z" id="boundary" inkscape:connector-curvature="0" />
	<path style="fill:none;stroke:red;stroke-width:1px;stroke-linecap:butt;stroke-linejoin:miter;stroke-opacity:1" d="M 246.723,440.199 211.546,433.163 z" id="boundary" inkscape:connector-curvature="0" />
	<path style="fill:none;stroke:red;stroke-width:1px;stroke-linecap:butt;stroke-linejoin:miter;stroke-opacity:1" d="M 267.83,120.085 232.652,127.121 z" id="boundary" inkscape:connector-curvature="0" />
	<path style="fill:none;stroke:red;stroke-width:1px;stroke-linecap:butt;stroke-linejoin:miter;stroke-opacity:1" d="M 271.348,468.34 246.723,440.199 z" id="boundary" inkscape:connector-curvature="0" />
	<path style="fill:none;stroke:red;stroke-width:1px;stroke-linecap:butt;stroke-linejoin:miter;stroke-opacity:1" d="M 303.007,91.9433 267.83,120.085 z" id="boundary" inkscape:connector-curvature="0" />
	<path style="fill:none;stroke:red;stroke-width:1px;stroke-linecap:butt;stroke-linejoin:miter;stroke-opacity:1" d="M 303.007,91.9433 299.489,56.766 z" id="boundary" inkscape:connector-curvature="0" />
	<path style="fill:none;stroke:red;stroke-width:1px;stroke-linecap:butt;stroke-linejoin:miter;stroke-opacity:1" d="M 292.454,538.695 313.56,566.837 z" id="boundary" inkscape:connector-curvature="0" />
	<path style="fill:none;stroke:red;stroke-width:1px;stroke-linecap:butt;stroke-linejoin:miter;stroke-opacity:1" d="M 345.22,4 331.149,39.1773 z" id="boundary" inkscape:connector-curvature="0" />
	<path style="fill:none;stroke:red;stroke-width:1px;stroke-linecap:butt;stroke-linejoin:miter;stroke-opacity:1" d="M 331.149,39.1773 299.489,56.766 z" id="boundary" inkscape:connector-curvature="0" />
	<path style="fill:none;stroke:red;stroke-width:1px;stroke-linecap:butt;stroke-linejoin:miter;stroke-opacity:1" d="M 380.397,4 415.574,11.0355 z" id="boundary" inkscape:connector-curvature="0" />
	<path style="fill:none;stroke:red;stroke-width:1px;stroke-linecap:butt;stroke-linejoin:miter;stroke-opacity:1" d="M 345.22,4 380.397,4 z" id="boundary" inkscape:connector-curvature="0" />
	<path style="fill:none;stroke:red;stroke-width:1px;stroke-linecap:butt;stroke-linejoin:miter;stroke-opacity:1" d="M 348.738,566.837 313.56,566.837 z" id="boundary" inkscape:connector-curvature="0" />
	<path style="fill:none;stroke:red;stroke-width:1px;stroke-linecap:butt;stroke-linejoin:miter;stroke-opacity:1" d="M 376.879,538.695 348.738,566.837 z" id="boundary" inkscape:connector-curvature="0" />
	<path style="fill:none;stroke:red;stroke-width:1px;stroke-linecap:butt;stroke-linejoin:miter;stroke-opacity:1" d="M 412.057,542.213 376.879,538.695 z" id="boundary" inkscape:connector-curvature="0" />
	<path style="fill:none;stroke:red;stroke-width:1px;stroke-linecap:butt;stroke-linejoin:miter;stroke-opacity:1" d="M 415.574,11.0355 450.752,21.5887 z" id="boundary" inkscape:connector-curvature="0" />
	<path style="fill:none;stroke:red;stroke-width:1px;stroke-linecap:butt;stroke-linejoin:miter;stroke-opacity:1" d="M 443.716,559.801 412.057,542.213 z" id="boundary" inkscape:connector-curvature="0" />
	<path style="fill:none;stroke:red;stroke-width:1px;stroke-linecap:butt;stroke-linejoin:miter;stroke-opacity:1" d="M 450.752,21.5887 485.929,35.6596 z" id="boundary" inkscape:connector-curvature="0" />
	<path style="fill:none;stroke:red;stroke-width:1px;stroke-linecap:butt;stroke-linejoin:miter;stroke-opacity:1" d="M 478.894,570.355 443.716,559.801 z" id="boundary" inkscape:connector-curvature="0" />
	<path style="fill:none;stroke:red;stroke-width:1px;stroke-linecap:butt;stroke-linejoin:miter;stroke-opacity:1" d="M 475.376,440.199 485.929,475.376 z" id="boundary" inkscape:connector-curvature="0" />
	<path style="fill:none;stroke:red;stroke-width:1px;stroke-linecap:butt;stroke-linejoin:miter;stroke-opacity:1" d="M 514.071,56.766 542.213,77.8723 z" id="boundary" inkscape:connector-curvature="0" />
	<path style="fill:none;stroke:red;stroke-width:1px;stroke-linecap:butt;stroke-linejoin:miter;stroke-opacity:1" d="M 492.965,510.553 485.929,475.376 z" id="boundary" inkscape:connector-curvature="0" />
	<path style="fill:none;stroke:red;stroke-width:1px;stroke-linecap:butt;stroke-linejoin:miter;stroke-opacity:1" d="M 485.929,35.6596 514.071,56.766 z" id="boundary" inkscape:connector-curvature="0" />
	<path style="fill:none;stroke:red;stroke-width:1px;stroke-linecap:butt;stroke-linejoin:miter;stroke-opacity:1" d="M 510.553,433.163 475.376,440.199 z" id="boundary" inkscape:connector-curvature="0" />
	<path style="fill:none;stroke:red;stroke-width:1px;stroke-linecap:butt;stroke-linejoin:miter;stroke-opacity:1" d="M 492.965,510.553 478.894,570.355 z" id="boundary" inkscape:connector-curvature="0" />
	<path style="fill:none;stroke:red;stroke-width:1px;stroke-linecap:butt;stroke-linejoin:miter;stroke-opacity:1" d="M 510.553,433.163 545.73,433.163 z" id="boundary" inkscape:connector-curvature="0" />
	<path style="fill:none;stroke:red;stroke-width:1px;stroke-linecap:butt;stroke-linejoin:miter;stroke-opacity:1" d="M 545.73,433.163 580.908,433.163 z" id="boundary" inkscape:connector-curvature="0" />
	<path style="fill:none;stroke:red;stroke-width:1px;stroke-linecap:butt;stroke-linejoin:miter;stroke-opacity:1" d="M 542.213,77.8723 570.355,98.9787 z" id="boundary" inkscape:connector-curvature="0" />
	<path style="fill:none;stroke:red;stroke-width:1px;stroke-linecap:butt;stroke-linejoin:miter;stroke-opacity:1" d="M 605.532,109.532 570.355,98.9787 z" id="boundary" inkscape:connector-curvature="0" />
	<path style="fill:none;stroke:red;stroke-width:1px;stroke-linecap:butt;stroke-linejoin:miter;stroke-opacity:1" d="M 616.085,426.128 651.262,436.681 z" id="boundary" inkscape:connector-curvature="0" />
	<path style="fill:none;stroke:red;stroke-width:1px;stroke-linecap:butt;stroke-linejoin:miter;stroke-opacity:1" d="M 616.085,426.128 580.908,433.163 z" id="boundary" inkscape:connector-curvature="0" />
	<path style="fill:none;stroke:red;stroke-width:1px;stroke-linecap:butt;stroke-linejoin:miter;stroke-opacity:1" d="M 637.191,91.9433 672.369,84.9078 z" id="boundary" inkscape:connector-curvature="0" />
	<path style="fill:none;stroke:red;stroke-width:1px;stroke-linecap:butt;stroke-linejoin:miter;stroke-opacity:1" d="M 672.369,84.9078 704.028,102.496 z" id="boundary" inkscape:connector-curvature="0" />
	<path style="fill:none;stroke:red;stroke-width:1px;stroke-linecap:butt;stroke-linejoin:miter;stroke-opacity:1" d="M 605.532,109.532 637.191,91.9433 z" id="boundary" inkscape:connector-curvature="0" />
	<path style="fill:none;stroke:red;stroke-width:1px;stroke-linecap:butt;stroke-linejoin:miter;stroke-opacity:1" d="M 704.028,102.496 732.17,127.121 z" id="boundary" inkscape:connector-curvature="0" />
	<path style="fill:none;stroke:red;stroke-width:1px;stroke-linecap:butt;stroke-linejoin:miter;stroke-opacity:1" d="M 686.44,447.234 651.262,436.681 z" id="boundary" inkscape:connector-curvature="0" />
	<path style="fill:none;stroke:red;stroke-width:1px;stroke-linecap:butt;stroke-linejoin:miter;stroke-opacity:1" d="M 777.901,183.404 756.794,155.262 z" id="boundary" inkscape:connector-curvature="0" />
	<path style="fill:none;stroke:red;stroke-width:1px;stroke-linecap:butt;stroke-linejoin:miter;stroke-opacity:1" d="M 756.794,155.262 732.17,127.121 z" id="boundary" inkscape:connector-curvature="0" />
	<path style="fill:none;stroke:red;stroke-width:1px;stroke-linecap:butt;stroke-linejoin:miter;stroke-opacity:1" d="M 721.617,454.27 686.44,447.234 z" id="boundary" inkscape:connector-curvature="0" />
	<path style="fill:none;stroke:red;stroke-width:1px;stroke-linecap:butt;stroke-linejoin:miter;stroke-opacity:1" d="M 756.794,447.234 721.617,454.27 z" id="boundary" inkscape:connector-curvature="0" />
	<path style="fill:none;stroke:red;stroke-width:1px;stroke-linecap:butt;stroke-linejoin:miter;stroke-opacity:1" d="M 774.383,408.539 756.794,447.234 z" id="boundary" inkscape:connector-curvature="0" />
	<path style="fill:none;stroke:red;stroke-width:1px;stroke-linecap:butt;stroke-linejoin:miter;stroke-opacity:1" d="M 911.574,401.504 946.752,412.057 z" id="boundary" inkscape:connector-curvature="0" />
	<path style="fill:none;stroke:red;stroke-width:1px;stroke-linecap:butt;stroke-linejoin:miter;stroke-opacity:1" d="M 788.454,373.362 774.383,408.539 z" id="boundary" inkscape:connector-curvature="0" />
	<path style="fill:none;stroke:red;stroke-width:1px;stroke-linecap:butt;stroke-linejoin:miter;stroke-opacity:1" d="M 788.454,338.184 788.454,373.362 z" id="boundary" inkscape:connector-curvature="0" />
	<path style="fill:none;stroke:red;stroke-width:1px;stroke-linecap:butt;stroke-linejoin:miter;stroke-opacity:1" d="M 788.454,338.184 823.631,341.702 z" id="boundary" inkscape:connector-curvature="0" />
	<path style="fill:none;stroke:red;stroke-width:1px;stroke-linecap:butt;stroke-linejoin:miter;stroke-opacity:1" d="M 823.631,341.702 851.773,362.809 z" id="boundary" inkscape:connector-curvature="0" />
	<path style="fill:none;stroke:red;stroke-width:1px;stroke-linecap:butt;stroke-linejoin:miter;stroke-opacity:1" d="M 777.901,183.404 795.489,215.064 z" id="boundary" inkscape:connector-curvature="0" />
	<path style="fill:none;stroke:red;stroke-width:1px;stroke-linecap:butt;stroke-linejoin:miter;stroke-opacity:1" d="M 830.667,208.028 795.489,215.064 z" id="boundary" inkscape:connector-curvature="0" />
	<path style="fill:none;stroke:red;stroke-width:1px;stroke-linecap:butt;stroke-linejoin:miter;stroke-opacity:1" d="M 851.773,362.809 879.915,383.915 z" id="boundary" inkscape:connector-curvature="0" />
	<path style="fill:none;stroke:red;stroke-width:1px;stroke-linecap:butt;stroke-linejoin:miter;stroke-opacity:1" d="M 830.667,208.028 862.326,190.44 z" id="boundary" inkscape:connector-curvature="0" />
	<path style="fill:none;stroke:red;stroke-width:1px;stroke-linecap:butt;stroke-linejoin:miter;stroke-opacity:1" d="M 978.411,288.936 978.411,253.759 z" id="boundary" inkscape:connector-curvature="0" />
	<path style="fill:none;stroke:red;stroke-width:1px;stroke-linecap:butt;stroke-linejoin:miter;stroke-opacity:1" d="M 862.326,190.44 893.986,172.851 z" id="boundary" inkscape:connector-curvature="0" />
	<path style="fill:none;stroke:red;stroke-width:1px;stroke-linecap:butt;stroke-linejoin:miter;stroke-opacity:1" d="M 911.574,401.504 879.915,383.915 z" id="boundary" inkscape:connector-curvature="0" />
	<path style="fill:none;stroke:red;stroke-width:1px;stroke-linecap:butt;stroke-linejoin:miter;stroke-opacity:1" d="M 925.645,155.262 893.986,172.851 z" id="boundary" inkscape:connector-curvature="0" />
	<path style="fill:none;stroke:red;stroke-width:1px;stroke-linecap:butt;stroke-linejoin:miter;stroke-opacity:1" d="M 946.752,412.057 981.929,419.092 z" id="boundary" inkscape:connector-curvature="0" />
	<path style="fill:none;stroke:red;stroke-width:1px;stroke-linecap:butt;stroke-linejoin:miter;stroke-opacity:1" d="M 981.929,324.113 978.411,288.936 z" id="boundary" inkscape:connector-curvature="0" />
	<path style="fill:none;stroke:red;stroke-width:1px;stroke-linecap:butt;stroke-linejoin:miter;stroke-opacity:1" d="M 960.823,141.191 925.645,155.262 z" id="boundary" inkscape:connector-curvature="0" />
	<path style="fill:none;stroke:red;stroke-width:1px;stroke-linecap:butt;stroke-linejoin:miter;stroke-opacity:1" d="M 960.823,141.191 996,144.709 z" id="boundary" inkscape:connector-curvature="0" />
	<path style="fill:none;stroke:red;stroke-width:1px;stroke-linecap:butt;stroke-linejoin:miter;stroke-opacity:1" d="M 981.929,324.113 988.965,359.291 z" id="boundary" inkscape:connector-curvature="0" />
	<path style="fill:none;stroke:red;stroke-width:1px;stroke-linecap:butt;stroke-linejoin:miter;stroke-opacity:1" d="M 978.411,253.759 985.447,211.546 z" id="boundary" inkscape:connector-curvature="0" />
	<path style="fill:none;stroke:red;stroke-width:1px;stroke-linecap:butt;stroke-linejoin:miter;stroke-opacity:1" d="M 988.965,359.291 981.929,419.092 z" id="boundary" inkscape:connector-curvature="0" />
	<path style="fill:none;stroke:red;stroke-width:1px;stroke-linecap:butt;stroke-linejoin:miter;stroke-opacity:1" d="M 996,144.709 985.447,211.546 z" id="boundary" inkscape:connector-curvature="0" />
	<circle cx="4" cy="253.759" r="4" fill="#0" id="circle0"/>
	<circle cx="14.5532" cy="288.936" r="4" fill="#0" id="circle1"/>
	<circle cx="32.1418" cy="225.617" r="4" fill="#0" id="circle2"/>
	<circle cx="35.6596" cy="317.078" r="4" fill="#0" id="circle3"/>
	<circle cx="56.766" cy="345.22" r="4" fill="#0" id="circle4"/>
	<circle cx="63.8014" cy="208.028" r="4" fill="#0" id="circle5"/>
	<circle cx="77.8723" cy="373.362" r="4" fill="#0" id="circle6"/>
	<circle cx="91.9433" cy="183.404" r="4" fill="#0" id="circle7"/>
	<circle cx="109.532" cy="390.95" r="4" fill="#0" id="circle8"/>
	<circle cx="127.121" cy="169.333" r="4" fill="#0" id="circle9"/>
	<circle cx="144.709" cy="405.021" r="4" fill="#0" id="circle10"/>
	<circle cx="162.298" cy="155.262" r="4" fill="#0" id="circle11"/>
	<circle cx="179.887" cy="415.574" r="4" fill="#0" id="circle12"/>
	<circle cx="197.475" cy="141.191" r="4" fill="#0" id="circle13"/>
	<circle cx="211.546" cy="433.163" r="4" fill="#0" id="circle14"/>
	<circle cx="232.652" cy="127.121" r="4" fill="#0" id="circle15"/>
	<circle cx="246.723" cy="440.199" r="4" fill="#0" id="circle16"/>
	<circle cx="267.83" cy="120.085" r="4" fill="#0" id="circle17"/>
	<circle cx="271.348" cy="468.34" r="4" fill="#0" id="circle18"/>
	<circle cx="278.383" cy="503.518" r="4" fill="#0" id="circle19"/>
	<circle cx="292.454" cy="538.695" r="4" fill="#0" id="circle20"/>
	<circle cx="299.489" cy="56.766" r="4" fill="#0" id="circle21"/>
	<circle cx="303.007" cy="91.9433" r="4" fill="#0" id="circle22"/>
	<circle cx="313.56" cy="566.837" r="4" fill="#0" id="circle23"/>
	<circle cx="331.149" cy="39.1773" r="4" fill="#0" id="circle24"/>
	<circle cx="345.22" cy="4" r="4" fill="#0" id="circle25"/>
	<circle cx="348.738" cy="566.837" r="4" fill="#0" id="circle26"/>
	<circle cx="376.879" cy="538.695" r="4" fill="#0" id="circle27"/>
	<circle cx="380.397" cy="4" r="4" fill="#0" id="circle28"/>
	<circle cx="412.057" cy="542.213" r="4" fill="#0" id="circle29"/>
	<circle cx="415.574" cy="11.0355" r="4" fill="#0" id="circle30"/>
	<circle cx="443.716" cy="559.801" r="4" fill="#0" id="circle31"/>
	<circle cx="450.752" cy="21.5887" r="4" fill="#0" id="circle32"/>
	<circle cx="475.376" cy="440.199" r="4" fill="#0" id="circle33"/>
	<circle cx="478.894" cy="570.355" r="4" fill="#0" id="circle34"/>
	<circle cx="485.929" cy="35.6596" r="4" fill="#0" id="circle35"/>
	<circle cx="485.929" cy="475.376" r="4" fill="#0" id="circle36"/>
	<circle cx="492.965" cy="510.553" r="4" fill="#0" id="circle37"/>
	<circle cx="510.553" cy="433.163" r="4" fill="#0" id="circle38"/>
	<circle cx="514.071" cy="56.766" r="4" fill="#0" id="circle39"/>
	<circle cx="542.213" cy="77.8723" r="4" fill="#0" id="circle40"/>
	<circle cx="545.73" cy="433.163" r="4" fill="#0" id="circle41"/>
	<circle cx="570.355" cy="98.9787" r="4" fill="#0" id="circle42"/>
	<circle cx="580.908" cy="433.163" r="4" fill="#0" id="circle43"/>
	<circle cx="605.532" cy="109.532" r="4" fill="#0" id="circle44"/>
	<circle cx="616.085" cy="426.128" r="4" fill="#0" id="circle45"/>
	<circle cx="637.191" cy="91.9433" r="4" fill="#0" id="circle46"/>
	<circle cx="651.262" cy="436.681" r="4" fill="#0" id="circle47"/>
	<circle cx="672.369" cy="84.9078" r="4" fill="#0" id="circle48"/>
	<circle cx="686.44" cy="447.234" r="4" fill="#0" id="circle49"/>
	<circle cx="704.028" cy="102.496" r="4" fill="#0" id="circle50"/>
	<circle cx="721.617" cy="454.27" r="4" fill="#0" id="circle51"/>
	<circle cx="732.17" cy="127.121" r="4" fill="#0" id="circle52"/>
	<circle cx="756.794" cy="155.262" r="4" fill="#0" id="circle53"/>
	<circle cx="756.794" cy="447.234" r="4" fill="#0" id="circle54"/>
	<circle cx="774.383" cy="408.539" r="4" fill="#0" id="circle55"/>
	<circle cx="777.901" cy="183.404" r="4" fill="#0" id="circle56"/>
	<circle cx="788.454" cy="338.184" r="4" fill="#0" id="circle57"/>
	<circle cx="788.454" cy="373.362" r="4" fill="#0" id="circle58"/>
	<circle cx="795.489" cy="215.064" r="4" fill="#0" id="circle59"/>
	<circle cx="823.631" cy="341.702" r="4" fill="#0" id="circle60"/>
	<circle cx="830.667" cy="208.028" r="4" fill="#0" id="circle61"/>
	<circle cx="851.773" cy="362.809" r="4" fill="#0" id="circle62"/>
	<circle cx="862.326" cy="190.44" r="4" fill="#0" id="circle63"/>
	<circle cx="879.915" cy="383.915" r="4" fill="#0" id="circle64"/>
	<circle cx="893.986" cy="172.851" r="4" fill="#0" id="circle65"/>
	<circle cx="911.574" cy="401.504" r="4" fill="#0" id="circle66"/>
	<circle cx="925.645" cy="155.262" r="4" fill="#0" id="circle67"/>
	<circle cx="946.752" cy="412.057" r="4" fill="#0" id="circle68"/>
	<circle cx="960.823" cy="141.191" r="4" fill="#0" id="circle69"/>
	<circle cx="978.411" cy="253.759" r="4" fill="#0" id="circle70"/>
	<circle cx="978.411" cy="288.936" r="4" fill="#0" id="circle71"/>
	<circle cx="981.929" cy="324.113" r="4" fill="#0" id="circle72"/>
	<circle cx="981.929" cy="419.092" r="4" fill="#0" id="circle73"/>
	<circle cx="985.447" cy="211.546" r="4" fill="#0" id="circle74"/>
	<circle cx="988.965" cy="359.291" r="4" fill="#0" id="circle75"/>
	<circle cx="996" cy="144.709" r="4" fill="#0" id="circle76"/>
	</g>
</svg>