<?xml version="1.0" encoding="UTF-8" standalone="no"?>
<!-- Created with CurveBenchmark -->
<svg
	xmlns:dc="http://purl.org/dc/elements/1.1/"
	xmlns:cc="http://creativecommons.org/ns#"
	xmlns:rdf="http://www.w3.org/1999/02/22-rdf-syntax-ns#"
	xmlns:svg="http://www.w3.org/2000/svg"
	xmlns="http://www.w3.org/2000/svg"
	xmlns:sodipodi="http://sodipodi.sourceforge.net/DTD/sodipodi-0.dtd"
	xmlns:inkscape="http://www.inkscape.org/namespaces/inkscape"
	width="1000"
	height="1000"
	id="svg2"
	version="1.1"
	sodipodi:docname="manifold/peel-hammer08.png.txt">
<defs
	id="defs4" />
<metadata
	id="metadata7">
	<rdf:RDF>
		<cc:Work
			rdf:about="">
			<dc:format>image/svg+xml</dc:format>
			<dc:type
				rdf:resource="http://purl.org/dc/dcmitype/StillImage" />
			<dc:title></dc:title>
		</cc:Work>
	</rdf:RDF>
</metadata>
<g
	inkscape:label="Layer 1"
	inkscape:groupmode="layer"
	id="layer1">
	<path style="fill:none;stroke:red;stroke-width:1px;stroke-linecap:butt;stroke-linejoin:miter;stroke-opacity:1" d="M 4,480.747 4,462.41 z" id="boundary" inkscape:connector-curvature="0" />
	<path style="fill:none;stroke:red;stroke-width:1px;stroke-linecap:butt;stroke-linejoin:miter;stroke-opacity:1" d="M 4,462.41 4,434.906 z" id="boundary" inkscape:connector-curvature="0" />
	<path style="fill:none;stroke:red;stroke-width:1px;stroke-linecap:butt;stroke-linejoin:miter;stroke-opacity:1" d="M 4,434.906 22.3364,429.405 z" id="boundary" inkscape:connector-curvature="0" />
	<path style="fill:none;stroke:red;stroke-width:1px;stroke-linecap:butt;stroke-linejoin:miter;stroke-opacity:1" d="M 31.5046,297.383 31.5046,279.046 z" id="boundary" inkscape:connector-curvature="0" />
	<path style="fill:none;stroke:red;stroke-width:1px;stroke-linecap:butt;stroke-linejoin:miter;stroke-opacity:1" d="M 4,499.083 4,480.747 z" id="boundary" inkscape:connector-curvature="0" />
	<path style="fill:none;stroke:red;stroke-width:1px;stroke-linecap:butt;stroke-linejoin:miter;stroke-opacity:1" d="M 4,535.756 4,517.42 z" id="boundary" inkscape:connector-curvature="0" />
	<path style="fill:none;stroke:red;stroke-width:1px;stroke-linecap:butt;stroke-linejoin:miter;stroke-opacity:1" d="M 4,554.092 4,535.756 z" id="boundary" inkscape:connector-curvature="0" />
	<path style="fill:none;stroke:red;stroke-width:1px;stroke-linecap:butt;stroke-linejoin:miter;stroke-opacity:1" d="M 4,572.429 4,554.092 z" id="boundary" inkscape:connector-curvature="0" />
	<path style="fill:none;stroke:red;stroke-width:1px;stroke-linecap:butt;stroke-linejoin:miter;stroke-opacity:1" d="M 4,572.429 18.6691,585.264 z" id="boundary" inkscape:connector-curvature="0" />
	<path style="fill:none;stroke:red;stroke-width:1px;stroke-linecap:butt;stroke-linejoin:miter;stroke-opacity:1" d="M 4,517.42 4,499.083 z" id="boundary" inkscape:connector-curvature="0" />
	<path style="fill:none;stroke:red;stroke-width:1px;stroke-linecap:butt;stroke-linejoin:miter;stroke-opacity:1" d="M 31.5046,279.046 31.5046,251.542 z" id="boundary" inkscape:connector-curvature="0" />
	<path style="fill:none;stroke:red;stroke-width:1px;stroke-linecap:butt;stroke-linejoin:miter;stroke-opacity:1" d="M 31.5046,315.719 31.5046,297.383 z" id="boundary" inkscape:connector-curvature="0" />
	<path style="fill:none;stroke:red;stroke-width:1px;stroke-linecap:butt;stroke-linejoin:miter;stroke-opacity:1" d="M 31.5046,334.055 31.5046,315.719 z" id="boundary" inkscape:connector-curvature="0" />
	<path style="fill:none;stroke:red;stroke-width:1px;stroke-linecap:butt;stroke-linejoin:miter;stroke-opacity:1" d="M 31.5046,251.542 46.1738,236.872 z" id="boundary" inkscape:connector-curvature="0" />
	<path style="fill:none;stroke:red;stroke-width:1px;stroke-linecap:butt;stroke-linejoin:miter;stroke-opacity:1" d="M 31.5046,352.392 31.5046,334.055 z" id="boundary" inkscape:connector-curvature="0" />
	<path style="fill:none;stroke:red;stroke-width:1px;stroke-linecap:butt;stroke-linejoin:miter;stroke-opacity:1" d="M 31.5046,370.728 31.5046,352.392 z" id="boundary" inkscape:connector-curvature="0" />
	<path style="fill:none;stroke:red;stroke-width:1px;stroke-linecap:butt;stroke-linejoin:miter;stroke-opacity:1" d="M 31.5046,389.065 31.5046,370.728 z" id="boundary" inkscape:connector-curvature="0" />
	<path style="fill:none;stroke:red;stroke-width:1px;stroke-linecap:butt;stroke-linejoin:miter;stroke-opacity:1" d="M 253.375,247.874 253.375,229.538 z" id="boundary" inkscape:connector-curvature="0" />
	<path style="fill:none;stroke:red;stroke-width:1px;stroke-linecap:butt;stroke-linejoin:miter;stroke-opacity:1" d="M 31.5046,407.401 31.5046,389.065 z" id="boundary" inkscape:connector-curvature="0" />
	<path style="fill:none;stroke:red;stroke-width:1px;stroke-linecap:butt;stroke-linejoin:miter;stroke-opacity:1" d="M 55.342,218.536 46.1738,236.872 z" id="boundary" inkscape:connector-curvature="0" />
	<path style="fill:none;stroke:red;stroke-width:1px;stroke-linecap:butt;stroke-linejoin:miter;stroke-opacity:1" d="M 22.3364,429.405 31.5046,407.401 z" id="boundary" inkscape:connector-curvature="0" />
	<path style="fill:none;stroke:red;stroke-width:1px;stroke-linecap:butt;stroke-linejoin:miter;stroke-opacity:1" d="M 253.375,229.538 253.375,211.201 z" id="boundary" inkscape:connector-curvature="0" />
	<path style="fill:none;stroke:red;stroke-width:1px;stroke-linecap:butt;stroke-linejoin:miter;stroke-opacity:1" d="M 18.6691,585.264 37.0055,585.264 z" id="boundary" inkscape:connector-curvature="0" />
	<path style="fill:none;stroke:red;stroke-width:1px;stroke-linecap:butt;stroke-linejoin:miter;stroke-opacity:1" d="M 271.712,128.688 271.712,110.351 z" id="boundary" inkscape:connector-curvature="0" />
	<path style="fill:none;stroke:red;stroke-width:1px;stroke-linecap:butt;stroke-linejoin:miter;stroke-opacity:1" d="M 253.375,247.874 262.543,264.377 z" id="boundary" inkscape:connector-curvature="0" />
	<path style="fill:none;stroke:red;stroke-width:1px;stroke-linecap:butt;stroke-linejoin:miter;stroke-opacity:1" d="M 37.0055,585.264 55.342,585.264 z" id="boundary" inkscape:connector-curvature="0" />
	<path style="fill:none;stroke:red;stroke-width:1px;stroke-linecap:butt;stroke-linejoin:miter;stroke-opacity:1" d="M 55.342,218.536 59.0092,196.532 z" id="boundary" inkscape:connector-curvature="0" />
	<path style="fill:none;stroke:red;stroke-width:1px;stroke-linecap:butt;stroke-linejoin:miter;stroke-opacity:1" d="M 59.0092,196.532 73.6784,181.863 z" id="boundary" inkscape:connector-curvature="0" />
	<path style="fill:none;stroke:red;stroke-width:1px;stroke-linecap:butt;stroke-linejoin:miter;stroke-opacity:1" d="M 55.342,585.264 73.6784,585.264 z" id="boundary" inkscape:connector-curvature="0" />
	<path style="fill:none;stroke:red;stroke-width:1px;stroke-linecap:butt;stroke-linejoin:miter;stroke-opacity:1" d="M 73.6784,181.863 82.8466,163.527 z" id="boundary" inkscape:connector-curvature="0" />
	<path style="fill:none;stroke:red;stroke-width:1px;stroke-linecap:butt;stroke-linejoin:miter;stroke-opacity:1" d="M 119.519,108.518 104.85,123.187 z" id="boundary" inkscape:connector-curvature="0" />
	<path style="fill:none;stroke:red;stroke-width:1px;stroke-linecap:butt;stroke-linejoin:miter;stroke-opacity:1" d="M 82.8466,163.527 92.0148,145.19 z" id="boundary" inkscape:connector-curvature="0" />
	<path style="fill:none;stroke:red;stroke-width:1px;stroke-linecap:butt;stroke-linejoin:miter;stroke-opacity:1" d="M 73.6784,585.264 92.0148,585.264 z" id="boundary" inkscape:connector-curvature="0" />
	<path style="fill:none;stroke:red;stroke-width:1px;stroke-linecap:butt;stroke-linejoin:miter;stroke-opacity:1" d="M 104.85,123.187 92.0148,145.19 z" id="boundary" inkscape:connector-curvature="0" />
	<path style="fill:none;stroke:red;stroke-width:1px;stroke-linecap:butt;stroke-linejoin:miter;stroke-opacity:1" d="M 92.0148,585.264 110.351,585.264 z" id="boundary" inkscape:connector-curvature="0" />
	<path style="fill:none;stroke:red;stroke-width:1px;stroke-linecap:butt;stroke-linejoin:miter;stroke-opacity:1" d="M 119.519,108.518 128.688,90.1811 z" id="boundary" inkscape:connector-curvature="0" />
	<path style="fill:none;stroke:red;stroke-width:1px;stroke-linecap:butt;stroke-linejoin:miter;stroke-opacity:1" d="M 128.688,90.1811 143.357,75.512 z" id="boundary" inkscape:connector-curvature="0" />
	<path style="fill:none;stroke:red;stroke-width:1px;stroke-linecap:butt;stroke-linejoin:miter;stroke-opacity:1" d="M 110.351,585.264 128.688,585.264 z" id="boundary" inkscape:connector-curvature="0" />
	<path style="fill:none;stroke:red;stroke-width:1px;stroke-linecap:butt;stroke-linejoin:miter;stroke-opacity:1" d="M 143.357,75.512 161.693,66.3438 z" id="boundary" inkscape:connector-curvature="0" />
	<path style="fill:none;stroke:red;stroke-width:1px;stroke-linecap:butt;stroke-linejoin:miter;stroke-opacity:1" d="M 128.688,585.264 147.024,585.264 z" id="boundary" inkscape:connector-curvature="0" />
	<path style="fill:none;stroke:red;stroke-width:1px;stroke-linecap:butt;stroke-linejoin:miter;stroke-opacity:1" d="M 262.543,403.734 262.543,422.07 z" id="boundary" inkscape:connector-curvature="0" />
	<path style="fill:none;stroke:red;stroke-width:1px;stroke-linecap:butt;stroke-linejoin:miter;stroke-opacity:1" d="M 161.693,66.3438 176.362,53.5083 z" id="boundary" inkscape:connector-curvature="0" />
	<path style="fill:none;stroke:red;stroke-width:1px;stroke-linecap:butt;stroke-linejoin:miter;stroke-opacity:1" d="M 176.362,53.5083 194.699,53.5083 z" id="boundary" inkscape:connector-curvature="0" />
	<path style="fill:none;stroke:red;stroke-width:1px;stroke-linecap:butt;stroke-linejoin:miter;stroke-opacity:1" d="M 165.36,585.264 147.024,585.264 z" id="boundary" inkscape:connector-curvature="0" />
	<path style="fill:none;stroke:red;stroke-width:1px;stroke-linecap:butt;stroke-linejoin:miter;stroke-opacity:1" d="M 280.88,64.5102 280.88,82.8466 z" id="boundary" inkscape:connector-curvature="0" />
	<path style="fill:none;stroke:red;stroke-width:1px;stroke-linecap:butt;stroke-linejoin:miter;stroke-opacity:1" d="M 194.699,53.5083 207.534,38.8392 z" id="boundary" inkscape:connector-curvature="0" />
	<path style="fill:none;stroke:red;stroke-width:1px;stroke-linecap:butt;stroke-linejoin:miter;stroke-opacity:1" d="M 262.543,16.8355 244.207,20.5028 z" id="boundary" inkscape:connector-curvature="0" />
	<path style="fill:none;stroke:red;stroke-width:1px;stroke-linecap:butt;stroke-linejoin:miter;stroke-opacity:1" d="M 207.534,38.8392 225.871,29.671 z" id="boundary" inkscape:connector-curvature="0" />
	<path style="fill:none;stroke:red;stroke-width:1px;stroke-linecap:butt;stroke-linejoin:miter;stroke-opacity:1" d="M 225.871,29.671 244.207,20.5028 z" id="boundary" inkscape:connector-curvature="0" />
	<path style="fill:none;stroke:red;stroke-width:1px;stroke-linecap:butt;stroke-linejoin:miter;stroke-opacity:1" d="M 165.36,585.264 183.697,585.264 z" id="boundary" inkscape:connector-curvature="0" />
	<path style="fill:none;stroke:red;stroke-width:1px;stroke-linecap:butt;stroke-linejoin:miter;stroke-opacity:1" d="M 262.543,165.36 262.543,183.697 z" id="boundary" inkscape:connector-curvature="0" />
	<path style="fill:none;stroke:red;stroke-width:1px;stroke-linecap:butt;stroke-linejoin:miter;stroke-opacity:1" d="M 262.543,183.697 253.375,211.201 z" id="boundary" inkscape:connector-curvature="0" />
	<path style="fill:none;stroke:red;stroke-width:1px;stroke-linecap:butt;stroke-linejoin:miter;stroke-opacity:1" d="M 262.543,16.8355 279.046,7.66728 z" id="boundary" inkscape:connector-curvature="0" />
	<path style="fill:none;stroke:red;stroke-width:1px;stroke-linecap:butt;stroke-linejoin:miter;stroke-opacity:1" d="M 271.712,147.024 262.543,165.36 z" id="boundary" inkscape:connector-curvature="0" />
	<path style="fill:none;stroke:red;stroke-width:1px;stroke-linecap:butt;stroke-linejoin:miter;stroke-opacity:1" d="M 271.712,147.024 271.712,128.688 z" id="boundary" inkscape:connector-curvature="0" />
	<path style="fill:none;stroke:red;stroke-width:1px;stroke-linecap:butt;stroke-linejoin:miter;stroke-opacity:1" d="M 183.697,585.264 202.033,585.264 z" id="boundary" inkscape:connector-curvature="0" />
	<path style="fill:none;stroke:red;stroke-width:1px;stroke-linecap:butt;stroke-linejoin:miter;stroke-opacity:1" d="M 280.88,449.575 280.88,429.405 z" id="boundary" inkscape:connector-curvature="0" />
	<path style="fill:none;stroke:red;stroke-width:1px;stroke-linecap:butt;stroke-linejoin:miter;stroke-opacity:1" d="M 280.88,429.405 262.543,422.07 z" id="boundary" inkscape:connector-curvature="0" />
	<path style="fill:none;stroke:red;stroke-width:1px;stroke-linecap:butt;stroke-linejoin:miter;stroke-opacity:1" d="M 280.88,559.593 290.048,539.423 z" id="boundary" inkscape:connector-curvature="0" />
	<path style="fill:none;stroke:red;stroke-width:1px;stroke-linecap:butt;stroke-linejoin:miter;stroke-opacity:1" d="M 280.88,559.593 275.379,585.264 z" id="boundary" inkscape:connector-curvature="0" />
	<path style="fill:none;stroke:red;stroke-width:1px;stroke-linecap:butt;stroke-linejoin:miter;stroke-opacity:1" d="M 280.88,264.377 262.543,264.377 z" id="boundary" inkscape:connector-curvature="0" />
	<path style="fill:none;stroke:red;stroke-width:1px;stroke-linecap:butt;stroke-linejoin:miter;stroke-opacity:1" d="M 262.543,403.734 280.88,403.734 z" id="boundary" inkscape:connector-curvature="0" />
	<path style="fill:none;stroke:red;stroke-width:1px;stroke-linecap:butt;stroke-linejoin:miter;stroke-opacity:1" d="M 280.88,82.8466 271.712,110.351 z" id="boundary" inkscape:connector-curvature="0" />
	<path style="fill:none;stroke:red;stroke-width:1px;stroke-linecap:butt;stroke-linejoin:miter;stroke-opacity:1" d="M 293.715,46.1738 290.048,27.8373 z" id="boundary" inkscape:connector-curvature="0" />
	<path style="fill:none;stroke:red;stroke-width:1px;stroke-linecap:butt;stroke-linejoin:miter;stroke-opacity:1" d="M 293.715,46.1738 280.88,64.5102 z" id="boundary" inkscape:connector-curvature="0" />
	<path style="fill:none;stroke:red;stroke-width:1px;stroke-linecap:butt;stroke-linejoin:miter;stroke-opacity:1" d="M 202.033,585.264 220.37,585.264 z" id="boundary" inkscape:connector-curvature="0" />
	<path style="fill:none;stroke:red;stroke-width:1px;stroke-linecap:butt;stroke-linejoin:miter;stroke-opacity:1" d="M 238.706,585.264 220.37,585.264 z" id="boundary" inkscape:connector-curvature="0" />
	<path style="fill:none;stroke:red;stroke-width:1px;stroke-linecap:butt;stroke-linejoin:miter;stroke-opacity:1" d="M 299.216,264.377 280.88,264.377 z" id="boundary" inkscape:connector-curvature="0" />
	<path style="fill:none;stroke:red;stroke-width:1px;stroke-linecap:butt;stroke-linejoin:miter;stroke-opacity:1" d="M 299.216,403.734 280.88,403.734 z" id="boundary" inkscape:connector-curvature="0" />
	<path style="fill:none;stroke:red;stroke-width:1px;stroke-linecap:butt;stroke-linejoin:miter;stroke-opacity:1" d="M 257.043,585.264 238.706,585.264 z" id="boundary" inkscape:connector-curvature="0" />
	<path style="fill:none;stroke:red;stroke-width:1px;stroke-linecap:butt;stroke-linejoin:miter;stroke-opacity:1" d="M 257.043,585.264 275.379,585.264 z" id="boundary" inkscape:connector-curvature="0" />
	<path style="fill:none;stroke:red;stroke-width:1px;stroke-linecap:butt;stroke-linejoin:miter;stroke-opacity:1" d="M 290.048,502.75 280.88,486.248 z" id="boundary" inkscape:connector-curvature="0" />
	<path style="fill:none;stroke:red;stroke-width:1px;stroke-linecap:butt;stroke-linejoin:miter;stroke-opacity:1" d="M 280.88,486.248 290.048,466.078 z" id="boundary" inkscape:connector-curvature="0" />
	<path style="fill:none;stroke:red;stroke-width:1px;stroke-linecap:butt;stroke-linejoin:miter;stroke-opacity:1" d="M 290.048,466.078 280.88,449.575 z" id="boundary" inkscape:connector-curvature="0" />
	<path style="fill:none;stroke:red;stroke-width:1px;stroke-linecap:butt;stroke-linejoin:miter;stroke-opacity:1" d="M 280.88,522.921 290.048,502.75 z" id="boundary" inkscape:connector-curvature="0" />
	<path style="fill:none;stroke:red;stroke-width:1px;stroke-linecap:butt;stroke-linejoin:miter;stroke-opacity:1" d="M 299.216,403.734 317.553,403.734 z" id="boundary" inkscape:connector-curvature="0" />
	<path style="fill:none;stroke:red;stroke-width:1px;stroke-linecap:butt;stroke-linejoin:miter;stroke-opacity:1" d="M 280.88,522.921 290.048,539.423 z" id="boundary" inkscape:connector-curvature="0" />
	<path style="fill:none;stroke:red;stroke-width:1px;stroke-linecap:butt;stroke-linejoin:miter;stroke-opacity:1" d="M 308.384,18.6691 290.048,27.8373 z" id="boundary" inkscape:connector-curvature="0" />
	<path style="fill:none;stroke:red;stroke-width:1px;stroke-linecap:butt;stroke-linejoin:miter;stroke-opacity:1" d="M 279.046,7.66728 297.383,4 z" id="boundary" inkscape:connector-curvature="0" />
	<path style="fill:none;stroke:red;stroke-width:1px;stroke-linecap:butt;stroke-linejoin:miter;stroke-opacity:1" d="M 308.384,18.6691 297.383,4 z" id="boundary" inkscape:connector-curvature="0" />
	<path style="fill:none;stroke:red;stroke-width:1px;stroke-linecap:butt;stroke-linejoin:miter;stroke-opacity:1" d="M 335.889,403.734 317.553,403.734 z" id="boundary" inkscape:connector-curvature="0" />
	<path style="fill:none;stroke:red;stroke-width:1px;stroke-linecap:butt;stroke-linejoin:miter;stroke-opacity:1" d="M 372.562,403.734 354.226,403.734 z" id="boundary" inkscape:connector-curvature="0" />
	<path style="fill:none;stroke:red;stroke-width:1px;stroke-linecap:butt;stroke-linejoin:miter;stroke-opacity:1" d="M 299.216,264.377 317.553,264.377 z" id="boundary" inkscape:connector-curvature="0" />
	<path style="fill:none;stroke:red;stroke-width:1px;stroke-linecap:butt;stroke-linejoin:miter;stroke-opacity:1" d="M 354.226,403.734 335.889,403.734 z" id="boundary" inkscape:connector-curvature="0" />
	<path style="fill:none;stroke:red;stroke-width:1px;stroke-linecap:butt;stroke-linejoin:miter;stroke-opacity:1" d="M 390.898,403.734 372.562,403.734 z" id="boundary" inkscape:connector-curvature="0" />
	<path style="fill:none;stroke:red;stroke-width:1px;stroke-linecap:butt;stroke-linejoin:miter;stroke-opacity:1" d="M 317.553,264.377 335.889,264.377 z" id="boundary" inkscape:connector-curvature="0" />
	<path style="fill:none;stroke:red;stroke-width:1px;stroke-linecap:butt;stroke-linejoin:miter;stroke-opacity:1" d="M 409.235,403.734 390.898,403.734 z" id="boundary" inkscape:connector-curvature="0" />
	<path style="fill:none;stroke:red;stroke-width:1px;stroke-linecap:butt;stroke-linejoin:miter;stroke-opacity:1" d="M 335.889,264.377 354.226,264.377 z" id="boundary" inkscape:connector-curvature="0" />
	<path style="fill:none;stroke:red;stroke-width:1px;stroke-linecap:butt;stroke-linejoin:miter;stroke-opacity:1" d="M 354.226,264.377 372.562,264.377 z" id="boundary" inkscape:connector-curvature="0" />
	<path style="fill:none;stroke:red;stroke-width:1px;stroke-linecap:butt;stroke-linejoin:miter;stroke-opacity:1" d="M 409.235,403.734 427.571,403.734 z" id="boundary" inkscape:connector-curvature="0" />
	<path style="fill:none;stroke:red;stroke-width:1px;stroke-linecap:butt;stroke-linejoin:miter;stroke-opacity:1" d="M 372.562,264.377 390.898,264.377 z" id="boundary" inkscape:connector-curvature="0" />
	<path style="fill:none;stroke:red;stroke-width:1px;stroke-linecap:butt;stroke-linejoin:miter;stroke-opacity:1" d="M 427.571,403.734 445.908,403.734 z" id="boundary" inkscape:connector-curvature="0" />
	<path style="fill:none;stroke:red;stroke-width:1px;stroke-linecap:butt;stroke-linejoin:miter;stroke-opacity:1" d="M 390.898,264.377 409.235,264.377 z" id="boundary" inkscape:connector-curvature="0" />
	<path style="fill:none;stroke:red;stroke-width:1px;stroke-linecap:butt;stroke-linejoin:miter;stroke-opacity:1" d="M 445.908,403.734 464.244,403.734 z" id="boundary" inkscape:connector-curvature="0" />
	<path style="fill:none;stroke:red;stroke-width:1px;stroke-linecap:butt;stroke-linejoin:miter;stroke-opacity:1" d="M 409.235,264.377 427.571,264.377 z" id="boundary" inkscape:connector-curvature="0" />
	<path style="fill:none;stroke:red;stroke-width:1px;stroke-linecap:butt;stroke-linejoin:miter;stroke-opacity:1" d="M 464.244,403.734 482.58,403.734 z" id="boundary" inkscape:connector-curvature="0" />
	<path style="fill:none;stroke:red;stroke-width:1px;stroke-linecap:butt;stroke-linejoin:miter;stroke-opacity:1" d="M 427.571,264.377 445.908,264.377 z" id="boundary" inkscape:connector-curvature="0" />
	<path style="fill:none;stroke:red;stroke-width:1px;stroke-linecap:butt;stroke-linejoin:miter;stroke-opacity:1" d="M 482.58,403.734 500.917,403.734 z" id="boundary" inkscape:connector-curvature="0" />
	<path style="fill:none;stroke:red;stroke-width:1px;stroke-linecap:butt;stroke-linejoin:miter;stroke-opacity:1" d="M 445.908,264.377 464.244,264.377 z" id="boundary" inkscape:connector-curvature="0" />
	<path style="fill:none;stroke:red;stroke-width:1px;stroke-linecap:butt;stroke-linejoin:miter;stroke-opacity:1" d="M 464.244,264.377 482.58,264.377 z" id="boundary" inkscape:connector-curvature="0" />
	<path style="fill:none;stroke:red;stroke-width:1px;stroke-linecap:butt;stroke-linejoin:miter;stroke-opacity:1" d="M 500.917,403.734 519.253,403.734 z" id="boundary" inkscape:connector-curvature="0" />
	<path style="fill:none;stroke:red;stroke-width:1px;stroke-linecap:butt;stroke-linejoin:miter;stroke-opacity:1" d="M 482.58,264.377 500.917,264.377 z" id="boundary" inkscape:connector-curvature="0" />
	<path style="fill:none;stroke:red;stroke-width:1px;stroke-linecap:butt;stroke-linejoin:miter;stroke-opacity:1" d="M 519.253,403.734 537.59,403.734 z" id="boundary" inkscape:connector-curvature="0" />
	<path style="fill:none;stroke:red;stroke-width:1px;stroke-linecap:butt;stroke-linejoin:miter;stroke-opacity:1" d="M 500.917,264.377 519.253,264.377 z" id="boundary" inkscape:connector-curvature="0" />
	<path style="fill:none;stroke:red;stroke-width:1px;stroke-linecap:butt;stroke-linejoin:miter;stroke-opacity:1" d="M 537.59,403.734 555.926,403.734 z" id="boundary" inkscape:connector-curvature="0" />
	<path style="fill:none;stroke:red;stroke-width:1px;stroke-linecap:butt;stroke-linejoin:miter;stroke-opacity:1" d="M 519.253,264.377 537.59,264.377 z" id="boundary" inkscape:connector-curvature="0" />
	<path style="fill:none;stroke:red;stroke-width:1px;stroke-linecap:butt;stroke-linejoin:miter;stroke-opacity:1" d="M 555.926,403.734 574.262,403.734 z" id="boundary" inkscape:connector-curvature="0" />
	<path style="fill:none;stroke:red;stroke-width:1px;stroke-linecap:butt;stroke-linejoin:miter;stroke-opacity:1" d="M 537.59,264.377 555.926,264.377 z" id="boundary" inkscape:connector-curvature="0" />
	<path style="fill:none;stroke:red;stroke-width:1px;stroke-linecap:butt;stroke-linejoin:miter;stroke-opacity:1" d="M 574.262,403.734 592.599,403.734 z" id="boundary" inkscape:connector-curvature="0" />
	<path style="fill:none;stroke:red;stroke-width:1px;stroke-linecap:butt;stroke-linejoin:miter;stroke-opacity:1" d="M 555.926,264.377 574.262,264.377 z" id="boundary" inkscape:connector-curvature="0" />
	<path style="fill:none;stroke:red;stroke-width:1px;stroke-linecap:butt;stroke-linejoin:miter;stroke-opacity:1" d="M 592.599,403.734 610.935,403.734 z" id="boundary" inkscape:connector-curvature="0" />
	<path style="fill:none;stroke:red;stroke-width:1px;stroke-linecap:butt;stroke-linejoin:miter;stroke-opacity:1" d="M 574.262,264.377 592.599,264.377 z" id="boundary" inkscape:connector-curvature="0" />
	<path style="fill:none;stroke:red;stroke-width:1px;stroke-linecap:butt;stroke-linejoin:miter;stroke-opacity:1" d="M 610.935,403.734 629.272,403.734 z" id="boundary" inkscape:connector-curvature="0" />
	<path style="fill:none;stroke:red;stroke-width:1px;stroke-linecap:butt;stroke-linejoin:miter;stroke-opacity:1" d="M 592.599,264.377 610.935,264.377 z" id="boundary" inkscape:connector-curvature="0" />
	<path style="fill:none;stroke:red;stroke-width:1px;stroke-linecap:butt;stroke-linejoin:miter;stroke-opacity:1" d="M 629.272,403.734 647.608,403.734 z" id="boundary" inkscape:connector-curvature="0" />
	<path style="fill:none;stroke:red;stroke-width:1px;stroke-linecap:butt;stroke-linejoin:miter;stroke-opacity:1" d="M 610.935,264.377 629.272,264.377 z" id="boundary" inkscape:connector-curvature="0" />
	<path style="fill:none;stroke:red;stroke-width:1px;stroke-linecap:butt;stroke-linejoin:miter;stroke-opacity:1" d="M 647.608,403.734 665.945,403.734 z" id="boundary" inkscape:connector-curvature="0" />
	<path style="fill:none;stroke:red;stroke-width:1px;stroke-linecap:butt;stroke-linejoin:miter;stroke-opacity:1" d="M 629.272,264.377 647.608,264.377 z" id="boundary" inkscape:connector-curvature="0" />
	<path style="fill:none;stroke:red;stroke-width:1px;stroke-linecap:butt;stroke-linejoin:miter;stroke-opacity:1" d="M 665.945,403.734 684.281,403.734 z" id="boundary" inkscape:connector-curvature="0" />
	<path style="fill:none;stroke:red;stroke-width:1px;stroke-linecap:butt;stroke-linejoin:miter;stroke-opacity:1" d="M 647.608,264.377 665.945,264.377 z" id="boundary" inkscape:connector-curvature="0" />
	<path style="fill:none;stroke:red;stroke-width:1px;stroke-linecap:butt;stroke-linejoin:miter;stroke-opacity:1" d="M 684.281,403.734 702.617,403.734 z" id="boundary" inkscape:connector-curvature="0" />
	<path style="fill:none;stroke:red;stroke-width:1px;stroke-linecap:butt;stroke-linejoin:miter;stroke-opacity:1" d="M 665.945,264.377 684.281,264.377 z" id="boundary" inkscape:connector-curvature="0" />
	<path style="fill:none;stroke:red;stroke-width:1px;stroke-linecap:butt;stroke-linejoin:miter;stroke-opacity:1" d="M 702.617,403.734 720.954,403.734 z" id="boundary" inkscape:connector-curvature="0" />
	<path style="fill:none;stroke:red;stroke-width:1px;stroke-linecap:butt;stroke-linejoin:miter;stroke-opacity:1" d="M 684.281,264.377 702.617,264.377 z" id="boundary" inkscape:connector-curvature="0" />
	<path style="fill:none;stroke:red;stroke-width:1px;stroke-linecap:butt;stroke-linejoin:miter;stroke-opacity:1" d="M 720.954,403.734 739.29,403.734 z" id="boundary" inkscape:connector-curvature="0" />
	<path style="fill:none;stroke:red;stroke-width:1px;stroke-linecap:butt;stroke-linejoin:miter;stroke-opacity:1" d="M 702.617,264.377 720.954,264.377 z" id="boundary" inkscape:connector-curvature="0" />
	<path style="fill:none;stroke:red;stroke-width:1px;stroke-linecap:butt;stroke-linejoin:miter;stroke-opacity:1" d="M 739.29,403.734 757.627,403.734 z" id="boundary" inkscape:connector-curvature="0" />
	<path style="fill:none;stroke:red;stroke-width:1px;stroke-linecap:butt;stroke-linejoin:miter;stroke-opacity:1" d="M 720.954,264.377 739.29,264.377 z" id="boundary" inkscape:connector-curvature="0" />
	<path style="fill:none;stroke:red;stroke-width:1px;stroke-linecap:butt;stroke-linejoin:miter;stroke-opacity:1" d="M 757.627,403.734 775.963,403.734 z" id="boundary" inkscape:connector-curvature="0" />
	<path style="fill:none;stroke:red;stroke-width:1px;stroke-linecap:butt;stroke-linejoin:miter;stroke-opacity:1" d="M 739.29,264.377 757.627,264.377 z" id="boundary" inkscape:connector-curvature="0" />
	<path style="fill:none;stroke:red;stroke-width:1px;stroke-linecap:butt;stroke-linejoin:miter;stroke-opacity:1" d="M 775.963,403.734 794.299,403.734 z" id="boundary" inkscape:connector-curvature="0" />
	<path style="fill:none;stroke:red;stroke-width:1px;stroke-linecap:butt;stroke-linejoin:miter;stroke-opacity:1" d="M 757.627,264.377 775.963,264.377 z" id="boundary" inkscape:connector-curvature="0" />
	<path style="fill:none;stroke:red;stroke-width:1px;stroke-linecap:butt;stroke-linejoin:miter;stroke-opacity:1" d="M 794.299,403.734 812.636,403.734 z" id="boundary" inkscape:connector-curvature="0" />
	<path style="fill:none;stroke:red;stroke-width:1px;stroke-linecap:butt;stroke-linejoin:miter;stroke-opacity:1" d="M 775.963,264.377 794.299,264.377 z" id="boundary" inkscape:connector-curvature="0" />
	<path style="fill:none;stroke:red;stroke-width:1px;stroke-linecap:butt;stroke-linejoin:miter;stroke-opacity:1" d="M 812.636,403.734 830.972,403.734 z" id="boundary" inkscape:connector-curvature="0" />
	<path style="fill:none;stroke:red;stroke-width:1px;stroke-linecap:butt;stroke-linejoin:miter;stroke-opacity:1" d="M 794.299,264.377 812.636,264.377 z" id="boundary" inkscape:connector-curvature="0" />
	<path style="fill:none;stroke:red;stroke-width:1px;stroke-linecap:butt;stroke-linejoin:miter;stroke-opacity:1" d="M 830.972,403.734 849.309,403.734 z" id="boundary" inkscape:connector-curvature="0" />
	<path style="fill:none;stroke:red;stroke-width:1px;stroke-linecap:butt;stroke-linejoin:miter;stroke-opacity:1" d="M 812.636,264.377 830.972,264.377 z" id="boundary" inkscape:connector-curvature="0" />
	<path style="fill:none;stroke:red;stroke-width:1px;stroke-linecap:butt;stroke-linejoin:miter;stroke-opacity:1" d="M 849.309,403.734 867.645,403.734 z" id="boundary" inkscape:connector-curvature="0" />
	<path style="fill:none;stroke:red;stroke-width:1px;stroke-linecap:butt;stroke-linejoin:miter;stroke-opacity:1" d="M 830.972,264.377 849.309,264.377 z" id="boundary" inkscape:connector-curvature="0" />
	<path style="fill:none;stroke:red;stroke-width:1px;stroke-linecap:butt;stroke-linejoin:miter;stroke-opacity:1" d="M 867.645,403.734 885.982,403.734 z" id="boundary" inkscape:connector-curvature="0" />
	<path style="fill:none;stroke:red;stroke-width:1px;stroke-linecap:butt;stroke-linejoin:miter;stroke-opacity:1" d="M 849.309,264.377 867.645,264.377 z" id="boundary" inkscape:connector-curvature="0" />
	<path style="fill:none;stroke:red;stroke-width:1px;stroke-linecap:butt;stroke-linejoin:miter;stroke-opacity:1" d="M 885.982,403.734 904.318,403.734 z" id="boundary" inkscape:connector-curvature="0" />
	<path style="fill:none;stroke:red;stroke-width:1px;stroke-linecap:butt;stroke-linejoin:miter;stroke-opacity:1" d="M 867.645,264.377 885.982,264.377 z" id="boundary" inkscape:connector-curvature="0" />
	<path style="fill:none;stroke:red;stroke-width:1px;stroke-linecap:butt;stroke-linejoin:miter;stroke-opacity:1" d="M 904.318,403.734 922.654,403.734 z" id="boundary" inkscape:connector-curvature="0" />
	<path style="fill:none;stroke:red;stroke-width:1px;stroke-linecap:butt;stroke-linejoin:miter;stroke-opacity:1" d="M 885.982,264.377 904.318,264.377 z" id="boundary" inkscape:connector-curvature="0" />
	<path style="fill:none;stroke:red;stroke-width:1px;stroke-linecap:butt;stroke-linejoin:miter;stroke-opacity:1" d="M 922.654,403.734 940.991,403.734 z" id="boundary" inkscape:connector-curvature="0" />
	<path style="fill:none;stroke:red;stroke-width:1px;stroke-linecap:butt;stroke-linejoin:miter;stroke-opacity:1" d="M 904.318,264.377 922.654,264.377 z" id="boundary" inkscape:connector-curvature="0" />
	<path style="fill:none;stroke:red;stroke-width:1px;stroke-linecap:butt;stroke-linejoin:miter;stroke-opacity:1" d="M 940.991,403.734 959.327,403.734 z" id="boundary" inkscape:connector-curvature="0" />
	<path style="fill:none;stroke:red;stroke-width:1px;stroke-linecap:butt;stroke-linejoin:miter;stroke-opacity:1" d="M 996,330.388 996,312.052 z" id="boundary" inkscape:connector-curvature="0" />
	<path style="fill:none;stroke:red;stroke-width:1px;stroke-linecap:butt;stroke-linejoin:miter;stroke-opacity:1" d="M 922.654,264.377 940.991,264.377 z" id="boundary" inkscape:connector-curvature="0" />
	<path style="fill:none;stroke:red;stroke-width:1px;stroke-linecap:butt;stroke-linejoin:miter;stroke-opacity:1" d="M 959.327,403.734 977.664,403.734 z" id="boundary" inkscape:connector-curvature="0" />
	<path style="fill:none;stroke:red;stroke-width:1px;stroke-linecap:butt;stroke-linejoin:miter;stroke-opacity:1" d="M 996,312.052 996,288.214 z" id="boundary" inkscape:connector-curvature="0" />
	<path style="fill:none;stroke:red;stroke-width:1px;stroke-linecap:butt;stroke-linejoin:miter;stroke-opacity:1" d="M 940.991,264.377 959.327,264.377 z" id="boundary" inkscape:connector-curvature="0" />
	<path style="fill:none;stroke:red;stroke-width:1px;stroke-linecap:butt;stroke-linejoin:miter;stroke-opacity:1" d="M 977.664,403.734 996,403.734 z" id="boundary" inkscape:connector-curvature="0" />
	<path style="fill:none;stroke:red;stroke-width:1px;stroke-linecap:butt;stroke-linejoin:miter;stroke-opacity:1" d="M 996,288.214 996,269.878 z" id="boundary" inkscape:connector-curvature="0" />
	<path style="fill:none;stroke:red;stroke-width:1px;stroke-linecap:butt;stroke-linejoin:miter;stroke-opacity:1" d="M 996,269.878 977.664,264.377 z" id="boundary" inkscape:connector-curvature="0" />
	<path style="fill:none;stroke:red;stroke-width:1px;stroke-linecap:butt;stroke-linejoin:miter;stroke-opacity:1" d="M 959.327,264.377 977.664,264.377 z" id="boundary" inkscape:connector-curvature="0" />
	<path style="fill:none;stroke:red;stroke-width:1px;stroke-linecap:butt;stroke-linejoin:miter;stroke-opacity:1" d="M 996,348.725 996,330.388 z" id="boundary" inkscape:connector-curvature="0" />
	<path style="fill:none;stroke:red;stroke-width:1px;stroke-linecap:butt;stroke-linejoin:miter;stroke-opacity:1" d="M 996,367.061 996,348.725 z" id="boundary" inkscape:connector-curvature="0" />
	<path style="fill:none;stroke:red;stroke-width:1px;stroke-linecap:butt;stroke-linejoin:miter;stroke-opacity:1" d="M 996,367.061 996,385.397 z" id="boundary" inkscape:connector-curvature="0" />
	<path style="fill:none;stroke:red;stroke-width:1px;stroke-linecap:butt;stroke-linejoin:miter;stroke-opacity:1" d="M 996,385.397 996,403.734 z" id="boundary" inkscape:connector-curvature="0" />
	<circle cx="4" cy="434.906" r="4" fill="#0" id="circle0"/>
	<circle cx="4" cy="462.41" r="4" fill="#0" id="circle1"/>
	<circle cx="4" cy="480.747" r="4" fill="#0" id="circle2"/>
	<circle cx="4" cy="499.083" r="4" fill="#0" id="circle3"/>
	<circle cx="4" cy="517.42" r="4" fill="#0" id="circle4"/>
	<circle cx="4" cy="535.756" r="4" fill="#0" id="circle5"/>
	<circle cx="4" cy="554.092" r="4" fill="#0" id="circle6"/>
	<circle cx="4" cy="572.429" r="4" fill="#0" id="circle7"/>
	<circle cx="18.6691" cy="585.264" r="4" fill="#0" id="circle8"/>
	<circle cx="22.3364" cy="429.405" r="4" fill="#0" id="circle9"/>
	<circle cx="31.5046" cy="251.542" r="4" fill="#0" id="circle10"/>
	<circle cx="31.5046" cy="279.046" r="4" fill="#0" id="circle11"/>
	<circle cx="31.5046" cy="297.383" r="4" fill="#0" id="circle12"/>
	<circle cx="31.5046" cy="315.719" r="4" fill="#0" id="circle13"/>
	<circle cx="31.5046" cy="334.055" r="4" fill="#0" id="circle14"/>
	<circle cx="31.5046" cy="352.392" r="4" fill="#0" id="circle15"/>
	<circle cx="31.5046" cy="370.728" r="4" fill="#0" id="circle16"/>
	<circle cx="31.5046" cy="389.065" r="4" fill="#0" id="circle17"/>
	<circle cx="31.5046" cy="407.401" r="4" fill="#0" id="circle18"/>
	<circle cx="37.0055" cy="585.264" r="4" fill="#0" id="circle19"/>
	<circle cx="46.1738" cy="236.872" r="4" fill="#0" id="circle20"/>
	<circle cx="55.342" cy="218.536" r="4" fill="#0" id="circle21"/>
	<circle cx="55.342" cy="585.264" r="4" fill="#0" id="circle22"/>
	<circle cx="59.0092" cy="196.532" r="4" fill="#0" id="circle23"/>
	<circle cx="73.6784" cy="181.863" r="4" fill="#0" id="circle24"/>
	<circle cx="73.6784" cy="585.264" r="4" fill="#0" id="circle25"/>
	<circle cx="82.8466" cy="163.527" r="4" fill="#0" id="circle26"/>
	<circle cx="92.0148" cy="145.19" r="4" fill="#0" id="circle27"/>
	<circle cx="92.0148" cy="585.264" r="4" fill="#0" id="circle28"/>
	<circle cx="104.85" cy="123.187" r="4" fill="#0" id="circle29"/>
	<circle cx="110.351" cy="585.264" r="4" fill="#0" id="circle30"/>
	<circle cx="119.519" cy="108.518" r="4" fill="#0" id="circle31"/>
	<circle cx="128.688" cy="90.1811" r="4" fill="#0" id="circle32"/>
	<circle cx="128.688" cy="585.264" r="4" fill="#0" id="circle33"/>
	<circle cx="143.357" cy="75.512" r="4" fill="#0" id="circle34"/>
	<circle cx="147.024" cy="585.264" r="4" fill="#0" id="circle35"/>
	<circle cx="161.693" cy="66.3438" r="4" fill="#0" id="circle36"/>
	<circle cx="165.36" cy="585.264" r="4" fill="#0" id="circle37"/>
	<circle cx="176.362" cy="53.5083" r="4" fill="#0" id="circle38"/>
	<circle cx="183.697" cy="585.264" r="4" fill="#0" id="circle39"/>
	<circle cx="194.699" cy="53.5083" r="4" fill="#0" id="circle40"/>
	<circle cx="202.033" cy="585.264" r="4" fill="#0" id="circle41"/>
	<circle cx="207.534" cy="38.8392" r="4" fill="#0" id="circle42"/>
	<circle cx="220.37" cy="585.264" r="4" fill="#0" id="circle43"/>
	<circle cx="225.871" cy="29.671" r="4" fill="#0" id="circle44"/>
	<circle cx="238.706" cy="585.264" r="4" fill="#0" id="circle45"/>
	<circle cx="244.207" cy="20.5028" r="4" fill="#0" id="circle46"/>
	<circle cx="253.375" cy="211.201" r="4" fill="#0" id="circle47"/>
	<circle cx="253.375" cy="229.538" r="4" fill="#0" id="circle48"/>
	<circle cx="253.375" cy="247.874" r="4" fill="#0" id="circle49"/>
	<circle cx="257.043" cy="585.264" r="4" fill="#0" id="circle50"/>
	<circle cx="262.543" cy="16.8355" r="4" fill="#0" id="circle51"/>
	<circle cx="262.543" cy="165.36" r="4" fill="#0" id="circle52"/>
	<circle cx="262.543" cy="183.697" r="4" fill="#0" id="circle53"/>
	<circle cx="262.543" cy="264.377" r="4" fill="#0" id="circle54"/>
	<circle cx="262.543" cy="403.734" r="4" fill="#0" id="circle55"/>
	<circle cx="262.543" cy="422.07" r="4" fill="#0" id="circle56"/>
	<circle cx="271.712" cy="110.351" r="4" fill="#0" id="circle57"/>
	<circle cx="271.712" cy="128.688" r="4" fill="#0" id="circle58"/>
	<circle cx="271.712" cy="147.024" r="4" fill="#0" id="circle59"/>
	<circle cx="275.379" cy="585.264" r="4" fill="#0" id="circle60"/>
	<circle cx="279.046" cy="7.66728" r="4" fill="#0" id="circle61"/>
	<circle cx="280.88" cy="64.5102" r="4" fill="#0" id="circle62"/>
	<circle cx="280.88" cy="82.8466" r="4" fill="#0" id="circle63"/>
	<circle cx="280.88" cy="264.377" r="4" fill="#0" id="circle64"/>
	<circle cx="280.88" cy="403.734" r="4" fill="#0" id="circle65"/>
	<circle cx="280.88" cy="429.405" r="4" fill="#0" id="circle66"/>
	<circle cx="280.88" cy="449.575" r="4" fill="#0" id="circle67"/>
	<circle cx="280.88" cy="486.248" r="4" fill="#0" id="circle68"/>
	<circle cx="280.88" cy="522.921" r="4" fill="#0" id="circle69"/>
	<circle cx="280.88" cy="559.593" r="4" fill="#0" id="circle70"/>
	<circle cx="290.048" cy="27.8373" r="4" fill="#0" id="circle71"/>
	<circle cx="290.048" cy="466.078" r="4" fill="#0" id="circle72"/>
	<circle cx="290.048" cy="502.75" r="4" fill="#0" id="circle73"/>
	<circle cx="290.048" cy="539.423" r="4" fill="#0" id="circle74"/>
	<circle cx="293.715" cy="46.1738" r="4" fill="#0" id="circle75"/>
	<circle cx="297.383" cy="4" r="4" fill="#0" id="circle76"/>
	<circle cx="299.216" cy="264.377" r="4" fill="#0" id="circle77"/>
	<circle cx="299.216" cy="403.734" r="4" fill="#0" id="circle78"/>
	<circle cx="308.384" cy="18.6691" r="4" fill="#0" id="circle79"/>
	<circle cx="317.553" cy="264.377" r="4" fill="#0" id="circle80"/>
	<circle cx="317.553" cy="403.734" r="4" fill="#0" id="circle81"/>
	<circle cx="335.889" cy="264.377" r="4" fill="#0" id="circle82"/>
	<circle cx="335.889" cy="403.734" r="4" fill="#0" id="circle83"/>
	<circle cx="354.226" cy="264.377" r="4" fill="#0" id="circle84"/>
	<circle cx="354.226" cy="403.734" r="4" fill="#0" id="circle85"/>
	<circle cx="372.562" cy="264.377" r="4" fill="#0" id="circle86"/>
	<circle cx="372.562" cy="403.734" r="4" fill="#0" id="circle87"/>
	<circle cx="390.898" cy="264.377" r="4" fill="#0" id="circle88"/>
	<circle cx="390.898" cy="403.734" r="4" fill="#0" id="circle89"/>
	<circle cx="409.235" cy="264.377" r="4" fill="#0" id="circle90"/>
	<circle cx="409.235" cy="403.734" r="4" fill="#0" id="circle91"/>
	<circle cx="427.571" cy="264.377" r="4" fill="#0" id="circle92"/>
	<circle cx="427.571" cy="403.734" r="4" fill="#0" id="circle93"/>
	<circle cx="445.908" cy="264.377" r="4" fill="#0" id="circle94"/>
	<circle cx="445.908" cy="403.734" r="4" fill="#0" id="circle95"/>
	<circle cx="464.244" cy="264.377" r="4" fill="#0" id="circle96"/>
	<circle cx="464.244" cy="403.734" r="4" fill="#0" id="circle97"/>
	<circle cx="482.58" cy="264.377" r="4" fill="#0" id="circle98"/>
	<circle cx="482.58" cy="403.734" r="4" fill="#0" id="circle99"/>
	<circle cx="500.917" cy="264.377" r="4" fill="#0" id="circle100"/>
	<circle cx="500.917" cy="403.734" r="4" fill="#0" id="circle101"/>
	<circle cx="519.253" cy="264.377" r="4" fill="#0" id="circle102"/>
	<circle cx="519.253" cy="403.734" r="4" fill="#0" id="circle103"/>
	<circle cx="537.59" cy="264.377" r="4" fill="#0" id="circle104"/>
	<circle cx="537.59" cy="403.734" r="4" fill="#0" id="circle105"/>
	<circle cx="555.926" cy="264.377" r="4" fill="#0" id="circle106"/>
	<circle cx="555.926" cy="403.734" r="4" fill="#0" id="circle107"/>
	<circle cx="574.262" cy="264.377" r="4" fill="#0" id="circle108"/>
	<circle cx="574.262" cy="403.734" r="4" fill="#0" id="circle109"/>
	<circle cx="592.599" cy="264.377" r="4" fill="#0" id="circle110"/>
	<circle cx="592.599" cy="403.734" r="4" fill="#0" id="circle111"/>
	<circle cx="610.935" cy="264.377" r="4" fill="#0" id="circle112"/>
	<circle cx="610.935" cy="403.734" r="4" fill="#0" id="circle113"/>
	<circle cx="629.272" cy="264.377" r="4" fill="#0" id="circle114"/>
	<circle cx="629.272" cy="403.734" r="4" fill="#0" id="circle115"/>
	<circle cx="647.608" cy="264.377" r="4" fill="#0" id="circle116"/>
	<circle cx="647.608" cy="403.734" r="4" fill="#0" id="circle117"/>
	<circle cx="665.945" cy="264.377" r="4" fill="#0" id="circle118"/>
	<circle cx="665.945" cy="403.734" r="4" fill="#0" id="circle119"/>
	<circle cx="684.281" cy="264.377" r="4" fill="#0" id="circle120"/>
	<circle cx="684.281" cy="403.734" r="4" fill="#0" id="circle121"/>
	<circle cx="702.617" cy="264.377" r="4" fill="#0" id="circle122"/>
	<circle cx="702.617" cy="403.734" r="4" fill="#0" id="circle123"/>
	<circle cx="720.954" cy="264.377" r="4" fill="#0" id="circle124"/>
	<circle cx="720.954" cy="403.734" r="4" fill="#0" id="circle125"/>
	<circle cx="739.29" cy="264.377" r="4" fill="#0" id="circle126"/>
	<circle cx="739.29" cy="403.734" r="4" fill="#0" id="circle127"/>
	<circle cx="757.627" cy="264.377" r="4" fill="#0" id="circle128"/>
	<circle cx="757.627" cy="403.734" r="4" fill="#0" id="circle129"/>
	<circle cx="775.963" cy="264.377" r="4" fill="#0" id="circle130"/>
	<circle cx="775.963" cy="403.734" r="4" fill="#0" id="circle131"/>
	<circle cx="794.299" cy="264.377" r="4" fill="#0" id="circle132"/>
	<circle cx="794.299" cy="403.734" r="4" fill="#0" id="circle133"/>
	<circle cx="812.636" cy="264.377" r="4" fill="#0" id="circle134"/>
	<circle cx="812.636" cy="403.734" r="4" fill="#0" id="circle135"/>
	<circle cx="830.972" cy="264.377" r="4" fill="#0" id="circle136"/>
	<circle cx="830.972" cy="403.734" r="4" fill="#0" id="circle137"/>
	<circle cx="849.309" cy="264.377" r="4" fill="#0" id="circle138"/>
	<circle cx="849.309" cy="403.734" r="4" fill="#0" id="circle139"/>
	<circle cx="867.645" cy="264.377" r="4" fill="#0" id="circle140"/>
	<circle cx="867.645" cy="403.734" r="4" fill="#0" id="circle141"/>
	<circle cx="885.982" cy="264.377" r="4" fill="#0" id="circle142"/>
	<circle cx="885.982" cy="403.734" r="4" fill="#0" id="circle143"/>
	<circle cx="904.318" cy="264.377" r="4" fill="#0" id="circle144"/>
	<circle cx="904.318" cy="403.734" r="4" fill="#0" id="circle145"/>
	<circle cx="922.654" cy="264.377" r="4" fill="#0" id="circle146"/>
	<circle cx="922.654" cy="403.734" r="4" fill="#0" id="circle147"/>
	<circle cx="940.991" cy="264.377" r="4" fill="#0" id="circle148"/>
	<circle cx="940.991" cy="403.734" r="4" fill="#0" id="circle149"/>
	<circle cx="959.327" cy="264.377" r="4" fill="#0" id="circle150"/>
	<circle cx="959.327" cy="403.734" r="4" fill="#0" id="circle151"/>
	<circle cx="977.664" cy="264.377" r="4" fill="#0" id="circle152"/>
	<circle cx="977.664" cy="403.734" r="4" fill="#0" id="circle153"/>
	<circle cx="996" cy="269.878" r="4" fill="#0" id="circle154"/>
	<circle cx="996" cy="288.214" r="4" fill="#0" id="circle155"/>
	<circle cx="996" cy="312.052" r="4" fill="#0" id="circle156"/>
	<circle cx="996" cy="330.388" r="4" fill="#0" id="circle157"/>
	<circle cx="996" cy="348.725" r="4" fill="#0" id="circle158"/>
	<circle cx="996" cy="367.061" r="4" fill="#0" id="circle159"/>
	<circle cx="996" cy="385.397" r="4" fill="#0" id="circle160"/>
	<circle cx="996" cy="403.734" r="4" fill="#0" id="circle161"/>
	</g>
</svg>