<?xml version="1.0" encoding="UTF-8" standalone="no"?>
<!-- Created with CurveBenchmark -->
<svg
	xmlns:dc="http://purl.org/dc/elements/1.1/"
	xmlns:cc="http://creativecommons.org/ns#"
	xmlns:rdf="http://www.w3.org/1999/02/22-rdf-syntax-ns#"
	xmlns:svg="http://www.w3.org/2000/svg"
	xmlns="http://www.w3.org/2000/svg"
	xmlns:sodipodi="http://sodipodi.sourceforge.net/DTD/sodipodi-0.dtd"
	xmlns:inkscape="http://www.inkscape.org/namespaces/inkscape"
	width="1000"
	height="1000"
	id="svg2"
	version="1.1"
	sodipodi:docname="manifold/peel-hammer250.png.txt">
<defs
	id="defs4" />
<metadata
	id="metadata7">
	<rdf:RDF>
		<cc:Work
			rdf:about="">
			<dc:format>image/svg+xml</dc:format>
			<dc:type
				rdf:resource="http://purl.org/dc/dcmitype/StillImage" />
			<dc:title></dc:title>
		</cc:Work>
	</rdf:RDF>
</metadata>
<g
	inkscape:label="Layer 1"
	inkscape:groupmode="layer"
	id="layer1">
	<path style="fill:none;stroke:red;stroke-width:1px;stroke-linecap:butt;stroke-linejoin:miter;stroke-opacity:1" d="M 4,55.7565 4,27.0029 z" id="boundary" inkscape:connector-curvature="0" />
	<path style="fill:none;stroke:red;stroke-width:1px;stroke-linecap:butt;stroke-linejoin:miter;stroke-opacity:1" d="M 4,27.0029 27.0029,4 z" id="boundary" inkscape:connector-curvature="0" />
	<path style="fill:none;stroke:red;stroke-width:1px;stroke-linecap:butt;stroke-linejoin:miter;stroke-opacity:1" d="M 27.0029,4 55.7565,4 z" id="boundary" inkscape:connector-curvature="0" />
	<path style="fill:none;stroke:red;stroke-width:1px;stroke-linecap:butt;stroke-linejoin:miter;stroke-opacity:1" d="M 4,55.7565 18.3768,81.6348 z" id="boundary" inkscape:connector-curvature="0" />
	<path style="fill:none;stroke:red;stroke-width:1px;stroke-linecap:butt;stroke-linejoin:miter;stroke-opacity:1" d="M 38.5043,952.87 38.5043,981.623 z" id="boundary" inkscape:connector-curvature="0" />
	<path style="fill:none;stroke:red;stroke-width:1px;stroke-linecap:butt;stroke-linejoin:miter;stroke-opacity:1" d="M 38.5043,981.623 64.3826,996 z" id="boundary" inkscape:connector-curvature="0" />
	<path style="fill:none;stroke:red;stroke-width:1px;stroke-linecap:butt;stroke-linejoin:miter;stroke-opacity:1" d="M 50.0058,153.519 44.2551,124.765 z" id="boundary" inkscape:connector-curvature="0" />
	<path style="fill:none;stroke:red;stroke-width:1px;stroke-linecap:butt;stroke-linejoin:miter;stroke-opacity:1" d="M 44.2551,124.765 44.2551,96.0116 z" id="boundary" inkscape:connector-curvature="0" />
	<path style="fill:none;stroke:red;stroke-width:1px;stroke-linecap:butt;stroke-linejoin:miter;stroke-opacity:1" d="M 44.2551,96.0116 18.3768,81.6348 z" id="boundary" inkscape:connector-curvature="0" />
	<path style="fill:none;stroke:red;stroke-width:1px;stroke-linecap:butt;stroke-linejoin:miter;stroke-opacity:1" d="M 44.2551,504.313 44.2551,475.559 z" id="boundary" inkscape:connector-curvature="0" />
	<path style="fill:none;stroke:red;stroke-width:1px;stroke-linecap:butt;stroke-linejoin:miter;stroke-opacity:1" d="M 44.2551,533.067 44.2551,504.313 z" id="boundary" inkscape:connector-curvature="0" />
	<path style="fill:none;stroke:red;stroke-width:1px;stroke-linecap:butt;stroke-linejoin:miter;stroke-opacity:1" d="M 142.017,4 113.264,4 z" id="boundary" inkscape:connector-curvature="0" />
	<path style="fill:none;stroke:red;stroke-width:1px;stroke-linecap:butt;stroke-linejoin:miter;stroke-opacity:1" d="M 44.2551,561.82 44.2551,533.067 z" id="boundary" inkscape:connector-curvature="0" />
	<path style="fill:none;stroke:red;stroke-width:1px;stroke-linecap:butt;stroke-linejoin:miter;stroke-opacity:1" d="M 67.258,268.533 67.258,239.78 z" id="boundary" inkscape:connector-curvature="0" />
	<path style="fill:none;stroke:red;stroke-width:1px;stroke-linecap:butt;stroke-linejoin:miter;stroke-opacity:1" d="M 67.258,239.78 64.3826,211.026 z" id="boundary" inkscape:connector-curvature="0" />
	<path style="fill:none;stroke:red;stroke-width:1px;stroke-linecap:butt;stroke-linejoin:miter;stroke-opacity:1" d="M 44.2551,590.574 44.2551,561.82 z" id="boundary" inkscape:connector-curvature="0" />
	<path style="fill:none;stroke:red;stroke-width:1px;stroke-linecap:butt;stroke-linejoin:miter;stroke-opacity:1" d="M 64.3826,211.026 58.6319,182.272 z" id="boundary" inkscape:connector-curvature="0" />
	<path style="fill:none;stroke:red;stroke-width:1px;stroke-linecap:butt;stroke-linejoin:miter;stroke-opacity:1" d="M 44.2551,619.328 44.2551,590.574 z" id="boundary" inkscape:connector-curvature="0" />
	<path style="fill:none;stroke:red;stroke-width:1px;stroke-linecap:butt;stroke-linejoin:miter;stroke-opacity:1" d="M 84.5101,4 113.264,4 z" id="boundary" inkscape:connector-curvature="0" />
	<path style="fill:none;stroke:red;stroke-width:1px;stroke-linecap:butt;stroke-linejoin:miter;stroke-opacity:1" d="M 44.2551,648.081 44.2551,619.328 z" id="boundary" inkscape:connector-curvature="0" />
	<path style="fill:none;stroke:red;stroke-width:1px;stroke-linecap:butt;stroke-linejoin:miter;stroke-opacity:1" d="M 58.6319,182.272 50.0058,153.519 z" id="boundary" inkscape:connector-curvature="0" />
	<path style="fill:none;stroke:red;stroke-width:1px;stroke-linecap:butt;stroke-linejoin:miter;stroke-opacity:1" d="M 44.2551,676.835 44.2551,648.081 z" id="boundary" inkscape:connector-curvature="0" />
	<path style="fill:none;stroke:red;stroke-width:1px;stroke-linecap:butt;stroke-linejoin:miter;stroke-opacity:1" d="M 67.258,406.551 61.5072,435.304 z" id="boundary" inkscape:connector-curvature="0" />
	<path style="fill:none;stroke:red;stroke-width:1px;stroke-linecap:butt;stroke-linejoin:miter;stroke-opacity:1" d="M 44.2551,705.588 44.2551,676.835 z" id="boundary" inkscape:connector-curvature="0" />
	<path style="fill:none;stroke:red;stroke-width:1px;stroke-linecap:butt;stroke-linejoin:miter;stroke-opacity:1" d="M 139.142,400.8 142.017,429.554 z" id="boundary" inkscape:connector-curvature="0" />
	<path style="fill:none;stroke:red;stroke-width:1px;stroke-linecap:butt;stroke-linejoin:miter;stroke-opacity:1" d="M 162.145,860.858 162.145,832.104 z" id="boundary" inkscape:connector-curvature="0" />
	<path style="fill:none;stroke:red;stroke-width:1px;stroke-linecap:butt;stroke-linejoin:miter;stroke-opacity:1" d="M 44.2551,734.342 44.2551,705.588 z" id="boundary" inkscape:connector-curvature="0" />
	<path style="fill:none;stroke:red;stroke-width:1px;stroke-linecap:butt;stroke-linejoin:miter;stroke-opacity:1" d="M 139.142,343.293 139.142,314.539 z" id="boundary" inkscape:connector-curvature="0" />
	<path style="fill:none;stroke:red;stroke-width:1px;stroke-linecap:butt;stroke-linejoin:miter;stroke-opacity:1" d="M 44.2551,763.096 44.2551,734.342 z" id="boundary" inkscape:connector-curvature="0" />
	<path style="fill:none;stroke:red;stroke-width:1px;stroke-linecap:butt;stroke-linejoin:miter;stroke-opacity:1" d="M 73.0087,326.041 67.258,297.287 z" id="boundary" inkscape:connector-curvature="0" />
	<path style="fill:none;stroke:red;stroke-width:1px;stroke-linecap:butt;stroke-linejoin:miter;stroke-opacity:1" d="M 44.2551,791.849 44.2551,763.096 z" id="boundary" inkscape:connector-curvature="0" />
	<path style="fill:none;stroke:red;stroke-width:1px;stroke-linecap:butt;stroke-linejoin:miter;stroke-opacity:1" d="M 73.0087,326.041 67.258,377.797 z" id="boundary" inkscape:connector-curvature="0" />
	<path style="fill:none;stroke:red;stroke-width:1px;stroke-linecap:butt;stroke-linejoin:miter;stroke-opacity:1" d="M 44.2551,820.603 44.2551,791.849 z" id="boundary" inkscape:connector-curvature="0" />
	<path style="fill:none;stroke:red;stroke-width:1px;stroke-linecap:butt;stroke-linejoin:miter;stroke-opacity:1" d="M 142.017,429.554 150.643,458.307 z" id="boundary" inkscape:connector-curvature="0" />
	<path style="fill:none;stroke:red;stroke-width:1px;stroke-linecap:butt;stroke-linejoin:miter;stroke-opacity:1" d="M 44.2551,849.357 44.2551,820.603 z" id="boundary" inkscape:connector-curvature="0" />
	<path style="fill:none;stroke:red;stroke-width:1px;stroke-linecap:butt;stroke-linejoin:miter;stroke-opacity:1" d="M 162.145,487.061 150.643,458.307 z" id="boundary" inkscape:connector-curvature="0" />
	<path style="fill:none;stroke:red;stroke-width:1px;stroke-linecap:butt;stroke-linejoin:miter;stroke-opacity:1" d="M 44.2551,878.11 44.2551,849.357 z" id="boundary" inkscape:connector-curvature="0" />
	<path style="fill:none;stroke:red;stroke-width:1px;stroke-linecap:butt;stroke-linejoin:miter;stroke-opacity:1" d="M 38.5043,952.87 44.2551,906.864 z" id="boundary" inkscape:connector-curvature="0" />
	<path style="fill:none;stroke:red;stroke-width:1px;stroke-linecap:butt;stroke-linejoin:miter;stroke-opacity:1" d="M 44.2551,906.864 44.2551,878.11 z" id="boundary" inkscape:connector-curvature="0" />
	<path style="fill:none;stroke:red;stroke-width:1px;stroke-linecap:butt;stroke-linejoin:miter;stroke-opacity:1" d="M 162.145,688.336 162.145,717.09 z" id="boundary" inkscape:connector-curvature="0" />
	<path style="fill:none;stroke:red;stroke-width:1px;stroke-linecap:butt;stroke-linejoin:miter;stroke-opacity:1" d="M 162.145,717.09 162.145,745.843 z" id="boundary" inkscape:connector-curvature="0" />
	<path style="fill:none;stroke:red;stroke-width:1px;stroke-linecap:butt;stroke-linejoin:miter;stroke-opacity:1" d="M 139.142,372.046 139.142,343.293 z" id="boundary" inkscape:connector-curvature="0" />
	<path style="fill:none;stroke:red;stroke-width:1px;stroke-linecap:butt;stroke-linejoin:miter;stroke-opacity:1" d="M 139.142,400.8 139.142,372.046 z" id="boundary" inkscape:connector-curvature="0" />
	<path style="fill:none;stroke:red;stroke-width:1px;stroke-linecap:butt;stroke-linejoin:miter;stroke-opacity:1" d="M 84.5101,4 55.7565,4 z" id="boundary" inkscape:connector-curvature="0" />
	<path style="fill:none;stroke:red;stroke-width:1px;stroke-linecap:butt;stroke-linejoin:miter;stroke-opacity:1" d="M 162.145,774.597 162.145,745.843 z" id="boundary" inkscape:connector-curvature="0" />
	<path style="fill:none;stroke:red;stroke-width:1px;stroke-linecap:butt;stroke-linejoin:miter;stroke-opacity:1" d="M 67.258,268.533 67.258,297.287 z" id="boundary" inkscape:connector-curvature="0" />
	<path style="fill:none;stroke:red;stroke-width:1px;stroke-linecap:butt;stroke-linejoin:miter;stroke-opacity:1" d="M 185.148,38.5043 170.771,12.6261 z" id="boundary" inkscape:connector-curvature="0" />
	<path style="fill:none;stroke:red;stroke-width:1px;stroke-linecap:butt;stroke-linejoin:miter;stroke-opacity:1" d="M 170.771,12.6261 142.017,4 z" id="boundary" inkscape:connector-curvature="0" />
	<path style="fill:none;stroke:red;stroke-width:1px;stroke-linecap:butt;stroke-linejoin:miter;stroke-opacity:1" d="M 139.142,285.786 139.142,314.539 z" id="boundary" inkscape:connector-curvature="0" />
	<path style="fill:none;stroke:red;stroke-width:1px;stroke-linecap:butt;stroke-linejoin:miter;stroke-opacity:1" d="M 61.5072,435.304 44.2551,475.559 z" id="boundary" inkscape:connector-curvature="0" />
	<path style="fill:none;stroke:red;stroke-width:1px;stroke-linecap:butt;stroke-linejoin:miter;stroke-opacity:1" d="M 139.142,257.032 139.142,228.278 z" id="boundary" inkscape:connector-curvature="0" />
	<path style="fill:none;stroke:red;stroke-width:1px;stroke-linecap:butt;stroke-linejoin:miter;stroke-opacity:1" d="M 67.258,406.551 67.258,377.797 z" id="boundary" inkscape:connector-curvature="0" />
	<path style="fill:none;stroke:red;stroke-width:1px;stroke-linecap:butt;stroke-linejoin:miter;stroke-opacity:1" d="M 162.145,515.814 167.896,544.568 z" id="boundary" inkscape:connector-curvature="0" />
	<path style="fill:none;stroke:red;stroke-width:1px;stroke-linecap:butt;stroke-linejoin:miter;stroke-opacity:1" d="M 64.3826,996 93.1362,996 z" id="boundary" inkscape:connector-curvature="0" />
	<path style="fill:none;stroke:red;stroke-width:1px;stroke-linecap:butt;stroke-linejoin:miter;stroke-opacity:1" d="M 139.142,257.032 139.142,285.786 z" id="boundary" inkscape:connector-curvature="0" />
	<path style="fill:none;stroke:red;stroke-width:1px;stroke-linecap:butt;stroke-linejoin:miter;stroke-opacity:1" d="M 167.896,630.829 167.896,602.075 z" id="boundary" inkscape:connector-curvature="0" />
	<path style="fill:none;stroke:red;stroke-width:1px;stroke-linecap:butt;stroke-linejoin:miter;stroke-opacity:1" d="M 144.893,193.774 139.142,228.278 z" id="boundary" inkscape:connector-curvature="0" />
	<path style="fill:none;stroke:red;stroke-width:1px;stroke-linecap:butt;stroke-linejoin:miter;stroke-opacity:1" d="M 162.145,515.814 162.145,487.061 z" id="boundary" inkscape:connector-curvature="0" />
	<path style="fill:none;stroke:red;stroke-width:1px;stroke-linecap:butt;stroke-linejoin:miter;stroke-opacity:1" d="M 144.893,193.774 170.771,179.397 z" id="boundary" inkscape:connector-curvature="0" />
	<path style="fill:none;stroke:red;stroke-width:1px;stroke-linecap:butt;stroke-linejoin:miter;stroke-opacity:1" d="M 170.771,179.397 199.525,179.397 z" id="boundary" inkscape:connector-curvature="0" />
	<path style="fill:none;stroke:red;stroke-width:1px;stroke-linecap:butt;stroke-linejoin:miter;stroke-opacity:1" d="M 167.896,544.568 167.896,573.322 z" id="boundary" inkscape:connector-curvature="0" />
	<path style="fill:none;stroke:red;stroke-width:1px;stroke-linecap:butt;stroke-linejoin:miter;stroke-opacity:1" d="M 185.148,38.5043 196.649,67.258 z" id="boundary" inkscape:connector-curvature="0" />
	<path style="fill:none;stroke:red;stroke-width:1px;stroke-linecap:butt;stroke-linejoin:miter;stroke-opacity:1" d="M 162.145,889.612 162.145,860.858 z" id="boundary" inkscape:connector-curvature="0" />
	<path style="fill:none;stroke:red;stroke-width:1px;stroke-linecap:butt;stroke-linejoin:miter;stroke-opacity:1" d="M 121.89,996 93.1362,996 z" id="boundary" inkscape:connector-curvature="0" />
	<path style="fill:none;stroke:red;stroke-width:1px;stroke-linecap:butt;stroke-linejoin:miter;stroke-opacity:1" d="M 162.145,774.597 162.145,803.351 z" id="boundary" inkscape:connector-curvature="0" />
	<path style="fill:none;stroke:red;stroke-width:1px;stroke-linecap:butt;stroke-linejoin:miter;stroke-opacity:1" d="M 167.896,573.322 167.896,602.075 z" id="boundary" inkscape:connector-curvature="0" />
	<path style="fill:none;stroke:red;stroke-width:1px;stroke-linecap:butt;stroke-linejoin:miter;stroke-opacity:1" d="M 162.145,803.351 162.145,832.104 z" id="boundary" inkscape:connector-curvature="0" />
	<path style="fill:none;stroke:red;stroke-width:1px;stroke-linecap:butt;stroke-linejoin:miter;stroke-opacity:1" d="M 167.896,659.583 167.896,630.829 z" id="boundary" inkscape:connector-curvature="0" />
	<path style="fill:none;stroke:red;stroke-width:1px;stroke-linecap:butt;stroke-linejoin:miter;stroke-opacity:1" d="M 167.896,659.583 162.145,688.336 z" id="boundary" inkscape:connector-curvature="0" />
	<path style="fill:none;stroke:red;stroke-width:1px;stroke-linecap:butt;stroke-linejoin:miter;stroke-opacity:1" d="M 167.896,918.365 162.145,889.612 z" id="boundary" inkscape:connector-curvature="0" />
	<path style="fill:none;stroke:red;stroke-width:1px;stroke-linecap:butt;stroke-linejoin:miter;stroke-opacity:1" d="M 167.896,947.119 167.896,918.365 z" id="boundary" inkscape:connector-curvature="0" />
	<path style="fill:none;stroke:red;stroke-width:1px;stroke-linecap:butt;stroke-linejoin:miter;stroke-opacity:1" d="M 219.652,153.519 199.525,179.397 z" id="boundary" inkscape:connector-curvature="0" />
	<path style="fill:none;stroke:red;stroke-width:1px;stroke-linecap:butt;stroke-linejoin:miter;stroke-opacity:1" d="M 121.89,996 150.643,996 z" id="boundary" inkscape:connector-curvature="0" />
	<path style="fill:none;stroke:red;stroke-width:1px;stroke-linecap:butt;stroke-linejoin:miter;stroke-opacity:1" d="M 150.643,996 167.896,947.119 z" id="boundary" inkscape:connector-curvature="0" />
	<path style="fill:none;stroke:red;stroke-width:1px;stroke-linecap:butt;stroke-linejoin:miter;stroke-opacity:1" d="M 196.649,67.258 208.151,96.0116 z" id="boundary" inkscape:connector-curvature="0" />
	<path style="fill:none;stroke:red;stroke-width:1px;stroke-linecap:butt;stroke-linejoin:miter;stroke-opacity:1" d="M 213.901,124.765 219.652,153.519 z" id="boundary" inkscape:connector-curvature="0" />
	<path style="fill:none;stroke:red;stroke-width:1px;stroke-linecap:butt;stroke-linejoin:miter;stroke-opacity:1" d="M 213.901,124.765 208.151,96.0116 z" id="boundary" inkscape:connector-curvature="0" />
	<circle cx="4" cy="27.0029" r="4" fill="#0" id="circle0"/>
	<circle cx="4" cy="55.7565" r="4" fill="#0" id="circle1"/>
	<circle cx="18.3768" cy="81.6348" r="4" fill="#0" id="circle2"/>
	<circle cx="27.0029" cy="4" r="4" fill="#0" id="circle3"/>
	<circle cx="38.5043" cy="952.87" r="4" fill="#0" id="circle4"/>
	<circle cx="38.5043" cy="981.623" r="4" fill="#0" id="circle5"/>
	<circle cx="44.2551" cy="96.0116" r="4" fill="#0" id="circle6"/>
	<circle cx="44.2551" cy="124.765" r="4" fill="#0" id="circle7"/>
	<circle cx="44.2551" cy="475.559" r="4" fill="#0" id="circle8"/>
	<circle cx="44.2551" cy="504.313" r="4" fill="#0" id="circle9"/>
	<circle cx="44.2551" cy="533.067" r="4" fill="#0" id="circle10"/>
	<circle cx="44.2551" cy="561.82" r="4" fill="#0" id="circle11"/>
	<circle cx="44.2551" cy="590.574" r="4" fill="#0" id="circle12"/>
	<circle cx="44.2551" cy="619.328" r="4" fill="#0" id="circle13"/>
	<circle cx="44.2551" cy="648.081" r="4" fill="#0" id="circle14"/>
	<circle cx="44.2551" cy="676.835" r="4" fill="#0" id="circle15"/>
	<circle cx="44.2551" cy="705.588" r="4" fill="#0" id="circle16"/>
	<circle cx="44.2551" cy="734.342" r="4" fill="#0" id="circle17"/>
	<circle cx="44.2551" cy="763.096" r="4" fill="#0" id="circle18"/>
	<circle cx="44.2551" cy="791.849" r="4" fill="#0" id="circle19"/>
	<circle cx="44.2551" cy="820.603" r="4" fill="#0" id="circle20"/>
	<circle cx="44.2551" cy="849.357" r="4" fill="#0" id="circle21"/>
	<circle cx="44.2551" cy="878.11" r="4" fill="#0" id="circle22"/>
	<circle cx="44.2551" cy="906.864" r="4" fill="#0" id="circle23"/>
	<circle cx="50.0058" cy="153.519" r="4" fill="#0" id="circle24"/>
	<circle cx="55.7565" cy="4" r="4" fill="#0" id="circle25"/>
	<circle cx="58.6319" cy="182.272" r="4" fill="#0" id="circle26"/>
	<circle cx="61.5072" cy="435.304" r="4" fill="#0" id="circle27"/>
	<circle cx="64.3826" cy="211.026" r="4" fill="#0" id="circle28"/>
	<circle cx="64.3826" cy="996" r="4" fill="#0" id="circle29"/>
	<circle cx="67.258" cy="239.78" r="4" fill="#0" id="circle30"/>
	<circle cx="67.258" cy="268.533" r="4" fill="#0" id="circle31"/>
	<circle cx="67.258" cy="297.287" r="4" fill="#0" id="circle32"/>
	<circle cx="67.258" cy="377.797" r="4" fill="#0" id="circle33"/>
	<circle cx="67.258" cy="406.551" r="4" fill="#0" id="circle34"/>
	<circle cx="73.0087" cy="326.041" r="4" fill="#0" id="circle35"/>
	<circle cx="84.5101" cy="4" r="4" fill="#0" id="circle36"/>
	<circle cx="93.1362" cy="996" r="4" fill="#0" id="circle37"/>
	<circle cx="113.264" cy="4" r="4" fill="#0" id="circle38"/>
	<circle cx="121.89" cy="996" r="4" fill="#0" id="circle39"/>
	<circle cx="139.142" cy="228.278" r="4" fill="#0" id="circle40"/>
	<circle cx="139.142" cy="257.032" r="4" fill="#0" id="circle41"/>
	<circle cx="139.142" cy="285.786" r="4" fill="#0" id="circle42"/>
	<circle cx="139.142" cy="314.539" r="4" fill="#0" id="circle43"/>
	<circle cx="139.142" cy="343.293" r="4" fill="#0" id="circle44"/>
	<circle cx="139.142" cy="372.046" r="4" fill="#0" id="circle45"/>
	<circle cx="139.142" cy="400.8" r="4" fill="#0" id="circle46"/>
	<circle cx="142.017" cy="4" r="4" fill="#0" id="circle47"/>
	<circle cx="142.017" cy="429.554" r="4" fill="#0" id="circle48"/>
	<circle cx="144.893" cy="193.774" r="4" fill="#0" id="circle49"/>
	<circle cx="150.643" cy="458.307" r="4" fill="#0" id="circle50"/>
	<circle cx="150.643" cy="996" r="4" fill="#0" id="circle51"/>
	<circle cx="162.145" cy="487.061" r="4" fill="#0" id="circle52"/>
	<circle cx="162.145" cy="515.814" r="4" fill="#0" id="circle53"/>
	<circle cx="162.145" cy="688.336" r="4" fill="#0" id="circle54"/>
	<circle cx="162.145" cy="717.09" r="4" fill="#0" id="circle55"/>
	<circle cx="162.145" cy="745.843" r="4" fill="#0" id="circle56"/>
	<circle cx="162.145" cy="774.597" r="4" fill="#0" id="circle57"/>
	<circle cx="162.145" cy="803.351" r="4" fill="#0" id="circle58"/>
	<circle cx="162.145" cy="832.104" r="4" fill="#0" id="circle59"/>
	<circle cx="162.145" cy="860.858" r="4" fill="#0" id="circle60"/>
	<circle cx="162.145" cy="889.612" r="4" fill="#0" id="circle61"/>
	<circle cx="167.896" cy="544.568" r="4" fill="#0" id="circle62"/>
	<circle cx="167.896" cy="573.322" r="4" fill="#0" id="circle63"/>
	<circle cx="167.896" cy="602.075" r="4" fill="#0" id="circle64"/>
	<circle cx="167.896" cy="630.829" r="4" fill="#0" id="circle65"/>
	<circle cx="167.896" cy="659.583" r="4" fill="#0" id="circle66"/>
	<circle cx="167.896" cy="918.365" r="4" fill="#0" id="circle67"/>
	<circle cx="167.896" cy="947.119" r="4" fill="#0" id="circle68"/>
	<circle cx="170.771" cy="12.6261" r="4" fill="#0" id="circle69"/>
	<circle cx="170.771" cy="179.397" r="4" fill="#0" id="circle70"/>
	<circle cx="185.148" cy="38.5043" r="4" fill="#0" id="circle71"/>
	<circle cx="196.649" cy="67.258" r="4" fill="#0" id="circle72"/>
	<circle cx="199.525" cy="179.397" r="4" fill="#0" id="circle73"/>
	<circle cx="208.151" cy="96.0116" r="4" fill="#0" id="circle74"/>
	<circle cx="213.901" cy="124.765" r="4" fill="#0" id="circle75"/>
	<circle cx="219.652" cy="153.519" r="4" fill="#0" id="circle76"/>
	</g>
</svg>