<?xml version="1.0" encoding="UTF-8" standalone="no"?>
<!-- Created with CurveBenchmark -->
<svg
	xmlns:dc="http://purl.org/dc/elements/1.1/"
	xmlns:cc="http://creativecommons.org/ns#"
	xmlns:rdf="http://www.w3.org/1999/02/22-rdf-syntax-ns#"
	xmlns:svg="http://www.w3.org/2000/svg"
	xmlns="http://www.w3.org/2000/svg"
	xmlns:sodipodi="http://sodipodi.sourceforge.net/DTD/sodipodi-0.dtd"
	xmlns:inkscape="http://www.inkscape.org/namespaces/inkscape"
	width="1000"
	height="1000"
	id="svg2"
	version="1.1"
	sodipodi:docname="manifold/peel-brick-07.png.txt">
<defs
	id="defs4" />
<metadata
	id="metadata7">
	<rdf:RDF>
		<cc:Work
			rdf:about="">
			<dc:format>image/svg+xml</dc:format>
			<dc:type
				rdf:resource="http://purl.org/dc/dcmitype/StillImage" />
			<dc:title></dc:title>
		</cc:Work>
	</rdf:RDF>
</metadata>
<g
	inkscape:label="Layer 1"
	inkscape:groupmode="layer"
	id="layer1">
	<path style="fill:none;stroke:red;stroke-width:1px;stroke-linecap:butt;stroke-linejoin:miter;stroke-opacity:1" d="M 8.44444,236.889 4,228.889 z" id="boundary" inkscape:connector-curvature="0" />
	<path style="fill:none;stroke:red;stroke-width:1px;stroke-linecap:butt;stroke-linejoin:miter;stroke-opacity:1" d="M 4,228.889 11.1111,221.778 z" id="boundary" inkscape:connector-curvature="0" />
	<path style="fill:none;stroke:red;stroke-width:1px;stroke-linecap:butt;stroke-linejoin:miter;stroke-opacity:1" d="M 8.44444,236.889 8.44444,245.778 z" id="boundary" inkscape:connector-curvature="0" />
	<path style="fill:none;stroke:red;stroke-width:1px;stroke-linecap:butt;stroke-linejoin:miter;stroke-opacity:1" d="M 8.44444,263.556 8.44444,254.667 z" id="boundary" inkscape:connector-curvature="0" />
	<path style="fill:none;stroke:red;stroke-width:1px;stroke-linecap:butt;stroke-linejoin:miter;stroke-opacity:1" d="M 8.44444,254.667 8.44444,245.778 z" id="boundary" inkscape:connector-curvature="0" />
	<path style="fill:none;stroke:red;stroke-width:1px;stroke-linecap:butt;stroke-linejoin:miter;stroke-opacity:1" d="M 11.1111,221.778 18.2222,214.667 z" id="boundary" inkscape:connector-curvature="0" />
	<path style="fill:none;stroke:red;stroke-width:1px;stroke-linecap:butt;stroke-linejoin:miter;stroke-opacity:1" d="M 25.3333,208.444 18.2222,214.667 z" id="boundary" inkscape:connector-curvature="0" />
	<path style="fill:none;stroke:red;stroke-width:1px;stroke-linecap:butt;stroke-linejoin:miter;stroke-opacity:1" d="M 8.44444,272.444 8.44444,263.556 z" id="boundary" inkscape:connector-curvature="0" />
	<path style="fill:none;stroke:red;stroke-width:1px;stroke-linecap:butt;stroke-linejoin:miter;stroke-opacity:1" d="M 8.44444,281.333 8.44444,272.444 z" id="boundary" inkscape:connector-curvature="0" />
	<path style="fill:none;stroke:red;stroke-width:1px;stroke-linecap:butt;stroke-linejoin:miter;stroke-opacity:1" d="M 25.3333,208.444 33.3333,204 z" id="boundary" inkscape:connector-curvature="0" />
	<path style="fill:none;stroke:red;stroke-width:1px;stroke-linecap:butt;stroke-linejoin:miter;stroke-opacity:1" d="M 8.44444,290.222 8.44444,281.333 z" id="boundary" inkscape:connector-curvature="0" />
	<path style="fill:none;stroke:red;stroke-width:1px;stroke-linecap:butt;stroke-linejoin:miter;stroke-opacity:1" d="M 33.3333,204 42.2222,199.556 z" id="boundary" inkscape:connector-curvature="0" />
	<path style="fill:none;stroke:red;stroke-width:1px;stroke-linecap:butt;stroke-linejoin:miter;stroke-opacity:1" d="M 8.44444,299.111 8.44444,290.222 z" id="boundary" inkscape:connector-curvature="0" />
	<path style="fill:none;stroke:red;stroke-width:1px;stroke-linecap:butt;stroke-linejoin:miter;stroke-opacity:1" d="M 8.44444,308 8.44444,299.111 z" id="boundary" inkscape:connector-curvature="0" />
	<path style="fill:none;stroke:red;stroke-width:1px;stroke-linecap:butt;stroke-linejoin:miter;stroke-opacity:1" d="M 8.44444,316.889 8.44444,308 z" id="boundary" inkscape:connector-curvature="0" />
	<path style="fill:none;stroke:red;stroke-width:1px;stroke-linecap:butt;stroke-linejoin:miter;stroke-opacity:1" d="M 8.44444,325.778 8.44444,316.889 z" id="boundary" inkscape:connector-curvature="0" />
	<path style="fill:none;stroke:red;stroke-width:1px;stroke-linecap:butt;stroke-linejoin:miter;stroke-opacity:1" d="M 8.44444,334.667 8.44444,325.778 z" id="boundary" inkscape:connector-curvature="0" />
	<path style="fill:none;stroke:red;stroke-width:1px;stroke-linecap:butt;stroke-linejoin:miter;stroke-opacity:1" d="M 14.6667,341.778 8.44444,334.667 z" id="boundary" inkscape:connector-curvature="0" />
	<path style="fill:none;stroke:red;stroke-width:1px;stroke-linecap:butt;stroke-linejoin:miter;stroke-opacity:1" d="M 29.7778,342.667 21.7778,347.111 z" id="boundary" inkscape:connector-curvature="0" />
	<path style="fill:none;stroke:red;stroke-width:1px;stroke-linecap:butt;stroke-linejoin:miter;stroke-opacity:1" d="M 21.7778,347.111 14.6667,341.778 z" id="boundary" inkscape:connector-curvature="0" />
	<path style="fill:none;stroke:red;stroke-width:1px;stroke-linecap:butt;stroke-linejoin:miter;stroke-opacity:1" d="M 38.6667,342.667 29.7778,342.667 z" id="boundary" inkscape:connector-curvature="0" />
	<path style="fill:none;stroke:red;stroke-width:1px;stroke-linecap:butt;stroke-linejoin:miter;stroke-opacity:1" d="M 62.6667,179.111 56.4444,186.222 z" id="boundary" inkscape:connector-curvature="0" />
	<path style="fill:none;stroke:red;stroke-width:1px;stroke-linecap:butt;stroke-linejoin:miter;stroke-opacity:1" d="M 56.4444,186.222 49.3333,192.444 z" id="boundary" inkscape:connector-curvature="0" />
	<path style="fill:none;stroke:red;stroke-width:1px;stroke-linecap:butt;stroke-linejoin:miter;stroke-opacity:1" d="M 47.5556,342.667 38.6667,342.667 z" id="boundary" inkscape:connector-curvature="0" />
	<path style="fill:none;stroke:red;stroke-width:1px;stroke-linecap:butt;stroke-linejoin:miter;stroke-opacity:1" d="M 49.3333,192.444 42.2222,199.556 z" id="boundary" inkscape:connector-curvature="0" />
	<path style="fill:none;stroke:red;stroke-width:1px;stroke-linecap:butt;stroke-linejoin:miter;stroke-opacity:1" d="M 125.778,333.778 116.889,333.778 z" id="boundary" inkscape:connector-curvature="0" />
	<path style="fill:none;stroke:red;stroke-width:1px;stroke-linecap:butt;stroke-linejoin:miter;stroke-opacity:1" d="M 55.5556,338.222 47.5556,342.667 z" id="boundary" inkscape:connector-curvature="0" />
	<path style="fill:none;stroke:red;stroke-width:1px;stroke-linecap:butt;stroke-linejoin:miter;stroke-opacity:1" d="M 64.4444,338.222 55.5556,338.222 z" id="boundary" inkscape:connector-curvature="0" />
	<path style="fill:none;stroke:red;stroke-width:1px;stroke-linecap:butt;stroke-linejoin:miter;stroke-opacity:1" d="M 62.6667,179.111 69.7778,172.889 z" id="boundary" inkscape:connector-curvature="0" />
	<path style="fill:none;stroke:red;stroke-width:1px;stroke-linecap:butt;stroke-linejoin:miter;stroke-opacity:1" d="M 89.3333,152.444 83.1111,159.556 z" id="boundary" inkscape:connector-curvature="0" />
	<path style="fill:none;stroke:red;stroke-width:1px;stroke-linecap:butt;stroke-linejoin:miter;stroke-opacity:1" d="M 83.1111,159.556 76,165.778 z" id="boundary" inkscape:connector-curvature="0" />
	<path style="fill:none;stroke:red;stroke-width:1px;stroke-linecap:butt;stroke-linejoin:miter;stroke-opacity:1" d="M 73.3333,338.222 64.4444,338.222 z" id="boundary" inkscape:connector-curvature="0" />
	<path style="fill:none;stroke:red;stroke-width:1px;stroke-linecap:butt;stroke-linejoin:miter;stroke-opacity:1" d="M 119.556,42.2222 119.556,33.3333 z" id="boundary" inkscape:connector-curvature="0" />
	<path style="fill:none;stroke:red;stroke-width:1px;stroke-linecap:butt;stroke-linejoin:miter;stroke-opacity:1" d="M 76,165.778 69.7778,172.889 z" id="boundary" inkscape:connector-curvature="0" />
	<path style="fill:none;stroke:red;stroke-width:1px;stroke-linecap:butt;stroke-linejoin:miter;stroke-opacity:1" d="M 82.2222,338.222 73.3333,338.222 z" id="boundary" inkscape:connector-curvature="0" />
	<path style="fill:none;stroke:red;stroke-width:1px;stroke-linecap:butt;stroke-linejoin:miter;stroke-opacity:1" d="M 134.667,333.778 125.778,333.778 z" id="boundary" inkscape:connector-curvature="0" />
	<path style="fill:none;stroke:red;stroke-width:1px;stroke-linecap:butt;stroke-linejoin:miter;stroke-opacity:1" d="M 89.3333,152.444 96.4444,146.222 z" id="boundary" inkscape:connector-curvature="0" />
	<path style="fill:none;stroke:red;stroke-width:1px;stroke-linecap:butt;stroke-linejoin:miter;stroke-opacity:1" d="M 90.2222,333.778 82.2222,338.222 z" id="boundary" inkscape:connector-curvature="0" />
	<path style="fill:none;stroke:red;stroke-width:1px;stroke-linecap:butt;stroke-linejoin:miter;stroke-opacity:1" d="M 99.1111,333.778 90.2222,333.778 z" id="boundary" inkscape:connector-curvature="0" />
	<path style="fill:none;stroke:red;stroke-width:1px;stroke-linecap:butt;stroke-linejoin:miter;stroke-opacity:1" d="M 119.556,51.1111 119.556,42.2222 z" id="boundary" inkscape:connector-curvature="0" />
	<path style="fill:none;stroke:red;stroke-width:1px;stroke-linecap:butt;stroke-linejoin:miter;stroke-opacity:1" d="M 102.667,139.111 111.556,134.667 z" id="boundary" inkscape:connector-curvature="0" />
	<path style="fill:none;stroke:red;stroke-width:1px;stroke-linecap:butt;stroke-linejoin:miter;stroke-opacity:1" d="M 102.667,139.111 96.4444,146.222 z" id="boundary" inkscape:connector-curvature="0" />
	<path style="fill:none;stroke:red;stroke-width:1px;stroke-linecap:butt;stroke-linejoin:miter;stroke-opacity:1" d="M 108,333.778 99.1111,333.778 z" id="boundary" inkscape:connector-curvature="0" />
	<path style="fill:none;stroke:red;stroke-width:1px;stroke-linecap:butt;stroke-linejoin:miter;stroke-opacity:1" d="M 116.889,333.778 108,333.778 z" id="boundary" inkscape:connector-curvature="0" />
	<path style="fill:none;stroke:red;stroke-width:1px;stroke-linecap:butt;stroke-linejoin:miter;stroke-opacity:1" d="M 119.556,60 119.556,68.8889 z" id="boundary" inkscape:connector-curvature="0" />
	<path style="fill:none;stroke:red;stroke-width:1px;stroke-linecap:butt;stroke-linejoin:miter;stroke-opacity:1" d="M 172.889,347.111 178.222,354.222 z" id="boundary" inkscape:connector-curvature="0" />
	<path style="fill:none;stroke:red;stroke-width:1px;stroke-linecap:butt;stroke-linejoin:miter;stroke-opacity:1" d="M 119.556,51.1111 119.556,60 z" id="boundary" inkscape:connector-curvature="0" />
	<path style="fill:none;stroke:red;stroke-width:1px;stroke-linecap:butt;stroke-linejoin:miter;stroke-opacity:1" d="M 119.556,86.6667 119.556,77.7778 z" id="boundary" inkscape:connector-curvature="0" />
	<path style="fill:none;stroke:red;stroke-width:1px;stroke-linecap:butt;stroke-linejoin:miter;stroke-opacity:1" d="M 119.556,77.7778 119.556,68.8889 z" id="boundary" inkscape:connector-curvature="0" />
	<path style="fill:none;stroke:red;stroke-width:1px;stroke-linecap:butt;stroke-linejoin:miter;stroke-opacity:1" d="M 119.556,33.3333 126.667,26.2222 z" id="boundary" inkscape:connector-curvature="0" />
	<path style="fill:none;stroke:red;stroke-width:1px;stroke-linecap:butt;stroke-linejoin:miter;stroke-opacity:1" d="M 143.556,21.7778 134.667,21.7778 z" id="boundary" inkscape:connector-curvature="0" />
	<path style="fill:none;stroke:red;stroke-width:1px;stroke-linecap:butt;stroke-linejoin:miter;stroke-opacity:1" d="M 134.667,21.7778 126.667,26.2222 z" id="boundary" inkscape:connector-curvature="0" />
	<path style="fill:none;stroke:red;stroke-width:1px;stroke-linecap:butt;stroke-linejoin:miter;stroke-opacity:1" d="M 119.556,95.5556 119.556,86.6667 z" id="boundary" inkscape:connector-curvature="0" />
	<path style="fill:none;stroke:red;stroke-width:1px;stroke-linecap:butt;stroke-linejoin:miter;stroke-opacity:1" d="M 119.556,104.444 119.556,95.5556 z" id="boundary" inkscape:connector-curvature="0" />
	<path style="fill:none;stroke:red;stroke-width:1px;stroke-linecap:butt;stroke-linejoin:miter;stroke-opacity:1" d="M 143.556,21.7778 152.444,21.7778 z" id="boundary" inkscape:connector-curvature="0" />
	<path style="fill:none;stroke:red;stroke-width:1px;stroke-linecap:butt;stroke-linejoin:miter;stroke-opacity:1" d="M 119.556,113.333 119.556,104.444 z" id="boundary" inkscape:connector-curvature="0" />
	<path style="fill:none;stroke:red;stroke-width:1px;stroke-linecap:butt;stroke-linejoin:miter;stroke-opacity:1" d="M 119.556,113.333 119.556,122.222 z" id="boundary" inkscape:connector-curvature="0" />
	<path style="fill:none;stroke:red;stroke-width:1px;stroke-linecap:butt;stroke-linejoin:miter;stroke-opacity:1" d="M 119.556,122.222 111.556,134.667 z" id="boundary" inkscape:connector-curvature="0" />
	<path style="fill:none;stroke:red;stroke-width:1px;stroke-linecap:butt;stroke-linejoin:miter;stroke-opacity:1" d="M 152.444,21.7778 160.444,17.3333 z" id="boundary" inkscape:connector-curvature="0" />
	<path style="fill:none;stroke:red;stroke-width:1px;stroke-linecap:butt;stroke-linejoin:miter;stroke-opacity:1" d="M 160.444,17.3333 169.333,17.3333 z" id="boundary" inkscape:connector-curvature="0" />
	<path style="fill:none;stroke:red;stroke-width:1px;stroke-linecap:butt;stroke-linejoin:miter;stroke-opacity:1" d="M 152.444,333.778 143.556,333.778 z" id="boundary" inkscape:connector-curvature="0" />
	<path style="fill:none;stroke:red;stroke-width:1px;stroke-linecap:butt;stroke-linejoin:miter;stroke-opacity:1" d="M 178.222,14.6667 169.333,17.3333 z" id="boundary" inkscape:connector-curvature="0" />
	<path style="fill:none;stroke:red;stroke-width:1px;stroke-linecap:butt;stroke-linejoin:miter;stroke-opacity:1" d="M 196,12.8889 187.111,12.8889 z" id="boundary" inkscape:connector-curvature="0" />
	<path style="fill:none;stroke:red;stroke-width:1px;stroke-linecap:butt;stroke-linejoin:miter;stroke-opacity:1" d="M 187.111,12.8889 178.222,14.6667 z" id="boundary" inkscape:connector-curvature="0" />
	<path style="fill:none;stroke:red;stroke-width:1px;stroke-linecap:butt;stroke-linejoin:miter;stroke-opacity:1" d="M 172.889,347.111 168.444,339.111 z" id="boundary" inkscape:connector-curvature="0" />
	<path style="fill:none;stroke:red;stroke-width:1px;stroke-linecap:butt;stroke-linejoin:miter;stroke-opacity:1" d="M 143.556,333.778 134.667,333.778 z" id="boundary" inkscape:connector-curvature="0" />
	<path style="fill:none;stroke:red;stroke-width:1px;stroke-linecap:butt;stroke-linejoin:miter;stroke-opacity:1" d="M 152.444,333.778 161.333,333.778 z" id="boundary" inkscape:connector-curvature="0" />
	<path style="fill:none;stroke:red;stroke-width:1px;stroke-linecap:butt;stroke-linejoin:miter;stroke-opacity:1" d="M 161.333,333.778 168.444,339.111 z" id="boundary" inkscape:connector-curvature="0" />
	<path style="fill:none;stroke:red;stroke-width:1px;stroke-linecap:butt;stroke-linejoin:miter;stroke-opacity:1" d="M 185.333,360.444 178.222,354.222 z" id="boundary" inkscape:connector-curvature="0" />
	<path style="fill:none;stroke:red;stroke-width:1px;stroke-linecap:butt;stroke-linejoin:miter;stroke-opacity:1" d="M 196,12.8889 204.889,12.8889 z" id="boundary" inkscape:connector-curvature="0" />
	<path style="fill:none;stroke:red;stroke-width:1px;stroke-linecap:butt;stroke-linejoin:miter;stroke-opacity:1" d="M 200.444,371.111 193.333,364.889 z" id="boundary" inkscape:connector-curvature="0" />
	<path style="fill:none;stroke:red;stroke-width:1px;stroke-linecap:butt;stroke-linejoin:miter;stroke-opacity:1" d="M 193.333,364.889 185.333,360.444 z" id="boundary" inkscape:connector-curvature="0" />
	<path style="fill:none;stroke:red;stroke-width:1px;stroke-linecap:butt;stroke-linejoin:miter;stroke-opacity:1" d="M 206.667,378.222 200.444,371.111 z" id="boundary" inkscape:connector-curvature="0" />
	<path style="fill:none;stroke:red;stroke-width:1px;stroke-linecap:butt;stroke-linejoin:miter;stroke-opacity:1" d="M 221.778,8.44444 212.889,8.44444 z" id="boundary" inkscape:connector-curvature="0" />
	<path style="fill:none;stroke:red;stroke-width:1px;stroke-linecap:butt;stroke-linejoin:miter;stroke-opacity:1" d="M 212.889,8.44444 204.889,12.8889 z" id="boundary" inkscape:connector-curvature="0" />
	<path style="fill:none;stroke:red;stroke-width:1px;stroke-linecap:butt;stroke-linejoin:miter;stroke-opacity:1" d="M 220,391.556 213.778,384.444 z" id="boundary" inkscape:connector-curvature="0" />
	<path style="fill:none;stroke:red;stroke-width:1px;stroke-linecap:butt;stroke-linejoin:miter;stroke-opacity:1" d="M 213.778,384.444 206.667,378.222 z" id="boundary" inkscape:connector-curvature="0" />
	<path style="fill:none;stroke:red;stroke-width:1px;stroke-linecap:butt;stroke-linejoin:miter;stroke-opacity:1" d="M 230.667,8.44444 221.778,8.44444 z" id="boundary" inkscape:connector-curvature="0" />
	<path style="fill:none;stroke:red;stroke-width:1px;stroke-linecap:butt;stroke-linejoin:miter;stroke-opacity:1" d="M 230.667,8.44444 239.556,8.44444 z" id="boundary" inkscape:connector-curvature="0" />
	<path style="fill:none;stroke:red;stroke-width:1px;stroke-linecap:butt;stroke-linejoin:miter;stroke-opacity:1" d="M 286.667,21.7778 292.889,28.8889 z" id="boundary" inkscape:connector-curvature="0" />
	<path style="fill:none;stroke:red;stroke-width:1px;stroke-linecap:butt;stroke-linejoin:miter;stroke-opacity:1" d="M 273.333,8.44444 265.333,4 z" id="boundary" inkscape:connector-curvature="0" />
	<path style="fill:none;stroke:red;stroke-width:1px;stroke-linecap:butt;stroke-linejoin:miter;stroke-opacity:1" d="M 265.333,4 256.444,4 z" id="boundary" inkscape:connector-curvature="0" />
	<path style="fill:none;stroke:red;stroke-width:1px;stroke-linecap:butt;stroke-linejoin:miter;stroke-opacity:1" d="M 279.556,15.5556 273.333,8.44444 z" id="boundary" inkscape:connector-curvature="0" />
	<path style="fill:none;stroke:red;stroke-width:1px;stroke-linecap:butt;stroke-linejoin:miter;stroke-opacity:1" d="M 228.889,395.111 236.889,399.556 z" id="boundary" inkscape:connector-curvature="0" />
	<path style="fill:none;stroke:red;stroke-width:1px;stroke-linecap:butt;stroke-linejoin:miter;stroke-opacity:1" d="M 228.889,395.111 220,391.556 z" id="boundary" inkscape:connector-curvature="0" />
	<path style="fill:none;stroke:red;stroke-width:1px;stroke-linecap:butt;stroke-linejoin:miter;stroke-opacity:1" d="M 279.556,15.5556 286.667,21.7778 z" id="boundary" inkscape:connector-curvature="0" />
	<path style="fill:none;stroke:red;stroke-width:1px;stroke-linecap:butt;stroke-linejoin:miter;stroke-opacity:1" d="M 245.778,400.444 236.889,399.556 z" id="boundary" inkscape:connector-curvature="0" />
	<path style="fill:none;stroke:red;stroke-width:1px;stroke-linecap:butt;stroke-linejoin:miter;stroke-opacity:1" d="M 247.556,4 256.444,4 z" id="boundary" inkscape:connector-curvature="0" />
	<path style="fill:none;stroke:red;stroke-width:1px;stroke-linecap:butt;stroke-linejoin:miter;stroke-opacity:1" d="M 247.556,4 239.556,8.44444 z" id="boundary" inkscape:connector-curvature="0" />
	<path style="fill:none;stroke:red;stroke-width:1px;stroke-linecap:butt;stroke-linejoin:miter;stroke-opacity:1" d="M 253.778,404.889 245.778,400.444 z" id="boundary" inkscape:connector-curvature="0" />
	<path style="fill:none;stroke:red;stroke-width:1px;stroke-linecap:butt;stroke-linejoin:miter;stroke-opacity:1" d="M 287.556,418.222 295.556,422.667 z" id="boundary" inkscape:connector-curvature="0" />
	<path style="fill:none;stroke:red;stroke-width:1px;stroke-linecap:butt;stroke-linejoin:miter;stroke-opacity:1" d="M 262.667,406.667 253.778,404.889 z" id="boundary" inkscape:connector-curvature="0" />
	<path style="fill:none;stroke:red;stroke-width:1px;stroke-linecap:butt;stroke-linejoin:miter;stroke-opacity:1" d="M 306.222,42.2222 300,35.1111 z" id="boundary" inkscape:connector-curvature="0" />
	<path style="fill:none;stroke:red;stroke-width:1px;stroke-linecap:butt;stroke-linejoin:miter;stroke-opacity:1" d="M 300,35.1111 292.889,28.8889 z" id="boundary" inkscape:connector-curvature="0" />
	<path style="fill:none;stroke:red;stroke-width:1px;stroke-linecap:butt;stroke-linejoin:miter;stroke-opacity:1" d="M 270.667,411.111 262.667,406.667 z" id="boundary" inkscape:connector-curvature="0" />
	<path style="fill:none;stroke:red;stroke-width:1px;stroke-linecap:butt;stroke-linejoin:miter;stroke-opacity:1" d="M 279.556,413.778 287.556,418.222 z" id="boundary" inkscape:connector-curvature="0" />
	<path style="fill:none;stroke:red;stroke-width:1px;stroke-linecap:butt;stroke-linejoin:miter;stroke-opacity:1" d="M 279.556,413.778 270.667,411.111 z" id="boundary" inkscape:connector-curvature="0" />
	<path style="fill:none;stroke:red;stroke-width:1px;stroke-linecap:butt;stroke-linejoin:miter;stroke-opacity:1" d="M 319.556,55.5556 313.333,48.4444 z" id="boundary" inkscape:connector-curvature="0" />
	<path style="fill:none;stroke:red;stroke-width:1px;stroke-linecap:butt;stroke-linejoin:miter;stroke-opacity:1" d="M 313.333,48.4444 306.222,42.2222 z" id="boundary" inkscape:connector-curvature="0" />
	<path style="fill:none;stroke:red;stroke-width:1px;stroke-linecap:butt;stroke-linejoin:miter;stroke-opacity:1" d="M 326.667,61.7778 332.889,68.8889 z" id="boundary" inkscape:connector-curvature="0" />
	<path style="fill:none;stroke:red;stroke-width:1px;stroke-linecap:butt;stroke-linejoin:miter;stroke-opacity:1" d="M 326.667,61.7778 319.556,55.5556 z" id="boundary" inkscape:connector-curvature="0" />
	<path style="fill:none;stroke:red;stroke-width:1px;stroke-linecap:butt;stroke-linejoin:miter;stroke-opacity:1" d="M 332.889,68.8889 340,75.1111 z" id="boundary" inkscape:connector-curvature="0" />
	<path style="fill:none;stroke:red;stroke-width:1px;stroke-linecap:butt;stroke-linejoin:miter;stroke-opacity:1" d="M 304.444,422.667 295.556,422.667 z" id="boundary" inkscape:connector-curvature="0" />
	<path style="fill:none;stroke:red;stroke-width:1px;stroke-linecap:butt;stroke-linejoin:miter;stroke-opacity:1" d="M 340,75.1111 348,79.5556 z" id="boundary" inkscape:connector-curvature="0" />
	<path style="fill:none;stroke:red;stroke-width:1px;stroke-linecap:butt;stroke-linejoin:miter;stroke-opacity:1" d="M 313.333,422.667 304.444,422.667 z" id="boundary" inkscape:connector-curvature="0" />
	<path style="fill:none;stroke:red;stroke-width:1px;stroke-linecap:butt;stroke-linejoin:miter;stroke-opacity:1" d="M 348,79.5556 356,84 z" id="boundary" inkscape:connector-curvature="0" />
	<path style="fill:none;stroke:red;stroke-width:1px;stroke-linecap:butt;stroke-linejoin:miter;stroke-opacity:1" d="M 322.222,422.667 313.333,422.667 z" id="boundary" inkscape:connector-curvature="0" />
	<path style="fill:none;stroke:red;stroke-width:1px;stroke-linecap:butt;stroke-linejoin:miter;stroke-opacity:1" d="M 791.556,460 784.444,453.778 z" id="boundary" inkscape:connector-curvature="0" />
	<path style="fill:none;stroke:red;stroke-width:1px;stroke-linecap:butt;stroke-linejoin:miter;stroke-opacity:1" d="M 784.444,453.778 776.444,449.333 z" id="boundary" inkscape:connector-curvature="0" />
	<path style="fill:none;stroke:red;stroke-width:1px;stroke-linecap:butt;stroke-linejoin:miter;stroke-opacity:1" d="M 339.111,418.222 331.111,422.667 z" id="boundary" inkscape:connector-curvature="0" />
	<path style="fill:none;stroke:red;stroke-width:1px;stroke-linecap:butt;stroke-linejoin:miter;stroke-opacity:1" d="M 331.111,422.667 322.222,422.667 z" id="boundary" inkscape:connector-curvature="0" />
	<path style="fill:none;stroke:red;stroke-width:1px;stroke-linecap:butt;stroke-linejoin:miter;stroke-opacity:1" d="M 348,418.222 339.111,418.222 z" id="boundary" inkscape:connector-curvature="0" />
	<path style="fill:none;stroke:red;stroke-width:1px;stroke-linecap:butt;stroke-linejoin:miter;stroke-opacity:1" d="M 356,84 364.889,86.6667 z" id="boundary" inkscape:connector-curvature="0" />
	<path style="fill:none;stroke:red;stroke-width:1px;stroke-linecap:butt;stroke-linejoin:miter;stroke-opacity:1" d="M 356.889,418.222 348,418.222 z" id="boundary" inkscape:connector-curvature="0" />
	<path style="fill:none;stroke:red;stroke-width:1px;stroke-linecap:butt;stroke-linejoin:miter;stroke-opacity:1" d="M 364.889,86.6667 373.778,88.4444 z" id="boundary" inkscape:connector-curvature="0" />
	<path style="fill:none;stroke:red;stroke-width:1px;stroke-linecap:butt;stroke-linejoin:miter;stroke-opacity:1" d="M 365.778,418.222 356.889,418.222 z" id="boundary" inkscape:connector-curvature="0" />
	<path style="fill:none;stroke:red;stroke-width:1px;stroke-linecap:butt;stroke-linejoin:miter;stroke-opacity:1" d="M 374.667,418.222 365.778,418.222 z" id="boundary" inkscape:connector-curvature="0" />
	<path style="fill:none;stroke:red;stroke-width:1px;stroke-linecap:butt;stroke-linejoin:miter;stroke-opacity:1" d="M 382.667,88.4444 373.778,88.4444 z" id="boundary" inkscape:connector-curvature="0" />
	<path style="fill:none;stroke:red;stroke-width:1px;stroke-linecap:butt;stroke-linejoin:miter;stroke-opacity:1" d="M 769.333,443.111 776.444,449.333 z" id="boundary" inkscape:connector-curvature="0" />
	<path style="fill:none;stroke:red;stroke-width:1px;stroke-linecap:butt;stroke-linejoin:miter;stroke-opacity:1" d="M 382.667,413.778 374.667,418.222 z" id="boundary" inkscape:connector-curvature="0" />
	<path style="fill:none;stroke:red;stroke-width:1px;stroke-linecap:butt;stroke-linejoin:miter;stroke-opacity:1" d="M 390.667,84 382.667,88.4444 z" id="boundary" inkscape:connector-curvature="0" />
	<path style="fill:none;stroke:red;stroke-width:1px;stroke-linecap:butt;stroke-linejoin:miter;stroke-opacity:1" d="M 391.556,413.778 382.667,413.778 z" id="boundary" inkscape:connector-curvature="0" />
	<path style="fill:none;stroke:red;stroke-width:1px;stroke-linecap:butt;stroke-linejoin:miter;stroke-opacity:1" d="M 398.667,79.5556 390.667,84 z" id="boundary" inkscape:connector-curvature="0" />
	<path style="fill:none;stroke:red;stroke-width:1px;stroke-linecap:butt;stroke-linejoin:miter;stroke-opacity:1" d="M 400.444,413.778 391.556,413.778 z" id="boundary" inkscape:connector-curvature="0" />
	<path style="fill:none;stroke:red;stroke-width:1px;stroke-linecap:butt;stroke-linejoin:miter;stroke-opacity:1" d="M 406.667,75.1111 415.556,75.1111 z" id="boundary" inkscape:connector-curvature="0" />
	<path style="fill:none;stroke:red;stroke-width:1px;stroke-linecap:butt;stroke-linejoin:miter;stroke-opacity:1" d="M 406.667,75.1111 398.667,79.5556 z" id="boundary" inkscape:connector-curvature="0" />
	<path style="fill:none;stroke:red;stroke-width:1px;stroke-linecap:butt;stroke-linejoin:miter;stroke-opacity:1" d="M 409.333,413.778 400.444,413.778 z" id="boundary" inkscape:connector-curvature="0" />
	<path style="fill:none;stroke:red;stroke-width:1px;stroke-linecap:butt;stroke-linejoin:miter;stroke-opacity:1" d="M 647.556,387.111 638.667,387.111 z" id="boundary" inkscape:connector-curvature="0" />
	<path style="fill:none;stroke:red;stroke-width:1px;stroke-linecap:butt;stroke-linejoin:miter;stroke-opacity:1" d="M 417.333,409.333 409.333,413.778 z" id="boundary" inkscape:connector-curvature="0" />
	<path style="fill:none;stroke:red;stroke-width:1px;stroke-linecap:butt;stroke-linejoin:miter;stroke-opacity:1" d="M 423.556,70.6667 432.444,70.6667 z" id="boundary" inkscape:connector-curvature="0" />
	<path style="fill:none;stroke:red;stroke-width:1px;stroke-linecap:butt;stroke-linejoin:miter;stroke-opacity:1" d="M 423.556,70.6667 415.556,75.1111 z" id="boundary" inkscape:connector-curvature="0" />
	<path style="fill:none;stroke:red;stroke-width:1px;stroke-linecap:butt;stroke-linejoin:miter;stroke-opacity:1" d="M 426.222,409.333 417.333,409.333 z" id="boundary" inkscape:connector-curvature="0" />
	<path style="fill:none;stroke:red;stroke-width:1px;stroke-linecap:butt;stroke-linejoin:miter;stroke-opacity:1" d="M 435.111,409.333 426.222,409.333 z" id="boundary" inkscape:connector-curvature="0" />
	<path style="fill:none;stroke:red;stroke-width:1px;stroke-linecap:butt;stroke-linejoin:miter;stroke-opacity:1" d="M 440.444,66.2222 449.333,66.2222 z" id="boundary" inkscape:connector-curvature="0" />
	<path style="fill:none;stroke:red;stroke-width:1px;stroke-linecap:butt;stroke-linejoin:miter;stroke-opacity:1" d="M 440.444,66.2222 432.444,70.6667 z" id="boundary" inkscape:connector-curvature="0" />
	<path style="fill:none;stroke:red;stroke-width:1px;stroke-linecap:butt;stroke-linejoin:miter;stroke-opacity:1" d="M 612,387.111 603.111,387.111 z" id="boundary" inkscape:connector-curvature="0" />
	<path style="fill:none;stroke:red;stroke-width:1px;stroke-linecap:butt;stroke-linejoin:miter;stroke-opacity:1" d="M 444,406.667 435.111,409.333 z" id="boundary" inkscape:connector-curvature="0" />
	<path style="fill:none;stroke:red;stroke-width:1px;stroke-linecap:butt;stroke-linejoin:miter;stroke-opacity:1" d="M 452.889,404.889 461.778,404.889 z" id="boundary" inkscape:connector-curvature="0" />
	<path style="fill:none;stroke:red;stroke-width:1px;stroke-linecap:butt;stroke-linejoin:miter;stroke-opacity:1" d="M 452.889,404.889 444,406.667 z" id="boundary" inkscape:connector-curvature="0" />
	<path style="fill:none;stroke:red;stroke-width:1px;stroke-linecap:butt;stroke-linejoin:miter;stroke-opacity:1" d="M 458.222,63.5556 467.111,61.7778 z" id="boundary" inkscape:connector-curvature="0" />
	<path style="fill:none;stroke:red;stroke-width:1px;stroke-linecap:butt;stroke-linejoin:miter;stroke-opacity:1" d="M 467.111,61.7778 476,61.7778 z" id="boundary" inkscape:connector-curvature="0" />
	<path style="fill:none;stroke:red;stroke-width:1px;stroke-linecap:butt;stroke-linejoin:miter;stroke-opacity:1" d="M 449.333,66.2222 458.222,63.5556 z" id="boundary" inkscape:connector-curvature="0" />
	<path style="fill:none;stroke:red;stroke-width:1px;stroke-linecap:butt;stroke-linejoin:miter;stroke-opacity:1" d="M 594.222,387.111 585.333,387.111 z" id="boundary" inkscape:connector-curvature="0" />
	<path style="fill:none;stroke:red;stroke-width:1px;stroke-linecap:butt;stroke-linejoin:miter;stroke-opacity:1" d="M 469.778,400.444 461.778,404.889 z" id="boundary" inkscape:connector-curvature="0" />
	<path style="fill:none;stroke:red;stroke-width:1px;stroke-linecap:butt;stroke-linejoin:miter;stroke-opacity:1" d="M 478.667,400.444 469.778,400.444 z" id="boundary" inkscape:connector-curvature="0" />
	<path style="fill:none;stroke:red;stroke-width:1px;stroke-linecap:butt;stroke-linejoin:miter;stroke-opacity:1" d="M 484,57.3333 492.889,57.3333 z" id="boundary" inkscape:connector-curvature="0" />
	<path style="fill:none;stroke:red;stroke-width:1px;stroke-linecap:butt;stroke-linejoin:miter;stroke-opacity:1" d="M 484,57.3333 476,61.7778 z" id="boundary" inkscape:connector-curvature="0" />
	<path style="fill:none;stroke:red;stroke-width:1px;stroke-linecap:butt;stroke-linejoin:miter;stroke-opacity:1" d="M 487.556,398.667 478.667,400.444 z" id="boundary" inkscape:connector-curvature="0" />
	<path style="fill:none;stroke:red;stroke-width:1px;stroke-linecap:butt;stroke-linejoin:miter;stroke-opacity:1" d="M 523.111,391.556 532,389.778 z" id="boundary" inkscape:connector-curvature="0" />
	<path style="fill:none;stroke:red;stroke-width:1px;stroke-linecap:butt;stroke-linejoin:miter;stroke-opacity:1" d="M 496.444,396 487.556,398.667 z" id="boundary" inkscape:connector-curvature="0" />
	<path style="fill:none;stroke:red;stroke-width:1px;stroke-linecap:butt;stroke-linejoin:miter;stroke-opacity:1" d="M 500.889,52.8889 509.778,52.8889 z" id="boundary" inkscape:connector-curvature="0" />
	<path style="fill:none;stroke:red;stroke-width:1px;stroke-linecap:butt;stroke-linejoin:miter;stroke-opacity:1" d="M 500.889,52.8889 492.889,57.3333 z" id="boundary" inkscape:connector-curvature="0" />
	<path style="fill:none;stroke:red;stroke-width:1px;stroke-linecap:butt;stroke-linejoin:miter;stroke-opacity:1" d="M 505.333,394.222 496.444,396 z" id="boundary" inkscape:connector-curvature="0" />
	<path style="fill:none;stroke:red;stroke-width:1px;stroke-linecap:butt;stroke-linejoin:miter;stroke-opacity:1" d="M 514.222,391.556 505.333,394.222 z" id="boundary" inkscape:connector-curvature="0" />
	<path style="fill:none;stroke:red;stroke-width:1px;stroke-linecap:butt;stroke-linejoin:miter;stroke-opacity:1" d="M 517.778,48.4444 526.667,48.4444 z" id="boundary" inkscape:connector-curvature="0" />
	<path style="fill:none;stroke:red;stroke-width:1px;stroke-linecap:butt;stroke-linejoin:miter;stroke-opacity:1" d="M 517.778,48.4444 509.778,52.8889 z" id="boundary" inkscape:connector-curvature="0" />
	<path style="fill:none;stroke:red;stroke-width:1px;stroke-linecap:butt;stroke-linejoin:miter;stroke-opacity:1" d="M 523.111,391.556 514.222,391.556 z" id="boundary" inkscape:connector-curvature="0" />
	<path style="fill:none;stroke:red;stroke-width:1px;stroke-linecap:butt;stroke-linejoin:miter;stroke-opacity:1" d="M 526.667,48.4444 535.556,48.4444 z" id="boundary" inkscape:connector-curvature="0" />
	<path style="fill:none;stroke:red;stroke-width:1px;stroke-linecap:butt;stroke-linejoin:miter;stroke-opacity:1" d="M 549.778,387.111 558.667,387.111 z" id="boundary" inkscape:connector-curvature="0" />
	<path style="fill:none;stroke:red;stroke-width:1px;stroke-linecap:butt;stroke-linejoin:miter;stroke-opacity:1" d="M 558.667,387.111 567.556,387.111 z" id="boundary" inkscape:connector-curvature="0" />
	<path style="fill:none;stroke:red;stroke-width:1px;stroke-linecap:butt;stroke-linejoin:miter;stroke-opacity:1" d="M 540.889,387.111 532,389.778 z" id="boundary" inkscape:connector-curvature="0" />
	<path style="fill:none;stroke:red;stroke-width:1px;stroke-linecap:butt;stroke-linejoin:miter;stroke-opacity:1" d="M 543.556,44 552.444,44 z" id="boundary" inkscape:connector-curvature="0" />
	<path style="fill:none;stroke:red;stroke-width:1px;stroke-linecap:butt;stroke-linejoin:miter;stroke-opacity:1" d="M 543.556,44 535.556,48.4444 z" id="boundary" inkscape:connector-curvature="0" />
	<path style="fill:none;stroke:red;stroke-width:1px;stroke-linecap:butt;stroke-linejoin:miter;stroke-opacity:1" d="M 549.778,387.111 540.889,387.111 z" id="boundary" inkscape:connector-curvature="0" />
	<path style="fill:none;stroke:red;stroke-width:1px;stroke-linecap:butt;stroke-linejoin:miter;stroke-opacity:1" d="M 552.444,44 561.333,44 z" id="boundary" inkscape:connector-curvature="0" />
	<path style="fill:none;stroke:red;stroke-width:1px;stroke-linecap:butt;stroke-linejoin:miter;stroke-opacity:1" d="M 567.556,387.111 576.444,387.111 z" id="boundary" inkscape:connector-curvature="0" />
	<path style="fill:none;stroke:red;stroke-width:1px;stroke-linecap:butt;stroke-linejoin:miter;stroke-opacity:1" d="M 561.333,44 570.222,44 z" id="boundary" inkscape:connector-curvature="0" />
	<path style="fill:none;stroke:red;stroke-width:1px;stroke-linecap:butt;stroke-linejoin:miter;stroke-opacity:1" d="M 620.889,387.111 612,387.111 z" id="boundary" inkscape:connector-curvature="0" />
	<path style="fill:none;stroke:red;stroke-width:1px;stroke-linecap:butt;stroke-linejoin:miter;stroke-opacity:1" d="M 579.111,44 570.222,44 z" id="boundary" inkscape:connector-curvature="0" />
	<path style="fill:none;stroke:red;stroke-width:1px;stroke-linecap:butt;stroke-linejoin:miter;stroke-opacity:1" d="M 585.333,387.111 576.444,387.111 z" id="boundary" inkscape:connector-curvature="0" />
	<path style="fill:none;stroke:red;stroke-width:1px;stroke-linecap:butt;stroke-linejoin:miter;stroke-opacity:1" d="M 587.111,39.5556 596,39.5556 z" id="boundary" inkscape:connector-curvature="0" />
	<path style="fill:none;stroke:red;stroke-width:1px;stroke-linecap:butt;stroke-linejoin:miter;stroke-opacity:1" d="M 587.111,39.5556 579.111,44 z" id="boundary" inkscape:connector-curvature="0" />
	<path style="fill:none;stroke:red;stroke-width:1px;stroke-linecap:butt;stroke-linejoin:miter;stroke-opacity:1" d="M 620.889,387.111 629.778,387.111 z" id="boundary" inkscape:connector-curvature="0" />
	<path style="fill:none;stroke:red;stroke-width:1px;stroke-linecap:butt;stroke-linejoin:miter;stroke-opacity:1" d="M 596,39.5556 604.889,39.5556 z" id="boundary" inkscape:connector-curvature="0" />
	<path style="fill:none;stroke:red;stroke-width:1px;stroke-linecap:butt;stroke-linejoin:miter;stroke-opacity:1" d="M 629.778,387.111 638.667,387.111 z" id="boundary" inkscape:connector-curvature="0" />
	<path style="fill:none;stroke:red;stroke-width:1px;stroke-linecap:butt;stroke-linejoin:miter;stroke-opacity:1" d="M 603.111,387.111 594.222,387.111 z" id="boundary" inkscape:connector-curvature="0" />
	<path style="fill:none;stroke:red;stroke-width:1px;stroke-linecap:butt;stroke-linejoin:miter;stroke-opacity:1" d="M 604.889,39.5556 613.778,39.5556 z" id="boundary" inkscape:connector-curvature="0" />
	<path style="fill:none;stroke:red;stroke-width:1px;stroke-linecap:butt;stroke-linejoin:miter;stroke-opacity:1" d="M 664.444,391.556 673.333,395.111 z" id="boundary" inkscape:connector-curvature="0" />
	<path style="fill:none;stroke:red;stroke-width:1px;stroke-linecap:butt;stroke-linejoin:miter;stroke-opacity:1" d="M 673.333,395.111 681.333,399.556 z" id="boundary" inkscape:connector-curvature="0" />
	<path style="fill:none;stroke:red;stroke-width:1px;stroke-linecap:butt;stroke-linejoin:miter;stroke-opacity:1" d="M 621.778,35.1111 630.667,35.1111 z" id="boundary" inkscape:connector-curvature="0" />
	<path style="fill:none;stroke:red;stroke-width:1px;stroke-linecap:butt;stroke-linejoin:miter;stroke-opacity:1" d="M 621.778,35.1111 613.778,39.5556 z" id="boundary" inkscape:connector-curvature="0" />
	<path style="fill:none;stroke:red;stroke-width:1px;stroke-linecap:butt;stroke-linejoin:miter;stroke-opacity:1" d="M 656.444,387.111 664.444,391.556 z" id="boundary" inkscape:connector-curvature="0" />
	<path style="fill:none;stroke:red;stroke-width:1px;stroke-linecap:butt;stroke-linejoin:miter;stroke-opacity:1" d="M 656.444,387.111 647.556,387.111 z" id="boundary" inkscape:connector-curvature="0" />
	<path style="fill:none;stroke:red;stroke-width:1px;stroke-linecap:butt;stroke-linejoin:miter;stroke-opacity:1" d="M 630.667,35.1111 639.556,35.1111 z" id="boundary" inkscape:connector-curvature="0" />
	<path style="fill:none;stroke:red;stroke-width:1px;stroke-linecap:butt;stroke-linejoin:miter;stroke-opacity:1" d="M 690.222,403.111 698.222,407.556 z" id="boundary" inkscape:connector-curvature="0" />
	<path style="fill:none;stroke:red;stroke-width:1px;stroke-linecap:butt;stroke-linejoin:miter;stroke-opacity:1" d="M 690.222,403.111 681.333,399.556 z" id="boundary" inkscape:connector-curvature="0" />
	<path style="fill:none;stroke:red;stroke-width:1px;stroke-linecap:butt;stroke-linejoin:miter;stroke-opacity:1" d="M 692,39.5556 684,35.1111 z" id="boundary" inkscape:connector-curvature="0" />
	<path style="fill:none;stroke:red;stroke-width:1px;stroke-linecap:butt;stroke-linejoin:miter;stroke-opacity:1" d="M 684,35.1111 675.111,32.4444 z" id="boundary" inkscape:connector-curvature="0" />
	<path style="fill:none;stroke:red;stroke-width:1px;stroke-linecap:butt;stroke-linejoin:miter;stroke-opacity:1" d="M 639.556,35.1111 648.444,33.3333 z" id="boundary" inkscape:connector-curvature="0" />
	<path style="fill:none;stroke:red;stroke-width:1px;stroke-linecap:butt;stroke-linejoin:miter;stroke-opacity:1" d="M 657.333,30.6667 666.222,30.6667 z" id="boundary" inkscape:connector-curvature="0" />
	<path style="fill:none;stroke:red;stroke-width:1px;stroke-linecap:butt;stroke-linejoin:miter;stroke-opacity:1" d="M 657.333,30.6667 648.444,33.3333 z" id="boundary" inkscape:connector-curvature="0" />
	<path style="fill:none;stroke:red;stroke-width:1px;stroke-linecap:butt;stroke-linejoin:miter;stroke-opacity:1" d="M 666.222,30.6667 675.111,32.4444 z" id="boundary" inkscape:connector-curvature="0" />
	<path style="fill:none;stroke:red;stroke-width:1px;stroke-linecap:butt;stroke-linejoin:miter;stroke-opacity:1" d="M 698.222,407.556 707.111,409.333 z" id="boundary" inkscape:connector-curvature="0" />
	<path style="fill:none;stroke:red;stroke-width:1px;stroke-linecap:butt;stroke-linejoin:miter;stroke-opacity:1" d="M 707.111,409.333 715.111,413.778 z" id="boundary" inkscape:connector-curvature="0" />
	<path style="fill:none;stroke:red;stroke-width:1px;stroke-linecap:butt;stroke-linejoin:miter;stroke-opacity:1" d="M 700,44 706.222,51.1111 z" id="boundary" inkscape:connector-curvature="0" />
	<path style="fill:none;stroke:red;stroke-width:1px;stroke-linecap:butt;stroke-linejoin:miter;stroke-opacity:1" d="M 700,44 692,39.5556 z" id="boundary" inkscape:connector-curvature="0" />
	<path style="fill:none;stroke:red;stroke-width:1px;stroke-linecap:butt;stroke-linejoin:miter;stroke-opacity:1" d="M 732,418.222 740,422.667 z" id="boundary" inkscape:connector-curvature="0" />
	<path style="fill:none;stroke:red;stroke-width:1px;stroke-linecap:butt;stroke-linejoin:miter;stroke-opacity:1" d="M 715.111,54.6667 720.444,61.7778 z" id="boundary" inkscape:connector-curvature="0" />
	<path style="fill:none;stroke:red;stroke-width:1px;stroke-linecap:butt;stroke-linejoin:miter;stroke-opacity:1" d="M 715.111,54.6667 706.222,51.1111 z" id="boundary" inkscape:connector-curvature="0" />
	<path style="fill:none;stroke:red;stroke-width:1px;stroke-linecap:butt;stroke-linejoin:miter;stroke-opacity:1" d="M 756.889,430.667 748.889,426.222 z" id="boundary" inkscape:connector-curvature="0" />
	<path style="fill:none;stroke:red;stroke-width:1px;stroke-linecap:butt;stroke-linejoin:miter;stroke-opacity:1" d="M 840.444,99.1111 831.556,101.778 z" id="boundary" inkscape:connector-curvature="0" />
	<path style="fill:none;stroke:red;stroke-width:1px;stroke-linecap:butt;stroke-linejoin:miter;stroke-opacity:1" d="M 735.556,71.5556 728.444,66.2222 z" id="boundary" inkscape:connector-curvature="0" />
	<path style="fill:none;stroke:red;stroke-width:1px;stroke-linecap:butt;stroke-linejoin:miter;stroke-opacity:1" d="M 728.444,66.2222 720.444,61.7778 z" id="boundary" inkscape:connector-curvature="0" />
	<path style="fill:none;stroke:red;stroke-width:1px;stroke-linecap:butt;stroke-linejoin:miter;stroke-opacity:1" d="M 764,436 769.333,443.111 z" id="boundary" inkscape:connector-curvature="0" />
	<path style="fill:none;stroke:red;stroke-width:1px;stroke-linecap:butt;stroke-linejoin:miter;stroke-opacity:1" d="M 764,436 756.889,430.667 z" id="boundary" inkscape:connector-curvature="0" />
	<path style="fill:none;stroke:red;stroke-width:1px;stroke-linecap:butt;stroke-linejoin:miter;stroke-opacity:1" d="M 750.667,82.2222 757.778,88.4444 z" id="boundary" inkscape:connector-curvature="0" />
	<path style="fill:none;stroke:red;stroke-width:1px;stroke-linecap:butt;stroke-linejoin:miter;stroke-opacity:1" d="M 748.889,426.222 740,422.667 z" id="boundary" inkscape:connector-curvature="0" />
	<path style="fill:none;stroke:red;stroke-width:1px;stroke-linecap:butt;stroke-linejoin:miter;stroke-opacity:1" d="M 744.444,75.1111 750.667,82.2222 z" id="boundary" inkscape:connector-curvature="0" />
	<path style="fill:none;stroke:red;stroke-width:1px;stroke-linecap:butt;stroke-linejoin:miter;stroke-opacity:1" d="M 744.444,75.1111 735.556,71.5556 z" id="boundary" inkscape:connector-curvature="0" />
	<path style="fill:none;stroke:red;stroke-width:1px;stroke-linecap:butt;stroke-linejoin:miter;stroke-opacity:1" d="M 724,413.778 732,418.222 z" id="boundary" inkscape:connector-curvature="0" />
	<path style="fill:none;stroke:red;stroke-width:1px;stroke-linecap:butt;stroke-linejoin:miter;stroke-opacity:1" d="M 724,413.778 715.111,413.778 z" id="boundary" inkscape:connector-curvature="0" />
	<path style="fill:none;stroke:red;stroke-width:1px;stroke-linecap:butt;stroke-linejoin:miter;stroke-opacity:1" d="M 778.222,106.222 772.889,99.1111 z" id="boundary" inkscape:connector-curvature="0" />
	<path style="fill:none;stroke:red;stroke-width:1px;stroke-linecap:butt;stroke-linejoin:miter;stroke-opacity:1" d="M 772.889,99.1111 765.778,92.8889 z" id="boundary" inkscape:connector-curvature="0" />
	<path style="fill:none;stroke:red;stroke-width:1px;stroke-linecap:butt;stroke-linejoin:miter;stroke-opacity:1" d="M 765.778,92.8889 757.778,88.4444 z" id="boundary" inkscape:connector-curvature="0" />
	<path style="fill:none;stroke:red;stroke-width:1px;stroke-linecap:butt;stroke-linejoin:miter;stroke-opacity:1" d="M 797.778,467.111 791.556,460 z" id="boundary" inkscape:connector-curvature="0" />
	<path style="fill:none;stroke:red;stroke-width:1px;stroke-linecap:butt;stroke-linejoin:miter;stroke-opacity:1" d="M 787.111,106.222 796,106.222 z" id="boundary" inkscape:connector-curvature="0" />
	<path style="fill:none;stroke:red;stroke-width:1px;stroke-linecap:butt;stroke-linejoin:miter;stroke-opacity:1" d="M 778.222,106.222 787.111,106.222 z" id="boundary" inkscape:connector-curvature="0" />
	<path style="fill:none;stroke:red;stroke-width:1px;stroke-linecap:butt;stroke-linejoin:miter;stroke-opacity:1" d="M 797.778,467.111 806.667,470.667 z" id="boundary" inkscape:connector-curvature="0" />
	<path style="fill:none;stroke:red;stroke-width:1px;stroke-linecap:butt;stroke-linejoin:miter;stroke-opacity:1" d="M 804.889,106.222 796,106.222 z" id="boundary" inkscape:connector-curvature="0" />
	<path style="fill:none;stroke:red;stroke-width:1px;stroke-linecap:butt;stroke-linejoin:miter;stroke-opacity:1" d="M 804.889,106.222 813.778,106.222 z" id="boundary" inkscape:connector-curvature="0" />
	<path style="fill:none;stroke:red;stroke-width:1px;stroke-linecap:butt;stroke-linejoin:miter;stroke-opacity:1" d="M 822.667,103.556 831.556,101.778 z" id="boundary" inkscape:connector-curvature="0" />
	<path style="fill:none;stroke:red;stroke-width:1px;stroke-linecap:butt;stroke-linejoin:miter;stroke-opacity:1" d="M 822.667,103.556 813.778,106.222 z" id="boundary" inkscape:connector-curvature="0" />
	<path style="fill:none;stroke:red;stroke-width:1px;stroke-linecap:butt;stroke-linejoin:miter;stroke-opacity:1" d="M 815.556,471.556 806.667,470.667 z" id="boundary" inkscape:connector-curvature="0" />
	<path style="fill:none;stroke:red;stroke-width:1px;stroke-linecap:butt;stroke-linejoin:miter;stroke-opacity:1" d="M 893.778,338.222 893.778,329.333 z" id="boundary" inkscape:connector-curvature="0" />
	<path style="fill:none;stroke:red;stroke-width:1px;stroke-linecap:butt;stroke-linejoin:miter;stroke-opacity:1" d="M 823.556,467.111 815.556,471.556 z" id="boundary" inkscape:connector-curvature="0" />
	<path style="fill:none;stroke:red;stroke-width:1px;stroke-linecap:butt;stroke-linejoin:miter;stroke-opacity:1" d="M 893.778,347.111 893.778,338.222 z" id="boundary" inkscape:connector-curvature="0" />
	<path style="fill:none;stroke:red;stroke-width:1px;stroke-linecap:butt;stroke-linejoin:miter;stroke-opacity:1" d="M 831.556,462.667 823.556,467.111 z" id="boundary" inkscape:connector-curvature="0" />
	<path style="fill:none;stroke:red;stroke-width:1px;stroke-linecap:butt;stroke-linejoin:miter;stroke-opacity:1" d="M 840.444,99.1111 849.333,97.3333 z" id="boundary" inkscape:connector-curvature="0" />
	<path style="fill:none;stroke:red;stroke-width:1px;stroke-linecap:butt;stroke-linejoin:miter;stroke-opacity:1" d="M 849.333,97.3333 858.222,97.3333 z" id="boundary" inkscape:connector-curvature="0" />
	<path style="fill:none;stroke:red;stroke-width:1px;stroke-linecap:butt;stroke-linejoin:miter;stroke-opacity:1" d="M 840.444,462.667 831.556,462.667 z" id="boundary" inkscape:connector-curvature="0" />
	<path style="fill:none;stroke:red;stroke-width:1px;stroke-linecap:butt;stroke-linejoin:miter;stroke-opacity:1" d="M 893.778,364.889 893.778,373.778 z" id="boundary" inkscape:connector-curvature="0" />
	<path style="fill:none;stroke:red;stroke-width:1px;stroke-linecap:butt;stroke-linejoin:miter;stroke-opacity:1" d="M 849.333,458.222 840.444,462.667 z" id="boundary" inkscape:connector-curvature="0" />
	<path style="fill:none;stroke:red;stroke-width:1px;stroke-linecap:butt;stroke-linejoin:miter;stroke-opacity:1" d="M 858.222,458.222 849.333,458.222 z" id="boundary" inkscape:connector-curvature="0" />
	<path style="fill:none;stroke:red;stroke-width:1px;stroke-linecap:butt;stroke-linejoin:miter;stroke-opacity:1" d="M 866.222,92.8889 875.111,92.8889 z" id="boundary" inkscape:connector-curvature="0" />
	<path style="fill:none;stroke:red;stroke-width:1px;stroke-linecap:butt;stroke-linejoin:miter;stroke-opacity:1" d="M 866.222,92.8889 858.222,97.3333 z" id="boundary" inkscape:connector-curvature="0" />
	<path style="fill:none;stroke:red;stroke-width:1px;stroke-linecap:butt;stroke-linejoin:miter;stroke-opacity:1" d="M 875.111,453.778 884,453.778 z" id="boundary" inkscape:connector-curvature="0" />
	<path style="fill:none;stroke:red;stroke-width:1px;stroke-linecap:butt;stroke-linejoin:miter;stroke-opacity:1" d="M 866.222,453.778 858.222,458.222 z" id="boundary" inkscape:connector-curvature="0" />
	<path style="fill:none;stroke:red;stroke-width:1px;stroke-linecap:butt;stroke-linejoin:miter;stroke-opacity:1" d="M 875.111,92.8889 884,92.8889 z" id="boundary" inkscape:connector-curvature="0" />
	<path style="fill:none;stroke:red;stroke-width:1px;stroke-linecap:butt;stroke-linejoin:miter;stroke-opacity:1" d="M 875.111,453.778 866.222,453.778 z" id="boundary" inkscape:connector-curvature="0" />
	<path style="fill:none;stroke:red;stroke-width:1px;stroke-linecap:butt;stroke-linejoin:miter;stroke-opacity:1" d="M 893.778,356 893.778,347.111 z" id="boundary" inkscape:connector-curvature="0" />
	<path style="fill:none;stroke:red;stroke-width:1px;stroke-linecap:butt;stroke-linejoin:miter;stroke-opacity:1" d="M 973.778,148 972,139.111 z" id="boundary" inkscape:connector-curvature="0" />
	<path style="fill:none;stroke:red;stroke-width:1px;stroke-linecap:butt;stroke-linejoin:miter;stroke-opacity:1" d="M 892,449.333 884,453.778 z" id="boundary" inkscape:connector-curvature="0" />
	<path style="fill:none;stroke:red;stroke-width:1px;stroke-linecap:butt;stroke-linejoin:miter;stroke-opacity:1" d="M 893.778,356 893.778,364.889 z" id="boundary" inkscape:connector-curvature="0" />
	<path style="fill:none;stroke:red;stroke-width:1px;stroke-linecap:butt;stroke-linejoin:miter;stroke-opacity:1" d="M 898.222,427.111 895.556,418.222 z" id="boundary" inkscape:connector-curvature="0" />
	<path style="fill:none;stroke:red;stroke-width:1px;stroke-linecap:butt;stroke-linejoin:miter;stroke-opacity:1" d="M 893.778,373.778 893.778,382.667 z" id="boundary" inkscape:connector-curvature="0" />
	<path style="fill:none;stroke:red;stroke-width:1px;stroke-linecap:butt;stroke-linejoin:miter;stroke-opacity:1" d="M 893.778,329.333 900.889,323.111 z" id="boundary" inkscape:connector-curvature="0" />
	<path style="fill:none;stroke:red;stroke-width:1px;stroke-linecap:butt;stroke-linejoin:miter;stroke-opacity:1" d="M 893.778,382.667 893.778,391.556 z" id="boundary" inkscape:connector-curvature="0" />
	<path style="fill:none;stroke:red;stroke-width:1px;stroke-linecap:butt;stroke-linejoin:miter;stroke-opacity:1" d="M 893.778,400.444 893.778,391.556 z" id="boundary" inkscape:connector-curvature="0" />
	<path style="fill:none;stroke:red;stroke-width:1px;stroke-linecap:butt;stroke-linejoin:miter;stroke-opacity:1" d="M 911.556,307.111 905.333,314.222 z" id="boundary" inkscape:connector-curvature="0" />
	<path style="fill:none;stroke:red;stroke-width:1px;stroke-linecap:butt;stroke-linejoin:miter;stroke-opacity:1" d="M 905.333,314.222 900.889,323.111 z" id="boundary" inkscape:connector-curvature="0" />
	<path style="fill:none;stroke:red;stroke-width:1px;stroke-linecap:butt;stroke-linejoin:miter;stroke-opacity:1" d="M 893.778,409.333 893.778,400.444 z" id="boundary" inkscape:connector-curvature="0" />
	<path style="fill:none;stroke:red;stroke-width:1px;stroke-linecap:butt;stroke-linejoin:miter;stroke-opacity:1" d="M 911.556,307.111 918.667,300.889 z" id="boundary" inkscape:connector-curvature="0" />
	<path style="fill:none;stroke:red;stroke-width:1px;stroke-linecap:butt;stroke-linejoin:miter;stroke-opacity:1" d="M 895.556,418.222 893.778,409.333 z" id="boundary" inkscape:connector-curvature="0" />
	<path style="fill:none;stroke:red;stroke-width:1px;stroke-linecap:butt;stroke-linejoin:miter;stroke-opacity:1" d="M 898.222,427.111 898.222,436 z" id="boundary" inkscape:connector-curvature="0" />
	<path style="fill:none;stroke:red;stroke-width:1px;stroke-linecap:butt;stroke-linejoin:miter;stroke-opacity:1" d="M 928.444,88.4444 919.556,88.4444 z" id="boundary" inkscape:connector-curvature="0" />
	<path style="fill:none;stroke:red;stroke-width:1px;stroke-linecap:butt;stroke-linejoin:miter;stroke-opacity:1" d="M 898.222,436 892,449.333 z" id="boundary" inkscape:connector-curvature="0" />
	<path style="fill:none;stroke:red;stroke-width:1px;stroke-linecap:butt;stroke-linejoin:miter;stroke-opacity:1" d="M 924.889,293.778 932,287.556 z" id="boundary" inkscape:connector-curvature="0" />
	<path style="fill:none;stroke:red;stroke-width:1px;stroke-linecap:butt;stroke-linejoin:miter;stroke-opacity:1" d="M 924.889,293.778 918.667,300.889 z" id="boundary" inkscape:connector-curvature="0" />
	<path style="fill:none;stroke:red;stroke-width:1px;stroke-linecap:butt;stroke-linejoin:miter;stroke-opacity:1" d="M 884,92.8889 892.889,92.8889 z" id="boundary" inkscape:connector-curvature="0" />
	<path style="fill:none;stroke:red;stroke-width:1px;stroke-linecap:butt;stroke-linejoin:miter;stroke-opacity:1" d="M 892.889,92.8889 901.778,91.1111 z" id="boundary" inkscape:connector-curvature="0" />
	<path style="fill:none;stroke:red;stroke-width:1px;stroke-linecap:butt;stroke-linejoin:miter;stroke-opacity:1" d="M 910.667,88.4444 919.556,88.4444 z" id="boundary" inkscape:connector-curvature="0" />
	<path style="fill:none;stroke:red;stroke-width:1px;stroke-linecap:butt;stroke-linejoin:miter;stroke-opacity:1" d="M 910.667,88.4444 901.778,91.1111 z" id="boundary" inkscape:connector-curvature="0" />
	<path style="fill:none;stroke:red;stroke-width:1px;stroke-linecap:butt;stroke-linejoin:miter;stroke-opacity:1" d="M 937.333,86.6667 928.444,88.4444 z" id="boundary" inkscape:connector-curvature="0" />
	<path style="fill:none;stroke:red;stroke-width:1px;stroke-linecap:butt;stroke-linejoin:miter;stroke-opacity:1" d="M 932,287.556 938.222,280.444 z" id="boundary" inkscape:connector-curvature="0" />
	<path style="fill:none;stroke:red;stroke-width:1px;stroke-linecap:butt;stroke-linejoin:miter;stroke-opacity:1" d="M 938.222,280.444 945.333,274.222 z" id="boundary" inkscape:connector-curvature="0" />
	<path style="fill:none;stroke:red;stroke-width:1px;stroke-linecap:butt;stroke-linejoin:miter;stroke-opacity:1" d="M 954.222,88.4444 960.444,95.5556 z" id="boundary" inkscape:connector-curvature="0" />
	<path style="fill:none;stroke:red;stroke-width:1px;stroke-linecap:butt;stroke-linejoin:miter;stroke-opacity:1" d="M 945.333,274.222 951.556,267.111 z" id="boundary" inkscape:connector-curvature="0" />
	<path style="fill:none;stroke:red;stroke-width:1px;stroke-linecap:butt;stroke-linejoin:miter;stroke-opacity:1" d="M 951.556,267.111 958.667,260.889 z" id="boundary" inkscape:connector-curvature="0" />
	<path style="fill:none;stroke:red;stroke-width:1px;stroke-linecap:butt;stroke-linejoin:miter;stroke-opacity:1" d="M 946.222,84 954.222,88.4444 z" id="boundary" inkscape:connector-curvature="0" />
	<path style="fill:none;stroke:red;stroke-width:1px;stroke-linecap:butt;stroke-linejoin:miter;stroke-opacity:1" d="M 946.222,84 937.333,86.6667 z" id="boundary" inkscape:connector-curvature="0" />
	<path style="fill:none;stroke:red;stroke-width:1px;stroke-linecap:butt;stroke-linejoin:miter;stroke-opacity:1" d="M 960.444,95.5556 964,104.444 z" id="boundary" inkscape:connector-curvature="0" />
	<path style="fill:none;stroke:red;stroke-width:1px;stroke-linecap:butt;stroke-linejoin:miter;stroke-opacity:1" d="M 958.667,260.889 964.889,253.778 z" id="boundary" inkscape:connector-curvature="0" />
	<path style="fill:none;stroke:red;stroke-width:1px;stroke-linecap:butt;stroke-linejoin:miter;stroke-opacity:1" d="M 964.889,253.778 972,247.556 z" id="boundary" inkscape:connector-curvature="0" />
	<path style="fill:none;stroke:red;stroke-width:1px;stroke-linecap:butt;stroke-linejoin:miter;stroke-opacity:1" d="M 964,104.444 964.889,113.333 z" id="boundary" inkscape:connector-curvature="0" />
	<path style="fill:none;stroke:red;stroke-width:1px;stroke-linecap:butt;stroke-linejoin:miter;stroke-opacity:1" d="M 969.333,130.222 969.333,121.333 z" id="boundary" inkscape:connector-curvature="0" />
	<path style="fill:none;stroke:red;stroke-width:1px;stroke-linecap:butt;stroke-linejoin:miter;stroke-opacity:1" d="M 969.333,121.333 964.889,113.333 z" id="boundary" inkscape:connector-curvature="0" />
	<path style="fill:none;stroke:red;stroke-width:1px;stroke-linecap:butt;stroke-linejoin:miter;stroke-opacity:1" d="M 969.333,130.222 972,139.111 z" id="boundary" inkscape:connector-curvature="0" />
	<path style="fill:none;stroke:red;stroke-width:1px;stroke-linecap:butt;stroke-linejoin:miter;stroke-opacity:1" d="M 978.222,156 973.778,148 z" id="boundary" inkscape:connector-curvature="0" />
	<path style="fill:none;stroke:red;stroke-width:1px;stroke-linecap:butt;stroke-linejoin:miter;stroke-opacity:1" d="M 978.222,156 980,164.889 z" id="boundary" inkscape:connector-curvature="0" />
	<path style="fill:none;stroke:red;stroke-width:1px;stroke-linecap:butt;stroke-linejoin:miter;stroke-opacity:1" d="M 978.222,240.444 985.333,234.222 z" id="boundary" inkscape:connector-curvature="0" />
	<path style="fill:none;stroke:red;stroke-width:1px;stroke-linecap:butt;stroke-linejoin:miter;stroke-opacity:1" d="M 978.222,240.444 972,247.556 z" id="boundary" inkscape:connector-curvature="0" />
	<path style="fill:none;stroke:red;stroke-width:1px;stroke-linecap:butt;stroke-linejoin:miter;stroke-opacity:1" d="M 982.667,173.778 980,164.889 z" id="boundary" inkscape:connector-curvature="0" />
	<path style="fill:none;stroke:red;stroke-width:1px;stroke-linecap:butt;stroke-linejoin:miter;stroke-opacity:1" d="M 984.444,182.667 982.667,173.778 z" id="boundary" inkscape:connector-curvature="0" />
	<path style="fill:none;stroke:red;stroke-width:1px;stroke-linecap:butt;stroke-linejoin:miter;stroke-opacity:1" d="M 988.889,190.667 991.556,199.556 z" id="boundary" inkscape:connector-curvature="0" />
	<path style="fill:none;stroke:red;stroke-width:1px;stroke-linecap:butt;stroke-linejoin:miter;stroke-opacity:1" d="M 988.889,190.667 984.444,182.667 z" id="boundary" inkscape:connector-curvature="0" />
	<path style="fill:none;stroke:red;stroke-width:1px;stroke-linecap:butt;stroke-linejoin:miter;stroke-opacity:1" d="M 991.556,227.111 985.333,234.222 z" id="boundary" inkscape:connector-curvature="0" />
	<path style="fill:none;stroke:red;stroke-width:1px;stroke-linecap:butt;stroke-linejoin:miter;stroke-opacity:1" d="M 996,207.556 996,218.222 z" id="boundary" inkscape:connector-curvature="0" />
	<path style="fill:none;stroke:red;stroke-width:1px;stroke-linecap:butt;stroke-linejoin:miter;stroke-opacity:1" d="M 996,207.556 991.556,199.556 z" id="boundary" inkscape:connector-curvature="0" />
	<path style="fill:none;stroke:red;stroke-width:1px;stroke-linecap:butt;stroke-linejoin:miter;stroke-opacity:1" d="M 996,218.222 991.556,227.111 z" id="boundary" inkscape:connector-curvature="0" />
	<circle cx="4" cy="228.889" r="4" fill="#0" id="circle0"/>
	<circle cx="8.44444" cy="236.889" r="4" fill="#0" id="circle1"/>
	<circle cx="8.44444" cy="245.778" r="4" fill="#0" id="circle2"/>
	<circle cx="8.44444" cy="254.667" r="4" fill="#0" id="circle3"/>
	<circle cx="8.44444" cy="263.556" r="4" fill="#0" id="circle4"/>
	<circle cx="8.44444" cy="272.444" r="4" fill="#0" id="circle5"/>
	<circle cx="8.44444" cy="281.333" r="4" fill="#0" id="circle6"/>
	<circle cx="8.44444" cy="290.222" r="4" fill="#0" id="circle7"/>
	<circle cx="8.44444" cy="299.111" r="4" fill="#0" id="circle8"/>
	<circle cx="8.44444" cy="308" r="4" fill="#0" id="circle9"/>
	<circle cx="8.44444" cy="316.889" r="4" fill="#0" id="circle10"/>
	<circle cx="8.44444" cy="325.778" r="4" fill="#0" id="circle11"/>
	<circle cx="8.44444" cy="334.667" r="4" fill="#0" id="circle12"/>
	<circle cx="11.1111" cy="221.778" r="4" fill="#0" id="circle13"/>
	<circle cx="14.6667" cy="341.778" r="4" fill="#0" id="circle14"/>
	<circle cx="18.2222" cy="214.667" r="4" fill="#0" id="circle15"/>
	<circle cx="21.7778" cy="347.111" r="4" fill="#0" id="circle16"/>
	<circle cx="25.3333" cy="208.444" r="4" fill="#0" id="circle17"/>
	<circle cx="29.7778" cy="342.667" r="4" fill="#0" id="circle18"/>
	<circle cx="33.3333" cy="204" r="4" fill="#0" id="circle19"/>
	<circle cx="38.6667" cy="342.667" r="4" fill="#0" id="circle20"/>
	<circle cx="42.2222" cy="199.556" r="4" fill="#0" id="circle21"/>
	<circle cx="47.5556" cy="342.667" r="4" fill="#0" id="circle22"/>
	<circle cx="49.3333" cy="192.444" r="4" fill="#0" id="circle23"/>
	<circle cx="55.5556" cy="338.222" r="4" fill="#0" id="circle24"/>
	<circle cx="56.4444" cy="186.222" r="4" fill="#0" id="circle25"/>
	<circle cx="62.6667" cy="179.111" r="4" fill="#0" id="circle26"/>
	<circle cx="64.4444" cy="338.222" r="4" fill="#0" id="circle27"/>
	<circle cx="69.7778" cy="172.889" r="4" fill="#0" id="circle28"/>
	<circle cx="73.3333" cy="338.222" r="4" fill="#0" id="circle29"/>
	<circle cx="76" cy="165.778" r="4" fill="#0" id="circle30"/>
	<circle cx="82.2222" cy="338.222" r="4" fill="#0" id="circle31"/>
	<circle cx="83.1111" cy="159.556" r="4" fill="#0" id="circle32"/>
	<circle cx="89.3333" cy="152.444" r="4" fill="#0" id="circle33"/>
	<circle cx="90.2222" cy="333.778" r="4" fill="#0" id="circle34"/>
	<circle cx="96.4444" cy="146.222" r="4" fill="#0" id="circle35"/>
	<circle cx="99.1111" cy="333.778" r="4" fill="#0" id="circle36"/>
	<circle cx="102.667" cy="139.111" r="4" fill="#0" id="circle37"/>
	<circle cx="108" cy="333.778" r="4" fill="#0" id="circle38"/>
	<circle cx="111.556" cy="134.667" r="4" fill="#0" id="circle39"/>
	<circle cx="116.889" cy="333.778" r="4" fill="#0" id="circle40"/>
	<circle cx="119.556" cy="33.3333" r="4" fill="#0" id="circle41"/>
	<circle cx="119.556" cy="42.2222" r="4" fill="#0" id="circle42"/>
	<circle cx="119.556" cy="51.1111" r="4" fill="#0" id="circle43"/>
	<circle cx="119.556" cy="60" r="4" fill="#0" id="circle44"/>
	<circle cx="119.556" cy="68.8889" r="4" fill="#0" id="circle45"/>
	<circle cx="119.556" cy="77.7778" r="4" fill="#0" id="circle46"/>
	<circle cx="119.556" cy="86.6667" r="4" fill="#0" id="circle47"/>
	<circle cx="119.556" cy="95.5556" r="4" fill="#0" id="circle48"/>
	<circle cx="119.556" cy="104.444" r="4" fill="#0" id="circle49"/>
	<circle cx="119.556" cy="113.333" r="4" fill="#0" id="circle50"/>
	<circle cx="119.556" cy="122.222" r="4" fill="#0" id="circle51"/>
	<circle cx="125.778" cy="333.778" r="4" fill="#0" id="circle52"/>
	<circle cx="126.667" cy="26.2222" r="4" fill="#0" id="circle53"/>
	<circle cx="134.667" cy="21.7778" r="4" fill="#0" id="circle54"/>
	<circle cx="134.667" cy="333.778" r="4" fill="#0" id="circle55"/>
	<circle cx="143.556" cy="21.7778" r="4" fill="#0" id="circle56"/>
	<circle cx="143.556" cy="333.778" r="4" fill="#0" id="circle57"/>
	<circle cx="152.444" cy="21.7778" r="4" fill="#0" id="circle58"/>
	<circle cx="152.444" cy="333.778" r="4" fill="#0" id="circle59"/>
	<circle cx="160.444" cy="17.3333" r="4" fill="#0" id="circle60"/>
	<circle cx="161.333" cy="333.778" r="4" fill="#0" id="circle61"/>
	<circle cx="168.444" cy="339.111" r="4" fill="#0" id="circle62"/>
	<circle cx="169.333" cy="17.3333" r="4" fill="#0" id="circle63"/>
	<circle cx="172.889" cy="347.111" r="4" fill="#0" id="circle64"/>
	<circle cx="178.222" cy="14.6667" r="4" fill="#0" id="circle65"/>
	<circle cx="178.222" cy="354.222" r="4" fill="#0" id="circle66"/>
	<circle cx="185.333" cy="360.444" r="4" fill="#0" id="circle67"/>
	<circle cx="187.111" cy="12.8889" r="4" fill="#0" id="circle68"/>
	<circle cx="193.333" cy="364.889" r="4" fill="#0" id="circle69"/>
	<circle cx="196" cy="12.8889" r="4" fill="#0" id="circle70"/>
	<circle cx="200.444" cy="371.111" r="4" fill="#0" id="circle71"/>
	<circle cx="204.889" cy="12.8889" r="4" fill="#0" id="circle72"/>
	<circle cx="206.667" cy="378.222" r="4" fill="#0" id="circle73"/>
	<circle cx="212.889" cy="8.44444" r="4" fill="#0" id="circle74"/>
	<circle cx="213.778" cy="384.444" r="4" fill="#0" id="circle75"/>
	<circle cx="220" cy="391.556" r="4" fill="#0" id="circle76"/>
	<circle cx="221.778" cy="8.44444" r="4" fill="#0" id="circle77"/>
	<circle cx="228.889" cy="395.111" r="4" fill="#0" id="circle78"/>
	<circle cx="230.667" cy="8.44444" r="4" fill="#0" id="circle79"/>
	<circle cx="236.889" cy="399.556" r="4" fill="#0" id="circle80"/>
	<circle cx="239.556" cy="8.44444" r="4" fill="#0" id="circle81"/>
	<circle cx="245.778" cy="400.444" r="4" fill="#0" id="circle82"/>
	<circle cx="247.556" cy="4" r="4" fill="#0" id="circle83"/>
	<circle cx="253.778" cy="404.889" r="4" fill="#0" id="circle84"/>
	<circle cx="256.444" cy="4" r="4" fill="#0" id="circle85"/>
	<circle cx="262.667" cy="406.667" r="4" fill="#0" id="circle86"/>
	<circle cx="265.333" cy="4" r="4" fill="#0" id="circle87"/>
	<circle cx="270.667" cy="411.111" r="4" fill="#0" id="circle88"/>
	<circle cx="273.333" cy="8.44444" r="4" fill="#0" id="circle89"/>
	<circle cx="279.556" cy="15.5556" r="4" fill="#0" id="circle90"/>
	<circle cx="279.556" cy="413.778" r="4" fill="#0" id="circle91"/>
	<circle cx="286.667" cy="21.7778" r="4" fill="#0" id="circle92"/>
	<circle cx="287.556" cy="418.222" r="4" fill="#0" id="circle93"/>
	<circle cx="292.889" cy="28.8889" r="4" fill="#0" id="circle94"/>
	<circle cx="295.556" cy="422.667" r="4" fill="#0" id="circle95"/>
	<circle cx="300" cy="35.1111" r="4" fill="#0" id="circle96"/>
	<circle cx="304.444" cy="422.667" r="4" fill="#0" id="circle97"/>
	<circle cx="306.222" cy="42.2222" r="4" fill="#0" id="circle98"/>
	<circle cx="313.333" cy="48.4444" r="4" fill="#0" id="circle99"/>
	<circle cx="313.333" cy="422.667" r="4" fill="#0" id="circle100"/>
	<circle cx="319.556" cy="55.5556" r="4" fill="#0" id="circle101"/>
	<circle cx="322.222" cy="422.667" r="4" fill="#0" id="circle102"/>
	<circle cx="326.667" cy="61.7778" r="4" fill="#0" id="circle103"/>
	<circle cx="331.111" cy="422.667" r="4" fill="#0" id="circle104"/>
	<circle cx="332.889" cy="68.8889" r="4" fill="#0" id="circle105"/>
	<circle cx="339.111" cy="418.222" r="4" fill="#0" id="circle106"/>
	<circle cx="340" cy="75.1111" r="4" fill="#0" id="circle107"/>
	<circle cx="348" cy="79.5556" r="4" fill="#0" id="circle108"/>
	<circle cx="348" cy="418.222" r="4" fill="#0" id="circle109"/>
	<circle cx="356" cy="84" r="4" fill="#0" id="circle110"/>
	<circle cx="356.889" cy="418.222" r="4" fill="#0" id="circle111"/>
	<circle cx="364.889" cy="86.6667" r="4" fill="#0" id="circle112"/>
	<circle cx="365.778" cy="418.222" r="4" fill="#0" id="circle113"/>
	<circle cx="373.778" cy="88.4444" r="4" fill="#0" id="circle114"/>
	<circle cx="374.667" cy="418.222" r="4" fill="#0" id="circle115"/>
	<circle cx="382.667" cy="88.4444" r="4" fill="#0" id="circle116"/>
	<circle cx="382.667" cy="413.778" r="4" fill="#0" id="circle117"/>
	<circle cx="390.667" cy="84" r="4" fill="#0" id="circle118"/>
	<circle cx="391.556" cy="413.778" r="4" fill="#0" id="circle119"/>
	<circle cx="398.667" cy="79.5556" r="4" fill="#0" id="circle120"/>
	<circle cx="400.444" cy="413.778" r="4" fill="#0" id="circle121"/>
	<circle cx="406.667" cy="75.1111" r="4" fill="#0" id="circle122"/>
	<circle cx="409.333" cy="413.778" r="4" fill="#0" id="circle123"/>
	<circle cx="415.556" cy="75.1111" r="4" fill="#0" id="circle124"/>
	<circle cx="417.333" cy="409.333" r="4" fill="#0" id="circle125"/>
	<circle cx="423.556" cy="70.6667" r="4" fill="#0" id="circle126"/>
	<circle cx="426.222" cy="409.333" r="4" fill="#0" id="circle127"/>
	<circle cx="432.444" cy="70.6667" r="4" fill="#0" id="circle128"/>
	<circle cx="435.111" cy="409.333" r="4" fill="#0" id="circle129"/>
	<circle cx="440.444" cy="66.2222" r="4" fill="#0" id="circle130"/>
	<circle cx="444" cy="406.667" r="4" fill="#0" id="circle131"/>
	<circle cx="449.333" cy="66.2222" r="4" fill="#0" id="circle132"/>
	<circle cx="452.889" cy="404.889" r="4" fill="#0" id="circle133"/>
	<circle cx="458.222" cy="63.5556" r="4" fill="#0" id="circle134"/>
	<circle cx="461.778" cy="404.889" r="4" fill="#0" id="circle135"/>
	<circle cx="467.111" cy="61.7778" r="4" fill="#0" id="circle136"/>
	<circle cx="469.778" cy="400.444" r="4" fill="#0" id="circle137"/>
	<circle cx="476" cy="61.7778" r="4" fill="#0" id="circle138"/>
	<circle cx="478.667" cy="400.444" r="4" fill="#0" id="circle139"/>
	<circle cx="484" cy="57.3333" r="4" fill="#0" id="circle140"/>
	<circle cx="487.556" cy="398.667" r="4" fill="#0" id="circle141"/>
	<circle cx="492.889" cy="57.3333" r="4" fill="#0" id="circle142"/>
	<circle cx="496.444" cy="396" r="4" fill="#0" id="circle143"/>
	<circle cx="500.889" cy="52.8889" r="4" fill="#0" id="circle144"/>
	<circle cx="505.333" cy="394.222" r="4" fill="#0" id="circle145"/>
	<circle cx="509.778" cy="52.8889" r="4" fill="#0" id="circle146"/>
	<circle cx="514.222" cy="391.556" r="4" fill="#0" id="circle147"/>
	<circle cx="517.778" cy="48.4444" r="4" fill="#0" id="circle148"/>
	<circle cx="523.111" cy="391.556" r="4" fill="#0" id="circle149"/>
	<circle cx="526.667" cy="48.4444" r="4" fill="#0" id="circle150"/>
	<circle cx="532" cy="389.778" r="4" fill="#0" id="circle151"/>
	<circle cx="535.556" cy="48.4444" r="4" fill="#0" id="circle152"/>
	<circle cx="540.889" cy="387.111" r="4" fill="#0" id="circle153"/>
	<circle cx="543.556" cy="44" r="4" fill="#0" id="circle154"/>
	<circle cx="549.778" cy="387.111" r="4" fill="#0" id="circle155"/>
	<circle cx="552.444" cy="44" r="4" fill="#0" id="circle156"/>
	<circle cx="558.667" cy="387.111" r="4" fill="#0" id="circle157"/>
	<circle cx="561.333" cy="44" r="4" fill="#0" id="circle158"/>
	<circle cx="567.556" cy="387.111" r="4" fill="#0" id="circle159"/>
	<circle cx="570.222" cy="44" r="4" fill="#0" id="circle160"/>
	<circle cx="576.444" cy="387.111" r="4" fill="#0" id="circle161"/>
	<circle cx="579.111" cy="44" r="4" fill="#0" id="circle162"/>
	<circle cx="585.333" cy="387.111" r="4" fill="#0" id="circle163"/>
	<circle cx="587.111" cy="39.5556" r="4" fill="#0" id="circle164"/>
	<circle cx="594.222" cy="387.111" r="4" fill="#0" id="circle165"/>
	<circle cx="596" cy="39.5556" r="4" fill="#0" id="circle166"/>
	<circle cx="603.111" cy="387.111" r="4" fill="#0" id="circle167"/>
	<circle cx="604.889" cy="39.5556" r="4" fill="#0" id="circle168"/>
	<circle cx="612" cy="387.111" r="4" fill="#0" id="circle169"/>
	<circle cx="613.778" cy="39.5556" r="4" fill="#0" id="circle170"/>
	<circle cx="620.889" cy="387.111" r="4" fill="#0" id="circle171"/>
	<circle cx="621.778" cy="35.1111" r="4" fill="#0" id="circle172"/>
	<circle cx="629.778" cy="387.111" r="4" fill="#0" id="circle173"/>
	<circle cx="630.667" cy="35.1111" r="4" fill="#0" id="circle174"/>
	<circle cx="638.667" cy="387.111" r="4" fill="#0" id="circle175"/>
	<circle cx="639.556" cy="35.1111" r="4" fill="#0" id="circle176"/>
	<circle cx="647.556" cy="387.111" r="4" fill="#0" id="circle177"/>
	<circle cx="648.444" cy="33.3333" r="4" fill="#0" id="circle178"/>
	<circle cx="656.444" cy="387.111" r="4" fill="#0" id="circle179"/>
	<circle cx="657.333" cy="30.6667" r="4" fill="#0" id="circle180"/>
	<circle cx="664.444" cy="391.556" r="4" fill="#0" id="circle181"/>
	<circle cx="666.222" cy="30.6667" r="4" fill="#0" id="circle182"/>
	<circle cx="673.333" cy="395.111" r="4" fill="#0" id="circle183"/>
	<circle cx="675.111" cy="32.4444" r="4" fill="#0" id="circle184"/>
	<circle cx="681.333" cy="399.556" r="4" fill="#0" id="circle185"/>
	<circle cx="684" cy="35.1111" r="4" fill="#0" id="circle186"/>
	<circle cx="690.222" cy="403.111" r="4" fill="#0" id="circle187"/>
	<circle cx="692" cy="39.5556" r="4" fill="#0" id="circle188"/>
	<circle cx="698.222" cy="407.556" r="4" fill="#0" id="circle189"/>
	<circle cx="700" cy="44" r="4" fill="#0" id="circle190"/>
	<circle cx="706.222" cy="51.1111" r="4" fill="#0" id="circle191"/>
	<circle cx="707.111" cy="409.333" r="4" fill="#0" id="circle192"/>
	<circle cx="715.111" cy="54.6667" r="4" fill="#0" id="circle193"/>
	<circle cx="715.111" cy="413.778" r="4" fill="#0" id="circle194"/>
	<circle cx="720.444" cy="61.7778" r="4" fill="#0" id="circle195"/>
	<circle cx="724" cy="413.778" r="4" fill="#0" id="circle196"/>
	<circle cx="728.444" cy="66.2222" r="4" fill="#0" id="circle197"/>
	<circle cx="732" cy="418.222" r="4" fill="#0" id="circle198"/>
	<circle cx="735.556" cy="71.5556" r="4" fill="#0" id="circle199"/>
	<circle cx="740" cy="422.667" r="4" fill="#0" id="circle200"/>
	<circle cx="744.444" cy="75.1111" r="4" fill="#0" id="circle201"/>
	<circle cx="748.889" cy="426.222" r="4" fill="#0" id="circle202"/>
	<circle cx="750.667" cy="82.2222" r="4" fill="#0" id="circle203"/>
	<circle cx="756.889" cy="430.667" r="4" fill="#0" id="circle204"/>
	<circle cx="757.778" cy="88.4444" r="4" fill="#0" id="circle205"/>
	<circle cx="764" cy="436" r="4" fill="#0" id="circle206"/>
	<circle cx="765.778" cy="92.8889" r="4" fill="#0" id="circle207"/>
	<circle cx="769.333" cy="443.111" r="4" fill="#0" id="circle208"/>
	<circle cx="772.889" cy="99.1111" r="4" fill="#0" id="circle209"/>
	<circle cx="776.444" cy="449.333" r="4" fill="#0" id="circle210"/>
	<circle cx="778.222" cy="106.222" r="4" fill="#0" id="circle211"/>
	<circle cx="784.444" cy="453.778" r="4" fill="#0" id="circle212"/>
	<circle cx="787.111" cy="106.222" r="4" fill="#0" id="circle213"/>
	<circle cx="791.556" cy="460" r="4" fill="#0" id="circle214"/>
	<circle cx="796" cy="106.222" r="4" fill="#0" id="circle215"/>
	<circle cx="797.778" cy="467.111" r="4" fill="#0" id="circle216"/>
	<circle cx="804.889" cy="106.222" r="4" fill="#0" id="circle217"/>
	<circle cx="806.667" cy="470.667" r="4" fill="#0" id="circle218"/>
	<circle cx="813.778" cy="106.222" r="4" fill="#0" id="circle219"/>
	<circle cx="815.556" cy="471.556" r="4" fill="#0" id="circle220"/>
	<circle cx="822.667" cy="103.556" r="4" fill="#0" id="circle221"/>
	<circle cx="823.556" cy="467.111" r="4" fill="#0" id="circle222"/>
	<circle cx="831.556" cy="101.778" r="4" fill="#0" id="circle223"/>
	<circle cx="831.556" cy="462.667" r="4" fill="#0" id="circle224"/>
	<circle cx="840.444" cy="99.1111" r="4" fill="#0" id="circle225"/>
	<circle cx="840.444" cy="462.667" r="4" fill="#0" id="circle226"/>
	<circle cx="849.333" cy="97.3333" r="4" fill="#0" id="circle227"/>
	<circle cx="849.333" cy="458.222" r="4" fill="#0" id="circle228"/>
	<circle cx="858.222" cy="97.3333" r="4" fill="#0" id="circle229"/>
	<circle cx="858.222" cy="458.222" r="4" fill="#0" id="circle230"/>
	<circle cx="866.222" cy="92.8889" r="4" fill="#0" id="circle231"/>
	<circle cx="866.222" cy="453.778" r="4" fill="#0" id="circle232"/>
	<circle cx="875.111" cy="92.8889" r="4" fill="#0" id="circle233"/>
	<circle cx="875.111" cy="453.778" r="4" fill="#0" id="circle234"/>
	<circle cx="884" cy="92.8889" r="4" fill="#0" id="circle235"/>
	<circle cx="884" cy="453.778" r="4" fill="#0" id="circle236"/>
	<circle cx="892" cy="449.333" r="4" fill="#0" id="circle237"/>
	<circle cx="892.889" cy="92.8889" r="4" fill="#0" id="circle238"/>
	<circle cx="893.778" cy="329.333" r="4" fill="#0" id="circle239"/>
	<circle cx="893.778" cy="338.222" r="4" fill="#0" id="circle240"/>
	<circle cx="893.778" cy="347.111" r="4" fill="#0" id="circle241"/>
	<circle cx="893.778" cy="356" r="4" fill="#0" id="circle242"/>
	<circle cx="893.778" cy="364.889" r="4" fill="#0" id="circle243"/>
	<circle cx="893.778" cy="373.778" r="4" fill="#0" id="circle244"/>
	<circle cx="893.778" cy="382.667" r="4" fill="#0" id="circle245"/>
	<circle cx="893.778" cy="391.556" r="4" fill="#0" id="circle246"/>
	<circle cx="893.778" cy="400.444" r="4" fill="#0" id="circle247"/>
	<circle cx="893.778" cy="409.333" r="4" fill="#0" id="circle248"/>
	<circle cx="895.556" cy="418.222" r="4" fill="#0" id="circle249"/>
	<circle cx="898.222" cy="427.111" r="4" fill="#0" id="circle250"/>
	<circle cx="898.222" cy="436" r="4" fill="#0" id="circle251"/>
	<circle cx="900.889" cy="323.111" r="4" fill="#0" id="circle252"/>
	<circle cx="901.778" cy="91.1111" r="4" fill="#0" id="circle253"/>
	<circle cx="905.333" cy="314.222" r="4" fill="#0" id="circle254"/>
	<circle cx="910.667" cy="88.4444" r="4" fill="#0" id="circle255"/>
	<circle cx="911.556" cy="307.111" r="4" fill="#0" id="circle256"/>
	<circle cx="918.667" cy="300.889" r="4" fill="#0" id="circle257"/>
	<circle cx="919.556" cy="88.4444" r="4" fill="#0" id="circle258"/>
	<circle cx="924.889" cy="293.778" r="4" fill="#0" id="circle259"/>
	<circle cx="928.444" cy="88.4444" r="4" fill="#0" id="circle260"/>
	<circle cx="932" cy="287.556" r="4" fill="#0" id="circle261"/>
	<circle cx="937.333" cy="86.6667" r="4" fill="#0" id="circle262"/>
	<circle cx="938.222" cy="280.444" r="4" fill="#0" id="circle263"/>
	<circle cx="945.333" cy="274.222" r="4" fill="#0" id="circle264"/>
	<circle cx="946.222" cy="84" r="4" fill="#0" id="circle265"/>
	<circle cx="951.556" cy="267.111" r="4" fill="#0" id="circle266"/>
	<circle cx="954.222" cy="88.4444" r="4" fill="#0" id="circle267"/>
	<circle cx="958.667" cy="260.889" r="4" fill="#0" id="circle268"/>
	<circle cx="960.444" cy="95.5556" r="4" fill="#0" id="circle269"/>
	<circle cx="964" cy="104.444" r="4" fill="#0" id="circle270"/>
	<circle cx="964.889" cy="113.333" r="4" fill="#0" id="circle271"/>
	<circle cx="964.889" cy="253.778" r="4" fill="#0" id="circle272"/>
	<circle cx="969.333" cy="121.333" r="4" fill="#0" id="circle273"/>
	<circle cx="969.333" cy="130.222" r="4" fill="#0" id="circle274"/>
	<circle cx="972" cy="139.111" r="4" fill="#0" id="circle275"/>
	<circle cx="972" cy="247.556" r="4" fill="#0" id="circle276"/>
	<circle cx="973.778" cy="148" r="4" fill="#0" id="circle277"/>
	<circle cx="978.222" cy="156" r="4" fill="#0" id="circle278"/>
	<circle cx="978.222" cy="240.444" r="4" fill="#0" id="circle279"/>
	<circle cx="980" cy="164.889" r="4" fill="#0" id="circle280"/>
	<circle cx="982.667" cy="173.778" r="4" fill="#0" id="circle281"/>
	<circle cx="984.444" cy="182.667" r="4" fill="#0" id="circle282"/>
	<circle cx="985.333" cy="234.222" r="4" fill="#0" id="circle283"/>
	<circle cx="988.889" cy="190.667" r="4" fill="#0" id="circle284"/>
	<circle cx="991.556" cy="199.556" r="4" fill="#0" id="circle285"/>
	<circle cx="991.556" cy="227.111" r="4" fill="#0" id="circle286"/>
	<circle cx="996" cy="207.556" r="4" fill="#0" id="circle287"/>
	<circle cx="996" cy="218.222" r="4" fill="#0" id="circle288"/>
	</g>
</svg>