<?xml version="1.0" encoding="UTF-8" standalone="no"?>
<!-- Created with CurveBenchmark -->
<svg
	xmlns:dc="http://purl.org/dc/elements/1.1/"
	xmlns:cc="http://creativecommons.org/ns#"
	xmlns:rdf="http://www.w3.org/1999/02/22-rdf-syntax-ns#"
	xmlns:svg="http://www.w3.org/2000/svg"
	xmlns="http://www.w3.org/2000/svg"
	xmlns:sodipodi="http://sodipodi.sourceforge.net/DTD/sodipodi-0.dtd"
	xmlns:inkscape="http://www.inkscape.org/namespaces/inkscape"
	width="1000"
	height="1000"
	id="svg2"
	version="1.1"
	sodipodi:docname="manifold/peel-television215.png.txt">
<defs
	id="defs4" />
<metadata
	id="metadata7">
	<rdf:RDF>
		<cc:Work
			rdf:about="">
			<dc:format>image/svg+xml</dc:format>
			<dc:type
				rdf:resource="http://purl.org/dc/dcmitype/StillImage" />
			<dc:title></dc:title>
		</cc:Work>
	</rdf:RDF>
</metadata>
<g
	inkscape:label="Layer 1"
	inkscape:groupmode="layer"
	id="layer1">
	<path style="fill:none;stroke:red;stroke-width:1px;stroke-linecap:butt;stroke-linejoin:miter;stroke-opacity:1" d="M 4,822.144 4,788.055 z" id="boundary" inkscape:connector-curvature="0" />
	<path style="fill:none;stroke:red;stroke-width:1px;stroke-linecap:butt;stroke-linejoin:miter;stroke-opacity:1" d="M 4,788.055 38.0893,781.237 z" id="boundary" inkscape:connector-curvature="0" />
	<path style="fill:none;stroke:red;stroke-width:1px;stroke-linecap:butt;stroke-linejoin:miter;stroke-opacity:1" d="M 55.134,852.825 21.0447,852.825 z" id="boundary" inkscape:connector-curvature="0" />
	<path style="fill:none;stroke:red;stroke-width:1px;stroke-linecap:butt;stroke-linejoin:miter;stroke-opacity:1" d="M 38.0893,781.237 65.3608,801.691 z" id="boundary" inkscape:connector-curvature="0" />
	<path style="fill:none;stroke:red;stroke-width:1px;stroke-linecap:butt;stroke-linejoin:miter;stroke-opacity:1" d="M 4,822.144 21.0447,852.825 z" id="boundary" inkscape:connector-curvature="0" />
	<path style="fill:none;stroke:red;stroke-width:1px;stroke-linecap:butt;stroke-linejoin:miter;stroke-opacity:1" d="M 89.2234,852.825 55.134,852.825 z" id="boundary" inkscape:connector-curvature="0" />
	<path style="fill:none;stroke:red;stroke-width:1px;stroke-linecap:butt;stroke-linejoin:miter;stroke-opacity:1" d="M 123.313,852.825 89.2234,852.825 z" id="boundary" inkscape:connector-curvature="0" />
	<path style="fill:none;stroke:red;stroke-width:1px;stroke-linecap:butt;stroke-linejoin:miter;stroke-opacity:1" d="M 65.3608,801.691 92.6323,781.237 z" id="boundary" inkscape:connector-curvature="0" />
	<path style="fill:none;stroke:red;stroke-width:1px;stroke-linecap:butt;stroke-linejoin:miter;stroke-opacity:1" d="M 92.6323,781.237 119.904,801.691 z" id="boundary" inkscape:connector-curvature="0" />
	<path style="fill:none;stroke:red;stroke-width:1px;stroke-linecap:butt;stroke-linejoin:miter;stroke-opacity:1" d="M 133.54,600.564 106.268,576.701 z" id="boundary" inkscape:connector-curvature="0" />
	<path style="fill:none;stroke:red;stroke-width:1px;stroke-linecap:butt;stroke-linejoin:miter;stroke-opacity:1" d="M 157.402,852.825 191.491,866.46 z" id="boundary" inkscape:connector-curvature="0" />
	<path style="fill:none;stroke:red;stroke-width:1px;stroke-linecap:butt;stroke-linejoin:miter;stroke-opacity:1" d="M 157.402,852.825 123.313,852.825 z" id="boundary" inkscape:connector-curvature="0" />
	<path style="fill:none;stroke:red;stroke-width:1px;stroke-linecap:butt;stroke-linejoin:miter;stroke-opacity:1" d="M 123.313,709.649 157.402,709.649 z" id="boundary" inkscape:connector-curvature="0" />
	<path style="fill:none;stroke:red;stroke-width:1px;stroke-linecap:butt;stroke-linejoin:miter;stroke-opacity:1" d="M 140.357,678.969 106.268,678.969 z" id="boundary" inkscape:connector-curvature="0" />
	<path style="fill:none;stroke:red;stroke-width:1px;stroke-linecap:butt;stroke-linejoin:miter;stroke-opacity:1" d="M 119.904,801.691 147.175,781.237 z" id="boundary" inkscape:connector-curvature="0" />
	<path style="fill:none;stroke:red;stroke-width:1px;stroke-linecap:butt;stroke-linejoin:miter;stroke-opacity:1" d="M 164.22,453.979 153.993,419.89 z" id="boundary" inkscape:connector-curvature="0" />
	<path style="fill:none;stroke:red;stroke-width:1px;stroke-linecap:butt;stroke-linejoin:miter;stroke-opacity:1" d="M 147.175,781.237 174.447,801.691 z" id="boundary" inkscape:connector-curvature="0" />
	<path style="fill:none;stroke:red;stroke-width:1px;stroke-linecap:butt;stroke-linejoin:miter;stroke-opacity:1" d="M 133.54,600.564 167.629,600.564 z" id="boundary" inkscape:connector-curvature="0" />
	<path style="fill:none;stroke:red;stroke-width:1px;stroke-linecap:butt;stroke-linejoin:miter;stroke-opacity:1" d="M 153.993,78.9966 153.993,44.9072 z" id="boundary" inkscape:connector-curvature="0" />
	<path style="fill:none;stroke:red;stroke-width:1px;stroke-linecap:butt;stroke-linejoin:miter;stroke-opacity:1" d="M 153.993,44.9072 153.993,10.8179 z" id="boundary" inkscape:connector-curvature="0" />
	<path style="fill:none;stroke:red;stroke-width:1px;stroke-linecap:butt;stroke-linejoin:miter;stroke-opacity:1" d="M 153.993,113.086 153.993,78.9966 z" id="boundary" inkscape:connector-curvature="0" />
	<path style="fill:none;stroke:red;stroke-width:1px;stroke-linecap:butt;stroke-linejoin:miter;stroke-opacity:1" d="M 153.993,147.175 153.993,113.086 z" id="boundary" inkscape:connector-curvature="0" />
	<path style="fill:none;stroke:red;stroke-width:1px;stroke-linecap:butt;stroke-linejoin:miter;stroke-opacity:1" d="M 153.993,10.8179 188.082,4 z" id="boundary" inkscape:connector-curvature="0" />
	<path style="fill:none;stroke:red;stroke-width:1px;stroke-linecap:butt;stroke-linejoin:miter;stroke-opacity:1" d="M 153.993,181.265 153.993,147.175 z" id="boundary" inkscape:connector-curvature="0" />
	<path style="fill:none;stroke:red;stroke-width:1px;stroke-linecap:butt;stroke-linejoin:miter;stroke-opacity:1" d="M 222.172,4 188.082,4 z" id="boundary" inkscape:connector-curvature="0" />
	<path style="fill:none;stroke:red;stroke-width:1px;stroke-linecap:butt;stroke-linejoin:miter;stroke-opacity:1" d="M 153.993,215.354 153.993,181.265 z" id="boundary" inkscape:connector-curvature="0" />
	<path style="fill:none;stroke:red;stroke-width:1px;stroke-linecap:butt;stroke-linejoin:miter;stroke-opacity:1" d="M 153.993,249.443 153.993,215.354 z" id="boundary" inkscape:connector-curvature="0" />
	<path style="fill:none;stroke:red;stroke-width:1px;stroke-linecap:butt;stroke-linejoin:miter;stroke-opacity:1" d="M 222.172,4 256.261,4 z" id="boundary" inkscape:connector-curvature="0" />
	<path style="fill:none;stroke:red;stroke-width:1px;stroke-linecap:butt;stroke-linejoin:miter;stroke-opacity:1" d="M 153.993,283.533 153.993,249.443 z" id="boundary" inkscape:connector-curvature="0" />
	<path style="fill:none;stroke:red;stroke-width:1px;stroke-linecap:butt;stroke-linejoin:miter;stroke-opacity:1" d="M 256.261,4 290.351,4 z" id="boundary" inkscape:connector-curvature="0" />
	<path style="fill:none;stroke:red;stroke-width:1px;stroke-linecap:butt;stroke-linejoin:miter;stroke-opacity:1" d="M 153.993,317.622 153.993,283.533 z" id="boundary" inkscape:connector-curvature="0" />
	<path style="fill:none;stroke:red;stroke-width:1px;stroke-linecap:butt;stroke-linejoin:miter;stroke-opacity:1" d="M 153.993,351.711 153.993,317.622 z" id="boundary" inkscape:connector-curvature="0" />
	<path style="fill:none;stroke:red;stroke-width:1px;stroke-linecap:butt;stroke-linejoin:miter;stroke-opacity:1" d="M 324.44,4 290.351,4 z" id="boundary" inkscape:connector-curvature="0" />
	<path style="fill:none;stroke:red;stroke-width:1px;stroke-linecap:butt;stroke-linejoin:miter;stroke-opacity:1" d="M 153.993,385.801 153.993,351.711 z" id="boundary" inkscape:connector-curvature="0" />
	<path style="fill:none;stroke:red;stroke-width:1px;stroke-linecap:butt;stroke-linejoin:miter;stroke-opacity:1" d="M 153.993,419.89 153.993,385.801 z" id="boundary" inkscape:connector-curvature="0" />
	<path style="fill:none;stroke:red;stroke-width:1px;stroke-linecap:butt;stroke-linejoin:miter;stroke-opacity:1" d="M 157.402,709.649 191.491,709.649 z" id="boundary" inkscape:connector-curvature="0" />
	<path style="fill:none;stroke:red;stroke-width:1px;stroke-linecap:butt;stroke-linejoin:miter;stroke-opacity:1" d="M 174.447,678.969 140.357,678.969 z" id="boundary" inkscape:connector-curvature="0" />
	<path style="fill:none;stroke:red;stroke-width:1px;stroke-linecap:butt;stroke-linejoin:miter;stroke-opacity:1" d="M 150.584,569.883 184.674,569.883 z" id="boundary" inkscape:connector-curvature="0" />
	<path style="fill:none;stroke:red;stroke-width:1px;stroke-linecap:butt;stroke-linejoin:miter;stroke-opacity:1" d="M 167.629,600.564 201.718,600.564 z" id="boundary" inkscape:connector-curvature="0" />
	<path style="fill:none;stroke:red;stroke-width:1px;stroke-linecap:butt;stroke-linejoin:miter;stroke-opacity:1" d="M 164.22,453.979 198.309,457.388 z" id="boundary" inkscape:connector-curvature="0" />
	<path style="fill:none;stroke:red;stroke-width:1px;stroke-linecap:butt;stroke-linejoin:miter;stroke-opacity:1" d="M 191.491,709.649 225.581,709.649 z" id="boundary" inkscape:connector-curvature="0" />
	<path style="fill:none;stroke:red;stroke-width:1px;stroke-linecap:butt;stroke-linejoin:miter;stroke-opacity:1" d="M 174.447,801.691 201.718,781.237 z" id="boundary" inkscape:connector-curvature="0" />
	<path style="fill:none;stroke:red;stroke-width:1px;stroke-linecap:butt;stroke-linejoin:miter;stroke-opacity:1" d="M 201.718,781.237 235.808,781.237 z" id="boundary" inkscape:connector-curvature="0" />
	<path style="fill:none;stroke:red;stroke-width:1px;stroke-linecap:butt;stroke-linejoin:miter;stroke-opacity:1" d="M 208.536,678.969 174.447,678.969 z" id="boundary" inkscape:connector-curvature="0" />
	<path style="fill:none;stroke:red;stroke-width:1px;stroke-linecap:butt;stroke-linejoin:miter;stroke-opacity:1" d="M 218.763,569.883 184.674,569.883 z" id="boundary" inkscape:connector-curvature="0" />
	<path style="fill:none;stroke:red;stroke-width:1px;stroke-linecap:butt;stroke-linejoin:miter;stroke-opacity:1" d="M 201.718,600.564 235.808,600.564 z" id="boundary" inkscape:connector-curvature="0" />
	<path style="fill:none;stroke:red;stroke-width:1px;stroke-linecap:butt;stroke-linejoin:miter;stroke-opacity:1" d="M 225.581,852.825 259.67,852.825 z" id="boundary" inkscape:connector-curvature="0" />
	<path style="fill:none;stroke:red;stroke-width:1px;stroke-linecap:butt;stroke-linejoin:miter;stroke-opacity:1" d="M 225.581,852.825 191.491,866.46 z" id="boundary" inkscape:connector-curvature="0" />
	<path style="fill:none;stroke:red;stroke-width:1px;stroke-linecap:butt;stroke-linejoin:miter;stroke-opacity:1" d="M 198.309,457.388 232.399,457.388 z" id="boundary" inkscape:connector-curvature="0" />
	<path style="fill:none;stroke:red;stroke-width:1px;stroke-linecap:butt;stroke-linejoin:miter;stroke-opacity:1" d="M 235.808,781.237 269.897,781.237 z" id="boundary" inkscape:connector-curvature="0" />
	<path style="fill:none;stroke:red;stroke-width:1px;stroke-linecap:butt;stroke-linejoin:miter;stroke-opacity:1" d="M 242.625,678.969 208.536,678.969 z" id="boundary" inkscape:connector-curvature="0" />
	<path style="fill:none;stroke:red;stroke-width:1px;stroke-linecap:butt;stroke-linejoin:miter;stroke-opacity:1" d="M 218.763,569.883 252.852,569.883 z" id="boundary" inkscape:connector-curvature="0" />
	<path style="fill:none;stroke:red;stroke-width:1px;stroke-linecap:butt;stroke-linejoin:miter;stroke-opacity:1" d="M 225.581,709.649 259.67,709.649 z" id="boundary" inkscape:connector-curvature="0" />
	<path style="fill:none;stroke:red;stroke-width:1px;stroke-linecap:butt;stroke-linejoin:miter;stroke-opacity:1" d="M 324.44,4 358.529,4 z" id="boundary" inkscape:connector-curvature="0" />
	<path style="fill:none;stroke:red;stroke-width:1px;stroke-linecap:butt;stroke-linejoin:miter;stroke-opacity:1" d="M 235.808,600.564 269.897,600.564 z" id="boundary" inkscape:connector-curvature="0" />
	<path style="fill:none;stroke:red;stroke-width:1px;stroke-linecap:butt;stroke-linejoin:miter;stroke-opacity:1" d="M 259.67,852.825 293.759,852.825 z" id="boundary" inkscape:connector-curvature="0" />
	<path style="fill:none;stroke:red;stroke-width:1px;stroke-linecap:butt;stroke-linejoin:miter;stroke-opacity:1" d="M 232.399,457.388 266.488,457.388 z" id="boundary" inkscape:connector-curvature="0" />
	<path style="fill:none;stroke:red;stroke-width:1px;stroke-linecap:butt;stroke-linejoin:miter;stroke-opacity:1" d="M 269.897,781.237 303.986,781.237 z" id="boundary" inkscape:connector-curvature="0" />
	<path style="fill:none;stroke:red;stroke-width:1px;stroke-linecap:butt;stroke-linejoin:miter;stroke-opacity:1" d="M 276.715,678.969 242.625,678.969 z" id="boundary" inkscape:connector-curvature="0" />
	<path style="fill:none;stroke:red;stroke-width:1px;stroke-linecap:butt;stroke-linejoin:miter;stroke-opacity:1" d="M 252.852,569.883 286.942,569.883 z" id="boundary" inkscape:connector-curvature="0" />
	<path style="fill:none;stroke:red;stroke-width:1px;stroke-linecap:butt;stroke-linejoin:miter;stroke-opacity:1" d="M 259.67,709.649 293.759,709.649 z" id="boundary" inkscape:connector-curvature="0" />
	<path style="fill:none;stroke:red;stroke-width:1px;stroke-linecap:butt;stroke-linejoin:miter;stroke-opacity:1" d="M 269.897,600.564 303.986,600.564 z" id="boundary" inkscape:connector-curvature="0" />
	<path style="fill:none;stroke:red;stroke-width:1px;stroke-linecap:butt;stroke-linejoin:miter;stroke-opacity:1" d="M 293.759,852.825 327.849,852.825 z" id="boundary" inkscape:connector-curvature="0" />
	<path style="fill:none;stroke:red;stroke-width:1px;stroke-linecap:butt;stroke-linejoin:miter;stroke-opacity:1" d="M 266.488,457.388 300.577,457.388 z" id="boundary" inkscape:connector-curvature="0" />
	<path style="fill:none;stroke:red;stroke-width:1px;stroke-linecap:butt;stroke-linejoin:miter;stroke-opacity:1" d="M 303.986,781.237 338.076,781.237 z" id="boundary" inkscape:connector-curvature="0" />
	<path style="fill:none;stroke:red;stroke-width:1px;stroke-linecap:butt;stroke-linejoin:miter;stroke-opacity:1" d="M 310.804,678.969 276.715,678.969 z" id="boundary" inkscape:connector-curvature="0" />
	<path style="fill:none;stroke:red;stroke-width:1px;stroke-linecap:butt;stroke-linejoin:miter;stroke-opacity:1" d="M 293.759,709.649 327.849,709.649 z" id="boundary" inkscape:connector-curvature="0" />
	<path style="fill:none;stroke:red;stroke-width:1px;stroke-linecap:butt;stroke-linejoin:miter;stroke-opacity:1" d="M 358.529,4 392.619,4 z" id="boundary" inkscape:connector-curvature="0" />
	<path style="fill:none;stroke:red;stroke-width:1px;stroke-linecap:butt;stroke-linejoin:miter;stroke-opacity:1" d="M 358.529,627.835 338.076,600.564 z" id="boundary" inkscape:connector-curvature="0" />
	<path style="fill:none;stroke:red;stroke-width:1px;stroke-linecap:butt;stroke-linejoin:miter;stroke-opacity:1" d="M 338.076,600.564 303.986,600.564 z" id="boundary" inkscape:connector-curvature="0" />
	<path style="fill:none;stroke:red;stroke-width:1px;stroke-linecap:butt;stroke-linejoin:miter;stroke-opacity:1" d="M 321.031,569.883 286.942,569.883 z" id="boundary" inkscape:connector-curvature="0" />
	<path style="fill:none;stroke:red;stroke-width:1px;stroke-linecap:butt;stroke-linejoin:miter;stroke-opacity:1" d="M 327.849,852.825 361.938,852.825 z" id="boundary" inkscape:connector-curvature="0" />
	<path style="fill:none;stroke:red;stroke-width:1px;stroke-linecap:butt;stroke-linejoin:miter;stroke-opacity:1" d="M 300.577,457.388 334.667,457.388 z" id="boundary" inkscape:connector-curvature="0" />
	<path style="fill:none;stroke:red;stroke-width:1px;stroke-linecap:butt;stroke-linejoin:miter;stroke-opacity:1" d="M 334.667,457.388 358.529,484.66 z" id="boundary" inkscape:connector-curvature="0" />
	<path style="fill:none;stroke:red;stroke-width:1px;stroke-linecap:butt;stroke-linejoin:miter;stroke-opacity:1" d="M 338.076,781.237 358.529,726.694 z" id="boundary" inkscape:connector-curvature="0" />
	<path style="fill:none;stroke:red;stroke-width:1px;stroke-linecap:butt;stroke-linejoin:miter;stroke-opacity:1" d="M 358.529,518.749 358.529,484.66 z" id="boundary" inkscape:connector-curvature="0" />
	<path style="fill:none;stroke:red;stroke-width:1px;stroke-linecap:butt;stroke-linejoin:miter;stroke-opacity:1" d="M 344.893,678.969 358.529,627.835 z" id="boundary" inkscape:connector-curvature="0" />
	<path style="fill:none;stroke:red;stroke-width:1px;stroke-linecap:butt;stroke-linejoin:miter;stroke-opacity:1" d="M 344.893,678.969 310.804,678.969 z" id="boundary" inkscape:connector-curvature="0" />
	<path style="fill:none;stroke:red;stroke-width:1px;stroke-linecap:butt;stroke-linejoin:miter;stroke-opacity:1" d="M 327.849,709.649 358.529,726.694 z" id="boundary" inkscape:connector-curvature="0" />
	<path style="fill:none;stroke:red;stroke-width:1px;stroke-linecap:butt;stroke-linejoin:miter;stroke-opacity:1" d="M 321.031,569.883 355.12,566.474 z" id="boundary" inkscape:connector-curvature="0" />
	<path style="fill:none;stroke:red;stroke-width:1px;stroke-linecap:butt;stroke-linejoin:miter;stroke-opacity:1" d="M 361.938,852.825 396.027,852.825 z" id="boundary" inkscape:connector-curvature="0" />
	<path style="fill:none;stroke:red;stroke-width:1px;stroke-linecap:butt;stroke-linejoin:miter;stroke-opacity:1" d="M 396.027,852.825 430.117,852.825 z" id="boundary" inkscape:connector-curvature="0" />
	<path style="fill:none;stroke:red;stroke-width:1px;stroke-linecap:butt;stroke-linejoin:miter;stroke-opacity:1" d="M 355.12,566.474 358.529,518.749 z" id="boundary" inkscape:connector-curvature="0" />
	<path style="fill:none;stroke:red;stroke-width:1px;stroke-linecap:butt;stroke-linejoin:miter;stroke-opacity:1" d="M 426.708,4 392.619,4 z" id="boundary" inkscape:connector-curvature="0" />
	<path style="fill:none;stroke:red;stroke-width:1px;stroke-linecap:butt;stroke-linejoin:miter;stroke-opacity:1" d="M 426.708,4 460.797,4 z" id="boundary" inkscape:connector-curvature="0" />
	<path style="fill:none;stroke:red;stroke-width:1px;stroke-linecap:butt;stroke-linejoin:miter;stroke-opacity:1" d="M 552.838,460.797 552.838,494.887 z" id="boundary" inkscape:connector-curvature="0" />
	<path style="fill:none;stroke:red;stroke-width:1px;stroke-linecap:butt;stroke-linejoin:miter;stroke-opacity:1" d="M 552.838,494.887 552.838,528.976 z" id="boundary" inkscape:connector-curvature="0" />
	<path style="fill:none;stroke:red;stroke-width:1px;stroke-linecap:butt;stroke-linejoin:miter;stroke-opacity:1" d="M 430.117,852.825 464.206,852.825 z" id="boundary" inkscape:connector-curvature="0" />
	<path style="fill:none;stroke:red;stroke-width:1px;stroke-linecap:butt;stroke-linejoin:miter;stroke-opacity:1" d="M 494.887,4 460.797,4 z" id="boundary" inkscape:connector-curvature="0" />
	<path style="fill:none;stroke:red;stroke-width:1px;stroke-linecap:butt;stroke-linejoin:miter;stroke-opacity:1" d="M 464.206,852.825 498.296,852.825 z" id="boundary" inkscape:connector-curvature="0" />
	<path style="fill:none;stroke:red;stroke-width:1px;stroke-linecap:butt;stroke-linejoin:miter;stroke-opacity:1" d="M 528.976,4 494.887,4 z" id="boundary" inkscape:connector-curvature="0" />
	<path style="fill:none;stroke:red;stroke-width:1px;stroke-linecap:butt;stroke-linejoin:miter;stroke-opacity:1" d="M 498.296,852.825 532.385,852.825 z" id="boundary" inkscape:connector-curvature="0" />
	<path style="fill:none;stroke:red;stroke-width:1px;stroke-linecap:butt;stroke-linejoin:miter;stroke-opacity:1" d="M 532.385,852.825 566.474,852.825 z" id="boundary" inkscape:connector-curvature="0" />
	<path style="fill:none;stroke:red;stroke-width:1px;stroke-linecap:butt;stroke-linejoin:miter;stroke-opacity:1" d="M 552.838,638.062 552.838,603.973 z" id="boundary" inkscape:connector-curvature="0" />
	<path style="fill:none;stroke:red;stroke-width:1px;stroke-linecap:butt;stroke-linejoin:miter;stroke-opacity:1" d="M 552.838,528.976 552.838,563.065 z" id="boundary" inkscape:connector-curvature="0" />
	<path style="fill:none;stroke:red;stroke-width:1px;stroke-linecap:butt;stroke-linejoin:miter;stroke-opacity:1" d="M 566.474,852.825 600.564,852.825 z" id="boundary" inkscape:connector-curvature="0" />
	<path style="fill:none;stroke:red;stroke-width:1px;stroke-linecap:butt;stroke-linejoin:miter;stroke-opacity:1" d="M 586.928,457.388 552.838,460.797 z" id="boundary" inkscape:connector-curvature="0" />
	<path style="fill:none;stroke:red;stroke-width:1px;stroke-linecap:butt;stroke-linejoin:miter;stroke-opacity:1" d="M 552.838,638.062 552.838,672.151 z" id="boundary" inkscape:connector-curvature="0" />
	<path style="fill:none;stroke:red;stroke-width:1px;stroke-linecap:butt;stroke-linejoin:miter;stroke-opacity:1" d="M 621.017,457.388 586.928,457.388 z" id="boundary" inkscape:connector-curvature="0" />
	<path style="fill:none;stroke:red;stroke-width:1px;stroke-linecap:butt;stroke-linejoin:miter;stroke-opacity:1" d="M 552.838,713.058 552.838,747.148 z" id="boundary" inkscape:connector-curvature="0" />
	<path style="fill:none;stroke:red;stroke-width:1px;stroke-linecap:butt;stroke-linejoin:miter;stroke-opacity:1" d="M 586.928,569.883 552.838,563.065 z" id="boundary" inkscape:connector-curvature="0" />
	<path style="fill:none;stroke:red;stroke-width:1px;stroke-linecap:butt;stroke-linejoin:miter;stroke-opacity:1" d="M 556.247,781.237 552.838,747.148 z" id="boundary" inkscape:connector-curvature="0" />
	<path style="fill:none;stroke:red;stroke-width:1px;stroke-linecap:butt;stroke-linejoin:miter;stroke-opacity:1" d="M 563.065,4 528.976,4 z" id="boundary" inkscape:connector-curvature="0" />
	<path style="fill:none;stroke:red;stroke-width:1px;stroke-linecap:butt;stroke-linejoin:miter;stroke-opacity:1" d="M 552.838,672.151 586.928,678.969 z" id="boundary" inkscape:connector-curvature="0" />
	<path style="fill:none;stroke:red;stroke-width:1px;stroke-linecap:butt;stroke-linejoin:miter;stroke-opacity:1" d="M 600.564,852.825 634.653,852.825 z" id="boundary" inkscape:connector-curvature="0" />
	<path style="fill:none;stroke:red;stroke-width:1px;stroke-linecap:butt;stroke-linejoin:miter;stroke-opacity:1" d="M 556.247,781.237 590.337,781.237 z" id="boundary" inkscape:connector-curvature="0" />
	<path style="fill:none;stroke:red;stroke-width:1px;stroke-linecap:butt;stroke-linejoin:miter;stroke-opacity:1" d="M 597.155,4 563.065,4 z" id="boundary" inkscape:connector-curvature="0" />
	<path style="fill:none;stroke:red;stroke-width:1px;stroke-linecap:butt;stroke-linejoin:miter;stroke-opacity:1" d="M 586.928,678.969 621.017,678.969 z" id="boundary" inkscape:connector-curvature="0" />
	<path style="fill:none;stroke:red;stroke-width:1px;stroke-linecap:butt;stroke-linejoin:miter;stroke-opacity:1" d="M 638.062,600.564 603.973,600.564 z" id="boundary" inkscape:connector-curvature="0" />
	<path style="fill:none;stroke:red;stroke-width:1px;stroke-linecap:butt;stroke-linejoin:miter;stroke-opacity:1" d="M 638.062,709.649 603.973,709.649 z" id="boundary" inkscape:connector-curvature="0" />
	<path style="fill:none;stroke:red;stroke-width:1px;stroke-linecap:butt;stroke-linejoin:miter;stroke-opacity:1" d="M 621.017,569.883 586.928,569.883 z" id="boundary" inkscape:connector-curvature="0" />
	<path style="fill:none;stroke:red;stroke-width:1px;stroke-linecap:butt;stroke-linejoin:miter;stroke-opacity:1" d="M 634.653,852.825 668.742,852.825 z" id="boundary" inkscape:connector-curvature="0" />
	<path style="fill:none;stroke:red;stroke-width:1px;stroke-linecap:butt;stroke-linejoin:miter;stroke-opacity:1" d="M 590.337,781.237 624.426,781.237 z" id="boundary" inkscape:connector-curvature="0" />
	<path style="fill:none;stroke:red;stroke-width:1px;stroke-linecap:butt;stroke-linejoin:miter;stroke-opacity:1" d="M 621.017,457.388 655.107,457.388 z" id="boundary" inkscape:connector-curvature="0" />
	<path style="fill:none;stroke:red;stroke-width:1px;stroke-linecap:butt;stroke-linejoin:miter;stroke-opacity:1" d="M 665.333,4 631.244,4 z" id="boundary" inkscape:connector-curvature="0" />
	<path style="fill:none;stroke:red;stroke-width:1px;stroke-linecap:butt;stroke-linejoin:miter;stroke-opacity:1" d="M 631.244,4 597.155,4 z" id="boundary" inkscape:connector-curvature="0" />
	<path style="fill:none;stroke:red;stroke-width:1px;stroke-linecap:butt;stroke-linejoin:miter;stroke-opacity:1" d="M 621.017,678.969 655.107,678.969 z" id="boundary" inkscape:connector-curvature="0" />
	<path style="fill:none;stroke:red;stroke-width:1px;stroke-linecap:butt;stroke-linejoin:miter;stroke-opacity:1" d="M 672.151,600.564 638.062,600.564 z" id="boundary" inkscape:connector-curvature="0" />
	<path style="fill:none;stroke:red;stroke-width:1px;stroke-linecap:butt;stroke-linejoin:miter;stroke-opacity:1" d="M 672.151,709.649 638.062,709.649 z" id="boundary" inkscape:connector-curvature="0" />
	<path style="fill:none;stroke:red;stroke-width:1px;stroke-linecap:butt;stroke-linejoin:miter;stroke-opacity:1" d="M 655.107,569.883 621.017,569.883 z" id="boundary" inkscape:connector-curvature="0" />
	<path style="fill:none;stroke:red;stroke-width:1px;stroke-linecap:butt;stroke-linejoin:miter;stroke-opacity:1" d="M 668.742,852.825 702.832,852.825 z" id="boundary" inkscape:connector-curvature="0" />
	<path style="fill:none;stroke:red;stroke-width:1px;stroke-linecap:butt;stroke-linejoin:miter;stroke-opacity:1" d="M 839.189,116.495 839.189,150.584 z" id="boundary" inkscape:connector-curvature="0" />
	<path style="fill:none;stroke:red;stroke-width:1px;stroke-linecap:butt;stroke-linejoin:miter;stroke-opacity:1" d="M 624.426,781.237 658.515,781.237 z" id="boundary" inkscape:connector-curvature="0" />
	<path style="fill:none;stroke:red;stroke-width:1px;stroke-linecap:butt;stroke-linejoin:miter;stroke-opacity:1" d="M 655.107,457.388 689.196,457.388 z" id="boundary" inkscape:connector-curvature="0" />
	<path style="fill:none;stroke:red;stroke-width:1px;stroke-linecap:butt;stroke-linejoin:miter;stroke-opacity:1" d="M 699.423,4 665.333,4 z" id="boundary" inkscape:connector-curvature="0" />
	<path style="fill:none;stroke:red;stroke-width:1px;stroke-linecap:butt;stroke-linejoin:miter;stroke-opacity:1" d="M 655.107,678.969 689.196,678.969 z" id="boundary" inkscape:connector-curvature="0" />
	<path style="fill:none;stroke:red;stroke-width:1px;stroke-linecap:butt;stroke-linejoin:miter;stroke-opacity:1" d="M 706.241,600.564 672.151,600.564 z" id="boundary" inkscape:connector-curvature="0" />
	<path style="fill:none;stroke:red;stroke-width:1px;stroke-linecap:butt;stroke-linejoin:miter;stroke-opacity:1" d="M 706.241,709.649 672.151,709.649 z" id="boundary" inkscape:connector-curvature="0" />
	<path style="fill:none;stroke:red;stroke-width:1px;stroke-linecap:butt;stroke-linejoin:miter;stroke-opacity:1" d="M 689.196,569.883 655.107,569.883 z" id="boundary" inkscape:connector-curvature="0" />
	<path style="fill:none;stroke:red;stroke-width:1px;stroke-linecap:butt;stroke-linejoin:miter;stroke-opacity:1" d="M 702.832,852.825 736.921,852.825 z" id="boundary" inkscape:connector-curvature="0" />
	<path style="fill:none;stroke:red;stroke-width:1px;stroke-linecap:butt;stroke-linejoin:miter;stroke-opacity:1" d="M 839.189,82.4055 839.189,116.495 z" id="boundary" inkscape:connector-curvature="0" />
	<path style="fill:none;stroke:red;stroke-width:1px;stroke-linecap:butt;stroke-linejoin:miter;stroke-opacity:1" d="M 658.515,781.237 692.605,781.237 z" id="boundary" inkscape:connector-curvature="0" />
	<path style="fill:none;stroke:red;stroke-width:1px;stroke-linecap:butt;stroke-linejoin:miter;stroke-opacity:1" d="M 689.196,457.388 723.285,457.388 z" id="boundary" inkscape:connector-curvature="0" />
	<path style="fill:none;stroke:red;stroke-width:1px;stroke-linecap:butt;stroke-linejoin:miter;stroke-opacity:1" d="M 733.512,4 699.423,4 z" id="boundary" inkscape:connector-curvature="0" />
	<path style="fill:none;stroke:red;stroke-width:1px;stroke-linecap:butt;stroke-linejoin:miter;stroke-opacity:1" d="M 689.196,678.969 723.285,678.969 z" id="boundary" inkscape:connector-curvature="0" />
	<path style="fill:none;stroke:red;stroke-width:1px;stroke-linecap:butt;stroke-linejoin:miter;stroke-opacity:1" d="M 740.33,600.564 706.241,600.564 z" id="boundary" inkscape:connector-curvature="0" />
	<path style="fill:none;stroke:red;stroke-width:1px;stroke-linecap:butt;stroke-linejoin:miter;stroke-opacity:1" d="M 740.33,709.649 706.241,709.649 z" id="boundary" inkscape:connector-curvature="0" />
	<path style="fill:none;stroke:red;stroke-width:1px;stroke-linecap:butt;stroke-linejoin:miter;stroke-opacity:1" d="M 723.285,569.883 689.196,569.883 z" id="boundary" inkscape:connector-curvature="0" />
	<path style="fill:none;stroke:red;stroke-width:1px;stroke-linecap:butt;stroke-linejoin:miter;stroke-opacity:1" d="M 736.921,852.825 771.01,852.825 z" id="boundary" inkscape:connector-curvature="0" />
	<path style="fill:none;stroke:red;stroke-width:1px;stroke-linecap:butt;stroke-linejoin:miter;stroke-opacity:1" d="M 771.01,852.825 805.1,863.052 z" id="boundary" inkscape:connector-curvature="0" />
	<path style="fill:none;stroke:red;stroke-width:1px;stroke-linecap:butt;stroke-linejoin:miter;stroke-opacity:1" d="M 839.189,184.674 839.189,150.584 z" id="boundary" inkscape:connector-curvature="0" />
	<path style="fill:none;stroke:red;stroke-width:1px;stroke-linecap:butt;stroke-linejoin:miter;stroke-opacity:1" d="M 692.605,781.237 726.694,781.237 z" id="boundary" inkscape:connector-curvature="0" />
	<path style="fill:none;stroke:red;stroke-width:1px;stroke-linecap:butt;stroke-linejoin:miter;stroke-opacity:1" d="M 723.285,457.388 757.375,457.388 z" id="boundary" inkscape:connector-curvature="0" />
	<path style="fill:none;stroke:red;stroke-width:1px;stroke-linecap:butt;stroke-linejoin:miter;stroke-opacity:1" d="M 767.601,4 733.512,4 z" id="boundary" inkscape:connector-curvature="0" />
	<path style="fill:none;stroke:red;stroke-width:1px;stroke-linecap:butt;stroke-linejoin:miter;stroke-opacity:1" d="M 723.285,678.969 757.375,678.969 z" id="boundary" inkscape:connector-curvature="0" />
	<path style="fill:none;stroke:red;stroke-width:1px;stroke-linecap:butt;stroke-linejoin:miter;stroke-opacity:1" d="M 774.419,600.564 740.33,600.564 z" id="boundary" inkscape:connector-curvature="0" />
	<path style="fill:none;stroke:red;stroke-width:1px;stroke-linecap:butt;stroke-linejoin:miter;stroke-opacity:1" d="M 774.419,709.649 740.33,709.649 z" id="boundary" inkscape:connector-curvature="0" />
	<path style="fill:none;stroke:red;stroke-width:1px;stroke-linecap:butt;stroke-linejoin:miter;stroke-opacity:1" d="M 757.375,569.883 723.285,569.883 z" id="boundary" inkscape:connector-curvature="0" />
	<path style="fill:none;stroke:red;stroke-width:1px;stroke-linecap:butt;stroke-linejoin:miter;stroke-opacity:1" d="M 801.691,4 767.601,4 z" id="boundary" inkscape:connector-curvature="0" />
	<path style="fill:none;stroke:red;stroke-width:1px;stroke-linecap:butt;stroke-linejoin:miter;stroke-opacity:1" d="M 726.694,781.237 760.784,781.237 z" id="boundary" inkscape:connector-curvature="0" />
	<path style="fill:none;stroke:red;stroke-width:1px;stroke-linecap:butt;stroke-linejoin:miter;stroke-opacity:1" d="M 757.375,457.388 791.464,457.388 z" id="boundary" inkscape:connector-curvature="0" />
	<path style="fill:none;stroke:red;stroke-width:1px;stroke-linecap:butt;stroke-linejoin:miter;stroke-opacity:1" d="M 839.189,82.4055 839.189,48.3162 z" id="boundary" inkscape:connector-curvature="0" />
	<path style="fill:none;stroke:red;stroke-width:1px;stroke-linecap:butt;stroke-linejoin:miter;stroke-opacity:1" d="M 757.375,678.969 791.464,678.969 z" id="boundary" inkscape:connector-curvature="0" />
	<path style="fill:none;stroke:red;stroke-width:1px;stroke-linecap:butt;stroke-linejoin:miter;stroke-opacity:1" d="M 808.509,600.564 774.419,600.564 z" id="boundary" inkscape:connector-curvature="0" />
	<path style="fill:none;stroke:red;stroke-width:1px;stroke-linecap:butt;stroke-linejoin:miter;stroke-opacity:1" d="M 794.873,781.237 822.144,801.691 z" id="boundary" inkscape:connector-curvature="0" />
	<path style="fill:none;stroke:red;stroke-width:1px;stroke-linecap:butt;stroke-linejoin:miter;stroke-opacity:1" d="M 808.509,709.649 774.419,709.649 z" id="boundary" inkscape:connector-curvature="0" />
	<path style="fill:none;stroke:red;stroke-width:1px;stroke-linecap:butt;stroke-linejoin:miter;stroke-opacity:1" d="M 791.464,569.883 757.375,569.883 z" id="boundary" inkscape:connector-curvature="0" />
	<path style="fill:none;stroke:red;stroke-width:1px;stroke-linecap:butt;stroke-linejoin:miter;stroke-opacity:1" d="M 839.189,184.674 839.189,218.763 z" id="boundary" inkscape:connector-curvature="0" />
	<path style="fill:none;stroke:red;stroke-width:1px;stroke-linecap:butt;stroke-linejoin:miter;stroke-opacity:1" d="M 760.784,781.237 794.873,781.237 z" id="boundary" inkscape:connector-curvature="0" />
	<path style="fill:none;stroke:red;stroke-width:1px;stroke-linecap:butt;stroke-linejoin:miter;stroke-opacity:1" d="M 791.464,457.388 825.553,457.388 z" id="boundary" inkscape:connector-curvature="0" />
	<path style="fill:none;stroke:red;stroke-width:1px;stroke-linecap:butt;stroke-linejoin:miter;stroke-opacity:1" d="M 839.189,48.3162 835.78,14.2268 z" id="boundary" inkscape:connector-curvature="0" />
	<path style="fill:none;stroke:red;stroke-width:1px;stroke-linecap:butt;stroke-linejoin:miter;stroke-opacity:1" d="M 835.78,14.2268 801.691,4 z" id="boundary" inkscape:connector-curvature="0" />
	<path style="fill:none;stroke:red;stroke-width:1px;stroke-linecap:butt;stroke-linejoin:miter;stroke-opacity:1" d="M 791.464,678.969 825.553,678.969 z" id="boundary" inkscape:connector-curvature="0" />
	<path style="fill:none;stroke:red;stroke-width:1px;stroke-linecap:butt;stroke-linejoin:miter;stroke-opacity:1" d="M 839.189,852.825 805.1,863.052 z" id="boundary" inkscape:connector-curvature="0" />
	<path style="fill:none;stroke:red;stroke-width:1px;stroke-linecap:butt;stroke-linejoin:miter;stroke-opacity:1" d="M 839.189,389.21 839.189,355.12 z" id="boundary" inkscape:connector-curvature="0" />
	<path style="fill:none;stroke:red;stroke-width:1px;stroke-linecap:butt;stroke-linejoin:miter;stroke-opacity:1" d="M 842.598,709.649 808.509,709.649 z" id="boundary" inkscape:connector-curvature="0" />
	<path style="fill:none;stroke:red;stroke-width:1px;stroke-linecap:butt;stroke-linejoin:miter;stroke-opacity:1" d="M 825.553,569.883 791.464,569.883 z" id="boundary" inkscape:connector-curvature="0" />
	<path style="fill:none;stroke:red;stroke-width:1px;stroke-linecap:butt;stroke-linejoin:miter;stroke-opacity:1" d="M 842.598,600.564 808.509,600.564 z" id="boundary" inkscape:connector-curvature="0" />
	<path style="fill:none;stroke:red;stroke-width:1px;stroke-linecap:butt;stroke-linejoin:miter;stroke-opacity:1" d="M 839.189,852.825 873.278,852.825 z" id="boundary" inkscape:connector-curvature="0" />
	<path style="fill:none;stroke:red;stroke-width:1px;stroke-linecap:butt;stroke-linejoin:miter;stroke-opacity:1" d="M 839.189,252.852 839.189,218.763 z" id="boundary" inkscape:connector-curvature="0" />
	<path style="fill:none;stroke:red;stroke-width:1px;stroke-linecap:butt;stroke-linejoin:miter;stroke-opacity:1" d="M 839.189,286.942 839.189,252.852 z" id="boundary" inkscape:connector-curvature="0" />
	<path style="fill:none;stroke:red;stroke-width:1px;stroke-linecap:butt;stroke-linejoin:miter;stroke-opacity:1" d="M 873.278,852.825 907.368,852.825 z" id="boundary" inkscape:connector-curvature="0" />
	<path style="fill:none;stroke:red;stroke-width:1px;stroke-linecap:butt;stroke-linejoin:miter;stroke-opacity:1" d="M 907.368,852.825 941.457,866.46 z" id="boundary" inkscape:connector-curvature="0" />
	<path style="fill:none;stroke:red;stroke-width:1px;stroke-linecap:butt;stroke-linejoin:miter;stroke-opacity:1" d="M 839.189,286.942 839.189,321.031 z" id="boundary" inkscape:connector-curvature="0" />
	<path style="fill:none;stroke:red;stroke-width:1px;stroke-linecap:butt;stroke-linejoin:miter;stroke-opacity:1" d="M 839.189,355.12 839.189,321.031 z" id="boundary" inkscape:connector-curvature="0" />
	<path style="fill:none;stroke:red;stroke-width:1px;stroke-linecap:butt;stroke-linejoin:miter;stroke-opacity:1" d="M 839.189,423.299 839.189,389.21 z" id="boundary" inkscape:connector-curvature="0" />
	<path style="fill:none;stroke:red;stroke-width:1px;stroke-linecap:butt;stroke-linejoin:miter;stroke-opacity:1" d="M 825.553,457.388 839.189,423.299 z" id="boundary" inkscape:connector-curvature="0" />
	<path style="fill:none;stroke:red;stroke-width:1px;stroke-linecap:butt;stroke-linejoin:miter;stroke-opacity:1" d="M 859.643,569.883 825.553,569.883 z" id="boundary" inkscape:connector-curvature="0" />
	<path style="fill:none;stroke:red;stroke-width:1px;stroke-linecap:butt;stroke-linejoin:miter;stroke-opacity:1" d="M 825.553,678.969 859.643,678.969 z" id="boundary" inkscape:connector-curvature="0" />
	<path style="fill:none;stroke:red;stroke-width:1px;stroke-linecap:butt;stroke-linejoin:miter;stroke-opacity:1" d="M 822.144,801.691 849.416,781.237 z" id="boundary" inkscape:connector-curvature="0" />
	<path style="fill:none;stroke:red;stroke-width:1px;stroke-linecap:butt;stroke-linejoin:miter;stroke-opacity:1" d="M 849.416,781.237 876.687,801.691 z" id="boundary" inkscape:connector-curvature="0" />
	<path style="fill:none;stroke:red;stroke-width:1px;stroke-linecap:butt;stroke-linejoin:miter;stroke-opacity:1" d="M 876.687,600.564 842.598,600.564 z" id="boundary" inkscape:connector-curvature="0" />
	<path style="fill:none;stroke:red;stroke-width:1px;stroke-linecap:butt;stroke-linejoin:miter;stroke-opacity:1" d="M 910.777,709.649 876.687,709.649 z" id="boundary" inkscape:connector-curvature="0" />
	<path style="fill:none;stroke:red;stroke-width:1px;stroke-linecap:butt;stroke-linejoin:miter;stroke-opacity:1" d="M 842.598,709.649 876.687,709.649 z" id="boundary" inkscape:connector-curvature="0" />
	<path style="fill:none;stroke:red;stroke-width:1px;stroke-linecap:butt;stroke-linejoin:miter;stroke-opacity:1" d="M 859.643,569.883 893.732,569.883 z" id="boundary" inkscape:connector-curvature="0" />
	<path style="fill:none;stroke:red;stroke-width:1px;stroke-linecap:butt;stroke-linejoin:miter;stroke-opacity:1" d="M 859.643,678.969 893.732,678.969 z" id="boundary" inkscape:connector-curvature="0" />
	<path style="fill:none;stroke:red;stroke-width:1px;stroke-linecap:butt;stroke-linejoin:miter;stroke-opacity:1" d="M 876.687,600.564 910.777,600.564 z" id="boundary" inkscape:connector-curvature="0" />
	<path style="fill:none;stroke:red;stroke-width:1px;stroke-linecap:butt;stroke-linejoin:miter;stroke-opacity:1" d="M 876.687,801.691 903.959,781.237 z" id="boundary" inkscape:connector-curvature="0" />
	<path style="fill:none;stroke:red;stroke-width:1px;stroke-linecap:butt;stroke-linejoin:miter;stroke-opacity:1" d="M 893.732,678.969 927.821,678.969 z" id="boundary" inkscape:connector-curvature="0" />
	<path style="fill:none;stroke:red;stroke-width:1px;stroke-linecap:butt;stroke-linejoin:miter;stroke-opacity:1" d="M 893.732,569.883 927.821,569.883 z" id="boundary" inkscape:connector-curvature="0" />
	<path style="fill:none;stroke:red;stroke-width:1px;stroke-linecap:butt;stroke-linejoin:miter;stroke-opacity:1" d="M 955.093,699.423 927.821,678.969 z" id="boundary" inkscape:connector-curvature="0" />
	<path style="fill:none;stroke:red;stroke-width:1px;stroke-linecap:butt;stroke-linejoin:miter;stroke-opacity:1" d="M 944.866,600.564 910.777,600.564 z" id="boundary" inkscape:connector-curvature="0" />
	<path style="fill:none;stroke:red;stroke-width:1px;stroke-linecap:butt;stroke-linejoin:miter;stroke-opacity:1" d="M 903.959,781.237 938.048,781.237 z" id="boundary" inkscape:connector-curvature="0" />
	<path style="fill:none;stroke:red;stroke-width:1px;stroke-linecap:butt;stroke-linejoin:miter;stroke-opacity:1" d="M 938.048,781.237 972.137,781.237 z" id="boundary" inkscape:connector-curvature="0" />
	<path style="fill:none;stroke:red;stroke-width:1px;stroke-linecap:butt;stroke-linejoin:miter;stroke-opacity:1" d="M 975.546,852.825 941.457,866.46 z" id="boundary" inkscape:connector-curvature="0" />
	<path style="fill:none;stroke:red;stroke-width:1px;stroke-linecap:butt;stroke-linejoin:miter;stroke-opacity:1" d="M 972.137,781.237 996,808.509 z" id="boundary" inkscape:connector-curvature="0" />
	<path style="fill:none;stroke:red;stroke-width:1px;stroke-linecap:butt;stroke-linejoin:miter;stroke-opacity:1" d="M 996,808.509 975.546,852.825 z" id="boundary" inkscape:connector-curvature="0" />
	<circle cx="4" cy="788.055" r="4" fill="#0" id="circle0"/>
	<circle cx="4" cy="822.144" r="4" fill="#0" id="circle1"/>
	<circle cx="21.0447" cy="852.825" r="4" fill="#0" id="circle2"/>
	<circle cx="38.0893" cy="781.237" r="4" fill="#0" id="circle3"/>
	<circle cx="55.134" cy="852.825" r="4" fill="#0" id="circle4"/>
	<circle cx="65.3608" cy="801.691" r="4" fill="#0" id="circle5"/>
	<circle cx="89.2234" cy="852.825" r="4" fill="#0" id="circle6"/>
	<circle cx="92.6323" cy="781.237" r="4" fill="#0" id="circle7"/>
	<circle cx="106.268" cy="576.701" r="4" fill="#0" id="circle8"/>
	<circle cx="106.268" cy="678.969" r="4" fill="#0" id="circle9"/>
	<circle cx="119.904" cy="801.691" r="4" fill="#0" id="circle10"/>
	<circle cx="123.313" cy="709.649" r="4" fill="#0" id="circle11"/>
	<circle cx="123.313" cy="852.825" r="4" fill="#0" id="circle12"/>
	<circle cx="133.54" cy="600.564" r="4" fill="#0" id="circle13"/>
	<circle cx="140.357" cy="678.969" r="4" fill="#0" id="circle14"/>
	<circle cx="147.175" cy="781.237" r="4" fill="#0" id="circle15"/>
	<circle cx="150.584" cy="569.883" r="4" fill="#0" id="circle16"/>
	<circle cx="153.993" cy="10.8179" r="4" fill="#0" id="circle17"/>
	<circle cx="153.993" cy="44.9072" r="4" fill="#0" id="circle18"/>
	<circle cx="153.993" cy="78.9966" r="4" fill="#0" id="circle19"/>
	<circle cx="153.993" cy="113.086" r="4" fill="#0" id="circle20"/>
	<circle cx="153.993" cy="147.175" r="4" fill="#0" id="circle21"/>
	<circle cx="153.993" cy="181.265" r="4" fill="#0" id="circle22"/>
	<circle cx="153.993" cy="215.354" r="4" fill="#0" id="circle23"/>
	<circle cx="153.993" cy="249.443" r="4" fill="#0" id="circle24"/>
	<circle cx="153.993" cy="283.533" r="4" fill="#0" id="circle25"/>
	<circle cx="153.993" cy="317.622" r="4" fill="#0" id="circle26"/>
	<circle cx="153.993" cy="351.711" r="4" fill="#0" id="circle27"/>
	<circle cx="153.993" cy="385.801" r="4" fill="#0" id="circle28"/>
	<circle cx="153.993" cy="419.89" r="4" fill="#0" id="circle29"/>
	<circle cx="157.402" cy="709.649" r="4" fill="#0" id="circle30"/>
	<circle cx="157.402" cy="852.825" r="4" fill="#0" id="circle31"/>
	<circle cx="164.22" cy="453.979" r="4" fill="#0" id="circle32"/>
	<circle cx="167.629" cy="600.564" r="4" fill="#0" id="circle33"/>
	<circle cx="174.447" cy="678.969" r="4" fill="#0" id="circle34"/>
	<circle cx="174.447" cy="801.691" r="4" fill="#0" id="circle35"/>
	<circle cx="184.674" cy="569.883" r="4" fill="#0" id="circle36"/>
	<circle cx="188.082" cy="4" r="4" fill="#0" id="circle37"/>
	<circle cx="191.491" cy="709.649" r="4" fill="#0" id="circle38"/>
	<circle cx="191.491" cy="866.46" r="4" fill="#0" id="circle39"/>
	<circle cx="198.309" cy="457.388" r="4" fill="#0" id="circle40"/>
	<circle cx="201.718" cy="600.564" r="4" fill="#0" id="circle41"/>
	<circle cx="201.718" cy="781.237" r="4" fill="#0" id="circle42"/>
	<circle cx="208.536" cy="678.969" r="4" fill="#0" id="circle43"/>
	<circle cx="218.763" cy="569.883" r="4" fill="#0" id="circle44"/>
	<circle cx="222.172" cy="4" r="4" fill="#0" id="circle45"/>
	<circle cx="225.581" cy="709.649" r="4" fill="#0" id="circle46"/>
	<circle cx="225.581" cy="852.825" r="4" fill="#0" id="circle47"/>
	<circle cx="232.399" cy="457.388" r="4" fill="#0" id="circle48"/>
	<circle cx="235.808" cy="600.564" r="4" fill="#0" id="circle49"/>
	<circle cx="235.808" cy="781.237" r="4" fill="#0" id="circle50"/>
	<circle cx="242.625" cy="678.969" r="4" fill="#0" id="circle51"/>
	<circle cx="252.852" cy="569.883" r="4" fill="#0" id="circle52"/>
	<circle cx="256.261" cy="4" r="4" fill="#0" id="circle53"/>
	<circle cx="259.67" cy="709.649" r="4" fill="#0" id="circle54"/>
	<circle cx="259.67" cy="852.825" r="4" fill="#0" id="circle55"/>
	<circle cx="266.488" cy="457.388" r="4" fill="#0" id="circle56"/>
	<circle cx="269.897" cy="600.564" r="4" fill="#0" id="circle57"/>
	<circle cx="269.897" cy="781.237" r="4" fill="#0" id="circle58"/>
	<circle cx="276.715" cy="678.969" r="4" fill="#0" id="circle59"/>
	<circle cx="286.942" cy="569.883" r="4" fill="#0" id="circle60"/>
	<circle cx="290.351" cy="4" r="4" fill="#0" id="circle61"/>
	<circle cx="293.759" cy="709.649" r="4" fill="#0" id="circle62"/>
	<circle cx="293.759" cy="852.825" r="4" fill="#0" id="circle63"/>
	<circle cx="300.577" cy="457.388" r="4" fill="#0" id="circle64"/>
	<circle cx="303.986" cy="600.564" r="4" fill="#0" id="circle65"/>
	<circle cx="303.986" cy="781.237" r="4" fill="#0" id="circle66"/>
	<circle cx="310.804" cy="678.969" r="4" fill="#0" id="circle67"/>
	<circle cx="321.031" cy="569.883" r="4" fill="#0" id="circle68"/>
	<circle cx="324.44" cy="4" r="4" fill="#0" id="circle69"/>
	<circle cx="327.849" cy="709.649" r="4" fill="#0" id="circle70"/>
	<circle cx="327.849" cy="852.825" r="4" fill="#0" id="circle71"/>
	<circle cx="334.667" cy="457.388" r="4" fill="#0" id="circle72"/>
	<circle cx="338.076" cy="600.564" r="4" fill="#0" id="circle73"/>
	<circle cx="338.076" cy="781.237" r="4" fill="#0" id="circle74"/>
	<circle cx="344.893" cy="678.969" r="4" fill="#0" id="circle75"/>
	<circle cx="355.12" cy="566.474" r="4" fill="#0" id="circle76"/>
	<circle cx="358.529" cy="4" r="4" fill="#0" id="circle77"/>
	<circle cx="358.529" cy="484.66" r="4" fill="#0" id="circle78"/>
	<circle cx="358.529" cy="518.749" r="4" fill="#0" id="circle79"/>
	<circle cx="358.529" cy="627.835" r="4" fill="#0" id="circle80"/>
	<circle cx="358.529" cy="726.694" r="4" fill="#0" id="circle81"/>
	<circle cx="361.938" cy="852.825" r="4" fill="#0" id="circle82"/>
	<circle cx="392.619" cy="4" r="4" fill="#0" id="circle83"/>
	<circle cx="396.027" cy="852.825" r="4" fill="#0" id="circle84"/>
	<circle cx="426.708" cy="4" r="4" fill="#0" id="circle85"/>
	<circle cx="430.117" cy="852.825" r="4" fill="#0" id="circle86"/>
	<circle cx="460.797" cy="4" r="4" fill="#0" id="circle87"/>
	<circle cx="464.206" cy="852.825" r="4" fill="#0" id="circle88"/>
	<circle cx="494.887" cy="4" r="4" fill="#0" id="circle89"/>
	<circle cx="498.296" cy="852.825" r="4" fill="#0" id="circle90"/>
	<circle cx="528.976" cy="4" r="4" fill="#0" id="circle91"/>
	<circle cx="532.385" cy="852.825" r="4" fill="#0" id="circle92"/>
	<circle cx="552.838" cy="460.797" r="4" fill="#0" id="circle93"/>
	<circle cx="552.838" cy="494.887" r="4" fill="#0" id="circle94"/>
	<circle cx="552.838" cy="528.976" r="4" fill="#0" id="circle95"/>
	<circle cx="552.838" cy="563.065" r="4" fill="#0" id="circle96"/>
	<circle cx="552.838" cy="603.973" r="4" fill="#0" id="circle97"/>
	<circle cx="552.838" cy="638.062" r="4" fill="#0" id="circle98"/>
	<circle cx="552.838" cy="672.151" r="4" fill="#0" id="circle99"/>
	<circle cx="552.838" cy="713.058" r="4" fill="#0" id="circle100"/>
	<circle cx="552.838" cy="747.148" r="4" fill="#0" id="circle101"/>
	<circle cx="556.247" cy="781.237" r="4" fill="#0" id="circle102"/>
	<circle cx="563.065" cy="4" r="4" fill="#0" id="circle103"/>
	<circle cx="566.474" cy="852.825" r="4" fill="#0" id="circle104"/>
	<circle cx="586.928" cy="457.388" r="4" fill="#0" id="circle105"/>
	<circle cx="586.928" cy="569.883" r="4" fill="#0" id="circle106"/>
	<circle cx="586.928" cy="678.969" r="4" fill="#0" id="circle107"/>
	<circle cx="590.337" cy="781.237" r="4" fill="#0" id="circle108"/>
	<circle cx="597.155" cy="4" r="4" fill="#0" id="circle109"/>
	<circle cx="600.564" cy="852.825" r="4" fill="#0" id="circle110"/>
	<circle cx="603.973" cy="600.564" r="4" fill="#0" id="circle111"/>
	<circle cx="603.973" cy="709.649" r="4" fill="#0" id="circle112"/>
	<circle cx="621.017" cy="457.388" r="4" fill="#0" id="circle113"/>
	<circle cx="621.017" cy="569.883" r="4" fill="#0" id="circle114"/>
	<circle cx="621.017" cy="678.969" r="4" fill="#0" id="circle115"/>
	<circle cx="624.426" cy="781.237" r="4" fill="#0" id="circle116"/>
	<circle cx="631.244" cy="4" r="4" fill="#0" id="circle117"/>
	<circle cx="634.653" cy="852.825" r="4" fill="#0" id="circle118"/>
	<circle cx="638.062" cy="600.564" r="4" fill="#0" id="circle119"/>
	<circle cx="638.062" cy="709.649" r="4" fill="#0" id="circle120"/>
	<circle cx="655.107" cy="457.388" r="4" fill="#0" id="circle121"/>
	<circle cx="655.107" cy="569.883" r="4" fill="#0" id="circle122"/>
	<circle cx="655.107" cy="678.969" r="4" fill="#0" id="circle123"/>
	<circle cx="658.515" cy="781.237" r="4" fill="#0" id="circle124"/>
	<circle cx="665.333" cy="4" r="4" fill="#0" id="circle125"/>
	<circle cx="668.742" cy="852.825" r="4" fill="#0" id="circle126"/>
	<circle cx="672.151" cy="600.564" r="4" fill="#0" id="circle127"/>
	<circle cx="672.151" cy="709.649" r="4" fill="#0" id="circle128"/>
	<circle cx="689.196" cy="457.388" r="4" fill="#0" id="circle129"/>
	<circle cx="689.196" cy="569.883" r="4" fill="#0" id="circle130"/>
	<circle cx="689.196" cy="678.969" r="4" fill="#0" id="circle131"/>
	<circle cx="692.605" cy="781.237" r="4" fill="#0" id="circle132"/>
	<circle cx="699.423" cy="4" r="4" fill="#0" id="circle133"/>
	<circle cx="702.832" cy="852.825" r="4" fill="#0" id="circle134"/>
	<circle cx="706.241" cy="600.564" r="4" fill="#0" id="circle135"/>
	<circle cx="706.241" cy="709.649" r="4" fill="#0" id="circle136"/>
	<circle cx="723.285" cy="457.388" r="4" fill="#0" id="circle137"/>
	<circle cx="723.285" cy="569.883" r="4" fill="#0" id="circle138"/>
	<circle cx="723.285" cy="678.969" r="4" fill="#0" id="circle139"/>
	<circle cx="726.694" cy="781.237" r="4" fill="#0" id="circle140"/>
	<circle cx="733.512" cy="4" r="4" fill="#0" id="circle141"/>
	<circle cx="736.921" cy="852.825" r="4" fill="#0" id="circle142"/>
	<circle cx="740.33" cy="600.564" r="4" fill="#0" id="circle143"/>
	<circle cx="740.33" cy="709.649" r="4" fill="#0" id="circle144"/>
	<circle cx="757.375" cy="457.388" r="4" fill="#0" id="circle145"/>
	<circle cx="757.375" cy="569.883" r="4" fill="#0" id="circle146"/>
	<circle cx="757.375" cy="678.969" r="4" fill="#0" id="circle147"/>
	<circle cx="760.784" cy="781.237" r="4" fill="#0" id="circle148"/>
	<circle cx="767.601" cy="4" r="4" fill="#0" id="circle149"/>
	<circle cx="771.01" cy="852.825" r="4" fill="#0" id="circle150"/>
	<circle cx="774.419" cy="600.564" r="4" fill="#0" id="circle151"/>
	<circle cx="774.419" cy="709.649" r="4" fill="#0" id="circle152"/>
	<circle cx="791.464" cy="457.388" r="4" fill="#0" id="circle153"/>
	<circle cx="791.464" cy="569.883" r="4" fill="#0" id="circle154"/>
	<circle cx="791.464" cy="678.969" r="4" fill="#0" id="circle155"/>
	<circle cx="794.873" cy="781.237" r="4" fill="#0" id="circle156"/>
	<circle cx="801.691" cy="4" r="4" fill="#0" id="circle157"/>
	<circle cx="805.1" cy="863.052" r="4" fill="#0" id="circle158"/>
	<circle cx="808.509" cy="600.564" r="4" fill="#0" id="circle159"/>
	<circle cx="808.509" cy="709.649" r="4" fill="#0" id="circle160"/>
	<circle cx="822.144" cy="801.691" r="4" fill="#0" id="circle161"/>
	<circle cx="825.553" cy="457.388" r="4" fill="#0" id="circle162"/>
	<circle cx="825.553" cy="569.883" r="4" fill="#0" id="circle163"/>
	<circle cx="825.553" cy="678.969" r="4" fill="#0" id="circle164"/>
	<circle cx="835.78" cy="14.2268" r="4" fill="#0" id="circle165"/>
	<circle cx="839.189" cy="48.3162" r="4" fill="#0" id="circle166"/>
	<circle cx="839.189" cy="82.4055" r="4" fill="#0" id="circle167"/>
	<circle cx="839.189" cy="116.495" r="4" fill="#0" id="circle168"/>
	<circle cx="839.189" cy="150.584" r="4" fill="#0" id="circle169"/>
	<circle cx="839.189" cy="184.674" r="4" fill="#0" id="circle170"/>
	<circle cx="839.189" cy="218.763" r="4" fill="#0" id="circle171"/>
	<circle cx="839.189" cy="252.852" r="4" fill="#0" id="circle172"/>
	<circle cx="839.189" cy="286.942" r="4" fill="#0" id="circle173"/>
	<circle cx="839.189" cy="321.031" r="4" fill="#0" id="circle174"/>
	<circle cx="839.189" cy="355.12" r="4" fill="#0" id="circle175"/>
	<circle cx="839.189" cy="389.21" r="4" fill="#0" id="circle176"/>
	<circle cx="839.189" cy="423.299" r="4" fill="#0" id="circle177"/>
	<circle cx="839.189" cy="852.825" r="4" fill="#0" id="circle178"/>
	<circle cx="842.598" cy="600.564" r="4" fill="#0" id="circle179"/>
	<circle cx="842.598" cy="709.649" r="4" fill="#0" id="circle180"/>
	<circle cx="849.416" cy="781.237" r="4" fill="#0" id="circle181"/>
	<circle cx="859.643" cy="569.883" r="4" fill="#0" id="circle182"/>
	<circle cx="859.643" cy="678.969" r="4" fill="#0" id="circle183"/>
	<circle cx="873.278" cy="852.825" r="4" fill="#0" id="circle184"/>
	<circle cx="876.687" cy="600.564" r="4" fill="#0" id="circle185"/>
	<circle cx="876.687" cy="709.649" r="4" fill="#0" id="circle186"/>
	<circle cx="876.687" cy="801.691" r="4" fill="#0" id="circle187"/>
	<circle cx="893.732" cy="569.883" r="4" fill="#0" id="circle188"/>
	<circle cx="893.732" cy="678.969" r="4" fill="#0" id="circle189"/>
	<circle cx="903.959" cy="781.237" r="4" fill="#0" id="circle190"/>
	<circle cx="907.368" cy="852.825" r="4" fill="#0" id="circle191"/>
	<circle cx="910.777" cy="600.564" r="4" fill="#0" id="circle192"/>
	<circle cx="910.777" cy="709.649" r="4" fill="#0" id="circle193"/>
	<circle cx="927.821" cy="569.883" r="4" fill="#0" id="circle194"/>
	<circle cx="927.821" cy="678.969" r="4" fill="#0" id="circle195"/>
	<circle cx="938.048" cy="781.237" r="4" fill="#0" id="circle196"/>
	<circle cx="941.457" cy="866.46" r="4" fill="#0" id="circle197"/>
	<circle cx="944.866" cy="600.564" r="4" fill="#0" id="circle198"/>
	<circle cx="955.093" cy="699.423" r="4" fill="#0" id="circle199"/>
	<circle cx="972.137" cy="781.237" r="4" fill="#0" id="circle200"/>
	<circle cx="975.546" cy="852.825" r="4" fill="#0" id="circle201"/>
	<circle cx="996" cy="808.509" r="4" fill="#0" id="circle202"/>
	</g>
</svg>