<?xml version="1.0" encoding="UTF-8" standalone="no"?>
<!-- Created with CurveBenchmark -->
<svg
	xmlns:dc="http://purl.org/dc/elements/1.1/"
	xmlns:cc="http://creativecommons.org/ns#"
	xmlns:rdf="http://www.w3.org/1999/02/22-rdf-syntax-ns#"
	xmlns:svg="http://www.w3.org/2000/svg"
	xmlns="http://www.w3.org/2000/svg"
	xmlns:sodipodi="http://sodipodi.sourceforge.net/DTD/sodipodi-0.dtd"
	xmlns:inkscape="http://www.inkscape.org/namespaces/inkscape"
	width="1000"
	height="1000"
	id="svg2"
	version="1.1"
	sodipodi:docname="manifold/peel-hammer320.png.txt">
<defs
	id="defs4" />
<metadata
	id="metadata7">
	<rdf:RDF>
		<cc:Work
			rdf:about="">
			<dc:format>image/svg+xml</dc:format>
			<dc:type
				rdf:resource="http://purl.org/dc/dcmitype/StillImage" />
			<dc:title></dc:title>
		</cc:Work>
	</rdf:RDF>
</metadata>
<g
	inkscape:label="Layer 1"
	inkscape:groupmode="layer"
	id="layer1">
	<path style="fill:none;stroke:red;stroke-width:1px;stroke-linecap:butt;stroke-linejoin:miter;stroke-opacity:1" d="M 15.5014,130.516 27.0029,101.762 z" id="boundary" inkscape:connector-curvature="0" />
	<path style="fill:none;stroke:red;stroke-width:1px;stroke-linecap:butt;stroke-linejoin:miter;stroke-opacity:1" d="M 153.519,340.417 153.519,369.171 z" id="boundary" inkscape:connector-curvature="0" />
	<path style="fill:none;stroke:red;stroke-width:1px;stroke-linecap:butt;stroke-linejoin:miter;stroke-opacity:1" d="M 32.7536,179.397 4,170.771 z" id="boundary" inkscape:connector-curvature="0" />
	<path style="fill:none;stroke:red;stroke-width:1px;stroke-linecap:butt;stroke-linejoin:miter;stroke-opacity:1" d="M 4,170.771 15.5014,130.516 z" id="boundary" inkscape:connector-curvature="0" />
	<path style="fill:none;stroke:red;stroke-width:1px;stroke-linecap:butt;stroke-linejoin:miter;stroke-opacity:1" d="M 44.2551,73.0087 27.0029,101.762 z" id="boundary" inkscape:connector-curvature="0" />
	<path style="fill:none;stroke:red;stroke-width:1px;stroke-linecap:butt;stroke-linejoin:miter;stroke-opacity:1" d="M 61.5072,50.0058 44.2551,73.0087 z" id="boundary" inkscape:connector-curvature="0" />
	<path style="fill:none;stroke:red;stroke-width:1px;stroke-linecap:butt;stroke-linejoin:miter;stroke-opacity:1" d="M 61.5072,179.397 32.7536,179.397 z" id="boundary" inkscape:connector-curvature="0" />
	<path style="fill:none;stroke:red;stroke-width:1px;stroke-linecap:butt;stroke-linejoin:miter;stroke-opacity:1" d="M 84.5101,27.0029 61.5072,50.0058 z" id="boundary" inkscape:connector-curvature="0" />
	<path style="fill:none;stroke:red;stroke-width:1px;stroke-linecap:butt;stroke-linejoin:miter;stroke-opacity:1" d="M 147.768,225.403 147.768,254.157 z" id="boundary" inkscape:connector-curvature="0" />
	<path style="fill:none;stroke:red;stroke-width:1px;stroke-linecap:butt;stroke-linejoin:miter;stroke-opacity:1" d="M 84.5101,156.394 61.5072,179.397 z" id="boundary" inkscape:connector-curvature="0" />
	<path style="fill:none;stroke:red;stroke-width:1px;stroke-linecap:butt;stroke-linejoin:miter;stroke-opacity:1" d="M 98.887,124.765 84.5101,156.394 z" id="boundary" inkscape:connector-curvature="0" />
	<path style="fill:none;stroke:red;stroke-width:1px;stroke-linecap:butt;stroke-linejoin:miter;stroke-opacity:1" d="M 124.765,139.142 136.267,167.896 z" id="boundary" inkscape:connector-curvature="0" />
	<path style="fill:none;stroke:red;stroke-width:1px;stroke-linecap:butt;stroke-linejoin:miter;stroke-opacity:1" d="M 107.513,9.75072 84.5101,27.0029 z" id="boundary" inkscape:connector-curvature="0" />
	<path style="fill:none;stroke:red;stroke-width:1px;stroke-linecap:butt;stroke-linejoin:miter;stroke-opacity:1" d="M 124.765,139.142 98.887,124.765 z" id="boundary" inkscape:connector-curvature="0" />
	<path style="fill:none;stroke:red;stroke-width:1px;stroke-linecap:butt;stroke-linejoin:miter;stroke-opacity:1" d="M 136.267,4 107.513,9.75072 z" id="boundary" inkscape:connector-curvature="0" />
	<path style="fill:none;stroke:red;stroke-width:1px;stroke-linecap:butt;stroke-linejoin:miter;stroke-opacity:1" d="M 136.267,167.896 142.017,196.649 z" id="boundary" inkscape:connector-curvature="0" />
	<path style="fill:none;stroke:red;stroke-width:1px;stroke-linecap:butt;stroke-linejoin:miter;stroke-opacity:1" d="M 119.014,981.623 119.014,952.87 z" id="boundary" inkscape:connector-curvature="0" />
	<path style="fill:none;stroke:red;stroke-width:1px;stroke-linecap:butt;stroke-linejoin:miter;stroke-opacity:1" d="M 124.765,510.064 124.765,538.817 z" id="boundary" inkscape:connector-curvature="0" />
	<path style="fill:none;stroke:red;stroke-width:1px;stroke-linecap:butt;stroke-linejoin:miter;stroke-opacity:1" d="M 124.765,538.817 124.765,567.571 z" id="boundary" inkscape:connector-curvature="0" />
	<path style="fill:none;stroke:red;stroke-width:1px;stroke-linecap:butt;stroke-linejoin:miter;stroke-opacity:1" d="M 136.267,4 165.02,4 z" id="boundary" inkscape:connector-curvature="0" />
	<path style="fill:none;stroke:red;stroke-width:1px;stroke-linecap:butt;stroke-linejoin:miter;stroke-opacity:1" d="M 124.765,567.571 124.765,596.325 z" id="boundary" inkscape:connector-curvature="0" />
	<path style="fill:none;stroke:red;stroke-width:1px;stroke-linecap:butt;stroke-linejoin:miter;stroke-opacity:1" d="M 130.516,469.809 124.765,510.064 z" id="boundary" inkscape:connector-curvature="0" />
	<path style="fill:none;stroke:red;stroke-width:1px;stroke-linecap:butt;stroke-linejoin:miter;stroke-opacity:1" d="M 124.765,596.325 124.765,625.078 z" id="boundary" inkscape:connector-curvature="0" />
	<path style="fill:none;stroke:red;stroke-width:1px;stroke-linecap:butt;stroke-linejoin:miter;stroke-opacity:1" d="M 153.519,397.925 142.017,441.055 z" id="boundary" inkscape:connector-curvature="0" />
	<path style="fill:none;stroke:red;stroke-width:1px;stroke-linecap:butt;stroke-linejoin:miter;stroke-opacity:1" d="M 124.765,625.078 124.765,653.832 z" id="boundary" inkscape:connector-curvature="0" />
	<path style="fill:none;stroke:red;stroke-width:1px;stroke-linecap:butt;stroke-linejoin:miter;stroke-opacity:1" d="M 231.154,395.049 231.154,423.803 z" id="boundary" inkscape:connector-curvature="0" />
	<path style="fill:none;stroke:red;stroke-width:1px;stroke-linecap:butt;stroke-linejoin:miter;stroke-opacity:1" d="M 124.765,653.832 124.765,682.586 z" id="boundary" inkscape:connector-curvature="0" />
	<path style="fill:none;stroke:red;stroke-width:1px;stroke-linecap:butt;stroke-linejoin:miter;stroke-opacity:1" d="M 231.154,395.049 231.154,366.296 z" id="boundary" inkscape:connector-curvature="0" />
	<path style="fill:none;stroke:red;stroke-width:1px;stroke-linecap:butt;stroke-linejoin:miter;stroke-opacity:1" d="M 124.765,682.586 124.765,711.339 z" id="boundary" inkscape:connector-curvature="0" />
	<path style="fill:none;stroke:red;stroke-width:1px;stroke-linecap:butt;stroke-linejoin:miter;stroke-opacity:1" d="M 231.154,337.542 231.154,366.296 z" id="boundary" inkscape:connector-curvature="0" />
	<path style="fill:none;stroke:red;stroke-width:1px;stroke-linecap:butt;stroke-linejoin:miter;stroke-opacity:1" d="M 124.765,711.339 124.765,740.093 z" id="boundary" inkscape:connector-curvature="0" />
	<path style="fill:none;stroke:red;stroke-width:1px;stroke-linecap:butt;stroke-linejoin:miter;stroke-opacity:1" d="M 153.519,311.664 153.519,340.417 z" id="boundary" inkscape:connector-curvature="0" />
	<path style="fill:none;stroke:red;stroke-width:1px;stroke-linecap:butt;stroke-linejoin:miter;stroke-opacity:1" d="M 124.765,740.093 124.765,768.846 z" id="boundary" inkscape:connector-curvature="0" />
	<path style="fill:none;stroke:red;stroke-width:1px;stroke-linecap:butt;stroke-linejoin:miter;stroke-opacity:1" d="M 231.154,308.788 231.154,337.542 z" id="boundary" inkscape:connector-curvature="0" />
	<path style="fill:none;stroke:red;stroke-width:1px;stroke-linecap:butt;stroke-linejoin:miter;stroke-opacity:1" d="M 124.765,768.846 124.765,797.6 z" id="boundary" inkscape:connector-curvature="0" />
	<path style="fill:none;stroke:red;stroke-width:1px;stroke-linecap:butt;stroke-linejoin:miter;stroke-opacity:1" d="M 153.519,369.171 153.519,397.925 z" id="boundary" inkscape:connector-curvature="0" />
	<path style="fill:none;stroke:red;stroke-width:1px;stroke-linecap:butt;stroke-linejoin:miter;stroke-opacity:1" d="M 124.765,797.6 124.765,826.354 z" id="boundary" inkscape:connector-curvature="0" />
	<path style="fill:none;stroke:red;stroke-width:1px;stroke-linecap:butt;stroke-linejoin:miter;stroke-opacity:1" d="M 239.78,452.557 231.154,423.803 z" id="boundary" inkscape:connector-curvature="0" />
	<path style="fill:none;stroke:red;stroke-width:1px;stroke-linecap:butt;stroke-linejoin:miter;stroke-opacity:1" d="M 124.765,826.354 124.765,855.107 z" id="boundary" inkscape:connector-curvature="0" />
	<path style="fill:none;stroke:red;stroke-width:1px;stroke-linecap:butt;stroke-linejoin:miter;stroke-opacity:1" d="M 254.157,593.449 254.157,564.696 z" id="boundary" inkscape:connector-curvature="0" />
	<path style="fill:none;stroke:red;stroke-width:1px;stroke-linecap:butt;stroke-linejoin:miter;stroke-opacity:1" d="M 124.765,855.107 124.765,883.861 z" id="boundary" inkscape:connector-curvature="0" />
	<path style="fill:none;stroke:red;stroke-width:1px;stroke-linecap:butt;stroke-linejoin:miter;stroke-opacity:1" d="M 254.157,622.203 254.157,650.957 z" id="boundary" inkscape:connector-curvature="0" />
	<path style="fill:none;stroke:red;stroke-width:1px;stroke-linecap:butt;stroke-linejoin:miter;stroke-opacity:1" d="M 124.765,883.861 124.765,912.614 z" id="boundary" inkscape:connector-curvature="0" />
	<path style="fill:none;stroke:red;stroke-width:1px;stroke-linecap:butt;stroke-linejoin:miter;stroke-opacity:1" d="M 124.765,912.614 119.014,952.87 z" id="boundary" inkscape:connector-curvature="0" />
	<path style="fill:none;stroke:red;stroke-width:1px;stroke-linecap:butt;stroke-linejoin:miter;stroke-opacity:1" d="M 254.157,708.464 254.157,737.217 z" id="boundary" inkscape:connector-curvature="0" />
	<path style="fill:none;stroke:red;stroke-width:1px;stroke-linecap:butt;stroke-linejoin:miter;stroke-opacity:1" d="M 144.893,996 119.014,981.623 z" id="boundary" inkscape:connector-curvature="0" />
	<path style="fill:none;stroke:red;stroke-width:1px;stroke-linecap:butt;stroke-linejoin:miter;stroke-opacity:1" d="M 142.017,441.055 130.516,469.809 z" id="boundary" inkscape:connector-curvature="0" />
	<path style="fill:none;stroke:red;stroke-width:1px;stroke-linecap:butt;stroke-linejoin:miter;stroke-opacity:1" d="M 142.017,196.649 147.768,225.403 z" id="boundary" inkscape:connector-curvature="0" />
	<path style="fill:none;stroke:red;stroke-width:1px;stroke-linecap:butt;stroke-linejoin:miter;stroke-opacity:1" d="M 165.02,4 193.774,4 z" id="boundary" inkscape:connector-curvature="0" />
	<path style="fill:none;stroke:red;stroke-width:1px;stroke-linecap:butt;stroke-linejoin:miter;stroke-opacity:1" d="M 254.157,852.232 254.157,880.986 z" id="boundary" inkscape:connector-curvature="0" />
	<path style="fill:none;stroke:red;stroke-width:1px;stroke-linecap:butt;stroke-linejoin:miter;stroke-opacity:1" d="M 147.768,254.157 153.519,282.91 z" id="boundary" inkscape:connector-curvature="0" />
	<path style="fill:none;stroke:red;stroke-width:1px;stroke-linecap:butt;stroke-linejoin:miter;stroke-opacity:1" d="M 222.528,4 193.774,4 z" id="boundary" inkscape:connector-curvature="0" />
	<path style="fill:none;stroke:red;stroke-width:1px;stroke-linecap:butt;stroke-linejoin:miter;stroke-opacity:1" d="M 153.519,282.91 153.519,311.664 z" id="boundary" inkscape:connector-curvature="0" />
	<path style="fill:none;stroke:red;stroke-width:1px;stroke-linecap:butt;stroke-linejoin:miter;stroke-opacity:1" d="M 231.154,222.528 231.154,251.281 z" id="boundary" inkscape:connector-curvature="0" />
	<path style="fill:none;stroke:red;stroke-width:1px;stroke-linecap:butt;stroke-linejoin:miter;stroke-opacity:1" d="M 231.154,280.035 231.154,251.281 z" id="boundary" inkscape:connector-curvature="0" />
	<path style="fill:none;stroke:red;stroke-width:1px;stroke-linecap:butt;stroke-linejoin:miter;stroke-opacity:1" d="M 173.646,996 144.893,996 z" id="boundary" inkscape:connector-curvature="0" />
	<path style="fill:none;stroke:red;stroke-width:1px;stroke-linecap:butt;stroke-linejoin:miter;stroke-opacity:1" d="M 231.154,280.035 231.154,308.788 z" id="boundary" inkscape:connector-curvature="0" />
	<path style="fill:none;stroke:red;stroke-width:1px;stroke-linecap:butt;stroke-linejoin:miter;stroke-opacity:1" d="M 202.4,996 173.646,996 z" id="boundary" inkscape:connector-curvature="0" />
	<path style="fill:none;stroke:red;stroke-width:1px;stroke-linecap:butt;stroke-linejoin:miter;stroke-opacity:1" d="M 251.281,4 222.528,4 z" id="boundary" inkscape:connector-curvature="0" />
	<path style="fill:none;stroke:red;stroke-width:1px;stroke-linecap:butt;stroke-linejoin:miter;stroke-opacity:1" d="M 231.154,222.528 236.904,193.774 z" id="boundary" inkscape:connector-curvature="0" />
	<path style="fill:none;stroke:red;stroke-width:1px;stroke-linecap:butt;stroke-linejoin:miter;stroke-opacity:1" d="M 239.78,452.557 254.157,478.435 z" id="boundary" inkscape:connector-curvature="0" />
	<path style="fill:none;stroke:red;stroke-width:1px;stroke-linecap:butt;stroke-linejoin:miter;stroke-opacity:1" d="M 254.157,478.435 254.157,507.188 z" id="boundary" inkscape:connector-curvature="0" />
	<path style="fill:none;stroke:red;stroke-width:1px;stroke-linecap:butt;stroke-linejoin:miter;stroke-opacity:1" d="M 305.913,93.1362 334.667,90.2609 z" id="boundary" inkscape:connector-curvature="0" />
	<path style="fill:none;stroke:red;stroke-width:1px;stroke-linecap:butt;stroke-linejoin:miter;stroke-opacity:1" d="M 254.157,507.188 254.157,535.942 z" id="boundary" inkscape:connector-curvature="0" />
	<path style="fill:none;stroke:red;stroke-width:1px;stroke-linecap:butt;stroke-linejoin:miter;stroke-opacity:1" d="M 248.406,159.27 236.904,193.774 z" id="boundary" inkscape:connector-curvature="0" />
	<path style="fill:none;stroke:red;stroke-width:1px;stroke-linecap:butt;stroke-linejoin:miter;stroke-opacity:1" d="M 254.157,535.942 254.157,564.696 z" id="boundary" inkscape:connector-curvature="0" />
	<path style="fill:none;stroke:red;stroke-width:1px;stroke-linecap:butt;stroke-linejoin:miter;stroke-opacity:1" d="M 259.907,124.765 259.907,96.0116 z" id="boundary" inkscape:connector-curvature="0" />
	<path style="fill:none;stroke:red;stroke-width:1px;stroke-linecap:butt;stroke-linejoin:miter;stroke-opacity:1" d="M 248.406,159.27 259.907,124.765 z" id="boundary" inkscape:connector-curvature="0" />
	<path style="fill:none;stroke:red;stroke-width:1px;stroke-linecap:butt;stroke-linejoin:miter;stroke-opacity:1" d="M 254.157,622.203 254.157,593.449 z" id="boundary" inkscape:connector-curvature="0" />
	<path style="fill:none;stroke:red;stroke-width:1px;stroke-linecap:butt;stroke-linejoin:miter;stroke-opacity:1" d="M 254.157,650.957 254.157,679.71 z" id="boundary" inkscape:connector-curvature="0" />
	<path style="fill:none;stroke:red;stroke-width:1px;stroke-linecap:butt;stroke-linejoin:miter;stroke-opacity:1" d="M 254.157,679.71 254.157,708.464 z" id="boundary" inkscape:connector-curvature="0" />
	<path style="fill:none;stroke:red;stroke-width:1px;stroke-linecap:butt;stroke-linejoin:miter;stroke-opacity:1" d="M 259.907,96.0116 282.91,75.8841 z" id="boundary" inkscape:connector-curvature="0" />
	<path style="fill:none;stroke:red;stroke-width:1px;stroke-linecap:butt;stroke-linejoin:miter;stroke-opacity:1" d="M 282.91,75.8841 305.913,93.1362 z" id="boundary" inkscape:connector-curvature="0" />
	<path style="fill:none;stroke:red;stroke-width:1px;stroke-linecap:butt;stroke-linejoin:miter;stroke-opacity:1" d="M 254.157,737.217 254.157,765.971 z" id="boundary" inkscape:connector-curvature="0" />
	<path style="fill:none;stroke:red;stroke-width:1px;stroke-linecap:butt;stroke-linejoin:miter;stroke-opacity:1" d="M 254.157,765.971 254.157,794.725 z" id="boundary" inkscape:connector-curvature="0" />
	<path style="fill:none;stroke:red;stroke-width:1px;stroke-linecap:butt;stroke-linejoin:miter;stroke-opacity:1" d="M 334.667,90.2609 351.919,67.258 z" id="boundary" inkscape:connector-curvature="0" />
	<path style="fill:none;stroke:red;stroke-width:1px;stroke-linecap:butt;stroke-linejoin:miter;stroke-opacity:1" d="M 254.157,823.478 254.157,794.725 z" id="boundary" inkscape:connector-curvature="0" />
	<path style="fill:none;stroke:red;stroke-width:1px;stroke-linecap:butt;stroke-linejoin:miter;stroke-opacity:1" d="M 254.157,852.232 254.157,823.478 z" id="boundary" inkscape:connector-curvature="0" />
	<path style="fill:none;stroke:red;stroke-width:1px;stroke-linecap:butt;stroke-linejoin:miter;stroke-opacity:1" d="M 254.157,880.986 259.907,909.739 z" id="boundary" inkscape:connector-curvature="0" />
	<path style="fill:none;stroke:red;stroke-width:1px;stroke-linecap:butt;stroke-linejoin:miter;stroke-opacity:1" d="M 259.907,909.739 259.907,938.493 z" id="boundary" inkscape:connector-curvature="0" />
	<path style="fill:none;stroke:red;stroke-width:1px;stroke-linecap:butt;stroke-linejoin:miter;stroke-opacity:1" d="M 251.281,4 280.035,15.5014 z" id="boundary" inkscape:connector-curvature="0" />
	<path style="fill:none;stroke:red;stroke-width:1px;stroke-linecap:butt;stroke-linejoin:miter;stroke-opacity:1" d="M 231.154,996 202.4,996 z" id="boundary" inkscape:connector-curvature="0" />
	<path style="fill:none;stroke:red;stroke-width:1px;stroke-linecap:butt;stroke-linejoin:miter;stroke-opacity:1" d="M 259.907,967.246 259.907,938.493 z" id="boundary" inkscape:connector-curvature="0" />
	<path style="fill:none;stroke:red;stroke-width:1px;stroke-linecap:butt;stroke-linejoin:miter;stroke-opacity:1" d="M 259.907,996 231.154,996 z" id="boundary" inkscape:connector-curvature="0" />
	<path style="fill:none;stroke:red;stroke-width:1px;stroke-linecap:butt;stroke-linejoin:miter;stroke-opacity:1" d="M 259.907,996 259.907,967.246 z" id="boundary" inkscape:connector-curvature="0" />
	<path style="fill:none;stroke:red;stroke-width:1px;stroke-linecap:butt;stroke-linejoin:miter;stroke-opacity:1" d="M 308.788,4 280.035,15.5014 z" id="boundary" inkscape:connector-curvature="0" />
	<path style="fill:none;stroke:red;stroke-width:1px;stroke-linecap:butt;stroke-linejoin:miter;stroke-opacity:1" d="M 337.542,4 351.919,29.8783 z" id="boundary" inkscape:connector-curvature="0" />
	<path style="fill:none;stroke:red;stroke-width:1px;stroke-linecap:butt;stroke-linejoin:miter;stroke-opacity:1" d="M 337.542,4 308.788,4 z" id="boundary" inkscape:connector-curvature="0" />
	<path style="fill:none;stroke:red;stroke-width:1px;stroke-linecap:butt;stroke-linejoin:miter;stroke-opacity:1" d="M 351.919,29.8783 351.919,67.258 z" id="boundary" inkscape:connector-curvature="0" />
	<circle cx="4" cy="170.771" r="4" fill="#0" id="circle0"/>
	<circle cx="15.5014" cy="130.516" r="4" fill="#0" id="circle1"/>
	<circle cx="27.0029" cy="101.762" r="4" fill="#0" id="circle2"/>
	<circle cx="32.7536" cy="179.397" r="4" fill="#0" id="circle3"/>
	<circle cx="44.2551" cy="73.0087" r="4" fill="#0" id="circle4"/>
	<circle cx="61.5072" cy="50.0058" r="4" fill="#0" id="circle5"/>
	<circle cx="61.5072" cy="179.397" r="4" fill="#0" id="circle6"/>
	<circle cx="84.5101" cy="27.0029" r="4" fill="#0" id="circle7"/>
	<circle cx="84.5101" cy="156.394" r="4" fill="#0" id="circle8"/>
	<circle cx="98.887" cy="124.765" r="4" fill="#0" id="circle9"/>
	<circle cx="107.513" cy="9.75072" r="4" fill="#0" id="circle10"/>
	<circle cx="119.014" cy="952.87" r="4" fill="#0" id="circle11"/>
	<circle cx="119.014" cy="981.623" r="4" fill="#0" id="circle12"/>
	<circle cx="124.765" cy="139.142" r="4" fill="#0" id="circle13"/>
	<circle cx="124.765" cy="510.064" r="4" fill="#0" id="circle14"/>
	<circle cx="124.765" cy="538.817" r="4" fill="#0" id="circle15"/>
	<circle cx="124.765" cy="567.571" r="4" fill="#0" id="circle16"/>
	<circle cx="124.765" cy="596.325" r="4" fill="#0" id="circle17"/>
	<circle cx="124.765" cy="625.078" r="4" fill="#0" id="circle18"/>
	<circle cx="124.765" cy="653.832" r="4" fill="#0" id="circle19"/>
	<circle cx="124.765" cy="682.586" r="4" fill="#0" id="circle20"/>
	<circle cx="124.765" cy="711.339" r="4" fill="#0" id="circle21"/>
	<circle cx="124.765" cy="740.093" r="4" fill="#0" id="circle22"/>
	<circle cx="124.765" cy="768.846" r="4" fill="#0" id="circle23"/>
	<circle cx="124.765" cy="797.6" r="4" fill="#0" id="circle24"/>
	<circle cx="124.765" cy="826.354" r="4" fill="#0" id="circle25"/>
	<circle cx="124.765" cy="855.107" r="4" fill="#0" id="circle26"/>
	<circle cx="124.765" cy="883.861" r="4" fill="#0" id="circle27"/>
	<circle cx="124.765" cy="912.614" r="4" fill="#0" id="circle28"/>
	<circle cx="130.516" cy="469.809" r="4" fill="#0" id="circle29"/>
	<circle cx="136.267" cy="4" r="4" fill="#0" id="circle30"/>
	<circle cx="136.267" cy="167.896" r="4" fill="#0" id="circle31"/>
	<circle cx="142.017" cy="196.649" r="4" fill="#0" id="circle32"/>
	<circle cx="142.017" cy="441.055" r="4" fill="#0" id="circle33"/>
	<circle cx="144.893" cy="996" r="4" fill="#0" id="circle34"/>
	<circle cx="147.768" cy="225.403" r="4" fill="#0" id="circle35"/>
	<circle cx="147.768" cy="254.157" r="4" fill="#0" id="circle36"/>
	<circle cx="153.519" cy="282.91" r="4" fill="#0" id="circle37"/>
	<circle cx="153.519" cy="311.664" r="4" fill="#0" id="circle38"/>
	<circle cx="153.519" cy="340.417" r="4" fill="#0" id="circle39"/>
	<circle cx="153.519" cy="369.171" r="4" fill="#0" id="circle40"/>
	<circle cx="153.519" cy="397.925" r="4" fill="#0" id="circle41"/>
	<circle cx="165.02" cy="4" r="4" fill="#0" id="circle42"/>
	<circle cx="173.646" cy="996" r="4" fill="#0" id="circle43"/>
	<circle cx="193.774" cy="4" r="4" fill="#0" id="circle44"/>
	<circle cx="202.4" cy="996" r="4" fill="#0" id="circle45"/>
	<circle cx="222.528" cy="4" r="4" fill="#0" id="circle46"/>
	<circle cx="231.154" cy="222.528" r="4" fill="#0" id="circle47"/>
	<circle cx="231.154" cy="251.281" r="4" fill="#0" id="circle48"/>
	<circle cx="231.154" cy="280.035" r="4" fill="#0" id="circle49"/>
	<circle cx="231.154" cy="308.788" r="4" fill="#0" id="circle50"/>
	<circle cx="231.154" cy="337.542" r="4" fill="#0" id="circle51"/>
	<circle cx="231.154" cy="366.296" r="4" fill="#0" id="circle52"/>
	<circle cx="231.154" cy="395.049" r="4" fill="#0" id="circle53"/>
	<circle cx="231.154" cy="423.803" r="4" fill="#0" id="circle54"/>
	<circle cx="231.154" cy="996" r="4" fill="#0" id="circle55"/>
	<circle cx="236.904" cy="193.774" r="4" fill="#0" id="circle56"/>
	<circle cx="239.78" cy="452.557" r="4" fill="#0" id="circle57"/>
	<circle cx="248.406" cy="159.27" r="4" fill="#0" id="circle58"/>
	<circle cx="251.281" cy="4" r="4" fill="#0" id="circle59"/>
	<circle cx="254.157" cy="478.435" r="4" fill="#0" id="circle60"/>
	<circle cx="254.157" cy="507.188" r="4" fill="#0" id="circle61"/>
	<circle cx="254.157" cy="535.942" r="4" fill="#0" id="circle62"/>
	<circle cx="254.157" cy="564.696" r="4" fill="#0" id="circle63"/>
	<circle cx="254.157" cy="593.449" r="4" fill="#0" id="circle64"/>
	<circle cx="254.157" cy="622.203" r="4" fill="#0" id="circle65"/>
	<circle cx="254.157" cy="650.957" r="4" fill="#0" id="circle66"/>
	<circle cx="254.157" cy="679.71" r="4" fill="#0" id="circle67"/>
	<circle cx="254.157" cy="708.464" r="4" fill="#0" id="circle68"/>
	<circle cx="254.157" cy="737.217" r="4" fill="#0" id="circle69"/>
	<circle cx="254.157" cy="765.971" r="4" fill="#0" id="circle70"/>
	<circle cx="254.157" cy="794.725" r="4" fill="#0" id="circle71"/>
	<circle cx="254.157" cy="823.478" r="4" fill="#0" id="circle72"/>
	<circle cx="254.157" cy="852.232" r="4" fill="#0" id="circle73"/>
	<circle cx="254.157" cy="880.986" r="4" fill="#0" id="circle74"/>
	<circle cx="259.907" cy="96.0116" r="4" fill="#0" id="circle75"/>
	<circle cx="259.907" cy="124.765" r="4" fill="#0" id="circle76"/>
	<circle cx="259.907" cy="909.739" r="4" fill="#0" id="circle77"/>
	<circle cx="259.907" cy="938.493" r="4" fill="#0" id="circle78"/>
	<circle cx="259.907" cy="967.246" r="4" fill="#0" id="circle79"/>
	<circle cx="259.907" cy="996" r="4" fill="#0" id="circle80"/>
	<circle cx="280.035" cy="15.5014" r="4" fill="#0" id="circle81"/>
	<circle cx="282.91" cy="75.8841" r="4" fill="#0" id="circle82"/>
	<circle cx="305.913" cy="93.1362" r="4" fill="#0" id="circle83"/>
	<circle cx="308.788" cy="4" r="4" fill="#0" id="circle84"/>
	<circle cx="334.667" cy="90.2609" r="4" fill="#0" id="circle85"/>
	<circle cx="337.542" cy="4" r="4" fill="#0" id="circle86"/>
	<circle cx="351.919" cy="29.8783" r="4" fill="#0" id="circle87"/>
	<circle cx="351.919" cy="67.258" r="4" fill="#0" id="circle88"/>
	</g>
</svg>