<?xml version="1.0" encoding="UTF-8" standalone="no"?>
<!-- Created with CurveBenchmark -->
<svg
	xmlns:dc="http://purl.org/dc/elements/1.1/"
	xmlns:cc="http://creativecommons.org/ns#"
	xmlns:rdf="http://www.w3.org/1999/02/22-rdf-syntax-ns#"
	xmlns:svg="http://www.w3.org/2000/svg"
	xmlns="http://www.w3.org/2000/svg"
	xmlns:sodipodi="http://sodipodi.sourceforge.net/DTD/sodipodi-0.dtd"
	xmlns:inkscape="http://www.inkscape.org/namespaces/inkscape"
	width="1000"
	height="1000"
	id="svg2"
	version="1.1"
	sodipodi:docname="manifold/peel-fish14occ4.png.txt">
<defs
	id="defs4" />
<metadata
	id="metadata7">
	<rdf:RDF>
		<cc:Work
			rdf:about="">
			<dc:format>image/svg+xml</dc:format>
			<dc:type
				rdf:resource="http://purl.org/dc/dcmitype/StillImage" />
			<dc:title></dc:title>
		</cc:Work>
	</rdf:RDF>
</metadata>
<g
	inkscape:label="Layer 1"
	inkscape:groupmode="layer"
	id="layer1">
	<path style="fill:none;stroke:red;stroke-width:1px;stroke-linecap:butt;stroke-linejoin:miter;stroke-opacity:1" d="M 25.6594,92.8035 14.8297,73.31 z" id="boundary" inkscape:connector-curvature="0" />
	<path style="fill:none;stroke:red;stroke-width:1px;stroke-linecap:butt;stroke-linejoin:miter;stroke-opacity:1" d="M 4,53.8166 14.8297,32.1572 z" id="boundary" inkscape:connector-curvature="0" />
	<path style="fill:none;stroke:red;stroke-width:1px;stroke-linecap:butt;stroke-linejoin:miter;stroke-opacity:1" d="M 4,53.8166 14.8297,73.31 z" id="boundary" inkscape:connector-curvature="0" />
	<path style="fill:none;stroke:red;stroke-width:1px;stroke-linecap:butt;stroke-linejoin:miter;stroke-opacity:1" d="M 36.4891,112.297 40.821,133.956 z" id="boundary" inkscape:connector-curvature="0" />
	<path style="fill:none;stroke:red;stroke-width:1px;stroke-linecap:butt;stroke-linejoin:miter;stroke-opacity:1" d="M 36.4891,112.297 25.6594,92.8035 z" id="boundary" inkscape:connector-curvature="0" />
	<path style="fill:none;stroke:red;stroke-width:1px;stroke-linecap:butt;stroke-linejoin:miter;stroke-opacity:1" d="M 14.8297,32.1572 32.1572,14.8297 z" id="boundary" inkscape:connector-curvature="0" />
	<path style="fill:none;stroke:red;stroke-width:1px;stroke-linecap:butt;stroke-linejoin:miter;stroke-opacity:1" d="M 32.1572,14.8297 51.6507,25.6594 z" id="boundary" inkscape:connector-curvature="0" />
	<path style="fill:none;stroke:red;stroke-width:1px;stroke-linecap:butt;stroke-linejoin:miter;stroke-opacity:1" d="M 123.127,519.493 123.127,541.153 z" id="boundary" inkscape:connector-curvature="0" />
	<path style="fill:none;stroke:red;stroke-width:1px;stroke-linecap:butt;stroke-linejoin:miter;stroke-opacity:1" d="M 51.6507,25.6594 73.31,25.6594 z" id="boundary" inkscape:connector-curvature="0" />
	<path style="fill:none;stroke:red;stroke-width:1px;stroke-linecap:butt;stroke-linejoin:miter;stroke-opacity:1" d="M 51.6507,153.45 60.3144,175.109 z" id="boundary" inkscape:connector-curvature="0" />
	<path style="fill:none;stroke:red;stroke-width:1px;stroke-linecap:butt;stroke-linejoin:miter;stroke-opacity:1" d="M 51.6507,153.45 40.821,133.956 z" id="boundary" inkscape:connector-curvature="0" />
	<path style="fill:none;stroke:red;stroke-width:1px;stroke-linecap:butt;stroke-linejoin:miter;stroke-opacity:1" d="M 114.463,36.4891 94.9694,25.6594 z" id="boundary" inkscape:connector-curvature="0" />
	<path style="fill:none;stroke:red;stroke-width:1px;stroke-linecap:butt;stroke-linejoin:miter;stroke-opacity:1" d="M 94.9694,25.6594 73.31,25.6594 z" id="boundary" inkscape:connector-curvature="0" />
	<path style="fill:none;stroke:red;stroke-width:1px;stroke-linecap:butt;stroke-linejoin:miter;stroke-opacity:1" d="M 133.956,389.537 133.956,411.197 z" id="boundary" inkscape:connector-curvature="0" />
	<path style="fill:none;stroke:red;stroke-width:1px;stroke-linecap:butt;stroke-linejoin:miter;stroke-opacity:1" d="M 60.3144,175.109 79.8079,185.939 z" id="boundary" inkscape:connector-curvature="0" />
	<path style="fill:none;stroke:red;stroke-width:1px;stroke-linecap:butt;stroke-linejoin:miter;stroke-opacity:1" d="M 79.8079,185.939 90.6376,205.432 z" id="boundary" inkscape:connector-curvature="0" />
	<path style="fill:none;stroke:red;stroke-width:1px;stroke-linecap:butt;stroke-linejoin:miter;stroke-opacity:1" d="M 114.463,36.4891 131.79,49.4847 z" id="boundary" inkscape:connector-curvature="0" />
	<path style="fill:none;stroke:red;stroke-width:1px;stroke-linecap:butt;stroke-linejoin:miter;stroke-opacity:1" d="M 90.6376,205.432 90.6376,227.092 z" id="boundary" inkscape:connector-curvature="0" />
	<path style="fill:none;stroke:red;stroke-width:1px;stroke-linecap:butt;stroke-linejoin:miter;stroke-opacity:1" d="M 107.965,242.253 116.629,263.913 z" id="boundary" inkscape:connector-curvature="0" />
	<path style="fill:none;stroke:red;stroke-width:1px;stroke-linecap:butt;stroke-linejoin:miter;stroke-opacity:1" d="M 107.965,242.253 90.6376,227.092 z" id="boundary" inkscape:connector-curvature="0" />
	<path style="fill:none;stroke:red;stroke-width:1px;stroke-linecap:butt;stroke-linejoin:miter;stroke-opacity:1" d="M 131.79,49.4847 153.45,58.1485 z" id="boundary" inkscape:connector-curvature="0" />
	<path style="fill:none;stroke:red;stroke-width:1px;stroke-linecap:butt;stroke-linejoin:miter;stroke-opacity:1" d="M 140.454,298.568 133.956,276.908 z" id="boundary" inkscape:connector-curvature="0" />
	<path style="fill:none;stroke:red;stroke-width:1px;stroke-linecap:butt;stroke-linejoin:miter;stroke-opacity:1" d="M 133.956,276.908 116.629,263.913 z" id="boundary" inkscape:connector-curvature="0" />
	<path style="fill:none;stroke:red;stroke-width:1px;stroke-linecap:butt;stroke-linejoin:miter;stroke-opacity:1" d="M 133.956,389.537 133.956,367.878 z" id="boundary" inkscape:connector-curvature="0" />
	<path style="fill:none;stroke:red;stroke-width:1px;stroke-linecap:butt;stroke-linejoin:miter;stroke-opacity:1" d="M 123.127,541.153 136.122,558.48 z" id="boundary" inkscape:connector-curvature="0" />
	<path style="fill:none;stroke:red;stroke-width:1px;stroke-linecap:butt;stroke-linejoin:miter;stroke-opacity:1" d="M 136.122,558.48 157.782,558.48 z" id="boundary" inkscape:connector-curvature="0" />
	<path style="fill:none;stroke:red;stroke-width:1px;stroke-linecap:butt;stroke-linejoin:miter;stroke-opacity:1" d="M 144.786,320.227 140.454,298.568 z" id="boundary" inkscape:connector-curvature="0" />
	<path style="fill:none;stroke:red;stroke-width:1px;stroke-linecap:butt;stroke-linejoin:miter;stroke-opacity:1" d="M 133.956,432.856 133.956,411.197 z" id="boundary" inkscape:connector-curvature="0" />
	<path style="fill:none;stroke:red;stroke-width:1px;stroke-linecap:butt;stroke-linejoin:miter;stroke-opacity:1" d="M 133.956,454.515 133.956,432.856 z" id="boundary" inkscape:connector-curvature="0" />
	<path style="fill:none;stroke:red;stroke-width:1px;stroke-linecap:butt;stroke-linejoin:miter;stroke-opacity:1" d="M 144.786,320.227 144.786,341.886 z" id="boundary" inkscape:connector-curvature="0" />
	<path style="fill:none;stroke:red;stroke-width:1px;stroke-linecap:butt;stroke-linejoin:miter;stroke-opacity:1" d="M 144.786,341.886 133.956,367.878 z" id="boundary" inkscape:connector-curvature="0" />
	<path style="fill:none;stroke:red;stroke-width:1px;stroke-linecap:butt;stroke-linejoin:miter;stroke-opacity:1" d="M 133.956,476.175 133.956,454.515 z" id="boundary" inkscape:connector-curvature="0" />
	<path style="fill:none;stroke:red;stroke-width:1px;stroke-linecap:butt;stroke-linejoin:miter;stroke-opacity:1" d="M 123.127,519.493 133.956,497.834 z" id="boundary" inkscape:connector-curvature="0" />
	<path style="fill:none;stroke:red;stroke-width:1px;stroke-linecap:butt;stroke-linejoin:miter;stroke-opacity:1" d="M 133.956,497.834 133.956,476.175 z" id="boundary" inkscape:connector-curvature="0" />
	<path style="fill:none;stroke:red;stroke-width:1px;stroke-linecap:butt;stroke-linejoin:miter;stroke-opacity:1" d="M 363.546,125.293 363.546,146.952 z" id="boundary" inkscape:connector-curvature="0" />
	<path style="fill:none;stroke:red;stroke-width:1px;stroke-linecap:butt;stroke-linejoin:miter;stroke-opacity:1" d="M 166.445,32.1572 153.45,58.1485 z" id="boundary" inkscape:connector-curvature="0" />
	<path style="fill:none;stroke:red;stroke-width:1px;stroke-linecap:butt;stroke-linejoin:miter;stroke-opacity:1" d="M 157.782,558.48 179.441,562.812 z" id="boundary" inkscape:connector-curvature="0" />
	<path style="fill:none;stroke:red;stroke-width:1px;stroke-linecap:butt;stroke-linejoin:miter;stroke-opacity:1" d="M 188.105,4 207.598,14.8297 z" id="boundary" inkscape:connector-curvature="0" />
	<path style="fill:none;stroke:red;stroke-width:1px;stroke-linecap:butt;stroke-linejoin:miter;stroke-opacity:1" d="M 179.441,562.812 201.1,569.31 z" id="boundary" inkscape:connector-curvature="0" />
	<path style="fill:none;stroke:red;stroke-width:1px;stroke-linecap:butt;stroke-linejoin:miter;stroke-opacity:1" d="M 207.598,14.8297 229.258,14.8297 z" id="boundary" inkscape:connector-curvature="0" />
	<path style="fill:none;stroke:red;stroke-width:1px;stroke-linecap:butt;stroke-linejoin:miter;stroke-opacity:1" d="M 166.445,32.1572 166.445,10.4978 z" id="boundary" inkscape:connector-curvature="0" />
	<path style="fill:none;stroke:red;stroke-width:1px;stroke-linecap:butt;stroke-linejoin:miter;stroke-opacity:1" d="M 229.258,14.8297 250.917,14.8297 z" id="boundary" inkscape:connector-curvature="0" />
	<path style="fill:none;stroke:red;stroke-width:1px;stroke-linecap:butt;stroke-linejoin:miter;stroke-opacity:1" d="M 201.1,569.31 222.76,569.31 z" id="boundary" inkscape:connector-curvature="0" />
	<path style="fill:none;stroke:red;stroke-width:1px;stroke-linecap:butt;stroke-linejoin:miter;stroke-opacity:1" d="M 166.445,10.4978 188.105,4 z" id="boundary" inkscape:connector-curvature="0" />
	<path style="fill:none;stroke:red;stroke-width:1px;stroke-linecap:butt;stroke-linejoin:miter;stroke-opacity:1" d="M 363.546,81.9738 363.546,103.633 z" id="boundary" inkscape:connector-curvature="0" />
	<path style="fill:none;stroke:red;stroke-width:1px;stroke-linecap:butt;stroke-linejoin:miter;stroke-opacity:1" d="M 266.079,569.31 244.419,569.31 z" id="boundary" inkscape:connector-curvature="0" />
	<path style="fill:none;stroke:red;stroke-width:1px;stroke-linecap:butt;stroke-linejoin:miter;stroke-opacity:1" d="M 294.236,14.8297 272.576,14.8297 z" id="boundary" inkscape:connector-curvature="0" />
	<path style="fill:none;stroke:red;stroke-width:1px;stroke-linecap:butt;stroke-linejoin:miter;stroke-opacity:1" d="M 287.738,569.31 266.079,569.31 z" id="boundary" inkscape:connector-curvature="0" />
	<path style="fill:none;stroke:red;stroke-width:1px;stroke-linecap:butt;stroke-linejoin:miter;stroke-opacity:1" d="M 315.895,14.8297 294.236,14.8297 z" id="boundary" inkscape:connector-curvature="0" />
	<path style="fill:none;stroke:red;stroke-width:1px;stroke-linecap:butt;stroke-linejoin:miter;stroke-opacity:1" d="M 222.76,569.31 244.419,569.31 z" id="boundary" inkscape:connector-curvature="0" />
	<path style="fill:none;stroke:red;stroke-width:1px;stroke-linecap:butt;stroke-linejoin:miter;stroke-opacity:1" d="M 309.397,569.31 287.738,569.31 z" id="boundary" inkscape:connector-curvature="0" />
	<path style="fill:none;stroke:red;stroke-width:1px;stroke-linecap:butt;stroke-linejoin:miter;stroke-opacity:1" d="M 337.555,14.8297 315.895,14.8297 z" id="boundary" inkscape:connector-curvature="0" />
	<path style="fill:none;stroke:red;stroke-width:1px;stroke-linecap:butt;stroke-linejoin:miter;stroke-opacity:1" d="M 376.541,619.127 365.712,599.633 z" id="boundary" inkscape:connector-curvature="0" />
	<path style="fill:none;stroke:red;stroke-width:1px;stroke-linecap:butt;stroke-linejoin:miter;stroke-opacity:1" d="M 357.048,25.6594 337.555,14.8297 z" id="boundary" inkscape:connector-curvature="0" />
	<path style="fill:none;stroke:red;stroke-width:1px;stroke-linecap:butt;stroke-linejoin:miter;stroke-opacity:1" d="M 250.917,14.8297 272.576,14.8297 z" id="boundary" inkscape:connector-curvature="0" />
	<path style="fill:none;stroke:red;stroke-width:1px;stroke-linecap:butt;stroke-linejoin:miter;stroke-opacity:1" d="M 361.38,577.974 365.712,599.633 z" id="boundary" inkscape:connector-curvature="0" />
	<path style="fill:none;stroke:red;stroke-width:1px;stroke-linecap:butt;stroke-linejoin:miter;stroke-opacity:1" d="M 363.546,81.9738 363.546,60.3144 z" id="boundary" inkscape:connector-curvature="0" />
	<path style="fill:none;stroke:red;stroke-width:1px;stroke-linecap:butt;stroke-linejoin:miter;stroke-opacity:1" d="M 350.55,558.48 350.55,536.821 z" id="boundary" inkscape:connector-curvature="0" />
	<path style="fill:none;stroke:red;stroke-width:1px;stroke-linecap:butt;stroke-linejoin:miter;stroke-opacity:1" d="M 363.546,103.633 363.546,125.293 z" id="boundary" inkscape:connector-curvature="0" />
	<path style="fill:none;stroke:red;stroke-width:1px;stroke-linecap:butt;stroke-linejoin:miter;stroke-opacity:1" d="M 331.057,525.991 331.057,547.651 z" id="boundary" inkscape:connector-curvature="0" />
	<path style="fill:none;stroke:red;stroke-width:1px;stroke-linecap:butt;stroke-linejoin:miter;stroke-opacity:1" d="M 331.057,547.651 309.397,569.31 z" id="boundary" inkscape:connector-curvature="0" />
	<path style="fill:none;stroke:red;stroke-width:1px;stroke-linecap:butt;stroke-linejoin:miter;stroke-opacity:1" d="M 350.55,558.48 361.38,577.974 z" id="boundary" inkscape:connector-curvature="0" />
	<path style="fill:none;stroke:red;stroke-width:1px;stroke-linecap:butt;stroke-linejoin:miter;stroke-opacity:1" d="M 363.546,146.952 363.546,168.611 z" id="boundary" inkscape:connector-curvature="0" />
	<path style="fill:none;stroke:red;stroke-width:1px;stroke-linecap:butt;stroke-linejoin:miter;stroke-opacity:1" d="M 718.76,874.707 707.93,855.214 z" id="boundary" inkscape:connector-curvature="0" />
	<path style="fill:none;stroke:red;stroke-width:1px;stroke-linecap:butt;stroke-linejoin:miter;stroke-opacity:1" d="M 363.546,190.271 363.546,168.611 z" id="boundary" inkscape:connector-curvature="0" />
	<path style="fill:none;stroke:red;stroke-width:1px;stroke-linecap:butt;stroke-linejoin:miter;stroke-opacity:1" d="M 374.376,209.764 363.546,190.271 z" id="boundary" inkscape:connector-curvature="0" />
	<path style="fill:none;stroke:red;stroke-width:1px;stroke-linecap:butt;stroke-linejoin:miter;stroke-opacity:1" d="M 363.546,60.3144 374.376,38.655 z" id="boundary" inkscape:connector-curvature="0" />
	<path style="fill:none;stroke:red;stroke-width:1px;stroke-linecap:butt;stroke-linejoin:miter;stroke-opacity:1" d="M 385.205,229.258 374.376,209.764 z" id="boundary" inkscape:connector-curvature="0" />
	<path style="fill:none;stroke:red;stroke-width:1px;stroke-linecap:butt;stroke-linejoin:miter;stroke-opacity:1" d="M 406.865,237.921 422.026,255.249 z" id="boundary" inkscape:connector-curvature="0" />
	<path style="fill:none;stroke:red;stroke-width:1px;stroke-linecap:butt;stroke-linejoin:miter;stroke-opacity:1" d="M 406.865,237.921 385.205,229.258 z" id="boundary" inkscape:connector-curvature="0" />
	<path style="fill:none;stroke:red;stroke-width:1px;stroke-linecap:butt;stroke-linejoin:miter;stroke-opacity:1" d="M 374.376,38.655 357.048,25.6594 z" id="boundary" inkscape:connector-curvature="0" />
	<path style="fill:none;stroke:red;stroke-width:1px;stroke-linecap:butt;stroke-linejoin:miter;stroke-opacity:1" d="M 530.323,675.441 512.996,660.279 z" id="boundary" inkscape:connector-curvature="0" />
	<path style="fill:none;stroke:red;stroke-width:1px;stroke-linecap:butt;stroke-linejoin:miter;stroke-opacity:1" d="M 512.996,660.279 493.502,649.45 z" id="boundary" inkscape:connector-curvature="0" />
	<path style="fill:none;stroke:red;stroke-width:1px;stroke-linecap:butt;stroke-linejoin:miter;stroke-opacity:1" d="M 679.773,772.908 660.279,762.079 z" id="boundary" inkscape:connector-curvature="0" />
	<path style="fill:none;stroke:red;stroke-width:1px;stroke-linecap:butt;stroke-linejoin:miter;stroke-opacity:1" d="M 376.541,619.127 398.201,623.459 z" id="boundary" inkscape:connector-curvature="0" />
	<path style="fill:none;stroke:red;stroke-width:1px;stroke-linecap:butt;stroke-linejoin:miter;stroke-opacity:1" d="M 417.694,612.629 439.354,612.629 z" id="boundary" inkscape:connector-curvature="0" />
	<path style="fill:none;stroke:red;stroke-width:1px;stroke-linecap:butt;stroke-linejoin:miter;stroke-opacity:1" d="M 417.694,612.629 398.201,623.459 z" id="boundary" inkscape:connector-curvature="0" />
	<path style="fill:none;stroke:red;stroke-width:1px;stroke-linecap:butt;stroke-linejoin:miter;stroke-opacity:1" d="M 439.354,270.41 422.026,255.249 z" id="boundary" inkscape:connector-curvature="0" />
	<path style="fill:none;stroke:red;stroke-width:1px;stroke-linecap:butt;stroke-linejoin:miter;stroke-opacity:1" d="M 439.354,612.629 461.013,616.961 z" id="boundary" inkscape:connector-curvature="0" />
	<path style="fill:none;stroke:red;stroke-width:1px;stroke-linecap:butt;stroke-linejoin:miter;stroke-opacity:1" d="M 461.013,616.961 476.175,634.288 z" id="boundary" inkscape:connector-curvature="0" />
	<path style="fill:none;stroke:red;stroke-width:1px;stroke-linecap:butt;stroke-linejoin:miter;stroke-opacity:1" d="M 454.515,287.738 465.345,307.231 z" id="boundary" inkscape:connector-curvature="0" />
	<path style="fill:none;stroke:red;stroke-width:1px;stroke-linecap:butt;stroke-linejoin:miter;stroke-opacity:1" d="M 454.515,287.738 439.354,270.41 z" id="boundary" inkscape:connector-curvature="0" />
	<path style="fill:none;stroke:red;stroke-width:1px;stroke-linecap:butt;stroke-linejoin:miter;stroke-opacity:1" d="M 525.991,370.044 536.821,389.537 z" id="boundary" inkscape:connector-curvature="0" />
	<path style="fill:none;stroke:red;stroke-width:1px;stroke-linecap:butt;stroke-linejoin:miter;stroke-opacity:1" d="M 525.991,370.044 510.83,352.716 z" id="boundary" inkscape:connector-curvature="0" />
	<path style="fill:none;stroke:red;stroke-width:1px;stroke-linecap:butt;stroke-linejoin:miter;stroke-opacity:1" d="M 476.175,634.288 493.502,649.45 z" id="boundary" inkscape:connector-curvature="0" />
	<path style="fill:none;stroke:red;stroke-width:1px;stroke-linecap:butt;stroke-linejoin:miter;stroke-opacity:1" d="M 493.502,339.721 484.838,318.061 z" id="boundary" inkscape:connector-curvature="0" />
	<path style="fill:none;stroke:red;stroke-width:1px;stroke-linecap:butt;stroke-linejoin:miter;stroke-opacity:1" d="M 484.838,318.061 465.345,307.231 z" id="boundary" inkscape:connector-curvature="0" />
	<path style="fill:none;stroke:red;stroke-width:1px;stroke-linecap:butt;stroke-linejoin:miter;stroke-opacity:1" d="M 493.502,339.721 510.83,352.716 z" id="boundary" inkscape:connector-curvature="0" />
	<path style="fill:none;stroke:red;stroke-width:1px;stroke-linecap:butt;stroke-linejoin:miter;stroke-opacity:1" d="M 567.144,419.86 547.651,409.031 z" id="boundary" inkscape:connector-curvature="0" />
	<path style="fill:none;stroke:red;stroke-width:1px;stroke-linecap:butt;stroke-linejoin:miter;stroke-opacity:1" d="M 567.144,699.266 549.817,686.271 z" id="boundary" inkscape:connector-curvature="0" />
	<path style="fill:none;stroke:red;stroke-width:1px;stroke-linecap:butt;stroke-linejoin:miter;stroke-opacity:1" d="M 549.817,686.271 530.323,675.441 z" id="boundary" inkscape:connector-curvature="0" />
	<path style="fill:none;stroke:red;stroke-width:1px;stroke-linecap:butt;stroke-linejoin:miter;stroke-opacity:1" d="M 536.821,389.537 547.651,409.031 z" id="boundary" inkscape:connector-curvature="0" />
	<path style="fill:none;stroke:red;stroke-width:1px;stroke-linecap:butt;stroke-linejoin:miter;stroke-opacity:1" d="M 634.288,525.991 627.79,504.332 z" id="boundary" inkscape:connector-curvature="0" />
	<path style="fill:none;stroke:red;stroke-width:1px;stroke-linecap:butt;stroke-linejoin:miter;stroke-opacity:1" d="M 642.952,746.917 660.279,762.079 z" id="boundary" inkscape:connector-curvature="0" />
	<path style="fill:none;stroke:red;stroke-width:1px;stroke-linecap:butt;stroke-linejoin:miter;stroke-opacity:1" d="M 567.144,419.86 586.638,430.69 z" id="boundary" inkscape:connector-curvature="0" />
	<path style="fill:none;stroke:red;stroke-width:1px;stroke-linecap:butt;stroke-linejoin:miter;stroke-opacity:1" d="M 623.459,482.672 627.79,504.332 z" id="boundary" inkscape:connector-curvature="0" />
	<path style="fill:none;stroke:red;stroke-width:1px;stroke-linecap:butt;stroke-linejoin:miter;stroke-opacity:1" d="M 608.297,437.188 586.638,430.69 z" id="boundary" inkscape:connector-curvature="0" />
	<path style="fill:none;stroke:red;stroke-width:1px;stroke-linecap:butt;stroke-linejoin:miter;stroke-opacity:1" d="M 606.131,720.926 627.79,729.59 z" id="boundary" inkscape:connector-curvature="0" />
	<path style="fill:none;stroke:red;stroke-width:1px;stroke-linecap:butt;stroke-linejoin:miter;stroke-opacity:1" d="M 627.79,729.59 642.952,746.917 z" id="boundary" inkscape:connector-curvature="0" />
	<path style="fill:none;stroke:red;stroke-width:1px;stroke-linecap:butt;stroke-linejoin:miter;stroke-opacity:1" d="M 638.62,547.651 634.288,525.991 z" id="boundary" inkscape:connector-curvature="0" />
	<path style="fill:none;stroke:red;stroke-width:1px;stroke-linecap:butt;stroke-linejoin:miter;stroke-opacity:1" d="M 645.118,569.31 638.62,547.651 z" id="boundary" inkscape:connector-curvature="0" />
	<path style="fill:none;stroke:red;stroke-width:1px;stroke-linecap:butt;stroke-linejoin:miter;stroke-opacity:1" d="M 606.131,720.926 586.638,710.096 z" id="boundary" inkscape:connector-curvature="0" />
	<path style="fill:none;stroke:red;stroke-width:1px;stroke-linecap:butt;stroke-linejoin:miter;stroke-opacity:1" d="M 608.297,437.188 629.956,437.188 z" id="boundary" inkscape:connector-curvature="0" />
	<path style="fill:none;stroke:red;stroke-width:1px;stroke-linecap:butt;stroke-linejoin:miter;stroke-opacity:1" d="M 645.118,569.31 655.948,588.803 z" id="boundary" inkscape:connector-curvature="0" />
	<path style="fill:none;stroke:red;stroke-width:1px;stroke-linecap:butt;stroke-linejoin:miter;stroke-opacity:1" d="M 586.638,710.096 567.144,699.266 z" id="boundary" inkscape:connector-curvature="0" />
	<path style="fill:none;stroke:red;stroke-width:1px;stroke-linecap:butt;stroke-linejoin:miter;stroke-opacity:1" d="M 623.459,482.672 642.952,471.843 z" id="boundary" inkscape:connector-curvature="0" />
	<path style="fill:none;stroke:red;stroke-width:1px;stroke-linecap:butt;stroke-linejoin:miter;stroke-opacity:1" d="M 666.777,608.297 655.948,588.803 z" id="boundary" inkscape:connector-curvature="0" />
	<path style="fill:none;stroke:red;stroke-width:1px;stroke-linecap:butt;stroke-linejoin:miter;stroke-opacity:1" d="M 664.611,465.345 642.952,471.843 z" id="boundary" inkscape:connector-curvature="0" />
	<path style="fill:none;stroke:red;stroke-width:1px;stroke-linecap:butt;stroke-linejoin:miter;stroke-opacity:1" d="M 629.956,437.188 649.45,448.017 z" id="boundary" inkscape:connector-curvature="0" />
	<path style="fill:none;stroke:red;stroke-width:1px;stroke-linecap:butt;stroke-linejoin:miter;stroke-opacity:1" d="M 666.777,608.297 677.607,627.79 z" id="boundary" inkscape:connector-curvature="0" />
	<path style="fill:none;stroke:red;stroke-width:1px;stroke-linecap:butt;stroke-linejoin:miter;stroke-opacity:1" d="M 707.93,805.397 697.1,785.904 z" id="boundary" inkscape:connector-curvature="0" />
	<path style="fill:none;stroke:red;stroke-width:1px;stroke-linecap:butt;stroke-linejoin:miter;stroke-opacity:1" d="M 697.1,785.904 679.773,772.908 z" id="boundary" inkscape:connector-curvature="0" />
	<path style="fill:none;stroke:red;stroke-width:1px;stroke-linecap:butt;stroke-linejoin:miter;stroke-opacity:1" d="M 664.611,465.345 649.45,448.017 z" id="boundary" inkscape:connector-curvature="0" />
	<path style="fill:none;stroke:red;stroke-width:1px;stroke-linecap:butt;stroke-linejoin:miter;stroke-opacity:1" d="M 688.437,647.284 677.607,627.79 z" id="boundary" inkscape:connector-curvature="0" />
	<path style="fill:none;stroke:red;stroke-width:1px;stroke-linecap:butt;stroke-linejoin:miter;stroke-opacity:1" d="M 751.249,957.013 764.245,974.341 z" id="boundary" inkscape:connector-curvature="0" />
	<path style="fill:none;stroke:red;stroke-width:1px;stroke-linecap:butt;stroke-linejoin:miter;stroke-opacity:1" d="M 764.245,974.341 772.908,996 z" id="boundary" inkscape:connector-curvature="0" />
	<path style="fill:none;stroke:red;stroke-width:1px;stroke-linecap:butt;stroke-linejoin:miter;stroke-opacity:1" d="M 701.432,664.611 688.437,647.284 z" id="boundary" inkscape:connector-curvature="0" />
	<path style="fill:none;stroke:red;stroke-width:1px;stroke-linecap:butt;stroke-linejoin:miter;stroke-opacity:1" d="M 710.096,686.271 701.432,664.611 z" id="boundary" inkscape:connector-curvature="0" />
	<path style="fill:none;stroke:red;stroke-width:1px;stroke-linecap:butt;stroke-linejoin:miter;stroke-opacity:1" d="M 720.926,705.764 710.096,686.271 z" id="boundary" inkscape:connector-curvature="0" />
	<path style="fill:none;stroke:red;stroke-width:1px;stroke-linecap:butt;stroke-linejoin:miter;stroke-opacity:1" d="M 746.917,935.354 751.249,957.013 z" id="boundary" inkscape:connector-curvature="0" />
	<path style="fill:none;stroke:red;stroke-width:1px;stroke-linecap:butt;stroke-linejoin:miter;stroke-opacity:1" d="M 746.917,935.354 736.087,915.86 z" id="boundary" inkscape:connector-curvature="0" />
	<path style="fill:none;stroke:red;stroke-width:1px;stroke-linecap:butt;stroke-linejoin:miter;stroke-opacity:1" d="M 729.59,894.201 736.087,915.86 z" id="boundary" inkscape:connector-curvature="0" />
	<path style="fill:none;stroke:red;stroke-width:1px;stroke-linecap:butt;stroke-linejoin:miter;stroke-opacity:1" d="M 729.59,894.201 718.76,874.707 z" id="boundary" inkscape:connector-curvature="0" />
	<path style="fill:none;stroke:red;stroke-width:1px;stroke-linecap:butt;stroke-linejoin:miter;stroke-opacity:1" d="M 738.253,720.926 720.926,705.764 z" id="boundary" inkscape:connector-curvature="0" />
	<path style="fill:none;stroke:red;stroke-width:1px;stroke-linecap:butt;stroke-linejoin:miter;stroke-opacity:1" d="M 707.93,805.397 718.76,824.891 z" id="boundary" inkscape:connector-curvature="0" />
	<path style="fill:none;stroke:red;stroke-width:1px;stroke-linecap:butt;stroke-linejoin:miter;stroke-opacity:1" d="M 718.76,824.891 707.93,855.214 z" id="boundary" inkscape:connector-curvature="0" />
	<path style="fill:none;stroke:red;stroke-width:1px;stroke-linecap:butt;stroke-linejoin:miter;stroke-opacity:1" d="M 757.747,731.755 738.253,720.926 z" id="boundary" inkscape:connector-curvature="0" />
	<path style="fill:none;stroke:red;stroke-width:1px;stroke-linecap:butt;stroke-linejoin:miter;stroke-opacity:1" d="M 757.747,731.755 779.406,740.419 z" id="boundary" inkscape:connector-curvature="0" />
	<path style="fill:none;stroke:red;stroke-width:1px;stroke-linecap:butt;stroke-linejoin:miter;stroke-opacity:1" d="M 779.406,740.419 785.904,762.079 z" id="boundary" inkscape:connector-curvature="0" />
	<path style="fill:none;stroke:red;stroke-width:1px;stroke-linecap:butt;stroke-linejoin:miter;stroke-opacity:1" d="M 918.026,807.563 896.367,807.563 z" id="boundary" inkscape:connector-curvature="0" />
	<path style="fill:none;stroke:red;stroke-width:1px;stroke-linecap:butt;stroke-linejoin:miter;stroke-opacity:1" d="M 896.367,807.563 876.873,818.393 z" id="boundary" inkscape:connector-curvature="0" />
	<path style="fill:none;stroke:red;stroke-width:1px;stroke-linecap:butt;stroke-linejoin:miter;stroke-opacity:1" d="M 785.904,894.201 785.904,872.541 z" id="boundary" inkscape:connector-curvature="0" />
	<path style="fill:none;stroke:red;stroke-width:1px;stroke-linecap:butt;stroke-linejoin:miter;stroke-opacity:1" d="M 785.904,894.201 790.236,915.86 z" id="boundary" inkscape:connector-curvature="0" />
	<path style="fill:none;stroke:red;stroke-width:1px;stroke-linecap:butt;stroke-linejoin:miter;stroke-opacity:1" d="M 790.236,915.86 796.734,937.52 z" id="boundary" inkscape:connector-curvature="0" />
	<path style="fill:none;stroke:red;stroke-width:1px;stroke-linecap:butt;stroke-linejoin:miter;stroke-opacity:1" d="M 833.555,827.057 816.227,840.052 z" id="boundary" inkscape:connector-curvature="0" />
	<path style="fill:none;stroke:red;stroke-width:1px;stroke-linecap:butt;stroke-linejoin:miter;stroke-opacity:1" d="M 785.904,872.541 796.734,850.882 z" id="boundary" inkscape:connector-curvature="0" />
	<path style="fill:none;stroke:red;stroke-width:1px;stroke-linecap:butt;stroke-linejoin:miter;stroke-opacity:1" d="M 796.734,959.179 796.734,937.52 z" id="boundary" inkscape:connector-curvature="0" />
	<path style="fill:none;stroke:red;stroke-width:1px;stroke-linecap:butt;stroke-linejoin:miter;stroke-opacity:1" d="M 816.227,840.052 796.734,850.882 z" id="boundary" inkscape:connector-curvature="0" />
	<path style="fill:none;stroke:red;stroke-width:1px;stroke-linecap:butt;stroke-linejoin:miter;stroke-opacity:1" d="M 772.908,996 794.568,996 z" id="boundary" inkscape:connector-curvature="0" />
	<path style="fill:none;stroke:red;stroke-width:1px;stroke-linecap:butt;stroke-linejoin:miter;stroke-opacity:1" d="M 785.904,762.079 807.563,755.581 z" id="boundary" inkscape:connector-curvature="0" />
	<path style="fill:none;stroke:red;stroke-width:1px;stroke-linecap:butt;stroke-linejoin:miter;stroke-opacity:1" d="M 855.214,818.393 876.873,818.393 z" id="boundary" inkscape:connector-curvature="0" />
	<path style="fill:none;stroke:red;stroke-width:1px;stroke-linecap:butt;stroke-linejoin:miter;stroke-opacity:1" d="M 855.214,818.393 833.555,827.057 z" id="boundary" inkscape:connector-curvature="0" />
	<path style="fill:none;stroke:red;stroke-width:1px;stroke-linecap:butt;stroke-linejoin:miter;stroke-opacity:1" d="M 807.563,755.581 829.223,751.249 z" id="boundary" inkscape:connector-curvature="0" />
	<path style="fill:none;stroke:red;stroke-width:1px;stroke-linecap:butt;stroke-linejoin:miter;stroke-opacity:1" d="M 829.223,751.249 848.716,740.419 z" id="boundary" inkscape:connector-curvature="0" />
	<path style="fill:none;stroke:red;stroke-width:1px;stroke-linecap:butt;stroke-linejoin:miter;stroke-opacity:1" d="M 848.716,740.419 868.21,751.249 z" id="boundary" inkscape:connector-curvature="0" />
	<path style="fill:none;stroke:red;stroke-width:1px;stroke-linecap:butt;stroke-linejoin:miter;stroke-opacity:1" d="M 868.21,751.249 889.869,751.249 z" id="boundary" inkscape:connector-curvature="0" />
	<path style="fill:none;stroke:red;stroke-width:1px;stroke-linecap:butt;stroke-linejoin:miter;stroke-opacity:1" d="M 918.026,807.563 937.52,796.734 z" id="boundary" inkscape:connector-curvature="0" />
	<path style="fill:none;stroke:red;stroke-width:1px;stroke-linecap:butt;stroke-linejoin:miter;stroke-opacity:1" d="M 937.52,796.734 959.179,796.734 z" id="boundary" inkscape:connector-curvature="0" />
	<path style="fill:none;stroke:red;stroke-width:1px;stroke-linecap:butt;stroke-linejoin:miter;stroke-opacity:1" d="M 889.869,751.249 911.528,751.249 z" id="boundary" inkscape:connector-curvature="0" />
	<path style="fill:none;stroke:red;stroke-width:1px;stroke-linecap:butt;stroke-linejoin:miter;stroke-opacity:1" d="M 911.528,751.249 933.188,751.249 z" id="boundary" inkscape:connector-curvature="0" />
	<path style="fill:none;stroke:red;stroke-width:1px;stroke-linecap:butt;stroke-linejoin:miter;stroke-opacity:1" d="M 933.188,751.249 952.681,762.079 z" id="boundary" inkscape:connector-curvature="0" />
	<path style="fill:none;stroke:red;stroke-width:1px;stroke-linecap:butt;stroke-linejoin:miter;stroke-opacity:1" d="M 952.681,762.079 959.179,796.734 z" id="boundary" inkscape:connector-curvature="0" />
	<circle cx="4" cy="53.8166" r="4" fill="#0" id="circle0"/>
	<circle cx="14.8297" cy="32.1572" r="4" fill="#0" id="circle1"/>
	<circle cx="14.8297" cy="73.31" r="4" fill="#0" id="circle2"/>
	<circle cx="25.6594" cy="92.8035" r="4" fill="#0" id="circle3"/>
	<circle cx="32.1572" cy="14.8297" r="4" fill="#0" id="circle4"/>
	<circle cx="36.4891" cy="112.297" r="4" fill="#0" id="circle5"/>
	<circle cx="40.821" cy="133.956" r="4" fill="#0" id="circle6"/>
	<circle cx="51.6507" cy="25.6594" r="4" fill="#0" id="circle7"/>
	<circle cx="51.6507" cy="153.45" r="4" fill="#0" id="circle8"/>
	<circle cx="60.3144" cy="175.109" r="4" fill="#0" id="circle9"/>
	<circle cx="73.31" cy="25.6594" r="4" fill="#0" id="circle10"/>
	<circle cx="79.8079" cy="185.939" r="4" fill="#0" id="circle11"/>
	<circle cx="90.6376" cy="205.432" r="4" fill="#0" id="circle12"/>
	<circle cx="90.6376" cy="227.092" r="4" fill="#0" id="circle13"/>
	<circle cx="94.9694" cy="25.6594" r="4" fill="#0" id="circle14"/>
	<circle cx="107.965" cy="242.253" r="4" fill="#0" id="circle15"/>
	<circle cx="114.463" cy="36.4891" r="4" fill="#0" id="circle16"/>
	<circle cx="116.629" cy="263.913" r="4" fill="#0" id="circle17"/>
	<circle cx="123.127" cy="519.493" r="4" fill="#0" id="circle18"/>
	<circle cx="123.127" cy="541.153" r="4" fill="#0" id="circle19"/>
	<circle cx="131.79" cy="49.4847" r="4" fill="#0" id="circle20"/>
	<circle cx="133.956" cy="276.908" r="4" fill="#0" id="circle21"/>
	<circle cx="133.956" cy="367.878" r="4" fill="#0" id="circle22"/>
	<circle cx="133.956" cy="389.537" r="4" fill="#0" id="circle23"/>
	<circle cx="133.956" cy="411.197" r="4" fill="#0" id="circle24"/>
	<circle cx="133.956" cy="432.856" r="4" fill="#0" id="circle25"/>
	<circle cx="133.956" cy="454.515" r="4" fill="#0" id="circle26"/>
	<circle cx="133.956" cy="476.175" r="4" fill="#0" id="circle27"/>
	<circle cx="133.956" cy="497.834" r="4" fill="#0" id="circle28"/>
	<circle cx="136.122" cy="558.48" r="4" fill="#0" id="circle29"/>
	<circle cx="140.454" cy="298.568" r="4" fill="#0" id="circle30"/>
	<circle cx="144.786" cy="320.227" r="4" fill="#0" id="circle31"/>
	<circle cx="144.786" cy="341.886" r="4" fill="#0" id="circle32"/>
	<circle cx="153.45" cy="58.1485" r="4" fill="#0" id="circle33"/>
	<circle cx="157.782" cy="558.48" r="4" fill="#0" id="circle34"/>
	<circle cx="166.445" cy="10.4978" r="4" fill="#0" id="circle35"/>
	<circle cx="166.445" cy="32.1572" r="4" fill="#0" id="circle36"/>
	<circle cx="179.441" cy="562.812" r="4" fill="#0" id="circle37"/>
	<circle cx="188.105" cy="4" r="4" fill="#0" id="circle38"/>
	<circle cx="201.1" cy="569.31" r="4" fill="#0" id="circle39"/>
	<circle cx="207.598" cy="14.8297" r="4" fill="#0" id="circle40"/>
	<circle cx="222.76" cy="569.31" r="4" fill="#0" id="circle41"/>
	<circle cx="229.258" cy="14.8297" r="4" fill="#0" id="circle42"/>
	<circle cx="244.419" cy="569.31" r="4" fill="#0" id="circle43"/>
	<circle cx="250.917" cy="14.8297" r="4" fill="#0" id="circle44"/>
	<circle cx="266.079" cy="569.31" r="4" fill="#0" id="circle45"/>
	<circle cx="272.576" cy="14.8297" r="4" fill="#0" id="circle46"/>
	<circle cx="287.738" cy="569.31" r="4" fill="#0" id="circle47"/>
	<circle cx="294.236" cy="14.8297" r="4" fill="#0" id="circle48"/>
	<circle cx="309.397" cy="569.31" r="4" fill="#0" id="circle49"/>
	<circle cx="315.895" cy="14.8297" r="4" fill="#0" id="circle50"/>
	<circle cx="331.057" cy="525.991" r="4" fill="#0" id="circle51"/>
	<circle cx="331.057" cy="547.651" r="4" fill="#0" id="circle52"/>
	<circle cx="337.555" cy="14.8297" r="4" fill="#0" id="circle53"/>
	<circle cx="350.55" cy="536.821" r="4" fill="#0" id="circle54"/>
	<circle cx="350.55" cy="558.48" r="4" fill="#0" id="circle55"/>
	<circle cx="357.048" cy="25.6594" r="4" fill="#0" id="circle56"/>
	<circle cx="361.38" cy="577.974" r="4" fill="#0" id="circle57"/>
	<circle cx="363.546" cy="60.3144" r="4" fill="#0" id="circle58"/>
	<circle cx="363.546" cy="81.9738" r="4" fill="#0" id="circle59"/>
	<circle cx="363.546" cy="103.633" r="4" fill="#0" id="circle60"/>
	<circle cx="363.546" cy="125.293" r="4" fill="#0" id="circle61"/>
	<circle cx="363.546" cy="146.952" r="4" fill="#0" id="circle62"/>
	<circle cx="363.546" cy="168.611" r="4" fill="#0" id="circle63"/>
	<circle cx="363.546" cy="190.271" r="4" fill="#0" id="circle64"/>
	<circle cx="365.712" cy="599.633" r="4" fill="#0" id="circle65"/>
	<circle cx="374.376" cy="38.655" r="4" fill="#0" id="circle66"/>
	<circle cx="374.376" cy="209.764" r="4" fill="#0" id="circle67"/>
	<circle cx="376.541" cy="619.127" r="4" fill="#0" id="circle68"/>
	<circle cx="385.205" cy="229.258" r="4" fill="#0" id="circle69"/>
	<circle cx="398.201" cy="623.459" r="4" fill="#0" id="circle70"/>
	<circle cx="406.865" cy="237.921" r="4" fill="#0" id="circle71"/>
	<circle cx="417.694" cy="612.629" r="4" fill="#0" id="circle72"/>
	<circle cx="422.026" cy="255.249" r="4" fill="#0" id="circle73"/>
	<circle cx="439.354" cy="270.41" r="4" fill="#0" id="circle74"/>
	<circle cx="439.354" cy="612.629" r="4" fill="#0" id="circle75"/>
	<circle cx="454.515" cy="287.738" r="4" fill="#0" id="circle76"/>
	<circle cx="461.013" cy="616.961" r="4" fill="#0" id="circle77"/>
	<circle cx="465.345" cy="307.231" r="4" fill="#0" id="circle78"/>
	<circle cx="476.175" cy="634.288" r="4" fill="#0" id="circle79"/>
	<circle cx="484.838" cy="318.061" r="4" fill="#0" id="circle80"/>
	<circle cx="493.502" cy="339.721" r="4" fill="#0" id="circle81"/>
	<circle cx="493.502" cy="649.45" r="4" fill="#0" id="circle82"/>
	<circle cx="510.83" cy="352.716" r="4" fill="#0" id="circle83"/>
	<circle cx="512.996" cy="660.279" r="4" fill="#0" id="circle84"/>
	<circle cx="525.991" cy="370.044" r="4" fill="#0" id="circle85"/>
	<circle cx="530.323" cy="675.441" r="4" fill="#0" id="circle86"/>
	<circle cx="536.821" cy="389.537" r="4" fill="#0" id="circle87"/>
	<circle cx="547.651" cy="409.031" r="4" fill="#0" id="circle88"/>
	<circle cx="549.817" cy="686.271" r="4" fill="#0" id="circle89"/>
	<circle cx="567.144" cy="419.86" r="4" fill="#0" id="circle90"/>
	<circle cx="567.144" cy="699.266" r="4" fill="#0" id="circle91"/>
	<circle cx="586.638" cy="430.69" r="4" fill="#0" id="circle92"/>
	<circle cx="586.638" cy="710.096" r="4" fill="#0" id="circle93"/>
	<circle cx="606.131" cy="720.926" r="4" fill="#0" id="circle94"/>
	<circle cx="608.297" cy="437.188" r="4" fill="#0" id="circle95"/>
	<circle cx="623.459" cy="482.672" r="4" fill="#0" id="circle96"/>
	<circle cx="627.79" cy="504.332" r="4" fill="#0" id="circle97"/>
	<circle cx="627.79" cy="729.59" r="4" fill="#0" id="circle98"/>
	<circle cx="629.956" cy="437.188" r="4" fill="#0" id="circle99"/>
	<circle cx="634.288" cy="525.991" r="4" fill="#0" id="circle100"/>
	<circle cx="638.62" cy="547.651" r="4" fill="#0" id="circle101"/>
	<circle cx="642.952" cy="471.843" r="4" fill="#0" id="circle102"/>
	<circle cx="642.952" cy="746.917" r="4" fill="#0" id="circle103"/>
	<circle cx="645.118" cy="569.31" r="4" fill="#0" id="circle104"/>
	<circle cx="649.45" cy="448.017" r="4" fill="#0" id="circle105"/>
	<circle cx="655.948" cy="588.803" r="4" fill="#0" id="circle106"/>
	<circle cx="660.279" cy="762.079" r="4" fill="#0" id="circle107"/>
	<circle cx="664.611" cy="465.345" r="4" fill="#0" id="circle108"/>
	<circle cx="666.777" cy="608.297" r="4" fill="#0" id="circle109"/>
	<circle cx="677.607" cy="627.79" r="4" fill="#0" id="circle110"/>
	<circle cx="679.773" cy="772.908" r="4" fill="#0" id="circle111"/>
	<circle cx="688.437" cy="647.284" r="4" fill="#0" id="circle112"/>
	<circle cx="697.1" cy="785.904" r="4" fill="#0" id="circle113"/>
	<circle cx="701.432" cy="664.611" r="4" fill="#0" id="circle114"/>
	<circle cx="707.93" cy="805.397" r="4" fill="#0" id="circle115"/>
	<circle cx="707.93" cy="855.214" r="4" fill="#0" id="circle116"/>
	<circle cx="710.096" cy="686.271" r="4" fill="#0" id="circle117"/>
	<circle cx="718.76" cy="824.891" r="4" fill="#0" id="circle118"/>
	<circle cx="718.76" cy="874.707" r="4" fill="#0" id="circle119"/>
	<circle cx="720.926" cy="705.764" r="4" fill="#0" id="circle120"/>
	<circle cx="729.59" cy="894.201" r="4" fill="#0" id="circle121"/>
	<circle cx="736.087" cy="915.86" r="4" fill="#0" id="circle122"/>
	<circle cx="738.253" cy="720.926" r="4" fill="#0" id="circle123"/>
	<circle cx="746.917" cy="935.354" r="4" fill="#0" id="circle124"/>
	<circle cx="751.249" cy="957.013" r="4" fill="#0" id="circle125"/>
	<circle cx="757.747" cy="731.755" r="4" fill="#0" id="circle126"/>
	<circle cx="764.245" cy="974.341" r="4" fill="#0" id="circle127"/>
	<circle cx="772.908" cy="996" r="4" fill="#0" id="circle128"/>
	<circle cx="779.406" cy="740.419" r="4" fill="#0" id="circle129"/>
	<circle cx="785.904" cy="762.079" r="4" fill="#0" id="circle130"/>
	<circle cx="785.904" cy="872.541" r="4" fill="#0" id="circle131"/>
	<circle cx="785.904" cy="894.201" r="4" fill="#0" id="circle132"/>
	<circle cx="790.236" cy="915.86" r="4" fill="#0" id="circle133"/>
	<circle cx="794.568" cy="996" r="4" fill="#0" id="circle134"/>
	<circle cx="796.734" cy="850.882" r="4" fill="#0" id="circle135"/>
	<circle cx="796.734" cy="937.52" r="4" fill="#0" id="circle136"/>
	<circle cx="796.734" cy="959.179" r="4" fill="#0" id="circle137"/>
	<circle cx="807.563" cy="755.581" r="4" fill="#0" id="circle138"/>
	<circle cx="816.227" cy="840.052" r="4" fill="#0" id="circle139"/>
	<circle cx="829.223" cy="751.249" r="4" fill="#0" id="circle140"/>
	<circle cx="833.555" cy="827.057" r="4" fill="#0" id="circle141"/>
	<circle cx="848.716" cy="740.419" r="4" fill="#0" id="circle142"/>
	<circle cx="855.214" cy="818.393" r="4" fill="#0" id="circle143"/>
	<circle cx="868.21" cy="751.249" r="4" fill="#0" id="circle144"/>
	<circle cx="876.873" cy="818.393" r="4" fill="#0" id="circle145"/>
	<circle cx="889.869" cy="751.249" r="4" fill="#0" id="circle146"/>
	<circle cx="896.367" cy="807.563" r="4" fill="#0" id="circle147"/>
	<circle cx="911.528" cy="751.249" r="4" fill="#0" id="circle148"/>
	<circle cx="918.026" cy="807.563" r="4" fill="#0" id="circle149"/>
	<circle cx="933.188" cy="751.249" r="4" fill="#0" id="circle150"/>
	<circle cx="937.52" cy="796.734" r="4" fill="#0" id="circle151"/>
	<circle cx="952.681" cy="762.079" r="4" fill="#0" id="circle152"/>
	<circle cx="959.179" cy="796.734" r="4" fill="#0" id="circle153"/>
	</g>
</svg>