<?xml version="1.0" encoding="UTF-8" standalone="no"?>
<!-- Created with CurveBenchmark -->
<svg
	xmlns:dc="http://purl.org/dc/elements/1.1/"
	xmlns:cc="http://creativecommons.org/ns#"
	xmlns:rdf="http://www.w3.org/1999/02/22-rdf-syntax-ns#"
	xmlns:svg="http://www.w3.org/2000/svg"
	xmlns="http://www.w3.org/2000/svg"
	xmlns:sodipodi="http://sodipodi.sourceforge.net/DTD/sodipodi-0.dtd"
	xmlns:inkscape="http://www.inkscape.org/namespaces/inkscape"
	width="1000"
	height="1000"
	id="svg2"
	version="1.1"
	sodipodi:docname="manifold/peel-bed095.png.txt">
<defs
	id="defs4" />
<metadata
	id="metadata7">
	<rdf:RDF>
		<cc:Work
			rdf:about="">
			<dc:format>image/svg+xml</dc:format>
			<dc:type
				rdf:resource="http://purl.org/dc/dcmitype/StillImage" />
			<dc:title></dc:title>
		</cc:Work>
	</rdf:RDF>
</metadata>
<g
	inkscape:label="Layer 1"
	inkscape:groupmode="layer"
	id="layer1">
	<path style="fill:none;stroke:red;stroke-width:1px;stroke-linecap:butt;stroke-linejoin:miter;stroke-opacity:1" d="M 7.80806,356.246 4,390.518 z" id="boundary" inkscape:connector-curvature="0" />
	<path style="fill:none;stroke:red;stroke-width:1px;stroke-linecap:butt;stroke-linejoin:miter;stroke-opacity:1" d="M 7.80806,299.125 7.80806,280.084 z" id="boundary" inkscape:connector-curvature="0" />
	<path style="fill:none;stroke:red;stroke-width:1px;stroke-linecap:butt;stroke-linejoin:miter;stroke-opacity:1" d="M 4,447.639 4,428.599 z" id="boundary" inkscape:connector-curvature="0" />
	<path style="fill:none;stroke:red;stroke-width:1px;stroke-linecap:butt;stroke-linejoin:miter;stroke-opacity:1" d="M 4,466.679 4,447.639 z" id="boundary" inkscape:connector-curvature="0" />
	<path style="fill:none;stroke:red;stroke-width:1px;stroke-linecap:butt;stroke-linejoin:miter;stroke-opacity:1" d="M 7.80806,165.843 7.80806,146.802 z" id="boundary" inkscape:connector-curvature="0" />
	<path style="fill:none;stroke:red;stroke-width:1px;stroke-linecap:butt;stroke-linejoin:miter;stroke-opacity:1" d="M 7.80806,184.883 7.80806,165.843 z" id="boundary" inkscape:connector-curvature="0" />
	<path style="fill:none;stroke:red;stroke-width:1px;stroke-linecap:butt;stroke-linejoin:miter;stroke-opacity:1" d="M 7.80806,203.923 7.80806,184.883 z" id="boundary" inkscape:connector-curvature="0" />
	<path style="fill:none;stroke:red;stroke-width:1px;stroke-linecap:butt;stroke-linejoin:miter;stroke-opacity:1" d="M 19.2322,97.2975 28.7524,80.1612 z" id="boundary" inkscape:connector-curvature="0" />
	<path style="fill:none;stroke:red;stroke-width:1px;stroke-linecap:butt;stroke-linejoin:miter;stroke-opacity:1" d="M 7.80806,222.964 7.80806,203.923 z" id="boundary" inkscape:connector-curvature="0" />
	<path style="fill:none;stroke:red;stroke-width:1px;stroke-linecap:butt;stroke-linejoin:miter;stroke-opacity:1" d="M 40.1766,64.929 28.7524,80.1612 z" id="boundary" inkscape:connector-curvature="0" />
	<path style="fill:none;stroke:red;stroke-width:1px;stroke-linecap:butt;stroke-linejoin:miter;stroke-opacity:1" d="M 7.80806,242.004 7.80806,222.964 z" id="boundary" inkscape:connector-curvature="0" />
	<path style="fill:none;stroke:red;stroke-width:1px;stroke-linecap:butt;stroke-linejoin:miter;stroke-opacity:1" d="M 45.8887,43.9846 40.1766,64.929 z" id="boundary" inkscape:connector-curvature="0" />
	<path style="fill:none;stroke:red;stroke-width:1px;stroke-linecap:butt;stroke-linejoin:miter;stroke-opacity:1" d="M 7.80806,261.044 7.80806,242.004 z" id="boundary" inkscape:connector-curvature="0" />
	<path style="fill:none;stroke:red;stroke-width:1px;stroke-linecap:butt;stroke-linejoin:miter;stroke-opacity:1" d="M 82.0653,59.2169 82.0653,78.2572 z" id="boundary" inkscape:connector-curvature="0" />
	<path style="fill:none;stroke:red;stroke-width:1px;stroke-linecap:butt;stroke-linejoin:miter;stroke-opacity:1" d="M 7.80806,280.084 7.80806,261.044 z" id="boundary" inkscape:connector-curvature="0" />
	<path style="fill:none;stroke:red;stroke-width:1px;stroke-linecap:butt;stroke-linejoin:miter;stroke-opacity:1" d="M 89.6814,97.2975 82.0653,78.2572 z" id="boundary" inkscape:connector-curvature="0" />
	<path style="fill:none;stroke:red;stroke-width:1px;stroke-linecap:butt;stroke-linejoin:miter;stroke-opacity:1" d="M 7.80806,318.165 7.80806,299.125 z" id="boundary" inkscape:connector-curvature="0" />
	<path style="fill:none;stroke:red;stroke-width:1px;stroke-linecap:butt;stroke-linejoin:miter;stroke-opacity:1" d="M 80.1612,40.1766 82.0653,59.2169 z" id="boundary" inkscape:connector-curvature="0" />
	<path style="fill:none;stroke:red;stroke-width:1px;stroke-linecap:butt;stroke-linejoin:miter;stroke-opacity:1" d="M 7.80806,337.205 7.80806,318.165 z" id="boundary" inkscape:connector-curvature="0" />
	<path style="fill:none;stroke:red;stroke-width:1px;stroke-linecap:butt;stroke-linejoin:miter;stroke-opacity:1" d="M 89.6814,97.2975 95.3935,116.338 z" id="boundary" inkscape:connector-curvature="0" />
	<path style="fill:none;stroke:red;stroke-width:1px;stroke-linecap:butt;stroke-linejoin:miter;stroke-opacity:1" d="M 7.80806,356.246 7.80806,337.205 z" id="boundary" inkscape:connector-curvature="0" />
	<path style="fill:none;stroke:red;stroke-width:1px;stroke-linecap:butt;stroke-linejoin:miter;stroke-opacity:1" d="M 11.6161,123.954 19.2322,97.2975 z" id="boundary" inkscape:connector-curvature="0" />
	<path style="fill:none;stroke:red;stroke-width:1px;stroke-linecap:butt;stroke-linejoin:miter;stroke-opacity:1" d="M 4,409.559 4,390.518 z" id="boundary" inkscape:connector-curvature="0" />
	<path style="fill:none;stroke:red;stroke-width:1px;stroke-linecap:butt;stroke-linejoin:miter;stroke-opacity:1" d="M 4,428.599 4,409.559 z" id="boundary" inkscape:connector-curvature="0" />
	<path style="fill:none;stroke:red;stroke-width:1px;stroke-linecap:butt;stroke-linejoin:miter;stroke-opacity:1" d="M 4,466.679 5.90403,485.72 z" id="boundary" inkscape:connector-curvature="0" />
	<path style="fill:none;stroke:red;stroke-width:1px;stroke-linecap:butt;stroke-linejoin:miter;stroke-opacity:1" d="M 93.4894,184.883 93.4894,203.923 z" id="boundary" inkscape:connector-curvature="0" />
	<path style="fill:none;stroke:red;stroke-width:1px;stroke-linecap:butt;stroke-linejoin:miter;stroke-opacity:1" d="M 99.2015,135.378 95.3935,116.338 z" id="boundary" inkscape:connector-curvature="0" />
	<path style="fill:none;stroke:red;stroke-width:1px;stroke-linecap:butt;stroke-linejoin:miter;stroke-opacity:1" d="M 80.1612,40.1766 78.2572,21.1363 z" id="boundary" inkscape:connector-curvature="0" />
	<path style="fill:none;stroke:red;stroke-width:1px;stroke-linecap:butt;stroke-linejoin:miter;stroke-opacity:1" d="M 5.90403,485.72 7.80806,504.76 z" id="boundary" inkscape:connector-curvature="0" />
	<path style="fill:none;stroke:red;stroke-width:1px;stroke-linecap:butt;stroke-linejoin:miter;stroke-opacity:1" d="M 15.4242,558.073 15.4242,577.113 z" id="boundary" inkscape:connector-curvature="0" />
	<path style="fill:none;stroke:red;stroke-width:1px;stroke-linecap:butt;stroke-linejoin:miter;stroke-opacity:1" d="M 11.6161,523.8 7.80806,504.76 z" id="boundary" inkscape:connector-curvature="0" />
	<path style="fill:none;stroke:red;stroke-width:1px;stroke-linecap:butt;stroke-linejoin:miter;stroke-opacity:1" d="M 15.4242,558.073 40.1766,561.881 z" id="boundary" inkscape:connector-curvature="0" />
	<path style="fill:none;stroke:red;stroke-width:1px;stroke-linecap:butt;stroke-linejoin:miter;stroke-opacity:1" d="M 40.1766,561.881 47.7927,580.921 z" id="boundary" inkscape:connector-curvature="0" />
	<path style="fill:none;stroke:red;stroke-width:1px;stroke-linecap:butt;stroke-linejoin:miter;stroke-opacity:1" d="M 47.7927,580.921 30.6564,590.441 z" id="boundary" inkscape:connector-curvature="0" />
	<path style="fill:none;stroke:red;stroke-width:1px;stroke-linecap:butt;stroke-linejoin:miter;stroke-opacity:1" d="M 15.4242,577.113 30.6564,590.441 z" id="boundary" inkscape:connector-curvature="0" />
	<path style="fill:none;stroke:red;stroke-width:1px;stroke-linecap:butt;stroke-linejoin:miter;stroke-opacity:1" d="M 68.737,529.512 63.025,510.472 z" id="boundary" inkscape:connector-curvature="0" />
	<path style="fill:none;stroke:red;stroke-width:1px;stroke-linecap:butt;stroke-linejoin:miter;stroke-opacity:1" d="M 43.9846,531.417 43.9846,512.376 z" id="boundary" inkscape:connector-curvature="0" />
	<path style="fill:none;stroke:red;stroke-width:1px;stroke-linecap:butt;stroke-linejoin:miter;stroke-opacity:1" d="M 72.5451,567.593 76.3532,586.633 z" id="boundary" inkscape:connector-curvature="0" />
	<path style="fill:none;stroke:red;stroke-width:1px;stroke-linecap:butt;stroke-linejoin:miter;stroke-opacity:1" d="M 68.737,4 78.2572,21.1363 z" id="boundary" inkscape:connector-curvature="0" />
	<path style="fill:none;stroke:red;stroke-width:1px;stroke-linecap:butt;stroke-linejoin:miter;stroke-opacity:1" d="M 68.737,4 49.6967,9.71209 z" id="boundary" inkscape:connector-curvature="0" />
	<path style="fill:none;stroke:red;stroke-width:1px;stroke-linecap:butt;stroke-linejoin:miter;stroke-opacity:1" d="M 49.6967,9.71209 45.8887,43.9846 z" id="boundary" inkscape:connector-curvature="0" />
	<path style="fill:none;stroke:red;stroke-width:1px;stroke-linecap:butt;stroke-linejoin:miter;stroke-opacity:1" d="M 43.9846,512.376 63.025,510.472 z" id="boundary" inkscape:connector-curvature="0" />
	<path style="fill:none;stroke:red;stroke-width:1px;stroke-linecap:butt;stroke-linejoin:miter;stroke-opacity:1" d="M 72.5451,548.553 68.737,529.512 z" id="boundary" inkscape:connector-curvature="0" />
	<path style="fill:none;stroke:red;stroke-width:1px;stroke-linecap:butt;stroke-linejoin:miter;stroke-opacity:1" d="M 76.3532,586.633 95.3935,586.633 z" id="boundary" inkscape:connector-curvature="0" />
	<path style="fill:none;stroke:red;stroke-width:1px;stroke-linecap:butt;stroke-linejoin:miter;stroke-opacity:1" d="M 93.4894,561.881 95.3935,586.633 z" id="boundary" inkscape:connector-curvature="0" />
	<path style="fill:none;stroke:red;stroke-width:1px;stroke-linecap:butt;stroke-linejoin:miter;stroke-opacity:1" d="M 72.5451,567.593 72.5451,548.553 z" id="boundary" inkscape:connector-curvature="0" />
	<path style="fill:none;stroke:red;stroke-width:1px;stroke-linecap:butt;stroke-linejoin:miter;stroke-opacity:1" d="M 93.4894,203.923 108.722,215.347 z" id="boundary" inkscape:connector-curvature="0" />
	<path style="fill:none;stroke:red;stroke-width:1px;stroke-linecap:butt;stroke-linejoin:miter;stroke-opacity:1" d="M 146.802,215.347 165.843,222.964 z" id="boundary" inkscape:connector-curvature="0" />
	<path style="fill:none;stroke:red;stroke-width:1px;stroke-linecap:butt;stroke-linejoin:miter;stroke-opacity:1" d="M 99.2015,533.321 99.2015,514.28 z" id="boundary" inkscape:connector-curvature="0" />
	<path style="fill:none;stroke:red;stroke-width:1px;stroke-linecap:butt;stroke-linejoin:miter;stroke-opacity:1" d="M 11.6161,123.954 7.80806,146.802 z" id="boundary" inkscape:connector-curvature="0" />
	<path style="fill:none;stroke:red;stroke-width:1px;stroke-linecap:butt;stroke-linejoin:miter;stroke-opacity:1" d="M 537.129,514.28 518.088,514.28 z" id="boundary" inkscape:connector-curvature="0" />
	<path style="fill:none;stroke:red;stroke-width:1px;stroke-linecap:butt;stroke-linejoin:miter;stroke-opacity:1" d="M 101.106,154.418 93.4894,184.883 z" id="boundary" inkscape:connector-curvature="0" />
	<path style="fill:none;stroke:red;stroke-width:1px;stroke-linecap:butt;stroke-linejoin:miter;stroke-opacity:1" d="M 99.2015,135.378 101.106,154.418 z" id="boundary" inkscape:connector-curvature="0" />
	<path style="fill:none;stroke:red;stroke-width:1px;stroke-linecap:butt;stroke-linejoin:miter;stroke-opacity:1" d="M 137.282,514.28 156.322,514.28 z" id="boundary" inkscape:connector-curvature="0" />
	<path style="fill:none;stroke:red;stroke-width:1px;stroke-linecap:butt;stroke-linejoin:miter;stroke-opacity:1" d="M 137.282,514.28 118.242,514.28 z" id="boundary" inkscape:connector-curvature="0" />
	<path style="fill:none;stroke:red;stroke-width:1px;stroke-linecap:butt;stroke-linejoin:miter;stroke-opacity:1" d="M 127.762,211.539 146.802,215.347 z" id="boundary" inkscape:connector-curvature="0" />
	<path style="fill:none;stroke:red;stroke-width:1px;stroke-linecap:butt;stroke-linejoin:miter;stroke-opacity:1" d="M 127.762,211.539 108.722,215.347 z" id="boundary" inkscape:connector-curvature="0" />
	<path style="fill:none;stroke:red;stroke-width:1px;stroke-linecap:butt;stroke-linejoin:miter;stroke-opacity:1" d="M 99.2015,514.28 118.242,514.28 z" id="boundary" inkscape:connector-curvature="0" />
	<path style="fill:none;stroke:red;stroke-width:1px;stroke-linecap:butt;stroke-linejoin:miter;stroke-opacity:1" d="M 165.843,222.964 182.979,232.484 z" id="boundary" inkscape:connector-curvature="0" />
	<path style="fill:none;stroke:red;stroke-width:1px;stroke-linecap:butt;stroke-linejoin:miter;stroke-opacity:1" d="M 156.322,514.28 175.363,514.28 z" id="boundary" inkscape:connector-curvature="0" />
	<path style="fill:none;stroke:red;stroke-width:1px;stroke-linecap:butt;stroke-linejoin:miter;stroke-opacity:1" d="M 175.363,514.28 194.403,514.28 z" id="boundary" inkscape:connector-curvature="0" />
	<path style="fill:none;stroke:red;stroke-width:1px;stroke-linecap:butt;stroke-linejoin:miter;stroke-opacity:1" d="M 198.211,243.908 182.979,232.484 z" id="boundary" inkscape:connector-curvature="0" />
	<path style="fill:none;stroke:red;stroke-width:1px;stroke-linecap:butt;stroke-linejoin:miter;stroke-opacity:1" d="M 194.403,514.28 213.443,514.28 z" id="boundary" inkscape:connector-curvature="0" />
	<path style="fill:none;stroke:red;stroke-width:1px;stroke-linecap:butt;stroke-linejoin:miter;stroke-opacity:1" d="M 213.443,514.28 232.484,514.28 z" id="boundary" inkscape:connector-curvature="0" />
	<path style="fill:none;stroke:red;stroke-width:1px;stroke-linecap:butt;stroke-linejoin:miter;stroke-opacity:1" d="M 232.484,514.28 251.524,514.28 z" id="boundary" inkscape:connector-curvature="0" />
	<path style="fill:none;stroke:red;stroke-width:1px;stroke-linecap:butt;stroke-linejoin:miter;stroke-opacity:1" d="M 198.211,243.908 217.251,238.196 z" id="boundary" inkscape:connector-curvature="0" />
	<path style="fill:none;stroke:red;stroke-width:1px;stroke-linecap:butt;stroke-linejoin:miter;stroke-opacity:1" d="M 251.524,514.28 270.564,514.28 z" id="boundary" inkscape:connector-curvature="0" />
	<path style="fill:none;stroke:red;stroke-width:1px;stroke-linecap:butt;stroke-linejoin:miter;stroke-opacity:1" d="M 274.372,240.1 255.332,234.388 z" id="boundary" inkscape:connector-curvature="0" />
	<path style="fill:none;stroke:red;stroke-width:1px;stroke-linecap:butt;stroke-linejoin:miter;stroke-opacity:1" d="M 255.332,234.388 236.292,234.388 z" id="boundary" inkscape:connector-curvature="0" />
	<path style="fill:none;stroke:red;stroke-width:1px;stroke-linecap:butt;stroke-linejoin:miter;stroke-opacity:1" d="M 217.251,238.196 236.292,234.388 z" id="boundary" inkscape:connector-curvature="0" />
	<path style="fill:none;stroke:red;stroke-width:1px;stroke-linecap:butt;stroke-linejoin:miter;stroke-opacity:1" d="M 270.564,514.28 289.605,514.28 z" id="boundary" inkscape:connector-curvature="0" />
	<path style="fill:none;stroke:red;stroke-width:1px;stroke-linecap:butt;stroke-linejoin:miter;stroke-opacity:1" d="M 289.605,514.28 308.645,514.28 z" id="boundary" inkscape:connector-curvature="0" />
	<path style="fill:none;stroke:red;stroke-width:1px;stroke-linecap:butt;stroke-linejoin:miter;stroke-opacity:1" d="M 310.549,255.332 293.413,245.812 z" id="boundary" inkscape:connector-curvature="0" />
	<path style="fill:none;stroke:red;stroke-width:1px;stroke-linecap:butt;stroke-linejoin:miter;stroke-opacity:1" d="M 293.413,245.812 274.372,240.1 z" id="boundary" inkscape:connector-curvature="0" />
	<path style="fill:none;stroke:red;stroke-width:1px;stroke-linecap:butt;stroke-linejoin:miter;stroke-opacity:1" d="M 308.645,514.28 327.685,514.28 z" id="boundary" inkscape:connector-curvature="0" />
	<path style="fill:none;stroke:red;stroke-width:1px;stroke-linecap:butt;stroke-linejoin:miter;stroke-opacity:1" d="M 327.685,264.852 310.549,255.332 z" id="boundary" inkscape:connector-curvature="0" />
	<path style="fill:none;stroke:red;stroke-width:1px;stroke-linecap:butt;stroke-linejoin:miter;stroke-opacity:1" d="M 342.917,276.276 354.342,291.509 z" id="boundary" inkscape:connector-curvature="0" />
	<path style="fill:none;stroke:red;stroke-width:1px;stroke-linecap:butt;stroke-linejoin:miter;stroke-opacity:1" d="M 342.917,276.276 327.685,264.852 z" id="boundary" inkscape:connector-curvature="0" />
	<path style="fill:none;stroke:red;stroke-width:1px;stroke-linecap:butt;stroke-linejoin:miter;stroke-opacity:1" d="M 327.685,514.28 346.726,514.28 z" id="boundary" inkscape:connector-curvature="0" />
	<path style="fill:none;stroke:red;stroke-width:1px;stroke-linecap:butt;stroke-linejoin:miter;stroke-opacity:1" d="M 354.342,291.509 365.766,306.741 z" id="boundary" inkscape:connector-curvature="0" />
	<path style="fill:none;stroke:red;stroke-width:1px;stroke-linecap:butt;stroke-linejoin:miter;stroke-opacity:1" d="M 365.766,306.741 373.382,325.781 z" id="boundary" inkscape:connector-curvature="0" />
	<path style="fill:none;stroke:red;stroke-width:1px;stroke-linecap:butt;stroke-linejoin:miter;stroke-opacity:1" d="M 346.726,514.28 365.766,514.28 z" id="boundary" inkscape:connector-curvature="0" />
	<path style="fill:none;stroke:red;stroke-width:1px;stroke-linecap:butt;stroke-linejoin:miter;stroke-opacity:1" d="M 365.766,514.28 384.806,514.28 z" id="boundary" inkscape:connector-curvature="0" />
	<path style="fill:none;stroke:red;stroke-width:1px;stroke-linecap:butt;stroke-linejoin:miter;stroke-opacity:1" d="M 388.614,337.205 373.382,325.781 z" id="boundary" inkscape:connector-curvature="0" />
	<path style="fill:none;stroke:red;stroke-width:1px;stroke-linecap:butt;stroke-linejoin:miter;stroke-opacity:1" d="M 384.806,514.28 403.846,514.28 z" id="boundary" inkscape:connector-curvature="0" />
	<path style="fill:none;stroke:red;stroke-width:1px;stroke-linecap:butt;stroke-linejoin:miter;stroke-opacity:1" d="M 403.846,514.28 422.887,514.28 z" id="boundary" inkscape:connector-curvature="0" />
	<path style="fill:none;stroke:red;stroke-width:1px;stroke-linecap:butt;stroke-linejoin:miter;stroke-opacity:1" d="M 422.887,514.28 441.927,514.28 z" id="boundary" inkscape:connector-curvature="0" />
	<path style="fill:none;stroke:red;stroke-width:1px;stroke-linecap:butt;stroke-linejoin:miter;stroke-opacity:1" d="M 388.614,337.205 407.655,337.205 z" id="boundary" inkscape:connector-curvature="0" />
	<path style="fill:none;stroke:red;stroke-width:1px;stroke-linecap:butt;stroke-linejoin:miter;stroke-opacity:1" d="M 441.927,514.28 460.967,514.28 z" id="boundary" inkscape:connector-curvature="0" />
	<path style="fill:none;stroke:red;stroke-width:1px;stroke-linecap:butt;stroke-linejoin:miter;stroke-opacity:1" d="M 407.655,337.205 426.695,337.205 z" id="boundary" inkscape:connector-curvature="0" />
	<path style="fill:none;stroke:red;stroke-width:1px;stroke-linecap:butt;stroke-linejoin:miter;stroke-opacity:1" d="M 460.967,514.28 480.008,514.28 z" id="boundary" inkscape:connector-curvature="0" />
	<path style="fill:none;stroke:red;stroke-width:1px;stroke-linecap:butt;stroke-linejoin:miter;stroke-opacity:1" d="M 426.695,337.205 445.735,337.205 z" id="boundary" inkscape:connector-curvature="0" />
	<path style="fill:none;stroke:red;stroke-width:1px;stroke-linecap:butt;stroke-linejoin:miter;stroke-opacity:1" d="M 480.008,514.28 499.048,514.28 z" id="boundary" inkscape:connector-curvature="0" />
	<path style="fill:none;stroke:red;stroke-width:1px;stroke-linecap:butt;stroke-linejoin:miter;stroke-opacity:1" d="M 445.735,337.205 464.775,337.205 z" id="boundary" inkscape:connector-curvature="0" />
	<path style="fill:none;stroke:red;stroke-width:1px;stroke-linecap:butt;stroke-linejoin:miter;stroke-opacity:1" d="M 499.048,514.28 518.088,514.28 z" id="boundary" inkscape:connector-curvature="0" />
	<path style="fill:none;stroke:red;stroke-width:1px;stroke-linecap:butt;stroke-linejoin:miter;stroke-opacity:1" d="M 464.775,337.205 483.816,337.205 z" id="boundary" inkscape:connector-curvature="0" />
	<path style="fill:none;stroke:red;stroke-width:1px;stroke-linecap:butt;stroke-linejoin:miter;stroke-opacity:1" d="M 556.169,514.28 537.129,514.28 z" id="boundary" inkscape:connector-curvature="0" />
	<path style="fill:none;stroke:red;stroke-width:1px;stroke-linecap:butt;stroke-linejoin:miter;stroke-opacity:1" d="M 483.816,337.205 502.856,337.205 z" id="boundary" inkscape:connector-curvature="0" />
	<path style="fill:none;stroke:red;stroke-width:1px;stroke-linecap:butt;stroke-linejoin:miter;stroke-opacity:1" d="M 575.209,514.28 556.169,514.28 z" id="boundary" inkscape:connector-curvature="0" />
	<path style="fill:none;stroke:red;stroke-width:1px;stroke-linecap:butt;stroke-linejoin:miter;stroke-opacity:1" d="M 502.856,337.205 521.896,337.205 z" id="boundary" inkscape:connector-curvature="0" />
	<path style="fill:none;stroke:red;stroke-width:1px;stroke-linecap:butt;stroke-linejoin:miter;stroke-opacity:1" d="M 613.29,514.28 594.25,514.28 z" id="boundary" inkscape:connector-curvature="0" />
	<path style="fill:none;stroke:red;stroke-width:1px;stroke-linecap:butt;stroke-linejoin:miter;stroke-opacity:1" d="M 521.896,337.205 540.937,337.205 z" id="boundary" inkscape:connector-curvature="0" />
	<path style="fill:none;stroke:red;stroke-width:1px;stroke-linecap:butt;stroke-linejoin:miter;stroke-opacity:1" d="M 632.33,514.28 613.29,514.28 z" id="boundary" inkscape:connector-curvature="0" />
	<path style="fill:none;stroke:red;stroke-width:1px;stroke-linecap:butt;stroke-linejoin:miter;stroke-opacity:1" d="M 540.937,337.205 559.977,337.205 z" id="boundary" inkscape:connector-curvature="0" />
	<path style="fill:none;stroke:red;stroke-width:1px;stroke-linecap:butt;stroke-linejoin:miter;stroke-opacity:1" d="M 651.37,514.28 632.33,514.28 z" id="boundary" inkscape:connector-curvature="0" />
	<path style="fill:none;stroke:red;stroke-width:1px;stroke-linecap:butt;stroke-linejoin:miter;stroke-opacity:1" d="M 559.977,337.205 579.017,337.205 z" id="boundary" inkscape:connector-curvature="0" />
	<path style="fill:none;stroke:red;stroke-width:1px;stroke-linecap:butt;stroke-linejoin:miter;stroke-opacity:1" d="M 575.209,514.28 594.25,514.28 z" id="boundary" inkscape:connector-curvature="0" />
	<path style="fill:none;stroke:red;stroke-width:1px;stroke-linecap:butt;stroke-linejoin:miter;stroke-opacity:1" d="M 670.411,514.28 689.451,514.28 z" id="boundary" inkscape:connector-curvature="0" />
	<path style="fill:none;stroke:red;stroke-width:1px;stroke-linecap:butt;stroke-linejoin:miter;stroke-opacity:1" d="M 579.017,337.205 598.058,337.205 z" id="boundary" inkscape:connector-curvature="0" />
	<path style="fill:none;stroke:red;stroke-width:1px;stroke-linecap:butt;stroke-linejoin:miter;stroke-opacity:1" d="M 689.451,514.28 708.491,514.28 z" id="boundary" inkscape:connector-curvature="0" />
	<path style="fill:none;stroke:red;stroke-width:1px;stroke-linecap:butt;stroke-linejoin:miter;stroke-opacity:1" d="M 598.058,337.205 617.098,337.205 z" id="boundary" inkscape:connector-curvature="0" />
	<path style="fill:none;stroke:red;stroke-width:1px;stroke-linecap:butt;stroke-linejoin:miter;stroke-opacity:1" d="M 708.491,514.28 727.532,514.28 z" id="boundary" inkscape:connector-curvature="0" />
	<path style="fill:none;stroke:red;stroke-width:1px;stroke-linecap:butt;stroke-linejoin:miter;stroke-opacity:1" d="M 617.098,337.205 636.138,337.205 z" id="boundary" inkscape:connector-curvature="0" />
	<path style="fill:none;stroke:red;stroke-width:1px;stroke-linecap:butt;stroke-linejoin:miter;stroke-opacity:1" d="M 727.532,514.28 746.572,514.28 z" id="boundary" inkscape:connector-curvature="0" />
	<path style="fill:none;stroke:red;stroke-width:1px;stroke-linecap:butt;stroke-linejoin:miter;stroke-opacity:1" d="M 636.138,337.205 655.179,337.205 z" id="boundary" inkscape:connector-curvature="0" />
	<path style="fill:none;stroke:red;stroke-width:1px;stroke-linecap:butt;stroke-linejoin:miter;stroke-opacity:1" d="M 651.37,514.28 670.411,514.28 z" id="boundary" inkscape:connector-curvature="0" />
	<path style="fill:none;stroke:red;stroke-width:1px;stroke-linecap:butt;stroke-linejoin:miter;stroke-opacity:1" d="M 746.572,514.28 765.612,514.28 z" id="boundary" inkscape:connector-curvature="0" />
	<path style="fill:none;stroke:red;stroke-width:1px;stroke-linecap:butt;stroke-linejoin:miter;stroke-opacity:1" d="M 655.179,337.205 674.219,337.205 z" id="boundary" inkscape:connector-curvature="0" />
	<path style="fill:none;stroke:red;stroke-width:1px;stroke-linecap:butt;stroke-linejoin:miter;stroke-opacity:1" d="M 765.612,514.28 784.653,514.28 z" id="boundary" inkscape:connector-curvature="0" />
	<path style="fill:none;stroke:red;stroke-width:1px;stroke-linecap:butt;stroke-linejoin:miter;stroke-opacity:1" d="M 674.219,337.205 693.259,337.205 z" id="boundary" inkscape:connector-curvature="0" />
	<path style="fill:none;stroke:red;stroke-width:1px;stroke-linecap:butt;stroke-linejoin:miter;stroke-opacity:1" d="M 784.653,514.28 803.693,514.28 z" id="boundary" inkscape:connector-curvature="0" />
	<path style="fill:none;stroke:red;stroke-width:1px;stroke-linecap:butt;stroke-linejoin:miter;stroke-opacity:1" d="M 693.259,337.205 712.299,337.205 z" id="boundary" inkscape:connector-curvature="0" />
	<path style="fill:none;stroke:red;stroke-width:1px;stroke-linecap:butt;stroke-linejoin:miter;stroke-opacity:1" d="M 712.299,337.205 731.34,341.013 z" id="boundary" inkscape:connector-curvature="0" />
	<path style="fill:none;stroke:red;stroke-width:1px;stroke-linecap:butt;stroke-linejoin:miter;stroke-opacity:1" d="M 906.511,573.305 916.031,590.441 z" id="boundary" inkscape:connector-curvature="0" />
	<path style="fill:none;stroke:red;stroke-width:1px;stroke-linecap:butt;stroke-linejoin:miter;stroke-opacity:1" d="M 822.733,514.28 803.693,514.28 z" id="boundary" inkscape:connector-curvature="0" />
	<path style="fill:none;stroke:red;stroke-width:1px;stroke-linecap:butt;stroke-linejoin:miter;stroke-opacity:1" d="M 731.34,341.013 750.38,341.013 z" id="boundary" inkscape:connector-curvature="0" />
	<path style="fill:none;stroke:red;stroke-width:1px;stroke-linecap:butt;stroke-linejoin:miter;stroke-opacity:1" d="M 902.702,554.265 906.511,573.305 z" id="boundary" inkscape:connector-curvature="0" />
	<path style="fill:none;stroke:red;stroke-width:1px;stroke-linecap:butt;stroke-linejoin:miter;stroke-opacity:1" d="M 750.38,341.013 769.42,341.013 z" id="boundary" inkscape:connector-curvature="0" />
	<path style="fill:none;stroke:red;stroke-width:1px;stroke-linecap:butt;stroke-linejoin:miter;stroke-opacity:1" d="M 860.814,514.28 841.774,514.28 z" id="boundary" inkscape:connector-curvature="0" />
	<path style="fill:none;stroke:red;stroke-width:1px;stroke-linecap:butt;stroke-linejoin:miter;stroke-opacity:1" d="M 769.42,341.013 788.461,341.013 z" id="boundary" inkscape:connector-curvature="0" />
	<path style="fill:none;stroke:red;stroke-width:1px;stroke-linecap:butt;stroke-linejoin:miter;stroke-opacity:1" d="M 788.461,341.013 807.501,342.917 z" id="boundary" inkscape:connector-curvature="0" />
	<path style="fill:none;stroke:red;stroke-width:1px;stroke-linecap:butt;stroke-linejoin:miter;stroke-opacity:1" d="M 879.854,514.28 860.814,514.28 z" id="boundary" inkscape:connector-curvature="0" />
	<path style="fill:none;stroke:red;stroke-width:1px;stroke-linecap:butt;stroke-linejoin:miter;stroke-opacity:1" d="M 826.541,348.63 807.501,342.917 z" id="boundary" inkscape:connector-curvature="0" />
	<path style="fill:none;stroke:red;stroke-width:1px;stroke-linecap:butt;stroke-linejoin:miter;stroke-opacity:1" d="M 902.702,535.225 902.702,554.265 z" id="boundary" inkscape:connector-curvature="0" />
	<path style="fill:none;stroke:red;stroke-width:1px;stroke-linecap:butt;stroke-linejoin:miter;stroke-opacity:1" d="M 822.733,514.28 841.774,514.28 z" id="boundary" inkscape:connector-curvature="0" />
	<path style="fill:none;stroke:red;stroke-width:1px;stroke-linecap:butt;stroke-linejoin:miter;stroke-opacity:1" d="M 902.702,535.225 898.894,516.184 z" id="boundary" inkscape:connector-curvature="0" />
	<path style="fill:none;stroke:red;stroke-width:1px;stroke-linecap:butt;stroke-linejoin:miter;stroke-opacity:1" d="M 898.894,516.184 879.854,514.28 z" id="boundary" inkscape:connector-curvature="0" />
	<path style="fill:none;stroke:red;stroke-width:1px;stroke-linecap:butt;stroke-linejoin:miter;stroke-opacity:1" d="M 826.541,348.63 845.582,348.63 z" id="boundary" inkscape:connector-curvature="0" />
	<path style="fill:none;stroke:red;stroke-width:1px;stroke-linecap:butt;stroke-linejoin:miter;stroke-opacity:1" d="M 845.582,348.63 864.622,348.63 z" id="boundary" inkscape:connector-curvature="0" />
	<path style="fill:none;stroke:red;stroke-width:1px;stroke-linecap:butt;stroke-linejoin:miter;stroke-opacity:1" d="M 992.192,346.726 984.576,327.685 z" id="boundary" inkscape:connector-curvature="0" />
	<path style="fill:none;stroke:red;stroke-width:1px;stroke-linecap:butt;stroke-linejoin:miter;stroke-opacity:1" d="M 864.622,348.63 883.662,348.63 z" id="boundary" inkscape:connector-curvature="0" />
	<path style="fill:none;stroke:red;stroke-width:1px;stroke-linecap:butt;stroke-linejoin:miter;stroke-opacity:1" d="M 883.662,348.63 898.894,337.205 z" id="boundary" inkscape:connector-curvature="0" />
	<path style="fill:none;stroke:red;stroke-width:1px;stroke-linecap:butt;stroke-linejoin:miter;stroke-opacity:1" d="M 908.415,320.069 898.894,337.205 z" id="boundary" inkscape:connector-curvature="0" />
	<path style="fill:none;stroke:red;stroke-width:1px;stroke-linecap:butt;stroke-linejoin:miter;stroke-opacity:1" d="M 965.536,293.413 975.056,310.549 z" id="boundary" inkscape:connector-curvature="0" />
	<path style="fill:none;stroke:red;stroke-width:1px;stroke-linecap:butt;stroke-linejoin:miter;stroke-opacity:1" d="M 984.576,327.685 975.056,310.549 z" id="boundary" inkscape:connector-curvature="0" />
	<path style="fill:none;stroke:red;stroke-width:1px;stroke-linecap:butt;stroke-linejoin:miter;stroke-opacity:1" d="M 963.631,569.497 957.919,550.457 z" id="boundary" inkscape:connector-curvature="0" />
	<path style="fill:none;stroke:red;stroke-width:1px;stroke-linecap:butt;stroke-linejoin:miter;stroke-opacity:1" d="M 957.919,550.457 938.879,550.457 z" id="boundary" inkscape:connector-curvature="0" />
	<path style="fill:none;stroke:red;stroke-width:1px;stroke-linecap:butt;stroke-linejoin:miter;stroke-opacity:1" d="M 927.455,565.689 938.879,550.457 z" id="boundary" inkscape:connector-curvature="0" />
	<path style="fill:none;stroke:red;stroke-width:1px;stroke-linecap:butt;stroke-linejoin:miter;stroke-opacity:1" d="M 956.015,257.236 936.975,257.236 z" id="boundary" inkscape:connector-curvature="0" />
	<path style="fill:none;stroke:red;stroke-width:1px;stroke-linecap:butt;stroke-linejoin:miter;stroke-opacity:1" d="M 936.975,257.236 929.359,276.276 z" id="boundary" inkscape:connector-curvature="0" />
	<path style="fill:none;stroke:red;stroke-width:1px;stroke-linecap:butt;stroke-linejoin:miter;stroke-opacity:1" d="M 923.647,304.837 908.415,320.069 z" id="boundary" inkscape:connector-curvature="0" />
	<path style="fill:none;stroke:red;stroke-width:1px;stroke-linecap:butt;stroke-linejoin:miter;stroke-opacity:1" d="M 923.647,304.837 929.359,276.276 z" id="boundary" inkscape:connector-curvature="0" />
	<path style="fill:none;stroke:red;stroke-width:1px;stroke-linecap:butt;stroke-linejoin:miter;stroke-opacity:1" d="M 965.536,274.372 956.015,257.236 z" id="boundary" inkscape:connector-curvature="0" />
	<path style="fill:none;stroke:red;stroke-width:1px;stroke-linecap:butt;stroke-linejoin:miter;stroke-opacity:1" d="M 963.631,569.497 973.152,586.633 z" id="boundary" inkscape:connector-curvature="0" />
	<path style="fill:none;stroke:red;stroke-width:1px;stroke-linecap:butt;stroke-linejoin:miter;stroke-opacity:1" d="M 965.536,293.413 965.536,274.372 z" id="boundary" inkscape:connector-curvature="0" />
	<path style="fill:none;stroke:red;stroke-width:1px;stroke-linecap:butt;stroke-linejoin:miter;stroke-opacity:1" d="M 992.192,346.726 996,365.766 z" id="boundary" inkscape:connector-curvature="0" />
	<path style="fill:none;stroke:red;stroke-width:1px;stroke-linecap:butt;stroke-linejoin:miter;stroke-opacity:1" d="M 988.384,565.689 992.192,584.729 z" id="boundary" inkscape:connector-curvature="0" />
	<path style="fill:none;stroke:red;stroke-width:1px;stroke-linecap:butt;stroke-linejoin:miter;stroke-opacity:1" d="M 992.192,584.729 973.152,586.633 z" id="boundary" inkscape:connector-curvature="0" />
	<path style="fill:none;stroke:red;stroke-width:1px;stroke-linecap:butt;stroke-linejoin:miter;stroke-opacity:1" d="M 992.192,519.992 988.384,500.952 z" id="boundary" inkscape:connector-curvature="0" />
	<path style="fill:none;stroke:red;stroke-width:1px;stroke-linecap:butt;stroke-linejoin:miter;stroke-opacity:1" d="M 992.192,390.518 992.192,409.559 z" id="boundary" inkscape:connector-curvature="0" />
	<path style="fill:none;stroke:red;stroke-width:1px;stroke-linecap:butt;stroke-linejoin:miter;stroke-opacity:1" d="M 992.192,409.559 992.192,428.599 z" id="boundary" inkscape:connector-curvature="0" />
	<path style="fill:none;stroke:red;stroke-width:1px;stroke-linecap:butt;stroke-linejoin:miter;stroke-opacity:1" d="M 992.192,447.639 992.192,428.599 z" id="boundary" inkscape:connector-curvature="0" />
	<path style="fill:none;stroke:red;stroke-width:1px;stroke-linecap:butt;stroke-linejoin:miter;stroke-opacity:1" d="M 992.192,390.518 996,365.766 z" id="boundary" inkscape:connector-curvature="0" />
	<path style="fill:none;stroke:red;stroke-width:1px;stroke-linecap:butt;stroke-linejoin:miter;stroke-opacity:1" d="M 992.192,466.679 992.192,447.639 z" id="boundary" inkscape:connector-curvature="0" />
	<path style="fill:none;stroke:red;stroke-width:1px;stroke-linecap:butt;stroke-linejoin:miter;stroke-opacity:1" d="M 988.384,500.952 992.192,466.679 z" id="boundary" inkscape:connector-curvature="0" />
	<path style="fill:none;stroke:red;stroke-width:1px;stroke-linecap:butt;stroke-linejoin:miter;stroke-opacity:1" d="M 996,539.033 992.192,519.992 z" id="boundary" inkscape:connector-curvature="0" />
	<circle cx="4" cy="390.518" r="4" fill="#0" id="circle0"/>
	<circle cx="4" cy="409.559" r="4" fill="#0" id="circle1"/>
	<circle cx="4" cy="428.599" r="4" fill="#0" id="circle2"/>
	<circle cx="4" cy="447.639" r="4" fill="#0" id="circle3"/>
	<circle cx="4" cy="466.679" r="4" fill="#0" id="circle4"/>
	<circle cx="5.90403" cy="485.72" r="4" fill="#0" id="circle5"/>
	<circle cx="7.80806" cy="146.802" r="4" fill="#0" id="circle6"/>
	<circle cx="7.80806" cy="165.843" r="4" fill="#0" id="circle7"/>
	<circle cx="7.80806" cy="184.883" r="4" fill="#0" id="circle8"/>
	<circle cx="7.80806" cy="203.923" r="4" fill="#0" id="circle9"/>
	<circle cx="7.80806" cy="222.964" r="4" fill="#0" id="circle10"/>
	<circle cx="7.80806" cy="242.004" r="4" fill="#0" id="circle11"/>
	<circle cx="7.80806" cy="261.044" r="4" fill="#0" id="circle12"/>
	<circle cx="7.80806" cy="280.084" r="4" fill="#0" id="circle13"/>
	<circle cx="7.80806" cy="299.125" r="4" fill="#0" id="circle14"/>
	<circle cx="7.80806" cy="318.165" r="4" fill="#0" id="circle15"/>
	<circle cx="7.80806" cy="337.205" r="4" fill="#0" id="circle16"/>
	<circle cx="7.80806" cy="356.246" r="4" fill="#0" id="circle17"/>
	<circle cx="7.80806" cy="504.76" r="4" fill="#0" id="circle18"/>
	<circle cx="11.6161" cy="123.954" r="4" fill="#0" id="circle19"/>
	<circle cx="11.6161" cy="523.8" r="4" fill="#0" id="circle20"/>
	<circle cx="15.4242" cy="558.073" r="4" fill="#0" id="circle21"/>
	<circle cx="15.4242" cy="577.113" r="4" fill="#0" id="circle22"/>
	<circle cx="19.2322" cy="97.2975" r="4" fill="#0" id="circle23"/>
	<circle cx="28.7524" cy="80.1612" r="4" fill="#0" id="circle24"/>
	<circle cx="30.6564" cy="590.441" r="4" fill="#0" id="circle25"/>
	<circle cx="40.1766" cy="64.929" r="4" fill="#0" id="circle26"/>
	<circle cx="40.1766" cy="561.881" r="4" fill="#0" id="circle27"/>
	<circle cx="43.9846" cy="512.376" r="4" fill="#0" id="circle28"/>
	<circle cx="43.9846" cy="531.417" r="4" fill="#0" id="circle29"/>
	<circle cx="45.8887" cy="43.9846" r="4" fill="#0" id="circle30"/>
	<circle cx="47.7927" cy="580.921" r="4" fill="#0" id="circle31"/>
	<circle cx="49.6967" cy="9.71209" r="4" fill="#0" id="circle32"/>
	<circle cx="63.025" cy="510.472" r="4" fill="#0" id="circle33"/>
	<circle cx="68.737" cy="4" r="4" fill="#0" id="circle34"/>
	<circle cx="68.737" cy="529.512" r="4" fill="#0" id="circle35"/>
	<circle cx="72.5451" cy="548.553" r="4" fill="#0" id="circle36"/>
	<circle cx="72.5451" cy="567.593" r="4" fill="#0" id="circle37"/>
	<circle cx="76.3532" cy="586.633" r="4" fill="#0" id="circle38"/>
	<circle cx="78.2572" cy="21.1363" r="4" fill="#0" id="circle39"/>
	<circle cx="80.1612" cy="40.1766" r="4" fill="#0" id="circle40"/>
	<circle cx="82.0653" cy="59.2169" r="4" fill="#0" id="circle41"/>
	<circle cx="82.0653" cy="78.2572" r="4" fill="#0" id="circle42"/>
	<circle cx="89.6814" cy="97.2975" r="4" fill="#0" id="circle43"/>
	<circle cx="93.4894" cy="184.883" r="4" fill="#0" id="circle44"/>
	<circle cx="93.4894" cy="203.923" r="4" fill="#0" id="circle45"/>
	<circle cx="93.4894" cy="561.881" r="4" fill="#0" id="circle46"/>
	<circle cx="95.3935" cy="116.338" r="4" fill="#0" id="circle47"/>
	<circle cx="95.3935" cy="586.633" r="4" fill="#0" id="circle48"/>
	<circle cx="99.2015" cy="135.378" r="4" fill="#0" id="circle49"/>
	<circle cx="99.2015" cy="514.28" r="4" fill="#0" id="circle50"/>
	<circle cx="99.2015" cy="533.321" r="4" fill="#0" id="circle51"/>
	<circle cx="101.106" cy="154.418" r="4" fill="#0" id="circle52"/>
	<circle cx="108.722" cy="215.347" r="4" fill="#0" id="circle53"/>
	<circle cx="118.242" cy="514.28" r="4" fill="#0" id="circle54"/>
	<circle cx="127.762" cy="211.539" r="4" fill="#0" id="circle55"/>
	<circle cx="137.282" cy="514.28" r="4" fill="#0" id="circle56"/>
	<circle cx="146.802" cy="215.347" r="4" fill="#0" id="circle57"/>
	<circle cx="156.322" cy="514.28" r="4" fill="#0" id="circle58"/>
	<circle cx="165.843" cy="222.964" r="4" fill="#0" id="circle59"/>
	<circle cx="175.363" cy="514.28" r="4" fill="#0" id="circle60"/>
	<circle cx="182.979" cy="232.484" r="4" fill="#0" id="circle61"/>
	<circle cx="194.403" cy="514.28" r="4" fill="#0" id="circle62"/>
	<circle cx="198.211" cy="243.908" r="4" fill="#0" id="circle63"/>
	<circle cx="213.443" cy="514.28" r="4" fill="#0" id="circle64"/>
	<circle cx="217.251" cy="238.196" r="4" fill="#0" id="circle65"/>
	<circle cx="232.484" cy="514.28" r="4" fill="#0" id="circle66"/>
	<circle cx="236.292" cy="234.388" r="4" fill="#0" id="circle67"/>
	<circle cx="251.524" cy="514.28" r="4" fill="#0" id="circle68"/>
	<circle cx="255.332" cy="234.388" r="4" fill="#0" id="circle69"/>
	<circle cx="270.564" cy="514.28" r="4" fill="#0" id="circle70"/>
	<circle cx="274.372" cy="240.1" r="4" fill="#0" id="circle71"/>
	<circle cx="289.605" cy="514.28" r="4" fill="#0" id="circle72"/>
	<circle cx="293.413" cy="245.812" r="4" fill="#0" id="circle73"/>
	<circle cx="308.645" cy="514.28" r="4" fill="#0" id="circle74"/>
	<circle cx="310.549" cy="255.332" r="4" fill="#0" id="circle75"/>
	<circle cx="327.685" cy="264.852" r="4" fill="#0" id="circle76"/>
	<circle cx="327.685" cy="514.28" r="4" fill="#0" id="circle77"/>
	<circle cx="342.917" cy="276.276" r="4" fill="#0" id="circle78"/>
	<circle cx="346.726" cy="514.28" r="4" fill="#0" id="circle79"/>
	<circle cx="354.342" cy="291.509" r="4" fill="#0" id="circle80"/>
	<circle cx="365.766" cy="306.741" r="4" fill="#0" id="circle81"/>
	<circle cx="365.766" cy="514.28" r="4" fill="#0" id="circle82"/>
	<circle cx="373.382" cy="325.781" r="4" fill="#0" id="circle83"/>
	<circle cx="384.806" cy="514.28" r="4" fill="#0" id="circle84"/>
	<circle cx="388.614" cy="337.205" r="4" fill="#0" id="circle85"/>
	<circle cx="403.846" cy="514.28" r="4" fill="#0" id="circle86"/>
	<circle cx="407.655" cy="337.205" r="4" fill="#0" id="circle87"/>
	<circle cx="422.887" cy="514.28" r="4" fill="#0" id="circle88"/>
	<circle cx="426.695" cy="337.205" r="4" fill="#0" id="circle89"/>
	<circle cx="441.927" cy="514.28" r="4" fill="#0" id="circle90"/>
	<circle cx="445.735" cy="337.205" r="4" fill="#0" id="circle91"/>
	<circle cx="460.967" cy="514.28" r="4" fill="#0" id="circle92"/>
	<circle cx="464.775" cy="337.205" r="4" fill="#0" id="circle93"/>
	<circle cx="480.008" cy="514.28" r="4" fill="#0" id="circle94"/>
	<circle cx="483.816" cy="337.205" r="4" fill="#0" id="circle95"/>
	<circle cx="499.048" cy="514.28" r="4" fill="#0" id="circle96"/>
	<circle cx="502.856" cy="337.205" r="4" fill="#0" id="circle97"/>
	<circle cx="518.088" cy="514.28" r="4" fill="#0" id="circle98"/>
	<circle cx="521.896" cy="337.205" r="4" fill="#0" id="circle99"/>
	<circle cx="537.129" cy="514.28" r="4" fill="#0" id="circle100"/>
	<circle cx="540.937" cy="337.205" r="4" fill="#0" id="circle101"/>
	<circle cx="556.169" cy="514.28" r="4" fill="#0" id="circle102"/>
	<circle cx="559.977" cy="337.205" r="4" fill="#0" id="circle103"/>
	<circle cx="575.209" cy="514.28" r="4" fill="#0" id="circle104"/>
	<circle cx="579.017" cy="337.205" r="4" fill="#0" id="circle105"/>
	<circle cx="594.25" cy="514.28" r="4" fill="#0" id="circle106"/>
	<circle cx="598.058" cy="337.205" r="4" fill="#0" id="circle107"/>
	<circle cx="613.29" cy="514.28" r="4" fill="#0" id="circle108"/>
	<circle cx="617.098" cy="337.205" r="4" fill="#0" id="circle109"/>
	<circle cx="632.33" cy="514.28" r="4" fill="#0" id="circle110"/>
	<circle cx="636.138" cy="337.205" r="4" fill="#0" id="circle111"/>
	<circle cx="651.37" cy="514.28" r="4" fill="#0" id="circle112"/>
	<circle cx="655.179" cy="337.205" r="4" fill="#0" id="circle113"/>
	<circle cx="670.411" cy="514.28" r="4" fill="#0" id="circle114"/>
	<circle cx="674.219" cy="337.205" r="4" fill="#0" id="circle115"/>
	<circle cx="689.451" cy="514.28" r="4" fill="#0" id="circle116"/>
	<circle cx="693.259" cy="337.205" r="4" fill="#0" id="circle117"/>
	<circle cx="708.491" cy="514.28" r="4" fill="#0" id="circle118"/>
	<circle cx="712.299" cy="337.205" r="4" fill="#0" id="circle119"/>
	<circle cx="727.532" cy="514.28" r="4" fill="#0" id="circle120"/>
	<circle cx="731.34" cy="341.013" r="4" fill="#0" id="circle121"/>
	<circle cx="746.572" cy="514.28" r="4" fill="#0" id="circle122"/>
	<circle cx="750.38" cy="341.013" r="4" fill="#0" id="circle123"/>
	<circle cx="765.612" cy="514.28" r="4" fill="#0" id="circle124"/>
	<circle cx="769.42" cy="341.013" r="4" fill="#0" id="circle125"/>
	<circle cx="784.653" cy="514.28" r="4" fill="#0" id="circle126"/>
	<circle cx="788.461" cy="341.013" r="4" fill="#0" id="circle127"/>
	<circle cx="803.693" cy="514.28" r="4" fill="#0" id="circle128"/>
	<circle cx="807.501" cy="342.917" r="4" fill="#0" id="circle129"/>
	<circle cx="822.733" cy="514.28" r="4" fill="#0" id="circle130"/>
	<circle cx="826.541" cy="348.63" r="4" fill="#0" id="circle131"/>
	<circle cx="841.774" cy="514.28" r="4" fill="#0" id="circle132"/>
	<circle cx="845.582" cy="348.63" r="4" fill="#0" id="circle133"/>
	<circle cx="860.814" cy="514.28" r="4" fill="#0" id="circle134"/>
	<circle cx="864.622" cy="348.63" r="4" fill="#0" id="circle135"/>
	<circle cx="879.854" cy="514.28" r="4" fill="#0" id="circle136"/>
	<circle cx="883.662" cy="348.63" r="4" fill="#0" id="circle137"/>
	<circle cx="898.894" cy="337.205" r="4" fill="#0" id="circle138"/>
	<circle cx="898.894" cy="516.184" r="4" fill="#0" id="circle139"/>
	<circle cx="902.702" cy="535.225" r="4" fill="#0" id="circle140"/>
	<circle cx="902.702" cy="554.265" r="4" fill="#0" id="circle141"/>
	<circle cx="906.511" cy="573.305" r="4" fill="#0" id="circle142"/>
	<circle cx="908.415" cy="320.069" r="4" fill="#0" id="circle143"/>
	<circle cx="916.031" cy="590.441" r="4" fill="#0" id="circle144"/>
	<circle cx="923.647" cy="304.837" r="4" fill="#0" id="circle145"/>
	<circle cx="927.455" cy="565.689" r="4" fill="#0" id="circle146"/>
	<circle cx="929.359" cy="276.276" r="4" fill="#0" id="circle147"/>
	<circle cx="936.975" cy="257.236" r="4" fill="#0" id="circle148"/>
	<circle cx="938.879" cy="550.457" r="4" fill="#0" id="circle149"/>
	<circle cx="956.015" cy="257.236" r="4" fill="#0" id="circle150"/>
	<circle cx="957.919" cy="550.457" r="4" fill="#0" id="circle151"/>
	<circle cx="963.631" cy="569.497" r="4" fill="#0" id="circle152"/>
	<circle cx="965.536" cy="274.372" r="4" fill="#0" id="circle153"/>
	<circle cx="965.536" cy="293.413" r="4" fill="#0" id="circle154"/>
	<circle cx="973.152" cy="586.633" r="4" fill="#0" id="circle155"/>
	<circle cx="975.056" cy="310.549" r="4" fill="#0" id="circle156"/>
	<circle cx="984.576" cy="327.685" r="4" fill="#0" id="circle157"/>
	<circle cx="988.384" cy="500.952" r="4" fill="#0" id="circle158"/>
	<circle cx="988.384" cy="565.689" r="4" fill="#0" id="circle159"/>
	<circle cx="992.192" cy="346.726" r="4" fill="#0" id="circle160"/>
	<circle cx="992.192" cy="390.518" r="4" fill="#0" id="circle161"/>
	<circle cx="992.192" cy="409.559" r="4" fill="#0" id="circle162"/>
	<circle cx="992.192" cy="428.599" r="4" fill="#0" id="circle163"/>
	<circle cx="992.192" cy="447.639" r="4" fill="#0" id="circle164"/>
	<circle cx="992.192" cy="466.679" r="4" fill="#0" id="circle165"/>
	<circle cx="992.192" cy="519.992" r="4" fill="#0" id="circle166"/>
	<circle cx="992.192" cy="584.729" r="4" fill="#0" id="circle167"/>
	<circle cx="996" cy="365.766" r="4" fill="#0" id="circle168"/>
	<circle cx="996" cy="539.033" r="4" fill="#0" id="circle169"/>
	</g>
</svg>