<?xml version="1.0" encoding="UTF-8" standalone="no"?>
<!-- Created with CurveBenchmark -->
<svg
	xmlns:dc="http://purl.org/dc/elements/1.1/"
	xmlns:cc="http://creativecommons.org/ns#"
	xmlns:rdf="http://www.w3.org/1999/02/22-rdf-syntax-ns#"
	xmlns:svg="http://www.w3.org/2000/svg"
	xmlns="http://www.w3.org/2000/svg"
	xmlns:sodipodi="http://sodipodi.sourceforge.net/DTD/sodipodi-0.dtd"
	xmlns:inkscape="http://www.inkscape.org/namespaces/inkscape"
	width="1000"
	height="1000"
	id="svg2"
	version="1.1"
	sodipodi:docname="manifold/peel-television225.png.txt">
<defs
	id="defs4" />
<metadata
	id="metadata7">
	<rdf:RDF>
		<cc:Work
			rdf:about="">
			<dc:format>image/svg+xml</dc:format>
			<dc:type
				rdf:resource="http://purl.org/dc/dcmitype/StillImage" />
			<dc:title></dc:title>
		</cc:Work>
	</rdf:RDF>
</metadata>
<g
	inkscape:label="Layer 1"
	inkscape:groupmode="layer"
	id="layer1">
	<path style="fill:none;stroke:red;stroke-width:1px;stroke-linecap:butt;stroke-linejoin:miter;stroke-opacity:1" d="M 4,882.524 4,845.919 z" id="boundary" inkscape:connector-curvature="0" />
	<path style="fill:none;stroke:red;stroke-width:1px;stroke-linecap:butt;stroke-linejoin:miter;stroke-opacity:1" d="M 4,845.919 40.6052,838.598 z" id="boundary" inkscape:connector-curvature="0" />
	<path style="fill:none;stroke:red;stroke-width:1px;stroke-linecap:butt;stroke-linejoin:miter;stroke-opacity:1" d="M 58.9077,915.469 22.3026,915.469 z" id="boundary" inkscape:connector-curvature="0" />
	<path style="fill:none;stroke:red;stroke-width:1px;stroke-linecap:butt;stroke-linejoin:miter;stroke-opacity:1" d="M 40.6052,838.598 69.8893,860.561 z" id="boundary" inkscape:connector-curvature="0" />
	<path style="fill:none;stroke:red;stroke-width:1px;stroke-linecap:butt;stroke-linejoin:miter;stroke-opacity:1" d="M 4,882.524 22.3026,915.469 z" id="boundary" inkscape:connector-curvature="0" />
	<path style="fill:none;stroke:red;stroke-width:1px;stroke-linecap:butt;stroke-linejoin:miter;stroke-opacity:1" d="M 95.5129,915.469 58.9077,915.469 z" id="boundary" inkscape:connector-curvature="0" />
	<path style="fill:none;stroke:red;stroke-width:1px;stroke-linecap:butt;stroke-linejoin:miter;stroke-opacity:1" d="M 132.118,915.469 95.5129,915.469 z" id="boundary" inkscape:connector-curvature="0" />
	<path style="fill:none;stroke:red;stroke-width:1px;stroke-linecap:butt;stroke-linejoin:miter;stroke-opacity:1" d="M 69.8893,860.561 99.1734,838.598 z" id="boundary" inkscape:connector-curvature="0" />
	<path style="fill:none;stroke:red;stroke-width:1px;stroke-linecap:butt;stroke-linejoin:miter;stroke-opacity:1" d="M 99.1734,838.598 128.458,860.561 z" id="boundary" inkscape:connector-curvature="0" />
	<path style="fill:none;stroke:red;stroke-width:1px;stroke-linecap:butt;stroke-linejoin:miter;stroke-opacity:1" d="M 157.742,728.782 121.137,728.782 z" id="boundary" inkscape:connector-curvature="0" />
	<path style="fill:none;stroke:red;stroke-width:1px;stroke-linecap:butt;stroke-linejoin:miter;stroke-opacity:1" d="M 150.421,644.59 121.137,618.967 z" id="boundary" inkscape:connector-curvature="0" />
	<path style="fill:none;stroke:red;stroke-width:1px;stroke-linecap:butt;stroke-linejoin:miter;stroke-opacity:1" d="M 176.044,761.727 139.439,761.727 z" id="boundary" inkscape:connector-curvature="0" />
	<path style="fill:none;stroke:red;stroke-width:1px;stroke-linecap:butt;stroke-linejoin:miter;stroke-opacity:1" d="M 132.118,915.469 168.723,915.469 z" id="boundary" inkscape:connector-curvature="0" />
	<path style="fill:none;stroke:red;stroke-width:1px;stroke-linecap:butt;stroke-linejoin:miter;stroke-opacity:1" d="M 194.347,728.782 157.742,728.782 z" id="boundary" inkscape:connector-curvature="0" />
	<path style="fill:none;stroke:red;stroke-width:1px;stroke-linecap:butt;stroke-linejoin:miter;stroke-opacity:1" d="M 128.458,860.561 157.742,838.598 z" id="boundary" inkscape:connector-curvature="0" />
	<path style="fill:none;stroke:red;stroke-width:1px;stroke-linecap:butt;stroke-linejoin:miter;stroke-opacity:1" d="M 157.742,838.598 187.026,860.561 z" id="boundary" inkscape:connector-curvature="0" />
	<path style="fill:none;stroke:red;stroke-width:1px;stroke-linecap:butt;stroke-linejoin:miter;stroke-opacity:1" d="M 150.421,644.59 187.026,644.59 z" id="boundary" inkscape:connector-curvature="0" />
	<path style="fill:none;stroke:red;stroke-width:1px;stroke-linecap:butt;stroke-linejoin:miter;stroke-opacity:1" d="M 172.384,84.5314 172.384,121.137 z" id="boundary" inkscape:connector-curvature="0" />
	<path style="fill:none;stroke:red;stroke-width:1px;stroke-linecap:butt;stroke-linejoin:miter;stroke-opacity:1" d="M 172.384,84.5314 172.384,47.9262 z" id="boundary" inkscape:connector-curvature="0" />
	<path style="fill:none;stroke:red;stroke-width:1px;stroke-linecap:butt;stroke-linejoin:miter;stroke-opacity:1" d="M 172.384,47.9262 172.384,11.321 z" id="boundary" inkscape:connector-curvature="0" />
	<path style="fill:none;stroke:red;stroke-width:1px;stroke-linecap:butt;stroke-linejoin:miter;stroke-opacity:1" d="M 172.384,121.137 172.384,157.742 z" id="boundary" inkscape:connector-curvature="0" />
	<path style="fill:none;stroke:red;stroke-width:1px;stroke-linecap:butt;stroke-linejoin:miter;stroke-opacity:1" d="M 168.723,915.469 205.328,915.469 z" id="boundary" inkscape:connector-curvature="0" />
	<path style="fill:none;stroke:red;stroke-width:1px;stroke-linecap:butt;stroke-linejoin:miter;stroke-opacity:1" d="M 172.384,157.742 172.384,194.347 z" id="boundary" inkscape:connector-curvature="0" />
	<path style="fill:none;stroke:red;stroke-width:1px;stroke-linecap:butt;stroke-linejoin:miter;stroke-opacity:1" d="M 172.384,11.321 208.989,4 z" id="boundary" inkscape:connector-curvature="0" />
	<path style="fill:none;stroke:red;stroke-width:1px;stroke-linecap:butt;stroke-linejoin:miter;stroke-opacity:1" d="M 172.384,194.347 172.384,230.952 z" id="boundary" inkscape:connector-curvature="0" />
	<path style="fill:none;stroke:red;stroke-width:1px;stroke-linecap:butt;stroke-linejoin:miter;stroke-opacity:1" d="M 245.594,4 208.989,4 z" id="boundary" inkscape:connector-curvature="0" />
	<path style="fill:none;stroke:red;stroke-width:1px;stroke-linecap:butt;stroke-linejoin:miter;stroke-opacity:1" d="M 172.384,230.952 172.384,267.557 z" id="boundary" inkscape:connector-curvature="0" />
	<path style="fill:none;stroke:red;stroke-width:1px;stroke-linecap:butt;stroke-linejoin:miter;stroke-opacity:1" d="M 172.384,267.557 172.384,304.162 z" id="boundary" inkscape:connector-curvature="0" />
	<path style="fill:none;stroke:red;stroke-width:1px;stroke-linecap:butt;stroke-linejoin:miter;stroke-opacity:1" d="M 245.594,4 282.199,4 z" id="boundary" inkscape:connector-curvature="0" />
	<path style="fill:none;stroke:red;stroke-width:1px;stroke-linecap:butt;stroke-linejoin:miter;stroke-opacity:1" d="M 172.384,340.768 172.384,304.162 z" id="boundary" inkscape:connector-curvature="0" />
	<path style="fill:none;stroke:red;stroke-width:1px;stroke-linecap:butt;stroke-linejoin:miter;stroke-opacity:1" d="M 282.199,4 318.804,4 z" id="boundary" inkscape:connector-curvature="0" />
	<path style="fill:none;stroke:red;stroke-width:1px;stroke-linecap:butt;stroke-linejoin:miter;stroke-opacity:1" d="M 172.384,377.373 172.384,340.768 z" id="boundary" inkscape:connector-curvature="0" />
	<path style="fill:none;stroke:red;stroke-width:1px;stroke-linecap:butt;stroke-linejoin:miter;stroke-opacity:1" d="M 172.384,413.978 172.384,377.373 z" id="boundary" inkscape:connector-curvature="0" />
	<path style="fill:none;stroke:red;stroke-width:1px;stroke-linecap:butt;stroke-linejoin:miter;stroke-opacity:1" d="M 355.41,4 318.804,4 z" id="boundary" inkscape:connector-curvature="0" />
	<path style="fill:none;stroke:red;stroke-width:1px;stroke-linecap:butt;stroke-linejoin:miter;stroke-opacity:1" d="M 172.384,450.583 172.384,413.978 z" id="boundary" inkscape:connector-curvature="0" />
	<path style="fill:none;stroke:red;stroke-width:1px;stroke-linecap:butt;stroke-linejoin:miter;stroke-opacity:1" d="M 183.365,487.188 172.384,450.583 z" id="boundary" inkscape:connector-curvature="0" />
	<path style="fill:none;stroke:red;stroke-width:1px;stroke-linecap:butt;stroke-linejoin:miter;stroke-opacity:1" d="M 212.649,761.727 176.044,761.727 z" id="boundary" inkscape:connector-curvature="0" />
	<path style="fill:none;stroke:red;stroke-width:1px;stroke-linecap:butt;stroke-linejoin:miter;stroke-opacity:1" d="M 168.723,611.646 205.328,611.646 z" id="boundary" inkscape:connector-curvature="0" />
	<path style="fill:none;stroke:red;stroke-width:1px;stroke-linecap:butt;stroke-linejoin:miter;stroke-opacity:1" d="M 205.328,915.469 241.934,930.111 z" id="boundary" inkscape:connector-curvature="0" />
	<path style="fill:none;stroke:red;stroke-width:1px;stroke-linecap:butt;stroke-linejoin:miter;stroke-opacity:1" d="M 187.026,644.59 223.631,644.59 z" id="boundary" inkscape:connector-curvature="0" />
	<path style="fill:none;stroke:red;stroke-width:1px;stroke-linecap:butt;stroke-linejoin:miter;stroke-opacity:1" d="M 216.31,838.598 252.915,838.598 z" id="boundary" inkscape:connector-curvature="0" />
	<path style="fill:none;stroke:red;stroke-width:1px;stroke-linecap:butt;stroke-linejoin:miter;stroke-opacity:1" d="M 219.97,490.849 183.365,487.188 z" id="boundary" inkscape:connector-curvature="0" />
	<path style="fill:none;stroke:red;stroke-width:1px;stroke-linecap:butt;stroke-linejoin:miter;stroke-opacity:1" d="M 187.026,860.561 216.31,838.598 z" id="boundary" inkscape:connector-curvature="0" />
	<path style="fill:none;stroke:red;stroke-width:1px;stroke-linecap:butt;stroke-linejoin:miter;stroke-opacity:1" d="M 212.649,761.727 249.255,761.727 z" id="boundary" inkscape:connector-curvature="0" />
	<path style="fill:none;stroke:red;stroke-width:1px;stroke-linecap:butt;stroke-linejoin:miter;stroke-opacity:1" d="M 241.934,611.646 205.328,611.646 z" id="boundary" inkscape:connector-curvature="0" />
	<path style="fill:none;stroke:red;stroke-width:1px;stroke-linecap:butt;stroke-linejoin:miter;stroke-opacity:1" d="M 230.952,728.782 194.347,728.782 z" id="boundary" inkscape:connector-curvature="0" />
	<path style="fill:none;stroke:red;stroke-width:1px;stroke-linecap:butt;stroke-linejoin:miter;stroke-opacity:1" d="M 223.631,644.59 260.236,644.59 z" id="boundary" inkscape:connector-curvature="0" />
	<path style="fill:none;stroke:red;stroke-width:1px;stroke-linecap:butt;stroke-linejoin:miter;stroke-opacity:1" d="M 249.255,761.727 285.86,761.727 z" id="boundary" inkscape:connector-curvature="0" />
	<path style="fill:none;stroke:red;stroke-width:1px;stroke-linecap:butt;stroke-linejoin:miter;stroke-opacity:1" d="M 256.576,490.849 219.97,490.849 z" id="boundary" inkscape:connector-curvature="0" />
	<path style="fill:none;stroke:red;stroke-width:1px;stroke-linecap:butt;stroke-linejoin:miter;stroke-opacity:1" d="M 278.539,915.469 241.934,930.111 z" id="boundary" inkscape:connector-curvature="0" />
	<path style="fill:none;stroke:red;stroke-width:1px;stroke-linecap:butt;stroke-linejoin:miter;stroke-opacity:1" d="M 278.539,611.646 241.934,611.646 z" id="boundary" inkscape:connector-curvature="0" />
	<path style="fill:none;stroke:red;stroke-width:1px;stroke-linecap:butt;stroke-linejoin:miter;stroke-opacity:1" d="M 267.557,728.782 230.952,728.782 z" id="boundary" inkscape:connector-curvature="0" />
	<path style="fill:none;stroke:red;stroke-width:1px;stroke-linecap:butt;stroke-linejoin:miter;stroke-opacity:1" d="M 278.539,915.469 315.144,915.469 z" id="boundary" inkscape:connector-curvature="0" />
	<path style="fill:none;stroke:red;stroke-width:1px;stroke-linecap:butt;stroke-linejoin:miter;stroke-opacity:1" d="M 355.41,4 392.015,4 z" id="boundary" inkscape:connector-curvature="0" />
	<path style="fill:none;stroke:red;stroke-width:1px;stroke-linecap:butt;stroke-linejoin:miter;stroke-opacity:1" d="M 260.236,644.59 296.841,644.59 z" id="boundary" inkscape:connector-curvature="0" />
	<path style="fill:none;stroke:red;stroke-width:1px;stroke-linecap:butt;stroke-linejoin:miter;stroke-opacity:1" d="M 293.181,490.849 256.576,490.849 z" id="boundary" inkscape:connector-curvature="0" />
	<path style="fill:none;stroke:red;stroke-width:1px;stroke-linecap:butt;stroke-linejoin:miter;stroke-opacity:1" d="M 252.915,838.598 289.52,838.598 z" id="boundary" inkscape:connector-curvature="0" />
	<path style="fill:none;stroke:red;stroke-width:1px;stroke-linecap:butt;stroke-linejoin:miter;stroke-opacity:1" d="M 285.86,761.727 322.465,761.727 z" id="boundary" inkscape:connector-curvature="0" />
	<path style="fill:none;stroke:red;stroke-width:1px;stroke-linecap:butt;stroke-linejoin:miter;stroke-opacity:1" d="M 348.089,523.793 348.089,560.399 z" id="boundary" inkscape:connector-curvature="0" />
	<path style="fill:none;stroke:red;stroke-width:1px;stroke-linecap:butt;stroke-linejoin:miter;stroke-opacity:1" d="M 304.162,728.782 267.557,728.782 z" id="boundary" inkscape:connector-curvature="0" />
	<path style="fill:none;stroke:red;stroke-width:1px;stroke-linecap:butt;stroke-linejoin:miter;stroke-opacity:1" d="M 315.144,915.469 351.749,915.469 z" id="boundary" inkscape:connector-curvature="0" />
	<path style="fill:none;stroke:red;stroke-width:1px;stroke-linecap:butt;stroke-linejoin:miter;stroke-opacity:1" d="M 315.144,611.646 278.539,611.646 z" id="boundary" inkscape:connector-curvature="0" />
	<path style="fill:none;stroke:red;stroke-width:1px;stroke-linecap:butt;stroke-linejoin:miter;stroke-opacity:1" d="M 296.841,644.59 333.446,644.59 z" id="boundary" inkscape:connector-curvature="0" />
	<path style="fill:none;stroke:red;stroke-width:1px;stroke-linecap:butt;stroke-linejoin:miter;stroke-opacity:1" d="M 333.446,644.59 348.089,681.196 z" id="boundary" inkscape:connector-curvature="0" />
	<path style="fill:none;stroke:red;stroke-width:1px;stroke-linecap:butt;stroke-linejoin:miter;stroke-opacity:1" d="M 326.125,838.598 348.089,791.011 z" id="boundary" inkscape:connector-curvature="0" />
	<path style="fill:none;stroke:red;stroke-width:1px;stroke-linecap:butt;stroke-linejoin:miter;stroke-opacity:1" d="M 348.089,523.793 329.786,490.849 z" id="boundary" inkscape:connector-curvature="0" />
	<path style="fill:none;stroke:red;stroke-width:1px;stroke-linecap:butt;stroke-linejoin:miter;stroke-opacity:1" d="M 329.786,490.849 293.181,490.849 z" id="boundary" inkscape:connector-curvature="0" />
	<path style="fill:none;stroke:red;stroke-width:1px;stroke-linecap:butt;stroke-linejoin:miter;stroke-opacity:1" d="M 348.089,791.011 322.465,761.727 z" id="boundary" inkscape:connector-curvature="0" />
	<path style="fill:none;stroke:red;stroke-width:1px;stroke-linecap:butt;stroke-linejoin:miter;stroke-opacity:1" d="M 289.52,838.598 326.125,838.598 z" id="boundary" inkscape:connector-curvature="0" />
	<path style="fill:none;stroke:red;stroke-width:1px;stroke-linecap:butt;stroke-linejoin:miter;stroke-opacity:1" d="M 351.749,915.469 388.354,915.469 z" id="boundary" inkscape:connector-curvature="0" />
	<path style="fill:none;stroke:red;stroke-width:1px;stroke-linecap:butt;stroke-linejoin:miter;stroke-opacity:1" d="M 340.768,728.782 304.162,728.782 z" id="boundary" inkscape:connector-curvature="0" />
	<path style="fill:none;stroke:red;stroke-width:1px;stroke-linecap:butt;stroke-linejoin:miter;stroke-opacity:1" d="M 392.015,4 428.62,4 z" id="boundary" inkscape:connector-curvature="0" />
	<path style="fill:none;stroke:red;stroke-width:1px;stroke-linecap:butt;stroke-linejoin:miter;stroke-opacity:1" d="M 348.089,560.399 315.144,611.646 z" id="boundary" inkscape:connector-curvature="0" />
	<path style="fill:none;stroke:red;stroke-width:1px;stroke-linecap:butt;stroke-linejoin:miter;stroke-opacity:1" d="M 542.096,604.325 542.096,567.72 z" id="boundary" inkscape:connector-curvature="0" />
	<path style="fill:none;stroke:red;stroke-width:1px;stroke-linecap:butt;stroke-linejoin:miter;stroke-opacity:1" d="M 388.354,915.469 424.959,915.469 z" id="boundary" inkscape:connector-curvature="0" />
	<path style="fill:none;stroke:red;stroke-width:1px;stroke-linecap:butt;stroke-linejoin:miter;stroke-opacity:1" d="M 340.768,728.782 348.089,681.196 z" id="boundary" inkscape:connector-curvature="0" />
	<path style="fill:none;stroke:red;stroke-width:1px;stroke-linecap:butt;stroke-linejoin:miter;stroke-opacity:1" d="M 542.096,531.114 542.096,494.509 z" id="boundary" inkscape:connector-curvature="0" />
	<path style="fill:none;stroke:red;stroke-width:1px;stroke-linecap:butt;stroke-linejoin:miter;stroke-opacity:1" d="M 424.959,915.469 461.565,915.469 z" id="boundary" inkscape:connector-curvature="0" />
	<path style="fill:none;stroke:red;stroke-width:1px;stroke-linecap:butt;stroke-linejoin:miter;stroke-opacity:1" d="M 465.225,4 428.62,4 z" id="boundary" inkscape:connector-curvature="0" />
	<path style="fill:none;stroke:red;stroke-width:1px;stroke-linecap:butt;stroke-linejoin:miter;stroke-opacity:1" d="M 461.565,915.469 498.17,915.469 z" id="boundary" inkscape:connector-curvature="0" />
	<path style="fill:none;stroke:red;stroke-width:1px;stroke-linecap:butt;stroke-linejoin:miter;stroke-opacity:1" d="M 501.83,4 465.225,4 z" id="boundary" inkscape:connector-curvature="0" />
	<path style="fill:none;stroke:red;stroke-width:1px;stroke-linecap:butt;stroke-linejoin:miter;stroke-opacity:1" d="M 498.17,915.469 534.775,915.469 z" id="boundary" inkscape:connector-curvature="0" />
	<path style="fill:none;stroke:red;stroke-width:1px;stroke-linecap:butt;stroke-linejoin:miter;stroke-opacity:1" d="M 538.435,4 501.83,4 z" id="boundary" inkscape:connector-curvature="0" />
	<path style="fill:none;stroke:red;stroke-width:1px;stroke-linecap:butt;stroke-linejoin:miter;stroke-opacity:1" d="M 534.775,915.469 571.38,915.469 z" id="boundary" inkscape:connector-curvature="0" />
	<path style="fill:none;stroke:red;stroke-width:1px;stroke-linecap:butt;stroke-linejoin:miter;stroke-opacity:1" d="M 542.096,648.251 542.096,684.856 z" id="boundary" inkscape:connector-curvature="0" />
	<path style="fill:none;stroke:red;stroke-width:1px;stroke-linecap:butt;stroke-linejoin:miter;stroke-opacity:1" d="M 571.38,915.469 607.985,915.469 z" id="boundary" inkscape:connector-curvature="0" />
	<path style="fill:none;stroke:red;stroke-width:1px;stroke-linecap:butt;stroke-linejoin:miter;stroke-opacity:1" d="M 542.096,567.72 542.096,531.114 z" id="boundary" inkscape:connector-curvature="0" />
	<path style="fill:none;stroke:red;stroke-width:1px;stroke-linecap:butt;stroke-linejoin:miter;stroke-opacity:1" d="M 582.362,838.598 618.967,838.598 z" id="boundary" inkscape:connector-curvature="0" />
	<path style="fill:none;stroke:red;stroke-width:1px;stroke-linecap:butt;stroke-linejoin:miter;stroke-opacity:1" d="M 575.041,4 538.435,4 z" id="boundary" inkscape:connector-curvature="0" />
	<path style="fill:none;stroke:red;stroke-width:1px;stroke-linecap:butt;stroke-linejoin:miter;stroke-opacity:1" d="M 542.096,684.856 542.096,721.461 z" id="boundary" inkscape:connector-curvature="0" />
	<path style="fill:none;stroke:red;stroke-width:1px;stroke-linecap:butt;stroke-linejoin:miter;stroke-opacity:1" d="M 542.096,494.509 578.701,490.849 z" id="boundary" inkscape:connector-curvature="0" />
	<path style="fill:none;stroke:red;stroke-width:1px;stroke-linecap:butt;stroke-linejoin:miter;stroke-opacity:1" d="M 615.306,490.849 578.701,490.849 z" id="boundary" inkscape:connector-curvature="0" />
	<path style="fill:none;stroke:red;stroke-width:1px;stroke-linecap:butt;stroke-linejoin:miter;stroke-opacity:1" d="M 542.096,765.387 542.096,801.993 z" id="boundary" inkscape:connector-curvature="0" />
	<path style="fill:none;stroke:red;stroke-width:1px;stroke-linecap:butt;stroke-linejoin:miter;stroke-opacity:1" d="M 578.701,611.646 542.096,604.325 z" id="boundary" inkscape:connector-curvature="0" />
	<path style="fill:none;stroke:red;stroke-width:1px;stroke-linecap:butt;stroke-linejoin:miter;stroke-opacity:1" d="M 545.756,838.598 542.096,801.993 z" id="boundary" inkscape:connector-curvature="0" />
	<path style="fill:none;stroke:red;stroke-width:1px;stroke-linecap:butt;stroke-linejoin:miter;stroke-opacity:1" d="M 578.701,728.782 542.096,721.461 z" id="boundary" inkscape:connector-curvature="0" />
	<path style="fill:none;stroke:red;stroke-width:1px;stroke-linecap:butt;stroke-linejoin:miter;stroke-opacity:1" d="M 607.985,915.469 644.59,915.469 z" id="boundary" inkscape:connector-curvature="0" />
	<path style="fill:none;stroke:red;stroke-width:1px;stroke-linecap:butt;stroke-linejoin:miter;stroke-opacity:1" d="M 648.251,4 611.646,4 z" id="boundary" inkscape:connector-curvature="0" />
	<path style="fill:none;stroke:red;stroke-width:1px;stroke-linecap:butt;stroke-linejoin:miter;stroke-opacity:1" d="M 545.756,838.598 582.362,838.598 z" id="boundary" inkscape:connector-curvature="0" />
	<path style="fill:none;stroke:red;stroke-width:1px;stroke-linecap:butt;stroke-linejoin:miter;stroke-opacity:1" d="M 578.701,728.782 615.306,728.782 z" id="boundary" inkscape:connector-curvature="0" />
	<path style="fill:none;stroke:red;stroke-width:1px;stroke-linecap:butt;stroke-linejoin:miter;stroke-opacity:1" d="M 618.967,838.598 655.572,838.598 z" id="boundary" inkscape:connector-curvature="0" />
	<path style="fill:none;stroke:red;stroke-width:1px;stroke-linecap:butt;stroke-linejoin:miter;stroke-opacity:1" d="M 812.974,183.365 812.974,219.97 z" id="boundary" inkscape:connector-curvature="0" />
	<path style="fill:none;stroke:red;stroke-width:1px;stroke-linecap:butt;stroke-linejoin:miter;stroke-opacity:1" d="M 615.306,611.646 578.701,611.646 z" id="boundary" inkscape:connector-curvature="0" />
	<path style="fill:none;stroke:red;stroke-width:1px;stroke-linecap:butt;stroke-linejoin:miter;stroke-opacity:1" d="M 633.609,644.59 597.004,644.59 z" id="boundary" inkscape:connector-curvature="0" />
	<path style="fill:none;stroke:red;stroke-width:1px;stroke-linecap:butt;stroke-linejoin:miter;stroke-opacity:1" d="M 644.59,915.469 681.196,915.469 z" id="boundary" inkscape:connector-curvature="0" />
	<path style="fill:none;stroke:red;stroke-width:1px;stroke-linecap:butt;stroke-linejoin:miter;stroke-opacity:1" d="M 684.856,4 648.251,4 z" id="boundary" inkscape:connector-curvature="0" />
	<path style="fill:none;stroke:red;stroke-width:1px;stroke-linecap:butt;stroke-linejoin:miter;stroke-opacity:1" d="M 597.004,761.727 633.609,761.727 z" id="boundary" inkscape:connector-curvature="0" />
	<path style="fill:none;stroke:red;stroke-width:1px;stroke-linecap:butt;stroke-linejoin:miter;stroke-opacity:1" d="M 615.306,490.849 651.911,490.849 z" id="boundary" inkscape:connector-curvature="0" />
	<path style="fill:none;stroke:red;stroke-width:1px;stroke-linecap:butt;stroke-linejoin:miter;stroke-opacity:1" d="M 615.306,728.782 651.911,728.782 z" id="boundary" inkscape:connector-curvature="0" />
	<path style="fill:none;stroke:red;stroke-width:1px;stroke-linecap:butt;stroke-linejoin:miter;stroke-opacity:1" d="M 655.572,838.598 692.177,838.598 z" id="boundary" inkscape:connector-curvature="0" />
	<path style="fill:none;stroke:red;stroke-width:1px;stroke-linecap:butt;stroke-linejoin:miter;stroke-opacity:1" d="M 812.974,146.76 812.974,183.365 z" id="boundary" inkscape:connector-curvature="0" />
	<path style="fill:none;stroke:red;stroke-width:1px;stroke-linecap:butt;stroke-linejoin:miter;stroke-opacity:1" d="M 651.911,611.646 615.306,611.646 z" id="boundary" inkscape:connector-curvature="0" />
	<path style="fill:none;stroke:red;stroke-width:1px;stroke-linecap:butt;stroke-linejoin:miter;stroke-opacity:1" d="M 670.214,644.59 633.609,644.59 z" id="boundary" inkscape:connector-curvature="0" />
	<path style="fill:none;stroke:red;stroke-width:1px;stroke-linecap:butt;stroke-linejoin:miter;stroke-opacity:1" d="M 681.196,915.469 717.801,915.469 z" id="boundary" inkscape:connector-curvature="0" />
	<path style="fill:none;stroke:red;stroke-width:1px;stroke-linecap:butt;stroke-linejoin:miter;stroke-opacity:1" d="M 717.801,915.469 754.406,926.45 z" id="boundary" inkscape:connector-curvature="0" />
	<path style="fill:none;stroke:red;stroke-width:1px;stroke-linecap:butt;stroke-linejoin:miter;stroke-opacity:1" d="M 721.461,4 684.856,4 z" id="boundary" inkscape:connector-curvature="0" />
	<path style="fill:none;stroke:red;stroke-width:1px;stroke-linecap:butt;stroke-linejoin:miter;stroke-opacity:1" d="M 633.609,761.727 670.214,761.727 z" id="boundary" inkscape:connector-curvature="0" />
	<path style="fill:none;stroke:red;stroke-width:1px;stroke-linecap:butt;stroke-linejoin:miter;stroke-opacity:1" d="M 651.911,490.849 688.517,490.849 z" id="boundary" inkscape:connector-curvature="0" />
	<path style="fill:none;stroke:red;stroke-width:1px;stroke-linecap:butt;stroke-linejoin:miter;stroke-opacity:1" d="M 651.911,728.782 688.517,728.782 z" id="boundary" inkscape:connector-curvature="0" />
	<path style="fill:none;stroke:red;stroke-width:1px;stroke-linecap:butt;stroke-linejoin:miter;stroke-opacity:1" d="M 692.177,838.598 728.782,838.598 z" id="boundary" inkscape:connector-curvature="0" />
	<path style="fill:none;stroke:red;stroke-width:1px;stroke-linecap:butt;stroke-linejoin:miter;stroke-opacity:1" d="M 812.974,110.155 812.974,146.76 z" id="boundary" inkscape:connector-curvature="0" />
	<path style="fill:none;stroke:red;stroke-width:1px;stroke-linecap:butt;stroke-linejoin:miter;stroke-opacity:1" d="M 688.517,611.646 651.911,611.646 z" id="boundary" inkscape:connector-curvature="0" />
	<path style="fill:none;stroke:red;stroke-width:1px;stroke-linecap:butt;stroke-linejoin:miter;stroke-opacity:1" d="M 706.819,644.59 670.214,644.59 z" id="boundary" inkscape:connector-curvature="0" />
	<path style="fill:none;stroke:red;stroke-width:1px;stroke-linecap:butt;stroke-linejoin:miter;stroke-opacity:1" d="M 758.066,4 721.461,4 z" id="boundary" inkscape:connector-curvature="0" />
	<path style="fill:none;stroke:red;stroke-width:1px;stroke-linecap:butt;stroke-linejoin:miter;stroke-opacity:1" d="M 670.214,761.727 706.819,761.727 z" id="boundary" inkscape:connector-curvature="0" />
	<path style="fill:none;stroke:red;stroke-width:1px;stroke-linecap:butt;stroke-linejoin:miter;stroke-opacity:1" d="M 688.517,490.849 725.122,490.849 z" id="boundary" inkscape:connector-curvature="0" />
	<path style="fill:none;stroke:red;stroke-width:1px;stroke-linecap:butt;stroke-linejoin:miter;stroke-opacity:1" d="M 688.517,728.782 725.122,728.782 z" id="boundary" inkscape:connector-curvature="0" />
	<path style="fill:none;stroke:red;stroke-width:1px;stroke-linecap:butt;stroke-linejoin:miter;stroke-opacity:1" d="M 728.782,838.598 765.387,838.598 z" id="boundary" inkscape:connector-curvature="0" />
	<path style="fill:none;stroke:red;stroke-width:1px;stroke-linecap:butt;stroke-linejoin:miter;stroke-opacity:1" d="M 812.974,73.5498 812.974,110.155 z" id="boundary" inkscape:connector-curvature="0" />
	<path style="fill:none;stroke:red;stroke-width:1px;stroke-linecap:butt;stroke-linejoin:miter;stroke-opacity:1" d="M 725.122,611.646 688.517,611.646 z" id="boundary" inkscape:connector-curvature="0" />
	<path style="fill:none;stroke:red;stroke-width:1px;stroke-linecap:butt;stroke-linejoin:miter;stroke-opacity:1" d="M 743.424,644.59 706.819,644.59 z" id="boundary" inkscape:connector-curvature="0" />
	<path style="fill:none;stroke:red;stroke-width:1px;stroke-linecap:butt;stroke-linejoin:miter;stroke-opacity:1" d="M 812.974,36.9446 812.974,73.5498 z" id="boundary" inkscape:connector-curvature="0" />
	<path style="fill:none;stroke:red;stroke-width:1px;stroke-linecap:butt;stroke-linejoin:miter;stroke-opacity:1" d="M 706.819,761.727 743.424,761.727 z" id="boundary" inkscape:connector-curvature="0" />
	<path style="fill:none;stroke:red;stroke-width:1px;stroke-linecap:butt;stroke-linejoin:miter;stroke-opacity:1" d="M 725.122,490.849 761.727,490.849 z" id="boundary" inkscape:connector-curvature="0" />
	<path style="fill:none;stroke:red;stroke-width:1px;stroke-linecap:butt;stroke-linejoin:miter;stroke-opacity:1" d="M 725.122,728.782 761.727,728.782 z" id="boundary" inkscape:connector-curvature="0" />
	<path style="fill:none;stroke:red;stroke-width:1px;stroke-linecap:butt;stroke-linejoin:miter;stroke-opacity:1" d="M 816.635,761.727 780.03,761.727 z" id="boundary" inkscape:connector-curvature="0" />
	<path style="fill:none;stroke:red;stroke-width:1px;stroke-linecap:butt;stroke-linejoin:miter;stroke-opacity:1" d="M 575.041,4 611.646,4 z" id="boundary" inkscape:connector-curvature="0" />
	<path style="fill:none;stroke:red;stroke-width:1px;stroke-linecap:butt;stroke-linejoin:miter;stroke-opacity:1" d="M 761.727,611.646 725.122,611.646 z" id="boundary" inkscape:connector-curvature="0" />
	<path style="fill:none;stroke:red;stroke-width:1px;stroke-linecap:butt;stroke-linejoin:miter;stroke-opacity:1" d="M 780.03,644.59 743.424,644.59 z" id="boundary" inkscape:connector-curvature="0" />
	<path style="fill:none;stroke:red;stroke-width:1px;stroke-linecap:butt;stroke-linejoin:miter;stroke-opacity:1" d="M 791.011,915.469 827.616,915.469 z" id="boundary" inkscape:connector-curvature="0" />
	<path style="fill:none;stroke:red;stroke-width:1px;stroke-linecap:butt;stroke-linejoin:miter;stroke-opacity:1" d="M 791.011,915.469 754.406,926.45 z" id="boundary" inkscape:connector-curvature="0" />
	<path style="fill:none;stroke:red;stroke-width:1px;stroke-linecap:butt;stroke-linejoin:miter;stroke-opacity:1" d="M 812.974,36.9446 794.672,4 z" id="boundary" inkscape:connector-curvature="0" />
	<path style="fill:none;stroke:red;stroke-width:1px;stroke-linecap:butt;stroke-linejoin:miter;stroke-opacity:1" d="M 794.672,4 758.066,4 z" id="boundary" inkscape:connector-curvature="0" />
	<path style="fill:none;stroke:red;stroke-width:1px;stroke-linecap:butt;stroke-linejoin:miter;stroke-opacity:1" d="M 743.424,761.727 780.03,761.727 z" id="boundary" inkscape:connector-curvature="0" />
	<path style="fill:none;stroke:red;stroke-width:1px;stroke-linecap:butt;stroke-linejoin:miter;stroke-opacity:1" d="M 761.727,490.849 798.332,490.849 z" id="boundary" inkscape:connector-curvature="0" />
	<path style="fill:none;stroke:red;stroke-width:1px;stroke-linecap:butt;stroke-linejoin:miter;stroke-opacity:1" d="M 761.727,728.782 798.332,728.782 z" id="boundary" inkscape:connector-curvature="0" />
	<path style="fill:none;stroke:red;stroke-width:1px;stroke-linecap:butt;stroke-linejoin:miter;stroke-opacity:1" d="M 812.974,256.576 812.974,219.97 z" id="boundary" inkscape:connector-curvature="0" />
	<path style="fill:none;stroke:red;stroke-width:1px;stroke-linecap:butt;stroke-linejoin:miter;stroke-opacity:1" d="M 765.387,838.598 794.672,860.561 z" id="boundary" inkscape:connector-curvature="0" />
	<path style="fill:none;stroke:red;stroke-width:1px;stroke-linecap:butt;stroke-linejoin:miter;stroke-opacity:1" d="M 816.635,644.59 780.03,644.59 z" id="boundary" inkscape:connector-curvature="0" />
	<path style="fill:none;stroke:red;stroke-width:1px;stroke-linecap:butt;stroke-linejoin:miter;stroke-opacity:1" d="M 798.332,611.646 761.727,611.646 z" id="boundary" inkscape:connector-curvature="0" />
	<path style="fill:none;stroke:red;stroke-width:1px;stroke-linecap:butt;stroke-linejoin:miter;stroke-opacity:1" d="M 812.974,402.996 812.974,366.391 z" id="boundary" inkscape:connector-curvature="0" />
	<path style="fill:none;stroke:red;stroke-width:1px;stroke-linecap:butt;stroke-linejoin:miter;stroke-opacity:1" d="M 827.616,915.469 864.221,915.469 z" id="boundary" inkscape:connector-curvature="0" />
	<path style="fill:none;stroke:red;stroke-width:1px;stroke-linecap:butt;stroke-linejoin:miter;stroke-opacity:1" d="M 812.974,293.181 812.974,256.576 z" id="boundary" inkscape:connector-curvature="0" />
	<path style="fill:none;stroke:red;stroke-width:1px;stroke-linecap:butt;stroke-linejoin:miter;stroke-opacity:1" d="M 864.221,915.469 900.827,915.469 z" id="boundary" inkscape:connector-curvature="0" />
	<path style="fill:none;stroke:red;stroke-width:1px;stroke-linecap:butt;stroke-linejoin:miter;stroke-opacity:1" d="M 900.827,915.469 937.432,930.111 z" id="boundary" inkscape:connector-curvature="0" />
	<path style="fill:none;stroke:red;stroke-width:1px;stroke-linecap:butt;stroke-linejoin:miter;stroke-opacity:1" d="M 812.974,293.181 812.974,329.786 z" id="boundary" inkscape:connector-curvature="0" />
	<path style="fill:none;stroke:red;stroke-width:1px;stroke-linecap:butt;stroke-linejoin:miter;stroke-opacity:1" d="M 812.974,366.391 812.974,329.786 z" id="boundary" inkscape:connector-curvature="0" />
	<path style="fill:none;stroke:red;stroke-width:1px;stroke-linecap:butt;stroke-linejoin:miter;stroke-opacity:1" d="M 812.974,439.601 812.974,402.996 z" id="boundary" inkscape:connector-curvature="0" />
	<path style="fill:none;stroke:red;stroke-width:1px;stroke-linecap:butt;stroke-linejoin:miter;stroke-opacity:1" d="M 798.332,490.849 812.974,439.601 z" id="boundary" inkscape:connector-curvature="0" />
	<path style="fill:none;stroke:red;stroke-width:1px;stroke-linecap:butt;stroke-linejoin:miter;stroke-opacity:1" d="M 834.937,611.646 798.332,611.646 z" id="boundary" inkscape:connector-curvature="0" />
	<path style="fill:none;stroke:red;stroke-width:1px;stroke-linecap:butt;stroke-linejoin:miter;stroke-opacity:1" d="M 798.332,728.782 834.937,728.782 z" id="boundary" inkscape:connector-curvature="0" />
	<path style="fill:none;stroke:red;stroke-width:1px;stroke-linecap:butt;stroke-linejoin:miter;stroke-opacity:1" d="M 794.672,860.561 823.956,838.598 z" id="boundary" inkscape:connector-curvature="0" />
	<path style="fill:none;stroke:red;stroke-width:1px;stroke-linecap:butt;stroke-linejoin:miter;stroke-opacity:1" d="M 823.956,838.598 853.24,860.561 z" id="boundary" inkscape:connector-curvature="0" />
	<path style="fill:none;stroke:red;stroke-width:1px;stroke-linecap:butt;stroke-linejoin:miter;stroke-opacity:1" d="M 853.24,644.59 816.635,644.59 z" id="boundary" inkscape:connector-curvature="0" />
	<path style="fill:none;stroke:red;stroke-width:1px;stroke-linecap:butt;stroke-linejoin:miter;stroke-opacity:1" d="M 853.24,761.727 816.635,761.727 z" id="boundary" inkscape:connector-curvature="0" />
	<path style="fill:none;stroke:red;stroke-width:1px;stroke-linecap:butt;stroke-linejoin:miter;stroke-opacity:1" d="M 834.937,611.646 871.542,611.646 z" id="boundary" inkscape:connector-curvature="0" />
	<path style="fill:none;stroke:red;stroke-width:1px;stroke-linecap:butt;stroke-linejoin:miter;stroke-opacity:1" d="M 834.937,728.782 871.542,728.782 z" id="boundary" inkscape:connector-curvature="0" />
	<path style="fill:none;stroke:red;stroke-width:1px;stroke-linecap:butt;stroke-linejoin:miter;stroke-opacity:1" d="M 889.845,644.59 853.24,644.59 z" id="boundary" inkscape:connector-curvature="0" />
	<path style="fill:none;stroke:red;stroke-width:1px;stroke-linecap:butt;stroke-linejoin:miter;stroke-opacity:1" d="M 889.845,761.727 853.24,761.727 z" id="boundary" inkscape:connector-curvature="0" />
	<path style="fill:none;stroke:red;stroke-width:1px;stroke-linecap:butt;stroke-linejoin:miter;stroke-opacity:1" d="M 853.24,860.561 882.524,838.598 z" id="boundary" inkscape:connector-curvature="0" />
	<path style="fill:none;stroke:red;stroke-width:1px;stroke-linecap:butt;stroke-linejoin:miter;stroke-opacity:1" d="M 871.542,728.782 908.148,728.782 z" id="boundary" inkscape:connector-curvature="0" />
	<path style="fill:none;stroke:red;stroke-width:1px;stroke-linecap:butt;stroke-linejoin:miter;stroke-opacity:1" d="M 871.542,611.646 908.148,611.646 z" id="boundary" inkscape:connector-curvature="0" />
	<path style="fill:none;stroke:red;stroke-width:1px;stroke-linecap:butt;stroke-linejoin:miter;stroke-opacity:1" d="M 889.845,761.727 926.45,761.727 z" id="boundary" inkscape:connector-curvature="0" />
	<path style="fill:none;stroke:red;stroke-width:1px;stroke-linecap:butt;stroke-linejoin:miter;stroke-opacity:1" d="M 926.45,644.59 889.845,644.59 z" id="boundary" inkscape:connector-curvature="0" />
	<path style="fill:none;stroke:red;stroke-width:1px;stroke-linecap:butt;stroke-linejoin:miter;stroke-opacity:1" d="M 882.524,838.598 919.129,838.598 z" id="boundary" inkscape:connector-curvature="0" />
	<path style="fill:none;stroke:red;stroke-width:1px;stroke-linecap:butt;stroke-linejoin:miter;stroke-opacity:1" d="M 908.148,728.782 944.753,728.782 z" id="boundary" inkscape:connector-curvature="0" />
	<path style="fill:none;stroke:red;stroke-width:1px;stroke-linecap:butt;stroke-linejoin:miter;stroke-opacity:1" d="M 908.148,611.646 944.753,611.646 z" id="boundary" inkscape:connector-curvature="0" />
	<path style="fill:none;stroke:red;stroke-width:1px;stroke-linecap:butt;stroke-linejoin:miter;stroke-opacity:1" d="M 919.129,838.598 955.734,838.598 z" id="boundary" inkscape:connector-curvature="0" />
	<path style="fill:none;stroke:red;stroke-width:1px;stroke-linecap:butt;stroke-linejoin:miter;stroke-opacity:1" d="M 974.037,915.469 937.432,930.111 z" id="boundary" inkscape:connector-curvature="0" />
	<path style="fill:none;stroke:red;stroke-width:1px;stroke-linecap:butt;stroke-linejoin:miter;stroke-opacity:1" d="M 955.734,838.598 992.339,842.258 z" id="boundary" inkscape:connector-curvature="0" />
	<path style="fill:none;stroke:red;stroke-width:1px;stroke-linecap:butt;stroke-linejoin:miter;stroke-opacity:1" d="M 992.339,842.258 996,878.863 z" id="boundary" inkscape:connector-curvature="0" />
	<path style="fill:none;stroke:red;stroke-width:1px;stroke-linecap:butt;stroke-linejoin:miter;stroke-opacity:1" d="M 996,878.863 974.037,915.469 z" id="boundary" inkscape:connector-curvature="0" />
	<circle cx="4" cy="845.919" r="4" fill="#0" id="circle0"/>
	<circle cx="4" cy="882.524" r="4" fill="#0" id="circle1"/>
	<circle cx="22.3026" cy="915.469" r="4" fill="#0" id="circle2"/>
	<circle cx="40.6052" cy="838.598" r="4" fill="#0" id="circle3"/>
	<circle cx="58.9077" cy="915.469" r="4" fill="#0" id="circle4"/>
	<circle cx="69.8893" cy="860.561" r="4" fill="#0" id="circle5"/>
	<circle cx="95.5129" cy="915.469" r="4" fill="#0" id="circle6"/>
	<circle cx="99.1734" cy="838.598" r="4" fill="#0" id="circle7"/>
	<circle cx="121.137" cy="618.967" r="4" fill="#0" id="circle8"/>
	<circle cx="121.137" cy="728.782" r="4" fill="#0" id="circle9"/>
	<circle cx="128.458" cy="860.561" r="4" fill="#0" id="circle10"/>
	<circle cx="132.118" cy="915.469" r="4" fill="#0" id="circle11"/>
	<circle cx="139.439" cy="761.727" r="4" fill="#0" id="circle12"/>
	<circle cx="150.421" cy="644.59" r="4" fill="#0" id="circle13"/>
	<circle cx="157.742" cy="728.782" r="4" fill="#0" id="circle14"/>
	<circle cx="157.742" cy="838.598" r="4" fill="#0" id="circle15"/>
	<circle cx="168.723" cy="611.646" r="4" fill="#0" id="circle16"/>
	<circle cx="168.723" cy="915.469" r="4" fill="#0" id="circle17"/>
	<circle cx="172.384" cy="11.321" r="4" fill="#0" id="circle18"/>
	<circle cx="172.384" cy="47.9262" r="4" fill="#0" id="circle19"/>
	<circle cx="172.384" cy="84.5314" r="4" fill="#0" id="circle20"/>
	<circle cx="172.384" cy="121.137" r="4" fill="#0" id="circle21"/>
	<circle cx="172.384" cy="157.742" r="4" fill="#0" id="circle22"/>
	<circle cx="172.384" cy="194.347" r="4" fill="#0" id="circle23"/>
	<circle cx="172.384" cy="230.952" r="4" fill="#0" id="circle24"/>
	<circle cx="172.384" cy="267.557" r="4" fill="#0" id="circle25"/>
	<circle cx="172.384" cy="304.162" r="4" fill="#0" id="circle26"/>
	<circle cx="172.384" cy="340.768" r="4" fill="#0" id="circle27"/>
	<circle cx="172.384" cy="377.373" r="4" fill="#0" id="circle28"/>
	<circle cx="172.384" cy="413.978" r="4" fill="#0" id="circle29"/>
	<circle cx="172.384" cy="450.583" r="4" fill="#0" id="circle30"/>
	<circle cx="176.044" cy="761.727" r="4" fill="#0" id="circle31"/>
	<circle cx="183.365" cy="487.188" r="4" fill="#0" id="circle32"/>
	<circle cx="187.026" cy="644.59" r="4" fill="#0" id="circle33"/>
	<circle cx="187.026" cy="860.561" r="4" fill="#0" id="circle34"/>
	<circle cx="194.347" cy="728.782" r="4" fill="#0" id="circle35"/>
	<circle cx="205.328" cy="611.646" r="4" fill="#0" id="circle36"/>
	<circle cx="205.328" cy="915.469" r="4" fill="#0" id="circle37"/>
	<circle cx="208.989" cy="4" r="4" fill="#0" id="circle38"/>
	<circle cx="212.649" cy="761.727" r="4" fill="#0" id="circle39"/>
	<circle cx="216.31" cy="838.598" r="4" fill="#0" id="circle40"/>
	<circle cx="219.97" cy="490.849" r="4" fill="#0" id="circle41"/>
	<circle cx="223.631" cy="644.59" r="4" fill="#0" id="circle42"/>
	<circle cx="230.952" cy="728.782" r="4" fill="#0" id="circle43"/>
	<circle cx="241.934" cy="611.646" r="4" fill="#0" id="circle44"/>
	<circle cx="241.934" cy="930.111" r="4" fill="#0" id="circle45"/>
	<circle cx="245.594" cy="4" r="4" fill="#0" id="circle46"/>
	<circle cx="249.255" cy="761.727" r="4" fill="#0" id="circle47"/>
	<circle cx="252.915" cy="838.598" r="4" fill="#0" id="circle48"/>
	<circle cx="256.576" cy="490.849" r="4" fill="#0" id="circle49"/>
	<circle cx="260.236" cy="644.59" r="4" fill="#0" id="circle50"/>
	<circle cx="267.557" cy="728.782" r="4" fill="#0" id="circle51"/>
	<circle cx="278.539" cy="611.646" r="4" fill="#0" id="circle52"/>
	<circle cx="278.539" cy="915.469" r="4" fill="#0" id="circle53"/>
	<circle cx="282.199" cy="4" r="4" fill="#0" id="circle54"/>
	<circle cx="285.86" cy="761.727" r="4" fill="#0" id="circle55"/>
	<circle cx="289.52" cy="838.598" r="4" fill="#0" id="circle56"/>
	<circle cx="293.181" cy="490.849" r="4" fill="#0" id="circle57"/>
	<circle cx="296.841" cy="644.59" r="4" fill="#0" id="circle58"/>
	<circle cx="304.162" cy="728.782" r="4" fill="#0" id="circle59"/>
	<circle cx="315.144" cy="611.646" r="4" fill="#0" id="circle60"/>
	<circle cx="315.144" cy="915.469" r="4" fill="#0" id="circle61"/>
	<circle cx="318.804" cy="4" r="4" fill="#0" id="circle62"/>
	<circle cx="322.465" cy="761.727" r="4" fill="#0" id="circle63"/>
	<circle cx="326.125" cy="838.598" r="4" fill="#0" id="circle64"/>
	<circle cx="329.786" cy="490.849" r="4" fill="#0" id="circle65"/>
	<circle cx="333.446" cy="644.59" r="4" fill="#0" id="circle66"/>
	<circle cx="340.768" cy="728.782" r="4" fill="#0" id="circle67"/>
	<circle cx="348.089" cy="523.793" r="4" fill="#0" id="circle68"/>
	<circle cx="348.089" cy="560.399" r="4" fill="#0" id="circle69"/>
	<circle cx="348.089" cy="681.196" r="4" fill="#0" id="circle70"/>
	<circle cx="348.089" cy="791.011" r="4" fill="#0" id="circle71"/>
	<circle cx="351.749" cy="915.469" r="4" fill="#0" id="circle72"/>
	<circle cx="355.41" cy="4" r="4" fill="#0" id="circle73"/>
	<circle cx="388.354" cy="915.469" r="4" fill="#0" id="circle74"/>
	<circle cx="392.015" cy="4" r="4" fill="#0" id="circle75"/>
	<circle cx="424.959" cy="915.469" r="4" fill="#0" id="circle76"/>
	<circle cx="428.62" cy="4" r="4" fill="#0" id="circle77"/>
	<circle cx="461.565" cy="915.469" r="4" fill="#0" id="circle78"/>
	<circle cx="465.225" cy="4" r="4" fill="#0" id="circle79"/>
	<circle cx="498.17" cy="915.469" r="4" fill="#0" id="circle80"/>
	<circle cx="501.83" cy="4" r="4" fill="#0" id="circle81"/>
	<circle cx="534.775" cy="915.469" r="4" fill="#0" id="circle82"/>
	<circle cx="538.435" cy="4" r="4" fill="#0" id="circle83"/>
	<circle cx="542.096" cy="494.509" r="4" fill="#0" id="circle84"/>
	<circle cx="542.096" cy="531.114" r="4" fill="#0" id="circle85"/>
	<circle cx="542.096" cy="567.72" r="4" fill="#0" id="circle86"/>
	<circle cx="542.096" cy="604.325" r="4" fill="#0" id="circle87"/>
	<circle cx="542.096" cy="648.251" r="4" fill="#0" id="circle88"/>
	<circle cx="542.096" cy="684.856" r="4" fill="#0" id="circle89"/>
	<circle cx="542.096" cy="721.461" r="4" fill="#0" id="circle90"/>
	<circle cx="542.096" cy="765.387" r="4" fill="#0" id="circle91"/>
	<circle cx="542.096" cy="801.993" r="4" fill="#0" id="circle92"/>
	<circle cx="545.756" cy="838.598" r="4" fill="#0" id="circle93"/>
	<circle cx="571.38" cy="915.469" r="4" fill="#0" id="circle94"/>
	<circle cx="575.041" cy="4" r="4" fill="#0" id="circle95"/>
	<circle cx="578.701" cy="490.849" r="4" fill="#0" id="circle96"/>
	<circle cx="578.701" cy="611.646" r="4" fill="#0" id="circle97"/>
	<circle cx="578.701" cy="728.782" r="4" fill="#0" id="circle98"/>
	<circle cx="582.362" cy="838.598" r="4" fill="#0" id="circle99"/>
	<circle cx="597.004" cy="644.59" r="4" fill="#0" id="circle100"/>
	<circle cx="597.004" cy="761.727" r="4" fill="#0" id="circle101"/>
	<circle cx="607.985" cy="915.469" r="4" fill="#0" id="circle102"/>
	<circle cx="611.646" cy="4" r="4" fill="#0" id="circle103"/>
	<circle cx="615.306" cy="490.849" r="4" fill="#0" id="circle104"/>
	<circle cx="615.306" cy="611.646" r="4" fill="#0" id="circle105"/>
	<circle cx="615.306" cy="728.782" r="4" fill="#0" id="circle106"/>
	<circle cx="618.967" cy="838.598" r="4" fill="#0" id="circle107"/>
	<circle cx="633.609" cy="644.59" r="4" fill="#0" id="circle108"/>
	<circle cx="633.609" cy="761.727" r="4" fill="#0" id="circle109"/>
	<circle cx="644.59" cy="915.469" r="4" fill="#0" id="circle110"/>
	<circle cx="648.251" cy="4" r="4" fill="#0" id="circle111"/>
	<circle cx="651.911" cy="490.849" r="4" fill="#0" id="circle112"/>
	<circle cx="651.911" cy="611.646" r="4" fill="#0" id="circle113"/>
	<circle cx="651.911" cy="728.782" r="4" fill="#0" id="circle114"/>
	<circle cx="655.572" cy="838.598" r="4" fill="#0" id="circle115"/>
	<circle cx="670.214" cy="644.59" r="4" fill="#0" id="circle116"/>
	<circle cx="670.214" cy="761.727" r="4" fill="#0" id="circle117"/>
	<circle cx="681.196" cy="915.469" r="4" fill="#0" id="circle118"/>
	<circle cx="684.856" cy="4" r="4" fill="#0" id="circle119"/>
	<circle cx="688.517" cy="490.849" r="4" fill="#0" id="circle120"/>
	<circle cx="688.517" cy="611.646" r="4" fill="#0" id="circle121"/>
	<circle cx="688.517" cy="728.782" r="4" fill="#0" id="circle122"/>
	<circle cx="692.177" cy="838.598" r="4" fill="#0" id="circle123"/>
	<circle cx="706.819" cy="644.59" r="4" fill="#0" id="circle124"/>
	<circle cx="706.819" cy="761.727" r="4" fill="#0" id="circle125"/>
	<circle cx="717.801" cy="915.469" r="4" fill="#0" id="circle126"/>
	<circle cx="721.461" cy="4" r="4" fill="#0" id="circle127"/>
	<circle cx="725.122" cy="490.849" r="4" fill="#0" id="circle128"/>
	<circle cx="725.122" cy="611.646" r="4" fill="#0" id="circle129"/>
	<circle cx="725.122" cy="728.782" r="4" fill="#0" id="circle130"/>
	<circle cx="728.782" cy="838.598" r="4" fill="#0" id="circle131"/>
	<circle cx="743.424" cy="644.59" r="4" fill="#0" id="circle132"/>
	<circle cx="743.424" cy="761.727" r="4" fill="#0" id="circle133"/>
	<circle cx="754.406" cy="926.45" r="4" fill="#0" id="circle134"/>
	<circle cx="758.066" cy="4" r="4" fill="#0" id="circle135"/>
	<circle cx="761.727" cy="490.849" r="4" fill="#0" id="circle136"/>
	<circle cx="761.727" cy="611.646" r="4" fill="#0" id="circle137"/>
	<circle cx="761.727" cy="728.782" r="4" fill="#0" id="circle138"/>
	<circle cx="765.387" cy="838.598" r="4" fill="#0" id="circle139"/>
	<circle cx="780.03" cy="644.59" r="4" fill="#0" id="circle140"/>
	<circle cx="780.03" cy="761.727" r="4" fill="#0" id="circle141"/>
	<circle cx="791.011" cy="915.469" r="4" fill="#0" id="circle142"/>
	<circle cx="794.672" cy="4" r="4" fill="#0" id="circle143"/>
	<circle cx="794.672" cy="860.561" r="4" fill="#0" id="circle144"/>
	<circle cx="798.332" cy="490.849" r="4" fill="#0" id="circle145"/>
	<circle cx="798.332" cy="611.646" r="4" fill="#0" id="circle146"/>
	<circle cx="798.332" cy="728.782" r="4" fill="#0" id="circle147"/>
	<circle cx="812.974" cy="36.9446" r="4" fill="#0" id="circle148"/>
	<circle cx="812.974" cy="73.5498" r="4" fill="#0" id="circle149"/>
	<circle cx="812.974" cy="110.155" r="4" fill="#0" id="circle150"/>
	<circle cx="812.974" cy="146.76" r="4" fill="#0" id="circle151"/>
	<circle cx="812.974" cy="183.365" r="4" fill="#0" id="circle152"/>
	<circle cx="812.974" cy="219.97" r="4" fill="#0" id="circle153"/>
	<circle cx="812.974" cy="256.576" r="4" fill="#0" id="circle154"/>
	<circle cx="812.974" cy="293.181" r="4" fill="#0" id="circle155"/>
	<circle cx="812.974" cy="329.786" r="4" fill="#0" id="circle156"/>
	<circle cx="812.974" cy="366.391" r="4" fill="#0" id="circle157"/>
	<circle cx="812.974" cy="402.996" r="4" fill="#0" id="circle158"/>
	<circle cx="812.974" cy="439.601" r="4" fill="#0" id="circle159"/>
	<circle cx="816.635" cy="644.59" r="4" fill="#0" id="circle160"/>
	<circle cx="816.635" cy="761.727" r="4" fill="#0" id="circle161"/>
	<circle cx="823.956" cy="838.598" r="4" fill="#0" id="circle162"/>
	<circle cx="827.616" cy="915.469" r="4" fill="#0" id="circle163"/>
	<circle cx="834.937" cy="611.646" r="4" fill="#0" id="circle164"/>
	<circle cx="834.937" cy="728.782" r="4" fill="#0" id="circle165"/>
	<circle cx="853.24" cy="644.59" r="4" fill="#0" id="circle166"/>
	<circle cx="853.24" cy="761.727" r="4" fill="#0" id="circle167"/>
	<circle cx="853.24" cy="860.561" r="4" fill="#0" id="circle168"/>
	<circle cx="864.221" cy="915.469" r="4" fill="#0" id="circle169"/>
	<circle cx="871.542" cy="611.646" r="4" fill="#0" id="circle170"/>
	<circle cx="871.542" cy="728.782" r="4" fill="#0" id="circle171"/>
	<circle cx="882.524" cy="838.598" r="4" fill="#0" id="circle172"/>
	<circle cx="889.845" cy="644.59" r="4" fill="#0" id="circle173"/>
	<circle cx="889.845" cy="761.727" r="4" fill="#0" id="circle174"/>
	<circle cx="900.827" cy="915.469" r="4" fill="#0" id="circle175"/>
	<circle cx="908.148" cy="611.646" r="4" fill="#0" id="circle176"/>
	<circle cx="908.148" cy="728.782" r="4" fill="#0" id="circle177"/>
	<circle cx="919.129" cy="838.598" r="4" fill="#0" id="circle178"/>
	<circle cx="926.45" cy="644.59" r="4" fill="#0" id="circle179"/>
	<circle cx="926.45" cy="761.727" r="4" fill="#0" id="circle180"/>
	<circle cx="937.432" cy="930.111" r="4" fill="#0" id="circle181"/>
	<circle cx="944.753" cy="611.646" r="4" fill="#0" id="circle182"/>
	<circle cx="944.753" cy="728.782" r="4" fill="#0" id="circle183"/>
	<circle cx="955.734" cy="838.598" r="4" fill="#0" id="circle184"/>
	<circle cx="974.037" cy="915.469" r="4" fill="#0" id="circle185"/>
	<circle cx="992.339" cy="842.258" r="4" fill="#0" id="circle186"/>
	<circle cx="996" cy="878.863" r="4" fill="#0" id="circle187"/>
	</g>
</svg>