<?xml version="1.0" encoding="UTF-8" standalone="no"?>
<!-- Created with CurveBenchmark -->
<svg
	xmlns:dc="http://purl.org/dc/elements/1.1/"
	xmlns:cc="http://creativecommons.org/ns#"
	xmlns:rdf="http://www.w3.org/1999/02/22-rdf-syntax-ns#"
	xmlns:svg="http://www.w3.org/2000/svg"
	xmlns="http://www.w3.org/2000/svg"
	xmlns:sodipodi="http://sodipodi.sourceforge.net/DTD/sodipodi-0.dtd"
	xmlns:inkscape="http://www.inkscape.org/namespaces/inkscape"
	width="1000"
	height="1000"
	id="svg2"
	version="1.1"
	sodipodi:docname="manifold/peel-flatfish19.png.txt">
<defs
	id="defs4" />
<metadata
	id="metadata7">
	<rdf:RDF>
		<cc:Work
			rdf:about="">
			<dc:format>image/svg+xml</dc:format>
			<dc:type
				rdf:resource="http://purl.org/dc/dcmitype/StillImage" />
			<dc:title></dc:title>
		</cc:Work>
	</rdf:RDF>
</metadata>
<g
	inkscape:label="Layer 1"
	inkscape:groupmode="layer"
	id="layer1">
	<path style="fill:none;stroke:red;stroke-width:1px;stroke-linecap:butt;stroke-linejoin:miter;stroke-opacity:1" d="M 11.392,215.41 11.392,230.194 z" id="boundary" inkscape:connector-curvature="0" />
	<path style="fill:none;stroke:red;stroke-width:1px;stroke-linecap:butt;stroke-linejoin:miter;stroke-opacity:1" d="M 11.392,230.194 4,244.978 z" id="boundary" inkscape:connector-curvature="0" />
	<path style="fill:none;stroke:red;stroke-width:1px;stroke-linecap:butt;stroke-linejoin:miter;stroke-opacity:1" d="M 11.392,215.41 11.392,200.626 z" id="boundary" inkscape:connector-curvature="0" />
	<path style="fill:none;stroke:red;stroke-width:1px;stroke-linecap:butt;stroke-linejoin:miter;stroke-opacity:1" d="M 4,244.978 4,259.762 z" id="boundary" inkscape:connector-curvature="0" />
	<path style="fill:none;stroke:red;stroke-width:1px;stroke-linecap:butt;stroke-linejoin:miter;stroke-opacity:1" d="M 11.392,200.626 18.7839,185.842 z" id="boundary" inkscape:connector-curvature="0" />
	<path style="fill:none;stroke:red;stroke-width:1px;stroke-linecap:butt;stroke-linejoin:miter;stroke-opacity:1" d="M 11.392,287.851 4,274.545 z" id="boundary" inkscape:connector-curvature="0" />
	<path style="fill:none;stroke:red;stroke-width:1px;stroke-linecap:butt;stroke-linejoin:miter;stroke-opacity:1" d="M 4,274.545 4,259.762 z" id="boundary" inkscape:connector-curvature="0" />
	<path style="fill:none;stroke:red;stroke-width:1px;stroke-linecap:butt;stroke-linejoin:miter;stroke-opacity:1" d="M 26.1759,163.666 18.7839,185.842 z" id="boundary" inkscape:connector-curvature="0" />
	<path style="fill:none;stroke:red;stroke-width:1px;stroke-linecap:butt;stroke-linejoin:miter;stroke-opacity:1" d="M 18.7839,301.156 11.392,287.851 z" id="boundary" inkscape:connector-curvature="0" />
	<path style="fill:none;stroke:red;stroke-width:1px;stroke-linecap:butt;stroke-linejoin:miter;stroke-opacity:1" d="M 26.1759,163.666 33.5678,148.882 z" id="boundary" inkscape:connector-curvature="0" />
	<path style="fill:none;stroke:red;stroke-width:1px;stroke-linecap:butt;stroke-linejoin:miter;stroke-opacity:1" d="M 33.5678,148.882 48.3517,141.49 z" id="boundary" inkscape:connector-curvature="0" />
	<path style="fill:none;stroke:red;stroke-width:1px;stroke-linecap:butt;stroke-linejoin:miter;stroke-opacity:1" d="M 89.7466,151.839 104.531,151.839 z" id="boundary" inkscape:connector-curvature="0" />
	<path style="fill:none;stroke:red;stroke-width:1px;stroke-linecap:butt;stroke-linejoin:miter;stroke-opacity:1" d="M 104.531,151.839 117.836,159.231 z" id="boundary" inkscape:connector-curvature="0" />
	<path style="fill:none;stroke:red;stroke-width:1px;stroke-linecap:butt;stroke-linejoin:miter;stroke-opacity:1" d="M 76.4411,144.447 63.1356,137.055 z" id="boundary" inkscape:connector-curvature="0" />
	<path style="fill:none;stroke:red;stroke-width:1px;stroke-linecap:butt;stroke-linejoin:miter;stroke-opacity:1" d="M 63.1356,137.055 48.3517,141.49 z" id="boundary" inkscape:connector-curvature="0" />
	<path style="fill:none;stroke:red;stroke-width:1px;stroke-linecap:butt;stroke-linejoin:miter;stroke-opacity:1" d="M 26.1759,314.462 18.7839,301.156 z" id="boundary" inkscape:connector-curvature="0" />
	<path style="fill:none;stroke:red;stroke-width:1px;stroke-linecap:butt;stroke-linejoin:miter;stroke-opacity:1" d="M 89.7466,151.839 76.4411,144.447 z" id="boundary" inkscape:connector-curvature="0" />
	<path style="fill:none;stroke:red;stroke-width:1px;stroke-linecap:butt;stroke-linejoin:miter;stroke-opacity:1" d="M 40.9598,341.073 35.0462,326.289 z" id="boundary" inkscape:connector-curvature="0" />
	<path style="fill:none;stroke:red;stroke-width:1px;stroke-linecap:butt;stroke-linejoin:miter;stroke-opacity:1" d="M 35.0462,326.289 26.1759,314.462 z" id="boundary" inkscape:connector-curvature="0" />
	<path style="fill:none;stroke:red;stroke-width:1px;stroke-linecap:butt;stroke-linejoin:miter;stroke-opacity:1" d="M 63.1356,360.292 48.3517,354.379 z" id="boundary" inkscape:connector-curvature="0" />
	<path style="fill:none;stroke:red;stroke-width:1px;stroke-linecap:butt;stroke-linejoin:miter;stroke-opacity:1" d="M 48.3517,354.379 40.9598,341.073 z" id="boundary" inkscape:connector-curvature="0" />
	<path style="fill:none;stroke:red;stroke-width:1px;stroke-linecap:butt;stroke-linejoin:miter;stroke-opacity:1" d="M 77.9195,355.857 63.1356,360.292 z" id="boundary" inkscape:connector-curvature="0" />
	<path style="fill:none;stroke:red;stroke-width:1px;stroke-linecap:butt;stroke-linejoin:miter;stroke-opacity:1" d="M 278.981,349.943 268.632,338.116 z" id="boundary" inkscape:connector-curvature="0" />
	<path style="fill:none;stroke:red;stroke-width:1px;stroke-linecap:butt;stroke-linejoin:miter;stroke-opacity:1" d="M 89.7466,345.508 77.9195,355.857 z" id="boundary" inkscape:connector-curvature="0" />
	<path style="fill:none;stroke:red;stroke-width:1px;stroke-linecap:butt;stroke-linejoin:miter;stroke-opacity:1" d="M 103.052,338.116 89.7466,345.508 z" id="boundary" inkscape:connector-curvature="0" />
	<path style="fill:none;stroke:red;stroke-width:1px;stroke-linecap:butt;stroke-linejoin:miter;stroke-opacity:1" d="M 117.836,159.231 129.663,169.58 z" id="boundary" inkscape:connector-curvature="0" />
	<path style="fill:none;stroke:red;stroke-width:1px;stroke-linecap:butt;stroke-linejoin:miter;stroke-opacity:1" d="M 116.358,330.724 128.185,320.376 z" id="boundary" inkscape:connector-curvature="0" />
	<path style="fill:none;stroke:red;stroke-width:1px;stroke-linecap:butt;stroke-linejoin:miter;stroke-opacity:1" d="M 116.358,330.724 103.052,338.116 z" id="boundary" inkscape:connector-curvature="0" />
	<path style="fill:none;stroke:red;stroke-width:1px;stroke-linecap:butt;stroke-linejoin:miter;stroke-opacity:1" d="M 166.623,293.765 153.317,301.156 z" id="boundary" inkscape:connector-curvature="0" />
	<path style="fill:none;stroke:red;stroke-width:1px;stroke-linecap:butt;stroke-linejoin:miter;stroke-opacity:1" d="M 138.534,308.548 128.185,320.376 z" id="boundary" inkscape:connector-curvature="0" />
	<path style="fill:none;stroke:red;stroke-width:1px;stroke-linecap:butt;stroke-linejoin:miter;stroke-opacity:1" d="M 142.969,176.972 129.663,169.58 z" id="boundary" inkscape:connector-curvature="0" />
	<path style="fill:none;stroke:red;stroke-width:1px;stroke-linecap:butt;stroke-linejoin:miter;stroke-opacity:1" d="M 153.317,301.156 138.534,308.548 z" id="boundary" inkscape:connector-curvature="0" />
	<path style="fill:none;stroke:red;stroke-width:1px;stroke-linecap:butt;stroke-linejoin:miter;stroke-opacity:1" d="M 157.753,182.885 142.969,176.972 z" id="boundary" inkscape:connector-curvature="0" />
	<path style="fill:none;stroke:red;stroke-width:1px;stroke-linecap:butt;stroke-linejoin:miter;stroke-opacity:1" d="M 233.151,290.808 234.629,305.592 z" id="boundary" inkscape:connector-curvature="0" />
	<path style="fill:none;stroke:red;stroke-width:1px;stroke-linecap:butt;stroke-linejoin:miter;stroke-opacity:1" d="M 172.537,188.799 157.753,182.885 z" id="boundary" inkscape:connector-curvature="0" />
	<path style="fill:none;stroke:red;stroke-width:1px;stroke-linecap:butt;stroke-linejoin:miter;stroke-opacity:1" d="M 233.151,290.808 222.802,278.981 z" id="boundary" inkscape:connector-curvature="0" />
	<path style="fill:none;stroke:red;stroke-width:1px;stroke-linecap:butt;stroke-linejoin:miter;stroke-opacity:1" d="M 222.802,278.981 208.018,278.981 z" id="boundary" inkscape:connector-curvature="0" />
	<path style="fill:none;stroke:red;stroke-width:1px;stroke-linecap:butt;stroke-linejoin:miter;stroke-opacity:1" d="M 179.928,286.373 166.623,293.765 z" id="boundary" inkscape:connector-curvature="0" />
	<path style="fill:none;stroke:red;stroke-width:1px;stroke-linecap:butt;stroke-linejoin:miter;stroke-opacity:1" d="M 185.842,196.191 172.537,188.799 z" id="boundary" inkscape:connector-curvature="0" />
	<path style="fill:none;stroke:red;stroke-width:1px;stroke-linecap:butt;stroke-linejoin:miter;stroke-opacity:1" d="M 193.234,278.981 208.018,278.981 z" id="boundary" inkscape:connector-curvature="0" />
	<path style="fill:none;stroke:red;stroke-width:1px;stroke-linecap:butt;stroke-linejoin:miter;stroke-opacity:1" d="M 193.234,278.981 179.928,286.373 z" id="boundary" inkscape:connector-curvature="0" />
	<path style="fill:none;stroke:red;stroke-width:1px;stroke-linecap:butt;stroke-linejoin:miter;stroke-opacity:1" d="M 200.626,196.191 185.842,196.191 z" id="boundary" inkscape:connector-curvature="0" />
	<path style="fill:none;stroke:red;stroke-width:1px;stroke-linecap:butt;stroke-linejoin:miter;stroke-opacity:1" d="M 215.41,196.191 200.626,196.191 z" id="boundary" inkscape:connector-curvature="0" />
	<path style="fill:none;stroke:red;stroke-width:1px;stroke-linecap:butt;stroke-linejoin:miter;stroke-opacity:1" d="M 246.456,315.94 234.629,305.592 z" id="boundary" inkscape:connector-curvature="0" />
	<path style="fill:none;stroke:red;stroke-width:1px;stroke-linecap:butt;stroke-linejoin:miter;stroke-opacity:1" d="M 227.237,184.364 215.41,196.191 z" id="boundary" inkscape:connector-curvature="0" />
	<path style="fill:none;stroke:red;stroke-width:1px;stroke-linecap:butt;stroke-linejoin:miter;stroke-opacity:1" d="M 234.629,169.58 246.456,159.231 z" id="boundary" inkscape:connector-curvature="0" />
	<path style="fill:none;stroke:red;stroke-width:1px;stroke-linecap:butt;stroke-linejoin:miter;stroke-opacity:1" d="M 234.629,169.58 227.237,184.364 z" id="boundary" inkscape:connector-curvature="0" />
	<path style="fill:none;stroke:red;stroke-width:1px;stroke-linecap:butt;stroke-linejoin:miter;stroke-opacity:1" d="M 246.456,315.94 256.805,327.768 z" id="boundary" inkscape:connector-curvature="0" />
	<path style="fill:none;stroke:red;stroke-width:1px;stroke-linecap:butt;stroke-linejoin:miter;stroke-opacity:1" d="M 281.937,129.663 268.632,137.055 z" id="boundary" inkscape:connector-curvature="0" />
	<path style="fill:none;stroke:red;stroke-width:1px;stroke-linecap:butt;stroke-linejoin:miter;stroke-opacity:1" d="M 268.632,137.055 256.805,147.404 z" id="boundary" inkscape:connector-curvature="0" />
	<path style="fill:none;stroke:red;stroke-width:1px;stroke-linecap:butt;stroke-linejoin:miter;stroke-opacity:1" d="M 256.805,327.768 268.632,338.116 z" id="boundary" inkscape:connector-curvature="0" />
	<path style="fill:none;stroke:red;stroke-width:1px;stroke-linecap:butt;stroke-linejoin:miter;stroke-opacity:1" d="M 246.456,159.231 256.805,147.404 z" id="boundary" inkscape:connector-curvature="0" />
	<path style="fill:none;stroke:red;stroke-width:1px;stroke-linecap:butt;stroke-linejoin:miter;stroke-opacity:1" d="M 299.678,372.119 307.07,385.425 z" id="boundary" inkscape:connector-curvature="0" />
	<path style="fill:none;stroke:red;stroke-width:1px;stroke-linecap:butt;stroke-linejoin:miter;stroke-opacity:1" d="M 299.678,372.119 290.808,360.292 z" id="boundary" inkscape:connector-curvature="0" />
	<path style="fill:none;stroke:red;stroke-width:1px;stroke-linecap:butt;stroke-linejoin:miter;stroke-opacity:1" d="M 290.808,360.292 278.981,349.943 z" id="boundary" inkscape:connector-curvature="0" />
	<path style="fill:none;stroke:red;stroke-width:1px;stroke-linecap:butt;stroke-linejoin:miter;stroke-opacity:1" d="M 281.937,129.663 295.243,122.271 z" id="boundary" inkscape:connector-curvature="0" />
	<path style="fill:none;stroke:red;stroke-width:1px;stroke-linecap:butt;stroke-linejoin:miter;stroke-opacity:1" d="M 307.07,111.923 295.243,122.271 z" id="boundary" inkscape:connector-curvature="0" />
	<path style="fill:none;stroke:red;stroke-width:1px;stroke-linecap:butt;stroke-linejoin:miter;stroke-opacity:1" d="M 307.07,111.923 318.897,100.095 z" id="boundary" inkscape:connector-curvature="0" />
	<path style="fill:none;stroke:red;stroke-width:1px;stroke-linecap:butt;stroke-linejoin:miter;stroke-opacity:1" d="M 318.897,100.095 333.681,92.7034 z" id="boundary" inkscape:connector-curvature="0" />
	<path style="fill:none;stroke:red;stroke-width:1px;stroke-linecap:butt;stroke-linejoin:miter;stroke-opacity:1" d="M 307.07,385.425 318.897,395.773 z" id="boundary" inkscape:connector-curvature="0" />
	<path style="fill:none;stroke:red;stroke-width:1px;stroke-linecap:butt;stroke-linejoin:miter;stroke-opacity:1" d="M 348.465,85.3115 333.681,92.7034 z" id="boundary" inkscape:connector-curvature="0" />
	<path style="fill:none;stroke:red;stroke-width:1px;stroke-linecap:butt;stroke-linejoin:miter;stroke-opacity:1" d="M 318.897,395.773 330.724,404.644 z" id="boundary" inkscape:connector-curvature="0" />
	<path style="fill:none;stroke:red;stroke-width:1px;stroke-linecap:butt;stroke-linejoin:miter;stroke-opacity:1" d="M 344.03,412.036 330.724,404.644 z" id="boundary" inkscape:connector-curvature="0" />
	<path style="fill:none;stroke:red;stroke-width:1px;stroke-linecap:butt;stroke-linejoin:miter;stroke-opacity:1" d="M 357.335,419.428 344.03,412.036 z" id="boundary" inkscape:connector-curvature="0" />
	<path style="fill:none;stroke:red;stroke-width:1px;stroke-linecap:butt;stroke-linejoin:miter;stroke-opacity:1" d="M 361.77,77.9195 348.465,85.3115 z" id="boundary" inkscape:connector-curvature="0" />
	<path style="fill:none;stroke:red;stroke-width:1px;stroke-linecap:butt;stroke-linejoin:miter;stroke-opacity:1" d="M 370.641,426.82 357.335,419.428 z" id="boundary" inkscape:connector-curvature="0" />
	<path style="fill:none;stroke:red;stroke-width:1px;stroke-linecap:butt;stroke-linejoin:miter;stroke-opacity:1" d="M 373.598,67.5708 361.77,77.9195 z" id="boundary" inkscape:connector-curvature="0" />
	<path style="fill:none;stroke:red;stroke-width:1px;stroke-linecap:butt;stroke-linejoin:miter;stroke-opacity:1" d="M 383.946,434.212 370.641,426.82 z" id="boundary" inkscape:connector-curvature="0" />
	<path style="fill:none;stroke:red;stroke-width:1px;stroke-linecap:butt;stroke-linejoin:miter;stroke-opacity:1" d="M 385.425,55.7437 398.73,48.3517 z" id="boundary" inkscape:connector-curvature="0" />
	<path style="fill:none;stroke:red;stroke-width:1px;stroke-linecap:butt;stroke-linejoin:miter;stroke-opacity:1" d="M 385.425,55.7437 373.598,67.5708 z" id="boundary" inkscape:connector-curvature="0" />
	<path style="fill:none;stroke:red;stroke-width:1px;stroke-linecap:butt;stroke-linejoin:miter;stroke-opacity:1" d="M 398.73,434.212 383.946,434.212 z" id="boundary" inkscape:connector-curvature="0" />
	<path style="fill:none;stroke:red;stroke-width:1px;stroke-linecap:butt;stroke-linejoin:miter;stroke-opacity:1" d="M 450.474,11.392 437.168,18.7839 z" id="boundary" inkscape:connector-curvature="0" />
	<path style="fill:none;stroke:red;stroke-width:1px;stroke-linecap:butt;stroke-linejoin:miter;stroke-opacity:1" d="M 456.387,448.996 469.693,456.387 z" id="boundary" inkscape:connector-curvature="0" />
	<path style="fill:none;stroke:red;stroke-width:1px;stroke-linecap:butt;stroke-linejoin:miter;stroke-opacity:1" d="M 398.73,48.3517 410.557,38.003 z" id="boundary" inkscape:connector-curvature="0" />
	<path style="fill:none;stroke:red;stroke-width:1px;stroke-linecap:butt;stroke-linejoin:miter;stroke-opacity:1" d="M 413.514,434.212 398.73,434.212 z" id="boundary" inkscape:connector-curvature="0" />
	<path style="fill:none;stroke:red;stroke-width:1px;stroke-linecap:butt;stroke-linejoin:miter;stroke-opacity:1" d="M 422.385,26.1759 437.168,18.7839 z" id="boundary" inkscape:connector-curvature="0" />
	<path style="fill:none;stroke:red;stroke-width:1px;stroke-linecap:butt;stroke-linejoin:miter;stroke-opacity:1" d="M 422.385,26.1759 410.557,38.003 z" id="boundary" inkscape:connector-curvature="0" />
	<path style="fill:none;stroke:red;stroke-width:1px;stroke-linecap:butt;stroke-linejoin:miter;stroke-opacity:1" d="M 428.298,438.647 413.514,434.212 z" id="boundary" inkscape:connector-curvature="0" />
	<path style="fill:none;stroke:red;stroke-width:1px;stroke-linecap:butt;stroke-linejoin:miter;stroke-opacity:1" d="M 493.347,4 478.563,4 z" id="boundary" inkscape:connector-curvature="0" />
	<path style="fill:none;stroke:red;stroke-width:1px;stroke-linecap:butt;stroke-linejoin:miter;stroke-opacity:1" d="M 443.082,441.604 456.387,448.996 z" id="boundary" inkscape:connector-curvature="0" />
	<path style="fill:none;stroke:red;stroke-width:1px;stroke-linecap:butt;stroke-linejoin:miter;stroke-opacity:1" d="M 443.082,441.604 428.298,438.647 z" id="boundary" inkscape:connector-curvature="0" />
	<path style="fill:none;stroke:red;stroke-width:1px;stroke-linecap:butt;stroke-linejoin:miter;stroke-opacity:1" d="M 493.347,4 508.131,4 z" id="boundary" inkscape:connector-curvature="0" />
	<path style="fill:none;stroke:red;stroke-width:1px;stroke-linecap:butt;stroke-linejoin:miter;stroke-opacity:1" d="M 463.779,4 478.563,4 z" id="boundary" inkscape:connector-curvature="0" />
	<path style="fill:none;stroke:red;stroke-width:1px;stroke-linecap:butt;stroke-linejoin:miter;stroke-opacity:1" d="M 463.779,4 450.474,11.392 z" id="boundary" inkscape:connector-curvature="0" />
	<path style="fill:none;stroke:red;stroke-width:1px;stroke-linecap:butt;stroke-linejoin:miter;stroke-opacity:1" d="M 484.477,456.387 469.693,456.387 z" id="boundary" inkscape:connector-curvature="0" />
	<path style="fill:none;stroke:red;stroke-width:1px;stroke-linecap:butt;stroke-linejoin:miter;stroke-opacity:1" d="M 499.261,456.387 484.477,456.387 z" id="boundary" inkscape:connector-curvature="0" />
	<path style="fill:none;stroke:red;stroke-width:1px;stroke-linecap:butt;stroke-linejoin:miter;stroke-opacity:1" d="M 508.131,4 522.915,4 z" id="boundary" inkscape:connector-curvature="0" />
	<path style="fill:none;stroke:red;stroke-width:1px;stroke-linecap:butt;stroke-linejoin:miter;stroke-opacity:1" d="M 514.045,456.387 499.261,456.387 z" id="boundary" inkscape:connector-curvature="0" />
	<path style="fill:none;stroke:red;stroke-width:1px;stroke-linecap:butt;stroke-linejoin:miter;stroke-opacity:1" d="M 522.915,4 537.699,4 z" id="boundary" inkscape:connector-curvature="0" />
	<path style="fill:none;stroke:red;stroke-width:1px;stroke-linecap:butt;stroke-linejoin:miter;stroke-opacity:1" d="M 528.829,456.387 514.045,456.387 z" id="boundary" inkscape:connector-curvature="0" />
	<path style="fill:none;stroke:red;stroke-width:1px;stroke-linecap:butt;stroke-linejoin:miter;stroke-opacity:1" d="M 543.613,456.387 528.829,456.387 z" id="boundary" inkscape:connector-curvature="0" />
	<path style="fill:none;stroke:red;stroke-width:1px;stroke-linecap:butt;stroke-linejoin:miter;stroke-opacity:1" d="M 552.483,4 537.699,4 z" id="boundary" inkscape:connector-curvature="0" />
	<path style="fill:none;stroke:red;stroke-width:1px;stroke-linecap:butt;stroke-linejoin:miter;stroke-opacity:1" d="M 558.396,456.387 543.613,456.387 z" id="boundary" inkscape:connector-curvature="0" />
	<path style="fill:none;stroke:red;stroke-width:1px;stroke-linecap:butt;stroke-linejoin:miter;stroke-opacity:1" d="M 567.267,4 552.483,4 z" id="boundary" inkscape:connector-curvature="0" />
	<path style="fill:none;stroke:red;stroke-width:1px;stroke-linecap:butt;stroke-linejoin:miter;stroke-opacity:1" d="M 573.18,456.387 558.396,456.387 z" id="boundary" inkscape:connector-curvature="0" />
	<path style="fill:none;stroke:red;stroke-width:1px;stroke-linecap:butt;stroke-linejoin:miter;stroke-opacity:1" d="M 582.051,4 567.267,4 z" id="boundary" inkscape:connector-curvature="0" />
	<path style="fill:none;stroke:red;stroke-width:1px;stroke-linecap:butt;stroke-linejoin:miter;stroke-opacity:1" d="M 626.402,8.43517 639.708,15.8271 z" id="boundary" inkscape:connector-curvature="0" />
	<path style="fill:none;stroke:red;stroke-width:1px;stroke-linecap:butt;stroke-linejoin:miter;stroke-opacity:1" d="M 587.964,456.387 573.18,456.387 z" id="boundary" inkscape:connector-curvature="0" />
	<path style="fill:none;stroke:red;stroke-width:1px;stroke-linecap:butt;stroke-linejoin:miter;stroke-opacity:1" d="M 596.835,4 582.051,4 z" id="boundary" inkscape:connector-curvature="0" />
	<path style="fill:none;stroke:red;stroke-width:1px;stroke-linecap:butt;stroke-linejoin:miter;stroke-opacity:1" d="M 611.618,4 626.402,8.43517 z" id="boundary" inkscape:connector-curvature="0" />
	<path style="fill:none;stroke:red;stroke-width:1px;stroke-linecap:butt;stroke-linejoin:miter;stroke-opacity:1" d="M 611.618,4 596.835,4 z" id="boundary" inkscape:connector-curvature="0" />
	<path style="fill:none;stroke:red;stroke-width:1px;stroke-linecap:butt;stroke-linejoin:miter;stroke-opacity:1" d="M 602.748,456.387 587.964,456.387 z" id="boundary" inkscape:connector-curvature="0" />
	<path style="fill:none;stroke:red;stroke-width:1px;stroke-linecap:butt;stroke-linejoin:miter;stroke-opacity:1" d="M 681.103,33.5678 667.797,26.1759 z" id="boundary" inkscape:connector-curvature="0" />
	<path style="fill:none;stroke:red;stroke-width:1px;stroke-linecap:butt;stroke-linejoin:miter;stroke-opacity:1" d="M 617.532,456.387 602.748,456.387 z" id="boundary" inkscape:connector-curvature="0" />
	<path style="fill:none;stroke:red;stroke-width:1px;stroke-linecap:butt;stroke-linejoin:miter;stroke-opacity:1" d="M 639.708,15.8271 654.492,18.7839 z" id="boundary" inkscape:connector-curvature="0" />
	<path style="fill:none;stroke:red;stroke-width:1px;stroke-linecap:butt;stroke-linejoin:miter;stroke-opacity:1" d="M 654.492,18.7839 667.797,26.1759 z" id="boundary" inkscape:connector-curvature="0" />
	<path style="fill:none;stroke:red;stroke-width:1px;stroke-linecap:butt;stroke-linejoin:miter;stroke-opacity:1" d="M 632.316,456.387 617.532,456.387 z" id="boundary" inkscape:connector-curvature="0" />
	<path style="fill:none;stroke:red;stroke-width:1px;stroke-linecap:butt;stroke-linejoin:miter;stroke-opacity:1" d="M 647.1,456.387 660.405,463.779 z" id="boundary" inkscape:connector-curvature="0" />
	<path style="fill:none;stroke:red;stroke-width:1px;stroke-linecap:butt;stroke-linejoin:miter;stroke-opacity:1" d="M 647.1,456.387 632.316,456.387 z" id="boundary" inkscape:connector-curvature="0" />
	<path style="fill:none;stroke:red;stroke-width:1px;stroke-linecap:butt;stroke-linejoin:miter;stroke-opacity:1" d="M 675.189,463.779 660.405,463.779 z" id="boundary" inkscape:connector-curvature="0" />
	<path style="fill:none;stroke:red;stroke-width:1px;stroke-linecap:butt;stroke-linejoin:miter;stroke-opacity:1" d="M 681.103,33.5678 695.887,33.5678 z" id="boundary" inkscape:connector-curvature="0" />
	<path style="fill:none;stroke:red;stroke-width:1px;stroke-linecap:butt;stroke-linejoin:miter;stroke-opacity:1" d="M 695.887,33.5678 709.192,40.9598 z" id="boundary" inkscape:connector-curvature="0" />
	<path style="fill:none;stroke:red;stroke-width:1px;stroke-linecap:butt;stroke-linejoin:miter;stroke-opacity:1" d="M 689.973,463.779 675.189,463.779 z" id="boundary" inkscape:connector-curvature="0" />
	<path style="fill:none;stroke:red;stroke-width:1px;stroke-linecap:butt;stroke-linejoin:miter;stroke-opacity:1" d="M 709.192,40.9598 722.498,48.3517 z" id="boundary" inkscape:connector-curvature="0" />
	<path style="fill:none;stroke:red;stroke-width:1px;stroke-linecap:butt;stroke-linejoin:miter;stroke-opacity:1" d="M 704.757,463.779 689.973,463.779 z" id="boundary" inkscape:connector-curvature="0" />
	<path style="fill:none;stroke:red;stroke-width:1px;stroke-linecap:butt;stroke-linejoin:miter;stroke-opacity:1" d="M 722.498,48.3517 737.282,52.7869 z" id="boundary" inkscape:connector-curvature="0" />
	<path style="fill:none;stroke:red;stroke-width:1px;stroke-linecap:butt;stroke-linejoin:miter;stroke-opacity:1" d="M 737.282,52.7869 749.109,63.1356 z" id="boundary" inkscape:connector-curvature="0" />
	<path style="fill:none;stroke:red;stroke-width:1px;stroke-linecap:butt;stroke-linejoin:miter;stroke-opacity:1" d="M 762.414,70.5276 749.109,63.1356 z" id="boundary" inkscape:connector-curvature="0" />
	<path style="fill:none;stroke:red;stroke-width:1px;stroke-linecap:butt;stroke-linejoin:miter;stroke-opacity:1" d="M 775.72,77.9195 787.547,88.2683 z" id="boundary" inkscape:connector-curvature="0" />
	<path style="fill:none;stroke:red;stroke-width:1px;stroke-linecap:butt;stroke-linejoin:miter;stroke-opacity:1" d="M 775.72,77.9195 762.414,70.5276 z" id="boundary" inkscape:connector-curvature="0" />
	<path style="fill:none;stroke:red;stroke-width:1px;stroke-linecap:butt;stroke-linejoin:miter;stroke-opacity:1" d="M 787.547,88.2683 796.417,100.095 z" id="boundary" inkscape:connector-curvature="0" />
	<path style="fill:none;stroke:red;stroke-width:1px;stroke-linecap:butt;stroke-linejoin:miter;stroke-opacity:1" d="M 818.593,119.314 828.942,131.142 z" id="boundary" inkscape:connector-curvature="0" />
	<path style="fill:none;stroke:red;stroke-width:1px;stroke-linecap:butt;stroke-linejoin:miter;stroke-opacity:1" d="M 809.723,107.487 818.593,119.314 z" id="boundary" inkscape:connector-curvature="0" />
	<path style="fill:none;stroke:red;stroke-width:1px;stroke-linecap:butt;stroke-linejoin:miter;stroke-opacity:1" d="M 809.723,107.487 796.417,100.095 z" id="boundary" inkscape:connector-curvature="0" />
	<path style="fill:none;stroke:red;stroke-width:1px;stroke-linecap:butt;stroke-linejoin:miter;stroke-opacity:1" d="M 851.118,153.317 840.769,141.49 z" id="boundary" inkscape:connector-curvature="0" />
	<path style="fill:none;stroke:red;stroke-width:1px;stroke-linecap:butt;stroke-linejoin:miter;stroke-opacity:1" d="M 840.769,141.49 828.942,131.142 z" id="boundary" inkscape:connector-curvature="0" />
	<path style="fill:none;stroke:red;stroke-width:1px;stroke-linecap:butt;stroke-linejoin:miter;stroke-opacity:1" d="M 749.109,463.779 763.893,463.779 z" id="boundary" inkscape:connector-curvature="0" />
	<path style="fill:none;stroke:red;stroke-width:1px;stroke-linecap:butt;stroke-linejoin:miter;stroke-opacity:1" d="M 763.893,463.779 778.677,463.779 z" id="boundary" inkscape:connector-curvature="0" />
	<path style="fill:none;stroke:red;stroke-width:1px;stroke-linecap:butt;stroke-linejoin:miter;stroke-opacity:1" d="M 806.766,454.909 793.461,463.779 z" id="boundary" inkscape:connector-curvature="0" />
	<path style="fill:none;stroke:red;stroke-width:1px;stroke-linecap:butt;stroke-linejoin:miter;stroke-opacity:1" d="M 793.461,463.779 778.677,463.779 z" id="boundary" inkscape:connector-curvature="0" />
	<path style="fill:none;stroke:red;stroke-width:1px;stroke-linecap:butt;stroke-linejoin:miter;stroke-opacity:1" d="M 821.55,447.517 806.766,454.909 z" id="boundary" inkscape:connector-curvature="0" />
	<path style="fill:none;stroke:red;stroke-width:1px;stroke-linecap:butt;stroke-linejoin:miter;stroke-opacity:1" d="M 719.541,463.779 704.757,463.779 z" id="boundary" inkscape:connector-curvature="0" />
	<path style="fill:none;stroke:red;stroke-width:1px;stroke-linecap:butt;stroke-linejoin:miter;stroke-opacity:1" d="M 836.334,440.125 821.55,447.517 z" id="boundary" inkscape:connector-curvature="0" />
	<path style="fill:none;stroke:red;stroke-width:1px;stroke-linecap:butt;stroke-linejoin:miter;stroke-opacity:1" d="M 734.325,463.779 749.109,463.779 z" id="boundary" inkscape:connector-curvature="0" />
	<path style="fill:none;stroke:red;stroke-width:1px;stroke-linecap:butt;stroke-linejoin:miter;stroke-opacity:1" d="M 848.161,426.82 836.334,440.125 z" id="boundary" inkscape:connector-curvature="0" />
	<path style="fill:none;stroke:red;stroke-width:1px;stroke-linecap:butt;stroke-linejoin:miter;stroke-opacity:1" d="M 719.541,463.779 734.325,463.779 z" id="boundary" inkscape:connector-curvature="0" />
	<path style="fill:none;stroke:red;stroke-width:1px;stroke-linecap:butt;stroke-linejoin:miter;stroke-opacity:1" d="M 889.556,382.468 902.861,375.076 z" id="boundary" inkscape:connector-curvature="0" />
	<path style="fill:none;stroke:red;stroke-width:1px;stroke-linecap:butt;stroke-linejoin:miter;stroke-opacity:1" d="M 902.861,375.076 917.645,373.598 z" id="boundary" inkscape:connector-curvature="0" />
	<path style="fill:none;stroke:red;stroke-width:1px;stroke-linecap:butt;stroke-linejoin:miter;stroke-opacity:1" d="M 855.553,412.036 848.161,426.82 z" id="boundary" inkscape:connector-curvature="0" />
	<path style="fill:none;stroke:red;stroke-width:1px;stroke-linecap:butt;stroke-linejoin:miter;stroke-opacity:1" d="M 862.945,163.666 873.294,175.493 z" id="boundary" inkscape:connector-curvature="0" />
	<path style="fill:none;stroke:red;stroke-width:1px;stroke-linecap:butt;stroke-linejoin:miter;stroke-opacity:1" d="M 873.294,175.493 880.686,188.799 z" id="boundary" inkscape:connector-curvature="0" />
	<path style="fill:none;stroke:red;stroke-width:1px;stroke-linecap:butt;stroke-linejoin:miter;stroke-opacity:1" d="M 876.25,389.86 889.556,382.468 z" id="boundary" inkscape:connector-curvature="0" />
	<path style="fill:none;stroke:red;stroke-width:1px;stroke-linecap:butt;stroke-linejoin:miter;stroke-opacity:1" d="M 851.118,153.317 862.945,163.666 z" id="boundary" inkscape:connector-curvature="0" />
	<path style="fill:none;stroke:red;stroke-width:1px;stroke-linecap:butt;stroke-linejoin:miter;stroke-opacity:1" d="M 862.945,397.252 855.553,412.036 z" id="boundary" inkscape:connector-curvature="0" />
	<path style="fill:none;stroke:red;stroke-width:1px;stroke-linecap:butt;stroke-linejoin:miter;stroke-opacity:1" d="M 876.25,389.86 862.945,397.252 z" id="boundary" inkscape:connector-curvature="0" />
	<path style="fill:none;stroke:red;stroke-width:1px;stroke-linecap:butt;stroke-linejoin:miter;stroke-opacity:1" d="M 880.686,188.799 891.034,200.626 z" id="boundary" inkscape:connector-curvature="0" />
	<path style="fill:none;stroke:red;stroke-width:1px;stroke-linecap:butt;stroke-linejoin:miter;stroke-opacity:1" d="M 891.034,200.626 899.905,212.453 z" id="boundary" inkscape:connector-curvature="0" />
	<path style="fill:none;stroke:red;stroke-width:1px;stroke-linecap:butt;stroke-linejoin:miter;stroke-opacity:1" d="M 899.905,212.453 907.297,225.759 z" id="boundary" inkscape:connector-curvature="0" />
	<path style="fill:none;stroke:red;stroke-width:1px;stroke-linecap:butt;stroke-linejoin:miter;stroke-opacity:1" d="M 947.213,360.292 932.429,366.206 z" id="boundary" inkscape:connector-curvature="0" />
	<path style="fill:none;stroke:red;stroke-width:1px;stroke-linecap:butt;stroke-linejoin:miter;stroke-opacity:1" d="M 907.297,225.759 919.124,234.629 z" id="boundary" inkscape:connector-curvature="0" />
	<path style="fill:none;stroke:red;stroke-width:1px;stroke-linecap:butt;stroke-linejoin:miter;stroke-opacity:1" d="M 919.124,234.629 929.472,246.456 z" id="boundary" inkscape:connector-curvature="0" />
	<path style="fill:none;stroke:red;stroke-width:1px;stroke-linecap:butt;stroke-linejoin:miter;stroke-opacity:1" d="M 917.645,373.598 932.429,366.206 z" id="boundary" inkscape:connector-curvature="0" />
	<path style="fill:none;stroke:red;stroke-width:1px;stroke-linecap:butt;stroke-linejoin:miter;stroke-opacity:1" d="M 929.472,246.456 941.3,256.805 z" id="boundary" inkscape:connector-curvature="0" />
	<path style="fill:none;stroke:red;stroke-width:1px;stroke-linecap:butt;stroke-linejoin:miter;stroke-opacity:1" d="M 954.605,264.197 941.3,256.805 z" id="boundary" inkscape:connector-curvature="0" />
	<path style="fill:none;stroke:red;stroke-width:1px;stroke-linecap:butt;stroke-linejoin:miter;stroke-opacity:1" d="M 960.519,352.9 975.303,352.9 z" id="boundary" inkscape:connector-curvature="0" />
	<path style="fill:none;stroke:red;stroke-width:1px;stroke-linecap:butt;stroke-linejoin:miter;stroke-opacity:1" d="M 960.519,352.9 947.213,360.292 z" id="boundary" inkscape:connector-curvature="0" />
	<path style="fill:none;stroke:red;stroke-width:1px;stroke-linecap:butt;stroke-linejoin:miter;stroke-opacity:1" d="M 966.432,274.545 954.605,264.197 z" id="boundary" inkscape:connector-curvature="0" />
	<path style="fill:none;stroke:red;stroke-width:1px;stroke-linecap:butt;stroke-linejoin:miter;stroke-opacity:1" d="M 976.781,286.373 988.608,296.721 z" id="boundary" inkscape:connector-curvature="0" />
	<path style="fill:none;stroke:red;stroke-width:1px;stroke-linecap:butt;stroke-linejoin:miter;stroke-opacity:1" d="M 966.432,274.545 976.781,286.373 z" id="boundary" inkscape:connector-curvature="0" />
	<path style="fill:none;stroke:red;stroke-width:1px;stroke-linecap:butt;stroke-linejoin:miter;stroke-opacity:1" d="M 987.13,341.073 975.303,352.9 z" id="boundary" inkscape:connector-curvature="0" />
	<path style="fill:none;stroke:red;stroke-width:1px;stroke-linecap:butt;stroke-linejoin:miter;stroke-opacity:1" d="M 996,310.027 996,324.811 z" id="boundary" inkscape:connector-curvature="0" />
	<path style="fill:none;stroke:red;stroke-width:1px;stroke-linecap:butt;stroke-linejoin:miter;stroke-opacity:1" d="M 996,310.027 988.608,296.721 z" id="boundary" inkscape:connector-curvature="0" />
	<path style="fill:none;stroke:red;stroke-width:1px;stroke-linecap:butt;stroke-linejoin:miter;stroke-opacity:1" d="M 996,324.811 987.13,341.073 z" id="boundary" inkscape:connector-curvature="0" />
	<circle cx="4" cy="244.978" r="4" fill="#0" id="circle0"/>
	<circle cx="4" cy="259.762" r="4" fill="#0" id="circle1"/>
	<circle cx="4" cy="274.545" r="4" fill="#0" id="circle2"/>
	<circle cx="11.392" cy="200.626" r="4" fill="#0" id="circle3"/>
	<circle cx="11.392" cy="215.41" r="4" fill="#0" id="circle4"/>
	<circle cx="11.392" cy="230.194" r="4" fill="#0" id="circle5"/>
	<circle cx="11.392" cy="287.851" r="4" fill="#0" id="circle6"/>
	<circle cx="18.7839" cy="185.842" r="4" fill="#0" id="circle7"/>
	<circle cx="18.7839" cy="301.156" r="4" fill="#0" id="circle8"/>
	<circle cx="26.1759" cy="163.666" r="4" fill="#0" id="circle9"/>
	<circle cx="26.1759" cy="314.462" r="4" fill="#0" id="circle10"/>
	<circle cx="33.5678" cy="148.882" r="4" fill="#0" id="circle11"/>
	<circle cx="35.0462" cy="326.289" r="4" fill="#0" id="circle12"/>
	<circle cx="40.9598" cy="341.073" r="4" fill="#0" id="circle13"/>
	<circle cx="48.3517" cy="141.49" r="4" fill="#0" id="circle14"/>
	<circle cx="48.3517" cy="354.379" r="4" fill="#0" id="circle15"/>
	<circle cx="63.1356" cy="137.055" r="4" fill="#0" id="circle16"/>
	<circle cx="63.1356" cy="360.292" r="4" fill="#0" id="circle17"/>
	<circle cx="76.4411" cy="144.447" r="4" fill="#0" id="circle18"/>
	<circle cx="77.9195" cy="355.857" r="4" fill="#0" id="circle19"/>
	<circle cx="89.7466" cy="151.839" r="4" fill="#0" id="circle20"/>
	<circle cx="89.7466" cy="345.508" r="4" fill="#0" id="circle21"/>
	<circle cx="103.052" cy="338.116" r="4" fill="#0" id="circle22"/>
	<circle cx="104.531" cy="151.839" r="4" fill="#0" id="circle23"/>
	<circle cx="116.358" cy="330.724" r="4" fill="#0" id="circle24"/>
	<circle cx="117.836" cy="159.231" r="4" fill="#0" id="circle25"/>
	<circle cx="128.185" cy="320.376" r="4" fill="#0" id="circle26"/>
	<circle cx="129.663" cy="169.58" r="4" fill="#0" id="circle27"/>
	<circle cx="138.534" cy="308.548" r="4" fill="#0" id="circle28"/>
	<circle cx="142.969" cy="176.972" r="4" fill="#0" id="circle29"/>
	<circle cx="153.317" cy="301.156" r="4" fill="#0" id="circle30"/>
	<circle cx="157.753" cy="182.885" r="4" fill="#0" id="circle31"/>
	<circle cx="166.623" cy="293.765" r="4" fill="#0" id="circle32"/>
	<circle cx="172.537" cy="188.799" r="4" fill="#0" id="circle33"/>
	<circle cx="179.928" cy="286.373" r="4" fill="#0" id="circle34"/>
	<circle cx="185.842" cy="196.191" r="4" fill="#0" id="circle35"/>
	<circle cx="193.234" cy="278.981" r="4" fill="#0" id="circle36"/>
	<circle cx="200.626" cy="196.191" r="4" fill="#0" id="circle37"/>
	<circle cx="208.018" cy="278.981" r="4" fill="#0" id="circle38"/>
	<circle cx="215.41" cy="196.191" r="4" fill="#0" id="circle39"/>
	<circle cx="222.802" cy="278.981" r="4" fill="#0" id="circle40"/>
	<circle cx="227.237" cy="184.364" r="4" fill="#0" id="circle41"/>
	<circle cx="233.151" cy="290.808" r="4" fill="#0" id="circle42"/>
	<circle cx="234.629" cy="169.58" r="4" fill="#0" id="circle43"/>
	<circle cx="234.629" cy="305.592" r="4" fill="#0" id="circle44"/>
	<circle cx="246.456" cy="159.231" r="4" fill="#0" id="circle45"/>
	<circle cx="246.456" cy="315.94" r="4" fill="#0" id="circle46"/>
	<circle cx="256.805" cy="147.404" r="4" fill="#0" id="circle47"/>
	<circle cx="256.805" cy="327.768" r="4" fill="#0" id="circle48"/>
	<circle cx="268.632" cy="137.055" r="4" fill="#0" id="circle49"/>
	<circle cx="268.632" cy="338.116" r="4" fill="#0" id="circle50"/>
	<circle cx="278.981" cy="349.943" r="4" fill="#0" id="circle51"/>
	<circle cx="281.937" cy="129.663" r="4" fill="#0" id="circle52"/>
	<circle cx="290.808" cy="360.292" r="4" fill="#0" id="circle53"/>
	<circle cx="295.243" cy="122.271" r="4" fill="#0" id="circle54"/>
	<circle cx="299.678" cy="372.119" r="4" fill="#0" id="circle55"/>
	<circle cx="307.07" cy="111.923" r="4" fill="#0" id="circle56"/>
	<circle cx="307.07" cy="385.425" r="4" fill="#0" id="circle57"/>
	<circle cx="318.897" cy="100.095" r="4" fill="#0" id="circle58"/>
	<circle cx="318.897" cy="395.773" r="4" fill="#0" id="circle59"/>
	<circle cx="330.724" cy="404.644" r="4" fill="#0" id="circle60"/>
	<circle cx="333.681" cy="92.7034" r="4" fill="#0" id="circle61"/>
	<circle cx="344.03" cy="412.036" r="4" fill="#0" id="circle62"/>
	<circle cx="348.465" cy="85.3115" r="4" fill="#0" id="circle63"/>
	<circle cx="357.335" cy="419.428" r="4" fill="#0" id="circle64"/>
	<circle cx="361.77" cy="77.9195" r="4" fill="#0" id="circle65"/>
	<circle cx="370.641" cy="426.82" r="4" fill="#0" id="circle66"/>
	<circle cx="373.598" cy="67.5708" r="4" fill="#0" id="circle67"/>
	<circle cx="383.946" cy="434.212" r="4" fill="#0" id="circle68"/>
	<circle cx="385.425" cy="55.7437" r="4" fill="#0" id="circle69"/>
	<circle cx="398.73" cy="48.3517" r="4" fill="#0" id="circle70"/>
	<circle cx="398.73" cy="434.212" r="4" fill="#0" id="circle71"/>
	<circle cx="410.557" cy="38.003" r="4" fill="#0" id="circle72"/>
	<circle cx="413.514" cy="434.212" r="4" fill="#0" id="circle73"/>
	<circle cx="422.385" cy="26.1759" r="4" fill="#0" id="circle74"/>
	<circle cx="428.298" cy="438.647" r="4" fill="#0" id="circle75"/>
	<circle cx="437.168" cy="18.7839" r="4" fill="#0" id="circle76"/>
	<circle cx="443.082" cy="441.604" r="4" fill="#0" id="circle77"/>
	<circle cx="450.474" cy="11.392" r="4" fill="#0" id="circle78"/>
	<circle cx="456.387" cy="448.996" r="4" fill="#0" id="circle79"/>
	<circle cx="463.779" cy="4" r="4" fill="#0" id="circle80"/>
	<circle cx="469.693" cy="456.387" r="4" fill="#0" id="circle81"/>
	<circle cx="478.563" cy="4" r="4" fill="#0" id="circle82"/>
	<circle cx="484.477" cy="456.387" r="4" fill="#0" id="circle83"/>
	<circle cx="493.347" cy="4" r="4" fill="#0" id="circle84"/>
	<circle cx="499.261" cy="456.387" r="4" fill="#0" id="circle85"/>
	<circle cx="508.131" cy="4" r="4" fill="#0" id="circle86"/>
	<circle cx="514.045" cy="456.387" r="4" fill="#0" id="circle87"/>
	<circle cx="522.915" cy="4" r="4" fill="#0" id="circle88"/>
	<circle cx="528.829" cy="456.387" r="4" fill="#0" id="circle89"/>
	<circle cx="537.699" cy="4" r="4" fill="#0" id="circle90"/>
	<circle cx="543.613" cy="456.387" r="4" fill="#0" id="circle91"/>
	<circle cx="552.483" cy="4" r="4" fill="#0" id="circle92"/>
	<circle cx="558.396" cy="456.387" r="4" fill="#0" id="circle93"/>
	<circle cx="567.267" cy="4" r="4" fill="#0" id="circle94"/>
	<circle cx="573.18" cy="456.387" r="4" fill="#0" id="circle95"/>
	<circle cx="582.051" cy="4" r="4" fill="#0" id="circle96"/>
	<circle cx="587.964" cy="456.387" r="4" fill="#0" id="circle97"/>
	<circle cx="596.835" cy="4" r="4" fill="#0" id="circle98"/>
	<circle cx="602.748" cy="456.387" r="4" fill="#0" id="circle99"/>
	<circle cx="611.618" cy="4" r="4" fill="#0" id="circle100"/>
	<circle cx="617.532" cy="456.387" r="4" fill="#0" id="circle101"/>
	<circle cx="626.402" cy="8.43517" r="4" fill="#0" id="circle102"/>
	<circle cx="632.316" cy="456.387" r="4" fill="#0" id="circle103"/>
	<circle cx="639.708" cy="15.8271" r="4" fill="#0" id="circle104"/>
	<circle cx="647.1" cy="456.387" r="4" fill="#0" id="circle105"/>
	<circle cx="654.492" cy="18.7839" r="4" fill="#0" id="circle106"/>
	<circle cx="660.405" cy="463.779" r="4" fill="#0" id="circle107"/>
	<circle cx="667.797" cy="26.1759" r="4" fill="#0" id="circle108"/>
	<circle cx="675.189" cy="463.779" r="4" fill="#0" id="circle109"/>
	<circle cx="681.103" cy="33.5678" r="4" fill="#0" id="circle110"/>
	<circle cx="689.973" cy="463.779" r="4" fill="#0" id="circle111"/>
	<circle cx="695.887" cy="33.5678" r="4" fill="#0" id="circle112"/>
	<circle cx="704.757" cy="463.779" r="4" fill="#0" id="circle113"/>
	<circle cx="709.192" cy="40.9598" r="4" fill="#0" id="circle114"/>
	<circle cx="719.541" cy="463.779" r="4" fill="#0" id="circle115"/>
	<circle cx="722.498" cy="48.3517" r="4" fill="#0" id="circle116"/>
	<circle cx="734.325" cy="463.779" r="4" fill="#0" id="circle117"/>
	<circle cx="737.282" cy="52.7869" r="4" fill="#0" id="circle118"/>
	<circle cx="749.109" cy="63.1356" r="4" fill="#0" id="circle119"/>
	<circle cx="749.109" cy="463.779" r="4" fill="#0" id="circle120"/>
	<circle cx="762.414" cy="70.5276" r="4" fill="#0" id="circle121"/>
	<circle cx="763.893" cy="463.779" r="4" fill="#0" id="circle122"/>
	<circle cx="775.72" cy="77.9195" r="4" fill="#0" id="circle123"/>
	<circle cx="778.677" cy="463.779" r="4" fill="#0" id="circle124"/>
	<circle cx="787.547" cy="88.2683" r="4" fill="#0" id="circle125"/>
	<circle cx="793.461" cy="463.779" r="4" fill="#0" id="circle126"/>
	<circle cx="796.417" cy="100.095" r="4" fill="#0" id="circle127"/>
	<circle cx="806.766" cy="454.909" r="4" fill="#0" id="circle128"/>
	<circle cx="809.723" cy="107.487" r="4" fill="#0" id="circle129"/>
	<circle cx="818.593" cy="119.314" r="4" fill="#0" id="circle130"/>
	<circle cx="821.55" cy="447.517" r="4" fill="#0" id="circle131"/>
	<circle cx="828.942" cy="131.142" r="4" fill="#0" id="circle132"/>
	<circle cx="836.334" cy="440.125" r="4" fill="#0" id="circle133"/>
	<circle cx="840.769" cy="141.49" r="4" fill="#0" id="circle134"/>
	<circle cx="848.161" cy="426.82" r="4" fill="#0" id="circle135"/>
	<circle cx="851.118" cy="153.317" r="4" fill="#0" id="circle136"/>
	<circle cx="855.553" cy="412.036" r="4" fill="#0" id="circle137"/>
	<circle cx="862.945" cy="163.666" r="4" fill="#0" id="circle138"/>
	<circle cx="862.945" cy="397.252" r="4" fill="#0" id="circle139"/>
	<circle cx="873.294" cy="175.493" r="4" fill="#0" id="circle140"/>
	<circle cx="876.25" cy="389.86" r="4" fill="#0" id="circle141"/>
	<circle cx="880.686" cy="188.799" r="4" fill="#0" id="circle142"/>
	<circle cx="889.556" cy="382.468" r="4" fill="#0" id="circle143"/>
	<circle cx="891.034" cy="200.626" r="4" fill="#0" id="circle144"/>
	<circle cx="899.905" cy="212.453" r="4" fill="#0" id="circle145"/>
	<circle cx="902.861" cy="375.076" r="4" fill="#0" id="circle146"/>
	<circle cx="907.297" cy="225.759" r="4" fill="#0" id="circle147"/>
	<circle cx="917.645" cy="373.598" r="4" fill="#0" id="circle148"/>
	<circle cx="919.124" cy="234.629" r="4" fill="#0" id="circle149"/>
	<circle cx="929.472" cy="246.456" r="4" fill="#0" id="circle150"/>
	<circle cx="932.429" cy="366.206" r="4" fill="#0" id="circle151"/>
	<circle cx="941.3" cy="256.805" r="4" fill="#0" id="circle152"/>
	<circle cx="947.213" cy="360.292" r="4" fill="#0" id="circle153"/>
	<circle cx="954.605" cy="264.197" r="4" fill="#0" id="circle154"/>
	<circle cx="960.519" cy="352.9" r="4" fill="#0" id="circle155"/>
	<circle cx="966.432" cy="274.545" r="4" fill="#0" id="circle156"/>
	<circle cx="975.303" cy="352.9" r="4" fill="#0" id="circle157"/>
	<circle cx="976.781" cy="286.373" r="4" fill="#0" id="circle158"/>
	<circle cx="987.13" cy="341.073" r="4" fill="#0" id="circle159"/>
	<circle cx="988.608" cy="296.721" r="4" fill="#0" id="circle160"/>
	<circle cx="996" cy="310.027" r="4" fill="#0" id="circle161"/>
	<circle cx="996" cy="324.811" r="4" fill="#0" id="circle162"/>
	</g>
</svg>