<?xml version="1.0" encoding="UTF-8" standalone="no"?>
<!-- Created with CurveBenchmark -->
<svg
	xmlns:dc="http://purl.org/dc/elements/1.1/"
	xmlns:cc="http://creativecommons.org/ns#"
	xmlns:rdf="http://www.w3.org/1999/02/22-rdf-syntax-ns#"
	xmlns:svg="http://www.w3.org/2000/svg"
	xmlns="http://www.w3.org/2000/svg"
	xmlns:sodipodi="http://sodipodi.sourceforge.net/DTD/sodipodi-0.dtd"
	xmlns:inkscape="http://www.inkscape.org/namespaces/inkscape"
	width="1000"
	height="1000"
	id="svg2"
	version="1.1"
	sodipodi:docname="manifold/peel-kitchenknifebinary3.png.txt">
<defs
	id="defs4" />
<metadata
	id="metadata7">
	<rdf:RDF>
		<cc:Work
			rdf:about="">
			<dc:format>image/svg+xml</dc:format>
			<dc:type
				rdf:resource="http://purl.org/dc/dcmitype/StillImage" />
			<dc:title></dc:title>
		</cc:Work>
	</rdf:RDF>
</metadata>
<g
	inkscape:label="Layer 1"
	inkscape:groupmode="layer"
	id="layer1">
	<path style="fill:none;stroke:red;stroke-width:1px;stroke-linecap:butt;stroke-linejoin:miter;stroke-opacity:1" d="M 13.0127,71.295 7.60509,68.2907 z" id="boundary" inkscape:connector-curvature="0" />
	<path style="fill:none;stroke:red;stroke-width:1px;stroke-linecap:butt;stroke-linejoin:miter;stroke-opacity:1" d="M 7.60509,68.2907 4,63.4839 z" id="boundary" inkscape:connector-curvature="0" />
	<path style="fill:none;stroke:red;stroke-width:1px;stroke-linecap:butt;stroke-linejoin:miter;stroke-opacity:1" d="M 4,63.4839 9.40763,60.4797 z" id="boundary" inkscape:connector-curvature="0" />
	<path style="fill:none;stroke:red;stroke-width:1px;stroke-linecap:butt;stroke-linejoin:miter;stroke-opacity:1" d="M 15.4161,58.0763 9.40763,60.4797 z" id="boundary" inkscape:connector-curvature="0" />
	<path style="fill:none;stroke:red;stroke-width:1px;stroke-linecap:butt;stroke-linejoin:miter;stroke-opacity:1" d="M 19.0212,71.8958 13.0127,71.295 z" id="boundary" inkscape:connector-curvature="0" />
	<path style="fill:none;stroke:red;stroke-width:1px;stroke-linecap:butt;stroke-linejoin:miter;stroke-opacity:1" d="M 21.4246,57.4755 15.4161,58.0763 z" id="boundary" inkscape:connector-curvature="0" />
	<path style="fill:none;stroke:red;stroke-width:1px;stroke-linecap:butt;stroke-linejoin:miter;stroke-opacity:1" d="M 23.828,75.5009 19.0212,71.8958 z" id="boundary" inkscape:connector-curvature="0" />
	<path style="fill:none;stroke:red;stroke-width:1px;stroke-linecap:butt;stroke-linejoin:miter;stroke-opacity:1" d="M 27.4331,56.2738 21.4246,57.4755 z" id="boundary" inkscape:connector-curvature="0" />
	<path style="fill:none;stroke:red;stroke-width:1px;stroke-linecap:butt;stroke-linejoin:miter;stroke-opacity:1" d="M 29.8365,76.7026 23.828,75.5009 z" id="boundary" inkscape:connector-curvature="0" />
	<path style="fill:none;stroke:red;stroke-width:1px;stroke-linecap:butt;stroke-linejoin:miter;stroke-opacity:1" d="M 33.4416,55.0721 27.4331,56.2738 z" id="boundary" inkscape:connector-curvature="0" />
	<path style="fill:none;stroke:red;stroke-width:1px;stroke-linecap:butt;stroke-linejoin:miter;stroke-opacity:1" d="M 35.2441,79.7068 29.8365,76.7026 z" id="boundary" inkscape:connector-curvature="0" />
	<path style="fill:none;stroke:red;stroke-width:1px;stroke-linecap:butt;stroke-linejoin:miter;stroke-opacity:1" d="M 39.45,53.8704 33.4416,55.0721 z" id="boundary" inkscape:connector-curvature="0" />
	<path style="fill:none;stroke:red;stroke-width:1px;stroke-linecap:butt;stroke-linejoin:miter;stroke-opacity:1" d="M 41.2526,81.5094 35.2441,79.7068 z" id="boundary" inkscape:connector-curvature="0" />
	<path style="fill:none;stroke:red;stroke-width:1px;stroke-linecap:butt;stroke-linejoin:miter;stroke-opacity:1" d="M 45.4585,52.6687 39.45,53.8704 z" id="boundary" inkscape:connector-curvature="0" />
	<path style="fill:none;stroke:red;stroke-width:1px;stroke-linecap:butt;stroke-linejoin:miter;stroke-opacity:1" d="M 47.2611,83.3119 41.2526,81.5094 z" id="boundary" inkscape:connector-curvature="0" />
	<path style="fill:none;stroke:red;stroke-width:1px;stroke-linecap:butt;stroke-linejoin:miter;stroke-opacity:1" d="M 51.467,51.467 45.4585,52.6687 z" id="boundary" inkscape:connector-curvature="0" />
	<path style="fill:none;stroke:red;stroke-width:1px;stroke-linecap:butt;stroke-linejoin:miter;stroke-opacity:1" d="M 53.2695,83.3119 47.2611,83.3119 z" id="boundary" inkscape:connector-curvature="0" />
	<path style="fill:none;stroke:red;stroke-width:1px;stroke-linecap:butt;stroke-linejoin:miter;stroke-opacity:1" d="M 57.4755,50.8661 51.467,51.467 z" id="boundary" inkscape:connector-curvature="0" />
	<path style="fill:none;stroke:red;stroke-width:1px;stroke-linecap:butt;stroke-linejoin:miter;stroke-opacity:1" d="M 59.278,85.1145 53.2695,83.3119 z" id="boundary" inkscape:connector-curvature="0" />
	<path style="fill:none;stroke:red;stroke-width:1px;stroke-linecap:butt;stroke-linejoin:miter;stroke-opacity:1" d="M 63.4839,50.2653 57.4755,50.8661 z" id="boundary" inkscape:connector-curvature="0" />
	<path style="fill:none;stroke:red;stroke-width:1px;stroke-linecap:butt;stroke-linejoin:miter;stroke-opacity:1" d="M 65.2865,85.7153 59.278,85.1145 z" id="boundary" inkscape:connector-curvature="0" />
	<path style="fill:none;stroke:red;stroke-width:1px;stroke-linecap:butt;stroke-linejoin:miter;stroke-opacity:1" d="M 69.4924,49.0636 63.4839,50.2653 z" id="boundary" inkscape:connector-curvature="0" />
	<path style="fill:none;stroke:red;stroke-width:1px;stroke-linecap:butt;stroke-linejoin:miter;stroke-opacity:1" d="M 71.295,88.1187 65.2865,85.7153 z" id="boundary" inkscape:connector-curvature="0" />
	<path style="fill:none;stroke:red;stroke-width:1px;stroke-linecap:butt;stroke-linejoin:miter;stroke-opacity:1" d="M 69.4924,49.0636 75.5009,48.4627 z" id="boundary" inkscape:connector-curvature="0" />
	<path style="fill:none;stroke:red;stroke-width:1px;stroke-linecap:butt;stroke-linejoin:miter;stroke-opacity:1" d="M 77.3035,89.3204 71.295,88.1187 z" id="boundary" inkscape:connector-curvature="0" />
	<path style="fill:none;stroke:red;stroke-width:1px;stroke-linecap:butt;stroke-linejoin:miter;stroke-opacity:1" d="M 81.5094,47.2611 75.5009,48.4627 z" id="boundary" inkscape:connector-curvature="0" />
	<path style="fill:none;stroke:red;stroke-width:1px;stroke-linecap:butt;stroke-linejoin:miter;stroke-opacity:1" d="M 83.3119,91.123 77.3035,89.3204 z" id="boundary" inkscape:connector-curvature="0" />
	<path style="fill:none;stroke:red;stroke-width:1px;stroke-linecap:butt;stroke-linejoin:miter;stroke-opacity:1" d="M 87.5179,46.6602 81.5094,47.2611 z" id="boundary" inkscape:connector-curvature="0" />
	<path style="fill:none;stroke:red;stroke-width:1px;stroke-linecap:butt;stroke-linejoin:miter;stroke-opacity:1" d="M 89.3204,91.7238 83.3119,91.123 z" id="boundary" inkscape:connector-curvature="0" />
	<path style="fill:none;stroke:red;stroke-width:1px;stroke-linecap:butt;stroke-linejoin:miter;stroke-opacity:1" d="M 93.5263,45.4585 87.5179,46.6602 z" id="boundary" inkscape:connector-curvature="0" />
	<path style="fill:none;stroke:red;stroke-width:1px;stroke-linecap:butt;stroke-linejoin:miter;stroke-opacity:1" d="M 95.3289,92.9255 89.3204,91.7238 z" id="boundary" inkscape:connector-curvature="0" />
	<path style="fill:none;stroke:red;stroke-width:1px;stroke-linecap:butt;stroke-linejoin:miter;stroke-opacity:1" d="M 99.5348,44.8577 93.5263,45.4585 z" id="boundary" inkscape:connector-curvature="0" />
	<path style="fill:none;stroke:red;stroke-width:1px;stroke-linecap:butt;stroke-linejoin:miter;stroke-opacity:1" d="M 101.337,94.728 95.3289,92.9255 z" id="boundary" inkscape:connector-curvature="0" />
	<path style="fill:none;stroke:red;stroke-width:1px;stroke-linecap:butt;stroke-linejoin:miter;stroke-opacity:1" d="M 105.543,44.2568 99.5348,44.8577 z" id="boundary" inkscape:connector-curvature="0" />
	<path style="fill:none;stroke:red;stroke-width:1px;stroke-linecap:butt;stroke-linejoin:miter;stroke-opacity:1" d="M 107.346,94.728 101.337,94.728 z" id="boundary" inkscape:connector-curvature="0" />
	<path style="fill:none;stroke:red;stroke-width:1px;stroke-linecap:butt;stroke-linejoin:miter;stroke-opacity:1" d="M 111.552,44.2568 105.543,44.2568 z" id="boundary" inkscape:connector-curvature="0" />
	<path style="fill:none;stroke:red;stroke-width:1px;stroke-linecap:butt;stroke-linejoin:miter;stroke-opacity:1" d="M 113.354,95.3289 107.346,94.728 z" id="boundary" inkscape:connector-curvature="0" />
	<path style="fill:none;stroke:red;stroke-width:1px;stroke-linecap:butt;stroke-linejoin:miter;stroke-opacity:1" d="M 117.56,43.0551 111.552,44.2568 z" id="boundary" inkscape:connector-curvature="0" />
	<path style="fill:none;stroke:red;stroke-width:1px;stroke-linecap:butt;stroke-linejoin:miter;stroke-opacity:1" d="M 119.363,96.5306 113.354,95.3289 z" id="boundary" inkscape:connector-curvature="0" />
	<path style="fill:none;stroke:red;stroke-width:1px;stroke-linecap:butt;stroke-linejoin:miter;stroke-opacity:1" d="M 123.569,42.4543 117.56,43.0551 z" id="boundary" inkscape:connector-curvature="0" />
	<path style="fill:none;stroke:red;stroke-width:1px;stroke-linecap:butt;stroke-linejoin:miter;stroke-opacity:1" d="M 125.371,97.7323 119.363,96.5306 z" id="boundary" inkscape:connector-curvature="0" />
	<path style="fill:none;stroke:red;stroke-width:1px;stroke-linecap:butt;stroke-linejoin:miter;stroke-opacity:1" d="M 129.577,41.8534 123.569,42.4543 z" id="boundary" inkscape:connector-curvature="0" />
	<path style="fill:none;stroke:red;stroke-width:1px;stroke-linecap:butt;stroke-linejoin:miter;stroke-opacity:1" d="M 131.38,98.3331 125.371,97.7323 z" id="boundary" inkscape:connector-curvature="0" />
	<path style="fill:none;stroke:red;stroke-width:1px;stroke-linecap:butt;stroke-linejoin:miter;stroke-opacity:1" d="M 135.586,41.8534 129.577,41.8534 z" id="boundary" inkscape:connector-curvature="0" />
	<path style="fill:none;stroke:red;stroke-width:1px;stroke-linecap:butt;stroke-linejoin:miter;stroke-opacity:1" d="M 137.388,98.934 131.38,98.3331 z" id="boundary" inkscape:connector-curvature="0" />
	<path style="fill:none;stroke:red;stroke-width:1px;stroke-linecap:butt;stroke-linejoin:miter;stroke-opacity:1" d="M 141.594,40.6517 135.586,41.8534 z" id="boundary" inkscape:connector-curvature="0" />
	<path style="fill:none;stroke:red;stroke-width:1px;stroke-linecap:butt;stroke-linejoin:miter;stroke-opacity:1" d="M 143.397,100.136 137.388,98.934 z" id="boundary" inkscape:connector-curvature="0" />
	<path style="fill:none;stroke:red;stroke-width:1px;stroke-linecap:butt;stroke-linejoin:miter;stroke-opacity:1" d="M 147.603,40.6517 141.594,40.6517 z" id="boundary" inkscape:connector-curvature="0" />
	<path style="fill:none;stroke:red;stroke-width:1px;stroke-linecap:butt;stroke-linejoin:miter;stroke-opacity:1" d="M 149.405,100.136 143.397,100.136 z" id="boundary" inkscape:connector-curvature="0" />
	<path style="fill:none;stroke:red;stroke-width:1px;stroke-linecap:butt;stroke-linejoin:miter;stroke-opacity:1" d="M 153.611,40.6517 147.603,40.6517 z" id="boundary" inkscape:connector-curvature="0" />
	<path style="fill:none;stroke:red;stroke-width:1px;stroke-linecap:butt;stroke-linejoin:miter;stroke-opacity:1" d="M 155.414,101.337 149.405,100.136 z" id="boundary" inkscape:connector-curvature="0" />
	<path style="fill:none;stroke:red;stroke-width:1px;stroke-linecap:butt;stroke-linejoin:miter;stroke-opacity:1" d="M 159.62,39.45 165.628,39.45 z" id="boundary" inkscape:connector-curvature="0" />
	<path style="fill:none;stroke:red;stroke-width:1px;stroke-linecap:butt;stroke-linejoin:miter;stroke-opacity:1" d="M 159.62,39.45 153.611,40.6517 z" id="boundary" inkscape:connector-curvature="0" />
	<path style="fill:none;stroke:red;stroke-width:1px;stroke-linecap:butt;stroke-linejoin:miter;stroke-opacity:1" d="M 161.422,101.938 155.414,101.337 z" id="boundary" inkscape:connector-curvature="0" />
	<path style="fill:none;stroke:red;stroke-width:1px;stroke-linecap:butt;stroke-linejoin:miter;stroke-opacity:1" d="M 167.431,101.938 161.422,101.938 z" id="boundary" inkscape:connector-curvature="0" />
	<path style="fill:none;stroke:red;stroke-width:1px;stroke-linecap:butt;stroke-linejoin:miter;stroke-opacity:1" d="M 171.637,38.8492 165.628,39.45 z" id="boundary" inkscape:connector-curvature="0" />
	<path style="fill:none;stroke:red;stroke-width:1px;stroke-linecap:butt;stroke-linejoin:miter;stroke-opacity:1" d="M 173.439,103.14 167.431,101.938 z" id="boundary" inkscape:connector-curvature="0" />
	<path style="fill:none;stroke:red;stroke-width:1px;stroke-linecap:butt;stroke-linejoin:miter;stroke-opacity:1" d="M 177.645,38.2483 171.637,38.8492 z" id="boundary" inkscape:connector-curvature="0" />
	<path style="fill:none;stroke:red;stroke-width:1px;stroke-linecap:butt;stroke-linejoin:miter;stroke-opacity:1" d="M 179.448,103.741 173.439,103.14 z" id="boundary" inkscape:connector-curvature="0" />
	<path style="fill:none;stroke:red;stroke-width:1px;stroke-linecap:butt;stroke-linejoin:miter;stroke-opacity:1" d="M 183.654,38.2483 177.645,38.2483 z" id="boundary" inkscape:connector-curvature="0" />
	<path style="fill:none;stroke:red;stroke-width:1px;stroke-linecap:butt;stroke-linejoin:miter;stroke-opacity:1" d="M 185.456,104.342 179.448,103.741 z" id="boundary" inkscape:connector-curvature="0" />
	<path style="fill:none;stroke:red;stroke-width:1px;stroke-linecap:butt;stroke-linejoin:miter;stroke-opacity:1" d="M 189.662,37.6475 183.654,38.2483 z" id="boundary" inkscape:connector-curvature="0" />
	<path style="fill:none;stroke:red;stroke-width:1px;stroke-linecap:butt;stroke-linejoin:miter;stroke-opacity:1" d="M 191.465,104.942 185.456,104.342 z" id="boundary" inkscape:connector-curvature="0" />
	<path style="fill:none;stroke:red;stroke-width:1px;stroke-linecap:butt;stroke-linejoin:miter;stroke-opacity:1" d="M 195.671,37.6475 189.662,37.6475 z" id="boundary" inkscape:connector-curvature="0" />
	<path style="fill:none;stroke:red;stroke-width:1px;stroke-linecap:butt;stroke-linejoin:miter;stroke-opacity:1" d="M 197.473,104.942 191.465,104.942 z" id="boundary" inkscape:connector-curvature="0" />
	<path style="fill:none;stroke:red;stroke-width:1px;stroke-linecap:butt;stroke-linejoin:miter;stroke-opacity:1" d="M 201.679,37.6475 195.671,37.6475 z" id="boundary" inkscape:connector-curvature="0" />
	<path style="fill:none;stroke:red;stroke-width:1px;stroke-linecap:butt;stroke-linejoin:miter;stroke-opacity:1" d="M 203.482,105.543 197.473,104.942 z" id="boundary" inkscape:connector-curvature="0" />
	<path style="fill:none;stroke:red;stroke-width:1px;stroke-linecap:butt;stroke-linejoin:miter;stroke-opacity:1" d="M 207.687,37.0466 201.679,37.6475 z" id="boundary" inkscape:connector-curvature="0" />
	<path style="fill:none;stroke:red;stroke-width:1px;stroke-linecap:butt;stroke-linejoin:miter;stroke-opacity:1" d="M 209.49,106.144 203.482,105.543 z" id="boundary" inkscape:connector-curvature="0" />
	<path style="fill:none;stroke:red;stroke-width:1px;stroke-linecap:butt;stroke-linejoin:miter;stroke-opacity:1" d="M 213.696,36.4458 207.687,37.0466 z" id="boundary" inkscape:connector-curvature="0" />
	<path style="fill:none;stroke:red;stroke-width:1px;stroke-linecap:butt;stroke-linejoin:miter;stroke-opacity:1" d="M 215.498,105.543 209.49,106.144 z" id="boundary" inkscape:connector-curvature="0" />
	<path style="fill:none;stroke:red;stroke-width:1px;stroke-linecap:butt;stroke-linejoin:miter;stroke-opacity:1" d="M 219.704,35.8449 213.696,36.4458 z" id="boundary" inkscape:connector-curvature="0" />
	<path style="fill:none;stroke:red;stroke-width:1px;stroke-linecap:butt;stroke-linejoin:miter;stroke-opacity:1" d="M 221.507,106.745 215.498,105.543 z" id="boundary" inkscape:connector-curvature="0" />
	<path style="fill:none;stroke:red;stroke-width:1px;stroke-linecap:butt;stroke-linejoin:miter;stroke-opacity:1" d="M 219.704,35.8449 225.713,35.8449 z" id="boundary" inkscape:connector-curvature="0" />
	<path style="fill:none;stroke:red;stroke-width:1px;stroke-linecap:butt;stroke-linejoin:miter;stroke-opacity:1" d="M 227.515,106.745 221.507,106.745 z" id="boundary" inkscape:connector-curvature="0" />
	<path style="fill:none;stroke:red;stroke-width:1px;stroke-linecap:butt;stroke-linejoin:miter;stroke-opacity:1" d="M 231.721,35.2441 225.713,35.8449 z" id="boundary" inkscape:connector-curvature="0" />
	<path style="fill:none;stroke:red;stroke-width:1px;stroke-linecap:butt;stroke-linejoin:miter;stroke-opacity:1" d="M 233.524,107.346 227.515,106.745 z" id="boundary" inkscape:connector-curvature="0" />
	<path style="fill:none;stroke:red;stroke-width:1px;stroke-linecap:butt;stroke-linejoin:miter;stroke-opacity:1" d="M 237.73,35.2441 231.721,35.2441 z" id="boundary" inkscape:connector-curvature="0" />
	<path style="fill:none;stroke:red;stroke-width:1px;stroke-linecap:butt;stroke-linejoin:miter;stroke-opacity:1" d="M 239.532,107.346 233.524,107.346 z" id="boundary" inkscape:connector-curvature="0" />
	<path style="fill:none;stroke:red;stroke-width:1px;stroke-linecap:butt;stroke-linejoin:miter;stroke-opacity:1" d="M 243.738,35.2441 237.73,35.2441 z" id="boundary" inkscape:connector-curvature="0" />
	<path style="fill:none;stroke:red;stroke-width:1px;stroke-linecap:butt;stroke-linejoin:miter;stroke-opacity:1" d="M 245.541,107.346 239.532,107.346 z" id="boundary" inkscape:connector-curvature="0" />
	<path style="fill:none;stroke:red;stroke-width:1px;stroke-linecap:butt;stroke-linejoin:miter;stroke-opacity:1" d="M 249.747,35.2441 243.738,35.2441 z" id="boundary" inkscape:connector-curvature="0" />
	<path style="fill:none;stroke:red;stroke-width:1px;stroke-linecap:butt;stroke-linejoin:miter;stroke-opacity:1" d="M 251.549,107.947 245.541,107.346 z" id="boundary" inkscape:connector-curvature="0" />
	<path style="fill:none;stroke:red;stroke-width:1px;stroke-linecap:butt;stroke-linejoin:miter;stroke-opacity:1" d="M 255.755,34.6432 249.747,35.2441 z" id="boundary" inkscape:connector-curvature="0" />
	<path style="fill:none;stroke:red;stroke-width:1px;stroke-linecap:butt;stroke-linejoin:miter;stroke-opacity:1" d="M 257.558,108.548 251.549,107.947 z" id="boundary" inkscape:connector-curvature="0" />
	<path style="fill:none;stroke:red;stroke-width:1px;stroke-linecap:butt;stroke-linejoin:miter;stroke-opacity:1" d="M 261.764,33.4416 267.772,33.4416 z" id="boundary" inkscape:connector-curvature="0" />
	<path style="fill:none;stroke:red;stroke-width:1px;stroke-linecap:butt;stroke-linejoin:miter;stroke-opacity:1" d="M 261.764,33.4416 255.755,34.6432 z" id="boundary" inkscape:connector-curvature="0" />
	<path style="fill:none;stroke:red;stroke-width:1px;stroke-linecap:butt;stroke-linejoin:miter;stroke-opacity:1" d="M 263.566,108.548 257.558,108.548 z" id="boundary" inkscape:connector-curvature="0" />
	<path style="fill:none;stroke:red;stroke-width:1px;stroke-linecap:butt;stroke-linejoin:miter;stroke-opacity:1" d="M 269.575,109.148 263.566,108.548 z" id="boundary" inkscape:connector-curvature="0" />
	<path style="fill:none;stroke:red;stroke-width:1px;stroke-linecap:butt;stroke-linejoin:miter;stroke-opacity:1" d="M 273.781,33.4416 267.772,33.4416 z" id="boundary" inkscape:connector-curvature="0" />
	<path style="fill:none;stroke:red;stroke-width:1px;stroke-linecap:butt;stroke-linejoin:miter;stroke-opacity:1" d="M 275.583,109.148 269.575,109.148 z" id="boundary" inkscape:connector-curvature="0" />
	<path style="fill:none;stroke:red;stroke-width:1px;stroke-linecap:butt;stroke-linejoin:miter;stroke-opacity:1" d="M 279.789,33.4416 273.781,33.4416 z" id="boundary" inkscape:connector-curvature="0" />
	<path style="fill:none;stroke:red;stroke-width:1px;stroke-linecap:butt;stroke-linejoin:miter;stroke-opacity:1" d="M 281.592,109.148 275.583,109.148 z" id="boundary" inkscape:connector-curvature="0" />
	<path style="fill:none;stroke:red;stroke-width:1px;stroke-linecap:butt;stroke-linejoin:miter;stroke-opacity:1" d="M 285.798,32.8407 279.789,33.4416 z" id="boundary" inkscape:connector-curvature="0" />
	<path style="fill:none;stroke:red;stroke-width:1px;stroke-linecap:butt;stroke-linejoin:miter;stroke-opacity:1" d="M 287.6,109.148 293.609,109.749 z" id="boundary" inkscape:connector-curvature="0" />
	<path style="fill:none;stroke:red;stroke-width:1px;stroke-linecap:butt;stroke-linejoin:miter;stroke-opacity:1" d="M 287.6,109.148 281.592,109.148 z" id="boundary" inkscape:connector-curvature="0" />
	<path style="fill:none;stroke:red;stroke-width:1px;stroke-linecap:butt;stroke-linejoin:miter;stroke-opacity:1" d="M 291.806,32.2399 285.798,32.8407 z" id="boundary" inkscape:connector-curvature="0" />
	<path style="fill:none;stroke:red;stroke-width:1px;stroke-linecap:butt;stroke-linejoin:miter;stroke-opacity:1" d="M 297.815,31.639 291.806,32.2399 z" id="boundary" inkscape:connector-curvature="0" />
	<path style="fill:none;stroke:red;stroke-width:1px;stroke-linecap:butt;stroke-linejoin:miter;stroke-opacity:1" d="M 303.823,31.0382 297.815,31.639 z" id="boundary" inkscape:connector-curvature="0" />
	<path style="fill:none;stroke:red;stroke-width:1px;stroke-linecap:butt;stroke-linejoin:miter;stroke-opacity:1" d="M 299.617,109.749 293.609,109.749 z" id="boundary" inkscape:connector-curvature="0" />
	<path style="fill:none;stroke:red;stroke-width:1px;stroke-linecap:butt;stroke-linejoin:miter;stroke-opacity:1" d="M 305.626,107.947 299.617,109.749 z" id="boundary" inkscape:connector-curvature="0" />
	<path style="fill:none;stroke:red;stroke-width:1px;stroke-linecap:butt;stroke-linejoin:miter;stroke-opacity:1" d="M 309.832,31.0382 303.823,31.0382 z" id="boundary" inkscape:connector-curvature="0" />
	<path style="fill:none;stroke:red;stroke-width:1px;stroke-linecap:butt;stroke-linejoin:miter;stroke-opacity:1" d="M 311.634,109.148 305.626,107.947 z" id="boundary" inkscape:connector-curvature="0" />
	<path style="fill:none;stroke:red;stroke-width:1px;stroke-linecap:butt;stroke-linejoin:miter;stroke-opacity:1" d="M 315.84,31.0382 309.832,31.0382 z" id="boundary" inkscape:connector-curvature="0" />
	<path style="fill:none;stroke:red;stroke-width:1px;stroke-linecap:butt;stroke-linejoin:miter;stroke-opacity:1" d="M 317.643,109.148 311.634,109.148 z" id="boundary" inkscape:connector-curvature="0" />
	<path style="fill:none;stroke:red;stroke-width:1px;stroke-linecap:butt;stroke-linejoin:miter;stroke-opacity:1" d="M 321.849,30.4373 315.84,31.0382 z" id="boundary" inkscape:connector-curvature="0" />
	<path style="fill:none;stroke:red;stroke-width:1px;stroke-linecap:butt;stroke-linejoin:miter;stroke-opacity:1" d="M 323.651,109.148 329.66,109.749 z" id="boundary" inkscape:connector-curvature="0" />
	<path style="fill:none;stroke:red;stroke-width:1px;stroke-linecap:butt;stroke-linejoin:miter;stroke-opacity:1" d="M 323.651,109.148 317.643,109.148 z" id="boundary" inkscape:connector-curvature="0" />
	<path style="fill:none;stroke:red;stroke-width:1px;stroke-linecap:butt;stroke-linejoin:miter;stroke-opacity:1" d="M 327.857,30.4373 321.849,30.4373 z" id="boundary" inkscape:connector-curvature="0" />
	<path style="fill:none;stroke:red;stroke-width:1px;stroke-linecap:butt;stroke-linejoin:miter;stroke-opacity:1" d="M 333.866,30.4373 327.857,30.4373 z" id="boundary" inkscape:connector-curvature="0" />
	<path style="fill:none;stroke:red;stroke-width:1px;stroke-linecap:butt;stroke-linejoin:miter;stroke-opacity:1" d="M 335.668,107.947 329.66,109.749 z" id="boundary" inkscape:connector-curvature="0" />
	<path style="fill:none;stroke:red;stroke-width:1px;stroke-linecap:butt;stroke-linejoin:miter;stroke-opacity:1" d="M 339.874,29.8365 333.866,30.4373 z" id="boundary" inkscape:connector-curvature="0" />
	<path style="fill:none;stroke:red;stroke-width:1px;stroke-linecap:butt;stroke-linejoin:miter;stroke-opacity:1" d="M 341.677,109.749 335.668,107.947 z" id="boundary" inkscape:connector-curvature="0" />
	<path style="fill:none;stroke:red;stroke-width:1px;stroke-linecap:butt;stroke-linejoin:miter;stroke-opacity:1" d="M 345.882,29.8365 339.874,29.8365 z" id="boundary" inkscape:connector-curvature="0" />
	<path style="fill:none;stroke:red;stroke-width:1px;stroke-linecap:butt;stroke-linejoin:miter;stroke-opacity:1" d="M 347.685,110.35 341.677,109.749 z" id="boundary" inkscape:connector-curvature="0" />
	<path style="fill:none;stroke:red;stroke-width:1px;stroke-linecap:butt;stroke-linejoin:miter;stroke-opacity:1" d="M 351.891,28.6348 357.899,29.2356 z" id="boundary" inkscape:connector-curvature="0" />
	<path style="fill:none;stroke:red;stroke-width:1px;stroke-linecap:butt;stroke-linejoin:miter;stroke-opacity:1" d="M 351.891,28.6348 345.882,29.8365 z" id="boundary" inkscape:connector-curvature="0" />
	<path style="fill:none;stroke:red;stroke-width:1px;stroke-linecap:butt;stroke-linejoin:miter;stroke-opacity:1" d="M 353.694,108.548 347.685,110.35 z" id="boundary" inkscape:connector-curvature="0" />
	<path style="fill:none;stroke:red;stroke-width:1px;stroke-linecap:butt;stroke-linejoin:miter;stroke-opacity:1" d="M 359.702,109.148 353.694,108.548 z" id="boundary" inkscape:connector-curvature="0" />
	<path style="fill:none;stroke:red;stroke-width:1px;stroke-linecap:butt;stroke-linejoin:miter;stroke-opacity:1" d="M 363.908,28.6348 357.899,29.2356 z" id="boundary" inkscape:connector-curvature="0" />
	<path style="fill:none;stroke:red;stroke-width:1px;stroke-linecap:butt;stroke-linejoin:miter;stroke-opacity:1" d="M 365.71,109.749 359.702,109.148 z" id="boundary" inkscape:connector-curvature="0" />
	<path style="fill:none;stroke:red;stroke-width:1px;stroke-linecap:butt;stroke-linejoin:miter;stroke-opacity:1" d="M 369.916,28.6348 363.908,28.6348 z" id="boundary" inkscape:connector-curvature="0" />
	<path style="fill:none;stroke:red;stroke-width:1px;stroke-linecap:butt;stroke-linejoin:miter;stroke-opacity:1" d="M 389.744,109.148 395.753,109.148 z" id="boundary" inkscape:connector-curvature="0" />
	<path style="fill:none;stroke:red;stroke-width:1px;stroke-linecap:butt;stroke-linejoin:miter;stroke-opacity:1" d="M 371.719,109.148 365.71,109.749 z" id="boundary" inkscape:connector-curvature="0" />
	<path style="fill:none;stroke:red;stroke-width:1px;stroke-linecap:butt;stroke-linejoin:miter;stroke-opacity:1" d="M 375.925,27.4331 381.933,28.0339 z" id="boundary" inkscape:connector-curvature="0" />
	<path style="fill:none;stroke:red;stroke-width:1px;stroke-linecap:butt;stroke-linejoin:miter;stroke-opacity:1" d="M 375.925,27.4331 369.916,28.6348 z" id="boundary" inkscape:connector-curvature="0" />
	<path style="fill:none;stroke:red;stroke-width:1px;stroke-linecap:butt;stroke-linejoin:miter;stroke-opacity:1" d="M 377.727,108.548 371.719,109.148 z" id="boundary" inkscape:connector-curvature="0" />
	<path style="fill:none;stroke:red;stroke-width:1px;stroke-linecap:butt;stroke-linejoin:miter;stroke-opacity:1" d="M 383.736,109.148 377.727,108.548 z" id="boundary" inkscape:connector-curvature="0" />
	<path style="fill:none;stroke:red;stroke-width:1px;stroke-linecap:butt;stroke-linejoin:miter;stroke-opacity:1" d="M 387.942,28.0339 381.933,28.0339 z" id="boundary" inkscape:connector-curvature="0" />
	<path style="fill:none;stroke:red;stroke-width:1px;stroke-linecap:butt;stroke-linejoin:miter;stroke-opacity:1" d="M 389.744,109.148 383.736,109.148 z" id="boundary" inkscape:connector-curvature="0" />
	<path style="fill:none;stroke:red;stroke-width:1px;stroke-linecap:butt;stroke-linejoin:miter;stroke-opacity:1" d="M 393.95,26.8322 387.942,28.0339 z" id="boundary" inkscape:connector-curvature="0" />
	<path style="fill:none;stroke:red;stroke-width:1px;stroke-linecap:butt;stroke-linejoin:miter;stroke-opacity:1" d="M 395.753,109.148 401.761,109.148 z" id="boundary" inkscape:connector-curvature="0" />
	<path style="fill:none;stroke:red;stroke-width:1px;stroke-linecap:butt;stroke-linejoin:miter;stroke-opacity:1" d="M 399.959,26.2314 393.95,26.8322 z" id="boundary" inkscape:connector-curvature="0" />
	<path style="fill:none;stroke:red;stroke-width:1px;stroke-linecap:butt;stroke-linejoin:miter;stroke-opacity:1" d="M 401.761,109.148 407.77,109.148 z" id="boundary" inkscape:connector-curvature="0" />
	<path style="fill:none;stroke:red;stroke-width:1px;stroke-linecap:butt;stroke-linejoin:miter;stroke-opacity:1" d="M 405.967,25.6305 411.976,26.2314 z" id="boundary" inkscape:connector-curvature="0" />
	<path style="fill:none;stroke:red;stroke-width:1px;stroke-linecap:butt;stroke-linejoin:miter;stroke-opacity:1" d="M 405.967,25.6305 399.959,26.2314 z" id="boundary" inkscape:connector-curvature="0" />
	<path style="fill:none;stroke:red;stroke-width:1px;stroke-linecap:butt;stroke-linejoin:miter;stroke-opacity:1" d="M 413.778,108.548 407.77,109.148 z" id="boundary" inkscape:connector-curvature="0" />
	<path style="fill:none;stroke:red;stroke-width:1px;stroke-linecap:butt;stroke-linejoin:miter;stroke-opacity:1" d="M 417.984,25.6305 411.976,26.2314 z" id="boundary" inkscape:connector-curvature="0" />
	<path style="fill:none;stroke:red;stroke-width:1px;stroke-linecap:butt;stroke-linejoin:miter;stroke-opacity:1" d="M 419.787,108.548 413.778,108.548 z" id="boundary" inkscape:connector-curvature="0" />
	<path style="fill:none;stroke:red;stroke-width:1px;stroke-linecap:butt;stroke-linejoin:miter;stroke-opacity:1" d="M 423.993,25.0297 417.984,25.6305 z" id="boundary" inkscape:connector-curvature="0" />
	<path style="fill:none;stroke:red;stroke-width:1px;stroke-linecap:butt;stroke-linejoin:miter;stroke-opacity:1" d="M 425.795,108.548 419.787,108.548 z" id="boundary" inkscape:connector-curvature="0" />
	<path style="fill:none;stroke:red;stroke-width:1px;stroke-linecap:butt;stroke-linejoin:miter;stroke-opacity:1" d="M 430.001,25.0297 423.993,25.0297 z" id="boundary" inkscape:connector-curvature="0" />
	<path style="fill:none;stroke:red;stroke-width:1px;stroke-linecap:butt;stroke-linejoin:miter;stroke-opacity:1" d="M 431.804,108.548 425.795,108.548 z" id="boundary" inkscape:connector-curvature="0" />
	<path style="fill:none;stroke:red;stroke-width:1px;stroke-linecap:butt;stroke-linejoin:miter;stroke-opacity:1" d="M 436.01,24.4288 430.001,25.0297 z" id="boundary" inkscape:connector-curvature="0" />
	<path style="fill:none;stroke:red;stroke-width:1px;stroke-linecap:butt;stroke-linejoin:miter;stroke-opacity:1" d="M 437.812,107.947 431.804,108.548 z" id="boundary" inkscape:connector-curvature="0" />
	<path style="fill:none;stroke:red;stroke-width:1px;stroke-linecap:butt;stroke-linejoin:miter;stroke-opacity:1" d="M 442.018,24.4288 436.01,24.4288 z" id="boundary" inkscape:connector-curvature="0" />
	<path style="fill:none;stroke:red;stroke-width:1px;stroke-linecap:butt;stroke-linejoin:miter;stroke-opacity:1" d="M 443.821,107.947 437.812,107.947 z" id="boundary" inkscape:connector-curvature="0" />
	<path style="fill:none;stroke:red;stroke-width:1px;stroke-linecap:butt;stroke-linejoin:miter;stroke-opacity:1" d="M 448.027,23.828 442.018,24.4288 z" id="boundary" inkscape:connector-curvature="0" />
	<path style="fill:none;stroke:red;stroke-width:1px;stroke-linecap:butt;stroke-linejoin:miter;stroke-opacity:1" d="M 449.829,107.947 443.821,107.947 z" id="boundary" inkscape:connector-curvature="0" />
	<path style="fill:none;stroke:red;stroke-width:1px;stroke-linecap:butt;stroke-linejoin:miter;stroke-opacity:1" d="M 454.035,23.828 448.027,23.828 z" id="boundary" inkscape:connector-curvature="0" />
	<path style="fill:none;stroke:red;stroke-width:1px;stroke-linecap:butt;stroke-linejoin:miter;stroke-opacity:1" d="M 455.838,107.947 449.829,107.947 z" id="boundary" inkscape:connector-curvature="0" />
	<path style="fill:none;stroke:red;stroke-width:1px;stroke-linecap:butt;stroke-linejoin:miter;stroke-opacity:1" d="M 460.044,22.6263 466.052,23.2271 z" id="boundary" inkscape:connector-curvature="0" />
	<path style="fill:none;stroke:red;stroke-width:1px;stroke-linecap:butt;stroke-linejoin:miter;stroke-opacity:1" d="M 460.044,22.6263 454.035,23.828 z" id="boundary" inkscape:connector-curvature="0" />
	<path style="fill:none;stroke:red;stroke-width:1px;stroke-linecap:butt;stroke-linejoin:miter;stroke-opacity:1" d="M 461.846,107.346 455.838,107.947 z" id="boundary" inkscape:connector-curvature="0" />
	<path style="fill:none;stroke:red;stroke-width:1px;stroke-linecap:butt;stroke-linejoin:miter;stroke-opacity:1" d="M 467.855,107.346 461.846,107.346 z" id="boundary" inkscape:connector-curvature="0" />
	<path style="fill:none;stroke:red;stroke-width:1px;stroke-linecap:butt;stroke-linejoin:miter;stroke-opacity:1" d="M 472.061,23.2271 466.052,23.2271 z" id="boundary" inkscape:connector-curvature="0" />
	<path style="fill:none;stroke:red;stroke-width:1px;stroke-linecap:butt;stroke-linejoin:miter;stroke-opacity:1" d="M 473.863,107.346 467.855,107.346 z" id="boundary" inkscape:connector-curvature="0" />
	<path style="fill:none;stroke:red;stroke-width:1px;stroke-linecap:butt;stroke-linejoin:miter;stroke-opacity:1" d="M 478.069,22.0254 484.078,22.0254 z" id="boundary" inkscape:connector-curvature="0" />
	<path style="fill:none;stroke:red;stroke-width:1px;stroke-linecap:butt;stroke-linejoin:miter;stroke-opacity:1" d="M 478.069,22.0254 472.061,23.2271 z" id="boundary" inkscape:connector-curvature="0" />
	<path style="fill:none;stroke:red;stroke-width:1px;stroke-linecap:butt;stroke-linejoin:miter;stroke-opacity:1" d="M 479.872,106.745 473.863,107.346 z" id="boundary" inkscape:connector-curvature="0" />
	<path style="fill:none;stroke:red;stroke-width:1px;stroke-linecap:butt;stroke-linejoin:miter;stroke-opacity:1" d="M 485.88,107.346 479.872,106.745 z" id="boundary" inkscape:connector-curvature="0" />
	<path style="fill:none;stroke:red;stroke-width:1px;stroke-linecap:butt;stroke-linejoin:miter;stroke-opacity:1" d="M 490.086,20.8237 496.094,20.8237 z" id="boundary" inkscape:connector-curvature="0" />
	<path style="fill:none;stroke:red;stroke-width:1px;stroke-linecap:butt;stroke-linejoin:miter;stroke-opacity:1" d="M 490.086,20.8237 484.078,22.0254 z" id="boundary" inkscape:connector-curvature="0" />
	<path style="fill:none;stroke:red;stroke-width:1px;stroke-linecap:butt;stroke-linejoin:miter;stroke-opacity:1" d="M 503.906,106.144 509.914,105.543 z" id="boundary" inkscape:connector-curvature="0" />
	<path style="fill:none;stroke:red;stroke-width:1px;stroke-linecap:butt;stroke-linejoin:miter;stroke-opacity:1" d="M 491.889,106.745 485.88,107.346 z" id="boundary" inkscape:connector-curvature="0" />
	<path style="fill:none;stroke:red;stroke-width:1px;stroke-linecap:butt;stroke-linejoin:miter;stroke-opacity:1" d="M 628.281,12.4119 622.273,13.6136 z" id="boundary" inkscape:connector-curvature="0" />
	<path style="fill:none;stroke:red;stroke-width:1px;stroke-linecap:butt;stroke-linejoin:miter;stroke-opacity:1" d="M 622.273,13.6136 616.264,14.2144 z" id="boundary" inkscape:connector-curvature="0" />
	<path style="fill:none;stroke:red;stroke-width:1px;stroke-linecap:butt;stroke-linejoin:miter;stroke-opacity:1" d="M 497.897,106.144 491.889,106.745 z" id="boundary" inkscape:connector-curvature="0" />
	<path style="fill:none;stroke:red;stroke-width:1px;stroke-linecap:butt;stroke-linejoin:miter;stroke-opacity:1" d="M 502.103,20.8237 496.094,20.8237 z" id="boundary" inkscape:connector-curvature="0" />
	<path style="fill:none;stroke:red;stroke-width:1px;stroke-linecap:butt;stroke-linejoin:miter;stroke-opacity:1" d="M 503.906,106.144 497.897,106.144 z" id="boundary" inkscape:connector-curvature="0" />
	<path style="fill:none;stroke:red;stroke-width:1px;stroke-linecap:butt;stroke-linejoin:miter;stroke-opacity:1" d="M 508.111,20.8237 502.103,20.8237 z" id="boundary" inkscape:connector-curvature="0" />
	<path style="fill:none;stroke:red;stroke-width:1px;stroke-linecap:butt;stroke-linejoin:miter;stroke-opacity:1" d="M 514.12,20.8237 508.111,20.8237 z" id="boundary" inkscape:connector-curvature="0" />
	<path style="fill:none;stroke:red;stroke-width:1px;stroke-linecap:butt;stroke-linejoin:miter;stroke-opacity:1" d="M 515.922,104.342 509.914,105.543 z" id="boundary" inkscape:connector-curvature="0" />
	<path style="fill:none;stroke:red;stroke-width:1px;stroke-linecap:butt;stroke-linejoin:miter;stroke-opacity:1" d="M 520.128,19.622 526.137,20.2229 z" id="boundary" inkscape:connector-curvature="0" />
	<path style="fill:none;stroke:red;stroke-width:1px;stroke-linecap:butt;stroke-linejoin:miter;stroke-opacity:1" d="M 520.128,19.622 514.12,20.8237 z" id="boundary" inkscape:connector-curvature="0" />
	<path style="fill:none;stroke:red;stroke-width:1px;stroke-linecap:butt;stroke-linejoin:miter;stroke-opacity:1" d="M 662.529,80.3077 656.521,80.3077 z" id="boundary" inkscape:connector-curvature="0" />
	<path style="fill:none;stroke:red;stroke-width:1px;stroke-linecap:butt;stroke-linejoin:miter;stroke-opacity:1" d="M 521.931,103.14 515.922,104.342 z" id="boundary" inkscape:connector-curvature="0" />
	<path style="fill:none;stroke:red;stroke-width:1px;stroke-linecap:butt;stroke-linejoin:miter;stroke-opacity:1" d="M 532.145,19.622 526.137,20.2229 z" id="boundary" inkscape:connector-curvature="0" />
	<path style="fill:none;stroke:red;stroke-width:1px;stroke-linecap:butt;stroke-linejoin:miter;stroke-opacity:1" d="M 533.948,99.5348 527.939,100.737 z" id="boundary" inkscape:connector-curvature="0" />
	<path style="fill:none;stroke:red;stroke-width:1px;stroke-linecap:butt;stroke-linejoin:miter;stroke-opacity:1" d="M 527.939,100.737 521.931,103.14 z" id="boundary" inkscape:connector-curvature="0" />
	<path style="fill:none;stroke:red;stroke-width:1px;stroke-linecap:butt;stroke-linejoin:miter;stroke-opacity:1" d="M 538.154,19.0212 532.145,19.622 z" id="boundary" inkscape:connector-curvature="0" />
	<path style="fill:none;stroke:red;stroke-width:1px;stroke-linecap:butt;stroke-linejoin:miter;stroke-opacity:1" d="M 539.356,95.3289 533.948,99.5348 z" id="boundary" inkscape:connector-curvature="0" />
	<path style="fill:none;stroke:red;stroke-width:1px;stroke-linecap:butt;stroke-linejoin:miter;stroke-opacity:1" d="M 541.158,89.3204 539.356,95.3289 z" id="boundary" inkscape:connector-curvature="0" />
	<path style="fill:none;stroke:red;stroke-width:1px;stroke-linecap:butt;stroke-linejoin:miter;stroke-opacity:1" d="M 571.2,71.8958 577.209,71.8958 z" id="boundary" inkscape:connector-curvature="0" />
	<path style="fill:none;stroke:red;stroke-width:1px;stroke-linecap:butt;stroke-linejoin:miter;stroke-opacity:1" d="M 577.209,71.8958 582.016,76.1018 z" id="boundary" inkscape:connector-curvature="0" />
	<path style="fill:none;stroke:red;stroke-width:1px;stroke-linecap:butt;stroke-linejoin:miter;stroke-opacity:1" d="M 543.561,80.9085 541.158,89.3204 z" id="boundary" inkscape:connector-curvature="0" />
	<path style="fill:none;stroke:red;stroke-width:1px;stroke-linecap:butt;stroke-linejoin:miter;stroke-opacity:1" d="M 544.162,19.0212 538.154,19.0212 z" id="boundary" inkscape:connector-curvature="0" />
	<path style="fill:none;stroke:red;stroke-width:1px;stroke-linecap:butt;stroke-linejoin:miter;stroke-opacity:1" d="M 549.57,80.9085 543.561,80.9085 z" id="boundary" inkscape:connector-curvature="0" />
	<path style="fill:none;stroke:red;stroke-width:1px;stroke-linecap:butt;stroke-linejoin:miter;stroke-opacity:1" d="M 550.171,19.0212 544.162,19.0212 z" id="boundary" inkscape:connector-curvature="0" />
	<path style="fill:none;stroke:red;stroke-width:1px;stroke-linecap:butt;stroke-linejoin:miter;stroke-opacity:1" d="M 559.184,73.0975 565.192,72.4967 z" id="boundary" inkscape:connector-curvature="0" />
	<path style="fill:none;stroke:red;stroke-width:1px;stroke-linecap:butt;stroke-linejoin:miter;stroke-opacity:1" d="M 553.175,73.0975 549.57,80.9085 z" id="boundary" inkscape:connector-curvature="0" />
	<path style="fill:none;stroke:red;stroke-width:1px;stroke-linecap:butt;stroke-linejoin:miter;stroke-opacity:1" d="M 556.179,19.0212 550.171,19.0212 z" id="boundary" inkscape:connector-curvature="0" />
	<path style="fill:none;stroke:red;stroke-width:1px;stroke-linecap:butt;stroke-linejoin:miter;stroke-opacity:1" d="M 559.184,73.0975 553.175,73.0975 z" id="boundary" inkscape:connector-curvature="0" />
	<path style="fill:none;stroke:red;stroke-width:1px;stroke-linecap:butt;stroke-linejoin:miter;stroke-opacity:1" d="M 562.188,19.0212 556.179,19.0212 z" id="boundary" inkscape:connector-curvature="0" />
	<path style="fill:none;stroke:red;stroke-width:1px;stroke-linecap:butt;stroke-linejoin:miter;stroke-opacity:1" d="M 565.192,72.4967 571.2,71.8958 z" id="boundary" inkscape:connector-curvature="0" />
	<path style="fill:none;stroke:red;stroke-width:1px;stroke-linecap:butt;stroke-linejoin:miter;stroke-opacity:1" d="M 568.196,19.622 562.188,19.0212 z" id="boundary" inkscape:connector-curvature="0" />
	<path style="fill:none;stroke:red;stroke-width:1px;stroke-linecap:butt;stroke-linejoin:miter;stroke-opacity:1" d="M 574.205,17.8195 568.196,19.622 z" id="boundary" inkscape:connector-curvature="0" />
	<path style="fill:none;stroke:red;stroke-width:1px;stroke-linecap:butt;stroke-linejoin:miter;stroke-opacity:1" d="M 580.213,17.2187 574.205,17.8195 z" id="boundary" inkscape:connector-curvature="0" />
	<path style="fill:none;stroke:red;stroke-width:1px;stroke-linecap:butt;stroke-linejoin:miter;stroke-opacity:1" d="M 582.016,76.1018 588.024,76.1018 z" id="boundary" inkscape:connector-curvature="0" />
	<path style="fill:none;stroke:red;stroke-width:1px;stroke-linecap:butt;stroke-linejoin:miter;stroke-opacity:1" d="M 586.222,17.2187 592.23,16.6178 z" id="boundary" inkscape:connector-curvature="0" />
	<path style="fill:none;stroke:red;stroke-width:1px;stroke-linecap:butt;stroke-linejoin:miter;stroke-opacity:1" d="M 580.213,17.2187 586.222,17.2187 z" id="boundary" inkscape:connector-curvature="0" />
	<path style="fill:none;stroke:red;stroke-width:1px;stroke-linecap:butt;stroke-linejoin:miter;stroke-opacity:1" d="M 611.457,73.0975 605.449,72.4967 z" id="boundary" inkscape:connector-curvature="0" />
	<path style="fill:none;stroke:red;stroke-width:1px;stroke-linecap:butt;stroke-linejoin:miter;stroke-opacity:1" d="M 594.033,74.9001 588.024,76.1018 z" id="boundary" inkscape:connector-curvature="0" />
	<path style="fill:none;stroke:red;stroke-width:1px;stroke-linecap:butt;stroke-linejoin:miter;stroke-opacity:1" d="M 598.239,16.6178 592.23,16.6178 z" id="boundary" inkscape:connector-curvature="0" />
	<path style="fill:none;stroke:red;stroke-width:1px;stroke-linecap:butt;stroke-linejoin:miter;stroke-opacity:1" d="M 621.071,80.3077 617.466,75.5009 z" id="boundary" inkscape:connector-curvature="0" />
	<path style="fill:none;stroke:red;stroke-width:1px;stroke-linecap:butt;stroke-linejoin:miter;stroke-opacity:1" d="M 617.466,75.5009 611.457,73.0975 z" id="boundary" inkscape:connector-curvature="0" />
	<path style="fill:none;stroke:red;stroke-width:1px;stroke-linecap:butt;stroke-linejoin:miter;stroke-opacity:1" d="M 599.44,71.8958 594.033,74.9001 z" id="boundary" inkscape:connector-curvature="0" />
	<path style="fill:none;stroke:red;stroke-width:1px;stroke-linecap:butt;stroke-linejoin:miter;stroke-opacity:1" d="M 604.247,15.4161 598.239,16.6178 z" id="boundary" inkscape:connector-curvature="0" />
	<path style="fill:none;stroke:red;stroke-width:1px;stroke-linecap:butt;stroke-linejoin:miter;stroke-opacity:1" d="M 605.449,72.4967 599.44,71.8958 z" id="boundary" inkscape:connector-curvature="0" />
	<path style="fill:none;stroke:red;stroke-width:1px;stroke-linecap:butt;stroke-linejoin:miter;stroke-opacity:1" d="M 610.256,14.8153 604.247,15.4161 z" id="boundary" inkscape:connector-curvature="0" />
	<path style="fill:none;stroke:red;stroke-width:1px;stroke-linecap:butt;stroke-linejoin:miter;stroke-opacity:1" d="M 616.264,14.2144 610.256,14.8153 z" id="boundary" inkscape:connector-curvature="0" />
	<path style="fill:none;stroke:red;stroke-width:1px;stroke-linecap:butt;stroke-linejoin:miter;stroke-opacity:1" d="M 650.512,77.9043 656.521,80.3077 z" id="boundary" inkscape:connector-curvature="0" />
	<path style="fill:none;stroke:red;stroke-width:1px;stroke-linecap:butt;stroke-linejoin:miter;stroke-opacity:1" d="M 626.478,77.3035 621.071,80.3077 z" id="boundary" inkscape:connector-curvature="0" />
	<path style="fill:none;stroke:red;stroke-width:1px;stroke-linecap:butt;stroke-linejoin:miter;stroke-opacity:1" d="M 632.487,76.7026 626.478,77.3035 z" id="boundary" inkscape:connector-curvature="0" />
	<path style="fill:none;stroke:red;stroke-width:1px;stroke-linecap:butt;stroke-linejoin:miter;stroke-opacity:1" d="M 628.281,12.4119 634.29,12.4119 z" id="boundary" inkscape:connector-curvature="0" />
	<path style="fill:none;stroke:red;stroke-width:1px;stroke-linecap:butt;stroke-linejoin:miter;stroke-opacity:1" d="M 634.29,12.4119 640.298,11.2102 z" id="boundary" inkscape:connector-curvature="0" />
	<path style="fill:none;stroke:red;stroke-width:1px;stroke-linecap:butt;stroke-linejoin:miter;stroke-opacity:1" d="M 638.495,76.1018 632.487,76.7026 z" id="boundary" inkscape:connector-curvature="0" />
	<path style="fill:none;stroke:red;stroke-width:1px;stroke-linecap:butt;stroke-linejoin:miter;stroke-opacity:1" d="M 640.298,11.2102 646.306,10.6093 z" id="boundary" inkscape:connector-curvature="0" />
	<path style="fill:none;stroke:red;stroke-width:1px;stroke-linecap:butt;stroke-linejoin:miter;stroke-opacity:1" d="M 644.504,75.5009 650.512,77.9043 z" id="boundary" inkscape:connector-curvature="0" />
	<path style="fill:none;stroke:red;stroke-width:1px;stroke-linecap:butt;stroke-linejoin:miter;stroke-opacity:1" d="M 644.504,75.5009 638.495,76.1018 z" id="boundary" inkscape:connector-curvature="0" />
	<path style="fill:none;stroke:red;stroke-width:1px;stroke-linecap:butt;stroke-linejoin:miter;stroke-opacity:1" d="M 646.306,10.6093 652.315,10.0085 z" id="boundary" inkscape:connector-curvature="0" />
	<path style="fill:none;stroke:red;stroke-width:1px;stroke-linecap:butt;stroke-linejoin:miter;stroke-opacity:1" d="M 652.315,10.0085 658.323,9.40763 z" id="boundary" inkscape:connector-curvature="0" />
	<path style="fill:none;stroke:red;stroke-width:1px;stroke-linecap:butt;stroke-linejoin:miter;stroke-opacity:1" d="M 662.529,80.3077 668.538,79.7068 z" id="boundary" inkscape:connector-curvature="0" />
	<path style="fill:none;stroke:red;stroke-width:1px;stroke-linecap:butt;stroke-linejoin:miter;stroke-opacity:1" d="M 697.379,82.7111 702.185,86.3162 z" id="boundary" inkscape:connector-curvature="0" />
	<path style="fill:none;stroke:red;stroke-width:1px;stroke-linecap:butt;stroke-linejoin:miter;stroke-opacity:1" d="M 664.332,8.80678 658.323,9.40763 z" id="boundary" inkscape:connector-curvature="0" />
	<path style="fill:none;stroke:red;stroke-width:1px;stroke-linecap:butt;stroke-linejoin:miter;stroke-opacity:1" d="M 692.572,78.5051 697.379,82.7111 z" id="boundary" inkscape:connector-curvature="0" />
	<path style="fill:none;stroke:red;stroke-width:1px;stroke-linecap:butt;stroke-linejoin:miter;stroke-opacity:1" d="M 692.572,78.5051 686.563,77.9043 z" id="boundary" inkscape:connector-curvature="0" />
	<path style="fill:none;stroke:red;stroke-width:1px;stroke-linecap:butt;stroke-linejoin:miter;stroke-opacity:1" d="M 670.34,8.20594 664.332,8.80678 z" id="boundary" inkscape:connector-curvature="0" />
	<path style="fill:none;stroke:red;stroke-width:1px;stroke-linecap:butt;stroke-linejoin:miter;stroke-opacity:1" d="M 674.546,79.106 668.538,79.7068 z" id="boundary" inkscape:connector-curvature="0" />
	<path style="fill:none;stroke:red;stroke-width:1px;stroke-linecap:butt;stroke-linejoin:miter;stroke-opacity:1" d="M 676.349,7.60509 670.34,8.20594 z" id="boundary" inkscape:connector-curvature="0" />
	<path style="fill:none;stroke:red;stroke-width:1px;stroke-linecap:butt;stroke-linejoin:miter;stroke-opacity:1" d="M 680.555,77.3035 674.546,79.106 z" id="boundary" inkscape:connector-curvature="0" />
	<path style="fill:none;stroke:red;stroke-width:1px;stroke-linecap:butt;stroke-linejoin:miter;stroke-opacity:1" d="M 682.357,7.60509 676.349,7.60509 z" id="boundary" inkscape:connector-curvature="0" />
	<path style="fill:none;stroke:red;stroke-width:1px;stroke-linecap:butt;stroke-linejoin:miter;stroke-opacity:1" d="M 686.563,77.9043 680.555,77.3035 z" id="boundary" inkscape:connector-curvature="0" />
	<path style="fill:none;stroke:red;stroke-width:1px;stroke-linecap:butt;stroke-linejoin:miter;stroke-opacity:1" d="M 688.366,7.00424 682.357,7.60509 z" id="boundary" inkscape:connector-curvature="0" />
	<path style="fill:none;stroke:red;stroke-width:1px;stroke-linecap:butt;stroke-linejoin:miter;stroke-opacity:1" d="M 694.374,7.00424 688.366,7.00424 z" id="boundary" inkscape:connector-curvature="0" />
	<path style="fill:none;stroke:red;stroke-width:1px;stroke-linecap:butt;stroke-linejoin:miter;stroke-opacity:1" d="M 700.383,6.40339 694.374,7.00424 z" id="boundary" inkscape:connector-curvature="0" />
	<path style="fill:none;stroke:red;stroke-width:1px;stroke-linecap:butt;stroke-linejoin:miter;stroke-opacity:1" d="M 700.383,6.40339 706.391,6.40339 z" id="boundary" inkscape:connector-curvature="0" />
	<path style="fill:none;stroke:red;stroke-width:1px;stroke-linecap:butt;stroke-linejoin:miter;stroke-opacity:1" d="M 707.593,83.3119 702.185,86.3162 z" id="boundary" inkscape:connector-curvature="0" />
	<path style="fill:none;stroke:red;stroke-width:1px;stroke-linecap:butt;stroke-linejoin:miter;stroke-opacity:1" d="M 712.4,5.80254 706.391,6.40339 z" id="boundary" inkscape:connector-curvature="0" />
	<path style="fill:none;stroke:red;stroke-width:1px;stroke-linecap:butt;stroke-linejoin:miter;stroke-opacity:1" d="M 713.601,79.106 707.593,83.3119 z" id="boundary" inkscape:connector-curvature="0" />
	<path style="fill:none;stroke:red;stroke-width:1px;stroke-linecap:butt;stroke-linejoin:miter;stroke-opacity:1" d="M 718.408,5.2017 712.4,5.80254 z" id="boundary" inkscape:connector-curvature="0" />
	<path style="fill:none;stroke:red;stroke-width:1px;stroke-linecap:butt;stroke-linejoin:miter;stroke-opacity:1" d="M 719.009,82.1102 713.601,79.106 z" id="boundary" inkscape:connector-curvature="0" />
	<path style="fill:none;stroke:red;stroke-width:1px;stroke-linecap:butt;stroke-linejoin:miter;stroke-opacity:1" d="M 724.417,5.2017 718.408,5.2017 z" id="boundary" inkscape:connector-curvature="0" />
	<path style="fill:none;stroke:red;stroke-width:1px;stroke-linecap:butt;stroke-linejoin:miter;stroke-opacity:1" d="M 725.018,80.9085 731.026,80.3077 z" id="boundary" inkscape:connector-curvature="0" />
	<path style="fill:none;stroke:red;stroke-width:1px;stroke-linecap:butt;stroke-linejoin:miter;stroke-opacity:1" d="M 731.026,80.3077 737.035,81.5094 z" id="boundary" inkscape:connector-curvature="0" />
	<path style="fill:none;stroke:red;stroke-width:1px;stroke-linecap:butt;stroke-linejoin:miter;stroke-opacity:1" d="M 725.018,80.9085 719.009,82.1102 z" id="boundary" inkscape:connector-curvature="0" />
	<path style="fill:none;stroke:red;stroke-width:1px;stroke-linecap:butt;stroke-linejoin:miter;stroke-opacity:1" d="M 730.425,5.2017 724.417,5.2017 z" id="boundary" inkscape:connector-curvature="0" />
	<path style="fill:none;stroke:red;stroke-width:1px;stroke-linecap:butt;stroke-linejoin:miter;stroke-opacity:1" d="M 736.434,4.60085 730.425,5.2017 z" id="boundary" inkscape:connector-curvature="0" />
	<path style="fill:none;stroke:red;stroke-width:1px;stroke-linecap:butt;stroke-linejoin:miter;stroke-opacity:1" d="M 737.035,81.5094 743.043,83.3119 z" id="boundary" inkscape:connector-curvature="0" />
	<path style="fill:none;stroke:red;stroke-width:1px;stroke-linecap:butt;stroke-linejoin:miter;stroke-opacity:1" d="M 742.442,4.60085 736.434,4.60085 z" id="boundary" inkscape:connector-curvature="0" />
	<path style="fill:none;stroke:red;stroke-width:1px;stroke-linecap:butt;stroke-linejoin:miter;stroke-opacity:1" d="M 743.043,83.3119 749.051,85.7153 z" id="boundary" inkscape:connector-curvature="0" />
	<path style="fill:none;stroke:red;stroke-width:1px;stroke-linecap:butt;stroke-linejoin:miter;stroke-opacity:1" d="M 748.451,4.60085 742.442,4.60085 z" id="boundary" inkscape:connector-curvature="0" />
	<path style="fill:none;stroke:red;stroke-width:1px;stroke-linecap:butt;stroke-linejoin:miter;stroke-opacity:1" d="M 748.451,4.60085 754.459,4.60085 z" id="boundary" inkscape:connector-curvature="0" />
	<path style="fill:none;stroke:red;stroke-width:1px;stroke-linecap:butt;stroke-linejoin:miter;stroke-opacity:1" d="M 749.051,85.7153 755.06,85.7153 z" id="boundary" inkscape:connector-curvature="0" />
	<path style="fill:none;stroke:red;stroke-width:1px;stroke-linecap:butt;stroke-linejoin:miter;stroke-opacity:1" d="M 960.55,100.136 966.558,101.337 z" id="boundary" inkscape:connector-curvature="0" />
	<path style="fill:none;stroke:red;stroke-width:1px;stroke-linecap:butt;stroke-linejoin:miter;stroke-opacity:1" d="M 760.468,4 754.459,4.60085 z" id="boundary" inkscape:connector-curvature="0" />
	<path style="fill:none;stroke:red;stroke-width:1px;stroke-linecap:butt;stroke-linejoin:miter;stroke-opacity:1" d="M 897.461,85.7153 891.452,83.9128 z" id="boundary" inkscape:connector-curvature="0" />
	<path style="fill:none;stroke:red;stroke-width:1px;stroke-linecap:butt;stroke-linejoin:miter;stroke-opacity:1" d="M 766.476,4 760.468,4 z" id="boundary" inkscape:connector-curvature="0" />
	<path style="fill:none;stroke:red;stroke-width:1px;stroke-linecap:butt;stroke-linejoin:miter;stroke-opacity:1" d="M 767.077,84.5136 761.068,85.7153 z" id="boundary" inkscape:connector-curvature="0" />
	<path style="fill:none;stroke:red;stroke-width:1px;stroke-linecap:butt;stroke-linejoin:miter;stroke-opacity:1" d="M 761.068,85.7153 755.06,85.7153 z" id="boundary" inkscape:connector-curvature="0" />
	<path style="fill:none;stroke:red;stroke-width:1px;stroke-linecap:butt;stroke-linejoin:miter;stroke-opacity:1" d="M 772.485,4 766.476,4 z" id="boundary" inkscape:connector-curvature="0" />
	<path style="fill:none;stroke:red;stroke-width:1px;stroke-linecap:butt;stroke-linejoin:miter;stroke-opacity:1" d="M 773.085,83.9128 767.077,84.5136 z" id="boundary" inkscape:connector-curvature="0" />
	<path style="fill:none;stroke:red;stroke-width:1px;stroke-linecap:butt;stroke-linejoin:miter;stroke-opacity:1" d="M 778.493,4 772.485,4 z" id="boundary" inkscape:connector-curvature="0" />
	<path style="fill:none;stroke:red;stroke-width:1px;stroke-linecap:butt;stroke-linejoin:miter;stroke-opacity:1" d="M 779.094,83.3119 773.085,83.9128 z" id="boundary" inkscape:connector-curvature="0" />
	<path style="fill:none;stroke:red;stroke-width:1px;stroke-linecap:butt;stroke-linejoin:miter;stroke-opacity:1" d="M 784.502,4 778.493,4 z" id="boundary" inkscape:connector-curvature="0" />
	<path style="fill:none;stroke:red;stroke-width:1px;stroke-linecap:butt;stroke-linejoin:miter;stroke-opacity:1" d="M 785.102,81.5094 779.094,83.3119 z" id="boundary" inkscape:connector-curvature="0" />
	<path style="fill:none;stroke:red;stroke-width:1px;stroke-linecap:butt;stroke-linejoin:miter;stroke-opacity:1" d="M 790.51,4 784.502,4 z" id="boundary" inkscape:connector-curvature="0" />
	<path style="fill:none;stroke:red;stroke-width:1px;stroke-linecap:butt;stroke-linejoin:miter;stroke-opacity:1" d="M 791.111,81.5094 785.102,81.5094 z" id="boundary" inkscape:connector-curvature="0" />
	<path style="fill:none;stroke:red;stroke-width:1px;stroke-linecap:butt;stroke-linejoin:miter;stroke-opacity:1" d="M 796.518,4 790.51,4 z" id="boundary" inkscape:connector-curvature="0" />
	<path style="fill:none;stroke:red;stroke-width:1px;stroke-linecap:butt;stroke-linejoin:miter;stroke-opacity:1" d="M 797.119,82.7111 791.111,81.5094 z" id="boundary" inkscape:connector-curvature="0" />
	<path style="fill:none;stroke:red;stroke-width:1px;stroke-linecap:butt;stroke-linejoin:miter;stroke-opacity:1" d="M 802.527,4 796.518,4 z" id="boundary" inkscape:connector-curvature="0" />
	<path style="fill:none;stroke:red;stroke-width:1px;stroke-linecap:butt;stroke-linejoin:miter;stroke-opacity:1" d="M 803.128,82.7111 797.119,82.7111 z" id="boundary" inkscape:connector-curvature="0" />
	<path style="fill:none;stroke:red;stroke-width:1px;stroke-linecap:butt;stroke-linejoin:miter;stroke-opacity:1" d="M 808.535,4 802.527,4 z" id="boundary" inkscape:connector-curvature="0" />
	<path style="fill:none;stroke:red;stroke-width:1px;stroke-linecap:butt;stroke-linejoin:miter;stroke-opacity:1" d="M 903.469,87.5179 897.461,85.7153 z" id="boundary" inkscape:connector-curvature="0" />
	<path style="fill:none;stroke:red;stroke-width:1px;stroke-linecap:butt;stroke-linejoin:miter;stroke-opacity:1" d="M 814.544,4.60085 808.535,4 z" id="boundary" inkscape:connector-curvature="0" />
	<path style="fill:none;stroke:red;stroke-width:1px;stroke-linecap:butt;stroke-linejoin:miter;stroke-opacity:1" d="M 815.145,80.9085 809.136,81.5094 z" id="boundary" inkscape:connector-curvature="0" />
	<path style="fill:none;stroke:red;stroke-width:1px;stroke-linecap:butt;stroke-linejoin:miter;stroke-opacity:1" d="M 809.136,81.5094 803.128,82.7111 z" id="boundary" inkscape:connector-curvature="0" />
	<path style="fill:none;stroke:red;stroke-width:1px;stroke-linecap:butt;stroke-linejoin:miter;stroke-opacity:1" d="M 838.578,77.3035 832.569,77.9043 z" id="boundary" inkscape:connector-curvature="0" />
	<path style="fill:none;stroke:red;stroke-width:1px;stroke-linecap:butt;stroke-linejoin:miter;stroke-opacity:1" d="M 820.552,4 826.561,4.60085 z" id="boundary" inkscape:connector-curvature="0" />
	<path style="fill:none;stroke:red;stroke-width:1px;stroke-linecap:butt;stroke-linejoin:miter;stroke-opacity:1" d="M 820.552,4 814.544,4.60085 z" id="boundary" inkscape:connector-curvature="0" />
	<path style="fill:none;stroke:red;stroke-width:1px;stroke-linecap:butt;stroke-linejoin:miter;stroke-opacity:1" d="M 821.153,79.7068 815.145,80.9085 z" id="boundary" inkscape:connector-curvature="0" />
	<path style="fill:none;stroke:red;stroke-width:1px;stroke-linecap:butt;stroke-linejoin:miter;stroke-opacity:1" d="M 826.561,4.60085 832.569,5.2017 z" id="boundary" inkscape:connector-curvature="0" />
	<path style="fill:none;stroke:red;stroke-width:1px;stroke-linecap:butt;stroke-linejoin:miter;stroke-opacity:1" d="M 826.561,76.7026 821.153,79.7068 z" id="boundary" inkscape:connector-curvature="0" />
	<path style="fill:none;stroke:red;stroke-width:1px;stroke-linecap:butt;stroke-linejoin:miter;stroke-opacity:1" d="M 832.569,77.9043 826.561,76.7026 z" id="boundary" inkscape:connector-curvature="0" />
	<path style="fill:none;stroke:red;stroke-width:1px;stroke-linecap:butt;stroke-linejoin:miter;stroke-opacity:1" d="M 838.578,5.2017 832.569,5.2017 z" id="boundary" inkscape:connector-curvature="0" />
	<path style="fill:none;stroke:red;stroke-width:1px;stroke-linecap:butt;stroke-linejoin:miter;stroke-opacity:1" d="M 862.612,80.3077 857.204,77.3035 z" id="boundary" inkscape:connector-curvature="0" />
	<path style="fill:none;stroke:red;stroke-width:1px;stroke-linecap:butt;stroke-linejoin:miter;stroke-opacity:1" d="M 844.586,5.80254 838.578,5.2017 z" id="boundary" inkscape:connector-curvature="0" />
	<path style="fill:none;stroke:red;stroke-width:1px;stroke-linecap:butt;stroke-linejoin:miter;stroke-opacity:1" d="M 843.985,73.0975 838.578,77.3035 z" id="boundary" inkscape:connector-curvature="0" />
	<path style="fill:none;stroke:red;stroke-width:1px;stroke-linecap:butt;stroke-linejoin:miter;stroke-opacity:1" d="M 868.019,83.3119 862.612,80.3077 z" id="boundary" inkscape:connector-curvature="0" />
	<path style="fill:none;stroke:red;stroke-width:1px;stroke-linecap:butt;stroke-linejoin:miter;stroke-opacity:1" d="M 844.586,5.80254 850.595,5.80254 z" id="boundary" inkscape:connector-curvature="0" />
	<path style="fill:none;stroke:red;stroke-width:1px;stroke-linecap:butt;stroke-linejoin:miter;stroke-opacity:1" d="M 848.792,76.7026 843.985,73.0975 z" id="boundary" inkscape:connector-curvature="0" />
	<path style="fill:none;stroke:red;stroke-width:1px;stroke-linecap:butt;stroke-linejoin:miter;stroke-opacity:1" d="M 850.595,5.80254 856.603,6.40339 z" id="boundary" inkscape:connector-curvature="0" />
	<path style="fill:none;stroke:red;stroke-width:1px;stroke-linecap:butt;stroke-linejoin:miter;stroke-opacity:1" d="M 853.599,72.4967 848.792,76.7026 z" id="boundary" inkscape:connector-curvature="0" />
	<path style="fill:none;stroke:red;stroke-width:1px;stroke-linecap:butt;stroke-linejoin:miter;stroke-opacity:1" d="M 856.603,6.40339 862.612,7.00424 z" id="boundary" inkscape:connector-curvature="0" />
	<path style="fill:none;stroke:red;stroke-width:1px;stroke-linecap:butt;stroke-linejoin:miter;stroke-opacity:1" d="M 857.204,77.3035 853.599,72.4967 z" id="boundary" inkscape:connector-curvature="0" />
	<path style="fill:none;stroke:red;stroke-width:1px;stroke-linecap:butt;stroke-linejoin:miter;stroke-opacity:1" d="M 862.612,7.00424 868.62,7.00424 z" id="boundary" inkscape:connector-curvature="0" />
	<path style="fill:none;stroke:red;stroke-width:1px;stroke-linecap:butt;stroke-linejoin:miter;stroke-opacity:1" d="M 868.62,7.00424 874.629,7.60509 z" id="boundary" inkscape:connector-curvature="0" />
	<path style="fill:none;stroke:red;stroke-width:1px;stroke-linecap:butt;stroke-linejoin:miter;stroke-opacity:1" d="M 903.469,87.5179 909.478,88.7196 z" id="boundary" inkscape:connector-curvature="0" />
	<path style="fill:none;stroke:red;stroke-width:1px;stroke-linecap:butt;stroke-linejoin:miter;stroke-opacity:1" d="M 909.478,88.7196 914.285,92.3247 z" id="boundary" inkscape:connector-curvature="0" />
	<path style="fill:none;stroke:red;stroke-width:1px;stroke-linecap:butt;stroke-linejoin:miter;stroke-opacity:1" d="M 874.028,82.1102 868.019,83.3119 z" id="boundary" inkscape:connector-curvature="0" />
	<path style="fill:none;stroke:red;stroke-width:1px;stroke-linecap:butt;stroke-linejoin:miter;stroke-opacity:1" d="M 874.629,7.60509 880.637,8.80678 z" id="boundary" inkscape:connector-curvature="0" />
	<path style="fill:none;stroke:red;stroke-width:1px;stroke-linecap:butt;stroke-linejoin:miter;stroke-opacity:1" d="M 880.036,82.1102 874.028,82.1102 z" id="boundary" inkscape:connector-curvature="0" />
	<path style="fill:none;stroke:red;stroke-width:1px;stroke-linecap:butt;stroke-linejoin:miter;stroke-opacity:1" d="M 886.646,9.40763 880.637,8.80678 z" id="boundary" inkscape:connector-curvature="0" />
	<path style="fill:none;stroke:red;stroke-width:1px;stroke-linecap:butt;stroke-linejoin:miter;stroke-opacity:1" d="M 886.045,80.9085 880.036,82.1102 z" id="boundary" inkscape:connector-curvature="0" />
	<path style="fill:none;stroke:red;stroke-width:1px;stroke-linecap:butt;stroke-linejoin:miter;stroke-opacity:1" d="M 886.646,9.40763 892.654,10.0085 z" id="boundary" inkscape:connector-curvature="0" />
	<path style="fill:none;stroke:red;stroke-width:1px;stroke-linecap:butt;stroke-linejoin:miter;stroke-opacity:1" d="M 891.452,83.9128 886.045,80.9085 z" id="boundary" inkscape:connector-curvature="0" />
	<path style="fill:none;stroke:red;stroke-width:1px;stroke-linecap:butt;stroke-linejoin:miter;stroke-opacity:1" d="M 890.251,71.295 884.843,68.2907 z" id="boundary" inkscape:connector-curvature="0" />
	<path style="fill:none;stroke:red;stroke-width:1px;stroke-linecap:butt;stroke-linejoin:miter;stroke-opacity:1" d="M 890.251,71.295 895.058,67.6899 z" id="boundary" inkscape:connector-curvature="0" />
	<path style="fill:none;stroke:red;stroke-width:1px;stroke-linecap:butt;stroke-linejoin:miter;stroke-opacity:1" d="M 898.663,10.6093 892.654,10.0085 z" id="boundary" inkscape:connector-curvature="0" />
	<path style="fill:none;stroke:red;stroke-width:1px;stroke-linecap:butt;stroke-linejoin:miter;stroke-opacity:1" d="M 898.663,10.6093 904.671,11.811 z" id="boundary" inkscape:connector-curvature="0" />
	<path style="fill:none;stroke:red;stroke-width:1px;stroke-linecap:butt;stroke-linejoin:miter;stroke-opacity:1" d="M 904.671,11.811 910.68,12.4119 z" id="boundary" inkscape:connector-curvature="0" />
	<path style="fill:none;stroke:red;stroke-width:1px;stroke-linecap:butt;stroke-linejoin:miter;stroke-opacity:1" d="M 920.293,91.7238 914.285,92.3247 z" id="boundary" inkscape:connector-curvature="0" />
	<path style="fill:none;stroke:red;stroke-width:1px;stroke-linecap:butt;stroke-linejoin:miter;stroke-opacity:1" d="M 910.68,12.4119 916.688,13.6136 z" id="boundary" inkscape:connector-curvature="0" />
	<path style="fill:none;stroke:red;stroke-width:1px;stroke-linecap:butt;stroke-linejoin:miter;stroke-opacity:1" d="M 916.688,13.6136 922.697,16.017 z" id="boundary" inkscape:connector-curvature="0" />
	<path style="fill:none;stroke:red;stroke-width:1px;stroke-linecap:butt;stroke-linejoin:miter;stroke-opacity:1" d="M 922.697,16.017 928.705,16.017 z" id="boundary" inkscape:connector-curvature="0" />
	<path style="fill:none;stroke:red;stroke-width:1px;stroke-linecap:butt;stroke-linejoin:miter;stroke-opacity:1" d="M 928.705,16.017 934.714,17.2187 z" id="boundary" inkscape:connector-curvature="0" />
	<path style="fill:none;stroke:red;stroke-width:1px;stroke-linecap:butt;stroke-linejoin:miter;stroke-opacity:1" d="M 945.529,93.5263 949.134,98.3331 z" id="boundary" inkscape:connector-curvature="0" />
	<path style="fill:none;stroke:red;stroke-width:1px;stroke-linecap:butt;stroke-linejoin:miter;stroke-opacity:1" d="M 925.1,88.1187 920.293,91.7238 z" id="boundary" inkscape:connector-curvature="0" />
	<path style="fill:none;stroke:red;stroke-width:1px;stroke-linecap:butt;stroke-linejoin:miter;stroke-opacity:1" d="M 935.915,85.1145 941.323,88.1187 z" id="boundary" inkscape:connector-curvature="0" />
	<path style="fill:none;stroke:red;stroke-width:1px;stroke-linecap:butt;stroke-linejoin:miter;stroke-opacity:1" d="M 929.907,84.5136 925.1,88.1187 z" id="boundary" inkscape:connector-curvature="0" />
	<path style="fill:none;stroke:red;stroke-width:1px;stroke-linecap:butt;stroke-linejoin:miter;stroke-opacity:1" d="M 935.915,85.1145 929.907,84.5136 z" id="boundary" inkscape:connector-curvature="0" />
	<path style="fill:none;stroke:red;stroke-width:1px;stroke-linecap:butt;stroke-linejoin:miter;stroke-opacity:1" d="M 940.722,18.4204 934.714,17.2187 z" id="boundary" inkscape:connector-curvature="0" />
	<path style="fill:none;stroke:red;stroke-width:1px;stroke-linecap:butt;stroke-linejoin:miter;stroke-opacity:1" d="M 940.722,18.4204 946.73,20.2229 z" id="boundary" inkscape:connector-curvature="0" />
	<path style="fill:none;stroke:red;stroke-width:1px;stroke-linecap:butt;stroke-linejoin:miter;stroke-opacity:1" d="M 941.323,88.1187 945.529,93.5263 z" id="boundary" inkscape:connector-curvature="0" />
	<path style="fill:none;stroke:red;stroke-width:1px;stroke-linecap:butt;stroke-linejoin:miter;stroke-opacity:1" d="M 964.756,23.828 970.164,26.8322 z" id="boundary" inkscape:connector-curvature="0" />
	<path style="fill:none;stroke:red;stroke-width:1px;stroke-linecap:butt;stroke-linejoin:miter;stroke-opacity:1" d="M 964.756,23.828 958.747,22.0254 z" id="boundary" inkscape:connector-curvature="0" />
	<path style="fill:none;stroke:red;stroke-width:1px;stroke-linecap:butt;stroke-linejoin:miter;stroke-opacity:1" d="M 946.73,20.2229 952.739,21.4246 z" id="boundary" inkscape:connector-curvature="0" />
	<path style="fill:none;stroke:red;stroke-width:1px;stroke-linecap:butt;stroke-linejoin:miter;stroke-opacity:1" d="M 958.747,22.0254 952.739,21.4246 z" id="boundary" inkscape:connector-curvature="0" />
	<path style="fill:none;stroke:red;stroke-width:1px;stroke-linecap:butt;stroke-linejoin:miter;stroke-opacity:1" d="M 966.558,101.337 972.567,101.337 z" id="boundary" inkscape:connector-curvature="0" />
	<path style="fill:none;stroke:red;stroke-width:1px;stroke-linecap:butt;stroke-linejoin:miter;stroke-opacity:1" d="M 955.142,97.1314 949.134,98.3331 z" id="boundary" inkscape:connector-curvature="0" />
	<path style="fill:none;stroke:red;stroke-width:1px;stroke-linecap:butt;stroke-linejoin:miter;stroke-opacity:1" d="M 960.55,100.136 955.142,97.1314 z" id="boundary" inkscape:connector-curvature="0" />
	<path style="fill:none;stroke:red;stroke-width:1px;stroke-linecap:butt;stroke-linejoin:miter;stroke-opacity:1" d="M 976.172,28.6348 970.164,26.8322 z" id="boundary" inkscape:connector-curvature="0" />
	<path style="fill:none;stroke:red;stroke-width:1px;stroke-linecap:butt;stroke-linejoin:miter;stroke-opacity:1" d="M 977.374,97.7323 972.567,101.337 z" id="boundary" inkscape:connector-curvature="0" />
	<path style="fill:none;stroke:red;stroke-width:1px;stroke-linecap:butt;stroke-linejoin:miter;stroke-opacity:1" d="M 979.176,91.7238 977.374,97.7323 z" id="boundary" inkscape:connector-curvature="0" />
	<path style="fill:none;stroke:red;stroke-width:1px;stroke-linecap:butt;stroke-linejoin:miter;stroke-opacity:1" d="M 982.18,31.0382 986.987,34.6432 z" id="boundary" inkscape:connector-curvature="0" />
	<path style="fill:none;stroke:red;stroke-width:1px;stroke-linecap:butt;stroke-linejoin:miter;stroke-opacity:1" d="M 982.781,86.917 979.176,91.7238 z" id="boundary" inkscape:connector-curvature="0" />
	<path style="fill:none;stroke:red;stroke-width:1px;stroke-linecap:butt;stroke-linejoin:miter;stroke-opacity:1" d="M 985.786,80.3077 982.781,86.917 z" id="boundary" inkscape:connector-curvature="0" />
	<path style="fill:none;stroke:red;stroke-width:1px;stroke-linecap:butt;stroke-linejoin:miter;stroke-opacity:1" d="M 982.18,31.0382 976.172,28.6348 z" id="boundary" inkscape:connector-curvature="0" />
	<path style="fill:none;stroke:red;stroke-width:1px;stroke-linecap:butt;stroke-linejoin:miter;stroke-opacity:1" d="M 992.996,34.6432 986.987,34.6432 z" id="boundary" inkscape:connector-curvature="0" />
	<path style="fill:none;stroke:red;stroke-width:1px;stroke-linecap:butt;stroke-linejoin:miter;stroke-opacity:1" d="M 987.588,74.2992 985.786,80.3077 z" id="boundary" inkscape:connector-curvature="0" />
	<path style="fill:none;stroke:red;stroke-width:1px;stroke-linecap:butt;stroke-linejoin:miter;stroke-opacity:1" d="M 990.592,68.8916 987.588,74.2992 z" id="boundary" inkscape:connector-curvature="0" />
	<path style="fill:none;stroke:red;stroke-width:1px;stroke-linecap:butt;stroke-linejoin:miter;stroke-opacity:1" d="M 991.794,58.6772 990.592,68.8916 z" id="boundary" inkscape:connector-curvature="0" />
	<path style="fill:none;stroke:red;stroke-width:1px;stroke-linecap:butt;stroke-linejoin:miter;stroke-opacity:1" d="M 992.996,34.6432 996,40.0509 z" id="boundary" inkscape:connector-curvature="0" />
	<path style="fill:none;stroke:red;stroke-width:1px;stroke-linecap:butt;stroke-linejoin:miter;stroke-opacity:1" d="M 994.798,52.0678 991.794,58.6772 z" id="boundary" inkscape:connector-curvature="0" />
	<path style="fill:none;stroke:red;stroke-width:1px;stroke-linecap:butt;stroke-linejoin:miter;stroke-opacity:1" d="M 996,40.0509 996,46.0594 z" id="boundary" inkscape:connector-curvature="0" />
	<path style="fill:none;stroke:red;stroke-width:1px;stroke-linecap:butt;stroke-linejoin:miter;stroke-opacity:1" d="M 996,46.0594 994.798,52.0678 z" id="boundary" inkscape:connector-curvature="0" />
	<circle cx="4" cy="63.4839" r="4" fill="#0" id="circle0"/>
	<circle cx="7.60509" cy="68.2907" r="4" fill="#0" id="circle1"/>
	<circle cx="9.40763" cy="60.4797" r="4" fill="#0" id="circle2"/>
	<circle cx="13.0127" cy="71.295" r="4" fill="#0" id="circle3"/>
	<circle cx="15.4161" cy="58.0763" r="4" fill="#0" id="circle4"/>
	<circle cx="19.0212" cy="71.8958" r="4" fill="#0" id="circle5"/>
	<circle cx="21.4246" cy="57.4755" r="4" fill="#0" id="circle6"/>
	<circle cx="23.828" cy="75.5009" r="4" fill="#0" id="circle7"/>
	<circle cx="27.4331" cy="56.2738" r="4" fill="#0" id="circle8"/>
	<circle cx="29.8365" cy="76.7026" r="4" fill="#0" id="circle9"/>
	<circle cx="33.4416" cy="55.0721" r="4" fill="#0" id="circle10"/>
	<circle cx="35.2441" cy="79.7068" r="4" fill="#0" id="circle11"/>
	<circle cx="39.45" cy="53.8704" r="4" fill="#0" id="circle12"/>
	<circle cx="41.2526" cy="81.5094" r="4" fill="#0" id="circle13"/>
	<circle cx="45.4585" cy="52.6687" r="4" fill="#0" id="circle14"/>
	<circle cx="47.2611" cy="83.3119" r="4" fill="#0" id="circle15"/>
	<circle cx="51.467" cy="51.467" r="4" fill="#0" id="circle16"/>
	<circle cx="53.2695" cy="83.3119" r="4" fill="#0" id="circle17"/>
	<circle cx="57.4755" cy="50.8661" r="4" fill="#0" id="circle18"/>
	<circle cx="59.278" cy="85.1145" r="4" fill="#0" id="circle19"/>
	<circle cx="63.4839" cy="50.2653" r="4" fill="#0" id="circle20"/>
	<circle cx="65.2865" cy="85.7153" r="4" fill="#0" id="circle21"/>
	<circle cx="69.4924" cy="49.0636" r="4" fill="#0" id="circle22"/>
	<circle cx="71.295" cy="88.1187" r="4" fill="#0" id="circle23"/>
	<circle cx="75.5009" cy="48.4627" r="4" fill="#0" id="circle24"/>
	<circle cx="77.3035" cy="89.3204" r="4" fill="#0" id="circle25"/>
	<circle cx="81.5094" cy="47.2611" r="4" fill="#0" id="circle26"/>
	<circle cx="83.3119" cy="91.123" r="4" fill="#0" id="circle27"/>
	<circle cx="87.5179" cy="46.6602" r="4" fill="#0" id="circle28"/>
	<circle cx="89.3204" cy="91.7238" r="4" fill="#0" id="circle29"/>
	<circle cx="93.5263" cy="45.4585" r="4" fill="#0" id="circle30"/>
	<circle cx="95.3289" cy="92.9255" r="4" fill="#0" id="circle31"/>
	<circle cx="99.5348" cy="44.8577" r="4" fill="#0" id="circle32"/>
	<circle cx="101.337" cy="94.728" r="4" fill="#0" id="circle33"/>
	<circle cx="105.543" cy="44.2568" r="4" fill="#0" id="circle34"/>
	<circle cx="107.346" cy="94.728" r="4" fill="#0" id="circle35"/>
	<circle cx="111.552" cy="44.2568" r="4" fill="#0" id="circle36"/>
	<circle cx="113.354" cy="95.3289" r="4" fill="#0" id="circle37"/>
	<circle cx="117.56" cy="43.0551" r="4" fill="#0" id="circle38"/>
	<circle cx="119.363" cy="96.5306" r="4" fill="#0" id="circle39"/>
	<circle cx="123.569" cy="42.4543" r="4" fill="#0" id="circle40"/>
	<circle cx="125.371" cy="97.7323" r="4" fill="#0" id="circle41"/>
	<circle cx="129.577" cy="41.8534" r="4" fill="#0" id="circle42"/>
	<circle cx="131.38" cy="98.3331" r="4" fill="#0" id="circle43"/>
	<circle cx="135.586" cy="41.8534" r="4" fill="#0" id="circle44"/>
	<circle cx="137.388" cy="98.934" r="4" fill="#0" id="circle45"/>
	<circle cx="141.594" cy="40.6517" r="4" fill="#0" id="circle46"/>
	<circle cx="143.397" cy="100.136" r="4" fill="#0" id="circle47"/>
	<circle cx="147.603" cy="40.6517" r="4" fill="#0" id="circle48"/>
	<circle cx="149.405" cy="100.136" r="4" fill="#0" id="circle49"/>
	<circle cx="153.611" cy="40.6517" r="4" fill="#0" id="circle50"/>
	<circle cx="155.414" cy="101.337" r="4" fill="#0" id="circle51"/>
	<circle cx="159.62" cy="39.45" r="4" fill="#0" id="circle52"/>
	<circle cx="161.422" cy="101.938" r="4" fill="#0" id="circle53"/>
	<circle cx="165.628" cy="39.45" r="4" fill="#0" id="circle54"/>
	<circle cx="167.431" cy="101.938" r="4" fill="#0" id="circle55"/>
	<circle cx="171.637" cy="38.8492" r="4" fill="#0" id="circle56"/>
	<circle cx="173.439" cy="103.14" r="4" fill="#0" id="circle57"/>
	<circle cx="177.645" cy="38.2483" r="4" fill="#0" id="circle58"/>
	<circle cx="179.448" cy="103.741" r="4" fill="#0" id="circle59"/>
	<circle cx="183.654" cy="38.2483" r="4" fill="#0" id="circle60"/>
	<circle cx="185.456" cy="104.342" r="4" fill="#0" id="circle61"/>
	<circle cx="189.662" cy="37.6475" r="4" fill="#0" id="circle62"/>
	<circle cx="191.465" cy="104.942" r="4" fill="#0" id="circle63"/>
	<circle cx="195.671" cy="37.6475" r="4" fill="#0" id="circle64"/>
	<circle cx="197.473" cy="104.942" r="4" fill="#0" id="circle65"/>
	<circle cx="201.679" cy="37.6475" r="4" fill="#0" id="circle66"/>
	<circle cx="203.482" cy="105.543" r="4" fill="#0" id="circle67"/>
	<circle cx="207.687" cy="37.0466" r="4" fill="#0" id="circle68"/>
	<circle cx="209.49" cy="106.144" r="4" fill="#0" id="circle69"/>
	<circle cx="213.696" cy="36.4458" r="4" fill="#0" id="circle70"/>
	<circle cx="215.498" cy="105.543" r="4" fill="#0" id="circle71"/>
	<circle cx="219.704" cy="35.8449" r="4" fill="#0" id="circle72"/>
	<circle cx="221.507" cy="106.745" r="4" fill="#0" id="circle73"/>
	<circle cx="225.713" cy="35.8449" r="4" fill="#0" id="circle74"/>
	<circle cx="227.515" cy="106.745" r="4" fill="#0" id="circle75"/>
	<circle cx="231.721" cy="35.2441" r="4" fill="#0" id="circle76"/>
	<circle cx="233.524" cy="107.346" r="4" fill="#0" id="circle77"/>
	<circle cx="237.73" cy="35.2441" r="4" fill="#0" id="circle78"/>
	<circle cx="239.532" cy="107.346" r="4" fill="#0" id="circle79"/>
	<circle cx="243.738" cy="35.2441" r="4" fill="#0" id="circle80"/>
	<circle cx="245.541" cy="107.346" r="4" fill="#0" id="circle81"/>
	<circle cx="249.747" cy="35.2441" r="4" fill="#0" id="circle82"/>
	<circle cx="251.549" cy="107.947" r="4" fill="#0" id="circle83"/>
	<circle cx="255.755" cy="34.6432" r="4" fill="#0" id="circle84"/>
	<circle cx="257.558" cy="108.548" r="4" fill="#0" id="circle85"/>
	<circle cx="261.764" cy="33.4416" r="4" fill="#0" id="circle86"/>
	<circle cx="263.566" cy="108.548" r="4" fill="#0" id="circle87"/>
	<circle cx="267.772" cy="33.4416" r="4" fill="#0" id="circle88"/>
	<circle cx="269.575" cy="109.148" r="4" fill="#0" id="circle89"/>
	<circle cx="273.781" cy="33.4416" r="4" fill="#0" id="circle90"/>
	<circle cx="275.583" cy="109.148" r="4" fill="#0" id="circle91"/>
	<circle cx="279.789" cy="33.4416" r="4" fill="#0" id="circle92"/>
	<circle cx="281.592" cy="109.148" r="4" fill="#0" id="circle93"/>
	<circle cx="285.798" cy="32.8407" r="4" fill="#0" id="circle94"/>
	<circle cx="287.6" cy="109.148" r="4" fill="#0" id="circle95"/>
	<circle cx="291.806" cy="32.2399" r="4" fill="#0" id="circle96"/>
	<circle cx="293.609" cy="109.749" r="4" fill="#0" id="circle97"/>
	<circle cx="297.815" cy="31.639" r="4" fill="#0" id="circle98"/>
	<circle cx="299.617" cy="109.749" r="4" fill="#0" id="circle99"/>
	<circle cx="303.823" cy="31.0382" r="4" fill="#0" id="circle100"/>
	<circle cx="305.626" cy="107.947" r="4" fill="#0" id="circle101"/>
	<circle cx="309.832" cy="31.0382" r="4" fill="#0" id="circle102"/>
	<circle cx="311.634" cy="109.148" r="4" fill="#0" id="circle103"/>
	<circle cx="315.84" cy="31.0382" r="4" fill="#0" id="circle104"/>
	<circle cx="317.643" cy="109.148" r="4" fill="#0" id="circle105"/>
	<circle cx="321.849" cy="30.4373" r="4" fill="#0" id="circle106"/>
	<circle cx="323.651" cy="109.148" r="4" fill="#0" id="circle107"/>
	<circle cx="327.857" cy="30.4373" r="4" fill="#0" id="circle108"/>
	<circle cx="329.66" cy="109.749" r="4" fill="#0" id="circle109"/>
	<circle cx="333.866" cy="30.4373" r="4" fill="#0" id="circle110"/>
	<circle cx="335.668" cy="107.947" r="4" fill="#0" id="circle111"/>
	<circle cx="339.874" cy="29.8365" r="4" fill="#0" id="circle112"/>
	<circle cx="341.677" cy="109.749" r="4" fill="#0" id="circle113"/>
	<circle cx="345.882" cy="29.8365" r="4" fill="#0" id="circle114"/>
	<circle cx="347.685" cy="110.35" r="4" fill="#0" id="circle115"/>
	<circle cx="351.891" cy="28.6348" r="4" fill="#0" id="circle116"/>
	<circle cx="353.694" cy="108.548" r="4" fill="#0" id="circle117"/>
	<circle cx="357.899" cy="29.2356" r="4" fill="#0" id="circle118"/>
	<circle cx="359.702" cy="109.148" r="4" fill="#0" id="circle119"/>
	<circle cx="363.908" cy="28.6348" r="4" fill="#0" id="circle120"/>
	<circle cx="365.71" cy="109.749" r="4" fill="#0" id="circle121"/>
	<circle cx="369.916" cy="28.6348" r="4" fill="#0" id="circle122"/>
	<circle cx="371.719" cy="109.148" r="4" fill="#0" id="circle123"/>
	<circle cx="375.925" cy="27.4331" r="4" fill="#0" id="circle124"/>
	<circle cx="377.727" cy="108.548" r="4" fill="#0" id="circle125"/>
	<circle cx="381.933" cy="28.0339" r="4" fill="#0" id="circle126"/>
	<circle cx="383.736" cy="109.148" r="4" fill="#0" id="circle127"/>
	<circle cx="387.942" cy="28.0339" r="4" fill="#0" id="circle128"/>
	<circle cx="389.744" cy="109.148" r="4" fill="#0" id="circle129"/>
	<circle cx="393.95" cy="26.8322" r="4" fill="#0" id="circle130"/>
	<circle cx="395.753" cy="109.148" r="4" fill="#0" id="circle131"/>
	<circle cx="399.959" cy="26.2314" r="4" fill="#0" id="circle132"/>
	<circle cx="401.761" cy="109.148" r="4" fill="#0" id="circle133"/>
	<circle cx="405.967" cy="25.6305" r="4" fill="#0" id="circle134"/>
	<circle cx="407.77" cy="109.148" r="4" fill="#0" id="circle135"/>
	<circle cx="411.976" cy="26.2314" r="4" fill="#0" id="circle136"/>
	<circle cx="413.778" cy="108.548" r="4" fill="#0" id="circle137"/>
	<circle cx="417.984" cy="25.6305" r="4" fill="#0" id="circle138"/>
	<circle cx="419.787" cy="108.548" r="4" fill="#0" id="circle139"/>
	<circle cx="423.993" cy="25.0297" r="4" fill="#0" id="circle140"/>
	<circle cx="425.795" cy="108.548" r="4" fill="#0" id="circle141"/>
	<circle cx="430.001" cy="25.0297" r="4" fill="#0" id="circle142"/>
	<circle cx="431.804" cy="108.548" r="4" fill="#0" id="circle143"/>
	<circle cx="436.01" cy="24.4288" r="4" fill="#0" id="circle144"/>
	<circle cx="437.812" cy="107.947" r="4" fill="#0" id="circle145"/>
	<circle cx="442.018" cy="24.4288" r="4" fill="#0" id="circle146"/>
	<circle cx="443.821" cy="107.947" r="4" fill="#0" id="circle147"/>
	<circle cx="448.027" cy="23.828" r="4" fill="#0" id="circle148"/>
	<circle cx="449.829" cy="107.947" r="4" fill="#0" id="circle149"/>
	<circle cx="454.035" cy="23.828" r="4" fill="#0" id="circle150"/>
	<circle cx="455.838" cy="107.947" r="4" fill="#0" id="circle151"/>
	<circle cx="460.044" cy="22.6263" r="4" fill="#0" id="circle152"/>
	<circle cx="461.846" cy="107.346" r="4" fill="#0" id="circle153"/>
	<circle cx="466.052" cy="23.2271" r="4" fill="#0" id="circle154"/>
	<circle cx="467.855" cy="107.346" r="4" fill="#0" id="circle155"/>
	<circle cx="472.061" cy="23.2271" r="4" fill="#0" id="circle156"/>
	<circle cx="473.863" cy="107.346" r="4" fill="#0" id="circle157"/>
	<circle cx="478.069" cy="22.0254" r="4" fill="#0" id="circle158"/>
	<circle cx="479.872" cy="106.745" r="4" fill="#0" id="circle159"/>
	<circle cx="484.078" cy="22.0254" r="4" fill="#0" id="circle160"/>
	<circle cx="485.88" cy="107.346" r="4" fill="#0" id="circle161"/>
	<circle cx="490.086" cy="20.8237" r="4" fill="#0" id="circle162"/>
	<circle cx="491.889" cy="106.745" r="4" fill="#0" id="circle163"/>
	<circle cx="496.094" cy="20.8237" r="4" fill="#0" id="circle164"/>
	<circle cx="497.897" cy="106.144" r="4" fill="#0" id="circle165"/>
	<circle cx="502.103" cy="20.8237" r="4" fill="#0" id="circle166"/>
	<circle cx="503.906" cy="106.144" r="4" fill="#0" id="circle167"/>
	<circle cx="508.111" cy="20.8237" r="4" fill="#0" id="circle168"/>
	<circle cx="509.914" cy="105.543" r="4" fill="#0" id="circle169"/>
	<circle cx="514.12" cy="20.8237" r="4" fill="#0" id="circle170"/>
	<circle cx="515.922" cy="104.342" r="4" fill="#0" id="circle171"/>
	<circle cx="520.128" cy="19.622" r="4" fill="#0" id="circle172"/>
	<circle cx="521.931" cy="103.14" r="4" fill="#0" id="circle173"/>
	<circle cx="526.137" cy="20.2229" r="4" fill="#0" id="circle174"/>
	<circle cx="527.939" cy="100.737" r="4" fill="#0" id="circle175"/>
	<circle cx="532.145" cy="19.622" r="4" fill="#0" id="circle176"/>
	<circle cx="533.948" cy="99.5348" r="4" fill="#0" id="circle177"/>
	<circle cx="538.154" cy="19.0212" r="4" fill="#0" id="circle178"/>
	<circle cx="539.356" cy="95.3289" r="4" fill="#0" id="circle179"/>
	<circle cx="541.158" cy="89.3204" r="4" fill="#0" id="circle180"/>
	<circle cx="543.561" cy="80.9085" r="4" fill="#0" id="circle181"/>
	<circle cx="544.162" cy="19.0212" r="4" fill="#0" id="circle182"/>
	<circle cx="549.57" cy="80.9085" r="4" fill="#0" id="circle183"/>
	<circle cx="550.171" cy="19.0212" r="4" fill="#0" id="circle184"/>
	<circle cx="553.175" cy="73.0975" r="4" fill="#0" id="circle185"/>
	<circle cx="556.179" cy="19.0212" r="4" fill="#0" id="circle186"/>
	<circle cx="559.184" cy="73.0975" r="4" fill="#0" id="circle187"/>
	<circle cx="562.188" cy="19.0212" r="4" fill="#0" id="circle188"/>
	<circle cx="565.192" cy="72.4967" r="4" fill="#0" id="circle189"/>
	<circle cx="568.196" cy="19.622" r="4" fill="#0" id="circle190"/>
	<circle cx="571.2" cy="71.8958" r="4" fill="#0" id="circle191"/>
	<circle cx="574.205" cy="17.8195" r="4" fill="#0" id="circle192"/>
	<circle cx="577.209" cy="71.8958" r="4" fill="#0" id="circle193"/>
	<circle cx="580.213" cy="17.2187" r="4" fill="#0" id="circle194"/>
	<circle cx="582.016" cy="76.1018" r="4" fill="#0" id="circle195"/>
	<circle cx="586.222" cy="17.2187" r="4" fill="#0" id="circle196"/>
	<circle cx="588.024" cy="76.1018" r="4" fill="#0" id="circle197"/>
	<circle cx="592.23" cy="16.6178" r="4" fill="#0" id="circle198"/>
	<circle cx="594.033" cy="74.9001" r="4" fill="#0" id="circle199"/>
	<circle cx="598.239" cy="16.6178" r="4" fill="#0" id="circle200"/>
	<circle cx="599.44" cy="71.8958" r="4" fill="#0" id="circle201"/>
	<circle cx="604.247" cy="15.4161" r="4" fill="#0" id="circle202"/>
	<circle cx="605.449" cy="72.4967" r="4" fill="#0" id="circle203"/>
	<circle cx="610.256" cy="14.8153" r="4" fill="#0" id="circle204"/>
	<circle cx="611.457" cy="73.0975" r="4" fill="#0" id="circle205"/>
	<circle cx="616.264" cy="14.2144" r="4" fill="#0" id="circle206"/>
	<circle cx="617.466" cy="75.5009" r="4" fill="#0" id="circle207"/>
	<circle cx="621.071" cy="80.3077" r="4" fill="#0" id="circle208"/>
	<circle cx="622.273" cy="13.6136" r="4" fill="#0" id="circle209"/>
	<circle cx="626.478" cy="77.3035" r="4" fill="#0" id="circle210"/>
	<circle cx="627.079" cy="68.2907" r="4" fill="#0" id="circle211"/>
	<circle cx="628.281" cy="12.4119" r="4" fill="#0" id="circle212"/>
	<circle cx="632.487" cy="76.7026" r="4" fill="#0" id="circle213"/>
	<circle cx="634.29" cy="12.4119" r="4" fill="#0" id="circle214"/>
	<circle cx="638.495" cy="76.1018" r="4" fill="#0" id="circle215"/>
	<circle cx="640.298" cy="11.2102" r="4" fill="#0" id="circle216"/>
	<circle cx="644.504" cy="75.5009" r="4" fill="#0" id="circle217"/>
	<circle cx="646.306" cy="10.6093" r="4" fill="#0" id="circle218"/>
	<circle cx="650.512" cy="77.9043" r="4" fill="#0" id="circle219"/>
	<circle cx="652.315" cy="10.0085" r="4" fill="#0" id="circle220"/>
	<circle cx="656.521" cy="80.3077" r="4" fill="#0" id="circle221"/>
	<circle cx="658.323" cy="9.40763" r="4" fill="#0" id="circle222"/>
	<circle cx="662.529" cy="80.3077" r="4" fill="#0" id="circle223"/>
	<circle cx="664.332" cy="8.80678" r="4" fill="#0" id="circle224"/>
	<circle cx="668.538" cy="79.7068" r="4" fill="#0" id="circle225"/>
	<circle cx="670.34" cy="8.20594" r="4" fill="#0" id="circle226"/>
	<circle cx="674.546" cy="79.106" r="4" fill="#0" id="circle227"/>
	<circle cx="676.349" cy="7.60509" r="4" fill="#0" id="circle228"/>
	<circle cx="680.555" cy="77.3035" r="4" fill="#0" id="circle229"/>
	<circle cx="682.357" cy="7.60509" r="4" fill="#0" id="circle230"/>
	<circle cx="686.563" cy="77.9043" r="4" fill="#0" id="circle231"/>
	<circle cx="688.366" cy="7.00424" r="4" fill="#0" id="circle232"/>
	<circle cx="692.572" cy="78.5051" r="4" fill="#0" id="circle233"/>
	<circle cx="694.374" cy="7.00424" r="4" fill="#0" id="circle234"/>
	<circle cx="697.379" cy="82.7111" r="4" fill="#0" id="circle235"/>
	<circle cx="700.383" cy="6.40339" r="4" fill="#0" id="circle236"/>
	<circle cx="702.185" cy="86.3162" r="4" fill="#0" id="circle237"/>
	<circle cx="706.391" cy="6.40339" r="4" fill="#0" id="circle238"/>
	<circle cx="707.593" cy="83.3119" r="4" fill="#0" id="circle239"/>
	<circle cx="712.4" cy="5.80254" r="4" fill="#0" id="circle240"/>
	<circle cx="713.601" cy="79.106" r="4" fill="#0" id="circle241"/>
	<circle cx="718.408" cy="5.2017" r="4" fill="#0" id="circle242"/>
	<circle cx="719.009" cy="82.1102" r="4" fill="#0" id="circle243"/>
	<circle cx="724.417" cy="5.2017" r="4" fill="#0" id="circle244"/>
	<circle cx="725.018" cy="80.9085" r="4" fill="#0" id="circle245"/>
	<circle cx="730.425" cy="5.2017" r="4" fill="#0" id="circle246"/>
	<circle cx="731.026" cy="80.3077" r="4" fill="#0" id="circle247"/>
	<circle cx="736.434" cy="4.60085" r="4" fill="#0" id="circle248"/>
	<circle cx="737.035" cy="81.5094" r="4" fill="#0" id="circle249"/>
	<circle cx="742.442" cy="4.60085" r="4" fill="#0" id="circle250"/>
	<circle cx="743.043" cy="83.3119" r="4" fill="#0" id="circle251"/>
	<circle cx="748.451" cy="4.60085" r="4" fill="#0" id="circle252"/>
	<circle cx="749.051" cy="85.7153" r="4" fill="#0" id="circle253"/>
	<circle cx="754.459" cy="4.60085" r="4" fill="#0" id="circle254"/>
	<circle cx="755.06" cy="85.7153" r="4" fill="#0" id="circle255"/>
	<circle cx="760.468" cy="4" r="4" fill="#0" id="circle256"/>
	<circle cx="761.068" cy="85.7153" r="4" fill="#0" id="circle257"/>
	<circle cx="766.476" cy="4" r="4" fill="#0" id="circle258"/>
	<circle cx="767.077" cy="84.5136" r="4" fill="#0" id="circle259"/>
	<circle cx="772.485" cy="4" r="4" fill="#0" id="circle260"/>
	<circle cx="773.085" cy="83.9128" r="4" fill="#0" id="circle261"/>
	<circle cx="778.493" cy="4" r="4" fill="#0" id="circle262"/>
	<circle cx="779.094" cy="83.3119" r="4" fill="#0" id="circle263"/>
	<circle cx="784.502" cy="4" r="4" fill="#0" id="circle264"/>
	<circle cx="785.102" cy="81.5094" r="4" fill="#0" id="circle265"/>
	<circle cx="790.51" cy="4" r="4" fill="#0" id="circle266"/>
	<circle cx="791.111" cy="81.5094" r="4" fill="#0" id="circle267"/>
	<circle cx="796.518" cy="4" r="4" fill="#0" id="circle268"/>
	<circle cx="797.119" cy="82.7111" r="4" fill="#0" id="circle269"/>
	<circle cx="802.527" cy="4" r="4" fill="#0" id="circle270"/>
	<circle cx="803.128" cy="82.7111" r="4" fill="#0" id="circle271"/>
	<circle cx="808.535" cy="4" r="4" fill="#0" id="circle272"/>
	<circle cx="809.136" cy="81.5094" r="4" fill="#0" id="circle273"/>
	<circle cx="814.544" cy="4.60085" r="4" fill="#0" id="circle274"/>
	<circle cx="815.145" cy="80.9085" r="4" fill="#0" id="circle275"/>
	<circle cx="817.548" cy="73.6984" r="4" fill="#0" id="circle276"/>
	<circle cx="820.552" cy="4" r="4" fill="#0" id="circle277"/>
	<circle cx="821.153" cy="79.7068" r="4" fill="#0" id="circle278"/>
	<circle cx="826.561" cy="4.60085" r="4" fill="#0" id="circle279"/>
	<circle cx="826.561" cy="76.7026" r="4" fill="#0" id="circle280"/>
	<circle cx="832.569" cy="5.2017" r="4" fill="#0" id="circle281"/>
	<circle cx="832.569" cy="77.9043" r="4" fill="#0" id="circle282"/>
	<circle cx="835.574" cy="64.6856" r="4" fill="#0" id="circle283"/>
	<circle cx="838.578" cy="5.2017" r="4" fill="#0" id="circle284"/>
	<circle cx="838.578" cy="77.3035" r="4" fill="#0" id="circle285"/>
	<circle cx="843.985" cy="73.0975" r="4" fill="#0" id="circle286"/>
	<circle cx="844.586" cy="5.80254" r="4" fill="#0" id="circle287"/>
	<circle cx="848.792" cy="76.7026" r="4" fill="#0" id="circle288"/>
	<circle cx="850.595" cy="5.80254" r="4" fill="#0" id="circle289"/>
	<circle cx="853.599" cy="72.4967" r="4" fill="#0" id="circle290"/>
	<circle cx="856.603" cy="6.40339" r="4" fill="#0" id="circle291"/>
	<circle cx="857.204" cy="77.3035" r="4" fill="#0" id="circle292"/>
	<circle cx="862.612" cy="7.00424" r="4" fill="#0" id="circle293"/>
	<circle cx="862.612" cy="80.3077" r="4" fill="#0" id="circle294"/>
	<circle cx="868.019" cy="83.3119" r="4" fill="#0" id="circle295"/>
	<circle cx="868.62" cy="7.00424" r="4" fill="#0" id="circle296"/>
	<circle cx="874.028" cy="82.1102" r="4" fill="#0" id="circle297"/>
	<circle cx="874.629" cy="7.60509" r="4" fill="#0" id="circle298"/>
	<circle cx="880.036" cy="82.1102" r="4" fill="#0" id="circle299"/>
	<circle cx="880.637" cy="8.80678" r="4" fill="#0" id="circle300"/>
	<circle cx="884.843" cy="68.2907" r="4" fill="#0" id="circle301"/>
	<circle cx="886.045" cy="80.9085" r="4" fill="#0" id="circle302"/>
	<circle cx="886.646" cy="9.40763" r="4" fill="#0" id="circle303"/>
	<circle cx="890.251" cy="71.295" r="4" fill="#0" id="circle304"/>
	<circle cx="891.452" cy="83.9128" r="4" fill="#0" id="circle305"/>
	<circle cx="892.654" cy="10.0085" r="4" fill="#0" id="circle306"/>
	<circle cx="895.058" cy="67.6899" r="4" fill="#0" id="circle307"/>
	<circle cx="897.461" cy="85.7153" r="4" fill="#0" id="circle308"/>
	<circle cx="898.663" cy="10.6093" r="4" fill="#0" id="circle309"/>
	<circle cx="903.469" cy="87.5179" r="4" fill="#0" id="circle310"/>
	<circle cx="904.671" cy="11.811" r="4" fill="#0" id="circle311"/>
	<circle cx="909.478" cy="88.7196" r="4" fill="#0" id="circle312"/>
	<circle cx="910.68" cy="12.4119" r="4" fill="#0" id="circle313"/>
	<circle cx="914.285" cy="92.3247" r="4" fill="#0" id="circle314"/>
	<circle cx="916.688" cy="13.6136" r="4" fill="#0" id="circle315"/>
	<circle cx="920.293" cy="91.7238" r="4" fill="#0" id="circle316"/>
	<circle cx="922.697" cy="16.017" r="4" fill="#0" id="circle317"/>
	<circle cx="925.1" cy="88.1187" r="4" fill="#0" id="circle318"/>
	<circle cx="928.705" cy="16.017" r="4" fill="#0" id="circle319"/>
	<circle cx="929.907" cy="84.5136" r="4" fill="#0" id="circle320"/>
	<circle cx="934.714" cy="17.2187" r="4" fill="#0" id="circle321"/>
	<circle cx="935.915" cy="85.1145" r="4" fill="#0" id="circle322"/>
	<circle cx="940.722" cy="18.4204" r="4" fill="#0" id="circle323"/>
	<circle cx="941.323" cy="88.1187" r="4" fill="#0" id="circle324"/>
	<circle cx="945.529" cy="93.5263" r="4" fill="#0" id="circle325"/>
	<circle cx="946.73" cy="20.2229" r="4" fill="#0" id="circle326"/>
	<circle cx="949.134" cy="98.3331" r="4" fill="#0" id="circle327"/>
	<circle cx="952.739" cy="21.4246" r="4" fill="#0" id="circle328"/>
	<circle cx="955.142" cy="97.1314" r="4" fill="#0" id="circle329"/>
	<circle cx="958.747" cy="22.0254" r="4" fill="#0" id="circle330"/>
	<circle cx="960.55" cy="100.136" r="4" fill="#0" id="circle331"/>
	<circle cx="964.756" cy="23.828" r="4" fill="#0" id="circle332"/>
	<circle cx="966.558" cy="101.337" r="4" fill="#0" id="circle333"/>
	<circle cx="970.164" cy="26.8322" r="4" fill="#0" id="circle334"/>
	<circle cx="972.567" cy="101.337" r="4" fill="#0" id="circle335"/>
	<circle cx="976.172" cy="28.6348" r="4" fill="#0" id="circle336"/>
	<circle cx="977.374" cy="97.7323" r="4" fill="#0" id="circle337"/>
	<circle cx="979.176" cy="91.7238" r="4" fill="#0" id="circle338"/>
	<circle cx="982.18" cy="31.0382" r="4" fill="#0" id="circle339"/>
	<circle cx="982.781" cy="86.917" r="4" fill="#0" id="circle340"/>
	<circle cx="985.786" cy="80.3077" r="4" fill="#0" id="circle341"/>
	<circle cx="986.987" cy="34.6432" r="4" fill="#0" id="circle342"/>
	<circle cx="987.588" cy="74.2992" r="4" fill="#0" id="circle343"/>
	<circle cx="990.592" cy="68.8916" r="4" fill="#0" id="circle344"/>
	<circle cx="991.794" cy="58.6772" r="4" fill="#0" id="circle345"/>
	<circle cx="992.996" cy="34.6432" r="4" fill="#0" id="circle346"/>
	<circle cx="994.798" cy="52.0678" r="4" fill="#0" id="circle347"/>
	<circle cx="996" cy="40.0509" r="4" fill="#0" id="circle348"/>
	<circle cx="996" cy="46.0594" r="4" fill="#0" id="circle349"/>
	</g>
</svg>