<?xml version="1.0" encoding="UTF-8" standalone="no"?>
<!-- Created with CurveBenchmark -->
<svg
	xmlns:dc="http://purl.org/dc/elements/1.1/"
	xmlns:cc="http://creativecommons.org/ns#"
	xmlns:rdf="http://www.w3.org/1999/02/22-rdf-syntax-ns#"
	xmlns:svg="http://www.w3.org/2000/svg"
	xmlns="http://www.w3.org/2000/svg"
	xmlns:sodipodi="http://sodipodi.sourceforge.net/DTD/sodipodi-0.dtd"
	xmlns:inkscape="http://www.inkscape.org/namespaces/inkscape"
	width="1000"
	height="1000"
	id="svg2"
	version="1.1"
	sodipodi:docname="manifold/peel-hammer100.png.txt">
<defs
	id="defs4" />
<metadata
	id="metadata7">
	<rdf:RDF>
		<cc:Work
			rdf:about="">
			<dc:format>image/svg+xml</dc:format>
			<dc:type
				rdf:resource="http://purl.org/dc/dcmitype/StillImage" />
			<dc:title></dc:title>
		</cc:Work>
	</rdf:RDF>
</metadata>
<g
	inkscape:label="Layer 1"
	inkscape:groupmode="layer"
	id="layer1">
	<path style="fill:none;stroke:red;stroke-width:1px;stroke-linecap:butt;stroke-linejoin:miter;stroke-opacity:1" d="M 21.2522,9.75072 50.0058,4 z" id="boundary" inkscape:connector-curvature="0" />
	<path style="fill:none;stroke:red;stroke-width:1px;stroke-linecap:butt;stroke-linejoin:miter;stroke-opacity:1" d="M 4,32.7536 6.87536,61.5072 z" id="boundary" inkscape:connector-curvature="0" />
	<path style="fill:none;stroke:red;stroke-width:1px;stroke-linecap:butt;stroke-linejoin:miter;stroke-opacity:1" d="M 4,32.7536 21.2522,9.75072 z" id="boundary" inkscape:connector-curvature="0" />
	<path style="fill:none;stroke:red;stroke-width:1px;stroke-linecap:butt;stroke-linejoin:miter;stroke-opacity:1" d="M 24.1275,84.5101 27.0029,113.264 z" id="boundary" inkscape:connector-curvature="0" />
	<path style="fill:none;stroke:red;stroke-width:1px;stroke-linecap:butt;stroke-linejoin:miter;stroke-opacity:1" d="M 24.1275,84.5101 6.87536,61.5072 z" id="boundary" inkscape:connector-curvature="0" />
	<path style="fill:none;stroke:red;stroke-width:1px;stroke-linecap:butt;stroke-linejoin:miter;stroke-opacity:1" d="M 21.2522,504.313 21.2522,475.559 z" id="boundary" inkscape:connector-curvature="0" />
	<path style="fill:none;stroke:red;stroke-width:1px;stroke-linecap:butt;stroke-linejoin:miter;stroke-opacity:1" d="M 27.0029,113.264 32.7536,142.017 z" id="boundary" inkscape:connector-curvature="0" />
	<path style="fill:none;stroke:red;stroke-width:1px;stroke-linecap:butt;stroke-linejoin:miter;stroke-opacity:1" d="M 21.2522,533.067 21.2522,504.313 z" id="boundary" inkscape:connector-curvature="0" />
	<path style="fill:none;stroke:red;stroke-width:1px;stroke-linecap:butt;stroke-linejoin:miter;stroke-opacity:1" d="M 35.629,170.771 32.7536,142.017 z" id="boundary" inkscape:connector-curvature="0" />
	<path style="fill:none;stroke:red;stroke-width:1px;stroke-linecap:butt;stroke-linejoin:miter;stroke-opacity:1" d="M 21.2522,561.82 21.2522,533.067 z" id="boundary" inkscape:connector-curvature="0" />
	<path style="fill:none;stroke:red;stroke-width:1px;stroke-linecap:butt;stroke-linejoin:miter;stroke-opacity:1" d="M 21.2522,590.574 21.2522,561.82 z" id="boundary" inkscape:connector-curvature="0" />
	<path style="fill:none;stroke:red;stroke-width:1px;stroke-linecap:butt;stroke-linejoin:miter;stroke-opacity:1" d="M 38.5043,446.806 21.2522,475.559 z" id="boundary" inkscape:connector-curvature="0" />
	<path style="fill:none;stroke:red;stroke-width:1px;stroke-linecap:butt;stroke-linejoin:miter;stroke-opacity:1" d="M 21.2522,619.328 21.2522,590.574 z" id="boundary" inkscape:connector-curvature="0" />
	<path style="fill:none;stroke:red;stroke-width:1px;stroke-linecap:butt;stroke-linejoin:miter;stroke-opacity:1" d="M 38.5043,446.806 44.2551,418.052 z" id="boundary" inkscape:connector-curvature="0" />
	<path style="fill:none;stroke:red;stroke-width:1px;stroke-linecap:butt;stroke-linejoin:miter;stroke-opacity:1" d="M 110.388,389.299 110.388,360.545 z" id="boundary" inkscape:connector-curvature="0" />
	<path style="fill:none;stroke:red;stroke-width:1px;stroke-linecap:butt;stroke-linejoin:miter;stroke-opacity:1" d="M 21.2522,648.081 21.2522,619.328 z" id="boundary" inkscape:connector-curvature="0" />
	<path style="fill:none;stroke:red;stroke-width:1px;stroke-linecap:butt;stroke-linejoin:miter;stroke-opacity:1" d="M 50.0058,372.046 50.0058,343.293 z" id="boundary" inkscape:connector-curvature="0" />
	<path style="fill:none;stroke:red;stroke-width:1px;stroke-linecap:butt;stroke-linejoin:miter;stroke-opacity:1" d="M 21.2522,676.835 21.2522,648.081 z" id="boundary" inkscape:connector-curvature="0" />
	<path style="fill:none;stroke:red;stroke-width:1px;stroke-linecap:butt;stroke-linejoin:miter;stroke-opacity:1" d="M 50.0058,343.293 50.0058,314.539 z" id="boundary" inkscape:connector-curvature="0" />
	<path style="fill:none;stroke:red;stroke-width:1px;stroke-linecap:butt;stroke-linejoin:miter;stroke-opacity:1" d="M 21.2522,705.588 21.2522,676.835 z" id="boundary" inkscape:connector-curvature="0" />
	<path style="fill:none;stroke:red;stroke-width:1px;stroke-linecap:butt;stroke-linejoin:miter;stroke-opacity:1" d="M 44.2551,418.052 50.0058,372.046 z" id="boundary" inkscape:connector-curvature="0" />
	<path style="fill:none;stroke:red;stroke-width:1px;stroke-linecap:butt;stroke-linejoin:miter;stroke-opacity:1" d="M 21.2522,734.342 21.2522,705.588 z" id="boundary" inkscape:connector-curvature="0" />
	<path style="fill:none;stroke:red;stroke-width:1px;stroke-linecap:butt;stroke-linejoin:miter;stroke-opacity:1" d="M 21.2522,763.096 21.2522,734.342 z" id="boundary" inkscape:connector-curvature="0" />
	<path style="fill:none;stroke:red;stroke-width:1px;stroke-linecap:butt;stroke-linejoin:miter;stroke-opacity:1" d="M 21.2522,791.849 21.2522,763.096 z" id="boundary" inkscape:connector-curvature="0" />
	<path style="fill:none;stroke:red;stroke-width:1px;stroke-linecap:butt;stroke-linejoin:miter;stroke-opacity:1" d="M 21.2522,820.603 21.2522,791.849 z" id="boundary" inkscape:connector-curvature="0" />
	<path style="fill:none;stroke:red;stroke-width:1px;stroke-linecap:butt;stroke-linejoin:miter;stroke-opacity:1" d="M 139.142,702.713 139.142,731.467 z" id="boundary" inkscape:connector-curvature="0" />
	<path style="fill:none;stroke:red;stroke-width:1px;stroke-linecap:butt;stroke-linejoin:miter;stroke-opacity:1" d="M 21.2522,849.357 21.2522,820.603 z" id="boundary" inkscape:connector-curvature="0" />
	<path style="fill:none;stroke:red;stroke-width:1px;stroke-linecap:butt;stroke-linejoin:miter;stroke-opacity:1" d="M 21.2522,878.11 21.2522,849.357 z" id="boundary" inkscape:connector-curvature="0" />
	<path style="fill:none;stroke:red;stroke-width:1px;stroke-linecap:butt;stroke-linejoin:miter;stroke-opacity:1" d="M 139.142,788.974 139.142,817.728 z" id="boundary" inkscape:connector-curvature="0" />
	<path style="fill:none;stroke:red;stroke-width:1px;stroke-linecap:butt;stroke-linejoin:miter;stroke-opacity:1" d="M 21.2522,906.864 21.2522,878.11 z" id="boundary" inkscape:connector-curvature="0" />
	<path style="fill:none;stroke:red;stroke-width:1px;stroke-linecap:butt;stroke-linejoin:miter;stroke-opacity:1" d="M 15.5014,970.122 21.2522,935.617 z" id="boundary" inkscape:connector-curvature="0" />
	<path style="fill:none;stroke:red;stroke-width:1px;stroke-linecap:butt;stroke-linejoin:miter;stroke-opacity:1" d="M 21.2522,935.617 21.2522,906.864 z" id="boundary" inkscape:connector-curvature="0" />
	<path style="fill:none;stroke:red;stroke-width:1px;stroke-linecap:butt;stroke-linejoin:miter;stroke-opacity:1" d="M 139.142,846.481 139.142,875.235 z" id="boundary" inkscape:connector-curvature="0" />
	<path style="fill:none;stroke:red;stroke-width:1px;stroke-linecap:butt;stroke-linejoin:miter;stroke-opacity:1" d="M 41.3797,199.525 44.2551,228.278 z" id="boundary" inkscape:connector-curvature="0" />
	<path style="fill:none;stroke:red;stroke-width:1px;stroke-linecap:butt;stroke-linejoin:miter;stroke-opacity:1" d="M 41.3797,199.525 35.629,170.771 z" id="boundary" inkscape:connector-curvature="0" />
	<path style="fill:none;stroke:red;stroke-width:1px;stroke-linecap:butt;stroke-linejoin:miter;stroke-opacity:1" d="M 50.0058,4 78.7594,4 z" id="boundary" inkscape:connector-curvature="0" />
	<path style="fill:none;stroke:red;stroke-width:1px;stroke-linecap:butt;stroke-linejoin:miter;stroke-opacity:1" d="M 110.388,331.791 110.388,360.545 z" id="boundary" inkscape:connector-curvature="0" />
	<path style="fill:none;stroke:red;stroke-width:1px;stroke-linecap:butt;stroke-linejoin:miter;stroke-opacity:1" d="M 110.388,389.299 110.388,418.052 z" id="boundary" inkscape:connector-curvature="0" />
	<path style="fill:none;stroke:red;stroke-width:1px;stroke-linecap:butt;stroke-linejoin:miter;stroke-opacity:1" d="M 144.893,47.1304 133.391,18.3768 z" id="boundary" inkscape:connector-curvature="0" />
	<path style="fill:none;stroke:red;stroke-width:1px;stroke-linecap:butt;stroke-linejoin:miter;stroke-opacity:1" d="M 133.391,18.3768 107.513,4 z" id="boundary" inkscape:connector-curvature="0" />
	<path style="fill:none;stroke:red;stroke-width:1px;stroke-linecap:butt;stroke-linejoin:miter;stroke-opacity:1" d="M 139.142,558.945 139.142,587.699 z" id="boundary" inkscape:connector-curvature="0" />
	<path style="fill:none;stroke:red;stroke-width:1px;stroke-linecap:butt;stroke-linejoin:miter;stroke-opacity:1" d="M 107.513,4 78.7594,4 z" id="boundary" inkscape:connector-curvature="0" />
	<path style="fill:none;stroke:red;stroke-width:1px;stroke-linecap:butt;stroke-linejoin:miter;stroke-opacity:1" d="M 47.1304,257.032 44.2551,228.278 z" id="boundary" inkscape:connector-curvature="0" />
	<path style="fill:none;stroke:red;stroke-width:1px;stroke-linecap:butt;stroke-linejoin:miter;stroke-opacity:1" d="M 139.142,616.452 139.142,645.206 z" id="boundary" inkscape:connector-curvature="0" />
	<path style="fill:none;stroke:red;stroke-width:1px;stroke-linecap:butt;stroke-linejoin:miter;stroke-opacity:1" d="M 50.0058,285.786 50.0058,314.539 z" id="boundary" inkscape:connector-curvature="0" />
	<path style="fill:none;stroke:red;stroke-width:1px;stroke-linecap:butt;stroke-linejoin:miter;stroke-opacity:1" d="M 50.0058,285.786 47.1304,257.032 z" id="boundary" inkscape:connector-curvature="0" />
	<path style="fill:none;stroke:red;stroke-width:1px;stroke-linecap:butt;stroke-linejoin:miter;stroke-opacity:1" d="M 162.145,104.638 156.394,75.8841 z" id="boundary" inkscape:connector-curvature="0" />
	<path style="fill:none;stroke:red;stroke-width:1px;stroke-linecap:butt;stroke-linejoin:miter;stroke-opacity:1" d="M 110.388,274.284 110.388,245.53 z" id="boundary" inkscape:connector-curvature="0" />
	<path style="fill:none;stroke:red;stroke-width:1px;stroke-linecap:butt;stroke-linejoin:miter;stroke-opacity:1" d="M 29.8783,996 15.5014,970.122 z" id="boundary" inkscape:connector-curvature="0" />
	<path style="fill:none;stroke:red;stroke-width:1px;stroke-linecap:butt;stroke-linejoin:miter;stroke-opacity:1" d="M 29.8783,996 58.6319,996 z" id="boundary" inkscape:connector-curvature="0" />
	<path style="fill:none;stroke:red;stroke-width:1px;stroke-linecap:butt;stroke-linejoin:miter;stroke-opacity:1" d="M 110.388,331.791 110.388,303.038 z" id="boundary" inkscape:connector-curvature="0" />
	<path style="fill:none;stroke:red;stroke-width:1px;stroke-linecap:butt;stroke-linejoin:miter;stroke-opacity:1" d="M 110.388,303.038 110.388,274.284 z" id="boundary" inkscape:connector-curvature="0" />
	<path style="fill:none;stroke:red;stroke-width:1px;stroke-linecap:butt;stroke-linejoin:miter;stroke-opacity:1" d="M 58.6319,996 87.3855,996 z" id="boundary" inkscape:connector-curvature="0" />
	<path style="fill:none;stroke:red;stroke-width:1px;stroke-linecap:butt;stroke-linejoin:miter;stroke-opacity:1" d="M 116.139,193.774 110.388,245.53 z" id="boundary" inkscape:connector-curvature="0" />
	<path style="fill:none;stroke:red;stroke-width:1px;stroke-linecap:butt;stroke-linejoin:miter;stroke-opacity:1" d="M 119.014,446.806 110.388,418.052 z" id="boundary" inkscape:connector-curvature="0" />
	<path style="fill:none;stroke:red;stroke-width:1px;stroke-linecap:butt;stroke-linejoin:miter;stroke-opacity:1" d="M 116.139,193.774 142.017,179.397 z" id="boundary" inkscape:connector-curvature="0" />
	<path style="fill:none;stroke:red;stroke-width:1px;stroke-linecap:butt;stroke-linejoin:miter;stroke-opacity:1" d="M 133.391,472.684 119.014,446.806 z" id="boundary" inkscape:connector-curvature="0" />
	<path style="fill:none;stroke:red;stroke-width:1px;stroke-linecap:butt;stroke-linejoin:miter;stroke-opacity:1" d="M 142.017,179.397 167.896,162.145 z" id="boundary" inkscape:connector-curvature="0" />
	<path style="fill:none;stroke:red;stroke-width:1px;stroke-linecap:butt;stroke-linejoin:miter;stroke-opacity:1" d="M 139.142,501.438 133.391,472.684 z" id="boundary" inkscape:connector-curvature="0" />
	<path style="fill:none;stroke:red;stroke-width:1px;stroke-linecap:butt;stroke-linejoin:miter;stroke-opacity:1" d="M 139.142,530.191 139.142,501.438 z" id="boundary" inkscape:connector-curvature="0" />
	<path style="fill:none;stroke:red;stroke-width:1px;stroke-linecap:butt;stroke-linejoin:miter;stroke-opacity:1" d="M 139.142,558.945 139.142,530.191 z" id="boundary" inkscape:connector-curvature="0" />
	<path style="fill:none;stroke:red;stroke-width:1px;stroke-linecap:butt;stroke-linejoin:miter;stroke-opacity:1" d="M 139.142,875.235 139.142,903.988 z" id="boundary" inkscape:connector-curvature="0" />
	<path style="fill:none;stroke:red;stroke-width:1px;stroke-linecap:butt;stroke-linejoin:miter;stroke-opacity:1" d="M 144.893,47.1304 156.394,75.8841 z" id="boundary" inkscape:connector-curvature="0" />
	<path style="fill:none;stroke:red;stroke-width:1px;stroke-linecap:butt;stroke-linejoin:miter;stroke-opacity:1" d="M 139.142,587.699 139.142,616.452 z" id="boundary" inkscape:connector-curvature="0" />
	<path style="fill:none;stroke:red;stroke-width:1px;stroke-linecap:butt;stroke-linejoin:miter;stroke-opacity:1" d="M 167.896,162.145 162.145,133.391 z" id="boundary" inkscape:connector-curvature="0" />
	<path style="fill:none;stroke:red;stroke-width:1px;stroke-linecap:butt;stroke-linejoin:miter;stroke-opacity:1" d="M 139.142,645.206 139.142,673.959 z" id="boundary" inkscape:connector-curvature="0" />
	<path style="fill:none;stroke:red;stroke-width:1px;stroke-linecap:butt;stroke-linejoin:miter;stroke-opacity:1" d="M 162.145,104.638 162.145,133.391 z" id="boundary" inkscape:connector-curvature="0" />
	<path style="fill:none;stroke:red;stroke-width:1px;stroke-linecap:butt;stroke-linejoin:miter;stroke-opacity:1" d="M 139.142,673.959 139.142,702.713 z" id="boundary" inkscape:connector-curvature="0" />
	<path style="fill:none;stroke:red;stroke-width:1px;stroke-linecap:butt;stroke-linejoin:miter;stroke-opacity:1" d="M 139.142,760.22 139.142,731.467 z" id="boundary" inkscape:connector-curvature="0" />
	<path style="fill:none;stroke:red;stroke-width:1px;stroke-linecap:butt;stroke-linejoin:miter;stroke-opacity:1" d="M 139.142,788.974 139.142,760.22 z" id="boundary" inkscape:connector-curvature="0" />
	<path style="fill:none;stroke:red;stroke-width:1px;stroke-linecap:butt;stroke-linejoin:miter;stroke-opacity:1" d="M 139.142,817.728 139.142,846.481 z" id="boundary" inkscape:connector-curvature="0" />
	<path style="fill:none;stroke:red;stroke-width:1px;stroke-linecap:butt;stroke-linejoin:miter;stroke-opacity:1" d="M 139.142,903.988 139.142,932.742 z" id="boundary" inkscape:connector-curvature="0" />
	<path style="fill:none;stroke:red;stroke-width:1px;stroke-linecap:butt;stroke-linejoin:miter;stroke-opacity:1" d="M 139.142,961.496 139.142,932.742 z" id="boundary" inkscape:connector-curvature="0" />
	<path style="fill:none;stroke:red;stroke-width:1px;stroke-linecap:butt;stroke-linejoin:miter;stroke-opacity:1" d="M 116.139,996 144.893,990.249 z" id="boundary" inkscape:connector-curvature="0" />
	<path style="fill:none;stroke:red;stroke-width:1px;stroke-linecap:butt;stroke-linejoin:miter;stroke-opacity:1" d="M 144.893,990.249 139.142,961.496 z" id="boundary" inkscape:connector-curvature="0" />
	<path style="fill:none;stroke:red;stroke-width:1px;stroke-linecap:butt;stroke-linejoin:miter;stroke-opacity:1" d="M 116.139,996 87.3855,996 z" id="boundary" inkscape:connector-curvature="0" />
	<circle cx="4" cy="32.7536" r="4" fill="#0" id="circle0"/>
	<circle cx="6.87536" cy="61.5072" r="4" fill="#0" id="circle1"/>
	<circle cx="15.5014" cy="970.122" r="4" fill="#0" id="circle2"/>
	<circle cx="21.2522" cy="9.75072" r="4" fill="#0" id="circle3"/>
	<circle cx="21.2522" cy="475.559" r="4" fill="#0" id="circle4"/>
	<circle cx="21.2522" cy="504.313" r="4" fill="#0" id="circle5"/>
	<circle cx="21.2522" cy="533.067" r="4" fill="#0" id="circle6"/>
	<circle cx="21.2522" cy="561.82" r="4" fill="#0" id="circle7"/>
	<circle cx="21.2522" cy="590.574" r="4" fill="#0" id="circle8"/>
	<circle cx="21.2522" cy="619.328" r="4" fill="#0" id="circle9"/>
	<circle cx="21.2522" cy="648.081" r="4" fill="#0" id="circle10"/>
	<circle cx="21.2522" cy="676.835" r="4" fill="#0" id="circle11"/>
	<circle cx="21.2522" cy="705.588" r="4" fill="#0" id="circle12"/>
	<circle cx="21.2522" cy="734.342" r="4" fill="#0" id="circle13"/>
	<circle cx="21.2522" cy="763.096" r="4" fill="#0" id="circle14"/>
	<circle cx="21.2522" cy="791.849" r="4" fill="#0" id="circle15"/>
	<circle cx="21.2522" cy="820.603" r="4" fill="#0" id="circle16"/>
	<circle cx="21.2522" cy="849.357" r="4" fill="#0" id="circle17"/>
	<circle cx="21.2522" cy="878.11" r="4" fill="#0" id="circle18"/>
	<circle cx="21.2522" cy="906.864" r="4" fill="#0" id="circle19"/>
	<circle cx="21.2522" cy="935.617" r="4" fill="#0" id="circle20"/>
	<circle cx="24.1275" cy="84.5101" r="4" fill="#0" id="circle21"/>
	<circle cx="27.0029" cy="113.264" r="4" fill="#0" id="circle22"/>
	<circle cx="29.8783" cy="996" r="4" fill="#0" id="circle23"/>
	<circle cx="32.7536" cy="142.017" r="4" fill="#0" id="circle24"/>
	<circle cx="35.629" cy="170.771" r="4" fill="#0" id="circle25"/>
	<circle cx="38.5043" cy="446.806" r="4" fill="#0" id="circle26"/>
	<circle cx="41.3797" cy="199.525" r="4" fill="#0" id="circle27"/>
	<circle cx="44.2551" cy="228.278" r="4" fill="#0" id="circle28"/>
	<circle cx="44.2551" cy="418.052" r="4" fill="#0" id="circle29"/>
	<circle cx="47.1304" cy="257.032" r="4" fill="#0" id="circle30"/>
	<circle cx="50.0058" cy="4" r="4" fill="#0" id="circle31"/>
	<circle cx="50.0058" cy="285.786" r="4" fill="#0" id="circle32"/>
	<circle cx="50.0058" cy="314.539" r="4" fill="#0" id="circle33"/>
	<circle cx="50.0058" cy="343.293" r="4" fill="#0" id="circle34"/>
	<circle cx="50.0058" cy="372.046" r="4" fill="#0" id="circle35"/>
	<circle cx="58.6319" cy="996" r="4" fill="#0" id="circle36"/>
	<circle cx="78.7594" cy="4" r="4" fill="#0" id="circle37"/>
	<circle cx="87.3855" cy="996" r="4" fill="#0" id="circle38"/>
	<circle cx="107.513" cy="4" r="4" fill="#0" id="circle39"/>
	<circle cx="110.388" cy="245.53" r="4" fill="#0" id="circle40"/>
	<circle cx="110.388" cy="274.284" r="4" fill="#0" id="circle41"/>
	<circle cx="110.388" cy="303.038" r="4" fill="#0" id="circle42"/>
	<circle cx="110.388" cy="331.791" r="4" fill="#0" id="circle43"/>
	<circle cx="110.388" cy="360.545" r="4" fill="#0" id="circle44"/>
	<circle cx="110.388" cy="389.299" r="4" fill="#0" id="circle45"/>
	<circle cx="110.388" cy="418.052" r="4" fill="#0" id="circle46"/>
	<circle cx="116.139" cy="193.774" r="4" fill="#0" id="circle47"/>
	<circle cx="116.139" cy="996" r="4" fill="#0" id="circle48"/>
	<circle cx="119.014" cy="446.806" r="4" fill="#0" id="circle49"/>
	<circle cx="133.391" cy="18.3768" r="4" fill="#0" id="circle50"/>
	<circle cx="133.391" cy="472.684" r="4" fill="#0" id="circle51"/>
	<circle cx="139.142" cy="501.438" r="4" fill="#0" id="circle52"/>
	<circle cx="139.142" cy="530.191" r="4" fill="#0" id="circle53"/>
	<circle cx="139.142" cy="558.945" r="4" fill="#0" id="circle54"/>
	<circle cx="139.142" cy="587.699" r="4" fill="#0" id="circle55"/>
	<circle cx="139.142" cy="616.452" r="4" fill="#0" id="circle56"/>
	<circle cx="139.142" cy="645.206" r="4" fill="#0" id="circle57"/>
	<circle cx="139.142" cy="673.959" r="4" fill="#0" id="circle58"/>
	<circle cx="139.142" cy="702.713" r="4" fill="#0" id="circle59"/>
	<circle cx="139.142" cy="731.467" r="4" fill="#0" id="circle60"/>
	<circle cx="139.142" cy="760.22" r="4" fill="#0" id="circle61"/>
	<circle cx="139.142" cy="788.974" r="4" fill="#0" id="circle62"/>
	<circle cx="139.142" cy="817.728" r="4" fill="#0" id="circle63"/>
	<circle cx="139.142" cy="846.481" r="4" fill="#0" id="circle64"/>
	<circle cx="139.142" cy="875.235" r="4" fill="#0" id="circle65"/>
	<circle cx="139.142" cy="903.988" r="4" fill="#0" id="circle66"/>
	<circle cx="139.142" cy="932.742" r="4" fill="#0" id="circle67"/>
	<circle cx="139.142" cy="961.496" r="4" fill="#0" id="circle68"/>
	<circle cx="142.017" cy="179.397" r="4" fill="#0" id="circle69"/>
	<circle cx="144.893" cy="47.1304" r="4" fill="#0" id="circle70"/>
	<circle cx="144.893" cy="990.249" r="4" fill="#0" id="circle71"/>
	<circle cx="156.394" cy="75.8841" r="4" fill="#0" id="circle72"/>
	<circle cx="162.145" cy="104.638" r="4" fill="#0" id="circle73"/>
	<circle cx="162.145" cy="133.391" r="4" fill="#0" id="circle74"/>
	<circle cx="167.896" cy="162.145" r="4" fill="#0" id="circle75"/>
	</g>
</svg>