<?xml version="1.0" encoding="UTF-8" standalone="no"?>
<!-- Created with CurveBenchmark -->
<svg
	xmlns:dc="http://purl.org/dc/elements/1.1/"
	xmlns:cc="http://creativecommons.org/ns#"
	xmlns:rdf="http://www.w3.org/1999/02/22-rdf-syntax-ns#"
	xmlns:svg="http://www.w3.org/2000/svg"
	xmlns="http://www.w3.org/2000/svg"
	xmlns:sodipodi="http://sodipodi.sourceforge.net/DTD/sodipodi-0.dtd"
	xmlns:inkscape="http://www.inkscape.org/namespaces/inkscape"
	width="1000"
	height="1000"
	id="svg2"
	version="1.1"
	sodipodi:docname="manifold/peel-bed045.png.txt">
<defs
	id="defs4" />
<metadata
	id="metadata7">
	<rdf:RDF>
		<cc:Work
			rdf:about="">
			<dc:format>image/svg+xml</dc:format>
			<dc:type
				rdf:resource="http://purl.org/dc/dcmitype/StillImage" />
			<dc:title></dc:title>
		</cc:Work>
	</rdf:RDF>
</metadata>
<g
	inkscape:label="Layer 1"
	inkscape:groupmode="layer"
	id="layer1">
	<path style="fill:none;stroke:red;stroke-width:1px;stroke-linecap:butt;stroke-linejoin:miter;stroke-opacity:1" d="M 4,141.732 4,125.336 z" id="boundary" inkscape:connector-curvature="0" />
	<path style="fill:none;stroke:red;stroke-width:1px;stroke-linecap:butt;stroke-linejoin:miter;stroke-opacity:1" d="M 4,125.336 13.838,112.218 z" id="boundary" inkscape:connector-curvature="0" />
	<path style="fill:none;stroke:red;stroke-width:1px;stroke-linecap:butt;stroke-linejoin:miter;stroke-opacity:1" d="M 7.27934,348.331 4,371.286 z" id="boundary" inkscape:connector-curvature="0" />
	<path style="fill:none;stroke:red;stroke-width:1px;stroke-linecap:butt;stroke-linejoin:miter;stroke-opacity:1" d="M 7.27934,348.331 7.27934,331.934 z" id="boundary" inkscape:connector-curvature="0" />
	<path style="fill:none;stroke:red;stroke-width:1px;stroke-linecap:butt;stroke-linejoin:miter;stroke-opacity:1" d="M 7.27934,436.873 5.63967,420.476 z" id="boundary" inkscape:connector-curvature="0" />
	<path style="fill:none;stroke:red;stroke-width:1px;stroke-linecap:butt;stroke-linejoin:miter;stroke-opacity:1" d="M 4,404.079 4,387.683 z" id="boundary" inkscape:connector-curvature="0" />
	<path style="fill:none;stroke:red;stroke-width:1px;stroke-linecap:butt;stroke-linejoin:miter;stroke-opacity:1" d="M 5.63967,420.476 4,404.079 z" id="boundary" inkscape:connector-curvature="0" />
	<path style="fill:none;stroke:red;stroke-width:1px;stroke-linecap:butt;stroke-linejoin:miter;stroke-opacity:1" d="M 7.27934,331.934 7.27934,315.537 z" id="boundary" inkscape:connector-curvature="0" />
	<path style="fill:none;stroke:red;stroke-width:1px;stroke-linecap:butt;stroke-linejoin:miter;stroke-opacity:1" d="M 13.838,174.526 13.838,190.922 z" id="boundary" inkscape:connector-curvature="0" />
	<path style="fill:none;stroke:red;stroke-width:1px;stroke-linecap:butt;stroke-linejoin:miter;stroke-opacity:1" d="M 13.838,174.526 10.5587,158.129 z" id="boundary" inkscape:connector-curvature="0" />
	<path style="fill:none;stroke:red;stroke-width:1px;stroke-linecap:butt;stroke-linejoin:miter;stroke-opacity:1" d="M 4,387.683 4,371.286 z" id="boundary" inkscape:connector-curvature="0" />
	<path style="fill:none;stroke:red;stroke-width:1px;stroke-linecap:butt;stroke-linejoin:miter;stroke-opacity:1" d="M 10.5587,289.302 7.27934,315.537 z" id="boundary" inkscape:connector-curvature="0" />
	<path style="fill:none;stroke:red;stroke-width:1px;stroke-linecap:butt;stroke-linejoin:miter;stroke-opacity:1" d="M 13.838,272.906 10.5587,289.302 z" id="boundary" inkscape:connector-curvature="0" />
	<path style="fill:none;stroke:red;stroke-width:1px;stroke-linecap:butt;stroke-linejoin:miter;stroke-opacity:1" d="M 13.838,112.218 26.9554,102.38 z" id="boundary" inkscape:connector-curvature="0" />
	<path style="fill:none;stroke:red;stroke-width:1px;stroke-linecap:butt;stroke-linejoin:miter;stroke-opacity:1" d="M 10.5587,158.129 4,141.732 z" id="boundary" inkscape:connector-curvature="0" />
	<path style="fill:none;stroke:red;stroke-width:1px;stroke-linecap:butt;stroke-linejoin:miter;stroke-opacity:1" d="M 10.5587,453.269 10.5587,469.666 z" id="boundary" inkscape:connector-curvature="0" />
	<path style="fill:none;stroke:red;stroke-width:1px;stroke-linecap:butt;stroke-linejoin:miter;stroke-opacity:1" d="M 10.5587,453.269 7.27934,436.873 z" id="boundary" inkscape:connector-curvature="0" />
	<path style="fill:none;stroke:red;stroke-width:1px;stroke-linecap:butt;stroke-linejoin:miter;stroke-opacity:1" d="M 13.838,190.922 13.838,207.319 z" id="boundary" inkscape:connector-curvature="0" />
	<path style="fill:none;stroke:red;stroke-width:1px;stroke-linecap:butt;stroke-linejoin:miter;stroke-opacity:1" d="M 10.5587,469.666 10.5587,486.063 z" id="boundary" inkscape:connector-curvature="0" />
	<path style="fill:none;stroke:red;stroke-width:1px;stroke-linecap:butt;stroke-linejoin:miter;stroke-opacity:1" d="M 13.838,240.112 13.838,256.509 z" id="boundary" inkscape:connector-curvature="0" />
	<path style="fill:none;stroke:red;stroke-width:1px;stroke-linecap:butt;stroke-linejoin:miter;stroke-opacity:1" d="M 40.0727,92.5421 26.9554,102.38 z" id="boundary" inkscape:connector-curvature="0" />
	<path style="fill:none;stroke:red;stroke-width:1px;stroke-linecap:butt;stroke-linejoin:miter;stroke-opacity:1" d="M 13.838,256.509 13.838,272.906 z" id="boundary" inkscape:connector-curvature="0" />
	<path style="fill:none;stroke:red;stroke-width:1px;stroke-linecap:butt;stroke-linejoin:miter;stroke-opacity:1" d="M 40.0727,92.5421 56.4694,85.9835 z" id="boundary" inkscape:connector-curvature="0" />
	<path style="fill:none;stroke:red;stroke-width:1px;stroke-linecap:butt;stroke-linejoin:miter;stroke-opacity:1" d="M 13.838,240.112 15.4777,223.716 z" id="boundary" inkscape:connector-curvature="0" />
	<path style="fill:none;stroke:red;stroke-width:1px;stroke-linecap:butt;stroke-linejoin:miter;stroke-opacity:1" d="M 15.4777,223.716 13.838,207.319 z" id="boundary" inkscape:connector-curvature="0" />
	<path style="fill:none;stroke:red;stroke-width:1px;stroke-linecap:butt;stroke-linejoin:miter;stroke-opacity:1" d="M 35.1537,459.828 35.1537,443.431 z" id="boundary" inkscape:connector-curvature="0" />
	<path style="fill:none;stroke:red;stroke-width:1px;stroke-linecap:butt;stroke-linejoin:miter;stroke-opacity:1" d="M 56.4694,85.9835 72.8661,79.4248 z" id="boundary" inkscape:connector-curvature="0" />
	<path style="fill:none;stroke:red;stroke-width:1px;stroke-linecap:butt;stroke-linejoin:miter;stroke-opacity:1" d="M 105.66,69.5868 89.2628,72.8661 z" id="boundary" inkscape:connector-curvature="0" />
	<path style="fill:none;stroke:red;stroke-width:1px;stroke-linecap:butt;stroke-linejoin:miter;stroke-opacity:1" d="M 89.2628,72.8661 72.8661,79.4248 z" id="boundary" inkscape:connector-curvature="0" />
	<path style="fill:none;stroke:red;stroke-width:1px;stroke-linecap:butt;stroke-linejoin:miter;stroke-opacity:1" d="M 10.5587,486.063 13.838,502.46 z" id="boundary" inkscape:connector-curvature="0" />
	<path style="fill:none;stroke:red;stroke-width:1px;stroke-linecap:butt;stroke-linejoin:miter;stroke-opacity:1" d="M 13.838,502.46 28.595,510.658 z" id="boundary" inkscape:connector-curvature="0" />
	<path style="fill:none;stroke:red;stroke-width:1px;stroke-linecap:butt;stroke-linejoin:miter;stroke-opacity:1" d="M 51.5504,441.792 67.9471,445.071 z" id="boundary" inkscape:connector-curvature="0" />
	<path style="fill:none;stroke:red;stroke-width:1px;stroke-linecap:butt;stroke-linejoin:miter;stroke-opacity:1" d="M 67.9471,445.071 84.3438,445.071 z" id="boundary" inkscape:connector-curvature="0" />
	<path style="fill:none;stroke:red;stroke-width:1px;stroke-linecap:butt;stroke-linejoin:miter;stroke-opacity:1" d="M 35.1537,443.431 51.5504,441.792 z" id="boundary" inkscape:connector-curvature="0" />
	<path style="fill:none;stroke:red;stroke-width:1px;stroke-linecap:butt;stroke-linejoin:miter;stroke-opacity:1" d="M 122.056,66.3074 105.66,69.5868 z" id="boundary" inkscape:connector-curvature="0" />
	<path style="fill:none;stroke:red;stroke-width:1px;stroke-linecap:butt;stroke-linejoin:miter;stroke-opacity:1" d="M 182.724,445.071 199.121,445.071 z" id="boundary" inkscape:connector-curvature="0" />
	<path style="fill:none;stroke:red;stroke-width:1px;stroke-linecap:butt;stroke-linejoin:miter;stroke-opacity:1" d="M 84.3438,445.071 100.74,445.071 z" id="boundary" inkscape:connector-curvature="0" />
	<path style="fill:none;stroke:red;stroke-width:1px;stroke-linecap:butt;stroke-linejoin:miter;stroke-opacity:1" d="M 100.74,445.071 117.137,445.071 z" id="boundary" inkscape:connector-curvature="0" />
	<path style="fill:none;stroke:red;stroke-width:1px;stroke-linecap:butt;stroke-linejoin:miter;stroke-opacity:1" d="M 117.137,445.071 133.534,445.071 z" id="boundary" inkscape:connector-curvature="0" />
	<path style="fill:none;stroke:red;stroke-width:1px;stroke-linecap:butt;stroke-linejoin:miter;stroke-opacity:1" d="M 138.453,59.7488 122.056,66.3074 z" id="boundary" inkscape:connector-curvature="0" />
	<path style="fill:none;stroke:red;stroke-width:1px;stroke-linecap:butt;stroke-linejoin:miter;stroke-opacity:1" d="M 166.327,445.071 182.724,445.071 z" id="boundary" inkscape:connector-curvature="0" />
	<path style="fill:none;stroke:red;stroke-width:1px;stroke-linecap:butt;stroke-linejoin:miter;stroke-opacity:1" d="M 133.534,445.071 149.931,445.071 z" id="boundary" inkscape:connector-curvature="0" />
	<path style="fill:none;stroke:red;stroke-width:1px;stroke-linecap:butt;stroke-linejoin:miter;stroke-opacity:1" d="M 149.931,445.071 166.327,445.071 z" id="boundary" inkscape:connector-curvature="0" />
	<path style="fill:none;stroke:red;stroke-width:1px;stroke-linecap:butt;stroke-linejoin:miter;stroke-opacity:1" d="M 245.031,25.3157 258.149,36.7934 z" id="boundary" inkscape:connector-curvature="0" />
	<path style="fill:none;stroke:red;stroke-width:1px;stroke-linecap:butt;stroke-linejoin:miter;stroke-opacity:1" d="M 274.545,43.3521 284.383,56.4694 z" id="boundary" inkscape:connector-curvature="0" />
	<path style="fill:none;stroke:red;stroke-width:1px;stroke-linecap:butt;stroke-linejoin:miter;stroke-opacity:1" d="M 274.545,43.3521 258.149,36.7934 z" id="boundary" inkscape:connector-curvature="0" />
	<path style="fill:none;stroke:red;stroke-width:1px;stroke-linecap:butt;stroke-linejoin:miter;stroke-opacity:1" d="M 138.453,59.7488 153.21,51.5504 z" id="boundary" inkscape:connector-curvature="0" />
	<path style="fill:none;stroke:red;stroke-width:1px;stroke-linecap:butt;stroke-linejoin:miter;stroke-opacity:1" d="M 153.21,51.5504 166.327,41.7124 z" id="boundary" inkscape:connector-curvature="0" />
	<path style="fill:none;stroke:red;stroke-width:1px;stroke-linecap:butt;stroke-linejoin:miter;stroke-opacity:1" d="M 181.084,33.514 166.327,41.7124 z" id="boundary" inkscape:connector-curvature="0" />
	<path style="fill:none;stroke:red;stroke-width:1px;stroke-linecap:butt;stroke-linejoin:miter;stroke-opacity:1" d="M 199.121,445.071 215.517,445.071 z" id="boundary" inkscape:connector-curvature="0" />
	<path style="fill:none;stroke:red;stroke-width:1px;stroke-linecap:butt;stroke-linejoin:miter;stroke-opacity:1" d="M 235.193,12.1983 220.436,4 z" id="boundary" inkscape:connector-curvature="0" />
	<path style="fill:none;stroke:red;stroke-width:1px;stroke-linecap:butt;stroke-linejoin:miter;stroke-opacity:1" d="M 181.084,33.514 194.202,17.1174 z" id="boundary" inkscape:connector-curvature="0" />
	<path style="fill:none;stroke:red;stroke-width:1px;stroke-linecap:butt;stroke-linejoin:miter;stroke-opacity:1" d="M 215.517,445.071 231.914,445.071 z" id="boundary" inkscape:connector-curvature="0" />
	<path style="fill:none;stroke:red;stroke-width:1px;stroke-linecap:butt;stroke-linejoin:miter;stroke-opacity:1" d="M 194.202,17.1174 204.04,4 z" id="boundary" inkscape:connector-curvature="0" />
	<path style="fill:none;stroke:red;stroke-width:1px;stroke-linecap:butt;stroke-linejoin:miter;stroke-opacity:1" d="M 204.04,4 220.436,4 z" id="boundary" inkscape:connector-curvature="0" />
	<path style="fill:none;stroke:red;stroke-width:1px;stroke-linecap:butt;stroke-linejoin:miter;stroke-opacity:1" d="M 264.707,445.071 248.311,445.071 z" id="boundary" inkscape:connector-curvature="0" />
	<path style="fill:none;stroke:red;stroke-width:1px;stroke-linecap:butt;stroke-linejoin:miter;stroke-opacity:1" d="M 245.031,25.3157 235.193,12.1983 z" id="boundary" inkscape:connector-curvature="0" />
	<path style="fill:none;stroke:red;stroke-width:1px;stroke-linecap:butt;stroke-linejoin:miter;stroke-opacity:1" d="M 284.383,56.4694 299.14,64.6678 z" id="boundary" inkscape:connector-curvature="0" />
	<path style="fill:none;stroke:red;stroke-width:1px;stroke-linecap:butt;stroke-linejoin:miter;stroke-opacity:1" d="M 281.104,445.071 264.707,445.071 z" id="boundary" inkscape:connector-curvature="0" />
	<path style="fill:none;stroke:red;stroke-width:1px;stroke-linecap:butt;stroke-linejoin:miter;stroke-opacity:1" d="M 727.094,474.585 743.491,477.864 z" id="boundary" inkscape:connector-curvature="0" />
	<path style="fill:none;stroke:red;stroke-width:1px;stroke-linecap:butt;stroke-linejoin:miter;stroke-opacity:1" d="M 297.501,445.071 281.104,445.071 z" id="boundary" inkscape:connector-curvature="0" />
	<path style="fill:none;stroke:red;stroke-width:1px;stroke-linecap:butt;stroke-linejoin:miter;stroke-opacity:1" d="M 330.294,445.071 313.898,445.071 z" id="boundary" inkscape:connector-curvature="0" />
	<path style="fill:none;stroke:red;stroke-width:1px;stroke-linecap:butt;stroke-linejoin:miter;stroke-opacity:1" d="M 299.14,64.6678 315.537,69.5868 z" id="boundary" inkscape:connector-curvature="0" />
	<path style="fill:none;stroke:red;stroke-width:1px;stroke-linecap:butt;stroke-linejoin:miter;stroke-opacity:1" d="M 390.962,489.342 395.881,505.739 z" id="boundary" inkscape:connector-curvature="0" />
	<path style="fill:none;stroke:red;stroke-width:1px;stroke-linecap:butt;stroke-linejoin:miter;stroke-opacity:1" d="M 402.44,174.526 402.44,190.922 z" id="boundary" inkscape:connector-curvature="0" />
	<path style="fill:none;stroke:red;stroke-width:1px;stroke-linecap:butt;stroke-linejoin:miter;stroke-opacity:1" d="M 346.691,445.071 330.294,445.071 z" id="boundary" inkscape:connector-curvature="0" />
	<path style="fill:none;stroke:red;stroke-width:1px;stroke-linecap:butt;stroke-linejoin:miter;stroke-opacity:1" d="M 231.914,445.071 248.311,445.071 z" id="boundary" inkscape:connector-curvature="0" />
	<path style="fill:none;stroke:red;stroke-width:1px;stroke-linecap:butt;stroke-linejoin:miter;stroke-opacity:1" d="M 348.331,79.4248 331.934,72.8661 z" id="boundary" inkscape:connector-curvature="0" />
	<path style="fill:none;stroke:red;stroke-width:1px;stroke-linecap:butt;stroke-linejoin:miter;stroke-opacity:1" d="M 331.934,72.8661 315.537,69.5868 z" id="boundary" inkscape:connector-curvature="0" />
	<path style="fill:none;stroke:red;stroke-width:1px;stroke-linecap:butt;stroke-linejoin:miter;stroke-opacity:1" d="M 363.088,445.071 346.691,445.071 z" id="boundary" inkscape:connector-curvature="0" />
	<path style="fill:none;stroke:red;stroke-width:1px;stroke-linecap:butt;stroke-linejoin:miter;stroke-opacity:1" d="M 364.727,85.9835 348.331,79.4248 z" id="boundary" inkscape:connector-curvature="0" />
	<path style="fill:none;stroke:red;stroke-width:1px;stroke-linecap:butt;stroke-linejoin:miter;stroke-opacity:1" d="M 364.727,85.9835 381.124,92.5421 z" id="boundary" inkscape:connector-curvature="0" />
	<path style="fill:none;stroke:red;stroke-width:1px;stroke-linecap:butt;stroke-linejoin:miter;stroke-opacity:1" d="M 381.124,92.5421 394.241,102.38 z" id="boundary" inkscape:connector-curvature="0" />
	<path style="fill:none;stroke:red;stroke-width:1px;stroke-linecap:butt;stroke-linejoin:miter;stroke-opacity:1" d="M 363.088,445.071 379.484,445.071 z" id="boundary" inkscape:connector-curvature="0" />
	<path style="fill:none;stroke:red;stroke-width:1px;stroke-linecap:butt;stroke-linejoin:miter;stroke-opacity:1" d="M 379.484,445.071 389.322,458.188 z" id="boundary" inkscape:connector-curvature="0" />
	<path style="fill:none;stroke:red;stroke-width:1px;stroke-linecap:butt;stroke-linejoin:miter;stroke-opacity:1" d="M 313.898,445.071 297.501,445.071 z" id="boundary" inkscape:connector-curvature="0" />
	<path style="fill:none;stroke:red;stroke-width:1px;stroke-linecap:butt;stroke-linejoin:miter;stroke-opacity:1" d="M 402.44,190.922 415.557,200.76 z" id="boundary" inkscape:connector-curvature="0" />
	<path style="fill:none;stroke:red;stroke-width:1px;stroke-linecap:butt;stroke-linejoin:miter;stroke-opacity:1" d="M 395.881,505.739 412.278,509.018 z" id="boundary" inkscape:connector-curvature="0" />
	<path style="fill:none;stroke:red;stroke-width:1px;stroke-linecap:butt;stroke-linejoin:miter;stroke-opacity:1" d="M 697.58,458.188 712.337,466.387 z" id="boundary" inkscape:connector-curvature="0" />
	<path style="fill:none;stroke:red;stroke-width:1px;stroke-linecap:butt;stroke-linejoin:miter;stroke-opacity:1" d="M 390.962,489.342 410.638,487.702 z" id="boundary" inkscape:connector-curvature="0" />
	<path style="fill:none;stroke:red;stroke-width:1px;stroke-linecap:butt;stroke-linejoin:miter;stroke-opacity:1" d="M 415.557,126.975 407.359,112.218 z" id="boundary" inkscape:connector-curvature="0" />
	<path style="fill:none;stroke:red;stroke-width:1px;stroke-linecap:butt;stroke-linejoin:miter;stroke-opacity:1" d="M 402.44,174.526 405.719,158.129 z" id="boundary" inkscape:connector-curvature="0" />
	<path style="fill:none;stroke:red;stroke-width:1px;stroke-linecap:butt;stroke-linejoin:miter;stroke-opacity:1" d="M 415.557,145.012 405.719,158.129 z" id="boundary" inkscape:connector-curvature="0" />
	<path style="fill:none;stroke:red;stroke-width:1px;stroke-linecap:butt;stroke-linejoin:miter;stroke-opacity:1" d="M 415.557,145.012 415.557,126.975 z" id="boundary" inkscape:connector-curvature="0" />
	<path style="fill:none;stroke:red;stroke-width:1px;stroke-linecap:butt;stroke-linejoin:miter;stroke-opacity:1" d="M 394.241,102.38 407.359,112.218 z" id="boundary" inkscape:connector-curvature="0" />
	<path style="fill:none;stroke:red;stroke-width:1px;stroke-linecap:butt;stroke-linejoin:miter;stroke-opacity:1" d="M 446.711,445.071 430.314,445.071 z" id="boundary" inkscape:connector-curvature="0" />
	<path style="fill:none;stroke:red;stroke-width:1px;stroke-linecap:butt;stroke-linejoin:miter;stroke-opacity:1" d="M 410.638,487.702 412.278,509.018 z" id="boundary" inkscape:connector-curvature="0" />
	<path style="fill:none;stroke:red;stroke-width:1px;stroke-linecap:butt;stroke-linejoin:miter;stroke-opacity:1" d="M 415.557,461.468 389.322,458.188 z" id="boundary" inkscape:connector-curvature="0" />
	<path style="fill:none;stroke:red;stroke-width:1px;stroke-linecap:butt;stroke-linejoin:miter;stroke-opacity:1" d="M 415.557,461.468 413.917,445.071 z" id="boundary" inkscape:connector-curvature="0" />
	<path style="fill:none;stroke:red;stroke-width:1px;stroke-linecap:butt;stroke-linejoin:miter;stroke-opacity:1" d="M 446.711,445.071 463.107,445.071 z" id="boundary" inkscape:connector-curvature="0" />
	<path style="fill:none;stroke:red;stroke-width:1px;stroke-linecap:butt;stroke-linejoin:miter;stroke-opacity:1" d="M 618.876,458.188 635.273,464.747 z" id="boundary" inkscape:connector-curvature="0" />
	<path style="fill:none;stroke:red;stroke-width:1px;stroke-linecap:butt;stroke-linejoin:miter;stroke-opacity:1" d="M 415.557,200.76 431.954,200.76 z" id="boundary" inkscape:connector-curvature="0" />
	<path style="fill:none;stroke:red;stroke-width:1px;stroke-linecap:butt;stroke-linejoin:miter;stroke-opacity:1" d="M 413.917,445.071 430.314,445.071 z" id="boundary" inkscape:connector-curvature="0" />
	<path style="fill:none;stroke:red;stroke-width:1px;stroke-linecap:butt;stroke-linejoin:miter;stroke-opacity:1" d="M 463.107,212.238 448.35,204.04 z" id="boundary" inkscape:connector-curvature="0" />
	<path style="fill:none;stroke:red;stroke-width:1px;stroke-linecap:butt;stroke-linejoin:miter;stroke-opacity:1" d="M 448.35,204.04 431.954,200.76 z" id="boundary" inkscape:connector-curvature="0" />
	<path style="fill:none;stroke:red;stroke-width:1px;stroke-linecap:butt;stroke-linejoin:miter;stroke-opacity:1" d="M 463.107,445.071 479.504,445.071 z" id="boundary" inkscape:connector-curvature="0" />
	<path style="fill:none;stroke:red;stroke-width:1px;stroke-linecap:butt;stroke-linejoin:miter;stroke-opacity:1" d="M 477.864,220.436 490.982,230.274 z" id="boundary" inkscape:connector-curvature="0" />
	<path style="fill:none;stroke:red;stroke-width:1px;stroke-linecap:butt;stroke-linejoin:miter;stroke-opacity:1" d="M 477.864,220.436 463.107,212.238 z" id="boundary" inkscape:connector-curvature="0" />
	<path style="fill:none;stroke:red;stroke-width:1px;stroke-linecap:butt;stroke-linejoin:miter;stroke-opacity:1" d="M 541.812,490.982 538.532,474.585 z" id="boundary" inkscape:connector-curvature="0" />
	<path style="fill:none;stroke:red;stroke-width:1px;stroke-linecap:butt;stroke-linejoin:miter;stroke-opacity:1" d="M 517.217,251.59 505.739,238.473 z" id="boundary" inkscape:connector-curvature="0" />
	<path style="fill:none;stroke:red;stroke-width:1px;stroke-linecap:butt;stroke-linejoin:miter;stroke-opacity:1" d="M 505.739,238.473 490.982,230.274 z" id="boundary" inkscape:connector-curvature="0" />
	<path style="fill:none;stroke:red;stroke-width:1px;stroke-linecap:butt;stroke-linejoin:miter;stroke-opacity:1" d="M 538.532,474.585 538.532,458.188 z" id="boundary" inkscape:connector-curvature="0" />
	<path style="fill:none;stroke:red;stroke-width:1px;stroke-linecap:butt;stroke-linejoin:miter;stroke-opacity:1" d="M 512.298,445.071 528.694,445.071 z" id="boundary" inkscape:connector-curvature="0" />
	<path style="fill:none;stroke:red;stroke-width:1px;stroke-linecap:butt;stroke-linejoin:miter;stroke-opacity:1" d="M 528.694,445.071 538.532,458.188 z" id="boundary" inkscape:connector-curvature="0" />
	<path style="fill:none;stroke:red;stroke-width:1px;stroke-linecap:butt;stroke-linejoin:miter;stroke-opacity:1" d="M 543.451,272.906 551.65,287.663 z" id="boundary" inkscape:connector-curvature="0" />
	<path style="fill:none;stroke:red;stroke-width:1px;stroke-linecap:butt;stroke-linejoin:miter;stroke-opacity:1" d="M 543.451,272.906 531.974,259.788 z" id="boundary" inkscape:connector-curvature="0" />
	<path style="fill:none;stroke:red;stroke-width:1px;stroke-linecap:butt;stroke-linejoin:miter;stroke-opacity:1" d="M 531.974,259.788 517.217,251.59 z" id="boundary" inkscape:connector-curvature="0" />
	<path style="fill:none;stroke:red;stroke-width:1px;stroke-linecap:butt;stroke-linejoin:miter;stroke-opacity:1" d="M 495.901,445.071 512.298,445.071 z" id="boundary" inkscape:connector-curvature="0" />
	<path style="fill:none;stroke:red;stroke-width:1px;stroke-linecap:butt;stroke-linejoin:miter;stroke-opacity:1" d="M 541.812,507.379 558.208,510.658 z" id="boundary" inkscape:connector-curvature="0" />
	<path style="fill:none;stroke:red;stroke-width:1px;stroke-linecap:butt;stroke-linejoin:miter;stroke-opacity:1" d="M 495.901,445.071 479.504,445.071 z" id="boundary" inkscape:connector-curvature="0" />
	<path style="fill:none;stroke:red;stroke-width:1px;stroke-linecap:butt;stroke-linejoin:miter;stroke-opacity:1" d="M 541.812,490.982 541.812,507.379 z" id="boundary" inkscape:connector-curvature="0" />
	<path style="fill:none;stroke:red;stroke-width:1px;stroke-linecap:butt;stroke-linejoin:miter;stroke-opacity:1" d="M 568.046,282.744 551.65,287.663 z" id="boundary" inkscape:connector-curvature="0" />
	<path style="fill:none;stroke:red;stroke-width:1px;stroke-linecap:butt;stroke-linejoin:miter;stroke-opacity:1" d="M 563.127,489.342 566.407,472.945 z" id="boundary" inkscape:connector-curvature="0" />
	<path style="fill:none;stroke:red;stroke-width:1px;stroke-linecap:butt;stroke-linejoin:miter;stroke-opacity:1" d="M 586.083,451.63 602.479,454.909 z" id="boundary" inkscape:connector-curvature="0" />
	<path style="fill:none;stroke:red;stroke-width:1px;stroke-linecap:butt;stroke-linejoin:miter;stroke-opacity:1" d="M 569.686,453.269 586.083,451.63 z" id="boundary" inkscape:connector-curvature="0" />
	<path style="fill:none;stroke:red;stroke-width:1px;stroke-linecap:butt;stroke-linejoin:miter;stroke-opacity:1" d="M 569.686,453.269 566.407,472.945 z" id="boundary" inkscape:connector-curvature="0" />
	<path style="fill:none;stroke:red;stroke-width:1px;stroke-linecap:butt;stroke-linejoin:miter;stroke-opacity:1" d="M 602.479,454.909 618.876,458.188 z" id="boundary" inkscape:connector-curvature="0" />
	<path style="fill:none;stroke:red;stroke-width:1px;stroke-linecap:butt;stroke-linejoin:miter;stroke-opacity:1" d="M 568.046,282.744 584.443,279.464 z" id="boundary" inkscape:connector-curvature="0" />
	<path style="fill:none;stroke:red;stroke-width:1px;stroke-linecap:butt;stroke-linejoin:miter;stroke-opacity:1" d="M 617.236,269.626 600.84,272.906 z" id="boundary" inkscape:connector-curvature="0" />
	<path style="fill:none;stroke:red;stroke-width:1px;stroke-linecap:butt;stroke-linejoin:miter;stroke-opacity:1" d="M 584.443,279.464 600.84,272.906 z" id="boundary" inkscape:connector-curvature="0" />
	<path style="fill:none;stroke:red;stroke-width:1px;stroke-linecap:butt;stroke-linejoin:miter;stroke-opacity:1" d="M 635.273,464.747 648.39,453.269 z" id="boundary" inkscape:connector-curvature="0" />
	<path style="fill:none;stroke:red;stroke-width:1px;stroke-linecap:butt;stroke-linejoin:miter;stroke-opacity:1" d="M 617.236,269.626 633.633,266.347 z" id="boundary" inkscape:connector-curvature="0" />
	<path style="fill:none;stroke:red;stroke-width:1px;stroke-linecap:butt;stroke-linejoin:miter;stroke-opacity:1" d="M 633.633,266.347 650.03,266.347 z" id="boundary" inkscape:connector-curvature="0" />
	<path style="fill:none;stroke:red;stroke-width:1px;stroke-linecap:butt;stroke-linejoin:miter;stroke-opacity:1" d="M 648.39,453.269 664.787,448.35 z" id="boundary" inkscape:connector-curvature="0" />
	<path style="fill:none;stroke:red;stroke-width:1px;stroke-linecap:butt;stroke-linejoin:miter;stroke-opacity:1" d="M 664.787,448.35 681.183,451.63 z" id="boundary" inkscape:connector-curvature="0" />
	<path style="fill:none;stroke:red;stroke-width:1px;stroke-linecap:butt;stroke-linejoin:miter;stroke-opacity:1" d="M 681.183,451.63 697.58,458.188 z" id="boundary" inkscape:connector-curvature="0" />
	<path style="fill:none;stroke:red;stroke-width:1px;stroke-linecap:butt;stroke-linejoin:miter;stroke-opacity:1" d="M 650.03,266.347 666.426,263.068 z" id="boundary" inkscape:connector-curvature="0" />
	<path style="fill:none;stroke:red;stroke-width:1px;stroke-linecap:butt;stroke-linejoin:miter;stroke-opacity:1" d="M 666.426,263.068 682.823,263.068 z" id="boundary" inkscape:connector-curvature="0" />
	<path style="fill:none;stroke:red;stroke-width:1px;stroke-linecap:butt;stroke-linejoin:miter;stroke-opacity:1" d="M 699.22,253.23 712.337,243.392 z" id="boundary" inkscape:connector-curvature="0" />
	<path style="fill:none;stroke:red;stroke-width:1px;stroke-linecap:butt;stroke-linejoin:miter;stroke-opacity:1" d="M 712.337,243.392 728.734,236.833 z" id="boundary" inkscape:connector-curvature="0" />
	<path style="fill:none;stroke:red;stroke-width:1px;stroke-linecap:butt;stroke-linejoin:miter;stroke-opacity:1" d="M 712.337,466.387 727.094,474.585 z" id="boundary" inkscape:connector-curvature="0" />
	<path style="fill:none;stroke:red;stroke-width:1px;stroke-linecap:butt;stroke-linejoin:miter;stroke-opacity:1" d="M 682.823,263.068 699.22,253.23 z" id="boundary" inkscape:connector-curvature="0" />
	<path style="fill:none;stroke:red;stroke-width:1px;stroke-linecap:butt;stroke-linejoin:miter;stroke-opacity:1" d="M 743.491,477.864 759.888,481.144 z" id="boundary" inkscape:connector-curvature="0" />
	<path style="fill:none;stroke:red;stroke-width:1px;stroke-linecap:butt;stroke-linejoin:miter;stroke-opacity:1" d="M 787.762,231.914 802.519,240.112 z" id="boundary" inkscape:connector-curvature="0" />
	<path style="fill:none;stroke:red;stroke-width:1px;stroke-linecap:butt;stroke-linejoin:miter;stroke-opacity:1" d="M 918.936,458.188 935.332,451.63 z" id="boundary" inkscape:connector-curvature="0" />
	<path style="fill:none;stroke:red;stroke-width:1px;stroke-linecap:butt;stroke-linejoin:miter;stroke-opacity:1" d="M 787.762,231.914 774.645,222.076 z" id="boundary" inkscape:connector-curvature="0" />
	<path style="fill:none;stroke:red;stroke-width:1px;stroke-linecap:butt;stroke-linejoin:miter;stroke-opacity:1" d="M 728.734,236.833 743.491,228.635 z" id="boundary" inkscape:connector-curvature="0" />
	<path style="fill:none;stroke:red;stroke-width:1px;stroke-linecap:butt;stroke-linejoin:miter;stroke-opacity:1" d="M 759.888,481.144 776.284,481.144 z" id="boundary" inkscape:connector-curvature="0" />
	<path style="fill:none;stroke:red;stroke-width:1px;stroke-linecap:butt;stroke-linejoin:miter;stroke-opacity:1" d="M 743.491,228.635 758.248,220.436 z" id="boundary" inkscape:connector-curvature="0" />
	<path style="fill:none;stroke:red;stroke-width:1px;stroke-linecap:butt;stroke-linejoin:miter;stroke-opacity:1" d="M 758.248,220.436 774.645,222.076 z" id="boundary" inkscape:connector-curvature="0" />
	<path style="fill:none;stroke:red;stroke-width:1px;stroke-linecap:butt;stroke-linejoin:miter;stroke-opacity:1" d="M 809.078,471.306 792.681,477.864 z" id="boundary" inkscape:connector-curvature="0" />
	<path style="fill:none;stroke:red;stroke-width:1px;stroke-linecap:butt;stroke-linejoin:miter;stroke-opacity:1" d="M 964.846,505.739 961.567,489.342 z" id="boundary" inkscape:connector-curvature="0" />
	<path style="fill:none;stroke:red;stroke-width:1px;stroke-linecap:butt;stroke-linejoin:miter;stroke-opacity:1" d="M 776.284,481.144 792.681,477.864 z" id="boundary" inkscape:connector-curvature="0" />
	<path style="fill:none;stroke:red;stroke-width:1px;stroke-linecap:butt;stroke-linejoin:miter;stroke-opacity:1" d="M 902.539,464.747 887.782,456.549 z" id="boundary" inkscape:connector-curvature="0" />
	<path style="fill:none;stroke:red;stroke-width:1px;stroke-linecap:butt;stroke-linejoin:miter;stroke-opacity:1" d="M 830.393,259.788 818.916,246.671 z" id="boundary" inkscape:connector-curvature="0" />
	<path style="fill:none;stroke:red;stroke-width:1px;stroke-linecap:butt;stroke-linejoin:miter;stroke-opacity:1" d="M 818.916,246.671 802.519,240.112 z" id="boundary" inkscape:connector-curvature="0" />
	<path style="fill:none;stroke:red;stroke-width:1px;stroke-linecap:butt;stroke-linejoin:miter;stroke-opacity:1" d="M 856.628,448.35 840.231,454.909 z" id="boundary" inkscape:connector-curvature="0" />
	<path style="fill:none;stroke:red;stroke-width:1px;stroke-linecap:butt;stroke-linejoin:miter;stroke-opacity:1" d="M 809.078,471.306 825.474,463.107 z" id="boundary" inkscape:connector-curvature="0" />
	<path style="fill:none;stroke:red;stroke-width:1px;stroke-linecap:butt;stroke-linejoin:miter;stroke-opacity:1" d="M 887.782,456.549 873.025,448.35 z" id="boundary" inkscape:connector-curvature="0" />
	<path style="fill:none;stroke:red;stroke-width:1px;stroke-linecap:butt;stroke-linejoin:miter;stroke-opacity:1" d="M 873.025,448.35 856.628,448.35 z" id="boundary" inkscape:connector-curvature="0" />
	<path style="fill:none;stroke:red;stroke-width:1px;stroke-linecap:butt;stroke-linejoin:miter;stroke-opacity:1" d="M 840.231,454.909 825.474,463.107 z" id="boundary" inkscape:connector-curvature="0" />
	<path style="fill:none;stroke:red;stroke-width:1px;stroke-linecap:butt;stroke-linejoin:miter;stroke-opacity:1" d="M 830.393,259.788 846.79,263.068 z" id="boundary" inkscape:connector-curvature="0" />
	<path style="fill:none;stroke:red;stroke-width:1px;stroke-linecap:butt;stroke-linejoin:miter;stroke-opacity:1" d="M 846.79,263.068 863.187,263.068 z" id="boundary" inkscape:connector-curvature="0" />
	<path style="fill:none;stroke:red;stroke-width:1px;stroke-linecap:butt;stroke-linejoin:miter;stroke-opacity:1" d="M 863.187,263.068 879.583,266.347 z" id="boundary" inkscape:connector-curvature="0" />
	<path style="fill:none;stroke:red;stroke-width:1px;stroke-linecap:butt;stroke-linejoin:miter;stroke-opacity:1" d="M 879.583,266.347 895.98,269.626 z" id="boundary" inkscape:connector-curvature="0" />
	<path style="fill:none;stroke:red;stroke-width:1px;stroke-linecap:butt;stroke-linejoin:miter;stroke-opacity:1" d="M 928.774,276.185 912.377,271.266 z" id="boundary" inkscape:connector-curvature="0" />
	<path style="fill:none;stroke:red;stroke-width:1px;stroke-linecap:butt;stroke-linejoin:miter;stroke-opacity:1" d="M 912.377,271.266 895.98,269.626 z" id="boundary" inkscape:connector-curvature="0" />
	<path style="fill:none;stroke:red;stroke-width:1px;stroke-linecap:butt;stroke-linejoin:miter;stroke-opacity:1" d="M 902.539,464.747 918.936,458.188 z" id="boundary" inkscape:connector-curvature="0" />
	<path style="fill:none;stroke:red;stroke-width:1px;stroke-linecap:butt;stroke-linejoin:miter;stroke-opacity:1" d="M 935.332,451.63 951.729,451.63 z" id="boundary" inkscape:connector-curvature="0" />
	<path style="fill:none;stroke:red;stroke-width:1px;stroke-linecap:butt;stroke-linejoin:miter;stroke-opacity:1" d="M 928.774,276.185 945.17,281.104 z" id="boundary" inkscape:connector-curvature="0" />
	<path style="fill:none;stroke:red;stroke-width:1px;stroke-linecap:butt;stroke-linejoin:miter;stroke-opacity:1" d="M 945.17,281.104 961.567,286.023 z" id="boundary" inkscape:connector-curvature="0" />
	<path style="fill:none;stroke:red;stroke-width:1px;stroke-linecap:butt;stroke-linejoin:miter;stroke-opacity:1" d="M 961.567,286.023 974.684,295.861 z" id="boundary" inkscape:connector-curvature="0" />
	<path style="fill:none;stroke:red;stroke-width:1px;stroke-linecap:butt;stroke-linejoin:miter;stroke-opacity:1" d="M 964.846,505.739 981.243,510.658 z" id="boundary" inkscape:connector-curvature="0" />
	<path style="fill:none;stroke:red;stroke-width:1px;stroke-linecap:butt;stroke-linejoin:miter;stroke-opacity:1" d="M 979.603,390.962 979.603,374.565 z" id="boundary" inkscape:connector-curvature="0" />
	<path style="fill:none;stroke:red;stroke-width:1px;stroke-linecap:butt;stroke-linejoin:miter;stroke-opacity:1" d="M 951.729,451.63 964.846,461.468 z" id="boundary" inkscape:connector-curvature="0" />
	<path style="fill:none;stroke:red;stroke-width:1px;stroke-linecap:butt;stroke-linejoin:miter;stroke-opacity:1" d="M 976.324,413.917 979.603,390.962 z" id="boundary" inkscape:connector-curvature="0" />
	<path style="fill:none;stroke:red;stroke-width:1px;stroke-linecap:butt;stroke-linejoin:miter;stroke-opacity:1" d="M 976.324,413.917 979.603,430.314 z" id="boundary" inkscape:connector-curvature="0" />
	<path style="fill:none;stroke:red;stroke-width:1px;stroke-linecap:butt;stroke-linejoin:miter;stroke-opacity:1" d="M 981.243,446.711 989.441,461.468 z" id="boundary" inkscape:connector-curvature="0" />
	<path style="fill:none;stroke:red;stroke-width:1px;stroke-linecap:butt;stroke-linejoin:miter;stroke-opacity:1" d="M 981.243,446.711 979.603,430.314 z" id="boundary" inkscape:connector-curvature="0" />
	<path style="fill:none;stroke:red;stroke-width:1px;stroke-linecap:butt;stroke-linejoin:miter;stroke-opacity:1" d="M 982.883,486.063 981.243,510.658 z" id="boundary" inkscape:connector-curvature="0" />
	<path style="fill:none;stroke:red;stroke-width:1px;stroke-linecap:butt;stroke-linejoin:miter;stroke-opacity:1" d="M 992.721,338.493 982.883,351.61 z" id="boundary" inkscape:connector-curvature="0" />
	<path style="fill:none;stroke:red;stroke-width:1px;stroke-linecap:butt;stroke-linejoin:miter;stroke-opacity:1" d="M 982.883,351.61 979.603,374.565 z" id="boundary" inkscape:connector-curvature="0" />
	<path style="fill:none;stroke:red;stroke-width:1px;stroke-linecap:butt;stroke-linejoin:miter;stroke-opacity:1" d="M 961.567,489.342 982.883,486.063 z" id="boundary" inkscape:connector-curvature="0" />
	<path style="fill:none;stroke:red;stroke-width:1px;stroke-linecap:butt;stroke-linejoin:miter;stroke-opacity:1" d="M 987.802,305.699 974.684,295.861 z" id="boundary" inkscape:connector-curvature="0" />
	<path style="fill:none;stroke:red;stroke-width:1px;stroke-linecap:butt;stroke-linejoin:miter;stroke-opacity:1" d="M 992.721,338.493 996,320.456 z" id="boundary" inkscape:connector-curvature="0" />
	<path style="fill:none;stroke:red;stroke-width:1px;stroke-linecap:butt;stroke-linejoin:miter;stroke-opacity:1" d="M 987.802,305.699 996,320.456 z" id="boundary" inkscape:connector-curvature="0" />
	<circle cx="4" cy="125.336" r="4" fill="#0" id="circle0"/>
	<circle cx="4" cy="141.732" r="4" fill="#0" id="circle1"/>
	<circle cx="4" cy="371.286" r="4" fill="#0" id="circle2"/>
	<circle cx="4" cy="387.683" r="4" fill="#0" id="circle3"/>
	<circle cx="4" cy="404.079" r="4" fill="#0" id="circle4"/>
	<circle cx="5.63967" cy="420.476" r="4" fill="#0" id="circle5"/>
	<circle cx="7.27934" cy="315.537" r="4" fill="#0" id="circle6"/>
	<circle cx="7.27934" cy="331.934" r="4" fill="#0" id="circle7"/>
	<circle cx="7.27934" cy="348.331" r="4" fill="#0" id="circle8"/>
	<circle cx="7.27934" cy="436.873" r="4" fill="#0" id="circle9"/>
	<circle cx="10.5587" cy="158.129" r="4" fill="#0" id="circle10"/>
	<circle cx="10.5587" cy="289.302" r="4" fill="#0" id="circle11"/>
	<circle cx="10.5587" cy="453.269" r="4" fill="#0" id="circle12"/>
	<circle cx="10.5587" cy="469.666" r="4" fill="#0" id="circle13"/>
	<circle cx="10.5587" cy="486.063" r="4" fill="#0" id="circle14"/>
	<circle cx="13.838" cy="112.218" r="4" fill="#0" id="circle15"/>
	<circle cx="13.838" cy="174.526" r="4" fill="#0" id="circle16"/>
	<circle cx="13.838" cy="190.922" r="4" fill="#0" id="circle17"/>
	<circle cx="13.838" cy="207.319" r="4" fill="#0" id="circle18"/>
	<circle cx="13.838" cy="240.112" r="4" fill="#0" id="circle19"/>
	<circle cx="13.838" cy="256.509" r="4" fill="#0" id="circle20"/>
	<circle cx="13.838" cy="272.906" r="4" fill="#0" id="circle21"/>
	<circle cx="13.838" cy="502.46" r="4" fill="#0" id="circle22"/>
	<circle cx="15.4777" cy="223.716" r="4" fill="#0" id="circle23"/>
	<circle cx="26.9554" cy="102.38" r="4" fill="#0" id="circle24"/>
	<circle cx="28.595" cy="510.658" r="4" fill="#0" id="circle25"/>
	<circle cx="31.8744" cy="486.063" r="4" fill="#0" id="circle26"/>
	<circle cx="35.1537" cy="443.431" r="4" fill="#0" id="circle27"/>
	<circle cx="35.1537" cy="459.828" r="4" fill="#0" id="circle28"/>
	<circle cx="40.0727" cy="92.5421" r="4" fill="#0" id="circle29"/>
	<circle cx="51.5504" cy="441.792" r="4" fill="#0" id="circle30"/>
	<circle cx="56.4694" cy="85.9835" r="4" fill="#0" id="circle31"/>
	<circle cx="67.9471" cy="445.071" r="4" fill="#0" id="circle32"/>
	<circle cx="72.8661" cy="79.4248" r="4" fill="#0" id="circle33"/>
	<circle cx="84.3438" cy="445.071" r="4" fill="#0" id="circle34"/>
	<circle cx="89.2628" cy="72.8661" r="4" fill="#0" id="circle35"/>
	<circle cx="100.74" cy="445.071" r="4" fill="#0" id="circle36"/>
	<circle cx="105.66" cy="69.5868" r="4" fill="#0" id="circle37"/>
	<circle cx="117.137" cy="445.071" r="4" fill="#0" id="circle38"/>
	<circle cx="122.056" cy="66.3074" r="4" fill="#0" id="circle39"/>
	<circle cx="133.534" cy="445.071" r="4" fill="#0" id="circle40"/>
	<circle cx="138.453" cy="59.7488" r="4" fill="#0" id="circle41"/>
	<circle cx="149.931" cy="445.071" r="4" fill="#0" id="circle42"/>
	<circle cx="153.21" cy="51.5504" r="4" fill="#0" id="circle43"/>
	<circle cx="166.327" cy="41.7124" r="4" fill="#0" id="circle44"/>
	<circle cx="166.327" cy="445.071" r="4" fill="#0" id="circle45"/>
	<circle cx="181.084" cy="33.514" r="4" fill="#0" id="circle46"/>
	<circle cx="182.724" cy="445.071" r="4" fill="#0" id="circle47"/>
	<circle cx="194.202" cy="17.1174" r="4" fill="#0" id="circle48"/>
	<circle cx="199.121" cy="445.071" r="4" fill="#0" id="circle49"/>
	<circle cx="204.04" cy="4" r="4" fill="#0" id="circle50"/>
	<circle cx="215.517" cy="445.071" r="4" fill="#0" id="circle51"/>
	<circle cx="220.436" cy="4" r="4" fill="#0" id="circle52"/>
	<circle cx="231.914" cy="445.071" r="4" fill="#0" id="circle53"/>
	<circle cx="235.193" cy="12.1983" r="4" fill="#0" id="circle54"/>
	<circle cx="245.031" cy="25.3157" r="4" fill="#0" id="circle55"/>
	<circle cx="248.311" cy="445.071" r="4" fill="#0" id="circle56"/>
	<circle cx="258.149" cy="36.7934" r="4" fill="#0" id="circle57"/>
	<circle cx="264.707" cy="445.071" r="4" fill="#0" id="circle58"/>
	<circle cx="274.545" cy="43.3521" r="4" fill="#0" id="circle59"/>
	<circle cx="281.104" cy="445.071" r="4" fill="#0" id="circle60"/>
	<circle cx="284.383" cy="56.4694" r="4" fill="#0" id="circle61"/>
	<circle cx="297.501" cy="445.071" r="4" fill="#0" id="circle62"/>
	<circle cx="299.14" cy="64.6678" r="4" fill="#0" id="circle63"/>
	<circle cx="313.898" cy="445.071" r="4" fill="#0" id="circle64"/>
	<circle cx="315.537" cy="69.5868" r="4" fill="#0" id="circle65"/>
	<circle cx="330.294" cy="445.071" r="4" fill="#0" id="circle66"/>
	<circle cx="331.934" cy="72.8661" r="4" fill="#0" id="circle67"/>
	<circle cx="346.691" cy="445.071" r="4" fill="#0" id="circle68"/>
	<circle cx="348.331" cy="79.4248" r="4" fill="#0" id="circle69"/>
	<circle cx="363.088" cy="445.071" r="4" fill="#0" id="circle70"/>
	<circle cx="364.727" cy="85.9835" r="4" fill="#0" id="circle71"/>
	<circle cx="379.484" cy="445.071" r="4" fill="#0" id="circle72"/>
	<circle cx="381.124" cy="92.5421" r="4" fill="#0" id="circle73"/>
	<circle cx="389.322" cy="458.188" r="4" fill="#0" id="circle74"/>
	<circle cx="390.962" cy="489.342" r="4" fill="#0" id="circle75"/>
	<circle cx="394.241" cy="102.38" r="4" fill="#0" id="circle76"/>
	<circle cx="395.881" cy="505.739" r="4" fill="#0" id="circle77"/>
	<circle cx="402.44" cy="174.526" r="4" fill="#0" id="circle78"/>
	<circle cx="402.44" cy="190.922" r="4" fill="#0" id="circle79"/>
	<circle cx="405.719" cy="158.129" r="4" fill="#0" id="circle80"/>
	<circle cx="407.359" cy="112.218" r="4" fill="#0" id="circle81"/>
	<circle cx="410.638" cy="487.702" r="4" fill="#0" id="circle82"/>
	<circle cx="412.278" cy="509.018" r="4" fill="#0" id="circle83"/>
	<circle cx="413.917" cy="445.071" r="4" fill="#0" id="circle84"/>
	<circle cx="415.557" cy="126.975" r="4" fill="#0" id="circle85"/>
	<circle cx="415.557" cy="145.012" r="4" fill="#0" id="circle86"/>
	<circle cx="415.557" cy="200.76" r="4" fill="#0" id="circle87"/>
	<circle cx="415.557" cy="461.468" r="4" fill="#0" id="circle88"/>
	<circle cx="430.314" cy="445.071" r="4" fill="#0" id="circle89"/>
	<circle cx="431.954" cy="200.76" r="4" fill="#0" id="circle90"/>
	<circle cx="446.711" cy="445.071" r="4" fill="#0" id="circle91"/>
	<circle cx="448.35" cy="204.04" r="4" fill="#0" id="circle92"/>
	<circle cx="463.107" cy="212.238" r="4" fill="#0" id="circle93"/>
	<circle cx="463.107" cy="445.071" r="4" fill="#0" id="circle94"/>
	<circle cx="477.864" cy="220.436" r="4" fill="#0" id="circle95"/>
	<circle cx="479.504" cy="445.071" r="4" fill="#0" id="circle96"/>
	<circle cx="490.982" cy="230.274" r="4" fill="#0" id="circle97"/>
	<circle cx="495.901" cy="445.071" r="4" fill="#0" id="circle98"/>
	<circle cx="505.739" cy="238.473" r="4" fill="#0" id="circle99"/>
	<circle cx="512.298" cy="445.071" r="4" fill="#0" id="circle100"/>
	<circle cx="517.217" cy="251.59" r="4" fill="#0" id="circle101"/>
	<circle cx="528.694" cy="445.071" r="4" fill="#0" id="circle102"/>
	<circle cx="531.974" cy="259.788" r="4" fill="#0" id="circle103"/>
	<circle cx="538.532" cy="458.188" r="4" fill="#0" id="circle104"/>
	<circle cx="538.532" cy="474.585" r="4" fill="#0" id="circle105"/>
	<circle cx="541.812" cy="490.982" r="4" fill="#0" id="circle106"/>
	<circle cx="541.812" cy="507.379" r="4" fill="#0" id="circle107"/>
	<circle cx="543.451" cy="272.906" r="4" fill="#0" id="circle108"/>
	<circle cx="551.65" cy="287.663" r="4" fill="#0" id="circle109"/>
	<circle cx="558.208" cy="510.658" r="4" fill="#0" id="circle110"/>
	<circle cx="563.127" cy="489.342" r="4" fill="#0" id="circle111"/>
	<circle cx="566.407" cy="472.945" r="4" fill="#0" id="circle112"/>
	<circle cx="568.046" cy="282.744" r="4" fill="#0" id="circle113"/>
	<circle cx="569.686" cy="453.269" r="4" fill="#0" id="circle114"/>
	<circle cx="584.443" cy="279.464" r="4" fill="#0" id="circle115"/>
	<circle cx="586.083" cy="451.63" r="4" fill="#0" id="circle116"/>
	<circle cx="600.84" cy="272.906" r="4" fill="#0" id="circle117"/>
	<circle cx="602.479" cy="454.909" r="4" fill="#0" id="circle118"/>
	<circle cx="617.236" cy="269.626" r="4" fill="#0" id="circle119"/>
	<circle cx="618.876" cy="458.188" r="4" fill="#0" id="circle120"/>
	<circle cx="633.633" cy="266.347" r="4" fill="#0" id="circle121"/>
	<circle cx="635.273" cy="464.747" r="4" fill="#0" id="circle122"/>
	<circle cx="648.39" cy="453.269" r="4" fill="#0" id="circle123"/>
	<circle cx="650.03" cy="266.347" r="4" fill="#0" id="circle124"/>
	<circle cx="664.787" cy="448.35" r="4" fill="#0" id="circle125"/>
	<circle cx="666.426" cy="263.068" r="4" fill="#0" id="circle126"/>
	<circle cx="681.183" cy="451.63" r="4" fill="#0" id="circle127"/>
	<circle cx="682.823" cy="263.068" r="4" fill="#0" id="circle128"/>
	<circle cx="697.58" cy="458.188" r="4" fill="#0" id="circle129"/>
	<circle cx="699.22" cy="253.23" r="4" fill="#0" id="circle130"/>
	<circle cx="712.337" cy="243.392" r="4" fill="#0" id="circle131"/>
	<circle cx="712.337" cy="466.387" r="4" fill="#0" id="circle132"/>
	<circle cx="727.094" cy="474.585" r="4" fill="#0" id="circle133"/>
	<circle cx="728.734" cy="236.833" r="4" fill="#0" id="circle134"/>
	<circle cx="743.491" cy="228.635" r="4" fill="#0" id="circle135"/>
	<circle cx="743.491" cy="477.864" r="4" fill="#0" id="circle136"/>
	<circle cx="758.248" cy="220.436" r="4" fill="#0" id="circle137"/>
	<circle cx="759.888" cy="481.144" r="4" fill="#0" id="circle138"/>
	<circle cx="774.645" cy="222.076" r="4" fill="#0" id="circle139"/>
	<circle cx="776.284" cy="481.144" r="4" fill="#0" id="circle140"/>
	<circle cx="787.762" cy="231.914" r="4" fill="#0" id="circle141"/>
	<circle cx="792.681" cy="477.864" r="4" fill="#0" id="circle142"/>
	<circle cx="802.519" cy="240.112" r="4" fill="#0" id="circle143"/>
	<circle cx="809.078" cy="471.306" r="4" fill="#0" id="circle144"/>
	<circle cx="818.916" cy="246.671" r="4" fill="#0" id="circle145"/>
	<circle cx="825.474" cy="463.107" r="4" fill="#0" id="circle146"/>
	<circle cx="830.393" cy="259.788" r="4" fill="#0" id="circle147"/>
	<circle cx="840.231" cy="454.909" r="4" fill="#0" id="circle148"/>
	<circle cx="846.79" cy="263.068" r="4" fill="#0" id="circle149"/>
	<circle cx="856.628" cy="448.35" r="4" fill="#0" id="circle150"/>
	<circle cx="863.187" cy="263.068" r="4" fill="#0" id="circle151"/>
	<circle cx="873.025" cy="448.35" r="4" fill="#0" id="circle152"/>
	<circle cx="879.583" cy="266.347" r="4" fill="#0" id="circle153"/>
	<circle cx="887.782" cy="456.549" r="4" fill="#0" id="circle154"/>
	<circle cx="895.98" cy="269.626" r="4" fill="#0" id="circle155"/>
	<circle cx="902.539" cy="464.747" r="4" fill="#0" id="circle156"/>
	<circle cx="912.377" cy="271.266" r="4" fill="#0" id="circle157"/>
	<circle cx="918.936" cy="458.188" r="4" fill="#0" id="circle158"/>
	<circle cx="928.774" cy="276.185" r="4" fill="#0" id="circle159"/>
	<circle cx="935.332" cy="451.63" r="4" fill="#0" id="circle160"/>
	<circle cx="945.17" cy="281.104" r="4" fill="#0" id="circle161"/>
	<circle cx="951.729" cy="451.63" r="4" fill="#0" id="circle162"/>
	<circle cx="961.567" cy="286.023" r="4" fill="#0" id="circle163"/>
	<circle cx="961.567" cy="489.342" r="4" fill="#0" id="circle164"/>
	<circle cx="964.846" cy="461.468" r="4" fill="#0" id="circle165"/>
	<circle cx="964.846" cy="505.739" r="4" fill="#0" id="circle166"/>
	<circle cx="974.684" cy="295.861" r="4" fill="#0" id="circle167"/>
	<circle cx="976.324" cy="413.917" r="4" fill="#0" id="circle168"/>
	<circle cx="979.603" cy="374.565" r="4" fill="#0" id="circle169"/>
	<circle cx="979.603" cy="390.962" r="4" fill="#0" id="circle170"/>
	<circle cx="979.603" cy="430.314" r="4" fill="#0" id="circle171"/>
	<circle cx="981.243" cy="446.711" r="4" fill="#0" id="circle172"/>
	<circle cx="981.243" cy="510.658" r="4" fill="#0" id="circle173"/>
	<circle cx="982.883" cy="351.61" r="4" fill="#0" id="circle174"/>
	<circle cx="982.883" cy="486.063" r="4" fill="#0" id="circle175"/>
	<circle cx="987.802" cy="305.699" r="4" fill="#0" id="circle176"/>
	<circle cx="989.441" cy="461.468" r="4" fill="#0" id="circle177"/>
	<circle cx="992.721" cy="338.493" r="4" fill="#0" id="circle178"/>
	<circle cx="996" cy="320.456" r="4" fill="#0" id="circle179"/>
	</g>
</svg>