<?xml version="1.0" encoding="UTF-8" standalone="no"?>
<!-- Created with CurveBenchmark -->
<svg
	xmlns:dc="http://purl.org/dc/elements/1.1/"
	xmlns:cc="http://creativecommons.org/ns#"
	xmlns:rdf="http://www.w3.org/1999/02/22-rdf-syntax-ns#"
	xmlns:svg="http://www.w3.org/2000/svg"
	xmlns="http://www.w3.org/2000/svg"
	xmlns:sodipodi="http://sodipodi.sourceforge.net/DTD/sodipodi-0.dtd"
	xmlns:inkscape="http://www.inkscape.org/namespaces/inkscape"
	width="1000"
	height="1000"
	id="svg2"
	version="1.1"
	sodipodi:docname="manifold/peel-teddy065.png.txt">
<defs
	id="defs4" />
<metadata
	id="metadata7">
	<rdf:RDF>
		<cc:Work
			rdf:about="">
			<dc:format>image/svg+xml</dc:format>
			<dc:type
				rdf:resource="http://purl.org/dc/dcmitype/StillImage" />
			<dc:title></dc:title>
		</cc:Work>
	</rdf:RDF>
</metadata>
<g
	inkscape:label="Layer 1"
	inkscape:groupmode="layer"
	id="layer1">
	<path style="fill:none;stroke:red;stroke-width:1px;stroke-linecap:butt;stroke-linejoin:miter;stroke-opacity:1" d="M 9.65242,546.632 4,518.37 z" id="boundary" inkscape:connector-curvature="0" />
	<path style="fill:none;stroke:red;stroke-width:1px;stroke-linecap:butt;stroke-linejoin:miter;stroke-opacity:1" d="M 4,518.37 15.3048,484.456 z" id="boundary" inkscape:connector-curvature="0" />
	<path style="fill:none;stroke:red;stroke-width:1px;stroke-linecap:butt;stroke-linejoin:miter;stroke-opacity:1" d="M 15.3048,574.895 9.65242,546.632 z" id="boundary" inkscape:connector-curvature="0" />
	<path style="fill:none;stroke:red;stroke-width:1px;stroke-linecap:butt;stroke-linejoin:miter;stroke-opacity:1" d="M 26.6097,456.194 43.567,433.584 z" id="boundary" inkscape:connector-curvature="0" />
	<path style="fill:none;stroke:red;stroke-width:1px;stroke-linecap:butt;stroke-linejoin:miter;stroke-opacity:1" d="M 26.6097,456.194 15.3048,484.456 z" id="boundary" inkscape:connector-curvature="0" />
	<path style="fill:none;stroke:red;stroke-width:1px;stroke-linecap:butt;stroke-linejoin:miter;stroke-opacity:1" d="M 35.0883,597.504 15.3048,574.895 z" id="boundary" inkscape:connector-curvature="0" />
	<path style="fill:none;stroke:red;stroke-width:1px;stroke-linecap:butt;stroke-linejoin:miter;stroke-opacity:1" d="M 83.1339,88.7863 83.1339,60.5242 z" id="boundary" inkscape:connector-curvature="0" />
	<path style="fill:none;stroke:red;stroke-width:1px;stroke-linecap:butt;stroke-linejoin:miter;stroke-opacity:1" d="M 57.698,617.288 35.0883,597.504 z" id="boundary" inkscape:connector-curvature="0" />
	<path style="fill:none;stroke:red;stroke-width:1px;stroke-linecap:butt;stroke-linejoin:miter;stroke-opacity:1" d="M 66.1766,410.974 91.6125,396.843 z" id="boundary" inkscape:connector-curvature="0" />
	<path style="fill:none;stroke:red;stroke-width:1px;stroke-linecap:butt;stroke-linejoin:miter;stroke-opacity:1" d="M 66.1766,410.974 43.567,433.584 z" id="boundary" inkscape:connector-curvature="0" />
	<path style="fill:none;stroke:red;stroke-width:1px;stroke-linecap:butt;stroke-linejoin:miter;stroke-opacity:1" d="M 77.4815,639.897 57.698,617.288 z" id="boundary" inkscape:connector-curvature="0" />
	<path style="fill:none;stroke:red;stroke-width:1px;stroke-linecap:butt;stroke-linejoin:miter;stroke-opacity:1" d="M 88.7863,117.048 83.1339,88.7863 z" id="boundary" inkscape:connector-curvature="0" />
	<path style="fill:none;stroke:red;stroke-width:1px;stroke-linecap:butt;stroke-linejoin:miter;stroke-opacity:1" d="M 100.091,145.311 88.7863,117.048 z" id="boundary" inkscape:connector-curvature="0" />
	<path style="fill:none;stroke:red;stroke-width:1px;stroke-linecap:butt;stroke-linejoin:miter;stroke-opacity:1" d="M 77.4815,885.778 77.4815,857.516 z" id="boundary" inkscape:connector-curvature="0" />
	<path style="fill:none;stroke:red;stroke-width:1px;stroke-linecap:butt;stroke-linejoin:miter;stroke-opacity:1" d="M 122.701,227.271 122.701,258.359 z" id="boundary" inkscape:connector-curvature="0" />
	<path style="fill:none;stroke:red;stroke-width:1px;stroke-linecap:butt;stroke-linejoin:miter;stroke-opacity:1" d="M 88.7863,817.949 77.4815,857.516 z" id="boundary" inkscape:connector-curvature="0" />
	<path style="fill:none;stroke:red;stroke-width:1px;stroke-linecap:butt;stroke-linejoin:miter;stroke-opacity:1" d="M 83.1339,942.302 83.1339,914.04 z" id="boundary" inkscape:connector-curvature="0" />
	<path style="fill:none;stroke:red;stroke-width:1px;stroke-linecap:butt;stroke-linejoin:miter;stroke-opacity:1" d="M 83.1339,914.04 77.4815,885.778 z" id="boundary" inkscape:connector-curvature="0" />
	<path style="fill:none;stroke:red;stroke-width:1px;stroke-linecap:butt;stroke-linejoin:miter;stroke-opacity:1" d="M 83.1339,60.5242 100.091,37.9145 z" id="boundary" inkscape:connector-curvature="0" />
	<path style="fill:none;stroke:red;stroke-width:1px;stroke-linecap:butt;stroke-linejoin:miter;stroke-opacity:1" d="M 88.7863,817.949 100.091,778.382 z" id="boundary" inkscape:connector-curvature="0" />
	<path style="fill:none;stroke:red;stroke-width:1px;stroke-linecap:butt;stroke-linejoin:miter;stroke-opacity:1" d="M 100.091,778.382 117.048,755.772 z" id="boundary" inkscape:connector-curvature="0" />
	<path style="fill:none;stroke:red;stroke-width:1px;stroke-linecap:butt;stroke-linejoin:miter;stroke-opacity:1" d="M 77.4815,639.897 102.917,654.028 z" id="boundary" inkscape:connector-curvature="0" />
	<path style="fill:none;stroke:red;stroke-width:1px;stroke-linecap:butt;stroke-linejoin:miter;stroke-opacity:1" d="M 100.091,37.9145 122.701,20.9573 z" id="boundary" inkscape:connector-curvature="0" />
	<path style="fill:none;stroke:red;stroke-width:1px;stroke-linecap:butt;stroke-linejoin:miter;stroke-opacity:1" d="M 122.701,199.009 122.701,227.271 z" id="boundary" inkscape:connector-curvature="0" />
	<path style="fill:none;stroke:red;stroke-width:1px;stroke-linecap:butt;stroke-linejoin:miter;stroke-opacity:1" d="M 122.701,199.009 114.222,170.746 z" id="boundary" inkscape:connector-curvature="0" />
	<path style="fill:none;stroke:red;stroke-width:1px;stroke-linecap:butt;stroke-linejoin:miter;stroke-opacity:1" d="M 114.222,170.746 100.091,145.311 z" id="boundary" inkscape:connector-curvature="0" />
	<path style="fill:none;stroke:red;stroke-width:1px;stroke-linecap:butt;stroke-linejoin:miter;stroke-opacity:1" d="M 114.222,987.521 91.6125,970.564 z" id="boundary" inkscape:connector-curvature="0" />
	<path style="fill:none;stroke:red;stroke-width:1px;stroke-linecap:butt;stroke-linejoin:miter;stroke-opacity:1" d="M 91.6125,970.564 83.1339,942.302 z" id="boundary" inkscape:connector-curvature="0" />
	<path style="fill:none;stroke:red;stroke-width:1px;stroke-linecap:butt;stroke-linejoin:miter;stroke-opacity:1" d="M 122.701,20.9573 150.963,9.65242 z" id="boundary" inkscape:connector-curvature="0" />
	<path style="fill:none;stroke:red;stroke-width:1px;stroke-linecap:butt;stroke-linejoin:miter;stroke-opacity:1" d="M 91.6125,396.843 117.048,382.712 z" id="boundary" inkscape:connector-curvature="0" />
	<path style="fill:none;stroke:red;stroke-width:1px;stroke-linecap:butt;stroke-linejoin:miter;stroke-opacity:1" d="M 117.048,382.712 145.311,382.712 z" id="boundary" inkscape:connector-curvature="0" />
	<path style="fill:none;stroke:red;stroke-width:1px;stroke-linecap:butt;stroke-linejoin:miter;stroke-opacity:1" d="M 117.048,755.772 139.658,738.815 z" id="boundary" inkscape:connector-curvature="0" />
	<path style="fill:none;stroke:red;stroke-width:1px;stroke-linecap:butt;stroke-linejoin:miter;stroke-opacity:1" d="M 102.917,654.028 128.353,668.16 z" id="boundary" inkscape:connector-curvature="0" />
	<path style="fill:none;stroke:red;stroke-width:1px;stroke-linecap:butt;stroke-linejoin:miter;stroke-opacity:1" d="M 179.225,4 207.487,9.65242 z" id="boundary" inkscape:connector-curvature="0" />
	<path style="fill:none;stroke:red;stroke-width:1px;stroke-linecap:butt;stroke-linejoin:miter;stroke-opacity:1" d="M 179.225,4 150.963,9.65242 z" id="boundary" inkscape:connector-curvature="0" />
	<path style="fill:none;stroke:red;stroke-width:1px;stroke-linecap:butt;stroke-linejoin:miter;stroke-opacity:1" d="M 128.353,286.621 122.701,258.359 z" id="boundary" inkscape:connector-curvature="0" />
	<path style="fill:none;stroke:red;stroke-width:1px;stroke-linecap:butt;stroke-linejoin:miter;stroke-opacity:1" d="M 235.749,18.1311 264.011,29.4359 z" id="boundary" inkscape:connector-curvature="0" />
	<path style="fill:none;stroke:red;stroke-width:1px;stroke-linecap:butt;stroke-linejoin:miter;stroke-opacity:1" d="M 134.006,314.883 128.353,286.621 z" id="boundary" inkscape:connector-curvature="0" />
	<path style="fill:none;stroke:red;stroke-width:1px;stroke-linecap:butt;stroke-linejoin:miter;stroke-opacity:1" d="M 134.006,314.883 142.484,343.145 z" id="boundary" inkscape:connector-curvature="0" />
	<path style="fill:none;stroke:red;stroke-width:1px;stroke-linecap:butt;stroke-linejoin:miter;stroke-opacity:1" d="M 264.011,29.4359 289.447,43.567 z" id="boundary" inkscape:connector-curvature="0" />
	<path style="fill:none;stroke:red;stroke-width:1px;stroke-linecap:butt;stroke-linejoin:miter;stroke-opacity:1" d="M 145.311,382.712 142.484,343.145 z" id="boundary" inkscape:connector-curvature="0" />
	<path style="fill:none;stroke:red;stroke-width:1px;stroke-linecap:butt;stroke-linejoin:miter;stroke-opacity:1" d="M 142.484,996 114.222,987.521 z" id="boundary" inkscape:connector-curvature="0" />
	<path style="fill:none;stroke:red;stroke-width:1px;stroke-linecap:butt;stroke-linejoin:miter;stroke-opacity:1" d="M 150.963,710.553 139.658,738.815 z" id="boundary" inkscape:connector-curvature="0" />
	<path style="fill:none;stroke:red;stroke-width:1px;stroke-linecap:butt;stroke-linejoin:miter;stroke-opacity:1" d="M 128.353,668.16 156.615,670.986 z" id="boundary" inkscape:connector-curvature="0" />
	<path style="fill:none;stroke:red;stroke-width:1px;stroke-linecap:butt;stroke-linejoin:miter;stroke-opacity:1" d="M 207.487,9.65242 235.749,18.1311 z" id="boundary" inkscape:connector-curvature="0" />
	<path style="fill:none;stroke:red;stroke-width:1px;stroke-linecap:butt;stroke-linejoin:miter;stroke-opacity:1" d="M 156.615,670.986 150.963,710.553 z" id="boundary" inkscape:connector-curvature="0" />
	<path style="fill:none;stroke:red;stroke-width:1px;stroke-linecap:butt;stroke-linejoin:miter;stroke-opacity:1" d="M 597.504,673.812 600.33,702.074 z" id="boundary" inkscape:connector-curvature="0" />
	<path style="fill:none;stroke:red;stroke-width:1px;stroke-linecap:butt;stroke-linejoin:miter;stroke-opacity:1" d="M 289.447,43.567 317.709,43.567 z" id="boundary" inkscape:connector-curvature="0" />
	<path style="fill:none;stroke:red;stroke-width:1px;stroke-linecap:butt;stroke-linejoin:miter;stroke-opacity:1" d="M 170.746,996 142.484,996 z" id="boundary" inkscape:connector-curvature="0" />
	<path style="fill:none;stroke:red;stroke-width:1px;stroke-linecap:butt;stroke-linejoin:miter;stroke-opacity:1" d="M 199.009,996 170.746,996 z" id="boundary" inkscape:connector-curvature="0" />
	<path style="fill:none;stroke:red;stroke-width:1px;stroke-linecap:butt;stroke-linejoin:miter;stroke-opacity:1" d="M 317.709,43.567 345.972,43.567 z" id="boundary" inkscape:connector-curvature="0" />
	<path style="fill:none;stroke:red;stroke-width:1px;stroke-linecap:butt;stroke-linejoin:miter;stroke-opacity:1" d="M 227.271,996 199.009,996 z" id="boundary" inkscape:connector-curvature="0" />
	<path style="fill:none;stroke:red;stroke-width:1px;stroke-linecap:butt;stroke-linejoin:miter;stroke-opacity:1" d="M 255.533,996 227.271,996 z" id="boundary" inkscape:connector-curvature="0" />
	<path style="fill:none;stroke:red;stroke-width:1px;stroke-linecap:butt;stroke-linejoin:miter;stroke-opacity:1" d="M 283.795,996 255.533,996 z" id="boundary" inkscape:connector-curvature="0" />
	<path style="fill:none;stroke:red;stroke-width:1px;stroke-linecap:butt;stroke-linejoin:miter;stroke-opacity:1" d="M 374.234,43.567 345.972,43.567 z" id="boundary" inkscape:connector-curvature="0" />
	<path style="fill:none;stroke:red;stroke-width:1px;stroke-linecap:butt;stroke-linejoin:miter;stroke-opacity:1" d="M 312.057,996 283.795,996 z" id="boundary" inkscape:connector-curvature="0" />
	<path style="fill:none;stroke:red;stroke-width:1px;stroke-linecap:butt;stroke-linejoin:miter;stroke-opacity:1" d="M 402.496,43.567 374.234,43.567 z" id="boundary" inkscape:connector-curvature="0" />
	<path style="fill:none;stroke:red;stroke-width:1px;stroke-linecap:butt;stroke-linejoin:miter;stroke-opacity:1" d="M 340.319,996 312.057,996 z" id="boundary" inkscape:connector-curvature="0" />
	<path style="fill:none;stroke:red;stroke-width:1px;stroke-linecap:butt;stroke-linejoin:miter;stroke-opacity:1" d="M 368.581,996 340.319,996 z" id="boundary" inkscape:connector-curvature="0" />
	<path style="fill:none;stroke:red;stroke-width:1px;stroke-linecap:butt;stroke-linejoin:miter;stroke-opacity:1" d="M 484.456,9.65242 512.718,4 z" id="boundary" inkscape:connector-curvature="0" />
	<path style="fill:none;stroke:red;stroke-width:1px;stroke-linecap:butt;stroke-linejoin:miter;stroke-opacity:1" d="M 512.718,4 540.98,9.65242 z" id="boundary" inkscape:connector-curvature="0" />
	<path style="fill:none;stroke:red;stroke-width:1px;stroke-linecap:butt;stroke-linejoin:miter;stroke-opacity:1" d="M 396.843,993.174 368.581,996 z" id="boundary" inkscape:connector-curvature="0" />
	<path style="fill:none;stroke:red;stroke-width:1px;stroke-linecap:butt;stroke-linejoin:miter;stroke-opacity:1" d="M 569.242,20.9573 540.98,9.65242 z" id="boundary" inkscape:connector-curvature="0" />
	<path style="fill:none;stroke:red;stroke-width:1px;stroke-linecap:butt;stroke-linejoin:miter;stroke-opacity:1" d="M 481.63,984.695 509.892,979.043 z" id="boundary" inkscape:connector-curvature="0" />
	<path style="fill:none;stroke:red;stroke-width:1px;stroke-linecap:butt;stroke-linejoin:miter;stroke-opacity:1" d="M 402.496,43.567 430.758,29.4359 z" id="boundary" inkscape:connector-curvature="0" />
	<path style="fill:none;stroke:red;stroke-width:1px;stroke-linecap:butt;stroke-linejoin:miter;stroke-opacity:1" d="M 456.194,15.3048 484.456,9.65242 z" id="boundary" inkscape:connector-curvature="0" />
	<path style="fill:none;stroke:red;stroke-width:1px;stroke-linecap:butt;stroke-linejoin:miter;stroke-opacity:1" d="M 456.194,15.3048 430.758,29.4359 z" id="boundary" inkscape:connector-curvature="0" />
	<path style="fill:none;stroke:red;stroke-width:1px;stroke-linecap:butt;stroke-linejoin:miter;stroke-opacity:1" d="M 481.63,984.695 453.368,984.695 z" id="boundary" inkscape:connector-curvature="0" />
	<path style="fill:none;stroke:red;stroke-width:1px;stroke-linecap:butt;stroke-linejoin:miter;stroke-opacity:1" d="M 453.368,984.695 425.105,990.348 z" id="boundary" inkscape:connector-curvature="0" />
	<path style="fill:none;stroke:red;stroke-width:1px;stroke-linecap:butt;stroke-linejoin:miter;stroke-opacity:1" d="M 396.843,993.174 425.105,990.348 z" id="boundary" inkscape:connector-curvature="0" />
	<path style="fill:none;stroke:red;stroke-width:1px;stroke-linecap:butt;stroke-linejoin:miter;stroke-opacity:1" d="M 651.202,984.695 679.464,996 z" id="boundary" inkscape:connector-curvature="0" />
	<path style="fill:none;stroke:red;stroke-width:1px;stroke-linecap:butt;stroke-linejoin:miter;stroke-opacity:1" d="M 566.416,970.564 594.678,967.738 z" id="boundary" inkscape:connector-curvature="0" />
	<path style="fill:none;stroke:red;stroke-width:1px;stroke-linecap:butt;stroke-linejoin:miter;stroke-opacity:1" d="M 594.678,967.738 622.94,973.39 z" id="boundary" inkscape:connector-curvature="0" />
	<path style="fill:none;stroke:red;stroke-width:1px;stroke-linecap:butt;stroke-linejoin:miter;stroke-opacity:1" d="M 622.94,973.39 651.202,984.695 z" id="boundary" inkscape:connector-curvature="0" />
	<path style="fill:none;stroke:red;stroke-width:1px;stroke-linecap:butt;stroke-linejoin:miter;stroke-opacity:1" d="M 552.285,368.581 577.721,382.712 z" id="boundary" inkscape:connector-curvature="0" />
	<path style="fill:none;stroke:red;stroke-width:1px;stroke-linecap:butt;stroke-linejoin:miter;stroke-opacity:1" d="M 577.721,196.182 583.373,224.444 z" id="boundary" inkscape:connector-curvature="0" />
	<path style="fill:none;stroke:red;stroke-width:1px;stroke-linecap:butt;stroke-linejoin:miter;stroke-opacity:1" d="M 566.416,343.145 552.285,368.581 z" id="boundary" inkscape:connector-curvature="0" />
	<path style="fill:none;stroke:red;stroke-width:1px;stroke-linecap:butt;stroke-linejoin:miter;stroke-opacity:1" d="M 577.721,167.92 577.721,196.182 z" id="boundary" inkscape:connector-curvature="0" />
	<path style="fill:none;stroke:red;stroke-width:1px;stroke-linecap:butt;stroke-linejoin:miter;stroke-opacity:1" d="M 538.154,973.39 566.416,970.564 z" id="boundary" inkscape:connector-curvature="0" />
	<path style="fill:none;stroke:red;stroke-width:1px;stroke-linecap:butt;stroke-linejoin:miter;stroke-opacity:1" d="M 589.026,139.658 577.721,167.92 z" id="boundary" inkscape:connector-curvature="0" />
	<path style="fill:none;stroke:red;stroke-width:1px;stroke-linecap:butt;stroke-linejoin:miter;stroke-opacity:1" d="M 577.721,314.883 566.416,343.145 z" id="boundary" inkscape:connector-curvature="0" />
	<path style="fill:none;stroke:red;stroke-width:1px;stroke-linecap:butt;stroke-linejoin:miter;stroke-opacity:1" d="M 577.721,314.883 583.373,280.969 z" id="boundary" inkscape:connector-curvature="0" />
	<path style="fill:none;stroke:red;stroke-width:1px;stroke-linecap:butt;stroke-linejoin:miter;stroke-opacity:1" d="M 583.373,280.969 589.026,252.707 z" id="boundary" inkscape:connector-curvature="0" />
	<path style="fill:none;stroke:red;stroke-width:1px;stroke-linecap:butt;stroke-linejoin:miter;stroke-opacity:1" d="M 583.373,224.444 589.026,252.707 z" id="boundary" inkscape:connector-curvature="0" />
	<path style="fill:none;stroke:red;stroke-width:1px;stroke-linecap:butt;stroke-linejoin:miter;stroke-opacity:1" d="M 577.721,382.712 605.983,382.712 z" id="boundary" inkscape:connector-curvature="0" />
	<path style="fill:none;stroke:red;stroke-width:1px;stroke-linecap:butt;stroke-linejoin:miter;stroke-opacity:1" d="M 600.33,88.7863 589.026,139.658 z" id="boundary" inkscape:connector-curvature="0" />
	<path style="fill:none;stroke:red;stroke-width:1px;stroke-linecap:butt;stroke-linejoin:miter;stroke-opacity:1" d="M 509.892,979.043 538.154,973.39 z" id="boundary" inkscape:connector-curvature="0" />
	<path style="fill:none;stroke:red;stroke-width:1px;stroke-linecap:butt;stroke-linejoin:miter;stroke-opacity:1" d="M 569.242,20.9573 591.852,40.7407 z" id="boundary" inkscape:connector-curvature="0" />
	<path style="fill:none;stroke:red;stroke-width:1px;stroke-linecap:butt;stroke-linejoin:miter;stroke-opacity:1" d="M 591.852,40.7407 600.33,88.7863 z" id="boundary" inkscape:connector-curvature="0" />
	<path style="fill:none;stroke:red;stroke-width:1px;stroke-linecap:butt;stroke-linejoin:miter;stroke-opacity:1" d="M 600.33,702.074 625.766,716.205 z" id="boundary" inkscape:connector-curvature="0" />
	<path style="fill:none;stroke:red;stroke-width:1px;stroke-linecap:butt;stroke-linejoin:miter;stroke-opacity:1" d="M 620.114,656.855 597.504,673.812 z" id="boundary" inkscape:connector-curvature="0" />
	<path style="fill:none;stroke:red;stroke-width:1px;stroke-linecap:butt;stroke-linejoin:miter;stroke-opacity:1" d="M 605.983,382.712 634.245,394.017 z" id="boundary" inkscape:connector-curvature="0" />
	<path style="fill:none;stroke:red;stroke-width:1px;stroke-linecap:butt;stroke-linejoin:miter;stroke-opacity:1" d="M 634.245,394.017 662.507,405.322 z" id="boundary" inkscape:connector-curvature="0" />
	<path style="fill:none;stroke:red;stroke-width:1px;stroke-linecap:butt;stroke-linejoin:miter;stroke-opacity:1" d="M 662.507,405.322 679.464,427.932 z" id="boundary" inkscape:connector-curvature="0" />
	<path style="fill:none;stroke:red;stroke-width:1px;stroke-linecap:butt;stroke-linejoin:miter;stroke-opacity:1" d="M 625.766,716.205 654.028,724.684 z" id="boundary" inkscape:connector-curvature="0" />
	<path style="fill:none;stroke:red;stroke-width:1px;stroke-linecap:butt;stroke-linejoin:miter;stroke-opacity:1" d="M 620.114,656.855 648.376,656.855 z" id="boundary" inkscape:connector-curvature="0" />
	<path style="fill:none;stroke:red;stroke-width:1px;stroke-linecap:butt;stroke-linejoin:miter;stroke-opacity:1" d="M 654.028,724.684 682.291,733.162 z" id="boundary" inkscape:connector-curvature="0" />
	<path style="fill:none;stroke:red;stroke-width:1px;stroke-linecap:butt;stroke-linejoin:miter;stroke-opacity:1" d="M 648.376,656.855 676.638,656.855 z" id="boundary" inkscape:connector-curvature="0" />
	<path style="fill:none;stroke:red;stroke-width:1px;stroke-linecap:butt;stroke-linejoin:miter;stroke-opacity:1" d="M 704.9,651.202 676.638,656.855 z" id="boundary" inkscape:connector-curvature="0" />
	<path style="fill:none;stroke:red;stroke-width:1px;stroke-linecap:butt;stroke-linejoin:miter;stroke-opacity:1" d="M 682.291,733.162 710.553,727.51 z" id="boundary" inkscape:connector-curvature="0" />
	<path style="fill:none;stroke:red;stroke-width:1px;stroke-linecap:butt;stroke-linejoin:miter;stroke-opacity:1" d="M 707.726,427.932 679.464,427.932 z" id="boundary" inkscape:connector-curvature="0" />
	<path style="fill:none;stroke:red;stroke-width:1px;stroke-linecap:butt;stroke-linejoin:miter;stroke-opacity:1" d="M 707.726,996 679.464,996 z" id="boundary" inkscape:connector-curvature="0" />
	<path style="fill:none;stroke:red;stroke-width:1px;stroke-linecap:butt;stroke-linejoin:miter;stroke-opacity:1" d="M 733.162,639.897 704.9,651.202 z" id="boundary" inkscape:connector-curvature="0" />
	<path style="fill:none;stroke:red;stroke-width:1px;stroke-linecap:butt;stroke-linejoin:miter;stroke-opacity:1" d="M 710.553,727.51 738.815,727.51 z" id="boundary" inkscape:connector-curvature="0" />
	<path style="fill:none;stroke:red;stroke-width:1px;stroke-linecap:butt;stroke-linejoin:miter;stroke-opacity:1" d="M 735.989,433.584 707.726,427.932 z" id="boundary" inkscape:connector-curvature="0" />
	<path style="fill:none;stroke:red;stroke-width:1px;stroke-linecap:butt;stroke-linejoin:miter;stroke-opacity:1" d="M 735.989,996 707.726,996 z" id="boundary" inkscape:connector-curvature="0" />
	<path style="fill:none;stroke:red;stroke-width:1px;stroke-linecap:butt;stroke-linejoin:miter;stroke-opacity:1" d="M 761.425,628.593 733.162,639.897 z" id="boundary" inkscape:connector-curvature="0" />
	<path style="fill:none;stroke:red;stroke-width:1px;stroke-linecap:butt;stroke-linejoin:miter;stroke-opacity:1" d="M 738.815,727.51 767.077,727.51 z" id="boundary" inkscape:connector-curvature="0" />
	<path style="fill:none;stroke:red;stroke-width:1px;stroke-linecap:butt;stroke-linejoin:miter;stroke-opacity:1" d="M 764.251,439.236 735.989,433.584 z" id="boundary" inkscape:connector-curvature="0" />
	<path style="fill:none;stroke:red;stroke-width:1px;stroke-linecap:butt;stroke-linejoin:miter;stroke-opacity:1" d="M 854.689,786.86 865.994,815.123 z" id="boundary" inkscape:connector-curvature="0" />
	<path style="fill:none;stroke:red;stroke-width:1px;stroke-linecap:butt;stroke-linejoin:miter;stroke-opacity:1" d="M 789.687,617.288 761.425,628.593 z" id="boundary" inkscape:connector-curvature="0" />
	<path style="fill:none;stroke:red;stroke-width:1px;stroke-linecap:butt;stroke-linejoin:miter;stroke-opacity:1" d="M 767.077,727.51 795.339,727.51 z" id="boundary" inkscape:connector-curvature="0" />
	<path style="fill:none;stroke:red;stroke-width:1px;stroke-linecap:butt;stroke-linejoin:miter;stroke-opacity:1" d="M 792.513,444.889 764.251,439.236 z" id="boundary" inkscape:connector-curvature="0" />
	<path style="fill:none;stroke:red;stroke-width:1px;stroke-linecap:butt;stroke-linejoin:miter;stroke-opacity:1" d="M 817.949,744.467 840.558,761.425 z" id="boundary" inkscape:connector-curvature="0" />
	<path style="fill:none;stroke:red;stroke-width:1px;stroke-linecap:butt;stroke-linejoin:miter;stroke-opacity:1" d="M 840.558,761.425 854.689,786.86 z" id="boundary" inkscape:connector-curvature="0" />
	<path style="fill:none;stroke:red;stroke-width:1px;stroke-linecap:butt;stroke-linejoin:miter;stroke-opacity:1" d="M 795.339,727.51 817.949,744.467 z" id="boundary" inkscape:connector-curvature="0" />
	<path style="fill:none;stroke:red;stroke-width:1px;stroke-linecap:butt;stroke-linejoin:miter;stroke-opacity:1" d="M 812.296,600.33 789.687,617.288 z" id="boundary" inkscape:connector-curvature="0" />
	<path style="fill:none;stroke:red;stroke-width:1px;stroke-linecap:butt;stroke-linejoin:miter;stroke-opacity:1" d="M 792.513,444.889 820.775,456.194 z" id="boundary" inkscape:connector-curvature="0" />
	<path style="fill:none;stroke:red;stroke-width:1px;stroke-linecap:butt;stroke-linejoin:miter;stroke-opacity:1" d="M 871.647,843.385 865.994,815.123 z" id="boundary" inkscape:connector-curvature="0" />
	<path style="fill:none;stroke:red;stroke-width:1px;stroke-linecap:butt;stroke-linejoin:miter;stroke-opacity:1" d="M 829.254,577.721 812.296,600.33 z" id="boundary" inkscape:connector-curvature="0" />
	<path style="fill:none;stroke:red;stroke-width:1px;stroke-linecap:butt;stroke-linejoin:miter;stroke-opacity:1" d="M 820.775,976.217 792.513,990.348 z" id="boundary" inkscape:connector-curvature="0" />
	<path style="fill:none;stroke:red;stroke-width:1px;stroke-linecap:butt;stroke-linejoin:miter;stroke-opacity:1" d="M 792.513,990.348 764.251,996 z" id="boundary" inkscape:connector-curvature="0" />
	<path style="fill:none;stroke:red;stroke-width:1px;stroke-linecap:butt;stroke-linejoin:miter;stroke-opacity:1" d="M 820.775,456.194 837.732,478.803 z" id="boundary" inkscape:connector-curvature="0" />
	<path style="fill:none;stroke:red;stroke-width:1px;stroke-linecap:butt;stroke-linejoin:miter;stroke-opacity:1" d="M 837.732,478.803 843.385,507.066 z" id="boundary" inkscape:connector-curvature="0" />
	<path style="fill:none;stroke:red;stroke-width:1px;stroke-linecap:butt;stroke-linejoin:miter;stroke-opacity:1" d="M 843.385,507.066 843.385,552.285 z" id="boundary" inkscape:connector-curvature="0" />
	<path style="fill:none;stroke:red;stroke-width:1px;stroke-linecap:butt;stroke-linejoin:miter;stroke-opacity:1" d="M 843.385,552.285 829.254,577.721 z" id="boundary" inkscape:connector-curvature="0" />
	<path style="fill:none;stroke:red;stroke-width:1px;stroke-linecap:butt;stroke-linejoin:miter;stroke-opacity:1" d="M 871.647,871.647 871.647,843.385 z" id="boundary" inkscape:connector-curvature="0" />
	<path style="fill:none;stroke:red;stroke-width:1px;stroke-linecap:butt;stroke-linejoin:miter;stroke-opacity:1" d="M 764.251,996 735.989,996 z" id="boundary" inkscape:connector-curvature="0" />
	<path style="fill:none;stroke:red;stroke-width:1px;stroke-linecap:butt;stroke-linejoin:miter;stroke-opacity:1" d="M 843.385,959.259 820.775,976.217 z" id="boundary" inkscape:connector-curvature="0" />
	<path style="fill:none;stroke:red;stroke-width:1px;stroke-linecap:butt;stroke-linejoin:miter;stroke-opacity:1" d="M 871.647,871.647 865.994,925.345 z" id="boundary" inkscape:connector-curvature="0" />
	<path style="fill:none;stroke:red;stroke-width:1px;stroke-linecap:butt;stroke-linejoin:miter;stroke-opacity:1" d="M 865.994,925.345 843.385,959.259 z" id="boundary" inkscape:connector-curvature="0" />
	<circle cx="4" cy="518.37" r="4" fill="#0" id="circle0"/>
	<circle cx="9.65242" cy="546.632" r="4" fill="#0" id="circle1"/>
	<circle cx="15.3048" cy="484.456" r="4" fill="#0" id="circle2"/>
	<circle cx="15.3048" cy="574.895" r="4" fill="#0" id="circle3"/>
	<circle cx="26.6097" cy="456.194" r="4" fill="#0" id="circle4"/>
	<circle cx="35.0883" cy="597.504" r="4" fill="#0" id="circle5"/>
	<circle cx="43.567" cy="433.584" r="4" fill="#0" id="circle6"/>
	<circle cx="57.698" cy="617.288" r="4" fill="#0" id="circle7"/>
	<circle cx="66.1766" cy="410.974" r="4" fill="#0" id="circle8"/>
	<circle cx="77.4815" cy="639.897" r="4" fill="#0" id="circle9"/>
	<circle cx="77.4815" cy="857.516" r="4" fill="#0" id="circle10"/>
	<circle cx="77.4815" cy="885.778" r="4" fill="#0" id="circle11"/>
	<circle cx="83.1339" cy="60.5242" r="4" fill="#0" id="circle12"/>
	<circle cx="83.1339" cy="88.7863" r="4" fill="#0" id="circle13"/>
	<circle cx="83.1339" cy="914.04" r="4" fill="#0" id="circle14"/>
	<circle cx="83.1339" cy="942.302" r="4" fill="#0" id="circle15"/>
	<circle cx="88.7863" cy="117.048" r="4" fill="#0" id="circle16"/>
	<circle cx="88.7863" cy="817.949" r="4" fill="#0" id="circle17"/>
	<circle cx="91.6125" cy="396.843" r="4" fill="#0" id="circle18"/>
	<circle cx="91.6125" cy="970.564" r="4" fill="#0" id="circle19"/>
	<circle cx="100.091" cy="37.9145" r="4" fill="#0" id="circle20"/>
	<circle cx="100.091" cy="145.311" r="4" fill="#0" id="circle21"/>
	<circle cx="100.091" cy="778.382" r="4" fill="#0" id="circle22"/>
	<circle cx="102.917" cy="654.028" r="4" fill="#0" id="circle23"/>
	<circle cx="114.222" cy="170.746" r="4" fill="#0" id="circle24"/>
	<circle cx="114.222" cy="987.521" r="4" fill="#0" id="circle25"/>
	<circle cx="117.048" cy="382.712" r="4" fill="#0" id="circle26"/>
	<circle cx="117.048" cy="755.772" r="4" fill="#0" id="circle27"/>
	<circle cx="122.701" cy="20.9573" r="4" fill="#0" id="circle28"/>
	<circle cx="122.701" cy="199.009" r="4" fill="#0" id="circle29"/>
	<circle cx="122.701" cy="227.271" r="4" fill="#0" id="circle30"/>
	<circle cx="122.701" cy="258.359" r="4" fill="#0" id="circle31"/>
	<circle cx="128.353" cy="286.621" r="4" fill="#0" id="circle32"/>
	<circle cx="128.353" cy="668.16" r="4" fill="#0" id="circle33"/>
	<circle cx="134.006" cy="314.883" r="4" fill="#0" id="circle34"/>
	<circle cx="139.658" cy="738.815" r="4" fill="#0" id="circle35"/>
	<circle cx="142.484" cy="343.145" r="4" fill="#0" id="circle36"/>
	<circle cx="142.484" cy="996" r="4" fill="#0" id="circle37"/>
	<circle cx="145.311" cy="382.712" r="4" fill="#0" id="circle38"/>
	<circle cx="150.963" cy="9.65242" r="4" fill="#0" id="circle39"/>
	<circle cx="150.963" cy="710.553" r="4" fill="#0" id="circle40"/>
	<circle cx="156.615" cy="670.986" r="4" fill="#0" id="circle41"/>
	<circle cx="170.746" cy="996" r="4" fill="#0" id="circle42"/>
	<circle cx="179.225" cy="4" r="4" fill="#0" id="circle43"/>
	<circle cx="199.009" cy="996" r="4" fill="#0" id="circle44"/>
	<circle cx="207.487" cy="9.65242" r="4" fill="#0" id="circle45"/>
	<circle cx="227.271" cy="996" r="4" fill="#0" id="circle46"/>
	<circle cx="235.749" cy="18.1311" r="4" fill="#0" id="circle47"/>
	<circle cx="255.533" cy="996" r="4" fill="#0" id="circle48"/>
	<circle cx="264.011" cy="29.4359" r="4" fill="#0" id="circle49"/>
	<circle cx="283.795" cy="996" r="4" fill="#0" id="circle50"/>
	<circle cx="289.447" cy="43.567" r="4" fill="#0" id="circle51"/>
	<circle cx="312.057" cy="996" r="4" fill="#0" id="circle52"/>
	<circle cx="317.709" cy="43.567" r="4" fill="#0" id="circle53"/>
	<circle cx="340.319" cy="996" r="4" fill="#0" id="circle54"/>
	<circle cx="345.972" cy="43.567" r="4" fill="#0" id="circle55"/>
	<circle cx="368.581" cy="996" r="4" fill="#0" id="circle56"/>
	<circle cx="374.234" cy="43.567" r="4" fill="#0" id="circle57"/>
	<circle cx="396.843" cy="993.174" r="4" fill="#0" id="circle58"/>
	<circle cx="402.496" cy="43.567" r="4" fill="#0" id="circle59"/>
	<circle cx="425.105" cy="990.348" r="4" fill="#0" id="circle60"/>
	<circle cx="430.758" cy="29.4359" r="4" fill="#0" id="circle61"/>
	<circle cx="453.368" cy="984.695" r="4" fill="#0" id="circle62"/>
	<circle cx="456.194" cy="15.3048" r="4" fill="#0" id="circle63"/>
	<circle cx="481.63" cy="984.695" r="4" fill="#0" id="circle64"/>
	<circle cx="484.456" cy="9.65242" r="4" fill="#0" id="circle65"/>
	<circle cx="509.892" cy="979.043" r="4" fill="#0" id="circle66"/>
	<circle cx="512.718" cy="4" r="4" fill="#0" id="circle67"/>
	<circle cx="538.154" cy="973.39" r="4" fill="#0" id="circle68"/>
	<circle cx="540.98" cy="9.65242" r="4" fill="#0" id="circle69"/>
	<circle cx="552.285" cy="368.581" r="4" fill="#0" id="circle70"/>
	<circle cx="566.416" cy="343.145" r="4" fill="#0" id="circle71"/>
	<circle cx="566.416" cy="970.564" r="4" fill="#0" id="circle72"/>
	<circle cx="569.242" cy="20.9573" r="4" fill="#0" id="circle73"/>
	<circle cx="577.721" cy="167.92" r="4" fill="#0" id="circle74"/>
	<circle cx="577.721" cy="196.182" r="4" fill="#0" id="circle75"/>
	<circle cx="577.721" cy="314.883" r="4" fill="#0" id="circle76"/>
	<circle cx="577.721" cy="382.712" r="4" fill="#0" id="circle77"/>
	<circle cx="583.373" cy="224.444" r="4" fill="#0" id="circle78"/>
	<circle cx="583.373" cy="280.969" r="4" fill="#0" id="circle79"/>
	<circle cx="589.026" cy="139.658" r="4" fill="#0" id="circle80"/>
	<circle cx="589.026" cy="252.707" r="4" fill="#0" id="circle81"/>
	<circle cx="591.852" cy="40.7407" r="4" fill="#0" id="circle82"/>
	<circle cx="594.678" cy="967.738" r="4" fill="#0" id="circle83"/>
	<circle cx="597.504" cy="673.812" r="4" fill="#0" id="circle84"/>
	<circle cx="600.33" cy="88.7863" r="4" fill="#0" id="circle85"/>
	<circle cx="600.33" cy="702.074" r="4" fill="#0" id="circle86"/>
	<circle cx="605.983" cy="382.712" r="4" fill="#0" id="circle87"/>
	<circle cx="620.114" cy="656.855" r="4" fill="#0" id="circle88"/>
	<circle cx="622.94" cy="973.39" r="4" fill="#0" id="circle89"/>
	<circle cx="625.766" cy="716.205" r="4" fill="#0" id="circle90"/>
	<circle cx="634.245" cy="394.017" r="4" fill="#0" id="circle91"/>
	<circle cx="648.376" cy="656.855" r="4" fill="#0" id="circle92"/>
	<circle cx="651.202" cy="984.695" r="4" fill="#0" id="circle93"/>
	<circle cx="654.028" cy="724.684" r="4" fill="#0" id="circle94"/>
	<circle cx="662.507" cy="405.322" r="4" fill="#0" id="circle95"/>
	<circle cx="676.638" cy="656.855" r="4" fill="#0" id="circle96"/>
	<circle cx="679.464" cy="427.932" r="4" fill="#0" id="circle97"/>
	<circle cx="679.464" cy="996" r="4" fill="#0" id="circle98"/>
	<circle cx="682.291" cy="733.162" r="4" fill="#0" id="circle99"/>
	<circle cx="704.9" cy="651.202" r="4" fill="#0" id="circle100"/>
	<circle cx="707.726" cy="427.932" r="4" fill="#0" id="circle101"/>
	<circle cx="707.726" cy="996" r="4" fill="#0" id="circle102"/>
	<circle cx="710.553" cy="727.51" r="4" fill="#0" id="circle103"/>
	<circle cx="733.162" cy="639.897" r="4" fill="#0" id="circle104"/>
	<circle cx="735.989" cy="433.584" r="4" fill="#0" id="circle105"/>
	<circle cx="735.989" cy="996" r="4" fill="#0" id="circle106"/>
	<circle cx="738.815" cy="727.51" r="4" fill="#0" id="circle107"/>
	<circle cx="761.425" cy="628.593" r="4" fill="#0" id="circle108"/>
	<circle cx="764.251" cy="439.236" r="4" fill="#0" id="circle109"/>
	<circle cx="764.251" cy="996" r="4" fill="#0" id="circle110"/>
	<circle cx="767.077" cy="727.51" r="4" fill="#0" id="circle111"/>
	<circle cx="789.687" cy="617.288" r="4" fill="#0" id="circle112"/>
	<circle cx="792.513" cy="444.889" r="4" fill="#0" id="circle113"/>
	<circle cx="792.513" cy="990.348" r="4" fill="#0" id="circle114"/>
	<circle cx="795.339" cy="727.51" r="4" fill="#0" id="circle115"/>
	<circle cx="812.296" cy="600.33" r="4" fill="#0" id="circle116"/>
	<circle cx="817.949" cy="744.467" r="4" fill="#0" id="circle117"/>
	<circle cx="820.775" cy="456.194" r="4" fill="#0" id="circle118"/>
	<circle cx="820.775" cy="976.217" r="4" fill="#0" id="circle119"/>
	<circle cx="829.254" cy="577.721" r="4" fill="#0" id="circle120"/>
	<circle cx="837.732" cy="478.803" r="4" fill="#0" id="circle121"/>
	<circle cx="840.558" cy="761.425" r="4" fill="#0" id="circle122"/>
	<circle cx="843.385" cy="507.066" r="4" fill="#0" id="circle123"/>
	<circle cx="843.385" cy="552.285" r="4" fill="#0" id="circle124"/>
	<circle cx="843.385" cy="959.259" r="4" fill="#0" id="circle125"/>
	<circle cx="854.689" cy="786.86" r="4" fill="#0" id="circle126"/>
	<circle cx="865.994" cy="815.123" r="4" fill="#0" id="circle127"/>
	<circle cx="865.994" cy="925.345" r="4" fill="#0" id="circle128"/>
	<circle cx="871.647" cy="843.385" r="4" fill="#0" id="circle129"/>
	<circle cx="871.647" cy="871.647" r="4" fill="#0" id="circle130"/>
	</g>
</svg>