<?xml version="1.0" encoding="UTF-8" standalone="no"?>
<!-- Created with CurveBenchmark -->
<svg
	xmlns:dc="http://purl.org/dc/elements/1.1/"
	xmlns:cc="http://creativecommons.org/ns#"
	xmlns:rdf="http://www.w3.org/1999/02/22-rdf-syntax-ns#"
	xmlns:svg="http://www.w3.org/2000/svg"
	xmlns="http://www.w3.org/2000/svg"
	xmlns:sodipodi="http://sodipodi.sourceforge.net/DTD/sodipodi-0.dtd"
	xmlns:inkscape="http://www.inkscape.org/namespaces/inkscape"
	width="1000"
	height="1000"
	id="svg2"
	version="1.1"
	sodipodi:docname="manifold/peel-sink095.png.txt">
<defs
	id="defs4" />
<metadata
	id="metadata7">
	<rdf:RDF>
		<cc:Work
			rdf:about="">
			<dc:format>image/svg+xml</dc:format>
			<dc:type
				rdf:resource="http://purl.org/dc/dcmitype/StillImage" />
			<dc:title></dc:title>
		</cc:Work>
	</rdf:RDF>
</metadata>
<g
	inkscape:label="Layer 1"
	inkscape:groupmode="layer"
	id="layer1">
	<path style="fill:none;stroke:red;stroke-width:1px;stroke-linecap:butt;stroke-linejoin:miter;stroke-opacity:1" d="M 102.706,152.06 53.3532,152.06 z" id="boundary" inkscape:connector-curvature="0" />
	<path style="fill:none;stroke:red;stroke-width:1px;stroke-linecap:butt;stroke-linejoin:miter;stroke-opacity:1" d="M 4,211.284 4,161.93 z" id="boundary" inkscape:connector-curvature="0" />
	<path style="fill:none;stroke:red;stroke-width:1px;stroke-linecap:butt;stroke-linejoin:miter;stroke-opacity:1" d="M 4,161.93 53.3532,152.06 z" id="boundary" inkscape:connector-curvature="0" />
	<path style="fill:none;stroke:red;stroke-width:1px;stroke-linecap:butt;stroke-linejoin:miter;stroke-opacity:1" d="M 309.99,941.711 309.99,991.065 z" id="boundary" inkscape:connector-curvature="0" />
	<path style="fill:none;stroke:red;stroke-width:1px;stroke-linecap:butt;stroke-linejoin:miter;stroke-opacity:1" d="M 201.413,349.473 231.025,388.955 z" id="boundary" inkscape:connector-curvature="0" />
	<path style="fill:none;stroke:red;stroke-width:1px;stroke-linecap:butt;stroke-linejoin:miter;stroke-opacity:1" d="M 4,260.637 4,211.284 z" id="boundary" inkscape:connector-curvature="0" />
	<path style="fill:none;stroke:red;stroke-width:1px;stroke-linecap:butt;stroke-linejoin:miter;stroke-opacity:1" d="M 4,260.637 28.6766,305.055 z" id="boundary" inkscape:connector-curvature="0" />
	<path style="fill:none;stroke:red;stroke-width:1px;stroke-linecap:butt;stroke-linejoin:miter;stroke-opacity:1" d="M 28.6766,305.055 78.0299,305.055 z" id="boundary" inkscape:connector-curvature="0" />
	<path style="fill:none;stroke:red;stroke-width:1px;stroke-linecap:butt;stroke-linejoin:miter;stroke-opacity:1" d="M 127.383,305.055 78.0299,305.055 z" id="boundary" inkscape:connector-curvature="0" />
	<path style="fill:none;stroke:red;stroke-width:1px;stroke-linecap:butt;stroke-linejoin:miter;stroke-opacity:1" d="M 176.736,305.055 201.413,349.473 z" id="boundary" inkscape:connector-curvature="0" />
	<path style="fill:none;stroke:red;stroke-width:1px;stroke-linecap:butt;stroke-linejoin:miter;stroke-opacity:1" d="M 176.736,305.055 127.383,305.055 z" id="boundary" inkscape:connector-curvature="0" />
	<path style="fill:none;stroke:red;stroke-width:1px;stroke-linecap:butt;stroke-linejoin:miter;stroke-opacity:1" d="M 102.706,152.06 152.06,152.06 z" id="boundary" inkscape:connector-curvature="0" />
	<path style="fill:none;stroke:red;stroke-width:1px;stroke-linecap:butt;stroke-linejoin:miter;stroke-opacity:1" d="M 359.343,571.562 359.343,522.209 z" id="boundary" inkscape:connector-curvature="0" />
	<path style="fill:none;stroke:red;stroke-width:1px;stroke-linecap:butt;stroke-linejoin:miter;stroke-opacity:1" d="M 152.06,152.06 201.413,161.93 z" id="boundary" inkscape:connector-curvature="0" />
	<path style="fill:none;stroke:red;stroke-width:1px;stroke-linecap:butt;stroke-linejoin:miter;stroke-opacity:1" d="M 201.413,161.93 250.766,161.93 z" id="boundary" inkscape:connector-curvature="0" />
	<path style="fill:none;stroke:red;stroke-width:1px;stroke-linecap:butt;stroke-linejoin:miter;stroke-opacity:1" d="M 359.343,571.562 359.343,620.915 z" id="boundary" inkscape:connector-curvature="0" />
	<path style="fill:none;stroke:red;stroke-width:1px;stroke-linecap:butt;stroke-linejoin:miter;stroke-opacity:1" d="M 300.119,161.93 250.766,161.93 z" id="boundary" inkscape:connector-curvature="0" />
	<path style="fill:none;stroke:red;stroke-width:1px;stroke-linecap:butt;stroke-linejoin:miter;stroke-opacity:1" d="M 231.025,388.955 275.443,413.632 z" id="boundary" inkscape:connector-curvature="0" />
	<path style="fill:none;stroke:red;stroke-width:1px;stroke-linecap:butt;stroke-linejoin:miter;stroke-opacity:1" d="M 319.861,112.577 319.861,63.2239 z" id="boundary" inkscape:connector-curvature="0" />
	<path style="fill:none;stroke:red;stroke-width:1px;stroke-linecap:butt;stroke-linejoin:miter;stroke-opacity:1" d="M 309.99,991.065 359.343,996 z" id="boundary" inkscape:connector-curvature="0" />
	<path style="fill:none;stroke:red;stroke-width:1px;stroke-linecap:butt;stroke-linejoin:miter;stroke-opacity:1" d="M 324.796,433.373 275.443,413.632 z" id="boundary" inkscape:connector-curvature="0" />
	<path style="fill:none;stroke:red;stroke-width:1px;stroke-linecap:butt;stroke-linejoin:miter;stroke-opacity:1" d="M 319.861,112.577 354.408,152.06 z" id="boundary" inkscape:connector-curvature="0" />
	<path style="fill:none;stroke:red;stroke-width:1px;stroke-linecap:butt;stroke-linejoin:miter;stroke-opacity:1" d="M 359.343,472.856 359.343,522.209 z" id="boundary" inkscape:connector-curvature="0" />
	<path style="fill:none;stroke:red;stroke-width:1px;stroke-linecap:butt;stroke-linejoin:miter;stroke-opacity:1" d="M 359.343,472.856 324.796,433.373 z" id="boundary" inkscape:connector-curvature="0" />
	<path style="fill:none;stroke:red;stroke-width:1px;stroke-linecap:butt;stroke-linejoin:miter;stroke-opacity:1" d="M 319.861,63.2239 339.602,4 z" id="boundary" inkscape:connector-curvature="0" />
	<path style="fill:none;stroke:red;stroke-width:1px;stroke-linecap:butt;stroke-linejoin:miter;stroke-opacity:1" d="M 359.343,620.915 359.343,670.269 z" id="boundary" inkscape:connector-curvature="0" />
	<path style="fill:none;stroke:red;stroke-width:1px;stroke-linecap:butt;stroke-linejoin:miter;stroke-opacity:1" d="M 384.02,28.6766 339.602,4 z" id="boundary" inkscape:connector-curvature="0" />
	<path style="fill:none;stroke:red;stroke-width:1px;stroke-linecap:butt;stroke-linejoin:miter;stroke-opacity:1" d="M 403.761,161.93 354.408,152.06 z" id="boundary" inkscape:connector-curvature="0" />
	<path style="fill:none;stroke:red;stroke-width:1px;stroke-linecap:butt;stroke-linejoin:miter;stroke-opacity:1" d="M 384.02,28.6766 398.826,78.0299 z" id="boundary" inkscape:connector-curvature="0" />
	<path style="fill:none;stroke:red;stroke-width:1px;stroke-linecap:butt;stroke-linejoin:miter;stroke-opacity:1" d="M 309.99,941.711 339.602,892.358 z" id="boundary" inkscape:connector-curvature="0" />
	<path style="fill:none;stroke:red;stroke-width:1px;stroke-linecap:butt;stroke-linejoin:miter;stroke-opacity:1" d="M 359.343,719.622 359.343,670.269 z" id="boundary" inkscape:connector-curvature="0" />
	<path style="fill:none;stroke:red;stroke-width:1px;stroke-linecap:butt;stroke-linejoin:miter;stroke-opacity:1" d="M 403.761,161.93 453.114,161.93 z" id="boundary" inkscape:connector-curvature="0" />
	<path style="fill:none;stroke:red;stroke-width:1px;stroke-linecap:butt;stroke-linejoin:miter;stroke-opacity:1" d="M 359.343,768.975 359.343,719.622 z" id="boundary" inkscape:connector-curvature="0" />
	<path style="fill:none;stroke:red;stroke-width:1px;stroke-linecap:butt;stroke-linejoin:miter;stroke-opacity:1" d="M 359.343,818.328 359.343,768.975 z" id="boundary" inkscape:connector-curvature="0" />
	<path style="fill:none;stroke:red;stroke-width:1px;stroke-linecap:butt;stroke-linejoin:miter;stroke-opacity:1" d="M 541.95,428.438 541.95,477.791 z" id="boundary" inkscape:connector-curvature="0" />
	<path style="fill:none;stroke:red;stroke-width:1px;stroke-linecap:butt;stroke-linejoin:miter;stroke-opacity:1" d="M 339.602,892.358 359.343,818.328 z" id="boundary" inkscape:connector-curvature="0" />
	<path style="fill:none;stroke:red;stroke-width:1px;stroke-linecap:butt;stroke-linejoin:miter;stroke-opacity:1" d="M 541.95,823.264 541.95,872.617 z" id="boundary" inkscape:connector-curvature="0" />
	<path style="fill:none;stroke:red;stroke-width:1px;stroke-linecap:butt;stroke-linejoin:miter;stroke-opacity:1" d="M 541.95,527.144 541.95,576.498 z" id="boundary" inkscape:connector-curvature="0" />
	<path style="fill:none;stroke:red;stroke-width:1px;stroke-linecap:butt;stroke-linejoin:miter;stroke-opacity:1" d="M 502.468,152.06 453.114,161.93 z" id="boundary" inkscape:connector-curvature="0" />
	<path style="fill:none;stroke:red;stroke-width:1px;stroke-linecap:butt;stroke-linejoin:miter;stroke-opacity:1" d="M 541.95,625.851 541.95,576.498 z" id="boundary" inkscape:connector-curvature="0" />
	<path style="fill:none;stroke:red;stroke-width:1px;stroke-linecap:butt;stroke-linejoin:miter;stroke-opacity:1" d="M 541.95,675.204 541.95,724.557 z" id="boundary" inkscape:connector-curvature="0" />
	<path style="fill:none;stroke:red;stroke-width:1px;stroke-linecap:butt;stroke-linejoin:miter;stroke-opacity:1" d="M 359.343,996 408.697,996 z" id="boundary" inkscape:connector-curvature="0" />
	<path style="fill:none;stroke:red;stroke-width:1px;stroke-linecap:butt;stroke-linejoin:miter;stroke-opacity:1" d="M 408.697,996 458.05,996 z" id="boundary" inkscape:connector-curvature="0" />
	<path style="fill:none;stroke:red;stroke-width:1px;stroke-linecap:butt;stroke-linejoin:miter;stroke-opacity:1" d="M 541.95,477.791 541.95,527.144 z" id="boundary" inkscape:connector-curvature="0" />
	<path style="fill:none;stroke:red;stroke-width:1px;stroke-linecap:butt;stroke-linejoin:miter;stroke-opacity:1" d="M 541.95,823.264 541.95,773.91 z" id="boundary" inkscape:connector-curvature="0" />
	<path style="fill:none;stroke:red;stroke-width:1px;stroke-linecap:butt;stroke-linejoin:miter;stroke-opacity:1" d="M 541.95,872.617 561.692,921.97 z" id="boundary" inkscape:connector-curvature="0" />
	<path style="fill:none;stroke:red;stroke-width:1px;stroke-linecap:butt;stroke-linejoin:miter;stroke-opacity:1" d="M 502.468,152.06 551.821,152.06 z" id="boundary" inkscape:connector-curvature="0" />
	<path style="fill:none;stroke:red;stroke-width:1px;stroke-linecap:butt;stroke-linejoin:miter;stroke-opacity:1" d="M 541.95,625.851 541.95,675.204 z" id="boundary" inkscape:connector-curvature="0" />
	<path style="fill:none;stroke:red;stroke-width:1px;stroke-linecap:butt;stroke-linejoin:miter;stroke-opacity:1" d="M 586.368,403.761 541.95,428.438 z" id="boundary" inkscape:connector-curvature="0" />
	<path style="fill:none;stroke:red;stroke-width:1px;stroke-linecap:butt;stroke-linejoin:miter;stroke-opacity:1" d="M 541.95,773.91 541.95,724.557 z" id="boundary" inkscape:connector-curvature="0" />
	<path style="fill:none;stroke:red;stroke-width:1px;stroke-linecap:butt;stroke-linejoin:miter;stroke-opacity:1" d="M 586.368,403.761 625.851,364.279 z" id="boundary" inkscape:connector-curvature="0" />
	<path style="fill:none;stroke:red;stroke-width:1px;stroke-linecap:butt;stroke-linejoin:miter;stroke-opacity:1" d="M 625.851,364.279 655.463,324.796 z" id="boundary" inkscape:connector-curvature="0" />
	<path style="fill:none;stroke:red;stroke-width:1px;stroke-linecap:butt;stroke-linejoin:miter;stroke-opacity:1" d="M 655.463,324.796 704.816,305.055 z" id="boundary" inkscape:connector-curvature="0" />
	<path style="fill:none;stroke:red;stroke-width:1px;stroke-linecap:butt;stroke-linejoin:miter;stroke-opacity:1" d="M 458.05,996 507.403,996 z" id="boundary" inkscape:connector-curvature="0" />
	<path style="fill:none;stroke:red;stroke-width:1px;stroke-linecap:butt;stroke-linejoin:miter;stroke-opacity:1" d="M 704.816,305.055 754.169,305.055 z" id="boundary" inkscape:connector-curvature="0" />
	<path style="fill:none;stroke:red;stroke-width:1px;stroke-linecap:butt;stroke-linejoin:miter;stroke-opacity:1" d="M 507.403,996 556.756,996 z" id="boundary" inkscape:connector-curvature="0" />
	<path style="fill:none;stroke:red;stroke-width:1px;stroke-linecap:butt;stroke-linejoin:miter;stroke-opacity:1" d="M 556.756,996 561.692,921.97 z" id="boundary" inkscape:connector-curvature="0" />
	<path style="fill:none;stroke:red;stroke-width:1px;stroke-linecap:butt;stroke-linejoin:miter;stroke-opacity:1" d="M 803.522,305.055 754.169,305.055 z" id="boundary" inkscape:connector-curvature="0" />
	<path style="fill:none;stroke:red;stroke-width:1px;stroke-linecap:butt;stroke-linejoin:miter;stroke-opacity:1" d="M 551.821,152.06 601.174,152.06 z" id="boundary" inkscape:connector-curvature="0" />
	<path style="fill:none;stroke:red;stroke-width:1px;stroke-linecap:butt;stroke-linejoin:miter;stroke-opacity:1" d="M 601.174,152.06 650.527,152.06 z" id="boundary" inkscape:connector-curvature="0" />
	<path style="fill:none;stroke:red;stroke-width:1px;stroke-linecap:butt;stroke-linejoin:miter;stroke-opacity:1" d="M 724.557,250.766 704.816,201.413 z" id="boundary" inkscape:connector-curvature="0" />
	<path style="fill:none;stroke:red;stroke-width:1px;stroke-linecap:butt;stroke-linejoin:miter;stroke-opacity:1" d="M 650.527,152.06 699.881,152.06 z" id="boundary" inkscape:connector-curvature="0" />
	<path style="fill:none;stroke:red;stroke-width:1px;stroke-linecap:butt;stroke-linejoin:miter;stroke-opacity:1" d="M 704.816,201.413 699.881,152.06 z" id="boundary" inkscape:connector-curvature="0" />
	<path style="fill:none;stroke:red;stroke-width:1px;stroke-linecap:butt;stroke-linejoin:miter;stroke-opacity:1" d="M 724.557,250.766 773.91,250.766 z" id="boundary" inkscape:connector-curvature="0" />
	<circle cx="4" cy="161.93" r="4" fill="#0" id="circle0"/>
	<circle cx="4" cy="211.284" r="4" fill="#0" id="circle1"/>
	<circle cx="4" cy="260.637" r="4" fill="#0" id="circle2"/>
	<circle cx="28.6766" cy="305.055" r="4" fill="#0" id="circle3"/>
	<circle cx="53.3532" cy="152.06" r="4" fill="#0" id="circle4"/>
	<circle cx="78.0299" cy="305.055" r="4" fill="#0" id="circle5"/>
	<circle cx="102.706" cy="152.06" r="4" fill="#0" id="circle6"/>
	<circle cx="127.383" cy="305.055" r="4" fill="#0" id="circle7"/>
	<circle cx="152.06" cy="152.06" r="4" fill="#0" id="circle8"/>
	<circle cx="176.736" cy="305.055" r="4" fill="#0" id="circle9"/>
	<circle cx="201.413" cy="161.93" r="4" fill="#0" id="circle10"/>
	<circle cx="201.413" cy="349.473" r="4" fill="#0" id="circle11"/>
	<circle cx="231.025" cy="388.955" r="4" fill="#0" id="circle12"/>
	<circle cx="250.766" cy="161.93" r="4" fill="#0" id="circle13"/>
	<circle cx="275.443" cy="413.632" r="4" fill="#0" id="circle14"/>
	<circle cx="300.119" cy="161.93" r="4" fill="#0" id="circle15"/>
	<circle cx="309.99" cy="941.711" r="4" fill="#0" id="circle16"/>
	<circle cx="309.99" cy="991.065" r="4" fill="#0" id="circle17"/>
	<circle cx="319.861" cy="63.2239" r="4" fill="#0" id="circle18"/>
	<circle cx="319.861" cy="112.577" r="4" fill="#0" id="circle19"/>
	<circle cx="324.796" cy="433.373" r="4" fill="#0" id="circle20"/>
	<circle cx="339.602" cy="4" r="4" fill="#0" id="circle21"/>
	<circle cx="339.602" cy="892.358" r="4" fill="#0" id="circle22"/>
	<circle cx="354.408" cy="152.06" r="4" fill="#0" id="circle23"/>
	<circle cx="359.343" cy="472.856" r="4" fill="#0" id="circle24"/>
	<circle cx="359.343" cy="522.209" r="4" fill="#0" id="circle25"/>
	<circle cx="359.343" cy="571.562" r="4" fill="#0" id="circle26"/>
	<circle cx="359.343" cy="620.915" r="4" fill="#0" id="circle27"/>
	<circle cx="359.343" cy="670.269" r="4" fill="#0" id="circle28"/>
	<circle cx="359.343" cy="719.622" r="4" fill="#0" id="circle29"/>
	<circle cx="359.343" cy="768.975" r="4" fill="#0" id="circle30"/>
	<circle cx="359.343" cy="818.328" r="4" fill="#0" id="circle31"/>
	<circle cx="359.343" cy="996" r="4" fill="#0" id="circle32"/>
	<circle cx="384.02" cy="28.6766" r="4" fill="#0" id="circle33"/>
	<circle cx="398.826" cy="78.0299" r="4" fill="#0" id="circle34"/>
	<circle cx="403.761" cy="161.93" r="4" fill="#0" id="circle35"/>
	<circle cx="408.697" cy="996" r="4" fill="#0" id="circle36"/>
	<circle cx="453.114" cy="161.93" r="4" fill="#0" id="circle37"/>
	<circle cx="458.05" cy="996" r="4" fill="#0" id="circle38"/>
	<circle cx="502.468" cy="152.06" r="4" fill="#0" id="circle39"/>
	<circle cx="507.403" cy="996" r="4" fill="#0" id="circle40"/>
	<circle cx="541.95" cy="428.438" r="4" fill="#0" id="circle41"/>
	<circle cx="541.95" cy="477.791" r="4" fill="#0" id="circle42"/>
	<circle cx="541.95" cy="527.144" r="4" fill="#0" id="circle43"/>
	<circle cx="541.95" cy="576.498" r="4" fill="#0" id="circle44"/>
	<circle cx="541.95" cy="625.851" r="4" fill="#0" id="circle45"/>
	<circle cx="541.95" cy="675.204" r="4" fill="#0" id="circle46"/>
	<circle cx="541.95" cy="724.557" r="4" fill="#0" id="circle47"/>
	<circle cx="541.95" cy="773.91" r="4" fill="#0" id="circle48"/>
	<circle cx="541.95" cy="823.264" r="4" fill="#0" id="circle49"/>
	<circle cx="541.95" cy="872.617" r="4" fill="#0" id="circle50"/>
	<circle cx="551.821" cy="152.06" r="4" fill="#0" id="circle51"/>
	<circle cx="556.756" cy="996" r="4" fill="#0" id="circle52"/>
	<circle cx="561.692" cy="921.97" r="4" fill="#0" id="circle53"/>
	<circle cx="586.368" cy="403.761" r="4" fill="#0" id="circle54"/>
	<circle cx="601.174" cy="152.06" r="4" fill="#0" id="circle55"/>
	<circle cx="625.851" cy="364.279" r="4" fill="#0" id="circle56"/>
	<circle cx="650.527" cy="152.06" r="4" fill="#0" id="circle57"/>
	<circle cx="655.463" cy="324.796" r="4" fill="#0" id="circle58"/>
	<circle cx="699.881" cy="152.06" r="4" fill="#0" id="circle59"/>
	<circle cx="704.816" cy="201.413" r="4" fill="#0" id="circle60"/>
	<circle cx="704.816" cy="305.055" r="4" fill="#0" id="circle61"/>
	<circle cx="724.557" cy="250.766" r="4" fill="#0" id="circle62"/>
	<circle cx="754.169" cy="305.055" r="4" fill="#0" id="circle63"/>
	<circle cx="773.91" cy="250.766" r="4" fill="#0" id="circle64"/>
	<circle cx="803.522" cy="305.055" r="4" fill="#0" id="circle65"/>
	</g>
</svg>