<?xml version="1.0" encoding="UTF-8" standalone="no"?>
<!-- Created with CurveBenchmark -->
<svg
	xmlns:dc="http://purl.org/dc/elements/1.1/"
	xmlns:cc="http://creativecommons.org/ns#"
	xmlns:rdf="http://www.w3.org/1999/02/22-rdf-syntax-ns#"
	xmlns:svg="http://www.w3.org/2000/svg"
	xmlns="http://www.w3.org/2000/svg"
	xmlns:sodipodi="http://sodipodi.sourceforge.net/DTD/sodipodi-0.dtd"
	xmlns:inkscape="http://www.inkscape.org/namespaces/inkscape"
	width="1000"
	height="1000"
	id="svg2"
	version="1.1"
	sodipodi:docname="manifold/peel-bird37.png.txt">
<defs
	id="defs4" />
<metadata
	id="metadata7">
	<rdf:RDF>
		<cc:Work
			rdf:about="">
			<dc:format>image/svg+xml</dc:format>
			<dc:type
				rdf:resource="http://purl.org/dc/dcmitype/StillImage" />
			<dc:title></dc:title>
		</cc:Work>
	</rdf:RDF>
</metadata>
<g
	inkscape:label="Layer 1"
	inkscape:groupmode="layer"
	id="layer1">
	<path style="fill:none;stroke:red;stroke-width:1px;stroke-linecap:butt;stroke-linejoin:miter;stroke-opacity:1" d="M 18.8949,216.997 4,216.997 z" id="boundary" inkscape:connector-curvature="0" />
	<path style="fill:none;stroke:red;stroke-width:1px;stroke-linecap:butt;stroke-linejoin:miter;stroke-opacity:1" d="M 4,216.997 4,202.102 z" id="boundary" inkscape:connector-curvature="0" />
	<path style="fill:none;stroke:red;stroke-width:1px;stroke-linecap:butt;stroke-linejoin:miter;stroke-opacity:1" d="M 4,202.102 15.9159,190.186 z" id="boundary" inkscape:connector-curvature="0" />
	<path style="fill:none;stroke:red;stroke-width:1px;stroke-linecap:butt;stroke-linejoin:miter;stroke-opacity:1" d="M 272.108,266.15 272.108,251.255 z" id="boundary" inkscape:connector-curvature="0" />
	<path style="fill:none;stroke:red;stroke-width:1px;stroke-linecap:butt;stroke-linejoin:miter;stroke-opacity:1" d="M 272.108,251.255 264.661,237.85 z" id="boundary" inkscape:connector-curvature="0" />
	<path style="fill:none;stroke:red;stroke-width:1px;stroke-linecap:butt;stroke-linejoin:miter;stroke-opacity:1" d="M 27.8318,178.27 15.9159,190.186 z" id="boundary" inkscape:connector-curvature="0" />
	<path style="fill:none;stroke:red;stroke-width:1px;stroke-linecap:butt;stroke-linejoin:miter;stroke-opacity:1" d="M 30.8108,206.571 18.8949,216.997 z" id="boundary" inkscape:connector-curvature="0" />
	<path style="fill:none;stroke:red;stroke-width:1px;stroke-linecap:butt;stroke-linejoin:miter;stroke-opacity:1" d="M 39.7477,167.844 27.8318,178.27 z" id="boundary" inkscape:connector-curvature="0" />
	<path style="fill:none;stroke:red;stroke-width:1px;stroke-linecap:butt;stroke-linejoin:miter;stroke-opacity:1" d="M 160.396,117.201 146.991,124.649 z" id="boundary" inkscape:connector-curvature="0" />
	<path style="fill:none;stroke:red;stroke-width:1px;stroke-linecap:butt;stroke-linejoin:miter;stroke-opacity:1" d="M 42.7267,191.676 30.8108,206.571 z" id="boundary" inkscape:connector-curvature="0" />
	<path style="fill:none;stroke:red;stroke-width:1px;stroke-linecap:butt;stroke-linejoin:miter;stroke-opacity:1" d="M 50.1742,155.928 39.7477,167.844 z" id="boundary" inkscape:connector-curvature="0" />
	<path style="fill:none;stroke:red;stroke-width:1px;stroke-linecap:butt;stroke-linejoin:miter;stroke-opacity:1" d="M 54.6426,181.249 42.7267,191.676 z" id="boundary" inkscape:connector-curvature="0" />
	<path style="fill:none;stroke:red;stroke-width:1px;stroke-linecap:butt;stroke-linejoin:miter;stroke-opacity:1" d="M 62.0901,145.502 50.1742,155.928 z" id="boundary" inkscape:connector-curvature="0" />
	<path style="fill:none;stroke:red;stroke-width:1px;stroke-linecap:butt;stroke-linejoin:miter;stroke-opacity:1" d="M 257.213,194.655 257.213,209.55 z" id="boundary" inkscape:connector-curvature="0" />
	<path style="fill:none;stroke:red;stroke-width:1px;stroke-linecap:butt;stroke-linejoin:miter;stroke-opacity:1" d="M 65.0691,169.333 54.6426,181.249 z" id="boundary" inkscape:connector-curvature="0" />
	<path style="fill:none;stroke:red;stroke-width:1px;stroke-linecap:butt;stroke-linejoin:miter;stroke-opacity:1" d="M 75.4955,138.054 62.0901,145.502 z" id="boundary" inkscape:connector-curvature="0" />
	<path style="fill:none;stroke:red;stroke-width:1px;stroke-linecap:butt;stroke-linejoin:miter;stroke-opacity:1" d="M 79.964,161.886 65.0691,169.333 z" id="boundary" inkscape:connector-curvature="0" />
	<path style="fill:none;stroke:red;stroke-width:1px;stroke-linecap:butt;stroke-linejoin:miter;stroke-opacity:1" d="M 212.529,38.2583 206.571,59.1111 z" id="boundary" inkscape:connector-curvature="0" />
	<path style="fill:none;stroke:red;stroke-width:1px;stroke-linecap:butt;stroke-linejoin:miter;stroke-opacity:1" d="M 88.9009,130.607 75.4955,138.054 z" id="boundary" inkscape:connector-curvature="0" />
	<path style="fill:none;stroke:red;stroke-width:1px;stroke-linecap:butt;stroke-linejoin:miter;stroke-opacity:1" d="M 146.991,124.649 132.096,124.649 z" id="boundary" inkscape:connector-curvature="0" />
	<path style="fill:none;stroke:red;stroke-width:1px;stroke-linecap:butt;stroke-linejoin:miter;stroke-opacity:1" d="M 132.096,124.649 117.201,132.096 z" id="boundary" inkscape:connector-curvature="0" />
	<path style="fill:none;stroke:red;stroke-width:1px;stroke-linecap:butt;stroke-linejoin:miter;stroke-opacity:1" d="M 91.8799,151.459 79.964,161.886 z" id="boundary" inkscape:connector-curvature="0" />
	<path style="fill:none;stroke:red;stroke-width:1px;stroke-linecap:butt;stroke-linejoin:miter;stroke-opacity:1" d="M 102.306,123.159 88.9009,130.607 z" id="boundary" inkscape:connector-curvature="0" />
	<path style="fill:none;stroke:red;stroke-width:1px;stroke-linecap:butt;stroke-linejoin:miter;stroke-opacity:1" d="M 102.306,139.544 91.8799,151.459 z" id="boundary" inkscape:connector-curvature="0" />
	<path style="fill:none;stroke:red;stroke-width:1px;stroke-linecap:butt;stroke-linejoin:miter;stroke-opacity:1" d="M 115.712,115.712 102.306,123.159 z" id="boundary" inkscape:connector-curvature="0" />
	<path style="fill:none;stroke:red;stroke-width:1px;stroke-linecap:butt;stroke-linejoin:miter;stroke-opacity:1" d="M 129.117,108.264 115.712,115.712 z" id="boundary" inkscape:connector-curvature="0" />
	<path style="fill:none;stroke:red;stroke-width:1px;stroke-linecap:butt;stroke-linejoin:miter;stroke-opacity:1" d="M 190.186,105.285 175.291,112.733 z" id="boundary" inkscape:connector-curvature="0" />
	<path style="fill:none;stroke:red;stroke-width:1px;stroke-linecap:butt;stroke-linejoin:miter;stroke-opacity:1" d="M 142.523,100.817 129.117,108.264 z" id="boundary" inkscape:connector-curvature="0" />
	<path style="fill:none;stroke:red;stroke-width:1px;stroke-linecap:butt;stroke-linejoin:miter;stroke-opacity:1" d="M 257.213,164.865 257.213,179.76 z" id="boundary" inkscape:connector-curvature="0" />
	<path style="fill:none;stroke:red;stroke-width:1px;stroke-linecap:butt;stroke-linejoin:miter;stroke-opacity:1" d="M 157.417,93.3694 142.523,100.817 z" id="boundary" inkscape:connector-curvature="0" />
	<path style="fill:none;stroke:red;stroke-width:1px;stroke-linecap:butt;stroke-linejoin:miter;stroke-opacity:1" d="M 172.312,93.3694 157.417,93.3694 z" id="boundary" inkscape:connector-curvature="0" />
	<path style="fill:none;stroke:red;stroke-width:1px;stroke-linecap:butt;stroke-linejoin:miter;stroke-opacity:1" d="M 233.381,109.754 219.976,102.306 z" id="boundary" inkscape:connector-curvature="0" />
	<path style="fill:none;stroke:red;stroke-width:1px;stroke-linecap:butt;stroke-linejoin:miter;stroke-opacity:1" d="M 219.976,102.306 205.081,102.306 z" id="boundary" inkscape:connector-curvature="0" />
	<path style="fill:none;stroke:red;stroke-width:1px;stroke-linecap:butt;stroke-linejoin:miter;stroke-opacity:1" d="M 175.291,112.733 160.396,117.201 z" id="boundary" inkscape:connector-curvature="0" />
	<path style="fill:none;stroke:red;stroke-width:1px;stroke-linecap:butt;stroke-linejoin:miter;stroke-opacity:1" d="M 184.228,81.4535 172.312,93.3694 z" id="boundary" inkscape:connector-curvature="0" />
	<path style="fill:none;stroke:red;stroke-width:1px;stroke-linecap:butt;stroke-linejoin:miter;stroke-opacity:1" d="M 190.186,105.285 205.081,102.306 z" id="boundary" inkscape:connector-curvature="0" />
	<path style="fill:none;stroke:red;stroke-width:1px;stroke-linecap:butt;stroke-linejoin:miter;stroke-opacity:1" d="M 199.123,74.006 184.228,81.4535 z" id="boundary" inkscape:connector-curvature="0" />
	<path style="fill:none;stroke:red;stroke-width:1px;stroke-linecap:butt;stroke-linejoin:miter;stroke-opacity:1" d="M 246.787,117.201 233.381,109.754 z" id="boundary" inkscape:connector-curvature="0" />
	<path style="fill:none;stroke:red;stroke-width:1px;stroke-linecap:butt;stroke-linejoin:miter;stroke-opacity:1" d="M 206.571,59.1111 199.123,74.006 z" id="boundary" inkscape:connector-curvature="0" />
	<path style="fill:none;stroke:red;stroke-width:1px;stroke-linecap:butt;stroke-linejoin:miter;stroke-opacity:1" d="M 231.892,11.4474 219.976,23.3634 z" id="boundary" inkscape:connector-curvature="0" />
	<path style="fill:none;stroke:red;stroke-width:1px;stroke-linecap:butt;stroke-linejoin:miter;stroke-opacity:1" d="M 219.976,23.3634 212.529,38.2583 z" id="boundary" inkscape:connector-curvature="0" />
	<path style="fill:none;stroke:red;stroke-width:1px;stroke-linecap:butt;stroke-linejoin:miter;stroke-opacity:1" d="M 231.892,11.4474 245.297,4 z" id="boundary" inkscape:connector-curvature="0" />
	<path style="fill:none;stroke:red;stroke-width:1px;stroke-linecap:butt;stroke-linejoin:miter;stroke-opacity:1" d="M 245.297,4 260.192,4 z" id="boundary" inkscape:connector-curvature="0" />
	<path style="fill:none;stroke:red;stroke-width:1px;stroke-linecap:butt;stroke-linejoin:miter;stroke-opacity:1" d="M 257.213,179.76 257.213,194.655 z" id="boundary" inkscape:connector-curvature="0" />
	<path style="fill:none;stroke:red;stroke-width:1px;stroke-linecap:butt;stroke-linejoin:miter;stroke-opacity:1" d="M 260.192,4 275.087,4 z" id="boundary" inkscape:connector-curvature="0" />
	<path style="fill:none;stroke:red;stroke-width:1px;stroke-linecap:butt;stroke-linejoin:miter;stroke-opacity:1" d="M 246.787,117.201 258.703,127.628 z" id="boundary" inkscape:connector-curvature="0" />
	<path style="fill:none;stroke:red;stroke-width:1px;stroke-linecap:butt;stroke-linejoin:miter;stroke-opacity:1" d="M 264.661,237.85 264.661,222.955 z" id="boundary" inkscape:connector-curvature="0" />
	<path style="fill:none;stroke:red;stroke-width:1px;stroke-linecap:butt;stroke-linejoin:miter;stroke-opacity:1" d="M 264.661,222.955 257.213,209.55 z" id="boundary" inkscape:connector-curvature="0" />
	<path style="fill:none;stroke:red;stroke-width:1px;stroke-linecap:butt;stroke-linejoin:miter;stroke-opacity:1" d="M 257.213,164.865 264.661,142.523 z" id="boundary" inkscape:connector-curvature="0" />
	<path style="fill:none;stroke:red;stroke-width:1px;stroke-linecap:butt;stroke-linejoin:miter;stroke-opacity:1" d="M 264.661,142.523 258.703,127.628 z" id="boundary" inkscape:connector-curvature="0" />
	<path style="fill:none;stroke:red;stroke-width:1px;stroke-linecap:butt;stroke-linejoin:miter;stroke-opacity:1" d="M 354.03,97.8378 355.52,112.733 z" id="boundary" inkscape:connector-curvature="0" />
	<path style="fill:none;stroke:red;stroke-width:1px;stroke-linecap:butt;stroke-linejoin:miter;stroke-opacity:1" d="M 355.52,127.628 362.967,141.033 z" id="boundary" inkscape:connector-curvature="0" />
	<path style="fill:none;stroke:red;stroke-width:1px;stroke-linecap:butt;stroke-linejoin:miter;stroke-opacity:1" d="M 362.967,141.033 362.967,155.928 z" id="boundary" inkscape:connector-curvature="0" />
	<path style="fill:none;stroke:red;stroke-width:1px;stroke-linecap:butt;stroke-linejoin:miter;stroke-opacity:1" d="M 275.087,4 289.982,4 z" id="boundary" inkscape:connector-curvature="0" />
	<path style="fill:none;stroke:red;stroke-width:1px;stroke-linecap:butt;stroke-linejoin:miter;stroke-opacity:1" d="M 289.982,4 303.387,11.4474 z" id="boundary" inkscape:connector-curvature="0" />
	<path style="fill:none;stroke:red;stroke-width:1px;stroke-linecap:butt;stroke-linejoin:miter;stroke-opacity:1" d="M 316.793,18.8949 303.387,11.4474 z" id="boundary" inkscape:connector-curvature="0" />
	<path style="fill:none;stroke:red;stroke-width:1px;stroke-linecap:butt;stroke-linejoin:miter;stroke-opacity:1" d="M 272.108,266.15 279.556,279.556 z" id="boundary" inkscape:connector-curvature="0" />
	<path style="fill:none;stroke:red;stroke-width:1px;stroke-linecap:butt;stroke-linejoin:miter;stroke-opacity:1" d="M 279.556,279.556 279.556,294.45 z" id="boundary" inkscape:connector-curvature="0" />
	<path style="fill:none;stroke:red;stroke-width:1px;stroke-linecap:butt;stroke-linejoin:miter;stroke-opacity:1" d="M 328.709,27.8318 316.793,18.8949 z" id="boundary" inkscape:connector-curvature="0" />
	<path style="fill:none;stroke:red;stroke-width:1px;stroke-linecap:butt;stroke-linejoin:miter;stroke-opacity:1" d="M 279.556,294.45 288.492,306.366 z" id="boundary" inkscape:connector-curvature="0" />
	<path style="fill:none;stroke:red;stroke-width:1px;stroke-linecap:butt;stroke-linejoin:miter;stroke-opacity:1" d="M 288.492,306.366 294.45,321.261 z" id="boundary" inkscape:connector-curvature="0" />
	<path style="fill:none;stroke:red;stroke-width:1px;stroke-linecap:butt;stroke-linejoin:miter;stroke-opacity:1" d="M 348.072,82.9429 346.583,68.048 z" id="boundary" inkscape:connector-curvature="0" />
	<path style="fill:none;stroke:red;stroke-width:1px;stroke-linecap:butt;stroke-linejoin:miter;stroke-opacity:1" d="M 346.583,68.048 340.625,53.1532 z" id="boundary" inkscape:connector-curvature="0" />
	<path style="fill:none;stroke:red;stroke-width:1px;stroke-linecap:butt;stroke-linejoin:miter;stroke-opacity:1" d="M 294.45,321.261 301.898,334.667 z" id="boundary" inkscape:connector-curvature="0" />
	<path style="fill:none;stroke:red;stroke-width:1px;stroke-linecap:butt;stroke-linejoin:miter;stroke-opacity:1" d="M 355.52,127.628 355.52,112.733 z" id="boundary" inkscape:connector-curvature="0" />
	<path style="fill:none;stroke:red;stroke-width:1px;stroke-linecap:butt;stroke-linejoin:miter;stroke-opacity:1" d="M 301.898,334.667 309.345,348.072 z" id="boundary" inkscape:connector-curvature="0" />
	<path style="fill:none;stroke:red;stroke-width:1px;stroke-linecap:butt;stroke-linejoin:miter;stroke-opacity:1" d="M 340.625,38.2583 340.625,53.1532 z" id="boundary" inkscape:connector-curvature="0" />
	<path style="fill:none;stroke:red;stroke-width:1px;stroke-linecap:butt;stroke-linejoin:miter;stroke-opacity:1" d="M 340.625,38.2583 328.709,27.8318 z" id="boundary" inkscape:connector-curvature="0" />
	<path style="fill:none;stroke:red;stroke-width:1px;stroke-linecap:butt;stroke-linejoin:miter;stroke-opacity:1" d="M 309.345,348.072 316.793,361.477 z" id="boundary" inkscape:connector-curvature="0" />
	<path style="fill:none;stroke:red;stroke-width:1px;stroke-linecap:butt;stroke-linejoin:miter;stroke-opacity:1" d="M 354.03,97.8378 348.072,82.9429 z" id="boundary" inkscape:connector-curvature="0" />
	<path style="fill:none;stroke:red;stroke-width:1px;stroke-linecap:butt;stroke-linejoin:miter;stroke-opacity:1" d="M 316.793,361.477 325.73,373.393 z" id="boundary" inkscape:connector-curvature="0" />
	<path style="fill:none;stroke:red;stroke-width:1px;stroke-linecap:butt;stroke-linejoin:miter;stroke-opacity:1" d="M 336.156,385.309 325.73,373.393 z" id="boundary" inkscape:connector-curvature="0" />
	<path style="fill:none;stroke:red;stroke-width:1px;stroke-linecap:butt;stroke-linejoin:miter;stroke-opacity:1" d="M 736.829,272.108 723.423,264.661 z" id="boundary" inkscape:connector-curvature="0" />
	<path style="fill:none;stroke:red;stroke-width:1px;stroke-linecap:butt;stroke-linejoin:miter;stroke-opacity:1" d="M 349.562,392.757 357.009,406.162 z" id="boundary" inkscape:connector-curvature="0" />
	<path style="fill:none;stroke:red;stroke-width:1px;stroke-linecap:butt;stroke-linejoin:miter;stroke-opacity:1" d="M 349.562,392.757 336.156,385.309 z" id="boundary" inkscape:connector-curvature="0" />
	<path style="fill:none;stroke:red;stroke-width:1px;stroke-linecap:butt;stroke-linejoin:miter;stroke-opacity:1" d="M 362.967,155.928 370.414,169.333 z" id="boundary" inkscape:connector-curvature="0" />
	<path style="fill:none;stroke:red;stroke-width:1px;stroke-linecap:butt;stroke-linejoin:miter;stroke-opacity:1" d="M 370.414,169.333 377.862,182.739 z" id="boundary" inkscape:connector-curvature="0" />
	<path style="fill:none;stroke:red;stroke-width:1px;stroke-linecap:butt;stroke-linejoin:miter;stroke-opacity:1" d="M 377.862,182.739 391.267,190.186 z" id="boundary" inkscape:connector-curvature="0" />
	<path style="fill:none;stroke:red;stroke-width:1px;stroke-linecap:butt;stroke-linejoin:miter;stroke-opacity:1" d="M 391.267,190.186 404.673,197.634 z" id="boundary" inkscape:connector-curvature="0" />
	<path style="fill:none;stroke:red;stroke-width:1px;stroke-linecap:butt;stroke-linejoin:miter;stroke-opacity:1" d="M 368.925,415.099 377.862,427.015 z" id="boundary" inkscape:connector-curvature="0" />
	<path style="fill:none;stroke:red;stroke-width:1px;stroke-linecap:butt;stroke-linejoin:miter;stroke-opacity:1" d="M 368.925,415.099 357.009,406.162 z" id="boundary" inkscape:connector-curvature="0" />
	<path style="fill:none;stroke:red;stroke-width:1px;stroke-linecap:butt;stroke-linejoin:miter;stroke-opacity:1" d="M 419.568,199.123 434.462,205.081 z" id="boundary" inkscape:connector-curvature="0" />
	<path style="fill:none;stroke:red;stroke-width:1px;stroke-linecap:butt;stroke-linejoin:miter;stroke-opacity:1" d="M 419.568,199.123 404.673,197.634 z" id="boundary" inkscape:connector-curvature="0" />
	<path style="fill:none;stroke:red;stroke-width:1px;stroke-linecap:butt;stroke-linejoin:miter;stroke-opacity:1" d="M 403.183,444.889 415.099,455.315 z" id="boundary" inkscape:connector-curvature="0" />
	<path style="fill:none;stroke:red;stroke-width:1px;stroke-linecap:butt;stroke-linejoin:miter;stroke-opacity:1" d="M 391.267,434.462 377.862,427.015 z" id="boundary" inkscape:connector-curvature="0" />
	<path style="fill:none;stroke:red;stroke-width:1px;stroke-linecap:butt;stroke-linejoin:miter;stroke-opacity:1" d="M 403.183,444.889 391.267,434.462 z" id="boundary" inkscape:connector-curvature="0" />
	<path style="fill:none;stroke:red;stroke-width:1px;stroke-linecap:butt;stroke-linejoin:miter;stroke-opacity:1" d="M 449.357,206.571 464.252,212.529 z" id="boundary" inkscape:connector-curvature="0" />
	<path style="fill:none;stroke:red;stroke-width:1px;stroke-linecap:butt;stroke-linejoin:miter;stroke-opacity:1" d="M 449.357,206.571 434.462,205.081 z" id="boundary" inkscape:connector-curvature="0" />
	<path style="fill:none;stroke:red;stroke-width:1px;stroke-linecap:butt;stroke-linejoin:miter;stroke-opacity:1" d="M 429.994,459.784 415.099,455.315 z" id="boundary" inkscape:connector-curvature="0" />
	<path style="fill:none;stroke:red;stroke-width:1px;stroke-linecap:butt;stroke-linejoin:miter;stroke-opacity:1" d="M 443.399,467.231 452.336,479.147 z" id="boundary" inkscape:connector-curvature="0" />
	<path style="fill:none;stroke:red;stroke-width:1px;stroke-linecap:butt;stroke-linejoin:miter;stroke-opacity:1" d="M 443.399,467.231 429.994,459.784 z" id="boundary" inkscape:connector-curvature="0" />
	<path style="fill:none;stroke:red;stroke-width:1px;stroke-linecap:butt;stroke-linejoin:miter;stroke-opacity:1" d="M 464.252,212.529 479.147,212.529 z" id="boundary" inkscape:connector-curvature="0" />
	<path style="fill:none;stroke:red;stroke-width:1px;stroke-linecap:butt;stroke-linejoin:miter;stroke-opacity:1" d="M 455.315,778.535 443.399,790.45 z" id="boundary" inkscape:connector-curvature="0" />
	<path style="fill:none;stroke:red;stroke-width:1px;stroke-linecap:butt;stroke-linejoin:miter;stroke-opacity:1" d="M 452.336,479.147 467.231,482.126 z" id="boundary" inkscape:connector-curvature="0" />
	<path style="fill:none;stroke:red;stroke-width:1px;stroke-linecap:butt;stroke-linejoin:miter;stroke-opacity:1" d="M 455.315,800.877 443.399,790.45 z" id="boundary" inkscape:connector-curvature="0" />
	<path style="fill:none;stroke:red;stroke-width:1px;stroke-linecap:butt;stroke-linejoin:miter;stroke-opacity:1" d="M 480.637,489.574 467.231,482.126 z" id="boundary" inkscape:connector-curvature="0" />
	<path style="fill:none;stroke:red;stroke-width:1px;stroke-linecap:butt;stroke-linejoin:miter;stroke-opacity:1" d="M 494.042,212.529 479.147,212.529 z" id="boundary" inkscape:connector-curvature="0" />
	<path style="fill:none;stroke:red;stroke-width:1px;stroke-linecap:butt;stroke-linejoin:miter;stroke-opacity:1" d="M 510.426,538.727 504.468,523.832 z" id="boundary" inkscape:connector-curvature="0" />
	<path style="fill:none;stroke:red;stroke-width:1px;stroke-linecap:butt;stroke-linejoin:miter;stroke-opacity:1" d="M 504.468,523.832 495.532,511.916 z" id="boundary" inkscape:connector-curvature="0" />
	<path style="fill:none;stroke:red;stroke-width:1px;stroke-linecap:butt;stroke-linejoin:miter;stroke-opacity:1" d="M 470.21,771.087 455.315,778.535 z" id="boundary" inkscape:connector-curvature="0" />
	<path style="fill:none;stroke:red;stroke-width:1px;stroke-linecap:butt;stroke-linejoin:miter;stroke-opacity:1" d="M 508.937,212.529 494.042,212.529 z" id="boundary" inkscape:connector-curvature="0" />
	<path style="fill:none;stroke:red;stroke-width:1px;stroke-linecap:butt;stroke-linejoin:miter;stroke-opacity:1" d="M 470.21,802.366 455.315,800.877 z" id="boundary" inkscape:connector-curvature="0" />
	<path style="fill:none;stroke:red;stroke-width:1px;stroke-linecap:butt;stroke-linejoin:miter;stroke-opacity:1" d="M 495.532,511.916 494.042,497.021 z" id="boundary" inkscape:connector-curvature="0" />
	<path style="fill:none;stroke:red;stroke-width:1px;stroke-linecap:butt;stroke-linejoin:miter;stroke-opacity:1" d="M 494.042,497.021 480.637,489.574 z" id="boundary" inkscape:connector-curvature="0" />
	<path style="fill:none;stroke:red;stroke-width:1px;stroke-linecap:butt;stroke-linejoin:miter;stroke-opacity:1" d="M 508.937,212.529 523.832,212.529 z" id="boundary" inkscape:connector-curvature="0" />
	<path style="fill:none;stroke:red;stroke-width:1px;stroke-linecap:butt;stroke-linejoin:miter;stroke-opacity:1" d="M 485.105,763.64 470.21,771.087 z" id="boundary" inkscape:connector-curvature="0" />
	<path style="fill:none;stroke:red;stroke-width:1px;stroke-linecap:butt;stroke-linejoin:miter;stroke-opacity:1" d="M 485.105,800.877 470.21,802.366 z" id="boundary" inkscape:connector-curvature="0" />
	<path style="fill:none;stroke:red;stroke-width:1px;stroke-linecap:butt;stroke-linejoin:miter;stroke-opacity:1" d="M 656.396,793.429 671.291,794.919 z" id="boundary" inkscape:connector-curvature="0" />
	<path style="fill:none;stroke:red;stroke-width:1px;stroke-linecap:butt;stroke-linejoin:miter;stroke-opacity:1" d="M 523.832,212.529 538.727,212.529 z" id="boundary" inkscape:connector-curvature="0" />
	<path style="fill:none;stroke:red;stroke-width:1px;stroke-linecap:butt;stroke-linejoin:miter;stroke-opacity:1" d="M 485.105,763.64 497.021,751.724 z" id="boundary" inkscape:connector-curvature="0" />
	<path style="fill:none;stroke:red;stroke-width:1px;stroke-linecap:butt;stroke-linejoin:miter;stroke-opacity:1" d="M 497.021,787.471 485.105,800.877 z" id="boundary" inkscape:connector-curvature="0" />
	<path style="fill:none;stroke:red;stroke-width:1px;stroke-linecap:butt;stroke-linejoin:miter;stroke-opacity:1" d="M 510.426,780.024 497.021,787.471 z" id="boundary" inkscape:connector-curvature="0" />
	<path style="fill:none;stroke:red;stroke-width:1px;stroke-linecap:butt;stroke-linejoin:miter;stroke-opacity:1" d="M 508.937,741.297 497.021,751.724 z" id="boundary" inkscape:connector-curvature="0" />
	<path style="fill:none;stroke:red;stroke-width:1px;stroke-linecap:butt;stroke-linejoin:miter;stroke-opacity:1" d="M 517.874,701.081 517.874,686.186 z" id="boundary" inkscape:connector-curvature="0" />
	<path style="fill:none;stroke:red;stroke-width:1px;stroke-linecap:butt;stroke-linejoin:miter;stroke-opacity:1" d="M 508.937,741.297 514.895,726.402 z" id="boundary" inkscape:connector-curvature="0" />
	<path style="fill:none;stroke:red;stroke-width:1px;stroke-linecap:butt;stroke-linejoin:miter;stroke-opacity:1" d="M 514.895,726.402 526.811,735.339 z" id="boundary" inkscape:connector-curvature="0" />
	<path style="fill:none;stroke:red;stroke-width:1px;stroke-linecap:butt;stroke-linejoin:miter;stroke-opacity:1" d="M 644.48,783.003 656.396,793.429 z" id="boundary" inkscape:connector-curvature="0" />
	<path style="fill:none;stroke:red;stroke-width:1px;stroke-linecap:butt;stroke-linejoin:miter;stroke-opacity:1" d="M 526.811,511.916 534.258,525.321 z" id="boundary" inkscape:connector-curvature="0" />
	<path style="fill:none;stroke:red;stroke-width:1px;stroke-linecap:butt;stroke-linejoin:miter;stroke-opacity:1" d="M 525.321,648.949 525.321,663.844 z" id="boundary" inkscape:connector-curvature="0" />
	<path style="fill:none;stroke:red;stroke-width:1px;stroke-linecap:butt;stroke-linejoin:miter;stroke-opacity:1" d="M 519.363,765.129 510.426,780.024 z" id="boundary" inkscape:connector-curvature="0" />
	<path style="fill:none;stroke:red;stroke-width:1px;stroke-linecap:butt;stroke-linejoin:miter;stroke-opacity:1" d="M 510.426,538.727 522.342,549.153 z" id="boundary" inkscape:connector-curvature="0" />
	<path style="fill:none;stroke:red;stroke-width:1px;stroke-linecap:butt;stroke-linejoin:miter;stroke-opacity:1" d="M 522.342,549.153 529.79,562.559 z" id="boundary" inkscape:connector-curvature="0" />
	<path style="fill:none;stroke:red;stroke-width:1px;stroke-linecap:butt;stroke-linejoin:miter;stroke-opacity:1" d="M 525.321,663.844 541.706,675.76 z" id="boundary" inkscape:connector-curvature="0" />
	<path style="fill:none;stroke:red;stroke-width:1px;stroke-linecap:butt;stroke-linejoin:miter;stroke-opacity:1" d="M 517.874,701.081 534.258,698.102 z" id="boundary" inkscape:connector-curvature="0" />
	<path style="fill:none;stroke:red;stroke-width:1px;stroke-linecap:butt;stroke-linejoin:miter;stroke-opacity:1" d="M 529.79,562.559 532.769,577.453 z" id="boundary" inkscape:connector-curvature="0" />
	<path style="fill:none;stroke:red;stroke-width:1px;stroke-linecap:butt;stroke-linejoin:miter;stroke-opacity:1" d="M 526.811,735.339 526.811,750.234 z" id="boundary" inkscape:connector-curvature="0" />
	<path style="fill:none;stroke:red;stroke-width:1px;stroke-linecap:butt;stroke-linejoin:miter;stroke-opacity:1" d="M 535.748,592.348 532.769,577.453 z" id="boundary" inkscape:connector-curvature="0" />
	<path style="fill:none;stroke:red;stroke-width:1px;stroke-linecap:butt;stroke-linejoin:miter;stroke-opacity:1" d="M 526.811,750.234 519.363,765.129 z" id="boundary" inkscape:connector-curvature="0" />
	<path style="fill:none;stroke:red;stroke-width:1px;stroke-linecap:butt;stroke-linejoin:miter;stroke-opacity:1" d="M 525.321,648.949 532.769,634.054 z" id="boundary" inkscape:connector-curvature="0" />
	<path style="fill:none;stroke:red;stroke-width:1px;stroke-linecap:butt;stroke-linejoin:miter;stroke-opacity:1" d="M 681.718,668.312 681.718,683.207 z" id="boundary" inkscape:connector-curvature="0" />
	<path style="fill:none;stroke:red;stroke-width:1px;stroke-linecap:butt;stroke-linejoin:miter;stroke-opacity:1" d="M 541.706,538.727 534.258,525.321 z" id="boundary" inkscape:connector-curvature="0" />
	<path style="fill:none;stroke:red;stroke-width:1px;stroke-linecap:butt;stroke-linejoin:miter;stroke-opacity:1" d="M 540.216,504.468 555.111,504.468 z" id="boundary" inkscape:connector-curvature="0" />
	<path style="fill:none;stroke:red;stroke-width:1px;stroke-linecap:butt;stroke-linejoin:miter;stroke-opacity:1" d="M 534.258,698.102 529.79,718.955 z" id="boundary" inkscape:connector-curvature="0" />
	<path style="fill:none;stroke:red;stroke-width:1px;stroke-linecap:butt;stroke-linejoin:miter;stroke-opacity:1" d="M 535.748,592.348 540.216,607.243 z" id="boundary" inkscape:connector-curvature="0" />
	<path style="fill:none;stroke:red;stroke-width:1px;stroke-linecap:butt;stroke-linejoin:miter;stroke-opacity:1" d="M 681.718,712.997 681.718,698.102 z" id="boundary" inkscape:connector-curvature="0" />
	<path style="fill:none;stroke:red;stroke-width:1px;stroke-linecap:butt;stroke-linejoin:miter;stroke-opacity:1" d="M 526.811,511.916 540.216,504.468 z" id="boundary" inkscape:connector-curvature="0" />
	<path style="fill:none;stroke:red;stroke-width:1px;stroke-linecap:butt;stroke-linejoin:miter;stroke-opacity:1" d="M 555.111,567.027 549.153,552.132 z" id="boundary" inkscape:connector-curvature="0" />
	<path style="fill:none;stroke:red;stroke-width:1px;stroke-linecap:butt;stroke-linejoin:miter;stroke-opacity:1" d="M 549.153,552.132 541.706,538.727 z" id="boundary" inkscape:connector-curvature="0" />
	<path style="fill:none;stroke:red;stroke-width:1px;stroke-linecap:butt;stroke-linejoin:miter;stroke-opacity:1" d="M 538.727,212.529 553.622,212.529 z" id="boundary" inkscape:connector-curvature="0" />
	<path style="fill:none;stroke:red;stroke-width:1px;stroke-linecap:butt;stroke-linejoin:miter;stroke-opacity:1" d="M 556.601,581.922 555.111,567.027 z" id="boundary" inkscape:connector-curvature="0" />
	<path style="fill:none;stroke:red;stroke-width:1px;stroke-linecap:butt;stroke-linejoin:miter;stroke-opacity:1" d="M 549.153,660.865 541.706,675.76 z" id="boundary" inkscape:connector-curvature="0" />
	<path style="fill:none;stroke:red;stroke-width:1px;stroke-linecap:butt;stroke-linejoin:miter;stroke-opacity:1" d="M 555.111,504.468 568.517,511.916 z" id="boundary" inkscape:connector-curvature="0" />
	<path style="fill:none;stroke:red;stroke-width:1px;stroke-linecap:butt;stroke-linejoin:miter;stroke-opacity:1" d="M 564.048,610.222 564.048,625.117 z" id="boundary" inkscape:connector-curvature="0" />
	<path style="fill:none;stroke:red;stroke-width:1px;stroke-linecap:butt;stroke-linejoin:miter;stroke-opacity:1" d="M 553.622,212.529 568.517,212.529 z" id="boundary" inkscape:connector-curvature="0" />
	<path style="fill:none;stroke:red;stroke-width:1px;stroke-linecap:butt;stroke-linejoin:miter;stroke-opacity:1" d="M 556.601,581.922 564.048,595.327 z" id="boundary" inkscape:connector-curvature="0" />
	<path style="fill:none;stroke:red;stroke-width:1px;stroke-linecap:butt;stroke-linejoin:miter;stroke-opacity:1" d="M 568.517,511.916 583.411,511.916 z" id="boundary" inkscape:connector-curvature="0" />
	<path style="fill:none;stroke:red;stroke-width:1px;stroke-linecap:butt;stroke-linejoin:miter;stroke-opacity:1" d="M 568.517,212.529 581.922,219.976 z" id="boundary" inkscape:connector-curvature="0" />
	<path style="fill:none;stroke:red;stroke-width:1px;stroke-linecap:butt;stroke-linejoin:miter;stroke-opacity:1" d="M 556.601,638.523 549.153,660.865 z" id="boundary" inkscape:connector-curvature="0" />
	<path style="fill:none;stroke:red;stroke-width:1px;stroke-linecap:butt;stroke-linejoin:miter;stroke-opacity:1" d="M 564.048,595.327 564.048,610.222 z" id="boundary" inkscape:connector-curvature="0" />
	<path style="fill:none;stroke:red;stroke-width:1px;stroke-linecap:butt;stroke-linejoin:miter;stroke-opacity:1" d="M 564.048,625.117 556.601,638.523 z" id="boundary" inkscape:connector-curvature="0" />
	<path style="fill:none;stroke:red;stroke-width:1px;stroke-linecap:butt;stroke-linejoin:miter;stroke-opacity:1" d="M 598.306,511.916 583.411,511.916 z" id="boundary" inkscape:connector-curvature="0" />
	<path style="fill:none;stroke:red;stroke-width:1px;stroke-linecap:butt;stroke-linejoin:miter;stroke-opacity:1" d="M 613.201,511.916 598.306,511.916 z" id="boundary" inkscape:connector-curvature="0" />
	<path style="fill:none;stroke:red;stroke-width:1px;stroke-linecap:butt;stroke-linejoin:miter;stroke-opacity:1" d="M 581.922,219.976 596.817,219.976 z" id="boundary" inkscape:connector-curvature="0" />
	<path style="fill:none;stroke:red;stroke-width:1px;stroke-linecap:butt;stroke-linejoin:miter;stroke-opacity:1" d="M 640.012,227.423 653.417,234.871 z" id="boundary" inkscape:connector-curvature="0" />
	<path style="fill:none;stroke:red;stroke-width:1px;stroke-linecap:butt;stroke-linejoin:miter;stroke-opacity:1" d="M 641.502,519.363 628.096,511.916 z" id="boundary" inkscape:connector-curvature="0" />
	<path style="fill:none;stroke:red;stroke-width:1px;stroke-linecap:butt;stroke-linejoin:miter;stroke-opacity:1" d="M 628.096,511.916 613.201,511.916 z" id="boundary" inkscape:connector-curvature="0" />
	<path style="fill:none;stroke:red;stroke-width:1px;stroke-linecap:butt;stroke-linejoin:miter;stroke-opacity:1" d="M 611.712,219.976 596.817,219.976 z" id="boundary" inkscape:connector-curvature="0" />
	<path style="fill:none;stroke:red;stroke-width:1px;stroke-linecap:butt;stroke-linejoin:miter;stroke-opacity:1" d="M 656.396,525.321 666.823,537.237 z" id="boundary" inkscape:connector-curvature="0" />
	<path style="fill:none;stroke:red;stroke-width:1px;stroke-linecap:butt;stroke-linejoin:miter;stroke-opacity:1" d="M 656.396,525.321 641.502,519.363 z" id="boundary" inkscape:connector-curvature="0" />
	<path style="fill:none;stroke:red;stroke-width:1px;stroke-linecap:butt;stroke-linejoin:miter;stroke-opacity:1" d="M 626.607,219.976 640.012,227.423 z" id="boundary" inkscape:connector-curvature="0" />
	<path style="fill:none;stroke:red;stroke-width:1px;stroke-linecap:butt;stroke-linejoin:miter;stroke-opacity:1" d="M 626.607,219.976 611.712,219.976 z" id="boundary" inkscape:connector-curvature="0" />
	<path style="fill:none;stroke:red;stroke-width:1px;stroke-linecap:butt;stroke-linejoin:miter;stroke-opacity:1" d="M 666.823,537.237 674.27,550.643 z" id="boundary" inkscape:connector-curvature="0" />
	<path style="fill:none;stroke:red;stroke-width:1px;stroke-linecap:butt;stroke-linejoin:miter;stroke-opacity:1" d="M 674.27,550.643 674.27,565.538 z" id="boundary" inkscape:connector-curvature="0" />
	<path style="fill:none;stroke:red;stroke-width:1px;stroke-linecap:butt;stroke-linejoin:miter;stroke-opacity:1" d="M 674.27,625.117 674.27,610.222 z" id="boundary" inkscape:connector-curvature="0" />
	<path style="fill:none;stroke:red;stroke-width:1px;stroke-linecap:butt;stroke-linejoin:miter;stroke-opacity:1" d="M 668.312,239.339 653.417,234.871 z" id="boundary" inkscape:connector-curvature="0" />
	<path style="fill:none;stroke:red;stroke-width:1px;stroke-linecap:butt;stroke-linejoin:miter;stroke-opacity:1" d="M 656.396,771.087 644.48,783.003 z" id="boundary" inkscape:connector-curvature="0" />
	<path style="fill:none;stroke:red;stroke-width:1px;stroke-linecap:butt;stroke-linejoin:miter;stroke-opacity:1" d="M 674.27,580.432 674.27,565.538 z" id="boundary" inkscape:connector-curvature="0" />
	<path style="fill:none;stroke:red;stroke-width:1px;stroke-linecap:butt;stroke-linejoin:miter;stroke-opacity:1" d="M 681.718,653.417 681.718,668.312 z" id="boundary" inkscape:connector-curvature="0" />
	<path style="fill:none;stroke:red;stroke-width:1px;stroke-linecap:butt;stroke-linejoin:miter;stroke-opacity:1" d="M 695.123,251.255 683.207,242.318 z" id="boundary" inkscape:connector-curvature="0" />
	<path style="fill:none;stroke:red;stroke-width:1px;stroke-linecap:butt;stroke-linejoin:miter;stroke-opacity:1" d="M 683.207,242.318 668.312,239.339 z" id="boundary" inkscape:connector-curvature="0" />
	<path style="fill:none;stroke:red;stroke-width:1px;stroke-linecap:butt;stroke-linejoin:miter;stroke-opacity:1" d="M 671.291,763.64 656.396,771.087 z" id="boundary" inkscape:connector-curvature="0" />
	<path style="fill:none;stroke:red;stroke-width:1px;stroke-linecap:butt;stroke-linejoin:miter;stroke-opacity:1" d="M 686.186,794.919 671.291,794.919 z" id="boundary" inkscape:connector-curvature="0" />
	<path style="fill:none;stroke:red;stroke-width:1px;stroke-linecap:butt;stroke-linejoin:miter;stroke-opacity:1" d="M 674.27,580.432 674.27,595.327 z" id="boundary" inkscape:connector-curvature="0" />
	<path style="fill:none;stroke:red;stroke-width:1px;stroke-linecap:butt;stroke-linejoin:miter;stroke-opacity:1" d="M 674.27,610.222 674.27,595.327 z" id="boundary" inkscape:connector-curvature="0" />
	<path style="fill:none;stroke:red;stroke-width:1px;stroke-linecap:butt;stroke-linejoin:miter;stroke-opacity:1" d="M 683.207,519.363 683.207,504.468 z" id="boundary" inkscape:connector-curvature="0" />
	<path style="fill:none;stroke:red;stroke-width:1px;stroke-linecap:butt;stroke-linejoin:miter;stroke-opacity:1" d="M 695.123,528.3 683.207,519.363 z" id="boundary" inkscape:connector-curvature="0" />
	<path style="fill:none;stroke:red;stroke-width:1px;stroke-linecap:butt;stroke-linejoin:miter;stroke-opacity:1" d="M 681.718,638.523 681.718,653.417 z" id="boundary" inkscape:connector-curvature="0" />
	<path style="fill:none;stroke:red;stroke-width:1px;stroke-linecap:butt;stroke-linejoin:miter;stroke-opacity:1" d="M 681.718,638.523 674.27,625.117 z" id="boundary" inkscape:connector-curvature="0" />
	<path style="fill:none;stroke:red;stroke-width:1px;stroke-linecap:butt;stroke-linejoin:miter;stroke-opacity:1" d="M 681.718,683.207 681.718,698.102 z" id="boundary" inkscape:connector-curvature="0" />
	<path style="fill:none;stroke:red;stroke-width:1px;stroke-linecap:butt;stroke-linejoin:miter;stroke-opacity:1" d="M 698.102,617.67 698.102,602.775 z" id="boundary" inkscape:connector-curvature="0" />
	<path style="fill:none;stroke:red;stroke-width:1px;stroke-linecap:butt;stroke-linejoin:miter;stroke-opacity:1" d="M 698.102,543.195 695.123,528.3 z" id="boundary" inkscape:connector-curvature="0" />
	<path style="fill:none;stroke:red;stroke-width:1px;stroke-linecap:butt;stroke-linejoin:miter;stroke-opacity:1" d="M 698.102,558.09 698.102,543.195 z" id="boundary" inkscape:connector-curvature="0" />
	<path style="fill:none;stroke:red;stroke-width:1px;stroke-linecap:butt;stroke-linejoin:miter;stroke-opacity:1" d="M 681.718,727.892 681.718,712.997 z" id="boundary" inkscape:connector-curvature="0" />
	<path style="fill:none;stroke:red;stroke-width:1px;stroke-linecap:butt;stroke-linejoin:miter;stroke-opacity:1" d="M 698.102,572.985 698.102,587.88 z" id="boundary" inkscape:connector-curvature="0" />
	<path style="fill:none;stroke:red;stroke-width:1px;stroke-linecap:butt;stroke-linejoin:miter;stroke-opacity:1" d="M 681.718,742.787 681.718,727.892 z" id="boundary" inkscape:connector-curvature="0" />
	<path style="fill:none;stroke:red;stroke-width:1px;stroke-linecap:butt;stroke-linejoin:miter;stroke-opacity:1" d="M 671.291,763.64 681.718,742.787 z" id="boundary" inkscape:connector-curvature="0" />
	<path style="fill:none;stroke:red;stroke-width:1px;stroke-linecap:butt;stroke-linejoin:miter;stroke-opacity:1" d="M 698.102,602.775 698.102,587.88 z" id="boundary" inkscape:connector-curvature="0" />
	<path style="fill:none;stroke:red;stroke-width:1px;stroke-linecap:butt;stroke-linejoin:miter;stroke-opacity:1" d="M 705.55,751.724 705.55,766.619 z" id="boundary" inkscape:connector-curvature="0" />
	<path style="fill:none;stroke:red;stroke-width:1px;stroke-linecap:butt;stroke-linejoin:miter;stroke-opacity:1" d="M 698.102,558.09 698.102,572.985 z" id="boundary" inkscape:connector-curvature="0" />
	<path style="fill:none;stroke:red;stroke-width:1px;stroke-linecap:butt;stroke-linejoin:miter;stroke-opacity:1" d="M 683.207,504.468 698.102,497.021 z" id="boundary" inkscape:connector-curvature="0" />
	<path style="fill:none;stroke:red;stroke-width:1px;stroke-linecap:butt;stroke-linejoin:miter;stroke-opacity:1" d="M 705.55,662.354 705.55,647.459 z" id="boundary" inkscape:connector-curvature="0" />
	<path style="fill:none;stroke:red;stroke-width:1px;stroke-linecap:butt;stroke-linejoin:miter;stroke-opacity:1" d="M 708.529,258.703 695.123,251.255 z" id="boundary" inkscape:connector-curvature="0" />
	<path style="fill:none;stroke:red;stroke-width:1px;stroke-linecap:butt;stroke-linejoin:miter;stroke-opacity:1" d="M 698.102,497.021 711.508,489.574 z" id="boundary" inkscape:connector-curvature="0" />
	<path style="fill:none;stroke:red;stroke-width:1px;stroke-linecap:butt;stroke-linejoin:miter;stroke-opacity:1" d="M 763.64,459.784 750.234,467.231 z" id="boundary" inkscape:connector-curvature="0" />
	<path style="fill:none;stroke:red;stroke-width:1px;stroke-linecap:butt;stroke-linejoin:miter;stroke-opacity:1" d="M 702.571,632.565 698.102,617.67 z" id="boundary" inkscape:connector-curvature="0" />
	<path style="fill:none;stroke:red;stroke-width:1px;stroke-linecap:butt;stroke-linejoin:miter;stroke-opacity:1" d="M 705.55,647.459 702.571,632.565 z" id="boundary" inkscape:connector-curvature="0" />
	<path style="fill:none;stroke:red;stroke-width:1px;stroke-linecap:butt;stroke-linejoin:miter;stroke-opacity:1" d="M 711.508,489.574 723.423,480.637 z" id="boundary" inkscape:connector-curvature="0" />
	<path style="fill:none;stroke:red;stroke-width:1px;stroke-linecap:butt;stroke-linejoin:miter;stroke-opacity:1" d="M 705.55,662.354 705.55,677.249 z" id="boundary" inkscape:connector-curvature="0" />
	<path style="fill:none;stroke:red;stroke-width:1px;stroke-linecap:butt;stroke-linejoin:miter;stroke-opacity:1" d="M 705.55,677.249 705.55,692.144 z" id="boundary" inkscape:connector-curvature="0" />
	<path style="fill:none;stroke:red;stroke-width:1px;stroke-linecap:butt;stroke-linejoin:miter;stroke-opacity:1" d="M 705.55,707.039 705.55,692.144 z" id="boundary" inkscape:connector-curvature="0" />
	<path style="fill:none;stroke:red;stroke-width:1px;stroke-linecap:butt;stroke-linejoin:miter;stroke-opacity:1" d="M 705.55,721.934 705.55,707.039 z" id="boundary" inkscape:connector-curvature="0" />
	<path style="fill:none;stroke:red;stroke-width:1px;stroke-linecap:butt;stroke-linejoin:miter;stroke-opacity:1" d="M 723.423,480.637 735.339,467.231 z" id="boundary" inkscape:connector-curvature="0" />
	<path style="fill:none;stroke:red;stroke-width:1px;stroke-linecap:butt;stroke-linejoin:miter;stroke-opacity:1" d="M 735.339,467.231 750.234,467.231 z" id="boundary" inkscape:connector-curvature="0" />
	<path style="fill:none;stroke:red;stroke-width:1px;stroke-linecap:butt;stroke-linejoin:miter;stroke-opacity:1" d="M 777.045,452.336 791.94,449.357 z" id="boundary" inkscape:connector-curvature="0" />
	<path style="fill:none;stroke:red;stroke-width:1px;stroke-linecap:butt;stroke-linejoin:miter;stroke-opacity:1" d="M 777.045,452.336 763.64,459.784 z" id="boundary" inkscape:connector-curvature="0" />
	<path style="fill:none;stroke:red;stroke-width:1px;stroke-linecap:butt;stroke-linejoin:miter;stroke-opacity:1" d="M 705.55,721.934 705.55,736.829 z" id="boundary" inkscape:connector-curvature="0" />
	<path style="fill:none;stroke:red;stroke-width:1px;stroke-linecap:butt;stroke-linejoin:miter;stroke-opacity:1" d="M 705.55,736.829 705.55,751.724 z" id="boundary" inkscape:connector-curvature="0" />
	<path style="fill:none;stroke:red;stroke-width:1px;stroke-linecap:butt;stroke-linejoin:miter;stroke-opacity:1" d="M 806.835,441.91 821.73,437.441 z" id="boundary" inkscape:connector-curvature="0" />
	<path style="fill:none;stroke:red;stroke-width:1px;stroke-linecap:butt;stroke-linejoin:miter;stroke-opacity:1" d="M 821.73,437.441 836.625,437.441 z" id="boundary" inkscape:connector-curvature="0" />
	<path style="fill:none;stroke:red;stroke-width:1px;stroke-linecap:butt;stroke-linejoin:miter;stroke-opacity:1" d="M 701.081,793.429 686.186,794.919 z" id="boundary" inkscape:connector-curvature="0" />
	<path style="fill:none;stroke:red;stroke-width:1px;stroke-linecap:butt;stroke-linejoin:miter;stroke-opacity:1" d="M 710.018,781.514 701.081,793.429 z" id="boundary" inkscape:connector-curvature="0" />
	<path style="fill:none;stroke:red;stroke-width:1px;stroke-linecap:butt;stroke-linejoin:miter;stroke-opacity:1" d="M 710.018,781.514 705.55,766.619 z" id="boundary" inkscape:connector-curvature="0" />
	<path style="fill:none;stroke:red;stroke-width:1px;stroke-linecap:butt;stroke-linejoin:miter;stroke-opacity:1" d="M 850.03,429.994 864.925,429.994 z" id="boundary" inkscape:connector-curvature="0" />
	<path style="fill:none;stroke:red;stroke-width:1px;stroke-linecap:butt;stroke-linejoin:miter;stroke-opacity:1" d="M 850.03,429.994 836.625,437.441 z" id="boundary" inkscape:connector-curvature="0" />
	<path style="fill:none;stroke:red;stroke-width:1px;stroke-linecap:butt;stroke-linejoin:miter;stroke-opacity:1" d="M 723.423,264.661 708.529,258.703 z" id="boundary" inkscape:connector-curvature="0" />
	<path style="fill:none;stroke:red;stroke-width:1px;stroke-linecap:butt;stroke-linejoin:miter;stroke-opacity:1" d="M 806.835,441.91 791.94,449.357 z" id="boundary" inkscape:connector-curvature="0" />
	<path style="fill:none;stroke:red;stroke-width:1px;stroke-linecap:butt;stroke-linejoin:miter;stroke-opacity:1" d="M 750.234,279.556 736.829,272.108 z" id="boundary" inkscape:connector-curvature="0" />
	<path style="fill:none;stroke:red;stroke-width:1px;stroke-linecap:butt;stroke-linejoin:miter;stroke-opacity:1" d="M 765.129,284.024 750.234,279.556 z" id="boundary" inkscape:connector-curvature="0" />
	<path style="fill:none;stroke:red;stroke-width:1px;stroke-linecap:butt;stroke-linejoin:miter;stroke-opacity:1" d="M 780.024,287.003 791.94,295.94 z" id="boundary" inkscape:connector-curvature="0" />
	<path style="fill:none;stroke:red;stroke-width:1px;stroke-linecap:butt;stroke-linejoin:miter;stroke-opacity:1" d="M 780.024,287.003 765.129,284.024 z" id="boundary" inkscape:connector-curvature="0" />
	<path style="fill:none;stroke:red;stroke-width:1px;stroke-linecap:butt;stroke-linejoin:miter;stroke-opacity:1" d="M 805.345,303.387 791.94,295.94 z" id="boundary" inkscape:connector-curvature="0" />
	<path style="fill:none;stroke:red;stroke-width:1px;stroke-linecap:butt;stroke-linejoin:miter;stroke-opacity:1" d="M 820.24,309.345 805.345,303.387 z" id="boundary" inkscape:connector-curvature="0" />
	<path style="fill:none;stroke:red;stroke-width:1px;stroke-linecap:butt;stroke-linejoin:miter;stroke-opacity:1" d="M 833.646,316.793 820.24,309.345 z" id="boundary" inkscape:connector-curvature="0" />
	<path style="fill:none;stroke:red;stroke-width:1px;stroke-linecap:butt;stroke-linejoin:miter;stroke-opacity:1" d="M 847.051,324.24 833.646,316.793 z" id="boundary" inkscape:connector-curvature="0" />
	<path style="fill:none;stroke:red;stroke-width:1px;stroke-linecap:butt;stroke-linejoin:miter;stroke-opacity:1" d="M 878.33,422.547 864.925,429.994 z" id="boundary" inkscape:connector-curvature="0" />
	<path style="fill:none;stroke:red;stroke-width:1px;stroke-linecap:butt;stroke-linejoin:miter;stroke-opacity:1" d="M 861.946,324.24 847.051,324.24 z" id="boundary" inkscape:connector-curvature="0" />
	<path style="fill:none;stroke:red;stroke-width:1px;stroke-linecap:butt;stroke-linejoin:miter;stroke-opacity:1" d="M 876.841,324.24 890.246,331.688 z" id="boundary" inkscape:connector-curvature="0" />
	<path style="fill:none;stroke:red;stroke-width:1px;stroke-linecap:butt;stroke-linejoin:miter;stroke-opacity:1" d="M 876.841,324.24 861.946,324.24 z" id="boundary" inkscape:connector-curvature="0" />
	<path style="fill:none;stroke:red;stroke-width:1px;stroke-linecap:butt;stroke-linejoin:miter;stroke-opacity:1" d="M 878.33,422.547 891.736,415.099 z" id="boundary" inkscape:connector-curvature="0" />
	<path style="fill:none;stroke:red;stroke-width:1px;stroke-linecap:butt;stroke-linejoin:miter;stroke-opacity:1" d="M 891.736,415.099 906.631,407.652 z" id="boundary" inkscape:connector-curvature="0" />
	<path style="fill:none;stroke:red;stroke-width:1px;stroke-linecap:butt;stroke-linejoin:miter;stroke-opacity:1" d="M 906.631,407.652 921.526,407.652 z" id="boundary" inkscape:connector-curvature="0" />
	<path style="fill:none;stroke:red;stroke-width:1px;stroke-linecap:butt;stroke-linejoin:miter;stroke-opacity:1" d="M 905.141,331.688 890.246,331.688 z" id="boundary" inkscape:connector-curvature="0" />
	<path style="fill:none;stroke:red;stroke-width:1px;stroke-linecap:butt;stroke-linejoin:miter;stroke-opacity:1" d="M 920.036,331.688 905.141,331.688 z" id="boundary" inkscape:connector-curvature="0" />
	<path style="fill:none;stroke:red;stroke-width:1px;stroke-linecap:butt;stroke-linejoin:miter;stroke-opacity:1" d="M 934.931,331.688 920.036,331.688 z" id="boundary" inkscape:connector-curvature="0" />
	<path style="fill:none;stroke:red;stroke-width:1px;stroke-linecap:butt;stroke-linejoin:miter;stroke-opacity:1" d="M 966.21,392.757 981.105,392.757 z" id="boundary" inkscape:connector-curvature="0" />
	<path style="fill:none;stroke:red;stroke-width:1px;stroke-linecap:butt;stroke-linejoin:miter;stroke-opacity:1" d="M 936.42,400.204 921.526,407.652 z" id="boundary" inkscape:connector-curvature="0" />
	<path style="fill:none;stroke:red;stroke-width:1px;stroke-linecap:butt;stroke-linejoin:miter;stroke-opacity:1" d="M 949.826,331.688 934.931,331.688 z" id="boundary" inkscape:connector-curvature="0" />
	<path style="fill:none;stroke:red;stroke-width:1px;stroke-linecap:butt;stroke-linejoin:miter;stroke-opacity:1" d="M 951.315,392.757 966.21,392.757 z" id="boundary" inkscape:connector-curvature="0" />
	<path style="fill:none;stroke:red;stroke-width:1px;stroke-linecap:butt;stroke-linejoin:miter;stroke-opacity:1" d="M 951.315,392.757 936.42,400.204 z" id="boundary" inkscape:connector-curvature="0" />
	<path style="fill:none;stroke:red;stroke-width:1px;stroke-linecap:butt;stroke-linejoin:miter;stroke-opacity:1" d="M 964.721,331.688 949.826,331.688 z" id="boundary" inkscape:connector-curvature="0" />
	<path style="fill:none;stroke:red;stroke-width:1px;stroke-linecap:butt;stroke-linejoin:miter;stroke-opacity:1" d="M 979.616,331.688 993.021,339.135 z" id="boundary" inkscape:connector-curvature="0" />
	<path style="fill:none;stroke:red;stroke-width:1px;stroke-linecap:butt;stroke-linejoin:miter;stroke-opacity:1" d="M 993.021,339.135 996,355.52 z" id="boundary" inkscape:connector-curvature="0" />
	<path style="fill:none;stroke:red;stroke-width:1px;stroke-linecap:butt;stroke-linejoin:miter;stroke-opacity:1" d="M 964.721,331.688 979.616,331.688 z" id="boundary" inkscape:connector-curvature="0" />
	<path style="fill:none;stroke:red;stroke-width:1px;stroke-linecap:butt;stroke-linejoin:miter;stroke-opacity:1" d="M 993.021,382.33 981.105,392.757 z" id="boundary" inkscape:connector-curvature="0" />
	<path style="fill:none;stroke:red;stroke-width:1px;stroke-linecap:butt;stroke-linejoin:miter;stroke-opacity:1" d="M 996,355.52 993.021,382.33 z" id="boundary" inkscape:connector-curvature="0" />
	<circle cx="4" cy="202.102" r="4" fill="#0" id="circle0"/>
	<circle cx="4" cy="216.997" r="4" fill="#0" id="circle1"/>
	<circle cx="15.9159" cy="190.186" r="4" fill="#0" id="circle2"/>
	<circle cx="18.8949" cy="216.997" r="4" fill="#0" id="circle3"/>
	<circle cx="27.8318" cy="178.27" r="4" fill="#0" id="circle4"/>
	<circle cx="30.8108" cy="206.571" r="4" fill="#0" id="circle5"/>
	<circle cx="39.7477" cy="167.844" r="4" fill="#0" id="circle6"/>
	<circle cx="42.7267" cy="191.676" r="4" fill="#0" id="circle7"/>
	<circle cx="50.1742" cy="155.928" r="4" fill="#0" id="circle8"/>
	<circle cx="54.6426" cy="181.249" r="4" fill="#0" id="circle9"/>
	<circle cx="62.0901" cy="145.502" r="4" fill="#0" id="circle10"/>
	<circle cx="65.0691" cy="169.333" r="4" fill="#0" id="circle11"/>
	<circle cx="75.4955" cy="138.054" r="4" fill="#0" id="circle12"/>
	<circle cx="79.964" cy="161.886" r="4" fill="#0" id="circle13"/>
	<circle cx="88.9009" cy="130.607" r="4" fill="#0" id="circle14"/>
	<circle cx="91.8799" cy="151.459" r="4" fill="#0" id="circle15"/>
	<circle cx="102.306" cy="123.159" r="4" fill="#0" id="circle16"/>
	<circle cx="102.306" cy="139.544" r="4" fill="#0" id="circle17"/>
	<circle cx="115.712" cy="115.712" r="4" fill="#0" id="circle18"/>
	<circle cx="117.201" cy="132.096" r="4" fill="#0" id="circle19"/>
	<circle cx="129.117" cy="108.264" r="4" fill="#0" id="circle20"/>
	<circle cx="132.096" cy="124.649" r="4" fill="#0" id="circle21"/>
	<circle cx="142.523" cy="100.817" r="4" fill="#0" id="circle22"/>
	<circle cx="146.991" cy="124.649" r="4" fill="#0" id="circle23"/>
	<circle cx="157.417" cy="93.3694" r="4" fill="#0" id="circle24"/>
	<circle cx="160.396" cy="117.201" r="4" fill="#0" id="circle25"/>
	<circle cx="172.312" cy="93.3694" r="4" fill="#0" id="circle26"/>
	<circle cx="175.291" cy="112.733" r="4" fill="#0" id="circle27"/>
	<circle cx="184.228" cy="81.4535" r="4" fill="#0" id="circle28"/>
	<circle cx="190.186" cy="105.285" r="4" fill="#0" id="circle29"/>
	<circle cx="199.123" cy="74.006" r="4" fill="#0" id="circle30"/>
	<circle cx="205.081" cy="102.306" r="4" fill="#0" id="circle31"/>
	<circle cx="206.571" cy="59.1111" r="4" fill="#0" id="circle32"/>
	<circle cx="212.529" cy="38.2583" r="4" fill="#0" id="circle33"/>
	<circle cx="219.976" cy="23.3634" r="4" fill="#0" id="circle34"/>
	<circle cx="219.976" cy="102.306" r="4" fill="#0" id="circle35"/>
	<circle cx="231.892" cy="11.4474" r="4" fill="#0" id="circle36"/>
	<circle cx="233.381" cy="109.754" r="4" fill="#0" id="circle37"/>
	<circle cx="245.297" cy="4" r="4" fill="#0" id="circle38"/>
	<circle cx="246.787" cy="117.201" r="4" fill="#0" id="circle39"/>
	<circle cx="257.213" cy="164.865" r="4" fill="#0" id="circle40"/>
	<circle cx="257.213" cy="179.76" r="4" fill="#0" id="circle41"/>
	<circle cx="257.213" cy="194.655" r="4" fill="#0" id="circle42"/>
	<circle cx="257.213" cy="209.55" r="4" fill="#0" id="circle43"/>
	<circle cx="258.703" cy="127.628" r="4" fill="#0" id="circle44"/>
	<circle cx="260.192" cy="4" r="4" fill="#0" id="circle45"/>
	<circle cx="264.661" cy="142.523" r="4" fill="#0" id="circle46"/>
	<circle cx="264.661" cy="222.955" r="4" fill="#0" id="circle47"/>
	<circle cx="264.661" cy="237.85" r="4" fill="#0" id="circle48"/>
	<circle cx="272.108" cy="251.255" r="4" fill="#0" id="circle49"/>
	<circle cx="272.108" cy="266.15" r="4" fill="#0" id="circle50"/>
	<circle cx="275.087" cy="4" r="4" fill="#0" id="circle51"/>
	<circle cx="279.556" cy="279.556" r="4" fill="#0" id="circle52"/>
	<circle cx="279.556" cy="294.45" r="4" fill="#0" id="circle53"/>
	<circle cx="288.492" cy="306.366" r="4" fill="#0" id="circle54"/>
	<circle cx="289.982" cy="4" r="4" fill="#0" id="circle55"/>
	<circle cx="294.45" cy="321.261" r="4" fill="#0" id="circle56"/>
	<circle cx="301.898" cy="334.667" r="4" fill="#0" id="circle57"/>
	<circle cx="303.387" cy="11.4474" r="4" fill="#0" id="circle58"/>
	<circle cx="309.345" cy="348.072" r="4" fill="#0" id="circle59"/>
	<circle cx="316.793" cy="18.8949" r="4" fill="#0" id="circle60"/>
	<circle cx="316.793" cy="361.477" r="4" fill="#0" id="circle61"/>
	<circle cx="325.73" cy="373.393" r="4" fill="#0" id="circle62"/>
	<circle cx="328.709" cy="27.8318" r="4" fill="#0" id="circle63"/>
	<circle cx="336.156" cy="385.309" r="4" fill="#0" id="circle64"/>
	<circle cx="340.625" cy="38.2583" r="4" fill="#0" id="circle65"/>
	<circle cx="340.625" cy="53.1532" r="4" fill="#0" id="circle66"/>
	<circle cx="346.583" cy="68.048" r="4" fill="#0" id="circle67"/>
	<circle cx="348.072" cy="82.9429" r="4" fill="#0" id="circle68"/>
	<circle cx="349.562" cy="392.757" r="4" fill="#0" id="circle69"/>
	<circle cx="354.03" cy="97.8378" r="4" fill="#0" id="circle70"/>
	<circle cx="355.52" cy="112.733" r="4" fill="#0" id="circle71"/>
	<circle cx="355.52" cy="127.628" r="4" fill="#0" id="circle72"/>
	<circle cx="357.009" cy="406.162" r="4" fill="#0" id="circle73"/>
	<circle cx="362.967" cy="141.033" r="4" fill="#0" id="circle74"/>
	<circle cx="362.967" cy="155.928" r="4" fill="#0" id="circle75"/>
	<circle cx="368.925" cy="415.099" r="4" fill="#0" id="circle76"/>
	<circle cx="370.414" cy="169.333" r="4" fill="#0" id="circle77"/>
	<circle cx="377.862" cy="182.739" r="4" fill="#0" id="circle78"/>
	<circle cx="377.862" cy="427.015" r="4" fill="#0" id="circle79"/>
	<circle cx="391.267" cy="190.186" r="4" fill="#0" id="circle80"/>
	<circle cx="391.267" cy="434.462" r="4" fill="#0" id="circle81"/>
	<circle cx="403.183" cy="444.889" r="4" fill="#0" id="circle82"/>
	<circle cx="404.673" cy="197.634" r="4" fill="#0" id="circle83"/>
	<circle cx="415.099" cy="455.315" r="4" fill="#0" id="circle84"/>
	<circle cx="419.568" cy="199.123" r="4" fill="#0" id="circle85"/>
	<circle cx="429.994" cy="459.784" r="4" fill="#0" id="circle86"/>
	<circle cx="434.462" cy="205.081" r="4" fill="#0" id="circle87"/>
	<circle cx="443.399" cy="467.231" r="4" fill="#0" id="circle88"/>
	<circle cx="443.399" cy="790.45" r="4" fill="#0" id="circle89"/>
	<circle cx="449.357" cy="206.571" r="4" fill="#0" id="circle90"/>
	<circle cx="452.336" cy="479.147" r="4" fill="#0" id="circle91"/>
	<circle cx="455.315" cy="778.535" r="4" fill="#0" id="circle92"/>
	<circle cx="455.315" cy="800.877" r="4" fill="#0" id="circle93"/>
	<circle cx="464.252" cy="212.529" r="4" fill="#0" id="circle94"/>
	<circle cx="467.231" cy="482.126" r="4" fill="#0" id="circle95"/>
	<circle cx="470.21" cy="771.087" r="4" fill="#0" id="circle96"/>
	<circle cx="470.21" cy="802.366" r="4" fill="#0" id="circle97"/>
	<circle cx="479.147" cy="212.529" r="4" fill="#0" id="circle98"/>
	<circle cx="480.637" cy="489.574" r="4" fill="#0" id="circle99"/>
	<circle cx="485.105" cy="763.64" r="4" fill="#0" id="circle100"/>
	<circle cx="485.105" cy="800.877" r="4" fill="#0" id="circle101"/>
	<circle cx="494.042" cy="212.529" r="4" fill="#0" id="circle102"/>
	<circle cx="494.042" cy="497.021" r="4" fill="#0" id="circle103"/>
	<circle cx="495.532" cy="511.916" r="4" fill="#0" id="circle104"/>
	<circle cx="497.021" cy="751.724" r="4" fill="#0" id="circle105"/>
	<circle cx="497.021" cy="787.471" r="4" fill="#0" id="circle106"/>
	<circle cx="504.468" cy="523.832" r="4" fill="#0" id="circle107"/>
	<circle cx="508.937" cy="212.529" r="4" fill="#0" id="circle108"/>
	<circle cx="508.937" cy="741.297" r="4" fill="#0" id="circle109"/>
	<circle cx="510.426" cy="538.727" r="4" fill="#0" id="circle110"/>
	<circle cx="510.426" cy="780.024" r="4" fill="#0" id="circle111"/>
	<circle cx="514.895" cy="726.402" r="4" fill="#0" id="circle112"/>
	<circle cx="517.874" cy="686.186" r="4" fill="#0" id="circle113"/>
	<circle cx="517.874" cy="701.081" r="4" fill="#0" id="circle114"/>
	<circle cx="519.363" cy="765.129" r="4" fill="#0" id="circle115"/>
	<circle cx="522.342" cy="549.153" r="4" fill="#0" id="circle116"/>
	<circle cx="523.832" cy="212.529" r="4" fill="#0" id="circle117"/>
	<circle cx="525.321" cy="648.949" r="4" fill="#0" id="circle118"/>
	<circle cx="525.321" cy="663.844" r="4" fill="#0" id="circle119"/>
	<circle cx="526.811" cy="511.916" r="4" fill="#0" id="circle120"/>
	<circle cx="526.811" cy="735.339" r="4" fill="#0" id="circle121"/>
	<circle cx="526.811" cy="750.234" r="4" fill="#0" id="circle122"/>
	<circle cx="529.79" cy="562.559" r="4" fill="#0" id="circle123"/>
	<circle cx="529.79" cy="718.955" r="4" fill="#0" id="circle124"/>
	<circle cx="532.769" cy="577.453" r="4" fill="#0" id="circle125"/>
	<circle cx="532.769" cy="634.054" r="4" fill="#0" id="circle126"/>
	<circle cx="534.258" cy="525.321" r="4" fill="#0" id="circle127"/>
	<circle cx="534.258" cy="698.102" r="4" fill="#0" id="circle128"/>
	<circle cx="535.748" cy="592.348" r="4" fill="#0" id="circle129"/>
	<circle cx="538.727" cy="212.529" r="4" fill="#0" id="circle130"/>
	<circle cx="540.216" cy="504.468" r="4" fill="#0" id="circle131"/>
	<circle cx="540.216" cy="607.243" r="4" fill="#0" id="circle132"/>
	<circle cx="541.706" cy="538.727" r="4" fill="#0" id="circle133"/>
	<circle cx="541.706" cy="675.76" r="4" fill="#0" id="circle134"/>
	<circle cx="549.153" cy="552.132" r="4" fill="#0" id="circle135"/>
	<circle cx="549.153" cy="660.865" r="4" fill="#0" id="circle136"/>
	<circle cx="553.622" cy="212.529" r="4" fill="#0" id="circle137"/>
	<circle cx="555.111" cy="504.468" r="4" fill="#0" id="circle138"/>
	<circle cx="555.111" cy="567.027" r="4" fill="#0" id="circle139"/>
	<circle cx="556.601" cy="581.922" r="4" fill="#0" id="circle140"/>
	<circle cx="556.601" cy="638.523" r="4" fill="#0" id="circle141"/>
	<circle cx="564.048" cy="595.327" r="4" fill="#0" id="circle142"/>
	<circle cx="564.048" cy="610.222" r="4" fill="#0" id="circle143"/>
	<circle cx="564.048" cy="625.117" r="4" fill="#0" id="circle144"/>
	<circle cx="568.517" cy="212.529" r="4" fill="#0" id="circle145"/>
	<circle cx="568.517" cy="511.916" r="4" fill="#0" id="circle146"/>
	<circle cx="581.922" cy="219.976" r="4" fill="#0" id="circle147"/>
	<circle cx="583.411" cy="511.916" r="4" fill="#0" id="circle148"/>
	<circle cx="596.817" cy="219.976" r="4" fill="#0" id="circle149"/>
	<circle cx="598.306" cy="511.916" r="4" fill="#0" id="circle150"/>
	<circle cx="611.712" cy="219.976" r="4" fill="#0" id="circle151"/>
	<circle cx="613.201" cy="511.916" r="4" fill="#0" id="circle152"/>
	<circle cx="626.607" cy="219.976" r="4" fill="#0" id="circle153"/>
	<circle cx="628.096" cy="511.916" r="4" fill="#0" id="circle154"/>
	<circle cx="640.012" cy="227.423" r="4" fill="#0" id="circle155"/>
	<circle cx="641.502" cy="519.363" r="4" fill="#0" id="circle156"/>
	<circle cx="644.48" cy="783.003" r="4" fill="#0" id="circle157"/>
	<circle cx="653.417" cy="234.871" r="4" fill="#0" id="circle158"/>
	<circle cx="656.396" cy="525.321" r="4" fill="#0" id="circle159"/>
	<circle cx="656.396" cy="771.087" r="4" fill="#0" id="circle160"/>
	<circle cx="656.396" cy="793.429" r="4" fill="#0" id="circle161"/>
	<circle cx="666.823" cy="537.237" r="4" fill="#0" id="circle162"/>
	<circle cx="668.312" cy="239.339" r="4" fill="#0" id="circle163"/>
	<circle cx="671.291" cy="763.64" r="4" fill="#0" id="circle164"/>
	<circle cx="671.291" cy="794.919" r="4" fill="#0" id="circle165"/>
	<circle cx="674.27" cy="550.643" r="4" fill="#0" id="circle166"/>
	<circle cx="674.27" cy="565.538" r="4" fill="#0" id="circle167"/>
	<circle cx="674.27" cy="580.432" r="4" fill="#0" id="circle168"/>
	<circle cx="674.27" cy="595.327" r="4" fill="#0" id="circle169"/>
	<circle cx="674.27" cy="610.222" r="4" fill="#0" id="circle170"/>
	<circle cx="674.27" cy="625.117" r="4" fill="#0" id="circle171"/>
	<circle cx="681.718" cy="638.523" r="4" fill="#0" id="circle172"/>
	<circle cx="681.718" cy="653.417" r="4" fill="#0" id="circle173"/>
	<circle cx="681.718" cy="668.312" r="4" fill="#0" id="circle174"/>
	<circle cx="681.718" cy="683.207" r="4" fill="#0" id="circle175"/>
	<circle cx="681.718" cy="698.102" r="4" fill="#0" id="circle176"/>
	<circle cx="681.718" cy="712.997" r="4" fill="#0" id="circle177"/>
	<circle cx="681.718" cy="727.892" r="4" fill="#0" id="circle178"/>
	<circle cx="681.718" cy="742.787" r="4" fill="#0" id="circle179"/>
	<circle cx="683.207" cy="242.318" r="4" fill="#0" id="circle180"/>
	<circle cx="683.207" cy="504.468" r="4" fill="#0" id="circle181"/>
	<circle cx="683.207" cy="519.363" r="4" fill="#0" id="circle182"/>
	<circle cx="686.186" cy="794.919" r="4" fill="#0" id="circle183"/>
	<circle cx="695.123" cy="251.255" r="4" fill="#0" id="circle184"/>
	<circle cx="695.123" cy="528.3" r="4" fill="#0" id="circle185"/>
	<circle cx="698.102" cy="497.021" r="4" fill="#0" id="circle186"/>
	<circle cx="698.102" cy="543.195" r="4" fill="#0" id="circle187"/>
	<circle cx="698.102" cy="558.09" r="4" fill="#0" id="circle188"/>
	<circle cx="698.102" cy="572.985" r="4" fill="#0" id="circle189"/>
	<circle cx="698.102" cy="587.88" r="4" fill="#0" id="circle190"/>
	<circle cx="698.102" cy="602.775" r="4" fill="#0" id="circle191"/>
	<circle cx="698.102" cy="617.67" r="4" fill="#0" id="circle192"/>
	<circle cx="701.081" cy="793.429" r="4" fill="#0" id="circle193"/>
	<circle cx="702.571" cy="632.565" r="4" fill="#0" id="circle194"/>
	<circle cx="705.55" cy="647.459" r="4" fill="#0" id="circle195"/>
	<circle cx="705.55" cy="662.354" r="4" fill="#0" id="circle196"/>
	<circle cx="705.55" cy="677.249" r="4" fill="#0" id="circle197"/>
	<circle cx="705.55" cy="692.144" r="4" fill="#0" id="circle198"/>
	<circle cx="705.55" cy="707.039" r="4" fill="#0" id="circle199"/>
	<circle cx="705.55" cy="721.934" r="4" fill="#0" id="circle200"/>
	<circle cx="705.55" cy="736.829" r="4" fill="#0" id="circle201"/>
	<circle cx="705.55" cy="751.724" r="4" fill="#0" id="circle202"/>
	<circle cx="705.55" cy="766.619" r="4" fill="#0" id="circle203"/>
	<circle cx="708.529" cy="258.703" r="4" fill="#0" id="circle204"/>
	<circle cx="710.018" cy="781.514" r="4" fill="#0" id="circle205"/>
	<circle cx="711.508" cy="489.574" r="4" fill="#0" id="circle206"/>
	<circle cx="723.423" cy="264.661" r="4" fill="#0" id="circle207"/>
	<circle cx="723.423" cy="480.637" r="4" fill="#0" id="circle208"/>
	<circle cx="735.339" cy="467.231" r="4" fill="#0" id="circle209"/>
	<circle cx="736.829" cy="272.108" r="4" fill="#0" id="circle210"/>
	<circle cx="750.234" cy="279.556" r="4" fill="#0" id="circle211"/>
	<circle cx="750.234" cy="467.231" r="4" fill="#0" id="circle212"/>
	<circle cx="763.64" cy="459.784" r="4" fill="#0" id="circle213"/>
	<circle cx="765.129" cy="284.024" r="4" fill="#0" id="circle214"/>
	<circle cx="777.045" cy="452.336" r="4" fill="#0" id="circle215"/>
	<circle cx="780.024" cy="287.003" r="4" fill="#0" id="circle216"/>
	<circle cx="791.94" cy="295.94" r="4" fill="#0" id="circle217"/>
	<circle cx="791.94" cy="449.357" r="4" fill="#0" id="circle218"/>
	<circle cx="805.345" cy="303.387" r="4" fill="#0" id="circle219"/>
	<circle cx="806.835" cy="441.91" r="4" fill="#0" id="circle220"/>
	<circle cx="820.24" cy="309.345" r="4" fill="#0" id="circle221"/>
	<circle cx="821.73" cy="437.441" r="4" fill="#0" id="circle222"/>
	<circle cx="833.646" cy="316.793" r="4" fill="#0" id="circle223"/>
	<circle cx="836.625" cy="437.441" r="4" fill="#0" id="circle224"/>
	<circle cx="847.051" cy="324.24" r="4" fill="#0" id="circle225"/>
	<circle cx="850.03" cy="429.994" r="4" fill="#0" id="circle226"/>
	<circle cx="861.946" cy="324.24" r="4" fill="#0" id="circle227"/>
	<circle cx="864.925" cy="429.994" r="4" fill="#0" id="circle228"/>
	<circle cx="876.841" cy="324.24" r="4" fill="#0" id="circle229"/>
	<circle cx="878.33" cy="422.547" r="4" fill="#0" id="circle230"/>
	<circle cx="890.246" cy="331.688" r="4" fill="#0" id="circle231"/>
	<circle cx="891.736" cy="415.099" r="4" fill="#0" id="circle232"/>
	<circle cx="905.141" cy="331.688" r="4" fill="#0" id="circle233"/>
	<circle cx="906.631" cy="407.652" r="4" fill="#0" id="circle234"/>
	<circle cx="920.036" cy="331.688" r="4" fill="#0" id="circle235"/>
	<circle cx="921.526" cy="407.652" r="4" fill="#0" id="circle236"/>
	<circle cx="934.931" cy="331.688" r="4" fill="#0" id="circle237"/>
	<circle cx="936.42" cy="400.204" r="4" fill="#0" id="circle238"/>
	<circle cx="949.826" cy="331.688" r="4" fill="#0" id="circle239"/>
	<circle cx="951.315" cy="392.757" r="4" fill="#0" id="circle240"/>
	<circle cx="964.721" cy="331.688" r="4" fill="#0" id="circle241"/>
	<circle cx="966.21" cy="392.757" r="4" fill="#0" id="circle242"/>
	<circle cx="979.616" cy="331.688" r="4" fill="#0" id="circle243"/>
	<circle cx="981.105" cy="392.757" r="4" fill="#0" id="circle244"/>
	<circle cx="993.021" cy="339.135" r="4" fill="#0" id="circle245"/>
	<circle cx="993.021" cy="382.33" r="4" fill="#0" id="circle246"/>
	<circle cx="996" cy="355.52" r="4" fill="#0" id="circle247"/>
	</g>
</svg>