<?xml version="1.0" encoding="UTF-8" standalone="no"?>
<!-- Created with CurveBenchmark -->
<svg
	xmlns:dc="http://purl.org/dc/elements/1.1/"
	xmlns:cc="http://creativecommons.org/ns#"
	xmlns:rdf="http://www.w3.org/1999/02/22-rdf-syntax-ns#"
	xmlns:svg="http://www.w3.org/2000/svg"
	xmlns="http://www.w3.org/2000/svg"
	xmlns:sodipodi="http://sodipodi.sourceforge.net/DTD/sodipodi-0.dtd"
	xmlns:inkscape="http://www.inkscape.org/namespaces/inkscape"
	width="1000"
	height="1000"
	id="svg2"
	version="1.1"
	sodipodi:docname="manifold/peel-dude9.png.txt">
<defs
	id="defs4" />
<metadata
	id="metadata7">
	<rdf:RDF>
		<cc:Work
			rdf:about="">
			<dc:format>image/svg+xml</dc:format>
			<dc:type
				rdf:resource="http://purl.org/dc/dcmitype/StillImage" />
			<dc:title></dc:title>
		</cc:Work>
	</rdf:RDF>
</metadata>
<g
	inkscape:label="Layer 1"
	inkscape:groupmode="layer"
	id="layer1">
	<path style="fill:none;stroke:red;stroke-width:1px;stroke-linecap:butt;stroke-linejoin:miter;stroke-opacity:1" d="M 33.2302,502.74 18.6151,491.779 z" id="boundary" inkscape:connector-curvature="0" />
	<path style="fill:none;stroke:red;stroke-width:1px;stroke-linecap:butt;stroke-linejoin:miter;stroke-opacity:1" d="M 4,478.991 13.1344,460.722 z" id="boundary" inkscape:connector-curvature="0" />
	<path style="fill:none;stroke:red;stroke-width:1px;stroke-linecap:butt;stroke-linejoin:miter;stroke-opacity:1" d="M 4,478.991 18.6151,491.779 z" id="boundary" inkscape:connector-curvature="0" />
	<path style="fill:none;stroke:red;stroke-width:1px;stroke-linecap:butt;stroke-linejoin:miter;stroke-opacity:1" d="M 13.1344,460.722 22.2689,442.453 z" id="boundary" inkscape:connector-curvature="0" />
	<path style="fill:none;stroke:red;stroke-width:1px;stroke-linecap:butt;stroke-linejoin:miter;stroke-opacity:1" d="M 60.6335,394.954 46.0184,409.569 z" id="boundary" inkscape:connector-curvature="0" />
	<path style="fill:none;stroke:red;stroke-width:1px;stroke-linecap:butt;stroke-linejoin:miter;stroke-opacity:1" d="M 22.2689,442.453 36.884,427.838 z" id="boundary" inkscape:connector-curvature="0" />
	<path style="fill:none;stroke:red;stroke-width:1px;stroke-linecap:butt;stroke-linejoin:miter;stroke-opacity:1" d="M 47.8453,489.952 33.2302,502.74 z" id="boundary" inkscape:connector-curvature="0" />
	<path style="fill:none;stroke:red;stroke-width:1px;stroke-linecap:butt;stroke-linejoin:miter;stroke-opacity:1" d="M 36.884,427.838 46.0184,409.569 z" id="boundary" inkscape:connector-curvature="0" />
	<path style="fill:none;stroke:red;stroke-width:1px;stroke-linecap:butt;stroke-linejoin:miter;stroke-opacity:1" d="M 47.8453,489.952 60.6335,475.337 z" id="boundary" inkscape:connector-curvature="0" />
	<path style="fill:none;stroke:red;stroke-width:1px;stroke-linecap:butt;stroke-linejoin:miter;stroke-opacity:1" d="M 60.6335,394.954 69.768,376.685 z" id="boundary" inkscape:connector-curvature="0" />
	<path style="fill:none;stroke:red;stroke-width:1px;stroke-linecap:butt;stroke-linejoin:miter;stroke-opacity:1" d="M 60.6335,475.337 75.2486,462.549 z" id="boundary" inkscape:connector-curvature="0" />
	<path style="fill:none;stroke:red;stroke-width:1px;stroke-linecap:butt;stroke-linejoin:miter;stroke-opacity:1" d="M 75.2486,462.549 93.5175,453.414 z" id="boundary" inkscape:connector-curvature="0" />
	<path style="fill:none;stroke:red;stroke-width:1px;stroke-linecap:butt;stroke-linejoin:miter;stroke-opacity:1" d="M 84.3831,363.897 69.768,376.685 z" id="boundary" inkscape:connector-curvature="0" />
	<path style="fill:none;stroke:red;stroke-width:1px;stroke-linecap:butt;stroke-linejoin:miter;stroke-opacity:1" d="M 67.9411,963.116 67.9411,981.385 z" id="boundary" inkscape:connector-curvature="0" />
	<path style="fill:none;stroke:red;stroke-width:1px;stroke-linecap:butt;stroke-linejoin:miter;stroke-opacity:1" d="M 67.9411,963.116 77.0755,935.713 z" id="boundary" inkscape:connector-curvature="0" />
	<path style="fill:none;stroke:red;stroke-width:1px;stroke-linecap:butt;stroke-linejoin:miter;stroke-opacity:1" d="M 86.2099,917.444 95.3444,899.175 z" id="boundary" inkscape:connector-curvature="0" />
	<path style="fill:none;stroke:red;stroke-width:1px;stroke-linecap:butt;stroke-linejoin:miter;stroke-opacity:1" d="M 91.6906,345.628 106.306,331.013 z" id="boundary" inkscape:connector-curvature="0" />
	<path style="fill:none;stroke:red;stroke-width:1px;stroke-linecap:butt;stroke-linejoin:miter;stroke-opacity:1" d="M 77.0755,935.713 86.2099,917.444 z" id="boundary" inkscape:connector-curvature="0" />
	<path style="fill:none;stroke:red;stroke-width:1px;stroke-linecap:butt;stroke-linejoin:miter;stroke-opacity:1" d="M 84.3831,363.897 91.6906,345.628 z" id="boundary" inkscape:connector-curvature="0" />
	<path style="fill:none;stroke:red;stroke-width:1px;stroke-linecap:butt;stroke-linejoin:miter;stroke-opacity:1" d="M 544.759,862.637 557.547,877.252 z" id="boundary" inkscape:connector-curvature="0" />
	<path style="fill:none;stroke:red;stroke-width:1px;stroke-linecap:butt;stroke-linejoin:miter;stroke-opacity:1" d="M 544.759,862.637 530.144,849.849 z" id="boundary" inkscape:connector-curvature="0" />
	<path style="fill:none;stroke:red;stroke-width:1px;stroke-linecap:butt;stroke-linejoin:miter;stroke-opacity:1" d="M 97.1713,996 113.613,986.866 z" id="boundary" inkscape:connector-curvature="0" />
	<path style="fill:none;stroke:red;stroke-width:1px;stroke-linecap:butt;stroke-linejoin:miter;stroke-opacity:1" d="M 67.9411,981.385 78.9024,996 z" id="boundary" inkscape:connector-curvature="0" />
	<path style="fill:none;stroke:red;stroke-width:1px;stroke-linecap:butt;stroke-linejoin:miter;stroke-opacity:1" d="M 78.9024,996 97.1713,996 z" id="boundary" inkscape:connector-curvature="0" />
	<path style="fill:none;stroke:red;stroke-width:1px;stroke-linecap:butt;stroke-linejoin:miter;stroke-opacity:1" d="M 95.3444,899.175 104.479,880.906 z" id="boundary" inkscape:connector-curvature="0" />
	<path style="fill:none;stroke:red;stroke-width:1px;stroke-linecap:butt;stroke-linejoin:miter;stroke-opacity:1" d="M 119.094,866.291 104.479,880.906 z" id="boundary" inkscape:connector-curvature="0" />
	<path style="fill:none;stroke:red;stroke-width:1px;stroke-linecap:butt;stroke-linejoin:miter;stroke-opacity:1" d="M 93.5175,453.414 106.306,438.799 z" id="boundary" inkscape:connector-curvature="0" />
	<path style="fill:none;stroke:red;stroke-width:1px;stroke-linecap:butt;stroke-linejoin:miter;stroke-opacity:1" d="M 133.709,411.396 148.324,398.608 z" id="boundary" inkscape:connector-curvature="0" />
	<path style="fill:none;stroke:red;stroke-width:1px;stroke-linecap:butt;stroke-linejoin:miter;stroke-opacity:1" d="M 119.094,866.291 128.228,848.022 z" id="boundary" inkscape:connector-curvature="0" />
	<path style="fill:none;stroke:red;stroke-width:1px;stroke-linecap:butt;stroke-linejoin:miter;stroke-opacity:1" d="M 106.306,331.013 115.44,312.744 z" id="boundary" inkscape:connector-curvature="0" />
	<path style="fill:none;stroke:red;stroke-width:1px;stroke-linecap:butt;stroke-linejoin:miter;stroke-opacity:1" d="M 106.306,438.799 120.921,426.011 z" id="boundary" inkscape:connector-curvature="0" />
	<path style="fill:none;stroke:red;stroke-width:1px;stroke-linecap:butt;stroke-linejoin:miter;stroke-opacity:1" d="M 120.921,426.011 133.709,411.396 z" id="boundary" inkscape:connector-curvature="0" />
	<path style="fill:none;stroke:red;stroke-width:1px;stroke-linecap:butt;stroke-linejoin:miter;stroke-opacity:1" d="M 502.74,822.446 517.355,835.234 z" id="boundary" inkscape:connector-curvature="0" />
	<path style="fill:none;stroke:red;stroke-width:1px;stroke-linecap:butt;stroke-linejoin:miter;stroke-opacity:1" d="M 517.355,835.234 530.144,849.849 z" id="boundary" inkscape:connector-curvature="0" />
	<path style="fill:none;stroke:red;stroke-width:1px;stroke-linecap:butt;stroke-linejoin:miter;stroke-opacity:1" d="M 124.575,294.475 139.19,281.687 z" id="boundary" inkscape:connector-curvature="0" />
	<path style="fill:none;stroke:red;stroke-width:1px;stroke-linecap:butt;stroke-linejoin:miter;stroke-opacity:1" d="M 115.44,312.744 124.575,294.475 z" id="boundary" inkscape:connector-curvature="0" />
	<path style="fill:none;stroke:red;stroke-width:1px;stroke-linecap:butt;stroke-linejoin:miter;stroke-opacity:1" d="M 142.843,959.462 157.459,946.674 z" id="boundary" inkscape:connector-curvature="0" />
	<path style="fill:none;stroke:red;stroke-width:1px;stroke-linecap:butt;stroke-linejoin:miter;stroke-opacity:1" d="M 142.843,959.462 128.228,975.904 z" id="boundary" inkscape:connector-curvature="0" />
	<path style="fill:none;stroke:red;stroke-width:1px;stroke-linecap:butt;stroke-linejoin:miter;stroke-opacity:1" d="M 113.613,986.866 128.228,975.904 z" id="boundary" inkscape:connector-curvature="0" />
	<path style="fill:none;stroke:red;stroke-width:1px;stroke-linecap:butt;stroke-linejoin:miter;stroke-opacity:1" d="M 288.994,776.773 303.61,763.985 z" id="boundary" inkscape:connector-curvature="0" />
	<path style="fill:none;stroke:red;stroke-width:1px;stroke-linecap:butt;stroke-linejoin:miter;stroke-opacity:1" d="M 288.994,776.773 279.86,795.042 z" id="boundary" inkscape:connector-curvature="0" />
	<path style="fill:none;stroke:red;stroke-width:1px;stroke-linecap:butt;stroke-linejoin:miter;stroke-opacity:1" d="M 128.228,848.022 141.017,826.099 z" id="boundary" inkscape:connector-curvature="0" />
	<path style="fill:none;stroke:red;stroke-width:1px;stroke-linecap:butt;stroke-linejoin:miter;stroke-opacity:1" d="M 232.361,382.166 232.361,400.435 z" id="boundary" inkscape:connector-curvature="0" />
	<path style="fill:none;stroke:red;stroke-width:1px;stroke-linecap:butt;stroke-linejoin:miter;stroke-opacity:1" d="M 141.017,826.099 150.151,807.831 z" id="boundary" inkscape:connector-curvature="0" />
	<path style="fill:none;stroke:red;stroke-width:1px;stroke-linecap:butt;stroke-linejoin:miter;stroke-opacity:1" d="M 279.86,795.042 267.072,809.657 z" id="boundary" inkscape:connector-curvature="0" />
	<path style="fill:none;stroke:red;stroke-width:1px;stroke-linecap:butt;stroke-linejoin:miter;stroke-opacity:1" d="M 150.151,807.831 164.766,793.215 z" id="boundary" inkscape:connector-curvature="0" />
	<path style="fill:none;stroke:red;stroke-width:1px;stroke-linecap:butt;stroke-linejoin:miter;stroke-opacity:1" d="M 148.324,398.608 157.459,380.339 z" id="boundary" inkscape:connector-curvature="0" />
	<path style="fill:none;stroke:red;stroke-width:1px;stroke-linecap:butt;stroke-linejoin:miter;stroke-opacity:1" d="M 139.19,281.687 155.632,272.552 z" id="boundary" inkscape:connector-curvature="0" />
	<path style="fill:none;stroke:red;stroke-width:1px;stroke-linecap:butt;stroke-linejoin:miter;stroke-opacity:1" d="M 170.247,932.059 184.862,919.271 z" id="boundary" inkscape:connector-curvature="0" />
	<path style="fill:none;stroke:red;stroke-width:1px;stroke-linecap:butt;stroke-linejoin:miter;stroke-opacity:1" d="M 170.247,932.059 157.459,946.674 z" id="boundary" inkscape:connector-curvature="0" />
	<path style="fill:none;stroke:red;stroke-width:1px;stroke-linecap:butt;stroke-linejoin:miter;stroke-opacity:1" d="M 157.459,380.339 175.727,371.204 z" id="boundary" inkscape:connector-curvature="0" />
	<path style="fill:none;stroke:red;stroke-width:1px;stroke-linecap:butt;stroke-linejoin:miter;stroke-opacity:1" d="M 155.632,272.552 170.247,257.937 z" id="boundary" inkscape:connector-curvature="0" />
	<path style="fill:none;stroke:red;stroke-width:1px;stroke-linecap:butt;stroke-linejoin:miter;stroke-opacity:1" d="M 462.549,780.427 475.337,795.042 z" id="boundary" inkscape:connector-curvature="0" />
	<path style="fill:none;stroke:red;stroke-width:1px;stroke-linecap:butt;stroke-linejoin:miter;stroke-opacity:1" d="M 164.766,793.215 173.901,774.947 z" id="boundary" inkscape:connector-curvature="0" />
	<path style="fill:none;stroke:red;stroke-width:1px;stroke-linecap:butt;stroke-linejoin:miter;stroke-opacity:1" d="M 175.727,371.204 188.516,356.589 z" id="boundary" inkscape:connector-curvature="0" />
	<path style="fill:none;stroke:red;stroke-width:1px;stroke-linecap:butt;stroke-linejoin:miter;stroke-opacity:1" d="M 223.227,365.724 206.785,356.589 z" id="boundary" inkscape:connector-curvature="0" />
	<path style="fill:none;stroke:red;stroke-width:1px;stroke-linecap:butt;stroke-linejoin:miter;stroke-opacity:1" d="M 170.247,257.937 184.862,245.149 z" id="boundary" inkscape:connector-curvature="0" />
	<path style="fill:none;stroke:red;stroke-width:1px;stroke-linecap:butt;stroke-linejoin:miter;stroke-opacity:1" d="M 184.862,245.149 203.131,245.149 z" id="boundary" inkscape:connector-curvature="0" />
	<path style="fill:none;stroke:red;stroke-width:1px;stroke-linecap:butt;stroke-linejoin:miter;stroke-opacity:1" d="M 186.689,753.024 173.901,774.947 z" id="boundary" inkscape:connector-curvature="0" />
	<path style="fill:none;stroke:red;stroke-width:1px;stroke-linecap:butt;stroke-linejoin:miter;stroke-opacity:1" d="M 193.996,901.002 184.862,919.271 z" id="boundary" inkscape:connector-curvature="0" />
	<path style="fill:none;stroke:red;stroke-width:1px;stroke-linecap:butt;stroke-linejoin:miter;stroke-opacity:1" d="M 201.304,738.409 186.689,753.024 z" id="boundary" inkscape:connector-curvature="0" />
	<path style="fill:none;stroke:red;stroke-width:1px;stroke-linecap:butt;stroke-linejoin:miter;stroke-opacity:1" d="M 193.996,901.002 206.785,886.387 z" id="boundary" inkscape:connector-curvature="0" />
	<path style="fill:none;stroke:red;stroke-width:1px;stroke-linecap:butt;stroke-linejoin:miter;stroke-opacity:1" d="M 188.516,356.589 206.785,356.589 z" id="boundary" inkscape:connector-curvature="0" />
	<path style="fill:none;stroke:red;stroke-width:1px;stroke-linecap:butt;stroke-linejoin:miter;stroke-opacity:1" d="M 230.534,855.33 215.919,868.118 z" id="boundary" inkscape:connector-curvature="0" />
	<path style="fill:none;stroke:red;stroke-width:1px;stroke-linecap:butt;stroke-linejoin:miter;stroke-opacity:1" d="M 232.361,382.166 223.227,365.724 z" id="boundary" inkscape:connector-curvature="0" />
	<path style="fill:none;stroke:red;stroke-width:1px;stroke-linecap:butt;stroke-linejoin:miter;stroke-opacity:1" d="M 203.131,245.149 219.573,236.015 z" id="boundary" inkscape:connector-curvature="0" />
	<path style="fill:none;stroke:red;stroke-width:1px;stroke-linecap:butt;stroke-linejoin:miter;stroke-opacity:1" d="M 219.573,236.015 237.842,236.015 z" id="boundary" inkscape:connector-curvature="0" />
	<path style="fill:none;stroke:red;stroke-width:1px;stroke-linecap:butt;stroke-linejoin:miter;stroke-opacity:1" d="M 201.304,738.409 210.438,720.14 z" id="boundary" inkscape:connector-curvature="0" />
	<path style="fill:none;stroke:red;stroke-width:1px;stroke-linecap:butt;stroke-linejoin:miter;stroke-opacity:1" d="M 215.919,868.118 206.785,886.387 z" id="boundary" inkscape:connector-curvature="0" />
	<path style="fill:none;stroke:red;stroke-width:1px;stroke-linecap:butt;stroke-linejoin:miter;stroke-opacity:1" d="M 210.438,720.14 219.573,701.871 z" id="boundary" inkscape:connector-curvature="0" />
	<path style="fill:none;stroke:red;stroke-width:1px;stroke-linecap:butt;stroke-linejoin:miter;stroke-opacity:1" d="M 462.549,780.427 447.934,767.639 z" id="boundary" inkscape:connector-curvature="0" />
	<path style="fill:none;stroke:red;stroke-width:1px;stroke-linecap:butt;stroke-linejoin:miter;stroke-opacity:1" d="M 232.361,400.435 241.495,416.877 z" id="boundary" inkscape:connector-curvature="0" />
	<path style="fill:none;stroke:red;stroke-width:1px;stroke-linecap:butt;stroke-linejoin:miter;stroke-opacity:1" d="M 241.495,416.877 243.322,435.145 z" id="boundary" inkscape:connector-curvature="0" />
	<path style="fill:none;stroke:red;stroke-width:1px;stroke-linecap:butt;stroke-linejoin:miter;stroke-opacity:1" d="M 230.534,855.33 243.322,840.715 z" id="boundary" inkscape:connector-curvature="0" />
	<path style="fill:none;stroke:red;stroke-width:1px;stroke-linecap:butt;stroke-linejoin:miter;stroke-opacity:1" d="M 243.322,435.145 250.63,453.414 z" id="boundary" inkscape:connector-curvature="0" />
	<path style="fill:none;stroke:red;stroke-width:1px;stroke-linecap:butt;stroke-linejoin:miter;stroke-opacity:1" d="M 256.11,236.015 237.842,236.015 z" id="boundary" inkscape:connector-curvature="0" />
	<path style="fill:none;stroke:red;stroke-width:1px;stroke-linecap:butt;stroke-linejoin:miter;stroke-opacity:1" d="M 219.573,701.871 232.361,679.948 z" id="boundary" inkscape:connector-curvature="0" />
	<path style="fill:none;stroke:red;stroke-width:1px;stroke-linecap:butt;stroke-linejoin:miter;stroke-opacity:1" d="M 274.379,226.88 256.11,236.015 z" id="boundary" inkscape:connector-curvature="0" />
	<path style="fill:none;stroke:red;stroke-width:1px;stroke-linecap:butt;stroke-linejoin:miter;stroke-opacity:1" d="M 232.361,679.948 241.495,661.68 z" id="boundary" inkscape:connector-curvature="0" />
	<path style="fill:none;stroke:red;stroke-width:1px;stroke-linecap:butt;stroke-linejoin:miter;stroke-opacity:1" d="M 256.11,647.064 241.495,661.68 z" id="boundary" inkscape:connector-curvature="0" />
	<path style="fill:none;stroke:red;stroke-width:1px;stroke-linecap:butt;stroke-linejoin:miter;stroke-opacity:1" d="M 256.11,647.064 259.764,625.142 z" id="boundary" inkscape:connector-curvature="0" />
	<path style="fill:none;stroke:red;stroke-width:1px;stroke-linecap:butt;stroke-linejoin:miter;stroke-opacity:1" d="M 404.088,731.101 420.53,740.236 z" id="boundary" inkscape:connector-curvature="0" />
	<path style="fill:none;stroke:red;stroke-width:1px;stroke-linecap:butt;stroke-linejoin:miter;stroke-opacity:1" d="M 259.764,469.856 259.764,488.125 z" id="boundary" inkscape:connector-curvature="0" />
	<path style="fill:none;stroke:red;stroke-width:1px;stroke-linecap:butt;stroke-linejoin:miter;stroke-opacity:1" d="M 259.764,469.856 250.63,453.414 z" id="boundary" inkscape:connector-curvature="0" />
	<path style="fill:none;stroke:red;stroke-width:1px;stroke-linecap:butt;stroke-linejoin:miter;stroke-opacity:1" d="M 252.457,822.446 267.072,809.657 z" id="boundary" inkscape:connector-curvature="0" />
	<path style="fill:none;stroke:red;stroke-width:1px;stroke-linecap:butt;stroke-linejoin:miter;stroke-opacity:1" d="M 252.457,822.446 243.322,840.715 z" id="boundary" inkscape:connector-curvature="0" />
	<path style="fill:none;stroke:red;stroke-width:1px;stroke-linecap:butt;stroke-linejoin:miter;stroke-opacity:1" d="M 268.899,504.567 268.899,522.836 z" id="boundary" inkscape:connector-curvature="0" />
	<path style="fill:none;stroke:red;stroke-width:1px;stroke-linecap:butt;stroke-linejoin:miter;stroke-opacity:1" d="M 268.899,504.567 259.764,488.125 z" id="boundary" inkscape:connector-curvature="0" />
	<path style="fill:none;stroke:red;stroke-width:1px;stroke-linecap:butt;stroke-linejoin:miter;stroke-opacity:1" d="M 287.168,203.131 274.379,226.88 z" id="boundary" inkscape:connector-curvature="0" />
	<path style="fill:none;stroke:red;stroke-width:1px;stroke-linecap:butt;stroke-linejoin:miter;stroke-opacity:1" d="M 278.033,168.42 278.033,150.151 z" id="boundary" inkscape:connector-curvature="0" />
	<path style="fill:none;stroke:red;stroke-width:1px;stroke-linecap:butt;stroke-linejoin:miter;stroke-opacity:1" d="M 389.473,718.313 404.088,731.101 z" id="boundary" inkscape:connector-curvature="0" />
	<path style="fill:none;stroke:red;stroke-width:1px;stroke-linecap:butt;stroke-linejoin:miter;stroke-opacity:1" d="M 301.783,117.267 310.917,98.9982 z" id="boundary" inkscape:connector-curvature="0" />
	<path style="fill:none;stroke:red;stroke-width:1px;stroke-linecap:butt;stroke-linejoin:miter;stroke-opacity:1" d="M 287.168,203.131 287.168,184.862 z" id="boundary" inkscape:connector-curvature="0" />
	<path style="fill:none;stroke:red;stroke-width:1px;stroke-linecap:butt;stroke-linejoin:miter;stroke-opacity:1" d="M 259.764,625.142 268.899,606.873 z" id="boundary" inkscape:connector-curvature="0" />
	<path style="fill:none;stroke:red;stroke-width:1px;stroke-linecap:butt;stroke-linejoin:miter;stroke-opacity:1" d="M 343.801,712.832 331.013,727.448 z" id="boundary" inkscape:connector-curvature="0" />
	<path style="fill:none;stroke:red;stroke-width:1px;stroke-linecap:butt;stroke-linejoin:miter;stroke-opacity:1" d="M 278.033,168.42 287.168,184.862 z" id="boundary" inkscape:connector-curvature="0" />
	<path style="fill:none;stroke:red;stroke-width:1px;stroke-linecap:butt;stroke-linejoin:miter;stroke-opacity:1" d="M 426.011,135.536 413.223,120.921 z" id="boundary" inkscape:connector-curvature="0" />
	<path style="fill:none;stroke:red;stroke-width:1px;stroke-linecap:butt;stroke-linejoin:miter;stroke-opacity:1" d="M 278.033,539.278 268.899,522.836 z" id="boundary" inkscape:connector-curvature="0" />
	<path style="fill:none;stroke:red;stroke-width:1px;stroke-linecap:butt;stroke-linejoin:miter;stroke-opacity:1" d="M 278.033,557.547 278.033,539.278 z" id="boundary" inkscape:connector-curvature="0" />
	<path style="fill:none;stroke:red;stroke-width:1px;stroke-linecap:butt;stroke-linejoin:miter;stroke-opacity:1" d="M 320.052,80.7293 329.186,62.4604 z" id="boundary" inkscape:connector-curvature="0" />
	<path style="fill:none;stroke:red;stroke-width:1px;stroke-linecap:butt;stroke-linejoin:miter;stroke-opacity:1" d="M 278.033,150.151 287.168,131.882 z" id="boundary" inkscape:connector-curvature="0" />
	<path style="fill:none;stroke:red;stroke-width:1px;stroke-linecap:butt;stroke-linejoin:miter;stroke-opacity:1" d="M 268.899,606.873 278.033,575.816 z" id="boundary" inkscape:connector-curvature="0" />
	<path style="fill:none;stroke:red;stroke-width:1px;stroke-linecap:butt;stroke-linejoin:miter;stroke-opacity:1" d="M 278.033,575.816 278.033,557.547 z" id="boundary" inkscape:connector-curvature="0" />
	<path style="fill:none;stroke:red;stroke-width:1px;stroke-linecap:butt;stroke-linejoin:miter;stroke-opacity:1" d="M 316.398,740.236 331.013,727.448 z" id="boundary" inkscape:connector-curvature="0" />
	<path style="fill:none;stroke:red;stroke-width:1px;stroke-linecap:butt;stroke-linejoin:miter;stroke-opacity:1" d="M 360.243,703.698 343.801,712.832 z" id="boundary" inkscape:connector-curvature="0" />
	<path style="fill:none;stroke:red;stroke-width:1px;stroke-linecap:butt;stroke-linejoin:miter;stroke-opacity:1" d="M 444.28,557.547 444.28,539.278 z" id="boundary" inkscape:connector-curvature="0" />
	<path style="fill:none;stroke:red;stroke-width:1px;stroke-linecap:butt;stroke-linejoin:miter;stroke-opacity:1" d="M 287.168,131.882 301.783,117.267 z" id="boundary" inkscape:connector-curvature="0" />
	<path style="fill:none;stroke:red;stroke-width:1px;stroke-linecap:butt;stroke-linejoin:miter;stroke-opacity:1" d="M 396.781,86.2099 389.473,67.9411 z" id="boundary" inkscape:connector-curvature="0" />
	<path style="fill:none;stroke:red;stroke-width:1px;stroke-linecap:butt;stroke-linejoin:miter;stroke-opacity:1" d="M 389.473,67.9411 380.339,51.4991 z" id="boundary" inkscape:connector-curvature="0" />
	<path style="fill:none;stroke:red;stroke-width:1px;stroke-linecap:butt;stroke-linejoin:miter;stroke-opacity:1" d="M 341.974,40.5378 341.974,22.2689 z" id="boundary" inkscape:connector-curvature="0" />
	<path style="fill:none;stroke:red;stroke-width:1px;stroke-linecap:butt;stroke-linejoin:miter;stroke-opacity:1" d="M 378.512,703.698 389.473,718.313 z" id="boundary" inkscape:connector-curvature="0" />
	<path style="fill:none;stroke:red;stroke-width:1px;stroke-linecap:butt;stroke-linejoin:miter;stroke-opacity:1" d="M 378.512,703.698 360.243,703.698 z" id="boundary" inkscape:connector-curvature="0" />
	<path style="fill:none;stroke:red;stroke-width:1px;stroke-linecap:butt;stroke-linejoin:miter;stroke-opacity:1" d="M 316.398,740.236 303.61,763.985 z" id="boundary" inkscape:connector-curvature="0" />
	<path style="fill:none;stroke:red;stroke-width:1px;stroke-linecap:butt;stroke-linejoin:miter;stroke-opacity:1" d="M 380.339,51.4991 371.204,35.0571 z" id="boundary" inkscape:connector-curvature="0" />
	<path style="fill:none;stroke:red;stroke-width:1px;stroke-linecap:butt;stroke-linejoin:miter;stroke-opacity:1" d="M 310.917,98.9982 320.052,80.7293 z" id="boundary" inkscape:connector-curvature="0" />
	<path style="fill:none;stroke:red;stroke-width:1px;stroke-linecap:butt;stroke-linejoin:miter;stroke-opacity:1" d="M 329.186,62.4604 341.974,40.5378 z" id="boundary" inkscape:connector-curvature="0" />
	<path style="fill:none;stroke:red;stroke-width:1px;stroke-linecap:butt;stroke-linejoin:miter;stroke-opacity:1" d="M 420.53,740.236 435.145,753.024 z" id="boundary" inkscape:connector-curvature="0" />
	<path style="fill:none;stroke:red;stroke-width:1px;stroke-linecap:butt;stroke-linejoin:miter;stroke-opacity:1" d="M 371.204,35.0571 365.724,16.7882 z" id="boundary" inkscape:connector-curvature="0" />
	<path style="fill:none;stroke:red;stroke-width:1px;stroke-linecap:butt;stroke-linejoin:miter;stroke-opacity:1" d="M 365.724,16.7882 351.109,4 z" id="boundary" inkscape:connector-curvature="0" />
	<path style="fill:none;stroke:red;stroke-width:1px;stroke-linecap:butt;stroke-linejoin:miter;stroke-opacity:1" d="M 351.109,4 341.974,22.2689 z" id="boundary" inkscape:connector-curvature="0" />
	<path style="fill:none;stroke:red;stroke-width:1px;stroke-linecap:butt;stroke-linejoin:miter;stroke-opacity:1" d="M 435.145,753.024 447.934,767.639 z" id="boundary" inkscape:connector-curvature="0" />
	<path style="fill:none;stroke:red;stroke-width:1px;stroke-linecap:butt;stroke-linejoin:miter;stroke-opacity:1" d="M 396.781,86.2099 405.915,102.652 z" id="boundary" inkscape:connector-curvature="0" />
	<path style="fill:none;stroke:red;stroke-width:1px;stroke-linecap:butt;stroke-linejoin:miter;stroke-opacity:1" d="M 444.28,575.816 444.28,557.547 z" id="boundary" inkscape:connector-curvature="0" />
	<path style="fill:none;stroke:red;stroke-width:1px;stroke-linecap:butt;stroke-linejoin:miter;stroke-opacity:1" d="M 475.337,795.042 489.952,807.831 z" id="boundary" inkscape:connector-curvature="0" />
	<path style="fill:none;stroke:red;stroke-width:1px;stroke-linecap:butt;stroke-linejoin:miter;stroke-opacity:1" d="M 489.952,807.831 502.74,822.446 z" id="boundary" inkscape:connector-curvature="0" />
	<path style="fill:none;stroke:red;stroke-width:1px;stroke-linecap:butt;stroke-linejoin:miter;stroke-opacity:1" d="M 405.915,102.652 413.223,120.921 z" id="boundary" inkscape:connector-curvature="0" />
	<path style="fill:none;stroke:red;stroke-width:1px;stroke-linecap:butt;stroke-linejoin:miter;stroke-opacity:1" d="M 426.011,210.438 426.011,192.169 z" id="boundary" inkscape:connector-curvature="0" />
	<path style="fill:none;stroke:red;stroke-width:1px;stroke-linecap:butt;stroke-linejoin:miter;stroke-opacity:1" d="M 426.011,210.438 435.145,226.88 z" id="boundary" inkscape:connector-curvature="0" />
	<path style="fill:none;stroke:red;stroke-width:1px;stroke-linecap:butt;stroke-linejoin:miter;stroke-opacity:1" d="M 435.145,226.88 451.587,236.015 z" id="boundary" inkscape:connector-curvature="0" />
	<path style="fill:none;stroke:red;stroke-width:1px;stroke-linecap:butt;stroke-linejoin:miter;stroke-opacity:1" d="M 453.414,612.354 447.934,594.085 z" id="boundary" inkscape:connector-curvature="0" />
	<path style="fill:none;stroke:red;stroke-width:1px;stroke-linecap:butt;stroke-linejoin:miter;stroke-opacity:1" d="M 435.145,170.247 435.145,151.978 z" id="boundary" inkscape:connector-curvature="0" />
	<path style="fill:none;stroke:red;stroke-width:1px;stroke-linecap:butt;stroke-linejoin:miter;stroke-opacity:1" d="M 435.145,151.978 426.011,135.536 z" id="boundary" inkscape:connector-curvature="0" />
	<path style="fill:none;stroke:red;stroke-width:1px;stroke-linecap:butt;stroke-linejoin:miter;stroke-opacity:1" d="M 426.011,192.169 435.145,170.247 z" id="boundary" inkscape:connector-curvature="0" />
	<path style="fill:none;stroke:red;stroke-width:1px;stroke-linecap:butt;stroke-linejoin:miter;stroke-opacity:1" d="M 444.28,575.816 447.934,594.085 z" id="boundary" inkscape:connector-curvature="0" />
	<path style="fill:none;stroke:red;stroke-width:1px;stroke-linecap:butt;stroke-linejoin:miter;stroke-opacity:1" d="M 462.549,628.796 453.414,612.354 z" id="boundary" inkscape:connector-curvature="0" />
	<path style="fill:none;stroke:red;stroke-width:1px;stroke-linecap:butt;stroke-linejoin:miter;stroke-opacity:1" d="M 471.683,645.238 462.549,628.796 z" id="boundary" inkscape:connector-curvature="0" />
	<path style="fill:none;stroke:red;stroke-width:1px;stroke-linecap:butt;stroke-linejoin:miter;stroke-opacity:1" d="M 453.414,521.009 444.28,539.278 z" id="boundary" inkscape:connector-curvature="0" />
	<path style="fill:none;stroke:red;stroke-width:1px;stroke-linecap:butt;stroke-linejoin:miter;stroke-opacity:1" d="M 453.414,521.009 453.414,502.74 z" id="boundary" inkscape:connector-curvature="0" />
	<path style="fill:none;stroke:red;stroke-width:1px;stroke-linecap:butt;stroke-linejoin:miter;stroke-opacity:1" d="M 639.757,482.645 625.142,469.856 z" id="boundary" inkscape:connector-curvature="0" />
	<path style="fill:none;stroke:red;stroke-width:1px;stroke-linecap:butt;stroke-linejoin:miter;stroke-opacity:1" d="M 453.414,502.74 462.549,475.337 z" id="boundary" inkscape:connector-curvature="0" />
	<path style="fill:none;stroke:red;stroke-width:1px;stroke-linecap:butt;stroke-linejoin:miter;stroke-opacity:1" d="M 462.549,475.337 462.549,457.068 z" id="boundary" inkscape:connector-curvature="0" />
	<path style="fill:none;stroke:red;stroke-width:1px;stroke-linecap:butt;stroke-linejoin:miter;stroke-opacity:1" d="M 486.298,658.026 493.606,676.295 z" id="boundary" inkscape:connector-curvature="0" />
	<path style="fill:none;stroke:red;stroke-width:1px;stroke-linecap:butt;stroke-linejoin:miter;stroke-opacity:1" d="M 486.298,658.026 471.683,645.238 z" id="boundary" inkscape:connector-curvature="0" />
	<path style="fill:none;stroke:red;stroke-width:1px;stroke-linecap:butt;stroke-linejoin:miter;stroke-opacity:1" d="M 471.683,429.665 462.549,457.068 z" id="boundary" inkscape:connector-curvature="0" />
	<path style="fill:none;stroke:red;stroke-width:1px;stroke-linecap:butt;stroke-linejoin:miter;stroke-opacity:1" d="M 471.683,429.665 471.683,411.396 z" id="boundary" inkscape:connector-curvature="0" />
	<path style="fill:none;stroke:red;stroke-width:1px;stroke-linecap:butt;stroke-linejoin:miter;stroke-opacity:1" d="M 590.431,426.011 579.47,411.396 z" id="boundary" inkscape:connector-curvature="0" />
	<path style="fill:none;stroke:red;stroke-width:1px;stroke-linecap:butt;stroke-linejoin:miter;stroke-opacity:1" d="M 579.47,411.396 564.855,400.435 z" id="boundary" inkscape:connector-curvature="0" />
	<path style="fill:none;stroke:red;stroke-width:1px;stroke-linecap:butt;stroke-linejoin:miter;stroke-opacity:1" d="M 451.587,236.015 469.856,236.015 z" id="boundary" inkscape:connector-curvature="0" />
	<path style="fill:none;stroke:red;stroke-width:1px;stroke-linecap:butt;stroke-linejoin:miter;stroke-opacity:1" d="M 526.49,360.243 542.932,369.378 z" id="boundary" inkscape:connector-curvature="0" />
	<path style="fill:none;stroke:red;stroke-width:1px;stroke-linecap:butt;stroke-linejoin:miter;stroke-opacity:1" d="M 469.856,236.015 488.125,236.015 z" id="boundary" inkscape:connector-curvature="0" />
	<path style="fill:none;stroke:red;stroke-width:1px;stroke-linecap:butt;stroke-linejoin:miter;stroke-opacity:1" d="M 521.009,703.698 508.221,689.083 z" id="boundary" inkscape:connector-curvature="0" />
	<path style="fill:none;stroke:red;stroke-width:1px;stroke-linecap:butt;stroke-linejoin:miter;stroke-opacity:1" d="M 480.818,393.127 471.683,411.396 z" id="boundary" inkscape:connector-curvature="0" />
	<path style="fill:none;stroke:red;stroke-width:1px;stroke-linecap:butt;stroke-linejoin:miter;stroke-opacity:1" d="M 480.818,393.127 480.818,374.858 z" id="boundary" inkscape:connector-curvature="0" />
	<path style="fill:none;stroke:red;stroke-width:1px;stroke-linecap:butt;stroke-linejoin:miter;stroke-opacity:1" d="M 508.221,689.083 493.606,676.295 z" id="boundary" inkscape:connector-curvature="0" />
	<path style="fill:none;stroke:red;stroke-width:1px;stroke-linecap:butt;stroke-linejoin:miter;stroke-opacity:1" d="M 508.221,356.589 526.49,360.243 z" id="boundary" inkscape:connector-curvature="0" />
	<path style="fill:none;stroke:red;stroke-width:1px;stroke-linecap:butt;stroke-linejoin:miter;stroke-opacity:1" d="M 489.952,356.589 480.818,374.858 z" id="boundary" inkscape:connector-curvature="0" />
	<path style="fill:none;stroke:red;stroke-width:1px;stroke-linecap:butt;stroke-linejoin:miter;stroke-opacity:1" d="M 508.221,356.589 489.952,356.589 z" id="boundary" inkscape:connector-curvature="0" />
	<path style="fill:none;stroke:red;stroke-width:1px;stroke-linecap:butt;stroke-linejoin:miter;stroke-opacity:1" d="M 542.932,369.378 557.547,382.166 z" id="boundary" inkscape:connector-curvature="0" />
	<path style="fill:none;stroke:red;stroke-width:1px;stroke-linecap:butt;stroke-linejoin:miter;stroke-opacity:1" d="M 557.547,382.166 564.855,400.435 z" id="boundary" inkscape:connector-curvature="0" />
	<path style="fill:none;stroke:red;stroke-width:1px;stroke-linecap:butt;stroke-linejoin:miter;stroke-opacity:1" d="M 584.95,904.656 572.162,890.041 z" id="boundary" inkscape:connector-curvature="0" />
	<path style="fill:none;stroke:red;stroke-width:1px;stroke-linecap:butt;stroke-linejoin:miter;stroke-opacity:1" d="M 572.162,890.041 557.547,877.252 z" id="boundary" inkscape:connector-curvature="0" />
	<path style="fill:none;stroke:red;stroke-width:1px;stroke-linecap:butt;stroke-linejoin:miter;stroke-opacity:1" d="M 522.836,245.149 506.394,236.015 z" id="boundary" inkscape:connector-curvature="0" />
	<path style="fill:none;stroke:red;stroke-width:1px;stroke-linecap:butt;stroke-linejoin:miter;stroke-opacity:1" d="M 506.394,236.015 488.125,236.015 z" id="boundary" inkscape:connector-curvature="0" />
	<path style="fill:none;stroke:red;stroke-width:1px;stroke-linecap:butt;stroke-linejoin:miter;stroke-opacity:1" d="M 535.624,716.486 521.009,703.698 z" id="boundary" inkscape:connector-curvature="0" />
	<path style="fill:none;stroke:red;stroke-width:1px;stroke-linecap:butt;stroke-linejoin:miter;stroke-opacity:1" d="M 548.413,731.101 535.624,716.486 z" id="boundary" inkscape:connector-curvature="0" />
	<path style="fill:none;stroke:red;stroke-width:1px;stroke-linecap:butt;stroke-linejoin:miter;stroke-opacity:1" d="M 548.413,731.101 557.547,747.543 z" id="boundary" inkscape:connector-curvature="0" />
	<path style="fill:none;stroke:red;stroke-width:1px;stroke-linecap:butt;stroke-linejoin:miter;stroke-opacity:1" d="M 612.354,932.059 599.565,917.444 z" id="boundary" inkscape:connector-curvature="0" />
	<path style="fill:none;stroke:red;stroke-width:1px;stroke-linecap:butt;stroke-linejoin:miter;stroke-opacity:1" d="M 599.565,917.444 584.95,904.656 z" id="boundary" inkscape:connector-curvature="0" />
	<path style="fill:none;stroke:red;stroke-width:1px;stroke-linecap:butt;stroke-linejoin:miter;stroke-opacity:1" d="M 539.278,254.284 522.836,245.149 z" id="boundary" inkscape:connector-curvature="0" />
	<path style="fill:none;stroke:red;stroke-width:1px;stroke-linecap:butt;stroke-linejoin:miter;stroke-opacity:1" d="M 557.547,747.543 570.335,762.158 z" id="boundary" inkscape:connector-curvature="0" />
	<path style="fill:none;stroke:red;stroke-width:1px;stroke-linecap:butt;stroke-linejoin:miter;stroke-opacity:1" d="M 555.72,263.418 539.278,254.284 z" id="boundary" inkscape:connector-curvature="0" />
	<path style="fill:none;stroke:red;stroke-width:1px;stroke-linecap:butt;stroke-linejoin:miter;stroke-opacity:1" d="M 590.431,426.011 605.046,438.799 z" id="boundary" inkscape:connector-curvature="0" />
	<path style="fill:none;stroke:red;stroke-width:1px;stroke-linecap:butt;stroke-linejoin:miter;stroke-opacity:1" d="M 581.297,776.773 570.335,762.158 z" id="boundary" inkscape:connector-curvature="0" />
	<path style="fill:none;stroke:red;stroke-width:1px;stroke-linecap:butt;stroke-linejoin:miter;stroke-opacity:1" d="M 581.297,290.821 570.335,276.206 z" id="boundary" inkscape:connector-curvature="0" />
	<path style="fill:none;stroke:red;stroke-width:1px;stroke-linecap:butt;stroke-linejoin:miter;stroke-opacity:1" d="M 570.335,276.206 555.72,263.418 z" id="boundary" inkscape:connector-curvature="0" />
	<path style="fill:none;stroke:red;stroke-width:1px;stroke-linecap:butt;stroke-linejoin:miter;stroke-opacity:1" d="M 616.007,453.414 605.046,438.799 z" id="boundary" inkscape:connector-curvature="0" />
	<path style="fill:none;stroke:red;stroke-width:1px;stroke-linecap:butt;stroke-linejoin:miter;stroke-opacity:1" d="M 625.142,469.856 616.007,453.414 z" id="boundary" inkscape:connector-curvature="0" />
	<path style="fill:none;stroke:red;stroke-width:1px;stroke-linecap:butt;stroke-linejoin:miter;stroke-opacity:1" d="M 612.354,932.059 626.969,944.847 z" id="boundary" inkscape:connector-curvature="0" />
	<path style="fill:none;stroke:red;stroke-width:1px;stroke-linecap:butt;stroke-linejoin:miter;stroke-opacity:1" d="M 590.431,793.215 581.297,776.773 z" id="boundary" inkscape:connector-curvature="0" />
	<path style="fill:none;stroke:red;stroke-width:1px;stroke-linecap:butt;stroke-linejoin:miter;stroke-opacity:1" d="M 639.757,482.645 652.545,497.26 z" id="boundary" inkscape:connector-curvature="0" />
	<path style="fill:none;stroke:red;stroke-width:1px;stroke-linecap:butt;stroke-linejoin:miter;stroke-opacity:1" d="M 581.297,290.821 590.431,307.263 z" id="boundary" inkscape:connector-curvature="0" />
	<path style="fill:none;stroke:red;stroke-width:1px;stroke-linecap:butt;stroke-linejoin:miter;stroke-opacity:1" d="M 605.046,804.177 590.431,793.215 z" id="boundary" inkscape:connector-curvature="0" />
	<path style="fill:none;stroke:red;stroke-width:1px;stroke-linecap:butt;stroke-linejoin:miter;stroke-opacity:1" d="M 605.046,320.052 590.431,307.263 z" id="boundary" inkscape:connector-curvature="0" />
	<path style="fill:none;stroke:red;stroke-width:1px;stroke-linecap:butt;stroke-linejoin:miter;stroke-opacity:1" d="M 617.834,818.792 605.046,804.177 z" id="boundary" inkscape:connector-curvature="0" />
	<path style="fill:none;stroke:red;stroke-width:1px;stroke-linecap:butt;stroke-linejoin:miter;stroke-opacity:1" d="M 605.046,320.052 617.834,334.667 z" id="boundary" inkscape:connector-curvature="0" />
	<path style="fill:none;stroke:red;stroke-width:1px;stroke-linecap:butt;stroke-linejoin:miter;stroke-opacity:1" d="M 658.026,966.77 643.411,953.982 z" id="boundary" inkscape:connector-curvature="0" />
	<path style="fill:none;stroke:red;stroke-width:1px;stroke-linecap:butt;stroke-linejoin:miter;stroke-opacity:1" d="M 643.411,953.982 626.969,944.847 z" id="boundary" inkscape:connector-curvature="0" />
	<path style="fill:none;stroke:red;stroke-width:1px;stroke-linecap:butt;stroke-linejoin:miter;stroke-opacity:1" d="M 617.834,334.667 626.969,351.109 z" id="boundary" inkscape:connector-curvature="0" />
	<path style="fill:none;stroke:red;stroke-width:1px;stroke-linecap:butt;stroke-linejoin:miter;stroke-opacity:1" d="M 632.449,831.58 617.834,818.792 z" id="boundary" inkscape:connector-curvature="0" />
	<path style="fill:none;stroke:red;stroke-width:1px;stroke-linecap:butt;stroke-linejoin:miter;stroke-opacity:1" d="M 626.969,351.109 639.757,365.724 z" id="boundary" inkscape:connector-curvature="0" />
	<path style="fill:none;stroke:red;stroke-width:1px;stroke-linecap:butt;stroke-linejoin:miter;stroke-opacity:1" d="M 645.238,846.195 632.449,831.58 z" id="boundary" inkscape:connector-curvature="0" />
	<path style="fill:none;stroke:red;stroke-width:1px;stroke-linecap:butt;stroke-linejoin:miter;stroke-opacity:1" d="M 670.814,502.74 681.775,517.355 z" id="boundary" inkscape:connector-curvature="0" />
	<path style="fill:none;stroke:red;stroke-width:1px;stroke-linecap:butt;stroke-linejoin:miter;stroke-opacity:1" d="M 670.814,502.74 652.545,497.26 z" id="boundary" inkscape:connector-curvature="0" />
	<path style="fill:none;stroke:red;stroke-width:1px;stroke-linecap:butt;stroke-linejoin:miter;stroke-opacity:1" d="M 654.372,862.637 645.238,846.195 z" id="boundary" inkscape:connector-curvature="0" />
	<path style="fill:none;stroke:red;stroke-width:1px;stroke-linecap:butt;stroke-linejoin:miter;stroke-opacity:1" d="M 639.757,365.724 648.891,382.166 z" id="boundary" inkscape:connector-curvature="0" />
	<path style="fill:none;stroke:red;stroke-width:1px;stroke-linecap:butt;stroke-linejoin:miter;stroke-opacity:1" d="M 661.68,396.781 648.891,382.166 z" id="boundary" inkscape:connector-curvature="0" />
	<path style="fill:none;stroke:red;stroke-width:1px;stroke-linecap:butt;stroke-linejoin:miter;stroke-opacity:1" d="M 667.16,877.252 654.372,862.637 z" id="boundary" inkscape:connector-curvature="0" />
	<path style="fill:none;stroke:red;stroke-width:1px;stroke-linecap:butt;stroke-linejoin:miter;stroke-opacity:1" d="M 658.026,966.77 674.468,975.904 z" id="boundary" inkscape:connector-curvature="0" />
	<path style="fill:none;stroke:red;stroke-width:1px;stroke-linecap:butt;stroke-linejoin:miter;stroke-opacity:1" d="M 681.775,517.355 700.044,521.009 z" id="boundary" inkscape:connector-curvature="0" />
	<path style="fill:none;stroke:red;stroke-width:1px;stroke-linecap:butt;stroke-linejoin:miter;stroke-opacity:1" d="M 700.044,521.009 718.313,521.009 z" id="boundary" inkscape:connector-curvature="0" />
	<path style="fill:none;stroke:red;stroke-width:1px;stroke-linecap:butt;stroke-linejoin:miter;stroke-opacity:1" d="M 661.68,396.781 670.814,413.223 z" id="boundary" inkscape:connector-curvature="0" />
	<path style="fill:none;stroke:red;stroke-width:1px;stroke-linecap:butt;stroke-linejoin:miter;stroke-opacity:1" d="M 670.814,413.223 681.775,427.838 z" id="boundary" inkscape:connector-curvature="0" />
	<path style="fill:none;stroke:red;stroke-width:1px;stroke-linecap:butt;stroke-linejoin:miter;stroke-opacity:1" d="M 681.775,890.041 667.16,877.252 z" id="boundary" inkscape:connector-curvature="0" />
	<path style="fill:none;stroke:red;stroke-width:1px;stroke-linecap:butt;stroke-linejoin:miter;stroke-opacity:1" d="M 689.083,908.309 681.775,890.041 z" id="boundary" inkscape:connector-curvature="0" />
	<path style="fill:none;stroke:red;stroke-width:1px;stroke-linecap:butt;stroke-linejoin:miter;stroke-opacity:1" d="M 674.468,975.904 692.737,983.212 z" id="boundary" inkscape:connector-curvature="0" />
	<path style="fill:none;stroke:red;stroke-width:1px;stroke-linecap:butt;stroke-linejoin:miter;stroke-opacity:1" d="M 709.179,939.366 700.044,922.924 z" id="boundary" inkscape:connector-curvature="0" />
	<path style="fill:none;stroke:red;stroke-width:1px;stroke-linecap:butt;stroke-linejoin:miter;stroke-opacity:1" d="M 690.91,444.28 681.775,427.838 z" id="boundary" inkscape:connector-curvature="0" />
	<path style="fill:none;stroke:red;stroke-width:1px;stroke-linecap:butt;stroke-linejoin:miter;stroke-opacity:1" d="M 692.737,983.212 711.006,986.866 z" id="boundary" inkscape:connector-curvature="0" />
	<path style="fill:none;stroke:red;stroke-width:1px;stroke-linecap:butt;stroke-linejoin:miter;stroke-opacity:1" d="M 700.044,922.924 689.083,908.309 z" id="boundary" inkscape:connector-curvature="0" />
	<path style="fill:none;stroke:red;stroke-width:1px;stroke-linecap:butt;stroke-linejoin:miter;stroke-opacity:1" d="M 705.525,457.068 690.91,444.28 z" id="boundary" inkscape:connector-curvature="0" />
	<path style="fill:none;stroke:red;stroke-width:1px;stroke-linecap:butt;stroke-linejoin:miter;stroke-opacity:1" d="M 712.832,475.337 705.525,457.068 z" id="boundary" inkscape:connector-curvature="0" />
	<path style="fill:none;stroke:red;stroke-width:1px;stroke-linecap:butt;stroke-linejoin:miter;stroke-opacity:1" d="M 709.179,939.366 718.313,955.808 z" id="boundary" inkscape:connector-curvature="0" />
	<path style="fill:none;stroke:red;stroke-width:1px;stroke-linecap:butt;stroke-linejoin:miter;stroke-opacity:1" d="M 721.967,491.779 712.832,475.337 z" id="boundary" inkscape:connector-curvature="0" />
	<path style="fill:none;stroke:red;stroke-width:1px;stroke-linecap:butt;stroke-linejoin:miter;stroke-opacity:1" d="M 711.006,986.866 718.313,955.808 z" id="boundary" inkscape:connector-curvature="0" />
	<path style="fill:none;stroke:red;stroke-width:1px;stroke-linecap:butt;stroke-linejoin:miter;stroke-opacity:1" d="M 718.313,521.009 721.967,491.779 z" id="boundary" inkscape:connector-curvature="0" />
	<circle cx="4" cy="478.991" r="4" fill="#0" id="circle0"/>
	<circle cx="13.1344" cy="460.722" r="4" fill="#0" id="circle1"/>
	<circle cx="18.6151" cy="491.779" r="4" fill="#0" id="circle2"/>
	<circle cx="22.2689" cy="442.453" r="4" fill="#0" id="circle3"/>
	<circle cx="33.2302" cy="502.74" r="4" fill="#0" id="circle4"/>
	<circle cx="36.884" cy="427.838" r="4" fill="#0" id="circle5"/>
	<circle cx="46.0184" cy="409.569" r="4" fill="#0" id="circle6"/>
	<circle cx="47.8453" cy="489.952" r="4" fill="#0" id="circle7"/>
	<circle cx="60.6335" cy="394.954" r="4" fill="#0" id="circle8"/>
	<circle cx="60.6335" cy="475.337" r="4" fill="#0" id="circle9"/>
	<circle cx="67.9411" cy="963.116" r="4" fill="#0" id="circle10"/>
	<circle cx="67.9411" cy="981.385" r="4" fill="#0" id="circle11"/>
	<circle cx="69.768" cy="376.685" r="4" fill="#0" id="circle12"/>
	<circle cx="75.2486" cy="462.549" r="4" fill="#0" id="circle13"/>
	<circle cx="77.0755" cy="935.713" r="4" fill="#0" id="circle14"/>
	<circle cx="78.9024" cy="996" r="4" fill="#0" id="circle15"/>
	<circle cx="84.3831" cy="363.897" r="4" fill="#0" id="circle16"/>
	<circle cx="86.2099" cy="917.444" r="4" fill="#0" id="circle17"/>
	<circle cx="91.6906" cy="345.628" r="4" fill="#0" id="circle18"/>
	<circle cx="93.5175" cy="453.414" r="4" fill="#0" id="circle19"/>
	<circle cx="95.3444" cy="899.175" r="4" fill="#0" id="circle20"/>
	<circle cx="97.1713" cy="996" r="4" fill="#0" id="circle21"/>
	<circle cx="104.479" cy="880.906" r="4" fill="#0" id="circle22"/>
	<circle cx="106.306" cy="331.013" r="4" fill="#0" id="circle23"/>
	<circle cx="106.306" cy="438.799" r="4" fill="#0" id="circle24"/>
	<circle cx="113.613" cy="986.866" r="4" fill="#0" id="circle25"/>
	<circle cx="115.44" cy="312.744" r="4" fill="#0" id="circle26"/>
	<circle cx="119.094" cy="866.291" r="4" fill="#0" id="circle27"/>
	<circle cx="120.921" cy="426.011" r="4" fill="#0" id="circle28"/>
	<circle cx="124.575" cy="294.475" r="4" fill="#0" id="circle29"/>
	<circle cx="128.228" cy="848.022" r="4" fill="#0" id="circle30"/>
	<circle cx="128.228" cy="975.904" r="4" fill="#0" id="circle31"/>
	<circle cx="133.709" cy="411.396" r="4" fill="#0" id="circle32"/>
	<circle cx="139.19" cy="281.687" r="4" fill="#0" id="circle33"/>
	<circle cx="141.017" cy="826.099" r="4" fill="#0" id="circle34"/>
	<circle cx="142.843" cy="959.462" r="4" fill="#0" id="circle35"/>
	<circle cx="148.324" cy="398.608" r="4" fill="#0" id="circle36"/>
	<circle cx="150.151" cy="807.831" r="4" fill="#0" id="circle37"/>
	<circle cx="155.632" cy="272.552" r="4" fill="#0" id="circle38"/>
	<circle cx="157.459" cy="380.339" r="4" fill="#0" id="circle39"/>
	<circle cx="157.459" cy="946.674" r="4" fill="#0" id="circle40"/>
	<circle cx="164.766" cy="793.215" r="4" fill="#0" id="circle41"/>
	<circle cx="170.247" cy="257.937" r="4" fill="#0" id="circle42"/>
	<circle cx="170.247" cy="932.059" r="4" fill="#0" id="circle43"/>
	<circle cx="173.901" cy="774.947" r="4" fill="#0" id="circle44"/>
	<circle cx="175.727" cy="371.204" r="4" fill="#0" id="circle45"/>
	<circle cx="184.862" cy="245.149" r="4" fill="#0" id="circle46"/>
	<circle cx="184.862" cy="919.271" r="4" fill="#0" id="circle47"/>
	<circle cx="186.689" cy="753.024" r="4" fill="#0" id="circle48"/>
	<circle cx="188.516" cy="356.589" r="4" fill="#0" id="circle49"/>
	<circle cx="193.996" cy="901.002" r="4" fill="#0" id="circle50"/>
	<circle cx="201.304" cy="738.409" r="4" fill="#0" id="circle51"/>
	<circle cx="203.131" cy="245.149" r="4" fill="#0" id="circle52"/>
	<circle cx="206.785" cy="356.589" r="4" fill="#0" id="circle53"/>
	<circle cx="206.785" cy="886.387" r="4" fill="#0" id="circle54"/>
	<circle cx="210.438" cy="720.14" r="4" fill="#0" id="circle55"/>
	<circle cx="215.919" cy="868.118" r="4" fill="#0" id="circle56"/>
	<circle cx="219.573" cy="236.015" r="4" fill="#0" id="circle57"/>
	<circle cx="219.573" cy="701.871" r="4" fill="#0" id="circle58"/>
	<circle cx="223.227" cy="365.724" r="4" fill="#0" id="circle59"/>
	<circle cx="230.534" cy="855.33" r="4" fill="#0" id="circle60"/>
	<circle cx="232.361" cy="382.166" r="4" fill="#0" id="circle61"/>
	<circle cx="232.361" cy="400.435" r="4" fill="#0" id="circle62"/>
	<circle cx="232.361" cy="679.948" r="4" fill="#0" id="circle63"/>
	<circle cx="237.842" cy="236.015" r="4" fill="#0" id="circle64"/>
	<circle cx="241.495" cy="416.877" r="4" fill="#0" id="circle65"/>
	<circle cx="241.495" cy="661.68" r="4" fill="#0" id="circle66"/>
	<circle cx="243.322" cy="435.145" r="4" fill="#0" id="circle67"/>
	<circle cx="243.322" cy="840.715" r="4" fill="#0" id="circle68"/>
	<circle cx="250.63" cy="453.414" r="4" fill="#0" id="circle69"/>
	<circle cx="252.457" cy="822.446" r="4" fill="#0" id="circle70"/>
	<circle cx="256.11" cy="236.015" r="4" fill="#0" id="circle71"/>
	<circle cx="256.11" cy="647.064" r="4" fill="#0" id="circle72"/>
	<circle cx="259.764" cy="469.856" r="4" fill="#0" id="circle73"/>
	<circle cx="259.764" cy="488.125" r="4" fill="#0" id="circle74"/>
	<circle cx="259.764" cy="625.142" r="4" fill="#0" id="circle75"/>
	<circle cx="267.072" cy="809.657" r="4" fill="#0" id="circle76"/>
	<circle cx="268.899" cy="504.567" r="4" fill="#0" id="circle77"/>
	<circle cx="268.899" cy="522.836" r="4" fill="#0" id="circle78"/>
	<circle cx="268.899" cy="606.873" r="4" fill="#0" id="circle79"/>
	<circle cx="274.379" cy="226.88" r="4" fill="#0" id="circle80"/>
	<circle cx="278.033" cy="150.151" r="4" fill="#0" id="circle81"/>
	<circle cx="278.033" cy="168.42" r="4" fill="#0" id="circle82"/>
	<circle cx="278.033" cy="539.278" r="4" fill="#0" id="circle83"/>
	<circle cx="278.033" cy="557.547" r="4" fill="#0" id="circle84"/>
	<circle cx="278.033" cy="575.816" r="4" fill="#0" id="circle85"/>
	<circle cx="279.86" cy="795.042" r="4" fill="#0" id="circle86"/>
	<circle cx="287.168" cy="131.882" r="4" fill="#0" id="circle87"/>
	<circle cx="287.168" cy="184.862" r="4" fill="#0" id="circle88"/>
	<circle cx="287.168" cy="203.131" r="4" fill="#0" id="circle89"/>
	<circle cx="288.994" cy="776.773" r="4" fill="#0" id="circle90"/>
	<circle cx="301.783" cy="117.267" r="4" fill="#0" id="circle91"/>
	<circle cx="303.61" cy="763.985" r="4" fill="#0" id="circle92"/>
	<circle cx="310.917" cy="98.9982" r="4" fill="#0" id="circle93"/>
	<circle cx="316.398" cy="740.236" r="4" fill="#0" id="circle94"/>
	<circle cx="320.052" cy="80.7293" r="4" fill="#0" id="circle95"/>
	<circle cx="329.186" cy="62.4604" r="4" fill="#0" id="circle96"/>
	<circle cx="331.013" cy="727.448" r="4" fill="#0" id="circle97"/>
	<circle cx="341.974" cy="22.2689" r="4" fill="#0" id="circle98"/>
	<circle cx="341.974" cy="40.5378" r="4" fill="#0" id="circle99"/>
	<circle cx="343.801" cy="712.832" r="4" fill="#0" id="circle100"/>
	<circle cx="351.109" cy="4" r="4" fill="#0" id="circle101"/>
	<circle cx="360.243" cy="703.698" r="4" fill="#0" id="circle102"/>
	<circle cx="365.724" cy="16.7882" r="4" fill="#0" id="circle103"/>
	<circle cx="371.204" cy="35.0571" r="4" fill="#0" id="circle104"/>
	<circle cx="378.512" cy="703.698" r="4" fill="#0" id="circle105"/>
	<circle cx="380.339" cy="51.4991" r="4" fill="#0" id="circle106"/>
	<circle cx="389.473" cy="67.9411" r="4" fill="#0" id="circle107"/>
	<circle cx="389.473" cy="718.313" r="4" fill="#0" id="circle108"/>
	<circle cx="396.781" cy="86.2099" r="4" fill="#0" id="circle109"/>
	<circle cx="404.088" cy="731.101" r="4" fill="#0" id="circle110"/>
	<circle cx="405.915" cy="102.652" r="4" fill="#0" id="circle111"/>
	<circle cx="413.223" cy="120.921" r="4" fill="#0" id="circle112"/>
	<circle cx="420.53" cy="740.236" r="4" fill="#0" id="circle113"/>
	<circle cx="426.011" cy="135.536" r="4" fill="#0" id="circle114"/>
	<circle cx="426.011" cy="192.169" r="4" fill="#0" id="circle115"/>
	<circle cx="426.011" cy="210.438" r="4" fill="#0" id="circle116"/>
	<circle cx="435.145" cy="151.978" r="4" fill="#0" id="circle117"/>
	<circle cx="435.145" cy="170.247" r="4" fill="#0" id="circle118"/>
	<circle cx="435.145" cy="226.88" r="4" fill="#0" id="circle119"/>
	<circle cx="435.145" cy="753.024" r="4" fill="#0" id="circle120"/>
	<circle cx="444.28" cy="539.278" r="4" fill="#0" id="circle121"/>
	<circle cx="444.28" cy="557.547" r="4" fill="#0" id="circle122"/>
	<circle cx="444.28" cy="575.816" r="4" fill="#0" id="circle123"/>
	<circle cx="447.934" cy="594.085" r="4" fill="#0" id="circle124"/>
	<circle cx="447.934" cy="767.639" r="4" fill="#0" id="circle125"/>
	<circle cx="451.587" cy="236.015" r="4" fill="#0" id="circle126"/>
	<circle cx="453.414" cy="502.74" r="4" fill="#0" id="circle127"/>
	<circle cx="453.414" cy="521.009" r="4" fill="#0" id="circle128"/>
	<circle cx="453.414" cy="612.354" r="4" fill="#0" id="circle129"/>
	<circle cx="462.549" cy="457.068" r="4" fill="#0" id="circle130"/>
	<circle cx="462.549" cy="475.337" r="4" fill="#0" id="circle131"/>
	<circle cx="462.549" cy="628.796" r="4" fill="#0" id="circle132"/>
	<circle cx="462.549" cy="780.427" r="4" fill="#0" id="circle133"/>
	<circle cx="469.856" cy="236.015" r="4" fill="#0" id="circle134"/>
	<circle cx="471.683" cy="411.396" r="4" fill="#0" id="circle135"/>
	<circle cx="471.683" cy="429.665" r="4" fill="#0" id="circle136"/>
	<circle cx="471.683" cy="645.238" r="4" fill="#0" id="circle137"/>
	<circle cx="475.337" cy="795.042" r="4" fill="#0" id="circle138"/>
	<circle cx="480.818" cy="374.858" r="4" fill="#0" id="circle139"/>
	<circle cx="480.818" cy="393.127" r="4" fill="#0" id="circle140"/>
	<circle cx="486.298" cy="658.026" r="4" fill="#0" id="circle141"/>
	<circle cx="488.125" cy="236.015" r="4" fill="#0" id="circle142"/>
	<circle cx="489.952" cy="356.589" r="4" fill="#0" id="circle143"/>
	<circle cx="489.952" cy="807.831" r="4" fill="#0" id="circle144"/>
	<circle cx="493.606" cy="676.295" r="4" fill="#0" id="circle145"/>
	<circle cx="502.74" cy="822.446" r="4" fill="#0" id="circle146"/>
	<circle cx="506.394" cy="236.015" r="4" fill="#0" id="circle147"/>
	<circle cx="508.221" cy="356.589" r="4" fill="#0" id="circle148"/>
	<circle cx="508.221" cy="689.083" r="4" fill="#0" id="circle149"/>
	<circle cx="517.355" cy="835.234" r="4" fill="#0" id="circle150"/>
	<circle cx="521.009" cy="703.698" r="4" fill="#0" id="circle151"/>
	<circle cx="522.836" cy="245.149" r="4" fill="#0" id="circle152"/>
	<circle cx="526.49" cy="360.243" r="4" fill="#0" id="circle153"/>
	<circle cx="530.144" cy="849.849" r="4" fill="#0" id="circle154"/>
	<circle cx="535.624" cy="716.486" r="4" fill="#0" id="circle155"/>
	<circle cx="539.278" cy="254.284" r="4" fill="#0" id="circle156"/>
	<circle cx="542.932" cy="369.378" r="4" fill="#0" id="circle157"/>
	<circle cx="544.759" cy="862.637" r="4" fill="#0" id="circle158"/>
	<circle cx="548.413" cy="731.101" r="4" fill="#0" id="circle159"/>
	<circle cx="555.72" cy="263.418" r="4" fill="#0" id="circle160"/>
	<circle cx="557.547" cy="382.166" r="4" fill="#0" id="circle161"/>
	<circle cx="557.547" cy="747.543" r="4" fill="#0" id="circle162"/>
	<circle cx="557.547" cy="877.252" r="4" fill="#0" id="circle163"/>
	<circle cx="564.855" cy="400.435" r="4" fill="#0" id="circle164"/>
	<circle cx="570.335" cy="276.206" r="4" fill="#0" id="circle165"/>
	<circle cx="570.335" cy="762.158" r="4" fill="#0" id="circle166"/>
	<circle cx="572.162" cy="890.041" r="4" fill="#0" id="circle167"/>
	<circle cx="579.47" cy="411.396" r="4" fill="#0" id="circle168"/>
	<circle cx="581.297" cy="290.821" r="4" fill="#0" id="circle169"/>
	<circle cx="581.297" cy="776.773" r="4" fill="#0" id="circle170"/>
	<circle cx="584.95" cy="904.656" r="4" fill="#0" id="circle171"/>
	<circle cx="590.431" cy="307.263" r="4" fill="#0" id="circle172"/>
	<circle cx="590.431" cy="426.011" r="4" fill="#0" id="circle173"/>
	<circle cx="590.431" cy="793.215" r="4" fill="#0" id="circle174"/>
	<circle cx="599.565" cy="917.444" r="4" fill="#0" id="circle175"/>
	<circle cx="605.046" cy="320.052" r="4" fill="#0" id="circle176"/>
	<circle cx="605.046" cy="438.799" r="4" fill="#0" id="circle177"/>
	<circle cx="605.046" cy="804.177" r="4" fill="#0" id="circle178"/>
	<circle cx="612.354" cy="932.059" r="4" fill="#0" id="circle179"/>
	<circle cx="616.007" cy="453.414" r="4" fill="#0" id="circle180"/>
	<circle cx="617.834" cy="334.667" r="4" fill="#0" id="circle181"/>
	<circle cx="617.834" cy="818.792" r="4" fill="#0" id="circle182"/>
	<circle cx="625.142" cy="469.856" r="4" fill="#0" id="circle183"/>
	<circle cx="626.969" cy="351.109" r="4" fill="#0" id="circle184"/>
	<circle cx="626.969" cy="944.847" r="4" fill="#0" id="circle185"/>
	<circle cx="632.449" cy="831.58" r="4" fill="#0" id="circle186"/>
	<circle cx="639.757" cy="365.724" r="4" fill="#0" id="circle187"/>
	<circle cx="639.757" cy="482.645" r="4" fill="#0" id="circle188"/>
	<circle cx="643.411" cy="953.982" r="4" fill="#0" id="circle189"/>
	<circle cx="645.238" cy="846.195" r="4" fill="#0" id="circle190"/>
	<circle cx="648.891" cy="382.166" r="4" fill="#0" id="circle191"/>
	<circle cx="652.545" cy="497.26" r="4" fill="#0" id="circle192"/>
	<circle cx="654.372" cy="862.637" r="4" fill="#0" id="circle193"/>
	<circle cx="658.026" cy="966.77" r="4" fill="#0" id="circle194"/>
	<circle cx="661.68" cy="396.781" r="4" fill="#0" id="circle195"/>
	<circle cx="667.16" cy="877.252" r="4" fill="#0" id="circle196"/>
	<circle cx="670.814" cy="413.223" r="4" fill="#0" id="circle197"/>
	<circle cx="670.814" cy="502.74" r="4" fill="#0" id="circle198"/>
	<circle cx="674.468" cy="975.904" r="4" fill="#0" id="circle199"/>
	<circle cx="681.775" cy="427.838" r="4" fill="#0" id="circle200"/>
	<circle cx="681.775" cy="517.355" r="4" fill="#0" id="circle201"/>
	<circle cx="681.775" cy="890.041" r="4" fill="#0" id="circle202"/>
	<circle cx="689.083" cy="908.309" r="4" fill="#0" id="circle203"/>
	<circle cx="690.91" cy="444.28" r="4" fill="#0" id="circle204"/>
	<circle cx="692.737" cy="983.212" r="4" fill="#0" id="circle205"/>
	<circle cx="700.044" cy="521.009" r="4" fill="#0" id="circle206"/>
	<circle cx="700.044" cy="922.924" r="4" fill="#0" id="circle207"/>
	<circle cx="705.525" cy="457.068" r="4" fill="#0" id="circle208"/>
	<circle cx="709.179" cy="939.366" r="4" fill="#0" id="circle209"/>
	<circle cx="711.006" cy="986.866" r="4" fill="#0" id="circle210"/>
	<circle cx="712.832" cy="475.337" r="4" fill="#0" id="circle211"/>
	<circle cx="718.313" cy="521.009" r="4" fill="#0" id="circle212"/>
	<circle cx="718.313" cy="955.808" r="4" fill="#0" id="circle213"/>
	<circle cx="721.967" cy="491.779" r="4" fill="#0" id="circle214"/>
	</g>
</svg>