<?xml version="1.0" encoding="UTF-8" standalone="no"?>
<!-- Created with CurveBenchmark -->
<svg
	xmlns:dc="http://purl.org/dc/elements/1.1/"
	xmlns:cc="http://creativecommons.org/ns#"
	xmlns:rdf="http://www.w3.org/1999/02/22-rdf-syntax-ns#"
	xmlns:svg="http://www.w3.org/2000/svg"
	xmlns="http://www.w3.org/2000/svg"
	xmlns:sodipodi="http://sodipodi.sourceforge.net/DTD/sodipodi-0.dtd"
	xmlns:inkscape="http://www.inkscape.org/namespaces/inkscape"
	width="1000"
	height="1000"
	id="svg2"
	version="1.1"
	sodipodi:docname="manifold/peel-Glas18.png.txt">
<defs
	id="defs4" />
<metadata
	id="metadata7">
	<rdf:RDF>
		<cc:Work
			rdf:about="">
			<dc:format>image/svg+xml</dc:format>
			<dc:type
				rdf:resource="http://purl.org/dc/dcmitype/StillImage" />
			<dc:title></dc:title>
		</cc:Work>
	</rdf:RDF>
</metadata>
<g
	inkscape:label="Layer 1"
	inkscape:groupmode="layer"
	id="layer1">
	<path style="fill:none;stroke:red;stroke-width:1px;stroke-linecap:butt;stroke-linejoin:miter;stroke-opacity:1" d="M 44.885,25.5184 25.5184,14.7592 z" id="boundary" inkscape:connector-curvature="0" />
	<path style="fill:none;stroke:red;stroke-width:1px;stroke-linecap:butt;stroke-linejoin:miter;stroke-opacity:1" d="M 4,31.974 4,10.4555 z" id="boundary" inkscape:connector-curvature="0" />
	<path style="fill:none;stroke:red;stroke-width:1px;stroke-linecap:butt;stroke-linejoin:miter;stroke-opacity:1" d="M 4,10.4555 25.5184,14.7592 z" id="boundary" inkscape:connector-curvature="0" />
	<path style="fill:none;stroke:red;stroke-width:1px;stroke-linecap:butt;stroke-linejoin:miter;stroke-opacity:1" d="M 4,31.974 4,53.4924 z" id="boundary" inkscape:connector-curvature="0" />
	<path style="fill:none;stroke:red;stroke-width:1px;stroke-linecap:butt;stroke-linejoin:miter;stroke-opacity:1" d="M 25.5184,242.855 14.7592,223.488 z" id="boundary" inkscape:connector-curvature="0" />
	<path style="fill:none;stroke:red;stroke-width:1px;stroke-linecap:butt;stroke-linejoin:miter;stroke-opacity:1" d="M 44.885,25.5184 64.2516,36.2777 z" id="boundary" inkscape:connector-curvature="0" />
	<path style="fill:none;stroke:red;stroke-width:1px;stroke-linecap:butt;stroke-linejoin:miter;stroke-opacity:1" d="M 4,53.4924 4,75.0108 z" id="boundary" inkscape:connector-curvature="0" />
	<path style="fill:none;stroke:red;stroke-width:1px;stroke-linecap:butt;stroke-linejoin:miter;stroke-opacity:1" d="M 79.3145,53.4924 96.5293,68.5553 z" id="boundary" inkscape:connector-curvature="0" />
	<path style="fill:none;stroke:red;stroke-width:1px;stroke-linecap:butt;stroke-linejoin:miter;stroke-opacity:1" d="M 4,161.085 4,139.566 z" id="boundary" inkscape:connector-curvature="0" />
	<path style="fill:none;stroke:red;stroke-width:1px;stroke-linecap:butt;stroke-linejoin:miter;stroke-opacity:1" d="M 4,161.085 14.7592,180.451 z" id="boundary" inkscape:connector-curvature="0" />
	<path style="fill:none;stroke:red;stroke-width:1px;stroke-linecap:butt;stroke-linejoin:miter;stroke-opacity:1" d="M 14.7592,201.97 14.7592,180.451 z" id="boundary" inkscape:connector-curvature="0" />
	<path style="fill:none;stroke:red;stroke-width:1px;stroke-linecap:butt;stroke-linejoin:miter;stroke-opacity:1" d="M 14.7592,223.488 14.7592,201.97 z" id="boundary" inkscape:connector-curvature="0" />
	<path style="fill:none;stroke:red;stroke-width:1px;stroke-linecap:butt;stroke-linejoin:miter;stroke-opacity:1" d="M 4,75.0108 4,96.5293 z" id="boundary" inkscape:connector-curvature="0" />
	<path style="fill:none;stroke:red;stroke-width:1px;stroke-linecap:butt;stroke-linejoin:miter;stroke-opacity:1" d="M 64.2516,36.2777 79.3145,53.4924 z" id="boundary" inkscape:connector-curvature="0" />
	<path style="fill:none;stroke:red;stroke-width:1px;stroke-linecap:butt;stroke-linejoin:miter;stroke-opacity:1" d="M 38.4295,260.069 25.5184,242.855 z" id="boundary" inkscape:connector-curvature="0" />
	<path style="fill:none;stroke:red;stroke-width:1px;stroke-linecap:butt;stroke-linejoin:miter;stroke-opacity:1" d="M 4,96.5293 4,118.048 z" id="boundary" inkscape:connector-curvature="0" />
	<path style="fill:none;stroke:red;stroke-width:1px;stroke-linecap:butt;stroke-linejoin:miter;stroke-opacity:1" d="M 38.4295,260.069 55.6443,275.132 z" id="boundary" inkscape:connector-curvature="0" />
	<path style="fill:none;stroke:red;stroke-width:1px;stroke-linecap:butt;stroke-linejoin:miter;stroke-opacity:1" d="M 68.5553,978.785 81.4664,996 z" id="boundary" inkscape:connector-curvature="0" />
	<path style="fill:none;stroke:red;stroke-width:1px;stroke-linecap:butt;stroke-linejoin:miter;stroke-opacity:1" d="M 68.5553,978.785 47.0369,989.544 z" id="boundary" inkscape:connector-curvature="0" />
	<path style="fill:none;stroke:red;stroke-width:1px;stroke-linecap:butt;stroke-linejoin:miter;stroke-opacity:1" d="M 96.5293,68.5553 111.592,85.7701 z" id="boundary" inkscape:connector-curvature="0" />
	<path style="fill:none;stroke:red;stroke-width:1px;stroke-linecap:butt;stroke-linejoin:miter;stroke-opacity:1" d="M 55.6443,275.132 75.0108,285.892 z" id="boundary" inkscape:connector-curvature="0" />
	<path style="fill:none;stroke:red;stroke-width:1px;stroke-linecap:butt;stroke-linejoin:miter;stroke-opacity:1" d="M 75.0108,285.892 92.2256,300.954 z" id="boundary" inkscape:connector-curvature="0" />
	<path style="fill:none;stroke:red;stroke-width:1px;stroke-linecap:butt;stroke-linejoin:miter;stroke-opacity:1" d="M 107.289,318.169 92.2256,300.954 z" id="boundary" inkscape:connector-curvature="0" />
	<path style="fill:none;stroke:red;stroke-width:1px;stroke-linecap:butt;stroke-linejoin:miter;stroke-opacity:1" d="M 4,118.048 4,139.566 z" id="boundary" inkscape:connector-curvature="0" />
	<path style="fill:none;stroke:red;stroke-width:1px;stroke-linecap:butt;stroke-linejoin:miter;stroke-opacity:1" d="M 81.4664,996 102.985,996 z" id="boundary" inkscape:connector-curvature="0" />
	<path style="fill:none;stroke:red;stroke-width:1px;stroke-linecap:butt;stroke-linejoin:miter;stroke-opacity:1" d="M 68.5553,978.785 90.0738,968.026 z" id="boundary" inkscape:connector-curvature="0" />
	<path style="fill:none;stroke:red;stroke-width:1px;stroke-linecap:butt;stroke-linejoin:miter;stroke-opacity:1" d="M 128.807,100.833 111.592,85.7701 z" id="boundary" inkscape:connector-curvature="0" />
	<path style="fill:none;stroke:red;stroke-width:1px;stroke-linecap:butt;stroke-linejoin:miter;stroke-opacity:1" d="M 146.022,339.688 128.807,326.777 z" id="boundary" inkscape:connector-curvature="0" />
	<path style="fill:none;stroke:red;stroke-width:1px;stroke-linecap:butt;stroke-linejoin:miter;stroke-opacity:1" d="M 128.807,326.777 107.289,318.169 z" id="boundary" inkscape:connector-curvature="0" />
	<path style="fill:none;stroke:red;stroke-width:1px;stroke-linecap:butt;stroke-linejoin:miter;stroke-opacity:1" d="M 150.325,100.833 169.692,111.592 z" id="boundary" inkscape:connector-curvature="0" />
	<path style="fill:none;stroke:red;stroke-width:1px;stroke-linecap:butt;stroke-linejoin:miter;stroke-opacity:1" d="M 150.325,100.833 128.807,100.833 z" id="boundary" inkscape:connector-curvature="0" />
	<path style="fill:none;stroke:red;stroke-width:1px;stroke-linecap:butt;stroke-linejoin:miter;stroke-opacity:1" d="M 90.0738,968.026 111.592,961.57 z" id="boundary" inkscape:connector-curvature="0" />
	<path style="fill:none;stroke:red;stroke-width:1px;stroke-linecap:butt;stroke-linejoin:miter;stroke-opacity:1" d="M 124.503,996 146.022,996 z" id="boundary" inkscape:connector-curvature="0" />
	<path style="fill:none;stroke:red;stroke-width:1px;stroke-linecap:butt;stroke-linejoin:miter;stroke-opacity:1" d="M 102.985,996 124.503,996 z" id="boundary" inkscape:connector-curvature="0" />
	<path style="fill:none;stroke:red;stroke-width:1px;stroke-linecap:butt;stroke-linejoin:miter;stroke-opacity:1" d="M 111.592,961.57 130.959,950.811 z" id="boundary" inkscape:connector-curvature="0" />
	<path style="fill:none;stroke:red;stroke-width:1px;stroke-linecap:butt;stroke-linejoin:miter;stroke-opacity:1" d="M 130.959,950.811 150.325,940.052 z" id="boundary" inkscape:connector-curvature="0" />
	<path style="fill:none;stroke:red;stroke-width:1px;stroke-linecap:butt;stroke-linejoin:miter;stroke-opacity:1" d="M 146.022,996 167.54,996 z" id="boundary" inkscape:connector-curvature="0" />
	<path style="fill:none;stroke:red;stroke-width:1px;stroke-linecap:butt;stroke-linejoin:miter;stroke-opacity:1" d="M 191.21,111.592 169.692,111.592 z" id="boundary" inkscape:connector-curvature="0" />
	<path style="fill:none;stroke:red;stroke-width:1px;stroke-linecap:butt;stroke-linejoin:miter;stroke-opacity:1" d="M 146.022,339.688 165.388,350.447 z" id="boundary" inkscape:connector-curvature="0" />
	<path style="fill:none;stroke:red;stroke-width:1px;stroke-linecap:butt;stroke-linejoin:miter;stroke-opacity:1" d="M 171.844,929.293 150.325,940.052 z" id="boundary" inkscape:connector-curvature="0" />
	<path style="fill:none;stroke:red;stroke-width:1px;stroke-linecap:butt;stroke-linejoin:miter;stroke-opacity:1" d="M 167.54,996 189.059,996 z" id="boundary" inkscape:connector-curvature="0" />
	<path style="fill:none;stroke:red;stroke-width:1px;stroke-linecap:butt;stroke-linejoin:miter;stroke-opacity:1" d="M 191.21,111.592 212.729,111.592 z" id="boundary" inkscape:connector-curvature="0" />
	<path style="fill:none;stroke:red;stroke-width:1px;stroke-linecap:butt;stroke-linejoin:miter;stroke-opacity:1" d="M 165.388,350.447 184.755,361.206 z" id="boundary" inkscape:connector-curvature="0" />
	<path style="fill:none;stroke:red;stroke-width:1px;stroke-linecap:butt;stroke-linejoin:miter;stroke-opacity:1" d="M 380.573,559.176 380.573,580.694 z" id="boundary" inkscape:connector-curvature="0" />
	<path style="fill:none;stroke:red;stroke-width:1px;stroke-linecap:butt;stroke-linejoin:miter;stroke-opacity:1" d="M 189.059,996 210.577,996 z" id="boundary" inkscape:connector-curvature="0" />
	<path style="fill:none;stroke:red;stroke-width:1px;stroke-linecap:butt;stroke-linejoin:miter;stroke-opacity:1" d="M 184.755,361.206 206.273,361.206 z" id="boundary" inkscape:connector-curvature="0" />
	<path style="fill:none;stroke:red;stroke-width:1px;stroke-linecap:butt;stroke-linejoin:miter;stroke-opacity:1" d="M 171.844,929.293 193.362,929.293 z" id="boundary" inkscape:connector-curvature="0" />
	<path style="fill:none;stroke:red;stroke-width:1px;stroke-linecap:butt;stroke-linejoin:miter;stroke-opacity:1" d="M 193.362,929.293 212.729,918.534 z" id="boundary" inkscape:connector-curvature="0" />
	<path style="fill:none;stroke:red;stroke-width:1px;stroke-linecap:butt;stroke-linejoin:miter;stroke-opacity:1" d="M 212.729,918.534 232.095,907.774 z" id="boundary" inkscape:connector-curvature="0" />
	<path style="fill:none;stroke:red;stroke-width:1px;stroke-linecap:butt;stroke-linejoin:miter;stroke-opacity:1" d="M 206.273,361.206 227.792,361.206 z" id="boundary" inkscape:connector-curvature="0" />
	<path style="fill:none;stroke:red;stroke-width:1px;stroke-linecap:butt;stroke-linejoin:miter;stroke-opacity:1" d="M 227.792,361.206 247.158,371.965 z" id="boundary" inkscape:connector-curvature="0" />
	<path style="fill:none;stroke:red;stroke-width:1px;stroke-linecap:butt;stroke-linejoin:miter;stroke-opacity:1" d="M 234.247,111.592 255.766,111.592 z" id="boundary" inkscape:connector-curvature="0" />
	<path style="fill:none;stroke:red;stroke-width:1px;stroke-linecap:butt;stroke-linejoin:miter;stroke-opacity:1" d="M 210.577,996 232.095,996 z" id="boundary" inkscape:connector-curvature="0" />
	<path style="fill:none;stroke:red;stroke-width:1px;stroke-linecap:butt;stroke-linejoin:miter;stroke-opacity:1" d="M 268.677,380.573 288.043,391.332 z" id="boundary" inkscape:connector-curvature="0" />
	<path style="fill:none;stroke:red;stroke-width:1px;stroke-linecap:butt;stroke-linejoin:miter;stroke-opacity:1" d="M 268.677,380.573 247.158,371.965 z" id="boundary" inkscape:connector-curvature="0" />
	<path style="fill:none;stroke:red;stroke-width:1px;stroke-linecap:butt;stroke-linejoin:miter;stroke-opacity:1" d="M 212.729,111.592 234.247,111.592 z" id="boundary" inkscape:connector-curvature="0" />
	<path style="fill:none;stroke:red;stroke-width:1px;stroke-linecap:butt;stroke-linejoin:miter;stroke-opacity:1" d="M 380.573,473.102 380.573,494.62 z" id="boundary" inkscape:connector-curvature="0" />
	<path style="fill:none;stroke:red;stroke-width:1px;stroke-linecap:butt;stroke-linejoin:miter;stroke-opacity:1" d="M 232.095,907.774 253.614,901.319 z" id="boundary" inkscape:connector-curvature="0" />
	<path style="fill:none;stroke:red;stroke-width:1px;stroke-linecap:butt;stroke-linejoin:miter;stroke-opacity:1" d="M 298.803,111.592 277.284,111.592 z" id="boundary" inkscape:connector-curvature="0" />
	<path style="fill:none;stroke:red;stroke-width:1px;stroke-linecap:butt;stroke-linejoin:miter;stroke-opacity:1" d="M 232.095,996 253.614,996 z" id="boundary" inkscape:connector-curvature="0" />
	<path style="fill:none;stroke:red;stroke-width:1px;stroke-linecap:butt;stroke-linejoin:miter;stroke-opacity:1" d="M 380.573,537.657 380.573,559.176 z" id="boundary" inkscape:connector-curvature="0" />
	<path style="fill:none;stroke:red;stroke-width:1px;stroke-linecap:butt;stroke-linejoin:miter;stroke-opacity:1" d="M 255.766,111.592 277.284,111.592 z" id="boundary" inkscape:connector-curvature="0" />
	<path style="fill:none;stroke:red;stroke-width:1px;stroke-linecap:butt;stroke-linejoin:miter;stroke-opacity:1" d="M 380.573,494.62 380.573,516.139 z" id="boundary" inkscape:connector-curvature="0" />
	<path style="fill:none;stroke:red;stroke-width:1px;stroke-linecap:butt;stroke-linejoin:miter;stroke-opacity:1" d="M 253.614,901.319 275.132,897.015 z" id="boundary" inkscape:connector-curvature="0" />
	<path style="fill:none;stroke:red;stroke-width:1px;stroke-linecap:butt;stroke-linejoin:miter;stroke-opacity:1" d="M 253.614,996 275.132,996 z" id="boundary" inkscape:connector-curvature="0" />
	<path style="fill:none;stroke:red;stroke-width:1px;stroke-linecap:butt;stroke-linejoin:miter;stroke-opacity:1" d="M 309.562,393.484 288.043,391.332 z" id="boundary" inkscape:connector-curvature="0" />
	<path style="fill:none;stroke:red;stroke-width:1px;stroke-linecap:butt;stroke-linejoin:miter;stroke-opacity:1" d="M 380.573,430.065 380.573,451.584 z" id="boundary" inkscape:connector-curvature="0" />
	<path style="fill:none;stroke:red;stroke-width:1px;stroke-linecap:butt;stroke-linejoin:miter;stroke-opacity:1" d="M 275.132,897.015 296.651,897.015 z" id="boundary" inkscape:connector-curvature="0" />
	<path style="fill:none;stroke:red;stroke-width:1px;stroke-linecap:butt;stroke-linejoin:miter;stroke-opacity:1" d="M 320.321,111.592 298.803,111.592 z" id="boundary" inkscape:connector-curvature="0" />
	<path style="fill:none;stroke:red;stroke-width:1px;stroke-linecap:butt;stroke-linejoin:miter;stroke-opacity:1" d="M 296.651,996 275.132,996 z" id="boundary" inkscape:connector-curvature="0" />
	<path style="fill:none;stroke:red;stroke-width:1px;stroke-linecap:butt;stroke-linejoin:miter;stroke-opacity:1" d="M 380.573,516.139 380.573,537.657 z" id="boundary" inkscape:connector-curvature="0" />
	<path style="fill:none;stroke:red;stroke-width:1px;stroke-linecap:butt;stroke-linejoin:miter;stroke-opacity:1" d="M 296.651,897.015 316.017,886.256 z" id="boundary" inkscape:connector-curvature="0" />
	<path style="fill:none;stroke:red;stroke-width:1px;stroke-linecap:butt;stroke-linejoin:miter;stroke-opacity:1" d="M 296.651,996 318.169,996 z" id="boundary" inkscape:connector-curvature="0" />
	<path style="fill:none;stroke:red;stroke-width:1px;stroke-linecap:butt;stroke-linejoin:miter;stroke-opacity:1" d="M 331.08,393.484 309.562,393.484 z" id="boundary" inkscape:connector-curvature="0" />
	<path style="fill:none;stroke:red;stroke-width:1px;stroke-linecap:butt;stroke-linejoin:miter;stroke-opacity:1" d="M 350.447,404.243 331.08,393.484 z" id="boundary" inkscape:connector-curvature="0" />
	<path style="fill:none;stroke:red;stroke-width:1px;stroke-linecap:butt;stroke-linejoin:miter;stroke-opacity:1" d="M 320.321,111.592 341.839,111.592 z" id="boundary" inkscape:connector-curvature="0" />
	<path style="fill:none;stroke:red;stroke-width:1px;stroke-linecap:butt;stroke-linejoin:miter;stroke-opacity:1" d="M 316.017,886.256 335.384,875.497 z" id="boundary" inkscape:connector-curvature="0" />
	<path style="fill:none;stroke:red;stroke-width:1px;stroke-linecap:butt;stroke-linejoin:miter;stroke-opacity:1" d="M 335.384,875.497 356.902,875.497 z" id="boundary" inkscape:connector-curvature="0" />
	<path style="fill:none;stroke:red;stroke-width:1px;stroke-linecap:butt;stroke-linejoin:miter;stroke-opacity:1" d="M 318.169,996 339.688,996 z" id="boundary" inkscape:connector-curvature="0" />
	<path style="fill:none;stroke:red;stroke-width:1px;stroke-linecap:butt;stroke-linejoin:miter;stroke-opacity:1" d="M 363.358,111.592 341.839,111.592 z" id="boundary" inkscape:connector-curvature="0" />
	<path style="fill:none;stroke:red;stroke-width:1px;stroke-linecap:butt;stroke-linejoin:miter;stroke-opacity:1" d="M 380.573,430.065 371.965,408.547 z" id="boundary" inkscape:connector-curvature="0" />
	<path style="fill:none;stroke:red;stroke-width:1px;stroke-linecap:butt;stroke-linejoin:miter;stroke-opacity:1" d="M 371.965,408.547 350.447,404.243 z" id="boundary" inkscape:connector-curvature="0" />
	<path style="fill:none;stroke:red;stroke-width:1px;stroke-linecap:butt;stroke-linejoin:miter;stroke-opacity:1" d="M 361.206,996 382.725,996 z" id="boundary" inkscape:connector-curvature="0" />
	<path style="fill:none;stroke:red;stroke-width:1px;stroke-linecap:butt;stroke-linejoin:miter;stroke-opacity:1" d="M 339.688,996 361.206,996 z" id="boundary" inkscape:connector-curvature="0" />
	<path style="fill:none;stroke:red;stroke-width:1px;stroke-linecap:butt;stroke-linejoin:miter;stroke-opacity:1" d="M 380.573,451.584 380.573,473.102 z" id="boundary" inkscape:connector-curvature="0" />
	<path style="fill:none;stroke:red;stroke-width:1px;stroke-linecap:butt;stroke-linejoin:miter;stroke-opacity:1" d="M 384.876,111.592 363.358,111.592 z" id="boundary" inkscape:connector-curvature="0" />
	<path style="fill:none;stroke:red;stroke-width:1px;stroke-linecap:butt;stroke-linejoin:miter;stroke-opacity:1" d="M 356.902,875.497 376.269,864.738 z" id="boundary" inkscape:connector-curvature="0" />
	<path style="fill:none;stroke:red;stroke-width:1px;stroke-linecap:butt;stroke-linejoin:miter;stroke-opacity:1" d="M 406.395,111.592 384.876,111.592 z" id="boundary" inkscape:connector-curvature="0" />
	<path style="fill:none;stroke:red;stroke-width:1px;stroke-linecap:butt;stroke-linejoin:miter;stroke-opacity:1" d="M 395.636,853.978 376.269,864.738 z" id="boundary" inkscape:connector-curvature="0" />
	<path style="fill:none;stroke:red;stroke-width:1px;stroke-linecap:butt;stroke-linejoin:miter;stroke-opacity:1" d="M 395.636,853.978 402.091,813.093 z" id="boundary" inkscape:connector-curvature="0" />
	<path style="fill:none;stroke:red;stroke-width:1px;stroke-linecap:butt;stroke-linejoin:miter;stroke-opacity:1" d="M 406.395,111.592 427.913,111.592 z" id="boundary" inkscape:connector-curvature="0" />
	<path style="fill:none;stroke:red;stroke-width:1px;stroke-linecap:butt;stroke-linejoin:miter;stroke-opacity:1" d="M 490.317,100.833 468.798,100.833 z" id="boundary" inkscape:connector-curvature="0" />
	<path style="fill:none;stroke:red;stroke-width:1px;stroke-linecap:butt;stroke-linejoin:miter;stroke-opacity:1" d="M 391.332,643.098 391.332,621.579 z" id="boundary" inkscape:connector-curvature="0" />
	<path style="fill:none;stroke:red;stroke-width:1px;stroke-linecap:butt;stroke-linejoin:miter;stroke-opacity:1" d="M 533.354,100.833 511.835,100.833 z" id="boundary" inkscape:connector-curvature="0" />
	<path style="fill:none;stroke:red;stroke-width:1px;stroke-linecap:butt;stroke-linejoin:miter;stroke-opacity:1" d="M 380.573,580.694 391.332,600.061 z" id="boundary" inkscape:connector-curvature="0" />
	<path style="fill:none;stroke:red;stroke-width:1px;stroke-linecap:butt;stroke-linejoin:miter;stroke-opacity:1" d="M 391.332,600.061 391.332,621.579 z" id="boundary" inkscape:connector-curvature="0" />
	<path style="fill:none;stroke:red;stroke-width:1px;stroke-linecap:butt;stroke-linejoin:miter;stroke-opacity:1" d="M 391.332,664.616 391.332,643.098 z" id="boundary" inkscape:connector-curvature="0" />
	<path style="fill:none;stroke:red;stroke-width:1px;stroke-linecap:butt;stroke-linejoin:miter;stroke-opacity:1" d="M 554.872,479.557 554.872,458.039 z" id="boundary" inkscape:connector-curvature="0" />
	<path style="fill:none;stroke:red;stroke-width:1px;stroke-linecap:butt;stroke-linejoin:miter;stroke-opacity:1" d="M 391.332,686.134 391.332,664.616 z" id="boundary" inkscape:connector-curvature="0" />
	<path style="fill:none;stroke:red;stroke-width:1px;stroke-linecap:butt;stroke-linejoin:miter;stroke-opacity:1" d="M 554.872,501.076 554.872,479.557 z" id="boundary" inkscape:connector-curvature="0" />
	<path style="fill:none;stroke:red;stroke-width:1px;stroke-linecap:butt;stroke-linejoin:miter;stroke-opacity:1" d="M 391.332,707.653 391.332,686.134 z" id="boundary" inkscape:connector-curvature="0" />
	<path style="fill:none;stroke:red;stroke-width:1px;stroke-linecap:butt;stroke-linejoin:miter;stroke-opacity:1" d="M 427.913,111.592 447.28,100.833 z" id="boundary" inkscape:connector-curvature="0" />
	<path style="fill:none;stroke:red;stroke-width:1px;stroke-linecap:butt;stroke-linejoin:miter;stroke-opacity:1" d="M 447.28,100.833 468.798,100.833 z" id="boundary" inkscape:connector-curvature="0" />
	<path style="fill:none;stroke:red;stroke-width:1px;stroke-linecap:butt;stroke-linejoin:miter;stroke-opacity:1" d="M 391.332,729.171 391.332,707.653 z" id="boundary" inkscape:connector-curvature="0" />
	<path style="fill:none;stroke:red;stroke-width:1px;stroke-linecap:butt;stroke-linejoin:miter;stroke-opacity:1" d="M 391.332,750.69 391.332,729.171 z" id="boundary" inkscape:connector-curvature="0" />
	<path style="fill:none;stroke:red;stroke-width:1px;stroke-linecap:butt;stroke-linejoin:miter;stroke-opacity:1" d="M 554.872,501.076 554.872,522.594 z" id="boundary" inkscape:connector-curvature="0" />
	<path style="fill:none;stroke:red;stroke-width:1px;stroke-linecap:butt;stroke-linejoin:miter;stroke-opacity:1" d="M 391.332,750.69 391.332,772.208 z" id="boundary" inkscape:connector-curvature="0" />
	<path style="fill:none;stroke:red;stroke-width:1px;stroke-linecap:butt;stroke-linejoin:miter;stroke-opacity:1" d="M 554.872,544.113 554.872,522.594 z" id="boundary" inkscape:connector-curvature="0" />
	<path style="fill:none;stroke:red;stroke-width:1px;stroke-linecap:butt;stroke-linejoin:miter;stroke-opacity:1" d="M 402.091,813.093 402.091,791.575 z" id="boundary" inkscape:connector-curvature="0" />
	<path style="fill:none;stroke:red;stroke-width:1px;stroke-linecap:butt;stroke-linejoin:miter;stroke-opacity:1" d="M 402.091,791.575 391.332,772.208 z" id="boundary" inkscape:connector-curvature="0" />
	<path style="fill:none;stroke:red;stroke-width:1px;stroke-linecap:butt;stroke-linejoin:miter;stroke-opacity:1" d="M 554.872,694.742 554.872,673.223 z" id="boundary" inkscape:connector-curvature="0" />
	<path style="fill:none;stroke:red;stroke-width:1px;stroke-linecap:butt;stroke-linejoin:miter;stroke-opacity:1" d="M 382.725,996 404.243,996 z" id="boundary" inkscape:connector-curvature="0" />
	<path style="fill:none;stroke:red;stroke-width:1px;stroke-linecap:butt;stroke-linejoin:miter;stroke-opacity:1" d="M 511.835,100.833 490.317,100.833 z" id="boundary" inkscape:connector-curvature="0" />
	<path style="fill:none;stroke:red;stroke-width:1px;stroke-linecap:butt;stroke-linejoin:miter;stroke-opacity:1" d="M 404.243,996 425.761,996 z" id="boundary" inkscape:connector-curvature="0" />
	<path style="fill:none;stroke:red;stroke-width:1px;stroke-linecap:butt;stroke-linejoin:miter;stroke-opacity:1" d="M 533.354,100.833 554.872,100.833 z" id="boundary" inkscape:connector-curvature="0" />
	<path style="fill:none;stroke:red;stroke-width:1px;stroke-linecap:butt;stroke-linejoin:miter;stroke-opacity:1" d="M 554.872,565.631 554.872,544.113 z" id="boundary" inkscape:connector-curvature="0" />
	<path style="fill:none;stroke:red;stroke-width:1px;stroke-linecap:butt;stroke-linejoin:miter;stroke-opacity:1" d="M 425.761,996 447.28,996 z" id="boundary" inkscape:connector-curvature="0" />
	<path style="fill:none;stroke:red;stroke-width:1px;stroke-linecap:butt;stroke-linejoin:miter;stroke-opacity:1" d="M 447.28,996 468.798,996 z" id="boundary" inkscape:connector-curvature="0" />
	<path style="fill:none;stroke:red;stroke-width:1px;stroke-linecap:butt;stroke-linejoin:miter;stroke-opacity:1" d="M 554.872,436.521 554.872,415.002 z" id="boundary" inkscape:connector-curvature="0" />
	<path style="fill:none;stroke:red;stroke-width:1px;stroke-linecap:butt;stroke-linejoin:miter;stroke-opacity:1" d="M 554.872,845.371 565.631,864.738 z" id="boundary" inkscape:connector-curvature="0" />
	<path style="fill:none;stroke:red;stroke-width:1px;stroke-linecap:butt;stroke-linejoin:miter;stroke-opacity:1" d="M 554.872,845.371 554.872,823.852 z" id="boundary" inkscape:connector-curvature="0" />
	<path style="fill:none;stroke:red;stroke-width:1px;stroke-linecap:butt;stroke-linejoin:miter;stroke-opacity:1" d="M 554.872,458.039 554.872,436.521 z" id="boundary" inkscape:connector-curvature="0" />
	<path style="fill:none;stroke:red;stroke-width:1px;stroke-linecap:butt;stroke-linejoin:miter;stroke-opacity:1" d="M 554.872,587.15 554.872,565.631 z" id="boundary" inkscape:connector-curvature="0" />
	<path style="fill:none;stroke:red;stroke-width:1px;stroke-linecap:butt;stroke-linejoin:miter;stroke-opacity:1" d="M 554.872,415.002 572.087,399.939 z" id="boundary" inkscape:connector-curvature="0" />
	<path style="fill:none;stroke:red;stroke-width:1px;stroke-linecap:butt;stroke-linejoin:miter;stroke-opacity:1" d="M 554.872,608.668 554.872,587.15 z" id="boundary" inkscape:connector-curvature="0" />
	<path style="fill:none;stroke:red;stroke-width:1px;stroke-linecap:butt;stroke-linejoin:miter;stroke-opacity:1" d="M 554.872,630.187 554.872,608.668 z" id="boundary" inkscape:connector-curvature="0" />
	<path style="fill:none;stroke:red;stroke-width:1px;stroke-linecap:butt;stroke-linejoin:miter;stroke-opacity:1" d="M 593.605,389.18 572.087,399.939 z" id="boundary" inkscape:connector-curvature="0" />
	<path style="fill:none;stroke:red;stroke-width:1px;stroke-linecap:butt;stroke-linejoin:miter;stroke-opacity:1" d="M 554.872,630.187 554.872,651.705 z" id="boundary" inkscape:connector-curvature="0" />
	<path style="fill:none;stroke:red;stroke-width:1px;stroke-linecap:butt;stroke-linejoin:miter;stroke-opacity:1" d="M 554.872,673.223 554.872,651.705 z" id="boundary" inkscape:connector-curvature="0" />
	<path style="fill:none;stroke:red;stroke-width:1px;stroke-linecap:butt;stroke-linejoin:miter;stroke-opacity:1" d="M 593.605,389.18 608.668,371.965 z" id="boundary" inkscape:connector-curvature="0" />
	<path style="fill:none;stroke:red;stroke-width:1px;stroke-linecap:butt;stroke-linejoin:miter;stroke-opacity:1" d="M 608.668,371.965 628.035,361.206 z" id="boundary" inkscape:connector-curvature="0" />
	<path style="fill:none;stroke:red;stroke-width:1px;stroke-linecap:butt;stroke-linejoin:miter;stroke-opacity:1" d="M 554.872,716.26 554.872,694.742 z" id="boundary" inkscape:connector-curvature="0" />
	<path style="fill:none;stroke:red;stroke-width:1px;stroke-linecap:butt;stroke-linejoin:miter;stroke-opacity:1" d="M 647.401,350.447 668.92,346.143 z" id="boundary" inkscape:connector-curvature="0" />
	<path style="fill:none;stroke:red;stroke-width:1px;stroke-linecap:butt;stroke-linejoin:miter;stroke-opacity:1" d="M 647.401,350.447 628.035,361.206 z" id="boundary" inkscape:connector-curvature="0" />
	<path style="fill:none;stroke:red;stroke-width:1px;stroke-linecap:butt;stroke-linejoin:miter;stroke-opacity:1" d="M 554.872,737.779 554.872,716.26 z" id="boundary" inkscape:connector-curvature="0" />
	<path style="fill:none;stroke:red;stroke-width:1px;stroke-linecap:butt;stroke-linejoin:miter;stroke-opacity:1" d="M 554.872,737.779 554.872,759.297 z" id="boundary" inkscape:connector-curvature="0" />
	<path style="fill:none;stroke:red;stroke-width:1px;stroke-linecap:butt;stroke-linejoin:miter;stroke-opacity:1" d="M 554.872,759.297 554.872,780.816 z" id="boundary" inkscape:connector-curvature="0" />
	<path style="fill:none;stroke:red;stroke-width:1px;stroke-linecap:butt;stroke-linejoin:miter;stroke-opacity:1" d="M 554.872,780.816 554.872,802.334 z" id="boundary" inkscape:connector-curvature="0" />
	<path style="fill:none;stroke:red;stroke-width:1px;stroke-linecap:butt;stroke-linejoin:miter;stroke-opacity:1" d="M 554.872,802.334 554.872,823.852 z" id="boundary" inkscape:connector-curvature="0" />
	<path style="fill:none;stroke:red;stroke-width:1px;stroke-linecap:butt;stroke-linejoin:miter;stroke-opacity:1" d="M 490.317,996 468.798,996 z" id="boundary" inkscape:connector-curvature="0" />
	<path style="fill:none;stroke:red;stroke-width:1px;stroke-linecap:butt;stroke-linejoin:miter;stroke-opacity:1" d="M 511.835,996 490.317,996 z" id="boundary" inkscape:connector-curvature="0" />
	<path style="fill:none;stroke:red;stroke-width:1px;stroke-linecap:butt;stroke-linejoin:miter;stroke-opacity:1" d="M 511.835,996 533.354,996 z" id="boundary" inkscape:connector-curvature="0" />
	<path style="fill:none;stroke:red;stroke-width:1px;stroke-linecap:butt;stroke-linejoin:miter;stroke-opacity:1" d="M 554.872,996 576.39,996 z" id="boundary" inkscape:connector-curvature="0" />
	<path style="fill:none;stroke:red;stroke-width:1px;stroke-linecap:butt;stroke-linejoin:miter;stroke-opacity:1" d="M 533.354,996 554.872,996 z" id="boundary" inkscape:connector-curvature="0" />
	<path style="fill:none;stroke:red;stroke-width:1px;stroke-linecap:butt;stroke-linejoin:miter;stroke-opacity:1" d="M 554.872,100.833 576.39,100.833 z" id="boundary" inkscape:connector-curvature="0" />
	<path style="fill:none;stroke:red;stroke-width:1px;stroke-linecap:butt;stroke-linejoin:miter;stroke-opacity:1" d="M 565.631,864.738 587.15,864.738 z" id="boundary" inkscape:connector-curvature="0" />
	<path style="fill:none;stroke:red;stroke-width:1px;stroke-linecap:butt;stroke-linejoin:miter;stroke-opacity:1" d="M 587.15,864.738 606.516,875.497 z" id="boundary" inkscape:connector-curvature="0" />
	<path style="fill:none;stroke:red;stroke-width:1px;stroke-linecap:butt;stroke-linejoin:miter;stroke-opacity:1" d="M 690.438,335.384 668.92,346.143 z" id="boundary" inkscape:connector-curvature="0" />
	<path style="fill:none;stroke:red;stroke-width:1px;stroke-linecap:butt;stroke-linejoin:miter;stroke-opacity:1" d="M 576.39,100.833 597.909,100.833 z" id="boundary" inkscape:connector-curvature="0" />
	<path style="fill:none;stroke:red;stroke-width:1px;stroke-linecap:butt;stroke-linejoin:miter;stroke-opacity:1" d="M 576.39,996 597.909,996 z" id="boundary" inkscape:connector-curvature="0" />
	<path style="fill:none;stroke:red;stroke-width:1px;stroke-linecap:butt;stroke-linejoin:miter;stroke-opacity:1" d="M 625.883,886.256 606.516,875.497 z" id="boundary" inkscape:connector-curvature="0" />
	<path style="fill:none;stroke:red;stroke-width:1px;stroke-linecap:butt;stroke-linejoin:miter;stroke-opacity:1" d="M 597.909,100.833 619.427,100.833 z" id="boundary" inkscape:connector-curvature="0" />
	<path style="fill:none;stroke:red;stroke-width:1px;stroke-linecap:butt;stroke-linejoin:miter;stroke-opacity:1" d="M 619.427,996 640.946,996 z" id="boundary" inkscape:connector-curvature="0" />
	<path style="fill:none;stroke:red;stroke-width:1px;stroke-linecap:butt;stroke-linejoin:miter;stroke-opacity:1" d="M 597.909,996 619.427,996 z" id="boundary" inkscape:connector-curvature="0" />
	<path style="fill:none;stroke:red;stroke-width:1px;stroke-linecap:butt;stroke-linejoin:miter;stroke-opacity:1" d="M 690.438,335.384 711.957,324.625 z" id="boundary" inkscape:connector-curvature="0" />
	<path style="fill:none;stroke:red;stroke-width:1px;stroke-linecap:butt;stroke-linejoin:miter;stroke-opacity:1" d="M 619.427,100.833 640.946,100.833 z" id="boundary" inkscape:connector-curvature="0" />
	<path style="fill:none;stroke:red;stroke-width:1px;stroke-linecap:butt;stroke-linejoin:miter;stroke-opacity:1" d="M 640.946,996 662.464,996 z" id="boundary" inkscape:connector-curvature="0" />
	<path style="fill:none;stroke:red;stroke-width:1px;stroke-linecap:butt;stroke-linejoin:miter;stroke-opacity:1" d="M 625.883,886.256 647.401,886.256 z" id="boundary" inkscape:connector-curvature="0" />
	<path style="fill:none;stroke:red;stroke-width:1px;stroke-linecap:butt;stroke-linejoin:miter;stroke-opacity:1" d="M 640.946,100.833 662.464,100.833 z" id="boundary" inkscape:connector-curvature="0" />
	<path style="fill:none;stroke:red;stroke-width:1px;stroke-linecap:butt;stroke-linejoin:miter;stroke-opacity:1" d="M 647.401,886.256 668.92,888.408 z" id="boundary" inkscape:connector-curvature="0" />
	<path style="fill:none;stroke:red;stroke-width:1px;stroke-linecap:butt;stroke-linejoin:miter;stroke-opacity:1" d="M 662.464,100.833 683.983,94.3774 z" id="boundary" inkscape:connector-curvature="0" />
	<path style="fill:none;stroke:red;stroke-width:1px;stroke-linecap:butt;stroke-linejoin:miter;stroke-opacity:1" d="M 668.92,888.408 688.286,899.167 z" id="boundary" inkscape:connector-curvature="0" />
	<path style="fill:none;stroke:red;stroke-width:1px;stroke-linecap:butt;stroke-linejoin:miter;stroke-opacity:1" d="M 688.286,899.167 709.805,907.774 z" id="boundary" inkscape:connector-curvature="0" />
	<path style="fill:none;stroke:red;stroke-width:1px;stroke-linecap:butt;stroke-linejoin:miter;stroke-opacity:1" d="M 662.464,996 683.983,996 z" id="boundary" inkscape:connector-curvature="0" />
	<path style="fill:none;stroke:red;stroke-width:1px;stroke-linecap:butt;stroke-linejoin:miter;stroke-opacity:1" d="M 752.842,4 774.36,4 z" id="boundary" inkscape:connector-curvature="0" />
	<path style="fill:none;stroke:red;stroke-width:1px;stroke-linecap:butt;stroke-linejoin:miter;stroke-opacity:1" d="M 733.475,313.866 711.957,324.625 z" id="boundary" inkscape:connector-curvature="0" />
	<path style="fill:none;stroke:red;stroke-width:1px;stroke-linecap:butt;stroke-linejoin:miter;stroke-opacity:1" d="M 683.983,94.3774 701.197,79.3145 z" id="boundary" inkscape:connector-curvature="0" />
	<path style="fill:none;stroke:red;stroke-width:1px;stroke-linecap:butt;stroke-linejoin:miter;stroke-opacity:1" d="M 709.805,907.774 729.171,918.534 z" id="boundary" inkscape:connector-curvature="0" />
	<path style="fill:none;stroke:red;stroke-width:1px;stroke-linecap:butt;stroke-linejoin:miter;stroke-opacity:1" d="M 701.197,79.3145 709.805,57.7961 z" id="boundary" inkscape:connector-curvature="0" />
	<path style="fill:none;stroke:red;stroke-width:1px;stroke-linecap:butt;stroke-linejoin:miter;stroke-opacity:1" d="M 683.983,996 705.501,996 z" id="boundary" inkscape:connector-curvature="0" />
	<path style="fill:none;stroke:red;stroke-width:1px;stroke-linecap:butt;stroke-linejoin:miter;stroke-opacity:1" d="M 752.842,4 731.323,14.7592 z" id="boundary" inkscape:connector-curvature="0" />
	<path style="fill:none;stroke:red;stroke-width:1px;stroke-linecap:butt;stroke-linejoin:miter;stroke-opacity:1" d="M 731.323,14.7592 720.564,36.2777 z" id="boundary" inkscape:connector-curvature="0" />
	<path style="fill:none;stroke:red;stroke-width:1px;stroke-linecap:butt;stroke-linejoin:miter;stroke-opacity:1" d="M 774.36,4 795.879,4 z" id="boundary" inkscape:connector-curvature="0" />
	<path style="fill:none;stroke:red;stroke-width:1px;stroke-linecap:butt;stroke-linejoin:miter;stroke-opacity:1" d="M 709.805,57.7961 720.564,36.2777 z" id="boundary" inkscape:connector-curvature="0" />
	<path style="fill:none;stroke:red;stroke-width:1px;stroke-linecap:butt;stroke-linejoin:miter;stroke-opacity:1" d="M 705.501,996 727.02,996 z" id="boundary" inkscape:connector-curvature="0" />
	<path style="fill:none;stroke:red;stroke-width:1px;stroke-linecap:butt;stroke-linejoin:miter;stroke-opacity:1" d="M 733.475,313.866 748.538,296.651 z" id="boundary" inkscape:connector-curvature="0" />
	<path style="fill:none;stroke:red;stroke-width:1px;stroke-linecap:butt;stroke-linejoin:miter;stroke-opacity:1" d="M 729.171,918.534 748.538,929.293 z" id="boundary" inkscape:connector-curvature="0" />
	<path style="fill:none;stroke:red;stroke-width:1px;stroke-linecap:butt;stroke-linejoin:miter;stroke-opacity:1" d="M 823.852,47.0369 823.852,25.5184 z" id="boundary" inkscape:connector-curvature="0" />
	<path style="fill:none;stroke:red;stroke-width:1px;stroke-linecap:butt;stroke-linejoin:miter;stroke-opacity:1" d="M 748.538,996 727.02,996 z" id="boundary" inkscape:connector-curvature="0" />
	<path style="fill:none;stroke:red;stroke-width:1px;stroke-linecap:butt;stroke-linejoin:miter;stroke-opacity:1" d="M 780.816,264.373 759.297,275.132 z" id="boundary" inkscape:connector-curvature="0" />
	<path style="fill:none;stroke:red;stroke-width:1px;stroke-linecap:butt;stroke-linejoin:miter;stroke-opacity:1" d="M 759.297,275.132 748.538,296.651 z" id="boundary" inkscape:connector-curvature="0" />
	<path style="fill:none;stroke:red;stroke-width:1px;stroke-linecap:butt;stroke-linejoin:miter;stroke-opacity:1" d="M 748.538,929.293 770.056,935.748 z" id="boundary" inkscape:connector-curvature="0" />
	<path style="fill:none;stroke:red;stroke-width:1px;stroke-linecap:butt;stroke-linejoin:miter;stroke-opacity:1" d="M 770.056,996 748.538,996 z" id="boundary" inkscape:connector-curvature="0" />
	<path style="fill:none;stroke:red;stroke-width:1px;stroke-linecap:butt;stroke-linejoin:miter;stroke-opacity:1" d="M 770.056,935.748 789.423,946.508 z" id="boundary" inkscape:connector-curvature="0" />
	<path style="fill:none;stroke:red;stroke-width:1px;stroke-linecap:butt;stroke-linejoin:miter;stroke-opacity:1" d="M 813.093,996 791.575,996 z" id="boundary" inkscape:connector-curvature="0" />
	<path style="fill:none;stroke:red;stroke-width:1px;stroke-linecap:butt;stroke-linejoin:miter;stroke-opacity:1" d="M 791.575,996 770.056,996 z" id="boundary" inkscape:connector-curvature="0" />
	<path style="fill:none;stroke:red;stroke-width:1px;stroke-linecap:butt;stroke-linejoin:miter;stroke-opacity:1" d="M 780.816,264.373 798.03,249.31 z" id="boundary" inkscape:connector-curvature="0" />
	<path style="fill:none;stroke:red;stroke-width:1px;stroke-linecap:butt;stroke-linejoin:miter;stroke-opacity:1" d="M 789.423,946.508 810.941,955.115 z" id="boundary" inkscape:connector-curvature="0" />
	<path style="fill:none;stroke:red;stroke-width:1px;stroke-linecap:butt;stroke-linejoin:miter;stroke-opacity:1" d="M 798.03,249.31 813.093,232.095 z" id="boundary" inkscape:connector-curvature="0" />
	<path style="fill:none;stroke:red;stroke-width:1px;stroke-linecap:butt;stroke-linejoin:miter;stroke-opacity:1" d="M 813.093,232.095 813.093,210.577 z" id="boundary" inkscape:connector-curvature="0" />
	<path style="fill:none;stroke:red;stroke-width:1px;stroke-linecap:butt;stroke-linejoin:miter;stroke-opacity:1" d="M 823.852,25.5184 817.397,4 z" id="boundary" inkscape:connector-curvature="0" />
	<path style="fill:none;stroke:red;stroke-width:1px;stroke-linecap:butt;stroke-linejoin:miter;stroke-opacity:1" d="M 817.397,4 795.879,4 z" id="boundary" inkscape:connector-curvature="0" />
	<path style="fill:none;stroke:red;stroke-width:1px;stroke-linecap:butt;stroke-linejoin:miter;stroke-opacity:1" d="M 823.852,189.059 834.612,152.477 z" id="boundary" inkscape:connector-curvature="0" />
	<path style="fill:none;stroke:red;stroke-width:1px;stroke-linecap:butt;stroke-linejoin:miter;stroke-opacity:1" d="M 834.612,996 813.093,996 z" id="boundary" inkscape:connector-curvature="0" />
	<path style="fill:none;stroke:red;stroke-width:1px;stroke-linecap:butt;stroke-linejoin:miter;stroke-opacity:1" d="M 834.612,87.9219 834.612,66.4035 z" id="boundary" inkscape:connector-curvature="0" />
	<path style="fill:none;stroke:red;stroke-width:1px;stroke-linecap:butt;stroke-linejoin:miter;stroke-opacity:1" d="M 834.612,66.4035 823.852,47.0369 z" id="boundary" inkscape:connector-curvature="0" />
	<path style="fill:none;stroke:red;stroke-width:1px;stroke-linecap:butt;stroke-linejoin:miter;stroke-opacity:1" d="M 823.852,189.059 813.093,210.577 z" id="boundary" inkscape:connector-curvature="0" />
	<path style="fill:none;stroke:red;stroke-width:1px;stroke-linecap:butt;stroke-linejoin:miter;stroke-opacity:1" d="M 810.941,955.115 832.46,961.57 z" id="boundary" inkscape:connector-curvature="0" />
	<path style="fill:none;stroke:red;stroke-width:1px;stroke-linecap:butt;stroke-linejoin:miter;stroke-opacity:1" d="M 834.612,109.44 834.612,87.9219 z" id="boundary" inkscape:connector-curvature="0" />
	<path style="fill:none;stroke:red;stroke-width:1px;stroke-linecap:butt;stroke-linejoin:miter;stroke-opacity:1" d="M 834.612,130.959 834.612,109.44 z" id="boundary" inkscape:connector-curvature="0" />
	<path style="fill:none;stroke:red;stroke-width:1px;stroke-linecap:butt;stroke-linejoin:miter;stroke-opacity:1" d="M 834.612,152.477 834.612,130.959 z" id="boundary" inkscape:connector-curvature="0" />
	<path style="fill:none;stroke:red;stroke-width:1px;stroke-linecap:butt;stroke-linejoin:miter;stroke-opacity:1" d="M 832.46,961.57 851.826,972.33 z" id="boundary" inkscape:connector-curvature="0" />
	<path style="fill:none;stroke:red;stroke-width:1px;stroke-linecap:butt;stroke-linejoin:miter;stroke-opacity:1" d="M 856.13,996 834.612,996 z" id="boundary" inkscape:connector-curvature="0" />
	<path style="fill:none;stroke:red;stroke-width:1px;stroke-linecap:butt;stroke-linejoin:miter;stroke-opacity:1" d="M 856.13,996 877.649,989.544 z" id="boundary" inkscape:connector-curvature="0" />
	<circle cx="4" cy="10.4555" r="4" fill="#0" id="circle0"/>
	<circle cx="4" cy="31.974" r="4" fill="#0" id="circle1"/>
	<circle cx="4" cy="53.4924" r="4" fill="#0" id="circle2"/>
	<circle cx="4" cy="75.0108" r="4" fill="#0" id="circle3"/>
	<circle cx="4" cy="96.5293" r="4" fill="#0" id="circle4"/>
	<circle cx="4" cy="118.048" r="4" fill="#0" id="circle5"/>
	<circle cx="4" cy="139.566" r="4" fill="#0" id="circle6"/>
	<circle cx="4" cy="161.085" r="4" fill="#0" id="circle7"/>
	<circle cx="14.7592" cy="180.451" r="4" fill="#0" id="circle8"/>
	<circle cx="14.7592" cy="201.97" r="4" fill="#0" id="circle9"/>
	<circle cx="14.7592" cy="223.488" r="4" fill="#0" id="circle10"/>
	<circle cx="25.5184" cy="14.7592" r="4" fill="#0" id="circle11"/>
	<circle cx="25.5184" cy="242.855" r="4" fill="#0" id="circle12"/>
	<circle cx="38.4295" cy="260.069" r="4" fill="#0" id="circle13"/>
	<circle cx="44.885" cy="25.5184" r="4" fill="#0" id="circle14"/>
	<circle cx="47.0369" cy="989.544" r="4" fill="#0" id="circle15"/>
	<circle cx="55.6443" cy="275.132" r="4" fill="#0" id="circle16"/>
	<circle cx="64.2516" cy="36.2777" r="4" fill="#0" id="circle17"/>
	<circle cx="68.5553" cy="978.785" r="4" fill="#0" id="circle18"/>
	<circle cx="75.0108" cy="285.892" r="4" fill="#0" id="circle19"/>
	<circle cx="79.3145" cy="53.4924" r="4" fill="#0" id="circle20"/>
	<circle cx="81.4664" cy="996" r="4" fill="#0" id="circle21"/>
	<circle cx="90.0738" cy="968.026" r="4" fill="#0" id="circle22"/>
	<circle cx="92.2256" cy="300.954" r="4" fill="#0" id="circle23"/>
	<circle cx="96.5293" cy="68.5553" r="4" fill="#0" id="circle24"/>
	<circle cx="102.985" cy="996" r="4" fill="#0" id="circle25"/>
	<circle cx="107.289" cy="318.169" r="4" fill="#0" id="circle26"/>
	<circle cx="111.592" cy="85.7701" r="4" fill="#0" id="circle27"/>
	<circle cx="111.592" cy="961.57" r="4" fill="#0" id="circle28"/>
	<circle cx="124.503" cy="996" r="4" fill="#0" id="circle29"/>
	<circle cx="128.807" cy="100.833" r="4" fill="#0" id="circle30"/>
	<circle cx="128.807" cy="326.777" r="4" fill="#0" id="circle31"/>
	<circle cx="130.959" cy="950.811" r="4" fill="#0" id="circle32"/>
	<circle cx="146.022" cy="339.688" r="4" fill="#0" id="circle33"/>
	<circle cx="146.022" cy="996" r="4" fill="#0" id="circle34"/>
	<circle cx="150.325" cy="100.833" r="4" fill="#0" id="circle35"/>
	<circle cx="150.325" cy="940.052" r="4" fill="#0" id="circle36"/>
	<circle cx="165.388" cy="350.447" r="4" fill="#0" id="circle37"/>
	<circle cx="167.54" cy="996" r="4" fill="#0" id="circle38"/>
	<circle cx="169.692" cy="111.592" r="4" fill="#0" id="circle39"/>
	<circle cx="171.844" cy="929.293" r="4" fill="#0" id="circle40"/>
	<circle cx="184.755" cy="361.206" r="4" fill="#0" id="circle41"/>
	<circle cx="189.059" cy="996" r="4" fill="#0" id="circle42"/>
	<circle cx="191.21" cy="111.592" r="4" fill="#0" id="circle43"/>
	<circle cx="193.362" cy="929.293" r="4" fill="#0" id="circle44"/>
	<circle cx="206.273" cy="361.206" r="4" fill="#0" id="circle45"/>
	<circle cx="210.577" cy="996" r="4" fill="#0" id="circle46"/>
	<circle cx="212.729" cy="111.592" r="4" fill="#0" id="circle47"/>
	<circle cx="212.729" cy="918.534" r="4" fill="#0" id="circle48"/>
	<circle cx="227.792" cy="361.206" r="4" fill="#0" id="circle49"/>
	<circle cx="232.095" cy="907.774" r="4" fill="#0" id="circle50"/>
	<circle cx="232.095" cy="996" r="4" fill="#0" id="circle51"/>
	<circle cx="234.247" cy="111.592" r="4" fill="#0" id="circle52"/>
	<circle cx="247.158" cy="371.965" r="4" fill="#0" id="circle53"/>
	<circle cx="253.614" cy="901.319" r="4" fill="#0" id="circle54"/>
	<circle cx="253.614" cy="996" r="4" fill="#0" id="circle55"/>
	<circle cx="255.766" cy="111.592" r="4" fill="#0" id="circle56"/>
	<circle cx="268.677" cy="380.573" r="4" fill="#0" id="circle57"/>
	<circle cx="275.132" cy="897.015" r="4" fill="#0" id="circle58"/>
	<circle cx="275.132" cy="996" r="4" fill="#0" id="circle59"/>
	<circle cx="277.284" cy="111.592" r="4" fill="#0" id="circle60"/>
	<circle cx="288.043" cy="391.332" r="4" fill="#0" id="circle61"/>
	<circle cx="296.651" cy="897.015" r="4" fill="#0" id="circle62"/>
	<circle cx="296.651" cy="996" r="4" fill="#0" id="circle63"/>
	<circle cx="298.803" cy="111.592" r="4" fill="#0" id="circle64"/>
	<circle cx="309.562" cy="393.484" r="4" fill="#0" id="circle65"/>
	<circle cx="316.017" cy="886.256" r="4" fill="#0" id="circle66"/>
	<circle cx="318.169" cy="996" r="4" fill="#0" id="circle67"/>
	<circle cx="320.321" cy="111.592" r="4" fill="#0" id="circle68"/>
	<circle cx="331.08" cy="393.484" r="4" fill="#0" id="circle69"/>
	<circle cx="335.384" cy="875.497" r="4" fill="#0" id="circle70"/>
	<circle cx="339.688" cy="996" r="4" fill="#0" id="circle71"/>
	<circle cx="341.839" cy="111.592" r="4" fill="#0" id="circle72"/>
	<circle cx="350.447" cy="404.243" r="4" fill="#0" id="circle73"/>
	<circle cx="356.902" cy="875.497" r="4" fill="#0" id="circle74"/>
	<circle cx="361.206" cy="996" r="4" fill="#0" id="circle75"/>
	<circle cx="363.358" cy="111.592" r="4" fill="#0" id="circle76"/>
	<circle cx="371.965" cy="408.547" r="4" fill="#0" id="circle77"/>
	<circle cx="376.269" cy="864.738" r="4" fill="#0" id="circle78"/>
	<circle cx="380.573" cy="430.065" r="4" fill="#0" id="circle79"/>
	<circle cx="380.573" cy="451.584" r="4" fill="#0" id="circle80"/>
	<circle cx="380.573" cy="473.102" r="4" fill="#0" id="circle81"/>
	<circle cx="380.573" cy="494.62" r="4" fill="#0" id="circle82"/>
	<circle cx="380.573" cy="516.139" r="4" fill="#0" id="circle83"/>
	<circle cx="380.573" cy="537.657" r="4" fill="#0" id="circle84"/>
	<circle cx="380.573" cy="559.176" r="4" fill="#0" id="circle85"/>
	<circle cx="380.573" cy="580.694" r="4" fill="#0" id="circle86"/>
	<circle cx="382.725" cy="996" r="4" fill="#0" id="circle87"/>
	<circle cx="384.876" cy="111.592" r="4" fill="#0" id="circle88"/>
	<circle cx="391.332" cy="600.061" r="4" fill="#0" id="circle89"/>
	<circle cx="391.332" cy="621.579" r="4" fill="#0" id="circle90"/>
	<circle cx="391.332" cy="643.098" r="4" fill="#0" id="circle91"/>
	<circle cx="391.332" cy="664.616" r="4" fill="#0" id="circle92"/>
	<circle cx="391.332" cy="686.134" r="4" fill="#0" id="circle93"/>
	<circle cx="391.332" cy="707.653" r="4" fill="#0" id="circle94"/>
	<circle cx="391.332" cy="729.171" r="4" fill="#0" id="circle95"/>
	<circle cx="391.332" cy="750.69" r="4" fill="#0" id="circle96"/>
	<circle cx="391.332" cy="772.208" r="4" fill="#0" id="circle97"/>
	<circle cx="395.636" cy="853.978" r="4" fill="#0" id="circle98"/>
	<circle cx="402.091" cy="791.575" r="4" fill="#0" id="circle99"/>
	<circle cx="402.091" cy="813.093" r="4" fill="#0" id="circle100"/>
	<circle cx="404.243" cy="996" r="4" fill="#0" id="circle101"/>
	<circle cx="406.395" cy="111.592" r="4" fill="#0" id="circle102"/>
	<circle cx="425.761" cy="996" r="4" fill="#0" id="circle103"/>
	<circle cx="427.913" cy="111.592" r="4" fill="#0" id="circle104"/>
	<circle cx="447.28" cy="100.833" r="4" fill="#0" id="circle105"/>
	<circle cx="447.28" cy="996" r="4" fill="#0" id="circle106"/>
	<circle cx="468.798" cy="100.833" r="4" fill="#0" id="circle107"/>
	<circle cx="468.798" cy="996" r="4" fill="#0" id="circle108"/>
	<circle cx="490.317" cy="100.833" r="4" fill="#0" id="circle109"/>
	<circle cx="490.317" cy="996" r="4" fill="#0" id="circle110"/>
	<circle cx="511.835" cy="100.833" r="4" fill="#0" id="circle111"/>
	<circle cx="511.835" cy="996" r="4" fill="#0" id="circle112"/>
	<circle cx="533.354" cy="100.833" r="4" fill="#0" id="circle113"/>
	<circle cx="533.354" cy="996" r="4" fill="#0" id="circle114"/>
	<circle cx="554.872" cy="100.833" r="4" fill="#0" id="circle115"/>
	<circle cx="554.872" cy="415.002" r="4" fill="#0" id="circle116"/>
	<circle cx="554.872" cy="436.521" r="4" fill="#0" id="circle117"/>
	<circle cx="554.872" cy="458.039" r="4" fill="#0" id="circle118"/>
	<circle cx="554.872" cy="479.557" r="4" fill="#0" id="circle119"/>
	<circle cx="554.872" cy="501.076" r="4" fill="#0" id="circle120"/>
	<circle cx="554.872" cy="522.594" r="4" fill="#0" id="circle121"/>
	<circle cx="554.872" cy="544.113" r="4" fill="#0" id="circle122"/>
	<circle cx="554.872" cy="565.631" r="4" fill="#0" id="circle123"/>
	<circle cx="554.872" cy="587.15" r="4" fill="#0" id="circle124"/>
	<circle cx="554.872" cy="608.668" r="4" fill="#0" id="circle125"/>
	<circle cx="554.872" cy="630.187" r="4" fill="#0" id="circle126"/>
	<circle cx="554.872" cy="651.705" r="4" fill="#0" id="circle127"/>
	<circle cx="554.872" cy="673.223" r="4" fill="#0" id="circle128"/>
	<circle cx="554.872" cy="694.742" r="4" fill="#0" id="circle129"/>
	<circle cx="554.872" cy="716.26" r="4" fill="#0" id="circle130"/>
	<circle cx="554.872" cy="737.779" r="4" fill="#0" id="circle131"/>
	<circle cx="554.872" cy="759.297" r="4" fill="#0" id="circle132"/>
	<circle cx="554.872" cy="780.816" r="4" fill="#0" id="circle133"/>
	<circle cx="554.872" cy="802.334" r="4" fill="#0" id="circle134"/>
	<circle cx="554.872" cy="823.852" r="4" fill="#0" id="circle135"/>
	<circle cx="554.872" cy="845.371" r="4" fill="#0" id="circle136"/>
	<circle cx="554.872" cy="996" r="4" fill="#0" id="circle137"/>
	<circle cx="565.631" cy="864.738" r="4" fill="#0" id="circle138"/>
	<circle cx="572.087" cy="399.939" r="4" fill="#0" id="circle139"/>
	<circle cx="576.39" cy="100.833" r="4" fill="#0" id="circle140"/>
	<circle cx="576.39" cy="996" r="4" fill="#0" id="circle141"/>
	<circle cx="587.15" cy="864.738" r="4" fill="#0" id="circle142"/>
	<circle cx="593.605" cy="389.18" r="4" fill="#0" id="circle143"/>
	<circle cx="597.909" cy="100.833" r="4" fill="#0" id="circle144"/>
	<circle cx="597.909" cy="996" r="4" fill="#0" id="circle145"/>
	<circle cx="606.516" cy="875.497" r="4" fill="#0" id="circle146"/>
	<circle cx="608.668" cy="371.965" r="4" fill="#0" id="circle147"/>
	<circle cx="619.427" cy="100.833" r="4" fill="#0" id="circle148"/>
	<circle cx="619.427" cy="996" r="4" fill="#0" id="circle149"/>
	<circle cx="625.883" cy="886.256" r="4" fill="#0" id="circle150"/>
	<circle cx="628.035" cy="361.206" r="4" fill="#0" id="circle151"/>
	<circle cx="640.946" cy="100.833" r="4" fill="#0" id="circle152"/>
	<circle cx="640.946" cy="996" r="4" fill="#0" id="circle153"/>
	<circle cx="647.401" cy="350.447" r="4" fill="#0" id="circle154"/>
	<circle cx="647.401" cy="886.256" r="4" fill="#0" id="circle155"/>
	<circle cx="662.464" cy="100.833" r="4" fill="#0" id="circle156"/>
	<circle cx="662.464" cy="996" r="4" fill="#0" id="circle157"/>
	<circle cx="668.92" cy="346.143" r="4" fill="#0" id="circle158"/>
	<circle cx="668.92" cy="888.408" r="4" fill="#0" id="circle159"/>
	<circle cx="683.983" cy="94.3774" r="4" fill="#0" id="circle160"/>
	<circle cx="683.983" cy="996" r="4" fill="#0" id="circle161"/>
	<circle cx="688.286" cy="899.167" r="4" fill="#0" id="circle162"/>
	<circle cx="690.438" cy="335.384" r="4" fill="#0" id="circle163"/>
	<circle cx="701.197" cy="79.3145" r="4" fill="#0" id="circle164"/>
	<circle cx="705.501" cy="996" r="4" fill="#0" id="circle165"/>
	<circle cx="709.805" cy="57.7961" r="4" fill="#0" id="circle166"/>
	<circle cx="709.805" cy="907.774" r="4" fill="#0" id="circle167"/>
	<circle cx="711.957" cy="324.625" r="4" fill="#0" id="circle168"/>
	<circle cx="720.564" cy="36.2777" r="4" fill="#0" id="circle169"/>
	<circle cx="727.02" cy="996" r="4" fill="#0" id="circle170"/>
	<circle cx="729.171" cy="918.534" r="4" fill="#0" id="circle171"/>
	<circle cx="731.323" cy="14.7592" r="4" fill="#0" id="circle172"/>
	<circle cx="733.475" cy="313.866" r="4" fill="#0" id="circle173"/>
	<circle cx="748.538" cy="296.651" r="4" fill="#0" id="circle174"/>
	<circle cx="748.538" cy="929.293" r="4" fill="#0" id="circle175"/>
	<circle cx="748.538" cy="996" r="4" fill="#0" id="circle176"/>
	<circle cx="752.842" cy="4" r="4" fill="#0" id="circle177"/>
	<circle cx="759.297" cy="275.132" r="4" fill="#0" id="circle178"/>
	<circle cx="770.056" cy="935.748" r="4" fill="#0" id="circle179"/>
	<circle cx="770.056" cy="996" r="4" fill="#0" id="circle180"/>
	<circle cx="774.36" cy="4" r="4" fill="#0" id="circle181"/>
	<circle cx="780.816" cy="264.373" r="4" fill="#0" id="circle182"/>
	<circle cx="789.423" cy="946.508" r="4" fill="#0" id="circle183"/>
	<circle cx="791.575" cy="996" r="4" fill="#0" id="circle184"/>
	<circle cx="795.879" cy="4" r="4" fill="#0" id="circle185"/>
	<circle cx="798.03" cy="249.31" r="4" fill="#0" id="circle186"/>
	<circle cx="810.941" cy="955.115" r="4" fill="#0" id="circle187"/>
	<circle cx="813.093" cy="210.577" r="4" fill="#0" id="circle188"/>
	<circle cx="813.093" cy="232.095" r="4" fill="#0" id="circle189"/>
	<circle cx="813.093" cy="996" r="4" fill="#0" id="circle190"/>
	<circle cx="817.397" cy="4" r="4" fill="#0" id="circle191"/>
	<circle cx="823.852" cy="25.5184" r="4" fill="#0" id="circle192"/>
	<circle cx="823.852" cy="47.0369" r="4" fill="#0" id="circle193"/>
	<circle cx="823.852" cy="189.059" r="4" fill="#0" id="circle194"/>
	<circle cx="832.46" cy="961.57" r="4" fill="#0" id="circle195"/>
	<circle cx="834.612" cy="66.4035" r="4" fill="#0" id="circle196"/>
	<circle cx="834.612" cy="87.9219" r="4" fill="#0" id="circle197"/>
	<circle cx="834.612" cy="109.44" r="4" fill="#0" id="circle198"/>
	<circle cx="834.612" cy="130.959" r="4" fill="#0" id="circle199"/>
	<circle cx="834.612" cy="152.477" r="4" fill="#0" id="circle200"/>
	<circle cx="834.612" cy="996" r="4" fill="#0" id="circle201"/>
	<circle cx="851.826" cy="972.33" r="4" fill="#0" id="circle202"/>
	<circle cx="856.13" cy="996" r="4" fill="#0" id="circle203"/>
	<circle cx="877.649" cy="989.544" r="4" fill="#0" id="circle204"/>
	</g>
</svg>