<?xml version="1.0" encoding="UTF-8" standalone="no"?>
<!-- Created with CurveBenchmark -->
<svg
	xmlns:dc="http://purl.org/dc/elements/1.1/"
	xmlns:cc="http://creativecommons.org/ns#"
	xmlns:rdf="http://www.w3.org/1999/02/22-rdf-syntax-ns#"
	xmlns:svg="http://www.w3.org/2000/svg"
	xmlns="http://www.w3.org/2000/svg"
	xmlns:sodipodi="http://sodipodi.sourceforge.net/DTD/sodipodi-0.dtd"
	xmlns:inkscape="http://www.inkscape.org/namespaces/inkscape"
	width="1000"
	height="1000"
	id="svg2"
	version="1.1"
	sodipodi:docname="manifold/peel-cat13.png.txt">
<defs
	id="defs4" />
<metadata
	id="metadata7">
	<rdf:RDF>
		<cc:Work
			rdf:about="">
			<dc:format>image/svg+xml</dc:format>
			<dc:type
				rdf:resource="http://purl.org/dc/dcmitype/StillImage" />
			<dc:title></dc:title>
		</cc:Work>
	</rdf:RDF>
</metadata>
<g
	inkscape:label="Layer 1"
	inkscape:groupmode="layer"
	id="layer1">
	<path style="fill:none;stroke:red;stroke-width:1px;stroke-linecap:butt;stroke-linejoin:miter;stroke-opacity:1" d="M 4,249.102 4,232.541 z" id="boundary" inkscape:connector-curvature="0" />
	<path style="fill:none;stroke:red;stroke-width:1px;stroke-linecap:butt;stroke-linejoin:miter;stroke-opacity:1" d="M 4,232.541 17.2487,219.292 z" id="boundary" inkscape:connector-curvature="0" />
	<path style="fill:none;stroke:red;stroke-width:1px;stroke-linecap:butt;stroke-linejoin:miter;stroke-opacity:1" d="M 53.6828,166.297 61.9633,149.736 z" id="boundary" inkscape:connector-curvature="0" />
	<path style="fill:none;stroke:red;stroke-width:1px;stroke-linecap:butt;stroke-linejoin:miter;stroke-opacity:1" d="M 23.8731,277.255 12.2805,264.007 z" id="boundary" inkscape:connector-curvature="0" />
	<path style="fill:none;stroke:red;stroke-width:1px;stroke-linecap:butt;stroke-linejoin:miter;stroke-opacity:1" d="M 17.2487,219.292 33.8097,219.292 z" id="boundary" inkscape:connector-curvature="0" />
	<path style="fill:none;stroke:red;stroke-width:1px;stroke-linecap:butt;stroke-linejoin:miter;stroke-opacity:1" d="M 4,249.102 12.2805,264.007 z" id="boundary" inkscape:connector-curvature="0" />
	<path style="fill:none;stroke:red;stroke-width:1px;stroke-linecap:butt;stroke-linejoin:miter;stroke-opacity:1" d="M 177.89,323.626 171.265,307.065 z" id="boundary" inkscape:connector-curvature="0" />
	<path style="fill:none;stroke:red;stroke-width:1px;stroke-linecap:butt;stroke-linejoin:miter;stroke-opacity:1" d="M 23.8731,277.255 40.4341,278.912 z" id="boundary" inkscape:connector-curvature="0" />
	<path style="fill:none;stroke:red;stroke-width:1px;stroke-linecap:butt;stroke-linejoin:miter;stroke-opacity:1" d="M 45.4023,199.419 45.4023,182.858 z" id="boundary" inkscape:connector-curvature="0" />
	<path style="fill:none;stroke:red;stroke-width:1px;stroke-linecap:butt;stroke-linejoin:miter;stroke-opacity:1" d="M 33.8097,219.292 45.4023,199.419 z" id="boundary" inkscape:connector-curvature="0" />
	<path style="fill:none;stroke:red;stroke-width:1px;stroke-linecap:butt;stroke-linejoin:miter;stroke-opacity:1" d="M 103.366,270.631 88.4608,262.351 z" id="boundary" inkscape:connector-curvature="0" />
	<path style="fill:none;stroke:red;stroke-width:1px;stroke-linecap:butt;stroke-linejoin:miter;stroke-opacity:1" d="M 88.4608,262.351 71.8998,262.351 z" id="boundary" inkscape:connector-curvature="0" />
	<path style="fill:none;stroke:red;stroke-width:1px;stroke-linecap:butt;stroke-linejoin:miter;stroke-opacity:1" d="M 61.9633,71.8998 61.9633,100.053 z" id="boundary" inkscape:connector-curvature="0" />
	<path style="fill:none;stroke:red;stroke-width:1px;stroke-linecap:butt;stroke-linejoin:miter;stroke-opacity:1" d="M 45.4023,8.96828 53.6828,23.8731 z" id="boundary" inkscape:connector-curvature="0" />
	<path style="fill:none;stroke:red;stroke-width:1px;stroke-linecap:butt;stroke-linejoin:miter;stroke-opacity:1" d="M 53.6828,23.8731 53.6828,40.4341 z" id="boundary" inkscape:connector-curvature="0" />
	<path style="fill:none;stroke:red;stroke-width:1px;stroke-linecap:butt;stroke-linejoin:miter;stroke-opacity:1" d="M 55.3389,270.631 71.8998,262.351 z" id="boundary" inkscape:connector-curvature="0" />
	<path style="fill:none;stroke:red;stroke-width:1px;stroke-linecap:butt;stroke-linejoin:miter;stroke-opacity:1" d="M 45.4023,182.858 53.6828,166.297 z" id="boundary" inkscape:connector-curvature="0" />
	<path style="fill:none;stroke:red;stroke-width:1px;stroke-linecap:butt;stroke-linejoin:miter;stroke-opacity:1" d="M 78.5242,4 61.9633,4 z" id="boundary" inkscape:connector-curvature="0" />
	<path style="fill:none;stroke:red;stroke-width:1px;stroke-linecap:butt;stroke-linejoin:miter;stroke-opacity:1" d="M 40.4341,278.912 55.3389,270.631 z" id="boundary" inkscape:connector-curvature="0" />
	<path style="fill:none;stroke:red;stroke-width:1px;stroke-linecap:butt;stroke-linejoin:miter;stroke-opacity:1" d="M 61.9633,71.8998 61.9633,55.3389 z" id="boundary" inkscape:connector-curvature="0" />
	<path style="fill:none;stroke:red;stroke-width:1px;stroke-linecap:butt;stroke-linejoin:miter;stroke-opacity:1" d="M 61.9633,55.3389 53.6828,40.4341 z" id="boundary" inkscape:connector-curvature="0" />
	<path style="fill:none;stroke:red;stroke-width:1px;stroke-linecap:butt;stroke-linejoin:miter;stroke-opacity:1" d="M 45.4023,8.96828 61.9633,4 z" id="boundary" inkscape:connector-curvature="0" />
	<path style="fill:none;stroke:red;stroke-width:1px;stroke-linecap:butt;stroke-linejoin:miter;stroke-opacity:1" d="M 61.9633,100.053 61.9633,116.614 z" id="boundary" inkscape:connector-curvature="0" />
	<path style="fill:none;stroke:red;stroke-width:1px;stroke-linecap:butt;stroke-linejoin:miter;stroke-opacity:1" d="M 95.0851,4 78.5242,4 z" id="boundary" inkscape:connector-curvature="0" />
	<path style="fill:none;stroke:red;stroke-width:1px;stroke-linecap:butt;stroke-linejoin:miter;stroke-opacity:1" d="M 61.9633,133.175 61.9633,116.614 z" id="boundary" inkscape:connector-curvature="0" />
	<path style="fill:none;stroke:red;stroke-width:1px;stroke-linecap:butt;stroke-linejoin:miter;stroke-opacity:1" d="M 95.0851,4 111.646,7.31219 z" id="boundary" inkscape:connector-curvature="0" />
	<path style="fill:none;stroke:red;stroke-width:1px;stroke-linecap:butt;stroke-linejoin:miter;stroke-opacity:1" d="M 61.9633,149.736 61.9633,133.175 z" id="boundary" inkscape:connector-curvature="0" />
	<path style="fill:none;stroke:red;stroke-width:1px;stroke-linecap:butt;stroke-linejoin:miter;stroke-opacity:1" d="M 111.646,7.31219 128.207,12.2805 z" id="boundary" inkscape:connector-curvature="0" />
	<path style="fill:none;stroke:red;stroke-width:1px;stroke-linecap:butt;stroke-linejoin:miter;stroke-opacity:1" d="M 144.768,15.5927 128.207,12.2805 z" id="boundary" inkscape:connector-curvature="0" />
	<path style="fill:none;stroke:red;stroke-width:1px;stroke-linecap:butt;stroke-linejoin:miter;stroke-opacity:1" d="M 144.768,15.5927 161.329,20.5609 z" id="boundary" inkscape:connector-curvature="0" />
	<path style="fill:none;stroke:red;stroke-width:1px;stroke-linecap:butt;stroke-linejoin:miter;stroke-opacity:1" d="M 103.366,270.631 118.27,278.912 z" id="boundary" inkscape:connector-curvature="0" />
	<path style="fill:none;stroke:red;stroke-width:1px;stroke-linecap:butt;stroke-linejoin:miter;stroke-opacity:1" d="M 118.27,278.912 134.831,278.912 z" id="boundary" inkscape:connector-curvature="0" />
	<path style="fill:none;stroke:red;stroke-width:1px;stroke-linecap:butt;stroke-linejoin:miter;stroke-opacity:1" d="M 162.985,292.16 171.265,307.065 z" id="boundary" inkscape:connector-curvature="0" />
	<path style="fill:none;stroke:red;stroke-width:1px;stroke-linecap:butt;stroke-linejoin:miter;stroke-opacity:1" d="M 151.392,278.912 162.985,292.16 z" id="boundary" inkscape:connector-curvature="0" />
	<path style="fill:none;stroke:red;stroke-width:1px;stroke-linecap:butt;stroke-linejoin:miter;stroke-opacity:1" d="M 151.392,278.912 134.831,278.912 z" id="boundary" inkscape:connector-curvature="0" />
	<path style="fill:none;stroke:red;stroke-width:1px;stroke-linecap:butt;stroke-linejoin:miter;stroke-opacity:1" d="M 177.89,20.5609 161.329,20.5609 z" id="boundary" inkscape:connector-curvature="0" />
	<path style="fill:none;stroke:red;stroke-width:1px;stroke-linecap:butt;stroke-linejoin:miter;stroke-opacity:1" d="M 194.451,20.5609 177.89,20.5609 z" id="boundary" inkscape:connector-curvature="0" />
	<path style="fill:none;stroke:red;stroke-width:1px;stroke-linecap:butt;stroke-linejoin:miter;stroke-opacity:1" d="M 211.012,23.8731 194.451,20.5609 z" id="boundary" inkscape:connector-curvature="0" />
	<path style="fill:none;stroke:red;stroke-width:1px;stroke-linecap:butt;stroke-linejoin:miter;stroke-opacity:1" d="M 186.17,338.531 186.17,355.092 z" id="boundary" inkscape:connector-curvature="0" />
	<path style="fill:none;stroke:red;stroke-width:1px;stroke-linecap:butt;stroke-linejoin:miter;stroke-opacity:1" d="M 186.17,338.531 177.89,323.626 z" id="boundary" inkscape:connector-curvature="0" />
	<path style="fill:none;stroke:red;stroke-width:1px;stroke-linecap:butt;stroke-linejoin:miter;stroke-opacity:1" d="M 211.012,23.8731 227.573,28.8414 z" id="boundary" inkscape:connector-curvature="0" />
	<path style="fill:none;stroke:red;stroke-width:1px;stroke-linecap:butt;stroke-linejoin:miter;stroke-opacity:1" d="M 227.573,28.8414 237.509,42.0902 z" id="boundary" inkscape:connector-curvature="0" />
	<path style="fill:none;stroke:red;stroke-width:1px;stroke-linecap:butt;stroke-linejoin:miter;stroke-opacity:1" d="M 199.419,386.558 212.668,398.15 z" id="boundary" inkscape:connector-curvature="0" />
	<path style="fill:none;stroke:red;stroke-width:1px;stroke-linecap:butt;stroke-linejoin:miter;stroke-opacity:1" d="M 212.668,398.15 219.292,414.711 z" id="boundary" inkscape:connector-curvature="0" />
	<path style="fill:none;stroke:red;stroke-width:1px;stroke-linecap:butt;stroke-linejoin:miter;stroke-opacity:1" d="M 199.419,386.558 194.451,369.997 z" id="boundary" inkscape:connector-curvature="0" />
	<path style="fill:none;stroke:red;stroke-width:1px;stroke-linecap:butt;stroke-linejoin:miter;stroke-opacity:1" d="M 194.451,369.997 186.17,355.092 z" id="boundary" inkscape:connector-curvature="0" />
	<path style="fill:none;stroke:red;stroke-width:1px;stroke-linecap:butt;stroke-linejoin:miter;stroke-opacity:1" d="M 260.694,65.2755 270.631,78.5242 z" id="boundary" inkscape:connector-curvature="0" />
	<path style="fill:none;stroke:red;stroke-width:1px;stroke-linecap:butt;stroke-linejoin:miter;stroke-opacity:1" d="M 260.694,65.2755 252.414,50.3706 z" id="boundary" inkscape:connector-curvature="0" />
	<path style="fill:none;stroke:red;stroke-width:1px;stroke-linecap:butt;stroke-linejoin:miter;stroke-opacity:1" d="M 252.414,50.3706 237.509,42.0902 z" id="boundary" inkscape:connector-curvature="0" />
	<path style="fill:none;stroke:red;stroke-width:1px;stroke-linecap:butt;stroke-linejoin:miter;stroke-opacity:1" d="M 219.292,414.711 232.541,426.304 z" id="boundary" inkscape:connector-curvature="0" />
	<path style="fill:none;stroke:red;stroke-width:1px;stroke-linecap:butt;stroke-linejoin:miter;stroke-opacity:1" d="M 232.541,426.304 239.165,442.865 z" id="boundary" inkscape:connector-curvature="0" />
	<path style="fill:none;stroke:red;stroke-width:1px;stroke-linecap:butt;stroke-linejoin:miter;stroke-opacity:1" d="M 308.721,113.302 323.626,121.583 z" id="boundary" inkscape:connector-curvature="0" />
	<path style="fill:none;stroke:red;stroke-width:1px;stroke-linecap:butt;stroke-linejoin:miter;stroke-opacity:1" d="M 295.472,101.71 283.88,88.4608 z" id="boundary" inkscape:connector-curvature="0" />
	<path style="fill:none;stroke:red;stroke-width:1px;stroke-linecap:butt;stroke-linejoin:miter;stroke-opacity:1" d="M 283.88,88.4608 270.631,78.5242 z" id="boundary" inkscape:connector-curvature="0" />
	<path style="fill:none;stroke:red;stroke-width:1px;stroke-linecap:butt;stroke-linejoin:miter;stroke-opacity:1" d="M 255.726,449.489 268.975,461.082 z" id="boundary" inkscape:connector-curvature="0" />
	<path style="fill:none;stroke:red;stroke-width:1px;stroke-linecap:butt;stroke-linejoin:miter;stroke-opacity:1" d="M 268.975,461.082 277.255,475.987 z" id="boundary" inkscape:connector-curvature="0" />
	<path style="fill:none;stroke:red;stroke-width:1px;stroke-linecap:butt;stroke-linejoin:miter;stroke-opacity:1" d="M 239.165,442.865 255.726,449.489 z" id="boundary" inkscape:connector-curvature="0" />
	<path style="fill:none;stroke:red;stroke-width:1px;stroke-linecap:butt;stroke-linejoin:miter;stroke-opacity:1" d="M 295.472,101.71 308.721,113.302 z" id="boundary" inkscape:connector-curvature="0" />
	<path style="fill:none;stroke:red;stroke-width:1px;stroke-linecap:butt;stroke-linejoin:miter;stroke-opacity:1" d="M 277.255,687.967 285.536,702.871 z" id="boundary" inkscape:connector-curvature="0" />
	<path style="fill:none;stroke:red;stroke-width:1px;stroke-linecap:butt;stroke-linejoin:miter;stroke-opacity:1" d="M 323.626,121.583 340.187,128.207 z" id="boundary" inkscape:connector-curvature="0" />
	<path style="fill:none;stroke:red;stroke-width:1px;stroke-linecap:butt;stroke-linejoin:miter;stroke-opacity:1" d="M 285.536,702.871 293.816,717.776 z" id="boundary" inkscape:connector-curvature="0" />
	<path style="fill:none;stroke:red;stroke-width:1px;stroke-linecap:butt;stroke-linejoin:miter;stroke-opacity:1" d="M 355.092,136.487 340.187,128.207 z" id="boundary" inkscape:connector-curvature="0" />
	<path style="fill:none;stroke:red;stroke-width:1px;stroke-linecap:butt;stroke-linejoin:miter;stroke-opacity:1" d="M 285.536,663.125 277.255,687.967 z" id="boundary" inkscape:connector-curvature="0" />
	<path style="fill:none;stroke:red;stroke-width:1px;stroke-linecap:butt;stroke-linejoin:miter;stroke-opacity:1" d="M 293.816,717.776 308.721,726.057 z" id="boundary" inkscape:connector-curvature="0" />
	<path style="fill:none;stroke:red;stroke-width:1px;stroke-linecap:butt;stroke-linejoin:miter;stroke-opacity:1" d="M 287.192,489.235 277.255,475.987 z" id="boundary" inkscape:connector-curvature="0" />
	<path style="fill:none;stroke:red;stroke-width:1px;stroke-linecap:butt;stroke-linejoin:miter;stroke-opacity:1" d="M 285.536,663.125 293.816,646.564 z" id="boundary" inkscape:connector-curvature="0" />
	<path style="fill:none;stroke:red;stroke-width:1px;stroke-linecap:butt;stroke-linejoin:miter;stroke-opacity:1" d="M 302.097,519.045 298.785,502.484 z" id="boundary" inkscape:connector-curvature="0" />
	<path style="fill:none;stroke:red;stroke-width:1px;stroke-linecap:butt;stroke-linejoin:miter;stroke-opacity:1" d="M 298.785,502.484 287.192,489.235 z" id="boundary" inkscape:connector-curvature="0" />
	<path style="fill:none;stroke:red;stroke-width:1px;stroke-linecap:butt;stroke-linejoin:miter;stroke-opacity:1" d="M 371.653,136.487 386.558,144.768 z" id="boundary" inkscape:connector-curvature="0" />
	<path style="fill:none;stroke:red;stroke-width:1px;stroke-linecap:butt;stroke-linejoin:miter;stroke-opacity:1" d="M 371.653,136.487 355.092,136.487 z" id="boundary" inkscape:connector-curvature="0" />
	<path style="fill:none;stroke:red;stroke-width:1px;stroke-linecap:butt;stroke-linejoin:miter;stroke-opacity:1" d="M 293.816,646.564 302.097,630.003 z" id="boundary" inkscape:connector-curvature="0" />
	<path style="fill:none;stroke:red;stroke-width:1px;stroke-linecap:butt;stroke-linejoin:miter;stroke-opacity:1" d="M 302.097,630.003 302.097,613.442 z" id="boundary" inkscape:connector-curvature="0" />
	<path style="fill:none;stroke:red;stroke-width:1px;stroke-linecap:butt;stroke-linejoin:miter;stroke-opacity:1" d="M 310.377,568.728 310.377,552.167 z" id="boundary" inkscape:connector-curvature="0" />
	<path style="fill:none;stroke:red;stroke-width:1px;stroke-linecap:butt;stroke-linejoin:miter;stroke-opacity:1" d="M 310.377,552.167 307.065,535.606 z" id="boundary" inkscape:connector-curvature="0" />
	<path style="fill:none;stroke:red;stroke-width:1px;stroke-linecap:butt;stroke-linejoin:miter;stroke-opacity:1" d="M 302.097,519.045 307.065,535.606 z" id="boundary" inkscape:connector-curvature="0" />
	<path style="fill:none;stroke:red;stroke-width:1px;stroke-linecap:butt;stroke-linejoin:miter;stroke-opacity:1" d="M 310.377,585.289 310.377,568.728 z" id="boundary" inkscape:connector-curvature="0" />
	<path style="fill:none;stroke:red;stroke-width:1px;stroke-linecap:butt;stroke-linejoin:miter;stroke-opacity:1" d="M 310.377,585.289 302.097,613.442 z" id="boundary" inkscape:connector-curvature="0" />
	<path style="fill:none;stroke:red;stroke-width:1px;stroke-linecap:butt;stroke-linejoin:miter;stroke-opacity:1" d="M 444.521,560.447 444.521,543.886 z" id="boundary" inkscape:connector-curvature="0" />
	<path style="fill:none;stroke:red;stroke-width:1px;stroke-linecap:butt;stroke-linejoin:miter;stroke-opacity:1" d="M 308.721,726.057 325.282,726.057 z" id="boundary" inkscape:connector-curvature="0" />
	<path style="fill:none;stroke:red;stroke-width:1px;stroke-linecap:butt;stroke-linejoin:miter;stroke-opacity:1" d="M 418.023,149.736 403.119,141.456 z" id="boundary" inkscape:connector-curvature="0" />
	<path style="fill:none;stroke:red;stroke-width:1px;stroke-linecap:butt;stroke-linejoin:miter;stroke-opacity:1" d="M 403.119,141.456 386.558,144.768 z" id="boundary" inkscape:connector-curvature="0" />
	<path style="fill:none;stroke:red;stroke-width:1px;stroke-linecap:butt;stroke-linejoin:miter;stroke-opacity:1" d="M 325.282,726.057 341.843,726.057 z" id="boundary" inkscape:connector-curvature="0" />
	<path style="fill:none;stroke:red;stroke-width:1px;stroke-linecap:butt;stroke-linejoin:miter;stroke-opacity:1" d="M 341.843,726.057 358.404,726.057 z" id="boundary" inkscape:connector-curvature="0" />
	<path style="fill:none;stroke:red;stroke-width:1px;stroke-linecap:butt;stroke-linejoin:miter;stroke-opacity:1" d="M 621.723,659.813 605.162,659.813 z" id="boundary" inkscape:connector-curvature="0" />
	<path style="fill:none;stroke:red;stroke-width:1px;stroke-linecap:butt;stroke-linejoin:miter;stroke-opacity:1" d="M 358.404,726.057 374.965,726.057 z" id="boundary" inkscape:connector-curvature="0" />
	<path style="fill:none;stroke:red;stroke-width:1px;stroke-linecap:butt;stroke-linejoin:miter;stroke-opacity:1" d="M 567.072,634.972 572.04,651.533 z" id="boundary" inkscape:connector-curvature="0" />
	<path style="fill:none;stroke:red;stroke-width:1px;stroke-linecap:butt;stroke-linejoin:miter;stroke-opacity:1" d="M 374.965,726.057 391.526,722.745 z" id="boundary" inkscape:connector-curvature="0" />
	<path style="fill:none;stroke:red;stroke-width:1px;stroke-linecap:butt;stroke-linejoin:miter;stroke-opacity:1" d="M 391.526,722.745 403.119,701.215 z" id="boundary" inkscape:connector-curvature="0" />
	<path style="fill:none;stroke:red;stroke-width:1px;stroke-linecap:butt;stroke-linejoin:miter;stroke-opacity:1" d="M 436.24,618.411 427.96,643.252 z" id="boundary" inkscape:connector-curvature="0" />
	<path style="fill:none;stroke:red;stroke-width:1px;stroke-linecap:butt;stroke-linejoin:miter;stroke-opacity:1" d="M 403.119,701.215 416.367,689.623 z" id="boundary" inkscape:connector-curvature="0" />
	<path style="fill:none;stroke:red;stroke-width:1px;stroke-linecap:butt;stroke-linejoin:miter;stroke-opacity:1" d="M 451.145,144.768 434.584,144.768 z" id="boundary" inkscape:connector-curvature="0" />
	<path style="fill:none;stroke:red;stroke-width:1px;stroke-linecap:butt;stroke-linejoin:miter;stroke-opacity:1" d="M 434.584,144.768 418.023,149.736 z" id="boundary" inkscape:connector-curvature="0" />
	<path style="fill:none;stroke:red;stroke-width:1px;stroke-linecap:butt;stroke-linejoin:miter;stroke-opacity:1" d="M 416.367,689.623 419.679,668.093 z" id="boundary" inkscape:connector-curvature="0" />
	<path style="fill:none;stroke:red;stroke-width:1px;stroke-linecap:butt;stroke-linejoin:miter;stroke-opacity:1" d="M 436.24,601.85 436.24,618.411 z" id="boundary" inkscape:connector-curvature="0" />
	<path style="fill:none;stroke:red;stroke-width:1px;stroke-linecap:butt;stroke-linejoin:miter;stroke-opacity:1" d="M 419.679,668.093 427.96,643.252 z" id="boundary" inkscape:connector-curvature="0" />
	<path style="fill:none;stroke:red;stroke-width:1px;stroke-linecap:butt;stroke-linejoin:miter;stroke-opacity:1" d="M 519.045,461.082 535.606,464.394 z" id="boundary" inkscape:connector-curvature="0" />
	<path style="fill:none;stroke:red;stroke-width:1px;stroke-linecap:butt;stroke-linejoin:miter;stroke-opacity:1" d="M 444.521,543.886 444.521,527.326 z" id="boundary" inkscape:connector-curvature="0" />
	<path style="fill:none;stroke:red;stroke-width:1px;stroke-linecap:butt;stroke-linejoin:miter;stroke-opacity:1" d="M 502.484,461.082 519.045,461.082 z" id="boundary" inkscape:connector-curvature="0" />
	<path style="fill:none;stroke:red;stroke-width:1px;stroke-linecap:butt;stroke-linejoin:miter;stroke-opacity:1" d="M 436.24,601.85 444.521,577.008 z" id="boundary" inkscape:connector-curvature="0" />
	<path style="fill:none;stroke:red;stroke-width:1px;stroke-linecap:butt;stroke-linejoin:miter;stroke-opacity:1" d="M 444.521,577.008 444.521,560.447 z" id="boundary" inkscape:connector-curvature="0" />
	<path style="fill:none;stroke:red;stroke-width:1px;stroke-linecap:butt;stroke-linejoin:miter;stroke-opacity:1" d="M 452.801,485.923 452.801,502.484 z" id="boundary" inkscape:connector-curvature="0" />
	<path style="fill:none;stroke:red;stroke-width:1px;stroke-linecap:butt;stroke-linejoin:miter;stroke-opacity:1" d="M 452.801,502.484 444.521,527.326 z" id="boundary" inkscape:connector-curvature="0" />
	<path style="fill:none;stroke:red;stroke-width:1px;stroke-linecap:butt;stroke-linejoin:miter;stroke-opacity:1" d="M 452.801,485.923 452.801,469.362 z" id="boundary" inkscape:connector-curvature="0" />
	<path style="fill:none;stroke:red;stroke-width:1px;stroke-linecap:butt;stroke-linejoin:miter;stroke-opacity:1" d="M 451.145,144.768 467.706,144.768 z" id="boundary" inkscape:connector-curvature="0" />
	<path style="fill:none;stroke:red;stroke-width:1px;stroke-linecap:butt;stroke-linejoin:miter;stroke-opacity:1" d="M 485.923,461.082 502.484,461.082 z" id="boundary" inkscape:connector-curvature="0" />
	<path style="fill:none;stroke:red;stroke-width:1px;stroke-linecap:butt;stroke-linejoin:miter;stroke-opacity:1" d="M 452.801,469.362 469.362,461.082 z" id="boundary" inkscape:connector-curvature="0" />
	<path style="fill:none;stroke:red;stroke-width:1px;stroke-linecap:butt;stroke-linejoin:miter;stroke-opacity:1" d="M 469.362,461.082 485.923,461.082 z" id="boundary" inkscape:connector-curvature="0" />
	<path style="fill:none;stroke:red;stroke-width:1px;stroke-linecap:butt;stroke-linejoin:miter;stroke-opacity:1" d="M 467.706,144.768 484.267,144.768 z" id="boundary" inkscape:connector-curvature="0" />
	<path style="fill:none;stroke:red;stroke-width:1px;stroke-linecap:butt;stroke-linejoin:miter;stroke-opacity:1" d="M 484.267,144.768 500.828,144.768 z" id="boundary" inkscape:connector-curvature="0" />
	<path style="fill:none;stroke:red;stroke-width:1px;stroke-linecap:butt;stroke-linejoin:miter;stroke-opacity:1" d="M 558.791,620.067 550.511,605.162 z" id="boundary" inkscape:connector-curvature="0" />
	<path style="fill:none;stroke:red;stroke-width:1px;stroke-linecap:butt;stroke-linejoin:miter;stroke-opacity:1" d="M 500.828,144.768 517.389,144.768 z" id="boundary" inkscape:connector-curvature="0" />
	<path style="fill:none;stroke:red;stroke-width:1px;stroke-linecap:butt;stroke-linejoin:miter;stroke-opacity:1" d="M 567.072,634.972 558.791,620.067 z" id="boundary" inkscape:connector-curvature="0" />
	<path style="fill:none;stroke:red;stroke-width:1px;stroke-linecap:butt;stroke-linejoin:miter;stroke-opacity:1" d="M 517.389,144.768 533.95,144.768 z" id="boundary" inkscape:connector-curvature="0" />
	<path style="fill:none;stroke:red;stroke-width:1px;stroke-linecap:butt;stroke-linejoin:miter;stroke-opacity:1" d="M 533.95,144.768 548.855,153.048 z" id="boundary" inkscape:connector-curvature="0" />
	<path style="fill:none;stroke:red;stroke-width:1px;stroke-linecap:butt;stroke-linejoin:miter;stroke-opacity:1" d="M 535.606,464.394 552.167,469.362 z" id="boundary" inkscape:connector-curvature="0" />
	<path style="fill:none;stroke:red;stroke-width:1px;stroke-linecap:butt;stroke-linejoin:miter;stroke-opacity:1" d="M 595.225,136.487 611.786,136.487 z" id="boundary" inkscape:connector-curvature="0" />
	<path style="fill:none;stroke:red;stroke-width:1px;stroke-linecap:butt;stroke-linejoin:miter;stroke-opacity:1" d="M 563.76,144.768 548.855,153.048 z" id="boundary" inkscape:connector-curvature="0" />
	<path style="fill:none;stroke:red;stroke-width:1px;stroke-linecap:butt;stroke-linejoin:miter;stroke-opacity:1" d="M 550.511,605.162 563.76,591.913 z" id="boundary" inkscape:connector-curvature="0" />
	<path style="fill:none;stroke:red;stroke-width:1px;stroke-linecap:butt;stroke-linejoin:miter;stroke-opacity:1" d="M 572.04,651.533 588.601,658.157 z" id="boundary" inkscape:connector-curvature="0" />
	<path style="fill:none;stroke:red;stroke-width:1px;stroke-linecap:butt;stroke-linejoin:miter;stroke-opacity:1" d="M 552.167,469.362 567.072,477.643 z" id="boundary" inkscape:connector-curvature="0" />
	<path style="fill:none;stroke:red;stroke-width:1px;stroke-linecap:butt;stroke-linejoin:miter;stroke-opacity:1" d="M 567.072,477.643 577.008,490.891 z" id="boundary" inkscape:connector-curvature="0" />
	<path style="fill:none;stroke:red;stroke-width:1px;stroke-linecap:butt;stroke-linejoin:miter;stroke-opacity:1" d="M 588.601,658.157 605.162,659.813 z" id="boundary" inkscape:connector-curvature="0" />
	<path style="fill:none;stroke:red;stroke-width:1px;stroke-linecap:butt;stroke-linejoin:miter;stroke-opacity:1" d="M 563.76,591.913 572.04,575.352 z" id="boundary" inkscape:connector-curvature="0" />
	<path style="fill:none;stroke:red;stroke-width:1px;stroke-linecap:butt;stroke-linejoin:miter;stroke-opacity:1" d="M 595.225,136.487 578.664,136.487 z" id="boundary" inkscape:connector-curvature="0" />
	<path style="fill:none;stroke:red;stroke-width:1px;stroke-linecap:butt;stroke-linejoin:miter;stroke-opacity:1" d="M 578.664,136.487 563.76,144.768 z" id="boundary" inkscape:connector-curvature="0" />
	<path style="fill:none;stroke:red;stroke-width:1px;stroke-linecap:butt;stroke-linejoin:miter;stroke-opacity:1" d="M 572.04,575.352 585.289,562.104 z" id="boundary" inkscape:connector-curvature="0" />
	<path style="fill:none;stroke:red;stroke-width:1px;stroke-linecap:butt;stroke-linejoin:miter;stroke-opacity:1" d="M 611.786,136.487 628.347,136.487 z" id="boundary" inkscape:connector-curvature="0" />
	<path style="fill:none;stroke:red;stroke-width:1px;stroke-linecap:butt;stroke-linejoin:miter;stroke-opacity:1" d="M 577.008,490.891 590.257,502.484 z" id="boundary" inkscape:connector-curvature="0" />
	<path style="fill:none;stroke:red;stroke-width:1px;stroke-linecap:butt;stroke-linejoin:miter;stroke-opacity:1" d="M 628.347,136.487 644.908,136.487 z" id="boundary" inkscape:connector-curvature="0" />
	<path style="fill:none;stroke:red;stroke-width:1px;stroke-linecap:butt;stroke-linejoin:miter;stroke-opacity:1" d="M 585.289,562.104 598.538,550.511 z" id="boundary" inkscape:connector-curvature="0" />
	<path style="fill:none;stroke:red;stroke-width:1px;stroke-linecap:butt;stroke-linejoin:miter;stroke-opacity:1" d="M 598.538,550.511 608.474,532.294 z" id="boundary" inkscape:connector-curvature="0" />
	<path style="fill:none;stroke:red;stroke-width:1px;stroke-linecap:butt;stroke-linejoin:miter;stroke-opacity:1" d="M 608.474,532.294 601.85,515.733 z" id="boundary" inkscape:connector-curvature="0" />
	<path style="fill:none;stroke:red;stroke-width:1px;stroke-linecap:butt;stroke-linejoin:miter;stroke-opacity:1" d="M 638.284,658.157 621.723,659.813 z" id="boundary" inkscape:connector-curvature="0" />
	<path style="fill:none;stroke:red;stroke-width:1px;stroke-linecap:butt;stroke-linejoin:miter;stroke-opacity:1" d="M 590.257,502.484 601.85,515.733 z" id="boundary" inkscape:connector-curvature="0" />
	<path style="fill:none;stroke:red;stroke-width:1px;stroke-linecap:butt;stroke-linejoin:miter;stroke-opacity:1" d="M 707.84,153.048 692.935,144.768 z" id="boundary" inkscape:connector-curvature="0" />
	<path style="fill:none;stroke:red;stroke-width:1px;stroke-linecap:butt;stroke-linejoin:miter;stroke-opacity:1" d="M 729.369,682.998 716.12,671.406 z" id="boundary" inkscape:connector-curvature="0" />
	<path style="fill:none;stroke:red;stroke-width:1px;stroke-linecap:butt;stroke-linejoin:miter;stroke-opacity:1" d="M 644.908,136.487 661.469,136.487 z" id="boundary" inkscape:connector-curvature="0" />
	<path style="fill:none;stroke:red;stroke-width:1px;stroke-linecap:butt;stroke-linejoin:miter;stroke-opacity:1" d="M 661.469,136.487 678.03,136.487 z" id="boundary" inkscape:connector-curvature="0" />
	<path style="fill:none;stroke:red;stroke-width:1px;stroke-linecap:butt;stroke-linejoin:miter;stroke-opacity:1" d="M 678.03,136.487 692.935,144.768 z" id="boundary" inkscape:connector-curvature="0" />
	<path style="fill:none;stroke:red;stroke-width:1px;stroke-linecap:butt;stroke-linejoin:miter;stroke-opacity:1" d="M 716.12,671.406 716.12,654.845 z" id="boundary" inkscape:connector-curvature="0" />
	<path style="fill:none;stroke:red;stroke-width:1px;stroke-linecap:butt;stroke-linejoin:miter;stroke-opacity:1" d="M 654.845,649.876 668.093,634.972 z" id="boundary" inkscape:connector-curvature="0" />
	<path style="fill:none;stroke:red;stroke-width:1px;stroke-linecap:butt;stroke-linejoin:miter;stroke-opacity:1" d="M 638.284,658.157 654.845,649.876 z" id="boundary" inkscape:connector-curvature="0" />
	<path style="fill:none;stroke:red;stroke-width:1px;stroke-linecap:butt;stroke-linejoin:miter;stroke-opacity:1" d="M 716.12,654.845 716.12,638.284 z" id="boundary" inkscape:connector-curvature="0" />
	<path style="fill:none;stroke:red;stroke-width:1px;stroke-linecap:butt;stroke-linejoin:miter;stroke-opacity:1" d="M 739.306,164.641 724.401,156.361 z" id="boundary" inkscape:connector-curvature="0" />
	<path style="fill:none;stroke:red;stroke-width:1px;stroke-linecap:butt;stroke-linejoin:miter;stroke-opacity:1" d="M 724.401,156.361 707.84,153.048 z" id="boundary" inkscape:connector-curvature="0" />
	<path style="fill:none;stroke:red;stroke-width:1px;stroke-linecap:butt;stroke-linejoin:miter;stroke-opacity:1" d="M 668.093,634.972 681.342,623.379 z" id="boundary" inkscape:connector-curvature="0" />
	<path style="fill:none;stroke:red;stroke-width:1px;stroke-linecap:butt;stroke-linejoin:miter;stroke-opacity:1" d="M 689.623,606.818 681.342,623.379 z" id="boundary" inkscape:connector-curvature="0" />
	<path style="fill:none;stroke:red;stroke-width:1px;stroke-linecap:butt;stroke-linejoin:miter;stroke-opacity:1" d="M 697.903,590.257 689.623,606.818 z" id="boundary" inkscape:connector-curvature="0" />
	<path style="fill:none;stroke:red;stroke-width:1px;stroke-linecap:butt;stroke-linejoin:miter;stroke-opacity:1" d="M 701.215,560.447 716.12,552.167 z" id="boundary" inkscape:connector-curvature="0" />
	<path style="fill:none;stroke:red;stroke-width:1px;stroke-linecap:butt;stroke-linejoin:miter;stroke-opacity:1" d="M 716.12,552.167 726.057,565.416 z" id="boundary" inkscape:connector-curvature="0" />
	<path style="fill:none;stroke:red;stroke-width:1px;stroke-linecap:butt;stroke-linejoin:miter;stroke-opacity:1" d="M 701.215,560.447 697.903,590.257 z" id="boundary" inkscape:connector-curvature="0" />
	<path style="fill:none;stroke:red;stroke-width:1px;stroke-linecap:butt;stroke-linejoin:miter;stroke-opacity:1" d="M 755.866,171.265 739.306,164.641 z" id="boundary" inkscape:connector-curvature="0" />
	<path style="fill:none;stroke:red;stroke-width:1px;stroke-linecap:butt;stroke-linejoin:miter;stroke-opacity:1" d="M 755.866,171.265 770.771,179.546 z" id="boundary" inkscape:connector-curvature="0" />
	<path style="fill:none;stroke:red;stroke-width:1px;stroke-linecap:butt;stroke-linejoin:miter;stroke-opacity:1" d="M 770.771,179.546 784.02,191.139 z" id="boundary" inkscape:connector-curvature="0" />
	<path style="fill:none;stroke:red;stroke-width:1px;stroke-linecap:butt;stroke-linejoin:miter;stroke-opacity:1" d="M 716.12,638.284 724.401,621.723 z" id="boundary" inkscape:connector-curvature="0" />
	<path style="fill:none;stroke:red;stroke-width:1px;stroke-linecap:butt;stroke-linejoin:miter;stroke-opacity:1" d="M 740.962,696.247 729.369,682.998 z" id="boundary" inkscape:connector-curvature="0" />
	<path style="fill:none;stroke:red;stroke-width:1px;stroke-linecap:butt;stroke-linejoin:miter;stroke-opacity:1" d="M 740.962,696.247 757.523,701.215 z" id="boundary" inkscape:connector-curvature="0" />
	<path style="fill:none;stroke:red;stroke-width:1px;stroke-linecap:butt;stroke-linejoin:miter;stroke-opacity:1" d="M 732.681,581.977 726.057,565.416 z" id="boundary" inkscape:connector-curvature="0" />
	<path style="fill:none;stroke:red;stroke-width:1px;stroke-linecap:butt;stroke-linejoin:miter;stroke-opacity:1" d="M 732.681,598.538 732.681,581.977 z" id="boundary" inkscape:connector-curvature="0" />
	<path style="fill:none;stroke:red;stroke-width:1px;stroke-linecap:butt;stroke-linejoin:miter;stroke-opacity:1" d="M 724.401,621.723 732.681,598.538 z" id="boundary" inkscape:connector-curvature="0" />
	<path style="fill:none;stroke:red;stroke-width:1px;stroke-linecap:butt;stroke-linejoin:miter;stroke-opacity:1" d="M 812.174,211.012 823.766,224.26 z" id="boundary" inkscape:connector-curvature="0" />
	<path style="fill:none;stroke:red;stroke-width:1px;stroke-linecap:butt;stroke-linejoin:miter;stroke-opacity:1" d="M 823.766,224.26 832.047,239.165 z" id="boundary" inkscape:connector-curvature="0" />
	<path style="fill:none;stroke:red;stroke-width:1px;stroke-linecap:butt;stroke-linejoin:miter;stroke-opacity:1" d="M 812.174,211.012 798.925,199.419 z" id="boundary" inkscape:connector-curvature="0" />
	<path style="fill:none;stroke:red;stroke-width:1px;stroke-linecap:butt;stroke-linejoin:miter;stroke-opacity:1" d="M 798.925,199.419 784.02,191.139 z" id="boundary" inkscape:connector-curvature="0" />
	<path style="fill:none;stroke:red;stroke-width:1px;stroke-linecap:butt;stroke-linejoin:miter;stroke-opacity:1" d="M 832.047,239.165 838.671,255.726 z" id="boundary" inkscape:connector-curvature="0" />
	<path style="fill:none;stroke:red;stroke-width:1px;stroke-linecap:butt;stroke-linejoin:miter;stroke-opacity:1" d="M 838.671,255.726 841.983,272.287 z" id="boundary" inkscape:connector-curvature="0" />
	<path style="fill:none;stroke:red;stroke-width:1px;stroke-linecap:butt;stroke-linejoin:miter;stroke-opacity:1" d="M 757.523,701.215 774.083,696.247 z" id="boundary" inkscape:connector-curvature="0" />
	<path style="fill:none;stroke:red;stroke-width:1px;stroke-linecap:butt;stroke-linejoin:miter;stroke-opacity:1" d="M 790.644,687.967 774.083,696.247 z" id="boundary" inkscape:connector-curvature="0" />
	<path style="fill:none;stroke:red;stroke-width:1px;stroke-linecap:butt;stroke-linejoin:miter;stroke-opacity:1" d="M 807.205,679.686 790.644,687.967 z" id="boundary" inkscape:connector-curvature="0" />
	<path style="fill:none;stroke:red;stroke-width:1px;stroke-linecap:butt;stroke-linejoin:miter;stroke-opacity:1" d="M 820.454,666.437 833.703,643.252 z" id="boundary" inkscape:connector-curvature="0" />
	<path style="fill:none;stroke:red;stroke-width:1px;stroke-linecap:butt;stroke-linejoin:miter;stroke-opacity:1" d="M 807.205,679.686 820.454,666.437 z" id="boundary" inkscape:connector-curvature="0" />
	<path style="fill:none;stroke:red;stroke-width:1px;stroke-linecap:butt;stroke-linejoin:miter;stroke-opacity:1" d="M 903.259,601.85 888.354,593.569 z" id="boundary" inkscape:connector-curvature="0" />
	<path style="fill:none;stroke:red;stroke-width:1px;stroke-linecap:butt;stroke-linejoin:miter;stroke-opacity:1" d="M 853.576,303.753 850.264,287.192 z" id="boundary" inkscape:connector-curvature="0" />
	<path style="fill:none;stroke:red;stroke-width:1px;stroke-linecap:butt;stroke-linejoin:miter;stroke-opacity:1" d="M 850.264,287.192 841.983,272.287 z" id="boundary" inkscape:connector-curvature="0" />
	<path style="fill:none;stroke:red;stroke-width:1px;stroke-linecap:butt;stroke-linejoin:miter;stroke-opacity:1" d="M 888.354,593.569 875.105,581.977 z" id="boundary" inkscape:connector-curvature="0" />
	<path style="fill:none;stroke:red;stroke-width:1px;stroke-linecap:butt;stroke-linejoin:miter;stroke-opacity:1" d="M 858.544,320.314 853.576,303.753 z" id="boundary" inkscape:connector-curvature="0" />
	<path style="fill:none;stroke:red;stroke-width:1px;stroke-linecap:butt;stroke-linejoin:miter;stroke-opacity:1" d="M 841.983,601.85 841.983,618.411 z" id="boundary" inkscape:connector-curvature="0" />
	<path style="fill:none;stroke:red;stroke-width:1px;stroke-linecap:butt;stroke-linejoin:miter;stroke-opacity:1" d="M 841.983,601.85 850.264,577.008 z" id="boundary" inkscape:connector-curvature="0" />
	<path style="fill:none;stroke:red;stroke-width:1px;stroke-linecap:butt;stroke-linejoin:miter;stroke-opacity:1" d="M 833.703,643.252 841.983,618.411 z" id="boundary" inkscape:connector-curvature="0" />
	<path style="fill:none;stroke:red;stroke-width:1px;stroke-linecap:butt;stroke-linejoin:miter;stroke-opacity:1" d="M 875.105,581.977 865.169,568.728 z" id="boundary" inkscape:connector-curvature="0" />
	<path style="fill:none;stroke:red;stroke-width:1px;stroke-linecap:butt;stroke-linejoin:miter;stroke-opacity:1" d="M 865.169,568.728 850.264,577.008 z" id="boundary" inkscape:connector-curvature="0" />
	<path style="fill:none;stroke:red;stroke-width:1px;stroke-linecap:butt;stroke-linejoin:miter;stroke-opacity:1" d="M 866.825,351.78 866.825,335.219 z" id="boundary" inkscape:connector-curvature="0" />
	<path style="fill:none;stroke:red;stroke-width:1px;stroke-linecap:butt;stroke-linejoin:miter;stroke-opacity:1" d="M 866.825,335.219 858.544,320.314 z" id="boundary" inkscape:connector-curvature="0" />
	<path style="fill:none;stroke:red;stroke-width:1px;stroke-linecap:butt;stroke-linejoin:miter;stroke-opacity:1" d="M 883.386,414.711 883.386,398.15 z" id="boundary" inkscape:connector-curvature="0" />
	<path style="fill:none;stroke:red;stroke-width:1px;stroke-linecap:butt;stroke-linejoin:miter;stroke-opacity:1" d="M 883.386,398.15 875.105,383.245 z" id="boundary" inkscape:connector-curvature="0" />
	<path style="fill:none;stroke:red;stroke-width:1px;stroke-linecap:butt;stroke-linejoin:miter;stroke-opacity:1" d="M 875.105,383.245 875.105,366.684 z" id="boundary" inkscape:connector-curvature="0" />
	<path style="fill:none;stroke:red;stroke-width:1px;stroke-linecap:butt;stroke-linejoin:miter;stroke-opacity:1" d="M 875.105,366.684 866.825,351.78 z" id="boundary" inkscape:connector-curvature="0" />
	<path style="fill:none;stroke:red;stroke-width:1px;stroke-linecap:butt;stroke-linejoin:miter;stroke-opacity:1" d="M 883.386,414.711 883.386,431.272 z" id="boundary" inkscape:connector-curvature="0" />
	<path style="fill:none;stroke:red;stroke-width:1px;stroke-linecap:butt;stroke-linejoin:miter;stroke-opacity:1" d="M 903.259,601.85 918.164,610.13 z" id="boundary" inkscape:connector-curvature="0" />
	<path style="fill:none;stroke:red;stroke-width:1px;stroke-linecap:butt;stroke-linejoin:miter;stroke-opacity:1" d="M 891.666,446.177 896.634,462.738 z" id="boundary" inkscape:connector-curvature="0" />
	<path style="fill:none;stroke:red;stroke-width:1px;stroke-linecap:butt;stroke-linejoin:miter;stroke-opacity:1" d="M 891.666,446.177 883.386,431.272 z" id="boundary" inkscape:connector-curvature="0" />
	<path style="fill:none;stroke:red;stroke-width:1px;stroke-linecap:butt;stroke-linejoin:miter;stroke-opacity:1" d="M 949.629,618.411 934.725,610.13 z" id="boundary" inkscape:connector-curvature="0" />
	<path style="fill:none;stroke:red;stroke-width:1px;stroke-linecap:butt;stroke-linejoin:miter;stroke-opacity:1" d="M 934.725,610.13 918.164,610.13 z" id="boundary" inkscape:connector-curvature="0" />
	<path style="fill:none;stroke:red;stroke-width:1px;stroke-linecap:butt;stroke-linejoin:miter;stroke-opacity:1" d="M 899.947,479.299 896.634,462.738 z" id="boundary" inkscape:connector-curvature="0" />
	<path style="fill:none;stroke:red;stroke-width:1px;stroke-linecap:butt;stroke-linejoin:miter;stroke-opacity:1" d="M 909.883,492.548 899.947,479.299 z" id="boundary" inkscape:connector-curvature="0" />
	<path style="fill:none;stroke:red;stroke-width:1px;stroke-linecap:butt;stroke-linejoin:miter;stroke-opacity:1" d="M 923.132,504.14 909.883,492.548 z" id="boundary" inkscape:connector-curvature="0" />
	<path style="fill:none;stroke:red;stroke-width:1px;stroke-linecap:butt;stroke-linejoin:miter;stroke-opacity:1" d="M 938.037,512.421 947.973,525.669 z" id="boundary" inkscape:connector-curvature="0" />
	<path style="fill:none;stroke:red;stroke-width:1px;stroke-linecap:butt;stroke-linejoin:miter;stroke-opacity:1" d="M 938.037,512.421 923.132,504.14 z" id="boundary" inkscape:connector-curvature="0" />
	<path style="fill:none;stroke:red;stroke-width:1px;stroke-linecap:butt;stroke-linejoin:miter;stroke-opacity:1" d="M 961.222,535.606 947.973,525.669 z" id="boundary" inkscape:connector-curvature="0" />
	<path style="fill:none;stroke:red;stroke-width:1px;stroke-linecap:butt;stroke-linejoin:miter;stroke-opacity:1" d="M 949.629,618.411 966.19,610.13 z" id="boundary" inkscape:connector-curvature="0" />
	<path style="fill:none;stroke:red;stroke-width:1px;stroke-linecap:butt;stroke-linejoin:miter;stroke-opacity:1" d="M 961.222,535.606 977.783,542.23 z" id="boundary" inkscape:connector-curvature="0" />
	<path style="fill:none;stroke:red;stroke-width:1px;stroke-linecap:butt;stroke-linejoin:miter;stroke-opacity:1" d="M 977.783,542.23 982.751,558.791 z" id="boundary" inkscape:connector-curvature="0" />
	<path style="fill:none;stroke:red;stroke-width:1px;stroke-linecap:butt;stroke-linejoin:miter;stroke-opacity:1" d="M 966.19,610.13 982.751,601.85 z" id="boundary" inkscape:connector-curvature="0" />
	<path style="fill:none;stroke:red;stroke-width:1px;stroke-linecap:butt;stroke-linejoin:miter;stroke-opacity:1" d="M 982.751,601.85 991.032,585.289 z" id="boundary" inkscape:connector-curvature="0" />
	<path style="fill:none;stroke:red;stroke-width:1px;stroke-linecap:butt;stroke-linejoin:miter;stroke-opacity:1" d="M 982.751,558.791 996,568.728 z" id="boundary" inkscape:connector-curvature="0" />
	<path style="fill:none;stroke:red;stroke-width:1px;stroke-linecap:butt;stroke-linejoin:miter;stroke-opacity:1" d="M 996,568.728 991.032,585.289 z" id="boundary" inkscape:connector-curvature="0" />
	<circle cx="4" cy="232.541" r="4" fill="#0" id="circle0"/>
	<circle cx="4" cy="249.102" r="4" fill="#0" id="circle1"/>
	<circle cx="12.2805" cy="264.007" r="4" fill="#0" id="circle2"/>
	<circle cx="17.2487" cy="219.292" r="4" fill="#0" id="circle3"/>
	<circle cx="23.8731" cy="277.255" r="4" fill="#0" id="circle4"/>
	<circle cx="33.8097" cy="219.292" r="4" fill="#0" id="circle5"/>
	<circle cx="40.4341" cy="278.912" r="4" fill="#0" id="circle6"/>
	<circle cx="45.4023" cy="8.96828" r="4" fill="#0" id="circle7"/>
	<circle cx="45.4023" cy="182.858" r="4" fill="#0" id="circle8"/>
	<circle cx="45.4023" cy="199.419" r="4" fill="#0" id="circle9"/>
	<circle cx="53.6828" cy="23.8731" r="4" fill="#0" id="circle10"/>
	<circle cx="53.6828" cy="40.4341" r="4" fill="#0" id="circle11"/>
	<circle cx="53.6828" cy="166.297" r="4" fill="#0" id="circle12"/>
	<circle cx="55.3389" cy="270.631" r="4" fill="#0" id="circle13"/>
	<circle cx="61.9633" cy="4" r="4" fill="#0" id="circle14"/>
	<circle cx="61.9633" cy="55.3389" r="4" fill="#0" id="circle15"/>
	<circle cx="61.9633" cy="71.8998" r="4" fill="#0" id="circle16"/>
	<circle cx="61.9633" cy="100.053" r="4" fill="#0" id="circle17"/>
	<circle cx="61.9633" cy="116.614" r="4" fill="#0" id="circle18"/>
	<circle cx="61.9633" cy="133.175" r="4" fill="#0" id="circle19"/>
	<circle cx="61.9633" cy="149.736" r="4" fill="#0" id="circle20"/>
	<circle cx="71.8998" cy="262.351" r="4" fill="#0" id="circle21"/>
	<circle cx="78.5242" cy="4" r="4" fill="#0" id="circle22"/>
	<circle cx="88.4608" cy="262.351" r="4" fill="#0" id="circle23"/>
	<circle cx="95.0851" cy="4" r="4" fill="#0" id="circle24"/>
	<circle cx="103.366" cy="270.631" r="4" fill="#0" id="circle25"/>
	<circle cx="111.646" cy="7.31219" r="4" fill="#0" id="circle26"/>
	<circle cx="118.27" cy="278.912" r="4" fill="#0" id="circle27"/>
	<circle cx="128.207" cy="12.2805" r="4" fill="#0" id="circle28"/>
	<circle cx="134.831" cy="278.912" r="4" fill="#0" id="circle29"/>
	<circle cx="144.768" cy="15.5927" r="4" fill="#0" id="circle30"/>
	<circle cx="151.392" cy="278.912" r="4" fill="#0" id="circle31"/>
	<circle cx="161.329" cy="20.5609" r="4" fill="#0" id="circle32"/>
	<circle cx="162.985" cy="292.16" r="4" fill="#0" id="circle33"/>
	<circle cx="171.265" cy="307.065" r="4" fill="#0" id="circle34"/>
	<circle cx="177.89" cy="20.5609" r="4" fill="#0" id="circle35"/>
	<circle cx="177.89" cy="323.626" r="4" fill="#0" id="circle36"/>
	<circle cx="186.17" cy="338.531" r="4" fill="#0" id="circle37"/>
	<circle cx="186.17" cy="355.092" r="4" fill="#0" id="circle38"/>
	<circle cx="194.451" cy="20.5609" r="4" fill="#0" id="circle39"/>
	<circle cx="194.451" cy="369.997" r="4" fill="#0" id="circle40"/>
	<circle cx="199.419" cy="386.558" r="4" fill="#0" id="circle41"/>
	<circle cx="211.012" cy="23.8731" r="4" fill="#0" id="circle42"/>
	<circle cx="212.668" cy="398.15" r="4" fill="#0" id="circle43"/>
	<circle cx="219.292" cy="414.711" r="4" fill="#0" id="circle44"/>
	<circle cx="227.573" cy="28.8414" r="4" fill="#0" id="circle45"/>
	<circle cx="232.541" cy="426.304" r="4" fill="#0" id="circle46"/>
	<circle cx="237.509" cy="42.0902" r="4" fill="#0" id="circle47"/>
	<circle cx="239.165" cy="442.865" r="4" fill="#0" id="circle48"/>
	<circle cx="252.414" cy="50.3706" r="4" fill="#0" id="circle49"/>
	<circle cx="255.726" cy="449.489" r="4" fill="#0" id="circle50"/>
	<circle cx="260.694" cy="65.2755" r="4" fill="#0" id="circle51"/>
	<circle cx="268.975" cy="461.082" r="4" fill="#0" id="circle52"/>
	<circle cx="270.631" cy="78.5242" r="4" fill="#0" id="circle53"/>
	<circle cx="277.255" cy="475.987" r="4" fill="#0" id="circle54"/>
	<circle cx="277.255" cy="687.967" r="4" fill="#0" id="circle55"/>
	<circle cx="283.88" cy="88.4608" r="4" fill="#0" id="circle56"/>
	<circle cx="285.536" cy="663.125" r="4" fill="#0" id="circle57"/>
	<circle cx="285.536" cy="702.871" r="4" fill="#0" id="circle58"/>
	<circle cx="287.192" cy="489.235" r="4" fill="#0" id="circle59"/>
	<circle cx="293.816" cy="646.564" r="4" fill="#0" id="circle60"/>
	<circle cx="293.816" cy="717.776" r="4" fill="#0" id="circle61"/>
	<circle cx="295.472" cy="101.71" r="4" fill="#0" id="circle62"/>
	<circle cx="298.785" cy="502.484" r="4" fill="#0" id="circle63"/>
	<circle cx="302.097" cy="519.045" r="4" fill="#0" id="circle64"/>
	<circle cx="302.097" cy="613.442" r="4" fill="#0" id="circle65"/>
	<circle cx="302.097" cy="630.003" r="4" fill="#0" id="circle66"/>
	<circle cx="307.065" cy="535.606" r="4" fill="#0" id="circle67"/>
	<circle cx="308.721" cy="113.302" r="4" fill="#0" id="circle68"/>
	<circle cx="308.721" cy="726.057" r="4" fill="#0" id="circle69"/>
	<circle cx="310.377" cy="552.167" r="4" fill="#0" id="circle70"/>
	<circle cx="310.377" cy="568.728" r="4" fill="#0" id="circle71"/>
	<circle cx="310.377" cy="585.289" r="4" fill="#0" id="circle72"/>
	<circle cx="323.626" cy="121.583" r="4" fill="#0" id="circle73"/>
	<circle cx="325.282" cy="726.057" r="4" fill="#0" id="circle74"/>
	<circle cx="340.187" cy="128.207" r="4" fill="#0" id="circle75"/>
	<circle cx="341.843" cy="726.057" r="4" fill="#0" id="circle76"/>
	<circle cx="355.092" cy="136.487" r="4" fill="#0" id="circle77"/>
	<circle cx="358.404" cy="726.057" r="4" fill="#0" id="circle78"/>
	<circle cx="371.653" cy="136.487" r="4" fill="#0" id="circle79"/>
	<circle cx="374.965" cy="726.057" r="4" fill="#0" id="circle80"/>
	<circle cx="386.558" cy="144.768" r="4" fill="#0" id="circle81"/>
	<circle cx="391.526" cy="722.745" r="4" fill="#0" id="circle82"/>
	<circle cx="403.119" cy="141.456" r="4" fill="#0" id="circle83"/>
	<circle cx="403.119" cy="701.215" r="4" fill="#0" id="circle84"/>
	<circle cx="416.367" cy="689.623" r="4" fill="#0" id="circle85"/>
	<circle cx="418.023" cy="149.736" r="4" fill="#0" id="circle86"/>
	<circle cx="419.679" cy="668.093" r="4" fill="#0" id="circle87"/>
	<circle cx="427.96" cy="643.252" r="4" fill="#0" id="circle88"/>
	<circle cx="434.584" cy="144.768" r="4" fill="#0" id="circle89"/>
	<circle cx="436.24" cy="601.85" r="4" fill="#0" id="circle90"/>
	<circle cx="436.24" cy="618.411" r="4" fill="#0" id="circle91"/>
	<circle cx="444.521" cy="527.326" r="4" fill="#0" id="circle92"/>
	<circle cx="444.521" cy="543.886" r="4" fill="#0" id="circle93"/>
	<circle cx="444.521" cy="560.447" r="4" fill="#0" id="circle94"/>
	<circle cx="444.521" cy="577.008" r="4" fill="#0" id="circle95"/>
	<circle cx="451.145" cy="144.768" r="4" fill="#0" id="circle96"/>
	<circle cx="452.801" cy="469.362" r="4" fill="#0" id="circle97"/>
	<circle cx="452.801" cy="485.923" r="4" fill="#0" id="circle98"/>
	<circle cx="452.801" cy="502.484" r="4" fill="#0" id="circle99"/>
	<circle cx="467.706" cy="144.768" r="4" fill="#0" id="circle100"/>
	<circle cx="469.362" cy="461.082" r="4" fill="#0" id="circle101"/>
	<circle cx="484.267" cy="144.768" r="4" fill="#0" id="circle102"/>
	<circle cx="485.923" cy="461.082" r="4" fill="#0" id="circle103"/>
	<circle cx="500.828" cy="144.768" r="4" fill="#0" id="circle104"/>
	<circle cx="502.484" cy="461.082" r="4" fill="#0" id="circle105"/>
	<circle cx="517.389" cy="144.768" r="4" fill="#0" id="circle106"/>
	<circle cx="519.045" cy="461.082" r="4" fill="#0" id="circle107"/>
	<circle cx="533.95" cy="144.768" r="4" fill="#0" id="circle108"/>
	<circle cx="535.606" cy="464.394" r="4" fill="#0" id="circle109"/>
	<circle cx="548.855" cy="153.048" r="4" fill="#0" id="circle110"/>
	<circle cx="550.511" cy="605.162" r="4" fill="#0" id="circle111"/>
	<circle cx="552.167" cy="469.362" r="4" fill="#0" id="circle112"/>
	<circle cx="558.791" cy="620.067" r="4" fill="#0" id="circle113"/>
	<circle cx="563.76" cy="144.768" r="4" fill="#0" id="circle114"/>
	<circle cx="563.76" cy="591.913" r="4" fill="#0" id="circle115"/>
	<circle cx="567.072" cy="477.643" r="4" fill="#0" id="circle116"/>
	<circle cx="567.072" cy="634.972" r="4" fill="#0" id="circle117"/>
	<circle cx="572.04" cy="575.352" r="4" fill="#0" id="circle118"/>
	<circle cx="572.04" cy="651.533" r="4" fill="#0" id="circle119"/>
	<circle cx="577.008" cy="490.891" r="4" fill="#0" id="circle120"/>
	<circle cx="578.664" cy="136.487" r="4" fill="#0" id="circle121"/>
	<circle cx="585.289" cy="562.104" r="4" fill="#0" id="circle122"/>
	<circle cx="588.601" cy="658.157" r="4" fill="#0" id="circle123"/>
	<circle cx="590.257" cy="502.484" r="4" fill="#0" id="circle124"/>
	<circle cx="595.225" cy="136.487" r="4" fill="#0" id="circle125"/>
	<circle cx="598.538" cy="550.511" r="4" fill="#0" id="circle126"/>
	<circle cx="601.85" cy="515.733" r="4" fill="#0" id="circle127"/>
	<circle cx="605.162" cy="659.813" r="4" fill="#0" id="circle128"/>
	<circle cx="608.474" cy="532.294" r="4" fill="#0" id="circle129"/>
	<circle cx="611.786" cy="136.487" r="4" fill="#0" id="circle130"/>
	<circle cx="621.723" cy="659.813" r="4" fill="#0" id="circle131"/>
	<circle cx="628.347" cy="136.487" r="4" fill="#0" id="circle132"/>
	<circle cx="638.284" cy="658.157" r="4" fill="#0" id="circle133"/>
	<circle cx="644.908" cy="136.487" r="4" fill="#0" id="circle134"/>
	<circle cx="654.845" cy="649.876" r="4" fill="#0" id="circle135"/>
	<circle cx="661.469" cy="136.487" r="4" fill="#0" id="circle136"/>
	<circle cx="668.093" cy="634.972" r="4" fill="#0" id="circle137"/>
	<circle cx="678.03" cy="136.487" r="4" fill="#0" id="circle138"/>
	<circle cx="681.342" cy="623.379" r="4" fill="#0" id="circle139"/>
	<circle cx="689.623" cy="606.818" r="4" fill="#0" id="circle140"/>
	<circle cx="692.935" cy="144.768" r="4" fill="#0" id="circle141"/>
	<circle cx="697.903" cy="590.257" r="4" fill="#0" id="circle142"/>
	<circle cx="701.215" cy="560.447" r="4" fill="#0" id="circle143"/>
	<circle cx="707.84" cy="153.048" r="4" fill="#0" id="circle144"/>
	<circle cx="716.12" cy="552.167" r="4" fill="#0" id="circle145"/>
	<circle cx="716.12" cy="638.284" r="4" fill="#0" id="circle146"/>
	<circle cx="716.12" cy="654.845" r="4" fill="#0" id="circle147"/>
	<circle cx="716.12" cy="671.406" r="4" fill="#0" id="circle148"/>
	<circle cx="724.401" cy="156.361" r="4" fill="#0" id="circle149"/>
	<circle cx="724.401" cy="621.723" r="4" fill="#0" id="circle150"/>
	<circle cx="726.057" cy="565.416" r="4" fill="#0" id="circle151"/>
	<circle cx="729.369" cy="682.998" r="4" fill="#0" id="circle152"/>
	<circle cx="732.681" cy="581.977" r="4" fill="#0" id="circle153"/>
	<circle cx="732.681" cy="598.538" r="4" fill="#0" id="circle154"/>
	<circle cx="739.306" cy="164.641" r="4" fill="#0" id="circle155"/>
	<circle cx="740.962" cy="696.247" r="4" fill="#0" id="circle156"/>
	<circle cx="755.866" cy="171.265" r="4" fill="#0" id="circle157"/>
	<circle cx="757.523" cy="701.215" r="4" fill="#0" id="circle158"/>
	<circle cx="770.771" cy="179.546" r="4" fill="#0" id="circle159"/>
	<circle cx="774.083" cy="696.247" r="4" fill="#0" id="circle160"/>
	<circle cx="784.02" cy="191.139" r="4" fill="#0" id="circle161"/>
	<circle cx="790.644" cy="687.967" r="4" fill="#0" id="circle162"/>
	<circle cx="798.925" cy="199.419" r="4" fill="#0" id="circle163"/>
	<circle cx="807.205" cy="679.686" r="4" fill="#0" id="circle164"/>
	<circle cx="812.174" cy="211.012" r="4" fill="#0" id="circle165"/>
	<circle cx="820.454" cy="666.437" r="4" fill="#0" id="circle166"/>
	<circle cx="823.766" cy="224.26" r="4" fill="#0" id="circle167"/>
	<circle cx="832.047" cy="239.165" r="4" fill="#0" id="circle168"/>
	<circle cx="833.703" cy="643.252" r="4" fill="#0" id="circle169"/>
	<circle cx="838.671" cy="255.726" r="4" fill="#0" id="circle170"/>
	<circle cx="841.983" cy="272.287" r="4" fill="#0" id="circle171"/>
	<circle cx="841.983" cy="601.85" r="4" fill="#0" id="circle172"/>
	<circle cx="841.983" cy="618.411" r="4" fill="#0" id="circle173"/>
	<circle cx="850.264" cy="287.192" r="4" fill="#0" id="circle174"/>
	<circle cx="850.264" cy="577.008" r="4" fill="#0" id="circle175"/>
	<circle cx="853.576" cy="303.753" r="4" fill="#0" id="circle176"/>
	<circle cx="858.544" cy="320.314" r="4" fill="#0" id="circle177"/>
	<circle cx="865.169" cy="568.728" r="4" fill="#0" id="circle178"/>
	<circle cx="866.825" cy="335.219" r="4" fill="#0" id="circle179"/>
	<circle cx="866.825" cy="351.78" r="4" fill="#0" id="circle180"/>
	<circle cx="875.105" cy="366.684" r="4" fill="#0" id="circle181"/>
	<circle cx="875.105" cy="383.245" r="4" fill="#0" id="circle182"/>
	<circle cx="875.105" cy="581.977" r="4" fill="#0" id="circle183"/>
	<circle cx="883.386" cy="398.15" r="4" fill="#0" id="circle184"/>
	<circle cx="883.386" cy="414.711" r="4" fill="#0" id="circle185"/>
	<circle cx="883.386" cy="431.272" r="4" fill="#0" id="circle186"/>
	<circle cx="888.354" cy="593.569" r="4" fill="#0" id="circle187"/>
	<circle cx="891.666" cy="446.177" r="4" fill="#0" id="circle188"/>
	<circle cx="896.634" cy="462.738" r="4" fill="#0" id="circle189"/>
	<circle cx="899.947" cy="479.299" r="4" fill="#0" id="circle190"/>
	<circle cx="903.259" cy="601.85" r="4" fill="#0" id="circle191"/>
	<circle cx="909.883" cy="492.548" r="4" fill="#0" id="circle192"/>
	<circle cx="918.164" cy="610.13" r="4" fill="#0" id="circle193"/>
	<circle cx="923.132" cy="504.14" r="4" fill="#0" id="circle194"/>
	<circle cx="934.725" cy="610.13" r="4" fill="#0" id="circle195"/>
	<circle cx="938.037" cy="512.421" r="4" fill="#0" id="circle196"/>
	<circle cx="947.973" cy="525.669" r="4" fill="#0" id="circle197"/>
	<circle cx="949.629" cy="618.411" r="4" fill="#0" id="circle198"/>
	<circle cx="961.222" cy="535.606" r="4" fill="#0" id="circle199"/>
	<circle cx="966.19" cy="610.13" r="4" fill="#0" id="circle200"/>
	<circle cx="977.783" cy="542.23" r="4" fill="#0" id="circle201"/>
	<circle cx="982.751" cy="558.791" r="4" fill="#0" id="circle202"/>
	<circle cx="982.751" cy="601.85" r="4" fill="#0" id="circle203"/>
	<circle cx="991.032" cy="585.289" r="4" fill="#0" id="circle204"/>
	<circle cx="996" cy="568.728" r="4" fill="#0" id="circle205"/>
	</g>
</svg>