<?xml version="1.0" encoding="UTF-8" standalone="no"?>
<!-- Created with CurveBenchmark -->
<svg
	xmlns:dc="http://purl.org/dc/elements/1.1/"
	xmlns:cc="http://creativecommons.org/ns#"
	xmlns:rdf="http://www.w3.org/1999/02/22-rdf-syntax-ns#"
	xmlns:svg="http://www.w3.org/2000/svg"
	xmlns="http://www.w3.org/2000/svg"
	xmlns:sodipodi="http://sodipodi.sourceforge.net/DTD/sodipodi-0.dtd"
	xmlns:inkscape="http://www.inkscape.org/namespaces/inkscape"
	width="1000"
	height="1000"
	id="svg2"
	version="1.1"
	sodipodi:docname="manifold/peel-woodenspoonbinary62.png.txt">
<defs
	id="defs4" />
<metadata
	id="metadata7">
	<rdf:RDF>
		<cc:Work
			rdf:about="">
			<dc:format>image/svg+xml</dc:format>
			<dc:type
				rdf:resource="http://purl.org/dc/dcmitype/StillImage" />
			<dc:title></dc:title>
		</cc:Work>
	</rdf:RDF>
</metadata>
<g
	inkscape:label="Layer 1"
	inkscape:groupmode="layer"
	id="layer1">
	<path style="fill:none;stroke:red;stroke-width:1px;stroke-linecap:butt;stroke-linejoin:miter;stroke-opacity:1" d="M 4,198.934 4,184.495 z" id="boundary" inkscape:connector-curvature="0" />
	<path style="fill:none;stroke:red;stroke-width:1px;stroke-linecap:butt;stroke-linejoin:miter;stroke-opacity:1" d="M 4,184.495 15.5517,172.943 z" id="boundary" inkscape:connector-curvature="0" />
	<path style="fill:none;stroke:red;stroke-width:1px;stroke-linecap:butt;stroke-linejoin:miter;stroke-opacity:1" d="M 4,198.934 6.88792,213.374 z" id="boundary" inkscape:connector-curvature="0" />
	<path style="fill:none;stroke:red;stroke-width:1px;stroke-linecap:butt;stroke-linejoin:miter;stroke-opacity:1" d="M 6.88792,213.374 18.4396,223.482 z" id="boundary" inkscape:connector-curvature="0" />
	<path style="fill:none;stroke:red;stroke-width:1px;stroke-linecap:butt;stroke-linejoin:miter;stroke-opacity:1" d="M 15.5517,172.943 27.1033,164.279 z" id="boundary" inkscape:connector-curvature="0" />
	<path style="fill:none;stroke:red;stroke-width:1px;stroke-linecap:butt;stroke-linejoin:miter;stroke-opacity:1" d="M 27.1033,164.279 41.5429,158.504 z" id="boundary" inkscape:connector-curvature="0" />
	<path style="fill:none;stroke:red;stroke-width:1px;stroke-linecap:butt;stroke-linejoin:miter;stroke-opacity:1" d="M 18.4396,223.482 29.9913,232.146 z" id="boundary" inkscape:connector-curvature="0" />
	<path style="fill:none;stroke:red;stroke-width:1px;stroke-linecap:butt;stroke-linejoin:miter;stroke-opacity:1" d="M 29.9913,232.146 44.4309,233.59 z" id="boundary" inkscape:connector-curvature="0" />
	<path style="fill:none;stroke:red;stroke-width:1px;stroke-linecap:butt;stroke-linejoin:miter;stroke-opacity:1" d="M 419.86,185.939 405.421,187.383 z" id="boundary" inkscape:connector-curvature="0" />
	<path style="fill:none;stroke:red;stroke-width:1px;stroke-linecap:butt;stroke-linejoin:miter;stroke-opacity:1" d="M 41.5429,158.504 55.9825,157.06 z" id="boundary" inkscape:connector-curvature="0" />
	<path style="fill:none;stroke:red;stroke-width:1px;stroke-linecap:butt;stroke-linejoin:miter;stroke-opacity:1" d="M 44.4309,233.59 58.8705,232.146 z" id="boundary" inkscape:connector-curvature="0" />
	<path style="fill:none;stroke:red;stroke-width:1px;stroke-linecap:butt;stroke-linejoin:miter;stroke-opacity:1" d="M 55.9825,157.06 70.4221,155.616 z" id="boundary" inkscape:connector-curvature="0" />
	<path style="fill:none;stroke:red;stroke-width:1px;stroke-linecap:butt;stroke-linejoin:miter;stroke-opacity:1" d="M 766.41,223.482 780.85,226.37 z" id="boundary" inkscape:connector-curvature="0" />
	<path style="fill:none;stroke:red;stroke-width:1px;stroke-linecap:butt;stroke-linejoin:miter;stroke-opacity:1" d="M 58.8705,232.146 73.31,230.702 z" id="boundary" inkscape:connector-curvature="0" />
	<path style="fill:none;stroke:red;stroke-width:1px;stroke-linecap:butt;stroke-linejoin:miter;stroke-opacity:1" d="M 87.7496,227.814 102.189,226.37 z" id="boundary" inkscape:connector-curvature="0" />
	<path style="fill:none;stroke:red;stroke-width:1px;stroke-linecap:butt;stroke-linejoin:miter;stroke-opacity:1" d="M 87.7496,227.814 73.31,230.702 z" id="boundary" inkscape:connector-curvature="0" />
	<path style="fill:none;stroke:red;stroke-width:1px;stroke-linecap:butt;stroke-linejoin:miter;stroke-opacity:1" d="M 70.4221,155.616 84.8617,154.172 z" id="boundary" inkscape:connector-curvature="0" />
	<path style="fill:none;stroke:red;stroke-width:1px;stroke-linecap:butt;stroke-linejoin:miter;stroke-opacity:1" d="M 102.189,226.37 116.629,224.926 z" id="boundary" inkscape:connector-curvature="0" />
	<path style="fill:none;stroke:red;stroke-width:1px;stroke-linecap:butt;stroke-linejoin:miter;stroke-opacity:1" d="M 84.8617,154.172 99.3013,152.728 z" id="boundary" inkscape:connector-curvature="0" />
	<path style="fill:none;stroke:red;stroke-width:1px;stroke-linecap:butt;stroke-linejoin:miter;stroke-opacity:1" d="M 419.86,185.939 434.3,184.495 z" id="boundary" inkscape:connector-curvature="0" />
	<path style="fill:none;stroke:red;stroke-width:1px;stroke-linecap:butt;stroke-linejoin:miter;stroke-opacity:1" d="M 99.3013,152.728 113.741,151.284 z" id="boundary" inkscape:connector-curvature="0" />
	<path style="fill:none;stroke:red;stroke-width:1px;stroke-linecap:butt;stroke-linejoin:miter;stroke-opacity:1" d="M 131.068,222.038 145.508,220.594 z" id="boundary" inkscape:connector-curvature="0" />
	<path style="fill:none;stroke:red;stroke-width:1px;stroke-linecap:butt;stroke-linejoin:miter;stroke-opacity:1" d="M 131.068,222.038 116.629,224.926 z" id="boundary" inkscape:connector-curvature="0" />
	<path style="fill:none;stroke:red;stroke-width:1px;stroke-linecap:butt;stroke-linejoin:miter;stroke-opacity:1" d="M 113.741,151.284 128.18,151.284 z" id="boundary" inkscape:connector-curvature="0" />
	<path style="fill:none;stroke:red;stroke-width:1px;stroke-linecap:butt;stroke-linejoin:miter;stroke-opacity:1" d="M 564.256,183.051 549.817,181.607 z" id="boundary" inkscape:connector-curvature="0" />
	<path style="fill:none;stroke:red;stroke-width:1px;stroke-linecap:butt;stroke-linejoin:miter;stroke-opacity:1" d="M 549.817,181.607 535.377,181.607 z" id="boundary" inkscape:connector-curvature="0" />
	<path style="fill:none;stroke:red;stroke-width:1px;stroke-linecap:butt;stroke-linejoin:miter;stroke-opacity:1" d="M 128.18,151.284 142.62,149.84 z" id="boundary" inkscape:connector-curvature="0" />
	<path style="fill:none;stroke:red;stroke-width:1px;stroke-linecap:butt;stroke-linejoin:miter;stroke-opacity:1" d="M 159.948,217.706 174.387,216.262 z" id="boundary" inkscape:connector-curvature="0" />
	<path style="fill:none;stroke:red;stroke-width:1px;stroke-linecap:butt;stroke-linejoin:miter;stroke-opacity:1" d="M 159.948,217.706 145.508,220.594 z" id="boundary" inkscape:connector-curvature="0" />
	<path style="fill:none;stroke:red;stroke-width:1px;stroke-linecap:butt;stroke-linejoin:miter;stroke-opacity:1" d="M 142.62,149.84 157.06,148.396 z" id="boundary" inkscape:connector-curvature="0" />
	<path style="fill:none;stroke:red;stroke-width:1px;stroke-linecap:butt;stroke-linejoin:miter;stroke-opacity:1" d="M 737.531,217.706 723.092,213.374 z" id="boundary" inkscape:connector-curvature="0" />
	<path style="fill:none;stroke:red;stroke-width:1px;stroke-linecap:butt;stroke-linejoin:miter;stroke-opacity:1" d="M 723.092,213.374 708.652,210.486 z" id="boundary" inkscape:connector-curvature="0" />
	<path style="fill:none;stroke:red;stroke-width:1px;stroke-linecap:butt;stroke-linejoin:miter;stroke-opacity:1" d="M 157.06,148.396 171.499,146.952 z" id="boundary" inkscape:connector-curvature="0" />
	<path style="fill:none;stroke:red;stroke-width:1px;stroke-linecap:butt;stroke-linejoin:miter;stroke-opacity:1" d="M 188.827,213.374 203.266,211.93 z" id="boundary" inkscape:connector-curvature="0" />
	<path style="fill:none;stroke:red;stroke-width:1px;stroke-linecap:butt;stroke-linejoin:miter;stroke-opacity:1" d="M 188.827,213.374 174.387,216.262 z" id="boundary" inkscape:connector-curvature="0" />
	<path style="fill:none;stroke:red;stroke-width:1px;stroke-linecap:butt;stroke-linejoin:miter;stroke-opacity:1" d="M 171.499,146.952 185.939,146.952 z" id="boundary" inkscape:connector-curvature="0" />
	<path style="fill:none;stroke:red;stroke-width:1px;stroke-linecap:butt;stroke-linejoin:miter;stroke-opacity:1" d="M 203.266,211.93 217.706,210.486 z" id="boundary" inkscape:connector-curvature="0" />
	<path style="fill:none;stroke:red;stroke-width:1px;stroke-linecap:butt;stroke-linejoin:miter;stroke-opacity:1" d="M 185.939,146.952 200.378,145.508 z" id="boundary" inkscape:connector-curvature="0" />
	<path style="fill:none;stroke:red;stroke-width:1px;stroke-linecap:butt;stroke-linejoin:miter;stroke-opacity:1" d="M 261.025,204.71 275.464,203.266 z" id="boundary" inkscape:connector-curvature="0" />
	<path style="fill:none;stroke:red;stroke-width:1px;stroke-linecap:butt;stroke-linejoin:miter;stroke-opacity:1" d="M 200.378,145.508 214.818,144.064 z" id="boundary" inkscape:connector-curvature="0" />
	<path style="fill:none;stroke:red;stroke-width:1px;stroke-linecap:butt;stroke-linejoin:miter;stroke-opacity:1" d="M 232.146,207.598 246.585,206.154 z" id="boundary" inkscape:connector-curvature="0" />
	<path style="fill:none;stroke:red;stroke-width:1px;stroke-linecap:butt;stroke-linejoin:miter;stroke-opacity:1" d="M 232.146,207.598 217.706,210.486 z" id="boundary" inkscape:connector-curvature="0" />
	<path style="fill:none;stroke:red;stroke-width:1px;stroke-linecap:butt;stroke-linejoin:miter;stroke-opacity:1" d="M 214.818,144.064 229.258,144.064 z" id="boundary" inkscape:connector-curvature="0" />
	<path style="fill:none;stroke:red;stroke-width:1px;stroke-linecap:butt;stroke-linejoin:miter;stroke-opacity:1" d="M 246.585,206.154 261.025,204.71 z" id="boundary" inkscape:connector-curvature="0" />
	<path style="fill:none;stroke:red;stroke-width:1px;stroke-linecap:butt;stroke-linejoin:miter;stroke-opacity:1" d="M 229.258,144.064 243.697,142.62 z" id="boundary" inkscape:connector-curvature="0" />
	<path style="fill:none;stroke:red;stroke-width:1px;stroke-linecap:butt;stroke-linejoin:miter;stroke-opacity:1" d="M 636.454,193.159 650.894,196.047 z" id="boundary" inkscape:connector-curvature="0" />
	<path style="fill:none;stroke:red;stroke-width:1px;stroke-linecap:butt;stroke-linejoin:miter;stroke-opacity:1" d="M 243.697,142.62 258.137,141.176 z" id="boundary" inkscape:connector-curvature="0" />
	<path style="fill:none;stroke:red;stroke-width:1px;stroke-linecap:butt;stroke-linejoin:miter;stroke-opacity:1" d="M 318.783,197.491 333.223,196.047 z" id="boundary" inkscape:connector-curvature="0" />
	<path style="fill:none;stroke:red;stroke-width:1px;stroke-linecap:butt;stroke-linejoin:miter;stroke-opacity:1" d="M 258.137,141.176 272.576,141.176 z" id="boundary" inkscape:connector-curvature="0" />
	<path style="fill:none;stroke:red;stroke-width:1px;stroke-linecap:butt;stroke-linejoin:miter;stroke-opacity:1" d="M 289.904,200.378 304.344,198.934 z" id="boundary" inkscape:connector-curvature="0" />
	<path style="fill:none;stroke:red;stroke-width:1px;stroke-linecap:butt;stroke-linejoin:miter;stroke-opacity:1" d="M 289.904,200.378 275.464,203.266 z" id="boundary" inkscape:connector-curvature="0" />
	<path style="fill:none;stroke:red;stroke-width:1px;stroke-linecap:butt;stroke-linejoin:miter;stroke-opacity:1" d="M 272.576,141.176 287.016,139.732 z" id="boundary" inkscape:connector-curvature="0" />
	<path style="fill:none;stroke:red;stroke-width:1px;stroke-linecap:butt;stroke-linejoin:miter;stroke-opacity:1" d="M 665.333,198.934 679.773,203.266 z" id="boundary" inkscape:connector-curvature="0" />
	<path style="fill:none;stroke:red;stroke-width:1px;stroke-linecap:butt;stroke-linejoin:miter;stroke-opacity:1" d="M 665.333,198.934 650.894,196.047 z" id="boundary" inkscape:connector-curvature="0" />
	<path style="fill:none;stroke:red;stroke-width:1px;stroke-linecap:butt;stroke-linejoin:miter;stroke-opacity:1" d="M 304.344,198.934 318.783,197.491 z" id="boundary" inkscape:connector-curvature="0" />
	<path style="fill:none;stroke:red;stroke-width:1px;stroke-linecap:butt;stroke-linejoin:miter;stroke-opacity:1" d="M 287.016,139.732 301.456,139.732 z" id="boundary" inkscape:connector-curvature="0" />
	<path style="fill:none;stroke:red;stroke-width:1px;stroke-linecap:butt;stroke-linejoin:miter;stroke-opacity:1" d="M 434.3,184.495 448.739,183.051 z" id="boundary" inkscape:connector-curvature="0" />
	<path style="fill:none;stroke:red;stroke-width:1px;stroke-linecap:butt;stroke-linejoin:miter;stroke-opacity:1" d="M 301.456,139.732 315.895,138.288 z" id="boundary" inkscape:connector-curvature="0" />
	<path style="fill:none;stroke:red;stroke-width:1px;stroke-linecap:butt;stroke-linejoin:miter;stroke-opacity:1" d="M 520.937,181.607 535.377,181.607 z" id="boundary" inkscape:connector-curvature="0" />
	<path style="fill:none;stroke:red;stroke-width:1px;stroke-linecap:butt;stroke-linejoin:miter;stroke-opacity:1" d="M 315.895,138.288 330.335,138.288 z" id="boundary" inkscape:connector-curvature="0" />
	<path style="fill:none;stroke:red;stroke-width:1px;stroke-linecap:butt;stroke-linejoin:miter;stroke-opacity:1" d="M 492.058,181.607 506.498,180.163 z" id="boundary" inkscape:connector-curvature="0" />
	<path style="fill:none;stroke:red;stroke-width:1px;stroke-linecap:butt;stroke-linejoin:miter;stroke-opacity:1" d="M 506.498,180.163 520.937,181.607 z" id="boundary" inkscape:connector-curvature="0" />
	<path style="fill:none;stroke:red;stroke-width:1px;stroke-linecap:butt;stroke-linejoin:miter;stroke-opacity:1" d="M 347.662,193.159 362.102,191.715 z" id="boundary" inkscape:connector-curvature="0" />
	<path style="fill:none;stroke:red;stroke-width:1px;stroke-linecap:butt;stroke-linejoin:miter;stroke-opacity:1" d="M 347.662,193.159 333.223,196.047 z" id="boundary" inkscape:connector-curvature="0" />
	<path style="fill:none;stroke:red;stroke-width:1px;stroke-linecap:butt;stroke-linejoin:miter;stroke-opacity:1" d="M 330.335,138.288 344.774,138.288 z" id="boundary" inkscape:connector-curvature="0" />
	<path style="fill:none;stroke:red;stroke-width:1px;stroke-linecap:butt;stroke-linejoin:miter;stroke-opacity:1" d="M 362.102,191.715 376.541,190.271 z" id="boundary" inkscape:connector-curvature="0" />
	<path style="fill:none;stroke:red;stroke-width:1px;stroke-linecap:butt;stroke-linejoin:miter;stroke-opacity:1" d="M 344.774,138.288 359.214,136.844 z" id="boundary" inkscape:connector-curvature="0" />
	<path style="fill:none;stroke:red;stroke-width:1px;stroke-linecap:butt;stroke-linejoin:miter;stroke-opacity:1" d="M 376.541,190.271 390.981,188.827 z" id="boundary" inkscape:connector-curvature="0" />
	<path style="fill:none;stroke:red;stroke-width:1px;stroke-linecap:butt;stroke-linejoin:miter;stroke-opacity:1" d="M 359.214,136.844 373.654,136.844 z" id="boundary" inkscape:connector-curvature="0" />
	<path style="fill:none;stroke:red;stroke-width:1px;stroke-linecap:butt;stroke-linejoin:miter;stroke-opacity:1" d="M 492.058,181.607 477.619,181.607 z" id="boundary" inkscape:connector-curvature="0" />
	<path style="fill:none;stroke:red;stroke-width:1px;stroke-linecap:butt;stroke-linejoin:miter;stroke-opacity:1" d="M 373.654,136.844 388.093,136.844 z" id="boundary" inkscape:connector-curvature="0" />
	<path style="fill:none;stroke:red;stroke-width:1px;stroke-linecap:butt;stroke-linejoin:miter;stroke-opacity:1" d="M 448.739,183.051 463.179,181.607 z" id="boundary" inkscape:connector-curvature="0" />
	<path style="fill:none;stroke:red;stroke-width:1px;stroke-linecap:butt;stroke-linejoin:miter;stroke-opacity:1" d="M 463.179,181.607 477.619,181.607 z" id="boundary" inkscape:connector-curvature="0" />
	<path style="fill:none;stroke:red;stroke-width:1px;stroke-linecap:butt;stroke-linejoin:miter;stroke-opacity:1" d="M 388.093,136.844 402.533,135.4 z" id="boundary" inkscape:connector-curvature="0" />
	<path style="fill:none;stroke:red;stroke-width:1px;stroke-linecap:butt;stroke-linejoin:miter;stroke-opacity:1" d="M 390.981,188.827 405.421,187.383 z" id="boundary" inkscape:connector-curvature="0" />
	<path style="fill:none;stroke:red;stroke-width:1px;stroke-linecap:butt;stroke-linejoin:miter;stroke-opacity:1" d="M 402.533,135.4 416.972,135.4 z" id="boundary" inkscape:connector-curvature="0" />
	<path style="fill:none;stroke:red;stroke-width:1px;stroke-linecap:butt;stroke-linejoin:miter;stroke-opacity:1" d="M 636.454,193.159 622.015,190.271 z" id="boundary" inkscape:connector-curvature="0" />
	<path style="fill:none;stroke:red;stroke-width:1px;stroke-linecap:butt;stroke-linejoin:miter;stroke-opacity:1" d="M 564.256,183.051 578.696,184.495 z" id="boundary" inkscape:connector-curvature="0" />
	<path style="fill:none;stroke:red;stroke-width:1px;stroke-linecap:butt;stroke-linejoin:miter;stroke-opacity:1" d="M 416.972,135.4 431.412,135.4 z" id="boundary" inkscape:connector-curvature="0" />
	<path style="fill:none;stroke:red;stroke-width:1px;stroke-linecap:butt;stroke-linejoin:miter;stroke-opacity:1" d="M 593.135,185.939 578.696,184.495 z" id="boundary" inkscape:connector-curvature="0" />
	<path style="fill:none;stroke:red;stroke-width:1px;stroke-linecap:butt;stroke-linejoin:miter;stroke-opacity:1" d="M 431.412,135.4 445.852,135.4 z" id="boundary" inkscape:connector-curvature="0" />
	<path style="fill:none;stroke:red;stroke-width:1px;stroke-linecap:butt;stroke-linejoin:miter;stroke-opacity:1" d="M 445.852,135.4 460.291,133.956 z" id="boundary" inkscape:connector-curvature="0" />
	<path style="fill:none;stroke:red;stroke-width:1px;stroke-linecap:butt;stroke-linejoin:miter;stroke-opacity:1" d="M 622.015,190.271 607.575,187.383 z" id="boundary" inkscape:connector-curvature="0" />
	<path style="fill:none;stroke:red;stroke-width:1px;stroke-linecap:butt;stroke-linejoin:miter;stroke-opacity:1" d="M 607.575,187.383 593.135,185.939 z" id="boundary" inkscape:connector-curvature="0" />
	<path style="fill:none;stroke:red;stroke-width:1px;stroke-linecap:butt;stroke-linejoin:miter;stroke-opacity:1" d="M 460.291,133.956 474.731,132.512 z" id="boundary" inkscape:connector-curvature="0" />
	<path style="fill:none;stroke:red;stroke-width:1px;stroke-linecap:butt;stroke-linejoin:miter;stroke-opacity:1" d="M 474.731,132.512 489.17,131.068 z" id="boundary" inkscape:connector-curvature="0" />
	<path style="fill:none;stroke:red;stroke-width:1px;stroke-linecap:butt;stroke-linejoin:miter;stroke-opacity:1" d="M 489.17,131.068 503.61,129.624 z" id="boundary" inkscape:connector-curvature="0" />
	<path style="fill:none;stroke:red;stroke-width:1px;stroke-linecap:butt;stroke-linejoin:miter;stroke-opacity:1" d="M 503.61,129.624 518.049,128.18 z" id="boundary" inkscape:connector-curvature="0" />
	<path style="fill:none;stroke:red;stroke-width:1px;stroke-linecap:butt;stroke-linejoin:miter;stroke-opacity:1" d="M 518.049,128.18 532.489,126.737 z" id="boundary" inkscape:connector-curvature="0" />
	<path style="fill:none;stroke:red;stroke-width:1px;stroke-linecap:butt;stroke-linejoin:miter;stroke-opacity:1" d="M 532.489,126.737 546.929,125.293 z" id="boundary" inkscape:connector-curvature="0" />
	<path style="fill:none;stroke:red;stroke-width:1px;stroke-linecap:butt;stroke-linejoin:miter;stroke-opacity:1" d="M 546.929,125.293 561.368,122.405 z" id="boundary" inkscape:connector-curvature="0" />
	<path style="fill:none;stroke:red;stroke-width:1px;stroke-linecap:butt;stroke-linejoin:miter;stroke-opacity:1" d="M 708.652,210.486 694.213,206.154 z" id="boundary" inkscape:connector-curvature="0" />
	<path style="fill:none;stroke:red;stroke-width:1px;stroke-linecap:butt;stroke-linejoin:miter;stroke-opacity:1" d="M 694.213,206.154 679.773,203.266 z" id="boundary" inkscape:connector-curvature="0" />
	<path style="fill:none;stroke:red;stroke-width:1px;stroke-linecap:butt;stroke-linejoin:miter;stroke-opacity:1" d="M 561.368,122.405 575.808,119.517 z" id="boundary" inkscape:connector-curvature="0" />
	<path style="fill:none;stroke:red;stroke-width:1px;stroke-linecap:butt;stroke-linejoin:miter;stroke-opacity:1" d="M 575.808,119.517 590.247,116.629 z" id="boundary" inkscape:connector-curvature="0" />
	<path style="fill:none;stroke:red;stroke-width:1px;stroke-linecap:butt;stroke-linejoin:miter;stroke-opacity:1" d="M 590.247,116.629 604.687,113.741 z" id="boundary" inkscape:connector-curvature="0" />
	<path style="fill:none;stroke:red;stroke-width:1px;stroke-linecap:butt;stroke-linejoin:miter;stroke-opacity:1" d="M 604.687,113.741 619.127,109.409 z" id="boundary" inkscape:connector-curvature="0" />
	<path style="fill:none;stroke:red;stroke-width:1px;stroke-linecap:butt;stroke-linejoin:miter;stroke-opacity:1" d="M 737.531,217.706 751.971,220.594 z" id="boundary" inkscape:connector-curvature="0" />
	<path style="fill:none;stroke:red;stroke-width:1px;stroke-linecap:butt;stroke-linejoin:miter;stroke-opacity:1" d="M 619.127,109.409 633.566,103.633 z" id="boundary" inkscape:connector-curvature="0" />
	<path style="fill:none;stroke:red;stroke-width:1px;stroke-linecap:butt;stroke-linejoin:miter;stroke-opacity:1" d="M 751.971,220.594 766.41,223.482 z" id="boundary" inkscape:connector-curvature="0" />
	<path style="fill:none;stroke:red;stroke-width:1px;stroke-linecap:butt;stroke-linejoin:miter;stroke-opacity:1" d="M 633.566,103.633 648.006,97.8574 z" id="boundary" inkscape:connector-curvature="0" />
	<path style="fill:none;stroke:red;stroke-width:1px;stroke-linecap:butt;stroke-linejoin:miter;stroke-opacity:1" d="M 648.006,97.8574 662.445,90.6376 z" id="boundary" inkscape:connector-curvature="0" />
	<path style="fill:none;stroke:red;stroke-width:1px;stroke-linecap:butt;stroke-linejoin:miter;stroke-opacity:1" d="M 662.445,90.6376 675.441,83.4178 z" id="boundary" inkscape:connector-curvature="0" />
	<path style="fill:none;stroke:red;stroke-width:1px;stroke-linecap:butt;stroke-linejoin:miter;stroke-opacity:1" d="M 675.441,83.4178 688.437,76.198 z" id="boundary" inkscape:connector-curvature="0" />
	<path style="fill:none;stroke:red;stroke-width:1px;stroke-linecap:butt;stroke-linejoin:miter;stroke-opacity:1" d="M 688.437,76.198 701.432,67.5342 z" id="boundary" inkscape:connector-curvature="0" />
	<path style="fill:none;stroke:red;stroke-width:1px;stroke-linecap:butt;stroke-linejoin:miter;stroke-opacity:1" d="M 701.432,67.5342 714.428,58.8705 z" id="boundary" inkscape:connector-curvature="0" />
	<path style="fill:none;stroke:red;stroke-width:1px;stroke-linecap:butt;stroke-linejoin:miter;stroke-opacity:1" d="M 714.428,58.8705 727.424,50.2067 z" id="boundary" inkscape:connector-curvature="0" />
	<path style="fill:none;stroke:red;stroke-width:1px;stroke-linecap:butt;stroke-linejoin:miter;stroke-opacity:1" d="M 751.971,34.3231 764.967,27.1033 z" id="boundary" inkscape:connector-curvature="0" />
	<path style="fill:none;stroke:red;stroke-width:1px;stroke-linecap:butt;stroke-linejoin:miter;stroke-opacity:1" d="M 727.424,50.2067 740.419,42.9869 z" id="boundary" inkscape:connector-curvature="0" />
	<path style="fill:none;stroke:red;stroke-width:1px;stroke-linecap:butt;stroke-linejoin:miter;stroke-opacity:1" d="M 795.29,227.814 780.85,226.37 z" id="boundary" inkscape:connector-curvature="0" />
	<path style="fill:none;stroke:red;stroke-width:1px;stroke-linecap:butt;stroke-linejoin:miter;stroke-opacity:1" d="M 740.419,42.9869 751.971,34.3231 z" id="boundary" inkscape:connector-curvature="0" />
	<path style="fill:none;stroke:red;stroke-width:1px;stroke-linecap:butt;stroke-linejoin:miter;stroke-opacity:1" d="M 809.729,229.258 795.29,227.814 z" id="boundary" inkscape:connector-curvature="0" />
	<path style="fill:none;stroke:red;stroke-width:1px;stroke-linecap:butt;stroke-linejoin:miter;stroke-opacity:1" d="M 764.967,27.1033 777.962,19.8836 z" id="boundary" inkscape:connector-curvature="0" />
	<path style="fill:none;stroke:red;stroke-width:1px;stroke-linecap:butt;stroke-linejoin:miter;stroke-opacity:1" d="M 805.397,6.88792 790.958,12.6638 z" id="boundary" inkscape:connector-curvature="0" />
	<path style="fill:none;stroke:red;stroke-width:1px;stroke-linecap:butt;stroke-linejoin:miter;stroke-opacity:1" d="M 777.962,19.8836 790.958,12.6638 z" id="boundary" inkscape:connector-curvature="0" />
	<path style="fill:none;stroke:red;stroke-width:1px;stroke-linecap:butt;stroke-linejoin:miter;stroke-opacity:1" d="M 809.729,229.258 824.169,229.258 z" id="boundary" inkscape:connector-curvature="0" />
	<path style="fill:none;stroke:red;stroke-width:1px;stroke-linecap:butt;stroke-linejoin:miter;stroke-opacity:1" d="M 834.277,5.44396 819.837,4 z" id="boundary" inkscape:connector-curvature="0" />
	<path style="fill:none;stroke:red;stroke-width:1px;stroke-linecap:butt;stroke-linejoin:miter;stroke-opacity:1" d="M 819.837,4 805.397,6.88792 z" id="boundary" inkscape:connector-curvature="0" />
	<path style="fill:none;stroke:red;stroke-width:1px;stroke-linecap:butt;stroke-linejoin:miter;stroke-opacity:1" d="M 824.169,229.258 838.608,229.258 z" id="boundary" inkscape:connector-curvature="0" />
	<path style="fill:none;stroke:red;stroke-width:1px;stroke-linecap:butt;stroke-linejoin:miter;stroke-opacity:1" d="M 848.716,8.33188 834.277,5.44396 z" id="boundary" inkscape:connector-curvature="0" />
	<path style="fill:none;stroke:red;stroke-width:1px;stroke-linecap:butt;stroke-linejoin:miter;stroke-opacity:1" d="M 853.048,227.814 838.608,229.258 z" id="boundary" inkscape:connector-curvature="0" />
	<path style="fill:none;stroke:red;stroke-width:1px;stroke-linecap:butt;stroke-linejoin:miter;stroke-opacity:1" d="M 848.716,8.33188 863.156,8.33188 z" id="boundary" inkscape:connector-curvature="0" />
	<path style="fill:none;stroke:red;stroke-width:1px;stroke-linecap:butt;stroke-linejoin:miter;stroke-opacity:1" d="M 867.488,224.926 853.048,227.814 z" id="boundary" inkscape:connector-curvature="0" />
	<path style="fill:none;stroke:red;stroke-width:1px;stroke-linecap:butt;stroke-linejoin:miter;stroke-opacity:1" d="M 863.156,8.33188 877.595,6.88792 z" id="boundary" inkscape:connector-curvature="0" />
	<path style="fill:none;stroke:red;stroke-width:1px;stroke-linecap:butt;stroke-linejoin:miter;stroke-opacity:1" d="M 877.595,6.88792 892.035,6.88792 z" id="boundary" inkscape:connector-curvature="0" />
	<path style="fill:none;stroke:red;stroke-width:1px;stroke-linecap:butt;stroke-linejoin:miter;stroke-opacity:1" d="M 867.488,224.926 881.927,222.038 z" id="boundary" inkscape:connector-curvature="0" />
	<path style="fill:none;stroke:red;stroke-width:1px;stroke-linecap:butt;stroke-linejoin:miter;stroke-opacity:1" d="M 881.927,222.038 896.367,216.262 z" id="boundary" inkscape:connector-curvature="0" />
	<path style="fill:none;stroke:red;stroke-width:1px;stroke-linecap:butt;stroke-linejoin:miter;stroke-opacity:1" d="M 892.035,6.88792 906.475,6.88792 z" id="boundary" inkscape:connector-curvature="0" />
	<path style="fill:none;stroke:red;stroke-width:1px;stroke-linecap:butt;stroke-linejoin:miter;stroke-opacity:1" d="M 910.806,210.486 896.367,216.262 z" id="boundary" inkscape:connector-curvature="0" />
	<path style="fill:none;stroke:red;stroke-width:1px;stroke-linecap:butt;stroke-linejoin:miter;stroke-opacity:1" d="M 906.475,6.88792 920.914,6.88792 z" id="boundary" inkscape:connector-curvature="0" />
	<path style="fill:none;stroke:red;stroke-width:1px;stroke-linecap:butt;stroke-linejoin:miter;stroke-opacity:1" d="M 923.802,203.266 910.806,210.486 z" id="boundary" inkscape:connector-curvature="0" />
	<path style="fill:none;stroke:red;stroke-width:1px;stroke-linecap:butt;stroke-linejoin:miter;stroke-opacity:1" d="M 961.345,16.9956 949.793,8.33188 z" id="boundary" inkscape:connector-curvature="0" />
	<path style="fill:none;stroke:red;stroke-width:1px;stroke-linecap:butt;stroke-linejoin:miter;stroke-opacity:1" d="M 949.793,8.33188 935.354,5.44396 z" id="boundary" inkscape:connector-curvature="0" />
	<path style="fill:none;stroke:red;stroke-width:1px;stroke-linecap:butt;stroke-linejoin:miter;stroke-opacity:1" d="M 920.914,6.88792 935.354,5.44396 z" id="boundary" inkscape:connector-curvature="0" />
	<path style="fill:none;stroke:red;stroke-width:1px;stroke-linecap:butt;stroke-linejoin:miter;stroke-opacity:1" d="M 935.354,194.603 923.802,203.266 z" id="boundary" inkscape:connector-curvature="0" />
	<path style="fill:none;stroke:red;stroke-width:1px;stroke-linecap:butt;stroke-linejoin:miter;stroke-opacity:1" d="M 946.905,184.495 935.354,194.603 z" id="boundary" inkscape:connector-curvature="0" />
	<path style="fill:none;stroke:red;stroke-width:1px;stroke-linecap:butt;stroke-linejoin:miter;stroke-opacity:1" d="M 958.457,172.943 946.905,184.495 z" id="boundary" inkscape:connector-curvature="0" />
	<path style="fill:none;stroke:red;stroke-width:1px;stroke-linecap:butt;stroke-linejoin:miter;stroke-opacity:1" d="M 961.345,16.9956 972.897,27.1033 z" id="boundary" inkscape:connector-curvature="0" />
	<path style="fill:none;stroke:red;stroke-width:1px;stroke-linecap:butt;stroke-linejoin:miter;stroke-opacity:1" d="M 968.565,161.392 958.457,172.943 z" id="boundary" inkscape:connector-curvature="0" />
	<path style="fill:none;stroke:red;stroke-width:1px;stroke-linecap:butt;stroke-linejoin:miter;stroke-opacity:1" d="M 972.897,27.1033 981.56,38.655 z" id="boundary" inkscape:connector-curvature="0" />
	<path style="fill:none;stroke:red;stroke-width:1px;stroke-linecap:butt;stroke-linejoin:miter;stroke-opacity:1" d="M 977.229,148.396 968.565,161.392 z" id="boundary" inkscape:connector-curvature="0" />
	<path style="fill:none;stroke:red;stroke-width:1px;stroke-linecap:butt;stroke-linejoin:miter;stroke-opacity:1" d="M 981.56,38.655 988.78,51.6507 z" id="boundary" inkscape:connector-curvature="0" />
	<path style="fill:none;stroke:red;stroke-width:1px;stroke-linecap:butt;stroke-linejoin:miter;stroke-opacity:1" d="M 984.448,135.4 977.229,148.396 z" id="boundary" inkscape:connector-curvature="0" />
	<path style="fill:none;stroke:red;stroke-width:1px;stroke-linecap:butt;stroke-linejoin:miter;stroke-opacity:1" d="M 990.224,120.961 984.448,135.4 z" id="boundary" inkscape:connector-curvature="0" />
	<path style="fill:none;stroke:red;stroke-width:1px;stroke-linecap:butt;stroke-linejoin:miter;stroke-opacity:1" d="M 988.78,51.6507 994.556,66.0902 z" id="boundary" inkscape:connector-curvature="0" />
	<path style="fill:none;stroke:red;stroke-width:1px;stroke-linecap:butt;stroke-linejoin:miter;stroke-opacity:1" d="M 994.556,66.0902 996,80.5298 z" id="boundary" inkscape:connector-curvature="0" />
	<path style="fill:none;stroke:red;stroke-width:1px;stroke-linecap:butt;stroke-linejoin:miter;stroke-opacity:1" d="M 994.556,103.633 990.224,120.961 z" id="boundary" inkscape:connector-curvature="0" />
	<path style="fill:none;stroke:red;stroke-width:1px;stroke-linecap:butt;stroke-linejoin:miter;stroke-opacity:1" d="M 996,80.5298 994.556,103.633 z" id="boundary" inkscape:connector-curvature="0" />
	<circle cx="4" cy="184.495" r="4" fill="#0" id="circle0"/>
	<circle cx="4" cy="198.934" r="4" fill="#0" id="circle1"/>
	<circle cx="6.88792" cy="213.374" r="4" fill="#0" id="circle2"/>
	<circle cx="15.5517" cy="172.943" r="4" fill="#0" id="circle3"/>
	<circle cx="18.4396" cy="223.482" r="4" fill="#0" id="circle4"/>
	<circle cx="27.1033" cy="164.279" r="4" fill="#0" id="circle5"/>
	<circle cx="29.9913" cy="232.146" r="4" fill="#0" id="circle6"/>
	<circle cx="41.5429" cy="158.504" r="4" fill="#0" id="circle7"/>
	<circle cx="44.4309" cy="233.59" r="4" fill="#0" id="circle8"/>
	<circle cx="55.9825" cy="157.06" r="4" fill="#0" id="circle9"/>
	<circle cx="58.8705" cy="232.146" r="4" fill="#0" id="circle10"/>
	<circle cx="70.4221" cy="155.616" r="4" fill="#0" id="circle11"/>
	<circle cx="73.31" cy="230.702" r="4" fill="#0" id="circle12"/>
	<circle cx="84.8617" cy="154.172" r="4" fill="#0" id="circle13"/>
	<circle cx="87.7496" cy="227.814" r="4" fill="#0" id="circle14"/>
	<circle cx="99.3013" cy="152.728" r="4" fill="#0" id="circle15"/>
	<circle cx="102.189" cy="226.37" r="4" fill="#0" id="circle16"/>
	<circle cx="113.741" cy="151.284" r="4" fill="#0" id="circle17"/>
	<circle cx="116.629" cy="224.926" r="4" fill="#0" id="circle18"/>
	<circle cx="128.18" cy="151.284" r="4" fill="#0" id="circle19"/>
	<circle cx="131.068" cy="222.038" r="4" fill="#0" id="circle20"/>
	<circle cx="142.62" cy="149.84" r="4" fill="#0" id="circle21"/>
	<circle cx="145.508" cy="220.594" r="4" fill="#0" id="circle22"/>
	<circle cx="157.06" cy="148.396" r="4" fill="#0" id="circle23"/>
	<circle cx="159.948" cy="217.706" r="4" fill="#0" id="circle24"/>
	<circle cx="171.499" cy="146.952" r="4" fill="#0" id="circle25"/>
	<circle cx="174.387" cy="216.262" r="4" fill="#0" id="circle26"/>
	<circle cx="185.939" cy="146.952" r="4" fill="#0" id="circle27"/>
	<circle cx="188.827" cy="213.374" r="4" fill="#0" id="circle28"/>
	<circle cx="200.378" cy="145.508" r="4" fill="#0" id="circle29"/>
	<circle cx="203.266" cy="211.93" r="4" fill="#0" id="circle30"/>
	<circle cx="214.818" cy="144.064" r="4" fill="#0" id="circle31"/>
	<circle cx="217.706" cy="210.486" r="4" fill="#0" id="circle32"/>
	<circle cx="229.258" cy="144.064" r="4" fill="#0" id="circle33"/>
	<circle cx="232.146" cy="207.598" r="4" fill="#0" id="circle34"/>
	<circle cx="243.697" cy="142.62" r="4" fill="#0" id="circle35"/>
	<circle cx="246.585" cy="206.154" r="4" fill="#0" id="circle36"/>
	<circle cx="258.137" cy="141.176" r="4" fill="#0" id="circle37"/>
	<circle cx="261.025" cy="204.71" r="4" fill="#0" id="circle38"/>
	<circle cx="272.576" cy="141.176" r="4" fill="#0" id="circle39"/>
	<circle cx="275.464" cy="203.266" r="4" fill="#0" id="circle40"/>
	<circle cx="287.016" cy="139.732" r="4" fill="#0" id="circle41"/>
	<circle cx="289.904" cy="200.378" r="4" fill="#0" id="circle42"/>
	<circle cx="301.456" cy="139.732" r="4" fill="#0" id="circle43"/>
	<circle cx="304.344" cy="198.934" r="4" fill="#0" id="circle44"/>
	<circle cx="315.895" cy="138.288" r="4" fill="#0" id="circle45"/>
	<circle cx="318.783" cy="197.491" r="4" fill="#0" id="circle46"/>
	<circle cx="330.335" cy="138.288" r="4" fill="#0" id="circle47"/>
	<circle cx="333.223" cy="196.047" r="4" fill="#0" id="circle48"/>
	<circle cx="344.774" cy="138.288" r="4" fill="#0" id="circle49"/>
	<circle cx="347.662" cy="193.159" r="4" fill="#0" id="circle50"/>
	<circle cx="359.214" cy="136.844" r="4" fill="#0" id="circle51"/>
	<circle cx="362.102" cy="191.715" r="4" fill="#0" id="circle52"/>
	<circle cx="373.654" cy="136.844" r="4" fill="#0" id="circle53"/>
	<circle cx="376.541" cy="190.271" r="4" fill="#0" id="circle54"/>
	<circle cx="388.093" cy="136.844" r="4" fill="#0" id="circle55"/>
	<circle cx="390.981" cy="188.827" r="4" fill="#0" id="circle56"/>
	<circle cx="402.533" cy="135.4" r="4" fill="#0" id="circle57"/>
	<circle cx="405.421" cy="187.383" r="4" fill="#0" id="circle58"/>
	<circle cx="416.972" cy="135.4" r="4" fill="#0" id="circle59"/>
	<circle cx="419.86" cy="185.939" r="4" fill="#0" id="circle60"/>
	<circle cx="431.412" cy="135.4" r="4" fill="#0" id="circle61"/>
	<circle cx="434.3" cy="184.495" r="4" fill="#0" id="circle62"/>
	<circle cx="445.852" cy="135.4" r="4" fill="#0" id="circle63"/>
	<circle cx="448.739" cy="183.051" r="4" fill="#0" id="circle64"/>
	<circle cx="460.291" cy="133.956" r="4" fill="#0" id="circle65"/>
	<circle cx="463.179" cy="181.607" r="4" fill="#0" id="circle66"/>
	<circle cx="474.731" cy="132.512" r="4" fill="#0" id="circle67"/>
	<circle cx="477.619" cy="181.607" r="4" fill="#0" id="circle68"/>
	<circle cx="489.17" cy="131.068" r="4" fill="#0" id="circle69"/>
	<circle cx="492.058" cy="181.607" r="4" fill="#0" id="circle70"/>
	<circle cx="503.61" cy="129.624" r="4" fill="#0" id="circle71"/>
	<circle cx="506.498" cy="180.163" r="4" fill="#0" id="circle72"/>
	<circle cx="518.049" cy="128.18" r="4" fill="#0" id="circle73"/>
	<circle cx="520.937" cy="181.607" r="4" fill="#0" id="circle74"/>
	<circle cx="532.489" cy="126.737" r="4" fill="#0" id="circle75"/>
	<circle cx="535.377" cy="181.607" r="4" fill="#0" id="circle76"/>
	<circle cx="546.929" cy="125.293" r="4" fill="#0" id="circle77"/>
	<circle cx="549.817" cy="181.607" r="4" fill="#0" id="circle78"/>
	<circle cx="561.368" cy="122.405" r="4" fill="#0" id="circle79"/>
	<circle cx="564.256" cy="183.051" r="4" fill="#0" id="circle80"/>
	<circle cx="575.808" cy="119.517" r="4" fill="#0" id="circle81"/>
	<circle cx="578.696" cy="184.495" r="4" fill="#0" id="circle82"/>
	<circle cx="590.247" cy="116.629" r="4" fill="#0" id="circle83"/>
	<circle cx="593.135" cy="185.939" r="4" fill="#0" id="circle84"/>
	<circle cx="604.687" cy="113.741" r="4" fill="#0" id="circle85"/>
	<circle cx="607.575" cy="187.383" r="4" fill="#0" id="circle86"/>
	<circle cx="619.127" cy="109.409" r="4" fill="#0" id="circle87"/>
	<circle cx="622.015" cy="190.271" r="4" fill="#0" id="circle88"/>
	<circle cx="633.566" cy="103.633" r="4" fill="#0" id="circle89"/>
	<circle cx="636.454" cy="193.159" r="4" fill="#0" id="circle90"/>
	<circle cx="648.006" cy="97.8574" r="4" fill="#0" id="circle91"/>
	<circle cx="650.894" cy="196.047" r="4" fill="#0" id="circle92"/>
	<circle cx="662.445" cy="90.6376" r="4" fill="#0" id="circle93"/>
	<circle cx="665.333" cy="198.934" r="4" fill="#0" id="circle94"/>
	<circle cx="675.441" cy="83.4178" r="4" fill="#0" id="circle95"/>
	<circle cx="679.773" cy="203.266" r="4" fill="#0" id="circle96"/>
	<circle cx="688.437" cy="76.198" r="4" fill="#0" id="circle97"/>
	<circle cx="694.213" cy="206.154" r="4" fill="#0" id="circle98"/>
	<circle cx="701.432" cy="67.5342" r="4" fill="#0" id="circle99"/>
	<circle cx="708.652" cy="210.486" r="4" fill="#0" id="circle100"/>
	<circle cx="714.428" cy="58.8705" r="4" fill="#0" id="circle101"/>
	<circle cx="723.092" cy="213.374" r="4" fill="#0" id="circle102"/>
	<circle cx="727.424" cy="50.2067" r="4" fill="#0" id="circle103"/>
	<circle cx="737.531" cy="217.706" r="4" fill="#0" id="circle104"/>
	<circle cx="740.419" cy="42.9869" r="4" fill="#0" id="circle105"/>
	<circle cx="751.971" cy="34.3231" r="4" fill="#0" id="circle106"/>
	<circle cx="751.971" cy="220.594" r="4" fill="#0" id="circle107"/>
	<circle cx="764.967" cy="27.1033" r="4" fill="#0" id="circle108"/>
	<circle cx="766.41" cy="223.482" r="4" fill="#0" id="circle109"/>
	<circle cx="777.962" cy="19.8836" r="4" fill="#0" id="circle110"/>
	<circle cx="780.85" cy="226.37" r="4" fill="#0" id="circle111"/>
	<circle cx="790.958" cy="12.6638" r="4" fill="#0" id="circle112"/>
	<circle cx="795.29" cy="227.814" r="4" fill="#0" id="circle113"/>
	<circle cx="805.397" cy="6.88792" r="4" fill="#0" id="circle114"/>
	<circle cx="809.729" cy="229.258" r="4" fill="#0" id="circle115"/>
	<circle cx="819.837" cy="4" r="4" fill="#0" id="circle116"/>
	<circle cx="824.169" cy="229.258" r="4" fill="#0" id="circle117"/>
	<circle cx="834.277" cy="5.44396" r="4" fill="#0" id="circle118"/>
	<circle cx="838.608" cy="229.258" r="4" fill="#0" id="circle119"/>
	<circle cx="848.716" cy="8.33188" r="4" fill="#0" id="circle120"/>
	<circle cx="853.048" cy="227.814" r="4" fill="#0" id="circle121"/>
	<circle cx="863.156" cy="8.33188" r="4" fill="#0" id="circle122"/>
	<circle cx="867.488" cy="224.926" r="4" fill="#0" id="circle123"/>
	<circle cx="877.595" cy="6.88792" r="4" fill="#0" id="circle124"/>
	<circle cx="881.927" cy="222.038" r="4" fill="#0" id="circle125"/>
	<circle cx="892.035" cy="6.88792" r="4" fill="#0" id="circle126"/>
	<circle cx="896.367" cy="216.262" r="4" fill="#0" id="circle127"/>
	<circle cx="906.475" cy="6.88792" r="4" fill="#0" id="circle128"/>
	<circle cx="910.806" cy="210.486" r="4" fill="#0" id="circle129"/>
	<circle cx="920.914" cy="6.88792" r="4" fill="#0" id="circle130"/>
	<circle cx="923.802" cy="203.266" r="4" fill="#0" id="circle131"/>
	<circle cx="935.354" cy="5.44396" r="4" fill="#0" id="circle132"/>
	<circle cx="935.354" cy="194.603" r="4" fill="#0" id="circle133"/>
	<circle cx="946.905" cy="184.495" r="4" fill="#0" id="circle134"/>
	<circle cx="949.793" cy="8.33188" r="4" fill="#0" id="circle135"/>
	<circle cx="958.457" cy="172.943" r="4" fill="#0" id="circle136"/>
	<circle cx="961.345" cy="16.9956" r="4" fill="#0" id="circle137"/>
	<circle cx="968.565" cy="161.392" r="4" fill="#0" id="circle138"/>
	<circle cx="972.897" cy="27.1033" r="4" fill="#0" id="circle139"/>
	<circle cx="977.229" cy="148.396" r="4" fill="#0" id="circle140"/>
	<circle cx="981.56" cy="38.655" r="4" fill="#0" id="circle141"/>
	<circle cx="984.448" cy="135.4" r="4" fill="#0" id="circle142"/>
	<circle cx="988.78" cy="51.6507" r="4" fill="#0" id="circle143"/>
	<circle cx="990.224" cy="120.961" r="4" fill="#0" id="circle144"/>
	<circle cx="994.556" cy="66.0902" r="4" fill="#0" id="circle145"/>
	<circle cx="994.556" cy="103.633" r="4" fill="#0" id="circle146"/>
	<circle cx="996" cy="80.5298" r="4" fill="#0" id="circle147"/>
	</g>
</svg>