<?xml version="1.0" encoding="UTF-8" standalone="no"?>
<!-- Created with CurveBenchmark -->
<svg
	xmlns:dc="http://purl.org/dc/elements/1.1/"
	xmlns:cc="http://creativecommons.org/ns#"
	xmlns:rdf="http://www.w3.org/1999/02/22-rdf-syntax-ns#"
	xmlns:svg="http://www.w3.org/2000/svg"
	xmlns="http://www.w3.org/2000/svg"
	xmlns:sodipodi="http://sodipodi.sourceforge.net/DTD/sodipodi-0.dtd"
	xmlns:inkscape="http://www.inkscape.org/namespaces/inkscape"
	width="1000"
	height="1000"
	id="svg2"
	version="1.1"
	sodipodi:docname="manifold/stretchdenoise-woodenspoonbinary57.png.txt">
<defs
	id="defs4" />
<metadata
	id="metadata7">
	<rdf:RDF>
		<cc:Work
			rdf:about="">
			<dc:format>image/svg+xml</dc:format>
			<dc:type
				rdf:resource="http://purl.org/dc/dcmitype/StillImage" />
			<dc:title></dc:title>
		</cc:Work>
	</rdf:RDF>
</metadata>
<g
	inkscape:label="Layer 1"
	inkscape:groupmode="layer"
	id="layer1">
	<path style="fill:none;stroke:red;stroke-width:1px;stroke-linecap:butt;stroke-linejoin:miter;stroke-opacity:1" d="M 4,34.0606 16.5253,56.6061 z" id="boundary" inkscape:connector-curvature="0" />
	<path style="fill:none;stroke:red;stroke-width:1px;stroke-linecap:butt;stroke-linejoin:miter;stroke-opacity:1" d="M 4,34.0606 19.0303,14.0202 z" id="boundary" inkscape:connector-curvature="0" />
	<path style="fill:none;stroke:red;stroke-width:1px;stroke-linecap:butt;stroke-linejoin:miter;stroke-opacity:1" d="M 16.5253,56.6061 41.5758,64.1212 z" id="boundary" inkscape:connector-curvature="0" />
	<path style="fill:none;stroke:red;stroke-width:1px;stroke-linecap:butt;stroke-linejoin:miter;stroke-opacity:1" d="M 19.0303,14.0202 44.0808,4 z" id="boundary" inkscape:connector-curvature="0" />
	<path style="fill:none;stroke:red;stroke-width:1px;stroke-linecap:butt;stroke-linejoin:miter;stroke-opacity:1" d="M 41.5758,64.1212 66.6263,69.1313 z" id="boundary" inkscape:connector-curvature="0" />
	<path style="fill:none;stroke:red;stroke-width:1px;stroke-linecap:butt;stroke-linejoin:miter;stroke-opacity:1" d="M 44.0808,4 69.1313,4 z" id="boundary" inkscape:connector-curvature="0" />
	<path style="fill:none;stroke:red;stroke-width:1px;stroke-linecap:butt;stroke-linejoin:miter;stroke-opacity:1" d="M 66.6263,69.1313 91.6768,71.6364 z" id="boundary" inkscape:connector-curvature="0" />
	<path style="fill:none;stroke:red;stroke-width:1px;stroke-linecap:butt;stroke-linejoin:miter;stroke-opacity:1" d="M 69.1313,4 94.1818,11.5151 z" id="boundary" inkscape:connector-curvature="0" />
	<path style="fill:none;stroke:red;stroke-width:1px;stroke-linecap:butt;stroke-linejoin:miter;stroke-opacity:1" d="M 91.6768,71.6364 116.727,79.1515 z" id="boundary" inkscape:connector-curvature="0" />
	<path style="fill:none;stroke:red;stroke-width:1px;stroke-linecap:butt;stroke-linejoin:miter;stroke-opacity:1" d="M 94.1818,11.5151 119.232,21.5354 z" id="boundary" inkscape:connector-curvature="0" />
	<path style="fill:none;stroke:red;stroke-width:1px;stroke-linecap:butt;stroke-linejoin:miter;stroke-opacity:1" d="M 116.727,79.1515 141.778,86.6667 z" id="boundary" inkscape:connector-curvature="0" />
	<path style="fill:none;stroke:red;stroke-width:1px;stroke-linecap:butt;stroke-linejoin:miter;stroke-opacity:1" d="M 119.232,21.5354 141.778,34.0606 z" id="boundary" inkscape:connector-curvature="0" />
	<path style="fill:none;stroke:red;stroke-width:1px;stroke-linecap:butt;stroke-linejoin:miter;stroke-opacity:1" d="M 141.778,34.0606 164.323,46.5859 z" id="boundary" inkscape:connector-curvature="0" />
	<path style="fill:none;stroke:red;stroke-width:1px;stroke-linecap:butt;stroke-linejoin:miter;stroke-opacity:1" d="M 141.778,86.6667 166.771,96.829 z" id="boundary" inkscape:connector-curvature="0" />
	<path style="fill:none;stroke:red;stroke-width:1px;stroke-linecap:butt;stroke-linejoin:miter;stroke-opacity:1" d="M 164.323,46.5859 189.374,56.606 z" id="boundary" inkscape:connector-curvature="0" />
	<path style="fill:none;stroke:red;stroke-width:1px;stroke-linecap:butt;stroke-linejoin:miter;stroke-opacity:1" d="M 166.771,96.829 191.879,106.707 z" id="boundary" inkscape:connector-curvature="0" />
	<path style="fill:none;stroke:red;stroke-width:1px;stroke-linecap:butt;stroke-linejoin:miter;stroke-opacity:1" d="M 189.374,56.606 211.919,69.1313 z" id="boundary" inkscape:connector-curvature="0" />
	<path style="fill:none;stroke:red;stroke-width:1px;stroke-linecap:butt;stroke-linejoin:miter;stroke-opacity:1" d="M 191.879,106.707 216.929,114.222 z" id="boundary" inkscape:connector-curvature="0" />
	<path style="fill:none;stroke:red;stroke-width:1px;stroke-linecap:butt;stroke-linejoin:miter;stroke-opacity:1" d="M 211.919,69.1313 231.96,86.6667 z" id="boundary" inkscape:connector-curvature="0" />
	<path style="fill:none;stroke:red;stroke-width:1px;stroke-linecap:butt;stroke-linejoin:miter;stroke-opacity:1" d="M 216.929,114.222 239.475,126.747 z" id="boundary" inkscape:connector-curvature="0" />
	<path style="fill:none;stroke:red;stroke-width:1px;stroke-linecap:butt;stroke-linejoin:miter;stroke-opacity:1" d="M 231.96,86.6667 257.01,96.6869 z" id="boundary" inkscape:connector-curvature="0" />
	<path style="fill:none;stroke:red;stroke-width:1px;stroke-linecap:butt;stroke-linejoin:miter;stroke-opacity:1" d="M 239.475,126.747 264.525,136.768 z" id="boundary" inkscape:connector-curvature="0" />
	<path style="fill:none;stroke:red;stroke-width:1px;stroke-linecap:butt;stroke-linejoin:miter;stroke-opacity:1" d="M 257.01,96.6869 279.556,109.212 z" id="boundary" inkscape:connector-curvature="0" />
	<path style="fill:none;stroke:red;stroke-width:1px;stroke-linecap:butt;stroke-linejoin:miter;stroke-opacity:1" d="M 264.525,136.768 289.576,146.788 z" id="boundary" inkscape:connector-curvature="0" />
	<path style="fill:none;stroke:red;stroke-width:1px;stroke-linecap:butt;stroke-linejoin:miter;stroke-opacity:1" d="M 279.556,109.212 304.606,119.232 z" id="boundary" inkscape:connector-curvature="0" />
	<path style="fill:none;stroke:red;stroke-width:1px;stroke-linecap:butt;stroke-linejoin:miter;stroke-opacity:1" d="M 289.576,146.788 312.121,159.313 z" id="boundary" inkscape:connector-curvature="0" />
	<path style="fill:none;stroke:red;stroke-width:1px;stroke-linecap:butt;stroke-linejoin:miter;stroke-opacity:1" d="M 304.606,119.232 329.657,129.253 z" id="boundary" inkscape:connector-curvature="0" />
	<path style="fill:none;stroke:red;stroke-width:1px;stroke-linecap:butt;stroke-linejoin:miter;stroke-opacity:1" d="M 312.121,159.313 327.152,179.354 z" id="boundary" inkscape:connector-curvature="0" />
	<path style="fill:none;stroke:red;stroke-width:1px;stroke-linecap:butt;stroke-linejoin:miter;stroke-opacity:1" d="M 327.152,179.354 349.697,191.879 z" id="boundary" inkscape:connector-curvature="0" />
	<path style="fill:none;stroke:red;stroke-width:1px;stroke-linecap:butt;stroke-linejoin:miter;stroke-opacity:1" d="M 329.657,129.253 352.202,141.778 z" id="boundary" inkscape:connector-curvature="0" />
	<path style="fill:none;stroke:red;stroke-width:1px;stroke-linecap:butt;stroke-linejoin:miter;stroke-opacity:1" d="M 349.697,191.879 374.747,199.394 z" id="boundary" inkscape:connector-curvature="0" />
	<path style="fill:none;stroke:red;stroke-width:1px;stroke-linecap:butt;stroke-linejoin:miter;stroke-opacity:1" d="M 352.202,141.778 377.253,149.293 z" id="boundary" inkscape:connector-curvature="0" />
	<path style="fill:none;stroke:red;stroke-width:1px;stroke-linecap:butt;stroke-linejoin:miter;stroke-opacity:1" d="M 374.747,199.394 399.798,209.414 z" id="boundary" inkscape:connector-curvature="0" />
	<path style="fill:none;stroke:red;stroke-width:1px;stroke-linecap:butt;stroke-linejoin:miter;stroke-opacity:1" d="M 377.253,149.293 402.303,159.313 z" id="boundary" inkscape:connector-curvature="0" />
	<path style="fill:none;stroke:red;stroke-width:1px;stroke-linecap:butt;stroke-linejoin:miter;stroke-opacity:1" d="M 399.798,209.414 422.343,221.939 z" id="boundary" inkscape:connector-curvature="0" />
	<path style="fill:none;stroke:red;stroke-width:1px;stroke-linecap:butt;stroke-linejoin:miter;stroke-opacity:1" d="M 402.303,159.313 424.848,171.838 z" id="boundary" inkscape:connector-curvature="0" />
	<path style="fill:none;stroke:red;stroke-width:1px;stroke-linecap:butt;stroke-linejoin:miter;stroke-opacity:1" d="M 422.343,221.939 447.394,231.96 z" id="boundary" inkscape:connector-curvature="0" />
	<path style="fill:none;stroke:red;stroke-width:1px;stroke-linecap:butt;stroke-linejoin:miter;stroke-opacity:1" d="M 424.848,171.838 449.848,179.523 z" id="boundary" inkscape:connector-curvature="0" />
	<path style="fill:none;stroke:red;stroke-width:1px;stroke-linecap:butt;stroke-linejoin:miter;stroke-opacity:1" d="M 447.394,231.96 469.939,244.485 z" id="boundary" inkscape:connector-curvature="0" />
	<path style="fill:none;stroke:red;stroke-width:1px;stroke-linecap:butt;stroke-linejoin:miter;stroke-opacity:1" d="M 449.848,179.523 474.982,186.76 z" id="boundary" inkscape:connector-curvature="0" />
	<path style="fill:none;stroke:red;stroke-width:1px;stroke-linecap:butt;stroke-linejoin:miter;stroke-opacity:1" d="M 469.939,244.485 494.99,254.505 z" id="boundary" inkscape:connector-curvature="0" />
	<path style="fill:none;stroke:red;stroke-width:1px;stroke-linecap:butt;stroke-linejoin:miter;stroke-opacity:1" d="M 474.982,186.76 500,194.384 z" id="boundary" inkscape:connector-curvature="0" />
	<path style="fill:none;stroke:red;stroke-width:1px;stroke-linecap:butt;stroke-linejoin:miter;stroke-opacity:1" d="M 494.99,254.505 517.535,267.03 z" id="boundary" inkscape:connector-curvature="0" />
	<path style="fill:none;stroke:red;stroke-width:1px;stroke-linecap:butt;stroke-linejoin:miter;stroke-opacity:1" d="M 500,194.384 525.051,199.394 z" id="boundary" inkscape:connector-curvature="0" />
	<path style="fill:none;stroke:red;stroke-width:1px;stroke-linecap:butt;stroke-linejoin:miter;stroke-opacity:1" d="M 517.535,267.03 540.081,279.556 z" id="boundary" inkscape:connector-curvature="0" />
	<path style="fill:none;stroke:red;stroke-width:1px;stroke-linecap:butt;stroke-linejoin:miter;stroke-opacity:1" d="M 525.051,199.394 550.101,206.909 z" id="boundary" inkscape:connector-curvature="0" />
	<path style="fill:none;stroke:red;stroke-width:1px;stroke-linecap:butt;stroke-linejoin:miter;stroke-opacity:1" d="M 540.081,279.556 560.121,294.586 z" id="boundary" inkscape:connector-curvature="0" />
	<path style="fill:none;stroke:red;stroke-width:1px;stroke-linecap:butt;stroke-linejoin:miter;stroke-opacity:1" d="M 550.101,206.909 575.154,209.391 z" id="boundary" inkscape:connector-curvature="0" />
	<path style="fill:none;stroke:red;stroke-width:1px;stroke-linecap:butt;stroke-linejoin:miter;stroke-opacity:1" d="M 560.121,294.586 582.667,307.111 z" id="boundary" inkscape:connector-curvature="0" />
	<path style="fill:none;stroke:red;stroke-width:1px;stroke-linecap:butt;stroke-linejoin:miter;stroke-opacity:1" d="M 575.154,209.391 600.2,211.938 z" id="boundary" inkscape:connector-curvature="0" />
	<path style="fill:none;stroke:red;stroke-width:1px;stroke-linecap:butt;stroke-linejoin:miter;stroke-opacity:1" d="M 582.667,307.111 602.707,322.141 z" id="boundary" inkscape:connector-curvature="0" />
	<path style="fill:none;stroke:red;stroke-width:1px;stroke-linecap:butt;stroke-linejoin:miter;stroke-opacity:1" d="M 600.2,211.938 625.253,214.424 z" id="boundary" inkscape:connector-curvature="0" />
	<path style="fill:none;stroke:red;stroke-width:1px;stroke-linecap:butt;stroke-linejoin:miter;stroke-opacity:1" d="M 602.707,322.141 625.253,334.667 z" id="boundary" inkscape:connector-curvature="0" />
	<path style="fill:none;stroke:red;stroke-width:1px;stroke-linecap:butt;stroke-linejoin:miter;stroke-opacity:1" d="M 625.253,214.424 650.303,211.919 z" id="boundary" inkscape:connector-curvature="0" />
	<path style="fill:none;stroke:red;stroke-width:1px;stroke-linecap:butt;stroke-linejoin:miter;stroke-opacity:1" d="M 625.253,334.667 645.293,349.697 z" id="boundary" inkscape:connector-curvature="0" />
	<path style="fill:none;stroke:red;stroke-width:1px;stroke-linecap:butt;stroke-linejoin:miter;stroke-opacity:1" d="M 645.293,349.697 667.838,362.222 z" id="boundary" inkscape:connector-curvature="0" />
	<path style="fill:none;stroke:red;stroke-width:1px;stroke-linecap:butt;stroke-linejoin:miter;stroke-opacity:1" d="M 650.303,211.919 675.354,214.424 z" id="boundary" inkscape:connector-curvature="0" />
	<path style="fill:none;stroke:red;stroke-width:1px;stroke-linecap:butt;stroke-linejoin:miter;stroke-opacity:1" d="M 667.838,362.222 687.879,377.252 z" id="boundary" inkscape:connector-curvature="0" />
	<path style="fill:none;stroke:red;stroke-width:1px;stroke-linecap:butt;stroke-linejoin:miter;stroke-opacity:1" d="M 675.354,214.424 700.404,214.424 z" id="boundary" inkscape:connector-curvature="0" />
	<path style="fill:none;stroke:red;stroke-width:1px;stroke-linecap:butt;stroke-linejoin:miter;stroke-opacity:1" d="M 687.879,377.252 712.929,387.273 z" id="boundary" inkscape:connector-curvature="0" />
	<path style="fill:none;stroke:red;stroke-width:1px;stroke-linecap:butt;stroke-linejoin:miter;stroke-opacity:1" d="M 700.404,214.424 725.426,217.215 z" id="boundary" inkscape:connector-curvature="0" />
	<path style="fill:none;stroke:red;stroke-width:1px;stroke-linecap:butt;stroke-linejoin:miter;stroke-opacity:1" d="M 712.929,387.273 735.475,399.798 z" id="boundary" inkscape:connector-curvature="0" />
	<path style="fill:none;stroke:red;stroke-width:1px;stroke-linecap:butt;stroke-linejoin:miter;stroke-opacity:1" d="M 725.426,217.215 750.416,220.32 z" id="boundary" inkscape:connector-curvature="0" />
	<path style="fill:none;stroke:red;stroke-width:1px;stroke-linecap:butt;stroke-linejoin:miter;stroke-opacity:1" d="M 735.475,399.798 760.525,409.818 z" id="boundary" inkscape:connector-curvature="0" />
	<path style="fill:none;stroke:red;stroke-width:1px;stroke-linecap:butt;stroke-linejoin:miter;stroke-opacity:1" d="M 750.416,220.32 775.483,222.661 z" id="boundary" inkscape:connector-curvature="0" />
	<path style="fill:none;stroke:red;stroke-width:1px;stroke-linecap:butt;stroke-linejoin:miter;stroke-opacity:1" d="M 760.525,409.818 785.576,412.323 z" id="boundary" inkscape:connector-curvature="0" />
	<path style="fill:none;stroke:red;stroke-width:1px;stroke-linecap:butt;stroke-linejoin:miter;stroke-opacity:1" d="M 775.483,222.661 800.606,224.444 z" id="boundary" inkscape:connector-curvature="0" />
	<path style="fill:none;stroke:red;stroke-width:1px;stroke-linecap:butt;stroke-linejoin:miter;stroke-opacity:1" d="M 785.576,412.323 808.186,399.914 z" id="boundary" inkscape:connector-curvature="0" />
	<path style="fill:none;stroke:red;stroke-width:1px;stroke-linecap:butt;stroke-linejoin:miter;stroke-opacity:1" d="M 800.606,224.444 825.675,229.362 z" id="boundary" inkscape:connector-curvature="0" />
	<path style="fill:none;stroke:red;stroke-width:1px;stroke-linecap:butt;stroke-linejoin:miter;stroke-opacity:1" d="M 808.186,399.914 830.667,387.273 z" id="boundary" inkscape:connector-curvature="0" />
	<path style="fill:none;stroke:red;stroke-width:1px;stroke-linecap:butt;stroke-linejoin:miter;stroke-opacity:1" d="M 825.675,229.362 850.707,234.465 z" id="boundary" inkscape:connector-curvature="0" />
	<path style="fill:none;stroke:red;stroke-width:1px;stroke-linecap:butt;stroke-linejoin:miter;stroke-opacity:1" d="M 830.667,387.273 856.37,383.25 z" id="boundary" inkscape:connector-curvature="0" />
	<path style="fill:none;stroke:red;stroke-width:1px;stroke-linecap:butt;stroke-linejoin:miter;stroke-opacity:1" d="M 850.707,234.465 875.758,241.98 z" id="boundary" inkscape:connector-curvature="0" />
	<path style="fill:none;stroke:red;stroke-width:1px;stroke-linecap:butt;stroke-linejoin:miter;stroke-opacity:1" d="M 856.37,383.25 880.768,392.283 z" id="boundary" inkscape:connector-curvature="0" />
	<path style="fill:none;stroke:red;stroke-width:1px;stroke-linecap:butt;stroke-linejoin:miter;stroke-opacity:1" d="M 875.758,241.98 900.808,252 z" id="boundary" inkscape:connector-curvature="0" />
	<path style="fill:none;stroke:red;stroke-width:1px;stroke-linecap:butt;stroke-linejoin:miter;stroke-opacity:1" d="M 880.768,392.283 905.818,392.283 z" id="boundary" inkscape:connector-curvature="0" />
	<path style="fill:none;stroke:red;stroke-width:1px;stroke-linecap:butt;stroke-linejoin:miter;stroke-opacity:1" d="M 900.808,252 923.354,264.525 z" id="boundary" inkscape:connector-curvature="0" />
	<path style="fill:none;stroke:red;stroke-width:1px;stroke-linecap:butt;stroke-linejoin:miter;stroke-opacity:1" d="M 905.818,392.283 930.869,389.778 z" id="boundary" inkscape:connector-curvature="0" />
	<path style="fill:none;stroke:red;stroke-width:1px;stroke-linecap:butt;stroke-linejoin:miter;stroke-opacity:1" d="M 923.354,264.525 945.899,277.051 z" id="boundary" inkscape:connector-curvature="0" />
	<path style="fill:none;stroke:red;stroke-width:1px;stroke-linecap:butt;stroke-linejoin:miter;stroke-opacity:1" d="M 930.869,389.778 955.919,384.768 z" id="boundary" inkscape:connector-curvature="0" />
	<path style="fill:none;stroke:red;stroke-width:1px;stroke-linecap:butt;stroke-linejoin:miter;stroke-opacity:1" d="M 945.899,277.051 965.939,292.081 z" id="boundary" inkscape:connector-curvature="0" />
	<path style="fill:none;stroke:red;stroke-width:1px;stroke-linecap:butt;stroke-linejoin:miter;stroke-opacity:1" d="M 955.919,384.768 980.97,372.242 z" id="boundary" inkscape:connector-curvature="0" />
	<path style="fill:none;stroke:red;stroke-width:1px;stroke-linecap:butt;stroke-linejoin:miter;stroke-opacity:1" d="M 965.939,292.081 983.475,312.121 z" id="boundary" inkscape:connector-curvature="0" />
	<path style="fill:none;stroke:red;stroke-width:1px;stroke-linecap:butt;stroke-linejoin:miter;stroke-opacity:1" d="M 980.97,372.242 996,334.667 z" id="boundary" inkscape:connector-curvature="0" />
	<path style="fill:none;stroke:red;stroke-width:1px;stroke-linecap:butt;stroke-linejoin:miter;stroke-opacity:1" d="M 983.475,312.121 996,334.667 z" id="boundary" inkscape:connector-curvature="0" />
	<circle cx="4" cy="34.0606" r="4" fill="#0" id="circle0"/>
	<circle cx="16.5253" cy="56.6061" r="4" fill="#0" id="circle1"/>
	<circle cx="19.0303" cy="14.0202" r="4" fill="#0" id="circle2"/>
	<circle cx="41.5758" cy="64.1212" r="4" fill="#0" id="circle3"/>
	<circle cx="44.0808" cy="4" r="4" fill="#0" id="circle4"/>
	<circle cx="66.6263" cy="69.1313" r="4" fill="#0" id="circle5"/>
	<circle cx="69.1313" cy="4" r="4" fill="#0" id="circle6"/>
	<circle cx="91.6768" cy="71.6364" r="4" fill="#0" id="circle7"/>
	<circle cx="94.1818" cy="11.5151" r="4" fill="#0" id="circle8"/>
	<circle cx="116.727" cy="79.1515" r="4" fill="#0" id="circle9"/>
	<circle cx="119.232" cy="21.5354" r="4" fill="#0" id="circle10"/>
	<circle cx="141.778" cy="34.0606" r="4" fill="#0" id="circle11"/>
	<circle cx="141.778" cy="86.6667" r="4" fill="#0" id="circle12"/>
	<circle cx="164.323" cy="46.5859" r="4" fill="#0" id="circle13"/>
	<circle cx="166.771" cy="96.829" r="4" fill="#0" id="circle14"/>
	<circle cx="189.374" cy="56.606" r="4" fill="#0" id="circle15"/>
	<circle cx="191.879" cy="106.707" r="4" fill="#0" id="circle16"/>
	<circle cx="211.919" cy="69.1313" r="4" fill="#0" id="circle17"/>
	<circle cx="216.929" cy="114.222" r="4" fill="#0" id="circle18"/>
	<circle cx="231.96" cy="86.6667" r="4" fill="#0" id="circle19"/>
	<circle cx="239.475" cy="126.747" r="4" fill="#0" id="circle20"/>
	<circle cx="257.01" cy="96.6869" r="4" fill="#0" id="circle21"/>
	<circle cx="264.525" cy="136.768" r="4" fill="#0" id="circle22"/>
	<circle cx="279.556" cy="109.212" r="4" fill="#0" id="circle23"/>
	<circle cx="289.576" cy="146.788" r="4" fill="#0" id="circle24"/>
	<circle cx="304.606" cy="119.232" r="4" fill="#0" id="circle25"/>
	<circle cx="312.121" cy="159.313" r="4" fill="#0" id="circle26"/>
	<circle cx="327.152" cy="179.354" r="4" fill="#0" id="circle27"/>
	<circle cx="329.657" cy="129.253" r="4" fill="#0" id="circle28"/>
	<circle cx="349.697" cy="191.879" r="4" fill="#0" id="circle29"/>
	<circle cx="352.202" cy="141.778" r="4" fill="#0" id="circle30"/>
	<circle cx="374.747" cy="199.394" r="4" fill="#0" id="circle31"/>
	<circle cx="377.253" cy="149.293" r="4" fill="#0" id="circle32"/>
	<circle cx="399.798" cy="209.414" r="4" fill="#0" id="circle33"/>
	<circle cx="402.303" cy="159.313" r="4" fill="#0" id="circle34"/>
	<circle cx="422.343" cy="221.939" r="4" fill="#0" id="circle35"/>
	<circle cx="424.848" cy="171.838" r="4" fill="#0" id="circle36"/>
	<circle cx="447.394" cy="231.96" r="4" fill="#0" id="circle37"/>
	<circle cx="449.848" cy="179.523" r="4" fill="#0" id="circle38"/>
	<circle cx="469.939" cy="244.485" r="4" fill="#0" id="circle39"/>
	<circle cx="474.982" cy="186.76" r="4" fill="#0" id="circle40"/>
	<circle cx="494.99" cy="254.505" r="4" fill="#0" id="circle41"/>
	<circle cx="500" cy="194.384" r="4" fill="#0" id="circle42"/>
	<circle cx="517.535" cy="267.03" r="4" fill="#0" id="circle43"/>
	<circle cx="525.051" cy="199.394" r="4" fill="#0" id="circle44"/>
	<circle cx="540.081" cy="279.556" r="4" fill="#0" id="circle45"/>
	<circle cx="550.101" cy="206.909" r="4" fill="#0" id="circle46"/>
	<circle cx="560.121" cy="294.586" r="4" fill="#0" id="circle47"/>
	<circle cx="575.154" cy="209.391" r="4" fill="#0" id="circle48"/>
	<circle cx="582.667" cy="307.111" r="4" fill="#0" id="circle49"/>
	<circle cx="600.2" cy="211.938" r="4" fill="#0" id="circle50"/>
	<circle cx="602.707" cy="322.141" r="4" fill="#0" id="circle51"/>
	<circle cx="625.253" cy="214.424" r="4" fill="#0" id="circle52"/>
	<circle cx="625.253" cy="334.667" r="4" fill="#0" id="circle53"/>
	<circle cx="645.293" cy="349.697" r="4" fill="#0" id="circle54"/>
	<circle cx="650.303" cy="211.919" r="4" fill="#0" id="circle55"/>
	<circle cx="667.838" cy="362.222" r="4" fill="#0" id="circle56"/>
	<circle cx="675.354" cy="214.424" r="4" fill="#0" id="circle57"/>
	<circle cx="687.879" cy="377.252" r="4" fill="#0" id="circle58"/>
	<circle cx="700.404" cy="214.424" r="4" fill="#0" id="circle59"/>
	<circle cx="712.929" cy="387.273" r="4" fill="#0" id="circle60"/>
	<circle cx="725.426" cy="217.215" r="4" fill="#0" id="circle61"/>
	<circle cx="735.475" cy="399.798" r="4" fill="#0" id="circle62"/>
	<circle cx="750.416" cy="220.32" r="4" fill="#0" id="circle63"/>
	<circle cx="760.525" cy="409.818" r="4" fill="#0" id="circle64"/>
	<circle cx="775.483" cy="222.661" r="4" fill="#0" id="circle65"/>
	<circle cx="785.576" cy="412.323" r="4" fill="#0" id="circle66"/>
	<circle cx="800.606" cy="224.444" r="4" fill="#0" id="circle67"/>
	<circle cx="808.186" cy="399.914" r="4" fill="#0" id="circle68"/>
	<circle cx="825.675" cy="229.362" r="4" fill="#0" id="circle69"/>
	<circle cx="830.667" cy="387.273" r="4" fill="#0" id="circle70"/>
	<circle cx="850.707" cy="234.465" r="4" fill="#0" id="circle71"/>
	<circle cx="856.37" cy="383.25" r="4" fill="#0" id="circle72"/>
	<circle cx="875.758" cy="241.98" r="4" fill="#0" id="circle73"/>
	<circle cx="880.768" cy="392.283" r="4" fill="#0" id="circle74"/>
	<circle cx="900.808" cy="252" r="4" fill="#0" id="circle75"/>
	<circle cx="905.818" cy="392.283" r="4" fill="#0" id="circle76"/>
	<circle cx="923.354" cy="264.525" r="4" fill="#0" id="circle77"/>
	<circle cx="930.869" cy="389.778" r="4" fill="#0" id="circle78"/>
	<circle cx="945.899" cy="277.051" r="4" fill="#0" id="circle79"/>
	<circle cx="955.919" cy="384.768" r="4" fill="#0" id="circle80"/>
	<circle cx="965.939" cy="292.081" r="4" fill="#0" id="circle81"/>
	<circle cx="980.97" cy="372.242" r="4" fill="#0" id="circle82"/>
	<circle cx="983.475" cy="312.121" r="4" fill="#0" id="circle83"/>
	<circle cx="996" cy="334.667" r="4" fill="#0" id="circle84"/>
	</g>
</svg>