<?xml version="1.0" encoding="UTF-8" standalone="no"?>
<!-- Created with CurveBenchmark -->
<svg
	xmlns:dc="http://purl.org/dc/elements/1.1/"
	xmlns:cc="http://creativecommons.org/ns#"
	xmlns:rdf="http://www.w3.org/1999/02/22-rdf-syntax-ns#"
	xmlns:svg="http://www.w3.org/2000/svg"
	xmlns="http://www.w3.org/2000/svg"
	xmlns:sodipodi="http://sodipodi.sourceforge.net/DTD/sodipodi-0.dtd"
	xmlns:inkscape="http://www.inkscape.org/namespaces/inkscape"
	width="1000"
	height="1000"
	id="svg2"
	version="1.1"
	sodipodi:docname="manifold/stretchdenoise-fish115.png.txt">
<defs
	id="defs4" />
<metadata
	id="metadata7">
	<rdf:RDF>
		<cc:Work
			rdf:about="">
			<dc:format>image/svg+xml</dc:format>
			<dc:type
				rdf:resource="http://purl.org/dc/dcmitype/StillImage" />
			<dc:title></dc:title>
		</cc:Work>
	</rdf:RDF>
</metadata>
<g
	inkscape:label="Layer 1"
	inkscape:groupmode="layer"
	id="layer1">
	<path style="fill:none;stroke:red;stroke-width:1px;stroke-linecap:butt;stroke-linejoin:miter;stroke-opacity:1" d="M 4,267.076 4,329.377 z" id="boundary" inkscape:connector-curvature="0" />
	<path style="fill:none;stroke:red;stroke-width:1px;stroke-linecap:butt;stroke-linejoin:miter;stroke-opacity:1" d="M 4,267.076 66.3012,267.076 z" id="boundary" inkscape:connector-curvature="0" />
	<path style="fill:none;stroke:red;stroke-width:1px;stroke-linecap:butt;stroke-linejoin:miter;stroke-opacity:1" d="M 4,329.377 16.4602,391.678 z" id="boundary" inkscape:connector-curvature="0" />
	<path style="fill:none;stroke:red;stroke-width:1px;stroke-linecap:butt;stroke-linejoin:miter;stroke-opacity:1" d="M 4,653.343 4,715.645 z" id="boundary" inkscape:connector-curvature="0" />
	<path style="fill:none;stroke:red;stroke-width:1px;stroke-linecap:butt;stroke-linejoin:miter;stroke-opacity:1" d="M 4,653.343 16.4602,578.582 z" id="boundary" inkscape:connector-curvature="0" />
	<path style="fill:none;stroke:red;stroke-width:1px;stroke-linecap:butt;stroke-linejoin:miter;stroke-opacity:1" d="M 4,715.645 66.3012,734.335 z" id="boundary" inkscape:connector-curvature="0" />
	<path style="fill:none;stroke:red;stroke-width:1px;stroke-linecap:butt;stroke-linejoin:miter;stroke-opacity:1" d="M 16.4602,391.678 16.565,453.98 z" id="boundary" inkscape:connector-curvature="0" />
	<path style="fill:none;stroke:red;stroke-width:1px;stroke-linecap:butt;stroke-linejoin:miter;stroke-opacity:1" d="M 16.565,453.98 16.3559,516.281 z" id="boundary" inkscape:connector-curvature="0" />
	<path style="fill:none;stroke:red;stroke-width:1px;stroke-linecap:butt;stroke-linejoin:miter;stroke-opacity:1" d="M 16.3559,516.281 16.4602,578.582 z" id="boundary" inkscape:connector-curvature="0" />
	<path style="fill:none;stroke:red;stroke-width:1px;stroke-linecap:butt;stroke-linejoin:miter;stroke-opacity:1" d="M 66.3012,267.076 116.142,304.457 z" id="boundary" inkscape:connector-curvature="0" />
	<path style="fill:none;stroke:red;stroke-width:1px;stroke-linecap:butt;stroke-linejoin:miter;stroke-opacity:1" d="M 66.3012,734.335 116.142,696.954 z" id="boundary" inkscape:connector-curvature="0" />
	<path style="fill:none;stroke:red;stroke-width:1px;stroke-linecap:butt;stroke-linejoin:miter;stroke-opacity:1" d="M 116.142,304.457 153.523,354.298 z" id="boundary" inkscape:connector-curvature="0" />
	<path style="fill:none;stroke:red;stroke-width:1px;stroke-linecap:butt;stroke-linejoin:miter;stroke-opacity:1" d="M 116.142,696.954 153.523,647.113 z" id="boundary" inkscape:connector-curvature="0" />
	<path style="fill:none;stroke:red;stroke-width:1px;stroke-linecap:butt;stroke-linejoin:miter;stroke-opacity:1" d="M 153.523,354.298 215.824,316.917 z" id="boundary" inkscape:connector-curvature="0" />
	<path style="fill:none;stroke:red;stroke-width:1px;stroke-linecap:butt;stroke-linejoin:miter;stroke-opacity:1" d="M 153.523,647.113 203.364,684.494 z" id="boundary" inkscape:connector-curvature="0" />
	<path style="fill:none;stroke:red;stroke-width:1px;stroke-linecap:butt;stroke-linejoin:miter;stroke-opacity:1" d="M 203.364,684.494 215.824,746.795 z" id="boundary" inkscape:connector-curvature="0" />
	<path style="fill:none;stroke:red;stroke-width:1px;stroke-linecap:butt;stroke-linejoin:miter;stroke-opacity:1" d="M 215.824,316.917 240.745,254.616 z" id="boundary" inkscape:connector-curvature="0" />
	<path style="fill:none;stroke:red;stroke-width:1px;stroke-linecap:butt;stroke-linejoin:miter;stroke-opacity:1" d="M 215.824,746.795 253.205,796.636 z" id="boundary" inkscape:connector-curvature="0" />
	<path style="fill:none;stroke:red;stroke-width:1px;stroke-linecap:butt;stroke-linejoin:miter;stroke-opacity:1" d="M 240.745,254.616 271.895,198.545 z" id="boundary" inkscape:connector-curvature="0" />
	<path style="fill:none;stroke:red;stroke-width:1px;stroke-linecap:butt;stroke-linejoin:miter;stroke-opacity:1" d="M 253.205,796.636 315.506,784.176 z" id="boundary" inkscape:connector-curvature="0" />
	<path style="fill:none;stroke:red;stroke-width:1px;stroke-linecap:butt;stroke-linejoin:miter;stroke-opacity:1" d="M 271.895,198.545 321.736,154.934 z" id="boundary" inkscape:connector-curvature="0" />
	<path style="fill:none;stroke:red;stroke-width:1px;stroke-linecap:butt;stroke-linejoin:miter;stroke-opacity:1" d="M 315.506,784.176 365.347,746.795 z" id="boundary" inkscape:connector-curvature="0" />
	<path style="fill:none;stroke:red;stroke-width:1px;stroke-linecap:butt;stroke-linejoin:miter;stroke-opacity:1" d="M 321.736,154.934 377.807,186.084 z" id="boundary" inkscape:connector-curvature="0" />
	<path style="fill:none;stroke:red;stroke-width:1px;stroke-linecap:butt;stroke-linejoin:miter;stroke-opacity:1" d="M 365.347,746.795 427.648,759.255 z" id="boundary" inkscape:connector-curvature="0" />
	<path style="fill:none;stroke:red;stroke-width:1px;stroke-linecap:butt;stroke-linejoin:miter;stroke-opacity:1" d="M 377.807,186.084 433.878,148.704 z" id="boundary" inkscape:connector-curvature="0" />
	<path style="fill:none;stroke:red;stroke-width:1px;stroke-linecap:butt;stroke-linejoin:miter;stroke-opacity:1" d="M 390.268,927.469 396.498,989.77 z" id="boundary" inkscape:connector-curvature="0" />
	<path style="fill:none;stroke:red;stroke-width:1px;stroke-linecap:butt;stroke-linejoin:miter;stroke-opacity:1" d="M 390.268,927.469 415.188,852.707 z" id="boundary" inkscape:connector-curvature="0" />
	<path style="fill:none;stroke:red;stroke-width:1px;stroke-linecap:butt;stroke-linejoin:miter;stroke-opacity:1" d="M 396.498,989.77 458.799,983.54 z" id="boundary" inkscape:connector-curvature="0" />
	<path style="fill:none;stroke:red;stroke-width:1px;stroke-linecap:butt;stroke-linejoin:miter;stroke-opacity:1" d="M 415.188,852.707 427.648,759.255 z" id="boundary" inkscape:connector-curvature="0" />
	<path style="fill:none;stroke:red;stroke-width:1px;stroke-linecap:butt;stroke-linejoin:miter;stroke-opacity:1" d="M 433.878,148.704 471.259,98.8627 z" id="boundary" inkscape:connector-curvature="0" />
	<path style="fill:none;stroke:red;stroke-width:1px;stroke-linecap:butt;stroke-linejoin:miter;stroke-opacity:1" d="M 458.799,983.54 508.64,939.929 z" id="boundary" inkscape:connector-curvature="0" />
	<path style="fill:none;stroke:red;stroke-width:1px;stroke-linecap:butt;stroke-linejoin:miter;stroke-opacity:1" d="M 471.259,98.8627 521.1,49.0217 z" id="boundary" inkscape:connector-curvature="0" />
	<path style="fill:none;stroke:red;stroke-width:1px;stroke-linecap:butt;stroke-linejoin:miter;stroke-opacity:1" d="M 508.64,939.929 546.02,890.088 z" id="boundary" inkscape:connector-curvature="0" />
	<path style="fill:none;stroke:red;stroke-width:1px;stroke-linecap:butt;stroke-linejoin:miter;stroke-opacity:1" d="M 521.1,49.0217 570.941,11.641 z" id="boundary" inkscape:connector-curvature="0" />
	<path style="fill:none;stroke:red;stroke-width:1px;stroke-linecap:butt;stroke-linejoin:miter;stroke-opacity:1" d="M 546.02,890.088 583.401,840.247 z" id="boundary" inkscape:connector-curvature="0" />
	<path style="fill:none;stroke:red;stroke-width:1px;stroke-linecap:butt;stroke-linejoin:miter;stroke-opacity:1" d="M 570.941,11.641 626.903,4 z" id="boundary" inkscape:connector-curvature="0" />
	<path style="fill:none;stroke:red;stroke-width:1px;stroke-linecap:butt;stroke-linejoin:miter;stroke-opacity:1" d="M 583.401,840.247 639.472,871.398 z" id="boundary" inkscape:connector-curvature="0" />
	<path style="fill:none;stroke:red;stroke-width:1px;stroke-linecap:butt;stroke-linejoin:miter;stroke-opacity:1" d="M 626.903,4 666.455,49.3982 z" id="boundary" inkscape:connector-curvature="0" />
	<path style="fill:none;stroke:red;stroke-width:1px;stroke-linecap:butt;stroke-linejoin:miter;stroke-opacity:1" d="M 639.472,871.398 670.623,927.469 z" id="boundary" inkscape:connector-curvature="0" />
	<path style="fill:none;stroke:red;stroke-width:1px;stroke-linecap:butt;stroke-linejoin:miter;stroke-opacity:1" d="M 666.455,49.3982 683.083,154.934 z" id="boundary" inkscape:connector-curvature="0" />
	<path style="fill:none;stroke:red;stroke-width:1px;stroke-linecap:butt;stroke-linejoin:miter;stroke-opacity:1" d="M 670.623,927.469 701.773,983.54 z" id="boundary" inkscape:connector-curvature="0" />
	<path style="fill:none;stroke:red;stroke-width:1px;stroke-linecap:butt;stroke-linejoin:miter;stroke-opacity:1" d="M 683.083,154.934 701.773,217.235 z" id="boundary" inkscape:connector-curvature="0" />
	<path style="fill:none;stroke:red;stroke-width:1px;stroke-linecap:butt;stroke-linejoin:miter;stroke-opacity:1" d="M 701.773,217.235 764.075,229.695 z" id="boundary" inkscape:connector-curvature="0" />
	<path style="fill:none;stroke:red;stroke-width:1px;stroke-linecap:butt;stroke-linejoin:miter;stroke-opacity:1" d="M 701.773,983.54 764.075,996 z" id="boundary" inkscape:connector-curvature="0" />
	<path style="fill:none;stroke:red;stroke-width:1px;stroke-linecap:butt;stroke-linejoin:miter;stroke-opacity:1" d="M 764.075,229.695 813.916,267.076 z" id="boundary" inkscape:connector-curvature="0" />
	<path style="fill:none;stroke:red;stroke-width:1px;stroke-linecap:butt;stroke-linejoin:miter;stroke-opacity:1" d="M 764.075,996 782.765,902.548 z" id="boundary" inkscape:connector-curvature="0" />
	<path style="fill:none;stroke:red;stroke-width:1px;stroke-linecap:butt;stroke-linejoin:miter;stroke-opacity:1" d="M 770.305,777.946 776.535,840.247 z" id="boundary" inkscape:connector-curvature="0" />
	<path style="fill:none;stroke:red;stroke-width:1px;stroke-linecap:butt;stroke-linejoin:miter;stroke-opacity:1" d="M 770.305,777.946 826.376,746.795 z" id="boundary" inkscape:connector-curvature="0" />
	<path style="fill:none;stroke:red;stroke-width:1px;stroke-linecap:butt;stroke-linejoin:miter;stroke-opacity:1" d="M 776.535,840.247 782.765,902.548 z" id="boundary" inkscape:connector-curvature="0" />
	<path style="fill:none;stroke:red;stroke-width:1px;stroke-linecap:butt;stroke-linejoin:miter;stroke-opacity:1" d="M 813.916,267.076 876.217,291.996 z" id="boundary" inkscape:connector-curvature="0" />
	<path style="fill:none;stroke:red;stroke-width:1px;stroke-linecap:butt;stroke-linejoin:miter;stroke-opacity:1" d="M 826.376,746.795 876.217,709.415 z" id="boundary" inkscape:connector-curvature="0" />
	<path style="fill:none;stroke:red;stroke-width:1px;stroke-linecap:butt;stroke-linejoin:miter;stroke-opacity:1" d="M 876.217,291.996 938.518,316.917 z" id="boundary" inkscape:connector-curvature="0" />
	<path style="fill:none;stroke:red;stroke-width:1px;stroke-linecap:butt;stroke-linejoin:miter;stroke-opacity:1" d="M 876.217,709.415 938.518,684.494 z" id="boundary" inkscape:connector-curvature="0" />
	<path style="fill:none;stroke:red;stroke-width:1px;stroke-linecap:butt;stroke-linejoin:miter;stroke-opacity:1" d="M 938.518,316.917 969.669,372.988 z" id="boundary" inkscape:connector-curvature="0" />
	<path style="fill:none;stroke:red;stroke-width:1px;stroke-linecap:butt;stroke-linejoin:miter;stroke-opacity:1" d="M 938.518,684.494 969.669,628.423 z" id="boundary" inkscape:connector-curvature="0" />
	<path style="fill:none;stroke:red;stroke-width:1px;stroke-linecap:butt;stroke-linejoin:miter;stroke-opacity:1" d="M 969.669,372.988 994.589,435.289 z" id="boundary" inkscape:connector-curvature="0" />
	<path style="fill:none;stroke:red;stroke-width:1px;stroke-linecap:butt;stroke-linejoin:miter;stroke-opacity:1" d="M 969.669,628.423 994.589,553.661 z" id="boundary" inkscape:connector-curvature="0" />
	<path style="fill:none;stroke:red;stroke-width:1px;stroke-linecap:butt;stroke-linejoin:miter;stroke-opacity:1" d="M 994.589,435.289 994.589,553.661 z" id="boundary" inkscape:connector-curvature="0" />
	<circle cx="4" cy="267.076" r="4" fill="#0" id="circle0"/>
	<circle cx="4" cy="329.377" r="4" fill="#0" id="circle1"/>
	<circle cx="4" cy="653.343" r="4" fill="#0" id="circle2"/>
	<circle cx="4" cy="715.645" r="4" fill="#0" id="circle3"/>
	<circle cx="16.4602" cy="391.678" r="4" fill="#0" id="circle4"/>
	<circle cx="16.565" cy="453.98" r="4" fill="#0" id="circle5"/>
	<circle cx="16.3559" cy="516.281" r="4" fill="#0" id="circle6"/>
	<circle cx="16.4602" cy="578.582" r="4" fill="#0" id="circle7"/>
	<circle cx="66.3012" cy="267.076" r="4" fill="#0" id="circle8"/>
	<circle cx="66.3012" cy="734.335" r="4" fill="#0" id="circle9"/>
	<circle cx="116.142" cy="304.457" r="4" fill="#0" id="circle10"/>
	<circle cx="116.142" cy="696.954" r="4" fill="#0" id="circle11"/>
	<circle cx="153.523" cy="354.298" r="4" fill="#0" id="circle12"/>
	<circle cx="153.523" cy="647.113" r="4" fill="#0" id="circle13"/>
	<circle cx="203.364" cy="603.502" r="4" fill="#0" id="circle14"/>
	<circle cx="203.364" cy="684.494" r="4" fill="#0" id="circle15"/>
	<circle cx="215.824" cy="316.917" r="4" fill="#0" id="circle16"/>
	<circle cx="215.824" cy="746.795" r="4" fill="#0" id="circle17"/>
	<circle cx="240.745" cy="254.616" r="4" fill="#0" id="circle18"/>
	<circle cx="253.205" cy="796.636" r="4" fill="#0" id="circle19"/>
	<circle cx="271.895" cy="198.545" r="4" fill="#0" id="circle20"/>
	<circle cx="315.506" cy="784.176" r="4" fill="#0" id="circle21"/>
	<circle cx="321.736" cy="154.934" r="4" fill="#0" id="circle22"/>
	<circle cx="365.347" cy="746.795" r="4" fill="#0" id="circle23"/>
	<circle cx="377.807" cy="186.084" r="4" fill="#0" id="circle24"/>
	<circle cx="390.268" cy="927.469" r="4" fill="#0" id="circle25"/>
	<circle cx="396.498" cy="989.77" r="4" fill="#0" id="circle26"/>
	<circle cx="415.188" cy="852.707" r="4" fill="#0" id="circle27"/>
	<circle cx="427.648" cy="759.255" r="4" fill="#0" id="circle28"/>
	<circle cx="433.878" cy="148.704" r="4" fill="#0" id="circle29"/>
	<circle cx="458.799" cy="983.54" r="4" fill="#0" id="circle30"/>
	<circle cx="471.259" cy="98.8627" r="4" fill="#0" id="circle31"/>
	<circle cx="508.64" cy="939.929" r="4" fill="#0" id="circle32"/>
	<circle cx="521.1" cy="49.0217" r="4" fill="#0" id="circle33"/>
	<circle cx="546.02" cy="890.088" r="4" fill="#0" id="circle34"/>
	<circle cx="570.941" cy="11.641" r="4" fill="#0" id="circle35"/>
	<circle cx="583.401" cy="840.247" r="4" fill="#0" id="circle36"/>
	<circle cx="626.903" cy="4" r="4" fill="#0" id="circle37"/>
	<circle cx="639.472" cy="871.398" r="4" fill="#0" id="circle38"/>
	<circle cx="666.455" cy="49.3982" r="4" fill="#0" id="circle39"/>
	<circle cx="670.623" cy="927.469" r="4" fill="#0" id="circle40"/>
	<circle cx="683.083" cy="154.934" r="4" fill="#0" id="circle41"/>
	<circle cx="701.773" cy="217.235" r="4" fill="#0" id="circle42"/>
	<circle cx="701.773" cy="983.54" r="4" fill="#0" id="circle43"/>
	<circle cx="764.075" cy="229.695" r="4" fill="#0" id="circle44"/>
	<circle cx="764.075" cy="996" r="4" fill="#0" id="circle45"/>
	<circle cx="770.305" cy="777.946" r="4" fill="#0" id="circle46"/>
	<circle cx="776.535" cy="840.247" r="4" fill="#0" id="circle47"/>
	<circle cx="782.765" cy="902.548" r="4" fill="#0" id="circle48"/>
	<circle cx="813.916" cy="267.076" r="4" fill="#0" id="circle49"/>
	<circle cx="826.376" cy="746.795" r="4" fill="#0" id="circle50"/>
	<circle cx="876.217" cy="291.996" r="4" fill="#0" id="circle51"/>
	<circle cx="876.217" cy="709.415" r="4" fill="#0" id="circle52"/>
	<circle cx="938.518" cy="316.917" r="4" fill="#0" id="circle53"/>
	<circle cx="938.518" cy="684.494" r="4" fill="#0" id="circle54"/>
	<circle cx="969.669" cy="372.988" r="4" fill="#0" id="circle55"/>
	<circle cx="969.669" cy="628.423" r="4" fill="#0" id="circle56"/>
	<circle cx="994.589" cy="435.289" r="4" fill="#0" id="circle57"/>
	<circle cx="994.589" cy="553.661" r="4" fill="#0" id="circle58"/>
	</g>
</svg>