<?xml version="1.0" encoding="UTF-8" standalone="no"?>
<!-- Created with CurveBenchmark -->
<svg
	xmlns:dc="http://purl.org/dc/elements/1.1/"
	xmlns:cc="http://creativecommons.org/ns#"
	xmlns:rdf="http://www.w3.org/1999/02/22-rdf-syntax-ns#"
	xmlns:svg="http://www.w3.org/2000/svg"
	xmlns="http://www.w3.org/2000/svg"
	xmlns:sodipodi="http://sodipodi.sourceforge.net/DTD/sodipodi-0.dtd"
	xmlns:inkscape="http://www.inkscape.org/namespaces/inkscape"
	width="1000"
	height="1000"
	id="svg2"
	version="1.1"
	sodipodi:docname="manifold/stretchdenoise-bird105.png.txt">
<defs
	id="defs4" />
<metadata
	id="metadata7">
	<rdf:RDF>
		<cc:Work
			rdf:about="">
			<dc:format>image/svg+xml</dc:format>
			<dc:type
				rdf:resource="http://purl.org/dc/dcmitype/StillImage" />
			<dc:title></dc:title>
		</cc:Work>
	</rdf:RDF>
</metadata>
<g
	inkscape:label="Layer 1"
	inkscape:groupmode="layer"
	id="layer1">
	<path style="fill:none;stroke:red;stroke-width:1px;stroke-linecap:butt;stroke-linejoin:miter;stroke-opacity:1" d="M 88.0406,291.987 58.4627,50.6824 z" id="boundary" inkscape:connector-curvature="0" />
	<path style="fill:none;stroke:red;stroke-width:1px;stroke-linecap:butt;stroke-linejoin:miter;stroke-opacity:1" d="M 88.0406,291.987 nan,nan z" id="boundary" inkscape:connector-curvature="0" />
	<path style="fill:none;stroke:red;stroke-width:1px;stroke-linecap:butt;stroke-linejoin:miter;stroke-opacity:1" d="M 58.4627,50.6824 326.886,147.937 z" id="boundary" inkscape:connector-curvature="0" />
	<circle cx="4" cy="229.631" r="4" fill="#0" id="circle0"/>
	<circle cx="4" cy="268.533" r="4" fill="#0" id="circle1"/>
	<circle cx="11.7804" cy="190.729" r="4" fill="#0" id="circle2"/>
	<circle cx="19.5608" cy="128.486" r="4" fill="#0" id="circle3"/>
	<circle cx="88.0406" cy="291.987" r="4" fill="#0" id="circle4"/>
	<circle cx="39.0118" cy="93.4745" r="4" fill="#0" id="circle5"/>
	<circle cx="58.4627" cy="50.6824" r="4" fill="#0" id="circle6"/>
	<circle cx="58.4627" cy="960.988" r="4" fill="#0" id="circle7"/>
	<circle cx="66.2431" cy="319.106" r="4" fill="#0" id="circle8"/>
	<circle cx="81.8039" cy="358.008" r="4" fill="#0" id="circle9"/>
	<circle cx="85.6941" cy="992.11" r="4" fill="#0" id="circle10"/>
	<circle cx="89.5843" cy="27.3412" r="4" fill="#0" id="circle11"/>
	<circle cx="89.5843" cy="396.91" r="4" fill="#0" id="circle12"/>
	<circle cx="97.3647" cy="435.812" r="4" fill="#0" id="circle13"/>
	<circle cx="97.3647" cy="474.714" r="4" fill="#0" id="circle14"/>
	<circle cx="97.3647" cy="945.427" r="4" fill="#0" id="circle15"/>
	<circle cx="105.145" cy="513.616" r="4" fill="#0" id="circle16"/>
	<circle cx="112.925" cy="552.518" r="4" fill="#0" id="circle17"/>
	<circle cx="112.925" cy="852.063" r="4" fill="#0" id="circle18"/>
	<circle cx="112.925" cy="890.965" r="4" fill="#0" id="circle19"/>
	<circle cx="120.706" cy="591.42" r="4" fill="#0" id="circle20"/>
	<circle cx="120.706" cy="630.322" r="4" fill="#0" id="circle21"/>
	<circle cx="120.706" cy="669.224" r="4" fill="#0" id="circle22"/>
	<circle cx="120.706" cy="708.125" r="4" fill="#0" id="circle23"/>
	<circle cx="120.706" cy="747.027" r="4" fill="#0" id="circle24"/>
	<circle cx="120.706" cy="785.929" r="4" fill="#0" id="circle25"/>
	<circle cx="124.596" cy="996" r="4" fill="#0" id="circle26"/>
	<circle cx="128.486" cy="11.7804" r="4" fill="#0" id="circle27"/>
	<circle cx="155.718" cy="859.843" r="4" fill="#0" id="circle28"/>
	<circle cx="155.718" cy="898.745" r="4" fill="#0" id="circle29"/>
	<circle cx="155.718" cy="937.647" r="4" fill="#0" id="circle30"/>
	<circle cx="159.608" cy="976.549" r="4" fill="#0" id="circle31"/>
	<circle cx="163.498" cy="393.02" r="4" fill="#0" id="circle32"/>
	<circle cx="163.498" cy="431.922" r="4" fill="#0" id="circle33"/>
	<circle cx="163.498" cy="470.824" r="4" fill="#0" id="circle34"/>
	<circle cx="163.498" cy="509.725" r="4" fill="#0" id="circle35"/>
	<circle cx="163.498" cy="548.627" r="4" fill="#0" id="circle36"/>
	<circle cx="163.498" cy="587.529" r="4" fill="#0" id="circle37"/>
	<circle cx="163.498" cy="719.796" r="4" fill="#0" id="circle38"/>
	<circle cx="163.498" cy="758.698" r="4" fill="#0" id="circle39"/>
	<circle cx="163.498" cy="797.6" r="4" fill="#0" id="circle40"/>
	<circle cx="167.388" cy="4" r="4" fill="#0" id="circle41"/>
	<circle cx="167.388" cy="626.431" r="4" fill="#0" id="circle42"/>
	<circle cx="171.278" cy="665.333" r="4" fill="#0" id="circle43"/>
	<circle cx="194.62" cy="953.208" r="4" fill="#0" id="circle44"/>
	<circle cx="202.4" cy="420.251" r="4" fill="#0" id="circle45"/>
	<circle cx="206.29" cy="4" r="4" fill="#0" id="circle46"/>
	<circle cx="210.18" cy="992.11" r="4" fill="#0" id="circle47"/>
	<circle cx="214.071" cy="459.153" r="4" fill="#0" id="circle48"/>
	<circle cx="214.071" cy="498.055" r="4" fill="#0" id="circle49"/>
	<circle cx="214.071" cy="536.957" r="4" fill="#0" id="circle50"/>
	<circle cx="214.071" cy="575.859" r="4" fill="#0" id="circle51"/>
	<circle cx="nan" cy="nan" r="4" fill="#0" id="circle52"/>
	<circle cx="214.071" cy="766.478" r="4" fill="#0" id="circle53"/>
	<circle cx="214.071" cy="805.38" r="4" fill="#0" id="circle54"/>
	<circle cx="214.071" cy="844.282" r="4" fill="#0" id="circle55"/>
	<circle cx="214.071" cy="883.184" r="4" fill="#0" id="circle56"/>
	<circle cx="221.851" cy="614.761" r="4" fill="#0" id="circle57"/>
	<circle cx="221.851" cy="704.235" r="4" fill="#0" id="circle58"/>
	<circle cx="245.192" cy="19.5608" r="4" fill="#0" id="circle59"/>
	<circle cx="249.082" cy="992.11" r="4" fill="#0" id="circle60"/>
	<circle cx="256.863" cy="789.82" r="4" fill="#0" id="circle61"/>
	<circle cx="256.863" cy="828.722" r="4" fill="#0" id="circle62"/>
	<circle cx="256.863" cy="867.624" r="4" fill="#0" id="circle63"/>
	<circle cx="256.863" cy="906.525" r="4" fill="#0" id="circle64"/>
	<circle cx="256.863" cy="945.427" r="4" fill="#0" id="circle65"/>
	<circle cx="264.643" cy="579.749" r="4" fill="#0" id="circle66"/>
	<circle cx="264.643" cy="618.651" r="4" fill="#0" id="circle67"/>
	<circle cx="264.643" cy="657.553" r="4" fill="#0" id="circle68"/>
	<circle cx="264.643" cy="696.455" r="4" fill="#0" id="circle69"/>
	<circle cx="264.643" cy="735.357" r="4" fill="#0" id="circle70"/>
	<circle cx="272.424" cy="431.922" r="4" fill="#0" id="circle71"/>
	<circle cx="272.424" cy="470.824" r="4" fill="#0" id="circle72"/>
	<circle cx="272.424" cy="509.725" r="4" fill="#0" id="circle73"/>
	<circle cx="276.314" cy="42.902" r="4" fill="#0" id="circle74"/>
	<circle cx="299.655" cy="74.0235" r="4" fill="#0" id="circle75"/>
	<circle cx="311.325" cy="435.812" r="4" fill="#0" id="circle76"/>
	<circle cx="319.106" cy="109.035" r="4" fill="#0" id="circle77"/>
	<circle cx="326.886" cy="147.937" r="4" fill="#0" id="circle78"/>
	<circle cx="334.667" cy="186.839" r="4" fill="#0" id="circle79"/>
	<circle cx="334.667" cy="361.898" r="4" fill="#0" id="circle80"/>
	<circle cx="334.667" cy="400.8" r="4" fill="#0" id="circle81"/>
	<circle cx="342.447" cy="225.741" r="4" fill="#0" id="circle82"/>
	<circle cx="342.447" cy="264.643" r="4" fill="#0" id="circle83"/>
	<circle cx="350.227" cy="303.545" r="4" fill="#0" id="circle84"/>
	</g>
</svg>