<?xml version="1.0" encoding="UTF-8" standalone="no"?>
<!-- Created with CurveBenchmark -->
<svg
	xmlns:dc="http://purl.org/dc/elements/1.1/"
	xmlns:cc="http://creativecommons.org/ns#"
	xmlns:rdf="http://www.w3.org/1999/02/22-rdf-syntax-ns#"
	xmlns:svg="http://www.w3.org/2000/svg"
	xmlns="http://www.w3.org/2000/svg"
	xmlns:sodipodi="http://sodipodi.sourceforge.net/DTD/sodipodi-0.dtd"
	xmlns:inkscape="http://www.inkscape.org/namespaces/inkscape"
	width="1000"
	height="1000"
	id="svg2"
	version="1.1"
	sodipodi:docname="manifold/stretchdenoise-guitar015.png.txt">
<defs
	id="defs4" />
<metadata
	id="metadata7">
	<rdf:RDF>
		<cc:Work
			rdf:about="">
			<dc:format>image/svg+xml</dc:format>
			<dc:type
				rdf:resource="http://purl.org/dc/dcmitype/StillImage" />
			<dc:title></dc:title>
		</cc:Work>
	</rdf:RDF>
</metadata>
<g
	inkscape:label="Layer 1"
	inkscape:groupmode="layer"
	id="layer1">
	<path style="fill:none;stroke:red;stroke-width:1px;stroke-linecap:butt;stroke-linejoin:miter;stroke-opacity:1" d="M 4,801.663 33.78,909.526 z" id="boundary" inkscape:connector-curvature="0" />
	<path style="fill:none;stroke:red;stroke-width:1px;stroke-linecap:butt;stroke-linejoin:miter;stroke-opacity:1" d="M 4,801.663 6.21228,673.291 z" id="boundary" inkscape:connector-curvature="0" />
	<path style="fill:none;stroke:red;stroke-width:1px;stroke-linecap:butt;stroke-linejoin:miter;stroke-opacity:1" d="M 33.78,909.526 91.0727,954.496 z" id="boundary" inkscape:connector-curvature="0" />
	<path style="fill:none;stroke:red;stroke-width:1px;stroke-linecap:butt;stroke-linejoin:miter;stroke-opacity:1" d="M 6.21228,673.291 305.563,750.983 z" id="boundary" inkscape:connector-curvature="0" />
	<path style="fill:none;stroke:red;stroke-width:1px;stroke-linecap:butt;stroke-linejoin:miter;stroke-opacity:1" d="M 91.0727,954.496 120.575,975.435 z" id="boundary" inkscape:connector-curvature="0" />
	<path style="fill:none;stroke:red;stroke-width:1px;stroke-linecap:butt;stroke-linejoin:miter;stroke-opacity:1" d="M 120.575,975.435 190.866,991.635 z" id="boundary" inkscape:connector-curvature="0" />
	<path style="fill:none;stroke:red;stroke-width:1px;stroke-linecap:butt;stroke-linejoin:miter;stroke-opacity:1" d="M 190.866,991.635 297.467,984.271 z" id="boundary" inkscape:connector-curvature="0" />
	<path style="fill:none;stroke:red;stroke-width:1px;stroke-linecap:butt;stroke-linejoin:miter;stroke-opacity:1" d="M 297.467,984.271 365.119,952.176 z" id="boundary" inkscape:connector-curvature="0" />
	<path style="fill:none;stroke:red;stroke-width:1px;stroke-linecap:butt;stroke-linejoin:miter;stroke-opacity:1" d="M 365.119,952.176 403.108,892.796 z" id="boundary" inkscape:connector-curvature="0" />
	<path style="fill:none;stroke:red;stroke-width:1px;stroke-linecap:butt;stroke-linejoin:miter;stroke-opacity:1" d="M 305.563,750.983 403.108,892.796 z" id="boundary" inkscape:connector-curvature="0" />
	<circle cx="4" cy="801.663" r="4" fill="#0" id="circle0"/>
	<circle cx="22.3009" cy="837.702" r="4" fill="#0" id="circle1"/>
	<circle cx="22.3009" cy="872.879" r="4" fill="#0" id="circle2"/>
	<circle cx="36.3718" cy="767.348" r="4" fill="#0" id="circle3"/>
	<circle cx="33.78" cy="909.526" r="4" fill="#0" id="circle4"/>
	<circle cx="57.4782" cy="732.17" r="4" fill="#0" id="circle5"/>
	<circle cx="60.9959" cy="936.199" r="4" fill="#0" id="circle6"/>
	<circle cx="64.5137" cy="563.319" r="4" fill="#0" id="circle7"/>
	<circle cx="68.0314" cy="598.496" r="4" fill="#0" id="circle8"/>
	<circle cx="6.21228" cy="673.291" r="4" fill="#0" id="circle9"/>
	<circle cx="82.1023" cy="531.66" r="4" fill="#0" id="circle10"/>
	<circle cx="82.1023" cy="633.674" r="4" fill="#0" id="circle11"/>
	<circle cx="91.0727" cy="954.496" r="4" fill="#0" id="circle12"/>
	<circle cx="110.244" cy="510.553" r="4" fill="#0" id="circle13"/>
	<circle cx="120.575" cy="975.435" r="4" fill="#0" id="circle14"/>
	<circle cx="145.421" cy="500" r="4" fill="#0" id="circle15"/>
	<circle cx="155.975" cy="985.447" r="4" fill="#0" id="circle16"/>
	<circle cx="177.081" cy="28.6241" r="4" fill="#0" id="circle17"/>
	<circle cx="177.081" cy="63.8014" r="4" fill="#0" id="circle18"/>
	<circle cx="180.599" cy="496.482" r="4" fill="#0" id="circle19"/>
	<circle cx="184.117" cy="98.9787" r="4" fill="#0" id="circle20"/>
	<circle cx="190.866" cy="991.635" r="4" fill="#0" id="circle21"/>
	<circle cx="201.705" cy="468.34" r="4" fill="#0" id="circle22"/>
	<circle cx="205.223" cy="7.51773" r="4" fill="#0" id="circle23"/>
	<circle cx="205.223" cy="260.794" r="4" fill="#0" id="circle24"/>
	<circle cx="205.223" cy="295.972" r="4" fill="#0" id="circle25"/>
	<circle cx="205.223" cy="331.149" r="4" fill="#0" id="circle26"/>
	<circle cx="205.223" cy="366.326" r="4" fill="#0" id="circle27"/>
	<circle cx="205.223" cy="401.504" r="4" fill="#0" id="circle28"/>
	<circle cx="208.741" cy="127.121" r="4" fill="#0" id="circle29"/>
	<circle cx="212.258" cy="162.298" r="4" fill="#0" id="circle30"/>
	<circle cx="212.258" cy="197.475" r="4" fill="#0" id="circle31"/>
	<circle cx="226.329" cy="996" r="4" fill="#0" id="circle32"/>
	<circle cx="240.4" cy="4" r="4" fill="#0" id="circle33"/>
	<circle cx="257.989" cy="42.695" r="4" fill="#0" id="circle34"/>
	<circle cx="257.989" cy="120.085" r="4" fill="#0" id="circle35"/>
	<circle cx="257.989" cy="155.262" r="4" fill="#0" id="circle36"/>
	<circle cx="257.989" cy="190.44" r="4" fill="#0" id="circle37"/>
	<circle cx="257.989" cy="225.617" r="4" fill="#0" id="circle38"/>
	<circle cx="261.507" cy="260.794" r="4" fill="#0" id="circle39"/>
	<circle cx="261.507" cy="988.965" r="4" fill="#0" id="circle40"/>
	<circle cx="265.024" cy="77.8723" r="4" fill="#0" id="circle41"/>
	<circle cx="265.024" cy="295.972" r="4" fill="#0" id="circle42"/>
	<circle cx="265.024" cy="331.149" r="4" fill="#0" id="circle43"/>
	<circle cx="265.024" cy="366.326" r="4" fill="#0" id="circle44"/>
	<circle cx="265.024" cy="401.504" r="4" fill="#0" id="circle45"/>
	<circle cx="265.024" cy="436.681" r="4" fill="#0" id="circle46"/>
	<circle cx="265.024" cy="471.858" r="4" fill="#0" id="circle47"/>
	<circle cx="265.024" cy="507.035" r="4" fill="#0" id="circle48"/>
	<circle cx="268.542" cy="542.213" r="4" fill="#0" id="circle49"/>
	<circle cx="289.648" cy="570.355" r="4" fill="#0" id="circle50"/>
	<circle cx="297.467" cy="984.271" r="4" fill="#0" id="circle51"/>
	<circle cx="324.826" cy="556.284" r="4" fill="#0" id="circle52"/>
	<circle cx="331.861" cy="967.858" r="4" fill="#0" id="circle53"/>
	<circle cx="349.45" cy="661.816" r="4" fill="#0" id="circle54"/>
	<circle cx="360.003" cy="542.213" r="4" fill="#0" id="circle55"/>
	<circle cx="360.003" cy="696.993" r="4" fill="#0" id="circle56"/>
	<circle cx="363.521" cy="626.638" r="4" fill="#0" id="circle57"/>
	<circle cx="365.119" cy="952.176" r="4" fill="#0" id="circle58"/>
	<circle cx="377.592" cy="573.872" r="4" fill="#0" id="circle59"/>
	<circle cx="377.592" cy="728.652" r="4" fill="#0" id="circle60"/>
	<circle cx="384.627" cy="922.128" r="4" fill="#0" id="circle61"/>
	<circle cx="305.563" cy="750.983" r="4" fill="#0" id="circle62"/>
	<circle cx="403.108" cy="892.796" r="4" fill="#0" id="circle63"/>
	<circle cx="412.769" cy="791.972" r="4" fill="#0" id="circle64"/>
	<circle cx="419.804" cy="827.149" r="4" fill="#0" id="circle65"/>
	</g>
</svg>