<?xml version="1.0" encoding="UTF-8" standalone="no"?>
<!-- Created with CurveBenchmark -->
<svg
	xmlns:dc="http://purl.org/dc/elements/1.1/"
	xmlns:cc="http://creativecommons.org/ns#"
	xmlns:rdf="http://www.w3.org/1999/02/22-rdf-syntax-ns#"
	xmlns:svg="http://www.w3.org/2000/svg"
	xmlns="http://www.w3.org/2000/svg"
	xmlns:sodipodi="http://sodipodi.sourceforge.net/DTD/sodipodi-0.dtd"
	xmlns:inkscape="http://www.inkscape.org/namespaces/inkscape"
	width="1000"
	height="1000"
	id="svg2"
	version="1.1"
	sodipodi:docname="manifold/stretchdenoise-bird260.png.txt">
<defs
	id="defs4" />
<metadata
	id="metadata7">
	<rdf:RDF>
		<cc:Work
			rdf:about="">
			<dc:format>image/svg+xml</dc:format>
			<dc:type
				rdf:resource="http://purl.org/dc/dcmitype/StillImage" />
			<dc:title></dc:title>
		</cc:Work>
	</rdf:RDF>
</metadata>
<g
	inkscape:label="Layer 1"
	inkscape:groupmode="layer"
	id="layer1">
	<path style="fill:none;stroke:red;stroke-width:1px;stroke-linecap:butt;stroke-linejoin:miter;stroke-opacity:1" d="M 4,115.856 221.07,23.451 z" id="boundary" inkscape:connector-curvature="0" />
	<path style="fill:none;stroke:red;stroke-width:1px;stroke-linecap:butt;stroke-linejoin:miter;stroke-opacity:1" d="M 4,115.856 380.291,733.584 z" id="boundary" inkscape:connector-curvature="0" />
	<path style="fill:none;stroke:red;stroke-width:1px;stroke-linecap:butt;stroke-linejoin:miter;stroke-opacity:1" d="M 221.07,23.451 259.972,7.8902 z" id="boundary" inkscape:connector-curvature="0" />
	<path style="fill:none;stroke:red;stroke-width:1px;stroke-linecap:butt;stroke-linejoin:miter;stroke-opacity:1" d="M 259.972,7.8902 337.776,11.7804 z" id="boundary" inkscape:connector-curvature="0" />
	<path style="fill:none;stroke:red;stroke-width:1px;stroke-linecap:butt;stroke-linejoin:miter;stroke-opacity:1" d="M 337.776,11.7804 427.25,85.6941 z" id="boundary" inkscape:connector-curvature="0" />
	<circle cx="4" cy="115.856" r="4" fill="#0" id="circle0"/>
	<circle cx="154.937" cy="151.827" r="4" fill="#0" id="circle1"/>
	<circle cx="154.937" cy="190.729" r="4" fill="#0" id="circle2"/>
	<circle cx="162.717" cy="74.0235" r="4" fill="#0" id="circle3"/>
	<circle cx="162.717" cy="229.631" r="4" fill="#0" id="circle4"/>
	<circle cx="170.498" cy="268.533" r="4" fill="#0" id="circle5"/>
	<circle cx="178.278" cy="968.769" r="4" fill="#0" id="circle6"/>
	<circle cx="186.058" cy="42.902" r="4" fill="#0" id="circle7"/>
	<circle cx="193.839" cy="299.655" r="4" fill="#0" id="circle8"/>
	<circle cx="197.729" cy="338.557" r="4" fill="#0" id="circle9"/>
	<circle cx="201.619" cy="377.459" r="4" fill="#0" id="circle10"/>
	<circle cx="209.4" cy="416.361" r="4" fill="#0" id="circle11"/>
	<circle cx="209.4" cy="455.263" r="4" fill="#0" id="circle12"/>
	<circle cx="209.4" cy="992.11" r="4" fill="#0" id="circle13"/>
	<circle cx="213.29" cy="949.318" r="4" fill="#0" id="circle14"/>
	<circle cx="217.18" cy="494.165" r="4" fill="#0" id="circle15"/>
	<circle cx="221.07" cy="23.451" r="4" fill="#0" id="circle16"/>
	<circle cx="224.96" cy="533.067" r="4" fill="#0" id="circle17"/>
	<circle cx="224.96" cy="571.969" r="4" fill="#0" id="circle18"/>
	<circle cx="224.96" cy="875.404" r="4" fill="#0" id="circle19"/>
	<circle cx="232.741" cy="610.871" r="4" fill="#0" id="circle20"/>
	<circle cx="232.741" cy="649.773" r="4" fill="#0" id="circle21"/>
	<circle cx="232.741" cy="688.675" r="4" fill="#0" id="circle22"/>
	<circle cx="380.291" cy="733.584" r="4" fill="#0" id="circle23"/>
	<circle cx="232.741" cy="766.478" r="4" fill="#0" id="circle24"/>
	<circle cx="232.741" cy="805.38" r="4" fill="#0" id="circle25"/>
	<circle cx="248.301" cy="996" r="4" fill="#0" id="circle26"/>
	<circle cx="259.972" cy="7.8902" r="4" fill="#0" id="circle27"/>
	<circle cx="267.752" cy="883.184" r="4" fill="#0" id="circle28"/>
	<circle cx="267.752" cy="922.086" r="4" fill="#0" id="circle29"/>
	<circle cx="275.533" cy="408.58" r="4" fill="#0" id="circle30"/>
	<circle cx="275.533" cy="447.482" r="4" fill="#0" id="circle31"/>
	<circle cx="275.533" cy="486.384" r="4" fill="#0" id="circle32"/>
	<circle cx="275.533" cy="525.286" r="4" fill="#0" id="circle33"/>
	<circle cx="275.533" cy="564.188" r="4" fill="#0" id="circle34"/>
	<circle cx="275.533" cy="603.09" r="4" fill="#0" id="circle35"/>
	<circle cx="275.533" cy="641.992" r="4" fill="#0" id="circle36"/>
	<circle cx="275.533" cy="696.455" r="4" fill="#0" id="circle37"/>
	<circle cx="275.533" cy="735.357" r="4" fill="#0" id="circle38"/>
	<circle cx="275.533" cy="774.259" r="4" fill="#0" id="circle39"/>
	<circle cx="275.533" cy="813.161" r="4" fill="#0" id="circle40"/>
	<circle cx="275.533" cy="960.988" r="4" fill="#0" id="circle41"/>
	<circle cx="298.874" cy="4" r="4" fill="#0" id="circle42"/>
	<circle cx="310.545" cy="980.439" r="4" fill="#0" id="circle43"/>
	<circle cx="314.435" cy="431.922" r="4" fill="#0" id="circle44"/>
	<circle cx="326.105" cy="470.824" r="4" fill="#0" id="circle45"/>
	<circle cx="326.105" cy="509.725" r="4" fill="#0" id="circle46"/>
	<circle cx="326.105" cy="867.624" r="4" fill="#0" id="circle47"/>
	<circle cx="326.105" cy="906.525" r="4" fill="#0" id="circle48"/>
	<circle cx="333.886" cy="548.627" r="4" fill="#0" id="circle49"/>
	<circle cx="333.886" cy="587.529" r="4" fill="#0" id="circle50"/>
	<circle cx="333.886" cy="626.431" r="4" fill="#0" id="circle51"/>
	<circle cx="333.886" cy="665.333" r="4" fill="#0" id="circle52"/>
	<circle cx="333.886" cy="704.235" r="4" fill="#0" id="circle53"/>
	<circle cx="333.886" cy="743.137" r="4" fill="#0" id="circle54"/>
	<circle cx="333.886" cy="782.039" r="4" fill="#0" id="circle55"/>
	<circle cx="333.886" cy="820.941" r="4" fill="#0" id="circle56"/>
	<circle cx="337.776" cy="11.7804" r="4" fill="#0" id="circle57"/>
	<circle cx="349.447" cy="996" r="4" fill="#0" id="circle58"/>
	<circle cx="376.678" cy="27.3412" r="4" fill="#0" id="circle59"/>
	<circle cx="376.678" cy="595.31" r="4" fill="#0" id="circle60"/>
	<circle cx="376.678" cy="634.212" r="4" fill="#0" id="circle61"/>
	<circle cx="376.678" cy="673.114" r="4" fill="#0" id="circle62"/>
	<circle cx="376.678" cy="712.016" r="4" fill="#0" id="circle63"/>
	<circle cx="376.678" cy="750.918" r="4" fill="#0" id="circle64"/>
	<circle cx="376.678" cy="789.82" r="4" fill="#0" id="circle65"/>
	<circle cx="376.678" cy="828.722" r="4" fill="#0" id="circle66"/>
	<circle cx="376.678" cy="867.624" r="4" fill="#0" id="circle67"/>
	<circle cx="376.678" cy="906.525" r="4" fill="#0" id="circle68"/>
	<circle cx="376.678" cy="945.427" r="4" fill="#0" id="circle69"/>
	<circle cx="384.458" cy="486.384" r="4" fill="#0" id="circle70"/>
	<circle cx="384.458" cy="525.286" r="4" fill="#0" id="circle71"/>
	<circle cx="392.239" cy="439.702" r="4" fill="#0" id="circle72"/>
	<circle cx="407.8" cy="50.6824" r="4" fill="#0" id="circle73"/>
	<circle cx="415.58" cy="385.239" r="4" fill="#0" id="circle74"/>
	<circle cx="427.25" cy="85.6941" r="4" fill="#0" id="circle75"/>
	<circle cx="431.141" cy="124.596" r="4" fill="#0" id="circle76"/>
	<circle cx="438.921" cy="163.498" r="4" fill="#0" id="circle77"/>
	<circle cx="438.921" cy="202.4" r="4" fill="#0" id="circle78"/>
	<circle cx="438.921" cy="346.337" r="4" fill="#0" id="circle79"/>
	<circle cx="446.701" cy="241.302" r="4" fill="#0" id="circle80"/>
	<circle cx="446.701" cy="280.204" r="4" fill="#0" id="circle81"/>
	</g>
</svg>