<?xml version="1.0" encoding="UTF-8" standalone="no"?>
<!-- Created with CurveBenchmark -->
<svg
	xmlns:dc="http://purl.org/dc/elements/1.1/"
	xmlns:cc="http://creativecommons.org/ns#"
	xmlns:rdf="http://www.w3.org/1999/02/22-rdf-syntax-ns#"
	xmlns:svg="http://www.w3.org/2000/svg"
	xmlns="http://www.w3.org/2000/svg"
	xmlns:sodipodi="http://sodipodi.sourceforge.net/DTD/sodipodi-0.dtd"
	xmlns:inkscape="http://www.inkscape.org/namespaces/inkscape"
	width="1000"
	height="1000"
	id="svg2"
	version="1.1"
	sodipodi:docname="manifold/stretchdenoise-guitar295.png.txt">
<defs
	id="defs4" />
<metadata
	id="metadata7">
	<rdf:RDF>
		<cc:Work
			rdf:about="">
			<dc:format>image/svg+xml</dc:format>
			<dc:type
				rdf:resource="http://purl.org/dc/dcmitype/StillImage" />
			<dc:title></dc:title>
		</cc:Work>
	</rdf:RDF>
</metadata>
<g
	inkscape:label="Layer 1"
	inkscape:groupmode="layer"
	id="layer1">
	<path style="fill:none;stroke:red;stroke-width:1px;stroke-linecap:butt;stroke-linejoin:miter;stroke-opacity:1" d="M 4,784.945 18.6545,855.481 z" id="boundary" inkscape:connector-curvature="0" />
	<path style="fill:none;stroke:red;stroke-width:1px;stroke-linecap:butt;stroke-linejoin:miter;stroke-opacity:1" d="M 4,784.945 160.708,762.582 z" id="boundary" inkscape:connector-curvature="0" />
	<path style="fill:none;stroke:red;stroke-width:1px;stroke-linecap:butt;stroke-linejoin:miter;stroke-opacity:1" d="M 18.6545,855.481 23.439,890.056 z" id="boundary" inkscape:connector-curvature="0" />
	<path style="fill:none;stroke:red;stroke-width:1px;stroke-linecap:butt;stroke-linejoin:miter;stroke-opacity:1" d="M 23.439,890.056 32.2088,925.476 z" id="boundary" inkscape:connector-curvature="0" />
	<path style="fill:none;stroke:red;stroke-width:1px;stroke-linecap:butt;stroke-linejoin:miter;stroke-opacity:1" d="M 32.2088,925.476 47.2689,959.056 z" id="boundary" inkscape:connector-curvature="0" />
	<path style="fill:none;stroke:red;stroke-width:1px;stroke-linecap:butt;stroke-linejoin:miter;stroke-opacity:1" d="M 47.2689,959.056 70.4991,985.447 z" id="boundary" inkscape:connector-curvature="0" />
	<path style="fill:none;stroke:red;stroke-width:1px;stroke-linecap:butt;stroke-linejoin:miter;stroke-opacity:1" d="M 70.4991,985.447 105.676,992.482 z" id="boundary" inkscape:connector-curvature="0" />
	<path style="fill:none;stroke:red;stroke-width:1px;stroke-linecap:butt;stroke-linejoin:miter;stroke-opacity:1" d="M 84.5699,179.887 98.6409,67.3191 z" id="boundary" inkscape:connector-curvature="0" />
	<path style="fill:none;stroke:red;stroke-width:1px;stroke-linecap:butt;stroke-linejoin:miter;stroke-opacity:1" d="M 84.5699,179.887 123.265,260.794 z" id="boundary" inkscape:connector-curvature="0" />
	<path style="fill:none;stroke:red;stroke-width:1px;stroke-linecap:butt;stroke-linejoin:miter;stroke-opacity:1" d="M 98.6409,67.3191 112.712,25.1064 z" id="boundary" inkscape:connector-curvature="0" />
	<path style="fill:none;stroke:red;stroke-width:1px;stroke-linecap:butt;stroke-linejoin:miter;stroke-opacity:1" d="M 105.676,992.482 140.854,996 z" id="boundary" inkscape:connector-curvature="0" />
	<path style="fill:none;stroke:red;stroke-width:1px;stroke-linecap:butt;stroke-linejoin:miter;stroke-opacity:1" d="M 112.712,25.1064 140.854,4 z" id="boundary" inkscape:connector-curvature="0" />
	<path style="fill:none;stroke:red;stroke-width:1px;stroke-linecap:butt;stroke-linejoin:miter;stroke-opacity:1" d="M 123.265,260.794 123.265,331.149 z" id="boundary" inkscape:connector-curvature="0" />
	<path style="fill:none;stroke:red;stroke-width:1px;stroke-linecap:butt;stroke-linejoin:miter;stroke-opacity:1" d="M 123.265,331.149 123.265,401.504 z" id="boundary" inkscape:connector-curvature="0" />
	<path style="fill:none;stroke:red;stroke-width:1px;stroke-linecap:butt;stroke-linejoin:miter;stroke-opacity:1" d="M 123.265,401.504 172.513,482.411 z" id="boundary" inkscape:connector-curvature="0" />
	<path style="fill:none;stroke:red;stroke-width:1px;stroke-linecap:butt;stroke-linejoin:miter;stroke-opacity:1" d="M 140.854,996 176.031,992.482 z" id="boundary" inkscape:connector-curvature="0" />
	<path style="fill:none;stroke:red;stroke-width:1px;stroke-linecap:butt;stroke-linejoin:miter;stroke-opacity:1" d="M 172.513,482.411 242.868,545.73 z" id="boundary" inkscape:connector-curvature="0" />
	<path style="fill:none;stroke:red;stroke-width:1px;stroke-linecap:butt;stroke-linejoin:miter;stroke-opacity:1" d="M 176.031,992.482 211.208,992.482 z" id="boundary" inkscape:connector-curvature="0" />
	<path style="fill:none;stroke:red;stroke-width:1px;stroke-linecap:butt;stroke-linejoin:miter;stroke-opacity:1" d="M 211.208,992.482 239.35,964.34 z" id="boundary" inkscape:connector-curvature="0" />
	<path style="fill:none;stroke:red;stroke-width:1px;stroke-linecap:butt;stroke-linejoin:miter;stroke-opacity:1" d="M 239.35,964.34 256.939,925.645 z" id="boundary" inkscape:connector-curvature="0" />
	<path style="fill:none;stroke:red;stroke-width:1px;stroke-linecap:butt;stroke-linejoin:miter;stroke-opacity:1" d="M 256.939,925.645 272.194,862.453 z" id="boundary" inkscape:connector-curvature="0" />
	<path style="fill:none;stroke:red;stroke-width:1px;stroke-linecap:butt;stroke-linejoin:miter;stroke-opacity:1" d="M 160.708,762.582 272.194,862.453 z" id="boundary" inkscape:connector-curvature="0" />
	<circle cx="4" cy="784.945" r="4" fill="#0" id="circle0"/>
	<circle cx="21.2508" cy="820.113" r="4" fill="#0" id="circle1"/>
	<circle cx="18.6545" cy="855.481" r="4" fill="#0" id="circle2"/>
	<circle cx="23.439" cy="890.056" r="4" fill="#0" id="circle3"/>
	<circle cx="32.2088" cy="925.476" r="4" fill="#0" id="circle4"/>
	<circle cx="35.3217" cy="735.688" r="4" fill="#0" id="circle5"/>
	<circle cx="42.3572" cy="545.73" r="4" fill="#0" id="circle6"/>
	<circle cx="42.3572" cy="580.908" r="4" fill="#0" id="circle7"/>
	<circle cx="42.3572" cy="616.085" r="4" fill="#0" id="circle8"/>
	<circle cx="49.3926" cy="651.262" r="4" fill="#0" id="circle9"/>
	<circle cx="49.3926" cy="686.44" r="4" fill="#0" id="circle10"/>
	<circle cx="47.2689" cy="959.056" r="4" fill="#0" id="circle11"/>
	<circle cx="59.9458" cy="514.071" r="4" fill="#0" id="circle12"/>
	<circle cx="70.4991" cy="985.447" r="4" fill="#0" id="circle13"/>
	<circle cx="84.5699" cy="179.887" r="4" fill="#0" id="circle14"/>
	<circle cx="84.5699" cy="215.064" r="4" fill="#0" id="circle15"/>
	<circle cx="84.5699" cy="250.241" r="4" fill="#0" id="circle16"/>
	<circle cx="84.5699" cy="285.418" r="4" fill="#0" id="circle17"/>
	<circle cx="84.5699" cy="334.667" r="4" fill="#0" id="circle18"/>
	<circle cx="84.5699" cy="369.844" r="4" fill="#0" id="circle19"/>
	<circle cx="84.5699" cy="405.021" r="4" fill="#0" id="circle20"/>
	<circle cx="84.5699" cy="440.199" r="4" fill="#0" id="circle21"/>
	<circle cx="84.5699" cy="475.376" r="4" fill="#0" id="circle22"/>
	<circle cx="91.6054" cy="102.496" r="4" fill="#0" id="circle23"/>
	<circle cx="91.6054" cy="137.674" r="4" fill="#0" id="circle24"/>
	<circle cx="98.6409" cy="67.3191" r="4" fill="#0" id="circle25"/>
	<circle cx="105.676" cy="992.482" r="4" fill="#0" id="circle26"/>
	<circle cx="112.712" cy="25.1064" r="4" fill="#0" id="circle27"/>
	<circle cx="123.265" cy="155.262" r="4" fill="#0" id="circle28"/>
	<circle cx="123.265" cy="190.44" r="4" fill="#0" id="circle29"/>
	<circle cx="123.265" cy="225.617" r="4" fill="#0" id="circle30"/>
	<circle cx="123.265" cy="260.794" r="4" fill="#0" id="circle31"/>
	<circle cx="123.265" cy="295.972" r="4" fill="#0" id="circle32"/>
	<circle cx="123.265" cy="331.149" r="4" fill="#0" id="circle33"/>
	<circle cx="123.265" cy="366.326" r="4" fill="#0" id="circle34"/>
	<circle cx="123.265" cy="401.504" r="4" fill="#0" id="circle35"/>
	<circle cx="130.3" cy="436.681" r="4" fill="#0" id="circle36"/>
	<circle cx="133.818" cy="120.085" r="4" fill="#0" id="circle37"/>
	<circle cx="137.336" cy="471.858" r="4" fill="#0" id="circle38"/>
	<circle cx="140.854" cy="4" r="4" fill="#0" id="circle39"/>
	<circle cx="140.854" cy="84.9078" r="4" fill="#0" id="circle40"/>
	<circle cx="140.854" cy="996" r="4" fill="#0" id="circle41"/>
	<circle cx="151.407" cy="46.2128" r="4" fill="#0" id="circle42"/>
	<circle cx="172.513" cy="482.411" r="4" fill="#0" id="circle43"/>
	<circle cx="176.031" cy="992.482" r="4" fill="#0" id="circle44"/>
	<circle cx="207.691" cy="496.482" r="4" fill="#0" id="circle45"/>
	<circle cx="207.691" cy="531.66" r="4" fill="#0" id="circle46"/>
	<circle cx="211.208" cy="992.482" r="4" fill="#0" id="circle47"/>
	<circle cx="239.35" cy="964.34" r="4" fill="#0" id="circle48"/>
	<circle cx="242.868" cy="545.73" r="4" fill="#0" id="circle49"/>
	<circle cx="242.868" cy="651.262" r="4" fill="#0" id="circle50"/>
	<circle cx="242.868" cy="686.44" r="4" fill="#0" id="circle51"/>
	<circle cx="249.903" cy="616.085" r="4" fill="#0" id="circle52"/>
	<circle cx="253.421" cy="721.617" r="4" fill="#0" id="circle53"/>
	<circle cx="256.939" cy="580.908" r="4" fill="#0" id="circle54"/>
	<circle cx="256.939" cy="925.645" r="4" fill="#0" id="circle55"/>
	<circle cx="160.708" cy="762.582" r="4" fill="#0" id="circle56"/>
	<circle cx="271.01" cy="791.972" r="4" fill="#0" id="circle57"/>
	<circle cx="271.01" cy="827.149" r="4" fill="#0" id="circle58"/>
	<circle cx="272.194" cy="862.453" r="4" fill="#0" id="circle59"/>
	</g>
</svg>