<?xml version="1.0" encoding="UTF-8" standalone="no"?>
<!-- Created with CurveBenchmark -->
<svg
	xmlns:dc="http://purl.org/dc/elements/1.1/"
	xmlns:cc="http://creativecommons.org/ns#"
	xmlns:rdf="http://www.w3.org/1999/02/22-rdf-syntax-ns#"
	xmlns:svg="http://www.w3.org/2000/svg"
	xmlns="http://www.w3.org/2000/svg"
	xmlns:sodipodi="http://sodipodi.sourceforge.net/DTD/sodipodi-0.dtd"
	xmlns:inkscape="http://www.inkscape.org/namespaces/inkscape"
	width="1000"
	height="1000"
	id="svg2"
	version="1.1"
	sodipodi:docname="manifold/stretchdenoise-octopus-9.png.txt">
<defs
	id="defs4" />
<metadata
	id="metadata7">
	<rdf:RDF>
		<cc:Work
			rdf:about="">
			<dc:format>image/svg+xml</dc:format>
			<dc:type
				rdf:resource="http://purl.org/dc/dcmitype/StillImage" />
			<dc:title></dc:title>
		</cc:Work>
	</rdf:RDF>
</metadata>
<g
	inkscape:label="Layer 1"
	inkscape:groupmode="layer"
	id="layer1">
	<path style="fill:none;stroke:red;stroke-width:1px;stroke-linecap:butt;stroke-linejoin:miter;stroke-opacity:1" d="M nan,nan nan,nan z" id="boundary" inkscape:connector-curvature="0" />
	<path style="fill:none;stroke:red;stroke-width:1px;stroke-linecap:butt;stroke-linejoin:miter;stroke-opacity:1" d="M nan,nan nan,nan z" id="boundary" inkscape:connector-curvature="0" />
	<path style="fill:none;stroke:red;stroke-width:1px;stroke-linecap:butt;stroke-linejoin:miter;stroke-opacity:1" d="M nan,nan nan,nan z" id="boundary" inkscape:connector-curvature="0" />
	<path style="fill:none;stroke:red;stroke-width:1px;stroke-linecap:butt;stroke-linejoin:miter;stroke-opacity:1" d="M nan,nan nan,nan z" id="boundary" inkscape:connector-curvature="0" />
	<path style="fill:none;stroke:red;stroke-width:1px;stroke-linecap:butt;stroke-linejoin:miter;stroke-opacity:1" d="M nan,nan nan,nan z" id="boundary" inkscape:connector-curvature="0" />
	<path style="fill:none;stroke:red;stroke-width:1px;stroke-linecap:butt;stroke-linejoin:miter;stroke-opacity:1" d="M nan,nan nan,nan z" id="boundary" inkscape:connector-curvature="0" />
	<path style="fill:none;stroke:red;stroke-width:1px;stroke-linecap:butt;stroke-linejoin:miter;stroke-opacity:1" d="M nan,nan nan,nan z" id="boundary" inkscape:connector-curvature="0" />
	<path style="fill:none;stroke:red;stroke-width:1px;stroke-linecap:butt;stroke-linejoin:miter;stroke-opacity:1" d="M nan,nan nan,nan z" id="boundary" inkscape:connector-curvature="0" />
	<path style="fill:none;stroke:red;stroke-width:1px;stroke-linecap:butt;stroke-linejoin:miter;stroke-opacity:1" d="M nan,nan nan,nan z" id="boundary" inkscape:connector-curvature="0" />
	<path style="fill:none;stroke:red;stroke-width:1px;stroke-linecap:butt;stroke-linejoin:miter;stroke-opacity:1" d="M nan,nan nan,nan z" id="boundary" inkscape:connector-curvature="0" />
	<path style="fill:none;stroke:red;stroke-width:1px;stroke-linecap:butt;stroke-linejoin:miter;stroke-opacity:1" d="M nan,nan nan,nan z" id="boundary" inkscape:connector-curvature="0" />
	<path style="fill:none;stroke:red;stroke-width:1px;stroke-linecap:butt;stroke-linejoin:miter;stroke-opacity:1" d="M nan,nan nan,nan z" id="boundary" inkscape:connector-curvature="0" />
	<path style="fill:none;stroke:red;stroke-width:1px;stroke-linecap:butt;stroke-linejoin:miter;stroke-opacity:1" d="M nan,nan nan,nan z" id="boundary" inkscape:connector-curvature="0" />
	<path style="fill:none;stroke:red;stroke-width:1px;stroke-linecap:butt;stroke-linejoin:miter;stroke-opacity:1" d="M nan,nan nan,nan z" id="boundary" inkscape:connector-curvature="0" />
	<path style="fill:none;stroke:red;stroke-width:1px;stroke-linecap:butt;stroke-linejoin:miter;stroke-opacity:1" d="M nan,nan -nan,-nan z" id="boundary" inkscape:connector-curvature="0" />
	<path style="fill:none;stroke:red;stroke-width:1px;stroke-linecap:butt;stroke-linejoin:miter;stroke-opacity:1" d="M -nan,-nan -nan,-nan z" id="boundary" inkscape:connector-curvature="0" />
	<path style="fill:none;stroke:red;stroke-width:1px;stroke-linecap:butt;stroke-linejoin:miter;stroke-opacity:1" d="M -nan,-nan -nan,-nan z" id="boundary" inkscape:connector-curvature="0" />
	<path style="fill:none;stroke:red;stroke-width:1px;stroke-linecap:butt;stroke-linejoin:miter;stroke-opacity:1" d="M -nan,-nan nan,nan z" id="boundary" inkscape:connector-curvature="0" />
	<path style="fill:none;stroke:red;stroke-width:1px;stroke-linecap:butt;stroke-linejoin:miter;stroke-opacity:1" d="M nan,nan nan,nan z" id="boundary" inkscape:connector-curvature="0" />
	<path style="fill:none;stroke:red;stroke-width:1px;stroke-linecap:butt;stroke-linejoin:miter;stroke-opacity:1" d="M nan,nan nan,nan z" id="boundary" inkscape:connector-curvature="0" />
	<path style="fill:none;stroke:red;stroke-width:1px;stroke-linecap:butt;stroke-linejoin:miter;stroke-opacity:1" d="M nan,nan nan,nan z" id="boundary" inkscape:connector-curvature="0" />
	<path style="fill:none;stroke:red;stroke-width:1px;stroke-linecap:butt;stroke-linejoin:miter;stroke-opacity:1" d="M nan,nan nan,nan z" id="boundary" inkscape:connector-curvature="0" />
	<path style="fill:none;stroke:red;stroke-width:1px;stroke-linecap:butt;stroke-linejoin:miter;stroke-opacity:1" d="M nan,nan nan,nan z" id="boundary" inkscape:connector-curvature="0" />
	<path style="fill:none;stroke:red;stroke-width:1px;stroke-linecap:butt;stroke-linejoin:miter;stroke-opacity:1" d="M nan,nan nan,nan z" id="boundary" inkscape:connector-curvature="0" />
	<path style="fill:none;stroke:red;stroke-width:1px;stroke-linecap:butt;stroke-linejoin:miter;stroke-opacity:1" d="M nan,nan nan,nan z" id="boundary" inkscape:connector-curvature="0" />
	<path style="fill:none;stroke:red;stroke-width:1px;stroke-linecap:butt;stroke-linejoin:miter;stroke-opacity:1" d="M nan,nan nan,nan z" id="boundary" inkscape:connector-curvature="0" />
	<path style="fill:none;stroke:red;stroke-width:1px;stroke-linecap:butt;stroke-linejoin:miter;stroke-opacity:1" d="M nan,nan nan,nan z" id="boundary" inkscape:connector-curvature="0" />
	<path style="fill:none;stroke:red;stroke-width:1px;stroke-linecap:butt;stroke-linejoin:miter;stroke-opacity:1" d="M nan,nan nan,nan z" id="boundary" inkscape:connector-curvature="0" />
	<path style="fill:none;stroke:red;stroke-width:1px;stroke-linecap:butt;stroke-linejoin:miter;stroke-opacity:1" d="M nan,nan nan,nan z" id="boundary" inkscape:connector-curvature="0" />
	<path style="fill:none;stroke:red;stroke-width:1px;stroke-linecap:butt;stroke-linejoin:miter;stroke-opacity:1" d="M nan,nan nan,nan z" id="boundary" inkscape:connector-curvature="0" />
	<path style="fill:none;stroke:red;stroke-width:1px;stroke-linecap:butt;stroke-linejoin:miter;stroke-opacity:1" d="M nan,nan nan,nan z" id="boundary" inkscape:connector-curvature="0" />
	<path style="fill:none;stroke:red;stroke-width:1px;stroke-linecap:butt;stroke-linejoin:miter;stroke-opacity:1" d="M nan,nan nan,nan z" id="boundary" inkscape:connector-curvature="0" />
	<path style="fill:none;stroke:red;stroke-width:1px;stroke-linecap:butt;stroke-linejoin:miter;stroke-opacity:1" d="M nan,nan nan,nan z" id="boundary" inkscape:connector-curvature="0" />
	<path style="fill:none;stroke:red;stroke-width:1px;stroke-linecap:butt;stroke-linejoin:miter;stroke-opacity:1" d="M nan,nan nan,nan z" id="boundary" inkscape:connector-curvature="0" />
	<path style="fill:none;stroke:red;stroke-width:1px;stroke-linecap:butt;stroke-linejoin:miter;stroke-opacity:1" d="M nan,nan nan,nan z" id="boundary" inkscape:connector-curvature="0" />
	<path style="fill:none;stroke:red;stroke-width:1px;stroke-linecap:butt;stroke-linejoin:miter;stroke-opacity:1" d="M nan,nan nan,nan z" id="boundary" inkscape:connector-curvature="0" />
	<path style="fill:none;stroke:red;stroke-width:1px;stroke-linecap:butt;stroke-linejoin:miter;stroke-opacity:1" d="M nan,nan nan,nan z" id="boundary" inkscape:connector-curvature="0" />
	<path style="fill:none;stroke:red;stroke-width:1px;stroke-linecap:butt;stroke-linejoin:miter;stroke-opacity:1" d="M nan,nan nan,nan z" id="boundary" inkscape:connector-curvature="0" />
	<path style="fill:none;stroke:red;stroke-width:1px;stroke-linecap:butt;stroke-linejoin:miter;stroke-opacity:1" d="M nan,nan nan,nan z" id="boundary" inkscape:connector-curvature="0" />
	<path style="fill:none;stroke:red;stroke-width:1px;stroke-linecap:butt;stroke-linejoin:miter;stroke-opacity:1" d="M nan,nan nan,nan z" id="boundary" inkscape:connector-curvature="0" />
	<path style="fill:none;stroke:red;stroke-width:1px;stroke-linecap:butt;stroke-linejoin:miter;stroke-opacity:1" d="M nan,nan nan,nan z" id="boundary" inkscape:connector-curvature="0" />
	<path style="fill:none;stroke:red;stroke-width:1px;stroke-linecap:butt;stroke-linejoin:miter;stroke-opacity:1" d="M nan,nan nan,nan z" id="boundary" inkscape:connector-curvature="0" />
	<path style="fill:none;stroke:red;stroke-width:1px;stroke-linecap:butt;stroke-linejoin:miter;stroke-opacity:1" d="M nan,nan nan,nan z" id="boundary" inkscape:connector-curvature="0" />
	<path style="fill:none;stroke:red;stroke-width:1px;stroke-linecap:butt;stroke-linejoin:miter;stroke-opacity:1" d="M nan,nan nan,nan z" id="boundary" inkscape:connector-curvature="0" />
	<path style="fill:none;stroke:red;stroke-width:1px;stroke-linecap:butt;stroke-linejoin:miter;stroke-opacity:1" d="M nan,nan nan,nan z" id="boundary" inkscape:connector-curvature="0" />
	<path style="fill:none;stroke:red;stroke-width:1px;stroke-linecap:butt;stroke-linejoin:miter;stroke-opacity:1" d="M nan,nan nan,nan z" id="boundary" inkscape:connector-curvature="0" />
	<path style="fill:none;stroke:red;stroke-width:1px;stroke-linecap:butt;stroke-linejoin:miter;stroke-opacity:1" d="M nan,nan nan,nan z" id="boundary" inkscape:connector-curvature="0" />
	<path style="fill:none;stroke:red;stroke-width:1px;stroke-linecap:butt;stroke-linejoin:miter;stroke-opacity:1" d="M nan,nan nan,nan z" id="boundary" inkscape:connector-curvature="0" />
	<path style="fill:none;stroke:red;stroke-width:1px;stroke-linecap:butt;stroke-linejoin:miter;stroke-opacity:1" d="M nan,nan nan,nan z" id="boundary" inkscape:connector-curvature="0" />
	<path style="fill:none;stroke:red;stroke-width:1px;stroke-linecap:butt;stroke-linejoin:miter;stroke-opacity:1" d="M nan,nan nan,nan z" id="boundary" inkscape:connector-curvature="0" />
	<path style="fill:none;stroke:red;stroke-width:1px;stroke-linecap:butt;stroke-linejoin:miter;stroke-opacity:1" d="M nan,nan nan,nan z" id="boundary" inkscape:connector-curvature="0" />
	<path style="fill:none;stroke:red;stroke-width:1px;stroke-linecap:butt;stroke-linejoin:miter;stroke-opacity:1" d="M nan,nan nan,nan z" id="boundary" inkscape:connector-curvature="0" />
	<path style="fill:none;stroke:red;stroke-width:1px;stroke-linecap:butt;stroke-linejoin:miter;stroke-opacity:1" d="M nan,nan nan,nan z" id="boundary" inkscape:connector-curvature="0" />
	<path style="fill:none;stroke:red;stroke-width:1px;stroke-linecap:butt;stroke-linejoin:miter;stroke-opacity:1" d="M nan,nan nan,nan z" id="boundary" inkscape:connector-curvature="0" />
	<circle cx="nan" cy="nan" r="4" fill="#0" id="circle0"/>
	<circle cx="nan" cy="nan" r="4" fill="#0" id="circle1"/>
	<circle cx="nan" cy="nan" r="4" fill="#0" id="circle2"/>
	<circle cx="nan" cy="nan" r="4" fill="#0" id="circle3"/>
	<circle cx="nan" cy="nan" r="4" fill="#0" id="circle4"/>
	<circle cx="nan" cy="nan" r="4" fill="#0" id="circle5"/>
	<circle cx="nan" cy="nan" r="4" fill="#0" id="circle6"/>
	<circle cx="nan" cy="nan" r="4" fill="#0" id="circle7"/>
	<circle cx="nan" cy="nan" r="4" fill="#0" id="circle8"/>
	<circle cx="nan" cy="nan" r="4" fill="#0" id="circle9"/>
	<circle cx="nan" cy="nan" r="4" fill="#0" id="circle10"/>
	<circle cx="nan" cy="nan" r="4" fill="#0" id="circle11"/>
	<circle cx="nan" cy="nan" r="4" fill="#0" id="circle12"/>
	<circle cx="nan" cy="nan" r="4" fill="#0" id="circle13"/>
	<circle cx="nan" cy="nan" r="4" fill="#0" id="circle14"/>
	<circle cx="nan" cy="nan" r="4" fill="#0" id="circle15"/>
	<circle cx="nan" cy="nan" r="4" fill="#0" id="circle16"/>
	<circle cx="nan" cy="nan" r="4" fill="#0" id="circle17"/>
	<circle cx="nan" cy="nan" r="4" fill="#0" id="circle18"/>
	<circle cx="nan" cy="nan" r="4" fill="#0" id="circle19"/>
	<circle cx="nan" cy="nan" r="4" fill="#0" id="circle20"/>
	<circle cx="nan" cy="nan" r="4" fill="#0" id="circle21"/>
	<circle cx="nan" cy="nan" r="4" fill="#0" id="circle22"/>
	<circle cx="nan" cy="nan" r="4" fill="#0" id="circle23"/>
	<circle cx="nan" cy="nan" r="4" fill="#0" id="circle24"/>
	<circle cx="nan" cy="nan" r="4" fill="#0" id="circle25"/>
	<circle cx="nan" cy="nan" r="4" fill="#0" id="circle26"/>
	<circle cx="nan" cy="nan" r="4" fill="#0" id="circle27"/>
	<circle cx="nan" cy="nan" r="4" fill="#0" id="circle28"/>
	<circle cx="nan" cy="nan" r="4" fill="#0" id="circle29"/>
	<circle cx="nan" cy="nan" r="4" fill="#0" id="circle30"/>
	<circle cx="nan" cy="nan" r="4" fill="#0" id="circle31"/>
	<circle cx="nan" cy="nan" r="4" fill="#0" id="circle32"/>
	<circle cx="nan" cy="nan" r="4" fill="#0" id="circle33"/>
	<circle cx="nan" cy="nan" r="4" fill="#0" id="circle34"/>
	<circle cx="nan" cy="nan" r="4" fill="#0" id="circle35"/>
	<circle cx="nan" cy="nan" r="4" fill="#0" id="circle36"/>
	<circle cx="nan" cy="nan" r="4" fill="#0" id="circle37"/>
	<circle cx="nan" cy="nan" r="4" fill="#0" id="circle38"/>
	<circle cx="nan" cy="nan" r="4" fill="#0" id="circle39"/>
	<circle cx="nan" cy="nan" r="4" fill="#0" id="circle40"/>
	<circle cx="nan" cy="nan" r="4" fill="#0" id="circle41"/>
	<circle cx="nan" cy="nan" r="4" fill="#0" id="circle42"/>
	<circle cx="nan" cy="nan" r="4" fill="#0" id="circle43"/>
	<circle cx="nan" cy="nan" r="4" fill="#0" id="circle44"/>
	<circle cx="nan" cy="nan" r="4" fill="#0" id="circle45"/>
	<circle cx="nan" cy="nan" r="4" fill="#0" id="circle46"/>
	<circle cx="nan" cy="nan" r="4" fill="#0" id="circle47"/>
	<circle cx="nan" cy="nan" r="4" fill="#0" id="circle48"/>
	<circle cx="nan" cy="nan" r="4" fill="#0" id="circle49"/>
	<circle cx="nan" cy="nan" r="4" fill="#0" id="circle50"/>
	<circle cx="nan" cy="nan" r="4" fill="#0" id="circle51"/>
	<circle cx="nan" cy="nan" r="4" fill="#0" id="circle52"/>
	<circle cx="nan" cy="nan" r="4" fill="#0" id="circle53"/>
	<circle cx="nan" cy="nan" r="4" fill="#0" id="circle54"/>
	<circle cx="nan" cy="nan" r="4" fill="#0" id="circle55"/>
	<circle cx="nan" cy="nan" r="4" fill="#0" id="circle56"/>
	<circle cx="nan" cy="nan" r="4" fill="#0" id="circle57"/>
	<circle cx="nan" cy="nan" r="4" fill="#0" id="circle58"/>
	<circle cx="nan" cy="nan" r="4" fill="#0" id="circle59"/>
	<circle cx="nan" cy="nan" r="4" fill="#0" id="circle60"/>
	<circle cx="nan" cy="nan" r="4" fill="#0" id="circle61"/>
	<circle cx="nan" cy="nan" r="4" fill="#0" id="circle62"/>
	<circle cx="nan" cy="nan" r="4" fill="#0" id="circle63"/>
	<circle cx="nan" cy="nan" r="4" fill="#0" id="circle64"/>
	<circle cx="nan" cy="nan" r="4" fill="#0" id="circle65"/>
	<circle cx="nan" cy="nan" r="4" fill="#0" id="circle66"/>
	<circle cx="nan" cy="nan" r="4" fill="#0" id="circle67"/>
	<circle cx="nan" cy="nan" r="4" fill="#0" id="circle68"/>
	<circle cx="nan" cy="nan" r="4" fill="#0" id="circle69"/>
	<circle cx="nan" cy="nan" r="4" fill="#0" id="circle70"/>
	<circle cx="nan" cy="nan" r="4" fill="#0" id="circle71"/>
	<circle cx="nan" cy="nan" r="4" fill="#0" id="circle72"/>
	<circle cx="nan" cy="nan" r="4" fill="#0" id="circle73"/>
	<circle cx="nan" cy="nan" r="4" fill="#0" id="circle74"/>
	<circle cx="nan" cy="nan" r="4" fill="#0" id="circle75"/>
	<circle cx="nan" cy="nan" r="4" fill="#0" id="circle76"/>
	<circle cx="nan" cy="nan" r="4" fill="#0" id="circle77"/>
	<circle cx="nan" cy="nan" r="4" fill="#0" id="circle78"/>
	<circle cx="nan" cy="nan" r="4" fill="#0" id="circle79"/>
	<circle cx="nan" cy="nan" r="4" fill="#0" id="circle80"/>
	<circle cx="nan" cy="nan" r="4" fill="#0" id="circle81"/>
	<circle cx="nan" cy="nan" r="4" fill="#0" id="circle82"/>
	<circle cx="nan" cy="nan" r="4" fill="#0" id="circle83"/>
	<circle cx="nan" cy="nan" r="4" fill="#0" id="circle84"/>
	<circle cx="nan" cy="nan" r="4" fill="#0" id="circle85"/>
	<circle cx="nan" cy="nan" r="4" fill="#0" id="circle86"/>
	<circle cx="nan" cy="nan" r="4" fill="#0" id="circle87"/>
	<circle cx="nan" cy="nan" r="4" fill="#0" id="circle88"/>
	<circle cx="nan" cy="nan" r="4" fill="#0" id="circle89"/>
	<circle cx="nan" cy="nan" r="4" fill="#0" id="circle90"/>
	<circle cx="nan" cy="nan" r="4" fill="#0" id="circle91"/>
	<circle cx="nan" cy="nan" r="4" fill="#0" id="circle92"/>
	<circle cx="nan" cy="nan" r="4" fill="#0" id="circle93"/>
	<circle cx="nan" cy="nan" r="4" fill="#0" id="circle94"/>
	<circle cx="nan" cy="nan" r="4" fill="#0" id="circle95"/>
	<circle cx="nan" cy="nan" r="4" fill="#0" id="circle96"/>
	<circle cx="nan" cy="nan" r="4" fill="#0" id="circle97"/>
	<circle cx="nan" cy="nan" r="4" fill="#0" id="circle98"/>
	<circle cx="nan" cy="nan" r="4" fill="#0" id="circle99"/>
	<circle cx="nan" cy="nan" r="4" fill="#0" id="circle100"/>
	<circle cx="nan" cy="nan" r="4" fill="#0" id="circle101"/>
	<circle cx="nan" cy="nan" r="4" fill="#0" id="circle102"/>
	<circle cx="nan" cy="nan" r="4" fill="#0" id="circle103"/>
	<circle cx="nan" cy="nan" r="4" fill="#0" id="circle104"/>
	<circle cx="nan" cy="nan" r="4" fill="#0" id="circle105"/>
	<circle cx="nan" cy="nan" r="4" fill="#0" id="circle106"/>
	<circle cx="nan" cy="nan" r="4" fill="#0" id="circle107"/>
	<circle cx="nan" cy="nan" r="4" fill="#0" id="circle108"/>
	<circle cx="nan" cy="nan" r="4" fill="#0" id="circle109"/>
	<circle cx="nan" cy="nan" r="4" fill="#0" id="circle110"/>
	<circle cx="nan" cy="nan" r="4" fill="#0" id="circle111"/>
	<circle cx="nan" cy="nan" r="4" fill="#0" id="circle112"/>
	<circle cx="nan" cy="nan" r="4" fill="#0" id="circle113"/>
	<circle cx="nan" cy="nan" r="4" fill="#0" id="circle114"/>
	<circle cx="nan" cy="nan" r="4" fill="#0" id="circle115"/>
	<circle cx="nan" cy="nan" r="4" fill="#0" id="circle116"/>
	<circle cx="nan" cy="nan" r="4" fill="#0" id="circle117"/>
	<circle cx="nan" cy="nan" r="4" fill="#0" id="circle118"/>
	<circle cx="nan" cy="nan" r="4" fill="#0" id="circle119"/>
	<circle cx="nan" cy="nan" r="4" fill="#0" id="circle120"/>
	<circle cx="nan" cy="nan" r="4" fill="#0" id="circle121"/>
	<circle cx="nan" cy="nan" r="4" fill="#0" id="circle122"/>
	<circle cx="nan" cy="nan" r="4" fill="#0" id="circle123"/>
	<circle cx="nan" cy="nan" r="4" fill="#0" id="circle124"/>
	<circle cx="nan" cy="nan" r="4" fill="#0" id="circle125"/>
	<circle cx="nan" cy="nan" r="4" fill="#0" id="circle126"/>
	<circle cx="nan" cy="nan" r="4" fill="#0" id="circle127"/>
	<circle cx="nan" cy="nan" r="4" fill="#0" id="circle128"/>
	<circle cx="nan" cy="nan" r="4" fill="#0" id="circle129"/>
	<circle cx="nan" cy="nan" r="4" fill="#0" id="circle130"/>
	<circle cx="nan" cy="nan" r="4" fill="#0" id="circle131"/>
	<circle cx="nan" cy="nan" r="4" fill="#0" id="circle132"/>
	<circle cx="nan" cy="nan" r="4" fill="#0" id="circle133"/>
	<circle cx="nan" cy="nan" r="4" fill="#0" id="circle134"/>
	<circle cx="nan" cy="nan" r="4" fill="#0" id="circle135"/>
	<circle cx="nan" cy="nan" r="4" fill="#0" id="circle136"/>
	<circle cx="nan" cy="nan" r="4" fill="#0" id="circle137"/>
	<circle cx="nan" cy="nan" r="4" fill="#0" id="circle138"/>
	<circle cx="nan" cy="nan" r="4" fill="#0" id="circle139"/>
	<circle cx="nan" cy="nan" r="4" fill="#0" id="circle140"/>
	<circle cx="nan" cy="nan" r="4" fill="#0" id="circle141"/>
	<circle cx="nan" cy="nan" r="4" fill="#0" id="circle142"/>
	<circle cx="nan" cy="nan" r="4" fill="#0" id="circle143"/>
	<circle cx="nan" cy="nan" r="4" fill="#0" id="circle144"/>
	<circle cx="nan" cy="nan" r="4" fill="#0" id="circle145"/>
	<circle cx="nan" cy="nan" r="4" fill="#0" id="circle146"/>
	<circle cx="nan" cy="nan" r="4" fill="#0" id="circle147"/>
	<circle cx="nan" cy="nan" r="4" fill="#0" id="circle148"/>
	<circle cx="nan" cy="nan" r="4" fill="#0" id="circle149"/>
	<circle cx="nan" cy="nan" r="4" fill="#0" id="circle150"/>
	<circle cx="nan" cy="nan" r="4" fill="#0" id="circle151"/>
	<circle cx="nan" cy="nan" r="4" fill="#0" id="circle152"/>
	<circle cx="nan" cy="nan" r="4" fill="#0" id="circle153"/>
	<circle cx="nan" cy="nan" r="4" fill="#0" id="circle154"/>
	<circle cx="nan" cy="nan" r="4" fill="#0" id="circle155"/>
	<circle cx="nan" cy="nan" r="4" fill="#0" id="circle156"/>
	<circle cx="nan" cy="nan" r="4" fill="#0" id="circle157"/>
	<circle cx="nan" cy="nan" r="4" fill="#0" id="circle158"/>
	<circle cx="nan" cy="nan" r="4" fill="#0" id="circle159"/>
	<circle cx="nan" cy="nan" r="4" fill="#0" id="circle160"/>
	<circle cx="nan" cy="nan" r="4" fill="#0" id="circle161"/>
	<circle cx="nan" cy="nan" r="4" fill="#0" id="circle162"/>
	<circle cx="nan" cy="nan" r="4" fill="#0" id="circle163"/>
	<circle cx="nan" cy="nan" r="4" fill="#0" id="circle164"/>
	<circle cx="nan" cy="nan" r="4" fill="#0" id="circle165"/>
	<circle cx="nan" cy="nan" r="4" fill="#0" id="circle166"/>
	<circle cx="nan" cy="nan" r="4" fill="#0" id="circle167"/>
	<circle cx="nan" cy="nan" r="4" fill="#0" id="circle168"/>
	<circle cx="nan" cy="nan" r="4" fill="#0" id="circle169"/>
	<circle cx="nan" cy="nan" r="4" fill="#0" id="circle170"/>
	<circle cx="nan" cy="nan" r="4" fill="#0" id="circle171"/>
	<circle cx="nan" cy="nan" r="4" fill="#0" id="circle172"/>
	<circle cx="nan" cy="nan" r="4" fill="#0" id="circle173"/>
	<circle cx="nan" cy="nan" r="4" fill="#0" id="circle174"/>
	<circle cx="nan" cy="nan" r="4" fill="#0" id="circle175"/>
	<circle cx="nan" cy="nan" r="4" fill="#0" id="circle176"/>
	<circle cx="nan" cy="nan" r="4" fill="#0" id="circle177"/>
	<circle cx="nan" cy="nan" r="4" fill="#0" id="circle178"/>
	<circle cx="nan" cy="nan" r="4" fill="#0" id="circle179"/>
	<circle cx="nan" cy="nan" r="4" fill="#0" id="circle180"/>
	<circle cx="nan" cy="nan" r="4" fill="#0" id="circle181"/>
	<circle cx="nan" cy="nan" r="4" fill="#0" id="circle182"/>
	<circle cx="nan" cy="nan" r="4" fill="#0" id="circle183"/>
	<circle cx="nan" cy="nan" r="4" fill="#0" id="circle184"/>
	<circle cx="nan" cy="nan" r="4" fill="#0" id="circle185"/>
	<circle cx="nan" cy="nan" r="4" fill="#0" id="circle186"/>
	<circle cx="nan" cy="nan" r="4" fill="#0" id="circle187"/>
	<circle cx="nan" cy="nan" r="4" fill="#0" id="circle188"/>
	<circle cx="nan" cy="nan" r="4" fill="#0" id="circle189"/>
	<circle cx="nan" cy="nan" r="4" fill="#0" id="circle190"/>
	<circle cx="nan" cy="nan" r="4" fill="#0" id="circle191"/>
	<circle cx="nan" cy="nan" r="4" fill="#0" id="circle192"/>
	<circle cx="nan" cy="nan" r="4" fill="#0" id="circle193"/>
	<circle cx="nan" cy="nan" r="4" fill="#0" id="circle194"/>
	<circle cx="nan" cy="nan" r="4" fill="#0" id="circle195"/>
	<circle cx="nan" cy="nan" r="4" fill="#0" id="circle196"/>
	<circle cx="nan" cy="nan" r="4" fill="#0" id="circle197"/>
	<circle cx="nan" cy="nan" r="4" fill="#0" id="circle198"/>
	<circle cx="nan" cy="nan" r="4" fill="#0" id="circle199"/>
	<circle cx="nan" cy="nan" r="4" fill="#0" id="circle200"/>
	<circle cx="nan" cy="nan" r="4" fill="#0" id="circle201"/>
	<circle cx="nan" cy="nan" r="4" fill="#0" id="circle202"/>
	<circle cx="nan" cy="nan" r="4" fill="#0" id="circle203"/>
	<circle cx="nan" cy="nan" r="4" fill="#0" id="circle204"/>
	<circle cx="nan" cy="nan" r="4" fill="#0" id="circle205"/>
	<circle cx="nan" cy="nan" r="4" fill="#0" id="circle206"/>
	<circle cx="nan" cy="nan" r="4" fill="#0" id="circle207"/>
	<circle cx="nan" cy="nan" r="4" fill="#0" id="circle208"/>
	<circle cx="nan" cy="nan" r="4" fill="#0" id="circle209"/>
	<circle cx="nan" cy="nan" r="4" fill="#0" id="circle210"/>
	<circle cx="nan" cy="nan" r="4" fill="#0" id="circle211"/>
	<circle cx="nan" cy="nan" r="4" fill="#0" id="circle212"/>
	<circle cx="nan" cy="nan" r="4" fill="#0" id="circle213"/>
	<circle cx="nan" cy="nan" r="4" fill="#0" id="circle214"/>
	<circle cx="nan" cy="nan" r="4" fill="#0" id="circle215"/>
	<circle cx="nan" cy="nan" r="4" fill="#0" id="circle216"/>
	<circle cx="nan" cy="nan" r="4" fill="#0" id="circle217"/>
	<circle cx="nan" cy="nan" r="4" fill="#0" id="circle218"/>
	<circle cx="nan" cy="nan" r="4" fill="#0" id="circle219"/>
	<circle cx="nan" cy="nan" r="4" fill="#0" id="circle220"/>
	<circle cx="nan" cy="nan" r="4" fill="#0" id="circle221"/>
	<circle cx="nan" cy="nan" r="4" fill="#0" id="circle222"/>
	<circle cx="nan" cy="nan" r="4" fill="#0" id="circle223"/>
	<circle cx="nan" cy="nan" r="4" fill="#0" id="circle224"/>
	<circle cx="nan" cy="nan" r="4" fill="#0" id="circle225"/>
	<circle cx="nan" cy="nan" r="4" fill="#0" id="circle226"/>
	<circle cx="nan" cy="nan" r="4" fill="#0" id="circle227"/>
	<circle cx="nan" cy="nan" r="4" fill="#0" id="circle228"/>
	<circle cx="nan" cy="nan" r="4" fill="#0" id="circle229"/>
	<circle cx="nan" cy="nan" r="4" fill="#0" id="circle230"/>
	<circle cx="nan" cy="nan" r="4" fill="#0" id="circle231"/>
	<circle cx="nan" cy="nan" r="4" fill="#0" id="circle232"/>
	<circle cx="nan" cy="nan" r="4" fill="#0" id="circle233"/>
	<circle cx="nan" cy="nan" r="4" fill="#0" id="circle234"/>
	<circle cx="nan" cy="nan" r="4" fill="#0" id="circle235"/>
	<circle cx="nan" cy="nan" r="4" fill="#0" id="circle236"/>
	<circle cx="nan" cy="nan" r="4" fill="#0" id="circle237"/>
	<circle cx="nan" cy="nan" r="4" fill="#0" id="circle238"/>
	<circle cx="nan" cy="nan" r="4" fill="#0" id="circle239"/>
	<circle cx="nan" cy="nan" r="4" fill="#0" id="circle240"/>
	<circle cx="nan" cy="nan" r="4" fill="#0" id="circle241"/>
	<circle cx="nan" cy="nan" r="4" fill="#0" id="circle242"/>
	<circle cx="nan" cy="nan" r="4" fill="#0" id="circle243"/>
	<circle cx="nan" cy="nan" r="4" fill="#0" id="circle244"/>
	<circle cx="nan" cy="nan" r="4" fill="#0" id="circle245"/>
	<circle cx="nan" cy="nan" r="4" fill="#0" id="circle246"/>
	<circle cx="nan" cy="nan" r="4" fill="#0" id="circle247"/>
	<circle cx="nan" cy="nan" r="4" fill="#0" id="circle248"/>
	<circle cx="nan" cy="nan" r="4" fill="#0" id="circle249"/>
	<circle cx="nan" cy="nan" r="4" fill="#0" id="circle250"/>
	<circle cx="nan" cy="nan" r="4" fill="#0" id="circle251"/>
	<circle cx="nan" cy="nan" r="4" fill="#0" id="circle252"/>
	<circle cx="nan" cy="nan" r="4" fill="#0" id="circle253"/>
	<circle cx="nan" cy="nan" r="4" fill="#0" id="circle254"/>
	<circle cx="nan" cy="nan" r="4" fill="#0" id="circle255"/>
	<circle cx="nan" cy="nan" r="4" fill="#0" id="circle256"/>
	<circle cx="nan" cy="nan" r="4" fill="#0" id="circle257"/>
	<circle cx="nan" cy="nan" r="4" fill="#0" id="circle258"/>
	<circle cx="nan" cy="nan" r="4" fill="#0" id="circle259"/>
	<circle cx="nan" cy="nan" r="4" fill="#0" id="circle260"/>
	<circle cx="nan" cy="nan" r="4" fill="#0" id="circle261"/>
	<circle cx="nan" cy="nan" r="4" fill="#0" id="circle262"/>
	<circle cx="nan" cy="nan" r="4" fill="#0" id="circle263"/>
	<circle cx="nan" cy="nan" r="4" fill="#0" id="circle264"/>
	<circle cx="nan" cy="nan" r="4" fill="#0" id="circle265"/>
	<circle cx="nan" cy="nan" r="4" fill="#0" id="circle266"/>
	<circle cx="nan" cy="nan" r="4" fill="#0" id="circle267"/>
	<circle cx="nan" cy="nan" r="4" fill="#0" id="circle268"/>
	<circle cx="nan" cy="nan" r="4" fill="#0" id="circle269"/>
	<circle cx="nan" cy="nan" r="4" fill="#0" id="circle270"/>
	<circle cx="nan" cy="nan" r="4" fill="#0" id="circle271"/>
	<circle cx="nan" cy="nan" r="4" fill="#0" id="circle272"/>
	<circle cx="nan" cy="nan" r="4" fill="#0" id="circle273"/>
	<circle cx="nan" cy="nan" r="4" fill="#0" id="circle274"/>
	<circle cx="nan" cy="nan" r="4" fill="#0" id="circle275"/>
	<circle cx="nan" cy="nan" r="4" fill="#0" id="circle276"/>
	<circle cx="nan" cy="nan" r="4" fill="#0" id="circle277"/>
	<circle cx="nan" cy="nan" r="4" fill="#0" id="circle278"/>
	<circle cx="nan" cy="nan" r="4" fill="#0" id="circle279"/>
	<circle cx="nan" cy="nan" r="4" fill="#0" id="circle280"/>
	<circle cx="nan" cy="nan" r="4" fill="#0" id="circle281"/>
	<circle cx="nan" cy="nan" r="4" fill="#0" id="circle282"/>
	<circle cx="nan" cy="nan" r="4" fill="#0" id="circle283"/>
	<circle cx="nan" cy="nan" r="4" fill="#0" id="circle284"/>
	<circle cx="nan" cy="nan" r="4" fill="#0" id="circle285"/>
	<circle cx="nan" cy="nan" r="4" fill="#0" id="circle286"/>
	<circle cx="nan" cy="nan" r="4" fill="#0" id="circle287"/>
	<circle cx="nan" cy="nan" r="4" fill="#0" id="circle288"/>
	<circle cx="nan" cy="nan" r="4" fill="#0" id="circle289"/>
	<circle cx="nan" cy="nan" r="4" fill="#0" id="circle290"/>
	<circle cx="nan" cy="nan" r="4" fill="#0" id="circle291"/>
	<circle cx="nan" cy="nan" r="4" fill="#0" id="circle292"/>
	<circle cx="nan" cy="nan" r="4" fill="#0" id="circle293"/>
	<circle cx="nan" cy="nan" r="4" fill="#0" id="circle294"/>
	<circle cx="nan" cy="nan" r="4" fill="#0" id="circle295"/>
	<circle cx="nan" cy="nan" r="4" fill="#0" id="circle296"/>
	<circle cx="nan" cy="nan" r="4" fill="#0" id="circle297"/>
	<circle cx="nan" cy="nan" r="4" fill="#0" id="circle298"/>
	<circle cx="nan" cy="nan" r="4" fill="#0" id="circle299"/>
	<circle cx="nan" cy="nan" r="4" fill="#0" id="circle300"/>
	<circle cx="nan" cy="nan" r="4" fill="#0" id="circle301"/>
	<circle cx="nan" cy="nan" r="4" fill="#0" id="circle302"/>
	<circle cx="nan" cy="nan" r="4" fill="#0" id="circle303"/>
	<circle cx="nan" cy="nan" r="4" fill="#0" id="circle304"/>
	<circle cx="nan" cy="nan" r="4" fill="#0" id="circle305"/>
	<circle cx="nan" cy="nan" r="4" fill="#0" id="circle306"/>
	<circle cx="nan" cy="nan" r="4" fill="#0" id="circle307"/>
	<circle cx="nan" cy="nan" r="4" fill="#0" id="circle308"/>
	<circle cx="nan" cy="nan" r="4" fill="#0" id="circle309"/>
	<circle cx="nan" cy="nan" r="4" fill="#0" id="circle310"/>
	<circle cx="nan" cy="nan" r="4" fill="#0" id="circle311"/>
	<circle cx="nan" cy="nan" r="4" fill="#0" id="circle312"/>
	<circle cx="nan" cy="nan" r="4" fill="#0" id="circle313"/>
	<circle cx="nan" cy="nan" r="4" fill="#0" id="circle314"/>
	<circle cx="nan" cy="nan" r="4" fill="#0" id="circle315"/>
	<circle cx="nan" cy="nan" r="4" fill="#0" id="circle316"/>
	<circle cx="nan" cy="nan" r="4" fill="#0" id="circle317"/>
	<circle cx="nan" cy="nan" r="4" fill="#0" id="circle318"/>
	<circle cx="nan" cy="nan" r="4" fill="#0" id="circle319"/>
	<circle cx="nan" cy="nan" r="4" fill="#0" id="circle320"/>
	<circle cx="nan" cy="nan" r="4" fill="#0" id="circle321"/>
	<circle cx="nan" cy="nan" r="4" fill="#0" id="circle322"/>
	<circle cx="nan" cy="nan" r="4" fill="#0" id="circle323"/>
	<circle cx="nan" cy="nan" r="4" fill="#0" id="circle324"/>
	<circle cx="nan" cy="nan" r="4" fill="#0" id="circle325"/>
	<circle cx="nan" cy="nan" r="4" fill="#0" id="circle326"/>
	<circle cx="nan" cy="nan" r="4" fill="#0" id="circle327"/>
	<circle cx="nan" cy="nan" r="4" fill="#0" id="circle328"/>
	<circle cx="nan" cy="nan" r="4" fill="#0" id="circle329"/>
	<circle cx="nan" cy="nan" r="4" fill="#0" id="circle330"/>
	<circle cx="nan" cy="nan" r="4" fill="#0" id="circle331"/>
	<circle cx="nan" cy="nan" r="4" fill="#0" id="circle332"/>
	<circle cx="nan" cy="nan" r="4" fill="#0" id="circle333"/>
	<circle cx="nan" cy="nan" r="4" fill="#0" id="circle334"/>
	<circle cx="nan" cy="nan" r="4" fill="#0" id="circle335"/>
	<circle cx="nan" cy="nan" r="4" fill="#0" id="circle336"/>
	<circle cx="nan" cy="nan" r="4" fill="#0" id="circle337"/>
	<circle cx="nan" cy="nan" r="4" fill="#0" id="circle338"/>
	<circle cx="nan" cy="nan" r="4" fill="#0" id="circle339"/>
	<circle cx="nan" cy="nan" r="4" fill="#0" id="circle340"/>
	<circle cx="nan" cy="nan" r="4" fill="#0" id="circle341"/>
	<circle cx="nan" cy="nan" r="4" fill="#0" id="circle342"/>
	<circle cx="nan" cy="nan" r="4" fill="#0" id="circle343"/>
	<circle cx="nan" cy="nan" r="4" fill="#0" id="circle344"/>
	<circle cx="nan" cy="nan" r="4" fill="#0" id="circle345"/>
	<circle cx="nan" cy="nan" r="4" fill="#0" id="circle346"/>
	<circle cx="nan" cy="nan" r="4" fill="#0" id="circle347"/>
	<circle cx="nan" cy="nan" r="4" fill="#0" id="circle348"/>
	<circle cx="nan" cy="nan" r="4" fill="#0" id="circle349"/>
	<circle cx="nan" cy="nan" r="4" fill="#0" id="circle350"/>
	<circle cx="nan" cy="nan" r="4" fill="#0" id="circle351"/>
	<circle cx="nan" cy="nan" r="4" fill="#0" id="circle352"/>
	<circle cx="nan" cy="nan" r="4" fill="#0" id="circle353"/>
	<circle cx="nan" cy="nan" r="4" fill="#0" id="circle354"/>
	<circle cx="nan" cy="nan" r="4" fill="#0" id="circle355"/>
	<circle cx="nan" cy="nan" r="4" fill="#0" id="circle356"/>
	<circle cx="nan" cy="nan" r="4" fill="#0" id="circle357"/>
	<circle cx="nan" cy="nan" r="4" fill="#0" id="circle358"/>
	<circle cx="nan" cy="nan" r="4" fill="#0" id="circle359"/>
	<circle cx="nan" cy="nan" r="4" fill="#0" id="circle360"/>
	<circle cx="nan" cy="nan" r="4" fill="#0" id="circle361"/>
	<circle cx="nan" cy="nan" r="4" fill="#0" id="circle362"/>
	<circle cx="nan" cy="nan" r="4" fill="#0" id="circle363"/>
	<circle cx="nan" cy="nan" r="4" fill="#0" id="circle364"/>
	<circle cx="nan" cy="nan" r="4" fill="#0" id="circle365"/>
	<circle cx="nan" cy="nan" r="4" fill="#0" id="circle366"/>
	<circle cx="nan" cy="nan" r="4" fill="#0" id="circle367"/>
	<circle cx="nan" cy="nan" r="4" fill="#0" id="circle368"/>
	<circle cx="nan" cy="nan" r="4" fill="#0" id="circle369"/>
	<circle cx="nan" cy="nan" r="4" fill="#0" id="circle370"/>
	<circle cx="nan" cy="nan" r="4" fill="#0" id="circle371"/>
	<circle cx="nan" cy="nan" r="4" fill="#0" id="circle372"/>
	<circle cx="nan" cy="nan" r="4" fill="#0" id="circle373"/>
	<circle cx="nan" cy="nan" r="4" fill="#0" id="circle374"/>
	<circle cx="nan" cy="nan" r="4" fill="#0" id="circle375"/>
	<circle cx="nan" cy="nan" r="4" fill="#0" id="circle376"/>
	<circle cx="nan" cy="nan" r="4" fill="#0" id="circle377"/>
	<circle cx="nan" cy="nan" r="4" fill="#0" id="circle378"/>
	<circle cx="nan" cy="nan" r="4" fill="#0" id="circle379"/>
	<circle cx="nan" cy="nan" r="4" fill="#0" id="circle380"/>
	<circle cx="nan" cy="nan" r="4" fill="#0" id="circle381"/>
	<circle cx="nan" cy="nan" r="4" fill="#0" id="circle382"/>
	<circle cx="nan" cy="nan" r="4" fill="#0" id="circle383"/>
	<circle cx="nan" cy="nan" r="4" fill="#0" id="circle384"/>
	<circle cx="nan" cy="nan" r="4" fill="#0" id="circle385"/>
	<circle cx="nan" cy="nan" r="4" fill="#0" id="circle386"/>
	<circle cx="nan" cy="nan" r="4" fill="#0" id="circle387"/>
	<circle cx="-nan" cy="-nan" r="4" fill="#0" id="circle388"/>
	<circle cx="nan" cy="nan" r="4" fill="#0" id="circle389"/>
	<circle cx="nan" cy="nan" r="4" fill="#0" id="circle390"/>
	<circle cx="-nan" cy="-nan" r="4" fill="#0" id="circle391"/>
	<circle cx="nan" cy="nan" r="4" fill="#0" id="circle392"/>
	<circle cx="nan" cy="nan" r="4" fill="#0" id="circle393"/>
	<circle cx="-nan" cy="-nan" r="4" fill="#0" id="circle394"/>
	<circle cx="nan" cy="nan" r="4" fill="#0" id="circle395"/>
	<circle cx="nan" cy="nan" r="4" fill="#0" id="circle396"/>
	<circle cx="nan" cy="nan" r="4" fill="#0" id="circle397"/>
	<circle cx="nan" cy="nan" r="4" fill="#0" id="circle398"/>
	<circle cx="nan" cy="nan" r="4" fill="#0" id="circle399"/>
	<circle cx="nan" cy="nan" r="4" fill="#0" id="circle400"/>
	<circle cx="nan" cy="nan" r="4" fill="#0" id="circle401"/>
	<circle cx="nan" cy="nan" r="4" fill="#0" id="circle402"/>
	<circle cx="nan" cy="nan" r="4" fill="#0" id="circle403"/>
	<circle cx="nan" cy="nan" r="4" fill="#0" id="circle404"/>
	<circle cx="nan" cy="nan" r="4" fill="#0" id="circle405"/>
	<circle cx="nan" cy="nan" r="4" fill="#0" id="circle406"/>
	<circle cx="nan" cy="nan" r="4" fill="#0" id="circle407"/>
	<circle cx="nan" cy="nan" r="4" fill="#0" id="circle408"/>
	<circle cx="nan" cy="nan" r="4" fill="#0" id="circle409"/>
	<circle cx="nan" cy="nan" r="4" fill="#0" id="circle410"/>
	<circle cx="nan" cy="nan" r="4" fill="#0" id="circle411"/>
	<circle cx="nan" cy="nan" r="4" fill="#0" id="circle412"/>
	<circle cx="nan" cy="nan" r="4" fill="#0" id="circle413"/>
	<circle cx="nan" cy="nan" r="4" fill="#0" id="circle414"/>
	<circle cx="nan" cy="nan" r="4" fill="#0" id="circle415"/>
	<circle cx="nan" cy="nan" r="4" fill="#0" id="circle416"/>
	<circle cx="nan" cy="nan" r="4" fill="#0" id="circle417"/>
	<circle cx="nan" cy="nan" r="4" fill="#0" id="circle418"/>
	<circle cx="nan" cy="nan" r="4" fill="#0" id="circle419"/>
	<circle cx="nan" cy="nan" r="4" fill="#0" id="circle420"/>
	<circle cx="nan" cy="nan" r="4" fill="#0" id="circle421"/>
	<circle cx="nan" cy="nan" r="4" fill="#0" id="circle422"/>
	<circle cx="nan" cy="nan" r="4" fill="#0" id="circle423"/>
	<circle cx="nan" cy="nan" r="4" fill="#0" id="circle424"/>
	<circle cx="nan" cy="nan" r="4" fill="#0" id="circle425"/>
	<circle cx="nan" cy="nan" r="4" fill="#0" id="circle426"/>
	<circle cx="nan" cy="nan" r="4" fill="#0" id="circle427"/>
	<circle cx="nan" cy="nan" r="4" fill="#0" id="circle428"/>
	<circle cx="nan" cy="nan" r="4" fill="#0" id="circle429"/>
	<circle cx="nan" cy="nan" r="4" fill="#0" id="circle430"/>
	<circle cx="nan" cy="nan" r="4" fill="#0" id="circle431"/>
	<circle cx="nan" cy="nan" r="4" fill="#0" id="circle432"/>
	<circle cx="nan" cy="nan" r="4" fill="#0" id="circle433"/>
	<circle cx="nan" cy="nan" r="4" fill="#0" id="circle434"/>
	<circle cx="nan" cy="nan" r="4" fill="#0" id="circle435"/>
	<circle cx="nan" cy="nan" r="4" fill="#0" id="circle436"/>
	<circle cx="nan" cy="nan" r="4" fill="#0" id="circle437"/>
	<circle cx="nan" cy="nan" r="4" fill="#0" id="circle438"/>
	<circle cx="nan" cy="nan" r="4" fill="#0" id="circle439"/>
	<circle cx="nan" cy="nan" r="4" fill="#0" id="circle440"/>
	<circle cx="nan" cy="nan" r="4" fill="#0" id="circle441"/>
	<circle cx="nan" cy="nan" r="4" fill="#0" id="circle442"/>
	<circle cx="nan" cy="nan" r="4" fill="#0" id="circle443"/>
	<circle cx="nan" cy="nan" r="4" fill="#0" id="circle444"/>
	<circle cx="nan" cy="nan" r="4" fill="#0" id="circle445"/>
	<circle cx="nan" cy="nan" r="4" fill="#0" id="circle446"/>
	<circle cx="nan" cy="nan" r="4" fill="#0" id="circle447"/>
	<circle cx="nan" cy="nan" r="4" fill="#0" id="circle448"/>
	<circle cx="nan" cy="nan" r="4" fill="#0" id="circle449"/>
	<circle cx="nan" cy="nan" r="4" fill="#0" id="circle450"/>
	<circle cx="nan" cy="nan" r="4" fill="#0" id="circle451"/>
	<circle cx="nan" cy="nan" r="4" fill="#0" id="circle452"/>
	<circle cx="nan" cy="nan" r="4" fill="#0" id="circle453"/>
	<circle cx="nan" cy="nan" r="4" fill="#0" id="circle454"/>
	<circle cx="nan" cy="nan" r="4" fill="#0" id="circle455"/>
	<circle cx="nan" cy="nan" r="4" fill="#0" id="circle456"/>
	<circle cx="nan" cy="nan" r="4" fill="#0" id="circle457"/>
	<circle cx="nan" cy="nan" r="4" fill="#0" id="circle458"/>
	<circle cx="nan" cy="nan" r="4" fill="#0" id="circle459"/>
	<circle cx="nan" cy="nan" r="4" fill="#0" id="circle460"/>
	<circle cx="nan" cy="nan" r="4" fill="#0" id="circle461"/>
	<circle cx="nan" cy="nan" r="4" fill="#0" id="circle462"/>
	<circle cx="nan" cy="nan" r="4" fill="#0" id="circle463"/>
	<circle cx="nan" cy="nan" r="4" fill="#0" id="circle464"/>
	<circle cx="nan" cy="nan" r="4" fill="#0" id="circle465"/>
	<circle cx="nan" cy="nan" r="4" fill="#0" id="circle466"/>
	<circle cx="nan" cy="nan" r="4" fill="#0" id="circle467"/>
	<circle cx="nan" cy="nan" r="4" fill="#0" id="circle468"/>
	<circle cx="nan" cy="nan" r="4" fill="#0" id="circle469"/>
	<circle cx="nan" cy="nan" r="4" fill="#0" id="circle470"/>
	<circle cx="nan" cy="nan" r="4" fill="#0" id="circle471"/>
	<circle cx="nan" cy="nan" r="4" fill="#0" id="circle472"/>
	<circle cx="nan" cy="nan" r="4" fill="#0" id="circle473"/>
	<circle cx="nan" cy="nan" r="4" fill="#0" id="circle474"/>
	<circle cx="nan" cy="nan" r="4" fill="#0" id="circle475"/>
	<circle cx="nan" cy="nan" r="4" fill="#0" id="circle476"/>
	<circle cx="nan" cy="nan" r="4" fill="#0" id="circle477"/>
	<circle cx="nan" cy="nan" r="4" fill="#0" id="circle478"/>
	<circle cx="nan" cy="nan" r="4" fill="#0" id="circle479"/>
	<circle cx="nan" cy="nan" r="4" fill="#0" id="circle480"/>
	<circle cx="nan" cy="nan" r="4" fill="#0" id="circle481"/>
	<circle cx="nan" cy="nan" r="4" fill="#0" id="circle482"/>
	<circle cx="nan" cy="nan" r="4" fill="#0" id="circle483"/>
	<circle cx="nan" cy="nan" r="4" fill="#0" id="circle484"/>
	<circle cx="nan" cy="nan" r="4" fill="#0" id="circle485"/>
	<circle cx="nan" cy="nan" r="4" fill="#0" id="circle486"/>
	<circle cx="nan" cy="nan" r="4" fill="#0" id="circle487"/>
	<circle cx="nan" cy="nan" r="4" fill="#0" id="circle488"/>
	<circle cx="nan" cy="nan" r="4" fill="#0" id="circle489"/>
	<circle cx="nan" cy="nan" r="4" fill="#0" id="circle490"/>
	<circle cx="nan" cy="nan" r="4" fill="#0" id="circle491"/>
	<circle cx="nan" cy="nan" r="4" fill="#0" id="circle492"/>
	<circle cx="nan" cy="nan" r="4" fill="#0" id="circle493"/>
	<circle cx="nan" cy="nan" r="4" fill="#0" id="circle494"/>
	<circle cx="nan" cy="nan" r="4" fill="#0" id="circle495"/>
	<circle cx="nan" cy="nan" r="4" fill="#0" id="circle496"/>
	<circle cx="nan" cy="nan" r="4" fill="#0" id="circle497"/>
	<circle cx="nan" cy="nan" r="4" fill="#0" id="circle498"/>
	<circle cx="nan" cy="nan" r="4" fill="#0" id="circle499"/>
	<circle cx="nan" cy="nan" r="4" fill="#0" id="circle500"/>
	<circle cx="nan" cy="nan" r="4" fill="#0" id="circle501"/>
	<circle cx="nan" cy="nan" r="4" fill="#0" id="circle502"/>
	<circle cx="nan" cy="nan" r="4" fill="#0" id="circle503"/>
	<circle cx="nan" cy="nan" r="4" fill="#0" id="circle504"/>
	<circle cx="nan" cy="nan" r="4" fill="#0" id="circle505"/>
	<circle cx="nan" cy="nan" r="4" fill="#0" id="circle506"/>
	<circle cx="nan" cy="nan" r="4" fill="#0" id="circle507"/>
	<circle cx="nan" cy="nan" r="4" fill="#0" id="circle508"/>
	<circle cx="nan" cy="nan" r="4" fill="#0" id="circle509"/>
	<circle cx="nan" cy="nan" r="4" fill="#0" id="circle510"/>
	<circle cx="nan" cy="nan" r="4" fill="#0" id="circle511"/>
	<circle cx="nan" cy="nan" r="4" fill="#0" id="circle512"/>
	<circle cx="nan" cy="nan" r="4" fill="#0" id="circle513"/>
	<circle cx="nan" cy="nan" r="4" fill="#0" id="circle514"/>
	<circle cx="nan" cy="nan" r="4" fill="#0" id="circle515"/>
	<circle cx="nan" cy="nan" r="4" fill="#0" id="circle516"/>
	<circle cx="nan" cy="nan" r="4" fill="#0" id="circle517"/>
	<circle cx="nan" cy="nan" r="4" fill="#0" id="circle518"/>
	<circle cx="nan" cy="nan" r="4" fill="#0" id="circle519"/>
	<circle cx="nan" cy="nan" r="4" fill="#0" id="circle520"/>
	<circle cx="nan" cy="nan" r="4" fill="#0" id="circle521"/>
	<circle cx="nan" cy="nan" r="4" fill="#0" id="circle522"/>
	<circle cx="nan" cy="nan" r="4" fill="#0" id="circle523"/>
	<circle cx="nan" cy="nan" r="4" fill="#0" id="circle524"/>
	<circle cx="nan" cy="nan" r="4" fill="#0" id="circle525"/>
	<circle cx="nan" cy="nan" r="4" fill="#0" id="circle526"/>
	<circle cx="nan" cy="nan" r="4" fill="#0" id="circle527"/>
	<circle cx="nan" cy="nan" r="4" fill="#0" id="circle528"/>
	<circle cx="nan" cy="nan" r="4" fill="#0" id="circle529"/>
	<circle cx="nan" cy="nan" r="4" fill="#0" id="circle530"/>
	<circle cx="nan" cy="nan" r="4" fill="#0" id="circle531"/>
	<circle cx="nan" cy="nan" r="4" fill="#0" id="circle532"/>
	<circle cx="nan" cy="nan" r="4" fill="#0" id="circle533"/>
	<circle cx="nan" cy="nan" r="4" fill="#0" id="circle534"/>
	<circle cx="nan" cy="nan" r="4" fill="#0" id="circle535"/>
	<circle cx="nan" cy="nan" r="4" fill="#0" id="circle536"/>
	<circle cx="nan" cy="nan" r="4" fill="#0" id="circle537"/>
	<circle cx="nan" cy="nan" r="4" fill="#0" id="circle538"/>
	<circle cx="nan" cy="nan" r="4" fill="#0" id="circle539"/>
	<circle cx="nan" cy="nan" r="4" fill="#0" id="circle540"/>
	<circle cx="nan" cy="nan" r="4" fill="#0" id="circle541"/>
	<circle cx="nan" cy="nan" r="4" fill="#0" id="circle542"/>
	<circle cx="nan" cy="nan" r="4" fill="#0" id="circle543"/>
	<circle cx="nan" cy="nan" r="4" fill="#0" id="circle544"/>
	<circle cx="nan" cy="nan" r="4" fill="#0" id="circle545"/>
	<circle cx="nan" cy="nan" r="4" fill="#0" id="circle546"/>
	<circle cx="nan" cy="nan" r="4" fill="#0" id="circle547"/>
	<circle cx="nan" cy="nan" r="4" fill="#0" id="circle548"/>
	<circle cx="nan" cy="nan" r="4" fill="#0" id="circle549"/>
	<circle cx="nan" cy="nan" r="4" fill="#0" id="circle550"/>
	<circle cx="nan" cy="nan" r="4" fill="#0" id="circle551"/>
	<circle cx="nan" cy="nan" r="4" fill="#0" id="circle552"/>
	<circle cx="nan" cy="nan" r="4" fill="#0" id="circle553"/>
	<circle cx="nan" cy="nan" r="4" fill="#0" id="circle554"/>
	<circle cx="nan" cy="nan" r="4" fill="#0" id="circle555"/>
	<circle cx="nan" cy="nan" r="4" fill="#0" id="circle556"/>
	<circle cx="nan" cy="nan" r="4" fill="#0" id="circle557"/>
	<circle cx="nan" cy="nan" r="4" fill="#0" id="circle558"/>
	<circle cx="nan" cy="nan" r="4" fill="#0" id="circle559"/>
	<circle cx="nan" cy="nan" r="4" fill="#0" id="circle560"/>
	<circle cx="nan" cy="nan" r="4" fill="#0" id="circle561"/>
	<circle cx="nan" cy="nan" r="4" fill="#0" id="circle562"/>
	<circle cx="nan" cy="nan" r="4" fill="#0" id="circle563"/>
	<circle cx="nan" cy="nan" r="4" fill="#0" id="circle564"/>
	<circle cx="nan" cy="nan" r="4" fill="#0" id="circle565"/>
	<circle cx="nan" cy="nan" r="4" fill="#0" id="circle566"/>
	<circle cx="nan" cy="nan" r="4" fill="#0" id="circle567"/>
	<circle cx="nan" cy="nan" r="4" fill="#0" id="circle568"/>
	<circle cx="nan" cy="nan" r="4" fill="#0" id="circle569"/>
	<circle cx="nan" cy="nan" r="4" fill="#0" id="circle570"/>
	<circle cx="nan" cy="nan" r="4" fill="#0" id="circle571"/>
	<circle cx="nan" cy="nan" r="4" fill="#0" id="circle572"/>
	<circle cx="nan" cy="nan" r="4" fill="#0" id="circle573"/>
	<circle cx="nan" cy="nan" r="4" fill="#0" id="circle574"/>
	<circle cx="nan" cy="nan" r="4" fill="#0" id="circle575"/>
	<circle cx="nan" cy="nan" r="4" fill="#0" id="circle576"/>
	<circle cx="nan" cy="nan" r="4" fill="#0" id="circle577"/>
	<circle cx="nan" cy="nan" r="4" fill="#0" id="circle578"/>
	<circle cx="nan" cy="nan" r="4" fill="#0" id="circle579"/>
	<circle cx="nan" cy="nan" r="4" fill="#0" id="circle580"/>
	<circle cx="nan" cy="nan" r="4" fill="#0" id="circle581"/>
	<circle cx="nan" cy="nan" r="4" fill="#0" id="circle582"/>
	<circle cx="nan" cy="nan" r="4" fill="#0" id="circle583"/>
	<circle cx="nan" cy="nan" r="4" fill="#0" id="circle584"/>
	<circle cx="nan" cy="nan" r="4" fill="#0" id="circle585"/>
	<circle cx="nan" cy="nan" r="4" fill="#0" id="circle586"/>
	<circle cx="nan" cy="nan" r="4" fill="#0" id="circle587"/>
	<circle cx="nan" cy="nan" r="4" fill="#0" id="circle588"/>
	<circle cx="nan" cy="nan" r="4" fill="#0" id="circle589"/>
	<circle cx="nan" cy="nan" r="4" fill="#0" id="circle590"/>
	<circle cx="nan" cy="nan" r="4" fill="#0" id="circle591"/>
	<circle cx="nan" cy="nan" r="4" fill="#0" id="circle592"/>
	<circle cx="nan" cy="nan" r="4" fill="#0" id="circle593"/>
	<circle cx="nan" cy="nan" r="4" fill="#0" id="circle594"/>
	<circle cx="nan" cy="nan" r="4" fill="#0" id="circle595"/>
	<circle cx="nan" cy="nan" r="4" fill="#0" id="circle596"/>
	<circle cx="nan" cy="nan" r="4" fill="#0" id="circle597"/>
	<circle cx="nan" cy="nan" r="4" fill="#0" id="circle598"/>
	<circle cx="nan" cy="nan" r="4" fill="#0" id="circle599"/>
	<circle cx="nan" cy="nan" r="4" fill="#0" id="circle600"/>
	<circle cx="nan" cy="nan" r="4" fill="#0" id="circle601"/>
	<circle cx="nan" cy="nan" r="4" fill="#0" id="circle602"/>
	<circle cx="nan" cy="nan" r="4" fill="#0" id="circle603"/>
	<circle cx="nan" cy="nan" r="4" fill="#0" id="circle604"/>
	<circle cx="nan" cy="nan" r="4" fill="#0" id="circle605"/>
	<circle cx="nan" cy="nan" r="4" fill="#0" id="circle606"/>
	<circle cx="nan" cy="nan" r="4" fill="#0" id="circle607"/>
	<circle cx="nan" cy="nan" r="4" fill="#0" id="circle608"/>
	<circle cx="nan" cy="nan" r="4" fill="#0" id="circle609"/>
	<circle cx="nan" cy="nan" r="4" fill="#0" id="circle610"/>
	<circle cx="nan" cy="nan" r="4" fill="#0" id="circle611"/>
	<circle cx="nan" cy="nan" r="4" fill="#0" id="circle612"/>
	<circle cx="nan" cy="nan" r="4" fill="#0" id="circle613"/>
	<circle cx="nan" cy="nan" r="4" fill="#0" id="circle614"/>
	<circle cx="nan" cy="nan" r="4" fill="#0" id="circle615"/>
	<circle cx="nan" cy="nan" r="4" fill="#0" id="circle616"/>
	<circle cx="nan" cy="nan" r="4" fill="#0" id="circle617"/>
	<circle cx="nan" cy="nan" r="4" fill="#0" id="circle618"/>
	<circle cx="nan" cy="nan" r="4" fill="#0" id="circle619"/>
	<circle cx="nan" cy="nan" r="4" fill="#0" id="circle620"/>
	<circle cx="nan" cy="nan" r="4" fill="#0" id="circle621"/>
	<circle cx="nan" cy="nan" r="4" fill="#0" id="circle622"/>
	<circle cx="nan" cy="nan" r="4" fill="#0" id="circle623"/>
	<circle cx="nan" cy="nan" r="4" fill="#0" id="circle624"/>
	<circle cx="nan" cy="nan" r="4" fill="#0" id="circle625"/>
	<circle cx="nan" cy="nan" r="4" fill="#0" id="circle626"/>
	<circle cx="nan" cy="nan" r="4" fill="#0" id="circle627"/>
	<circle cx="nan" cy="nan" r="4" fill="#0" id="circle628"/>
	<circle cx="nan" cy="nan" r="4" fill="#0" id="circle629"/>
	<circle cx="nan" cy="nan" r="4" fill="#0" id="circle630"/>
	<circle cx="nan" cy="nan" r="4" fill="#0" id="circle631"/>
	<circle cx="nan" cy="nan" r="4" fill="#0" id="circle632"/>
	<circle cx="nan" cy="nan" r="4" fill="#0" id="circle633"/>
	<circle cx="nan" cy="nan" r="4" fill="#0" id="circle634"/>
	<circle cx="nan" cy="nan" r="4" fill="#0" id="circle635"/>
	<circle cx="nan" cy="nan" r="4" fill="#0" id="circle636"/>
	<circle cx="nan" cy="nan" r="4" fill="#0" id="circle637"/>
	<circle cx="nan" cy="nan" r="4" fill="#0" id="circle638"/>
	<circle cx="nan" cy="nan" r="4" fill="#0" id="circle639"/>
	<circle cx="nan" cy="nan" r="4" fill="#0" id="circle640"/>
	<circle cx="nan" cy="nan" r="4" fill="#0" id="circle641"/>
	<circle cx="nan" cy="nan" r="4" fill="#0" id="circle642"/>
	<circle cx="nan" cy="nan" r="4" fill="#0" id="circle643"/>
	<circle cx="nan" cy="nan" r="4" fill="#0" id="circle644"/>
	<circle cx="nan" cy="nan" r="4" fill="#0" id="circle645"/>
	<circle cx="nan" cy="nan" r="4" fill="#0" id="circle646"/>
	<circle cx="nan" cy="nan" r="4" fill="#0" id="circle647"/>
	<circle cx="nan" cy="nan" r="4" fill="#0" id="circle648"/>
	<circle cx="nan" cy="nan" r="4" fill="#0" id="circle649"/>
	<circle cx="nan" cy="nan" r="4" fill="#0" id="circle650"/>
	<circle cx="nan" cy="nan" r="4" fill="#0" id="circle651"/>
	<circle cx="nan" cy="nan" r="4" fill="#0" id="circle652"/>
	<circle cx="nan" cy="nan" r="4" fill="#0" id="circle653"/>
	<circle cx="nan" cy="nan" r="4" fill="#0" id="circle654"/>
	<circle cx="nan" cy="nan" r="4" fill="#0" id="circle655"/>
	<circle cx="nan" cy="nan" r="4" fill="#0" id="circle656"/>
	<circle cx="nan" cy="nan" r="4" fill="#0" id="circle657"/>
	<circle cx="nan" cy="nan" r="4" fill="#0" id="circle658"/>
	<circle cx="nan" cy="nan" r="4" fill="#0" id="circle659"/>
	<circle cx="nan" cy="nan" r="4" fill="#0" id="circle660"/>
	<circle cx="nan" cy="nan" r="4" fill="#0" id="circle661"/>
	<circle cx="nan" cy="nan" r="4" fill="#0" id="circle662"/>
	<circle cx="nan" cy="nan" r="4" fill="#0" id="circle663"/>
	<circle cx="nan" cy="nan" r="4" fill="#0" id="circle664"/>
	<circle cx="nan" cy="nan" r="4" fill="#0" id="circle665"/>
	<circle cx="nan" cy="nan" r="4" fill="#0" id="circle666"/>
	<circle cx="nan" cy="nan" r="4" fill="#0" id="circle667"/>
	<circle cx="nan" cy="nan" r="4" fill="#0" id="circle668"/>
	<circle cx="nan" cy="nan" r="4" fill="#0" id="circle669"/>
	<circle cx="nan" cy="nan" r="4" fill="#0" id="circle670"/>
	<circle cx="nan" cy="nan" r="4" fill="#0" id="circle671"/>
	<circle cx="nan" cy="nan" r="4" fill="#0" id="circle672"/>
	<circle cx="nan" cy="nan" r="4" fill="#0" id="circle673"/>
	<circle cx="nan" cy="nan" r="4" fill="#0" id="circle674"/>
	<circle cx="nan" cy="nan" r="4" fill="#0" id="circle675"/>
	<circle cx="nan" cy="nan" r="4" fill="#0" id="circle676"/>
	<circle cx="nan" cy="nan" r="4" fill="#0" id="circle677"/>
	<circle cx="nan" cy="nan" r="4" fill="#0" id="circle678"/>
	<circle cx="nan" cy="nan" r="4" fill="#0" id="circle679"/>
	<circle cx="nan" cy="nan" r="4" fill="#0" id="circle680"/>
	<circle cx="nan" cy="nan" r="4" fill="#0" id="circle681"/>
	<circle cx="nan" cy="nan" r="4" fill="#0" id="circle682"/>
	<circle cx="nan" cy="nan" r="4" fill="#0" id="circle683"/>
	<circle cx="nan" cy="nan" r="4" fill="#0" id="circle684"/>
	<circle cx="nan" cy="nan" r="4" fill="#0" id="circle685"/>
	<circle cx="nan" cy="nan" r="4" fill="#0" id="circle686"/>
	<circle cx="nan" cy="nan" r="4" fill="#0" id="circle687"/>
	<circle cx="nan" cy="nan" r="4" fill="#0" id="circle688"/>
	<circle cx="nan" cy="nan" r="4" fill="#0" id="circle689"/>
	<circle cx="nan" cy="nan" r="4" fill="#0" id="circle690"/>
	<circle cx="nan" cy="nan" r="4" fill="#0" id="circle691"/>
	<circle cx="nan" cy="nan" r="4" fill="#0" id="circle692"/>
	<circle cx="nan" cy="nan" r="4" fill="#0" id="circle693"/>
	<circle cx="nan" cy="nan" r="4" fill="#0" id="circle694"/>
	<circle cx="nan" cy="nan" r="4" fill="#0" id="circle695"/>
	<circle cx="nan" cy="nan" r="4" fill="#0" id="circle696"/>
	<circle cx="nan" cy="nan" r="4" fill="#0" id="circle697"/>
	<circle cx="nan" cy="nan" r="4" fill="#0" id="circle698"/>
	<circle cx="nan" cy="nan" r="4" fill="#0" id="circle699"/>
	<circle cx="nan" cy="nan" r="4" fill="#0" id="circle700"/>
	<circle cx="nan" cy="nan" r="4" fill="#0" id="circle701"/>
	<circle cx="nan" cy="nan" r="4" fill="#0" id="circle702"/>
	<circle cx="nan" cy="nan" r="4" fill="#0" id="circle703"/>
	<circle cx="nan" cy="nan" r="4" fill="#0" id="circle704"/>
	<circle cx="nan" cy="nan" r="4" fill="#0" id="circle705"/>
	<circle cx="nan" cy="nan" r="4" fill="#0" id="circle706"/>
	<circle cx="nan" cy="nan" r="4" fill="#0" id="circle707"/>
	<circle cx="nan" cy="nan" r="4" fill="#0" id="circle708"/>
	<circle cx="nan" cy="nan" r="4" fill="#0" id="circle709"/>
	<circle cx="nan" cy="nan" r="4" fill="#0" id="circle710"/>
	<circle cx="nan" cy="nan" r="4" fill="#0" id="circle711"/>
	<circle cx="nan" cy="nan" r="4" fill="#0" id="circle712"/>
	<circle cx="nan" cy="nan" r="4" fill="#0" id="circle713"/>
	<circle cx="nan" cy="nan" r="4" fill="#0" id="circle714"/>
	<circle cx="nan" cy="nan" r="4" fill="#0" id="circle715"/>
	<circle cx="nan" cy="nan" r="4" fill="#0" id="circle716"/>
	<circle cx="nan" cy="nan" r="4" fill="#0" id="circle717"/>
	<circle cx="nan" cy="nan" r="4" fill="#0" id="circle718"/>
	<circle cx="nan" cy="nan" r="4" fill="#0" id="circle719"/>
	<circle cx="nan" cy="nan" r="4" fill="#0" id="circle720"/>
	<circle cx="nan" cy="nan" r="4" fill="#0" id="circle721"/>
	<circle cx="nan" cy="nan" r="4" fill="#0" id="circle722"/>
	<circle cx="nan" cy="nan" r="4" fill="#0" id="circle723"/>
	<circle cx="nan" cy="nan" r="4" fill="#0" id="circle724"/>
	<circle cx="nan" cy="nan" r="4" fill="#0" id="circle725"/>
	<circle cx="nan" cy="nan" r="4" fill="#0" id="circle726"/>
	<circle cx="nan" cy="nan" r="4" fill="#0" id="circle727"/>
	<circle cx="nan" cy="nan" r="4" fill="#0" id="circle728"/>
	<circle cx="nan" cy="nan" r="4" fill="#0" id="circle729"/>
	<circle cx="nan" cy="nan" r="4" fill="#0" id="circle730"/>
	<circle cx="nan" cy="nan" r="4" fill="#0" id="circle731"/>
	<circle cx="nan" cy="nan" r="4" fill="#0" id="circle732"/>
	<circle cx="nan" cy="nan" r="4" fill="#0" id="circle733"/>
	<circle cx="nan" cy="nan" r="4" fill="#0" id="circle734"/>
	<circle cx="nan" cy="nan" r="4" fill="#0" id="circle735"/>
	<circle cx="nan" cy="nan" r="4" fill="#0" id="circle736"/>
	<circle cx="nan" cy="nan" r="4" fill="#0" id="circle737"/>
	<circle cx="nan" cy="nan" r="4" fill="#0" id="circle738"/>
	<circle cx="nan" cy="nan" r="4" fill="#0" id="circle739"/>
	<circle cx="nan" cy="nan" r="4" fill="#0" id="circle740"/>
	<circle cx="nan" cy="nan" r="4" fill="#0" id="circle741"/>
	<circle cx="nan" cy="nan" r="4" fill="#0" id="circle742"/>
	<circle cx="nan" cy="nan" r="4" fill="#0" id="circle743"/>
	<circle cx="nan" cy="nan" r="4" fill="#0" id="circle744"/>
	<circle cx="nan" cy="nan" r="4" fill="#0" id="circle745"/>
	<circle cx="nan" cy="nan" r="4" fill="#0" id="circle746"/>
	<circle cx="nan" cy="nan" r="4" fill="#0" id="circle747"/>
	<circle cx="nan" cy="nan" r="4" fill="#0" id="circle748"/>
	<circle cx="nan" cy="nan" r="4" fill="#0" id="circle749"/>
	<circle cx="nan" cy="nan" r="4" fill="#0" id="circle750"/>
	</g>
</svg>