<?xml version="1.0" encoding="UTF-8" standalone="no"?>
<!-- Created with CurveBenchmark -->
<svg
	xmlns:dc="http://purl.org/dc/elements/1.1/"
	xmlns:cc="http://creativecommons.org/ns#"
	xmlns:rdf="http://www.w3.org/1999/02/22-rdf-syntax-ns#"
	xmlns:svg="http://www.w3.org/2000/svg"
	xmlns="http://www.w3.org/2000/svg"
	xmlns:sodipodi="http://sodipodi.sourceforge.net/DTD/sodipodi-0.dtd"
	xmlns:inkscape="http://www.inkscape.org/namespaces/inkscape"
	width="1000"
	height="1000"
	id="svg2"
	version="1.1"
	sodipodi:docname="manifold/stretchdenoise-bird145.png.txt">
<defs
	id="defs4" />
<metadata
	id="metadata7">
	<rdf:RDF>
		<cc:Work
			rdf:about="">
			<dc:format>image/svg+xml</dc:format>
			<dc:type
				rdf:resource="http://purl.org/dc/dcmitype/StillImage" />
			<dc:title></dc:title>
		</cc:Work>
	</rdf:RDF>
</metadata>
<g
	inkscape:label="Layer 1"
	inkscape:groupmode="layer"
	id="layer1">
	<path style="fill:none;stroke:red;stroke-width:1px;stroke-linecap:butt;stroke-linejoin:miter;stroke-opacity:1" d="M 32.9885,252.432 4,228.782 z" id="boundary" inkscape:connector-curvature="0" />
	<path style="fill:none;stroke:red;stroke-width:1px;stroke-linecap:butt;stroke-linejoin:miter;stroke-opacity:1" d="M 32.9885,252.432 213.495,284.094 z" id="boundary" inkscape:connector-curvature="0" />
	<path style="fill:none;stroke:red;stroke-width:1px;stroke-linecap:butt;stroke-linejoin:miter;stroke-opacity:1" d="M 4,228.782 69.2623,131.028 z" id="boundary" inkscape:connector-curvature="0" />
	<path style="fill:none;stroke:red;stroke-width:1px;stroke-linecap:butt;stroke-linejoin:miter;stroke-opacity:1" d="M 69.2623,131.028 99.5946,100.197 z" id="boundary" inkscape:connector-curvature="0" />
	<path style="fill:none;stroke:red;stroke-width:1px;stroke-linecap:butt;stroke-linejoin:miter;stroke-opacity:1" d="M 99.5946,100.197 135.691,81.8039 z" id="boundary" inkscape:connector-curvature="0" />
	<path style="fill:none;stroke:red;stroke-width:1px;stroke-linecap:butt;stroke-linejoin:miter;stroke-opacity:1" d="M 135.691,81.8039 174.593,74.0236 z" id="boundary" inkscape:connector-curvature="0" />
	<path style="fill:none;stroke:red;stroke-width:1px;stroke-linecap:butt;stroke-linejoin:miter;stroke-opacity:1" d="M 174.593,74.0236 213.495,74.0236 z" id="boundary" inkscape:connector-curvature="0" />
	<path style="fill:none;stroke:red;stroke-width:1px;stroke-linecap:butt;stroke-linejoin:miter;stroke-opacity:1" d="M 45.972,112.786 233.934,239.251 z" id="boundary" inkscape:connector-curvature="0" />
	<path style="fill:none;stroke:red;stroke-width:1px;stroke-linecap:butt;stroke-linejoin:miter;stroke-opacity:1" d="M 45.972,112.786 458.382,260.928 z" id="boundary" inkscape:connector-curvature="0" />
	<path style="fill:none;stroke:red;stroke-width:1px;stroke-linecap:butt;stroke-linejoin:miter;stroke-opacity:1" d="M 213.495,74.0236 259.469,69.8181 z" id="boundary" inkscape:connector-curvature="0" />
	<path style="fill:none;stroke:red;stroke-width:1px;stroke-linecap:butt;stroke-linejoin:miter;stroke-opacity:1" d="M 233.934,239.251 213.495,284.094 z" id="boundary" inkscape:connector-curvature="0" />
	<path style="fill:none;stroke:red;stroke-width:1px;stroke-linecap:butt;stroke-linejoin:miter;stroke-opacity:1" d="M 259.469,69.8181 307.022,86.2035 z" id="boundary" inkscape:connector-curvature="0" />
	<path style="fill:none;stroke:red;stroke-width:1px;stroke-linecap:butt;stroke-linejoin:miter;stroke-opacity:1" d="M 307.022,86.2035 334.091,70.1333 z" id="boundary" inkscape:connector-curvature="0" />
	<path style="fill:none;stroke:red;stroke-width:1px;stroke-linecap:butt;stroke-linejoin:miter;stroke-opacity:1" d="M 334.091,70.1333 365.212,42.902 z" id="boundary" inkscape:connector-curvature="0" />
	<path style="fill:none;stroke:red;stroke-width:1px;stroke-linecap:butt;stroke-linejoin:miter;stroke-opacity:1" d="M 365.212,42.902 404.114,23.451 z" id="boundary" inkscape:connector-curvature="0" />
	<path style="fill:none;stroke:red;stroke-width:1px;stroke-linecap:butt;stroke-linejoin:miter;stroke-opacity:1" d="M 404.114,23.451 443.016,11.7804 z" id="boundary" inkscape:connector-curvature="0" />
	<path style="fill:none;stroke:red;stroke-width:1px;stroke-linecap:butt;stroke-linejoin:miter;stroke-opacity:1" d="M 458.382,260.928 480.864,356.825 z" id="boundary" inkscape:connector-curvature="0" />
	<path style="fill:none;stroke:red;stroke-width:1px;stroke-linecap:butt;stroke-linejoin:miter;stroke-opacity:1" d="M 480.864,356.825 507.203,405.894 z" id="boundary" inkscape:connector-curvature="0" />
	<path style="fill:none;stroke:red;stroke-width:1px;stroke-linecap:butt;stroke-linejoin:miter;stroke-opacity:1" d="M 443.016,11.7804 481.918,4.00003 z" id="boundary" inkscape:connector-curvature="0" />
	<path style="fill:none;stroke:red;stroke-width:1px;stroke-linecap:butt;stroke-linejoin:miter;stroke-opacity:1" d="M 507.203,405.894 576.193,578.333 z" id="boundary" inkscape:connector-curvature="0" />
	<path style="fill:none;stroke:red;stroke-width:1px;stroke-linecap:butt;stroke-linejoin:miter;stroke-opacity:1" d="M 576.193,578.333 632.127,670.575 z" id="boundary" inkscape:connector-curvature="0" />
	<path style="fill:none;stroke:red;stroke-width:1px;stroke-linecap:butt;stroke-linejoin:miter;stroke-opacity:1" d="M 481.918,4.00003 520.82,4 z" id="boundary" inkscape:connector-curvature="0" />
	<path style="fill:none;stroke:red;stroke-width:1px;stroke-linecap:butt;stroke-linejoin:miter;stroke-opacity:1" d="M 632.127,670.575 842.025,425.469 z" id="boundary" inkscape:connector-curvature="0" />
	<path style="fill:none;stroke:red;stroke-width:1px;stroke-linecap:butt;stroke-linejoin:miter;stroke-opacity:1" d="M 520.82,4 559.722,4.00002 z" id="boundary" inkscape:connector-curvature="0" />
	<path style="fill:none;stroke:red;stroke-width:1px;stroke-linecap:butt;stroke-linejoin:miter;stroke-opacity:1" d="M 559.722,4.00002 594.734,23.451 z" id="boundary" inkscape:connector-curvature="0" />
	<path style="fill:none;stroke:red;stroke-width:1px;stroke-linecap:butt;stroke-linejoin:miter;stroke-opacity:1" d="M 594.734,23.451 633.636,39.0118 z" id="boundary" inkscape:connector-curvature="0" />
	<path style="fill:none;stroke:red;stroke-width:1px;stroke-linecap:butt;stroke-linejoin:miter;stroke-opacity:1" d="M 633.636,39.0118 664.758,62.353 z" id="boundary" inkscape:connector-curvature="0" />
	<path style="fill:none;stroke:red;stroke-width:1px;stroke-linecap:butt;stroke-linejoin:miter;stroke-opacity:1" d="M 664.758,62.353 695.879,85.6941 z" id="boundary" inkscape:connector-curvature="0" />
	<path style="fill:none;stroke:red;stroke-width:1px;stroke-linecap:butt;stroke-linejoin:miter;stroke-opacity:1" d="M 695.879,85.6941 719.22,116.816 z" id="boundary" inkscape:connector-curvature="0" />
	<path style="fill:none;stroke:red;stroke-width:1px;stroke-linecap:butt;stroke-linejoin:miter;stroke-opacity:1" d="M 719.22,116.816 746.452,147.937 z" id="boundary" inkscape:connector-curvature="0" />
	<path style="fill:none;stroke:red;stroke-width:1px;stroke-linecap:butt;stroke-linejoin:miter;stroke-opacity:1" d="M 746.452,147.937 769.793,179.059 z" id="boundary" inkscape:connector-curvature="0" />
	<path style="fill:none;stroke:red;stroke-width:1px;stroke-linecap:butt;stroke-linejoin:miter;stroke-opacity:1" d="M 769.793,179.059 798.542,208.322 z" id="boundary" inkscape:connector-curvature="0" />
	<path style="fill:none;stroke:red;stroke-width:1px;stroke-linecap:butt;stroke-linejoin:miter;stroke-opacity:1" d="M 798.542,208.322 848.371,268.031 z" id="boundary" inkscape:connector-curvature="0" />
	<path style="fill:none;stroke:red;stroke-width:1px;stroke-linecap:butt;stroke-linejoin:miter;stroke-opacity:1" d="M 848.371,268.031 864.914,304.636 z" id="boundary" inkscape:connector-curvature="0" />
	<path style="fill:none;stroke:red;stroke-width:1px;stroke-linecap:butt;stroke-linejoin:miter;stroke-opacity:1" d="M 864.914,304.636 870.36,340.181 z" id="boundary" inkscape:connector-curvature="0" />
	<path style="fill:none;stroke:red;stroke-width:1px;stroke-linecap:butt;stroke-linejoin:miter;stroke-opacity:1" d="M 842.025,425.469 870.36,340.181 z" id="boundary" inkscape:connector-curvature="0" />
	<circle cx="32.9885" cy="252.432" r="4" fill="#0" id="circle0"/>
	<circle cx="30.6556" cy="295.765" r="4" fill="#0" id="circle1"/>
	<circle cx="34.5458" cy="229.631" r="4" fill="#0" id="circle2"/>
	<circle cx="4" cy="228.782" r="4" fill="#0" id="circle3"/>
	<circle cx="69.5576" cy="276.314" r="4" fill="#0" id="circle4"/>
	<circle cx="69.2623" cy="131.028" r="4" fill="#0" id="circle5"/>
	<circle cx="99.5946" cy="100.197" r="4" fill="#0" id="circle6"/>
	<circle cx="100.679" cy="245.192" r="4" fill="#0" id="circle7"/>
	<circle cx="131.801" cy="221.851" r="4" fill="#0" id="circle8"/>
	<circle cx="135.691" cy="81.8039" r="4" fill="#0" id="circle9"/>
	<circle cx="166.813" cy="202.4" r="4" fill="#0" id="circle10"/>
	<circle cx="174.593" cy="74.0236" r="4" fill="#0" id="circle11"/>
	<circle cx="45.972" cy="112.786" r="4" fill="#0" id="circle12"/>
	<circle cx="213.495" cy="74.0236" r="4" fill="#0" id="circle13"/>
	<circle cx="233.934" cy="239.251" r="4" fill="#0" id="circle14"/>
	<circle cx="213.495" cy="284.094" r="4" fill="#0" id="circle15"/>
	<circle cx="221.275" cy="322.996" r="4" fill="#0" id="circle16"/>
	<circle cx="244.616" cy="354.118" r="4" fill="#0" id="circle17"/>
	<circle cx="259.469" cy="69.8181" r="4" fill="#0" id="circle18"/>
	<circle cx="271.848" cy="124.596" r="4" fill="#0" id="circle19"/>
	<circle cx="279.628" cy="373.569" r="4" fill="#0" id="circle20"/>
	<circle cx="302.969" cy="147.937" r="4" fill="#0" id="circle21"/>
	<circle cx="307.022" cy="86.2035" r="4" fill="#0" id="circle22"/>
	<circle cx="318.53" cy="369.678" r="4" fill="#0" id="circle23"/>
	<circle cx="334.091" cy="70.1333" r="4" fill="#0" id="circle24"/>
	<circle cx="349.652" cy="338.557" r="4" fill="#0" id="circle25"/>
	<circle cx="353.542" cy="960.988" r="4" fill="#0" id="circle26"/>
	<circle cx="365.212" cy="42.902" r="4" fill="#0" id="circle27"/>
	<circle cx="365.212" cy="276.314" r="4" fill="#0" id="circle28"/>
	<circle cx="372.993" cy="237.412" r="4" fill="#0" id="circle29"/>
	<circle cx="384.663" cy="988.22" r="4" fill="#0" id="circle30"/>
	<circle cx="404.114" cy="23.451" r="4" fill="#0" id="circle31"/>
	<circle cx="404.114" cy="949.318" r="4" fill="#0" id="circle32"/>
	<circle cx="408.005" cy="256.863" r="4" fill="#0" id="circle33"/>
	<circle cx="458.382" cy="260.928" r="4" fill="#0" id="circle34"/>
	<circle cx="423.565" cy="996" r="4" fill="#0" id="circle35"/>
	<circle cx="431.346" cy="334.667" r="4" fill="#0" id="circle36"/>
	<circle cx="480.864" cy="356.825" r="4" fill="#0" id="circle37"/>
	<circle cx="443.016" cy="11.7804" r="4" fill="#0" id="circle38"/>
	<circle cx="443.016" cy="945.427" r="4" fill="#0" id="circle39"/>
	<circle cx="446.907" cy="412.471" r="4" fill="#0" id="circle40"/>
	<circle cx="507.203" cy="405.894" r="4" fill="#0" id="circle41"/>
	<circle cx="462.467" cy="490.275" r="4" fill="#0" id="circle42"/>
	<circle cx="462.467" cy="996" r="4" fill="#0" id="circle43"/>
	<circle cx="470.248" cy="529.176" r="4" fill="#0" id="circle44"/>
	<circle cx="470.248" cy="883.184" r="4" fill="#0" id="circle45"/>
	<circle cx="576.193" cy="578.333" r="4" fill="#0" id="circle46"/>
	<circle cx="478.028" cy="828.722" r="4" fill="#0" id="circle47"/>
	<circle cx="481.918" cy="4.00003" r="4" fill="#0" id="circle48"/>
	<circle cx="485.809" cy="766.478" r="4" fill="#0" id="circle49"/>
	<circle cx="493.589" cy="606.98" r="4" fill="#0" id="circle50"/>
	<circle cx="632.127" cy="670.575" r="4" fill="#0" id="circle51"/>
	<circle cx="493.589" cy="684.784" r="4" fill="#0" id="circle52"/>
	<circle cx="493.589" cy="723.686" r="4" fill="#0" id="circle53"/>
	<circle cx="501.369" cy="996" r="4" fill="#0" id="circle54"/>
	<circle cx="513.04" cy="906.525" r="4" fill="#0" id="circle55"/>
	<circle cx="520.82" cy="4" r="4" fill="#0" id="circle56"/>
	<circle cx="520.82" cy="852.063" r="4" fill="#0" id="circle57"/>
	<circle cx="528.601" cy="797.6" r="4" fill="#0" id="circle58"/>
	<circle cx="536.381" cy="743.137" r="4" fill="#0" id="circle59"/>
	<circle cx="540.271" cy="996" r="4" fill="#0" id="circle60"/>
	<circle cx="544.162" cy="618.651" r="4" fill="#0" id="circle61"/>
	<circle cx="544.162" cy="680.894" r="4" fill="#0" id="circle62"/>
	<circle cx="559.722" cy="4.00002" r="4" fill="#0" id="circle63"/>
	<circle cx="571.393" cy="972.659" r="4" fill="#0" id="circle64"/>
	<circle cx="575.283" cy="883.184" r="4" fill="#0" id="circle65"/>
	<circle cx="575.283" cy="922.086" r="4" fill="#0" id="circle66"/>
	<circle cx="583.063" cy="820.941" r="4" fill="#0" id="circle67"/>
	<circle cx="590.844" cy="758.698" r="4" fill="#0" id="circle68"/>
	<circle cx="594.734" cy="23.451" r="4" fill="#0" id="circle69"/>
	<circle cx="598.624" cy="610.871" r="4" fill="#0" id="circle70"/>
	<circle cx="598.624" cy="696.455" r="4" fill="#0" id="circle71"/>
	<circle cx="606.405" cy="377.459" r="4" fill="#0" id="circle72"/>
	<circle cx="606.405" cy="416.361" r="4" fill="#0" id="circle73"/>
	<circle cx="606.405" cy="455.263" r="4" fill="#0" id="circle74"/>
	<circle cx="606.405" cy="494.165" r="4" fill="#0" id="circle75"/>
	<circle cx="606.405" cy="533.067" r="4" fill="#0" id="circle76"/>
	<circle cx="606.405" cy="571.969" r="4" fill="#0" id="circle77"/>
	<circle cx="606.405" cy="649.773" r="4" fill="#0" id="circle78"/>
	<circle cx="633.636" cy="39.0118" r="4" fill="#0" id="circle79"/>
	<circle cx="645.307" cy="381.349" r="4" fill="#0" id="circle80"/>
	<circle cx="664.758" cy="62.353" r="4" fill="#0" id="circle81"/>
	<circle cx="676.428" cy="404.69" r="4" fill="#0" id="circle82"/>
	<circle cx="695.879" cy="85.6941" r="4" fill="#0" id="circle83"/>
	<circle cx="715.33" cy="420.251" r="4" fill="#0" id="circle84"/>
	<circle cx="719.22" cy="116.816" r="4" fill="#0" id="circle85"/>
	<circle cx="746.452" cy="147.937" r="4" fill="#0" id="circle86"/>
	<circle cx="754.232" cy="431.922" r="4" fill="#0" id="circle87"/>
	<circle cx="769.793" cy="179.059" r="4" fill="#0" id="circle88"/>
	<circle cx="793.134" cy="435.812" r="4" fill="#0" id="circle89"/>
	<circle cx="798.542" cy="208.322" r="4" fill="#0" id="circle90"/>
	<circle cx="824.256" cy="237.412" r="4" fill="#0" id="circle91"/>
	<circle cx="832.036" cy="428.031" r="4" fill="#0" id="circle92"/>
	<circle cx="848.371" cy="268.031" r="4" fill="#0" id="circle93"/>
	<circle cx="864.914" cy="304.636" r="4" fill="#0" id="circle94"/>
	<circle cx="842.025" cy="425.469" r="4" fill="#0" id="circle95"/>
	<circle cx="870.36" cy="340.181" r="4" fill="#0" id="circle96"/>
	<circle cx="894.279" cy="377.459" r="4" fill="#0" id="circle97"/>
	</g>
</svg>