<?xml version="1.0" encoding="UTF-8" standalone="no"?>
<!-- Created with CurveBenchmark -->
<svg
	xmlns:dc="http://purl.org/dc/elements/1.1/"
	xmlns:cc="http://creativecommons.org/ns#"
	xmlns:rdf="http://www.w3.org/1999/02/22-rdf-syntax-ns#"
	xmlns:svg="http://www.w3.org/2000/svg"
	xmlns="http://www.w3.org/2000/svg"
	xmlns:sodipodi="http://sodipodi.sourceforge.net/DTD/sodipodi-0.dtd"
	xmlns:inkscape="http://www.inkscape.org/namespaces/inkscape"
	width="1000"
	height="1000"
	id="svg2"
	version="1.1"
	sodipodi:docname="manifold/stretchdenoise-cthand09.png.txt">
<defs
	id="defs4" />
<metadata
	id="metadata7">
	<rdf:RDF>
		<cc:Work
			rdf:about="">
			<dc:format>image/svg+xml</dc:format>
			<dc:type
				rdf:resource="http://purl.org/dc/dcmitype/StillImage" />
			<dc:title></dc:title>
		</cc:Work>
	</rdf:RDF>
</metadata>
<g
	inkscape:label="Layer 1"
	inkscape:groupmode="layer"
	id="layer1">
	<path style="fill:none;stroke:red;stroke-width:1px;stroke-linecap:butt;stroke-linejoin:miter;stroke-opacity:1" d="M 4,226.234 4,242.338 z" id="boundary" inkscape:connector-curvature="0" />
	<path style="fill:none;stroke:red;stroke-width:1px;stroke-linecap:butt;stroke-linejoin:miter;stroke-opacity:1" d="M 4,226.234 16.8831,213.351 z" id="boundary" inkscape:connector-curvature="0" />
	<path style="fill:none;stroke:red;stroke-width:1px;stroke-linecap:butt;stroke-linejoin:miter;stroke-opacity:1" d="M 4,242.338 12.0519,256.831 z" id="boundary" inkscape:connector-curvature="0" />
	<path style="fill:none;stroke:red;stroke-width:1px;stroke-linecap:butt;stroke-linejoin:miter;stroke-opacity:1" d="M 12.0519,256.831 12.0519,272.935 z" id="boundary" inkscape:connector-curvature="0" />
	<path style="fill:none;stroke:red;stroke-width:1px;stroke-linecap:butt;stroke-linejoin:miter;stroke-opacity:1" d="M 12.0519,272.935 12.0519,289.039 z" id="boundary" inkscape:connector-curvature="0" />
	<path style="fill:none;stroke:red;stroke-width:1px;stroke-linecap:butt;stroke-linejoin:miter;stroke-opacity:1" d="M 12.0519,289.039 12.0519,305.143 z" id="boundary" inkscape:connector-curvature="0" />
	<path style="fill:none;stroke:red;stroke-width:1px;stroke-linecap:butt;stroke-linejoin:miter;stroke-opacity:1" d="M 12.0519,305.143 20.1039,335.74 z" id="boundary" inkscape:connector-curvature="0" />
	<path style="fill:none;stroke:red;stroke-width:1px;stroke-linecap:butt;stroke-linejoin:miter;stroke-opacity:1" d="M 16.8831,213.351 20.1039,194.026 z" id="boundary" inkscape:connector-curvature="0" />
	<path style="fill:none;stroke:red;stroke-width:1px;stroke-linecap:butt;stroke-linejoin:miter;stroke-opacity:1" d="M 20.1039,194.026 23.5453,171.701 z" id="boundary" inkscape:connector-curvature="0" />
	<path style="fill:none;stroke:red;stroke-width:1px;stroke-linecap:butt;stroke-linejoin:miter;stroke-opacity:1" d="M 20.1039,335.74 20.1039,384.052 z" id="boundary" inkscape:connector-curvature="0" />
	<path style="fill:none;stroke:red;stroke-width:1px;stroke-linecap:butt;stroke-linejoin:miter;stroke-opacity:1" d="M 20.1039,384.052 24.9351,416.26 z" id="boundary" inkscape:connector-curvature="0" />
	<path style="fill:none;stroke:red;stroke-width:1px;stroke-linecap:butt;stroke-linejoin:miter;stroke-opacity:1" d="M 24.9351,416.26 28.1558,432.364 z" id="boundary" inkscape:connector-curvature="0" />
	<path style="fill:none;stroke:red;stroke-width:1px;stroke-linecap:butt;stroke-linejoin:miter;stroke-opacity:1" d="M 28.1558,432.364 36.2078,446.857 z" id="boundary" inkscape:connector-curvature="0" />
	<path style="fill:none;stroke:red;stroke-width:1px;stroke-linecap:butt;stroke-linejoin:miter;stroke-opacity:1" d="M 23.5453,171.701 45.8701,168.26 z" id="boundary" inkscape:connector-curvature="0" />
	<path style="fill:none;stroke:red;stroke-width:1px;stroke-linecap:butt;stroke-linejoin:miter;stroke-opacity:1" d="M 36.2078,446.857 36.2078,462.961 z" id="boundary" inkscape:connector-curvature="0" />
	<path style="fill:none;stroke:red;stroke-width:1px;stroke-linecap:butt;stroke-linejoin:miter;stroke-opacity:1" d="M 36.2078,462.961 36.2078,479.065 z" id="boundary" inkscape:connector-curvature="0" />
	<path style="fill:none;stroke:red;stroke-width:1px;stroke-linecap:butt;stroke-linejoin:miter;stroke-opacity:1" d="M 36.2078,479.065 36.2078,495.169 z" id="boundary" inkscape:connector-curvature="0" />
	<path style="fill:none;stroke:red;stroke-width:1px;stroke-linecap:butt;stroke-linejoin:miter;stroke-opacity:1" d="M 36.2078,495.169 36.2078,511.273 z" id="boundary" inkscape:connector-curvature="0" />
	<path style="fill:none;stroke:red;stroke-width:1px;stroke-linecap:butt;stroke-linejoin:miter;stroke-opacity:1" d="M 36.2078,511.273 36.2078,527.377 z" id="boundary" inkscape:connector-curvature="0" />
	<path style="fill:none;stroke:red;stroke-width:1px;stroke-linecap:butt;stroke-linejoin:miter;stroke-opacity:1" d="M 36.2078,527.377 36.2078,543.481 z" id="boundary" inkscape:connector-curvature="0" />
	<path style="fill:none;stroke:red;stroke-width:1px;stroke-linecap:butt;stroke-linejoin:miter;stroke-opacity:1" d="M 36.2078,543.481 36.2078,559.584 z" id="boundary" inkscape:connector-curvature="0" />
	<path style="fill:none;stroke:red;stroke-width:1px;stroke-linecap:butt;stroke-linejoin:miter;stroke-opacity:1" d="M 36.2078,559.584 44.2597,574.078 z" id="boundary" inkscape:connector-curvature="0" />
	<path style="fill:none;stroke:red;stroke-width:1px;stroke-linecap:butt;stroke-linejoin:miter;stroke-opacity:1" d="M 44.2597,574.078 44.2597,590.182 z" id="boundary" inkscape:connector-curvature="0" />
	<path style="fill:none;stroke:red;stroke-width:1px;stroke-linecap:butt;stroke-linejoin:miter;stroke-opacity:1" d="M 44.2597,590.182 44.2597,606.286 z" id="boundary" inkscape:connector-curvature="0" />
	<path style="fill:none;stroke:red;stroke-width:1px;stroke-linecap:butt;stroke-linejoin:miter;stroke-opacity:1" d="M 44.2597,606.286 44.2597,622.39 z" id="boundary" inkscape:connector-curvature="0" />
	<path style="fill:none;stroke:red;stroke-width:1px;stroke-linecap:butt;stroke-linejoin:miter;stroke-opacity:1" d="M 44.2597,622.39 44.2597,638.494 z" id="boundary" inkscape:connector-curvature="0" />
	<path style="fill:none;stroke:red;stroke-width:1px;stroke-linecap:butt;stroke-linejoin:miter;stroke-opacity:1" d="M 44.2597,638.494 52.3117,652.987 z" id="boundary" inkscape:connector-curvature="0" />
	<path style="fill:none;stroke:red;stroke-width:1px;stroke-linecap:butt;stroke-linejoin:miter;stroke-opacity:1" d="M 45.8701,168.26 63.3655,199.316 z" id="boundary" inkscape:connector-curvature="0" />
	<path style="fill:none;stroke:red;stroke-width:1px;stroke-linecap:butt;stroke-linejoin:miter;stroke-opacity:1" d="M 52.3117,652.987 52.3117,669.091 z" id="boundary" inkscape:connector-curvature="0" />
	<path style="fill:none;stroke:red;stroke-width:1px;stroke-linecap:butt;stroke-linejoin:miter;stroke-opacity:1" d="M 52.3117,669.091 52.3117,685.195 z" id="boundary" inkscape:connector-curvature="0" />
	<path style="fill:none;stroke:red;stroke-width:1px;stroke-linecap:butt;stroke-linejoin:miter;stroke-opacity:1" d="M 52.3117,685.195 52.3117,701.299 z" id="boundary" inkscape:connector-curvature="0" />
	<path style="fill:none;stroke:red;stroke-width:1px;stroke-linecap:butt;stroke-linejoin:miter;stroke-opacity:1" d="M 52.3117,701.299 52.3117,717.403 z" id="boundary" inkscape:connector-curvature="0" />
	<path style="fill:none;stroke:red;stroke-width:1px;stroke-linecap:butt;stroke-linejoin:miter;stroke-opacity:1" d="M 52.3117,717.403 60.3636,731.896 z" id="boundary" inkscape:connector-curvature="0" />
	<path style="fill:none;stroke:red;stroke-width:1px;stroke-linecap:butt;stroke-linejoin:miter;stroke-opacity:1" d="M 63.3655,199.316 66.6324,213.145 z" id="boundary" inkscape:connector-curvature="0" />
	<path style="fill:none;stroke:red;stroke-width:1px;stroke-linecap:butt;stroke-linejoin:miter;stroke-opacity:1" d="M 60.3636,731.896 60.3636,748 z" id="boundary" inkscape:connector-curvature="0" />
	<path style="fill:none;stroke:red;stroke-width:1px;stroke-linecap:butt;stroke-linejoin:miter;stroke-opacity:1" d="M 60.3636,748 60.3636,764.104 z" id="boundary" inkscape:connector-curvature="0" />
	<path style="fill:none;stroke:red;stroke-width:1px;stroke-linecap:butt;stroke-linejoin:miter;stroke-opacity:1" d="M 60.3636,764.104 60.3636,780.208 z" id="boundary" inkscape:connector-curvature="0" />
	<path style="fill:none;stroke:red;stroke-width:1px;stroke-linecap:butt;stroke-linejoin:miter;stroke-opacity:1" d="M 60.3636,780.208 60.3636,796.312 z" id="boundary" inkscape:connector-curvature="0" />
	<path style="fill:none;stroke:red;stroke-width:1px;stroke-linecap:butt;stroke-linejoin:miter;stroke-opacity:1" d="M 60.3636,796.312 68.4156,810.805 z" id="boundary" inkscape:connector-curvature="0" />
	<path style="fill:none;stroke:red;stroke-width:1px;stroke-linecap:butt;stroke-linejoin:miter;stroke-opacity:1" d="M 60.3636,975.065 60.3636,991.169 z" id="boundary" inkscape:connector-curvature="0" />
	<path style="fill:none;stroke:red;stroke-width:1px;stroke-linecap:butt;stroke-linejoin:miter;stroke-opacity:1" d="M 60.3636,975.065 68.4156,958.961 z" id="boundary" inkscape:connector-curvature="0" />
	<path style="fill:none;stroke:red;stroke-width:1px;stroke-linecap:butt;stroke-linejoin:miter;stroke-opacity:1" d="M 60.3636,991.169 76.4675,996 z" id="boundary" inkscape:connector-curvature="0" />
	<path style="fill:none;stroke:red;stroke-width:1px;stroke-linecap:butt;stroke-linejoin:miter;stroke-opacity:1" d="M 68.4156,810.805 68.4156,826.909 z" id="boundary" inkscape:connector-curvature="0" />
	<path style="fill:none;stroke:red;stroke-width:1px;stroke-linecap:butt;stroke-linejoin:miter;stroke-opacity:1" d="M 68.4156,826.909 76.4675,841.403 z" id="boundary" inkscape:connector-curvature="0" />
	<path style="fill:none;stroke:red;stroke-width:1px;stroke-linecap:butt;stroke-linejoin:miter;stroke-opacity:1" d="M 68.4156,958.961 76.4675,934.805 z" id="boundary" inkscape:connector-curvature="0" />
	<path style="fill:none;stroke:red;stroke-width:1px;stroke-linecap:butt;stroke-linejoin:miter;stroke-opacity:1" d="M 76.4675,841.403 76.4675,857.506 z" id="boundary" inkscape:connector-curvature="0" />
	<path style="fill:none;stroke:red;stroke-width:1px;stroke-linecap:butt;stroke-linejoin:miter;stroke-opacity:1" d="M 76.4675,857.506 79.6883,873.61 z" id="boundary" inkscape:connector-curvature="0" />
	<path style="fill:none;stroke:red;stroke-width:1px;stroke-linecap:butt;stroke-linejoin:miter;stroke-opacity:1" d="M 76.4675,934.805 84.5195,905.818 z" id="boundary" inkscape:connector-curvature="0" />
	<path style="fill:none;stroke:red;stroke-width:1px;stroke-linecap:butt;stroke-linejoin:miter;stroke-opacity:1" d="M 76.4675,996 92.5714,996 z" id="boundary" inkscape:connector-curvature="0" />
	<path style="fill:none;stroke:red;stroke-width:1px;stroke-linecap:butt;stroke-linejoin:miter;stroke-opacity:1" d="M 66.6324,213.145 -nan,-nan z" id="boundary" inkscape:connector-curvature="0" />
	<path style="fill:none;stroke:red;stroke-width:1px;stroke-linecap:butt;stroke-linejoin:miter;stroke-opacity:1" d="M 79.6883,873.61 84.5195,889.714 z" id="boundary" inkscape:connector-curvature="0" />
	<path style="fill:none;stroke:red;stroke-width:1px;stroke-linecap:butt;stroke-linejoin:miter;stroke-opacity:1" d="M 84.5195,889.714 84.5195,905.818 z" id="boundary" inkscape:connector-curvature="0" />
	<path style="fill:none;stroke:red;stroke-width:1px;stroke-linecap:butt;stroke-linejoin:miter;stroke-opacity:1" d="M 86.1299,266.494 86.1299,282.597 z" id="boundary" inkscape:connector-curvature="0" />
	<path style="fill:none;stroke:red;stroke-width:1px;stroke-linecap:butt;stroke-linejoin:miter;stroke-opacity:1" d="M 86.1299,282.597 116.727,297.091 z" id="boundary" inkscape:connector-curvature="0" />
	<path style="fill:none;stroke:red;stroke-width:1px;stroke-linecap:butt;stroke-linejoin:miter;stroke-opacity:1" d="M 92.5714,996 108.675,996 z" id="boundary" inkscape:connector-curvature="0" />
	<path style="fill:none;stroke:red;stroke-width:1px;stroke-linecap:butt;stroke-linejoin:miter;stroke-opacity:1" d="M 108.675,996 124.779,996 z" id="boundary" inkscape:connector-curvature="0" />
	<path style="fill:none;stroke:red;stroke-width:1px;stroke-linecap:butt;stroke-linejoin:miter;stroke-opacity:1" d="M -nan,-nan -nan,-nan z" id="boundary" inkscape:connector-curvature="0" />
	<path style="fill:none;stroke:red;stroke-width:1px;stroke-linecap:butt;stroke-linejoin:miter;stroke-opacity:1" d="M 116.727,297.091 116.727,313.195 z" id="boundary" inkscape:connector-curvature="0" />
	<path style="fill:none;stroke:red;stroke-width:1px;stroke-linecap:butt;stroke-linejoin:miter;stroke-opacity:1" d="M 116.727,313.195 116.727,329.299 z" id="boundary" inkscape:connector-curvature="0" />
	<path style="fill:none;stroke:red;stroke-width:1px;stroke-linecap:butt;stroke-linejoin:miter;stroke-opacity:1" d="M 116.727,329.299 116.727,345.403 z" id="boundary" inkscape:connector-curvature="0" />
	<path style="fill:none;stroke:red;stroke-width:1px;stroke-linecap:butt;stroke-linejoin:miter;stroke-opacity:1" d="M 116.727,345.403 124.779,376 z" id="boundary" inkscape:connector-curvature="0" />
	<path style="fill:none;stroke:red;stroke-width:1px;stroke-linecap:butt;stroke-linejoin:miter;stroke-opacity:1" d="M -nan,-nan -nan,-nan z" id="boundary" inkscape:connector-curvature="0" />
	<path style="fill:none;stroke:red;stroke-width:1px;stroke-linecap:butt;stroke-linejoin:miter;stroke-opacity:1" d="M -nan,-nan nan,nan z" id="boundary" inkscape:connector-curvature="0" />
	<path style="fill:none;stroke:red;stroke-width:1px;stroke-linecap:butt;stroke-linejoin:miter;stroke-opacity:1" d="M -nan,-nan -nan,-nan z" id="boundary" inkscape:connector-curvature="0" />
	<path style="fill:none;stroke:red;stroke-width:1px;stroke-linecap:butt;stroke-linejoin:miter;stroke-opacity:1" d="M -nan,-nan -nan,-nan z" id="boundary" inkscape:connector-curvature="0" />
	<path style="fill:none;stroke:red;stroke-width:1px;stroke-linecap:butt;stroke-linejoin:miter;stroke-opacity:1" d="M -nan,-nan -nan,-nan z" id="boundary" inkscape:connector-curvature="0" />
	<path style="fill:none;stroke:red;stroke-width:1px;stroke-linecap:butt;stroke-linejoin:miter;stroke-opacity:1" d="M -nan,-nan -nan,-nan z" id="boundary" inkscape:connector-curvature="0" />
	<path style="fill:none;stroke:red;stroke-width:1px;stroke-linecap:butt;stroke-linejoin:miter;stroke-opacity:1" d="M -nan,-nan -nan,-nan z" id="boundary" inkscape:connector-curvature="0" />
	<path style="fill:none;stroke:red;stroke-width:1px;stroke-linecap:butt;stroke-linejoin:miter;stroke-opacity:1" d="M 124.779,996 140.883,996 z" id="boundary" inkscape:connector-curvature="0" />
	<path style="fill:none;stroke:red;stroke-width:1px;stroke-linecap:butt;stroke-linejoin:miter;stroke-opacity:1" d="M nan,nan nan,nan z" id="boundary" inkscape:connector-curvature="0" />
	<path style="fill:none;stroke:red;stroke-width:1px;stroke-linecap:butt;stroke-linejoin:miter;stroke-opacity:1" d="M 140.883,996 156.987,996 z" id="boundary" inkscape:connector-curvature="0" />
	<path style="fill:none;stroke:red;stroke-width:1px;stroke-linecap:butt;stroke-linejoin:miter;stroke-opacity:1" d="M nan,nan nan,nan z" id="boundary" inkscape:connector-curvature="0" />
	<path style="fill:none;stroke:red;stroke-width:1px;stroke-linecap:butt;stroke-linejoin:miter;stroke-opacity:1" d="M 156.987,996 173.091,996 z" id="boundary" inkscape:connector-curvature="0" />
	<path style="fill:none;stroke:red;stroke-width:1px;stroke-linecap:butt;stroke-linejoin:miter;stroke-opacity:1" d="M nan,nan nan,nan z" id="boundary" inkscape:connector-curvature="0" />
	<path style="fill:none;stroke:red;stroke-width:1px;stroke-linecap:butt;stroke-linejoin:miter;stroke-opacity:1" d="M nan,nan nan,nan z" id="boundary" inkscape:connector-curvature="0" />
	<path style="fill:none;stroke:red;stroke-width:1px;stroke-linecap:butt;stroke-linejoin:miter;stroke-opacity:1" d="M 173.091,996 189.195,996 z" id="boundary" inkscape:connector-curvature="0" />
	<path style="fill:none;stroke:red;stroke-width:1px;stroke-linecap:butt;stroke-linejoin:miter;stroke-opacity:1" d="M nan,nan nan,nan z" id="boundary" inkscape:connector-curvature="0" />
	<path style="fill:none;stroke:red;stroke-width:1px;stroke-linecap:butt;stroke-linejoin:miter;stroke-opacity:1" d="M 189.195,996 205.299,996 z" id="boundary" inkscape:connector-curvature="0" />
	<path style="fill:none;stroke:red;stroke-width:1px;stroke-linecap:butt;stroke-linejoin:miter;stroke-opacity:1" d="M nan,nan nan,nan z" id="boundary" inkscape:connector-curvature="0" />
	<path style="fill:none;stroke:red;stroke-width:1px;stroke-linecap:butt;stroke-linejoin:miter;stroke-opacity:1" d="M nan,nan nan,nan z" id="boundary" inkscape:connector-curvature="0" />
	<path style="fill:none;stroke:red;stroke-width:1px;stroke-linecap:butt;stroke-linejoin:miter;stroke-opacity:1" d="M nan,nan nan,nan z" id="boundary" inkscape:connector-curvature="0" />
	<path style="fill:none;stroke:red;stroke-width:1px;stroke-linecap:butt;stroke-linejoin:miter;stroke-opacity:1" d="M nan,nan nan,nan z" id="boundary" inkscape:connector-curvature="0" />
	<path style="fill:none;stroke:red;stroke-width:1px;stroke-linecap:butt;stroke-linejoin:miter;stroke-opacity:1" d="M nan,nan nan,nan z" id="boundary" inkscape:connector-curvature="0" />
	<path style="fill:none;stroke:red;stroke-width:1px;stroke-linecap:butt;stroke-linejoin:miter;stroke-opacity:1" d="M nan,nan nan,nan z" id="boundary" inkscape:connector-curvature="0" />
	<path style="fill:none;stroke:red;stroke-width:1px;stroke-linecap:butt;stroke-linejoin:miter;stroke-opacity:1" d="M 205.299,996 221.403,996 z" id="boundary" inkscape:connector-curvature="0" />
	<path style="fill:none;stroke:red;stroke-width:1px;stroke-linecap:butt;stroke-linejoin:miter;stroke-opacity:1" d="M nan,nan nan,nan z" id="boundary" inkscape:connector-curvature="0" />
	<path style="fill:none;stroke:red;stroke-width:1px;stroke-linecap:butt;stroke-linejoin:miter;stroke-opacity:1" d="M nan,nan nan,nan z" id="boundary" inkscape:connector-curvature="0" />
	<path style="fill:none;stroke:red;stroke-width:1px;stroke-linecap:butt;stroke-linejoin:miter;stroke-opacity:1" d="M nan,nan nan,nan z" id="boundary" inkscape:connector-curvature="0" />
	<path style="fill:none;stroke:red;stroke-width:1px;stroke-linecap:butt;stroke-linejoin:miter;stroke-opacity:1" d="M nan,nan nan,nan z" id="boundary" inkscape:connector-curvature="0" />
	<path style="fill:none;stroke:red;stroke-width:1px;stroke-linecap:butt;stroke-linejoin:miter;stroke-opacity:1" d="M 221.403,996 235.896,987.948 z" id="boundary" inkscape:connector-curvature="0" />
	<path style="fill:none;stroke:red;stroke-width:1px;stroke-linecap:butt;stroke-linejoin:miter;stroke-opacity:1" d="M 235.896,987.948 252,987.948 z" id="boundary" inkscape:connector-curvature="0" />
	<path style="fill:none;stroke:red;stroke-width:1px;stroke-linecap:butt;stroke-linejoin:miter;stroke-opacity:1" d="M nan,nan nan,nan z" id="boundary" inkscape:connector-curvature="0" />
	<path style="fill:none;stroke:red;stroke-width:1px;stroke-linecap:butt;stroke-linejoin:miter;stroke-opacity:1" d="M nan,nan nan,nan z" id="boundary" inkscape:connector-curvature="0" />
	<path style="fill:none;stroke:red;stroke-width:1px;stroke-linecap:butt;stroke-linejoin:miter;stroke-opacity:1" d="M nan,nan nan,nan z" id="boundary" inkscape:connector-curvature="0" />
	<path style="fill:none;stroke:red;stroke-width:1px;stroke-linecap:butt;stroke-linejoin:miter;stroke-opacity:1" d="M 252,987.948 268.104,987.948 z" id="boundary" inkscape:connector-curvature="0" />
	<path style="fill:none;stroke:red;stroke-width:1px;stroke-linecap:butt;stroke-linejoin:miter;stroke-opacity:1" d="M nan,nan nan,nan z" id="boundary" inkscape:connector-curvature="0" />
	<path style="fill:none;stroke:red;stroke-width:1px;stroke-linecap:butt;stroke-linejoin:miter;stroke-opacity:1" d="M nan,nan nan,nan z" id="boundary" inkscape:connector-curvature="0" />
	<path style="fill:none;stroke:red;stroke-width:1px;stroke-linecap:butt;stroke-linejoin:miter;stroke-opacity:1" d="M nan,nan nan,nan z" id="boundary" inkscape:connector-curvature="0" />
	<path style="fill:none;stroke:red;stroke-width:1px;stroke-linecap:butt;stroke-linejoin:miter;stroke-opacity:1" d="M nan,nan nan,nan z" id="boundary" inkscape:connector-curvature="0" />
	<path style="fill:none;stroke:red;stroke-width:1px;stroke-linecap:butt;stroke-linejoin:miter;stroke-opacity:1" d="M nan,nan nan,nan z" id="boundary" inkscape:connector-curvature="0" />
	<path style="fill:none;stroke:red;stroke-width:1px;stroke-linecap:butt;stroke-linejoin:miter;stroke-opacity:1" d="M nan,nan nan,nan z" id="boundary" inkscape:connector-curvature="0" />
	<path style="fill:none;stroke:red;stroke-width:1px;stroke-linecap:butt;stroke-linejoin:miter;stroke-opacity:1" d="M nan,nan nan,nan z" id="boundary" inkscape:connector-curvature="0" />
	<path style="fill:none;stroke:red;stroke-width:1px;stroke-linecap:butt;stroke-linejoin:miter;stroke-opacity:1" d="M nan,nan nan,nan z" id="boundary" inkscape:connector-curvature="0" />
	<path style="fill:none;stroke:red;stroke-width:1px;stroke-linecap:butt;stroke-linejoin:miter;stroke-opacity:1" d="M nan,nan nan,nan z" id="boundary" inkscape:connector-curvature="0" />
	<path style="fill:none;stroke:red;stroke-width:1px;stroke-linecap:butt;stroke-linejoin:miter;stroke-opacity:1" d="M nan,nan nan,nan z" id="boundary" inkscape:connector-curvature="0" />
	<path style="fill:none;stroke:red;stroke-width:1px;stroke-linecap:butt;stroke-linejoin:miter;stroke-opacity:1" d="M 268.104,987.948 284.208,987.948 z" id="boundary" inkscape:connector-curvature="0" />
	<path style="fill:none;stroke:red;stroke-width:1px;stroke-linecap:butt;stroke-linejoin:miter;stroke-opacity:1" d="M nan,nan nan,nan z" id="boundary" inkscape:connector-curvature="0" />
	<path style="fill:none;stroke:red;stroke-width:1px;stroke-linecap:butt;stroke-linejoin:miter;stroke-opacity:1" d="M 284.208,987.948 300.312,987.948 z" id="boundary" inkscape:connector-curvature="0" />
	<path style="fill:none;stroke:red;stroke-width:1px;stroke-linecap:butt;stroke-linejoin:miter;stroke-opacity:1" d="M nan,nan nan,nan z" id="boundary" inkscape:connector-curvature="0" />
	<path style="fill:none;stroke:red;stroke-width:1px;stroke-linecap:butt;stroke-linejoin:miter;stroke-opacity:1" d="M nan,nan nan,nan z" id="boundary" inkscape:connector-curvature="0" />
	<path style="fill:none;stroke:red;stroke-width:1px;stroke-linecap:butt;stroke-linejoin:miter;stroke-opacity:1" d="M 300.312,987.948 316.416,987.948 z" id="boundary" inkscape:connector-curvature="0" />
	<path style="fill:none;stroke:red;stroke-width:1px;stroke-linecap:butt;stroke-linejoin:miter;stroke-opacity:1" d="M nan,nan nan,nan z" id="boundary" inkscape:connector-curvature="0" />
	<path style="fill:none;stroke:red;stroke-width:1px;stroke-linecap:butt;stroke-linejoin:miter;stroke-opacity:1" d="M 316.416,987.948 332.519,987.948 z" id="boundary" inkscape:connector-curvature="0" />
	<path style="fill:none;stroke:red;stroke-width:1px;stroke-linecap:butt;stroke-linejoin:miter;stroke-opacity:1" d="M nan,nan nan,nan z" id="boundary" inkscape:connector-curvature="0" />
	<path style="fill:none;stroke:red;stroke-width:1px;stroke-linecap:butt;stroke-linejoin:miter;stroke-opacity:1" d="M 332.519,987.948 348.623,987.948 z" id="boundary" inkscape:connector-curvature="0" />
	<path style="fill:none;stroke:red;stroke-width:1px;stroke-linecap:butt;stroke-linejoin:miter;stroke-opacity:1" d="M nan,nan nan,nan z" id="boundary" inkscape:connector-curvature="0" />
	<path style="fill:none;stroke:red;stroke-width:1px;stroke-linecap:butt;stroke-linejoin:miter;stroke-opacity:1" d="M 335.74,206.909 374.39,137.662 z" id="boundary" inkscape:connector-curvature="0" />
	<path style="fill:none;stroke:red;stroke-width:1px;stroke-linecap:butt;stroke-linejoin:miter;stroke-opacity:1" d="M 335.74,206.909 374.39,218.182 z" id="boundary" inkscape:connector-curvature="0" />
	<path style="fill:none;stroke:red;stroke-width:1px;stroke-linecap:butt;stroke-linejoin:miter;stroke-opacity:1" d="M 335.74,335.74 366.338,274.545 z" id="boundary" inkscape:connector-curvature="0" />
	<path style="fill:none;stroke:red;stroke-width:1px;stroke-linecap:butt;stroke-linejoin:miter;stroke-opacity:1" d="M nan,nan nan,nan z" id="boundary" inkscape:connector-curvature="0" />
	<path style="fill:none;stroke:red;stroke-width:1px;stroke-linecap:butt;stroke-linejoin:miter;stroke-opacity:1" d="M 348.623,987.948 364.727,987.948 z" id="boundary" inkscape:connector-curvature="0" />
	<path style="fill:none;stroke:red;stroke-width:1px;stroke-linecap:butt;stroke-linejoin:miter;stroke-opacity:1" d="M 364.727,987.948 380.831,987.948 z" id="boundary" inkscape:connector-curvature="0" />
	<path style="fill:none;stroke:red;stroke-width:1px;stroke-linecap:butt;stroke-linejoin:miter;stroke-opacity:1" d="M 366.338,242.338 366.338,274.545 z" id="boundary" inkscape:connector-curvature="0" />
	<path style="fill:none;stroke:red;stroke-width:1px;stroke-linecap:butt;stroke-linejoin:miter;stroke-opacity:1" d="M 366.338,242.338 374.39,218.182 z" id="boundary" inkscape:connector-curvature="0" />
	<path style="fill:none;stroke:red;stroke-width:1px;stroke-linecap:butt;stroke-linejoin:miter;stroke-opacity:1" d="M 374.39,89.3506 374.39,121.558 z" id="boundary" inkscape:connector-curvature="0" />
	<path style="fill:none;stroke:red;stroke-width:1px;stroke-linecap:butt;stroke-linejoin:miter;stroke-opacity:1" d="M 374.39,89.3506 382.442,49.0909 z" id="boundary" inkscape:connector-curvature="0" />
	<path style="fill:none;stroke:red;stroke-width:1px;stroke-linecap:butt;stroke-linejoin:miter;stroke-opacity:1" d="M 374.39,121.558 374.39,137.662 z" id="boundary" inkscape:connector-curvature="0" />
	<path style="fill:none;stroke:red;stroke-width:1px;stroke-linecap:butt;stroke-linejoin:miter;stroke-opacity:1" d="M 380.831,987.948 396.935,984.727 z" id="boundary" inkscape:connector-curvature="0" />
	<path style="fill:none;stroke:red;stroke-width:1px;stroke-linecap:butt;stroke-linejoin:miter;stroke-opacity:1" d="M 396.935,984.727 406.597,971.844 z" id="boundary" inkscape:connector-curvature="0" />
	<path style="fill:none;stroke:red;stroke-width:1px;stroke-linecap:butt;stroke-linejoin:miter;stroke-opacity:1" d="M 406.597,971.844 416.26,955.74 z" id="boundary" inkscape:connector-curvature="0" />
	<path style="fill:none;stroke:red;stroke-width:1px;stroke-linecap:butt;stroke-linejoin:miter;stroke-opacity:1" d="M 411.429,4 424.312,34.5974 z" id="boundary" inkscape:connector-curvature="0" />
	<path style="fill:none;stroke:red;stroke-width:1px;stroke-linecap:butt;stroke-linejoin:miter;stroke-opacity:1" d="M 416.26,955.74 429.143,944.468 z" id="boundary" inkscape:connector-curvature="0" />
	<path style="fill:none;stroke:red;stroke-width:1px;stroke-linecap:butt;stroke-linejoin:miter;stroke-opacity:1" d="M 424.312,34.5974 437.195,45.8701 z" id="boundary" inkscape:connector-curvature="0" />
	<path style="fill:none;stroke:red;stroke-width:1px;stroke-linecap:butt;stroke-linejoin:miter;stroke-opacity:1" d="M 429.143,944.468 440.416,931.584 z" id="boundary" inkscape:connector-curvature="0" />
	<path style="fill:none;stroke:red;stroke-width:1px;stroke-linecap:butt;stroke-linejoin:miter;stroke-opacity:1" d="M 437.195,45.8701 440.416,61.974 z" id="boundary" inkscape:connector-curvature="0" />
	<path style="fill:none;stroke:red;stroke-width:1px;stroke-linecap:butt;stroke-linejoin:miter;stroke-opacity:1" d="M 440.416,61.974 443.636,78.0779 z" id="boundary" inkscape:connector-curvature="0" />
	<path style="fill:none;stroke:red;stroke-width:1px;stroke-linecap:butt;stroke-linejoin:miter;stroke-opacity:1" d="M 440.416,931.584 456.519,923.532 z" id="boundary" inkscape:connector-curvature="0" />
	<path style="fill:none;stroke:red;stroke-width:1px;stroke-linecap:butt;stroke-linejoin:miter;stroke-opacity:1" d="M 443.636,78.0779 456.519,89.3506 z" id="boundary" inkscape:connector-curvature="0" />
	<path style="fill:none;stroke:red;stroke-width:1px;stroke-linecap:butt;stroke-linejoin:miter;stroke-opacity:1" d="M 456.519,89.3506 456.519,105.455 z" id="boundary" inkscape:connector-curvature="0" />
	<path style="fill:none;stroke:red;stroke-width:1px;stroke-linecap:butt;stroke-linejoin:miter;stroke-opacity:1" d="M 456.519,105.455 456.519,121.558 z" id="boundary" inkscape:connector-curvature="0" />
	<path style="fill:none;stroke:red;stroke-width:1px;stroke-linecap:butt;stroke-linejoin:miter;stroke-opacity:1" d="M 456.519,121.558 456.519,137.662 z" id="boundary" inkscape:connector-curvature="0" />
	<path style="fill:none;stroke:red;stroke-width:1px;stroke-linecap:butt;stroke-linejoin:miter;stroke-opacity:1" d="M 456.519,137.662 464.571,152.156 z" id="boundary" inkscape:connector-curvature="0" />
	<path style="fill:none;stroke:red;stroke-width:1px;stroke-linecap:butt;stroke-linejoin:miter;stroke-opacity:1" d="M 456.519,255.221 456.519,271.325 z" id="boundary" inkscape:connector-curvature="0" />
	<path style="fill:none;stroke:red;stroke-width:1px;stroke-linecap:butt;stroke-linejoin:miter;stroke-opacity:1" d="M 456.519,255.221 464.571,232.675 z" id="boundary" inkscape:connector-curvature="0" />
	<path style="fill:none;stroke:red;stroke-width:1px;stroke-linecap:butt;stroke-linejoin:miter;stroke-opacity:1" d="M 456.519,271.325 464.571,285.818 z" id="boundary" inkscape:connector-curvature="0" />
	<path style="fill:none;stroke:red;stroke-width:1px;stroke-linecap:butt;stroke-linejoin:miter;stroke-opacity:1" d="M 456.519,923.532 469.403,912.26 z" id="boundary" inkscape:connector-curvature="0" />
	<path style="fill:none;stroke:red;stroke-width:1px;stroke-linecap:butt;stroke-linejoin:miter;stroke-opacity:1" d="M 464.571,152.156 464.571,168.26 z" id="boundary" inkscape:connector-curvature="0" />
	<path style="fill:none;stroke:red;stroke-width:1px;stroke-linecap:butt;stroke-linejoin:miter;stroke-opacity:1" d="M 464.571,168.26 464.571,184.364 z" id="boundary" inkscape:connector-curvature="0" />
	<path style="fill:none;stroke:red;stroke-width:1px;stroke-linecap:butt;stroke-linejoin:miter;stroke-opacity:1" d="M 464.571,184.364 464.571,200.468 z" id="boundary" inkscape:connector-curvature="0" />
	<path style="fill:none;stroke:red;stroke-width:1px;stroke-linecap:butt;stroke-linejoin:miter;stroke-opacity:1" d="M 464.571,200.468 464.571,216.571 z" id="boundary" inkscape:connector-curvature="0" />
	<path style="fill:none;stroke:red;stroke-width:1px;stroke-linecap:butt;stroke-linejoin:miter;stroke-opacity:1" d="M 464.571,216.571 464.571,232.675 z" id="boundary" inkscape:connector-curvature="0" />
	<path style="fill:none;stroke:red;stroke-width:1px;stroke-linecap:butt;stroke-linejoin:miter;stroke-opacity:1" d="M 464.571,285.818 464.571,301.922 z" id="boundary" inkscape:connector-curvature="0" />
	<path style="fill:none;stroke:red;stroke-width:1px;stroke-linecap:butt;stroke-linejoin:miter;stroke-opacity:1" d="M 464.571,301.922 464.571,318.026 z" id="boundary" inkscape:connector-curvature="0" />
	<path style="fill:none;stroke:red;stroke-width:1px;stroke-linecap:butt;stroke-linejoin:miter;stroke-opacity:1" d="M 464.571,318.026 464.571,334.13 z" id="boundary" inkscape:connector-curvature="0" />
	<path style="fill:none;stroke:red;stroke-width:1px;stroke-linecap:butt;stroke-linejoin:miter;stroke-opacity:1" d="M 464.571,334.13 464.571,350.234 z" id="boundary" inkscape:connector-curvature="0" />
	<path style="fill:none;stroke:red;stroke-width:1px;stroke-linecap:butt;stroke-linejoin:miter;stroke-opacity:1" d="M 464.571,350.234 464.571,366.338 z" id="boundary" inkscape:connector-curvature="0" />
	<path style="fill:none;stroke:red;stroke-width:1px;stroke-linecap:butt;stroke-linejoin:miter;stroke-opacity:1" d="M 464.571,366.338 464.571,382.442 z" id="boundary" inkscape:connector-curvature="0" />
	<path style="fill:none;stroke:red;stroke-width:1px;stroke-linecap:butt;stroke-linejoin:miter;stroke-opacity:1" d="M 464.571,382.442 464.571,398.545 z" id="boundary" inkscape:connector-curvature="0" />
	<path style="fill:none;stroke:red;stroke-width:1px;stroke-linecap:butt;stroke-linejoin:miter;stroke-opacity:1" d="M 464.571,398.545 464.571,414.649 z" id="boundary" inkscape:connector-curvature="0" />
	<path style="fill:none;stroke:red;stroke-width:1px;stroke-linecap:butt;stroke-linejoin:miter;stroke-opacity:1" d="M 464.571,414.649 464.571,430.753 z" id="boundary" inkscape:connector-curvature="0" />
	<path style="fill:none;stroke:red;stroke-width:1px;stroke-linecap:butt;stroke-linejoin:miter;stroke-opacity:1" d="M 464.571,430.753 472.623,445.247 z" id="boundary" inkscape:connector-curvature="0" />
	<path style="fill:none;stroke:red;stroke-width:1px;stroke-linecap:butt;stroke-linejoin:miter;stroke-opacity:1" d="M 469.403,912.26 479.065,899.377 z" id="boundary" inkscape:connector-curvature="0" />
	<path style="fill:none;stroke:red;stroke-width:1px;stroke-linecap:butt;stroke-linejoin:miter;stroke-opacity:1" d="M 472.623,445.247 472.623,461.351 z" id="boundary" inkscape:connector-curvature="0" />
	<path style="fill:none;stroke:red;stroke-width:1px;stroke-linecap:butt;stroke-linejoin:miter;stroke-opacity:1" d="M 472.623,461.351 472.623,477.455 z" id="boundary" inkscape:connector-curvature="0" />
	<path style="fill:none;stroke:red;stroke-width:1px;stroke-linecap:butt;stroke-linejoin:miter;stroke-opacity:1" d="M 472.623,477.455 472.623,493.558 z" id="boundary" inkscape:connector-curvature="0" />
	<path style="fill:none;stroke:red;stroke-width:1px;stroke-linecap:butt;stroke-linejoin:miter;stroke-opacity:1" d="M 472.623,493.558 472.623,509.662 z" id="boundary" inkscape:connector-curvature="0" />
	<path style="fill:none;stroke:red;stroke-width:1px;stroke-linecap:butt;stroke-linejoin:miter;stroke-opacity:1" d="M 472.623,509.662 480.675,524.156 z" id="boundary" inkscape:connector-curvature="0" />
	<path style="fill:none;stroke:red;stroke-width:1px;stroke-linecap:butt;stroke-linejoin:miter;stroke-opacity:1" d="M 479.065,899.377 491.948,889.714 z" id="boundary" inkscape:connector-curvature="0" />
	<path style="fill:none;stroke:red;stroke-width:1px;stroke-linecap:butt;stroke-linejoin:miter;stroke-opacity:1" d="M 480.675,524.156 488.727,538.649 z" id="boundary" inkscape:connector-curvature="0" />
	<path style="fill:none;stroke:red;stroke-width:1px;stroke-linecap:butt;stroke-linejoin:miter;stroke-opacity:1" d="M 488.727,538.649 498.39,551.532 z" id="boundary" inkscape:connector-curvature="0" />
	<path style="fill:none;stroke:red;stroke-width:1px;stroke-linecap:butt;stroke-linejoin:miter;stroke-opacity:1" d="M 491.948,889.714 504.831,867.169 z" id="boundary" inkscape:connector-curvature="0" />
	<path style="fill:none;stroke:red;stroke-width:1px;stroke-linecap:butt;stroke-linejoin:miter;stroke-opacity:1" d="M 498.39,551.532 504.831,567.636 z" id="boundary" inkscape:connector-curvature="0" />
	<path style="fill:none;stroke:red;stroke-width:1px;stroke-linecap:butt;stroke-linejoin:miter;stroke-opacity:1" d="M 504.831,567.636 504.831,583.74 z" id="boundary" inkscape:connector-curvature="0" />
	<path style="fill:none;stroke:red;stroke-width:1px;stroke-linecap:butt;stroke-linejoin:miter;stroke-opacity:1" d="M 504.831,583.74 517.714,593.403 z" id="boundary" inkscape:connector-curvature="0" />
	<path style="fill:none;stroke:red;stroke-width:1px;stroke-linecap:butt;stroke-linejoin:miter;stroke-opacity:1" d="M 504.831,867.169 520.935,851.065 z" id="boundary" inkscape:connector-curvature="0" />
	<path style="fill:none;stroke:red;stroke-width:1px;stroke-linecap:butt;stroke-linejoin:miter;stroke-opacity:1" d="M 517.714,593.403 524.156,609.506 z" id="boundary" inkscape:connector-curvature="0" />
	<path style="fill:none;stroke:red;stroke-width:1px;stroke-linecap:butt;stroke-linejoin:miter;stroke-opacity:1" d="M 520.935,851.065 533.818,839.792 z" id="boundary" inkscape:connector-curvature="0" />
	<path style="fill:none;stroke:red;stroke-width:1px;stroke-linecap:butt;stroke-linejoin:miter;stroke-opacity:1" d="M 524.156,609.506 532.208,624 z" id="boundary" inkscape:connector-curvature="0" />
	<path style="fill:none;stroke:red;stroke-width:1px;stroke-linecap:butt;stroke-linejoin:miter;stroke-opacity:1" d="M 532.208,624 548.312,624 z" id="boundary" inkscape:connector-curvature="0" />
	<path style="fill:none;stroke:red;stroke-width:1px;stroke-linecap:butt;stroke-linejoin:miter;stroke-opacity:1" d="M 533.818,839.792 545.091,826.909 z" id="boundary" inkscape:connector-curvature="0" />
	<path style="fill:none;stroke:red;stroke-width:1px;stroke-linecap:butt;stroke-linejoin:miter;stroke-opacity:1" d="M 545.091,826.909 553.143,810.805 z" id="boundary" inkscape:connector-curvature="0" />
	<path style="fill:none;stroke:red;stroke-width:1px;stroke-linecap:butt;stroke-linejoin:miter;stroke-opacity:1" d="M 548.312,624 564.416,624 z" id="boundary" inkscape:connector-curvature="0" />
	<path style="fill:none;stroke:red;stroke-width:1px;stroke-linecap:butt;stroke-linejoin:miter;stroke-opacity:1" d="M 553.143,810.805 566.026,799.532 z" id="boundary" inkscape:connector-curvature="0" />
	<path style="fill:none;stroke:red;stroke-width:1px;stroke-linecap:butt;stroke-linejoin:miter;stroke-opacity:1" d="M 564.416,624 580.519,615.948 z" id="boundary" inkscape:connector-curvature="0" />
	<path style="fill:none;stroke:red;stroke-width:1px;stroke-linecap:butt;stroke-linejoin:miter;stroke-opacity:1" d="M 566.026,799.532 577.299,786.649 z" id="boundary" inkscape:connector-curvature="0" />
	<path style="fill:none;stroke:red;stroke-width:1px;stroke-linecap:butt;stroke-linejoin:miter;stroke-opacity:1" d="M 577.299,786.649 593.403,778.597 z" id="boundary" inkscape:connector-curvature="0" />
	<path style="fill:none;stroke:red;stroke-width:1px;stroke-linecap:butt;stroke-linejoin:miter;stroke-opacity:1" d="M 580.519,615.948 593.403,603.065 z" id="boundary" inkscape:connector-curvature="0" />
	<path style="fill:none;stroke:red;stroke-width:1px;stroke-linecap:butt;stroke-linejoin:miter;stroke-opacity:1" d="M 593.403,603.065 606.286,591.792 z" id="boundary" inkscape:connector-curvature="0" />
	<path style="fill:none;stroke:red;stroke-width:1px;stroke-linecap:butt;stroke-linejoin:miter;stroke-opacity:1" d="M 593.403,778.597 606.286,767.325 z" id="boundary" inkscape:connector-curvature="0" />
	<path style="fill:none;stroke:red;stroke-width:1px;stroke-linecap:butt;stroke-linejoin:miter;stroke-opacity:1" d="M 606.286,591.792 615.948,572.468 z" id="boundary" inkscape:connector-curvature="0" />
	<path style="fill:none;stroke:red;stroke-width:1px;stroke-linecap:butt;stroke-linejoin:miter;stroke-opacity:1" d="M 606.286,767.325 617.558,746.39 z" id="boundary" inkscape:connector-curvature="0" />
	<path style="fill:none;stroke:red;stroke-width:1px;stroke-linecap:butt;stroke-linejoin:miter;stroke-opacity:1" d="M 615.948,572.468 624,556.364 z" id="boundary" inkscape:connector-curvature="0" />
	<path style="fill:none;stroke:red;stroke-width:1px;stroke-linecap:butt;stroke-linejoin:miter;stroke-opacity:1" d="M 617.558,746.39 625.61,730.286 z" id="boundary" inkscape:connector-curvature="0" />
	<path style="fill:none;stroke:red;stroke-width:1px;stroke-linecap:butt;stroke-linejoin:miter;stroke-opacity:1" d="M 624,556.364 636.883,543.481 z" id="boundary" inkscape:connector-curvature="0" />
	<path style="fill:none;stroke:red;stroke-width:1px;stroke-linecap:butt;stroke-linejoin:miter;stroke-opacity:1" d="M 625.61,730.286 638.494,719.013 z" id="boundary" inkscape:connector-curvature="0" />
	<path style="fill:none;stroke:red;stroke-width:1px;stroke-linecap:butt;stroke-linejoin:miter;stroke-opacity:1" d="M 636.883,543.481 640.104,524.156 z" id="boundary" inkscape:connector-curvature="0" />
	<path style="fill:none;stroke:red;stroke-width:1px;stroke-linecap:butt;stroke-linejoin:miter;stroke-opacity:1" d="M 638.494,719.013 641.714,698.078 z" id="boundary" inkscape:connector-curvature="0" />
	<path style="fill:none;stroke:red;stroke-width:1px;stroke-linecap:butt;stroke-linejoin:miter;stroke-opacity:1" d="M 640.104,524.156 652.987,511.273 z" id="boundary" inkscape:connector-curvature="0" />
	<path style="fill:none;stroke:red;stroke-width:1px;stroke-linecap:butt;stroke-linejoin:miter;stroke-opacity:1" d="M 641.714,698.078 657.818,681.974 z" id="boundary" inkscape:connector-curvature="0" />
	<path style="fill:none;stroke:red;stroke-width:1px;stroke-linecap:butt;stroke-linejoin:miter;stroke-opacity:1" d="M 652.987,511.273 664.26,491.948 z" id="boundary" inkscape:connector-curvature="0" />
	<path style="fill:none;stroke:red;stroke-width:1px;stroke-linecap:butt;stroke-linejoin:miter;stroke-opacity:1" d="M 657.818,681.974 670.701,670.701 z" id="boundary" inkscape:connector-curvature="0" />
	<path style="fill:none;stroke:red;stroke-width:1px;stroke-linecap:butt;stroke-linejoin:miter;stroke-opacity:1" d="M 664.26,491.948 677.143,479.065 z" id="boundary" inkscape:connector-curvature="0" />
	<path style="fill:none;stroke:red;stroke-width:1px;stroke-linecap:butt;stroke-linejoin:miter;stroke-opacity:1" d="M 670.701,670.701 680.364,657.818 z" id="boundary" inkscape:connector-curvature="0" />
	<path style="fill:none;stroke:red;stroke-width:1px;stroke-linecap:butt;stroke-linejoin:miter;stroke-opacity:1" d="M 677.143,479.065 693.247,471.013 z" id="boundary" inkscape:connector-curvature="0" />
	<path style="fill:none;stroke:red;stroke-width:1px;stroke-linecap:butt;stroke-linejoin:miter;stroke-opacity:1" d="M 680.364,657.818 693.247,648.156 z" id="boundary" inkscape:connector-curvature="0" />
	<path style="fill:none;stroke:red;stroke-width:1px;stroke-linecap:butt;stroke-linejoin:miter;stroke-opacity:1" d="M 693.247,471.013 706.13,458.13 z" id="boundary" inkscape:connector-curvature="0" />
	<path style="fill:none;stroke:red;stroke-width:1px;stroke-linecap:butt;stroke-linejoin:miter;stroke-opacity:1" d="M 693.247,648.156 701.299,632.052 z" id="boundary" inkscape:connector-curvature="0" />
	<path style="fill:none;stroke:red;stroke-width:1px;stroke-linecap:butt;stroke-linejoin:miter;stroke-opacity:1" d="M 701.299,632.052 714.182,609.506 z" id="boundary" inkscape:connector-curvature="0" />
	<path style="fill:none;stroke:red;stroke-width:1px;stroke-linecap:butt;stroke-linejoin:miter;stroke-opacity:1" d="M 706.13,458.13 722.234,454.909 z" id="boundary" inkscape:connector-curvature="0" />
	<path style="fill:none;stroke:red;stroke-width:1px;stroke-linecap:butt;stroke-linejoin:miter;stroke-opacity:1" d="M 714.182,609.506 722.234,593.403 z" id="boundary" inkscape:connector-curvature="0" />
	<path style="fill:none;stroke:red;stroke-width:1px;stroke-linecap:butt;stroke-linejoin:miter;stroke-opacity:1" d="M 722.234,454.909 738.338,454.909 z" id="boundary" inkscape:connector-curvature="0" />
	<path style="fill:none;stroke:red;stroke-width:1px;stroke-linecap:butt;stroke-linejoin:miter;stroke-opacity:1" d="M 722.234,593.403 730.286,577.299 z" id="boundary" inkscape:connector-curvature="0" />
	<path style="fill:none;stroke:red;stroke-width:1px;stroke-linecap:butt;stroke-linejoin:miter;stroke-opacity:1" d="M 730.286,577.299 738.338,561.195 z" id="boundary" inkscape:connector-curvature="0" />
	<path style="fill:none;stroke:red;stroke-width:1px;stroke-linecap:butt;stroke-linejoin:miter;stroke-opacity:1" d="M 738.338,454.909 754.442,454.909 z" id="boundary" inkscape:connector-curvature="0" />
	<path style="fill:none;stroke:red;stroke-width:1px;stroke-linecap:butt;stroke-linejoin:miter;stroke-opacity:1" d="M 738.338,561.195 746.39,537.039 z" id="boundary" inkscape:connector-curvature="0" />
	<path style="fill:none;stroke:red;stroke-width:1px;stroke-linecap:butt;stroke-linejoin:miter;stroke-opacity:1" d="M 746.39,537.039 754.442,520.935 z" id="boundary" inkscape:connector-curvature="0" />
	<path style="fill:none;stroke:red;stroke-width:1px;stroke-linecap:butt;stroke-linejoin:miter;stroke-opacity:1" d="M 754.442,454.909 762.494,469.403 z" id="boundary" inkscape:connector-curvature="0" />
	<path style="fill:none;stroke:red;stroke-width:1px;stroke-linecap:butt;stroke-linejoin:miter;stroke-opacity:1" d="M 754.442,520.935 762.494,501.61 z" id="boundary" inkscape:connector-curvature="0" />
	<path style="fill:none;stroke:red;stroke-width:1px;stroke-linecap:butt;stroke-linejoin:miter;stroke-opacity:1" d="M 762.494,469.403 762.494,485.506 z" id="boundary" inkscape:connector-curvature="0" />
	<path style="fill:none;stroke:red;stroke-width:1px;stroke-linecap:butt;stroke-linejoin:miter;stroke-opacity:1" d="M 762.494,485.506 762.494,501.61 z" id="boundary" inkscape:connector-curvature="0" />
	<circle cx="4" cy="226.234" r="4" fill="#0" id="circle0"/>
	<circle cx="4" cy="242.338" r="4" fill="#0" id="circle1"/>
	<circle cx="12.0519" cy="256.831" r="4" fill="#0" id="circle2"/>
	<circle cx="12.0519" cy="272.935" r="4" fill="#0" id="circle3"/>
	<circle cx="12.0519" cy="289.039" r="4" fill="#0" id="circle4"/>
	<circle cx="12.0519" cy="305.143" r="4" fill="#0" id="circle5"/>
	<circle cx="12.0519" cy="321.247" r="4" fill="#0" id="circle6"/>
	<circle cx="16.8831" cy="213.351" r="4" fill="#0" id="circle7"/>
	<circle cx="20.1039" cy="194.026" r="4" fill="#0" id="circle8"/>
	<circle cx="20.1039" cy="335.74" r="4" fill="#0" id="circle9"/>
	<circle cx="20.1039" cy="351.844" r="4" fill="#0" id="circle10"/>
	<circle cx="20.1039" cy="367.948" r="4" fill="#0" id="circle11"/>
	<circle cx="20.1039" cy="384.052" r="4" fill="#0" id="circle12"/>
	<circle cx="20.1039" cy="400.156" r="4" fill="#0" id="circle13"/>
	<circle cx="24.9351" cy="416.26" r="4" fill="#0" id="circle14"/>
	<circle cx="28.1558" cy="432.364" r="4" fill="#0" id="circle15"/>
	<circle cx="23.5453" cy="171.701" r="4" fill="#0" id="circle16"/>
	<circle cx="36.2078" cy="446.857" r="4" fill="#0" id="circle17"/>
	<circle cx="36.2078" cy="462.961" r="4" fill="#0" id="circle18"/>
	<circle cx="36.2078" cy="479.065" r="4" fill="#0" id="circle19"/>
	<circle cx="36.2078" cy="495.169" r="4" fill="#0" id="circle20"/>
	<circle cx="36.2078" cy="511.273" r="4" fill="#0" id="circle21"/>
	<circle cx="36.2078" cy="527.377" r="4" fill="#0" id="circle22"/>
	<circle cx="36.2078" cy="543.481" r="4" fill="#0" id="circle23"/>
	<circle cx="36.2078" cy="559.584" r="4" fill="#0" id="circle24"/>
	<circle cx="44.2597" cy="574.078" r="4" fill="#0" id="circle25"/>
	<circle cx="44.2597" cy="590.182" r="4" fill="#0" id="circle26"/>
	<circle cx="44.2597" cy="606.286" r="4" fill="#0" id="circle27"/>
	<circle cx="44.2597" cy="622.39" r="4" fill="#0" id="circle28"/>
	<circle cx="44.2597" cy="638.494" r="4" fill="#0" id="circle29"/>
	<circle cx="45.8701" cy="168.26" r="4" fill="#0" id="circle30"/>
	<circle cx="52.3117" cy="652.987" r="4" fill="#0" id="circle31"/>
	<circle cx="52.3117" cy="669.091" r="4" fill="#0" id="circle32"/>
	<circle cx="52.3117" cy="685.195" r="4" fill="#0" id="circle33"/>
	<circle cx="52.3117" cy="701.299" r="4" fill="#0" id="circle34"/>
	<circle cx="52.3117" cy="717.403" r="4" fill="#0" id="circle35"/>
	<circle cx="63.3655" cy="199.316" r="4" fill="#0" id="circle36"/>
	<circle cx="60.3636" cy="731.896" r="4" fill="#0" id="circle37"/>
	<circle cx="60.3636" cy="748" r="4" fill="#0" id="circle38"/>
	<circle cx="60.3636" cy="764.104" r="4" fill="#0" id="circle39"/>
	<circle cx="60.3636" cy="780.208" r="4" fill="#0" id="circle40"/>
	<circle cx="60.3636" cy="796.312" r="4" fill="#0" id="circle41"/>
	<circle cx="60.3636" cy="975.065" r="4" fill="#0" id="circle42"/>
	<circle cx="60.3636" cy="991.169" r="4" fill="#0" id="circle43"/>
	<circle cx="68.4156" cy="810.805" r="4" fill="#0" id="circle44"/>
	<circle cx="68.4156" cy="826.909" r="4" fill="#0" id="circle45"/>
	<circle cx="68.4156" cy="958.961" r="4" fill="#0" id="circle46"/>
	<circle cx="70.026" cy="189.195" r="4" fill="#0" id="circle47"/>
	<circle cx="76.4675" cy="841.403" r="4" fill="#0" id="circle48"/>
	<circle cx="76.4675" cy="857.506" r="4" fill="#0" id="circle49"/>
	<circle cx="76.4675" cy="934.805" r="4" fill="#0" id="circle50"/>
	<circle cx="76.4675" cy="996" r="4" fill="#0" id="circle51"/>
	<circle cx="66.6324" cy="213.145" r="4" fill="#0" id="circle52"/>
	<circle cx="79.6883" cy="873.61" r="4" fill="#0" id="circle53"/>
	<circle cx="84.5195" cy="889.714" r="4" fill="#0" id="circle54"/>
	<circle cx="84.5195" cy="905.818" r="4" fill="#0" id="circle55"/>
	<circle cx="86.1299" cy="218.182" r="4" fill="#0" id="circle56"/>
	<circle cx="86.1299" cy="234.286" r="4" fill="#0" id="circle57"/>
	<circle cx="86.1299" cy="250.39" r="4" fill="#0" id="circle58"/>
	<circle cx="86.1299" cy="266.494" r="4" fill="#0" id="circle59"/>
	<circle cx="86.1299" cy="282.597" r="4" fill="#0" id="circle60"/>
	<circle cx="86.1299" cy="298.701" r="4" fill="#0" id="circle61"/>
	<circle cx="86.1299" cy="314.805" r="4" fill="#0" id="circle62"/>
	<circle cx="86.1299" cy="330.909" r="4" fill="#0" id="circle63"/>
	<circle cx="92.5714" cy="996" r="4" fill="#0" id="circle64"/>
	<circle cx="94.1818" cy="345.403" r="4" fill="#0" id="circle65"/>
	<circle cx="94.1818" cy="361.506" r="4" fill="#0" id="circle66"/>
	<circle cx="99.013" cy="377.61" r="4" fill="#0" id="circle67"/>
	<circle cx="102.234" cy="393.714" r="4" fill="#0" id="circle68"/>
	<circle cx="102.234" cy="409.818" r="4" fill="#0" id="circle69"/>
	<circle cx="108.675" cy="266.494" r="4" fill="#0" id="circle70"/>
	<circle cx="108.675" cy="282.597" r="4" fill="#0" id="circle71"/>
	<circle cx="108.675" cy="996" r="4" fill="#0" id="circle72"/>
	<circle cx="111.896" cy="422.701" r="4" fill="#0" id="circle73"/>
	<circle cx="-nan" cy="-nan" r="4" fill="#0" id="circle74"/>
	<circle cx="116.727" cy="202.078" r="4" fill="#0" id="circle75"/>
	<circle cx="116.727" cy="218.182" r="4" fill="#0" id="circle76"/>
	<circle cx="116.727" cy="234.286" r="4" fill="#0" id="circle77"/>
	<circle cx="116.727" cy="250.39" r="4" fill="#0" id="circle78"/>
	<circle cx="116.727" cy="297.091" r="4" fill="#0" id="circle79"/>
	<circle cx="116.727" cy="313.195" r="4" fill="#0" id="circle80"/>
	<circle cx="116.727" cy="329.299" r="4" fill="#0" id="circle81"/>
	<circle cx="116.727" cy="345.403" r="4" fill="#0" id="circle82"/>
	<circle cx="118.338" cy="438.805" r="4" fill="#0" id="circle83"/>
	<circle cx="-nan" cy="-nan" r="4" fill="#0" id="circle84"/>
	<circle cx="-nan" cy="-nan" r="4" fill="#0" id="circle85"/>
	<circle cx="-nan" cy="-nan" r="4" fill="#0" id="circle86"/>
	<circle cx="-nan" cy="-nan" r="4" fill="#0" id="circle87"/>
	<circle cx="-nan" cy="-nan" r="4" fill="#0" id="circle88"/>
	<circle cx="-nan" cy="-nan" r="4" fill="#0" id="circle89"/>
	<circle cx="-nan" cy="-nan" r="4" fill="#0" id="circle90"/>
	<circle cx="124.779" cy="359.896" r="4" fill="#0" id="circle91"/>
	<circle cx="124.779" cy="376" r="4" fill="#0" id="circle92"/>
	<circle cx="124.779" cy="392.104" r="4" fill="#0" id="circle93"/>
	<circle cx="124.779" cy="408.208" r="4" fill="#0" id="circle94"/>
	<circle cx="124.779" cy="996" r="4" fill="#0" id="circle95"/>
	<circle cx="nan" cy="nan" r="4" fill="#0" id="circle96"/>
	<circle cx="140.883" cy="996" r="4" fill="#0" id="circle97"/>
	<circle cx="nan" cy="nan" r="4" fill="#0" id="circle98"/>
	<circle cx="156.987" cy="996" r="4" fill="#0" id="circle99"/>
	<circle cx="nan" cy="nan" r="4" fill="#0" id="circle100"/>
	<circle cx="nan" cy="nan" r="4" fill="#0" id="circle101"/>
	<circle cx="173.091" cy="996" r="4" fill="#0" id="circle102"/>
	<circle cx="nan" cy="nan" r="4" fill="#0" id="circle103"/>
	<circle cx="189.195" cy="996" r="4" fill="#0" id="circle104"/>
	<circle cx="nan" cy="nan" r="4" fill="#0" id="circle105"/>
	<circle cx="nan" cy="nan" r="4" fill="#0" id="circle106"/>
	<circle cx="nan" cy="nan" r="4" fill="#0" id="circle107"/>
	<circle cx="198.857" cy="190.805" r="4" fill="#0" id="circle108"/>
	<circle cx="nan" cy="nan" r="4" fill="#0" id="circle109"/>
	<circle cx="198.857" cy="223.013" r="4" fill="#0" id="circle110"/>
	<circle cx="198.857" cy="239.117" r="4" fill="#0" id="circle111"/>
	<circle cx="198.857" cy="255.221" r="4" fill="#0" id="circle112"/>
	<circle cx="198.857" cy="271.325" r="4" fill="#0" id="circle113"/>
	<circle cx="nan" cy="nan" r="4" fill="#0" id="circle114"/>
	<circle cx="205.299" cy="996" r="4" fill="#0" id="circle115"/>
	<circle cx="nan" cy="nan" r="4" fill="#0" id="circle116"/>
	<circle cx="nan" cy="nan" r="4" fill="#0" id="circle117"/>
	<circle cx="nan" cy="nan" r="4" fill="#0" id="circle118"/>
	<circle cx="nan" cy="nan" r="4" fill="#0" id="circle119"/>
	<circle cx="nan" cy="nan" r="4" fill="#0" id="circle120"/>
	<circle cx="206.909" cy="285.818" r="4" fill="#0" id="circle121"/>
	<circle cx="206.909" cy="301.922" r="4" fill="#0" id="circle122"/>
	<circle cx="206.909" cy="318.026" r="4" fill="#0" id="circle123"/>
	<circle cx="219.792" cy="327.688" r="4" fill="#0" id="circle124"/>
	<circle cx="221.403" cy="996" r="4" fill="#0" id="circle125"/>
	<circle cx="227.844" cy="342.182" r="4" fill="#0" id="circle126"/>
	<circle cx="235.896" cy="987.948" r="4" fill="#0" id="circle127"/>
	<circle cx="nan" cy="nan" r="4" fill="#0" id="circle128"/>
	<circle cx="237.506" cy="226.234" r="4" fill="#0" id="circle129"/>
	<circle cx="237.506" cy="242.338" r="4" fill="#0" id="circle130"/>
	<circle cx="237.506" cy="258.442" r="4" fill="#0" id="circle131"/>
	<circle cx="237.506" cy="274.545" r="4" fill="#0" id="circle132"/>
	<circle cx="237.506" cy="290.649" r="4" fill="#0" id="circle133"/>
	<circle cx="237.506" cy="306.753" r="4" fill="#0" id="circle134"/>
	<circle cx="237.506" cy="322.857" r="4" fill="#0" id="circle135"/>
	<circle cx="nan" cy="nan" r="4" fill="#0" id="circle136"/>
	<circle cx="nan" cy="nan" r="4" fill="#0" id="circle137"/>
	<circle cx="252" cy="987.948" r="4" fill="#0" id="circle138"/>
	<circle cx="nan" cy="nan" r="4" fill="#0" id="circle139"/>
	<circle cx="nan" cy="nan" r="4" fill="#0" id="circle140"/>
	<circle cx="nan" cy="nan" r="4" fill="#0" id="circle141"/>
	<circle cx="nan" cy="nan" r="4" fill="#0" id="circle142"/>
	<circle cx="nan" cy="nan" r="4" fill="#0" id="circle143"/>
	<circle cx="nan" cy="nan" r="4" fill="#0" id="circle144"/>
	<circle cx="nan" cy="nan" r="4" fill="#0" id="circle145"/>
	<circle cx="nan" cy="nan" r="4" fill="#0" id="circle146"/>
	<circle cx="nan" cy="nan" r="4" fill="#0" id="circle147"/>
	<circle cx="nan" cy="nan" r="4" fill="#0" id="circle148"/>
	<circle cx="268.104" cy="987.948" r="4" fill="#0" id="circle149"/>
	<circle cx="nan" cy="nan" r="4" fill="#0" id="circle150"/>
	<circle cx="284.208" cy="987.948" r="4" fill="#0" id="circle151"/>
	<circle cx="nan" cy="nan" r="4" fill="#0" id="circle152"/>
	<circle cx="nan" cy="nan" r="4" fill="#0" id="circle153"/>
	<circle cx="300.312" cy="987.948" r="4" fill="#0" id="circle154"/>
	<circle cx="nan" cy="nan" r="4" fill="#0" id="circle155"/>
	<circle cx="316.416" cy="987.948" r="4" fill="#0" id="circle156"/>
	<circle cx="nan" cy="nan" r="4" fill="#0" id="circle157"/>
	<circle cx="332.519" cy="987.948" r="4" fill="#0" id="circle158"/>
	<circle cx="nan" cy="nan" r="4" fill="#0" id="circle159"/>
	<circle cx="335.74" cy="206.909" r="4" fill="#0" id="circle160"/>
	<circle cx="335.74" cy="223.013" r="4" fill="#0" id="circle161"/>
	<circle cx="335.74" cy="239.117" r="4" fill="#0" id="circle162"/>
	<circle cx="335.74" cy="255.221" r="4" fill="#0" id="circle163"/>
	<circle cx="335.74" cy="271.325" r="4" fill="#0" id="circle164"/>
	<circle cx="335.74" cy="287.429" r="4" fill="#0" id="circle165"/>
	<circle cx="335.74" cy="303.532" r="4" fill="#0" id="circle166"/>
	<circle cx="335.74" cy="319.636" r="4" fill="#0" id="circle167"/>
	<circle cx="335.74" cy="335.74" r="4" fill="#0" id="circle168"/>
	<circle cx="335.74" cy="351.844" r="4" fill="#0" id="circle169"/>
	<circle cx="nan" cy="nan" r="4" fill="#0" id="circle170"/>
	<circle cx="343.792" cy="53.9221" r="4" fill="#0" id="circle171"/>
	<circle cx="343.792" cy="70.026" r="4" fill="#0" id="circle172"/>
	<circle cx="343.792" cy="86.1299" r="4" fill="#0" id="circle173"/>
	<circle cx="343.792" cy="102.234" r="4" fill="#0" id="circle174"/>
	<circle cx="343.792" cy="118.338" r="4" fill="#0" id="circle175"/>
	<circle cx="343.792" cy="134.442" r="4" fill="#0" id="circle176"/>
	<circle cx="343.792" cy="150.545" r="4" fill="#0" id="circle177"/>
	<circle cx="343.792" cy="166.649" r="4" fill="#0" id="circle178"/>
	<circle cx="343.792" cy="182.753" r="4" fill="#0" id="circle179"/>
	<circle cx="343.792" cy="366.338" r="4" fill="#0" id="circle180"/>
	<circle cx="348.623" cy="987.948" r="4" fill="#0" id="circle181"/>
	<circle cx="nan" cy="nan" r="4" fill="#0" id="circle182"/>
	<circle cx="351.844" cy="24.9351" r="4" fill="#0" id="circle183"/>
	<circle cx="351.844" cy="345.403" r="4" fill="#0" id="circle184"/>
	<circle cx="364.727" cy="987.948" r="4" fill="#0" id="circle185"/>
	<circle cx="366.338" cy="242.338" r="4" fill="#0" id="circle186"/>
	<circle cx="366.338" cy="258.442" r="4" fill="#0" id="circle187"/>
	<circle cx="366.338" cy="274.545" r="4" fill="#0" id="circle188"/>
	<circle cx="366.338" cy="290.649" r="4" fill="#0" id="circle189"/>
	<circle cx="366.338" cy="306.753" r="4" fill="#0" id="circle190"/>
	<circle cx="366.338" cy="322.857" r="4" fill="#0" id="circle191"/>
	<circle cx="374.39" cy="73.2468" r="4" fill="#0" id="circle192"/>
	<circle cx="374.39" cy="89.3506" r="4" fill="#0" id="circle193"/>
	<circle cx="374.39" cy="105.455" r="4" fill="#0" id="circle194"/>
	<circle cx="374.39" cy="121.558" r="4" fill="#0" id="circle195"/>
	<circle cx="374.39" cy="137.662" r="4" fill="#0" id="circle196"/>
	<circle cx="374.39" cy="153.766" r="4" fill="#0" id="circle197"/>
	<circle cx="374.39" cy="169.87" r="4" fill="#0" id="circle198"/>
	<circle cx="374.39" cy="185.974" r="4" fill="#0" id="circle199"/>
	<circle cx="374.39" cy="202.078" r="4" fill="#0" id="circle200"/>
	<circle cx="374.39" cy="218.182" r="4" fill="#0" id="circle201"/>
	<circle cx="380.831" cy="987.948" r="4" fill="#0" id="circle202"/>
	<circle cx="382.442" cy="32.987" r="4" fill="#0" id="circle203"/>
	<circle cx="382.442" cy="49.0909" r="4" fill="#0" id="circle204"/>
	<circle cx="396.935" cy="984.727" r="4" fill="#0" id="circle205"/>
	<circle cx="398.545" cy="16.8831" r="4" fill="#0" id="circle206"/>
	<circle cx="406.597" cy="971.844" r="4" fill="#0" id="circle207"/>
	<circle cx="411.429" cy="4" r="4" fill="#0" id="circle208"/>
	<circle cx="416.26" cy="20.1039" r="4" fill="#0" id="circle209"/>
	<circle cx="416.26" cy="955.74" r="4" fill="#0" id="circle210"/>
	<circle cx="424.312" cy="34.5974" r="4" fill="#0" id="circle211"/>
	<circle cx="429.143" cy="944.468" r="4" fill="#0" id="circle212"/>
	<circle cx="437.195" cy="45.8701" r="4" fill="#0" id="circle213"/>
	<circle cx="440.416" cy="61.974" r="4" fill="#0" id="circle214"/>
	<circle cx="440.416" cy="931.584" r="4" fill="#0" id="circle215"/>
	<circle cx="443.636" cy="78.0779" r="4" fill="#0" id="circle216"/>
	<circle cx="456.519" cy="89.3506" r="4" fill="#0" id="circle217"/>
	<circle cx="456.519" cy="105.455" r="4" fill="#0" id="circle218"/>
	<circle cx="456.519" cy="121.558" r="4" fill="#0" id="circle219"/>
	<circle cx="456.519" cy="137.662" r="4" fill="#0" id="circle220"/>
	<circle cx="456.519" cy="255.221" r="4" fill="#0" id="circle221"/>
	<circle cx="456.519" cy="271.325" r="4" fill="#0" id="circle222"/>
	<circle cx="456.519" cy="923.532" r="4" fill="#0" id="circle223"/>
	<circle cx="464.571" cy="152.156" r="4" fill="#0" id="circle224"/>
	<circle cx="464.571" cy="168.26" r="4" fill="#0" id="circle225"/>
	<circle cx="464.571" cy="184.364" r="4" fill="#0" id="circle226"/>
	<circle cx="464.571" cy="200.468" r="4" fill="#0" id="circle227"/>
	<circle cx="464.571" cy="216.571" r="4" fill="#0" id="circle228"/>
	<circle cx="464.571" cy="232.675" r="4" fill="#0" id="circle229"/>
	<circle cx="464.571" cy="285.818" r="4" fill="#0" id="circle230"/>
	<circle cx="464.571" cy="301.922" r="4" fill="#0" id="circle231"/>
	<circle cx="464.571" cy="318.026" r="4" fill="#0" id="circle232"/>
	<circle cx="464.571" cy="334.13" r="4" fill="#0" id="circle233"/>
	<circle cx="464.571" cy="350.234" r="4" fill="#0" id="circle234"/>
	<circle cx="464.571" cy="366.338" r="4" fill="#0" id="circle235"/>
	<circle cx="464.571" cy="382.442" r="4" fill="#0" id="circle236"/>
	<circle cx="464.571" cy="398.545" r="4" fill="#0" id="circle237"/>
	<circle cx="464.571" cy="414.649" r="4" fill="#0" id="circle238"/>
	<circle cx="464.571" cy="430.753" r="4" fill="#0" id="circle239"/>
	<circle cx="469.403" cy="912.26" r="4" fill="#0" id="circle240"/>
	<circle cx="472.623" cy="445.247" r="4" fill="#0" id="circle241"/>
	<circle cx="472.623" cy="461.351" r="4" fill="#0" id="circle242"/>
	<circle cx="472.623" cy="477.455" r="4" fill="#0" id="circle243"/>
	<circle cx="472.623" cy="493.558" r="4" fill="#0" id="circle244"/>
	<circle cx="472.623" cy="509.662" r="4" fill="#0" id="circle245"/>
	<circle cx="479.065" cy="899.377" r="4" fill="#0" id="circle246"/>
	<circle cx="480.675" cy="524.156" r="4" fill="#0" id="circle247"/>
	<circle cx="488.727" cy="538.649" r="4" fill="#0" id="circle248"/>
	<circle cx="491.948" cy="889.714" r="4" fill="#0" id="circle249"/>
	<circle cx="498.39" cy="551.532" r="4" fill="#0" id="circle250"/>
	<circle cx="504.831" cy="567.636" r="4" fill="#0" id="circle251"/>
	<circle cx="504.831" cy="583.74" r="4" fill="#0" id="circle252"/>
	<circle cx="504.831" cy="867.169" r="4" fill="#0" id="circle253"/>
	<circle cx="517.714" cy="593.403" r="4" fill="#0" id="circle254"/>
	<circle cx="520.935" cy="851.065" r="4" fill="#0" id="circle255"/>
	<circle cx="524.156" cy="609.506" r="4" fill="#0" id="circle256"/>
	<circle cx="532.208" cy="624" r="4" fill="#0" id="circle257"/>
	<circle cx="533.818" cy="839.792" r="4" fill="#0" id="circle258"/>
	<circle cx="545.091" cy="826.909" r="4" fill="#0" id="circle259"/>
	<circle cx="548.312" cy="624" r="4" fill="#0" id="circle260"/>
	<circle cx="553.143" cy="810.805" r="4" fill="#0" id="circle261"/>
	<circle cx="564.416" cy="624" r="4" fill="#0" id="circle262"/>
	<circle cx="566.026" cy="799.532" r="4" fill="#0" id="circle263"/>
	<circle cx="577.299" cy="786.649" r="4" fill="#0" id="circle264"/>
	<circle cx="580.519" cy="615.948" r="4" fill="#0" id="circle265"/>
	<circle cx="593.403" cy="603.065" r="4" fill="#0" id="circle266"/>
	<circle cx="593.403" cy="778.597" r="4" fill="#0" id="circle267"/>
	<circle cx="606.286" cy="591.792" r="4" fill="#0" id="circle268"/>
	<circle cx="606.286" cy="767.325" r="4" fill="#0" id="circle269"/>
	<circle cx="615.948" cy="572.468" r="4" fill="#0" id="circle270"/>
	<circle cx="617.558" cy="746.39" r="4" fill="#0" id="circle271"/>
	<circle cx="624" cy="556.364" r="4" fill="#0" id="circle272"/>
	<circle cx="625.61" cy="730.286" r="4" fill="#0" id="circle273"/>
	<circle cx="636.883" cy="543.481" r="4" fill="#0" id="circle274"/>
	<circle cx="638.494" cy="719.013" r="4" fill="#0" id="circle275"/>
	<circle cx="640.104" cy="524.156" r="4" fill="#0" id="circle276"/>
	<circle cx="641.714" cy="698.078" r="4" fill="#0" id="circle277"/>
	<circle cx="652.987" cy="511.273" r="4" fill="#0" id="circle278"/>
	<circle cx="657.818" cy="681.974" r="4" fill="#0" id="circle279"/>
	<circle cx="664.26" cy="491.948" r="4" fill="#0" id="circle280"/>
	<circle cx="670.701" cy="670.701" r="4" fill="#0" id="circle281"/>
	<circle cx="677.143" cy="479.065" r="4" fill="#0" id="circle282"/>
	<circle cx="680.364" cy="657.818" r="4" fill="#0" id="circle283"/>
	<circle cx="693.247" cy="471.013" r="4" fill="#0" id="circle284"/>
	<circle cx="693.247" cy="648.156" r="4" fill="#0" id="circle285"/>
	<circle cx="701.299" cy="632.052" r="4" fill="#0" id="circle286"/>
	<circle cx="706.13" cy="458.13" r="4" fill="#0" id="circle287"/>
	<circle cx="714.182" cy="609.506" r="4" fill="#0" id="circle288"/>
	<circle cx="722.234" cy="454.909" r="4" fill="#0" id="circle289"/>
	<circle cx="722.234" cy="593.403" r="4" fill="#0" id="circle290"/>
	<circle cx="730.286" cy="577.299" r="4" fill="#0" id="circle291"/>
	<circle cx="738.338" cy="454.909" r="4" fill="#0" id="circle292"/>
	<circle cx="738.338" cy="561.195" r="4" fill="#0" id="circle293"/>
	<circle cx="746.39" cy="537.039" r="4" fill="#0" id="circle294"/>
	<circle cx="754.442" cy="454.909" r="4" fill="#0" id="circle295"/>
	<circle cx="754.442" cy="520.935" r="4" fill="#0" id="circle296"/>
	<circle cx="762.494" cy="469.403" r="4" fill="#0" id="circle297"/>
	<circle cx="762.494" cy="485.506" r="4" fill="#0" id="circle298"/>
	<circle cx="762.494" cy="501.61" r="4" fill="#0" id="circle299"/>
	</g>
</svg>