<?xml version="1.0" encoding="UTF-8" standalone="no"?>
<!-- Created with CurveBenchmark -->
<svg
	xmlns:dc="http://purl.org/dc/elements/1.1/"
	xmlns:cc="http://creativecommons.org/ns#"
	xmlns:rdf="http://www.w3.org/1999/02/22-rdf-syntax-ns#"
	xmlns:svg="http://www.w3.org/2000/svg"
	xmlns="http://www.w3.org/2000/svg"
	xmlns:sodipodi="http://sodipodi.sourceforge.net/DTD/sodipodi-0.dtd"
	xmlns:inkscape="http://www.inkscape.org/namespaces/inkscape"
	width="1000"
	height="1000"
	id="svg2"
	version="1.1"
	sodipodi:docname="manifold/stretchdenoise-sink340.png.txt">
<defs
	id="defs4" />
<metadata
	id="metadata7">
	<rdf:RDF>
		<cc:Work
			rdf:about="">
			<dc:format>image/svg+xml</dc:format>
			<dc:type
				rdf:resource="http://purl.org/dc/dcmitype/StillImage" />
			<dc:title></dc:title>
		</cc:Work>
	</rdf:RDF>
</metadata>
<g
	inkscape:label="Layer 1"
	inkscape:groupmode="layer"
	id="layer1">
	<path style="fill:none;stroke:red;stroke-width:1px;stroke-linecap:butt;stroke-linejoin:miter;stroke-opacity:1" d="M 190.084,420.164 246.801,403.763 z" id="boundary" inkscape:connector-curvature="0" />
	<path style="fill:none;stroke:red;stroke-width:1px;stroke-linecap:butt;stroke-linejoin:miter;stroke-opacity:1" d="M 190.084,420.164 438.555,423.52 z" id="boundary" inkscape:connector-curvature="0" />
	<path style="fill:none;stroke:red;stroke-width:1px;stroke-linecap:butt;stroke-linejoin:miter;stroke-opacity:1" d="M 246.801,403.763 287.609,431.58 z" id="boundary" inkscape:connector-curvature="0" />
	<path style="fill:none;stroke:red;stroke-width:1px;stroke-linecap:butt;stroke-linejoin:miter;stroke-opacity:1" d="M 287.609,431.58 261.343,535.415 z" id="boundary" inkscape:connector-curvature="0" />
	<path style="fill:none;stroke:red;stroke-width:1px;stroke-linecap:butt;stroke-linejoin:miter;stroke-opacity:1" d="M 261.343,535.415 340.827,620.995 z" id="boundary" inkscape:connector-curvature="0" />
	<path style="fill:none;stroke:red;stroke-width:1px;stroke-linecap:butt;stroke-linejoin:miter;stroke-opacity:1" d="M 342.243,951.081 366.403,994.569 z" id="boundary" inkscape:connector-curvature="0" />
	<path style="fill:none;stroke:red;stroke-width:1px;stroke-linecap:butt;stroke-linejoin:miter;stroke-opacity:1" d="M 342.243,951.081 371.235,902.761 z" id="boundary" inkscape:connector-curvature="0" />
	<path style="fill:none;stroke:red;stroke-width:1px;stroke-linecap:butt;stroke-linejoin:miter;stroke-opacity:1" d="M 366.403,994.569 414.724,996 z" id="boundary" inkscape:connector-curvature="0" />
	<path style="fill:none;stroke:red;stroke-width:1px;stroke-linecap:butt;stroke-linejoin:miter;stroke-opacity:1" d="M 371.235,902.761 395.396,859.272 z" id="boundary" inkscape:connector-curvature="0" />
	<path style="fill:none;stroke:red;stroke-width:1px;stroke-linecap:butt;stroke-linejoin:miter;stroke-opacity:1" d="M 395.396,859.272 400.76,791.644 z" id="boundary" inkscape:connector-curvature="0" />
	<path style="fill:none;stroke:red;stroke-width:1px;stroke-linecap:butt;stroke-linejoin:miter;stroke-opacity:1" d="M 340.827,620.995 404.878,753.105 z" id="boundary" inkscape:connector-curvature="0" />
	<path style="fill:none;stroke:red;stroke-width:1px;stroke-linecap:butt;stroke-linejoin:miter;stroke-opacity:1" d="M 404.878,753.105 400.76,791.644 z" id="boundary" inkscape:connector-curvature="0" />
	<path style="fill:none;stroke:red;stroke-width:1px;stroke-linecap:butt;stroke-linejoin:miter;stroke-opacity:1" d="M 414.724,996 463.044,990.381 z" id="boundary" inkscape:connector-curvature="0" />
	<path style="fill:none;stroke:red;stroke-width:1px;stroke-linecap:butt;stroke-linejoin:miter;stroke-opacity:1" d="M 463.044,990.381 511.365,983.815 z" id="boundary" inkscape:connector-curvature="0" />
	<path style="fill:none;stroke:red;stroke-width:1px;stroke-linecap:butt;stroke-linejoin:miter;stroke-opacity:1" d="M 511.365,983.815 559.685,990.725 z" id="boundary" inkscape:connector-curvature="0" />
	<path style="fill:none;stroke:red;stroke-width:1px;stroke-linecap:butt;stroke-linejoin:miter;stroke-opacity:1" d="M 559.685,990.725 608.006,994.569 z" id="boundary" inkscape:connector-curvature="0" />
	<path style="fill:none;stroke:red;stroke-width:1px;stroke-linecap:butt;stroke-linejoin:miter;stroke-opacity:1" d="M 588.08,670.822 568.549,719.143 z" id="boundary" inkscape:connector-curvature="0" />
	<path style="fill:none;stroke:red;stroke-width:1px;stroke-linecap:butt;stroke-linejoin:miter;stroke-opacity:1" d="M 588.08,670.822 438.555,423.52 z" id="boundary" inkscape:connector-curvature="0" />
	<path style="fill:none;stroke:red;stroke-width:1px;stroke-linecap:butt;stroke-linejoin:miter;stroke-opacity:1" d="M 568.549,719.143 569.285,767.463 z" id="boundary" inkscape:connector-curvature="0" />
	<path style="fill:none;stroke:red;stroke-width:1px;stroke-linecap:butt;stroke-linejoin:miter;stroke-opacity:1" d="M 569.285,767.463 569.382,815.784 z" id="boundary" inkscape:connector-curvature="0" />
	<path style="fill:none;stroke:red;stroke-width:1px;stroke-linecap:butt;stroke-linejoin:miter;stroke-opacity:1" d="M 569.382,815.784 569.349,864.104 z" id="boundary" inkscape:connector-curvature="0" />
	<path style="fill:none;stroke:red;stroke-width:1px;stroke-linecap:butt;stroke-linejoin:miter;stroke-opacity:1" d="M 569.349,864.104 588.678,912.425 z" id="boundary" inkscape:connector-curvature="0" />
	<path style="fill:none;stroke:red;stroke-width:1px;stroke-linecap:butt;stroke-linejoin:miter;stroke-opacity:1" d="M 588.678,912.425 608.006,994.569 z" id="boundary" inkscape:connector-curvature="0" />
	<circle cx="4" cy="303.587" r="4" fill="#0" id="circle0"/>
	<circle cx="13.6641" cy="177.954" r="4" fill="#0" id="circle1"/>
	<circle cx="13.6641" cy="226.274" r="4" fill="#0" id="circle2"/>
	<circle cx="52.3205" cy="318.083" r="4" fill="#0" id="circle3"/>
	<circle cx="61.9845" cy="168.29" r="4" fill="#0" id="circle4"/>
	<circle cx="100.641" cy="318.083" r="4" fill="#0" id="circle5"/>
	<circle cx="110.305" cy="168.29" r="4" fill="#0" id="circle6"/>
	<circle cx="148.961" cy="318.083" r="4" fill="#0" id="circle7"/>
	<circle cx="158.625" cy="168.29" r="4" fill="#0" id="circle8"/>
	<circle cx="197.282" cy="318.083" r="4" fill="#0" id="circle9"/>
	<circle cx="206.946" cy="168.29" r="4" fill="#0" id="circle10"/>
	<circle cx="190.084" cy="420.164" r="4" fill="#0" id="circle11"/>
	<circle cx="246.801" cy="403.763" r="4" fill="#0" id="circle12"/>
	<circle cx="255.266" cy="168.29" r="4" fill="#0" id="circle13"/>
	<circle cx="287.609" cy="431.58" r="4" fill="#0" id="circle14"/>
	<circle cx="293.923" cy="61.9845" r="4" fill="#0" id="circle15"/>
	<circle cx="293.923" cy="110.305" r="4" fill="#0" id="circle16"/>
	<circle cx="318.083" cy="18.4961" r="4" fill="#0" id="circle17"/>
	<circle cx="318.083" cy="153.793" r="4" fill="#0" id="circle18"/>
	<circle cx="261.343" cy="535.415" r="4" fill="#0" id="circle19"/>
	<circle cx="342.243" cy="951.081" r="4" fill="#0" id="circle20"/>
	<circle cx="366.403" cy="4" r="4" fill="#0" id="circle21"/>
	<circle cx="366.403" cy="168.29" r="4" fill="#0" id="circle22"/>
	<circle cx="366.403" cy="994.569" r="4" fill="#0" id="circle23"/>
	<circle cx="371.235" cy="902.761" r="4" fill="#0" id="circle24"/>
	<circle cx="380.9" cy="453.38" r="4" fill="#0" id="circle25"/>
	<circle cx="385.732" cy="52.3205" r="4" fill="#0" id="circle26"/>
	<circle cx="395.396" cy="859.272" r="4" fill="#0" id="circle27"/>
	<circle cx="400.228" cy="501.701" r="4" fill="#0" id="circle28"/>
	<circle cx="400.228" cy="550.021" r="4" fill="#0" id="circle29"/>
	<circle cx="340.827" cy="620.995" r="4" fill="#0" id="circle30"/>
	<circle cx="400.228" cy="646.662" r="4" fill="#0" id="circle31"/>
	<circle cx="404.878" cy="753.105" r="4" fill="#0" id="circle32"/>
	<circle cx="400.228" cy="743.303" r="4" fill="#0" id="circle33"/>
	<circle cx="400.76" cy="791.644" r="4" fill="#0" id="circle34"/>
	<circle cx="414.724" cy="168.29" r="4" fill="#0" id="circle35"/>
	<circle cx="414.724" cy="996" r="4" fill="#0" id="circle36"/>
	<circle cx="424.388" cy="81.3127" r="4" fill="#0" id="circle37"/>
	<circle cx="463.044" cy="168.29" r="4" fill="#0" id="circle38"/>
	<circle cx="463.044" cy="990.381" r="4" fill="#0" id="circle39"/>
	<circle cx="511.365" cy="168.29" r="4" fill="#0" id="circle40"/>
	<circle cx="511.365" cy="983.815" r="4" fill="#0" id="circle41"/>
	<circle cx="559.685" cy="168.29" r="4" fill="#0" id="circle42"/>
	<circle cx="559.685" cy="990.725" r="4" fill="#0" id="circle43"/>
	<circle cx="569.349" cy="429.22" r="4" fill="#0" id="circle44"/>
	<circle cx="569.349" cy="477.54" r="4" fill="#0" id="circle45"/>
	<circle cx="569.349" cy="525.861" r="4" fill="#0" id="circle46"/>
	<circle cx="569.349" cy="574.181" r="4" fill="#0" id="circle47"/>
	<circle cx="569.349" cy="622.502" r="4" fill="#0" id="circle48"/>
	<circle cx="588.08" cy="670.822" r="4" fill="#0" id="circle49"/>
	<circle cx="568.549" cy="719.143" r="4" fill="#0" id="circle50"/>
	<circle cx="569.285" cy="767.463" r="4" fill="#0" id="circle51"/>
	<circle cx="569.382" cy="815.784" r="4" fill="#0" id="circle52"/>
	<circle cx="569.349" cy="864.104" r="4" fill="#0" id="circle53"/>
	<circle cx="588.678" cy="912.425" r="4" fill="#0" id="circle54"/>
	<circle cx="608.006" cy="168.29" r="4" fill="#0" id="circle55"/>
	<circle cx="438.555" cy="423.52" r="4" fill="#0" id="circle56"/>
	<circle cx="608.006" cy="994.569" r="4" fill="#0" id="circle57"/>
	<circle cx="636.998" cy="361.571" r="4" fill="#0" id="circle58"/>
	<circle cx="646.662" cy="197.282" r="4" fill="#0" id="circle59"/>
	<circle cx="661.158" cy="318.083" r="4" fill="#0" id="circle60"/>
	<circle cx="670.822" cy="240.77" r="4" fill="#0" id="circle61"/>
	<circle cx="709.479" cy="318.083" r="4" fill="#0" id="circle62"/>
	<circle cx="714.311" cy="264.93" r="4" fill="#0" id="circle63"/>
	<circle cx="757.799" cy="318.083" r="4" fill="#0" id="circle64"/>
	<circle cx="762.631" cy="264.93" r="4" fill="#0" id="circle65"/>
	<circle cx="806.12" cy="318.083" r="4" fill="#0" id="circle66"/>
	<circle cx="810.952" cy="264.93" r="4" fill="#0" id="circle67"/>
	</g>
</svg>