<?xml version="1.0" encoding="UTF-8" standalone="no"?>
<!-- Created with CurveBenchmark -->
<svg
	xmlns:dc="http://purl.org/dc/elements/1.1/"
	xmlns:cc="http://creativecommons.org/ns#"
	xmlns:rdf="http://www.w3.org/1999/02/22-rdf-syntax-ns#"
	xmlns:svg="http://www.w3.org/2000/svg"
	xmlns="http://www.w3.org/2000/svg"
	xmlns:sodipodi="http://sodipodi.sourceforge.net/DTD/sodipodi-0.dtd"
	xmlns:inkscape="http://www.inkscape.org/namespaces/inkscape"
	width="1000"
	height="1000"
	id="svg2"
	version="1.1"
	sodipodi:docname="manifold/stretchdenoise-guitar260.png.txt">
<defs
	id="defs4" />
<metadata
	id="metadata7">
	<rdf:RDF>
		<cc:Work
			rdf:about="">
			<dc:format>image/svg+xml</dc:format>
			<dc:type
				rdf:resource="http://purl.org/dc/dcmitype/StillImage" />
			<dc:title></dc:title>
		</cc:Work>
	</rdf:RDF>
</metadata>
<g
	inkscape:label="Layer 1"
	inkscape:groupmode="layer"
	id="layer1">
	<path style="fill:none;stroke:red;stroke-width:1px;stroke-linecap:butt;stroke-linejoin:miter;stroke-opacity:1" d="M nan,nan 47.4493,993.52 z" id="boundary" inkscape:connector-curvature="0" />
	<path style="fill:none;stroke:red;stroke-width:1px;stroke-linecap:butt;stroke-linejoin:miter;stroke-opacity:1" d="M 47.4493,993.52 119.675,988.989 z" id="boundary" inkscape:connector-curvature="0" />
	<path style="fill:none;stroke:red;stroke-width:1px;stroke-linecap:butt;stroke-linejoin:miter;stroke-opacity:1" d="M 84.6219,46.0636 165.244,768.155 z" id="boundary" inkscape:connector-curvature="0" />
	<path style="fill:none;stroke:red;stroke-width:1px;stroke-linecap:butt;stroke-linejoin:miter;stroke-opacity:1" d="M 119.675,988.989 161.739,915.378 z" id="boundary" inkscape:connector-curvature="0" />
	<path style="fill:none;stroke:red;stroke-width:1px;stroke-linecap:butt;stroke-linejoin:miter;stroke-opacity:1" d="M 161.739,915.378 165.244,768.155 z" id="boundary" inkscape:connector-curvature="0" />
	<circle cx="4" cy="761.145" r="4" fill="#0" id="circle0"/>
	<circle cx="4" cy="796.198" r="4" fill="#0" id="circle1"/>
	<circle cx="4" cy="831.251" r="4" fill="#0" id="circle2"/>
	<circle cx="4" cy="866.304" r="4" fill="#0" id="circle3"/>
	<circle cx="nan" cy="nan" r="4" fill="#0" id="circle4"/>
	<circle cx="11.0106" cy="543.816" r="4" fill="#0" id="circle5"/>
	<circle cx="11.0106" cy="578.869" r="4" fill="#0" id="circle6"/>
	<circle cx="11.0106" cy="613.922" r="4" fill="#0" id="circle7"/>
	<circle cx="11.0106" cy="691.039" r="4" fill="#0" id="circle8"/>
	<circle cx="11.0106" cy="726.092" r="4" fill="#0" id="circle9"/>
	<circle cx="11.0106" cy="936.41" r="4" fill="#0" id="circle10"/>
	<circle cx="14.5159" cy="648.975" r="4" fill="#0" id="circle11"/>
	<circle cx="18.0212" cy="424.636" r="4" fill="#0" id="circle12"/>
	<circle cx="18.0212" cy="459.689" r="4" fill="#0" id="circle13"/>
	<circle cx="18.0212" cy="494.742" r="4" fill="#0" id="circle14"/>
	<circle cx="18.0212" cy="971.463" r="4" fill="#0" id="circle15"/>
	<circle cx="25.0318" cy="137.201" r="4" fill="#0" id="circle16"/>
	<circle cx="25.0318" cy="172.254" r="4" fill="#0" id="circle17"/>
	<circle cx="25.0318" cy="207.307" r="4" fill="#0" id="circle18"/>
	<circle cx="25.0318" cy="242.36" r="4" fill="#0" id="circle19"/>
	<circle cx="25.0318" cy="277.413" r="4" fill="#0" id="circle20"/>
	<circle cx="25.0318" cy="312.466" r="4" fill="#0" id="circle21"/>
	<circle cx="25.0318" cy="347.519" r="4" fill="#0" id="circle22"/>
	<circle cx="25.0318" cy="382.572" r="4" fill="#0" id="circle23"/>
	<circle cx="32.0424" cy="102.148" r="4" fill="#0" id="circle24"/>
	<circle cx="39.053" cy="67.0954" r="4" fill="#0" id="circle25"/>
	<circle cx="47.4493" cy="993.52" r="4" fill="#0" id="circle26"/>
	<circle cx="53.0742" cy="25.0318" r="4" fill="#0" id="circle27"/>
	<circle cx="56.5795" cy="189.781" r="4" fill="#0" id="circle28"/>
	<circle cx="56.5795" cy="224.834" r="4" fill="#0" id="circle29"/>
	<circle cx="56.5795" cy="259.887" r="4" fill="#0" id="circle30"/>
	<circle cx="56.5795" cy="294.94" r="4" fill="#0" id="circle31"/>
	<circle cx="56.5795" cy="329.993" r="4" fill="#0" id="circle32"/>
	<circle cx="56.5795" cy="365.046" r="4" fill="#0" id="circle33"/>
	<circle cx="56.5795" cy="400.099" r="4" fill="#0" id="circle34"/>
	<circle cx="56.5795" cy="435.152" r="4" fill="#0" id="circle35"/>
	<circle cx="60.0848" cy="123.18" r="4" fill="#0" id="circle36"/>
	<circle cx="67.0954" cy="88.1272" r="4" fill="#0" id="circle37"/>
	<circle cx="70.6007" cy="470.205" r="4" fill="#0" id="circle38"/>
	<circle cx="81.1166" cy="4" r="4" fill="#0" id="circle39"/>
	<circle cx="84.6219" cy="46.0636" r="4" fill="#0" id="circle40"/>
	<circle cx="84.6219" cy="996" r="4" fill="#0" id="circle41"/>
	<circle cx="105.654" cy="480.721" r="4" fill="#0" id="circle42"/>
	<circle cx="119.675" cy="988.989" r="4" fill="#0" id="circle43"/>
	<circle cx="140.707" cy="494.742" r="4" fill="#0" id="circle44"/>
	<circle cx="154.728" cy="529.795" r="4" fill="#0" id="circle45"/>
	<circle cx="154.728" cy="627.943" r="4" fill="#0" id="circle46"/>
	<circle cx="154.728" cy="662.996" r="4" fill="#0" id="circle47"/>
	<circle cx="154.728" cy="950.431" r="4" fill="#0" id="circle48"/>
	<circle cx="158.233" cy="698.049" r="4" fill="#0" id="circle49"/>
	<circle cx="161.739" cy="564.848" r="4" fill="#0" id="circle50"/>
	<circle cx="161.739" cy="733.102" r="4" fill="#0" id="circle51"/>
	<circle cx="161.739" cy="915.378" r="4" fill="#0" id="circle52"/>
	<circle cx="165.244" cy="768.155" r="4" fill="#0" id="circle53"/>
	<circle cx="168.749" cy="803.208" r="4" fill="#0" id="circle54"/>
	<circle cx="168.749" cy="838.261" r="4" fill="#0" id="circle55"/>
	<circle cx="168.749" cy="873.314" r="4" fill="#0" id="circle56"/>
	</g>
</svg>