<?xml version="1.0" encoding="UTF-8" standalone="no"?>
<!-- Created with CurveBenchmark -->
<svg
	xmlns:dc="http://purl.org/dc/elements/1.1/"
	xmlns:cc="http://creativecommons.org/ns#"
	xmlns:rdf="http://www.w3.org/1999/02/22-rdf-syntax-ns#"
	xmlns:svg="http://www.w3.org/2000/svg"
	xmlns="http://www.w3.org/2000/svg"
	xmlns:sodipodi="http://sodipodi.sourceforge.net/DTD/sodipodi-0.dtd"
	xmlns:inkscape="http://www.inkscape.org/namespaces/inkscape"
	width="1000"
	height="1000"
	id="svg2"
	version="1.1"
	sodipodi:docname="manifold/stretchdenoise-rat17.png.txt">
<defs
	id="defs4" />
<metadata
	id="metadata7">
	<rdf:RDF>
		<cc:Work
			rdf:about="">
			<dc:format>image/svg+xml</dc:format>
			<dc:type
				rdf:resource="http://purl.org/dc/dcmitype/StillImage" />
			<dc:title></dc:title>
		</cc:Work>
	</rdf:RDF>
</metadata>
<g
	inkscape:label="Layer 1"
	inkscape:groupmode="layer"
	id="layer1">
	<path style="fill:none;stroke:red;stroke-width:1px;stroke-linecap:butt;stroke-linejoin:miter;stroke-opacity:1" d="M nan,nan 101.043,437.461 z" id="boundary" inkscape:connector-curvature="0" />
	<path style="fill:none;stroke:red;stroke-width:1px;stroke-linecap:butt;stroke-linejoin:miter;stroke-opacity:1" d="M nan,nan nan,nan z" id="boundary" inkscape:connector-curvature="0" />
	<path style="fill:none;stroke:red;stroke-width:1px;stroke-linecap:butt;stroke-linejoin:miter;stroke-opacity:1" d="M 101.043,415.896 101.043,437.461 z" id="boundary" inkscape:connector-curvature="0" />
	<path style="fill:none;stroke:red;stroke-width:1px;stroke-linecap:butt;stroke-linejoin:miter;stroke-opacity:1" d="M 101.043,415.896 111.826,394.33 z" id="boundary" inkscape:connector-curvature="0" />
	<path style="fill:none;stroke:red;stroke-width:1px;stroke-linecap:butt;stroke-linejoin:miter;stroke-opacity:1" d="M nan,nan nan,nan z" id="boundary" inkscape:connector-curvature="0" />
	<path style="fill:none;stroke:red;stroke-width:1px;stroke-linecap:butt;stroke-linejoin:miter;stroke-opacity:1" d="M 111.826,394.33 122.609,361.983 z" id="boundary" inkscape:connector-curvature="0" />
	<path style="fill:none;stroke:red;stroke-width:1px;stroke-linecap:butt;stroke-linejoin:miter;stroke-opacity:1" d="M 122.609,340.417 122.609,361.983 z" id="boundary" inkscape:connector-curvature="0" />
	<path style="fill:none;stroke:red;stroke-width:1px;stroke-linecap:butt;stroke-linejoin:miter;stroke-opacity:1" d="M 122.609,340.417 144.174,329.635 z" id="boundary" inkscape:connector-curvature="0" />
	<path style="fill:none;stroke:red;stroke-width:1px;stroke-linecap:butt;stroke-linejoin:miter;stroke-opacity:1" d="M nan,nan nan,nan z" id="boundary" inkscape:connector-curvature="0" />
	<path style="fill:none;stroke:red;stroke-width:1px;stroke-linecap:butt;stroke-linejoin:miter;stroke-opacity:1" d="M nan,nan nan,nan z" id="boundary" inkscape:connector-curvature="0" />
	<path style="fill:none;stroke:red;stroke-width:1px;stroke-linecap:butt;stroke-linejoin:miter;stroke-opacity:1" d="M 144.174,286.504 128.591,308.07 z" id="boundary" inkscape:connector-curvature="0" />
	<path style="fill:none;stroke:red;stroke-width:1px;stroke-linecap:butt;stroke-linejoin:miter;stroke-opacity:1" d="M 144.174,286.504 155.27,265.096 z" id="boundary" inkscape:connector-curvature="0" />
	<path style="fill:none;stroke:red;stroke-width:1px;stroke-linecap:butt;stroke-linejoin:miter;stroke-opacity:1" d="M 128.591,308.07 144.174,329.635 z" id="boundary" inkscape:connector-curvature="0" />
	<path style="fill:none;stroke:red;stroke-width:1px;stroke-linecap:butt;stroke-linejoin:miter;stroke-opacity:1" d="M 155.27,265.096 165.174,243.092 z" id="boundary" inkscape:connector-curvature="0" />
	<path style="fill:none;stroke:red;stroke-width:1px;stroke-linecap:butt;stroke-linejoin:miter;stroke-opacity:1" d="M nan,nan nan,nan z" id="boundary" inkscape:connector-curvature="0" />
	<path style="fill:none;stroke:red;stroke-width:1px;stroke-linecap:butt;stroke-linejoin:miter;stroke-opacity:1" d="M 165.174,243.092 176.319,221.707 z" id="boundary" inkscape:connector-curvature="0" />
	<path style="fill:none;stroke:red;stroke-width:1px;stroke-linecap:butt;stroke-linejoin:miter;stroke-opacity:1" d="M 176.319,221.707 187.406,200.294 z" id="boundary" inkscape:connector-curvature="0" />
	<path style="fill:none;stroke:red;stroke-width:1px;stroke-linecap:butt;stroke-linejoin:miter;stroke-opacity:1" d="M nan,nan nan,nan z" id="boundary" inkscape:connector-curvature="0" />
	<path style="fill:none;stroke:red;stroke-width:1px;stroke-linecap:butt;stroke-linejoin:miter;stroke-opacity:1" d="M 187.406,200.294 198.087,178.678 z" id="boundary" inkscape:connector-curvature="0" />
	<path style="fill:none;stroke:red;stroke-width:1px;stroke-linecap:butt;stroke-linejoin:miter;stroke-opacity:1" d="M nan,nan -nan,-nan z" id="boundary" inkscape:connector-curvature="0" />
	<path style="fill:none;stroke:red;stroke-width:1px;stroke-linecap:butt;stroke-linejoin:miter;stroke-opacity:1" d="M nan,nan nan,nan z" id="boundary" inkscape:connector-curvature="0" />
	<path style="fill:none;stroke:red;stroke-width:1px;stroke-linecap:butt;stroke-linejoin:miter;stroke-opacity:1" d="M -nan,-nan -nan,-nan z" id="boundary" inkscape:connector-curvature="0" />
	<path style="fill:none;stroke:red;stroke-width:1px;stroke-linecap:butt;stroke-linejoin:miter;stroke-opacity:1" d="M -nan,-nan -nan,-nan z" id="boundary" inkscape:connector-curvature="0" />
	<path style="fill:none;stroke:red;stroke-width:1px;stroke-linecap:butt;stroke-linejoin:miter;stroke-opacity:1" d="M -nan,-nan -nan,-nan z" id="boundary" inkscape:connector-curvature="0" />
	<path style="fill:none;stroke:red;stroke-width:1px;stroke-linecap:butt;stroke-linejoin:miter;stroke-opacity:1" d="M -nan,-nan -nan,-nan z" id="boundary" inkscape:connector-curvature="0" />
	<path style="fill:none;stroke:red;stroke-width:1px;stroke-linecap:butt;stroke-linejoin:miter;stroke-opacity:1" d="M -nan,-nan 208.87,4 z" id="boundary" inkscape:connector-curvature="0" />
	<path style="fill:none;stroke:red;stroke-width:1px;stroke-linecap:butt;stroke-linejoin:miter;stroke-opacity:1" d="M 198.087,178.678 208.87,146.33 z" id="boundary" inkscape:connector-curvature="0" />
	<path style="fill:none;stroke:red;stroke-width:1px;stroke-linecap:butt;stroke-linejoin:miter;stroke-opacity:1" d="M nan,nan nan,nan z" id="boundary" inkscape:connector-curvature="0" />
	<path style="fill:none;stroke:red;stroke-width:1px;stroke-linecap:butt;stroke-linejoin:miter;stroke-opacity:1" d="M 208.87,4 219.652,23.4087 z" id="boundary" inkscape:connector-curvature="0" />
	<path style="fill:none;stroke:red;stroke-width:1px;stroke-linecap:butt;stroke-linejoin:miter;stroke-opacity:1" d="M 208.87,146.33 219.652,124.765 z" id="boundary" inkscape:connector-curvature="0" />
	<path style="fill:none;stroke:red;stroke-width:1px;stroke-linecap:butt;stroke-linejoin:miter;stroke-opacity:1" d="M nan,nan nan,nan z" id="boundary" inkscape:connector-curvature="0" />
	<path style="fill:none;stroke:red;stroke-width:1px;stroke-linecap:butt;stroke-linejoin:miter;stroke-opacity:1" d="M nan,nan nan,nan z" id="boundary" inkscape:connector-curvature="0" />
	<path style="fill:none;stroke:red;stroke-width:1px;stroke-linecap:butt;stroke-linejoin:miter;stroke-opacity:1" d="M 219.652,23.4087 226.122,44.9739 z" id="boundary" inkscape:connector-curvature="0" />
	<path style="fill:none;stroke:red;stroke-width:1px;stroke-linecap:butt;stroke-linejoin:miter;stroke-opacity:1" d="M 219.652,124.765 236.904,107.513 z" id="boundary" inkscape:connector-curvature="0" />
	<path style="fill:none;stroke:red;stroke-width:1px;stroke-linecap:butt;stroke-linejoin:miter;stroke-opacity:1" d="M 226.122,44.9739 241.217,62.2261 z" id="boundary" inkscape:connector-curvature="0" />
	<path style="fill:none;stroke:red;stroke-width:1px;stroke-linecap:butt;stroke-linejoin:miter;stroke-opacity:1" d="M nan,nan nan,nan z" id="boundary" inkscape:connector-curvature="0" />
	<path style="fill:none;stroke:red;stroke-width:1px;stroke-linecap:butt;stroke-linejoin:miter;stroke-opacity:1" d="M nan,nan nan,nan z" id="boundary" inkscape:connector-curvature="0" />
	<path style="fill:none;stroke:red;stroke-width:1px;stroke-linecap:butt;stroke-linejoin:miter;stroke-opacity:1" d="M nan,nan nan,nan z" id="boundary" inkscape:connector-curvature="0" />
	<path style="fill:none;stroke:red;stroke-width:1px;stroke-linecap:butt;stroke-linejoin:miter;stroke-opacity:1" d="M nan,nan nan,nan z" id="boundary" inkscape:connector-curvature="0" />
	<path style="fill:none;stroke:red;stroke-width:1px;stroke-linecap:butt;stroke-linejoin:miter;stroke-opacity:1" d="M 236.904,107.513 252,81.6348 z" id="boundary" inkscape:connector-curvature="0" />
	<path style="fill:none;stroke:red;stroke-width:1px;stroke-linecap:butt;stroke-linejoin:miter;stroke-opacity:1" d="M 241.217,62.2261 252,81.6348 z" id="boundary" inkscape:connector-curvature="0" />
	<path style="fill:none;stroke:red;stroke-width:1px;stroke-linecap:butt;stroke-linejoin:miter;stroke-opacity:1" d="M nan,nan nan,nan z" id="boundary" inkscape:connector-curvature="0" />
	<path style="fill:none;stroke:red;stroke-width:1px;stroke-linecap:butt;stroke-linejoin:miter;stroke-opacity:1" d="M nan,nan nan,nan z" id="boundary" inkscape:connector-curvature="0" />
	<path style="fill:none;stroke:red;stroke-width:1px;stroke-linecap:butt;stroke-linejoin:miter;stroke-opacity:1" d="M nan,nan nan,nan z" id="boundary" inkscape:connector-curvature="0" />
	<path style="fill:none;stroke:red;stroke-width:1px;stroke-linecap:butt;stroke-linejoin:miter;stroke-opacity:1" d="M nan,nan nan,nan z" id="boundary" inkscape:connector-curvature="0" />
	<path style="fill:none;stroke:red;stroke-width:1px;stroke-linecap:butt;stroke-linejoin:miter;stroke-opacity:1" d="M nan,nan nan,nan z" id="boundary" inkscape:connector-curvature="0" />
	<path style="fill:none;stroke:red;stroke-width:1px;stroke-linecap:butt;stroke-linejoin:miter;stroke-opacity:1" d="M nan,nan nan,nan z" id="boundary" inkscape:connector-curvature="0" />
	<path style="fill:none;stroke:red;stroke-width:1px;stroke-linecap:butt;stroke-linejoin:miter;stroke-opacity:1" d="M nan,nan nan,nan z" id="boundary" inkscape:connector-curvature="0" />
	<path style="fill:none;stroke:red;stroke-width:1px;stroke-linecap:butt;stroke-linejoin:miter;stroke-opacity:1" d="M nan,nan nan,nan z" id="boundary" inkscape:connector-curvature="0" />
	<path style="fill:none;stroke:red;stroke-width:1px;stroke-linecap:butt;stroke-linejoin:miter;stroke-opacity:1" d="M nan,nan nan,nan z" id="boundary" inkscape:connector-curvature="0" />
	<path style="fill:none;stroke:red;stroke-width:1px;stroke-linecap:butt;stroke-linejoin:miter;stroke-opacity:1" d="M nan,nan nan,nan z" id="boundary" inkscape:connector-curvature="0" />
	<path style="fill:none;stroke:red;stroke-width:1px;stroke-linecap:butt;stroke-linejoin:miter;stroke-opacity:1" d="M nan,nan nan,nan z" id="boundary" inkscape:connector-curvature="0" />
	<path style="fill:none;stroke:red;stroke-width:1px;stroke-linecap:butt;stroke-linejoin:miter;stroke-opacity:1" d="M nan,nan nan,nan z" id="boundary" inkscape:connector-curvature="0" />
	<path style="fill:none;stroke:red;stroke-width:1px;stroke-linecap:butt;stroke-linejoin:miter;stroke-opacity:1" d="M nan,nan nan,nan z" id="boundary" inkscape:connector-curvature="0" />
	<path style="fill:none;stroke:red;stroke-width:1px;stroke-linecap:butt;stroke-linejoin:miter;stroke-opacity:1" d="M nan,nan nan,nan z" id="boundary" inkscape:connector-curvature="0" />
	<path style="fill:none;stroke:red;stroke-width:1px;stroke-linecap:butt;stroke-linejoin:miter;stroke-opacity:1" d="M nan,nan nan,nan z" id="boundary" inkscape:connector-curvature="0" />
	<path style="fill:none;stroke:red;stroke-width:1px;stroke-linecap:butt;stroke-linejoin:miter;stroke-opacity:1" d="M nan,nan nan,nan z" id="boundary" inkscape:connector-curvature="0" />
	<path style="fill:none;stroke:red;stroke-width:1px;stroke-linecap:butt;stroke-linejoin:miter;stroke-opacity:1" d="M nan,nan nan,nan z" id="boundary" inkscape:connector-curvature="0" />
	<path style="fill:none;stroke:red;stroke-width:1px;stroke-linecap:butt;stroke-linejoin:miter;stroke-opacity:1" d="M nan,nan nan,nan z" id="boundary" inkscape:connector-curvature="0" />
	<path style="fill:none;stroke:red;stroke-width:1px;stroke-linecap:butt;stroke-linejoin:miter;stroke-opacity:1" d="M nan,nan nan,nan z" id="boundary" inkscape:connector-curvature="0" />
	<path style="fill:none;stroke:red;stroke-width:1px;stroke-linecap:butt;stroke-linejoin:miter;stroke-opacity:1" d="M nan,nan nan,nan z" id="boundary" inkscape:connector-curvature="0" />
	<path style="fill:none;stroke:red;stroke-width:1px;stroke-linecap:butt;stroke-linejoin:miter;stroke-opacity:1" d="M nan,nan nan,nan z" id="boundary" inkscape:connector-curvature="0" />
	<path style="fill:none;stroke:red;stroke-width:1px;stroke-linecap:butt;stroke-linejoin:miter;stroke-opacity:1" d="M nan,nan nan,nan z" id="boundary" inkscape:connector-curvature="0" />
	<path style="fill:none;stroke:red;stroke-width:1px;stroke-linecap:butt;stroke-linejoin:miter;stroke-opacity:1" d="M nan,nan nan,nan z" id="boundary" inkscape:connector-curvature="0" />
	<path style="fill:none;stroke:red;stroke-width:1px;stroke-linecap:butt;stroke-linejoin:miter;stroke-opacity:1" d="M nan,nan nan,nan z" id="boundary" inkscape:connector-curvature="0" />
	<path style="fill:none;stroke:red;stroke-width:1px;stroke-linecap:butt;stroke-linejoin:miter;stroke-opacity:1" d="M nan,nan nan,nan z" id="boundary" inkscape:connector-curvature="0" />
	<path style="fill:none;stroke:red;stroke-width:1px;stroke-linecap:butt;stroke-linejoin:miter;stroke-opacity:1" d="M nan,nan nan,nan z" id="boundary" inkscape:connector-curvature="0" />
	<path style="fill:none;stroke:red;stroke-width:1px;stroke-linecap:butt;stroke-linejoin:miter;stroke-opacity:1" d="M nan,nan nan,nan z" id="boundary" inkscape:connector-curvature="0" />
	<path style="fill:none;stroke:red;stroke-width:1px;stroke-linecap:butt;stroke-linejoin:miter;stroke-opacity:1" d="M nan,nan nan,nan z" id="boundary" inkscape:connector-curvature="0" />
	<path style="fill:none;stroke:red;stroke-width:1px;stroke-linecap:butt;stroke-linejoin:miter;stroke-opacity:1" d="M nan,nan nan,nan z" id="boundary" inkscape:connector-curvature="0" />
	<path style="fill:none;stroke:red;stroke-width:1px;stroke-linecap:butt;stroke-linejoin:miter;stroke-opacity:1" d="M nan,nan nan,nan z" id="boundary" inkscape:connector-curvature="0" />
	<path style="fill:none;stroke:red;stroke-width:1px;stroke-linecap:butt;stroke-linejoin:miter;stroke-opacity:1" d="M nan,nan nan,nan z" id="boundary" inkscape:connector-curvature="0" />
	<path style="fill:none;stroke:red;stroke-width:1px;stroke-linecap:butt;stroke-linejoin:miter;stroke-opacity:1" d="M nan,nan nan,nan z" id="boundary" inkscape:connector-curvature="0" />
	<path style="fill:none;stroke:red;stroke-width:1px;stroke-linecap:butt;stroke-linejoin:miter;stroke-opacity:1" d="M nan,nan nan,nan z" id="boundary" inkscape:connector-curvature="0" />
	<path style="fill:none;stroke:red;stroke-width:1px;stroke-linecap:butt;stroke-linejoin:miter;stroke-opacity:1" d="M nan,nan nan,nan z" id="boundary" inkscape:connector-curvature="0" />
	<path style="fill:none;stroke:red;stroke-width:1px;stroke-linecap:butt;stroke-linejoin:miter;stroke-opacity:1" d="M nan,nan nan,nan z" id="boundary" inkscape:connector-curvature="0" />
	<path style="fill:none;stroke:red;stroke-width:1px;stroke-linecap:butt;stroke-linejoin:miter;stroke-opacity:1" d="M nan,nan nan,nan z" id="boundary" inkscape:connector-curvature="0" />
	<path style="fill:none;stroke:red;stroke-width:1px;stroke-linecap:butt;stroke-linejoin:miter;stroke-opacity:1" d="M nan,nan nan,nan z" id="boundary" inkscape:connector-curvature="0" />
	<path style="fill:none;stroke:red;stroke-width:1px;stroke-linecap:butt;stroke-linejoin:miter;stroke-opacity:1" d="M nan,nan nan,nan z" id="boundary" inkscape:connector-curvature="0" />
	<path style="fill:none;stroke:red;stroke-width:1px;stroke-linecap:butt;stroke-linejoin:miter;stroke-opacity:1" d="M nan,nan nan,nan z" id="boundary" inkscape:connector-curvature="0" />
	<path style="fill:none;stroke:red;stroke-width:1px;stroke-linecap:butt;stroke-linejoin:miter;stroke-opacity:1" d="M nan,nan nan,nan z" id="boundary" inkscape:connector-curvature="0" />
	<path style="fill:none;stroke:red;stroke-width:1px;stroke-linecap:butt;stroke-linejoin:miter;stroke-opacity:1" d="M nan,nan nan,nan z" id="boundary" inkscape:connector-curvature="0" />
	<path style="fill:none;stroke:red;stroke-width:1px;stroke-linecap:butt;stroke-linejoin:miter;stroke-opacity:1" d="M nan,nan nan,nan z" id="boundary" inkscape:connector-curvature="0" />
	<path style="fill:none;stroke:red;stroke-width:1px;stroke-linecap:butt;stroke-linejoin:miter;stroke-opacity:1" d="M nan,nan nan,nan z" id="boundary" inkscape:connector-curvature="0" />
	<path style="fill:none;stroke:red;stroke-width:1px;stroke-linecap:butt;stroke-linejoin:miter;stroke-opacity:1" d="M nan,nan nan,nan z" id="boundary" inkscape:connector-curvature="0" />
	<path style="fill:none;stroke:red;stroke-width:1px;stroke-linecap:butt;stroke-linejoin:miter;stroke-opacity:1" d="M nan,nan nan,nan z" id="boundary" inkscape:connector-curvature="0" />
	<path style="fill:none;stroke:red;stroke-width:1px;stroke-linecap:butt;stroke-linejoin:miter;stroke-opacity:1" d="M nan,nan nan,nan z" id="boundary" inkscape:connector-curvature="0" />
	<path style="fill:none;stroke:red;stroke-width:1px;stroke-linecap:butt;stroke-linejoin:miter;stroke-opacity:1" d="M nan,nan nan,nan z" id="boundary" inkscape:connector-curvature="0" />
	<path style="fill:none;stroke:red;stroke-width:1px;stroke-linecap:butt;stroke-linejoin:miter;stroke-opacity:1" d="M nan,nan nan,nan z" id="boundary" inkscape:connector-curvature="0" />
	<path style="fill:none;stroke:red;stroke-width:1px;stroke-linecap:butt;stroke-linejoin:miter;stroke-opacity:1" d="M nan,nan nan,nan z" id="boundary" inkscape:connector-curvature="0" />
	<path style="fill:none;stroke:red;stroke-width:1px;stroke-linecap:butt;stroke-linejoin:miter;stroke-opacity:1" d="M nan,nan nan,nan z" id="boundary" inkscape:connector-curvature="0" />
	<path style="fill:none;stroke:red;stroke-width:1px;stroke-linecap:butt;stroke-linejoin:miter;stroke-opacity:1" d="M nan,nan nan,nan z" id="boundary" inkscape:connector-curvature="0" />
	<path style="fill:none;stroke:red;stroke-width:1px;stroke-linecap:butt;stroke-linejoin:miter;stroke-opacity:1" d="M nan,nan nan,nan z" id="boundary" inkscape:connector-curvature="0" />
	<path style="fill:none;stroke:red;stroke-width:1px;stroke-linecap:butt;stroke-linejoin:miter;stroke-opacity:1" d="M nan,nan nan,nan z" id="boundary" inkscape:connector-curvature="0" />
	<path style="fill:none;stroke:red;stroke-width:1px;stroke-linecap:butt;stroke-linejoin:miter;stroke-opacity:1" d="M nan,nan nan,nan z" id="boundary" inkscape:connector-curvature="0" />
	<path style="fill:none;stroke:red;stroke-width:1px;stroke-linecap:butt;stroke-linejoin:miter;stroke-opacity:1" d="M nan,nan nan,nan z" id="boundary" inkscape:connector-curvature="0" />
	<path style="fill:none;stroke:red;stroke-width:1px;stroke-linecap:butt;stroke-linejoin:miter;stroke-opacity:1" d="M nan,nan nan,nan z" id="boundary" inkscape:connector-curvature="0" />
	<path style="fill:none;stroke:red;stroke-width:1px;stroke-linecap:butt;stroke-linejoin:miter;stroke-opacity:1" d="M nan,nan nan,nan z" id="boundary" inkscape:connector-curvature="0" />
	<path style="fill:none;stroke:red;stroke-width:1px;stroke-linecap:butt;stroke-linejoin:miter;stroke-opacity:1" d="M nan,nan nan,nan z" id="boundary" inkscape:connector-curvature="0" />
	<path style="fill:none;stroke:red;stroke-width:1px;stroke-linecap:butt;stroke-linejoin:miter;stroke-opacity:1" d="M nan,nan nan,nan z" id="boundary" inkscape:connector-curvature="0" />
	<path style="fill:none;stroke:red;stroke-width:1px;stroke-linecap:butt;stroke-linejoin:miter;stroke-opacity:1" d="M nan,nan nan,nan z" id="boundary" inkscape:connector-curvature="0" />
	<path style="fill:none;stroke:red;stroke-width:1px;stroke-linecap:butt;stroke-linejoin:miter;stroke-opacity:1" d="M nan,nan nan,nan z" id="boundary" inkscape:connector-curvature="0" />
	<path style="fill:none;stroke:red;stroke-width:1px;stroke-linecap:butt;stroke-linejoin:miter;stroke-opacity:1" d="M nan,nan nan,nan z" id="boundary" inkscape:connector-curvature="0" />
	<path style="fill:none;stroke:red;stroke-width:1px;stroke-linecap:butt;stroke-linejoin:miter;stroke-opacity:1" d="M nan,nan nan,nan z" id="boundary" inkscape:connector-curvature="0" />
	<path style="fill:none;stroke:red;stroke-width:1px;stroke-linecap:butt;stroke-linejoin:miter;stroke-opacity:1" d="M nan,nan nan,nan z" id="boundary" inkscape:connector-curvature="0" />
	<path style="fill:none;stroke:red;stroke-width:1px;stroke-linecap:butt;stroke-linejoin:miter;stroke-opacity:1" d="M nan,nan nan,nan z" id="boundary" inkscape:connector-curvature="0" />
	<path style="fill:none;stroke:red;stroke-width:1px;stroke-linecap:butt;stroke-linejoin:miter;stroke-opacity:1" d="M nan,nan nan,nan z" id="boundary" inkscape:connector-curvature="0" />
	<path style="fill:none;stroke:red;stroke-width:1px;stroke-linecap:butt;stroke-linejoin:miter;stroke-opacity:1" d="M nan,nan nan,nan z" id="boundary" inkscape:connector-curvature="0" />
	<path style="fill:none;stroke:red;stroke-width:1px;stroke-linecap:butt;stroke-linejoin:miter;stroke-opacity:1" d="M nan,nan nan,nan z" id="boundary" inkscape:connector-curvature="0" />
	<path style="fill:none;stroke:red;stroke-width:1px;stroke-linecap:butt;stroke-linejoin:miter;stroke-opacity:1" d="M nan,nan nan,nan z" id="boundary" inkscape:connector-curvature="0" />
	<path style="fill:none;stroke:red;stroke-width:1px;stroke-linecap:butt;stroke-linejoin:miter;stroke-opacity:1" d="M nan,nan nan,nan z" id="boundary" inkscape:connector-curvature="0" />
	<path style="fill:none;stroke:red;stroke-width:1px;stroke-linecap:butt;stroke-linejoin:miter;stroke-opacity:1" d="M nan,nan nan,nan z" id="boundary" inkscape:connector-curvature="0" />
	<path style="fill:none;stroke:red;stroke-width:1px;stroke-linecap:butt;stroke-linejoin:miter;stroke-opacity:1" d="M nan,nan nan,nan z" id="boundary" inkscape:connector-curvature="0" />
	<path style="fill:none;stroke:red;stroke-width:1px;stroke-linecap:butt;stroke-linejoin:miter;stroke-opacity:1" d="M nan,nan nan,nan z" id="boundary" inkscape:connector-curvature="0" />
	<path style="fill:none;stroke:red;stroke-width:1px;stroke-linecap:butt;stroke-linejoin:miter;stroke-opacity:1" d="M nan,nan nan,nan z" id="boundary" inkscape:connector-curvature="0" />
	<path style="fill:none;stroke:red;stroke-width:1px;stroke-linecap:butt;stroke-linejoin:miter;stroke-opacity:1" d="M nan,nan nan,nan z" id="boundary" inkscape:connector-curvature="0" />
	<path style="fill:none;stroke:red;stroke-width:1px;stroke-linecap:butt;stroke-linejoin:miter;stroke-opacity:1" d="M nan,nan nan,nan z" id="boundary" inkscape:connector-curvature="0" />
	<path style="fill:none;stroke:red;stroke-width:1px;stroke-linecap:butt;stroke-linejoin:miter;stroke-opacity:1" d="M nan,nan nan,nan z" id="boundary" inkscape:connector-curvature="0" />
	<path style="fill:none;stroke:red;stroke-width:1px;stroke-linecap:butt;stroke-linejoin:miter;stroke-opacity:1" d="M nan,nan nan,nan z" id="boundary" inkscape:connector-curvature="0" />
	<path style="fill:none;stroke:red;stroke-width:1px;stroke-linecap:butt;stroke-linejoin:miter;stroke-opacity:1" d="M 864.452,590.574 879.548,519.409 z" id="boundary" inkscape:connector-curvature="0" />
	<path style="fill:none;stroke:red;stroke-width:1px;stroke-linecap:butt;stroke-linejoin:miter;stroke-opacity:1" d="M nan,nan nan,nan z" id="boundary" inkscape:connector-curvature="0" />
	<path style="fill:none;stroke:red;stroke-width:1px;stroke-linecap:butt;stroke-linejoin:miter;stroke-opacity:1" d="M nan,nan nan,nan z" id="boundary" inkscape:connector-curvature="0" />
	<path style="fill:none;stroke:red;stroke-width:1px;stroke-linecap:butt;stroke-linejoin:miter;stroke-opacity:1" d="M nan,nan nan,nan z" id="boundary" inkscape:connector-curvature="0" />
	<path style="fill:none;stroke:red;stroke-width:1px;stroke-linecap:butt;stroke-linejoin:miter;stroke-opacity:1" d="M nan,nan nan,nan z" id="boundary" inkscape:connector-curvature="0" />
	<path style="fill:none;stroke:red;stroke-width:1px;stroke-linecap:butt;stroke-linejoin:miter;stroke-opacity:1" d="M nan,nan nan,nan z" id="boundary" inkscape:connector-curvature="0" />
	<path style="fill:none;stroke:red;stroke-width:1px;stroke-linecap:butt;stroke-linejoin:miter;stroke-opacity:1" d="M nan,nan nan,nan z" id="boundary" inkscape:connector-curvature="0" />
	<path style="fill:none;stroke:red;stroke-width:1px;stroke-linecap:butt;stroke-linejoin:miter;stroke-opacity:1" d="M nan,nan nan,nan z" id="boundary" inkscape:connector-curvature="0" />
	<path style="fill:none;stroke:red;stroke-width:1px;stroke-linecap:butt;stroke-linejoin:miter;stroke-opacity:1" d="M nan,nan nan,nan z" id="boundary" inkscape:connector-curvature="0" />
	<path style="fill:none;stroke:red;stroke-width:1px;stroke-linecap:butt;stroke-linejoin:miter;stroke-opacity:1" d="M nan,nan nan,nan z" id="boundary" inkscape:connector-curvature="0" />
	<path style="fill:none;stroke:red;stroke-width:1px;stroke-linecap:butt;stroke-linejoin:miter;stroke-opacity:1" d="M nan,nan nan,nan z" id="boundary" inkscape:connector-curvature="0" />
	<path style="fill:none;stroke:red;stroke-width:1px;stroke-linecap:butt;stroke-linejoin:miter;stroke-opacity:1" d="M nan,nan nan,nan z" id="boundary" inkscape:connector-curvature="0" />
	<path style="fill:none;stroke:red;stroke-width:1px;stroke-linecap:butt;stroke-linejoin:miter;stroke-opacity:1" d="M nan,nan nan,nan z" id="boundary" inkscape:connector-curvature="0" />
	<circle cx="4" cy="890.33" r="4" fill="#0" id="circle0"/>
	<circle cx="4" cy="911.896" r="4" fill="#0" id="circle1"/>
	<circle cx="21.2522" cy="926.991" r="4" fill="#0" id="circle2"/>
	<circle cx="25.5652" cy="883.861" r="4" fill="#0" id="circle3"/>
	<circle cx="38.5043" cy="866.609" r="4" fill="#0" id="circle4"/>
	<circle cx="42.8174" cy="918.365" r="4" fill="#0" id="circle5"/>
	<circle cx="60.0696" cy="862.296" r="4" fill="#0" id="circle6"/>
	<circle cx="64.3826" cy="918.365" r="4" fill="#0" id="circle7"/>
	<circle cx="81.6348" cy="862.296" r="4" fill="#0" id="circle8"/>
	<circle cx="85.9478" cy="918.365" r="4" fill="#0" id="circle9"/>
	<circle cx="nan" cy="nan" r="4" fill="#0" id="circle10"/>
	<circle cx="101.043" cy="415.896" r="4" fill="#0" id="circle11"/>
	<circle cx="101.043" cy="437.461" r="4" fill="#0" id="circle12"/>
	<circle cx="nan" cy="nan" r="4" fill="#0" id="circle13"/>
	<circle cx="103.2" cy="862.296" r="4" fill="#0" id="circle14"/>
	<circle cx="107.513" cy="926.991" r="4" fill="#0" id="circle15"/>
	<circle cx="111.826" cy="394.33" r="4" fill="#0" id="circle16"/>
	<circle cx="122.609" cy="340.417" r="4" fill="#0" id="circle17"/>
	<circle cx="122.609" cy="361.983" r="4" fill="#0" id="circle18"/>
	<circle cx="nan" cy="nan" r="4" fill="#0" id="circle19"/>
	<circle cx="124.765" cy="862.296" r="4" fill="#0" id="circle20"/>
	<circle cx="129.078" cy="926.991" r="4" fill="#0" id="circle21"/>
	<circle cx="nan" cy="nan" r="4" fill="#0" id="circle22"/>
	<circle cx="144.174" cy="286.504" r="4" fill="#0" id="circle23"/>
	<circle cx="128.591" cy="308.07" r="4" fill="#0" id="circle24"/>
	<circle cx="144.174" cy="329.635" r="4" fill="#0" id="circle25"/>
	<circle cx="146.33" cy="862.296" r="4" fill="#0" id="circle26"/>
	<circle cx="150.643" cy="926.991" r="4" fill="#0" id="circle27"/>
	<circle cx="155.27" cy="265.096" r="4" fill="#0" id="circle28"/>
	<circle cx="nan" cy="nan" r="4" fill="#0" id="circle29"/>
	<circle cx="165.174" cy="243.092" r="4" fill="#0" id="circle30"/>
	<circle cx="165.739" cy="873.078" r="4" fill="#0" id="circle31"/>
	<circle cx="167.896" cy="939.93" r="4" fill="#0" id="circle32"/>
	<circle cx="176.319" cy="221.707" r="4" fill="#0" id="circle33"/>
	<circle cx="nan" cy="nan" r="4" fill="#0" id="circle34"/>
	<circle cx="187.406" cy="200.294" r="4" fill="#0" id="circle35"/>
	<circle cx="187.304" cy="877.391" r="4" fill="#0" id="circle36"/>
	<circle cx="189.461" cy="939.93" r="4" fill="#0" id="circle37"/>
	<circle cx="nan" cy="nan" r="4" fill="#0" id="circle38"/>
	<circle cx="-nan" cy="-nan" r="4" fill="#0" id="circle39"/>
	<circle cx="-nan" cy="-nan" r="4" fill="#0" id="circle40"/>
	<circle cx="-nan" cy="-nan" r="4" fill="#0" id="circle41"/>
	<circle cx="-nan" cy="-nan" r="4" fill="#0" id="circle42"/>
	<circle cx="-nan" cy="-nan" r="4" fill="#0" id="circle43"/>
	<circle cx="198.087" cy="178.678" r="4" fill="#0" id="circle44"/>
	<circle cx="200.243" cy="894.643" r="4" fill="#0" id="circle45"/>
	<circle cx="nan" cy="nan" r="4" fill="#0" id="circle46"/>
	<circle cx="208.87" cy="4" r="4" fill="#0" id="circle47"/>
	<circle cx="208.87" cy="146.33" r="4" fill="#0" id="circle48"/>
	<circle cx="211.026" cy="939.93" r="4" fill="#0" id="circle49"/>
	<circle cx="nan" cy="nan" r="4" fill="#0" id="circle50"/>
	<circle cx="nan" cy="nan" r="4" fill="#0" id="circle51"/>
	<circle cx="219.652" cy="23.4087" r="4" fill="#0" id="circle52"/>
	<circle cx="219.652" cy="124.765" r="4" fill="#0" id="circle53"/>
	<circle cx="221.809" cy="894.643" r="4" fill="#0" id="circle54"/>
	<circle cx="226.122" cy="44.9739" r="4" fill="#0" id="circle55"/>
	<circle cx="nan" cy="nan" r="4" fill="#0" id="circle56"/>
	<circle cx="nan" cy="nan" r="4" fill="#0" id="circle57"/>
	<circle cx="230.435" cy="825.635" r="4" fill="#0" id="circle58"/>
	<circle cx="232.591" cy="939.93" r="4" fill="#0" id="circle59"/>
	<circle cx="nan" cy="nan" r="4" fill="#0" id="circle60"/>
	<circle cx="236.904" cy="107.513" r="4" fill="#0" id="circle61"/>
	<circle cx="241.217" cy="62.2261" r="4" fill="#0" id="circle62"/>
	<circle cx="241.217" cy="782.504" r="4" fill="#0" id="circle63"/>
	<circle cx="243.374" cy="901.113" r="4" fill="#0" id="circle64"/>
	<circle cx="nan" cy="nan" r="4" fill="#0" id="circle65"/>
	<circle cx="247.687" cy="840.73" r="4" fill="#0" id="circle66"/>
	<circle cx="252" cy="81.6348" r="4" fill="#0" id="circle67"/>
	<circle cx="nan" cy="nan" r="4" fill="#0" id="circle68"/>
	<circle cx="nan" cy="nan" r="4" fill="#0" id="circle69"/>
	<circle cx="nan" cy="nan" r="4" fill="#0" id="circle70"/>
	<circle cx="252" cy="707.026" r="4" fill="#0" id="circle71"/>
	<circle cx="252" cy="728.591" r="4" fill="#0" id="circle72"/>
	<circle cx="252" cy="750.157" r="4" fill="#0" id="circle73"/>
	<circle cx="nan" cy="nan" r="4" fill="#0" id="circle74"/>
	<circle cx="254.157" cy="939.93" r="4" fill="#0" id="circle75"/>
	<circle cx="nan" cy="nan" r="4" fill="#0" id="circle76"/>
	<circle cx="nan" cy="nan" r="4" fill="#0" id="circle77"/>
	<circle cx="262.783" cy="857.983" r="4" fill="#0" id="circle78"/>
	<circle cx="262.783" cy="879.548" r="4" fill="#0" id="circle79"/>
	<circle cx="nan" cy="nan" r="4" fill="#0" id="circle80"/>
	<circle cx="nan" cy="nan" r="4" fill="#0" id="circle81"/>
	<circle cx="275.722" cy="939.93" r="4" fill="#0" id="circle82"/>
	<circle cx="nan" cy="nan" r="4" fill="#0" id="circle83"/>
	<circle cx="nan" cy="nan" r="4" fill="#0" id="circle84"/>
	<circle cx="280.035" cy="894.643" r="4" fill="#0" id="circle85"/>
	<circle cx="nan" cy="nan" r="4" fill="#0" id="circle86"/>
	<circle cx="nan" cy="nan" r="4" fill="#0" id="circle87"/>
	<circle cx="nan" cy="nan" r="4" fill="#0" id="circle88"/>
	<circle cx="297.287" cy="939.93" r="4" fill="#0" id="circle89"/>
	<circle cx="nan" cy="nan" r="4" fill="#0" id="circle90"/>
	<circle cx="nan" cy="nan" r="4" fill="#0" id="circle91"/>
	<circle cx="nan" cy="nan" r="4" fill="#0" id="circle92"/>
	<circle cx="nan" cy="nan" r="4" fill="#0" id="circle93"/>
	<circle cx="318.852" cy="929.148" r="4" fill="#0" id="circle94"/>
	<circle cx="nan" cy="nan" r="4" fill="#0" id="circle95"/>
	<circle cx="nan" cy="nan" r="4" fill="#0" id="circle96"/>
	<circle cx="nan" cy="nan" r="4" fill="#0" id="circle97"/>
	<circle cx="329.635" cy="788.974" r="4" fill="#0" id="circle98"/>
	<circle cx="329.635" cy="810.539" r="4" fill="#0" id="circle99"/>
	<circle cx="329.635" cy="832.104" r="4" fill="#0" id="circle100"/>
	<circle cx="329.635" cy="853.67" r="4" fill="#0" id="circle101"/>
	<circle cx="329.635" cy="875.235" r="4" fill="#0" id="circle102"/>
	<circle cx="329.635" cy="896.8" r="4" fill="#0" id="circle103"/>
	<circle cx="nan" cy="nan" r="4" fill="#0" id="circle104"/>
	<circle cx="nan" cy="nan" r="4" fill="#0" id="circle105"/>
	<circle cx="351.2" cy="788.974" r="4" fill="#0" id="circle106"/>
	<circle cx="nan" cy="nan" r="4" fill="#0" id="circle107"/>
	<circle cx="372.765" cy="788.974" r="4" fill="#0" id="circle108"/>
	<circle cx="nan" cy="nan" r="4" fill="#0" id="circle109"/>
	<circle cx="394.33" cy="788.974" r="4" fill="#0" id="circle110"/>
	<circle cx="nan" cy="nan" r="4" fill="#0" id="circle111"/>
	<circle cx="415.896" cy="788.974" r="4" fill="#0" id="circle112"/>
	<circle cx="nan" cy="nan" r="4" fill="#0" id="circle113"/>
	<circle cx="nan" cy="nan" r="4" fill="#0" id="circle114"/>
	<circle cx="437.461" cy="788.974" r="4" fill="#0" id="circle115"/>
	<circle cx="446.087" cy="890.33" r="4" fill="#0" id="circle116"/>
	<circle cx="446.087" cy="911.896" r="4" fill="#0" id="circle117"/>
	<circle cx="446.087" cy="933.461" r="4" fill="#0" id="circle118"/>
	<circle cx="456.87" cy="799.757" r="4" fill="#0" id="circle119"/>
	<circle cx="nan" cy="nan" r="4" fill="#0" id="circle120"/>
	<circle cx="463.339" cy="873.078" r="4" fill="#0" id="circle121"/>
	<circle cx="467.652" cy="819.165" r="4" fill="#0" id="circle122"/>
	<circle cx="467.652" cy="840.73" r="4" fill="#0" id="circle123"/>
	<circle cx="467.652" cy="939.93" r="4" fill="#0" id="circle124"/>
	<circle cx="nan" cy="nan" r="4" fill="#0" id="circle125"/>
	<circle cx="nan" cy="nan" r="4" fill="#0" id="circle126"/>
	<circle cx="489.217" cy="939.93" r="4" fill="#0" id="circle127"/>
	<circle cx="nan" cy="nan" r="4" fill="#0" id="circle128"/>
	<circle cx="nan" cy="nan" r="4" fill="#0" id="circle129"/>
	<circle cx="nan" cy="nan" r="4" fill="#0" id="circle130"/>
	<circle cx="491.374" cy="325.322" r="4" fill="#0" id="circle131"/>
	<circle cx="nan" cy="nan" r="4" fill="#0" id="circle132"/>
	<circle cx="nan" cy="nan" r="4" fill="#0" id="circle133"/>
	<circle cx="nan" cy="nan" r="4" fill="#0" id="circle134"/>
	<circle cx="502.157" cy="344.73" r="4" fill="#0" id="circle135"/>
	<circle cx="510.783" cy="314.539" r="4" fill="#0" id="circle136"/>
	<circle cx="510.783" cy="939.93" r="4" fill="#0" id="circle137"/>
	<circle cx="nan" cy="nan" r="4" fill="#0" id="circle138"/>
	<circle cx="nan" cy="nan" r="4" fill="#0" id="circle139"/>
	<circle cx="512.939" cy="778.191" r="4" fill="#0" id="circle140"/>
	<circle cx="512.939" cy="799.757" r="4" fill="#0" id="circle141"/>
	<circle cx="512.939" cy="821.322" r="4" fill="#0" id="circle142"/>
	<circle cx="512.939" cy="842.887" r="4" fill="#0" id="circle143"/>
	<circle cx="512.939" cy="864.452" r="4" fill="#0" id="circle144"/>
	<circle cx="nan" cy="nan" r="4" fill="#0" id="circle145"/>
	<circle cx="nan" cy="nan" r="4" fill="#0" id="circle146"/>
	<circle cx="523.722" cy="340.417" r="4" fill="#0" id="circle147"/>
	<circle cx="523.722" cy="433.148" r="4" fill="#0" id="circle148"/>
	<circle cx="523.722" cy="454.713" r="4" fill="#0" id="circle149"/>
	<circle cx="523.722" cy="476.278" r="4" fill="#0" id="circle150"/>
	<circle cx="523.722" cy="497.843" r="4" fill="#0" id="circle151"/>
	<circle cx="523.722" cy="519.409" r="4" fill="#0" id="circle152"/>
	<circle cx="523.722" cy="540.974" r="4" fill="#0" id="circle153"/>
	<circle cx="nan" cy="nan" r="4" fill="#0" id="circle154"/>
	<circle cx="523.722" cy="594.887" r="4" fill="#0" id="circle155"/>
	<circle cx="528.035" cy="301.6" r="4" fill="#0" id="circle156"/>
	<circle cx="530.191" cy="877.391" r="4" fill="#0" id="circle157"/>
	<circle cx="532.348" cy="939.93" r="4" fill="#0" id="circle158"/>
	<circle cx="nan" cy="nan" r="4" fill="#0" id="circle159"/>
	<circle cx="534.504" cy="614.296" r="4" fill="#0" id="circle160"/>
	<circle cx="534.504" cy="638.017" r="4" fill="#0" id="circle161"/>
	<circle cx="nan" cy="nan" r="4" fill="#0" id="circle162"/>
	<circle cx="540.974" cy="355.513" r="4" fill="#0" id="circle163"/>
	<circle cx="543.13" cy="443.93" r="4" fill="#0" id="circle164"/>
	<circle cx="nan" cy="nan" r="4" fill="#0" id="circle165"/>
	<circle cx="nan" cy="nan" r="4" fill="#0" id="circle166"/>
	<circle cx="nan" cy="nan" r="4" fill="#0" id="circle167"/>
	<circle cx="551.757" cy="883.861" r="4" fill="#0" id="circle168"/>
	<circle cx="553.913" cy="939.93" r="4" fill="#0" id="circle169"/>
	<circle cx="556.07" cy="676.835" r="4" fill="#0" id="circle170"/>
	<circle cx="556.07" cy="756.626" r="4" fill="#0" id="circle171"/>
	<circle cx="560.383" cy="366.296" r="4" fill="#0" id="circle172"/>
	<circle cx="564.696" cy="443.93" r="4" fill="#0" id="circle173"/>
	<circle cx="nan" cy="nan" r="4" fill="#0" id="circle174"/>
	<circle cx="566.852" cy="282.191" r="4" fill="#0" id="circle175"/>
	<circle cx="566.852" cy="696.243" r="4" fill="#0" id="circle176"/>
	<circle cx="573.322" cy="883.861" r="4" fill="#0" id="circle177"/>
	<circle cx="575.478" cy="939.93" r="4" fill="#0" id="circle178"/>
	<circle cx="577.635" cy="756.626" r="4" fill="#0" id="circle179"/>
	<circle cx="579.791" cy="377.078" r="4" fill="#0" id="circle180"/>
	<circle cx="584.104" cy="267.096" r="4" fill="#0" id="circle181"/>
	<circle cx="nan" cy="nan" r="4" fill="#0" id="circle182"/>
	<circle cx="nan" cy="nan" r="4" fill="#0" id="circle183"/>
	<circle cx="586.261" cy="443.93" r="4" fill="#0" id="circle184"/>
	<circle cx="588.417" cy="700.557" r="4" fill="#0" id="circle185"/>
	<circle cx="592.73" cy="465.496" r="4" fill="#0" id="circle186"/>
	<circle cx="594.887" cy="883.861" r="4" fill="#0" id="circle187"/>
	<circle cx="597.043" cy="491.374" r="4" fill="#0" id="circle188"/>
	<circle cx="597.043" cy="939.93" r="4" fill="#0" id="circle189"/>
	<circle cx="599.2" cy="387.861" r="4" fill="#0" id="circle190"/>
	<circle cx="599.2" cy="756.626" r="4" fill="#0" id="circle191"/>
	<circle cx="nan" cy="nan" r="4" fill="#0" id="circle192"/>
	<circle cx="nan" cy="nan" r="4" fill="#0" id="circle193"/>
	<circle cx="nan" cy="nan" r="4" fill="#0" id="circle194"/>
	<circle cx="nan" cy="nan" r="4" fill="#0" id="circle195"/>
	<circle cx="609.983" cy="700.557" r="4" fill="#0" id="circle196"/>
	<circle cx="616.452" cy="883.861" r="4" fill="#0" id="circle197"/>
	<circle cx="618.609" cy="497.843" r="4" fill="#0" id="circle198"/>
	<circle cx="618.609" cy="519.409" r="4" fill="#0" id="circle199"/>
	<circle cx="618.609" cy="939.93" r="4" fill="#0" id="circle200"/>
	<circle cx="620.765" cy="228.278" r="4" fill="#0" id="circle201"/>
	<circle cx="620.765" cy="394.33" r="4" fill="#0" id="circle202"/>
	<circle cx="620.765" cy="760.939" r="4" fill="#0" id="circle203"/>
	<circle cx="nan" cy="nan" r="4" fill="#0" id="circle204"/>
	<circle cx="nan" cy="nan" r="4" fill="#0" id="circle205"/>
	<circle cx="631.548" cy="700.557" r="4" fill="#0" id="circle206"/>
	<circle cx="635.861" cy="778.191" r="4" fill="#0" id="circle207"/>
	<circle cx="638.017" cy="530.191" r="4" fill="#0" id="circle208"/>
	<circle cx="638.017" cy="883.861" r="4" fill="#0" id="circle209"/>
	<circle cx="nan" cy="nan" r="4" fill="#0" id="circle210"/>
	<circle cx="640.174" cy="939.93" r="4" fill="#0" id="circle211"/>
	<circle cx="nan" cy="nan" r="4" fill="#0" id="circle212"/>
	<circle cx="650.957" cy="424.522" r="4" fill="#0" id="circle213"/>
	<circle cx="653.113" cy="694.087" r="4" fill="#0" id="circle214"/>
	<circle cx="655.27" cy="767.409" r="4" fill="#0" id="circle215"/>
	<circle cx="657.426" cy="540.974" r="4" fill="#0" id="circle216"/>
	<circle cx="659.583" cy="883.861" r="4" fill="#0" id="circle217"/>
	<circle cx="nan" cy="nan" r="4" fill="#0" id="circle218"/>
	<circle cx="661.739" cy="939.93" r="4" fill="#0" id="circle219"/>
	<circle cx="663.896" cy="217.496" r="4" fill="#0" id="circle220"/>
	<circle cx="663.896" cy="441.774" r="4" fill="#0" id="circle221"/>
	<circle cx="674.678" cy="556.07" r="4" fill="#0" id="circle222"/>
	<circle cx="674.678" cy="694.087" r="4" fill="#0" id="circle223"/>
	<circle cx="676.835" cy="773.878" r="4" fill="#0" id="circle224"/>
	<circle cx="681.148" cy="883.861" r="4" fill="#0" id="circle225"/>
	<circle cx="681.148" cy="950.713" r="4" fill="#0" id="circle226"/>
	<circle cx="nan" cy="nan" r="4" fill="#0" id="circle227"/>
	<circle cx="nan" cy="nan" r="4" fill="#0" id="circle228"/>
	<circle cx="685.461" cy="441.774" r="4" fill="#0" id="circle229"/>
	<circle cx="689.774" cy="538.817" r="4" fill="#0" id="circle230"/>
	<circle cx="696.243" cy="689.774" r="4" fill="#0" id="circle231"/>
	<circle cx="698.4" cy="778.191" r="4" fill="#0" id="circle232"/>
	<circle cx="700.557" cy="519.409" r="4" fill="#0" id="circle233"/>
	<circle cx="702.713" cy="886.017" r="4" fill="#0" id="circle234"/>
	<circle cx="702.713" cy="950.713" r="4" fill="#0" id="circle235"/>
	<circle cx="nan" cy="nan" r="4" fill="#0" id="circle236"/>
	<circle cx="nan" cy="nan" r="4" fill="#0" id="circle237"/>
	<circle cx="707.026" cy="441.774" r="4" fill="#0" id="circle238"/>
	<circle cx="715.652" cy="700.557" r="4" fill="#0" id="circle239"/>
	<circle cx="nan" cy="nan" r="4" fill="#0" id="circle240"/>
	<circle cx="722.122" cy="519.409" r="4" fill="#0" id="circle241"/>
	<circle cx="724.278" cy="894.643" r="4" fill="#0" id="circle242"/>
	<circle cx="724.278" cy="950.713" r="4" fill="#0" id="circle243"/>
	<circle cx="nan" cy="nan" r="4" fill="#0" id="circle244"/>
	<circle cx="nan" cy="nan" r="4" fill="#0" id="circle245"/>
	<circle cx="728.591" cy="441.774" r="4" fill="#0" id="circle246"/>
	<circle cx="737.217" cy="696.243" r="4" fill="#0" id="circle247"/>
	<circle cx="739.374" cy="929.148" r="4" fill="#0" id="circle248"/>
	<circle cx="741.53" cy="784.661" r="4" fill="#0" id="circle249"/>
	<circle cx="743.687" cy="517.252" r="4" fill="#0" id="circle250"/>
	<circle cx="743.687" cy="905.426" r="4" fill="#0" id="circle251"/>
	<circle cx="745.843" cy="454.713" r="4" fill="#0" id="circle252"/>
	<circle cx="nan" cy="nan" r="4" fill="#0" id="circle253"/>
	<circle cx="nan" cy="nan" r="4" fill="#0" id="circle254"/>
	<circle cx="754.47" cy="678.991" r="4" fill="#0" id="circle255"/>
	<circle cx="760.939" cy="471.965" r="4" fill="#0" id="circle256"/>
	<circle cx="763.096" cy="778.191" r="4" fill="#0" id="circle257"/>
	<circle cx="765.252" cy="506.47" r="4" fill="#0" id="circle258"/>
	<circle cx="nan" cy="nan" r="4" fill="#0" id="circle259"/>
	<circle cx="nan" cy="nan" r="4" fill="#0" id="circle260"/>
	<circle cx="773.878" cy="668.209" r="4" fill="#0" id="circle261"/>
	<circle cx="784.661" cy="778.191" r="4" fill="#0" id="circle262"/>
	<circle cx="nan" cy="nan" r="4" fill="#0" id="circle263"/>
	<circle cx="nan" cy="nan" r="4" fill="#0" id="circle264"/>
	<circle cx="791.13" cy="620.765" r="4" fill="#0" id="circle265"/>
	<circle cx="791.13" cy="642.33" r="4" fill="#0" id="circle266"/>
	<circle cx="801.913" cy="760.939" r="4" fill="#0" id="circle267"/>
	<circle cx="nan" cy="nan" r="4" fill="#0" id="circle268"/>
	<circle cx="nan" cy="nan" r="4" fill="#0" id="circle269"/>
	<circle cx="812.696" cy="577.635" r="4" fill="#0" id="circle270"/>
	<circle cx="812.696" cy="599.2" r="4" fill="#0" id="circle271"/>
	<circle cx="814.852" cy="735.061" r="4" fill="#0" id="circle272"/>
	<circle cx="823.478" cy="556.07" r="4" fill="#0" id="circle273"/>
	<circle cx="nan" cy="nan" r="4" fill="#0" id="circle274"/>
	<circle cx="825.635" cy="713.496" r="4" fill="#0" id="circle275"/>
	<circle cx="nan" cy="nan" r="4" fill="#0" id="circle276"/>
	<circle cx="836.417" cy="627.235" r="4" fill="#0" id="circle277"/>
	<circle cx="836.417" cy="648.8" r="4" fill="#0" id="circle278"/>
	<circle cx="836.417" cy="670.365" r="4" fill="#0" id="circle279"/>
	<circle cx="836.417" cy="691.93" r="4" fill="#0" id="circle280"/>
	<circle cx="840.73" cy="538.817" r="4" fill="#0" id="circle281"/>
	<circle cx="nan" cy="nan" r="4" fill="#0" id="circle282"/>
	<circle cx="nan" cy="nan" r="4" fill="#0" id="circle283"/>
	<circle cx="847.2" cy="605.67" r="4" fill="#0" id="circle284"/>
	<circle cx="851.513" cy="517.252" r="4" fill="#0" id="circle285"/>
	<circle cx="862.296" cy="495.687" r="4" fill="#0" id="circle286"/>
	<circle cx="nan" cy="nan" r="4" fill="#0" id="circle287"/>
	<circle cx="864.452" cy="590.574" r="4" fill="#0" id="circle288"/>
	<circle cx="nan" cy="nan" r="4" fill="#0" id="circle289"/>
	<circle cx="868.765" cy="551.757" r="4" fill="#0" id="circle290"/>
	<circle cx="873.078" cy="474.122" r="4" fill="#0" id="circle291"/>
	<circle cx="877.391" cy="426.678" r="4" fill="#0" id="circle292"/>
	<circle cx="877.391" cy="448.243" r="4" fill="#0" id="circle293"/>
	<circle cx="nan" cy="nan" r="4" fill="#0" id="circle294"/>
	<circle cx="879.548" cy="519.409" r="4" fill="#0" id="circle295"/>
	<circle cx="888.174" cy="405.113" r="4" fill="#0" id="circle296"/>
	<circle cx="nan" cy="nan" r="4" fill="#0" id="circle297"/>
	<circle cx="nan" cy="nan" r="4" fill="#0" id="circle298"/>
	<circle cx="896.8" cy="504.313" r="4" fill="#0" id="circle299"/>
	<circle cx="nan" cy="nan" r="4" fill="#0" id="circle300"/>
	<circle cx="nan" cy="nan" r="4" fill="#0" id="circle301"/>
	<circle cx="nan" cy="nan" r="4" fill="#0" id="circle302"/>
	<circle cx="901.113" cy="443.93" r="4" fill="#0" id="circle303"/>
	<circle cx="901.113" cy="465.496" r="4" fill="#0" id="circle304"/>
	<circle cx="905.426" cy="387.861" r="4" fill="#0" id="circle305"/>
	<circle cx="nan" cy="nan" r="4" fill="#0" id="circle306"/>
	<circle cx="nan" cy="nan" r="4" fill="#0" id="circle307"/>
	<circle cx="nan" cy="nan" r="4" fill="#0" id="circle308"/>
	<circle cx="911.896" cy="422.365" r="4" fill="#0" id="circle309"/>
	<circle cx="nan" cy="nan" r="4" fill="#0" id="circle310"/>
	<circle cx="nan" cy="nan" r="4" fill="#0" id="circle311"/>
	<circle cx="nan" cy="nan" r="4" fill="#0" id="circle312"/>
	<circle cx="922.678" cy="370.609" r="4" fill="#0" id="circle313"/>
	<circle cx="933.461" cy="400.8" r="4" fill="#0" id="circle314"/>
	<circle cx="944.243" cy="366.296" r="4" fill="#0" id="circle315"/>
	<circle cx="955.026" cy="400.8" r="4" fill="#0" id="circle316"/>
	<circle cx="965.809" cy="366.296" r="4" fill="#0" id="circle317"/>
	<circle cx="974.435" cy="390.017" r="4" fill="#0" id="circle318"/>
	<circle cx="987.374" cy="366.296" r="4" fill="#0" id="circle319"/>
	<circle cx="996" cy="390.017" r="4" fill="#0" id="circle320"/>
	</g>
</svg>