<?xml version="1.0" encoding="UTF-8" standalone="no"?>
<!-- Created with CurveBenchmark -->
<svg
	xmlns:dc="http://purl.org/dc/elements/1.1/"
	xmlns:cc="http://creativecommons.org/ns#"
	xmlns:rdf="http://www.w3.org/1999/02/22-rdf-syntax-ns#"
	xmlns:svg="http://www.w3.org/2000/svg"
	xmlns="http://www.w3.org/2000/svg"
	xmlns:sodipodi="http://sodipodi.sourceforge.net/DTD/sodipodi-0.dtd"
	xmlns:inkscape="http://www.inkscape.org/namespaces/inkscape"
	width="1000"
	height="1000"
	id="svg2"
	version="1.1"
	sodipodi:docname="manifold/stretchdenoise-hammer31.png.txt">
<defs
	id="defs4" />
<metadata
	id="metadata7">
	<rdf:RDF>
		<cc:Work
			rdf:about="">
			<dc:format>image/svg+xml</dc:format>
			<dc:type
				rdf:resource="http://purl.org/dc/dcmitype/StillImage" />
			<dc:title></dc:title>
		</cc:Work>
	</rdf:RDF>
</metadata>
<g
	inkscape:label="Layer 1"
	inkscape:groupmode="layer"
	id="layer1">
	<path style="fill:none;stroke:red;stroke-width:1px;stroke-linecap:butt;stroke-linejoin:miter;stroke-opacity:1" d="M 4,62.6859 4,91.1406 z" id="boundary" inkscape:connector-curvature="0" />
	<path style="fill:none;stroke:red;stroke-width:1px;stroke-linecap:butt;stroke-linejoin:miter;stroke-opacity:1" d="M 4,62.6859 18.2273,34.2312 z" id="boundary" inkscape:connector-curvature="0" />
	<path style="fill:none;stroke:red;stroke-width:1px;stroke-linecap:butt;stroke-linejoin:miter;stroke-opacity:1" d="M 4,91.1406 26.7638,111.059 z" id="boundary" inkscape:connector-curvature="0" />
	<path style="fill:none;stroke:red;stroke-width:1px;stroke-linecap:butt;stroke-linejoin:miter;stroke-opacity:1" d="M 18.2273,34.2312 40.9911,11.4674 z" id="boundary" inkscape:connector-curvature="0" />
	<path style="fill:none;stroke:red;stroke-width:1px;stroke-linecap:butt;stroke-linejoin:miter;stroke-opacity:1" d="M 26.7638,111.059 46.682,133.823 z" id="boundary" inkscape:connector-curvature="0" />
	<path style="fill:none;stroke:red;stroke-width:1px;stroke-linecap:butt;stroke-linejoin:miter;stroke-opacity:1" d="M 40.9911,11.4674 69.4458,32.0287 z" id="boundary" inkscape:connector-curvature="0" />
	<path style="fill:none;stroke:red;stroke-width:1px;stroke-linecap:butt;stroke-linejoin:miter;stroke-opacity:1" d="M 46.682,133.823 69.4458,153.741 z" id="boundary" inkscape:connector-curvature="0" />
	<path style="fill:none;stroke:red;stroke-width:1px;stroke-linecap:butt;stroke-linejoin:miter;stroke-opacity:1" d="M 69.4458,32.0287 97.9005,4 z" id="boundary" inkscape:connector-curvature="0" />
	<path style="fill:none;stroke:red;stroke-width:1px;stroke-linecap:butt;stroke-linejoin:miter;stroke-opacity:1" d="M 69.4458,153.741 89.3641,176.505 z" id="boundary" inkscape:connector-curvature="0" />
	<path style="fill:none;stroke:red;stroke-width:1px;stroke-linecap:butt;stroke-linejoin:miter;stroke-opacity:1" d="M 89.3641,176.505 106.437,199.268 z" id="boundary" inkscape:connector-curvature="0" />
	<path style="fill:none;stroke:red;stroke-width:1px;stroke-linecap:butt;stroke-linejoin:miter;stroke-opacity:1" d="M 97.9005,4 126.355,11.4674 z" id="boundary" inkscape:connector-curvature="0" />
	<path style="fill:none;stroke:red;stroke-width:1px;stroke-linecap:butt;stroke-linejoin:miter;stroke-opacity:1" d="M 106.437,199.268 123.51,222.032 z" id="boundary" inkscape:connector-curvature="0" />
	<path style="fill:none;stroke:red;stroke-width:1px;stroke-linecap:butt;stroke-linejoin:miter;stroke-opacity:1" d="M 123.51,222.032 146.273,241.95 z" id="boundary" inkscape:connector-curvature="0" />
	<path style="fill:none;stroke:red;stroke-width:1px;stroke-linecap:butt;stroke-linejoin:miter;stroke-opacity:1" d="M 126.355,11.4674 149.119,28.5402 z" id="boundary" inkscape:connector-curvature="0" />
	<path style="fill:none;stroke:red;stroke-width:1px;stroke-linecap:butt;stroke-linejoin:miter;stroke-opacity:1" d="M 146.273,241.95 163.346,264.714 z" id="boundary" inkscape:connector-curvature="0" />
	<path style="fill:none;stroke:red;stroke-width:1px;stroke-linecap:butt;stroke-linejoin:miter;stroke-opacity:1" d="M 149.119,28.5402 154.81,56.9949 z" id="boundary" inkscape:connector-curvature="0" />
	<path style="fill:none;stroke:red;stroke-width:1px;stroke-linecap:butt;stroke-linejoin:miter;stroke-opacity:1" d="M 154.81,56.9949 177.574,76.9132 z" id="boundary" inkscape:connector-curvature="0" />
	<path style="fill:none;stroke:red;stroke-width:1px;stroke-linecap:butt;stroke-linejoin:miter;stroke-opacity:1" d="M 163.346,264.714 186.11,284.633 z" id="boundary" inkscape:connector-curvature="0" />
	<path style="fill:none;stroke:red;stroke-width:1px;stroke-linecap:butt;stroke-linejoin:miter;stroke-opacity:1" d="M 177.574,76.9132 197.492,99.677 z" id="boundary" inkscape:connector-curvature="0" />
	<path style="fill:none;stroke:red;stroke-width:1px;stroke-linecap:butt;stroke-linejoin:miter;stroke-opacity:1" d="M 186.11,284.633 206.028,307.396 z" id="boundary" inkscape:connector-curvature="0" />
	<path style="fill:none;stroke:red;stroke-width:1px;stroke-linecap:butt;stroke-linejoin:miter;stroke-opacity:1" d="M 197.492,99.677 211.719,125.286 z" id="boundary" inkscape:connector-curvature="0" />
	<path style="fill:none;stroke:red;stroke-width:1px;stroke-linecap:butt;stroke-linejoin:miter;stroke-opacity:1" d="M 206.028,307.396 228.792,327.315 z" id="boundary" inkscape:connector-curvature="0" />
	<path style="fill:none;stroke:red;stroke-width:1px;stroke-linecap:butt;stroke-linejoin:miter;stroke-opacity:1" d="M 211.719,125.286 231.638,148.05 z" id="boundary" inkscape:connector-curvature="0" />
	<path style="fill:none;stroke:red;stroke-width:1px;stroke-linecap:butt;stroke-linejoin:miter;stroke-opacity:1" d="M 228.792,327.315 245.865,350.078 z" id="boundary" inkscape:connector-curvature="0" />
	<path style="fill:none;stroke:red;stroke-width:1px;stroke-linecap:butt;stroke-linejoin:miter;stroke-opacity:1" d="M 231.638,148.05 254.401,167.968 z" id="boundary" inkscape:connector-curvature="0" />
	<path style="fill:none;stroke:red;stroke-width:1px;stroke-linecap:butt;stroke-linejoin:miter;stroke-opacity:1" d="M 245.865,350.078 248.71,378.533 z" id="boundary" inkscape:connector-curvature="0" />
	<path style="fill:none;stroke:red;stroke-width:1px;stroke-linecap:butt;stroke-linejoin:miter;stroke-opacity:1" d="M 248.71,378.533 271.474,398.451 z" id="boundary" inkscape:connector-curvature="0" />
	<path style="fill:none;stroke:red;stroke-width:1px;stroke-linecap:butt;stroke-linejoin:miter;stroke-opacity:1" d="M 254.401,167.968 262.938,196.423 z" id="boundary" inkscape:connector-curvature="0" />
	<path style="fill:none;stroke:red;stroke-width:1px;stroke-linecap:butt;stroke-linejoin:miter;stroke-opacity:1" d="M 262.938,196.423 291.392,204.959 z" id="boundary" inkscape:connector-curvature="0" />
	<path style="fill:none;stroke:red;stroke-width:1px;stroke-linecap:butt;stroke-linejoin:miter;stroke-opacity:1" d="M 271.474,398.451 297.083,412.679 z" id="boundary" inkscape:connector-curvature="0" />
	<path style="fill:none;stroke:red;stroke-width:1px;stroke-linecap:butt;stroke-linejoin:miter;stroke-opacity:1" d="M 291.392,204.959 302.774,233.414 z" id="boundary" inkscape:connector-curvature="0" />
	<path style="fill:none;stroke:red;stroke-width:1px;stroke-linecap:butt;stroke-linejoin:miter;stroke-opacity:1" d="M 297.083,412.679 319.847,432.597 z" id="boundary" inkscape:connector-curvature="0" />
	<path style="fill:none;stroke:red;stroke-width:1px;stroke-linecap:butt;stroke-linejoin:miter;stroke-opacity:1" d="M 302.774,233.414 325.538,253.332 z" id="boundary" inkscape:connector-curvature="0" />
	<path style="fill:none;stroke:red;stroke-width:1px;stroke-linecap:butt;stroke-linejoin:miter;stroke-opacity:1" d="M 319.847,432.597 339.765,455.361 z" id="boundary" inkscape:connector-curvature="0" />
	<path style="fill:none;stroke:red;stroke-width:1px;stroke-linecap:butt;stroke-linejoin:miter;stroke-opacity:1" d="M 325.538,253.332 345.456,276.096 z" id="boundary" inkscape:connector-curvature="0" />
	<path style="fill:none;stroke:red;stroke-width:1px;stroke-linecap:butt;stroke-linejoin:miter;stroke-opacity:1" d="M 339.765,455.361 362.529,475.279 z" id="boundary" inkscape:connector-curvature="0" />
	<path style="fill:none;stroke:red;stroke-width:1px;stroke-linecap:butt;stroke-linejoin:miter;stroke-opacity:1" d="M 345.456,276.096 362.529,298.86 z" id="boundary" inkscape:connector-curvature="0" />
	<path style="fill:none;stroke:red;stroke-width:1px;stroke-linecap:butt;stroke-linejoin:miter;stroke-opacity:1" d="M 362.529,298.86 376.757,324.469 z" id="boundary" inkscape:connector-curvature="0" />
	<path style="fill:none;stroke:red;stroke-width:1px;stroke-linecap:butt;stroke-linejoin:miter;stroke-opacity:1" d="M 362.529,475.279 373.911,503.734 z" id="boundary" inkscape:connector-curvature="0" />
	<path style="fill:none;stroke:red;stroke-width:1px;stroke-linecap:butt;stroke-linejoin:miter;stroke-opacity:1" d="M 373.911,503.734 396.675,523.652 z" id="boundary" inkscape:connector-curvature="0" />
	<path style="fill:none;stroke:red;stroke-width:1px;stroke-linecap:butt;stroke-linejoin:miter;stroke-opacity:1" d="M 376.757,324.469 399.52,341.542 z" id="boundary" inkscape:connector-curvature="0" />
	<path style="fill:none;stroke:red;stroke-width:1px;stroke-linecap:butt;stroke-linejoin:miter;stroke-opacity:1" d="M 396.675,523.652 408.057,552.107 z" id="boundary" inkscape:connector-curvature="0" />
	<path style="fill:none;stroke:red;stroke-width:1px;stroke-linecap:butt;stroke-linejoin:miter;stroke-opacity:1" d="M 399.52,341.542 419.439,364.306 z" id="boundary" inkscape:connector-curvature="0" />
	<path style="fill:none;stroke:red;stroke-width:1px;stroke-linecap:butt;stroke-linejoin:miter;stroke-opacity:1" d="M 408.057,552.107 430.82,569.18 z" id="boundary" inkscape:connector-curvature="0" />
	<path style="fill:none;stroke:red;stroke-width:1px;stroke-linecap:butt;stroke-linejoin:miter;stroke-opacity:1" d="M 419.439,364.306 419.439,392.76 z" id="boundary" inkscape:connector-curvature="0" />
	<path style="fill:none;stroke:red;stroke-width:1px;stroke-linecap:butt;stroke-linejoin:miter;stroke-opacity:1" d="M 419.439,392.76 442.202,409.833 z" id="boundary" inkscape:connector-curvature="0" />
	<path style="fill:none;stroke:red;stroke-width:1px;stroke-linecap:butt;stroke-linejoin:miter;stroke-opacity:1" d="M 430.82,569.18 439.357,597.634 z" id="boundary" inkscape:connector-curvature="0" />
	<path style="fill:none;stroke:red;stroke-width:1px;stroke-linecap:butt;stroke-linejoin:miter;stroke-opacity:1" d="M 439.357,597.634 467.812,609.016 z" id="boundary" inkscape:connector-curvature="0" />
	<path style="fill:none;stroke:red;stroke-width:1px;stroke-linecap:butt;stroke-linejoin:miter;stroke-opacity:1" d="M 442.202,409.833 467.812,424.061 z" id="boundary" inkscape:connector-curvature="0" />
	<path style="fill:none;stroke:red;stroke-width:1px;stroke-linecap:butt;stroke-linejoin:miter;stroke-opacity:1" d="M 467.812,424.061 476.348,452.515 z" id="boundary" inkscape:connector-curvature="0" />
	<path style="fill:none;stroke:red;stroke-width:1px;stroke-linecap:butt;stroke-linejoin:miter;stroke-opacity:1" d="M 467.812,609.016 487.73,631.78 z" id="boundary" inkscape:connector-curvature="0" />
	<path style="fill:none;stroke:red;stroke-width:1px;stroke-linecap:butt;stroke-linejoin:miter;stroke-opacity:1" d="M 476.348,452.515 499.112,469.588 z" id="boundary" inkscape:connector-curvature="0" />
	<path style="fill:none;stroke:red;stroke-width:1px;stroke-linecap:butt;stroke-linejoin:miter;stroke-opacity:1" d="M 487.73,631.78 501.957,657.389 z" id="boundary" inkscape:connector-curvature="0" />
	<path style="fill:none;stroke:red;stroke-width:1px;stroke-linecap:butt;stroke-linejoin:miter;stroke-opacity:1" d="M 499.112,469.588 510.494,498.043 z" id="boundary" inkscape:connector-curvature="0" />
	<path style="fill:none;stroke:red;stroke-width:1px;stroke-linecap:butt;stroke-linejoin:miter;stroke-opacity:1" d="M 501.957,657.389 521.876,680.153 z" id="boundary" inkscape:connector-curvature="0" />
	<path style="fill:none;stroke:red;stroke-width:1px;stroke-linecap:butt;stroke-linejoin:miter;stroke-opacity:1" d="M 510.494,498.043 533.257,517.961 z" id="boundary" inkscape:connector-curvature="0" />
	<path style="fill:none;stroke:red;stroke-width:1px;stroke-linecap:butt;stroke-linejoin:miter;stroke-opacity:1" d="M 521.876,680.153 530.412,708.608 z" id="boundary" inkscape:connector-curvature="0" />
	<path style="fill:none;stroke:red;stroke-width:1px;stroke-linecap:butt;stroke-linejoin:miter;stroke-opacity:1" d="M 530.412,708.608 547.485,731.371 z" id="boundary" inkscape:connector-curvature="0" />
	<path style="fill:none;stroke:red;stroke-width:1px;stroke-linecap:butt;stroke-linejoin:miter;stroke-opacity:1" d="M 533.257,517.961 533.257,546.416 z" id="boundary" inkscape:connector-curvature="0" />
	<path style="fill:none;stroke:red;stroke-width:1px;stroke-linecap:butt;stroke-linejoin:miter;stroke-opacity:1" d="M 533.257,546.416 553.176,569.18 z" id="boundary" inkscape:connector-curvature="0" />
	<path style="fill:none;stroke:red;stroke-width:1px;stroke-linecap:butt;stroke-linejoin:miter;stroke-opacity:1" d="M 544.639,902.099 544.639,930.554 z" id="boundary" inkscape:connector-curvature="0" />
	<path style="fill:none;stroke:red;stroke-width:1px;stroke-linecap:butt;stroke-linejoin:miter;stroke-opacity:1" d="M 544.639,902.099 573.094,887.872 z" id="boundary" inkscape:connector-curvature="0" />
	<path style="fill:none;stroke:red;stroke-width:1px;stroke-linecap:butt;stroke-linejoin:miter;stroke-opacity:1" d="M 544.639,930.554 544.639,959.009 z" id="boundary" inkscape:connector-curvature="0" />
	<path style="fill:none;stroke:red;stroke-width:1px;stroke-linecap:butt;stroke-linejoin:miter;stroke-opacity:1" d="M 544.639,959.009 558.867,984.618 z" id="boundary" inkscape:connector-curvature="0" />
	<path style="fill:none;stroke:red;stroke-width:1px;stroke-linecap:butt;stroke-linejoin:miter;stroke-opacity:1" d="M 547.485,731.371 558.867,759.826 z" id="boundary" inkscape:connector-curvature="0" />
	<path style="fill:none;stroke:red;stroke-width:1px;stroke-linecap:butt;stroke-linejoin:miter;stroke-opacity:1" d="M 553.176,569.18 567.403,594.789 z" id="boundary" inkscape:connector-curvature="0" />
	<path style="fill:none;stroke:red;stroke-width:1px;stroke-linecap:butt;stroke-linejoin:miter;stroke-opacity:1" d="M 558.867,759.826 581.63,779.744 z" id="boundary" inkscape:connector-curvature="0" />
	<path style="fill:none;stroke:red;stroke-width:1px;stroke-linecap:butt;stroke-linejoin:miter;stroke-opacity:1" d="M 558.867,984.618 587.321,996 z" id="boundary" inkscape:connector-curvature="0" />
	<path style="fill:none;stroke:red;stroke-width:1px;stroke-linecap:butt;stroke-linejoin:miter;stroke-opacity:1" d="M 567.403,594.789 587.321,617.553 z" id="boundary" inkscape:connector-curvature="0" />
	<path style="fill:none;stroke:red;stroke-width:1px;stroke-linecap:butt;stroke-linejoin:miter;stroke-opacity:1" d="M 573.094,887.872 601.549,879.336 z" id="boundary" inkscape:connector-curvature="0" />
	<path style="fill:none;stroke:red;stroke-width:1px;stroke-linecap:butt;stroke-linejoin:miter;stroke-opacity:1" d="M 581.63,779.744 593.012,808.199 z" id="boundary" inkscape:connector-curvature="0" />
	<path style="fill:none;stroke:red;stroke-width:1px;stroke-linecap:butt;stroke-linejoin:miter;stroke-opacity:1" d="M 587.321,617.553 601.549,643.162 z" id="boundary" inkscape:connector-curvature="0" />
	<path style="fill:none;stroke:red;stroke-width:1px;stroke-linecap:butt;stroke-linejoin:miter;stroke-opacity:1" d="M 587.321,996 615.776,996 z" id="boundary" inkscape:connector-curvature="0" />
	<path style="fill:none;stroke:red;stroke-width:1px;stroke-linecap:butt;stroke-linejoin:miter;stroke-opacity:1" d="M 593.012,808.199 615.776,825.272 z" id="boundary" inkscape:connector-curvature="0" />
	<path style="fill:none;stroke:red;stroke-width:1px;stroke-linecap:butt;stroke-linejoin:miter;stroke-opacity:1" d="M 601.549,643.162 627.158,657.389 z" id="boundary" inkscape:connector-curvature="0" />
	<path style="fill:none;stroke:red;stroke-width:1px;stroke-linecap:butt;stroke-linejoin:miter;stroke-opacity:1" d="M 601.549,879.336 630.003,879.336 z" id="boundary" inkscape:connector-curvature="0" />
	<path style="fill:none;stroke:red;stroke-width:1px;stroke-linecap:butt;stroke-linejoin:miter;stroke-opacity:1" d="M 615.776,825.272 630.003,850.881 z" id="boundary" inkscape:connector-curvature="0" />
	<path style="fill:none;stroke:red;stroke-width:1px;stroke-linecap:butt;stroke-linejoin:miter;stroke-opacity:1" d="M 615.776,996 638.54,978.927 z" id="boundary" inkscape:connector-curvature="0" />
	<path style="fill:none;stroke:red;stroke-width:1px;stroke-linecap:butt;stroke-linejoin:miter;stroke-opacity:1" d="M 627.158,657.389 647.076,680.153 z" id="boundary" inkscape:connector-curvature="0" />
	<path style="fill:none;stroke:red;stroke-width:1px;stroke-linecap:butt;stroke-linejoin:miter;stroke-opacity:1" d="M 630.003,850.881 630.003,879.336 z" id="boundary" inkscape:connector-curvature="0" />
	<path style="fill:none;stroke:red;stroke-width:1px;stroke-linecap:butt;stroke-linejoin:miter;stroke-opacity:1" d="M 638.54,978.927 661.304,953.318 z" id="boundary" inkscape:connector-curvature="0" />
	<path style="fill:none;stroke:red;stroke-width:1px;stroke-linecap:butt;stroke-linejoin:miter;stroke-opacity:1" d="M 647.076,680.153 661.216,705.811 z" id="boundary" inkscape:connector-curvature="0" />
	<path style="fill:none;stroke:red;stroke-width:1px;stroke-linecap:butt;stroke-linejoin:miter;stroke-opacity:1" d="M 661.216,705.811 673.885,732.286 z" id="boundary" inkscape:connector-curvature="0" />
	<path style="fill:none;stroke:red;stroke-width:1px;stroke-linecap:butt;stroke-linejoin:miter;stroke-opacity:1" d="M 661.304,953.318 689.758,953.318 z" id="boundary" inkscape:connector-curvature="0" />
	<path style="fill:none;stroke:red;stroke-width:1px;stroke-linecap:butt;stroke-linejoin:miter;stroke-opacity:1" d="M 673.885,732.286 689.758,756.981 z" id="boundary" inkscape:connector-curvature="0" />
	<path style="fill:none;stroke:red;stroke-width:1px;stroke-linecap:butt;stroke-linejoin:miter;stroke-opacity:1" d="M 689.758,756.981 718.213,759.826 z" id="boundary" inkscape:connector-curvature="0" />
	<path style="fill:none;stroke:red;stroke-width:1px;stroke-linecap:butt;stroke-linejoin:miter;stroke-opacity:1" d="M 689.758,953.318 718.213,953.318 z" id="boundary" inkscape:connector-curvature="0" />
	<path style="fill:none;stroke:red;stroke-width:1px;stroke-linecap:butt;stroke-linejoin:miter;stroke-opacity:1" d="M 718.213,759.826 746.668,756.981 z" id="boundary" inkscape:connector-curvature="0" />
	<path style="fill:none;stroke:red;stroke-width:1px;stroke-linecap:butt;stroke-linejoin:miter;stroke-opacity:1" d="M 718.213,953.318 743.822,939.091 z" id="boundary" inkscape:connector-curvature="0" />
	<path style="fill:none;stroke:red;stroke-width:1px;stroke-linecap:butt;stroke-linejoin:miter;stroke-opacity:1" d="M 743.822,939.091 766.586,922.018 z" id="boundary" inkscape:connector-curvature="0" />
	<path style="fill:none;stroke:red;stroke-width:1px;stroke-linecap:butt;stroke-linejoin:miter;stroke-opacity:1" d="M 746.668,756.981 769.431,737.062 z" id="boundary" inkscape:connector-curvature="0" />
	<path style="fill:none;stroke:red;stroke-width:1px;stroke-linecap:butt;stroke-linejoin:miter;stroke-opacity:1" d="M 766.586,922.018 795.041,907.79 z" id="boundary" inkscape:connector-curvature="0" />
	<path style="fill:none;stroke:red;stroke-width:1px;stroke-linecap:butt;stroke-linejoin:miter;stroke-opacity:1" d="M 769.431,737.062 797.886,737.062 z" id="boundary" inkscape:connector-curvature="0" />
	<path style="fill:none;stroke:red;stroke-width:1px;stroke-linecap:butt;stroke-linejoin:miter;stroke-opacity:1" d="M 795.041,907.79 817.804,882.181 z" id="boundary" inkscape:connector-curvature="0" />
	<path style="fill:none;stroke:red;stroke-width:1px;stroke-linecap:butt;stroke-linejoin:miter;stroke-opacity:1" d="M 797.886,737.062 823.495,722.835 z" id="boundary" inkscape:connector-curvature="0" />
	<path style="fill:none;stroke:red;stroke-width:1px;stroke-linecap:butt;stroke-linejoin:miter;stroke-opacity:1" d="M 817.804,882.181 843.414,867.954 z" id="boundary" inkscape:connector-curvature="0" />
	<path style="fill:none;stroke:red;stroke-width:1px;stroke-linecap:butt;stroke-linejoin:miter;stroke-opacity:1" d="M 823.495,722.835 851.95,722.835 z" id="boundary" inkscape:connector-curvature="0" />
	<path style="fill:none;stroke:red;stroke-width:1px;stroke-linecap:butt;stroke-linejoin:miter;stroke-opacity:1" d="M 843.414,867.954 860.486,839.499 z" id="boundary" inkscape:connector-curvature="0" />
	<path style="fill:none;stroke:red;stroke-width:1px;stroke-linecap:butt;stroke-linejoin:miter;stroke-opacity:1" d="M 851.95,722.835 871.868,745.599 z" id="boundary" inkscape:connector-curvature="0" />
	<path style="fill:none;stroke:red;stroke-width:1px;stroke-linecap:butt;stroke-linejoin:miter;stroke-opacity:1" d="M 860.486,839.499 883.25,819.581 z" id="boundary" inkscape:connector-curvature="0" />
	<path style="fill:none;stroke:red;stroke-width:1px;stroke-linecap:butt;stroke-linejoin:miter;stroke-opacity:1" d="M 871.868,745.599 888.941,768.362 z" id="boundary" inkscape:connector-curvature="0" />
	<path style="fill:none;stroke:red;stroke-width:1px;stroke-linecap:butt;stroke-linejoin:miter;stroke-opacity:1" d="M 883.25,819.581 888.941,768.362 z" id="boundary" inkscape:connector-curvature="0" />
	<circle cx="4" cy="62.6859" r="4" fill="#0" id="circle0"/>
	<circle cx="4" cy="91.1406" r="4" fill="#0" id="circle1"/>
	<circle cx="18.2273" cy="34.2312" r="4" fill="#0" id="circle2"/>
	<circle cx="26.7638" cy="111.059" r="4" fill="#0" id="circle3"/>
	<circle cx="40.9911" cy="11.4674" r="4" fill="#0" id="circle4"/>
	<circle cx="46.682" cy="133.823" r="4" fill="#0" id="circle5"/>
	<circle cx="69.4458" cy="32.0287" r="4" fill="#0" id="circle6"/>
	<circle cx="69.4458" cy="153.741" r="4" fill="#0" id="circle7"/>
	<circle cx="89.3641" cy="176.505" r="4" fill="#0" id="circle8"/>
	<circle cx="97.9005" cy="4" r="4" fill="#0" id="circle9"/>
	<circle cx="106.437" cy="199.268" r="4" fill="#0" id="circle10"/>
	<circle cx="123.51" cy="222.032" r="4" fill="#0" id="circle11"/>
	<circle cx="126.355" cy="11.4674" r="4" fill="#0" id="circle12"/>
	<circle cx="146.273" cy="241.95" r="4" fill="#0" id="circle13"/>
	<circle cx="149.119" cy="28.5402" r="4" fill="#0" id="circle14"/>
	<circle cx="154.81" cy="56.9949" r="4" fill="#0" id="circle15"/>
	<circle cx="163.346" cy="264.714" r="4" fill="#0" id="circle16"/>
	<circle cx="177.574" cy="76.9132" r="4" fill="#0" id="circle17"/>
	<circle cx="186.11" cy="284.633" r="4" fill="#0" id="circle18"/>
	<circle cx="197.492" cy="99.677" r="4" fill="#0" id="circle19"/>
	<circle cx="206.028" cy="307.396" r="4" fill="#0" id="circle20"/>
	<circle cx="211.719" cy="125.286" r="4" fill="#0" id="circle21"/>
	<circle cx="228.792" cy="327.315" r="4" fill="#0" id="circle22"/>
	<circle cx="231.638" cy="148.05" r="4" fill="#0" id="circle23"/>
	<circle cx="245.865" cy="350.078" r="4" fill="#0" id="circle24"/>
	<circle cx="248.71" cy="378.533" r="4" fill="#0" id="circle25"/>
	<circle cx="254.401" cy="167.968" r="4" fill="#0" id="circle26"/>
	<circle cx="262.938" cy="196.423" r="4" fill="#0" id="circle27"/>
	<circle cx="271.474" cy="398.451" r="4" fill="#0" id="circle28"/>
	<circle cx="291.392" cy="204.959" r="4" fill="#0" id="circle29"/>
	<circle cx="297.083" cy="412.679" r="4" fill="#0" id="circle30"/>
	<circle cx="302.774" cy="233.414" r="4" fill="#0" id="circle31"/>
	<circle cx="319.847" cy="432.597" r="4" fill="#0" id="circle32"/>
	<circle cx="325.538" cy="253.332" r="4" fill="#0" id="circle33"/>
	<circle cx="339.765" cy="455.361" r="4" fill="#0" id="circle34"/>
	<circle cx="345.456" cy="276.096" r="4" fill="#0" id="circle35"/>
	<circle cx="362.529" cy="298.86" r="4" fill="#0" id="circle36"/>
	<circle cx="362.529" cy="475.279" r="4" fill="#0" id="circle37"/>
	<circle cx="373.911" cy="503.734" r="4" fill="#0" id="circle38"/>
	<circle cx="376.757" cy="324.469" r="4" fill="#0" id="circle39"/>
	<circle cx="396.675" cy="523.652" r="4" fill="#0" id="circle40"/>
	<circle cx="399.52" cy="341.542" r="4" fill="#0" id="circle41"/>
	<circle cx="408.057" cy="552.107" r="4" fill="#0" id="circle42"/>
	<circle cx="419.439" cy="364.306" r="4" fill="#0" id="circle43"/>
	<circle cx="419.439" cy="392.76" r="4" fill="#0" id="circle44"/>
	<circle cx="430.82" cy="569.18" r="4" fill="#0" id="circle45"/>
	<circle cx="439.357" cy="597.634" r="4" fill="#0" id="circle46"/>
	<circle cx="442.202" cy="409.833" r="4" fill="#0" id="circle47"/>
	<circle cx="467.812" cy="424.061" r="4" fill="#0" id="circle48"/>
	<circle cx="467.812" cy="609.016" r="4" fill="#0" id="circle49"/>
	<circle cx="476.348" cy="452.515" r="4" fill="#0" id="circle50"/>
	<circle cx="487.73" cy="631.78" r="4" fill="#0" id="circle51"/>
	<circle cx="499.112" cy="469.588" r="4" fill="#0" id="circle52"/>
	<circle cx="501.957" cy="657.389" r="4" fill="#0" id="circle53"/>
	<circle cx="510.494" cy="498.043" r="4" fill="#0" id="circle54"/>
	<circle cx="521.876" cy="680.153" r="4" fill="#0" id="circle55"/>
	<circle cx="530.412" cy="708.608" r="4" fill="#0" id="circle56"/>
	<circle cx="533.257" cy="517.961" r="4" fill="#0" id="circle57"/>
	<circle cx="533.257" cy="546.416" r="4" fill="#0" id="circle58"/>
	<circle cx="544.639" cy="902.099" r="4" fill="#0" id="circle59"/>
	<circle cx="544.639" cy="930.554" r="4" fill="#0" id="circle60"/>
	<circle cx="544.639" cy="959.009" r="4" fill="#0" id="circle61"/>
	<circle cx="547.485" cy="731.371" r="4" fill="#0" id="circle62"/>
	<circle cx="553.176" cy="569.18" r="4" fill="#0" id="circle63"/>
	<circle cx="558.867" cy="759.826" r="4" fill="#0" id="circle64"/>
	<circle cx="558.867" cy="984.618" r="4" fill="#0" id="circle65"/>
	<circle cx="567.403" cy="594.789" r="4" fill="#0" id="circle66"/>
	<circle cx="573.094" cy="887.872" r="4" fill="#0" id="circle67"/>
	<circle cx="581.63" cy="779.744" r="4" fill="#0" id="circle68"/>
	<circle cx="587.321" cy="617.553" r="4" fill="#0" id="circle69"/>
	<circle cx="587.321" cy="996" r="4" fill="#0" id="circle70"/>
	<circle cx="593.012" cy="808.199" r="4" fill="#0" id="circle71"/>
	<circle cx="601.549" cy="643.162" r="4" fill="#0" id="circle72"/>
	<circle cx="601.549" cy="879.336" r="4" fill="#0" id="circle73"/>
	<circle cx="615.776" cy="825.272" r="4" fill="#0" id="circle74"/>
	<circle cx="615.776" cy="996" r="4" fill="#0" id="circle75"/>
	<circle cx="627.158" cy="657.389" r="4" fill="#0" id="circle76"/>
	<circle cx="630.003" cy="850.881" r="4" fill="#0" id="circle77"/>
	<circle cx="630.003" cy="879.336" r="4" fill="#0" id="circle78"/>
	<circle cx="638.54" cy="978.927" r="4" fill="#0" id="circle79"/>
	<circle cx="647.076" cy="680.153" r="4" fill="#0" id="circle80"/>
	<circle cx="661.216" cy="705.811" r="4" fill="#0" id="circle81"/>
	<circle cx="661.304" cy="953.318" r="4" fill="#0" id="circle82"/>
	<circle cx="673.885" cy="732.286" r="4" fill="#0" id="circle83"/>
	<circle cx="689.758" cy="756.981" r="4" fill="#0" id="circle84"/>
	<circle cx="689.758" cy="953.318" r="4" fill="#0" id="circle85"/>
	<circle cx="718.213" cy="759.826" r="4" fill="#0" id="circle86"/>
	<circle cx="718.213" cy="953.318" r="4" fill="#0" id="circle87"/>
	<circle cx="743.822" cy="939.091" r="4" fill="#0" id="circle88"/>
	<circle cx="746.668" cy="756.981" r="4" fill="#0" id="circle89"/>
	<circle cx="766.586" cy="922.018" r="4" fill="#0" id="circle90"/>
	<circle cx="769.431" cy="737.062" r="4" fill="#0" id="circle91"/>
	<circle cx="795.041" cy="907.79" r="4" fill="#0" id="circle92"/>
	<circle cx="797.886" cy="737.062" r="4" fill="#0" id="circle93"/>
	<circle cx="817.804" cy="882.181" r="4" fill="#0" id="circle94"/>
	<circle cx="823.495" cy="722.835" r="4" fill="#0" id="circle95"/>
	<circle cx="843.414" cy="867.954" r="4" fill="#0" id="circle96"/>
	<circle cx="851.95" cy="722.835" r="4" fill="#0" id="circle97"/>
	<circle cx="860.486" cy="839.499" r="4" fill="#0" id="circle98"/>
	<circle cx="871.868" cy="745.599" r="4" fill="#0" id="circle99"/>
	<circle cx="883.25" cy="819.581" r="4" fill="#0" id="circle100"/>
	<circle cx="888.941" cy="768.362" r="4" fill="#0" id="circle101"/>
	</g>
</svg>