<?xml version="1.0" encoding="UTF-8" standalone="no"?>
<!-- Created with CurveBenchmark -->
<svg
	xmlns:dc="http://purl.org/dc/elements/1.1/"
	xmlns:cc="http://creativecommons.org/ns#"
	xmlns:rdf="http://www.w3.org/1999/02/22-rdf-syntax-ns#"
	xmlns:svg="http://www.w3.org/2000/svg"
	xmlns="http://www.w3.org/2000/svg"
	xmlns:sodipodi="http://sodipodi.sourceforge.net/DTD/sodipodi-0.dtd"
	xmlns:inkscape="http://www.inkscape.org/namespaces/inkscape"
	width="1000"
	height="1000"
	id="svg2"
	version="1.1"
	sodipodi:docname="manifold/stretchdenoise-television330.png.txt">
<defs
	id="defs4" />
<metadata
	id="metadata7">
	<rdf:RDF>
		<cc:Work
			rdf:about="">
			<dc:format>image/svg+xml</dc:format>
			<dc:type
				rdf:resource="http://purl.org/dc/dcmitype/StillImage" />
			<dc:title></dc:title>
		</cc:Work>
	</rdf:RDF>
</metadata>
<g
	inkscape:label="Layer 1"
	inkscape:groupmode="layer"
	id="layer1">
	<path style="fill:none;stroke:red;stroke-width:1px;stroke-linecap:butt;stroke-linejoin:miter;stroke-opacity:1" d="M 4,773.712 4,806.89 z" id="boundary" inkscape:connector-curvature="0" />
	<path style="fill:none;stroke:red;stroke-width:1px;stroke-linecap:butt;stroke-linejoin:miter;stroke-opacity:1" d="M 4,773.712 36.2457,755.903 z" id="boundary" inkscape:connector-curvature="0" />
	<path style="fill:none;stroke:red;stroke-width:1px;stroke-linecap:butt;stroke-linejoin:miter;stroke-opacity:1" d="M 4,806.89 27.2241,833.431 z" id="boundary" inkscape:connector-curvature="0" />
	<path style="fill:none;stroke:red;stroke-width:1px;stroke-linecap:butt;stroke-linejoin:miter;stroke-opacity:1" d="M 27.2241,833.431 60.4013,840.067 z" id="boundary" inkscape:connector-curvature="0" />
	<path style="fill:none;stroke:red;stroke-width:1px;stroke-linecap:butt;stroke-linejoin:miter;stroke-opacity:1" d="M 36.2457,755.903 70.5308,762.692 z" id="boundary" inkscape:connector-curvature="0" />
	<path style="fill:none;stroke:red;stroke-width:1px;stroke-linecap:butt;stroke-linejoin:miter;stroke-opacity:1" d="M 60.4013,840.067 93.5786,830.114 z" id="boundary" inkscape:connector-curvature="0" />
	<path style="fill:none;stroke:red;stroke-width:1px;stroke-linecap:butt;stroke-linejoin:miter;stroke-opacity:1" d="M 93.5786,830.114 126.756,830.114 z" id="boundary" inkscape:connector-curvature="0" />
	<path style="fill:none;stroke:red;stroke-width:1px;stroke-linecap:butt;stroke-linejoin:miter;stroke-opacity:1" d="M 96.8963,568.013 123.438,690.769 z" id="boundary" inkscape:connector-curvature="0" />
	<path style="fill:none;stroke:red;stroke-width:1px;stroke-linecap:butt;stroke-linejoin:miter;stroke-opacity:1" d="M 96.8963,568.013 143.344,554.742 z" id="boundary" inkscape:connector-curvature="0" />
	<path style="fill:none;stroke:red;stroke-width:1px;stroke-linecap:butt;stroke-linejoin:miter;stroke-opacity:1" d="M 103.532,760.441 136.709,760.441 z" id="boundary" inkscape:connector-curvature="0" />
	<path style="fill:none;stroke:red;stroke-width:1px;stroke-linecap:butt;stroke-linejoin:miter;stroke-opacity:1" d="M 123.438,690.769 173.204,660.91 z" id="boundary" inkscape:connector-curvature="0" />
	<path style="fill:none;stroke:red;stroke-width:1px;stroke-linecap:butt;stroke-linejoin:miter;stroke-opacity:1" d="M 126.756,830.114 159.933,836.749 z" id="boundary" inkscape:connector-curvature="0" />
	<path style="fill:none;stroke:red;stroke-width:1px;stroke-linecap:butt;stroke-linejoin:miter;stroke-opacity:1" d="M 136.709,760.441 169.886,760.441 z" id="boundary" inkscape:connector-curvature="0" />
	<path style="fill:none;stroke:red;stroke-width:1px;stroke-linecap:butt;stroke-linejoin:miter;stroke-opacity:1" d="M 143.344,10.6355 143.344,43.8127 z" id="boundary" inkscape:connector-curvature="0" />
	<path style="fill:none;stroke:red;stroke-width:1px;stroke-linecap:butt;stroke-linejoin:miter;stroke-opacity:1" d="M 143.344,10.6355 176.522,4 z" id="boundary" inkscape:connector-curvature="0" />
	<path style="fill:none;stroke:red;stroke-width:1px;stroke-linecap:butt;stroke-linejoin:miter;stroke-opacity:1" d="M 143.344,43.8127 143.344,76.99 z" id="boundary" inkscape:connector-curvature="0" />
	<path style="fill:none;stroke:red;stroke-width:1px;stroke-linecap:butt;stroke-linejoin:miter;stroke-opacity:1" d="M 143.344,76.99 143.344,110.167 z" id="boundary" inkscape:connector-curvature="0" />
	<path style="fill:none;stroke:red;stroke-width:1px;stroke-linecap:butt;stroke-linejoin:miter;stroke-opacity:1" d="M 143.344,110.167 143.344,143.344 z" id="boundary" inkscape:connector-curvature="0" />
	<path style="fill:none;stroke:red;stroke-width:1px;stroke-linecap:butt;stroke-linejoin:miter;stroke-opacity:1" d="M 143.344,143.344 143.344,176.522 z" id="boundary" inkscape:connector-curvature="0" />
	<path style="fill:none;stroke:red;stroke-width:1px;stroke-linecap:butt;stroke-linejoin:miter;stroke-opacity:1" d="M 143.344,176.522 143.344,209.699 z" id="boundary" inkscape:connector-curvature="0" />
	<path style="fill:none;stroke:red;stroke-width:1px;stroke-linecap:butt;stroke-linejoin:miter;stroke-opacity:1" d="M 143.344,209.699 143.344,242.876 z" id="boundary" inkscape:connector-curvature="0" />
	<path style="fill:none;stroke:red;stroke-width:1px;stroke-linecap:butt;stroke-linejoin:miter;stroke-opacity:1" d="M 143.344,242.876 143.344,276.054 z" id="boundary" inkscape:connector-curvature="0" />
	<path style="fill:none;stroke:red;stroke-width:1px;stroke-linecap:butt;stroke-linejoin:miter;stroke-opacity:1" d="M 143.344,276.054 143.344,309.231 z" id="boundary" inkscape:connector-curvature="0" />
	<path style="fill:none;stroke:red;stroke-width:1px;stroke-linecap:butt;stroke-linejoin:miter;stroke-opacity:1" d="M 143.344,309.231 143.344,342.408 z" id="boundary" inkscape:connector-curvature="0" />
	<path style="fill:none;stroke:red;stroke-width:1px;stroke-linecap:butt;stroke-linejoin:miter;stroke-opacity:1" d="M 143.344,342.408 143.344,375.585 z" id="boundary" inkscape:connector-curvature="0" />
	<path style="fill:none;stroke:red;stroke-width:1px;stroke-linecap:butt;stroke-linejoin:miter;stroke-opacity:1" d="M 143.344,375.585 143.344,408.763 z" id="boundary" inkscape:connector-curvature="0" />
	<path style="fill:none;stroke:red;stroke-width:1px;stroke-linecap:butt;stroke-linejoin:miter;stroke-opacity:1" d="M 143.344,408.763 146.662,441.94 z" id="boundary" inkscape:connector-curvature="0" />
	<path style="fill:none;stroke:red;stroke-width:1px;stroke-linecap:butt;stroke-linejoin:miter;stroke-opacity:1" d="M 143.344,554.742 159.933,584.602 z" id="boundary" inkscape:connector-curvature="0" />
	<path style="fill:none;stroke:red;stroke-width:1px;stroke-linecap:butt;stroke-linejoin:miter;stroke-opacity:1" d="M 146.662,441.94 179.839,445.258 z" id="boundary" inkscape:connector-curvature="0" />
	<path style="fill:none;stroke:red;stroke-width:1px;stroke-linecap:butt;stroke-linejoin:miter;stroke-opacity:1" d="M 159.933,584.602 209.699,554.742 z" id="boundary" inkscape:connector-curvature="0" />
	<path style="fill:none;stroke:red;stroke-width:1px;stroke-linecap:butt;stroke-linejoin:miter;stroke-opacity:1" d="M 159.933,836.749 193.11,833.431 z" id="boundary" inkscape:connector-curvature="0" />
	<path style="fill:none;stroke:red;stroke-width:1px;stroke-linecap:butt;stroke-linejoin:miter;stroke-opacity:1" d="M 169.886,760.441 203.064,760.441 z" id="boundary" inkscape:connector-curvature="0" />
	<path style="fill:none;stroke:red;stroke-width:1px;stroke-linecap:butt;stroke-linejoin:miter;stroke-opacity:1" d="M 173.204,660.91 222.97,690.769 z" id="boundary" inkscape:connector-curvature="0" />
	<path style="fill:none;stroke:red;stroke-width:1px;stroke-linecap:butt;stroke-linejoin:miter;stroke-opacity:1" d="M 176.522,4 209.699,4 z" id="boundary" inkscape:connector-curvature="0" />
	<path style="fill:none;stroke:red;stroke-width:1px;stroke-linecap:butt;stroke-linejoin:miter;stroke-opacity:1" d="M 179.839,445.258 213.017,445.258 z" id="boundary" inkscape:connector-curvature="0" />
	<path style="fill:none;stroke:red;stroke-width:1px;stroke-linecap:butt;stroke-linejoin:miter;stroke-opacity:1" d="M 193.11,833.431 226.288,830.114 z" id="boundary" inkscape:connector-curvature="0" />
	<path style="fill:none;stroke:red;stroke-width:1px;stroke-linecap:butt;stroke-linejoin:miter;stroke-opacity:1" d="M 203.064,760.441 236.241,760.441 z" id="boundary" inkscape:connector-curvature="0" />
	<path style="fill:none;stroke:red;stroke-width:1px;stroke-linecap:butt;stroke-linejoin:miter;stroke-opacity:1" d="M 209.699,4 242.876,4 z" id="boundary" inkscape:connector-curvature="0" />
	<path style="fill:none;stroke:red;stroke-width:1px;stroke-linecap:butt;stroke-linejoin:miter;stroke-opacity:1" d="M 209.699,554.742 259.465,584.602 z" id="boundary" inkscape:connector-curvature="0" />
	<path style="fill:none;stroke:red;stroke-width:1px;stroke-linecap:butt;stroke-linejoin:miter;stroke-opacity:1" d="M 213.017,445.258 246.194,445.258 z" id="boundary" inkscape:connector-curvature="0" />
	<path style="fill:none;stroke:red;stroke-width:1px;stroke-linecap:butt;stroke-linejoin:miter;stroke-opacity:1" d="M 222.97,690.769 272.736,660.91 z" id="boundary" inkscape:connector-curvature="0" />
	<path style="fill:none;stroke:red;stroke-width:1px;stroke-linecap:butt;stroke-linejoin:miter;stroke-opacity:1" d="M 226.288,830.114 259.465,830.114 z" id="boundary" inkscape:connector-curvature="0" />
	<path style="fill:none;stroke:red;stroke-width:1px;stroke-linecap:butt;stroke-linejoin:miter;stroke-opacity:1" d="M 236.241,760.441 269.418,760.441 z" id="boundary" inkscape:connector-curvature="0" />
	<path style="fill:none;stroke:red;stroke-width:1px;stroke-linecap:butt;stroke-linejoin:miter;stroke-opacity:1" d="M 242.876,4 276.054,4 z" id="boundary" inkscape:connector-curvature="0" />
	<path style="fill:none;stroke:red;stroke-width:1px;stroke-linecap:butt;stroke-linejoin:miter;stroke-opacity:1" d="M 246.194,445.258 279.371,445.258 z" id="boundary" inkscape:connector-curvature="0" />
	<path style="fill:none;stroke:red;stroke-width:1px;stroke-linecap:butt;stroke-linejoin:miter;stroke-opacity:1" d="M 259.465,584.602 276.054,554.742 z" id="boundary" inkscape:connector-curvature="0" />
	<path style="fill:none;stroke:red;stroke-width:1px;stroke-linecap:butt;stroke-linejoin:miter;stroke-opacity:1" d="M 259.465,830.114 292.642,830.114 z" id="boundary" inkscape:connector-curvature="0" />
	<path style="fill:none;stroke:red;stroke-width:1px;stroke-linecap:butt;stroke-linejoin:miter;stroke-opacity:1" d="M 269.418,760.441 302.595,760.441 z" id="boundary" inkscape:connector-curvature="0" />
	<path style="fill:none;stroke:red;stroke-width:1px;stroke-linecap:butt;stroke-linejoin:miter;stroke-opacity:1" d="M 272.736,660.91 289.324,690.769 z" id="boundary" inkscape:connector-curvature="0" />
	<path style="fill:none;stroke:red;stroke-width:1px;stroke-linecap:butt;stroke-linejoin:miter;stroke-opacity:1" d="M 276.054,4 309.231,4 z" id="boundary" inkscape:connector-curvature="0" />
	<path style="fill:none;stroke:red;stroke-width:1px;stroke-linecap:butt;stroke-linejoin:miter;stroke-opacity:1" d="M 276.054,554.742 309.231,554.742 z" id="boundary" inkscape:connector-curvature="0" />
	<path style="fill:none;stroke:red;stroke-width:1px;stroke-linecap:butt;stroke-linejoin:miter;stroke-opacity:1" d="M 279.371,445.258 312.548,445.258 z" id="boundary" inkscape:connector-curvature="0" />
	<path style="fill:none;stroke:red;stroke-width:1px;stroke-linecap:butt;stroke-linejoin:miter;stroke-opacity:1" d="M 289.324,690.769 305.913,660.91 z" id="boundary" inkscape:connector-curvature="0" />
	<path style="fill:none;stroke:red;stroke-width:1px;stroke-linecap:butt;stroke-linejoin:miter;stroke-opacity:1" d="M 292.642,830.114 325.819,830.114 z" id="boundary" inkscape:connector-curvature="0" />
	<path style="fill:none;stroke:red;stroke-width:1px;stroke-linecap:butt;stroke-linejoin:miter;stroke-opacity:1" d="M 302.595,760.441 335.773,760.441 z" id="boundary" inkscape:connector-curvature="0" />
	<path style="fill:none;stroke:red;stroke-width:1px;stroke-linecap:butt;stroke-linejoin:miter;stroke-opacity:1" d="M 305.913,660.91 355.679,690.769 z" id="boundary" inkscape:connector-curvature="0" />
	<path style="fill:none;stroke:red;stroke-width:1px;stroke-linecap:butt;stroke-linejoin:miter;stroke-opacity:1" d="M 309.231,4 342.408,4 z" id="boundary" inkscape:connector-curvature="0" />
	<path style="fill:none;stroke:red;stroke-width:1px;stroke-linecap:butt;stroke-linejoin:miter;stroke-opacity:1" d="M 309.231,554.742 358.997,584.602 z" id="boundary" inkscape:connector-curvature="0" />
	<path style="fill:none;stroke:red;stroke-width:1px;stroke-linecap:butt;stroke-linejoin:miter;stroke-opacity:1" d="M 312.548,445.258 345.726,445.258 z" id="boundary" inkscape:connector-curvature="0" />
	<path style="fill:none;stroke:red;stroke-width:1px;stroke-linecap:butt;stroke-linejoin:miter;stroke-opacity:1" d="M 325.819,830.114 358.997,830.114 z" id="boundary" inkscape:connector-curvature="0" />
	<path style="fill:none;stroke:red;stroke-width:1px;stroke-linecap:butt;stroke-linejoin:miter;stroke-opacity:1" d="M 335.773,760.441 368.95,757.124 z" id="boundary" inkscape:connector-curvature="0" />
	<path style="fill:none;stroke:red;stroke-width:1px;stroke-linecap:butt;stroke-linejoin:miter;stroke-opacity:1" d="M 342.408,4 375.585,4 z" id="boundary" inkscape:connector-curvature="0" />
	<path style="fill:none;stroke:red;stroke-width:1px;stroke-linecap:butt;stroke-linejoin:miter;stroke-opacity:1" d="M 345.726,445.258 368.95,471.799 z" id="boundary" inkscape:connector-curvature="0" />
	<path style="fill:none;stroke:red;stroke-width:1px;stroke-linecap:butt;stroke-linejoin:miter;stroke-opacity:1" d="M 355.679,690.769 368.95,723.946 z" id="boundary" inkscape:connector-curvature="0" />
	<path style="fill:none;stroke:red;stroke-width:1px;stroke-linecap:butt;stroke-linejoin:miter;stroke-opacity:1" d="M 358.997,584.602 368.95,617.779 z" id="boundary" inkscape:connector-curvature="0" />
	<path style="fill:none;stroke:red;stroke-width:1px;stroke-linecap:butt;stroke-linejoin:miter;stroke-opacity:1" d="M 358.997,830.114 392.174,830.114 z" id="boundary" inkscape:connector-curvature="0" />
	<path style="fill:none;stroke:red;stroke-width:1px;stroke-linecap:butt;stroke-linejoin:miter;stroke-opacity:1" d="M 368.95,471.799 368.95,504.977 z" id="boundary" inkscape:connector-curvature="0" />
	<path style="fill:none;stroke:red;stroke-width:1px;stroke-linecap:butt;stroke-linejoin:miter;stroke-opacity:1" d="M 368.95,504.977 368.95,617.779 z" id="boundary" inkscape:connector-curvature="0" />
	<path style="fill:none;stroke:red;stroke-width:1px;stroke-linecap:butt;stroke-linejoin:miter;stroke-opacity:1" d="M 368.95,723.946 368.95,757.124 z" id="boundary" inkscape:connector-curvature="0" />
	<path style="fill:none;stroke:red;stroke-width:1px;stroke-linecap:butt;stroke-linejoin:miter;stroke-opacity:1" d="M 375.585,4 408.763,4 z" id="boundary" inkscape:connector-curvature="0" />
	<path style="fill:none;stroke:red;stroke-width:1px;stroke-linecap:butt;stroke-linejoin:miter;stroke-opacity:1" d="M 392.174,830.114 425.351,830.114 z" id="boundary" inkscape:connector-curvature="0" />
	<path style="fill:none;stroke:red;stroke-width:1px;stroke-linecap:butt;stroke-linejoin:miter;stroke-opacity:1" d="M 408.763,4 441.94,4 z" id="boundary" inkscape:connector-curvature="0" />
	<path style="fill:none;stroke:red;stroke-width:1px;stroke-linecap:butt;stroke-linejoin:miter;stroke-opacity:1" d="M 425.351,830.114 458.528,830.114 z" id="boundary" inkscape:connector-curvature="0" />
	<path style="fill:none;stroke:red;stroke-width:1px;stroke-linecap:butt;stroke-linejoin:miter;stroke-opacity:1" d="M 441.94,4 475.117,4 z" id="boundary" inkscape:connector-curvature="0" />
	<path style="fill:none;stroke:red;stroke-width:1px;stroke-linecap:butt;stroke-linejoin:miter;stroke-opacity:1" d="M 458.528,830.114 491.706,830.114 z" id="boundary" inkscape:connector-curvature="0" />
	<path style="fill:none;stroke:red;stroke-width:1px;stroke-linecap:butt;stroke-linejoin:miter;stroke-opacity:1" d="M 475.117,4 508.294,4 z" id="boundary" inkscape:connector-curvature="0" />
	<path style="fill:none;stroke:red;stroke-width:1px;stroke-linecap:butt;stroke-linejoin:miter;stroke-opacity:1" d="M 491.706,830.114 524.883,830.114 z" id="boundary" inkscape:connector-curvature="0" />
	<path style="fill:none;stroke:red;stroke-width:1px;stroke-linecap:butt;stroke-linejoin:miter;stroke-opacity:1" d="M 508.294,4 541.472,4 z" id="boundary" inkscape:connector-curvature="0" />
	<path style="fill:none;stroke:red;stroke-width:1px;stroke-linecap:butt;stroke-linejoin:miter;stroke-opacity:1" d="M 524.883,830.114 558.06,830.114 z" id="boundary" inkscape:connector-curvature="0" />
	<path style="fill:none;stroke:red;stroke-width:1px;stroke-linecap:butt;stroke-linejoin:miter;stroke-opacity:1" d="M 541.472,4 574.649,4 z" id="boundary" inkscape:connector-curvature="0" />
	<path style="fill:none;stroke:red;stroke-width:1px;stroke-linecap:butt;stroke-linejoin:miter;stroke-opacity:1" d="M 558.06,448.575 558.06,481.753 z" id="boundary" inkscape:connector-curvature="0" />
	<path style="fill:none;stroke:red;stroke-width:1px;stroke-linecap:butt;stroke-linejoin:miter;stroke-opacity:1" d="M 558.06,448.575 591.237,445.258 z" id="boundary" inkscape:connector-curvature="0" />
	<path style="fill:none;stroke:red;stroke-width:1px;stroke-linecap:butt;stroke-linejoin:miter;stroke-opacity:1" d="M 558.06,481.753 558.06,514.93 z" id="boundary" inkscape:connector-curvature="0" />
	<path style="fill:none;stroke:red;stroke-width:1px;stroke-linecap:butt;stroke-linejoin:miter;stroke-opacity:1" d="M 558.06,514.93 591.237,554.742 z" id="boundary" inkscape:connector-curvature="0" />
	<path style="fill:none;stroke:red;stroke-width:1px;stroke-linecap:butt;stroke-linejoin:miter;stroke-opacity:1" d="M 558.06,694.087 558.06,727.264 z" id="boundary" inkscape:connector-curvature="0" />
	<path style="fill:none;stroke:red;stroke-width:1px;stroke-linecap:butt;stroke-linejoin:miter;stroke-opacity:1" d="M 558.06,694.087 624.415,660.91 z" id="boundary" inkscape:connector-curvature="0" />
	<path style="fill:none;stroke:red;stroke-width:1px;stroke-linecap:butt;stroke-linejoin:miter;stroke-opacity:1" d="M 558.06,727.264 561.378,760.441 z" id="boundary" inkscape:connector-curvature="0" />
	<path style="fill:none;stroke:red;stroke-width:1px;stroke-linecap:butt;stroke-linejoin:miter;stroke-opacity:1" d="M 558.06,830.114 591.237,830.114 z" id="boundary" inkscape:connector-curvature="0" />
	<path style="fill:none;stroke:red;stroke-width:1px;stroke-linecap:butt;stroke-linejoin:miter;stroke-opacity:1" d="M 561.378,760.441 594.555,760.441 z" id="boundary" inkscape:connector-curvature="0" />
	<path style="fill:none;stroke:red;stroke-width:1px;stroke-linecap:butt;stroke-linejoin:miter;stroke-opacity:1" d="M 574.649,4 607.826,4 z" id="boundary" inkscape:connector-curvature="0" />
	<path style="fill:none;stroke:red;stroke-width:1px;stroke-linecap:butt;stroke-linejoin:miter;stroke-opacity:1" d="M 591.237,445.258 624.415,445.258 z" id="boundary" inkscape:connector-curvature="0" />
	<path style="fill:none;stroke:red;stroke-width:1px;stroke-linecap:butt;stroke-linejoin:miter;stroke-opacity:1" d="M 591.237,554.742 624.415,554.742 z" id="boundary" inkscape:connector-curvature="0" />
	<path style="fill:none;stroke:red;stroke-width:1px;stroke-linecap:butt;stroke-linejoin:miter;stroke-opacity:1" d="M 591.237,830.114 624.415,830.114 z" id="boundary" inkscape:connector-curvature="0" />
	<path style="fill:none;stroke:red;stroke-width:1px;stroke-linecap:butt;stroke-linejoin:miter;stroke-opacity:1" d="M 594.555,760.441 627.732,760.441 z" id="boundary" inkscape:connector-curvature="0" />
	<path style="fill:none;stroke:red;stroke-width:1px;stroke-linecap:butt;stroke-linejoin:miter;stroke-opacity:1" d="M 607.826,4 641.003,4 z" id="boundary" inkscape:connector-curvature="0" />
	<path style="fill:none;stroke:red;stroke-width:1px;stroke-linecap:butt;stroke-linejoin:miter;stroke-opacity:1" d="M 624.415,445.258 657.592,445.258 z" id="boundary" inkscape:connector-curvature="0" />
	<path style="fill:none;stroke:red;stroke-width:1px;stroke-linecap:butt;stroke-linejoin:miter;stroke-opacity:1" d="M 624.415,554.742 674.181,584.602 z" id="boundary" inkscape:connector-curvature="0" />
	<path style="fill:none;stroke:red;stroke-width:1px;stroke-linecap:butt;stroke-linejoin:miter;stroke-opacity:1" d="M 624.415,660.91 674.181,690.769 z" id="boundary" inkscape:connector-curvature="0" />
	<path style="fill:none;stroke:red;stroke-width:1px;stroke-linecap:butt;stroke-linejoin:miter;stroke-opacity:1" d="M 624.415,830.114 657.592,830.114 z" id="boundary" inkscape:connector-curvature="0" />
	<path style="fill:none;stroke:red;stroke-width:1px;stroke-linecap:butt;stroke-linejoin:miter;stroke-opacity:1" d="M 627.732,760.441 660.91,760.441 z" id="boundary" inkscape:connector-curvature="0" />
	<path style="fill:none;stroke:red;stroke-width:1px;stroke-linecap:butt;stroke-linejoin:miter;stroke-opacity:1" d="M 641.003,4 674.181,4 z" id="boundary" inkscape:connector-curvature="0" />
	<path style="fill:none;stroke:red;stroke-width:1px;stroke-linecap:butt;stroke-linejoin:miter;stroke-opacity:1" d="M 657.592,445.258 690.769,445.258 z" id="boundary" inkscape:connector-curvature="0" />
	<path style="fill:none;stroke:red;stroke-width:1px;stroke-linecap:butt;stroke-linejoin:miter;stroke-opacity:1" d="M 657.592,830.114 690.769,830.114 z" id="boundary" inkscape:connector-curvature="0" />
	<path style="fill:none;stroke:red;stroke-width:1px;stroke-linecap:butt;stroke-linejoin:miter;stroke-opacity:1" d="M 660.91,760.441 694.087,760.441 z" id="boundary" inkscape:connector-curvature="0" />
	<path style="fill:none;stroke:red;stroke-width:1px;stroke-linecap:butt;stroke-linejoin:miter;stroke-opacity:1" d="M 674.181,4 707.358,4 z" id="boundary" inkscape:connector-curvature="0" />
	<path style="fill:none;stroke:red;stroke-width:1px;stroke-linecap:butt;stroke-linejoin:miter;stroke-opacity:1" d="M 674.181,584.602 723.946,554.742 z" id="boundary" inkscape:connector-curvature="0" />
	<path style="fill:none;stroke:red;stroke-width:1px;stroke-linecap:butt;stroke-linejoin:miter;stroke-opacity:1" d="M 674.181,690.769 723.946,660.91 z" id="boundary" inkscape:connector-curvature="0" />
	<path style="fill:none;stroke:red;stroke-width:1px;stroke-linecap:butt;stroke-linejoin:miter;stroke-opacity:1" d="M 690.769,445.258 723.946,445.258 z" id="boundary" inkscape:connector-curvature="0" />
	<path style="fill:none;stroke:red;stroke-width:1px;stroke-linecap:butt;stroke-linejoin:miter;stroke-opacity:1" d="M 690.769,830.114 723.946,830.114 z" id="boundary" inkscape:connector-curvature="0" />
	<path style="fill:none;stroke:red;stroke-width:1px;stroke-linecap:butt;stroke-linejoin:miter;stroke-opacity:1" d="M 694.087,760.441 727.264,760.441 z" id="boundary" inkscape:connector-curvature="0" />
	<path style="fill:none;stroke:red;stroke-width:1px;stroke-linecap:butt;stroke-linejoin:miter;stroke-opacity:1" d="M 707.358,4 740.535,4 z" id="boundary" inkscape:connector-curvature="0" />
	<path style="fill:none;stroke:red;stroke-width:1px;stroke-linecap:butt;stroke-linejoin:miter;stroke-opacity:1" d="M 723.946,445.258 757.124,445.258 z" id="boundary" inkscape:connector-curvature="0" />
	<path style="fill:none;stroke:red;stroke-width:1px;stroke-linecap:butt;stroke-linejoin:miter;stroke-opacity:1" d="M 723.946,554.742 773.712,584.602 z" id="boundary" inkscape:connector-curvature="0" />
	<path style="fill:none;stroke:red;stroke-width:1px;stroke-linecap:butt;stroke-linejoin:miter;stroke-opacity:1" d="M 723.946,660.91 773.712,690.769 z" id="boundary" inkscape:connector-curvature="0" />
	<path style="fill:none;stroke:red;stroke-width:1px;stroke-linecap:butt;stroke-linejoin:miter;stroke-opacity:1" d="M 723.946,830.114 757.124,830.114 z" id="boundary" inkscape:connector-curvature="0" />
	<path style="fill:none;stroke:red;stroke-width:1px;stroke-linecap:butt;stroke-linejoin:miter;stroke-opacity:1" d="M 727.264,760.441 760.441,760.441 z" id="boundary" inkscape:connector-curvature="0" />
	<path style="fill:none;stroke:red;stroke-width:1px;stroke-linecap:butt;stroke-linejoin:miter;stroke-opacity:1" d="M 740.535,4 773.712,4 z" id="boundary" inkscape:connector-curvature="0" />
	<path style="fill:none;stroke:red;stroke-width:1px;stroke-linecap:butt;stroke-linejoin:miter;stroke-opacity:1" d="M 757.124,445.258 790.301,445.258 z" id="boundary" inkscape:connector-curvature="0" />
	<path style="fill:none;stroke:red;stroke-width:1px;stroke-linecap:butt;stroke-linejoin:miter;stroke-opacity:1" d="M 757.124,830.114 790.301,830.114 z" id="boundary" inkscape:connector-curvature="0" />
	<path style="fill:none;stroke:red;stroke-width:1px;stroke-linecap:butt;stroke-linejoin:miter;stroke-opacity:1" d="M 760.441,760.441 793.619,760.441 z" id="boundary" inkscape:connector-curvature="0" />
	<path style="fill:none;stroke:red;stroke-width:1px;stroke-linecap:butt;stroke-linejoin:miter;stroke-opacity:1" d="M 773.712,4 806.89,4 z" id="boundary" inkscape:connector-curvature="0" />
	<path style="fill:none;stroke:red;stroke-width:1px;stroke-linecap:butt;stroke-linejoin:miter;stroke-opacity:1" d="M 773.712,584.602 823.478,554.742 z" id="boundary" inkscape:connector-curvature="0" />
	<path style="fill:none;stroke:red;stroke-width:1px;stroke-linecap:butt;stroke-linejoin:miter;stroke-opacity:1" d="M 773.712,690.769 790.301,660.91 z" id="boundary" inkscape:connector-curvature="0" />
	<path style="fill:none;stroke:red;stroke-width:1px;stroke-linecap:butt;stroke-linejoin:miter;stroke-opacity:1" d="M 790.301,445.258 823.478,445.258 z" id="boundary" inkscape:connector-curvature="0" />
	<path style="fill:none;stroke:red;stroke-width:1px;stroke-linecap:butt;stroke-linejoin:miter;stroke-opacity:1" d="M 790.301,660.91 840.067,690.769 z" id="boundary" inkscape:connector-curvature="0" />
	<path style="fill:none;stroke:red;stroke-width:1px;stroke-linecap:butt;stroke-linejoin:miter;stroke-opacity:1" d="M 790.301,830.114 823.478,830.114 z" id="boundary" inkscape:connector-curvature="0" />
	<path style="fill:none;stroke:red;stroke-width:1px;stroke-linecap:butt;stroke-linejoin:miter;stroke-opacity:1" d="M 793.619,760.441 826.796,760.441 z" id="boundary" inkscape:connector-curvature="0" />
	<path style="fill:none;stroke:red;stroke-width:1px;stroke-linecap:butt;stroke-linejoin:miter;stroke-opacity:1" d="M 806.89,4 840.067,10.6355 z" id="boundary" inkscape:connector-curvature="0" />
	<path style="fill:none;stroke:red;stroke-width:1px;stroke-linecap:butt;stroke-linejoin:miter;stroke-opacity:1" d="M 823.478,445.258 843.385,408.763 z" id="boundary" inkscape:connector-curvature="0" />
	<path style="fill:none;stroke:red;stroke-width:1px;stroke-linecap:butt;stroke-linejoin:miter;stroke-opacity:1" d="M 823.478,554.742 873.244,584.602 z" id="boundary" inkscape:connector-curvature="0" />
	<path style="fill:none;stroke:red;stroke-width:1px;stroke-linecap:butt;stroke-linejoin:miter;stroke-opacity:1" d="M 823.478,830.114 856.656,830.114 z" id="boundary" inkscape:connector-curvature="0" />
	<path style="fill:none;stroke:red;stroke-width:1px;stroke-linecap:butt;stroke-linejoin:miter;stroke-opacity:1" d="M 826.796,760.441 859.973,760.441 z" id="boundary" inkscape:connector-curvature="0" />
	<path style="fill:none;stroke:red;stroke-width:1px;stroke-linecap:butt;stroke-linejoin:miter;stroke-opacity:1" d="M 840.067,10.6355 843.385,43.8127 z" id="boundary" inkscape:connector-curvature="0" />
	<path style="fill:none;stroke:red;stroke-width:1px;stroke-linecap:butt;stroke-linejoin:miter;stroke-opacity:1" d="M 840.067,690.769 889.833,660.91 z" id="boundary" inkscape:connector-curvature="0" />
	<path style="fill:none;stroke:red;stroke-width:1px;stroke-linecap:butt;stroke-linejoin:miter;stroke-opacity:1" d="M 843.385,43.8127 843.385,76.99 z" id="boundary" inkscape:connector-curvature="0" />
	<path style="fill:none;stroke:red;stroke-width:1px;stroke-linecap:butt;stroke-linejoin:miter;stroke-opacity:1" d="M 843.385,76.99 843.385,110.167 z" id="boundary" inkscape:connector-curvature="0" />
	<path style="fill:none;stroke:red;stroke-width:1px;stroke-linecap:butt;stroke-linejoin:miter;stroke-opacity:1" d="M 843.385,110.167 843.385,143.344 z" id="boundary" inkscape:connector-curvature="0" />
	<path style="fill:none;stroke:red;stroke-width:1px;stroke-linecap:butt;stroke-linejoin:miter;stroke-opacity:1" d="M 843.385,143.344 843.385,176.522 z" id="boundary" inkscape:connector-curvature="0" />
	<path style="fill:none;stroke:red;stroke-width:1px;stroke-linecap:butt;stroke-linejoin:miter;stroke-opacity:1" d="M 843.385,176.522 843.385,209.699 z" id="boundary" inkscape:connector-curvature="0" />
	<path style="fill:none;stroke:red;stroke-width:1px;stroke-linecap:butt;stroke-linejoin:miter;stroke-opacity:1" d="M 843.385,209.699 843.385,242.876 z" id="boundary" inkscape:connector-curvature="0" />
	<path style="fill:none;stroke:red;stroke-width:1px;stroke-linecap:butt;stroke-linejoin:miter;stroke-opacity:1" d="M 843.385,242.876 843.385,276.054 z" id="boundary" inkscape:connector-curvature="0" />
	<path style="fill:none;stroke:red;stroke-width:1px;stroke-linecap:butt;stroke-linejoin:miter;stroke-opacity:1" d="M 843.385,276.054 843.385,309.231 z" id="boundary" inkscape:connector-curvature="0" />
	<path style="fill:none;stroke:red;stroke-width:1px;stroke-linecap:butt;stroke-linejoin:miter;stroke-opacity:1" d="M 843.385,309.231 843.385,342.408 z" id="boundary" inkscape:connector-curvature="0" />
	<path style="fill:none;stroke:red;stroke-width:1px;stroke-linecap:butt;stroke-linejoin:miter;stroke-opacity:1" d="M 843.385,342.408 843.385,375.585 z" id="boundary" inkscape:connector-curvature="0" />
	<path style="fill:none;stroke:red;stroke-width:1px;stroke-linecap:butt;stroke-linejoin:miter;stroke-opacity:1" d="M 843.385,375.585 843.385,408.763 z" id="boundary" inkscape:connector-curvature="0" />
	<path style="fill:none;stroke:red;stroke-width:1px;stroke-linecap:butt;stroke-linejoin:miter;stroke-opacity:1" d="M 856.656,830.114 889.833,830.114 z" id="boundary" inkscape:connector-curvature="0" />
	<path style="fill:none;stroke:red;stroke-width:1px;stroke-linecap:butt;stroke-linejoin:miter;stroke-opacity:1" d="M 859.973,760.441 893.151,760.441 z" id="boundary" inkscape:connector-curvature="0" />
	<path style="fill:none;stroke:red;stroke-width:1px;stroke-linecap:butt;stroke-linejoin:miter;stroke-opacity:1" d="M 873.244,584.602 889.833,554.742 z" id="boundary" inkscape:connector-curvature="0" />
	<path style="fill:none;stroke:red;stroke-width:1px;stroke-linecap:butt;stroke-linejoin:miter;stroke-opacity:1" d="M 889.833,554.742 906.421,584.602 z" id="boundary" inkscape:connector-curvature="0" />
	<path style="fill:none;stroke:red;stroke-width:1px;stroke-linecap:butt;stroke-linejoin:miter;stroke-opacity:1" d="M 889.833,660.91 939.599,690.769 z" id="boundary" inkscape:connector-curvature="0" />
	<path style="fill:none;stroke:red;stroke-width:1px;stroke-linecap:butt;stroke-linejoin:miter;stroke-opacity:1" d="M 889.833,830.114 923.01,830.114 z" id="boundary" inkscape:connector-curvature="0" />
	<path style="fill:none;stroke:red;stroke-width:1px;stroke-linecap:butt;stroke-linejoin:miter;stroke-opacity:1" d="M 893.151,760.441 926.328,760.441 z" id="boundary" inkscape:connector-curvature="0" />
	<path style="fill:none;stroke:red;stroke-width:1px;stroke-linecap:butt;stroke-linejoin:miter;stroke-opacity:1" d="M 906.421,584.602 939.599,584.602 z" id="boundary" inkscape:connector-curvature="0" />
	<path style="fill:none;stroke:red;stroke-width:1px;stroke-linecap:butt;stroke-linejoin:miter;stroke-opacity:1" d="M 923.01,830.114 956.187,843.385 z" id="boundary" inkscape:connector-curvature="0" />
	<path style="fill:none;stroke:red;stroke-width:1px;stroke-linecap:butt;stroke-linejoin:miter;stroke-opacity:1" d="M 926.328,760.441 959.505,760.441 z" id="boundary" inkscape:connector-curvature="0" />
	<path style="fill:none;stroke:red;stroke-width:1px;stroke-linecap:butt;stroke-linejoin:miter;stroke-opacity:1" d="M 939.599,584.602 939.599,690.769 z" id="boundary" inkscape:connector-curvature="0" />
	<path style="fill:none;stroke:red;stroke-width:1px;stroke-linecap:butt;stroke-linejoin:miter;stroke-opacity:1" d="M 956.187,843.385 989.365,830.114 z" id="boundary" inkscape:connector-curvature="0" />
	<path style="fill:none;stroke:red;stroke-width:1px;stroke-linecap:butt;stroke-linejoin:miter;stroke-opacity:1" d="M 959.505,760.441 992.682,763.759 z" id="boundary" inkscape:connector-curvature="0" />
	<path style="fill:none;stroke:red;stroke-width:1px;stroke-linecap:butt;stroke-linejoin:miter;stroke-opacity:1" d="M 989.365,830.114 996,796.936 z" id="boundary" inkscape:connector-curvature="0" />
	<path style="fill:none;stroke:red;stroke-width:1px;stroke-linecap:butt;stroke-linejoin:miter;stroke-opacity:1" d="M 992.682,763.759 996,796.936 z" id="boundary" inkscape:connector-curvature="0" />
	<circle cx="4" cy="773.712" r="4" fill="#0" id="circle0"/>
	<circle cx="4" cy="806.89" r="4" fill="#0" id="circle1"/>
	<circle cx="27.2241" cy="833.431" r="4" fill="#0" id="circle2"/>
	<circle cx="36.2457" cy="755.903" r="4" fill="#0" id="circle3"/>
	<circle cx="60.4013" cy="840.067" r="4" fill="#0" id="circle4"/>
	<circle cx="70.5308" cy="762.692" r="4" fill="#0" id="circle5"/>
	<circle cx="93.5786" cy="830.114" r="4" fill="#0" id="circle6"/>
	<circle cx="96.8963" cy="568.013" r="4" fill="#0" id="circle7"/>
	<circle cx="96.8963" cy="667.545" r="4" fill="#0" id="circle8"/>
	<circle cx="103.532" cy="760.441" r="4" fill="#0" id="circle9"/>
	<circle cx="123.438" cy="690.769" r="4" fill="#0" id="circle10"/>
	<circle cx="126.756" cy="584.602" r="4" fill="#0" id="circle11"/>
	<circle cx="126.756" cy="830.114" r="4" fill="#0" id="circle12"/>
	<circle cx="136.709" cy="760.441" r="4" fill="#0" id="circle13"/>
	<circle cx="140.027" cy="660.91" r="4" fill="#0" id="circle14"/>
	<circle cx="143.344" cy="10.6355" r="4" fill="#0" id="circle15"/>
	<circle cx="143.344" cy="43.8127" r="4" fill="#0" id="circle16"/>
	<circle cx="143.344" cy="76.99" r="4" fill="#0" id="circle17"/>
	<circle cx="143.344" cy="110.167" r="4" fill="#0" id="circle18"/>
	<circle cx="143.344" cy="143.344" r="4" fill="#0" id="circle19"/>
	<circle cx="143.344" cy="176.522" r="4" fill="#0" id="circle20"/>
	<circle cx="143.344" cy="209.699" r="4" fill="#0" id="circle21"/>
	<circle cx="143.344" cy="242.876" r="4" fill="#0" id="circle22"/>
	<circle cx="143.344" cy="276.054" r="4" fill="#0" id="circle23"/>
	<circle cx="143.344" cy="309.231" r="4" fill="#0" id="circle24"/>
	<circle cx="143.344" cy="342.408" r="4" fill="#0" id="circle25"/>
	<circle cx="143.344" cy="375.585" r="4" fill="#0" id="circle26"/>
	<circle cx="143.344" cy="408.763" r="4" fill="#0" id="circle27"/>
	<circle cx="143.344" cy="554.742" r="4" fill="#0" id="circle28"/>
	<circle cx="146.662" cy="441.94" r="4" fill="#0" id="circle29"/>
	<circle cx="156.615" cy="690.769" r="4" fill="#0" id="circle30"/>
	<circle cx="159.933" cy="584.602" r="4" fill="#0" id="circle31"/>
	<circle cx="159.933" cy="836.749" r="4" fill="#0" id="circle32"/>
	<circle cx="169.886" cy="760.441" r="4" fill="#0" id="circle33"/>
	<circle cx="173.204" cy="660.91" r="4" fill="#0" id="circle34"/>
	<circle cx="176.522" cy="4" r="4" fill="#0" id="circle35"/>
	<circle cx="176.522" cy="554.742" r="4" fill="#0" id="circle36"/>
	<circle cx="179.839" cy="445.258" r="4" fill="#0" id="circle37"/>
	<circle cx="189.793" cy="690.769" r="4" fill="#0" id="circle38"/>
	<circle cx="193.11" cy="584.602" r="4" fill="#0" id="circle39"/>
	<circle cx="193.11" cy="833.431" r="4" fill="#0" id="circle40"/>
	<circle cx="203.064" cy="760.441" r="4" fill="#0" id="circle41"/>
	<circle cx="206.381" cy="660.91" r="4" fill="#0" id="circle42"/>
	<circle cx="209.699" cy="4" r="4" fill="#0" id="circle43"/>
	<circle cx="209.699" cy="554.742" r="4" fill="#0" id="circle44"/>
	<circle cx="213.017" cy="445.258" r="4" fill="#0" id="circle45"/>
	<circle cx="222.97" cy="690.769" r="4" fill="#0" id="circle46"/>
	<circle cx="226.288" cy="584.602" r="4" fill="#0" id="circle47"/>
	<circle cx="226.288" cy="830.114" r="4" fill="#0" id="circle48"/>
	<circle cx="236.241" cy="760.441" r="4" fill="#0" id="circle49"/>
	<circle cx="239.559" cy="660.91" r="4" fill="#0" id="circle50"/>
	<circle cx="242.876" cy="4" r="4" fill="#0" id="circle51"/>
	<circle cx="242.876" cy="554.742" r="4" fill="#0" id="circle52"/>
	<circle cx="246.194" cy="445.258" r="4" fill="#0" id="circle53"/>
	<circle cx="256.147" cy="690.769" r="4" fill="#0" id="circle54"/>
	<circle cx="259.465" cy="584.602" r="4" fill="#0" id="circle55"/>
	<circle cx="259.465" cy="830.114" r="4" fill="#0" id="circle56"/>
	<circle cx="269.418" cy="760.441" r="4" fill="#0" id="circle57"/>
	<circle cx="272.736" cy="660.91" r="4" fill="#0" id="circle58"/>
	<circle cx="276.054" cy="4" r="4" fill="#0" id="circle59"/>
	<circle cx="276.054" cy="554.742" r="4" fill="#0" id="circle60"/>
	<circle cx="279.371" cy="445.258" r="4" fill="#0" id="circle61"/>
	<circle cx="289.324" cy="690.769" r="4" fill="#0" id="circle62"/>
	<circle cx="292.642" cy="584.602" r="4" fill="#0" id="circle63"/>
	<circle cx="292.642" cy="830.114" r="4" fill="#0" id="circle64"/>
	<circle cx="302.595" cy="760.441" r="4" fill="#0" id="circle65"/>
	<circle cx="305.913" cy="660.91" r="4" fill="#0" id="circle66"/>
	<circle cx="309.231" cy="4" r="4" fill="#0" id="circle67"/>
	<circle cx="309.231" cy="554.742" r="4" fill="#0" id="circle68"/>
	<circle cx="312.548" cy="445.258" r="4" fill="#0" id="circle69"/>
	<circle cx="322.502" cy="690.769" r="4" fill="#0" id="circle70"/>
	<circle cx="325.819" cy="584.602" r="4" fill="#0" id="circle71"/>
	<circle cx="325.819" cy="830.114" r="4" fill="#0" id="circle72"/>
	<circle cx="335.773" cy="760.441" r="4" fill="#0" id="circle73"/>
	<circle cx="339.09" cy="660.91" r="4" fill="#0" id="circle74"/>
	<circle cx="342.408" cy="4" r="4" fill="#0" id="circle75"/>
	<circle cx="342.408" cy="554.742" r="4" fill="#0" id="circle76"/>
	<circle cx="345.726" cy="445.258" r="4" fill="#0" id="circle77"/>
	<circle cx="355.679" cy="690.769" r="4" fill="#0" id="circle78"/>
	<circle cx="358.997" cy="584.602" r="4" fill="#0" id="circle79"/>
	<circle cx="358.997" cy="830.114" r="4" fill="#0" id="circle80"/>
	<circle cx="368.95" cy="471.799" r="4" fill="#0" id="circle81"/>
	<circle cx="368.95" cy="504.977" r="4" fill="#0" id="circle82"/>
	<circle cx="368.95" cy="617.779" r="4" fill="#0" id="circle83"/>
	<circle cx="368.95" cy="723.946" r="4" fill="#0" id="circle84"/>
	<circle cx="368.95" cy="757.124" r="4" fill="#0" id="circle85"/>
	<circle cx="375.585" cy="4" r="4" fill="#0" id="circle86"/>
	<circle cx="392.174" cy="830.114" r="4" fill="#0" id="circle87"/>
	<circle cx="408.763" cy="4" r="4" fill="#0" id="circle88"/>
	<circle cx="425.351" cy="830.114" r="4" fill="#0" id="circle89"/>
	<circle cx="441.94" cy="4" r="4" fill="#0" id="circle90"/>
	<circle cx="458.528" cy="830.114" r="4" fill="#0" id="circle91"/>
	<circle cx="475.117" cy="4" r="4" fill="#0" id="circle92"/>
	<circle cx="491.706" cy="830.114" r="4" fill="#0" id="circle93"/>
	<circle cx="508.294" cy="4" r="4" fill="#0" id="circle94"/>
	<circle cx="524.883" cy="830.114" r="4" fill="#0" id="circle95"/>
	<circle cx="541.472" cy="4" r="4" fill="#0" id="circle96"/>
	<circle cx="558.06" cy="448.575" r="4" fill="#0" id="circle97"/>
	<circle cx="558.06" cy="481.753" r="4" fill="#0" id="circle98"/>
	<circle cx="558.06" cy="514.93" r="4" fill="#0" id="circle99"/>
	<circle cx="558.06" cy="548.107" r="4" fill="#0" id="circle100"/>
	<circle cx="558.06" cy="587.92" r="4" fill="#0" id="circle101"/>
	<circle cx="558.06" cy="621.097" r="4" fill="#0" id="circle102"/>
	<circle cx="558.06" cy="654.274" r="4" fill="#0" id="circle103"/>
	<circle cx="558.06" cy="694.087" r="4" fill="#0" id="circle104"/>
	<circle cx="558.06" cy="727.264" r="4" fill="#0" id="circle105"/>
	<circle cx="558.06" cy="830.114" r="4" fill="#0" id="circle106"/>
	<circle cx="561.378" cy="760.441" r="4" fill="#0" id="circle107"/>
	<circle cx="574.649" cy="4" r="4" fill="#0" id="circle108"/>
	<circle cx="591.237" cy="445.258" r="4" fill="#0" id="circle109"/>
	<circle cx="591.237" cy="554.742" r="4" fill="#0" id="circle110"/>
	<circle cx="591.237" cy="660.91" r="4" fill="#0" id="circle111"/>
	<circle cx="591.237" cy="830.114" r="4" fill="#0" id="circle112"/>
	<circle cx="594.555" cy="760.441" r="4" fill="#0" id="circle113"/>
	<circle cx="607.826" cy="4" r="4" fill="#0" id="circle114"/>
	<circle cx="607.826" cy="584.602" r="4" fill="#0" id="circle115"/>
	<circle cx="607.826" cy="690.769" r="4" fill="#0" id="circle116"/>
	<circle cx="624.415" cy="445.258" r="4" fill="#0" id="circle117"/>
	<circle cx="624.415" cy="554.742" r="4" fill="#0" id="circle118"/>
	<circle cx="624.415" cy="660.91" r="4" fill="#0" id="circle119"/>
	<circle cx="624.415" cy="830.114" r="4" fill="#0" id="circle120"/>
	<circle cx="627.732" cy="760.441" r="4" fill="#0" id="circle121"/>
	<circle cx="641.003" cy="4" r="4" fill="#0" id="circle122"/>
	<circle cx="641.003" cy="584.602" r="4" fill="#0" id="circle123"/>
	<circle cx="641.003" cy="690.769" r="4" fill="#0" id="circle124"/>
	<circle cx="657.592" cy="445.258" r="4" fill="#0" id="circle125"/>
	<circle cx="657.592" cy="554.742" r="4" fill="#0" id="circle126"/>
	<circle cx="657.592" cy="660.91" r="4" fill="#0" id="circle127"/>
	<circle cx="657.592" cy="830.114" r="4" fill="#0" id="circle128"/>
	<circle cx="660.91" cy="760.441" r="4" fill="#0" id="circle129"/>
	<circle cx="674.181" cy="4" r="4" fill="#0" id="circle130"/>
	<circle cx="674.181" cy="584.602" r="4" fill="#0" id="circle131"/>
	<circle cx="674.181" cy="690.769" r="4" fill="#0" id="circle132"/>
	<circle cx="690.769" cy="445.258" r="4" fill="#0" id="circle133"/>
	<circle cx="690.769" cy="554.742" r="4" fill="#0" id="circle134"/>
	<circle cx="690.769" cy="660.91" r="4" fill="#0" id="circle135"/>
	<circle cx="690.769" cy="830.114" r="4" fill="#0" id="circle136"/>
	<circle cx="694.087" cy="760.441" r="4" fill="#0" id="circle137"/>
	<circle cx="707.358" cy="4" r="4" fill="#0" id="circle138"/>
	<circle cx="707.358" cy="584.602" r="4" fill="#0" id="circle139"/>
	<circle cx="707.358" cy="690.769" r="4" fill="#0" id="circle140"/>
	<circle cx="723.946" cy="445.258" r="4" fill="#0" id="circle141"/>
	<circle cx="723.946" cy="554.742" r="4" fill="#0" id="circle142"/>
	<circle cx="723.946" cy="660.91" r="4" fill="#0" id="circle143"/>
	<circle cx="723.946" cy="830.114" r="4" fill="#0" id="circle144"/>
	<circle cx="727.264" cy="760.441" r="4" fill="#0" id="circle145"/>
	<circle cx="740.535" cy="4" r="4" fill="#0" id="circle146"/>
	<circle cx="740.535" cy="584.602" r="4" fill="#0" id="circle147"/>
	<circle cx="740.535" cy="690.769" r="4" fill="#0" id="circle148"/>
	<circle cx="757.124" cy="445.258" r="4" fill="#0" id="circle149"/>
	<circle cx="757.124" cy="554.742" r="4" fill="#0" id="circle150"/>
	<circle cx="757.124" cy="660.91" r="4" fill="#0" id="circle151"/>
	<circle cx="757.124" cy="830.114" r="4" fill="#0" id="circle152"/>
	<circle cx="760.441" cy="760.441" r="4" fill="#0" id="circle153"/>
	<circle cx="773.712" cy="4" r="4" fill="#0" id="circle154"/>
	<circle cx="773.712" cy="584.602" r="4" fill="#0" id="circle155"/>
	<circle cx="773.712" cy="690.769" r="4" fill="#0" id="circle156"/>
	<circle cx="790.301" cy="445.258" r="4" fill="#0" id="circle157"/>
	<circle cx="790.301" cy="554.742" r="4" fill="#0" id="circle158"/>
	<circle cx="790.301" cy="660.91" r="4" fill="#0" id="circle159"/>
	<circle cx="790.301" cy="830.114" r="4" fill="#0" id="circle160"/>
	<circle cx="793.619" cy="760.441" r="4" fill="#0" id="circle161"/>
	<circle cx="806.89" cy="4" r="4" fill="#0" id="circle162"/>
	<circle cx="806.89" cy="584.602" r="4" fill="#0" id="circle163"/>
	<circle cx="806.89" cy="690.769" r="4" fill="#0" id="circle164"/>
	<circle cx="823.478" cy="445.258" r="4" fill="#0" id="circle165"/>
	<circle cx="823.478" cy="554.742" r="4" fill="#0" id="circle166"/>
	<circle cx="823.478" cy="660.91" r="4" fill="#0" id="circle167"/>
	<circle cx="823.478" cy="830.114" r="4" fill="#0" id="circle168"/>
	<circle cx="826.796" cy="760.441" r="4" fill="#0" id="circle169"/>
	<circle cx="840.067" cy="10.6355" r="4" fill="#0" id="circle170"/>
	<circle cx="840.067" cy="584.602" r="4" fill="#0" id="circle171"/>
	<circle cx="840.067" cy="690.769" r="4" fill="#0" id="circle172"/>
	<circle cx="843.385" cy="43.8127" r="4" fill="#0" id="circle173"/>
	<circle cx="843.385" cy="76.99" r="4" fill="#0" id="circle174"/>
	<circle cx="843.385" cy="110.167" r="4" fill="#0" id="circle175"/>
	<circle cx="843.385" cy="143.344" r="4" fill="#0" id="circle176"/>
	<circle cx="843.385" cy="176.522" r="4" fill="#0" id="circle177"/>
	<circle cx="843.385" cy="209.699" r="4" fill="#0" id="circle178"/>
	<circle cx="843.385" cy="242.876" r="4" fill="#0" id="circle179"/>
	<circle cx="843.385" cy="276.054" r="4" fill="#0" id="circle180"/>
	<circle cx="843.385" cy="309.231" r="4" fill="#0" id="circle181"/>
	<circle cx="843.385" cy="342.408" r="4" fill="#0" id="circle182"/>
	<circle cx="843.385" cy="375.585" r="4" fill="#0" id="circle183"/>
	<circle cx="843.385" cy="408.763" r="4" fill="#0" id="circle184"/>
	<circle cx="856.656" cy="554.742" r="4" fill="#0" id="circle185"/>
	<circle cx="856.656" cy="660.91" r="4" fill="#0" id="circle186"/>
	<circle cx="856.656" cy="830.114" r="4" fill="#0" id="circle187"/>
	<circle cx="859.973" cy="760.441" r="4" fill="#0" id="circle188"/>
	<circle cx="873.244" cy="584.602" r="4" fill="#0" id="circle189"/>
	<circle cx="873.244" cy="690.769" r="4" fill="#0" id="circle190"/>
	<circle cx="889.833" cy="554.742" r="4" fill="#0" id="circle191"/>
	<circle cx="889.833" cy="660.91" r="4" fill="#0" id="circle192"/>
	<circle cx="889.833" cy="830.114" r="4" fill="#0" id="circle193"/>
	<circle cx="893.151" cy="760.441" r="4" fill="#0" id="circle194"/>
	<circle cx="906.421" cy="584.602" r="4" fill="#0" id="circle195"/>
	<circle cx="906.421" cy="690.769" r="4" fill="#0" id="circle196"/>
	<circle cx="923.01" cy="554.742" r="4" fill="#0" id="circle197"/>
	<circle cx="923.01" cy="660.91" r="4" fill="#0" id="circle198"/>
	<circle cx="923.01" cy="830.114" r="4" fill="#0" id="circle199"/>
	<circle cx="926.328" cy="760.441" r="4" fill="#0" id="circle200"/>
	<circle cx="939.599" cy="584.602" r="4" fill="#0" id="circle201"/>
	<circle cx="939.599" cy="690.769" r="4" fill="#0" id="circle202"/>
	<circle cx="956.187" cy="843.385" r="4" fill="#0" id="circle203"/>
	<circle cx="959.505" cy="760.441" r="4" fill="#0" id="circle204"/>
	<circle cx="989.365" cy="830.114" r="4" fill="#0" id="circle205"/>
	<circle cx="992.682" cy="763.759" r="4" fill="#0" id="circle206"/>
	<circle cx="996" cy="796.936" r="4" fill="#0" id="circle207"/>
	</g>
</svg>