<?xml version="1.0" encoding="UTF-8" standalone="no"?>
<!-- Created with CurveBenchmark -->
<svg
	xmlns:dc="http://purl.org/dc/elements/1.1/"
	xmlns:cc="http://creativecommons.org/ns#"
	xmlns:rdf="http://www.w3.org/1999/02/22-rdf-syntax-ns#"
	xmlns:svg="http://www.w3.org/2000/svg"
	xmlns="http://www.w3.org/2000/svg"
	xmlns:sodipodi="http://sodipodi.sourceforge.net/DTD/sodipodi-0.dtd"
	xmlns:inkscape="http://www.inkscape.org/namespaces/inkscape"
	width="1000"
	height="1000"
	id="svg2"
	version="1.1"
	sodipodi:docname="manifold/stretchdenoise-bird080.png.txt">
<defs
	id="defs4" />
<metadata
	id="metadata7">
	<rdf:RDF>
		<cc:Work
			rdf:about="">
			<dc:format>image/svg+xml</dc:format>
			<dc:type
				rdf:resource="http://purl.org/dc/dcmitype/StillImage" />
			<dc:title></dc:title>
		</cc:Work>
	</rdf:RDF>
</metadata>
<g
	inkscape:label="Layer 1"
	inkscape:groupmode="layer"
	id="layer1">
	<path style="fill:none;stroke:red;stroke-width:1px;stroke-linecap:butt;stroke-linejoin:miter;stroke-opacity:1" d="M 98.8341,707.83 nan,nan z" id="boundary" inkscape:connector-curvature="0" />
	<path style="fill:none;stroke:red;stroke-width:1px;stroke-linecap:butt;stroke-linejoin:miter;stroke-opacity:1" d="M 98.8341,707.83 217.961,595.31 z" id="boundary" inkscape:connector-curvature="0" />
	<path style="fill:none;stroke:red;stroke-width:1px;stroke-linecap:butt;stroke-linejoin:miter;stroke-opacity:1" d="M 136.267,4 276.314,66.2431 z" id="boundary" inkscape:connector-curvature="0" />
	<path style="fill:none;stroke:red;stroke-width:1px;stroke-linecap:butt;stroke-linejoin:miter;stroke-opacity:1" d="M 217.961,595.31 225.741,501.945 z" id="boundary" inkscape:connector-curvature="0" />
	<path style="fill:none;stroke:red;stroke-width:1px;stroke-linecap:butt;stroke-linejoin:miter;stroke-opacity:1" d="M 225.741,501.945 272.424,276.314 z" id="boundary" inkscape:connector-curvature="0" />
	<path style="fill:none;stroke:red;stroke-width:1px;stroke-linecap:butt;stroke-linejoin:miter;stroke-opacity:1" d="M 272.424,276.314 276.314,66.2431 z" id="boundary" inkscape:connector-curvature="0" />
	<circle cx="4" cy="167.388" r="4" fill="#0" id="circle0"/>
	<circle cx="4" cy="206.29" r="4" fill="#0" id="circle1"/>
	<circle cx="4" cy="245.192" r="4" fill="#0" id="circle2"/>
	<circle cx="4" cy="284.094" r="4" fill="#0" id="circle3"/>
	<circle cx="4" cy="322.996" r="4" fill="#0" id="circle4"/>
	<circle cx="11.7804" cy="112.925" r="4" fill="#0" id="circle5"/>
	<circle cx="15.6706" cy="361.898" r="4" fill="#0" id="circle6"/>
	<circle cx="27.3412" cy="66.2431" r="4" fill="#0" id="circle7"/>
	<circle cx="31.2314" cy="400.8" r="4" fill="#0" id="circle8"/>
	<circle cx="50.6824" cy="435.812" r="4" fill="#0" id="circle9"/>
	<circle cx="58.4627" cy="35.1216" r="4" fill="#0" id="circle10"/>
	<circle cx="58.4627" cy="474.714" r="4" fill="#0" id="circle11"/>
	<circle cx="58.4627" cy="513.616" r="4" fill="#0" id="circle12"/>
	<circle cx="66.2431" cy="552.518" r="4" fill="#0" id="circle13"/>
	<circle cx="66.2431" cy="591.42" r="4" fill="#0" id="circle14"/>
	<circle cx="66.2431" cy="630.322" r="4" fill="#0" id="circle15"/>
	<circle cx="66.2431" cy="669.224" r="4" fill="#0" id="circle16"/>
	<circle cx="66.2431" cy="960.988" r="4" fill="#0" id="circle17"/>
	<circle cx="98.8341" cy="707.83" r="4" fill="#0" id="circle18"/>
	<circle cx="74.0235" cy="747.027" r="4" fill="#0" id="circle19"/>
	<circle cx="74.0235" cy="785.929" r="4" fill="#0" id="circle20"/>
	<circle cx="nan" cy="nan" r="4" fill="#0" id="circle21"/>
	<circle cx="74.0235" cy="863.733" r="4" fill="#0" id="circle22"/>
	<circle cx="74.0235" cy="902.635" r="4" fill="#0" id="circle23"/>
	<circle cx="85.6941" cy="996" r="4" fill="#0" id="circle24"/>
	<circle cx="97.3647" cy="19.5608" r="4" fill="#0" id="circle25"/>
	<circle cx="116.816" cy="424.141" r="4" fill="#0" id="circle26"/>
	<circle cx="116.816" cy="463.043" r="4" fill="#0" id="circle27"/>
	<circle cx="116.816" cy="501.945" r="4" fill="#0" id="circle28"/>
	<circle cx="116.816" cy="540.847" r="4" fill="#0" id="circle29"/>
	<circle cx="116.816" cy="579.749" r="4" fill="#0" id="circle30"/>
	<circle cx="116.816" cy="618.651" r="4" fill="#0" id="circle31"/>
	<circle cx="116.816" cy="657.553" r="4" fill="#0" id="circle32"/>
	<circle cx="116.816" cy="696.455" r="4" fill="#0" id="circle33"/>
	<circle cx="116.816" cy="735.357" r="4" fill="#0" id="circle34"/>
	<circle cx="116.816" cy="774.259" r="4" fill="#0" id="circle35"/>
	<circle cx="116.816" cy="813.161" r="4" fill="#0" id="circle36"/>
	<circle cx="116.816" cy="852.063" r="4" fill="#0" id="circle37"/>
	<circle cx="116.816" cy="890.965" r="4" fill="#0" id="circle38"/>
	<circle cx="116.816" cy="929.867" r="4" fill="#0" id="circle39"/>
	<circle cx="124.596" cy="988.22" r="4" fill="#0" id="circle40"/>
	<circle cx="136.267" cy="4" r="4" fill="#0" id="circle41"/>
	<circle cx="155.718" cy="416.361" r="4" fill="#0" id="circle42"/>
	<circle cx="167.388" cy="455.263" r="4" fill="#0" id="circle43"/>
	<circle cx="167.388" cy="494.165" r="4" fill="#0" id="circle44"/>
	<circle cx="167.388" cy="533.067" r="4" fill="#0" id="circle45"/>
	<circle cx="167.388" cy="571.969" r="4" fill="#0" id="circle46"/>
	<circle cx="167.388" cy="610.871" r="4" fill="#0" id="circle47"/>
	<circle cx="167.388" cy="649.773" r="4" fill="#0" id="circle48"/>
	<circle cx="167.388" cy="688.675" r="4" fill="#0" id="circle49"/>
	<circle cx="167.388" cy="727.576" r="4" fill="#0" id="circle50"/>
	<circle cx="167.388" cy="766.478" r="4" fill="#0" id="circle51"/>
	<circle cx="175.169" cy="4" r="4" fill="#0" id="circle52"/>
	<circle cx="175.169" cy="805.38" r="4" fill="#0" id="circle53"/>
	<circle cx="175.169" cy="844.282" r="4" fill="#0" id="circle54"/>
	<circle cx="175.169" cy="883.184" r="4" fill="#0" id="circle55"/>
	<circle cx="175.169" cy="922.086" r="4" fill="#0" id="circle56"/>
	<circle cx="175.169" cy="960.988" r="4" fill="#0" id="circle57"/>
	<circle cx="194.62" cy="996" r="4" fill="#0" id="circle58"/>
	<circle cx="210.18" cy="634.212" r="4" fill="#0" id="circle59"/>
	<circle cx="210.18" cy="673.114" r="4" fill="#0" id="circle60"/>
	<circle cx="210.18" cy="712.016" r="4" fill="#0" id="circle61"/>
	<circle cx="210.18" cy="750.918" r="4" fill="#0" id="circle62"/>
	<circle cx="214.071" cy="15.6706" r="4" fill="#0" id="circle63"/>
	<circle cx="217.961" cy="556.408" r="4" fill="#0" id="circle64"/>
	<circle cx="217.961" cy="595.31" r="4" fill="#0" id="circle65"/>
	<circle cx="217.961" cy="789.82" r="4" fill="#0" id="circle66"/>
	<circle cx="217.961" cy="828.722" r="4" fill="#0" id="circle67"/>
	<circle cx="217.961" cy="867.624" r="4" fill="#0" id="circle68"/>
	<circle cx="217.961" cy="906.525" r="4" fill="#0" id="circle69"/>
	<circle cx="221.851" cy="945.427" r="4" fill="#0" id="circle70"/>
	<circle cx="225.741" cy="501.945" r="4" fill="#0" id="circle71"/>
	<circle cx="233.522" cy="431.922" r="4" fill="#0" id="circle72"/>
	<circle cx="233.522" cy="992.11" r="4" fill="#0" id="circle73"/>
	<circle cx="241.302" cy="361.898" r="4" fill="#0" id="circle74"/>
	<circle cx="249.082" cy="35.1216" r="4" fill="#0" id="circle75"/>
	<circle cx="249.082" cy="315.216" r="4" fill="#0" id="circle76"/>
	<circle cx="260.753" cy="957.098" r="4" fill="#0" id="circle77"/>
	<circle cx="272.424" cy="276.314" r="4" fill="#0" id="circle78"/>
	<circle cx="276.314" cy="66.2431" r="4" fill="#0" id="circle79"/>
	<circle cx="280.204" cy="229.631" r="4" fill="#0" id="circle80"/>
	<circle cx="287.984" cy="105.145" r="4" fill="#0" id="circle81"/>
	<circle cx="287.984" cy="144.047" r="4" fill="#0" id="circle82"/>
	<circle cx="287.984" cy="182.949" r="4" fill="#0" id="circle83"/>
	</g>
</svg>