<?xml version="1.0" encoding="UTF-8" standalone="no"?>
<!-- Created with CurveBenchmark -->
<svg
	xmlns:dc="http://purl.org/dc/elements/1.1/"
	xmlns:cc="http://creativecommons.org/ns#"
	xmlns:rdf="http://www.w3.org/1999/02/22-rdf-syntax-ns#"
	xmlns:svg="http://www.w3.org/2000/svg"
	xmlns="http://www.w3.org/2000/svg"
	xmlns:sodipodi="http://sodipodi.sourceforge.net/DTD/sodipodi-0.dtd"
	xmlns:inkscape="http://www.inkscape.org/namespaces/inkscape"
	width="1000"
	height="1000"
	id="svg2"
	version="1.1"
	sodipodi:docname="manifold/stretchdenoise-cat44.png.txt">
<defs
	id="defs4" />
<metadata
	id="metadata7">
	<rdf:RDF>
		<cc:Work
			rdf:about="">
			<dc:format>image/svg+xml</dc:format>
			<dc:type
				rdf:resource="http://purl.org/dc/dcmitype/StillImage" />
			<dc:title></dc:title>
		</cc:Work>
	</rdf:RDF>
</metadata>
<g
	inkscape:label="Layer 1"
	inkscape:groupmode="layer"
	id="layer1">
	<path style="fill:none;stroke:red;stroke-width:1px;stroke-linecap:butt;stroke-linejoin:miter;stroke-opacity:1" d="M nan,nan nan,nan z" id="boundary" inkscape:connector-curvature="0" />
	<path style="fill:none;stroke:red;stroke-width:1px;stroke-linecap:butt;stroke-linejoin:miter;stroke-opacity:1" d="M nan,nan nan,nan z" id="boundary" inkscape:connector-curvature="0" />
	<path style="fill:none;stroke:red;stroke-width:1px;stroke-linecap:butt;stroke-linejoin:miter;stroke-opacity:1" d="M nan,nan nan,nan z" id="boundary" inkscape:connector-curvature="0" />
	<path style="fill:none;stroke:red;stroke-width:1px;stroke-linecap:butt;stroke-linejoin:miter;stroke-opacity:1" d="M nan,nan nan,nan z" id="boundary" inkscape:connector-curvature="0" />
	<path style="fill:none;stroke:red;stroke-width:1px;stroke-linecap:butt;stroke-linejoin:miter;stroke-opacity:1" d="M nan,nan nan,nan z" id="boundary" inkscape:connector-curvature="0" />
	<path style="fill:none;stroke:red;stroke-width:1px;stroke-linecap:butt;stroke-linejoin:miter;stroke-opacity:1" d="M nan,nan nan,nan z" id="boundary" inkscape:connector-curvature="0" />
	<path style="fill:none;stroke:red;stroke-width:1px;stroke-linecap:butt;stroke-linejoin:miter;stroke-opacity:1" d="M nan,nan nan,nan z" id="boundary" inkscape:connector-curvature="0" />
	<path style="fill:none;stroke:red;stroke-width:1px;stroke-linecap:butt;stroke-linejoin:miter;stroke-opacity:1" d="M nan,nan nan,nan z" id="boundary" inkscape:connector-curvature="0" />
	<path style="fill:none;stroke:red;stroke-width:1px;stroke-linecap:butt;stroke-linejoin:miter;stroke-opacity:1" d="M nan,nan nan,nan z" id="boundary" inkscape:connector-curvature="0" />
	<path style="fill:none;stroke:red;stroke-width:1px;stroke-linecap:butt;stroke-linejoin:miter;stroke-opacity:1" d="M nan,nan nan,nan z" id="boundary" inkscape:connector-curvature="0" />
	<path style="fill:none;stroke:red;stroke-width:1px;stroke-linecap:butt;stroke-linejoin:miter;stroke-opacity:1" d="M nan,nan nan,nan z" id="boundary" inkscape:connector-curvature="0" />
	<path style="fill:none;stroke:red;stroke-width:1px;stroke-linecap:butt;stroke-linejoin:miter;stroke-opacity:1" d="M nan,nan nan,nan z" id="boundary" inkscape:connector-curvature="0" />
	<path style="fill:none;stroke:red;stroke-width:1px;stroke-linecap:butt;stroke-linejoin:miter;stroke-opacity:1" d="M nan,nan nan,nan z" id="boundary" inkscape:connector-curvature="0" />
	<path style="fill:none;stroke:red;stroke-width:1px;stroke-linecap:butt;stroke-linejoin:miter;stroke-opacity:1" d="M nan,nan nan,nan z" id="boundary" inkscape:connector-curvature="0" />
	<path style="fill:none;stroke:red;stroke-width:1px;stroke-linecap:butt;stroke-linejoin:miter;stroke-opacity:1" d="M nan,nan nan,nan z" id="boundary" inkscape:connector-curvature="0" />
	<path style="fill:none;stroke:red;stroke-width:1px;stroke-linecap:butt;stroke-linejoin:miter;stroke-opacity:1" d="M nan,nan nan,nan z" id="boundary" inkscape:connector-curvature="0" />
	<path style="fill:none;stroke:red;stroke-width:1px;stroke-linecap:butt;stroke-linejoin:miter;stroke-opacity:1" d="M nan,nan nan,nan z" id="boundary" inkscape:connector-curvature="0" />
	<path style="fill:none;stroke:red;stroke-width:1px;stroke-linecap:butt;stroke-linejoin:miter;stroke-opacity:1" d="M nan,nan nan,nan z" id="boundary" inkscape:connector-curvature="0" />
	<path style="fill:none;stroke:red;stroke-width:1px;stroke-linecap:butt;stroke-linejoin:miter;stroke-opacity:1" d="M nan,nan nan,nan z" id="boundary" inkscape:connector-curvature="0" />
	<path style="fill:none;stroke:red;stroke-width:1px;stroke-linecap:butt;stroke-linejoin:miter;stroke-opacity:1" d="M nan,nan nan,nan z" id="boundary" inkscape:connector-curvature="0" />
	<path style="fill:none;stroke:red;stroke-width:1px;stroke-linecap:butt;stroke-linejoin:miter;stroke-opacity:1" d="M nan,nan nan,nan z" id="boundary" inkscape:connector-curvature="0" />
	<path style="fill:none;stroke:red;stroke-width:1px;stroke-linecap:butt;stroke-linejoin:miter;stroke-opacity:1" d="M nan,nan nan,nan z" id="boundary" inkscape:connector-curvature="0" />
	<path style="fill:none;stroke:red;stroke-width:1px;stroke-linecap:butt;stroke-linejoin:miter;stroke-opacity:1" d="M nan,nan nan,nan z" id="boundary" inkscape:connector-curvature="0" />
	<path style="fill:none;stroke:red;stroke-width:1px;stroke-linecap:butt;stroke-linejoin:miter;stroke-opacity:1" d="M nan,nan nan,nan z" id="boundary" inkscape:connector-curvature="0" />
	<path style="fill:none;stroke:red;stroke-width:1px;stroke-linecap:butt;stroke-linejoin:miter;stroke-opacity:1" d="M nan,nan nan,nan z" id="boundary" inkscape:connector-curvature="0" />
	<path style="fill:none;stroke:red;stroke-width:1px;stroke-linecap:butt;stroke-linejoin:miter;stroke-opacity:1" d="M nan,nan nan,nan z" id="boundary" inkscape:connector-curvature="0" />
	<path style="fill:none;stroke:red;stroke-width:1px;stroke-linecap:butt;stroke-linejoin:miter;stroke-opacity:1" d="M nan,nan nan,nan z" id="boundary" inkscape:connector-curvature="0" />
	<path style="fill:none;stroke:red;stroke-width:1px;stroke-linecap:butt;stroke-linejoin:miter;stroke-opacity:1" d="M nan,nan nan,nan z" id="boundary" inkscape:connector-curvature="0" />
	<path style="fill:none;stroke:red;stroke-width:1px;stroke-linecap:butt;stroke-linejoin:miter;stroke-opacity:1" d="M nan,nan nan,nan z" id="boundary" inkscape:connector-curvature="0" />
	<path style="fill:none;stroke:red;stroke-width:1px;stroke-linecap:butt;stroke-linejoin:miter;stroke-opacity:1" d="M nan,nan nan,nan z" id="boundary" inkscape:connector-curvature="0" />
	<path style="fill:none;stroke:red;stroke-width:1px;stroke-linecap:butt;stroke-linejoin:miter;stroke-opacity:1" d="M nan,nan nan,nan z" id="boundary" inkscape:connector-curvature="0" />
	<path style="fill:none;stroke:red;stroke-width:1px;stroke-linecap:butt;stroke-linejoin:miter;stroke-opacity:1" d="M nan,nan nan,nan z" id="boundary" inkscape:connector-curvature="0" />
	<path style="fill:none;stroke:red;stroke-width:1px;stroke-linecap:butt;stroke-linejoin:miter;stroke-opacity:1" d="M nan,nan nan,nan z" id="boundary" inkscape:connector-curvature="0" />
	<path style="fill:none;stroke:red;stroke-width:1px;stroke-linecap:butt;stroke-linejoin:miter;stroke-opacity:1" d="M nan,nan nan,nan z" id="boundary" inkscape:connector-curvature="0" />
	<path style="fill:none;stroke:red;stroke-width:1px;stroke-linecap:butt;stroke-linejoin:miter;stroke-opacity:1" d="M nan,nan nan,nan z" id="boundary" inkscape:connector-curvature="0" />
	<path style="fill:none;stroke:red;stroke-width:1px;stroke-linecap:butt;stroke-linejoin:miter;stroke-opacity:1" d="M nan,nan nan,nan z" id="boundary" inkscape:connector-curvature="0" />
	<path style="fill:none;stroke:red;stroke-width:1px;stroke-linecap:butt;stroke-linejoin:miter;stroke-opacity:1" d="M nan,nan nan,nan z" id="boundary" inkscape:connector-curvature="0" />
	<path style="fill:none;stroke:red;stroke-width:1px;stroke-linecap:butt;stroke-linejoin:miter;stroke-opacity:1" d="M nan,nan nan,nan z" id="boundary" inkscape:connector-curvature="0" />
	<path style="fill:none;stroke:red;stroke-width:1px;stroke-linecap:butt;stroke-linejoin:miter;stroke-opacity:1" d="M nan,nan nan,nan z" id="boundary" inkscape:connector-curvature="0" />
	<path style="fill:none;stroke:red;stroke-width:1px;stroke-linecap:butt;stroke-linejoin:miter;stroke-opacity:1" d="M nan,nan nan,nan z" id="boundary" inkscape:connector-curvature="0" />
	<path style="fill:none;stroke:red;stroke-width:1px;stroke-linecap:butt;stroke-linejoin:miter;stroke-opacity:1" d="M nan,nan nan,nan z" id="boundary" inkscape:connector-curvature="0" />
	<path style="fill:none;stroke:red;stroke-width:1px;stroke-linecap:butt;stroke-linejoin:miter;stroke-opacity:1" d="M nan,nan nan,nan z" id="boundary" inkscape:connector-curvature="0" />
	<path style="fill:none;stroke:red;stroke-width:1px;stroke-linecap:butt;stroke-linejoin:miter;stroke-opacity:1" d="M nan,nan nan,nan z" id="boundary" inkscape:connector-curvature="0" />
	<path style="fill:none;stroke:red;stroke-width:1px;stroke-linecap:butt;stroke-linejoin:miter;stroke-opacity:1" d="M nan,nan nan,nan z" id="boundary" inkscape:connector-curvature="0" />
	<path style="fill:none;stroke:red;stroke-width:1px;stroke-linecap:butt;stroke-linejoin:miter;stroke-opacity:1" d="M nan,nan nan,nan z" id="boundary" inkscape:connector-curvature="0" />
	<path style="fill:none;stroke:red;stroke-width:1px;stroke-linecap:butt;stroke-linejoin:miter;stroke-opacity:1" d="M nan,nan nan,nan z" id="boundary" inkscape:connector-curvature="0" />
	<path style="fill:none;stroke:red;stroke-width:1px;stroke-linecap:butt;stroke-linejoin:miter;stroke-opacity:1" d="M nan,nan nan,nan z" id="boundary" inkscape:connector-curvature="0" />
	<path style="fill:none;stroke:red;stroke-width:1px;stroke-linecap:butt;stroke-linejoin:miter;stroke-opacity:1" d="M nan,nan nan,nan z" id="boundary" inkscape:connector-curvature="0" />
	<path style="fill:none;stroke:red;stroke-width:1px;stroke-linecap:butt;stroke-linejoin:miter;stroke-opacity:1" d="M nan,nan nan,nan z" id="boundary" inkscape:connector-curvature="0" />
	<path style="fill:none;stroke:red;stroke-width:1px;stroke-linecap:butt;stroke-linejoin:miter;stroke-opacity:1" d="M nan,nan nan,nan z" id="boundary" inkscape:connector-curvature="0" />
	<path style="fill:none;stroke:red;stroke-width:1px;stroke-linecap:butt;stroke-linejoin:miter;stroke-opacity:1" d="M nan,nan nan,nan z" id="boundary" inkscape:connector-curvature="0" />
	<path style="fill:none;stroke:red;stroke-width:1px;stroke-linecap:butt;stroke-linejoin:miter;stroke-opacity:1" d="M nan,nan nan,nan z" id="boundary" inkscape:connector-curvature="0" />
	<path style="fill:none;stroke:red;stroke-width:1px;stroke-linecap:butt;stroke-linejoin:miter;stroke-opacity:1" d="M nan,nan nan,nan z" id="boundary" inkscape:connector-curvature="0" />
	<path style="fill:none;stroke:red;stroke-width:1px;stroke-linecap:butt;stroke-linejoin:miter;stroke-opacity:1" d="M nan,nan nan,nan z" id="boundary" inkscape:connector-curvature="0" />
	<path style="fill:none;stroke:red;stroke-width:1px;stroke-linecap:butt;stroke-linejoin:miter;stroke-opacity:1" d="M nan,nan nan,nan z" id="boundary" inkscape:connector-curvature="0" />
	<path style="fill:none;stroke:red;stroke-width:1px;stroke-linecap:butt;stroke-linejoin:miter;stroke-opacity:1" d="M nan,nan nan,nan z" id="boundary" inkscape:connector-curvature="0" />
	<path style="fill:none;stroke:red;stroke-width:1px;stroke-linecap:butt;stroke-linejoin:miter;stroke-opacity:1" d="M nan,nan nan,nan z" id="boundary" inkscape:connector-curvature="0" />
	<path style="fill:none;stroke:red;stroke-width:1px;stroke-linecap:butt;stroke-linejoin:miter;stroke-opacity:1" d="M nan,nan nan,nan z" id="boundary" inkscape:connector-curvature="0" />
	<path style="fill:none;stroke:red;stroke-width:1px;stroke-linecap:butt;stroke-linejoin:miter;stroke-opacity:1" d="M nan,nan nan,nan z" id="boundary" inkscape:connector-curvature="0" />
	<path style="fill:none;stroke:red;stroke-width:1px;stroke-linecap:butt;stroke-linejoin:miter;stroke-opacity:1" d="M nan,nan nan,nan z" id="boundary" inkscape:connector-curvature="0" />
	<path style="fill:none;stroke:red;stroke-width:1px;stroke-linecap:butt;stroke-linejoin:miter;stroke-opacity:1" d="M nan,nan nan,nan z" id="boundary" inkscape:connector-curvature="0" />
	<path style="fill:none;stroke:red;stroke-width:1px;stroke-linecap:butt;stroke-linejoin:miter;stroke-opacity:1" d="M nan,nan nan,nan z" id="boundary" inkscape:connector-curvature="0" />
	<path style="fill:none;stroke:red;stroke-width:1px;stroke-linecap:butt;stroke-linejoin:miter;stroke-opacity:1" d="M nan,nan nan,nan z" id="boundary" inkscape:connector-curvature="0" />
	<path style="fill:none;stroke:red;stroke-width:1px;stroke-linecap:butt;stroke-linejoin:miter;stroke-opacity:1" d="M nan,nan nan,nan z" id="boundary" inkscape:connector-curvature="0" />
	<path style="fill:none;stroke:red;stroke-width:1px;stroke-linecap:butt;stroke-linejoin:miter;stroke-opacity:1" d="M nan,nan -nan,-nan z" id="boundary" inkscape:connector-curvature="0" />
	<path style="fill:none;stroke:red;stroke-width:1px;stroke-linecap:butt;stroke-linejoin:miter;stroke-opacity:1" d="M nan,nan nan,nan z" id="boundary" inkscape:connector-curvature="0" />
	<path style="fill:none;stroke:red;stroke-width:1px;stroke-linecap:butt;stroke-linejoin:miter;stroke-opacity:1" d="M -nan,-nan nan,nan z" id="boundary" inkscape:connector-curvature="0" />
	<path style="fill:none;stroke:red;stroke-width:1px;stroke-linecap:butt;stroke-linejoin:miter;stroke-opacity:1" d="M nan,nan nan,nan z" id="boundary" inkscape:connector-curvature="0" />
	<path style="fill:none;stroke:red;stroke-width:1px;stroke-linecap:butt;stroke-linejoin:miter;stroke-opacity:1" d="M nan,nan nan,nan z" id="boundary" inkscape:connector-curvature="0" />
	<path style="fill:none;stroke:red;stroke-width:1px;stroke-linecap:butt;stroke-linejoin:miter;stroke-opacity:1" d="M nan,nan nan,nan z" id="boundary" inkscape:connector-curvature="0" />
	<path style="fill:none;stroke:red;stroke-width:1px;stroke-linecap:butt;stroke-linejoin:miter;stroke-opacity:1" d="M nan,nan nan,nan z" id="boundary" inkscape:connector-curvature="0" />
	<path style="fill:none;stroke:red;stroke-width:1px;stroke-linecap:butt;stroke-linejoin:miter;stroke-opacity:1" d="M nan,nan nan,nan z" id="boundary" inkscape:connector-curvature="0" />
	<path style="fill:none;stroke:red;stroke-width:1px;stroke-linecap:butt;stroke-linejoin:miter;stroke-opacity:1" d="M nan,nan nan,nan z" id="boundary" inkscape:connector-curvature="0" />
	<path style="fill:none;stroke:red;stroke-width:1px;stroke-linecap:butt;stroke-linejoin:miter;stroke-opacity:1" d="M nan,nan nan,nan z" id="boundary" inkscape:connector-curvature="0" />
	<path style="fill:none;stroke:red;stroke-width:1px;stroke-linecap:butt;stroke-linejoin:miter;stroke-opacity:1" d="M nan,nan nan,nan z" id="boundary" inkscape:connector-curvature="0" />
	<path style="fill:none;stroke:red;stroke-width:1px;stroke-linecap:butt;stroke-linejoin:miter;stroke-opacity:1" d="M nan,nan nan,nan z" id="boundary" inkscape:connector-curvature="0" />
	<path style="fill:none;stroke:red;stroke-width:1px;stroke-linecap:butt;stroke-linejoin:miter;stroke-opacity:1" d="M nan,nan nan,nan z" id="boundary" inkscape:connector-curvature="0" />
	<path style="fill:none;stroke:red;stroke-width:1px;stroke-linecap:butt;stroke-linejoin:miter;stroke-opacity:1" d="M nan,nan nan,nan z" id="boundary" inkscape:connector-curvature="0" />
	<path style="fill:none;stroke:red;stroke-width:1px;stroke-linecap:butt;stroke-linejoin:miter;stroke-opacity:1" d="M nan,nan nan,nan z" id="boundary" inkscape:connector-curvature="0" />
	<path style="fill:none;stroke:red;stroke-width:1px;stroke-linecap:butt;stroke-linejoin:miter;stroke-opacity:1" d="M nan,nan nan,nan z" id="boundary" inkscape:connector-curvature="0" />
	<path style="fill:none;stroke:red;stroke-width:1px;stroke-linecap:butt;stroke-linejoin:miter;stroke-opacity:1" d="M nan,nan nan,nan z" id="boundary" inkscape:connector-curvature="0" />
	<path style="fill:none;stroke:red;stroke-width:1px;stroke-linecap:butt;stroke-linejoin:miter;stroke-opacity:1" d="M nan,nan nan,nan z" id="boundary" inkscape:connector-curvature="0" />
	<path style="fill:none;stroke:red;stroke-width:1px;stroke-linecap:butt;stroke-linejoin:miter;stroke-opacity:1" d="M nan,nan nan,nan z" id="boundary" inkscape:connector-curvature="0" />
	<path style="fill:none;stroke:red;stroke-width:1px;stroke-linecap:butt;stroke-linejoin:miter;stroke-opacity:1" d="M nan,nan nan,nan z" id="boundary" inkscape:connector-curvature="0" />
	<path style="fill:none;stroke:red;stroke-width:1px;stroke-linecap:butt;stroke-linejoin:miter;stroke-opacity:1" d="M nan,nan nan,nan z" id="boundary" inkscape:connector-curvature="0" />
	<path style="fill:none;stroke:red;stroke-width:1px;stroke-linecap:butt;stroke-linejoin:miter;stroke-opacity:1" d="M nan,nan nan,nan z" id="boundary" inkscape:connector-curvature="0" />
	<path style="fill:none;stroke:red;stroke-width:1px;stroke-linecap:butt;stroke-linejoin:miter;stroke-opacity:1" d="M nan,nan nan,nan z" id="boundary" inkscape:connector-curvature="0" />
	<path style="fill:none;stroke:red;stroke-width:1px;stroke-linecap:butt;stroke-linejoin:miter;stroke-opacity:1" d="M nan,nan nan,nan z" id="boundary" inkscape:connector-curvature="0" />
	<path style="fill:none;stroke:red;stroke-width:1px;stroke-linecap:butt;stroke-linejoin:miter;stroke-opacity:1" d="M nan,nan nan,nan z" id="boundary" inkscape:connector-curvature="0" />
	<path style="fill:none;stroke:red;stroke-width:1px;stroke-linecap:butt;stroke-linejoin:miter;stroke-opacity:1" d="M nan,nan nan,nan z" id="boundary" inkscape:connector-curvature="0" />
	<path style="fill:none;stroke:red;stroke-width:1px;stroke-linecap:butt;stroke-linejoin:miter;stroke-opacity:1" d="M nan,nan nan,nan z" id="boundary" inkscape:connector-curvature="0" />
	<path style="fill:none;stroke:red;stroke-width:1px;stroke-linecap:butt;stroke-linejoin:miter;stroke-opacity:1" d="M nan,nan nan,nan z" id="boundary" inkscape:connector-curvature="0" />
	<path style="fill:none;stroke:red;stroke-width:1px;stroke-linecap:butt;stroke-linejoin:miter;stroke-opacity:1" d="M nan,nan nan,nan z" id="boundary" inkscape:connector-curvature="0" />
	<path style="fill:none;stroke:red;stroke-width:1px;stroke-linecap:butt;stroke-linejoin:miter;stroke-opacity:1" d="M nan,nan nan,nan z" id="boundary" inkscape:connector-curvature="0" />
	<path style="fill:none;stroke:red;stroke-width:1px;stroke-linecap:butt;stroke-linejoin:miter;stroke-opacity:1" d="M nan,nan nan,nan z" id="boundary" inkscape:connector-curvature="0" />
	<path style="fill:none;stroke:red;stroke-width:1px;stroke-linecap:butt;stroke-linejoin:miter;stroke-opacity:1" d="M nan,nan nan,nan z" id="boundary" inkscape:connector-curvature="0" />
	<path style="fill:none;stroke:red;stroke-width:1px;stroke-linecap:butt;stroke-linejoin:miter;stroke-opacity:1" d="M nan,nan nan,nan z" id="boundary" inkscape:connector-curvature="0" />
	<path style="fill:none;stroke:red;stroke-width:1px;stroke-linecap:butt;stroke-linejoin:miter;stroke-opacity:1" d="M nan,nan nan,nan z" id="boundary" inkscape:connector-curvature="0" />
	<path style="fill:none;stroke:red;stroke-width:1px;stroke-linecap:butt;stroke-linejoin:miter;stroke-opacity:1" d="M nan,nan nan,nan z" id="boundary" inkscape:connector-curvature="0" />
	<path style="fill:none;stroke:red;stroke-width:1px;stroke-linecap:butt;stroke-linejoin:miter;stroke-opacity:1" d="M nan,nan nan,nan z" id="boundary" inkscape:connector-curvature="0" />
	<path style="fill:none;stroke:red;stroke-width:1px;stroke-linecap:butt;stroke-linejoin:miter;stroke-opacity:1" d="M nan,nan nan,nan z" id="boundary" inkscape:connector-curvature="0" />
	<path style="fill:none;stroke:red;stroke-width:1px;stroke-linecap:butt;stroke-linejoin:miter;stroke-opacity:1" d="M nan,nan nan,nan z" id="boundary" inkscape:connector-curvature="0" />
	<path style="fill:none;stroke:red;stroke-width:1px;stroke-linecap:butt;stroke-linejoin:miter;stroke-opacity:1" d="M nan,nan nan,nan z" id="boundary" inkscape:connector-curvature="0" />
	<path style="fill:none;stroke:red;stroke-width:1px;stroke-linecap:butt;stroke-linejoin:miter;stroke-opacity:1" d="M nan,nan nan,nan z" id="boundary" inkscape:connector-curvature="0" />
	<path style="fill:none;stroke:red;stroke-width:1px;stroke-linecap:butt;stroke-linejoin:miter;stroke-opacity:1" d="M nan,nan nan,nan z" id="boundary" inkscape:connector-curvature="0" />
	<path style="fill:none;stroke:red;stroke-width:1px;stroke-linecap:butt;stroke-linejoin:miter;stroke-opacity:1" d="M nan,nan nan,nan z" id="boundary" inkscape:connector-curvature="0" />
	<path style="fill:none;stroke:red;stroke-width:1px;stroke-linecap:butt;stroke-linejoin:miter;stroke-opacity:1" d="M nan,nan nan,nan z" id="boundary" inkscape:connector-curvature="0" />
	<path style="fill:none;stroke:red;stroke-width:1px;stroke-linecap:butt;stroke-linejoin:miter;stroke-opacity:1" d="M nan,nan nan,nan z" id="boundary" inkscape:connector-curvature="0" />
	<path style="fill:none;stroke:red;stroke-width:1px;stroke-linecap:butt;stroke-linejoin:miter;stroke-opacity:1" d="M nan,nan nan,nan z" id="boundary" inkscape:connector-curvature="0" />
	<path style="fill:none;stroke:red;stroke-width:1px;stroke-linecap:butt;stroke-linejoin:miter;stroke-opacity:1" d="M nan,nan nan,nan z" id="boundary" inkscape:connector-curvature="0" />
	<path style="fill:none;stroke:red;stroke-width:1px;stroke-linecap:butt;stroke-linejoin:miter;stroke-opacity:1" d="M nan,nan nan,nan z" id="boundary" inkscape:connector-curvature="0" />
	<path style="fill:none;stroke:red;stroke-width:1px;stroke-linecap:butt;stroke-linejoin:miter;stroke-opacity:1" d="M nan,nan nan,nan z" id="boundary" inkscape:connector-curvature="0" />
	<path style="fill:none;stroke:red;stroke-width:1px;stroke-linecap:butt;stroke-linejoin:miter;stroke-opacity:1" d="M nan,nan nan,nan z" id="boundary" inkscape:connector-curvature="0" />
	<path style="fill:none;stroke:red;stroke-width:1px;stroke-linecap:butt;stroke-linejoin:miter;stroke-opacity:1" d="M nan,nan nan,nan z" id="boundary" inkscape:connector-curvature="0" />
	<path style="fill:none;stroke:red;stroke-width:1px;stroke-linecap:butt;stroke-linejoin:miter;stroke-opacity:1" d="M nan,nan nan,nan z" id="boundary" inkscape:connector-curvature="0" />
	<path style="fill:none;stroke:red;stroke-width:1px;stroke-linecap:butt;stroke-linejoin:miter;stroke-opacity:1" d="M nan,nan nan,nan z" id="boundary" inkscape:connector-curvature="0" />
	<path style="fill:none;stroke:red;stroke-width:1px;stroke-linecap:butt;stroke-linejoin:miter;stroke-opacity:1" d="M nan,nan nan,nan z" id="boundary" inkscape:connector-curvature="0" />
	<path style="fill:none;stroke:red;stroke-width:1px;stroke-linecap:butt;stroke-linejoin:miter;stroke-opacity:1" d="M nan,nan nan,nan z" id="boundary" inkscape:connector-curvature="0" />
	<path style="fill:none;stroke:red;stroke-width:1px;stroke-linecap:butt;stroke-linejoin:miter;stroke-opacity:1" d="M nan,nan nan,nan z" id="boundary" inkscape:connector-curvature="0" />
	<path style="fill:none;stroke:red;stroke-width:1px;stroke-linecap:butt;stroke-linejoin:miter;stroke-opacity:1" d="M nan,nan nan,nan z" id="boundary" inkscape:connector-curvature="0" />
	<path style="fill:none;stroke:red;stroke-width:1px;stroke-linecap:butt;stroke-linejoin:miter;stroke-opacity:1" d="M nan,nan nan,nan z" id="boundary" inkscape:connector-curvature="0" />
	<path style="fill:none;stroke:red;stroke-width:1px;stroke-linecap:butt;stroke-linejoin:miter;stroke-opacity:1" d="M nan,nan nan,nan z" id="boundary" inkscape:connector-curvature="0" />
	<path style="fill:none;stroke:red;stroke-width:1px;stroke-linecap:butt;stroke-linejoin:miter;stroke-opacity:1" d="M nan,nan nan,nan z" id="boundary" inkscape:connector-curvature="0" />
	<path style="fill:none;stroke:red;stroke-width:1px;stroke-linecap:butt;stroke-linejoin:miter;stroke-opacity:1" d="M nan,nan nan,nan z" id="boundary" inkscape:connector-curvature="0" />
	<path style="fill:none;stroke:red;stroke-width:1px;stroke-linecap:butt;stroke-linejoin:miter;stroke-opacity:1" d="M nan,nan nan,nan z" id="boundary" inkscape:connector-curvature="0" />
	<path style="fill:none;stroke:red;stroke-width:1px;stroke-linecap:butt;stroke-linejoin:miter;stroke-opacity:1" d="M nan,nan nan,nan z" id="boundary" inkscape:connector-curvature="0" />
	<path style="fill:none;stroke:red;stroke-width:1px;stroke-linecap:butt;stroke-linejoin:miter;stroke-opacity:1" d="M nan,nan nan,nan z" id="boundary" inkscape:connector-curvature="0" />
	<path style="fill:none;stroke:red;stroke-width:1px;stroke-linecap:butt;stroke-linejoin:miter;stroke-opacity:1" d="M nan,nan nan,nan z" id="boundary" inkscape:connector-curvature="0" />
	<path style="fill:none;stroke:red;stroke-width:1px;stroke-linecap:butt;stroke-linejoin:miter;stroke-opacity:1" d="M nan,nan nan,nan z" id="boundary" inkscape:connector-curvature="0" />
	<path style="fill:none;stroke:red;stroke-width:1px;stroke-linecap:butt;stroke-linejoin:miter;stroke-opacity:1" d="M nan,nan nan,nan z" id="boundary" inkscape:connector-curvature="0" />
	<path style="fill:none;stroke:red;stroke-width:1px;stroke-linecap:butt;stroke-linejoin:miter;stroke-opacity:1" d="M nan,nan nan,nan z" id="boundary" inkscape:connector-curvature="0" />
	<path style="fill:none;stroke:red;stroke-width:1px;stroke-linecap:butt;stroke-linejoin:miter;stroke-opacity:1" d="M nan,nan nan,nan z" id="boundary" inkscape:connector-curvature="0" />
	<path style="fill:none;stroke:red;stroke-width:1px;stroke-linecap:butt;stroke-linejoin:miter;stroke-opacity:1" d="M nan,nan nan,nan z" id="boundary" inkscape:connector-curvature="0" />
	<path style="fill:none;stroke:red;stroke-width:1px;stroke-linecap:butt;stroke-linejoin:miter;stroke-opacity:1" d="M nan,nan nan,nan z" id="boundary" inkscape:connector-curvature="0" />
	<path style="fill:none;stroke:red;stroke-width:1px;stroke-linecap:butt;stroke-linejoin:miter;stroke-opacity:1" d="M nan,nan nan,nan z" id="boundary" inkscape:connector-curvature="0" />
	<path style="fill:none;stroke:red;stroke-width:1px;stroke-linecap:butt;stroke-linejoin:miter;stroke-opacity:1" d="M nan,nan nan,nan z" id="boundary" inkscape:connector-curvature="0" />
	<path style="fill:none;stroke:red;stroke-width:1px;stroke-linecap:butt;stroke-linejoin:miter;stroke-opacity:1" d="M nan,nan nan,nan z" id="boundary" inkscape:connector-curvature="0" />
	<path style="fill:none;stroke:red;stroke-width:1px;stroke-linecap:butt;stroke-linejoin:miter;stroke-opacity:1" d="M nan,nan nan,nan z" id="boundary" inkscape:connector-curvature="0" />
	<path style="fill:none;stroke:red;stroke-width:1px;stroke-linecap:butt;stroke-linejoin:miter;stroke-opacity:1" d="M nan,nan nan,nan z" id="boundary" inkscape:connector-curvature="0" />
	<path style="fill:none;stroke:red;stroke-width:1px;stroke-linecap:butt;stroke-linejoin:miter;stroke-opacity:1" d="M nan,nan nan,nan z" id="boundary" inkscape:connector-curvature="0" />
	<path style="fill:none;stroke:red;stroke-width:1px;stroke-linecap:butt;stroke-linejoin:miter;stroke-opacity:1" d="M nan,nan nan,nan z" id="boundary" inkscape:connector-curvature="0" />
	<path style="fill:none;stroke:red;stroke-width:1px;stroke-linecap:butt;stroke-linejoin:miter;stroke-opacity:1" d="M nan,nan nan,nan z" id="boundary" inkscape:connector-curvature="0" />
	<path style="fill:none;stroke:red;stroke-width:1px;stroke-linecap:butt;stroke-linejoin:miter;stroke-opacity:1" d="M nan,nan nan,nan z" id="boundary" inkscape:connector-curvature="0" />
	<path style="fill:none;stroke:red;stroke-width:1px;stroke-linecap:butt;stroke-linejoin:miter;stroke-opacity:1" d="M nan,nan nan,nan z" id="boundary" inkscape:connector-curvature="0" />
	<path style="fill:none;stroke:red;stroke-width:1px;stroke-linecap:butt;stroke-linejoin:miter;stroke-opacity:1" d="M nan,nan nan,nan z" id="boundary" inkscape:connector-curvature="0" />
	<path style="fill:none;stroke:red;stroke-width:1px;stroke-linecap:butt;stroke-linejoin:miter;stroke-opacity:1" d="M nan,nan nan,nan z" id="boundary" inkscape:connector-curvature="0" />
	<path style="fill:none;stroke:red;stroke-width:1px;stroke-linecap:butt;stroke-linejoin:miter;stroke-opacity:1" d="M nan,nan nan,nan z" id="boundary" inkscape:connector-curvature="0" />
	<path style="fill:none;stroke:red;stroke-width:1px;stroke-linecap:butt;stroke-linejoin:miter;stroke-opacity:1" d="M nan,nan nan,nan z" id="boundary" inkscape:connector-curvature="0" />
	<path style="fill:none;stroke:red;stroke-width:1px;stroke-linecap:butt;stroke-linejoin:miter;stroke-opacity:1" d="M nan,nan nan,nan z" id="boundary" inkscape:connector-curvature="0" />
	<path style="fill:none;stroke:red;stroke-width:1px;stroke-linecap:butt;stroke-linejoin:miter;stroke-opacity:1" d="M nan,nan nan,nan z" id="boundary" inkscape:connector-curvature="0" />
	<path style="fill:none;stroke:red;stroke-width:1px;stroke-linecap:butt;stroke-linejoin:miter;stroke-opacity:1" d="M nan,nan nan,nan z" id="boundary" inkscape:connector-curvature="0" />
	<path style="fill:none;stroke:red;stroke-width:1px;stroke-linecap:butt;stroke-linejoin:miter;stroke-opacity:1" d="M nan,nan nan,nan z" id="boundary" inkscape:connector-curvature="0" />
	<path style="fill:none;stroke:red;stroke-width:1px;stroke-linecap:butt;stroke-linejoin:miter;stroke-opacity:1" d="M nan,nan nan,nan z" id="boundary" inkscape:connector-curvature="0" />
	<path style="fill:none;stroke:red;stroke-width:1px;stroke-linecap:butt;stroke-linejoin:miter;stroke-opacity:1" d="M nan,nan nan,nan z" id="boundary" inkscape:connector-curvature="0" />
	<path style="fill:none;stroke:red;stroke-width:1px;stroke-linecap:butt;stroke-linejoin:miter;stroke-opacity:1" d="M nan,nan nan,nan z" id="boundary" inkscape:connector-curvature="0" />
	<path style="fill:none;stroke:red;stroke-width:1px;stroke-linecap:butt;stroke-linejoin:miter;stroke-opacity:1" d="M nan,nan nan,nan z" id="boundary" inkscape:connector-curvature="0" />
	<path style="fill:none;stroke:red;stroke-width:1px;stroke-linecap:butt;stroke-linejoin:miter;stroke-opacity:1" d="M nan,nan nan,nan z" id="boundary" inkscape:connector-curvature="0" />
	<path style="fill:none;stroke:red;stroke-width:1px;stroke-linecap:butt;stroke-linejoin:miter;stroke-opacity:1" d="M nan,nan nan,nan z" id="boundary" inkscape:connector-curvature="0" />
	<path style="fill:none;stroke:red;stroke-width:1px;stroke-linecap:butt;stroke-linejoin:miter;stroke-opacity:1" d="M nan,nan nan,nan z" id="boundary" inkscape:connector-curvature="0" />
	<path style="fill:none;stroke:red;stroke-width:1px;stroke-linecap:butt;stroke-linejoin:miter;stroke-opacity:1" d="M nan,nan nan,nan z" id="boundary" inkscape:connector-curvature="0" />
	<path style="fill:none;stroke:red;stroke-width:1px;stroke-linecap:butt;stroke-linejoin:miter;stroke-opacity:1" d="M nan,nan nan,nan z" id="boundary" inkscape:connector-curvature="0" />
	<path style="fill:none;stroke:red;stroke-width:1px;stroke-linecap:butt;stroke-linejoin:miter;stroke-opacity:1" d="M nan,nan nan,nan z" id="boundary" inkscape:connector-curvature="0" />
	<path style="fill:none;stroke:red;stroke-width:1px;stroke-linecap:butt;stroke-linejoin:miter;stroke-opacity:1" d="M nan,nan nan,nan z" id="boundary" inkscape:connector-curvature="0" />
	<path style="fill:none;stroke:red;stroke-width:1px;stroke-linecap:butt;stroke-linejoin:miter;stroke-opacity:1" d="M nan,nan nan,nan z" id="boundary" inkscape:connector-curvature="0" />
	<path style="fill:none;stroke:red;stroke-width:1px;stroke-linecap:butt;stroke-linejoin:miter;stroke-opacity:1" d="M nan,nan nan,nan z" id="boundary" inkscape:connector-curvature="0" />
	<path style="fill:none;stroke:red;stroke-width:1px;stroke-linecap:butt;stroke-linejoin:miter;stroke-opacity:1" d="M nan,nan nan,nan z" id="boundary" inkscape:connector-curvature="0" />
	<path style="fill:none;stroke:red;stroke-width:1px;stroke-linecap:butt;stroke-linejoin:miter;stroke-opacity:1" d="M nan,nan nan,nan z" id="boundary" inkscape:connector-curvature="0" />
	<path style="fill:none;stroke:red;stroke-width:1px;stroke-linecap:butt;stroke-linejoin:miter;stroke-opacity:1" d="M nan,nan nan,nan z" id="boundary" inkscape:connector-curvature="0" />
	<path style="fill:none;stroke:red;stroke-width:1px;stroke-linecap:butt;stroke-linejoin:miter;stroke-opacity:1" d="M nan,nan nan,nan z" id="boundary" inkscape:connector-curvature="0" />
	<path style="fill:none;stroke:red;stroke-width:1px;stroke-linecap:butt;stroke-linejoin:miter;stroke-opacity:1" d="M nan,nan nan,nan z" id="boundary" inkscape:connector-curvature="0" />
	<path style="fill:none;stroke:red;stroke-width:1px;stroke-linecap:butt;stroke-linejoin:miter;stroke-opacity:1" d="M nan,nan nan,nan z" id="boundary" inkscape:connector-curvature="0" />
	<path style="fill:none;stroke:red;stroke-width:1px;stroke-linecap:butt;stroke-linejoin:miter;stroke-opacity:1" d="M nan,nan nan,nan z" id="boundary" inkscape:connector-curvature="0" />
	<path style="fill:none;stroke:red;stroke-width:1px;stroke-linecap:butt;stroke-linejoin:miter;stroke-opacity:1" d="M nan,nan nan,nan z" id="boundary" inkscape:connector-curvature="0" />
	<path style="fill:none;stroke:red;stroke-width:1px;stroke-linecap:butt;stroke-linejoin:miter;stroke-opacity:1" d="M nan,nan nan,nan z" id="boundary" inkscape:connector-curvature="0" />
	<path style="fill:none;stroke:red;stroke-width:1px;stroke-linecap:butt;stroke-linejoin:miter;stroke-opacity:1" d="M nan,nan nan,nan z" id="boundary" inkscape:connector-curvature="0" />
	<path style="fill:none;stroke:red;stroke-width:1px;stroke-linecap:butt;stroke-linejoin:miter;stroke-opacity:1" d="M nan,nan nan,nan z" id="boundary" inkscape:connector-curvature="0" />
	<path style="fill:none;stroke:red;stroke-width:1px;stroke-linecap:butt;stroke-linejoin:miter;stroke-opacity:1" d="M nan,nan nan,nan z" id="boundary" inkscape:connector-curvature="0" />
	<path style="fill:none;stroke:red;stroke-width:1px;stroke-linecap:butt;stroke-linejoin:miter;stroke-opacity:1" d="M nan,nan nan,nan z" id="boundary" inkscape:connector-curvature="0" />
	<path style="fill:none;stroke:red;stroke-width:1px;stroke-linecap:butt;stroke-linejoin:miter;stroke-opacity:1" d="M nan,nan nan,nan z" id="boundary" inkscape:connector-curvature="0" />
	<path style="fill:none;stroke:red;stroke-width:1px;stroke-linecap:butt;stroke-linejoin:miter;stroke-opacity:1" d="M nan,nan nan,nan z" id="boundary" inkscape:connector-curvature="0" />
	<path style="fill:none;stroke:red;stroke-width:1px;stroke-linecap:butt;stroke-linejoin:miter;stroke-opacity:1" d="M nan,nan nan,nan z" id="boundary" inkscape:connector-curvature="0" />
	<path style="fill:none;stroke:red;stroke-width:1px;stroke-linecap:butt;stroke-linejoin:miter;stroke-opacity:1" d="M nan,nan nan,nan z" id="boundary" inkscape:connector-curvature="0" />
	<circle cx="nan" cy="nan" r="4" fill="#0" id="circle0"/>
	<circle cx="nan" cy="nan" r="4" fill="#0" id="circle1"/>
	<circle cx="nan" cy="nan" r="4" fill="#0" id="circle2"/>
	<circle cx="nan" cy="nan" r="4" fill="#0" id="circle3"/>
	<circle cx="nan" cy="nan" r="4" fill="#0" id="circle4"/>
	<circle cx="nan" cy="nan" r="4" fill="#0" id="circle5"/>
	<circle cx="nan" cy="nan" r="4" fill="#0" id="circle6"/>
	<circle cx="nan" cy="nan" r="4" fill="#0" id="circle7"/>
	<circle cx="nan" cy="nan" r="4" fill="#0" id="circle8"/>
	<circle cx="nan" cy="nan" r="4" fill="#0" id="circle9"/>
	<circle cx="nan" cy="nan" r="4" fill="#0" id="circle10"/>
	<circle cx="nan" cy="nan" r="4" fill="#0" id="circle11"/>
	<circle cx="nan" cy="nan" r="4" fill="#0" id="circle12"/>
	<circle cx="nan" cy="nan" r="4" fill="#0" id="circle13"/>
	<circle cx="nan" cy="nan" r="4" fill="#0" id="circle14"/>
	<circle cx="nan" cy="nan" r="4" fill="#0" id="circle15"/>
	<circle cx="nan" cy="nan" r="4" fill="#0" id="circle16"/>
	<circle cx="nan" cy="nan" r="4" fill="#0" id="circle17"/>
	<circle cx="nan" cy="nan" r="4" fill="#0" id="circle18"/>
	<circle cx="nan" cy="nan" r="4" fill="#0" id="circle19"/>
	<circle cx="nan" cy="nan" r="4" fill="#0" id="circle20"/>
	<circle cx="nan" cy="nan" r="4" fill="#0" id="circle21"/>
	<circle cx="nan" cy="nan" r="4" fill="#0" id="circle22"/>
	<circle cx="nan" cy="nan" r="4" fill="#0" id="circle23"/>
	<circle cx="nan" cy="nan" r="4" fill="#0" id="circle24"/>
	<circle cx="nan" cy="nan" r="4" fill="#0" id="circle25"/>
	<circle cx="nan" cy="nan" r="4" fill="#0" id="circle26"/>
	<circle cx="nan" cy="nan" r="4" fill="#0" id="circle27"/>
	<circle cx="nan" cy="nan" r="4" fill="#0" id="circle28"/>
	<circle cx="nan" cy="nan" r="4" fill="#0" id="circle29"/>
	<circle cx="nan" cy="nan" r="4" fill="#0" id="circle30"/>
	<circle cx="nan" cy="nan" r="4" fill="#0" id="circle31"/>
	<circle cx="nan" cy="nan" r="4" fill="#0" id="circle32"/>
	<circle cx="nan" cy="nan" r="4" fill="#0" id="circle33"/>
	<circle cx="nan" cy="nan" r="4" fill="#0" id="circle34"/>
	<circle cx="nan" cy="nan" r="4" fill="#0" id="circle35"/>
	<circle cx="nan" cy="nan" r="4" fill="#0" id="circle36"/>
	<circle cx="nan" cy="nan" r="4" fill="#0" id="circle37"/>
	<circle cx="nan" cy="nan" r="4" fill="#0" id="circle38"/>
	<circle cx="nan" cy="nan" r="4" fill="#0" id="circle39"/>
	<circle cx="nan" cy="nan" r="4" fill="#0" id="circle40"/>
	<circle cx="nan" cy="nan" r="4" fill="#0" id="circle41"/>
	<circle cx="nan" cy="nan" r="4" fill="#0" id="circle42"/>
	<circle cx="nan" cy="nan" r="4" fill="#0" id="circle43"/>
	<circle cx="nan" cy="nan" r="4" fill="#0" id="circle44"/>
	<circle cx="nan" cy="nan" r="4" fill="#0" id="circle45"/>
	<circle cx="nan" cy="nan" r="4" fill="#0" id="circle46"/>
	<circle cx="nan" cy="nan" r="4" fill="#0" id="circle47"/>
	<circle cx="nan" cy="nan" r="4" fill="#0" id="circle48"/>
	<circle cx="nan" cy="nan" r="4" fill="#0" id="circle49"/>
	<circle cx="nan" cy="nan" r="4" fill="#0" id="circle50"/>
	<circle cx="nan" cy="nan" r="4" fill="#0" id="circle51"/>
	<circle cx="nan" cy="nan" r="4" fill="#0" id="circle52"/>
	<circle cx="nan" cy="nan" r="4" fill="#0" id="circle53"/>
	<circle cx="nan" cy="nan" r="4" fill="#0" id="circle54"/>
	<circle cx="nan" cy="nan" r="4" fill="#0" id="circle55"/>
	<circle cx="nan" cy="nan" r="4" fill="#0" id="circle56"/>
	<circle cx="nan" cy="nan" r="4" fill="#0" id="circle57"/>
	<circle cx="nan" cy="nan" r="4" fill="#0" id="circle58"/>
	<circle cx="nan" cy="nan" r="4" fill="#0" id="circle59"/>
	<circle cx="nan" cy="nan" r="4" fill="#0" id="circle60"/>
	<circle cx="nan" cy="nan" r="4" fill="#0" id="circle61"/>
	<circle cx="nan" cy="nan" r="4" fill="#0" id="circle62"/>
	<circle cx="nan" cy="nan" r="4" fill="#0" id="circle63"/>
	<circle cx="nan" cy="nan" r="4" fill="#0" id="circle64"/>
	<circle cx="nan" cy="nan" r="4" fill="#0" id="circle65"/>
	<circle cx="nan" cy="nan" r="4" fill="#0" id="circle66"/>
	<circle cx="nan" cy="nan" r="4" fill="#0" id="circle67"/>
	<circle cx="nan" cy="nan" r="4" fill="#0" id="circle68"/>
	<circle cx="nan" cy="nan" r="4" fill="#0" id="circle69"/>
	<circle cx="nan" cy="nan" r="4" fill="#0" id="circle70"/>
	<circle cx="nan" cy="nan" r="4" fill="#0" id="circle71"/>
	<circle cx="nan" cy="nan" r="4" fill="#0" id="circle72"/>
	<circle cx="nan" cy="nan" r="4" fill="#0" id="circle73"/>
	<circle cx="nan" cy="nan" r="4" fill="#0" id="circle74"/>
	<circle cx="nan" cy="nan" r="4" fill="#0" id="circle75"/>
	<circle cx="nan" cy="nan" r="4" fill="#0" id="circle76"/>
	<circle cx="nan" cy="nan" r="4" fill="#0" id="circle77"/>
	<circle cx="nan" cy="nan" r="4" fill="#0" id="circle78"/>
	<circle cx="nan" cy="nan" r="4" fill="#0" id="circle79"/>
	<circle cx="nan" cy="nan" r="4" fill="#0" id="circle80"/>
	<circle cx="nan" cy="nan" r="4" fill="#0" id="circle81"/>
	<circle cx="nan" cy="nan" r="4" fill="#0" id="circle82"/>
	<circle cx="nan" cy="nan" r="4" fill="#0" id="circle83"/>
	<circle cx="nan" cy="nan" r="4" fill="#0" id="circle84"/>
	<circle cx="nan" cy="nan" r="4" fill="#0" id="circle85"/>
	<circle cx="nan" cy="nan" r="4" fill="#0" id="circle86"/>
	<circle cx="nan" cy="nan" r="4" fill="#0" id="circle87"/>
	<circle cx="nan" cy="nan" r="4" fill="#0" id="circle88"/>
	<circle cx="nan" cy="nan" r="4" fill="#0" id="circle89"/>
	<circle cx="nan" cy="nan" r="4" fill="#0" id="circle90"/>
	<circle cx="nan" cy="nan" r="4" fill="#0" id="circle91"/>
	<circle cx="nan" cy="nan" r="4" fill="#0" id="circle92"/>
	<circle cx="nan" cy="nan" r="4" fill="#0" id="circle93"/>
	<circle cx="nan" cy="nan" r="4" fill="#0" id="circle94"/>
	<circle cx="nan" cy="nan" r="4" fill="#0" id="circle95"/>
	<circle cx="nan" cy="nan" r="4" fill="#0" id="circle96"/>
	<circle cx="nan" cy="nan" r="4" fill="#0" id="circle97"/>
	<circle cx="nan" cy="nan" r="4" fill="#0" id="circle98"/>
	<circle cx="-nan" cy="-nan" r="4" fill="#0" id="circle99"/>
	<circle cx="nan" cy="nan" r="4" fill="#0" id="circle100"/>
	<circle cx="nan" cy="nan" r="4" fill="#0" id="circle101"/>
	<circle cx="nan" cy="nan" r="4" fill="#0" id="circle102"/>
	<circle cx="nan" cy="nan" r="4" fill="#0" id="circle103"/>
	<circle cx="nan" cy="nan" r="4" fill="#0" id="circle104"/>
	<circle cx="nan" cy="nan" r="4" fill="#0" id="circle105"/>
	<circle cx="nan" cy="nan" r="4" fill="#0" id="circle106"/>
	<circle cx="nan" cy="nan" r="4" fill="#0" id="circle107"/>
	<circle cx="nan" cy="nan" r="4" fill="#0" id="circle108"/>
	<circle cx="nan" cy="nan" r="4" fill="#0" id="circle109"/>
	<circle cx="nan" cy="nan" r="4" fill="#0" id="circle110"/>
	<circle cx="nan" cy="nan" r="4" fill="#0" id="circle111"/>
	<circle cx="nan" cy="nan" r="4" fill="#0" id="circle112"/>
	<circle cx="nan" cy="nan" r="4" fill="#0" id="circle113"/>
	<circle cx="nan" cy="nan" r="4" fill="#0" id="circle114"/>
	<circle cx="nan" cy="nan" r="4" fill="#0" id="circle115"/>
	<circle cx="nan" cy="nan" r="4" fill="#0" id="circle116"/>
	<circle cx="nan" cy="nan" r="4" fill="#0" id="circle117"/>
	<circle cx="nan" cy="nan" r="4" fill="#0" id="circle118"/>
	<circle cx="nan" cy="nan" r="4" fill="#0" id="circle119"/>
	<circle cx="nan" cy="nan" r="4" fill="#0" id="circle120"/>
	<circle cx="nan" cy="nan" r="4" fill="#0" id="circle121"/>
	<circle cx="nan" cy="nan" r="4" fill="#0" id="circle122"/>
	<circle cx="nan" cy="nan" r="4" fill="#0" id="circle123"/>
	<circle cx="nan" cy="nan" r="4" fill="#0" id="circle124"/>
	<circle cx="nan" cy="nan" r="4" fill="#0" id="circle125"/>
	<circle cx="nan" cy="nan" r="4" fill="#0" id="circle126"/>
	<circle cx="nan" cy="nan" r="4" fill="#0" id="circle127"/>
	<circle cx="nan" cy="nan" r="4" fill="#0" id="circle128"/>
	<circle cx="nan" cy="nan" r="4" fill="#0" id="circle129"/>
	<circle cx="nan" cy="nan" r="4" fill="#0" id="circle130"/>
	<circle cx="nan" cy="nan" r="4" fill="#0" id="circle131"/>
	<circle cx="nan" cy="nan" r="4" fill="#0" id="circle132"/>
	<circle cx="nan" cy="nan" r="4" fill="#0" id="circle133"/>
	<circle cx="nan" cy="nan" r="4" fill="#0" id="circle134"/>
	<circle cx="nan" cy="nan" r="4" fill="#0" id="circle135"/>
	<circle cx="nan" cy="nan" r="4" fill="#0" id="circle136"/>
	<circle cx="nan" cy="nan" r="4" fill="#0" id="circle137"/>
	<circle cx="nan" cy="nan" r="4" fill="#0" id="circle138"/>
	<circle cx="nan" cy="nan" r="4" fill="#0" id="circle139"/>
	<circle cx="nan" cy="nan" r="4" fill="#0" id="circle140"/>
	<circle cx="nan" cy="nan" r="4" fill="#0" id="circle141"/>
	<circle cx="nan" cy="nan" r="4" fill="#0" id="circle142"/>
	<circle cx="nan" cy="nan" r="4" fill="#0" id="circle143"/>
	<circle cx="nan" cy="nan" r="4" fill="#0" id="circle144"/>
	<circle cx="nan" cy="nan" r="4" fill="#0" id="circle145"/>
	<circle cx="nan" cy="nan" r="4" fill="#0" id="circle146"/>
	<circle cx="nan" cy="nan" r="4" fill="#0" id="circle147"/>
	<circle cx="nan" cy="nan" r="4" fill="#0" id="circle148"/>
	<circle cx="nan" cy="nan" r="4" fill="#0" id="circle149"/>
	<circle cx="nan" cy="nan" r="4" fill="#0" id="circle150"/>
	<circle cx="nan" cy="nan" r="4" fill="#0" id="circle151"/>
	<circle cx="nan" cy="nan" r="4" fill="#0" id="circle152"/>
	<circle cx="nan" cy="nan" r="4" fill="#0" id="circle153"/>
	<circle cx="nan" cy="nan" r="4" fill="#0" id="circle154"/>
	<circle cx="nan" cy="nan" r="4" fill="#0" id="circle155"/>
	<circle cx="nan" cy="nan" r="4" fill="#0" id="circle156"/>
	<circle cx="nan" cy="nan" r="4" fill="#0" id="circle157"/>
	<circle cx="nan" cy="nan" r="4" fill="#0" id="circle158"/>
	<circle cx="nan" cy="nan" r="4" fill="#0" id="circle159"/>
	<circle cx="nan" cy="nan" r="4" fill="#0" id="circle160"/>
	<circle cx="nan" cy="nan" r="4" fill="#0" id="circle161"/>
	<circle cx="nan" cy="nan" r="4" fill="#0" id="circle162"/>
	<circle cx="nan" cy="nan" r="4" fill="#0" id="circle163"/>
	<circle cx="nan" cy="nan" r="4" fill="#0" id="circle164"/>
	<circle cx="nan" cy="nan" r="4" fill="#0" id="circle165"/>
	<circle cx="nan" cy="nan" r="4" fill="#0" id="circle166"/>
	<circle cx="nan" cy="nan" r="4" fill="#0" id="circle167"/>
	<circle cx="nan" cy="nan" r="4" fill="#0" id="circle168"/>
	<circle cx="nan" cy="nan" r="4" fill="#0" id="circle169"/>
	<circle cx="nan" cy="nan" r="4" fill="#0" id="circle170"/>
	<circle cx="nan" cy="nan" r="4" fill="#0" id="circle171"/>
	<circle cx="nan" cy="nan" r="4" fill="#0" id="circle172"/>
	<circle cx="nan" cy="nan" r="4" fill="#0" id="circle173"/>
	<circle cx="nan" cy="nan" r="4" fill="#0" id="circle174"/>
	<circle cx="nan" cy="nan" r="4" fill="#0" id="circle175"/>
	<circle cx="nan" cy="nan" r="4" fill="#0" id="circle176"/>
	<circle cx="nan" cy="nan" r="4" fill="#0" id="circle177"/>
	<circle cx="nan" cy="nan" r="4" fill="#0" id="circle178"/>
	<circle cx="nan" cy="nan" r="4" fill="#0" id="circle179"/>
	<circle cx="nan" cy="nan" r="4" fill="#0" id="circle180"/>
	<circle cx="nan" cy="nan" r="4" fill="#0" id="circle181"/>
	<circle cx="nan" cy="nan" r="4" fill="#0" id="circle182"/>
	<circle cx="nan" cy="nan" r="4" fill="#0" id="circle183"/>
	<circle cx="nan" cy="nan" r="4" fill="#0" id="circle184"/>
	<circle cx="nan" cy="nan" r="4" fill="#0" id="circle185"/>
	<circle cx="nan" cy="nan" r="4" fill="#0" id="circle186"/>
	<circle cx="nan" cy="nan" r="4" fill="#0" id="circle187"/>
	<circle cx="nan" cy="nan" r="4" fill="#0" id="circle188"/>
	<circle cx="nan" cy="nan" r="4" fill="#0" id="circle189"/>
	<circle cx="nan" cy="nan" r="4" fill="#0" id="circle190"/>
	<circle cx="nan" cy="nan" r="4" fill="#0" id="circle191"/>
	<circle cx="nan" cy="nan" r="4" fill="#0" id="circle192"/>
	<circle cx="nan" cy="nan" r="4" fill="#0" id="circle193"/>
	<circle cx="nan" cy="nan" r="4" fill="#0" id="circle194"/>
	<circle cx="nan" cy="nan" r="4" fill="#0" id="circle195"/>
	<circle cx="nan" cy="nan" r="4" fill="#0" id="circle196"/>
	<circle cx="nan" cy="nan" r="4" fill="#0" id="circle197"/>
	<circle cx="nan" cy="nan" r="4" fill="#0" id="circle198"/>
	<circle cx="nan" cy="nan" r="4" fill="#0" id="circle199"/>
	<circle cx="nan" cy="nan" r="4" fill="#0" id="circle200"/>
	<circle cx="nan" cy="nan" r="4" fill="#0" id="circle201"/>
	<circle cx="nan" cy="nan" r="4" fill="#0" id="circle202"/>
	<circle cx="nan" cy="nan" r="4" fill="#0" id="circle203"/>
	<circle cx="nan" cy="nan" r="4" fill="#0" id="circle204"/>
	<circle cx="nan" cy="nan" r="4" fill="#0" id="circle205"/>
	<circle cx="nan" cy="nan" r="4" fill="#0" id="circle206"/>
	<circle cx="nan" cy="nan" r="4" fill="#0" id="circle207"/>
	<circle cx="nan" cy="nan" r="4" fill="#0" id="circle208"/>
	<circle cx="nan" cy="nan" r="4" fill="#0" id="circle209"/>
	<circle cx="nan" cy="nan" r="4" fill="#0" id="circle210"/>
	<circle cx="nan" cy="nan" r="4" fill="#0" id="circle211"/>
	<circle cx="nan" cy="nan" r="4" fill="#0" id="circle212"/>
	<circle cx="nan" cy="nan" r="4" fill="#0" id="circle213"/>
	<circle cx="nan" cy="nan" r="4" fill="#0" id="circle214"/>
	<circle cx="nan" cy="nan" r="4" fill="#0" id="circle215"/>
	<circle cx="nan" cy="nan" r="4" fill="#0" id="circle216"/>
	<circle cx="nan" cy="nan" r="4" fill="#0" id="circle217"/>
	<circle cx="nan" cy="nan" r="4" fill="#0" id="circle218"/>
	<circle cx="nan" cy="nan" r="4" fill="#0" id="circle219"/>
	<circle cx="nan" cy="nan" r="4" fill="#0" id="circle220"/>
	<circle cx="nan" cy="nan" r="4" fill="#0" id="circle221"/>
	<circle cx="nan" cy="nan" r="4" fill="#0" id="circle222"/>
	<circle cx="nan" cy="nan" r="4" fill="#0" id="circle223"/>
	<circle cx="nan" cy="nan" r="4" fill="#0" id="circle224"/>
	<circle cx="nan" cy="nan" r="4" fill="#0" id="circle225"/>
	<circle cx="nan" cy="nan" r="4" fill="#0" id="circle226"/>
	<circle cx="nan" cy="nan" r="4" fill="#0" id="circle227"/>
	<circle cx="nan" cy="nan" r="4" fill="#0" id="circle228"/>
	<circle cx="nan" cy="nan" r="4" fill="#0" id="circle229"/>
	<circle cx="nan" cy="nan" r="4" fill="#0" id="circle230"/>
	<circle cx="nan" cy="nan" r="4" fill="#0" id="circle231"/>
	<circle cx="nan" cy="nan" r="4" fill="#0" id="circle232"/>
	<circle cx="nan" cy="nan" r="4" fill="#0" id="circle233"/>
	<circle cx="nan" cy="nan" r="4" fill="#0" id="circle234"/>
	<circle cx="nan" cy="nan" r="4" fill="#0" id="circle235"/>
	<circle cx="nan" cy="nan" r="4" fill="#0" id="circle236"/>
	<circle cx="nan" cy="nan" r="4" fill="#0" id="circle237"/>
	<circle cx="nan" cy="nan" r="4" fill="#0" id="circle238"/>
	<circle cx="nan" cy="nan" r="4" fill="#0" id="circle239"/>
	<circle cx="nan" cy="nan" r="4" fill="#0" id="circle240"/>
	<circle cx="nan" cy="nan" r="4" fill="#0" id="circle241"/>
	<circle cx="nan" cy="nan" r="4" fill="#0" id="circle242"/>
	<circle cx="nan" cy="nan" r="4" fill="#0" id="circle243"/>
	<circle cx="nan" cy="nan" r="4" fill="#0" id="circle244"/>
	<circle cx="nan" cy="nan" r="4" fill="#0" id="circle245"/>
	<circle cx="nan" cy="nan" r="4" fill="#0" id="circle246"/>
	<circle cx="nan" cy="nan" r="4" fill="#0" id="circle247"/>
	<circle cx="nan" cy="nan" r="4" fill="#0" id="circle248"/>
	<circle cx="nan" cy="nan" r="4" fill="#0" id="circle249"/>
	<circle cx="nan" cy="nan" r="4" fill="#0" id="circle250"/>
	<circle cx="nan" cy="nan" r="4" fill="#0" id="circle251"/>
	<circle cx="nan" cy="nan" r="4" fill="#0" id="circle252"/>
	<circle cx="nan" cy="nan" r="4" fill="#0" id="circle253"/>
	<circle cx="nan" cy="nan" r="4" fill="#0" id="circle254"/>
	<circle cx="nan" cy="nan" r="4" fill="#0" id="circle255"/>
	<circle cx="nan" cy="nan" r="4" fill="#0" id="circle256"/>
	<circle cx="nan" cy="nan" r="4" fill="#0" id="circle257"/>
	<circle cx="nan" cy="nan" r="4" fill="#0" id="circle258"/>
	<circle cx="nan" cy="nan" r="4" fill="#0" id="circle259"/>
	<circle cx="nan" cy="nan" r="4" fill="#0" id="circle260"/>
	<circle cx="nan" cy="nan" r="4" fill="#0" id="circle261"/>
	<circle cx="nan" cy="nan" r="4" fill="#0" id="circle262"/>
	<circle cx="nan" cy="nan" r="4" fill="#0" id="circle263"/>
	<circle cx="nan" cy="nan" r="4" fill="#0" id="circle264"/>
	<circle cx="nan" cy="nan" r="4" fill="#0" id="circle265"/>
	<circle cx="nan" cy="nan" r="4" fill="#0" id="circle266"/>
	</g>
</svg>