<?xml version="1.0" encoding="UTF-8" standalone="no"?>
<!-- Created with CurveBenchmark -->
<svg
	xmlns:dc="http://purl.org/dc/elements/1.1/"
	xmlns:cc="http://creativecommons.org/ns#"
	xmlns:rdf="http://www.w3.org/1999/02/22-rdf-syntax-ns#"
	xmlns:svg="http://www.w3.org/2000/svg"
	xmlns="http://www.w3.org/2000/svg"
	xmlns:sodipodi="http://sodipodi.sourceforge.net/DTD/sodipodi-0.dtd"
	xmlns:inkscape="http://www.inkscape.org/namespaces/inkscape"
	width="1000"
	height="1000"
	id="svg2"
	version="1.1"
	sodipodi:docname="manifold/stretchdenoise-fish315.png.txt">
<defs
	id="defs4" />
<metadata
	id="metadata7">
	<rdf:RDF>
		<cc:Work
			rdf:about="">
			<dc:format>image/svg+xml</dc:format>
			<dc:type
				rdf:resource="http://purl.org/dc/dcmitype/StillImage" />
			<dc:title></dc:title>
		</cc:Work>
	</rdf:RDF>
</metadata>
<g
	inkscape:label="Layer 1"
	inkscape:groupmode="layer"
	id="layer1">
	<path style="fill:none;stroke:red;stroke-width:1px;stroke-linecap:butt;stroke-linejoin:miter;stroke-opacity:1" d="M 4,283.924 11.5655,321.751 z" id="boundary" inkscape:connector-curvature="0" />
	<path style="fill:none;stroke:red;stroke-width:1px;stroke-linecap:butt;stroke-linejoin:miter;stroke-opacity:1" d="M 4,283.924 34.262,253.662 z" id="boundary" inkscape:connector-curvature="0" />
	<path style="fill:none;stroke:red;stroke-width:1px;stroke-linecap:butt;stroke-linejoin:miter;stroke-opacity:1" d="M 11.5655,321.751 34.262,352.013 z" id="boundary" inkscape:connector-curvature="0" />
	<path style="fill:none;stroke:red;stroke-width:1px;stroke-linecap:butt;stroke-linejoin:miter;stroke-opacity:1" d="M 34.262,253.662 64.524,230.965 z" id="boundary" inkscape:connector-curvature="0" />
	<path style="fill:none;stroke:red;stroke-width:1px;stroke-linecap:butt;stroke-linejoin:miter;stroke-opacity:1" d="M 34.262,352.013 56.9585,382.275 z" id="boundary" inkscape:connector-curvature="0" />
	<path style="fill:none;stroke:red;stroke-width:1px;stroke-linecap:butt;stroke-linejoin:miter;stroke-opacity:1" d="M 56.9585,382.275 83.4378,412.537 z" id="boundary" inkscape:connector-curvature="0" />
	<path style="fill:none;stroke:red;stroke-width:1px;stroke-linecap:butt;stroke-linejoin:miter;stroke-opacity:1" d="M 64.524,230.965 94.786,200.703 z" id="boundary" inkscape:connector-curvature="0" />
	<path style="fill:none;stroke:red;stroke-width:1px;stroke-linecap:butt;stroke-linejoin:miter;stroke-opacity:1" d="M 83.4378,412.537 117.483,431.451 z" id="boundary" inkscape:connector-curvature="0" />
	<path style="fill:none;stroke:red;stroke-width:1px;stroke-linecap:butt;stroke-linejoin:miter;stroke-opacity:1" d="M 94.786,200.703 132.614,185.572 z" id="boundary" inkscape:connector-curvature="0" />
	<path style="fill:none;stroke:red;stroke-width:1px;stroke-linecap:butt;stroke-linejoin:miter;stroke-opacity:1" d="M 117.483,431.451 155.31,442.799 z" id="boundary" inkscape:connector-curvature="0" />
	<path style="fill:none;stroke:red;stroke-width:1px;stroke-linecap:butt;stroke-linejoin:miter;stroke-opacity:1" d="M 132.614,185.572 170.441,178.007 z" id="boundary" inkscape:connector-curvature="0" />
	<path style="fill:none;stroke:red;stroke-width:1px;stroke-linecap:butt;stroke-linejoin:miter;stroke-opacity:1" d="M 155.31,442.799 189.355,461.713 z" id="boundary" inkscape:connector-curvature="0" />
	<path style="fill:none;stroke:red;stroke-width:1px;stroke-linecap:butt;stroke-linejoin:miter;stroke-opacity:1" d="M 170.441,178.007 204.486,159.093 z" id="boundary" inkscape:connector-curvature="0" />
	<path style="fill:none;stroke:red;stroke-width:1px;stroke-linecap:butt;stroke-linejoin:miter;stroke-opacity:1" d="M 189.355,461.713 227.182,476.844 z" id="boundary" inkscape:connector-curvature="0" />
	<path style="fill:none;stroke:red;stroke-width:1px;stroke-linecap:butt;stroke-linejoin:miter;stroke-opacity:1" d="M 204.486,159.093 242.313,147.745 z" id="boundary" inkscape:connector-curvature="0" />
	<path style="fill:none;stroke:red;stroke-width:1px;stroke-linecap:butt;stroke-linejoin:miter;stroke-opacity:1" d="M 227.182,476.844 261.227,495.758 z" id="boundary" inkscape:connector-curvature="0" />
	<path style="fill:none;stroke:red;stroke-width:1px;stroke-linecap:butt;stroke-linejoin:miter;stroke-opacity:1" d="M 242.313,147.745 280.141,136.396 z" id="boundary" inkscape:connector-curvature="0" />
	<path style="fill:none;stroke:red;stroke-width:1px;stroke-linecap:butt;stroke-linejoin:miter;stroke-opacity:1" d="M 261.227,495.758 261.227,533.585 z" id="boundary" inkscape:connector-curvature="0" />
	<path style="fill:none;stroke:red;stroke-width:1px;stroke-linecap:butt;stroke-linejoin:miter;stroke-opacity:1" d="M 261.227,533.585 272.575,571.413 z" id="boundary" inkscape:connector-curvature="0" />
	<path style="fill:none;stroke:red;stroke-width:1px;stroke-linecap:butt;stroke-linejoin:miter;stroke-opacity:1" d="M 272.575,571.413 291.489,605.457 z" id="boundary" inkscape:connector-curvature="0" />
	<path style="fill:none;stroke:red;stroke-width:1px;stroke-linecap:butt;stroke-linejoin:miter;stroke-opacity:1" d="M 280.141,136.396 299.055,72.0895 z" id="boundary" inkscape:connector-curvature="0" />
	<path style="fill:none;stroke:red;stroke-width:1px;stroke-linecap:butt;stroke-linejoin:miter;stroke-opacity:1" d="M 291.489,605.457 329.317,613.023 z" id="boundary" inkscape:connector-curvature="0" />
	<path style="fill:none;stroke:red;stroke-width:1px;stroke-linecap:butt;stroke-linejoin:miter;stroke-opacity:1" d="M 299.055,72.0895 329.317,41.8275 z" id="boundary" inkscape:connector-curvature="0" />
	<path style="fill:none;stroke:red;stroke-width:1px;stroke-linecap:butt;stroke-linejoin:miter;stroke-opacity:1" d="M 329.317,41.8275 344.448,4 z" id="boundary" inkscape:connector-curvature="0" />
	<path style="fill:none;stroke:red;stroke-width:1px;stroke-linecap:butt;stroke-linejoin:miter;stroke-opacity:1" d="M 329.317,613.023 359.579,590.326 z" id="boundary" inkscape:connector-curvature="0" />
	<path style="fill:none;stroke:red;stroke-width:1px;stroke-linecap:butt;stroke-linejoin:miter;stroke-opacity:1" d="M 344.448,4 382.275,11.5655 z" id="boundary" inkscape:connector-curvature="0" />
	<path style="fill:none;stroke:red;stroke-width:1px;stroke-linecap:butt;stroke-linejoin:miter;stroke-opacity:1" d="M 359.579,590.326 382.275,560.064 z" id="boundary" inkscape:connector-curvature="0" />
	<path style="fill:none;stroke:red;stroke-width:1px;stroke-linecap:butt;stroke-linejoin:miter;stroke-opacity:1" d="M 382.275,11.5655 420.103,26.6965 z" id="boundary" inkscape:connector-curvature="0" />
	<path style="fill:none;stroke:red;stroke-width:1px;stroke-linecap:butt;stroke-linejoin:miter;stroke-opacity:1" d="M 382.275,560.064 416.371,577.649 z" id="boundary" inkscape:connector-curvature="0" />
	<path style="fill:none;stroke:red;stroke-width:1px;stroke-linecap:butt;stroke-linejoin:miter;stroke-opacity:1" d="M 416.371,577.649 442.799,605.457 z" id="boundary" inkscape:connector-curvature="0" />
	<path style="fill:none;stroke:red;stroke-width:1px;stroke-linecap:butt;stroke-linejoin:miter;stroke-opacity:1" d="M 420.103,26.6965 454.147,45.6103 z" id="boundary" inkscape:connector-curvature="0" />
	<path style="fill:none;stroke:red;stroke-width:1px;stroke-linecap:butt;stroke-linejoin:miter;stroke-opacity:1" d="M 442.799,605.457 480.627,613.023 z" id="boundary" inkscape:connector-curvature="0" />
	<path style="fill:none;stroke:red;stroke-width:1px;stroke-linecap:butt;stroke-linejoin:miter;stroke-opacity:1" d="M 454.147,45.6103 484.409,68.3067 z" id="boundary" inkscape:connector-curvature="0" />
	<path style="fill:none;stroke:red;stroke-width:1px;stroke-linecap:butt;stroke-linejoin:miter;stroke-opacity:1" d="M 473.061,476.844 484.409,514.671 z" id="boundary" inkscape:connector-curvature="0" />
	<path style="fill:none;stroke:red;stroke-width:1px;stroke-linecap:butt;stroke-linejoin:miter;stroke-opacity:1" d="M 473.061,476.844 510.889,469.278 z" id="boundary" inkscape:connector-curvature="0" />
	<path style="fill:none;stroke:red;stroke-width:1px;stroke-linecap:butt;stroke-linejoin:miter;stroke-opacity:1" d="M 480.627,613.023 499.54,552.499 z" id="boundary" inkscape:connector-curvature="0" />
	<path style="fill:none;stroke:red;stroke-width:1px;stroke-linecap:butt;stroke-linejoin:miter;stroke-opacity:1" d="M 484.409,68.3067 522.237,79.655 z" id="boundary" inkscape:connector-curvature="0" />
	<path style="fill:none;stroke:red;stroke-width:1px;stroke-linecap:butt;stroke-linejoin:miter;stroke-opacity:1" d="M 484.409,514.671 499.54,552.499 z" id="boundary" inkscape:connector-curvature="0" />
	<path style="fill:none;stroke:red;stroke-width:1px;stroke-linecap:butt;stroke-linejoin:miter;stroke-opacity:1" d="M 510.889,469.278 548.716,469.278 z" id="boundary" inkscape:connector-curvature="0" />
	<path style="fill:none;stroke:red;stroke-width:1px;stroke-linecap:butt;stroke-linejoin:miter;stroke-opacity:1" d="M 522.237,79.655 548.716,109.917 z" id="boundary" inkscape:connector-curvature="0" />
	<path style="fill:none;stroke:red;stroke-width:1px;stroke-linecap:butt;stroke-linejoin:miter;stroke-opacity:1" d="M 548.716,109.917 571.413,140.179 z" id="boundary" inkscape:connector-curvature="0" />
	<path style="fill:none;stroke:red;stroke-width:1px;stroke-linecap:butt;stroke-linejoin:miter;stroke-opacity:1" d="M 548.716,469.278 586.544,469.278 z" id="boundary" inkscape:connector-curvature="0" />
	<path style="fill:none;stroke:red;stroke-width:1px;stroke-linecap:butt;stroke-linejoin:miter;stroke-opacity:1" d="M 571.413,140.179 605.457,121.265 z" id="boundary" inkscape:connector-curvature="0" />
	<path style="fill:none;stroke:red;stroke-width:1px;stroke-linecap:butt;stroke-linejoin:miter;stroke-opacity:1" d="M 586.544,469.278 624.371,465.496 z" id="boundary" inkscape:connector-curvature="0" />
	<path style="fill:none;stroke:red;stroke-width:1px;stroke-linecap:butt;stroke-linejoin:miter;stroke-opacity:1" d="M 605.457,121.265 639.502,102.352 z" id="boundary" inkscape:connector-curvature="0" />
	<path style="fill:none;stroke:red;stroke-width:1px;stroke-linecap:butt;stroke-linejoin:miter;stroke-opacity:1" d="M 624.371,465.496 658.416,484.409 z" id="boundary" inkscape:connector-curvature="0" />
	<path style="fill:none;stroke:red;stroke-width:1px;stroke-linecap:butt;stroke-linejoin:miter;stroke-opacity:1" d="M 639.502,102.352 677.33,109.917 z" id="boundary" inkscape:connector-curvature="0" />
	<path style="fill:none;stroke:red;stroke-width:1px;stroke-linecap:butt;stroke-linejoin:miter;stroke-opacity:1" d="M 658.416,484.409 696.243,491.975 z" id="boundary" inkscape:connector-curvature="0" />
	<path style="fill:none;stroke:red;stroke-width:1px;stroke-linecap:butt;stroke-linejoin:miter;stroke-opacity:1" d="M 677.33,109.917 707.592,136.396 z" id="boundary" inkscape:connector-curvature="0" />
	<path style="fill:none;stroke:red;stroke-width:1px;stroke-linecap:butt;stroke-linejoin:miter;stroke-opacity:1" d="M 696.243,491.975 734.071,491.975 z" id="boundary" inkscape:connector-curvature="0" />
	<path style="fill:none;stroke:red;stroke-width:1px;stroke-linecap:butt;stroke-linejoin:miter;stroke-opacity:1" d="M 707.592,136.396 734.071,166.658 z" id="boundary" inkscape:connector-curvature="0" />
	<path style="fill:none;stroke:red;stroke-width:1px;stroke-linecap:butt;stroke-linejoin:miter;stroke-opacity:1" d="M 734.071,166.658 756.767,196.92 z" id="boundary" inkscape:connector-curvature="0" />
	<path style="fill:none;stroke:red;stroke-width:1px;stroke-linecap:butt;stroke-linejoin:miter;stroke-opacity:1" d="M 734.071,491.975 756.767,450.365 z" id="boundary" inkscape:connector-curvature="0" />
	<path style="fill:none;stroke:red;stroke-width:1px;stroke-linecap:butt;stroke-linejoin:miter;stroke-opacity:1" d="M 756.767,196.92 771.898,234.748 z" id="boundary" inkscape:connector-curvature="0" />
	<path style="fill:none;stroke:red;stroke-width:1px;stroke-linecap:butt;stroke-linejoin:miter;stroke-opacity:1" d="M 756.767,450.365 771.898,412.537 z" id="boundary" inkscape:connector-curvature="0" />
	<path style="fill:none;stroke:red;stroke-width:1px;stroke-linecap:butt;stroke-linejoin:miter;stroke-opacity:1" d="M 771.898,234.748 809.726,234.748 z" id="boundary" inkscape:connector-curvature="0" />
	<path style="fill:none;stroke:red;stroke-width:1px;stroke-linecap:butt;stroke-linejoin:miter;stroke-opacity:1" d="M 771.898,374.71 771.898,412.537 z" id="boundary" inkscape:connector-curvature="0" />
	<path style="fill:none;stroke:red;stroke-width:1px;stroke-linecap:butt;stroke-linejoin:miter;stroke-opacity:1" d="M 771.898,374.71 809.726,378.492 z" id="boundary" inkscape:connector-curvature="0" />
	<path style="fill:none;stroke:red;stroke-width:1px;stroke-linecap:butt;stroke-linejoin:miter;stroke-opacity:1" d="M 809.726,234.748 843.771,215.834 z" id="boundary" inkscape:connector-curvature="0" />
	<path style="fill:none;stroke:red;stroke-width:1px;stroke-linecap:butt;stroke-linejoin:miter;stroke-opacity:1" d="M 809.726,378.492 840.576,400.404 z" id="boundary" inkscape:connector-curvature="0" />
	<path style="fill:none;stroke:red;stroke-width:1px;stroke-linecap:butt;stroke-linejoin:miter;stroke-opacity:1" d="M 840.576,400.404 869.069,425.459 z" id="boundary" inkscape:connector-curvature="0" />
	<path style="fill:none;stroke:red;stroke-width:1px;stroke-linecap:butt;stroke-linejoin:miter;stroke-opacity:1" d="M 843.771,215.834 874.033,193.137 z" id="boundary" inkscape:connector-curvature="0" />
	<path style="fill:none;stroke:red;stroke-width:1px;stroke-linecap:butt;stroke-linejoin:miter;stroke-opacity:1" d="M 869.069,425.459 900.512,446.582 z" id="boundary" inkscape:connector-curvature="0" />
	<path style="fill:none;stroke:red;stroke-width:1px;stroke-linecap:butt;stroke-linejoin:miter;stroke-opacity:1" d="M 874.033,193.137 911.86,178.007 z" id="boundary" inkscape:connector-curvature="0" />
	<path style="fill:none;stroke:red;stroke-width:1px;stroke-linecap:butt;stroke-linejoin:miter;stroke-opacity:1" d="M 900.512,446.582 938.339,454.147 z" id="boundary" inkscape:connector-curvature="0" />
	<path style="fill:none;stroke:red;stroke-width:1px;stroke-linecap:butt;stroke-linejoin:miter;stroke-opacity:1" d="M 911.86,178.007 949.688,162.876 z" id="boundary" inkscape:connector-curvature="0" />
	<path style="fill:none;stroke:red;stroke-width:1px;stroke-linecap:butt;stroke-linejoin:miter;stroke-opacity:1" d="M 938.339,454.147 976.167,442.799 z" id="boundary" inkscape:connector-curvature="0" />
	<path style="fill:none;stroke:red;stroke-width:1px;stroke-linecap:butt;stroke-linejoin:miter;stroke-opacity:1" d="M 949.688,162.876 968.601,215.834 z" id="boundary" inkscape:connector-curvature="0" />
	<path style="fill:none;stroke:red;stroke-width:1px;stroke-linecap:butt;stroke-linejoin:miter;stroke-opacity:1" d="M 961.036,253.662 933.702,291.489 z" id="boundary" inkscape:connector-curvature="0" />
	<path style="fill:none;stroke:red;stroke-width:1px;stroke-linecap:butt;stroke-linejoin:miter;stroke-opacity:1" d="M 961.036,253.662 968.601,215.834 z" id="boundary" inkscape:connector-curvature="0" />
	<path style="fill:none;stroke:red;stroke-width:1px;stroke-linecap:butt;stroke-linejoin:miter;stroke-opacity:1" d="M 933.702,291.489 988.37,329.317 z" id="boundary" inkscape:connector-curvature="0" />
	<path style="fill:none;stroke:red;stroke-width:1px;stroke-linecap:butt;stroke-linejoin:miter;stroke-opacity:1" d="M 988.37,329.317 961.036,367.144 z" id="boundary" inkscape:connector-curvature="0" />
	<path style="fill:none;stroke:red;stroke-width:1px;stroke-linecap:butt;stroke-linejoin:miter;stroke-opacity:1" d="M 961.036,367.144 996,399.492 z" id="boundary" inkscape:connector-curvature="0" />
	<path style="fill:none;stroke:red;stroke-width:1px;stroke-linecap:butt;stroke-linejoin:miter;stroke-opacity:1" d="M 996,399.492 976.167,442.799 z" id="boundary" inkscape:connector-curvature="0" />
	<circle cx="4" cy="283.924" r="4" fill="#0" id="circle0"/>
	<circle cx="11.5655" cy="321.751" r="4" fill="#0" id="circle1"/>
	<circle cx="34.262" cy="253.662" r="4" fill="#0" id="circle2"/>
	<circle cx="34.262" cy="352.013" r="4" fill="#0" id="circle3"/>
	<circle cx="56.9585" cy="382.275" r="4" fill="#0" id="circle4"/>
	<circle cx="64.524" cy="230.965" r="4" fill="#0" id="circle5"/>
	<circle cx="83.4378" cy="412.537" r="4" fill="#0" id="circle6"/>
	<circle cx="94.786" cy="200.703" r="4" fill="#0" id="circle7"/>
	<circle cx="117.483" cy="431.451" r="4" fill="#0" id="circle8"/>
	<circle cx="132.614" cy="185.572" r="4" fill="#0" id="circle9"/>
	<circle cx="155.31" cy="442.799" r="4" fill="#0" id="circle10"/>
	<circle cx="170.441" cy="178.007" r="4" fill="#0" id="circle11"/>
	<circle cx="189.355" cy="461.713" r="4" fill="#0" id="circle12"/>
	<circle cx="204.486" cy="159.093" r="4" fill="#0" id="circle13"/>
	<circle cx="227.182" cy="476.844" r="4" fill="#0" id="circle14"/>
	<circle cx="242.313" cy="147.745" r="4" fill="#0" id="circle15"/>
	<circle cx="261.227" cy="495.758" r="4" fill="#0" id="circle16"/>
	<circle cx="261.227" cy="533.585" r="4" fill="#0" id="circle17"/>
	<circle cx="272.575" cy="571.413" r="4" fill="#0" id="circle18"/>
	<circle cx="280.141" cy="136.396" r="4" fill="#0" id="circle19"/>
	<circle cx="291.489" cy="605.457" r="4" fill="#0" id="circle20"/>
	<circle cx="299.055" cy="72.0895" r="4" fill="#0" id="circle21"/>
	<circle cx="329.317" cy="41.8275" r="4" fill="#0" id="circle22"/>
	<circle cx="329.317" cy="613.023" r="4" fill="#0" id="circle23"/>
	<circle cx="344.448" cy="4" r="4" fill="#0" id="circle24"/>
	<circle cx="359.579" cy="590.326" r="4" fill="#0" id="circle25"/>
	<circle cx="382.275" cy="11.5655" r="4" fill="#0" id="circle26"/>
	<circle cx="382.275" cy="560.064" r="4" fill="#0" id="circle27"/>
	<circle cx="416.371" cy="577.649" r="4" fill="#0" id="circle28"/>
	<circle cx="420.103" cy="26.6965" r="4" fill="#0" id="circle29"/>
	<circle cx="442.799" cy="605.457" r="4" fill="#0" id="circle30"/>
	<circle cx="454.147" cy="45.6103" r="4" fill="#0" id="circle31"/>
	<circle cx="473.061" cy="476.844" r="4" fill="#0" id="circle32"/>
	<circle cx="480.627" cy="613.023" r="4" fill="#0" id="circle33"/>
	<circle cx="484.409" cy="68.3067" r="4" fill="#0" id="circle34"/>
	<circle cx="484.409" cy="514.671" r="4" fill="#0" id="circle35"/>
	<circle cx="499.54" cy="552.499" r="4" fill="#0" id="circle36"/>
	<circle cx="510.889" cy="469.278" r="4" fill="#0" id="circle37"/>
	<circle cx="522.237" cy="79.655" r="4" fill="#0" id="circle38"/>
	<circle cx="548.716" cy="109.917" r="4" fill="#0" id="circle39"/>
	<circle cx="548.716" cy="469.278" r="4" fill="#0" id="circle40"/>
	<circle cx="571.413" cy="140.179" r="4" fill="#0" id="circle41"/>
	<circle cx="586.544" cy="469.278" r="4" fill="#0" id="circle42"/>
	<circle cx="605.457" cy="121.265" r="4" fill="#0" id="circle43"/>
	<circle cx="624.371" cy="465.496" r="4" fill="#0" id="circle44"/>
	<circle cx="639.502" cy="102.352" r="4" fill="#0" id="circle45"/>
	<circle cx="658.416" cy="484.409" r="4" fill="#0" id="circle46"/>
	<circle cx="677.33" cy="109.917" r="4" fill="#0" id="circle47"/>
	<circle cx="696.243" cy="491.975" r="4" fill="#0" id="circle48"/>
	<circle cx="707.592" cy="136.396" r="4" fill="#0" id="circle49"/>
	<circle cx="734.071" cy="166.658" r="4" fill="#0" id="circle50"/>
	<circle cx="734.071" cy="491.975" r="4" fill="#0" id="circle51"/>
	<circle cx="756.767" cy="196.92" r="4" fill="#0" id="circle52"/>
	<circle cx="756.767" cy="450.365" r="4" fill="#0" id="circle53"/>
	<circle cx="771.898" cy="234.748" r="4" fill="#0" id="circle54"/>
	<circle cx="771.898" cy="374.71" r="4" fill="#0" id="circle55"/>
	<circle cx="771.898" cy="412.537" r="4" fill="#0" id="circle56"/>
	<circle cx="809.726" cy="234.748" r="4" fill="#0" id="circle57"/>
	<circle cx="809.726" cy="378.492" r="4" fill="#0" id="circle58"/>
	<circle cx="840.576" cy="400.404" r="4" fill="#0" id="circle59"/>
	<circle cx="843.771" cy="215.834" r="4" fill="#0" id="circle60"/>
	<circle cx="869.069" cy="425.459" r="4" fill="#0" id="circle61"/>
	<circle cx="874.033" cy="193.137" r="4" fill="#0" id="circle62"/>
	<circle cx="900.512" cy="446.582" r="4" fill="#0" id="circle63"/>
	<circle cx="911.86" cy="178.007" r="4" fill="#0" id="circle64"/>
	<circle cx="938.339" cy="454.147" r="4" fill="#0" id="circle65"/>
	<circle cx="949.688" cy="162.876" r="4" fill="#0" id="circle66"/>
	<circle cx="961.036" cy="253.662" r="4" fill="#0" id="circle67"/>
	<circle cx="933.702" cy="291.489" r="4" fill="#0" id="circle68"/>
	<circle cx="988.37" cy="329.317" r="4" fill="#0" id="circle69"/>
	<circle cx="961.036" cy="367.144" r="4" fill="#0" id="circle70"/>
	<circle cx="968.601" cy="215.834" r="4" fill="#0" id="circle71"/>
	<circle cx="996" cy="399.492" r="4" fill="#0" id="circle72"/>
	<circle cx="976.167" cy="442.799" r="4" fill="#0" id="circle73"/>
	</g>
</svg>