<?xml version="1.0" encoding="UTF-8" standalone="no"?>
<!-- Created with CurveBenchmark -->
<svg
	xmlns:dc="http://purl.org/dc/elements/1.1/"
	xmlns:cc="http://creativecommons.org/ns#"
	xmlns:rdf="http://www.w3.org/1999/02/22-rdf-syntax-ns#"
	xmlns:svg="http://www.w3.org/2000/svg"
	xmlns="http://www.w3.org/2000/svg"
	xmlns:sodipodi="http://sodipodi.sourceforge.net/DTD/sodipodi-0.dtd"
	xmlns:inkscape="http://www.inkscape.org/namespaces/inkscape"
	width="1000"
	height="1000"
	id="svg2"
	version="1.1"
	sodipodi:docname="manifold/stretchdenoise-dude3.png.txt">
<defs
	id="defs4" />
<metadata
	id="metadata7">
	<rdf:RDF>
		<cc:Work
			rdf:about="">
			<dc:format>image/svg+xml</dc:format>
			<dc:type
				rdf:resource="http://purl.org/dc/dcmitype/StillImage" />
			<dc:title></dc:title>
		</cc:Work>
	</rdf:RDF>
</metadata>
<g
	inkscape:label="Layer 1"
	inkscape:groupmode="layer"
	id="layer1">
	<path style="fill:none;stroke:red;stroke-width:1px;stroke-linecap:butt;stroke-linejoin:miter;stroke-opacity:1" d="M 4,473.71 4,491.237 z" id="boundary" inkscape:connector-curvature="0" />
	<path style="fill:none;stroke:red;stroke-width:1px;stroke-linecap:butt;stroke-linejoin:miter;stroke-opacity:1" d="M 4,473.71 12.7633,456.184 z" id="boundary" inkscape:connector-curvature="0" />
	<path style="fill:none;stroke:red;stroke-width:1px;stroke-linecap:butt;stroke-linejoin:miter;stroke-opacity:1" d="M 4,491.237 12.7633,507.011 z" id="boundary" inkscape:connector-curvature="0" />
	<path style="fill:none;stroke:red;stroke-width:1px;stroke-linecap:butt;stroke-linejoin:miter;stroke-opacity:1" d="M 12.7633,456.184 26.7845,442.163 z" id="boundary" inkscape:connector-curvature="0" />
	<path style="fill:none;stroke:red;stroke-width:1px;stroke-linecap:butt;stroke-linejoin:miter;stroke-opacity:1" d="M 12.7633,507.011 30.2898,508.763 z" id="boundary" inkscape:connector-curvature="0" />
	<path style="fill:none;stroke:red;stroke-width:1px;stroke-linecap:butt;stroke-linejoin:miter;stroke-opacity:1" d="M 26.7845,442.163 35.5477,424.636 z" id="boundary" inkscape:connector-curvature="0" />
	<path style="fill:none;stroke:red;stroke-width:1px;stroke-linecap:butt;stroke-linejoin:miter;stroke-opacity:1" d="M 30.2898,508.763 44.311,494.742 z" id="boundary" inkscape:connector-curvature="0" />
	<path style="fill:none;stroke:red;stroke-width:1px;stroke-linecap:butt;stroke-linejoin:miter;stroke-opacity:1" d="M 35.5477,424.636 49.5689,410.615 z" id="boundary" inkscape:connector-curvature="0" />
	<path style="fill:none;stroke:red;stroke-width:1px;stroke-linecap:butt;stroke-linejoin:miter;stroke-opacity:1" d="M 44.311,494.742 58.3322,478.968 z" id="boundary" inkscape:connector-curvature="0" />
	<path style="fill:none;stroke:red;stroke-width:1px;stroke-linecap:butt;stroke-linejoin:miter;stroke-opacity:1" d="M 49.5689,410.615 58.3322,393.088 z" id="boundary" inkscape:connector-curvature="0" />
	<path style="fill:none;stroke:red;stroke-width:1px;stroke-linecap:butt;stroke-linejoin:miter;stroke-opacity:1" d="M 58.3322,393.088 72.3534,380.82 z" id="boundary" inkscape:connector-curvature="0" />
	<path style="fill:none;stroke:red;stroke-width:1px;stroke-linecap:butt;stroke-linejoin:miter;stroke-opacity:1" d="M 58.3322,478.968 74.106,470.205 z" id="boundary" inkscape:connector-curvature="0" />
	<path style="fill:none;stroke:red;stroke-width:1px;stroke-linecap:butt;stroke-linejoin:miter;stroke-opacity:1" d="M 65.3428,938.163 52.6781,955.689 z" id="boundary" inkscape:connector-curvature="0" />
	<path style="fill:none;stroke:red;stroke-width:1px;stroke-linecap:butt;stroke-linejoin:miter;stroke-opacity:1" d="M 65.3428,938.163 72.9412,920.054 z" id="boundary" inkscape:connector-curvature="0" />
	<path style="fill:none;stroke:red;stroke-width:1px;stroke-linecap:butt;stroke-linejoin:miter;stroke-opacity:1" d="M 52.6781,955.689 65.3428,973.216 z" id="boundary" inkscape:connector-curvature="0" />
	<path style="fill:none;stroke:red;stroke-width:1px;stroke-linecap:butt;stroke-linejoin:miter;stroke-opacity:1" d="M 65.3428,973.216 75.8587,987.237 z" id="boundary" inkscape:connector-curvature="0" />
	<path style="fill:none;stroke:red;stroke-width:1px;stroke-linecap:butt;stroke-linejoin:miter;stroke-opacity:1" d="M 72.3534,380.82 79.364,363.293 z" id="boundary" inkscape:connector-curvature="0" />
	<path style="fill:none;stroke:red;stroke-width:1px;stroke-linecap:butt;stroke-linejoin:miter;stroke-opacity:1" d="M 74.106,470.205 88.1272,459.689 z" id="boundary" inkscape:connector-curvature="0" />
	<path style="fill:none;stroke:red;stroke-width:1px;stroke-linecap:butt;stroke-linejoin:miter;stroke-opacity:1" d="M 72.9412,920.054 80.7298,902.04 z" id="boundary" inkscape:connector-curvature="0" />
	<path style="fill:none;stroke:red;stroke-width:1px;stroke-linecap:butt;stroke-linejoin:miter;stroke-opacity:1" d="M 75.8587,987.237 93.3852,987.237 z" id="boundary" inkscape:connector-curvature="0" />
	<path style="fill:none;stroke:red;stroke-width:1px;stroke-linecap:butt;stroke-linejoin:miter;stroke-opacity:1" d="M 79.364,363.293 93.3852,349.272 z" id="boundary" inkscape:connector-curvature="0" />
	<path style="fill:none;stroke:red;stroke-width:1px;stroke-linecap:butt;stroke-linejoin:miter;stroke-opacity:1" d="M 80.7298,902.04 91.6325,885.583 z" id="boundary" inkscape:connector-curvature="0" />
	<path style="fill:none;stroke:red;stroke-width:1px;stroke-linecap:butt;stroke-linejoin:miter;stroke-opacity:1" d="M 88.1272,459.689 102.148,443.915 z" id="boundary" inkscape:connector-curvature="0" />
	<path style="fill:none;stroke:red;stroke-width:1px;stroke-linecap:butt;stroke-linejoin:miter;stroke-opacity:1" d="M 91.6325,885.583 105.654,871.562 z" id="boundary" inkscape:connector-curvature="0" />
	<path style="fill:none;stroke:red;stroke-width:1px;stroke-linecap:butt;stroke-linejoin:miter;stroke-opacity:1" d="M 93.3852,349.272 102.148,331.746 z" id="boundary" inkscape:connector-curvature="0" />
	<path style="fill:none;stroke:red;stroke-width:1px;stroke-linecap:butt;stroke-linejoin:miter;stroke-opacity:1" d="M 93.3852,987.237 110.912,978.473 z" id="boundary" inkscape:connector-curvature="0" />
	<path style="fill:none;stroke:red;stroke-width:1px;stroke-linecap:butt;stroke-linejoin:miter;stroke-opacity:1" d="M 102.148,331.746 110.912,314.219 z" id="boundary" inkscape:connector-curvature="0" />
	<path style="fill:none;stroke:red;stroke-width:1px;stroke-linecap:butt;stroke-linejoin:miter;stroke-opacity:1" d="M 102.148,443.915 116.17,431.647 z" id="boundary" inkscape:connector-curvature="0" />
	<path style="fill:none;stroke:red;stroke-width:1px;stroke-linecap:butt;stroke-linejoin:miter;stroke-opacity:1" d="M 105.654,871.562 114.629,854.141 z" id="boundary" inkscape:connector-curvature="0" />
	<path style="fill:none;stroke:red;stroke-width:1px;stroke-linecap:butt;stroke-linejoin:miter;stroke-opacity:1" d="M 110.912,314.219 124.933,301.951 z" id="boundary" inkscape:connector-curvature="0" />
	<path style="fill:none;stroke:red;stroke-width:1px;stroke-linecap:butt;stroke-linejoin:miter;stroke-opacity:1" d="M 110.912,978.473 124.933,966.205 z" id="boundary" inkscape:connector-curvature="0" />
	<path style="fill:none;stroke:red;stroke-width:1px;stroke-linecap:butt;stroke-linejoin:miter;stroke-opacity:1" d="M 114.629,854.141 122.738,836.288 z" id="boundary" inkscape:connector-curvature="0" />
	<path style="fill:none;stroke:red;stroke-width:1px;stroke-linecap:butt;stroke-linejoin:miter;stroke-opacity:1" d="M 116.17,431.647 128.438,417.625 z" id="boundary" inkscape:connector-curvature="0" />
	<path style="fill:none;stroke:red;stroke-width:1px;stroke-linecap:butt;stroke-linejoin:miter;stroke-opacity:1" d="M 122.738,836.288 131.943,818.982 z" id="boundary" inkscape:connector-curvature="0" />
	<path style="fill:none;stroke:red;stroke-width:1px;stroke-linecap:butt;stroke-linejoin:miter;stroke-opacity:1" d="M 124.933,301.951 140.707,293.187 z" id="boundary" inkscape:connector-curvature="0" />
	<path style="fill:none;stroke:red;stroke-width:1px;stroke-linecap:butt;stroke-linejoin:miter;stroke-opacity:1" d="M 124.933,966.205 137.201,952.184 z" id="boundary" inkscape:connector-curvature="0" />
	<path style="fill:none;stroke:red;stroke-width:1px;stroke-linecap:butt;stroke-linejoin:miter;stroke-opacity:1" d="M 128.438,417.625 137.201,400.099 z" id="boundary" inkscape:connector-curvature="0" />
	<path style="fill:none;stroke:red;stroke-width:1px;stroke-linecap:butt;stroke-linejoin:miter;stroke-opacity:1" d="M 131.943,818.982 144.212,797.951 z" id="boundary" inkscape:connector-curvature="0" />
	<path style="fill:none;stroke:red;stroke-width:1px;stroke-linecap:butt;stroke-linejoin:miter;stroke-opacity:1" d="M 137.201,400.099 152.975,391.336 z" id="boundary" inkscape:connector-curvature="0" />
	<path style="fill:none;stroke:red;stroke-width:1px;stroke-linecap:butt;stroke-linejoin:miter;stroke-opacity:1" d="M 137.201,952.184 151.223,939.915 z" id="boundary" inkscape:connector-curvature="0" />
	<path style="fill:none;stroke:red;stroke-width:1px;stroke-linecap:butt;stroke-linejoin:miter;stroke-opacity:1" d="M 140.707,293.187 154.728,279.166 z" id="boundary" inkscape:connector-curvature="0" />
	<path style="fill:none;stroke:red;stroke-width:1px;stroke-linecap:butt;stroke-linejoin:miter;stroke-opacity:1" d="M 144.212,797.951 158.233,783.929 z" id="boundary" inkscape:connector-curvature="0" />
	<path style="fill:none;stroke:red;stroke-width:1px;stroke-linecap:butt;stroke-linejoin:miter;stroke-opacity:1" d="M 151.223,939.915 159.986,922.389 z" id="boundary" inkscape:connector-curvature="0" />
	<path style="fill:none;stroke:red;stroke-width:1px;stroke-linecap:butt;stroke-linejoin:miter;stroke-opacity:1" d="M 152.975,391.336 166.996,380.82 z" id="boundary" inkscape:connector-curvature="0" />
	<path style="fill:none;stroke:red;stroke-width:1px;stroke-linecap:butt;stroke-linejoin:miter;stroke-opacity:1" d="M 154.728,279.166 168.749,266.898 z" id="boundary" inkscape:connector-curvature="0" />
	<path style="fill:none;stroke:red;stroke-width:1px;stroke-linecap:butt;stroke-linejoin:miter;stroke-opacity:1" d="M 158.233,783.929 166.996,766.403 z" id="boundary" inkscape:connector-curvature="0" />
	<path style="fill:none;stroke:red;stroke-width:1px;stroke-linecap:butt;stroke-linejoin:miter;stroke-opacity:1" d="M 159.986,922.389 172.254,908.367 z" id="boundary" inkscape:connector-curvature="0" />
	<path style="fill:none;stroke:red;stroke-width:1px;stroke-linecap:butt;stroke-linejoin:miter;stroke-opacity:1" d="M 166.996,380.82 184.523,373.809 z" id="boundary" inkscape:connector-curvature="0" />
	<path style="fill:none;stroke:red;stroke-width:1px;stroke-linecap:butt;stroke-linejoin:miter;stroke-opacity:1" d="M 166.996,766.403 175.76,748.876 z" id="boundary" inkscape:connector-curvature="0" />
	<path style="fill:none;stroke:red;stroke-width:1px;stroke-linecap:butt;stroke-linejoin:miter;stroke-opacity:1" d="M 168.749,266.898 186.276,266.898 z" id="boundary" inkscape:connector-curvature="0" />
	<path style="fill:none;stroke:red;stroke-width:1px;stroke-linecap:butt;stroke-linejoin:miter;stroke-opacity:1" d="M 172.254,908.367 186.276,896.099 z" id="boundary" inkscape:connector-curvature="0" />
	<path style="fill:none;stroke:red;stroke-width:1px;stroke-linecap:butt;stroke-linejoin:miter;stroke-opacity:1" d="M 175.76,748.876 188.028,727.845 z" id="boundary" inkscape:connector-curvature="0" />
	<path style="fill:none;stroke:red;stroke-width:1px;stroke-linecap:butt;stroke-linejoin:miter;stroke-opacity:1" d="M 184.523,373.809 202.049,380.82 z" id="boundary" inkscape:connector-curvature="0" />
	<path style="fill:none;stroke:red;stroke-width:1px;stroke-linecap:butt;stroke-linejoin:miter;stroke-opacity:1" d="M 186.276,266.898 202.049,258.134 z" id="boundary" inkscape:connector-curvature="0" />
	<path style="fill:none;stroke:red;stroke-width:1px;stroke-linecap:butt;stroke-linejoin:miter;stroke-opacity:1" d="M 186.276,896.099 195.039,878.572 z" id="boundary" inkscape:connector-curvature="0" />
	<path style="fill:none;stroke:red;stroke-width:1px;stroke-linecap:butt;stroke-linejoin:miter;stroke-opacity:1" d="M 188.028,727.845 202.049,713.823 z" id="boundary" inkscape:connector-curvature="0" />
	<path style="fill:none;stroke:red;stroke-width:1px;stroke-linecap:butt;stroke-linejoin:miter;stroke-opacity:1" d="M 195.039,878.572 207.307,864.551 z" id="boundary" inkscape:connector-curvature="0" />
	<path style="fill:none;stroke:red;stroke-width:1px;stroke-linecap:butt;stroke-linejoin:miter;stroke-opacity:1" d="M 202.049,258.134 219.576,258.134 z" id="boundary" inkscape:connector-curvature="0" />
	<path style="fill:none;stroke:red;stroke-width:1px;stroke-linecap:butt;stroke-linejoin:miter;stroke-opacity:1" d="M 202.049,380.82 214.318,394.841 z" id="boundary" inkscape:connector-curvature="0" />
	<path style="fill:none;stroke:red;stroke-width:1px;stroke-linecap:butt;stroke-linejoin:miter;stroke-opacity:1" d="M 202.049,713.823 210.813,696.297 z" id="boundary" inkscape:connector-curvature="0" />
	<path style="fill:none;stroke:red;stroke-width:1px;stroke-linecap:butt;stroke-linejoin:miter;stroke-opacity:1" d="M 207.307,864.551 216.071,847.025 z" id="boundary" inkscape:connector-curvature="0" />
	<path style="fill:none;stroke:red;stroke-width:1px;stroke-linecap:butt;stroke-linejoin:miter;stroke-opacity:1" d="M 210.813,696.297 223.081,675.265 z" id="boundary" inkscape:connector-curvature="0" />
	<path style="fill:none;stroke:red;stroke-width:1px;stroke-linecap:butt;stroke-linejoin:miter;stroke-opacity:1" d="M 214.318,394.841 214.318,412.367 z" id="boundary" inkscape:connector-curvature="0" />
	<path style="fill:none;stroke:red;stroke-width:1px;stroke-linecap:butt;stroke-linejoin:miter;stroke-opacity:1" d="M 214.318,412.367 223.081,428.141 z" id="boundary" inkscape:connector-curvature="0" />
	<path style="fill:none;stroke:red;stroke-width:1px;stroke-linecap:butt;stroke-linejoin:miter;stroke-opacity:1" d="M 216.071,847.025 230.092,834.756 z" id="boundary" inkscape:connector-curvature="0" />
	<path style="fill:none;stroke:red;stroke-width:1px;stroke-linecap:butt;stroke-linejoin:miter;stroke-opacity:1" d="M 219.576,258.134 237.102,258.134 z" id="boundary" inkscape:connector-curvature="0" />
	<path style="fill:none;stroke:red;stroke-width:1px;stroke-linecap:butt;stroke-linejoin:miter;stroke-opacity:1" d="M 223.081,428.141 223.081,445.668 z" id="boundary" inkscape:connector-curvature="0" />
	<path style="fill:none;stroke:red;stroke-width:1px;stroke-linecap:butt;stroke-linejoin:miter;stroke-opacity:1" d="M 223.081,445.668 231.845,461.442 z" id="boundary" inkscape:connector-curvature="0" />
	<path style="fill:none;stroke:red;stroke-width:1px;stroke-linecap:butt;stroke-linejoin:miter;stroke-opacity:1" d="M 223.081,675.265 231.845,657.739 z" id="boundary" inkscape:connector-curvature="0" />
	<path style="fill:none;stroke:red;stroke-width:1px;stroke-linecap:butt;stroke-linejoin:miter;stroke-opacity:1" d="M 230.092,834.756 242.36,811.972 z" id="boundary" inkscape:connector-curvature="0" />
	<path style="fill:none;stroke:red;stroke-width:1px;stroke-linecap:butt;stroke-linejoin:miter;stroke-opacity:1" d="M 231.845,461.442 237.102,478.968 z" id="boundary" inkscape:connector-curvature="0" />
	<path style="fill:none;stroke:red;stroke-width:1px;stroke-linecap:butt;stroke-linejoin:miter;stroke-opacity:1" d="M 231.845,657.739 240.608,631.449 z" id="boundary" inkscape:connector-curvature="0" />
	<path style="fill:none;stroke:red;stroke-width:1px;stroke-linecap:butt;stroke-linejoin:miter;stroke-opacity:1" d="M 237.102,258.134 254.629,249.371 z" id="boundary" inkscape:connector-curvature="0" />
	<path style="fill:none;stroke:red;stroke-width:1px;stroke-linecap:butt;stroke-linejoin:miter;stroke-opacity:1" d="M 237.102,478.968 240.608,496.495 z" id="boundary" inkscape:connector-curvature="0" />
	<path style="fill:none;stroke:red;stroke-width:1px;stroke-linecap:butt;stroke-linejoin:miter;stroke-opacity:1" d="M 240.608,496.495 245.866,514.021 z" id="boundary" inkscape:connector-curvature="0" />
	<path style="fill:none;stroke:red;stroke-width:1px;stroke-linecap:butt;stroke-linejoin:miter;stroke-opacity:1" d="M 240.608,631.449 249.371,613.922 z" id="boundary" inkscape:connector-curvature="0" />
	<path style="fill:none;stroke:red;stroke-width:1px;stroke-linecap:butt;stroke-linejoin:miter;stroke-opacity:1" d="M 242.36,811.972 256.382,799.703 z" id="boundary" inkscape:connector-curvature="0" />
	<path style="fill:none;stroke:red;stroke-width:1px;stroke-linecap:butt;stroke-linejoin:miter;stroke-opacity:1" d="M 245.866,514.021 249.371,531.548 z" id="boundary" inkscape:connector-curvature="0" />
	<path style="fill:none;stroke:red;stroke-width:1px;stroke-linecap:butt;stroke-linejoin:miter;stroke-opacity:1" d="M 249.371,531.548 254.629,549.074 z" id="boundary" inkscape:connector-curvature="0" />
	<path style="fill:none;stroke:red;stroke-width:1px;stroke-linecap:butt;stroke-linejoin:miter;stroke-opacity:1" d="M 249.371,613.922 258.134,584.127 z" id="boundary" inkscape:connector-curvature="0" />
	<path style="fill:none;stroke:red;stroke-width:1px;stroke-linecap:butt;stroke-linejoin:miter;stroke-opacity:1" d="M 254.629,249.371 266.898,226.587 z" id="boundary" inkscape:connector-curvature="0" />
	<path style="fill:none;stroke:red;stroke-width:1px;stroke-linecap:butt;stroke-linejoin:miter;stroke-opacity:1" d="M 254.629,549.074 258.134,566.601 z" id="boundary" inkscape:connector-curvature="0" />
	<path style="fill:none;stroke:red;stroke-width:1px;stroke-linecap:butt;stroke-linejoin:miter;stroke-opacity:1" d="M 256.382,799.703 268.65,785.682 z" id="boundary" inkscape:connector-curvature="0" />
	<path style="fill:none;stroke:red;stroke-width:1px;stroke-linecap:butt;stroke-linejoin:miter;stroke-opacity:1" d="M 258.134,175.76 258.134,193.286 z" id="boundary" inkscape:connector-curvature="0" />
	<path style="fill:none;stroke:red;stroke-width:1px;stroke-linecap:butt;stroke-linejoin:miter;stroke-opacity:1" d="M 258.134,175.76 266.898,149.47 z" id="boundary" inkscape:connector-curvature="0" />
	<path style="fill:none;stroke:red;stroke-width:1px;stroke-linecap:butt;stroke-linejoin:miter;stroke-opacity:1" d="M 258.134,193.286 266.898,209.06 z" id="boundary" inkscape:connector-curvature="0" />
	<path style="fill:none;stroke:red;stroke-width:1px;stroke-linecap:butt;stroke-linejoin:miter;stroke-opacity:1" d="M 258.134,566.601 258.134,584.127 z" id="boundary" inkscape:connector-curvature="0" />
	<path style="fill:none;stroke:red;stroke-width:1px;stroke-linecap:butt;stroke-linejoin:miter;stroke-opacity:1" d="M 266.898,149.47 280.919,135.449 z" id="boundary" inkscape:connector-curvature="0" />
	<path style="fill:none;stroke:red;stroke-width:1px;stroke-linecap:butt;stroke-linejoin:miter;stroke-opacity:1" d="M 266.898,209.06 266.898,226.587 z" id="boundary" inkscape:connector-curvature="0" />
	<path style="fill:none;stroke:red;stroke-width:1px;stroke-linecap:butt;stroke-linejoin:miter;stroke-opacity:1" d="M 268.65,785.682 277.413,768.155 z" id="boundary" inkscape:connector-curvature="0" />
	<path style="fill:none;stroke:red;stroke-width:1px;stroke-linecap:butt;stroke-linejoin:miter;stroke-opacity:1" d="M 277.413,768.155 291.435,755.887 z" id="boundary" inkscape:connector-curvature="0" />
	<path style="fill:none;stroke:red;stroke-width:1px;stroke-linecap:butt;stroke-linejoin:miter;stroke-opacity:1" d="M 280.919,135.449 294.94,121.428 z" id="boundary" inkscape:connector-curvature="0" />
	<path style="fill:none;stroke:red;stroke-width:1px;stroke-linecap:butt;stroke-linejoin:miter;stroke-opacity:1" d="M 291.435,755.887 301.951,741.866 z" id="boundary" inkscape:connector-curvature="0" />
	<path style="fill:none;stroke:red;stroke-width:1px;stroke-linecap:butt;stroke-linejoin:miter;stroke-opacity:1" d="M 294.94,121.428 308.961,109.159 z" id="boundary" inkscape:connector-curvature="0" />
	<path style="fill:none;stroke:red;stroke-width:1px;stroke-linecap:butt;stroke-linejoin:miter;stroke-opacity:1" d="M 301.951,741.866 312.466,724.339 z" id="boundary" inkscape:connector-curvature="0" />
	<path style="fill:none;stroke:red;stroke-width:1px;stroke-linecap:butt;stroke-linejoin:miter;stroke-opacity:1" d="M 308.961,109.159 324.735,100.396 z" id="boundary" inkscape:connector-curvature="0" />
	<path style="fill:none;stroke:red;stroke-width:1px;stroke-linecap:butt;stroke-linejoin:miter;stroke-opacity:1" d="M 312.466,724.339 326.488,712.071 z" id="boundary" inkscape:connector-curvature="0" />
	<path style="fill:none;stroke:red;stroke-width:1px;stroke-linecap:butt;stroke-linejoin:miter;stroke-opacity:1" d="M 324.735,100.396 342.261,100.396 z" id="boundary" inkscape:connector-curvature="0" />
	<path style="fill:none;stroke:red;stroke-width:1px;stroke-linecap:butt;stroke-linejoin:miter;stroke-opacity:1" d="M 326.488,712.071 344.014,706.813 z" id="boundary" inkscape:connector-curvature="0" />
	<path style="fill:none;stroke:red;stroke-width:1px;stroke-linecap:butt;stroke-linejoin:miter;stroke-opacity:1" d="M 342.261,100.396 358.035,109.159 z" id="boundary" inkscape:connector-curvature="0" />
	<path style="fill:none;stroke:red;stroke-width:1px;stroke-linecap:butt;stroke-linejoin:miter;stroke-opacity:1" d="M 344.014,706.813 359.788,715.576 z" id="boundary" inkscape:connector-curvature="0" />
	<path style="fill:none;stroke:red;stroke-width:1px;stroke-linecap:butt;stroke-linejoin:miter;stroke-opacity:1" d="M 358.035,109.159 373.809,117.922 z" id="boundary" inkscape:connector-curvature="0" />
	<path style="fill:none;stroke:red;stroke-width:1px;stroke-linecap:butt;stroke-linejoin:miter;stroke-opacity:1" d="M 359.788,715.576 368.551,731.35 z" id="boundary" inkscape:connector-curvature="0" />
	<path style="fill:none;stroke:red;stroke-width:1px;stroke-linecap:butt;stroke-linejoin:miter;stroke-opacity:1" d="M 368.551,731.35 380.82,745.371 z" id="boundary" inkscape:connector-curvature="0" />
	<path style="fill:none;stroke:red;stroke-width:1px;stroke-linecap:butt;stroke-linejoin:miter;stroke-opacity:1" d="M 373.809,117.922 382.572,133.696 z" id="boundary" inkscape:connector-curvature="0" />
	<path style="fill:none;stroke:red;stroke-width:1px;stroke-linecap:butt;stroke-linejoin:miter;stroke-opacity:1" d="M 380.82,745.371 394.841,757.64 z" id="boundary" inkscape:connector-curvature="0" />
	<path style="fill:none;stroke:red;stroke-width:1px;stroke-linecap:butt;stroke-linejoin:miter;stroke-opacity:1" d="M 382.572,133.696 396.594,145.965 z" id="boundary" inkscape:connector-curvature="0" />
	<path style="fill:none;stroke:red;stroke-width:1px;stroke-linecap:butt;stroke-linejoin:miter;stroke-opacity:1" d="M 394.841,757.64 407.11,771.661 z" id="boundary" inkscape:connector-curvature="0" />
	<path style="fill:none;stroke:red;stroke-width:1px;stroke-linecap:butt;stroke-linejoin:miter;stroke-opacity:1" d="M 396.594,145.965 400.099,163.491 z" id="boundary" inkscape:connector-curvature="0" />
	<path style="fill:none;stroke:red;stroke-width:1px;stroke-linecap:butt;stroke-linejoin:miter;stroke-opacity:1" d="M 400.099,163.491 408.862,179.265 z" id="boundary" inkscape:connector-curvature="0" />
	<path style="fill:none;stroke:red;stroke-width:1px;stroke-linecap:butt;stroke-linejoin:miter;stroke-opacity:1" d="M 400.099,216.071 400.099,233.597 z" id="boundary" inkscape:connector-curvature="0" />
	<path style="fill:none;stroke:red;stroke-width:1px;stroke-linecap:butt;stroke-linejoin:miter;stroke-opacity:1" d="M 400.099,216.071 408.862,196.792 z" id="boundary" inkscape:connector-curvature="0" />
	<path style="fill:none;stroke:red;stroke-width:1px;stroke-linecap:butt;stroke-linejoin:miter;stroke-opacity:1" d="M 400.099,233.597 408.862,249.371 z" id="boundary" inkscape:connector-curvature="0" />
	<path style="fill:none;stroke:red;stroke-width:1px;stroke-linecap:butt;stroke-linejoin:miter;stroke-opacity:1" d="M 407.11,771.661 421.131,783.929 z" id="boundary" inkscape:connector-curvature="0" />
	<path style="fill:none;stroke:red;stroke-width:1px;stroke-linecap:butt;stroke-linejoin:miter;stroke-opacity:1" d="M 408.862,179.265 408.862,196.792 z" id="boundary" inkscape:connector-curvature="0" />
	<path style="fill:none;stroke:red;stroke-width:1px;stroke-linecap:butt;stroke-linejoin:miter;stroke-opacity:1" d="M 408.862,249.371 408.862,266.898 z" id="boundary" inkscape:connector-curvature="0" />
	<path style="fill:none;stroke:red;stroke-width:1px;stroke-linecap:butt;stroke-linejoin:miter;stroke-opacity:1" d="M 408.862,266.898 426.389,266.898 z" id="boundary" inkscape:connector-curvature="0" />
	<path style="fill:none;stroke:red;stroke-width:1px;stroke-linecap:butt;stroke-linejoin:miter;stroke-opacity:1" d="M 417.625,549.074 417.625,566.601 z" id="boundary" inkscape:connector-curvature="0" />
	<path style="fill:none;stroke:red;stroke-width:1px;stroke-linecap:butt;stroke-linejoin:miter;stroke-opacity:1" d="M 417.625,549.074 426.389,531.548 z" id="boundary" inkscape:connector-curvature="0" />
	<path style="fill:none;stroke:red;stroke-width:1px;stroke-linecap:butt;stroke-linejoin:miter;stroke-opacity:1" d="M 417.625,566.601 417.625,584.127 z" id="boundary" inkscape:connector-curvature="0" />
	<path style="fill:none;stroke:red;stroke-width:1px;stroke-linecap:butt;stroke-linejoin:miter;stroke-opacity:1" d="M 417.625,584.127 421.131,601.654 z" id="boundary" inkscape:connector-curvature="0" />
	<path style="fill:none;stroke:red;stroke-width:1px;stroke-linecap:butt;stroke-linejoin:miter;stroke-opacity:1" d="M 421.131,601.654 426.389,619.18 z" id="boundary" inkscape:connector-curvature="0" />
	<path style="fill:none;stroke:red;stroke-width:1px;stroke-linecap:butt;stroke-linejoin:miter;stroke-opacity:1" d="M 421.131,783.929 433.399,797.951 z" id="boundary" inkscape:connector-curvature="0" />
	<path style="fill:none;stroke:red;stroke-width:1px;stroke-linecap:butt;stroke-linejoin:miter;stroke-opacity:1" d="M 426.389,266.898 443.915,266.898 z" id="boundary" inkscape:connector-curvature="0" />
	<path style="fill:none;stroke:red;stroke-width:1px;stroke-linecap:butt;stroke-linejoin:miter;stroke-opacity:1" d="M 426.389,514.021 426.389,531.548 z" id="boundary" inkscape:connector-curvature="0" />
	<path style="fill:none;stroke:red;stroke-width:1px;stroke-linecap:butt;stroke-linejoin:miter;stroke-opacity:1" d="M 426.389,514.021 435.152,487.731 z" id="boundary" inkscape:connector-curvature="0" />
	<path style="fill:none;stroke:red;stroke-width:1px;stroke-linecap:butt;stroke-linejoin:miter;stroke-opacity:1" d="M 426.389,619.18 435.152,634.954 z" id="boundary" inkscape:connector-curvature="0" />
	<path style="fill:none;stroke:red;stroke-width:1px;stroke-linecap:butt;stroke-linejoin:miter;stroke-opacity:1" d="M 433.399,797.951 442.163,813.724 z" id="boundary" inkscape:connector-curvature="0" />
	<path style="fill:none;stroke:red;stroke-width:1px;stroke-linecap:butt;stroke-linejoin:miter;stroke-opacity:1" d="M 435.152,470.205 435.152,487.731 z" id="boundary" inkscape:connector-curvature="0" />
	<path style="fill:none;stroke:red;stroke-width:1px;stroke-linecap:butt;stroke-linejoin:miter;stroke-opacity:1" d="M 435.152,470.205 443.915,443.915 z" id="boundary" inkscape:connector-curvature="0" />
	<path style="fill:none;stroke:red;stroke-width:1px;stroke-linecap:butt;stroke-linejoin:miter;stroke-opacity:1" d="M 435.152,634.954 435.152,652.481 z" id="boundary" inkscape:connector-curvature="0" />
	<path style="fill:none;stroke:red;stroke-width:1px;stroke-linecap:butt;stroke-linejoin:miter;stroke-opacity:1" d="M 435.152,652.481 449.173,662.996 z" id="boundary" inkscape:connector-curvature="0" />
	<path style="fill:none;stroke:red;stroke-width:1px;stroke-linecap:butt;stroke-linejoin:miter;stroke-opacity:1" d="M 442.163,813.724 454.431,827.746 z" id="boundary" inkscape:connector-curvature="0" />
	<path style="fill:none;stroke:red;stroke-width:1px;stroke-linecap:butt;stroke-linejoin:miter;stroke-opacity:1" d="M 443.915,266.898 459.689,258.134 z" id="boundary" inkscape:connector-curvature="0" />
	<path style="fill:none;stroke:red;stroke-width:1px;stroke-linecap:butt;stroke-linejoin:miter;stroke-opacity:1" d="M 443.915,426.389 443.915,443.915 z" id="boundary" inkscape:connector-curvature="0" />
	<path style="fill:none;stroke:red;stroke-width:1px;stroke-linecap:butt;stroke-linejoin:miter;stroke-opacity:1" d="M 443.915,426.389 452.678,400.099 z" id="boundary" inkscape:connector-curvature="0" />
	<path style="fill:none;stroke:red;stroke-width:1px;stroke-linecap:butt;stroke-linejoin:miter;stroke-opacity:1" d="M 449.173,662.996 456.184,680.523 z" id="boundary" inkscape:connector-curvature="0" />
	<path style="fill:none;stroke:red;stroke-width:1px;stroke-linecap:butt;stroke-linejoin:miter;stroke-opacity:1" d="M 452.678,365.046 452.678,382.572 z" id="boundary" inkscape:connector-curvature="0" />
	<path style="fill:none;stroke:red;stroke-width:1px;stroke-linecap:butt;stroke-linejoin:miter;stroke-opacity:1" d="M 452.678,365.046 470.205,356.283 z" id="boundary" inkscape:connector-curvature="0" />
	<path style="fill:none;stroke:red;stroke-width:1px;stroke-linecap:butt;stroke-linejoin:miter;stroke-opacity:1" d="M 452.678,382.572 452.678,400.099 z" id="boundary" inkscape:connector-curvature="0" />
	<path style="fill:none;stroke:red;stroke-width:1px;stroke-linecap:butt;stroke-linejoin:miter;stroke-opacity:1" d="M 454.431,827.746 468.452,838.261 z" id="boundary" inkscape:connector-curvature="0" />
	<path style="fill:none;stroke:red;stroke-width:1px;stroke-linecap:butt;stroke-linejoin:miter;stroke-opacity:1" d="M 456.184,680.523 464.947,696.297 z" id="boundary" inkscape:connector-curvature="0" />
	<path style="fill:none;stroke:red;stroke-width:1px;stroke-linecap:butt;stroke-linejoin:miter;stroke-opacity:1" d="M 459.689,258.134 477.216,254.629 z" id="boundary" inkscape:connector-curvature="0" />
	<path style="fill:none;stroke:red;stroke-width:1px;stroke-linecap:butt;stroke-linejoin:miter;stroke-opacity:1" d="M 464.947,696.297 477.216,710.318 z" id="boundary" inkscape:connector-curvature="0" />
	<path style="fill:none;stroke:red;stroke-width:1px;stroke-linecap:butt;stroke-linejoin:miter;stroke-opacity:1" d="M 468.452,838.261 477.216,854.035 z" id="boundary" inkscape:connector-curvature="0" />
	<path style="fill:none;stroke:red;stroke-width:1px;stroke-linecap:butt;stroke-linejoin:miter;stroke-opacity:1" d="M 470.205,356.283 485.979,347.519 z" id="boundary" inkscape:connector-curvature="0" />
	<path style="fill:none;stroke:red;stroke-width:1px;stroke-linecap:butt;stroke-linejoin:miter;stroke-opacity:1" d="M 477.216,254.629 495.044,246.47 z" id="boundary" inkscape:connector-curvature="0" />
	<path style="fill:none;stroke:red;stroke-width:1px;stroke-linecap:butt;stroke-linejoin:miter;stroke-opacity:1" d="M 477.216,710.318 485.979,726.092 z" id="boundary" inkscape:connector-curvature="0" />
	<path style="fill:none;stroke:red;stroke-width:1px;stroke-linecap:butt;stroke-linejoin:miter;stroke-opacity:1" d="M 477.216,854.035 487.731,868.057 z" id="boundary" inkscape:connector-curvature="0" />
	<path style="fill:none;stroke:red;stroke-width:1px;stroke-linecap:butt;stroke-linejoin:miter;stroke-opacity:1" d="M 485.979,347.519 500,337.004 z" id="boundary" inkscape:connector-curvature="0" />
	<path style="fill:none;stroke:red;stroke-width:1px;stroke-linecap:butt;stroke-linejoin:miter;stroke-opacity:1" d="M 485.979,726.092 496.495,740.113 z" id="boundary" inkscape:connector-curvature="0" />
	<path style="fill:none;stroke:red;stroke-width:1px;stroke-linecap:butt;stroke-linejoin:miter;stroke-opacity:1" d="M 487.731,868.057 500,882.078 z" id="boundary" inkscape:connector-curvature="0" />
	<path style="fill:none;stroke:red;stroke-width:1px;stroke-linecap:butt;stroke-linejoin:miter;stroke-opacity:1" d="M 495.044,246.47 512.269,237.102 z" id="boundary" inkscape:connector-curvature="0" />
	<path style="fill:none;stroke:red;stroke-width:1px;stroke-linecap:butt;stroke-linejoin:miter;stroke-opacity:1" d="M 496.495,740.113 505.258,755.887 z" id="boundary" inkscape:connector-curvature="0" />
	<path style="fill:none;stroke:red;stroke-width:1px;stroke-linecap:butt;stroke-linejoin:miter;stroke-opacity:1" d="M 500,337.004 517.527,329.993 z" id="boundary" inkscape:connector-curvature="0" />
	<path style="fill:none;stroke:red;stroke-width:1px;stroke-linecap:butt;stroke-linejoin:miter;stroke-opacity:1" d="M 500,882.078 512.269,896.099 z" id="boundary" inkscape:connector-curvature="0" />
	<path style="fill:none;stroke:red;stroke-width:1px;stroke-linecap:butt;stroke-linejoin:miter;stroke-opacity:1" d="M 505.258,755.887 519.279,768.155 z" id="boundary" inkscape:connector-curvature="0" />
	<path style="fill:none;stroke:red;stroke-width:1px;stroke-linecap:butt;stroke-linejoin:miter;stroke-opacity:1" d="M 512.269,237.102 526.29,223.082 z" id="boundary" inkscape:connector-curvature="0" />
	<path style="fill:none;stroke:red;stroke-width:1px;stroke-linecap:butt;stroke-linejoin:miter;stroke-opacity:1" d="M 512.269,896.099 521.032,911.873 z" id="boundary" inkscape:connector-curvature="0" />
	<path style="fill:none;stroke:red;stroke-width:1px;stroke-linecap:butt;stroke-linejoin:miter;stroke-opacity:1" d="M 517.527,329.993 522.784,312.466 z" id="boundary" inkscape:connector-curvature="0" />
	<path style="fill:none;stroke:red;stroke-width:1px;stroke-linecap:butt;stroke-linejoin:miter;stroke-opacity:1" d="M 519.279,768.155 526.29,785.682 z" id="boundary" inkscape:connector-curvature="0" />
	<path style="fill:none;stroke:red;stroke-width:1px;stroke-linecap:butt;stroke-linejoin:miter;stroke-opacity:1" d="M 521.032,911.873 535.053,924.141 z" id="boundary" inkscape:connector-curvature="0" />
	<path style="fill:none;stroke:red;stroke-width:1px;stroke-linecap:butt;stroke-linejoin:miter;stroke-opacity:1" d="M 522.784,312.466 536.806,300.198 z" id="boundary" inkscape:connector-curvature="0" />
	<path style="fill:none;stroke:red;stroke-width:1px;stroke-linecap:butt;stroke-linejoin:miter;stroke-opacity:1" d="M 526.29,223.082 540.311,209.06 z" id="boundary" inkscape:connector-curvature="0" />
	<path style="fill:none;stroke:red;stroke-width:1px;stroke-linecap:butt;stroke-linejoin:miter;stroke-opacity:1" d="M 526.29,785.682 540.311,797.951 z" id="boundary" inkscape:connector-curvature="0" />
	<path style="fill:none;stroke:red;stroke-width:1px;stroke-linecap:butt;stroke-linejoin:miter;stroke-opacity:1" d="M 535.053,924.141 547.322,938.163 z" id="boundary" inkscape:connector-curvature="0" />
	<path style="fill:none;stroke:red;stroke-width:1px;stroke-linecap:butt;stroke-linejoin:miter;stroke-opacity:1" d="M 536.806,300.198 549.074,286.177 z" id="boundary" inkscape:connector-curvature="0" />
	<path style="fill:none;stroke:red;stroke-width:1px;stroke-linecap:butt;stroke-linejoin:miter;stroke-opacity:1" d="M 540.311,209.06 554.332,196.792 z" id="boundary" inkscape:connector-curvature="0" />
	<path style="fill:none;stroke:red;stroke-width:1px;stroke-linecap:butt;stroke-linejoin:miter;stroke-opacity:1" d="M 540.311,797.951 547.322,815.477 z" id="boundary" inkscape:connector-curvature="0" />
	<path style="fill:none;stroke:red;stroke-width:1px;stroke-linecap:butt;stroke-linejoin:miter;stroke-opacity:1" d="M 547.322,815.477 561.343,827.746 z" id="boundary" inkscape:connector-curvature="0" />
	<path style="fill:none;stroke:red;stroke-width:1px;stroke-linecap:butt;stroke-linejoin:miter;stroke-opacity:1" d="M 547.322,938.163 561.343,950.431 z" id="boundary" inkscape:connector-curvature="0" />
	<path style="fill:none;stroke:red;stroke-width:1px;stroke-linecap:butt;stroke-linejoin:miter;stroke-opacity:1" d="M 549.074,286.177 566.601,268.65 z" id="boundary" inkscape:connector-curvature="0" />
	<path style="fill:none;stroke:red;stroke-width:1px;stroke-linecap:butt;stroke-linejoin:miter;stroke-opacity:1" d="M 554.332,196.792 566.601,182.77 z" id="boundary" inkscape:connector-curvature="0" />
	<path style="fill:none;stroke:red;stroke-width:1px;stroke-linecap:butt;stroke-linejoin:miter;stroke-opacity:1" d="M 561.343,827.746 566.601,845.272 z" id="boundary" inkscape:connector-curvature="0" />
	<path style="fill:none;stroke:red;stroke-width:1px;stroke-linecap:butt;stroke-linejoin:miter;stroke-opacity:1" d="M 561.343,950.431 573.611,964.452 z" id="boundary" inkscape:connector-curvature="0" />
	<path style="fill:none;stroke:red;stroke-width:1px;stroke-linecap:butt;stroke-linejoin:miter;stroke-opacity:1" d="M 566.601,182.77 575.364,165.244 z" id="boundary" inkscape:connector-curvature="0" />
	<path style="fill:none;stroke:red;stroke-width:1px;stroke-linecap:butt;stroke-linejoin:miter;stroke-opacity:1" d="M 566.601,268.65 584.127,251.124 z" id="boundary" inkscape:connector-curvature="0" />
	<path style="fill:none;stroke:red;stroke-width:1px;stroke-linecap:butt;stroke-linejoin:miter;stroke-opacity:1" d="M 566.601,845.272 580.622,855.788 z" id="boundary" inkscape:connector-curvature="0" />
	<path style="fill:none;stroke:red;stroke-width:1px;stroke-linecap:butt;stroke-linejoin:miter;stroke-opacity:1" d="M 573.611,964.452 587.633,976.721 z" id="boundary" inkscape:connector-curvature="0" />
	<path style="fill:none;stroke:red;stroke-width:1px;stroke-linecap:butt;stroke-linejoin:miter;stroke-opacity:1" d="M 575.364,165.244 589.385,152.975 z" id="boundary" inkscape:connector-curvature="0" />
	<path style="fill:none;stroke:red;stroke-width:1px;stroke-linecap:butt;stroke-linejoin:miter;stroke-opacity:1" d="M 580.622,855.788 587.633,873.314 z" id="boundary" inkscape:connector-curvature="0" />
	<path style="fill:none;stroke:red;stroke-width:1px;stroke-linecap:butt;stroke-linejoin:miter;stroke-opacity:1" d="M 584.127,251.124 598.148,238.855 z" id="boundary" inkscape:connector-curvature="0" />
	<path style="fill:none;stroke:red;stroke-width:1px;stroke-linecap:butt;stroke-linejoin:miter;stroke-opacity:1" d="M 587.633,873.314 601.654,885.583 z" id="boundary" inkscape:connector-curvature="0" />
	<path style="fill:none;stroke:red;stroke-width:1px;stroke-linecap:butt;stroke-linejoin:miter;stroke-opacity:1" d="M 587.633,976.721 601.654,987.237 z" id="boundary" inkscape:connector-curvature="0" />
	<path style="fill:none;stroke:red;stroke-width:1px;stroke-linecap:butt;stroke-linejoin:miter;stroke-opacity:1" d="M 589.385,152.975 604.537,130.82 z" id="boundary" inkscape:connector-curvature="0" />
	<path style="fill:none;stroke:red;stroke-width:1px;stroke-linecap:butt;stroke-linejoin:miter;stroke-opacity:1" d="M 598.148,238.855 606.912,221.329 z" id="boundary" inkscape:connector-curvature="0" />
	<path style="fill:none;stroke:red;stroke-width:1px;stroke-linecap:butt;stroke-linejoin:miter;stroke-opacity:1" d="M 604.537,130.82 608.664,114.417 z" id="boundary" inkscape:connector-curvature="0" />
	<path style="fill:none;stroke:red;stroke-width:1px;stroke-linecap:butt;stroke-linejoin:miter;stroke-opacity:1" d="M 601.654,885.583 608.664,903.11 z" id="boundary" inkscape:connector-curvature="0" />
	<path style="fill:none;stroke:red;stroke-width:1px;stroke-linecap:butt;stroke-linejoin:miter;stroke-opacity:1" d="M 601.654,987.237 617.428,996 z" id="boundary" inkscape:connector-curvature="0" />
	<path style="fill:none;stroke:red;stroke-width:1px;stroke-linecap:butt;stroke-linejoin:miter;stroke-opacity:1" d="M 606.912,221.329 619.18,207.307 z" id="boundary" inkscape:connector-curvature="0" />
	<path style="fill:none;stroke:red;stroke-width:1px;stroke-linecap:butt;stroke-linejoin:miter;stroke-opacity:1" d="M 608.664,114.417 617.494,88.1494 z" id="boundary" inkscape:connector-curvature="0" />
	<path style="fill:none;stroke:red;stroke-width:1px;stroke-linecap:butt;stroke-linejoin:miter;stroke-opacity:1" d="M 608.664,903.11 619.18,917.131 z" id="boundary" inkscape:connector-curvature="0" />
	<path style="fill:none;stroke:red;stroke-width:1px;stroke-linecap:butt;stroke-linejoin:miter;stroke-opacity:1" d="M 617.494,88.1494 626.191,61.8375 z" id="boundary" inkscape:connector-curvature="0" />
	<path style="fill:none;stroke:red;stroke-width:1px;stroke-linecap:butt;stroke-linejoin:miter;stroke-opacity:1" d="M 617.428,996 634.954,990.742 z" id="boundary" inkscape:connector-curvature="0" />
	<path style="fill:none;stroke:red;stroke-width:1px;stroke-linecap:butt;stroke-linejoin:miter;stroke-opacity:1" d="M 619.18,207.307 628.028,189.823 z" id="boundary" inkscape:connector-curvature="0" />
	<path style="fill:none;stroke:red;stroke-width:1px;stroke-linecap:butt;stroke-linejoin:miter;stroke-opacity:1" d="M 619.18,917.131 627.943,932.905 z" id="boundary" inkscape:connector-curvature="0" />
	<path style="fill:none;stroke:red;stroke-width:1px;stroke-linecap:butt;stroke-linejoin:miter;stroke-opacity:1" d="M 626.191,61.8375 634.954,44.311 z" id="boundary" inkscape:connector-curvature="0" />
	<path style="fill:none;stroke:red;stroke-width:1px;stroke-linecap:butt;stroke-linejoin:miter;stroke-opacity:1" d="M 628.028,189.823 636.578,172.19 z" id="boundary" inkscape:connector-curvature="0" />
	<path style="fill:none;stroke:red;stroke-width:1px;stroke-linecap:butt;stroke-linejoin:miter;stroke-opacity:1" d="M 627.943,932.905 627.943,950.431 z" id="boundary" inkscape:connector-curvature="0" />
	<path style="fill:none;stroke:red;stroke-width:1px;stroke-linecap:butt;stroke-linejoin:miter;stroke-opacity:1" d="M 627.943,950.431 636.707,966.205 z" id="boundary" inkscape:connector-curvature="0" />
	<path style="fill:none;stroke:red;stroke-width:1px;stroke-linecap:butt;stroke-linejoin:miter;stroke-opacity:1" d="M 634.954,26.7845 634.954,44.311 z" id="boundary" inkscape:connector-curvature="0" />
	<path style="fill:none;stroke:red;stroke-width:1px;stroke-linecap:butt;stroke-linejoin:miter;stroke-opacity:1" d="M 634.954,26.7845 643.717,9.25795 z" id="boundary" inkscape:connector-curvature="0" />
	<path style="fill:none;stroke:red;stroke-width:1px;stroke-linecap:butt;stroke-linejoin:miter;stroke-opacity:1" d="M 634.954,990.742 636.707,966.205 z" id="boundary" inkscape:connector-curvature="0" />
	<path style="fill:none;stroke:red;stroke-width:1px;stroke-linecap:butt;stroke-linejoin:miter;stroke-opacity:1" d="M 636.578,172.19 645.47,154.728 z" id="boundary" inkscape:connector-curvature="0" />
	<path style="fill:none;stroke:red;stroke-width:1px;stroke-linecap:butt;stroke-linejoin:miter;stroke-opacity:1" d="M 643.717,9.25795 661.244,4 z" id="boundary" inkscape:connector-curvature="0" />
	<path style="fill:none;stroke:red;stroke-width:1px;stroke-linecap:butt;stroke-linejoin:miter;stroke-opacity:1" d="M 645.47,154.728 654.233,128.438 z" id="boundary" inkscape:connector-curvature="0" />
	<path style="fill:none;stroke:red;stroke-width:1px;stroke-linecap:butt;stroke-linejoin:miter;stroke-opacity:1" d="M 654.233,128.438 662.996,110.912 z" id="boundary" inkscape:connector-curvature="0" />
	<path style="fill:none;stroke:red;stroke-width:1px;stroke-linecap:butt;stroke-linejoin:miter;stroke-opacity:1" d="M 661.244,4 671.76,18.0212 z" id="boundary" inkscape:connector-curvature="0" />
	<path style="fill:none;stroke:red;stroke-width:1px;stroke-linecap:butt;stroke-linejoin:miter;stroke-opacity:1" d="M 662.997,93.3852 662.996,110.912 z" id="boundary" inkscape:connector-curvature="0" />
	<path style="fill:none;stroke:red;stroke-width:1px;stroke-linecap:butt;stroke-linejoin:miter;stroke-opacity:1" d="M 662.997,93.3852 671.76,70.6007 z" id="boundary" inkscape:connector-curvature="0" />
	<path style="fill:none;stroke:red;stroke-width:1px;stroke-linecap:butt;stroke-linejoin:miter;stroke-opacity:1" d="M 671.76,18.0212 684.424,35.5477 z" id="boundary" inkscape:connector-curvature="0" />
	<path style="fill:none;stroke:red;stroke-width:1px;stroke-linecap:butt;stroke-linejoin:miter;stroke-opacity:1" d="M 684.424,35.5477 667.16,53.0742 z" id="boundary" inkscape:connector-curvature="0" />
	<path style="fill:none;stroke:red;stroke-width:1px;stroke-linecap:butt;stroke-linejoin:miter;stroke-opacity:1" d="M 667.16,53.0742 671.76,70.6007 z" id="boundary" inkscape:connector-curvature="0" />
	<circle cx="4" cy="473.71" r="4" fill="#0" id="circle0"/>
	<circle cx="4" cy="491.237" r="4" fill="#0" id="circle1"/>
	<circle cx="12.7633" cy="456.184" r="4" fill="#0" id="circle2"/>
	<circle cx="12.7633" cy="507.011" r="4" fill="#0" id="circle3"/>
	<circle cx="26.7845" cy="442.163" r="4" fill="#0" id="circle4"/>
	<circle cx="30.2898" cy="508.763" r="4" fill="#0" id="circle5"/>
	<circle cx="35.5477" cy="424.636" r="4" fill="#0" id="circle6"/>
	<circle cx="44.311" cy="494.742" r="4" fill="#0" id="circle7"/>
	<circle cx="49.5689" cy="410.615" r="4" fill="#0" id="circle8"/>
	<circle cx="58.3322" cy="393.088" r="4" fill="#0" id="circle9"/>
	<circle cx="58.3322" cy="478.968" r="4" fill="#0" id="circle10"/>
	<circle cx="65.3428" cy="938.163" r="4" fill="#0" id="circle11"/>
	<circle cx="52.6781" cy="955.689" r="4" fill="#0" id="circle12"/>
	<circle cx="65.3428" cy="973.216" r="4" fill="#0" id="circle13"/>
	<circle cx="72.3534" cy="380.82" r="4" fill="#0" id="circle14"/>
	<circle cx="74.106" cy="470.205" r="4" fill="#0" id="circle15"/>
	<circle cx="72.9412" cy="920.054" r="4" fill="#0" id="circle16"/>
	<circle cx="75.8587" cy="987.237" r="4" fill="#0" id="circle17"/>
	<circle cx="79.364" cy="363.293" r="4" fill="#0" id="circle18"/>
	<circle cx="80.7298" cy="902.04" r="4" fill="#0" id="circle19"/>
	<circle cx="88.1272" cy="459.689" r="4" fill="#0" id="circle20"/>
	<circle cx="91.6325" cy="885.583" r="4" fill="#0" id="circle21"/>
	<circle cx="93.3852" cy="349.272" r="4" fill="#0" id="circle22"/>
	<circle cx="93.3852" cy="987.237" r="4" fill="#0" id="circle23"/>
	<circle cx="102.148" cy="331.746" r="4" fill="#0" id="circle24"/>
	<circle cx="102.148" cy="443.915" r="4" fill="#0" id="circle25"/>
	<circle cx="105.654" cy="871.562" r="4" fill="#0" id="circle26"/>
	<circle cx="110.912" cy="314.219" r="4" fill="#0" id="circle27"/>
	<circle cx="110.912" cy="978.473" r="4" fill="#0" id="circle28"/>
	<circle cx="114.629" cy="854.141" r="4" fill="#0" id="circle29"/>
	<circle cx="116.17" cy="431.647" r="4" fill="#0" id="circle30"/>
	<circle cx="122.738" cy="836.288" r="4" fill="#0" id="circle31"/>
	<circle cx="124.933" cy="301.951" r="4" fill="#0" id="circle32"/>
	<circle cx="124.933" cy="966.205" r="4" fill="#0" id="circle33"/>
	<circle cx="128.438" cy="417.625" r="4" fill="#0" id="circle34"/>
	<circle cx="131.943" cy="818.982" r="4" fill="#0" id="circle35"/>
	<circle cx="137.201" cy="400.099" r="4" fill="#0" id="circle36"/>
	<circle cx="137.201" cy="952.184" r="4" fill="#0" id="circle37"/>
	<circle cx="140.707" cy="293.187" r="4" fill="#0" id="circle38"/>
	<circle cx="144.212" cy="797.951" r="4" fill="#0" id="circle39"/>
	<circle cx="151.223" cy="939.915" r="4" fill="#0" id="circle40"/>
	<circle cx="152.975" cy="391.336" r="4" fill="#0" id="circle41"/>
	<circle cx="154.728" cy="279.166" r="4" fill="#0" id="circle42"/>
	<circle cx="158.233" cy="783.929" r="4" fill="#0" id="circle43"/>
	<circle cx="159.986" cy="922.389" r="4" fill="#0" id="circle44"/>
	<circle cx="166.996" cy="380.82" r="4" fill="#0" id="circle45"/>
	<circle cx="166.996" cy="766.403" r="4" fill="#0" id="circle46"/>
	<circle cx="168.749" cy="266.898" r="4" fill="#0" id="circle47"/>
	<circle cx="172.254" cy="908.367" r="4" fill="#0" id="circle48"/>
	<circle cx="175.76" cy="748.876" r="4" fill="#0" id="circle49"/>
	<circle cx="184.523" cy="373.809" r="4" fill="#0" id="circle50"/>
	<circle cx="186.276" cy="266.898" r="4" fill="#0" id="circle51"/>
	<circle cx="186.276" cy="896.099" r="4" fill="#0" id="circle52"/>
	<circle cx="188.028" cy="727.845" r="4" fill="#0" id="circle53"/>
	<circle cx="195.039" cy="878.572" r="4" fill="#0" id="circle54"/>
	<circle cx="202.049" cy="258.134" r="4" fill="#0" id="circle55"/>
	<circle cx="202.049" cy="380.82" r="4" fill="#0" id="circle56"/>
	<circle cx="202.049" cy="713.823" r="4" fill="#0" id="circle57"/>
	<circle cx="207.307" cy="864.551" r="4" fill="#0" id="circle58"/>
	<circle cx="210.813" cy="696.297" r="4" fill="#0" id="circle59"/>
	<circle cx="214.318" cy="394.841" r="4" fill="#0" id="circle60"/>
	<circle cx="214.318" cy="412.367" r="4" fill="#0" id="circle61"/>
	<circle cx="216.071" cy="847.025" r="4" fill="#0" id="circle62"/>
	<circle cx="219.576" cy="258.134" r="4" fill="#0" id="circle63"/>
	<circle cx="223.081" cy="428.141" r="4" fill="#0" id="circle64"/>
	<circle cx="223.081" cy="445.668" r="4" fill="#0" id="circle65"/>
	<circle cx="223.081" cy="675.265" r="4" fill="#0" id="circle66"/>
	<circle cx="230.092" cy="834.756" r="4" fill="#0" id="circle67"/>
	<circle cx="231.845" cy="461.442" r="4" fill="#0" id="circle68"/>
	<circle cx="231.845" cy="657.739" r="4" fill="#0" id="circle69"/>
	<circle cx="237.102" cy="258.134" r="4" fill="#0" id="circle70"/>
	<circle cx="237.102" cy="478.968" r="4" fill="#0" id="circle71"/>
	<circle cx="240.608" cy="496.495" r="4" fill="#0" id="circle72"/>
	<circle cx="240.608" cy="631.449" r="4" fill="#0" id="circle73"/>
	<circle cx="242.36" cy="811.972" r="4" fill="#0" id="circle74"/>
	<circle cx="245.866" cy="514.021" r="4" fill="#0" id="circle75"/>
	<circle cx="249.371" cy="531.548" r="4" fill="#0" id="circle76"/>
	<circle cx="249.371" cy="613.922" r="4" fill="#0" id="circle77"/>
	<circle cx="254.629" cy="249.371" r="4" fill="#0" id="circle78"/>
	<circle cx="254.629" cy="549.074" r="4" fill="#0" id="circle79"/>
	<circle cx="256.382" cy="799.703" r="4" fill="#0" id="circle80"/>
	<circle cx="258.134" cy="175.76" r="4" fill="#0" id="circle81"/>
	<circle cx="258.134" cy="193.286" r="4" fill="#0" id="circle82"/>
	<circle cx="258.134" cy="566.601" r="4" fill="#0" id="circle83"/>
	<circle cx="258.134" cy="584.127" r="4" fill="#0" id="circle84"/>
	<circle cx="266.898" cy="149.47" r="4" fill="#0" id="circle85"/>
	<circle cx="266.898" cy="209.06" r="4" fill="#0" id="circle86"/>
	<circle cx="266.898" cy="226.587" r="4" fill="#0" id="circle87"/>
	<circle cx="268.65" cy="785.682" r="4" fill="#0" id="circle88"/>
	<circle cx="277.413" cy="768.155" r="4" fill="#0" id="circle89"/>
	<circle cx="280.919" cy="135.449" r="4" fill="#0" id="circle90"/>
	<circle cx="291.435" cy="755.887" r="4" fill="#0" id="circle91"/>
	<circle cx="294.94" cy="121.428" r="4" fill="#0" id="circle92"/>
	<circle cx="301.951" cy="741.866" r="4" fill="#0" id="circle93"/>
	<circle cx="308.961" cy="109.159" r="4" fill="#0" id="circle94"/>
	<circle cx="312.466" cy="724.339" r="4" fill="#0" id="circle95"/>
	<circle cx="324.735" cy="100.396" r="4" fill="#0" id="circle96"/>
	<circle cx="326.488" cy="712.071" r="4" fill="#0" id="circle97"/>
	<circle cx="342.261" cy="100.396" r="4" fill="#0" id="circle98"/>
	<circle cx="344.014" cy="706.813" r="4" fill="#0" id="circle99"/>
	<circle cx="358.035" cy="109.159" r="4" fill="#0" id="circle100"/>
	<circle cx="359.788" cy="715.576" r="4" fill="#0" id="circle101"/>
	<circle cx="368.551" cy="731.35" r="4" fill="#0" id="circle102"/>
	<circle cx="373.809" cy="117.922" r="4" fill="#0" id="circle103"/>
	<circle cx="380.82" cy="745.371" r="4" fill="#0" id="circle104"/>
	<circle cx="382.572" cy="133.696" r="4" fill="#0" id="circle105"/>
	<circle cx="394.841" cy="757.64" r="4" fill="#0" id="circle106"/>
	<circle cx="396.594" cy="145.965" r="4" fill="#0" id="circle107"/>
	<circle cx="400.099" cy="163.491" r="4" fill="#0" id="circle108"/>
	<circle cx="400.099" cy="216.071" r="4" fill="#0" id="circle109"/>
	<circle cx="400.099" cy="233.597" r="4" fill="#0" id="circle110"/>
	<circle cx="407.11" cy="771.661" r="4" fill="#0" id="circle111"/>
	<circle cx="408.862" cy="179.265" r="4" fill="#0" id="circle112"/>
	<circle cx="408.862" cy="196.792" r="4" fill="#0" id="circle113"/>
	<circle cx="408.862" cy="249.371" r="4" fill="#0" id="circle114"/>
	<circle cx="408.862" cy="266.898" r="4" fill="#0" id="circle115"/>
	<circle cx="417.625" cy="549.074" r="4" fill="#0" id="circle116"/>
	<circle cx="417.625" cy="566.601" r="4" fill="#0" id="circle117"/>
	<circle cx="417.625" cy="584.127" r="4" fill="#0" id="circle118"/>
	<circle cx="421.131" cy="601.654" r="4" fill="#0" id="circle119"/>
	<circle cx="421.131" cy="783.929" r="4" fill="#0" id="circle120"/>
	<circle cx="426.389" cy="266.898" r="4" fill="#0" id="circle121"/>
	<circle cx="426.389" cy="514.021" r="4" fill="#0" id="circle122"/>
	<circle cx="426.389" cy="531.548" r="4" fill="#0" id="circle123"/>
	<circle cx="426.389" cy="619.18" r="4" fill="#0" id="circle124"/>
	<circle cx="433.399" cy="797.951" r="4" fill="#0" id="circle125"/>
	<circle cx="435.152" cy="470.205" r="4" fill="#0" id="circle126"/>
	<circle cx="435.152" cy="487.731" r="4" fill="#0" id="circle127"/>
	<circle cx="435.152" cy="634.954" r="4" fill="#0" id="circle128"/>
	<circle cx="435.152" cy="652.481" r="4" fill="#0" id="circle129"/>
	<circle cx="442.163" cy="813.724" r="4" fill="#0" id="circle130"/>
	<circle cx="443.915" cy="266.898" r="4" fill="#0" id="circle131"/>
	<circle cx="443.915" cy="426.389" r="4" fill="#0" id="circle132"/>
	<circle cx="443.915" cy="443.915" r="4" fill="#0" id="circle133"/>
	<circle cx="449.173" cy="662.996" r="4" fill="#0" id="circle134"/>
	<circle cx="452.678" cy="365.046" r="4" fill="#0" id="circle135"/>
	<circle cx="452.678" cy="382.572" r="4" fill="#0" id="circle136"/>
	<circle cx="452.678" cy="400.099" r="4" fill="#0" id="circle137"/>
	<circle cx="454.431" cy="827.746" r="4" fill="#0" id="circle138"/>
	<circle cx="456.184" cy="680.523" r="4" fill="#0" id="circle139"/>
	<circle cx="459.689" cy="258.134" r="4" fill="#0" id="circle140"/>
	<circle cx="464.947" cy="696.297" r="4" fill="#0" id="circle141"/>
	<circle cx="468.452" cy="838.261" r="4" fill="#0" id="circle142"/>
	<circle cx="470.205" cy="356.283" r="4" fill="#0" id="circle143"/>
	<circle cx="477.216" cy="254.629" r="4" fill="#0" id="circle144"/>
	<circle cx="477.216" cy="710.318" r="4" fill="#0" id="circle145"/>
	<circle cx="477.216" cy="854.035" r="4" fill="#0" id="circle146"/>
	<circle cx="485.979" cy="347.519" r="4" fill="#0" id="circle147"/>
	<circle cx="485.979" cy="726.092" r="4" fill="#0" id="circle148"/>
	<circle cx="487.731" cy="868.057" r="4" fill="#0" id="circle149"/>
	<circle cx="495.044" cy="246.47" r="4" fill="#0" id="circle150"/>
	<circle cx="496.495" cy="740.113" r="4" fill="#0" id="circle151"/>
	<circle cx="500" cy="337.004" r="4" fill="#0" id="circle152"/>
	<circle cx="500" cy="882.078" r="4" fill="#0" id="circle153"/>
	<circle cx="505.258" cy="755.887" r="4" fill="#0" id="circle154"/>
	<circle cx="512.269" cy="237.102" r="4" fill="#0" id="circle155"/>
	<circle cx="512.269" cy="896.099" r="4" fill="#0" id="circle156"/>
	<circle cx="517.527" cy="329.993" r="4" fill="#0" id="circle157"/>
	<circle cx="519.279" cy="768.155" r="4" fill="#0" id="circle158"/>
	<circle cx="521.032" cy="911.873" r="4" fill="#0" id="circle159"/>
	<circle cx="522.784" cy="312.466" r="4" fill="#0" id="circle160"/>
	<circle cx="526.29" cy="223.082" r="4" fill="#0" id="circle161"/>
	<circle cx="526.29" cy="785.682" r="4" fill="#0" id="circle162"/>
	<circle cx="535.053" cy="924.141" r="4" fill="#0" id="circle163"/>
	<circle cx="536.806" cy="300.198" r="4" fill="#0" id="circle164"/>
	<circle cx="540.311" cy="209.06" r="4" fill="#0" id="circle165"/>
	<circle cx="540.311" cy="797.951" r="4" fill="#0" id="circle166"/>
	<circle cx="547.322" cy="815.477" r="4" fill="#0" id="circle167"/>
	<circle cx="547.322" cy="938.163" r="4" fill="#0" id="circle168"/>
	<circle cx="549.074" cy="286.177" r="4" fill="#0" id="circle169"/>
	<circle cx="554.332" cy="196.792" r="4" fill="#0" id="circle170"/>
	<circle cx="561.343" cy="827.746" r="4" fill="#0" id="circle171"/>
	<circle cx="561.343" cy="950.431" r="4" fill="#0" id="circle172"/>
	<circle cx="566.601" cy="182.77" r="4" fill="#0" id="circle173"/>
	<circle cx="566.601" cy="268.65" r="4" fill="#0" id="circle174"/>
	<circle cx="566.601" cy="845.272" r="4" fill="#0" id="circle175"/>
	<circle cx="573.611" cy="964.452" r="4" fill="#0" id="circle176"/>
	<circle cx="575.364" cy="165.244" r="4" fill="#0" id="circle177"/>
	<circle cx="580.622" cy="855.788" r="4" fill="#0" id="circle178"/>
	<circle cx="584.127" cy="251.124" r="4" fill="#0" id="circle179"/>
	<circle cx="587.633" cy="873.314" r="4" fill="#0" id="circle180"/>
	<circle cx="587.633" cy="976.721" r="4" fill="#0" id="circle181"/>
	<circle cx="589.385" cy="152.975" r="4" fill="#0" id="circle182"/>
	<circle cx="598.148" cy="238.855" r="4" fill="#0" id="circle183"/>
	<circle cx="604.537" cy="130.82" r="4" fill="#0" id="circle184"/>
	<circle cx="601.654" cy="885.583" r="4" fill="#0" id="circle185"/>
	<circle cx="601.654" cy="987.237" r="4" fill="#0" id="circle186"/>
	<circle cx="606.912" cy="221.329" r="4" fill="#0" id="circle187"/>
	<circle cx="608.664" cy="114.417" r="4" fill="#0" id="circle188"/>
	<circle cx="608.664" cy="903.11" r="4" fill="#0" id="circle189"/>
	<circle cx="617.494" cy="88.1494" r="4" fill="#0" id="circle190"/>
	<circle cx="617.428" cy="996" r="4" fill="#0" id="circle191"/>
	<circle cx="619.18" cy="207.307" r="4" fill="#0" id="circle192"/>
	<circle cx="619.18" cy="917.131" r="4" fill="#0" id="circle193"/>
	<circle cx="626.191" cy="61.8375" r="4" fill="#0" id="circle194"/>
	<circle cx="628.028" cy="189.823" r="4" fill="#0" id="circle195"/>
	<circle cx="627.943" cy="932.905" r="4" fill="#0" id="circle196"/>
	<circle cx="627.943" cy="950.431" r="4" fill="#0" id="circle197"/>
	<circle cx="634.954" cy="26.7845" r="4" fill="#0" id="circle198"/>
	<circle cx="634.954" cy="44.311" r="4" fill="#0" id="circle199"/>
	<circle cx="634.954" cy="990.742" r="4" fill="#0" id="circle200"/>
	<circle cx="636.578" cy="172.19" r="4" fill="#0" id="circle201"/>
	<circle cx="636.707" cy="966.205" r="4" fill="#0" id="circle202"/>
	<circle cx="643.717" cy="9.25795" r="4" fill="#0" id="circle203"/>
	<circle cx="645.47" cy="154.728" r="4" fill="#0" id="circle204"/>
	<circle cx="654.233" cy="128.438" r="4" fill="#0" id="circle205"/>
	<circle cx="661.244" cy="4" r="4" fill="#0" id="circle206"/>
	<circle cx="662.997" cy="93.3852" r="4" fill="#0" id="circle207"/>
	<circle cx="662.996" cy="110.912" r="4" fill="#0" id="circle208"/>
	<circle cx="671.76" cy="18.0212" r="4" fill="#0" id="circle209"/>
	<circle cx="684.424" cy="35.5477" r="4" fill="#0" id="circle210"/>
	<circle cx="667.16" cy="53.0742" r="4" fill="#0" id="circle211"/>
	<circle cx="671.76" cy="70.6007" r="4" fill="#0" id="circle212"/>
	</g>
</svg>