<?xml version="1.0" encoding="UTF-8" standalone="no"?>
<!-- Created with CurveBenchmark -->
<svg
	xmlns:dc="http://purl.org/dc/elements/1.1/"
	xmlns:cc="http://creativecommons.org/ns#"
	xmlns:rdf="http://www.w3.org/1999/02/22-rdf-syntax-ns#"
	xmlns:svg="http://www.w3.org/2000/svg"
	xmlns="http://www.w3.org/2000/svg"
	xmlns:sodipodi="http://sodipodi.sourceforge.net/DTD/sodipodi-0.dtd"
	xmlns:inkscape="http://www.inkscape.org/namespaces/inkscape"
	width="1000"
	height="1000"
	id="svg2"
	version="1.1"
	sodipodi:docname="manifold/stretchdenoise-guitar285.png.txt">
<defs
	id="defs4" />
<metadata
	id="metadata7">
	<rdf:RDF>
		<cc:Work
			rdf:about="">
			<dc:format>image/svg+xml</dc:format>
			<dc:type
				rdf:resource="http://purl.org/dc/dcmitype/StillImage" />
			<dc:title></dc:title>
		</cc:Work>
	</rdf:RDF>
</metadata>
<g
	inkscape:label="Layer 1"
	inkscape:groupmode="layer"
	id="layer1">
	<path style="fill:none;stroke:red;stroke-width:1px;stroke-linecap:butt;stroke-linejoin:miter;stroke-opacity:1" d="M 4,772.073 82.2828,876.542 z" id="boundary" inkscape:connector-curvature="0" />
	<path style="fill:none;stroke:red;stroke-width:1px;stroke-linecap:butt;stroke-linejoin:miter;stroke-opacity:1" d="M 4,772.073 20.3837,599.901 z" id="boundary" inkscape:connector-curvature="0" />
	<path style="fill:none;stroke:red;stroke-width:1px;stroke-linecap:butt;stroke-linejoin:miter;stroke-opacity:1" d="M 20.3837,599.901 41.4155,473.71 z" id="boundary" inkscape:connector-curvature="0" />
	<path style="fill:none;stroke:red;stroke-width:1px;stroke-linecap:butt;stroke-linejoin:miter;stroke-opacity:1" d="M 41.4155,214.318 41.4155,284.424 z" id="boundary" inkscape:connector-curvature="0" />
	<path style="fill:none;stroke:red;stroke-width:1px;stroke-linecap:butt;stroke-linejoin:miter;stroke-opacity:1" d="M 41.4155,214.318 72.9632,196.792 z" id="boundary" inkscape:connector-curvature="0" />
	<path style="fill:none;stroke:red;stroke-width:1px;stroke-linecap:butt;stroke-linejoin:miter;stroke-opacity:1" d="M 41.4155,284.424 41.4155,333.498 z" id="boundary" inkscape:connector-curvature="0" />
	<path style="fill:none;stroke:red;stroke-width:1px;stroke-linecap:butt;stroke-linejoin:miter;stroke-opacity:1" d="M 41.4155,333.498 41.4155,368.551 z" id="boundary" inkscape:connector-curvature="0" />
	<path style="fill:none;stroke:red;stroke-width:1px;stroke-linecap:butt;stroke-linejoin:miter;stroke-opacity:1" d="M 41.4155,368.551 41.4155,403.604 z" id="boundary" inkscape:connector-curvature="0" />
	<path style="fill:none;stroke:red;stroke-width:1px;stroke-linecap:butt;stroke-linejoin:miter;stroke-opacity:1" d="M 41.4155,403.604 41.4155,473.71 z" id="boundary" inkscape:connector-curvature="0" />
	<path style="fill:none;stroke:red;stroke-width:1px;stroke-linecap:butt;stroke-linejoin:miter;stroke-opacity:1" d="M 48.4261,102.148 55.4367,67.0954 z" id="boundary" inkscape:connector-curvature="0" />
	<path style="fill:none;stroke:red;stroke-width:1px;stroke-linecap:butt;stroke-linejoin:miter;stroke-opacity:1" d="M 48.4261,102.148 72.9632,196.792 z" id="boundary" inkscape:connector-curvature="0" />
	<path style="fill:none;stroke:red;stroke-width:1px;stroke-linecap:butt;stroke-linejoin:miter;stroke-opacity:1" d="M 55.4367,67.0954 90.4897,4 z" id="boundary" inkscape:connector-curvature="0" />
	<circle cx="4" cy="772.073" r="4" fill="#0" id="circle0"/>
	<circle cx="6.36248" cy="810.219" r="4" fill="#0" id="circle1"/>
	<circle cx="6.36248" cy="845.272" r="4" fill="#0" id="circle2"/>
	<circle cx="82.2828" cy="876.542" r="4" fill="#0" id="circle3"/>
	<circle cx="13.3731" cy="733.102" r="4" fill="#0" id="circle4"/>
	<circle cx="13.3731" cy="915.378" r="4" fill="#0" id="circle5"/>
	<circle cx="20.3837" cy="529.795" r="4" fill="#0" id="circle6"/>
	<circle cx="20.3837" cy="564.848" r="4" fill="#0" id="circle7"/>
	<circle cx="20.3837" cy="599.901" r="4" fill="#0" id="circle8"/>
	<circle cx="20.3837" cy="634.954" r="4" fill="#0" id="circle9"/>
	<circle cx="20.3837" cy="684.028" r="4" fill="#0" id="circle10"/>
	<circle cx="20.3837" cy="950.431" r="4" fill="#0" id="circle11"/>
	<circle cx="37.9102" cy="981.979" r="4" fill="#0" id="circle12"/>
	<circle cx="41.4155" cy="179.265" r="4" fill="#0" id="circle13"/>
	<circle cx="41.4155" cy="214.318" r="4" fill="#0" id="circle14"/>
	<circle cx="41.4155" cy="249.371" r="4" fill="#0" id="circle15"/>
	<circle cx="41.4155" cy="284.424" r="4" fill="#0" id="circle16"/>
	<circle cx="41.4155" cy="333.498" r="4" fill="#0" id="circle17"/>
	<circle cx="41.4155" cy="368.551" r="4" fill="#0" id="circle18"/>
	<circle cx="41.4155" cy="403.604" r="4" fill="#0" id="circle19"/>
	<circle cx="41.4155" cy="438.657" r="4" fill="#0" id="circle20"/>
	<circle cx="41.4155" cy="473.71" r="4" fill="#0" id="circle21"/>
	<circle cx="48.4261" cy="102.148" r="4" fill="#0" id="circle22"/>
	<circle cx="48.4261" cy="137.201" r="4" fill="#0" id="circle23"/>
	<circle cx="55.4367" cy="67.0954" r="4" fill="#0" id="circle24"/>
	<circle cx="69.4579" cy="32.0424" r="4" fill="#0" id="circle25"/>
	<circle cx="72.9632" cy="196.792" r="4" fill="#0" id="circle26"/>
	<circle cx="72.9632" cy="231.845" r="4" fill="#0" id="circle27"/>
	<circle cx="72.9632" cy="266.898" r="4" fill="#0" id="circle28"/>
	<circle cx="72.9632" cy="301.951" r="4" fill="#0" id="circle29"/>
	<circle cx="72.9632" cy="988.989" r="4" fill="#0" id="circle30"/>
	<circle cx="76.4685" cy="337.004" r="4" fill="#0" id="circle31"/>
	<circle cx="79.9738" cy="372.057" r="4" fill="#0" id="circle32"/>
	<circle cx="79.9738" cy="407.11" r="4" fill="#0" id="circle33"/>
	<circle cx="79.9738" cy="442.163" r="4" fill="#0" id="circle34"/>
	<circle cx="83.4791" cy="119.675" r="4" fill="#0" id="circle35"/>
	<circle cx="90.4897" cy="4" r="4" fill="#0" id="circle36"/>
	<circle cx="90.4897" cy="84.6219" r="4" fill="#0" id="circle37"/>
	<circle cx="97.5003" cy="473.71" r="4" fill="#0" id="circle38"/>
	<circle cx="104.511" cy="49.5689" r="4" fill="#0" id="circle39"/>
	<circle cx="108.016" cy="996" r="4" fill="#0" id="circle40"/>
	<circle cx="132.553" cy="480.721" r="4" fill="#0" id="circle41"/>
	<circle cx="143.069" cy="988.989" r="4" fill="#0" id="circle42"/>
	<circle cx="157.09" cy="508.763" r="4" fill="#0" id="circle43"/>
	<circle cx="167.606" cy="543.816" r="4" fill="#0" id="circle44"/>
	<circle cx="178.122" cy="964.452" r="4" fill="#0" id="circle45"/>
	<circle cx="185.133" cy="620.933" r="4" fill="#0" id="circle46"/>
	<circle cx="185.133" cy="655.986" r="4" fill="#0" id="circle47"/>
	<circle cx="185.133" cy="691.039" r="4" fill="#0" id="circle48"/>
	<circle cx="192.143" cy="571.859" r="4" fill="#0" id="circle49"/>
	<circle cx="192.143" cy="726.092" r="4" fill="#0" id="circle50"/>
	<circle cx="192.143" cy="915.378" r="4" fill="#0" id="circle51"/>
	<circle cx="195.649" cy="761.145" r="4" fill="#0" id="circle52"/>
	<circle cx="199.154" cy="796.198" r="4" fill="#0" id="circle53"/>
	<circle cx="199.154" cy="831.251" r="4" fill="#0" id="circle54"/>
	<circle cx="199.154" cy="866.304" r="4" fill="#0" id="circle55"/>
	</g>
</svg>