<?xml version="1.0" encoding="UTF-8" standalone="no"?>
<!-- Created with CurveBenchmark -->
<svg
	xmlns:dc="http://purl.org/dc/elements/1.1/"
	xmlns:cc="http://creativecommons.org/ns#"
	xmlns:rdf="http://www.w3.org/1999/02/22-rdf-syntax-ns#"
	xmlns:svg="http://www.w3.org/2000/svg"
	xmlns="http://www.w3.org/2000/svg"
	xmlns:sodipodi="http://sodipodi.sourceforge.net/DTD/sodipodi-0.dtd"
	xmlns:inkscape="http://www.inkscape.org/namespaces/inkscape"
	width="1000"
	height="1000"
	id="svg2"
	version="1.1"
	sodipodi:docname="manifold/stretchdenoise-hammer36.png.txt">
<defs
	id="defs4" />
<metadata
	id="metadata7">
	<rdf:RDF>
		<cc:Work
			rdf:about="">
			<dc:format>image/svg+xml</dc:format>
			<dc:type
				rdf:resource="http://purl.org/dc/dcmitype/StillImage" />
			<dc:title></dc:title>
		</cc:Work>
	</rdf:RDF>
</metadata>
<g
	inkscape:label="Layer 1"
	inkscape:groupmode="layer"
	id="layer1">
	<path style="fill:none;stroke:red;stroke-width:1px;stroke-linecap:butt;stroke-linejoin:miter;stroke-opacity:1" d="M 4,257.672 4,278.295 z" id="boundary" inkscape:connector-curvature="0" />
	<path style="fill:none;stroke:red;stroke-width:1px;stroke-linecap:butt;stroke-linejoin:miter;stroke-opacity:1" d="M 4,257.672 14.3119,237.048 z" id="boundary" inkscape:connector-curvature="0" />
	<path style="fill:none;stroke:red;stroke-width:1px;stroke-linecap:butt;stroke-linejoin:miter;stroke-opacity:1" d="M 4,278.295 20.499,292.732 z" id="boundary" inkscape:connector-curvature="0" />
	<path style="fill:none;stroke:red;stroke-width:1px;stroke-linecap:butt;stroke-linejoin:miter;stroke-opacity:1" d="M 14.3119,237.048 30.8108,220.549 z" id="boundary" inkscape:connector-curvature="0" />
	<path style="fill:none;stroke:red;stroke-width:1px;stroke-linecap:butt;stroke-linejoin:miter;stroke-opacity:1" d="M 20.499,292.732 34.9356,309.231 z" id="boundary" inkscape:connector-curvature="0" />
	<path style="fill:none;stroke:red;stroke-width:1px;stroke-linecap:butt;stroke-linejoin:miter;stroke-opacity:1" d="M 30.8108,220.549 47.3098,204.05 z" id="boundary" inkscape:connector-curvature="0" />
	<path style="fill:none;stroke:red;stroke-width:1px;stroke-linecap:butt;stroke-linejoin:miter;stroke-opacity:1" d="M 34.9356,309.231 51.4345,323.667 z" id="boundary" inkscape:connector-curvature="0" />
	<path style="fill:none;stroke:red;stroke-width:1px;stroke-linecap:butt;stroke-linejoin:miter;stroke-opacity:1" d="M 47.3098,204.05 63.8087,189.613 z" id="boundary" inkscape:connector-curvature="0" />
	<path style="fill:none;stroke:red;stroke-width:1px;stroke-linecap:butt;stroke-linejoin:miter;stroke-opacity:1" d="M 51.4345,323.667 69.9958,333.979 z" id="boundary" inkscape:connector-curvature="0" />
	<path style="fill:none;stroke:red;stroke-width:1px;stroke-linecap:butt;stroke-linejoin:miter;stroke-opacity:1" d="M 63.8087,189.613 76.1881,164.867 z" id="boundary" inkscape:connector-curvature="0" />
	<path style="fill:none;stroke:red;stroke-width:1px;stroke-linecap:butt;stroke-linejoin:miter;stroke-opacity:1" d="M 69.9958,333.979 90.6195,342.229 z" id="boundary" inkscape:connector-curvature="0" />
	<path style="fill:none;stroke:red;stroke-width:1px;stroke-linecap:butt;stroke-linejoin:miter;stroke-opacity:1" d="M 76.1881,164.867 87.0325,144.51 z" id="boundary" inkscape:connector-curvature="0" />
	<path style="fill:none;stroke:red;stroke-width:1px;stroke-linecap:butt;stroke-linejoin:miter;stroke-opacity:1" d="M 87.0325,144.51 96.8067,123.617 z" id="boundary" inkscape:connector-curvature="0" />
	<path style="fill:none;stroke:red;stroke-width:1px;stroke-linecap:butt;stroke-linejoin:miter;stroke-opacity:1" d="M 90.6195,342.229 111.243,346.353 z" id="boundary" inkscape:connector-curvature="0" />
	<path style="fill:none;stroke:red;stroke-width:1px;stroke-linecap:butt;stroke-linejoin:miter;stroke-opacity:1" d="M 96.8067,123.617 113.306,107.119 z" id="boundary" inkscape:connector-curvature="0" />
	<path style="fill:none;stroke:red;stroke-width:1px;stroke-linecap:butt;stroke-linejoin:miter;stroke-opacity:1" d="M 111.243,346.353 129.805,356.665 z" id="boundary" inkscape:connector-curvature="0" />
	<path style="fill:none;stroke:red;stroke-width:1px;stroke-linecap:butt;stroke-linejoin:miter;stroke-opacity:1" d="M 113.306,107.119 131.867,96.8069 z" id="boundary" inkscape:connector-curvature="0" />
	<path style="fill:none;stroke:red;stroke-width:1px;stroke-linecap:butt;stroke-linejoin:miter;stroke-opacity:1" d="M 129.805,356.665 146.304,342.229 z" id="boundary" inkscape:connector-curvature="0" />
	<path style="fill:none;stroke:red;stroke-width:1px;stroke-linecap:butt;stroke-linejoin:miter;stroke-opacity:1" d="M 131.867,96.8069 150.428,86.4948 z" id="boundary" inkscape:connector-curvature="0" />
	<path style="fill:none;stroke:red;stroke-width:1px;stroke-linecap:butt;stroke-linejoin:miter;stroke-opacity:1" d="M 146.304,342.229 160.74,325.73 z" id="boundary" inkscape:connector-curvature="0" />
	<path style="fill:none;stroke:red;stroke-width:1px;stroke-linecap:butt;stroke-linejoin:miter;stroke-opacity:1" d="M 150.428,86.4948 171.052,80.3077 z" id="boundary" inkscape:connector-curvature="0" />
	<path style="fill:none;stroke:red;stroke-width:1px;stroke-linecap:butt;stroke-linejoin:miter;stroke-opacity:1" d="M 160.74,325.73 177.239,311.293 z" id="boundary" inkscape:connector-curvature="0" />
	<path style="fill:none;stroke:red;stroke-width:1px;stroke-linecap:butt;stroke-linejoin:miter;stroke-opacity:1" d="M 171.052,80.3077 189.613,61.7464 z" id="boundary" inkscape:connector-curvature="0" />
	<path style="fill:none;stroke:red;stroke-width:1px;stroke-linecap:butt;stroke-linejoin:miter;stroke-opacity:1" d="M 177.239,311.293 191.676,294.794 z" id="boundary" inkscape:connector-curvature="0" />
	<path style="fill:none;stroke:red;stroke-width:1px;stroke-linecap:butt;stroke-linejoin:miter;stroke-opacity:1" d="M 189.613,61.7464 199.925,41.1227 z" id="boundary" inkscape:connector-curvature="0" />
	<path style="fill:none;stroke:red;stroke-width:1px;stroke-linecap:butt;stroke-linejoin:miter;stroke-opacity:1" d="M 191.676,294.794 201.988,274.17 z" id="boundary" inkscape:connector-curvature="0" />
	<path style="fill:none;stroke:red;stroke-width:1px;stroke-linecap:butt;stroke-linejoin:miter;stroke-opacity:1" d="M 199.925,41.1227 210.237,20.499 z" id="boundary" inkscape:connector-curvature="0" />
	<path style="fill:none;stroke:red;stroke-width:1px;stroke-linecap:butt;stroke-linejoin:miter;stroke-opacity:1" d="M 201.988,274.17 220.549,263.859 z" id="boundary" inkscape:connector-curvature="0" />
	<path style="fill:none;stroke:red;stroke-width:1px;stroke-linecap:butt;stroke-linejoin:miter;stroke-opacity:1" d="M 210.237,20.499 230.861,14.3119 z" id="boundary" inkscape:connector-curvature="0" />
	<path style="fill:none;stroke:red;stroke-width:1px;stroke-linecap:butt;stroke-linejoin:miter;stroke-opacity:1" d="M 220.549,263.859 232.923,280.358 z" id="boundary" inkscape:connector-curvature="0" />
	<path style="fill:none;stroke:red;stroke-width:1px;stroke-linecap:butt;stroke-linejoin:miter;stroke-opacity:1" d="M 230.861,14.3119 249.422,4 z" id="boundary" inkscape:connector-curvature="0" />
	<path style="fill:none;stroke:red;stroke-width:1px;stroke-linecap:butt;stroke-linejoin:miter;stroke-opacity:1" d="M 232.923,280.358 253.547,288.607 z" id="boundary" inkscape:connector-curvature="0" />
	<path style="fill:none;stroke:red;stroke-width:1px;stroke-linecap:butt;stroke-linejoin:miter;stroke-opacity:1" d="M 249.422,4 269.717,11.1919 z" id="boundary" inkscape:connector-curvature="0" />
	<path style="fill:none;stroke:red;stroke-width:1px;stroke-linecap:butt;stroke-linejoin:miter;stroke-opacity:1" d="M 253.547,288.607 267.983,305.106 z" id="boundary" inkscape:connector-curvature="0" />
	<path style="fill:none;stroke:red;stroke-width:1px;stroke-linecap:butt;stroke-linejoin:miter;stroke-opacity:1" d="M 269.717,11.1919 286.078,25.4631 z" id="boundary" inkscape:connector-curvature="0" />
	<path style="fill:none;stroke:red;stroke-width:1px;stroke-linecap:butt;stroke-linejoin:miter;stroke-opacity:1" d="M 267.983,305.106 288.607,313.356 z" id="boundary" inkscape:connector-curvature="0" />
	<path style="fill:none;stroke:red;stroke-width:1px;stroke-linecap:butt;stroke-linejoin:miter;stroke-opacity:1" d="M 274.17,160.74 274.17,181.364 z" id="boundary" inkscape:connector-curvature="0" />
	<path style="fill:none;stroke:red;stroke-width:1px;stroke-linecap:butt;stroke-linejoin:miter;stroke-opacity:1" d="M 274.17,160.74 284.482,140.116 z" id="boundary" inkscape:connector-curvature="0" />
	<path style="fill:none;stroke:red;stroke-width:1px;stroke-linecap:butt;stroke-linejoin:miter;stroke-opacity:1" d="M 274.17,181.364 284.482,199.925 z" id="boundary" inkscape:connector-curvature="0" />
	<path style="fill:none;stroke:red;stroke-width:1px;stroke-linecap:butt;stroke-linejoin:miter;stroke-opacity:1" d="M 284.482,140.116 300.981,125.68 z" id="boundary" inkscape:connector-curvature="0" />
	<path style="fill:none;stroke:red;stroke-width:1px;stroke-linecap:butt;stroke-linejoin:miter;stroke-opacity:1" d="M 284.482,199.925 305.106,206.112 z" id="boundary" inkscape:connector-curvature="0" />
	<path style="fill:none;stroke:red;stroke-width:1px;stroke-linecap:butt;stroke-linejoin:miter;stroke-opacity:1" d="M 286.078,25.4631 305.106,34.9356 z" id="boundary" inkscape:connector-curvature="0" />
	<path style="fill:none;stroke:red;stroke-width:1px;stroke-linecap:butt;stroke-linejoin:miter;stroke-opacity:1" d="M 288.607,313.356 303.044,329.854 z" id="boundary" inkscape:connector-curvature="0" />
	<path style="fill:none;stroke:red;stroke-width:1px;stroke-linecap:butt;stroke-linejoin:miter;stroke-opacity:1" d="M 300.981,125.68 315.418,109.181 z" id="boundary" inkscape:connector-curvature="0" />
	<path style="fill:none;stroke:red;stroke-width:1px;stroke-linecap:butt;stroke-linejoin:miter;stroke-opacity:1" d="M 303.044,329.854 323.667,336.042 z" id="boundary" inkscape:connector-curvature="0" />
	<path style="fill:none;stroke:red;stroke-width:1px;stroke-linecap:butt;stroke-linejoin:miter;stroke-opacity:1" d="M 305.106,34.9356 325.73,41.1227 z" id="boundary" inkscape:connector-curvature="0" />
	<path style="fill:none;stroke:red;stroke-width:1px;stroke-linecap:butt;stroke-linejoin:miter;stroke-opacity:1" d="M 305.106,206.112 321.605,220.549 z" id="boundary" inkscape:connector-curvature="0" />
	<path style="fill:none;stroke:red;stroke-width:1px;stroke-linecap:butt;stroke-linejoin:miter;stroke-opacity:1" d="M 315.418,109.181 331.917,94.7443 z" id="boundary" inkscape:connector-curvature="0" />
	<path style="fill:none;stroke:red;stroke-width:1px;stroke-linecap:butt;stroke-linejoin:miter;stroke-opacity:1" d="M 321.605,220.549 340.166,230.861 z" id="boundary" inkscape:connector-curvature="0" />
	<path style="fill:none;stroke:red;stroke-width:1px;stroke-linecap:butt;stroke-linejoin:miter;stroke-opacity:1" d="M 323.667,336.042 336.042,352.541 z" id="boundary" inkscape:connector-curvature="0" />
	<path style="fill:none;stroke:red;stroke-width:1px;stroke-linecap:butt;stroke-linejoin:miter;stroke-opacity:1" d="M 325.73,41.1227 336.042,59.684 z" id="boundary" inkscape:connector-curvature="0" />
	<path style="fill:none;stroke:red;stroke-width:1px;stroke-linecap:butt;stroke-linejoin:miter;stroke-opacity:1" d="M 331.917,94.7443 336.042,59.684 z" id="boundary" inkscape:connector-curvature="0" />
	<path style="fill:none;stroke:red;stroke-width:1px;stroke-linecap:butt;stroke-linejoin:miter;stroke-opacity:1" d="M 336.042,352.541 352.541,366.977 z" id="boundary" inkscape:connector-curvature="0" />
	<path style="fill:none;stroke:red;stroke-width:1px;stroke-linecap:butt;stroke-linejoin:miter;stroke-opacity:1" d="M 340.166,230.861 354.603,247.36 z" id="boundary" inkscape:connector-curvature="0" />
	<path style="fill:none;stroke:red;stroke-width:1px;stroke-linecap:butt;stroke-linejoin:miter;stroke-opacity:1" d="M 352.541,366.977 366.977,383.476 z" id="boundary" inkscape:connector-curvature="0" />
	<path style="fill:none;stroke:red;stroke-width:1px;stroke-linecap:butt;stroke-linejoin:miter;stroke-opacity:1" d="M 354.603,247.36 371.102,261.796 z" id="boundary" inkscape:connector-curvature="0" />
	<path style="fill:none;stroke:red;stroke-width:1px;stroke-linecap:butt;stroke-linejoin:miter;stroke-opacity:1" d="M 366.977,383.476 383.476,397.913 z" id="boundary" inkscape:connector-curvature="0" />
	<path style="fill:none;stroke:red;stroke-width:1px;stroke-linecap:butt;stroke-linejoin:miter;stroke-opacity:1" d="M 371.102,261.796 385.538,278.295 z" id="boundary" inkscape:connector-curvature="0" />
	<path style="fill:none;stroke:red;stroke-width:1px;stroke-linecap:butt;stroke-linejoin:miter;stroke-opacity:1" d="M 383.476,397.913 397.913,414.412 z" id="boundary" inkscape:connector-curvature="0" />
	<path style="fill:none;stroke:red;stroke-width:1px;stroke-linecap:butt;stroke-linejoin:miter;stroke-opacity:1" d="M 385.538,278.295 402.037,292.732 z" id="boundary" inkscape:connector-curvature="0" />
	<path style="fill:none;stroke:red;stroke-width:1px;stroke-linecap:butt;stroke-linejoin:miter;stroke-opacity:1" d="M 397.913,414.412 414.412,428.848 z" id="boundary" inkscape:connector-curvature="0" />
	<path style="fill:none;stroke:red;stroke-width:1px;stroke-linecap:butt;stroke-linejoin:miter;stroke-opacity:1" d="M 402.037,292.732 420.599,303.044 z" id="boundary" inkscape:connector-curvature="0" />
	<path style="fill:none;stroke:red;stroke-width:1px;stroke-linecap:butt;stroke-linejoin:miter;stroke-opacity:1" d="M 414.412,428.848 432.973,439.16 z" id="boundary" inkscape:connector-curvature="0" />
	<path style="fill:none;stroke:red;stroke-width:1px;stroke-linecap:butt;stroke-linejoin:miter;stroke-opacity:1" d="M 420.599,303.044 437.098,317.48 z" id="boundary" inkscape:connector-curvature="0" />
	<path style="fill:none;stroke:red;stroke-width:1px;stroke-linecap:butt;stroke-linejoin:miter;stroke-opacity:1" d="M 432.973,439.16 449.472,453.597 z" id="boundary" inkscape:connector-curvature="0" />
	<path style="fill:none;stroke:red;stroke-width:1px;stroke-linecap:butt;stroke-linejoin:miter;stroke-opacity:1" d="M 437.098,317.48 455.659,327.792 z" id="boundary" inkscape:connector-curvature="0" />
	<path style="fill:none;stroke:red;stroke-width:1px;stroke-linecap:butt;stroke-linejoin:miter;stroke-opacity:1" d="M 449.472,453.597 463.909,470.096 z" id="boundary" inkscape:connector-curvature="0" />
	<path style="fill:none;stroke:red;stroke-width:1px;stroke-linecap:butt;stroke-linejoin:miter;stroke-opacity:1" d="M 455.659,327.792 470.096,344.291 z" id="boundary" inkscape:connector-curvature="0" />
	<path style="fill:none;stroke:red;stroke-width:1px;stroke-linecap:butt;stroke-linejoin:miter;stroke-opacity:1" d="M 463.909,470.096 482.47,480.407 z" id="boundary" inkscape:connector-curvature="0" />
	<path style="fill:none;stroke:red;stroke-width:1px;stroke-linecap:butt;stroke-linejoin:miter;stroke-opacity:1" d="M 470.096,344.291 488.657,354.603 z" id="boundary" inkscape:connector-curvature="0" />
	<path style="fill:none;stroke:red;stroke-width:1px;stroke-linecap:butt;stroke-linejoin:miter;stroke-opacity:1" d="M 482.47,480.407 498.969,492.782 z" id="boundary" inkscape:connector-curvature="0" />
	<path style="fill:none;stroke:red;stroke-width:1px;stroke-linecap:butt;stroke-linejoin:miter;stroke-opacity:1" d="M 488.657,354.603 505.156,366.977 z" id="boundary" inkscape:connector-curvature="0" />
	<path style="fill:none;stroke:red;stroke-width:1px;stroke-linecap:butt;stroke-linejoin:miter;stroke-opacity:1" d="M 498.969,492.782 519.593,501.031 z" id="boundary" inkscape:connector-curvature="0" />
	<path style="fill:none;stroke:red;stroke-width:1px;stroke-linecap:butt;stroke-linejoin:miter;stroke-opacity:1" d="M 505.156,366.977 521.655,381.414 z" id="boundary" inkscape:connector-curvature="0" />
	<path style="fill:none;stroke:red;stroke-width:1px;stroke-linecap:butt;stroke-linejoin:miter;stroke-opacity:1" d="M 519.593,501.031 538.154,511.343 z" id="boundary" inkscape:connector-curvature="0" />
	<path style="fill:none;stroke:red;stroke-width:1px;stroke-linecap:butt;stroke-linejoin:miter;stroke-opacity:1" d="M 521.655,381.414 536.091,397.913 z" id="boundary" inkscape:connector-curvature="0" />
	<path style="fill:none;stroke:red;stroke-width:1px;stroke-linecap:butt;stroke-linejoin:miter;stroke-opacity:1" d="M 536.091,397.913 556.715,406.162 z" id="boundary" inkscape:connector-curvature="0" />
	<path style="fill:none;stroke:red;stroke-width:1px;stroke-linecap:butt;stroke-linejoin:miter;stroke-opacity:1" d="M 538.154,511.343 552.59,527.842 z" id="boundary" inkscape:connector-curvature="0" />
	<path style="fill:none;stroke:red;stroke-width:1px;stroke-linecap:butt;stroke-linejoin:miter;stroke-opacity:1" d="M 552.59,527.842 569.089,542.279 z" id="boundary" inkscape:connector-curvature="0" />
	<path style="fill:none;stroke:red;stroke-width:1px;stroke-linecap:butt;stroke-linejoin:miter;stroke-opacity:1" d="M 556.715,406.162 571.152,422.661 z" id="boundary" inkscape:connector-curvature="0" />
	<path style="fill:none;stroke:red;stroke-width:1px;stroke-linecap:butt;stroke-linejoin:miter;stroke-opacity:1" d="M 569.089,542.279 587.651,552.59 z" id="boundary" inkscape:connector-curvature="0" />
	<path style="fill:none;stroke:red;stroke-width:1px;stroke-linecap:butt;stroke-linejoin:miter;stroke-opacity:1" d="M 571.152,422.661 587.651,437.098 z" id="boundary" inkscape:connector-curvature="0" />
	<path style="fill:none;stroke:red;stroke-width:1px;stroke-linecap:butt;stroke-linejoin:miter;stroke-opacity:1" d="M 587.651,437.098 606.212,447.41 z" id="boundary" inkscape:connector-curvature="0" />
	<path style="fill:none;stroke:red;stroke-width:1px;stroke-linecap:butt;stroke-linejoin:miter;stroke-opacity:1" d="M 587.651,552.59 608.274,560.84 z" id="boundary" inkscape:connector-curvature="0" />
	<path style="fill:none;stroke:red;stroke-width:1px;stroke-linecap:butt;stroke-linejoin:miter;stroke-opacity:1" d="M 606.212,447.41 622.711,461.846 z" id="boundary" inkscape:connector-curvature="0" />
	<path style="fill:none;stroke:red;stroke-width:1px;stroke-linecap:butt;stroke-linejoin:miter;stroke-opacity:1" d="M 608.274,560.84 622.711,577.339 z" id="boundary" inkscape:connector-curvature="0" />
	<path style="fill:none;stroke:red;stroke-width:1px;stroke-linecap:butt;stroke-linejoin:miter;stroke-opacity:1" d="M 622.711,461.846 641.272,472.158 z" id="boundary" inkscape:connector-curvature="0" />
	<path style="fill:none;stroke:red;stroke-width:1px;stroke-linecap:butt;stroke-linejoin:miter;stroke-opacity:1" d="M 622.711,577.339 639.21,591.775 z" id="boundary" inkscape:connector-curvature="0" />
	<path style="fill:none;stroke:red;stroke-width:1px;stroke-linecap:butt;stroke-linejoin:miter;stroke-opacity:1" d="M 639.21,591.775 655.709,604.15 z" id="boundary" inkscape:connector-curvature="0" />
	<path style="fill:none;stroke:red;stroke-width:1px;stroke-linecap:butt;stroke-linejoin:miter;stroke-opacity:1" d="M 641.272,472.158 655.709,488.657 z" id="boundary" inkscape:connector-curvature="0" />
	<path style="fill:none;stroke:red;stroke-width:1px;stroke-linecap:butt;stroke-linejoin:miter;stroke-opacity:1" d="M 655.709,488.657 674.27,498.969 z" id="boundary" inkscape:connector-curvature="0" />
	<path style="fill:none;stroke:red;stroke-width:1px;stroke-linecap:butt;stroke-linejoin:miter;stroke-opacity:1" d="M 655.709,604.15 668.083,620.649 z" id="boundary" inkscape:connector-curvature="0" />
	<path style="fill:none;stroke:red;stroke-width:1px;stroke-linecap:butt;stroke-linejoin:miter;stroke-opacity:1" d="M 668.083,620.649 686.644,630.96 z" id="boundary" inkscape:connector-curvature="0" />
	<path style="fill:none;stroke:red;stroke-width:1px;stroke-linecap:butt;stroke-linejoin:miter;stroke-opacity:1" d="M 674.27,498.969 690.769,511.343 z" id="boundary" inkscape:connector-curvature="0" />
	<path style="fill:none;stroke:red;stroke-width:1px;stroke-linecap:butt;stroke-linejoin:miter;stroke-opacity:1" d="M 686.644,630.96 707.268,635.085 z" id="boundary" inkscape:connector-curvature="0" />
	<path style="fill:none;stroke:red;stroke-width:1px;stroke-linecap:butt;stroke-linejoin:miter;stroke-opacity:1" d="M 690.769,511.343 707.268,525.78 z" id="boundary" inkscape:connector-curvature="0" />
	<path style="fill:none;stroke:red;stroke-width:1px;stroke-linecap:butt;stroke-linejoin:miter;stroke-opacity:1" d="M 707.268,525.78 723.767,540.216 z" id="boundary" inkscape:connector-curvature="0" />
	<path style="fill:none;stroke:red;stroke-width:1px;stroke-linecap:butt;stroke-linejoin:miter;stroke-opacity:1" d="M 707.268,635.085 725.83,645.397 z" id="boundary" inkscape:connector-curvature="0" />
	<path style="fill:none;stroke:red;stroke-width:1px;stroke-linecap:butt;stroke-linejoin:miter;stroke-opacity:1" d="M 723.767,540.216 742.328,550.528 z" id="boundary" inkscape:connector-curvature="0" />
	<path style="fill:none;stroke:red;stroke-width:1px;stroke-linecap:butt;stroke-linejoin:miter;stroke-opacity:1" d="M 725.83,645.397 732.017,666.021 z" id="boundary" inkscape:connector-curvature="0" />
	<path style="fill:none;stroke:red;stroke-width:1px;stroke-linecap:butt;stroke-linejoin:miter;stroke-opacity:1" d="M 732.017,666.021 748.516,680.457 z" id="boundary" inkscape:connector-curvature="0" />
	<path style="fill:none;stroke:red;stroke-width:1px;stroke-linecap:butt;stroke-linejoin:miter;stroke-opacity:1" d="M 742.328,550.528 756.765,567.027 z" id="boundary" inkscape:connector-curvature="0" />
	<path style="fill:none;stroke:red;stroke-width:1px;stroke-linecap:butt;stroke-linejoin:miter;stroke-opacity:1" d="M 748.516,680.457 767.077,701.081 z" id="boundary" inkscape:connector-curvature="0" />
	<path style="fill:none;stroke:red;stroke-width:1px;stroke-linecap:butt;stroke-linejoin:miter;stroke-opacity:1" d="M 756.765,567.027 773.264,581.464 z" id="boundary" inkscape:connector-curvature="0" />
	<path style="fill:none;stroke:red;stroke-width:1px;stroke-linecap:butt;stroke-linejoin:miter;stroke-opacity:1" d="M 767.077,701.081 787.701,707.268 z" id="boundary" inkscape:connector-curvature="0" />
	<path style="fill:none;stroke:red;stroke-width:1px;stroke-linecap:butt;stroke-linejoin:miter;stroke-opacity:1" d="M 773.264,581.464 789.763,593.838 z" id="boundary" inkscape:connector-curvature="0" />
	<path style="fill:none;stroke:red;stroke-width:1px;stroke-linecap:butt;stroke-linejoin:miter;stroke-opacity:1" d="M 787.701,707.268 806.262,717.58 z" id="boundary" inkscape:connector-curvature="0" />
	<path style="fill:none;stroke:red;stroke-width:1px;stroke-linecap:butt;stroke-linejoin:miter;stroke-opacity:1" d="M 789.763,593.838 806.262,606.212 z" id="boundary" inkscape:connector-curvature="0" />
	<path style="fill:none;stroke:red;stroke-width:1px;stroke-linecap:butt;stroke-linejoin:miter;stroke-opacity:1" d="M 806.262,606.212 820.699,622.711 z" id="boundary" inkscape:connector-curvature="0" />
	<path style="fill:none;stroke:red;stroke-width:1px;stroke-linecap:butt;stroke-linejoin:miter;stroke-opacity:1" d="M 806.262,717.58 818.636,734.079 z" id="boundary" inkscape:connector-curvature="0" />
	<path style="fill:none;stroke:red;stroke-width:1px;stroke-linecap:butt;stroke-linejoin:miter;stroke-opacity:1" d="M 818.636,734.079 835.135,748.516 z" id="boundary" inkscape:connector-curvature="0" />
	<path style="fill:none;stroke:red;stroke-width:1px;stroke-linecap:butt;stroke-linejoin:miter;stroke-opacity:1" d="M 820.699,622.711 837.198,635.085 z" id="boundary" inkscape:connector-curvature="0" />
	<path style="fill:none;stroke:red;stroke-width:1px;stroke-linecap:butt;stroke-linejoin:miter;stroke-opacity:1" d="M 835.135,748.516 853.696,758.827 z" id="boundary" inkscape:connector-curvature="0" />
	<path style="fill:none;stroke:red;stroke-width:1px;stroke-linecap:butt;stroke-linejoin:miter;stroke-opacity:1" d="M 837.198,635.085 851.634,651.584 z" id="boundary" inkscape:connector-curvature="0" />
	<path style="fill:none;stroke:red;stroke-width:1px;stroke-linecap:butt;stroke-linejoin:miter;stroke-opacity:1" d="M 851.634,651.584 868.133,663.958 z" id="boundary" inkscape:connector-curvature="0" />
	<path style="fill:none;stroke:red;stroke-width:1px;stroke-linecap:butt;stroke-linejoin:miter;stroke-opacity:1" d="M 853.696,758.827 870.195,771.202 z" id="boundary" inkscape:connector-curvature="0" />
	<path style="fill:none;stroke:red;stroke-width:1px;stroke-linecap:butt;stroke-linejoin:miter;stroke-opacity:1" d="M 868.133,663.958 886.694,674.27 z" id="boundary" inkscape:connector-curvature="0" />
	<path style="fill:none;stroke:red;stroke-width:1px;stroke-linecap:butt;stroke-linejoin:miter;stroke-opacity:1" d="M 870.195,771.202 880.507,789.763 z" id="boundary" inkscape:connector-curvature="0" />
	<path style="fill:none;stroke:red;stroke-width:1px;stroke-linecap:butt;stroke-linejoin:miter;stroke-opacity:1" d="M 880.507,789.763 899.119,799.984 z" id="boundary" inkscape:connector-curvature="0" />
	<path style="fill:none;stroke:red;stroke-width:1px;stroke-linecap:butt;stroke-linejoin:miter;stroke-opacity:1" d="M 886.694,674.27 901.131,690.769 z" id="boundary" inkscape:connector-curvature="0" />
	<path style="fill:none;stroke:red;stroke-width:1px;stroke-linecap:butt;stroke-linejoin:miter;stroke-opacity:1" d="M 899.119,799.984 917.63,810.387 z" id="boundary" inkscape:connector-curvature="0" />
	<path style="fill:none;stroke:red;stroke-width:1px;stroke-linecap:butt;stroke-linejoin:miter;stroke-opacity:1" d="M 901.131,690.769 917.63,705.206 z" id="boundary" inkscape:connector-curvature="0" />
	<path style="fill:none;stroke:red;stroke-width:1px;stroke-linecap:butt;stroke-linejoin:miter;stroke-opacity:1" d="M 917.63,705.206 934.129,717.58 z" id="boundary" inkscape:connector-curvature="0" />
	<path style="fill:none;stroke:red;stroke-width:1px;stroke-linecap:butt;stroke-linejoin:miter;stroke-opacity:1" d="M 917.63,810.387 938.254,805.824 z" id="boundary" inkscape:connector-curvature="0" />
	<path style="fill:none;stroke:red;stroke-width:1px;stroke-linecap:butt;stroke-linejoin:miter;stroke-opacity:1" d="M 934.129,717.58 944.441,736.141 z" id="boundary" inkscape:connector-curvature="0" />
	<path style="fill:none;stroke:red;stroke-width:1px;stroke-linecap:butt;stroke-linejoin:miter;stroke-opacity:1" d="M 938.254,805.824 958.877,810.387 z" id="boundary" inkscape:connector-curvature="0" />
	<path style="fill:none;stroke:red;stroke-width:1px;stroke-linecap:butt;stroke-linejoin:miter;stroke-opacity:1" d="M 944.441,736.141 963.002,746.453 z" id="boundary" inkscape:connector-curvature="0" />
	<path style="fill:none;stroke:red;stroke-width:1px;stroke-linecap:butt;stroke-linejoin:miter;stroke-opacity:1" d="M 958.877,810.387 979.501,808.324 z" id="boundary" inkscape:connector-curvature="0" />
	<path style="fill:none;stroke:red;stroke-width:1px;stroke-linecap:butt;stroke-linejoin:miter;stroke-opacity:1" d="M 963.002,746.453 975.376,762.952 z" id="boundary" inkscape:connector-curvature="0" />
	<path style="fill:none;stroke:red;stroke-width:1px;stroke-linecap:butt;stroke-linejoin:miter;stroke-opacity:1" d="M 975.376,762.952 993.938,773.264 z" id="boundary" inkscape:connector-curvature="0" />
	<path style="fill:none;stroke:red;stroke-width:1px;stroke-linecap:butt;stroke-linejoin:miter;stroke-opacity:1" d="M 979.501,808.324 996,793.888 z" id="boundary" inkscape:connector-curvature="0" />
	<path style="fill:none;stroke:red;stroke-width:1px;stroke-linecap:butt;stroke-linejoin:miter;stroke-opacity:1" d="M 993.938,773.264 996,793.888 z" id="boundary" inkscape:connector-curvature="0" />
	<circle cx="4" cy="257.672" r="4" fill="#0" id="circle0"/>
	<circle cx="4" cy="278.295" r="4" fill="#0" id="circle1"/>
	<circle cx="14.3119" cy="237.048" r="4" fill="#0" id="circle2"/>
	<circle cx="20.499" cy="292.732" r="4" fill="#0" id="circle3"/>
	<circle cx="30.8108" cy="220.549" r="4" fill="#0" id="circle4"/>
	<circle cx="34.9356" cy="309.231" r="4" fill="#0" id="circle5"/>
	<circle cx="47.3098" cy="204.05" r="4" fill="#0" id="circle6"/>
	<circle cx="51.4345" cy="323.667" r="4" fill="#0" id="circle7"/>
	<circle cx="63.8087" cy="189.613" r="4" fill="#0" id="circle8"/>
	<circle cx="69.9958" cy="333.979" r="4" fill="#0" id="circle9"/>
	<circle cx="76.1881" cy="164.867" r="4" fill="#0" id="circle10"/>
	<circle cx="87.0325" cy="144.51" r="4" fill="#0" id="circle11"/>
	<circle cx="90.6195" cy="342.229" r="4" fill="#0" id="circle12"/>
	<circle cx="96.8067" cy="123.617" r="4" fill="#0" id="circle13"/>
	<circle cx="111.243" cy="346.353" r="4" fill="#0" id="circle14"/>
	<circle cx="113.306" cy="107.119" r="4" fill="#0" id="circle15"/>
	<circle cx="129.805" cy="356.665" r="4" fill="#0" id="circle16"/>
	<circle cx="131.867" cy="96.8069" r="4" fill="#0" id="circle17"/>
	<circle cx="146.304" cy="342.229" r="4" fill="#0" id="circle18"/>
	<circle cx="150.428" cy="86.4948" r="4" fill="#0" id="circle19"/>
	<circle cx="160.74" cy="325.73" r="4" fill="#0" id="circle20"/>
	<circle cx="171.052" cy="80.3077" r="4" fill="#0" id="circle21"/>
	<circle cx="177.239" cy="311.293" r="4" fill="#0" id="circle22"/>
	<circle cx="189.613" cy="61.7464" r="4" fill="#0" id="circle23"/>
	<circle cx="191.676" cy="294.794" r="4" fill="#0" id="circle24"/>
	<circle cx="199.925" cy="41.1227" r="4" fill="#0" id="circle25"/>
	<circle cx="201.988" cy="274.17" r="4" fill="#0" id="circle26"/>
	<circle cx="210.237" cy="20.499" r="4" fill="#0" id="circle27"/>
	<circle cx="220.549" cy="263.859" r="4" fill="#0" id="circle28"/>
	<circle cx="230.861" cy="14.3119" r="4" fill="#0" id="circle29"/>
	<circle cx="232.923" cy="280.358" r="4" fill="#0" id="circle30"/>
	<circle cx="249.422" cy="4" r="4" fill="#0" id="circle31"/>
	<circle cx="253.547" cy="288.607" r="4" fill="#0" id="circle32"/>
	<circle cx="269.717" cy="11.1919" r="4" fill="#0" id="circle33"/>
	<circle cx="267.983" cy="305.106" r="4" fill="#0" id="circle34"/>
	<circle cx="274.17" cy="160.74" r="4" fill="#0" id="circle35"/>
	<circle cx="274.17" cy="181.364" r="4" fill="#0" id="circle36"/>
	<circle cx="284.482" cy="140.116" r="4" fill="#0" id="circle37"/>
	<circle cx="284.482" cy="199.925" r="4" fill="#0" id="circle38"/>
	<circle cx="286.078" cy="25.4631" r="4" fill="#0" id="circle39"/>
	<circle cx="288.607" cy="313.356" r="4" fill="#0" id="circle40"/>
	<circle cx="300.981" cy="125.68" r="4" fill="#0" id="circle41"/>
	<circle cx="303.044" cy="329.854" r="4" fill="#0" id="circle42"/>
	<circle cx="305.106" cy="34.9356" r="4" fill="#0" id="circle43"/>
	<circle cx="305.106" cy="206.112" r="4" fill="#0" id="circle44"/>
	<circle cx="315.418" cy="109.181" r="4" fill="#0" id="circle45"/>
	<circle cx="321.605" cy="220.549" r="4" fill="#0" id="circle46"/>
	<circle cx="323.667" cy="336.042" r="4" fill="#0" id="circle47"/>
	<circle cx="325.73" cy="41.1227" r="4" fill="#0" id="circle48"/>
	<circle cx="331.917" cy="94.7443" r="4" fill="#0" id="circle49"/>
	<circle cx="336.042" cy="59.684" r="4" fill="#0" id="circle50"/>
	<circle cx="336.042" cy="352.541" r="4" fill="#0" id="circle51"/>
	<circle cx="340.166" cy="230.861" r="4" fill="#0" id="circle52"/>
	<circle cx="352.541" cy="366.977" r="4" fill="#0" id="circle53"/>
	<circle cx="354.603" cy="247.36" r="4" fill="#0" id="circle54"/>
	<circle cx="366.977" cy="383.476" r="4" fill="#0" id="circle55"/>
	<circle cx="371.102" cy="261.796" r="4" fill="#0" id="circle56"/>
	<circle cx="383.476" cy="397.913" r="4" fill="#0" id="circle57"/>
	<circle cx="385.538" cy="278.295" r="4" fill="#0" id="circle58"/>
	<circle cx="397.913" cy="414.412" r="4" fill="#0" id="circle59"/>
	<circle cx="402.037" cy="292.732" r="4" fill="#0" id="circle60"/>
	<circle cx="414.412" cy="428.848" r="4" fill="#0" id="circle61"/>
	<circle cx="420.599" cy="303.044" r="4" fill="#0" id="circle62"/>
	<circle cx="432.973" cy="439.16" r="4" fill="#0" id="circle63"/>
	<circle cx="437.098" cy="317.48" r="4" fill="#0" id="circle64"/>
	<circle cx="449.472" cy="453.597" r="4" fill="#0" id="circle65"/>
	<circle cx="455.659" cy="327.792" r="4" fill="#0" id="circle66"/>
	<circle cx="463.909" cy="470.096" r="4" fill="#0" id="circle67"/>
	<circle cx="470.096" cy="344.291" r="4" fill="#0" id="circle68"/>
	<circle cx="482.47" cy="480.407" r="4" fill="#0" id="circle69"/>
	<circle cx="488.657" cy="354.603" r="4" fill="#0" id="circle70"/>
	<circle cx="498.969" cy="492.782" r="4" fill="#0" id="circle71"/>
	<circle cx="505.156" cy="366.977" r="4" fill="#0" id="circle72"/>
	<circle cx="519.593" cy="501.031" r="4" fill="#0" id="circle73"/>
	<circle cx="521.655" cy="381.414" r="4" fill="#0" id="circle74"/>
	<circle cx="536.091" cy="397.913" r="4" fill="#0" id="circle75"/>
	<circle cx="538.154" cy="511.343" r="4" fill="#0" id="circle76"/>
	<circle cx="552.59" cy="527.842" r="4" fill="#0" id="circle77"/>
	<circle cx="556.715" cy="406.162" r="4" fill="#0" id="circle78"/>
	<circle cx="569.089" cy="542.279" r="4" fill="#0" id="circle79"/>
	<circle cx="571.152" cy="422.661" r="4" fill="#0" id="circle80"/>
	<circle cx="587.651" cy="437.098" r="4" fill="#0" id="circle81"/>
	<circle cx="587.651" cy="552.59" r="4" fill="#0" id="circle82"/>
	<circle cx="606.212" cy="447.41" r="4" fill="#0" id="circle83"/>
	<circle cx="608.274" cy="560.84" r="4" fill="#0" id="circle84"/>
	<circle cx="622.711" cy="461.846" r="4" fill="#0" id="circle85"/>
	<circle cx="622.711" cy="577.339" r="4" fill="#0" id="circle86"/>
	<circle cx="639.21" cy="591.775" r="4" fill="#0" id="circle87"/>
	<circle cx="641.272" cy="472.158" r="4" fill="#0" id="circle88"/>
	<circle cx="655.709" cy="488.657" r="4" fill="#0" id="circle89"/>
	<circle cx="655.709" cy="604.15" r="4" fill="#0" id="circle90"/>
	<circle cx="668.083" cy="620.649" r="4" fill="#0" id="circle91"/>
	<circle cx="674.27" cy="498.969" r="4" fill="#0" id="circle92"/>
	<circle cx="686.644" cy="630.96" r="4" fill="#0" id="circle93"/>
	<circle cx="690.769" cy="511.343" r="4" fill="#0" id="circle94"/>
	<circle cx="707.268" cy="525.78" r="4" fill="#0" id="circle95"/>
	<circle cx="707.268" cy="635.085" r="4" fill="#0" id="circle96"/>
	<circle cx="723.767" cy="540.216" r="4" fill="#0" id="circle97"/>
	<circle cx="725.83" cy="645.397" r="4" fill="#0" id="circle98"/>
	<circle cx="732.017" cy="666.021" r="4" fill="#0" id="circle99"/>
	<circle cx="742.328" cy="550.528" r="4" fill="#0" id="circle100"/>
	<circle cx="748.516" cy="680.457" r="4" fill="#0" id="circle101"/>
	<circle cx="756.765" cy="567.027" r="4" fill="#0" id="circle102"/>
	<circle cx="767.077" cy="701.081" r="4" fill="#0" id="circle103"/>
	<circle cx="773.264" cy="581.464" r="4" fill="#0" id="circle104"/>
	<circle cx="787.701" cy="707.268" r="4" fill="#0" id="circle105"/>
	<circle cx="789.763" cy="593.838" r="4" fill="#0" id="circle106"/>
	<circle cx="806.262" cy="606.212" r="4" fill="#0" id="circle107"/>
	<circle cx="806.262" cy="717.58" r="4" fill="#0" id="circle108"/>
	<circle cx="818.636" cy="734.079" r="4" fill="#0" id="circle109"/>
	<circle cx="820.699" cy="622.711" r="4" fill="#0" id="circle110"/>
	<circle cx="835.135" cy="748.516" r="4" fill="#0" id="circle111"/>
	<circle cx="837.198" cy="635.085" r="4" fill="#0" id="circle112"/>
	<circle cx="851.634" cy="651.584" r="4" fill="#0" id="circle113"/>
	<circle cx="853.696" cy="758.827" r="4" fill="#0" id="circle114"/>
	<circle cx="868.133" cy="663.958" r="4" fill="#0" id="circle115"/>
	<circle cx="870.195" cy="771.202" r="4" fill="#0" id="circle116"/>
	<circle cx="880.507" cy="789.763" r="4" fill="#0" id="circle117"/>
	<circle cx="886.694" cy="674.27" r="4" fill="#0" id="circle118"/>
	<circle cx="899.119" cy="799.984" r="4" fill="#0" id="circle119"/>
	<circle cx="901.131" cy="690.769" r="4" fill="#0" id="circle120"/>
	<circle cx="917.63" cy="705.206" r="4" fill="#0" id="circle121"/>
	<circle cx="917.63" cy="810.387" r="4" fill="#0" id="circle122"/>
	<circle cx="934.129" cy="717.58" r="4" fill="#0" id="circle123"/>
	<circle cx="938.254" cy="805.824" r="4" fill="#0" id="circle124"/>
	<circle cx="944.441" cy="736.141" r="4" fill="#0" id="circle125"/>
	<circle cx="958.877" cy="810.387" r="4" fill="#0" id="circle126"/>
	<circle cx="963.002" cy="746.453" r="4" fill="#0" id="circle127"/>
	<circle cx="975.376" cy="762.952" r="4" fill="#0" id="circle128"/>
	<circle cx="979.501" cy="808.324" r="4" fill="#0" id="circle129"/>
	<circle cx="993.938" cy="773.264" r="4" fill="#0" id="circle130"/>
	<circle cx="996" cy="793.888" r="4" fill="#0" id="circle131"/>
	</g>
</svg>