<?xml version="1.0" encoding="UTF-8" standalone="no"?>
<!-- Created with CurveBenchmark -->
<svg
	xmlns:dc="http://purl.org/dc/elements/1.1/"
	xmlns:cc="http://creativecommons.org/ns#"
	xmlns:rdf="http://www.w3.org/1999/02/22-rdf-syntax-ns#"
	xmlns:svg="http://www.w3.org/2000/svg"
	xmlns="http://www.w3.org/2000/svg"
	xmlns:sodipodi="http://sodipodi.sourceforge.net/DTD/sodipodi-0.dtd"
	xmlns:inkscape="http://www.inkscape.org/namespaces/inkscape"
	width="1000"
	height="1000"
	id="svg2"
	version="1.1"
	sodipodi:docname="manifold/vicur-bird26.png.txt">
<defs
	id="defs4" />
<metadata
	id="metadata7">
	<rdf:RDF>
		<cc:Work
			rdf:about="">
			<dc:format>image/svg+xml</dc:format>
			<dc:type
				rdf:resource="http://purl.org/dc/dcmitype/StillImage" />
			<dc:title></dc:title>
		</cc:Work>
	</rdf:RDF>
</metadata>
<g
	inkscape:label="Layer 1"
	inkscape:groupmode="layer"
	id="layer1">
	<path style="fill:none;stroke:red;stroke-width:1px;stroke-linecap:butt;stroke-linejoin:miter;stroke-opacity:1" d="M 4,224.444 15.1617,234.211 z" id="boundary" inkscape:connector-curvature="0" />
	<path style="fill:none;stroke:red;stroke-width:1px;stroke-linecap:butt;stroke-linejoin:miter;stroke-opacity:1" d="M 4,224.444 17.9522,217.468 z" id="boundary" inkscape:connector-curvature="0" />
	<path style="fill:none;stroke:red;stroke-width:1px;stroke-linecap:butt;stroke-linejoin:miter;stroke-opacity:1" d="M 15.1617,234.211 29.1139,235.606 z" id="boundary" inkscape:connector-curvature="0" />
	<path style="fill:none;stroke:red;stroke-width:1px;stroke-linecap:butt;stroke-linejoin:miter;stroke-opacity:1" d="M 17.9522,217.468 31.9044,210.492 z" id="boundary" inkscape:connector-curvature="0" />
	<path style="fill:none;stroke:red;stroke-width:1px;stroke-linecap:butt;stroke-linejoin:miter;stroke-opacity:1" d="M 29.1139,235.606 43.0661,235.606 z" id="boundary" inkscape:connector-curvature="0" />
	<path style="fill:none;stroke:red;stroke-width:1px;stroke-linecap:butt;stroke-linejoin:miter;stroke-opacity:1" d="M 31.9044,210.492 45.8565,206.307 z" id="boundary" inkscape:connector-curvature="0" />
	<path style="fill:none;stroke:red;stroke-width:1px;stroke-linecap:butt;stroke-linejoin:miter;stroke-opacity:1" d="M 43.0661,235.606 57.0183,235.606 z" id="boundary" inkscape:connector-curvature="0" />
	<path style="fill:none;stroke:red;stroke-width:1px;stroke-linecap:butt;stroke-linejoin:miter;stroke-opacity:1" d="M 45.8565,206.307 58.4135,199.331 z" id="boundary" inkscape:connector-curvature="0" />
	<path style="fill:none;stroke:red;stroke-width:1px;stroke-linecap:butt;stroke-linejoin:miter;stroke-opacity:1" d="M 57.0183,235.606 70.9705,235.606 z" id="boundary" inkscape:connector-curvature="0" />
	<path style="fill:none;stroke:red;stroke-width:1px;stroke-linecap:butt;stroke-linejoin:miter;stroke-opacity:1" d="M 58.4135,199.331 72.3657,199.331 z" id="boundary" inkscape:connector-curvature="0" />
	<path style="fill:none;stroke:red;stroke-width:1px;stroke-linecap:butt;stroke-linejoin:miter;stroke-opacity:1" d="M 70.9705,235.606 84.9226,235.606 z" id="boundary" inkscape:connector-curvature="0" />
	<path style="fill:none;stroke:red;stroke-width:1px;stroke-linecap:butt;stroke-linejoin:miter;stroke-opacity:1" d="M 72.3657,199.331 84.9226,192.354 z" id="boundary" inkscape:connector-curvature="0" />
	<path style="fill:none;stroke:red;stroke-width:1px;stroke-linecap:butt;stroke-linejoin:miter;stroke-opacity:1" d="M 84.9226,192.354 98.8748,192.354 z" id="boundary" inkscape:connector-curvature="0" />
	<path style="fill:none;stroke:red;stroke-width:1px;stroke-linecap:butt;stroke-linejoin:miter;stroke-opacity:1" d="M 84.9226,235.606 98.8748,235.606 z" id="boundary" inkscape:connector-curvature="0" />
	<path style="fill:none;stroke:red;stroke-width:1px;stroke-linecap:butt;stroke-linejoin:miter;stroke-opacity:1" d="M 98.8748,192.354 112.827,185.378 z" id="boundary" inkscape:connector-curvature="0" />
	<path style="fill:none;stroke:red;stroke-width:1px;stroke-linecap:butt;stroke-linejoin:miter;stroke-opacity:1" d="M 98.8748,235.606 112.827,235.606 z" id="boundary" inkscape:connector-curvature="0" />
	<path style="fill:none;stroke:red;stroke-width:1px;stroke-linecap:butt;stroke-linejoin:miter;stroke-opacity:1" d="M 112.827,185.378 126.779,185.378 z" id="boundary" inkscape:connector-curvature="0" />
	<path style="fill:none;stroke:red;stroke-width:1px;stroke-linecap:butt;stroke-linejoin:miter;stroke-opacity:1" d="M 112.827,235.606 126.779,235.606 z" id="boundary" inkscape:connector-curvature="0" />
	<path style="fill:none;stroke:red;stroke-width:1px;stroke-linecap:butt;stroke-linejoin:miter;stroke-opacity:1" d="M 126.779,185.378 140.731,185.378 z" id="boundary" inkscape:connector-curvature="0" />
	<path style="fill:none;stroke:red;stroke-width:1px;stroke-linecap:butt;stroke-linejoin:miter;stroke-opacity:1" d="M 126.779,235.606 140.731,241.187 z" id="boundary" inkscape:connector-curvature="0" />
	<path style="fill:none;stroke:red;stroke-width:1px;stroke-linecap:butt;stroke-linejoin:miter;stroke-opacity:1" d="M 140.731,185.378 153.288,178.402 z" id="boundary" inkscape:connector-curvature="0" />
	<path style="fill:none;stroke:red;stroke-width:1px;stroke-linecap:butt;stroke-linejoin:miter;stroke-opacity:1" d="M 140.731,241.187 154.684,242.582 z" id="boundary" inkscape:connector-curvature="0" />
	<path style="fill:none;stroke:red;stroke-width:1px;stroke-linecap:butt;stroke-linejoin:miter;stroke-opacity:1" d="M 153.288,178.402 165.845,171.426 z" id="boundary" inkscape:connector-curvature="0" />
	<path style="fill:none;stroke:red;stroke-width:1px;stroke-linecap:butt;stroke-linejoin:miter;stroke-opacity:1" d="M 154.684,242.582 168.636,242.582 z" id="boundary" inkscape:connector-curvature="0" />
	<path style="fill:none;stroke:red;stroke-width:1px;stroke-linecap:butt;stroke-linejoin:miter;stroke-opacity:1" d="M 165.845,171.426 178.402,154.684 z" id="boundary" inkscape:connector-curvature="0" />
	<path style="fill:none;stroke:red;stroke-width:1px;stroke-linecap:butt;stroke-linejoin:miter;stroke-opacity:1" d="M 168.636,242.582 182.588,248.163 z" id="boundary" inkscape:connector-curvature="0" />
	<path style="fill:none;stroke:red;stroke-width:1px;stroke-linecap:butt;stroke-linejoin:miter;stroke-opacity:1" d="M 178.402,154.684 185.378,133.755 z" id="boundary" inkscape:connector-curvature="0" />
	<path style="fill:none;stroke:red;stroke-width:1px;stroke-linecap:butt;stroke-linejoin:miter;stroke-opacity:1" d="M 182.588,248.163 196.54,249.558 z" id="boundary" inkscape:connector-curvature="0" />
	<path style="fill:none;stroke:red;stroke-width:1px;stroke-linecap:butt;stroke-linejoin:miter;stroke-opacity:1" d="M 185.378,133.755 192.354,119.803 z" id="boundary" inkscape:connector-curvature="0" />
	<path style="fill:none;stroke:red;stroke-width:1px;stroke-linecap:butt;stroke-linejoin:miter;stroke-opacity:1" d="M 192.354,105.851 192.354,119.803 z" id="boundary" inkscape:connector-curvature="0" />
	<path style="fill:none;stroke:red;stroke-width:1px;stroke-linecap:butt;stroke-linejoin:miter;stroke-opacity:1" d="M 192.354,105.851 199.331,84.9226 z" id="boundary" inkscape:connector-curvature="0" />
	<path style="fill:none;stroke:red;stroke-width:1px;stroke-linecap:butt;stroke-linejoin:miter;stroke-opacity:1" d="M 196.54,249.558 207.702,259.325 z" id="boundary" inkscape:connector-curvature="0" />
	<path style="fill:none;stroke:red;stroke-width:1px;stroke-linecap:butt;stroke-linejoin:miter;stroke-opacity:1" d="M 199.331,84.9226 206.307,70.9705 z" id="boundary" inkscape:connector-curvature="0" />
	<path style="fill:none;stroke:red;stroke-width:1px;stroke-linecap:butt;stroke-linejoin:miter;stroke-opacity:1" d="M 206.307,57.0183 217.468,45.8565 z" id="boundary" inkscape:connector-curvature="0" />
	<path style="fill:none;stroke:red;stroke-width:1px;stroke-linecap:butt;stroke-linejoin:miter;stroke-opacity:1" d="M 206.307,70.9705 217.468,45.8565 z" id="boundary" inkscape:connector-curvature="0" />
	<path style="fill:none;stroke:red;stroke-width:1px;stroke-linecap:butt;stroke-linejoin:miter;stroke-opacity:1" d="M 207.702,259.325 221.654,263.511 z" id="boundary" inkscape:connector-curvature="0" />
	<path style="fill:none;stroke:red;stroke-width:1px;stroke-linecap:butt;stroke-linejoin:miter;stroke-opacity:1" d="M 221.654,263.511 234.211,270.487 z" id="boundary" inkscape:connector-curvature="0" />
	<path style="fill:none;stroke:red;stroke-width:1px;stroke-linecap:butt;stroke-linejoin:miter;stroke-opacity:1" d="M 228.63,34.6948 234.211,15.1617 z" id="boundary" inkscape:connector-curvature="0" />
	<path style="fill:none;stroke:red;stroke-width:1px;stroke-linecap:butt;stroke-linejoin:miter;stroke-opacity:1" d="M 234.211,15.1617 245.373,4 z" id="boundary" inkscape:connector-curvature="0" />
	<path style="fill:none;stroke:red;stroke-width:1px;stroke-linecap:butt;stroke-linejoin:miter;stroke-opacity:1" d="M 234.211,270.487 242.582,281.648 z" id="boundary" inkscape:connector-curvature="0" />
	<path style="fill:none;stroke:red;stroke-width:1px;stroke-linecap:butt;stroke-linejoin:miter;stroke-opacity:1" d="M 234.211,350.014 241.187,336.062 z" id="boundary" inkscape:connector-curvature="0" />
	<path style="fill:none;stroke:red;stroke-width:1px;stroke-linecap:butt;stroke-linejoin:miter;stroke-opacity:1" d="M 234.211,350.014 241.187,362.571 z" id="boundary" inkscape:connector-curvature="0" />
	<path style="fill:none;stroke:red;stroke-width:1px;stroke-linecap:butt;stroke-linejoin:miter;stroke-opacity:1" d="M 241.187,322.11 241.187,336.062 z" id="boundary" inkscape:connector-curvature="0" />
	<path style="fill:none;stroke:red;stroke-width:1px;stroke-linecap:butt;stroke-linejoin:miter;stroke-opacity:1" d="M 241.187,322.11 248.163,309.553 z" id="boundary" inkscape:connector-curvature="0" />
	<path style="fill:none;stroke:red;stroke-width:1px;stroke-linecap:butt;stroke-linejoin:miter;stroke-opacity:1" d="M 241.187,362.571 241.187,376.523 z" id="boundary" inkscape:connector-curvature="0" />
	<path style="fill:none;stroke:red;stroke-width:1px;stroke-linecap:butt;stroke-linejoin:miter;stroke-opacity:1" d="M 241.187,376.523 248.163,389.08 z" id="boundary" inkscape:connector-curvature="0" />
	<path style="fill:none;stroke:red;stroke-width:1px;stroke-linecap:butt;stroke-linejoin:miter;stroke-opacity:1" d="M 242.582,281.648 248.163,295.601 z" id="boundary" inkscape:connector-curvature="0" />
	<path style="fill:none;stroke:red;stroke-width:1px;stroke-linecap:butt;stroke-linejoin:miter;stroke-opacity:1" d="M 245.373,4 257.93,10.9761 z" id="boundary" inkscape:connector-curvature="0" />
	<path style="fill:none;stroke:red;stroke-width:1px;stroke-linecap:butt;stroke-linejoin:miter;stroke-opacity:1" d="M 248.163,295.601 248.163,309.553 z" id="boundary" inkscape:connector-curvature="0" />
	<path style="fill:none;stroke:red;stroke-width:1px;stroke-linecap:butt;stroke-linejoin:miter;stroke-opacity:1" d="M 248.163,389.08 252.349,403.032 z" id="boundary" inkscape:connector-curvature="0" />
	<path style="fill:none;stroke:red;stroke-width:1px;stroke-linecap:butt;stroke-linejoin:miter;stroke-opacity:1" d="M 252.349,403.032 255.139,416.985 z" id="boundary" inkscape:connector-curvature="0" />
	<path style="fill:none;stroke:red;stroke-width:1px;stroke-linecap:butt;stroke-linejoin:miter;stroke-opacity:1" d="M 255.139,416.985 262.115,429.541 z" id="boundary" inkscape:connector-curvature="0" />
	<path style="fill:none;stroke:red;stroke-width:1px;stroke-linecap:butt;stroke-linejoin:miter;stroke-opacity:1" d="M 257.93,10.9761 263.511,24.9283 z" id="boundary" inkscape:connector-curvature="0" />
	<path style="fill:none;stroke:red;stroke-width:1px;stroke-linecap:butt;stroke-linejoin:miter;stroke-opacity:1" d="M 262.115,429.541 264.906,443.494 z" id="boundary" inkscape:connector-curvature="0" />
	<path style="fill:none;stroke:red;stroke-width:1px;stroke-linecap:butt;stroke-linejoin:miter;stroke-opacity:1" d="M 263.511,24.9283 270.487,37.4852 z" id="boundary" inkscape:connector-curvature="0" />
	<path style="fill:none;stroke:red;stroke-width:1px;stroke-linecap:butt;stroke-linejoin:miter;stroke-opacity:1" d="M 264.906,443.494 269.091,457.446 z" id="boundary" inkscape:connector-curvature="0" />
	<path style="fill:none;stroke:red;stroke-width:1px;stroke-linecap:butt;stroke-linejoin:miter;stroke-opacity:1" d="M 269.091,457.446 277.463,468.608 z" id="boundary" inkscape:connector-curvature="0" />
	<path style="fill:none;stroke:red;stroke-width:1px;stroke-linecap:butt;stroke-linejoin:miter;stroke-opacity:1" d="M 270.487,37.4852 270.487,51.4374 z" id="boundary" inkscape:connector-curvature="0" />
	<path style="fill:none;stroke:red;stroke-width:1px;stroke-linecap:butt;stroke-linejoin:miter;stroke-opacity:1" d="M 270.487,51.4374 270.487,65.3896 z" id="boundary" inkscape:connector-curvature="0" />
	<path style="fill:none;stroke:red;stroke-width:1px;stroke-linecap:butt;stroke-linejoin:miter;stroke-opacity:1" d="M 270.487,65.3896 284.439,66.7848 z" id="boundary" inkscape:connector-curvature="0" />
	<path style="fill:none;stroke:red;stroke-width:1px;stroke-linecap:butt;stroke-linejoin:miter;stroke-opacity:1" d="M 277.463,468.608 283.044,482.56 z" id="boundary" inkscape:connector-curvature="0" />
	<path style="fill:none;stroke:red;stroke-width:1px;stroke-linecap:butt;stroke-linejoin:miter;stroke-opacity:1" d="M 283.044,482.56 290.02,495.117 z" id="boundary" inkscape:connector-curvature="0" />
	<path style="fill:none;stroke:red;stroke-width:1px;stroke-linecap:butt;stroke-linejoin:miter;stroke-opacity:1" d="M 284.439,66.7848 298.391,66.7848 z" id="boundary" inkscape:connector-curvature="0" />
	<path style="fill:none;stroke:red;stroke-width:1px;stroke-linecap:butt;stroke-linejoin:miter;stroke-opacity:1" d="M 290.02,495.117 299.786,506.278 z" id="boundary" inkscape:connector-curvature="0" />
	<path style="fill:none;stroke:red;stroke-width:1px;stroke-linecap:butt;stroke-linejoin:miter;stroke-opacity:1" d="M 298.391,66.7848 312.343,66.7848 z" id="boundary" inkscape:connector-curvature="0" />
	<path style="fill:none;stroke:red;stroke-width:1px;stroke-linecap:butt;stroke-linejoin:miter;stroke-opacity:1" d="M 299.786,506.278 306.762,518.835 z" id="boundary" inkscape:connector-curvature="0" />
	<path style="fill:none;stroke:red;stroke-width:1px;stroke-linecap:butt;stroke-linejoin:miter;stroke-opacity:1" d="M 306.762,518.835 317.924,528.602 z" id="boundary" inkscape:connector-curvature="0" />
	<path style="fill:none;stroke:red;stroke-width:1px;stroke-linecap:butt;stroke-linejoin:miter;stroke-opacity:1" d="M 312.343,66.7848 326.295,66.7848 z" id="boundary" inkscape:connector-curvature="0" />
	<path style="fill:none;stroke:red;stroke-width:1px;stroke-linecap:butt;stroke-linejoin:miter;stroke-opacity:1" d="M 317.924,528.602 324.9,541.159 z" id="boundary" inkscape:connector-curvature="0" />
	<path style="fill:none;stroke:red;stroke-width:1px;stroke-linecap:butt;stroke-linejoin:miter;stroke-opacity:1" d="M 324.9,541.159 324.9,555.111 z" id="boundary" inkscape:connector-curvature="0" />
	<path style="fill:none;stroke:red;stroke-width:1px;stroke-linecap:butt;stroke-linejoin:miter;stroke-opacity:1" d="M 324.9,555.111 333.271,566.273 z" id="boundary" inkscape:connector-curvature="0" />
	<path style="fill:none;stroke:red;stroke-width:1px;stroke-linecap:butt;stroke-linejoin:miter;stroke-opacity:1" d="M 326.295,66.7848 340.248,66.7848 z" id="boundary" inkscape:connector-curvature="0" />
	<path style="fill:none;stroke:red;stroke-width:1px;stroke-linecap:butt;stroke-linejoin:miter;stroke-opacity:1" d="M 333.271,566.273 343.038,577.435 z" id="boundary" inkscape:connector-curvature="0" />
	<path style="fill:none;stroke:red;stroke-width:1px;stroke-linecap:butt;stroke-linejoin:miter;stroke-opacity:1" d="M 340.248,66.7848 354.2,66.7848 z" id="boundary" inkscape:connector-curvature="0" />
	<path style="fill:none;stroke:red;stroke-width:1px;stroke-linecap:butt;stroke-linejoin:miter;stroke-opacity:1" d="M 343.038,577.435 356.99,583.015 z" id="boundary" inkscape:connector-curvature="0" />
	<path style="fill:none;stroke:red;stroke-width:1px;stroke-linecap:butt;stroke-linejoin:miter;stroke-opacity:1" d="M 354.2,66.7848 368.152,66.7848 z" id="boundary" inkscape:connector-curvature="0" />
	<path style="fill:none;stroke:red;stroke-width:1px;stroke-linecap:butt;stroke-linejoin:miter;stroke-opacity:1" d="M 356.99,583.015 368.152,591.387 z" id="boundary" inkscape:connector-curvature="0" />
	<path style="fill:none;stroke:red;stroke-width:1px;stroke-linecap:butt;stroke-linejoin:miter;stroke-opacity:1" d="M 368.152,66.7848 382.104,70.9705 z" id="boundary" inkscape:connector-curvature="0" />
	<path style="fill:none;stroke:red;stroke-width:1px;stroke-linecap:butt;stroke-linejoin:miter;stroke-opacity:1" d="M 368.152,591.387 380.709,598.363 z" id="boundary" inkscape:connector-curvature="0" />
	<path style="fill:none;stroke:red;stroke-width:1px;stroke-linecap:butt;stroke-linejoin:miter;stroke-opacity:1" d="M 380.709,598.363 384.895,612.315 z" id="boundary" inkscape:connector-curvature="0" />
	<path style="fill:none;stroke:red;stroke-width:1px;stroke-linecap:butt;stroke-linejoin:miter;stroke-opacity:1" d="M 382.104,70.9705 391.871,82.1322 z" id="boundary" inkscape:connector-curvature="0" />
	<path style="fill:none;stroke:red;stroke-width:1px;stroke-linecap:butt;stroke-linejoin:miter;stroke-opacity:1" d="M 384.895,612.315 391.871,624.872 z" id="boundary" inkscape:connector-curvature="0" />
	<path style="fill:none;stroke:red;stroke-width:1px;stroke-linecap:butt;stroke-linejoin:miter;stroke-opacity:1" d="M 391.871,82.1322 403.032,91.8987 z" id="boundary" inkscape:connector-curvature="0" />
	<path style="fill:none;stroke:red;stroke-width:1px;stroke-linecap:butt;stroke-linejoin:miter;stroke-opacity:1" d="M 391.871,624.872 397.451,638.824 z" id="boundary" inkscape:connector-curvature="0" />
	<path style="fill:none;stroke:red;stroke-width:1px;stroke-linecap:butt;stroke-linejoin:miter;stroke-opacity:1" d="M 394.661,698.819 394.661,712.771 z" id="boundary" inkscape:connector-curvature="0" />
	<path style="fill:none;stroke:red;stroke-width:1px;stroke-linecap:butt;stroke-linejoin:miter;stroke-opacity:1" d="M 394.661,698.819 405.823,687.657 z" id="boundary" inkscape:connector-curvature="0" />
	<path style="fill:none;stroke:red;stroke-width:1px;stroke-linecap:butt;stroke-linejoin:miter;stroke-opacity:1" d="M 394.661,712.771 403.032,723.932 z" id="boundary" inkscape:connector-curvature="0" />
	<path style="fill:none;stroke:red;stroke-width:1px;stroke-linecap:butt;stroke-linejoin:miter;stroke-opacity:1" d="M 397.451,638.824 404.428,651.381 z" id="boundary" inkscape:connector-curvature="0" />
	<path style="fill:none;stroke:red;stroke-width:1px;stroke-linecap:butt;stroke-linejoin:miter;stroke-opacity:1" d="M 403.032,91.8987 415.589,98.8748 z" id="boundary" inkscape:connector-curvature="0" />
	<path style="fill:none;stroke:red;stroke-width:1px;stroke-linecap:butt;stroke-linejoin:miter;stroke-opacity:1" d="M 403.032,723.932 411.404,735.094 z" id="boundary" inkscape:connector-curvature="0" />
	<path style="fill:none;stroke:red;stroke-width:1px;stroke-linecap:butt;stroke-linejoin:miter;stroke-opacity:1" d="M 404.428,651.381 408.613,665.333 z" id="boundary" inkscape:connector-curvature="0" />
	<path style="fill:none;stroke:red;stroke-width:1px;stroke-linecap:butt;stroke-linejoin:miter;stroke-opacity:1" d="M 405.823,687.657 408.613,665.333 z" id="boundary" inkscape:connector-curvature="0" />
	<path style="fill:none;stroke:red;stroke-width:1px;stroke-linecap:butt;stroke-linejoin:miter;stroke-opacity:1" d="M 411.404,735.094 425.356,737.885 z" id="boundary" inkscape:connector-curvature="0" />
	<path style="fill:none;stroke:red;stroke-width:1px;stroke-linecap:butt;stroke-linejoin:miter;stroke-opacity:1" d="M 415.589,98.8748 423.961,110.037 z" id="boundary" inkscape:connector-curvature="0" />
	<path style="fill:none;stroke:red;stroke-width:1px;stroke-linecap:butt;stroke-linejoin:miter;stroke-opacity:1" d="M 423.961,110.037 430.937,122.594 z" id="boundary" inkscape:connector-curvature="0" />
	<path style="fill:none;stroke:red;stroke-width:1px;stroke-linecap:butt;stroke-linejoin:miter;stroke-opacity:1" d="M 425.356,737.885 437.913,744.861 z" id="boundary" inkscape:connector-curvature="0" />
	<path style="fill:none;stroke:red;stroke-width:1px;stroke-linecap:butt;stroke-linejoin:miter;stroke-opacity:1" d="M 430.937,122.594 430.937,136.546 z" id="boundary" inkscape:connector-curvature="0" />
	<path style="fill:none;stroke:red;stroke-width:1px;stroke-linecap:butt;stroke-linejoin:miter;stroke-opacity:1" d="M 430.937,136.546 437.913,149.103 z" id="boundary" inkscape:connector-curvature="0" />
	<path style="fill:none;stroke:red;stroke-width:1px;stroke-linecap:butt;stroke-linejoin:miter;stroke-opacity:1" d="M 437.913,149.103 437.913,163.055 z" id="boundary" inkscape:connector-curvature="0" />
	<path style="fill:none;stroke:red;stroke-width:1px;stroke-linecap:butt;stroke-linejoin:miter;stroke-opacity:1" d="M 437.913,163.055 444.889,175.612 z" id="boundary" inkscape:connector-curvature="0" />
	<path style="fill:none;stroke:red;stroke-width:1px;stroke-linecap:butt;stroke-linejoin:miter;stroke-opacity:1" d="M 437.913,744.861 443.494,758.813 z" id="boundary" inkscape:connector-curvature="0" />
	<path style="fill:none;stroke:red;stroke-width:1px;stroke-linecap:butt;stroke-linejoin:miter;stroke-opacity:1" d="M 443.494,758.813 443.494,772.765 z" id="boundary" inkscape:connector-curvature="0" />
	<path style="fill:none;stroke:red;stroke-width:1px;stroke-linecap:butt;stroke-linejoin:miter;stroke-opacity:1" d="M 443.494,772.765 451.865,783.927 z" id="boundary" inkscape:connector-curvature="0" />
	<path style="fill:none;stroke:red;stroke-width:1px;stroke-linecap:butt;stroke-linejoin:miter;stroke-opacity:1" d="M 444.889,175.612 444.889,189.564 z" id="boundary" inkscape:connector-curvature="0" />
	<path style="fill:none;stroke:red;stroke-width:1px;stroke-linecap:butt;stroke-linejoin:miter;stroke-opacity:1" d="M 444.889,189.564 444.889,203.516 z" id="boundary" inkscape:connector-curvature="0" />
	<path style="fill:none;stroke:red;stroke-width:1px;stroke-linecap:butt;stroke-linejoin:miter;stroke-opacity:1" d="M 444.889,203.516 444.889,217.468 z" id="boundary" inkscape:connector-curvature="0" />
	<path style="fill:none;stroke:red;stroke-width:1px;stroke-linecap:butt;stroke-linejoin:miter;stroke-opacity:1" d="M 444.889,217.468 444.889,231.421 z" id="boundary" inkscape:connector-curvature="0" />
	<path style="fill:none;stroke:red;stroke-width:1px;stroke-linecap:butt;stroke-linejoin:miter;stroke-opacity:1" d="M 444.889,231.421 444.889,245.373 z" id="boundary" inkscape:connector-curvature="0" />
	<path style="fill:none;stroke:red;stroke-width:1px;stroke-linecap:butt;stroke-linejoin:miter;stroke-opacity:1" d="M 444.889,245.373 444.889,259.325 z" id="boundary" inkscape:connector-curvature="0" />
	<path style="fill:none;stroke:red;stroke-width:1px;stroke-linecap:butt;stroke-linejoin:miter;stroke-opacity:1" d="M 444.889,259.325 444.889,273.277 z" id="boundary" inkscape:connector-curvature="0" />
	<path style="fill:none;stroke:red;stroke-width:1px;stroke-linecap:butt;stroke-linejoin:miter;stroke-opacity:1" d="M 444.889,273.277 444.889,287.229 z" id="boundary" inkscape:connector-curvature="0" />
	<path style="fill:none;stroke:red;stroke-width:1px;stroke-linecap:butt;stroke-linejoin:miter;stroke-opacity:1" d="M 444.889,287.229 456.051,296.996 z" id="boundary" inkscape:connector-curvature="0" />
	<path style="fill:none;stroke:red;stroke-width:1px;stroke-linecap:butt;stroke-linejoin:miter;stroke-opacity:1" d="M 451.865,783.927 465.817,778.346 z" id="boundary" inkscape:connector-curvature="0" />
	<path style="fill:none;stroke:red;stroke-width:1px;stroke-linecap:butt;stroke-linejoin:miter;stroke-opacity:1" d="M 456.051,296.996 468.608,303.972 z" id="boundary" inkscape:connector-curvature="0" />
	<path style="fill:none;stroke:red;stroke-width:1px;stroke-linecap:butt;stroke-linejoin:miter;stroke-opacity:1" d="M 458.841,689.052 458.841,709.98 z" id="boundary" inkscape:connector-curvature="0" />
	<path style="fill:none;stroke:red;stroke-width:1px;stroke-linecap:butt;stroke-linejoin:miter;stroke-opacity:1" d="M 458.841,689.052 472.793,682.076 z" id="boundary" inkscape:connector-curvature="0" />
	<path style="fill:none;stroke:red;stroke-width:1px;stroke-linecap:butt;stroke-linejoin:miter;stroke-opacity:1" d="M 458.841,709.98 458.841,723.932 z" id="boundary" inkscape:connector-curvature="0" />
	<path style="fill:none;stroke:red;stroke-width:1px;stroke-linecap:butt;stroke-linejoin:miter;stroke-opacity:1" d="M 458.841,723.932 458.841,737.885 z" id="boundary" inkscape:connector-curvature="0" />
	<path style="fill:none;stroke:red;stroke-width:1px;stroke-linecap:butt;stroke-linejoin:miter;stroke-opacity:1" d="M 458.841,737.885 458.841,751.837 z" id="boundary" inkscape:connector-curvature="0" />
	<path style="fill:none;stroke:red;stroke-width:1px;stroke-linecap:butt;stroke-linejoin:miter;stroke-opacity:1" d="M 458.841,751.837 465.817,764.394 z" id="boundary" inkscape:connector-curvature="0" />
	<path style="fill:none;stroke:red;stroke-width:1px;stroke-linecap:butt;stroke-linejoin:miter;stroke-opacity:1" d="M 465.817,764.394 465.817,778.346 z" id="boundary" inkscape:connector-curvature="0" />
	<path style="fill:none;stroke:red;stroke-width:1px;stroke-linecap:butt;stroke-linejoin:miter;stroke-opacity:1" d="M 468.608,303.972 481.165,310.948 z" id="boundary" inkscape:connector-curvature="0" />
	<path style="fill:none;stroke:red;stroke-width:1px;stroke-linecap:butt;stroke-linejoin:miter;stroke-opacity:1" d="M 472.793,682.076 485.35,675.1 z" id="boundary" inkscape:connector-curvature="0" />
	<path style="fill:none;stroke:red;stroke-width:1px;stroke-linecap:butt;stroke-linejoin:miter;stroke-opacity:1" d="M 481.165,310.948 492.326,320.714 z" id="boundary" inkscape:connector-curvature="0" />
	<path style="fill:none;stroke:red;stroke-width:1px;stroke-linecap:butt;stroke-linejoin:miter;stroke-opacity:1" d="M 485.35,675.1 499.302,670.914 z" id="boundary" inkscape:connector-curvature="0" />
	<path style="fill:none;stroke:red;stroke-width:1px;stroke-linecap:butt;stroke-linejoin:miter;stroke-opacity:1" d="M 492.326,320.714 500.698,331.876 z" id="boundary" inkscape:connector-curvature="0" />
	<path style="fill:none;stroke:red;stroke-width:1px;stroke-linecap:butt;stroke-linejoin:miter;stroke-opacity:1" d="M 499.302,670.914 510.464,659.752 z" id="boundary" inkscape:connector-curvature="0" />
	<path style="fill:none;stroke:red;stroke-width:1px;stroke-linecap:butt;stroke-linejoin:miter;stroke-opacity:1" d="M 500.698,331.876 513.255,338.852 z" id="boundary" inkscape:connector-curvature="0" />
	<path style="fill:none;stroke:red;stroke-width:1px;stroke-linecap:butt;stroke-linejoin:miter;stroke-opacity:1" d="M 510.464,659.752 524.416,652.776 z" id="boundary" inkscape:connector-curvature="0" />
	<path style="fill:none;stroke:red;stroke-width:1px;stroke-linecap:butt;stroke-linejoin:miter;stroke-opacity:1" d="M 513.255,338.852 524.416,347.224 z" id="boundary" inkscape:connector-curvature="0" />
	<path style="fill:none;stroke:red;stroke-width:1px;stroke-linecap:butt;stroke-linejoin:miter;stroke-opacity:1" d="M 524.416,347.224 538.368,352.805 z" id="boundary" inkscape:connector-curvature="0" />
	<path style="fill:none;stroke:red;stroke-width:1px;stroke-linecap:butt;stroke-linejoin:miter;stroke-opacity:1" d="M 524.416,652.776 538.368,647.195 z" id="boundary" inkscape:connector-curvature="0" />
	<path style="fill:none;stroke:red;stroke-width:1px;stroke-linecap:butt;stroke-linejoin:miter;stroke-opacity:1" d="M 538.368,352.805 548.135,363.966 z" id="boundary" inkscape:connector-curvature="0" />
	<path style="fill:none;stroke:red;stroke-width:1px;stroke-linecap:butt;stroke-linejoin:miter;stroke-opacity:1" d="M 538.368,647.195 552.321,647.195 z" id="boundary" inkscape:connector-curvature="0" />
	<path style="fill:none;stroke:red;stroke-width:1px;stroke-linecap:butt;stroke-linejoin:miter;stroke-opacity:1" d="M 548.135,363.966 555.111,376.523 z" id="boundary" inkscape:connector-curvature="0" />
	<path style="fill:none;stroke:red;stroke-width:1px;stroke-linecap:butt;stroke-linejoin:miter;stroke-opacity:1" d="M 552.321,647.195 566.273,645.8 z" id="boundary" inkscape:connector-curvature="0" />
	<path style="fill:none;stroke:red;stroke-width:1px;stroke-linecap:butt;stroke-linejoin:miter;stroke-opacity:1" d="M 555.111,376.523 563.482,387.685 z" id="boundary" inkscape:connector-curvature="0" />
	<path style="fill:none;stroke:red;stroke-width:1px;stroke-linecap:butt;stroke-linejoin:miter;stroke-opacity:1" d="M 563.482,387.685 570.459,400.242 z" id="boundary" inkscape:connector-curvature="0" />
	<path style="fill:none;stroke:red;stroke-width:1px;stroke-linecap:butt;stroke-linejoin:miter;stroke-opacity:1" d="M 566.273,645.8 580.225,640.219 z" id="boundary" inkscape:connector-curvature="0" />
	<path style="fill:none;stroke:red;stroke-width:1px;stroke-linecap:butt;stroke-linejoin:miter;stroke-opacity:1" d="M 570.459,400.242 584.411,401.637 z" id="boundary" inkscape:connector-curvature="0" />
	<path style="fill:none;stroke:red;stroke-width:1px;stroke-linecap:butt;stroke-linejoin:miter;stroke-opacity:1" d="M 580.225,640.219 594.177,640.219 z" id="boundary" inkscape:connector-curvature="0" />
	<path style="fill:none;stroke:red;stroke-width:1px;stroke-linecap:butt;stroke-linejoin:miter;stroke-opacity:1" d="M 584.411,401.637 595.572,410.008 z" id="boundary" inkscape:connector-curvature="0" />
	<path style="fill:none;stroke:red;stroke-width:1px;stroke-linecap:butt;stroke-linejoin:miter;stroke-opacity:1" d="M 594.177,640.219 608.129,640.219 z" id="boundary" inkscape:connector-curvature="0" />
	<path style="fill:none;stroke:red;stroke-width:1px;stroke-linecap:butt;stroke-linejoin:miter;stroke-opacity:1" d="M 595.572,410.008 602.549,422.565 z" id="boundary" inkscape:connector-curvature="0" />
	<path style="fill:none;stroke:red;stroke-width:1px;stroke-linecap:butt;stroke-linejoin:miter;stroke-opacity:1" d="M 602.549,422.565 615.105,429.541 z" id="boundary" inkscape:connector-curvature="0" />
	<path style="fill:none;stroke:red;stroke-width:1px;stroke-linecap:butt;stroke-linejoin:miter;stroke-opacity:1" d="M 608.129,640.219 622.082,640.219 z" id="boundary" inkscape:connector-curvature="0" />
	<path style="fill:none;stroke:red;stroke-width:1px;stroke-linecap:butt;stroke-linejoin:miter;stroke-opacity:1" d="M 615.105,429.541 619.291,443.494 z" id="boundary" inkscape:connector-curvature="0" />
	<path style="fill:none;stroke:red;stroke-width:1px;stroke-linecap:butt;stroke-linejoin:miter;stroke-opacity:1" d="M 619.291,443.494 630.453,451.865 z" id="boundary" inkscape:connector-curvature="0" />
	<path style="fill:none;stroke:red;stroke-width:1px;stroke-linecap:butt;stroke-linejoin:miter;stroke-opacity:1" d="M 622.082,640.219 636.034,640.219 z" id="boundary" inkscape:connector-curvature="0" />
	<path style="fill:none;stroke:red;stroke-width:1px;stroke-linecap:butt;stroke-linejoin:miter;stroke-opacity:1" d="M 630.453,451.865 640.219,463.027 z" id="boundary" inkscape:connector-curvature="0" />
	<path style="fill:none;stroke:red;stroke-width:1px;stroke-linecap:butt;stroke-linejoin:miter;stroke-opacity:1" d="M 636.034,640.219 649.986,640.219 z" id="boundary" inkscape:connector-curvature="0" />
	<path style="fill:none;stroke:red;stroke-width:1px;stroke-linecap:butt;stroke-linejoin:miter;stroke-opacity:1" d="M 640.219,463.027 651.381,471.398 z" id="boundary" inkscape:connector-curvature="0" />
	<path style="fill:none;stroke:red;stroke-width:1px;stroke-linecap:butt;stroke-linejoin:miter;stroke-opacity:1" d="M 649.986,640.219 663.938,640.219 z" id="boundary" inkscape:connector-curvature="0" />
	<path style="fill:none;stroke:red;stroke-width:1px;stroke-linecap:butt;stroke-linejoin:miter;stroke-opacity:1" d="M 651.381,471.398 661.148,482.56 z" id="boundary" inkscape:connector-curvature="0" />
	<path style="fill:none;stroke:red;stroke-width:1px;stroke-linecap:butt;stroke-linejoin:miter;stroke-opacity:1" d="M 661.148,482.56 668.124,495.117 z" id="boundary" inkscape:connector-curvature="0" />
	<path style="fill:none;stroke:red;stroke-width:1px;stroke-linecap:butt;stroke-linejoin:miter;stroke-opacity:1" d="M 663.938,640.219 677.89,640.219 z" id="boundary" inkscape:connector-curvature="0" />
	<path style="fill:none;stroke:red;stroke-width:1px;stroke-linecap:butt;stroke-linejoin:miter;stroke-opacity:1" d="M 668.124,495.117 676.495,506.278 z" id="boundary" inkscape:connector-curvature="0" />
	<path style="fill:none;stroke:red;stroke-width:1px;stroke-linecap:butt;stroke-linejoin:miter;stroke-opacity:1" d="M 676.495,506.278 682.076,520.231 z" id="boundary" inkscape:connector-curvature="0" />
	<path style="fill:none;stroke:red;stroke-width:1px;stroke-linecap:butt;stroke-linejoin:miter;stroke-opacity:1" d="M 677.89,640.219 691.842,640.219 z" id="boundary" inkscape:connector-curvature="0" />
	<path style="fill:none;stroke:red;stroke-width:1px;stroke-linecap:butt;stroke-linejoin:miter;stroke-opacity:1" d="M 682.076,520.231 696.028,524.416 z" id="boundary" inkscape:connector-curvature="0" />
	<path style="fill:none;stroke:red;stroke-width:1px;stroke-linecap:butt;stroke-linejoin:miter;stroke-opacity:1" d="M 691.842,640.219 705.795,640.219 z" id="boundary" inkscape:connector-curvature="0" />
	<path style="fill:none;stroke:red;stroke-width:1px;stroke-linecap:butt;stroke-linejoin:miter;stroke-opacity:1" d="M 696.028,524.416 705.795,535.578 z" id="boundary" inkscape:connector-curvature="0" />
	<path style="fill:none;stroke:red;stroke-width:1px;stroke-linecap:butt;stroke-linejoin:miter;stroke-opacity:1" d="M 705.795,535.578 716.956,545.345 z" id="boundary" inkscape:connector-curvature="0" />
	<path style="fill:none;stroke:red;stroke-width:1px;stroke-linecap:butt;stroke-linejoin:miter;stroke-opacity:1" d="M 705.795,640.219 719.747,640.219 z" id="boundary" inkscape:connector-curvature="0" />
	<path style="fill:none;stroke:red;stroke-width:1px;stroke-linecap:butt;stroke-linejoin:miter;stroke-opacity:1" d="M 716.956,545.345 730.909,548.135 z" id="boundary" inkscape:connector-curvature="0" />
	<path style="fill:none;stroke:red;stroke-width:1px;stroke-linecap:butt;stroke-linejoin:miter;stroke-opacity:1" d="M 719.747,640.219 733.699,640.219 z" id="boundary" inkscape:connector-curvature="0" />
	<path style="fill:none;stroke:red;stroke-width:1px;stroke-linecap:butt;stroke-linejoin:miter;stroke-opacity:1" d="M 730.909,548.135 744.861,552.321 z" id="boundary" inkscape:connector-curvature="0" />
	<path style="fill:none;stroke:red;stroke-width:1px;stroke-linecap:butt;stroke-linejoin:miter;stroke-opacity:1" d="M 733.699,640.219 747.651,640.219 z" id="boundary" inkscape:connector-curvature="0" />
	<path style="fill:none;stroke:red;stroke-width:1px;stroke-linecap:butt;stroke-linejoin:miter;stroke-opacity:1" d="M 744.861,552.321 758.813,555.111 z" id="boundary" inkscape:connector-curvature="0" />
	<path style="fill:none;stroke:red;stroke-width:1px;stroke-linecap:butt;stroke-linejoin:miter;stroke-opacity:1" d="M 747.651,640.219 761.603,640.219 z" id="boundary" inkscape:connector-curvature="0" />
	<path style="fill:none;stroke:red;stroke-width:1px;stroke-linecap:butt;stroke-linejoin:miter;stroke-opacity:1" d="M 758.813,555.111 771.37,562.087 z" id="boundary" inkscape:connector-curvature="0" />
	<path style="fill:none;stroke:red;stroke-width:1px;stroke-linecap:butt;stroke-linejoin:miter;stroke-opacity:1" d="M 761.603,640.219 775.556,640.219 z" id="boundary" inkscape:connector-curvature="0" />
	<path style="fill:none;stroke:red;stroke-width:1px;stroke-linecap:butt;stroke-linejoin:miter;stroke-opacity:1" d="M 771.37,562.087 785.322,562.087 z" id="boundary" inkscape:connector-curvature="0" />
	<path style="fill:none;stroke:red;stroke-width:1px;stroke-linecap:butt;stroke-linejoin:miter;stroke-opacity:1" d="M 775.556,640.219 789.508,640.219 z" id="boundary" inkscape:connector-curvature="0" />
	<path style="fill:none;stroke:red;stroke-width:1px;stroke-linecap:butt;stroke-linejoin:miter;stroke-opacity:1" d="M 785.322,562.087 799.274,564.878 z" id="boundary" inkscape:connector-curvature="0" />
	<path style="fill:none;stroke:red;stroke-width:1px;stroke-linecap:butt;stroke-linejoin:miter;stroke-opacity:1" d="M 789.508,640.219 803.46,640.219 z" id="boundary" inkscape:connector-curvature="0" />
	<path style="fill:none;stroke:red;stroke-width:1px;stroke-linecap:butt;stroke-linejoin:miter;stroke-opacity:1" d="M 799.274,564.878 813.226,569.063 z" id="boundary" inkscape:connector-curvature="0" />
	<path style="fill:none;stroke:red;stroke-width:1px;stroke-linecap:butt;stroke-linejoin:miter;stroke-opacity:1" d="M 803.46,640.219 817.412,640.219 z" id="boundary" inkscape:connector-curvature="0" />
	<path style="fill:none;stroke:red;stroke-width:1px;stroke-linecap:butt;stroke-linejoin:miter;stroke-opacity:1" d="M 813.226,569.063 825.783,576.039 z" id="boundary" inkscape:connector-curvature="0" />
	<path style="fill:none;stroke:red;stroke-width:1px;stroke-linecap:butt;stroke-linejoin:miter;stroke-opacity:1" d="M 817.412,640.219 831.364,645.8 z" id="boundary" inkscape:connector-curvature="0" />
	<path style="fill:none;stroke:red;stroke-width:1px;stroke-linecap:butt;stroke-linejoin:miter;stroke-opacity:1" d="M 825.783,576.039 839.736,576.039 z" id="boundary" inkscape:connector-curvature="0" />
	<path style="fill:none;stroke:red;stroke-width:1px;stroke-linecap:butt;stroke-linejoin:miter;stroke-opacity:1" d="M 831.364,645.8 845.316,647.195 z" id="boundary" inkscape:connector-curvature="0" />
	<path style="fill:none;stroke:red;stroke-width:1px;stroke-linecap:butt;stroke-linejoin:miter;stroke-opacity:1" d="M 839.736,576.039 853.688,576.039 z" id="boundary" inkscape:connector-curvature="0" />
	<path style="fill:none;stroke:red;stroke-width:1px;stroke-linecap:butt;stroke-linejoin:miter;stroke-opacity:1" d="M 845.316,647.195 859.269,647.195 z" id="boundary" inkscape:connector-curvature="0" />
	<path style="fill:none;stroke:red;stroke-width:1px;stroke-linecap:butt;stroke-linejoin:miter;stroke-opacity:1" d="M 853.688,576.039 867.64,577.435 z" id="boundary" inkscape:connector-curvature="0" />
	<path style="fill:none;stroke:red;stroke-width:1px;stroke-linecap:butt;stroke-linejoin:miter;stroke-opacity:1" d="M 859.269,647.195 873.221,647.195 z" id="boundary" inkscape:connector-curvature="0" />
	<path style="fill:none;stroke:red;stroke-width:1px;stroke-linecap:butt;stroke-linejoin:miter;stroke-opacity:1" d="M 867.64,577.435 880.197,584.411 z" id="boundary" inkscape:connector-curvature="0" />
	<path style="fill:none;stroke:red;stroke-width:1px;stroke-linecap:butt;stroke-linejoin:miter;stroke-opacity:1" d="M 873.221,647.195 887.173,645.8 z" id="boundary" inkscape:connector-curvature="0" />
	<path style="fill:none;stroke:red;stroke-width:1px;stroke-linecap:butt;stroke-linejoin:miter;stroke-opacity:1" d="M 880.197,584.411 894.149,589.992 z" id="boundary" inkscape:connector-curvature="0" />
	<path style="fill:none;stroke:red;stroke-width:1px;stroke-linecap:butt;stroke-linejoin:miter;stroke-opacity:1" d="M 887.173,645.8 901.125,640.219 z" id="boundary" inkscape:connector-curvature="0" />
	<path style="fill:none;stroke:red;stroke-width:1px;stroke-linecap:butt;stroke-linejoin:miter;stroke-opacity:1" d="M 894.149,589.992 908.101,589.992 z" id="boundary" inkscape:connector-curvature="0" />
	<path style="fill:none;stroke:red;stroke-width:1px;stroke-linecap:butt;stroke-linejoin:miter;stroke-opacity:1" d="M 901.125,640.219 915.077,640.219 z" id="boundary" inkscape:connector-curvature="0" />
	<path style="fill:none;stroke:red;stroke-width:1px;stroke-linecap:butt;stroke-linejoin:miter;stroke-opacity:1" d="M 908.101,589.992 922.053,589.992 z" id="boundary" inkscape:connector-curvature="0" />
	<path style="fill:none;stroke:red;stroke-width:1px;stroke-linecap:butt;stroke-linejoin:miter;stroke-opacity:1" d="M 915.077,640.219 929.03,640.219 z" id="boundary" inkscape:connector-curvature="0" />
	<path style="fill:none;stroke:red;stroke-width:1px;stroke-linecap:butt;stroke-linejoin:miter;stroke-opacity:1" d="M 922.053,589.992 936.006,589.992 z" id="boundary" inkscape:connector-curvature="0" />
	<path style="fill:none;stroke:red;stroke-width:1px;stroke-linecap:butt;stroke-linejoin:miter;stroke-opacity:1" d="M 929.03,640.219 942.982,640.219 z" id="boundary" inkscape:connector-curvature="0" />
	<path style="fill:none;stroke:red;stroke-width:1px;stroke-linecap:butt;stroke-linejoin:miter;stroke-opacity:1" d="M 936.006,589.992 949.958,589.992 z" id="boundary" inkscape:connector-curvature="0" />
	<path style="fill:none;stroke:red;stroke-width:1px;stroke-linecap:butt;stroke-linejoin:miter;stroke-opacity:1" d="M 942.982,640.219 956.934,640.219 z" id="boundary" inkscape:connector-curvature="0" />
	<path style="fill:none;stroke:red;stroke-width:1px;stroke-linecap:butt;stroke-linejoin:miter;stroke-opacity:1" d="M 949.958,589.992 963.91,589.992 z" id="boundary" inkscape:connector-curvature="0" />
	<path style="fill:none;stroke:red;stroke-width:1px;stroke-linecap:butt;stroke-linejoin:miter;stroke-opacity:1" d="M 956.934,640.219 969.491,633.243 z" id="boundary" inkscape:connector-curvature="0" />
	<path style="fill:none;stroke:red;stroke-width:1px;stroke-linecap:butt;stroke-linejoin:miter;stroke-opacity:1" d="M 963.91,589.992 977.862,589.992 z" id="boundary" inkscape:connector-curvature="0" />
	<path style="fill:none;stroke:red;stroke-width:1px;stroke-linecap:butt;stroke-linejoin:miter;stroke-opacity:1" d="M 969.491,633.243 982.048,619.291 z" id="boundary" inkscape:connector-curvature="0" />
	<path style="fill:none;stroke:red;stroke-width:1px;stroke-linecap:butt;stroke-linejoin:miter;stroke-opacity:1" d="M 977.862,589.992 991.814,589.992 z" id="boundary" inkscape:connector-curvature="0" />
	<path style="fill:none;stroke:red;stroke-width:1px;stroke-linecap:butt;stroke-linejoin:miter;stroke-opacity:1" d="M 982.048,619.291 996,603.944 z" id="boundary" inkscape:connector-curvature="0" />
	<path style="fill:none;stroke:red;stroke-width:1px;stroke-linecap:butt;stroke-linejoin:miter;stroke-opacity:1" d="M 991.814,589.992 996,603.944 z" id="boundary" inkscape:connector-curvature="0" />
	<circle cx="4" cy="224.444" r="4" fill="#0" id="circle0"/>
	<circle cx="15.1617" cy="234.211" r="4" fill="#0" id="circle1"/>
	<circle cx="17.9522" cy="217.468" r="4" fill="#0" id="circle2"/>
	<circle cx="29.1139" cy="235.606" r="4" fill="#0" id="circle3"/>
	<circle cx="31.9044" cy="210.492" r="4" fill="#0" id="circle4"/>
	<circle cx="43.0661" cy="235.606" r="4" fill="#0" id="circle5"/>
	<circle cx="45.8565" cy="206.307" r="4" fill="#0" id="circle6"/>
	<circle cx="57.0183" cy="235.606" r="4" fill="#0" id="circle7"/>
	<circle cx="58.4135" cy="199.331" r="4" fill="#0" id="circle8"/>
	<circle cx="70.9705" cy="235.606" r="4" fill="#0" id="circle9"/>
	<circle cx="72.3657" cy="199.331" r="4" fill="#0" id="circle10"/>
	<circle cx="84.9226" cy="192.354" r="4" fill="#0" id="circle11"/>
	<circle cx="84.9226" cy="235.606" r="4" fill="#0" id="circle12"/>
	<circle cx="98.8748" cy="192.354" r="4" fill="#0" id="circle13"/>
	<circle cx="98.8748" cy="235.606" r="4" fill="#0" id="circle14"/>
	<circle cx="112.827" cy="185.378" r="4" fill="#0" id="circle15"/>
	<circle cx="112.827" cy="235.606" r="4" fill="#0" id="circle16"/>
	<circle cx="126.779" cy="185.378" r="4" fill="#0" id="circle17"/>
	<circle cx="126.779" cy="235.606" r="4" fill="#0" id="circle18"/>
	<circle cx="140.731" cy="185.378" r="4" fill="#0" id="circle19"/>
	<circle cx="140.731" cy="241.187" r="4" fill="#0" id="circle20"/>
	<circle cx="153.288" cy="178.402" r="4" fill="#0" id="circle21"/>
	<circle cx="154.684" cy="242.582" r="4" fill="#0" id="circle22"/>
	<circle cx="165.845" cy="171.426" r="4" fill="#0" id="circle23"/>
	<circle cx="168.636" cy="242.582" r="4" fill="#0" id="circle24"/>
	<circle cx="178.402" cy="154.684" r="4" fill="#0" id="circle25"/>
	<circle cx="182.588" cy="248.163" r="4" fill="#0" id="circle26"/>
	<circle cx="185.378" cy="133.755" r="4" fill="#0" id="circle27"/>
	<circle cx="192.354" cy="105.851" r="4" fill="#0" id="circle28"/>
	<circle cx="192.354" cy="119.803" r="4" fill="#0" id="circle29"/>
	<circle cx="196.54" cy="249.558" r="4" fill="#0" id="circle30"/>
	<circle cx="199.331" cy="84.9226" r="4" fill="#0" id="circle31"/>
	<circle cx="206.307" cy="57.0183" r="4" fill="#0" id="circle32"/>
	<circle cx="206.307" cy="70.9705" r="4" fill="#0" id="circle33"/>
	<circle cx="207.702" cy="259.325" r="4" fill="#0" id="circle34"/>
	<circle cx="217.468" cy="45.8565" r="4" fill="#0" id="circle35"/>
	<circle cx="221.654" cy="263.511" r="4" fill="#0" id="circle36"/>
	<circle cx="228.63" cy="34.6948" r="4" fill="#0" id="circle37"/>
	<circle cx="234.211" cy="15.1617" r="4" fill="#0" id="circle38"/>
	<circle cx="234.211" cy="270.487" r="4" fill="#0" id="circle39"/>
	<circle cx="234.211" cy="350.014" r="4" fill="#0" id="circle40"/>
	<circle cx="241.187" cy="322.11" r="4" fill="#0" id="circle41"/>
	<circle cx="241.187" cy="336.062" r="4" fill="#0" id="circle42"/>
	<circle cx="241.187" cy="362.571" r="4" fill="#0" id="circle43"/>
	<circle cx="241.187" cy="376.523" r="4" fill="#0" id="circle44"/>
	<circle cx="242.582" cy="281.648" r="4" fill="#0" id="circle45"/>
	<circle cx="245.373" cy="4" r="4" fill="#0" id="circle46"/>
	<circle cx="248.163" cy="295.601" r="4" fill="#0" id="circle47"/>
	<circle cx="248.163" cy="309.553" r="4" fill="#0" id="circle48"/>
	<circle cx="248.163" cy="389.08" r="4" fill="#0" id="circle49"/>
	<circle cx="252.349" cy="403.032" r="4" fill="#0" id="circle50"/>
	<circle cx="255.139" cy="416.985" r="4" fill="#0" id="circle51"/>
	<circle cx="257.93" cy="10.9761" r="4" fill="#0" id="circle52"/>
	<circle cx="262.115" cy="429.541" r="4" fill="#0" id="circle53"/>
	<circle cx="263.511" cy="24.9283" r="4" fill="#0" id="circle54"/>
	<circle cx="264.906" cy="443.494" r="4" fill="#0" id="circle55"/>
	<circle cx="269.091" cy="457.446" r="4" fill="#0" id="circle56"/>
	<circle cx="270.487" cy="37.4852" r="4" fill="#0" id="circle57"/>
	<circle cx="270.487" cy="51.4374" r="4" fill="#0" id="circle58"/>
	<circle cx="270.487" cy="65.3896" r="4" fill="#0" id="circle59"/>
	<circle cx="277.463" cy="468.608" r="4" fill="#0" id="circle60"/>
	<circle cx="283.044" cy="482.56" r="4" fill="#0" id="circle61"/>
	<circle cx="284.439" cy="66.7848" r="4" fill="#0" id="circle62"/>
	<circle cx="290.02" cy="495.117" r="4" fill="#0" id="circle63"/>
	<circle cx="298.391" cy="66.7848" r="4" fill="#0" id="circle64"/>
	<circle cx="299.786" cy="506.278" r="4" fill="#0" id="circle65"/>
	<circle cx="306.762" cy="518.835" r="4" fill="#0" id="circle66"/>
	<circle cx="312.343" cy="66.7848" r="4" fill="#0" id="circle67"/>
	<circle cx="317.924" cy="528.602" r="4" fill="#0" id="circle68"/>
	<circle cx="324.9" cy="541.159" r="4" fill="#0" id="circle69"/>
	<circle cx="324.9" cy="555.111" r="4" fill="#0" id="circle70"/>
	<circle cx="326.295" cy="66.7848" r="4" fill="#0" id="circle71"/>
	<circle cx="333.271" cy="566.273" r="4" fill="#0" id="circle72"/>
	<circle cx="340.248" cy="66.7848" r="4" fill="#0" id="circle73"/>
	<circle cx="343.038" cy="577.435" r="4" fill="#0" id="circle74"/>
	<circle cx="354.2" cy="66.7848" r="4" fill="#0" id="circle75"/>
	<circle cx="356.99" cy="583.015" r="4" fill="#0" id="circle76"/>
	<circle cx="368.152" cy="66.7848" r="4" fill="#0" id="circle77"/>
	<circle cx="368.152" cy="591.387" r="4" fill="#0" id="circle78"/>
	<circle cx="380.709" cy="598.363" r="4" fill="#0" id="circle79"/>
	<circle cx="382.104" cy="70.9705" r="4" fill="#0" id="circle80"/>
	<circle cx="384.895" cy="612.315" r="4" fill="#0" id="circle81"/>
	<circle cx="391.871" cy="82.1322" r="4" fill="#0" id="circle82"/>
	<circle cx="391.871" cy="624.872" r="4" fill="#0" id="circle83"/>
	<circle cx="394.661" cy="698.819" r="4" fill="#0" id="circle84"/>
	<circle cx="394.661" cy="712.771" r="4" fill="#0" id="circle85"/>
	<circle cx="397.451" cy="638.824" r="4" fill="#0" id="circle86"/>
	<circle cx="403.032" cy="91.8987" r="4" fill="#0" id="circle87"/>
	<circle cx="403.032" cy="723.932" r="4" fill="#0" id="circle88"/>
	<circle cx="404.428" cy="651.381" r="4" fill="#0" id="circle89"/>
	<circle cx="405.823" cy="687.657" r="4" fill="#0" id="circle90"/>
	<circle cx="408.613" cy="665.333" r="4" fill="#0" id="circle91"/>
	<circle cx="411.404" cy="735.094" r="4" fill="#0" id="circle92"/>
	<circle cx="415.589" cy="98.8748" r="4" fill="#0" id="circle93"/>
	<circle cx="423.961" cy="110.037" r="4" fill="#0" id="circle94"/>
	<circle cx="425.356" cy="737.885" r="4" fill="#0" id="circle95"/>
	<circle cx="430.937" cy="122.594" r="4" fill="#0" id="circle96"/>
	<circle cx="430.937" cy="136.546" r="4" fill="#0" id="circle97"/>
	<circle cx="437.913" cy="149.103" r="4" fill="#0" id="circle98"/>
	<circle cx="437.913" cy="163.055" r="4" fill="#0" id="circle99"/>
	<circle cx="437.913" cy="744.861" r="4" fill="#0" id="circle100"/>
	<circle cx="443.494" cy="758.813" r="4" fill="#0" id="circle101"/>
	<circle cx="443.494" cy="772.765" r="4" fill="#0" id="circle102"/>
	<circle cx="444.889" cy="175.612" r="4" fill="#0" id="circle103"/>
	<circle cx="444.889" cy="189.564" r="4" fill="#0" id="circle104"/>
	<circle cx="444.889" cy="203.516" r="4" fill="#0" id="circle105"/>
	<circle cx="444.889" cy="217.468" r="4" fill="#0" id="circle106"/>
	<circle cx="444.889" cy="231.421" r="4" fill="#0" id="circle107"/>
	<circle cx="444.889" cy="245.373" r="4" fill="#0" id="circle108"/>
	<circle cx="444.889" cy="259.325" r="4" fill="#0" id="circle109"/>
	<circle cx="444.889" cy="273.277" r="4" fill="#0" id="circle110"/>
	<circle cx="444.889" cy="287.229" r="4" fill="#0" id="circle111"/>
	<circle cx="451.865" cy="783.927" r="4" fill="#0" id="circle112"/>
	<circle cx="456.051" cy="296.996" r="4" fill="#0" id="circle113"/>
	<circle cx="458.841" cy="689.052" r="4" fill="#0" id="circle114"/>
	<circle cx="458.841" cy="709.98" r="4" fill="#0" id="circle115"/>
	<circle cx="458.841" cy="723.932" r="4" fill="#0" id="circle116"/>
	<circle cx="458.841" cy="737.885" r="4" fill="#0" id="circle117"/>
	<circle cx="458.841" cy="751.837" r="4" fill="#0" id="circle118"/>
	<circle cx="465.817" cy="764.394" r="4" fill="#0" id="circle119"/>
	<circle cx="465.817" cy="778.346" r="4" fill="#0" id="circle120"/>
	<circle cx="468.608" cy="303.972" r="4" fill="#0" id="circle121"/>
	<circle cx="472.793" cy="682.076" r="4" fill="#0" id="circle122"/>
	<circle cx="481.165" cy="310.948" r="4" fill="#0" id="circle123"/>
	<circle cx="485.35" cy="675.1" r="4" fill="#0" id="circle124"/>
	<circle cx="492.326" cy="320.714" r="4" fill="#0" id="circle125"/>
	<circle cx="499.302" cy="670.914" r="4" fill="#0" id="circle126"/>
	<circle cx="500.698" cy="331.876" r="4" fill="#0" id="circle127"/>
	<circle cx="510.464" cy="659.752" r="4" fill="#0" id="circle128"/>
	<circle cx="513.255" cy="338.852" r="4" fill="#0" id="circle129"/>
	<circle cx="524.416" cy="347.224" r="4" fill="#0" id="circle130"/>
	<circle cx="524.416" cy="652.776" r="4" fill="#0" id="circle131"/>
	<circle cx="538.368" cy="352.805" r="4" fill="#0" id="circle132"/>
	<circle cx="538.368" cy="647.195" r="4" fill="#0" id="circle133"/>
	<circle cx="548.135" cy="363.966" r="4" fill="#0" id="circle134"/>
	<circle cx="552.321" cy="647.195" r="4" fill="#0" id="circle135"/>
	<circle cx="555.111" cy="376.523" r="4" fill="#0" id="circle136"/>
	<circle cx="563.482" cy="387.685" r="4" fill="#0" id="circle137"/>
	<circle cx="566.273" cy="645.8" r="4" fill="#0" id="circle138"/>
	<circle cx="570.459" cy="400.242" r="4" fill="#0" id="circle139"/>
	<circle cx="580.225" cy="640.219" r="4" fill="#0" id="circle140"/>
	<circle cx="584.411" cy="401.637" r="4" fill="#0" id="circle141"/>
	<circle cx="594.177" cy="640.219" r="4" fill="#0" id="circle142"/>
	<circle cx="595.572" cy="410.008" r="4" fill="#0" id="circle143"/>
	<circle cx="602.549" cy="422.565" r="4" fill="#0" id="circle144"/>
	<circle cx="608.129" cy="640.219" r="4" fill="#0" id="circle145"/>
	<circle cx="615.105" cy="429.541" r="4" fill="#0" id="circle146"/>
	<circle cx="619.291" cy="443.494" r="4" fill="#0" id="circle147"/>
	<circle cx="622.082" cy="640.219" r="4" fill="#0" id="circle148"/>
	<circle cx="630.453" cy="451.865" r="4" fill="#0" id="circle149"/>
	<circle cx="636.034" cy="640.219" r="4" fill="#0" id="circle150"/>
	<circle cx="640.219" cy="463.027" r="4" fill="#0" id="circle151"/>
	<circle cx="649.986" cy="640.219" r="4" fill="#0" id="circle152"/>
	<circle cx="651.381" cy="471.398" r="4" fill="#0" id="circle153"/>
	<circle cx="661.148" cy="482.56" r="4" fill="#0" id="circle154"/>
	<circle cx="663.938" cy="640.219" r="4" fill="#0" id="circle155"/>
	<circle cx="668.124" cy="495.117" r="4" fill="#0" id="circle156"/>
	<circle cx="676.495" cy="506.278" r="4" fill="#0" id="circle157"/>
	<circle cx="677.89" cy="640.219" r="4" fill="#0" id="circle158"/>
	<circle cx="682.076" cy="520.231" r="4" fill="#0" id="circle159"/>
	<circle cx="691.842" cy="640.219" r="4" fill="#0" id="circle160"/>
	<circle cx="696.028" cy="524.416" r="4" fill="#0" id="circle161"/>
	<circle cx="705.795" cy="535.578" r="4" fill="#0" id="circle162"/>
	<circle cx="705.795" cy="640.219" r="4" fill="#0" id="circle163"/>
	<circle cx="716.956" cy="545.345" r="4" fill="#0" id="circle164"/>
	<circle cx="719.747" cy="640.219" r="4" fill="#0" id="circle165"/>
	<circle cx="730.909" cy="548.135" r="4" fill="#0" id="circle166"/>
	<circle cx="733.699" cy="640.219" r="4" fill="#0" id="circle167"/>
	<circle cx="744.861" cy="552.321" r="4" fill="#0" id="circle168"/>
	<circle cx="747.651" cy="640.219" r="4" fill="#0" id="circle169"/>
	<circle cx="758.813" cy="555.111" r="4" fill="#0" id="circle170"/>
	<circle cx="761.603" cy="640.219" r="4" fill="#0" id="circle171"/>
	<circle cx="771.37" cy="562.087" r="4" fill="#0" id="circle172"/>
	<circle cx="775.556" cy="640.219" r="4" fill="#0" id="circle173"/>
	<circle cx="785.322" cy="562.087" r="4" fill="#0" id="circle174"/>
	<circle cx="789.508" cy="640.219" r="4" fill="#0" id="circle175"/>
	<circle cx="799.274" cy="564.878" r="4" fill="#0" id="circle176"/>
	<circle cx="803.46" cy="640.219" r="4" fill="#0" id="circle177"/>
	<circle cx="813.226" cy="569.063" r="4" fill="#0" id="circle178"/>
	<circle cx="817.412" cy="640.219" r="4" fill="#0" id="circle179"/>
	<circle cx="825.783" cy="576.039" r="4" fill="#0" id="circle180"/>
	<circle cx="831.364" cy="645.8" r="4" fill="#0" id="circle181"/>
	<circle cx="839.736" cy="576.039" r="4" fill="#0" id="circle182"/>
	<circle cx="845.316" cy="647.195" r="4" fill="#0" id="circle183"/>
	<circle cx="853.688" cy="576.039" r="4" fill="#0" id="circle184"/>
	<circle cx="859.269" cy="647.195" r="4" fill="#0" id="circle185"/>
	<circle cx="867.64" cy="577.435" r="4" fill="#0" id="circle186"/>
	<circle cx="873.221" cy="647.195" r="4" fill="#0" id="circle187"/>
	<circle cx="880.197" cy="584.411" r="4" fill="#0" id="circle188"/>
	<circle cx="887.173" cy="645.8" r="4" fill="#0" id="circle189"/>
	<circle cx="894.149" cy="589.992" r="4" fill="#0" id="circle190"/>
	<circle cx="901.125" cy="640.219" r="4" fill="#0" id="circle191"/>
	<circle cx="908.101" cy="589.992" r="4" fill="#0" id="circle192"/>
	<circle cx="915.077" cy="640.219" r="4" fill="#0" id="circle193"/>
	<circle cx="922.053" cy="589.992" r="4" fill="#0" id="circle194"/>
	<circle cx="929.03" cy="640.219" r="4" fill="#0" id="circle195"/>
	<circle cx="936.006" cy="589.992" r="4" fill="#0" id="circle196"/>
	<circle cx="942.982" cy="640.219" r="4" fill="#0" id="circle197"/>
	<circle cx="949.958" cy="589.992" r="4" fill="#0" id="circle198"/>
	<circle cx="956.934" cy="640.219" r="4" fill="#0" id="circle199"/>
	<circle cx="963.91" cy="589.992" r="4" fill="#0" id="circle200"/>
	<circle cx="969.491" cy="633.243" r="4" fill="#0" id="circle201"/>
	<circle cx="977.862" cy="589.992" r="4" fill="#0" id="circle202"/>
	<circle cx="982.048" cy="619.291" r="4" fill="#0" id="circle203"/>
	<circle cx="991.814" cy="589.992" r="4" fill="#0" id="circle204"/>
	<circle cx="996" cy="603.944" r="4" fill="#0" id="circle205"/>
	</g>
</svg>