<?xml version="1.0" encoding="UTF-8" standalone="no"?>
<!-- Created with CurveBenchmark -->
<svg
	xmlns:dc="http://purl.org/dc/elements/1.1/"
	xmlns:cc="http://creativecommons.org/ns#"
	xmlns:rdf="http://www.w3.org/1999/02/22-rdf-syntax-ns#"
	xmlns:svg="http://www.w3.org/2000/svg"
	xmlns="http://www.w3.org/2000/svg"
	xmlns:sodipodi="http://sodipodi.sourceforge.net/DTD/sodipodi-0.dtd"
	xmlns:inkscape="http://www.inkscape.org/namespaces/inkscape"
	width="1000"
	height="1000"
	id="svg2"
	version="1.1"
	sodipodi:docname="manifold/vicur-guitar335.png.txt">
<defs
	id="defs4" />
<metadata
	id="metadata7">
	<rdf:RDF>
		<cc:Work
			rdf:about="">
			<dc:format>image/svg+xml</dc:format>
			<dc:type
				rdf:resource="http://purl.org/dc/dcmitype/StillImage" />
			<dc:title></dc:title>
		</cc:Work>
	</rdf:RDF>
</metadata>
<g
	inkscape:label="Layer 1"
	inkscape:groupmode="layer"
	id="layer1">
	<path style="fill:none;stroke:red;stroke-width:1px;stroke-linecap:butt;stroke-linejoin:miter;stroke-opacity:1" d="M 4,801.836 4,837.139 z" id="boundary" inkscape:connector-curvature="0" />
	<path style="fill:none;stroke:red;stroke-width:1px;stroke-linecap:butt;stroke-linejoin:miter;stroke-opacity:1" d="M 4,801.836 18.121,766.534 z" id="boundary" inkscape:connector-curvature="0" />
	<path style="fill:none;stroke:red;stroke-width:1px;stroke-linecap:butt;stroke-linejoin:miter;stroke-opacity:1" d="M 4,837.139 4,872.441 z" id="boundary" inkscape:connector-curvature="0" />
	<path style="fill:none;stroke:red;stroke-width:1px;stroke-linecap:butt;stroke-linejoin:miter;stroke-opacity:1" d="M 4,872.441 18.121,907.744 z" id="boundary" inkscape:connector-curvature="0" />
	<path style="fill:none;stroke:red;stroke-width:1px;stroke-linecap:butt;stroke-linejoin:miter;stroke-opacity:1" d="M 18.121,766.534 35.7722,734.762 z" id="boundary" inkscape:connector-curvature="0" />
	<path style="fill:none;stroke:red;stroke-width:1px;stroke-linecap:butt;stroke-linejoin:miter;stroke-opacity:1" d="M 18.121,907.744 39.3025,935.986 z" id="boundary" inkscape:connector-curvature="0" />
	<path style="fill:none;stroke:red;stroke-width:1px;stroke-linecap:butt;stroke-linejoin:miter;stroke-opacity:1" d="M 35.7722,734.762 56.9537,706.52 z" id="boundary" inkscape:connector-curvature="0" />
	<path style="fill:none;stroke:red;stroke-width:1px;stroke-linecap:butt;stroke-linejoin:miter;stroke-opacity:1" d="M 39.3025,935.986 67.5445,957.167 z" id="boundary" inkscape:connector-curvature="0" />
	<path style="fill:none;stroke:red;stroke-width:1px;stroke-linecap:butt;stroke-linejoin:miter;stroke-opacity:1" d="M 46.363,561.779 46.363,597.082 z" id="boundary" inkscape:connector-curvature="0" />
	<path style="fill:none;stroke:red;stroke-width:1px;stroke-linecap:butt;stroke-linejoin:miter;stroke-opacity:1" d="M 46.363,561.779 64.0142,530.007 z" id="boundary" inkscape:connector-curvature="0" />
	<path style="fill:none;stroke:red;stroke-width:1px;stroke-linecap:butt;stroke-linejoin:miter;stroke-opacity:1" d="M 46.363,597.082 60.484,632.384 z" id="boundary" inkscape:connector-curvature="0" />
	<path style="fill:none;stroke:red;stroke-width:1px;stroke-linecap:butt;stroke-linejoin:miter;stroke-opacity:1" d="M 56.9537,706.52 67.5445,667.687 z" id="boundary" inkscape:connector-curvature="0" />
	<path style="fill:none;stroke:red;stroke-width:1px;stroke-linecap:butt;stroke-linejoin:miter;stroke-opacity:1" d="M 60.484,632.384 67.5445,667.687 z" id="boundary" inkscape:connector-curvature="0" />
	<path style="fill:none;stroke:red;stroke-width:1px;stroke-linecap:butt;stroke-linejoin:miter;stroke-opacity:1" d="M 64.0142,530.007 92.2562,505.295 z" id="boundary" inkscape:connector-curvature="0" />
	<path style="fill:none;stroke:red;stroke-width:1px;stroke-linecap:butt;stroke-linejoin:miter;stroke-opacity:1" d="M 67.5445,957.167 99.3167,974.819 z" id="boundary" inkscape:connector-curvature="0" />
	<path style="fill:none;stroke:red;stroke-width:1px;stroke-linecap:butt;stroke-linejoin:miter;stroke-opacity:1" d="M 92.2562,505.295 127.559,498.235 z" id="boundary" inkscape:connector-curvature="0" />
	<path style="fill:none;stroke:red;stroke-width:1px;stroke-linecap:butt;stroke-linejoin:miter;stroke-opacity:1" d="M 99.3167,974.819 134.619,988.94 z" id="boundary" inkscape:connector-curvature="0" />
	<path style="fill:none;stroke:red;stroke-width:1px;stroke-linecap:butt;stroke-linejoin:miter;stroke-opacity:1" d="M 127.559,498.235 152.27,469.993 z" id="boundary" inkscape:connector-curvature="0" />
	<path style="fill:none;stroke:red;stroke-width:1px;stroke-linecap:butt;stroke-linejoin:miter;stroke-opacity:1" d="M 134.619,988.94 169.922,988.94 z" id="boundary" inkscape:connector-curvature="0" />
	<path style="fill:none;stroke:red;stroke-width:1px;stroke-linecap:butt;stroke-linejoin:miter;stroke-opacity:1" d="M 145.21,88.726 152.27,25.1815 z" id="boundary" inkscape:connector-curvature="0" />
	<path style="fill:none;stroke:red;stroke-width:1px;stroke-linecap:butt;stroke-linejoin:miter;stroke-opacity:1" d="M 145.21,88.726 159.331,124.028 z" id="boundary" inkscape:connector-curvature="0" />
	<path style="fill:none;stroke:red;stroke-width:1px;stroke-linecap:butt;stroke-linejoin:miter;stroke-opacity:1" d="M 152.27,25.1815 180.512,4 z" id="boundary" inkscape:connector-curvature="0" />
	<path style="fill:none;stroke:red;stroke-width:1px;stroke-linecap:butt;stroke-linejoin:miter;stroke-opacity:1" d="M 152.27,328.783 152.27,364.085 z" id="boundary" inkscape:connector-curvature="0" />
	<path style="fill:none;stroke:red;stroke-width:1px;stroke-linecap:butt;stroke-linejoin:miter;stroke-opacity:1" d="M 152.27,328.783 159.331,265.238 z" id="boundary" inkscape:connector-curvature="0" />
	<path style="fill:none;stroke:red;stroke-width:1px;stroke-linecap:butt;stroke-linejoin:miter;stroke-opacity:1" d="M 152.27,364.085 152.27,399.388 z" id="boundary" inkscape:connector-curvature="0" />
	<path style="fill:none;stroke:red;stroke-width:1px;stroke-linecap:butt;stroke-linejoin:miter;stroke-opacity:1" d="M 152.27,399.388 152.27,434.69 z" id="boundary" inkscape:connector-curvature="0" />
	<path style="fill:none;stroke:red;stroke-width:1px;stroke-linecap:butt;stroke-linejoin:miter;stroke-opacity:1" d="M 152.27,434.69 152.27,469.993 z" id="boundary" inkscape:connector-curvature="0" />
	<path style="fill:none;stroke:red;stroke-width:1px;stroke-linecap:butt;stroke-linejoin:miter;stroke-opacity:1" d="M 159.331,124.028 159.331,159.331 z" id="boundary" inkscape:connector-curvature="0" />
	<path style="fill:none;stroke:red;stroke-width:1px;stroke-linecap:butt;stroke-linejoin:miter;stroke-opacity:1" d="M 159.331,159.331 159.331,194.633 z" id="boundary" inkscape:connector-curvature="0" />
	<path style="fill:none;stroke:red;stroke-width:1px;stroke-linecap:butt;stroke-linejoin:miter;stroke-opacity:1" d="M 159.331,194.633 159.331,229.936 z" id="boundary" inkscape:connector-curvature="0" />
	<path style="fill:none;stroke:red;stroke-width:1px;stroke-linecap:butt;stroke-linejoin:miter;stroke-opacity:1" d="M 159.331,229.936 159.331,265.238 z" id="boundary" inkscape:connector-curvature="0" />
	<path style="fill:none;stroke:red;stroke-width:1px;stroke-linecap:butt;stroke-linejoin:miter;stroke-opacity:1" d="M 169.922,988.94 205.224,996 z" id="boundary" inkscape:connector-curvature="0" />
	<path style="fill:none;stroke:red;stroke-width:1px;stroke-linecap:butt;stroke-linejoin:miter;stroke-opacity:1" d="M 180.512,4 215.815,4 z" id="boundary" inkscape:connector-curvature="0" />
	<path style="fill:none;stroke:red;stroke-width:1px;stroke-linecap:butt;stroke-linejoin:miter;stroke-opacity:1" d="M 205.224,124.028 205.224,159.331 z" id="boundary" inkscape:connector-curvature="0" />
	<path style="fill:none;stroke:red;stroke-width:1px;stroke-linecap:butt;stroke-linejoin:miter;stroke-opacity:1" d="M 205.224,124.028 219.345,74.605 z" id="boundary" inkscape:connector-curvature="0" />
	<path style="fill:none;stroke:red;stroke-width:1px;stroke-linecap:butt;stroke-linejoin:miter;stroke-opacity:1" d="M 205.224,159.331 205.224,194.633 z" id="boundary" inkscape:connector-curvature="0" />
	<path style="fill:none;stroke:red;stroke-width:1px;stroke-linecap:butt;stroke-linejoin:miter;stroke-opacity:1" d="M 205.224,194.633 205.224,229.936 z" id="boundary" inkscape:connector-curvature="0" />
	<path style="fill:none;stroke:red;stroke-width:1px;stroke-linecap:butt;stroke-linejoin:miter;stroke-opacity:1" d="M 205.224,229.936 212.285,265.238 z" id="boundary" inkscape:connector-curvature="0" />
	<path style="fill:none;stroke:red;stroke-width:1px;stroke-linecap:butt;stroke-linejoin:miter;stroke-opacity:1" d="M 205.224,996 240.527,988.94 z" id="boundary" inkscape:connector-curvature="0" />
	<path style="fill:none;stroke:red;stroke-width:1px;stroke-linecap:butt;stroke-linejoin:miter;stroke-opacity:1" d="M 212.285,265.238 212.285,300.541 z" id="boundary" inkscape:connector-curvature="0" />
	<path style="fill:none;stroke:red;stroke-width:1px;stroke-linecap:butt;stroke-linejoin:miter;stroke-opacity:1" d="M 212.285,300.541 212.285,335.843 z" id="boundary" inkscape:connector-curvature="0" />
	<path style="fill:none;stroke:red;stroke-width:1px;stroke-linecap:butt;stroke-linejoin:miter;stroke-opacity:1" d="M 212.285,335.843 212.285,371.146 z" id="boundary" inkscape:connector-curvature="0" />
	<path style="fill:none;stroke:red;stroke-width:1px;stroke-linecap:butt;stroke-linejoin:miter;stroke-opacity:1" d="M 212.285,371.146 212.285,406.448 z" id="boundary" inkscape:connector-curvature="0" />
	<path style="fill:none;stroke:red;stroke-width:1px;stroke-linecap:butt;stroke-linejoin:miter;stroke-opacity:1" d="M 212.285,406.448 212.285,441.751 z" id="boundary" inkscape:connector-curvature="0" />
	<path style="fill:none;stroke:red;stroke-width:1px;stroke-linecap:butt;stroke-linejoin:miter;stroke-opacity:1" d="M 212.285,441.751 222.875,477.053 z" id="boundary" inkscape:connector-curvature="0" />
	<path style="fill:none;stroke:red;stroke-width:1px;stroke-linecap:butt;stroke-linejoin:miter;stroke-opacity:1" d="M 215.815,4 226.406,39.3025 z" id="boundary" inkscape:connector-curvature="0" />
	<path style="fill:none;stroke:red;stroke-width:1px;stroke-linecap:butt;stroke-linejoin:miter;stroke-opacity:1" d="M 219.345,74.605 226.406,39.3025 z" id="boundary" inkscape:connector-curvature="0" />
	<path style="fill:none;stroke:red;stroke-width:1px;stroke-linecap:butt;stroke-linejoin:miter;stroke-opacity:1" d="M 222.875,477.053 247.587,505.295 z" id="boundary" inkscape:connector-curvature="0" />
	<path style="fill:none;stroke:red;stroke-width:1px;stroke-linecap:butt;stroke-linejoin:miter;stroke-opacity:1" d="M 240.527,988.94 275.829,981.879 z" id="boundary" inkscape:connector-curvature="0" />
	<path style="fill:none;stroke:red;stroke-width:1px;stroke-linecap:butt;stroke-linejoin:miter;stroke-opacity:1" d="M 247.587,505.295 254.648,540.598 z" id="boundary" inkscape:connector-curvature="0" />
	<path style="fill:none;stroke:red;stroke-width:1px;stroke-linecap:butt;stroke-linejoin:miter;stroke-opacity:1" d="M 254.648,540.598 275.829,568.84 z" id="boundary" inkscape:connector-curvature="0" />
	<path style="fill:none;stroke:red;stroke-width:1px;stroke-linecap:butt;stroke-linejoin:miter;stroke-opacity:1" d="M 275.829,568.84 300.541,540.598 z" id="boundary" inkscape:connector-curvature="0" />
	<path style="fill:none;stroke:red;stroke-width:1px;stroke-linecap:butt;stroke-linejoin:miter;stroke-opacity:1" d="M 275.829,981.879 311.132,971.288 z" id="boundary" inkscape:connector-curvature="0" />
	<path style="fill:none;stroke:red;stroke-width:1px;stroke-linecap:butt;stroke-linejoin:miter;stroke-opacity:1" d="M 300.541,540.598 335.843,540.598 z" id="boundary" inkscape:connector-curvature="0" />
	<path style="fill:none;stroke:red;stroke-width:1px;stroke-linecap:butt;stroke-linejoin:miter;stroke-opacity:1" d="M 311.132,971.288 339.374,950.107 z" id="boundary" inkscape:connector-curvature="0" />
	<path style="fill:none;stroke:red;stroke-width:1px;stroke-linecap:butt;stroke-linejoin:miter;stroke-opacity:1" d="M 332.313,653.566 339.374,688.868 z" id="boundary" inkscape:connector-curvature="0" />
	<path style="fill:none;stroke:red;stroke-width:1px;stroke-linecap:butt;stroke-linejoin:miter;stroke-opacity:1" d="M 332.313,653.566 346.434,618.263 z" id="boundary" inkscape:connector-curvature="0" />
	<path style="fill:none;stroke:red;stroke-width:1px;stroke-linecap:butt;stroke-linejoin:miter;stroke-opacity:1" d="M 335.843,540.598 357.025,568.84 z" id="boundary" inkscape:connector-curvature="0" />
	<path style="fill:none;stroke:red;stroke-width:1px;stroke-linecap:butt;stroke-linejoin:miter;stroke-opacity:1" d="M 339.374,688.868 357.025,720.641 z" id="boundary" inkscape:connector-curvature="0" />
	<path style="fill:none;stroke:red;stroke-width:1px;stroke-linecap:butt;stroke-linejoin:miter;stroke-opacity:1" d="M 339.374,950.107 367.616,921.865 z" id="boundary" inkscape:connector-curvature="0" />
	<path style="fill:none;stroke:red;stroke-width:1px;stroke-linecap:butt;stroke-linejoin:miter;stroke-opacity:1" d="M 346.434,618.263 357.025,568.84 z" id="boundary" inkscape:connector-curvature="0" />
	<path style="fill:none;stroke:red;stroke-width:1px;stroke-linecap:butt;stroke-linejoin:miter;stroke-opacity:1" d="M 357.025,720.641 374.676,752.413 z" id="boundary" inkscape:connector-curvature="0" />
	<path style="fill:none;stroke:red;stroke-width:1px;stroke-linecap:butt;stroke-linejoin:miter;stroke-opacity:1" d="M 367.616,921.865 385.267,890.093 z" id="boundary" inkscape:connector-curvature="0" />
	<path style="fill:none;stroke:red;stroke-width:1px;stroke-linecap:butt;stroke-linejoin:miter;stroke-opacity:1" d="M 374.676,752.413 388.797,787.715 z" id="boundary" inkscape:connector-curvature="0" />
	<path style="fill:none;stroke:red;stroke-width:1px;stroke-linecap:butt;stroke-linejoin:miter;stroke-opacity:1" d="M 385.267,890.093 395.858,823.018 z" id="boundary" inkscape:connector-curvature="0" />
	<path style="fill:none;stroke:red;stroke-width:1px;stroke-linecap:butt;stroke-linejoin:miter;stroke-opacity:1" d="M 388.797,787.715 395.858,823.018 z" id="boundary" inkscape:connector-curvature="0" />
	<circle cx="4" cy="801.836" r="4" fill="#0" id="circle0"/>
	<circle cx="4" cy="837.139" r="4" fill="#0" id="circle1"/>
	<circle cx="4" cy="872.441" r="4" fill="#0" id="circle2"/>
	<circle cx="18.121" cy="766.534" r="4" fill="#0" id="circle3"/>
	<circle cx="18.121" cy="907.744" r="4" fill="#0" id="circle4"/>
	<circle cx="35.7722" cy="734.762" r="4" fill="#0" id="circle5"/>
	<circle cx="39.3025" cy="935.986" r="4" fill="#0" id="circle6"/>
	<circle cx="46.363" cy="561.779" r="4" fill="#0" id="circle7"/>
	<circle cx="46.363" cy="597.082" r="4" fill="#0" id="circle8"/>
	<circle cx="56.9537" cy="706.52" r="4" fill="#0" id="circle9"/>
	<circle cx="60.484" cy="632.384" r="4" fill="#0" id="circle10"/>
	<circle cx="64.0142" cy="530.007" r="4" fill="#0" id="circle11"/>
	<circle cx="67.5445" cy="667.687" r="4" fill="#0" id="circle12"/>
	<circle cx="67.5445" cy="957.167" r="4" fill="#0" id="circle13"/>
	<circle cx="92.2562" cy="505.295" r="4" fill="#0" id="circle14"/>
	<circle cx="99.3167" cy="974.819" r="4" fill="#0" id="circle15"/>
	<circle cx="127.559" cy="498.235" r="4" fill="#0" id="circle16"/>
	<circle cx="134.619" cy="988.94" r="4" fill="#0" id="circle17"/>
	<circle cx="145.21" cy="88.726" r="4" fill="#0" id="circle18"/>
	<circle cx="152.27" cy="25.1815" r="4" fill="#0" id="circle19"/>
	<circle cx="152.27" cy="328.783" r="4" fill="#0" id="circle20"/>
	<circle cx="152.27" cy="364.085" r="4" fill="#0" id="circle21"/>
	<circle cx="152.27" cy="399.388" r="4" fill="#0" id="circle22"/>
	<circle cx="152.27" cy="434.69" r="4" fill="#0" id="circle23"/>
	<circle cx="152.27" cy="469.993" r="4" fill="#0" id="circle24"/>
	<circle cx="159.331" cy="124.028" r="4" fill="#0" id="circle25"/>
	<circle cx="159.331" cy="159.331" r="4" fill="#0" id="circle26"/>
	<circle cx="159.331" cy="194.633" r="4" fill="#0" id="circle27"/>
	<circle cx="159.331" cy="229.936" r="4" fill="#0" id="circle28"/>
	<circle cx="159.331" cy="265.238" r="4" fill="#0" id="circle29"/>
	<circle cx="169.922" cy="988.94" r="4" fill="#0" id="circle30"/>
	<circle cx="180.512" cy="4" r="4" fill="#0" id="circle31"/>
	<circle cx="205.224" cy="124.028" r="4" fill="#0" id="circle32"/>
	<circle cx="205.224" cy="159.331" r="4" fill="#0" id="circle33"/>
	<circle cx="205.224" cy="194.633" r="4" fill="#0" id="circle34"/>
	<circle cx="205.224" cy="229.936" r="4" fill="#0" id="circle35"/>
	<circle cx="205.224" cy="996" r="4" fill="#0" id="circle36"/>
	<circle cx="212.285" cy="265.238" r="4" fill="#0" id="circle37"/>
	<circle cx="212.285" cy="300.541" r="4" fill="#0" id="circle38"/>
	<circle cx="212.285" cy="335.843" r="4" fill="#0" id="circle39"/>
	<circle cx="212.285" cy="371.146" r="4" fill="#0" id="circle40"/>
	<circle cx="212.285" cy="406.448" r="4" fill="#0" id="circle41"/>
	<circle cx="212.285" cy="441.751" r="4" fill="#0" id="circle42"/>
	<circle cx="215.815" cy="4" r="4" fill="#0" id="circle43"/>
	<circle cx="219.345" cy="74.605" r="4" fill="#0" id="circle44"/>
	<circle cx="222.875" cy="477.053" r="4" fill="#0" id="circle45"/>
	<circle cx="226.406" cy="39.3025" r="4" fill="#0" id="circle46"/>
	<circle cx="240.527" cy="988.94" r="4" fill="#0" id="circle47"/>
	<circle cx="247.587" cy="505.295" r="4" fill="#0" id="circle48"/>
	<circle cx="254.648" cy="540.598" r="4" fill="#0" id="circle49"/>
	<circle cx="275.829" cy="568.84" r="4" fill="#0" id="circle50"/>
	<circle cx="275.829" cy="981.879" r="4" fill="#0" id="circle51"/>
	<circle cx="300.541" cy="540.598" r="4" fill="#0" id="circle52"/>
	<circle cx="311.132" cy="971.288" r="4" fill="#0" id="circle53"/>
	<circle cx="332.313" cy="653.566" r="4" fill="#0" id="circle54"/>
	<circle cx="335.843" cy="540.598" r="4" fill="#0" id="circle55"/>
	<circle cx="339.374" cy="688.868" r="4" fill="#0" id="circle56"/>
	<circle cx="339.374" cy="950.107" r="4" fill="#0" id="circle57"/>
	<circle cx="346.434" cy="618.263" r="4" fill="#0" id="circle58"/>
	<circle cx="357.025" cy="568.84" r="4" fill="#0" id="circle59"/>
	<circle cx="357.025" cy="720.641" r="4" fill="#0" id="circle60"/>
	<circle cx="367.616" cy="921.865" r="4" fill="#0" id="circle61"/>
	<circle cx="374.676" cy="752.413" r="4" fill="#0" id="circle62"/>
	<circle cx="385.267" cy="890.093" r="4" fill="#0" id="circle63"/>
	<circle cx="388.797" cy="787.715" r="4" fill="#0" id="circle64"/>
	<circle cx="395.858" cy="823.018" r="4" fill="#0" id="circle65"/>
	</g>
</svg>