<?xml version="1.0" encoding="UTF-8" standalone="no"?>
<!-- Created with CurveBenchmark -->
<svg
	xmlns:dc="http://purl.org/dc/elements/1.1/"
	xmlns:cc="http://creativecommons.org/ns#"
	xmlns:rdf="http://www.w3.org/1999/02/22-rdf-syntax-ns#"
	xmlns:svg="http://www.w3.org/2000/svg"
	xmlns="http://www.w3.org/2000/svg"
	xmlns:sodipodi="http://sodipodi.sourceforge.net/DTD/sodipodi-0.dtd"
	xmlns:inkscape="http://www.inkscape.org/namespaces/inkscape"
	width="1000"
	height="1000"
	id="svg2"
	version="1.1"
	sodipodi:docname="manifold/vicur-dino08.png.txt">
<defs
	id="defs4" />
<metadata
	id="metadata7">
	<rdf:RDF>
		<cc:Work
			rdf:about="">
			<dc:format>image/svg+xml</dc:format>
			<dc:type
				rdf:resource="http://purl.org/dc/dcmitype/StillImage" />
			<dc:title></dc:title>
		</cc:Work>
	</rdf:RDF>
</metadata>
<g
	inkscape:label="Layer 1"
	inkscape:groupmode="layer"
	id="layer1">
	<path style="fill:none;stroke:red;stroke-width:1px;stroke-linecap:butt;stroke-linejoin:miter;stroke-opacity:1" d="M 4,282.299 10.733,291.276 z" id="boundary" inkscape:connector-curvature="0" />
	<path style="fill:none;stroke:red;stroke-width:1px;stroke-linecap:butt;stroke-linejoin:miter;stroke-opacity:1" d="M 9.61086,248.633 9.61086,259.855 z" id="boundary" inkscape:connector-curvature="0" />
	<path style="fill:none;stroke:red;stroke-width:1px;stroke-linecap:butt;stroke-linejoin:miter;stroke-opacity:1" d="M 9.61086,248.633 20.8326,243.023 z" id="boundary" inkscape:connector-curvature="0" />
	<path style="fill:none;stroke:red;stroke-width:1px;stroke-linecap:butt;stroke-linejoin:miter;stroke-opacity:1" d="M 9.61086,259.855 12.9774,273.321 z" id="boundary" inkscape:connector-curvature="0" />
	<path style="fill:none;stroke:red;stroke-width:1px;stroke-linecap:butt;stroke-linejoin:miter;stroke-opacity:1" d="M 10.733,291.276 20.8326,285.665 z" id="boundary" inkscape:connector-curvature="0" />
	<path style="fill:none;stroke:red;stroke-width:1px;stroke-linecap:butt;stroke-linejoin:miter;stroke-opacity:1" d="M 12.9774,273.321 24.1991,273.321 z" id="boundary" inkscape:connector-curvature="0" />
	<path style="fill:none;stroke:red;stroke-width:1px;stroke-linecap:butt;stroke-linejoin:miter;stroke-opacity:1" d="M 20.8326,243.023 32.0543,239.656 z" id="boundary" inkscape:connector-curvature="0" />
	<path style="fill:none;stroke:red;stroke-width:1px;stroke-linecap:butt;stroke-linejoin:miter;stroke-opacity:1" d="M 20.8326,257.611 32.0543,257.611 z" id="boundary" inkscape:connector-curvature="0" />
	<path style="fill:none;stroke:red;stroke-width:1px;stroke-linecap:butt;stroke-linejoin:miter;stroke-opacity:1" d="M 20.8326,285.665 32.0543,285.665 z" id="boundary" inkscape:connector-curvature="0" />
	<path style="fill:none;stroke:red;stroke-width:1px;stroke-linecap:butt;stroke-linejoin:miter;stroke-opacity:1" d="M 24.1991,273.321 37.6652,267.71 z" id="boundary" inkscape:connector-curvature="0" />
	<path style="fill:none;stroke:red;stroke-width:1px;stroke-linecap:butt;stroke-linejoin:miter;stroke-opacity:1" d="M 26.4434,35.4208 26.4434,46.6425 z" id="boundary" inkscape:connector-curvature="0" />
	<path style="fill:none;stroke:red;stroke-width:1px;stroke-linecap:butt;stroke-linejoin:miter;stroke-opacity:1" d="M 26.4434,35.4208 35.4208,26.4434 z" id="boundary" inkscape:connector-curvature="0" />
	<path style="fill:none;stroke:red;stroke-width:1px;stroke-linecap:butt;stroke-linejoin:miter;stroke-opacity:1" d="M 26.4434,46.6425 35.4208,54.4977 z" id="boundary" inkscape:connector-curvature="0" />
	<path style="fill:none;stroke:red;stroke-width:1px;stroke-linecap:butt;stroke-linejoin:miter;stroke-opacity:1" d="M 32.0543,97.1403 32.0543,108.362 z" id="boundary" inkscape:connector-curvature="0" />
	<path style="fill:none;stroke:red;stroke-width:1px;stroke-linecap:butt;stroke-linejoin:miter;stroke-opacity:1" d="M 32.0543,97.1403 41.0317,88.1629 z" id="boundary" inkscape:connector-curvature="0" />
	<path style="fill:none;stroke:red;stroke-width:1px;stroke-linecap:butt;stroke-linejoin:miter;stroke-opacity:1" d="M 32.0543,108.362 41.0317,116.217 z" id="boundary" inkscape:connector-curvature="0" />
	<path style="fill:none;stroke:red;stroke-width:1px;stroke-linecap:butt;stroke-linejoin:miter;stroke-opacity:1" d="M 32.0543,239.656 43.276,239.656 z" id="boundary" inkscape:connector-curvature="0" />
	<path style="fill:none;stroke:red;stroke-width:1px;stroke-linecap:butt;stroke-linejoin:miter;stroke-opacity:1" d="M 32.0543,285.665 42.1538,291.276 z" id="boundary" inkscape:connector-curvature="0" />
	<path style="fill:none;stroke:red;stroke-width:1px;stroke-linecap:butt;stroke-linejoin:miter;stroke-opacity:1" d="M 35.4208,26.4434 45.5204,20.8326 z" id="boundary" inkscape:connector-curvature="0" />
	<path style="fill:none;stroke:red;stroke-width:1px;stroke-linecap:butt;stroke-linejoin:miter;stroke-opacity:1" d="M 35.4208,54.4977 44.3982,61.2308 z" id="boundary" inkscape:connector-curvature="0" />
	<path style="fill:none;stroke:red;stroke-width:1px;stroke-linecap:butt;stroke-linejoin:miter;stroke-opacity:1" d="M 37.6652,267.71 43.276,257.611 z" id="boundary" inkscape:connector-curvature="0" />
	<path style="fill:none;stroke:red;stroke-width:1px;stroke-linecap:butt;stroke-linejoin:miter;stroke-opacity:1" d="M 41.0317,88.1629 52.2534,88.1629 z" id="boundary" inkscape:connector-curvature="0" />
	<path style="fill:none;stroke:red;stroke-width:1px;stroke-linecap:butt;stroke-linejoin:miter;stroke-opacity:1" d="M 41.0317,116.217 52.2534,117.339 z" id="boundary" inkscape:connector-curvature="0" />
	<path style="fill:none;stroke:red;stroke-width:1px;stroke-linecap:butt;stroke-linejoin:miter;stroke-opacity:1" d="M 42.1538,291.276 53.3756,291.276 z" id="boundary" inkscape:connector-curvature="0" />
	<path style="fill:none;stroke:red;stroke-width:1px;stroke-linecap:butt;stroke-linejoin:miter;stroke-opacity:1" d="M 43.276,239.656 53.3756,245.267 z" id="boundary" inkscape:connector-curvature="0" />
	<path style="fill:none;stroke:red;stroke-width:1px;stroke-linecap:butt;stroke-linejoin:miter;stroke-opacity:1" d="M 43.276,257.611 63.4751,250.878 z" id="boundary" inkscape:connector-curvature="0" />
	<path style="fill:none;stroke:red;stroke-width:1px;stroke-linecap:butt;stroke-linejoin:miter;stroke-opacity:1" d="M 44.3982,61.2308 55.6199,63.4751 z" id="boundary" inkscape:connector-curvature="0" />
	<path style="fill:none;stroke:red;stroke-width:1px;stroke-linecap:butt;stroke-linejoin:miter;stroke-opacity:1" d="M 45.5204,20.8326 56.7421,20.8326 z" id="boundary" inkscape:connector-curvature="0" />
	<path style="fill:none;stroke:red;stroke-width:1px;stroke-linecap:butt;stroke-linejoin:miter;stroke-opacity:1" d="M 52.2534,88.1629 63.4751,88.1629 z" id="boundary" inkscape:connector-curvature="0" />
	<path style="fill:none;stroke:red;stroke-width:1px;stroke-linecap:butt;stroke-linejoin:miter;stroke-opacity:1" d="M 52.2534,117.339 63.4751,117.339 z" id="boundary" inkscape:connector-curvature="0" />
	<path style="fill:none;stroke:red;stroke-width:1px;stroke-linecap:butt;stroke-linejoin:miter;stroke-opacity:1" d="M 53.3756,245.267 63.4751,250.878 z" id="boundary" inkscape:connector-curvature="0" />
	<path style="fill:none;stroke:red;stroke-width:1px;stroke-linecap:butt;stroke-linejoin:miter;stroke-opacity:1" d="M 53.3756,291.276 63.4751,296.887 z" id="boundary" inkscape:connector-curvature="0" />
	<path style="fill:none;stroke:red;stroke-width:1px;stroke-linecap:butt;stroke-linejoin:miter;stroke-opacity:1" d="M 55.6199,63.4751 66.8416,66.8416 z" id="boundary" inkscape:connector-curvature="0" />
	<path style="fill:none;stroke:red;stroke-width:1px;stroke-linecap:butt;stroke-linejoin:miter;stroke-opacity:1" d="M 56.7421,20.8326 67.9638,20.8326 z" id="boundary" inkscape:connector-curvature="0" />
	<path style="fill:none;stroke:red;stroke-width:1px;stroke-linecap:butt;stroke-linejoin:miter;stroke-opacity:1" d="M 63.4751,88.1629 74.6968,88.1629 z" id="boundary" inkscape:connector-curvature="0" />
	<path style="fill:none;stroke:red;stroke-width:1px;stroke-linecap:butt;stroke-linejoin:miter;stroke-opacity:1" d="M 63.4751,117.339 74.6968,117.339 z" id="boundary" inkscape:connector-curvature="0" />
	<path style="fill:none;stroke:red;stroke-width:1px;stroke-linecap:butt;stroke-linejoin:miter;stroke-opacity:1" d="M 63.4751,296.887 74.6968,296.887 z" id="boundary" inkscape:connector-curvature="0" />
	<path style="fill:none;stroke:red;stroke-width:1px;stroke-linecap:butt;stroke-linejoin:miter;stroke-opacity:1" d="M 66.8416,66.8416 78.0633,66.8416 z" id="boundary" inkscape:connector-curvature="0" />
	<path style="fill:none;stroke:red;stroke-width:1px;stroke-linecap:butt;stroke-linejoin:miter;stroke-opacity:1" d="M 67.9638,20.8326 79.1855,16.3439 z" id="boundary" inkscape:connector-curvature="0" />
	<path style="fill:none;stroke:red;stroke-width:1px;stroke-linecap:butt;stroke-linejoin:miter;stroke-opacity:1" d="M 71.3303,259.855 78.0633,268.833 z" id="boundary" inkscape:connector-curvature="0" />
	<path style="fill:none;stroke:red;stroke-width:1px;stroke-linecap:butt;stroke-linejoin:miter;stroke-opacity:1" d="M 74.6968,88.1629 85.9186,82.552 z" id="boundary" inkscape:connector-curvature="0" />
	<path style="fill:none;stroke:red;stroke-width:1px;stroke-linecap:butt;stroke-linejoin:miter;stroke-opacity:1" d="M 74.6968,117.339 85.9186,117.339 z" id="boundary" inkscape:connector-curvature="0" />
	<path style="fill:none;stroke:red;stroke-width:1px;stroke-linecap:butt;stroke-linejoin:miter;stroke-opacity:1" d="M 74.6968,296.887 83.6742,304.742 z" id="boundary" inkscape:connector-curvature="0" />
	<path style="fill:none;stroke:red;stroke-width:1px;stroke-linecap:butt;stroke-linejoin:miter;stroke-opacity:1" d="M 78.0633,66.8416 91.5294,72.4525 z" id="boundary" inkscape:connector-curvature="0" />
	<path style="fill:none;stroke:red;stroke-width:1px;stroke-linecap:butt;stroke-linejoin:miter;stroke-opacity:1" d="M 78.0633,268.833 83.6742,278.932 z" id="boundary" inkscape:connector-curvature="0" />
	<path style="fill:none;stroke:red;stroke-width:1px;stroke-linecap:butt;stroke-linejoin:miter;stroke-opacity:1" d="M 79.1855,16.3439 90.4072,15.2217 z" id="boundary" inkscape:connector-curvature="0" />
	<path style="fill:none;stroke:red;stroke-width:1px;stroke-linecap:butt;stroke-linejoin:miter;stroke-opacity:1" d="M 82.552,416.959 82.552,428.181 z" id="boundary" inkscape:connector-curvature="0" />
	<path style="fill:none;stroke:red;stroke-width:1px;stroke-linecap:butt;stroke-linejoin:miter;stroke-opacity:1" d="M 82.552,416.959 91.5294,407.982 z" id="boundary" inkscape:connector-curvature="0" />
	<path style="fill:none;stroke:red;stroke-width:1px;stroke-linecap:butt;stroke-linejoin:miter;stroke-opacity:1" d="M 82.552,428.181 82.552,439.403 z" id="boundary" inkscape:connector-curvature="0" />
	<path style="fill:none;stroke:red;stroke-width:1px;stroke-linecap:butt;stroke-linejoin:miter;stroke-opacity:1" d="M 82.552,439.403 88.1629,449.502 z" id="boundary" inkscape:connector-curvature="0" />
	<path style="fill:none;stroke:red;stroke-width:1px;stroke-linecap:butt;stroke-linejoin:miter;stroke-opacity:1" d="M 83.6742,278.932 89.2851,289.032 z" id="boundary" inkscape:connector-curvature="0" />
	<path style="fill:none;stroke:red;stroke-width:1px;stroke-linecap:butt;stroke-linejoin:miter;stroke-opacity:1" d="M 83.6742,304.742 91.5294,313.719 z" id="boundary" inkscape:connector-curvature="0" />
	<path style="fill:none;stroke:red;stroke-width:1px;stroke-linecap:butt;stroke-linejoin:miter;stroke-opacity:1" d="M 85.9186,82.552 97.1403,82.552 z" id="boundary" inkscape:connector-curvature="0" />
	<path style="fill:none;stroke:red;stroke-width:1px;stroke-linecap:butt;stroke-linejoin:miter;stroke-opacity:1" d="M 85.9186,117.339 97.1403,117.339 z" id="boundary" inkscape:connector-curvature="0" />
	<path style="fill:none;stroke:red;stroke-width:1px;stroke-linecap:butt;stroke-linejoin:miter;stroke-opacity:1" d="M 88.1629,449.502 99.3846,453.991 z" id="boundary" inkscape:connector-curvature="0" />
	<path style="fill:none;stroke:red;stroke-width:1px;stroke-linecap:butt;stroke-linejoin:miter;stroke-opacity:1" d="M 89.2851,289.032 98.2624,295.765 z" id="boundary" inkscape:connector-curvature="0" />
	<path style="fill:none;stroke:red;stroke-width:1px;stroke-linecap:butt;stroke-linejoin:miter;stroke-opacity:1" d="M 90.4072,15.2217 101.629,15.2217 z" id="boundary" inkscape:connector-curvature="0" />
	<path style="fill:none;stroke:red;stroke-width:1px;stroke-linecap:butt;stroke-linejoin:miter;stroke-opacity:1" d="M 91.5294,72.4525 97.1403,82.552 z" id="boundary" inkscape:connector-curvature="0" />
	<path style="fill:none;stroke:red;stroke-width:1px;stroke-linecap:butt;stroke-linejoin:miter;stroke-opacity:1" d="M 91.5294,313.719 100.507,321.575 z" id="boundary" inkscape:connector-curvature="0" />
	<path style="fill:none;stroke:red;stroke-width:1px;stroke-linecap:butt;stroke-linejoin:miter;stroke-opacity:1" d="M 91.5294,407.982 97.1403,396.76 z" id="boundary" inkscape:connector-curvature="0" />
	<path style="fill:none;stroke:red;stroke-width:1px;stroke-linecap:butt;stroke-linejoin:miter;stroke-opacity:1" d="M 94.8959,425.937 100.507,436.036 z" id="boundary" inkscape:connector-curvature="0" />
	<path style="fill:none;stroke:red;stroke-width:1px;stroke-linecap:butt;stroke-linejoin:miter;stroke-opacity:1" d="M 97.1403,117.339 108.362,117.339 z" id="boundary" inkscape:connector-curvature="0" />
	<path style="fill:none;stroke:red;stroke-width:1px;stroke-linecap:butt;stroke-linejoin:miter;stroke-opacity:1" d="M 97.1403,396.76 106.118,387.783 z" id="boundary" inkscape:connector-curvature="0" />
	<path style="fill:none;stroke:red;stroke-width:1px;stroke-linecap:butt;stroke-linejoin:miter;stroke-opacity:1" d="M 98.2624,295.765 108.362,301.376 z" id="boundary" inkscape:connector-curvature="0" />
	<path style="fill:none;stroke:red;stroke-width:1px;stroke-linecap:butt;stroke-linejoin:miter;stroke-opacity:1" d="M 99.3846,453.991 110.606,453.991 z" id="boundary" inkscape:connector-curvature="0" />
	<path style="fill:none;stroke:red;stroke-width:1px;stroke-linecap:butt;stroke-linejoin:miter;stroke-opacity:1" d="M 100.507,321.575 108.362,330.552 z" id="boundary" inkscape:connector-curvature="0" />
	<path style="fill:none;stroke:red;stroke-width:1px;stroke-linecap:butt;stroke-linejoin:miter;stroke-opacity:1" d="M 100.507,436.036 111.729,431.548 z" id="boundary" inkscape:connector-curvature="0" />
	<path style="fill:none;stroke:red;stroke-width:1px;stroke-linecap:butt;stroke-linejoin:miter;stroke-opacity:1" d="M 101.629,15.2217 112.851,15.2217 z" id="boundary" inkscape:connector-curvature="0" />
	<path style="fill:none;stroke:red;stroke-width:1px;stroke-linecap:butt;stroke-linejoin:miter;stroke-opacity:1" d="M 106.118,387.783 117.339,382.172 z" id="boundary" inkscape:connector-curvature="0" />
	<path style="fill:none;stroke:red;stroke-width:1px;stroke-linecap:butt;stroke-linejoin:miter;stroke-opacity:1" d="M 108.362,117.339 119.584,121.828 z" id="boundary" inkscape:connector-curvature="0" />
	<path style="fill:none;stroke:red;stroke-width:1px;stroke-linecap:butt;stroke-linejoin:miter;stroke-opacity:1" d="M 108.362,301.376 118.462,306.986 z" id="boundary" inkscape:connector-curvature="0" />
	<path style="fill:none;stroke:red;stroke-width:1px;stroke-linecap:butt;stroke-linejoin:miter;stroke-opacity:1" d="M 108.362,330.552 117.339,338.407 z" id="boundary" inkscape:connector-curvature="0" />
	<path style="fill:none;stroke:red;stroke-width:1px;stroke-linecap:butt;stroke-linejoin:miter;stroke-opacity:1" d="M 109.484,442.769 110.606,453.991 z" id="boundary" inkscape:connector-curvature="0" />
	<path style="fill:none;stroke:red;stroke-width:1px;stroke-linecap:butt;stroke-linejoin:miter;stroke-opacity:1" d="M 109.484,442.769 121.828,437.158 z" id="boundary" inkscape:connector-curvature="0" />
	<path style="fill:none;stroke:red;stroke-width:1px;stroke-linecap:butt;stroke-linejoin:miter;stroke-opacity:1" d="M 111.729,431.548 122.95,419.204 z" id="boundary" inkscape:connector-curvature="0" />
	<path style="fill:none;stroke:red;stroke-width:1px;stroke-linecap:butt;stroke-linejoin:miter;stroke-opacity:1" d="M 112.851,15.2217 124.072,15.2217 z" id="boundary" inkscape:connector-curvature="0" />
	<path style="fill:none;stroke:red;stroke-width:1px;stroke-linecap:butt;stroke-linejoin:miter;stroke-opacity:1" d="M 117.339,338.407 125.195,347.385 z" id="boundary" inkscape:connector-curvature="0" />
	<path style="fill:none;stroke:red;stroke-width:1px;stroke-linecap:butt;stroke-linejoin:miter;stroke-opacity:1" d="M 117.339,382.172 128.561,376.561 z" id="boundary" inkscape:connector-curvature="0" />
	<path style="fill:none;stroke:red;stroke-width:1px;stroke-linecap:butt;stroke-linejoin:miter;stroke-opacity:1" d="M 117.339,397.882 122.95,407.982 z" id="boundary" inkscape:connector-curvature="0" />
	<path style="fill:none;stroke:red;stroke-width:1px;stroke-linecap:butt;stroke-linejoin:miter;stroke-opacity:1" d="M 117.339,397.882 127.439,392.271 z" id="boundary" inkscape:connector-curvature="0" />
	<path style="fill:none;stroke:red;stroke-width:1px;stroke-linecap:butt;stroke-linejoin:miter;stroke-opacity:1" d="M 118.462,306.986 127.439,314.842 z" id="boundary" inkscape:connector-curvature="0" />
	<path style="fill:none;stroke:red;stroke-width:1px;stroke-linecap:butt;stroke-linejoin:miter;stroke-opacity:1" d="M 119.584,121.828 129.683,127.439 z" id="boundary" inkscape:connector-curvature="0" />
	<path style="fill:none;stroke:red;stroke-width:1px;stroke-linecap:butt;stroke-linejoin:miter;stroke-opacity:1" d="M 121.828,437.158 130.805,430.425 z" id="boundary" inkscape:connector-curvature="0" />
	<path style="fill:none;stroke:red;stroke-width:1px;stroke-linecap:butt;stroke-linejoin:miter;stroke-opacity:1" d="M 122.95,407.982 122.95,419.204 z" id="boundary" inkscape:connector-curvature="0" />
	<path style="fill:none;stroke:red;stroke-width:1px;stroke-linecap:butt;stroke-linejoin:miter;stroke-opacity:1" d="M 124.072,15.2217 134.172,9.61086 z" id="boundary" inkscape:connector-curvature="0" />
	<path style="fill:none;stroke:red;stroke-width:1px;stroke-linecap:butt;stroke-linejoin:miter;stroke-opacity:1" d="M 125.195,347.385 136.416,351.873 z" id="boundary" inkscape:connector-curvature="0" />
	<path style="fill:none;stroke:red;stroke-width:1px;stroke-linecap:butt;stroke-linejoin:miter;stroke-opacity:1" d="M 127.439,314.842 138.661,315.964 z" id="boundary" inkscape:connector-curvature="0" />
	<path style="fill:none;stroke:red;stroke-width:1px;stroke-linecap:butt;stroke-linejoin:miter;stroke-opacity:1" d="M 127.439,392.271 137.538,386.661 z" id="boundary" inkscape:connector-curvature="0" />
	<path style="fill:none;stroke:red;stroke-width:1px;stroke-linecap:butt;stroke-linejoin:miter;stroke-opacity:1" d="M 128.561,376.561 137.538,368.706 z" id="boundary" inkscape:connector-curvature="0" />
	<path style="fill:none;stroke:red;stroke-width:1px;stroke-linecap:butt;stroke-linejoin:miter;stroke-opacity:1" d="M 129.683,127.439 140.905,128.561 z" id="boundary" inkscape:connector-curvature="0" />
	<path style="fill:none;stroke:red;stroke-width:1px;stroke-linecap:butt;stroke-linejoin:miter;stroke-opacity:1" d="M 133.05,175.692 133.05,186.914 z" id="boundary" inkscape:connector-curvature="0" />
	<path style="fill:none;stroke:red;stroke-width:1px;stroke-linecap:butt;stroke-linejoin:miter;stroke-opacity:1" d="M 133.05,175.692 138.661,164.471 z" id="boundary" inkscape:connector-curvature="0" />
	<path style="fill:none;stroke:red;stroke-width:1px;stroke-linecap:butt;stroke-linejoin:miter;stroke-opacity:1" d="M 133.05,186.914 133.05,198.136 z" id="boundary" inkscape:connector-curvature="0" />
	<path style="fill:none;stroke:red;stroke-width:1px;stroke-linecap:butt;stroke-linejoin:miter;stroke-opacity:1" d="M 133.05,198.136 138.661,208.235 z" id="boundary" inkscape:connector-curvature="0" />
	<path style="fill:none;stroke:red;stroke-width:1px;stroke-linecap:butt;stroke-linejoin:miter;stroke-opacity:1" d="M 134.172,9.61086 144.271,4 z" id="boundary" inkscape:connector-curvature="0" />
	<path style="fill:none;stroke:red;stroke-width:1px;stroke-linecap:butt;stroke-linejoin:miter;stroke-opacity:1" d="M 136.416,351.873 147.638,352.995 z" id="boundary" inkscape:connector-curvature="0" />
	<path style="fill:none;stroke:red;stroke-width:1px;stroke-linecap:butt;stroke-linejoin:miter;stroke-opacity:1" d="M 137.538,368.706 147.638,352.995 z" id="boundary" inkscape:connector-curvature="0" />
	<path style="fill:none;stroke:red;stroke-width:1px;stroke-linecap:butt;stroke-linejoin:miter;stroke-opacity:1" d="M 137.538,386.661 147.638,381.05 z" id="boundary" inkscape:connector-curvature="0" />
	<path style="fill:none;stroke:red;stroke-width:1px;stroke-linecap:butt;stroke-linejoin:miter;stroke-opacity:1" d="M 138.661,153.249 138.661,164.471 z" id="boundary" inkscape:connector-curvature="0" />
	<path style="fill:none;stroke:red;stroke-width:1px;stroke-linecap:butt;stroke-linejoin:miter;stroke-opacity:1" d="M 138.661,153.249 144.271,139.783 z" id="boundary" inkscape:connector-curvature="0" />
	<path style="fill:none;stroke:red;stroke-width:1px;stroke-linecap:butt;stroke-linejoin:miter;stroke-opacity:1" d="M 138.661,208.235 138.661,219.457 z" id="boundary" inkscape:connector-curvature="0" />
	<path style="fill:none;stroke:red;stroke-width:1px;stroke-linecap:butt;stroke-linejoin:miter;stroke-opacity:1" d="M 138.661,219.457 138.661,230.679 z" id="boundary" inkscape:connector-curvature="0" />
	<path style="fill:none;stroke:red;stroke-width:1px;stroke-linecap:butt;stroke-linejoin:miter;stroke-opacity:1" d="M 138.661,230.679 144.271,240.778 z" id="boundary" inkscape:connector-curvature="0" />
	<path style="fill:none;stroke:red;stroke-width:1px;stroke-linecap:butt;stroke-linejoin:miter;stroke-opacity:1" d="M 138.661,315.964 144.271,304.742 z" id="boundary" inkscape:connector-curvature="0" />
	<path style="fill:none;stroke:red;stroke-width:1px;stroke-linecap:butt;stroke-linejoin:miter;stroke-opacity:1" d="M 140.905,128.561 144.271,139.783 z" id="boundary" inkscape:connector-curvature="0" />
	<path style="fill:none;stroke:red;stroke-width:1px;stroke-linecap:butt;stroke-linejoin:miter;stroke-opacity:1" d="M 144.271,4 155.493,4 z" id="boundary" inkscape:connector-curvature="0" />
	<path style="fill:none;stroke:red;stroke-width:1px;stroke-linecap:butt;stroke-linejoin:miter;stroke-opacity:1" d="M 144.271,240.778 147.638,252 z" id="boundary" inkscape:connector-curvature="0" />
	<path style="fill:none;stroke:red;stroke-width:1px;stroke-linecap:butt;stroke-linejoin:miter;stroke-opacity:1" d="M 144.271,304.742 155.493,299.131 z" id="boundary" inkscape:connector-curvature="0" />
	<path style="fill:none;stroke:red;stroke-width:1px;stroke-linecap:butt;stroke-linejoin:miter;stroke-opacity:1" d="M 147.638,252 155.493,260.977 z" id="boundary" inkscape:connector-curvature="0" />
	<path style="fill:none;stroke:red;stroke-width:1px;stroke-linecap:butt;stroke-linejoin:miter;stroke-opacity:1" d="M 147.638,381.05 157.738,375.439 z" id="boundary" inkscape:connector-curvature="0" />
	<path style="fill:none;stroke:red;stroke-width:1px;stroke-linecap:butt;stroke-linejoin:miter;stroke-opacity:1" d="M 155.493,4 165.593,9.61086 z" id="boundary" inkscape:connector-curvature="0" />
	<path style="fill:none;stroke:red;stroke-width:1px;stroke-linecap:butt;stroke-linejoin:miter;stroke-opacity:1" d="M 155.493,260.977 161.104,271.077 z" id="boundary" inkscape:connector-curvature="0" />
	<path style="fill:none;stroke:red;stroke-width:1px;stroke-linecap:butt;stroke-linejoin:miter;stroke-opacity:1" d="M 155.493,299.131 164.471,290.154 z" id="boundary" inkscape:connector-curvature="0" />
	<path style="fill:none;stroke:red;stroke-width:1px;stroke-linecap:butt;stroke-linejoin:miter;stroke-opacity:1" d="M 157.738,375.439 168.959,375.439 z" id="boundary" inkscape:connector-curvature="0" />
	<path style="fill:none;stroke:red;stroke-width:1px;stroke-linecap:butt;stroke-linejoin:miter;stroke-opacity:1" d="M 161.104,271.077 164.471,290.154 z" id="boundary" inkscape:connector-curvature="0" />
	<path style="fill:none;stroke:red;stroke-width:1px;stroke-linecap:butt;stroke-linejoin:miter;stroke-opacity:1" d="M 165.593,9.61086 175.692,15.2217 z" id="boundary" inkscape:connector-curvature="0" />
	<path style="fill:none;stroke:red;stroke-width:1px;stroke-linecap:butt;stroke-linejoin:miter;stroke-opacity:1" d="M 168.959,375.439 179.059,369.828 z" id="boundary" inkscape:connector-curvature="0" />
	<path style="fill:none;stroke:red;stroke-width:1px;stroke-linecap:butt;stroke-linejoin:miter;stroke-opacity:1" d="M 175.692,15.2217 185.792,20.8326 z" id="boundary" inkscape:connector-curvature="0" />
	<path style="fill:none;stroke:red;stroke-width:1px;stroke-linecap:butt;stroke-linejoin:miter;stroke-opacity:1" d="M 179.059,369.828 190.281,369.828 z" id="boundary" inkscape:connector-curvature="0" />
	<path style="fill:none;stroke:red;stroke-width:1px;stroke-linecap:butt;stroke-linejoin:miter;stroke-opacity:1" d="M 185.792,20.8326 194.769,28.6878 z" id="boundary" inkscape:connector-curvature="0" />
	<path style="fill:none;stroke:red;stroke-width:1px;stroke-linecap:butt;stroke-linejoin:miter;stroke-opacity:1" d="M 190.281,369.828 200.38,364.217 z" id="boundary" inkscape:connector-curvature="0" />
	<path style="fill:none;stroke:red;stroke-width:1px;stroke-linecap:butt;stroke-linejoin:miter;stroke-opacity:1" d="M 194.769,28.6878 201.502,37.6652 z" id="boundary" inkscape:connector-curvature="0" />
	<path style="fill:none;stroke:red;stroke-width:1px;stroke-linecap:butt;stroke-linejoin:miter;stroke-opacity:1" d="M 200.38,364.217 209.357,357.484 z" id="boundary" inkscape:connector-curvature="0" />
	<path style="fill:none;stroke:red;stroke-width:1px;stroke-linecap:butt;stroke-linejoin:miter;stroke-opacity:1" d="M 201.502,37.6652 212.724,41.0317 z" id="boundary" inkscape:connector-curvature="0" />
	<path style="fill:none;stroke:red;stroke-width:1px;stroke-linecap:butt;stroke-linejoin:miter;stroke-opacity:1" d="M 209.357,357.484 218.335,347.385 z" id="boundary" inkscape:connector-curvature="0" />
	<path style="fill:none;stroke:red;stroke-width:1px;stroke-linecap:butt;stroke-linejoin:miter;stroke-opacity:1" d="M 212.724,41.0317 217.213,52.2534 z" id="boundary" inkscape:connector-curvature="0" />
	<path style="fill:none;stroke:red;stroke-width:1px;stroke-linecap:butt;stroke-linejoin:miter;stroke-opacity:1" d="M 217.213,52.2534 222.824,62.3529 z" id="boundary" inkscape:connector-curvature="0" />
	<path style="fill:none;stroke:red;stroke-width:1px;stroke-linecap:butt;stroke-linejoin:miter;stroke-opacity:1" d="M 218.335,139.783 218.335,151.005 z" id="boundary" inkscape:connector-curvature="0" />
	<path style="fill:none;stroke:red;stroke-width:1px;stroke-linecap:butt;stroke-linejoin:miter;stroke-opacity:1" d="M 218.335,139.783 223.946,122.95 z" id="boundary" inkscape:connector-curvature="0" />
	<path style="fill:none;stroke:red;stroke-width:1px;stroke-linecap:butt;stroke-linejoin:miter;stroke-opacity:1" d="M 218.335,151.005 218.335,162.226 z" id="boundary" inkscape:connector-curvature="0" />
	<path style="fill:none;stroke:red;stroke-width:1px;stroke-linecap:butt;stroke-linejoin:miter;stroke-opacity:1" d="M 218.335,162.226 218.335,173.448 z" id="boundary" inkscape:connector-curvature="0" />
	<path style="fill:none;stroke:red;stroke-width:1px;stroke-linecap:butt;stroke-linejoin:miter;stroke-opacity:1" d="M 218.335,173.448 227.312,180.181 z" id="boundary" inkscape:connector-curvature="0" />
	<path style="fill:none;stroke:red;stroke-width:1px;stroke-linecap:butt;stroke-linejoin:miter;stroke-opacity:1" d="M 218.335,347.385 228.434,341.774 z" id="boundary" inkscape:connector-curvature="0" />
	<path style="fill:none;stroke:red;stroke-width:1px;stroke-linecap:butt;stroke-linejoin:miter;stroke-opacity:1" d="M 222.824,62.3529 223.946,73.5747 z" id="boundary" inkscape:connector-curvature="0" />
	<path style="fill:none;stroke:red;stroke-width:1px;stroke-linecap:butt;stroke-linejoin:miter;stroke-opacity:1" d="M 223.946,73.5747 227.312,84.7964 z" id="boundary" inkscape:connector-curvature="0" />
	<path style="fill:none;stroke:red;stroke-width:1px;stroke-linecap:butt;stroke-linejoin:miter;stroke-opacity:1" d="M 223.946,111.729 223.946,122.95 z" id="boundary" inkscape:connector-curvature="0" />
	<path style="fill:none;stroke:red;stroke-width:1px;stroke-linecap:butt;stroke-linejoin:miter;stroke-opacity:1" d="M 223.946,111.729 229.557,96.0181 z" id="boundary" inkscape:connector-curvature="0" />
	<path style="fill:none;stroke:red;stroke-width:1px;stroke-linecap:butt;stroke-linejoin:miter;stroke-opacity:1" d="M 227.312,84.7964 229.557,96.0181 z" id="boundary" inkscape:connector-curvature="0" />
	<path style="fill:none;stroke:red;stroke-width:1px;stroke-linecap:butt;stroke-linejoin:miter;stroke-opacity:1" d="M 227.312,180.181 238.534,177.937 z" id="boundary" inkscape:connector-curvature="0" />
	<path style="fill:none;stroke:red;stroke-width:1px;stroke-linecap:butt;stroke-linejoin:miter;stroke-opacity:1" d="M 228.434,341.774 239.656,341.774 z" id="boundary" inkscape:connector-curvature="0" />
	<path style="fill:none;stroke:red;stroke-width:1px;stroke-linecap:butt;stroke-linejoin:miter;stroke-opacity:1" d="M 238.534,177.937 249.756,177.937 z" id="boundary" inkscape:connector-curvature="0" />
	<path style="fill:none;stroke:red;stroke-width:1px;stroke-linecap:butt;stroke-linejoin:miter;stroke-opacity:1" d="M 239.656,341.774 249.756,347.385 z" id="boundary" inkscape:connector-curvature="0" />
	<path style="fill:none;stroke:red;stroke-width:1px;stroke-linecap:butt;stroke-linejoin:miter;stroke-opacity:1" d="M 249.756,177.937 260.977,177.937 z" id="boundary" inkscape:connector-curvature="0" />
	<path style="fill:none;stroke:red;stroke-width:1px;stroke-linecap:butt;stroke-linejoin:miter;stroke-opacity:1" d="M 249.756,347.385 260.977,347.385 z" id="boundary" inkscape:connector-curvature="0" />
	<path style="fill:none;stroke:red;stroke-width:1px;stroke-linecap:butt;stroke-linejoin:miter;stroke-opacity:1" d="M 260.977,177.937 272.199,177.937 z" id="boundary" inkscape:connector-curvature="0" />
	<path style="fill:none;stroke:red;stroke-width:1px;stroke-linecap:butt;stroke-linejoin:miter;stroke-opacity:1" d="M 260.977,347.385 271.077,352.995 z" id="boundary" inkscape:connector-curvature="0" />
	<path style="fill:none;stroke:red;stroke-width:1px;stroke-linecap:butt;stroke-linejoin:miter;stroke-opacity:1" d="M 271.077,352.995 276.688,363.095 z" id="boundary" inkscape:connector-curvature="0" />
	<path style="fill:none;stroke:red;stroke-width:1px;stroke-linecap:butt;stroke-linejoin:miter;stroke-opacity:1" d="M 272.199,177.937 282.299,172.326 z" id="boundary" inkscape:connector-curvature="0" />
	<path style="fill:none;stroke:red;stroke-width:1px;stroke-linecap:butt;stroke-linejoin:miter;stroke-opacity:1" d="M 273.321,506.733 282.299,497.756 z" id="boundary" inkscape:connector-curvature="0" />
	<path style="fill:none;stroke:red;stroke-width:1px;stroke-linecap:butt;stroke-linejoin:miter;stroke-opacity:1" d="M 273.321,506.733 284.543,523.566 z" id="boundary" inkscape:connector-curvature="0" />
	<path style="fill:none;stroke:red;stroke-width:1px;stroke-linecap:butt;stroke-linejoin:miter;stroke-opacity:1" d="M 273.321,529.176 278.932,539.276 z" id="boundary" inkscape:connector-curvature="0" />
	<path style="fill:none;stroke:red;stroke-width:1px;stroke-linecap:butt;stroke-linejoin:miter;stroke-opacity:1" d="M 273.321,568.452 280.054,577.43 z" id="boundary" inkscape:connector-curvature="0" />
	<path style="fill:none;stroke:red;stroke-width:1px;stroke-linecap:butt;stroke-linejoin:miter;stroke-opacity:1" d="M 273.321,568.452 282.299,559.475 z" id="boundary" inkscape:connector-curvature="0" />
	<path style="fill:none;stroke:red;stroke-width:1px;stroke-linecap:butt;stroke-linejoin:miter;stroke-opacity:1" d="M 276.688,363.095 281.176,374.317 z" id="boundary" inkscape:connector-curvature="0" />
	<path style="fill:none;stroke:red;stroke-width:1px;stroke-linecap:butt;stroke-linejoin:miter;stroke-opacity:1" d="M 278.932,539.276 290.154,540.398 z" id="boundary" inkscape:connector-curvature="0" />
	<path style="fill:none;stroke:red;stroke-width:1px;stroke-linecap:butt;stroke-linejoin:miter;stroke-opacity:1" d="M 280.054,577.43 291.276,577.43 z" id="boundary" inkscape:connector-curvature="0" />
	<path style="fill:none;stroke:red;stroke-width:1px;stroke-linecap:butt;stroke-linejoin:miter;stroke-opacity:1" d="M 281.176,374.317 286.787,384.416 z" id="boundary" inkscape:connector-curvature="0" />
	<path style="fill:none;stroke:red;stroke-width:1px;stroke-linecap:butt;stroke-linejoin:miter;stroke-opacity:1" d="M 282.299,172.326 293.52,172.326 z" id="boundary" inkscape:connector-curvature="0" />
	<path style="fill:none;stroke:red;stroke-width:1px;stroke-linecap:butt;stroke-linejoin:miter;stroke-opacity:1" d="M 282.299,497.756 293.52,497.756 z" id="boundary" inkscape:connector-curvature="0" />
	<path style="fill:none;stroke:red;stroke-width:1px;stroke-linecap:butt;stroke-linejoin:miter;stroke-opacity:1" d="M 282.299,559.475 293.52,559.475 z" id="boundary" inkscape:connector-curvature="0" />
	<path style="fill:none;stroke:red;stroke-width:1px;stroke-linecap:butt;stroke-linejoin:miter;stroke-opacity:1" d="M 284.543,523.566 301.376,534.787 z" id="boundary" inkscape:connector-curvature="0" />
	<path style="fill:none;stroke:red;stroke-width:1px;stroke-linecap:butt;stroke-linejoin:miter;stroke-opacity:1" d="M 286.787,384.416 291.276,395.638 z" id="boundary" inkscape:connector-curvature="0" />
	<path style="fill:none;stroke:red;stroke-width:1px;stroke-linecap:butt;stroke-linejoin:miter;stroke-opacity:1" d="M 290.154,540.398 293.52,559.475 z" id="boundary" inkscape:connector-curvature="0" />
	<path style="fill:none;stroke:red;stroke-width:1px;stroke-linecap:butt;stroke-linejoin:miter;stroke-opacity:1" d="M 291.276,395.638 300.253,403.493 z" id="boundary" inkscape:connector-curvature="0" />
	<path style="fill:none;stroke:red;stroke-width:1px;stroke-linecap:butt;stroke-linejoin:miter;stroke-opacity:1" d="M 291.276,577.43 302.498,577.43 z" id="boundary" inkscape:connector-curvature="0" />
	<path style="fill:none;stroke:red;stroke-width:1px;stroke-linecap:butt;stroke-linejoin:miter;stroke-opacity:1" d="M 293.52,172.326 303.62,166.715 z" id="boundary" inkscape:connector-curvature="0" />
	<path style="fill:none;stroke:red;stroke-width:1px;stroke-linecap:butt;stroke-linejoin:miter;stroke-opacity:1" d="M 293.52,497.756 304.742,497.756 z" id="boundary" inkscape:connector-curvature="0" />
	<path style="fill:none;stroke:red;stroke-width:1px;stroke-linecap:butt;stroke-linejoin:miter;stroke-opacity:1" d="M 300.253,403.493 308.109,412.471 z" id="boundary" inkscape:connector-curvature="0" />
	<path style="fill:none;stroke:red;stroke-width:1px;stroke-linecap:butt;stroke-linejoin:miter;stroke-opacity:1" d="M 301.376,534.787 310.353,542.643 z" id="boundary" inkscape:connector-curvature="0" />
	<path style="fill:none;stroke:red;stroke-width:1px;stroke-linecap:butt;stroke-linejoin:miter;stroke-opacity:1" d="M 302.498,577.43 313.719,577.43 z" id="boundary" inkscape:connector-curvature="0" />
	<path style="fill:none;stroke:red;stroke-width:1px;stroke-linecap:butt;stroke-linejoin:miter;stroke-opacity:1" d="M 303.62,166.715 314.842,166.715 z" id="boundary" inkscape:connector-curvature="0" />
	<path style="fill:none;stroke:red;stroke-width:1px;stroke-linecap:butt;stroke-linejoin:miter;stroke-opacity:1" d="M 304.742,497.756 314.842,503.367 z" id="boundary" inkscape:connector-curvature="0" />
	<path style="fill:none;stroke:red;stroke-width:1px;stroke-linecap:butt;stroke-linejoin:miter;stroke-opacity:1" d="M 304.742,559.475 314.842,553.864 z" id="boundary" inkscape:connector-curvature="0" />
	<path style="fill:none;stroke:red;stroke-width:1px;stroke-linecap:butt;stroke-linejoin:miter;stroke-opacity:1" d="M 308.109,412.471 317.086,420.326 z" id="boundary" inkscape:connector-curvature="0" />
	<path style="fill:none;stroke:red;stroke-width:1px;stroke-linecap:butt;stroke-linejoin:miter;stroke-opacity:1" d="M 310.353,542.643 314.842,553.864 z" id="boundary" inkscape:connector-curvature="0" />
	<path style="fill:none;stroke:red;stroke-width:1px;stroke-linecap:butt;stroke-linejoin:miter;stroke-opacity:1" d="M 313.719,577.43 323.819,583.041 z" id="boundary" inkscape:connector-curvature="0" />
	<path style="fill:none;stroke:red;stroke-width:1px;stroke-linecap:butt;stroke-linejoin:miter;stroke-opacity:1" d="M 314.842,166.715 326.063,166.715 z" id="boundary" inkscape:connector-curvature="0" />
	<path style="fill:none;stroke:red;stroke-width:1px;stroke-linecap:butt;stroke-linejoin:miter;stroke-opacity:1" d="M 314.842,503.367 324.941,508.977 z" id="boundary" inkscape:connector-curvature="0" />
	<path style="fill:none;stroke:red;stroke-width:1px;stroke-linecap:butt;stroke-linejoin:miter;stroke-opacity:1" d="M 317.086,420.326 324.941,429.303 z" id="boundary" inkscape:connector-curvature="0" />
	<path style="fill:none;stroke:red;stroke-width:1px;stroke-linecap:butt;stroke-linejoin:miter;stroke-opacity:1" d="M 323.819,583.041 335.041,583.041 z" id="boundary" inkscape:connector-curvature="0" />
	<path style="fill:none;stroke:red;stroke-width:1px;stroke-linecap:butt;stroke-linejoin:miter;stroke-opacity:1" d="M 324.941,429.303 333.919,437.158 z" id="boundary" inkscape:connector-curvature="0" />
	<path style="fill:none;stroke:red;stroke-width:1px;stroke-linecap:butt;stroke-linejoin:miter;stroke-opacity:1" d="M 324.941,508.977 335.041,514.588 z" id="boundary" inkscape:connector-curvature="0" />
	<path style="fill:none;stroke:red;stroke-width:1px;stroke-linecap:butt;stroke-linejoin:miter;stroke-opacity:1" d="M 326.063,166.715 337.285,166.715 z" id="boundary" inkscape:connector-curvature="0" />
	<path style="fill:none;stroke:red;stroke-width:1px;stroke-linecap:butt;stroke-linejoin:miter;stroke-opacity:1" d="M 333.919,437.158 340.652,446.136 z" id="boundary" inkscape:connector-curvature="0" />
	<path style="fill:none;stroke:red;stroke-width:1px;stroke-linecap:butt;stroke-linejoin:miter;stroke-opacity:1" d="M 335.041,514.588 340.652,501.122 z" id="boundary" inkscape:connector-curvature="0" />
	<path style="fill:none;stroke:red;stroke-width:1px;stroke-linecap:butt;stroke-linejoin:miter;stroke-opacity:1" d="M 335.041,583.041 346.262,579.674 z" id="boundary" inkscape:connector-curvature="0" />
	<path style="fill:none;stroke:red;stroke-width:1px;stroke-linecap:butt;stroke-linejoin:miter;stroke-opacity:1" d="M 337.285,166.715 347.385,172.326 z" id="boundary" inkscape:connector-curvature="0" />
	<path style="fill:none;stroke:red;stroke-width:1px;stroke-linecap:butt;stroke-linejoin:miter;stroke-opacity:1" d="M 340.652,446.136 346.262,456.235 z" id="boundary" inkscape:connector-curvature="0" />
	<path style="fill:none;stroke:red;stroke-width:1px;stroke-linecap:butt;stroke-linejoin:miter;stroke-opacity:1" d="M 340.652,489.9 340.652,501.122 z" id="boundary" inkscape:connector-curvature="0" />
	<path style="fill:none;stroke:red;stroke-width:1px;stroke-linecap:butt;stroke-linejoin:miter;stroke-opacity:1" d="M 340.652,489.9 346.262,478.679 z" id="boundary" inkscape:connector-curvature="0" />
	<path style="fill:none;stroke:red;stroke-width:1px;stroke-linecap:butt;stroke-linejoin:miter;stroke-opacity:1" d="M 346.262,456.235 346.262,467.457 z" id="boundary" inkscape:connector-curvature="0" />
	<path style="fill:none;stroke:red;stroke-width:1px;stroke-linecap:butt;stroke-linejoin:miter;stroke-opacity:1" d="M 346.262,467.457 346.262,478.679 z" id="boundary" inkscape:connector-curvature="0" />
	<path style="fill:none;stroke:red;stroke-width:1px;stroke-linecap:butt;stroke-linejoin:miter;stroke-opacity:1" d="M 346.262,579.674 357.484,577.43 z" id="boundary" inkscape:connector-curvature="0" />
	<path style="fill:none;stroke:red;stroke-width:1px;stroke-linecap:butt;stroke-linejoin:miter;stroke-opacity:1" d="M 347.385,172.326 358.606,175.692 z" id="boundary" inkscape:connector-curvature="0" />
	<path style="fill:none;stroke:red;stroke-width:1px;stroke-linecap:butt;stroke-linejoin:miter;stroke-opacity:1" d="M 357.484,577.43 368.706,577.43 z" id="boundary" inkscape:connector-curvature="0" />
	<path style="fill:none;stroke:red;stroke-width:1px;stroke-linecap:butt;stroke-linejoin:miter;stroke-opacity:1" d="M 358.606,175.692 369.828,177.937 z" id="boundary" inkscape:connector-curvature="0" />
	<path style="fill:none;stroke:red;stroke-width:1px;stroke-linecap:butt;stroke-linejoin:miter;stroke-opacity:1" d="M 368.706,577.43 379.928,574.063 z" id="boundary" inkscape:connector-curvature="0" />
	<path style="fill:none;stroke:red;stroke-width:1px;stroke-linecap:butt;stroke-linejoin:miter;stroke-opacity:1" d="M 369.828,177.937 381.05,181.303 z" id="boundary" inkscape:connector-curvature="0" />
	<path style="fill:none;stroke:red;stroke-width:1px;stroke-linecap:butt;stroke-linejoin:miter;stroke-opacity:1" d="M 375.439,392.271 375.439,403.493 z" id="boundary" inkscape:connector-curvature="0" />
	<path style="fill:none;stroke:red;stroke-width:1px;stroke-linecap:butt;stroke-linejoin:miter;stroke-opacity:1" d="M 375.439,392.271 385.538,386.661 z" id="boundary" inkscape:connector-curvature="0" />
	<path style="fill:none;stroke:red;stroke-width:1px;stroke-linecap:butt;stroke-linejoin:miter;stroke-opacity:1" d="M 375.439,403.493 381.05,413.593 z" id="boundary" inkscape:connector-curvature="0" />
	<path style="fill:none;stroke:red;stroke-width:1px;stroke-linecap:butt;stroke-linejoin:miter;stroke-opacity:1" d="M 379.928,574.063 391.149,568.452 z" id="boundary" inkscape:connector-curvature="0" />
	<path style="fill:none;stroke:red;stroke-width:1px;stroke-linecap:butt;stroke-linejoin:miter;stroke-opacity:1" d="M 381.05,181.303 392.271,183.548 z" id="boundary" inkscape:connector-curvature="0" />
	<path style="fill:none;stroke:red;stroke-width:1px;stroke-linecap:butt;stroke-linejoin:miter;stroke-opacity:1" d="M 381.05,413.593 386.661,423.692 z" id="boundary" inkscape:connector-curvature="0" />
	<path style="fill:none;stroke:red;stroke-width:1px;stroke-linecap:butt;stroke-linejoin:miter;stroke-opacity:1" d="M 385.538,386.661 396.76,386.661 z" id="boundary" inkscape:connector-curvature="0" />
	<path style="fill:none;stroke:red;stroke-width:1px;stroke-linecap:butt;stroke-linejoin:miter;stroke-opacity:1" d="M 386.661,423.692 386.661,434.914 z" id="boundary" inkscape:connector-curvature="0" />
	<path style="fill:none;stroke:red;stroke-width:1px;stroke-linecap:butt;stroke-linejoin:miter;stroke-opacity:1" d="M 386.661,434.914 392.271,445.014 z" id="boundary" inkscape:connector-curvature="0" />
	<path style="fill:none;stroke:red;stroke-width:1px;stroke-linecap:butt;stroke-linejoin:miter;stroke-opacity:1" d="M 386.661,510.1 392.271,489.9 z" id="boundary" inkscape:connector-curvature="0" />
	<path style="fill:none;stroke:red;stroke-width:1px;stroke-linecap:butt;stroke-linejoin:miter;stroke-opacity:1" d="M 386.661,510.1 392.271,520.199 z" id="boundary" inkscape:connector-curvature="0" />
	<path style="fill:none;stroke:red;stroke-width:1px;stroke-linecap:butt;stroke-linejoin:miter;stroke-opacity:1" d="M 391.149,568.452 392.271,553.864 z" id="boundary" inkscape:connector-curvature="0" />
	<path style="fill:none;stroke:red;stroke-width:1px;stroke-linecap:butt;stroke-linejoin:miter;stroke-opacity:1" d="M 392.271,183.548 403.493,183.548 z" id="boundary" inkscape:connector-curvature="0" />
	<path style="fill:none;stroke:red;stroke-width:1px;stroke-linecap:butt;stroke-linejoin:miter;stroke-opacity:1" d="M 392.271,445.014 392.271,456.235 z" id="boundary" inkscape:connector-curvature="0" />
	<path style="fill:none;stroke:red;stroke-width:1px;stroke-linecap:butt;stroke-linejoin:miter;stroke-opacity:1" d="M 392.271,456.235 392.271,467.457 z" id="boundary" inkscape:connector-curvature="0" />
	<path style="fill:none;stroke:red;stroke-width:1px;stroke-linecap:butt;stroke-linejoin:miter;stroke-opacity:1" d="M 392.271,467.457 392.271,478.679 z" id="boundary" inkscape:connector-curvature="0" />
	<path style="fill:none;stroke:red;stroke-width:1px;stroke-linecap:butt;stroke-linejoin:miter;stroke-opacity:1" d="M 392.271,478.679 392.271,489.9 z" id="boundary" inkscape:connector-curvature="0" />
	<path style="fill:none;stroke:red;stroke-width:1px;stroke-linecap:butt;stroke-linejoin:miter;stroke-opacity:1" d="M 392.271,520.199 392.271,531.421 z" id="boundary" inkscape:connector-curvature="0" />
	<path style="fill:none;stroke:red;stroke-width:1px;stroke-linecap:butt;stroke-linejoin:miter;stroke-opacity:1" d="M 392.271,531.421 392.271,542.643 z" id="boundary" inkscape:connector-curvature="0" />
	<path style="fill:none;stroke:red;stroke-width:1px;stroke-linecap:butt;stroke-linejoin:miter;stroke-opacity:1" d="M 392.271,542.643 392.271,553.864 z" id="boundary" inkscape:connector-curvature="0" />
	<path style="fill:none;stroke:red;stroke-width:1px;stroke-linecap:butt;stroke-linejoin:miter;stroke-opacity:1" d="M 396.76,386.661 407.982,386.661 z" id="boundary" inkscape:connector-curvature="0" />
	<path style="fill:none;stroke:red;stroke-width:1px;stroke-linecap:butt;stroke-linejoin:miter;stroke-opacity:1" d="M 403.493,183.548 414.715,183.548 z" id="boundary" inkscape:connector-curvature="0" />
	<path style="fill:none;stroke:red;stroke-width:1px;stroke-linecap:butt;stroke-linejoin:miter;stroke-opacity:1" d="M 407.982,386.661 419.204,383.294 z" id="boundary" inkscape:connector-curvature="0" />
	<path style="fill:none;stroke:red;stroke-width:1px;stroke-linecap:butt;stroke-linejoin:miter;stroke-opacity:1" d="M 414.715,183.548 425.937,183.548 z" id="boundary" inkscape:connector-curvature="0" />
	<path style="fill:none;stroke:red;stroke-width:1px;stroke-linecap:butt;stroke-linejoin:miter;stroke-opacity:1" d="M 419.204,383.294 428.181,375.439 z" id="boundary" inkscape:connector-curvature="0" />
	<path style="fill:none;stroke:red;stroke-width:1px;stroke-linecap:butt;stroke-linejoin:miter;stroke-opacity:1" d="M 425.937,183.548 437.158,183.548 z" id="boundary" inkscape:connector-curvature="0" />
	<path style="fill:none;stroke:red;stroke-width:1px;stroke-linecap:butt;stroke-linejoin:miter;stroke-opacity:1" d="M 428.181,375.439 438.281,369.828 z" id="boundary" inkscape:connector-curvature="0" />
	<path style="fill:none;stroke:red;stroke-width:1px;stroke-linecap:butt;stroke-linejoin:miter;stroke-opacity:1" d="M 437.158,183.548 448.38,183.548 z" id="boundary" inkscape:connector-curvature="0" />
	<path style="fill:none;stroke:red;stroke-width:1px;stroke-linecap:butt;stroke-linejoin:miter;stroke-opacity:1" d="M 438.281,369.828 442.769,358.606 z" id="boundary" inkscape:connector-curvature="0" />
	<path style="fill:none;stroke:red;stroke-width:1px;stroke-linecap:butt;stroke-linejoin:miter;stroke-opacity:1" d="M 442.769,358.606 451.747,350.751 z" id="boundary" inkscape:connector-curvature="0" />
	<path style="fill:none;stroke:red;stroke-width:1px;stroke-linecap:butt;stroke-linejoin:miter;stroke-opacity:1" d="M 448.38,183.548 459.602,183.548 z" id="boundary" inkscape:connector-curvature="0" />
	<path style="fill:none;stroke:red;stroke-width:1px;stroke-linecap:butt;stroke-linejoin:miter;stroke-opacity:1" d="M 451.747,350.751 459.602,341.774 z" id="boundary" inkscape:connector-curvature="0" />
	<path style="fill:none;stroke:red;stroke-width:1px;stroke-linecap:butt;stroke-linejoin:miter;stroke-opacity:1" d="M 459.602,183.548 470.824,183.548 z" id="boundary" inkscape:connector-curvature="0" />
	<path style="fill:none;stroke:red;stroke-width:1px;stroke-linecap:butt;stroke-linejoin:miter;stroke-opacity:1" d="M 459.602,341.774 468.579,333.919 z" id="boundary" inkscape:connector-curvature="0" />
	<path style="fill:none;stroke:red;stroke-width:1px;stroke-linecap:butt;stroke-linejoin:miter;stroke-opacity:1" d="M 468.579,333.919 476.434,324.941 z" id="boundary" inkscape:connector-curvature="0" />
	<path style="fill:none;stroke:red;stroke-width:1px;stroke-linecap:butt;stroke-linejoin:miter;stroke-opacity:1" d="M 470.824,183.548 482.045,183.548 z" id="boundary" inkscape:connector-curvature="0" />
	<path style="fill:none;stroke:red;stroke-width:1px;stroke-linecap:butt;stroke-linejoin:miter;stroke-opacity:1" d="M 476.434,324.941 485.412,317.086 z" id="boundary" inkscape:connector-curvature="0" />
	<path style="fill:none;stroke:red;stroke-width:1px;stroke-linecap:butt;stroke-linejoin:miter;stroke-opacity:1" d="M 482.045,183.548 493.267,183.548 z" id="boundary" inkscape:connector-curvature="0" />
	<path style="fill:none;stroke:red;stroke-width:1px;stroke-linecap:butt;stroke-linejoin:miter;stroke-opacity:1" d="M 485.412,317.086 493.267,308.109 z" id="boundary" inkscape:connector-curvature="0" />
	<path style="fill:none;stroke:red;stroke-width:1px;stroke-linecap:butt;stroke-linejoin:miter;stroke-opacity:1" d="M 493.267,183.548 504.489,183.548 z" id="boundary" inkscape:connector-curvature="0" />
	<path style="fill:none;stroke:red;stroke-width:1px;stroke-linecap:butt;stroke-linejoin:miter;stroke-opacity:1" d="M 493.267,308.109 502.244,300.253 z" id="boundary" inkscape:connector-curvature="0" />
	<path style="fill:none;stroke:red;stroke-width:1px;stroke-linecap:butt;stroke-linejoin:miter;stroke-opacity:1" d="M 502.244,300.253 510.1,291.276 z" id="boundary" inkscape:connector-curvature="0" />
	<path style="fill:none;stroke:red;stroke-width:1px;stroke-linecap:butt;stroke-linejoin:miter;stroke-opacity:1" d="M 504.489,183.548 515.71,183.548 z" id="boundary" inkscape:connector-curvature="0" />
	<path style="fill:none;stroke:red;stroke-width:1px;stroke-linecap:butt;stroke-linejoin:miter;stroke-opacity:1" d="M 510.1,291.276 520.199,285.665 z" id="boundary" inkscape:connector-curvature="0" />
	<path style="fill:none;stroke:red;stroke-width:1px;stroke-linecap:butt;stroke-linejoin:miter;stroke-opacity:1" d="M 515.71,183.548 526.932,183.548 z" id="boundary" inkscape:connector-curvature="0" />
	<path style="fill:none;stroke:red;stroke-width:1px;stroke-linecap:butt;stroke-linejoin:miter;stroke-opacity:1" d="M 520.199,285.665 529.176,278.932 z" id="boundary" inkscape:connector-curvature="0" />
	<path style="fill:none;stroke:red;stroke-width:1px;stroke-linecap:butt;stroke-linejoin:miter;stroke-opacity:1" d="M 526.932,183.548 538.154,183.548 z" id="boundary" inkscape:connector-curvature="0" />
	<path style="fill:none;stroke:red;stroke-width:1px;stroke-linecap:butt;stroke-linejoin:miter;stroke-opacity:1" d="M 529.176,278.932 540.398,273.321 z" id="boundary" inkscape:connector-curvature="0" />
	<path style="fill:none;stroke:red;stroke-width:1px;stroke-linecap:butt;stroke-linejoin:miter;stroke-opacity:1" d="M 538.154,183.548 549.376,180.181 z" id="boundary" inkscape:connector-curvature="0" />
	<path style="fill:none;stroke:red;stroke-width:1px;stroke-linecap:butt;stroke-linejoin:miter;stroke-opacity:1" d="M 540.398,273.321 549.376,263.222 z" id="boundary" inkscape:connector-curvature="0" />
	<path style="fill:none;stroke:red;stroke-width:1px;stroke-linecap:butt;stroke-linejoin:miter;stroke-opacity:1" d="M 549.376,180.181 560.597,177.937 z" id="boundary" inkscape:connector-curvature="0" />
	<path style="fill:none;stroke:red;stroke-width:1px;stroke-linecap:butt;stroke-linejoin:miter;stroke-opacity:1" d="M 549.376,263.222 560.597,257.611 z" id="boundary" inkscape:connector-curvature="0" />
	<path style="fill:none;stroke:red;stroke-width:1px;stroke-linecap:butt;stroke-linejoin:miter;stroke-opacity:1" d="M 560.597,177.937 570.697,172.326 z" id="boundary" inkscape:connector-curvature="0" />
	<path style="fill:none;stroke:red;stroke-width:1px;stroke-linecap:butt;stroke-linejoin:miter;stroke-opacity:1" d="M 560.597,257.611 570.697,252 z" id="boundary" inkscape:connector-curvature="0" />
	<path style="fill:none;stroke:red;stroke-width:1px;stroke-linecap:butt;stroke-linejoin:miter;stroke-opacity:1" d="M 570.697,172.326 581.919,172.326 z" id="boundary" inkscape:connector-curvature="0" />
	<path style="fill:none;stroke:red;stroke-width:1px;stroke-linecap:butt;stroke-linejoin:miter;stroke-opacity:1" d="M 570.697,252 580.796,246.389 z" id="boundary" inkscape:connector-curvature="0" />
	<path style="fill:none;stroke:red;stroke-width:1px;stroke-linecap:butt;stroke-linejoin:miter;stroke-opacity:1" d="M 580.796,246.389 590.896,240.778 z" id="boundary" inkscape:connector-curvature="0" />
	<path style="fill:none;stroke:red;stroke-width:1px;stroke-linecap:butt;stroke-linejoin:miter;stroke-opacity:1" d="M 581.919,172.326 592.018,166.715 z" id="boundary" inkscape:connector-curvature="0" />
	<path style="fill:none;stroke:red;stroke-width:1px;stroke-linecap:butt;stroke-linejoin:miter;stroke-opacity:1" d="M 590.896,240.778 600.995,235.167 z" id="boundary" inkscape:connector-curvature="0" />
	<path style="fill:none;stroke:red;stroke-width:1px;stroke-linecap:butt;stroke-linejoin:miter;stroke-opacity:1" d="M 592.018,166.715 602.118,161.104 z" id="boundary" inkscape:connector-curvature="0" />
	<path style="fill:none;stroke:red;stroke-width:1px;stroke-linecap:butt;stroke-linejoin:miter;stroke-opacity:1" d="M 600.995,235.167 611.095,229.557 z" id="boundary" inkscape:connector-curvature="0" />
	<path style="fill:none;stroke:red;stroke-width:1px;stroke-linecap:butt;stroke-linejoin:miter;stroke-opacity:1" d="M 602.118,161.104 613.339,161.104 z" id="boundary" inkscape:connector-curvature="0" />
	<path style="fill:none;stroke:red;stroke-width:1px;stroke-linecap:butt;stroke-linejoin:miter;stroke-opacity:1" d="M 611.095,229.557 621.195,223.946 z" id="boundary" inkscape:connector-curvature="0" />
	<path style="fill:none;stroke:red;stroke-width:1px;stroke-linecap:butt;stroke-linejoin:miter;stroke-opacity:1" d="M 613.339,161.104 623.439,155.493 z" id="boundary" inkscape:connector-curvature="0" />
	<path style="fill:none;stroke:red;stroke-width:1px;stroke-linecap:butt;stroke-linejoin:miter;stroke-opacity:1" d="M 621.195,223.946 630.172,217.213 z" id="boundary" inkscape:connector-curvature="0" />
	<path style="fill:none;stroke:red;stroke-width:1px;stroke-linecap:butt;stroke-linejoin:miter;stroke-opacity:1" d="M 623.439,155.493 633.538,149.882 z" id="boundary" inkscape:connector-curvature="0" />
	<path style="fill:none;stroke:red;stroke-width:1px;stroke-linecap:butt;stroke-linejoin:miter;stroke-opacity:1" d="M 630.172,217.213 641.394,211.602 z" id="boundary" inkscape:connector-curvature="0" />
	<path style="fill:none;stroke:red;stroke-width:1px;stroke-linecap:butt;stroke-linejoin:miter;stroke-opacity:1" d="M 633.538,149.882 643.638,144.271 z" id="boundary" inkscape:connector-curvature="0" />
	<path style="fill:none;stroke:red;stroke-width:1px;stroke-linecap:butt;stroke-linejoin:miter;stroke-opacity:1" d="M 641.394,211.602 652.615,205.991 z" id="boundary" inkscape:connector-curvature="0" />
	<path style="fill:none;stroke:red;stroke-width:1px;stroke-linecap:butt;stroke-linejoin:miter;stroke-opacity:1" d="M 643.638,144.271 654.86,142.027 z" id="boundary" inkscape:connector-curvature="0" />
	<path style="fill:none;stroke:red;stroke-width:1px;stroke-linecap:butt;stroke-linejoin:miter;stroke-opacity:1" d="M 652.615,205.991 663.837,200.38 z" id="boundary" inkscape:connector-curvature="0" />
	<path style="fill:none;stroke:red;stroke-width:1px;stroke-linecap:butt;stroke-linejoin:miter;stroke-opacity:1" d="M 654.86,142.027 666.081,136.416 z" id="boundary" inkscape:connector-curvature="0" />
	<path style="fill:none;stroke:red;stroke-width:1px;stroke-linecap:butt;stroke-linejoin:miter;stroke-opacity:1" d="M 663.837,200.38 675.059,194.769 z" id="boundary" inkscape:connector-curvature="0" />
	<path style="fill:none;stroke:red;stroke-width:1px;stroke-linecap:butt;stroke-linejoin:miter;stroke-opacity:1" d="M 666.081,136.416 677.303,133.05 z" id="boundary" inkscape:connector-curvature="0" />
	<path style="fill:none;stroke:red;stroke-width:1px;stroke-linecap:butt;stroke-linejoin:miter;stroke-opacity:1" d="M 675.059,194.769 686.281,190.281 z" id="boundary" inkscape:connector-curvature="0" />
	<path style="fill:none;stroke:red;stroke-width:1px;stroke-linecap:butt;stroke-linejoin:miter;stroke-opacity:1" d="M 677.303,133.05 687.403,127.439 z" id="boundary" inkscape:connector-curvature="0" />
	<path style="fill:none;stroke:red;stroke-width:1px;stroke-linecap:butt;stroke-linejoin:miter;stroke-opacity:1" d="M 686.281,190.281 696.38,184.67 z" id="boundary" inkscape:connector-curvature="0" />
	<path style="fill:none;stroke:red;stroke-width:1px;stroke-linecap:butt;stroke-linejoin:miter;stroke-opacity:1" d="M 687.403,127.439 697.502,121.828 z" id="boundary" inkscape:connector-curvature="0" />
	<path style="fill:none;stroke:red;stroke-width:1px;stroke-linecap:butt;stroke-linejoin:miter;stroke-opacity:1" d="M 696.38,184.67 706.48,179.059 z" id="boundary" inkscape:connector-curvature="0" />
	<path style="fill:none;stroke:red;stroke-width:1px;stroke-linecap:butt;stroke-linejoin:miter;stroke-opacity:1" d="M 697.502,121.828 708.724,121.828 z" id="boundary" inkscape:connector-curvature="0" />
	<path style="fill:none;stroke:red;stroke-width:1px;stroke-linecap:butt;stroke-linejoin:miter;stroke-opacity:1" d="M 706.48,179.059 716.579,173.448 z" id="boundary" inkscape:connector-curvature="0" />
	<path style="fill:none;stroke:red;stroke-width:1px;stroke-linecap:butt;stroke-linejoin:miter;stroke-opacity:1" d="M 708.724,121.828 718.824,116.217 z" id="boundary" inkscape:connector-curvature="0" />
	<path style="fill:none;stroke:red;stroke-width:1px;stroke-linecap:butt;stroke-linejoin:miter;stroke-opacity:1" d="M 716.579,173.448 725.557,166.715 z" id="boundary" inkscape:connector-curvature="0" />
	<path style="fill:none;stroke:red;stroke-width:1px;stroke-linecap:butt;stroke-linejoin:miter;stroke-opacity:1" d="M 718.824,116.217 728.923,110.606 z" id="boundary" inkscape:connector-curvature="0" />
	<path style="fill:none;stroke:red;stroke-width:1px;stroke-linecap:butt;stroke-linejoin:miter;stroke-opacity:1" d="M 725.557,166.715 736.778,161.104 z" id="boundary" inkscape:connector-curvature="0" />
	<path style="fill:none;stroke:red;stroke-width:1px;stroke-linecap:butt;stroke-linejoin:miter;stroke-opacity:1" d="M 728.923,110.606 739.023,104.995 z" id="boundary" inkscape:connector-curvature="0" />
	<path style="fill:none;stroke:red;stroke-width:1px;stroke-linecap:butt;stroke-linejoin:miter;stroke-opacity:1" d="M 736.778,161.104 745.756,151.005 z" id="boundary" inkscape:connector-curvature="0" />
	<path style="fill:none;stroke:red;stroke-width:1px;stroke-linecap:butt;stroke-linejoin:miter;stroke-opacity:1" d="M 739.023,104.995 749.122,99.3846 z" id="boundary" inkscape:connector-curvature="0" />
	<path style="fill:none;stroke:red;stroke-width:1px;stroke-linecap:butt;stroke-linejoin:miter;stroke-opacity:1" d="M 745.756,151.005 755.855,145.394 z" id="boundary" inkscape:connector-curvature="0" />
	<path style="fill:none;stroke:red;stroke-width:1px;stroke-linecap:butt;stroke-linejoin:miter;stroke-opacity:1" d="M 749.122,99.3846 759.222,93.7738 z" id="boundary" inkscape:connector-curvature="0" />
	<path style="fill:none;stroke:red;stroke-width:1px;stroke-linecap:butt;stroke-linejoin:miter;stroke-opacity:1" d="M 755.855,145.394 764.833,138.661 z" id="boundary" inkscape:connector-curvature="0" />
	<path style="fill:none;stroke:red;stroke-width:1px;stroke-linecap:butt;stroke-linejoin:miter;stroke-opacity:1" d="M 759.222,93.7738 770.443,88.1629 z" id="boundary" inkscape:connector-curvature="0" />
	<path style="fill:none;stroke:red;stroke-width:1px;stroke-linecap:butt;stroke-linejoin:miter;stroke-opacity:1" d="M 764.833,138.661 776.054,133.05 z" id="boundary" inkscape:connector-curvature="0" />
	<path style="fill:none;stroke:red;stroke-width:1px;stroke-linecap:butt;stroke-linejoin:miter;stroke-opacity:1" d="M 770.443,88.1629 781.665,82.552 z" id="boundary" inkscape:connector-curvature="0" />
	<path style="fill:none;stroke:red;stroke-width:1px;stroke-linecap:butt;stroke-linejoin:miter;stroke-opacity:1" d="M 776.054,133.05 787.276,127.439 z" id="boundary" inkscape:connector-curvature="0" />
	<path style="fill:none;stroke:red;stroke-width:1px;stroke-linecap:butt;stroke-linejoin:miter;stroke-opacity:1" d="M 781.665,82.552 792.887,76.9412 z" id="boundary" inkscape:connector-curvature="0" />
	<path style="fill:none;stroke:red;stroke-width:1px;stroke-linecap:butt;stroke-linejoin:miter;stroke-opacity:1" d="M 787.276,127.439 798.498,121.828 z" id="boundary" inkscape:connector-curvature="0" />
	<path style="fill:none;stroke:red;stroke-width:1px;stroke-linecap:butt;stroke-linejoin:miter;stroke-opacity:1" d="M 792.887,76.9412 804.109,76.9412 z" id="boundary" inkscape:connector-curvature="0" />
	<path style="fill:none;stroke:red;stroke-width:1px;stroke-linecap:butt;stroke-linejoin:miter;stroke-opacity:1" d="M 798.498,121.828 807.475,111.729 z" id="boundary" inkscape:connector-curvature="0" />
	<path style="fill:none;stroke:red;stroke-width:1px;stroke-linecap:butt;stroke-linejoin:miter;stroke-opacity:1" d="M 804.109,76.9412 814.208,71.3303 z" id="boundary" inkscape:connector-curvature="0" />
	<path style="fill:none;stroke:red;stroke-width:1px;stroke-linecap:butt;stroke-linejoin:miter;stroke-opacity:1" d="M 807.475,111.729 818.697,106.118 z" id="boundary" inkscape:connector-curvature="0" />
	<path style="fill:none;stroke:red;stroke-width:1px;stroke-linecap:butt;stroke-linejoin:miter;stroke-opacity:1" d="M 814.208,71.3303 824.308,65.7195 z" id="boundary" inkscape:connector-curvature="0" />
	<path style="fill:none;stroke:red;stroke-width:1px;stroke-linecap:butt;stroke-linejoin:miter;stroke-opacity:1" d="M 818.697,106.118 829.919,100.507 z" id="boundary" inkscape:connector-curvature="0" />
	<path style="fill:none;stroke:red;stroke-width:1px;stroke-linecap:butt;stroke-linejoin:miter;stroke-opacity:1" d="M 824.308,65.7195 835.529,62.3529 z" id="boundary" inkscape:connector-curvature="0" />
	<path style="fill:none;stroke:red;stroke-width:1px;stroke-linecap:butt;stroke-linejoin:miter;stroke-opacity:1" d="M 829.919,100.507 841.14,94.8959 z" id="boundary" inkscape:connector-curvature="0" />
	<path style="fill:none;stroke:red;stroke-width:1px;stroke-linecap:butt;stroke-linejoin:miter;stroke-opacity:1" d="M 835.529,62.3529 846.751,56.7421 z" id="boundary" inkscape:connector-curvature="0" />
	<path style="fill:none;stroke:red;stroke-width:1px;stroke-linecap:butt;stroke-linejoin:miter;stroke-opacity:1" d="M 841.14,94.8959 852.362,89.2851 z" id="boundary" inkscape:connector-curvature="0" />
	<path style="fill:none;stroke:red;stroke-width:1px;stroke-linecap:butt;stroke-linejoin:miter;stroke-opacity:1" d="M 846.751,56.7421 857.973,54.4977 z" id="boundary" inkscape:connector-curvature="0" />
	<path style="fill:none;stroke:red;stroke-width:1px;stroke-linecap:butt;stroke-linejoin:miter;stroke-opacity:1" d="M 852.362,89.2851 863.584,83.6742 z" id="boundary" inkscape:connector-curvature="0" />
	<path style="fill:none;stroke:red;stroke-width:1px;stroke-linecap:butt;stroke-linejoin:miter;stroke-opacity:1" d="M 857.973,54.4977 869.195,51.1312 z" id="boundary" inkscape:connector-curvature="0" />
	<path style="fill:none;stroke:red;stroke-width:1px;stroke-linecap:butt;stroke-linejoin:miter;stroke-opacity:1" d="M 863.584,83.6742 874.805,83.6742 z" id="boundary" inkscape:connector-curvature="0" />
	<path style="fill:none;stroke:red;stroke-width:1px;stroke-linecap:butt;stroke-linejoin:miter;stroke-opacity:1" d="M 869.195,51.1312 880.416,48.8869 z" id="boundary" inkscape:connector-curvature="0" />
	<path style="fill:none;stroke:red;stroke-width:1px;stroke-linecap:butt;stroke-linejoin:miter;stroke-opacity:1" d="M 874.805,83.6742 884.905,78.0633 z" id="boundary" inkscape:connector-curvature="0" />
	<path style="fill:none;stroke:red;stroke-width:1px;stroke-linecap:butt;stroke-linejoin:miter;stroke-opacity:1" d="M 880.416,48.8869 891.638,48.8869 z" id="boundary" inkscape:connector-curvature="0" />
	<path style="fill:none;stroke:red;stroke-width:1px;stroke-linecap:butt;stroke-linejoin:miter;stroke-opacity:1" d="M 884.905,78.0633 895.005,72.4525 z" id="boundary" inkscape:connector-curvature="0" />
	<path style="fill:none;stroke:red;stroke-width:1px;stroke-linecap:butt;stroke-linejoin:miter;stroke-opacity:1" d="M 891.638,48.8869 902.86,45.5204 z" id="boundary" inkscape:connector-curvature="0" />
	<path style="fill:none;stroke:red;stroke-width:1px;stroke-linecap:butt;stroke-linejoin:miter;stroke-opacity:1" d="M 895.005,72.4525 905.104,66.8416 z" id="boundary" inkscape:connector-curvature="0" />
	<path style="fill:none;stroke:red;stroke-width:1px;stroke-linecap:butt;stroke-linejoin:miter;stroke-opacity:1" d="M 902.86,45.5204 914.081,43.276 z" id="boundary" inkscape:connector-curvature="0" />
	<path style="fill:none;stroke:red;stroke-width:1px;stroke-linecap:butt;stroke-linejoin:miter;stroke-opacity:1" d="M 905.104,66.8416 916.326,66.8416 z" id="boundary" inkscape:connector-curvature="0" />
	<path style="fill:none;stroke:red;stroke-width:1px;stroke-linecap:butt;stroke-linejoin:miter;stroke-opacity:1" d="M 914.081,43.276 925.303,43.276 z" id="boundary" inkscape:connector-curvature="0" />
	<path style="fill:none;stroke:red;stroke-width:1px;stroke-linecap:butt;stroke-linejoin:miter;stroke-opacity:1" d="M 916.326,66.8416 926.425,61.2308 z" id="boundary" inkscape:connector-curvature="0" />
	<path style="fill:none;stroke:red;stroke-width:1px;stroke-linecap:butt;stroke-linejoin:miter;stroke-opacity:1" d="M 925.303,43.276 936.525,39.9095 z" id="boundary" inkscape:connector-curvature="0" />
	<path style="fill:none;stroke:red;stroke-width:1px;stroke-linecap:butt;stroke-linejoin:miter;stroke-opacity:1" d="M 926.425,61.2308 937.647,61.2308 z" id="boundary" inkscape:connector-curvature="0" />
	<path style="fill:none;stroke:red;stroke-width:1px;stroke-linecap:butt;stroke-linejoin:miter;stroke-opacity:1" d="M 936.525,39.9095 947.747,37.6652 z" id="boundary" inkscape:connector-curvature="0" />
	<path style="fill:none;stroke:red;stroke-width:1px;stroke-linecap:butt;stroke-linejoin:miter;stroke-opacity:1" d="M 937.647,61.2308 947.747,55.6199 z" id="boundary" inkscape:connector-curvature="0" />
	<path style="fill:none;stroke:red;stroke-width:1px;stroke-linecap:butt;stroke-linejoin:miter;stroke-opacity:1" d="M 947.747,37.6652 958.968,34.2986 z" id="boundary" inkscape:connector-curvature="0" />
	<path style="fill:none;stroke:red;stroke-width:1px;stroke-linecap:butt;stroke-linejoin:miter;stroke-opacity:1" d="M 947.747,55.6199 957.846,50.009 z" id="boundary" inkscape:connector-curvature="0" />
	<path style="fill:none;stroke:red;stroke-width:1px;stroke-linecap:butt;stroke-linejoin:miter;stroke-opacity:1" d="M 957.846,50.009 967.946,44.3982 z" id="boundary" inkscape:connector-curvature="0" />
	<path style="fill:none;stroke:red;stroke-width:1px;stroke-linecap:butt;stroke-linejoin:miter;stroke-opacity:1" d="M 958.968,34.2986 970.19,32.0543 z" id="boundary" inkscape:connector-curvature="0" />
	<path style="fill:none;stroke:red;stroke-width:1px;stroke-linecap:butt;stroke-linejoin:miter;stroke-opacity:1" d="M 967.946,44.3982 979.167,38.7873 z" id="boundary" inkscape:connector-curvature="0" />
	<path style="fill:none;stroke:red;stroke-width:1px;stroke-linecap:butt;stroke-linejoin:miter;stroke-opacity:1" d="M 970.19,32.0543 980.29,26.4434 z" id="boundary" inkscape:connector-curvature="0" />
	<path style="fill:none;stroke:red;stroke-width:1px;stroke-linecap:butt;stroke-linejoin:miter;stroke-opacity:1" d="M 979.167,38.7873 990.389,36.543 z" id="boundary" inkscape:connector-curvature="0" />
	<path style="fill:none;stroke:red;stroke-width:1px;stroke-linecap:butt;stroke-linejoin:miter;stroke-opacity:1" d="M 980.29,26.4434 996,26.4434 z" id="boundary" inkscape:connector-curvature="0" />
	<path style="fill:none;stroke:red;stroke-width:1px;stroke-linecap:butt;stroke-linejoin:miter;stroke-opacity:1" d="M 990.389,36.543 996,26.4434 z" id="boundary" inkscape:connector-curvature="0" />
	<circle cx="4" cy="282.299" r="4" fill="#0" id="circle0"/>
	<circle cx="9.61086" cy="248.633" r="4" fill="#0" id="circle1"/>
	<circle cx="9.61086" cy="259.855" r="4" fill="#0" id="circle2"/>
	<circle cx="10.733" cy="291.276" r="4" fill="#0" id="circle3"/>
	<circle cx="12.9774" cy="273.321" r="4" fill="#0" id="circle4"/>
	<circle cx="20.8326" cy="243.023" r="4" fill="#0" id="circle5"/>
	<circle cx="20.8326" cy="257.611" r="4" fill="#0" id="circle6"/>
	<circle cx="20.8326" cy="285.665" r="4" fill="#0" id="circle7"/>
	<circle cx="24.1991" cy="273.321" r="4" fill="#0" id="circle8"/>
	<circle cx="26.4434" cy="35.4208" r="4" fill="#0" id="circle9"/>
	<circle cx="26.4434" cy="46.6425" r="4" fill="#0" id="circle10"/>
	<circle cx="32.0543" cy="97.1403" r="4" fill="#0" id="circle11"/>
	<circle cx="32.0543" cy="108.362" r="4" fill="#0" id="circle12"/>
	<circle cx="32.0543" cy="239.656" r="4" fill="#0" id="circle13"/>
	<circle cx="32.0543" cy="257.611" r="4" fill="#0" id="circle14"/>
	<circle cx="32.0543" cy="285.665" r="4" fill="#0" id="circle15"/>
	<circle cx="35.4208" cy="26.4434" r="4" fill="#0" id="circle16"/>
	<circle cx="35.4208" cy="54.4977" r="4" fill="#0" id="circle17"/>
	<circle cx="37.6652" cy="267.71" r="4" fill="#0" id="circle18"/>
	<circle cx="41.0317" cy="88.1629" r="4" fill="#0" id="circle19"/>
	<circle cx="41.0317" cy="116.217" r="4" fill="#0" id="circle20"/>
	<circle cx="42.1538" cy="291.276" r="4" fill="#0" id="circle21"/>
	<circle cx="43.276" cy="239.656" r="4" fill="#0" id="circle22"/>
	<circle cx="43.276" cy="257.611" r="4" fill="#0" id="circle23"/>
	<circle cx="44.3982" cy="61.2308" r="4" fill="#0" id="circle24"/>
	<circle cx="45.5204" cy="20.8326" r="4" fill="#0" id="circle25"/>
	<circle cx="48.8869" cy="267.71" r="4" fill="#0" id="circle26"/>
	<circle cx="52.2534" cy="88.1629" r="4" fill="#0" id="circle27"/>
	<circle cx="52.2534" cy="117.339" r="4" fill="#0" id="circle28"/>
	<circle cx="53.3756" cy="245.267" r="4" fill="#0" id="circle29"/>
	<circle cx="53.3756" cy="291.276" r="4" fill="#0" id="circle30"/>
	<circle cx="55.6199" cy="63.4751" r="4" fill="#0" id="circle31"/>
	<circle cx="56.7421" cy="20.8326" r="4" fill="#0" id="circle32"/>
	<circle cx="63.4751" cy="88.1629" r="4" fill="#0" id="circle33"/>
	<circle cx="63.4751" cy="117.339" r="4" fill="#0" id="circle34"/>
	<circle cx="63.4751" cy="250.878" r="4" fill="#0" id="circle35"/>
	<circle cx="63.4751" cy="296.887" r="4" fill="#0" id="circle36"/>
	<circle cx="66.8416" cy="66.8416" r="4" fill="#0" id="circle37"/>
	<circle cx="67.9638" cy="20.8326" r="4" fill="#0" id="circle38"/>
	<circle cx="71.3303" cy="259.855" r="4" fill="#0" id="circle39"/>
	<circle cx="74.6968" cy="88.1629" r="4" fill="#0" id="circle40"/>
	<circle cx="74.6968" cy="117.339" r="4" fill="#0" id="circle41"/>
	<circle cx="74.6968" cy="296.887" r="4" fill="#0" id="circle42"/>
	<circle cx="78.0633" cy="66.8416" r="4" fill="#0" id="circle43"/>
	<circle cx="78.0633" cy="268.833" r="4" fill="#0" id="circle44"/>
	<circle cx="79.1855" cy="16.3439" r="4" fill="#0" id="circle45"/>
	<circle cx="82.552" cy="416.959" r="4" fill="#0" id="circle46"/>
	<circle cx="82.552" cy="428.181" r="4" fill="#0" id="circle47"/>
	<circle cx="82.552" cy="439.403" r="4" fill="#0" id="circle48"/>
	<circle cx="83.6742" cy="278.932" r="4" fill="#0" id="circle49"/>
	<circle cx="83.6742" cy="304.742" r="4" fill="#0" id="circle50"/>
	<circle cx="85.9186" cy="82.552" r="4" fill="#0" id="circle51"/>
	<circle cx="85.9186" cy="117.339" r="4" fill="#0" id="circle52"/>
	<circle cx="88.1629" cy="449.502" r="4" fill="#0" id="circle53"/>
	<circle cx="89.2851" cy="289.032" r="4" fill="#0" id="circle54"/>
	<circle cx="90.4072" cy="15.2217" r="4" fill="#0" id="circle55"/>
	<circle cx="91.5294" cy="72.4525" r="4" fill="#0" id="circle56"/>
	<circle cx="91.5294" cy="313.719" r="4" fill="#0" id="circle57"/>
	<circle cx="91.5294" cy="407.982" r="4" fill="#0" id="circle58"/>
	<circle cx="94.8959" cy="425.937" r="4" fill="#0" id="circle59"/>
	<circle cx="97.1403" cy="82.552" r="4" fill="#0" id="circle60"/>
	<circle cx="97.1403" cy="117.339" r="4" fill="#0" id="circle61"/>
	<circle cx="97.1403" cy="396.76" r="4" fill="#0" id="circle62"/>
	<circle cx="98.2624" cy="295.765" r="4" fill="#0" id="circle63"/>
	<circle cx="99.3846" cy="453.991" r="4" fill="#0" id="circle64"/>
	<circle cx="100.507" cy="321.575" r="4" fill="#0" id="circle65"/>
	<circle cx="100.507" cy="436.036" r="4" fill="#0" id="circle66"/>
	<circle cx="101.629" cy="15.2217" r="4" fill="#0" id="circle67"/>
	<circle cx="106.118" cy="387.783" r="4" fill="#0" id="circle68"/>
	<circle cx="108.362" cy="117.339" r="4" fill="#0" id="circle69"/>
	<circle cx="108.362" cy="301.376" r="4" fill="#0" id="circle70"/>
	<circle cx="108.362" cy="330.552" r="4" fill="#0" id="circle71"/>
	<circle cx="109.484" cy="442.769" r="4" fill="#0" id="circle72"/>
	<circle cx="110.606" cy="453.991" r="4" fill="#0" id="circle73"/>
	<circle cx="111.729" cy="431.548" r="4" fill="#0" id="circle74"/>
	<circle cx="112.851" cy="15.2217" r="4" fill="#0" id="circle75"/>
	<circle cx="117.339" cy="338.407" r="4" fill="#0" id="circle76"/>
	<circle cx="117.339" cy="382.172" r="4" fill="#0" id="circle77"/>
	<circle cx="117.339" cy="397.882" r="4" fill="#0" id="circle78"/>
	<circle cx="118.462" cy="306.986" r="4" fill="#0" id="circle79"/>
	<circle cx="119.584" cy="121.828" r="4" fill="#0" id="circle80"/>
	<circle cx="121.828" cy="437.158" r="4" fill="#0" id="circle81"/>
	<circle cx="122.95" cy="407.982" r="4" fill="#0" id="circle82"/>
	<circle cx="122.95" cy="419.204" r="4" fill="#0" id="circle83"/>
	<circle cx="124.072" cy="15.2217" r="4" fill="#0" id="circle84"/>
	<circle cx="125.195" cy="347.385" r="4" fill="#0" id="circle85"/>
	<circle cx="127.439" cy="314.842" r="4" fill="#0" id="circle86"/>
	<circle cx="127.439" cy="392.271" r="4" fill="#0" id="circle87"/>
	<circle cx="128.561" cy="376.561" r="4" fill="#0" id="circle88"/>
	<circle cx="129.683" cy="127.439" r="4" fill="#0" id="circle89"/>
	<circle cx="130.805" cy="430.425" r="4" fill="#0" id="circle90"/>
	<circle cx="133.05" cy="175.692" r="4" fill="#0" id="circle91"/>
	<circle cx="133.05" cy="186.914" r="4" fill="#0" id="circle92"/>
	<circle cx="133.05" cy="198.136" r="4" fill="#0" id="circle93"/>
	<circle cx="134.172" cy="9.61086" r="4" fill="#0" id="circle94"/>
	<circle cx="136.416" cy="351.873" r="4" fill="#0" id="circle95"/>
	<circle cx="137.538" cy="368.706" r="4" fill="#0" id="circle96"/>
	<circle cx="137.538" cy="386.661" r="4" fill="#0" id="circle97"/>
	<circle cx="138.661" cy="153.249" r="4" fill="#0" id="circle98"/>
	<circle cx="138.661" cy="164.471" r="4" fill="#0" id="circle99"/>
	<circle cx="138.661" cy="208.235" r="4" fill="#0" id="circle100"/>
	<circle cx="138.661" cy="219.457" r="4" fill="#0" id="circle101"/>
	<circle cx="138.661" cy="230.679" r="4" fill="#0" id="circle102"/>
	<circle cx="138.661" cy="315.964" r="4" fill="#0" id="circle103"/>
	<circle cx="140.905" cy="128.561" r="4" fill="#0" id="circle104"/>
	<circle cx="144.271" cy="4" r="4" fill="#0" id="circle105"/>
	<circle cx="144.271" cy="139.783" r="4" fill="#0" id="circle106"/>
	<circle cx="144.271" cy="240.778" r="4" fill="#0" id="circle107"/>
	<circle cx="144.271" cy="304.742" r="4" fill="#0" id="circle108"/>
	<circle cx="147.638" cy="252" r="4" fill="#0" id="circle109"/>
	<circle cx="147.638" cy="352.995" r="4" fill="#0" id="circle110"/>
	<circle cx="147.638" cy="381.05" r="4" fill="#0" id="circle111"/>
	<circle cx="155.493" cy="4" r="4" fill="#0" id="circle112"/>
	<circle cx="155.493" cy="260.977" r="4" fill="#0" id="circle113"/>
	<circle cx="155.493" cy="299.131" r="4" fill="#0" id="circle114"/>
	<circle cx="157.738" cy="375.439" r="4" fill="#0" id="circle115"/>
	<circle cx="161.104" cy="271.077" r="4" fill="#0" id="circle116"/>
	<circle cx="164.471" cy="290.154" r="4" fill="#0" id="circle117"/>
	<circle cx="165.593" cy="9.61086" r="4" fill="#0" id="circle118"/>
	<circle cx="168.959" cy="375.439" r="4" fill="#0" id="circle119"/>
	<circle cx="175.692" cy="15.2217" r="4" fill="#0" id="circle120"/>
	<circle cx="179.059" cy="369.828" r="4" fill="#0" id="circle121"/>
	<circle cx="185.792" cy="20.8326" r="4" fill="#0" id="circle122"/>
	<circle cx="190.281" cy="369.828" r="4" fill="#0" id="circle123"/>
	<circle cx="194.769" cy="28.6878" r="4" fill="#0" id="circle124"/>
	<circle cx="200.38" cy="364.217" r="4" fill="#0" id="circle125"/>
	<circle cx="201.502" cy="37.6652" r="4" fill="#0" id="circle126"/>
	<circle cx="209.357" cy="357.484" r="4" fill="#0" id="circle127"/>
	<circle cx="212.724" cy="41.0317" r="4" fill="#0" id="circle128"/>
	<circle cx="217.213" cy="52.2534" r="4" fill="#0" id="circle129"/>
	<circle cx="218.335" cy="139.783" r="4" fill="#0" id="circle130"/>
	<circle cx="218.335" cy="151.005" r="4" fill="#0" id="circle131"/>
	<circle cx="218.335" cy="162.226" r="4" fill="#0" id="circle132"/>
	<circle cx="218.335" cy="173.448" r="4" fill="#0" id="circle133"/>
	<circle cx="218.335" cy="347.385" r="4" fill="#0" id="circle134"/>
	<circle cx="222.824" cy="62.3529" r="4" fill="#0" id="circle135"/>
	<circle cx="223.946" cy="73.5747" r="4" fill="#0" id="circle136"/>
	<circle cx="223.946" cy="111.729" r="4" fill="#0" id="circle137"/>
	<circle cx="223.946" cy="122.95" r="4" fill="#0" id="circle138"/>
	<circle cx="227.312" cy="84.7964" r="4" fill="#0" id="circle139"/>
	<circle cx="227.312" cy="180.181" r="4" fill="#0" id="circle140"/>
	<circle cx="228.434" cy="341.774" r="4" fill="#0" id="circle141"/>
	<circle cx="229.557" cy="96.0181" r="4" fill="#0" id="circle142"/>
	<circle cx="238.534" cy="177.937" r="4" fill="#0" id="circle143"/>
	<circle cx="239.656" cy="341.774" r="4" fill="#0" id="circle144"/>
	<circle cx="249.756" cy="177.937" r="4" fill="#0" id="circle145"/>
	<circle cx="249.756" cy="347.385" r="4" fill="#0" id="circle146"/>
	<circle cx="260.977" cy="177.937" r="4" fill="#0" id="circle147"/>
	<circle cx="260.977" cy="347.385" r="4" fill="#0" id="circle148"/>
	<circle cx="271.077" cy="352.995" r="4" fill="#0" id="circle149"/>
	<circle cx="272.199" cy="177.937" r="4" fill="#0" id="circle150"/>
	<circle cx="273.321" cy="506.733" r="4" fill="#0" id="circle151"/>
	<circle cx="273.321" cy="529.176" r="4" fill="#0" id="circle152"/>
	<circle cx="273.321" cy="568.452" r="4" fill="#0" id="circle153"/>
	<circle cx="276.688" cy="363.095" r="4" fill="#0" id="circle154"/>
	<circle cx="278.932" cy="539.276" r="4" fill="#0" id="circle155"/>
	<circle cx="280.054" cy="577.43" r="4" fill="#0" id="circle156"/>
	<circle cx="281.176" cy="374.317" r="4" fill="#0" id="circle157"/>
	<circle cx="282.299" cy="172.326" r="4" fill="#0" id="circle158"/>
	<circle cx="282.299" cy="497.756" r="4" fill="#0" id="circle159"/>
	<circle cx="282.299" cy="559.475" r="4" fill="#0" id="circle160"/>
	<circle cx="284.543" cy="510.1" r="4" fill="#0" id="circle161"/>
	<circle cx="284.543" cy="523.566" r="4" fill="#0" id="circle162"/>
	<circle cx="286.787" cy="384.416" r="4" fill="#0" id="circle163"/>
	<circle cx="290.154" cy="540.398" r="4" fill="#0" id="circle164"/>
	<circle cx="291.276" cy="395.638" r="4" fill="#0" id="circle165"/>
	<circle cx="291.276" cy="577.43" r="4" fill="#0" id="circle166"/>
	<circle cx="293.52" cy="172.326" r="4" fill="#0" id="circle167"/>
	<circle cx="293.52" cy="497.756" r="4" fill="#0" id="circle168"/>
	<circle cx="293.52" cy="559.475" r="4" fill="#0" id="circle169"/>
	<circle cx="300.253" cy="403.493" r="4" fill="#0" id="circle170"/>
	<circle cx="301.376" cy="534.787" r="4" fill="#0" id="circle171"/>
	<circle cx="302.498" cy="577.43" r="4" fill="#0" id="circle172"/>
	<circle cx="303.62" cy="166.715" r="4" fill="#0" id="circle173"/>
	<circle cx="304.742" cy="497.756" r="4" fill="#0" id="circle174"/>
	<circle cx="304.742" cy="559.475" r="4" fill="#0" id="circle175"/>
	<circle cx="308.109" cy="412.471" r="4" fill="#0" id="circle176"/>
	<circle cx="310.353" cy="542.643" r="4" fill="#0" id="circle177"/>
	<circle cx="313.719" cy="577.43" r="4" fill="#0" id="circle178"/>
	<circle cx="314.842" cy="166.715" r="4" fill="#0" id="circle179"/>
	<circle cx="314.842" cy="503.367" r="4" fill="#0" id="circle180"/>
	<circle cx="314.842" cy="553.864" r="4" fill="#0" id="circle181"/>
	<circle cx="317.086" cy="420.326" r="4" fill="#0" id="circle182"/>
	<circle cx="323.819" cy="583.041" r="4" fill="#0" id="circle183"/>
	<circle cx="324.941" cy="429.303" r="4" fill="#0" id="circle184"/>
	<circle cx="324.941" cy="508.977" r="4" fill="#0" id="circle185"/>
	<circle cx="326.063" cy="166.715" r="4" fill="#0" id="circle186"/>
	<circle cx="333.919" cy="437.158" r="4" fill="#0" id="circle187"/>
	<circle cx="335.041" cy="514.588" r="4" fill="#0" id="circle188"/>
	<circle cx="335.041" cy="583.041" r="4" fill="#0" id="circle189"/>
	<circle cx="337.285" cy="166.715" r="4" fill="#0" id="circle190"/>
	<circle cx="340.652" cy="446.136" r="4" fill="#0" id="circle191"/>
	<circle cx="340.652" cy="489.9" r="4" fill="#0" id="circle192"/>
	<circle cx="340.652" cy="501.122" r="4" fill="#0" id="circle193"/>
	<circle cx="346.262" cy="456.235" r="4" fill="#0" id="circle194"/>
	<circle cx="346.262" cy="467.457" r="4" fill="#0" id="circle195"/>
	<circle cx="346.262" cy="478.679" r="4" fill="#0" id="circle196"/>
	<circle cx="346.262" cy="579.674" r="4" fill="#0" id="circle197"/>
	<circle cx="347.385" cy="172.326" r="4" fill="#0" id="circle198"/>
	<circle cx="357.484" cy="577.43" r="4" fill="#0" id="circle199"/>
	<circle cx="358.606" cy="175.692" r="4" fill="#0" id="circle200"/>
	<circle cx="368.706" cy="577.43" r="4" fill="#0" id="circle201"/>
	<circle cx="369.828" cy="177.937" r="4" fill="#0" id="circle202"/>
	<circle cx="375.439" cy="392.271" r="4" fill="#0" id="circle203"/>
	<circle cx="375.439" cy="403.493" r="4" fill="#0" id="circle204"/>
	<circle cx="379.928" cy="574.063" r="4" fill="#0" id="circle205"/>
	<circle cx="381.05" cy="181.303" r="4" fill="#0" id="circle206"/>
	<circle cx="381.05" cy="413.593" r="4" fill="#0" id="circle207"/>
	<circle cx="385.538" cy="386.661" r="4" fill="#0" id="circle208"/>
	<circle cx="386.661" cy="423.692" r="4" fill="#0" id="circle209"/>
	<circle cx="386.661" cy="434.914" r="4" fill="#0" id="circle210"/>
	<circle cx="386.661" cy="510.1" r="4" fill="#0" id="circle211"/>
	<circle cx="391.149" cy="568.452" r="4" fill="#0" id="circle212"/>
	<circle cx="392.271" cy="183.548" r="4" fill="#0" id="circle213"/>
	<circle cx="392.271" cy="445.014" r="4" fill="#0" id="circle214"/>
	<circle cx="392.271" cy="456.235" r="4" fill="#0" id="circle215"/>
	<circle cx="392.271" cy="467.457" r="4" fill="#0" id="circle216"/>
	<circle cx="392.271" cy="478.679" r="4" fill="#0" id="circle217"/>
	<circle cx="392.271" cy="489.9" r="4" fill="#0" id="circle218"/>
	<circle cx="392.271" cy="520.199" r="4" fill="#0" id="circle219"/>
	<circle cx="392.271" cy="531.421" r="4" fill="#0" id="circle220"/>
	<circle cx="392.271" cy="542.643" r="4" fill="#0" id="circle221"/>
	<circle cx="392.271" cy="553.864" r="4" fill="#0" id="circle222"/>
	<circle cx="396.76" cy="386.661" r="4" fill="#0" id="circle223"/>
	<circle cx="403.493" cy="183.548" r="4" fill="#0" id="circle224"/>
	<circle cx="407.982" cy="386.661" r="4" fill="#0" id="circle225"/>
	<circle cx="414.715" cy="183.548" r="4" fill="#0" id="circle226"/>
	<circle cx="419.204" cy="383.294" r="4" fill="#0" id="circle227"/>
	<circle cx="425.937" cy="183.548" r="4" fill="#0" id="circle228"/>
	<circle cx="428.181" cy="375.439" r="4" fill="#0" id="circle229"/>
	<circle cx="437.158" cy="183.548" r="4" fill="#0" id="circle230"/>
	<circle cx="438.281" cy="369.828" r="4" fill="#0" id="circle231"/>
	<circle cx="442.769" cy="358.606" r="4" fill="#0" id="circle232"/>
	<circle cx="448.38" cy="183.548" r="4" fill="#0" id="circle233"/>
	<circle cx="451.747" cy="350.751" r="4" fill="#0" id="circle234"/>
	<circle cx="459.602" cy="183.548" r="4" fill="#0" id="circle235"/>
	<circle cx="459.602" cy="341.774" r="4" fill="#0" id="circle236"/>
	<circle cx="468.579" cy="333.919" r="4" fill="#0" id="circle237"/>
	<circle cx="470.824" cy="183.548" r="4" fill="#0" id="circle238"/>
	<circle cx="476.434" cy="324.941" r="4" fill="#0" id="circle239"/>
	<circle cx="482.045" cy="183.548" r="4" fill="#0" id="circle240"/>
	<circle cx="485.412" cy="317.086" r="4" fill="#0" id="circle241"/>
	<circle cx="493.267" cy="183.548" r="4" fill="#0" id="circle242"/>
	<circle cx="493.267" cy="308.109" r="4" fill="#0" id="circle243"/>
	<circle cx="502.244" cy="300.253" r="4" fill="#0" id="circle244"/>
	<circle cx="504.489" cy="183.548" r="4" fill="#0" id="circle245"/>
	<circle cx="510.1" cy="291.276" r="4" fill="#0" id="circle246"/>
	<circle cx="515.71" cy="183.548" r="4" fill="#0" id="circle247"/>
	<circle cx="520.199" cy="285.665" r="4" fill="#0" id="circle248"/>
	<circle cx="526.932" cy="183.548" r="4" fill="#0" id="circle249"/>
	<circle cx="529.176" cy="278.932" r="4" fill="#0" id="circle250"/>
	<circle cx="538.154" cy="183.548" r="4" fill="#0" id="circle251"/>
	<circle cx="540.398" cy="273.321" r="4" fill="#0" id="circle252"/>
	<circle cx="549.376" cy="180.181" r="4" fill="#0" id="circle253"/>
	<circle cx="549.376" cy="263.222" r="4" fill="#0" id="circle254"/>
	<circle cx="560.597" cy="177.937" r="4" fill="#0" id="circle255"/>
	<circle cx="560.597" cy="257.611" r="4" fill="#0" id="circle256"/>
	<circle cx="570.697" cy="172.326" r="4" fill="#0" id="circle257"/>
	<circle cx="570.697" cy="252" r="4" fill="#0" id="circle258"/>
	<circle cx="580.796" cy="246.389" r="4" fill="#0" id="circle259"/>
	<circle cx="581.919" cy="172.326" r="4" fill="#0" id="circle260"/>
	<circle cx="590.896" cy="240.778" r="4" fill="#0" id="circle261"/>
	<circle cx="592.018" cy="166.715" r="4" fill="#0" id="circle262"/>
	<circle cx="600.995" cy="235.167" r="4" fill="#0" id="circle263"/>
	<circle cx="602.118" cy="161.104" r="4" fill="#0" id="circle264"/>
	<circle cx="611.095" cy="229.557" r="4" fill="#0" id="circle265"/>
	<circle cx="613.339" cy="161.104" r="4" fill="#0" id="circle266"/>
	<circle cx="621.195" cy="223.946" r="4" fill="#0" id="circle267"/>
	<circle cx="623.439" cy="155.493" r="4" fill="#0" id="circle268"/>
	<circle cx="630.172" cy="217.213" r="4" fill="#0" id="circle269"/>
	<circle cx="633.538" cy="149.882" r="4" fill="#0" id="circle270"/>
	<circle cx="641.394" cy="211.602" r="4" fill="#0" id="circle271"/>
	<circle cx="643.638" cy="144.271" r="4" fill="#0" id="circle272"/>
	<circle cx="652.615" cy="205.991" r="4" fill="#0" id="circle273"/>
	<circle cx="654.86" cy="142.027" r="4" fill="#0" id="circle274"/>
	<circle cx="663.837" cy="200.38" r="4" fill="#0" id="circle275"/>
	<circle cx="666.081" cy="136.416" r="4" fill="#0" id="circle276"/>
	<circle cx="675.059" cy="194.769" r="4" fill="#0" id="circle277"/>
	<circle cx="677.303" cy="133.05" r="4" fill="#0" id="circle278"/>
	<circle cx="686.281" cy="190.281" r="4" fill="#0" id="circle279"/>
	<circle cx="687.403" cy="127.439" r="4" fill="#0" id="circle280"/>
	<circle cx="696.38" cy="184.67" r="4" fill="#0" id="circle281"/>
	<circle cx="697.502" cy="121.828" r="4" fill="#0" id="circle282"/>
	<circle cx="706.48" cy="179.059" r="4" fill="#0" id="circle283"/>
	<circle cx="708.724" cy="121.828" r="4" fill="#0" id="circle284"/>
	<circle cx="716.579" cy="173.448" r="4" fill="#0" id="circle285"/>
	<circle cx="718.824" cy="116.217" r="4" fill="#0" id="circle286"/>
	<circle cx="725.557" cy="166.715" r="4" fill="#0" id="circle287"/>
	<circle cx="728.923" cy="110.606" r="4" fill="#0" id="circle288"/>
	<circle cx="736.778" cy="161.104" r="4" fill="#0" id="circle289"/>
	<circle cx="739.023" cy="104.995" r="4" fill="#0" id="circle290"/>
	<circle cx="745.756" cy="151.005" r="4" fill="#0" id="circle291"/>
	<circle cx="749.122" cy="99.3846" r="4" fill="#0" id="circle292"/>
	<circle cx="755.855" cy="145.394" r="4" fill="#0" id="circle293"/>
	<circle cx="759.222" cy="93.7738" r="4" fill="#0" id="circle294"/>
	<circle cx="764.833" cy="138.661" r="4" fill="#0" id="circle295"/>
	<circle cx="770.443" cy="88.1629" r="4" fill="#0" id="circle296"/>
	<circle cx="776.054" cy="133.05" r="4" fill="#0" id="circle297"/>
	<circle cx="781.665" cy="82.552" r="4" fill="#0" id="circle298"/>
	<circle cx="787.276" cy="127.439" r="4" fill="#0" id="circle299"/>
	<circle cx="792.887" cy="76.9412" r="4" fill="#0" id="circle300"/>
	<circle cx="798.498" cy="121.828" r="4" fill="#0" id="circle301"/>
	<circle cx="804.109" cy="76.9412" r="4" fill="#0" id="circle302"/>
	<circle cx="807.475" cy="111.729" r="4" fill="#0" id="circle303"/>
	<circle cx="814.208" cy="71.3303" r="4" fill="#0" id="circle304"/>
	<circle cx="818.697" cy="106.118" r="4" fill="#0" id="circle305"/>
	<circle cx="824.308" cy="65.7195" r="4" fill="#0" id="circle306"/>
	<circle cx="829.919" cy="100.507" r="4" fill="#0" id="circle307"/>
	<circle cx="835.529" cy="62.3529" r="4" fill="#0" id="circle308"/>
	<circle cx="841.14" cy="94.8959" r="4" fill="#0" id="circle309"/>
	<circle cx="846.751" cy="56.7421" r="4" fill="#0" id="circle310"/>
	<circle cx="852.362" cy="89.2851" r="4" fill="#0" id="circle311"/>
	<circle cx="857.973" cy="54.4977" r="4" fill="#0" id="circle312"/>
	<circle cx="863.584" cy="83.6742" r="4" fill="#0" id="circle313"/>
	<circle cx="869.195" cy="51.1312" r="4" fill="#0" id="circle314"/>
	<circle cx="874.805" cy="83.6742" r="4" fill="#0" id="circle315"/>
	<circle cx="880.416" cy="48.8869" r="4" fill="#0" id="circle316"/>
	<circle cx="884.905" cy="78.0633" r="4" fill="#0" id="circle317"/>
	<circle cx="891.638" cy="48.8869" r="4" fill="#0" id="circle318"/>
	<circle cx="895.005" cy="72.4525" r="4" fill="#0" id="circle319"/>
	<circle cx="902.86" cy="45.5204" r="4" fill="#0" id="circle320"/>
	<circle cx="905.104" cy="66.8416" r="4" fill="#0" id="circle321"/>
	<circle cx="914.081" cy="43.276" r="4" fill="#0" id="circle322"/>
	<circle cx="916.326" cy="66.8416" r="4" fill="#0" id="circle323"/>
	<circle cx="925.303" cy="43.276" r="4" fill="#0" id="circle324"/>
	<circle cx="926.425" cy="61.2308" r="4" fill="#0" id="circle325"/>
	<circle cx="936.525" cy="39.9095" r="4" fill="#0" id="circle326"/>
	<circle cx="937.647" cy="61.2308" r="4" fill="#0" id="circle327"/>
	<circle cx="947.747" cy="37.6652" r="4" fill="#0" id="circle328"/>
	<circle cx="947.747" cy="55.6199" r="4" fill="#0" id="circle329"/>
	<circle cx="957.846" cy="50.009" r="4" fill="#0" id="circle330"/>
	<circle cx="958.968" cy="34.2986" r="4" fill="#0" id="circle331"/>
	<circle cx="967.946" cy="44.3982" r="4" fill="#0" id="circle332"/>
	<circle cx="970.19" cy="32.0543" r="4" fill="#0" id="circle333"/>
	<circle cx="979.167" cy="38.7873" r="4" fill="#0" id="circle334"/>
	<circle cx="980.29" cy="26.4434" r="4" fill="#0" id="circle335"/>
	<circle cx="990.389" cy="36.543" r="4" fill="#0" id="circle336"/>
	<circle cx="996" cy="26.4434" r="4" fill="#0" id="circle337"/>
	</g>
</svg>