<?xml version="1.0" encoding="UTF-8" standalone="no"?>
<!-- Created with CurveBenchmark -->
<svg
	xmlns:dc="http://purl.org/dc/elements/1.1/"
	xmlns:cc="http://creativecommons.org/ns#"
	xmlns:rdf="http://www.w3.org/1999/02/22-rdf-syntax-ns#"
	xmlns:svg="http://www.w3.org/2000/svg"
	xmlns="http://www.w3.org/2000/svg"
	xmlns:sodipodi="http://sodipodi.sourceforge.net/DTD/sodipodi-0.dtd"
	xmlns:inkscape="http://www.inkscape.org/namespaces/inkscape"
	width="1000"
	height="1000"
	id="svg2"
	version="1.1"
	sodipodi:docname="manifold/vicur-teddy210.png.txt">
<defs
	id="defs4" />
<metadata
	id="metadata7">
	<rdf:RDF>
		<cc:Work
			rdf:about="">
			<dc:format>image/svg+xml</dc:format>
			<dc:type
				rdf:resource="http://purl.org/dc/dcmitype/StillImage" />
			<dc:title></dc:title>
		</cc:Work>
	</rdf:RDF>
</metadata>
<g
	inkscape:label="Layer 1"
	inkscape:groupmode="layer"
	id="layer1">
	<path style="fill:none;stroke:red;stroke-width:1px;stroke-linecap:butt;stroke-linejoin:miter;stroke-opacity:1" d="M 4,512.718 6.82621,540.98 z" id="boundary" inkscape:connector-curvature="0" />
	<path style="fill:none;stroke:red;stroke-width:1px;stroke-linecap:butt;stroke-linejoin:miter;stroke-opacity:1" d="M 4,512.718 15.3048,484.456 z" id="boundary" inkscape:connector-curvature="0" />
	<path style="fill:none;stroke:red;stroke-width:1px;stroke-linecap:butt;stroke-linejoin:miter;stroke-opacity:1" d="M 6.82621,540.98 18.1311,569.242 z" id="boundary" inkscape:connector-curvature="0" />
	<path style="fill:none;stroke:red;stroke-width:1px;stroke-linecap:butt;stroke-linejoin:miter;stroke-opacity:1" d="M 15.3048,484.456 37.9145,456.194 z" id="boundary" inkscape:connector-curvature="0" />
	<path style="fill:none;stroke:red;stroke-width:1px;stroke-linecap:butt;stroke-linejoin:miter;stroke-opacity:1" d="M 18.1311,569.242 35.0883,591.852 z" id="boundary" inkscape:connector-curvature="0" />
	<path style="fill:none;stroke:red;stroke-width:1px;stroke-linecap:butt;stroke-linejoin:miter;stroke-opacity:1" d="M 35.0883,591.852 57.698,611.635 z" id="boundary" inkscape:connector-curvature="0" />
	<path style="fill:none;stroke:red;stroke-width:1px;stroke-linecap:butt;stroke-linejoin:miter;stroke-opacity:1" d="M 37.9145,456.194 66.1766,444.889 z" id="boundary" inkscape:connector-curvature="0" />
	<path style="fill:none;stroke:red;stroke-width:1px;stroke-linecap:butt;stroke-linejoin:miter;stroke-opacity:1" d="M 54.8718,846.211 54.8718,874.473 z" id="boundary" inkscape:connector-curvature="0" />
	<path style="fill:none;stroke:red;stroke-width:1px;stroke-linecap:butt;stroke-linejoin:miter;stroke-opacity:1" d="M 54.8718,846.211 66.1766,806.644 z" id="boundary" inkscape:connector-curvature="0" />
	<path style="fill:none;stroke:red;stroke-width:1px;stroke-linecap:butt;stroke-linejoin:miter;stroke-opacity:1" d="M 54.8718,874.473 54.8718,902.735 z" id="boundary" inkscape:connector-curvature="0" />
	<path style="fill:none;stroke:red;stroke-width:1px;stroke-linecap:butt;stroke-linejoin:miter;stroke-opacity:1" d="M 54.8718,902.735 57.698,930.997 z" id="boundary" inkscape:connector-curvature="0" />
	<path style="fill:none;stroke:red;stroke-width:1px;stroke-linecap:butt;stroke-linejoin:miter;stroke-opacity:1" d="M 57.698,611.635 80.3077,628.593 z" id="boundary" inkscape:connector-curvature="0" />
	<path style="fill:none;stroke:red;stroke-width:1px;stroke-linecap:butt;stroke-linejoin:miter;stroke-opacity:1" d="M 57.698,930.997 63.3504,959.259 z" id="boundary" inkscape:connector-curvature="0" />
	<path style="fill:none;stroke:red;stroke-width:1px;stroke-linecap:butt;stroke-linejoin:miter;stroke-opacity:1" d="M 63.3504,959.259 85.9601,976.217 z" id="boundary" inkscape:connector-curvature="0" />
	<path style="fill:none;stroke:red;stroke-width:1px;stroke-linecap:butt;stroke-linejoin:miter;stroke-opacity:1" d="M 66.1766,444.889 88.7863,427.932 z" id="boundary" inkscape:connector-curvature="0" />
	<path style="fill:none;stroke:red;stroke-width:1px;stroke-linecap:butt;stroke-linejoin:miter;stroke-opacity:1" d="M 66.1766,806.644 77.4815,767.077 z" id="boundary" inkscape:connector-curvature="0" />
	<path style="fill:none;stroke:red;stroke-width:1px;stroke-linecap:butt;stroke-linejoin:miter;stroke-opacity:1" d="M 77.4815,767.077 100.091,750.12 z" id="boundary" inkscape:connector-curvature="0" />
	<path style="fill:none;stroke:red;stroke-width:1px;stroke-linecap:butt;stroke-linejoin:miter;stroke-opacity:1" d="M 80.3077,628.593 105.744,642.724 z" id="boundary" inkscape:connector-curvature="0" />
	<path style="fill:none;stroke:red;stroke-width:1px;stroke-linecap:butt;stroke-linejoin:miter;stroke-opacity:1" d="M 85.9601,976.217 108.57,993.174 z" id="boundary" inkscape:connector-curvature="0" />
	<path style="fill:none;stroke:red;stroke-width:1px;stroke-linecap:butt;stroke-linejoin:miter;stroke-opacity:1" d="M 88.7863,427.932 105.744,405.322 z" id="boundary" inkscape:connector-curvature="0" />
	<path style="fill:none;stroke:red;stroke-width:1px;stroke-linecap:butt;stroke-linejoin:miter;stroke-opacity:1" d="M 100.091,750.12 122.701,733.162 z" id="boundary" inkscape:connector-curvature="0" />
	<path style="fill:none;stroke:red;stroke-width:1px;stroke-linecap:butt;stroke-linejoin:miter;stroke-opacity:1" d="M 105.744,405.322 134.006,394.017 z" id="boundary" inkscape:connector-curvature="0" />
	<path style="fill:none;stroke:red;stroke-width:1px;stroke-linecap:butt;stroke-linejoin:miter;stroke-opacity:1" d="M 105.744,642.724 131.179,656.855 z" id="boundary" inkscape:connector-curvature="0" />
	<path style="fill:none;stroke:red;stroke-width:1px;stroke-linecap:butt;stroke-linejoin:miter;stroke-opacity:1" d="M 108.57,993.174 136.832,996 z" id="boundary" inkscape:connector-curvature="0" />
	<path style="fill:none;stroke:red;stroke-width:1px;stroke-linecap:butt;stroke-linejoin:miter;stroke-opacity:1" d="M 122.701,733.162 150.963,727.51 z" id="boundary" inkscape:connector-curvature="0" />
	<path style="fill:none;stroke:red;stroke-width:1px;stroke-linecap:butt;stroke-linejoin:miter;stroke-opacity:1" d="M 131.179,656.855 159.442,662.507 z" id="boundary" inkscape:connector-curvature="0" />
	<path style="fill:none;stroke:red;stroke-width:1px;stroke-linecap:butt;stroke-linejoin:miter;stroke-opacity:1" d="M 134.006,394.017 162.268,382.712 z" id="boundary" inkscape:connector-curvature="0" />
	<path style="fill:none;stroke:red;stroke-width:1px;stroke-linecap:butt;stroke-linejoin:miter;stroke-opacity:1" d="M 136.832,996 165.094,996 z" id="boundary" inkscape:connector-curvature="0" />
	<path style="fill:none;stroke:red;stroke-width:1px;stroke-linecap:butt;stroke-linejoin:miter;stroke-opacity:1" d="M 139.658,66.1766 145.311,94.4387 z" id="boundary" inkscape:connector-curvature="0" />
	<path style="fill:none;stroke:red;stroke-width:1px;stroke-linecap:butt;stroke-linejoin:miter;stroke-opacity:1" d="M 139.658,66.1766 156.615,43.567 z" id="boundary" inkscape:connector-curvature="0" />
	<path style="fill:none;stroke:red;stroke-width:1px;stroke-linecap:butt;stroke-linejoin:miter;stroke-opacity:1" d="M 145.311,94.4387 148.137,122.701 z" id="boundary" inkscape:connector-curvature="0" />
	<path style="fill:none;stroke:red;stroke-width:1px;stroke-linecap:butt;stroke-linejoin:miter;stroke-opacity:1" d="M 148.137,122.701 159.442,150.963 z" id="boundary" inkscape:connector-curvature="0" />
	<path style="fill:none;stroke:red;stroke-width:1px;stroke-linecap:butt;stroke-linejoin:miter;stroke-opacity:1" d="M 150.963,727.51 179.225,727.51 z" id="boundary" inkscape:connector-curvature="0" />
	<path style="fill:none;stroke:red;stroke-width:1px;stroke-linecap:butt;stroke-linejoin:miter;stroke-opacity:1" d="M 156.615,43.567 179.225,20.9573 z" id="boundary" inkscape:connector-curvature="0" />
	<path style="fill:none;stroke:red;stroke-width:1px;stroke-linecap:butt;stroke-linejoin:miter;stroke-opacity:1" d="M 159.442,150.963 173.573,176.399 z" id="boundary" inkscape:connector-curvature="0" />
	<path style="fill:none;stroke:red;stroke-width:1px;stroke-linecap:butt;stroke-linejoin:miter;stroke-opacity:1" d="M 159.442,662.507 187.704,668.16 z" id="boundary" inkscape:connector-curvature="0" />
	<path style="fill:none;stroke:red;stroke-width:1px;stroke-linecap:butt;stroke-linejoin:miter;stroke-opacity:1" d="M 162.268,382.712 190.53,382.712 z" id="boundary" inkscape:connector-curvature="0" />
	<path style="fill:none;stroke:red;stroke-width:1px;stroke-linecap:butt;stroke-linejoin:miter;stroke-opacity:1" d="M 165.094,996 193.356,996 z" id="boundary" inkscape:connector-curvature="0" />
	<path style="fill:none;stroke:red;stroke-width:1px;stroke-linecap:butt;stroke-linejoin:miter;stroke-opacity:1" d="M 173.573,176.399 179.225,204.661 z" id="boundary" inkscape:connector-curvature="0" />
	<path style="fill:none;stroke:red;stroke-width:1px;stroke-linecap:butt;stroke-linejoin:miter;stroke-opacity:1" d="M 179.225,20.9573 207.487,9.65242 z" id="boundary" inkscape:connector-curvature="0" />
	<path style="fill:none;stroke:red;stroke-width:1px;stroke-linecap:butt;stroke-linejoin:miter;stroke-opacity:1" d="M 179.225,204.661 184.877,232.923 z" id="boundary" inkscape:connector-curvature="0" />
	<path style="fill:none;stroke:red;stroke-width:1px;stroke-linecap:butt;stroke-linejoin:miter;stroke-opacity:1" d="M 179.225,727.51 204.661,713.379 z" id="boundary" inkscape:connector-curvature="0" />
	<path style="fill:none;stroke:red;stroke-width:1px;stroke-linecap:butt;stroke-linejoin:miter;stroke-opacity:1" d="M 184.877,232.923 184.877,261.185 z" id="boundary" inkscape:connector-curvature="0" />
	<path style="fill:none;stroke:red;stroke-width:1px;stroke-linecap:butt;stroke-linejoin:miter;stroke-opacity:1" d="M 184.877,261.185 184.877,289.447 z" id="boundary" inkscape:connector-curvature="0" />
	<path style="fill:none;stroke:red;stroke-width:1px;stroke-linecap:butt;stroke-linejoin:miter;stroke-opacity:1" d="M 184.877,289.447 190.53,317.709 z" id="boundary" inkscape:connector-curvature="0" />
	<path style="fill:none;stroke:red;stroke-width:1px;stroke-linecap:butt;stroke-linejoin:miter;stroke-opacity:1" d="M 187.704,668.16 215.966,662.507 z" id="boundary" inkscape:connector-curvature="0" />
	<path style="fill:none;stroke:red;stroke-width:1px;stroke-linecap:butt;stroke-linejoin:miter;stroke-opacity:1" d="M 190.53,317.709 201.835,345.972 z" id="boundary" inkscape:connector-curvature="0" />
	<path style="fill:none;stroke:red;stroke-width:1px;stroke-linecap:butt;stroke-linejoin:miter;stroke-opacity:1" d="M 190.53,382.712 201.835,345.972 z" id="boundary" inkscape:connector-curvature="0" />
	<path style="fill:none;stroke:red;stroke-width:1px;stroke-linecap:butt;stroke-linejoin:miter;stroke-opacity:1" d="M 193.356,996 221.618,996 z" id="boundary" inkscape:connector-curvature="0" />
	<path style="fill:none;stroke:red;stroke-width:1px;stroke-linecap:butt;stroke-linejoin:miter;stroke-opacity:1" d="M 204.661,713.379 215.966,662.507 z" id="boundary" inkscape:connector-curvature="0" />
	<path style="fill:none;stroke:red;stroke-width:1px;stroke-linecap:butt;stroke-linejoin:miter;stroke-opacity:1" d="M 207.487,9.65242 235.749,4 z" id="boundary" inkscape:connector-curvature="0" />
	<path style="fill:none;stroke:red;stroke-width:1px;stroke-linecap:butt;stroke-linejoin:miter;stroke-opacity:1" d="M 221.618,996 249.88,990.348 z" id="boundary" inkscape:connector-curvature="0" />
	<path style="fill:none;stroke:red;stroke-width:1px;stroke-linecap:butt;stroke-linejoin:miter;stroke-opacity:1" d="M 235.749,4 264.011,9.65242 z" id="boundary" inkscape:connector-curvature="0" />
	<path style="fill:none;stroke:red;stroke-width:1px;stroke-linecap:butt;stroke-linejoin:miter;stroke-opacity:1" d="M 249.88,990.348 278.142,984.695 z" id="boundary" inkscape:connector-curvature="0" />
	<path style="fill:none;stroke:red;stroke-width:1px;stroke-linecap:butt;stroke-linejoin:miter;stroke-opacity:1" d="M 264.011,9.65242 292.274,15.3048 z" id="boundary" inkscape:connector-curvature="0" />
	<path style="fill:none;stroke:red;stroke-width:1px;stroke-linecap:butt;stroke-linejoin:miter;stroke-opacity:1" d="M 278.142,984.695 306.405,990.348 z" id="boundary" inkscape:connector-curvature="0" />
	<path style="fill:none;stroke:red;stroke-width:1px;stroke-linecap:butt;stroke-linejoin:miter;stroke-opacity:1" d="M 292.274,15.3048 320.536,26.6097 z" id="boundary" inkscape:connector-curvature="0" />
	<path style="fill:none;stroke:red;stroke-width:1px;stroke-linecap:butt;stroke-linejoin:miter;stroke-opacity:1" d="M 306.405,990.348 334.667,990.348 z" id="boundary" inkscape:connector-curvature="0" />
	<path style="fill:none;stroke:red;stroke-width:1px;stroke-linecap:butt;stroke-linejoin:miter;stroke-opacity:1" d="M 320.536,26.6097 345.972,40.7407 z" id="boundary" inkscape:connector-curvature="0" />
	<path style="fill:none;stroke:red;stroke-width:1px;stroke-linecap:butt;stroke-linejoin:miter;stroke-opacity:1" d="M 334.667,990.348 362.929,996 z" id="boundary" inkscape:connector-curvature="0" />
	<path style="fill:none;stroke:red;stroke-width:1px;stroke-linecap:butt;stroke-linejoin:miter;stroke-opacity:1" d="M 345.972,40.7407 374.234,43.567 z" id="boundary" inkscape:connector-curvature="0" />
	<path style="fill:none;stroke:red;stroke-width:1px;stroke-linecap:butt;stroke-linejoin:miter;stroke-opacity:1" d="M 362.929,996 391.191,996 z" id="boundary" inkscape:connector-curvature="0" />
	<path style="fill:none;stroke:red;stroke-width:1px;stroke-linecap:butt;stroke-linejoin:miter;stroke-opacity:1" d="M 374.234,43.567 402.496,43.567 z" id="boundary" inkscape:connector-curvature="0" />
	<path style="fill:none;stroke:red;stroke-width:1px;stroke-linecap:butt;stroke-linejoin:miter;stroke-opacity:1" d="M 391.191,996 419.453,996 z" id="boundary" inkscape:connector-curvature="0" />
	<path style="fill:none;stroke:red;stroke-width:1px;stroke-linecap:butt;stroke-linejoin:miter;stroke-opacity:1" d="M 402.496,43.567 430.758,37.9145 z" id="boundary" inkscape:connector-curvature="0" />
	<path style="fill:none;stroke:red;stroke-width:1px;stroke-linecap:butt;stroke-linejoin:miter;stroke-opacity:1" d="M 419.453,996 447.715,996 z" id="boundary" inkscape:connector-curvature="0" />
	<path style="fill:none;stroke:red;stroke-width:1px;stroke-linecap:butt;stroke-linejoin:miter;stroke-opacity:1" d="M 430.758,37.9145 459.02,43.567 z" id="boundary" inkscape:connector-curvature="0" />
	<path style="fill:none;stroke:red;stroke-width:1px;stroke-linecap:butt;stroke-linejoin:miter;stroke-opacity:1" d="M 447.715,996 475.977,996 z" id="boundary" inkscape:connector-curvature="0" />
	<path style="fill:none;stroke:red;stroke-width:1px;stroke-linecap:butt;stroke-linejoin:miter;stroke-opacity:1" d="M 459.02,43.567 487.282,43.567 z" id="boundary" inkscape:connector-curvature="0" />
	<path style="fill:none;stroke:red;stroke-width:1px;stroke-linecap:butt;stroke-linejoin:miter;stroke-opacity:1" d="M 475.977,996 504.239,990.348 z" id="boundary" inkscape:connector-curvature="0" />
	<path style="fill:none;stroke:red;stroke-width:1px;stroke-linecap:butt;stroke-linejoin:miter;stroke-opacity:1" d="M 487.282,43.567 515.544,29.4359 z" id="boundary" inkscape:connector-curvature="0" />
	<path style="fill:none;stroke:red;stroke-width:1px;stroke-linecap:butt;stroke-linejoin:miter;stroke-opacity:1" d="M 504.239,990.348 532.501,987.521 z" id="boundary" inkscape:connector-curvature="0" />
	<path style="fill:none;stroke:red;stroke-width:1px;stroke-linecap:butt;stroke-linejoin:miter;stroke-opacity:1" d="M 515.544,29.4359 540.98,15.3048 z" id="boundary" inkscape:connector-curvature="0" />
	<path style="fill:none;stroke:red;stroke-width:1px;stroke-linecap:butt;stroke-linejoin:miter;stroke-opacity:1" d="M 532.501,987.521 560.764,984.695 z" id="boundary" inkscape:connector-curvature="0" />
	<path style="fill:none;stroke:red;stroke-width:1px;stroke-linecap:butt;stroke-linejoin:miter;stroke-opacity:1" d="M 540.98,15.3048 569.242,9.65242 z" id="boundary" inkscape:connector-curvature="0" />
	<path style="fill:none;stroke:red;stroke-width:1px;stroke-linecap:butt;stroke-linejoin:miter;stroke-opacity:1" d="M 560.764,984.695 589.026,979.043 z" id="boundary" inkscape:connector-curvature="0" />
	<path style="fill:none;stroke:red;stroke-width:1px;stroke-linecap:butt;stroke-linejoin:miter;stroke-opacity:1" d="M 569.242,9.65242 597.504,4 z" id="boundary" inkscape:connector-curvature="0" />
	<path style="fill:none;stroke:red;stroke-width:1px;stroke-linecap:butt;stroke-linejoin:miter;stroke-opacity:1" d="M 589.026,979.043 617.288,973.39 z" id="boundary" inkscape:connector-curvature="0" />
	<path style="fill:none;stroke:red;stroke-width:1px;stroke-linecap:butt;stroke-linejoin:miter;stroke-opacity:1" d="M 597.504,4 625.766,9.65242 z" id="boundary" inkscape:connector-curvature="0" />
	<path style="fill:none;stroke:red;stroke-width:1px;stroke-linecap:butt;stroke-linejoin:miter;stroke-opacity:1" d="M 617.288,973.39 645.55,973.39 z" id="boundary" inkscape:connector-curvature="0" />
	<path style="fill:none;stroke:red;stroke-width:1px;stroke-linecap:butt;stroke-linejoin:miter;stroke-opacity:1" d="M 625.766,9.65242 654.028,18.1311 z" id="boundary" inkscape:connector-curvature="0" />
	<path style="fill:none;stroke:red;stroke-width:1px;stroke-linecap:butt;stroke-linejoin:miter;stroke-opacity:1" d="M 631.419,368.581 645.55,343.145 z" id="boundary" inkscape:connector-curvature="0" />
	<path style="fill:none;stroke:red;stroke-width:1px;stroke-linecap:butt;stroke-linejoin:miter;stroke-opacity:1" d="M 631.419,368.581 656.855,382.712 z" id="boundary" inkscape:connector-curvature="0" />
	<path style="fill:none;stroke:red;stroke-width:1px;stroke-linecap:butt;stroke-linejoin:miter;stroke-opacity:1" d="M 645.55,343.145 659.681,317.709 z" id="boundary" inkscape:connector-curvature="0" />
	<path style="fill:none;stroke:red;stroke-width:1px;stroke-linecap:butt;stroke-linejoin:miter;stroke-opacity:1" d="M 645.55,665.333 651.202,693.595 z" id="boundary" inkscape:connector-curvature="0" />
	<path style="fill:none;stroke:red;stroke-width:1px;stroke-linecap:butt;stroke-linejoin:miter;stroke-opacity:1" d="M 645.55,665.333 673.812,668.16 z" id="boundary" inkscape:connector-curvature="0" />
	<path style="fill:none;stroke:red;stroke-width:1px;stroke-linecap:butt;stroke-linejoin:miter;stroke-opacity:1" d="M 645.55,973.39 673.812,984.695 z" id="boundary" inkscape:connector-curvature="0" />
	<path style="fill:none;stroke:red;stroke-width:1px;stroke-linecap:butt;stroke-linejoin:miter;stroke-opacity:1" d="M 651.202,693.595 668.16,716.205 z" id="boundary" inkscape:connector-curvature="0" />
	<path style="fill:none;stroke:red;stroke-width:1px;stroke-linecap:butt;stroke-linejoin:miter;stroke-opacity:1" d="M 654.028,18.1311 676.638,35.0883 z" id="boundary" inkscape:connector-curvature="0" />
	<path style="fill:none;stroke:red;stroke-width:1px;stroke-linecap:butt;stroke-linejoin:miter;stroke-opacity:1" d="M 656.855,382.712 685.117,382.712 z" id="boundary" inkscape:connector-curvature="0" />
	<path style="fill:none;stroke:red;stroke-width:1px;stroke-linecap:butt;stroke-linejoin:miter;stroke-opacity:1" d="M 659.681,317.709 662.507,280.969 z" id="boundary" inkscape:connector-curvature="0" />
	<path style="fill:none;stroke:red;stroke-width:1px;stroke-linecap:butt;stroke-linejoin:miter;stroke-opacity:1" d="M 662.507,173.573 662.507,201.835 z" id="boundary" inkscape:connector-curvature="0" />
	<path style="fill:none;stroke:red;stroke-width:1px;stroke-linecap:butt;stroke-linejoin:miter;stroke-opacity:1" d="M 662.507,173.573 673.812,145.311 z" id="boundary" inkscape:connector-curvature="0" />
	<path style="fill:none;stroke:red;stroke-width:1px;stroke-linecap:butt;stroke-linejoin:miter;stroke-opacity:1" d="M 662.507,201.835 662.507,230.097 z" id="boundary" inkscape:connector-curvature="0" />
	<path style="fill:none;stroke:red;stroke-width:1px;stroke-linecap:butt;stroke-linejoin:miter;stroke-opacity:1" d="M 662.507,230.097 662.507,280.969 z" id="boundary" inkscape:connector-curvature="0" />
	<path style="fill:none;stroke:red;stroke-width:1px;stroke-linecap:butt;stroke-linejoin:miter;stroke-opacity:1" d="M 668.16,716.205 696.422,716.205 z" id="boundary" inkscape:connector-curvature="0" />
	<path style="fill:none;stroke:red;stroke-width:1px;stroke-linecap:butt;stroke-linejoin:miter;stroke-opacity:1" d="M 673.812,145.311 685.117,117.048 z" id="boundary" inkscape:connector-curvature="0" />
	<path style="fill:none;stroke:red;stroke-width:1px;stroke-linecap:butt;stroke-linejoin:miter;stroke-opacity:1" d="M 673.812,668.16 702.074,659.681 z" id="boundary" inkscape:connector-curvature="0" />
	<path style="fill:none;stroke:red;stroke-width:1px;stroke-linecap:butt;stroke-linejoin:miter;stroke-opacity:1" d="M 673.812,984.695 702.074,996 z" id="boundary" inkscape:connector-curvature="0" />
	<path style="fill:none;stroke:red;stroke-width:1px;stroke-linecap:butt;stroke-linejoin:miter;stroke-opacity:1" d="M 676.638,35.0883 690.769,60.5242 z" id="boundary" inkscape:connector-curvature="0" />
	<path style="fill:none;stroke:red;stroke-width:1px;stroke-linecap:butt;stroke-linejoin:miter;stroke-opacity:1" d="M 685.117,117.048 690.769,88.7863 z" id="boundary" inkscape:connector-curvature="0" />
	<path style="fill:none;stroke:red;stroke-width:1px;stroke-linecap:butt;stroke-linejoin:miter;stroke-opacity:1" d="M 685.117,382.712 713.379,394.017 z" id="boundary" inkscape:connector-curvature="0" />
	<path style="fill:none;stroke:red;stroke-width:1px;stroke-linecap:butt;stroke-linejoin:miter;stroke-opacity:1" d="M 690.769,60.5242 690.769,88.7863 z" id="boundary" inkscape:connector-curvature="0" />
	<path style="fill:none;stroke:red;stroke-width:1px;stroke-linecap:butt;stroke-linejoin:miter;stroke-opacity:1" d="M 696.422,716.205 724.684,727.51 z" id="boundary" inkscape:connector-curvature="0" />
	<path style="fill:none;stroke:red;stroke-width:1px;stroke-linecap:butt;stroke-linejoin:miter;stroke-opacity:1" d="M 702.074,659.681 730.336,662.507 z" id="boundary" inkscape:connector-curvature="0" />
	<path style="fill:none;stroke:red;stroke-width:1px;stroke-linecap:butt;stroke-linejoin:miter;stroke-opacity:1" d="M 702.074,996 730.336,996 z" id="boundary" inkscape:connector-curvature="0" />
	<path style="fill:none;stroke:red;stroke-width:1px;stroke-linecap:butt;stroke-linejoin:miter;stroke-opacity:1" d="M 713.379,394.017 741.641,405.322 z" id="boundary" inkscape:connector-curvature="0" />
	<path style="fill:none;stroke:red;stroke-width:1px;stroke-linecap:butt;stroke-linejoin:miter;stroke-opacity:1" d="M 724.684,727.51 752.946,727.51 z" id="boundary" inkscape:connector-curvature="0" />
	<path style="fill:none;stroke:red;stroke-width:1px;stroke-linecap:butt;stroke-linejoin:miter;stroke-opacity:1" d="M 730.336,662.507 758.598,654.028 z" id="boundary" inkscape:connector-curvature="0" />
	<path style="fill:none;stroke:red;stroke-width:1px;stroke-linecap:butt;stroke-linejoin:miter;stroke-opacity:1" d="M 730.336,996 758.598,996 z" id="boundary" inkscape:connector-curvature="0" />
	<path style="fill:none;stroke:red;stroke-width:1px;stroke-linecap:butt;stroke-linejoin:miter;stroke-opacity:1" d="M 741.641,405.322 761.425,427.932 z" id="boundary" inkscape:connector-curvature="0" />
	<path style="fill:none;stroke:red;stroke-width:1px;stroke-linecap:butt;stroke-linejoin:miter;stroke-opacity:1" d="M 752.946,727.51 781.208,727.51 z" id="boundary" inkscape:connector-curvature="0" />
	<path style="fill:none;stroke:red;stroke-width:1px;stroke-linecap:butt;stroke-linejoin:miter;stroke-opacity:1" d="M 758.598,654.028 786.86,642.724 z" id="boundary" inkscape:connector-curvature="0" />
	<path style="fill:none;stroke:red;stroke-width:1px;stroke-linecap:butt;stroke-linejoin:miter;stroke-opacity:1" d="M 758.598,996 786.86,996 z" id="boundary" inkscape:connector-curvature="0" />
	<path style="fill:none;stroke:red;stroke-width:1px;stroke-linecap:butt;stroke-linejoin:miter;stroke-opacity:1" d="M 761.425,427.932 789.687,433.584 z" id="boundary" inkscape:connector-curvature="0" />
	<path style="fill:none;stroke:red;stroke-width:1px;stroke-linecap:butt;stroke-linejoin:miter;stroke-opacity:1" d="M 781.208,727.51 809.47,727.51 z" id="boundary" inkscape:connector-curvature="0" />
	<path style="fill:none;stroke:red;stroke-width:1px;stroke-linecap:butt;stroke-linejoin:miter;stroke-opacity:1" d="M 786.86,642.724 815.123,631.419 z" id="boundary" inkscape:connector-curvature="0" />
	<path style="fill:none;stroke:red;stroke-width:1px;stroke-linecap:butt;stroke-linejoin:miter;stroke-opacity:1" d="M 786.86,996 815.123,993.174 z" id="boundary" inkscape:connector-curvature="0" />
	<path style="fill:none;stroke:red;stroke-width:1px;stroke-linecap:butt;stroke-linejoin:miter;stroke-opacity:1" d="M 789.687,433.584 817.949,439.236 z" id="boundary" inkscape:connector-curvature="0" />
	<path style="fill:none;stroke:red;stroke-width:1px;stroke-linecap:butt;stroke-linejoin:miter;stroke-opacity:1" d="M 809.47,727.51 837.732,738.815 z" id="boundary" inkscape:connector-curvature="0" />
	<path style="fill:none;stroke:red;stroke-width:1px;stroke-linecap:butt;stroke-linejoin:miter;stroke-opacity:1" d="M 815.123,631.419 840.558,617.288 z" id="boundary" inkscape:connector-curvature="0" />
	<path style="fill:none;stroke:red;stroke-width:1px;stroke-linecap:butt;stroke-linejoin:miter;stroke-opacity:1" d="M 815.123,993.174 840.558,979.043 z" id="boundary" inkscape:connector-curvature="0" />
	<path style="fill:none;stroke:red;stroke-width:1px;stroke-linecap:butt;stroke-linejoin:miter;stroke-opacity:1" d="M 817.949,439.236 846.211,447.715 z" id="boundary" inkscape:connector-curvature="0" />
	<path style="fill:none;stroke:red;stroke-width:1px;stroke-linecap:butt;stroke-linejoin:miter;stroke-opacity:1" d="M 837.732,738.815 860.342,755.772 z" id="boundary" inkscape:connector-curvature="0" />
	<path style="fill:none;stroke:red;stroke-width:1px;stroke-linecap:butt;stroke-linejoin:miter;stroke-opacity:1" d="M 840.558,617.288 863.168,600.33 z" id="boundary" inkscape:connector-curvature="0" />
	<path style="fill:none;stroke:red;stroke-width:1px;stroke-linecap:butt;stroke-linejoin:miter;stroke-opacity:1" d="M 840.558,979.043 863.168,962.085 z" id="boundary" inkscape:connector-curvature="0" />
	<path style="fill:none;stroke:red;stroke-width:1px;stroke-linecap:butt;stroke-linejoin:miter;stroke-opacity:1" d="M 846.211,447.715 874.473,456.194 z" id="boundary" inkscape:connector-curvature="0" />
	<path style="fill:none;stroke:red;stroke-width:1px;stroke-linecap:butt;stroke-linejoin:miter;stroke-opacity:1" d="M 860.342,755.772 874.473,781.208 z" id="boundary" inkscape:connector-curvature="0" />
	<path style="fill:none;stroke:red;stroke-width:1px;stroke-linecap:butt;stroke-linejoin:miter;stroke-opacity:1" d="M 863.168,600.33 885.778,577.721 z" id="boundary" inkscape:connector-curvature="0" />
	<path style="fill:none;stroke:red;stroke-width:1px;stroke-linecap:butt;stroke-linejoin:miter;stroke-opacity:1" d="M 863.168,962.085 885.778,945.128 z" id="boundary" inkscape:connector-curvature="0" />
	<path style="fill:none;stroke:red;stroke-width:1px;stroke-linecap:butt;stroke-linejoin:miter;stroke-opacity:1" d="M 874.473,456.194 891.43,478.803 z" id="boundary" inkscape:connector-curvature="0" />
	<path style="fill:none;stroke:red;stroke-width:1px;stroke-linecap:butt;stroke-linejoin:miter;stroke-opacity:1" d="M 874.473,781.208 882.952,809.47 z" id="boundary" inkscape:connector-curvature="0" />
	<path style="fill:none;stroke:red;stroke-width:1px;stroke-linecap:butt;stroke-linejoin:miter;stroke-opacity:1" d="M 882.952,809.47 888.604,837.732 z" id="boundary" inkscape:connector-curvature="0" />
	<path style="fill:none;stroke:red;stroke-width:1px;stroke-linecap:butt;stroke-linejoin:miter;stroke-opacity:1" d="M 885.778,577.721 894.256,546.632 z" id="boundary" inkscape:connector-curvature="0" />
	<path style="fill:none;stroke:red;stroke-width:1px;stroke-linecap:butt;stroke-linejoin:miter;stroke-opacity:1" d="M 885.778,945.128 888.604,908.387 z" id="boundary" inkscape:connector-curvature="0" />
	<path style="fill:none;stroke:red;stroke-width:1px;stroke-linecap:butt;stroke-linejoin:miter;stroke-opacity:1" d="M 888.604,837.732 894.256,865.994 z" id="boundary" inkscape:connector-curvature="0" />
	<path style="fill:none;stroke:red;stroke-width:1px;stroke-linecap:butt;stroke-linejoin:miter;stroke-opacity:1" d="M 888.604,908.387 894.256,865.994 z" id="boundary" inkscape:connector-curvature="0" />
	<path style="fill:none;stroke:red;stroke-width:1px;stroke-linecap:butt;stroke-linejoin:miter;stroke-opacity:1" d="M 891.43,478.803 899.909,507.066 z" id="boundary" inkscape:connector-curvature="0" />
	<path style="fill:none;stroke:red;stroke-width:1px;stroke-linecap:butt;stroke-linejoin:miter;stroke-opacity:1" d="M 894.256,546.632 899.909,507.066 z" id="boundary" inkscape:connector-curvature="0" />
	<circle cx="4" cy="512.718" r="4" fill="#0" id="circle0"/>
	<circle cx="6.82621" cy="540.98" r="4" fill="#0" id="circle1"/>
	<circle cx="15.3048" cy="484.456" r="4" fill="#0" id="circle2"/>
	<circle cx="18.1311" cy="569.242" r="4" fill="#0" id="circle3"/>
	<circle cx="35.0883" cy="591.852" r="4" fill="#0" id="circle4"/>
	<circle cx="37.9145" cy="456.194" r="4" fill="#0" id="circle5"/>
	<circle cx="54.8718" cy="846.211" r="4" fill="#0" id="circle6"/>
	<circle cx="54.8718" cy="874.473" r="4" fill="#0" id="circle7"/>
	<circle cx="54.8718" cy="902.735" r="4" fill="#0" id="circle8"/>
	<circle cx="57.698" cy="611.635" r="4" fill="#0" id="circle9"/>
	<circle cx="57.698" cy="930.997" r="4" fill="#0" id="circle10"/>
	<circle cx="63.3504" cy="959.259" r="4" fill="#0" id="circle11"/>
	<circle cx="66.1766" cy="444.889" r="4" fill="#0" id="circle12"/>
	<circle cx="66.1766" cy="806.644" r="4" fill="#0" id="circle13"/>
	<circle cx="77.4815" cy="767.077" r="4" fill="#0" id="circle14"/>
	<circle cx="80.3077" cy="628.593" r="4" fill="#0" id="circle15"/>
	<circle cx="85.9601" cy="976.217" r="4" fill="#0" id="circle16"/>
	<circle cx="88.7863" cy="427.932" r="4" fill="#0" id="circle17"/>
	<circle cx="100.091" cy="750.12" r="4" fill="#0" id="circle18"/>
	<circle cx="105.744" cy="405.322" r="4" fill="#0" id="circle19"/>
	<circle cx="105.744" cy="642.724" r="4" fill="#0" id="circle20"/>
	<circle cx="108.57" cy="993.174" r="4" fill="#0" id="circle21"/>
	<circle cx="122.701" cy="733.162" r="4" fill="#0" id="circle22"/>
	<circle cx="131.179" cy="656.855" r="4" fill="#0" id="circle23"/>
	<circle cx="134.006" cy="394.017" r="4" fill="#0" id="circle24"/>
	<circle cx="136.832" cy="996" r="4" fill="#0" id="circle25"/>
	<circle cx="139.658" cy="66.1766" r="4" fill="#0" id="circle26"/>
	<circle cx="145.311" cy="94.4387" r="4" fill="#0" id="circle27"/>
	<circle cx="148.137" cy="122.701" r="4" fill="#0" id="circle28"/>
	<circle cx="150.963" cy="727.51" r="4" fill="#0" id="circle29"/>
	<circle cx="156.615" cy="43.567" r="4" fill="#0" id="circle30"/>
	<circle cx="159.442" cy="150.963" r="4" fill="#0" id="circle31"/>
	<circle cx="159.442" cy="662.507" r="4" fill="#0" id="circle32"/>
	<circle cx="162.268" cy="382.712" r="4" fill="#0" id="circle33"/>
	<circle cx="165.094" cy="996" r="4" fill="#0" id="circle34"/>
	<circle cx="173.573" cy="176.399" r="4" fill="#0" id="circle35"/>
	<circle cx="179.225" cy="20.9573" r="4" fill="#0" id="circle36"/>
	<circle cx="179.225" cy="204.661" r="4" fill="#0" id="circle37"/>
	<circle cx="179.225" cy="727.51" r="4" fill="#0" id="circle38"/>
	<circle cx="184.877" cy="232.923" r="4" fill="#0" id="circle39"/>
	<circle cx="184.877" cy="261.185" r="4" fill="#0" id="circle40"/>
	<circle cx="184.877" cy="289.447" r="4" fill="#0" id="circle41"/>
	<circle cx="187.704" cy="668.16" r="4" fill="#0" id="circle42"/>
	<circle cx="190.53" cy="317.709" r="4" fill="#0" id="circle43"/>
	<circle cx="190.53" cy="382.712" r="4" fill="#0" id="circle44"/>
	<circle cx="193.356" cy="996" r="4" fill="#0" id="circle45"/>
	<circle cx="201.835" cy="345.972" r="4" fill="#0" id="circle46"/>
	<circle cx="204.661" cy="713.379" r="4" fill="#0" id="circle47"/>
	<circle cx="207.487" cy="9.65242" r="4" fill="#0" id="circle48"/>
	<circle cx="215.966" cy="662.507" r="4" fill="#0" id="circle49"/>
	<circle cx="221.618" cy="996" r="4" fill="#0" id="circle50"/>
	<circle cx="235.749" cy="4" r="4" fill="#0" id="circle51"/>
	<circle cx="249.88" cy="990.348" r="4" fill="#0" id="circle52"/>
	<circle cx="264.011" cy="9.65242" r="4" fill="#0" id="circle53"/>
	<circle cx="278.142" cy="984.695" r="4" fill="#0" id="circle54"/>
	<circle cx="292.274" cy="15.3048" r="4" fill="#0" id="circle55"/>
	<circle cx="306.405" cy="990.348" r="4" fill="#0" id="circle56"/>
	<circle cx="320.536" cy="26.6097" r="4" fill="#0" id="circle57"/>
	<circle cx="334.667" cy="990.348" r="4" fill="#0" id="circle58"/>
	<circle cx="345.972" cy="40.7407" r="4" fill="#0" id="circle59"/>
	<circle cx="362.929" cy="996" r="4" fill="#0" id="circle60"/>
	<circle cx="374.234" cy="43.567" r="4" fill="#0" id="circle61"/>
	<circle cx="391.191" cy="996" r="4" fill="#0" id="circle62"/>
	<circle cx="402.496" cy="43.567" r="4" fill="#0" id="circle63"/>
	<circle cx="419.453" cy="996" r="4" fill="#0" id="circle64"/>
	<circle cx="430.758" cy="37.9145" r="4" fill="#0" id="circle65"/>
	<circle cx="447.715" cy="996" r="4" fill="#0" id="circle66"/>
	<circle cx="459.02" cy="43.567" r="4" fill="#0" id="circle67"/>
	<circle cx="475.977" cy="996" r="4" fill="#0" id="circle68"/>
	<circle cx="487.282" cy="43.567" r="4" fill="#0" id="circle69"/>
	<circle cx="504.239" cy="990.348" r="4" fill="#0" id="circle70"/>
	<circle cx="515.544" cy="29.4359" r="4" fill="#0" id="circle71"/>
	<circle cx="532.501" cy="987.521" r="4" fill="#0" id="circle72"/>
	<circle cx="540.98" cy="15.3048" r="4" fill="#0" id="circle73"/>
	<circle cx="560.764" cy="984.695" r="4" fill="#0" id="circle74"/>
	<circle cx="569.242" cy="9.65242" r="4" fill="#0" id="circle75"/>
	<circle cx="589.026" cy="979.043" r="4" fill="#0" id="circle76"/>
	<circle cx="597.504" cy="4" r="4" fill="#0" id="circle77"/>
	<circle cx="617.288" cy="973.39" r="4" fill="#0" id="circle78"/>
	<circle cx="625.766" cy="9.65242" r="4" fill="#0" id="circle79"/>
	<circle cx="631.419" cy="368.581" r="4" fill="#0" id="circle80"/>
	<circle cx="645.55" cy="343.145" r="4" fill="#0" id="circle81"/>
	<circle cx="645.55" cy="665.333" r="4" fill="#0" id="circle82"/>
	<circle cx="645.55" cy="973.39" r="4" fill="#0" id="circle83"/>
	<circle cx="651.202" cy="693.595" r="4" fill="#0" id="circle84"/>
	<circle cx="654.028" cy="18.1311" r="4" fill="#0" id="circle85"/>
	<circle cx="656.855" cy="382.712" r="4" fill="#0" id="circle86"/>
	<circle cx="659.681" cy="317.709" r="4" fill="#0" id="circle87"/>
	<circle cx="662.507" cy="173.573" r="4" fill="#0" id="circle88"/>
	<circle cx="662.507" cy="201.835" r="4" fill="#0" id="circle89"/>
	<circle cx="662.507" cy="230.097" r="4" fill="#0" id="circle90"/>
	<circle cx="662.507" cy="280.969" r="4" fill="#0" id="circle91"/>
	<circle cx="668.16" cy="716.205" r="4" fill="#0" id="circle92"/>
	<circle cx="673.812" cy="145.311" r="4" fill="#0" id="circle93"/>
	<circle cx="673.812" cy="668.16" r="4" fill="#0" id="circle94"/>
	<circle cx="673.812" cy="984.695" r="4" fill="#0" id="circle95"/>
	<circle cx="676.638" cy="35.0883" r="4" fill="#0" id="circle96"/>
	<circle cx="685.117" cy="117.048" r="4" fill="#0" id="circle97"/>
	<circle cx="685.117" cy="382.712" r="4" fill="#0" id="circle98"/>
	<circle cx="690.769" cy="60.5242" r="4" fill="#0" id="circle99"/>
	<circle cx="690.769" cy="88.7863" r="4" fill="#0" id="circle100"/>
	<circle cx="696.422" cy="716.205" r="4" fill="#0" id="circle101"/>
	<circle cx="702.074" cy="659.681" r="4" fill="#0" id="circle102"/>
	<circle cx="702.074" cy="996" r="4" fill="#0" id="circle103"/>
	<circle cx="713.379" cy="394.017" r="4" fill="#0" id="circle104"/>
	<circle cx="724.684" cy="727.51" r="4" fill="#0" id="circle105"/>
	<circle cx="730.336" cy="662.507" r="4" fill="#0" id="circle106"/>
	<circle cx="730.336" cy="996" r="4" fill="#0" id="circle107"/>
	<circle cx="741.641" cy="405.322" r="4" fill="#0" id="circle108"/>
	<circle cx="752.946" cy="727.51" r="4" fill="#0" id="circle109"/>
	<circle cx="758.598" cy="654.028" r="4" fill="#0" id="circle110"/>
	<circle cx="758.598" cy="996" r="4" fill="#0" id="circle111"/>
	<circle cx="761.425" cy="427.932" r="4" fill="#0" id="circle112"/>
	<circle cx="781.208" cy="727.51" r="4" fill="#0" id="circle113"/>
	<circle cx="786.86" cy="642.724" r="4" fill="#0" id="circle114"/>
	<circle cx="786.86" cy="996" r="4" fill="#0" id="circle115"/>
	<circle cx="789.687" cy="433.584" r="4" fill="#0" id="circle116"/>
	<circle cx="809.47" cy="727.51" r="4" fill="#0" id="circle117"/>
	<circle cx="815.123" cy="631.419" r="4" fill="#0" id="circle118"/>
	<circle cx="815.123" cy="993.174" r="4" fill="#0" id="circle119"/>
	<circle cx="817.949" cy="439.236" r="4" fill="#0" id="circle120"/>
	<circle cx="837.732" cy="738.815" r="4" fill="#0" id="circle121"/>
	<circle cx="840.558" cy="617.288" r="4" fill="#0" id="circle122"/>
	<circle cx="840.558" cy="979.043" r="4" fill="#0" id="circle123"/>
	<circle cx="846.211" cy="447.715" r="4" fill="#0" id="circle124"/>
	<circle cx="860.342" cy="755.772" r="4" fill="#0" id="circle125"/>
	<circle cx="863.168" cy="600.33" r="4" fill="#0" id="circle126"/>
	<circle cx="863.168" cy="962.085" r="4" fill="#0" id="circle127"/>
	<circle cx="874.473" cy="456.194" r="4" fill="#0" id="circle128"/>
	<circle cx="874.473" cy="781.208" r="4" fill="#0" id="circle129"/>
	<circle cx="882.952" cy="809.47" r="4" fill="#0" id="circle130"/>
	<circle cx="885.778" cy="577.721" r="4" fill="#0" id="circle131"/>
	<circle cx="885.778" cy="945.128" r="4" fill="#0" id="circle132"/>
	<circle cx="888.604" cy="837.732" r="4" fill="#0" id="circle133"/>
	<circle cx="888.604" cy="908.387" r="4" fill="#0" id="circle134"/>
	<circle cx="891.43" cy="478.803" r="4" fill="#0" id="circle135"/>
	<circle cx="894.256" cy="546.632" r="4" fill="#0" id="circle136"/>
	<circle cx="894.256" cy="865.994" r="4" fill="#0" id="circle137"/>
	<circle cx="899.909" cy="507.066" r="4" fill="#0" id="circle138"/>
	</g>
</svg>