<?xml version="1.0" encoding="UTF-8" standalone="no"?>
<!-- Created with CurveBenchmark -->
<svg
	xmlns:dc="http://purl.org/dc/elements/1.1/"
	xmlns:cc="http://creativecommons.org/ns#"
	xmlns:rdf="http://www.w3.org/1999/02/22-rdf-syntax-ns#"
	xmlns:svg="http://www.w3.org/2000/svg"
	xmlns="http://www.w3.org/2000/svg"
	xmlns:sodipodi="http://sodipodi.sourceforge.net/DTD/sodipodi-0.dtd"
	xmlns:inkscape="http://www.inkscape.org/namespaces/inkscape"
	width="1000"
	height="1000"
	id="svg2"
	version="1.1"
	sodipodi:docname="manifold/vicur-bird35.png.txt">
<defs
	id="defs4" />
<metadata
	id="metadata7">
	<rdf:RDF>
		<cc:Work
			rdf:about="">
			<dc:format>image/svg+xml</dc:format>
			<dc:type
				rdf:resource="http://purl.org/dc/dcmitype/StillImage" />
			<dc:title></dc:title>
		</cc:Work>
	</rdf:RDF>
</metadata>
<g
	inkscape:label="Layer 1"
	inkscape:groupmode="layer"
	id="layer1">
	<path style="fill:none;stroke:red;stroke-width:1px;stroke-linecap:butt;stroke-linejoin:miter;stroke-opacity:1" d="M 4,59.9288 4,74.6469 z" id="boundary" inkscape:connector-curvature="0" />
	<path style="fill:none;stroke:red;stroke-width:1px;stroke-linecap:butt;stroke-linejoin:miter;stroke-opacity:1" d="M 4,59.9288 18.7181,55.5134 z" id="boundary" inkscape:connector-curvature="0" />
	<path style="fill:none;stroke:red;stroke-width:1px;stroke-linecap:butt;stroke-linejoin:miter;stroke-opacity:1" d="M 4,74.6469 15.7745,84.9496 z" id="boundary" inkscape:connector-curvature="0" />
	<path style="fill:none;stroke:red;stroke-width:1px;stroke-linecap:butt;stroke-linejoin:miter;stroke-opacity:1" d="M 15.7745,84.9496 30.4926,86.4214 z" id="boundary" inkscape:connector-curvature="0" />
	<path style="fill:none;stroke:red;stroke-width:1px;stroke-linecap:butt;stroke-linejoin:miter;stroke-opacity:1" d="M 18.7181,55.5134 31.9644,48.1543 z" id="boundary" inkscape:connector-curvature="0" />
	<path style="fill:none;stroke:red;stroke-width:1px;stroke-linecap:butt;stroke-linejoin:miter;stroke-opacity:1" d="M 30.4926,86.4214 42.2671,96.724 z" id="boundary" inkscape:connector-curvature="0" />
	<path style="fill:none;stroke:red;stroke-width:1px;stroke-linecap:butt;stroke-linejoin:miter;stroke-opacity:1" d="M 31.9644,48.1543 42.2671,36.3798 z" id="boundary" inkscape:connector-curvature="0" />
	<path style="fill:none;stroke:red;stroke-width:1px;stroke-linecap:butt;stroke-linejoin:miter;stroke-opacity:1" d="M 42.2671,36.3798 56.9852,29.0208 z" id="boundary" inkscape:connector-curvature="0" />
	<path style="fill:none;stroke:red;stroke-width:1px;stroke-linecap:butt;stroke-linejoin:miter;stroke-opacity:1" d="M 42.2671,96.724 48.1543,111.442 z" id="boundary" inkscape:connector-curvature="0" />
	<path style="fill:none;stroke:red;stroke-width:1px;stroke-linecap:butt;stroke-linejoin:miter;stroke-opacity:1" d="M 48.1543,111.442 55.5134,124.688 z" id="boundary" inkscape:connector-curvature="0" />
	<path style="fill:none;stroke:red;stroke-width:1px;stroke-linecap:butt;stroke-linejoin:miter;stroke-opacity:1" d="M 55.5134,124.688 55.5134,139.407 z" id="boundary" inkscape:connector-curvature="0" />
	<path style="fill:none;stroke:red;stroke-width:1px;stroke-linecap:butt;stroke-linejoin:miter;stroke-opacity:1" d="M 55.5134,139.407 55.5134,154.125 z" id="boundary" inkscape:connector-curvature="0" />
	<path style="fill:none;stroke:red;stroke-width:1px;stroke-linecap:butt;stroke-linejoin:miter;stroke-opacity:1" d="M 55.5134,154.125 55.5134,168.843 z" id="boundary" inkscape:connector-curvature="0" />
	<path style="fill:none;stroke:red;stroke-width:1px;stroke-linecap:butt;stroke-linejoin:miter;stroke-opacity:1" d="M 55.5134,168.843 55.5134,183.561 z" id="boundary" inkscape:connector-curvature="0" />
	<path style="fill:none;stroke:red;stroke-width:1px;stroke-linecap:butt;stroke-linejoin:miter;stroke-opacity:1" d="M 55.5134,183.561 55.5134,198.279 z" id="boundary" inkscape:connector-curvature="0" />
	<path style="fill:none;stroke:red;stroke-width:1px;stroke-linecap:butt;stroke-linejoin:miter;stroke-opacity:1" d="M 55.5134,198.279 55.5134,212.997 z" id="boundary" inkscape:connector-curvature="0" />
	<path style="fill:none;stroke:red;stroke-width:1px;stroke-linecap:butt;stroke-linejoin:miter;stroke-opacity:1" d="M 55.5134,212.997 62.8724,226.243 z" id="boundary" inkscape:connector-curvature="0" />
	<path style="fill:none;stroke:red;stroke-width:1px;stroke-linecap:butt;stroke-linejoin:miter;stroke-opacity:1" d="M 56.9852,29.0208 68.7596,18.7181 z" id="boundary" inkscape:connector-curvature="0" />
	<path style="fill:none;stroke:red;stroke-width:1px;stroke-linecap:butt;stroke-linejoin:miter;stroke-opacity:1" d="M 62.8724,226.243 67.2878,240.961 z" id="boundary" inkscape:connector-curvature="0" />
	<path style="fill:none;stroke:red;stroke-width:1px;stroke-linecap:butt;stroke-linejoin:miter;stroke-opacity:1" d="M 67.2878,240.961 70.2315,255.68 z" id="boundary" inkscape:connector-curvature="0" />
	<path style="fill:none;stroke:red;stroke-width:1px;stroke-linecap:butt;stroke-linejoin:miter;stroke-opacity:1" d="M 68.7596,18.7181 79.0623,6.94362 z" id="boundary" inkscape:connector-curvature="0" />
	<path style="fill:none;stroke:red;stroke-width:1px;stroke-linecap:butt;stroke-linejoin:miter;stroke-opacity:1" d="M 70.2315,255.68 70.2315,270.398 z" id="boundary" inkscape:connector-curvature="0" />
	<path style="fill:none;stroke:red;stroke-width:1px;stroke-linecap:butt;stroke-linejoin:miter;stroke-opacity:1" d="M 70.2315,270.398 70.2315,285.116 z" id="boundary" inkscape:connector-curvature="0" />
	<path style="fill:none;stroke:red;stroke-width:1px;stroke-linecap:butt;stroke-linejoin:miter;stroke-opacity:1" d="M 70.2315,285.116 74.6469,299.834 z" id="boundary" inkscape:connector-curvature="0" />
	<path style="fill:none;stroke:red;stroke-width:1px;stroke-linecap:butt;stroke-linejoin:miter;stroke-opacity:1" d="M 74.6469,299.834 77.5905,314.552 z" id="boundary" inkscape:connector-curvature="0" />
	<path style="fill:none;stroke:red;stroke-width:1px;stroke-linecap:butt;stroke-linejoin:miter;stroke-opacity:1" d="M 77.5905,314.552 77.5905,329.27 z" id="boundary" inkscape:connector-curvature="0" />
	<path style="fill:none;stroke:red;stroke-width:1px;stroke-linecap:butt;stroke-linejoin:miter;stroke-opacity:1" d="M 77.5905,329.27 84.9496,342.516 z" id="boundary" inkscape:connector-curvature="0" />
	<path style="fill:none;stroke:red;stroke-width:1px;stroke-linecap:butt;stroke-linejoin:miter;stroke-opacity:1" d="M 79.0623,6.94362 93.7804,4 z" id="boundary" inkscape:connector-curvature="0" />
	<path style="fill:none;stroke:red;stroke-width:1px;stroke-linecap:butt;stroke-linejoin:miter;stroke-opacity:1" d="M 84.9496,342.516 87.8932,357.234 z" id="boundary" inkscape:connector-curvature="0" />
	<path style="fill:none;stroke:red;stroke-width:1px;stroke-linecap:butt;stroke-linejoin:miter;stroke-opacity:1" d="M 84.9496,648.653 96.724,658.955 z" id="boundary" inkscape:connector-curvature="0" />
	<path style="fill:none;stroke:red;stroke-width:1px;stroke-linecap:butt;stroke-linejoin:miter;stroke-opacity:1" d="M 84.9496,648.653 99.6677,641.294 z" id="boundary" inkscape:connector-curvature="0" />
	<path style="fill:none;stroke:red;stroke-width:1px;stroke-linecap:butt;stroke-linejoin:miter;stroke-opacity:1" d="M 87.8932,357.234 95.2522,370.481 z" id="boundary" inkscape:connector-curvature="0" />
	<path style="fill:none;stroke:red;stroke-width:1px;stroke-linecap:butt;stroke-linejoin:miter;stroke-opacity:1" d="M 93.7804,4 108.499,4 z" id="boundary" inkscape:connector-curvature="0" />
	<path style="fill:none;stroke:red;stroke-width:1px;stroke-linecap:butt;stroke-linejoin:miter;stroke-opacity:1" d="M 95.2522,370.481 101.139,385.199 z" id="boundary" inkscape:connector-curvature="0" />
	<path style="fill:none;stroke:red;stroke-width:1px;stroke-linecap:butt;stroke-linejoin:miter;stroke-opacity:1" d="M 96.724,658.955 111.442,660.427 z" id="boundary" inkscape:connector-curvature="0" />
	<path style="fill:none;stroke:red;stroke-width:1px;stroke-linecap:butt;stroke-linejoin:miter;stroke-opacity:1" d="M 99.6677,641.294 114.386,636.878 z" id="boundary" inkscape:connector-curvature="0" />
	<path style="fill:none;stroke:red;stroke-width:1px;stroke-linecap:butt;stroke-linejoin:miter;stroke-opacity:1" d="M 101.139,385.199 108.499,398.445 z" id="boundary" inkscape:connector-curvature="0" />
	<path style="fill:none;stroke:red;stroke-width:1px;stroke-linecap:butt;stroke-linejoin:miter;stroke-opacity:1" d="M 108.499,4 123.217,4 z" id="boundary" inkscape:connector-curvature="0" />
	<path style="fill:none;stroke:red;stroke-width:1px;stroke-linecap:butt;stroke-linejoin:miter;stroke-opacity:1" d="M 108.499,398.445 118.801,410.22 z" id="boundary" inkscape:connector-curvature="0" />
	<path style="fill:none;stroke:red;stroke-width:1px;stroke-linecap:butt;stroke-linejoin:miter;stroke-opacity:1" d="M 111.442,660.427 126.16,660.427 z" id="boundary" inkscape:connector-curvature="0" />
	<path style="fill:none;stroke:red;stroke-width:1px;stroke-linecap:butt;stroke-linejoin:miter;stroke-opacity:1" d="M 114.386,636.878 129.104,636.878 z" id="boundary" inkscape:connector-curvature="0" />
	<path style="fill:none;stroke:red;stroke-width:1px;stroke-linecap:butt;stroke-linejoin:miter;stroke-opacity:1" d="M 118.801,410.22 126.16,423.466 z" id="boundary" inkscape:connector-curvature="0" />
	<path style="fill:none;stroke:red;stroke-width:1px;stroke-linecap:butt;stroke-linejoin:miter;stroke-opacity:1" d="M 123.217,4 137.935,4 z" id="boundary" inkscape:connector-curvature="0" />
	<path style="fill:none;stroke:red;stroke-width:1px;stroke-linecap:butt;stroke-linejoin:miter;stroke-opacity:1" d="M 126.16,423.466 136.463,435.24 z" id="boundary" inkscape:connector-curvature="0" />
	<path style="fill:none;stroke:red;stroke-width:1px;stroke-linecap:butt;stroke-linejoin:miter;stroke-opacity:1" d="M 126.16,660.427 139.407,653.068 z" id="boundary" inkscape:connector-curvature="0" />
	<path style="fill:none;stroke:red;stroke-width:1px;stroke-linecap:butt;stroke-linejoin:miter;stroke-opacity:1" d="M 129.104,636.878 136.463,619.217 z" id="boundary" inkscape:connector-curvature="0" />
	<path style="fill:none;stroke:red;stroke-width:1px;stroke-linecap:butt;stroke-linejoin:miter;stroke-opacity:1" d="M 136.463,435.24 148.237,445.543 z" id="boundary" inkscape:connector-curvature="0" />
	<path style="fill:none;stroke:red;stroke-width:1px;stroke-linecap:butt;stroke-linejoin:miter;stroke-opacity:1" d="M 136.463,604.499 136.463,619.217 z" id="boundary" inkscape:connector-curvature="0" />
	<path style="fill:none;stroke:red;stroke-width:1px;stroke-linecap:butt;stroke-linejoin:miter;stroke-opacity:1" d="M 136.463,604.499 151.181,603.027 z" id="boundary" inkscape:connector-curvature="0" />
	<path style="fill:none;stroke:red;stroke-width:1px;stroke-linecap:butt;stroke-linejoin:miter;stroke-opacity:1" d="M 137.935,4 152.653,4 z" id="boundary" inkscape:connector-curvature="0" />
	<path style="fill:none;stroke:red;stroke-width:1px;stroke-linecap:butt;stroke-linejoin:miter;stroke-opacity:1" d="M 139.407,653.068 152.653,645.709 z" id="boundary" inkscape:connector-curvature="0" />
	<path style="fill:none;stroke:red;stroke-width:1px;stroke-linecap:butt;stroke-linejoin:miter;stroke-opacity:1" d="M 148.237,445.543 158.54,457.318 z" id="boundary" inkscape:connector-curvature="0" />
	<path style="fill:none;stroke:red;stroke-width:1px;stroke-linecap:butt;stroke-linejoin:miter;stroke-opacity:1" d="M 151.181,603.027 164.427,610.386 z" id="boundary" inkscape:connector-curvature="0" />
	<path style="fill:none;stroke:red;stroke-width:1px;stroke-linecap:butt;stroke-linejoin:miter;stroke-opacity:1" d="M 152.653,4 167.371,8.41543 z" id="boundary" inkscape:connector-curvature="0" />
	<path style="fill:none;stroke:red;stroke-width:1px;stroke-linecap:butt;stroke-linejoin:miter;stroke-opacity:1" d="M 152.653,645.709 167.371,638.35 z" id="boundary" inkscape:connector-curvature="0" />
	<path style="fill:none;stroke:red;stroke-width:1px;stroke-linecap:butt;stroke-linejoin:miter;stroke-opacity:1" d="M 158.54,457.318 173.258,461.733 z" id="boundary" inkscape:connector-curvature="0" />
	<path style="fill:none;stroke:red;stroke-width:1px;stroke-linecap:butt;stroke-linejoin:miter;stroke-opacity:1" d="M 164.427,610.386 179.145,616.273 z" id="boundary" inkscape:connector-curvature="0" />
	<path style="fill:none;stroke:red;stroke-width:1px;stroke-linecap:butt;stroke-linejoin:miter;stroke-opacity:1" d="M 167.371,8.41543 180.617,15.7745 z" id="boundary" inkscape:connector-curvature="0" />
	<path style="fill:none;stroke:red;stroke-width:1px;stroke-linecap:butt;stroke-linejoin:miter;stroke-opacity:1" d="M 167.371,638.35 182.089,641.294 z" id="boundary" inkscape:connector-curvature="0" />
	<path style="fill:none;stroke:red;stroke-width:1px;stroke-linecap:butt;stroke-linejoin:miter;stroke-opacity:1" d="M 173.258,461.733 186.504,469.092 z" id="boundary" inkscape:connector-curvature="0" />
	<path style="fill:none;stroke:red;stroke-width:1px;stroke-linecap:butt;stroke-linejoin:miter;stroke-opacity:1" d="M 179.145,616.273 193.864,622.16 z" id="boundary" inkscape:connector-curvature="0" />
	<path style="fill:none;stroke:red;stroke-width:1px;stroke-linecap:butt;stroke-linejoin:miter;stroke-opacity:1" d="M 180.617,15.7745 192.392,26.0772 z" id="boundary" inkscape:connector-curvature="0" />
	<path style="fill:none;stroke:red;stroke-width:1px;stroke-linecap:butt;stroke-linejoin:miter;stroke-opacity:1" d="M 182.089,641.294 196.807,645.709 z" id="boundary" inkscape:connector-curvature="0" />
	<path style="fill:none;stroke:red;stroke-width:1px;stroke-linecap:butt;stroke-linejoin:miter;stroke-opacity:1" d="M 186.504,469.092 199.751,476.451 z" id="boundary" inkscape:connector-curvature="0" />
	<path style="fill:none;stroke:red;stroke-width:1px;stroke-linecap:butt;stroke-linejoin:miter;stroke-opacity:1" d="M 192.392,26.0772 205.638,33.4362 z" id="boundary" inkscape:connector-curvature="0" />
	<path style="fill:none;stroke:red;stroke-width:1px;stroke-linecap:butt;stroke-linejoin:miter;stroke-opacity:1" d="M 193.864,622.16 207.11,614.801 z" id="boundary" inkscape:connector-curvature="0" />
	<path style="fill:none;stroke:red;stroke-width:1px;stroke-linecap:butt;stroke-linejoin:miter;stroke-opacity:1" d="M 196.807,645.709 211.525,645.709 z" id="boundary" inkscape:connector-curvature="0" />
	<path style="fill:none;stroke:red;stroke-width:1px;stroke-linecap:butt;stroke-linejoin:miter;stroke-opacity:1" d="M 199.751,476.451 214.469,482.338 z" id="boundary" inkscape:connector-curvature="0" />
	<path style="fill:none;stroke:red;stroke-width:1px;stroke-linecap:butt;stroke-linejoin:miter;stroke-opacity:1" d="M 205.638,33.4362 218.884,40.7953 z" id="boundary" inkscape:connector-curvature="0" />
	<path style="fill:none;stroke:red;stroke-width:1px;stroke-linecap:butt;stroke-linejoin:miter;stroke-opacity:1" d="M 207.11,614.801 214.469,600.083 z" id="boundary" inkscape:connector-curvature="0" />
	<path style="fill:none;stroke:red;stroke-width:1px;stroke-linecap:butt;stroke-linejoin:miter;stroke-opacity:1" d="M 211.525,645.709 224.772,653.068 z" id="boundary" inkscape:connector-curvature="0" />
	<path style="fill:none;stroke:red;stroke-width:1px;stroke-linecap:butt;stroke-linejoin:miter;stroke-opacity:1" d="M 214.469,482.338 226.243,491.169 z" id="boundary" inkscape:connector-curvature="0" />
	<path style="fill:none;stroke:red;stroke-width:1px;stroke-linecap:butt;stroke-linejoin:miter;stroke-opacity:1" d="M 214.469,600.083 227.715,592.724 z" id="boundary" inkscape:connector-curvature="0" />
	<path style="fill:none;stroke:red;stroke-width:1px;stroke-linecap:butt;stroke-linejoin:miter;stroke-opacity:1" d="M 218.884,40.7953 233.602,45.2107 z" id="boundary" inkscape:connector-curvature="0" />
	<path style="fill:none;stroke:red;stroke-width:1px;stroke-linecap:butt;stroke-linejoin:miter;stroke-opacity:1" d="M 224.772,653.068 236.546,644.237 z" id="boundary" inkscape:connector-curvature="0" />
	<path style="fill:none;stroke:red;stroke-width:1px;stroke-linecap:butt;stroke-linejoin:miter;stroke-opacity:1" d="M 226.243,491.169 240.961,491.169 z" id="boundary" inkscape:connector-curvature="0" />
	<path style="fill:none;stroke:red;stroke-width:1px;stroke-linecap:butt;stroke-linejoin:miter;stroke-opacity:1" d="M 227.715,592.724 239.49,582.421 z" id="boundary" inkscape:connector-curvature="0" />
	<path style="fill:none;stroke:red;stroke-width:1px;stroke-linecap:butt;stroke-linejoin:miter;stroke-opacity:1" d="M 233.602,45.2107 240.961,58.457 z" id="boundary" inkscape:connector-curvature="0" />
	<path style="fill:none;stroke:red;stroke-width:1px;stroke-linecap:butt;stroke-linejoin:miter;stroke-opacity:1" d="M 233.602,608.914 236.546,623.632 z" id="boundary" inkscape:connector-curvature="0" />
	<path style="fill:none;stroke:red;stroke-width:1px;stroke-linecap:butt;stroke-linejoin:miter;stroke-opacity:1" d="M 233.602,608.914 245.377,598.611 z" id="boundary" inkscape:connector-curvature="0" />
	<path style="fill:none;stroke:red;stroke-width:1px;stroke-linecap:butt;stroke-linejoin:miter;stroke-opacity:1" d="M 236.546,623.632 236.546,644.237 z" id="boundary" inkscape:connector-curvature="0" />
	<path style="fill:none;stroke:red;stroke-width:1px;stroke-linecap:butt;stroke-linejoin:miter;stroke-opacity:1" d="M 239.49,582.421 254.208,575.062 z" id="boundary" inkscape:connector-curvature="0" />
	<path style="fill:none;stroke:red;stroke-width:1px;stroke-linecap:butt;stroke-linejoin:miter;stroke-opacity:1" d="M 240.961,58.457 248.32,71.7033 z" id="boundary" inkscape:connector-curvature="0" />
	<path style="fill:none;stroke:red;stroke-width:1px;stroke-linecap:butt;stroke-linejoin:miter;stroke-opacity:1" d="M 240.961,491.169 255.68,494.113 z" id="boundary" inkscape:connector-curvature="0" />
	<path style="fill:none;stroke:red;stroke-width:1px;stroke-linecap:butt;stroke-linejoin:miter;stroke-opacity:1" d="M 245.377,598.611 260.095,591.252 z" id="boundary" inkscape:connector-curvature="0" />
	<path style="fill:none;stroke:red;stroke-width:1px;stroke-linecap:butt;stroke-linejoin:miter;stroke-opacity:1" d="M 248.32,71.7033 255.68,84.9496 z" id="boundary" inkscape:connector-curvature="0" />
	<path style="fill:none;stroke:red;stroke-width:1px;stroke-linecap:butt;stroke-linejoin:miter;stroke-opacity:1" d="M 254.208,575.062 268.926,567.703 z" id="boundary" inkscape:connector-curvature="0" />
	<path style="fill:none;stroke:red;stroke-width:1px;stroke-linecap:butt;stroke-linejoin:miter;stroke-opacity:1" d="M 255.68,84.9496 263.039,98.1958 z" id="boundary" inkscape:connector-curvature="0" />
	<path style="fill:none;stroke:red;stroke-width:1px;stroke-linecap:butt;stroke-linejoin:miter;stroke-opacity:1" d="M 255.68,494.113 270.398,498.528 z" id="boundary" inkscape:connector-curvature="0" />
	<path style="fill:none;stroke:red;stroke-width:1px;stroke-linecap:butt;stroke-linejoin:miter;stroke-opacity:1" d="M 260.095,591.252 274.813,583.893 z" id="boundary" inkscape:connector-curvature="0" />
	<path style="fill:none;stroke:red;stroke-width:1px;stroke-linecap:butt;stroke-linejoin:miter;stroke-opacity:1" d="M 263.039,98.1958 270.398,111.442 z" id="boundary" inkscape:connector-curvature="0" />
	<path style="fill:none;stroke:red;stroke-width:1px;stroke-linecap:butt;stroke-linejoin:miter;stroke-opacity:1" d="M 268.926,567.703 280.7,555.929 z" id="boundary" inkscape:connector-curvature="0" />
	<path style="fill:none;stroke:red;stroke-width:1px;stroke-linecap:butt;stroke-linejoin:miter;stroke-opacity:1" d="M 270.398,111.442 277.757,124.688 z" id="boundary" inkscape:connector-curvature="0" />
	<path style="fill:none;stroke:red;stroke-width:1px;stroke-linecap:butt;stroke-linejoin:miter;stroke-opacity:1" d="M 270.398,498.528 285.116,501.472 z" id="boundary" inkscape:connector-curvature="0" />
	<path style="fill:none;stroke:red;stroke-width:1px;stroke-linecap:butt;stroke-linejoin:miter;stroke-opacity:1" d="M 274.813,583.893 289.531,576.534 z" id="boundary" inkscape:connector-curvature="0" />
	<path style="fill:none;stroke:red;stroke-width:1px;stroke-linecap:butt;stroke-linejoin:miter;stroke-opacity:1" d="M 277.757,124.688 285.116,137.935 z" id="boundary" inkscape:connector-curvature="0" />
	<path style="fill:none;stroke:red;stroke-width:1px;stroke-linecap:butt;stroke-linejoin:miter;stroke-opacity:1" d="M 280.7,555.929 295.418,548.57 z" id="boundary" inkscape:connector-curvature="0" />
	<path style="fill:none;stroke:red;stroke-width:1px;stroke-linecap:butt;stroke-linejoin:miter;stroke-opacity:1" d="M 285.116,137.935 292.475,151.181 z" id="boundary" inkscape:connector-curvature="0" />
	<path style="fill:none;stroke:red;stroke-width:1px;stroke-linecap:butt;stroke-linejoin:miter;stroke-opacity:1" d="M 285.116,501.472 298.362,508.831 z" id="boundary" inkscape:connector-curvature="0" />
	<path style="fill:none;stroke:red;stroke-width:1px;stroke-linecap:butt;stroke-linejoin:miter;stroke-opacity:1" d="M 289.531,576.534 304.249,569.175 z" id="boundary" inkscape:connector-curvature="0" />
	<path style="fill:none;stroke:red;stroke-width:1px;stroke-linecap:butt;stroke-linejoin:miter;stroke-opacity:1" d="M 292.475,151.181 304.249,160.012 z" id="boundary" inkscape:connector-curvature="0" />
	<path style="fill:none;stroke:red;stroke-width:1px;stroke-linecap:butt;stroke-linejoin:miter;stroke-opacity:1" d="M 295.418,548.57 310.136,541.211 z" id="boundary" inkscape:connector-curvature="0" />
	<path style="fill:none;stroke:red;stroke-width:1px;stroke-linecap:butt;stroke-linejoin:miter;stroke-opacity:1" d="M 298.362,508.831 305.721,522.077 z" id="boundary" inkscape:connector-curvature="0" />
	<path style="fill:none;stroke:red;stroke-width:1px;stroke-linecap:butt;stroke-linejoin:miter;stroke-opacity:1" d="M 304.249,160.012 314.552,171.786 z" id="boundary" inkscape:connector-curvature="0" />
	<path style="fill:none;stroke:red;stroke-width:1px;stroke-linecap:butt;stroke-linejoin:miter;stroke-opacity:1" d="M 310.136,541.211 313.08,557.401 z" id="boundary" inkscape:connector-curvature="0" />
	<path style="fill:none;stroke:red;stroke-width:1px;stroke-linecap:butt;stroke-linejoin:miter;stroke-opacity:1" d="M 313.08,557.401 327.798,552.985 z" id="boundary" inkscape:connector-curvature="0" />
	<path style="fill:none;stroke:red;stroke-width:1px;stroke-linecap:butt;stroke-linejoin:miter;stroke-opacity:1" d="M 313.08,626.576 321.911,638.35 z" id="boundary" inkscape:connector-curvature="0" />
	<path style="fill:none;stroke:red;stroke-width:1px;stroke-linecap:butt;stroke-linejoin:miter;stroke-opacity:1" d="M 313.08,626.576 327.798,622.16 z" id="boundary" inkscape:connector-curvature="0" />
	<path style="fill:none;stroke:red;stroke-width:1px;stroke-linecap:butt;stroke-linejoin:miter;stroke-opacity:1" d="M 314.552,171.786 326.326,182.089 z" id="boundary" inkscape:connector-curvature="0" />
	<path style="fill:none;stroke:red;stroke-width:1px;stroke-linecap:butt;stroke-linejoin:miter;stroke-opacity:1" d="M 321.911,638.35 336.629,638.35 z" id="boundary" inkscape:connector-curvature="0" />
	<path style="fill:none;stroke:red;stroke-width:1px;stroke-linecap:butt;stroke-linejoin:miter;stroke-opacity:1" d="M 326.326,182.089 339.573,189.448 z" id="boundary" inkscape:connector-curvature="0" />
	<path style="fill:none;stroke:red;stroke-width:1px;stroke-linecap:butt;stroke-linejoin:miter;stroke-opacity:1" d="M 327.798,552.985 342.516,545.626 z" id="boundary" inkscape:connector-curvature="0" />
	<path style="fill:none;stroke:red;stroke-width:1px;stroke-linecap:butt;stroke-linejoin:miter;stroke-opacity:1" d="M 327.798,622.16 342.516,622.16 z" id="boundary" inkscape:connector-curvature="0" />
	<path style="fill:none;stroke:red;stroke-width:1px;stroke-linecap:butt;stroke-linejoin:miter;stroke-opacity:1" d="M 336.629,638.35 351.347,638.35 z" id="boundary" inkscape:connector-curvature="0" />
	<path style="fill:none;stroke:red;stroke-width:1px;stroke-linecap:butt;stroke-linejoin:miter;stroke-opacity:1" d="M 339.573,189.448 354.291,195.335 z" id="boundary" inkscape:connector-curvature="0" />
	<path style="fill:none;stroke:red;stroke-width:1px;stroke-linecap:butt;stroke-linejoin:miter;stroke-opacity:1" d="M 342.516,545.626 351.347,527.964 z" id="boundary" inkscape:connector-curvature="0" />
	<path style="fill:none;stroke:red;stroke-width:1px;stroke-linecap:butt;stroke-linejoin:miter;stroke-opacity:1" d="M 342.516,622.16 357.234,622.16 z" id="boundary" inkscape:connector-curvature="0" />
	<path style="fill:none;stroke:red;stroke-width:1px;stroke-linecap:butt;stroke-linejoin:miter;stroke-opacity:1" d="M 351.347,527.964 364.593,520.605 z" id="boundary" inkscape:connector-curvature="0" />
	<path style="fill:none;stroke:red;stroke-width:1px;stroke-linecap:butt;stroke-linejoin:miter;stroke-opacity:1" d="M 351.347,638.35 366.065,641.294 z" id="boundary" inkscape:connector-curvature="0" />
	<path style="fill:none;stroke:red;stroke-width:1px;stroke-linecap:butt;stroke-linejoin:miter;stroke-opacity:1" d="M 354.291,195.335 364.593,207.11 z" id="boundary" inkscape:connector-curvature="0" />
	<path style="fill:none;stroke:red;stroke-width:1px;stroke-linecap:butt;stroke-linejoin:miter;stroke-opacity:1" d="M 357.234,622.16 371.953,622.16 z" id="boundary" inkscape:connector-curvature="0" />
	<path style="fill:none;stroke:red;stroke-width:1px;stroke-linecap:butt;stroke-linejoin:miter;stroke-opacity:1" d="M 364.593,207.11 379.312,212.997 z" id="boundary" inkscape:connector-curvature="0" />
	<path style="fill:none;stroke:red;stroke-width:1px;stroke-linecap:butt;stroke-linejoin:miter;stroke-opacity:1" d="M 364.593,520.605 377.84,513.246 z" id="boundary" inkscape:connector-curvature="0" />
	<path style="fill:none;stroke:red;stroke-width:1px;stroke-linecap:butt;stroke-linejoin:miter;stroke-opacity:1" d="M 366.065,641.294 380.783,645.709 z" id="boundary" inkscape:connector-curvature="0" />
	<path style="fill:none;stroke:red;stroke-width:1px;stroke-linecap:butt;stroke-linejoin:miter;stroke-opacity:1" d="M 371.953,622.16 385.199,614.801 z" id="boundary" inkscape:connector-curvature="0" />
	<path style="fill:none;stroke:red;stroke-width:1px;stroke-linecap:butt;stroke-linejoin:miter;stroke-opacity:1" d="M 377.84,513.246 392.558,510.303 z" id="boundary" inkscape:connector-curvature="0" />
	<path style="fill:none;stroke:red;stroke-width:1px;stroke-linecap:butt;stroke-linejoin:miter;stroke-opacity:1" d="M 379.312,212.997 392.558,220.356 z" id="boundary" inkscape:connector-curvature="0" />
	<path style="fill:none;stroke:red;stroke-width:1px;stroke-linecap:butt;stroke-linejoin:miter;stroke-opacity:1" d="M 380.783,645.709 395.501,645.709 z" id="boundary" inkscape:connector-curvature="0" />
	<path style="fill:none;stroke:red;stroke-width:1px;stroke-linecap:butt;stroke-linejoin:miter;stroke-opacity:1" d="M 385.199,614.801 386.671,597.139 z" id="boundary" inkscape:connector-curvature="0" />
	<path style="fill:none;stroke:red;stroke-width:1px;stroke-linecap:butt;stroke-linejoin:miter;stroke-opacity:1" d="M 392.558,220.356 407.276,224.772 z" id="boundary" inkscape:connector-curvature="0" />
	<path style="fill:none;stroke:red;stroke-width:1px;stroke-linecap:butt;stroke-linejoin:miter;stroke-opacity:1" d="M 392.558,510.303 407.276,505.887 z" id="boundary" inkscape:connector-curvature="0" />
	<path style="fill:none;stroke:red;stroke-width:1px;stroke-linecap:butt;stroke-linejoin:miter;stroke-opacity:1" d="M 394.03,582.421 401.389,567.703 z" id="boundary" inkscape:connector-curvature="0" />
	<path style="fill:none;stroke:red;stroke-width:1px;stroke-linecap:butt;stroke-linejoin:miter;stroke-opacity:1" d="M 394.03,582.421 402.861,601.555 z" id="boundary" inkscape:connector-curvature="0" />
	<path style="fill:none;stroke:red;stroke-width:1px;stroke-linecap:butt;stroke-linejoin:miter;stroke-opacity:1" d="M 395.501,645.709 410.22,645.709 z" id="boundary" inkscape:connector-curvature="0" />
	<path style="fill:none;stroke:red;stroke-width:1px;stroke-linecap:butt;stroke-linejoin:miter;stroke-opacity:1" d="M 401.389,567.703 408.748,552.985 z" id="boundary" inkscape:connector-curvature="0" />
	<path style="fill:none;stroke:red;stroke-width:1px;stroke-linecap:butt;stroke-linejoin:miter;stroke-opacity:1" d="M 402.861,601.555 410.22,614.801 z" id="boundary" inkscape:connector-curvature="0" />
	<path style="fill:none;stroke:red;stroke-width:1px;stroke-linecap:butt;stroke-linejoin:miter;stroke-opacity:1" d="M 407.276,224.772 420.522,232.131 z" id="boundary" inkscape:connector-curvature="0" />
	<path style="fill:none;stroke:red;stroke-width:1px;stroke-linecap:butt;stroke-linejoin:miter;stroke-opacity:1" d="M 407.276,505.887 421.994,502.944 z" id="boundary" inkscape:connector-curvature="0" />
	<path style="fill:none;stroke:red;stroke-width:1px;stroke-linecap:butt;stroke-linejoin:miter;stroke-opacity:1" d="M 408.748,552.985 420.522,541.211 z" id="boundary" inkscape:connector-curvature="0" />
	<path style="fill:none;stroke:red;stroke-width:1px;stroke-linecap:butt;stroke-linejoin:miter;stroke-opacity:1" d="M 410.22,586.837 421.994,576.534 z" id="boundary" inkscape:connector-curvature="0" />
	<path style="fill:none;stroke:red;stroke-width:1px;stroke-linecap:butt;stroke-linejoin:miter;stroke-opacity:1" d="M 410.22,614.801 421.994,623.632 z" id="boundary" inkscape:connector-curvature="0" />
	<path style="fill:none;stroke:red;stroke-width:1px;stroke-linecap:butt;stroke-linejoin:miter;stroke-opacity:1" d="M 410.22,645.709 424.938,645.709 z" id="boundary" inkscape:connector-curvature="0" />
	<path style="fill:none;stroke:red;stroke-width:1px;stroke-linecap:butt;stroke-linejoin:miter;stroke-opacity:1" d="M 420.522,232.131 433.769,239.49 z" id="boundary" inkscape:connector-curvature="0" />
	<path style="fill:none;stroke:red;stroke-width:1px;stroke-linecap:butt;stroke-linejoin:miter;stroke-opacity:1" d="M 420.522,541.211 439.656,527.964 z" id="boundary" inkscape:connector-curvature="0" />
	<path style="fill:none;stroke:red;stroke-width:1px;stroke-linecap:butt;stroke-linejoin:miter;stroke-opacity:1" d="M 421.994,502.944 423.466,523.549 z" id="boundary" inkscape:connector-curvature="0" />
	<path style="fill:none;stroke:red;stroke-width:1px;stroke-linecap:butt;stroke-linejoin:miter;stroke-opacity:1" d="M 421.994,576.534 424.938,557.401 z" id="boundary" inkscape:connector-curvature="0" />
	<path style="fill:none;stroke:red;stroke-width:1px;stroke-linecap:butt;stroke-linejoin:miter;stroke-opacity:1" d="M 421.994,623.632 435.24,630.991 z" id="boundary" inkscape:connector-curvature="0" />
	<path style="fill:none;stroke:red;stroke-width:1px;stroke-linecap:butt;stroke-linejoin:miter;stroke-opacity:1" d="M 424.938,557.401 436.712,547.098 z" id="boundary" inkscape:connector-curvature="0" />
	<path style="fill:none;stroke:red;stroke-width:1px;stroke-linecap:butt;stroke-linejoin:miter;stroke-opacity:1" d="M 424.938,645.709 439.656,645.709 z" id="boundary" inkscape:connector-curvature="0" />
	<path style="fill:none;stroke:red;stroke-width:1px;stroke-linecap:butt;stroke-linejoin:miter;stroke-opacity:1" d="M 433.769,239.49 447.015,246.849 z" id="boundary" inkscape:connector-curvature="0" />
	<path style="fill:none;stroke:red;stroke-width:1px;stroke-linecap:butt;stroke-linejoin:miter;stroke-opacity:1" d="M 435.24,630.991 439.656,645.709 z" id="boundary" inkscape:connector-curvature="0" />
	<path style="fill:none;stroke:red;stroke-width:1px;stroke-linecap:butt;stroke-linejoin:miter;stroke-opacity:1" d="M 439.656,527.964 451.43,517.662 z" id="boundary" inkscape:connector-curvature="0" />
	<path style="fill:none;stroke:red;stroke-width:1px;stroke-linecap:butt;stroke-linejoin:miter;stroke-opacity:1" d="M 447.015,246.849 461.733,246.849 z" id="boundary" inkscape:connector-curvature="0" />
	<path style="fill:none;stroke:red;stroke-width:1px;stroke-linecap:butt;stroke-linejoin:miter;stroke-opacity:1" d="M 451.43,517.662 458.789,502.944 z" id="boundary" inkscape:connector-curvature="0" />
	<path style="fill:none;stroke:red;stroke-width:1px;stroke-linecap:butt;stroke-linejoin:miter;stroke-opacity:1" d="M 458.789,502.944 469.092,491.169 z" id="boundary" inkscape:connector-curvature="0" />
	<path style="fill:none;stroke:red;stroke-width:1px;stroke-linecap:butt;stroke-linejoin:miter;stroke-opacity:1" d="M 461.733,246.849 474.979,254.208 z" id="boundary" inkscape:connector-curvature="0" />
	<path style="fill:none;stroke:red;stroke-width:1px;stroke-linecap:butt;stroke-linejoin:miter;stroke-opacity:1" d="M 469.092,491.169 480.866,480.866 z" id="boundary" inkscape:connector-curvature="0" />
	<path style="fill:none;stroke:red;stroke-width:1px;stroke-linecap:butt;stroke-linejoin:miter;stroke-opacity:1" d="M 474.979,254.208 488.226,261.567 z" id="boundary" inkscape:connector-curvature="0" />
	<path style="fill:none;stroke:red;stroke-width:1px;stroke-linecap:butt;stroke-linejoin:miter;stroke-opacity:1" d="M 480.866,480.866 491.169,469.092 z" id="boundary" inkscape:connector-curvature="0" />
	<path style="fill:none;stroke:red;stroke-width:1px;stroke-linecap:butt;stroke-linejoin:miter;stroke-opacity:1" d="M 488.226,261.567 501.472,268.926 z" id="boundary" inkscape:connector-curvature="0" />
	<path style="fill:none;stroke:red;stroke-width:1px;stroke-linecap:butt;stroke-linejoin:miter;stroke-opacity:1" d="M 491.169,469.092 502.944,458.789 z" id="boundary" inkscape:connector-curvature="0" />
	<path style="fill:none;stroke:red;stroke-width:1px;stroke-linecap:butt;stroke-linejoin:miter;stroke-opacity:1" d="M 501.472,268.926 514.718,276.285 z" id="boundary" inkscape:connector-curvature="0" />
	<path style="fill:none;stroke:red;stroke-width:1px;stroke-linecap:butt;stroke-linejoin:miter;stroke-opacity:1" d="M 502.944,458.789 510.303,444.071 z" id="boundary" inkscape:connector-curvature="0" />
	<path style="fill:none;stroke:red;stroke-width:1px;stroke-linecap:butt;stroke-linejoin:miter;stroke-opacity:1" d="M 510.303,444.071 520.605,432.297 z" id="boundary" inkscape:connector-curvature="0" />
	<path style="fill:none;stroke:red;stroke-width:1px;stroke-linecap:butt;stroke-linejoin:miter;stroke-opacity:1" d="M 514.718,276.285 529.436,276.285 z" id="boundary" inkscape:connector-curvature="0" />
	<path style="fill:none;stroke:red;stroke-width:1px;stroke-linecap:butt;stroke-linejoin:miter;stroke-opacity:1" d="M 520.605,432.297 532.38,421.994 z" id="boundary" inkscape:connector-curvature="0" />
	<path style="fill:none;stroke:red;stroke-width:1px;stroke-linecap:butt;stroke-linejoin:miter;stroke-opacity:1" d="M 529.436,276.285 542.682,283.644 z" id="boundary" inkscape:connector-curvature="0" />
	<path style="fill:none;stroke:red;stroke-width:1px;stroke-linecap:butt;stroke-linejoin:miter;stroke-opacity:1" d="M 532.38,421.994 547.098,414.635 z" id="boundary" inkscape:connector-curvature="0" />
	<path style="fill:none;stroke:red;stroke-width:1px;stroke-linecap:butt;stroke-linejoin:miter;stroke-opacity:1" d="M 542.682,283.644 555.929,291.003 z" id="boundary" inkscape:connector-curvature="0" />
	<path style="fill:none;stroke:red;stroke-width:1px;stroke-linecap:butt;stroke-linejoin:miter;stroke-opacity:1" d="M 547.098,414.635 561.816,407.276 z" id="boundary" inkscape:connector-curvature="0" />
	<path style="fill:none;stroke:red;stroke-width:1px;stroke-linecap:butt;stroke-linejoin:miter;stroke-opacity:1" d="M 555.929,291.003 567.703,299.834 z" id="boundary" inkscape:connector-curvature="0" />
	<path style="fill:none;stroke:red;stroke-width:1px;stroke-linecap:butt;stroke-linejoin:miter;stroke-opacity:1" d="M 561.816,407.276 576.534,399.917 z" id="boundary" inkscape:connector-curvature="0" />
	<path style="fill:none;stroke:red;stroke-width:1px;stroke-linecap:butt;stroke-linejoin:miter;stroke-opacity:1" d="M 567.703,299.834 582.421,305.721 z" id="boundary" inkscape:connector-curvature="0" />
	<path style="fill:none;stroke:red;stroke-width:1px;stroke-linecap:butt;stroke-linejoin:miter;stroke-opacity:1" d="M 576.534,399.917 591.252,395.501 z" id="boundary" inkscape:connector-curvature="0" />
	<path style="fill:none;stroke:red;stroke-width:1px;stroke-linecap:butt;stroke-linejoin:miter;stroke-opacity:1" d="M 582.421,305.721 595.668,313.08 z" id="boundary" inkscape:connector-curvature="0" />
	<path style="fill:none;stroke:red;stroke-width:1px;stroke-linecap:butt;stroke-linejoin:miter;stroke-opacity:1" d="M 591.252,395.501 604.499,386.671 z" id="boundary" inkscape:connector-curvature="0" />
	<path style="fill:none;stroke:red;stroke-width:1px;stroke-linecap:butt;stroke-linejoin:miter;stroke-opacity:1" d="M 595.668,313.08 608.914,320.439 z" id="boundary" inkscape:connector-curvature="0" />
	<path style="fill:none;stroke:red;stroke-width:1px;stroke-linecap:butt;stroke-linejoin:miter;stroke-opacity:1" d="M 604.499,386.671 619.217,380.783 z" id="boundary" inkscape:connector-curvature="0" />
	<path style="fill:none;stroke:red;stroke-width:1px;stroke-linecap:butt;stroke-linejoin:miter;stroke-opacity:1" d="M 608.914,320.439 622.16,313.08 z" id="boundary" inkscape:connector-curvature="0" />
	<path style="fill:none;stroke:red;stroke-width:1px;stroke-linecap:butt;stroke-linejoin:miter;stroke-opacity:1" d="M 619.217,380.783 632.463,373.424 z" id="boundary" inkscape:connector-curvature="0" />
	<path style="fill:none;stroke:red;stroke-width:1px;stroke-linecap:butt;stroke-linejoin:miter;stroke-opacity:1" d="M 622.16,313.08 636.878,313.08 z" id="boundary" inkscape:connector-curvature="0" />
	<path style="fill:none;stroke:red;stroke-width:1px;stroke-linecap:butt;stroke-linejoin:miter;stroke-opacity:1" d="M 632.463,373.424 647.181,373.424 z" id="boundary" inkscape:connector-curvature="0" />
	<path style="fill:none;stroke:red;stroke-width:1px;stroke-linecap:butt;stroke-linejoin:miter;stroke-opacity:1" d="M 636.878,313.08 651.596,313.08 z" id="boundary" inkscape:connector-curvature="0" />
	<path style="fill:none;stroke:red;stroke-width:1px;stroke-linecap:butt;stroke-linejoin:miter;stroke-opacity:1" d="M 647.181,373.424 661.899,373.424 z" id="boundary" inkscape:connector-curvature="0" />
	<path style="fill:none;stroke:red;stroke-width:1px;stroke-linecap:butt;stroke-linejoin:miter;stroke-opacity:1" d="M 651.596,313.08 666.315,313.08 z" id="boundary" inkscape:connector-curvature="0" />
	<path style="fill:none;stroke:red;stroke-width:1px;stroke-linecap:butt;stroke-linejoin:miter;stroke-opacity:1" d="M 661.899,373.424 675.145,366.065 z" id="boundary" inkscape:connector-curvature="0" />
	<path style="fill:none;stroke:red;stroke-width:1px;stroke-linecap:butt;stroke-linejoin:miter;stroke-opacity:1" d="M 666.315,313.08 681.033,310.136 z" id="boundary" inkscape:connector-curvature="0" />
	<path style="fill:none;stroke:red;stroke-width:1px;stroke-linecap:butt;stroke-linejoin:miter;stroke-opacity:1" d="M 675.145,366.065 689.864,358.706 z" id="boundary" inkscape:connector-curvature="0" />
	<path style="fill:none;stroke:red;stroke-width:1px;stroke-linecap:butt;stroke-linejoin:miter;stroke-opacity:1" d="M 681.033,310.136 695.751,305.721 z" id="boundary" inkscape:connector-curvature="0" />
	<path style="fill:none;stroke:red;stroke-width:1px;stroke-linecap:butt;stroke-linejoin:miter;stroke-opacity:1" d="M 689.864,358.706 704.582,358.706 z" id="boundary" inkscape:connector-curvature="0" />
	<path style="fill:none;stroke:red;stroke-width:1px;stroke-linecap:butt;stroke-linejoin:miter;stroke-opacity:1" d="M 695.751,305.721 710.469,305.721 z" id="boundary" inkscape:connector-curvature="0" />
	<path style="fill:none;stroke:red;stroke-width:1px;stroke-linecap:butt;stroke-linejoin:miter;stroke-opacity:1" d="M 704.582,358.706 719.3,351.347 z" id="boundary" inkscape:connector-curvature="0" />
	<path style="fill:none;stroke:red;stroke-width:1px;stroke-linecap:butt;stroke-linejoin:miter;stroke-opacity:1" d="M 710.469,305.721 725.187,305.721 z" id="boundary" inkscape:connector-curvature="0" />
	<path style="fill:none;stroke:red;stroke-width:1px;stroke-linecap:butt;stroke-linejoin:miter;stroke-opacity:1" d="M 719.3,351.347 734.018,351.347 z" id="boundary" inkscape:connector-curvature="0" />
	<path style="fill:none;stroke:red;stroke-width:1px;stroke-linecap:butt;stroke-linejoin:miter;stroke-opacity:1" d="M 725.187,305.721 739.905,305.721 z" id="boundary" inkscape:connector-curvature="0" />
	<path style="fill:none;stroke:red;stroke-width:1px;stroke-linecap:butt;stroke-linejoin:miter;stroke-opacity:1" d="M 734.018,351.347 748.736,343.988 z" id="boundary" inkscape:connector-curvature="0" />
	<path style="fill:none;stroke:red;stroke-width:1px;stroke-linecap:butt;stroke-linejoin:miter;stroke-opacity:1" d="M 739.905,305.721 754.623,305.721 z" id="boundary" inkscape:connector-curvature="0" />
	<path style="fill:none;stroke:red;stroke-width:1px;stroke-linecap:butt;stroke-linejoin:miter;stroke-opacity:1" d="M 748.736,343.988 763.454,343.988 z" id="boundary" inkscape:connector-curvature="0" />
	<path style="fill:none;stroke:red;stroke-width:1px;stroke-linecap:butt;stroke-linejoin:miter;stroke-opacity:1" d="M 754.623,305.721 769.341,305.721 z" id="boundary" inkscape:connector-curvature="0" />
	<path style="fill:none;stroke:red;stroke-width:1px;stroke-linecap:butt;stroke-linejoin:miter;stroke-opacity:1" d="M 763.454,343.988 778.172,343.988 z" id="boundary" inkscape:connector-curvature="0" />
	<path style="fill:none;stroke:red;stroke-width:1px;stroke-linecap:butt;stroke-linejoin:miter;stroke-opacity:1" d="M 769.341,305.721 784.059,305.721 z" id="boundary" inkscape:connector-curvature="0" />
	<path style="fill:none;stroke:red;stroke-width:1px;stroke-linecap:butt;stroke-linejoin:miter;stroke-opacity:1" d="M 778.172,343.988 792.89,343.988 z" id="boundary" inkscape:connector-curvature="0" />
	<path style="fill:none;stroke:red;stroke-width:1px;stroke-linecap:butt;stroke-linejoin:miter;stroke-opacity:1" d="M 784.059,305.721 798.777,305.721 z" id="boundary" inkscape:connector-curvature="0" />
	<path style="fill:none;stroke:red;stroke-width:1px;stroke-linecap:butt;stroke-linejoin:miter;stroke-opacity:1" d="M 792.89,343.988 806.136,336.629 z" id="boundary" inkscape:connector-curvature="0" />
	<path style="fill:none;stroke:red;stroke-width:1px;stroke-linecap:butt;stroke-linejoin:miter;stroke-opacity:1" d="M 798.777,305.721 813.496,302.777 z" id="boundary" inkscape:connector-curvature="0" />
	<path style="fill:none;stroke:red;stroke-width:1px;stroke-linecap:butt;stroke-linejoin:miter;stroke-opacity:1" d="M 806.136,336.629 820.855,336.629 z" id="boundary" inkscape:connector-curvature="0" />
	<path style="fill:none;stroke:red;stroke-width:1px;stroke-linecap:butt;stroke-linejoin:miter;stroke-opacity:1" d="M 813.496,302.777 828.214,298.362 z" id="boundary" inkscape:connector-curvature="0" />
	<path style="fill:none;stroke:red;stroke-width:1px;stroke-linecap:butt;stroke-linejoin:miter;stroke-opacity:1" d="M 820.855,336.629 835.573,336.629 z" id="boundary" inkscape:connector-curvature="0" />
	<path style="fill:none;stroke:red;stroke-width:1px;stroke-linecap:butt;stroke-linejoin:miter;stroke-opacity:1" d="M 828.214,298.362 842.932,298.362 z" id="boundary" inkscape:connector-curvature="0" />
	<path style="fill:none;stroke:red;stroke-width:1px;stroke-linecap:butt;stroke-linejoin:miter;stroke-opacity:1" d="M 835.573,336.629 850.291,336.629 z" id="boundary" inkscape:connector-curvature="0" />
	<path style="fill:none;stroke:red;stroke-width:1px;stroke-linecap:butt;stroke-linejoin:miter;stroke-opacity:1" d="M 842.932,298.362 857.65,298.362 z" id="boundary" inkscape:connector-curvature="0" />
	<path style="fill:none;stroke:red;stroke-width:1px;stroke-linecap:butt;stroke-linejoin:miter;stroke-opacity:1" d="M 850.291,336.629 865.009,336.629 z" id="boundary" inkscape:connector-curvature="0" />
	<path style="fill:none;stroke:red;stroke-width:1px;stroke-linecap:butt;stroke-linejoin:miter;stroke-opacity:1" d="M 857.65,298.362 872.368,298.362 z" id="boundary" inkscape:connector-curvature="0" />
	<path style="fill:none;stroke:red;stroke-width:1px;stroke-linecap:butt;stroke-linejoin:miter;stroke-opacity:1" d="M 865.009,336.629 879.727,336.629 z" id="boundary" inkscape:connector-curvature="0" />
	<path style="fill:none;stroke:red;stroke-width:1px;stroke-linecap:butt;stroke-linejoin:miter;stroke-opacity:1" d="M 872.368,298.362 887.086,298.362 z" id="boundary" inkscape:connector-curvature="0" />
	<path style="fill:none;stroke:red;stroke-width:1px;stroke-linecap:butt;stroke-linejoin:miter;stroke-opacity:1" d="M 879.727,336.629 894.445,336.629 z" id="boundary" inkscape:connector-curvature="0" />
	<path style="fill:none;stroke:red;stroke-width:1px;stroke-linecap:butt;stroke-linejoin:miter;stroke-opacity:1" d="M 887.086,298.362 901.804,298.362 z" id="boundary" inkscape:connector-curvature="0" />
	<path style="fill:none;stroke:red;stroke-width:1px;stroke-linecap:butt;stroke-linejoin:miter;stroke-opacity:1" d="M 894.445,336.629 909.163,336.629 z" id="boundary" inkscape:connector-curvature="0" />
	<path style="fill:none;stroke:red;stroke-width:1px;stroke-linecap:butt;stroke-linejoin:miter;stroke-opacity:1" d="M 901.804,298.362 916.522,298.362 z" id="boundary" inkscape:connector-curvature="0" />
	<path style="fill:none;stroke:red;stroke-width:1px;stroke-linecap:butt;stroke-linejoin:miter;stroke-opacity:1" d="M 909.163,336.629 922.409,329.27 z" id="boundary" inkscape:connector-curvature="0" />
	<path style="fill:none;stroke:red;stroke-width:1px;stroke-linecap:butt;stroke-linejoin:miter;stroke-opacity:1" d="M 916.522,298.362 931.24,295.418 z" id="boundary" inkscape:connector-curvature="0" />
	<path style="fill:none;stroke:red;stroke-width:1px;stroke-linecap:butt;stroke-linejoin:miter;stroke-opacity:1" d="M 922.409,329.27 937.128,326.326 z" id="boundary" inkscape:connector-curvature="0" />
	<path style="fill:none;stroke:red;stroke-width:1px;stroke-linecap:butt;stroke-linejoin:miter;stroke-opacity:1" d="M 931.24,295.418 945.958,291.003 z" id="boundary" inkscape:connector-curvature="0" />
	<path style="fill:none;stroke:red;stroke-width:1px;stroke-linecap:butt;stroke-linejoin:miter;stroke-opacity:1" d="M 937.128,326.326 951.846,321.911 z" id="boundary" inkscape:connector-curvature="0" />
	<path style="fill:none;stroke:red;stroke-width:1px;stroke-linecap:butt;stroke-linejoin:miter;stroke-opacity:1" d="M 945.958,291.003 960.677,291.003 z" id="boundary" inkscape:connector-curvature="0" />
	<path style="fill:none;stroke:red;stroke-width:1px;stroke-linecap:butt;stroke-linejoin:miter;stroke-opacity:1" d="M 951.846,321.911 966.564,318.967 z" id="boundary" inkscape:connector-curvature="0" />
	<path style="fill:none;stroke:red;stroke-width:1px;stroke-linecap:butt;stroke-linejoin:miter;stroke-opacity:1" d="M 960.677,291.003 975.395,291.003 z" id="boundary" inkscape:connector-curvature="0" />
	<path style="fill:none;stroke:red;stroke-width:1px;stroke-linecap:butt;stroke-linejoin:miter;stroke-opacity:1" d="M 966.564,318.967 981.282,314.552 z" id="boundary" inkscape:connector-curvature="0" />
	<path style="fill:none;stroke:red;stroke-width:1px;stroke-linecap:butt;stroke-linejoin:miter;stroke-opacity:1" d="M 975.395,291.003 988.641,298.362 z" id="boundary" inkscape:connector-curvature="0" />
	<path style="fill:none;stroke:red;stroke-width:1px;stroke-linecap:butt;stroke-linejoin:miter;stroke-opacity:1" d="M 981.282,314.552 996,311.608 z" id="boundary" inkscape:connector-curvature="0" />
	<path style="fill:none;stroke:red;stroke-width:1px;stroke-linecap:butt;stroke-linejoin:miter;stroke-opacity:1" d="M 988.641,298.362 996,311.608 z" id="boundary" inkscape:connector-curvature="0" />
	<circle cx="4" cy="59.9288" r="4" fill="#0" id="circle0"/>
	<circle cx="4" cy="74.6469" r="4" fill="#0" id="circle1"/>
	<circle cx="15.7745" cy="84.9496" r="4" fill="#0" id="circle2"/>
	<circle cx="18.7181" cy="55.5134" r="4" fill="#0" id="circle3"/>
	<circle cx="30.4926" cy="86.4214" r="4" fill="#0" id="circle4"/>
	<circle cx="31.9644" cy="48.1543" r="4" fill="#0" id="circle5"/>
	<circle cx="42.2671" cy="36.3798" r="4" fill="#0" id="circle6"/>
	<circle cx="42.2671" cy="96.724" r="4" fill="#0" id="circle7"/>
	<circle cx="48.1543" cy="111.442" r="4" fill="#0" id="circle8"/>
	<circle cx="55.5134" cy="124.688" r="4" fill="#0" id="circle9"/>
	<circle cx="55.5134" cy="139.407" r="4" fill="#0" id="circle10"/>
	<circle cx="55.5134" cy="154.125" r="4" fill="#0" id="circle11"/>
	<circle cx="55.5134" cy="168.843" r="4" fill="#0" id="circle12"/>
	<circle cx="55.5134" cy="183.561" r="4" fill="#0" id="circle13"/>
	<circle cx="55.5134" cy="198.279" r="4" fill="#0" id="circle14"/>
	<circle cx="55.5134" cy="212.997" r="4" fill="#0" id="circle15"/>
	<circle cx="56.9852" cy="29.0208" r="4" fill="#0" id="circle16"/>
	<circle cx="62.8724" cy="226.243" r="4" fill="#0" id="circle17"/>
	<circle cx="67.2878" cy="240.961" r="4" fill="#0" id="circle18"/>
	<circle cx="68.7596" cy="18.7181" r="4" fill="#0" id="circle19"/>
	<circle cx="70.2315" cy="255.68" r="4" fill="#0" id="circle20"/>
	<circle cx="70.2315" cy="270.398" r="4" fill="#0" id="circle21"/>
	<circle cx="70.2315" cy="285.116" r="4" fill="#0" id="circle22"/>
	<circle cx="74.6469" cy="299.834" r="4" fill="#0" id="circle23"/>
	<circle cx="77.5905" cy="314.552" r="4" fill="#0" id="circle24"/>
	<circle cx="77.5905" cy="329.27" r="4" fill="#0" id="circle25"/>
	<circle cx="79.0623" cy="6.94362" r="4" fill="#0" id="circle26"/>
	<circle cx="84.9496" cy="342.516" r="4" fill="#0" id="circle27"/>
	<circle cx="84.9496" cy="648.653" r="4" fill="#0" id="circle28"/>
	<circle cx="87.8932" cy="357.234" r="4" fill="#0" id="circle29"/>
	<circle cx="93.7804" cy="4" r="4" fill="#0" id="circle30"/>
	<circle cx="95.2522" cy="370.481" r="4" fill="#0" id="circle31"/>
	<circle cx="96.724" cy="658.955" r="4" fill="#0" id="circle32"/>
	<circle cx="99.6677" cy="641.294" r="4" fill="#0" id="circle33"/>
	<circle cx="101.139" cy="385.199" r="4" fill="#0" id="circle34"/>
	<circle cx="108.499" cy="4" r="4" fill="#0" id="circle35"/>
	<circle cx="108.499" cy="398.445" r="4" fill="#0" id="circle36"/>
	<circle cx="111.442" cy="660.427" r="4" fill="#0" id="circle37"/>
	<circle cx="114.386" cy="636.878" r="4" fill="#0" id="circle38"/>
	<circle cx="118.801" cy="410.22" r="4" fill="#0" id="circle39"/>
	<circle cx="123.217" cy="4" r="4" fill="#0" id="circle40"/>
	<circle cx="126.16" cy="423.466" r="4" fill="#0" id="circle41"/>
	<circle cx="126.16" cy="660.427" r="4" fill="#0" id="circle42"/>
	<circle cx="129.104" cy="636.878" r="4" fill="#0" id="circle43"/>
	<circle cx="136.463" cy="435.24" r="4" fill="#0" id="circle44"/>
	<circle cx="136.463" cy="604.499" r="4" fill="#0" id="circle45"/>
	<circle cx="136.463" cy="619.217" r="4" fill="#0" id="circle46"/>
	<circle cx="137.935" cy="4" r="4" fill="#0" id="circle47"/>
	<circle cx="139.407" cy="653.068" r="4" fill="#0" id="circle48"/>
	<circle cx="148.237" cy="445.543" r="4" fill="#0" id="circle49"/>
	<circle cx="151.181" cy="603.027" r="4" fill="#0" id="circle50"/>
	<circle cx="152.653" cy="4" r="4" fill="#0" id="circle51"/>
	<circle cx="152.653" cy="645.709" r="4" fill="#0" id="circle52"/>
	<circle cx="158.54" cy="457.318" r="4" fill="#0" id="circle53"/>
	<circle cx="164.427" cy="610.386" r="4" fill="#0" id="circle54"/>
	<circle cx="167.371" cy="8.41543" r="4" fill="#0" id="circle55"/>
	<circle cx="167.371" cy="638.35" r="4" fill="#0" id="circle56"/>
	<circle cx="173.258" cy="461.733" r="4" fill="#0" id="circle57"/>
	<circle cx="179.145" cy="616.273" r="4" fill="#0" id="circle58"/>
	<circle cx="180.617" cy="15.7745" r="4" fill="#0" id="circle59"/>
	<circle cx="182.089" cy="641.294" r="4" fill="#0" id="circle60"/>
	<circle cx="186.504" cy="469.092" r="4" fill="#0" id="circle61"/>
	<circle cx="192.392" cy="26.0772" r="4" fill="#0" id="circle62"/>
	<circle cx="193.864" cy="622.16" r="4" fill="#0" id="circle63"/>
	<circle cx="196.807" cy="645.709" r="4" fill="#0" id="circle64"/>
	<circle cx="199.751" cy="476.451" r="4" fill="#0" id="circle65"/>
	<circle cx="205.638" cy="33.4362" r="4" fill="#0" id="circle66"/>
	<circle cx="207.11" cy="614.801" r="4" fill="#0" id="circle67"/>
	<circle cx="211.525" cy="645.709" r="4" fill="#0" id="circle68"/>
	<circle cx="214.469" cy="482.338" r="4" fill="#0" id="circle69"/>
	<circle cx="214.469" cy="600.083" r="4" fill="#0" id="circle70"/>
	<circle cx="218.884" cy="40.7953" r="4" fill="#0" id="circle71"/>
	<circle cx="224.772" cy="653.068" r="4" fill="#0" id="circle72"/>
	<circle cx="226.243" cy="491.169" r="4" fill="#0" id="circle73"/>
	<circle cx="227.715" cy="592.724" r="4" fill="#0" id="circle74"/>
	<circle cx="233.602" cy="45.2107" r="4" fill="#0" id="circle75"/>
	<circle cx="233.602" cy="608.914" r="4" fill="#0" id="circle76"/>
	<circle cx="236.546" cy="623.632" r="4" fill="#0" id="circle77"/>
	<circle cx="236.546" cy="644.237" r="4" fill="#0" id="circle78"/>
	<circle cx="239.49" cy="582.421" r="4" fill="#0" id="circle79"/>
	<circle cx="240.961" cy="58.457" r="4" fill="#0" id="circle80"/>
	<circle cx="240.961" cy="491.169" r="4" fill="#0" id="circle81"/>
	<circle cx="245.377" cy="598.611" r="4" fill="#0" id="circle82"/>
	<circle cx="248.32" cy="71.7033" r="4" fill="#0" id="circle83"/>
	<circle cx="254.208" cy="575.062" r="4" fill="#0" id="circle84"/>
	<circle cx="255.68" cy="84.9496" r="4" fill="#0" id="circle85"/>
	<circle cx="255.68" cy="494.113" r="4" fill="#0" id="circle86"/>
	<circle cx="260.095" cy="591.252" r="4" fill="#0" id="circle87"/>
	<circle cx="263.039" cy="98.1958" r="4" fill="#0" id="circle88"/>
	<circle cx="268.926" cy="567.703" r="4" fill="#0" id="circle89"/>
	<circle cx="270.398" cy="111.442" r="4" fill="#0" id="circle90"/>
	<circle cx="270.398" cy="498.528" r="4" fill="#0" id="circle91"/>
	<circle cx="274.813" cy="583.893" r="4" fill="#0" id="circle92"/>
	<circle cx="277.757" cy="124.688" r="4" fill="#0" id="circle93"/>
	<circle cx="280.7" cy="555.929" r="4" fill="#0" id="circle94"/>
	<circle cx="285.116" cy="137.935" r="4" fill="#0" id="circle95"/>
	<circle cx="285.116" cy="501.472" r="4" fill="#0" id="circle96"/>
	<circle cx="289.531" cy="576.534" r="4" fill="#0" id="circle97"/>
	<circle cx="292.475" cy="151.181" r="4" fill="#0" id="circle98"/>
	<circle cx="295.418" cy="548.57" r="4" fill="#0" id="circle99"/>
	<circle cx="298.362" cy="508.831" r="4" fill="#0" id="circle100"/>
	<circle cx="304.249" cy="160.012" r="4" fill="#0" id="circle101"/>
	<circle cx="304.249" cy="569.175" r="4" fill="#0" id="circle102"/>
	<circle cx="305.721" cy="522.077" r="4" fill="#0" id="circle103"/>
	<circle cx="310.136" cy="541.211" r="4" fill="#0" id="circle104"/>
	<circle cx="313.08" cy="557.401" r="4" fill="#0" id="circle105"/>
	<circle cx="313.08" cy="626.576" r="4" fill="#0" id="circle106"/>
	<circle cx="314.552" cy="171.786" r="4" fill="#0" id="circle107"/>
	<circle cx="321.911" cy="638.35" r="4" fill="#0" id="circle108"/>
	<circle cx="326.326" cy="182.089" r="4" fill="#0" id="circle109"/>
	<circle cx="327.798" cy="552.985" r="4" fill="#0" id="circle110"/>
	<circle cx="327.798" cy="622.16" r="4" fill="#0" id="circle111"/>
	<circle cx="336.629" cy="638.35" r="4" fill="#0" id="circle112"/>
	<circle cx="339.573" cy="189.448" r="4" fill="#0" id="circle113"/>
	<circle cx="342.516" cy="545.626" r="4" fill="#0" id="circle114"/>
	<circle cx="342.516" cy="622.16" r="4" fill="#0" id="circle115"/>
	<circle cx="351.347" cy="527.964" r="4" fill="#0" id="circle116"/>
	<circle cx="351.347" cy="638.35" r="4" fill="#0" id="circle117"/>
	<circle cx="354.291" cy="195.335" r="4" fill="#0" id="circle118"/>
	<circle cx="357.234" cy="622.16" r="4" fill="#0" id="circle119"/>
	<circle cx="364.593" cy="207.11" r="4" fill="#0" id="circle120"/>
	<circle cx="364.593" cy="520.605" r="4" fill="#0" id="circle121"/>
	<circle cx="366.065" cy="641.294" r="4" fill="#0" id="circle122"/>
	<circle cx="371.953" cy="622.16" r="4" fill="#0" id="circle123"/>
	<circle cx="377.84" cy="513.246" r="4" fill="#0" id="circle124"/>
	<circle cx="379.312" cy="212.997" r="4" fill="#0" id="circle125"/>
	<circle cx="380.783" cy="645.709" r="4" fill="#0" id="circle126"/>
	<circle cx="385.199" cy="614.801" r="4" fill="#0" id="circle127"/>
	<circle cx="386.671" cy="597.139" r="4" fill="#0" id="circle128"/>
	<circle cx="392.558" cy="220.356" r="4" fill="#0" id="circle129"/>
	<circle cx="392.558" cy="510.303" r="4" fill="#0" id="circle130"/>
	<circle cx="394.03" cy="582.421" r="4" fill="#0" id="circle131"/>
	<circle cx="395.501" cy="645.709" r="4" fill="#0" id="circle132"/>
	<circle cx="401.389" cy="567.703" r="4" fill="#0" id="circle133"/>
	<circle cx="402.861" cy="601.555" r="4" fill="#0" id="circle134"/>
	<circle cx="407.276" cy="224.772" r="4" fill="#0" id="circle135"/>
	<circle cx="407.276" cy="505.887" r="4" fill="#0" id="circle136"/>
	<circle cx="408.748" cy="552.985" r="4" fill="#0" id="circle137"/>
	<circle cx="410.22" cy="586.837" r="4" fill="#0" id="circle138"/>
	<circle cx="410.22" cy="614.801" r="4" fill="#0" id="circle139"/>
	<circle cx="410.22" cy="645.709" r="4" fill="#0" id="circle140"/>
	<circle cx="420.522" cy="232.131" r="4" fill="#0" id="circle141"/>
	<circle cx="420.522" cy="541.211" r="4" fill="#0" id="circle142"/>
	<circle cx="421.994" cy="502.944" r="4" fill="#0" id="circle143"/>
	<circle cx="421.994" cy="576.534" r="4" fill="#0" id="circle144"/>
	<circle cx="421.994" cy="623.632" r="4" fill="#0" id="circle145"/>
	<circle cx="423.466" cy="523.549" r="4" fill="#0" id="circle146"/>
	<circle cx="424.938" cy="557.401" r="4" fill="#0" id="circle147"/>
	<circle cx="424.938" cy="645.709" r="4" fill="#0" id="circle148"/>
	<circle cx="433.769" cy="239.49" r="4" fill="#0" id="circle149"/>
	<circle cx="435.24" cy="630.991" r="4" fill="#0" id="circle150"/>
	<circle cx="436.712" cy="547.098" r="4" fill="#0" id="circle151"/>
	<circle cx="439.656" cy="527.964" r="4" fill="#0" id="circle152"/>
	<circle cx="439.656" cy="645.709" r="4" fill="#0" id="circle153"/>
	<circle cx="447.015" cy="246.849" r="4" fill="#0" id="circle154"/>
	<circle cx="451.43" cy="517.662" r="4" fill="#0" id="circle155"/>
	<circle cx="458.789" cy="502.944" r="4" fill="#0" id="circle156"/>
	<circle cx="461.733" cy="246.849" r="4" fill="#0" id="circle157"/>
	<circle cx="469.092" cy="491.169" r="4" fill="#0" id="circle158"/>
	<circle cx="474.979" cy="254.208" r="4" fill="#0" id="circle159"/>
	<circle cx="480.866" cy="480.866" r="4" fill="#0" id="circle160"/>
	<circle cx="488.226" cy="261.567" r="4" fill="#0" id="circle161"/>
	<circle cx="491.169" cy="469.092" r="4" fill="#0" id="circle162"/>
	<circle cx="501.472" cy="268.926" r="4" fill="#0" id="circle163"/>
	<circle cx="502.944" cy="458.789" r="4" fill="#0" id="circle164"/>
	<circle cx="510.303" cy="444.071" r="4" fill="#0" id="circle165"/>
	<circle cx="514.718" cy="276.285" r="4" fill="#0" id="circle166"/>
	<circle cx="520.605" cy="432.297" r="4" fill="#0" id="circle167"/>
	<circle cx="529.436" cy="276.285" r="4" fill="#0" id="circle168"/>
	<circle cx="532.38" cy="421.994" r="4" fill="#0" id="circle169"/>
	<circle cx="542.682" cy="283.644" r="4" fill="#0" id="circle170"/>
	<circle cx="547.098" cy="414.635" r="4" fill="#0" id="circle171"/>
	<circle cx="555.929" cy="291.003" r="4" fill="#0" id="circle172"/>
	<circle cx="561.816" cy="407.276" r="4" fill="#0" id="circle173"/>
	<circle cx="567.703" cy="299.834" r="4" fill="#0" id="circle174"/>
	<circle cx="576.534" cy="399.917" r="4" fill="#0" id="circle175"/>
	<circle cx="582.421" cy="305.721" r="4" fill="#0" id="circle176"/>
	<circle cx="591.252" cy="395.501" r="4" fill="#0" id="circle177"/>
	<circle cx="595.668" cy="313.08" r="4" fill="#0" id="circle178"/>
	<circle cx="604.499" cy="386.671" r="4" fill="#0" id="circle179"/>
	<circle cx="608.914" cy="320.439" r="4" fill="#0" id="circle180"/>
	<circle cx="619.217" cy="380.783" r="4" fill="#0" id="circle181"/>
	<circle cx="622.16" cy="313.08" r="4" fill="#0" id="circle182"/>
	<circle cx="632.463" cy="373.424" r="4" fill="#0" id="circle183"/>
	<circle cx="636.878" cy="313.08" r="4" fill="#0" id="circle184"/>
	<circle cx="647.181" cy="373.424" r="4" fill="#0" id="circle185"/>
	<circle cx="651.596" cy="313.08" r="4" fill="#0" id="circle186"/>
	<circle cx="661.899" cy="373.424" r="4" fill="#0" id="circle187"/>
	<circle cx="666.315" cy="313.08" r="4" fill="#0" id="circle188"/>
	<circle cx="675.145" cy="366.065" r="4" fill="#0" id="circle189"/>
	<circle cx="681.033" cy="310.136" r="4" fill="#0" id="circle190"/>
	<circle cx="689.864" cy="358.706" r="4" fill="#0" id="circle191"/>
	<circle cx="695.751" cy="305.721" r="4" fill="#0" id="circle192"/>
	<circle cx="704.582" cy="358.706" r="4" fill="#0" id="circle193"/>
	<circle cx="710.469" cy="305.721" r="4" fill="#0" id="circle194"/>
	<circle cx="719.3" cy="351.347" r="4" fill="#0" id="circle195"/>
	<circle cx="725.187" cy="305.721" r="4" fill="#0" id="circle196"/>
	<circle cx="734.018" cy="351.347" r="4" fill="#0" id="circle197"/>
	<circle cx="739.905" cy="305.721" r="4" fill="#0" id="circle198"/>
	<circle cx="748.736" cy="343.988" r="4" fill="#0" id="circle199"/>
	<circle cx="754.623" cy="305.721" r="4" fill="#0" id="circle200"/>
	<circle cx="763.454" cy="343.988" r="4" fill="#0" id="circle201"/>
	<circle cx="769.341" cy="305.721" r="4" fill="#0" id="circle202"/>
	<circle cx="778.172" cy="343.988" r="4" fill="#0" id="circle203"/>
	<circle cx="784.059" cy="305.721" r="4" fill="#0" id="circle204"/>
	<circle cx="792.89" cy="343.988" r="4" fill="#0" id="circle205"/>
	<circle cx="798.777" cy="305.721" r="4" fill="#0" id="circle206"/>
	<circle cx="806.136" cy="336.629" r="4" fill="#0" id="circle207"/>
	<circle cx="813.496" cy="302.777" r="4" fill="#0" id="circle208"/>
	<circle cx="820.855" cy="336.629" r="4" fill="#0" id="circle209"/>
	<circle cx="828.214" cy="298.362" r="4" fill="#0" id="circle210"/>
	<circle cx="835.573" cy="336.629" r="4" fill="#0" id="circle211"/>
	<circle cx="842.932" cy="298.362" r="4" fill="#0" id="circle212"/>
	<circle cx="850.291" cy="336.629" r="4" fill="#0" id="circle213"/>
	<circle cx="857.65" cy="298.362" r="4" fill="#0" id="circle214"/>
	<circle cx="865.009" cy="336.629" r="4" fill="#0" id="circle215"/>
	<circle cx="872.368" cy="298.362" r="4" fill="#0" id="circle216"/>
	<circle cx="879.727" cy="336.629" r="4" fill="#0" id="circle217"/>
	<circle cx="887.086" cy="298.362" r="4" fill="#0" id="circle218"/>
	<circle cx="894.445" cy="336.629" r="4" fill="#0" id="circle219"/>
	<circle cx="901.804" cy="298.362" r="4" fill="#0" id="circle220"/>
	<circle cx="909.163" cy="336.629" r="4" fill="#0" id="circle221"/>
	<circle cx="916.522" cy="298.362" r="4" fill="#0" id="circle222"/>
	<circle cx="922.409" cy="329.27" r="4" fill="#0" id="circle223"/>
	<circle cx="931.24" cy="295.418" r="4" fill="#0" id="circle224"/>
	<circle cx="937.128" cy="326.326" r="4" fill="#0" id="circle225"/>
	<circle cx="945.958" cy="291.003" r="4" fill="#0" id="circle226"/>
	<circle cx="951.846" cy="321.911" r="4" fill="#0" id="circle227"/>
	<circle cx="960.677" cy="291.003" r="4" fill="#0" id="circle228"/>
	<circle cx="966.564" cy="318.967" r="4" fill="#0" id="circle229"/>
	<circle cx="975.395" cy="291.003" r="4" fill="#0" id="circle230"/>
	<circle cx="981.282" cy="314.552" r="4" fill="#0" id="circle231"/>
	<circle cx="988.641" cy="298.362" r="4" fill="#0" id="circle232"/>
	<circle cx="996" cy="311.608" r="4" fill="#0" id="circle233"/>
	</g>
</svg>