<?xml version="1.0" encoding="UTF-8" standalone="no"?>
<!-- Created with CurveBenchmark -->
<svg
	xmlns:dc="http://purl.org/dc/elements/1.1/"
	xmlns:cc="http://creativecommons.org/ns#"
	xmlns:rdf="http://www.w3.org/1999/02/22-rdf-syntax-ns#"
	xmlns:svg="http://www.w3.org/2000/svg"
	xmlns="http://www.w3.org/2000/svg"
	xmlns:sodipodi="http://sodipodi.sourceforge.net/DTD/sodipodi-0.dtd"
	xmlns:inkscape="http://www.inkscape.org/namespaces/inkscape"
	width="1000"
	height="1000"
	id="svg2"
	version="1.1"
	sodipodi:docname="manifold/vicur-spoon-20.png.txt">
<defs
	id="defs4" />
<metadata
	id="metadata7">
	<rdf:RDF>
		<cc:Work
			rdf:about="">
			<dc:format>image/svg+xml</dc:format>
			<dc:type
				rdf:resource="http://purl.org/dc/dcmitype/StillImage" />
			<dc:title></dc:title>
		</cc:Work>
	</rdf:RDF>
</metadata>
<g
	inkscape:label="Layer 1"
	inkscape:groupmode="layer"
	id="layer1">
	<path style="fill:none;stroke:red;stroke-width:1px;stroke-linecap:butt;stroke-linejoin:miter;stroke-opacity:1" d="M 4,804.488 4,812.887 z" id="boundary" inkscape:connector-curvature="0" />
	<path style="fill:none;stroke:red;stroke-width:1px;stroke-linecap:butt;stroke-linejoin:miter;stroke-opacity:1" d="M 4,804.488 8.19983,796.088 z" id="boundary" inkscape:connector-curvature="0" />
	<path style="fill:none;stroke:red;stroke-width:1px;stroke-linecap:butt;stroke-linejoin:miter;stroke-opacity:1" d="M 4,812.887 4,821.287 z" id="boundary" inkscape:connector-curvature="0" />
	<path style="fill:none;stroke:red;stroke-width:1px;stroke-linecap:butt;stroke-linejoin:miter;stroke-opacity:1" d="M 4,821.287 4,829.687 z" id="boundary" inkscape:connector-curvature="0" />
	<path style="fill:none;stroke:red;stroke-width:1px;stroke-linecap:butt;stroke-linejoin:miter;stroke-opacity:1" d="M 4,829.687 8.19983,837.246 z" id="boundary" inkscape:connector-curvature="0" />
	<path style="fill:none;stroke:red;stroke-width:1px;stroke-linecap:butt;stroke-linejoin:miter;stroke-opacity:1" d="M 8.19983,796.088 14.9196,789.368 z" id="boundary" inkscape:connector-curvature="0" />
	<path style="fill:none;stroke:red;stroke-width:1px;stroke-linecap:butt;stroke-linejoin:miter;stroke-opacity:1" d="M 8.19983,837.246 12.3997,844.806 z" id="boundary" inkscape:connector-curvature="0" />
	<path style="fill:none;stroke:red;stroke-width:1px;stroke-linecap:butt;stroke-linejoin:miter;stroke-opacity:1" d="M 12.3997,844.806 17.4395,851.526 z" id="boundary" inkscape:connector-curvature="0" />
	<path style="fill:none;stroke:red;stroke-width:1px;stroke-linecap:butt;stroke-linejoin:miter;stroke-opacity:1" d="M 14.9196,789.368 19.1194,780.969 z" id="boundary" inkscape:connector-curvature="0" />
	<path style="fill:none;stroke:red;stroke-width:1px;stroke-linecap:butt;stroke-linejoin:miter;stroke-opacity:1" d="M 17.4395,851.526 24.1592,857.406 z" id="boundary" inkscape:connector-curvature="0" />
	<path style="fill:none;stroke:red;stroke-width:1px;stroke-linecap:butt;stroke-linejoin:miter;stroke-opacity:1" d="M 19.1194,780.969 23.3192,772.569 z" id="boundary" inkscape:connector-curvature="0" />
	<path style="fill:none;stroke:red;stroke-width:1px;stroke-linecap:butt;stroke-linejoin:miter;stroke-opacity:1" d="M 23.3192,772.569 30.039,765.849 z" id="boundary" inkscape:connector-curvature="0" />
	<path style="fill:none;stroke:red;stroke-width:1px;stroke-linecap:butt;stroke-linejoin:miter;stroke-opacity:1" d="M 24.1592,857.406 31.7189,861.605 z" id="boundary" inkscape:connector-curvature="0" />
	<path style="fill:none;stroke:red;stroke-width:1px;stroke-linecap:butt;stroke-linejoin:miter;stroke-opacity:1" d="M 30.039,765.849 34.2388,757.45 z" id="boundary" inkscape:connector-curvature="0" />
	<path style="fill:none;stroke:red;stroke-width:1px;stroke-linecap:butt;stroke-linejoin:miter;stroke-opacity:1" d="M 31.7189,861.605 39.2786,865.805 z" id="boundary" inkscape:connector-curvature="0" />
	<path style="fill:none;stroke:red;stroke-width:1px;stroke-linecap:butt;stroke-linejoin:miter;stroke-opacity:1" d="M 34.2388,757.45 38.4386,749.05 z" id="boundary" inkscape:connector-curvature="0" />
	<path style="fill:none;stroke:red;stroke-width:1px;stroke-linecap:butt;stroke-linejoin:miter;stroke-opacity:1" d="M 39.2786,865.805 47.6782,865.805 z" id="boundary" inkscape:connector-curvature="0" />
	<path style="fill:none;stroke:red;stroke-width:1px;stroke-linecap:butt;stroke-linejoin:miter;stroke-opacity:1" d="M 47.6782,865.805 56.0779,865.805 z" id="boundary" inkscape:connector-curvature="0" />
	<path style="fill:none;stroke:red;stroke-width:1px;stroke-linecap:butt;stroke-linejoin:miter;stroke-opacity:1" d="M 50.1981,733.091 54.398,724.691 z" id="boundary" inkscape:connector-curvature="0" />
	<path style="fill:none;stroke:red;stroke-width:1px;stroke-linecap:butt;stroke-linejoin:miter;stroke-opacity:1" d="M 54.398,724.691 58.5978,716.291 z" id="boundary" inkscape:connector-curvature="0" />
	<path style="fill:none;stroke:red;stroke-width:1px;stroke-linecap:butt;stroke-linejoin:miter;stroke-opacity:1" d="M 56.0779,865.805 63.6376,861.605 z" id="boundary" inkscape:connector-curvature="0" />
	<path style="fill:none;stroke:red;stroke-width:1px;stroke-linecap:butt;stroke-linejoin:miter;stroke-opacity:1" d="M 58.5978,716.291 65.3175,709.572 z" id="boundary" inkscape:connector-curvature="0" />
	<path style="fill:none;stroke:red;stroke-width:1px;stroke-linecap:butt;stroke-linejoin:miter;stroke-opacity:1" d="M 63.6376,861.605 72.0373,861.605 z" id="boundary" inkscape:connector-curvature="0" />
	<path style="fill:none;stroke:red;stroke-width:1px;stroke-linecap:butt;stroke-linejoin:miter;stroke-opacity:1" d="M 65.3175,709.572 71.1973,699.492 z" id="boundary" inkscape:connector-curvature="0" />
	<path style="fill:none;stroke:red;stroke-width:1px;stroke-linecap:butt;stroke-linejoin:miter;stroke-opacity:1" d="M 71.1973,699.492 77.917,692.772 z" id="boundary" inkscape:connector-curvature="0" />
	<path style="fill:none;stroke:red;stroke-width:1px;stroke-linecap:butt;stroke-linejoin:miter;stroke-opacity:1" d="M 72.0373,861.605 80.4369,861.605 z" id="boundary" inkscape:connector-curvature="0" />
	<path style="fill:none;stroke:red;stroke-width:1px;stroke-linecap:butt;stroke-linejoin:miter;stroke-opacity:1" d="M 77.917,692.772 83.7968,678.493 z" id="boundary" inkscape:connector-curvature="0" />
	<path style="fill:none;stroke:red;stroke-width:1px;stroke-linecap:butt;stroke-linejoin:miter;stroke-opacity:1" d="M 80.4369,861.605 87.9966,857.406 z" id="boundary" inkscape:connector-curvature="0" />
	<path style="fill:none;stroke:red;stroke-width:1px;stroke-linecap:butt;stroke-linejoin:miter;stroke-opacity:1" d="M 83.7968,678.493 87.9966,670.093 z" id="boundary" inkscape:connector-curvature="0" />
	<path style="fill:none;stroke:red;stroke-width:1px;stroke-linecap:butt;stroke-linejoin:miter;stroke-opacity:1" d="M 87.9966,670.093 94.7163,663.373 z" id="boundary" inkscape:connector-curvature="0" />
	<path style="fill:none;stroke:red;stroke-width:1px;stroke-linecap:butt;stroke-linejoin:miter;stroke-opacity:1" d="M 87.9966,857.406 96.3963,857.406 z" id="boundary" inkscape:connector-curvature="0" />
	<path style="fill:none;stroke:red;stroke-width:1px;stroke-linecap:butt;stroke-linejoin:miter;stroke-opacity:1" d="M 94.7163,663.373 98.9162,654.974 z" id="boundary" inkscape:connector-curvature="0" />
	<path style="fill:none;stroke:red;stroke-width:1px;stroke-linecap:butt;stroke-linejoin:miter;stroke-opacity:1" d="M 96.3963,857.406 103.956,853.206 z" id="boundary" inkscape:connector-curvature="0" />
	<path style="fill:none;stroke:red;stroke-width:1px;stroke-linecap:butt;stroke-linejoin:miter;stroke-opacity:1" d="M 98.9162,654.974 105.636,648.254 z" id="boundary" inkscape:connector-curvature="0" />
	<path style="fill:none;stroke:red;stroke-width:1px;stroke-linecap:butt;stroke-linejoin:miter;stroke-opacity:1" d="M 103.956,853.206 111.516,849.006 z" id="boundary" inkscape:connector-curvature="0" />
	<path style="fill:none;stroke:red;stroke-width:1px;stroke-linecap:butt;stroke-linejoin:miter;stroke-opacity:1" d="M 105.636,648.254 109.836,639.854 z" id="boundary" inkscape:connector-curvature="0" />
	<path style="fill:none;stroke:red;stroke-width:1px;stroke-linecap:butt;stroke-linejoin:miter;stroke-opacity:1" d="M 109.836,639.854 116.555,633.975 z" id="boundary" inkscape:connector-curvature="0" />
	<path style="fill:none;stroke:red;stroke-width:1px;stroke-linecap:butt;stroke-linejoin:miter;stroke-opacity:1" d="M 111.516,849.006 119.075,844.806 z" id="boundary" inkscape:connector-curvature="0" />
	<path style="fill:none;stroke:red;stroke-width:1px;stroke-linecap:butt;stroke-linejoin:miter;stroke-opacity:1" d="M 116.555,633.975 122.435,627.255 z" id="boundary" inkscape:connector-curvature="0" />
	<path style="fill:none;stroke:red;stroke-width:1px;stroke-linecap:butt;stroke-linejoin:miter;stroke-opacity:1" d="M 119.075,844.806 126.635,840.606 z" id="boundary" inkscape:connector-curvature="0" />
	<path style="fill:none;stroke:red;stroke-width:1px;stroke-linecap:butt;stroke-linejoin:miter;stroke-opacity:1" d="M 122.435,627.255 129.155,621.375 z" id="boundary" inkscape:connector-curvature="0" />
	<path style="fill:none;stroke:red;stroke-width:1px;stroke-linecap:butt;stroke-linejoin:miter;stroke-opacity:1" d="M 126.635,840.606 135.035,836.406 z" id="boundary" inkscape:connector-curvature="0" />
	<path style="fill:none;stroke:red;stroke-width:1px;stroke-linecap:butt;stroke-linejoin:miter;stroke-opacity:1" d="M 129.155,621.375 135.035,614.655 z" id="boundary" inkscape:connector-curvature="0" />
	<path style="fill:none;stroke:red;stroke-width:1px;stroke-linecap:butt;stroke-linejoin:miter;stroke-opacity:1" d="M 135.035,614.655 143.434,610.456 z" id="boundary" inkscape:connector-curvature="0" />
	<path style="fill:none;stroke:red;stroke-width:1px;stroke-linecap:butt;stroke-linejoin:miter;stroke-opacity:1" d="M 135.035,836.406 143.434,836.406 z" id="boundary" inkscape:connector-curvature="0" />
	<path style="fill:none;stroke:red;stroke-width:1px;stroke-linecap:butt;stroke-linejoin:miter;stroke-opacity:1" d="M 143.434,610.456 150.154,604.576 z" id="boundary" inkscape:connector-curvature="0" />
	<path style="fill:none;stroke:red;stroke-width:1px;stroke-linecap:butt;stroke-linejoin:miter;stroke-opacity:1" d="M 143.434,836.406 151.834,832.207 z" id="boundary" inkscape:connector-curvature="0" />
	<path style="fill:none;stroke:red;stroke-width:1px;stroke-linecap:butt;stroke-linejoin:miter;stroke-opacity:1" d="M 150.154,604.576 157.714,600.376 z" id="boundary" inkscape:connector-curvature="0" />
	<path style="fill:none;stroke:red;stroke-width:1px;stroke-linecap:butt;stroke-linejoin:miter;stroke-opacity:1" d="M 151.834,832.207 160.234,828.007 z" id="boundary" inkscape:connector-curvature="0" />
	<path style="fill:none;stroke:red;stroke-width:1px;stroke-linecap:butt;stroke-linejoin:miter;stroke-opacity:1" d="M 157.714,600.376 164.434,593.656 z" id="boundary" inkscape:connector-curvature="0" />
	<path style="fill:none;stroke:red;stroke-width:1px;stroke-linecap:butt;stroke-linejoin:miter;stroke-opacity:1" d="M 160.234,828.007 166.953,822.127 z" id="boundary" inkscape:connector-curvature="0" />
	<path style="fill:none;stroke:red;stroke-width:1px;stroke-linecap:butt;stroke-linejoin:miter;stroke-opacity:1" d="M 164.434,593.656 171.153,587.776 z" id="boundary" inkscape:connector-curvature="0" />
	<path style="fill:none;stroke:red;stroke-width:1px;stroke-linecap:butt;stroke-linejoin:miter;stroke-opacity:1" d="M 166.953,822.127 175.353,817.927 z" id="boundary" inkscape:connector-curvature="0" />
	<path style="fill:none;stroke:red;stroke-width:1px;stroke-linecap:butt;stroke-linejoin:miter;stroke-opacity:1" d="M 171.153,587.776 177.033,581.057 z" id="boundary" inkscape:connector-curvature="0" />
	<path style="fill:none;stroke:red;stroke-width:1px;stroke-linecap:butt;stroke-linejoin:miter;stroke-opacity:1" d="M 175.353,817.927 183.753,813.727 z" id="boundary" inkscape:connector-curvature="0" />
	<path style="fill:none;stroke:red;stroke-width:1px;stroke-linecap:butt;stroke-linejoin:miter;stroke-opacity:1" d="M 177.033,581.057 183.753,575.177 z" id="boundary" inkscape:connector-curvature="0" />
	<path style="fill:none;stroke:red;stroke-width:1px;stroke-linecap:butt;stroke-linejoin:miter;stroke-opacity:1" d="M 183.753,575.177 189.633,568.457 z" id="boundary" inkscape:connector-curvature="0" />
	<path style="fill:none;stroke:red;stroke-width:1px;stroke-linecap:butt;stroke-linejoin:miter;stroke-opacity:1" d="M 183.753,813.727 192.152,809.528 z" id="boundary" inkscape:connector-curvature="0" />
	<path style="fill:none;stroke:red;stroke-width:1px;stroke-linecap:butt;stroke-linejoin:miter;stroke-opacity:1" d="M 189.633,568.457 196.352,562.577 z" id="boundary" inkscape:connector-curvature="0" />
	<path style="fill:none;stroke:red;stroke-width:1px;stroke-linecap:butt;stroke-linejoin:miter;stroke-opacity:1" d="M 192.152,809.528 198.032,802.808 z" id="boundary" inkscape:connector-curvature="0" />
	<path style="fill:none;stroke:red;stroke-width:1px;stroke-linecap:butt;stroke-linejoin:miter;stroke-opacity:1" d="M 196.352,562.577 203.912,558.378 z" id="boundary" inkscape:connector-curvature="0" />
	<path style="fill:none;stroke:red;stroke-width:1px;stroke-linecap:butt;stroke-linejoin:miter;stroke-opacity:1" d="M 198.032,802.808 204.752,796.928 z" id="boundary" inkscape:connector-curvature="0" />
	<path style="fill:none;stroke:red;stroke-width:1px;stroke-linecap:butt;stroke-linejoin:miter;stroke-opacity:1" d="M 203.912,558.378 210.632,551.658 z" id="boundary" inkscape:connector-curvature="0" />
	<path style="fill:none;stroke:red;stroke-width:1px;stroke-linecap:butt;stroke-linejoin:miter;stroke-opacity:1" d="M 204.752,796.928 213.152,792.728 z" id="boundary" inkscape:connector-curvature="0" />
	<path style="fill:none;stroke:red;stroke-width:1px;stroke-linecap:butt;stroke-linejoin:miter;stroke-opacity:1" d="M 210.632,551.658 217.351,545.778 z" id="boundary" inkscape:connector-curvature="0" />
	<path style="fill:none;stroke:red;stroke-width:1px;stroke-linecap:butt;stroke-linejoin:miter;stroke-opacity:1" d="M 213.152,792.728 221.551,788.528 z" id="boundary" inkscape:connector-curvature="0" />
	<path style="fill:none;stroke:red;stroke-width:1px;stroke-linecap:butt;stroke-linejoin:miter;stroke-opacity:1" d="M 217.351,545.778 224.911,541.578 z" id="boundary" inkscape:connector-curvature="0" />
	<path style="fill:none;stroke:red;stroke-width:1px;stroke-linecap:butt;stroke-linejoin:miter;stroke-opacity:1" d="M 221.551,788.528 227.431,781.809 z" id="boundary" inkscape:connector-curvature="0" />
	<path style="fill:none;stroke:red;stroke-width:1px;stroke-linecap:butt;stroke-linejoin:miter;stroke-opacity:1" d="M 224.911,541.578 231.631,534.859 z" id="boundary" inkscape:connector-curvature="0" />
	<path style="fill:none;stroke:red;stroke-width:1px;stroke-linecap:butt;stroke-linejoin:miter;stroke-opacity:1" d="M 227.431,781.809 234.991,777.609 z" id="boundary" inkscape:connector-curvature="0" />
	<path style="fill:none;stroke:red;stroke-width:1px;stroke-linecap:butt;stroke-linejoin:miter;stroke-opacity:1" d="M 231.631,534.859 235.831,526.459 z" id="boundary" inkscape:connector-curvature="0" />
	<path style="fill:none;stroke:red;stroke-width:1px;stroke-linecap:butt;stroke-linejoin:miter;stroke-opacity:1" d="M 234.991,777.609 242.55,773.409 z" id="boundary" inkscape:connector-curvature="0" />
	<path style="fill:none;stroke:red;stroke-width:1px;stroke-linecap:butt;stroke-linejoin:miter;stroke-opacity:1" d="M 235.831,526.459 242.55,520.579 z" id="boundary" inkscape:connector-curvature="0" />
	<path style="fill:none;stroke:red;stroke-width:1px;stroke-linecap:butt;stroke-linejoin:miter;stroke-opacity:1" d="M 242.55,520.579 248.43,513.859 z" id="boundary" inkscape:connector-curvature="0" />
	<path style="fill:none;stroke:red;stroke-width:1px;stroke-linecap:butt;stroke-linejoin:miter;stroke-opacity:1" d="M 242.55,773.409 250.11,769.209 z" id="boundary" inkscape:connector-curvature="0" />
	<path style="fill:none;stroke:red;stroke-width:1px;stroke-linecap:butt;stroke-linejoin:miter;stroke-opacity:1" d="M 248.43,513.859 255.15,507.98 z" id="boundary" inkscape:connector-curvature="0" />
	<path style="fill:none;stroke:red;stroke-width:1px;stroke-linecap:butt;stroke-linejoin:miter;stroke-opacity:1" d="M 250.11,769.209 257.67,765.009 z" id="boundary" inkscape:connector-curvature="0" />
	<path style="fill:none;stroke:red;stroke-width:1px;stroke-linecap:butt;stroke-linejoin:miter;stroke-opacity:1" d="M 257.67,765.009 264.39,758.29 z" id="boundary" inkscape:connector-curvature="0" />
	<path style="fill:none;stroke:red;stroke-width:1px;stroke-linecap:butt;stroke-linejoin:miter;stroke-opacity:1" d="M 264.39,758.29 272.789,754.09 z" id="boundary" inkscape:connector-curvature="0" />
	<path style="fill:none;stroke:red;stroke-width:1px;stroke-linecap:butt;stroke-linejoin:miter;stroke-opacity:1" d="M 269.429,497.06 276.149,491.18 z" id="boundary" inkscape:connector-curvature="0" />
	<path style="fill:none;stroke:red;stroke-width:1px;stroke-linecap:butt;stroke-linejoin:miter;stroke-opacity:1" d="M 272.789,754.09 279.509,748.21 z" id="boundary" inkscape:connector-curvature="0" />
	<path style="fill:none;stroke:red;stroke-width:1px;stroke-linecap:butt;stroke-linejoin:miter;stroke-opacity:1" d="M 276.149,491.18 282.029,484.461 z" id="boundary" inkscape:connector-curvature="0" />
	<path style="fill:none;stroke:red;stroke-width:1px;stroke-linecap:butt;stroke-linejoin:miter;stroke-opacity:1" d="M 279.509,748.21 287.069,744.01 z" id="boundary" inkscape:connector-curvature="0" />
	<path style="fill:none;stroke:red;stroke-width:1px;stroke-linecap:butt;stroke-linejoin:miter;stroke-opacity:1" d="M 282.029,484.461 288.749,478.581 z" id="boundary" inkscape:connector-curvature="0" />
	<path style="fill:none;stroke:red;stroke-width:1px;stroke-linecap:butt;stroke-linejoin:miter;stroke-opacity:1" d="M 287.069,744.01 294.628,739.81 z" id="boundary" inkscape:connector-curvature="0" />
	<path style="fill:none;stroke:red;stroke-width:1px;stroke-linecap:butt;stroke-linejoin:miter;stroke-opacity:1" d="M 288.749,478.581 292.108,470.181 z" id="boundary" inkscape:connector-curvature="0" />
	<path style="fill:none;stroke:red;stroke-width:1px;stroke-linecap:butt;stroke-linejoin:miter;stroke-opacity:1" d="M 292.108,470.181 298.828,463.461 z" id="boundary" inkscape:connector-curvature="0" />
	<path style="fill:none;stroke:red;stroke-width:1px;stroke-linecap:butt;stroke-linejoin:miter;stroke-opacity:1" d="M 294.628,739.81 301.348,733.931 z" id="boundary" inkscape:connector-curvature="0" />
	<path style="fill:none;stroke:red;stroke-width:1px;stroke-linecap:butt;stroke-linejoin:miter;stroke-opacity:1" d="M 298.828,463.461 305.548,457.582 z" id="boundary" inkscape:connector-curvature="0" />
	<path style="fill:none;stroke:red;stroke-width:1px;stroke-linecap:butt;stroke-linejoin:miter;stroke-opacity:1" d="M 301.348,733.931 307.228,727.211 z" id="boundary" inkscape:connector-curvature="0" />
	<path style="fill:none;stroke:red;stroke-width:1px;stroke-linecap:butt;stroke-linejoin:miter;stroke-opacity:1" d="M 305.548,457.582 313.108,453.382 z" id="boundary" inkscape:connector-curvature="0" />
	<path style="fill:none;stroke:red;stroke-width:1px;stroke-linecap:butt;stroke-linejoin:miter;stroke-opacity:1" d="M 307.228,727.211 311.428,718.811 z" id="boundary" inkscape:connector-curvature="0" />
	<path style="fill:none;stroke:red;stroke-width:1px;stroke-linecap:butt;stroke-linejoin:miter;stroke-opacity:1" d="M 311.428,718.811 318.147,712.931 z" id="boundary" inkscape:connector-curvature="0" />
	<path style="fill:none;stroke:red;stroke-width:1px;stroke-linecap:butt;stroke-linejoin:miter;stroke-opacity:1" d="M 313.108,453.382 319.827,446.662 z" id="boundary" inkscape:connector-curvature="0" />
	<path style="fill:none;stroke:red;stroke-width:1px;stroke-linecap:butt;stroke-linejoin:miter;stroke-opacity:1" d="M 318.147,712.931 324.027,702.012 z" id="boundary" inkscape:connector-curvature="0" />
	<path style="fill:none;stroke:red;stroke-width:1px;stroke-linecap:butt;stroke-linejoin:miter;stroke-opacity:1" d="M 319.827,446.662 326.547,440.782 z" id="boundary" inkscape:connector-curvature="0" />
	<path style="fill:none;stroke:red;stroke-width:1px;stroke-linecap:butt;stroke-linejoin:miter;stroke-opacity:1" d="M 324.027,702.012 332.427,697.812 z" id="boundary" inkscape:connector-curvature="0" />
	<path style="fill:none;stroke:red;stroke-width:1px;stroke-linecap:butt;stroke-linejoin:miter;stroke-opacity:1" d="M 326.547,440.782 332.427,434.063 z" id="boundary" inkscape:connector-curvature="0" />
	<path style="fill:none;stroke:red;stroke-width:1px;stroke-linecap:butt;stroke-linejoin:miter;stroke-opacity:1" d="M 332.427,434.063 340.826,429.863 z" id="boundary" inkscape:connector-curvature="0" />
	<path style="fill:none;stroke:red;stroke-width:1px;stroke-linecap:butt;stroke-linejoin:miter;stroke-opacity:1" d="M 332.427,697.812 345.026,685.213 z" id="boundary" inkscape:connector-curvature="0" />
	<path style="fill:none;stroke:red;stroke-width:1px;stroke-linecap:butt;stroke-linejoin:miter;stroke-opacity:1" d="M 340.826,429.863 347.546,423.983 z" id="boundary" inkscape:connector-curvature="0" />
	<path style="fill:none;stroke:red;stroke-width:1px;stroke-linecap:butt;stroke-linejoin:miter;stroke-opacity:1" d="M 345.026,685.213 351.746,679.333 z" id="boundary" inkscape:connector-curvature="0" />
	<path style="fill:none;stroke:red;stroke-width:1px;stroke-linecap:butt;stroke-linejoin:miter;stroke-opacity:1" d="M 347.546,423.983 353.426,417.263 z" id="boundary" inkscape:connector-curvature="0" />
	<path style="fill:none;stroke:red;stroke-width:1px;stroke-linecap:butt;stroke-linejoin:miter;stroke-opacity:1" d="M 351.746,679.333 357.626,668.413 z" id="boundary" inkscape:connector-curvature="0" />
	<path style="fill:none;stroke:red;stroke-width:1px;stroke-linecap:butt;stroke-linejoin:miter;stroke-opacity:1" d="M 353.426,417.263 360.146,411.384 z" id="boundary" inkscape:connector-curvature="0" />
	<path style="fill:none;stroke:red;stroke-width:1px;stroke-linecap:butt;stroke-linejoin:miter;stroke-opacity:1" d="M 357.626,668.413 364.345,662.533 z" id="boundary" inkscape:connector-curvature="0" />
	<path style="fill:none;stroke:red;stroke-width:1px;stroke-linecap:butt;stroke-linejoin:miter;stroke-opacity:1" d="M 360.146,411.384 363.506,402.984 z" id="boundary" inkscape:connector-curvature="0" />
	<path style="fill:none;stroke:red;stroke-width:1px;stroke-linecap:butt;stroke-linejoin:miter;stroke-opacity:1" d="M 363.506,402.984 370.225,396.264 z" id="boundary" inkscape:connector-curvature="0" />
	<path style="fill:none;stroke:red;stroke-width:1px;stroke-linecap:butt;stroke-linejoin:miter;stroke-opacity:1" d="M 364.345,662.533 370.225,651.614 z" id="boundary" inkscape:connector-curvature="0" />
	<path style="fill:none;stroke:red;stroke-width:1px;stroke-linecap:butt;stroke-linejoin:miter;stroke-opacity:1" d="M 370.225,396.264 376.945,390.384 z" id="boundary" inkscape:connector-curvature="0" />
	<path style="fill:none;stroke:red;stroke-width:1px;stroke-linecap:butt;stroke-linejoin:miter;stroke-opacity:1" d="M 370.225,651.614 374.425,643.214 z" id="boundary" inkscape:connector-curvature="0" />
	<path style="fill:none;stroke:red;stroke-width:1px;stroke-linecap:butt;stroke-linejoin:miter;stroke-opacity:1" d="M 374.425,643.214 378.625,634.815 z" id="boundary" inkscape:connector-curvature="0" />
	<path style="fill:none;stroke:red;stroke-width:1px;stroke-linecap:butt;stroke-linejoin:miter;stroke-opacity:1" d="M 376.945,390.384 384.505,386.185 z" id="boundary" inkscape:connector-curvature="0" />
	<path style="fill:none;stroke:red;stroke-width:1px;stroke-linecap:butt;stroke-linejoin:miter;stroke-opacity:1" d="M 378.625,634.815 382.825,622.215 z" id="boundary" inkscape:connector-curvature="0" />
	<path style="fill:none;stroke:red;stroke-width:1px;stroke-linecap:butt;stroke-linejoin:miter;stroke-opacity:1" d="M 382.825,613.815 382.825,622.215 z" id="boundary" inkscape:connector-curvature="0" />
	<path style="fill:none;stroke:red;stroke-width:1px;stroke-linecap:butt;stroke-linejoin:miter;stroke-opacity:1" d="M 382.825,613.815 387.025,605.416 z" id="boundary" inkscape:connector-curvature="0" />
	<path style="fill:none;stroke:red;stroke-width:1px;stroke-linecap:butt;stroke-linejoin:miter;stroke-opacity:1" d="M 384.505,386.185 392.904,386.185 z" id="boundary" inkscape:connector-curvature="0" />
	<path style="fill:none;stroke:red;stroke-width:1px;stroke-linecap:butt;stroke-linejoin:miter;stroke-opacity:1" d="M 387.025,597.016 387.025,605.416 z" id="boundary" inkscape:connector-curvature="0" />
	<path style="fill:none;stroke:red;stroke-width:1px;stroke-linecap:butt;stroke-linejoin:miter;stroke-opacity:1" d="M 387.025,597.016 391.224,584.417 z" id="boundary" inkscape:connector-curvature="0" />
	<path style="fill:none;stroke:red;stroke-width:1px;stroke-linecap:butt;stroke-linejoin:miter;stroke-opacity:1" d="M 391.224,576.017 391.224,584.417 z" id="boundary" inkscape:connector-curvature="0" />
	<path style="fill:none;stroke:red;stroke-width:1px;stroke-linecap:butt;stroke-linejoin:miter;stroke-opacity:1" d="M 391.224,576.017 395.424,563.417 z" id="boundary" inkscape:connector-curvature="0" />
	<path style="fill:none;stroke:red;stroke-width:1px;stroke-linecap:butt;stroke-linejoin:miter;stroke-opacity:1" d="M 392.904,386.185 397.104,377.785 z" id="boundary" inkscape:connector-curvature="0" />
	<path style="fill:none;stroke:red;stroke-width:1px;stroke-linecap:butt;stroke-linejoin:miter;stroke-opacity:1" d="M 395.424,555.018 395.424,563.417 z" id="boundary" inkscape:connector-curvature="0" />
	<path style="fill:none;stroke:red;stroke-width:1px;stroke-linecap:butt;stroke-linejoin:miter;stroke-opacity:1" d="M 395.424,555.018 399.624,542.418 z" id="boundary" inkscape:connector-curvature="0" />
	<path style="fill:none;stroke:red;stroke-width:1px;stroke-linecap:butt;stroke-linejoin:miter;stroke-opacity:1" d="M 397.104,377.785 401.304,369.385 z" id="boundary" inkscape:connector-curvature="0" />
	<path style="fill:none;stroke:red;stroke-width:1px;stroke-linecap:butt;stroke-linejoin:miter;stroke-opacity:1" d="M 399.624,517.219 399.624,525.619 z" id="boundary" inkscape:connector-curvature="0" />
	<path style="fill:none;stroke:red;stroke-width:1px;stroke-linecap:butt;stroke-linejoin:miter;stroke-opacity:1" d="M 399.624,517.219 403.824,508.82 z" id="boundary" inkscape:connector-curvature="0" />
	<path style="fill:none;stroke:red;stroke-width:1px;stroke-linecap:butt;stroke-linejoin:miter;stroke-opacity:1" d="M 399.624,525.619 399.624,534.019 z" id="boundary" inkscape:connector-curvature="0" />
	<path style="fill:none;stroke:red;stroke-width:1px;stroke-linecap:butt;stroke-linejoin:miter;stroke-opacity:1" d="M 399.624,534.019 399.624,542.418 z" id="boundary" inkscape:connector-curvature="0" />
	<path style="fill:none;stroke:red;stroke-width:1px;stroke-linecap:butt;stroke-linejoin:miter;stroke-opacity:1" d="M 401.304,369.385 408.024,362.666 z" id="boundary" inkscape:connector-curvature="0" />
	<path style="fill:none;stroke:red;stroke-width:1px;stroke-linecap:butt;stroke-linejoin:miter;stroke-opacity:1" d="M 403.824,500.42 403.824,508.82 z" id="boundary" inkscape:connector-curvature="0" />
	<path style="fill:none;stroke:red;stroke-width:1px;stroke-linecap:butt;stroke-linejoin:miter;stroke-opacity:1" d="M 403.824,500.42 408.024,492.02 z" id="boundary" inkscape:connector-curvature="0" />
	<path style="fill:none;stroke:red;stroke-width:1px;stroke-linecap:butt;stroke-linejoin:miter;stroke-opacity:1" d="M 408.024,362.666 414.743,356.786 z" id="boundary" inkscape:connector-curvature="0" />
	<path style="fill:none;stroke:red;stroke-width:1px;stroke-linecap:butt;stroke-linejoin:miter;stroke-opacity:1" d="M 408.024,475.221 408.024,483.621 z" id="boundary" inkscape:connector-curvature="0" />
	<path style="fill:none;stroke:red;stroke-width:1px;stroke-linecap:butt;stroke-linejoin:miter;stroke-opacity:1" d="M 408.024,475.221 416.423,471.021 z" id="boundary" inkscape:connector-curvature="0" />
	<path style="fill:none;stroke:red;stroke-width:1px;stroke-linecap:butt;stroke-linejoin:miter;stroke-opacity:1" d="M 408.024,483.621 408.024,492.02 z" id="boundary" inkscape:connector-curvature="0" />
	<path style="fill:none;stroke:red;stroke-width:1px;stroke-linecap:butt;stroke-linejoin:miter;stroke-opacity:1" d="M 414.743,356.786 420.623,350.066 z" id="boundary" inkscape:connector-curvature="0" />
	<path style="fill:none;stroke:red;stroke-width:1px;stroke-linecap:butt;stroke-linejoin:miter;stroke-opacity:1" d="M 416.423,471.021 423.143,465.141 z" id="boundary" inkscape:connector-curvature="0" />
	<path style="fill:none;stroke:red;stroke-width:1px;stroke-linecap:butt;stroke-linejoin:miter;stroke-opacity:1" d="M 420.623,350.066 434.903,339.986 z" id="boundary" inkscape:connector-curvature="0" />
	<path style="fill:none;stroke:red;stroke-width:1px;stroke-linecap:butt;stroke-linejoin:miter;stroke-opacity:1" d="M 423.143,465.141 429.023,458.422 z" id="boundary" inkscape:connector-curvature="0" />
	<path style="fill:none;stroke:red;stroke-width:1px;stroke-linecap:butt;stroke-linejoin:miter;stroke-opacity:1" d="M 429.023,458.422 437.423,454.222 z" id="boundary" inkscape:connector-curvature="0" />
	<path style="fill:none;stroke:red;stroke-width:1px;stroke-linecap:butt;stroke-linejoin:miter;stroke-opacity:1" d="M 434.903,339.986 440.782,329.907 z" id="boundary" inkscape:connector-curvature="0" />
	<path style="fill:none;stroke:red;stroke-width:1px;stroke-linecap:butt;stroke-linejoin:miter;stroke-opacity:1" d="M 437.423,454.222 444.142,448.342 z" id="boundary" inkscape:connector-curvature="0" />
	<path style="fill:none;stroke:red;stroke-width:1px;stroke-linecap:butt;stroke-linejoin:miter;stroke-opacity:1" d="M 440.782,329.907 447.502,323.187 z" id="boundary" inkscape:connector-curvature="0" />
	<path style="fill:none;stroke:red;stroke-width:1px;stroke-linecap:butt;stroke-linejoin:miter;stroke-opacity:1" d="M 444.142,448.342 450.022,441.622 z" id="boundary" inkscape:connector-curvature="0" />
	<path style="fill:none;stroke:red;stroke-width:1px;stroke-linecap:butt;stroke-linejoin:miter;stroke-opacity:1" d="M 447.502,323.187 454.222,316.467 z" id="boundary" inkscape:connector-curvature="0" />
	<path style="fill:none;stroke:red;stroke-width:1px;stroke-linecap:butt;stroke-linejoin:miter;stroke-opacity:1" d="M 454.222,316.467 460.942,310.588 z" id="boundary" inkscape:connector-curvature="0" />
	<path style="fill:none;stroke:red;stroke-width:1px;stroke-linecap:butt;stroke-linejoin:miter;stroke-opacity:1" d="M 460.942,310.588 466.821,303.868 z" id="boundary" inkscape:connector-curvature="0" />
	<path style="fill:none;stroke:red;stroke-width:1px;stroke-linecap:butt;stroke-linejoin:miter;stroke-opacity:1" d="M 462.622,424.823 466.821,416.423 z" id="boundary" inkscape:connector-curvature="0" />
	<path style="fill:none;stroke:red;stroke-width:1px;stroke-linecap:butt;stroke-linejoin:miter;stroke-opacity:1" d="M 466.821,303.868 473.541,297.988 z" id="boundary" inkscape:connector-curvature="0" />
	<path style="fill:none;stroke:red;stroke-width:1px;stroke-linecap:butt;stroke-linejoin:miter;stroke-opacity:1" d="M 466.821,416.423 473.541,410.544 z" id="boundary" inkscape:connector-curvature="0" />
	<path style="fill:none;stroke:red;stroke-width:1px;stroke-linecap:butt;stroke-linejoin:miter;stroke-opacity:1" d="M 473.541,297.988 479.421,291.268 z" id="boundary" inkscape:connector-curvature="0" />
	<path style="fill:none;stroke:red;stroke-width:1px;stroke-linecap:butt;stroke-linejoin:miter;stroke-opacity:1" d="M 473.541,410.544 479.421,403.824 z" id="boundary" inkscape:connector-curvature="0" />
	<path style="fill:none;stroke:red;stroke-width:1px;stroke-linecap:butt;stroke-linejoin:miter;stroke-opacity:1" d="M 479.421,291.268 486.141,285.389 z" id="boundary" inkscape:connector-curvature="0" />
	<path style="fill:none;stroke:red;stroke-width:1px;stroke-linecap:butt;stroke-linejoin:miter;stroke-opacity:1" d="M 479.421,403.824 487.82,399.624 z" id="boundary" inkscape:connector-curvature="0" />
	<path style="fill:none;stroke:red;stroke-width:1px;stroke-linecap:butt;stroke-linejoin:miter;stroke-opacity:1" d="M 486.141,285.389 498.74,272.789 z" id="boundary" inkscape:connector-curvature="0" />
	<path style="fill:none;stroke:red;stroke-width:1px;stroke-linecap:butt;stroke-linejoin:miter;stroke-opacity:1" d="M 487.82,399.624 494.54,393.744 z" id="boundary" inkscape:connector-curvature="0" />
	<path style="fill:none;stroke:red;stroke-width:1px;stroke-linecap:butt;stroke-linejoin:miter;stroke-opacity:1" d="M 494.54,393.744 500.42,382.825 z" id="boundary" inkscape:connector-curvature="0" />
	<path style="fill:none;stroke:red;stroke-width:1px;stroke-linecap:butt;stroke-linejoin:miter;stroke-opacity:1" d="M 498.74,272.789 504.62,266.069 z" id="boundary" inkscape:connector-curvature="0" />
	<path style="fill:none;stroke:red;stroke-width:1px;stroke-linecap:butt;stroke-linejoin:miter;stroke-opacity:1" d="M 500.42,382.825 507.14,376.945 z" id="boundary" inkscape:connector-curvature="0" />
	<path style="fill:none;stroke:red;stroke-width:1px;stroke-linecap:butt;stroke-linejoin:miter;stroke-opacity:1" d="M 504.62,266.069 511.34,260.19 z" id="boundary" inkscape:connector-curvature="0" />
	<path style="fill:none;stroke:red;stroke-width:1px;stroke-linecap:butt;stroke-linejoin:miter;stroke-opacity:1" d="M 507.14,376.945 513.019,370.225 z" id="boundary" inkscape:connector-curvature="0" />
	<path style="fill:none;stroke:red;stroke-width:1px;stroke-linecap:butt;stroke-linejoin:miter;stroke-opacity:1" d="M 511.34,260.19 517.219,253.47 z" id="boundary" inkscape:connector-curvature="0" />
	<path style="fill:none;stroke:red;stroke-width:1px;stroke-linecap:butt;stroke-linejoin:miter;stroke-opacity:1" d="M 513.019,370.225 519.739,364.345 z" id="boundary" inkscape:connector-curvature="0" />
	<path style="fill:none;stroke:red;stroke-width:1px;stroke-linecap:butt;stroke-linejoin:miter;stroke-opacity:1" d="M 517.219,253.47 521.419,245.07 z" id="boundary" inkscape:connector-curvature="0" />
	<path style="fill:none;stroke:red;stroke-width:1px;stroke-linecap:butt;stroke-linejoin:miter;stroke-opacity:1" d="M 519.739,364.345 525.619,357.626 z" id="boundary" inkscape:connector-curvature="0" />
	<path style="fill:none;stroke:red;stroke-width:1px;stroke-linecap:butt;stroke-linejoin:miter;stroke-opacity:1" d="M 521.419,245.07 528.139,239.191 z" id="boundary" inkscape:connector-curvature="0" />
	<path style="fill:none;stroke:red;stroke-width:1px;stroke-linecap:butt;stroke-linejoin:miter;stroke-opacity:1" d="M 528.139,239.191 534.019,232.471 z" id="boundary" inkscape:connector-curvature="0" />
	<path style="fill:none;stroke:red;stroke-width:1px;stroke-linecap:butt;stroke-linejoin:miter;stroke-opacity:1" d="M 534.019,232.471 542.418,228.271 z" id="boundary" inkscape:connector-curvature="0" />
	<path style="fill:none;stroke:red;stroke-width:1px;stroke-linecap:butt;stroke-linejoin:miter;stroke-opacity:1" d="M 538.218,345.026 544.938,339.146 z" id="boundary" inkscape:connector-curvature="0" />
	<path style="fill:none;stroke:red;stroke-width:1px;stroke-linecap:butt;stroke-linejoin:miter;stroke-opacity:1" d="M 542.418,228.271 549.138,222.391 z" id="boundary" inkscape:connector-curvature="0" />
	<path style="fill:none;stroke:red;stroke-width:1px;stroke-linecap:butt;stroke-linejoin:miter;stroke-opacity:1" d="M 544.938,339.146 550.818,332.427 z" id="boundary" inkscape:connector-curvature="0" />
	<path style="fill:none;stroke:red;stroke-width:1px;stroke-linecap:butt;stroke-linejoin:miter;stroke-opacity:1" d="M 549.138,222.391 556.698,218.191 z" id="boundary" inkscape:connector-curvature="0" />
	<path style="fill:none;stroke:red;stroke-width:1px;stroke-linecap:butt;stroke-linejoin:miter;stroke-opacity:1" d="M 550.818,332.427 557.538,326.547 z" id="boundary" inkscape:connector-curvature="0" />
	<path style="fill:none;stroke:red;stroke-width:1px;stroke-linecap:butt;stroke-linejoin:miter;stroke-opacity:1" d="M 556.698,218.191 563.417,211.472 z" id="boundary" inkscape:connector-curvature="0" />
	<path style="fill:none;stroke:red;stroke-width:1px;stroke-linecap:butt;stroke-linejoin:miter;stroke-opacity:1" d="M 563.417,211.472 570.137,205.592 z" id="boundary" inkscape:connector-curvature="0" />
	<path style="fill:none;stroke:red;stroke-width:1px;stroke-linecap:butt;stroke-linejoin:miter;stroke-opacity:1" d="M 570.137,205.592 576.017,198.872 z" id="boundary" inkscape:connector-curvature="0" />
	<path style="fill:none;stroke:red;stroke-width:1px;stroke-linecap:butt;stroke-linejoin:miter;stroke-opacity:1" d="M 570.137,313.948 576.017,307.228 z" id="boundary" inkscape:connector-curvature="0" />
	<path style="fill:none;stroke:red;stroke-width:1px;stroke-linecap:butt;stroke-linejoin:miter;stroke-opacity:1" d="M 576.017,198.872 582.737,192.992 z" id="boundary" inkscape:connector-curvature="0" />
	<path style="fill:none;stroke:red;stroke-width:1px;stroke-linecap:butt;stroke-linejoin:miter;stroke-opacity:1" d="M 576.017,307.228 580.217,298.828 z" id="boundary" inkscape:connector-curvature="0" />
	<path style="fill:none;stroke:red;stroke-width:1px;stroke-linecap:butt;stroke-linejoin:miter;stroke-opacity:1" d="M 580.217,298.828 586.936,292.948 z" id="boundary" inkscape:connector-curvature="0" />
	<path style="fill:none;stroke:red;stroke-width:1px;stroke-linecap:butt;stroke-linejoin:miter;stroke-opacity:1" d="M 582.737,192.992 590.296,188.793 z" id="boundary" inkscape:connector-curvature="0" />
	<path style="fill:none;stroke:red;stroke-width:1px;stroke-linecap:butt;stroke-linejoin:miter;stroke-opacity:1" d="M 586.936,292.948 595.336,288.749 z" id="boundary" inkscape:connector-curvature="0" />
	<path style="fill:none;stroke:red;stroke-width:1px;stroke-linecap:butt;stroke-linejoin:miter;stroke-opacity:1" d="M 590.296,188.793 598.696,184.593 z" id="boundary" inkscape:connector-curvature="0" />
	<path style="fill:none;stroke:red;stroke-width:1px;stroke-linecap:butt;stroke-linejoin:miter;stroke-opacity:1" d="M 595.336,288.749 601.216,282.029 z" id="boundary" inkscape:connector-curvature="0" />
	<path style="fill:none;stroke:red;stroke-width:1px;stroke-linecap:butt;stroke-linejoin:miter;stroke-opacity:1" d="M 598.696,184.593 607.096,180.393 z" id="boundary" inkscape:connector-curvature="0" />
	<path style="fill:none;stroke:red;stroke-width:1px;stroke-linecap:butt;stroke-linejoin:miter;stroke-opacity:1" d="M 601.216,282.029 608.776,277.829 z" id="boundary" inkscape:connector-curvature="0" />
	<path style="fill:none;stroke:red;stroke-width:1px;stroke-linecap:butt;stroke-linejoin:miter;stroke-opacity:1" d="M 607.096,180.393 613.815,173.673 z" id="boundary" inkscape:connector-curvature="0" />
	<path style="fill:none;stroke:red;stroke-width:1px;stroke-linecap:butt;stroke-linejoin:miter;stroke-opacity:1" d="M 608.776,277.829 615.495,272.789 z" id="boundary" inkscape:connector-curvature="0" />
	<path style="fill:none;stroke:red;stroke-width:1px;stroke-linecap:butt;stroke-linejoin:miter;stroke-opacity:1" d="M 613.815,173.673 622.215,169.473 z" id="boundary" inkscape:connector-curvature="0" />
	<path style="fill:none;stroke:red;stroke-width:1px;stroke-linecap:butt;stroke-linejoin:miter;stroke-opacity:1" d="M 615.495,272.789 622.215,265.229 z" id="boundary" inkscape:connector-curvature="0" />
	<path style="fill:none;stroke:red;stroke-width:1px;stroke-linecap:butt;stroke-linejoin:miter;stroke-opacity:1" d="M 622.215,169.473 630.615,165.273 z" id="boundary" inkscape:connector-curvature="0" />
	<path style="fill:none;stroke:red;stroke-width:1px;stroke-linecap:butt;stroke-linejoin:miter;stroke-opacity:1" d="M 622.215,265.229 629.775,261.03 z" id="boundary" inkscape:connector-curvature="0" />
	<path style="fill:none;stroke:red;stroke-width:1px;stroke-linecap:butt;stroke-linejoin:miter;stroke-opacity:1" d="M 629.775,261.03 637.334,256.83 z" id="boundary" inkscape:connector-curvature="0" />
	<path style="fill:none;stroke:red;stroke-width:1px;stroke-linecap:butt;stroke-linejoin:miter;stroke-opacity:1" d="M 630.615,165.273 639.014,161.074 z" id="boundary" inkscape:connector-curvature="0" />
	<path style="fill:none;stroke:red;stroke-width:1px;stroke-linecap:butt;stroke-linejoin:miter;stroke-opacity:1" d="M 637.334,256.83 644.894,251.79 z" id="boundary" inkscape:connector-curvature="0" />
	<path style="fill:none;stroke:red;stroke-width:1px;stroke-linecap:butt;stroke-linejoin:miter;stroke-opacity:1" d="M 639.014,161.074 645.734,155.194 z" id="boundary" inkscape:connector-curvature="0" />
	<path style="fill:none;stroke:red;stroke-width:1px;stroke-linecap:butt;stroke-linejoin:miter;stroke-opacity:1" d="M 644.894,251.79 651.614,244.23 z" id="boundary" inkscape:connector-curvature="0" />
	<path style="fill:none;stroke:red;stroke-width:1px;stroke-linecap:butt;stroke-linejoin:miter;stroke-opacity:1" d="M 645.734,155.194 651.614,148.474 z" id="boundary" inkscape:connector-curvature="0" />
	<path style="fill:none;stroke:red;stroke-width:1px;stroke-linecap:butt;stroke-linejoin:miter;stroke-opacity:1" d="M 651.614,148.474 658.334,142.594 z" id="boundary" inkscape:connector-curvature="0" />
	<path style="fill:none;stroke:red;stroke-width:1px;stroke-linecap:butt;stroke-linejoin:miter;stroke-opacity:1" d="M 651.614,244.23 660.014,240.03 z" id="boundary" inkscape:connector-curvature="0" />
	<path style="fill:none;stroke:red;stroke-width:1px;stroke-linecap:butt;stroke-linejoin:miter;stroke-opacity:1" d="M 658.334,142.594 665.893,138.395 z" id="boundary" inkscape:connector-curvature="0" />
	<path style="fill:none;stroke:red;stroke-width:1px;stroke-linecap:butt;stroke-linejoin:miter;stroke-opacity:1" d="M 660.014,240.03 668.413,235.831 z" id="boundary" inkscape:connector-curvature="0" />
	<path style="fill:none;stroke:red;stroke-width:1px;stroke-linecap:butt;stroke-linejoin:miter;stroke-opacity:1" d="M 665.893,138.395 672.613,131.675 z" id="boundary" inkscape:connector-curvature="0" />
	<path style="fill:none;stroke:red;stroke-width:1px;stroke-linecap:butt;stroke-linejoin:miter;stroke-opacity:1" d="M 668.413,235.831 676.813,231.631 z" id="boundary" inkscape:connector-curvature="0" />
	<path style="fill:none;stroke:red;stroke-width:1px;stroke-linecap:butt;stroke-linejoin:miter;stroke-opacity:1" d="M 672.613,131.675 686.892,121.595 z" id="boundary" inkscape:connector-curvature="0" />
	<path style="fill:none;stroke:red;stroke-width:1px;stroke-linecap:butt;stroke-linejoin:miter;stroke-opacity:1" d="M 676.813,231.631 683.533,225.751 z" id="boundary" inkscape:connector-curvature="0" />
	<path style="fill:none;stroke:red;stroke-width:1px;stroke-linecap:butt;stroke-linejoin:miter;stroke-opacity:1" d="M 683.533,225.751 691.932,221.551 z" id="boundary" inkscape:connector-curvature="0" />
	<path style="fill:none;stroke:red;stroke-width:1px;stroke-linecap:butt;stroke-linejoin:miter;stroke-opacity:1" d="M 686.892,121.595 693.612,114.876 z" id="boundary" inkscape:connector-curvature="0" />
	<path style="fill:none;stroke:red;stroke-width:1px;stroke-linecap:butt;stroke-linejoin:miter;stroke-opacity:1" d="M 691.932,221.551 697.812,214.831 z" id="boundary" inkscape:connector-curvature="0" />
	<path style="fill:none;stroke:red;stroke-width:1px;stroke-linecap:butt;stroke-linejoin:miter;stroke-opacity:1" d="M 693.612,114.876 702.012,110.676 z" id="boundary" inkscape:connector-curvature="0" />
	<path style="fill:none;stroke:red;stroke-width:1px;stroke-linecap:butt;stroke-linejoin:miter;stroke-opacity:1" d="M 697.812,214.831 704.532,208.952 z" id="boundary" inkscape:connector-curvature="0" />
	<path style="fill:none;stroke:red;stroke-width:1px;stroke-linecap:butt;stroke-linejoin:miter;stroke-opacity:1" d="M 702.012,110.676 716.291,100.596 z" id="boundary" inkscape:connector-curvature="0" />
	<path style="fill:none;stroke:red;stroke-width:1px;stroke-linecap:butt;stroke-linejoin:miter;stroke-opacity:1" d="M 716.291,100.596 724.691,96.3963 z" id="boundary" inkscape:connector-curvature="0" />
	<path style="fill:none;stroke:red;stroke-width:1px;stroke-linecap:butt;stroke-linejoin:miter;stroke-opacity:1" d="M 717.971,198.032 724.691,192.992 z" id="boundary" inkscape:connector-curvature="0" />
	<path style="fill:none;stroke:red;stroke-width:1px;stroke-linecap:butt;stroke-linejoin:miter;stroke-opacity:1" d="M 724.691,96.3963 733.091,92.1964 z" id="boundary" inkscape:connector-curvature="0" />
	<path style="fill:none;stroke:red;stroke-width:1px;stroke-linecap:butt;stroke-linejoin:miter;stroke-opacity:1" d="M 724.691,192.992 731.411,185.433 z" id="boundary" inkscape:connector-curvature="0" />
	<path style="fill:none;stroke:red;stroke-width:1px;stroke-linecap:butt;stroke-linejoin:miter;stroke-opacity:1" d="M 731.411,185.433 739.81,181.233 z" id="boundary" inkscape:connector-curvature="0" />
	<path style="fill:none;stroke:red;stroke-width:1px;stroke-linecap:butt;stroke-linejoin:miter;stroke-opacity:1" d="M 733.091,92.1964 741.49,92.1964 z" id="boundary" inkscape:connector-curvature="0" />
	<path style="fill:none;stroke:red;stroke-width:1px;stroke-linecap:butt;stroke-linejoin:miter;stroke-opacity:1" d="M 739.81,181.233 747.37,177.033 z" id="boundary" inkscape:connector-curvature="0" />
	<path style="fill:none;stroke:red;stroke-width:1px;stroke-linecap:butt;stroke-linejoin:miter;stroke-opacity:1" d="M 741.49,92.1964 748.21,85.4767 z" id="boundary" inkscape:connector-curvature="0" />
	<path style="fill:none;stroke:red;stroke-width:1px;stroke-linecap:butt;stroke-linejoin:miter;stroke-opacity:1" d="M 747.37,177.033 754.93,172.833 z" id="boundary" inkscape:connector-curvature="0" />
	<path style="fill:none;stroke:red;stroke-width:1px;stroke-linecap:butt;stroke-linejoin:miter;stroke-opacity:1" d="M 748.21,85.4767 754.93,79.597 z" id="boundary" inkscape:connector-curvature="0" />
	<path style="fill:none;stroke:red;stroke-width:1px;stroke-linecap:butt;stroke-linejoin:miter;stroke-opacity:1" d="M 754.93,79.597 762.489,75.3971 z" id="boundary" inkscape:connector-curvature="0" />
	<path style="fill:none;stroke:red;stroke-width:1px;stroke-linecap:butt;stroke-linejoin:miter;stroke-opacity:1" d="M 754.93,172.833 762.489,168.633 z" id="boundary" inkscape:connector-curvature="0" />
	<path style="fill:none;stroke:red;stroke-width:1px;stroke-linecap:butt;stroke-linejoin:miter;stroke-opacity:1" d="M 762.489,75.3971 770.049,71.1973 z" id="boundary" inkscape:connector-curvature="0" />
	<path style="fill:none;stroke:red;stroke-width:1px;stroke-linecap:butt;stroke-linejoin:miter;stroke-opacity:1" d="M 762.489,168.633 770.049,164.434 z" id="boundary" inkscape:connector-curvature="0" />
	<path style="fill:none;stroke:red;stroke-width:1px;stroke-linecap:butt;stroke-linejoin:miter;stroke-opacity:1" d="M 770.049,71.1973 777.609,66.9975 z" id="boundary" inkscape:connector-curvature="0" />
	<path style="fill:none;stroke:red;stroke-width:1px;stroke-linecap:butt;stroke-linejoin:miter;stroke-opacity:1" d="M 770.049,164.434 778.449,164.434 z" id="boundary" inkscape:connector-curvature="0" />
	<path style="fill:none;stroke:red;stroke-width:1px;stroke-linecap:butt;stroke-linejoin:miter;stroke-opacity:1" d="M 777.609,66.9975 785.169,62.7976 z" id="boundary" inkscape:connector-curvature="0" />
	<path style="fill:none;stroke:red;stroke-width:1px;stroke-linecap:butt;stroke-linejoin:miter;stroke-opacity:1" d="M 778.449,164.434 786.008,160.234 z" id="boundary" inkscape:connector-curvature="0" />
	<path style="fill:none;stroke:red;stroke-width:1px;stroke-linecap:butt;stroke-linejoin:miter;stroke-opacity:1" d="M 785.169,62.7976 792.728,58.5978 z" id="boundary" inkscape:connector-curvature="0" />
	<path style="fill:none;stroke:red;stroke-width:1px;stroke-linecap:butt;stroke-linejoin:miter;stroke-opacity:1" d="M 786.008,160.234 792.728,154.354 z" id="boundary" inkscape:connector-curvature="0" />
	<path style="fill:none;stroke:red;stroke-width:1px;stroke-linecap:butt;stroke-linejoin:miter;stroke-opacity:1" d="M 792.728,58.5978 800.288,54.398 z" id="boundary" inkscape:connector-curvature="0" />
	<path style="fill:none;stroke:red;stroke-width:1px;stroke-linecap:butt;stroke-linejoin:miter;stroke-opacity:1" d="M 792.728,154.354 798.608,147.634 z" id="boundary" inkscape:connector-curvature="0" />
	<path style="fill:none;stroke:red;stroke-width:1px;stroke-linecap:butt;stroke-linejoin:miter;stroke-opacity:1" d="M 798.608,147.634 806.168,143.434 z" id="boundary" inkscape:connector-curvature="0" />
	<path style="fill:none;stroke:red;stroke-width:1px;stroke-linecap:butt;stroke-linejoin:miter;stroke-opacity:1" d="M 800.288,54.398 807.008,47.6782 z" id="boundary" inkscape:connector-curvature="0" />
	<path style="fill:none;stroke:red;stroke-width:1px;stroke-linecap:butt;stroke-linejoin:miter;stroke-opacity:1" d="M 806.168,143.434 813.727,139.235 z" id="boundary" inkscape:connector-curvature="0" />
	<path style="fill:none;stroke:red;stroke-width:1px;stroke-linecap:butt;stroke-linejoin:miter;stroke-opacity:1" d="M 807.008,47.6782 815.407,43.4784 z" id="boundary" inkscape:connector-curvature="0" />
	<path style="fill:none;stroke:red;stroke-width:1px;stroke-linecap:butt;stroke-linejoin:miter;stroke-opacity:1" d="M 813.727,139.235 821.287,135.035 z" id="boundary" inkscape:connector-curvature="0" />
	<path style="fill:none;stroke:red;stroke-width:1px;stroke-linecap:butt;stroke-linejoin:miter;stroke-opacity:1" d="M 815.407,43.4784 823.807,39.2786 z" id="boundary" inkscape:connector-curvature="0" />
	<path style="fill:none;stroke:red;stroke-width:1px;stroke-linecap:butt;stroke-linejoin:miter;stroke-opacity:1" d="M 821.287,135.035 828.847,130.835 z" id="boundary" inkscape:connector-curvature="0" />
	<path style="fill:none;stroke:red;stroke-width:1px;stroke-linecap:butt;stroke-linejoin:miter;stroke-opacity:1" d="M 823.807,39.2786 832.207,35.0787 z" id="boundary" inkscape:connector-curvature="0" />
	<path style="fill:none;stroke:red;stroke-width:1px;stroke-linecap:butt;stroke-linejoin:miter;stroke-opacity:1" d="M 828.847,130.835 836.406,126.635 z" id="boundary" inkscape:connector-curvature="0" />
	<path style="fill:none;stroke:red;stroke-width:1px;stroke-linecap:butt;stroke-linejoin:miter;stroke-opacity:1" d="M 832.207,35.0787 840.606,30.8789 z" id="boundary" inkscape:connector-curvature="0" />
	<path style="fill:none;stroke:red;stroke-width:1px;stroke-linecap:butt;stroke-linejoin:miter;stroke-opacity:1" d="M 836.406,126.635 843.126,120.755 z" id="boundary" inkscape:connector-curvature="0" />
	<path style="fill:none;stroke:red;stroke-width:1px;stroke-linecap:butt;stroke-linejoin:miter;stroke-opacity:1" d="M 840.606,30.8789 849.006,26.6791 z" id="boundary" inkscape:connector-curvature="0" />
	<path style="fill:none;stroke:red;stroke-width:1px;stroke-linecap:butt;stroke-linejoin:miter;stroke-opacity:1" d="M 843.126,120.755 851.526,116.555 z" id="boundary" inkscape:connector-curvature="0" />
	<path style="fill:none;stroke:red;stroke-width:1px;stroke-linecap:butt;stroke-linejoin:miter;stroke-opacity:1" d="M 849.006,26.6791 857.406,24.9992 z" id="boundary" inkscape:connector-curvature="0" />
	<path style="fill:none;stroke:red;stroke-width:1px;stroke-linecap:butt;stroke-linejoin:miter;stroke-opacity:1" d="M 851.526,116.555 859.925,112.356 z" id="boundary" inkscape:connector-curvature="0" />
	<path style="fill:none;stroke:red;stroke-width:1px;stroke-linecap:butt;stroke-linejoin:miter;stroke-opacity:1" d="M 857.406,24.9992 864.965,20.7993 z" id="boundary" inkscape:connector-curvature="0" />
	<path style="fill:none;stroke:red;stroke-width:1px;stroke-linecap:butt;stroke-linejoin:miter;stroke-opacity:1" d="M 859.925,112.356 868.325,108.156 z" id="boundary" inkscape:connector-curvature="0" />
	<path style="fill:none;stroke:red;stroke-width:1px;stroke-linecap:butt;stroke-linejoin:miter;stroke-opacity:1" d="M 864.965,20.7993 872.525,16.5995 z" id="boundary" inkscape:connector-curvature="0" />
	<path style="fill:none;stroke:red;stroke-width:1px;stroke-linecap:butt;stroke-linejoin:miter;stroke-opacity:1" d="M 868.325,108.156 876.725,103.956 z" id="boundary" inkscape:connector-curvature="0" />
	<path style="fill:none;stroke:red;stroke-width:1px;stroke-linecap:butt;stroke-linejoin:miter;stroke-opacity:1" d="M 872.525,16.5995 880.925,16.5995 z" id="boundary" inkscape:connector-curvature="0" />
	<path style="fill:none;stroke:red;stroke-width:1px;stroke-linecap:butt;stroke-linejoin:miter;stroke-opacity:1" d="M 876.725,103.956 885.124,99.7561 z" id="boundary" inkscape:connector-curvature="0" />
	<path style="fill:none;stroke:red;stroke-width:1px;stroke-linecap:butt;stroke-linejoin:miter;stroke-opacity:1" d="M 880.925,16.5995 888.484,12.3997 z" id="boundary" inkscape:connector-curvature="0" />
	<path style="fill:none;stroke:red;stroke-width:1px;stroke-linecap:butt;stroke-linejoin:miter;stroke-opacity:1" d="M 885.124,99.7561 893.524,97.2362 z" id="boundary" inkscape:connector-curvature="0" />
	<path style="fill:none;stroke:red;stroke-width:1px;stroke-linecap:butt;stroke-linejoin:miter;stroke-opacity:1" d="M 888.484,12.3997 896.884,12.3997 z" id="boundary" inkscape:connector-curvature="0" />
	<path style="fill:none;stroke:red;stroke-width:1px;stroke-linecap:butt;stroke-linejoin:miter;stroke-opacity:1" d="M 893.524,97.2362 901.084,93.0364 z" id="boundary" inkscape:connector-curvature="0" />
	<path style="fill:none;stroke:red;stroke-width:1px;stroke-linecap:butt;stroke-linejoin:miter;stroke-opacity:1" d="M 896.884,12.3997 905.284,8.19983 z" id="boundary" inkscape:connector-curvature="0" />
	<path style="fill:none;stroke:red;stroke-width:1px;stroke-linecap:butt;stroke-linejoin:miter;stroke-opacity:1" d="M 901.084,93.0364 909.483,93.0364 z" id="boundary" inkscape:connector-curvature="0" />
	<path style="fill:none;stroke:red;stroke-width:1px;stroke-linecap:butt;stroke-linejoin:miter;stroke-opacity:1" d="M 905.284,8.19983 913.683,8.19983 z" id="boundary" inkscape:connector-curvature="0" />
	<path style="fill:none;stroke:red;stroke-width:1px;stroke-linecap:butt;stroke-linejoin:miter;stroke-opacity:1" d="M 909.483,93.0364 917.043,88.8366 z" id="boundary" inkscape:connector-curvature="0" />
	<path style="fill:none;stroke:red;stroke-width:1px;stroke-linecap:butt;stroke-linejoin:miter;stroke-opacity:1" d="M 913.683,8.19983 922.083,8.19983 z" id="boundary" inkscape:connector-curvature="0" />
	<path style="fill:none;stroke:red;stroke-width:1px;stroke-linecap:butt;stroke-linejoin:miter;stroke-opacity:1" d="M 917.043,88.8366 925.443,88.8366 z" id="boundary" inkscape:connector-curvature="0" />
	<path style="fill:none;stroke:red;stroke-width:1px;stroke-linecap:butt;stroke-linejoin:miter;stroke-opacity:1" d="M 922.083,8.19983 929.643,4 z" id="boundary" inkscape:connector-curvature="0" />
	<path style="fill:none;stroke:red;stroke-width:1px;stroke-linecap:butt;stroke-linejoin:miter;stroke-opacity:1" d="M 925.443,88.8366 933.003,84.6367 z" id="boundary" inkscape:connector-curvature="0" />
	<path style="fill:none;stroke:red;stroke-width:1px;stroke-linecap:butt;stroke-linejoin:miter;stroke-opacity:1" d="M 929.643,4 938.042,4 z" id="boundary" inkscape:connector-curvature="0" />
	<path style="fill:none;stroke:red;stroke-width:1px;stroke-linecap:butt;stroke-linejoin:miter;stroke-opacity:1" d="M 933.003,84.6367 941.402,84.6367 z" id="boundary" inkscape:connector-curvature="0" />
	<path style="fill:none;stroke:red;stroke-width:1px;stroke-linecap:butt;stroke-linejoin:miter;stroke-opacity:1" d="M 938.042,4 946.442,4 z" id="boundary" inkscape:connector-curvature="0" />
	<path style="fill:none;stroke:red;stroke-width:1px;stroke-linecap:butt;stroke-linejoin:miter;stroke-opacity:1" d="M 941.402,84.6367 949.802,84.6367 z" id="boundary" inkscape:connector-curvature="0" />
	<path style="fill:none;stroke:red;stroke-width:1px;stroke-linecap:butt;stroke-linejoin:miter;stroke-opacity:1" d="M 946.442,4 954.842,4 z" id="boundary" inkscape:connector-curvature="0" />
	<path style="fill:none;stroke:red;stroke-width:1px;stroke-linecap:butt;stroke-linejoin:miter;stroke-opacity:1" d="M 949.802,84.6367 958.202,84.6367 z" id="boundary" inkscape:connector-curvature="0" />
	<path style="fill:none;stroke:red;stroke-width:1px;stroke-linecap:butt;stroke-linejoin:miter;stroke-opacity:1" d="M 954.842,4 963.241,4 z" id="boundary" inkscape:connector-curvature="0" />
	<path style="fill:none;stroke:red;stroke-width:1px;stroke-linecap:butt;stroke-linejoin:miter;stroke-opacity:1" d="M 958.202,84.6367 966.601,84.6367 z" id="boundary" inkscape:connector-curvature="0" />
	<path style="fill:none;stroke:red;stroke-width:1px;stroke-linecap:butt;stroke-linejoin:miter;stroke-opacity:1" d="M 963.241,4 970.801,8.19983 z" id="boundary" inkscape:connector-curvature="0" />
	<path style="fill:none;stroke:red;stroke-width:1px;stroke-linecap:butt;stroke-linejoin:miter;stroke-opacity:1" d="M 966.601,84.6367 974.161,80.4369 z" id="boundary" inkscape:connector-curvature="0" />
	<path style="fill:none;stroke:red;stroke-width:1px;stroke-linecap:butt;stroke-linejoin:miter;stroke-opacity:1" d="M 970.801,8.19983 979.201,10.7197 z" id="boundary" inkscape:connector-curvature="0" />
	<path style="fill:none;stroke:red;stroke-width:1px;stroke-linecap:butt;stroke-linejoin:miter;stroke-opacity:1" d="M 974.161,80.4369 980.881,75.3971 z" id="boundary" inkscape:connector-curvature="0" />
	<path style="fill:none;stroke:red;stroke-width:1px;stroke-linecap:butt;stroke-linejoin:miter;stroke-opacity:1" d="M 979.201,10.7197 985.08,17.4395 z" id="boundary" inkscape:connector-curvature="0" />
	<path style="fill:none;stroke:red;stroke-width:1px;stroke-linecap:butt;stroke-linejoin:miter;stroke-opacity:1" d="M 980.881,75.3971 987.6,67.8374 z" id="boundary" inkscape:connector-curvature="0" />
	<path style="fill:none;stroke:red;stroke-width:1px;stroke-linecap:butt;stroke-linejoin:miter;stroke-opacity:1" d="M 985.08,17.4395 991.8,23.3192 z" id="boundary" inkscape:connector-curvature="0" />
	<path style="fill:none;stroke:red;stroke-width:1px;stroke-linecap:butt;stroke-linejoin:miter;stroke-opacity:1" d="M 987.6,67.8374 991.8,59.4378 z" id="boundary" inkscape:connector-curvature="0" />
	<path style="fill:none;stroke:red;stroke-width:1px;stroke-linecap:butt;stroke-linejoin:miter;stroke-opacity:1" d="M 991.8,23.3192 995.16,31.7189 z" id="boundary" inkscape:connector-curvature="0" />
	<path style="fill:none;stroke:red;stroke-width:1px;stroke-linecap:butt;stroke-linejoin:miter;stroke-opacity:1" d="M 991.8,59.4378 996,48.5182 z" id="boundary" inkscape:connector-curvature="0" />
	<path style="fill:none;stroke:red;stroke-width:1px;stroke-linecap:butt;stroke-linejoin:miter;stroke-opacity:1" d="M 995.16,31.7189 996,40.1185 z" id="boundary" inkscape:connector-curvature="0" />
	<path style="fill:none;stroke:red;stroke-width:1px;stroke-linecap:butt;stroke-linejoin:miter;stroke-opacity:1" d="M 996,40.1185 996,48.5182 z" id="boundary" inkscape:connector-curvature="0" />
	<circle cx="4" cy="804.488" r="4" fill="#0" id="circle0"/>
	<circle cx="4" cy="812.887" r="4" fill="#0" id="circle1"/>
	<circle cx="4" cy="821.287" r="4" fill="#0" id="circle2"/>
	<circle cx="4" cy="829.687" r="4" fill="#0" id="circle3"/>
	<circle cx="8.19983" cy="796.088" r="4" fill="#0" id="circle4"/>
	<circle cx="8.19983" cy="837.246" r="4" fill="#0" id="circle5"/>
	<circle cx="12.3997" cy="844.806" r="4" fill="#0" id="circle6"/>
	<circle cx="14.9196" cy="789.368" r="4" fill="#0" id="circle7"/>
	<circle cx="17.4395" cy="851.526" r="4" fill="#0" id="circle8"/>
	<circle cx="19.1194" cy="780.969" r="4" fill="#0" id="circle9"/>
	<circle cx="23.3192" cy="772.569" r="4" fill="#0" id="circle10"/>
	<circle cx="24.1592" cy="857.406" r="4" fill="#0" id="circle11"/>
	<circle cx="30.039" cy="765.849" r="4" fill="#0" id="circle12"/>
	<circle cx="31.7189" cy="861.605" r="4" fill="#0" id="circle13"/>
	<circle cx="34.2388" cy="757.45" r="4" fill="#0" id="circle14"/>
	<circle cx="38.4386" cy="749.05" r="4" fill="#0" id="circle15"/>
	<circle cx="39.2786" cy="865.805" r="4" fill="#0" id="circle16"/>
	<circle cx="45.1583" cy="743.17" r="4" fill="#0" id="circle17"/>
	<circle cx="47.6782" cy="865.805" r="4" fill="#0" id="circle18"/>
	<circle cx="50.1981" cy="733.091" r="4" fill="#0" id="circle19"/>
	<circle cx="54.398" cy="724.691" r="4" fill="#0" id="circle20"/>
	<circle cx="56.0779" cy="865.805" r="4" fill="#0" id="circle21"/>
	<circle cx="58.5978" cy="716.291" r="4" fill="#0" id="circle22"/>
	<circle cx="63.6376" cy="861.605" r="4" fill="#0" id="circle23"/>
	<circle cx="65.3175" cy="709.572" r="4" fill="#0" id="circle24"/>
	<circle cx="71.1973" cy="699.492" r="4" fill="#0" id="circle25"/>
	<circle cx="72.0373" cy="861.605" r="4" fill="#0" id="circle26"/>
	<circle cx="77.917" cy="692.772" r="4" fill="#0" id="circle27"/>
	<circle cx="80.4369" cy="861.605" r="4" fill="#0" id="circle28"/>
	<circle cx="83.7968" cy="678.493" r="4" fill="#0" id="circle29"/>
	<circle cx="87.9966" cy="670.093" r="4" fill="#0" id="circle30"/>
	<circle cx="87.9966" cy="857.406" r="4" fill="#0" id="circle31"/>
	<circle cx="94.7163" cy="663.373" r="4" fill="#0" id="circle32"/>
	<circle cx="96.3963" cy="857.406" r="4" fill="#0" id="circle33"/>
	<circle cx="98.9162" cy="654.974" r="4" fill="#0" id="circle34"/>
	<circle cx="103.956" cy="853.206" r="4" fill="#0" id="circle35"/>
	<circle cx="105.636" cy="648.254" r="4" fill="#0" id="circle36"/>
	<circle cx="109.836" cy="639.854" r="4" fill="#0" id="circle37"/>
	<circle cx="111.516" cy="849.006" r="4" fill="#0" id="circle38"/>
	<circle cx="116.555" cy="633.975" r="4" fill="#0" id="circle39"/>
	<circle cx="119.075" cy="844.806" r="4" fill="#0" id="circle40"/>
	<circle cx="122.435" cy="627.255" r="4" fill="#0" id="circle41"/>
	<circle cx="126.635" cy="840.606" r="4" fill="#0" id="circle42"/>
	<circle cx="129.155" cy="621.375" r="4" fill="#0" id="circle43"/>
	<circle cx="135.035" cy="614.655" r="4" fill="#0" id="circle44"/>
	<circle cx="135.035" cy="836.406" r="4" fill="#0" id="circle45"/>
	<circle cx="143.434" cy="610.456" r="4" fill="#0" id="circle46"/>
	<circle cx="143.434" cy="836.406" r="4" fill="#0" id="circle47"/>
	<circle cx="150.154" cy="604.576" r="4" fill="#0" id="circle48"/>
	<circle cx="151.834" cy="832.207" r="4" fill="#0" id="circle49"/>
	<circle cx="157.714" cy="600.376" r="4" fill="#0" id="circle50"/>
	<circle cx="160.234" cy="828.007" r="4" fill="#0" id="circle51"/>
	<circle cx="164.434" cy="593.656" r="4" fill="#0" id="circle52"/>
	<circle cx="166.953" cy="822.127" r="4" fill="#0" id="circle53"/>
	<circle cx="171.153" cy="587.776" r="4" fill="#0" id="circle54"/>
	<circle cx="175.353" cy="817.927" r="4" fill="#0" id="circle55"/>
	<circle cx="177.033" cy="581.057" r="4" fill="#0" id="circle56"/>
	<circle cx="183.753" cy="575.177" r="4" fill="#0" id="circle57"/>
	<circle cx="183.753" cy="813.727" r="4" fill="#0" id="circle58"/>
	<circle cx="189.633" cy="568.457" r="4" fill="#0" id="circle59"/>
	<circle cx="192.152" cy="809.528" r="4" fill="#0" id="circle60"/>
	<circle cx="196.352" cy="562.577" r="4" fill="#0" id="circle61"/>
	<circle cx="198.032" cy="802.808" r="4" fill="#0" id="circle62"/>
	<circle cx="203.912" cy="558.378" r="4" fill="#0" id="circle63"/>
	<circle cx="204.752" cy="796.928" r="4" fill="#0" id="circle64"/>
	<circle cx="210.632" cy="551.658" r="4" fill="#0" id="circle65"/>
	<circle cx="213.152" cy="792.728" r="4" fill="#0" id="circle66"/>
	<circle cx="217.351" cy="545.778" r="4" fill="#0" id="circle67"/>
	<circle cx="221.551" cy="788.528" r="4" fill="#0" id="circle68"/>
	<circle cx="224.911" cy="541.578" r="4" fill="#0" id="circle69"/>
	<circle cx="227.431" cy="781.809" r="4" fill="#0" id="circle70"/>
	<circle cx="231.631" cy="534.859" r="4" fill="#0" id="circle71"/>
	<circle cx="234.991" cy="777.609" r="4" fill="#0" id="circle72"/>
	<circle cx="235.831" cy="526.459" r="4" fill="#0" id="circle73"/>
	<circle cx="242.55" cy="520.579" r="4" fill="#0" id="circle74"/>
	<circle cx="242.55" cy="773.409" r="4" fill="#0" id="circle75"/>
	<circle cx="248.43" cy="513.859" r="4" fill="#0" id="circle76"/>
	<circle cx="250.11" cy="769.209" r="4" fill="#0" id="circle77"/>
	<circle cx="255.15" cy="507.98" r="4" fill="#0" id="circle78"/>
	<circle cx="257.67" cy="765.009" r="4" fill="#0" id="circle79"/>
	<circle cx="261.03" cy="501.26" r="4" fill="#0" id="circle80"/>
	<circle cx="264.39" cy="758.29" r="4" fill="#0" id="circle81"/>
	<circle cx="269.429" cy="497.06" r="4" fill="#0" id="circle82"/>
	<circle cx="272.789" cy="754.09" r="4" fill="#0" id="circle83"/>
	<circle cx="276.149" cy="491.18" r="4" fill="#0" id="circle84"/>
	<circle cx="279.509" cy="748.21" r="4" fill="#0" id="circle85"/>
	<circle cx="282.029" cy="484.461" r="4" fill="#0" id="circle86"/>
	<circle cx="287.069" cy="744.01" r="4" fill="#0" id="circle87"/>
	<circle cx="288.749" cy="478.581" r="4" fill="#0" id="circle88"/>
	<circle cx="292.108" cy="470.181" r="4" fill="#0" id="circle89"/>
	<circle cx="294.628" cy="739.81" r="4" fill="#0" id="circle90"/>
	<circle cx="298.828" cy="463.461" r="4" fill="#0" id="circle91"/>
	<circle cx="301.348" cy="733.931" r="4" fill="#0" id="circle92"/>
	<circle cx="305.548" cy="457.582" r="4" fill="#0" id="circle93"/>
	<circle cx="307.228" cy="727.211" r="4" fill="#0" id="circle94"/>
	<circle cx="311.428" cy="718.811" r="4" fill="#0" id="circle95"/>
	<circle cx="313.108" cy="453.382" r="4" fill="#0" id="circle96"/>
	<circle cx="318.147" cy="712.931" r="4" fill="#0" id="circle97"/>
	<circle cx="319.827" cy="446.662" r="4" fill="#0" id="circle98"/>
	<circle cx="324.027" cy="702.012" r="4" fill="#0" id="circle99"/>
	<circle cx="326.547" cy="440.782" r="4" fill="#0" id="circle100"/>
	<circle cx="332.427" cy="434.063" r="4" fill="#0" id="circle101"/>
	<circle cx="332.427" cy="697.812" r="4" fill="#0" id="circle102"/>
	<circle cx="339.146" cy="691.932" r="4" fill="#0" id="circle103"/>
	<circle cx="340.826" cy="429.863" r="4" fill="#0" id="circle104"/>
	<circle cx="345.026" cy="685.213" r="4" fill="#0" id="circle105"/>
	<circle cx="347.546" cy="423.983" r="4" fill="#0" id="circle106"/>
	<circle cx="351.746" cy="679.333" r="4" fill="#0" id="circle107"/>
	<circle cx="353.426" cy="417.263" r="4" fill="#0" id="circle108"/>
	<circle cx="357.626" cy="668.413" r="4" fill="#0" id="circle109"/>
	<circle cx="360.146" cy="411.384" r="4" fill="#0" id="circle110"/>
	<circle cx="363.506" cy="402.984" r="4" fill="#0" id="circle111"/>
	<circle cx="364.345" cy="662.533" r="4" fill="#0" id="circle112"/>
	<circle cx="370.225" cy="396.264" r="4" fill="#0" id="circle113"/>
	<circle cx="370.225" cy="651.614" r="4" fill="#0" id="circle114"/>
	<circle cx="374.425" cy="643.214" r="4" fill="#0" id="circle115"/>
	<circle cx="376.945" cy="390.384" r="4" fill="#0" id="circle116"/>
	<circle cx="378.625" cy="634.815" r="4" fill="#0" id="circle117"/>
	<circle cx="382.825" cy="613.815" r="4" fill="#0" id="circle118"/>
	<circle cx="382.825" cy="622.215" r="4" fill="#0" id="circle119"/>
	<circle cx="384.505" cy="386.185" r="4" fill="#0" id="circle120"/>
	<circle cx="387.025" cy="597.016" r="4" fill="#0" id="circle121"/>
	<circle cx="387.025" cy="605.416" r="4" fill="#0" id="circle122"/>
	<circle cx="391.224" cy="576.017" r="4" fill="#0" id="circle123"/>
	<circle cx="391.224" cy="584.417" r="4" fill="#0" id="circle124"/>
	<circle cx="392.904" cy="386.185" r="4" fill="#0" id="circle125"/>
	<circle cx="395.424" cy="555.018" r="4" fill="#0" id="circle126"/>
	<circle cx="395.424" cy="563.417" r="4" fill="#0" id="circle127"/>
	<circle cx="397.104" cy="377.785" r="4" fill="#0" id="circle128"/>
	<circle cx="399.624" cy="517.219" r="4" fill="#0" id="circle129"/>
	<circle cx="399.624" cy="525.619" r="4" fill="#0" id="circle130"/>
	<circle cx="399.624" cy="534.019" r="4" fill="#0" id="circle131"/>
	<circle cx="399.624" cy="542.418" r="4" fill="#0" id="circle132"/>
	<circle cx="401.304" cy="369.385" r="4" fill="#0" id="circle133"/>
	<circle cx="403.824" cy="500.42" r="4" fill="#0" id="circle134"/>
	<circle cx="403.824" cy="508.82" r="4" fill="#0" id="circle135"/>
	<circle cx="408.024" cy="362.666" r="4" fill="#0" id="circle136"/>
	<circle cx="408.024" cy="475.221" r="4" fill="#0" id="circle137"/>
	<circle cx="408.024" cy="483.621" r="4" fill="#0" id="circle138"/>
	<circle cx="408.024" cy="492.02" r="4" fill="#0" id="circle139"/>
	<circle cx="414.743" cy="356.786" r="4" fill="#0" id="circle140"/>
	<circle cx="416.423" cy="471.021" r="4" fill="#0" id="circle141"/>
	<circle cx="420.623" cy="350.066" r="4" fill="#0" id="circle142"/>
	<circle cx="423.143" cy="465.141" r="4" fill="#0" id="circle143"/>
	<circle cx="427.343" cy="344.186" r="4" fill="#0" id="circle144"/>
	<circle cx="429.023" cy="458.422" r="4" fill="#0" id="circle145"/>
	<circle cx="434.903" cy="339.986" r="4" fill="#0" id="circle146"/>
	<circle cx="437.423" cy="454.222" r="4" fill="#0" id="circle147"/>
	<circle cx="440.782" cy="329.907" r="4" fill="#0" id="circle148"/>
	<circle cx="444.142" cy="448.342" r="4" fill="#0" id="circle149"/>
	<circle cx="447.502" cy="323.187" r="4" fill="#0" id="circle150"/>
	<circle cx="450.022" cy="441.622" r="4" fill="#0" id="circle151"/>
	<circle cx="454.222" cy="316.467" r="4" fill="#0" id="circle152"/>
	<circle cx="456.742" cy="435.743" r="4" fill="#0" id="circle153"/>
	<circle cx="460.942" cy="310.588" r="4" fill="#0" id="circle154"/>
	<circle cx="462.622" cy="424.823" r="4" fill="#0" id="circle155"/>
	<circle cx="466.821" cy="303.868" r="4" fill="#0" id="circle156"/>
	<circle cx="466.821" cy="416.423" r="4" fill="#0" id="circle157"/>
	<circle cx="473.541" cy="297.988" r="4" fill="#0" id="circle158"/>
	<circle cx="473.541" cy="410.544" r="4" fill="#0" id="circle159"/>
	<circle cx="479.421" cy="291.268" r="4" fill="#0" id="circle160"/>
	<circle cx="479.421" cy="403.824" r="4" fill="#0" id="circle161"/>
	<circle cx="486.141" cy="285.389" r="4" fill="#0" id="circle162"/>
	<circle cx="487.82" cy="399.624" r="4" fill="#0" id="circle163"/>
	<circle cx="492.02" cy="278.669" r="4" fill="#0" id="circle164"/>
	<circle cx="494.54" cy="393.744" r="4" fill="#0" id="circle165"/>
	<circle cx="498.74" cy="272.789" r="4" fill="#0" id="circle166"/>
	<circle cx="500.42" cy="382.825" r="4" fill="#0" id="circle167"/>
	<circle cx="504.62" cy="266.069" r="4" fill="#0" id="circle168"/>
	<circle cx="507.14" cy="376.945" r="4" fill="#0" id="circle169"/>
	<circle cx="511.34" cy="260.19" r="4" fill="#0" id="circle170"/>
	<circle cx="513.019" cy="370.225" r="4" fill="#0" id="circle171"/>
	<circle cx="517.219" cy="253.47" r="4" fill="#0" id="circle172"/>
	<circle cx="519.739" cy="364.345" r="4" fill="#0" id="circle173"/>
	<circle cx="521.419" cy="245.07" r="4" fill="#0" id="circle174"/>
	<circle cx="525.619" cy="357.626" r="4" fill="#0" id="circle175"/>
	<circle cx="528.139" cy="239.191" r="4" fill="#0" id="circle176"/>
	<circle cx="532.339" cy="351.746" r="4" fill="#0" id="circle177"/>
	<circle cx="534.019" cy="232.471" r="4" fill="#0" id="circle178"/>
	<circle cx="538.218" cy="345.026" r="4" fill="#0" id="circle179"/>
	<circle cx="542.418" cy="228.271" r="4" fill="#0" id="circle180"/>
	<circle cx="544.938" cy="339.146" r="4" fill="#0" id="circle181"/>
	<circle cx="549.138" cy="222.391" r="4" fill="#0" id="circle182"/>
	<circle cx="550.818" cy="332.427" r="4" fill="#0" id="circle183"/>
	<circle cx="556.698" cy="218.191" r="4" fill="#0" id="circle184"/>
	<circle cx="557.538" cy="326.547" r="4" fill="#0" id="circle185"/>
	<circle cx="563.417" cy="211.472" r="4" fill="#0" id="circle186"/>
	<circle cx="563.417" cy="319.827" r="4" fill="#0" id="circle187"/>
	<circle cx="570.137" cy="205.592" r="4" fill="#0" id="circle188"/>
	<circle cx="570.137" cy="313.948" r="4" fill="#0" id="circle189"/>
	<circle cx="576.017" cy="198.872" r="4" fill="#0" id="circle190"/>
	<circle cx="576.017" cy="307.228" r="4" fill="#0" id="circle191"/>
	<circle cx="580.217" cy="298.828" r="4" fill="#0" id="circle192"/>
	<circle cx="582.737" cy="192.992" r="4" fill="#0" id="circle193"/>
	<circle cx="586.936" cy="292.948" r="4" fill="#0" id="circle194"/>
	<circle cx="590.296" cy="188.793" r="4" fill="#0" id="circle195"/>
	<circle cx="595.336" cy="288.749" r="4" fill="#0" id="circle196"/>
	<circle cx="598.696" cy="184.593" r="4" fill="#0" id="circle197"/>
	<circle cx="601.216" cy="282.029" r="4" fill="#0" id="circle198"/>
	<circle cx="607.096" cy="180.393" r="4" fill="#0" id="circle199"/>
	<circle cx="608.776" cy="277.829" r="4" fill="#0" id="circle200"/>
	<circle cx="613.815" cy="173.673" r="4" fill="#0" id="circle201"/>
	<circle cx="615.495" cy="272.789" r="4" fill="#0" id="circle202"/>
	<circle cx="622.215" cy="169.473" r="4" fill="#0" id="circle203"/>
	<circle cx="622.215" cy="265.229" r="4" fill="#0" id="circle204"/>
	<circle cx="629.775" cy="261.03" r="4" fill="#0" id="circle205"/>
	<circle cx="630.615" cy="165.273" r="4" fill="#0" id="circle206"/>
	<circle cx="637.334" cy="256.83" r="4" fill="#0" id="circle207"/>
	<circle cx="639.014" cy="161.074" r="4" fill="#0" id="circle208"/>
	<circle cx="644.894" cy="251.79" r="4" fill="#0" id="circle209"/>
	<circle cx="645.734" cy="155.194" r="4" fill="#0" id="circle210"/>
	<circle cx="651.614" cy="148.474" r="4" fill="#0" id="circle211"/>
	<circle cx="651.614" cy="244.23" r="4" fill="#0" id="circle212"/>
	<circle cx="658.334" cy="142.594" r="4" fill="#0" id="circle213"/>
	<circle cx="660.014" cy="240.03" r="4" fill="#0" id="circle214"/>
	<circle cx="665.893" cy="138.395" r="4" fill="#0" id="circle215"/>
	<circle cx="668.413" cy="235.831" r="4" fill="#0" id="circle216"/>
	<circle cx="672.613" cy="131.675" r="4" fill="#0" id="circle217"/>
	<circle cx="676.813" cy="231.631" r="4" fill="#0" id="circle218"/>
	<circle cx="679.333" cy="125.795" r="4" fill="#0" id="circle219"/>
	<circle cx="683.533" cy="225.751" r="4" fill="#0" id="circle220"/>
	<circle cx="686.892" cy="121.595" r="4" fill="#0" id="circle221"/>
	<circle cx="691.932" cy="221.551" r="4" fill="#0" id="circle222"/>
	<circle cx="693.612" cy="114.876" r="4" fill="#0" id="circle223"/>
	<circle cx="697.812" cy="214.831" r="4" fill="#0" id="circle224"/>
	<circle cx="702.012" cy="110.676" r="4" fill="#0" id="circle225"/>
	<circle cx="704.532" cy="208.952" r="4" fill="#0" id="circle226"/>
	<circle cx="708.732" cy="104.796" r="4" fill="#0" id="circle227"/>
	<circle cx="710.412" cy="202.232" r="4" fill="#0" id="circle228"/>
	<circle cx="716.291" cy="100.596" r="4" fill="#0" id="circle229"/>
	<circle cx="717.971" cy="198.032" r="4" fill="#0" id="circle230"/>
	<circle cx="724.691" cy="96.3963" r="4" fill="#0" id="circle231"/>
	<circle cx="724.691" cy="192.992" r="4" fill="#0" id="circle232"/>
	<circle cx="731.411" cy="185.433" r="4" fill="#0" id="circle233"/>
	<circle cx="733.091" cy="92.1964" r="4" fill="#0" id="circle234"/>
	<circle cx="739.81" cy="181.233" r="4" fill="#0" id="circle235"/>
	<circle cx="741.49" cy="92.1964" r="4" fill="#0" id="circle236"/>
	<circle cx="747.37" cy="177.033" r="4" fill="#0" id="circle237"/>
	<circle cx="748.21" cy="85.4767" r="4" fill="#0" id="circle238"/>
	<circle cx="754.93" cy="79.597" r="4" fill="#0" id="circle239"/>
	<circle cx="754.93" cy="172.833" r="4" fill="#0" id="circle240"/>
	<circle cx="762.489" cy="75.3971" r="4" fill="#0" id="circle241"/>
	<circle cx="762.489" cy="168.633" r="4" fill="#0" id="circle242"/>
	<circle cx="770.049" cy="71.1973" r="4" fill="#0" id="circle243"/>
	<circle cx="770.049" cy="164.434" r="4" fill="#0" id="circle244"/>
	<circle cx="777.609" cy="66.9975" r="4" fill="#0" id="circle245"/>
	<circle cx="778.449" cy="164.434" r="4" fill="#0" id="circle246"/>
	<circle cx="785.169" cy="62.7976" r="4" fill="#0" id="circle247"/>
	<circle cx="786.008" cy="160.234" r="4" fill="#0" id="circle248"/>
	<circle cx="792.728" cy="58.5978" r="4" fill="#0" id="circle249"/>
	<circle cx="792.728" cy="154.354" r="4" fill="#0" id="circle250"/>
	<circle cx="798.608" cy="147.634" r="4" fill="#0" id="circle251"/>
	<circle cx="800.288" cy="54.398" r="4" fill="#0" id="circle252"/>
	<circle cx="806.168" cy="143.434" r="4" fill="#0" id="circle253"/>
	<circle cx="807.008" cy="47.6782" r="4" fill="#0" id="circle254"/>
	<circle cx="813.727" cy="139.235" r="4" fill="#0" id="circle255"/>
	<circle cx="815.407" cy="43.4784" r="4" fill="#0" id="circle256"/>
	<circle cx="821.287" cy="135.035" r="4" fill="#0" id="circle257"/>
	<circle cx="823.807" cy="39.2786" r="4" fill="#0" id="circle258"/>
	<circle cx="828.847" cy="130.835" r="4" fill="#0" id="circle259"/>
	<circle cx="832.207" cy="35.0787" r="4" fill="#0" id="circle260"/>
	<circle cx="836.406" cy="126.635" r="4" fill="#0" id="circle261"/>
	<circle cx="840.606" cy="30.8789" r="4" fill="#0" id="circle262"/>
	<circle cx="843.126" cy="120.755" r="4" fill="#0" id="circle263"/>
	<circle cx="849.006" cy="26.6791" r="4" fill="#0" id="circle264"/>
	<circle cx="851.526" cy="116.555" r="4" fill="#0" id="circle265"/>
	<circle cx="857.406" cy="24.9992" r="4" fill="#0" id="circle266"/>
	<circle cx="859.925" cy="112.356" r="4" fill="#0" id="circle267"/>
	<circle cx="864.965" cy="20.7993" r="4" fill="#0" id="circle268"/>
	<circle cx="868.325" cy="108.156" r="4" fill="#0" id="circle269"/>
	<circle cx="872.525" cy="16.5995" r="4" fill="#0" id="circle270"/>
	<circle cx="876.725" cy="103.956" r="4" fill="#0" id="circle271"/>
	<circle cx="880.925" cy="16.5995" r="4" fill="#0" id="circle272"/>
	<circle cx="885.124" cy="99.7561" r="4" fill="#0" id="circle273"/>
	<circle cx="888.484" cy="12.3997" r="4" fill="#0" id="circle274"/>
	<circle cx="893.524" cy="97.2362" r="4" fill="#0" id="circle275"/>
	<circle cx="896.884" cy="12.3997" r="4" fill="#0" id="circle276"/>
	<circle cx="901.084" cy="93.0364" r="4" fill="#0" id="circle277"/>
	<circle cx="905.284" cy="8.19983" r="4" fill="#0" id="circle278"/>
	<circle cx="909.483" cy="93.0364" r="4" fill="#0" id="circle279"/>
	<circle cx="913.683" cy="8.19983" r="4" fill="#0" id="circle280"/>
	<circle cx="917.043" cy="88.8366" r="4" fill="#0" id="circle281"/>
	<circle cx="922.083" cy="8.19983" r="4" fill="#0" id="circle282"/>
	<circle cx="925.443" cy="88.8366" r="4" fill="#0" id="circle283"/>
	<circle cx="929.643" cy="4" r="4" fill="#0" id="circle284"/>
	<circle cx="933.003" cy="84.6367" r="4" fill="#0" id="circle285"/>
	<circle cx="938.042" cy="4" r="4" fill="#0" id="circle286"/>
	<circle cx="941.402" cy="84.6367" r="4" fill="#0" id="circle287"/>
	<circle cx="946.442" cy="4" r="4" fill="#0" id="circle288"/>
	<circle cx="949.802" cy="84.6367" r="4" fill="#0" id="circle289"/>
	<circle cx="954.842" cy="4" r="4" fill="#0" id="circle290"/>
	<circle cx="958.202" cy="84.6367" r="4" fill="#0" id="circle291"/>
	<circle cx="963.241" cy="4" r="4" fill="#0" id="circle292"/>
	<circle cx="966.601" cy="84.6367" r="4" fill="#0" id="circle293"/>
	<circle cx="970.801" cy="8.19983" r="4" fill="#0" id="circle294"/>
	<circle cx="974.161" cy="80.4369" r="4" fill="#0" id="circle295"/>
	<circle cx="979.201" cy="10.7197" r="4" fill="#0" id="circle296"/>
	<circle cx="980.881" cy="75.3971" r="4" fill="#0" id="circle297"/>
	<circle cx="985.08" cy="17.4395" r="4" fill="#0" id="circle298"/>
	<circle cx="987.6" cy="67.8374" r="4" fill="#0" id="circle299"/>
	<circle cx="991.8" cy="23.3192" r="4" fill="#0" id="circle300"/>
	<circle cx="991.8" cy="59.4378" r="4" fill="#0" id="circle301"/>
	<circle cx="995.16" cy="31.7189" r="4" fill="#0" id="circle302"/>
	<circle cx="996" cy="40.1185" r="4" fill="#0" id="circle303"/>
	<circle cx="996" cy="48.5182" r="4" fill="#0" id="circle304"/>
	</g>
</svg>