<?xml version="1.0" encoding="UTF-8" standalone="no"?>
<!-- Created with CurveBenchmark -->
<svg
	xmlns:dc="http://purl.org/dc/elements/1.1/"
	xmlns:cc="http://creativecommons.org/ns#"
	xmlns:rdf="http://www.w3.org/1999/02/22-rdf-syntax-ns#"
	xmlns:svg="http://www.w3.org/2000/svg"
	xmlns="http://www.w3.org/2000/svg"
	xmlns:sodipodi="http://sodipodi.sourceforge.net/DTD/sodipodi-0.dtd"
	xmlns:inkscape="http://www.inkscape.org/namespaces/inkscape"
	width="1000"
	height="1000"
	id="svg2"
	version="1.1"
	sodipodi:docname="manifold/vicur-flightbird14.png.txt">
<defs
	id="defs4" />
<metadata
	id="metadata7">
	<rdf:RDF>
		<cc:Work
			rdf:about="">
			<dc:format>image/svg+xml</dc:format>
			<dc:type
				rdf:resource="http://purl.org/dc/dcmitype/StillImage" />
			<dc:title></dc:title>
		</cc:Work>
	</rdf:RDF>
</metadata>
<g
	inkscape:label="Layer 1"
	inkscape:groupmode="layer"
	id="layer1">
	<path style="fill:none;stroke:red;stroke-width:1px;stroke-linecap:butt;stroke-linejoin:miter;stroke-opacity:1" d="M 4,865.209 16.073,881.306 z" id="boundary" inkscape:connector-curvature="0" />
	<path style="fill:none;stroke:red;stroke-width:1px;stroke-linecap:butt;stroke-linejoin:miter;stroke-opacity:1" d="M 4,865.209 24.1217,855.148 z" id="boundary" inkscape:connector-curvature="0" />
	<path style="fill:none;stroke:red;stroke-width:1px;stroke-linecap:butt;stroke-linejoin:miter;stroke-opacity:1" d="M 4,925.574 24.1217,915.513 z" id="boundary" inkscape:connector-curvature="0" />
	<path style="fill:none;stroke:red;stroke-width:1px;stroke-linecap:butt;stroke-linejoin:miter;stroke-opacity:1" d="M 4,925.574 34.1826,945.696 z" id="boundary" inkscape:connector-curvature="0" />
	<path style="fill:none;stroke:red;stroke-width:1px;stroke-linecap:butt;stroke-linejoin:miter;stroke-opacity:1" d="M 16.073,881.306 34.1826,895.391 z" id="boundary" inkscape:connector-curvature="0" />
	<path style="fill:none;stroke:red;stroke-width:1px;stroke-linecap:butt;stroke-linejoin:miter;stroke-opacity:1" d="M 24.1217,855.148 34.1826,824.966 z" id="boundary" inkscape:connector-curvature="0" />
	<path style="fill:none;stroke:red;stroke-width:1px;stroke-linecap:butt;stroke-linejoin:miter;stroke-opacity:1" d="M 24.1217,915.513 44.2434,915.513 z" id="boundary" inkscape:connector-curvature="0" />
	<path style="fill:none;stroke:red;stroke-width:1px;stroke-linecap:butt;stroke-linejoin:miter;stroke-opacity:1" d="M 34.1826,824.966 44.2434,804.844 z" id="boundary" inkscape:connector-curvature="0" />
	<path style="fill:none;stroke:red;stroke-width:1px;stroke-linecap:butt;stroke-linejoin:miter;stroke-opacity:1" d="M 34.1826,895.391 44.2434,915.513 z" id="boundary" inkscape:connector-curvature="0" />
	<path style="fill:none;stroke:red;stroke-width:1px;stroke-linecap:butt;stroke-linejoin:miter;stroke-opacity:1" d="M 34.1826,945.696 46.2556,961.793 z" id="boundary" inkscape:connector-curvature="0" />
	<path style="fill:none;stroke:red;stroke-width:1px;stroke-linecap:butt;stroke-linejoin:miter;stroke-opacity:1" d="M 44.2434,804.844 54.3043,784.722 z" id="boundary" inkscape:connector-curvature="0" />
	<path style="fill:none;stroke:red;stroke-width:1px;stroke-linecap:butt;stroke-linejoin:miter;stroke-opacity:1" d="M 44.2434,985.939 46.2556,961.793 z" id="boundary" inkscape:connector-curvature="0" />
	<path style="fill:none;stroke:red;stroke-width:1px;stroke-linecap:butt;stroke-linejoin:miter;stroke-opacity:1" d="M 44.2434,985.939 64.3651,985.939 z" id="boundary" inkscape:connector-curvature="0" />
	<path style="fill:none;stroke:red;stroke-width:1px;stroke-linecap:butt;stroke-linejoin:miter;stroke-opacity:1" d="M 54.3043,784.722 64.3651,764.6 z" id="boundary" inkscape:connector-curvature="0" />
	<path style="fill:none;stroke:red;stroke-width:1px;stroke-linecap:butt;stroke-linejoin:miter;stroke-opacity:1" d="M 64.3651,764.6 84.4868,744.479 z" id="boundary" inkscape:connector-curvature="0" />
	<path style="fill:none;stroke:red;stroke-width:1px;stroke-linecap:butt;stroke-linejoin:miter;stroke-opacity:1" d="M 64.3651,985.939 84.4868,975.878 z" id="boundary" inkscape:connector-curvature="0" />
	<path style="fill:none;stroke:red;stroke-width:1px;stroke-linecap:butt;stroke-linejoin:miter;stroke-opacity:1" d="M 84.4868,744.479 94.5477,714.296 z" id="boundary" inkscape:connector-curvature="0" />
	<path style="fill:none;stroke:red;stroke-width:1px;stroke-linecap:butt;stroke-linejoin:miter;stroke-opacity:1" d="M 84.4868,975.878 100.584,961.793 z" id="boundary" inkscape:connector-curvature="0" />
	<path style="fill:none;stroke:red;stroke-width:1px;stroke-linecap:butt;stroke-linejoin:miter;stroke-opacity:1" d="M 94.5477,714.296 104.609,694.174 z" id="boundary" inkscape:connector-curvature="0" />
	<path style="fill:none;stroke:red;stroke-width:1px;stroke-linecap:butt;stroke-linejoin:miter;stroke-opacity:1" d="M 100.584,961.793 104.609,981.915 z" id="boundary" inkscape:connector-curvature="0" />
	<path style="fill:none;stroke:red;stroke-width:1px;stroke-linecap:butt;stroke-linejoin:miter;stroke-opacity:1" d="M 104.609,694.174 114.669,674.053 z" id="boundary" inkscape:connector-curvature="0" />
	<path style="fill:none;stroke:red;stroke-width:1px;stroke-linecap:butt;stroke-linejoin:miter;stroke-opacity:1" d="M 104.609,981.915 124.73,975.878 z" id="boundary" inkscape:connector-curvature="0" />
	<path style="fill:none;stroke:red;stroke-width:1px;stroke-linecap:butt;stroke-linejoin:miter;stroke-opacity:1" d="M 114.669,674.053 124.73,653.931 z" id="boundary" inkscape:connector-curvature="0" />
	<path style="fill:none;stroke:red;stroke-width:1px;stroke-linecap:butt;stroke-linejoin:miter;stroke-opacity:1" d="M 124.73,653.931 140.828,637.834 z" id="boundary" inkscape:connector-curvature="0" />
	<path style="fill:none;stroke:red;stroke-width:1px;stroke-linecap:butt;stroke-linejoin:miter;stroke-opacity:1" d="M 124.73,975.878 134.791,955.757 z" id="boundary" inkscape:connector-curvature="0" />
	<path style="fill:none;stroke:red;stroke-width:1px;stroke-linecap:butt;stroke-linejoin:miter;stroke-opacity:1" d="M 134.791,955.757 150.888,939.659 z" id="boundary" inkscape:connector-curvature="0" />
	<path style="fill:none;stroke:red;stroke-width:1px;stroke-linecap:butt;stroke-linejoin:miter;stroke-opacity:1" d="M 140.828,637.834 154.913,613.688 z" id="boundary" inkscape:connector-curvature="0" />
	<path style="fill:none;stroke:red;stroke-width:1px;stroke-linecap:butt;stroke-linejoin:miter;stroke-opacity:1" d="M 150.888,939.659 166.986,921.55 z" id="boundary" inkscape:connector-curvature="0" />
	<path style="fill:none;stroke:red;stroke-width:1px;stroke-linecap:butt;stroke-linejoin:miter;stroke-opacity:1" d="M 154.913,613.688 171.01,597.59 z" id="boundary" inkscape:connector-curvature="0" />
	<path style="fill:none;stroke:red;stroke-width:1px;stroke-linecap:butt;stroke-linejoin:miter;stroke-opacity:1" d="M 166.986,921.55 183.083,907.465 z" id="boundary" inkscape:connector-curvature="0" />
	<path style="fill:none;stroke:red;stroke-width:1px;stroke-linecap:butt;stroke-linejoin:miter;stroke-opacity:1" d="M 171.01,597.59 187.108,581.493 z" id="boundary" inkscape:connector-curvature="0" />
	<path style="fill:none;stroke:red;stroke-width:1px;stroke-linecap:butt;stroke-linejoin:miter;stroke-opacity:1" d="M 183.083,907.465 197.168,891.367 z" id="boundary" inkscape:connector-curvature="0" />
	<path style="fill:none;stroke:red;stroke-width:1px;stroke-linecap:butt;stroke-linejoin:miter;stroke-opacity:1" d="M 187.108,581.493 203.205,567.408 z" id="boundary" inkscape:connector-curvature="0" />
	<path style="fill:none;stroke:red;stroke-width:1px;stroke-linecap:butt;stroke-linejoin:miter;stroke-opacity:1" d="M 197.168,891.367 217.29,881.306 z" id="boundary" inkscape:connector-curvature="0" />
	<path style="fill:none;stroke:red;stroke-width:1px;stroke-linecap:butt;stroke-linejoin:miter;stroke-opacity:1" d="M 203.205,567.408 223.327,567.408 z" id="boundary" inkscape:connector-curvature="0" />
	<path style="fill:none;stroke:red;stroke-width:1px;stroke-linecap:butt;stroke-linejoin:miter;stroke-opacity:1" d="M 217.29,881.306 233.387,867.221 z" id="boundary" inkscape:connector-curvature="0" />
	<path style="fill:none;stroke:red;stroke-width:1px;stroke-linecap:butt;stroke-linejoin:miter;stroke-opacity:1" d="M 223.327,567.408 241.436,557.347 z" id="boundary" inkscape:connector-curvature="0" />
	<path style="fill:none;stroke:red;stroke-width:1px;stroke-linecap:butt;stroke-linejoin:miter;stroke-opacity:1" d="M 233.387,867.221 247.473,851.124 z" id="boundary" inkscape:connector-curvature="0" />
	<path style="fill:none;stroke:red;stroke-width:1px;stroke-linecap:butt;stroke-linejoin:miter;stroke-opacity:1" d="M 241.436,557.347 257.533,541.249 z" id="boundary" inkscape:connector-curvature="0" />
	<path style="fill:none;stroke:red;stroke-width:1px;stroke-linecap:butt;stroke-linejoin:miter;stroke-opacity:1" d="M 247.473,851.124 257.533,831.002 z" id="boundary" inkscape:connector-curvature="0" />
	<path style="fill:none;stroke:red;stroke-width:1px;stroke-linecap:butt;stroke-linejoin:miter;stroke-opacity:1" d="M 257.533,541.249 277.655,537.225 z" id="boundary" inkscape:connector-curvature="0" />
	<path style="fill:none;stroke:red;stroke-width:1px;stroke-linecap:butt;stroke-linejoin:miter;stroke-opacity:1" d="M 257.533,831.002 267.594,810.88 z" id="boundary" inkscape:connector-curvature="0" />
	<path style="fill:none;stroke:red;stroke-width:1px;stroke-linecap:butt;stroke-linejoin:miter;stroke-opacity:1" d="M 267.594,810.88 287.716,800.819 z" id="boundary" inkscape:connector-curvature="0" />
	<path style="fill:none;stroke:red;stroke-width:1px;stroke-linecap:butt;stroke-linejoin:miter;stroke-opacity:1" d="M 277.655,537.225 295.765,527.164 z" id="boundary" inkscape:connector-curvature="0" />
	<path style="fill:none;stroke:red;stroke-width:1px;stroke-linecap:butt;stroke-linejoin:miter;stroke-opacity:1" d="M 285.704,321.923 295.765,340.032 z" id="boundary" inkscape:connector-curvature="0" />
	<path style="fill:none;stroke:red;stroke-width:1px;stroke-linecap:butt;stroke-linejoin:miter;stroke-opacity:1" d="M 285.704,321.923 305.826,319.911 z" id="boundary" inkscape:connector-curvature="0" />
	<path style="fill:none;stroke:red;stroke-width:1px;stroke-linecap:butt;stroke-linejoin:miter;stroke-opacity:1" d="M 287.716,800.819 303.813,786.734 z" id="boundary" inkscape:connector-curvature="0" />
	<path style="fill:none;stroke:red;stroke-width:1px;stroke-linecap:butt;stroke-linejoin:miter;stroke-opacity:1" d="M 295.765,340.032 305.826,358.142 z" id="boundary" inkscape:connector-curvature="0" />
	<path style="fill:none;stroke:red;stroke-width:1px;stroke-linecap:butt;stroke-linejoin:miter;stroke-opacity:1" d="M 295.765,527.164 313.874,517.103 z" id="boundary" inkscape:connector-curvature="0" />
	<path style="fill:none;stroke:red;stroke-width:1px;stroke-linecap:butt;stroke-linejoin:miter;stroke-opacity:1" d="M 303.813,786.734 317.899,770.637 z" id="boundary" inkscape:connector-curvature="0" />
	<path style="fill:none;stroke:red;stroke-width:1px;stroke-linecap:butt;stroke-linejoin:miter;stroke-opacity:1" d="M 305.826,319.911 317.899,336.008 z" id="boundary" inkscape:connector-curvature="0" />
	<path style="fill:none;stroke:red;stroke-width:1px;stroke-linecap:butt;stroke-linejoin:miter;stroke-opacity:1" d="M 305.826,358.142 305.826,378.264 z" id="boundary" inkscape:connector-curvature="0" />
	<path style="fill:none;stroke:red;stroke-width:1px;stroke-linecap:butt;stroke-linejoin:miter;stroke-opacity:1" d="M 305.826,378.264 315.886,396.373 z" id="boundary" inkscape:connector-curvature="0" />
	<path style="fill:none;stroke:red;stroke-width:1px;stroke-linecap:butt;stroke-linejoin:miter;stroke-opacity:1" d="M 313.874,517.103 321.923,496.982 z" id="boundary" inkscape:connector-curvature="0" />
	<path style="fill:none;stroke:red;stroke-width:1px;stroke-linecap:butt;stroke-linejoin:miter;stroke-opacity:1" d="M 315.886,396.373 327.959,412.471 z" id="boundary" inkscape:connector-curvature="0" />
	<path style="fill:none;stroke:red;stroke-width:1px;stroke-linecap:butt;stroke-linejoin:miter;stroke-opacity:1" d="M 317.899,336.008 338.02,336.008 z" id="boundary" inkscape:connector-curvature="0" />
	<path style="fill:none;stroke:red;stroke-width:1px;stroke-linecap:butt;stroke-linejoin:miter;stroke-opacity:1" d="M 317.899,770.637 338.02,770.637 z" id="boundary" inkscape:connector-curvature="0" />
	<path style="fill:none;stroke:red;stroke-width:1px;stroke-linecap:butt;stroke-linejoin:miter;stroke-opacity:1" d="M 321.923,496.982 331.984,476.86 z" id="boundary" inkscape:connector-curvature="0" />
	<path style="fill:none;stroke:red;stroke-width:1px;stroke-linecap:butt;stroke-linejoin:miter;stroke-opacity:1" d="M 327.959,412.471 346.069,422.531 z" id="boundary" inkscape:connector-curvature="0" />
	<path style="fill:none;stroke:red;stroke-width:1px;stroke-linecap:butt;stroke-linejoin:miter;stroke-opacity:1" d="M 331.984,476.86 352.105,466.799 z" id="boundary" inkscape:connector-curvature="0" />
	<path style="fill:none;stroke:red;stroke-width:1px;stroke-linecap:butt;stroke-linejoin:miter;stroke-opacity:1" d="M 338.02,336.008 358.142,336.008 z" id="boundary" inkscape:connector-curvature="0" />
	<path style="fill:none;stroke:red;stroke-width:1px;stroke-linecap:butt;stroke-linejoin:miter;stroke-opacity:1" d="M 338.02,770.637 356.13,760.576 z" id="boundary" inkscape:connector-curvature="0" />
	<path style="fill:none;stroke:red;stroke-width:1px;stroke-linecap:butt;stroke-linejoin:miter;stroke-opacity:1" d="M 346.069,422.531 356.13,440.641 z" id="boundary" inkscape:connector-curvature="0" />
	<path style="fill:none;stroke:red;stroke-width:1px;stroke-linecap:butt;stroke-linejoin:miter;stroke-opacity:1" d="M 352.105,466.799 356.13,440.641 z" id="boundary" inkscape:connector-curvature="0" />
	<path style="fill:none;stroke:red;stroke-width:1px;stroke-linecap:butt;stroke-linejoin:miter;stroke-opacity:1" d="M 356.13,760.576 372.227,748.503 z" id="boundary" inkscape:connector-curvature="0" />
	<path style="fill:none;stroke:red;stroke-width:1px;stroke-linecap:butt;stroke-linejoin:miter;stroke-opacity:1" d="M 358.142,336.008 378.264,342.045 z" id="boundary" inkscape:connector-curvature="0" />
	<path style="fill:none;stroke:red;stroke-width:1px;stroke-linecap:butt;stroke-linejoin:miter;stroke-opacity:1" d="M 372.227,748.503 392.349,738.442 z" id="boundary" inkscape:connector-curvature="0" />
	<path style="fill:none;stroke:red;stroke-width:1px;stroke-linecap:butt;stroke-linejoin:miter;stroke-opacity:1" d="M 378.264,342.045 394.361,356.13 z" id="boundary" inkscape:connector-curvature="0" />
	<path style="fill:none;stroke:red;stroke-width:1px;stroke-linecap:butt;stroke-linejoin:miter;stroke-opacity:1" d="M 392.349,738.442 402.41,720.333 z" id="boundary" inkscape:connector-curvature="0" />
	<path style="fill:none;stroke:red;stroke-width:1px;stroke-linecap:butt;stroke-linejoin:miter;stroke-opacity:1" d="M 394.361,356.13 414.483,358.142 z" id="boundary" inkscape:connector-curvature="0" />
	<path style="fill:none;stroke:red;stroke-width:1px;stroke-linecap:butt;stroke-linejoin:miter;stroke-opacity:1" d="M 402.41,720.333 422.531,718.32 z" id="boundary" inkscape:connector-curvature="0" />
	<path style="fill:none;stroke:red;stroke-width:1px;stroke-linecap:butt;stroke-linejoin:miter;stroke-opacity:1" d="M 414.483,358.142 434.604,366.191 z" id="boundary" inkscape:connector-curvature="0" />
	<path style="fill:none;stroke:red;stroke-width:1px;stroke-linecap:butt;stroke-linejoin:miter;stroke-opacity:1" d="M 422.531,718.32 438.629,700.211 z" id="boundary" inkscape:connector-curvature="0" />
	<path style="fill:none;stroke:red;stroke-width:1px;stroke-linecap:butt;stroke-linejoin:miter;stroke-opacity:1" d="M 434.604,366.191 454.726,366.191 z" id="boundary" inkscape:connector-curvature="0" />
	<path style="fill:none;stroke:red;stroke-width:1px;stroke-linecap:butt;stroke-linejoin:miter;stroke-opacity:1" d="M 438.629,700.211 458.751,690.15 z" id="boundary" inkscape:connector-curvature="0" />
	<path style="fill:none;stroke:red;stroke-width:1px;stroke-linecap:butt;stroke-linejoin:miter;stroke-opacity:1" d="M 454.726,366.191 472.836,356.13 z" id="boundary" inkscape:connector-curvature="0" />
	<path style="fill:none;stroke:red;stroke-width:1px;stroke-linecap:butt;stroke-linejoin:miter;stroke-opacity:1" d="M 458.751,690.15 478.872,680.089 z" id="boundary" inkscape:connector-curvature="0" />
	<path style="fill:none;stroke:red;stroke-width:1px;stroke-linecap:butt;stroke-linejoin:miter;stroke-opacity:1" d="M 472.836,356.13 482.897,336.008 z" id="boundary" inkscape:connector-curvature="0" />
	<path style="fill:none;stroke:red;stroke-width:1px;stroke-linecap:butt;stroke-linejoin:miter;stroke-opacity:1" d="M 478.872,680.089 498.994,670.028 z" id="boundary" inkscape:connector-curvature="0" />
	<path style="fill:none;stroke:red;stroke-width:1px;stroke-linecap:butt;stroke-linejoin:miter;stroke-opacity:1" d="M 482.897,336.008 498.994,319.911 z" id="boundary" inkscape:connector-curvature="0" />
	<path style="fill:none;stroke:red;stroke-width:1px;stroke-linecap:butt;stroke-linejoin:miter;stroke-opacity:1" d="M 498.994,319.911 515.091,305.826 z" id="boundary" inkscape:connector-curvature="0" />
	<path style="fill:none;stroke:red;stroke-width:1px;stroke-linecap:butt;stroke-linejoin:miter;stroke-opacity:1" d="M 498.994,670.028 515.091,655.943 z" id="boundary" inkscape:connector-curvature="0" />
	<path style="fill:none;stroke:red;stroke-width:1px;stroke-linecap:butt;stroke-linejoin:miter;stroke-opacity:1" d="M 515.091,305.826 517.103,281.68 z" id="boundary" inkscape:connector-curvature="0" />
	<path style="fill:none;stroke:red;stroke-width:1px;stroke-linecap:butt;stroke-linejoin:miter;stroke-opacity:1" d="M 515.091,655.943 525.152,635.822 z" id="boundary" inkscape:connector-curvature="0" />
	<path style="fill:none;stroke:red;stroke-width:1px;stroke-linecap:butt;stroke-linejoin:miter;stroke-opacity:1" d="M 517.103,281.68 527.164,261.558 z" id="boundary" inkscape:connector-curvature="0" />
	<path style="fill:none;stroke:red;stroke-width:1px;stroke-linecap:butt;stroke-linejoin:miter;stroke-opacity:1" d="M 525.152,635.822 545.274,629.785 z" id="boundary" inkscape:connector-curvature="0" />
	<path style="fill:none;stroke:red;stroke-width:1px;stroke-linecap:butt;stroke-linejoin:miter;stroke-opacity:1" d="M 527.164,261.558 547.286,251.497 z" id="boundary" inkscape:connector-curvature="0" />
	<path style="fill:none;stroke:red;stroke-width:1px;stroke-linecap:butt;stroke-linejoin:miter;stroke-opacity:1" d="M 545.274,629.785 563.383,639.846 z" id="boundary" inkscape:connector-curvature="0" />
	<path style="fill:none;stroke:red;stroke-width:1px;stroke-linecap:butt;stroke-linejoin:miter;stroke-opacity:1" d="M 547.286,231.375 547.286,251.497 z" id="boundary" inkscape:connector-curvature="0" />
	<path style="fill:none;stroke:red;stroke-width:1px;stroke-linecap:butt;stroke-linejoin:miter;stroke-opacity:1" d="M 547.286,231.375 563.383,215.278 z" id="boundary" inkscape:connector-curvature="0" />
	<path style="fill:none;stroke:red;stroke-width:1px;stroke-linecap:butt;stroke-linejoin:miter;stroke-opacity:1" d="M 563.383,215.278 573.444,195.156 z" id="boundary" inkscape:connector-curvature="0" />
	<path style="fill:none;stroke:red;stroke-width:1px;stroke-linecap:butt;stroke-linejoin:miter;stroke-opacity:1" d="M 563.383,639.846 577.469,655.943 z" id="boundary" inkscape:connector-curvature="0" />
	<path style="fill:none;stroke:red;stroke-width:1px;stroke-linecap:butt;stroke-linejoin:miter;stroke-opacity:1" d="M 573.444,195.156 587.529,171.01 z" id="boundary" inkscape:connector-curvature="0" />
	<path style="fill:none;stroke:red;stroke-width:1px;stroke-linecap:butt;stroke-linejoin:miter;stroke-opacity:1" d="M 577.469,655.943 587.529,674.053 z" id="boundary" inkscape:connector-curvature="0" />
	<path style="fill:none;stroke:red;stroke-width:1px;stroke-linecap:butt;stroke-linejoin:miter;stroke-opacity:1" d="M 587.529,171.01 607.651,160.949 z" id="boundary" inkscape:connector-curvature="0" />
	<path style="fill:none;stroke:red;stroke-width:1px;stroke-linecap:butt;stroke-linejoin:miter;stroke-opacity:1" d="M 587.529,674.053 599.602,690.15 z" id="boundary" inkscape:connector-curvature="0" />
	<path style="fill:none;stroke:red;stroke-width:1px;stroke-linecap:butt;stroke-linejoin:miter;stroke-opacity:1" d="M 599.602,690.15 611.675,706.247 z" id="boundary" inkscape:connector-curvature="0" />
	<path style="fill:none;stroke:red;stroke-width:1px;stroke-linecap:butt;stroke-linejoin:miter;stroke-opacity:1" d="M 607.651,160.949 627.773,150.888 z" id="boundary" inkscape:connector-curvature="0" />
	<path style="fill:none;stroke:red;stroke-width:1px;stroke-linecap:butt;stroke-linejoin:miter;stroke-opacity:1" d="M 611.675,706.247 627.773,720.333 z" id="boundary" inkscape:connector-curvature="0" />
	<path style="fill:none;stroke:red;stroke-width:1px;stroke-linecap:butt;stroke-linejoin:miter;stroke-opacity:1" d="M 627.773,150.888 643.87,134.791 z" id="boundary" inkscape:connector-curvature="0" />
	<path style="fill:none;stroke:red;stroke-width:1px;stroke-linecap:butt;stroke-linejoin:miter;stroke-opacity:1" d="M 627.773,720.333 627.773,740.454 z" id="boundary" inkscape:connector-curvature="0" />
	<path style="fill:none;stroke:red;stroke-width:1px;stroke-linecap:butt;stroke-linejoin:miter;stroke-opacity:1" d="M 627.773,740.454 639.846,756.552 z" id="boundary" inkscape:connector-curvature="0" />
	<path style="fill:none;stroke:red;stroke-width:1px;stroke-linecap:butt;stroke-linejoin:miter;stroke-opacity:1" d="M 629.785,529.176 639.846,547.286 z" id="boundary" inkscape:connector-curvature="0" />
	<path style="fill:none;stroke:red;stroke-width:1px;stroke-linecap:butt;stroke-linejoin:miter;stroke-opacity:1" d="M 629.785,529.176 649.907,519.116 z" id="boundary" inkscape:connector-curvature="0" />
	<path style="fill:none;stroke:red;stroke-width:1px;stroke-linecap:butt;stroke-linejoin:miter;stroke-opacity:1" d="M 639.846,547.286 655.943,559.359 z" id="boundary" inkscape:connector-curvature="0" />
	<path style="fill:none;stroke:red;stroke-width:1px;stroke-linecap:butt;stroke-linejoin:miter;stroke-opacity:1" d="M 639.846,756.552 659.968,764.6 z" id="boundary" inkscape:connector-curvature="0" />
	<path style="fill:none;stroke:red;stroke-width:1px;stroke-linecap:butt;stroke-linejoin:miter;stroke-opacity:1" d="M 643.87,134.791 663.992,124.73 z" id="boundary" inkscape:connector-curvature="0" />
	<path style="fill:none;stroke:red;stroke-width:1px;stroke-linecap:butt;stroke-linejoin:miter;stroke-opacity:1" d="M 649.907,519.116 659.968,498.994 z" id="boundary" inkscape:connector-curvature="0" />
	<path style="fill:none;stroke:red;stroke-width:1px;stroke-linecap:butt;stroke-linejoin:miter;stroke-opacity:1" d="M 655.943,559.359 676.065,567.408 z" id="boundary" inkscape:connector-curvature="0" />
	<path style="fill:none;stroke:red;stroke-width:1px;stroke-linecap:butt;stroke-linejoin:miter;stroke-opacity:1" d="M 659.968,498.994 680.089,488.933 z" id="boundary" inkscape:connector-curvature="0" />
	<path style="fill:none;stroke:red;stroke-width:1px;stroke-linecap:butt;stroke-linejoin:miter;stroke-opacity:1" d="M 659.968,764.6 680.089,770.637 z" id="boundary" inkscape:connector-curvature="0" />
	<path style="fill:none;stroke:red;stroke-width:1px;stroke-linecap:butt;stroke-linejoin:miter;stroke-opacity:1" d="M 663.992,124.73 684.114,114.669 z" id="boundary" inkscape:connector-curvature="0" />
	<path style="fill:none;stroke:red;stroke-width:1px;stroke-linecap:butt;stroke-linejoin:miter;stroke-opacity:1" d="M 676.065,567.408 694.174,577.469 z" id="boundary" inkscape:connector-curvature="0" />
	<path style="fill:none;stroke:red;stroke-width:1px;stroke-linecap:butt;stroke-linejoin:miter;stroke-opacity:1" d="M 680.089,488.933 690.15,468.811 z" id="boundary" inkscape:connector-curvature="0" />
	<path style="fill:none;stroke:red;stroke-width:1px;stroke-linecap:butt;stroke-linejoin:miter;stroke-opacity:1" d="M 680.089,770.637 700.211,770.637 z" id="boundary" inkscape:connector-curvature="0" />
	<path style="fill:none;stroke:red;stroke-width:1px;stroke-linecap:butt;stroke-linejoin:miter;stroke-opacity:1" d="M 684.114,114.669 704.235,104.609 z" id="boundary" inkscape:connector-curvature="0" />
	<path style="fill:none;stroke:red;stroke-width:1px;stroke-linecap:butt;stroke-linejoin:miter;stroke-opacity:1" d="M 690.15,468.811 700.211,448.69 z" id="boundary" inkscape:connector-curvature="0" />
	<path style="fill:none;stroke:red;stroke-width:1px;stroke-linecap:butt;stroke-linejoin:miter;stroke-opacity:1" d="M 694.174,577.469 712.284,587.529 z" id="boundary" inkscape:connector-curvature="0" />
	<path style="fill:none;stroke:red;stroke-width:1px;stroke-linecap:butt;stroke-linejoin:miter;stroke-opacity:1" d="M 700.211,448.69 716.308,434.604 z" id="boundary" inkscape:connector-curvature="0" />
	<path style="fill:none;stroke:red;stroke-width:1px;stroke-linecap:butt;stroke-linejoin:miter;stroke-opacity:1" d="M 700.211,770.637 720.333,770.637 z" id="boundary" inkscape:connector-curvature="0" />
	<path style="fill:none;stroke:red;stroke-width:1px;stroke-linecap:butt;stroke-linejoin:miter;stroke-opacity:1" d="M 704.235,104.609 724.357,94.5477 z" id="boundary" inkscape:connector-curvature="0" />
	<path style="fill:none;stroke:red;stroke-width:1px;stroke-linecap:butt;stroke-linejoin:miter;stroke-opacity:1" d="M 712.284,587.529 732.406,587.529 z" id="boundary" inkscape:connector-curvature="0" />
	<path style="fill:none;stroke:red;stroke-width:1px;stroke-linecap:butt;stroke-linejoin:miter;stroke-opacity:1" d="M 716.308,434.604 728.381,418.507 z" id="boundary" inkscape:connector-curvature="0" />
	<path style="fill:none;stroke:red;stroke-width:1px;stroke-linecap:butt;stroke-linejoin:miter;stroke-opacity:1" d="M 720.333,770.637 740.454,770.637 z" id="boundary" inkscape:connector-curvature="0" />
	<path style="fill:none;stroke:red;stroke-width:1px;stroke-linecap:butt;stroke-linejoin:miter;stroke-opacity:1" d="M 724.357,94.5477 744.479,94.5477 z" id="boundary" inkscape:connector-curvature="0" />
	<path style="fill:none;stroke:red;stroke-width:1px;stroke-linecap:butt;stroke-linejoin:miter;stroke-opacity:1" d="M 728.381,418.507 740.454,388.325 z" id="boundary" inkscape:connector-curvature="0" />
	<path style="fill:none;stroke:red;stroke-width:1px;stroke-linecap:butt;stroke-linejoin:miter;stroke-opacity:1" d="M 732.406,587.529 750.515,597.59 z" id="boundary" inkscape:connector-curvature="0" />
	<path style="fill:none;stroke:red;stroke-width:1px;stroke-linecap:butt;stroke-linejoin:miter;stroke-opacity:1" d="M 740.454,388.325 750.515,368.203 z" id="boundary" inkscape:connector-curvature="0" />
	<path style="fill:none;stroke:red;stroke-width:1px;stroke-linecap:butt;stroke-linejoin:miter;stroke-opacity:1" d="M 740.454,770.637 758.564,760.576 z" id="boundary" inkscape:connector-curvature="0" />
	<path style="fill:none;stroke:red;stroke-width:1px;stroke-linecap:butt;stroke-linejoin:miter;stroke-opacity:1" d="M 744.479,94.5477 760.576,78.4503 z" id="boundary" inkscape:connector-curvature="0" />
	<path style="fill:none;stroke:red;stroke-width:1px;stroke-linecap:butt;stroke-linejoin:miter;stroke-opacity:1" d="M 750.515,368.203 760.576,348.081 z" id="boundary" inkscape:connector-curvature="0" />
	<path style="fill:none;stroke:red;stroke-width:1px;stroke-linecap:butt;stroke-linejoin:miter;stroke-opacity:1" d="M 750.515,597.59 768.625,607.651 z" id="boundary" inkscape:connector-curvature="0" />
	<path style="fill:none;stroke:red;stroke-width:1px;stroke-linecap:butt;stroke-linejoin:miter;stroke-opacity:1" d="M 758.564,760.576 774.661,748.503 z" id="boundary" inkscape:connector-curvature="0" />
	<path style="fill:none;stroke:red;stroke-width:1px;stroke-linecap:butt;stroke-linejoin:miter;stroke-opacity:1" d="M 760.576,78.4503 778.686,60.3408 z" id="boundary" inkscape:connector-curvature="0" />
	<path style="fill:none;stroke:red;stroke-width:1px;stroke-linecap:butt;stroke-linejoin:miter;stroke-opacity:1" d="M 760.576,348.081 770.637,327.959 z" id="boundary" inkscape:connector-curvature="0" />
	<path style="fill:none;stroke:red;stroke-width:1px;stroke-linecap:butt;stroke-linejoin:miter;stroke-opacity:1" d="M 768.625,607.651 780.698,623.748 z" id="boundary" inkscape:connector-curvature="0" />
	<path style="fill:none;stroke:red;stroke-width:1px;stroke-linecap:butt;stroke-linejoin:miter;stroke-opacity:1" d="M 770.637,327.959 780.698,307.838 z" id="boundary" inkscape:connector-curvature="0" />
	<path style="fill:none;stroke:red;stroke-width:1px;stroke-linecap:butt;stroke-linejoin:miter;stroke-opacity:1" d="M 774.661,748.503 790.759,724.357 z" id="boundary" inkscape:connector-curvature="0" />
	<path style="fill:none;stroke:red;stroke-width:1px;stroke-linecap:butt;stroke-linejoin:miter;stroke-opacity:1" d="M 778.686,60.3408 798.807,54.3043 z" id="boundary" inkscape:connector-curvature="0" />
	<path style="fill:none;stroke:red;stroke-width:1px;stroke-linecap:butt;stroke-linejoin:miter;stroke-opacity:1" d="M 780.698,307.838 798.807,297.777 z" id="boundary" inkscape:connector-curvature="0" />
	<path style="fill:none;stroke:red;stroke-width:1px;stroke-linecap:butt;stroke-linejoin:miter;stroke-opacity:1" d="M 780.698,623.748 788.746,643.87 z" id="boundary" inkscape:connector-curvature="0" />
	<path style="fill:none;stroke:red;stroke-width:1px;stroke-linecap:butt;stroke-linejoin:miter;stroke-opacity:1" d="M 788.746,643.87 790.759,663.992 z" id="boundary" inkscape:connector-curvature="0" />
	<path style="fill:none;stroke:red;stroke-width:1px;stroke-linecap:butt;stroke-linejoin:miter;stroke-opacity:1" d="M 790.759,663.992 790.759,684.114 z" id="boundary" inkscape:connector-curvature="0" />
	<path style="fill:none;stroke:red;stroke-width:1px;stroke-linecap:butt;stroke-linejoin:miter;stroke-opacity:1" d="M 790.759,684.114 790.759,704.235 z" id="boundary" inkscape:connector-curvature="0" />
	<path style="fill:none;stroke:red;stroke-width:1px;stroke-linecap:butt;stroke-linejoin:miter;stroke-opacity:1" d="M 790.759,704.235 790.759,724.357 z" id="boundary" inkscape:connector-curvature="0" />
	<path style="fill:none;stroke:red;stroke-width:1px;stroke-linecap:butt;stroke-linejoin:miter;stroke-opacity:1" d="M 798.807,54.3043 816.917,44.2434 z" id="boundary" inkscape:connector-curvature="0" />
	<path style="fill:none;stroke:red;stroke-width:1px;stroke-linecap:butt;stroke-linejoin:miter;stroke-opacity:1" d="M 798.807,297.777 810.88,277.655 z" id="boundary" inkscape:connector-curvature="0" />
	<path style="fill:none;stroke:red;stroke-width:1px;stroke-linecap:butt;stroke-linejoin:miter;stroke-opacity:1" d="M 810.88,277.655 826.978,263.57 z" id="boundary" inkscape:connector-curvature="0" />
	<path style="fill:none;stroke:red;stroke-width:1px;stroke-linecap:butt;stroke-linejoin:miter;stroke-opacity:1" d="M 816.917,44.2434 835.026,34.1826 z" id="boundary" inkscape:connector-curvature="0" />
	<path style="fill:none;stroke:red;stroke-width:1px;stroke-linecap:butt;stroke-linejoin:miter;stroke-opacity:1" d="M 826.978,263.57 841.063,247.473 z" id="boundary" inkscape:connector-curvature="0" />
	<path style="fill:none;stroke:red;stroke-width:1px;stroke-linecap:butt;stroke-linejoin:miter;stroke-opacity:1" d="M 835.026,34.1826 851.124,18.0852 z" id="boundary" inkscape:connector-curvature="0" />
	<path style="fill:none;stroke:red;stroke-width:1px;stroke-linecap:butt;stroke-linejoin:miter;stroke-opacity:1" d="M 841.063,247.473 859.172,237.412 z" id="boundary" inkscape:connector-curvature="0" />
	<path style="fill:none;stroke:red;stroke-width:1px;stroke-linecap:butt;stroke-linejoin:miter;stroke-opacity:1" d="M 851.124,18.0852 869.233,30.1582 z" id="boundary" inkscape:connector-curvature="0" />
	<path style="fill:none;stroke:red;stroke-width:1px;stroke-linecap:butt;stroke-linejoin:miter;stroke-opacity:1" d="M 853.136,44.2434 869.233,30.1582 z" id="boundary" inkscape:connector-curvature="0" />
	<path style="fill:none;stroke:red;stroke-width:1px;stroke-linecap:butt;stroke-linejoin:miter;stroke-opacity:1" d="M 853.136,44.2434 885.331,44.2434 z" id="boundary" inkscape:connector-curvature="0" />
	<path style="fill:none;stroke:red;stroke-width:1px;stroke-linecap:butt;stroke-linejoin:miter;stroke-opacity:1" d="M 859.172,237.412 875.27,225.339 z" id="boundary" inkscape:connector-curvature="0" />
	<path style="fill:none;stroke:red;stroke-width:1px;stroke-linecap:butt;stroke-linejoin:miter;stroke-opacity:1" d="M 875.27,225.339 891.367,207.229 z" id="boundary" inkscape:connector-curvature="0" />
	<path style="fill:none;stroke:red;stroke-width:1px;stroke-linecap:butt;stroke-linejoin:miter;stroke-opacity:1" d="M 885.331,44.2434 901.428,28.146 z" id="boundary" inkscape:connector-curvature="0" />
	<path style="fill:none;stroke:red;stroke-width:1px;stroke-linecap:butt;stroke-linejoin:miter;stroke-opacity:1" d="M 891.367,207.229 907.465,193.144 z" id="boundary" inkscape:connector-curvature="0" />
	<path style="fill:none;stroke:red;stroke-width:1px;stroke-linecap:butt;stroke-linejoin:miter;stroke-opacity:1" d="M 901.428,28.146 919.538,10.0365 z" id="boundary" inkscape:connector-curvature="0" />
	<path style="fill:none;stroke:red;stroke-width:1px;stroke-linecap:butt;stroke-linejoin:miter;stroke-opacity:1" d="M 907.465,193.144 921.55,177.047 z" id="boundary" inkscape:connector-curvature="0" />
	<path style="fill:none;stroke:red;stroke-width:1px;stroke-linecap:butt;stroke-linejoin:miter;stroke-opacity:1" d="M 919.538,10.0365 941.671,24.1217 z" id="boundary" inkscape:connector-curvature="0" />
	<path style="fill:none;stroke:red;stroke-width:1px;stroke-linecap:butt;stroke-linejoin:miter;stroke-opacity:1" d="M 921.55,36.1947 941.671,44.2434 z" id="boundary" inkscape:connector-curvature="0" />
	<path style="fill:none;stroke:red;stroke-width:1px;stroke-linecap:butt;stroke-linejoin:miter;stroke-opacity:1" d="M 921.55,156.925 921.55,177.047 z" id="boundary" inkscape:connector-curvature="0" />
	<path style="fill:none;stroke:red;stroke-width:1px;stroke-linecap:butt;stroke-linejoin:miter;stroke-opacity:1" d="M 921.55,156.925 941.671,146.864 z" id="boundary" inkscape:connector-curvature="0" />
	<path style="fill:none;stroke:red;stroke-width:1px;stroke-linecap:butt;stroke-linejoin:miter;stroke-opacity:1" d="M 939.659,4 971.854,18.0852 z" id="boundary" inkscape:connector-curvature="0" />
	<path style="fill:none;stroke:red;stroke-width:1px;stroke-linecap:butt;stroke-linejoin:miter;stroke-opacity:1" d="M 941.671,24.1217 959.781,34.1826 z" id="boundary" inkscape:connector-curvature="0" />
	<path style="fill:none;stroke:red;stroke-width:1px;stroke-linecap:butt;stroke-linejoin:miter;stroke-opacity:1" d="M 941.671,146.864 957.769,132.779 z" id="boundary" inkscape:connector-curvature="0" />
	<path style="fill:none;stroke:red;stroke-width:1px;stroke-linecap:butt;stroke-linejoin:miter;stroke-opacity:1" d="M 957.769,132.779 977.89,122.718 z" id="boundary" inkscape:connector-curvature="0" />
	<path style="fill:none;stroke:red;stroke-width:1px;stroke-linecap:butt;stroke-linejoin:miter;stroke-opacity:1" d="M 959.781,34.1826 971.854,50.2799 z" id="boundary" inkscape:connector-curvature="0" />
	<path style="fill:none;stroke:red;stroke-width:1px;stroke-linecap:butt;stroke-linejoin:miter;stroke-opacity:1" d="M 971.854,18.0852 991.976,44.2434 z" id="boundary" inkscape:connector-curvature="0" />
	<path style="fill:none;stroke:red;stroke-width:1px;stroke-linecap:butt;stroke-linejoin:miter;stroke-opacity:1" d="M 971.854,50.2799 989.963,76.4381 z" id="boundary" inkscape:connector-curvature="0" />
	<path style="fill:none;stroke:red;stroke-width:1px;stroke-linecap:butt;stroke-linejoin:miter;stroke-opacity:1" d="M 977.89,122.718 996,96.5598 z" id="boundary" inkscape:connector-curvature="0" />
	<path style="fill:none;stroke:red;stroke-width:1px;stroke-linecap:butt;stroke-linejoin:miter;stroke-opacity:1" d="M 989.963,76.4381 996,96.5598 z" id="boundary" inkscape:connector-curvature="0" />
	<circle cx="4" cy="865.209" r="4" fill="#0" id="circle0"/>
	<circle cx="4" cy="925.574" r="4" fill="#0" id="circle1"/>
	<circle cx="16.073" cy="881.306" r="4" fill="#0" id="circle2"/>
	<circle cx="24.1217" cy="855.148" r="4" fill="#0" id="circle3"/>
	<circle cx="24.1217" cy="915.513" r="4" fill="#0" id="circle4"/>
	<circle cx="34.1826" cy="824.966" r="4" fill="#0" id="circle5"/>
	<circle cx="34.1826" cy="895.391" r="4" fill="#0" id="circle6"/>
	<circle cx="34.1826" cy="945.696" r="4" fill="#0" id="circle7"/>
	<circle cx="44.2434" cy="804.844" r="4" fill="#0" id="circle8"/>
	<circle cx="44.2434" cy="861.185" r="4" fill="#0" id="circle9"/>
	<circle cx="44.2434" cy="915.513" r="4" fill="#0" id="circle10"/>
	<circle cx="44.2434" cy="985.939" r="4" fill="#0" id="circle11"/>
	<circle cx="46.2556" cy="961.793" r="4" fill="#0" id="circle12"/>
	<circle cx="54.3043" cy="784.722" r="4" fill="#0" id="circle13"/>
	<circle cx="64.3651" cy="764.6" r="4" fill="#0" id="circle14"/>
	<circle cx="64.3651" cy="985.939" r="4" fill="#0" id="circle15"/>
	<circle cx="84.4868" cy="744.479" r="4" fill="#0" id="circle16"/>
	<circle cx="84.4868" cy="975.878" r="4" fill="#0" id="circle17"/>
	<circle cx="94.5477" cy="714.296" r="4" fill="#0" id="circle18"/>
	<circle cx="100.584" cy="961.793" r="4" fill="#0" id="circle19"/>
	<circle cx="104.609" cy="694.174" r="4" fill="#0" id="circle20"/>
	<circle cx="104.609" cy="981.915" r="4" fill="#0" id="circle21"/>
	<circle cx="114.669" cy="674.053" r="4" fill="#0" id="circle22"/>
	<circle cx="124.73" cy="653.931" r="4" fill="#0" id="circle23"/>
	<circle cx="124.73" cy="975.878" r="4" fill="#0" id="circle24"/>
	<circle cx="134.791" cy="955.757" r="4" fill="#0" id="circle25"/>
	<circle cx="140.828" cy="637.834" r="4" fill="#0" id="circle26"/>
	<circle cx="150.888" cy="939.659" r="4" fill="#0" id="circle27"/>
	<circle cx="154.913" cy="613.688" r="4" fill="#0" id="circle28"/>
	<circle cx="166.986" cy="921.55" r="4" fill="#0" id="circle29"/>
	<circle cx="171.01" cy="597.59" r="4" fill="#0" id="circle30"/>
	<circle cx="183.083" cy="907.465" r="4" fill="#0" id="circle31"/>
	<circle cx="187.108" cy="581.493" r="4" fill="#0" id="circle32"/>
	<circle cx="197.168" cy="891.367" r="4" fill="#0" id="circle33"/>
	<circle cx="203.205" cy="567.408" r="4" fill="#0" id="circle34"/>
	<circle cx="217.29" cy="881.306" r="4" fill="#0" id="circle35"/>
	<circle cx="223.327" cy="567.408" r="4" fill="#0" id="circle36"/>
	<circle cx="233.387" cy="867.221" r="4" fill="#0" id="circle37"/>
	<circle cx="241.436" cy="557.347" r="4" fill="#0" id="circle38"/>
	<circle cx="247.473" cy="851.124" r="4" fill="#0" id="circle39"/>
	<circle cx="257.533" cy="541.249" r="4" fill="#0" id="circle40"/>
	<circle cx="257.533" cy="831.002" r="4" fill="#0" id="circle41"/>
	<circle cx="267.594" cy="810.88" r="4" fill="#0" id="circle42"/>
	<circle cx="277.655" cy="537.225" r="4" fill="#0" id="circle43"/>
	<circle cx="285.704" cy="321.923" r="4" fill="#0" id="circle44"/>
	<circle cx="287.716" cy="800.819" r="4" fill="#0" id="circle45"/>
	<circle cx="295.765" cy="340.032" r="4" fill="#0" id="circle46"/>
	<circle cx="295.765" cy="527.164" r="4" fill="#0" id="circle47"/>
	<circle cx="303.813" cy="786.734" r="4" fill="#0" id="circle48"/>
	<circle cx="305.826" cy="319.911" r="4" fill="#0" id="circle49"/>
	<circle cx="305.826" cy="358.142" r="4" fill="#0" id="circle50"/>
	<circle cx="305.826" cy="378.264" r="4" fill="#0" id="circle51"/>
	<circle cx="313.874" cy="517.103" r="4" fill="#0" id="circle52"/>
	<circle cx="315.886" cy="396.373" r="4" fill="#0" id="circle53"/>
	<circle cx="317.899" cy="336.008" r="4" fill="#0" id="circle54"/>
	<circle cx="317.899" cy="770.637" r="4" fill="#0" id="circle55"/>
	<circle cx="321.923" cy="496.982" r="4" fill="#0" id="circle56"/>
	<circle cx="327.959" cy="412.471" r="4" fill="#0" id="circle57"/>
	<circle cx="331.984" cy="476.86" r="4" fill="#0" id="circle58"/>
	<circle cx="338.02" cy="336.008" r="4" fill="#0" id="circle59"/>
	<circle cx="338.02" cy="770.637" r="4" fill="#0" id="circle60"/>
	<circle cx="346.069" cy="422.531" r="4" fill="#0" id="circle61"/>
	<circle cx="352.105" cy="466.799" r="4" fill="#0" id="circle62"/>
	<circle cx="356.13" cy="440.641" r="4" fill="#0" id="circle63"/>
	<circle cx="356.13" cy="760.576" r="4" fill="#0" id="circle64"/>
	<circle cx="358.142" cy="336.008" r="4" fill="#0" id="circle65"/>
	<circle cx="372.227" cy="748.503" r="4" fill="#0" id="circle66"/>
	<circle cx="378.264" cy="342.045" r="4" fill="#0" id="circle67"/>
	<circle cx="392.349" cy="738.442" r="4" fill="#0" id="circle68"/>
	<circle cx="394.361" cy="356.13" r="4" fill="#0" id="circle69"/>
	<circle cx="402.41" cy="720.333" r="4" fill="#0" id="circle70"/>
	<circle cx="414.483" cy="358.142" r="4" fill="#0" id="circle71"/>
	<circle cx="422.531" cy="718.32" r="4" fill="#0" id="circle72"/>
	<circle cx="434.604" cy="366.191" r="4" fill="#0" id="circle73"/>
	<circle cx="438.629" cy="700.211" r="4" fill="#0" id="circle74"/>
	<circle cx="454.726" cy="366.191" r="4" fill="#0" id="circle75"/>
	<circle cx="458.751" cy="690.15" r="4" fill="#0" id="circle76"/>
	<circle cx="472.836" cy="356.13" r="4" fill="#0" id="circle77"/>
	<circle cx="478.872" cy="680.089" r="4" fill="#0" id="circle78"/>
	<circle cx="482.897" cy="336.008" r="4" fill="#0" id="circle79"/>
	<circle cx="498.994" cy="319.911" r="4" fill="#0" id="circle80"/>
	<circle cx="498.994" cy="670.028" r="4" fill="#0" id="circle81"/>
	<circle cx="515.091" cy="305.826" r="4" fill="#0" id="circle82"/>
	<circle cx="515.091" cy="655.943" r="4" fill="#0" id="circle83"/>
	<circle cx="517.103" cy="281.68" r="4" fill="#0" id="circle84"/>
	<circle cx="525.152" cy="635.822" r="4" fill="#0" id="circle85"/>
	<circle cx="527.164" cy="261.558" r="4" fill="#0" id="circle86"/>
	<circle cx="545.274" cy="629.785" r="4" fill="#0" id="circle87"/>
	<circle cx="547.286" cy="231.375" r="4" fill="#0" id="circle88"/>
	<circle cx="547.286" cy="251.497" r="4" fill="#0" id="circle89"/>
	<circle cx="563.383" cy="215.278" r="4" fill="#0" id="circle90"/>
	<circle cx="563.383" cy="639.846" r="4" fill="#0" id="circle91"/>
	<circle cx="573.444" cy="195.156" r="4" fill="#0" id="circle92"/>
	<circle cx="577.469" cy="655.943" r="4" fill="#0" id="circle93"/>
	<circle cx="587.529" cy="171.01" r="4" fill="#0" id="circle94"/>
	<circle cx="587.529" cy="674.053" r="4" fill="#0" id="circle95"/>
	<circle cx="599.602" cy="690.15" r="4" fill="#0" id="circle96"/>
	<circle cx="607.651" cy="160.949" r="4" fill="#0" id="circle97"/>
	<circle cx="611.675" cy="706.247" r="4" fill="#0" id="circle98"/>
	<circle cx="627.773" cy="150.888" r="4" fill="#0" id="circle99"/>
	<circle cx="627.773" cy="720.333" r="4" fill="#0" id="circle100"/>
	<circle cx="627.773" cy="740.454" r="4" fill="#0" id="circle101"/>
	<circle cx="629.785" cy="529.176" r="4" fill="#0" id="circle102"/>
	<circle cx="639.846" cy="547.286" r="4" fill="#0" id="circle103"/>
	<circle cx="639.846" cy="756.552" r="4" fill="#0" id="circle104"/>
	<circle cx="643.87" cy="134.791" r="4" fill="#0" id="circle105"/>
	<circle cx="649.907" cy="519.116" r="4" fill="#0" id="circle106"/>
	<circle cx="655.943" cy="559.359" r="4" fill="#0" id="circle107"/>
	<circle cx="659.968" cy="498.994" r="4" fill="#0" id="circle108"/>
	<circle cx="659.968" cy="764.6" r="4" fill="#0" id="circle109"/>
	<circle cx="663.992" cy="124.73" r="4" fill="#0" id="circle110"/>
	<circle cx="676.065" cy="567.408" r="4" fill="#0" id="circle111"/>
	<circle cx="680.089" cy="488.933" r="4" fill="#0" id="circle112"/>
	<circle cx="680.089" cy="770.637" r="4" fill="#0" id="circle113"/>
	<circle cx="684.114" cy="114.669" r="4" fill="#0" id="circle114"/>
	<circle cx="690.15" cy="468.811" r="4" fill="#0" id="circle115"/>
	<circle cx="694.174" cy="577.469" r="4" fill="#0" id="circle116"/>
	<circle cx="700.211" cy="448.69" r="4" fill="#0" id="circle117"/>
	<circle cx="700.211" cy="770.637" r="4" fill="#0" id="circle118"/>
	<circle cx="704.235" cy="104.609" r="4" fill="#0" id="circle119"/>
	<circle cx="712.284" cy="587.529" r="4" fill="#0" id="circle120"/>
	<circle cx="716.308" cy="434.604" r="4" fill="#0" id="circle121"/>
	<circle cx="720.333" cy="770.637" r="4" fill="#0" id="circle122"/>
	<circle cx="724.357" cy="94.5477" r="4" fill="#0" id="circle123"/>
	<circle cx="728.381" cy="418.507" r="4" fill="#0" id="circle124"/>
	<circle cx="732.406" cy="587.529" r="4" fill="#0" id="circle125"/>
	<circle cx="740.454" cy="388.325" r="4" fill="#0" id="circle126"/>
	<circle cx="740.454" cy="770.637" r="4" fill="#0" id="circle127"/>
	<circle cx="744.479" cy="94.5477" r="4" fill="#0" id="circle128"/>
	<circle cx="750.515" cy="368.203" r="4" fill="#0" id="circle129"/>
	<circle cx="750.515" cy="597.59" r="4" fill="#0" id="circle130"/>
	<circle cx="758.564" cy="760.576" r="4" fill="#0" id="circle131"/>
	<circle cx="760.576" cy="78.4503" r="4" fill="#0" id="circle132"/>
	<circle cx="760.576" cy="348.081" r="4" fill="#0" id="circle133"/>
	<circle cx="768.625" cy="607.651" r="4" fill="#0" id="circle134"/>
	<circle cx="770.637" cy="327.959" r="4" fill="#0" id="circle135"/>
	<circle cx="774.661" cy="748.503" r="4" fill="#0" id="circle136"/>
	<circle cx="778.686" cy="60.3408" r="4" fill="#0" id="circle137"/>
	<circle cx="780.698" cy="307.838" r="4" fill="#0" id="circle138"/>
	<circle cx="780.698" cy="623.748" r="4" fill="#0" id="circle139"/>
	<circle cx="788.746" cy="643.87" r="4" fill="#0" id="circle140"/>
	<circle cx="790.759" cy="663.992" r="4" fill="#0" id="circle141"/>
	<circle cx="790.759" cy="684.114" r="4" fill="#0" id="circle142"/>
	<circle cx="790.759" cy="704.235" r="4" fill="#0" id="circle143"/>
	<circle cx="790.759" cy="724.357" r="4" fill="#0" id="circle144"/>
	<circle cx="798.807" cy="54.3043" r="4" fill="#0" id="circle145"/>
	<circle cx="798.807" cy="297.777" r="4" fill="#0" id="circle146"/>
	<circle cx="810.88" cy="277.655" r="4" fill="#0" id="circle147"/>
	<circle cx="816.917" cy="44.2434" r="4" fill="#0" id="circle148"/>
	<circle cx="826.978" cy="263.57" r="4" fill="#0" id="circle149"/>
	<circle cx="835.026" cy="34.1826" r="4" fill="#0" id="circle150"/>
	<circle cx="841.063" cy="247.473" r="4" fill="#0" id="circle151"/>
	<circle cx="851.124" cy="18.0852" r="4" fill="#0" id="circle152"/>
	<circle cx="853.136" cy="44.2434" r="4" fill="#0" id="circle153"/>
	<circle cx="859.172" cy="237.412" r="4" fill="#0" id="circle154"/>
	<circle cx="869.233" cy="30.1582" r="4" fill="#0" id="circle155"/>
	<circle cx="875.27" cy="225.339" r="4" fill="#0" id="circle156"/>
	<circle cx="885.331" cy="44.2434" r="4" fill="#0" id="circle157"/>
	<circle cx="891.367" cy="207.229" r="4" fill="#0" id="circle158"/>
	<circle cx="901.428" cy="28.146" r="4" fill="#0" id="circle159"/>
	<circle cx="907.465" cy="193.144" r="4" fill="#0" id="circle160"/>
	<circle cx="919.538" cy="10.0365" r="4" fill="#0" id="circle161"/>
	<circle cx="921.55" cy="36.1947" r="4" fill="#0" id="circle162"/>
	<circle cx="921.55" cy="156.925" r="4" fill="#0" id="circle163"/>
	<circle cx="921.55" cy="177.047" r="4" fill="#0" id="circle164"/>
	<circle cx="939.659" cy="4" r="4" fill="#0" id="circle165"/>
	<circle cx="941.671" cy="24.1217" r="4" fill="#0" id="circle166"/>
	<circle cx="941.671" cy="44.2434" r="4" fill="#0" id="circle167"/>
	<circle cx="941.671" cy="146.864" r="4" fill="#0" id="circle168"/>
	<circle cx="957.769" cy="132.779" r="4" fill="#0" id="circle169"/>
	<circle cx="959.781" cy="34.1826" r="4" fill="#0" id="circle170"/>
	<circle cx="971.854" cy="18.0852" r="4" fill="#0" id="circle171"/>
	<circle cx="971.854" cy="50.2799" r="4" fill="#0" id="circle172"/>
	<circle cx="971.854" cy="86.499" r="4" fill="#0" id="circle173"/>
	<circle cx="977.89" cy="122.718" r="4" fill="#0" id="circle174"/>
	<circle cx="989.963" cy="76.4381" r="4" fill="#0" id="circle175"/>
	<circle cx="991.976" cy="44.2434" r="4" fill="#0" id="circle176"/>
	<circle cx="996" cy="96.5598" r="4" fill="#0" id="circle177"/>
	</g>
</svg>