<?xml version="1.0" encoding="UTF-8" standalone="no"?>
<!-- Created with CurveBenchmark -->
<svg
	xmlns:dc="http://purl.org/dc/elements/1.1/"
	xmlns:cc="http://creativecommons.org/ns#"
	xmlns:rdf="http://www.w3.org/1999/02/22-rdf-syntax-ns#"
	xmlns:svg="http://www.w3.org/2000/svg"
	xmlns="http://www.w3.org/2000/svg"
	xmlns:sodipodi="http://sodipodi.sourceforge.net/DTD/sodipodi-0.dtd"
	xmlns:inkscape="http://www.inkscape.org/namespaces/inkscape"
	width="1000"
	height="1000"
	id="svg2"
	version="1.1"
	sodipodi:docname="manifold/vicur-hammer025.png.txt">
<defs
	id="defs4" />
<metadata
	id="metadata7">
	<rdf:RDF>
		<cc:Work
			rdf:about="">
			<dc:format>image/svg+xml</dc:format>
			<dc:type
				rdf:resource="http://purl.org/dc/dcmitype/StillImage" />
			<dc:title></dc:title>
		</cc:Work>
	</rdf:RDF>
</metadata>
<g
	inkscape:label="Layer 1"
	inkscape:groupmode="layer"
	id="layer1">
	<path style="fill:none;stroke:red;stroke-width:1px;stroke-linecap:butt;stroke-linejoin:miter;stroke-opacity:1" d="M 4,165.02 15.5014,130.516 z" id="boundary" inkscape:connector-curvature="0" />
	<path style="fill:none;stroke:red;stroke-width:1px;stroke-linecap:butt;stroke-linejoin:miter;stroke-opacity:1" d="M 4,165.02 29.8783,179.397 z" id="boundary" inkscape:connector-curvature="0" />
	<path style="fill:none;stroke:red;stroke-width:1px;stroke-linecap:butt;stroke-linejoin:miter;stroke-opacity:1" d="M 15.5014,130.516 29.8783,104.638 z" id="boundary" inkscape:connector-curvature="0" />
	<path style="fill:none;stroke:red;stroke-width:1px;stroke-linecap:butt;stroke-linejoin:miter;stroke-opacity:1" d="M 29.8783,104.638 44.2551,78.7594 z" id="boundary" inkscape:connector-curvature="0" />
	<path style="fill:none;stroke:red;stroke-width:1px;stroke-linecap:butt;stroke-linejoin:miter;stroke-opacity:1" d="M 29.8783,179.397 58.6319,153.519 z" id="boundary" inkscape:connector-curvature="0" />
	<path style="fill:none;stroke:red;stroke-width:1px;stroke-linecap:butt;stroke-linejoin:miter;stroke-opacity:1" d="M 44.2551,78.7594 67.258,50.0058 z" id="boundary" inkscape:connector-curvature="0" />
	<path style="fill:none;stroke:red;stroke-width:1px;stroke-linecap:butt;stroke-linejoin:miter;stroke-opacity:1" d="M 58.6319,153.519 75.8841,130.516 z" id="boundary" inkscape:connector-curvature="0" />
	<path style="fill:none;stroke:red;stroke-width:1px;stroke-linecap:butt;stroke-linejoin:miter;stroke-opacity:1" d="M 67.258,50.0058 90.2609,32.7536 z" id="boundary" inkscape:connector-curvature="0" />
	<path style="fill:none;stroke:red;stroke-width:1px;stroke-linecap:butt;stroke-linejoin:miter;stroke-opacity:1" d="M 75.8841,130.516 98.887,107.513 z" id="boundary" inkscape:connector-curvature="0" />
	<path style="fill:none;stroke:red;stroke-width:1px;stroke-linecap:butt;stroke-linejoin:miter;stroke-opacity:1" d="M 90.2609,32.7536 113.264,15.5014 z" id="boundary" inkscape:connector-curvature="0" />
	<path style="fill:none;stroke:red;stroke-width:1px;stroke-linecap:butt;stroke-linejoin:miter;stroke-opacity:1" d="M 98.887,107.513 124.765,93.1362 z" id="boundary" inkscape:connector-curvature="0" />
	<path style="fill:none;stroke:red;stroke-width:1px;stroke-linecap:butt;stroke-linejoin:miter;stroke-opacity:1" d="M 113.264,15.5014 142.017,4 z" id="boundary" inkscape:connector-curvature="0" />
	<path style="fill:none;stroke:red;stroke-width:1px;stroke-linecap:butt;stroke-linejoin:miter;stroke-opacity:1" d="M 124.765,93.1362 136.267,121.89 z" id="boundary" inkscape:connector-curvature="0" />
	<path style="fill:none;stroke:red;stroke-width:1px;stroke-linecap:butt;stroke-linejoin:miter;stroke-opacity:1" d="M 124.765,981.623 130.516,941.368 z" id="boundary" inkscape:connector-curvature="0" />
	<path style="fill:none;stroke:red;stroke-width:1px;stroke-linecap:butt;stroke-linejoin:miter;stroke-opacity:1" d="M 124.765,981.623 150.643,996 z" id="boundary" inkscape:connector-curvature="0" />
	<path style="fill:none;stroke:red;stroke-width:1px;stroke-linecap:butt;stroke-linejoin:miter;stroke-opacity:1" d="M 130.516,912.614 130.516,941.368 z" id="boundary" inkscape:connector-curvature="0" />
	<path style="fill:none;stroke:red;stroke-width:1px;stroke-linecap:butt;stroke-linejoin:miter;stroke-opacity:1" d="M 130.516,912.614 136.267,878.11 z" id="boundary" inkscape:connector-curvature="0" />
	<path style="fill:none;stroke:red;stroke-width:1px;stroke-linecap:butt;stroke-linejoin:miter;stroke-opacity:1" d="M 136.267,121.89 142.017,150.643 z" id="boundary" inkscape:connector-curvature="0" />
	<path style="fill:none;stroke:red;stroke-width:1px;stroke-linecap:butt;stroke-linejoin:miter;stroke-opacity:1" d="M 136.267,504.313 136.267,533.067 z" id="boundary" inkscape:connector-curvature="0" />
	<path style="fill:none;stroke:red;stroke-width:1px;stroke-linecap:butt;stroke-linejoin:miter;stroke-opacity:1" d="M 136.267,504.313 142.017,469.809 z" id="boundary" inkscape:connector-curvature="0" />
	<path style="fill:none;stroke:red;stroke-width:1px;stroke-linecap:butt;stroke-linejoin:miter;stroke-opacity:1" d="M 136.267,533.067 136.267,561.82 z" id="boundary" inkscape:connector-curvature="0" />
	<path style="fill:none;stroke:red;stroke-width:1px;stroke-linecap:butt;stroke-linejoin:miter;stroke-opacity:1" d="M 136.267,561.82 136.267,590.574 z" id="boundary" inkscape:connector-curvature="0" />
	<path style="fill:none;stroke:red;stroke-width:1px;stroke-linecap:butt;stroke-linejoin:miter;stroke-opacity:1" d="M 136.267,590.574 136.267,619.328 z" id="boundary" inkscape:connector-curvature="0" />
	<path style="fill:none;stroke:red;stroke-width:1px;stroke-linecap:butt;stroke-linejoin:miter;stroke-opacity:1" d="M 136.267,619.328 136.267,648.081 z" id="boundary" inkscape:connector-curvature="0" />
	<path style="fill:none;stroke:red;stroke-width:1px;stroke-linecap:butt;stroke-linejoin:miter;stroke-opacity:1" d="M 136.267,648.081 136.267,676.835 z" id="boundary" inkscape:connector-curvature="0" />
	<path style="fill:none;stroke:red;stroke-width:1px;stroke-linecap:butt;stroke-linejoin:miter;stroke-opacity:1" d="M 136.267,676.835 136.267,705.588 z" id="boundary" inkscape:connector-curvature="0" />
	<path style="fill:none;stroke:red;stroke-width:1px;stroke-linecap:butt;stroke-linejoin:miter;stroke-opacity:1" d="M 136.267,705.588 136.267,734.342 z" id="boundary" inkscape:connector-curvature="0" />
	<path style="fill:none;stroke:red;stroke-width:1px;stroke-linecap:butt;stroke-linejoin:miter;stroke-opacity:1" d="M 136.267,734.342 136.267,763.096 z" id="boundary" inkscape:connector-curvature="0" />
	<path style="fill:none;stroke:red;stroke-width:1px;stroke-linecap:butt;stroke-linejoin:miter;stroke-opacity:1" d="M 136.267,763.096 136.267,791.849 z" id="boundary" inkscape:connector-curvature="0" />
	<path style="fill:none;stroke:red;stroke-width:1px;stroke-linecap:butt;stroke-linejoin:miter;stroke-opacity:1" d="M 136.267,791.849 136.267,820.603 z" id="boundary" inkscape:connector-curvature="0" />
	<path style="fill:none;stroke:red;stroke-width:1px;stroke-linecap:butt;stroke-linejoin:miter;stroke-opacity:1" d="M 136.267,820.603 136.267,849.357 z" id="boundary" inkscape:connector-curvature="0" />
	<path style="fill:none;stroke:red;stroke-width:1px;stroke-linecap:butt;stroke-linejoin:miter;stroke-opacity:1" d="M 136.267,849.357 136.267,878.11 z" id="boundary" inkscape:connector-curvature="0" />
	<path style="fill:none;stroke:red;stroke-width:1px;stroke-linecap:butt;stroke-linejoin:miter;stroke-opacity:1" d="M 142.017,4 170.771,4 z" id="boundary" inkscape:connector-curvature="0" />
	<path style="fill:none;stroke:red;stroke-width:1px;stroke-linecap:butt;stroke-linejoin:miter;stroke-opacity:1" d="M 142.017,150.643 153.519,179.397 z" id="boundary" inkscape:connector-curvature="0" />
	<path style="fill:none;stroke:red;stroke-width:1px;stroke-linecap:butt;stroke-linejoin:miter;stroke-opacity:1" d="M 142.017,469.809 156.394,443.93 z" id="boundary" inkscape:connector-curvature="0" />
	<path style="fill:none;stroke:red;stroke-width:1px;stroke-linecap:butt;stroke-linejoin:miter;stroke-opacity:1" d="M 150.643,996 179.397,996 z" id="boundary" inkscape:connector-curvature="0" />
	<path style="fill:none;stroke:red;stroke-width:1px;stroke-linecap:butt;stroke-linejoin:miter;stroke-opacity:1" d="M 153.519,179.397 159.27,208.151 z" id="boundary" inkscape:connector-curvature="0" />
	<path style="fill:none;stroke:red;stroke-width:1px;stroke-linecap:butt;stroke-linejoin:miter;stroke-opacity:1" d="M 156.394,443.93 165.02,409.426 z" id="boundary" inkscape:connector-curvature="0" />
	<path style="fill:none;stroke:red;stroke-width:1px;stroke-linecap:butt;stroke-linejoin:miter;stroke-opacity:1" d="M 159.27,208.151 165.02,236.904 z" id="boundary" inkscape:connector-curvature="0" />
	<path style="fill:none;stroke:red;stroke-width:1px;stroke-linecap:butt;stroke-linejoin:miter;stroke-opacity:1" d="M 165.02,236.904 165.02,265.658 z" id="boundary" inkscape:connector-curvature="0" />
	<path style="fill:none;stroke:red;stroke-width:1px;stroke-linecap:butt;stroke-linejoin:miter;stroke-opacity:1" d="M 165.02,265.658 165.02,294.412 z" id="boundary" inkscape:connector-curvature="0" />
	<path style="fill:none;stroke:red;stroke-width:1px;stroke-linecap:butt;stroke-linejoin:miter;stroke-opacity:1" d="M 165.02,294.412 165.02,323.165 z" id="boundary" inkscape:connector-curvature="0" />
	<path style="fill:none;stroke:red;stroke-width:1px;stroke-linecap:butt;stroke-linejoin:miter;stroke-opacity:1" d="M 165.02,323.165 165.02,351.919 z" id="boundary" inkscape:connector-curvature="0" />
	<path style="fill:none;stroke:red;stroke-width:1px;stroke-linecap:butt;stroke-linejoin:miter;stroke-opacity:1" d="M 165.02,351.919 165.02,380.672 z" id="boundary" inkscape:connector-curvature="0" />
	<path style="fill:none;stroke:red;stroke-width:1px;stroke-linecap:butt;stroke-linejoin:miter;stroke-opacity:1" d="M 165.02,380.672 165.02,409.426 z" id="boundary" inkscape:connector-curvature="0" />
	<path style="fill:none;stroke:red;stroke-width:1px;stroke-linecap:butt;stroke-linejoin:miter;stroke-opacity:1" d="M 170.771,4 199.525,4 z" id="boundary" inkscape:connector-curvature="0" />
	<path style="fill:none;stroke:red;stroke-width:1px;stroke-linecap:butt;stroke-linejoin:miter;stroke-opacity:1" d="M 179.397,996 208.151,996 z" id="boundary" inkscape:connector-curvature="0" />
	<path style="fill:none;stroke:red;stroke-width:1px;stroke-linecap:butt;stroke-linejoin:miter;stroke-opacity:1" d="M 199.525,4 228.278,4 z" id="boundary" inkscape:connector-curvature="0" />
	<path style="fill:none;stroke:red;stroke-width:1px;stroke-linecap:butt;stroke-linejoin:miter;stroke-opacity:1" d="M 208.151,996 236.904,996 z" id="boundary" inkscape:connector-curvature="0" />
	<path style="fill:none;stroke:red;stroke-width:1px;stroke-linecap:butt;stroke-linejoin:miter;stroke-opacity:1" d="M 228.278,4 257.032,4 z" id="boundary" inkscape:connector-curvature="0" />
	<path style="fill:none;stroke:red;stroke-width:1px;stroke-linecap:butt;stroke-linejoin:miter;stroke-opacity:1" d="M 236.904,996 265.658,996 z" id="boundary" inkscape:connector-curvature="0" />
	<path style="fill:none;stroke:red;stroke-width:1px;stroke-linecap:butt;stroke-linejoin:miter;stroke-opacity:1" d="M 242.655,257.032 242.655,285.786 z" id="boundary" inkscape:connector-curvature="0" />
	<path style="fill:none;stroke:red;stroke-width:1px;stroke-linecap:butt;stroke-linejoin:miter;stroke-opacity:1" d="M 242.655,257.032 248.406,205.275 z" id="boundary" inkscape:connector-curvature="0" />
	<path style="fill:none;stroke:red;stroke-width:1px;stroke-linecap:butt;stroke-linejoin:miter;stroke-opacity:1" d="M 242.655,285.786 242.655,314.539 z" id="boundary" inkscape:connector-curvature="0" />
	<path style="fill:none;stroke:red;stroke-width:1px;stroke-linecap:butt;stroke-linejoin:miter;stroke-opacity:1" d="M 242.655,314.539 242.655,343.293 z" id="boundary" inkscape:connector-curvature="0" />
	<path style="fill:none;stroke:red;stroke-width:1px;stroke-linecap:butt;stroke-linejoin:miter;stroke-opacity:1" d="M 242.655,343.293 242.655,372.046 z" id="boundary" inkscape:connector-curvature="0" />
	<path style="fill:none;stroke:red;stroke-width:1px;stroke-linecap:butt;stroke-linejoin:miter;stroke-opacity:1" d="M 242.655,372.046 242.655,400.8 z" id="boundary" inkscape:connector-curvature="0" />
	<path style="fill:none;stroke:red;stroke-width:1px;stroke-linecap:butt;stroke-linejoin:miter;stroke-opacity:1" d="M 242.655,400.8 248.406,429.554 z" id="boundary" inkscape:connector-curvature="0" />
	<path style="fill:none;stroke:red;stroke-width:1px;stroke-linecap:butt;stroke-linejoin:miter;stroke-opacity:1" d="M 248.406,205.275 259.907,159.27 z" id="boundary" inkscape:connector-curvature="0" />
	<path style="fill:none;stroke:red;stroke-width:1px;stroke-linecap:butt;stroke-linejoin:miter;stroke-opacity:1" d="M 248.406,429.554 257.032,458.307 z" id="boundary" inkscape:connector-curvature="0" />
	<path style="fill:none;stroke:red;stroke-width:1px;stroke-linecap:butt;stroke-linejoin:miter;stroke-opacity:1" d="M 257.032,4 285.786,15.5014 z" id="boundary" inkscape:connector-curvature="0" />
	<path style="fill:none;stroke:red;stroke-width:1px;stroke-linecap:butt;stroke-linejoin:miter;stroke-opacity:1" d="M 257.032,458.307 271.409,484.186 z" id="boundary" inkscape:connector-curvature="0" />
	<path style="fill:none;stroke:red;stroke-width:1px;stroke-linecap:butt;stroke-linejoin:miter;stroke-opacity:1" d="M 259.907,159.27 271.409,113.264 z" id="boundary" inkscape:connector-curvature="0" />
	<path style="fill:none;stroke:red;stroke-width:1px;stroke-linecap:butt;stroke-linejoin:miter;stroke-opacity:1" d="M 265.658,996 282.91,972.997 z" id="boundary" inkscape:connector-curvature="0" />
	<path style="fill:none;stroke:red;stroke-width:1px;stroke-linecap:butt;stroke-linejoin:miter;stroke-opacity:1" d="M 271.409,113.264 277.159,84.5101 z" id="boundary" inkscape:connector-curvature="0" />
	<path style="fill:none;stroke:red;stroke-width:1px;stroke-linecap:butt;stroke-linejoin:miter;stroke-opacity:1" d="M 271.409,484.186 271.409,512.939 z" id="boundary" inkscape:connector-curvature="0" />
	<path style="fill:none;stroke:red;stroke-width:1px;stroke-linecap:butt;stroke-linejoin:miter;stroke-opacity:1" d="M 271.409,512.939 271.409,541.693 z" id="boundary" inkscape:connector-curvature="0" />
	<path style="fill:none;stroke:red;stroke-width:1px;stroke-linecap:butt;stroke-linejoin:miter;stroke-opacity:1" d="M 271.409,541.693 271.409,570.446 z" id="boundary" inkscape:connector-curvature="0" />
	<path style="fill:none;stroke:red;stroke-width:1px;stroke-linecap:butt;stroke-linejoin:miter;stroke-opacity:1" d="M 271.409,570.446 271.409,599.2 z" id="boundary" inkscape:connector-curvature="0" />
	<path style="fill:none;stroke:red;stroke-width:1px;stroke-linecap:butt;stroke-linejoin:miter;stroke-opacity:1" d="M 271.409,599.2 271.409,627.954 z" id="boundary" inkscape:connector-curvature="0" />
	<path style="fill:none;stroke:red;stroke-width:1px;stroke-linecap:butt;stroke-linejoin:miter;stroke-opacity:1" d="M 271.409,627.954 271.409,656.707 z" id="boundary" inkscape:connector-curvature="0" />
	<path style="fill:none;stroke:red;stroke-width:1px;stroke-linecap:butt;stroke-linejoin:miter;stroke-opacity:1" d="M 271.409,656.707 271.409,685.461 z" id="boundary" inkscape:connector-curvature="0" />
	<path style="fill:none;stroke:red;stroke-width:1px;stroke-linecap:butt;stroke-linejoin:miter;stroke-opacity:1" d="M 271.409,685.461 271.409,714.214 z" id="boundary" inkscape:connector-curvature="0" />
	<path style="fill:none;stroke:red;stroke-width:1px;stroke-linecap:butt;stroke-linejoin:miter;stroke-opacity:1" d="M 271.409,714.214 271.409,742.968 z" id="boundary" inkscape:connector-curvature="0" />
	<path style="fill:none;stroke:red;stroke-width:1px;stroke-linecap:butt;stroke-linejoin:miter;stroke-opacity:1" d="M 271.409,742.968 271.409,771.722 z" id="boundary" inkscape:connector-curvature="0" />
	<path style="fill:none;stroke:red;stroke-width:1px;stroke-linecap:butt;stroke-linejoin:miter;stroke-opacity:1" d="M 271.409,771.722 271.409,800.475 z" id="boundary" inkscape:connector-curvature="0" />
	<path style="fill:none;stroke:red;stroke-width:1px;stroke-linecap:butt;stroke-linejoin:miter;stroke-opacity:1" d="M 271.409,800.475 271.409,829.229 z" id="boundary" inkscape:connector-curvature="0" />
	<path style="fill:none;stroke:red;stroke-width:1px;stroke-linecap:butt;stroke-linejoin:miter;stroke-opacity:1" d="M 271.409,829.229 277.159,857.983 z" id="boundary" inkscape:connector-curvature="0" />
	<path style="fill:none;stroke:red;stroke-width:1px;stroke-linecap:butt;stroke-linejoin:miter;stroke-opacity:1" d="M 277.159,84.5101 305.913,75.8841 z" id="boundary" inkscape:connector-curvature="0" />
	<path style="fill:none;stroke:red;stroke-width:1px;stroke-linecap:butt;stroke-linejoin:miter;stroke-opacity:1" d="M 277.159,857.983 277.159,886.736 z" id="boundary" inkscape:connector-curvature="0" />
	<path style="fill:none;stroke:red;stroke-width:1px;stroke-linecap:butt;stroke-linejoin:miter;stroke-opacity:1" d="M 277.159,886.736 277.159,915.49 z" id="boundary" inkscape:connector-curvature="0" />
	<path style="fill:none;stroke:red;stroke-width:1px;stroke-linecap:butt;stroke-linejoin:miter;stroke-opacity:1" d="M 277.159,915.49 277.159,944.243 z" id="boundary" inkscape:connector-curvature="0" />
	<path style="fill:none;stroke:red;stroke-width:1px;stroke-linecap:butt;stroke-linejoin:miter;stroke-opacity:1" d="M 277.159,944.243 282.91,972.997 z" id="boundary" inkscape:connector-curvature="0" />
	<path style="fill:none;stroke:red;stroke-width:1px;stroke-linecap:butt;stroke-linejoin:miter;stroke-opacity:1" d="M 285.786,15.5014 314.539,15.5014 z" id="boundary" inkscape:connector-curvature="0" />
	<path style="fill:none;stroke:red;stroke-width:1px;stroke-linecap:butt;stroke-linejoin:miter;stroke-opacity:1" d="M 305.913,75.8841 334.667,87.3855 z" id="boundary" inkscape:connector-curvature="0" />
	<path style="fill:none;stroke:red;stroke-width:1px;stroke-linecap:butt;stroke-linejoin:miter;stroke-opacity:1" d="M 314.539,15.5014 343.293,4 z" id="boundary" inkscape:connector-curvature="0" />
	<path style="fill:none;stroke:red;stroke-width:1px;stroke-linecap:butt;stroke-linejoin:miter;stroke-opacity:1" d="M 334.667,87.3855 363.42,93.1362 z" id="boundary" inkscape:connector-curvature="0" />
	<path style="fill:none;stroke:red;stroke-width:1px;stroke-linecap:butt;stroke-linejoin:miter;stroke-opacity:1" d="M 343.293,4 372.046,4 z" id="boundary" inkscape:connector-curvature="0" />
	<path style="fill:none;stroke:red;stroke-width:1px;stroke-linecap:butt;stroke-linejoin:miter;stroke-opacity:1" d="M 363.42,93.1362 386.423,61.5072 z" id="boundary" inkscape:connector-curvature="0" />
	<path style="fill:none;stroke:red;stroke-width:1px;stroke-linecap:butt;stroke-linejoin:miter;stroke-opacity:1" d="M 372.046,4 386.423,29.8783 z" id="boundary" inkscape:connector-curvature="0" />
	<path style="fill:none;stroke:red;stroke-width:1px;stroke-linecap:butt;stroke-linejoin:miter;stroke-opacity:1" d="M 386.423,29.8783 386.423,61.5072 z" id="boundary" inkscape:connector-curvature="0" />
	<circle cx="4" cy="165.02" r="4" fill="#0" id="circle0"/>
	<circle cx="15.5014" cy="130.516" r="4" fill="#0" id="circle1"/>
	<circle cx="29.8783" cy="104.638" r="4" fill="#0" id="circle2"/>
	<circle cx="29.8783" cy="179.397" r="4" fill="#0" id="circle3"/>
	<circle cx="44.2551" cy="78.7594" r="4" fill="#0" id="circle4"/>
	<circle cx="58.6319" cy="153.519" r="4" fill="#0" id="circle5"/>
	<circle cx="67.258" cy="50.0058" r="4" fill="#0" id="circle6"/>
	<circle cx="75.8841" cy="130.516" r="4" fill="#0" id="circle7"/>
	<circle cx="90.2609" cy="32.7536" r="4" fill="#0" id="circle8"/>
	<circle cx="98.887" cy="107.513" r="4" fill="#0" id="circle9"/>
	<circle cx="113.264" cy="15.5014" r="4" fill="#0" id="circle10"/>
	<circle cx="124.765" cy="93.1362" r="4" fill="#0" id="circle11"/>
	<circle cx="124.765" cy="981.623" r="4" fill="#0" id="circle12"/>
	<circle cx="130.516" cy="912.614" r="4" fill="#0" id="circle13"/>
	<circle cx="130.516" cy="941.368" r="4" fill="#0" id="circle14"/>
	<circle cx="136.267" cy="121.89" r="4" fill="#0" id="circle15"/>
	<circle cx="136.267" cy="504.313" r="4" fill="#0" id="circle16"/>
	<circle cx="136.267" cy="533.067" r="4" fill="#0" id="circle17"/>
	<circle cx="136.267" cy="561.82" r="4" fill="#0" id="circle18"/>
	<circle cx="136.267" cy="590.574" r="4" fill="#0" id="circle19"/>
	<circle cx="136.267" cy="619.328" r="4" fill="#0" id="circle20"/>
	<circle cx="136.267" cy="648.081" r="4" fill="#0" id="circle21"/>
	<circle cx="136.267" cy="676.835" r="4" fill="#0" id="circle22"/>
	<circle cx="136.267" cy="705.588" r="4" fill="#0" id="circle23"/>
	<circle cx="136.267" cy="734.342" r="4" fill="#0" id="circle24"/>
	<circle cx="136.267" cy="763.096" r="4" fill="#0" id="circle25"/>
	<circle cx="136.267" cy="791.849" r="4" fill="#0" id="circle26"/>
	<circle cx="136.267" cy="820.603" r="4" fill="#0" id="circle27"/>
	<circle cx="136.267" cy="849.357" r="4" fill="#0" id="circle28"/>
	<circle cx="136.267" cy="878.11" r="4" fill="#0" id="circle29"/>
	<circle cx="142.017" cy="4" r="4" fill="#0" id="circle30"/>
	<circle cx="142.017" cy="150.643" r="4" fill="#0" id="circle31"/>
	<circle cx="142.017" cy="469.809" r="4" fill="#0" id="circle32"/>
	<circle cx="150.643" cy="996" r="4" fill="#0" id="circle33"/>
	<circle cx="153.519" cy="179.397" r="4" fill="#0" id="circle34"/>
	<circle cx="156.394" cy="443.93" r="4" fill="#0" id="circle35"/>
	<circle cx="159.27" cy="208.151" r="4" fill="#0" id="circle36"/>
	<circle cx="165.02" cy="236.904" r="4" fill="#0" id="circle37"/>
	<circle cx="165.02" cy="265.658" r="4" fill="#0" id="circle38"/>
	<circle cx="165.02" cy="294.412" r="4" fill="#0" id="circle39"/>
	<circle cx="165.02" cy="323.165" r="4" fill="#0" id="circle40"/>
	<circle cx="165.02" cy="351.919" r="4" fill="#0" id="circle41"/>
	<circle cx="165.02" cy="380.672" r="4" fill="#0" id="circle42"/>
	<circle cx="165.02" cy="409.426" r="4" fill="#0" id="circle43"/>
	<circle cx="170.771" cy="4" r="4" fill="#0" id="circle44"/>
	<circle cx="179.397" cy="996" r="4" fill="#0" id="circle45"/>
	<circle cx="199.525" cy="4" r="4" fill="#0" id="circle46"/>
	<circle cx="208.151" cy="996" r="4" fill="#0" id="circle47"/>
	<circle cx="228.278" cy="4" r="4" fill="#0" id="circle48"/>
	<circle cx="236.904" cy="996" r="4" fill="#0" id="circle49"/>
	<circle cx="242.655" cy="257.032" r="4" fill="#0" id="circle50"/>
	<circle cx="242.655" cy="285.786" r="4" fill="#0" id="circle51"/>
	<circle cx="242.655" cy="314.539" r="4" fill="#0" id="circle52"/>
	<circle cx="242.655" cy="343.293" r="4" fill="#0" id="circle53"/>
	<circle cx="242.655" cy="372.046" r="4" fill="#0" id="circle54"/>
	<circle cx="242.655" cy="400.8" r="4" fill="#0" id="circle55"/>
	<circle cx="248.406" cy="205.275" r="4" fill="#0" id="circle56"/>
	<circle cx="248.406" cy="429.554" r="4" fill="#0" id="circle57"/>
	<circle cx="257.032" cy="4" r="4" fill="#0" id="circle58"/>
	<circle cx="257.032" cy="458.307" r="4" fill="#0" id="circle59"/>
	<circle cx="259.907" cy="159.27" r="4" fill="#0" id="circle60"/>
	<circle cx="265.658" cy="996" r="4" fill="#0" id="circle61"/>
	<circle cx="271.409" cy="113.264" r="4" fill="#0" id="circle62"/>
	<circle cx="271.409" cy="484.186" r="4" fill="#0" id="circle63"/>
	<circle cx="271.409" cy="512.939" r="4" fill="#0" id="circle64"/>
	<circle cx="271.409" cy="541.693" r="4" fill="#0" id="circle65"/>
	<circle cx="271.409" cy="570.446" r="4" fill="#0" id="circle66"/>
	<circle cx="271.409" cy="599.2" r="4" fill="#0" id="circle67"/>
	<circle cx="271.409" cy="627.954" r="4" fill="#0" id="circle68"/>
	<circle cx="271.409" cy="656.707" r="4" fill="#0" id="circle69"/>
	<circle cx="271.409" cy="685.461" r="4" fill="#0" id="circle70"/>
	<circle cx="271.409" cy="714.214" r="4" fill="#0" id="circle71"/>
	<circle cx="271.409" cy="742.968" r="4" fill="#0" id="circle72"/>
	<circle cx="271.409" cy="771.722" r="4" fill="#0" id="circle73"/>
	<circle cx="271.409" cy="800.475" r="4" fill="#0" id="circle74"/>
	<circle cx="271.409" cy="829.229" r="4" fill="#0" id="circle75"/>
	<circle cx="277.159" cy="84.5101" r="4" fill="#0" id="circle76"/>
	<circle cx="277.159" cy="857.983" r="4" fill="#0" id="circle77"/>
	<circle cx="277.159" cy="886.736" r="4" fill="#0" id="circle78"/>
	<circle cx="277.159" cy="915.49" r="4" fill="#0" id="circle79"/>
	<circle cx="277.159" cy="944.243" r="4" fill="#0" id="circle80"/>
	<circle cx="282.91" cy="972.997" r="4" fill="#0" id="circle81"/>
	<circle cx="285.786" cy="15.5014" r="4" fill="#0" id="circle82"/>
	<circle cx="305.913" cy="75.8841" r="4" fill="#0" id="circle83"/>
	<circle cx="314.539" cy="15.5014" r="4" fill="#0" id="circle84"/>
	<circle cx="334.667" cy="87.3855" r="4" fill="#0" id="circle85"/>
	<circle cx="343.293" cy="4" r="4" fill="#0" id="circle86"/>
	<circle cx="363.42" cy="93.1362" r="4" fill="#0" id="circle87"/>
	<circle cx="372.046" cy="4" r="4" fill="#0" id="circle88"/>
	<circle cx="386.423" cy="29.8783" r="4" fill="#0" id="circle89"/>
	<circle cx="386.423" cy="61.5072" r="4" fill="#0" id="circle90"/>
	</g>
</svg>