<?xml version="1.0" encoding="UTF-8" standalone="no"?>
<!-- Created with CurveBenchmark -->
<svg
	xmlns:dc="http://purl.org/dc/elements/1.1/"
	xmlns:cc="http://creativecommons.org/ns#"
	xmlns:rdf="http://www.w3.org/1999/02/22-rdf-syntax-ns#"
	xmlns:svg="http://www.w3.org/2000/svg"
	xmlns="http://www.w3.org/2000/svg"
	xmlns:sodipodi="http://sodipodi.sourceforge.net/DTD/sodipodi-0.dtd"
	xmlns:inkscape="http://www.inkscape.org/namespaces/inkscape"
	width="1000"
	height="1000"
	id="svg2"
	version="1.1"
	sodipodi:docname="manifold/vicur-cat44.png.txt">
<defs
	id="defs4" />
<metadata
	id="metadata7">
	<rdf:RDF>
		<cc:Work
			rdf:about="">
			<dc:format>image/svg+xml</dc:format>
			<dc:type
				rdf:resource="http://purl.org/dc/dcmitype/StillImage" />
			<dc:title></dc:title>
		</cc:Work>
	</rdf:RDF>
</metadata>
<g
	inkscape:label="Layer 1"
	inkscape:groupmode="layer"
	id="layer1">
	<path style="fill:none;stroke:red;stroke-width:1px;stroke-linecap:butt;stroke-linejoin:miter;stroke-opacity:1" d="M 4,907.985 13.1682,889.649 z" id="boundary" inkscape:connector-curvature="0" />
	<path style="fill:none;stroke:red;stroke-width:1px;stroke-linecap:butt;stroke-linejoin:miter;stroke-opacity:1" d="M 4,907.985 18.6691,920.821 z" id="boundary" inkscape:connector-curvature="0" />
	<path style="fill:none;stroke:red;stroke-width:1px;stroke-linecap:butt;stroke-linejoin:miter;stroke-opacity:1" d="M 13.1682,889.649 27.8373,874.98 z" id="boundary" inkscape:connector-curvature="0" />
	<path style="fill:none;stroke:red;stroke-width:1px;stroke-linecap:butt;stroke-linejoin:miter;stroke-opacity:1" d="M 18.6691,920.821 37.0055,922.654 z" id="boundary" inkscape:connector-curvature="0" />
	<path style="fill:none;stroke:red;stroke-width:1px;stroke-linecap:butt;stroke-linejoin:miter;stroke-opacity:1" d="M 22.3364,27.8373 22.3364,46.1738 z" id="boundary" inkscape:connector-curvature="0" />
	<path style="fill:none;stroke:red;stroke-width:1px;stroke-linecap:butt;stroke-linejoin:miter;stroke-opacity:1" d="M 22.3364,27.8373 37.0055,13.1682 z" id="boundary" inkscape:connector-curvature="0" />
	<path style="fill:none;stroke:red;stroke-width:1px;stroke-linecap:butt;stroke-linejoin:miter;stroke-opacity:1" d="M 22.3364,46.1738 31.5046,62.6765 z" id="boundary" inkscape:connector-curvature="0" />
	<path style="fill:none;stroke:red;stroke-width:1px;stroke-linecap:butt;stroke-linejoin:miter;stroke-opacity:1" d="M 27.8373,874.98 44.3401,865.811 z" id="boundary" inkscape:connector-curvature="0" />
	<path style="fill:none;stroke:red;stroke-width:1px;stroke-linecap:butt;stroke-linejoin:miter;stroke-opacity:1" d="M 31.5046,62.6765 31.5046,81.0129 z" id="boundary" inkscape:connector-curvature="0" />
	<path style="fill:none;stroke:red;stroke-width:1px;stroke-linecap:butt;stroke-linejoin:miter;stroke-opacity:1" d="M 31.5046,81.0129 40.6728,97.5157 z" id="boundary" inkscape:connector-curvature="0" />
	<path style="fill:none;stroke:red;stroke-width:1px;stroke-linecap:butt;stroke-linejoin:miter;stroke-opacity:1" d="M 37.0055,13.1682 55.342,13.1682 z" id="boundary" inkscape:connector-curvature="0" />
	<path style="fill:none;stroke:red;stroke-width:1px;stroke-linecap:butt;stroke-linejoin:miter;stroke-opacity:1" d="M 37.0055,922.654 55.342,922.654 z" id="boundary" inkscape:connector-curvature="0" />
	<path style="fill:none;stroke:red;stroke-width:1px;stroke-linecap:butt;stroke-linejoin:miter;stroke-opacity:1" d="M 40.6728,97.5157 40.6728,115.852 z" id="boundary" inkscape:connector-curvature="0" />
	<path style="fill:none;stroke:red;stroke-width:1px;stroke-linecap:butt;stroke-linejoin:miter;stroke-opacity:1" d="M 40.6728,115.852 40.6728,134.189 z" id="boundary" inkscape:connector-curvature="0" />
	<path style="fill:none;stroke:red;stroke-width:1px;stroke-linecap:butt;stroke-linejoin:miter;stroke-opacity:1" d="M 40.6728,134.189 46.1738,152.525 z" id="boundary" inkscape:connector-curvature="0" />
	<path style="fill:none;stroke:red;stroke-width:1px;stroke-linecap:butt;stroke-linejoin:miter;stroke-opacity:1" d="M 44.3401,865.811 62.6765,858.477 z" id="boundary" inkscape:connector-curvature="0" />
	<path style="fill:none;stroke:red;stroke-width:1px;stroke-linecap:butt;stroke-linejoin:miter;stroke-opacity:1" d="M 46.1738,152.525 49.841,170.861 z" id="boundary" inkscape:connector-curvature="0" />
	<path style="fill:none;stroke:red;stroke-width:1px;stroke-linecap:butt;stroke-linejoin:miter;stroke-opacity:1" d="M 49.841,170.861 49.841,189.198 z" id="boundary" inkscape:connector-curvature="0" />
	<path style="fill:none;stroke:red;stroke-width:1px;stroke-linecap:butt;stroke-linejoin:miter;stroke-opacity:1" d="M 49.841,189.198 59.0092,205.701 z" id="boundary" inkscape:connector-curvature="0" />
	<path style="fill:none;stroke:red;stroke-width:1px;stroke-linecap:butt;stroke-linejoin:miter;stroke-opacity:1" d="M 55.342,13.1682 71.8447,22.3364 z" id="boundary" inkscape:connector-curvature="0" />
	<path style="fill:none;stroke:red;stroke-width:1px;stroke-linecap:butt;stroke-linejoin:miter;stroke-opacity:1" d="M 55.342,922.654 73.6784,920.821 z" id="boundary" inkscape:connector-curvature="0" />
	<path style="fill:none;stroke:red;stroke-width:1px;stroke-linecap:butt;stroke-linejoin:miter;stroke-opacity:1" d="M 59.0092,205.701 62.6765,224.037 z" id="boundary" inkscape:connector-curvature="0" />
	<path style="fill:none;stroke:red;stroke-width:1px;stroke-linecap:butt;stroke-linejoin:miter;stroke-opacity:1" d="M 59.0092,403.734 59.0092,422.07 z" id="boundary" inkscape:connector-curvature="0" />
	<path style="fill:none;stroke:red;stroke-width:1px;stroke-linecap:butt;stroke-linejoin:miter;stroke-opacity:1" d="M 59.0092,403.734 68.1774,376.229 z" id="boundary" inkscape:connector-curvature="0" />
	<path style="fill:none;stroke:red;stroke-width:1px;stroke-linecap:butt;stroke-linejoin:miter;stroke-opacity:1" d="M 59.0092,422.07 59.0092,440.407 z" id="boundary" inkscape:connector-curvature="0" />
	<path style="fill:none;stroke:red;stroke-width:1px;stroke-linecap:butt;stroke-linejoin:miter;stroke-opacity:1" d="M 59.0092,440.407 59.0092,458.743 z" id="boundary" inkscape:connector-curvature="0" />
	<path style="fill:none;stroke:red;stroke-width:1px;stroke-linecap:butt;stroke-linejoin:miter;stroke-opacity:1" d="M 59.0092,458.743 68.1774,475.246 z" id="boundary" inkscape:connector-curvature="0" />
	<path style="fill:none;stroke:red;stroke-width:1px;stroke-linecap:butt;stroke-linejoin:miter;stroke-opacity:1" d="M 62.6765,224.037 68.1774,242.373 z" id="boundary" inkscape:connector-curvature="0" />
	<path style="fill:none;stroke:red;stroke-width:1px;stroke-linecap:butt;stroke-linejoin:miter;stroke-opacity:1" d="M 62.6765,858.477 77.3457,843.808 z" id="boundary" inkscape:connector-curvature="0" />
	<path style="fill:none;stroke:red;stroke-width:1px;stroke-linecap:butt;stroke-linejoin:miter;stroke-opacity:1" d="M 68.1774,242.373 79.1793,257.043 z" id="boundary" inkscape:connector-curvature="0" />
	<path style="fill:none;stroke:red;stroke-width:1px;stroke-linecap:butt;stroke-linejoin:miter;stroke-opacity:1" d="M 68.1774,376.229 77.3457,348.725 z" id="boundary" inkscape:connector-curvature="0" />
	<path style="fill:none;stroke:red;stroke-width:1px;stroke-linecap:butt;stroke-linejoin:miter;stroke-opacity:1" d="M 68.1774,475.246 68.1774,493.582 z" id="boundary" inkscape:connector-curvature="0" />
	<path style="fill:none;stroke:red;stroke-width:1px;stroke-linecap:butt;stroke-linejoin:miter;stroke-opacity:1" d="M 68.1774,493.582 77.3457,510.085 z" id="boundary" inkscape:connector-curvature="0" />
	<path style="fill:none;stroke:red;stroke-width:1px;stroke-linecap:butt;stroke-linejoin:miter;stroke-opacity:1" d="M 71.8447,22.3364 86.5139,35.1719 z" id="boundary" inkscape:connector-curvature="0" />
	<path style="fill:none;stroke:red;stroke-width:1px;stroke-linecap:butt;stroke-linejoin:miter;stroke-opacity:1" d="M 73.6784,920.821 88.3475,904.318 z" id="boundary" inkscape:connector-curvature="0" />
	<path style="fill:none;stroke:red;stroke-width:1px;stroke-linecap:butt;stroke-linejoin:miter;stroke-opacity:1" d="M 77.3457,284.547 77.3457,312.052 z" id="boundary" inkscape:connector-curvature="0" />
	<path style="fill:none;stroke:red;stroke-width:1px;stroke-linecap:butt;stroke-linejoin:miter;stroke-opacity:1" d="M 77.3457,284.547 79.1793,257.043 z" id="boundary" inkscape:connector-curvature="0" />
	<path style="fill:none;stroke:red;stroke-width:1px;stroke-linecap:butt;stroke-linejoin:miter;stroke-opacity:1" d="M 77.3457,312.052 86.5139,328.555 z" id="boundary" inkscape:connector-curvature="0" />
	<path style="fill:none;stroke:red;stroke-width:1px;stroke-linecap:butt;stroke-linejoin:miter;stroke-opacity:1" d="M 77.3457,348.725 86.5139,328.555 z" id="boundary" inkscape:connector-curvature="0" />
	<path style="fill:none;stroke:red;stroke-width:1px;stroke-linecap:butt;stroke-linejoin:miter;stroke-opacity:1" d="M 77.3457,510.085 77.3457,532.089 z" id="boundary" inkscape:connector-curvature="0" />
	<path style="fill:none;stroke:red;stroke-width:1px;stroke-linecap:butt;stroke-linejoin:miter;stroke-opacity:1" d="M 77.3457,532.089 86.5139,548.591 z" id="boundary" inkscape:connector-curvature="0" />
	<path style="fill:none;stroke:red;stroke-width:1px;stroke-linecap:butt;stroke-linejoin:miter;stroke-opacity:1" d="M 77.3457,825.471 77.3457,843.808 z" id="boundary" inkscape:connector-curvature="0" />
	<path style="fill:none;stroke:red;stroke-width:1px;stroke-linecap:butt;stroke-linejoin:miter;stroke-opacity:1" d="M 77.3457,825.471 86.5139,797.967 z" id="boundary" inkscape:connector-curvature="0" />
	<path style="fill:none;stroke:red;stroke-width:1px;stroke-linecap:butt;stroke-linejoin:miter;stroke-opacity:1" d="M 86.5139,35.1719 97.5157,49.841 z" id="boundary" inkscape:connector-curvature="0" />
	<path style="fill:none;stroke:red;stroke-width:1px;stroke-linecap:butt;stroke-linejoin:miter;stroke-opacity:1" d="M 86.5139,548.591 86.5139,566.928 z" id="boundary" inkscape:connector-curvature="0" />
	<path style="fill:none;stroke:red;stroke-width:1px;stroke-linecap:butt;stroke-linejoin:miter;stroke-opacity:1" d="M 86.5139,566.928 95.6821,583.431 z" id="boundary" inkscape:connector-curvature="0" />
	<path style="fill:none;stroke:red;stroke-width:1px;stroke-linecap:butt;stroke-linejoin:miter;stroke-opacity:1" d="M 86.5139,761.294 86.5139,779.63 z" id="boundary" inkscape:connector-curvature="0" />
	<path style="fill:none;stroke:red;stroke-width:1px;stroke-linecap:butt;stroke-linejoin:miter;stroke-opacity:1" d="M 86.5139,761.294 95.6821,730.122 z" id="boundary" inkscape:connector-curvature="0" />
	<path style="fill:none;stroke:red;stroke-width:1px;stroke-linecap:butt;stroke-linejoin:miter;stroke-opacity:1" d="M 86.5139,779.63 86.5139,797.967 z" id="boundary" inkscape:connector-curvature="0" />
	<path style="fill:none;stroke:red;stroke-width:1px;stroke-linecap:butt;stroke-linejoin:miter;stroke-opacity:1" d="M 88.3475,904.318 103.017,891.482 z" id="boundary" inkscape:connector-curvature="0" />
	<path style="fill:none;stroke:red;stroke-width:1px;stroke-linecap:butt;stroke-linejoin:miter;stroke-opacity:1" d="M 95.6821,583.431 95.6821,601.767 z" id="boundary" inkscape:connector-curvature="0" />
	<path style="fill:none;stroke:red;stroke-width:1px;stroke-linecap:butt;stroke-linejoin:miter;stroke-opacity:1" d="M 95.6821,601.767 95.6821,620.104 z" id="boundary" inkscape:connector-curvature="0" />
	<path style="fill:none;stroke:red;stroke-width:1px;stroke-linecap:butt;stroke-linejoin:miter;stroke-opacity:1" d="M 95.6821,620.104 95.6821,638.44 z" id="boundary" inkscape:connector-curvature="0" />
	<path style="fill:none;stroke:red;stroke-width:1px;stroke-linecap:butt;stroke-linejoin:miter;stroke-opacity:1" d="M 95.6821,638.44 95.6821,656.776 z" id="boundary" inkscape:connector-curvature="0" />
	<path style="fill:none;stroke:red;stroke-width:1px;stroke-linecap:butt;stroke-linejoin:miter;stroke-opacity:1" d="M 95.6821,656.776 95.6821,675.113 z" id="boundary" inkscape:connector-curvature="0" />
	<path style="fill:none;stroke:red;stroke-width:1px;stroke-linecap:butt;stroke-linejoin:miter;stroke-opacity:1" d="M 95.6821,675.113 95.6821,693.449 z" id="boundary" inkscape:connector-curvature="0" />
	<path style="fill:none;stroke:red;stroke-width:1px;stroke-linecap:butt;stroke-linejoin:miter;stroke-opacity:1" d="M 95.6821,693.449 95.6821,711.786 z" id="boundary" inkscape:connector-curvature="0" />
	<path style="fill:none;stroke:red;stroke-width:1px;stroke-linecap:butt;stroke-linejoin:miter;stroke-opacity:1" d="M 95.6821,711.786 95.6821,730.122 z" id="boundary" inkscape:connector-curvature="0" />
	<path style="fill:none;stroke:red;stroke-width:1px;stroke-linecap:butt;stroke-linejoin:miter;stroke-opacity:1" d="M 97.5157,49.841 112.185,60.8429 z" id="boundary" inkscape:connector-curvature="0" />
	<path style="fill:none;stroke:red;stroke-width:1px;stroke-linecap:butt;stroke-linejoin:miter;stroke-opacity:1" d="M 103.017,891.482 115.852,876.813 z" id="boundary" inkscape:connector-curvature="0" />
	<path style="fill:none;stroke:red;stroke-width:1px;stroke-linecap:butt;stroke-linejoin:miter;stroke-opacity:1" d="M 112.185,60.8429 130.521,68.1774 z" id="boundary" inkscape:connector-curvature="0" />
	<path style="fill:none;stroke:red;stroke-width:1px;stroke-linecap:butt;stroke-linejoin:miter;stroke-opacity:1" d="M 115.852,858.477 115.852,876.813 z" id="boundary" inkscape:connector-curvature="0" />
	<path style="fill:none;stroke:red;stroke-width:1px;stroke-linecap:butt;stroke-linejoin:miter;stroke-opacity:1" d="M 115.852,858.477 125.02,830.972 z" id="boundary" inkscape:connector-curvature="0" />
	<path style="fill:none;stroke:red;stroke-width:1px;stroke-linecap:butt;stroke-linejoin:miter;stroke-opacity:1" d="M 125.02,830.972 134.189,803.468 z" id="boundary" inkscape:connector-curvature="0" />
	<path style="fill:none;stroke:red;stroke-width:1px;stroke-linecap:butt;stroke-linejoin:miter;stroke-opacity:1" d="M 130.521,68.1774 148.858,68.1774 z" id="boundary" inkscape:connector-curvature="0" />
	<path style="fill:none;stroke:red;stroke-width:1px;stroke-linecap:butt;stroke-linejoin:miter;stroke-opacity:1" d="M 134.189,803.468 143.357,785.131 z" id="boundary" inkscape:connector-curvature="0" />
	<path style="fill:none;stroke:red;stroke-width:1px;stroke-linecap:butt;stroke-linejoin:miter;stroke-opacity:1" d="M 143.357,785.131 152.525,757.627 z" id="boundary" inkscape:connector-curvature="0" />
	<path style="fill:none;stroke:red;stroke-width:1px;stroke-linecap:butt;stroke-linejoin:miter;stroke-opacity:1" d="M 148.858,68.1774 165.36,59.0092 z" id="boundary" inkscape:connector-curvature="0" />
	<path style="fill:none;stroke:red;stroke-width:1px;stroke-linecap:butt;stroke-linejoin:miter;stroke-opacity:1" d="M 152.525,757.627 161.693,739.29 z" id="boundary" inkscape:connector-curvature="0" />
	<path style="fill:none;stroke:red;stroke-width:1px;stroke-linecap:butt;stroke-linejoin:miter;stroke-opacity:1" d="M 161.693,739.29 170.861,720.954 z" id="boundary" inkscape:connector-curvature="0" />
	<path style="fill:none;stroke:red;stroke-width:1px;stroke-linecap:butt;stroke-linejoin:miter;stroke-opacity:1" d="M 165.36,59.0092 181.863,68.1774 z" id="boundary" inkscape:connector-curvature="0" />
	<path style="fill:none;stroke:red;stroke-width:1px;stroke-linecap:butt;stroke-linejoin:miter;stroke-opacity:1" d="M 170.861,720.954 180.03,702.617 z" id="boundary" inkscape:connector-curvature="0" />
	<path style="fill:none;stroke:red;stroke-width:1px;stroke-linecap:butt;stroke-linejoin:miter;stroke-opacity:1" d="M 180.03,702.617 189.198,684.281 z" id="boundary" inkscape:connector-curvature="0" />
	<path style="fill:none;stroke:red;stroke-width:1px;stroke-linecap:butt;stroke-linejoin:miter;stroke-opacity:1" d="M 181.863,68.1774 200.2,68.1774 z" id="boundary" inkscape:connector-curvature="0" />
	<path style="fill:none;stroke:red;stroke-width:1px;stroke-linecap:butt;stroke-linejoin:miter;stroke-opacity:1" d="M 187.364,917.153 187.364,935.49 z" id="boundary" inkscape:connector-curvature="0" />
	<path style="fill:none;stroke:red;stroke-width:1px;stroke-linecap:butt;stroke-linejoin:miter;stroke-opacity:1" d="M 187.364,917.153 202.033,902.484 z" id="boundary" inkscape:connector-curvature="0" />
	<path style="fill:none;stroke:red;stroke-width:1px;stroke-linecap:butt;stroke-linejoin:miter;stroke-opacity:1" d="M 187.364,935.49 205.701,940.991 z" id="boundary" inkscape:connector-curvature="0" />
	<path style="fill:none;stroke:red;stroke-width:1px;stroke-linecap:butt;stroke-linejoin:miter;stroke-opacity:1" d="M 189.198,665.945 189.198,684.281 z" id="boundary" inkscape:connector-curvature="0" />
	<path style="fill:none;stroke:red;stroke-width:1px;stroke-linecap:butt;stroke-linejoin:miter;stroke-opacity:1" d="M 189.198,665.945 205.701,656.776 z" id="boundary" inkscape:connector-curvature="0" />
	<path style="fill:none;stroke:red;stroke-width:1px;stroke-linecap:butt;stroke-linejoin:miter;stroke-opacity:1" d="M 200.2,68.1774 214.869,55.342 z" id="boundary" inkscape:connector-curvature="0" />
	<path style="fill:none;stroke:red;stroke-width:1px;stroke-linecap:butt;stroke-linejoin:miter;stroke-opacity:1" d="M 202.033,902.484 220.37,893.316 z" id="boundary" inkscape:connector-curvature="0" />
	<path style="fill:none;stroke:red;stroke-width:1px;stroke-linecap:butt;stroke-linejoin:miter;stroke-opacity:1" d="M 205.701,656.776 205.701,675.113 z" id="boundary" inkscape:connector-curvature="0" />
	<path style="fill:none;stroke:red;stroke-width:1px;stroke-linecap:butt;stroke-linejoin:miter;stroke-opacity:1" d="M 205.701,675.113 205.701,693.449 z" id="boundary" inkscape:connector-curvature="0" />
	<path style="fill:none;stroke:red;stroke-width:1px;stroke-linecap:butt;stroke-linejoin:miter;stroke-opacity:1" d="M 205.701,693.449 211.201,711.786 z" id="boundary" inkscape:connector-curvature="0" />
	<path style="fill:none;stroke:red;stroke-width:1px;stroke-linecap:butt;stroke-linejoin:miter;stroke-opacity:1" d="M 205.701,940.991 224.037,940.991 z" id="boundary" inkscape:connector-curvature="0" />
	<path style="fill:none;stroke:red;stroke-width:1px;stroke-linecap:butt;stroke-linejoin:miter;stroke-opacity:1" d="M 211.201,711.786 214.869,730.122 z" id="boundary" inkscape:connector-curvature="0" />
	<path style="fill:none;stroke:red;stroke-width:1px;stroke-linecap:butt;stroke-linejoin:miter;stroke-opacity:1" d="M 214.869,55.342 229.538,40.6728 z" id="boundary" inkscape:connector-curvature="0" />
	<path style="fill:none;stroke:red;stroke-width:1px;stroke-linecap:butt;stroke-linejoin:miter;stroke-opacity:1" d="M 214.869,730.122 214.869,748.458 z" id="boundary" inkscape:connector-curvature="0" />
	<path style="fill:none;stroke:red;stroke-width:1px;stroke-linecap:butt;stroke-linejoin:miter;stroke-opacity:1" d="M 214.869,748.458 214.869,766.795 z" id="boundary" inkscape:connector-curvature="0" />
	<path style="fill:none;stroke:red;stroke-width:1px;stroke-linecap:butt;stroke-linejoin:miter;stroke-opacity:1" d="M 214.869,766.795 220.37,785.131 z" id="boundary" inkscape:connector-curvature="0" />
	<path style="fill:none;stroke:red;stroke-width:1px;stroke-linecap:butt;stroke-linejoin:miter;stroke-opacity:1" d="M 220.37,785.131 224.037,803.468 z" id="boundary" inkscape:connector-curvature="0" />
	<path style="fill:none;stroke:red;stroke-width:1px;stroke-linecap:butt;stroke-linejoin:miter;stroke-opacity:1" d="M 220.37,893.316 224.037,858.477 z" id="boundary" inkscape:connector-curvature="0" />
	<path style="fill:none;stroke:red;stroke-width:1px;stroke-linecap:butt;stroke-linejoin:miter;stroke-opacity:1" d="M 224.037,803.468 224.037,821.804 z" id="boundary" inkscape:connector-curvature="0" />
	<path style="fill:none;stroke:red;stroke-width:1px;stroke-linecap:butt;stroke-linejoin:miter;stroke-opacity:1" d="M 224.037,821.804 224.037,840.14 z" id="boundary" inkscape:connector-curvature="0" />
	<path style="fill:none;stroke:red;stroke-width:1px;stroke-linecap:butt;stroke-linejoin:miter;stroke-opacity:1" d="M 224.037,840.14 224.037,858.477 z" id="boundary" inkscape:connector-curvature="0" />
	<path style="fill:none;stroke:red;stroke-width:1px;stroke-linecap:butt;stroke-linejoin:miter;stroke-opacity:1" d="M 224.037,940.991 240.54,950.159 z" id="boundary" inkscape:connector-curvature="0" />
	<path style="fill:none;stroke:red;stroke-width:1px;stroke-linecap:butt;stroke-linejoin:miter;stroke-opacity:1" d="M 229.538,40.6728 244.207,26.0037 z" id="boundary" inkscape:connector-curvature="0" />
	<path style="fill:none;stroke:red;stroke-width:1px;stroke-linecap:butt;stroke-linejoin:miter;stroke-opacity:1" d="M 240.54,950.159 258.876,946.492 z" id="boundary" inkscape:connector-curvature="0" />
	<path style="fill:none;stroke:red;stroke-width:1px;stroke-linecap:butt;stroke-linejoin:miter;stroke-opacity:1" d="M 244.207,26.0037 258.876,13.1682 z" id="boundary" inkscape:connector-curvature="0" />
	<path style="fill:none;stroke:red;stroke-width:1px;stroke-linecap:butt;stroke-linejoin:miter;stroke-opacity:1" d="M 253.375,170.861 253.375,189.198 z" id="boundary" inkscape:connector-curvature="0" />
	<path style="fill:none;stroke:red;stroke-width:1px;stroke-linecap:butt;stroke-linejoin:miter;stroke-opacity:1" d="M 253.375,170.861 262.543,143.357 z" id="boundary" inkscape:connector-curvature="0" />
	<path style="fill:none;stroke:red;stroke-width:1px;stroke-linecap:butt;stroke-linejoin:miter;stroke-opacity:1" d="M 253.375,189.198 253.375,207.534 z" id="boundary" inkscape:connector-curvature="0" />
	<path style="fill:none;stroke:red;stroke-width:1px;stroke-linecap:butt;stroke-linejoin:miter;stroke-opacity:1" d="M 253.375,207.534 253.375,225.871 z" id="boundary" inkscape:connector-curvature="0" />
	<path style="fill:none;stroke:red;stroke-width:1px;stroke-linecap:butt;stroke-linejoin:miter;stroke-opacity:1" d="M 253.375,225.871 253.375,244.207 z" id="boundary" inkscape:connector-curvature="0" />
	<path style="fill:none;stroke:red;stroke-width:1px;stroke-linecap:butt;stroke-linejoin:miter;stroke-opacity:1" d="M 253.375,244.207 262.543,260.71 z" id="boundary" inkscape:connector-curvature="0" />
	<path style="fill:none;stroke:red;stroke-width:1px;stroke-linecap:butt;stroke-linejoin:miter;stroke-opacity:1" d="M 258.876,13.1682 275.379,4 z" id="boundary" inkscape:connector-curvature="0" />
	<path style="fill:none;stroke:red;stroke-width:1px;stroke-linecap:butt;stroke-linejoin:miter;stroke-opacity:1" d="M 258.876,946.492 277.213,937.323 z" id="boundary" inkscape:connector-curvature="0" />
	<path style="fill:none;stroke:red;stroke-width:1px;stroke-linecap:butt;stroke-linejoin:miter;stroke-opacity:1" d="M 262.543,143.357 271.712,115.852 z" id="boundary" inkscape:connector-curvature="0" />
	<path style="fill:none;stroke:red;stroke-width:1px;stroke-linecap:butt;stroke-linejoin:miter;stroke-opacity:1" d="M 262.543,260.71 271.712,277.213 z" id="boundary" inkscape:connector-curvature="0" />
	<path style="fill:none;stroke:red;stroke-width:1px;stroke-linecap:butt;stroke-linejoin:miter;stroke-opacity:1" d="M 271.712,97.5157 271.712,115.852 z" id="boundary" inkscape:connector-curvature="0" />
	<path style="fill:none;stroke:red;stroke-width:1px;stroke-linecap:butt;stroke-linejoin:miter;stroke-opacity:1" d="M 271.712,97.5157 280.88,70.0111 z" id="boundary" inkscape:connector-curvature="0" />
	<path style="fill:none;stroke:red;stroke-width:1px;stroke-linecap:butt;stroke-linejoin:miter;stroke-opacity:1" d="M 271.712,277.213 280.88,293.715 z" id="boundary" inkscape:connector-curvature="0" />
	<path style="fill:none;stroke:red;stroke-width:1px;stroke-linecap:butt;stroke-linejoin:miter;stroke-opacity:1" d="M 275.379,4 288.214,18.6691 z" id="boundary" inkscape:connector-curvature="0" />
	<path style="fill:none;stroke:red;stroke-width:1px;stroke-linecap:butt;stroke-linejoin:miter;stroke-opacity:1" d="M 277.213,937.323 280.88,904.318 z" id="boundary" inkscape:connector-curvature="0" />
	<path style="fill:none;stroke:red;stroke-width:1px;stroke-linecap:butt;stroke-linejoin:miter;stroke-opacity:1" d="M 280.88,70.0111 290.048,37.0055 z" id="boundary" inkscape:connector-curvature="0" />
	<path style="fill:none;stroke:red;stroke-width:1px;stroke-linecap:butt;stroke-linejoin:miter;stroke-opacity:1" d="M 280.88,293.715 293.715,308.384 z" id="boundary" inkscape:connector-curvature="0" />
	<path style="fill:none;stroke:red;stroke-width:1px;stroke-linecap:butt;stroke-linejoin:miter;stroke-opacity:1" d="M 280.88,885.982 280.88,904.318 z" id="boundary" inkscape:connector-curvature="0" />
	<path style="fill:none;stroke:red;stroke-width:1px;stroke-linecap:butt;stroke-linejoin:miter;stroke-opacity:1" d="M 280.88,885.982 290.048,858.477 z" id="boundary" inkscape:connector-curvature="0" />
	<path style="fill:none;stroke:red;stroke-width:1px;stroke-linecap:butt;stroke-linejoin:miter;stroke-opacity:1" d="M 288.214,18.6691 290.048,37.0055 z" id="boundary" inkscape:connector-curvature="0" />
	<path style="fill:none;stroke:red;stroke-width:1px;stroke-linecap:butt;stroke-linejoin:miter;stroke-opacity:1" d="M 290.048,748.458 290.048,766.795 z" id="boundary" inkscape:connector-curvature="0" />
	<path style="fill:none;stroke:red;stroke-width:1px;stroke-linecap:butt;stroke-linejoin:miter;stroke-opacity:1" d="M 290.048,748.458 299.216,730.122 z" id="boundary" inkscape:connector-curvature="0" />
	<path style="fill:none;stroke:red;stroke-width:1px;stroke-linecap:butt;stroke-linejoin:miter;stroke-opacity:1" d="M 290.048,766.795 290.048,785.131 z" id="boundary" inkscape:connector-curvature="0" />
	<path style="fill:none;stroke:red;stroke-width:1px;stroke-linecap:butt;stroke-linejoin:miter;stroke-opacity:1" d="M 290.048,785.131 290.048,803.468 z" id="boundary" inkscape:connector-curvature="0" />
	<path style="fill:none;stroke:red;stroke-width:1px;stroke-linecap:butt;stroke-linejoin:miter;stroke-opacity:1" d="M 290.048,803.468 290.048,821.804 z" id="boundary" inkscape:connector-curvature="0" />
	<path style="fill:none;stroke:red;stroke-width:1px;stroke-linecap:butt;stroke-linejoin:miter;stroke-opacity:1" d="M 290.048,821.804 290.048,840.14 z" id="boundary" inkscape:connector-curvature="0" />
	<path style="fill:none;stroke:red;stroke-width:1px;stroke-linecap:butt;stroke-linejoin:miter;stroke-opacity:1" d="M 290.048,840.14 290.048,858.477 z" id="boundary" inkscape:connector-curvature="0" />
	<path style="fill:none;stroke:red;stroke-width:1px;stroke-linecap:butt;stroke-linejoin:miter;stroke-opacity:1" d="M 293.715,308.384 302.884,324.887 z" id="boundary" inkscape:connector-curvature="0" />
	<path style="fill:none;stroke:red;stroke-width:1px;stroke-linecap:butt;stroke-linejoin:miter;stroke-opacity:1" d="M 299.216,647.608 302.884,665.945 z" id="boundary" inkscape:connector-curvature="0" />
	<path style="fill:none;stroke:red;stroke-width:1px;stroke-linecap:butt;stroke-linejoin:miter;stroke-opacity:1" d="M 299.216,647.608 317.553,651.275 z" id="boundary" inkscape:connector-curvature="0" />
	<path style="fill:none;stroke:red;stroke-width:1px;stroke-linecap:butt;stroke-linejoin:miter;stroke-opacity:1" d="M 299.216,711.786 299.216,730.122 z" id="boundary" inkscape:connector-curvature="0" />
	<path style="fill:none;stroke:red;stroke-width:1px;stroke-linecap:butt;stroke-linejoin:miter;stroke-opacity:1" d="M 299.216,711.786 308.384,684.281 z" id="boundary" inkscape:connector-curvature="0" />
	<path style="fill:none;stroke:red;stroke-width:1px;stroke-linecap:butt;stroke-linejoin:miter;stroke-opacity:1" d="M 302.884,324.887 319.386,334.055 z" id="boundary" inkscape:connector-curvature="0" />
	<path style="fill:none;stroke:red;stroke-width:1px;stroke-linecap:butt;stroke-linejoin:miter;stroke-opacity:1" d="M 302.884,665.945 308.384,684.281 z" id="boundary" inkscape:connector-curvature="0" />
	<path style="fill:none;stroke:red;stroke-width:1px;stroke-linecap:butt;stroke-linejoin:miter;stroke-opacity:1" d="M 317.553,651.275 330.388,665.945 z" id="boundary" inkscape:connector-curvature="0" />
	<path style="fill:none;stroke:red;stroke-width:1px;stroke-linecap:butt;stroke-linejoin:miter;stroke-opacity:1" d="M 319.386,334.055 335.889,343.224 z" id="boundary" inkscape:connector-curvature="0" />
	<path style="fill:none;stroke:red;stroke-width:1px;stroke-linecap:butt;stroke-linejoin:miter;stroke-opacity:1" d="M 330.388,665.945 348.725,673.279 z" id="boundary" inkscape:connector-curvature="0" />
	<path style="fill:none;stroke:red;stroke-width:1px;stroke-linecap:butt;stroke-linejoin:miter;stroke-opacity:1" d="M 335.889,343.224 354.226,348.725 z" id="boundary" inkscape:connector-curvature="0" />
	<path style="fill:none;stroke:red;stroke-width:1px;stroke-linecap:butt;stroke-linejoin:miter;stroke-opacity:1" d="M 348.725,673.279 367.061,675.113 z" id="boundary" inkscape:connector-curvature="0" />
	<path style="fill:none;stroke:red;stroke-width:1px;stroke-linecap:butt;stroke-linejoin:miter;stroke-opacity:1" d="M 354.226,348.725 370.728,357.893 z" id="boundary" inkscape:connector-curvature="0" />
	<path style="fill:none;stroke:red;stroke-width:1px;stroke-linecap:butt;stroke-linejoin:miter;stroke-opacity:1" d="M 367.061,675.113 385.397,682.447 z" id="boundary" inkscape:connector-curvature="0" />
	<path style="fill:none;stroke:red;stroke-width:1px;stroke-linecap:butt;stroke-linejoin:miter;stroke-opacity:1" d="M 370.728,357.893 389.065,365.227 z" id="boundary" inkscape:connector-curvature="0" />
	<path style="fill:none;stroke:red;stroke-width:1px;stroke-linecap:butt;stroke-linejoin:miter;stroke-opacity:1" d="M 385.397,682.447 403.734,684.281 z" id="boundary" inkscape:connector-curvature="0" />
	<path style="fill:none;stroke:red;stroke-width:1px;stroke-linecap:butt;stroke-linejoin:miter;stroke-opacity:1" d="M 389.065,365.227 407.401,370.728 z" id="boundary" inkscape:connector-curvature="0" />
	<path style="fill:none;stroke:red;stroke-width:1px;stroke-linecap:butt;stroke-linejoin:miter;stroke-opacity:1" d="M 403.734,684.281 422.07,684.281 z" id="boundary" inkscape:connector-curvature="0" />
	<path style="fill:none;stroke:red;stroke-width:1px;stroke-linecap:butt;stroke-linejoin:miter;stroke-opacity:1" d="M 407.401,370.728 425.738,374.396 z" id="boundary" inkscape:connector-curvature="0" />
	<path style="fill:none;stroke:red;stroke-width:1px;stroke-linecap:butt;stroke-linejoin:miter;stroke-opacity:1" d="M 422.07,684.281 438.573,693.449 z" id="boundary" inkscape:connector-curvature="0" />
	<path style="fill:none;stroke:red;stroke-width:1px;stroke-linecap:butt;stroke-linejoin:miter;stroke-opacity:1" d="M 425.738,374.396 444.074,379.896 z" id="boundary" inkscape:connector-curvature="0" />
	<path style="fill:none;stroke:red;stroke-width:1px;stroke-linecap:butt;stroke-linejoin:miter;stroke-opacity:1" d="M 438.573,693.449 456.909,693.449 z" id="boundary" inkscape:connector-curvature="0" />
	<path style="fill:none;stroke:red;stroke-width:1px;stroke-linecap:butt;stroke-linejoin:miter;stroke-opacity:1" d="M 444.074,379.896 462.41,383.564 z" id="boundary" inkscape:connector-curvature="0" />
	<path style="fill:none;stroke:red;stroke-width:1px;stroke-linecap:butt;stroke-linejoin:miter;stroke-opacity:1" d="M 456.909,693.449 475.246,698.95 z" id="boundary" inkscape:connector-curvature="0" />
	<path style="fill:none;stroke:red;stroke-width:1px;stroke-linecap:butt;stroke-linejoin:miter;stroke-opacity:1" d="M 462.41,383.564 480.747,389.065 z" id="boundary" inkscape:connector-curvature="0" />
	<path style="fill:none;stroke:red;stroke-width:1px;stroke-linecap:butt;stroke-linejoin:miter;stroke-opacity:1" d="M 475.246,698.95 491.749,708.118 z" id="boundary" inkscape:connector-curvature="0" />
	<path style="fill:none;stroke:red;stroke-width:1px;stroke-linecap:butt;stroke-linejoin:miter;stroke-opacity:1" d="M 480.747,389.065 499.083,389.065 z" id="boundary" inkscape:connector-curvature="0" />
	<path style="fill:none;stroke:red;stroke-width:1px;stroke-linecap:butt;stroke-linejoin:miter;stroke-opacity:1" d="M 491.749,708.118 510.085,715.453 z" id="boundary" inkscape:connector-curvature="0" />
	<path style="fill:none;stroke:red;stroke-width:1px;stroke-linecap:butt;stroke-linejoin:miter;stroke-opacity:1" d="M 499.083,389.065 517.42,389.065 z" id="boundary" inkscape:connector-curvature="0" />
	<path style="fill:none;stroke:red;stroke-width:1px;stroke-linecap:butt;stroke-linejoin:miter;stroke-opacity:1" d="M 510.085,715.453 528.421,720.954 z" id="boundary" inkscape:connector-curvature="0" />
	<path style="fill:none;stroke:red;stroke-width:1px;stroke-linecap:butt;stroke-linejoin:miter;stroke-opacity:1" d="M 517.42,389.065 535.756,389.065 z" id="boundary" inkscape:connector-curvature="0" />
	<path style="fill:none;stroke:red;stroke-width:1px;stroke-linecap:butt;stroke-linejoin:miter;stroke-opacity:1" d="M 528.421,720.954 546.758,720.954 z" id="boundary" inkscape:connector-curvature="0" />
	<path style="fill:none;stroke:red;stroke-width:1px;stroke-linecap:butt;stroke-linejoin:miter;stroke-opacity:1" d="M 535.756,389.065 554.092,389.065 z" id="boundary" inkscape:connector-curvature="0" />
	<path style="fill:none;stroke:red;stroke-width:1px;stroke-linecap:butt;stroke-linejoin:miter;stroke-opacity:1" d="M 544.924,889.649 544.924,907.985 z" id="boundary" inkscape:connector-curvature="0" />
	<path style="fill:none;stroke:red;stroke-width:1px;stroke-linecap:butt;stroke-linejoin:miter;stroke-opacity:1" d="M 544.924,889.649 559.593,874.98 z" id="boundary" inkscape:connector-curvature="0" />
	<path style="fill:none;stroke:red;stroke-width:1px;stroke-linecap:butt;stroke-linejoin:miter;stroke-opacity:1" d="M 544.924,907.985 563.261,913.486 z" id="boundary" inkscape:connector-curvature="0" />
	<path style="fill:none;stroke:red;stroke-width:1px;stroke-linecap:butt;stroke-linejoin:miter;stroke-opacity:1" d="M 546.758,720.954 563.261,730.122 z" id="boundary" inkscape:connector-curvature="0" />
	<path style="fill:none;stroke:red;stroke-width:1px;stroke-linecap:butt;stroke-linejoin:miter;stroke-opacity:1" d="M 554.092,389.065 572.429,389.065 z" id="boundary" inkscape:connector-curvature="0" />
	<path style="fill:none;stroke:red;stroke-width:1px;stroke-linecap:butt;stroke-linejoin:miter;stroke-opacity:1" d="M 559.593,874.98 576.096,865.811 z" id="boundary" inkscape:connector-curvature="0" />
	<path style="fill:none;stroke:red;stroke-width:1px;stroke-linecap:butt;stroke-linejoin:miter;stroke-opacity:1" d="M 563.261,730.122 574.262,744.791 z" id="boundary" inkscape:connector-curvature="0" />
	<path style="fill:none;stroke:red;stroke-width:1px;stroke-linecap:butt;stroke-linejoin:miter;stroke-opacity:1" d="M 563.261,913.486 579.763,922.654 z" id="boundary" inkscape:connector-curvature="0" />
	<path style="fill:none;stroke:red;stroke-width:1px;stroke-linecap:butt;stroke-linejoin:miter;stroke-opacity:1" d="M 572.429,389.065 590.765,389.065 z" id="boundary" inkscape:connector-curvature="0" />
	<path style="fill:none;stroke:red;stroke-width:1px;stroke-linecap:butt;stroke-linejoin:miter;stroke-opacity:1" d="M 574.262,744.791 588.932,757.627 z" id="boundary" inkscape:connector-curvature="0" />
	<path style="fill:none;stroke:red;stroke-width:1px;stroke-linecap:butt;stroke-linejoin:miter;stroke-opacity:1" d="M 576.096,865.811 594.433,865.811 z" id="boundary" inkscape:connector-curvature="0" />
	<path style="fill:none;stroke:red;stroke-width:1px;stroke-linecap:butt;stroke-linejoin:miter;stroke-opacity:1" d="M 579.763,922.654 598.1,922.654 z" id="boundary" inkscape:connector-curvature="0" />
	<path style="fill:none;stroke:red;stroke-width:1px;stroke-linecap:butt;stroke-linejoin:miter;stroke-opacity:1" d="M 588.932,757.627 605.434,766.795 z" id="boundary" inkscape:connector-curvature="0" />
	<path style="fill:none;stroke:red;stroke-width:1px;stroke-linecap:butt;stroke-linejoin:miter;stroke-opacity:1" d="M 590.765,389.065 609.102,389.065 z" id="boundary" inkscape:connector-curvature="0" />
	<path style="fill:none;stroke:red;stroke-width:1px;stroke-linecap:butt;stroke-linejoin:miter;stroke-opacity:1" d="M 594.433,865.811 612.769,858.477 z" id="boundary" inkscape:connector-curvature="0" />
	<path style="fill:none;stroke:red;stroke-width:1px;stroke-linecap:butt;stroke-linejoin:miter;stroke-opacity:1" d="M 598.1,922.654 616.436,922.654 z" id="boundary" inkscape:connector-curvature="0" />
	<path style="fill:none;stroke:red;stroke-width:1px;stroke-linecap:butt;stroke-linejoin:miter;stroke-opacity:1" d="M 605.434,766.795 620.104,779.63 z" id="boundary" inkscape:connector-curvature="0" />
	<path style="fill:none;stroke:red;stroke-width:1px;stroke-linecap:butt;stroke-linejoin:miter;stroke-opacity:1" d="M 609.102,389.065 625.604,398.233 z" id="boundary" inkscape:connector-curvature="0" />
	<path style="fill:none;stroke:red;stroke-width:1px;stroke-linecap:butt;stroke-linejoin:miter;stroke-opacity:1" d="M 612.769,858.477 627.438,843.808 z" id="boundary" inkscape:connector-curvature="0" />
	<path style="fill:none;stroke:red;stroke-width:1px;stroke-linecap:butt;stroke-linejoin:miter;stroke-opacity:1" d="M 616.436,922.654 632.939,913.486 z" id="boundary" inkscape:connector-curvature="0" />
	<path style="fill:none;stroke:red;stroke-width:1px;stroke-linecap:butt;stroke-linejoin:miter;stroke-opacity:1" d="M 620.104,779.63 636.606,788.799 z" id="boundary" inkscape:connector-curvature="0" />
	<path style="fill:none;stroke:red;stroke-width:1px;stroke-linecap:butt;stroke-linejoin:miter;stroke-opacity:1" d="M 625.604,398.233 643.941,398.233 z" id="boundary" inkscape:connector-curvature="0" />
	<path style="fill:none;stroke:red;stroke-width:1px;stroke-linecap:butt;stroke-linejoin:miter;stroke-opacity:1" d="M 627.438,843.808 636.606,825.471 z" id="boundary" inkscape:connector-curvature="0" />
	<path style="fill:none;stroke:red;stroke-width:1px;stroke-linecap:butt;stroke-linejoin:miter;stroke-opacity:1" d="M 632.939,913.486 649.442,904.318 z" id="boundary" inkscape:connector-curvature="0" />
	<path style="fill:none;stroke:red;stroke-width:1px;stroke-linecap:butt;stroke-linejoin:miter;stroke-opacity:1" d="M 636.606,788.799 645.774,805.301 z" id="boundary" inkscape:connector-curvature="0" />
	<path style="fill:none;stroke:red;stroke-width:1px;stroke-linecap:butt;stroke-linejoin:miter;stroke-opacity:1" d="M 636.606,825.471 645.774,805.301 z" id="boundary" inkscape:connector-curvature="0" />
	<path style="fill:none;stroke:red;stroke-width:1px;stroke-linecap:butt;stroke-linejoin:miter;stroke-opacity:1" d="M 643.941,398.233 662.277,398.233 z" id="boundary" inkscape:connector-curvature="0" />
	<path style="fill:none;stroke:red;stroke-width:1px;stroke-linecap:butt;stroke-linejoin:miter;stroke-opacity:1" d="M 649.442,904.318 654.943,926.322 z" id="boundary" inkscape:connector-curvature="0" />
	<path style="fill:none;stroke:red;stroke-width:1px;stroke-linecap:butt;stroke-linejoin:miter;stroke-opacity:1" d="M 654.943,926.322 664.111,942.824 z" id="boundary" inkscape:connector-curvature="0" />
	<path style="fill:none;stroke:red;stroke-width:1px;stroke-linecap:butt;stroke-linejoin:miter;stroke-opacity:1" d="M 662.277,398.233 680.614,400.067 z" id="boundary" inkscape:connector-curvature="0" />
	<path style="fill:none;stroke:red;stroke-width:1px;stroke-linecap:butt;stroke-linejoin:miter;stroke-opacity:1" d="M 664.111,889.649 669.612,911.652 z" id="boundary" inkscape:connector-curvature="0" />
	<path style="fill:none;stroke:red;stroke-width:1px;stroke-linecap:butt;stroke-linejoin:miter;stroke-opacity:1" d="M 664.111,889.649 678.78,874.98 z" id="boundary" inkscape:connector-curvature="0" />
	<path style="fill:none;stroke:red;stroke-width:1px;stroke-linecap:butt;stroke-linejoin:miter;stroke-opacity:1" d="M 664.111,942.824 682.447,950.159 z" id="boundary" inkscape:connector-curvature="0" />
	<path style="fill:none;stroke:red;stroke-width:1px;stroke-linecap:butt;stroke-linejoin:miter;stroke-opacity:1" d="M 669.612,911.652 686.115,902.484 z" id="boundary" inkscape:connector-curvature="0" />
	<path style="fill:none;stroke:red;stroke-width:1px;stroke-linecap:butt;stroke-linejoin:miter;stroke-opacity:1" d="M 678.78,874.98 693.449,849.309 z" id="boundary" inkscape:connector-curvature="0" />
	<path style="fill:none;stroke:red;stroke-width:1px;stroke-linecap:butt;stroke-linejoin:miter;stroke-opacity:1" d="M 680.614,400.067 698.95,407.401 z" id="boundary" inkscape:connector-curvature="0" />
	<path style="fill:none;stroke:red;stroke-width:1px;stroke-linecap:butt;stroke-linejoin:miter;stroke-opacity:1" d="M 682.447,950.159 700.784,950.159 z" id="boundary" inkscape:connector-curvature="0" />
	<path style="fill:none;stroke:red;stroke-width:1px;stroke-linecap:butt;stroke-linejoin:miter;stroke-opacity:1" d="M 686.115,902.484 700.784,889.649 z" id="boundary" inkscape:connector-curvature="0" />
	<path style="fill:none;stroke:red;stroke-width:1px;stroke-linecap:butt;stroke-linejoin:miter;stroke-opacity:1" d="M 693.449,849.309 702.617,830.972 z" id="boundary" inkscape:connector-curvature="0" />
	<path style="fill:none;stroke:red;stroke-width:1px;stroke-linecap:butt;stroke-linejoin:miter;stroke-opacity:1" d="M 698.95,407.401 717.287,407.401 z" id="boundary" inkscape:connector-curvature="0" />
	<path style="fill:none;stroke:red;stroke-width:1px;stroke-linecap:butt;stroke-linejoin:miter;stroke-opacity:1" d="M 700.784,889.649 715.453,874.98 z" id="boundary" inkscape:connector-curvature="0" />
	<path style="fill:none;stroke:red;stroke-width:1px;stroke-linecap:butt;stroke-linejoin:miter;stroke-opacity:1" d="M 700.784,950.159 719.12,950.159 z" id="boundary" inkscape:connector-curvature="0" />
	<path style="fill:none;stroke:red;stroke-width:1px;stroke-linecap:butt;stroke-linejoin:miter;stroke-opacity:1" d="M 702.617,830.972 719.12,821.804 z" id="boundary" inkscape:connector-curvature="0" />
	<path style="fill:none;stroke:red;stroke-width:1px;stroke-linecap:butt;stroke-linejoin:miter;stroke-opacity:1" d="M 715.453,874.98 728.288,852.976 z" id="boundary" inkscape:connector-curvature="0" />
	<path style="fill:none;stroke:red;stroke-width:1px;stroke-linecap:butt;stroke-linejoin:miter;stroke-opacity:1" d="M 717.287,407.401 733.789,416.569 z" id="boundary" inkscape:connector-curvature="0" />
	<path style="fill:none;stroke:red;stroke-width:1px;stroke-linecap:butt;stroke-linejoin:miter;stroke-opacity:1" d="M 719.12,821.804 737.457,821.804 z" id="boundary" inkscape:connector-curvature="0" />
	<path style="fill:none;stroke:red;stroke-width:1px;stroke-linecap:butt;stroke-linejoin:miter;stroke-opacity:1" d="M 719.12,950.159 737.457,944.658 z" id="boundary" inkscape:connector-curvature="0" />
	<path style="fill:none;stroke:red;stroke-width:1px;stroke-linecap:butt;stroke-linejoin:miter;stroke-opacity:1" d="M 728.288,852.976 737.457,821.804 z" id="boundary" inkscape:connector-curvature="0" />
	<path style="fill:none;stroke:red;stroke-width:1px;stroke-linecap:butt;stroke-linejoin:miter;stroke-opacity:1" d="M 733.789,416.569 750.292,425.738 z" id="boundary" inkscape:connector-curvature="0" />
	<path style="fill:none;stroke:red;stroke-width:1px;stroke-linecap:butt;stroke-linejoin:miter;stroke-opacity:1" d="M 737.457,944.658 746.625,926.322 z" id="boundary" inkscape:connector-curvature="0" />
	<path style="fill:none;stroke:red;stroke-width:1px;stroke-linecap:butt;stroke-linejoin:miter;stroke-opacity:1" d="M 746.625,926.322 757.627,904.318 z" id="boundary" inkscape:connector-curvature="0" />
	<path style="fill:none;stroke:red;stroke-width:1px;stroke-linecap:butt;stroke-linejoin:miter;stroke-opacity:1" d="M 750.292,425.738 766.795,434.906 z" id="boundary" inkscape:connector-curvature="0" />
	<path style="fill:none;stroke:red;stroke-width:1px;stroke-linecap:butt;stroke-linejoin:miter;stroke-opacity:1" d="M 757.627,904.318 772.296,891.482 z" id="boundary" inkscape:connector-curvature="0" />
	<path style="fill:none;stroke:red;stroke-width:1px;stroke-linecap:butt;stroke-linejoin:miter;stroke-opacity:1" d="M 766.795,434.906 785.131,440.407 z" id="boundary" inkscape:connector-curvature="0" />
	<path style="fill:none;stroke:red;stroke-width:1px;stroke-linecap:butt;stroke-linejoin:miter;stroke-opacity:1" d="M 772.296,891.482 781.464,873.146 z" id="boundary" inkscape:connector-curvature="0" />
	<path style="fill:none;stroke:red;stroke-width:1px;stroke-linecap:butt;stroke-linejoin:miter;stroke-opacity:1" d="M 781.464,873.146 794.299,858.477 z" id="boundary" inkscape:connector-curvature="0" />
	<path style="fill:none;stroke:red;stroke-width:1px;stroke-linecap:butt;stroke-linejoin:miter;stroke-opacity:1" d="M 785.131,440.407 801.634,449.575 z" id="boundary" inkscape:connector-curvature="0" />
	<path style="fill:none;stroke:red;stroke-width:1px;stroke-linecap:butt;stroke-linejoin:miter;stroke-opacity:1" d="M 794.299,858.477 803.468,840.14 z" id="boundary" inkscape:connector-curvature="0" />
	<path style="fill:none;stroke:red;stroke-width:1px;stroke-linecap:butt;stroke-linejoin:miter;stroke-opacity:1" d="M 801.634,449.575 819.97,456.909 z" id="boundary" inkscape:connector-curvature="0" />
	<path style="fill:none;stroke:red;stroke-width:1px;stroke-linecap:butt;stroke-linejoin:miter;stroke-opacity:1" d="M 803.468,702.617 803.468,720.954 z" id="boundary" inkscape:connector-curvature="0" />
	<path style="fill:none;stroke:red;stroke-width:1px;stroke-linecap:butt;stroke-linejoin:miter;stroke-opacity:1" d="M 803.468,702.617 812.636,675.113 z" id="boundary" inkscape:connector-curvature="0" />
	<path style="fill:none;stroke:red;stroke-width:1px;stroke-linecap:butt;stroke-linejoin:miter;stroke-opacity:1" d="M 803.468,720.954 812.636,737.457 z" id="boundary" inkscape:connector-curvature="0" />
	<path style="fill:none;stroke:red;stroke-width:1px;stroke-linecap:butt;stroke-linejoin:miter;stroke-opacity:1" d="M 803.468,840.14 818.137,827.305 z" id="boundary" inkscape:connector-curvature="0" />
	<path style="fill:none;stroke:red;stroke-width:1px;stroke-linecap:butt;stroke-linejoin:miter;stroke-opacity:1" d="M 812.636,675.113 821.804,656.776 z" id="boundary" inkscape:connector-curvature="0" />
	<path style="fill:none;stroke:red;stroke-width:1px;stroke-linecap:butt;stroke-linejoin:miter;stroke-opacity:1" d="M 812.636,737.457 821.804,753.959 z" id="boundary" inkscape:connector-curvature="0" />
	<path style="fill:none;stroke:red;stroke-width:1px;stroke-linecap:butt;stroke-linejoin:miter;stroke-opacity:1" d="M 818.137,827.305 827.305,808.969 z" id="boundary" inkscape:connector-curvature="0" />
	<path style="fill:none;stroke:red;stroke-width:1px;stroke-linecap:butt;stroke-linejoin:miter;stroke-opacity:1" d="M 819.97,456.909 830.972,471.579 z" id="boundary" inkscape:connector-curvature="0" />
	<path style="fill:none;stroke:red;stroke-width:1px;stroke-linecap:butt;stroke-linejoin:miter;stroke-opacity:1" d="M 821.804,656.776 830.972,638.44 z" id="boundary" inkscape:connector-curvature="0" />
	<path style="fill:none;stroke:red;stroke-width:1px;stroke-linecap:butt;stroke-linejoin:miter;stroke-opacity:1" d="M 821.804,753.959 830.972,770.462 z" id="boundary" inkscape:connector-curvature="0" />
	<path style="fill:none;stroke:red;stroke-width:1px;stroke-linecap:butt;stroke-linejoin:miter;stroke-opacity:1" d="M 827.305,808.969 830.972,788.799 z" id="boundary" inkscape:connector-curvature="0" />
	<path style="fill:none;stroke:red;stroke-width:1px;stroke-linecap:butt;stroke-linejoin:miter;stroke-opacity:1" d="M 830.972,471.579 849.309,477.079 z" id="boundary" inkscape:connector-curvature="0" />
	<path style="fill:none;stroke:red;stroke-width:1px;stroke-linecap:butt;stroke-linejoin:miter;stroke-opacity:1" d="M 830.972,638.44 845.641,625.604 z" id="boundary" inkscape:connector-curvature="0" />
	<path style="fill:none;stroke:red;stroke-width:1px;stroke-linecap:butt;stroke-linejoin:miter;stroke-opacity:1" d="M 830.972,770.462 830.972,788.799 z" id="boundary" inkscape:connector-curvature="0" />
	<path style="fill:none;stroke:red;stroke-width:1px;stroke-linecap:butt;stroke-linejoin:miter;stroke-opacity:1" d="M 845.641,625.604 863.978,620.104 z" id="boundary" inkscape:connector-curvature="0" />
	<path style="fill:none;stroke:red;stroke-width:1px;stroke-linecap:butt;stroke-linejoin:miter;stroke-opacity:1" d="M 849.309,477.079 856.643,495.416 z" id="boundary" inkscape:connector-curvature="0" />
	<path style="fill:none;stroke:red;stroke-width:1px;stroke-linecap:butt;stroke-linejoin:miter;stroke-opacity:1" d="M 856.643,495.416 871.312,508.251 z" id="boundary" inkscape:connector-curvature="0" />
	<path style="fill:none;stroke:red;stroke-width:1px;stroke-linecap:butt;stroke-linejoin:miter;stroke-opacity:1" d="M 863.978,620.104 880.481,629.272 z" id="boundary" inkscape:connector-curvature="0" />
	<path style="fill:none;stroke:red;stroke-width:1px;stroke-linecap:butt;stroke-linejoin:miter;stroke-opacity:1" d="M 871.312,508.251 884.148,522.921 z" id="boundary" inkscape:connector-curvature="0" />
	<path style="fill:none;stroke:red;stroke-width:1px;stroke-linecap:butt;stroke-linejoin:miter;stroke-opacity:1" d="M 880.481,629.272 898.817,636.606 z" id="boundary" inkscape:connector-curvature="0" />
	<path style="fill:none;stroke:red;stroke-width:1px;stroke-linecap:butt;stroke-linejoin:miter;stroke-opacity:1" d="M 884.148,522.921 893.316,504.584 z" id="boundary" inkscape:connector-curvature="0" />
	<path style="fill:none;stroke:red;stroke-width:1px;stroke-linecap:butt;stroke-linejoin:miter;stroke-opacity:1" d="M 893.316,504.584 902.484,486.248 z" id="boundary" inkscape:connector-curvature="0" />
	<path style="fill:none;stroke:red;stroke-width:1px;stroke-linecap:butt;stroke-linejoin:miter;stroke-opacity:1" d="M 898.817,636.606 911.652,651.275 z" id="boundary" inkscape:connector-curvature="0" />
	<path style="fill:none;stroke:red;stroke-width:1px;stroke-linecap:butt;stroke-linejoin:miter;stroke-opacity:1" d="M 902.484,449.575 902.484,467.911 z" id="boundary" inkscape:connector-curvature="0" />
	<path style="fill:none;stroke:red;stroke-width:1px;stroke-linecap:butt;stroke-linejoin:miter;stroke-opacity:1" d="M 902.484,449.575 920.821,447.741 z" id="boundary" inkscape:connector-curvature="0" />
	<path style="fill:none;stroke:red;stroke-width:1px;stroke-linecap:butt;stroke-linejoin:miter;stroke-opacity:1" d="M 902.484,467.911 902.484,486.248 z" id="boundary" inkscape:connector-curvature="0" />
	<path style="fill:none;stroke:red;stroke-width:1px;stroke-linecap:butt;stroke-linejoin:miter;stroke-opacity:1" d="M 911.652,651.275 920.821,667.778 z" id="boundary" inkscape:connector-curvature="0" />
	<path style="fill:none;stroke:red;stroke-width:1px;stroke-linecap:butt;stroke-linejoin:miter;stroke-opacity:1" d="M 920.821,447.741 931.823,462.41 z" id="boundary" inkscape:connector-curvature="0" />
	<path style="fill:none;stroke:red;stroke-width:1px;stroke-linecap:butt;stroke-linejoin:miter;stroke-opacity:1" d="M 920.821,667.778 929.989,684.281 z" id="boundary" inkscape:connector-curvature="0" />
	<path style="fill:none;stroke:red;stroke-width:1px;stroke-linecap:butt;stroke-linejoin:miter;stroke-opacity:1" d="M 929.989,684.281 929.989,702.617 z" id="boundary" inkscape:connector-curvature="0" />
	<path style="fill:none;stroke:red;stroke-width:1px;stroke-linecap:butt;stroke-linejoin:miter;stroke-opacity:1" d="M 929.989,702.617 939.157,719.12 z" id="boundary" inkscape:connector-curvature="0" />
	<path style="fill:none;stroke:red;stroke-width:1px;stroke-linecap:butt;stroke-linejoin:miter;stroke-opacity:1" d="M 931.823,462.41 940.991,478.913 z" id="boundary" inkscape:connector-curvature="0" />
	<path style="fill:none;stroke:red;stroke-width:1px;stroke-linecap:butt;stroke-linejoin:miter;stroke-opacity:1" d="M 939.157,719.12 950.159,733.789 z" id="boundary" inkscape:connector-curvature="0" />
	<path style="fill:none;stroke:red;stroke-width:1px;stroke-linecap:butt;stroke-linejoin:miter;stroke-opacity:1" d="M 940.991,478.913 940.991,497.25 z" id="boundary" inkscape:connector-curvature="0" />
	<path style="fill:none;stroke:red;stroke-width:1px;stroke-linecap:butt;stroke-linejoin:miter;stroke-opacity:1" d="M 940.991,497.25 950.159,513.752 z" id="boundary" inkscape:connector-curvature="0" />
	<path style="fill:none;stroke:red;stroke-width:1px;stroke-linecap:butt;stroke-linejoin:miter;stroke-opacity:1" d="M 950.159,513.752 950.159,532.089 z" id="boundary" inkscape:connector-curvature="0" />
	<path style="fill:none;stroke:red;stroke-width:1px;stroke-linecap:butt;stroke-linejoin:miter;stroke-opacity:1" d="M 950.159,532.089 959.327,548.591 z" id="boundary" inkscape:connector-curvature="0" />
	<path style="fill:none;stroke:red;stroke-width:1px;stroke-linecap:butt;stroke-linejoin:miter;stroke-opacity:1" d="M 950.159,733.789 968.495,739.29 z" id="boundary" inkscape:connector-curvature="0" />
	<path style="fill:none;stroke:red;stroke-width:1px;stroke-linecap:butt;stroke-linejoin:miter;stroke-opacity:1" d="M 959.327,548.591 959.327,566.928 z" id="boundary" inkscape:connector-curvature="0" />
	<path style="fill:none;stroke:red;stroke-width:1px;stroke-linecap:butt;stroke-linejoin:miter;stroke-opacity:1" d="M 959.327,566.928 959.327,585.264 z" id="boundary" inkscape:connector-curvature="0" />
	<path style="fill:none;stroke:red;stroke-width:1px;stroke-linecap:butt;stroke-linejoin:miter;stroke-opacity:1" d="M 959.327,585.264 959.327,603.601 z" id="boundary" inkscape:connector-curvature="0" />
	<path style="fill:none;stroke:red;stroke-width:1px;stroke-linecap:butt;stroke-linejoin:miter;stroke-opacity:1" d="M 959.327,603.601 968.495,620.104 z" id="boundary" inkscape:connector-curvature="0" />
	<path style="fill:none;stroke:red;stroke-width:1px;stroke-linecap:butt;stroke-linejoin:miter;stroke-opacity:1" d="M 968.495,620.104 972.163,638.44 z" id="boundary" inkscape:connector-curvature="0" />
	<path style="fill:none;stroke:red;stroke-width:1px;stroke-linecap:butt;stroke-linejoin:miter;stroke-opacity:1" d="M 968.495,739.29 986.832,730.122 z" id="boundary" inkscape:connector-curvature="0" />
	<path style="fill:none;stroke:red;stroke-width:1px;stroke-linecap:butt;stroke-linejoin:miter;stroke-opacity:1" d="M 972.163,638.44 986.832,651.275 z" id="boundary" inkscape:connector-curvature="0" />
	<path style="fill:none;stroke:red;stroke-width:1px;stroke-linecap:butt;stroke-linejoin:miter;stroke-opacity:1" d="M 986.832,651.275 994.166,669.612 z" id="boundary" inkscape:connector-curvature="0" />
	<path style="fill:none;stroke:red;stroke-width:1px;stroke-linecap:butt;stroke-linejoin:miter;stroke-opacity:1" d="M 986.832,730.122 996,706.285 z" id="boundary" inkscape:connector-curvature="0" />
	<path style="fill:none;stroke:red;stroke-width:1px;stroke-linecap:butt;stroke-linejoin:miter;stroke-opacity:1" d="M 994.166,669.612 996,687.948 z" id="boundary" inkscape:connector-curvature="0" />
	<path style="fill:none;stroke:red;stroke-width:1px;stroke-linecap:butt;stroke-linejoin:miter;stroke-opacity:1" d="M 996,687.948 996,706.285 z" id="boundary" inkscape:connector-curvature="0" />
	<circle cx="4" cy="907.985" r="4" fill="#0" id="circle0"/>
	<circle cx="13.1682" cy="889.649" r="4" fill="#0" id="circle1"/>
	<circle cx="18.6691" cy="920.821" r="4" fill="#0" id="circle2"/>
	<circle cx="22.3364" cy="27.8373" r="4" fill="#0" id="circle3"/>
	<circle cx="22.3364" cy="46.1738" r="4" fill="#0" id="circle4"/>
	<circle cx="27.8373" cy="874.98" r="4" fill="#0" id="circle5"/>
	<circle cx="31.5046" cy="62.6765" r="4" fill="#0" id="circle6"/>
	<circle cx="31.5046" cy="81.0129" r="4" fill="#0" id="circle7"/>
	<circle cx="37.0055" cy="13.1682" r="4" fill="#0" id="circle8"/>
	<circle cx="37.0055" cy="922.654" r="4" fill="#0" id="circle9"/>
	<circle cx="40.6728" cy="97.5157" r="4" fill="#0" id="circle10"/>
	<circle cx="40.6728" cy="115.852" r="4" fill="#0" id="circle11"/>
	<circle cx="40.6728" cy="134.189" r="4" fill="#0" id="circle12"/>
	<circle cx="44.3401" cy="865.811" r="4" fill="#0" id="circle13"/>
	<circle cx="46.1738" cy="152.525" r="4" fill="#0" id="circle14"/>
	<circle cx="49.841" cy="170.861" r="4" fill="#0" id="circle15"/>
	<circle cx="49.841" cy="189.198" r="4" fill="#0" id="circle16"/>
	<circle cx="55.342" cy="13.1682" r="4" fill="#0" id="circle17"/>
	<circle cx="55.342" cy="922.654" r="4" fill="#0" id="circle18"/>
	<circle cx="59.0092" cy="205.701" r="4" fill="#0" id="circle19"/>
	<circle cx="59.0092" cy="403.734" r="4" fill="#0" id="circle20"/>
	<circle cx="59.0092" cy="422.07" r="4" fill="#0" id="circle21"/>
	<circle cx="59.0092" cy="440.407" r="4" fill="#0" id="circle22"/>
	<circle cx="59.0092" cy="458.743" r="4" fill="#0" id="circle23"/>
	<circle cx="62.6765" cy="224.037" r="4" fill="#0" id="circle24"/>
	<circle cx="62.6765" cy="858.477" r="4" fill="#0" id="circle25"/>
	<circle cx="68.1774" cy="242.373" r="4" fill="#0" id="circle26"/>
	<circle cx="68.1774" cy="376.229" r="4" fill="#0" id="circle27"/>
	<circle cx="68.1774" cy="475.246" r="4" fill="#0" id="circle28"/>
	<circle cx="68.1774" cy="493.582" r="4" fill="#0" id="circle29"/>
	<circle cx="71.8447" cy="22.3364" r="4" fill="#0" id="circle30"/>
	<circle cx="73.6784" cy="920.821" r="4" fill="#0" id="circle31"/>
	<circle cx="77.3457" cy="284.547" r="4" fill="#0" id="circle32"/>
	<circle cx="77.3457" cy="312.052" r="4" fill="#0" id="circle33"/>
	<circle cx="77.3457" cy="348.725" r="4" fill="#0" id="circle34"/>
	<circle cx="77.3457" cy="510.085" r="4" fill="#0" id="circle35"/>
	<circle cx="77.3457" cy="532.089" r="4" fill="#0" id="circle36"/>
	<circle cx="77.3457" cy="825.471" r="4" fill="#0" id="circle37"/>
	<circle cx="77.3457" cy="843.808" r="4" fill="#0" id="circle38"/>
	<circle cx="79.1793" cy="257.043" r="4" fill="#0" id="circle39"/>
	<circle cx="86.5139" cy="35.1719" r="4" fill="#0" id="circle40"/>
	<circle cx="86.5139" cy="328.555" r="4" fill="#0" id="circle41"/>
	<circle cx="86.5139" cy="548.591" r="4" fill="#0" id="circle42"/>
	<circle cx="86.5139" cy="566.928" r="4" fill="#0" id="circle43"/>
	<circle cx="86.5139" cy="761.294" r="4" fill="#0" id="circle44"/>
	<circle cx="86.5139" cy="779.63" r="4" fill="#0" id="circle45"/>
	<circle cx="86.5139" cy="797.967" r="4" fill="#0" id="circle46"/>
	<circle cx="88.3475" cy="904.318" r="4" fill="#0" id="circle47"/>
	<circle cx="95.6821" cy="583.431" r="4" fill="#0" id="circle48"/>
	<circle cx="95.6821" cy="601.767" r="4" fill="#0" id="circle49"/>
	<circle cx="95.6821" cy="620.104" r="4" fill="#0" id="circle50"/>
	<circle cx="95.6821" cy="638.44" r="4" fill="#0" id="circle51"/>
	<circle cx="95.6821" cy="656.776" r="4" fill="#0" id="circle52"/>
	<circle cx="95.6821" cy="675.113" r="4" fill="#0" id="circle53"/>
	<circle cx="95.6821" cy="693.449" r="4" fill="#0" id="circle54"/>
	<circle cx="95.6821" cy="711.786" r="4" fill="#0" id="circle55"/>
	<circle cx="95.6821" cy="730.122" r="4" fill="#0" id="circle56"/>
	<circle cx="97.5157" cy="49.841" r="4" fill="#0" id="circle57"/>
	<circle cx="103.017" cy="891.482" r="4" fill="#0" id="circle58"/>
	<circle cx="112.185" cy="60.8429" r="4" fill="#0" id="circle59"/>
	<circle cx="115.852" cy="858.477" r="4" fill="#0" id="circle60"/>
	<circle cx="115.852" cy="876.813" r="4" fill="#0" id="circle61"/>
	<circle cx="125.02" cy="830.972" r="4" fill="#0" id="circle62"/>
	<circle cx="130.521" cy="68.1774" r="4" fill="#0" id="circle63"/>
	<circle cx="134.189" cy="803.468" r="4" fill="#0" id="circle64"/>
	<circle cx="143.357" cy="785.131" r="4" fill="#0" id="circle65"/>
	<circle cx="148.858" cy="68.1774" r="4" fill="#0" id="circle66"/>
	<circle cx="152.525" cy="757.627" r="4" fill="#0" id="circle67"/>
	<circle cx="161.693" cy="739.29" r="4" fill="#0" id="circle68"/>
	<circle cx="165.36" cy="59.0092" r="4" fill="#0" id="circle69"/>
	<circle cx="170.861" cy="720.954" r="4" fill="#0" id="circle70"/>
	<circle cx="180.03" cy="702.617" r="4" fill="#0" id="circle71"/>
	<circle cx="181.863" cy="68.1774" r="4" fill="#0" id="circle72"/>
	<circle cx="187.364" cy="917.153" r="4" fill="#0" id="circle73"/>
	<circle cx="187.364" cy="935.49" r="4" fill="#0" id="circle74"/>
	<circle cx="189.198" cy="665.945" r="4" fill="#0" id="circle75"/>
	<circle cx="189.198" cy="684.281" r="4" fill="#0" id="circle76"/>
	<circle cx="200.2" cy="68.1774" r="4" fill="#0" id="circle77"/>
	<circle cx="202.033" cy="902.484" r="4" fill="#0" id="circle78"/>
	<circle cx="205.701" cy="656.776" r="4" fill="#0" id="circle79"/>
	<circle cx="205.701" cy="675.113" r="4" fill="#0" id="circle80"/>
	<circle cx="205.701" cy="693.449" r="4" fill="#0" id="circle81"/>
	<circle cx="205.701" cy="940.991" r="4" fill="#0" id="circle82"/>
	<circle cx="211.201" cy="711.786" r="4" fill="#0" id="circle83"/>
	<circle cx="214.869" cy="55.342" r="4" fill="#0" id="circle84"/>
	<circle cx="214.869" cy="730.122" r="4" fill="#0" id="circle85"/>
	<circle cx="214.869" cy="748.458" r="4" fill="#0" id="circle86"/>
	<circle cx="214.869" cy="766.795" r="4" fill="#0" id="circle87"/>
	<circle cx="220.37" cy="785.131" r="4" fill="#0" id="circle88"/>
	<circle cx="220.37" cy="893.316" r="4" fill="#0" id="circle89"/>
	<circle cx="224.037" cy="803.468" r="4" fill="#0" id="circle90"/>
	<circle cx="224.037" cy="821.804" r="4" fill="#0" id="circle91"/>
	<circle cx="224.037" cy="840.14" r="4" fill="#0" id="circle92"/>
	<circle cx="224.037" cy="858.477" r="4" fill="#0" id="circle93"/>
	<circle cx="224.037" cy="940.991" r="4" fill="#0" id="circle94"/>
	<circle cx="229.538" cy="40.6728" r="4" fill="#0" id="circle95"/>
	<circle cx="240.54" cy="950.159" r="4" fill="#0" id="circle96"/>
	<circle cx="244.207" cy="26.0037" r="4" fill="#0" id="circle97"/>
	<circle cx="253.375" cy="170.861" r="4" fill="#0" id="circle98"/>
	<circle cx="253.375" cy="189.198" r="4" fill="#0" id="circle99"/>
	<circle cx="253.375" cy="207.534" r="4" fill="#0" id="circle100"/>
	<circle cx="253.375" cy="225.871" r="4" fill="#0" id="circle101"/>
	<circle cx="253.375" cy="244.207" r="4" fill="#0" id="circle102"/>
	<circle cx="258.876" cy="13.1682" r="4" fill="#0" id="circle103"/>
	<circle cx="258.876" cy="946.492" r="4" fill="#0" id="circle104"/>
	<circle cx="262.543" cy="143.357" r="4" fill="#0" id="circle105"/>
	<circle cx="262.543" cy="260.71" r="4" fill="#0" id="circle106"/>
	<circle cx="271.712" cy="97.5157" r="4" fill="#0" id="circle107"/>
	<circle cx="271.712" cy="115.852" r="4" fill="#0" id="circle108"/>
	<circle cx="271.712" cy="277.213" r="4" fill="#0" id="circle109"/>
	<circle cx="275.379" cy="4" r="4" fill="#0" id="circle110"/>
	<circle cx="277.213" cy="937.323" r="4" fill="#0" id="circle111"/>
	<circle cx="280.88" cy="70.0111" r="4" fill="#0" id="circle112"/>
	<circle cx="280.88" cy="293.715" r="4" fill="#0" id="circle113"/>
	<circle cx="280.88" cy="885.982" r="4" fill="#0" id="circle114"/>
	<circle cx="280.88" cy="904.318" r="4" fill="#0" id="circle115"/>
	<circle cx="288.214" cy="18.6691" r="4" fill="#0" id="circle116"/>
	<circle cx="290.048" cy="37.0055" r="4" fill="#0" id="circle117"/>
	<circle cx="290.048" cy="748.458" r="4" fill="#0" id="circle118"/>
	<circle cx="290.048" cy="766.795" r="4" fill="#0" id="circle119"/>
	<circle cx="290.048" cy="785.131" r="4" fill="#0" id="circle120"/>
	<circle cx="290.048" cy="803.468" r="4" fill="#0" id="circle121"/>
	<circle cx="290.048" cy="821.804" r="4" fill="#0" id="circle122"/>
	<circle cx="290.048" cy="840.14" r="4" fill="#0" id="circle123"/>
	<circle cx="290.048" cy="858.477" r="4" fill="#0" id="circle124"/>
	<circle cx="293.715" cy="308.384" r="4" fill="#0" id="circle125"/>
	<circle cx="299.216" cy="647.608" r="4" fill="#0" id="circle126"/>
	<circle cx="299.216" cy="711.786" r="4" fill="#0" id="circle127"/>
	<circle cx="299.216" cy="730.122" r="4" fill="#0" id="circle128"/>
	<circle cx="302.884" cy="324.887" r="4" fill="#0" id="circle129"/>
	<circle cx="302.884" cy="665.945" r="4" fill="#0" id="circle130"/>
	<circle cx="308.384" cy="684.281" r="4" fill="#0" id="circle131"/>
	<circle cx="317.553" cy="651.275" r="4" fill="#0" id="circle132"/>
	<circle cx="319.386" cy="334.055" r="4" fill="#0" id="circle133"/>
	<circle cx="330.388" cy="665.945" r="4" fill="#0" id="circle134"/>
	<circle cx="335.889" cy="343.224" r="4" fill="#0" id="circle135"/>
	<circle cx="348.725" cy="673.279" r="4" fill="#0" id="circle136"/>
	<circle cx="354.226" cy="348.725" r="4" fill="#0" id="circle137"/>
	<circle cx="367.061" cy="675.113" r="4" fill="#0" id="circle138"/>
	<circle cx="370.728" cy="357.893" r="4" fill="#0" id="circle139"/>
	<circle cx="385.397" cy="682.447" r="4" fill="#0" id="circle140"/>
	<circle cx="389.065" cy="365.227" r="4" fill="#0" id="circle141"/>
	<circle cx="403.734" cy="684.281" r="4" fill="#0" id="circle142"/>
	<circle cx="407.401" cy="370.728" r="4" fill="#0" id="circle143"/>
	<circle cx="422.07" cy="684.281" r="4" fill="#0" id="circle144"/>
	<circle cx="425.738" cy="374.396" r="4" fill="#0" id="circle145"/>
	<circle cx="438.573" cy="693.449" r="4" fill="#0" id="circle146"/>
	<circle cx="444.074" cy="379.896" r="4" fill="#0" id="circle147"/>
	<circle cx="456.909" cy="693.449" r="4" fill="#0" id="circle148"/>
	<circle cx="462.41" cy="383.564" r="4" fill="#0" id="circle149"/>
	<circle cx="475.246" cy="698.95" r="4" fill="#0" id="circle150"/>
	<circle cx="480.747" cy="389.065" r="4" fill="#0" id="circle151"/>
	<circle cx="491.749" cy="708.118" r="4" fill="#0" id="circle152"/>
	<circle cx="499.083" cy="389.065" r="4" fill="#0" id="circle153"/>
	<circle cx="510.085" cy="715.453" r="4" fill="#0" id="circle154"/>
	<circle cx="517.42" cy="389.065" r="4" fill="#0" id="circle155"/>
	<circle cx="528.421" cy="720.954" r="4" fill="#0" id="circle156"/>
	<circle cx="535.756" cy="389.065" r="4" fill="#0" id="circle157"/>
	<circle cx="544.924" cy="889.649" r="4" fill="#0" id="circle158"/>
	<circle cx="544.924" cy="907.985" r="4" fill="#0" id="circle159"/>
	<circle cx="546.758" cy="720.954" r="4" fill="#0" id="circle160"/>
	<circle cx="554.092" cy="389.065" r="4" fill="#0" id="circle161"/>
	<circle cx="559.593" cy="874.98" r="4" fill="#0" id="circle162"/>
	<circle cx="563.261" cy="730.122" r="4" fill="#0" id="circle163"/>
	<circle cx="563.261" cy="913.486" r="4" fill="#0" id="circle164"/>
	<circle cx="572.429" cy="389.065" r="4" fill="#0" id="circle165"/>
	<circle cx="574.262" cy="744.791" r="4" fill="#0" id="circle166"/>
	<circle cx="576.096" cy="865.811" r="4" fill="#0" id="circle167"/>
	<circle cx="579.763" cy="922.654" r="4" fill="#0" id="circle168"/>
	<circle cx="588.932" cy="757.627" r="4" fill="#0" id="circle169"/>
	<circle cx="590.765" cy="389.065" r="4" fill="#0" id="circle170"/>
	<circle cx="594.433" cy="865.811" r="4" fill="#0" id="circle171"/>
	<circle cx="598.1" cy="922.654" r="4" fill="#0" id="circle172"/>
	<circle cx="605.434" cy="766.795" r="4" fill="#0" id="circle173"/>
	<circle cx="609.102" cy="389.065" r="4" fill="#0" id="circle174"/>
	<circle cx="612.769" cy="858.477" r="4" fill="#0" id="circle175"/>
	<circle cx="616.436" cy="922.654" r="4" fill="#0" id="circle176"/>
	<circle cx="620.104" cy="779.63" r="4" fill="#0" id="circle177"/>
	<circle cx="625.604" cy="398.233" r="4" fill="#0" id="circle178"/>
	<circle cx="627.438" cy="843.808" r="4" fill="#0" id="circle179"/>
	<circle cx="632.939" cy="913.486" r="4" fill="#0" id="circle180"/>
	<circle cx="636.606" cy="788.799" r="4" fill="#0" id="circle181"/>
	<circle cx="636.606" cy="825.471" r="4" fill="#0" id="circle182"/>
	<circle cx="643.941" cy="398.233" r="4" fill="#0" id="circle183"/>
	<circle cx="645.774" cy="805.301" r="4" fill="#0" id="circle184"/>
	<circle cx="649.442" cy="904.318" r="4" fill="#0" id="circle185"/>
	<circle cx="654.943" cy="926.322" r="4" fill="#0" id="circle186"/>
	<circle cx="662.277" cy="398.233" r="4" fill="#0" id="circle187"/>
	<circle cx="664.111" cy="889.649" r="4" fill="#0" id="circle188"/>
	<circle cx="664.111" cy="942.824" r="4" fill="#0" id="circle189"/>
	<circle cx="669.612" cy="911.652" r="4" fill="#0" id="circle190"/>
	<circle cx="678.78" cy="874.98" r="4" fill="#0" id="circle191"/>
	<circle cx="680.614" cy="400.067" r="4" fill="#0" id="circle192"/>
	<circle cx="682.447" cy="950.159" r="4" fill="#0" id="circle193"/>
	<circle cx="686.115" cy="902.484" r="4" fill="#0" id="circle194"/>
	<circle cx="693.449" cy="849.309" r="4" fill="#0" id="circle195"/>
	<circle cx="698.95" cy="407.401" r="4" fill="#0" id="circle196"/>
	<circle cx="700.784" cy="889.649" r="4" fill="#0" id="circle197"/>
	<circle cx="700.784" cy="950.159" r="4" fill="#0" id="circle198"/>
	<circle cx="702.617" cy="830.972" r="4" fill="#0" id="circle199"/>
	<circle cx="715.453" cy="874.98" r="4" fill="#0" id="circle200"/>
	<circle cx="717.287" cy="407.401" r="4" fill="#0" id="circle201"/>
	<circle cx="719.12" cy="821.804" r="4" fill="#0" id="circle202"/>
	<circle cx="719.12" cy="950.159" r="4" fill="#0" id="circle203"/>
	<circle cx="728.288" cy="852.976" r="4" fill="#0" id="circle204"/>
	<circle cx="733.789" cy="416.569" r="4" fill="#0" id="circle205"/>
	<circle cx="737.457" cy="821.804" r="4" fill="#0" id="circle206"/>
	<circle cx="737.457" cy="944.658" r="4" fill="#0" id="circle207"/>
	<circle cx="746.625" cy="926.322" r="4" fill="#0" id="circle208"/>
	<circle cx="750.292" cy="425.738" r="4" fill="#0" id="circle209"/>
	<circle cx="757.627" cy="904.318" r="4" fill="#0" id="circle210"/>
	<circle cx="766.795" cy="434.906" r="4" fill="#0" id="circle211"/>
	<circle cx="772.296" cy="891.482" r="4" fill="#0" id="circle212"/>
	<circle cx="781.464" cy="873.146" r="4" fill="#0" id="circle213"/>
	<circle cx="785.131" cy="440.407" r="4" fill="#0" id="circle214"/>
	<circle cx="794.299" cy="858.477" r="4" fill="#0" id="circle215"/>
	<circle cx="801.634" cy="449.575" r="4" fill="#0" id="circle216"/>
	<circle cx="803.468" cy="702.617" r="4" fill="#0" id="circle217"/>
	<circle cx="803.468" cy="720.954" r="4" fill="#0" id="circle218"/>
	<circle cx="803.468" cy="840.14" r="4" fill="#0" id="circle219"/>
	<circle cx="812.636" cy="675.113" r="4" fill="#0" id="circle220"/>
	<circle cx="812.636" cy="737.457" r="4" fill="#0" id="circle221"/>
	<circle cx="818.137" cy="827.305" r="4" fill="#0" id="circle222"/>
	<circle cx="819.97" cy="456.909" r="4" fill="#0" id="circle223"/>
	<circle cx="821.804" cy="656.776" r="4" fill="#0" id="circle224"/>
	<circle cx="821.804" cy="753.959" r="4" fill="#0" id="circle225"/>
	<circle cx="827.305" cy="808.969" r="4" fill="#0" id="circle226"/>
	<circle cx="830.972" cy="471.579" r="4" fill="#0" id="circle227"/>
	<circle cx="830.972" cy="638.44" r="4" fill="#0" id="circle228"/>
	<circle cx="830.972" cy="770.462" r="4" fill="#0" id="circle229"/>
	<circle cx="830.972" cy="788.799" r="4" fill="#0" id="circle230"/>
	<circle cx="845.641" cy="625.604" r="4" fill="#0" id="circle231"/>
	<circle cx="849.309" cy="477.079" r="4" fill="#0" id="circle232"/>
	<circle cx="856.643" cy="495.416" r="4" fill="#0" id="circle233"/>
	<circle cx="863.978" cy="620.104" r="4" fill="#0" id="circle234"/>
	<circle cx="871.312" cy="508.251" r="4" fill="#0" id="circle235"/>
	<circle cx="880.481" cy="629.272" r="4" fill="#0" id="circle236"/>
	<circle cx="884.148" cy="522.921" r="4" fill="#0" id="circle237"/>
	<circle cx="893.316" cy="504.584" r="4" fill="#0" id="circle238"/>
	<circle cx="898.817" cy="636.606" r="4" fill="#0" id="circle239"/>
	<circle cx="902.484" cy="449.575" r="4" fill="#0" id="circle240"/>
	<circle cx="902.484" cy="467.911" r="4" fill="#0" id="circle241"/>
	<circle cx="902.484" cy="486.248" r="4" fill="#0" id="circle242"/>
	<circle cx="911.652" cy="651.275" r="4" fill="#0" id="circle243"/>
	<circle cx="920.821" cy="447.741" r="4" fill="#0" id="circle244"/>
	<circle cx="920.821" cy="667.778" r="4" fill="#0" id="circle245"/>
	<circle cx="929.989" cy="684.281" r="4" fill="#0" id="circle246"/>
	<circle cx="929.989" cy="702.617" r="4" fill="#0" id="circle247"/>
	<circle cx="931.823" cy="462.41" r="4" fill="#0" id="circle248"/>
	<circle cx="939.157" cy="719.12" r="4" fill="#0" id="circle249"/>
	<circle cx="940.991" cy="478.913" r="4" fill="#0" id="circle250"/>
	<circle cx="940.991" cy="497.25" r="4" fill="#0" id="circle251"/>
	<circle cx="950.159" cy="513.752" r="4" fill="#0" id="circle252"/>
	<circle cx="950.159" cy="532.089" r="4" fill="#0" id="circle253"/>
	<circle cx="950.159" cy="733.789" r="4" fill="#0" id="circle254"/>
	<circle cx="959.327" cy="548.591" r="4" fill="#0" id="circle255"/>
	<circle cx="959.327" cy="566.928" r="4" fill="#0" id="circle256"/>
	<circle cx="959.327" cy="585.264" r="4" fill="#0" id="circle257"/>
	<circle cx="959.327" cy="603.601" r="4" fill="#0" id="circle258"/>
	<circle cx="968.495" cy="620.104" r="4" fill="#0" id="circle259"/>
	<circle cx="968.495" cy="739.29" r="4" fill="#0" id="circle260"/>
	<circle cx="972.163" cy="638.44" r="4" fill="#0" id="circle261"/>
	<circle cx="986.832" cy="651.275" r="4" fill="#0" id="circle262"/>
	<circle cx="986.832" cy="730.122" r="4" fill="#0" id="circle263"/>
	<circle cx="994.166" cy="669.612" r="4" fill="#0" id="circle264"/>
	<circle cx="996" cy="687.948" r="4" fill="#0" id="circle265"/>
	<circle cx="996" cy="706.285" r="4" fill="#0" id="circle266"/>
	</g>
</svg>