<?xml version="1.0" encoding="UTF-8" standalone="no"?>
<!-- Created with CurveBenchmark -->
<svg
	xmlns:dc="http://purl.org/dc/elements/1.1/"
	xmlns:cc="http://creativecommons.org/ns#"
	xmlns:rdf="http://www.w3.org/1999/02/22-rdf-syntax-ns#"
	xmlns:svg="http://www.w3.org/2000/svg"
	xmlns="http://www.w3.org/2000/svg"
	xmlns:sodipodi="http://sodipodi.sourceforge.net/DTD/sodipodi-0.dtd"
	xmlns:inkscape="http://www.inkscape.org/namespaces/inkscape"
	width="1000"
	height="1000"
	id="svg2"
	version="1.1"
	sodipodi:docname="manifold/vicur-bed015.png.txt">
<defs
	id="defs4" />
<metadata
	id="metadata7">
	<rdf:RDF>
		<cc:Work
			rdf:about="">
			<dc:format>image/svg+xml</dc:format>
			<dc:type
				rdf:resource="http://purl.org/dc/dcmitype/StillImage" />
			<dc:title></dc:title>
		</cc:Work>
	</rdf:RDF>
</metadata>
<g
	inkscape:label="Layer 1"
	inkscape:groupmode="layer"
	id="layer1">
	<path style="fill:none;stroke:red;stroke-width:1px;stroke-linecap:butt;stroke-linejoin:miter;stroke-opacity:1" d="M 4,155.357 4,175.81 z" id="boundary" inkscape:connector-curvature="0" />
	<path style="fill:none;stroke:red;stroke-width:1px;stroke-linecap:butt;stroke-linejoin:miter;stroke-opacity:1" d="M 4,155.357 16.2722,138.994 z" id="boundary" inkscape:connector-curvature="0" />
	<path style="fill:none;stroke:red;stroke-width:1px;stroke-linecap:butt;stroke-linejoin:miter;stroke-opacity:1" d="M 4,175.81 14.2268,194.219 z" id="boundary" inkscape:connector-curvature="0" />
	<path style="fill:none;stroke:red;stroke-width:1px;stroke-linecap:butt;stroke-linejoin:miter;stroke-opacity:1" d="M 8.09072,466.252 8.09072,486.705 z" id="boundary" inkscape:connector-curvature="0" />
	<path style="fill:none;stroke:red;stroke-width:1px;stroke-linecap:butt;stroke-linejoin:miter;stroke-opacity:1" d="M 8.09072,466.252 12.1814,441.707 z" id="boundary" inkscape:connector-curvature="0" />
	<path style="fill:none;stroke:red;stroke-width:1px;stroke-linecap:butt;stroke-linejoin:miter;stroke-opacity:1" d="M 8.09072,486.705 8.09072,507.159 z" id="boundary" inkscape:connector-curvature="0" />
	<path style="fill:none;stroke:red;stroke-width:1px;stroke-linecap:butt;stroke-linejoin:miter;stroke-opacity:1" d="M 8.09072,507.159 10.1361,527.612 z" id="boundary" inkscape:connector-curvature="0" />
	<path style="fill:none;stroke:red;stroke-width:1px;stroke-linecap:butt;stroke-linejoin:miter;stroke-opacity:1" d="M 8.09072,576.701 12.1814,548.066 z" id="boundary" inkscape:connector-curvature="0" />
	<path style="fill:none;stroke:red;stroke-width:1px;stroke-linecap:butt;stroke-linejoin:miter;stroke-opacity:1" d="M 8.09072,576.701 12.1814,597.155 z" id="boundary" inkscape:connector-curvature="0" />
	<path style="fill:none;stroke:red;stroke-width:1px;stroke-linecap:butt;stroke-linejoin:miter;stroke-opacity:1" d="M 10.1361,527.612 12.1814,548.066 z" id="boundary" inkscape:connector-curvature="0" />
	<path style="fill:none;stroke:red;stroke-width:1px;stroke-linecap:butt;stroke-linejoin:miter;stroke-opacity:1" d="M 12.1814,400.8 12.1814,421.254 z" id="boundary" inkscape:connector-curvature="0" />
	<path style="fill:none;stroke:red;stroke-width:1px;stroke-linecap:butt;stroke-linejoin:miter;stroke-opacity:1" d="M 12.1814,400.8 16.2722,368.074 z" id="boundary" inkscape:connector-curvature="0" />
	<path style="fill:none;stroke:red;stroke-width:1px;stroke-linecap:butt;stroke-linejoin:miter;stroke-opacity:1" d="M 12.1814,421.254 12.1814,441.707 z" id="boundary" inkscape:connector-curvature="0" />
	<path style="fill:none;stroke:red;stroke-width:1px;stroke-linecap:butt;stroke-linejoin:miter;stroke-opacity:1" d="M 12.1814,597.155 12.1814,621.699 z" id="boundary" inkscape:connector-curvature="0" />
	<path style="fill:none;stroke:red;stroke-width:1px;stroke-linecap:butt;stroke-linejoin:miter;stroke-opacity:1" d="M 12.1814,621.699 28.5443,636.016 z" id="boundary" inkscape:connector-curvature="0" />
	<path style="fill:none;stroke:red;stroke-width:1px;stroke-linecap:butt;stroke-linejoin:miter;stroke-opacity:1" d="M 14.2268,194.219 20.3629,214.672 z" id="boundary" inkscape:connector-curvature="0" />
	<path style="fill:none;stroke:red;stroke-width:1px;stroke-linecap:butt;stroke-linejoin:miter;stroke-opacity:1" d="M 16.2722,138.994 32.6351,126.722 z" id="boundary" inkscape:connector-curvature="0" />
	<path style="fill:none;stroke:red;stroke-width:1px;stroke-linecap:butt;stroke-linejoin:miter;stroke-opacity:1" d="M 16.2722,368.074 20.3629,339.439 z" id="boundary" inkscape:connector-curvature="0" />
	<path style="fill:none;stroke:red;stroke-width:1px;stroke-linecap:butt;stroke-linejoin:miter;stroke-opacity:1" d="M 20.3629,214.672 24.4536,235.126 z" id="boundary" inkscape:connector-curvature="0" />
	<path style="fill:none;stroke:red;stroke-width:1px;stroke-linecap:butt;stroke-linejoin:miter;stroke-opacity:1" d="M 20.3629,339.439 24.4536,316.94 z" id="boundary" inkscape:connector-curvature="0" />
	<path style="fill:none;stroke:red;stroke-width:1px;stroke-linecap:butt;stroke-linejoin:miter;stroke-opacity:1" d="M 24.4536,235.126 24.4536,255.579 z" id="boundary" inkscape:connector-curvature="0" />
	<path style="fill:none;stroke:red;stroke-width:1px;stroke-linecap:butt;stroke-linejoin:miter;stroke-opacity:1" d="M 24.4536,255.579 24.4536,276.033 z" id="boundary" inkscape:connector-curvature="0" />
	<path style="fill:none;stroke:red;stroke-width:1px;stroke-linecap:butt;stroke-linejoin:miter;stroke-opacity:1" d="M 24.4536,276.033 24.4536,296.487 z" id="boundary" inkscape:connector-curvature="0" />
	<path style="fill:none;stroke:red;stroke-width:1px;stroke-linecap:butt;stroke-linejoin:miter;stroke-opacity:1" d="M 24.4536,296.487 24.4536,316.94 z" id="boundary" inkscape:connector-curvature="0" />
	<path style="fill:none;stroke:red;stroke-width:1px;stroke-linecap:butt;stroke-linejoin:miter;stroke-opacity:1" d="M 28.5443,636.016 38.7711,613.518 z" id="boundary" inkscape:connector-curvature="0" />
	<path style="fill:none;stroke:red;stroke-width:1px;stroke-linecap:butt;stroke-linejoin:miter;stroke-opacity:1" d="M 32.6351,126.722 53.0887,118.54 z" id="boundary" inkscape:connector-curvature="0" />
	<path style="fill:none;stroke:red;stroke-width:1px;stroke-linecap:butt;stroke-linejoin:miter;stroke-opacity:1" d="M 38.7711,593.064 38.7711,613.518 z" id="boundary" inkscape:connector-curvature="0" />
	<path style="fill:none;stroke:red;stroke-width:1px;stroke-linecap:butt;stroke-linejoin:miter;stroke-opacity:1" d="M 38.7711,593.064 42.8619,572.61 z" id="boundary" inkscape:connector-curvature="0" />
	<path style="fill:none;stroke:red;stroke-width:1px;stroke-linecap:butt;stroke-linejoin:miter;stroke-opacity:1" d="M 42.8619,552.157 42.8619,572.61 z" id="boundary" inkscape:connector-curvature="0" />
	<path style="fill:none;stroke:red;stroke-width:1px;stroke-linecap:butt;stroke-linejoin:miter;stroke-opacity:1" d="M 42.8619,552.157 63.3155,554.202 z" id="boundary" inkscape:connector-curvature="0" />
	<path style="fill:none;stroke:red;stroke-width:1px;stroke-linecap:butt;stroke-linejoin:miter;stroke-opacity:1" d="M 53.0887,118.54 73.5423,110.359 z" id="boundary" inkscape:connector-curvature="0" />
	<path style="fill:none;stroke:red;stroke-width:1px;stroke-linecap:butt;stroke-linejoin:miter;stroke-opacity:1" d="M 63.3155,554.202 83.7691,554.202 z" id="boundary" inkscape:connector-curvature="0" />
	<path style="fill:none;stroke:red;stroke-width:1px;stroke-linecap:butt;stroke-linejoin:miter;stroke-opacity:1" d="M 73.5423,110.359 93.9959,106.268 z" id="boundary" inkscape:connector-curvature="0" />
	<path style="fill:none;stroke:red;stroke-width:1px;stroke-linecap:butt;stroke-linejoin:miter;stroke-opacity:1" d="M 83.7691,554.202 104.223,554.202 z" id="boundary" inkscape:connector-curvature="0" />
	<path style="fill:none;stroke:red;stroke-width:1px;stroke-linecap:butt;stroke-linejoin:miter;stroke-opacity:1" d="M 93.9959,106.268 114.449,98.0866 z" id="boundary" inkscape:connector-curvature="0" />
	<path style="fill:none;stroke:red;stroke-width:1px;stroke-linecap:butt;stroke-linejoin:miter;stroke-opacity:1" d="M 104.223,554.202 124.676,554.202 z" id="boundary" inkscape:connector-curvature="0" />
	<path style="fill:none;stroke:red;stroke-width:1px;stroke-linecap:butt;stroke-linejoin:miter;stroke-opacity:1" d="M 114.449,98.0866 134.903,93.9959 z" id="boundary" inkscape:connector-curvature="0" />
	<path style="fill:none;stroke:red;stroke-width:1px;stroke-linecap:butt;stroke-linejoin:miter;stroke-opacity:1" d="M 124.676,554.202 145.13,554.202 z" id="boundary" inkscape:connector-curvature="0" />
	<path style="fill:none;stroke:red;stroke-width:1px;stroke-linecap:butt;stroke-linejoin:miter;stroke-opacity:1" d="M 134.903,93.9959 155.357,89.9052 z" id="boundary" inkscape:connector-curvature="0" />
	<path style="fill:none;stroke:red;stroke-width:1px;stroke-linecap:butt;stroke-linejoin:miter;stroke-opacity:1" d="M 145.13,554.202 165.584,554.202 z" id="boundary" inkscape:connector-curvature="0" />
	<path style="fill:none;stroke:red;stroke-width:1px;stroke-linecap:butt;stroke-linejoin:miter;stroke-opacity:1" d="M 155.357,89.9052 175.81,85.8144 z" id="boundary" inkscape:connector-curvature="0" />
	<path style="fill:none;stroke:red;stroke-width:1px;stroke-linecap:butt;stroke-linejoin:miter;stroke-opacity:1" d="M 165.584,554.202 186.037,554.202 z" id="boundary" inkscape:connector-curvature="0" />
	<path style="fill:none;stroke:red;stroke-width:1px;stroke-linecap:butt;stroke-linejoin:miter;stroke-opacity:1" d="M 175.81,85.8144 196.264,81.7237 z" id="boundary" inkscape:connector-curvature="0" />
	<path style="fill:none;stroke:red;stroke-width:1px;stroke-linecap:butt;stroke-linejoin:miter;stroke-opacity:1" d="M 186.037,554.202 206.491,554.202 z" id="boundary" inkscape:connector-curvature="0" />
	<path style="fill:none;stroke:red;stroke-width:1px;stroke-linecap:butt;stroke-linejoin:miter;stroke-opacity:1" d="M 196.264,81.7237 216.718,77.633 z" id="boundary" inkscape:connector-curvature="0" />
	<path style="fill:none;stroke:red;stroke-width:1px;stroke-linecap:butt;stroke-linejoin:miter;stroke-opacity:1" d="M 206.491,554.202 220.808,572.61 z" id="boundary" inkscape:connector-curvature="0" />
	<path style="fill:none;stroke:red;stroke-width:1px;stroke-linecap:butt;stroke-linejoin:miter;stroke-opacity:1" d="M 216.718,77.633 237.171,73.5423 z" id="boundary" inkscape:connector-curvature="0" />
	<path style="fill:none;stroke:red;stroke-width:1px;stroke-linecap:butt;stroke-linejoin:miter;stroke-opacity:1" d="M 220.808,572.61 220.808,593.064 z" id="boundary" inkscape:connector-curvature="0" />
	<path style="fill:none;stroke:red;stroke-width:1px;stroke-linecap:butt;stroke-linejoin:miter;stroke-opacity:1" d="M 220.808,593.064 224.899,617.608 z" id="boundary" inkscape:connector-curvature="0" />
	<path style="fill:none;stroke:red;stroke-width:1px;stroke-linecap:butt;stroke-linejoin:miter;stroke-opacity:1" d="M 224.899,617.608 235.126,636.016 z" id="boundary" inkscape:connector-curvature="0" />
	<path style="fill:none;stroke:red;stroke-width:1px;stroke-linecap:butt;stroke-linejoin:miter;stroke-opacity:1" d="M 235.126,636.016 253.534,623.744 z" id="boundary" inkscape:connector-curvature="0" />
	<path style="fill:none;stroke:red;stroke-width:1px;stroke-linecap:butt;stroke-linejoin:miter;stroke-opacity:1" d="M 237.171,73.5423 253.534,57.1794 z" id="boundary" inkscape:connector-curvature="0" />
	<path style="fill:none;stroke:red;stroke-width:1px;stroke-linecap:butt;stroke-linejoin:miter;stroke-opacity:1" d="M 253.534,57.1794 273.988,48.9979 z" id="boundary" inkscape:connector-curvature="0" />
	<path style="fill:none;stroke:red;stroke-width:1px;stroke-linecap:butt;stroke-linejoin:miter;stroke-opacity:1" d="M 253.534,623.744 255.579,584.882 z" id="boundary" inkscape:connector-curvature="0" />
	<path style="fill:none;stroke:red;stroke-width:1px;stroke-linecap:butt;stroke-linejoin:miter;stroke-opacity:1" d="M 255.579,584.882 263.761,564.429 z" id="boundary" inkscape:connector-curvature="0" />
	<path style="fill:none;stroke:red;stroke-width:1px;stroke-linecap:butt;stroke-linejoin:miter;stroke-opacity:1" d="M 263.761,564.429 284.214,562.384 z" id="boundary" inkscape:connector-curvature="0" />
	<path style="fill:none;stroke:red;stroke-width:1px;stroke-linecap:butt;stroke-linejoin:miter;stroke-opacity:1" d="M 273.988,48.9979 294.441,44.9072 z" id="boundary" inkscape:connector-curvature="0" />
	<path style="fill:none;stroke:red;stroke-width:1px;stroke-linecap:butt;stroke-linejoin:miter;stroke-opacity:1" d="M 284.214,562.384 304.668,562.384 z" id="boundary" inkscape:connector-curvature="0" />
	<path style="fill:none;stroke:red;stroke-width:1px;stroke-linecap:butt;stroke-linejoin:miter;stroke-opacity:1" d="M 294.441,44.9072 314.895,28.5443 z" id="boundary" inkscape:connector-curvature="0" />
	<path style="fill:none;stroke:red;stroke-width:1px;stroke-linecap:butt;stroke-linejoin:miter;stroke-opacity:1" d="M 304.668,562.384 325.122,566.474 z" id="boundary" inkscape:connector-curvature="0" />
	<path style="fill:none;stroke:red;stroke-width:1px;stroke-linecap:butt;stroke-linejoin:miter;stroke-opacity:1" d="M 314.895,28.5443 331.258,8.09072 z" id="boundary" inkscape:connector-curvature="0" />
	<path style="fill:none;stroke:red;stroke-width:1px;stroke-linecap:butt;stroke-linejoin:miter;stroke-opacity:1" d="M 325.122,566.474 345.575,570.565 z" id="boundary" inkscape:connector-curvature="0" />
	<path style="fill:none;stroke:red;stroke-width:1px;stroke-linecap:butt;stroke-linejoin:miter;stroke-opacity:1" d="M 331.258,8.09072 351.711,4 z" id="boundary" inkscape:connector-curvature="0" />
	<path style="fill:none;stroke:red;stroke-width:1px;stroke-linecap:butt;stroke-linejoin:miter;stroke-opacity:1" d="M 345.575,570.565 366.029,574.656 z" id="boundary" inkscape:connector-curvature="0" />
	<path style="fill:none;stroke:red;stroke-width:1px;stroke-linecap:butt;stroke-linejoin:miter;stroke-opacity:1" d="M 351.711,4 372.165,6.04536 z" id="boundary" inkscape:connector-curvature="0" />
	<path style="fill:none;stroke:red;stroke-width:1px;stroke-linecap:butt;stroke-linejoin:miter;stroke-opacity:1" d="M 366.029,574.656 386.482,572.61 z" id="boundary" inkscape:connector-curvature="0" />
	<path style="fill:none;stroke:red;stroke-width:1px;stroke-linecap:butt;stroke-linejoin:miter;stroke-opacity:1" d="M 372.165,6.04536 386.482,22.4082 z" id="boundary" inkscape:connector-curvature="0" />
	<path style="fill:none;stroke:red;stroke-width:1px;stroke-linecap:butt;stroke-linejoin:miter;stroke-opacity:1" d="M 386.482,22.4082 396.709,40.8165 z" id="boundary" inkscape:connector-curvature="0" />
	<path style="fill:none;stroke:red;stroke-width:1px;stroke-linecap:butt;stroke-linejoin:miter;stroke-opacity:1" d="M 386.482,572.61 404.891,562.384 z" id="boundary" inkscape:connector-curvature="0" />
	<path style="fill:none;stroke:red;stroke-width:1px;stroke-linecap:butt;stroke-linejoin:miter;stroke-opacity:1" d="M 396.709,40.8165 417.163,44.9072 z" id="boundary" inkscape:connector-curvature="0" />
	<path style="fill:none;stroke:red;stroke-width:1px;stroke-linecap:butt;stroke-linejoin:miter;stroke-opacity:1" d="M 404.891,562.384 425.344,558.293 z" id="boundary" inkscape:connector-curvature="0" />
	<path style="fill:none;stroke:red;stroke-width:1px;stroke-linecap:butt;stroke-linejoin:miter;stroke-opacity:1" d="M 417.163,44.9072 437.616,53.0887 z" id="boundary" inkscape:connector-curvature="0" />
	<path style="fill:none;stroke:red;stroke-width:1px;stroke-linecap:butt;stroke-linejoin:miter;stroke-opacity:1" d="M 425.344,558.293 445.798,558.293 z" id="boundary" inkscape:connector-curvature="0" />
	<path style="fill:none;stroke:red;stroke-width:1px;stroke-linecap:butt;stroke-linejoin:miter;stroke-opacity:1" d="M 437.616,53.0887 456.025,63.3155 z" id="boundary" inkscape:connector-curvature="0" />
	<path style="fill:none;stroke:red;stroke-width:1px;stroke-linecap:butt;stroke-linejoin:miter;stroke-opacity:1" d="M 445.798,558.293 466.252,564.429 z" id="boundary" inkscape:connector-curvature="0" />
	<path style="fill:none;stroke:red;stroke-width:1px;stroke-linecap:butt;stroke-linejoin:miter;stroke-opacity:1" d="M 456.025,63.3155 472.388,77.633 z" id="boundary" inkscape:connector-curvature="0" />
	<path style="fill:none;stroke:red;stroke-width:1px;stroke-linecap:butt;stroke-linejoin:miter;stroke-opacity:1" d="M 466.252,564.429 486.705,570.565 z" id="boundary" inkscape:connector-curvature="0" />
	<path style="fill:none;stroke:red;stroke-width:1px;stroke-linecap:butt;stroke-linejoin:miter;stroke-opacity:1" d="M 472.388,77.633 492.841,77.633 z" id="boundary" inkscape:connector-curvature="0" />
	<path style="fill:none;stroke:red;stroke-width:1px;stroke-linecap:butt;stroke-linejoin:miter;stroke-opacity:1" d="M 486.705,570.565 507.159,576.701 z" id="boundary" inkscape:connector-curvature="0" />
	<path style="fill:none;stroke:red;stroke-width:1px;stroke-linecap:butt;stroke-linejoin:miter;stroke-opacity:1" d="M 492.841,77.633 513.295,81.7237 z" id="boundary" inkscape:connector-curvature="0" />
	<path style="fill:none;stroke:red;stroke-width:1px;stroke-linecap:butt;stroke-linejoin:miter;stroke-opacity:1" d="M 507.159,576.701 527.612,584.882 z" id="boundary" inkscape:connector-curvature="0" />
	<path style="fill:none;stroke:red;stroke-width:1px;stroke-linecap:butt;stroke-linejoin:miter;stroke-opacity:1" d="M 513.295,81.7237 533.748,85.8144 z" id="boundary" inkscape:connector-curvature="0" />
	<path style="fill:none;stroke:red;stroke-width:1px;stroke-linecap:butt;stroke-linejoin:miter;stroke-opacity:1" d="M 527.612,584.882 548.066,591.019 z" id="boundary" inkscape:connector-curvature="0" />
	<path style="fill:none;stroke:red;stroke-width:1px;stroke-linecap:butt;stroke-linejoin:miter;stroke-opacity:1" d="M 533.748,85.8144 554.202,89.9052 z" id="boundary" inkscape:connector-curvature="0" />
	<path style="fill:none;stroke:red;stroke-width:1px;stroke-linecap:butt;stroke-linejoin:miter;stroke-opacity:1" d="M 548.066,591.019 568.52,595.109 z" id="boundary" inkscape:connector-curvature="0" />
	<path style="fill:none;stroke:red;stroke-width:1px;stroke-linecap:butt;stroke-linejoin:miter;stroke-opacity:1" d="M 554.202,89.9052 574.656,98.0866 z" id="boundary" inkscape:connector-curvature="0" />
	<path style="fill:none;stroke:red;stroke-width:1px;stroke-linecap:butt;stroke-linejoin:miter;stroke-opacity:1" d="M 568.52,595.109 588.973,599.2 z" id="boundary" inkscape:connector-curvature="0" />
	<path style="fill:none;stroke:red;stroke-width:1px;stroke-linecap:butt;stroke-linejoin:miter;stroke-opacity:1" d="M 574.656,98.0866 595.109,102.177 z" id="boundary" inkscape:connector-curvature="0" />
	<path style="fill:none;stroke:red;stroke-width:1px;stroke-linecap:butt;stroke-linejoin:miter;stroke-opacity:1" d="M 588.973,599.2 609.427,599.2 z" id="boundary" inkscape:connector-curvature="0" />
	<path style="fill:none;stroke:red;stroke-width:1px;stroke-linecap:butt;stroke-linejoin:miter;stroke-opacity:1" d="M 595.109,102.177 615.563,106.268 z" id="boundary" inkscape:connector-curvature="0" />
	<path style="fill:none;stroke:red;stroke-width:1px;stroke-linecap:butt;stroke-linejoin:miter;stroke-opacity:1" d="M 609.427,599.2 629.88,599.2 z" id="boundary" inkscape:connector-curvature="0" />
	<path style="fill:none;stroke:red;stroke-width:1px;stroke-linecap:butt;stroke-linejoin:miter;stroke-opacity:1" d="M 615.563,106.268 636.016,114.449 z" id="boundary" inkscape:connector-curvature="0" />
	<path style="fill:none;stroke:red;stroke-width:1px;stroke-linecap:butt;stroke-linejoin:miter;stroke-opacity:1" d="M 629.88,599.2 650.334,595.109 z" id="boundary" inkscape:connector-curvature="0" />
	<path style="fill:none;stroke:red;stroke-width:1px;stroke-linecap:butt;stroke-linejoin:miter;stroke-opacity:1" d="M 636.016,114.449 656.47,122.631 z" id="boundary" inkscape:connector-curvature="0" />
	<path style="fill:none;stroke:red;stroke-width:1px;stroke-linecap:butt;stroke-linejoin:miter;stroke-opacity:1" d="M 650.334,595.109 662.606,611.472 z" id="boundary" inkscape:connector-curvature="0" />
	<path style="fill:none;stroke:red;stroke-width:1px;stroke-linecap:butt;stroke-linejoin:miter;stroke-opacity:1" d="M 656.47,122.631 674.878,132.858 z" id="boundary" inkscape:connector-curvature="0" />
	<path style="fill:none;stroke:red;stroke-width:1px;stroke-linecap:butt;stroke-linejoin:miter;stroke-opacity:1" d="M 662.606,611.472 670.788,631.926 z" id="boundary" inkscape:connector-curvature="0" />
	<path style="fill:none;stroke:red;stroke-width:1px;stroke-linecap:butt;stroke-linejoin:miter;stroke-opacity:1" d="M 670.788,631.926 687.151,611.472 z" id="boundary" inkscape:connector-curvature="0" />
	<path style="fill:none;stroke:red;stroke-width:1px;stroke-linecap:butt;stroke-linejoin:miter;stroke-opacity:1" d="M 672.833,245.353 672.833,265.806 z" id="boundary" inkscape:connector-curvature="0" />
	<path style="fill:none;stroke:red;stroke-width:1px;stroke-linecap:butt;stroke-linejoin:miter;stroke-opacity:1" d="M 672.833,245.353 676.924,220.808 z" id="boundary" inkscape:connector-curvature="0" />
	<path style="fill:none;stroke:red;stroke-width:1px;stroke-linecap:butt;stroke-linejoin:miter;stroke-opacity:1" d="M 672.833,265.806 672.833,286.26 z" id="boundary" inkscape:connector-curvature="0" />
	<path style="fill:none;stroke:red;stroke-width:1px;stroke-linecap:butt;stroke-linejoin:miter;stroke-opacity:1" d="M 672.833,286.26 674.878,306.713 z" id="boundary" inkscape:connector-curvature="0" />
	<path style="fill:none;stroke:red;stroke-width:1px;stroke-linecap:butt;stroke-linejoin:miter;stroke-opacity:1" d="M 674.878,132.858 689.196,149.221 z" id="boundary" inkscape:connector-curvature="0" />
	<path style="fill:none;stroke:red;stroke-width:1px;stroke-linecap:butt;stroke-linejoin:miter;stroke-opacity:1" d="M 674.878,306.713 695.332,304.668 z" id="boundary" inkscape:connector-curvature="0" />
	<path style="fill:none;stroke:red;stroke-width:1px;stroke-linecap:butt;stroke-linejoin:miter;stroke-opacity:1" d="M 676.924,200.355 676.924,220.808 z" id="boundary" inkscape:connector-curvature="0" />
	<path style="fill:none;stroke:red;stroke-width:1px;stroke-linecap:butt;stroke-linejoin:miter;stroke-opacity:1" d="M 676.924,200.355 693.287,175.81 z" id="boundary" inkscape:connector-curvature="0" />
	<path style="fill:none;stroke:red;stroke-width:1px;stroke-linecap:butt;stroke-linejoin:miter;stroke-opacity:1" d="M 687.151,611.472 693.287,584.882 z" id="boundary" inkscape:connector-curvature="0" />
	<path style="fill:none;stroke:red;stroke-width:1px;stroke-linecap:butt;stroke-linejoin:miter;stroke-opacity:1" d="M 689.196,149.221 693.287,175.81 z" id="boundary" inkscape:connector-curvature="0" />
	<path style="fill:none;stroke:red;stroke-width:1px;stroke-linecap:butt;stroke-linejoin:miter;stroke-opacity:1" d="M 693.287,584.882 711.695,574.656 z" id="boundary" inkscape:connector-curvature="0" />
	<path style="fill:none;stroke:red;stroke-width:1px;stroke-linecap:butt;stroke-linejoin:miter;stroke-opacity:1" d="M 695.332,304.668 709.649,321.031 z" id="boundary" inkscape:connector-curvature="0" />
	<path style="fill:none;stroke:red;stroke-width:1px;stroke-linecap:butt;stroke-linejoin:miter;stroke-opacity:1" d="M 709.649,321.031 730.103,323.076 z" id="boundary" inkscape:connector-curvature="0" />
	<path style="fill:none;stroke:red;stroke-width:1px;stroke-linecap:butt;stroke-linejoin:miter;stroke-opacity:1" d="M 711.695,574.656 732.148,566.474 z" id="boundary" inkscape:connector-curvature="0" />
	<path style="fill:none;stroke:red;stroke-width:1px;stroke-linecap:butt;stroke-linejoin:miter;stroke-opacity:1" d="M 730.103,323.076 750.557,327.167 z" id="boundary" inkscape:connector-curvature="0" />
	<path style="fill:none;stroke:red;stroke-width:1px;stroke-linecap:butt;stroke-linejoin:miter;stroke-opacity:1" d="M 732.148,566.474 752.602,562.384 z" id="boundary" inkscape:connector-curvature="0" />
	<path style="fill:none;stroke:red;stroke-width:1px;stroke-linecap:butt;stroke-linejoin:miter;stroke-opacity:1" d="M 750.557,327.167 771.01,327.167 z" id="boundary" inkscape:connector-curvature="0" />
	<path style="fill:none;stroke:red;stroke-width:1px;stroke-linecap:butt;stroke-linejoin:miter;stroke-opacity:1" d="M 752.602,562.384 773.056,558.293 z" id="boundary" inkscape:connector-curvature="0" />
	<path style="fill:none;stroke:red;stroke-width:1px;stroke-linecap:butt;stroke-linejoin:miter;stroke-opacity:1" d="M 771.01,327.167 791.464,331.258 z" id="boundary" inkscape:connector-curvature="0" />
	<path style="fill:none;stroke:red;stroke-width:1px;stroke-linecap:butt;stroke-linejoin:miter;stroke-opacity:1" d="M 773.056,558.293 793.509,558.293 z" id="boundary" inkscape:connector-curvature="0" />
	<path style="fill:none;stroke:red;stroke-width:1px;stroke-linecap:butt;stroke-linejoin:miter;stroke-opacity:1" d="M 791.464,331.258 811.918,331.258 z" id="boundary" inkscape:connector-curvature="0" />
	<path style="fill:none;stroke:red;stroke-width:1px;stroke-linecap:butt;stroke-linejoin:miter;stroke-opacity:1" d="M 793.509,558.293 813.963,566.474 z" id="boundary" inkscape:connector-curvature="0" />
	<path style="fill:none;stroke:red;stroke-width:1px;stroke-linecap:butt;stroke-linejoin:miter;stroke-opacity:1" d="M 811.918,331.258 832.371,335.348 z" id="boundary" inkscape:connector-curvature="0" />
	<path style="fill:none;stroke:red;stroke-width:1px;stroke-linecap:butt;stroke-linejoin:miter;stroke-opacity:1" d="M 813.963,566.474 830.326,578.746 z" id="boundary" inkscape:connector-curvature="0" />
	<path style="fill:none;stroke:red;stroke-width:1px;stroke-linecap:butt;stroke-linejoin:miter;stroke-opacity:1" d="M 830.326,578.746 850.779,574.656 z" id="boundary" inkscape:connector-curvature="0" />
	<path style="fill:none;stroke:red;stroke-width:1px;stroke-linecap:butt;stroke-linejoin:miter;stroke-opacity:1" d="M 832.371,335.348 852.825,335.348 z" id="boundary" inkscape:connector-curvature="0" />
	<path style="fill:none;stroke:red;stroke-width:1px;stroke-linecap:butt;stroke-linejoin:miter;stroke-opacity:1" d="M 850.779,574.656 871.233,566.474 z" id="boundary" inkscape:connector-curvature="0" />
	<path style="fill:none;stroke:red;stroke-width:1px;stroke-linecap:butt;stroke-linejoin:miter;stroke-opacity:1" d="M 852.825,335.348 873.278,339.439 z" id="boundary" inkscape:connector-curvature="0" />
	<path style="fill:none;stroke:red;stroke-width:1px;stroke-linecap:butt;stroke-linejoin:miter;stroke-opacity:1" d="M 871.233,566.474 891.687,562.384 z" id="boundary" inkscape:connector-curvature="0" />
	<path style="fill:none;stroke:red;stroke-width:1px;stroke-linecap:butt;stroke-linejoin:miter;stroke-opacity:1" d="M 873.278,339.439 893.732,343.53 z" id="boundary" inkscape:connector-curvature="0" />
	<path style="fill:none;stroke:red;stroke-width:1px;stroke-linecap:butt;stroke-linejoin:miter;stroke-opacity:1" d="M 891.687,562.384 912.14,562.384 z" id="boundary" inkscape:connector-curvature="0" />
	<path style="fill:none;stroke:red;stroke-width:1px;stroke-linecap:butt;stroke-linejoin:miter;stroke-opacity:1" d="M 893.732,343.53 914.186,347.621 z" id="boundary" inkscape:connector-curvature="0" />
	<path style="fill:none;stroke:red;stroke-width:1px;stroke-linecap:butt;stroke-linejoin:miter;stroke-opacity:1" d="M 912.14,562.384 932.594,562.384 z" id="boundary" inkscape:connector-curvature="0" />
	<path style="fill:none;stroke:red;stroke-width:1px;stroke-linecap:butt;stroke-linejoin:miter;stroke-opacity:1" d="M 914.186,347.621 934.639,355.802 z" id="boundary" inkscape:connector-curvature="0" />
	<path style="fill:none;stroke:red;stroke-width:1px;stroke-linecap:butt;stroke-linejoin:miter;stroke-opacity:1" d="M 932.594,562.384 944.866,578.746 z" id="boundary" inkscape:connector-curvature="0" />
	<path style="fill:none;stroke:red;stroke-width:1px;stroke-linecap:butt;stroke-linejoin:miter;stroke-opacity:1" d="M 934.639,355.802 955.093,363.984 z" id="boundary" inkscape:connector-curvature="0" />
	<path style="fill:none;stroke:red;stroke-width:1px;stroke-linecap:butt;stroke-linejoin:miter;stroke-opacity:1" d="M 944.866,578.746 948.957,599.2 z" id="boundary" inkscape:connector-curvature="0" />
	<path style="fill:none;stroke:red;stroke-width:1px;stroke-linecap:butt;stroke-linejoin:miter;stroke-opacity:1" d="M 948.957,599.2 948.957,619.654 z" id="boundary" inkscape:connector-curvature="0" />
	<path style="fill:none;stroke:red;stroke-width:1px;stroke-linecap:butt;stroke-linejoin:miter;stroke-opacity:1" d="M 948.957,619.654 961.229,636.016 z" id="boundary" inkscape:connector-curvature="0" />
	<path style="fill:none;stroke:red;stroke-width:1px;stroke-linecap:butt;stroke-linejoin:miter;stroke-opacity:1" d="M 955.093,363.984 975.546,372.165 z" id="boundary" inkscape:connector-curvature="0" />
	<path style="fill:none;stroke:red;stroke-width:1px;stroke-linecap:butt;stroke-linejoin:miter;stroke-opacity:1" d="M 961.229,636.016 971.456,609.427 z" id="boundary" inkscape:connector-curvature="0" />
	<path style="fill:none;stroke:red;stroke-width:1px;stroke-linecap:butt;stroke-linejoin:miter;stroke-opacity:1" d="M 971.456,445.798 971.456,466.252 z" id="boundary" inkscape:connector-curvature="0" />
	<path style="fill:none;stroke:red;stroke-width:1px;stroke-linecap:butt;stroke-linejoin:miter;stroke-opacity:1" d="M 971.456,445.798 983.728,429.435 z" id="boundary" inkscape:connector-curvature="0" />
	<path style="fill:none;stroke:red;stroke-width:1px;stroke-linecap:butt;stroke-linejoin:miter;stroke-opacity:1" d="M 971.456,466.252 971.456,486.705 z" id="boundary" inkscape:connector-curvature="0" />
	<path style="fill:none;stroke:red;stroke-width:1px;stroke-linecap:butt;stroke-linejoin:miter;stroke-opacity:1" d="M 971.456,486.705 971.456,507.159 z" id="boundary" inkscape:connector-curvature="0" />
	<path style="fill:none;stroke:red;stroke-width:1px;stroke-linecap:butt;stroke-linejoin:miter;stroke-opacity:1" d="M 971.456,507.159 971.456,527.612 z" id="boundary" inkscape:connector-curvature="0" />
	<path style="fill:none;stroke:red;stroke-width:1px;stroke-linecap:butt;stroke-linejoin:miter;stroke-opacity:1" d="M 971.456,527.612 971.456,548.066 z" id="boundary" inkscape:connector-curvature="0" />
	<path style="fill:none;stroke:red;stroke-width:1px;stroke-linecap:butt;stroke-linejoin:miter;stroke-opacity:1" d="M 971.456,548.066 977.592,568.52 z" id="boundary" inkscape:connector-curvature="0" />
	<path style="fill:none;stroke:red;stroke-width:1px;stroke-linecap:butt;stroke-linejoin:miter;stroke-opacity:1" d="M 971.456,609.427 981.682,591.019 z" id="boundary" inkscape:connector-curvature="0" />
	<path style="fill:none;stroke:red;stroke-width:1px;stroke-linecap:butt;stroke-linejoin:miter;stroke-opacity:1" d="M 975.546,372.165 989.864,388.528 z" id="boundary" inkscape:connector-curvature="0" />
	<path style="fill:none;stroke:red;stroke-width:1px;stroke-linecap:butt;stroke-linejoin:miter;stroke-opacity:1" d="M 977.592,568.52 981.682,591.019 z" id="boundary" inkscape:connector-curvature="0" />
	<path style="fill:none;stroke:red;stroke-width:1px;stroke-linecap:butt;stroke-linejoin:miter;stroke-opacity:1" d="M 983.728,429.435 996,408.981 z" id="boundary" inkscape:connector-curvature="0" />
	<path style="fill:none;stroke:red;stroke-width:1px;stroke-linecap:butt;stroke-linejoin:miter;stroke-opacity:1" d="M 989.864,388.528 996,408.981 z" id="boundary" inkscape:connector-curvature="0" />
	<circle cx="4" cy="155.357" r="4" fill="#0" id="circle0"/>
	<circle cx="4" cy="175.81" r="4" fill="#0" id="circle1"/>
	<circle cx="8.09072" cy="466.252" r="4" fill="#0" id="circle2"/>
	<circle cx="8.09072" cy="486.705" r="4" fill="#0" id="circle3"/>
	<circle cx="8.09072" cy="507.159" r="4" fill="#0" id="circle4"/>
	<circle cx="8.09072" cy="576.701" r="4" fill="#0" id="circle5"/>
	<circle cx="10.1361" cy="527.612" r="4" fill="#0" id="circle6"/>
	<circle cx="12.1814" cy="400.8" r="4" fill="#0" id="circle7"/>
	<circle cx="12.1814" cy="421.254" r="4" fill="#0" id="circle8"/>
	<circle cx="12.1814" cy="441.707" r="4" fill="#0" id="circle9"/>
	<circle cx="12.1814" cy="548.066" r="4" fill="#0" id="circle10"/>
	<circle cx="12.1814" cy="597.155" r="4" fill="#0" id="circle11"/>
	<circle cx="12.1814" cy="621.699" r="4" fill="#0" id="circle12"/>
	<circle cx="14.2268" cy="194.219" r="4" fill="#0" id="circle13"/>
	<circle cx="16.2722" cy="138.994" r="4" fill="#0" id="circle14"/>
	<circle cx="16.2722" cy="368.074" r="4" fill="#0" id="circle15"/>
	<circle cx="20.3629" cy="214.672" r="4" fill="#0" id="circle16"/>
	<circle cx="20.3629" cy="339.439" r="4" fill="#0" id="circle17"/>
	<circle cx="24.4536" cy="235.126" r="4" fill="#0" id="circle18"/>
	<circle cx="24.4536" cy="255.579" r="4" fill="#0" id="circle19"/>
	<circle cx="24.4536" cy="276.033" r="4" fill="#0" id="circle20"/>
	<circle cx="24.4536" cy="296.487" r="4" fill="#0" id="circle21"/>
	<circle cx="24.4536" cy="316.94" r="4" fill="#0" id="circle22"/>
	<circle cx="28.5443" cy="636.016" r="4" fill="#0" id="circle23"/>
	<circle cx="32.6351" cy="126.722" r="4" fill="#0" id="circle24"/>
	<circle cx="38.7711" cy="593.064" r="4" fill="#0" id="circle25"/>
	<circle cx="38.7711" cy="613.518" r="4" fill="#0" id="circle26"/>
	<circle cx="42.8619" cy="552.157" r="4" fill="#0" id="circle27"/>
	<circle cx="42.8619" cy="572.61" r="4" fill="#0" id="circle28"/>
	<circle cx="53.0887" cy="118.54" r="4" fill="#0" id="circle29"/>
	<circle cx="63.3155" cy="554.202" r="4" fill="#0" id="circle30"/>
	<circle cx="73.5423" cy="110.359" r="4" fill="#0" id="circle31"/>
	<circle cx="83.7691" cy="554.202" r="4" fill="#0" id="circle32"/>
	<circle cx="93.9959" cy="106.268" r="4" fill="#0" id="circle33"/>
	<circle cx="104.223" cy="554.202" r="4" fill="#0" id="circle34"/>
	<circle cx="114.449" cy="98.0866" r="4" fill="#0" id="circle35"/>
	<circle cx="124.676" cy="554.202" r="4" fill="#0" id="circle36"/>
	<circle cx="134.903" cy="93.9959" r="4" fill="#0" id="circle37"/>
	<circle cx="145.13" cy="554.202" r="4" fill="#0" id="circle38"/>
	<circle cx="155.357" cy="89.9052" r="4" fill="#0" id="circle39"/>
	<circle cx="165.584" cy="554.202" r="4" fill="#0" id="circle40"/>
	<circle cx="175.81" cy="85.8144" r="4" fill="#0" id="circle41"/>
	<circle cx="186.037" cy="554.202" r="4" fill="#0" id="circle42"/>
	<circle cx="196.264" cy="81.7237" r="4" fill="#0" id="circle43"/>
	<circle cx="206.491" cy="554.202" r="4" fill="#0" id="circle44"/>
	<circle cx="216.718" cy="77.633" r="4" fill="#0" id="circle45"/>
	<circle cx="220.808" cy="572.61" r="4" fill="#0" id="circle46"/>
	<circle cx="220.808" cy="593.064" r="4" fill="#0" id="circle47"/>
	<circle cx="224.899" cy="617.608" r="4" fill="#0" id="circle48"/>
	<circle cx="235.126" cy="636.016" r="4" fill="#0" id="circle49"/>
	<circle cx="237.171" cy="73.5423" r="4" fill="#0" id="circle50"/>
	<circle cx="253.534" cy="57.1794" r="4" fill="#0" id="circle51"/>
	<circle cx="253.534" cy="623.744" r="4" fill="#0" id="circle52"/>
	<circle cx="255.579" cy="584.882" r="4" fill="#0" id="circle53"/>
	<circle cx="263.761" cy="564.429" r="4" fill="#0" id="circle54"/>
	<circle cx="273.988" cy="48.9979" r="4" fill="#0" id="circle55"/>
	<circle cx="284.214" cy="562.384" r="4" fill="#0" id="circle56"/>
	<circle cx="294.441" cy="44.9072" r="4" fill="#0" id="circle57"/>
	<circle cx="304.668" cy="562.384" r="4" fill="#0" id="circle58"/>
	<circle cx="314.895" cy="28.5443" r="4" fill="#0" id="circle59"/>
	<circle cx="325.122" cy="566.474" r="4" fill="#0" id="circle60"/>
	<circle cx="331.258" cy="8.09072" r="4" fill="#0" id="circle61"/>
	<circle cx="345.575" cy="570.565" r="4" fill="#0" id="circle62"/>
	<circle cx="351.711" cy="4" r="4" fill="#0" id="circle63"/>
	<circle cx="366.029" cy="574.656" r="4" fill="#0" id="circle64"/>
	<circle cx="372.165" cy="6.04536" r="4" fill="#0" id="circle65"/>
	<circle cx="386.482" cy="22.4082" r="4" fill="#0" id="circle66"/>
	<circle cx="386.482" cy="572.61" r="4" fill="#0" id="circle67"/>
	<circle cx="396.709" cy="40.8165" r="4" fill="#0" id="circle68"/>
	<circle cx="404.891" cy="562.384" r="4" fill="#0" id="circle69"/>
	<circle cx="417.163" cy="44.9072" r="4" fill="#0" id="circle70"/>
	<circle cx="425.344" cy="558.293" r="4" fill="#0" id="circle71"/>
	<circle cx="437.616" cy="53.0887" r="4" fill="#0" id="circle72"/>
	<circle cx="445.798" cy="558.293" r="4" fill="#0" id="circle73"/>
	<circle cx="456.025" cy="63.3155" r="4" fill="#0" id="circle74"/>
	<circle cx="466.252" cy="564.429" r="4" fill="#0" id="circle75"/>
	<circle cx="472.388" cy="77.633" r="4" fill="#0" id="circle76"/>
	<circle cx="486.705" cy="570.565" r="4" fill="#0" id="circle77"/>
	<circle cx="492.841" cy="77.633" r="4" fill="#0" id="circle78"/>
	<circle cx="507.159" cy="576.701" r="4" fill="#0" id="circle79"/>
	<circle cx="513.295" cy="81.7237" r="4" fill="#0" id="circle80"/>
	<circle cx="527.612" cy="584.882" r="4" fill="#0" id="circle81"/>
	<circle cx="533.748" cy="85.8144" r="4" fill="#0" id="circle82"/>
	<circle cx="548.066" cy="591.019" r="4" fill="#0" id="circle83"/>
	<circle cx="554.202" cy="89.9052" r="4" fill="#0" id="circle84"/>
	<circle cx="568.52" cy="595.109" r="4" fill="#0" id="circle85"/>
	<circle cx="574.656" cy="98.0866" r="4" fill="#0" id="circle86"/>
	<circle cx="588.973" cy="599.2" r="4" fill="#0" id="circle87"/>
	<circle cx="595.109" cy="102.177" r="4" fill="#0" id="circle88"/>
	<circle cx="609.427" cy="599.2" r="4" fill="#0" id="circle89"/>
	<circle cx="615.563" cy="106.268" r="4" fill="#0" id="circle90"/>
	<circle cx="629.88" cy="599.2" r="4" fill="#0" id="circle91"/>
	<circle cx="636.016" cy="114.449" r="4" fill="#0" id="circle92"/>
	<circle cx="650.334" cy="595.109" r="4" fill="#0" id="circle93"/>
	<circle cx="656.47" cy="122.631" r="4" fill="#0" id="circle94"/>
	<circle cx="662.606" cy="611.472" r="4" fill="#0" id="circle95"/>
	<circle cx="670.788" cy="631.926" r="4" fill="#0" id="circle96"/>
	<circle cx="672.833" cy="245.353" r="4" fill="#0" id="circle97"/>
	<circle cx="672.833" cy="265.806" r="4" fill="#0" id="circle98"/>
	<circle cx="672.833" cy="286.26" r="4" fill="#0" id="circle99"/>
	<circle cx="674.878" cy="132.858" r="4" fill="#0" id="circle100"/>
	<circle cx="674.878" cy="306.713" r="4" fill="#0" id="circle101"/>
	<circle cx="676.924" cy="200.355" r="4" fill="#0" id="circle102"/>
	<circle cx="676.924" cy="220.808" r="4" fill="#0" id="circle103"/>
	<circle cx="687.151" cy="611.472" r="4" fill="#0" id="circle104"/>
	<circle cx="689.196" cy="149.221" r="4" fill="#0" id="circle105"/>
	<circle cx="693.287" cy="175.81" r="4" fill="#0" id="circle106"/>
	<circle cx="693.287" cy="584.882" r="4" fill="#0" id="circle107"/>
	<circle cx="695.332" cy="304.668" r="4" fill="#0" id="circle108"/>
	<circle cx="709.649" cy="321.031" r="4" fill="#0" id="circle109"/>
	<circle cx="711.695" cy="574.656" r="4" fill="#0" id="circle110"/>
	<circle cx="730.103" cy="323.076" r="4" fill="#0" id="circle111"/>
	<circle cx="732.148" cy="566.474" r="4" fill="#0" id="circle112"/>
	<circle cx="750.557" cy="327.167" r="4" fill="#0" id="circle113"/>
	<circle cx="752.602" cy="562.384" r="4" fill="#0" id="circle114"/>
	<circle cx="771.01" cy="327.167" r="4" fill="#0" id="circle115"/>
	<circle cx="773.056" cy="558.293" r="4" fill="#0" id="circle116"/>
	<circle cx="791.464" cy="331.258" r="4" fill="#0" id="circle117"/>
	<circle cx="793.509" cy="558.293" r="4" fill="#0" id="circle118"/>
	<circle cx="811.918" cy="331.258" r="4" fill="#0" id="circle119"/>
	<circle cx="813.963" cy="566.474" r="4" fill="#0" id="circle120"/>
	<circle cx="830.326" cy="578.746" r="4" fill="#0" id="circle121"/>
	<circle cx="832.371" cy="335.348" r="4" fill="#0" id="circle122"/>
	<circle cx="850.779" cy="574.656" r="4" fill="#0" id="circle123"/>
	<circle cx="852.825" cy="335.348" r="4" fill="#0" id="circle124"/>
	<circle cx="871.233" cy="566.474" r="4" fill="#0" id="circle125"/>
	<circle cx="873.278" cy="339.439" r="4" fill="#0" id="circle126"/>
	<circle cx="891.687" cy="562.384" r="4" fill="#0" id="circle127"/>
	<circle cx="893.732" cy="343.53" r="4" fill="#0" id="circle128"/>
	<circle cx="912.14" cy="562.384" r="4" fill="#0" id="circle129"/>
	<circle cx="914.186" cy="347.621" r="4" fill="#0" id="circle130"/>
	<circle cx="932.594" cy="562.384" r="4" fill="#0" id="circle131"/>
	<circle cx="934.639" cy="355.802" r="4" fill="#0" id="circle132"/>
	<circle cx="944.866" cy="578.746" r="4" fill="#0" id="circle133"/>
	<circle cx="948.957" cy="599.2" r="4" fill="#0" id="circle134"/>
	<circle cx="948.957" cy="619.654" r="4" fill="#0" id="circle135"/>
	<circle cx="955.093" cy="363.984" r="4" fill="#0" id="circle136"/>
	<circle cx="961.229" cy="636.016" r="4" fill="#0" id="circle137"/>
	<circle cx="971.456" cy="445.798" r="4" fill="#0" id="circle138"/>
	<circle cx="971.456" cy="466.252" r="4" fill="#0" id="circle139"/>
	<circle cx="971.456" cy="486.705" r="4" fill="#0" id="circle140"/>
	<circle cx="971.456" cy="507.159" r="4" fill="#0" id="circle141"/>
	<circle cx="971.456" cy="527.612" r="4" fill="#0" id="circle142"/>
	<circle cx="971.456" cy="548.066" r="4" fill="#0" id="circle143"/>
	<circle cx="971.456" cy="609.427" r="4" fill="#0" id="circle144"/>
	<circle cx="975.546" cy="372.165" r="4" fill="#0" id="circle145"/>
	<circle cx="977.592" cy="568.52" r="4" fill="#0" id="circle146"/>
	<circle cx="981.682" cy="591.019" r="4" fill="#0" id="circle147"/>
	<circle cx="983.728" cy="429.435" r="4" fill="#0" id="circle148"/>
	<circle cx="989.864" cy="388.528" r="4" fill="#0" id="circle149"/>
	<circle cx="996" cy="408.981" r="4" fill="#0" id="circle150"/>
	</g>
</svg>