<?xml version="1.0" encoding="UTF-8" standalone="no"?>
<!-- Created with CurveBenchmark -->
<svg
	xmlns:dc="http://purl.org/dc/elements/1.1/"
	xmlns:cc="http://creativecommons.org/ns#"
	xmlns:rdf="http://www.w3.org/1999/02/22-rdf-syntax-ns#"
	xmlns:svg="http://www.w3.org/2000/svg"
	xmlns="http://www.w3.org/2000/svg"
	xmlns:sodipodi="http://sodipodi.sourceforge.net/DTD/sodipodi-0.dtd"
	xmlns:inkscape="http://www.inkscape.org/namespaces/inkscape"
	width="1000"
	height="1000"
	id="svg2"
	version="1.1"
	sodipodi:docname="manifold/vicur-bird-19.png.txt">
<defs
	id="defs4" />
<metadata
	id="metadata7">
	<rdf:RDF>
		<cc:Work
			rdf:about="">
			<dc:format>image/svg+xml</dc:format>
			<dc:type
				rdf:resource="http://purl.org/dc/dcmitype/StillImage" />
			<dc:title></dc:title>
		</cc:Work>
	</rdf:RDF>
</metadata>
<g
	inkscape:label="Layer 1"
	inkscape:groupmode="layer"
	id="layer1">
	<path style="fill:none;stroke:red;stroke-width:1px;stroke-linecap:butt;stroke-linejoin:miter;stroke-opacity:1" d="M 4,105.329 4,112.672 z" id="boundary" inkscape:connector-curvature="0" />
	<path style="fill:none;stroke:red;stroke-width:1px;stroke-linecap:butt;stroke-linejoin:miter;stroke-opacity:1" d="M 4,105.329 7.67135,94.3153 z" id="boundary" inkscape:connector-curvature="0" />
	<path style="fill:none;stroke:red;stroke-width:1px;stroke-linecap:butt;stroke-linejoin:miter;stroke-opacity:1" d="M 4,112.672 4,120.015 z" id="boundary" inkscape:connector-curvature="0" />
	<path style="fill:none;stroke:red;stroke-width:1px;stroke-linecap:butt;stroke-linejoin:miter;stroke-opacity:1" d="M 4,120.015 4,127.358 z" id="boundary" inkscape:connector-curvature="0" />
	<path style="fill:none;stroke:red;stroke-width:1px;stroke-linecap:butt;stroke-linejoin:miter;stroke-opacity:1" d="M 4,127.358 4,134.7 z" id="boundary" inkscape:connector-curvature="0" />
	<path style="fill:none;stroke:red;stroke-width:1px;stroke-linecap:butt;stroke-linejoin:miter;stroke-opacity:1" d="M 4,134.7 7.67135,141.309 z" id="boundary" inkscape:connector-curvature="0" />
	<path style="fill:none;stroke:red;stroke-width:1px;stroke-linecap:butt;stroke-linejoin:miter;stroke-opacity:1" d="M 7.67135,94.3153 11.3427,86.9726 z" id="boundary" inkscape:connector-curvature="0" />
	<path style="fill:none;stroke:red;stroke-width:1px;stroke-linecap:butt;stroke-linejoin:miter;stroke-opacity:1" d="M 7.67135,141.309 12.8113,147.183 z" id="boundary" inkscape:connector-curvature="0" />
	<path style="fill:none;stroke:red;stroke-width:1px;stroke-linecap:butt;stroke-linejoin:miter;stroke-opacity:1" d="M 11.3427,86.9726 17.2169,81.0984 z" id="boundary" inkscape:connector-curvature="0" />
	<path style="fill:none;stroke:red;stroke-width:1px;stroke-linecap:butt;stroke-linejoin:miter;stroke-opacity:1" d="M 12.8113,147.183 16.4826,153.791 z" id="boundary" inkscape:connector-curvature="0" />
	<path style="fill:none;stroke:red;stroke-width:1px;stroke-linecap:butt;stroke-linejoin:miter;stroke-opacity:1" d="M 16.4826,153.791 22.3568,158.931 z" id="boundary" inkscape:connector-curvature="0" />
	<path style="fill:none;stroke:red;stroke-width:1px;stroke-linecap:butt;stroke-linejoin:miter;stroke-opacity:1" d="M 17.2169,81.0984 23.091,75.2243 z" id="boundary" inkscape:connector-curvature="0" />
	<path style="fill:none;stroke:red;stroke-width:1px;stroke-linecap:butt;stroke-linejoin:miter;stroke-opacity:1" d="M 22.3568,158.931 26.7624,151.588 z" id="boundary" inkscape:connector-curvature="0" />
	<path style="fill:none;stroke:red;stroke-width:1px;stroke-linecap:butt;stroke-linejoin:miter;stroke-opacity:1" d="M 23.091,75.2243 35.5736,66.413 z" id="boundary" inkscape:connector-curvature="0" />
	<path style="fill:none;stroke:red;stroke-width:1px;stroke-linecap:butt;stroke-linejoin:miter;stroke-opacity:1" d="M 26.7624,151.588 30.4338,144.246 z" id="boundary" inkscape:connector-curvature="0" />
	<path style="fill:none;stroke:red;stroke-width:1px;stroke-linecap:butt;stroke-linejoin:miter;stroke-opacity:1" d="M 30.4338,144.246 37.7765,140.574 z" id="boundary" inkscape:connector-curvature="0" />
	<path style="fill:none;stroke:red;stroke-width:1px;stroke-linecap:butt;stroke-linejoin:miter;stroke-opacity:1" d="M 35.5736,66.413 42.1821,62.7417 z" id="boundary" inkscape:connector-curvature="0" />
	<path style="fill:none;stroke:red;stroke-width:1px;stroke-linecap:butt;stroke-linejoin:miter;stroke-opacity:1" d="M 37.7765,140.574 44.3849,136.903 z" id="boundary" inkscape:connector-curvature="0" />
	<path style="fill:none;stroke:red;stroke-width:1px;stroke-linecap:butt;stroke-linejoin:miter;stroke-opacity:1" d="M 44.3849,136.903 58.336,131.763 z" id="boundary" inkscape:connector-curvature="0" />
	<path style="fill:none;stroke:red;stroke-width:1px;stroke-linecap:butt;stroke-linejoin:miter;stroke-opacity:1" d="M 55.399,50.2591 59.0703,42.9164 z" id="boundary" inkscape:connector-curvature="0" />
	<path style="fill:none;stroke:red;stroke-width:1px;stroke-linecap:butt;stroke-linejoin:miter;stroke-opacity:1" d="M 58.336,131.763 72.2872,125.889 z" id="boundary" inkscape:connector-curvature="0" />
	<path style="fill:none;stroke:red;stroke-width:1px;stroke-linecap:butt;stroke-linejoin:miter;stroke-opacity:1" d="M 59.0703,42.9164 64.9445,37.0422 z" id="boundary" inkscape:connector-curvature="0" />
	<path style="fill:none;stroke:red;stroke-width:1px;stroke-linecap:butt;stroke-linejoin:miter;stroke-opacity:1" d="M 64.9445,37.0422 78.1614,27.4967 z" id="boundary" inkscape:connector-curvature="0" />
	<path style="fill:none;stroke:red;stroke-width:1px;stroke-linecap:butt;stroke-linejoin:miter;stroke-opacity:1" d="M 72.2872,125.889 79.6299,125.889 z" id="boundary" inkscape:connector-curvature="0" />
	<path style="fill:none;stroke:red;stroke-width:1px;stroke-linecap:butt;stroke-linejoin:miter;stroke-opacity:1" d="M 78.1614,27.4967 85.5041,23.8253 z" id="boundary" inkscape:connector-curvature="0" />
	<path style="fill:none;stroke:red;stroke-width:1px;stroke-linecap:butt;stroke-linejoin:miter;stroke-opacity:1" d="M 79.6299,125.889 93.5811,122.218 z" id="boundary" inkscape:connector-curvature="0" />
	<path style="fill:none;stroke:red;stroke-width:1px;stroke-linecap:butt;stroke-linejoin:miter;stroke-opacity:1" d="M 85.5041,23.8253 91.3782,18.6854 z" id="boundary" inkscape:connector-curvature="0" />
	<path style="fill:none;stroke:red;stroke-width:1px;stroke-linecap:butt;stroke-linejoin:miter;stroke-opacity:1" d="M 88.4412,340.296 88.4412,347.639 z" id="boundary" inkscape:connector-curvature="0" />
	<path style="fill:none;stroke:red;stroke-width:1px;stroke-linecap:butt;stroke-linejoin:miter;stroke-opacity:1" d="M 88.4412,340.296 92.1125,325.611 z" id="boundary" inkscape:connector-curvature="0" />
	<path style="fill:none;stroke:red;stroke-width:1px;stroke-linecap:butt;stroke-linejoin:miter;stroke-opacity:1" d="M 88.4412,347.639 88.4412,354.981 z" id="boundary" inkscape:connector-curvature="0" />
	<path style="fill:none;stroke:red;stroke-width:1px;stroke-linecap:butt;stroke-linejoin:miter;stroke-opacity:1" d="M 88.4412,354.981 88.4412,362.324 z" id="boundary" inkscape:connector-curvature="0" />
	<path style="fill:none;stroke:red;stroke-width:1px;stroke-linecap:butt;stroke-linejoin:miter;stroke-opacity:1" d="M 88.4412,377.01 88.4412,384.352 z" id="boundary" inkscape:connector-curvature="0" />
	<path style="fill:none;stroke:red;stroke-width:1px;stroke-linecap:butt;stroke-linejoin:miter;stroke-opacity:1" d="M 88.4412,384.352 88.4412,391.695 z" id="boundary" inkscape:connector-curvature="0" />
	<path style="fill:none;stroke:red;stroke-width:1px;stroke-linecap:butt;stroke-linejoin:miter;stroke-opacity:1" d="M 91.3782,18.6854 97.9867,15.0141 z" id="boundary" inkscape:connector-curvature="0" />
	<path style="fill:none;stroke:red;stroke-width:1px;stroke-linecap:butt;stroke-linejoin:miter;stroke-opacity:1" d="M 92.1125,303.583 92.1125,310.925 z" id="boundary" inkscape:connector-curvature="0" />
	<path style="fill:none;stroke:red;stroke-width:1px;stroke-linecap:butt;stroke-linejoin:miter;stroke-opacity:1" d="M 92.1125,303.583 95.7839,292.568 z" id="boundary" inkscape:connector-curvature="0" />
	<path style="fill:none;stroke:red;stroke-width:1px;stroke-linecap:butt;stroke-linejoin:miter;stroke-opacity:1" d="M 92.1125,310.925 92.1125,318.268 z" id="boundary" inkscape:connector-curvature="0" />
	<path style="fill:none;stroke:red;stroke-width:1px;stroke-linecap:butt;stroke-linejoin:miter;stroke-opacity:1" d="M 92.1125,318.268 92.1125,325.611 z" id="boundary" inkscape:connector-curvature="0" />
	<path style="fill:none;stroke:red;stroke-width:1px;stroke-linecap:butt;stroke-linejoin:miter;stroke-opacity:1" d="M 93.5811,122.218 100.924,122.218 z" id="boundary" inkscape:connector-curvature="0" />
	<path style="fill:none;stroke:red;stroke-width:1px;stroke-linecap:butt;stroke-linejoin:miter;stroke-opacity:1" d="M 95.7839,277.883 95.7839,285.226 z" id="boundary" inkscape:connector-curvature="0" />
	<path style="fill:none;stroke:red;stroke-width:1px;stroke-linecap:butt;stroke-linejoin:miter;stroke-opacity:1" d="M 95.7839,277.883 99.4552,263.198 z" id="boundary" inkscape:connector-curvature="0" />
	<path style="fill:none;stroke:red;stroke-width:1px;stroke-linecap:butt;stroke-linejoin:miter;stroke-opacity:1" d="M 95.7839,285.226 95.7839,292.568 z" id="boundary" inkscape:connector-curvature="0" />
	<path style="fill:none;stroke:red;stroke-width:1px;stroke-linecap:butt;stroke-linejoin:miter;stroke-opacity:1" d="M 97.9867,15.0141 111.938,8.40563 z" id="boundary" inkscape:connector-curvature="0" />
	<path style="fill:none;stroke:red;stroke-width:1px;stroke-linecap:butt;stroke-linejoin:miter;stroke-opacity:1" d="M 99.4552,263.198 103.127,255.855 z" id="boundary" inkscape:connector-curvature="0" />
	<path style="fill:none;stroke:red;stroke-width:1px;stroke-linecap:butt;stroke-linejoin:miter;stroke-opacity:1" d="M 100.924,122.218 106.798,126.623 z" id="boundary" inkscape:connector-curvature="0" />
	<path style="fill:none;stroke:red;stroke-width:1px;stroke-linecap:butt;stroke-linejoin:miter;stroke-opacity:1" d="M 103.127,248.512 103.127,255.855 z" id="boundary" inkscape:connector-curvature="0" />
	<path style="fill:none;stroke:red;stroke-width:1px;stroke-linecap:butt;stroke-linejoin:miter;stroke-opacity:1" d="M 103.127,248.512 106.798,237.498 z" id="boundary" inkscape:connector-curvature="0" />
	<path style="fill:none;stroke:red;stroke-width:1px;stroke-linecap:butt;stroke-linejoin:miter;stroke-opacity:1" d="M 106.798,126.623 110.469,133.232 z" id="boundary" inkscape:connector-curvature="0" />
	<path style="fill:none;stroke:red;stroke-width:1px;stroke-linecap:butt;stroke-linejoin:miter;stroke-opacity:1" d="M 106.798,230.155 106.798,237.498 z" id="boundary" inkscape:connector-curvature="0" />
	<path style="fill:none;stroke:red;stroke-width:1px;stroke-linecap:butt;stroke-linejoin:miter;stroke-opacity:1" d="M 106.798,230.155 110.469,222.813 z" id="boundary" inkscape:connector-curvature="0" />
	<path style="fill:none;stroke:red;stroke-width:1px;stroke-linecap:butt;stroke-linejoin:miter;stroke-opacity:1" d="M 110.469,133.232 114.141,139.84 z" id="boundary" inkscape:connector-curvature="0" />
	<path style="fill:none;stroke:red;stroke-width:1px;stroke-linecap:butt;stroke-linejoin:miter;stroke-opacity:1" d="M 110.469,215.47 110.469,222.813 z" id="boundary" inkscape:connector-curvature="0" />
	<path style="fill:none;stroke:red;stroke-width:1px;stroke-linecap:butt;stroke-linejoin:miter;stroke-opacity:1" d="M 110.469,215.47 114.141,204.456 z" id="boundary" inkscape:connector-curvature="0" />
	<path style="fill:none;stroke:red;stroke-width:1px;stroke-linecap:butt;stroke-linejoin:miter;stroke-opacity:1" d="M 110.469,468.793 114.141,475.402 z" id="boundary" inkscape:connector-curvature="0" />
	<path style="fill:none;stroke:red;stroke-width:1px;stroke-linecap:butt;stroke-linejoin:miter;stroke-opacity:1" d="M 111.938,8.40563 119.281,7.67135 z" id="boundary" inkscape:connector-curvature="0" />
	<path style="fill:none;stroke:red;stroke-width:1px;stroke-linecap:butt;stroke-linejoin:miter;stroke-opacity:1" d="M 114.141,139.84 117.812,153.791 z" id="boundary" inkscape:connector-curvature="0" />
	<path style="fill:none;stroke:red;stroke-width:1px;stroke-linecap:butt;stroke-linejoin:miter;stroke-opacity:1" d="M 114.141,197.113 114.141,204.456 z" id="boundary" inkscape:connector-curvature="0" />
	<path style="fill:none;stroke:red;stroke-width:1px;stroke-linecap:butt;stroke-linejoin:miter;stroke-opacity:1" d="M 114.141,197.113 117.812,183.162 z" id="boundary" inkscape:connector-curvature="0" />
	<path style="fill:none;stroke:red;stroke-width:1px;stroke-linecap:butt;stroke-linejoin:miter;stroke-opacity:1" d="M 114.141,475.402 117.812,482.01 z" id="boundary" inkscape:connector-curvature="0" />
	<path style="fill:none;stroke:red;stroke-width:1px;stroke-linecap:butt;stroke-linejoin:miter;stroke-opacity:1" d="M 117.812,153.791 117.812,161.134 z" id="boundary" inkscape:connector-curvature="0" />
	<path style="fill:none;stroke:red;stroke-width:1px;stroke-linecap:butt;stroke-linejoin:miter;stroke-opacity:1" d="M 117.812,161.134 117.812,168.477 z" id="boundary" inkscape:connector-curvature="0" />
	<path style="fill:none;stroke:red;stroke-width:1px;stroke-linecap:butt;stroke-linejoin:miter;stroke-opacity:1" d="M 117.812,168.477 117.812,175.819 z" id="boundary" inkscape:connector-curvature="0" />
	<path style="fill:none;stroke:red;stroke-width:1px;stroke-linecap:butt;stroke-linejoin:miter;stroke-opacity:1" d="M 117.812,175.819 117.812,183.162 z" id="boundary" inkscape:connector-curvature="0" />
	<path style="fill:none;stroke:red;stroke-width:1px;stroke-linecap:butt;stroke-linejoin:miter;stroke-opacity:1" d="M 117.812,482.01 122.218,487.885 z" id="boundary" inkscape:connector-curvature="0" />
	<path style="fill:none;stroke:red;stroke-width:1px;stroke-linecap:butt;stroke-linejoin:miter;stroke-opacity:1" d="M 119.281,7.67135 126.623,4.73427 z" id="boundary" inkscape:connector-curvature="0" />
	<path style="fill:none;stroke:red;stroke-width:1px;stroke-linecap:butt;stroke-linejoin:miter;stroke-opacity:1" d="M 126.623,4.73427 133.966,4 z" id="boundary" inkscape:connector-curvature="0" />
	<path style="fill:none;stroke:red;stroke-width:1px;stroke-linecap:butt;stroke-linejoin:miter;stroke-opacity:1" d="M 128.826,501.836 134.7,506.976 z" id="boundary" inkscape:connector-curvature="0" />
	<path style="fill:none;stroke:red;stroke-width:1px;stroke-linecap:butt;stroke-linejoin:miter;stroke-opacity:1" d="M 133.966,4 141.309,4 z" id="boundary" inkscape:connector-curvature="0" />
	<path style="fill:none;stroke:red;stroke-width:1px;stroke-linecap:butt;stroke-linejoin:miter;stroke-opacity:1" d="M 134.7,506.976 139.84,512.85 z" id="boundary" inkscape:connector-curvature="0" />
	<path style="fill:none;stroke:red;stroke-width:1px;stroke-linecap:butt;stroke-linejoin:miter;stroke-opacity:1" d="M 139.84,512.85 143.511,519.458 z" id="boundary" inkscape:connector-curvature="0" />
	<path style="fill:none;stroke:red;stroke-width:1px;stroke-linecap:butt;stroke-linejoin:miter;stroke-opacity:1" d="M 141.309,4 155.994,4 z" id="boundary" inkscape:connector-curvature="0" />
	<path style="fill:none;stroke:red;stroke-width:1px;stroke-linecap:butt;stroke-linejoin:miter;stroke-opacity:1" d="M 143.511,519.458 148.651,525.332 z" id="boundary" inkscape:connector-curvature="0" />
	<path style="fill:none;stroke:red;stroke-width:1px;stroke-linecap:butt;stroke-linejoin:miter;stroke-opacity:1" d="M 148.651,525.332 154.526,529.738 z" id="boundary" inkscape:connector-curvature="0" />
	<path style="fill:none;stroke:red;stroke-width:1px;stroke-linecap:butt;stroke-linejoin:miter;stroke-opacity:1" d="M 154.526,529.738 158.931,535.612 z" id="boundary" inkscape:connector-curvature="0" />
	<path style="fill:none;stroke:red;stroke-width:1px;stroke-linecap:butt;stroke-linejoin:miter;stroke-opacity:1" d="M 155.994,4 163.337,4 z" id="boundary" inkscape:connector-curvature="0" />
	<path style="fill:none;stroke:red;stroke-width:1px;stroke-linecap:butt;stroke-linejoin:miter;stroke-opacity:1" d="M 158.931,535.612 164.805,540.752 z" id="boundary" inkscape:connector-curvature="0" />
	<path style="fill:none;stroke:red;stroke-width:1px;stroke-linecap:butt;stroke-linejoin:miter;stroke-opacity:1" d="M 163.337,4 170.679,4 z" id="boundary" inkscape:connector-curvature="0" />
	<path style="fill:none;stroke:red;stroke-width:1px;stroke-linecap:butt;stroke-linejoin:miter;stroke-opacity:1" d="M 164.805,540.752 169.945,546.626 z" id="boundary" inkscape:connector-curvature="0" />
	<path style="fill:none;stroke:red;stroke-width:1px;stroke-linecap:butt;stroke-linejoin:miter;stroke-opacity:1" d="M 169.945,546.626 175.819,551.766 z" id="boundary" inkscape:connector-curvature="0" />
	<path style="fill:none;stroke:red;stroke-width:1px;stroke-linecap:butt;stroke-linejoin:miter;stroke-opacity:1" d="M 170.679,4 184.631,7.67135 z" id="boundary" inkscape:connector-curvature="0" />
	<path style="fill:none;stroke:red;stroke-width:1px;stroke-linecap:butt;stroke-linejoin:miter;stroke-opacity:1" d="M 175.819,551.766 180.225,557.64 z" id="boundary" inkscape:connector-curvature="0" />
	<path style="fill:none;stroke:red;stroke-width:1px;stroke-linecap:butt;stroke-linejoin:miter;stroke-opacity:1" d="M 180.225,557.64 183.896,564.249 z" id="boundary" inkscape:connector-curvature="0" />
	<path style="fill:none;stroke:red;stroke-width:1px;stroke-linecap:butt;stroke-linejoin:miter;stroke-opacity:1" d="M 183.896,564.249 189.771,569.389 z" id="boundary" inkscape:connector-curvature="0" />
	<path style="fill:none;stroke:red;stroke-width:1px;stroke-linecap:butt;stroke-linejoin:miter;stroke-opacity:1" d="M 184.631,7.67135 198.582,12.8113 z" id="boundary" inkscape:connector-curvature="0" />
	<path style="fill:none;stroke:red;stroke-width:1px;stroke-linecap:butt;stroke-linejoin:miter;stroke-opacity:1" d="M 189.771,569.389 195.645,573.794 z" id="boundary" inkscape:connector-curvature="0" />
	<path style="fill:none;stroke:red;stroke-width:1px;stroke-linecap:butt;stroke-linejoin:miter;stroke-opacity:1" d="M 195.645,573.794 202.253,577.466 z" id="boundary" inkscape:connector-curvature="0" />
	<path style="fill:none;stroke:red;stroke-width:1px;stroke-linecap:butt;stroke-linejoin:miter;stroke-opacity:1" d="M 198.582,12.8113 202.987,18.6854 z" id="boundary" inkscape:connector-curvature="0" />
	<path style="fill:none;stroke:red;stroke-width:1px;stroke-linecap:butt;stroke-linejoin:miter;stroke-opacity:1" d="M 202.253,577.466 208.862,581.137 z" id="boundary" inkscape:connector-curvature="0" />
	<path style="fill:none;stroke:red;stroke-width:1px;stroke-linecap:butt;stroke-linejoin:miter;stroke-opacity:1" d="M 208.862,581.137 214.001,587.011 z" id="boundary" inkscape:connector-curvature="0" />
	<path style="fill:none;stroke:red;stroke-width:1px;stroke-linecap:butt;stroke-linejoin:miter;stroke-opacity:1" d="M 214.001,587.011 219.876,592.151 z" id="boundary" inkscape:connector-curvature="0" />
	<path style="fill:none;stroke:red;stroke-width:1px;stroke-linecap:butt;stroke-linejoin:miter;stroke-opacity:1" d="M 216.939,22.3568 222.813,26.7624 z" id="boundary" inkscape:connector-curvature="0" />
	<path style="fill:none;stroke:red;stroke-width:1px;stroke-linecap:butt;stroke-linejoin:miter;stroke-opacity:1" d="M 222.813,26.7624 228.687,31.9023 z" id="boundary" inkscape:connector-curvature="0" />
	<path style="fill:none;stroke:red;stroke-width:1px;stroke-linecap:butt;stroke-linejoin:miter;stroke-opacity:1" d="M 228.687,31.9023 233.827,37.7765 z" id="boundary" inkscape:connector-curvature="0" />
	<path style="fill:none;stroke:red;stroke-width:1px;stroke-linecap:butt;stroke-linejoin:miter;stroke-opacity:1" d="M 233.093,599.494 238.967,603.899 z" id="boundary" inkscape:connector-curvature="0" />
	<path style="fill:none;stroke:red;stroke-width:1px;stroke-linecap:butt;stroke-linejoin:miter;stroke-opacity:1" d="M 233.827,37.7765 237.498,44.3849 z" id="boundary" inkscape:connector-curvature="0" />
	<path style="fill:none;stroke:red;stroke-width:1px;stroke-linecap:butt;stroke-linejoin:miter;stroke-opacity:1" d="M 237.498,44.3849 242.638,50.2591 z" id="boundary" inkscape:connector-curvature="0" />
	<path style="fill:none;stroke:red;stroke-width:1px;stroke-linecap:butt;stroke-linejoin:miter;stroke-opacity:1" d="M 238.967,603.899 242.638,610.508 z" id="boundary" inkscape:connector-curvature="0" />
	<path style="fill:none;stroke:red;stroke-width:1px;stroke-linecap:butt;stroke-linejoin:miter;stroke-opacity:1" d="M 242.638,610.508 247.044,616.382 z" id="boundary" inkscape:connector-curvature="0" />
	<path style="fill:none;stroke:red;stroke-width:1px;stroke-linecap:butt;stroke-linejoin:miter;stroke-opacity:1" d="M 247.044,616.382 252.918,621.522 z" id="boundary" inkscape:connector-curvature="0" />
	<path style="fill:none;stroke:red;stroke-width:1px;stroke-linecap:butt;stroke-linejoin:miter;stroke-opacity:1" d="M 260.261,89.9097 261.729,97.2524 z" id="boundary" inkscape:connector-curvature="0" />
	<path style="fill:none;stroke:red;stroke-width:1px;stroke-linecap:butt;stroke-linejoin:miter;stroke-opacity:1" d="M 261.729,97.2524 261.729,104.595 z" id="boundary" inkscape:connector-curvature="0" />
	<path style="fill:none;stroke:red;stroke-width:1px;stroke-linecap:butt;stroke-linejoin:miter;stroke-opacity:1" d="M 268.338,747.816 268.338,755.159 z" id="boundary" inkscape:connector-curvature="0" />
	<path style="fill:none;stroke:red;stroke-width:1px;stroke-linecap:butt;stroke-linejoin:miter;stroke-opacity:1" d="M 268.338,747.816 272.009,736.802 z" id="boundary" inkscape:connector-curvature="0" />
	<path style="fill:none;stroke:red;stroke-width:1px;stroke-linecap:butt;stroke-linejoin:miter;stroke-opacity:1" d="M 269.072,147.183 269.072,154.526 z" id="boundary" inkscape:connector-curvature="0" />
	<path style="fill:none;stroke:red;stroke-width:1px;stroke-linecap:butt;stroke-linejoin:miter;stroke-opacity:1" d="M 269.072,154.526 269.072,161.868 z" id="boundary" inkscape:connector-curvature="0" />
	<path style="fill:none;stroke:red;stroke-width:1px;stroke-linecap:butt;stroke-linejoin:miter;stroke-opacity:1" d="M 272.009,736.802 275.68,729.46 z" id="boundary" inkscape:connector-curvature="0" />
	<path style="fill:none;stroke:red;stroke-width:1px;stroke-linecap:butt;stroke-linejoin:miter;stroke-opacity:1" d="M 272.009,761.768 280.086,753.691 z" id="boundary" inkscape:connector-curvature="0" />
	<path style="fill:none;stroke:red;stroke-width:1px;stroke-linecap:butt;stroke-linejoin:miter;stroke-opacity:1" d="M 275.68,729.46 281.554,723.585 z" id="boundary" inkscape:connector-curvature="0" />
	<path style="fill:none;stroke:red;stroke-width:1px;stroke-linecap:butt;stroke-linejoin:miter;stroke-opacity:1" d="M 280.086,753.691 290.366,739.005 z" id="boundary" inkscape:connector-curvature="0" />
	<path style="fill:none;stroke:red;stroke-width:1px;stroke-linecap:butt;stroke-linejoin:miter;stroke-opacity:1" d="M 281.554,723.585 287.429,717.711 z" id="boundary" inkscape:connector-curvature="0" />
	<path style="fill:none;stroke:red;stroke-width:1px;stroke-linecap:butt;stroke-linejoin:miter;stroke-opacity:1" d="M 287.429,717.711 300.645,716.243 z" id="boundary" inkscape:connector-curvature="0" />
	<path style="fill:none;stroke:red;stroke-width:1px;stroke-linecap:butt;stroke-linejoin:miter;stroke-opacity:1" d="M 290.366,739.005 304.317,742.677 z" id="boundary" inkscape:connector-curvature="0" />
	<path style="fill:none;stroke:red;stroke-width:1px;stroke-linecap:butt;stroke-linejoin:miter;stroke-opacity:1" d="M 294.771,224.281 300.645,228.687 z" id="boundary" inkscape:connector-curvature="0" />
	<path style="fill:none;stroke:red;stroke-width:1px;stroke-linecap:butt;stroke-linejoin:miter;stroke-opacity:1" d="M 300.645,228.687 305.785,234.561 z" id="boundary" inkscape:connector-curvature="0" />
	<path style="fill:none;stroke:red;stroke-width:1px;stroke-linecap:butt;stroke-linejoin:miter;stroke-opacity:1" d="M 300.645,716.243 307.988,716.243 z" id="boundary" inkscape:connector-curvature="0" />
	<path style="fill:none;stroke:red;stroke-width:1px;stroke-linecap:butt;stroke-linejoin:miter;stroke-opacity:1" d="M 304.317,742.677 319.002,742.677 z" id="boundary" inkscape:connector-curvature="0" />
	<path style="fill:none;stroke:red;stroke-width:1px;stroke-linecap:butt;stroke-linejoin:miter;stroke-opacity:1" d="M 305.785,234.561 309.457,241.17 z" id="boundary" inkscape:connector-curvature="0" />
	<path style="fill:none;stroke:red;stroke-width:1px;stroke-linecap:butt;stroke-linejoin:miter;stroke-opacity:1" d="M 307.988,716.243 315.331,716.243 z" id="boundary" inkscape:connector-curvature="0" />
	<path style="fill:none;stroke:red;stroke-width:1px;stroke-linecap:butt;stroke-linejoin:miter;stroke-opacity:1" d="M 309.457,241.17 314.597,247.044 z" id="boundary" inkscape:connector-curvature="0" />
	<path style="fill:none;stroke:red;stroke-width:1px;stroke-linecap:butt;stroke-linejoin:miter;stroke-opacity:1" d="M 314.597,247.044 320.471,252.184 z" id="boundary" inkscape:connector-curvature="0" />
	<path style="fill:none;stroke:red;stroke-width:1px;stroke-linecap:butt;stroke-linejoin:miter;stroke-opacity:1" d="M 315.331,716.243 322.674,716.243 z" id="boundary" inkscape:connector-curvature="0" />
	<path style="fill:none;stroke:red;stroke-width:1px;stroke-linecap:butt;stroke-linejoin:miter;stroke-opacity:1" d="M 319.002,742.677 332.953,746.348 z" id="boundary" inkscape:connector-curvature="0" />
	<path style="fill:none;stroke:red;stroke-width:1px;stroke-linecap:butt;stroke-linejoin:miter;stroke-opacity:1" d="M 322.674,716.243 337.359,716.243 z" id="boundary" inkscape:connector-curvature="0" />
	<path style="fill:none;stroke:red;stroke-width:1px;stroke-linecap:butt;stroke-linejoin:miter;stroke-opacity:1" d="M 332.953,260.995 338.093,266.869 z" id="boundary" inkscape:connector-curvature="0" />
	<path style="fill:none;stroke:red;stroke-width:1px;stroke-linecap:butt;stroke-linejoin:miter;stroke-opacity:1" d="M 332.953,746.348 340.296,746.348 z" id="boundary" inkscape:connector-curvature="0" />
	<path style="fill:none;stroke:red;stroke-width:1px;stroke-linecap:butt;stroke-linejoin:miter;stroke-opacity:1" d="M 337.359,716.243 343.967,712.571 z" id="boundary" inkscape:connector-curvature="0" />
	<path style="fill:none;stroke:red;stroke-width:1px;stroke-linecap:butt;stroke-linejoin:miter;stroke-opacity:1" d="M 338.093,266.869 343.967,272.009 z" id="boundary" inkscape:connector-curvature="0" />
	<path style="fill:none;stroke:red;stroke-width:1px;stroke-linecap:butt;stroke-linejoin:miter;stroke-opacity:1" d="M 340.296,746.348 347.639,749.285 z" id="boundary" inkscape:connector-curvature="0" />
	<path style="fill:none;stroke:red;stroke-width:1px;stroke-linecap:butt;stroke-linejoin:miter;stroke-opacity:1" d="M 343.233,658.235 349.842,661.907 z" id="boundary" inkscape:connector-curvature="0" />
	<path style="fill:none;stroke:red;stroke-width:1px;stroke-linecap:butt;stroke-linejoin:miter;stroke-opacity:1" d="M 343.967,272.009 349.107,277.883 z" id="boundary" inkscape:connector-curvature="0" />
	<path style="fill:none;stroke:red;stroke-width:1px;stroke-linecap:butt;stroke-linejoin:miter;stroke-opacity:1" d="M 343.967,712.571 349.842,706.697 z" id="boundary" inkscape:connector-curvature="0" />
	<path style="fill:none;stroke:red;stroke-width:1px;stroke-linecap:butt;stroke-linejoin:miter;stroke-opacity:1" d="M 347.639,749.285 354.981,750.019 z" id="boundary" inkscape:connector-curvature="0" />
	<path style="fill:none;stroke:red;stroke-width:1px;stroke-linecap:butt;stroke-linejoin:miter;stroke-opacity:1" d="M 349.107,277.883 354.981,283.023 z" id="boundary" inkscape:connector-curvature="0" />
	<path style="fill:none;stroke:red;stroke-width:1px;stroke-linecap:butt;stroke-linejoin:miter;stroke-opacity:1" d="M 349.842,661.907 356.45,665.578 z" id="boundary" inkscape:connector-curvature="0" />
	<path style="fill:none;stroke:red;stroke-width:1px;stroke-linecap:butt;stroke-linejoin:miter;stroke-opacity:1" d="M 349.842,706.697 358.653,694.215 z" id="boundary" inkscape:connector-curvature="0" />
	<path style="fill:none;stroke:red;stroke-width:1px;stroke-linecap:butt;stroke-linejoin:miter;stroke-opacity:1" d="M 354.981,283.023 361.59,286.694 z" id="boundary" inkscape:connector-curvature="0" />
	<path style="fill:none;stroke:red;stroke-width:1px;stroke-linecap:butt;stroke-linejoin:miter;stroke-opacity:1" d="M 354.981,750.019 369.667,750.019 z" id="boundary" inkscape:connector-curvature="0" />
	<path style="fill:none;stroke:red;stroke-width:1px;stroke-linecap:butt;stroke-linejoin:miter;stroke-opacity:1" d="M 356.45,665.578 360.121,672.187 z" id="boundary" inkscape:connector-curvature="0" />
	<path style="fill:none;stroke:red;stroke-width:1px;stroke-linecap:butt;stroke-linejoin:miter;stroke-opacity:1" d="M 358.653,694.215 360.121,686.872 z" id="boundary" inkscape:connector-curvature="0" />
	<path style="fill:none;stroke:red;stroke-width:1px;stroke-linecap:butt;stroke-linejoin:miter;stroke-opacity:1" d="M 360.121,672.187 360.121,686.872 z" id="boundary" inkscape:connector-curvature="0" />
	<path style="fill:none;stroke:red;stroke-width:1px;stroke-linecap:butt;stroke-linejoin:miter;stroke-opacity:1" d="M 361.59,286.694 368.198,290.366 z" id="boundary" inkscape:connector-curvature="0" />
	<path style="fill:none;stroke:red;stroke-width:1px;stroke-linecap:butt;stroke-linejoin:miter;stroke-opacity:1" d="M 368.198,290.366 374.073,294.771 z" id="boundary" inkscape:connector-curvature="0" />
	<path style="fill:none;stroke:red;stroke-width:1px;stroke-linecap:butt;stroke-linejoin:miter;stroke-opacity:1" d="M 369.667,750.019 377.01,749.285 z" id="boundary" inkscape:connector-curvature="0" />
	<path style="fill:none;stroke:red;stroke-width:1px;stroke-linecap:butt;stroke-linejoin:miter;stroke-opacity:1" d="M 384.352,749.285 390.226,753.691 z" id="boundary" inkscape:connector-curvature="0" />
	<path style="fill:none;stroke:red;stroke-width:1px;stroke-linecap:butt;stroke-linejoin:miter;stroke-opacity:1" d="M 386.555,698.62 388.024,705.963 z" id="boundary" inkscape:connector-curvature="0" />
	<path style="fill:none;stroke:red;stroke-width:1px;stroke-linecap:butt;stroke-linejoin:miter;stroke-opacity:1" d="M 386.555,698.62 390.226,691.278 z" id="boundary" inkscape:connector-curvature="0" />
	<path style="fill:none;stroke:red;stroke-width:1px;stroke-linecap:butt;stroke-linejoin:miter;stroke-opacity:1" d="M 386.555,716.977 388.024,705.963 z" id="boundary" inkscape:connector-curvature="0" />
	<path style="fill:none;stroke:red;stroke-width:1px;stroke-linecap:butt;stroke-linejoin:miter;stroke-opacity:1" d="M 386.555,716.977 393.898,714.774 z" id="boundary" inkscape:connector-curvature="0" />
	<path style="fill:none;stroke:red;stroke-width:1px;stroke-linecap:butt;stroke-linejoin:miter;stroke-opacity:1" d="M 390.226,691.278 397.569,676.592 z" id="boundary" inkscape:connector-curvature="0" />
	<path style="fill:none;stroke:red;stroke-width:1px;stroke-linecap:butt;stroke-linejoin:miter;stroke-opacity:1" d="M 390.226,753.691 396.835,757.362 z" id="boundary" inkscape:connector-curvature="0" />
	<path style="fill:none;stroke:red;stroke-width:1px;stroke-linecap:butt;stroke-linejoin:miter;stroke-opacity:1" d="M 391.695,730.928 393.898,714.774 z" id="boundary" inkscape:connector-curvature="0" />
	<path style="fill:none;stroke:red;stroke-width:1px;stroke-linecap:butt;stroke-linejoin:miter;stroke-opacity:1" d="M 391.695,730.928 396.835,736.802 z" id="boundary" inkscape:connector-curvature="0" />
	<path style="fill:none;stroke:red;stroke-width:1px;stroke-linecap:butt;stroke-linejoin:miter;stroke-opacity:1" d="M 396.835,736.802 402.709,741.942 z" id="boundary" inkscape:connector-curvature="0" />
	<path style="fill:none;stroke:red;stroke-width:1px;stroke-linecap:butt;stroke-linejoin:miter;stroke-opacity:1" d="M 396.835,757.362 401.241,763.236 z" id="boundary" inkscape:connector-curvature="0" />
	<path style="fill:none;stroke:red;stroke-width:1px;stroke-linecap:butt;stroke-linejoin:miter;stroke-opacity:1" d="M 397.569,676.592 403.443,671.452 z" id="boundary" inkscape:connector-curvature="0" />
	<path style="fill:none;stroke:red;stroke-width:1px;stroke-linecap:butt;stroke-linejoin:miter;stroke-opacity:1" d="M 401.241,763.236 407.115,768.376 z" id="boundary" inkscape:connector-curvature="0" />
	<path style="fill:none;stroke:red;stroke-width:1px;stroke-linecap:butt;stroke-linejoin:miter;stroke-opacity:1" d="M 402.709,741.942 407.849,747.816 z" id="boundary" inkscape:connector-curvature="0" />
	<path style="fill:none;stroke:red;stroke-width:1px;stroke-linecap:butt;stroke-linejoin:miter;stroke-opacity:1" d="M 415.926,661.907 423.269,661.907 z" id="boundary" inkscape:connector-curvature="0" />
	<path style="fill:none;stroke:red;stroke-width:1px;stroke-linecap:butt;stroke-linejoin:miter;stroke-opacity:1" d="M 423.269,661.907 430.611,661.907 z" id="boundary" inkscape:connector-curvature="0" />
	<path style="fill:none;stroke:red;stroke-width:1px;stroke-linecap:butt;stroke-linejoin:miter;stroke-opacity:1" d="M 443.094,327.079 449.702,330.751 z" id="boundary" inkscape:connector-curvature="0" />
	<path style="fill:none;stroke:red;stroke-width:1px;stroke-linecap:butt;stroke-linejoin:miter;stroke-opacity:1" d="M 449.702,330.751 463.654,336.625 z" id="boundary" inkscape:connector-curvature="0" />
	<path style="fill:none;stroke:red;stroke-width:1px;stroke-linecap:butt;stroke-linejoin:miter;stroke-opacity:1" d="M 463.654,336.625 477.605,341.765 z" id="boundary" inkscape:connector-curvature="0" />
	<path style="fill:none;stroke:red;stroke-width:1px;stroke-linecap:butt;stroke-linejoin:miter;stroke-opacity:1" d="M 466.591,665.578 473.199,669.249 z" id="boundary" inkscape:connector-curvature="0" />
	<path style="fill:none;stroke:red;stroke-width:1px;stroke-linecap:butt;stroke-linejoin:miter;stroke-opacity:1" d="M 473.199,669.249 487.15,664.844 z" id="boundary" inkscape:connector-curvature="0" />
	<path style="fill:none;stroke:red;stroke-width:1px;stroke-linecap:butt;stroke-linejoin:miter;stroke-opacity:1" d="M 477.605,341.765 491.556,346.17 z" id="boundary" inkscape:connector-curvature="0" />
	<path style="fill:none;stroke:red;stroke-width:1px;stroke-linecap:butt;stroke-linejoin:miter;stroke-opacity:1" d="M 487.15,664.844 494.493,661.907 z" id="boundary" inkscape:connector-curvature="0" />
	<path style="fill:none;stroke:red;stroke-width:1px;stroke-linecap:butt;stroke-linejoin:miter;stroke-opacity:1" d="M 491.556,346.17 505.507,352.779 z" id="boundary" inkscape:connector-curvature="0" />
	<path style="fill:none;stroke:red;stroke-width:1px;stroke-linecap:butt;stroke-linejoin:miter;stroke-opacity:1" d="M 494.493,661.907 501.836,661.172 z" id="boundary" inkscape:connector-curvature="0" />
	<path style="fill:none;stroke:red;stroke-width:1px;stroke-linecap:butt;stroke-linejoin:miter;stroke-opacity:1" d="M 501.836,661.172 515.787,654.564 z" id="boundary" inkscape:connector-curvature="0" />
	<path style="fill:none;stroke:red;stroke-width:1px;stroke-linecap:butt;stroke-linejoin:miter;stroke-opacity:1" d="M 505.507,352.779 512.115,356.45 z" id="boundary" inkscape:connector-curvature="0" />
	<path style="fill:none;stroke:red;stroke-width:1px;stroke-linecap:butt;stroke-linejoin:miter;stroke-opacity:1" d="M 512.115,356.45 518.724,360.121 z" id="boundary" inkscape:connector-curvature="0" />
	<path style="fill:none;stroke:red;stroke-width:1px;stroke-linecap:butt;stroke-linejoin:miter;stroke-opacity:1" d="M 515.787,654.564 522.395,650.893 z" id="boundary" inkscape:connector-curvature="0" />
	<path style="fill:none;stroke:red;stroke-width:1px;stroke-linecap:butt;stroke-linejoin:miter;stroke-opacity:1" d="M 518.724,360.121 532.675,365.261 z" id="boundary" inkscape:connector-curvature="0" />
	<path style="fill:none;stroke:red;stroke-width:1px;stroke-linecap:butt;stroke-linejoin:miter;stroke-opacity:1" d="M 522.395,650.893 537.081,643.55 z" id="boundary" inkscape:connector-curvature="0" />
	<path style="fill:none;stroke:red;stroke-width:1px;stroke-linecap:butt;stroke-linejoin:miter;stroke-opacity:1" d="M 532.675,365.261 546.626,371.87 z" id="boundary" inkscape:connector-curvature="0" />
	<path style="fill:none;stroke:red;stroke-width:1px;stroke-linecap:butt;stroke-linejoin:miter;stroke-opacity:1" d="M 537.081,643.55 544.423,636.207 z" id="boundary" inkscape:connector-curvature="0" />
	<path style="fill:none;stroke:red;stroke-width:1px;stroke-linecap:butt;stroke-linejoin:miter;stroke-opacity:1" d="M 544.423,636.207 551.766,632.536 z" id="boundary" inkscape:connector-curvature="0" />
	<path style="fill:none;stroke:red;stroke-width:1px;stroke-linecap:butt;stroke-linejoin:miter;stroke-opacity:1" d="M 551.766,632.536 559.109,632.536 z" id="boundary" inkscape:connector-curvature="0" />
	<path style="fill:none;stroke:red;stroke-width:1px;stroke-linecap:butt;stroke-linejoin:miter;stroke-opacity:1" d="M 553.969,374.807 560.577,378.478 z" id="boundary" inkscape:connector-curvature="0" />
	<path style="fill:none;stroke:red;stroke-width:1px;stroke-linecap:butt;stroke-linejoin:miter;stroke-opacity:1" d="M 559.109,632.536 564.983,627.396 z" id="boundary" inkscape:connector-curvature="0" />
	<path style="fill:none;stroke:red;stroke-width:1px;stroke-linecap:butt;stroke-linejoin:miter;stroke-opacity:1" d="M 560.577,378.478 567.186,382.15 z" id="boundary" inkscape:connector-curvature="0" />
	<path style="fill:none;stroke:red;stroke-width:1px;stroke-linecap:butt;stroke-linejoin:miter;stroke-opacity:1" d="M 577.466,621.522 590.682,612.711 z" id="boundary" inkscape:connector-curvature="0" />
	<path style="fill:none;stroke:red;stroke-width:1px;stroke-linecap:butt;stroke-linejoin:miter;stroke-opacity:1" d="M 590.682,612.711 598.025,609.039 z" id="boundary" inkscape:connector-curvature="0" />
	<path style="fill:none;stroke:red;stroke-width:1px;stroke-linecap:butt;stroke-linejoin:miter;stroke-opacity:1" d="M 605.368,605.368 612.711,601.697 z" id="boundary" inkscape:connector-curvature="0" />
	<path style="fill:none;stroke:red;stroke-width:1px;stroke-linecap:butt;stroke-linejoin:miter;stroke-opacity:1" d="M 612.711,601.697 617.85,595.822 z" id="boundary" inkscape:connector-curvature="0" />
	<path style="fill:none;stroke:red;stroke-width:1px;stroke-linecap:butt;stroke-linejoin:miter;stroke-opacity:1" d="M 617.85,595.822 624.459,592.151 z" id="boundary" inkscape:connector-curvature="0" />
	<path style="fill:none;stroke:red;stroke-width:1px;stroke-linecap:butt;stroke-linejoin:miter;stroke-opacity:1" d="M 638.41,588.48 652.361,584.808 z" id="boundary" inkscape:connector-curvature="0" />
	<path style="fill:none;stroke:red;stroke-width:1px;stroke-linecap:butt;stroke-linejoin:miter;stroke-opacity:1" d="M 652.361,584.808 659.704,584.808 z" id="boundary" inkscape:connector-curvature="0" />
	<path style="fill:none;stroke:red;stroke-width:1px;stroke-linecap:butt;stroke-linejoin:miter;stroke-opacity:1" d="M 659.704,584.808 667.047,584.808 z" id="boundary" inkscape:connector-curvature="0" />
	<path style="fill:none;stroke:red;stroke-width:1px;stroke-linecap:butt;stroke-linejoin:miter;stroke-opacity:1" d="M 667.047,584.808 681.732,584.074 z" id="boundary" inkscape:connector-curvature="0" />
	<path style="fill:none;stroke:red;stroke-width:1px;stroke-linecap:butt;stroke-linejoin:miter;stroke-opacity:1" d="M 681.732,584.074 689.075,581.137 z" id="boundary" inkscape:connector-curvature="0" />
	<path style="fill:none;stroke:red;stroke-width:1px;stroke-linecap:butt;stroke-linejoin:miter;stroke-opacity:1" d="M 689.075,581.137 696.417,581.137 z" id="boundary" inkscape:connector-curvature="0" />
	<path style="fill:none;stroke:red;stroke-width:1px;stroke-linecap:butt;stroke-linejoin:miter;stroke-opacity:1" d="M 696.417,581.137 703.76,581.137 z" id="boundary" inkscape:connector-curvature="0" />
	<path style="fill:none;stroke:red;stroke-width:1px;stroke-linecap:butt;stroke-linejoin:miter;stroke-opacity:1" d="M 703.76,581.137 717.711,584.808 z" id="boundary" inkscape:connector-curvature="0" />
	<path style="fill:none;stroke:red;stroke-width:1px;stroke-linecap:butt;stroke-linejoin:miter;stroke-opacity:1" d="M 714.774,433.548 722.117,433.548 z" id="boundary" inkscape:connector-curvature="0" />
	<path style="fill:none;stroke:red;stroke-width:1px;stroke-linecap:butt;stroke-linejoin:miter;stroke-opacity:1" d="M 717.711,584.808 731.662,589.948 z" id="boundary" inkscape:connector-curvature="0" />
	<path style="fill:none;stroke:red;stroke-width:1px;stroke-linecap:butt;stroke-linejoin:miter;stroke-opacity:1" d="M 722.117,433.548 729.46,433.548 z" id="boundary" inkscape:connector-curvature="0" />
	<path style="fill:none;stroke:red;stroke-width:1px;stroke-linecap:butt;stroke-linejoin:miter;stroke-opacity:1" d="M 731.662,589.948 738.271,593.62 z" id="boundary" inkscape:connector-curvature="0" />
	<path style="fill:none;stroke:red;stroke-width:1px;stroke-linecap:butt;stroke-linejoin:miter;stroke-opacity:1" d="M 738.271,593.62 752.956,595.822 z" id="boundary" inkscape:connector-curvature="0" />
	<path style="fill:none;stroke:red;stroke-width:1px;stroke-linecap:butt;stroke-linejoin:miter;stroke-opacity:1" d="M 752.956,595.822 766.173,603.165 z" id="boundary" inkscape:connector-curvature="0" />
	<path style="fill:none;stroke:red;stroke-width:1px;stroke-linecap:butt;stroke-linejoin:miter;stroke-opacity:1" d="M 766.173,603.165 780.859,606.836 z" id="boundary" inkscape:connector-curvature="0" />
	<path style="fill:none;stroke:red;stroke-width:1px;stroke-linecap:butt;stroke-linejoin:miter;stroke-opacity:1" d="M 780.859,606.836 794.81,610.508 z" id="boundary" inkscape:connector-curvature="0" />
	<path style="fill:none;stroke:red;stroke-width:1px;stroke-linecap:butt;stroke-linejoin:miter;stroke-opacity:1" d="M 794.81,610.508 808.761,615.648 z" id="boundary" inkscape:connector-curvature="0" />
	<path style="fill:none;stroke:red;stroke-width:1px;stroke-linecap:butt;stroke-linejoin:miter;stroke-opacity:1" d="M 808.761,615.648 816.104,617.85 z" id="boundary" inkscape:connector-curvature="0" />
	<path style="fill:none;stroke:red;stroke-width:1px;stroke-linecap:butt;stroke-linejoin:miter;stroke-opacity:1" d="M 830.055,621.522 836.663,625.193 z" id="boundary" inkscape:connector-curvature="0" />
	<path style="fill:none;stroke:red;stroke-width:1px;stroke-linecap:butt;stroke-linejoin:miter;stroke-opacity:1" d="M 836.663,625.193 850.614,628.865 z" id="boundary" inkscape:connector-curvature="0" />
	<path style="fill:none;stroke:red;stroke-width:1px;stroke-linecap:butt;stroke-linejoin:miter;stroke-opacity:1" d="M 838.132,440.891 845.474,440.891 z" id="boundary" inkscape:connector-curvature="0" />
	<path style="fill:none;stroke:red;stroke-width:1px;stroke-linecap:butt;stroke-linejoin:miter;stroke-opacity:1" d="M 845.474,440.891 852.817,440.891 z" id="boundary" inkscape:connector-curvature="0" />
	<path style="fill:none;stroke:red;stroke-width:1px;stroke-linecap:butt;stroke-linejoin:miter;stroke-opacity:1" d="M 850.614,628.865 857.957,628.865 z" id="boundary" inkscape:connector-curvature="0" />
	<path style="fill:none;stroke:red;stroke-width:1px;stroke-linecap:butt;stroke-linejoin:miter;stroke-opacity:1" d="M 852.817,440.891 860.16,440.891 z" id="boundary" inkscape:connector-curvature="0" />
	<path style="fill:none;stroke:red;stroke-width:1px;stroke-linecap:butt;stroke-linejoin:miter;stroke-opacity:1" d="M 871.908,632.536 879.251,632.536 z" id="boundary" inkscape:connector-curvature="0" />
	<path style="fill:none;stroke:red;stroke-width:1px;stroke-linecap:butt;stroke-linejoin:miter;stroke-opacity:1" d="M 874.845,444.563 882.188,444.563 z" id="boundary" inkscape:connector-curvature="0" />
	<path style="fill:none;stroke:red;stroke-width:1px;stroke-linecap:butt;stroke-linejoin:miter;stroke-opacity:1" d="M 879.251,632.536 893.202,636.207 z" id="boundary" inkscape:connector-curvature="0" />
	<path style="fill:none;stroke:red;stroke-width:1px;stroke-linecap:butt;stroke-linejoin:miter;stroke-opacity:1" d="M 882.188,444.563 889.531,442.36 z" id="boundary" inkscape:connector-curvature="0" />
	<path style="fill:none;stroke:red;stroke-width:1px;stroke-linecap:butt;stroke-linejoin:miter;stroke-opacity:1" d="M 889.531,442.36 896.873,440.891 z" id="boundary" inkscape:connector-curvature="0" />
	<path style="fill:none;stroke:red;stroke-width:1px;stroke-linecap:butt;stroke-linejoin:miter;stroke-opacity:1" d="M 893.202,636.207 900.545,637.676 z" id="boundary" inkscape:connector-curvature="0" />
	<path style="fill:none;stroke:red;stroke-width:1px;stroke-linecap:butt;stroke-linejoin:miter;stroke-opacity:1" d="M 900.545,637.676 907.887,639.879 z" id="boundary" inkscape:connector-curvature="0" />
	<path style="fill:none;stroke:red;stroke-width:1px;stroke-linecap:butt;stroke-linejoin:miter;stroke-opacity:1" d="M 907.887,639.879 915.23,639.879 z" id="boundary" inkscape:connector-curvature="0" />
	<path style="fill:none;stroke:red;stroke-width:1px;stroke-linecap:butt;stroke-linejoin:miter;stroke-opacity:1" d="M 915.23,639.879 929.916,636.207 z" id="boundary" inkscape:connector-curvature="0" />
	<path style="fill:none;stroke:red;stroke-width:1px;stroke-linecap:butt;stroke-linejoin:miter;stroke-opacity:1" d="M 925.51,446.031 932.853,448.234 z" id="boundary" inkscape:connector-curvature="0" />
	<path style="fill:none;stroke:red;stroke-width:1px;stroke-linecap:butt;stroke-linejoin:miter;stroke-opacity:1" d="M 929.916,636.207 937.258,636.207 z" id="boundary" inkscape:connector-curvature="0" />
	<path style="fill:none;stroke:red;stroke-width:1px;stroke-linecap:butt;stroke-linejoin:miter;stroke-opacity:1" d="M 932.853,448.234 940.195,448.234 z" id="boundary" inkscape:connector-curvature="0" />
	<path style="fill:none;stroke:red;stroke-width:1px;stroke-linecap:butt;stroke-linejoin:miter;stroke-opacity:1" d="M 940.195,448.234 947.538,448.234 z" id="boundary" inkscape:connector-curvature="0" />
	<path style="fill:none;stroke:red;stroke-width:1px;stroke-linecap:butt;stroke-linejoin:miter;stroke-opacity:1" d="M 947.538,448.234 954.147,451.905 z" id="boundary" inkscape:connector-curvature="0" />
	<path style="fill:none;stroke:red;stroke-width:1px;stroke-linecap:butt;stroke-linejoin:miter;stroke-opacity:1" d="M 954.147,451.905 960.755,455.577 z" id="boundary" inkscape:connector-curvature="0" />
	<path style="fill:none;stroke:red;stroke-width:1px;stroke-linecap:butt;stroke-linejoin:miter;stroke-opacity:1" d="M 954.881,470.996 965.895,479.073 z" id="boundary" inkscape:connector-curvature="0" />
	<path style="fill:none;stroke:red;stroke-width:1px;stroke-linecap:butt;stroke-linejoin:miter;stroke-opacity:1" d="M 959.286,518.724 962.958,525.332 z" id="boundary" inkscape:connector-curvature="0" />
	<path style="fill:none;stroke:red;stroke-width:1px;stroke-linecap:butt;stroke-linejoin:miter;stroke-opacity:1" d="M 959.286,518.724 966.629,515.053 z" id="boundary" inkscape:connector-curvature="0" />
	<path style="fill:none;stroke:red;stroke-width:1px;stroke-linecap:butt;stroke-linejoin:miter;stroke-opacity:1" d="M 965.895,479.073 970.301,484.947 z" id="boundary" inkscape:connector-curvature="0" />
	<path style="fill:none;stroke:red;stroke-width:1px;stroke-linecap:butt;stroke-linejoin:miter;stroke-opacity:1" d="M 966.629,515.053 973.972,515.053 z" id="boundary" inkscape:connector-curvature="0" />
	<path style="fill:none;stroke:red;stroke-width:1px;stroke-linecap:butt;stroke-linejoin:miter;stroke-opacity:1" d="M 970.301,484.947 979.112,496.696 z" id="boundary" inkscape:connector-curvature="0" />
	<path style="fill:none;stroke:red;stroke-width:1px;stroke-linecap:butt;stroke-linejoin:miter;stroke-opacity:1" d="M 970.301,527.535 973.972,515.053 z" id="boundary" inkscape:connector-curvature="0" />
	<path style="fill:none;stroke:red;stroke-width:1px;stroke-linecap:butt;stroke-linejoin:miter;stroke-opacity:1" d="M 970.301,527.535 975.44,533.409 z" id="boundary" inkscape:connector-curvature="0" />
	<path style="fill:none;stroke:red;stroke-width:1px;stroke-linecap:butt;stroke-linejoin:miter;stroke-opacity:1" d="M 975.44,533.409 981.315,538.549 z" id="boundary" inkscape:connector-curvature="0" />
	<path style="fill:none;stroke:red;stroke-width:1px;stroke-linecap:butt;stroke-linejoin:miter;stroke-opacity:1" d="M 981.315,538.549 986.454,544.423 z" id="boundary" inkscape:connector-curvature="0" />
	<path style="fill:none;stroke:red;stroke-width:1px;stroke-linecap:butt;stroke-linejoin:miter;stroke-opacity:1" d="M 986.454,544.423 992.329,556.906 z" id="boundary" inkscape:connector-curvature="0" />
	<circle cx="4" cy="105.329" r="4" fill="#0" id="circle0"/>
	<circle cx="4" cy="112.672" r="4" fill="#0" id="circle1"/>
	<circle cx="4" cy="120.015" r="4" fill="#0" id="circle2"/>
	<circle cx="4" cy="127.358" r="4" fill="#0" id="circle3"/>
	<circle cx="4" cy="134.7" r="4" fill="#0" id="circle4"/>
	<circle cx="7.67135" cy="94.3153" r="4" fill="#0" id="circle5"/>
	<circle cx="7.67135" cy="141.309" r="4" fill="#0" id="circle6"/>
	<circle cx="11.3427" cy="86.9726" r="4" fill="#0" id="circle7"/>
	<circle cx="12.8113" cy="147.183" r="4" fill="#0" id="circle8"/>
	<circle cx="16.4826" cy="153.791" r="4" fill="#0" id="circle9"/>
	<circle cx="17.2169" cy="81.0984" r="4" fill="#0" id="circle10"/>
	<circle cx="22.3568" cy="158.931" r="4" fill="#0" id="circle11"/>
	<circle cx="23.091" cy="75.2243" r="4" fill="#0" id="circle12"/>
	<circle cx="26.7624" cy="151.588" r="4" fill="#0" id="circle13"/>
	<circle cx="26.7624" cy="164.805" r="4" fill="#0" id="circle14"/>
	<circle cx="28.9652" cy="70.0844" r="4" fill="#0" id="circle15"/>
	<circle cx="30.4338" cy="144.246" r="4" fill="#0" id="circle16"/>
	<circle cx="35.5736" cy="66.413" r="4" fill="#0" id="circle17"/>
	<circle cx="37.7765" cy="140.574" r="4" fill="#0" id="circle18"/>
	<circle cx="42.1821" cy="62.7417" r="4" fill="#0" id="circle19"/>
	<circle cx="44.3849" cy="136.903" r="4" fill="#0" id="circle20"/>
	<circle cx="48.7905" cy="59.0703" r="4" fill="#0" id="circle21"/>
	<circle cx="50.9933" cy="133.232" r="4" fill="#0" id="circle22"/>
	<circle cx="55.399" cy="50.2591" r="4" fill="#0" id="circle23"/>
	<circle cx="58.336" cy="131.763" r="4" fill="#0" id="circle24"/>
	<circle cx="59.0703" cy="42.9164" r="4" fill="#0" id="circle25"/>
	<circle cx="64.9445" cy="37.0422" r="4" fill="#0" id="circle26"/>
	<circle cx="65.6788" cy="129.56" r="4" fill="#0" id="circle27"/>
	<circle cx="70.8187" cy="31.168" r="4" fill="#0" id="circle28"/>
	<circle cx="72.2872" cy="125.889" r="4" fill="#0" id="circle29"/>
	<circle cx="78.1614" cy="27.4967" r="4" fill="#0" id="circle30"/>
	<circle cx="79.6299" cy="125.889" r="4" fill="#0" id="circle31"/>
	<circle cx="85.5041" cy="23.8253" r="4" fill="#0" id="circle32"/>
	<circle cx="86.2383" cy="122.218" r="4" fill="#0" id="circle33"/>
	<circle cx="88.4412" cy="340.296" r="4" fill="#0" id="circle34"/>
	<circle cx="88.4412" cy="347.639" r="4" fill="#0" id="circle35"/>
	<circle cx="88.4412" cy="354.981" r="4" fill="#0" id="circle36"/>
	<circle cx="88.4412" cy="362.324" r="4" fill="#0" id="circle37"/>
	<circle cx="88.4412" cy="369.667" r="4" fill="#0" id="circle38"/>
	<circle cx="88.4412" cy="377.01" r="4" fill="#0" id="circle39"/>
	<circle cx="88.4412" cy="384.352" r="4" fill="#0" id="circle40"/>
	<circle cx="88.4412" cy="391.695" r="4" fill="#0" id="circle41"/>
	<circle cx="91.3782" cy="18.6854" r="4" fill="#0" id="circle42"/>
	<circle cx="92.1125" cy="303.583" r="4" fill="#0" id="circle43"/>
	<circle cx="92.1125" cy="310.925" r="4" fill="#0" id="circle44"/>
	<circle cx="92.1125" cy="318.268" r="4" fill="#0" id="circle45"/>
	<circle cx="92.1125" cy="325.611" r="4" fill="#0" id="circle46"/>
	<circle cx="92.1125" cy="332.953" r="4" fill="#0" id="circle47"/>
	<circle cx="92.1125" cy="398.303" r="4" fill="#0" id="circle48"/>
	<circle cx="92.1125" cy="405.646" r="4" fill="#0" id="circle49"/>
	<circle cx="92.1125" cy="412.989" r="4" fill="#0" id="circle50"/>
	<circle cx="92.1125" cy="420.332" r="4" fill="#0" id="circle51"/>
	<circle cx="93.5811" cy="122.218" r="4" fill="#0" id="circle52"/>
	<circle cx="95.7839" cy="277.883" r="4" fill="#0" id="circle53"/>
	<circle cx="95.7839" cy="285.226" r="4" fill="#0" id="circle54"/>
	<circle cx="95.7839" cy="292.568" r="4" fill="#0" id="circle55"/>
	<circle cx="95.7839" cy="426.94" r="4" fill="#0" id="circle56"/>
	<circle cx="95.7839" cy="434.283" r="4" fill="#0" id="circle57"/>
	<circle cx="97.9867" cy="15.0141" r="4" fill="#0" id="circle58"/>
	<circle cx="97.9867" cy="441.625" r="4" fill="#0" id="circle59"/>
	<circle cx="99.4552" cy="263.198" r="4" fill="#0" id="circle60"/>
	<circle cx="99.4552" cy="270.54" r="4" fill="#0" id="circle61"/>
	<circle cx="100.924" cy="122.218" r="4" fill="#0" id="circle62"/>
	<circle cx="103.127" cy="248.512" r="4" fill="#0" id="circle63"/>
	<circle cx="103.127" cy="255.855" r="4" fill="#0" id="circle64"/>
	<circle cx="103.127" cy="447.5" r="4" fill="#0" id="circle65"/>
	<circle cx="103.861" cy="454.842" r="4" fill="#0" id="circle66"/>
	<circle cx="104.595" cy="11.3427" r="4" fill="#0" id="circle67"/>
	<circle cx="106.798" cy="126.623" r="4" fill="#0" id="circle68"/>
	<circle cx="106.798" cy="230.155" r="4" fill="#0" id="circle69"/>
	<circle cx="106.798" cy="237.498" r="4" fill="#0" id="circle70"/>
	<circle cx="107.532" cy="461.451" r="4" fill="#0" id="circle71"/>
	<circle cx="110.469" cy="133.232" r="4" fill="#0" id="circle72"/>
	<circle cx="110.469" cy="215.47" r="4" fill="#0" id="circle73"/>
	<circle cx="110.469" cy="222.813" r="4" fill="#0" id="circle74"/>
	<circle cx="110.469" cy="468.793" r="4" fill="#0" id="circle75"/>
	<circle cx="111.938" cy="8.40563" r="4" fill="#0" id="circle76"/>
	<circle cx="114.141" cy="139.84" r="4" fill="#0" id="circle77"/>
	<circle cx="114.141" cy="197.113" r="4" fill="#0" id="circle78"/>
	<circle cx="114.141" cy="204.456" r="4" fill="#0" id="circle79"/>
	<circle cx="114.141" cy="475.402" r="4" fill="#0" id="circle80"/>
	<circle cx="117.812" cy="146.449" r="4" fill="#0" id="circle81"/>
	<circle cx="117.812" cy="153.791" r="4" fill="#0" id="circle82"/>
	<circle cx="117.812" cy="161.134" r="4" fill="#0" id="circle83"/>
	<circle cx="117.812" cy="168.477" r="4" fill="#0" id="circle84"/>
	<circle cx="117.812" cy="175.819" r="4" fill="#0" id="circle85"/>
	<circle cx="117.812" cy="183.162" r="4" fill="#0" id="circle86"/>
	<circle cx="117.812" cy="190.505" r="4" fill="#0" id="circle87"/>
	<circle cx="117.812" cy="482.01" r="4" fill="#0" id="circle88"/>
	<circle cx="119.281" cy="7.67135" r="4" fill="#0" id="circle89"/>
	<circle cx="122.218" cy="487.885" r="4" fill="#0" id="circle90"/>
	<circle cx="125.889" cy="494.493" r="4" fill="#0" id="circle91"/>
	<circle cx="126.623" cy="4.73427" r="4" fill="#0" id="circle92"/>
	<circle cx="128.826" cy="501.836" r="4" fill="#0" id="circle93"/>
	<circle cx="133.966" cy="4" r="4" fill="#0" id="circle94"/>
	<circle cx="134.7" cy="506.976" r="4" fill="#0" id="circle95"/>
	<circle cx="139.84" cy="512.85" r="4" fill="#0" id="circle96"/>
	<circle cx="141.309" cy="4" r="4" fill="#0" id="circle97"/>
	<circle cx="143.511" cy="519.458" r="4" fill="#0" id="circle98"/>
	<circle cx="148.651" cy="4" r="4" fill="#0" id="circle99"/>
	<circle cx="148.651" cy="525.332" r="4" fill="#0" id="circle100"/>
	<circle cx="154.526" cy="529.738" r="4" fill="#0" id="circle101"/>
	<circle cx="155.994" cy="4" r="4" fill="#0" id="circle102"/>
	<circle cx="158.931" cy="535.612" r="4" fill="#0" id="circle103"/>
	<circle cx="163.337" cy="4" r="4" fill="#0" id="circle104"/>
	<circle cx="164.805" cy="540.752" r="4" fill="#0" id="circle105"/>
	<circle cx="169.945" cy="546.626" r="4" fill="#0" id="circle106"/>
	<circle cx="170.679" cy="4" r="4" fill="#0" id="circle107"/>
	<circle cx="175.819" cy="551.766" r="4" fill="#0" id="circle108"/>
	<circle cx="177.288" cy="7.67135" r="4" fill="#0" id="circle109"/>
	<circle cx="180.225" cy="557.64" r="4" fill="#0" id="circle110"/>
	<circle cx="183.896" cy="564.249" r="4" fill="#0" id="circle111"/>
	<circle cx="184.631" cy="7.67135" r="4" fill="#0" id="circle112"/>
	<circle cx="189.771" cy="569.389" r="4" fill="#0" id="circle113"/>
	<circle cx="191.239" cy="11.3427" r="4" fill="#0" id="circle114"/>
	<circle cx="195.645" cy="573.794" r="4" fill="#0" id="circle115"/>
	<circle cx="198.582" cy="12.8113" r="4" fill="#0" id="circle116"/>
	<circle cx="202.253" cy="577.466" r="4" fill="#0" id="circle117"/>
	<circle cx="202.987" cy="18.6854" r="4" fill="#0" id="circle118"/>
	<circle cx="208.862" cy="581.137" r="4" fill="#0" id="circle119"/>
	<circle cx="210.33" cy="18.6854" r="4" fill="#0" id="circle120"/>
	<circle cx="214.001" cy="587.011" r="4" fill="#0" id="circle121"/>
	<circle cx="216.939" cy="22.3568" r="4" fill="#0" id="circle122"/>
	<circle cx="219.876" cy="592.151" r="4" fill="#0" id="circle123"/>
	<circle cx="222.813" cy="26.7624" r="4" fill="#0" id="circle124"/>
	<circle cx="226.484" cy="595.822" r="4" fill="#0" id="circle125"/>
	<circle cx="228.687" cy="31.9023" r="4" fill="#0" id="circle126"/>
	<circle cx="233.093" cy="599.494" r="4" fill="#0" id="circle127"/>
	<circle cx="233.827" cy="37.7765" r="4" fill="#0" id="circle128"/>
	<circle cx="237.498" cy="44.3849" r="4" fill="#0" id="circle129"/>
	<circle cx="238.967" cy="603.899" r="4" fill="#0" id="circle130"/>
	<circle cx="242.638" cy="50.2591" r="4" fill="#0" id="circle131"/>
	<circle cx="242.638" cy="610.508" r="4" fill="#0" id="circle132"/>
	<circle cx="247.044" cy="56.1332" r="4" fill="#0" id="circle133"/>
	<circle cx="247.044" cy="616.382" r="4" fill="#0" id="circle134"/>
	<circle cx="248.512" cy="63.4759" r="4" fill="#0" id="circle135"/>
	<circle cx="252.918" cy="621.522" r="4" fill="#0" id="circle136"/>
	<circle cx="254.386" cy="68.6158" r="4" fill="#0" id="circle137"/>
	<circle cx="254.386" cy="75.9585" r="4" fill="#0" id="circle138"/>
	<circle cx="258.058" cy="82.567" r="4" fill="#0" id="circle139"/>
	<circle cx="259.526" cy="625.193" r="4" fill="#0" id="circle140"/>
	<circle cx="260.261" cy="89.9097" r="4" fill="#0" id="circle141"/>
	<circle cx="261.729" cy="97.2524" r="4" fill="#0" id="circle142"/>
	<circle cx="261.729" cy="104.595" r="4" fill="#0" id="circle143"/>
	<circle cx="265.4" cy="111.204" r="4" fill="#0" id="circle144"/>
	<circle cx="265.4" cy="118.546" r="4" fill="#0" id="circle145"/>
	<circle cx="265.4" cy="125.889" r="4" fill="#0" id="circle146"/>
	<circle cx="265.4" cy="133.232" r="4" fill="#0" id="circle147"/>
	<circle cx="266.869" cy="628.13" r="4" fill="#0" id="circle148"/>
	<circle cx="268.338" cy="747.816" r="4" fill="#0" id="circle149"/>
	<circle cx="268.338" cy="755.159" r="4" fill="#0" id="circle150"/>
	<circle cx="269.072" cy="139.84" r="4" fill="#0" id="circle151"/>
	<circle cx="269.072" cy="147.183" r="4" fill="#0" id="circle152"/>
	<circle cx="269.072" cy="154.526" r="4" fill="#0" id="circle153"/>
	<circle cx="269.072" cy="161.868" r="4" fill="#0" id="circle154"/>
	<circle cx="272.009" cy="736.802" r="4" fill="#0" id="circle155"/>
	<circle cx="272.009" cy="761.768" r="4" fill="#0" id="circle156"/>
	<circle cx="272.009" cy="769.11" r="4" fill="#0" id="circle157"/>
	<circle cx="272.743" cy="168.477" r="4" fill="#0" id="circle158"/>
	<circle cx="272.743" cy="175.819" r="4" fill="#0" id="circle159"/>
	<circle cx="273.477" cy="631.802" r="4" fill="#0" id="circle160"/>
	<circle cx="275.68" cy="729.46" r="4" fill="#0" id="circle161"/>
	<circle cx="276.415" cy="182.428" r="4" fill="#0" id="circle162"/>
	<circle cx="279.352" cy="189.771" r="4" fill="#0" id="circle163"/>
	<circle cx="279.352" cy="762.502" r="4" fill="#0" id="circle164"/>
	<circle cx="280.086" cy="753.691" r="4" fill="#0" id="circle165"/>
	<circle cx="280.82" cy="634.739" r="4" fill="#0" id="circle166"/>
	<circle cx="281.554" cy="723.585" r="4" fill="#0" id="circle167"/>
	<circle cx="283.023" cy="196.379" r="4" fill="#0" id="circle168"/>
	<circle cx="283.757" cy="742.677" r="4" fill="#0" id="circle169"/>
	<circle cx="285.96" cy="203.722" r="4" fill="#0" id="circle170"/>
	<circle cx="287.429" cy="211.064" r="4" fill="#0" id="circle171"/>
	<circle cx="287.429" cy="638.41" r="4" fill="#0" id="circle172"/>
	<circle cx="287.429" cy="717.711" r="4" fill="#0" id="circle173"/>
	<circle cx="290.366" cy="739.005" r="4" fill="#0" id="circle174"/>
	<circle cx="291.834" cy="216.939" r="4" fill="#0" id="circle175"/>
	<circle cx="293.303" cy="713.306" r="4" fill="#0" id="circle176"/>
	<circle cx="294.771" cy="224.281" r="4" fill="#0" id="circle177"/>
	<circle cx="294.771" cy="641.347" r="4" fill="#0" id="circle178"/>
	<circle cx="297.708" cy="739.005" r="4" fill="#0" id="circle179"/>
	<circle cx="300.645" cy="228.687" r="4" fill="#0" id="circle180"/>
	<circle cx="300.645" cy="716.243" r="4" fill="#0" id="circle181"/>
	<circle cx="301.38" cy="645.019" r="4" fill="#0" id="circle182"/>
	<circle cx="304.317" cy="742.677" r="4" fill="#0" id="circle183"/>
	<circle cx="305.785" cy="234.561" r="4" fill="#0" id="circle184"/>
	<circle cx="307.988" cy="716.243" r="4" fill="#0" id="circle185"/>
	<circle cx="308.722" cy="647.221" r="4" fill="#0" id="circle186"/>
	<circle cx="309.457" cy="241.17" r="4" fill="#0" id="circle187"/>
	<circle cx="311.66" cy="742.677" r="4" fill="#0" id="circle188"/>
	<circle cx="314.597" cy="247.044" r="4" fill="#0" id="circle189"/>
	<circle cx="315.331" cy="716.243" r="4" fill="#0" id="circle190"/>
	<circle cx="316.065" cy="647.221" r="4" fill="#0" id="circle191"/>
	<circle cx="319.002" cy="742.677" r="4" fill="#0" id="circle192"/>
	<circle cx="320.471" cy="252.184" r="4" fill="#0" id="circle193"/>
	<circle cx="322.674" cy="650.893" r="4" fill="#0" id="circle194"/>
	<circle cx="322.674" cy="716.243" r="4" fill="#0" id="circle195"/>
	<circle cx="325.611" cy="258.058" r="4" fill="#0" id="circle196"/>
	<circle cx="325.611" cy="746.348" r="4" fill="#0" id="circle197"/>
	<circle cx="329.282" cy="654.564" r="4" fill="#0" id="circle198"/>
	<circle cx="330.016" cy="716.243" r="4" fill="#0" id="circle199"/>
	<circle cx="332.953" cy="260.995" r="4" fill="#0" id="circle200"/>
	<circle cx="332.953" cy="746.348" r="4" fill="#0" id="circle201"/>
	<circle cx="335.89" cy="658.235" r="4" fill="#0" id="circle202"/>
	<circle cx="337.359" cy="716.243" r="4" fill="#0" id="circle203"/>
	<circle cx="338.093" cy="266.869" r="4" fill="#0" id="circle204"/>
	<circle cx="340.296" cy="746.348" r="4" fill="#0" id="circle205"/>
	<circle cx="343.233" cy="658.235" r="4" fill="#0" id="circle206"/>
	<circle cx="343.967" cy="272.009" r="4" fill="#0" id="circle207"/>
	<circle cx="343.967" cy="712.571" r="4" fill="#0" id="circle208"/>
	<circle cx="347.639" cy="749.285" r="4" fill="#0" id="circle209"/>
	<circle cx="349.107" cy="277.883" r="4" fill="#0" id="circle210"/>
	<circle cx="349.842" cy="661.907" r="4" fill="#0" id="circle211"/>
	<circle cx="349.842" cy="706.697" r="4" fill="#0" id="circle212"/>
	<circle cx="354.981" cy="283.023" r="4" fill="#0" id="circle213"/>
	<circle cx="354.981" cy="750.019" r="4" fill="#0" id="circle214"/>
	<circle cx="355.716" cy="701.557" r="4" fill="#0" id="circle215"/>
	<circle cx="356.45" cy="665.578" r="4" fill="#0" id="circle216"/>
	<circle cx="358.653" cy="694.215" r="4" fill="#0" id="circle217"/>
	<circle cx="360.121" cy="672.187" r="4" fill="#0" id="circle218"/>
	<circle cx="360.121" cy="679.529" r="4" fill="#0" id="circle219"/>
	<circle cx="360.121" cy="686.872" r="4" fill="#0" id="circle220"/>
	<circle cx="361.59" cy="286.694" r="4" fill="#0" id="circle221"/>
	<circle cx="362.324" cy="750.019" r="4" fill="#0" id="circle222"/>
	<circle cx="368.198" cy="290.366" r="4" fill="#0" id="circle223"/>
	<circle cx="369.667" cy="750.019" r="4" fill="#0" id="circle224"/>
	<circle cx="374.073" cy="294.771" r="4" fill="#0" id="circle225"/>
	<circle cx="377.01" cy="749.285" r="4" fill="#0" id="circle226"/>
	<circle cx="380.681" cy="298.443" r="4" fill="#0" id="circle227"/>
	<circle cx="384.352" cy="749.285" r="4" fill="#0" id="circle228"/>
	<circle cx="386.555" cy="698.62" r="4" fill="#0" id="circle229"/>
	<circle cx="386.555" cy="716.977" r="4" fill="#0" id="circle230"/>
	<circle cx="388.024" cy="301.38" r="4" fill="#0" id="circle231"/>
	<circle cx="388.024" cy="705.963" r="4" fill="#0" id="circle232"/>
	<circle cx="388.024" cy="724.32" r="4" fill="#0" id="circle233"/>
	<circle cx="390.226" cy="691.278" r="4" fill="#0" id="circle234"/>
	<circle cx="390.226" cy="753.691" r="4" fill="#0" id="circle235"/>
	<circle cx="391.695" cy="730.928" r="4" fill="#0" id="circle236"/>
	<circle cx="393.898" cy="683.935" r="4" fill="#0" id="circle237"/>
	<circle cx="393.898" cy="714.774" r="4" fill="#0" id="circle238"/>
	<circle cx="394.632" cy="305.051" r="4" fill="#0" id="circle239"/>
	<circle cx="396.835" cy="736.802" r="4" fill="#0" id="circle240"/>
	<circle cx="396.835" cy="757.362" r="4" fill="#0" id="circle241"/>
	<circle cx="397.569" cy="676.592" r="4" fill="#0" id="circle242"/>
	<circle cx="401.241" cy="308.722" r="4" fill="#0" id="circle243"/>
	<circle cx="401.241" cy="763.236" r="4" fill="#0" id="circle244"/>
	<circle cx="402.709" cy="741.942" r="4" fill="#0" id="circle245"/>
	<circle cx="403.443" cy="671.452" r="4" fill="#0" id="circle246"/>
	<circle cx="407.115" cy="768.376" r="4" fill="#0" id="circle247"/>
	<circle cx="407.849" cy="312.394" r="4" fill="#0" id="circle248"/>
	<circle cx="407.849" cy="747.816" r="4" fill="#0" id="circle249"/>
	<circle cx="408.583" cy="665.578" r="4" fill="#0" id="circle250"/>
	<circle cx="411.52" cy="754.425" r="4" fill="#0" id="circle251"/>
	<circle cx="412.255" cy="761.768" r="4" fill="#0" id="circle252"/>
	<circle cx="415.192" cy="313.862" r="4" fill="#0" id="circle253"/>
	<circle cx="415.926" cy="661.907" r="4" fill="#0" id="circle254"/>
	<circle cx="421.8" cy="317.534" r="4" fill="#0" id="circle255"/>
	<circle cx="423.269" cy="661.907" r="4" fill="#0" id="circle256"/>
	<circle cx="429.143" cy="320.471" r="4" fill="#0" id="circle257"/>
	<circle cx="430.611" cy="661.907" r="4" fill="#0" id="circle258"/>
	<circle cx="435.751" cy="324.142" r="4" fill="#0" id="circle259"/>
	<circle cx="437.954" cy="661.907" r="4" fill="#0" id="circle260"/>
	<circle cx="443.094" cy="327.079" r="4" fill="#0" id="circle261"/>
	<circle cx="444.563" cy="665.578" r="4" fill="#0" id="circle262"/>
	<circle cx="449.702" cy="330.751" r="4" fill="#0" id="circle263"/>
	<circle cx="451.905" cy="665.578" r="4" fill="#0" id="circle264"/>
	<circle cx="456.311" cy="334.422" r="4" fill="#0" id="circle265"/>
	<circle cx="459.248" cy="665.578" r="4" fill="#0" id="circle266"/>
	<circle cx="463.654" cy="336.625" r="4" fill="#0" id="circle267"/>
	<circle cx="466.591" cy="665.578" r="4" fill="#0" id="circle268"/>
	<circle cx="470.996" cy="338.093" r="4" fill="#0" id="circle269"/>
	<circle cx="473.199" cy="669.249" r="4" fill="#0" id="circle270"/>
	<circle cx="477.605" cy="341.765" r="4" fill="#0" id="circle271"/>
	<circle cx="479.808" cy="665.578" r="4" fill="#0" id="circle272"/>
	<circle cx="484.213" cy="345.436" r="4" fill="#0" id="circle273"/>
	<circle cx="487.15" cy="664.844" r="4" fill="#0" id="circle274"/>
	<circle cx="491.556" cy="346.17" r="4" fill="#0" id="circle275"/>
	<circle cx="494.493" cy="661.907" r="4" fill="#0" id="circle276"/>
	<circle cx="498.164" cy="349.842" r="4" fill="#0" id="circle277"/>
	<circle cx="501.836" cy="661.172" r="4" fill="#0" id="circle278"/>
	<circle cx="505.507" cy="352.779" r="4" fill="#0" id="circle279"/>
	<circle cx="509.178" cy="658.235" r="4" fill="#0" id="circle280"/>
	<circle cx="512.115" cy="356.45" r="4" fill="#0" id="circle281"/>
	<circle cx="515.787" cy="654.564" r="4" fill="#0" id="circle282"/>
	<circle cx="518.724" cy="360.121" r="4" fill="#0" id="circle283"/>
	<circle cx="522.395" cy="650.893" r="4" fill="#0" id="circle284"/>
	<circle cx="525.332" cy="363.793" r="4" fill="#0" id="circle285"/>
	<circle cx="529.738" cy="647.221" r="4" fill="#0" id="circle286"/>
	<circle cx="532.675" cy="365.261" r="4" fill="#0" id="circle287"/>
	<circle cx="537.081" cy="643.55" r="4" fill="#0" id="circle288"/>
	<circle cx="539.283" cy="368.933" r="4" fill="#0" id="circle289"/>
	<circle cx="544.423" cy="636.207" r="4" fill="#0" id="circle290"/>
	<circle cx="546.626" cy="371.87" r="4" fill="#0" id="circle291"/>
	<circle cx="551.766" cy="632.536" r="4" fill="#0" id="circle292"/>
	<circle cx="553.969" cy="374.807" r="4" fill="#0" id="circle293"/>
	<circle cx="559.109" cy="632.536" r="4" fill="#0" id="circle294"/>
	<circle cx="560.577" cy="378.478" r="4" fill="#0" id="circle295"/>
	<circle cx="564.983" cy="627.396" r="4" fill="#0" id="circle296"/>
	<circle cx="567.186" cy="382.15" r="4" fill="#0" id="circle297"/>
	<circle cx="570.123" cy="621.522" r="4" fill="#0" id="circle298"/>
	<circle cx="573.794" cy="385.821" r="4" fill="#0" id="circle299"/>
	<circle cx="577.466" cy="621.522" r="4" fill="#0" id="circle300"/>
	<circle cx="581.137" cy="388.024" r="4" fill="#0" id="circle301"/>
	<circle cx="583.34" cy="616.382" r="4" fill="#0" id="circle302"/>
	<circle cx="587.745" cy="391.695" r="4" fill="#0" id="circle303"/>
	<circle cx="590.682" cy="612.711" r="4" fill="#0" id="circle304"/>
	<circle cx="595.088" cy="393.164" r="4" fill="#0" id="circle305"/>
	<circle cx="598.025" cy="609.039" r="4" fill="#0" id="circle306"/>
	<circle cx="601.697" cy="396.835" r="4" fill="#0" id="circle307"/>
	<circle cx="605.368" cy="605.368" r="4" fill="#0" id="circle308"/>
	<circle cx="609.039" cy="397.569" r="4" fill="#0" id="circle309"/>
	<circle cx="612.711" cy="601.697" r="4" fill="#0" id="circle310"/>
	<circle cx="615.648" cy="401.241" r="4" fill="#0" id="circle311"/>
	<circle cx="617.85" cy="595.822" r="4" fill="#0" id="circle312"/>
	<circle cx="622.99" cy="404.178" r="4" fill="#0" id="circle313"/>
	<circle cx="624.459" cy="592.151" r="4" fill="#0" id="circle314"/>
	<circle cx="629.599" cy="407.849" r="4" fill="#0" id="circle315"/>
	<circle cx="631.067" cy="588.48" r="4" fill="#0" id="circle316"/>
	<circle cx="636.207" cy="411.52" r="4" fill="#0" id="circle317"/>
	<circle cx="638.41" cy="588.48" r="4" fill="#0" id="circle318"/>
	<circle cx="643.55" cy="413.723" r="4" fill="#0" id="circle319"/>
	<circle cx="645.019" cy="584.808" r="4" fill="#0" id="circle320"/>
	<circle cx="650.158" cy="417.395" r="4" fill="#0" id="circle321"/>
	<circle cx="652.361" cy="584.808" r="4" fill="#0" id="circle322"/>
	<circle cx="657.501" cy="420.332" r="4" fill="#0" id="circle323"/>
	<circle cx="659.704" cy="584.808" r="4" fill="#0" id="circle324"/>
	<circle cx="664.844" cy="422.534" r="4" fill="#0" id="circle325"/>
	<circle cx="667.047" cy="584.808" r="4" fill="#0" id="circle326"/>
	<circle cx="672.187" cy="422.534" r="4" fill="#0" id="circle327"/>
	<circle cx="674.389" cy="584.808" r="4" fill="#0" id="circle328"/>
	<circle cx="679.529" cy="424.003" r="4" fill="#0" id="circle329"/>
	<circle cx="681.732" cy="584.074" r="4" fill="#0" id="circle330"/>
	<circle cx="686.872" cy="426.206" r="4" fill="#0" id="circle331"/>
	<circle cx="689.075" cy="581.137" r="4" fill="#0" id="circle332"/>
	<circle cx="693.48" cy="429.877" r="4" fill="#0" id="circle333"/>
	<circle cx="696.417" cy="581.137" r="4" fill="#0" id="circle334"/>
	<circle cx="700.823" cy="429.877" r="4" fill="#0" id="circle335"/>
	<circle cx="703.76" cy="581.137" r="4" fill="#0" id="circle336"/>
	<circle cx="707.432" cy="433.548" r="4" fill="#0" id="circle337"/>
	<circle cx="710.369" cy="584.808" r="4" fill="#0" id="circle338"/>
	<circle cx="714.774" cy="433.548" r="4" fill="#0" id="circle339"/>
	<circle cx="717.711" cy="584.808" r="4" fill="#0" id="circle340"/>
	<circle cx="722.117" cy="433.548" r="4" fill="#0" id="circle341"/>
	<circle cx="724.32" cy="588.48" r="4" fill="#0" id="circle342"/>
	<circle cx="729.46" cy="433.548" r="4" fill="#0" id="circle343"/>
	<circle cx="731.662" cy="589.948" r="4" fill="#0" id="circle344"/>
	<circle cx="736.802" cy="433.548" r="4" fill="#0" id="circle345"/>
	<circle cx="738.271" cy="593.62" r="4" fill="#0" id="circle346"/>
	<circle cx="744.145" cy="433.548" r="4" fill="#0" id="circle347"/>
	<circle cx="745.614" cy="595.822" r="4" fill="#0" id="circle348"/>
	<circle cx="751.488" cy="433.548" r="4" fill="#0" id="circle349"/>
	<circle cx="752.956" cy="595.822" r="4" fill="#0" id="circle350"/>
	<circle cx="758.096" cy="437.22" r="4" fill="#0" id="circle351"/>
	<circle cx="759.565" cy="599.494" r="4" fill="#0" id="circle352"/>
	<circle cx="765.439" cy="437.22" r="4" fill="#0" id="circle353"/>
	<circle cx="766.173" cy="603.165" r="4" fill="#0" id="circle354"/>
	<circle cx="772.047" cy="440.891" r="4" fill="#0" id="circle355"/>
	<circle cx="773.516" cy="606.102" r="4" fill="#0" id="circle356"/>
	<circle cx="779.39" cy="440.891" r="4" fill="#0" id="circle357"/>
	<circle cx="780.859" cy="606.836" r="4" fill="#0" id="circle358"/>
	<circle cx="786.733" cy="440.891" r="4" fill="#0" id="circle359"/>
	<circle cx="787.467" cy="610.508" r="4" fill="#0" id="circle360"/>
	<circle cx="794.075" cy="443.094" r="4" fill="#0" id="circle361"/>
	<circle cx="794.81" cy="610.508" r="4" fill="#0" id="circle362"/>
	<circle cx="801.418" cy="440.891" r="4" fill="#0" id="circle363"/>
	<circle cx="801.418" cy="614.179" r="4" fill="#0" id="circle364"/>
	<circle cx="808.761" cy="440.891" r="4" fill="#0" id="circle365"/>
	<circle cx="808.761" cy="615.648" r="4" fill="#0" id="circle366"/>
	<circle cx="816.104" cy="440.891" r="4" fill="#0" id="circle367"/>
	<circle cx="816.104" cy="617.85" r="4" fill="#0" id="circle368"/>
	<circle cx="822.712" cy="621.522" r="4" fill="#0" id="circle369"/>
	<circle cx="823.446" cy="440.891" r="4" fill="#0" id="circle370"/>
	<circle cx="830.055" cy="621.522" r="4" fill="#0" id="circle371"/>
	<circle cx="830.789" cy="440.891" r="4" fill="#0" id="circle372"/>
	<circle cx="836.663" cy="625.193" r="4" fill="#0" id="circle373"/>
	<circle cx="838.132" cy="440.891" r="4" fill="#0" id="circle374"/>
	<circle cx="843.272" cy="628.865" r="4" fill="#0" id="circle375"/>
	<circle cx="845.474" cy="440.891" r="4" fill="#0" id="circle376"/>
	<circle cx="850.614" cy="628.865" r="4" fill="#0" id="circle377"/>
	<circle cx="852.817" cy="440.891" r="4" fill="#0" id="circle378"/>
	<circle cx="857.957" cy="628.865" r="4" fill="#0" id="circle379"/>
	<circle cx="860.16" cy="440.891" r="4" fill="#0" id="circle380"/>
	<circle cx="864.566" cy="632.536" r="4" fill="#0" id="circle381"/>
	<circle cx="867.503" cy="443.094" r="4" fill="#0" id="circle382"/>
	<circle cx="871.908" cy="632.536" r="4" fill="#0" id="circle383"/>
	<circle cx="874.845" cy="444.563" r="4" fill="#0" id="circle384"/>
	<circle cx="879.251" cy="632.536" r="4" fill="#0" id="circle385"/>
	<circle cx="882.188" cy="444.563" r="4" fill="#0" id="circle386"/>
	<circle cx="885.859" cy="636.207" r="4" fill="#0" id="circle387"/>
	<circle cx="889.531" cy="442.36" r="4" fill="#0" id="circle388"/>
	<circle cx="893.202" cy="636.207" r="4" fill="#0" id="circle389"/>
	<circle cx="896.873" cy="440.891" r="4" fill="#0" id="circle390"/>
	<circle cx="900.545" cy="637.676" r="4" fill="#0" id="circle391"/>
	<circle cx="903.482" cy="444.563" r="4" fill="#0" id="circle392"/>
	<circle cx="907.887" cy="639.879" r="4" fill="#0" id="circle393"/>
	<circle cx="910.825" cy="444.563" r="4" fill="#0" id="circle394"/>
	<circle cx="915.23" cy="639.879" r="4" fill="#0" id="circle395"/>
	<circle cx="918.167" cy="444.563" r="4" fill="#0" id="circle396"/>
	<circle cx="922.573" cy="639.879" r="4" fill="#0" id="circle397"/>
	<circle cx="925.51" cy="446.031" r="4" fill="#0" id="circle398"/>
	<circle cx="929.916" cy="636.207" r="4" fill="#0" id="circle399"/>
	<circle cx="932.853" cy="448.234" r="4" fill="#0" id="circle400"/>
	<circle cx="937.258" cy="636.207" r="4" fill="#0" id="circle401"/>
	<circle cx="940.195" cy="448.234" r="4" fill="#0" id="circle402"/>
	<circle cx="943.867" cy="632.536" r="4" fill="#0" id="circle403"/>
	<circle cx="947.538" cy="448.234" r="4" fill="#0" id="circle404"/>
	<circle cx="948.272" cy="474.668" r="4" fill="#0" id="circle405"/>
	<circle cx="951.209" cy="630.333" r="4" fill="#0" id="circle406"/>
	<circle cx="954.147" cy="451.905" r="4" fill="#0" id="circle407"/>
	<circle cx="954.881" cy="470.996" r="4" fill="#0" id="circle408"/>
	<circle cx="958.552" cy="477.605" r="4" fill="#0" id="circle409"/>
	<circle cx="958.552" cy="626.662" r="4" fill="#0" id="circle410"/>
	<circle cx="959.286" cy="518.724" r="4" fill="#0" id="circle411"/>
	<circle cx="960.755" cy="455.577" r="4" fill="#0" id="circle412"/>
	<circle cx="960.755" cy="466.591" r="4" fill="#0" id="circle413"/>
	<circle cx="962.958" cy="525.332" r="4" fill="#0" id="circle414"/>
	<circle cx="965.895" cy="479.073" r="4" fill="#0" id="circle415"/>
	<circle cx="965.895" cy="622.99" r="4" fill="#0" id="circle416"/>
	<circle cx="966.629" cy="461.451" r="4" fill="#0" id="circle417"/>
	<circle cx="966.629" cy="515.053" r="4" fill="#0" id="circle418"/>
	<circle cx="966.629" cy="581.137" r="4" fill="#0" id="circle419"/>
	<circle cx="970.301" cy="484.947" r="4" fill="#0" id="circle420"/>
	<circle cx="970.301" cy="527.535" r="4" fill="#0" id="circle421"/>
	<circle cx="970.301" cy="587.745" r="4" fill="#0" id="circle422"/>
	<circle cx="971.769" cy="617.116" r="4" fill="#0" id="circle423"/>
	<circle cx="973.972" cy="515.053" r="4" fill="#0" id="circle424"/>
	<circle cx="973.972" cy="581.137" r="4" fill="#0" id="circle425"/>
	<circle cx="973.972" cy="594.354" r="4" fill="#0" id="circle426"/>
	<circle cx="973.972" cy="601.697" r="4" fill="#0" id="circle427"/>
	<circle cx="973.972" cy="609.039" r="4" fill="#0" id="circle428"/>
	<circle cx="975.44" cy="533.409" r="4" fill="#0" id="circle429"/>
	<circle cx="976.175" cy="489.353" r="4" fill="#0" id="circle430"/>
	<circle cx="979.112" cy="496.696" r="4" fill="#0" id="circle431"/>
	<circle cx="979.846" cy="509.913" r="4" fill="#0" id="circle432"/>
	<circle cx="981.315" cy="538.549" r="4" fill="#0" id="circle433"/>
	<circle cx="981.315" cy="581.137" r="4" fill="#0" id="circle434"/>
	<circle cx="986.454" cy="544.423" r="4" fill="#0" id="circle435"/>
	<circle cx="988.657" cy="581.137" r="4" fill="#0" id="circle436"/>
	<circle cx="992.329" cy="549.563" r="4" fill="#0" id="circle437"/>
	<circle cx="992.329" cy="556.906" r="4" fill="#0" id="circle438"/>
	<circle cx="994.531" cy="575.997" r="4" fill="#0" id="circle439"/>
	<circle cx="996" cy="563.514" r="4" fill="#0" id="circle440"/>
	</g>
</svg>