<?xml version="1.0" encoding="UTF-8" standalone="no"?>
<!-- Created with CurveBenchmark -->
<svg
	xmlns:dc="http://purl.org/dc/elements/1.1/"
	xmlns:cc="http://creativecommons.org/ns#"
	xmlns:rdf="http://www.w3.org/1999/02/22-rdf-syntax-ns#"
	xmlns:svg="http://www.w3.org/2000/svg"
	xmlns="http://www.w3.org/2000/svg"
	xmlns:sodipodi="http://sodipodi.sourceforge.net/DTD/sodipodi-0.dtd"
	xmlns:inkscape="http://www.inkscape.org/namespaces/inkscape"
	width="1000"
	height="1000"
	id="svg2"
	version="1.1"
	sodipodi:docname="manifold/vicur-tool39.png.txt">
<defs
	id="defs4" />
<metadata
	id="metadata7">
	<rdf:RDF>
		<cc:Work
			rdf:about="">
			<dc:format>image/svg+xml</dc:format>
			<dc:type
				rdf:resource="http://purl.org/dc/dcmitype/StillImage" />
			<dc:title></dc:title>
		</cc:Work>
	</rdf:RDF>
</metadata>
<g
	inkscape:label="Layer 1"
	inkscape:groupmode="layer"
	id="layer1">
	<path style="fill:none;stroke:red;stroke-width:1px;stroke-linecap:butt;stroke-linejoin:miter;stroke-opacity:1" d="M 4,49.0909 21.3427,80.3077 z" id="boundary" inkscape:connector-curvature="0" />
	<path style="fill:none;stroke:red;stroke-width:1px;stroke-linecap:butt;stroke-linejoin:miter;stroke-opacity:1" d="M 4,49.0909 31.7483,21.3427 z" id="boundary" inkscape:connector-curvature="0" />
	<path style="fill:none;stroke:red;stroke-width:1px;stroke-linecap:butt;stroke-linejoin:miter;stroke-opacity:1" d="M 21.3427,80.3077 21.3427,114.993 z" id="boundary" inkscape:connector-curvature="0" />
	<path style="fill:none;stroke:red;stroke-width:1px;stroke-linecap:butt;stroke-linejoin:miter;stroke-opacity:1" d="M 21.3427,114.993 38.6853,146.21 z" id="boundary" inkscape:connector-curvature="0" />
	<path style="fill:none;stroke:red;stroke-width:1px;stroke-linecap:butt;stroke-linejoin:miter;stroke-opacity:1" d="M 31.7483,21.3427 62.965,4 z" id="boundary" inkscape:connector-curvature="0" />
	<path style="fill:none;stroke:red;stroke-width:1px;stroke-linecap:butt;stroke-linejoin:miter;stroke-opacity:1" d="M 38.6853,146.21 38.6853,180.895 z" id="boundary" inkscape:connector-curvature="0" />
	<path style="fill:none;stroke:red;stroke-width:1px;stroke-linecap:butt;stroke-linejoin:miter;stroke-opacity:1" d="M 38.6853,180.895 56.028,212.112 z" id="boundary" inkscape:connector-curvature="0" />
	<path style="fill:none;stroke:red;stroke-width:1px;stroke-linecap:butt;stroke-linejoin:miter;stroke-opacity:1" d="M 56.028,212.112 62.965,246.797 z" id="boundary" inkscape:connector-curvature="0" />
	<path style="fill:none;stroke:red;stroke-width:1px;stroke-linecap:butt;stroke-linejoin:miter;stroke-opacity:1" d="M 62.965,4 94.1818,21.3427 z" id="boundary" inkscape:connector-curvature="0" />
	<path style="fill:none;stroke:red;stroke-width:1px;stroke-linecap:butt;stroke-linejoin:miter;stroke-opacity:1" d="M 62.965,246.797 73.3706,281.483 z" id="boundary" inkscape:connector-curvature="0" />
	<path style="fill:none;stroke:red;stroke-width:1px;stroke-linecap:butt;stroke-linejoin:miter;stroke-opacity:1" d="M 73.3706,281.483 90.7133,312.699 z" id="boundary" inkscape:connector-curvature="0" />
	<path style="fill:none;stroke:red;stroke-width:1px;stroke-linecap:butt;stroke-linejoin:miter;stroke-opacity:1" d="M 90.7133,312.699 94.1818,347.385 z" id="boundary" inkscape:connector-curvature="0" />
	<path style="fill:none;stroke:red;stroke-width:1px;stroke-linecap:butt;stroke-linejoin:miter;stroke-opacity:1" d="M 94.1818,21.3427 121.93,42.1538 z" id="boundary" inkscape:connector-curvature="0" />
	<path style="fill:none;stroke:red;stroke-width:1px;stroke-linecap:butt;stroke-linejoin:miter;stroke-opacity:1" d="M 94.1818,347.385 108.056,382.07 z" id="boundary" inkscape:connector-curvature="0" />
	<path style="fill:none;stroke:red;stroke-width:1px;stroke-linecap:butt;stroke-linejoin:miter;stroke-opacity:1" d="M 108.056,382.07 111.524,416.755 z" id="boundary" inkscape:connector-curvature="0" />
	<path style="fill:none;stroke:red;stroke-width:1px;stroke-linecap:butt;stroke-linejoin:miter;stroke-opacity:1" d="M 111.524,416.755 125.399,451.441 z" id="boundary" inkscape:connector-curvature="0" />
	<path style="fill:none;stroke:red;stroke-width:1px;stroke-linecap:butt;stroke-linejoin:miter;stroke-opacity:1" d="M 121.93,42.1538 146.21,69.9021 z" id="boundary" inkscape:connector-curvature="0" />
	<path style="fill:none;stroke:red;stroke-width:1px;stroke-linecap:butt;stroke-linejoin:miter;stroke-opacity:1" d="M 125.399,451.441 142.741,482.657 z" id="boundary" inkscape:connector-curvature="0" />
	<path style="fill:none;stroke:red;stroke-width:1px;stroke-linecap:butt;stroke-linejoin:miter;stroke-opacity:1" d="M 142.741,482.657 142.741,517.343 z" id="boundary" inkscape:connector-curvature="0" />
	<path style="fill:none;stroke:red;stroke-width:1px;stroke-linecap:butt;stroke-linejoin:miter;stroke-opacity:1" d="M 142.741,517.343 160.084,548.559 z" id="boundary" inkscape:connector-curvature="0" />
	<path style="fill:none;stroke:red;stroke-width:1px;stroke-linecap:butt;stroke-linejoin:miter;stroke-opacity:1" d="M 146.21,69.9021 146.21,104.587 z" id="boundary" inkscape:connector-curvature="0" />
	<path style="fill:none;stroke:red;stroke-width:1px;stroke-linecap:butt;stroke-linejoin:miter;stroke-opacity:1" d="M 146.21,104.587 163.552,135.804 z" id="boundary" inkscape:connector-curvature="0" />
	<path style="fill:none;stroke:red;stroke-width:1px;stroke-linecap:butt;stroke-linejoin:miter;stroke-opacity:1" d="M 160.084,548.559 160.084,583.245 z" id="boundary" inkscape:connector-curvature="0" />
	<path style="fill:none;stroke:red;stroke-width:1px;stroke-linecap:butt;stroke-linejoin:miter;stroke-opacity:1" d="M 160.084,583.245 177.427,614.462 z" id="boundary" inkscape:connector-curvature="0" />
	<path style="fill:none;stroke:red;stroke-width:1px;stroke-linecap:butt;stroke-linejoin:miter;stroke-opacity:1" d="M 160.084,794.825 160.084,829.51 z" id="boundary" inkscape:connector-curvature="0" />
	<path style="fill:none;stroke:red;stroke-width:1px;stroke-linecap:butt;stroke-linejoin:miter;stroke-opacity:1" d="M 160.084,794.825 177.427,760.14 z" id="boundary" inkscape:connector-curvature="0" />
	<path style="fill:none;stroke:red;stroke-width:1px;stroke-linecap:butt;stroke-linejoin:miter;stroke-opacity:1" d="M 160.084,829.51 160.084,864.196 z" id="boundary" inkscape:connector-curvature="0" />
	<path style="fill:none;stroke:red;stroke-width:1px;stroke-linecap:butt;stroke-linejoin:miter;stroke-opacity:1" d="M 160.084,864.196 160.084,898.881 z" id="boundary" inkscape:connector-curvature="0" />
	<path style="fill:none;stroke:red;stroke-width:1px;stroke-linecap:butt;stroke-linejoin:miter;stroke-opacity:1" d="M 160.084,898.881 177.427,930.098 z" id="boundary" inkscape:connector-curvature="0" />
	<path style="fill:none;stroke:red;stroke-width:1px;stroke-linecap:butt;stroke-linejoin:miter;stroke-opacity:1" d="M 163.552,135.804 177.427,170.49 z" id="boundary" inkscape:connector-curvature="0" />
	<path style="fill:none;stroke:red;stroke-width:1px;stroke-linecap:butt;stroke-linejoin:miter;stroke-opacity:1" d="M 177.427,170.49 180.895,205.175 z" id="boundary" inkscape:connector-curvature="0" />
	<path style="fill:none;stroke:red;stroke-width:1px;stroke-linecap:butt;stroke-linejoin:miter;stroke-opacity:1" d="M 177.427,614.462 177.427,649.147 z" id="boundary" inkscape:connector-curvature="0" />
	<path style="fill:none;stroke:red;stroke-width:1px;stroke-linecap:butt;stroke-linejoin:miter;stroke-opacity:1" d="M 177.427,649.147 194.769,680.364 z" id="boundary" inkscape:connector-curvature="0" />
	<path style="fill:none;stroke:red;stroke-width:1px;stroke-linecap:butt;stroke-linejoin:miter;stroke-opacity:1" d="M 177.427,760.14 194.769,715.049 z" id="boundary" inkscape:connector-curvature="0" />
	<path style="fill:none;stroke:red;stroke-width:1px;stroke-linecap:butt;stroke-linejoin:miter;stroke-opacity:1" d="M 177.427,930.098 194.769,961.315 z" id="boundary" inkscape:connector-curvature="0" />
	<path style="fill:none;stroke:red;stroke-width:1px;stroke-linecap:butt;stroke-linejoin:miter;stroke-opacity:1" d="M 180.895,205.175 198.238,236.392 z" id="boundary" inkscape:connector-curvature="0" />
	<path style="fill:none;stroke:red;stroke-width:1px;stroke-linecap:butt;stroke-linejoin:miter;stroke-opacity:1" d="M 194.769,680.364 194.769,715.049 z" id="boundary" inkscape:connector-curvature="0" />
	<path style="fill:none;stroke:red;stroke-width:1px;stroke-linecap:butt;stroke-linejoin:miter;stroke-opacity:1" d="M 194.769,961.315 225.986,978.657 z" id="boundary" inkscape:connector-curvature="0" />
	<path style="fill:none;stroke:red;stroke-width:1px;stroke-linecap:butt;stroke-linejoin:miter;stroke-opacity:1" d="M 198.238,236.392 198.238,271.077 z" id="boundary" inkscape:connector-curvature="0" />
	<path style="fill:none;stroke:red;stroke-width:1px;stroke-linecap:butt;stroke-linejoin:miter;stroke-opacity:1" d="M 198.238,271.077 215.58,302.294 z" id="boundary" inkscape:connector-curvature="0" />
	<path style="fill:none;stroke:red;stroke-width:1px;stroke-linecap:butt;stroke-linejoin:miter;stroke-opacity:1" d="M 215.58,302.294 215.58,336.979 z" id="boundary" inkscape:connector-curvature="0" />
	<path style="fill:none;stroke:red;stroke-width:1px;stroke-linecap:butt;stroke-linejoin:miter;stroke-opacity:1" d="M 215.58,336.979 232.923,368.196 z" id="boundary" inkscape:connector-curvature="0" />
	<path style="fill:none;stroke:red;stroke-width:1px;stroke-linecap:butt;stroke-linejoin:miter;stroke-opacity:1" d="M 225.986,978.657 257.203,996 z" id="boundary" inkscape:connector-curvature="0" />
	<path style="fill:none;stroke:red;stroke-width:1px;stroke-linecap:butt;stroke-linejoin:miter;stroke-opacity:1" d="M 232.923,368.196 232.923,402.881 z" id="boundary" inkscape:connector-curvature="0" />
	<path style="fill:none;stroke:red;stroke-width:1px;stroke-linecap:butt;stroke-linejoin:miter;stroke-opacity:1" d="M 232.923,402.881 232.923,437.566 z" id="boundary" inkscape:connector-curvature="0" />
	<path style="fill:none;stroke:red;stroke-width:1px;stroke-linecap:butt;stroke-linejoin:miter;stroke-opacity:1" d="M 232.923,437.566 250.266,468.783 z" id="boundary" inkscape:connector-curvature="0" />
	<path style="fill:none;stroke:red;stroke-width:1px;stroke-linecap:butt;stroke-linejoin:miter;stroke-opacity:1" d="M 250.266,468.783 250.266,503.469 z" id="boundary" inkscape:connector-curvature="0" />
	<path style="fill:none;stroke:red;stroke-width:1px;stroke-linecap:butt;stroke-linejoin:miter;stroke-opacity:1" d="M 250.266,503.469 267.608,534.685 z" id="boundary" inkscape:connector-curvature="0" />
	<path style="fill:none;stroke:red;stroke-width:1px;stroke-linecap:butt;stroke-linejoin:miter;stroke-opacity:1" d="M 257.203,996 288.42,978.657 z" id="boundary" inkscape:connector-curvature="0" />
	<path style="fill:none;stroke:red;stroke-width:1px;stroke-linecap:butt;stroke-linejoin:miter;stroke-opacity:1" d="M 267.608,534.685 267.608,569.371 z" id="boundary" inkscape:connector-curvature="0" />
	<path style="fill:none;stroke:red;stroke-width:1px;stroke-linecap:butt;stroke-linejoin:miter;stroke-opacity:1" d="M 267.608,569.371 281.483,604.056 z" id="boundary" inkscape:connector-curvature="0" />
	<path style="fill:none;stroke:red;stroke-width:1px;stroke-linecap:butt;stroke-linejoin:miter;stroke-opacity:1" d="M 281.483,604.056 284.951,638.741 z" id="boundary" inkscape:connector-curvature="0" />
	<path style="fill:none;stroke:red;stroke-width:1px;stroke-linecap:butt;stroke-linejoin:miter;stroke-opacity:1" d="M 284.951,638.741 302.294,669.958 z" id="boundary" inkscape:connector-curvature="0" />
	<path style="fill:none;stroke:red;stroke-width:1px;stroke-linecap:butt;stroke-linejoin:miter;stroke-opacity:1" d="M 284.951,891.944 291.888,926.629 z" id="boundary" inkscape:connector-curvature="0" />
	<path style="fill:none;stroke:red;stroke-width:1px;stroke-linecap:butt;stroke-linejoin:miter;stroke-opacity:1" d="M 284.951,891.944 316.168,874.601 z" id="boundary" inkscape:connector-curvature="0" />
	<path style="fill:none;stroke:red;stroke-width:1px;stroke-linecap:butt;stroke-linejoin:miter;stroke-opacity:1" d="M 291.888,926.629 333.51,940.503 z" id="boundary" inkscape:connector-curvature="0" />
	<path style="fill:none;stroke:red;stroke-width:1px;stroke-linecap:butt;stroke-linejoin:miter;stroke-opacity:1" d="M 302.294,669.958 323.105,697.706 z" id="boundary" inkscape:connector-curvature="0" />
	<path style="fill:none;stroke:red;stroke-width:1px;stroke-linecap:butt;stroke-linejoin:miter;stroke-opacity:1" d="M 316.168,874.601 333.51,905.818 z" id="boundary" inkscape:connector-curvature="0" />
	<path style="fill:none;stroke:red;stroke-width:1px;stroke-linecap:butt;stroke-linejoin:miter;stroke-opacity:1" d="M 323.105,697.706 350.853,721.986 z" id="boundary" inkscape:connector-curvature="0" />
	<path style="fill:none;stroke:red;stroke-width:1px;stroke-linecap:butt;stroke-linejoin:miter;stroke-opacity:1" d="M 333.51,940.503 368.196,943.972 z" id="boundary" inkscape:connector-curvature="0" />
	<path style="fill:none;stroke:red;stroke-width:1px;stroke-linecap:butt;stroke-linejoin:miter;stroke-opacity:1" d="M 350.853,721.986 382.07,739.329 z" id="boundary" inkscape:connector-curvature="0" />
	<path style="fill:none;stroke:red;stroke-width:1px;stroke-linecap:butt;stroke-linejoin:miter;stroke-opacity:1" d="M 368.196,943.972 402.881,933.566 z" id="boundary" inkscape:connector-curvature="0" />
	<path style="fill:none;stroke:red;stroke-width:1px;stroke-linecap:butt;stroke-linejoin:miter;stroke-opacity:1" d="M 382.07,739.329 406.35,767.077 z" id="boundary" inkscape:connector-curvature="0" />
	<path style="fill:none;stroke:red;stroke-width:1px;stroke-linecap:butt;stroke-linejoin:miter;stroke-opacity:1" d="M 402.881,933.566 406.35,891.944 z" id="boundary" inkscape:connector-curvature="0" />
	<path style="fill:none;stroke:red;stroke-width:1px;stroke-linecap:butt;stroke-linejoin:miter;stroke-opacity:1" d="M 406.35,767.077 434.098,787.888 z" id="boundary" inkscape:connector-curvature="0" />
	<path style="fill:none;stroke:red;stroke-width:1px;stroke-linecap:butt;stroke-linejoin:miter;stroke-opacity:1" d="M 406.35,891.944 437.566,874.601 z" id="boundary" inkscape:connector-curvature="0" />
	<path style="fill:none;stroke:red;stroke-width:1px;stroke-linecap:butt;stroke-linejoin:miter;stroke-opacity:1" d="M 434.098,787.888 458.378,815.636 z" id="boundary" inkscape:connector-curvature="0" />
	<path style="fill:none;stroke:red;stroke-width:1px;stroke-linecap:butt;stroke-linejoin:miter;stroke-opacity:1" d="M 437.566,874.601 472.252,881.538 z" id="boundary" inkscape:connector-curvature="0" />
	<path style="fill:none;stroke:red;stroke-width:1px;stroke-linecap:butt;stroke-linejoin:miter;stroke-opacity:1" d="M 458.378,815.636 475.72,846.853 z" id="boundary" inkscape:connector-curvature="0" />
	<path style="fill:none;stroke:red;stroke-width:1px;stroke-linecap:butt;stroke-linejoin:miter;stroke-opacity:1" d="M 472.252,881.538 475.72,846.853 z" id="boundary" inkscape:connector-curvature="0" />
	<circle cx="4" cy="49.0909" r="4" fill="#0" id="circle0"/>
	<circle cx="21.3427" cy="80.3077" r="4" fill="#0" id="circle1"/>
	<circle cx="21.3427" cy="114.993" r="4" fill="#0" id="circle2"/>
	<circle cx="31.7483" cy="21.3427" r="4" fill="#0" id="circle3"/>
	<circle cx="38.6853" cy="146.21" r="4" fill="#0" id="circle4"/>
	<circle cx="38.6853" cy="180.895" r="4" fill="#0" id="circle5"/>
	<circle cx="56.028" cy="212.112" r="4" fill="#0" id="circle6"/>
	<circle cx="62.965" cy="4" r="4" fill="#0" id="circle7"/>
	<circle cx="62.965" cy="246.797" r="4" fill="#0" id="circle8"/>
	<circle cx="73.3706" cy="281.483" r="4" fill="#0" id="circle9"/>
	<circle cx="90.7133" cy="312.699" r="4" fill="#0" id="circle10"/>
	<circle cx="94.1818" cy="21.3427" r="4" fill="#0" id="circle11"/>
	<circle cx="94.1818" cy="347.385" r="4" fill="#0" id="circle12"/>
	<circle cx="108.056" cy="382.07" r="4" fill="#0" id="circle13"/>
	<circle cx="111.524" cy="416.755" r="4" fill="#0" id="circle14"/>
	<circle cx="121.93" cy="42.1538" r="4" fill="#0" id="circle15"/>
	<circle cx="125.399" cy="451.441" r="4" fill="#0" id="circle16"/>
	<circle cx="142.741" cy="482.657" r="4" fill="#0" id="circle17"/>
	<circle cx="142.741" cy="517.343" r="4" fill="#0" id="circle18"/>
	<circle cx="146.21" cy="69.9021" r="4" fill="#0" id="circle19"/>
	<circle cx="146.21" cy="104.587" r="4" fill="#0" id="circle20"/>
	<circle cx="160.084" cy="548.559" r="4" fill="#0" id="circle21"/>
	<circle cx="160.084" cy="583.245" r="4" fill="#0" id="circle22"/>
	<circle cx="160.084" cy="794.825" r="4" fill="#0" id="circle23"/>
	<circle cx="160.084" cy="829.51" r="4" fill="#0" id="circle24"/>
	<circle cx="160.084" cy="864.196" r="4" fill="#0" id="circle25"/>
	<circle cx="160.084" cy="898.881" r="4" fill="#0" id="circle26"/>
	<circle cx="163.552" cy="135.804" r="4" fill="#0" id="circle27"/>
	<circle cx="177.427" cy="170.49" r="4" fill="#0" id="circle28"/>
	<circle cx="177.427" cy="614.462" r="4" fill="#0" id="circle29"/>
	<circle cx="177.427" cy="649.147" r="4" fill="#0" id="circle30"/>
	<circle cx="177.427" cy="760.14" r="4" fill="#0" id="circle31"/>
	<circle cx="177.427" cy="930.098" r="4" fill="#0" id="circle32"/>
	<circle cx="180.895" cy="205.175" r="4" fill="#0" id="circle33"/>
	<circle cx="194.769" cy="680.364" r="4" fill="#0" id="circle34"/>
	<circle cx="194.769" cy="715.049" r="4" fill="#0" id="circle35"/>
	<circle cx="194.769" cy="961.315" r="4" fill="#0" id="circle36"/>
	<circle cx="198.238" cy="236.392" r="4" fill="#0" id="circle37"/>
	<circle cx="198.238" cy="271.077" r="4" fill="#0" id="circle38"/>
	<circle cx="215.58" cy="302.294" r="4" fill="#0" id="circle39"/>
	<circle cx="215.58" cy="336.979" r="4" fill="#0" id="circle40"/>
	<circle cx="225.986" cy="978.657" r="4" fill="#0" id="circle41"/>
	<circle cx="232.923" cy="368.196" r="4" fill="#0" id="circle42"/>
	<circle cx="232.923" cy="402.881" r="4" fill="#0" id="circle43"/>
	<circle cx="232.923" cy="437.566" r="4" fill="#0" id="circle44"/>
	<circle cx="250.266" cy="468.783" r="4" fill="#0" id="circle45"/>
	<circle cx="250.266" cy="503.469" r="4" fill="#0" id="circle46"/>
	<circle cx="257.203" cy="996" r="4" fill="#0" id="circle47"/>
	<circle cx="267.608" cy="534.685" r="4" fill="#0" id="circle48"/>
	<circle cx="267.608" cy="569.371" r="4" fill="#0" id="circle49"/>
	<circle cx="281.483" cy="604.056" r="4" fill="#0" id="circle50"/>
	<circle cx="284.951" cy="638.741" r="4" fill="#0" id="circle51"/>
	<circle cx="284.951" cy="891.944" r="4" fill="#0" id="circle52"/>
	<circle cx="288.42" cy="978.657" r="4" fill="#0" id="circle53"/>
	<circle cx="291.888" cy="926.629" r="4" fill="#0" id="circle54"/>
	<circle cx="302.294" cy="669.958" r="4" fill="#0" id="circle55"/>
	<circle cx="316.168" cy="874.601" r="4" fill="#0" id="circle56"/>
	<circle cx="323.105" cy="697.706" r="4" fill="#0" id="circle57"/>
	<circle cx="333.51" cy="905.818" r="4" fill="#0" id="circle58"/>
	<circle cx="333.51" cy="940.503" r="4" fill="#0" id="circle59"/>
	<circle cx="350.853" cy="721.986" r="4" fill="#0" id="circle60"/>
	<circle cx="368.196" cy="943.972" r="4" fill="#0" id="circle61"/>
	<circle cx="382.07" cy="739.329" r="4" fill="#0" id="circle62"/>
	<circle cx="402.881" cy="933.566" r="4" fill="#0" id="circle63"/>
	<circle cx="406.35" cy="767.077" r="4" fill="#0" id="circle64"/>
	<circle cx="406.35" cy="891.944" r="4" fill="#0" id="circle65"/>
	<circle cx="434.098" cy="787.888" r="4" fill="#0" id="circle66"/>
	<circle cx="437.566" cy="874.601" r="4" fill="#0" id="circle67"/>
	<circle cx="458.378" cy="815.636" r="4" fill="#0" id="circle68"/>
	<circle cx="472.252" cy="881.538" r="4" fill="#0" id="circle69"/>
	<circle cx="475.72" cy="846.853" r="4" fill="#0" id="circle70"/>
	</g>
</svg>