<?xml version="1.0" encoding="UTF-8" standalone="no"?>
<!-- Created with CurveBenchmark -->
<svg
	xmlns:dc="http://purl.org/dc/elements/1.1/"
	xmlns:cc="http://creativecommons.org/ns#"
	xmlns:rdf="http://www.w3.org/1999/02/22-rdf-syntax-ns#"
	xmlns:svg="http://www.w3.org/2000/svg"
	xmlns="http://www.w3.org/2000/svg"
	xmlns:sodipodi="http://sodipodi.sourceforge.net/DTD/sodipodi-0.dtd"
	xmlns:inkscape="http://www.inkscape.org/namespaces/inkscape"
	width="1000"
	height="1000"
	id="svg2"
	version="1.1"
	sodipodi:docname="manifold/vicur-spoon-10.png.txt">
<defs
	id="defs4" />
<metadata
	id="metadata7">
	<rdf:RDF>
		<cc:Work
			rdf:about="">
			<dc:format>image/svg+xml</dc:format>
			<dc:type
				rdf:resource="http://purl.org/dc/dcmitype/StillImage" />
			<dc:title></dc:title>
		</cc:Work>
	</rdf:RDF>
</metadata>
<g
	inkscape:label="Layer 1"
	inkscape:groupmode="layer"
	id="layer1">
	<path style="fill:none;stroke:red;stroke-width:1px;stroke-linecap:butt;stroke-linejoin:miter;stroke-opacity:1" d="M 4,141.053 4,149.211 z" id="boundary" inkscape:connector-curvature="0" />
	<path style="fill:none;stroke:red;stroke-width:1px;stroke-linecap:butt;stroke-linejoin:miter;stroke-opacity:1" d="M 4,141.053 8.07895,128.816 z" id="boundary" inkscape:connector-curvature="0" />
	<path style="fill:none;stroke:red;stroke-width:1px;stroke-linecap:butt;stroke-linejoin:miter;stroke-opacity:1" d="M 4,149.211 4,157.368 z" id="boundary" inkscape:connector-curvature="0" />
	<path style="fill:none;stroke:red;stroke-width:1px;stroke-linecap:butt;stroke-linejoin:miter;stroke-opacity:1" d="M 4,157.368 4,165.526 z" id="boundary" inkscape:connector-curvature="0" />
	<path style="fill:none;stroke:red;stroke-width:1px;stroke-linecap:butt;stroke-linejoin:miter;stroke-opacity:1" d="M 4,165.526 8.07895,172.868 z" id="boundary" inkscape:connector-curvature="0" />
	<path style="fill:none;stroke:red;stroke-width:1px;stroke-linecap:butt;stroke-linejoin:miter;stroke-opacity:1" d="M 8.07895,128.816 12.1579,120.658 z" id="boundary" inkscape:connector-curvature="0" />
	<path style="fill:none;stroke:red;stroke-width:1px;stroke-linecap:butt;stroke-linejoin:miter;stroke-opacity:1" d="M 8.07895,172.868 13.7895,179.395 z" id="boundary" inkscape:connector-curvature="0" />
	<path style="fill:none;stroke:red;stroke-width:1px;stroke-linecap:butt;stroke-linejoin:miter;stroke-opacity:1" d="M 12.1579,120.658 16.2368,112.5 z" id="boundary" inkscape:connector-curvature="0" />
	<path style="fill:none;stroke:red;stroke-width:1px;stroke-linecap:butt;stroke-linejoin:miter;stroke-opacity:1" d="M 13.7895,179.395 20.3158,184.289 z" id="boundary" inkscape:connector-curvature="0" />
	<path style="fill:none;stroke:red;stroke-width:1px;stroke-linecap:butt;stroke-linejoin:miter;stroke-opacity:1" d="M 16.2368,112.5 20.3158,104.342 z" id="boundary" inkscape:connector-curvature="0" />
	<path style="fill:none;stroke:red;stroke-width:1px;stroke-linecap:butt;stroke-linejoin:miter;stroke-opacity:1" d="M 20.3158,104.342 24.3947,96.1842 z" id="boundary" inkscape:connector-curvature="0" />
	<path style="fill:none;stroke:red;stroke-width:1px;stroke-linecap:butt;stroke-linejoin:miter;stroke-opacity:1" d="M 20.3158,184.289 27.6579,188.368 z" id="boundary" inkscape:connector-curvature="0" />
	<path style="fill:none;stroke:red;stroke-width:1px;stroke-linecap:butt;stroke-linejoin:miter;stroke-opacity:1" d="M 24.3947,96.1842 28.4737,88.0263 z" id="boundary" inkscape:connector-curvature="0" />
	<path style="fill:none;stroke:red;stroke-width:1px;stroke-linecap:butt;stroke-linejoin:miter;stroke-opacity:1" d="M 27.6579,188.368 35,192.447 z" id="boundary" inkscape:connector-curvature="0" />
	<path style="fill:none;stroke:red;stroke-width:1px;stroke-linecap:butt;stroke-linejoin:miter;stroke-opacity:1" d="M 28.4737,88.0263 35,81.5 z" id="boundary" inkscape:connector-curvature="0" />
	<path style="fill:none;stroke:red;stroke-width:1px;stroke-linecap:butt;stroke-linejoin:miter;stroke-opacity:1" d="M 35,81.5 40.7105,71.7105 z" id="boundary" inkscape:connector-curvature="0" />
	<path style="fill:none;stroke:red;stroke-width:1px;stroke-linecap:butt;stroke-linejoin:miter;stroke-opacity:1" d="M 35,192.447 43.1579,192.447 z" id="boundary" inkscape:connector-curvature="0" />
	<path style="fill:none;stroke:red;stroke-width:1px;stroke-linecap:butt;stroke-linejoin:miter;stroke-opacity:1" d="M 40.7105,71.7105 47.2368,65.1842 z" id="boundary" inkscape:connector-curvature="0" />
	<path style="fill:none;stroke:red;stroke-width:1px;stroke-linecap:butt;stroke-linejoin:miter;stroke-opacity:1" d="M 43.1579,192.447 51.3158,192.447 z" id="boundary" inkscape:connector-curvature="0" />
	<path style="fill:none;stroke:red;stroke-width:1px;stroke-linecap:butt;stroke-linejoin:miter;stroke-opacity:1" d="M 47.2368,65.1842 53.7632,58.6579 z" id="boundary" inkscape:connector-curvature="0" />
	<path style="fill:none;stroke:red;stroke-width:1px;stroke-linecap:butt;stroke-linejoin:miter;stroke-opacity:1" d="M 51.3158,192.447 58.6579,188.368 z" id="boundary" inkscape:connector-curvature="0" />
	<path style="fill:none;stroke:red;stroke-width:1px;stroke-linecap:butt;stroke-linejoin:miter;stroke-opacity:1" d="M 53.7632,58.6579 60.2895,52.9474 z" id="boundary" inkscape:connector-curvature="0" />
	<path style="fill:none;stroke:red;stroke-width:1px;stroke-linecap:butt;stroke-linejoin:miter;stroke-opacity:1" d="M 58.6579,188.368 66.8158,188.368 z" id="boundary" inkscape:connector-curvature="0" />
	<path style="fill:none;stroke:red;stroke-width:1px;stroke-linecap:butt;stroke-linejoin:miter;stroke-opacity:1" d="M 66.8158,188.368 74.9737,188.368 z" id="boundary" inkscape:connector-curvature="0" />
	<path style="fill:none;stroke:red;stroke-width:1px;stroke-linecap:butt;stroke-linejoin:miter;stroke-opacity:1" d="M 74.1579,42.3421 80.6842,36.6316 z" id="boundary" inkscape:connector-curvature="0" />
	<path style="fill:none;stroke:red;stroke-width:1px;stroke-linecap:butt;stroke-linejoin:miter;stroke-opacity:1" d="M 74.9737,188.368 82.3158,184.289 z" id="boundary" inkscape:connector-curvature="0" />
	<path style="fill:none;stroke:red;stroke-width:1px;stroke-linecap:butt;stroke-linejoin:miter;stroke-opacity:1" d="M 80.6842,36.6316 88.0263,32.5526 z" id="boundary" inkscape:connector-curvature="0" />
	<path style="fill:none;stroke:red;stroke-width:1px;stroke-linecap:butt;stroke-linejoin:miter;stroke-opacity:1" d="M 82.3158,184.289 90.4737,184.289 z" id="boundary" inkscape:connector-curvature="0" />
	<path style="fill:none;stroke:red;stroke-width:1px;stroke-linecap:butt;stroke-linejoin:miter;stroke-opacity:1" d="M 88.0263,32.5526 94.5526,26.0263 z" id="boundary" inkscape:connector-curvature="0" />
	<path style="fill:none;stroke:red;stroke-width:1px;stroke-linecap:butt;stroke-linejoin:miter;stroke-opacity:1" d="M 90.4737,184.289 97.8158,180.211 z" id="boundary" inkscape:connector-curvature="0" />
	<path style="fill:none;stroke:red;stroke-width:1px;stroke-linecap:butt;stroke-linejoin:miter;stroke-opacity:1" d="M 97.8158,180.211 105.974,180.211 z" id="boundary" inkscape:connector-curvature="0" />
	<path style="fill:none;stroke:red;stroke-width:1px;stroke-linecap:butt;stroke-linejoin:miter;stroke-opacity:1" d="M 105.974,180.211 113.316,176.132 z" id="boundary" inkscape:connector-curvature="0" />
	<path style="fill:none;stroke:red;stroke-width:1px;stroke-linecap:butt;stroke-linejoin:miter;stroke-opacity:1" d="M 108.421,16.2368 116.579,16.2368 z" id="boundary" inkscape:connector-curvature="0" />
	<path style="fill:none;stroke:red;stroke-width:1px;stroke-linecap:butt;stroke-linejoin:miter;stroke-opacity:1" d="M 113.316,176.132 121.474,176.132 z" id="boundary" inkscape:connector-curvature="0" />
	<path style="fill:none;stroke:red;stroke-width:1px;stroke-linecap:butt;stroke-linejoin:miter;stroke-opacity:1" d="M 116.579,16.2368 124.737,12.1579 z" id="boundary" inkscape:connector-curvature="0" />
	<path style="fill:none;stroke:red;stroke-width:1px;stroke-linecap:butt;stroke-linejoin:miter;stroke-opacity:1" d="M 121.474,176.132 129.632,174.5 z" id="boundary" inkscape:connector-curvature="0" />
	<path style="fill:none;stroke:red;stroke-width:1px;stroke-linecap:butt;stroke-linejoin:miter;stroke-opacity:1" d="M 124.737,12.1579 132.895,12.1579 z" id="boundary" inkscape:connector-curvature="0" />
	<path style="fill:none;stroke:red;stroke-width:1px;stroke-linecap:butt;stroke-linejoin:miter;stroke-opacity:1" d="M 129.632,174.5 137.789,172.053 z" id="boundary" inkscape:connector-curvature="0" />
	<path style="fill:none;stroke:red;stroke-width:1px;stroke-linecap:butt;stroke-linejoin:miter;stroke-opacity:1" d="M 132.895,12.1579 141.053,12.1579 z" id="boundary" inkscape:connector-curvature="0" />
	<path style="fill:none;stroke:red;stroke-width:1px;stroke-linecap:butt;stroke-linejoin:miter;stroke-opacity:1" d="M 137.789,172.053 145.947,170.421 z" id="boundary" inkscape:connector-curvature="0" />
	<path style="fill:none;stroke:red;stroke-width:1px;stroke-linecap:butt;stroke-linejoin:miter;stroke-opacity:1" d="M 141.053,12.1579 148.395,8.07895 z" id="boundary" inkscape:connector-curvature="0" />
	<path style="fill:none;stroke:red;stroke-width:1px;stroke-linecap:butt;stroke-linejoin:miter;stroke-opacity:1" d="M 145.947,170.421 154.105,167.974 z" id="boundary" inkscape:connector-curvature="0" />
	<path style="fill:none;stroke:red;stroke-width:1px;stroke-linecap:butt;stroke-linejoin:miter;stroke-opacity:1" d="M 148.395,8.07895 156.553,8.07895 z" id="boundary" inkscape:connector-curvature="0" />
	<path style="fill:none;stroke:red;stroke-width:1px;stroke-linecap:butt;stroke-linejoin:miter;stroke-opacity:1" d="M 154.105,167.974 162.263,167.974 z" id="boundary" inkscape:connector-curvature="0" />
	<path style="fill:none;stroke:red;stroke-width:1px;stroke-linecap:butt;stroke-linejoin:miter;stroke-opacity:1" d="M 156.553,8.07895 163.895,4 z" id="boundary" inkscape:connector-curvature="0" />
	<path style="fill:none;stroke:red;stroke-width:1px;stroke-linecap:butt;stroke-linejoin:miter;stroke-opacity:1" d="M 162.263,167.974 170.421,167.974 z" id="boundary" inkscape:connector-curvature="0" />
	<path style="fill:none;stroke:red;stroke-width:1px;stroke-linecap:butt;stroke-linejoin:miter;stroke-opacity:1" d="M 163.895,4 172.053,4 z" id="boundary" inkscape:connector-curvature="0" />
	<path style="fill:none;stroke:red;stroke-width:1px;stroke-linecap:butt;stroke-linejoin:miter;stroke-opacity:1" d="M 170.421,167.974 178.579,167.974 z" id="boundary" inkscape:connector-curvature="0" />
	<path style="fill:none;stroke:red;stroke-width:1px;stroke-linecap:butt;stroke-linejoin:miter;stroke-opacity:1" d="M 172.053,4 180.211,4 z" id="boundary" inkscape:connector-curvature="0" />
	<path style="fill:none;stroke:red;stroke-width:1px;stroke-linecap:butt;stroke-linejoin:miter;stroke-opacity:1" d="M 178.579,167.974 185.921,163.895 z" id="boundary" inkscape:connector-curvature="0" />
	<path style="fill:none;stroke:red;stroke-width:1px;stroke-linecap:butt;stroke-linejoin:miter;stroke-opacity:1" d="M 180.211,4 188.368,4 z" id="boundary" inkscape:connector-curvature="0" />
	<path style="fill:none;stroke:red;stroke-width:1px;stroke-linecap:butt;stroke-linejoin:miter;stroke-opacity:1" d="M 185.921,163.895 194.079,163.895 z" id="boundary" inkscape:connector-curvature="0" />
	<path style="fill:none;stroke:red;stroke-width:1px;stroke-linecap:butt;stroke-linejoin:miter;stroke-opacity:1" d="M 188.368,4 196.526,4 z" id="boundary" inkscape:connector-curvature="0" />
	<path style="fill:none;stroke:red;stroke-width:1px;stroke-linecap:butt;stroke-linejoin:miter;stroke-opacity:1" d="M 194.079,163.895 202.237,163.895 z" id="boundary" inkscape:connector-curvature="0" />
	<path style="fill:none;stroke:red;stroke-width:1px;stroke-linecap:butt;stroke-linejoin:miter;stroke-opacity:1" d="M 196.526,4 204.684,4 z" id="boundary" inkscape:connector-curvature="0" />
	<path style="fill:none;stroke:red;stroke-width:1px;stroke-linecap:butt;stroke-linejoin:miter;stroke-opacity:1" d="M 202.237,163.895 210.395,163.895 z" id="boundary" inkscape:connector-curvature="0" />
	<path style="fill:none;stroke:red;stroke-width:1px;stroke-linecap:butt;stroke-linejoin:miter;stroke-opacity:1" d="M 204.684,4 212.842,4 z" id="boundary" inkscape:connector-curvature="0" />
	<path style="fill:none;stroke:red;stroke-width:1px;stroke-linecap:butt;stroke-linejoin:miter;stroke-opacity:1" d="M 210.395,163.895 218.553,163.895 z" id="boundary" inkscape:connector-curvature="0" />
	<path style="fill:none;stroke:red;stroke-width:1px;stroke-linecap:butt;stroke-linejoin:miter;stroke-opacity:1" d="M 212.842,4 221,4 z" id="boundary" inkscape:connector-curvature="0" />
	<path style="fill:none;stroke:red;stroke-width:1px;stroke-linecap:butt;stroke-linejoin:miter;stroke-opacity:1" d="M 218.553,163.895 226.711,163.895 z" id="boundary" inkscape:connector-curvature="0" />
	<path style="fill:none;stroke:red;stroke-width:1px;stroke-linecap:butt;stroke-linejoin:miter;stroke-opacity:1" d="M 221,4 229.158,4 z" id="boundary" inkscape:connector-curvature="0" />
	<path style="fill:none;stroke:red;stroke-width:1px;stroke-linecap:butt;stroke-linejoin:miter;stroke-opacity:1" d="M 226.711,163.895 234.868,163.895 z" id="boundary" inkscape:connector-curvature="0" />
	<path style="fill:none;stroke:red;stroke-width:1px;stroke-linecap:butt;stroke-linejoin:miter;stroke-opacity:1" d="M 229.158,4 237.316,4 z" id="boundary" inkscape:connector-curvature="0" />
	<path style="fill:none;stroke:red;stroke-width:1px;stroke-linecap:butt;stroke-linejoin:miter;stroke-opacity:1" d="M 234.868,163.895 243.026,163.895 z" id="boundary" inkscape:connector-curvature="0" />
	<path style="fill:none;stroke:red;stroke-width:1px;stroke-linecap:butt;stroke-linejoin:miter;stroke-opacity:1" d="M 237.316,4 245.474,6.44737 z" id="boundary" inkscape:connector-curvature="0" />
	<path style="fill:none;stroke:red;stroke-width:1px;stroke-linecap:butt;stroke-linejoin:miter;stroke-opacity:1" d="M 243.026,163.895 251.184,163.895 z" id="boundary" inkscape:connector-curvature="0" />
	<path style="fill:none;stroke:red;stroke-width:1px;stroke-linecap:butt;stroke-linejoin:miter;stroke-opacity:1" d="M 245.474,6.44737 253.632,8.07895 z" id="boundary" inkscape:connector-curvature="0" />
	<path style="fill:none;stroke:red;stroke-width:1px;stroke-linecap:butt;stroke-linejoin:miter;stroke-opacity:1" d="M 251.184,163.895 259.342,163.895 z" id="boundary" inkscape:connector-curvature="0" />
	<path style="fill:none;stroke:red;stroke-width:1px;stroke-linecap:butt;stroke-linejoin:miter;stroke-opacity:1" d="M 253.632,8.07895 261.789,8.07895 z" id="boundary" inkscape:connector-curvature="0" />
	<path style="fill:none;stroke:red;stroke-width:1px;stroke-linecap:butt;stroke-linejoin:miter;stroke-opacity:1" d="M 259.342,163.895 267.5,163.895 z" id="boundary" inkscape:connector-curvature="0" />
	<path style="fill:none;stroke:red;stroke-width:1px;stroke-linecap:butt;stroke-linejoin:miter;stroke-opacity:1" d="M 261.789,8.07895 269.132,12.1579 z" id="boundary" inkscape:connector-curvature="0" />
	<path style="fill:none;stroke:red;stroke-width:1px;stroke-linecap:butt;stroke-linejoin:miter;stroke-opacity:1" d="M 267.5,163.895 275.658,163.895 z" id="boundary" inkscape:connector-curvature="0" />
	<path style="fill:none;stroke:red;stroke-width:1px;stroke-linecap:butt;stroke-linejoin:miter;stroke-opacity:1" d="M 269.132,12.1579 277.289,12.1579 z" id="boundary" inkscape:connector-curvature="0" />
	<path style="fill:none;stroke:red;stroke-width:1px;stroke-linecap:butt;stroke-linejoin:miter;stroke-opacity:1" d="M 275.658,163.895 283.816,163.895 z" id="boundary" inkscape:connector-curvature="0" />
	<path style="fill:none;stroke:red;stroke-width:1px;stroke-linecap:butt;stroke-linejoin:miter;stroke-opacity:1" d="M 277.289,12.1579 284.632,16.2368 z" id="boundary" inkscape:connector-curvature="0" />
	<path style="fill:none;stroke:red;stroke-width:1px;stroke-linecap:butt;stroke-linejoin:miter;stroke-opacity:1" d="M 283.816,163.895 291.974,163.895 z" id="boundary" inkscape:connector-curvature="0" />
	<path style="fill:none;stroke:red;stroke-width:1px;stroke-linecap:butt;stroke-linejoin:miter;stroke-opacity:1" d="M 284.632,16.2368 292.789,16.2368 z" id="boundary" inkscape:connector-curvature="0" />
	<path style="fill:none;stroke:red;stroke-width:1px;stroke-linecap:butt;stroke-linejoin:miter;stroke-opacity:1" d="M 291.974,163.895 300.132,163.895 z" id="boundary" inkscape:connector-curvature="0" />
	<path style="fill:none;stroke:red;stroke-width:1px;stroke-linecap:butt;stroke-linejoin:miter;stroke-opacity:1" d="M 292.789,16.2368 300.947,17.0526 z" id="boundary" inkscape:connector-curvature="0" />
	<path style="fill:none;stroke:red;stroke-width:1px;stroke-linecap:butt;stroke-linejoin:miter;stroke-opacity:1" d="M 300.132,163.895 308.289,163.895 z" id="boundary" inkscape:connector-curvature="0" />
	<path style="fill:none;stroke:red;stroke-width:1px;stroke-linecap:butt;stroke-linejoin:miter;stroke-opacity:1" d="M 300.947,17.0526 309.105,20.3158 z" id="boundary" inkscape:connector-curvature="0" />
	<path style="fill:none;stroke:red;stroke-width:1px;stroke-linecap:butt;stroke-linejoin:miter;stroke-opacity:1" d="M 308.289,163.895 316.447,163.895 z" id="boundary" inkscape:connector-curvature="0" />
	<path style="fill:none;stroke:red;stroke-width:1px;stroke-linecap:butt;stroke-linejoin:miter;stroke-opacity:1" d="M 309.105,20.3158 317.263,21.1316 z" id="boundary" inkscape:connector-curvature="0" />
	<path style="fill:none;stroke:red;stroke-width:1px;stroke-linecap:butt;stroke-linejoin:miter;stroke-opacity:1" d="M 316.447,163.895 324.605,163.895 z" id="boundary" inkscape:connector-curvature="0" />
	<path style="fill:none;stroke:red;stroke-width:1px;stroke-linecap:butt;stroke-linejoin:miter;stroke-opacity:1" d="M 317.263,21.1316 324.605,25.2105 z" id="boundary" inkscape:connector-curvature="0" />
	<path style="fill:none;stroke:red;stroke-width:1px;stroke-linecap:butt;stroke-linejoin:miter;stroke-opacity:1" d="M 324.605,25.2105 332.763,28.4737 z" id="boundary" inkscape:connector-curvature="0" />
	<path style="fill:none;stroke:red;stroke-width:1px;stroke-linecap:butt;stroke-linejoin:miter;stroke-opacity:1" d="M 324.605,163.895 332.763,167.158 z" id="boundary" inkscape:connector-curvature="0" />
	<path style="fill:none;stroke:red;stroke-width:1px;stroke-linecap:butt;stroke-linejoin:miter;stroke-opacity:1" d="M 332.763,28.4737 340.105,32.5526 z" id="boundary" inkscape:connector-curvature="0" />
	<path style="fill:none;stroke:red;stroke-width:1px;stroke-linecap:butt;stroke-linejoin:miter;stroke-opacity:1" d="M 332.763,167.158 340.921,167.974 z" id="boundary" inkscape:connector-curvature="0" />
	<path style="fill:none;stroke:red;stroke-width:1px;stroke-linecap:butt;stroke-linejoin:miter;stroke-opacity:1" d="M 340.105,32.5526 347.447,36.6316 z" id="boundary" inkscape:connector-curvature="0" />
	<path style="fill:none;stroke:red;stroke-width:1px;stroke-linecap:butt;stroke-linejoin:miter;stroke-opacity:1" d="M 340.921,167.974 349.079,167.974 z" id="boundary" inkscape:connector-curvature="0" />
	<path style="fill:none;stroke:red;stroke-width:1px;stroke-linecap:butt;stroke-linejoin:miter;stroke-opacity:1" d="M 347.447,36.6316 355.605,39.0789 z" id="boundary" inkscape:connector-curvature="0" />
	<path style="fill:none;stroke:red;stroke-width:1px;stroke-linecap:butt;stroke-linejoin:miter;stroke-opacity:1" d="M 349.079,167.974 357.237,167.974 z" id="boundary" inkscape:connector-curvature="0" />
	<path style="fill:none;stroke:red;stroke-width:1px;stroke-linecap:butt;stroke-linejoin:miter;stroke-opacity:1" d="M 355.605,39.0789 362.947,43.1579 z" id="boundary" inkscape:connector-curvature="0" />
	<path style="fill:none;stroke:red;stroke-width:1px;stroke-linecap:butt;stroke-linejoin:miter;stroke-opacity:1" d="M 357.237,167.974 365.395,167.974 z" id="boundary" inkscape:connector-curvature="0" />
	<path style="fill:none;stroke:red;stroke-width:1px;stroke-linecap:butt;stroke-linejoin:miter;stroke-opacity:1" d="M 362.947,43.1579 369.474,48.8684 z" id="boundary" inkscape:connector-curvature="0" />
	<path style="fill:none;stroke:red;stroke-width:1px;stroke-linecap:butt;stroke-linejoin:miter;stroke-opacity:1" d="M 365.395,167.974 372.737,172.053 z" id="boundary" inkscape:connector-curvature="0" />
	<path style="fill:none;stroke:red;stroke-width:1px;stroke-linecap:butt;stroke-linejoin:miter;stroke-opacity:1" d="M 369.474,48.8684 375.184,55.3947 z" id="boundary" inkscape:connector-curvature="0" />
	<path style="fill:none;stroke:red;stroke-width:1px;stroke-linecap:butt;stroke-linejoin:miter;stroke-opacity:1" d="M 372.737,172.053 380.895,172.053 z" id="boundary" inkscape:connector-curvature="0" />
	<path style="fill:none;stroke:red;stroke-width:1px;stroke-linecap:butt;stroke-linejoin:miter;stroke-opacity:1" d="M 380.895,172.053 389.053,172.053 z" id="boundary" inkscape:connector-curvature="0" />
	<path style="fill:none;stroke:red;stroke-width:1px;stroke-linecap:butt;stroke-linejoin:miter;stroke-opacity:1" d="M 389.053,172.053 397.211,172.053 z" id="boundary" inkscape:connector-curvature="0" />
	<path style="fill:none;stroke:red;stroke-width:1px;stroke-linecap:butt;stroke-linejoin:miter;stroke-opacity:1" d="M 397.211,172.053 405.368,174.5 z" id="boundary" inkscape:connector-curvature="0" />
	<path style="fill:none;stroke:red;stroke-width:1px;stroke-linecap:butt;stroke-linejoin:miter;stroke-opacity:1" d="M 405.368,174.5 413.526,176.132 z" id="boundary" inkscape:connector-curvature="0" />
	<path style="fill:none;stroke:red;stroke-width:1px;stroke-linecap:butt;stroke-linejoin:miter;stroke-opacity:1" d="M 413.526,176.132 421.684,176.132 z" id="boundary" inkscape:connector-curvature="0" />
	<path style="fill:none;stroke:red;stroke-width:1px;stroke-linecap:butt;stroke-linejoin:miter;stroke-opacity:1" d="M 416.789,96.1842 424.947,97.8158 z" id="boundary" inkscape:connector-curvature="0" />
	<path style="fill:none;stroke:red;stroke-width:1px;stroke-linecap:butt;stroke-linejoin:miter;stroke-opacity:1" d="M 421.684,176.132 429.842,176.132 z" id="boundary" inkscape:connector-curvature="0" />
	<path style="fill:none;stroke:red;stroke-width:1px;stroke-linecap:butt;stroke-linejoin:miter;stroke-opacity:1" d="M 424.947,97.8158 433.105,97.8158 z" id="boundary" inkscape:connector-curvature="0" />
	<path style="fill:none;stroke:red;stroke-width:1px;stroke-linecap:butt;stroke-linejoin:miter;stroke-opacity:1" d="M 429.842,176.132 438,176.132 z" id="boundary" inkscape:connector-curvature="0" />
	<path style="fill:none;stroke:red;stroke-width:1px;stroke-linecap:butt;stroke-linejoin:miter;stroke-opacity:1" d="M 433.105,97.8158 441.263,97.8158 z" id="boundary" inkscape:connector-curvature="0" />
	<path style="fill:none;stroke:red;stroke-width:1px;stroke-linecap:butt;stroke-linejoin:miter;stroke-opacity:1" d="M 438,176.132 445.342,180.211 z" id="boundary" inkscape:connector-curvature="0" />
	<path style="fill:none;stroke:red;stroke-width:1px;stroke-linecap:butt;stroke-linejoin:miter;stroke-opacity:1" d="M 441.263,97.8158 449.421,97.8158 z" id="boundary" inkscape:connector-curvature="0" />
	<path style="fill:none;stroke:red;stroke-width:1px;stroke-linecap:butt;stroke-linejoin:miter;stroke-opacity:1" d="M 445.342,180.211 453.5,180.211 z" id="boundary" inkscape:connector-curvature="0" />
	<path style="fill:none;stroke:red;stroke-width:1px;stroke-linecap:butt;stroke-linejoin:miter;stroke-opacity:1" d="M 449.421,97.8158 456.763,101.895 z" id="boundary" inkscape:connector-curvature="0" />
	<path style="fill:none;stroke:red;stroke-width:1px;stroke-linecap:butt;stroke-linejoin:miter;stroke-opacity:1" d="M 453.5,180.211 461.658,180.211 z" id="boundary" inkscape:connector-curvature="0" />
	<path style="fill:none;stroke:red;stroke-width:1px;stroke-linecap:butt;stroke-linejoin:miter;stroke-opacity:1" d="M 456.763,101.895 464.921,101.895 z" id="boundary" inkscape:connector-curvature="0" />
	<path style="fill:none;stroke:red;stroke-width:1px;stroke-linecap:butt;stroke-linejoin:miter;stroke-opacity:1" d="M 461.658,180.211 469.816,180.211 z" id="boundary" inkscape:connector-curvature="0" />
	<path style="fill:none;stroke:red;stroke-width:1px;stroke-linecap:butt;stroke-linejoin:miter;stroke-opacity:1" d="M 464.921,101.895 473.079,101.895 z" id="boundary" inkscape:connector-curvature="0" />
	<path style="fill:none;stroke:red;stroke-width:1px;stroke-linecap:butt;stroke-linejoin:miter;stroke-opacity:1" d="M 469.816,180.211 477.974,180.211 z" id="boundary" inkscape:connector-curvature="0" />
	<path style="fill:none;stroke:red;stroke-width:1px;stroke-linecap:butt;stroke-linejoin:miter;stroke-opacity:1" d="M 473.079,101.895 481.237,101.895 z" id="boundary" inkscape:connector-curvature="0" />
	<path style="fill:none;stroke:red;stroke-width:1px;stroke-linecap:butt;stroke-linejoin:miter;stroke-opacity:1" d="M 477.974,180.211 485.316,184.289 z" id="boundary" inkscape:connector-curvature="0" />
	<path style="fill:none;stroke:red;stroke-width:1px;stroke-linecap:butt;stroke-linejoin:miter;stroke-opacity:1" d="M 481.237,101.895 489.395,103.526 z" id="boundary" inkscape:connector-curvature="0" />
	<path style="fill:none;stroke:red;stroke-width:1px;stroke-linecap:butt;stroke-linejoin:miter;stroke-opacity:1" d="M 485.316,184.289 493.474,184.289 z" id="boundary" inkscape:connector-curvature="0" />
	<path style="fill:none;stroke:red;stroke-width:1px;stroke-linecap:butt;stroke-linejoin:miter;stroke-opacity:1" d="M 489.395,103.526 497.553,105.974 z" id="boundary" inkscape:connector-curvature="0" />
	<path style="fill:none;stroke:red;stroke-width:1px;stroke-linecap:butt;stroke-linejoin:miter;stroke-opacity:1" d="M 493.474,184.289 501.632,184.289 z" id="boundary" inkscape:connector-curvature="0" />
	<path style="fill:none;stroke:red;stroke-width:1px;stroke-linecap:butt;stroke-linejoin:miter;stroke-opacity:1" d="M 497.553,105.974 505.711,105.974 z" id="boundary" inkscape:connector-curvature="0" />
	<path style="fill:none;stroke:red;stroke-width:1px;stroke-linecap:butt;stroke-linejoin:miter;stroke-opacity:1" d="M 501.632,184.289 509.789,184.289 z" id="boundary" inkscape:connector-curvature="0" />
	<path style="fill:none;stroke:red;stroke-width:1px;stroke-linecap:butt;stroke-linejoin:miter;stroke-opacity:1" d="M 505.711,105.974 513.868,105.974 z" id="boundary" inkscape:connector-curvature="0" />
	<path style="fill:none;stroke:red;stroke-width:1px;stroke-linecap:butt;stroke-linejoin:miter;stroke-opacity:1" d="M 509.789,184.289 517.947,184.289 z" id="boundary" inkscape:connector-curvature="0" />
	<path style="fill:none;stroke:red;stroke-width:1px;stroke-linecap:butt;stroke-linejoin:miter;stroke-opacity:1" d="M 513.868,105.974 522.026,105.974 z" id="boundary" inkscape:connector-curvature="0" />
	<path style="fill:none;stroke:red;stroke-width:1px;stroke-linecap:butt;stroke-linejoin:miter;stroke-opacity:1" d="M 517.947,184.289 526.105,184.289 z" id="boundary" inkscape:connector-curvature="0" />
	<path style="fill:none;stroke:red;stroke-width:1px;stroke-linecap:butt;stroke-linejoin:miter;stroke-opacity:1" d="M 522.026,105.974 530.184,105.974 z" id="boundary" inkscape:connector-curvature="0" />
	<path style="fill:none;stroke:red;stroke-width:1px;stroke-linecap:butt;stroke-linejoin:miter;stroke-opacity:1" d="M 526.105,184.289 534.263,184.289 z" id="boundary" inkscape:connector-curvature="0" />
	<path style="fill:none;stroke:red;stroke-width:1px;stroke-linecap:butt;stroke-linejoin:miter;stroke-opacity:1" d="M 530.184,105.974 538.342,105.974 z" id="boundary" inkscape:connector-curvature="0" />
	<path style="fill:none;stroke:red;stroke-width:1px;stroke-linecap:butt;stroke-linejoin:miter;stroke-opacity:1" d="M 534.263,184.289 542.421,184.289 z" id="boundary" inkscape:connector-curvature="0" />
	<path style="fill:none;stroke:red;stroke-width:1px;stroke-linecap:butt;stroke-linejoin:miter;stroke-opacity:1" d="M 538.342,105.974 546.5,105.974 z" id="boundary" inkscape:connector-curvature="0" />
	<path style="fill:none;stroke:red;stroke-width:1px;stroke-linecap:butt;stroke-linejoin:miter;stroke-opacity:1" d="M 542.421,184.289 550.579,184.289 z" id="boundary" inkscape:connector-curvature="0" />
	<path style="fill:none;stroke:red;stroke-width:1px;stroke-linecap:butt;stroke-linejoin:miter;stroke-opacity:1" d="M 546.5,105.974 554.658,105.974 z" id="boundary" inkscape:connector-curvature="0" />
	<path style="fill:none;stroke:red;stroke-width:1px;stroke-linecap:butt;stroke-linejoin:miter;stroke-opacity:1" d="M 550.579,184.289 558.737,184.289 z" id="boundary" inkscape:connector-curvature="0" />
	<path style="fill:none;stroke:red;stroke-width:1px;stroke-linecap:butt;stroke-linejoin:miter;stroke-opacity:1" d="M 554.658,105.974 562.816,105.974 z" id="boundary" inkscape:connector-curvature="0" />
	<path style="fill:none;stroke:red;stroke-width:1px;stroke-linecap:butt;stroke-linejoin:miter;stroke-opacity:1" d="M 558.737,184.289 566.895,184.289 z" id="boundary" inkscape:connector-curvature="0" />
	<path style="fill:none;stroke:red;stroke-width:1px;stroke-linecap:butt;stroke-linejoin:miter;stroke-opacity:1" d="M 562.816,105.974 570.974,105.974 z" id="boundary" inkscape:connector-curvature="0" />
	<path style="fill:none;stroke:red;stroke-width:1px;stroke-linecap:butt;stroke-linejoin:miter;stroke-opacity:1" d="M 566.895,184.289 575.053,184.289 z" id="boundary" inkscape:connector-curvature="0" />
	<path style="fill:none;stroke:red;stroke-width:1px;stroke-linecap:butt;stroke-linejoin:miter;stroke-opacity:1" d="M 570.974,105.974 579.132,105.974 z" id="boundary" inkscape:connector-curvature="0" />
	<path style="fill:none;stroke:red;stroke-width:1px;stroke-linecap:butt;stroke-linejoin:miter;stroke-opacity:1" d="M 575.053,184.289 583.211,184.289 z" id="boundary" inkscape:connector-curvature="0" />
	<path style="fill:none;stroke:red;stroke-width:1px;stroke-linecap:butt;stroke-linejoin:miter;stroke-opacity:1" d="M 579.132,105.974 587.289,105.974 z" id="boundary" inkscape:connector-curvature="0" />
	<path style="fill:none;stroke:red;stroke-width:1px;stroke-linecap:butt;stroke-linejoin:miter;stroke-opacity:1" d="M 583.211,184.289 591.368,184.289 z" id="boundary" inkscape:connector-curvature="0" />
	<path style="fill:none;stroke:red;stroke-width:1px;stroke-linecap:butt;stroke-linejoin:miter;stroke-opacity:1" d="M 587.289,105.974 595.447,105.974 z" id="boundary" inkscape:connector-curvature="0" />
	<path style="fill:none;stroke:red;stroke-width:1px;stroke-linecap:butt;stroke-linejoin:miter;stroke-opacity:1" d="M 591.368,184.289 599.526,184.289 z" id="boundary" inkscape:connector-curvature="0" />
	<path style="fill:none;stroke:red;stroke-width:1px;stroke-linecap:butt;stroke-linejoin:miter;stroke-opacity:1" d="M 595.447,105.974 603.605,105.974 z" id="boundary" inkscape:connector-curvature="0" />
	<path style="fill:none;stroke:red;stroke-width:1px;stroke-linecap:butt;stroke-linejoin:miter;stroke-opacity:1" d="M 599.526,184.289 607.684,184.289 z" id="boundary" inkscape:connector-curvature="0" />
	<path style="fill:none;stroke:red;stroke-width:1px;stroke-linecap:butt;stroke-linejoin:miter;stroke-opacity:1" d="M 603.605,105.974 611.763,105.974 z" id="boundary" inkscape:connector-curvature="0" />
	<path style="fill:none;stroke:red;stroke-width:1px;stroke-linecap:butt;stroke-linejoin:miter;stroke-opacity:1" d="M 607.684,184.289 615.842,184.289 z" id="boundary" inkscape:connector-curvature="0" />
	<path style="fill:none;stroke:red;stroke-width:1px;stroke-linecap:butt;stroke-linejoin:miter;stroke-opacity:1" d="M 611.763,105.974 619.921,105.974 z" id="boundary" inkscape:connector-curvature="0" />
	<path style="fill:none;stroke:red;stroke-width:1px;stroke-linecap:butt;stroke-linejoin:miter;stroke-opacity:1" d="M 615.842,184.289 624,184.289 z" id="boundary" inkscape:connector-curvature="0" />
	<path style="fill:none;stroke:red;stroke-width:1px;stroke-linecap:butt;stroke-linejoin:miter;stroke-opacity:1" d="M 619.921,105.974 628.079,105.974 z" id="boundary" inkscape:connector-curvature="0" />
	<path style="fill:none;stroke:red;stroke-width:1px;stroke-linecap:butt;stroke-linejoin:miter;stroke-opacity:1" d="M 624,184.289 632.158,184.289 z" id="boundary" inkscape:connector-curvature="0" />
	<path style="fill:none;stroke:red;stroke-width:1px;stroke-linecap:butt;stroke-linejoin:miter;stroke-opacity:1" d="M 628.079,105.974 635.421,101.895 z" id="boundary" inkscape:connector-curvature="0" />
	<path style="fill:none;stroke:red;stroke-width:1px;stroke-linecap:butt;stroke-linejoin:miter;stroke-opacity:1" d="M 632.158,184.289 640.316,184.289 z" id="boundary" inkscape:connector-curvature="0" />
	<path style="fill:none;stroke:red;stroke-width:1px;stroke-linecap:butt;stroke-linejoin:miter;stroke-opacity:1" d="M 635.421,101.895 643.579,101.895 z" id="boundary" inkscape:connector-curvature="0" />
	<path style="fill:none;stroke:red;stroke-width:1px;stroke-linecap:butt;stroke-linejoin:miter;stroke-opacity:1" d="M 640.316,184.289 647.658,180.211 z" id="boundary" inkscape:connector-curvature="0" />
	<path style="fill:none;stroke:red;stroke-width:1px;stroke-linecap:butt;stroke-linejoin:miter;stroke-opacity:1" d="M 643.579,101.895 651.737,101.895 z" id="boundary" inkscape:connector-curvature="0" />
	<path style="fill:none;stroke:red;stroke-width:1px;stroke-linecap:butt;stroke-linejoin:miter;stroke-opacity:1" d="M 647.658,180.211 655.816,180.211 z" id="boundary" inkscape:connector-curvature="0" />
	<path style="fill:none;stroke:red;stroke-width:1px;stroke-linecap:butt;stroke-linejoin:miter;stroke-opacity:1" d="M 651.737,101.895 659.895,101.895 z" id="boundary" inkscape:connector-curvature="0" />
	<path style="fill:none;stroke:red;stroke-width:1px;stroke-linecap:butt;stroke-linejoin:miter;stroke-opacity:1" d="M 655.816,180.211 663.974,180.211 z" id="boundary" inkscape:connector-curvature="0" />
	<path style="fill:none;stroke:red;stroke-width:1px;stroke-linecap:butt;stroke-linejoin:miter;stroke-opacity:1" d="M 659.895,101.895 668.053,101.895 z" id="boundary" inkscape:connector-curvature="0" />
	<path style="fill:none;stroke:red;stroke-width:1px;stroke-linecap:butt;stroke-linejoin:miter;stroke-opacity:1" d="M 663.974,180.211 672.132,180.211 z" id="boundary" inkscape:connector-curvature="0" />
	<path style="fill:none;stroke:red;stroke-width:1px;stroke-linecap:butt;stroke-linejoin:miter;stroke-opacity:1" d="M 668.053,101.895 675.395,97.8158 z" id="boundary" inkscape:connector-curvature="0" />
	<path style="fill:none;stroke:red;stroke-width:1px;stroke-linecap:butt;stroke-linejoin:miter;stroke-opacity:1" d="M 672.132,180.211 680.289,178.579 z" id="boundary" inkscape:connector-curvature="0" />
	<path style="fill:none;stroke:red;stroke-width:1px;stroke-linecap:butt;stroke-linejoin:miter;stroke-opacity:1" d="M 675.395,97.8158 683.553,97.8158 z" id="boundary" inkscape:connector-curvature="0" />
	<path style="fill:none;stroke:red;stroke-width:1px;stroke-linecap:butt;stroke-linejoin:miter;stroke-opacity:1" d="M 680.289,178.579 688.447,176.132 z" id="boundary" inkscape:connector-curvature="0" />
	<path style="fill:none;stroke:red;stroke-width:1px;stroke-linecap:butt;stroke-linejoin:miter;stroke-opacity:1" d="M 683.553,97.8158 691.711,97.8158 z" id="boundary" inkscape:connector-curvature="0" />
	<path style="fill:none;stroke:red;stroke-width:1px;stroke-linecap:butt;stroke-linejoin:miter;stroke-opacity:1" d="M 688.447,176.132 696.605,176.132 z" id="boundary" inkscape:connector-curvature="0" />
	<path style="fill:none;stroke:red;stroke-width:1px;stroke-linecap:butt;stroke-linejoin:miter;stroke-opacity:1" d="M 691.711,97.8158 699.868,97.8158 z" id="boundary" inkscape:connector-curvature="0" />
	<path style="fill:none;stroke:red;stroke-width:1px;stroke-linecap:butt;stroke-linejoin:miter;stroke-opacity:1" d="M 696.605,176.132 704.763,176.132 z" id="boundary" inkscape:connector-curvature="0" />
	<path style="fill:none;stroke:red;stroke-width:1px;stroke-linecap:butt;stroke-linejoin:miter;stroke-opacity:1" d="M 699.868,97.8158 708.026,97.8158 z" id="boundary" inkscape:connector-curvature="0" />
	<path style="fill:none;stroke:red;stroke-width:1px;stroke-linecap:butt;stroke-linejoin:miter;stroke-opacity:1" d="M 704.763,176.132 712.921,176.132 z" id="boundary" inkscape:connector-curvature="0" />
	<path style="fill:none;stroke:red;stroke-width:1px;stroke-linecap:butt;stroke-linejoin:miter;stroke-opacity:1" d="M 708.026,97.8158 715.368,93.7368 z" id="boundary" inkscape:connector-curvature="0" />
	<path style="fill:none;stroke:red;stroke-width:1px;stroke-linecap:butt;stroke-linejoin:miter;stroke-opacity:1" d="M 712.921,176.132 720.263,172.053 z" id="boundary" inkscape:connector-curvature="0" />
	<path style="fill:none;stroke:red;stroke-width:1px;stroke-linecap:butt;stroke-linejoin:miter;stroke-opacity:1" d="M 715.368,93.7368 723.526,93.7368 z" id="boundary" inkscape:connector-curvature="0" />
	<path style="fill:none;stroke:red;stroke-width:1px;stroke-linecap:butt;stroke-linejoin:miter;stroke-opacity:1" d="M 720.263,172.053 728.421,172.053 z" id="boundary" inkscape:connector-curvature="0" />
	<path style="fill:none;stroke:red;stroke-width:1px;stroke-linecap:butt;stroke-linejoin:miter;stroke-opacity:1" d="M 723.526,93.7368 731.684,93.7368 z" id="boundary" inkscape:connector-curvature="0" />
	<path style="fill:none;stroke:red;stroke-width:1px;stroke-linecap:butt;stroke-linejoin:miter;stroke-opacity:1" d="M 728.421,172.053 736.579,172.053 z" id="boundary" inkscape:connector-curvature="0" />
	<path style="fill:none;stroke:red;stroke-width:1px;stroke-linecap:butt;stroke-linejoin:miter;stroke-opacity:1" d="M 731.684,93.7368 739.842,93.7368 z" id="boundary" inkscape:connector-curvature="0" />
	<path style="fill:none;stroke:red;stroke-width:1px;stroke-linecap:butt;stroke-linejoin:miter;stroke-opacity:1" d="M 736.579,172.053 744.737,172.053 z" id="boundary" inkscape:connector-curvature="0" />
	<path style="fill:none;stroke:red;stroke-width:1px;stroke-linecap:butt;stroke-linejoin:miter;stroke-opacity:1" d="M 739.842,93.7368 748,90.4737 z" id="boundary" inkscape:connector-curvature="0" />
	<path style="fill:none;stroke:red;stroke-width:1px;stroke-linecap:butt;stroke-linejoin:miter;stroke-opacity:1" d="M 744.737,172.053 752.895,172.053 z" id="boundary" inkscape:connector-curvature="0" />
	<path style="fill:none;stroke:red;stroke-width:1px;stroke-linecap:butt;stroke-linejoin:miter;stroke-opacity:1" d="M 748,90.4737 756.158,89.6579 z" id="boundary" inkscape:connector-curvature="0" />
	<path style="fill:none;stroke:red;stroke-width:1px;stroke-linecap:butt;stroke-linejoin:miter;stroke-opacity:1" d="M 752.895,172.053 760.237,167.974 z" id="boundary" inkscape:connector-curvature="0" />
	<path style="fill:none;stroke:red;stroke-width:1px;stroke-linecap:butt;stroke-linejoin:miter;stroke-opacity:1" d="M 756.158,89.6579 764.316,89.6579 z" id="boundary" inkscape:connector-curvature="0" />
	<path style="fill:none;stroke:red;stroke-width:1px;stroke-linecap:butt;stroke-linejoin:miter;stroke-opacity:1" d="M 760.237,167.974 768.395,167.974 z" id="boundary" inkscape:connector-curvature="0" />
	<path style="fill:none;stroke:red;stroke-width:1px;stroke-linecap:butt;stroke-linejoin:miter;stroke-opacity:1" d="M 764.316,89.6579 772.474,89.6579 z" id="boundary" inkscape:connector-curvature="0" />
	<path style="fill:none;stroke:red;stroke-width:1px;stroke-linecap:butt;stroke-linejoin:miter;stroke-opacity:1" d="M 768.395,167.974 776.553,167.974 z" id="boundary" inkscape:connector-curvature="0" />
	<path style="fill:none;stroke:red;stroke-width:1px;stroke-linecap:butt;stroke-linejoin:miter;stroke-opacity:1" d="M 772.474,89.6579 780.632,89.6579 z" id="boundary" inkscape:connector-curvature="0" />
	<path style="fill:none;stroke:red;stroke-width:1px;stroke-linecap:butt;stroke-linejoin:miter;stroke-opacity:1" d="M 776.553,167.974 784.711,167.974 z" id="boundary" inkscape:connector-curvature="0" />
	<path style="fill:none;stroke:red;stroke-width:1px;stroke-linecap:butt;stroke-linejoin:miter;stroke-opacity:1" d="M 780.632,89.6579 787.974,85.5789 z" id="boundary" inkscape:connector-curvature="0" />
	<path style="fill:none;stroke:red;stroke-width:1px;stroke-linecap:butt;stroke-linejoin:miter;stroke-opacity:1" d="M 784.711,167.974 792.868,167.974 z" id="boundary" inkscape:connector-curvature="0" />
	<path style="fill:none;stroke:red;stroke-width:1px;stroke-linecap:butt;stroke-linejoin:miter;stroke-opacity:1" d="M 787.974,85.5789 796.132,85.5789 z" id="boundary" inkscape:connector-curvature="0" />
	<path style="fill:none;stroke:red;stroke-width:1px;stroke-linecap:butt;stroke-linejoin:miter;stroke-opacity:1" d="M 792.868,167.974 800.211,163.895 z" id="boundary" inkscape:connector-curvature="0" />
	<path style="fill:none;stroke:red;stroke-width:1px;stroke-linecap:butt;stroke-linejoin:miter;stroke-opacity:1" d="M 796.132,85.5789 804.289,83.1316 z" id="boundary" inkscape:connector-curvature="0" />
	<path style="fill:none;stroke:red;stroke-width:1px;stroke-linecap:butt;stroke-linejoin:miter;stroke-opacity:1" d="M 800.211,163.895 808.368,163.895 z" id="boundary" inkscape:connector-curvature="0" />
	<path style="fill:none;stroke:red;stroke-width:1px;stroke-linecap:butt;stroke-linejoin:miter;stroke-opacity:1" d="M 804.289,83.1316 812.447,81.5 z" id="boundary" inkscape:connector-curvature="0" />
	<path style="fill:none;stroke:red;stroke-width:1px;stroke-linecap:butt;stroke-linejoin:miter;stroke-opacity:1" d="M 808.368,163.895 815.711,159.816 z" id="boundary" inkscape:connector-curvature="0" />
	<path style="fill:none;stroke:red;stroke-width:1px;stroke-linecap:butt;stroke-linejoin:miter;stroke-opacity:1" d="M 812.447,81.5 820.605,81.5 z" id="boundary" inkscape:connector-curvature="0" />
	<path style="fill:none;stroke:red;stroke-width:1px;stroke-linecap:butt;stroke-linejoin:miter;stroke-opacity:1" d="M 815.711,159.816 823.868,159.816 z" id="boundary" inkscape:connector-curvature="0" />
	<path style="fill:none;stroke:red;stroke-width:1px;stroke-linecap:butt;stroke-linejoin:miter;stroke-opacity:1" d="M 820.605,81.5 827.947,77.4211 z" id="boundary" inkscape:connector-curvature="0" />
	<path style="fill:none;stroke:red;stroke-width:1px;stroke-linecap:butt;stroke-linejoin:miter;stroke-opacity:1" d="M 823.868,159.816 832.026,157.368 z" id="boundary" inkscape:connector-curvature="0" />
	<path style="fill:none;stroke:red;stroke-width:1px;stroke-linecap:butt;stroke-linejoin:miter;stroke-opacity:1" d="M 827.947,77.4211 836.105,77.4211 z" id="boundary" inkscape:connector-curvature="0" />
	<path style="fill:none;stroke:red;stroke-width:1px;stroke-linecap:butt;stroke-linejoin:miter;stroke-opacity:1" d="M 832.026,157.368 840.184,155.737 z" id="boundary" inkscape:connector-curvature="0" />
	<path style="fill:none;stroke:red;stroke-width:1px;stroke-linecap:butt;stroke-linejoin:miter;stroke-opacity:1" d="M 836.105,77.4211 843.447,73.3421 z" id="boundary" inkscape:connector-curvature="0" />
	<path style="fill:none;stroke:red;stroke-width:1px;stroke-linecap:butt;stroke-linejoin:miter;stroke-opacity:1" d="M 840.184,155.737 848.342,155.737 z" id="boundary" inkscape:connector-curvature="0" />
	<path style="fill:none;stroke:red;stroke-width:1px;stroke-linecap:butt;stroke-linejoin:miter;stroke-opacity:1" d="M 843.447,73.3421 851.605,73.3421 z" id="boundary" inkscape:connector-curvature="0" />
	<path style="fill:none;stroke:red;stroke-width:1px;stroke-linecap:butt;stroke-linejoin:miter;stroke-opacity:1" d="M 848.342,155.737 855.684,151.658 z" id="boundary" inkscape:connector-curvature="0" />
	<path style="fill:none;stroke:red;stroke-width:1px;stroke-linecap:butt;stroke-linejoin:miter;stroke-opacity:1" d="M 851.605,73.3421 859.763,73.3421 z" id="boundary" inkscape:connector-curvature="0" />
	<path style="fill:none;stroke:red;stroke-width:1px;stroke-linecap:butt;stroke-linejoin:miter;stroke-opacity:1" d="M 855.684,151.658 863.842,151.658 z" id="boundary" inkscape:connector-curvature="0" />
	<path style="fill:none;stroke:red;stroke-width:1px;stroke-linecap:butt;stroke-linejoin:miter;stroke-opacity:1" d="M 859.763,73.3421 867.105,69.2632 z" id="boundary" inkscape:connector-curvature="0" />
	<path style="fill:none;stroke:red;stroke-width:1px;stroke-linecap:butt;stroke-linejoin:miter;stroke-opacity:1" d="M 863.842,151.658 871.184,147.579 z" id="boundary" inkscape:connector-curvature="0" />
	<path style="fill:none;stroke:red;stroke-width:1px;stroke-linecap:butt;stroke-linejoin:miter;stroke-opacity:1" d="M 867.105,69.2632 875.263,69.2632 z" id="boundary" inkscape:connector-curvature="0" />
	<path style="fill:none;stroke:red;stroke-width:1px;stroke-linecap:butt;stroke-linejoin:miter;stroke-opacity:1" d="M 871.184,147.579 879.342,147.579 z" id="boundary" inkscape:connector-curvature="0" />
	<path style="fill:none;stroke:red;stroke-width:1px;stroke-linecap:butt;stroke-linejoin:miter;stroke-opacity:1" d="M 875.263,69.2632 882.605,65.1842 z" id="boundary" inkscape:connector-curvature="0" />
	<path style="fill:none;stroke:red;stroke-width:1px;stroke-linecap:butt;stroke-linejoin:miter;stroke-opacity:1" d="M 879.342,147.579 887.5,146.763 z" id="boundary" inkscape:connector-curvature="0" />
	<path style="fill:none;stroke:red;stroke-width:1px;stroke-linecap:butt;stroke-linejoin:miter;stroke-opacity:1" d="M 882.605,65.1842 890.763,65.1842 z" id="boundary" inkscape:connector-curvature="0" />
	<path style="fill:none;stroke:red;stroke-width:1px;stroke-linecap:butt;stroke-linejoin:miter;stroke-opacity:1" d="M 887.5,146.763 895.658,143.5 z" id="boundary" inkscape:connector-curvature="0" />
	<path style="fill:none;stroke:red;stroke-width:1px;stroke-linecap:butt;stroke-linejoin:miter;stroke-opacity:1" d="M 890.763,65.1842 898.921,61.9211 z" id="boundary" inkscape:connector-curvature="0" />
	<path style="fill:none;stroke:red;stroke-width:1px;stroke-linecap:butt;stroke-linejoin:miter;stroke-opacity:1" d="M 895.658,143.5 903.816,142.684 z" id="boundary" inkscape:connector-curvature="0" />
	<path style="fill:none;stroke:red;stroke-width:1px;stroke-linecap:butt;stroke-linejoin:miter;stroke-opacity:1" d="M 898.921,61.9211 907.079,61.1053 z" id="boundary" inkscape:connector-curvature="0" />
	<path style="fill:none;stroke:red;stroke-width:1px;stroke-linecap:butt;stroke-linejoin:miter;stroke-opacity:1" d="M 903.816,142.684 911.974,139.421 z" id="boundary" inkscape:connector-curvature="0" />
	<path style="fill:none;stroke:red;stroke-width:1px;stroke-linecap:butt;stroke-linejoin:miter;stroke-opacity:1" d="M 907.079,61.1053 915.237,57.8421 z" id="boundary" inkscape:connector-curvature="0" />
	<path style="fill:none;stroke:red;stroke-width:1px;stroke-linecap:butt;stroke-linejoin:miter;stroke-opacity:1" d="M 911.974,139.421 920.132,139.421 z" id="boundary" inkscape:connector-curvature="0" />
	<path style="fill:none;stroke:red;stroke-width:1px;stroke-linecap:butt;stroke-linejoin:miter;stroke-opacity:1" d="M 915.237,57.8421 923.395,57.0263 z" id="boundary" inkscape:connector-curvature="0" />
	<path style="fill:none;stroke:red;stroke-width:1px;stroke-linecap:butt;stroke-linejoin:miter;stroke-opacity:1" d="M 920.132,139.421 927.474,135.342 z" id="boundary" inkscape:connector-curvature="0" />
	<path style="fill:none;stroke:red;stroke-width:1px;stroke-linecap:butt;stroke-linejoin:miter;stroke-opacity:1" d="M 923.395,57.0263 929.921,51.3158 z" id="boundary" inkscape:connector-curvature="0" />
	<path style="fill:none;stroke:red;stroke-width:1px;stroke-linecap:butt;stroke-linejoin:miter;stroke-opacity:1" d="M 927.474,135.342 935.632,135.342 z" id="boundary" inkscape:connector-curvature="0" />
	<path style="fill:none;stroke:red;stroke-width:1px;stroke-linecap:butt;stroke-linejoin:miter;stroke-opacity:1" d="M 929.921,51.3158 936.447,44.7895 z" id="boundary" inkscape:connector-curvature="0" />
	<path style="fill:none;stroke:red;stroke-width:1px;stroke-linecap:butt;stroke-linejoin:miter;stroke-opacity:1" d="M 935.632,135.342 942.974,131.263 z" id="boundary" inkscape:connector-curvature="0" />
	<path style="fill:none;stroke:red;stroke-width:1px;stroke-linecap:butt;stroke-linejoin:miter;stroke-opacity:1" d="M 936.447,44.7895 944.605,40.7105 z" id="boundary" inkscape:connector-curvature="0" />
	<path style="fill:none;stroke:red;stroke-width:1px;stroke-linecap:butt;stroke-linejoin:miter;stroke-opacity:1" d="M 942.974,131.263 951.132,131.263 z" id="boundary" inkscape:connector-curvature="0" />
	<path style="fill:none;stroke:red;stroke-width:1px;stroke-linecap:butt;stroke-linejoin:miter;stroke-opacity:1" d="M 944.605,40.7105 952.763,40.7105 z" id="boundary" inkscape:connector-curvature="0" />
	<path style="fill:none;stroke:red;stroke-width:1px;stroke-linecap:butt;stroke-linejoin:miter;stroke-opacity:1" d="M 951.132,131.263 959.289,127.184 z" id="boundary" inkscape:connector-curvature="0" />
	<path style="fill:none;stroke:red;stroke-width:1px;stroke-linecap:butt;stroke-linejoin:miter;stroke-opacity:1" d="M 952.763,40.7105 960.921,40.7105 z" id="boundary" inkscape:connector-curvature="0" />
	<path style="fill:none;stroke:red;stroke-width:1px;stroke-linecap:butt;stroke-linejoin:miter;stroke-opacity:1" d="M 959.289,127.184 967.447,123.105 z" id="boundary" inkscape:connector-curvature="0" />
	<path style="fill:none;stroke:red;stroke-width:1px;stroke-linecap:butt;stroke-linejoin:miter;stroke-opacity:1" d="M 960.921,40.7105 969.079,40.7105 z" id="boundary" inkscape:connector-curvature="0" />
	<path style="fill:none;stroke:red;stroke-width:1px;stroke-linecap:butt;stroke-linejoin:miter;stroke-opacity:1" d="M 967.447,123.105 973.974,117.395 z" id="boundary" inkscape:connector-curvature="0" />
	<path style="fill:none;stroke:red;stroke-width:1px;stroke-linecap:butt;stroke-linejoin:miter;stroke-opacity:1" d="M 969.079,40.7105 976.421,44.7895 z" id="boundary" inkscape:connector-curvature="0" />
	<path style="fill:none;stroke:red;stroke-width:1px;stroke-linecap:butt;stroke-linejoin:miter;stroke-opacity:1" d="M 973.974,117.395 986.211,105.158 z" id="boundary" inkscape:connector-curvature="0" />
	<path style="fill:none;stroke:red;stroke-width:1px;stroke-linecap:butt;stroke-linejoin:miter;stroke-opacity:1" d="M 976.421,44.7895 982.947,50.5 z" id="boundary" inkscape:connector-curvature="0" />
	<path style="fill:none;stroke:red;stroke-width:1px;stroke-linecap:butt;stroke-linejoin:miter;stroke-opacity:1" d="M 982.947,50.5 991.921,64.3684 z" id="boundary" inkscape:connector-curvature="0" />
	<path style="fill:none;stroke:red;stroke-width:1px;stroke-linecap:butt;stroke-linejoin:miter;stroke-opacity:1" d="M 986.211,105.158 991.921,94.5526 z" id="boundary" inkscape:connector-curvature="0" />
	<path style="fill:none;stroke:red;stroke-width:1px;stroke-linecap:butt;stroke-linejoin:miter;stroke-opacity:1" d="M 991.921,64.3684 996,71.7105 z" id="boundary" inkscape:connector-curvature="0" />
	<path style="fill:none;stroke:red;stroke-width:1px;stroke-linecap:butt;stroke-linejoin:miter;stroke-opacity:1" d="M 991.921,94.5526 996,79.8684 z" id="boundary" inkscape:connector-curvature="0" />
	<path style="fill:none;stroke:red;stroke-width:1px;stroke-linecap:butt;stroke-linejoin:miter;stroke-opacity:1" d="M 996,71.7105 996,79.8684 z" id="boundary" inkscape:connector-curvature="0" />
	<circle cx="4" cy="141.053" r="4" fill="#0" id="circle0"/>
	<circle cx="4" cy="149.211" r="4" fill="#0" id="circle1"/>
	<circle cx="4" cy="157.368" r="4" fill="#0" id="circle2"/>
	<circle cx="4" cy="165.526" r="4" fill="#0" id="circle3"/>
	<circle cx="8.07895" cy="128.816" r="4" fill="#0" id="circle4"/>
	<circle cx="8.07895" cy="172.868" r="4" fill="#0" id="circle5"/>
	<circle cx="12.1579" cy="120.658" r="4" fill="#0" id="circle6"/>
	<circle cx="13.7895" cy="179.395" r="4" fill="#0" id="circle7"/>
	<circle cx="16.2368" cy="112.5" r="4" fill="#0" id="circle8"/>
	<circle cx="20.3158" cy="104.342" r="4" fill="#0" id="circle9"/>
	<circle cx="20.3158" cy="184.289" r="4" fill="#0" id="circle10"/>
	<circle cx="24.3947" cy="96.1842" r="4" fill="#0" id="circle11"/>
	<circle cx="27.6579" cy="188.368" r="4" fill="#0" id="circle12"/>
	<circle cx="28.4737" cy="88.0263" r="4" fill="#0" id="circle13"/>
	<circle cx="35" cy="81.5" r="4" fill="#0" id="circle14"/>
	<circle cx="35" cy="192.447" r="4" fill="#0" id="circle15"/>
	<circle cx="40.7105" cy="71.7105" r="4" fill="#0" id="circle16"/>
	<circle cx="43.1579" cy="192.447" r="4" fill="#0" id="circle17"/>
	<circle cx="47.2368" cy="65.1842" r="4" fill="#0" id="circle18"/>
	<circle cx="51.3158" cy="192.447" r="4" fill="#0" id="circle19"/>
	<circle cx="53.7632" cy="58.6579" r="4" fill="#0" id="circle20"/>
	<circle cx="58.6579" cy="188.368" r="4" fill="#0" id="circle21"/>
	<circle cx="60.2895" cy="52.9474" r="4" fill="#0" id="circle22"/>
	<circle cx="66" cy="46.4211" r="4" fill="#0" id="circle23"/>
	<circle cx="66.8158" cy="188.368" r="4" fill="#0" id="circle24"/>
	<circle cx="74.1579" cy="42.3421" r="4" fill="#0" id="circle25"/>
	<circle cx="74.9737" cy="188.368" r="4" fill="#0" id="circle26"/>
	<circle cx="80.6842" cy="36.6316" r="4" fill="#0" id="circle27"/>
	<circle cx="82.3158" cy="184.289" r="4" fill="#0" id="circle28"/>
	<circle cx="88.0263" cy="32.5526" r="4" fill="#0" id="circle29"/>
	<circle cx="90.4737" cy="184.289" r="4" fill="#0" id="circle30"/>
	<circle cx="94.5526" cy="26.0263" r="4" fill="#0" id="circle31"/>
	<circle cx="97.8158" cy="180.211" r="4" fill="#0" id="circle32"/>
	<circle cx="101.079" cy="20.3158" r="4" fill="#0" id="circle33"/>
	<circle cx="105.974" cy="180.211" r="4" fill="#0" id="circle34"/>
	<circle cx="108.421" cy="16.2368" r="4" fill="#0" id="circle35"/>
	<circle cx="113.316" cy="176.132" r="4" fill="#0" id="circle36"/>
	<circle cx="116.579" cy="16.2368" r="4" fill="#0" id="circle37"/>
	<circle cx="121.474" cy="176.132" r="4" fill="#0" id="circle38"/>
	<circle cx="124.737" cy="12.1579" r="4" fill="#0" id="circle39"/>
	<circle cx="129.632" cy="174.5" r="4" fill="#0" id="circle40"/>
	<circle cx="132.895" cy="12.1579" r="4" fill="#0" id="circle41"/>
	<circle cx="137.789" cy="172.053" r="4" fill="#0" id="circle42"/>
	<circle cx="141.053" cy="12.1579" r="4" fill="#0" id="circle43"/>
	<circle cx="145.947" cy="170.421" r="4" fill="#0" id="circle44"/>
	<circle cx="148.395" cy="8.07895" r="4" fill="#0" id="circle45"/>
	<circle cx="154.105" cy="167.974" r="4" fill="#0" id="circle46"/>
	<circle cx="156.553" cy="8.07895" r="4" fill="#0" id="circle47"/>
	<circle cx="162.263" cy="167.974" r="4" fill="#0" id="circle48"/>
	<circle cx="163.895" cy="4" r="4" fill="#0" id="circle49"/>
	<circle cx="170.421" cy="167.974" r="4" fill="#0" id="circle50"/>
	<circle cx="172.053" cy="4" r="4" fill="#0" id="circle51"/>
	<circle cx="178.579" cy="167.974" r="4" fill="#0" id="circle52"/>
	<circle cx="180.211" cy="4" r="4" fill="#0" id="circle53"/>
	<circle cx="185.921" cy="163.895" r="4" fill="#0" id="circle54"/>
	<circle cx="188.368" cy="4" r="4" fill="#0" id="circle55"/>
	<circle cx="194.079" cy="163.895" r="4" fill="#0" id="circle56"/>
	<circle cx="196.526" cy="4" r="4" fill="#0" id="circle57"/>
	<circle cx="202.237" cy="163.895" r="4" fill="#0" id="circle58"/>
	<circle cx="204.684" cy="4" r="4" fill="#0" id="circle59"/>
	<circle cx="210.395" cy="163.895" r="4" fill="#0" id="circle60"/>
	<circle cx="212.842" cy="4" r="4" fill="#0" id="circle61"/>
	<circle cx="218.553" cy="163.895" r="4" fill="#0" id="circle62"/>
	<circle cx="221" cy="4" r="4" fill="#0" id="circle63"/>
	<circle cx="226.711" cy="163.895" r="4" fill="#0" id="circle64"/>
	<circle cx="229.158" cy="4" r="4" fill="#0" id="circle65"/>
	<circle cx="234.868" cy="163.895" r="4" fill="#0" id="circle66"/>
	<circle cx="237.316" cy="4" r="4" fill="#0" id="circle67"/>
	<circle cx="243.026" cy="163.895" r="4" fill="#0" id="circle68"/>
	<circle cx="245.474" cy="6.44737" r="4" fill="#0" id="circle69"/>
	<circle cx="251.184" cy="163.895" r="4" fill="#0" id="circle70"/>
	<circle cx="253.632" cy="8.07895" r="4" fill="#0" id="circle71"/>
	<circle cx="259.342" cy="163.895" r="4" fill="#0" id="circle72"/>
	<circle cx="261.789" cy="8.07895" r="4" fill="#0" id="circle73"/>
	<circle cx="267.5" cy="163.895" r="4" fill="#0" id="circle74"/>
	<circle cx="269.132" cy="12.1579" r="4" fill="#0" id="circle75"/>
	<circle cx="275.658" cy="163.895" r="4" fill="#0" id="circle76"/>
	<circle cx="277.289" cy="12.1579" r="4" fill="#0" id="circle77"/>
	<circle cx="283.816" cy="163.895" r="4" fill="#0" id="circle78"/>
	<circle cx="284.632" cy="16.2368" r="4" fill="#0" id="circle79"/>
	<circle cx="291.974" cy="163.895" r="4" fill="#0" id="circle80"/>
	<circle cx="292.789" cy="16.2368" r="4" fill="#0" id="circle81"/>
	<circle cx="300.132" cy="163.895" r="4" fill="#0" id="circle82"/>
	<circle cx="300.947" cy="17.0526" r="4" fill="#0" id="circle83"/>
	<circle cx="308.289" cy="163.895" r="4" fill="#0" id="circle84"/>
	<circle cx="309.105" cy="20.3158" r="4" fill="#0" id="circle85"/>
	<circle cx="316.447" cy="163.895" r="4" fill="#0" id="circle86"/>
	<circle cx="317.263" cy="21.1316" r="4" fill="#0" id="circle87"/>
	<circle cx="324.605" cy="25.2105" r="4" fill="#0" id="circle88"/>
	<circle cx="324.605" cy="163.895" r="4" fill="#0" id="circle89"/>
	<circle cx="332.763" cy="28.4737" r="4" fill="#0" id="circle90"/>
	<circle cx="332.763" cy="167.158" r="4" fill="#0" id="circle91"/>
	<circle cx="340.105" cy="32.5526" r="4" fill="#0" id="circle92"/>
	<circle cx="340.921" cy="167.974" r="4" fill="#0" id="circle93"/>
	<circle cx="347.447" cy="36.6316" r="4" fill="#0" id="circle94"/>
	<circle cx="349.079" cy="167.974" r="4" fill="#0" id="circle95"/>
	<circle cx="355.605" cy="39.0789" r="4" fill="#0" id="circle96"/>
	<circle cx="357.237" cy="167.974" r="4" fill="#0" id="circle97"/>
	<circle cx="362.947" cy="43.1579" r="4" fill="#0" id="circle98"/>
	<circle cx="365.395" cy="167.974" r="4" fill="#0" id="circle99"/>
	<circle cx="369.474" cy="48.8684" r="4" fill="#0" id="circle100"/>
	<circle cx="372.737" cy="172.053" r="4" fill="#0" id="circle101"/>
	<circle cx="375.184" cy="55.3947" r="4" fill="#0" id="circle102"/>
	<circle cx="380.895" cy="172.053" r="4" fill="#0" id="circle103"/>
	<circle cx="381.711" cy="61.1053" r="4" fill="#0" id="circle104"/>
	<circle cx="389.053" cy="65.1842" r="4" fill="#0" id="circle105"/>
	<circle cx="389.053" cy="172.053" r="4" fill="#0" id="circle106"/>
	<circle cx="395.579" cy="70.8947" r="4" fill="#0" id="circle107"/>
	<circle cx="397.211" cy="172.053" r="4" fill="#0" id="circle108"/>
	<circle cx="400.474" cy="77.4211" r="4" fill="#0" id="circle109"/>
	<circle cx="405.368" cy="174.5" r="4" fill="#0" id="circle110"/>
	<circle cx="407" cy="82.3158" r="4" fill="#0" id="circle111"/>
	<circle cx="412.711" cy="88.8421" r="4" fill="#0" id="circle112"/>
	<circle cx="413.526" cy="176.132" r="4" fill="#0" id="circle113"/>
	<circle cx="416.789" cy="96.1842" r="4" fill="#0" id="circle114"/>
	<circle cx="421.684" cy="176.132" r="4" fill="#0" id="circle115"/>
	<circle cx="424.947" cy="97.8158" r="4" fill="#0" id="circle116"/>
	<circle cx="429.842" cy="176.132" r="4" fill="#0" id="circle117"/>
	<circle cx="433.105" cy="97.8158" r="4" fill="#0" id="circle118"/>
	<circle cx="438" cy="176.132" r="4" fill="#0" id="circle119"/>
	<circle cx="441.263" cy="97.8158" r="4" fill="#0" id="circle120"/>
	<circle cx="445.342" cy="180.211" r="4" fill="#0" id="circle121"/>
	<circle cx="449.421" cy="97.8158" r="4" fill="#0" id="circle122"/>
	<circle cx="453.5" cy="180.211" r="4" fill="#0" id="circle123"/>
	<circle cx="456.763" cy="101.895" r="4" fill="#0" id="circle124"/>
	<circle cx="461.658" cy="180.211" r="4" fill="#0" id="circle125"/>
	<circle cx="464.921" cy="101.895" r="4" fill="#0" id="circle126"/>
	<circle cx="469.816" cy="180.211" r="4" fill="#0" id="circle127"/>
	<circle cx="473.079" cy="101.895" r="4" fill="#0" id="circle128"/>
	<circle cx="477.974" cy="180.211" r="4" fill="#0" id="circle129"/>
	<circle cx="481.237" cy="101.895" r="4" fill="#0" id="circle130"/>
	<circle cx="485.316" cy="184.289" r="4" fill="#0" id="circle131"/>
	<circle cx="489.395" cy="103.526" r="4" fill="#0" id="circle132"/>
	<circle cx="493.474" cy="184.289" r="4" fill="#0" id="circle133"/>
	<circle cx="497.553" cy="105.974" r="4" fill="#0" id="circle134"/>
	<circle cx="501.632" cy="184.289" r="4" fill="#0" id="circle135"/>
	<circle cx="505.711" cy="105.974" r="4" fill="#0" id="circle136"/>
	<circle cx="509.789" cy="184.289" r="4" fill="#0" id="circle137"/>
	<circle cx="513.868" cy="105.974" r="4" fill="#0" id="circle138"/>
	<circle cx="517.947" cy="184.289" r="4" fill="#0" id="circle139"/>
	<circle cx="522.026" cy="105.974" r="4" fill="#0" id="circle140"/>
	<circle cx="526.105" cy="184.289" r="4" fill="#0" id="circle141"/>
	<circle cx="530.184" cy="105.974" r="4" fill="#0" id="circle142"/>
	<circle cx="534.263" cy="184.289" r="4" fill="#0" id="circle143"/>
	<circle cx="538.342" cy="105.974" r="4" fill="#0" id="circle144"/>
	<circle cx="542.421" cy="184.289" r="4" fill="#0" id="circle145"/>
	<circle cx="546.5" cy="105.974" r="4" fill="#0" id="circle146"/>
	<circle cx="550.579" cy="184.289" r="4" fill="#0" id="circle147"/>
	<circle cx="554.658" cy="105.974" r="4" fill="#0" id="circle148"/>
	<circle cx="558.737" cy="184.289" r="4" fill="#0" id="circle149"/>
	<circle cx="562.816" cy="105.974" r="4" fill="#0" id="circle150"/>
	<circle cx="566.895" cy="184.289" r="4" fill="#0" id="circle151"/>
	<circle cx="570.974" cy="105.974" r="4" fill="#0" id="circle152"/>
	<circle cx="575.053" cy="184.289" r="4" fill="#0" id="circle153"/>
	<circle cx="579.132" cy="105.974" r="4" fill="#0" id="circle154"/>
	<circle cx="583.211" cy="184.289" r="4" fill="#0" id="circle155"/>
	<circle cx="587.289" cy="105.974" r="4" fill="#0" id="circle156"/>
	<circle cx="591.368" cy="184.289" r="4" fill="#0" id="circle157"/>
	<circle cx="595.447" cy="105.974" r="4" fill="#0" id="circle158"/>
	<circle cx="599.526" cy="184.289" r="4" fill="#0" id="circle159"/>
	<circle cx="603.605" cy="105.974" r="4" fill="#0" id="circle160"/>
	<circle cx="607.684" cy="184.289" r="4" fill="#0" id="circle161"/>
	<circle cx="611.763" cy="105.974" r="4" fill="#0" id="circle162"/>
	<circle cx="615.842" cy="184.289" r="4" fill="#0" id="circle163"/>
	<circle cx="619.921" cy="105.974" r="4" fill="#0" id="circle164"/>
	<circle cx="624" cy="184.289" r="4" fill="#0" id="circle165"/>
	<circle cx="628.079" cy="105.974" r="4" fill="#0" id="circle166"/>
	<circle cx="632.158" cy="184.289" r="4" fill="#0" id="circle167"/>
	<circle cx="635.421" cy="101.895" r="4" fill="#0" id="circle168"/>
	<circle cx="640.316" cy="184.289" r="4" fill="#0" id="circle169"/>
	<circle cx="643.579" cy="101.895" r="4" fill="#0" id="circle170"/>
	<circle cx="647.658" cy="180.211" r="4" fill="#0" id="circle171"/>
	<circle cx="651.737" cy="101.895" r="4" fill="#0" id="circle172"/>
	<circle cx="655.816" cy="180.211" r="4" fill="#0" id="circle173"/>
	<circle cx="659.895" cy="101.895" r="4" fill="#0" id="circle174"/>
	<circle cx="663.974" cy="180.211" r="4" fill="#0" id="circle175"/>
	<circle cx="668.053" cy="101.895" r="4" fill="#0" id="circle176"/>
	<circle cx="672.132" cy="180.211" r="4" fill="#0" id="circle177"/>
	<circle cx="675.395" cy="97.8158" r="4" fill="#0" id="circle178"/>
	<circle cx="680.289" cy="178.579" r="4" fill="#0" id="circle179"/>
	<circle cx="683.553" cy="97.8158" r="4" fill="#0" id="circle180"/>
	<circle cx="688.447" cy="176.132" r="4" fill="#0" id="circle181"/>
	<circle cx="691.711" cy="97.8158" r="4" fill="#0" id="circle182"/>
	<circle cx="696.605" cy="176.132" r="4" fill="#0" id="circle183"/>
	<circle cx="699.868" cy="97.8158" r="4" fill="#0" id="circle184"/>
	<circle cx="704.763" cy="176.132" r="4" fill="#0" id="circle185"/>
	<circle cx="708.026" cy="97.8158" r="4" fill="#0" id="circle186"/>
	<circle cx="712.921" cy="176.132" r="4" fill="#0" id="circle187"/>
	<circle cx="715.368" cy="93.7368" r="4" fill="#0" id="circle188"/>
	<circle cx="720.263" cy="172.053" r="4" fill="#0" id="circle189"/>
	<circle cx="723.526" cy="93.7368" r="4" fill="#0" id="circle190"/>
	<circle cx="728.421" cy="172.053" r="4" fill="#0" id="circle191"/>
	<circle cx="731.684" cy="93.7368" r="4" fill="#0" id="circle192"/>
	<circle cx="736.579" cy="172.053" r="4" fill="#0" id="circle193"/>
	<circle cx="739.842" cy="93.7368" r="4" fill="#0" id="circle194"/>
	<circle cx="744.737" cy="172.053" r="4" fill="#0" id="circle195"/>
	<circle cx="748" cy="90.4737" r="4" fill="#0" id="circle196"/>
	<circle cx="752.895" cy="172.053" r="4" fill="#0" id="circle197"/>
	<circle cx="756.158" cy="89.6579" r="4" fill="#0" id="circle198"/>
	<circle cx="760.237" cy="167.974" r="4" fill="#0" id="circle199"/>
	<circle cx="764.316" cy="89.6579" r="4" fill="#0" id="circle200"/>
	<circle cx="768.395" cy="167.974" r="4" fill="#0" id="circle201"/>
	<circle cx="772.474" cy="89.6579" r="4" fill="#0" id="circle202"/>
	<circle cx="776.553" cy="167.974" r="4" fill="#0" id="circle203"/>
	<circle cx="780.632" cy="89.6579" r="4" fill="#0" id="circle204"/>
	<circle cx="784.711" cy="167.974" r="4" fill="#0" id="circle205"/>
	<circle cx="787.974" cy="85.5789" r="4" fill="#0" id="circle206"/>
	<circle cx="792.868" cy="167.974" r="4" fill="#0" id="circle207"/>
	<circle cx="796.132" cy="85.5789" r="4" fill="#0" id="circle208"/>
	<circle cx="800.211" cy="163.895" r="4" fill="#0" id="circle209"/>
	<circle cx="804.289" cy="83.1316" r="4" fill="#0" id="circle210"/>
	<circle cx="808.368" cy="163.895" r="4" fill="#0" id="circle211"/>
	<circle cx="812.447" cy="81.5" r="4" fill="#0" id="circle212"/>
	<circle cx="815.711" cy="159.816" r="4" fill="#0" id="circle213"/>
	<circle cx="820.605" cy="81.5" r="4" fill="#0" id="circle214"/>
	<circle cx="823.868" cy="159.816" r="4" fill="#0" id="circle215"/>
	<circle cx="827.947" cy="77.4211" r="4" fill="#0" id="circle216"/>
	<circle cx="832.026" cy="157.368" r="4" fill="#0" id="circle217"/>
	<circle cx="836.105" cy="77.4211" r="4" fill="#0" id="circle218"/>
	<circle cx="840.184" cy="155.737" r="4" fill="#0" id="circle219"/>
	<circle cx="843.447" cy="73.3421" r="4" fill="#0" id="circle220"/>
	<circle cx="848.342" cy="155.737" r="4" fill="#0" id="circle221"/>
	<circle cx="851.605" cy="73.3421" r="4" fill="#0" id="circle222"/>
	<circle cx="855.684" cy="151.658" r="4" fill="#0" id="circle223"/>
	<circle cx="859.763" cy="73.3421" r="4" fill="#0" id="circle224"/>
	<circle cx="863.842" cy="151.658" r="4" fill="#0" id="circle225"/>
	<circle cx="867.105" cy="69.2632" r="4" fill="#0" id="circle226"/>
	<circle cx="871.184" cy="147.579" r="4" fill="#0" id="circle227"/>
	<circle cx="875.263" cy="69.2632" r="4" fill="#0" id="circle228"/>
	<circle cx="879.342" cy="147.579" r="4" fill="#0" id="circle229"/>
	<circle cx="882.605" cy="65.1842" r="4" fill="#0" id="circle230"/>
	<circle cx="887.5" cy="146.763" r="4" fill="#0" id="circle231"/>
	<circle cx="890.763" cy="65.1842" r="4" fill="#0" id="circle232"/>
	<circle cx="895.658" cy="143.5" r="4" fill="#0" id="circle233"/>
	<circle cx="898.921" cy="61.9211" r="4" fill="#0" id="circle234"/>
	<circle cx="903.816" cy="142.684" r="4" fill="#0" id="circle235"/>
	<circle cx="907.079" cy="61.1053" r="4" fill="#0" id="circle236"/>
	<circle cx="911.974" cy="139.421" r="4" fill="#0" id="circle237"/>
	<circle cx="915.237" cy="57.8421" r="4" fill="#0" id="circle238"/>
	<circle cx="920.132" cy="139.421" r="4" fill="#0" id="circle239"/>
	<circle cx="923.395" cy="57.0263" r="4" fill="#0" id="circle240"/>
	<circle cx="927.474" cy="135.342" r="4" fill="#0" id="circle241"/>
	<circle cx="929.921" cy="51.3158" r="4" fill="#0" id="circle242"/>
	<circle cx="935.632" cy="135.342" r="4" fill="#0" id="circle243"/>
	<circle cx="936.447" cy="44.7895" r="4" fill="#0" id="circle244"/>
	<circle cx="942.974" cy="131.263" r="4" fill="#0" id="circle245"/>
	<circle cx="944.605" cy="40.7105" r="4" fill="#0" id="circle246"/>
	<circle cx="951.132" cy="131.263" r="4" fill="#0" id="circle247"/>
	<circle cx="952.763" cy="40.7105" r="4" fill="#0" id="circle248"/>
	<circle cx="959.289" cy="127.184" r="4" fill="#0" id="circle249"/>
	<circle cx="960.921" cy="40.7105" r="4" fill="#0" id="circle250"/>
	<circle cx="967.447" cy="123.105" r="4" fill="#0" id="circle251"/>
	<circle cx="969.079" cy="40.7105" r="4" fill="#0" id="circle252"/>
	<circle cx="973.974" cy="117.395" r="4" fill="#0" id="circle253"/>
	<circle cx="976.421" cy="44.7895" r="4" fill="#0" id="circle254"/>
	<circle cx="979.684" cy="110.868" r="4" fill="#0" id="circle255"/>
	<circle cx="982.947" cy="50.5" r="4" fill="#0" id="circle256"/>
	<circle cx="986.211" cy="105.158" r="4" fill="#0" id="circle257"/>
	<circle cx="987.842" cy="57.0263" r="4" fill="#0" id="circle258"/>
	<circle cx="991.921" cy="64.3684" r="4" fill="#0" id="circle259"/>
	<circle cx="991.921" cy="94.5526" r="4" fill="#0" id="circle260"/>
	<circle cx="996" cy="71.7105" r="4" fill="#0" id="circle261"/>
	<circle cx="996" cy="79.8684" r="4" fill="#0" id="circle262"/>
	</g>
</svg>