<?xml version="1.0" encoding="UTF-8" standalone="no"?>
<!-- Created with CurveBenchmark -->
<svg
	xmlns:dc="http://purl.org/dc/elements/1.1/"
	xmlns:cc="http://creativecommons.org/ns#"
	xmlns:rdf="http://www.w3.org/1999/02/22-rdf-syntax-ns#"
	xmlns:svg="http://www.w3.org/2000/svg"
	xmlns="http://www.w3.org/2000/svg"
	xmlns:sodipodi="http://sodipodi.sourceforge.net/DTD/sodipodi-0.dtd"
	xmlns:inkscape="http://www.inkscape.org/namespaces/inkscape"
	width="1000"
	height="1000"
	id="svg2"
	version="1.1"
	sodipodi:docname="manifold/vicur-fork10.png.txt">
<defs
	id="defs4" />
<metadata
	id="metadata7">
	<rdf:RDF>
		<cc:Work
			rdf:about="">
			<dc:format>image/svg+xml</dc:format>
			<dc:type
				rdf:resource="http://purl.org/dc/dcmitype/StillImage" />
			<dc:title></dc:title>
		</cc:Work>
	</rdf:RDF>
</metadata>
<g
	inkscape:label="Layer 1"
	inkscape:groupmode="layer"
	id="layer1">
	<path style="fill:none;stroke:red;stroke-width:1px;stroke-linecap:butt;stroke-linejoin:miter;stroke-opacity:1" d="M 4,370.728 13.1682,387.231 z" id="boundary" inkscape:connector-curvature="0" />
	<path style="fill:none;stroke:red;stroke-width:1px;stroke-linecap:butt;stroke-linejoin:miter;stroke-opacity:1" d="M 4,370.728 18.6691,356.059 z" id="boundary" inkscape:connector-curvature="0" />
	<path style="fill:none;stroke:red;stroke-width:1px;stroke-linecap:butt;stroke-linejoin:miter;stroke-opacity:1" d="M 13.1682,387.231 31.5046,389.065 z" id="boundary" inkscape:connector-curvature="0" />
	<path style="fill:none;stroke:red;stroke-width:1px;stroke-linecap:butt;stroke-linejoin:miter;stroke-opacity:1" d="M 18.6691,356.059 37.0055,346.891 z" id="boundary" inkscape:connector-curvature="0" />
	<path style="fill:none;stroke:red;stroke-width:1px;stroke-linecap:butt;stroke-linejoin:miter;stroke-opacity:1" d="M 31.5046,389.065 49.841,394.566 z" id="boundary" inkscape:connector-curvature="0" />
	<path style="fill:none;stroke:red;stroke-width:1px;stroke-linecap:butt;stroke-linejoin:miter;stroke-opacity:1" d="M 37.0055,346.891 53.5083,356.059 z" id="boundary" inkscape:connector-curvature="0" />
	<path style="fill:none;stroke:red;stroke-width:1px;stroke-linecap:butt;stroke-linejoin:miter;stroke-opacity:1" d="M 49.841,394.566 68.1774,394.566 z" id="boundary" inkscape:connector-curvature="0" />
	<path style="fill:none;stroke:red;stroke-width:1px;stroke-linecap:butt;stroke-linejoin:miter;stroke-opacity:1" d="M 53.5083,356.059 71.8447,348.725 z" id="boundary" inkscape:connector-curvature="0" />
	<path style="fill:none;stroke:red;stroke-width:1px;stroke-linecap:butt;stroke-linejoin:miter;stroke-opacity:1" d="M 59.0092,13.1682 59.0092,31.5046 z" id="boundary" inkscape:connector-curvature="0" />
	<path style="fill:none;stroke:red;stroke-width:1px;stroke-linecap:butt;stroke-linejoin:miter;stroke-opacity:1" d="M 59.0092,13.1682 77.3457,4 z" id="boundary" inkscape:connector-curvature="0" />
	<path style="fill:none;stroke:red;stroke-width:1px;stroke-linecap:butt;stroke-linejoin:miter;stroke-opacity:1" d="M 59.0092,31.5046 73.6784,44.3401 z" id="boundary" inkscape:connector-curvature="0" />
	<path style="fill:none;stroke:red;stroke-width:1px;stroke-linecap:butt;stroke-linejoin:miter;stroke-opacity:1" d="M 68.1774,394.566 86.5139,394.566 z" id="boundary" inkscape:connector-curvature="0" />
	<path style="fill:none;stroke:red;stroke-width:1px;stroke-linecap:butt;stroke-linejoin:miter;stroke-opacity:1" d="M 71.8447,348.725 90.1811,356.059 z" id="boundary" inkscape:connector-curvature="0" />
	<path style="fill:none;stroke:red;stroke-width:1px;stroke-linecap:butt;stroke-linejoin:miter;stroke-opacity:1" d="M 73.6784,44.3401 92.0148,37.0055 z" id="boundary" inkscape:connector-curvature="0" />
	<path style="fill:none;stroke:red;stroke-width:1px;stroke-linecap:butt;stroke-linejoin:miter;stroke-opacity:1" d="M 77.3457,4 95.6821,4 z" id="boundary" inkscape:connector-curvature="0" />
	<path style="fill:none;stroke:red;stroke-width:1px;stroke-linecap:butt;stroke-linejoin:miter;stroke-opacity:1" d="M 86.5139,394.566 104.85,394.566 z" id="boundary" inkscape:connector-curvature="0" />
	<path style="fill:none;stroke:red;stroke-width:1px;stroke-linecap:butt;stroke-linejoin:miter;stroke-opacity:1" d="M 90.1811,356.059 108.518,356.059 z" id="boundary" inkscape:connector-curvature="0" />
	<path style="fill:none;stroke:red;stroke-width:1px;stroke-linecap:butt;stroke-linejoin:miter;stroke-opacity:1" d="M 92.0148,37.0055 108.518,46.1738 z" id="boundary" inkscape:connector-curvature="0" />
	<path style="fill:none;stroke:red;stroke-width:1px;stroke-linecap:butt;stroke-linejoin:miter;stroke-opacity:1" d="M 95.6821,4 114.018,4 z" id="boundary" inkscape:connector-curvature="0" />
	<path style="fill:none;stroke:red;stroke-width:1px;stroke-linecap:butt;stroke-linejoin:miter;stroke-opacity:1" d="M 95.6821,251.542 104.85,268.044 z" id="boundary" inkscape:connector-curvature="0" />
	<path style="fill:none;stroke:red;stroke-width:1px;stroke-linecap:butt;stroke-linejoin:miter;stroke-opacity:1" d="M 95.6821,251.542 114.018,242.373 z" id="boundary" inkscape:connector-curvature="0" />
	<path style="fill:none;stroke:red;stroke-width:1px;stroke-linecap:butt;stroke-linejoin:miter;stroke-opacity:1" d="M 104.85,187.364 114.018,203.867 z" id="boundary" inkscape:connector-curvature="0" />
	<path style="fill:none;stroke:red;stroke-width:1px;stroke-linecap:butt;stroke-linejoin:miter;stroke-opacity:1" d="M 104.85,187.364 123.187,178.196 z" id="boundary" inkscape:connector-curvature="0" />
	<path style="fill:none;stroke:red;stroke-width:1px;stroke-linecap:butt;stroke-linejoin:miter;stroke-opacity:1" d="M 104.85,268.044 117.686,282.713 z" id="boundary" inkscape:connector-curvature="0" />
	<path style="fill:none;stroke:red;stroke-width:1px;stroke-linecap:butt;stroke-linejoin:miter;stroke-opacity:1" d="M 104.85,394.566 123.187,394.566 z" id="boundary" inkscape:connector-curvature="0" />
	<path style="fill:none;stroke:red;stroke-width:1px;stroke-linecap:butt;stroke-linejoin:miter;stroke-opacity:1" d="M 108.518,46.1738 126.854,46.1738 z" id="boundary" inkscape:connector-curvature="0" />
	<path style="fill:none;stroke:red;stroke-width:1px;stroke-linecap:butt;stroke-linejoin:miter;stroke-opacity:1" d="M 108.518,356.059 126.854,356.059 z" id="boundary" inkscape:connector-curvature="0" />
	<path style="fill:none;stroke:red;stroke-width:1px;stroke-linecap:butt;stroke-linejoin:miter;stroke-opacity:1" d="M 114.018,4 132.355,7.66728 z" id="boundary" inkscape:connector-curvature="0" />
	<path style="fill:none;stroke:red;stroke-width:1px;stroke-linecap:butt;stroke-linejoin:miter;stroke-opacity:1" d="M 114.018,203.867 126.854,218.536 z" id="boundary" inkscape:connector-curvature="0" />
	<path style="fill:none;stroke:red;stroke-width:1px;stroke-linecap:butt;stroke-linejoin:miter;stroke-opacity:1" d="M 114.018,242.373 132.355,240.54 z" id="boundary" inkscape:connector-curvature="0" />
	<path style="fill:none;stroke:red;stroke-width:1px;stroke-linecap:butt;stroke-linejoin:miter;stroke-opacity:1" d="M 117.686,282.713 136.022,275.379 z" id="boundary" inkscape:connector-curvature="0" />
	<path style="fill:none;stroke:red;stroke-width:1px;stroke-linecap:butt;stroke-linejoin:miter;stroke-opacity:1" d="M 123.187,178.196 141.523,176.362 z" id="boundary" inkscape:connector-curvature="0" />
	<path style="fill:none;stroke:red;stroke-width:1px;stroke-linecap:butt;stroke-linejoin:miter;stroke-opacity:1" d="M 123.187,394.566 141.523,398.233 z" id="boundary" inkscape:connector-curvature="0" />
	<path style="fill:none;stroke:red;stroke-width:1px;stroke-linecap:butt;stroke-linejoin:miter;stroke-opacity:1" d="M 126.854,46.1738 145.19,46.1738 z" id="boundary" inkscape:connector-curvature="0" />
	<path style="fill:none;stroke:red;stroke-width:1px;stroke-linecap:butt;stroke-linejoin:miter;stroke-opacity:1" d="M 126.854,218.536 145.19,216.702 z" id="boundary" inkscape:connector-curvature="0" />
	<path style="fill:none;stroke:red;stroke-width:1px;stroke-linecap:butt;stroke-linejoin:miter;stroke-opacity:1" d="M 126.854,356.059 145.19,356.059 z" id="boundary" inkscape:connector-curvature="0" />
	<path style="fill:none;stroke:red;stroke-width:1px;stroke-linecap:butt;stroke-linejoin:miter;stroke-opacity:1" d="M 132.355,7.66728 150.691,4 z" id="boundary" inkscape:connector-curvature="0" />
	<path style="fill:none;stroke:red;stroke-width:1px;stroke-linecap:butt;stroke-linejoin:miter;stroke-opacity:1" d="M 132.355,104.85 132.355,123.187 z" id="boundary" inkscape:connector-curvature="0" />
	<path style="fill:none;stroke:red;stroke-width:1px;stroke-linecap:butt;stroke-linejoin:miter;stroke-opacity:1" d="M 132.355,104.85 147.024,90.1811 z" id="boundary" inkscape:connector-curvature="0" />
	<path style="fill:none;stroke:red;stroke-width:1px;stroke-linecap:butt;stroke-linejoin:miter;stroke-opacity:1" d="M 132.355,123.187 147.024,136.022 z" id="boundary" inkscape:connector-curvature="0" />
	<path style="fill:none;stroke:red;stroke-width:1px;stroke-linecap:butt;stroke-linejoin:miter;stroke-opacity:1" d="M 132.355,240.54 150.691,240.54 z" id="boundary" inkscape:connector-curvature="0" />
	<path style="fill:none;stroke:red;stroke-width:1px;stroke-linecap:butt;stroke-linejoin:miter;stroke-opacity:1" d="M 136.022,275.379 152.525,284.547 z" id="boundary" inkscape:connector-curvature="0" />
	<path style="fill:none;stroke:red;stroke-width:1px;stroke-linecap:butt;stroke-linejoin:miter;stroke-opacity:1" d="M 141.523,176.362 159.86,181.863 z" id="boundary" inkscape:connector-curvature="0" />
	<path style="fill:none;stroke:red;stroke-width:1px;stroke-linecap:butt;stroke-linejoin:miter;stroke-opacity:1" d="M 141.523,398.233 159.86,403.734 z" id="boundary" inkscape:connector-curvature="0" />
	<path style="fill:none;stroke:red;stroke-width:1px;stroke-linecap:butt;stroke-linejoin:miter;stroke-opacity:1" d="M 145.19,46.1738 163.527,46.1738 z" id="boundary" inkscape:connector-curvature="0" />
	<path style="fill:none;stroke:red;stroke-width:1px;stroke-linecap:butt;stroke-linejoin:miter;stroke-opacity:1" d="M 145.19,216.702 163.527,220.37 z" id="boundary" inkscape:connector-curvature="0" />
	<path style="fill:none;stroke:red;stroke-width:1px;stroke-linecap:butt;stroke-linejoin:miter;stroke-opacity:1" d="M 145.19,356.059 161.693,365.227 z" id="boundary" inkscape:connector-curvature="0" />
	<path style="fill:none;stroke:red;stroke-width:1px;stroke-linecap:butt;stroke-linejoin:miter;stroke-opacity:1" d="M 147.024,90.1811 163.527,99.3494 z" id="boundary" inkscape:connector-curvature="0" />
	<path style="fill:none;stroke:red;stroke-width:1px;stroke-linecap:butt;stroke-linejoin:miter;stroke-opacity:1" d="M 147.024,136.022 165.36,137.856 z" id="boundary" inkscape:connector-curvature="0" />
	<path style="fill:none;stroke:red;stroke-width:1px;stroke-linecap:butt;stroke-linejoin:miter;stroke-opacity:1" d="M 150.691,4 169.028,4 z" id="boundary" inkscape:connector-curvature="0" />
	<path style="fill:none;stroke:red;stroke-width:1px;stroke-linecap:butt;stroke-linejoin:miter;stroke-opacity:1" d="M 150.691,240.54 169.028,240.54 z" id="boundary" inkscape:connector-curvature="0" />
	<path style="fill:none;stroke:red;stroke-width:1px;stroke-linecap:butt;stroke-linejoin:miter;stroke-opacity:1" d="M 152.525,284.547 170.861,284.547 z" id="boundary" inkscape:connector-curvature="0" />
	<path style="fill:none;stroke:red;stroke-width:1px;stroke-linecap:butt;stroke-linejoin:miter;stroke-opacity:1" d="M 159.86,181.863 176.362,172.695 z" id="boundary" inkscape:connector-curvature="0" />
	<path style="fill:none;stroke:red;stroke-width:1px;stroke-linecap:butt;stroke-linejoin:miter;stroke-opacity:1" d="M 159.86,403.734 178.196,403.734 z" id="boundary" inkscape:connector-curvature="0" />
	<path style="fill:none;stroke:red;stroke-width:1px;stroke-linecap:butt;stroke-linejoin:miter;stroke-opacity:1" d="M 161.693,365.227 180.03,359.726 z" id="boundary" inkscape:connector-curvature="0" />
	<path style="fill:none;stroke:red;stroke-width:1px;stroke-linecap:butt;stroke-linejoin:miter;stroke-opacity:1" d="M 163.527,46.1738 181.863,46.1738 z" id="boundary" inkscape:connector-curvature="0" />
	<path style="fill:none;stroke:red;stroke-width:1px;stroke-linecap:butt;stroke-linejoin:miter;stroke-opacity:1" d="M 163.527,99.3494 181.863,99.3494 z" id="boundary" inkscape:connector-curvature="0" />
	<path style="fill:none;stroke:red;stroke-width:1px;stroke-linecap:butt;stroke-linejoin:miter;stroke-opacity:1" d="M 163.527,220.37 181.863,220.37 z" id="boundary" inkscape:connector-curvature="0" />
	<path style="fill:none;stroke:red;stroke-width:1px;stroke-linecap:butt;stroke-linejoin:miter;stroke-opacity:1" d="M 165.36,137.856 183.697,137.856 z" id="boundary" inkscape:connector-curvature="0" />
	<path style="fill:none;stroke:red;stroke-width:1px;stroke-linecap:butt;stroke-linejoin:miter;stroke-opacity:1" d="M 169.028,4 187.364,7.66728 z" id="boundary" inkscape:connector-curvature="0" />
	<path style="fill:none;stroke:red;stroke-width:1px;stroke-linecap:butt;stroke-linejoin:miter;stroke-opacity:1" d="M 169.028,240.54 191.031,236.872 z" id="boundary" inkscape:connector-curvature="0" />
	<path style="fill:none;stroke:red;stroke-width:1px;stroke-linecap:butt;stroke-linejoin:miter;stroke-opacity:1" d="M 170.861,284.547 189.198,284.547 z" id="boundary" inkscape:connector-curvature="0" />
	<path style="fill:none;stroke:red;stroke-width:1px;stroke-linecap:butt;stroke-linejoin:miter;stroke-opacity:1" d="M 176.362,172.695 194.699,172.695 z" id="boundary" inkscape:connector-curvature="0" />
	<path style="fill:none;stroke:red;stroke-width:1px;stroke-linecap:butt;stroke-linejoin:miter;stroke-opacity:1" d="M 178.196,403.734 196.532,403.734 z" id="boundary" inkscape:connector-curvature="0" />
	<path style="fill:none;stroke:red;stroke-width:1px;stroke-linecap:butt;stroke-linejoin:miter;stroke-opacity:1" d="M 180.03,359.726 198.366,365.227 z" id="boundary" inkscape:connector-curvature="0" />
	<path style="fill:none;stroke:red;stroke-width:1px;stroke-linecap:butt;stroke-linejoin:miter;stroke-opacity:1" d="M 181.863,46.1738 200.2,46.1738 z" id="boundary" inkscape:connector-curvature="0" />
	<path style="fill:none;stroke:red;stroke-width:1px;stroke-linecap:butt;stroke-linejoin:miter;stroke-opacity:1" d="M 181.863,99.3494 200.2,99.3494 z" id="boundary" inkscape:connector-curvature="0" />
	<path style="fill:none;stroke:red;stroke-width:1px;stroke-linecap:butt;stroke-linejoin:miter;stroke-opacity:1" d="M 181.863,220.37 198.366,211.201 z" id="boundary" inkscape:connector-curvature="0" />
	<path style="fill:none;stroke:red;stroke-width:1px;stroke-linecap:butt;stroke-linejoin:miter;stroke-opacity:1" d="M 183.697,137.856 202.033,137.856 z" id="boundary" inkscape:connector-curvature="0" />
	<path style="fill:none;stroke:red;stroke-width:1px;stroke-linecap:butt;stroke-linejoin:miter;stroke-opacity:1" d="M 187.364,7.66728 205.701,7.66728 z" id="boundary" inkscape:connector-curvature="0" />
	<path style="fill:none;stroke:red;stroke-width:1px;stroke-linecap:butt;stroke-linejoin:miter;stroke-opacity:1" d="M 189.198,284.547 205.701,275.379 z" id="boundary" inkscape:connector-curvature="0" />
	<path style="fill:none;stroke:red;stroke-width:1px;stroke-linecap:butt;stroke-linejoin:miter;stroke-opacity:1" d="M 191.031,236.872 209.368,236.872 z" id="boundary" inkscape:connector-curvature="0" />
	<path style="fill:none;stroke:red;stroke-width:1px;stroke-linecap:butt;stroke-linejoin:miter;stroke-opacity:1" d="M 194.699,172.695 213.035,172.695 z" id="boundary" inkscape:connector-curvature="0" />
	<path style="fill:none;stroke:red;stroke-width:1px;stroke-linecap:butt;stroke-linejoin:miter;stroke-opacity:1" d="M 196.532,403.734 214.869,403.734 z" id="boundary" inkscape:connector-curvature="0" />
	<path style="fill:none;stroke:red;stroke-width:1px;stroke-linecap:butt;stroke-linejoin:miter;stroke-opacity:1" d="M 198.366,211.201 216.702,211.201 z" id="boundary" inkscape:connector-curvature="0" />
	<path style="fill:none;stroke:red;stroke-width:1px;stroke-linecap:butt;stroke-linejoin:miter;stroke-opacity:1" d="M 198.366,365.227 216.702,370.728 z" id="boundary" inkscape:connector-curvature="0" />
	<path style="fill:none;stroke:red;stroke-width:1px;stroke-linecap:butt;stroke-linejoin:miter;stroke-opacity:1" d="M 200.2,46.1738 218.536,46.1738 z" id="boundary" inkscape:connector-curvature="0" />
	<path style="fill:none;stroke:red;stroke-width:1px;stroke-linecap:butt;stroke-linejoin:miter;stroke-opacity:1" d="M 200.2,99.3494 216.702,108.518 z" id="boundary" inkscape:connector-curvature="0" />
	<path style="fill:none;stroke:red;stroke-width:1px;stroke-linecap:butt;stroke-linejoin:miter;stroke-opacity:1" d="M 202.033,137.856 218.536,147.024 z" id="boundary" inkscape:connector-curvature="0" />
	<path style="fill:none;stroke:red;stroke-width:1px;stroke-linecap:butt;stroke-linejoin:miter;stroke-opacity:1" d="M 205.701,7.66728 224.037,7.66728 z" id="boundary" inkscape:connector-curvature="0" />
	<path style="fill:none;stroke:red;stroke-width:1px;stroke-linecap:butt;stroke-linejoin:miter;stroke-opacity:1" d="M 205.701,275.379 222.203,284.547 z" id="boundary" inkscape:connector-curvature="0" />
	<path style="fill:none;stroke:red;stroke-width:1px;stroke-linecap:butt;stroke-linejoin:miter;stroke-opacity:1" d="M 209.368,236.872 227.704,236.872 z" id="boundary" inkscape:connector-curvature="0" />
	<path style="fill:none;stroke:red;stroke-width:1px;stroke-linecap:butt;stroke-linejoin:miter;stroke-opacity:1" d="M 213.035,172.695 231.372,172.695 z" id="boundary" inkscape:connector-curvature="0" />
	<path style="fill:none;stroke:red;stroke-width:1px;stroke-linecap:butt;stroke-linejoin:miter;stroke-opacity:1" d="M 214.869,403.734 231.372,412.902 z" id="boundary" inkscape:connector-curvature="0" />
	<path style="fill:none;stroke:red;stroke-width:1px;stroke-linecap:butt;stroke-linejoin:miter;stroke-opacity:1" d="M 216.702,108.518 235.039,108.518 z" id="boundary" inkscape:connector-curvature="0" />
	<path style="fill:none;stroke:red;stroke-width:1px;stroke-linecap:butt;stroke-linejoin:miter;stroke-opacity:1" d="M 216.702,211.201 235.039,214.869 z" id="boundary" inkscape:connector-curvature="0" />
	<path style="fill:none;stroke:red;stroke-width:1px;stroke-linecap:butt;stroke-linejoin:miter;stroke-opacity:1" d="M 216.702,370.728 233.205,379.896 z" id="boundary" inkscape:connector-curvature="0" />
	<path style="fill:none;stroke:red;stroke-width:1px;stroke-linecap:butt;stroke-linejoin:miter;stroke-opacity:1" d="M 218.536,46.1738 236.872,46.1738 z" id="boundary" inkscape:connector-curvature="0" />
	<path style="fill:none;stroke:red;stroke-width:1px;stroke-linecap:butt;stroke-linejoin:miter;stroke-opacity:1" d="M 218.536,147.024 236.872,147.024 z" id="boundary" inkscape:connector-curvature="0" />
	<path style="fill:none;stroke:red;stroke-width:1px;stroke-linecap:butt;stroke-linejoin:miter;stroke-opacity:1" d="M 222.203,284.547 240.54,284.547 z" id="boundary" inkscape:connector-curvature="0" />
	<path style="fill:none;stroke:red;stroke-width:1px;stroke-linecap:butt;stroke-linejoin:miter;stroke-opacity:1" d="M 224.037,7.66728 242.373,7.66728 z" id="boundary" inkscape:connector-curvature="0" />
	<path style="fill:none;stroke:red;stroke-width:1px;stroke-linecap:butt;stroke-linejoin:miter;stroke-opacity:1" d="M 227.704,236.872 244.207,246.041 z" id="boundary" inkscape:connector-curvature="0" />
	<path style="fill:none;stroke:red;stroke-width:1px;stroke-linecap:butt;stroke-linejoin:miter;stroke-opacity:1" d="M 231.372,172.695 247.874,181.863 z" id="boundary" inkscape:connector-curvature="0" />
	<path style="fill:none;stroke:red;stroke-width:1px;stroke-linecap:butt;stroke-linejoin:miter;stroke-opacity:1" d="M 231.372,412.902 249.708,412.902 z" id="boundary" inkscape:connector-curvature="0" />
	<path style="fill:none;stroke:red;stroke-width:1px;stroke-linecap:butt;stroke-linejoin:miter;stroke-opacity:1" d="M 233.205,379.896 251.542,374.396 z" id="boundary" inkscape:connector-curvature="0" />
	<path style="fill:none;stroke:red;stroke-width:1px;stroke-linecap:butt;stroke-linejoin:miter;stroke-opacity:1" d="M 235.039,108.518 253.375,114.018 z" id="boundary" inkscape:connector-curvature="0" />
	<path style="fill:none;stroke:red;stroke-width:1px;stroke-linecap:butt;stroke-linejoin:miter;stroke-opacity:1" d="M 235.039,214.869 253.375,220.37 z" id="boundary" inkscape:connector-curvature="0" />
	<path style="fill:none;stroke:red;stroke-width:1px;stroke-linecap:butt;stroke-linejoin:miter;stroke-opacity:1" d="M 236.872,46.1738 255.209,51.6747 z" id="boundary" inkscape:connector-curvature="0" />
	<path style="fill:none;stroke:red;stroke-width:1px;stroke-linecap:butt;stroke-linejoin:miter;stroke-opacity:1" d="M 236.872,147.024 255.209,147.024 z" id="boundary" inkscape:connector-curvature="0" />
	<path style="fill:none;stroke:red;stroke-width:1px;stroke-linecap:butt;stroke-linejoin:miter;stroke-opacity:1" d="M 240.54,284.547 257.043,293.715 z" id="boundary" inkscape:connector-curvature="0" />
	<path style="fill:none;stroke:red;stroke-width:1px;stroke-linecap:butt;stroke-linejoin:miter;stroke-opacity:1" d="M 242.373,7.66728 258.876,16.8355 z" id="boundary" inkscape:connector-curvature="0" />
	<path style="fill:none;stroke:red;stroke-width:1px;stroke-linecap:butt;stroke-linejoin:miter;stroke-opacity:1" d="M 244.207,246.041 262.543,251.542 z" id="boundary" inkscape:connector-curvature="0" />
	<path style="fill:none;stroke:red;stroke-width:1px;stroke-linecap:butt;stroke-linejoin:miter;stroke-opacity:1" d="M 247.874,181.863 266.211,181.863 z" id="boundary" inkscape:connector-curvature="0" />
	<path style="fill:none;stroke:red;stroke-width:1px;stroke-linecap:butt;stroke-linejoin:miter;stroke-opacity:1" d="M 249.708,412.902 268.044,412.902 z" id="boundary" inkscape:connector-curvature="0" />
	<path style="fill:none;stroke:red;stroke-width:1px;stroke-linecap:butt;stroke-linejoin:miter;stroke-opacity:1" d="M 251.542,374.396 268.044,365.227 z" id="boundary" inkscape:connector-curvature="0" />
	<path style="fill:none;stroke:red;stroke-width:1px;stroke-linecap:butt;stroke-linejoin:miter;stroke-opacity:1" d="M 253.375,114.018 271.712,117.686 z" id="boundary" inkscape:connector-curvature="0" />
	<path style="fill:none;stroke:red;stroke-width:1px;stroke-linecap:butt;stroke-linejoin:miter;stroke-opacity:1" d="M 253.375,220.37 269.878,229.538 z" id="boundary" inkscape:connector-curvature="0" />
	<path style="fill:none;stroke:red;stroke-width:1px;stroke-linecap:butt;stroke-linejoin:miter;stroke-opacity:1" d="M 255.209,51.6747 273.545,55.342 z" id="boundary" inkscape:connector-curvature="0" />
	<path style="fill:none;stroke:red;stroke-width:1px;stroke-linecap:butt;stroke-linejoin:miter;stroke-opacity:1" d="M 255.209,147.024 271.712,156.192 z" id="boundary" inkscape:connector-curvature="0" />
	<path style="fill:none;stroke:red;stroke-width:1px;stroke-linecap:butt;stroke-linejoin:miter;stroke-opacity:1" d="M 257.043,293.715 275.379,293.715 z" id="boundary" inkscape:connector-curvature="0" />
	<path style="fill:none;stroke:red;stroke-width:1px;stroke-linecap:butt;stroke-linejoin:miter;stroke-opacity:1" d="M 258.876,16.8355 275.379,7.66728 z" id="boundary" inkscape:connector-curvature="0" />
	<path style="fill:none;stroke:red;stroke-width:1px;stroke-linecap:butt;stroke-linejoin:miter;stroke-opacity:1" d="M 262.543,251.542 280.88,255.209 z" id="boundary" inkscape:connector-curvature="0" />
	<path style="fill:none;stroke:red;stroke-width:1px;stroke-linecap:butt;stroke-linejoin:miter;stroke-opacity:1" d="M 266.211,181.863 282.713,191.031 z" id="boundary" inkscape:connector-curvature="0" />
	<path style="fill:none;stroke:red;stroke-width:1px;stroke-linecap:butt;stroke-linejoin:miter;stroke-opacity:1" d="M 268.044,365.227 284.547,356.059 z" id="boundary" inkscape:connector-curvature="0" />
	<path style="fill:none;stroke:red;stroke-width:1px;stroke-linecap:butt;stroke-linejoin:miter;stroke-opacity:1" d="M 268.044,412.902 284.547,401.9 z" id="boundary" inkscape:connector-curvature="0" />
	<path style="fill:none;stroke:red;stroke-width:1px;stroke-linecap:butt;stroke-linejoin:miter;stroke-opacity:1" d="M 269.878,229.538 288.214,229.538 z" id="boundary" inkscape:connector-curvature="0" />
	<path style="fill:none;stroke:red;stroke-width:1px;stroke-linecap:butt;stroke-linejoin:miter;stroke-opacity:1" d="M 271.712,117.686 290.048,117.686 z" id="boundary" inkscape:connector-curvature="0" />
	<path style="fill:none;stroke:red;stroke-width:1px;stroke-linecap:butt;stroke-linejoin:miter;stroke-opacity:1" d="M 271.712,156.192 290.048,156.192 z" id="boundary" inkscape:connector-curvature="0" />
	<path style="fill:none;stroke:red;stroke-width:1px;stroke-linecap:butt;stroke-linejoin:miter;stroke-opacity:1" d="M 273.545,55.342 291.882,60.8429 z" id="boundary" inkscape:connector-curvature="0" />
	<path style="fill:none;stroke:red;stroke-width:1px;stroke-linecap:butt;stroke-linejoin:miter;stroke-opacity:1" d="M 275.379,7.66728 291.882,16.8355 z" id="boundary" inkscape:connector-curvature="0" />
	<path style="fill:none;stroke:red;stroke-width:1px;stroke-linecap:butt;stroke-linejoin:miter;stroke-opacity:1" d="M 275.379,293.715 291.882,302.884 z" id="boundary" inkscape:connector-curvature="0" />
	<path style="fill:none;stroke:red;stroke-width:1px;stroke-linecap:butt;stroke-linejoin:miter;stroke-opacity:1" d="M 280.88,255.209 290.048,271.712 z" id="boundary" inkscape:connector-curvature="0" />
	<path style="fill:none;stroke:red;stroke-width:1px;stroke-linecap:butt;stroke-linejoin:miter;stroke-opacity:1" d="M 282.713,191.031 301.05,191.031 z" id="boundary" inkscape:connector-curvature="0" />
	<path style="fill:none;stroke:red;stroke-width:1px;stroke-linecap:butt;stroke-linejoin:miter;stroke-opacity:1" d="M 284.547,356.059 302.884,346.891 z" id="boundary" inkscape:connector-curvature="0" />
	<path style="fill:none;stroke:red;stroke-width:1px;stroke-linecap:butt;stroke-linejoin:miter;stroke-opacity:1" d="M 284.547,401.9 302.884,392.732 z" id="boundary" inkscape:connector-curvature="0" />
	<path style="fill:none;stroke:red;stroke-width:1px;stroke-linecap:butt;stroke-linejoin:miter;stroke-opacity:1" d="M 288.214,229.538 304.717,238.706 z" id="boundary" inkscape:connector-curvature="0" />
	<path style="fill:none;stroke:red;stroke-width:1px;stroke-linecap:butt;stroke-linejoin:miter;stroke-opacity:1" d="M 290.048,117.686 308.384,114.018 z" id="boundary" inkscape:connector-curvature="0" />
	<path style="fill:none;stroke:red;stroke-width:1px;stroke-linecap:butt;stroke-linejoin:miter;stroke-opacity:1" d="M 290.048,156.192 308.384,156.192 z" id="boundary" inkscape:connector-curvature="0" />
	<path style="fill:none;stroke:red;stroke-width:1px;stroke-linecap:butt;stroke-linejoin:miter;stroke-opacity:1" d="M 290.048,271.712 308.384,269.878 z" id="boundary" inkscape:connector-curvature="0" />
	<path style="fill:none;stroke:red;stroke-width:1px;stroke-linecap:butt;stroke-linejoin:miter;stroke-opacity:1" d="M 291.882,16.8355 310.218,16.8355 z" id="boundary" inkscape:connector-curvature="0" />
	<path style="fill:none;stroke:red;stroke-width:1px;stroke-linecap:butt;stroke-linejoin:miter;stroke-opacity:1" d="M 291.882,60.8429 310.218,55.342 z" id="boundary" inkscape:connector-curvature="0" />
	<path style="fill:none;stroke:red;stroke-width:1px;stroke-linecap:butt;stroke-linejoin:miter;stroke-opacity:1" d="M 291.882,302.884 310.218,308.384 z" id="boundary" inkscape:connector-curvature="0" />
	<path style="fill:none;stroke:red;stroke-width:1px;stroke-linecap:butt;stroke-linejoin:miter;stroke-opacity:1" d="M 301.05,191.031 317.553,200.2 z" id="boundary" inkscape:connector-curvature="0" />
	<path style="fill:none;stroke:red;stroke-width:1px;stroke-linecap:butt;stroke-linejoin:miter;stroke-opacity:1" d="M 302.884,346.891 315.719,326.721 z" id="boundary" inkscape:connector-curvature="0" />
	<path style="fill:none;stroke:red;stroke-width:1px;stroke-linecap:butt;stroke-linejoin:miter;stroke-opacity:1" d="M 302.884,392.732 321.22,383.564 z" id="boundary" inkscape:connector-curvature="0" />
	<path style="fill:none;stroke:red;stroke-width:1px;stroke-linecap:butt;stroke-linejoin:miter;stroke-opacity:1" d="M 304.717,238.706 323.054,238.706 z" id="boundary" inkscape:connector-curvature="0" />
	<path style="fill:none;stroke:red;stroke-width:1px;stroke-linecap:butt;stroke-linejoin:miter;stroke-opacity:1" d="M 308.384,114.018 326.721,117.686 z" id="boundary" inkscape:connector-curvature="0" />
	<path style="fill:none;stroke:red;stroke-width:1px;stroke-linecap:butt;stroke-linejoin:miter;stroke-opacity:1" d="M 308.384,156.192 326.721,156.192 z" id="boundary" inkscape:connector-curvature="0" />
	<path style="fill:none;stroke:red;stroke-width:1px;stroke-linecap:butt;stroke-linejoin:miter;stroke-opacity:1" d="M 308.384,269.878 324.887,260.71 z" id="boundary" inkscape:connector-curvature="0" />
	<path style="fill:none;stroke:red;stroke-width:1px;stroke-linecap:butt;stroke-linejoin:miter;stroke-opacity:1" d="M 310.218,16.8355 328.555,16.8355 z" id="boundary" inkscape:connector-curvature="0" />
	<path style="fill:none;stroke:red;stroke-width:1px;stroke-linecap:butt;stroke-linejoin:miter;stroke-opacity:1" d="M 310.218,55.342 328.555,55.342 z" id="boundary" inkscape:connector-curvature="0" />
	<path style="fill:none;stroke:red;stroke-width:1px;stroke-linecap:butt;stroke-linejoin:miter;stroke-opacity:1" d="M 310.218,308.384 315.719,326.721 z" id="boundary" inkscape:connector-curvature="0" />
	<path style="fill:none;stroke:red;stroke-width:1px;stroke-linecap:butt;stroke-linejoin:miter;stroke-opacity:1" d="M 317.553,200.2 335.889,200.2 z" id="boundary" inkscape:connector-curvature="0" />
	<path style="fill:none;stroke:red;stroke-width:1px;stroke-linecap:butt;stroke-linejoin:miter;stroke-opacity:1" d="M 321.22,383.564 330.388,365.227 z" id="boundary" inkscape:connector-curvature="0" />
	<path style="fill:none;stroke:red;stroke-width:1px;stroke-linecap:butt;stroke-linejoin:miter;stroke-opacity:1" d="M 323.054,238.706 324.887,260.71 z" id="boundary" inkscape:connector-curvature="0" />
	<path style="fill:none;stroke:red;stroke-width:1px;stroke-linecap:butt;stroke-linejoin:miter;stroke-opacity:1" d="M 326.721,117.686 345.057,117.686 z" id="boundary" inkscape:connector-curvature="0" />
	<path style="fill:none;stroke:red;stroke-width:1px;stroke-linecap:butt;stroke-linejoin:miter;stroke-opacity:1" d="M 326.721,156.192 345.057,156.192 z" id="boundary" inkscape:connector-curvature="0" />
	<path style="fill:none;stroke:red;stroke-width:1px;stroke-linecap:butt;stroke-linejoin:miter;stroke-opacity:1" d="M 328.555,16.8355 345.057,26.0037 z" id="boundary" inkscape:connector-curvature="0" />
	<path style="fill:none;stroke:red;stroke-width:1px;stroke-linecap:butt;stroke-linejoin:miter;stroke-opacity:1" d="M 328.555,55.342 337.723,71.8447 z" id="boundary" inkscape:connector-curvature="0" />
	<path style="fill:none;stroke:red;stroke-width:1px;stroke-linecap:butt;stroke-linejoin:miter;stroke-opacity:1" d="M 330.388,365.227 345.057,339.556 z" id="boundary" inkscape:connector-curvature="0" />
	<path style="fill:none;stroke:red;stroke-width:1px;stroke-linecap:butt;stroke-linejoin:miter;stroke-opacity:1" d="M 335.889,200.2 346.891,183.697 z" id="boundary" inkscape:connector-curvature="0" />
	<path style="fill:none;stroke:red;stroke-width:1px;stroke-linecap:butt;stroke-linejoin:miter;stroke-opacity:1" d="M 337.723,71.8447 346.891,88.3475 z" id="boundary" inkscape:connector-curvature="0" />
	<path style="fill:none;stroke:red;stroke-width:1px;stroke-linecap:butt;stroke-linejoin:miter;stroke-opacity:1" d="M 345.057,26.0037 359.726,37.0055 z" id="boundary" inkscape:connector-curvature="0" />
	<path style="fill:none;stroke:red;stroke-width:1px;stroke-linecap:butt;stroke-linejoin:miter;stroke-opacity:1" d="M 345.057,117.686 346.891,88.3475 z" id="boundary" inkscape:connector-curvature="0" />
	<path style="fill:none;stroke:red;stroke-width:1px;stroke-linecap:butt;stroke-linejoin:miter;stroke-opacity:1" d="M 345.057,156.192 346.891,183.697 z" id="boundary" inkscape:connector-curvature="0" />
	<path style="fill:none;stroke:red;stroke-width:1px;stroke-linecap:butt;stroke-linejoin:miter;stroke-opacity:1" d="M 345.057,339.556 354.226,312.052 z" id="boundary" inkscape:connector-curvature="0" />
	<path style="fill:none;stroke:red;stroke-width:1px;stroke-linecap:butt;stroke-linejoin:miter;stroke-opacity:1" d="M 354.226,293.715 354.226,312.052 z" id="boundary" inkscape:connector-curvature="0" />
	<path style="fill:none;stroke:red;stroke-width:1px;stroke-linecap:butt;stroke-linejoin:miter;stroke-opacity:1" d="M 354.226,293.715 363.394,275.379 z" id="boundary" inkscape:connector-curvature="0" />
	<path style="fill:none;stroke:red;stroke-width:1px;stroke-linecap:butt;stroke-linejoin:miter;stroke-opacity:1" d="M 359.726,37.0055 372.562,51.6747 z" id="boundary" inkscape:connector-curvature="0" />
	<path style="fill:none;stroke:red;stroke-width:1px;stroke-linecap:butt;stroke-linejoin:miter;stroke-opacity:1" d="M 363.394,257.043 363.394,275.379 z" id="boundary" inkscape:connector-curvature="0" />
	<path style="fill:none;stroke:red;stroke-width:1px;stroke-linecap:butt;stroke-linejoin:miter;stroke-opacity:1" d="M 363.394,257.043 372.562,238.706 z" id="boundary" inkscape:connector-curvature="0" />
	<path style="fill:none;stroke:red;stroke-width:1px;stroke-linecap:butt;stroke-linejoin:miter;stroke-opacity:1" d="M 372.562,51.6747 381.73,68.1774 z" id="boundary" inkscape:connector-curvature="0" />
	<path style="fill:none;stroke:red;stroke-width:1px;stroke-linecap:butt;stroke-linejoin:miter;stroke-opacity:1" d="M 372.562,238.706 389.065,229.538 z" id="boundary" inkscape:connector-curvature="0" />
	<path style="fill:none;stroke:red;stroke-width:1px;stroke-linecap:butt;stroke-linejoin:miter;stroke-opacity:1" d="M 381.73,68.1774 390.898,84.6802 z" id="boundary" inkscape:connector-curvature="0" />
	<path style="fill:none;stroke:red;stroke-width:1px;stroke-linecap:butt;stroke-linejoin:miter;stroke-opacity:1" d="M 389.065,229.538 405.567,238.706 z" id="boundary" inkscape:connector-curvature="0" />
	<path style="fill:none;stroke:red;stroke-width:1px;stroke-linecap:butt;stroke-linejoin:miter;stroke-opacity:1" d="M 390.898,84.6802 400.067,101.183 z" id="boundary" inkscape:connector-curvature="0" />
	<path style="fill:none;stroke:red;stroke-width:1px;stroke-linecap:butt;stroke-linejoin:miter;stroke-opacity:1" d="M 390.898,137.856 390.898,156.192 z" id="boundary" inkscape:connector-curvature="0" />
	<path style="fill:none;stroke:red;stroke-width:1px;stroke-linecap:butt;stroke-linejoin:miter;stroke-opacity:1" d="M 390.898,137.856 400.067,119.519 z" id="boundary" inkscape:connector-curvature="0" />
	<path style="fill:none;stroke:red;stroke-width:1px;stroke-linecap:butt;stroke-linejoin:miter;stroke-opacity:1" d="M 390.898,156.192 390.898,174.529 z" id="boundary" inkscape:connector-curvature="0" />
	<path style="fill:none;stroke:red;stroke-width:1px;stroke-linecap:butt;stroke-linejoin:miter;stroke-opacity:1" d="M 390.898,174.529 409.235,181.863 z" id="boundary" inkscape:connector-curvature="0" />
	<path style="fill:none;stroke:red;stroke-width:1px;stroke-linecap:butt;stroke-linejoin:miter;stroke-opacity:1" d="M 400.067,101.183 400.067,119.519 z" id="boundary" inkscape:connector-curvature="0" />
	<path style="fill:none;stroke:red;stroke-width:1px;stroke-linecap:butt;stroke-linejoin:miter;stroke-opacity:1" d="M 405.567,238.706 423.904,238.706 z" id="boundary" inkscape:connector-curvature="0" />
	<path style="fill:none;stroke:red;stroke-width:1px;stroke-linecap:butt;stroke-linejoin:miter;stroke-opacity:1" d="M 409.235,181.863 425.738,191.031 z" id="boundary" inkscape:connector-curvature="0" />
	<path style="fill:none;stroke:red;stroke-width:1px;stroke-linecap:butt;stroke-linejoin:miter;stroke-opacity:1" d="M 423.904,238.706 440.407,247.874 z" id="boundary" inkscape:connector-curvature="0" />
	<path style="fill:none;stroke:red;stroke-width:1px;stroke-linecap:butt;stroke-linejoin:miter;stroke-opacity:1" d="M 425.738,191.031 444.074,191.031 z" id="boundary" inkscape:connector-curvature="0" />
	<path style="fill:none;stroke:red;stroke-width:1px;stroke-linecap:butt;stroke-linejoin:miter;stroke-opacity:1" d="M 440.407,247.874 456.909,257.043 z" id="boundary" inkscape:connector-curvature="0" />
	<path style="fill:none;stroke:red;stroke-width:1px;stroke-linecap:butt;stroke-linejoin:miter;stroke-opacity:1" d="M 444.074,191.031 462.41,194.699 z" id="boundary" inkscape:connector-curvature="0" />
	<path style="fill:none;stroke:red;stroke-width:1px;stroke-linecap:butt;stroke-linejoin:miter;stroke-opacity:1" d="M 456.909,257.043 475.246,257.043 z" id="boundary" inkscape:connector-curvature="0" />
	<path style="fill:none;stroke:red;stroke-width:1px;stroke-linecap:butt;stroke-linejoin:miter;stroke-opacity:1" d="M 462.41,194.699 480.747,194.699 z" id="boundary" inkscape:connector-curvature="0" />
	<path style="fill:none;stroke:red;stroke-width:1px;stroke-linecap:butt;stroke-linejoin:miter;stroke-opacity:1" d="M 475.246,257.043 493.582,257.043 z" id="boundary" inkscape:connector-curvature="0" />
	<path style="fill:none;stroke:red;stroke-width:1px;stroke-linecap:butt;stroke-linejoin:miter;stroke-opacity:1" d="M 480.747,194.699 499.083,200.2 z" id="boundary" inkscape:connector-curvature="0" />
	<path style="fill:none;stroke:red;stroke-width:1px;stroke-linecap:butt;stroke-linejoin:miter;stroke-opacity:1" d="M 493.582,257.043 510.085,266.211 z" id="boundary" inkscape:connector-curvature="0" />
	<path style="fill:none;stroke:red;stroke-width:1px;stroke-linecap:butt;stroke-linejoin:miter;stroke-opacity:1" d="M 499.083,200.2 515.586,209.368 z" id="boundary" inkscape:connector-curvature="0" />
	<path style="fill:none;stroke:red;stroke-width:1px;stroke-linecap:butt;stroke-linejoin:miter;stroke-opacity:1" d="M 510.085,266.211 528.421,269.878 z" id="boundary" inkscape:connector-curvature="0" />
	<path style="fill:none;stroke:red;stroke-width:1px;stroke-linecap:butt;stroke-linejoin:miter;stroke-opacity:1" d="M 515.586,209.368 533.922,209.368 z" id="boundary" inkscape:connector-curvature="0" />
	<path style="fill:none;stroke:red;stroke-width:1px;stroke-linecap:butt;stroke-linejoin:miter;stroke-opacity:1" d="M 528.421,269.878 546.758,275.379 z" id="boundary" inkscape:connector-curvature="0" />
	<path style="fill:none;stroke:red;stroke-width:1px;stroke-linecap:butt;stroke-linejoin:miter;stroke-opacity:1" d="M 533.922,209.368 550.425,218.536 z" id="boundary" inkscape:connector-curvature="0" />
	<path style="fill:none;stroke:red;stroke-width:1px;stroke-linecap:butt;stroke-linejoin:miter;stroke-opacity:1" d="M 546.758,275.379 563.261,284.547 z" id="boundary" inkscape:connector-curvature="0" />
	<path style="fill:none;stroke:red;stroke-width:1px;stroke-linecap:butt;stroke-linejoin:miter;stroke-opacity:1" d="M 550.425,218.536 568.762,218.536 z" id="boundary" inkscape:connector-curvature="0" />
	<path style="fill:none;stroke:red;stroke-width:1px;stroke-linecap:butt;stroke-linejoin:miter;stroke-opacity:1" d="M 563.261,284.547 581.597,284.547 z" id="boundary" inkscape:connector-curvature="0" />
	<path style="fill:none;stroke:red;stroke-width:1px;stroke-linecap:butt;stroke-linejoin:miter;stroke-opacity:1" d="M 568.762,218.536 587.098,218.536 z" id="boundary" inkscape:connector-curvature="0" />
	<path style="fill:none;stroke:red;stroke-width:1px;stroke-linecap:butt;stroke-linejoin:miter;stroke-opacity:1" d="M 581.597,284.547 598.1,293.715 z" id="boundary" inkscape:connector-curvature="0" />
	<path style="fill:none;stroke:red;stroke-width:1px;stroke-linecap:butt;stroke-linejoin:miter;stroke-opacity:1" d="M 587.098,218.536 603.601,227.704 z" id="boundary" inkscape:connector-curvature="0" />
	<path style="fill:none;stroke:red;stroke-width:1px;stroke-linecap:butt;stroke-linejoin:miter;stroke-opacity:1" d="M 598.1,293.715 616.436,293.715 z" id="boundary" inkscape:connector-curvature="0" />
	<path style="fill:none;stroke:red;stroke-width:1px;stroke-linecap:butt;stroke-linejoin:miter;stroke-opacity:1" d="M 603.601,227.704 620.104,236.872 z" id="boundary" inkscape:connector-curvature="0" />
	<path style="fill:none;stroke:red;stroke-width:1px;stroke-linecap:butt;stroke-linejoin:miter;stroke-opacity:1" d="M 616.436,293.715 632.939,302.884 z" id="boundary" inkscape:connector-curvature="0" />
	<path style="fill:none;stroke:red;stroke-width:1px;stroke-linecap:butt;stroke-linejoin:miter;stroke-opacity:1" d="M 620.104,236.872 638.44,242.373 z" id="boundary" inkscape:connector-curvature="0" />
	<path style="fill:none;stroke:red;stroke-width:1px;stroke-linecap:butt;stroke-linejoin:miter;stroke-opacity:1" d="M 632.939,302.884 651.275,302.884 z" id="boundary" inkscape:connector-curvature="0" />
	<path style="fill:none;stroke:red;stroke-width:1px;stroke-linecap:butt;stroke-linejoin:miter;stroke-opacity:1" d="M 638.44,242.373 656.776,242.373 z" id="boundary" inkscape:connector-curvature="0" />
	<path style="fill:none;stroke:red;stroke-width:1px;stroke-linecap:butt;stroke-linejoin:miter;stroke-opacity:1" d="M 651.275,302.884 667.778,312.052 z" id="boundary" inkscape:connector-curvature="0" />
	<path style="fill:none;stroke:red;stroke-width:1px;stroke-linecap:butt;stroke-linejoin:miter;stroke-opacity:1" d="M 656.776,242.373 675.113,246.041 z" id="boundary" inkscape:connector-curvature="0" />
	<path style="fill:none;stroke:red;stroke-width:1px;stroke-linecap:butt;stroke-linejoin:miter;stroke-opacity:1" d="M 667.778,312.052 684.281,321.22 z" id="boundary" inkscape:connector-curvature="0" />
	<path style="fill:none;stroke:red;stroke-width:1px;stroke-linecap:butt;stroke-linejoin:miter;stroke-opacity:1" d="M 675.113,246.041 691.616,255.209 z" id="boundary" inkscape:connector-curvature="0" />
	<path style="fill:none;stroke:red;stroke-width:1px;stroke-linecap:butt;stroke-linejoin:miter;stroke-opacity:1" d="M 684.281,321.22 702.617,324.887 z" id="boundary" inkscape:connector-curvature="0" />
	<path style="fill:none;stroke:red;stroke-width:1px;stroke-linecap:butt;stroke-linejoin:miter;stroke-opacity:1" d="M 691.616,255.209 709.952,255.209 z" id="boundary" inkscape:connector-curvature="0" />
	<path style="fill:none;stroke:red;stroke-width:1px;stroke-linecap:butt;stroke-linejoin:miter;stroke-opacity:1" d="M 702.617,324.887 720.954,330.388 z" id="boundary" inkscape:connector-curvature="0" />
	<path style="fill:none;stroke:red;stroke-width:1px;stroke-linecap:butt;stroke-linejoin:miter;stroke-opacity:1" d="M 709.952,255.209 728.288,258.876 z" id="boundary" inkscape:connector-curvature="0" />
	<path style="fill:none;stroke:red;stroke-width:1px;stroke-linecap:butt;stroke-linejoin:miter;stroke-opacity:1" d="M 720.954,330.388 739.29,334.055 z" id="boundary" inkscape:connector-curvature="0" />
	<path style="fill:none;stroke:red;stroke-width:1px;stroke-linecap:butt;stroke-linejoin:miter;stroke-opacity:1" d="M 728.288,258.876 746.625,264.377 z" id="boundary" inkscape:connector-curvature="0" />
	<path style="fill:none;stroke:red;stroke-width:1px;stroke-linecap:butt;stroke-linejoin:miter;stroke-opacity:1" d="M 739.29,334.055 757.627,339.556 z" id="boundary" inkscape:connector-curvature="0" />
	<path style="fill:none;stroke:red;stroke-width:1px;stroke-linecap:butt;stroke-linejoin:miter;stroke-opacity:1" d="M 746.625,264.377 763.128,273.545 z" id="boundary" inkscape:connector-curvature="0" />
	<path style="fill:none;stroke:red;stroke-width:1px;stroke-linecap:butt;stroke-linejoin:miter;stroke-opacity:1" d="M 757.627,339.556 774.129,348.725 z" id="boundary" inkscape:connector-curvature="0" />
	<path style="fill:none;stroke:red;stroke-width:1px;stroke-linecap:butt;stroke-linejoin:miter;stroke-opacity:1" d="M 763.128,273.545 779.63,282.713 z" id="boundary" inkscape:connector-curvature="0" />
	<path style="fill:none;stroke:red;stroke-width:1px;stroke-linecap:butt;stroke-linejoin:miter;stroke-opacity:1" d="M 774.129,348.725 792.466,348.725 z" id="boundary" inkscape:connector-curvature="0" />
	<path style="fill:none;stroke:red;stroke-width:1px;stroke-linecap:butt;stroke-linejoin:miter;stroke-opacity:1" d="M 779.63,282.713 797.967,282.713 z" id="boundary" inkscape:connector-curvature="0" />
	<path style="fill:none;stroke:red;stroke-width:1px;stroke-linecap:butt;stroke-linejoin:miter;stroke-opacity:1" d="M 792.466,348.725 808.969,357.893 z" id="boundary" inkscape:connector-curvature="0" />
	<path style="fill:none;stroke:red;stroke-width:1px;stroke-linecap:butt;stroke-linejoin:miter;stroke-opacity:1" d="M 797.967,282.713 816.303,282.713 z" id="boundary" inkscape:connector-curvature="0" />
	<path style="fill:none;stroke:red;stroke-width:1px;stroke-linecap:butt;stroke-linejoin:miter;stroke-opacity:1" d="M 808.969,357.893 825.471,367.061 z" id="boundary" inkscape:connector-curvature="0" />
	<path style="fill:none;stroke:red;stroke-width:1px;stroke-linecap:butt;stroke-linejoin:miter;stroke-opacity:1" d="M 816.303,282.713 832.806,291.882 z" id="boundary" inkscape:connector-curvature="0" />
	<path style="fill:none;stroke:red;stroke-width:1px;stroke-linecap:butt;stroke-linejoin:miter;stroke-opacity:1" d="M 825.471,367.061 843.808,367.061 z" id="boundary" inkscape:connector-curvature="0" />
	<path style="fill:none;stroke:red;stroke-width:1px;stroke-linecap:butt;stroke-linejoin:miter;stroke-opacity:1" d="M 832.806,291.882 849.309,301.05 z" id="boundary" inkscape:connector-curvature="0" />
	<path style="fill:none;stroke:red;stroke-width:1px;stroke-linecap:butt;stroke-linejoin:miter;stroke-opacity:1" d="M 843.808,367.061 862.144,374.396 z" id="boundary" inkscape:connector-curvature="0" />
	<path style="fill:none;stroke:red;stroke-width:1px;stroke-linecap:butt;stroke-linejoin:miter;stroke-opacity:1" d="M 849.309,301.05 867.645,301.05 z" id="boundary" inkscape:connector-curvature="0" />
	<path style="fill:none;stroke:red;stroke-width:1px;stroke-linecap:butt;stroke-linejoin:miter;stroke-opacity:1" d="M 862.144,374.396 878.647,383.564 z" id="boundary" inkscape:connector-curvature="0" />
	<path style="fill:none;stroke:red;stroke-width:1px;stroke-linecap:butt;stroke-linejoin:miter;stroke-opacity:1" d="M 867.645,301.05 885.982,306.551 z" id="boundary" inkscape:connector-curvature="0" />
	<path style="fill:none;stroke:red;stroke-width:1px;stroke-linecap:butt;stroke-linejoin:miter;stroke-opacity:1" d="M 878.647,383.564 896.983,385.397 z" id="boundary" inkscape:connector-curvature="0" />
	<path style="fill:none;stroke:red;stroke-width:1px;stroke-linecap:butt;stroke-linejoin:miter;stroke-opacity:1" d="M 885.982,306.551 902.484,315.719 z" id="boundary" inkscape:connector-curvature="0" />
	<path style="fill:none;stroke:red;stroke-width:1px;stroke-linecap:butt;stroke-linejoin:miter;stroke-opacity:1" d="M 896.983,385.397 915.32,390.898 z" id="boundary" inkscape:connector-curvature="0" />
	<path style="fill:none;stroke:red;stroke-width:1px;stroke-linecap:butt;stroke-linejoin:miter;stroke-opacity:1" d="M 902.484,315.719 920.821,323.054 z" id="boundary" inkscape:connector-curvature="0" />
	<path style="fill:none;stroke:red;stroke-width:1px;stroke-linecap:butt;stroke-linejoin:miter;stroke-opacity:1" d="M 915.32,390.898 933.656,394.566 z" id="boundary" inkscape:connector-curvature="0" />
	<path style="fill:none;stroke:red;stroke-width:1px;stroke-linecap:butt;stroke-linejoin:miter;stroke-opacity:1" d="M 920.821,323.054 939.157,328.555 z" id="boundary" inkscape:connector-curvature="0" />
	<path style="fill:none;stroke:red;stroke-width:1px;stroke-linecap:butt;stroke-linejoin:miter;stroke-opacity:1" d="M 933.656,394.566 950.159,403.734 z" id="boundary" inkscape:connector-curvature="0" />
	<path style="fill:none;stroke:red;stroke-width:1px;stroke-linecap:butt;stroke-linejoin:miter;stroke-opacity:1" d="M 939.157,328.555 955.66,337.723 z" id="boundary" inkscape:connector-curvature="0" />
	<path style="fill:none;stroke:red;stroke-width:1px;stroke-linecap:butt;stroke-linejoin:miter;stroke-opacity:1" d="M 950.159,403.734 966.662,412.902 z" id="boundary" inkscape:connector-curvature="0" />
	<path style="fill:none;stroke:red;stroke-width:1px;stroke-linecap:butt;stroke-linejoin:miter;stroke-opacity:1" d="M 955.66,337.723 972.163,346.891 z" id="boundary" inkscape:connector-curvature="0" />
	<path style="fill:none;stroke:red;stroke-width:1px;stroke-linecap:butt;stroke-linejoin:miter;stroke-opacity:1" d="M 966.662,412.902 981.331,401.9 z" id="boundary" inkscape:connector-curvature="0" />
	<path style="fill:none;stroke:red;stroke-width:1px;stroke-linecap:butt;stroke-linejoin:miter;stroke-opacity:1" d="M 972.163,346.891 990.499,346.891 z" id="boundary" inkscape:connector-curvature="0" />
	<path style="fill:none;stroke:red;stroke-width:1px;stroke-linecap:butt;stroke-linejoin:miter;stroke-opacity:1" d="M 981.331,401.9 996,383.564 z" id="boundary" inkscape:connector-curvature="0" />
	<path style="fill:none;stroke:red;stroke-width:1px;stroke-linecap:butt;stroke-linejoin:miter;stroke-opacity:1" d="M 990.499,346.891 996,365.227 z" id="boundary" inkscape:connector-curvature="0" />
	<path style="fill:none;stroke:red;stroke-width:1px;stroke-linecap:butt;stroke-linejoin:miter;stroke-opacity:1" d="M 996,365.227 996,383.564 z" id="boundary" inkscape:connector-curvature="0" />
	<circle cx="4" cy="370.728" r="4" fill="#0" id="circle0"/>
	<circle cx="13.1682" cy="387.231" r="4" fill="#0" id="circle1"/>
	<circle cx="18.6691" cy="356.059" r="4" fill="#0" id="circle2"/>
	<circle cx="31.5046" cy="389.065" r="4" fill="#0" id="circle3"/>
	<circle cx="37.0055" cy="346.891" r="4" fill="#0" id="circle4"/>
	<circle cx="49.841" cy="394.566" r="4" fill="#0" id="circle5"/>
	<circle cx="53.5083" cy="356.059" r="4" fill="#0" id="circle6"/>
	<circle cx="59.0092" cy="13.1682" r="4" fill="#0" id="circle7"/>
	<circle cx="59.0092" cy="31.5046" r="4" fill="#0" id="circle8"/>
	<circle cx="68.1774" cy="394.566" r="4" fill="#0" id="circle9"/>
	<circle cx="71.8447" cy="348.725" r="4" fill="#0" id="circle10"/>
	<circle cx="73.6784" cy="44.3401" r="4" fill="#0" id="circle11"/>
	<circle cx="77.3457" cy="4" r="4" fill="#0" id="circle12"/>
	<circle cx="86.5139" cy="394.566" r="4" fill="#0" id="circle13"/>
	<circle cx="90.1811" cy="356.059" r="4" fill="#0" id="circle14"/>
	<circle cx="92.0148" cy="37.0055" r="4" fill="#0" id="circle15"/>
	<circle cx="95.6821" cy="4" r="4" fill="#0" id="circle16"/>
	<circle cx="95.6821" cy="251.542" r="4" fill="#0" id="circle17"/>
	<circle cx="104.85" cy="187.364" r="4" fill="#0" id="circle18"/>
	<circle cx="104.85" cy="268.044" r="4" fill="#0" id="circle19"/>
	<circle cx="104.85" cy="394.566" r="4" fill="#0" id="circle20"/>
	<circle cx="108.518" cy="46.1738" r="4" fill="#0" id="circle21"/>
	<circle cx="108.518" cy="356.059" r="4" fill="#0" id="circle22"/>
	<circle cx="114.018" cy="4" r="4" fill="#0" id="circle23"/>
	<circle cx="114.018" cy="203.867" r="4" fill="#0" id="circle24"/>
	<circle cx="114.018" cy="242.373" r="4" fill="#0" id="circle25"/>
	<circle cx="117.686" cy="282.713" r="4" fill="#0" id="circle26"/>
	<circle cx="123.187" cy="178.196" r="4" fill="#0" id="circle27"/>
	<circle cx="123.187" cy="394.566" r="4" fill="#0" id="circle28"/>
	<circle cx="126.854" cy="46.1738" r="4" fill="#0" id="circle29"/>
	<circle cx="126.854" cy="218.536" r="4" fill="#0" id="circle30"/>
	<circle cx="126.854" cy="356.059" r="4" fill="#0" id="circle31"/>
	<circle cx="132.355" cy="7.66728" r="4" fill="#0" id="circle32"/>
	<circle cx="132.355" cy="104.85" r="4" fill="#0" id="circle33"/>
	<circle cx="132.355" cy="123.187" r="4" fill="#0" id="circle34"/>
	<circle cx="132.355" cy="240.54" r="4" fill="#0" id="circle35"/>
	<circle cx="136.022" cy="275.379" r="4" fill="#0" id="circle36"/>
	<circle cx="141.523" cy="176.362" r="4" fill="#0" id="circle37"/>
	<circle cx="141.523" cy="398.233" r="4" fill="#0" id="circle38"/>
	<circle cx="145.19" cy="46.1738" r="4" fill="#0" id="circle39"/>
	<circle cx="145.19" cy="216.702" r="4" fill="#0" id="circle40"/>
	<circle cx="145.19" cy="356.059" r="4" fill="#0" id="circle41"/>
	<circle cx="147.024" cy="90.1811" r="4" fill="#0" id="circle42"/>
	<circle cx="147.024" cy="136.022" r="4" fill="#0" id="circle43"/>
	<circle cx="150.691" cy="4" r="4" fill="#0" id="circle44"/>
	<circle cx="150.691" cy="240.54" r="4" fill="#0" id="circle45"/>
	<circle cx="152.525" cy="284.547" r="4" fill="#0" id="circle46"/>
	<circle cx="159.86" cy="181.863" r="4" fill="#0" id="circle47"/>
	<circle cx="159.86" cy="403.734" r="4" fill="#0" id="circle48"/>
	<circle cx="161.693" cy="365.227" r="4" fill="#0" id="circle49"/>
	<circle cx="163.527" cy="46.1738" r="4" fill="#0" id="circle50"/>
	<circle cx="163.527" cy="99.3494" r="4" fill="#0" id="circle51"/>
	<circle cx="163.527" cy="220.37" r="4" fill="#0" id="circle52"/>
	<circle cx="165.36" cy="137.856" r="4" fill="#0" id="circle53"/>
	<circle cx="169.028" cy="4" r="4" fill="#0" id="circle54"/>
	<circle cx="169.028" cy="240.54" r="4" fill="#0" id="circle55"/>
	<circle cx="170.861" cy="284.547" r="4" fill="#0" id="circle56"/>
	<circle cx="176.362" cy="172.695" r="4" fill="#0" id="circle57"/>
	<circle cx="178.196" cy="403.734" r="4" fill="#0" id="circle58"/>
	<circle cx="180.03" cy="359.726" r="4" fill="#0" id="circle59"/>
	<circle cx="181.863" cy="46.1738" r="4" fill="#0" id="circle60"/>
	<circle cx="181.863" cy="99.3494" r="4" fill="#0" id="circle61"/>
	<circle cx="181.863" cy="220.37" r="4" fill="#0" id="circle62"/>
	<circle cx="183.697" cy="137.856" r="4" fill="#0" id="circle63"/>
	<circle cx="187.364" cy="7.66728" r="4" fill="#0" id="circle64"/>
	<circle cx="189.198" cy="284.547" r="4" fill="#0" id="circle65"/>
	<circle cx="191.031" cy="236.872" r="4" fill="#0" id="circle66"/>
	<circle cx="194.699" cy="172.695" r="4" fill="#0" id="circle67"/>
	<circle cx="196.532" cy="403.734" r="4" fill="#0" id="circle68"/>
	<circle cx="198.366" cy="211.201" r="4" fill="#0" id="circle69"/>
	<circle cx="198.366" cy="365.227" r="4" fill="#0" id="circle70"/>
	<circle cx="200.2" cy="46.1738" r="4" fill="#0" id="circle71"/>
	<circle cx="200.2" cy="99.3494" r="4" fill="#0" id="circle72"/>
	<circle cx="202.033" cy="137.856" r="4" fill="#0" id="circle73"/>
	<circle cx="205.701" cy="7.66728" r="4" fill="#0" id="circle74"/>
	<circle cx="205.701" cy="275.379" r="4" fill="#0" id="circle75"/>
	<circle cx="209.368" cy="236.872" r="4" fill="#0" id="circle76"/>
	<circle cx="213.035" cy="172.695" r="4" fill="#0" id="circle77"/>
	<circle cx="214.869" cy="403.734" r="4" fill="#0" id="circle78"/>
	<circle cx="216.702" cy="108.518" r="4" fill="#0" id="circle79"/>
	<circle cx="216.702" cy="211.201" r="4" fill="#0" id="circle80"/>
	<circle cx="216.702" cy="370.728" r="4" fill="#0" id="circle81"/>
	<circle cx="218.536" cy="46.1738" r="4" fill="#0" id="circle82"/>
	<circle cx="218.536" cy="147.024" r="4" fill="#0" id="circle83"/>
	<circle cx="222.203" cy="284.547" r="4" fill="#0" id="circle84"/>
	<circle cx="224.037" cy="7.66728" r="4" fill="#0" id="circle85"/>
	<circle cx="227.704" cy="236.872" r="4" fill="#0" id="circle86"/>
	<circle cx="231.372" cy="172.695" r="4" fill="#0" id="circle87"/>
	<circle cx="231.372" cy="412.902" r="4" fill="#0" id="circle88"/>
	<circle cx="233.205" cy="379.896" r="4" fill="#0" id="circle89"/>
	<circle cx="235.039" cy="108.518" r="4" fill="#0" id="circle90"/>
	<circle cx="235.039" cy="214.869" r="4" fill="#0" id="circle91"/>
	<circle cx="236.872" cy="46.1738" r="4" fill="#0" id="circle92"/>
	<circle cx="236.872" cy="147.024" r="4" fill="#0" id="circle93"/>
	<circle cx="240.54" cy="284.547" r="4" fill="#0" id="circle94"/>
	<circle cx="242.373" cy="7.66728" r="4" fill="#0" id="circle95"/>
	<circle cx="244.207" cy="246.041" r="4" fill="#0" id="circle96"/>
	<circle cx="247.874" cy="181.863" r="4" fill="#0" id="circle97"/>
	<circle cx="249.708" cy="412.902" r="4" fill="#0" id="circle98"/>
	<circle cx="251.542" cy="374.396" r="4" fill="#0" id="circle99"/>
	<circle cx="253.375" cy="114.018" r="4" fill="#0" id="circle100"/>
	<circle cx="253.375" cy="220.37" r="4" fill="#0" id="circle101"/>
	<circle cx="255.209" cy="51.6747" r="4" fill="#0" id="circle102"/>
	<circle cx="255.209" cy="147.024" r="4" fill="#0" id="circle103"/>
	<circle cx="257.043" cy="293.715" r="4" fill="#0" id="circle104"/>
	<circle cx="258.876" cy="16.8355" r="4" fill="#0" id="circle105"/>
	<circle cx="262.543" cy="251.542" r="4" fill="#0" id="circle106"/>
	<circle cx="266.211" cy="181.863" r="4" fill="#0" id="circle107"/>
	<circle cx="268.044" cy="365.227" r="4" fill="#0" id="circle108"/>
	<circle cx="268.044" cy="412.902" r="4" fill="#0" id="circle109"/>
	<circle cx="269.878" cy="229.538" r="4" fill="#0" id="circle110"/>
	<circle cx="271.712" cy="117.686" r="4" fill="#0" id="circle111"/>
	<circle cx="271.712" cy="156.192" r="4" fill="#0" id="circle112"/>
	<circle cx="273.545" cy="55.342" r="4" fill="#0" id="circle113"/>
	<circle cx="275.379" cy="7.66728" r="4" fill="#0" id="circle114"/>
	<circle cx="275.379" cy="293.715" r="4" fill="#0" id="circle115"/>
	<circle cx="280.88" cy="255.209" r="4" fill="#0" id="circle116"/>
	<circle cx="282.713" cy="191.031" r="4" fill="#0" id="circle117"/>
	<circle cx="284.547" cy="356.059" r="4" fill="#0" id="circle118"/>
	<circle cx="284.547" cy="401.9" r="4" fill="#0" id="circle119"/>
	<circle cx="288.214" cy="229.538" r="4" fill="#0" id="circle120"/>
	<circle cx="290.048" cy="117.686" r="4" fill="#0" id="circle121"/>
	<circle cx="290.048" cy="156.192" r="4" fill="#0" id="circle122"/>
	<circle cx="290.048" cy="271.712" r="4" fill="#0" id="circle123"/>
	<circle cx="291.882" cy="16.8355" r="4" fill="#0" id="circle124"/>
	<circle cx="291.882" cy="60.8429" r="4" fill="#0" id="circle125"/>
	<circle cx="291.882" cy="302.884" r="4" fill="#0" id="circle126"/>
	<circle cx="301.05" cy="191.031" r="4" fill="#0" id="circle127"/>
	<circle cx="302.884" cy="346.891" r="4" fill="#0" id="circle128"/>
	<circle cx="302.884" cy="392.732" r="4" fill="#0" id="circle129"/>
	<circle cx="304.717" cy="238.706" r="4" fill="#0" id="circle130"/>
	<circle cx="308.384" cy="114.018" r="4" fill="#0" id="circle131"/>
	<circle cx="308.384" cy="156.192" r="4" fill="#0" id="circle132"/>
	<circle cx="308.384" cy="269.878" r="4" fill="#0" id="circle133"/>
	<circle cx="310.218" cy="16.8355" r="4" fill="#0" id="circle134"/>
	<circle cx="310.218" cy="55.342" r="4" fill="#0" id="circle135"/>
	<circle cx="310.218" cy="308.384" r="4" fill="#0" id="circle136"/>
	<circle cx="315.719" cy="326.721" r="4" fill="#0" id="circle137"/>
	<circle cx="317.553" cy="200.2" r="4" fill="#0" id="circle138"/>
	<circle cx="321.22" cy="383.564" r="4" fill="#0" id="circle139"/>
	<circle cx="323.054" cy="238.706" r="4" fill="#0" id="circle140"/>
	<circle cx="324.887" cy="260.71" r="4" fill="#0" id="circle141"/>
	<circle cx="326.721" cy="117.686" r="4" fill="#0" id="circle142"/>
	<circle cx="326.721" cy="156.192" r="4" fill="#0" id="circle143"/>
	<circle cx="328.555" cy="16.8355" r="4" fill="#0" id="circle144"/>
	<circle cx="328.555" cy="55.342" r="4" fill="#0" id="circle145"/>
	<circle cx="330.388" cy="365.227" r="4" fill="#0" id="circle146"/>
	<circle cx="335.889" cy="200.2" r="4" fill="#0" id="circle147"/>
	<circle cx="337.723" cy="71.8447" r="4" fill="#0" id="circle148"/>
	<circle cx="345.057" cy="26.0037" r="4" fill="#0" id="circle149"/>
	<circle cx="345.057" cy="117.686" r="4" fill="#0" id="circle150"/>
	<circle cx="345.057" cy="156.192" r="4" fill="#0" id="circle151"/>
	<circle cx="345.057" cy="339.556" r="4" fill="#0" id="circle152"/>
	<circle cx="346.891" cy="88.3475" r="4" fill="#0" id="circle153"/>
	<circle cx="346.891" cy="183.697" r="4" fill="#0" id="circle154"/>
	<circle cx="354.226" cy="293.715" r="4" fill="#0" id="circle155"/>
	<circle cx="354.226" cy="312.052" r="4" fill="#0" id="circle156"/>
	<circle cx="359.726" cy="37.0055" r="4" fill="#0" id="circle157"/>
	<circle cx="363.394" cy="257.043" r="4" fill="#0" id="circle158"/>
	<circle cx="363.394" cy="275.379" r="4" fill="#0" id="circle159"/>
	<circle cx="372.562" cy="51.6747" r="4" fill="#0" id="circle160"/>
	<circle cx="372.562" cy="238.706" r="4" fill="#0" id="circle161"/>
	<circle cx="381.73" cy="68.1774" r="4" fill="#0" id="circle162"/>
	<circle cx="389.065" cy="229.538" r="4" fill="#0" id="circle163"/>
	<circle cx="390.898" cy="84.6802" r="4" fill="#0" id="circle164"/>
	<circle cx="390.898" cy="137.856" r="4" fill="#0" id="circle165"/>
	<circle cx="390.898" cy="156.192" r="4" fill="#0" id="circle166"/>
	<circle cx="390.898" cy="174.529" r="4" fill="#0" id="circle167"/>
	<circle cx="400.067" cy="101.183" r="4" fill="#0" id="circle168"/>
	<circle cx="400.067" cy="119.519" r="4" fill="#0" id="circle169"/>
	<circle cx="405.567" cy="238.706" r="4" fill="#0" id="circle170"/>
	<circle cx="409.235" cy="181.863" r="4" fill="#0" id="circle171"/>
	<circle cx="423.904" cy="238.706" r="4" fill="#0" id="circle172"/>
	<circle cx="425.738" cy="191.031" r="4" fill="#0" id="circle173"/>
	<circle cx="440.407" cy="247.874" r="4" fill="#0" id="circle174"/>
	<circle cx="444.074" cy="191.031" r="4" fill="#0" id="circle175"/>
	<circle cx="456.909" cy="257.043" r="4" fill="#0" id="circle176"/>
	<circle cx="462.41" cy="194.699" r="4" fill="#0" id="circle177"/>
	<circle cx="475.246" cy="257.043" r="4" fill="#0" id="circle178"/>
	<circle cx="480.747" cy="194.699" r="4" fill="#0" id="circle179"/>
	<circle cx="493.582" cy="257.043" r="4" fill="#0" id="circle180"/>
	<circle cx="499.083" cy="200.2" r="4" fill="#0" id="circle181"/>
	<circle cx="510.085" cy="266.211" r="4" fill="#0" id="circle182"/>
	<circle cx="515.586" cy="209.368" r="4" fill="#0" id="circle183"/>
	<circle cx="528.421" cy="269.878" r="4" fill="#0" id="circle184"/>
	<circle cx="533.922" cy="209.368" r="4" fill="#0" id="circle185"/>
	<circle cx="546.758" cy="275.379" r="4" fill="#0" id="circle186"/>
	<circle cx="550.425" cy="218.536" r="4" fill="#0" id="circle187"/>
	<circle cx="563.261" cy="284.547" r="4" fill="#0" id="circle188"/>
	<circle cx="568.762" cy="218.536" r="4" fill="#0" id="circle189"/>
	<circle cx="581.597" cy="284.547" r="4" fill="#0" id="circle190"/>
	<circle cx="587.098" cy="218.536" r="4" fill="#0" id="circle191"/>
	<circle cx="598.1" cy="293.715" r="4" fill="#0" id="circle192"/>
	<circle cx="603.601" cy="227.704" r="4" fill="#0" id="circle193"/>
	<circle cx="616.436" cy="293.715" r="4" fill="#0" id="circle194"/>
	<circle cx="620.104" cy="236.872" r="4" fill="#0" id="circle195"/>
	<circle cx="632.939" cy="302.884" r="4" fill="#0" id="circle196"/>
	<circle cx="638.44" cy="242.373" r="4" fill="#0" id="circle197"/>
	<circle cx="651.275" cy="302.884" r="4" fill="#0" id="circle198"/>
	<circle cx="656.776" cy="242.373" r="4" fill="#0" id="circle199"/>
	<circle cx="667.778" cy="312.052" r="4" fill="#0" id="circle200"/>
	<circle cx="675.113" cy="246.041" r="4" fill="#0" id="circle201"/>
	<circle cx="684.281" cy="321.22" r="4" fill="#0" id="circle202"/>
	<circle cx="691.616" cy="255.209" r="4" fill="#0" id="circle203"/>
	<circle cx="702.617" cy="324.887" r="4" fill="#0" id="circle204"/>
	<circle cx="709.952" cy="255.209" r="4" fill="#0" id="circle205"/>
	<circle cx="720.954" cy="330.388" r="4" fill="#0" id="circle206"/>
	<circle cx="728.288" cy="258.876" r="4" fill="#0" id="circle207"/>
	<circle cx="739.29" cy="334.055" r="4" fill="#0" id="circle208"/>
	<circle cx="746.625" cy="264.377" r="4" fill="#0" id="circle209"/>
	<circle cx="757.627" cy="339.556" r="4" fill="#0" id="circle210"/>
	<circle cx="763.128" cy="273.545" r="4" fill="#0" id="circle211"/>
	<circle cx="774.129" cy="348.725" r="4" fill="#0" id="circle212"/>
	<circle cx="779.63" cy="282.713" r="4" fill="#0" id="circle213"/>
	<circle cx="792.466" cy="348.725" r="4" fill="#0" id="circle214"/>
	<circle cx="797.967" cy="282.713" r="4" fill="#0" id="circle215"/>
	<circle cx="808.969" cy="357.893" r="4" fill="#0" id="circle216"/>
	<circle cx="816.303" cy="282.713" r="4" fill="#0" id="circle217"/>
	<circle cx="825.471" cy="367.061" r="4" fill="#0" id="circle218"/>
	<circle cx="832.806" cy="291.882" r="4" fill="#0" id="circle219"/>
	<circle cx="843.808" cy="367.061" r="4" fill="#0" id="circle220"/>
	<circle cx="849.309" cy="301.05" r="4" fill="#0" id="circle221"/>
	<circle cx="862.144" cy="374.396" r="4" fill="#0" id="circle222"/>
	<circle cx="867.645" cy="301.05" r="4" fill="#0" id="circle223"/>
	<circle cx="878.647" cy="383.564" r="4" fill="#0" id="circle224"/>
	<circle cx="885.982" cy="306.551" r="4" fill="#0" id="circle225"/>
	<circle cx="896.983" cy="385.397" r="4" fill="#0" id="circle226"/>
	<circle cx="902.484" cy="315.719" r="4" fill="#0" id="circle227"/>
	<circle cx="915.32" cy="390.898" r="4" fill="#0" id="circle228"/>
	<circle cx="920.821" cy="323.054" r="4" fill="#0" id="circle229"/>
	<circle cx="933.656" cy="394.566" r="4" fill="#0" id="circle230"/>
	<circle cx="939.157" cy="328.555" r="4" fill="#0" id="circle231"/>
	<circle cx="950.159" cy="403.734" r="4" fill="#0" id="circle232"/>
	<circle cx="955.66" cy="337.723" r="4" fill="#0" id="circle233"/>
	<circle cx="966.662" cy="412.902" r="4" fill="#0" id="circle234"/>
	<circle cx="972.163" cy="346.891" r="4" fill="#0" id="circle235"/>
	<circle cx="981.331" cy="401.9" r="4" fill="#0" id="circle236"/>
	<circle cx="990.499" cy="346.891" r="4" fill="#0" id="circle237"/>
	<circle cx="996" cy="365.227" r="4" fill="#0" id="circle238"/>
	<circle cx="996" cy="383.564" r="4" fill="#0" id="circle239"/>
	</g>
</svg>