<?xml version="1.0" encoding="UTF-8" standalone="no"?>
<!-- Created with CurveBenchmark -->
<svg
	xmlns:dc="http://purl.org/dc/elements/1.1/"
	xmlns:cc="http://creativecommons.org/ns#"
	xmlns:rdf="http://www.w3.org/1999/02/22-rdf-syntax-ns#"
	xmlns:svg="http://www.w3.org/2000/svg"
	xmlns="http://www.w3.org/2000/svg"
	xmlns:sodipodi="http://sodipodi.sourceforge.net/DTD/sodipodi-0.dtd"
	xmlns:inkscape="http://www.inkscape.org/namespaces/inkscape"
	width="1000"
	height="1000"
	id="svg2"
	version="1.1"
	sodipodi:docname="manifold/vicur-pencil-4.png.txt">
<defs
	id="defs4" />
<metadata
	id="metadata7">
	<rdf:RDF>
		<cc:Work
			rdf:about="">
			<dc:format>image/svg+xml</dc:format>
			<dc:type
				rdf:resource="http://purl.org/dc/dcmitype/StillImage" />
			<dc:title></dc:title>
		</cc:Work>
	</rdf:RDF>
</metadata>
<g
	inkscape:label="Layer 1"
	inkscape:groupmode="layer"
	id="layer1">
	<path style="fill:none;stroke:red;stroke-width:1px;stroke-linecap:butt;stroke-linejoin:miter;stroke-opacity:1" d="M 4,59.3909 4,65.6853 z" id="boundary" inkscape:connector-curvature="0" />
	<path style="fill:none;stroke:red;stroke-width:1px;stroke-linecap:butt;stroke-linejoin:miter;stroke-opacity:1" d="M 4,59.3909 7.14721,53.0964 z" id="boundary" inkscape:connector-curvature="0" />
	<path style="fill:none;stroke:red;stroke-width:1px;stroke-linecap:butt;stroke-linejoin:miter;stroke-opacity:1" d="M 4,65.6853 4,71.9797 z" id="boundary" inkscape:connector-curvature="0" />
	<path style="fill:none;stroke:red;stroke-width:1px;stroke-linecap:butt;stroke-linejoin:miter;stroke-opacity:1" d="M 4,71.9797 4,78.2741 z" id="boundary" inkscape:connector-curvature="0" />
	<path style="fill:none;stroke:red;stroke-width:1px;stroke-linecap:butt;stroke-linejoin:miter;stroke-opacity:1" d="M 4,78.2741 4,84.5685 z" id="boundary" inkscape:connector-curvature="0" />
	<path style="fill:none;stroke:red;stroke-width:1px;stroke-linecap:butt;stroke-linejoin:miter;stroke-opacity:1" d="M 4,84.5685 4,90.8629 z" id="boundary" inkscape:connector-curvature="0" />
	<path style="fill:none;stroke:red;stroke-width:1px;stroke-linecap:butt;stroke-linejoin:miter;stroke-opacity:1" d="M 4,90.8629 7.14721,96.5279 z" id="boundary" inkscape:connector-curvature="0" />
	<path style="fill:none;stroke:red;stroke-width:1px;stroke-linecap:butt;stroke-linejoin:miter;stroke-opacity:1" d="M 7.14721,53.0964 10.2944,46.802 z" id="boundary" inkscape:connector-curvature="0" />
	<path style="fill:none;stroke:red;stroke-width:1px;stroke-linecap:butt;stroke-linejoin:miter;stroke-opacity:1" d="M 7.14721,96.5279 10.2944,102.193 z" id="boundary" inkscape:connector-curvature="0" />
	<path style="fill:none;stroke:red;stroke-width:1px;stroke-linecap:butt;stroke-linejoin:miter;stroke-opacity:1" d="M 10.2944,102.193 10.2944,108.487 z" id="boundary" inkscape:connector-curvature="0" />
	<path style="fill:none;stroke:red;stroke-width:1px;stroke-linecap:butt;stroke-linejoin:miter;stroke-opacity:1" d="M 10.2944,108.487 10.2944,114.782 z" id="boundary" inkscape:connector-curvature="0" />
	<path style="fill:none;stroke:red;stroke-width:1px;stroke-linecap:butt;stroke-linejoin:miter;stroke-opacity:1" d="M 10.2944,114.782 10.2944,121.076 z" id="boundary" inkscape:connector-curvature="0" />
	<path style="fill:none;stroke:red;stroke-width:1px;stroke-linecap:butt;stroke-linejoin:miter;stroke-opacity:1" d="M 10.2944,121.076 10.2944,127.371 z" id="boundary" inkscape:connector-curvature="0" />
	<path style="fill:none;stroke:red;stroke-width:1px;stroke-linecap:butt;stroke-linejoin:miter;stroke-opacity:1" d="M 10.2944,127.371 10.2944,133.665 z" id="boundary" inkscape:connector-curvature="0" />
	<path style="fill:none;stroke:red;stroke-width:1px;stroke-linecap:butt;stroke-linejoin:miter;stroke-opacity:1" d="M 10.2944,133.665 14.0711,138.701 z" id="boundary" inkscape:connector-curvature="0" />
	<path style="fill:none;stroke:red;stroke-width:1px;stroke-linecap:butt;stroke-linejoin:miter;stroke-opacity:1" d="M 13.4416,21.6244 13.4416,27.9188 z" id="boundary" inkscape:connector-curvature="0" />
	<path style="fill:none;stroke:red;stroke-width:1px;stroke-linecap:butt;stroke-linejoin:miter;stroke-opacity:1" d="M 13.4416,21.6244 16.5888,15.3299 z" id="boundary" inkscape:connector-curvature="0" />
	<path style="fill:none;stroke:red;stroke-width:1px;stroke-linecap:butt;stroke-linejoin:miter;stroke-opacity:1" d="M 14.0711,138.701 17.2183,144.365 z" id="boundary" inkscape:connector-curvature="0" />
	<path style="fill:none;stroke:red;stroke-width:1px;stroke-linecap:butt;stroke-linejoin:miter;stroke-opacity:1" d="M 16.5888,15.3299 21.6244,10.2944 z" id="boundary" inkscape:connector-curvature="0" />
	<path style="fill:none;stroke:red;stroke-width:1px;stroke-linecap:butt;stroke-linejoin:miter;stroke-opacity:1" d="M 17.2183,144.365 22.8832,147.513 z" id="boundary" inkscape:connector-curvature="0" />
	<path style="fill:none;stroke:red;stroke-width:1px;stroke-linecap:butt;stroke-linejoin:miter;stroke-opacity:1" d="M 21.6244,10.2944 27.2893,7.14721 z" id="boundary" inkscape:connector-curvature="0" />
	<path style="fill:none;stroke:red;stroke-width:1px;stroke-linecap:butt;stroke-linejoin:miter;stroke-opacity:1" d="M 22.8832,147.513 29.1777,149.401 z" id="boundary" inkscape:connector-curvature="0" />
	<path style="fill:none;stroke:red;stroke-width:1px;stroke-linecap:butt;stroke-linejoin:miter;stroke-opacity:1" d="M 27.2893,7.14721 32.9543,4 z" id="boundary" inkscape:connector-curvature="0" />
	<path style="fill:none;stroke:red;stroke-width:1px;stroke-linecap:butt;stroke-linejoin:miter;stroke-opacity:1" d="M 29.1777,149.401 34.8426,152.548 z" id="boundary" inkscape:connector-curvature="0" />
	<path style="fill:none;stroke:red;stroke-width:1px;stroke-linecap:butt;stroke-linejoin:miter;stroke-opacity:1" d="M 32.9543,4 39.2487,4 z" id="boundary" inkscape:connector-curvature="0" />
	<path style="fill:none;stroke:red;stroke-width:1px;stroke-linecap:butt;stroke-linejoin:miter;stroke-opacity:1" d="M 34.8426,152.548 41.1371,152.548 z" id="boundary" inkscape:connector-curvature="0" />
	<path style="fill:none;stroke:red;stroke-width:1px;stroke-linecap:butt;stroke-linejoin:miter;stroke-opacity:1" d="M 39.2487,4 45.5431,4 z" id="boundary" inkscape:connector-curvature="0" />
	<path style="fill:none;stroke:red;stroke-width:1px;stroke-linecap:butt;stroke-linejoin:miter;stroke-opacity:1" d="M 41.1371,152.548 47.4315,152.548 z" id="boundary" inkscape:connector-curvature="0" />
	<path style="fill:none;stroke:red;stroke-width:1px;stroke-linecap:butt;stroke-linejoin:miter;stroke-opacity:1" d="M 45.5431,4 51.8376,4 z" id="boundary" inkscape:connector-curvature="0" />
	<path style="fill:none;stroke:red;stroke-width:1px;stroke-linecap:butt;stroke-linejoin:miter;stroke-opacity:1" d="M 47.4315,152.548 53.7259,152.548 z" id="boundary" inkscape:connector-curvature="0" />
	<path style="fill:none;stroke:red;stroke-width:1px;stroke-linecap:butt;stroke-linejoin:miter;stroke-opacity:1" d="M 51.8376,4 58.132,4 z" id="boundary" inkscape:connector-curvature="0" />
	<path style="fill:none;stroke:red;stroke-width:1px;stroke-linecap:butt;stroke-linejoin:miter;stroke-opacity:1" d="M 53.7259,152.548 60.0203,152.548 z" id="boundary" inkscape:connector-curvature="0" />
	<path style="fill:none;stroke:red;stroke-width:1px;stroke-linecap:butt;stroke-linejoin:miter;stroke-opacity:1" d="M 58.132,4 64.4264,4 z" id="boundary" inkscape:connector-curvature="0" />
	<path style="fill:none;stroke:red;stroke-width:1px;stroke-linecap:butt;stroke-linejoin:miter;stroke-opacity:1" d="M 60.0203,152.548 66.3147,152.548 z" id="boundary" inkscape:connector-curvature="0" />
	<path style="fill:none;stroke:red;stroke-width:1px;stroke-linecap:butt;stroke-linejoin:miter;stroke-opacity:1" d="M 64.4264,4 70.7208,4 z" id="boundary" inkscape:connector-curvature="0" />
	<path style="fill:none;stroke:red;stroke-width:1px;stroke-linecap:butt;stroke-linejoin:miter;stroke-opacity:1" d="M 66.3147,152.548 72.6091,152.548 z" id="boundary" inkscape:connector-curvature="0" />
	<path style="fill:none;stroke:red;stroke-width:1px;stroke-linecap:butt;stroke-linejoin:miter;stroke-opacity:1" d="M 70.7208,4 77.0152,4 z" id="boundary" inkscape:connector-curvature="0" />
	<path style="fill:none;stroke:red;stroke-width:1px;stroke-linecap:butt;stroke-linejoin:miter;stroke-opacity:1" d="M 72.6091,152.548 78.9036,152.548 z" id="boundary" inkscape:connector-curvature="0" />
	<path style="fill:none;stroke:red;stroke-width:1px;stroke-linecap:butt;stroke-linejoin:miter;stroke-opacity:1" d="M 77.0152,4 82.6802,7.14721 z" id="boundary" inkscape:connector-curvature="0" />
	<path style="fill:none;stroke:red;stroke-width:1px;stroke-linecap:butt;stroke-linejoin:miter;stroke-opacity:1" d="M 78.9036,152.548 85.198,152.548 z" id="boundary" inkscape:connector-curvature="0" />
	<path style="fill:none;stroke:red;stroke-width:1px;stroke-linecap:butt;stroke-linejoin:miter;stroke-opacity:1" d="M 82.6802,7.14721 88.9746,7.14721 z" id="boundary" inkscape:connector-curvature="0" />
	<path style="fill:none;stroke:red;stroke-width:1px;stroke-linecap:butt;stroke-linejoin:miter;stroke-opacity:1" d="M 85.198,152.548 91.4924,152.548 z" id="boundary" inkscape:connector-curvature="0" />
	<path style="fill:none;stroke:red;stroke-width:1px;stroke-linecap:butt;stroke-linejoin:miter;stroke-opacity:1" d="M 88.9746,7.14721 95.269,7.14721 z" id="boundary" inkscape:connector-curvature="0" />
	<path style="fill:none;stroke:red;stroke-width:1px;stroke-linecap:butt;stroke-linejoin:miter;stroke-opacity:1" d="M 91.4924,152.548 97.7868,152.548 z" id="boundary" inkscape:connector-curvature="0" />
	<path style="fill:none;stroke:red;stroke-width:1px;stroke-linecap:butt;stroke-linejoin:miter;stroke-opacity:1" d="M 95.269,7.14721 101.563,7.14721 z" id="boundary" inkscape:connector-curvature="0" />
	<path style="fill:none;stroke:red;stroke-width:1px;stroke-linecap:butt;stroke-linejoin:miter;stroke-opacity:1" d="M 97.7868,152.548 104.081,152.548 z" id="boundary" inkscape:connector-curvature="0" />
	<path style="fill:none;stroke:red;stroke-width:1px;stroke-linecap:butt;stroke-linejoin:miter;stroke-opacity:1" d="M 101.563,7.14721 107.858,7.14721 z" id="boundary" inkscape:connector-curvature="0" />
	<path style="fill:none;stroke:red;stroke-width:1px;stroke-linecap:butt;stroke-linejoin:miter;stroke-opacity:1" d="M 104.081,152.548 110.376,152.548 z" id="boundary" inkscape:connector-curvature="0" />
	<path style="fill:none;stroke:red;stroke-width:1px;stroke-linecap:butt;stroke-linejoin:miter;stroke-opacity:1" d="M 107.858,7.14721 114.152,7.14721 z" id="boundary" inkscape:connector-curvature="0" />
	<path style="fill:none;stroke:red;stroke-width:1px;stroke-linecap:butt;stroke-linejoin:miter;stroke-opacity:1" d="M 110.376,152.548 116.67,152.548 z" id="boundary" inkscape:connector-curvature="0" />
	<path style="fill:none;stroke:red;stroke-width:1px;stroke-linecap:butt;stroke-linejoin:miter;stroke-opacity:1" d="M 114.152,7.14721 120.447,7.14721 z" id="boundary" inkscape:connector-curvature="0" />
	<path style="fill:none;stroke:red;stroke-width:1px;stroke-linecap:butt;stroke-linejoin:miter;stroke-opacity:1" d="M 116.67,152.548 122.964,152.548 z" id="boundary" inkscape:connector-curvature="0" />
	<path style="fill:none;stroke:red;stroke-width:1px;stroke-linecap:butt;stroke-linejoin:miter;stroke-opacity:1" d="M 120.447,7.14721 126.741,7.14721 z" id="boundary" inkscape:connector-curvature="0" />
	<path style="fill:none;stroke:red;stroke-width:1px;stroke-linecap:butt;stroke-linejoin:miter;stroke-opacity:1" d="M 122.964,152.548 129.259,151.289 z" id="boundary" inkscape:connector-curvature="0" />
	<path style="fill:none;stroke:red;stroke-width:1px;stroke-linecap:butt;stroke-linejoin:miter;stroke-opacity:1" d="M 126.741,7.14721 133.036,7.14721 z" id="boundary" inkscape:connector-curvature="0" />
	<path style="fill:none;stroke:red;stroke-width:1px;stroke-linecap:butt;stroke-linejoin:miter;stroke-opacity:1" d="M 129.259,151.289 135.553,149.401 z" id="boundary" inkscape:connector-curvature="0" />
	<path style="fill:none;stroke:red;stroke-width:1px;stroke-linecap:butt;stroke-linejoin:miter;stroke-opacity:1" d="M 133.036,7.14721 139.33,7.14721 z" id="boundary" inkscape:connector-curvature="0" />
	<path style="fill:none;stroke:red;stroke-width:1px;stroke-linecap:butt;stroke-linejoin:miter;stroke-opacity:1" d="M 135.553,149.401 141.848,149.401 z" id="boundary" inkscape:connector-curvature="0" />
	<path style="fill:none;stroke:red;stroke-width:1px;stroke-linecap:butt;stroke-linejoin:miter;stroke-opacity:1" d="M 139.33,7.14721 145.624,7.14721 z" id="boundary" inkscape:connector-curvature="0" />
	<path style="fill:none;stroke:red;stroke-width:1px;stroke-linecap:butt;stroke-linejoin:miter;stroke-opacity:1" d="M 141.848,149.401 147.513,152.548 z" id="boundary" inkscape:connector-curvature="0" />
	<path style="fill:none;stroke:red;stroke-width:1px;stroke-linecap:butt;stroke-linejoin:miter;stroke-opacity:1" d="M 145.624,7.14721 151.919,7.14721 z" id="boundary" inkscape:connector-curvature="0" />
	<path style="fill:none;stroke:red;stroke-width:1px;stroke-linecap:butt;stroke-linejoin:miter;stroke-opacity:1" d="M 147.513,152.548 153.807,152.548 z" id="boundary" inkscape:connector-curvature="0" />
	<path style="fill:none;stroke:red;stroke-width:1px;stroke-linecap:butt;stroke-linejoin:miter;stroke-opacity:1" d="M 151.919,7.14721 158.213,7.14721 z" id="boundary" inkscape:connector-curvature="0" />
	<path style="fill:none;stroke:red;stroke-width:1px;stroke-linecap:butt;stroke-linejoin:miter;stroke-opacity:1" d="M 153.807,152.548 160.102,152.548 z" id="boundary" inkscape:connector-curvature="0" />
	<path style="fill:none;stroke:red;stroke-width:1px;stroke-linecap:butt;stroke-linejoin:miter;stroke-opacity:1" d="M 158.213,7.14721 164.508,7.14721 z" id="boundary" inkscape:connector-curvature="0" />
	<path style="fill:none;stroke:red;stroke-width:1px;stroke-linecap:butt;stroke-linejoin:miter;stroke-opacity:1" d="M 160.102,152.548 166.396,152.548 z" id="boundary" inkscape:connector-curvature="0" />
	<path style="fill:none;stroke:red;stroke-width:1px;stroke-linecap:butt;stroke-linejoin:miter;stroke-opacity:1" d="M 164.508,7.14721 170.802,7.14721 z" id="boundary" inkscape:connector-curvature="0" />
	<path style="fill:none;stroke:red;stroke-width:1px;stroke-linecap:butt;stroke-linejoin:miter;stroke-opacity:1" d="M 166.396,152.548 172.69,151.919 z" id="boundary" inkscape:connector-curvature="0" />
	<path style="fill:none;stroke:red;stroke-width:1px;stroke-linecap:butt;stroke-linejoin:miter;stroke-opacity:1" d="M 170.802,7.14721 177.096,7.14721 z" id="boundary" inkscape:connector-curvature="0" />
	<path style="fill:none;stroke:red;stroke-width:1px;stroke-linecap:butt;stroke-linejoin:miter;stroke-opacity:1" d="M 172.69,151.919 178.985,149.401 z" id="boundary" inkscape:connector-curvature="0" />
	<path style="fill:none;stroke:red;stroke-width:1px;stroke-linecap:butt;stroke-linejoin:miter;stroke-opacity:1" d="M 177.096,7.14721 183.391,7.14721 z" id="boundary" inkscape:connector-curvature="0" />
	<path style="fill:none;stroke:red;stroke-width:1px;stroke-linecap:butt;stroke-linejoin:miter;stroke-opacity:1" d="M 178.985,149.401 185.279,149.401 z" id="boundary" inkscape:connector-curvature="0" />
	<path style="fill:none;stroke:red;stroke-width:1px;stroke-linecap:butt;stroke-linejoin:miter;stroke-opacity:1" d="M 183.391,7.14721 189.685,7.14721 z" id="boundary" inkscape:connector-curvature="0" />
	<path style="fill:none;stroke:red;stroke-width:1px;stroke-linecap:butt;stroke-linejoin:miter;stroke-opacity:1" d="M 185.279,149.401 191.574,149.401 z" id="boundary" inkscape:connector-curvature="0" />
	<path style="fill:none;stroke:red;stroke-width:1px;stroke-linecap:butt;stroke-linejoin:miter;stroke-opacity:1" d="M 189.685,7.14721 195.98,7.14721 z" id="boundary" inkscape:connector-curvature="0" />
	<path style="fill:none;stroke:red;stroke-width:1px;stroke-linecap:butt;stroke-linejoin:miter;stroke-opacity:1" d="M 191.574,149.401 197.868,149.401 z" id="boundary" inkscape:connector-curvature="0" />
	<path style="fill:none;stroke:red;stroke-width:1px;stroke-linecap:butt;stroke-linejoin:miter;stroke-opacity:1" d="M 195.98,7.14721 202.274,7.14721 z" id="boundary" inkscape:connector-curvature="0" />
	<path style="fill:none;stroke:red;stroke-width:1px;stroke-linecap:butt;stroke-linejoin:miter;stroke-opacity:1" d="M 197.868,149.401 204.162,149.401 z" id="boundary" inkscape:connector-curvature="0" />
	<path style="fill:none;stroke:red;stroke-width:1px;stroke-linecap:butt;stroke-linejoin:miter;stroke-opacity:1" d="M 202.274,7.14721 208.569,7.14721 z" id="boundary" inkscape:connector-curvature="0" />
	<path style="fill:none;stroke:red;stroke-width:1px;stroke-linecap:butt;stroke-linejoin:miter;stroke-opacity:1" d="M 204.162,149.401 210.457,149.401 z" id="boundary" inkscape:connector-curvature="0" />
	<path style="fill:none;stroke:red;stroke-width:1px;stroke-linecap:butt;stroke-linejoin:miter;stroke-opacity:1" d="M 208.569,7.14721 214.863,7.14721 z" id="boundary" inkscape:connector-curvature="0" />
	<path style="fill:none;stroke:red;stroke-width:1px;stroke-linecap:butt;stroke-linejoin:miter;stroke-opacity:1" d="M 210.457,149.401 216.751,149.401 z" id="boundary" inkscape:connector-curvature="0" />
	<path style="fill:none;stroke:red;stroke-width:1px;stroke-linecap:butt;stroke-linejoin:miter;stroke-opacity:1" d="M 214.863,7.14721 221.157,7.14721 z" id="boundary" inkscape:connector-curvature="0" />
	<path style="fill:none;stroke:red;stroke-width:1px;stroke-linecap:butt;stroke-linejoin:miter;stroke-opacity:1" d="M 216.751,149.401 223.046,149.401 z" id="boundary" inkscape:connector-curvature="0" />
	<path style="fill:none;stroke:red;stroke-width:1px;stroke-linecap:butt;stroke-linejoin:miter;stroke-opacity:1" d="M 221.157,7.14721 227.452,7.14721 z" id="boundary" inkscape:connector-curvature="0" />
	<path style="fill:none;stroke:red;stroke-width:1px;stroke-linecap:butt;stroke-linejoin:miter;stroke-opacity:1" d="M 223.046,149.401 229.34,149.401 z" id="boundary" inkscape:connector-curvature="0" />
	<path style="fill:none;stroke:red;stroke-width:1px;stroke-linecap:butt;stroke-linejoin:miter;stroke-opacity:1" d="M 227.452,7.14721 233.117,10.2944 z" id="boundary" inkscape:connector-curvature="0" />
	<path style="fill:none;stroke:red;stroke-width:1px;stroke-linecap:butt;stroke-linejoin:miter;stroke-opacity:1" d="M 229.34,149.401 235.635,149.401 z" id="boundary" inkscape:connector-curvature="0" />
	<path style="fill:none;stroke:red;stroke-width:1px;stroke-linecap:butt;stroke-linejoin:miter;stroke-opacity:1" d="M 233.117,10.2944 239.411,10.2944 z" id="boundary" inkscape:connector-curvature="0" />
	<path style="fill:none;stroke:red;stroke-width:1px;stroke-linecap:butt;stroke-linejoin:miter;stroke-opacity:1" d="M 235.635,149.401 241.929,149.401 z" id="boundary" inkscape:connector-curvature="0" />
	<path style="fill:none;stroke:red;stroke-width:1px;stroke-linecap:butt;stroke-linejoin:miter;stroke-opacity:1" d="M 239.411,10.2944 245.706,10.2944 z" id="boundary" inkscape:connector-curvature="0" />
	<path style="fill:none;stroke:red;stroke-width:1px;stroke-linecap:butt;stroke-linejoin:miter;stroke-opacity:1" d="M 241.929,149.401 248.223,149.401 z" id="boundary" inkscape:connector-curvature="0" />
	<path style="fill:none;stroke:red;stroke-width:1px;stroke-linecap:butt;stroke-linejoin:miter;stroke-opacity:1" d="M 245.706,10.2944 252,10.2944 z" id="boundary" inkscape:connector-curvature="0" />
	<path style="fill:none;stroke:red;stroke-width:1px;stroke-linecap:butt;stroke-linejoin:miter;stroke-opacity:1" d="M 248.223,149.401 254.518,149.401 z" id="boundary" inkscape:connector-curvature="0" />
	<path style="fill:none;stroke:red;stroke-width:1px;stroke-linecap:butt;stroke-linejoin:miter;stroke-opacity:1" d="M 252,10.2944 258.294,10.2944 z" id="boundary" inkscape:connector-curvature="0" />
	<path style="fill:none;stroke:red;stroke-width:1px;stroke-linecap:butt;stroke-linejoin:miter;stroke-opacity:1" d="M 254.518,149.401 260.812,149.401 z" id="boundary" inkscape:connector-curvature="0" />
	<path style="fill:none;stroke:red;stroke-width:1px;stroke-linecap:butt;stroke-linejoin:miter;stroke-opacity:1" d="M 258.294,10.2944 264.589,10.2944 z" id="boundary" inkscape:connector-curvature="0" />
	<path style="fill:none;stroke:red;stroke-width:1px;stroke-linecap:butt;stroke-linejoin:miter;stroke-opacity:1" d="M 260.812,149.401 267.107,149.401 z" id="boundary" inkscape:connector-curvature="0" />
	<path style="fill:none;stroke:red;stroke-width:1px;stroke-linecap:butt;stroke-linejoin:miter;stroke-opacity:1" d="M 264.589,10.2944 270.883,10.2944 z" id="boundary" inkscape:connector-curvature="0" />
	<path style="fill:none;stroke:red;stroke-width:1px;stroke-linecap:butt;stroke-linejoin:miter;stroke-opacity:1" d="M 267.107,149.401 273.401,149.401 z" id="boundary" inkscape:connector-curvature="0" />
	<path style="fill:none;stroke:red;stroke-width:1px;stroke-linecap:butt;stroke-linejoin:miter;stroke-opacity:1" d="M 270.883,10.2944 277.178,10.2944 z" id="boundary" inkscape:connector-curvature="0" />
	<path style="fill:none;stroke:red;stroke-width:1px;stroke-linecap:butt;stroke-linejoin:miter;stroke-opacity:1" d="M 273.401,149.401 279.695,149.401 z" id="boundary" inkscape:connector-curvature="0" />
	<path style="fill:none;stroke:red;stroke-width:1px;stroke-linecap:butt;stroke-linejoin:miter;stroke-opacity:1" d="M 277.178,10.2944 283.472,10.2944 z" id="boundary" inkscape:connector-curvature="0" />
	<path style="fill:none;stroke:red;stroke-width:1px;stroke-linecap:butt;stroke-linejoin:miter;stroke-opacity:1" d="M 279.695,149.401 285.99,149.401 z" id="boundary" inkscape:connector-curvature="0" />
	<path style="fill:none;stroke:red;stroke-width:1px;stroke-linecap:butt;stroke-linejoin:miter;stroke-opacity:1" d="M 283.472,10.2944 289.766,10.2944 z" id="boundary" inkscape:connector-curvature="0" />
	<path style="fill:none;stroke:red;stroke-width:1px;stroke-linecap:butt;stroke-linejoin:miter;stroke-opacity:1" d="M 285.99,149.401 292.284,148.772 z" id="boundary" inkscape:connector-curvature="0" />
	<path style="fill:none;stroke:red;stroke-width:1px;stroke-linecap:butt;stroke-linejoin:miter;stroke-opacity:1" d="M 289.766,10.2944 296.061,10.2944 z" id="boundary" inkscape:connector-curvature="0" />
	<path style="fill:none;stroke:red;stroke-width:1px;stroke-linecap:butt;stroke-linejoin:miter;stroke-opacity:1" d="M 292.284,148.772 298.579,146.254 z" id="boundary" inkscape:connector-curvature="0" />
	<path style="fill:none;stroke:red;stroke-width:1px;stroke-linecap:butt;stroke-linejoin:miter;stroke-opacity:1" d="M 296.061,10.2944 302.355,10.2944 z" id="boundary" inkscape:connector-curvature="0" />
	<path style="fill:none;stroke:red;stroke-width:1px;stroke-linecap:butt;stroke-linejoin:miter;stroke-opacity:1" d="M 298.579,146.254 304.873,146.254 z" id="boundary" inkscape:connector-curvature="0" />
	<path style="fill:none;stroke:red;stroke-width:1px;stroke-linecap:butt;stroke-linejoin:miter;stroke-opacity:1" d="M 302.355,10.2944 308.65,10.2944 z" id="boundary" inkscape:connector-curvature="0" />
	<path style="fill:none;stroke:red;stroke-width:1px;stroke-linecap:butt;stroke-linejoin:miter;stroke-opacity:1" d="M 304.873,146.254 311.168,146.254 z" id="boundary" inkscape:connector-curvature="0" />
	<path style="fill:none;stroke:red;stroke-width:1px;stroke-linecap:butt;stroke-linejoin:miter;stroke-opacity:1" d="M 308.65,10.2944 314.315,13.4416 z" id="boundary" inkscape:connector-curvature="0" />
	<path style="fill:none;stroke:red;stroke-width:1px;stroke-linecap:butt;stroke-linejoin:miter;stroke-opacity:1" d="M 311.168,146.254 317.462,146.254 z" id="boundary" inkscape:connector-curvature="0" />
	<path style="fill:none;stroke:red;stroke-width:1px;stroke-linecap:butt;stroke-linejoin:miter;stroke-opacity:1" d="M 314.315,13.4416 320.609,13.4416 z" id="boundary" inkscape:connector-curvature="0" />
	<path style="fill:none;stroke:red;stroke-width:1px;stroke-linecap:butt;stroke-linejoin:miter;stroke-opacity:1" d="M 317.462,146.254 323.756,146.254 z" id="boundary" inkscape:connector-curvature="0" />
	<path style="fill:none;stroke:red;stroke-width:1px;stroke-linecap:butt;stroke-linejoin:miter;stroke-opacity:1" d="M 320.609,13.4416 326.904,13.4416 z" id="boundary" inkscape:connector-curvature="0" />
	<path style="fill:none;stroke:red;stroke-width:1px;stroke-linecap:butt;stroke-linejoin:miter;stroke-opacity:1" d="M 323.756,146.254 329.421,143.107 z" id="boundary" inkscape:connector-curvature="0" />
	<path style="fill:none;stroke:red;stroke-width:1px;stroke-linecap:butt;stroke-linejoin:miter;stroke-opacity:1" d="M 326.904,13.4416 333.198,13.4416 z" id="boundary" inkscape:connector-curvature="0" />
	<path style="fill:none;stroke:red;stroke-width:1px;stroke-linecap:butt;stroke-linejoin:miter;stroke-opacity:1" d="M 329.421,143.107 335.716,143.107 z" id="boundary" inkscape:connector-curvature="0" />
	<path style="fill:none;stroke:red;stroke-width:1px;stroke-linecap:butt;stroke-linejoin:miter;stroke-opacity:1" d="M 333.198,13.4416 339.492,13.4416 z" id="boundary" inkscape:connector-curvature="0" />
	<path style="fill:none;stroke:red;stroke-width:1px;stroke-linecap:butt;stroke-linejoin:miter;stroke-opacity:1" d="M 335.716,143.107 342.01,143.107 z" id="boundary" inkscape:connector-curvature="0" />
	<path style="fill:none;stroke:red;stroke-width:1px;stroke-linecap:butt;stroke-linejoin:miter;stroke-opacity:1" d="M 339.492,13.4416 345.787,13.4416 z" id="boundary" inkscape:connector-curvature="0" />
	<path style="fill:none;stroke:red;stroke-width:1px;stroke-linecap:butt;stroke-linejoin:miter;stroke-opacity:1" d="M 342.01,143.107 347.675,139.959 z" id="boundary" inkscape:connector-curvature="0" />
	<path style="fill:none;stroke:red;stroke-width:1px;stroke-linecap:butt;stroke-linejoin:miter;stroke-opacity:1" d="M 345.787,13.4416 351.452,16.5888 z" id="boundary" inkscape:connector-curvature="0" />
	<path style="fill:none;stroke:red;stroke-width:1px;stroke-linecap:butt;stroke-linejoin:miter;stroke-opacity:1" d="M 347.675,139.959 353.97,136.812 z" id="boundary" inkscape:connector-curvature="0" />
	<path style="fill:none;stroke:red;stroke-width:1px;stroke-linecap:butt;stroke-linejoin:miter;stroke-opacity:1" d="M 351.452,16.5888 357.746,16.5888 z" id="boundary" inkscape:connector-curvature="0" />
	<path style="fill:none;stroke:red;stroke-width:1px;stroke-linecap:butt;stroke-linejoin:miter;stroke-opacity:1" d="M 353.97,136.812 360.264,136.812 z" id="boundary" inkscape:connector-curvature="0" />
	<path style="fill:none;stroke:red;stroke-width:1px;stroke-linecap:butt;stroke-linejoin:miter;stroke-opacity:1" d="M 357.746,16.5888 364.041,16.5888 z" id="boundary" inkscape:connector-curvature="0" />
	<path style="fill:none;stroke:red;stroke-width:1px;stroke-linecap:butt;stroke-linejoin:miter;stroke-opacity:1" d="M 360.264,136.812 366.558,136.812 z" id="boundary" inkscape:connector-curvature="0" />
	<path style="fill:none;stroke:red;stroke-width:1px;stroke-linecap:butt;stroke-linejoin:miter;stroke-opacity:1" d="M 364.041,16.5888 370.335,16.5888 z" id="boundary" inkscape:connector-curvature="0" />
	<path style="fill:none;stroke:red;stroke-width:1px;stroke-linecap:butt;stroke-linejoin:miter;stroke-opacity:1" d="M 366.558,136.812 372.853,136.812 z" id="boundary" inkscape:connector-curvature="0" />
	<path style="fill:none;stroke:red;stroke-width:1px;stroke-linecap:butt;stroke-linejoin:miter;stroke-opacity:1" d="M 370.335,16.5888 376.629,16.5888 z" id="boundary" inkscape:connector-curvature="0" />
	<path style="fill:none;stroke:red;stroke-width:1px;stroke-linecap:butt;stroke-linejoin:miter;stroke-opacity:1" d="M 372.853,136.812 379.147,133.665 z" id="boundary" inkscape:connector-curvature="0" />
	<path style="fill:none;stroke:red;stroke-width:1px;stroke-linecap:butt;stroke-linejoin:miter;stroke-opacity:1" d="M 376.629,16.5888 382.924,16.5888 z" id="boundary" inkscape:connector-curvature="0" />
	<path style="fill:none;stroke:red;stroke-width:1px;stroke-linecap:butt;stroke-linejoin:miter;stroke-opacity:1" d="M 379.147,133.665 385.442,133.665 z" id="boundary" inkscape:connector-curvature="0" />
	<path style="fill:none;stroke:red;stroke-width:1px;stroke-linecap:butt;stroke-linejoin:miter;stroke-opacity:1" d="M 382.924,16.5888 389.218,16.5888 z" id="boundary" inkscape:connector-curvature="0" />
	<path style="fill:none;stroke:red;stroke-width:1px;stroke-linecap:butt;stroke-linejoin:miter;stroke-opacity:1" d="M 385.442,133.665 391.736,133.665 z" id="boundary" inkscape:connector-curvature="0" />
	<path style="fill:none;stroke:red;stroke-width:1px;stroke-linecap:butt;stroke-linejoin:miter;stroke-opacity:1" d="M 389.218,16.5888 394.883,19.736 z" id="boundary" inkscape:connector-curvature="0" />
	<path style="fill:none;stroke:red;stroke-width:1px;stroke-linecap:butt;stroke-linejoin:miter;stroke-opacity:1" d="M 391.736,133.665 398.03,133.665 z" id="boundary" inkscape:connector-curvature="0" />
	<path style="fill:none;stroke:red;stroke-width:1px;stroke-linecap:butt;stroke-linejoin:miter;stroke-opacity:1" d="M 394.883,19.736 401.178,19.736 z" id="boundary" inkscape:connector-curvature="0" />
	<path style="fill:none;stroke:red;stroke-width:1px;stroke-linecap:butt;stroke-linejoin:miter;stroke-opacity:1" d="M 398.03,133.665 404.325,133.665 z" id="boundary" inkscape:connector-curvature="0" />
	<path style="fill:none;stroke:red;stroke-width:1px;stroke-linecap:butt;stroke-linejoin:miter;stroke-opacity:1" d="M 401.178,19.736 407.472,19.736 z" id="boundary" inkscape:connector-curvature="0" />
	<path style="fill:none;stroke:red;stroke-width:1px;stroke-linecap:butt;stroke-linejoin:miter;stroke-opacity:1" d="M 404.325,133.665 410.619,133.665 z" id="boundary" inkscape:connector-curvature="0" />
	<path style="fill:none;stroke:red;stroke-width:1px;stroke-linecap:butt;stroke-linejoin:miter;stroke-opacity:1" d="M 407.472,19.736 413.766,19.736 z" id="boundary" inkscape:connector-curvature="0" />
	<path style="fill:none;stroke:red;stroke-width:1px;stroke-linecap:butt;stroke-linejoin:miter;stroke-opacity:1" d="M 410.619,133.665 416.914,133.665 z" id="boundary" inkscape:connector-curvature="0" />
	<path style="fill:none;stroke:red;stroke-width:1px;stroke-linecap:butt;stroke-linejoin:miter;stroke-opacity:1" d="M 413.766,19.736 420.061,19.736 z" id="boundary" inkscape:connector-curvature="0" />
	<path style="fill:none;stroke:red;stroke-width:1px;stroke-linecap:butt;stroke-linejoin:miter;stroke-opacity:1" d="M 416.914,133.665 423.208,133.665 z" id="boundary" inkscape:connector-curvature="0" />
	<path style="fill:none;stroke:red;stroke-width:1px;stroke-linecap:butt;stroke-linejoin:miter;stroke-opacity:1" d="M 420.061,19.736 426.355,19.736 z" id="boundary" inkscape:connector-curvature="0" />
	<path style="fill:none;stroke:red;stroke-width:1px;stroke-linecap:butt;stroke-linejoin:miter;stroke-opacity:1" d="M 423.208,133.665 429.503,133.665 z" id="boundary" inkscape:connector-curvature="0" />
	<path style="fill:none;stroke:red;stroke-width:1px;stroke-linecap:butt;stroke-linejoin:miter;stroke-opacity:1" d="M 426.355,19.736 432.65,19.736 z" id="boundary" inkscape:connector-curvature="0" />
	<path style="fill:none;stroke:red;stroke-width:1px;stroke-linecap:butt;stroke-linejoin:miter;stroke-opacity:1" d="M 429.503,133.665 435.797,133.665 z" id="boundary" inkscape:connector-curvature="0" />
	<path style="fill:none;stroke:red;stroke-width:1px;stroke-linecap:butt;stroke-linejoin:miter;stroke-opacity:1" d="M 432.65,19.736 438.944,19.736 z" id="boundary" inkscape:connector-curvature="0" />
	<path style="fill:none;stroke:red;stroke-width:1px;stroke-linecap:butt;stroke-linejoin:miter;stroke-opacity:1" d="M 435.797,133.665 441.462,130.518 z" id="boundary" inkscape:connector-curvature="0" />
	<path style="fill:none;stroke:red;stroke-width:1px;stroke-linecap:butt;stroke-linejoin:miter;stroke-opacity:1" d="M 438.944,19.736 445.239,19.736 z" id="boundary" inkscape:connector-curvature="0" />
	<path style="fill:none;stroke:red;stroke-width:1px;stroke-linecap:butt;stroke-linejoin:miter;stroke-opacity:1" d="M 441.462,130.518 447.756,130.518 z" id="boundary" inkscape:connector-curvature="0" />
	<path style="fill:none;stroke:red;stroke-width:1px;stroke-linecap:butt;stroke-linejoin:miter;stroke-opacity:1" d="M 445.239,19.736 451.533,19.736 z" id="boundary" inkscape:connector-curvature="0" />
	<path style="fill:none;stroke:red;stroke-width:1px;stroke-linecap:butt;stroke-linejoin:miter;stroke-opacity:1" d="M 447.756,130.518 454.051,130.518 z" id="boundary" inkscape:connector-curvature="0" />
	<path style="fill:none;stroke:red;stroke-width:1px;stroke-linecap:butt;stroke-linejoin:miter;stroke-opacity:1" d="M 451.533,19.736 457.827,19.736 z" id="boundary" inkscape:connector-curvature="0" />
	<path style="fill:none;stroke:red;stroke-width:1px;stroke-linecap:butt;stroke-linejoin:miter;stroke-opacity:1" d="M 454.051,130.518 460.345,130.518 z" id="boundary" inkscape:connector-curvature="0" />
	<path style="fill:none;stroke:red;stroke-width:1px;stroke-linecap:butt;stroke-linejoin:miter;stroke-opacity:1" d="M 457.827,19.736 464.122,19.736 z" id="boundary" inkscape:connector-curvature="0" />
	<path style="fill:none;stroke:red;stroke-width:1px;stroke-linecap:butt;stroke-linejoin:miter;stroke-opacity:1" d="M 460.345,130.518 466.64,130.518 z" id="boundary" inkscape:connector-curvature="0" />
	<path style="fill:none;stroke:red;stroke-width:1px;stroke-linecap:butt;stroke-linejoin:miter;stroke-opacity:1" d="M 464.122,19.736 470.416,19.736 z" id="boundary" inkscape:connector-curvature="0" />
	<path style="fill:none;stroke:red;stroke-width:1px;stroke-linecap:butt;stroke-linejoin:miter;stroke-opacity:1" d="M 466.64,130.518 472.934,130.518 z" id="boundary" inkscape:connector-curvature="0" />
	<path style="fill:none;stroke:red;stroke-width:1px;stroke-linecap:butt;stroke-linejoin:miter;stroke-opacity:1" d="M 470.416,19.736 476.711,19.736 z" id="boundary" inkscape:connector-curvature="0" />
	<path style="fill:none;stroke:red;stroke-width:1px;stroke-linecap:butt;stroke-linejoin:miter;stroke-opacity:1" d="M 472.934,130.518 479.228,130.518 z" id="boundary" inkscape:connector-curvature="0" />
	<path style="fill:none;stroke:red;stroke-width:1px;stroke-linecap:butt;stroke-linejoin:miter;stroke-opacity:1" d="M 476.711,19.736 482.376,22.8832 z" id="boundary" inkscape:connector-curvature="0" />
	<path style="fill:none;stroke:red;stroke-width:1px;stroke-linecap:butt;stroke-linejoin:miter;stroke-opacity:1" d="M 479.228,130.518 485.523,130.518 z" id="boundary" inkscape:connector-curvature="0" />
	<path style="fill:none;stroke:red;stroke-width:1px;stroke-linecap:butt;stroke-linejoin:miter;stroke-opacity:1" d="M 482.376,22.8832 488.67,22.8832 z" id="boundary" inkscape:connector-curvature="0" />
	<path style="fill:none;stroke:red;stroke-width:1px;stroke-linecap:butt;stroke-linejoin:miter;stroke-opacity:1" d="M 485.523,130.518 491.817,130.518 z" id="boundary" inkscape:connector-curvature="0" />
	<path style="fill:none;stroke:red;stroke-width:1px;stroke-linecap:butt;stroke-linejoin:miter;stroke-opacity:1" d="M 488.67,22.8832 494.964,22.8832 z" id="boundary" inkscape:connector-curvature="0" />
	<path style="fill:none;stroke:red;stroke-width:1px;stroke-linecap:butt;stroke-linejoin:miter;stroke-opacity:1" d="M 491.817,130.518 498.112,130.518 z" id="boundary" inkscape:connector-curvature="0" />
	<path style="fill:none;stroke:red;stroke-width:1px;stroke-linecap:butt;stroke-linejoin:miter;stroke-opacity:1" d="M 494.964,22.8832 501.259,22.8832 z" id="boundary" inkscape:connector-curvature="0" />
	<path style="fill:none;stroke:red;stroke-width:1px;stroke-linecap:butt;stroke-linejoin:miter;stroke-opacity:1" d="M 498.112,130.518 503.777,127.371 z" id="boundary" inkscape:connector-curvature="0" />
	<path style="fill:none;stroke:red;stroke-width:1px;stroke-linecap:butt;stroke-linejoin:miter;stroke-opacity:1" d="M 501.259,22.8832 507.553,22.8832 z" id="boundary" inkscape:connector-curvature="0" />
	<path style="fill:none;stroke:red;stroke-width:1px;stroke-linecap:butt;stroke-linejoin:miter;stroke-opacity:1" d="M 503.777,127.371 510.071,127.371 z" id="boundary" inkscape:connector-curvature="0" />
	<path style="fill:none;stroke:red;stroke-width:1px;stroke-linecap:butt;stroke-linejoin:miter;stroke-opacity:1" d="M 507.553,22.8832 513.848,22.8832 z" id="boundary" inkscape:connector-curvature="0" />
	<path style="fill:none;stroke:red;stroke-width:1px;stroke-linecap:butt;stroke-linejoin:miter;stroke-opacity:1" d="M 510.071,127.371 516.365,127.371 z" id="boundary" inkscape:connector-curvature="0" />
	<path style="fill:none;stroke:red;stroke-width:1px;stroke-linecap:butt;stroke-linejoin:miter;stroke-opacity:1" d="M 513.848,22.8832 520.142,22.8832 z" id="boundary" inkscape:connector-curvature="0" />
	<path style="fill:none;stroke:red;stroke-width:1px;stroke-linecap:butt;stroke-linejoin:miter;stroke-opacity:1" d="M 516.365,127.371 522.66,127.371 z" id="boundary" inkscape:connector-curvature="0" />
	<path style="fill:none;stroke:red;stroke-width:1px;stroke-linecap:butt;stroke-linejoin:miter;stroke-opacity:1" d="M 520.142,22.8832 526.437,22.8832 z" id="boundary" inkscape:connector-curvature="0" />
	<path style="fill:none;stroke:red;stroke-width:1px;stroke-linecap:butt;stroke-linejoin:miter;stroke-opacity:1" d="M 522.66,127.371 528.954,127.371 z" id="boundary" inkscape:connector-curvature="0" />
	<path style="fill:none;stroke:red;stroke-width:1px;stroke-linecap:butt;stroke-linejoin:miter;stroke-opacity:1" d="M 526.437,22.8832 532.731,22.8832 z" id="boundary" inkscape:connector-curvature="0" />
	<path style="fill:none;stroke:red;stroke-width:1px;stroke-linecap:butt;stroke-linejoin:miter;stroke-opacity:1" d="M 528.954,127.371 535.249,127.371 z" id="boundary" inkscape:connector-curvature="0" />
	<path style="fill:none;stroke:red;stroke-width:1px;stroke-linecap:butt;stroke-linejoin:miter;stroke-opacity:1" d="M 532.731,22.8832 539.025,22.8832 z" id="boundary" inkscape:connector-curvature="0" />
	<path style="fill:none;stroke:red;stroke-width:1px;stroke-linecap:butt;stroke-linejoin:miter;stroke-opacity:1" d="M 535.249,127.371 541.543,127.371 z" id="boundary" inkscape:connector-curvature="0" />
	<path style="fill:none;stroke:red;stroke-width:1px;stroke-linecap:butt;stroke-linejoin:miter;stroke-opacity:1" d="M 539.025,22.8832 545.32,22.8832 z" id="boundary" inkscape:connector-curvature="0" />
	<path style="fill:none;stroke:red;stroke-width:1px;stroke-linecap:butt;stroke-linejoin:miter;stroke-opacity:1" d="M 541.543,127.371 547.838,126.112 z" id="boundary" inkscape:connector-curvature="0" />
	<path style="fill:none;stroke:red;stroke-width:1px;stroke-linecap:butt;stroke-linejoin:miter;stroke-opacity:1" d="M 545.32,22.8832 551.614,22.8832 z" id="boundary" inkscape:connector-curvature="0" />
	<path style="fill:none;stroke:red;stroke-width:1px;stroke-linecap:butt;stroke-linejoin:miter;stroke-opacity:1" d="M 547.838,126.112 554.132,124.223 z" id="boundary" inkscape:connector-curvature="0" />
	<path style="fill:none;stroke:red;stroke-width:1px;stroke-linecap:butt;stroke-linejoin:miter;stroke-opacity:1" d="M 551.614,22.8832 557.909,22.8832 z" id="boundary" inkscape:connector-curvature="0" />
	<path style="fill:none;stroke:red;stroke-width:1px;stroke-linecap:butt;stroke-linejoin:miter;stroke-opacity:1" d="M 554.132,124.223 560.426,124.223 z" id="boundary" inkscape:connector-curvature="0" />
	<path style="fill:none;stroke:red;stroke-width:1px;stroke-linecap:butt;stroke-linejoin:miter;stroke-opacity:1" d="M 557.909,22.8832 564.203,22.8832 z" id="boundary" inkscape:connector-curvature="0" />
	<path style="fill:none;stroke:red;stroke-width:1px;stroke-linecap:butt;stroke-linejoin:miter;stroke-opacity:1" d="M 560.426,124.223 566.721,124.223 z" id="boundary" inkscape:connector-curvature="0" />
	<path style="fill:none;stroke:red;stroke-width:1px;stroke-linecap:butt;stroke-linejoin:miter;stroke-opacity:1" d="M 564.203,22.8832 570.497,22.8832 z" id="boundary" inkscape:connector-curvature="0" />
	<path style="fill:none;stroke:red;stroke-width:1px;stroke-linecap:butt;stroke-linejoin:miter;stroke-opacity:1" d="M 566.721,124.223 573.015,124.223 z" id="boundary" inkscape:connector-curvature="0" />
	<path style="fill:none;stroke:red;stroke-width:1px;stroke-linecap:butt;stroke-linejoin:miter;stroke-opacity:1" d="M 570.497,22.8832 576.792,22.8832 z" id="boundary" inkscape:connector-curvature="0" />
	<path style="fill:none;stroke:red;stroke-width:1px;stroke-linecap:butt;stroke-linejoin:miter;stroke-opacity:1" d="M 573.015,124.223 579.31,124.223 z" id="boundary" inkscape:connector-curvature="0" />
	<path style="fill:none;stroke:red;stroke-width:1px;stroke-linecap:butt;stroke-linejoin:miter;stroke-opacity:1" d="M 576.792,22.8832 582.457,26.0305 z" id="boundary" inkscape:connector-curvature="0" />
	<path style="fill:none;stroke:red;stroke-width:1px;stroke-linecap:butt;stroke-linejoin:miter;stroke-opacity:1" d="M 579.31,124.223 585.604,124.223 z" id="boundary" inkscape:connector-curvature="0" />
	<path style="fill:none;stroke:red;stroke-width:1px;stroke-linecap:butt;stroke-linejoin:miter;stroke-opacity:1" d="M 582.457,26.0305 588.751,26.0305 z" id="boundary" inkscape:connector-curvature="0" />
	<path style="fill:none;stroke:red;stroke-width:1px;stroke-linecap:butt;stroke-linejoin:miter;stroke-opacity:1" d="M 585.604,124.223 591.898,122.964 z" id="boundary" inkscape:connector-curvature="0" />
	<path style="fill:none;stroke:red;stroke-width:1px;stroke-linecap:butt;stroke-linejoin:miter;stroke-opacity:1" d="M 588.751,26.0305 594.416,22.8832 z" id="boundary" inkscape:connector-curvature="0" />
	<path style="fill:none;stroke:red;stroke-width:1px;stroke-linecap:butt;stroke-linejoin:miter;stroke-opacity:1" d="M 591.898,122.964 598.193,121.076 z" id="boundary" inkscape:connector-curvature="0" />
	<path style="fill:none;stroke:red;stroke-width:1px;stroke-linecap:butt;stroke-linejoin:miter;stroke-opacity:1" d="M 594.416,22.8832 600.711,22.8832 z" id="boundary" inkscape:connector-curvature="0" />
	<path style="fill:none;stroke:red;stroke-width:1px;stroke-linecap:butt;stroke-linejoin:miter;stroke-opacity:1" d="M 598.193,121.076 604.487,121.076 z" id="boundary" inkscape:connector-curvature="0" />
	<path style="fill:none;stroke:red;stroke-width:1px;stroke-linecap:butt;stroke-linejoin:miter;stroke-opacity:1" d="M 600.711,22.8832 606.376,26.0305 z" id="boundary" inkscape:connector-curvature="0" />
	<path style="fill:none;stroke:red;stroke-width:1px;stroke-linecap:butt;stroke-linejoin:miter;stroke-opacity:1" d="M 604.487,121.076 610.782,121.076 z" id="boundary" inkscape:connector-curvature="0" />
	<path style="fill:none;stroke:red;stroke-width:1px;stroke-linecap:butt;stroke-linejoin:miter;stroke-opacity:1" d="M 606.376,26.0305 612.67,26.0305 z" id="boundary" inkscape:connector-curvature="0" />
	<path style="fill:none;stroke:red;stroke-width:1px;stroke-linecap:butt;stroke-linejoin:miter;stroke-opacity:1" d="M 610.782,121.076 617.076,121.076 z" id="boundary" inkscape:connector-curvature="0" />
	<path style="fill:none;stroke:red;stroke-width:1px;stroke-linecap:butt;stroke-linejoin:miter;stroke-opacity:1" d="M 612.67,26.0305 618.964,26.0305 z" id="boundary" inkscape:connector-curvature="0" />
	<path style="fill:none;stroke:red;stroke-width:1px;stroke-linecap:butt;stroke-linejoin:miter;stroke-opacity:1" d="M 617.076,121.076 623.371,121.076 z" id="boundary" inkscape:connector-curvature="0" />
	<path style="fill:none;stroke:red;stroke-width:1px;stroke-linecap:butt;stroke-linejoin:miter;stroke-opacity:1" d="M 618.964,26.0305 624.629,22.8832 z" id="boundary" inkscape:connector-curvature="0" />
	<path style="fill:none;stroke:red;stroke-width:1px;stroke-linecap:butt;stroke-linejoin:miter;stroke-opacity:1" d="M 623.371,121.076 629.665,121.076 z" id="boundary" inkscape:connector-curvature="0" />
	<path style="fill:none;stroke:red;stroke-width:1px;stroke-linecap:butt;stroke-linejoin:miter;stroke-opacity:1" d="M 624.629,22.8832 630.924,24.7716 z" id="boundary" inkscape:connector-curvature="0" />
	<path style="fill:none;stroke:red;stroke-width:1px;stroke-linecap:butt;stroke-linejoin:miter;stroke-opacity:1" d="M 629.665,121.076 635.33,117.929 z" id="boundary" inkscape:connector-curvature="0" />
	<path style="fill:none;stroke:red;stroke-width:1px;stroke-linecap:butt;stroke-linejoin:miter;stroke-opacity:1" d="M 630.924,24.7716 637.218,26.0305 z" id="boundary" inkscape:connector-curvature="0" />
	<path style="fill:none;stroke:red;stroke-width:1px;stroke-linecap:butt;stroke-linejoin:miter;stroke-opacity:1" d="M 635.33,117.929 641.624,117.929 z" id="boundary" inkscape:connector-curvature="0" />
	<path style="fill:none;stroke:red;stroke-width:1px;stroke-linecap:butt;stroke-linejoin:miter;stroke-opacity:1" d="M 637.218,26.0305 643.513,26.0305 z" id="boundary" inkscape:connector-curvature="0" />
	<path style="fill:none;stroke:red;stroke-width:1px;stroke-linecap:butt;stroke-linejoin:miter;stroke-opacity:1" d="M 641.624,117.929 647.919,117.929 z" id="boundary" inkscape:connector-curvature="0" />
	<path style="fill:none;stroke:red;stroke-width:1px;stroke-linecap:butt;stroke-linejoin:miter;stroke-opacity:1" d="M 643.513,26.0305 649.807,26.0305 z" id="boundary" inkscape:connector-curvature="0" />
	<path style="fill:none;stroke:red;stroke-width:1px;stroke-linecap:butt;stroke-linejoin:miter;stroke-opacity:1" d="M 647.919,117.929 653.584,114.782 z" id="boundary" inkscape:connector-curvature="0" />
	<path style="fill:none;stroke:red;stroke-width:1px;stroke-linecap:butt;stroke-linejoin:miter;stroke-opacity:1" d="M 649.807,26.0305 656.102,26.0305 z" id="boundary" inkscape:connector-curvature="0" />
	<path style="fill:none;stroke:red;stroke-width:1px;stroke-linecap:butt;stroke-linejoin:miter;stroke-opacity:1" d="M 653.584,114.782 659.878,114.782 z" id="boundary" inkscape:connector-curvature="0" />
	<path style="fill:none;stroke:red;stroke-width:1px;stroke-linecap:butt;stroke-linejoin:miter;stroke-opacity:1" d="M 656.102,26.0305 662.396,26.0305 z" id="boundary" inkscape:connector-curvature="0" />
	<path style="fill:none;stroke:red;stroke-width:1px;stroke-linecap:butt;stroke-linejoin:miter;stroke-opacity:1" d="M 659.878,114.782 666.173,114.782 z" id="boundary" inkscape:connector-curvature="0" />
	<path style="fill:none;stroke:red;stroke-width:1px;stroke-linecap:butt;stroke-linejoin:miter;stroke-opacity:1" d="M 662.396,26.0305 668.69,26.0305 z" id="boundary" inkscape:connector-curvature="0" />
	<path style="fill:none;stroke:red;stroke-width:1px;stroke-linecap:butt;stroke-linejoin:miter;stroke-opacity:1" d="M 666.173,114.782 672.467,114.782 z" id="boundary" inkscape:connector-curvature="0" />
	<path style="fill:none;stroke:red;stroke-width:1px;stroke-linecap:butt;stroke-linejoin:miter;stroke-opacity:1" d="M 668.69,26.0305 674.985,26.0305 z" id="boundary" inkscape:connector-curvature="0" />
	<path style="fill:none;stroke:red;stroke-width:1px;stroke-linecap:butt;stroke-linejoin:miter;stroke-opacity:1" d="M 672.467,114.782 678.761,114.782 z" id="boundary" inkscape:connector-curvature="0" />
	<path style="fill:none;stroke:red;stroke-width:1px;stroke-linecap:butt;stroke-linejoin:miter;stroke-opacity:1" d="M 674.985,26.0305 681.279,24.1421 z" id="boundary" inkscape:connector-curvature="0" />
	<path style="fill:none;stroke:red;stroke-width:1px;stroke-linecap:butt;stroke-linejoin:miter;stroke-opacity:1" d="M 678.761,114.782 685.056,114.782 z" id="boundary" inkscape:connector-curvature="0" />
	<path style="fill:none;stroke:red;stroke-width:1px;stroke-linecap:butt;stroke-linejoin:miter;stroke-opacity:1" d="M 681.279,24.1421 687.574,22.8832 z" id="boundary" inkscape:connector-curvature="0" />
	<path style="fill:none;stroke:red;stroke-width:1px;stroke-linecap:butt;stroke-linejoin:miter;stroke-opacity:1" d="M 685.056,114.782 691.35,114.782 z" id="boundary" inkscape:connector-curvature="0" />
	<path style="fill:none;stroke:red;stroke-width:1px;stroke-linecap:butt;stroke-linejoin:miter;stroke-opacity:1" d="M 687.574,22.8832 693.868,22.8832 z" id="boundary" inkscape:connector-curvature="0" />
	<path style="fill:none;stroke:red;stroke-width:1px;stroke-linecap:butt;stroke-linejoin:miter;stroke-opacity:1" d="M 691.35,114.782 697.645,114.782 z" id="boundary" inkscape:connector-curvature="0" />
	<path style="fill:none;stroke:red;stroke-width:1px;stroke-linecap:butt;stroke-linejoin:miter;stroke-opacity:1" d="M 693.868,22.8832 700.162,22.8832 z" id="boundary" inkscape:connector-curvature="0" />
	<path style="fill:none;stroke:red;stroke-width:1px;stroke-linecap:butt;stroke-linejoin:miter;stroke-opacity:1" d="M 697.645,114.782 703.31,111.635 z" id="boundary" inkscape:connector-curvature="0" />
	<path style="fill:none;stroke:red;stroke-width:1px;stroke-linecap:butt;stroke-linejoin:miter;stroke-opacity:1" d="M 700.162,22.8832 706.457,22.8832 z" id="boundary" inkscape:connector-curvature="0" />
	<path style="fill:none;stroke:red;stroke-width:1px;stroke-linecap:butt;stroke-linejoin:miter;stroke-opacity:1" d="M 703.31,111.635 709.604,111.635 z" id="boundary" inkscape:connector-curvature="0" />
	<path style="fill:none;stroke:red;stroke-width:1px;stroke-linecap:butt;stroke-linejoin:miter;stroke-opacity:1" d="M 706.457,22.8832 712.751,22.8832 z" id="boundary" inkscape:connector-curvature="0" />
	<path style="fill:none;stroke:red;stroke-width:1px;stroke-linecap:butt;stroke-linejoin:miter;stroke-opacity:1" d="M 709.604,111.635 715.898,111.635 z" id="boundary" inkscape:connector-curvature="0" />
	<path style="fill:none;stroke:red;stroke-width:1px;stroke-linecap:butt;stroke-linejoin:miter;stroke-opacity:1" d="M 712.751,22.8832 719.046,22.8832 z" id="boundary" inkscape:connector-curvature="0" />
	<path style="fill:none;stroke:red;stroke-width:1px;stroke-linecap:butt;stroke-linejoin:miter;stroke-opacity:1" d="M 715.898,111.635 722.193,111.635 z" id="boundary" inkscape:connector-curvature="0" />
	<path style="fill:none;stroke:red;stroke-width:1px;stroke-linecap:butt;stroke-linejoin:miter;stroke-opacity:1" d="M 719.046,22.8832 725.34,22.8832 z" id="boundary" inkscape:connector-curvature="0" />
	<path style="fill:none;stroke:red;stroke-width:1px;stroke-linecap:butt;stroke-linejoin:miter;stroke-opacity:1" d="M 722.193,111.635 728.487,111.635 z" id="boundary" inkscape:connector-curvature="0" />
	<path style="fill:none;stroke:red;stroke-width:1px;stroke-linecap:butt;stroke-linejoin:miter;stroke-opacity:1" d="M 725.34,22.8832 731.635,22.8832 z" id="boundary" inkscape:connector-curvature="0" />
	<path style="fill:none;stroke:red;stroke-width:1px;stroke-linecap:butt;stroke-linejoin:miter;stroke-opacity:1" d="M 728.487,111.635 734.782,111.635 z" id="boundary" inkscape:connector-curvature="0" />
	<path style="fill:none;stroke:red;stroke-width:1px;stroke-linecap:butt;stroke-linejoin:miter;stroke-opacity:1" d="M 731.635,22.8832 737.929,22.8832 z" id="boundary" inkscape:connector-curvature="0" />
	<path style="fill:none;stroke:red;stroke-width:1px;stroke-linecap:butt;stroke-linejoin:miter;stroke-opacity:1" d="M 734.782,111.635 741.076,111.635 z" id="boundary" inkscape:connector-curvature="0" />
	<path style="fill:none;stroke:red;stroke-width:1px;stroke-linecap:butt;stroke-linejoin:miter;stroke-opacity:1" d="M 737.929,22.8832 744.223,22.8832 z" id="boundary" inkscape:connector-curvature="0" />
	<path style="fill:none;stroke:red;stroke-width:1px;stroke-linecap:butt;stroke-linejoin:miter;stroke-opacity:1" d="M 741.076,111.635 747.371,111.635 z" id="boundary" inkscape:connector-curvature="0" />
	<path style="fill:none;stroke:red;stroke-width:1px;stroke-linecap:butt;stroke-linejoin:miter;stroke-opacity:1" d="M 744.223,22.8832 750.518,22.8832 z" id="boundary" inkscape:connector-curvature="0" />
	<path style="fill:none;stroke:red;stroke-width:1px;stroke-linecap:butt;stroke-linejoin:miter;stroke-opacity:1" d="M 747.371,111.635 753.665,111.635 z" id="boundary" inkscape:connector-curvature="0" />
	<path style="fill:none;stroke:red;stroke-width:1px;stroke-linecap:butt;stroke-linejoin:miter;stroke-opacity:1" d="M 750.518,22.8832 756.812,22.8832 z" id="boundary" inkscape:connector-curvature="0" />
	<path style="fill:none;stroke:red;stroke-width:1px;stroke-linecap:butt;stroke-linejoin:miter;stroke-opacity:1" d="M 753.665,111.635 759.959,108.487 z" id="boundary" inkscape:connector-curvature="0" />
	<path style="fill:none;stroke:red;stroke-width:1px;stroke-linecap:butt;stroke-linejoin:miter;stroke-opacity:1" d="M 756.812,22.8832 763.107,22.8832 z" id="boundary" inkscape:connector-curvature="0" />
	<path style="fill:none;stroke:red;stroke-width:1px;stroke-linecap:butt;stroke-linejoin:miter;stroke-opacity:1" d="M 759.959,108.487 766.254,108.487 z" id="boundary" inkscape:connector-curvature="0" />
	<path style="fill:none;stroke:red;stroke-width:1px;stroke-linecap:butt;stroke-linejoin:miter;stroke-opacity:1" d="M 763.107,22.8832 769.401,22.8832 z" id="boundary" inkscape:connector-curvature="0" />
	<path style="fill:none;stroke:red;stroke-width:1px;stroke-linecap:butt;stroke-linejoin:miter;stroke-opacity:1" d="M 766.254,108.487 772.548,108.487 z" id="boundary" inkscape:connector-curvature="0" />
	<path style="fill:none;stroke:red;stroke-width:1px;stroke-linecap:butt;stroke-linejoin:miter;stroke-opacity:1" d="M 769.401,22.8832 775.695,22.8832 z" id="boundary" inkscape:connector-curvature="0" />
	<path style="fill:none;stroke:red;stroke-width:1px;stroke-linecap:butt;stroke-linejoin:miter;stroke-opacity:1" d="M 772.548,108.487 778.843,108.487 z" id="boundary" inkscape:connector-curvature="0" />
	<path style="fill:none;stroke:red;stroke-width:1px;stroke-linecap:butt;stroke-linejoin:miter;stroke-opacity:1" d="M 775.695,22.8832 781.99,22.8832 z" id="boundary" inkscape:connector-curvature="0" />
	<path style="fill:none;stroke:red;stroke-width:1px;stroke-linecap:butt;stroke-linejoin:miter;stroke-opacity:1" d="M 778.843,108.487 785.137,108.487 z" id="boundary" inkscape:connector-curvature="0" />
	<path style="fill:none;stroke:red;stroke-width:1px;stroke-linecap:butt;stroke-linejoin:miter;stroke-opacity:1" d="M 781.99,22.8832 788.284,22.8832 z" id="boundary" inkscape:connector-curvature="0" />
	<path style="fill:none;stroke:red;stroke-width:1px;stroke-linecap:butt;stroke-linejoin:miter;stroke-opacity:1" d="M 785.137,108.487 791.431,108.487 z" id="boundary" inkscape:connector-curvature="0" />
	<path style="fill:none;stroke:red;stroke-width:1px;stroke-linecap:butt;stroke-linejoin:miter;stroke-opacity:1" d="M 788.284,22.8832 794.579,22.8832 z" id="boundary" inkscape:connector-curvature="0" />
	<path style="fill:none;stroke:red;stroke-width:1px;stroke-linecap:butt;stroke-linejoin:miter;stroke-opacity:1" d="M 791.431,108.487 797.726,108.487 z" id="boundary" inkscape:connector-curvature="0" />
	<path style="fill:none;stroke:red;stroke-width:1px;stroke-linecap:butt;stroke-linejoin:miter;stroke-opacity:1" d="M 794.579,22.8832 800.873,22.8832 z" id="boundary" inkscape:connector-curvature="0" />
	<path style="fill:none;stroke:red;stroke-width:1px;stroke-linecap:butt;stroke-linejoin:miter;stroke-opacity:1" d="M 797.726,108.487 804.02,108.487 z" id="boundary" inkscape:connector-curvature="0" />
	<path style="fill:none;stroke:red;stroke-width:1px;stroke-linecap:butt;stroke-linejoin:miter;stroke-opacity:1" d="M 800.873,22.8832 807.168,22.8832 z" id="boundary" inkscape:connector-curvature="0" />
	<path style="fill:none;stroke:red;stroke-width:1px;stroke-linecap:butt;stroke-linejoin:miter;stroke-opacity:1" d="M 804.02,108.487 810.315,108.487 z" id="boundary" inkscape:connector-curvature="0" />
	<path style="fill:none;stroke:red;stroke-width:1px;stroke-linecap:butt;stroke-linejoin:miter;stroke-opacity:1" d="M 807.168,22.8832 813.462,22.8832 z" id="boundary" inkscape:connector-curvature="0" />
	<path style="fill:none;stroke:red;stroke-width:1px;stroke-linecap:butt;stroke-linejoin:miter;stroke-opacity:1" d="M 810.315,108.487 815.98,105.34 z" id="boundary" inkscape:connector-curvature="0" />
	<path style="fill:none;stroke:red;stroke-width:1px;stroke-linecap:butt;stroke-linejoin:miter;stroke-opacity:1" d="M 813.462,22.8832 819.756,22.8832 z" id="boundary" inkscape:connector-curvature="0" />
	<path style="fill:none;stroke:red;stroke-width:1px;stroke-linecap:butt;stroke-linejoin:miter;stroke-opacity:1" d="M 815.98,105.34 822.274,105.34 z" id="boundary" inkscape:connector-curvature="0" />
	<path style="fill:none;stroke:red;stroke-width:1px;stroke-linecap:butt;stroke-linejoin:miter;stroke-opacity:1" d="M 819.756,22.8832 826.051,22.8832 z" id="boundary" inkscape:connector-curvature="0" />
	<path style="fill:none;stroke:red;stroke-width:1px;stroke-linecap:butt;stroke-linejoin:miter;stroke-opacity:1" d="M 822.274,105.34 828.569,105.34 z" id="boundary" inkscape:connector-curvature="0" />
	<path style="fill:none;stroke:red;stroke-width:1px;stroke-linecap:butt;stroke-linejoin:miter;stroke-opacity:1" d="M 826.051,22.8832 832.345,22.8832 z" id="boundary" inkscape:connector-curvature="0" />
	<path style="fill:none;stroke:red;stroke-width:1px;stroke-linecap:butt;stroke-linejoin:miter;stroke-opacity:1" d="M 828.569,105.34 834.863,105.34 z" id="boundary" inkscape:connector-curvature="0" />
	<path style="fill:none;stroke:red;stroke-width:1px;stroke-linecap:butt;stroke-linejoin:miter;stroke-opacity:1" d="M 832.345,22.8832 838.64,22.8832 z" id="boundary" inkscape:connector-curvature="0" />
	<path style="fill:none;stroke:red;stroke-width:1px;stroke-linecap:butt;stroke-linejoin:miter;stroke-opacity:1" d="M 834.863,105.34 841.157,105.34 z" id="boundary" inkscape:connector-curvature="0" />
	<path style="fill:none;stroke:red;stroke-width:1px;stroke-linecap:butt;stroke-linejoin:miter;stroke-opacity:1" d="M 838.64,22.8832 844.934,22.8832 z" id="boundary" inkscape:connector-curvature="0" />
	<path style="fill:none;stroke:red;stroke-width:1px;stroke-linecap:butt;stroke-linejoin:miter;stroke-opacity:1" d="M 841.157,105.34 847.452,105.34 z" id="boundary" inkscape:connector-curvature="0" />
	<path style="fill:none;stroke:red;stroke-width:1px;stroke-linecap:butt;stroke-linejoin:miter;stroke-opacity:1" d="M 844.934,22.8832 851.228,22.8832 z" id="boundary" inkscape:connector-curvature="0" />
	<path style="fill:none;stroke:red;stroke-width:1px;stroke-linecap:butt;stroke-linejoin:miter;stroke-opacity:1" d="M 847.452,105.34 853.746,105.34 z" id="boundary" inkscape:connector-curvature="0" />
	<path style="fill:none;stroke:red;stroke-width:1px;stroke-linecap:butt;stroke-linejoin:miter;stroke-opacity:1" d="M 851.228,22.8832 856.893,26.0305 z" id="boundary" inkscape:connector-curvature="0" />
	<path style="fill:none;stroke:red;stroke-width:1px;stroke-linecap:butt;stroke-linejoin:miter;stroke-opacity:1" d="M 853.746,105.34 859.411,102.193 z" id="boundary" inkscape:connector-curvature="0" />
	<path style="fill:none;stroke:red;stroke-width:1px;stroke-linecap:butt;stroke-linejoin:miter;stroke-opacity:1" d="M 856.893,26.0305 861.929,29.8071 z" id="boundary" inkscape:connector-curvature="0" />
	<path style="fill:none;stroke:red;stroke-width:1px;stroke-linecap:butt;stroke-linejoin:miter;stroke-opacity:1" d="M 859.411,102.193 865.076,98.4162 z" id="boundary" inkscape:connector-curvature="0" />
	<path style="fill:none;stroke:red;stroke-width:1px;stroke-linecap:butt;stroke-linejoin:miter;stroke-opacity:1" d="M 861.929,29.8071 868.223,32.3249 z" id="boundary" inkscape:connector-curvature="0" />
	<path style="fill:none;stroke:red;stroke-width:1px;stroke-linecap:butt;stroke-linejoin:miter;stroke-opacity:1" d="M 865.076,98.4162 871.371,95.269 z" id="boundary" inkscape:connector-curvature="0" />
	<path style="fill:none;stroke:red;stroke-width:1px;stroke-linecap:butt;stroke-linejoin:miter;stroke-opacity:1" d="M 868.223,32.3249 874.518,32.3249 z" id="boundary" inkscape:connector-curvature="0" />
	<path style="fill:none;stroke:red;stroke-width:1px;stroke-linecap:butt;stroke-linejoin:miter;stroke-opacity:1" d="M 871.371,95.269 877.665,92.7513 z" id="boundary" inkscape:connector-curvature="0" />
	<path style="fill:none;stroke:red;stroke-width:1px;stroke-linecap:butt;stroke-linejoin:miter;stroke-opacity:1" d="M 874.518,32.3249 880.812,32.3249 z" id="boundary" inkscape:connector-curvature="0" />
	<path style="fill:none;stroke:red;stroke-width:1px;stroke-linecap:butt;stroke-linejoin:miter;stroke-opacity:1" d="M 877.665,92.7513 883.959,92.7513 z" id="boundary" inkscape:connector-curvature="0" />
	<path style="fill:none;stroke:red;stroke-width:1px;stroke-linecap:butt;stroke-linejoin:miter;stroke-opacity:1" d="M 880.812,32.3249 887.107,32.3249 z" id="boundary" inkscape:connector-curvature="0" />
	<path style="fill:none;stroke:red;stroke-width:1px;stroke-linecap:butt;stroke-linejoin:miter;stroke-opacity:1" d="M 883.959,92.7513 890.254,92.7513 z" id="boundary" inkscape:connector-curvature="0" />
	<path style="fill:none;stroke:red;stroke-width:1px;stroke-linecap:butt;stroke-linejoin:miter;stroke-opacity:1" d="M 887.107,32.3249 892.772,29.1777 z" id="boundary" inkscape:connector-curvature="0" />
	<path style="fill:none;stroke:red;stroke-width:1px;stroke-linecap:butt;stroke-linejoin:miter;stroke-opacity:1" d="M 890.254,92.7513 896.548,92.7513 z" id="boundary" inkscape:connector-curvature="0" />
	<path style="fill:none;stroke:red;stroke-width:1px;stroke-linecap:butt;stroke-linejoin:miter;stroke-opacity:1" d="M 892.772,29.1777 899.066,29.1777 z" id="boundary" inkscape:connector-curvature="0" />
	<path style="fill:none;stroke:red;stroke-width:1px;stroke-linecap:butt;stroke-linejoin:miter;stroke-opacity:1" d="M 896.548,92.7513 902.843,92.7513 z" id="boundary" inkscape:connector-curvature="0" />
	<path style="fill:none;stroke:red;stroke-width:1px;stroke-linecap:butt;stroke-linejoin:miter;stroke-opacity:1" d="M 899.066,29.1777 905.36,29.1777 z" id="boundary" inkscape:connector-curvature="0" />
	<path style="fill:none;stroke:red;stroke-width:1px;stroke-linecap:butt;stroke-linejoin:miter;stroke-opacity:1" d="M 902.843,92.7513 909.137,92.7513 z" id="boundary" inkscape:connector-curvature="0" />
	<path style="fill:none;stroke:red;stroke-width:1px;stroke-linecap:butt;stroke-linejoin:miter;stroke-opacity:1" d="M 905.36,29.1777 911.655,29.1777 z" id="boundary" inkscape:connector-curvature="0" />
	<path style="fill:none;stroke:red;stroke-width:1px;stroke-linecap:butt;stroke-linejoin:miter;stroke-opacity:1" d="M 909.137,92.7513 915.431,92.7513 z" id="boundary" inkscape:connector-curvature="0" />
	<path style="fill:none;stroke:red;stroke-width:1px;stroke-linecap:butt;stroke-linejoin:miter;stroke-opacity:1" d="M 911.655,29.1777 917.32,26.0305 z" id="boundary" inkscape:connector-curvature="0" />
	<path style="fill:none;stroke:red;stroke-width:1px;stroke-linecap:butt;stroke-linejoin:miter;stroke-opacity:1" d="M 915.431,92.7513 921.726,92.7513 z" id="boundary" inkscape:connector-curvature="0" />
	<path style="fill:none;stroke:red;stroke-width:1px;stroke-linecap:butt;stroke-linejoin:miter;stroke-opacity:1" d="M 917.32,26.0305 923.614,24.1421 z" id="boundary" inkscape:connector-curvature="0" />
	<path style="fill:none;stroke:red;stroke-width:1px;stroke-linecap:butt;stroke-linejoin:miter;stroke-opacity:1" d="M 921.726,92.7513 928.02,92.7513 z" id="boundary" inkscape:connector-curvature="0" />
	<path style="fill:none;stroke:red;stroke-width:1px;stroke-linecap:butt;stroke-linejoin:miter;stroke-opacity:1" d="M 923.614,24.1421 929.909,22.8832 z" id="boundary" inkscape:connector-curvature="0" />
	<path style="fill:none;stroke:red;stroke-width:1px;stroke-linecap:butt;stroke-linejoin:miter;stroke-opacity:1" d="M 928.02,92.7513 933.685,95.8985 z" id="boundary" inkscape:connector-curvature="0" />
	<path style="fill:none;stroke:red;stroke-width:1px;stroke-linecap:butt;stroke-linejoin:miter;stroke-opacity:1" d="M 929.909,22.8832 936.203,20.9949 z" id="boundary" inkscape:connector-curvature="0" />
	<path style="fill:none;stroke:red;stroke-width:1px;stroke-linecap:butt;stroke-linejoin:miter;stroke-opacity:1" d="M 933.685,95.8985 939.98,95.8985 z" id="boundary" inkscape:connector-curvature="0" />
	<path style="fill:none;stroke:red;stroke-width:1px;stroke-linecap:butt;stroke-linejoin:miter;stroke-opacity:1" d="M 936.203,20.9949 942.497,19.736 z" id="boundary" inkscape:connector-curvature="0" />
	<path style="fill:none;stroke:red;stroke-width:1px;stroke-linecap:butt;stroke-linejoin:miter;stroke-opacity:1" d="M 939.98,95.8985 946.274,95.8985 z" id="boundary" inkscape:connector-curvature="0" />
	<path style="fill:none;stroke:red;stroke-width:1px;stroke-linecap:butt;stroke-linejoin:miter;stroke-opacity:1" d="M 942.497,19.736 948.162,22.8832 z" id="boundary" inkscape:connector-curvature="0" />
	<path style="fill:none;stroke:red;stroke-width:1px;stroke-linecap:butt;stroke-linejoin:miter;stroke-opacity:1" d="M 946.274,95.8985 951.939,92.7513 z" id="boundary" inkscape:connector-curvature="0" />
	<path style="fill:none;stroke:red;stroke-width:1px;stroke-linecap:butt;stroke-linejoin:miter;stroke-opacity:1" d="M 948.162,22.8832 954.457,24.1421 z" id="boundary" inkscape:connector-curvature="0" />
	<path style="fill:none;stroke:red;stroke-width:1px;stroke-linecap:butt;stroke-linejoin:miter;stroke-opacity:1" d="M 951.939,92.7513 958.234,89.6041 z" id="boundary" inkscape:connector-curvature="0" />
	<path style="fill:none;stroke:red;stroke-width:1px;stroke-linecap:butt;stroke-linejoin:miter;stroke-opacity:1" d="M 954.457,24.1421 958.234,29.1777 z" id="boundary" inkscape:connector-curvature="0" />
	<path style="fill:none;stroke:red;stroke-width:1px;stroke-linecap:butt;stroke-linejoin:miter;stroke-opacity:1" d="M 958.234,29.1777 964.528,31.066 z" id="boundary" inkscape:connector-curvature="0" />
	<path style="fill:none;stroke:red;stroke-width:1px;stroke-linecap:butt;stroke-linejoin:miter;stroke-opacity:1" d="M 958.234,89.6041 964.528,86.4569 z" id="boundary" inkscape:connector-curvature="0" />
	<path style="fill:none;stroke:red;stroke-width:1px;stroke-linecap:butt;stroke-linejoin:miter;stroke-opacity:1" d="M 964.528,31.066 970.193,34.2132 z" id="boundary" inkscape:connector-curvature="0" />
	<path style="fill:none;stroke:red;stroke-width:1px;stroke-linecap:butt;stroke-linejoin:miter;stroke-opacity:1" d="M 964.528,86.4569 969.563,82.0508 z" id="boundary" inkscape:connector-curvature="0" />
	<path style="fill:none;stroke:red;stroke-width:1px;stroke-linecap:butt;stroke-linejoin:miter;stroke-opacity:1" d="M 969.563,82.0508 975.858,78.9036 z" id="boundary" inkscape:connector-curvature="0" />
	<path style="fill:none;stroke:red;stroke-width:1px;stroke-linecap:butt;stroke-linejoin:miter;stroke-opacity:1" d="M 970.193,34.2132 975.228,38.6193 z" id="boundary" inkscape:connector-curvature="0" />
	<path style="fill:none;stroke:red;stroke-width:1px;stroke-linecap:butt;stroke-linejoin:miter;stroke-opacity:1" d="M 975.228,38.6193 980.893,41.7665 z" id="boundary" inkscape:connector-curvature="0" />
	<path style="fill:none;stroke:red;stroke-width:1px;stroke-linecap:butt;stroke-linejoin:miter;stroke-opacity:1" d="M 975.858,78.9036 980.264,73.868 z" id="boundary" inkscape:connector-curvature="0" />
	<path style="fill:none;stroke:red;stroke-width:1px;stroke-linecap:butt;stroke-linejoin:miter;stroke-opacity:1" d="M 980.264,73.868 985.299,69.4619 z" id="boundary" inkscape:connector-curvature="0" />
	<path style="fill:none;stroke:red;stroke-width:1px;stroke-linecap:butt;stroke-linejoin:miter;stroke-opacity:1" d="M 980.893,41.7665 986.558,44.9137 z" id="boundary" inkscape:connector-curvature="0" />
	<path style="fill:none;stroke:red;stroke-width:1px;stroke-linecap:butt;stroke-linejoin:miter;stroke-opacity:1" d="M 985.299,69.4619 989.706,64.4264 z" id="boundary" inkscape:connector-curvature="0" />
	<path style="fill:none;stroke:red;stroke-width:1px;stroke-linecap:butt;stroke-linejoin:miter;stroke-opacity:1" d="M 986.558,44.9137 992.223,48.0609 z" id="boundary" inkscape:connector-curvature="0" />
	<circle cx="4" cy="59.3909" r="4" fill="#0" id="circle0"/>
	<circle cx="4" cy="65.6853" r="4" fill="#0" id="circle1"/>
	<circle cx="4" cy="71.9797" r="4" fill="#0" id="circle2"/>
	<circle cx="4" cy="78.2741" r="4" fill="#0" id="circle3"/>
	<circle cx="4" cy="84.5685" r="4" fill="#0" id="circle4"/>
	<circle cx="4" cy="90.8629" r="4" fill="#0" id="circle5"/>
	<circle cx="7.14721" cy="53.0964" r="4" fill="#0" id="circle6"/>
	<circle cx="7.14721" cy="96.5279" r="4" fill="#0" id="circle7"/>
	<circle cx="10.2944" cy="46.802" r="4" fill="#0" id="circle8"/>
	<circle cx="10.2944" cy="102.193" r="4" fill="#0" id="circle9"/>
	<circle cx="10.2944" cy="108.487" r="4" fill="#0" id="circle10"/>
	<circle cx="10.2944" cy="114.782" r="4" fill="#0" id="circle11"/>
	<circle cx="10.2944" cy="121.076" r="4" fill="#0" id="circle12"/>
	<circle cx="10.2944" cy="127.371" r="4" fill="#0" id="circle13"/>
	<circle cx="10.2944" cy="133.665" r="4" fill="#0" id="circle14"/>
	<circle cx="13.4416" cy="21.6244" r="4" fill="#0" id="circle15"/>
	<circle cx="13.4416" cy="27.9188" r="4" fill="#0" id="circle16"/>
	<circle cx="13.4416" cy="34.2132" r="4" fill="#0" id="circle17"/>
	<circle cx="13.4416" cy="40.5076" r="4" fill="#0" id="circle18"/>
	<circle cx="14.0711" cy="138.701" r="4" fill="#0" id="circle19"/>
	<circle cx="16.5888" cy="15.3299" r="4" fill="#0" id="circle20"/>
	<circle cx="17.2183" cy="144.365" r="4" fill="#0" id="circle21"/>
	<circle cx="21.6244" cy="10.2944" r="4" fill="#0" id="circle22"/>
	<circle cx="22.8832" cy="147.513" r="4" fill="#0" id="circle23"/>
	<circle cx="27.2893" cy="7.14721" r="4" fill="#0" id="circle24"/>
	<circle cx="29.1777" cy="149.401" r="4" fill="#0" id="circle25"/>
	<circle cx="32.9543" cy="4" r="4" fill="#0" id="circle26"/>
	<circle cx="34.8426" cy="152.548" r="4" fill="#0" id="circle27"/>
	<circle cx="39.2487" cy="4" r="4" fill="#0" id="circle28"/>
	<circle cx="41.1371" cy="152.548" r="4" fill="#0" id="circle29"/>
	<circle cx="45.5431" cy="4" r="4" fill="#0" id="circle30"/>
	<circle cx="47.4315" cy="152.548" r="4" fill="#0" id="circle31"/>
	<circle cx="51.8376" cy="4" r="4" fill="#0" id="circle32"/>
	<circle cx="53.7259" cy="152.548" r="4" fill="#0" id="circle33"/>
	<circle cx="58.132" cy="4" r="4" fill="#0" id="circle34"/>
	<circle cx="60.0203" cy="152.548" r="4" fill="#0" id="circle35"/>
	<circle cx="64.4264" cy="4" r="4" fill="#0" id="circle36"/>
	<circle cx="66.3147" cy="152.548" r="4" fill="#0" id="circle37"/>
	<circle cx="70.7208" cy="4" r="4" fill="#0" id="circle38"/>
	<circle cx="72.6091" cy="152.548" r="4" fill="#0" id="circle39"/>
	<circle cx="77.0152" cy="4" r="4" fill="#0" id="circle40"/>
	<circle cx="78.9036" cy="152.548" r="4" fill="#0" id="circle41"/>
	<circle cx="82.6802" cy="7.14721" r="4" fill="#0" id="circle42"/>
	<circle cx="85.198" cy="152.548" r="4" fill="#0" id="circle43"/>
	<circle cx="88.9746" cy="7.14721" r="4" fill="#0" id="circle44"/>
	<circle cx="91.4924" cy="152.548" r="4" fill="#0" id="circle45"/>
	<circle cx="95.269" cy="7.14721" r="4" fill="#0" id="circle46"/>
	<circle cx="97.7868" cy="152.548" r="4" fill="#0" id="circle47"/>
	<circle cx="101.563" cy="7.14721" r="4" fill="#0" id="circle48"/>
	<circle cx="104.081" cy="152.548" r="4" fill="#0" id="circle49"/>
	<circle cx="107.858" cy="7.14721" r="4" fill="#0" id="circle50"/>
	<circle cx="110.376" cy="152.548" r="4" fill="#0" id="circle51"/>
	<circle cx="114.152" cy="7.14721" r="4" fill="#0" id="circle52"/>
	<circle cx="116.67" cy="152.548" r="4" fill="#0" id="circle53"/>
	<circle cx="120.447" cy="7.14721" r="4" fill="#0" id="circle54"/>
	<circle cx="122.964" cy="152.548" r="4" fill="#0" id="circle55"/>
	<circle cx="126.741" cy="7.14721" r="4" fill="#0" id="circle56"/>
	<circle cx="129.259" cy="151.289" r="4" fill="#0" id="circle57"/>
	<circle cx="133.036" cy="7.14721" r="4" fill="#0" id="circle58"/>
	<circle cx="135.553" cy="149.401" r="4" fill="#0" id="circle59"/>
	<circle cx="139.33" cy="7.14721" r="4" fill="#0" id="circle60"/>
	<circle cx="141.848" cy="149.401" r="4" fill="#0" id="circle61"/>
	<circle cx="145.624" cy="7.14721" r="4" fill="#0" id="circle62"/>
	<circle cx="147.513" cy="152.548" r="4" fill="#0" id="circle63"/>
	<circle cx="151.919" cy="7.14721" r="4" fill="#0" id="circle64"/>
	<circle cx="153.807" cy="152.548" r="4" fill="#0" id="circle65"/>
	<circle cx="158.213" cy="7.14721" r="4" fill="#0" id="circle66"/>
	<circle cx="160.102" cy="152.548" r="4" fill="#0" id="circle67"/>
	<circle cx="164.508" cy="7.14721" r="4" fill="#0" id="circle68"/>
	<circle cx="166.396" cy="152.548" r="4" fill="#0" id="circle69"/>
	<circle cx="170.802" cy="7.14721" r="4" fill="#0" id="circle70"/>
	<circle cx="172.69" cy="151.919" r="4" fill="#0" id="circle71"/>
	<circle cx="177.096" cy="7.14721" r="4" fill="#0" id="circle72"/>
	<circle cx="178.985" cy="149.401" r="4" fill="#0" id="circle73"/>
	<circle cx="183.391" cy="7.14721" r="4" fill="#0" id="circle74"/>
	<circle cx="185.279" cy="149.401" r="4" fill="#0" id="circle75"/>
	<circle cx="189.685" cy="7.14721" r="4" fill="#0" id="circle76"/>
	<circle cx="191.574" cy="149.401" r="4" fill="#0" id="circle77"/>
	<circle cx="195.98" cy="7.14721" r="4" fill="#0" id="circle78"/>
	<circle cx="197.868" cy="149.401" r="4" fill="#0" id="circle79"/>
	<circle cx="202.274" cy="7.14721" r="4" fill="#0" id="circle80"/>
	<circle cx="204.162" cy="149.401" r="4" fill="#0" id="circle81"/>
	<circle cx="208.569" cy="7.14721" r="4" fill="#0" id="circle82"/>
	<circle cx="210.457" cy="149.401" r="4" fill="#0" id="circle83"/>
	<circle cx="214.863" cy="7.14721" r="4" fill="#0" id="circle84"/>
	<circle cx="216.751" cy="149.401" r="4" fill="#0" id="circle85"/>
	<circle cx="221.157" cy="7.14721" r="4" fill="#0" id="circle86"/>
	<circle cx="223.046" cy="149.401" r="4" fill="#0" id="circle87"/>
	<circle cx="227.452" cy="7.14721" r="4" fill="#0" id="circle88"/>
	<circle cx="229.34" cy="149.401" r="4" fill="#0" id="circle89"/>
	<circle cx="233.117" cy="10.2944" r="4" fill="#0" id="circle90"/>
	<circle cx="235.635" cy="149.401" r="4" fill="#0" id="circle91"/>
	<circle cx="239.411" cy="10.2944" r="4" fill="#0" id="circle92"/>
	<circle cx="241.929" cy="149.401" r="4" fill="#0" id="circle93"/>
	<circle cx="245.706" cy="10.2944" r="4" fill="#0" id="circle94"/>
	<circle cx="248.223" cy="149.401" r="4" fill="#0" id="circle95"/>
	<circle cx="252" cy="10.2944" r="4" fill="#0" id="circle96"/>
	<circle cx="254.518" cy="149.401" r="4" fill="#0" id="circle97"/>
	<circle cx="258.294" cy="10.2944" r="4" fill="#0" id="circle98"/>
	<circle cx="260.812" cy="149.401" r="4" fill="#0" id="circle99"/>
	<circle cx="264.589" cy="10.2944" r="4" fill="#0" id="circle100"/>
	<circle cx="267.107" cy="149.401" r="4" fill="#0" id="circle101"/>
	<circle cx="270.883" cy="10.2944" r="4" fill="#0" id="circle102"/>
	<circle cx="273.401" cy="149.401" r="4" fill="#0" id="circle103"/>
	<circle cx="277.178" cy="10.2944" r="4" fill="#0" id="circle104"/>
	<circle cx="279.695" cy="149.401" r="4" fill="#0" id="circle105"/>
	<circle cx="283.472" cy="10.2944" r="4" fill="#0" id="circle106"/>
	<circle cx="285.99" cy="149.401" r="4" fill="#0" id="circle107"/>
	<circle cx="289.766" cy="10.2944" r="4" fill="#0" id="circle108"/>
	<circle cx="292.284" cy="148.772" r="4" fill="#0" id="circle109"/>
	<circle cx="296.061" cy="10.2944" r="4" fill="#0" id="circle110"/>
	<circle cx="298.579" cy="146.254" r="4" fill="#0" id="circle111"/>
	<circle cx="302.355" cy="10.2944" r="4" fill="#0" id="circle112"/>
	<circle cx="304.873" cy="146.254" r="4" fill="#0" id="circle113"/>
	<circle cx="308.65" cy="10.2944" r="4" fill="#0" id="circle114"/>
	<circle cx="311.168" cy="146.254" r="4" fill="#0" id="circle115"/>
	<circle cx="314.315" cy="13.4416" r="4" fill="#0" id="circle116"/>
	<circle cx="317.462" cy="146.254" r="4" fill="#0" id="circle117"/>
	<circle cx="320.609" cy="13.4416" r="4" fill="#0" id="circle118"/>
	<circle cx="323.756" cy="146.254" r="4" fill="#0" id="circle119"/>
	<circle cx="326.904" cy="13.4416" r="4" fill="#0" id="circle120"/>
	<circle cx="329.421" cy="143.107" r="4" fill="#0" id="circle121"/>
	<circle cx="333.198" cy="13.4416" r="4" fill="#0" id="circle122"/>
	<circle cx="335.716" cy="143.107" r="4" fill="#0" id="circle123"/>
	<circle cx="339.492" cy="13.4416" r="4" fill="#0" id="circle124"/>
	<circle cx="342.01" cy="143.107" r="4" fill="#0" id="circle125"/>
	<circle cx="345.787" cy="13.4416" r="4" fill="#0" id="circle126"/>
	<circle cx="347.675" cy="139.959" r="4" fill="#0" id="circle127"/>
	<circle cx="351.452" cy="16.5888" r="4" fill="#0" id="circle128"/>
	<circle cx="353.97" cy="136.812" r="4" fill="#0" id="circle129"/>
	<circle cx="357.746" cy="16.5888" r="4" fill="#0" id="circle130"/>
	<circle cx="360.264" cy="136.812" r="4" fill="#0" id="circle131"/>
	<circle cx="364.041" cy="16.5888" r="4" fill="#0" id="circle132"/>
	<circle cx="366.558" cy="136.812" r="4" fill="#0" id="circle133"/>
	<circle cx="370.335" cy="16.5888" r="4" fill="#0" id="circle134"/>
	<circle cx="372.853" cy="136.812" r="4" fill="#0" id="circle135"/>
	<circle cx="376.629" cy="16.5888" r="4" fill="#0" id="circle136"/>
	<circle cx="379.147" cy="133.665" r="4" fill="#0" id="circle137"/>
	<circle cx="382.924" cy="16.5888" r="4" fill="#0" id="circle138"/>
	<circle cx="385.442" cy="133.665" r="4" fill="#0" id="circle139"/>
	<circle cx="389.218" cy="16.5888" r="4" fill="#0" id="circle140"/>
	<circle cx="391.736" cy="133.665" r="4" fill="#0" id="circle141"/>
	<circle cx="394.883" cy="19.736" r="4" fill="#0" id="circle142"/>
	<circle cx="398.03" cy="133.665" r="4" fill="#0" id="circle143"/>
	<circle cx="401.178" cy="19.736" r="4" fill="#0" id="circle144"/>
	<circle cx="404.325" cy="133.665" r="4" fill="#0" id="circle145"/>
	<circle cx="407.472" cy="19.736" r="4" fill="#0" id="circle146"/>
	<circle cx="410.619" cy="133.665" r="4" fill="#0" id="circle147"/>
	<circle cx="413.766" cy="19.736" r="4" fill="#0" id="circle148"/>
	<circle cx="416.914" cy="133.665" r="4" fill="#0" id="circle149"/>
	<circle cx="420.061" cy="19.736" r="4" fill="#0" id="circle150"/>
	<circle cx="423.208" cy="133.665" r="4" fill="#0" id="circle151"/>
	<circle cx="426.355" cy="19.736" r="4" fill="#0" id="circle152"/>
	<circle cx="429.503" cy="133.665" r="4" fill="#0" id="circle153"/>
	<circle cx="432.65" cy="19.736" r="4" fill="#0" id="circle154"/>
	<circle cx="435.797" cy="133.665" r="4" fill="#0" id="circle155"/>
	<circle cx="438.944" cy="19.736" r="4" fill="#0" id="circle156"/>
	<circle cx="441.462" cy="130.518" r="4" fill="#0" id="circle157"/>
	<circle cx="445.239" cy="19.736" r="4" fill="#0" id="circle158"/>
	<circle cx="447.756" cy="130.518" r="4" fill="#0" id="circle159"/>
	<circle cx="451.533" cy="19.736" r="4" fill="#0" id="circle160"/>
	<circle cx="454.051" cy="130.518" r="4" fill="#0" id="circle161"/>
	<circle cx="457.827" cy="19.736" r="4" fill="#0" id="circle162"/>
	<circle cx="460.345" cy="130.518" r="4" fill="#0" id="circle163"/>
	<circle cx="464.122" cy="19.736" r="4" fill="#0" id="circle164"/>
	<circle cx="466.64" cy="130.518" r="4" fill="#0" id="circle165"/>
	<circle cx="470.416" cy="19.736" r="4" fill="#0" id="circle166"/>
	<circle cx="472.934" cy="130.518" r="4" fill="#0" id="circle167"/>
	<circle cx="476.711" cy="19.736" r="4" fill="#0" id="circle168"/>
	<circle cx="479.228" cy="130.518" r="4" fill="#0" id="circle169"/>
	<circle cx="482.376" cy="22.8832" r="4" fill="#0" id="circle170"/>
	<circle cx="485.523" cy="130.518" r="4" fill="#0" id="circle171"/>
	<circle cx="488.67" cy="22.8832" r="4" fill="#0" id="circle172"/>
	<circle cx="491.817" cy="130.518" r="4" fill="#0" id="circle173"/>
	<circle cx="494.964" cy="22.8832" r="4" fill="#0" id="circle174"/>
	<circle cx="498.112" cy="130.518" r="4" fill="#0" id="circle175"/>
	<circle cx="501.259" cy="22.8832" r="4" fill="#0" id="circle176"/>
	<circle cx="503.777" cy="127.371" r="4" fill="#0" id="circle177"/>
	<circle cx="507.553" cy="22.8832" r="4" fill="#0" id="circle178"/>
	<circle cx="510.071" cy="127.371" r="4" fill="#0" id="circle179"/>
	<circle cx="513.848" cy="22.8832" r="4" fill="#0" id="circle180"/>
	<circle cx="516.365" cy="127.371" r="4" fill="#0" id="circle181"/>
	<circle cx="520.142" cy="22.8832" r="4" fill="#0" id="circle182"/>
	<circle cx="522.66" cy="127.371" r="4" fill="#0" id="circle183"/>
	<circle cx="526.437" cy="22.8832" r="4" fill="#0" id="circle184"/>
	<circle cx="528.954" cy="127.371" r="4" fill="#0" id="circle185"/>
	<circle cx="532.731" cy="22.8832" r="4" fill="#0" id="circle186"/>
	<circle cx="535.249" cy="127.371" r="4" fill="#0" id="circle187"/>
	<circle cx="539.025" cy="22.8832" r="4" fill="#0" id="circle188"/>
	<circle cx="541.543" cy="127.371" r="4" fill="#0" id="circle189"/>
	<circle cx="545.32" cy="22.8832" r="4" fill="#0" id="circle190"/>
	<circle cx="547.838" cy="126.112" r="4" fill="#0" id="circle191"/>
	<circle cx="551.614" cy="22.8832" r="4" fill="#0" id="circle192"/>
	<circle cx="554.132" cy="124.223" r="4" fill="#0" id="circle193"/>
	<circle cx="557.909" cy="22.8832" r="4" fill="#0" id="circle194"/>
	<circle cx="560.426" cy="124.223" r="4" fill="#0" id="circle195"/>
	<circle cx="564.203" cy="22.8832" r="4" fill="#0" id="circle196"/>
	<circle cx="566.721" cy="124.223" r="4" fill="#0" id="circle197"/>
	<circle cx="570.497" cy="22.8832" r="4" fill="#0" id="circle198"/>
	<circle cx="573.015" cy="124.223" r="4" fill="#0" id="circle199"/>
	<circle cx="576.792" cy="22.8832" r="4" fill="#0" id="circle200"/>
	<circle cx="579.31" cy="124.223" r="4" fill="#0" id="circle201"/>
	<circle cx="582.457" cy="26.0305" r="4" fill="#0" id="circle202"/>
	<circle cx="585.604" cy="124.223" r="4" fill="#0" id="circle203"/>
	<circle cx="588.751" cy="26.0305" r="4" fill="#0" id="circle204"/>
	<circle cx="591.898" cy="122.964" r="4" fill="#0" id="circle205"/>
	<circle cx="594.416" cy="22.8832" r="4" fill="#0" id="circle206"/>
	<circle cx="598.193" cy="121.076" r="4" fill="#0" id="circle207"/>
	<circle cx="600.711" cy="22.8832" r="4" fill="#0" id="circle208"/>
	<circle cx="604.487" cy="121.076" r="4" fill="#0" id="circle209"/>
	<circle cx="606.376" cy="26.0305" r="4" fill="#0" id="circle210"/>
	<circle cx="610.782" cy="121.076" r="4" fill="#0" id="circle211"/>
	<circle cx="612.67" cy="26.0305" r="4" fill="#0" id="circle212"/>
	<circle cx="617.076" cy="121.076" r="4" fill="#0" id="circle213"/>
	<circle cx="618.964" cy="26.0305" r="4" fill="#0" id="circle214"/>
	<circle cx="623.371" cy="121.076" r="4" fill="#0" id="circle215"/>
	<circle cx="624.629" cy="22.8832" r="4" fill="#0" id="circle216"/>
	<circle cx="629.665" cy="121.076" r="4" fill="#0" id="circle217"/>
	<circle cx="630.924" cy="24.7716" r="4" fill="#0" id="circle218"/>
	<circle cx="635.33" cy="117.929" r="4" fill="#0" id="circle219"/>
	<circle cx="637.218" cy="26.0305" r="4" fill="#0" id="circle220"/>
	<circle cx="641.624" cy="117.929" r="4" fill="#0" id="circle221"/>
	<circle cx="643.513" cy="26.0305" r="4" fill="#0" id="circle222"/>
	<circle cx="647.919" cy="117.929" r="4" fill="#0" id="circle223"/>
	<circle cx="649.807" cy="26.0305" r="4" fill="#0" id="circle224"/>
	<circle cx="653.584" cy="114.782" r="4" fill="#0" id="circle225"/>
	<circle cx="656.102" cy="26.0305" r="4" fill="#0" id="circle226"/>
	<circle cx="659.878" cy="114.782" r="4" fill="#0" id="circle227"/>
	<circle cx="662.396" cy="26.0305" r="4" fill="#0" id="circle228"/>
	<circle cx="666.173" cy="114.782" r="4" fill="#0" id="circle229"/>
	<circle cx="668.69" cy="26.0305" r="4" fill="#0" id="circle230"/>
	<circle cx="672.467" cy="114.782" r="4" fill="#0" id="circle231"/>
	<circle cx="674.985" cy="26.0305" r="4" fill="#0" id="circle232"/>
	<circle cx="678.761" cy="114.782" r="4" fill="#0" id="circle233"/>
	<circle cx="681.279" cy="24.1421" r="4" fill="#0" id="circle234"/>
	<circle cx="685.056" cy="114.782" r="4" fill="#0" id="circle235"/>
	<circle cx="687.574" cy="22.8832" r="4" fill="#0" id="circle236"/>
	<circle cx="691.35" cy="114.782" r="4" fill="#0" id="circle237"/>
	<circle cx="693.868" cy="22.8832" r="4" fill="#0" id="circle238"/>
	<circle cx="697.645" cy="114.782" r="4" fill="#0" id="circle239"/>
	<circle cx="700.162" cy="22.8832" r="4" fill="#0" id="circle240"/>
	<circle cx="703.31" cy="111.635" r="4" fill="#0" id="circle241"/>
	<circle cx="706.457" cy="22.8832" r="4" fill="#0" id="circle242"/>
	<circle cx="709.604" cy="111.635" r="4" fill="#0" id="circle243"/>
	<circle cx="712.751" cy="22.8832" r="4" fill="#0" id="circle244"/>
	<circle cx="715.898" cy="111.635" r="4" fill="#0" id="circle245"/>
	<circle cx="719.046" cy="22.8832" r="4" fill="#0" id="circle246"/>
	<circle cx="722.193" cy="111.635" r="4" fill="#0" id="circle247"/>
	<circle cx="725.34" cy="22.8832" r="4" fill="#0" id="circle248"/>
	<circle cx="728.487" cy="111.635" r="4" fill="#0" id="circle249"/>
	<circle cx="731.635" cy="22.8832" r="4" fill="#0" id="circle250"/>
	<circle cx="734.782" cy="111.635" r="4" fill="#0" id="circle251"/>
	<circle cx="737.929" cy="22.8832" r="4" fill="#0" id="circle252"/>
	<circle cx="741.076" cy="111.635" r="4" fill="#0" id="circle253"/>
	<circle cx="744.223" cy="22.8832" r="4" fill="#0" id="circle254"/>
	<circle cx="747.371" cy="111.635" r="4" fill="#0" id="circle255"/>
	<circle cx="750.518" cy="22.8832" r="4" fill="#0" id="circle256"/>
	<circle cx="753.665" cy="111.635" r="4" fill="#0" id="circle257"/>
	<circle cx="756.812" cy="22.8832" r="4" fill="#0" id="circle258"/>
	<circle cx="759.959" cy="108.487" r="4" fill="#0" id="circle259"/>
	<circle cx="763.107" cy="22.8832" r="4" fill="#0" id="circle260"/>
	<circle cx="766.254" cy="108.487" r="4" fill="#0" id="circle261"/>
	<circle cx="769.401" cy="22.8832" r="4" fill="#0" id="circle262"/>
	<circle cx="772.548" cy="108.487" r="4" fill="#0" id="circle263"/>
	<circle cx="775.695" cy="22.8832" r="4" fill="#0" id="circle264"/>
	<circle cx="778.843" cy="108.487" r="4" fill="#0" id="circle265"/>
	<circle cx="781.99" cy="22.8832" r="4" fill="#0" id="circle266"/>
	<circle cx="785.137" cy="108.487" r="4" fill="#0" id="circle267"/>
	<circle cx="788.284" cy="22.8832" r="4" fill="#0" id="circle268"/>
	<circle cx="791.431" cy="108.487" r="4" fill="#0" id="circle269"/>
	<circle cx="794.579" cy="22.8832" r="4" fill="#0" id="circle270"/>
	<circle cx="797.726" cy="108.487" r="4" fill="#0" id="circle271"/>
	<circle cx="800.873" cy="22.8832" r="4" fill="#0" id="circle272"/>
	<circle cx="804.02" cy="108.487" r="4" fill="#0" id="circle273"/>
	<circle cx="807.168" cy="22.8832" r="4" fill="#0" id="circle274"/>
	<circle cx="810.315" cy="108.487" r="4" fill="#0" id="circle275"/>
	<circle cx="813.462" cy="22.8832" r="4" fill="#0" id="circle276"/>
	<circle cx="815.98" cy="105.34" r="4" fill="#0" id="circle277"/>
	<circle cx="819.756" cy="22.8832" r="4" fill="#0" id="circle278"/>
	<circle cx="822.274" cy="105.34" r="4" fill="#0" id="circle279"/>
	<circle cx="826.051" cy="22.8832" r="4" fill="#0" id="circle280"/>
	<circle cx="828.569" cy="105.34" r="4" fill="#0" id="circle281"/>
	<circle cx="832.345" cy="22.8832" r="4" fill="#0" id="circle282"/>
	<circle cx="834.863" cy="105.34" r="4" fill="#0" id="circle283"/>
	<circle cx="838.64" cy="22.8832" r="4" fill="#0" id="circle284"/>
	<circle cx="841.157" cy="105.34" r="4" fill="#0" id="circle285"/>
	<circle cx="844.934" cy="22.8832" r="4" fill="#0" id="circle286"/>
	<circle cx="847.452" cy="105.34" r="4" fill="#0" id="circle287"/>
	<circle cx="851.228" cy="22.8832" r="4" fill="#0" id="circle288"/>
	<circle cx="853.746" cy="105.34" r="4" fill="#0" id="circle289"/>
	<circle cx="856.893" cy="26.0305" r="4" fill="#0" id="circle290"/>
	<circle cx="859.411" cy="102.193" r="4" fill="#0" id="circle291"/>
	<circle cx="861.929" cy="29.8071" r="4" fill="#0" id="circle292"/>
	<circle cx="865.076" cy="98.4162" r="4" fill="#0" id="circle293"/>
	<circle cx="868.223" cy="32.3249" r="4" fill="#0" id="circle294"/>
	<circle cx="871.371" cy="95.269" r="4" fill="#0" id="circle295"/>
	<circle cx="874.518" cy="32.3249" r="4" fill="#0" id="circle296"/>
	<circle cx="877.665" cy="92.7513" r="4" fill="#0" id="circle297"/>
	<circle cx="880.812" cy="32.3249" r="4" fill="#0" id="circle298"/>
	<circle cx="883.959" cy="92.7513" r="4" fill="#0" id="circle299"/>
	<circle cx="887.107" cy="32.3249" r="4" fill="#0" id="circle300"/>
	<circle cx="890.254" cy="92.7513" r="4" fill="#0" id="circle301"/>
	<circle cx="892.772" cy="29.1777" r="4" fill="#0" id="circle302"/>
	<circle cx="896.548" cy="92.7513" r="4" fill="#0" id="circle303"/>
	<circle cx="899.066" cy="29.1777" r="4" fill="#0" id="circle304"/>
	<circle cx="902.843" cy="92.7513" r="4" fill="#0" id="circle305"/>
	<circle cx="905.36" cy="29.1777" r="4" fill="#0" id="circle306"/>
	<circle cx="909.137" cy="92.7513" r="4" fill="#0" id="circle307"/>
	<circle cx="911.655" cy="29.1777" r="4" fill="#0" id="circle308"/>
	<circle cx="915.431" cy="92.7513" r="4" fill="#0" id="circle309"/>
	<circle cx="917.32" cy="26.0305" r="4" fill="#0" id="circle310"/>
	<circle cx="921.726" cy="92.7513" r="4" fill="#0" id="circle311"/>
	<circle cx="923.614" cy="24.1421" r="4" fill="#0" id="circle312"/>
	<circle cx="928.02" cy="92.7513" r="4" fill="#0" id="circle313"/>
	<circle cx="929.909" cy="22.8832" r="4" fill="#0" id="circle314"/>
	<circle cx="933.685" cy="95.8985" r="4" fill="#0" id="circle315"/>
	<circle cx="936.203" cy="20.9949" r="4" fill="#0" id="circle316"/>
	<circle cx="939.98" cy="95.8985" r="4" fill="#0" id="circle317"/>
	<circle cx="942.497" cy="19.736" r="4" fill="#0" id="circle318"/>
	<circle cx="946.274" cy="95.8985" r="4" fill="#0" id="circle319"/>
	<circle cx="948.162" cy="22.8832" r="4" fill="#0" id="circle320"/>
	<circle cx="951.939" cy="92.7513" r="4" fill="#0" id="circle321"/>
	<circle cx="954.457" cy="24.1421" r="4" fill="#0" id="circle322"/>
	<circle cx="958.234" cy="29.1777" r="4" fill="#0" id="circle323"/>
	<circle cx="958.234" cy="89.6041" r="4" fill="#0" id="circle324"/>
	<circle cx="964.528" cy="31.066" r="4" fill="#0" id="circle325"/>
	<circle cx="964.528" cy="86.4569" r="4" fill="#0" id="circle326"/>
	<circle cx="969.563" cy="82.0508" r="4" fill="#0" id="circle327"/>
	<circle cx="970.193" cy="34.2132" r="4" fill="#0" id="circle328"/>
	<circle cx="975.228" cy="38.6193" r="4" fill="#0" id="circle329"/>
	<circle cx="975.858" cy="78.9036" r="4" fill="#0" id="circle330"/>
	<circle cx="980.264" cy="73.868" r="4" fill="#0" id="circle331"/>
	<circle cx="980.893" cy="41.7665" r="4" fill="#0" id="circle332"/>
	<circle cx="985.299" cy="69.4619" r="4" fill="#0" id="circle333"/>
	<circle cx="986.558" cy="44.9137" r="4" fill="#0" id="circle334"/>
	<circle cx="989.706" cy="64.4264" r="4" fill="#0" id="circle335"/>
	<circle cx="992.223" cy="48.0609" r="4" fill="#0" id="circle336"/>
	<circle cx="994.741" cy="60.0203" r="4" fill="#0" id="circle337"/>
	<circle cx="996" cy="53.0964" r="4" fill="#0" id="circle338"/>
	</g>
</svg>