<?xml version="1.0" encoding="UTF-8" standalone="no"?>
<!-- Created with CurveBenchmark -->
<svg
	xmlns:dc="http://purl.org/dc/elements/1.1/"
	xmlns:cc="http://creativecommons.org/ns#"
	xmlns:rdf="http://www.w3.org/1999/02/22-rdf-syntax-ns#"
	xmlns:svg="http://www.w3.org/2000/svg"
	xmlns="http://www.w3.org/2000/svg"
	xmlns:sodipodi="http://sodipodi.sourceforge.net/DTD/sodipodi-0.dtd"
	xmlns:inkscape="http://www.inkscape.org/namespaces/inkscape"
	width="1000"
	height="1000"
	id="svg2"
	version="1.1"
	sodipodi:docname="manifold/vicur-children17.png.txt">
<defs
	id="defs4" />
<metadata
	id="metadata7">
	<rdf:RDF>
		<cc:Work
			rdf:about="">
			<dc:format>image/svg+xml</dc:format>
			<dc:type
				rdf:resource="http://purl.org/dc/dcmitype/StillImage" />
			<dc:title></dc:title>
		</cc:Work>
	</rdf:RDF>
</metadata>
<g
	inkscape:label="Layer 1"
	inkscape:groupmode="layer"
	id="layer1">
	<path style="fill:none;stroke:red;stroke-width:1px;stroke-linecap:butt;stroke-linejoin:miter;stroke-opacity:1" d="M 4,322.562 4,339.068 z" id="boundary" inkscape:connector-curvature="0" />
	<path style="fill:none;stroke:red;stroke-width:1px;stroke-linecap:butt;stroke-linejoin:miter;stroke-opacity:1" d="M 4,322.562 12.2529,306.057 z" id="boundary" inkscape:connector-curvature="0" />
	<path style="fill:none;stroke:red;stroke-width:1px;stroke-linecap:butt;stroke-linejoin:miter;stroke-opacity:1" d="M 4,339.068 12.2529,353.923 z" id="boundary" inkscape:connector-curvature="0" />
	<path style="fill:none;stroke:red;stroke-width:1px;stroke-linecap:butt;stroke-linejoin:miter;stroke-opacity:1" d="M 12.2529,91.4809 12.2529,107.987 z" id="boundary" inkscape:connector-curvature="0" />
	<path style="fill:none;stroke:red;stroke-width:1px;stroke-linecap:butt;stroke-linejoin:miter;stroke-opacity:1" d="M 12.2529,91.4809 20.5058,74.975 z" id="boundary" inkscape:connector-curvature="0" />
	<path style="fill:none;stroke:red;stroke-width:1px;stroke-linecap:butt;stroke-linejoin:miter;stroke-opacity:1" d="M 12.2529,107.987 20.5058,122.842 z" id="boundary" inkscape:connector-curvature="0" />
	<path style="fill:none;stroke:red;stroke-width:1px;stroke-linecap:butt;stroke-linejoin:miter;stroke-opacity:1" d="M 12.2529,306.057 20.5058,289.551 z" id="boundary" inkscape:connector-curvature="0" />
	<path style="fill:none;stroke:red;stroke-width:1px;stroke-linecap:butt;stroke-linejoin:miter;stroke-opacity:1" d="M 12.2529,353.923 20.5058,368.779 z" id="boundary" inkscape:connector-curvature="0" />
	<path style="fill:none;stroke:red;stroke-width:1px;stroke-linecap:butt;stroke-linejoin:miter;stroke-opacity:1" d="M 20.5058,74.975 28.7587,58.4692 z" id="boundary" inkscape:connector-curvature="0" />
	<path style="fill:none;stroke:red;stroke-width:1px;stroke-linecap:butt;stroke-linejoin:miter;stroke-opacity:1" d="M 20.5058,122.842 20.5058,139.348 z" id="boundary" inkscape:connector-curvature="0" />
	<path style="fill:none;stroke:red;stroke-width:1px;stroke-linecap:butt;stroke-linejoin:miter;stroke-opacity:1" d="M 20.5058,139.348 28.7587,154.203 z" id="boundary" inkscape:connector-curvature="0" />
	<path style="fill:none;stroke:red;stroke-width:1px;stroke-linecap:butt;stroke-linejoin:miter;stroke-opacity:1" d="M 20.5058,289.551 33.7105,276.346 z" id="boundary" inkscape:connector-curvature="0" />
	<path style="fill:none;stroke:red;stroke-width:1px;stroke-linecap:butt;stroke-linejoin:miter;stroke-opacity:1" d="M 20.5058,368.779 20.5058,385.285 z" id="boundary" inkscape:connector-curvature="0" />
	<path style="fill:none;stroke:red;stroke-width:1px;stroke-linecap:butt;stroke-linejoin:miter;stroke-opacity:1" d="M 20.5058,385.285 28.7587,400.14 z" id="boundary" inkscape:connector-curvature="0" />
	<path style="fill:none;stroke:red;stroke-width:1px;stroke-linecap:butt;stroke-linejoin:miter;stroke-opacity:1" d="M 28.7587,58.4692 41.9634,45.2646 z" id="boundary" inkscape:connector-curvature="0" />
	<path style="fill:none;stroke:red;stroke-width:1px;stroke-linecap:butt;stroke-linejoin:miter;stroke-opacity:1" d="M 28.7587,154.203 38.6622,167.408 z" id="boundary" inkscape:connector-curvature="0" />
	<path style="fill:none;stroke:red;stroke-width:1px;stroke-linecap:butt;stroke-linejoin:miter;stroke-opacity:1" d="M 28.7587,400.14 32.0599,416.646 z" id="boundary" inkscape:connector-curvature="0" />
	<path style="fill:none;stroke:red;stroke-width:1px;stroke-linecap:butt;stroke-linejoin:miter;stroke-opacity:1" d="M 28.7587,545.391 28.7587,561.897 z" id="boundary" inkscape:connector-curvature="0" />
	<path style="fill:none;stroke:red;stroke-width:1px;stroke-linecap:butt;stroke-linejoin:miter;stroke-opacity:1" d="M 28.7587,545.391 37.0116,520.632 z" id="boundary" inkscape:connector-curvature="0" />
	<path style="fill:none;stroke:red;stroke-width:1px;stroke-linecap:butt;stroke-linejoin:miter;stroke-opacity:1" d="M 28.7587,561.897 37.0116,576.752 z" id="boundary" inkscape:connector-curvature="0" />
	<path style="fill:none;stroke:red;stroke-width:1px;stroke-linecap:butt;stroke-linejoin:miter;stroke-opacity:1" d="M 32.0599,416.646 37.0116,433.151 z" id="boundary" inkscape:connector-curvature="0" />
	<path style="fill:none;stroke:red;stroke-width:1px;stroke-linecap:butt;stroke-linejoin:miter;stroke-opacity:1" d="M 33.7105,276.346 46.9151,263.141 z" id="boundary" inkscape:connector-curvature="0" />
	<path style="fill:none;stroke:red;stroke-width:1px;stroke-linecap:butt;stroke-linejoin:miter;stroke-opacity:1" d="M 37.0116,433.151 37.0116,449.657 z" id="boundary" inkscape:connector-curvature="0" />
	<path style="fill:none;stroke:red;stroke-width:1px;stroke-linecap:butt;stroke-linejoin:miter;stroke-opacity:1" d="M 37.0116,449.657 45.2646,464.512 z" id="boundary" inkscape:connector-curvature="0" />
	<path style="fill:none;stroke:red;stroke-width:1px;stroke-linecap:butt;stroke-linejoin:miter;stroke-opacity:1" d="M 37.0116,520.632 45.2646,497.524 z" id="boundary" inkscape:connector-curvature="0" />
	<path style="fill:none;stroke:red;stroke-width:1px;stroke-linecap:butt;stroke-linejoin:miter;stroke-opacity:1" d="M 37.0116,576.752 37.0116,593.258 z" id="boundary" inkscape:connector-curvature="0" />
	<path style="fill:none;stroke:red;stroke-width:1px;stroke-linecap:butt;stroke-linejoin:miter;stroke-opacity:1" d="M 37.0116,593.258 37.0116,609.764 z" id="boundary" inkscape:connector-curvature="0" />
	<path style="fill:none;stroke:red;stroke-width:1px;stroke-linecap:butt;stroke-linejoin:miter;stroke-opacity:1" d="M 37.0116,609.764 45.2646,624.619 z" id="boundary" inkscape:connector-curvature="0" />
	<path style="fill:none;stroke:red;stroke-width:1px;stroke-linecap:butt;stroke-linejoin:miter;stroke-opacity:1" d="M 38.6622,167.408 51.8669,178.962 z" id="boundary" inkscape:connector-curvature="0" />
	<path style="fill:none;stroke:red;stroke-width:1px;stroke-linecap:butt;stroke-linejoin:miter;stroke-opacity:1" d="M 41.9634,45.2646 56.8186,37.0116 z" id="boundary" inkscape:connector-curvature="0" />
	<path style="fill:none;stroke:red;stroke-width:1px;stroke-linecap:butt;stroke-linejoin:miter;stroke-opacity:1" d="M 45.2646,464.512 45.2646,481.018 z" id="boundary" inkscape:connector-curvature="0" />
	<path style="fill:none;stroke:red;stroke-width:1px;stroke-linecap:butt;stroke-linejoin:miter;stroke-opacity:1" d="M 45.2646,481.018 45.2646,497.524 z" id="boundary" inkscape:connector-curvature="0" />
	<path style="fill:none;stroke:red;stroke-width:1px;stroke-linecap:butt;stroke-linejoin:miter;stroke-opacity:1" d="M 45.2646,624.619 45.2646,641.125 z" id="boundary" inkscape:connector-curvature="0" />
	<path style="fill:none;stroke:red;stroke-width:1px;stroke-linecap:butt;stroke-linejoin:miter;stroke-opacity:1" d="M 45.2646,641.125 50.2163,657.631 z" id="boundary" inkscape:connector-curvature="0" />
	<path style="fill:none;stroke:red;stroke-width:1px;stroke-linecap:butt;stroke-linejoin:miter;stroke-opacity:1" d="M 46.9151,263.141 60.1198,251.587 z" id="boundary" inkscape:connector-curvature="0" />
	<path style="fill:none;stroke:red;stroke-width:1px;stroke-linecap:butt;stroke-linejoin:miter;stroke-opacity:1" d="M 50.2163,657.631 58.4692,672.486 z" id="boundary" inkscape:connector-curvature="0" />
	<path style="fill:none;stroke:red;stroke-width:1px;stroke-linecap:butt;stroke-linejoin:miter;stroke-opacity:1" d="M 51.8669,178.962 58.4692,195.468 z" id="boundary" inkscape:connector-curvature="0" />
	<path style="fill:none;stroke:red;stroke-width:1px;stroke-linecap:butt;stroke-linejoin:miter;stroke-opacity:1" d="M 56.8186,37.0116 70.0233,25.4576 z" id="boundary" inkscape:connector-curvature="0" />
	<path style="fill:none;stroke:red;stroke-width:1px;stroke-linecap:butt;stroke-linejoin:miter;stroke-opacity:1" d="M 58.4692,195.468 70.0233,208.672 z" id="boundary" inkscape:connector-curvature="0" />
	<path style="fill:none;stroke:red;stroke-width:1px;stroke-linecap:butt;stroke-linejoin:miter;stroke-opacity:1" d="M 58.4692,672.486 70.0233,685.691 z" id="boundary" inkscape:connector-curvature="0" />
	<path style="fill:none;stroke:red;stroke-width:1px;stroke-linecap:butt;stroke-linejoin:miter;stroke-opacity:1" d="M 60.1198,251.587 61.7704,231.78 z" id="boundary" inkscape:connector-curvature="0" />
	<path style="fill:none;stroke:red;stroke-width:1px;stroke-linecap:butt;stroke-linejoin:miter;stroke-opacity:1" d="M 61.7704,231.78 70.0233,208.672 z" id="boundary" inkscape:connector-curvature="0" />
	<path style="fill:none;stroke:red;stroke-width:1px;stroke-linecap:butt;stroke-linejoin:miter;stroke-opacity:1" d="M 70.0233,25.4576 86.5291,17.2047 z" id="boundary" inkscape:connector-curvature="0" />
	<path style="fill:none;stroke:red;stroke-width:1px;stroke-linecap:butt;stroke-linejoin:miter;stroke-opacity:1" d="M 70.0233,685.691 83.228,697.245 z" id="boundary" inkscape:connector-curvature="0" />
	<path style="fill:none;stroke:red;stroke-width:1px;stroke-linecap:butt;stroke-linejoin:miter;stroke-opacity:1" d="M 70.0233,817.737 70.0233,834.243 z" id="boundary" inkscape:connector-curvature="0" />
	<path style="fill:none;stroke:red;stroke-width:1px;stroke-linecap:butt;stroke-linejoin:miter;stroke-opacity:1" d="M 70.0233,817.737 78.2762,792.978 z" id="boundary" inkscape:connector-curvature="0" />
	<path style="fill:none;stroke:red;stroke-width:1px;stroke-linecap:butt;stroke-linejoin:miter;stroke-opacity:1" d="M 70.0233,834.243 78.2762,849.098 z" id="boundary" inkscape:connector-curvature="0" />
	<path style="fill:none;stroke:red;stroke-width:1px;stroke-linecap:butt;stroke-linejoin:miter;stroke-opacity:1" d="M 78.2762,792.978 86.5291,768.22 z" id="boundary" inkscape:connector-curvature="0" />
	<path style="fill:none;stroke:red;stroke-width:1px;stroke-linecap:butt;stroke-linejoin:miter;stroke-opacity:1" d="M 78.2762,849.098 78.2762,865.604 z" id="boundary" inkscape:connector-curvature="0" />
	<path style="fill:none;stroke:red;stroke-width:1px;stroke-linecap:butt;stroke-linejoin:miter;stroke-opacity:1" d="M 78.2762,865.604 86.5291,880.459 z" id="boundary" inkscape:connector-curvature="0" />
	<path style="fill:none;stroke:red;stroke-width:1px;stroke-linecap:butt;stroke-linejoin:miter;stroke-opacity:1" d="M 78.2762,933.278 78.2762,949.784 z" id="boundary" inkscape:connector-curvature="0" />
	<path style="fill:none;stroke:red;stroke-width:1px;stroke-linecap:butt;stroke-linejoin:miter;stroke-opacity:1" d="M 78.2762,933.278 86.5291,913.471 z" id="boundary" inkscape:connector-curvature="0" />
	<path style="fill:none;stroke:red;stroke-width:1px;stroke-linecap:butt;stroke-linejoin:miter;stroke-opacity:1" d="M 78.2762,949.784 86.5291,964.639 z" id="boundary" inkscape:connector-curvature="0" />
	<path style="fill:none;stroke:red;stroke-width:1px;stroke-linecap:butt;stroke-linejoin:miter;stroke-opacity:1" d="M 83.228,697.245 94.782,710.449 z" id="boundary" inkscape:connector-curvature="0" />
	<path style="fill:none;stroke:red;stroke-width:1px;stroke-linecap:butt;stroke-linejoin:miter;stroke-opacity:1" d="M 86.5291,17.2047 103.035,8.95175 z" id="boundary" inkscape:connector-curvature="0" />
	<path style="fill:none;stroke:red;stroke-width:1px;stroke-linecap:butt;stroke-linejoin:miter;stroke-opacity:1" d="M 86.5291,768.22 94.782,743.461 z" id="boundary" inkscape:connector-curvature="0" />
	<path style="fill:none;stroke:red;stroke-width:1px;stroke-linecap:butt;stroke-linejoin:miter;stroke-opacity:1" d="M 86.5291,880.459 86.5291,896.965 z" id="boundary" inkscape:connector-curvature="0" />
	<path style="fill:none;stroke:red;stroke-width:1px;stroke-linecap:butt;stroke-linejoin:miter;stroke-opacity:1" d="M 86.5291,896.965 86.5291,913.471 z" id="boundary" inkscape:connector-curvature="0" />
	<path style="fill:none;stroke:red;stroke-width:1px;stroke-linecap:butt;stroke-linejoin:miter;stroke-opacity:1" d="M 86.5291,964.639 94.782,979.494 z" id="boundary" inkscape:connector-curvature="0" />
	<path style="fill:none;stroke:red;stroke-width:1px;stroke-linecap:butt;stroke-linejoin:miter;stroke-opacity:1" d="M 94.782,710.449 94.782,726.955 z" id="boundary" inkscape:connector-curvature="0" />
	<path style="fill:none;stroke:red;stroke-width:1px;stroke-linecap:butt;stroke-linejoin:miter;stroke-opacity:1" d="M 94.782,726.955 94.782,743.461 z" id="boundary" inkscape:connector-curvature="0" />
	<path style="fill:none;stroke:red;stroke-width:1px;stroke-linecap:butt;stroke-linejoin:miter;stroke-opacity:1" d="M 94.782,979.494 109.637,987.747 z" id="boundary" inkscape:connector-curvature="0" />
	<path style="fill:none;stroke:red;stroke-width:1px;stroke-linecap:butt;stroke-linejoin:miter;stroke-opacity:1" d="M 103.035,8.95175 119.541,4 z" id="boundary" inkscape:connector-curvature="0" />
	<path style="fill:none;stroke:red;stroke-width:1px;stroke-linecap:butt;stroke-linejoin:miter;stroke-opacity:1" d="M 109.637,987.747 126.143,987.747 z" id="boundary" inkscape:connector-curvature="0" />
	<path style="fill:none;stroke:red;stroke-width:1px;stroke-linecap:butt;stroke-linejoin:miter;stroke-opacity:1" d="M 119.541,4 134.396,12.2529 z" id="boundary" inkscape:connector-curvature="0" />
	<path style="fill:none;stroke:red;stroke-width:1px;stroke-linecap:butt;stroke-linejoin:miter;stroke-opacity:1" d="M 126.143,987.747 142.649,987.747 z" id="boundary" inkscape:connector-curvature="0" />
	<path style="fill:none;stroke:red;stroke-width:1px;stroke-linecap:butt;stroke-linejoin:miter;stroke-opacity:1" d="M 134.396,12.2529 150.902,12.2529 z" id="boundary" inkscape:connector-curvature="0" />
	<path style="fill:none;stroke:red;stroke-width:1px;stroke-linecap:butt;stroke-linejoin:miter;stroke-opacity:1" d="M 142.649,987.747 157.504,996 z" id="boundary" inkscape:connector-curvature="0" />
	<path style="fill:none;stroke:red;stroke-width:1px;stroke-linecap:butt;stroke-linejoin:miter;stroke-opacity:1" d="M 150.902,12.2529 167.408,12.2529 z" id="boundary" inkscape:connector-curvature="0" />
	<path style="fill:none;stroke:red;stroke-width:1px;stroke-linecap:butt;stroke-linejoin:miter;stroke-opacity:1" d="M 157.504,996 174.01,996 z" id="boundary" inkscape:connector-curvature="0" />
	<path style="fill:none;stroke:red;stroke-width:1px;stroke-linecap:butt;stroke-linejoin:miter;stroke-opacity:1" d="M 167.408,12.2529 182.263,20.5058 z" id="boundary" inkscape:connector-curvature="0" />
	<path style="fill:none;stroke:red;stroke-width:1px;stroke-linecap:butt;stroke-linejoin:miter;stroke-opacity:1" d="M 174.01,996 190.516,996 z" id="boundary" inkscape:connector-curvature="0" />
	<path style="fill:none;stroke:red;stroke-width:1px;stroke-linecap:butt;stroke-linejoin:miter;stroke-opacity:1" d="M 182.263,20.5058 197.118,28.7587 z" id="boundary" inkscape:connector-curvature="0" />
	<path style="fill:none;stroke:red;stroke-width:1px;stroke-linecap:butt;stroke-linejoin:miter;stroke-opacity:1" d="M 190.516,996 207.022,996 z" id="boundary" inkscape:connector-curvature="0" />
	<path style="fill:none;stroke:red;stroke-width:1px;stroke-linecap:butt;stroke-linejoin:miter;stroke-opacity:1" d="M 197.118,28.7587 211.973,37.0116 z" id="boundary" inkscape:connector-curvature="0" />
	<path style="fill:none;stroke:red;stroke-width:1px;stroke-linecap:butt;stroke-linejoin:miter;stroke-opacity:1" d="M 207.022,996 223.527,996 z" id="boundary" inkscape:connector-curvature="0" />
	<path style="fill:none;stroke:red;stroke-width:1px;stroke-linecap:butt;stroke-linejoin:miter;stroke-opacity:1" d="M 211.973,37.0116 228.479,41.9634 z" id="boundary" inkscape:connector-curvature="0" />
	<path style="fill:none;stroke:red;stroke-width:1px;stroke-linecap:butt;stroke-linejoin:miter;stroke-opacity:1" d="M 220.226,880.459 228.479,855.7 z" id="boundary" inkscape:connector-curvature="0" />
	<path style="fill:none;stroke:red;stroke-width:1px;stroke-linecap:butt;stroke-linejoin:miter;stroke-opacity:1" d="M 220.226,880.459 228.479,895.314 z" id="boundary" inkscape:connector-curvature="0" />
	<path style="fill:none;stroke:red;stroke-width:1px;stroke-linecap:butt;stroke-linejoin:miter;stroke-opacity:1" d="M 223.527,996 240.033,996 z" id="boundary" inkscape:connector-curvature="0" />
	<path style="fill:none;stroke:red;stroke-width:1px;stroke-linecap:butt;stroke-linejoin:miter;stroke-opacity:1" d="M 228.479,41.9634 240.033,55.1681 z" id="boundary" inkscape:connector-curvature="0" />
	<path style="fill:none;stroke:red;stroke-width:1px;stroke-linecap:butt;stroke-linejoin:miter;stroke-opacity:1" d="M 228.479,855.7 236.732,839.195 z" id="boundary" inkscape:connector-curvature="0" />
	<path style="fill:none;stroke:red;stroke-width:1px;stroke-linecap:butt;stroke-linejoin:miter;stroke-opacity:1" d="M 228.479,895.314 241.684,905.218 z" id="boundary" inkscape:connector-curvature="0" />
	<path style="fill:none;stroke:red;stroke-width:1px;stroke-linecap:butt;stroke-linejoin:miter;stroke-opacity:1" d="M 236.732,806.183 236.732,822.689 z" id="boundary" inkscape:connector-curvature="0" />
	<path style="fill:none;stroke:red;stroke-width:1px;stroke-linecap:butt;stroke-linejoin:miter;stroke-opacity:1" d="M 236.732,806.183 244.985,781.424 z" id="boundary" inkscape:connector-curvature="0" />
	<path style="fill:none;stroke:red;stroke-width:1px;stroke-linecap:butt;stroke-linejoin:miter;stroke-opacity:1" d="M 236.732,822.689 236.732,839.195 z" id="boundary" inkscape:connector-curvature="0" />
	<path style="fill:none;stroke:red;stroke-width:1px;stroke-linecap:butt;stroke-linejoin:miter;stroke-opacity:1" d="M 240.033,55.1681 253.238,66.7221 z" id="boundary" inkscape:connector-curvature="0" />
	<path style="fill:none;stroke:red;stroke-width:1px;stroke-linecap:butt;stroke-linejoin:miter;stroke-opacity:1" d="M 240.033,996 256.539,996 z" id="boundary" inkscape:connector-curvature="0" />
	<path style="fill:none;stroke:red;stroke-width:1px;stroke-linecap:butt;stroke-linejoin:miter;stroke-opacity:1" d="M 241.684,905.218 253.238,918.423 z" id="boundary" inkscape:connector-curvature="0" />
	<path style="fill:none;stroke:red;stroke-width:1px;stroke-linecap:butt;stroke-linejoin:miter;stroke-opacity:1" d="M 244.985,203.72 244.985,220.226 z" id="boundary" inkscape:connector-curvature="0" />
	<path style="fill:none;stroke:red;stroke-width:1px;stroke-linecap:butt;stroke-linejoin:miter;stroke-opacity:1" d="M 244.985,203.72 253.238,187.215 z" id="boundary" inkscape:connector-curvature="0" />
	<path style="fill:none;stroke:red;stroke-width:1px;stroke-linecap:butt;stroke-linejoin:miter;stroke-opacity:1" d="M 244.985,220.226 248.286,236.732 z" id="boundary" inkscape:connector-curvature="0" />
	<path style="fill:none;stroke:red;stroke-width:1px;stroke-linecap:butt;stroke-linejoin:miter;stroke-opacity:1" d="M 244.985,764.918 244.985,781.424 z" id="boundary" inkscape:connector-curvature="0" />
	<path style="fill:none;stroke:red;stroke-width:1px;stroke-linecap:butt;stroke-linejoin:miter;stroke-opacity:1" d="M 244.985,764.918 253.238,740.16 z" id="boundary" inkscape:connector-curvature="0" />
	<path style="fill:none;stroke:red;stroke-width:1px;stroke-linecap:butt;stroke-linejoin:miter;stroke-opacity:1" d="M 248.286,236.732 256.539,251.587 z" id="boundary" inkscape:connector-curvature="0" />
	<path style="fill:none;stroke:red;stroke-width:1px;stroke-linecap:butt;stroke-linejoin:miter;stroke-opacity:1" d="M 253.238,66.7221 259.84,83.228 z" id="boundary" inkscape:connector-curvature="0" />
	<path style="fill:none;stroke:red;stroke-width:1px;stroke-linecap:butt;stroke-linejoin:miter;stroke-opacity:1" d="M 253.238,187.215 261.491,165.757 z" id="boundary" inkscape:connector-curvature="0" />
	<path style="fill:none;stroke:red;stroke-width:1px;stroke-linecap:butt;stroke-linejoin:miter;stroke-opacity:1" d="M 253.238,740.16 261.491,723.654 z" id="boundary" inkscape:connector-curvature="0" />
	<path style="fill:none;stroke:red;stroke-width:1px;stroke-linecap:butt;stroke-linejoin:miter;stroke-opacity:1" d="M 253.238,918.423 269.744,925.025 z" id="boundary" inkscape:connector-curvature="0" />
	<path style="fill:none;stroke:red;stroke-width:1px;stroke-linecap:butt;stroke-linejoin:miter;stroke-opacity:1" d="M 256.539,251.587 261.491,268.093 z" id="boundary" inkscape:connector-curvature="0" />
	<path style="fill:none;stroke:red;stroke-width:1px;stroke-linecap:butt;stroke-linejoin:miter;stroke-opacity:1" d="M 256.539,996 271.394,987.747 z" id="boundary" inkscape:connector-curvature="0" />
	<path style="fill:none;stroke:red;stroke-width:1px;stroke-linecap:butt;stroke-linejoin:miter;stroke-opacity:1" d="M 259.84,83.228 261.491,99.7338 z" id="boundary" inkscape:connector-curvature="0" />
	<path style="fill:none;stroke:red;stroke-width:1px;stroke-linecap:butt;stroke-linejoin:miter;stroke-opacity:1" d="M 261.491,99.7338 261.491,116.24 z" id="boundary" inkscape:connector-curvature="0" />
	<path style="fill:none;stroke:red;stroke-width:1px;stroke-linecap:butt;stroke-linejoin:miter;stroke-opacity:1" d="M 261.491,116.24 261.491,132.745 z" id="boundary" inkscape:connector-curvature="0" />
	<path style="fill:none;stroke:red;stroke-width:1px;stroke-linecap:butt;stroke-linejoin:miter;stroke-opacity:1" d="M 261.491,132.745 261.491,149.251 z" id="boundary" inkscape:connector-curvature="0" />
	<path style="fill:none;stroke:red;stroke-width:1px;stroke-linecap:butt;stroke-linejoin:miter;stroke-opacity:1" d="M 261.491,149.251 261.491,165.757 z" id="boundary" inkscape:connector-curvature="0" />
	<path style="fill:none;stroke:red;stroke-width:1px;stroke-linecap:butt;stroke-linejoin:miter;stroke-opacity:1" d="M 261.491,268.093 269.744,282.948 z" id="boundary" inkscape:connector-curvature="0" />
	<path style="fill:none;stroke:red;stroke-width:1px;stroke-linecap:butt;stroke-linejoin:miter;stroke-opacity:1" d="M 261.491,690.642 261.491,707.148 z" id="boundary" inkscape:connector-curvature="0" />
	<path style="fill:none;stroke:red;stroke-width:1px;stroke-linecap:butt;stroke-linejoin:miter;stroke-opacity:1" d="M 261.491,690.642 269.744,674.136 z" id="boundary" inkscape:connector-curvature="0" />
	<path style="fill:none;stroke:red;stroke-width:1px;stroke-linecap:butt;stroke-linejoin:miter;stroke-opacity:1" d="M 261.491,707.148 261.491,723.654 z" id="boundary" inkscape:connector-curvature="0" />
	<path style="fill:none;stroke:red;stroke-width:1px;stroke-linecap:butt;stroke-linejoin:miter;stroke-opacity:1" d="M 269.744,282.948 269.744,299.454 z" id="boundary" inkscape:connector-curvature="0" />
	<path style="fill:none;stroke:red;stroke-width:1px;stroke-linecap:butt;stroke-linejoin:miter;stroke-opacity:1" d="M 269.744,299.454 277.997,314.309 z" id="boundary" inkscape:connector-curvature="0" />
	<path style="fill:none;stroke:red;stroke-width:1px;stroke-linecap:butt;stroke-linejoin:miter;stroke-opacity:1" d="M 269.744,674.136 286.25,665.884 z" id="boundary" inkscape:connector-curvature="0" />
	<path style="fill:none;stroke:red;stroke-width:1px;stroke-linecap:butt;stroke-linejoin:miter;stroke-opacity:1" d="M 269.744,925.025 286.25,928.326 z" id="boundary" inkscape:connector-curvature="0" />
	<path style="fill:none;stroke:red;stroke-width:1px;stroke-linecap:butt;stroke-linejoin:miter;stroke-opacity:1" d="M 271.394,987.747 287.9,987.747 z" id="boundary" inkscape:connector-curvature="0" />
	<path style="fill:none;stroke:red;stroke-width:1px;stroke-linecap:butt;stroke-linejoin:miter;stroke-opacity:1" d="M 277.997,314.309 284.599,330.815 z" id="boundary" inkscape:connector-curvature="0" />
	<path style="fill:none;stroke:red;stroke-width:1px;stroke-linecap:butt;stroke-linejoin:miter;stroke-opacity:1" d="M 284.599,330.815 286.25,347.321 z" id="boundary" inkscape:connector-curvature="0" />
	<path style="fill:none;stroke:red;stroke-width:1px;stroke-linecap:butt;stroke-linejoin:miter;stroke-opacity:1" d="M 286.25,347.321 286.25,363.827 z" id="boundary" inkscape:connector-curvature="0" />
	<path style="fill:none;stroke:red;stroke-width:1px;stroke-linecap:butt;stroke-linejoin:miter;stroke-opacity:1" d="M 286.25,363.827 286.25,380.333 z" id="boundary" inkscape:connector-curvature="0" />
	<path style="fill:none;stroke:red;stroke-width:1px;stroke-linecap:butt;stroke-linejoin:miter;stroke-opacity:1" d="M 286.25,380.333 292.852,396.839 z" id="boundary" inkscape:connector-curvature="0" />
	<path style="fill:none;stroke:red;stroke-width:1px;stroke-linecap:butt;stroke-linejoin:miter;stroke-opacity:1" d="M 286.25,665.884 299.454,654.329 z" id="boundary" inkscape:connector-curvature="0" />
	<path style="fill:none;stroke:red;stroke-width:1px;stroke-linecap:butt;stroke-linejoin:miter;stroke-opacity:1" d="M 286.25,928.326 301.105,936.579 z" id="boundary" inkscape:connector-curvature="0" />
	<path style="fill:none;stroke:red;stroke-width:1px;stroke-linecap:butt;stroke-linejoin:miter;stroke-opacity:1" d="M 287.9,987.747 301.105,974.542 z" id="boundary" inkscape:connector-curvature="0" />
	<path style="fill:none;stroke:red;stroke-width:1px;stroke-linecap:butt;stroke-linejoin:miter;stroke-opacity:1" d="M 292.852,396.839 301.105,411.694 z" id="boundary" inkscape:connector-curvature="0" />
	<path style="fill:none;stroke:red;stroke-width:1px;stroke-linecap:butt;stroke-linejoin:miter;stroke-opacity:1" d="M 299.454,654.329 311.008,641.125 z" id="boundary" inkscape:connector-curvature="0" />
	<path style="fill:none;stroke:red;stroke-width:1px;stroke-linecap:butt;stroke-linejoin:miter;stroke-opacity:1" d="M 301.105,411.694 307.707,428.2 z" id="boundary" inkscape:connector-curvature="0" />
	<path style="fill:none;stroke:red;stroke-width:1px;stroke-linecap:butt;stroke-linejoin:miter;stroke-opacity:1" d="M 301.105,936.579 311.008,949.784 z" id="boundary" inkscape:connector-curvature="0" />
	<path style="fill:none;stroke:red;stroke-width:1px;stroke-linecap:butt;stroke-linejoin:miter;stroke-opacity:1" d="M 301.105,974.542 311.008,949.784 z" id="boundary" inkscape:connector-curvature="0" />
	<path style="fill:none;stroke:red;stroke-width:1px;stroke-linecap:butt;stroke-linejoin:miter;stroke-opacity:1" d="M 307.707,428.2 315.96,443.055 z" id="boundary" inkscape:connector-curvature="0" />
	<path style="fill:none;stroke:red;stroke-width:1px;stroke-linecap:butt;stroke-linejoin:miter;stroke-opacity:1" d="M 311.008,641.125 325.864,632.872 z" id="boundary" inkscape:connector-curvature="0" />
	<path style="fill:none;stroke:red;stroke-width:1px;stroke-linecap:butt;stroke-linejoin:miter;stroke-opacity:1" d="M 315.96,443.055 319.261,459.561 z" id="boundary" inkscape:connector-curvature="0" />
	<path style="fill:none;stroke:red;stroke-width:1px;stroke-linecap:butt;stroke-linejoin:miter;stroke-opacity:1" d="M 319.261,459.561 327.514,474.416 z" id="boundary" inkscape:connector-curvature="0" />
	<path style="fill:none;stroke:red;stroke-width:1px;stroke-linecap:butt;stroke-linejoin:miter;stroke-opacity:1" d="M 325.864,632.872 340.719,624.619 z" id="boundary" inkscape:connector-curvature="0" />
	<path style="fill:none;stroke:red;stroke-width:1px;stroke-linecap:butt;stroke-linejoin:miter;stroke-opacity:1" d="M 327.514,474.416 335.767,489.271 z" id="boundary" inkscape:connector-curvature="0" />
	<path style="fill:none;stroke:red;stroke-width:1px;stroke-linecap:butt;stroke-linejoin:miter;stroke-opacity:1" d="M 335.767,489.271 344.02,504.126 z" id="boundary" inkscape:connector-curvature="0" />
	<path style="fill:none;stroke:red;stroke-width:1px;stroke-linecap:butt;stroke-linejoin:miter;stroke-opacity:1" d="M 340.719,624.619 355.574,614.715 z" id="boundary" inkscape:connector-curvature="0" />
	<path style="fill:none;stroke:red;stroke-width:1px;stroke-linecap:butt;stroke-linejoin:miter;stroke-opacity:1" d="M 344.02,504.126 355.574,517.331 z" id="boundary" inkscape:connector-curvature="0" />
	<path style="fill:none;stroke:red;stroke-width:1px;stroke-linecap:butt;stroke-linejoin:miter;stroke-opacity:1" d="M 355.574,517.331 368.779,528.885 z" id="boundary" inkscape:connector-curvature="0" />
	<path style="fill:none;stroke:red;stroke-width:1px;stroke-linecap:butt;stroke-linejoin:miter;stroke-opacity:1" d="M 355.574,614.715 372.08,606.463 z" id="boundary" inkscape:connector-curvature="0" />
	<path style="fill:none;stroke:red;stroke-width:1px;stroke-linecap:butt;stroke-linejoin:miter;stroke-opacity:1" d="M 368.779,528.885 377.032,543.74 z" id="boundary" inkscape:connector-curvature="0" />
	<path style="fill:none;stroke:red;stroke-width:1px;stroke-linecap:butt;stroke-linejoin:miter;stroke-opacity:1" d="M 368.779,566.849 372.08,583.354 z" id="boundary" inkscape:connector-curvature="0" />
	<path style="fill:none;stroke:red;stroke-width:1px;stroke-linecap:butt;stroke-linejoin:miter;stroke-opacity:1" d="M 368.779,566.849 377.032,543.74 z" id="boundary" inkscape:connector-curvature="0" />
	<path style="fill:none;stroke:red;stroke-width:1px;stroke-linecap:butt;stroke-linejoin:miter;stroke-opacity:1" d="M 372.08,583.354 372.08,606.463 z" id="boundary" inkscape:connector-curvature="0" />
	<circle cx="4" cy="322.562" r="4" fill="#0" id="circle0"/>
	<circle cx="4" cy="339.068" r="4" fill="#0" id="circle1"/>
	<circle cx="12.2529" cy="91.4809" r="4" fill="#0" id="circle2"/>
	<circle cx="12.2529" cy="107.987" r="4" fill="#0" id="circle3"/>
	<circle cx="12.2529" cy="306.057" r="4" fill="#0" id="circle4"/>
	<circle cx="12.2529" cy="353.923" r="4" fill="#0" id="circle5"/>
	<circle cx="20.5058" cy="74.975" r="4" fill="#0" id="circle6"/>
	<circle cx="20.5058" cy="122.842" r="4" fill="#0" id="circle7"/>
	<circle cx="20.5058" cy="139.348" r="4" fill="#0" id="circle8"/>
	<circle cx="20.5058" cy="289.551" r="4" fill="#0" id="circle9"/>
	<circle cx="20.5058" cy="368.779" r="4" fill="#0" id="circle10"/>
	<circle cx="20.5058" cy="385.285" r="4" fill="#0" id="circle11"/>
	<circle cx="28.7587" cy="58.4692" r="4" fill="#0" id="circle12"/>
	<circle cx="28.7587" cy="154.203" r="4" fill="#0" id="circle13"/>
	<circle cx="28.7587" cy="400.14" r="4" fill="#0" id="circle14"/>
	<circle cx="28.7587" cy="545.391" r="4" fill="#0" id="circle15"/>
	<circle cx="28.7587" cy="561.897" r="4" fill="#0" id="circle16"/>
	<circle cx="32.0599" cy="416.646" r="4" fill="#0" id="circle17"/>
	<circle cx="33.7105" cy="276.346" r="4" fill="#0" id="circle18"/>
	<circle cx="37.0116" cy="433.151" r="4" fill="#0" id="circle19"/>
	<circle cx="37.0116" cy="449.657" r="4" fill="#0" id="circle20"/>
	<circle cx="37.0116" cy="520.632" r="4" fill="#0" id="circle21"/>
	<circle cx="37.0116" cy="576.752" r="4" fill="#0" id="circle22"/>
	<circle cx="37.0116" cy="593.258" r="4" fill="#0" id="circle23"/>
	<circle cx="37.0116" cy="609.764" r="4" fill="#0" id="circle24"/>
	<circle cx="38.6622" cy="167.408" r="4" fill="#0" id="circle25"/>
	<circle cx="41.9634" cy="45.2646" r="4" fill="#0" id="circle26"/>
	<circle cx="45.2646" cy="464.512" r="4" fill="#0" id="circle27"/>
	<circle cx="45.2646" cy="481.018" r="4" fill="#0" id="circle28"/>
	<circle cx="45.2646" cy="497.524" r="4" fill="#0" id="circle29"/>
	<circle cx="45.2646" cy="624.619" r="4" fill="#0" id="circle30"/>
	<circle cx="45.2646" cy="641.125" r="4" fill="#0" id="circle31"/>
	<circle cx="46.9151" cy="263.141" r="4" fill="#0" id="circle32"/>
	<circle cx="50.2163" cy="657.631" r="4" fill="#0" id="circle33"/>
	<circle cx="51.8669" cy="178.962" r="4" fill="#0" id="circle34"/>
	<circle cx="56.8186" cy="37.0116" r="4" fill="#0" id="circle35"/>
	<circle cx="58.4692" cy="195.468" r="4" fill="#0" id="circle36"/>
	<circle cx="58.4692" cy="672.486" r="4" fill="#0" id="circle37"/>
	<circle cx="60.1198" cy="251.587" r="4" fill="#0" id="circle38"/>
	<circle cx="61.7704" cy="231.78" r="4" fill="#0" id="circle39"/>
	<circle cx="70.0233" cy="25.4576" r="4" fill="#0" id="circle40"/>
	<circle cx="70.0233" cy="208.672" r="4" fill="#0" id="circle41"/>
	<circle cx="70.0233" cy="685.691" r="4" fill="#0" id="circle42"/>
	<circle cx="70.0233" cy="817.737" r="4" fill="#0" id="circle43"/>
	<circle cx="70.0233" cy="834.243" r="4" fill="#0" id="circle44"/>
	<circle cx="78.2762" cy="792.978" r="4" fill="#0" id="circle45"/>
	<circle cx="78.2762" cy="849.098" r="4" fill="#0" id="circle46"/>
	<circle cx="78.2762" cy="865.604" r="4" fill="#0" id="circle47"/>
	<circle cx="78.2762" cy="933.278" r="4" fill="#0" id="circle48"/>
	<circle cx="78.2762" cy="949.784" r="4" fill="#0" id="circle49"/>
	<circle cx="83.228" cy="697.245" r="4" fill="#0" id="circle50"/>
	<circle cx="86.5291" cy="17.2047" r="4" fill="#0" id="circle51"/>
	<circle cx="86.5291" cy="768.22" r="4" fill="#0" id="circle52"/>
	<circle cx="86.5291" cy="880.459" r="4" fill="#0" id="circle53"/>
	<circle cx="86.5291" cy="896.965" r="4" fill="#0" id="circle54"/>
	<circle cx="86.5291" cy="913.471" r="4" fill="#0" id="circle55"/>
	<circle cx="86.5291" cy="964.639" r="4" fill="#0" id="circle56"/>
	<circle cx="94.782" cy="710.449" r="4" fill="#0" id="circle57"/>
	<circle cx="94.782" cy="726.955" r="4" fill="#0" id="circle58"/>
	<circle cx="94.782" cy="743.461" r="4" fill="#0" id="circle59"/>
	<circle cx="94.782" cy="979.494" r="4" fill="#0" id="circle60"/>
	<circle cx="103.035" cy="8.95175" r="4" fill="#0" id="circle61"/>
	<circle cx="109.637" cy="987.747" r="4" fill="#0" id="circle62"/>
	<circle cx="119.541" cy="4" r="4" fill="#0" id="circle63"/>
	<circle cx="126.143" cy="987.747" r="4" fill="#0" id="circle64"/>
	<circle cx="134.396" cy="12.2529" r="4" fill="#0" id="circle65"/>
	<circle cx="142.649" cy="987.747" r="4" fill="#0" id="circle66"/>
	<circle cx="150.902" cy="12.2529" r="4" fill="#0" id="circle67"/>
	<circle cx="157.504" cy="996" r="4" fill="#0" id="circle68"/>
	<circle cx="167.408" cy="12.2529" r="4" fill="#0" id="circle69"/>
	<circle cx="174.01" cy="996" r="4" fill="#0" id="circle70"/>
	<circle cx="182.263" cy="20.5058" r="4" fill="#0" id="circle71"/>
	<circle cx="190.516" cy="996" r="4" fill="#0" id="circle72"/>
	<circle cx="197.118" cy="28.7587" r="4" fill="#0" id="circle73"/>
	<circle cx="207.022" cy="996" r="4" fill="#0" id="circle74"/>
	<circle cx="211.973" cy="37.0116" r="4" fill="#0" id="circle75"/>
	<circle cx="220.226" cy="880.459" r="4" fill="#0" id="circle76"/>
	<circle cx="223.527" cy="996" r="4" fill="#0" id="circle77"/>
	<circle cx="228.479" cy="41.9634" r="4" fill="#0" id="circle78"/>
	<circle cx="228.479" cy="855.7" r="4" fill="#0" id="circle79"/>
	<circle cx="228.479" cy="895.314" r="4" fill="#0" id="circle80"/>
	<circle cx="236.732" cy="806.183" r="4" fill="#0" id="circle81"/>
	<circle cx="236.732" cy="822.689" r="4" fill="#0" id="circle82"/>
	<circle cx="236.732" cy="839.195" r="4" fill="#0" id="circle83"/>
	<circle cx="240.033" cy="55.1681" r="4" fill="#0" id="circle84"/>
	<circle cx="240.033" cy="996" r="4" fill="#0" id="circle85"/>
	<circle cx="241.684" cy="905.218" r="4" fill="#0" id="circle86"/>
	<circle cx="244.985" cy="203.72" r="4" fill="#0" id="circle87"/>
	<circle cx="244.985" cy="220.226" r="4" fill="#0" id="circle88"/>
	<circle cx="244.985" cy="764.918" r="4" fill="#0" id="circle89"/>
	<circle cx="244.985" cy="781.424" r="4" fill="#0" id="circle90"/>
	<circle cx="248.286" cy="236.732" r="4" fill="#0" id="circle91"/>
	<circle cx="253.238" cy="66.7221" r="4" fill="#0" id="circle92"/>
	<circle cx="253.238" cy="187.215" r="4" fill="#0" id="circle93"/>
	<circle cx="253.238" cy="740.16" r="4" fill="#0" id="circle94"/>
	<circle cx="253.238" cy="918.423" r="4" fill="#0" id="circle95"/>
	<circle cx="256.539" cy="251.587" r="4" fill="#0" id="circle96"/>
	<circle cx="256.539" cy="996" r="4" fill="#0" id="circle97"/>
	<circle cx="259.84" cy="83.228" r="4" fill="#0" id="circle98"/>
	<circle cx="261.491" cy="99.7338" r="4" fill="#0" id="circle99"/>
	<circle cx="261.491" cy="116.24" r="4" fill="#0" id="circle100"/>
	<circle cx="261.491" cy="132.745" r="4" fill="#0" id="circle101"/>
	<circle cx="261.491" cy="149.251" r="4" fill="#0" id="circle102"/>
	<circle cx="261.491" cy="165.757" r="4" fill="#0" id="circle103"/>
	<circle cx="261.491" cy="268.093" r="4" fill="#0" id="circle104"/>
	<circle cx="261.491" cy="690.642" r="4" fill="#0" id="circle105"/>
	<circle cx="261.491" cy="707.148" r="4" fill="#0" id="circle106"/>
	<circle cx="261.491" cy="723.654" r="4" fill="#0" id="circle107"/>
	<circle cx="269.744" cy="282.948" r="4" fill="#0" id="circle108"/>
	<circle cx="269.744" cy="299.454" r="4" fill="#0" id="circle109"/>
	<circle cx="269.744" cy="674.136" r="4" fill="#0" id="circle110"/>
	<circle cx="269.744" cy="925.025" r="4" fill="#0" id="circle111"/>
	<circle cx="271.394" cy="987.747" r="4" fill="#0" id="circle112"/>
	<circle cx="277.997" cy="314.309" r="4" fill="#0" id="circle113"/>
	<circle cx="284.599" cy="330.815" r="4" fill="#0" id="circle114"/>
	<circle cx="286.25" cy="347.321" r="4" fill="#0" id="circle115"/>
	<circle cx="286.25" cy="363.827" r="4" fill="#0" id="circle116"/>
	<circle cx="286.25" cy="380.333" r="4" fill="#0" id="circle117"/>
	<circle cx="286.25" cy="665.884" r="4" fill="#0" id="circle118"/>
	<circle cx="286.25" cy="928.326" r="4" fill="#0" id="circle119"/>
	<circle cx="287.9" cy="987.747" r="4" fill="#0" id="circle120"/>
	<circle cx="292.852" cy="396.839" r="4" fill="#0" id="circle121"/>
	<circle cx="299.454" cy="654.329" r="4" fill="#0" id="circle122"/>
	<circle cx="301.105" cy="411.694" r="4" fill="#0" id="circle123"/>
	<circle cx="301.105" cy="936.579" r="4" fill="#0" id="circle124"/>
	<circle cx="301.105" cy="974.542" r="4" fill="#0" id="circle125"/>
	<circle cx="307.707" cy="428.2" r="4" fill="#0" id="circle126"/>
	<circle cx="311.008" cy="641.125" r="4" fill="#0" id="circle127"/>
	<circle cx="311.008" cy="949.784" r="4" fill="#0" id="circle128"/>
	<circle cx="315.96" cy="443.055" r="4" fill="#0" id="circle129"/>
	<circle cx="319.261" cy="459.561" r="4" fill="#0" id="circle130"/>
	<circle cx="325.864" cy="632.872" r="4" fill="#0" id="circle131"/>
	<circle cx="327.514" cy="474.416" r="4" fill="#0" id="circle132"/>
	<circle cx="335.767" cy="489.271" r="4" fill="#0" id="circle133"/>
	<circle cx="340.719" cy="624.619" r="4" fill="#0" id="circle134"/>
	<circle cx="344.02" cy="504.126" r="4" fill="#0" id="circle135"/>
	<circle cx="355.574" cy="517.331" r="4" fill="#0" id="circle136"/>
	<circle cx="355.574" cy="614.715" r="4" fill="#0" id="circle137"/>
	<circle cx="368.779" cy="528.885" r="4" fill="#0" id="circle138"/>
	<circle cx="368.779" cy="566.849" r="4" fill="#0" id="circle139"/>
	<circle cx="372.08" cy="583.354" r="4" fill="#0" id="circle140"/>
	<circle cx="372.08" cy="606.463" r="4" fill="#0" id="circle141"/>
	<circle cx="377.032" cy="543.74" r="4" fill="#0" id="circle142"/>
	</g>
</svg>