<?xml version="1.0" encoding="UTF-8" standalone="no"?>
<!-- Created with CurveBenchmark -->
<svg
	xmlns:dc="http://purl.org/dc/elements/1.1/"
	xmlns:cc="http://creativecommons.org/ns#"
	xmlns:rdf="http://www.w3.org/1999/02/22-rdf-syntax-ns#"
	xmlns:svg="http://www.w3.org/2000/svg"
	xmlns="http://www.w3.org/2000/svg"
	xmlns:sodipodi="http://sodipodi.sourceforge.net/DTD/sodipodi-0.dtd"
	xmlns:inkscape="http://www.inkscape.org/namespaces/inkscape"
	width="1000"
	height="1000"
	id="svg2"
	version="1.1"
	sodipodi:docname="manifold/vicur-dino04.png.txt">
<defs
	id="defs4" />
<metadata
	id="metadata7">
	<rdf:RDF>
		<cc:Work
			rdf:about="">
			<dc:format>image/svg+xml</dc:format>
			<dc:type
				rdf:resource="http://purl.org/dc/dcmitype/StillImage" />
			<dc:title></dc:title>
		</cc:Work>
	</rdf:RDF>
</metadata>
<g
	inkscape:label="Layer 1"
	inkscape:groupmode="layer"
	id="layer1">
	<path style="fill:none;stroke:red;stroke-width:1px;stroke-linecap:butt;stroke-linejoin:miter;stroke-opacity:1" d="M 4,12.9774 10.733,21.9548 z" id="boundary" inkscape:connector-curvature="0" />
	<path style="fill:none;stroke:red;stroke-width:1px;stroke-linecap:butt;stroke-linejoin:miter;stroke-opacity:1" d="M 4,12.9774 15.2217,9.61086 z" id="boundary" inkscape:connector-curvature="0" />
	<path style="fill:none;stroke:red;stroke-width:1px;stroke-linecap:butt;stroke-linejoin:miter;stroke-opacity:1" d="M 4,35.4208 10.733,21.9548 z" id="boundary" inkscape:connector-curvature="0" />
	<path style="fill:none;stroke:red;stroke-width:1px;stroke-linecap:butt;stroke-linejoin:miter;stroke-opacity:1" d="M 4,35.4208 15.2217,38.7873 z" id="boundary" inkscape:connector-curvature="0" />
	<path style="fill:none;stroke:red;stroke-width:1px;stroke-linecap:butt;stroke-linejoin:miter;stroke-opacity:1" d="M 15.2217,9.61086 26.4434,9.61086 z" id="boundary" inkscape:connector-curvature="0" />
	<path style="fill:none;stroke:red;stroke-width:1px;stroke-linecap:butt;stroke-linejoin:miter;stroke-opacity:1" d="M 15.2217,38.7873 25.3213,44.3982 z" id="boundary" inkscape:connector-curvature="0" />
	<path style="fill:none;stroke:red;stroke-width:1px;stroke-linecap:butt;stroke-linejoin:miter;stroke-opacity:1" d="M 25.3213,44.3982 33.1765,53.3756 z" id="boundary" inkscape:connector-curvature="0" />
	<path style="fill:none;stroke:red;stroke-width:1px;stroke-linecap:butt;stroke-linejoin:miter;stroke-opacity:1" d="M 26.4434,9.61086 37.6652,7.36652 z" id="boundary" inkscape:connector-curvature="0" />
	<path style="fill:none;stroke:red;stroke-width:1px;stroke-linecap:butt;stroke-linejoin:miter;stroke-opacity:1" d="M 33.1765,53.3756 42.1538,61.2308 z" id="boundary" inkscape:connector-curvature="0" />
	<path style="fill:none;stroke:red;stroke-width:1px;stroke-linecap:butt;stroke-linejoin:miter;stroke-opacity:1" d="M 37.6652,7.36652 48.8869,4 z" id="boundary" inkscape:connector-curvature="0" />
	<path style="fill:none;stroke:red;stroke-width:1px;stroke-linecap:butt;stroke-linejoin:miter;stroke-opacity:1" d="M 42.1538,61.2308 50.009,70.2081 z" id="boundary" inkscape:connector-curvature="0" />
	<path style="fill:none;stroke:red;stroke-width:1px;stroke-linecap:butt;stroke-linejoin:miter;stroke-opacity:1" d="M 48.8869,4 60.1086,6.24434 z" id="boundary" inkscape:connector-curvature="0" />
	<path style="fill:none;stroke:red;stroke-width:1px;stroke-linecap:butt;stroke-linejoin:miter;stroke-opacity:1" d="M 50.009,70.2081 54.4977,81.4299 z" id="boundary" inkscape:connector-curvature="0" />
	<path style="fill:none;stroke:red;stroke-width:1px;stroke-linecap:butt;stroke-linejoin:miter;stroke-opacity:1" d="M 54.4977,81.4299 60.1086,91.5294 z" id="boundary" inkscape:connector-curvature="0" />
	<path style="fill:none;stroke:red;stroke-width:1px;stroke-linecap:butt;stroke-linejoin:miter;stroke-opacity:1" d="M 60.1086,6.24434 66.8416,15.2217 z" id="boundary" inkscape:connector-curvature="0" />
	<path style="fill:none;stroke:red;stroke-width:1px;stroke-linecap:butt;stroke-linejoin:miter;stroke-opacity:1" d="M 60.1086,91.5294 60.1086,102.751 z" id="boundary" inkscape:connector-curvature="0" />
	<path style="fill:none;stroke:red;stroke-width:1px;stroke-linecap:butt;stroke-linejoin:miter;stroke-opacity:1" d="M 60.1086,102.751 65.7195,112.851 z" id="boundary" inkscape:connector-curvature="0" />
	<path style="fill:none;stroke:red;stroke-width:1px;stroke-linecap:butt;stroke-linejoin:miter;stroke-opacity:1" d="M 65.7195,112.851 71.3303,122.95 z" id="boundary" inkscape:connector-curvature="0" />
	<path style="fill:none;stroke:red;stroke-width:1px;stroke-linecap:butt;stroke-linejoin:miter;stroke-opacity:1" d="M 66.8416,15.2217 72.4525,25.3213 z" id="boundary" inkscape:connector-curvature="0" />
	<path style="fill:none;stroke:red;stroke-width:1px;stroke-linecap:butt;stroke-linejoin:miter;stroke-opacity:1" d="M 71.3303,122.95 74.6968,134.172 z" id="boundary" inkscape:connector-curvature="0" />
	<path style="fill:none;stroke:red;stroke-width:1px;stroke-linecap:butt;stroke-linejoin:miter;stroke-opacity:1" d="M 72.4525,25.3213 78.0633,35.4208 z" id="boundary" inkscape:connector-curvature="0" />
	<path style="fill:none;stroke:red;stroke-width:1px;stroke-linecap:butt;stroke-linejoin:miter;stroke-opacity:1" d="M 74.6968,134.172 82.552,143.149 z" id="boundary" inkscape:connector-curvature="0" />
	<path style="fill:none;stroke:red;stroke-width:1px;stroke-linecap:butt;stroke-linejoin:miter;stroke-opacity:1" d="M 78.0633,35.4208 83.6742,45.5204 z" id="boundary" inkscape:connector-curvature="0" />
	<path style="fill:none;stroke:red;stroke-width:1px;stroke-linecap:butt;stroke-linejoin:miter;stroke-opacity:1" d="M 82.552,143.149 83.6742,154.371 z" id="boundary" inkscape:connector-curvature="0" />
	<path style="fill:none;stroke:red;stroke-width:1px;stroke-linecap:butt;stroke-linejoin:miter;stroke-opacity:1" d="M 83.6742,45.5204 87.0407,56.7421 z" id="boundary" inkscape:connector-curvature="0" />
	<path style="fill:none;stroke:red;stroke-width:1px;stroke-linecap:butt;stroke-linejoin:miter;stroke-opacity:1" d="M 83.6742,154.371 92.6516,162.226 z" id="boundary" inkscape:connector-curvature="0" />
	<path style="fill:none;stroke:red;stroke-width:1px;stroke-linecap:butt;stroke-linejoin:miter;stroke-opacity:1" d="M 87.0407,56.7421 89.2851,67.9638 z" id="boundary" inkscape:connector-curvature="0" />
	<path style="fill:none;stroke:red;stroke-width:1px;stroke-linecap:butt;stroke-linejoin:miter;stroke-opacity:1" d="M 89.2851,67.9638 94.8959,78.0633 z" id="boundary" inkscape:connector-curvature="0" />
	<path style="fill:none;stroke:red;stroke-width:1px;stroke-linecap:butt;stroke-linejoin:miter;stroke-opacity:1" d="M 92.6516,162.226 97.1403,173.448 z" id="boundary" inkscape:connector-curvature="0" />
	<path style="fill:none;stroke:red;stroke-width:1px;stroke-linecap:butt;stroke-linejoin:miter;stroke-opacity:1" d="M 94.8959,78.0633 97.1403,89.2851 z" id="boundary" inkscape:connector-curvature="0" />
	<path style="fill:none;stroke:red;stroke-width:1px;stroke-linecap:butt;stroke-linejoin:miter;stroke-opacity:1" d="M 97.1403,89.2851 102.751,99.3846 z" id="boundary" inkscape:connector-curvature="0" />
	<path style="fill:none;stroke:red;stroke-width:1px;stroke-linecap:butt;stroke-linejoin:miter;stroke-opacity:1" d="M 97.1403,173.448 106.118,181.303 z" id="boundary" inkscape:connector-curvature="0" />
	<path style="fill:none;stroke:red;stroke-width:1px;stroke-linecap:butt;stroke-linejoin:miter;stroke-opacity:1" d="M 102.751,99.3846 106.118,110.606 z" id="boundary" inkscape:connector-curvature="0" />
	<path style="fill:none;stroke:red;stroke-width:1px;stroke-linecap:butt;stroke-linejoin:miter;stroke-opacity:1" d="M 106.118,110.606 115.095,117.339 z" id="boundary" inkscape:connector-curvature="0" />
	<path style="fill:none;stroke:red;stroke-width:1px;stroke-linecap:butt;stroke-linejoin:miter;stroke-opacity:1" d="M 106.118,181.303 113.973,190.281 z" id="boundary" inkscape:connector-curvature="0" />
	<path style="fill:none;stroke:red;stroke-width:1px;stroke-linecap:butt;stroke-linejoin:miter;stroke-opacity:1" d="M 113.973,190.281 122.95,198.136 z" id="boundary" inkscape:connector-curvature="0" />
	<path style="fill:none;stroke:red;stroke-width:1px;stroke-linecap:butt;stroke-linejoin:miter;stroke-opacity:1" d="M 115.095,117.339 122.95,126.317 z" id="boundary" inkscape:connector-curvature="0" />
	<path style="fill:none;stroke:red;stroke-width:1px;stroke-linecap:butt;stroke-linejoin:miter;stroke-opacity:1" d="M 122.95,126.317 128.561,136.416 z" id="boundary" inkscape:connector-curvature="0" />
	<path style="fill:none;stroke:red;stroke-width:1px;stroke-linecap:butt;stroke-linejoin:miter;stroke-opacity:1" d="M 122.95,198.136 130.805,207.113 z" id="boundary" inkscape:connector-curvature="0" />
	<path style="fill:none;stroke:red;stroke-width:1px;stroke-linecap:butt;stroke-linejoin:miter;stroke-opacity:1" d="M 128.561,136.416 136.416,145.394 z" id="boundary" inkscape:connector-curvature="0" />
	<path style="fill:none;stroke:red;stroke-width:1px;stroke-linecap:butt;stroke-linejoin:miter;stroke-opacity:1" d="M 130.805,207.113 142.027,211.602 z" id="boundary" inkscape:connector-curvature="0" />
	<path style="fill:none;stroke:red;stroke-width:1px;stroke-linecap:butt;stroke-linejoin:miter;stroke-opacity:1" d="M 136.416,145.394 145.394,153.249 z" id="boundary" inkscape:connector-curvature="0" />
	<path style="fill:none;stroke:red;stroke-width:1px;stroke-linecap:butt;stroke-linejoin:miter;stroke-opacity:1" d="M 142.027,211.602 151.005,218.335 z" id="boundary" inkscape:connector-curvature="0" />
	<path style="fill:none;stroke:red;stroke-width:1px;stroke-linecap:butt;stroke-linejoin:miter;stroke-opacity:1" d="M 145.394,153.249 155.493,158.86 z" id="boundary" inkscape:connector-curvature="0" />
	<path style="fill:none;stroke:red;stroke-width:1px;stroke-linecap:butt;stroke-linejoin:miter;stroke-opacity:1" d="M 151.005,218.335 161.104,223.946 z" id="boundary" inkscape:connector-curvature="0" />
	<path style="fill:none;stroke:red;stroke-width:1px;stroke-linecap:butt;stroke-linejoin:miter;stroke-opacity:1" d="M 155.493,158.86 166.715,163.348 z" id="boundary" inkscape:connector-curvature="0" />
	<path style="fill:none;stroke:red;stroke-width:1px;stroke-linecap:butt;stroke-linejoin:miter;stroke-opacity:1" d="M 161.104,223.946 171.204,229.557 z" id="boundary" inkscape:connector-curvature="0" />
	<path style="fill:none;stroke:red;stroke-width:1px;stroke-linecap:butt;stroke-linejoin:miter;stroke-opacity:1" d="M 166.715,163.348 176.814,168.959 z" id="boundary" inkscape:connector-curvature="0" />
	<path style="fill:none;stroke:red;stroke-width:1px;stroke-linecap:butt;stroke-linejoin:miter;stroke-opacity:1" d="M 171.204,229.557 181.303,235.167 z" id="boundary" inkscape:connector-curvature="0" />
	<path style="fill:none;stroke:red;stroke-width:1px;stroke-linecap:butt;stroke-linejoin:miter;stroke-opacity:1" d="M 176.814,168.959 188.036,172.326 z" id="boundary" inkscape:connector-curvature="0" />
	<path style="fill:none;stroke:red;stroke-width:1px;stroke-linecap:butt;stroke-linejoin:miter;stroke-opacity:1" d="M 181.303,235.167 190.281,243.023 z" id="boundary" inkscape:connector-curvature="0" />
	<path style="fill:none;stroke:red;stroke-width:1px;stroke-linecap:butt;stroke-linejoin:miter;stroke-opacity:1" d="M 188.036,172.326 199.258,172.326 z" id="boundary" inkscape:connector-curvature="0" />
	<path style="fill:none;stroke:red;stroke-width:1px;stroke-linecap:butt;stroke-linejoin:miter;stroke-opacity:1" d="M 190.281,243.023 198.136,252 z" id="boundary" inkscape:connector-curvature="0" />
	<path style="fill:none;stroke:red;stroke-width:1px;stroke-linecap:butt;stroke-linejoin:miter;stroke-opacity:1" d="M 198.136,252 207.113,259.855 z" id="boundary" inkscape:connector-curvature="0" />
	<path style="fill:none;stroke:red;stroke-width:1px;stroke-linecap:butt;stroke-linejoin:miter;stroke-opacity:1" d="M 199.258,172.326 210.48,172.326 z" id="boundary" inkscape:connector-curvature="0" />
	<path style="fill:none;stroke:red;stroke-width:1px;stroke-linecap:butt;stroke-linejoin:miter;stroke-opacity:1" d="M 207.113,259.855 214.968,268.833 z" id="boundary" inkscape:connector-curvature="0" />
	<path style="fill:none;stroke:red;stroke-width:1px;stroke-linecap:butt;stroke-linejoin:miter;stroke-opacity:1" d="M 210.48,172.326 221.701,172.326 z" id="boundary" inkscape:connector-curvature="0" />
	<path style="fill:none;stroke:red;stroke-width:1px;stroke-linecap:butt;stroke-linejoin:miter;stroke-opacity:1" d="M 214.968,268.833 223.946,276.688 z" id="boundary" inkscape:connector-curvature="0" />
	<path style="fill:none;stroke:red;stroke-width:1px;stroke-linecap:butt;stroke-linejoin:miter;stroke-opacity:1" d="M 221.701,172.326 231.801,166.715 z" id="boundary" inkscape:connector-curvature="0" />
	<path style="fill:none;stroke:red;stroke-width:1px;stroke-linecap:butt;stroke-linejoin:miter;stroke-opacity:1" d="M 223.946,276.688 235.167,280.054 z" id="boundary" inkscape:connector-curvature="0" />
	<path style="fill:none;stroke:red;stroke-width:1px;stroke-linecap:butt;stroke-linejoin:miter;stroke-opacity:1" d="M 228.434,534.787 239.656,531.421 z" id="boundary" inkscape:connector-curvature="0" />
	<path style="fill:none;stroke:red;stroke-width:1px;stroke-linecap:butt;stroke-linejoin:miter;stroke-opacity:1" d="M 228.434,534.787 241.9,542.643 z" id="boundary" inkscape:connector-curvature="0" />
	<path style="fill:none;stroke:red;stroke-width:1px;stroke-linecap:butt;stroke-linejoin:miter;stroke-opacity:1" d="M 231.801,166.715 243.023,161.104 z" id="boundary" inkscape:connector-curvature="0" />
	<path style="fill:none;stroke:red;stroke-width:1px;stroke-linecap:butt;stroke-linejoin:miter;stroke-opacity:1" d="M 235.167,280.054 245.267,285.665 z" id="boundary" inkscape:connector-curvature="0" />
	<path style="fill:none;stroke:red;stroke-width:1px;stroke-linecap:butt;stroke-linejoin:miter;stroke-opacity:1" d="M 239.656,531.421 250.878,531.421 z" id="boundary" inkscape:connector-curvature="0" />
	<path style="fill:none;stroke:red;stroke-width:1px;stroke-linecap:butt;stroke-linejoin:miter;stroke-opacity:1" d="M 241.9,542.643 253.122,543.765 z" id="boundary" inkscape:connector-curvature="0" />
	<path style="fill:none;stroke:red;stroke-width:1px;stroke-linecap:butt;stroke-linejoin:miter;stroke-opacity:1" d="M 243.023,161.104 254.244,161.104 z" id="boundary" inkscape:connector-curvature="0" />
	<path style="fill:none;stroke:red;stroke-width:1px;stroke-linecap:butt;stroke-linejoin:miter;stroke-opacity:1" d="M 245.267,285.665 256.489,285.665 z" id="boundary" inkscape:connector-curvature="0" />
	<path style="fill:none;stroke:red;stroke-width:1px;stroke-linecap:butt;stroke-linejoin:miter;stroke-opacity:1" d="M 245.267,321.575 245.267,332.796 z" id="boundary" inkscape:connector-curvature="0" />
	<path style="fill:none;stroke:red;stroke-width:1px;stroke-linecap:butt;stroke-linejoin:miter;stroke-opacity:1" d="M 245.267,321.575 250.878,310.353 z" id="boundary" inkscape:connector-curvature="0" />
	<path style="fill:none;stroke:red;stroke-width:1px;stroke-linecap:butt;stroke-linejoin:miter;stroke-opacity:1" d="M 245.267,332.796 245.267,344.018 z" id="boundary" inkscape:connector-curvature="0" />
	<path style="fill:none;stroke:red;stroke-width:1px;stroke-linecap:butt;stroke-linejoin:miter;stroke-opacity:1" d="M 245.267,344.018 245.267,355.24 z" id="boundary" inkscape:connector-curvature="0" />
	<path style="fill:none;stroke:red;stroke-width:1px;stroke-linecap:butt;stroke-linejoin:miter;stroke-opacity:1" d="M 245.267,355.24 250.878,365.339 z" id="boundary" inkscape:connector-curvature="0" />
	<path style="fill:none;stroke:red;stroke-width:1px;stroke-linecap:butt;stroke-linejoin:miter;stroke-opacity:1" d="M 250.878,310.353 256.489,296.887 z" id="boundary" inkscape:connector-curvature="0" />
	<path style="fill:none;stroke:red;stroke-width:1px;stroke-linecap:butt;stroke-linejoin:miter;stroke-opacity:1" d="M 250.878,365.339 256.489,375.439 z" id="boundary" inkscape:connector-curvature="0" />
	<path style="fill:none;stroke:red;stroke-width:1px;stroke-linecap:butt;stroke-linejoin:miter;stroke-opacity:1" d="M 250.878,531.421 262.1,529.176 z" id="boundary" inkscape:connector-curvature="0" />
	<path style="fill:none;stroke:red;stroke-width:1px;stroke-linecap:butt;stroke-linejoin:miter;stroke-opacity:1" d="M 253.122,543.765 264.344,543.765 z" id="boundary" inkscape:connector-curvature="0" />
	<path style="fill:none;stroke:red;stroke-width:1px;stroke-linecap:butt;stroke-linejoin:miter;stroke-opacity:1" d="M 254.244,161.104 264.344,155.493 z" id="boundary" inkscape:connector-curvature="0" />
	<path style="fill:none;stroke:red;stroke-width:1px;stroke-linecap:butt;stroke-linejoin:miter;stroke-opacity:1" d="M 256.489,285.665 256.489,296.887 z" id="boundary" inkscape:connector-curvature="0" />
	<path style="fill:none;stroke:red;stroke-width:1px;stroke-linecap:butt;stroke-linejoin:miter;stroke-opacity:1" d="M 256.489,375.439 262.1,385.538 z" id="boundary" inkscape:connector-curvature="0" />
	<path style="fill:none;stroke:red;stroke-width:1px;stroke-linecap:butt;stroke-linejoin:miter;stroke-opacity:1" d="M 262.1,385.538 271.077,392.271 z" id="boundary" inkscape:connector-curvature="0" />
	<path style="fill:none;stroke:red;stroke-width:1px;stroke-linecap:butt;stroke-linejoin:miter;stroke-opacity:1" d="M 262.1,529.176 273.321,523.566 z" id="boundary" inkscape:connector-curvature="0" />
	<path style="fill:none;stroke:red;stroke-width:1px;stroke-linecap:butt;stroke-linejoin:miter;stroke-opacity:1" d="M 263.222,336.163 273.321,330.552 z" id="boundary" inkscape:connector-curvature="0" />
	<path style="fill:none;stroke:red;stroke-width:1px;stroke-linecap:butt;stroke-linejoin:miter;stroke-opacity:1" d="M 263.222,347.385 263.222,358.606 z" id="boundary" inkscape:connector-curvature="0" />
	<path style="fill:none;stroke:red;stroke-width:1px;stroke-linecap:butt;stroke-linejoin:miter;stroke-opacity:1" d="M 263.222,347.385 273.321,341.774 z" id="boundary" inkscape:connector-curvature="0" />
	<path style="fill:none;stroke:red;stroke-width:1px;stroke-linecap:butt;stroke-linejoin:miter;stroke-opacity:1" d="M 263.222,358.606 268.833,368.706 z" id="boundary" inkscape:connector-curvature="0" />
	<path style="fill:none;stroke:red;stroke-width:1px;stroke-linecap:butt;stroke-linejoin:miter;stroke-opacity:1" d="M 264.344,155.493 275.566,151.005 z" id="boundary" inkscape:connector-curvature="0" />
	<path style="fill:none;stroke:red;stroke-width:1px;stroke-linecap:butt;stroke-linejoin:miter;stroke-opacity:1" d="M 264.344,543.765 275.566,543.765 z" id="boundary" inkscape:connector-curvature="0" />
	<path style="fill:none;stroke:red;stroke-width:1px;stroke-linecap:butt;stroke-linejoin:miter;stroke-opacity:1" d="M 268.833,368.706 277.81,375.439 z" id="boundary" inkscape:connector-curvature="0" />
	<path style="fill:none;stroke:red;stroke-width:1px;stroke-linecap:butt;stroke-linejoin:miter;stroke-opacity:1" d="M 273.321,330.552 273.321,341.774 z" id="boundary" inkscape:connector-curvature="0" />
	<path style="fill:none;stroke:red;stroke-width:1px;stroke-linecap:butt;stroke-linejoin:miter;stroke-opacity:1" d="M 273.321,523.566 282.299,514.588 z" id="boundary" inkscape:connector-curvature="0" />
	<path style="fill:none;stroke:red;stroke-width:1px;stroke-linecap:butt;stroke-linejoin:miter;stroke-opacity:1" d="M 275.566,151.005 286.787,149.882 z" id="boundary" inkscape:connector-curvature="0" />
	<path style="fill:none;stroke:red;stroke-width:1px;stroke-linecap:butt;stroke-linejoin:miter;stroke-opacity:1" d="M 275.566,543.765 286.787,543.765 z" id="boundary" inkscape:connector-curvature="0" />
	<path style="fill:none;stroke:red;stroke-width:1px;stroke-linecap:butt;stroke-linejoin:miter;stroke-opacity:1" d="M 277.81,375.439 285.665,360.851 z" id="boundary" inkscape:connector-curvature="0" />
	<path style="fill:none;stroke:red;stroke-width:1px;stroke-linecap:butt;stroke-linejoin:miter;stroke-opacity:1" d="M 282.299,514.588 291.276,505.611 z" id="boundary" inkscape:connector-curvature="0" />
	<path style="fill:none;stroke:red;stroke-width:1px;stroke-linecap:butt;stroke-linejoin:miter;stroke-opacity:1" d="M 285.665,360.851 293.52,369.828 z" id="boundary" inkscape:connector-curvature="0" />
	<path style="fill:none;stroke:red;stroke-width:1px;stroke-linecap:butt;stroke-linejoin:miter;stroke-opacity:1" d="M 286.787,149.882 298.009,149.882 z" id="boundary" inkscape:connector-curvature="0" />
	<path style="fill:none;stroke:red;stroke-width:1px;stroke-linecap:butt;stroke-linejoin:miter;stroke-opacity:1" d="M 286.787,543.765 298.009,543.765 z" id="boundary" inkscape:connector-curvature="0" />
	<path style="fill:none;stroke:red;stroke-width:1px;stroke-linecap:butt;stroke-linejoin:miter;stroke-opacity:1" d="M 291.276,324.941 291.276,336.163 z" id="boundary" inkscape:connector-curvature="0" />
	<path style="fill:none;stroke:red;stroke-width:1px;stroke-linecap:butt;stroke-linejoin:miter;stroke-opacity:1" d="M 291.276,324.941 296.887,308.109 z" id="boundary" inkscape:connector-curvature="0" />
	<path style="fill:none;stroke:red;stroke-width:1px;stroke-linecap:butt;stroke-linejoin:miter;stroke-opacity:1" d="M 291.276,336.163 293.52,347.385 z" id="boundary" inkscape:connector-curvature="0" />
	<path style="fill:none;stroke:red;stroke-width:1px;stroke-linecap:butt;stroke-linejoin:miter;stroke-opacity:1" d="M 291.276,505.611 302.498,500 z" id="boundary" inkscape:connector-curvature="0" />
	<path style="fill:none;stroke:red;stroke-width:1px;stroke-linecap:butt;stroke-linejoin:miter;stroke-opacity:1" d="M 293.52,347.385 302.498,355.24 z" id="boundary" inkscape:connector-curvature="0" />
	<path style="fill:none;stroke:red;stroke-width:1px;stroke-linecap:butt;stroke-linejoin:miter;stroke-opacity:1" d="M 293.52,369.828 304.742,374.317 z" id="boundary" inkscape:connector-curvature="0" />
	<path style="fill:none;stroke:red;stroke-width:1px;stroke-linecap:butt;stroke-linejoin:miter;stroke-opacity:1" d="M 296.887,308.109 308.109,302.498 z" id="boundary" inkscape:connector-curvature="0" />
	<path style="fill:none;stroke:red;stroke-width:1px;stroke-linecap:butt;stroke-linejoin:miter;stroke-opacity:1" d="M 298.009,149.882 308.109,144.271 z" id="boundary" inkscape:connector-curvature="0" />
	<path style="fill:none;stroke:red;stroke-width:1px;stroke-linecap:butt;stroke-linejoin:miter;stroke-opacity:1" d="M 298.009,543.765 302.498,526.932 z" id="boundary" inkscape:connector-curvature="0" />
	<path style="fill:none;stroke:red;stroke-width:1px;stroke-linecap:butt;stroke-linejoin:miter;stroke-opacity:1" d="M 302.498,355.24 312.597,360.851 z" id="boundary" inkscape:connector-curvature="0" />
	<path style="fill:none;stroke:red;stroke-width:1px;stroke-linecap:butt;stroke-linejoin:miter;stroke-opacity:1" d="M 302.498,500 308.109,488.778 z" id="boundary" inkscape:connector-curvature="0" />
	<path style="fill:none;stroke:red;stroke-width:1px;stroke-linecap:butt;stroke-linejoin:miter;stroke-opacity:1" d="M 302.498,526.932 311.475,519.077 z" id="boundary" inkscape:connector-curvature="0" />
	<path style="fill:none;stroke:red;stroke-width:1px;stroke-linecap:butt;stroke-linejoin:miter;stroke-opacity:1" d="M 304.742,374.317 315.964,374.317 z" id="boundary" inkscape:connector-curvature="0" />
	<path style="fill:none;stroke:red;stroke-width:1px;stroke-linecap:butt;stroke-linejoin:miter;stroke-opacity:1" d="M 308.109,144.271 319.33,144.271 z" id="boundary" inkscape:connector-curvature="0" />
	<path style="fill:none;stroke:red;stroke-width:1px;stroke-linecap:butt;stroke-linejoin:miter;stroke-opacity:1" d="M 308.109,302.498 318.208,308.109 z" id="boundary" inkscape:connector-curvature="0" />
	<path style="fill:none;stroke:red;stroke-width:1px;stroke-linecap:butt;stroke-linejoin:miter;stroke-opacity:1" d="M 308.109,488.778 317.086,480.923 z" id="boundary" inkscape:connector-curvature="0" />
	<path style="fill:none;stroke:red;stroke-width:1px;stroke-linecap:butt;stroke-linejoin:miter;stroke-opacity:1" d="M 311.475,519.077 317.086,507.855 z" id="boundary" inkscape:connector-curvature="0" />
	<path style="fill:none;stroke:red;stroke-width:1px;stroke-linecap:butt;stroke-linejoin:miter;stroke-opacity:1" d="M 312.597,360.851 315.964,374.317 z" id="boundary" inkscape:connector-curvature="0" />
	<path style="fill:none;stroke:red;stroke-width:1px;stroke-linecap:butt;stroke-linejoin:miter;stroke-opacity:1" d="M 317.086,480.923 323.819,461.846 z" id="boundary" inkscape:connector-curvature="0" />
	<path style="fill:none;stroke:red;stroke-width:1px;stroke-linecap:butt;stroke-linejoin:miter;stroke-opacity:1" d="M 317.086,507.855 324.941,498.878 z" id="boundary" inkscape:connector-curvature="0" />
	<path style="fill:none;stroke:red;stroke-width:1px;stroke-linecap:butt;stroke-linejoin:miter;stroke-opacity:1" d="M 318.208,308.109 324.941,317.086 z" id="boundary" inkscape:connector-curvature="0" />
	<path style="fill:none;stroke:red;stroke-width:1px;stroke-linecap:butt;stroke-linejoin:miter;stroke-opacity:1" d="M 319.33,144.271 330.552,140.905 z" id="boundary" inkscape:connector-curvature="0" />
	<path style="fill:none;stroke:red;stroke-width:1px;stroke-linecap:butt;stroke-linejoin:miter;stroke-opacity:1" d="M 323.819,461.846 329.43,450.624 z" id="boundary" inkscape:connector-curvature="0" />
	<path style="fill:none;stroke:red;stroke-width:1px;stroke-linecap:butt;stroke-linejoin:miter;stroke-opacity:1" d="M 324.941,317.086 329.43,328.308 z" id="boundary" inkscape:connector-curvature="0" />
	<path style="fill:none;stroke:red;stroke-width:1px;stroke-linecap:butt;stroke-linejoin:miter;stroke-opacity:1" d="M 324.941,498.878 333.919,491.023 z" id="boundary" inkscape:connector-curvature="0" />
	<path style="fill:none;stroke:red;stroke-width:1px;stroke-linecap:butt;stroke-linejoin:miter;stroke-opacity:1" d="M 329.43,328.308 329.43,339.529 z" id="boundary" inkscape:connector-curvature="0" />
	<path style="fill:none;stroke:red;stroke-width:1px;stroke-linecap:butt;stroke-linejoin:miter;stroke-opacity:1" d="M 329.43,339.529 329.43,350.751 z" id="boundary" inkscape:connector-curvature="0" />
	<path style="fill:none;stroke:red;stroke-width:1px;stroke-linecap:butt;stroke-linejoin:miter;stroke-opacity:1" d="M 329.43,350.751 329.43,361.973 z" id="boundary" inkscape:connector-curvature="0" />
	<path style="fill:none;stroke:red;stroke-width:1px;stroke-linecap:butt;stroke-linejoin:miter;stroke-opacity:1" d="M 329.43,361.973 330.552,373.195 z" id="boundary" inkscape:connector-curvature="0" />
	<path style="fill:none;stroke:red;stroke-width:1px;stroke-linecap:butt;stroke-linejoin:miter;stroke-opacity:1" d="M 329.43,450.624 335.041,439.403 z" id="boundary" inkscape:connector-curvature="0" />
	<path style="fill:none;stroke:red;stroke-width:1px;stroke-linecap:butt;stroke-linejoin:miter;stroke-opacity:1" d="M 330.552,140.905 341.774,138.661 z" id="boundary" inkscape:connector-curvature="0" />
	<path style="fill:none;stroke:red;stroke-width:1px;stroke-linecap:butt;stroke-linejoin:miter;stroke-opacity:1" d="M 330.552,373.195 335.041,384.416 z" id="boundary" inkscape:connector-curvature="0" />
	<path style="fill:none;stroke:red;stroke-width:1px;stroke-linecap:butt;stroke-linejoin:miter;stroke-opacity:1" d="M 333.919,491.023 341.774,482.045 z" id="boundary" inkscape:connector-curvature="0" />
	<path style="fill:none;stroke:red;stroke-width:1px;stroke-linecap:butt;stroke-linejoin:miter;stroke-opacity:1" d="M 335.041,384.416 335.041,395.638 z" id="boundary" inkscape:connector-curvature="0" />
	<path style="fill:none;stroke:red;stroke-width:1px;stroke-linecap:butt;stroke-linejoin:miter;stroke-opacity:1" d="M 335.041,395.638 340.652,405.738 z" id="boundary" inkscape:connector-curvature="0" />
	<path style="fill:none;stroke:red;stroke-width:1px;stroke-linecap:butt;stroke-linejoin:miter;stroke-opacity:1" d="M 335.041,428.181 335.041,439.403 z" id="boundary" inkscape:connector-curvature="0" />
	<path style="fill:none;stroke:red;stroke-width:1px;stroke-linecap:butt;stroke-linejoin:miter;stroke-opacity:1" d="M 335.041,428.181 340.652,416.959 z" id="boundary" inkscape:connector-curvature="0" />
	<path style="fill:none;stroke:red;stroke-width:1px;stroke-linecap:butt;stroke-linejoin:miter;stroke-opacity:1" d="M 340.652,405.738 340.652,416.959 z" id="boundary" inkscape:connector-curvature="0" />
	<path style="fill:none;stroke:red;stroke-width:1px;stroke-linecap:butt;stroke-linejoin:miter;stroke-opacity:1" d="M 341.774,138.661 352.995,138.661 z" id="boundary" inkscape:connector-curvature="0" />
	<path style="fill:none;stroke:red;stroke-width:1px;stroke-linecap:butt;stroke-linejoin:miter;stroke-opacity:1" d="M 341.774,482.045 350.751,474.19 z" id="boundary" inkscape:connector-curvature="0" />
	<path style="fill:none;stroke:red;stroke-width:1px;stroke-linecap:butt;stroke-linejoin:miter;stroke-opacity:1" d="M 350.751,474.19 358.606,459.602 z" id="boundary" inkscape:connector-curvature="0" />
	<path style="fill:none;stroke:red;stroke-width:1px;stroke-linecap:butt;stroke-linejoin:miter;stroke-opacity:1" d="M 352.995,138.661 364.217,138.661 z" id="boundary" inkscape:connector-curvature="0" />
	<path style="fill:none;stroke:red;stroke-width:1px;stroke-linecap:butt;stroke-linejoin:miter;stroke-opacity:1" d="M 358.606,459.602 364.217,448.38 z" id="boundary" inkscape:connector-curvature="0" />
	<path style="fill:none;stroke:red;stroke-width:1px;stroke-linecap:butt;stroke-linejoin:miter;stroke-opacity:1" d="M 364.217,138.661 375.439,138.661 z" id="boundary" inkscape:connector-curvature="0" />
	<path style="fill:none;stroke:red;stroke-width:1px;stroke-linecap:butt;stroke-linejoin:miter;stroke-opacity:1" d="M 364.217,425.937 364.217,437.158 z" id="boundary" inkscape:connector-curvature="0" />
	<path style="fill:none;stroke:red;stroke-width:1px;stroke-linecap:butt;stroke-linejoin:miter;stroke-opacity:1" d="M 364.217,425.937 369.828,414.715 z" id="boundary" inkscape:connector-curvature="0" />
	<path style="fill:none;stroke:red;stroke-width:1px;stroke-linecap:butt;stroke-linejoin:miter;stroke-opacity:1" d="M 364.217,437.158 364.217,448.38 z" id="boundary" inkscape:connector-curvature="0" />
	<path style="fill:none;stroke:red;stroke-width:1px;stroke-linecap:butt;stroke-linejoin:miter;stroke-opacity:1" d="M 369.828,392.271 369.828,403.493 z" id="boundary" inkscape:connector-curvature="0" />
	<path style="fill:none;stroke:red;stroke-width:1px;stroke-linecap:butt;stroke-linejoin:miter;stroke-opacity:1" d="M 369.828,392.271 375.439,381.05 z" id="boundary" inkscape:connector-curvature="0" />
	<path style="fill:none;stroke:red;stroke-width:1px;stroke-linecap:butt;stroke-linejoin:miter;stroke-opacity:1" d="M 369.828,403.493 369.828,414.715 z" id="boundary" inkscape:connector-curvature="0" />
	<path style="fill:none;stroke:red;stroke-width:1px;stroke-linecap:butt;stroke-linejoin:miter;stroke-opacity:1" d="M 375.439,138.661 386.661,138.661 z" id="boundary" inkscape:connector-curvature="0" />
	<path style="fill:none;stroke:red;stroke-width:1px;stroke-linecap:butt;stroke-linejoin:miter;stroke-opacity:1" d="M 375.439,369.828 375.439,381.05 z" id="boundary" inkscape:connector-curvature="0" />
	<path style="fill:none;stroke:red;stroke-width:1px;stroke-linecap:butt;stroke-linejoin:miter;stroke-opacity:1" d="M 375.439,369.828 381.05,358.606 z" id="boundary" inkscape:connector-curvature="0" />
	<path style="fill:none;stroke:red;stroke-width:1px;stroke-linecap:butt;stroke-linejoin:miter;stroke-opacity:1" d="M 381.05,336.163 381.05,347.385 z" id="boundary" inkscape:connector-curvature="0" />
	<path style="fill:none;stroke:red;stroke-width:1px;stroke-linecap:butt;stroke-linejoin:miter;stroke-opacity:1" d="M 381.05,336.163 391.149,330.552 z" id="boundary" inkscape:connector-curvature="0" />
	<path style="fill:none;stroke:red;stroke-width:1px;stroke-linecap:butt;stroke-linejoin:miter;stroke-opacity:1" d="M 381.05,347.385 381.05,358.606 z" id="boundary" inkscape:connector-curvature="0" />
	<path style="fill:none;stroke:red;stroke-width:1px;stroke-linecap:butt;stroke-linejoin:miter;stroke-opacity:1" d="M 386.661,138.661 397.882,138.661 z" id="boundary" inkscape:connector-curvature="0" />
	<path style="fill:none;stroke:red;stroke-width:1px;stroke-linecap:butt;stroke-linejoin:miter;stroke-opacity:1" d="M 391.149,330.552 401.249,336.163 z" id="boundary" inkscape:connector-curvature="0" />
	<path style="fill:none;stroke:red;stroke-width:1px;stroke-linecap:butt;stroke-linejoin:miter;stroke-opacity:1" d="M 397.882,138.661 409.104,138.661 z" id="boundary" inkscape:connector-curvature="0" />
	<path style="fill:none;stroke:red;stroke-width:1px;stroke-linecap:butt;stroke-linejoin:miter;stroke-opacity:1" d="M 401.249,336.163 409.104,345.14 z" id="boundary" inkscape:connector-curvature="0" />
	<path style="fill:none;stroke:red;stroke-width:1px;stroke-linecap:butt;stroke-linejoin:miter;stroke-opacity:1" d="M 409.104,138.661 420.326,138.661 z" id="boundary" inkscape:connector-curvature="0" />
	<path style="fill:none;stroke:red;stroke-width:1px;stroke-linecap:butt;stroke-linejoin:miter;stroke-opacity:1" d="M 409.104,345.14 420.326,349.629 z" id="boundary" inkscape:connector-curvature="0" />
	<path style="fill:none;stroke:red;stroke-width:1px;stroke-linecap:butt;stroke-linejoin:miter;stroke-opacity:1" d="M 420.326,138.661 430.425,144.271 z" id="boundary" inkscape:connector-curvature="0" />
	<path style="fill:none;stroke:red;stroke-width:1px;stroke-linecap:butt;stroke-linejoin:miter;stroke-opacity:1" d="M 420.326,349.629 428.181,358.606 z" id="boundary" inkscape:connector-curvature="0" />
	<path style="fill:none;stroke:red;stroke-width:1px;stroke-linecap:butt;stroke-linejoin:miter;stroke-opacity:1" d="M 428.181,358.606 438.281,364.217 z" id="boundary" inkscape:connector-curvature="0" />
	<path style="fill:none;stroke:red;stroke-width:1px;stroke-linecap:butt;stroke-linejoin:miter;stroke-opacity:1" d="M 430.425,144.271 441.647,144.271 z" id="boundary" inkscape:connector-curvature="0" />
	<path style="fill:none;stroke:red;stroke-width:1px;stroke-linecap:butt;stroke-linejoin:miter;stroke-opacity:1" d="M 438.281,364.217 447.258,370.95 z" id="boundary" inkscape:connector-curvature="0" />
	<path style="fill:none;stroke:red;stroke-width:1px;stroke-linecap:butt;stroke-linejoin:miter;stroke-opacity:1" d="M 441.647,144.271 452.869,144.271 z" id="boundary" inkscape:connector-curvature="0" />
	<path style="fill:none;stroke:red;stroke-width:1px;stroke-linecap:butt;stroke-linejoin:miter;stroke-opacity:1" d="M 447.258,370.95 458.48,375.439 z" id="boundary" inkscape:connector-curvature="0" />
	<path style="fill:none;stroke:red;stroke-width:1px;stroke-linecap:butt;stroke-linejoin:miter;stroke-opacity:1" d="M 452.869,144.271 462.968,149.882 z" id="boundary" inkscape:connector-curvature="0" />
	<path style="fill:none;stroke:red;stroke-width:1px;stroke-linecap:butt;stroke-linejoin:miter;stroke-opacity:1" d="M 458.48,375.439 468.579,381.05 z" id="boundary" inkscape:connector-curvature="0" />
	<path style="fill:none;stroke:red;stroke-width:1px;stroke-linecap:butt;stroke-linejoin:miter;stroke-opacity:1" d="M 459.602,308.109 461.846,319.33 z" id="boundary" inkscape:connector-curvature="0" />
	<path style="fill:none;stroke:red;stroke-width:1px;stroke-linecap:butt;stroke-linejoin:miter;stroke-opacity:1" d="M 459.602,308.109 470.824,302.498 z" id="boundary" inkscape:connector-curvature="0" />
	<path style="fill:none;stroke:red;stroke-width:1px;stroke-linecap:butt;stroke-linejoin:miter;stroke-opacity:1" d="M 461.846,319.33 470.824,327.186 z" id="boundary" inkscape:connector-curvature="0" />
	<path style="fill:none;stroke:red;stroke-width:1px;stroke-linecap:butt;stroke-linejoin:miter;stroke-opacity:1" d="M 462.968,149.882 474.19,151.005 z" id="boundary" inkscape:connector-curvature="0" />
	<path style="fill:none;stroke:red;stroke-width:1px;stroke-linecap:butt;stroke-linejoin:miter;stroke-opacity:1" d="M 468.579,381.05 479.801,381.05 z" id="boundary" inkscape:connector-curvature="0" />
	<path style="fill:none;stroke:red;stroke-width:1px;stroke-linecap:butt;stroke-linejoin:miter;stroke-opacity:1" d="M 470.824,302.498 482.045,296.887 z" id="boundary" inkscape:connector-curvature="0" />
	<path style="fill:none;stroke:red;stroke-width:1px;stroke-linecap:butt;stroke-linejoin:miter;stroke-opacity:1" d="M 470.824,327.186 478.679,336.163 z" id="boundary" inkscape:connector-curvature="0" />
	<path style="fill:none;stroke:red;stroke-width:1px;stroke-linecap:butt;stroke-linejoin:miter;stroke-opacity:1" d="M 474.19,151.005 485.412,155.493 z" id="boundary" inkscape:connector-curvature="0" />
	<path style="fill:none;stroke:red;stroke-width:1px;stroke-linecap:butt;stroke-linejoin:miter;stroke-opacity:1" d="M 478.679,336.163 489.9,340.652 z" id="boundary" inkscape:connector-curvature="0" />
	<path style="fill:none;stroke:red;stroke-width:1px;stroke-linecap:butt;stroke-linejoin:miter;stroke-opacity:1" d="M 479.801,381.05 489.9,386.661 z" id="boundary" inkscape:connector-curvature="0" />
	<path style="fill:none;stroke:red;stroke-width:1px;stroke-linecap:butt;stroke-linejoin:miter;stroke-opacity:1" d="M 482.045,296.887 491.023,289.032 z" id="boundary" inkscape:connector-curvature="0" />
	<path style="fill:none;stroke:red;stroke-width:1px;stroke-linecap:butt;stroke-linejoin:miter;stroke-opacity:1" d="M 485.412,155.493 495.511,161.104 z" id="boundary" inkscape:connector-curvature="0" />
	<path style="fill:none;stroke:red;stroke-width:1px;stroke-linecap:butt;stroke-linejoin:miter;stroke-opacity:1" d="M 489.9,340.652 497.756,349.629 z" id="boundary" inkscape:connector-curvature="0" />
	<path style="fill:none;stroke:red;stroke-width:1px;stroke-linecap:butt;stroke-linejoin:miter;stroke-opacity:1" d="M 489.9,386.661 500,392.271 z" id="boundary" inkscape:connector-curvature="0" />
	<path style="fill:none;stroke:red;stroke-width:1px;stroke-linecap:butt;stroke-linejoin:miter;stroke-opacity:1" d="M 491.023,289.032 502.244,285.665 z" id="boundary" inkscape:connector-curvature="0" />
	<path style="fill:none;stroke:red;stroke-width:1px;stroke-linecap:butt;stroke-linejoin:miter;stroke-opacity:1" d="M 495.511,161.104 505.611,166.715 z" id="boundary" inkscape:connector-curvature="0" />
	<path style="fill:none;stroke:red;stroke-width:1px;stroke-linecap:butt;stroke-linejoin:miter;stroke-opacity:1" d="M 497.756,349.629 506.733,357.484 z" id="boundary" inkscape:connector-curvature="0" />
	<path style="fill:none;stroke:red;stroke-width:1px;stroke-linecap:butt;stroke-linejoin:miter;stroke-opacity:1" d="M 500,392.271 510.1,397.882 z" id="boundary" inkscape:connector-curvature="0" />
	<path style="fill:none;stroke:red;stroke-width:1px;stroke-linecap:butt;stroke-linejoin:miter;stroke-opacity:1" d="M 502.244,285.665 512.344,280.054 z" id="boundary" inkscape:connector-curvature="0" />
	<path style="fill:none;stroke:red;stroke-width:1px;stroke-linecap:butt;stroke-linejoin:miter;stroke-opacity:1" d="M 505.611,166.715 515.71,172.326 z" id="boundary" inkscape:connector-curvature="0" />
	<path style="fill:none;stroke:red;stroke-width:1px;stroke-linecap:butt;stroke-linejoin:miter;stroke-opacity:1" d="M 506.733,357.484 514.588,366.462 z" id="boundary" inkscape:connector-curvature="0" />
	<path style="fill:none;stroke:red;stroke-width:1px;stroke-linecap:butt;stroke-linejoin:miter;stroke-opacity:1" d="M 510.1,397.882 520.199,403.493 z" id="boundary" inkscape:connector-curvature="0" />
	<path style="fill:none;stroke:red;stroke-width:1px;stroke-linecap:butt;stroke-linejoin:miter;stroke-opacity:1" d="M 512.344,280.054 523.566,280.054 z" id="boundary" inkscape:connector-curvature="0" />
	<path style="fill:none;stroke:red;stroke-width:1px;stroke-linecap:butt;stroke-linejoin:miter;stroke-opacity:1" d="M 514.588,366.462 523.566,374.317 z" id="boundary" inkscape:connector-curvature="0" />
	<path style="fill:none;stroke:red;stroke-width:1px;stroke-linecap:butt;stroke-linejoin:miter;stroke-opacity:1" d="M 515.71,172.326 525.81,177.937 z" id="boundary" inkscape:connector-curvature="0" />
	<path style="fill:none;stroke:red;stroke-width:1px;stroke-linecap:butt;stroke-linejoin:miter;stroke-opacity:1" d="M 520.199,403.493 526.932,412.471 z" id="boundary" inkscape:connector-curvature="0" />
	<path style="fill:none;stroke:red;stroke-width:1px;stroke-linecap:butt;stroke-linejoin:miter;stroke-opacity:1" d="M 523.566,280.054 534.787,280.054 z" id="boundary" inkscape:connector-curvature="0" />
	<path style="fill:none;stroke:red;stroke-width:1px;stroke-linecap:butt;stroke-linejoin:miter;stroke-opacity:1" d="M 523.566,374.317 533.665,379.928 z" id="boundary" inkscape:connector-curvature="0" />
	<path style="fill:none;stroke:red;stroke-width:1px;stroke-linecap:butt;stroke-linejoin:miter;stroke-opacity:1" d="M 525.81,177.937 537.032,180.181 z" id="boundary" inkscape:connector-curvature="0" />
	<path style="fill:none;stroke:red;stroke-width:1px;stroke-linecap:butt;stroke-linejoin:miter;stroke-opacity:1" d="M 526.932,412.471 532.543,422.57 z" id="boundary" inkscape:connector-curvature="0" />
	<path style="fill:none;stroke:red;stroke-width:1px;stroke-linecap:butt;stroke-linejoin:miter;stroke-opacity:1" d="M 532.543,422.57 537.032,433.792 z" id="boundary" inkscape:connector-curvature="0" />
	<path style="fill:none;stroke:red;stroke-width:1px;stroke-linecap:butt;stroke-linejoin:miter;stroke-opacity:1" d="M 533.665,379.928 543.765,385.538 z" id="boundary" inkscape:connector-curvature="0" />
	<path style="fill:none;stroke:red;stroke-width:1px;stroke-linecap:butt;stroke-linejoin:miter;stroke-opacity:1" d="M 534.787,280.054 546.009,280.054 z" id="boundary" inkscape:connector-curvature="0" />
	<path style="fill:none;stroke:red;stroke-width:1px;stroke-linecap:butt;stroke-linejoin:miter;stroke-opacity:1" d="M 537.032,180.181 548.253,183.548 z" id="boundary" inkscape:connector-curvature="0" />
	<path style="fill:none;stroke:red;stroke-width:1px;stroke-linecap:butt;stroke-linejoin:miter;stroke-opacity:1" d="M 537.032,433.792 542.643,443.891 z" id="boundary" inkscape:connector-curvature="0" />
	<path style="fill:none;stroke:red;stroke-width:1px;stroke-linecap:butt;stroke-linejoin:miter;stroke-opacity:1" d="M 542.643,443.891 548.253,453.991 z" id="boundary" inkscape:connector-curvature="0" />
	<path style="fill:none;stroke:red;stroke-width:1px;stroke-linecap:butt;stroke-linejoin:miter;stroke-opacity:1" d="M 543.765,385.538 552.742,392.271 z" id="boundary" inkscape:connector-curvature="0" />
	<path style="fill:none;stroke:red;stroke-width:1px;stroke-linecap:butt;stroke-linejoin:miter;stroke-opacity:1" d="M 546.009,280.054 557.231,280.054 z" id="boundary" inkscape:connector-curvature="0" />
	<path style="fill:none;stroke:red;stroke-width:1px;stroke-linecap:butt;stroke-linejoin:miter;stroke-opacity:1" d="M 548.253,183.548 559.475,185.792 z" id="boundary" inkscape:connector-curvature="0" />
	<path style="fill:none;stroke:red;stroke-width:1px;stroke-linecap:butt;stroke-linejoin:miter;stroke-opacity:1" d="M 548.253,453.991 548.253,465.213 z" id="boundary" inkscape:connector-curvature="0" />
	<path style="fill:none;stroke:red;stroke-width:1px;stroke-linecap:butt;stroke-linejoin:miter;stroke-opacity:1" d="M 548.253,465.213 554.986,474.19 z" id="boundary" inkscape:connector-curvature="0" />
	<path style="fill:none;stroke:red;stroke-width:1px;stroke-linecap:butt;stroke-linejoin:miter;stroke-opacity:1" d="M 552.742,392.271 557.231,403.493 z" id="boundary" inkscape:connector-curvature="0" />
	<path style="fill:none;stroke:red;stroke-width:1px;stroke-linecap:butt;stroke-linejoin:miter;stroke-opacity:1" d="M 554.986,474.19 559.475,485.412 z" id="boundary" inkscape:connector-curvature="0" />
	<path style="fill:none;stroke:red;stroke-width:1px;stroke-linecap:butt;stroke-linejoin:miter;stroke-opacity:1" d="M 557.231,280.054 568.452,280.054 z" id="boundary" inkscape:connector-curvature="0" />
	<path style="fill:none;stroke:red;stroke-width:1px;stroke-linecap:butt;stroke-linejoin:miter;stroke-opacity:1" d="M 557.231,403.493 560.597,414.715 z" id="boundary" inkscape:connector-curvature="0" />
	<path style="fill:none;stroke:red;stroke-width:1px;stroke-linecap:butt;stroke-linejoin:miter;stroke-opacity:1" d="M 559.475,185.792 570.697,189.158 z" id="boundary" inkscape:connector-curvature="0" />
	<path style="fill:none;stroke:red;stroke-width:1px;stroke-linecap:butt;stroke-linejoin:miter;stroke-opacity:1" d="M 559.475,485.412 565.086,495.511 z" id="boundary" inkscape:connector-curvature="0" />
	<path style="fill:none;stroke:red;stroke-width:1px;stroke-linecap:butt;stroke-linejoin:miter;stroke-opacity:1" d="M 560.597,414.715 560.597,425.937 z" id="boundary" inkscape:connector-curvature="0" />
	<path style="fill:none;stroke:red;stroke-width:1px;stroke-linecap:butt;stroke-linejoin:miter;stroke-opacity:1" d="M 560.597,425.937 560.597,437.158 z" id="boundary" inkscape:connector-curvature="0" />
	<path style="fill:none;stroke:red;stroke-width:1px;stroke-linecap:butt;stroke-linejoin:miter;stroke-opacity:1" d="M 560.597,437.158 566.208,447.258 z" id="boundary" inkscape:connector-curvature="0" />
	<path style="fill:none;stroke:red;stroke-width:1px;stroke-linecap:butt;stroke-linejoin:miter;stroke-opacity:1" d="M 565.086,495.511 565.086,506.733 z" id="boundary" inkscape:connector-curvature="0" />
	<path style="fill:none;stroke:red;stroke-width:1px;stroke-linecap:butt;stroke-linejoin:miter;stroke-opacity:1" d="M 565.086,506.733 574.063,514.588 z" id="boundary" inkscape:connector-curvature="0" />
	<path style="fill:none;stroke:red;stroke-width:1px;stroke-linecap:butt;stroke-linejoin:miter;stroke-opacity:1" d="M 566.208,447.258 566.208,458.48 z" id="boundary" inkscape:connector-curvature="0" />
	<path style="fill:none;stroke:red;stroke-width:1px;stroke-linecap:butt;stroke-linejoin:miter;stroke-opacity:1" d="M 566.208,458.48 571.819,468.579 z" id="boundary" inkscape:connector-curvature="0" />
	<path style="fill:none;stroke:red;stroke-width:1px;stroke-linecap:butt;stroke-linejoin:miter;stroke-opacity:1" d="M 568.452,280.054 579.674,280.054 z" id="boundary" inkscape:connector-curvature="0" />
	<path style="fill:none;stroke:red;stroke-width:1px;stroke-linecap:butt;stroke-linejoin:miter;stroke-opacity:1" d="M 570.697,189.158 581.919,191.403 z" id="boundary" inkscape:connector-curvature="0" />
	<path style="fill:none;stroke:red;stroke-width:1px;stroke-linecap:butt;stroke-linejoin:miter;stroke-opacity:1" d="M 571.819,468.579 577.43,478.679 z" id="boundary" inkscape:connector-curvature="0" />
	<path style="fill:none;stroke:red;stroke-width:1px;stroke-linecap:butt;stroke-linejoin:miter;stroke-opacity:1" d="M 574.063,514.588 581.919,523.566 z" id="boundary" inkscape:connector-curvature="0" />
	<path style="fill:none;stroke:red;stroke-width:1px;stroke-linecap:butt;stroke-linejoin:miter;stroke-opacity:1" d="M 577.43,478.679 583.041,488.778 z" id="boundary" inkscape:connector-curvature="0" />
	<path style="fill:none;stroke:red;stroke-width:1px;stroke-linecap:butt;stroke-linejoin:miter;stroke-opacity:1" d="M 579.674,280.054 590.896,280.054 z" id="boundary" inkscape:connector-curvature="0" />
	<path style="fill:none;stroke:red;stroke-width:1px;stroke-linecap:butt;stroke-linejoin:miter;stroke-opacity:1" d="M 581.919,191.403 588.652,200.38 z" id="boundary" inkscape:connector-curvature="0" />
	<path style="fill:none;stroke:red;stroke-width:1px;stroke-linecap:butt;stroke-linejoin:miter;stroke-opacity:1" d="M 581.919,523.566 593.14,526.932 z" id="boundary" inkscape:connector-curvature="0" />
	<path style="fill:none;stroke:red;stroke-width:1px;stroke-linecap:butt;stroke-linejoin:miter;stroke-opacity:1" d="M 583.041,488.778 589.774,497.756 z" id="boundary" inkscape:connector-curvature="0" />
	<path style="fill:none;stroke:red;stroke-width:1px;stroke-linecap:butt;stroke-linejoin:miter;stroke-opacity:1" d="M 588.652,200.38 599.873,200.38 z" id="boundary" inkscape:connector-curvature="0" />
	<path style="fill:none;stroke:red;stroke-width:1px;stroke-linecap:butt;stroke-linejoin:miter;stroke-opacity:1" d="M 589.774,497.756 594.262,508.977 z" id="boundary" inkscape:connector-curvature="0" />
	<path style="fill:none;stroke:red;stroke-width:1px;stroke-linecap:butt;stroke-linejoin:miter;stroke-opacity:1" d="M 590.896,280.054 600.995,285.665 z" id="boundary" inkscape:connector-curvature="0" />
	<path style="fill:none;stroke:red;stroke-width:1px;stroke-linecap:butt;stroke-linejoin:miter;stroke-opacity:1" d="M 593.14,526.932 603.24,532.543 z" id="boundary" inkscape:connector-curvature="0" />
	<path style="fill:none;stroke:red;stroke-width:1px;stroke-linecap:butt;stroke-linejoin:miter;stroke-opacity:1" d="M 594.262,508.977 605.484,512.344 z" id="boundary" inkscape:connector-curvature="0" />
	<path style="fill:none;stroke:red;stroke-width:1px;stroke-linecap:butt;stroke-linejoin:miter;stroke-opacity:1" d="M 599.873,200.38 611.095,203.747 z" id="boundary" inkscape:connector-curvature="0" />
	<path style="fill:none;stroke:red;stroke-width:1px;stroke-linecap:butt;stroke-linejoin:miter;stroke-opacity:1" d="M 600.995,285.665 612.217,285.665 z" id="boundary" inkscape:connector-curvature="0" />
	<path style="fill:none;stroke:red;stroke-width:1px;stroke-linecap:butt;stroke-linejoin:miter;stroke-opacity:1" d="M 603.24,532.543 613.339,538.154 z" id="boundary" inkscape:connector-curvature="0" />
	<path style="fill:none;stroke:red;stroke-width:1px;stroke-linecap:butt;stroke-linejoin:miter;stroke-opacity:1" d="M 605.484,512.344 615.584,517.955 z" id="boundary" inkscape:connector-curvature="0" />
	<path style="fill:none;stroke:red;stroke-width:1px;stroke-linecap:butt;stroke-linejoin:miter;stroke-opacity:1" d="M 611.095,203.747 622.317,205.991 z" id="boundary" inkscape:connector-curvature="0" />
	<path style="fill:none;stroke:red;stroke-width:1px;stroke-linecap:butt;stroke-linejoin:miter;stroke-opacity:1" d="M 612.217,285.665 622.317,291.276 z" id="boundary" inkscape:connector-curvature="0" />
	<path style="fill:none;stroke:red;stroke-width:1px;stroke-linecap:butt;stroke-linejoin:miter;stroke-opacity:1" d="M 613.339,538.154 624.561,537.032 z" id="boundary" inkscape:connector-curvature="0" />
	<path style="fill:none;stroke:red;stroke-width:1px;stroke-linecap:butt;stroke-linejoin:miter;stroke-opacity:1" d="M 615.584,517.955 624.561,525.81 z" id="boundary" inkscape:connector-curvature="0" />
	<path style="fill:none;stroke:red;stroke-width:1px;stroke-linecap:butt;stroke-linejoin:miter;stroke-opacity:1" d="M 622.317,205.991 632.416,211.602 z" id="boundary" inkscape:connector-curvature="0" />
	<path style="fill:none;stroke:red;stroke-width:1px;stroke-linecap:butt;stroke-linejoin:miter;stroke-opacity:1" d="M 622.317,291.276 633.538,291.276 z" id="boundary" inkscape:connector-curvature="0" />
	<path style="fill:none;stroke:red;stroke-width:1px;stroke-linecap:butt;stroke-linejoin:miter;stroke-opacity:1" d="M 624.561,525.81 624.561,537.032 z" id="boundary" inkscape:connector-curvature="0" />
	<path style="fill:none;stroke:red;stroke-width:1px;stroke-linecap:butt;stroke-linejoin:miter;stroke-opacity:1" d="M 632.416,211.602 642.516,217.213 z" id="boundary" inkscape:connector-curvature="0" />
	<path style="fill:none;stroke:red;stroke-width:1px;stroke-linecap:butt;stroke-linejoin:miter;stroke-opacity:1" d="M 633.538,291.276 644.76,293.52 z" id="boundary" inkscape:connector-curvature="0" />
	<path style="fill:none;stroke:red;stroke-width:1px;stroke-linecap:butt;stroke-linejoin:miter;stroke-opacity:1" d="M 642.516,217.213 653.738,218.335 z" id="boundary" inkscape:connector-curvature="0" />
	<path style="fill:none;stroke:red;stroke-width:1px;stroke-linecap:butt;stroke-linejoin:miter;stroke-opacity:1" d="M 644.76,293.52 655.982,296.887 z" id="boundary" inkscape:connector-curvature="0" />
	<path style="fill:none;stroke:red;stroke-width:1px;stroke-linecap:butt;stroke-linejoin:miter;stroke-opacity:1" d="M 653.738,218.335 663.837,223.946 z" id="boundary" inkscape:connector-curvature="0" />
	<path style="fill:none;stroke:red;stroke-width:1px;stroke-linecap:butt;stroke-linejoin:miter;stroke-opacity:1" d="M 655.982,296.887 666.081,302.498 z" id="boundary" inkscape:connector-curvature="0" />
	<path style="fill:none;stroke:red;stroke-width:1px;stroke-linecap:butt;stroke-linejoin:miter;stroke-opacity:1" d="M 663.837,223.946 675.059,228.434 z" id="boundary" inkscape:connector-curvature="0" />
	<path style="fill:none;stroke:red;stroke-width:1px;stroke-linecap:butt;stroke-linejoin:miter;stroke-opacity:1" d="M 666.081,302.498 677.303,302.498 z" id="boundary" inkscape:connector-curvature="0" />
	<path style="fill:none;stroke:red;stroke-width:1px;stroke-linecap:butt;stroke-linejoin:miter;stroke-opacity:1" d="M 675.059,228.434 685.158,234.045 z" id="boundary" inkscape:connector-curvature="0" />
	<path style="fill:none;stroke:red;stroke-width:1px;stroke-linecap:butt;stroke-linejoin:miter;stroke-opacity:1" d="M 677.303,302.498 687.403,308.109 z" id="boundary" inkscape:connector-curvature="0" />
	<path style="fill:none;stroke:red;stroke-width:1px;stroke-linecap:butt;stroke-linejoin:miter;stroke-opacity:1" d="M 685.158,234.045 695.258,239.656 z" id="boundary" inkscape:connector-curvature="0" />
	<path style="fill:none;stroke:red;stroke-width:1px;stroke-linecap:butt;stroke-linejoin:miter;stroke-opacity:1" d="M 687.403,308.109 698.624,308.109 z" id="boundary" inkscape:connector-curvature="0" />
	<path style="fill:none;stroke:red;stroke-width:1px;stroke-linecap:butt;stroke-linejoin:miter;stroke-opacity:1" d="M 695.258,239.656 705.357,245.267 z" id="boundary" inkscape:connector-curvature="0" />
	<path style="fill:none;stroke:red;stroke-width:1px;stroke-linecap:butt;stroke-linejoin:miter;stroke-opacity:1" d="M 698.624,308.109 708.724,313.719 z" id="boundary" inkscape:connector-curvature="0" />
	<path style="fill:none;stroke:red;stroke-width:1px;stroke-linecap:butt;stroke-linejoin:miter;stroke-opacity:1" d="M 705.357,245.267 716.579,247.511 z" id="boundary" inkscape:connector-curvature="0" />
	<path style="fill:none;stroke:red;stroke-width:1px;stroke-linecap:butt;stroke-linejoin:miter;stroke-opacity:1" d="M 708.724,313.719 719.946,313.719 z" id="boundary" inkscape:connector-curvature="0" />
	<path style="fill:none;stroke:red;stroke-width:1px;stroke-linecap:butt;stroke-linejoin:miter;stroke-opacity:1" d="M 716.579,247.511 723.312,256.489 z" id="boundary" inkscape:connector-curvature="0" />
	<path style="fill:none;stroke:red;stroke-width:1px;stroke-linecap:butt;stroke-linejoin:miter;stroke-opacity:1" d="M 719.946,313.719 731.167,318.208 z" id="boundary" inkscape:connector-curvature="0" />
	<path style="fill:none;stroke:red;stroke-width:1px;stroke-linecap:butt;stroke-linejoin:miter;stroke-opacity:1" d="M 723.312,256.489 734.534,256.489 z" id="boundary" inkscape:connector-curvature="0" />
	<path style="fill:none;stroke:red;stroke-width:1px;stroke-linecap:butt;stroke-linejoin:miter;stroke-opacity:1" d="M 731.167,318.208 742.389,319.33 z" id="boundary" inkscape:connector-curvature="0" />
	<path style="fill:none;stroke:red;stroke-width:1px;stroke-linecap:butt;stroke-linejoin:miter;stroke-opacity:1" d="M 734.534,256.489 743.511,263.222 z" id="boundary" inkscape:connector-curvature="0" />
	<path style="fill:none;stroke:red;stroke-width:1px;stroke-linecap:butt;stroke-linejoin:miter;stroke-opacity:1" d="M 742.389,319.33 753.611,323.819 z" id="boundary" inkscape:connector-curvature="0" />
	<path style="fill:none;stroke:red;stroke-width:1px;stroke-linecap:butt;stroke-linejoin:miter;stroke-opacity:1" d="M 743.511,263.222 754.733,267.71 z" id="boundary" inkscape:connector-curvature="0" />
	<path style="fill:none;stroke:red;stroke-width:1px;stroke-linecap:butt;stroke-linejoin:miter;stroke-opacity:1" d="M 753.611,323.819 764.833,324.941 z" id="boundary" inkscape:connector-curvature="0" />
	<path style="fill:none;stroke:red;stroke-width:1px;stroke-linecap:butt;stroke-linejoin:miter;stroke-opacity:1" d="M 754.733,267.71 764.833,273.321 z" id="boundary" inkscape:connector-curvature="0" />
	<path style="fill:none;stroke:red;stroke-width:1px;stroke-linecap:butt;stroke-linejoin:miter;stroke-opacity:1" d="M 764.833,273.321 774.932,278.932 z" id="boundary" inkscape:connector-curvature="0" />
	<path style="fill:none;stroke:red;stroke-width:1px;stroke-linecap:butt;stroke-linejoin:miter;stroke-opacity:1" d="M 764.833,324.941 774.932,330.552 z" id="boundary" inkscape:connector-curvature="0" />
	<path style="fill:none;stroke:red;stroke-width:1px;stroke-linecap:butt;stroke-linejoin:miter;stroke-opacity:1" d="M 774.932,278.932 785.032,284.543 z" id="boundary" inkscape:connector-curvature="0" />
	<path style="fill:none;stroke:red;stroke-width:1px;stroke-linecap:butt;stroke-linejoin:miter;stroke-opacity:1" d="M 774.932,330.552 786.154,330.552 z" id="boundary" inkscape:connector-curvature="0" />
	<path style="fill:none;stroke:red;stroke-width:1px;stroke-linecap:butt;stroke-linejoin:miter;stroke-opacity:1" d="M 785.032,284.543 796.253,287.91 z" id="boundary" inkscape:connector-curvature="0" />
	<path style="fill:none;stroke:red;stroke-width:1px;stroke-linecap:butt;stroke-linejoin:miter;stroke-opacity:1" d="M 786.154,330.552 797.376,333.919 z" id="boundary" inkscape:connector-curvature="0" />
	<path style="fill:none;stroke:red;stroke-width:1px;stroke-linecap:butt;stroke-linejoin:miter;stroke-opacity:1" d="M 796.253,287.91 807.475,290.154 z" id="boundary" inkscape:connector-curvature="0" />
	<path style="fill:none;stroke:red;stroke-width:1px;stroke-linecap:butt;stroke-linejoin:miter;stroke-opacity:1" d="M 797.376,333.919 808.597,336.163 z" id="boundary" inkscape:connector-curvature="0" />
	<path style="fill:none;stroke:red;stroke-width:1px;stroke-linecap:butt;stroke-linejoin:miter;stroke-opacity:1" d="M 807.475,290.154 817.575,295.765 z" id="boundary" inkscape:connector-curvature="0" />
	<path style="fill:none;stroke:red;stroke-width:1px;stroke-linecap:butt;stroke-linejoin:miter;stroke-opacity:1" d="M 808.597,336.163 818.697,341.774 z" id="boundary" inkscape:connector-curvature="0" />
	<path style="fill:none;stroke:red;stroke-width:1px;stroke-linecap:butt;stroke-linejoin:miter;stroke-opacity:1" d="M 817.575,295.765 828.796,298.009 z" id="boundary" inkscape:connector-curvature="0" />
	<path style="fill:none;stroke:red;stroke-width:1px;stroke-linecap:butt;stroke-linejoin:miter;stroke-opacity:1" d="M 818.697,341.774 829.919,341.774 z" id="boundary" inkscape:connector-curvature="0" />
	<path style="fill:none;stroke:red;stroke-width:1px;stroke-linecap:butt;stroke-linejoin:miter;stroke-opacity:1" d="M 828.796,298.009 835.529,306.986 z" id="boundary" inkscape:connector-curvature="0" />
	<path style="fill:none;stroke:red;stroke-width:1px;stroke-linecap:butt;stroke-linejoin:miter;stroke-opacity:1" d="M 829.919,341.774 841.14,344.018 z" id="boundary" inkscape:connector-curvature="0" />
	<path style="fill:none;stroke:red;stroke-width:1px;stroke-linecap:butt;stroke-linejoin:miter;stroke-opacity:1" d="M 835.529,306.986 846.751,310.353 z" id="boundary" inkscape:connector-curvature="0" />
	<path style="fill:none;stroke:red;stroke-width:1px;stroke-linecap:butt;stroke-linejoin:miter;stroke-opacity:1" d="M 841.14,344.018 852.362,347.385 z" id="boundary" inkscape:connector-curvature="0" />
	<path style="fill:none;stroke:red;stroke-width:1px;stroke-linecap:butt;stroke-linejoin:miter;stroke-opacity:1" d="M 846.751,310.353 856.851,315.964 z" id="boundary" inkscape:connector-curvature="0" />
	<path style="fill:none;stroke:red;stroke-width:1px;stroke-linecap:butt;stroke-linejoin:miter;stroke-opacity:1" d="M 852.362,347.385 863.584,347.385 z" id="boundary" inkscape:connector-curvature="0" />
	<path style="fill:none;stroke:red;stroke-width:1px;stroke-linecap:butt;stroke-linejoin:miter;stroke-opacity:1" d="M 856.851,315.964 868.072,318.208 z" id="boundary" inkscape:connector-curvature="0" />
	<path style="fill:none;stroke:red;stroke-width:1px;stroke-linecap:butt;stroke-linejoin:miter;stroke-opacity:1" d="M 863.584,347.385 873.683,352.995 z" id="boundary" inkscape:connector-curvature="0" />
	<path style="fill:none;stroke:red;stroke-width:1px;stroke-linecap:butt;stroke-linejoin:miter;stroke-opacity:1" d="M 868.072,318.208 879.294,320.452 z" id="boundary" inkscape:connector-curvature="0" />
	<path style="fill:none;stroke:red;stroke-width:1px;stroke-linecap:butt;stroke-linejoin:miter;stroke-opacity:1" d="M 873.683,352.995 884.905,352.995 z" id="boundary" inkscape:connector-curvature="0" />
	<path style="fill:none;stroke:red;stroke-width:1px;stroke-linecap:butt;stroke-linejoin:miter;stroke-opacity:1" d="M 879.294,320.452 889.394,326.063 z" id="boundary" inkscape:connector-curvature="0" />
	<path style="fill:none;stroke:red;stroke-width:1px;stroke-linecap:butt;stroke-linejoin:miter;stroke-opacity:1" d="M 884.905,352.995 895.005,358.606 z" id="boundary" inkscape:connector-curvature="0" />
	<path style="fill:none;stroke:red;stroke-width:1px;stroke-linecap:butt;stroke-linejoin:miter;stroke-opacity:1" d="M 889.394,326.063 900.615,329.43 z" id="boundary" inkscape:connector-curvature="0" />
	<path style="fill:none;stroke:red;stroke-width:1px;stroke-linecap:butt;stroke-linejoin:miter;stroke-opacity:1" d="M 895.005,358.606 906.226,358.606 z" id="boundary" inkscape:connector-curvature="0" />
	<path style="fill:none;stroke:red;stroke-width:1px;stroke-linecap:butt;stroke-linejoin:miter;stroke-opacity:1" d="M 900.615,329.43 911.837,330.552 z" id="boundary" inkscape:connector-curvature="0" />
	<path style="fill:none;stroke:red;stroke-width:1px;stroke-linecap:butt;stroke-linejoin:miter;stroke-opacity:1" d="M 906.226,358.606 917.448,358.606 z" id="boundary" inkscape:connector-curvature="0" />
	<path style="fill:none;stroke:red;stroke-width:1px;stroke-linecap:butt;stroke-linejoin:miter;stroke-opacity:1" d="M 911.837,330.552 923.059,335.041 z" id="boundary" inkscape:connector-curvature="0" />
	<path style="fill:none;stroke:red;stroke-width:1px;stroke-linecap:butt;stroke-linejoin:miter;stroke-opacity:1" d="M 917.448,358.606 928.67,358.606 z" id="boundary" inkscape:connector-curvature="0" />
	<path style="fill:none;stroke:red;stroke-width:1px;stroke-linecap:butt;stroke-linejoin:miter;stroke-opacity:1" d="M 923.059,335.041 934.281,336.163 z" id="boundary" inkscape:connector-curvature="0" />
	<path style="fill:none;stroke:red;stroke-width:1px;stroke-linecap:butt;stroke-linejoin:miter;stroke-opacity:1" d="M 928.67,358.606 939.891,358.606 z" id="boundary" inkscape:connector-curvature="0" />
	<path style="fill:none;stroke:red;stroke-width:1px;stroke-linecap:butt;stroke-linejoin:miter;stroke-opacity:1" d="M 934.281,336.163 945.502,340.652 z" id="boundary" inkscape:connector-curvature="0" />
	<path style="fill:none;stroke:red;stroke-width:1px;stroke-linecap:butt;stroke-linejoin:miter;stroke-opacity:1" d="M 939.891,358.606 951.113,358.606 z" id="boundary" inkscape:connector-curvature="0" />
	<path style="fill:none;stroke:red;stroke-width:1px;stroke-linecap:butt;stroke-linejoin:miter;stroke-opacity:1" d="M 945.502,340.652 956.724,340.652 z" id="boundary" inkscape:connector-curvature="0" />
	<path style="fill:none;stroke:red;stroke-width:1px;stroke-linecap:butt;stroke-linejoin:miter;stroke-opacity:1" d="M 951.113,358.606 962.335,358.606 z" id="boundary" inkscape:connector-curvature="0" />
	<path style="fill:none;stroke:red;stroke-width:1px;stroke-linecap:butt;stroke-linejoin:miter;stroke-opacity:1" d="M 956.724,340.652 967.946,340.652 z" id="boundary" inkscape:connector-curvature="0" />
	<path style="fill:none;stroke:red;stroke-width:1px;stroke-linecap:butt;stroke-linejoin:miter;stroke-opacity:1" d="M 962.335,358.606 973.557,358.606 z" id="boundary" inkscape:connector-curvature="0" />
	<path style="fill:none;stroke:red;stroke-width:1px;stroke-linecap:butt;stroke-linejoin:miter;stroke-opacity:1" d="M 967.946,340.652 978.045,346.262 z" id="boundary" inkscape:connector-curvature="0" />
	<path style="fill:none;stroke:red;stroke-width:1px;stroke-linecap:butt;stroke-linejoin:miter;stroke-opacity:1" d="M 973.557,358.606 984.778,358.606 z" id="boundary" inkscape:connector-curvature="0" />
	<path style="fill:none;stroke:red;stroke-width:1px;stroke-linecap:butt;stroke-linejoin:miter;stroke-opacity:1" d="M 978.045,346.262 984.778,358.606 z" id="boundary" inkscape:connector-curvature="0" />
	<path style="fill:none;stroke:red;stroke-width:1px;stroke-linecap:butt;stroke-linejoin:miter;stroke-opacity:1" d="M 989.267,346.262 996,356.362 z" id="boundary" inkscape:connector-curvature="0" />
	<circle cx="4" cy="12.9774" r="4" fill="#0" id="circle0"/>
	<circle cx="4" cy="35.4208" r="4" fill="#0" id="circle1"/>
	<circle cx="10.733" cy="21.9548" r="4" fill="#0" id="circle2"/>
	<circle cx="15.2217" cy="9.61086" r="4" fill="#0" id="circle3"/>
	<circle cx="15.2217" cy="38.7873" r="4" fill="#0" id="circle4"/>
	<circle cx="25.3213" cy="44.3982" r="4" fill="#0" id="circle5"/>
	<circle cx="26.4434" cy="9.61086" r="4" fill="#0" id="circle6"/>
	<circle cx="33.1765" cy="53.3756" r="4" fill="#0" id="circle7"/>
	<circle cx="37.6652" cy="7.36652" r="4" fill="#0" id="circle8"/>
	<circle cx="42.1538" cy="61.2308" r="4" fill="#0" id="circle9"/>
	<circle cx="48.8869" cy="4" r="4" fill="#0" id="circle10"/>
	<circle cx="50.009" cy="70.2081" r="4" fill="#0" id="circle11"/>
	<circle cx="54.4977" cy="81.4299" r="4" fill="#0" id="circle12"/>
	<circle cx="60.1086" cy="6.24434" r="4" fill="#0" id="circle13"/>
	<circle cx="60.1086" cy="91.5294" r="4" fill="#0" id="circle14"/>
	<circle cx="60.1086" cy="102.751" r="4" fill="#0" id="circle15"/>
	<circle cx="65.7195" cy="112.851" r="4" fill="#0" id="circle16"/>
	<circle cx="66.8416" cy="15.2217" r="4" fill="#0" id="circle17"/>
	<circle cx="71.3303" cy="122.95" r="4" fill="#0" id="circle18"/>
	<circle cx="72.4525" cy="25.3213" r="4" fill="#0" id="circle19"/>
	<circle cx="74.6968" cy="134.172" r="4" fill="#0" id="circle20"/>
	<circle cx="78.0633" cy="35.4208" r="4" fill="#0" id="circle21"/>
	<circle cx="82.552" cy="143.149" r="4" fill="#0" id="circle22"/>
	<circle cx="83.6742" cy="45.5204" r="4" fill="#0" id="circle23"/>
	<circle cx="83.6742" cy="154.371" r="4" fill="#0" id="circle24"/>
	<circle cx="87.0407" cy="56.7421" r="4" fill="#0" id="circle25"/>
	<circle cx="89.2851" cy="67.9638" r="4" fill="#0" id="circle26"/>
	<circle cx="92.6516" cy="162.226" r="4" fill="#0" id="circle27"/>
	<circle cx="94.8959" cy="78.0633" r="4" fill="#0" id="circle28"/>
	<circle cx="97.1403" cy="89.2851" r="4" fill="#0" id="circle29"/>
	<circle cx="97.1403" cy="173.448" r="4" fill="#0" id="circle30"/>
	<circle cx="102.751" cy="99.3846" r="4" fill="#0" id="circle31"/>
	<circle cx="106.118" cy="110.606" r="4" fill="#0" id="circle32"/>
	<circle cx="106.118" cy="181.303" r="4" fill="#0" id="circle33"/>
	<circle cx="113.973" cy="190.281" r="4" fill="#0" id="circle34"/>
	<circle cx="115.095" cy="117.339" r="4" fill="#0" id="circle35"/>
	<circle cx="122.95" cy="126.317" r="4" fill="#0" id="circle36"/>
	<circle cx="122.95" cy="198.136" r="4" fill="#0" id="circle37"/>
	<circle cx="128.561" cy="136.416" r="4" fill="#0" id="circle38"/>
	<circle cx="130.805" cy="207.113" r="4" fill="#0" id="circle39"/>
	<circle cx="136.416" cy="145.394" r="4" fill="#0" id="circle40"/>
	<circle cx="142.027" cy="211.602" r="4" fill="#0" id="circle41"/>
	<circle cx="145.394" cy="153.249" r="4" fill="#0" id="circle42"/>
	<circle cx="151.005" cy="218.335" r="4" fill="#0" id="circle43"/>
	<circle cx="155.493" cy="158.86" r="4" fill="#0" id="circle44"/>
	<circle cx="161.104" cy="223.946" r="4" fill="#0" id="circle45"/>
	<circle cx="166.715" cy="163.348" r="4" fill="#0" id="circle46"/>
	<circle cx="171.204" cy="229.557" r="4" fill="#0" id="circle47"/>
	<circle cx="176.814" cy="168.959" r="4" fill="#0" id="circle48"/>
	<circle cx="181.303" cy="235.167" r="4" fill="#0" id="circle49"/>
	<circle cx="188.036" cy="172.326" r="4" fill="#0" id="circle50"/>
	<circle cx="190.281" cy="243.023" r="4" fill="#0" id="circle51"/>
	<circle cx="198.136" cy="252" r="4" fill="#0" id="circle52"/>
	<circle cx="199.258" cy="172.326" r="4" fill="#0" id="circle53"/>
	<circle cx="207.113" cy="259.855" r="4" fill="#0" id="circle54"/>
	<circle cx="210.48" cy="172.326" r="4" fill="#0" id="circle55"/>
	<circle cx="214.968" cy="268.833" r="4" fill="#0" id="circle56"/>
	<circle cx="221.701" cy="172.326" r="4" fill="#0" id="circle57"/>
	<circle cx="223.946" cy="276.688" r="4" fill="#0" id="circle58"/>
	<circle cx="228.434" cy="534.787" r="4" fill="#0" id="circle59"/>
	<circle cx="231.801" cy="166.715" r="4" fill="#0" id="circle60"/>
	<circle cx="235.167" cy="280.054" r="4" fill="#0" id="circle61"/>
	<circle cx="239.656" cy="531.421" r="4" fill="#0" id="circle62"/>
	<circle cx="241.9" cy="542.643" r="4" fill="#0" id="circle63"/>
	<circle cx="243.023" cy="161.104" r="4" fill="#0" id="circle64"/>
	<circle cx="245.267" cy="285.665" r="4" fill="#0" id="circle65"/>
	<circle cx="245.267" cy="321.575" r="4" fill="#0" id="circle66"/>
	<circle cx="245.267" cy="332.796" r="4" fill="#0" id="circle67"/>
	<circle cx="245.267" cy="344.018" r="4" fill="#0" id="circle68"/>
	<circle cx="245.267" cy="355.24" r="4" fill="#0" id="circle69"/>
	<circle cx="250.878" cy="310.353" r="4" fill="#0" id="circle70"/>
	<circle cx="250.878" cy="365.339" r="4" fill="#0" id="circle71"/>
	<circle cx="250.878" cy="531.421" r="4" fill="#0" id="circle72"/>
	<circle cx="253.122" cy="543.765" r="4" fill="#0" id="circle73"/>
	<circle cx="254.244" cy="161.104" r="4" fill="#0" id="circle74"/>
	<circle cx="256.489" cy="285.665" r="4" fill="#0" id="circle75"/>
	<circle cx="256.489" cy="296.887" r="4" fill="#0" id="circle76"/>
	<circle cx="256.489" cy="375.439" r="4" fill="#0" id="circle77"/>
	<circle cx="262.1" cy="385.538" r="4" fill="#0" id="circle78"/>
	<circle cx="262.1" cy="529.176" r="4" fill="#0" id="circle79"/>
	<circle cx="263.222" cy="336.163" r="4" fill="#0" id="circle80"/>
	<circle cx="263.222" cy="347.385" r="4" fill="#0" id="circle81"/>
	<circle cx="263.222" cy="358.606" r="4" fill="#0" id="circle82"/>
	<circle cx="264.344" cy="155.493" r="4" fill="#0" id="circle83"/>
	<circle cx="264.344" cy="543.765" r="4" fill="#0" id="circle84"/>
	<circle cx="268.833" cy="368.706" r="4" fill="#0" id="circle85"/>
	<circle cx="271.077" cy="392.271" r="4" fill="#0" id="circle86"/>
	<circle cx="273.321" cy="330.552" r="4" fill="#0" id="circle87"/>
	<circle cx="273.321" cy="341.774" r="4" fill="#0" id="circle88"/>
	<circle cx="273.321" cy="523.566" r="4" fill="#0" id="circle89"/>
	<circle cx="275.566" cy="151.005" r="4" fill="#0" id="circle90"/>
	<circle cx="275.566" cy="543.765" r="4" fill="#0" id="circle91"/>
	<circle cx="276.688" cy="352.995" r="4" fill="#0" id="circle92"/>
	<circle cx="277.81" cy="375.439" r="4" fill="#0" id="circle93"/>
	<circle cx="282.299" cy="514.588" r="4" fill="#0" id="circle94"/>
	<circle cx="285.665" cy="360.851" r="4" fill="#0" id="circle95"/>
	<circle cx="286.787" cy="149.882" r="4" fill="#0" id="circle96"/>
	<circle cx="286.787" cy="543.765" r="4" fill="#0" id="circle97"/>
	<circle cx="291.276" cy="324.941" r="4" fill="#0" id="circle98"/>
	<circle cx="291.276" cy="336.163" r="4" fill="#0" id="circle99"/>
	<circle cx="291.276" cy="505.611" r="4" fill="#0" id="circle100"/>
	<circle cx="293.52" cy="347.385" r="4" fill="#0" id="circle101"/>
	<circle cx="293.52" cy="369.828" r="4" fill="#0" id="circle102"/>
	<circle cx="296.887" cy="308.109" r="4" fill="#0" id="circle103"/>
	<circle cx="298.009" cy="149.882" r="4" fill="#0" id="circle104"/>
	<circle cx="298.009" cy="543.765" r="4" fill="#0" id="circle105"/>
	<circle cx="302.498" cy="355.24" r="4" fill="#0" id="circle106"/>
	<circle cx="302.498" cy="500" r="4" fill="#0" id="circle107"/>
	<circle cx="302.498" cy="526.932" r="4" fill="#0" id="circle108"/>
	<circle cx="304.742" cy="374.317" r="4" fill="#0" id="circle109"/>
	<circle cx="308.109" cy="144.271" r="4" fill="#0" id="circle110"/>
	<circle cx="308.109" cy="302.498" r="4" fill="#0" id="circle111"/>
	<circle cx="308.109" cy="488.778" r="4" fill="#0" id="circle112"/>
	<circle cx="311.475" cy="519.077" r="4" fill="#0" id="circle113"/>
	<circle cx="312.597" cy="360.851" r="4" fill="#0" id="circle114"/>
	<circle cx="315.964" cy="374.317" r="4" fill="#0" id="circle115"/>
	<circle cx="317.086" cy="480.923" r="4" fill="#0" id="circle116"/>
	<circle cx="317.086" cy="507.855" r="4" fill="#0" id="circle117"/>
	<circle cx="318.208" cy="308.109" r="4" fill="#0" id="circle118"/>
	<circle cx="319.33" cy="144.271" r="4" fill="#0" id="circle119"/>
	<circle cx="323.819" cy="461.846" r="4" fill="#0" id="circle120"/>
	<circle cx="324.941" cy="317.086" r="4" fill="#0" id="circle121"/>
	<circle cx="324.941" cy="498.878" r="4" fill="#0" id="circle122"/>
	<circle cx="329.43" cy="328.308" r="4" fill="#0" id="circle123"/>
	<circle cx="329.43" cy="339.529" r="4" fill="#0" id="circle124"/>
	<circle cx="329.43" cy="350.751" r="4" fill="#0" id="circle125"/>
	<circle cx="329.43" cy="361.973" r="4" fill="#0" id="circle126"/>
	<circle cx="329.43" cy="450.624" r="4" fill="#0" id="circle127"/>
	<circle cx="330.552" cy="140.905" r="4" fill="#0" id="circle128"/>
	<circle cx="330.552" cy="373.195" r="4" fill="#0" id="circle129"/>
	<circle cx="333.919" cy="491.023" r="4" fill="#0" id="circle130"/>
	<circle cx="335.041" cy="384.416" r="4" fill="#0" id="circle131"/>
	<circle cx="335.041" cy="395.638" r="4" fill="#0" id="circle132"/>
	<circle cx="335.041" cy="428.181" r="4" fill="#0" id="circle133"/>
	<circle cx="335.041" cy="439.403" r="4" fill="#0" id="circle134"/>
	<circle cx="340.652" cy="405.738" r="4" fill="#0" id="circle135"/>
	<circle cx="340.652" cy="416.959" r="4" fill="#0" id="circle136"/>
	<circle cx="341.774" cy="138.661" r="4" fill="#0" id="circle137"/>
	<circle cx="341.774" cy="482.045" r="4" fill="#0" id="circle138"/>
	<circle cx="350.751" cy="474.19" r="4" fill="#0" id="circle139"/>
	<circle cx="352.995" cy="138.661" r="4" fill="#0" id="circle140"/>
	<circle cx="358.606" cy="459.602" r="4" fill="#0" id="circle141"/>
	<circle cx="364.217" cy="138.661" r="4" fill="#0" id="circle142"/>
	<circle cx="364.217" cy="425.937" r="4" fill="#0" id="circle143"/>
	<circle cx="364.217" cy="437.158" r="4" fill="#0" id="circle144"/>
	<circle cx="364.217" cy="448.38" r="4" fill="#0" id="circle145"/>
	<circle cx="369.828" cy="392.271" r="4" fill="#0" id="circle146"/>
	<circle cx="369.828" cy="403.493" r="4" fill="#0" id="circle147"/>
	<circle cx="369.828" cy="414.715" r="4" fill="#0" id="circle148"/>
	<circle cx="375.439" cy="138.661" r="4" fill="#0" id="circle149"/>
	<circle cx="375.439" cy="369.828" r="4" fill="#0" id="circle150"/>
	<circle cx="375.439" cy="381.05" r="4" fill="#0" id="circle151"/>
	<circle cx="381.05" cy="336.163" r="4" fill="#0" id="circle152"/>
	<circle cx="381.05" cy="347.385" r="4" fill="#0" id="circle153"/>
	<circle cx="381.05" cy="358.606" r="4" fill="#0" id="circle154"/>
	<circle cx="386.661" cy="138.661" r="4" fill="#0" id="circle155"/>
	<circle cx="391.149" cy="330.552" r="4" fill="#0" id="circle156"/>
	<circle cx="397.882" cy="138.661" r="4" fill="#0" id="circle157"/>
	<circle cx="401.249" cy="336.163" r="4" fill="#0" id="circle158"/>
	<circle cx="409.104" cy="138.661" r="4" fill="#0" id="circle159"/>
	<circle cx="409.104" cy="345.14" r="4" fill="#0" id="circle160"/>
	<circle cx="420.326" cy="138.661" r="4" fill="#0" id="circle161"/>
	<circle cx="420.326" cy="349.629" r="4" fill="#0" id="circle162"/>
	<circle cx="428.181" cy="358.606" r="4" fill="#0" id="circle163"/>
	<circle cx="430.425" cy="144.271" r="4" fill="#0" id="circle164"/>
	<circle cx="438.281" cy="364.217" r="4" fill="#0" id="circle165"/>
	<circle cx="441.647" cy="144.271" r="4" fill="#0" id="circle166"/>
	<circle cx="447.258" cy="370.95" r="4" fill="#0" id="circle167"/>
	<circle cx="452.869" cy="144.271" r="4" fill="#0" id="circle168"/>
	<circle cx="458.48" cy="375.439" r="4" fill="#0" id="circle169"/>
	<circle cx="459.602" cy="308.109" r="4" fill="#0" id="circle170"/>
	<circle cx="461.846" cy="319.33" r="4" fill="#0" id="circle171"/>
	<circle cx="462.968" cy="149.882" r="4" fill="#0" id="circle172"/>
	<circle cx="468.579" cy="381.05" r="4" fill="#0" id="circle173"/>
	<circle cx="470.824" cy="302.498" r="4" fill="#0" id="circle174"/>
	<circle cx="470.824" cy="327.186" r="4" fill="#0" id="circle175"/>
	<circle cx="474.19" cy="151.005" r="4" fill="#0" id="circle176"/>
	<circle cx="478.679" cy="336.163" r="4" fill="#0" id="circle177"/>
	<circle cx="479.801" cy="381.05" r="4" fill="#0" id="circle178"/>
	<circle cx="482.045" cy="296.887" r="4" fill="#0" id="circle179"/>
	<circle cx="485.412" cy="155.493" r="4" fill="#0" id="circle180"/>
	<circle cx="489.9" cy="340.652" r="4" fill="#0" id="circle181"/>
	<circle cx="489.9" cy="386.661" r="4" fill="#0" id="circle182"/>
	<circle cx="491.023" cy="289.032" r="4" fill="#0" id="circle183"/>
	<circle cx="495.511" cy="161.104" r="4" fill="#0" id="circle184"/>
	<circle cx="497.756" cy="349.629" r="4" fill="#0" id="circle185"/>
	<circle cx="500" cy="392.271" r="4" fill="#0" id="circle186"/>
	<circle cx="502.244" cy="285.665" r="4" fill="#0" id="circle187"/>
	<circle cx="505.611" cy="166.715" r="4" fill="#0" id="circle188"/>
	<circle cx="506.733" cy="357.484" r="4" fill="#0" id="circle189"/>
	<circle cx="510.1" cy="397.882" r="4" fill="#0" id="circle190"/>
	<circle cx="512.344" cy="280.054" r="4" fill="#0" id="circle191"/>
	<circle cx="514.588" cy="366.462" r="4" fill="#0" id="circle192"/>
	<circle cx="515.71" cy="172.326" r="4" fill="#0" id="circle193"/>
	<circle cx="520.199" cy="403.493" r="4" fill="#0" id="circle194"/>
	<circle cx="523.566" cy="280.054" r="4" fill="#0" id="circle195"/>
	<circle cx="523.566" cy="374.317" r="4" fill="#0" id="circle196"/>
	<circle cx="525.81" cy="177.937" r="4" fill="#0" id="circle197"/>
	<circle cx="526.932" cy="412.471" r="4" fill="#0" id="circle198"/>
	<circle cx="532.543" cy="422.57" r="4" fill="#0" id="circle199"/>
	<circle cx="533.665" cy="379.928" r="4" fill="#0" id="circle200"/>
	<circle cx="534.787" cy="280.054" r="4" fill="#0" id="circle201"/>
	<circle cx="537.032" cy="180.181" r="4" fill="#0" id="circle202"/>
	<circle cx="537.032" cy="433.792" r="4" fill="#0" id="circle203"/>
	<circle cx="542.643" cy="443.891" r="4" fill="#0" id="circle204"/>
	<circle cx="543.765" cy="385.538" r="4" fill="#0" id="circle205"/>
	<circle cx="546.009" cy="280.054" r="4" fill="#0" id="circle206"/>
	<circle cx="548.253" cy="183.548" r="4" fill="#0" id="circle207"/>
	<circle cx="548.253" cy="453.991" r="4" fill="#0" id="circle208"/>
	<circle cx="548.253" cy="465.213" r="4" fill="#0" id="circle209"/>
	<circle cx="552.742" cy="392.271" r="4" fill="#0" id="circle210"/>
	<circle cx="554.986" cy="474.19" r="4" fill="#0" id="circle211"/>
	<circle cx="557.231" cy="280.054" r="4" fill="#0" id="circle212"/>
	<circle cx="557.231" cy="403.493" r="4" fill="#0" id="circle213"/>
	<circle cx="559.475" cy="185.792" r="4" fill="#0" id="circle214"/>
	<circle cx="559.475" cy="485.412" r="4" fill="#0" id="circle215"/>
	<circle cx="560.597" cy="414.715" r="4" fill="#0" id="circle216"/>
	<circle cx="560.597" cy="425.937" r="4" fill="#0" id="circle217"/>
	<circle cx="560.597" cy="437.158" r="4" fill="#0" id="circle218"/>
	<circle cx="565.086" cy="495.511" r="4" fill="#0" id="circle219"/>
	<circle cx="565.086" cy="506.733" r="4" fill="#0" id="circle220"/>
	<circle cx="566.208" cy="447.258" r="4" fill="#0" id="circle221"/>
	<circle cx="566.208" cy="458.48" r="4" fill="#0" id="circle222"/>
	<circle cx="568.452" cy="280.054" r="4" fill="#0" id="circle223"/>
	<circle cx="570.697" cy="189.158" r="4" fill="#0" id="circle224"/>
	<circle cx="571.819" cy="468.579" r="4" fill="#0" id="circle225"/>
	<circle cx="574.063" cy="514.588" r="4" fill="#0" id="circle226"/>
	<circle cx="577.43" cy="478.679" r="4" fill="#0" id="circle227"/>
	<circle cx="579.674" cy="280.054" r="4" fill="#0" id="circle228"/>
	<circle cx="581.919" cy="191.403" r="4" fill="#0" id="circle229"/>
	<circle cx="581.919" cy="523.566" r="4" fill="#0" id="circle230"/>
	<circle cx="583.041" cy="488.778" r="4" fill="#0" id="circle231"/>
	<circle cx="588.652" cy="200.38" r="4" fill="#0" id="circle232"/>
	<circle cx="589.774" cy="497.756" r="4" fill="#0" id="circle233"/>
	<circle cx="590.896" cy="280.054" r="4" fill="#0" id="circle234"/>
	<circle cx="593.14" cy="526.932" r="4" fill="#0" id="circle235"/>
	<circle cx="594.262" cy="508.977" r="4" fill="#0" id="circle236"/>
	<circle cx="599.873" cy="200.38" r="4" fill="#0" id="circle237"/>
	<circle cx="600.995" cy="285.665" r="4" fill="#0" id="circle238"/>
	<circle cx="603.24" cy="532.543" r="4" fill="#0" id="circle239"/>
	<circle cx="605.484" cy="512.344" r="4" fill="#0" id="circle240"/>
	<circle cx="611.095" cy="203.747" r="4" fill="#0" id="circle241"/>
	<circle cx="612.217" cy="285.665" r="4" fill="#0" id="circle242"/>
	<circle cx="613.339" cy="538.154" r="4" fill="#0" id="circle243"/>
	<circle cx="615.584" cy="517.955" r="4" fill="#0" id="circle244"/>
	<circle cx="622.317" cy="205.991" r="4" fill="#0" id="circle245"/>
	<circle cx="622.317" cy="291.276" r="4" fill="#0" id="circle246"/>
	<circle cx="624.561" cy="525.81" r="4" fill="#0" id="circle247"/>
	<circle cx="624.561" cy="537.032" r="4" fill="#0" id="circle248"/>
	<circle cx="632.416" cy="211.602" r="4" fill="#0" id="circle249"/>
	<circle cx="633.538" cy="291.276" r="4" fill="#0" id="circle250"/>
	<circle cx="642.516" cy="217.213" r="4" fill="#0" id="circle251"/>
	<circle cx="644.76" cy="293.52" r="4" fill="#0" id="circle252"/>
	<circle cx="653.738" cy="218.335" r="4" fill="#0" id="circle253"/>
	<circle cx="655.982" cy="296.887" r="4" fill="#0" id="circle254"/>
	<circle cx="663.837" cy="223.946" r="4" fill="#0" id="circle255"/>
	<circle cx="666.081" cy="302.498" r="4" fill="#0" id="circle256"/>
	<circle cx="675.059" cy="228.434" r="4" fill="#0" id="circle257"/>
	<circle cx="677.303" cy="302.498" r="4" fill="#0" id="circle258"/>
	<circle cx="685.158" cy="234.045" r="4" fill="#0" id="circle259"/>
	<circle cx="687.403" cy="308.109" r="4" fill="#0" id="circle260"/>
	<circle cx="695.258" cy="239.656" r="4" fill="#0" id="circle261"/>
	<circle cx="698.624" cy="308.109" r="4" fill="#0" id="circle262"/>
	<circle cx="705.357" cy="245.267" r="4" fill="#0" id="circle263"/>
	<circle cx="708.724" cy="313.719" r="4" fill="#0" id="circle264"/>
	<circle cx="716.579" cy="247.511" r="4" fill="#0" id="circle265"/>
	<circle cx="719.946" cy="313.719" r="4" fill="#0" id="circle266"/>
	<circle cx="723.312" cy="256.489" r="4" fill="#0" id="circle267"/>
	<circle cx="731.167" cy="318.208" r="4" fill="#0" id="circle268"/>
	<circle cx="734.534" cy="256.489" r="4" fill="#0" id="circle269"/>
	<circle cx="742.389" cy="319.33" r="4" fill="#0" id="circle270"/>
	<circle cx="743.511" cy="263.222" r="4" fill="#0" id="circle271"/>
	<circle cx="753.611" cy="323.819" r="4" fill="#0" id="circle272"/>
	<circle cx="754.733" cy="267.71" r="4" fill="#0" id="circle273"/>
	<circle cx="764.833" cy="273.321" r="4" fill="#0" id="circle274"/>
	<circle cx="764.833" cy="324.941" r="4" fill="#0" id="circle275"/>
	<circle cx="774.932" cy="278.932" r="4" fill="#0" id="circle276"/>
	<circle cx="774.932" cy="330.552" r="4" fill="#0" id="circle277"/>
	<circle cx="785.032" cy="284.543" r="4" fill="#0" id="circle278"/>
	<circle cx="786.154" cy="330.552" r="4" fill="#0" id="circle279"/>
	<circle cx="796.253" cy="287.91" r="4" fill="#0" id="circle280"/>
	<circle cx="797.376" cy="333.919" r="4" fill="#0" id="circle281"/>
	<circle cx="807.475" cy="290.154" r="4" fill="#0" id="circle282"/>
	<circle cx="808.597" cy="336.163" r="4" fill="#0" id="circle283"/>
	<circle cx="817.575" cy="295.765" r="4" fill="#0" id="circle284"/>
	<circle cx="818.697" cy="341.774" r="4" fill="#0" id="circle285"/>
	<circle cx="828.796" cy="298.009" r="4" fill="#0" id="circle286"/>
	<circle cx="829.919" cy="341.774" r="4" fill="#0" id="circle287"/>
	<circle cx="835.529" cy="306.986" r="4" fill="#0" id="circle288"/>
	<circle cx="841.14" cy="344.018" r="4" fill="#0" id="circle289"/>
	<circle cx="846.751" cy="310.353" r="4" fill="#0" id="circle290"/>
	<circle cx="852.362" cy="347.385" r="4" fill="#0" id="circle291"/>
	<circle cx="856.851" cy="315.964" r="4" fill="#0" id="circle292"/>
	<circle cx="863.584" cy="347.385" r="4" fill="#0" id="circle293"/>
	<circle cx="868.072" cy="318.208" r="4" fill="#0" id="circle294"/>
	<circle cx="873.683" cy="352.995" r="4" fill="#0" id="circle295"/>
	<circle cx="879.294" cy="320.452" r="4" fill="#0" id="circle296"/>
	<circle cx="884.905" cy="352.995" r="4" fill="#0" id="circle297"/>
	<circle cx="889.394" cy="326.063" r="4" fill="#0" id="circle298"/>
	<circle cx="895.005" cy="358.606" r="4" fill="#0" id="circle299"/>
	<circle cx="900.615" cy="329.43" r="4" fill="#0" id="circle300"/>
	<circle cx="906.226" cy="358.606" r="4" fill="#0" id="circle301"/>
	<circle cx="911.837" cy="330.552" r="4" fill="#0" id="circle302"/>
	<circle cx="917.448" cy="358.606" r="4" fill="#0" id="circle303"/>
	<circle cx="923.059" cy="335.041" r="4" fill="#0" id="circle304"/>
	<circle cx="928.67" cy="358.606" r="4" fill="#0" id="circle305"/>
	<circle cx="934.281" cy="336.163" r="4" fill="#0" id="circle306"/>
	<circle cx="939.891" cy="358.606" r="4" fill="#0" id="circle307"/>
	<circle cx="945.502" cy="340.652" r="4" fill="#0" id="circle308"/>
	<circle cx="951.113" cy="358.606" r="4" fill="#0" id="circle309"/>
	<circle cx="956.724" cy="340.652" r="4" fill="#0" id="circle310"/>
	<circle cx="962.335" cy="358.606" r="4" fill="#0" id="circle311"/>
	<circle cx="967.946" cy="340.652" r="4" fill="#0" id="circle312"/>
	<circle cx="973.557" cy="358.606" r="4" fill="#0" id="circle313"/>
	<circle cx="978.045" cy="346.262" r="4" fill="#0" id="circle314"/>
	<circle cx="984.778" cy="358.606" r="4" fill="#0" id="circle315"/>
	<circle cx="989.267" cy="346.262" r="4" fill="#0" id="circle316"/>
	<circle cx="996" cy="356.362" r="4" fill="#0" id="circle317"/>
	</g>
</svg>