<?xml version="1.0" encoding="UTF-8" standalone="no"?>
<!-- Created with CurveBenchmark -->
<svg
	xmlns:dc="http://purl.org/dc/elements/1.1/"
	xmlns:cc="http://creativecommons.org/ns#"
	xmlns:rdf="http://www.w3.org/1999/02/22-rdf-syntax-ns#"
	xmlns:svg="http://www.w3.org/2000/svg"
	xmlns="http://www.w3.org/2000/svg"
	xmlns:sodipodi="http://sodipodi.sourceforge.net/DTD/sodipodi-0.dtd"
	xmlns:inkscape="http://www.inkscape.org/namespaces/inkscape"
	width="1000"
	height="1000"
	id="svg2"
	version="1.1"
	sodipodi:docname="manifold/vicur-classic16.png.txt">
<defs
	id="defs4" />
<metadata
	id="metadata7">
	<rdf:RDF>
		<cc:Work
			rdf:about="">
			<dc:format>image/svg+xml</dc:format>
			<dc:type
				rdf:resource="http://purl.org/dc/dcmitype/StillImage" />
			<dc:title></dc:title>
		</cc:Work>
	</rdf:RDF>
</metadata>
<g
	inkscape:label="Layer 1"
	inkscape:groupmode="layer"
	id="layer1">
	<path style="fill:none;stroke:red;stroke-width:1px;stroke-linecap:butt;stroke-linejoin:miter;stroke-opacity:1" d="M 4,269.119 12.7788,284.92 z" id="boundary" inkscape:connector-curvature="0" />
	<path style="fill:none;stroke:red;stroke-width:1px;stroke-linecap:butt;stroke-linejoin:miter;stroke-opacity:1" d="M 4,269.119 18.046,255.073 z" id="boundary" inkscape:connector-curvature="0" />
	<path style="fill:none;stroke:red;stroke-width:1px;stroke-linecap:butt;stroke-linejoin:miter;stroke-opacity:1" d="M 12.7788,284.92 21.5575,300.722 z" id="boundary" inkscape:connector-curvature="0" />
	<path style="fill:none;stroke:red;stroke-width:1px;stroke-linecap:butt;stroke-linejoin:miter;stroke-opacity:1" d="M 18.046,255.073 33.8478,246.294 z" id="boundary" inkscape:connector-curvature="0" />
	<path style="fill:none;stroke:red;stroke-width:1px;stroke-linecap:butt;stroke-linejoin:miter;stroke-opacity:1" d="M 21.5575,300.722 39.115,300.722 z" id="boundary" inkscape:connector-curvature="0" />
	<path style="fill:none;stroke:red;stroke-width:1px;stroke-linecap:butt;stroke-linejoin:miter;stroke-opacity:1" d="M 33.8478,246.294 39.115,216.446 z" id="boundary" inkscape:connector-curvature="0" />
	<path style="fill:none;stroke:red;stroke-width:1px;stroke-linecap:butt;stroke-linejoin:miter;stroke-opacity:1" d="M 39.115,216.446 47.8938,190.11 z" id="boundary" inkscape:connector-curvature="0" />
	<path style="fill:none;stroke:red;stroke-width:1px;stroke-linecap:butt;stroke-linejoin:miter;stroke-opacity:1" d="M 39.115,300.722 49.6496,314.768 z" id="boundary" inkscape:connector-curvature="0" />
	<path style="fill:none;stroke:red;stroke-width:1px;stroke-linecap:butt;stroke-linejoin:miter;stroke-opacity:1" d="M 47.8938,190.11 65.4513,184.842 z" id="boundary" inkscape:connector-curvature="0" />
	<path style="fill:none;stroke:red;stroke-width:1px;stroke-linecap:butt;stroke-linejoin:miter;stroke-opacity:1" d="M 49.6496,314.768 65.4513,323.547 z" id="boundary" inkscape:connector-curvature="0" />
	<path style="fill:none;stroke:red;stroke-width:1px;stroke-linecap:butt;stroke-linejoin:miter;stroke-opacity:1" d="M 65.4513,184.842 81.2531,176.064 z" id="boundary" inkscape:connector-curvature="0" />
	<path style="fill:none;stroke:red;stroke-width:1px;stroke-linecap:butt;stroke-linejoin:miter;stroke-opacity:1" d="M 65.4513,323.547 79.4973,335.837 z" id="boundary" inkscape:connector-curvature="0" />
	<path style="fill:none;stroke:red;stroke-width:1px;stroke-linecap:butt;stroke-linejoin:miter;stroke-opacity:1" d="M 79.4973,335.837 97.0549,342.86 z" id="boundary" inkscape:connector-curvature="0" />
	<path style="fill:none;stroke:red;stroke-width:1px;stroke-linecap:butt;stroke-linejoin:miter;stroke-opacity:1" d="M 81.2531,176.064 88.2761,158.506 z" id="boundary" inkscape:connector-curvature="0" />
	<path style="fill:none;stroke:red;stroke-width:1px;stroke-linecap:butt;stroke-linejoin:miter;stroke-opacity:1" d="M 88.2761,158.506 104.078,149.727 z" id="boundary" inkscape:connector-curvature="0" />
	<path style="fill:none;stroke:red;stroke-width:1px;stroke-linecap:butt;stroke-linejoin:miter;stroke-opacity:1" d="M 97.0549,342.86 114.612,344.616 z" id="boundary" inkscape:connector-curvature="0" />
	<path style="fill:none;stroke:red;stroke-width:1px;stroke-linecap:butt;stroke-linejoin:miter;stroke-opacity:1" d="M 104.078,149.727 118.124,137.437 z" id="boundary" inkscape:connector-curvature="0" />
	<path style="fill:none;stroke:red;stroke-width:1px;stroke-linecap:butt;stroke-linejoin:miter;stroke-opacity:1" d="M 114.612,344.616 132.17,351.639 z" id="boundary" inkscape:connector-curvature="0" />
	<path style="fill:none;stroke:red;stroke-width:1px;stroke-linecap:butt;stroke-linejoin:miter;stroke-opacity:1" d="M 118.124,137.437 135.681,119.88 z" id="boundary" inkscape:connector-curvature="0" />
	<path style="fill:none;stroke:red;stroke-width:1px;stroke-linecap:butt;stroke-linejoin:miter;stroke-opacity:1" d="M 132.17,351.639 147.972,360.418 z" id="boundary" inkscape:connector-curvature="0" />
	<path style="fill:none;stroke:red;stroke-width:1px;stroke-linecap:butt;stroke-linejoin:miter;stroke-opacity:1" d="M 135.681,119.88 149.727,105.834 z" id="boundary" inkscape:connector-curvature="0" />
	<path style="fill:none;stroke:red;stroke-width:1px;stroke-linecap:butt;stroke-linejoin:miter;stroke-opacity:1" d="M 147.972,360.418 162.018,370.952 z" id="boundary" inkscape:connector-curvature="0" />
	<path style="fill:none;stroke:red;stroke-width:1px;stroke-linecap:butt;stroke-linejoin:miter;stroke-opacity:1" d="M 149.727,105.834 167.285,105.834 z" id="boundary" inkscape:connector-curvature="0" />
	<path style="fill:none;stroke:red;stroke-width:1px;stroke-linecap:butt;stroke-linejoin:miter;stroke-opacity:1" d="M 162.018,370.952 179.575,370.952 z" id="boundary" inkscape:connector-curvature="0" />
	<path style="fill:none;stroke:red;stroke-width:1px;stroke-linecap:butt;stroke-linejoin:miter;stroke-opacity:1" d="M 167.285,105.834 184.842,105.834 z" id="boundary" inkscape:connector-curvature="0" />
	<path style="fill:none;stroke:red;stroke-width:1px;stroke-linecap:butt;stroke-linejoin:miter;stroke-opacity:1" d="M 179.575,370.952 197.133,370.952 z" id="boundary" inkscape:connector-curvature="0" />
	<path style="fill:none;stroke:red;stroke-width:1px;stroke-linecap:butt;stroke-linejoin:miter;stroke-opacity:1" d="M 184.842,105.834 202.4,105.834 z" id="boundary" inkscape:connector-curvature="0" />
	<path style="fill:none;stroke:red;stroke-width:1px;stroke-linecap:butt;stroke-linejoin:miter;stroke-opacity:1" d="M 197.133,370.952 214.69,374.464 z" id="boundary" inkscape:connector-curvature="0" />
	<path style="fill:none;stroke:red;stroke-width:1px;stroke-linecap:butt;stroke-linejoin:miter;stroke-opacity:1" d="M 202.4,105.834 219.958,105.834 z" id="boundary" inkscape:connector-curvature="0" />
	<path style="fill:none;stroke:red;stroke-width:1px;stroke-linecap:butt;stroke-linejoin:miter;stroke-opacity:1" d="M 214.69,374.464 232.248,370.952 z" id="boundary" inkscape:connector-curvature="0" />
	<path style="fill:none;stroke:red;stroke-width:1px;stroke-linecap:butt;stroke-linejoin:miter;stroke-opacity:1" d="M 219.958,105.834 237.515,105.834 z" id="boundary" inkscape:connector-curvature="0" />
	<path style="fill:none;stroke:red;stroke-width:1px;stroke-linecap:butt;stroke-linejoin:miter;stroke-opacity:1" d="M 232.248,370.952 246.294,360.418 z" id="boundary" inkscape:connector-curvature="0" />
	<path style="fill:none;stroke:red;stroke-width:1px;stroke-linecap:butt;stroke-linejoin:miter;stroke-opacity:1" d="M 237.515,105.834 255.073,105.834 z" id="boundary" inkscape:connector-curvature="0" />
	<path style="fill:none;stroke:red;stroke-width:1px;stroke-linecap:butt;stroke-linejoin:miter;stroke-opacity:1" d="M 246.294,360.418 260.34,344.616 z" id="boundary" inkscape:connector-curvature="0" />
	<path style="fill:none;stroke:red;stroke-width:1px;stroke-linecap:butt;stroke-linejoin:miter;stroke-opacity:1" d="M 255.073,105.834 272.63,105.834 z" id="boundary" inkscape:connector-curvature="0" />
	<path style="fill:none;stroke:red;stroke-width:1px;stroke-linecap:butt;stroke-linejoin:miter;stroke-opacity:1" d="M 260.34,344.616 269.119,327.058 z" id="boundary" inkscape:connector-curvature="0" />
	<path style="fill:none;stroke:red;stroke-width:1px;stroke-linecap:butt;stroke-linejoin:miter;stroke-opacity:1" d="M 269.119,327.058 277.897,309.501 z" id="boundary" inkscape:connector-curvature="0" />
	<path style="fill:none;stroke:red;stroke-width:1px;stroke-linecap:butt;stroke-linejoin:miter;stroke-opacity:1" d="M 272.63,105.834 290.188,105.834 z" id="boundary" inkscape:connector-curvature="0" />
	<path style="fill:none;stroke:red;stroke-width:1px;stroke-linecap:butt;stroke-linejoin:miter;stroke-opacity:1" d="M 277.897,309.501 295.455,313.012 z" id="boundary" inkscape:connector-curvature="0" />
	<path style="fill:none;stroke:red;stroke-width:1px;stroke-linecap:butt;stroke-linejoin:miter;stroke-opacity:1" d="M 290.188,105.834 307.745,105.834 z" id="boundary" inkscape:connector-curvature="0" />
	<path style="fill:none;stroke:red;stroke-width:1px;stroke-linecap:butt;stroke-linejoin:miter;stroke-opacity:1" d="M 295.455,313.012 313.012,309.501 z" id="boundary" inkscape:connector-curvature="0" />
	<path style="fill:none;stroke:red;stroke-width:1px;stroke-linecap:butt;stroke-linejoin:miter;stroke-opacity:1" d="M 307.745,105.834 325.303,105.834 z" id="boundary" inkscape:connector-curvature="0" />
	<path style="fill:none;stroke:red;stroke-width:1px;stroke-linecap:butt;stroke-linejoin:miter;stroke-opacity:1" d="M 313.012,309.501 330.57,313.012 z" id="boundary" inkscape:connector-curvature="0" />
	<path style="fill:none;stroke:red;stroke-width:1px;stroke-linecap:butt;stroke-linejoin:miter;stroke-opacity:1" d="M 325.303,105.834 342.86,105.834 z" id="boundary" inkscape:connector-curvature="0" />
	<path style="fill:none;stroke:red;stroke-width:1px;stroke-linecap:butt;stroke-linejoin:miter;stroke-opacity:1" d="M 330.57,313.012 348.127,309.501 z" id="boundary" inkscape:connector-curvature="0" />
	<path style="fill:none;stroke:red;stroke-width:1px;stroke-linecap:butt;stroke-linejoin:miter;stroke-opacity:1" d="M 342.86,105.834 360.418,105.834 z" id="boundary" inkscape:connector-curvature="0" />
	<path style="fill:none;stroke:red;stroke-width:1px;stroke-linecap:butt;stroke-linejoin:miter;stroke-opacity:1" d="M 348.127,309.501 365.685,313.012 z" id="boundary" inkscape:connector-curvature="0" />
	<path style="fill:none;stroke:red;stroke-width:1px;stroke-linecap:butt;stroke-linejoin:miter;stroke-opacity:1" d="M 360.418,105.834 377.975,97.0549 z" id="boundary" inkscape:connector-curvature="0" />
	<path style="fill:none;stroke:red;stroke-width:1px;stroke-linecap:butt;stroke-linejoin:miter;stroke-opacity:1" d="M 365.685,313.012 383.242,309.501 z" id="boundary" inkscape:connector-curvature="0" />
	<path style="fill:none;stroke:red;stroke-width:1px;stroke-linecap:butt;stroke-linejoin:miter;stroke-opacity:1" d="M 372.708,14.5345 381.487,30.3363 z" id="boundary" inkscape:connector-curvature="0" />
	<path style="fill:none;stroke:red;stroke-width:1px;stroke-linecap:butt;stroke-linejoin:miter;stroke-opacity:1" d="M 372.708,14.5345 390.265,5.75575 z" id="boundary" inkscape:connector-curvature="0" />
	<path style="fill:none;stroke:red;stroke-width:1px;stroke-linecap:butt;stroke-linejoin:miter;stroke-opacity:1" d="M 377.975,97.0549 381.487,65.4513 z" id="boundary" inkscape:connector-curvature="0" />
	<path style="fill:none;stroke:red;stroke-width:1px;stroke-linecap:butt;stroke-linejoin:miter;stroke-opacity:1" d="M 381.487,30.3363 381.487,47.8938 z" id="boundary" inkscape:connector-curvature="0" />
	<path style="fill:none;stroke:red;stroke-width:1px;stroke-linecap:butt;stroke-linejoin:miter;stroke-opacity:1" d="M 381.487,47.8938 381.487,65.4513 z" id="boundary" inkscape:connector-curvature="0" />
	<path style="fill:none;stroke:red;stroke-width:1px;stroke-linecap:butt;stroke-linejoin:miter;stroke-opacity:1" d="M 383.242,309.501 400.8,309.501 z" id="boundary" inkscape:connector-curvature="0" />
	<path style="fill:none;stroke:red;stroke-width:1px;stroke-linecap:butt;stroke-linejoin:miter;stroke-opacity:1" d="M 390.265,5.75575 407.823,4 z" id="boundary" inkscape:connector-curvature="0" />
	<path style="fill:none;stroke:red;stroke-width:1px;stroke-linecap:butt;stroke-linejoin:miter;stroke-opacity:1" d="M 400.8,309.501 418.358,309.501 z" id="boundary" inkscape:connector-curvature="0" />
	<path style="fill:none;stroke:red;stroke-width:1px;stroke-linecap:butt;stroke-linejoin:miter;stroke-opacity:1" d="M 407.823,4 425.381,4 z" id="boundary" inkscape:connector-curvature="0" />
	<path style="fill:none;stroke:red;stroke-width:1px;stroke-linecap:butt;stroke-linejoin:miter;stroke-opacity:1" d="M 418.358,309.501 435.915,309.501 z" id="boundary" inkscape:connector-curvature="0" />
	<path style="fill:none;stroke:red;stroke-width:1px;stroke-linecap:butt;stroke-linejoin:miter;stroke-opacity:1" d="M 425.381,4 442.938,4 z" id="boundary" inkscape:connector-curvature="0" />
	<path style="fill:none;stroke:red;stroke-width:1px;stroke-linecap:butt;stroke-linejoin:miter;stroke-opacity:1" d="M 435.915,309.501 453.473,309.501 z" id="boundary" inkscape:connector-curvature="0" />
	<path style="fill:none;stroke:red;stroke-width:1px;stroke-linecap:butt;stroke-linejoin:miter;stroke-opacity:1" d="M 442.938,4 460.496,4 z" id="boundary" inkscape:connector-curvature="0" />
	<path style="fill:none;stroke:red;stroke-width:1px;stroke-linecap:butt;stroke-linejoin:miter;stroke-opacity:1" d="M 453.473,309.501 471.03,309.501 z" id="boundary" inkscape:connector-curvature="0" />
	<path style="fill:none;stroke:red;stroke-width:1px;stroke-linecap:butt;stroke-linejoin:miter;stroke-opacity:1" d="M 460.496,4 478.053,4 z" id="boundary" inkscape:connector-curvature="0" />
	<path style="fill:none;stroke:red;stroke-width:1px;stroke-linecap:butt;stroke-linejoin:miter;stroke-opacity:1" d="M 471.03,309.501 488.588,309.501 z" id="boundary" inkscape:connector-curvature="0" />
	<path style="fill:none;stroke:red;stroke-width:1px;stroke-linecap:butt;stroke-linejoin:miter;stroke-opacity:1" d="M 478.053,4 495.611,4 z" id="boundary" inkscape:connector-curvature="0" />
	<path style="fill:none;stroke:red;stroke-width:1px;stroke-linecap:butt;stroke-linejoin:miter;stroke-opacity:1" d="M 488.588,309.501 506.145,309.501 z" id="boundary" inkscape:connector-curvature="0" />
	<path style="fill:none;stroke:red;stroke-width:1px;stroke-linecap:butt;stroke-linejoin:miter;stroke-opacity:1" d="M 495.611,4 513.168,4 z" id="boundary" inkscape:connector-curvature="0" />
	<path style="fill:none;stroke:red;stroke-width:1px;stroke-linecap:butt;stroke-linejoin:miter;stroke-opacity:1" d="M 506.145,309.501 523.703,309.501 z" id="boundary" inkscape:connector-curvature="0" />
	<path style="fill:none;stroke:red;stroke-width:1px;stroke-linecap:butt;stroke-linejoin:miter;stroke-opacity:1" d="M 513.168,4 530.726,4 z" id="boundary" inkscape:connector-curvature="0" />
	<path style="fill:none;stroke:red;stroke-width:1px;stroke-linecap:butt;stroke-linejoin:miter;stroke-opacity:1" d="M 523.703,309.501 541.26,309.501 z" id="boundary" inkscape:connector-curvature="0" />
	<path style="fill:none;stroke:red;stroke-width:1px;stroke-linecap:butt;stroke-linejoin:miter;stroke-opacity:1" d="M 530.726,4 548.283,4 z" id="boundary" inkscape:connector-curvature="0" />
	<path style="fill:none;stroke:red;stroke-width:1px;stroke-linecap:butt;stroke-linejoin:miter;stroke-opacity:1" d="M 541.26,309.501 558.818,309.501 z" id="boundary" inkscape:connector-curvature="0" />
	<path style="fill:none;stroke:red;stroke-width:1px;stroke-linecap:butt;stroke-linejoin:miter;stroke-opacity:1" d="M 548.283,4 565.841,4 z" id="boundary" inkscape:connector-curvature="0" />
	<path style="fill:none;stroke:red;stroke-width:1px;stroke-linecap:butt;stroke-linejoin:miter;stroke-opacity:1" d="M 558.818,309.501 576.375,309.501 z" id="boundary" inkscape:connector-curvature="0" />
	<path style="fill:none;stroke:red;stroke-width:1px;stroke-linecap:butt;stroke-linejoin:miter;stroke-opacity:1" d="M 565.841,4 583.398,4 z" id="boundary" inkscape:connector-curvature="0" />
	<path style="fill:none;stroke:red;stroke-width:1px;stroke-linecap:butt;stroke-linejoin:miter;stroke-opacity:1" d="M 576.375,309.501 593.933,309.501 z" id="boundary" inkscape:connector-curvature="0" />
	<path style="fill:none;stroke:red;stroke-width:1px;stroke-linecap:butt;stroke-linejoin:miter;stroke-opacity:1" d="M 583.398,4 600.956,4 z" id="boundary" inkscape:connector-curvature="0" />
	<path style="fill:none;stroke:red;stroke-width:1px;stroke-linecap:butt;stroke-linejoin:miter;stroke-opacity:1" d="M 593.933,309.501 611.49,309.501 z" id="boundary" inkscape:connector-curvature="0" />
	<path style="fill:none;stroke:red;stroke-width:1px;stroke-linecap:butt;stroke-linejoin:miter;stroke-opacity:1" d="M 600.956,4 618.513,5.75575 z" id="boundary" inkscape:connector-curvature="0" />
	<path style="fill:none;stroke:red;stroke-width:1px;stroke-linecap:butt;stroke-linejoin:miter;stroke-opacity:1" d="M 611.49,309.501 629.048,313.012 z" id="boundary" inkscape:connector-curvature="0" />
	<path style="fill:none;stroke:red;stroke-width:1px;stroke-linecap:butt;stroke-linejoin:miter;stroke-opacity:1" d="M 618.513,5.75575 636.071,5.75575 z" id="boundary" inkscape:connector-curvature="0" />
	<path style="fill:none;stroke:red;stroke-width:1px;stroke-linecap:butt;stroke-linejoin:miter;stroke-opacity:1" d="M 629.048,313.012 646.605,309.501 z" id="boundary" inkscape:connector-curvature="0" />
	<path style="fill:none;stroke:red;stroke-width:1px;stroke-linecap:butt;stroke-linejoin:miter;stroke-opacity:1" d="M 636.071,5.75575 653.628,5.75575 z" id="boundary" inkscape:connector-curvature="0" />
	<path style="fill:none;stroke:red;stroke-width:1px;stroke-linecap:butt;stroke-linejoin:miter;stroke-opacity:1" d="M 646.605,309.501 664.163,313.012 z" id="boundary" inkscape:connector-curvature="0" />
	<path style="fill:none;stroke:red;stroke-width:1px;stroke-linecap:butt;stroke-linejoin:miter;stroke-opacity:1" d="M 653.628,5.75575 671.186,9.26726 z" id="boundary" inkscape:connector-curvature="0" />
	<path style="fill:none;stroke:red;stroke-width:1px;stroke-linecap:butt;stroke-linejoin:miter;stroke-opacity:1" d="M 664.163,313.012 681.72,309.501 z" id="boundary" inkscape:connector-curvature="0" />
	<path style="fill:none;stroke:red;stroke-width:1px;stroke-linecap:butt;stroke-linejoin:miter;stroke-opacity:1" d="M 671.186,9.26726 688.743,5.75575 z" id="boundary" inkscape:connector-curvature="0" />
	<path style="fill:none;stroke:red;stroke-width:1px;stroke-linecap:butt;stroke-linejoin:miter;stroke-opacity:1" d="M 681.72,309.501 692.255,323.547 z" id="boundary" inkscape:connector-curvature="0" />
	<path style="fill:none;stroke:red;stroke-width:1px;stroke-linecap:butt;stroke-linejoin:miter;stroke-opacity:1" d="M 688.743,5.75575 706.301,9.26726 z" id="boundary" inkscape:connector-curvature="0" />
	<path style="fill:none;stroke:red;stroke-width:1px;stroke-linecap:butt;stroke-linejoin:miter;stroke-opacity:1" d="M 692.255,323.547 709.812,327.058 z" id="boundary" inkscape:connector-curvature="0" />
	<path style="fill:none;stroke:red;stroke-width:1px;stroke-linecap:butt;stroke-linejoin:miter;stroke-opacity:1" d="M 706.301,9.26726 723.858,9.26726 z" id="boundary" inkscape:connector-curvature="0" />
	<path style="fill:none;stroke:red;stroke-width:1px;stroke-linecap:butt;stroke-linejoin:miter;stroke-opacity:1" d="M 709.812,327.058 725.614,335.837 z" id="boundary" inkscape:connector-curvature="0" />
	<path style="fill:none;stroke:red;stroke-width:1px;stroke-linecap:butt;stroke-linejoin:miter;stroke-opacity:1" d="M 723.858,9.26726 741.416,9.26726 z" id="boundary" inkscape:connector-curvature="0" />
	<path style="fill:none;stroke:red;stroke-width:1px;stroke-linecap:butt;stroke-linejoin:miter;stroke-opacity:1" d="M 725.614,335.837 743.172,335.837 z" id="boundary" inkscape:connector-curvature="0" />
	<path style="fill:none;stroke:red;stroke-width:1px;stroke-linecap:butt;stroke-linejoin:miter;stroke-opacity:1" d="M 741.416,9.26726 758.973,9.26726 z" id="boundary" inkscape:connector-curvature="0" />
	<path style="fill:none;stroke:red;stroke-width:1px;stroke-linecap:butt;stroke-linejoin:miter;stroke-opacity:1" d="M 743.172,335.837 760.729,335.837 z" id="boundary" inkscape:connector-curvature="0" />
	<path style="fill:none;stroke:red;stroke-width:1px;stroke-linecap:butt;stroke-linejoin:miter;stroke-opacity:1" d="M 758.973,9.26726 776.531,9.26726 z" id="boundary" inkscape:connector-curvature="0" />
	<path style="fill:none;stroke:red;stroke-width:1px;stroke-linecap:butt;stroke-linejoin:miter;stroke-opacity:1" d="M 760.729,335.837 776.531,327.058 z" id="boundary" inkscape:connector-curvature="0" />
	<path style="fill:none;stroke:red;stroke-width:1px;stroke-linecap:butt;stroke-linejoin:miter;stroke-opacity:1" d="M 776.531,9.26726 794.088,12.7788 z" id="boundary" inkscape:connector-curvature="0" />
	<path style="fill:none;stroke:red;stroke-width:1px;stroke-linecap:butt;stroke-linejoin:miter;stroke-opacity:1" d="M 776.531,327.058 792.333,318.28 z" id="boundary" inkscape:connector-curvature="0" />
	<path style="fill:none;stroke:red;stroke-width:1px;stroke-linecap:butt;stroke-linejoin:miter;stroke-opacity:1" d="M 792.333,318.28 802.867,332.326 z" id="boundary" inkscape:connector-curvature="0" />
	<path style="fill:none;stroke:red;stroke-width:1px;stroke-linecap:butt;stroke-linejoin:miter;stroke-opacity:1" d="M 794.088,12.7788 811.646,12.7788 z" id="boundary" inkscape:connector-curvature="0" />
	<path style="fill:none;stroke:red;stroke-width:1px;stroke-linecap:butt;stroke-linejoin:miter;stroke-opacity:1" d="M 802.867,332.326 811.646,348.127 z" id="boundary" inkscape:connector-curvature="0" />
	<path style="fill:none;stroke:red;stroke-width:1px;stroke-linecap:butt;stroke-linejoin:miter;stroke-opacity:1" d="M 811.646,12.7788 827.448,21.5575 z" id="boundary" inkscape:connector-curvature="0" />
	<path style="fill:none;stroke:red;stroke-width:1px;stroke-linecap:butt;stroke-linejoin:miter;stroke-opacity:1" d="M 811.646,348.127 829.204,353.395 z" id="boundary" inkscape:connector-curvature="0" />
	<path style="fill:none;stroke:red;stroke-width:1px;stroke-linecap:butt;stroke-linejoin:miter;stroke-opacity:1" d="M 827.448,21.5575 839.738,35.6035 z" id="boundary" inkscape:connector-curvature="0" />
	<path style="fill:none;stroke:red;stroke-width:1px;stroke-linecap:butt;stroke-linejoin:miter;stroke-opacity:1" d="M 829.204,353.395 845.005,362.173 z" id="boundary" inkscape:connector-curvature="0" />
	<path style="fill:none;stroke:red;stroke-width:1px;stroke-linecap:butt;stroke-linejoin:miter;stroke-opacity:1" d="M 839.738,35.6035 848.517,51.4053 z" id="boundary" inkscape:connector-curvature="0" />
	<path style="fill:none;stroke:red;stroke-width:1px;stroke-linecap:butt;stroke-linejoin:miter;stroke-opacity:1" d="M 845.005,362.173 862.563,362.173 z" id="boundary" inkscape:connector-curvature="0" />
	<path style="fill:none;stroke:red;stroke-width:1px;stroke-linecap:butt;stroke-linejoin:miter;stroke-opacity:1" d="M 848.517,51.4053 848.517,72.4743 z" id="boundary" inkscape:connector-curvature="0" />
	<path style="fill:none;stroke:red;stroke-width:1px;stroke-linecap:butt;stroke-linejoin:miter;stroke-opacity:1" d="M 848.517,72.4743 848.517,90.0319 z" id="boundary" inkscape:connector-curvature="0" />
	<path style="fill:none;stroke:red;stroke-width:1px;stroke-linecap:butt;stroke-linejoin:miter;stroke-opacity:1" d="M 848.517,90.0319 848.517,107.589 z" id="boundary" inkscape:connector-curvature="0" />
	<path style="fill:none;stroke:red;stroke-width:1px;stroke-linecap:butt;stroke-linejoin:miter;stroke-opacity:1" d="M 848.517,107.589 852.028,125.147 z" id="boundary" inkscape:connector-curvature="0" />
	<path style="fill:none;stroke:red;stroke-width:1px;stroke-linecap:butt;stroke-linejoin:miter;stroke-opacity:1" d="M 852.028,125.147 860.807,140.949 z" id="boundary" inkscape:connector-curvature="0" />
	<path style="fill:none;stroke:red;stroke-width:1px;stroke-linecap:butt;stroke-linejoin:miter;stroke-opacity:1" d="M 860.807,140.949 873.097,154.995 z" id="boundary" inkscape:connector-curvature="0" />
	<path style="fill:none;stroke:red;stroke-width:1px;stroke-linecap:butt;stroke-linejoin:miter;stroke-opacity:1" d="M 862.563,362.173 880.12,362.173 z" id="boundary" inkscape:connector-curvature="0" />
	<path style="fill:none;stroke:red;stroke-width:1px;stroke-linecap:butt;stroke-linejoin:miter;stroke-opacity:1" d="M 873.097,154.995 890.655,162.018 z" id="boundary" inkscape:connector-curvature="0" />
	<path style="fill:none;stroke:red;stroke-width:1px;stroke-linecap:butt;stroke-linejoin:miter;stroke-opacity:1" d="M 880.12,362.173 897.678,362.173 z" id="boundary" inkscape:connector-curvature="0" />
	<path style="fill:none;stroke:red;stroke-width:1px;stroke-linecap:butt;stroke-linejoin:miter;stroke-opacity:1" d="M 890.655,162.018 901.189,176.064 z" id="boundary" inkscape:connector-curvature="0" />
	<path style="fill:none;stroke:red;stroke-width:1px;stroke-linecap:butt;stroke-linejoin:miter;stroke-opacity:1" d="M 897.678,362.173 913.48,351.639 z" id="boundary" inkscape:connector-curvature="0" />
	<path style="fill:none;stroke:red;stroke-width:1px;stroke-linecap:butt;stroke-linejoin:miter;stroke-opacity:1" d="M 901.189,176.064 916.991,167.285 z" id="boundary" inkscape:connector-curvature="0" />
	<path style="fill:none;stroke:red;stroke-width:1px;stroke-linecap:butt;stroke-linejoin:miter;stroke-opacity:1" d="M 913.48,351.639 927.526,327.058 z" id="boundary" inkscape:connector-curvature="0" />
	<path style="fill:none;stroke:red;stroke-width:1px;stroke-linecap:butt;stroke-linejoin:miter;stroke-opacity:1" d="M 916.991,167.285 932.793,158.506 z" id="boundary" inkscape:connector-curvature="0" />
	<path style="fill:none;stroke:red;stroke-width:1px;stroke-linecap:butt;stroke-linejoin:miter;stroke-opacity:1" d="M 927.526,327.058 941.572,314.768 z" id="boundary" inkscape:connector-curvature="0" />
	<path style="fill:none;stroke:red;stroke-width:1px;stroke-linecap:butt;stroke-linejoin:miter;stroke-opacity:1" d="M 932.793,158.506 948.595,149.727 z" id="boundary" inkscape:connector-curvature="0" />
	<path style="fill:none;stroke:red;stroke-width:1px;stroke-linecap:butt;stroke-linejoin:miter;stroke-opacity:1" d="M 941.572,314.768 952.106,300.722 z" id="boundary" inkscape:connector-curvature="0" />
	<path style="fill:none;stroke:red;stroke-width:1px;stroke-linecap:butt;stroke-linejoin:miter;stroke-opacity:1" d="M 948.595,149.727 964.396,158.506 z" id="boundary" inkscape:connector-curvature="0" />
	<path style="fill:none;stroke:red;stroke-width:1px;stroke-linecap:butt;stroke-linejoin:miter;stroke-opacity:1" d="M 952.106,300.722 969.664,300.722 z" id="boundary" inkscape:connector-curvature="0" />
	<path style="fill:none;stroke:red;stroke-width:1px;stroke-linecap:butt;stroke-linejoin:miter;stroke-opacity:1" d="M 964.396,158.506 971.419,176.064 z" id="boundary" inkscape:connector-curvature="0" />
	<path style="fill:none;stroke:red;stroke-width:1px;stroke-linecap:butt;stroke-linejoin:miter;stroke-opacity:1" d="M 969.664,300.722 987.221,295.455 z" id="boundary" inkscape:connector-curvature="0" />
	<path style="fill:none;stroke:red;stroke-width:1px;stroke-linecap:butt;stroke-linejoin:miter;stroke-opacity:1" d="M 971.419,176.064 980.198,191.865 z" id="boundary" inkscape:connector-curvature="0" />
	<path style="fill:none;stroke:red;stroke-width:1px;stroke-linecap:butt;stroke-linejoin:miter;stroke-opacity:1" d="M 980.198,191.865 980.198,209.423 z" id="boundary" inkscape:connector-curvature="0" />
	<path style="fill:none;stroke:red;stroke-width:1px;stroke-linecap:butt;stroke-linejoin:miter;stroke-opacity:1" d="M 980.198,209.423 988.977,225.225 z" id="boundary" inkscape:connector-curvature="0" />
	<path style="fill:none;stroke:red;stroke-width:1px;stroke-linecap:butt;stroke-linejoin:miter;stroke-opacity:1" d="M 987.221,295.455 996,277.897 z" id="boundary" inkscape:connector-curvature="0" />
	<path style="fill:none;stroke:red;stroke-width:1px;stroke-linecap:butt;stroke-linejoin:miter;stroke-opacity:1" d="M 988.977,225.225 988.977,242.782 z" id="boundary" inkscape:connector-curvature="0" />
	<path style="fill:none;stroke:red;stroke-width:1px;stroke-linecap:butt;stroke-linejoin:miter;stroke-opacity:1" d="M 988.977,242.782 988.977,260.34 z" id="boundary" inkscape:connector-curvature="0" />
	<path style="fill:none;stroke:red;stroke-width:1px;stroke-linecap:butt;stroke-linejoin:miter;stroke-opacity:1" d="M 988.977,260.34 996,277.897 z" id="boundary" inkscape:connector-curvature="0" />
	<circle cx="4" cy="269.119" r="4" fill="#0" id="circle0"/>
	<circle cx="12.7788" cy="284.92" r="4" fill="#0" id="circle1"/>
	<circle cx="18.046" cy="255.073" r="4" fill="#0" id="circle2"/>
	<circle cx="21.5575" cy="300.722" r="4" fill="#0" id="circle3"/>
	<circle cx="33.8478" cy="246.294" r="4" fill="#0" id="circle4"/>
	<circle cx="39.115" cy="216.446" r="4" fill="#0" id="circle5"/>
	<circle cx="39.115" cy="300.722" r="4" fill="#0" id="circle6"/>
	<circle cx="47.8938" cy="190.11" r="4" fill="#0" id="circle7"/>
	<circle cx="49.6496" cy="314.768" r="4" fill="#0" id="circle8"/>
	<circle cx="65.4513" cy="184.842" r="4" fill="#0" id="circle9"/>
	<circle cx="65.4513" cy="323.547" r="4" fill="#0" id="circle10"/>
	<circle cx="79.4973" cy="335.837" r="4" fill="#0" id="circle11"/>
	<circle cx="81.2531" cy="176.064" r="4" fill="#0" id="circle12"/>
	<circle cx="88.2761" cy="158.506" r="4" fill="#0" id="circle13"/>
	<circle cx="97.0549" cy="342.86" r="4" fill="#0" id="circle14"/>
	<circle cx="104.078" cy="149.727" r="4" fill="#0" id="circle15"/>
	<circle cx="114.612" cy="344.616" r="4" fill="#0" id="circle16"/>
	<circle cx="118.124" cy="137.437" r="4" fill="#0" id="circle17"/>
	<circle cx="132.17" cy="351.639" r="4" fill="#0" id="circle18"/>
	<circle cx="135.681" cy="119.88" r="4" fill="#0" id="circle19"/>
	<circle cx="147.972" cy="360.418" r="4" fill="#0" id="circle20"/>
	<circle cx="149.727" cy="105.834" r="4" fill="#0" id="circle21"/>
	<circle cx="162.018" cy="370.952" r="4" fill="#0" id="circle22"/>
	<circle cx="167.285" cy="105.834" r="4" fill="#0" id="circle23"/>
	<circle cx="179.575" cy="370.952" r="4" fill="#0" id="circle24"/>
	<circle cx="184.842" cy="105.834" r="4" fill="#0" id="circle25"/>
	<circle cx="197.133" cy="370.952" r="4" fill="#0" id="circle26"/>
	<circle cx="202.4" cy="105.834" r="4" fill="#0" id="circle27"/>
	<circle cx="214.69" cy="374.464" r="4" fill="#0" id="circle28"/>
	<circle cx="219.958" cy="105.834" r="4" fill="#0" id="circle29"/>
	<circle cx="232.248" cy="370.952" r="4" fill="#0" id="circle30"/>
	<circle cx="237.515" cy="105.834" r="4" fill="#0" id="circle31"/>
	<circle cx="246.294" cy="360.418" r="4" fill="#0" id="circle32"/>
	<circle cx="255.073" cy="105.834" r="4" fill="#0" id="circle33"/>
	<circle cx="260.34" cy="344.616" r="4" fill="#0" id="circle34"/>
	<circle cx="269.119" cy="327.058" r="4" fill="#0" id="circle35"/>
	<circle cx="272.63" cy="105.834" r="4" fill="#0" id="circle36"/>
	<circle cx="277.897" cy="309.501" r="4" fill="#0" id="circle37"/>
	<circle cx="290.188" cy="105.834" r="4" fill="#0" id="circle38"/>
	<circle cx="295.455" cy="313.012" r="4" fill="#0" id="circle39"/>
	<circle cx="307.745" cy="105.834" r="4" fill="#0" id="circle40"/>
	<circle cx="313.012" cy="309.501" r="4" fill="#0" id="circle41"/>
	<circle cx="325.303" cy="105.834" r="4" fill="#0" id="circle42"/>
	<circle cx="330.57" cy="313.012" r="4" fill="#0" id="circle43"/>
	<circle cx="342.86" cy="105.834" r="4" fill="#0" id="circle44"/>
	<circle cx="348.127" cy="309.501" r="4" fill="#0" id="circle45"/>
	<circle cx="360.418" cy="105.834" r="4" fill="#0" id="circle46"/>
	<circle cx="365.685" cy="313.012" r="4" fill="#0" id="circle47"/>
	<circle cx="372.708" cy="14.5345" r="4" fill="#0" id="circle48"/>
	<circle cx="377.975" cy="97.0549" r="4" fill="#0" id="circle49"/>
	<circle cx="381.487" cy="30.3363" r="4" fill="#0" id="circle50"/>
	<circle cx="381.487" cy="47.8938" r="4" fill="#0" id="circle51"/>
	<circle cx="381.487" cy="65.4513" r="4" fill="#0" id="circle52"/>
	<circle cx="383.242" cy="309.501" r="4" fill="#0" id="circle53"/>
	<circle cx="390.265" cy="5.75575" r="4" fill="#0" id="circle54"/>
	<circle cx="400.8" cy="309.501" r="4" fill="#0" id="circle55"/>
	<circle cx="407.823" cy="4" r="4" fill="#0" id="circle56"/>
	<circle cx="418.358" cy="309.501" r="4" fill="#0" id="circle57"/>
	<circle cx="425.381" cy="4" r="4" fill="#0" id="circle58"/>
	<circle cx="435.915" cy="309.501" r="4" fill="#0" id="circle59"/>
	<circle cx="442.938" cy="4" r="4" fill="#0" id="circle60"/>
	<circle cx="453.473" cy="309.501" r="4" fill="#0" id="circle61"/>
	<circle cx="460.496" cy="4" r="4" fill="#0" id="circle62"/>
	<circle cx="471.03" cy="309.501" r="4" fill="#0" id="circle63"/>
	<circle cx="478.053" cy="4" r="4" fill="#0" id="circle64"/>
	<circle cx="488.588" cy="309.501" r="4" fill="#0" id="circle65"/>
	<circle cx="495.611" cy="4" r="4" fill="#0" id="circle66"/>
	<circle cx="506.145" cy="309.501" r="4" fill="#0" id="circle67"/>
	<circle cx="513.168" cy="4" r="4" fill="#0" id="circle68"/>
	<circle cx="523.703" cy="309.501" r="4" fill="#0" id="circle69"/>
	<circle cx="530.726" cy="4" r="4" fill="#0" id="circle70"/>
	<circle cx="541.26" cy="309.501" r="4" fill="#0" id="circle71"/>
	<circle cx="548.283" cy="4" r="4" fill="#0" id="circle72"/>
	<circle cx="558.818" cy="309.501" r="4" fill="#0" id="circle73"/>
	<circle cx="565.841" cy="4" r="4" fill="#0" id="circle74"/>
	<circle cx="576.375" cy="309.501" r="4" fill="#0" id="circle75"/>
	<circle cx="583.398" cy="4" r="4" fill="#0" id="circle76"/>
	<circle cx="593.933" cy="309.501" r="4" fill="#0" id="circle77"/>
	<circle cx="600.956" cy="4" r="4" fill="#0" id="circle78"/>
	<circle cx="611.49" cy="309.501" r="4" fill="#0" id="circle79"/>
	<circle cx="618.513" cy="5.75575" r="4" fill="#0" id="circle80"/>
	<circle cx="629.048" cy="313.012" r="4" fill="#0" id="circle81"/>
	<circle cx="636.071" cy="5.75575" r="4" fill="#0" id="circle82"/>
	<circle cx="646.605" cy="309.501" r="4" fill="#0" id="circle83"/>
	<circle cx="653.628" cy="5.75575" r="4" fill="#0" id="circle84"/>
	<circle cx="664.163" cy="313.012" r="4" fill="#0" id="circle85"/>
	<circle cx="671.186" cy="9.26726" r="4" fill="#0" id="circle86"/>
	<circle cx="681.72" cy="309.501" r="4" fill="#0" id="circle87"/>
	<circle cx="688.743" cy="5.75575" r="4" fill="#0" id="circle88"/>
	<circle cx="692.255" cy="323.547" r="4" fill="#0" id="circle89"/>
	<circle cx="706.301" cy="9.26726" r="4" fill="#0" id="circle90"/>
	<circle cx="709.812" cy="327.058" r="4" fill="#0" id="circle91"/>
	<circle cx="723.858" cy="9.26726" r="4" fill="#0" id="circle92"/>
	<circle cx="725.614" cy="335.837" r="4" fill="#0" id="circle93"/>
	<circle cx="741.416" cy="9.26726" r="4" fill="#0" id="circle94"/>
	<circle cx="743.172" cy="335.837" r="4" fill="#0" id="circle95"/>
	<circle cx="758.973" cy="9.26726" r="4" fill="#0" id="circle96"/>
	<circle cx="760.729" cy="335.837" r="4" fill="#0" id="circle97"/>
	<circle cx="776.531" cy="9.26726" r="4" fill="#0" id="circle98"/>
	<circle cx="776.531" cy="327.058" r="4" fill="#0" id="circle99"/>
	<circle cx="792.333" cy="318.28" r="4" fill="#0" id="circle100"/>
	<circle cx="794.088" cy="12.7788" r="4" fill="#0" id="circle101"/>
	<circle cx="802.867" cy="332.326" r="4" fill="#0" id="circle102"/>
	<circle cx="811.646" cy="12.7788" r="4" fill="#0" id="circle103"/>
	<circle cx="811.646" cy="348.127" r="4" fill="#0" id="circle104"/>
	<circle cx="827.448" cy="21.5575" r="4" fill="#0" id="circle105"/>
	<circle cx="829.204" cy="353.395" r="4" fill="#0" id="circle106"/>
	<circle cx="839.738" cy="35.6035" r="4" fill="#0" id="circle107"/>
	<circle cx="845.005" cy="362.173" r="4" fill="#0" id="circle108"/>
	<circle cx="848.517" cy="51.4053" r="4" fill="#0" id="circle109"/>
	<circle cx="848.517" cy="72.4743" r="4" fill="#0" id="circle110"/>
	<circle cx="848.517" cy="90.0319" r="4" fill="#0" id="circle111"/>
	<circle cx="848.517" cy="107.589" r="4" fill="#0" id="circle112"/>
	<circle cx="852.028" cy="125.147" r="4" fill="#0" id="circle113"/>
	<circle cx="860.807" cy="140.949" r="4" fill="#0" id="circle114"/>
	<circle cx="862.563" cy="362.173" r="4" fill="#0" id="circle115"/>
	<circle cx="873.097" cy="154.995" r="4" fill="#0" id="circle116"/>
	<circle cx="880.12" cy="362.173" r="4" fill="#0" id="circle117"/>
	<circle cx="890.655" cy="162.018" r="4" fill="#0" id="circle118"/>
	<circle cx="897.678" cy="362.173" r="4" fill="#0" id="circle119"/>
	<circle cx="901.189" cy="176.064" r="4" fill="#0" id="circle120"/>
	<circle cx="913.48" cy="351.639" r="4" fill="#0" id="circle121"/>
	<circle cx="916.991" cy="167.285" r="4" fill="#0" id="circle122"/>
	<circle cx="927.526" cy="327.058" r="4" fill="#0" id="circle123"/>
	<circle cx="932.793" cy="158.506" r="4" fill="#0" id="circle124"/>
	<circle cx="941.572" cy="314.768" r="4" fill="#0" id="circle125"/>
	<circle cx="948.595" cy="149.727" r="4" fill="#0" id="circle126"/>
	<circle cx="952.106" cy="300.722" r="4" fill="#0" id="circle127"/>
	<circle cx="964.396" cy="158.506" r="4" fill="#0" id="circle128"/>
	<circle cx="969.664" cy="300.722" r="4" fill="#0" id="circle129"/>
	<circle cx="971.419" cy="176.064" r="4" fill="#0" id="circle130"/>
	<circle cx="980.198" cy="191.865" r="4" fill="#0" id="circle131"/>
	<circle cx="980.198" cy="209.423" r="4" fill="#0" id="circle132"/>
	<circle cx="987.221" cy="295.455" r="4" fill="#0" id="circle133"/>
	<circle cx="988.977" cy="225.225" r="4" fill="#0" id="circle134"/>
	<circle cx="988.977" cy="242.782" r="4" fill="#0" id="circle135"/>
	<circle cx="988.977" cy="260.34" r="4" fill="#0" id="circle136"/>
	<circle cx="996" cy="277.897" r="4" fill="#0" id="circle137"/>
	</g>
</svg>