<?xml version="1.0" encoding="UTF-8" standalone="no"?>
<!-- Created with CurveBenchmark -->
<svg
	xmlns:dc="http://purl.org/dc/elements/1.1/"
	xmlns:cc="http://creativecommons.org/ns#"
	xmlns:rdf="http://www.w3.org/1999/02/22-rdf-syntax-ns#"
	xmlns:svg="http://www.w3.org/2000/svg"
	xmlns="http://www.w3.org/2000/svg"
	xmlns:sodipodi="http://sodipodi.sourceforge.net/DTD/sodipodi-0.dtd"
	xmlns:inkscape="http://www.inkscape.org/namespaces/inkscape"
	width="1000"
	height="1000"
	id="svg2"
	version="1.1"
	sodipodi:docname="manifold/vicur-bird36.png.txt">
<defs
	id="defs4" />
<metadata
	id="metadata7">
	<rdf:RDF>
		<cc:Work
			rdf:about="">
			<dc:format>image/svg+xml</dc:format>
			<dc:type
				rdf:resource="http://purl.org/dc/dcmitype/StillImage" />
			<dc:title></dc:title>
		</cc:Work>
	</rdf:RDF>
</metadata>
<g
	inkscape:label="Layer 1"
	inkscape:groupmode="layer"
	id="layer1">
	<path style="fill:none;stroke:red;stroke-width:1px;stroke-linecap:butt;stroke-linejoin:miter;stroke-opacity:1" d="M 4,414.993 11.392,428.298 z" id="boundary" inkscape:connector-curvature="0" />
	<path style="fill:none;stroke:red;stroke-width:1px;stroke-linecap:butt;stroke-linejoin:miter;stroke-opacity:1" d="M 4,414.993 18.7839,410.557 z" id="boundary" inkscape:connector-curvature="0" />
	<path style="fill:none;stroke:red;stroke-width:1px;stroke-linecap:butt;stroke-linejoin:miter;stroke-opacity:1" d="M 11.392,428.298 26.1759,434.212 z" id="boundary" inkscape:connector-curvature="0" />
	<path style="fill:none;stroke:red;stroke-width:1px;stroke-linecap:butt;stroke-linejoin:miter;stroke-opacity:1" d="M 18.7839,410.557 33.5678,407.601 z" id="boundary" inkscape:connector-curvature="0" />
	<path style="fill:none;stroke:red;stroke-width:1px;stroke-linecap:butt;stroke-linejoin:miter;stroke-opacity:1" d="M 26.1759,434.212 39.4814,426.82 z" id="boundary" inkscape:connector-curvature="0" />
	<path style="fill:none;stroke:red;stroke-width:1px;stroke-linecap:butt;stroke-linejoin:miter;stroke-opacity:1" d="M 33.5678,407.601 48.3517,403.165 z" id="boundary" inkscape:connector-curvature="0" />
	<path style="fill:none;stroke:red;stroke-width:1px;stroke-linecap:butt;stroke-linejoin:miter;stroke-opacity:1" d="M 39.4814,426.82 52.7869,419.428 z" id="boundary" inkscape:connector-curvature="0" />
	<path style="fill:none;stroke:red;stroke-width:1px;stroke-linecap:butt;stroke-linejoin:miter;stroke-opacity:1" d="M 48.3517,403.165 61.6572,395.773 z" id="boundary" inkscape:connector-curvature="0" />
	<path style="fill:none;stroke:red;stroke-width:1px;stroke-linecap:butt;stroke-linejoin:miter;stroke-opacity:1" d="M 52.7869,419.428 67.5708,419.428 z" id="boundary" inkscape:connector-curvature="0" />
	<path style="fill:none;stroke:red;stroke-width:1px;stroke-linecap:butt;stroke-linejoin:miter;stroke-opacity:1" d="M 61.6572,395.773 76.4411,395.773 z" id="boundary" inkscape:connector-curvature="0" />
	<path style="fill:none;stroke:red;stroke-width:1px;stroke-linecap:butt;stroke-linejoin:miter;stroke-opacity:1" d="M 67.5708,419.428 82.3547,417.949 z" id="boundary" inkscape:connector-curvature="0" />
	<path style="fill:none;stroke:red;stroke-width:1px;stroke-linecap:butt;stroke-linejoin:miter;stroke-opacity:1" d="M 76.4411,395.773 91.225,395.773 z" id="boundary" inkscape:connector-curvature="0" />
	<path style="fill:none;stroke:red;stroke-width:1px;stroke-linecap:butt;stroke-linejoin:miter;stroke-opacity:1" d="M 82.3547,417.949 97.1386,412.036 z" id="boundary" inkscape:connector-curvature="0" />
	<path style="fill:none;stroke:red;stroke-width:1px;stroke-linecap:butt;stroke-linejoin:miter;stroke-opacity:1" d="M 91.225,395.773 104.531,388.382 z" id="boundary" inkscape:connector-curvature="0" />
	<path style="fill:none;stroke:red;stroke-width:1px;stroke-linecap:butt;stroke-linejoin:miter;stroke-opacity:1" d="M 97.1386,412.036 111.923,412.036 z" id="boundary" inkscape:connector-curvature="0" />
	<path style="fill:none;stroke:red;stroke-width:1px;stroke-linecap:butt;stroke-linejoin:miter;stroke-opacity:1" d="M 104.531,388.382 119.314,380.99 z" id="boundary" inkscape:connector-curvature="0" />
	<path style="fill:none;stroke:red;stroke-width:1px;stroke-linecap:butt;stroke-linejoin:miter;stroke-opacity:1" d="M 111.923,412.036 126.706,412.036 z" id="boundary" inkscape:connector-curvature="0" />
	<path style="fill:none;stroke:red;stroke-width:1px;stroke-linecap:butt;stroke-linejoin:miter;stroke-opacity:1" d="M 119.314,380.99 132.62,373.598 z" id="boundary" inkscape:connector-curvature="0" />
	<path style="fill:none;stroke:red;stroke-width:1px;stroke-linecap:butt;stroke-linejoin:miter;stroke-opacity:1" d="M 126.706,412.036 141.49,412.036 z" id="boundary" inkscape:connector-curvature="0" />
	<path style="fill:none;stroke:red;stroke-width:1px;stroke-linecap:butt;stroke-linejoin:miter;stroke-opacity:1" d="M 132.62,373.598 144.447,363.249 z" id="boundary" inkscape:connector-curvature="0" />
	<path style="fill:none;stroke:red;stroke-width:1px;stroke-linecap:butt;stroke-linejoin:miter;stroke-opacity:1" d="M 141.49,412.036 156.274,412.036 z" id="boundary" inkscape:connector-curvature="0" />
	<path style="fill:none;stroke:red;stroke-width:1px;stroke-linecap:butt;stroke-linejoin:miter;stroke-opacity:1" d="M 144.447,348.465 144.447,363.249 z" id="boundary" inkscape:connector-curvature="0" />
	<path style="fill:none;stroke:red;stroke-width:1px;stroke-linecap:butt;stroke-linejoin:miter;stroke-opacity:1" d="M 144.447,348.465 156.274,336.638 z" id="boundary" inkscape:connector-curvature="0" />
	<path style="fill:none;stroke:red;stroke-width:1px;stroke-linecap:butt;stroke-linejoin:miter;stroke-opacity:1" d="M 156.274,336.638 159.231,318.897 z" id="boundary" inkscape:connector-curvature="0" />
	<path style="fill:none;stroke:red;stroke-width:1px;stroke-linecap:butt;stroke-linejoin:miter;stroke-opacity:1" d="M 156.274,412.036 168.101,422.385 z" id="boundary" inkscape:connector-curvature="0" />
	<path style="fill:none;stroke:red;stroke-width:1px;stroke-linecap:butt;stroke-linejoin:miter;stroke-opacity:1" d="M 159.231,318.897 174.015,304.113 z" id="boundary" inkscape:connector-curvature="0" />
	<path style="fill:none;stroke:red;stroke-width:1px;stroke-linecap:butt;stroke-linejoin:miter;stroke-opacity:1" d="M 168.101,422.385 182.885,426.82 z" id="boundary" inkscape:connector-curvature="0" />
	<path style="fill:none;stroke:red;stroke-width:1px;stroke-linecap:butt;stroke-linejoin:miter;stroke-opacity:1" d="M 174.015,304.113 181.407,289.329 z" id="boundary" inkscape:connector-curvature="0" />
	<path style="fill:none;stroke:red;stroke-width:1px;stroke-linecap:butt;stroke-linejoin:miter;stroke-opacity:1" d="M 181.407,289.329 196.191,284.894 z" id="boundary" inkscape:connector-curvature="0" />
	<path style="fill:none;stroke:red;stroke-width:1px;stroke-linecap:butt;stroke-linejoin:miter;stroke-opacity:1" d="M 182.885,426.82 196.191,434.212 z" id="boundary" inkscape:connector-curvature="0" />
	<path style="fill:none;stroke:red;stroke-width:1px;stroke-linecap:butt;stroke-linejoin:miter;stroke-opacity:1" d="M 196.191,284.894 210.975,284.894 z" id="boundary" inkscape:connector-curvature="0" />
	<path style="fill:none;stroke:red;stroke-width:1px;stroke-linecap:butt;stroke-linejoin:miter;stroke-opacity:1" d="M 196.191,434.212 209.496,441.604 z" id="boundary" inkscape:connector-curvature="0" />
	<path style="fill:none;stroke:red;stroke-width:1px;stroke-linecap:butt;stroke-linejoin:miter;stroke-opacity:1" d="M 209.496,441.604 224.28,441.604 z" id="boundary" inkscape:connector-curvature="0" />
	<path style="fill:none;stroke:red;stroke-width:1px;stroke-linecap:butt;stroke-linejoin:miter;stroke-opacity:1" d="M 210.975,284.894 225.759,284.894 z" id="boundary" inkscape:connector-curvature="0" />
	<path style="fill:none;stroke:red;stroke-width:1px;stroke-linecap:butt;stroke-linejoin:miter;stroke-opacity:1" d="M 224.28,441.604 239.064,441.604 z" id="boundary" inkscape:connector-curvature="0" />
	<path style="fill:none;stroke:red;stroke-width:1px;stroke-linecap:butt;stroke-linejoin:miter;stroke-opacity:1" d="M 225.759,284.894 240.542,284.894 z" id="boundary" inkscape:connector-curvature="0" />
	<path style="fill:none;stroke:red;stroke-width:1px;stroke-linecap:butt;stroke-linejoin:miter;stroke-opacity:1" d="M 239.064,441.604 253.848,441.604 z" id="boundary" inkscape:connector-curvature="0" />
	<path style="fill:none;stroke:red;stroke-width:1px;stroke-linecap:butt;stroke-linejoin:miter;stroke-opacity:1" d="M 240.542,284.894 255.326,284.894 z" id="boundary" inkscape:connector-curvature="0" />
	<path style="fill:none;stroke:red;stroke-width:1px;stroke-linecap:butt;stroke-linejoin:miter;stroke-opacity:1" d="M 253.848,441.604 267.154,448.996 z" id="boundary" inkscape:connector-curvature="0" />
	<path style="fill:none;stroke:red;stroke-width:1px;stroke-linecap:butt;stroke-linejoin:miter;stroke-opacity:1" d="M 255.326,284.894 270.11,284.894 z" id="boundary" inkscape:connector-curvature="0" />
	<path style="fill:none;stroke:red;stroke-width:1px;stroke-linecap:butt;stroke-linejoin:miter;stroke-opacity:1" d="M 267.154,448.996 281.937,454.909 z" id="boundary" inkscape:connector-curvature="0" />
	<path style="fill:none;stroke:red;stroke-width:1px;stroke-linecap:butt;stroke-linejoin:miter;stroke-opacity:1" d="M 270.11,284.894 284.894,284.894 z" id="boundary" inkscape:connector-curvature="0" />
	<path style="fill:none;stroke:red;stroke-width:1px;stroke-linecap:butt;stroke-linejoin:miter;stroke-opacity:1" d="M 281.937,454.909 292.286,466.736 z" id="boundary" inkscape:connector-curvature="0" />
	<path style="fill:none;stroke:red;stroke-width:1px;stroke-linecap:butt;stroke-linejoin:miter;stroke-opacity:1" d="M 284.894,284.894 299.678,287.851 z" id="boundary" inkscape:connector-curvature="0" />
	<path style="fill:none;stroke:red;stroke-width:1px;stroke-linecap:butt;stroke-linejoin:miter;stroke-opacity:1" d="M 292.286,466.736 307.07,471.171 z" id="boundary" inkscape:connector-curvature="0" />
	<path style="fill:none;stroke:red;stroke-width:1px;stroke-linecap:butt;stroke-linejoin:miter;stroke-opacity:1" d="M 299.678,287.851 312.984,295.243 z" id="boundary" inkscape:connector-curvature="0" />
	<path style="fill:none;stroke:red;stroke-width:1px;stroke-linecap:butt;stroke-linejoin:miter;stroke-opacity:1" d="M 307.07,471.171 321.854,471.171 z" id="boundary" inkscape:connector-curvature="0" />
	<path style="fill:none;stroke:red;stroke-width:1px;stroke-linecap:butt;stroke-linejoin:miter;stroke-opacity:1" d="M 312.984,295.243 327.768,301.156 z" id="boundary" inkscape:connector-curvature="0" />
	<path style="fill:none;stroke:red;stroke-width:1px;stroke-linecap:butt;stroke-linejoin:miter;stroke-opacity:1" d="M 321.854,471.171 335.159,478.563 z" id="boundary" inkscape:connector-curvature="0" />
	<path style="fill:none;stroke:red;stroke-width:1px;stroke-linecap:butt;stroke-linejoin:miter;stroke-opacity:1" d="M 327.768,301.156 338.116,312.984 z" id="boundary" inkscape:connector-curvature="0" />
	<path style="fill:none;stroke:red;stroke-width:1px;stroke-linecap:butt;stroke-linejoin:miter;stroke-opacity:1" d="M 335.159,478.563 348.465,485.955 z" id="boundary" inkscape:connector-curvature="0" />
	<path style="fill:none;stroke:red;stroke-width:1px;stroke-linecap:butt;stroke-linejoin:miter;stroke-opacity:1" d="M 338.116,312.984 349.943,323.332 z" id="boundary" inkscape:connector-curvature="0" />
	<path style="fill:none;stroke:red;stroke-width:1px;stroke-linecap:butt;stroke-linejoin:miter;stroke-opacity:1" d="M 348.465,485.955 361.77,493.347 z" id="boundary" inkscape:connector-curvature="0" />
	<path style="fill:none;stroke:red;stroke-width:1px;stroke-linecap:butt;stroke-linejoin:miter;stroke-opacity:1" d="M 349.943,323.332 364.727,329.246 z" id="boundary" inkscape:connector-curvature="0" />
	<path style="fill:none;stroke:red;stroke-width:1px;stroke-linecap:butt;stroke-linejoin:miter;stroke-opacity:1" d="M 361.77,493.347 375.076,500.739 z" id="boundary" inkscape:connector-curvature="0" />
	<path style="fill:none;stroke:red;stroke-width:1px;stroke-linecap:butt;stroke-linejoin:miter;stroke-opacity:1" d="M 364.727,329.246 370.641,314.462 z" id="boundary" inkscape:connector-curvature="0" />
	<path style="fill:none;stroke:red;stroke-width:1px;stroke-linecap:butt;stroke-linejoin:miter;stroke-opacity:1" d="M 370.641,314.462 382.468,302.635 z" id="boundary" inkscape:connector-curvature="0" />
	<path style="fill:none;stroke:red;stroke-width:1px;stroke-linecap:butt;stroke-linejoin:miter;stroke-opacity:1" d="M 375.076,500.739 389.86,503.696 z" id="boundary" inkscape:connector-curvature="0" />
	<path style="fill:none;stroke:red;stroke-width:1px;stroke-linecap:butt;stroke-linejoin:miter;stroke-opacity:1" d="M 382.468,302.635 389.86,287.851 z" id="boundary" inkscape:connector-curvature="0" />
	<path style="fill:none;stroke:red;stroke-width:1px;stroke-linecap:butt;stroke-linejoin:miter;stroke-opacity:1" d="M 389.86,287.851 404.644,280.459 z" id="boundary" inkscape:connector-curvature="0" />
	<path style="fill:none;stroke:red;stroke-width:1px;stroke-linecap:butt;stroke-linejoin:miter;stroke-opacity:1" d="M 389.86,503.696 404.644,508.131 z" id="boundary" inkscape:connector-curvature="0" />
	<path style="fill:none;stroke:red;stroke-width:1px;stroke-linecap:butt;stroke-linejoin:miter;stroke-opacity:1" d="M 404.644,280.459 416.471,270.11 z" id="boundary" inkscape:connector-curvature="0" />
	<path style="fill:none;stroke:red;stroke-width:1px;stroke-linecap:butt;stroke-linejoin:miter;stroke-opacity:1" d="M 404.644,508.131 417.949,515.523 z" id="boundary" inkscape:connector-curvature="0" />
	<path style="fill:none;stroke:red;stroke-width:1px;stroke-linecap:butt;stroke-linejoin:miter;stroke-opacity:1" d="M 416.471,270.11 429.776,262.718 z" id="boundary" inkscape:connector-curvature="0" />
	<path style="fill:none;stroke:red;stroke-width:1px;stroke-linecap:butt;stroke-linejoin:miter;stroke-opacity:1" d="M 417.949,515.523 431.255,522.915 z" id="boundary" inkscape:connector-curvature="0" />
	<path style="fill:none;stroke:red;stroke-width:1px;stroke-linecap:butt;stroke-linejoin:miter;stroke-opacity:1" d="M 429.776,262.718 441.604,250.891 z" id="boundary" inkscape:connector-curvature="0" />
	<path style="fill:none;stroke:red;stroke-width:1px;stroke-linecap:butt;stroke-linejoin:miter;stroke-opacity:1" d="M 431.255,522.915 446.039,522.915 z" id="boundary" inkscape:connector-curvature="0" />
	<path style="fill:none;stroke:red;stroke-width:1px;stroke-linecap:butt;stroke-linejoin:miter;stroke-opacity:1" d="M 441.604,250.891 453.431,240.542 z" id="boundary" inkscape:connector-curvature="0" />
	<path style="fill:none;stroke:red;stroke-width:1px;stroke-linecap:butt;stroke-linejoin:miter;stroke-opacity:1" d="M 446.039,522.915 459.344,530.307 z" id="boundary" inkscape:connector-curvature="0" />
	<path style="fill:none;stroke:red;stroke-width:1px;stroke-linecap:butt;stroke-linejoin:miter;stroke-opacity:1" d="M 453.431,240.542 466.736,233.151 z" id="boundary" inkscape:connector-curvature="0" />
	<path style="fill:none;stroke:red;stroke-width:1px;stroke-linecap:butt;stroke-linejoin:miter;stroke-opacity:1" d="M 459.344,530.307 474.128,530.307 z" id="boundary" inkscape:connector-curvature="0" />
	<path style="fill:none;stroke:red;stroke-width:1px;stroke-linecap:butt;stroke-linejoin:miter;stroke-opacity:1" d="M 466.736,233.151 478.563,221.323 z" id="boundary" inkscape:connector-curvature="0" />
	<path style="fill:none;stroke:red;stroke-width:1px;stroke-linecap:butt;stroke-linejoin:miter;stroke-opacity:1" d="M 474.128,530.307 488.912,530.307 z" id="boundary" inkscape:connector-curvature="0" />
	<path style="fill:none;stroke:red;stroke-width:1px;stroke-linecap:butt;stroke-linejoin:miter;stroke-opacity:1" d="M 478.563,221.323 493.347,213.931 z" id="boundary" inkscape:connector-curvature="0" />
	<path style="fill:none;stroke:red;stroke-width:1px;stroke-linecap:butt;stroke-linejoin:miter;stroke-opacity:1" d="M 488.912,530.307 503.696,530.307 z" id="boundary" inkscape:connector-curvature="0" />
	<path style="fill:none;stroke:red;stroke-width:1px;stroke-linecap:butt;stroke-linejoin:miter;stroke-opacity:1" d="M 493.347,213.931 508.131,210.975 z" id="boundary" inkscape:connector-curvature="0" />
	<path style="fill:none;stroke:red;stroke-width:1px;stroke-linecap:butt;stroke-linejoin:miter;stroke-opacity:1" d="M 503.696,530.307 518.48,530.307 z" id="boundary" inkscape:connector-curvature="0" />
	<path style="fill:none;stroke:red;stroke-width:1px;stroke-linecap:butt;stroke-linejoin:miter;stroke-opacity:1" d="M 508.131,210.975 521.437,203.583 z" id="boundary" inkscape:connector-curvature="0" />
	<path style="fill:none;stroke:red;stroke-width:1px;stroke-linecap:butt;stroke-linejoin:miter;stroke-opacity:1" d="M 518.48,530.307 533.264,530.307 z" id="boundary" inkscape:connector-curvature="0" />
	<path style="fill:none;stroke:red;stroke-width:1px;stroke-linecap:butt;stroke-linejoin:miter;stroke-opacity:1" d="M 521.437,203.583 530.307,191.756 z" id="boundary" inkscape:connector-curvature="0" />
	<path style="fill:none;stroke:red;stroke-width:1px;stroke-linecap:butt;stroke-linejoin:miter;stroke-opacity:1" d="M 521.437,695.887 521.437,710.671 z" id="boundary" inkscape:connector-curvature="0" />
	<path style="fill:none;stroke:red;stroke-width:1px;stroke-linecap:butt;stroke-linejoin:miter;stroke-opacity:1" d="M 521.437,695.887 533.264,684.06 z" id="boundary" inkscape:connector-curvature="0" />
	<path style="fill:none;stroke:red;stroke-width:1px;stroke-linecap:butt;stroke-linejoin:miter;stroke-opacity:1" d="M 521.437,710.671 528.829,723.976 z" id="boundary" inkscape:connector-curvature="0" />
	<path style="fill:none;stroke:red;stroke-width:1px;stroke-linecap:butt;stroke-linejoin:miter;stroke-opacity:1" d="M 528.829,723.976 543.613,729.89 z" id="boundary" inkscape:connector-curvature="0" />
	<path style="fill:none;stroke:red;stroke-width:1px;stroke-linecap:butt;stroke-linejoin:miter;stroke-opacity:1" d="M 530.307,191.756 545.091,184.364 z" id="boundary" inkscape:connector-curvature="0" />
	<path style="fill:none;stroke:red;stroke-width:1px;stroke-linecap:butt;stroke-linejoin:miter;stroke-opacity:1" d="M 533.264,530.307 548.048,530.307 z" id="boundary" inkscape:connector-curvature="0" />
	<path style="fill:none;stroke:red;stroke-width:1px;stroke-linecap:butt;stroke-linejoin:miter;stroke-opacity:1" d="M 533.264,684.06 543.613,666.319 z" id="boundary" inkscape:connector-curvature="0" />
	<path style="fill:none;stroke:red;stroke-width:1px;stroke-linecap:butt;stroke-linejoin:miter;stroke-opacity:1" d="M 543.613,666.319 558.396,658.927 z" id="boundary" inkscape:connector-curvature="0" />
	<path style="fill:none;stroke:red;stroke-width:1px;stroke-linecap:butt;stroke-linejoin:miter;stroke-opacity:1" d="M 543.613,729.89 552.483,715.106 z" id="boundary" inkscape:connector-curvature="0" />
	<path style="fill:none;stroke:red;stroke-width:1px;stroke-linecap:butt;stroke-linejoin:miter;stroke-opacity:1" d="M 545.091,184.364 556.918,174.015 z" id="boundary" inkscape:connector-curvature="0" />
	<path style="fill:none;stroke:red;stroke-width:1px;stroke-linecap:butt;stroke-linejoin:miter;stroke-opacity:1" d="M 548.048,530.307 562.832,528.829 z" id="boundary" inkscape:connector-curvature="0" />
	<path style="fill:none;stroke:red;stroke-width:1px;stroke-linecap:butt;stroke-linejoin:miter;stroke-opacity:1" d="M 552.483,715.106 565.788,707.714 z" id="boundary" inkscape:connector-curvature="0" />
	<path style="fill:none;stroke:red;stroke-width:1px;stroke-linecap:butt;stroke-linejoin:miter;stroke-opacity:1" d="M 556.918,174.015 571.702,174.015 z" id="boundary" inkscape:connector-curvature="0" />
	<path style="fill:none;stroke:red;stroke-width:1px;stroke-linecap:butt;stroke-linejoin:miter;stroke-opacity:1" d="M 558.396,658.927 565.788,644.143 z" id="boundary" inkscape:connector-curvature="0" />
	<path style="fill:none;stroke:red;stroke-width:1px;stroke-linecap:butt;stroke-linejoin:miter;stroke-opacity:1" d="M 562.832,528.829 577.615,522.915 z" id="boundary" inkscape:connector-curvature="0" />
	<path style="fill:none;stroke:red;stroke-width:1px;stroke-linecap:butt;stroke-linejoin:miter;stroke-opacity:1" d="M 565.788,644.143 573.18,629.359 z" id="boundary" inkscape:connector-curvature="0" />
	<path style="fill:none;stroke:red;stroke-width:1px;stroke-linecap:butt;stroke-linejoin:miter;stroke-opacity:1" d="M 565.788,707.714 579.094,700.322 z" id="boundary" inkscape:connector-curvature="0" />
	<path style="fill:none;stroke:red;stroke-width:1px;stroke-linecap:butt;stroke-linejoin:miter;stroke-opacity:1" d="M 571.702,174.015 585.007,166.623 z" id="boundary" inkscape:connector-curvature="0" />
	<path style="fill:none;stroke:red;stroke-width:1px;stroke-linecap:butt;stroke-linejoin:miter;stroke-opacity:1" d="M 573.18,629.359 585.007,617.532 z" id="boundary" inkscape:connector-curvature="0" />
	<path style="fill:none;stroke:red;stroke-width:1px;stroke-linecap:butt;stroke-linejoin:miter;stroke-opacity:1" d="M 577.615,522.915 590.921,515.523 z" id="boundary" inkscape:connector-curvature="0" />
	<path style="fill:none;stroke:red;stroke-width:1px;stroke-linecap:butt;stroke-linejoin:miter;stroke-opacity:1" d="M 579.094,700.322 592.399,691.452 z" id="boundary" inkscape:connector-curvature="0" />
	<path style="fill:none;stroke:red;stroke-width:1px;stroke-linecap:butt;stroke-linejoin:miter;stroke-opacity:1" d="M 585.007,166.623 599.791,159.231 z" id="boundary" inkscape:connector-curvature="0" />
	<path style="fill:none;stroke:red;stroke-width:1px;stroke-linecap:butt;stroke-linejoin:miter;stroke-opacity:1" d="M 585.007,617.532 595.356,599.791 z" id="boundary" inkscape:connector-curvature="0" />
	<path style="fill:none;stroke:red;stroke-width:1px;stroke-linecap:butt;stroke-linejoin:miter;stroke-opacity:1" d="M 590.921,515.523 604.227,508.131 z" id="boundary" inkscape:connector-curvature="0" />
	<path style="fill:none;stroke:red;stroke-width:1px;stroke-linecap:butt;stroke-linejoin:miter;stroke-opacity:1" d="M 592.399,691.452 604.227,669.276 z" id="boundary" inkscape:connector-curvature="0" />
	<path style="fill:none;stroke:red;stroke-width:1px;stroke-linecap:butt;stroke-linejoin:miter;stroke-opacity:1" d="M 595.356,599.791 602.748,585.007 z" id="boundary" inkscape:connector-curvature="0" />
	<path style="fill:none;stroke:red;stroke-width:1px;stroke-linecap:butt;stroke-linejoin:miter;stroke-opacity:1" d="M 596.835,641.186 596.835,655.97 z" id="boundary" inkscape:connector-curvature="0" />
	<path style="fill:none;stroke:red;stroke-width:1px;stroke-linecap:butt;stroke-linejoin:miter;stroke-opacity:1" d="M 596.835,641.186 604.227,619.01 z" id="boundary" inkscape:connector-curvature="0" />
	<path style="fill:none;stroke:red;stroke-width:1px;stroke-linecap:butt;stroke-linejoin:miter;stroke-opacity:1" d="M 596.835,655.97 604.227,669.276 z" id="boundary" inkscape:connector-curvature="0" />
	<path style="fill:none;stroke:red;stroke-width:1px;stroke-linecap:butt;stroke-linejoin:miter;stroke-opacity:1" d="M 599.791,159.231 613.097,151.839 z" id="boundary" inkscape:connector-curvature="0" />
	<path style="fill:none;stroke:red;stroke-width:1px;stroke-linecap:butt;stroke-linejoin:miter;stroke-opacity:1" d="M 602.748,585.007 610.14,562.832 z" id="boundary" inkscape:connector-curvature="0" />
	<path style="fill:none;stroke:red;stroke-width:1px;stroke-linecap:butt;stroke-linejoin:miter;stroke-opacity:1" d="M 604.227,508.131 619.01,508.131 z" id="boundary" inkscape:connector-curvature="0" />
	<path style="fill:none;stroke:red;stroke-width:1px;stroke-linecap:butt;stroke-linejoin:miter;stroke-opacity:1" d="M 604.227,619.01 616.054,608.662 z" id="boundary" inkscape:connector-curvature="0" />
	<path style="fill:none;stroke:red;stroke-width:1px;stroke-linecap:butt;stroke-linejoin:miter;stroke-opacity:1" d="M 610.14,562.832 617.532,548.048 z" id="boundary" inkscape:connector-curvature="0" />
	<path style="fill:none;stroke:red;stroke-width:1px;stroke-linecap:butt;stroke-linejoin:miter;stroke-opacity:1" d="M 613.097,151.839 627.881,151.839 z" id="boundary" inkscape:connector-curvature="0" />
	<path style="fill:none;stroke:red;stroke-width:1px;stroke-linecap:butt;stroke-linejoin:miter;stroke-opacity:1" d="M 616.054,608.662 626.402,589.443 z" id="boundary" inkscape:connector-curvature="0" />
	<path style="fill:none;stroke:red;stroke-width:1px;stroke-linecap:butt;stroke-linejoin:miter;stroke-opacity:1" d="M 617.532,548.048 624.924,522.915 z" id="boundary" inkscape:connector-curvature="0" />
	<path style="fill:none;stroke:red;stroke-width:1px;stroke-linecap:butt;stroke-linejoin:miter;stroke-opacity:1" d="M 619.01,508.131 624.924,522.915 z" id="boundary" inkscape:connector-curvature="0" />
	<path style="fill:none;stroke:red;stroke-width:1px;stroke-linecap:butt;stroke-linejoin:miter;stroke-opacity:1" d="M 626.402,589.443 633.794,574.659 z" id="boundary" inkscape:connector-curvature="0" />
	<path style="fill:none;stroke:red;stroke-width:1px;stroke-linecap:butt;stroke-linejoin:miter;stroke-opacity:1" d="M 627.881,151.839 642.665,151.839 z" id="boundary" inkscape:connector-curvature="0" />
	<path style="fill:none;stroke:red;stroke-width:1px;stroke-linecap:butt;stroke-linejoin:miter;stroke-opacity:1" d="M 633.794,574.659 641.186,559.875 z" id="boundary" inkscape:connector-curvature="0" />
	<path style="fill:none;stroke:red;stroke-width:1px;stroke-linecap:butt;stroke-linejoin:miter;stroke-opacity:1" d="M 641.186,559.875 648.578,545.091 z" id="boundary" inkscape:connector-curvature="0" />
	<path style="fill:none;stroke:red;stroke-width:1px;stroke-linecap:butt;stroke-linejoin:miter;stroke-opacity:1" d="M 642.665,151.839 657.449,151.839 z" id="boundary" inkscape:connector-curvature="0" />
	<path style="fill:none;stroke:red;stroke-width:1px;stroke-linecap:butt;stroke-linejoin:miter;stroke-opacity:1" d="M 648.578,493.347 648.578,508.131 z" id="boundary" inkscape:connector-curvature="0" />
	<path style="fill:none;stroke:red;stroke-width:1px;stroke-linecap:butt;stroke-linejoin:miter;stroke-opacity:1" d="M 648.578,493.347 661.884,485.955 z" id="boundary" inkscape:connector-curvature="0" />
	<path style="fill:none;stroke:red;stroke-width:1px;stroke-linecap:butt;stroke-linejoin:miter;stroke-opacity:1" d="M 648.578,508.131 651.535,522.915 z" id="boundary" inkscape:connector-curvature="0" />
	<path style="fill:none;stroke:red;stroke-width:1px;stroke-linecap:butt;stroke-linejoin:miter;stroke-opacity:1" d="M 648.578,545.091 651.535,522.915 z" id="boundary" inkscape:connector-curvature="0" />
	<path style="fill:none;stroke:red;stroke-width:1px;stroke-linecap:butt;stroke-linejoin:miter;stroke-opacity:1" d="M 657.449,151.839 670.754,144.447 z" id="boundary" inkscape:connector-curvature="0" />
	<path style="fill:none;stroke:red;stroke-width:1px;stroke-linecap:butt;stroke-linejoin:miter;stroke-opacity:1" d="M 661.884,485.955 673.711,477.085 z" id="boundary" inkscape:connector-curvature="0" />
	<path style="fill:none;stroke:red;stroke-width:1px;stroke-linecap:butt;stroke-linejoin:miter;stroke-opacity:1" d="M 670.754,144.447 684.06,137.055 z" id="boundary" inkscape:connector-curvature="0" />
	<path style="fill:none;stroke:red;stroke-width:1px;stroke-linecap:butt;stroke-linejoin:miter;stroke-opacity:1" d="M 673.711,477.085 688.495,471.171 z" id="boundary" inkscape:connector-curvature="0" />
	<path style="fill:none;stroke:red;stroke-width:1px;stroke-linecap:butt;stroke-linejoin:miter;stroke-opacity:1" d="M 684.06,137.055 698.844,137.055 z" id="boundary" inkscape:connector-curvature="0" />
	<path style="fill:none;stroke:red;stroke-width:1px;stroke-linecap:butt;stroke-linejoin:miter;stroke-opacity:1" d="M 688.495,471.171 703.279,471.171 z" id="boundary" inkscape:connector-curvature="0" />
	<path style="fill:none;stroke:red;stroke-width:1px;stroke-linecap:butt;stroke-linejoin:miter;stroke-opacity:1" d="M 698.844,137.055 712.149,129.663 z" id="boundary" inkscape:connector-curvature="0" />
	<path style="fill:none;stroke:red;stroke-width:1px;stroke-linecap:butt;stroke-linejoin:miter;stroke-opacity:1" d="M 703.279,471.171 718.063,477.085 z" id="boundary" inkscape:connector-curvature="0" />
	<path style="fill:none;stroke:red;stroke-width:1px;stroke-linecap:butt;stroke-linejoin:miter;stroke-opacity:1" d="M 706.235,658.927 718.063,669.276 z" id="boundary" inkscape:connector-curvature="0" />
	<path style="fill:none;stroke:red;stroke-width:1px;stroke-linecap:butt;stroke-linejoin:miter;stroke-opacity:1" d="M 706.235,658.927 721.019,651.535 z" id="boundary" inkscape:connector-curvature="0" />
	<path style="fill:none;stroke:red;stroke-width:1px;stroke-linecap:butt;stroke-linejoin:miter;stroke-opacity:1" d="M 712.149,129.663 726.933,129.663 z" id="boundary" inkscape:connector-curvature="0" />
	<path style="fill:none;stroke:red;stroke-width:1px;stroke-linecap:butt;stroke-linejoin:miter;stroke-opacity:1" d="M 718.063,669.276 732.846,670.754 z" id="boundary" inkscape:connector-curvature="0" />
	<path style="fill:none;stroke:red;stroke-width:1px;stroke-linecap:butt;stroke-linejoin:miter;stroke-opacity:1" d="M 721.019,651.535 732.846,639.708 z" id="boundary" inkscape:connector-curvature="0" />
	<path style="fill:none;stroke:red;stroke-width:1px;stroke-linecap:butt;stroke-linejoin:miter;stroke-opacity:1" d="M 722.498,441.604 722.498,456.387 z" id="boundary" inkscape:connector-curvature="0" />
	<path style="fill:none;stroke:red;stroke-width:1px;stroke-linecap:butt;stroke-linejoin:miter;stroke-opacity:1" d="M 722.498,441.604 734.325,431.255 z" id="boundary" inkscape:connector-curvature="0" />
	<path style="fill:none;stroke:red;stroke-width:1px;stroke-linecap:butt;stroke-linejoin:miter;stroke-opacity:1" d="M 722.498,456.387 731.368,469.693 z" id="boundary" inkscape:connector-curvature="0" />
	<path style="fill:none;stroke:red;stroke-width:1px;stroke-linecap:butt;stroke-linejoin:miter;stroke-opacity:1" d="M 726.933,129.663 740.238,122.271 z" id="boundary" inkscape:connector-curvature="0" />
	<path style="fill:none;stroke:red;stroke-width:1px;stroke-linecap:butt;stroke-linejoin:miter;stroke-opacity:1" d="M 728.411,511.088 728.411,525.872 z" id="boundary" inkscape:connector-curvature="0" />
	<path style="fill:none;stroke:red;stroke-width:1px;stroke-linecap:butt;stroke-linejoin:miter;stroke-opacity:1" d="M 728.411,511.088 744.674,522.915 z" id="boundary" inkscape:connector-curvature="0" />
	<path style="fill:none;stroke:red;stroke-width:1px;stroke-linecap:butt;stroke-linejoin:miter;stroke-opacity:1" d="M 728.411,525.872 728.411,540.656 z" id="boundary" inkscape:connector-curvature="0" />
	<path style="fill:none;stroke:red;stroke-width:1px;stroke-linecap:butt;stroke-linejoin:miter;stroke-opacity:1" d="M 728.411,540.656 728.411,555.44 z" id="boundary" inkscape:connector-curvature="0" />
	<path style="fill:none;stroke:red;stroke-width:1px;stroke-linecap:butt;stroke-linejoin:miter;stroke-opacity:1" d="M 728.411,555.44 728.411,570.224 z" id="boundary" inkscape:connector-curvature="0" />
	<path style="fill:none;stroke:red;stroke-width:1px;stroke-linecap:butt;stroke-linejoin:miter;stroke-opacity:1" d="M 728.411,570.224 728.411,585.007 z" id="boundary" inkscape:connector-curvature="0" />
	<path style="fill:none;stroke:red;stroke-width:1px;stroke-linecap:butt;stroke-linejoin:miter;stroke-opacity:1" d="M 728.411,585.007 735.803,598.313 z" id="boundary" inkscape:connector-curvature="0" />
	<path style="fill:none;stroke:red;stroke-width:1px;stroke-linecap:butt;stroke-linejoin:miter;stroke-opacity:1" d="M 729.89,485.955 731.368,469.693 z" id="boundary" inkscape:connector-curvature="0" />
	<path style="fill:none;stroke:red;stroke-width:1px;stroke-linecap:butt;stroke-linejoin:miter;stroke-opacity:1" d="M 729.89,485.955 752.066,499.261 z" id="boundary" inkscape:connector-curvature="0" />
	<path style="fill:none;stroke:red;stroke-width:1px;stroke-linecap:butt;stroke-linejoin:miter;stroke-opacity:1" d="M 732.846,639.708 735.803,613.097 z" id="boundary" inkscape:connector-curvature="0" />
	<path style="fill:none;stroke:red;stroke-width:1px;stroke-linecap:butt;stroke-linejoin:miter;stroke-opacity:1" d="M 732.846,670.754 747.63,669.276 z" id="boundary" inkscape:connector-curvature="0" />
	<path style="fill:none;stroke:red;stroke-width:1px;stroke-linecap:butt;stroke-linejoin:miter;stroke-opacity:1" d="M 734.325,431.255 737.282,412.036 z" id="boundary" inkscape:connector-curvature="0" />
	<path style="fill:none;stroke:red;stroke-width:1px;stroke-linecap:butt;stroke-linejoin:miter;stroke-opacity:1" d="M 735.803,598.313 735.803,613.097 z" id="boundary" inkscape:connector-curvature="0" />
	<path style="fill:none;stroke:red;stroke-width:1px;stroke-linecap:butt;stroke-linejoin:miter;stroke-opacity:1" d="M 737.282,412.036 752.066,397.252 z" id="boundary" inkscape:connector-curvature="0" />
	<path style="fill:none;stroke:red;stroke-width:1px;stroke-linecap:butt;stroke-linejoin:miter;stroke-opacity:1" d="M 740.238,122.271 755.022,114.879 z" id="boundary" inkscape:connector-curvature="0" />
	<path style="fill:none;stroke:red;stroke-width:1px;stroke-linecap:butt;stroke-linejoin:miter;stroke-opacity:1" d="M 744.674,522.915 744.674,537.699 z" id="boundary" inkscape:connector-curvature="0" />
	<path style="fill:none;stroke:red;stroke-width:1px;stroke-linecap:butt;stroke-linejoin:miter;stroke-opacity:1" d="M 744.674,537.699 744.674,552.483 z" id="boundary" inkscape:connector-curvature="0" />
	<path style="fill:none;stroke:red;stroke-width:1px;stroke-linecap:butt;stroke-linejoin:miter;stroke-opacity:1" d="M 744.674,552.483 744.674,567.267 z" id="boundary" inkscape:connector-curvature="0" />
	<path style="fill:none;stroke:red;stroke-width:1px;stroke-linecap:butt;stroke-linejoin:miter;stroke-opacity:1" d="M 744.674,567.267 747.63,582.051 z" id="boundary" inkscape:connector-curvature="0" />
	<path style="fill:none;stroke:red;stroke-width:1px;stroke-linecap:butt;stroke-linejoin:miter;stroke-opacity:1" d="M 746.152,469.693 752.066,484.477 z" id="boundary" inkscape:connector-curvature="0" />
	<path style="fill:none;stroke:red;stroke-width:1px;stroke-linecap:butt;stroke-linejoin:miter;stroke-opacity:1" d="M 747.63,582.051 752.066,596.835 z" id="boundary" inkscape:connector-curvature="0" />
	<path style="fill:none;stroke:red;stroke-width:1px;stroke-linecap:butt;stroke-linejoin:miter;stroke-opacity:1" d="M 747.63,669.276 759.458,654.492 z" id="boundary" inkscape:connector-curvature="0" />
	<path style="fill:none;stroke:red;stroke-width:1px;stroke-linecap:butt;stroke-linejoin:miter;stroke-opacity:1" d="M 752.066,397.252 759.458,382.468 z" id="boundary" inkscape:connector-curvature="0" />
	<path style="fill:none;stroke:red;stroke-width:1px;stroke-linecap:butt;stroke-linejoin:miter;stroke-opacity:1" d="M 752.066,484.477 752.066,499.261 z" id="boundary" inkscape:connector-curvature="0" />
	<path style="fill:none;stroke:red;stroke-width:1px;stroke-linecap:butt;stroke-linejoin:miter;stroke-opacity:1" d="M 752.066,596.835 752.066,611.618 z" id="boundary" inkscape:connector-curvature="0" />
	<path style="fill:none;stroke:red;stroke-width:1px;stroke-linecap:butt;stroke-linejoin:miter;stroke-opacity:1" d="M 752.066,611.618 752.066,626.402 z" id="boundary" inkscape:connector-curvature="0" />
	<path style="fill:none;stroke:red;stroke-width:1px;stroke-linecap:butt;stroke-linejoin:miter;stroke-opacity:1" d="M 752.066,626.402 759.458,639.708 z" id="boundary" inkscape:connector-curvature="0" />
	<path style="fill:none;stroke:red;stroke-width:1px;stroke-linecap:butt;stroke-linejoin:miter;stroke-opacity:1" d="M 755.022,114.879 768.328,107.487 z" id="boundary" inkscape:connector-curvature="0" />
	<path style="fill:none;stroke:red;stroke-width:1px;stroke-linecap:butt;stroke-linejoin:miter;stroke-opacity:1" d="M 759.458,382.468 766.849,367.684 z" id="boundary" inkscape:connector-curvature="0" />
	<path style="fill:none;stroke:red;stroke-width:1px;stroke-linecap:butt;stroke-linejoin:miter;stroke-opacity:1" d="M 759.458,639.708 759.458,654.492 z" id="boundary" inkscape:connector-curvature="0" />
	<path style="fill:none;stroke:red;stroke-width:1px;stroke-linecap:butt;stroke-linejoin:miter;stroke-opacity:1" d="M 766.849,367.684 774.241,352.9 z" id="boundary" inkscape:connector-curvature="0" />
	<path style="fill:none;stroke:red;stroke-width:1px;stroke-linecap:butt;stroke-linejoin:miter;stroke-opacity:1" d="M 768.328,107.487 783.112,101.574 z" id="boundary" inkscape:connector-curvature="0" />
	<path style="fill:none;stroke:red;stroke-width:1px;stroke-linecap:butt;stroke-linejoin:miter;stroke-opacity:1" d="M 774.241,352.9 786.069,342.551 z" id="boundary" inkscape:connector-curvature="0" />
	<path style="fill:none;stroke:red;stroke-width:1px;stroke-linecap:butt;stroke-linejoin:miter;stroke-opacity:1" d="M 783.112,101.574 797.896,94.1818 z" id="boundary" inkscape:connector-curvature="0" />
	<path style="fill:none;stroke:red;stroke-width:1px;stroke-linecap:butt;stroke-linejoin:miter;stroke-opacity:1" d="M 786.069,342.551 793.461,327.768 z" id="boundary" inkscape:connector-curvature="0" />
	<path style="fill:none;stroke:red;stroke-width:1px;stroke-linecap:butt;stroke-linejoin:miter;stroke-opacity:1" d="M 793.461,327.768 796.417,301.156 z" id="boundary" inkscape:connector-curvature="0" />
	<path style="fill:none;stroke:red;stroke-width:1px;stroke-linecap:butt;stroke-linejoin:miter;stroke-opacity:1" d="M 796.417,301.156 808.244,290.808 z" id="boundary" inkscape:connector-curvature="0" />
	<path style="fill:none;stroke:red;stroke-width:1px;stroke-linecap:butt;stroke-linejoin:miter;stroke-opacity:1" d="M 797.896,94.1818 812.68,92.7034 z" id="boundary" inkscape:connector-curvature="0" />
	<path style="fill:none;stroke:red;stroke-width:1px;stroke-linecap:butt;stroke-linejoin:miter;stroke-opacity:1" d="M 808.244,290.808 818.593,278.981 z" id="boundary" inkscape:connector-curvature="0" />
	<path style="fill:none;stroke:red;stroke-width:1px;stroke-linecap:butt;stroke-linejoin:miter;stroke-opacity:1" d="M 812.68,92.7034 825.985,85.3115 z" id="boundary" inkscape:connector-curvature="0" />
	<path style="fill:none;stroke:red;stroke-width:1px;stroke-linecap:butt;stroke-linejoin:miter;stroke-opacity:1" d="M 818.593,278.981 833.377,271.589 z" id="boundary" inkscape:connector-curvature="0" />
	<path style="fill:none;stroke:red;stroke-width:1px;stroke-linecap:butt;stroke-linejoin:miter;stroke-opacity:1" d="M 825.985,85.3115 840.769,80.8763 z" id="boundary" inkscape:connector-curvature="0" />
	<path style="fill:none;stroke:red;stroke-width:1px;stroke-linecap:butt;stroke-linejoin:miter;stroke-opacity:1" d="M 833.377,271.589 845.204,261.24 z" id="boundary" inkscape:connector-curvature="0" />
	<path style="fill:none;stroke:red;stroke-width:1px;stroke-linecap:butt;stroke-linejoin:miter;stroke-opacity:1" d="M 840.769,80.8763 855.553,77.9195 z" id="boundary" inkscape:connector-curvature="0" />
	<path style="fill:none;stroke:red;stroke-width:1px;stroke-linecap:butt;stroke-linejoin:miter;stroke-opacity:1" d="M 845.204,261.24 855.553,249.413 z" id="boundary" inkscape:connector-curvature="0" />
	<path style="fill:none;stroke:red;stroke-width:1px;stroke-linecap:butt;stroke-linejoin:miter;stroke-opacity:1" d="M 855.553,77.9195 868.858,70.5276 z" id="boundary" inkscape:connector-curvature="0" />
	<path style="fill:none;stroke:red;stroke-width:1px;stroke-linecap:butt;stroke-linejoin:miter;stroke-opacity:1" d="M 855.553,234.629 855.553,249.413 z" id="boundary" inkscape:connector-curvature="0" />
	<path style="fill:none;stroke:red;stroke-width:1px;stroke-linecap:butt;stroke-linejoin:miter;stroke-opacity:1" d="M 855.553,234.629 862.945,219.845 z" id="boundary" inkscape:connector-curvature="0" />
	<path style="fill:none;stroke:red;stroke-width:1px;stroke-linecap:butt;stroke-linejoin:miter;stroke-opacity:1" d="M 862.945,205.061 862.945,219.845 z" id="boundary" inkscape:connector-curvature="0" />
	<path style="fill:none;stroke:red;stroke-width:1px;stroke-linecap:butt;stroke-linejoin:miter;stroke-opacity:1" d="M 862.945,205.061 870.337,190.277 z" id="boundary" inkscape:connector-curvature="0" />
	<path style="fill:none;stroke:red;stroke-width:1px;stroke-linecap:butt;stroke-linejoin:miter;stroke-opacity:1" d="M 868.858,70.5276 883.642,67.5708 z" id="boundary" inkscape:connector-curvature="0" />
	<path style="fill:none;stroke:red;stroke-width:1px;stroke-linecap:butt;stroke-linejoin:miter;stroke-opacity:1" d="M 870.337,190.277 877.729,168.101 z" id="boundary" inkscape:connector-curvature="0" />
	<path style="fill:none;stroke:red;stroke-width:1px;stroke-linecap:butt;stroke-linejoin:miter;stroke-opacity:1" d="M 877.729,168.101 889.556,157.753 z" id="boundary" inkscape:connector-curvature="0" />
	<path style="fill:none;stroke:red;stroke-width:1px;stroke-linecap:butt;stroke-linejoin:miter;stroke-opacity:1" d="M 883.642,67.5708 898.426,60.1788 z" id="boundary" inkscape:connector-curvature="0" />
	<path style="fill:none;stroke:red;stroke-width:1px;stroke-linecap:butt;stroke-linejoin:miter;stroke-opacity:1" d="M 889.556,157.753 892.513,138.534 z" id="boundary" inkscape:connector-curvature="0" />
	<path style="fill:none;stroke:red;stroke-width:1px;stroke-linecap:butt;stroke-linejoin:miter;stroke-opacity:1" d="M 892.513,138.534 904.34,128.185 z" id="boundary" inkscape:connector-curvature="0" />
	<path style="fill:none;stroke:red;stroke-width:1px;stroke-linecap:butt;stroke-linejoin:miter;stroke-opacity:1" d="M 898.426,60.1788 913.21,52.7869 z" id="boundary" inkscape:connector-curvature="0" />
	<path style="fill:none;stroke:red;stroke-width:1px;stroke-linecap:butt;stroke-linejoin:miter;stroke-opacity:1" d="M 904.34,128.185 914.689,116.358 z" id="boundary" inkscape:connector-curvature="0" />
	<path style="fill:none;stroke:red;stroke-width:1px;stroke-linecap:butt;stroke-linejoin:miter;stroke-opacity:1" d="M 913.21,52.7869 927.994,48.3517 z" id="boundary" inkscape:connector-curvature="0" />
	<path style="fill:none;stroke:red;stroke-width:1px;stroke-linecap:butt;stroke-linejoin:miter;stroke-opacity:1" d="M 914.689,116.358 922.08,101.574 z" id="boundary" inkscape:connector-curvature="0" />
	<path style="fill:none;stroke:red;stroke-width:1px;stroke-linecap:butt;stroke-linejoin:miter;stroke-opacity:1" d="M 922.08,101.574 935.386,94.1818 z" id="boundary" inkscape:connector-curvature="0" />
	<path style="fill:none;stroke:red;stroke-width:1px;stroke-linecap:butt;stroke-linejoin:miter;stroke-opacity:1" d="M 927.994,48.3517 941.3,40.9598 z" id="boundary" inkscape:connector-curvature="0" />
	<path style="fill:none;stroke:red;stroke-width:1px;stroke-linecap:butt;stroke-linejoin:miter;stroke-opacity:1" d="M 935.386,94.1818 950.17,94.1818 z" id="boundary" inkscape:connector-curvature="0" />
	<path style="fill:none;stroke:red;stroke-width:1px;stroke-linecap:butt;stroke-linejoin:miter;stroke-opacity:1" d="M 941.3,40.9598 954.605,33.5678 z" id="boundary" inkscape:connector-curvature="0" />
	<path style="fill:none;stroke:red;stroke-width:1px;stroke-linecap:butt;stroke-linejoin:miter;stroke-opacity:1" d="M 950.17,94.1818 959.04,79.3979 z" id="boundary" inkscape:connector-curvature="0" />
	<path style="fill:none;stroke:red;stroke-width:1px;stroke-linecap:butt;stroke-linejoin:miter;stroke-opacity:1" d="M 954.605,33.5678 966.432,21.7407 z" id="boundary" inkscape:connector-curvature="0" />
	<path style="fill:none;stroke:red;stroke-width:1px;stroke-linecap:butt;stroke-linejoin:miter;stroke-opacity:1" d="M 959.04,79.3979 973.824,72.006 z" id="boundary" inkscape:connector-curvature="0" />
	<path style="fill:none;stroke:red;stroke-width:1px;stroke-linecap:butt;stroke-linejoin:miter;stroke-opacity:1" d="M 966.432,21.7407 973.824,6.95678 z" id="boundary" inkscape:connector-curvature="0" />
	<path style="fill:none;stroke:red;stroke-width:1px;stroke-linecap:butt;stroke-linejoin:miter;stroke-opacity:1" d="M 973.824,6.95678 988.608,4 z" id="boundary" inkscape:connector-curvature="0" />
	<path style="fill:none;stroke:red;stroke-width:1px;stroke-linecap:butt;stroke-linejoin:miter;stroke-opacity:1" d="M 973.824,72.006 981.216,57.2221 z" id="boundary" inkscape:connector-curvature="0" />
	<path style="fill:none;stroke:red;stroke-width:1px;stroke-linecap:butt;stroke-linejoin:miter;stroke-opacity:1" d="M 981.216,57.2221 988.608,35.0462 z" id="boundary" inkscape:connector-curvature="0" />
	<path style="fill:none;stroke:red;stroke-width:1px;stroke-linecap:butt;stroke-linejoin:miter;stroke-opacity:1" d="M 988.608,4 996,17.3055 z" id="boundary" inkscape:connector-curvature="0" />
	<path style="fill:none;stroke:red;stroke-width:1px;stroke-linecap:butt;stroke-linejoin:miter;stroke-opacity:1" d="M 988.608,35.0462 996,17.3055 z" id="boundary" inkscape:connector-curvature="0" />
	<circle cx="4" cy="414.993" r="4" fill="#0" id="circle0"/>
	<circle cx="11.392" cy="428.298" r="4" fill="#0" id="circle1"/>
	<circle cx="18.7839" cy="410.557" r="4" fill="#0" id="circle2"/>
	<circle cx="26.1759" cy="434.212" r="4" fill="#0" id="circle3"/>
	<circle cx="33.5678" cy="407.601" r="4" fill="#0" id="circle4"/>
	<circle cx="39.4814" cy="426.82" r="4" fill="#0" id="circle5"/>
	<circle cx="48.3517" cy="403.165" r="4" fill="#0" id="circle6"/>
	<circle cx="52.7869" cy="419.428" r="4" fill="#0" id="circle7"/>
	<circle cx="61.6572" cy="395.773" r="4" fill="#0" id="circle8"/>
	<circle cx="67.5708" cy="419.428" r="4" fill="#0" id="circle9"/>
	<circle cx="76.4411" cy="395.773" r="4" fill="#0" id="circle10"/>
	<circle cx="82.3547" cy="417.949" r="4" fill="#0" id="circle11"/>
	<circle cx="91.225" cy="395.773" r="4" fill="#0" id="circle12"/>
	<circle cx="97.1386" cy="412.036" r="4" fill="#0" id="circle13"/>
	<circle cx="104.531" cy="388.382" r="4" fill="#0" id="circle14"/>
	<circle cx="111.923" cy="412.036" r="4" fill="#0" id="circle15"/>
	<circle cx="119.314" cy="380.99" r="4" fill="#0" id="circle16"/>
	<circle cx="126.706" cy="412.036" r="4" fill="#0" id="circle17"/>
	<circle cx="132.62" cy="373.598" r="4" fill="#0" id="circle18"/>
	<circle cx="141.49" cy="412.036" r="4" fill="#0" id="circle19"/>
	<circle cx="144.447" cy="348.465" r="4" fill="#0" id="circle20"/>
	<circle cx="144.447" cy="363.249" r="4" fill="#0" id="circle21"/>
	<circle cx="156.274" cy="336.638" r="4" fill="#0" id="circle22"/>
	<circle cx="156.274" cy="412.036" r="4" fill="#0" id="circle23"/>
	<circle cx="159.231" cy="318.897" r="4" fill="#0" id="circle24"/>
	<circle cx="168.101" cy="422.385" r="4" fill="#0" id="circle25"/>
	<circle cx="174.015" cy="304.113" r="4" fill="#0" id="circle26"/>
	<circle cx="181.407" cy="289.329" r="4" fill="#0" id="circle27"/>
	<circle cx="182.885" cy="426.82" r="4" fill="#0" id="circle28"/>
	<circle cx="196.191" cy="284.894" r="4" fill="#0" id="circle29"/>
	<circle cx="196.191" cy="434.212" r="4" fill="#0" id="circle30"/>
	<circle cx="209.496" cy="441.604" r="4" fill="#0" id="circle31"/>
	<circle cx="210.975" cy="284.894" r="4" fill="#0" id="circle32"/>
	<circle cx="224.28" cy="441.604" r="4" fill="#0" id="circle33"/>
	<circle cx="225.759" cy="284.894" r="4" fill="#0" id="circle34"/>
	<circle cx="239.064" cy="441.604" r="4" fill="#0" id="circle35"/>
	<circle cx="240.542" cy="284.894" r="4" fill="#0" id="circle36"/>
	<circle cx="253.848" cy="441.604" r="4" fill="#0" id="circle37"/>
	<circle cx="255.326" cy="284.894" r="4" fill="#0" id="circle38"/>
	<circle cx="267.154" cy="448.996" r="4" fill="#0" id="circle39"/>
	<circle cx="270.11" cy="284.894" r="4" fill="#0" id="circle40"/>
	<circle cx="281.937" cy="454.909" r="4" fill="#0" id="circle41"/>
	<circle cx="284.894" cy="284.894" r="4" fill="#0" id="circle42"/>
	<circle cx="292.286" cy="466.736" r="4" fill="#0" id="circle43"/>
	<circle cx="299.678" cy="287.851" r="4" fill="#0" id="circle44"/>
	<circle cx="307.07" cy="471.171" r="4" fill="#0" id="circle45"/>
	<circle cx="312.984" cy="295.243" r="4" fill="#0" id="circle46"/>
	<circle cx="321.854" cy="471.171" r="4" fill="#0" id="circle47"/>
	<circle cx="327.768" cy="301.156" r="4" fill="#0" id="circle48"/>
	<circle cx="335.159" cy="478.563" r="4" fill="#0" id="circle49"/>
	<circle cx="338.116" cy="312.984" r="4" fill="#0" id="circle50"/>
	<circle cx="348.465" cy="485.955" r="4" fill="#0" id="circle51"/>
	<circle cx="349.943" cy="323.332" r="4" fill="#0" id="circle52"/>
	<circle cx="361.77" cy="493.347" r="4" fill="#0" id="circle53"/>
	<circle cx="364.727" cy="329.246" r="4" fill="#0" id="circle54"/>
	<circle cx="370.641" cy="314.462" r="4" fill="#0" id="circle55"/>
	<circle cx="375.076" cy="500.739" r="4" fill="#0" id="circle56"/>
	<circle cx="382.468" cy="302.635" r="4" fill="#0" id="circle57"/>
	<circle cx="389.86" cy="287.851" r="4" fill="#0" id="circle58"/>
	<circle cx="389.86" cy="503.696" r="4" fill="#0" id="circle59"/>
	<circle cx="404.644" cy="280.459" r="4" fill="#0" id="circle60"/>
	<circle cx="404.644" cy="508.131" r="4" fill="#0" id="circle61"/>
	<circle cx="416.471" cy="270.11" r="4" fill="#0" id="circle62"/>
	<circle cx="417.949" cy="515.523" r="4" fill="#0" id="circle63"/>
	<circle cx="429.776" cy="262.718" r="4" fill="#0" id="circle64"/>
	<circle cx="431.255" cy="522.915" r="4" fill="#0" id="circle65"/>
	<circle cx="441.604" cy="250.891" r="4" fill="#0" id="circle66"/>
	<circle cx="446.039" cy="522.915" r="4" fill="#0" id="circle67"/>
	<circle cx="453.431" cy="240.542" r="4" fill="#0" id="circle68"/>
	<circle cx="459.344" cy="530.307" r="4" fill="#0" id="circle69"/>
	<circle cx="466.736" cy="233.151" r="4" fill="#0" id="circle70"/>
	<circle cx="474.128" cy="530.307" r="4" fill="#0" id="circle71"/>
	<circle cx="478.563" cy="221.323" r="4" fill="#0" id="circle72"/>
	<circle cx="488.912" cy="530.307" r="4" fill="#0" id="circle73"/>
	<circle cx="493.347" cy="213.931" r="4" fill="#0" id="circle74"/>
	<circle cx="503.696" cy="530.307" r="4" fill="#0" id="circle75"/>
	<circle cx="508.131" cy="210.975" r="4" fill="#0" id="circle76"/>
	<circle cx="518.48" cy="530.307" r="4" fill="#0" id="circle77"/>
	<circle cx="521.437" cy="203.583" r="4" fill="#0" id="circle78"/>
	<circle cx="521.437" cy="695.887" r="4" fill="#0" id="circle79"/>
	<circle cx="521.437" cy="710.671" r="4" fill="#0" id="circle80"/>
	<circle cx="528.829" cy="723.976" r="4" fill="#0" id="circle81"/>
	<circle cx="530.307" cy="191.756" r="4" fill="#0" id="circle82"/>
	<circle cx="533.264" cy="530.307" r="4" fill="#0" id="circle83"/>
	<circle cx="533.264" cy="684.06" r="4" fill="#0" id="circle84"/>
	<circle cx="543.613" cy="666.319" r="4" fill="#0" id="circle85"/>
	<circle cx="543.613" cy="729.89" r="4" fill="#0" id="circle86"/>
	<circle cx="545.091" cy="184.364" r="4" fill="#0" id="circle87"/>
	<circle cx="548.048" cy="530.307" r="4" fill="#0" id="circle88"/>
	<circle cx="552.483" cy="715.106" r="4" fill="#0" id="circle89"/>
	<circle cx="556.918" cy="174.015" r="4" fill="#0" id="circle90"/>
	<circle cx="558.396" cy="658.927" r="4" fill="#0" id="circle91"/>
	<circle cx="562.832" cy="528.829" r="4" fill="#0" id="circle92"/>
	<circle cx="565.788" cy="644.143" r="4" fill="#0" id="circle93"/>
	<circle cx="565.788" cy="707.714" r="4" fill="#0" id="circle94"/>
	<circle cx="571.702" cy="174.015" r="4" fill="#0" id="circle95"/>
	<circle cx="573.18" cy="629.359" r="4" fill="#0" id="circle96"/>
	<circle cx="577.615" cy="522.915" r="4" fill="#0" id="circle97"/>
	<circle cx="579.094" cy="700.322" r="4" fill="#0" id="circle98"/>
	<circle cx="585.007" cy="166.623" r="4" fill="#0" id="circle99"/>
	<circle cx="585.007" cy="617.532" r="4" fill="#0" id="circle100"/>
	<circle cx="590.921" cy="515.523" r="4" fill="#0" id="circle101"/>
	<circle cx="592.399" cy="691.452" r="4" fill="#0" id="circle102"/>
	<circle cx="595.356" cy="599.791" r="4" fill="#0" id="circle103"/>
	<circle cx="596.835" cy="641.186" r="4" fill="#0" id="circle104"/>
	<circle cx="596.835" cy="655.97" r="4" fill="#0" id="circle105"/>
	<circle cx="599.791" cy="159.231" r="4" fill="#0" id="circle106"/>
	<circle cx="602.748" cy="585.007" r="4" fill="#0" id="circle107"/>
	<circle cx="604.227" cy="508.131" r="4" fill="#0" id="circle108"/>
	<circle cx="604.227" cy="619.01" r="4" fill="#0" id="circle109"/>
	<circle cx="604.227" cy="669.276" r="4" fill="#0" id="circle110"/>
	<circle cx="610.14" cy="562.832" r="4" fill="#0" id="circle111"/>
	<circle cx="613.097" cy="151.839" r="4" fill="#0" id="circle112"/>
	<circle cx="616.054" cy="608.662" r="4" fill="#0" id="circle113"/>
	<circle cx="617.532" cy="548.048" r="4" fill="#0" id="circle114"/>
	<circle cx="619.01" cy="508.131" r="4" fill="#0" id="circle115"/>
	<circle cx="624.924" cy="522.915" r="4" fill="#0" id="circle116"/>
	<circle cx="626.402" cy="589.443" r="4" fill="#0" id="circle117"/>
	<circle cx="627.881" cy="151.839" r="4" fill="#0" id="circle118"/>
	<circle cx="633.794" cy="574.659" r="4" fill="#0" id="circle119"/>
	<circle cx="641.186" cy="559.875" r="4" fill="#0" id="circle120"/>
	<circle cx="642.665" cy="151.839" r="4" fill="#0" id="circle121"/>
	<circle cx="648.578" cy="493.347" r="4" fill="#0" id="circle122"/>
	<circle cx="648.578" cy="508.131" r="4" fill="#0" id="circle123"/>
	<circle cx="648.578" cy="545.091" r="4" fill="#0" id="circle124"/>
	<circle cx="651.535" cy="522.915" r="4" fill="#0" id="circle125"/>
	<circle cx="657.449" cy="151.839" r="4" fill="#0" id="circle126"/>
	<circle cx="661.884" cy="485.955" r="4" fill="#0" id="circle127"/>
	<circle cx="670.754" cy="144.447" r="4" fill="#0" id="circle128"/>
	<circle cx="673.711" cy="477.085" r="4" fill="#0" id="circle129"/>
	<circle cx="684.06" cy="137.055" r="4" fill="#0" id="circle130"/>
	<circle cx="688.495" cy="471.171" r="4" fill="#0" id="circle131"/>
	<circle cx="698.844" cy="137.055" r="4" fill="#0" id="circle132"/>
	<circle cx="703.279" cy="471.171" r="4" fill="#0" id="circle133"/>
	<circle cx="706.235" cy="658.927" r="4" fill="#0" id="circle134"/>
	<circle cx="712.149" cy="129.663" r="4" fill="#0" id="circle135"/>
	<circle cx="718.063" cy="477.085" r="4" fill="#0" id="circle136"/>
	<circle cx="718.063" cy="669.276" r="4" fill="#0" id="circle137"/>
	<circle cx="721.019" cy="651.535" r="4" fill="#0" id="circle138"/>
	<circle cx="722.498" cy="441.604" r="4" fill="#0" id="circle139"/>
	<circle cx="722.498" cy="456.387" r="4" fill="#0" id="circle140"/>
	<circle cx="726.933" cy="129.663" r="4" fill="#0" id="circle141"/>
	<circle cx="728.411" cy="511.088" r="4" fill="#0" id="circle142"/>
	<circle cx="728.411" cy="525.872" r="4" fill="#0" id="circle143"/>
	<circle cx="728.411" cy="540.656" r="4" fill="#0" id="circle144"/>
	<circle cx="728.411" cy="555.44" r="4" fill="#0" id="circle145"/>
	<circle cx="728.411" cy="570.224" r="4" fill="#0" id="circle146"/>
	<circle cx="728.411" cy="585.007" r="4" fill="#0" id="circle147"/>
	<circle cx="729.89" cy="485.955" r="4" fill="#0" id="circle148"/>
	<circle cx="731.368" cy="469.693" r="4" fill="#0" id="circle149"/>
	<circle cx="732.846" cy="639.708" r="4" fill="#0" id="circle150"/>
	<circle cx="732.846" cy="670.754" r="4" fill="#0" id="circle151"/>
	<circle cx="734.325" cy="431.255" r="4" fill="#0" id="circle152"/>
	<circle cx="735.803" cy="598.313" r="4" fill="#0" id="circle153"/>
	<circle cx="735.803" cy="613.097" r="4" fill="#0" id="circle154"/>
	<circle cx="737.282" cy="412.036" r="4" fill="#0" id="circle155"/>
	<circle cx="740.238" cy="122.271" r="4" fill="#0" id="circle156"/>
	<circle cx="744.674" cy="522.915" r="4" fill="#0" id="circle157"/>
	<circle cx="744.674" cy="537.699" r="4" fill="#0" id="circle158"/>
	<circle cx="744.674" cy="552.483" r="4" fill="#0" id="circle159"/>
	<circle cx="744.674" cy="567.267" r="4" fill="#0" id="circle160"/>
	<circle cx="746.152" cy="469.693" r="4" fill="#0" id="circle161"/>
	<circle cx="747.63" cy="582.051" r="4" fill="#0" id="circle162"/>
	<circle cx="747.63" cy="669.276" r="4" fill="#0" id="circle163"/>
	<circle cx="752.066" cy="397.252" r="4" fill="#0" id="circle164"/>
	<circle cx="752.066" cy="484.477" r="4" fill="#0" id="circle165"/>
	<circle cx="752.066" cy="499.261" r="4" fill="#0" id="circle166"/>
	<circle cx="752.066" cy="596.835" r="4" fill="#0" id="circle167"/>
	<circle cx="752.066" cy="611.618" r="4" fill="#0" id="circle168"/>
	<circle cx="752.066" cy="626.402" r="4" fill="#0" id="circle169"/>
	<circle cx="755.022" cy="114.879" r="4" fill="#0" id="circle170"/>
	<circle cx="759.458" cy="382.468" r="4" fill="#0" id="circle171"/>
	<circle cx="759.458" cy="639.708" r="4" fill="#0" id="circle172"/>
	<circle cx="759.458" cy="654.492" r="4" fill="#0" id="circle173"/>
	<circle cx="766.849" cy="367.684" r="4" fill="#0" id="circle174"/>
	<circle cx="768.328" cy="107.487" r="4" fill="#0" id="circle175"/>
	<circle cx="774.241" cy="352.9" r="4" fill="#0" id="circle176"/>
	<circle cx="783.112" cy="101.574" r="4" fill="#0" id="circle177"/>
	<circle cx="786.069" cy="342.551" r="4" fill="#0" id="circle178"/>
	<circle cx="793.461" cy="327.768" r="4" fill="#0" id="circle179"/>
	<circle cx="796.417" cy="301.156" r="4" fill="#0" id="circle180"/>
	<circle cx="797.896" cy="94.1818" r="4" fill="#0" id="circle181"/>
	<circle cx="808.244" cy="290.808" r="4" fill="#0" id="circle182"/>
	<circle cx="812.68" cy="92.7034" r="4" fill="#0" id="circle183"/>
	<circle cx="818.593" cy="278.981" r="4" fill="#0" id="circle184"/>
	<circle cx="825.985" cy="85.3115" r="4" fill="#0" id="circle185"/>
	<circle cx="833.377" cy="271.589" r="4" fill="#0" id="circle186"/>
	<circle cx="840.769" cy="80.8763" r="4" fill="#0" id="circle187"/>
	<circle cx="845.204" cy="261.24" r="4" fill="#0" id="circle188"/>
	<circle cx="855.553" cy="77.9195" r="4" fill="#0" id="circle189"/>
	<circle cx="855.553" cy="234.629" r="4" fill="#0" id="circle190"/>
	<circle cx="855.553" cy="249.413" r="4" fill="#0" id="circle191"/>
	<circle cx="862.945" cy="205.061" r="4" fill="#0" id="circle192"/>
	<circle cx="862.945" cy="219.845" r="4" fill="#0" id="circle193"/>
	<circle cx="868.858" cy="70.5276" r="4" fill="#0" id="circle194"/>
	<circle cx="870.337" cy="190.277" r="4" fill="#0" id="circle195"/>
	<circle cx="877.729" cy="168.101" r="4" fill="#0" id="circle196"/>
	<circle cx="883.642" cy="67.5708" r="4" fill="#0" id="circle197"/>
	<circle cx="889.556" cy="157.753" r="4" fill="#0" id="circle198"/>
	<circle cx="892.513" cy="138.534" r="4" fill="#0" id="circle199"/>
	<circle cx="898.426" cy="60.1788" r="4" fill="#0" id="circle200"/>
	<circle cx="904.34" cy="128.185" r="4" fill="#0" id="circle201"/>
	<circle cx="913.21" cy="52.7869" r="4" fill="#0" id="circle202"/>
	<circle cx="914.689" cy="116.358" r="4" fill="#0" id="circle203"/>
	<circle cx="922.08" cy="101.574" r="4" fill="#0" id="circle204"/>
	<circle cx="927.994" cy="48.3517" r="4" fill="#0" id="circle205"/>
	<circle cx="935.386" cy="94.1818" r="4" fill="#0" id="circle206"/>
	<circle cx="941.3" cy="40.9598" r="4" fill="#0" id="circle207"/>
	<circle cx="950.17" cy="94.1818" r="4" fill="#0" id="circle208"/>
	<circle cx="954.605" cy="33.5678" r="4" fill="#0" id="circle209"/>
	<circle cx="959.04" cy="79.3979" r="4" fill="#0" id="circle210"/>
	<circle cx="966.432" cy="21.7407" r="4" fill="#0" id="circle211"/>
	<circle cx="973.824" cy="6.95678" r="4" fill="#0" id="circle212"/>
	<circle cx="973.824" cy="72.006" r="4" fill="#0" id="circle213"/>
	<circle cx="981.216" cy="57.2221" r="4" fill="#0" id="circle214"/>
	<circle cx="988.608" cy="4" r="4" fill="#0" id="circle215"/>
	<circle cx="988.608" cy="35.0462" r="4" fill="#0" id="circle216"/>
	<circle cx="996" cy="17.3055" r="4" fill="#0" id="circle217"/>
	</g>
</svg>