<?xml version="1.0" encoding="UTF-8" standalone="no"?>
<!-- Created with CurveBenchmark -->
<svg
	xmlns:dc="http://purl.org/dc/elements/1.1/"
	xmlns:cc="http://creativecommons.org/ns#"
	xmlns:rdf="http://www.w3.org/1999/02/22-rdf-syntax-ns#"
	xmlns:svg="http://www.w3.org/2000/svg"
	xmlns="http://www.w3.org/2000/svg"
	xmlns:sodipodi="http://sodipodi.sourceforge.net/DTD/sodipodi-0.dtd"
	xmlns:inkscape="http://www.inkscape.org/namespaces/inkscape"
	width="1000"
	height="1000"
	id="svg2"
	version="1.1"
	sodipodi:docname="manifold/vicur-cthand16.png.txt">
<defs
	id="defs4" />
<metadata
	id="metadata7">
	<rdf:RDF>
		<cc:Work
			rdf:about="">
			<dc:format>image/svg+xml</dc:format>
			<dc:type
				rdf:resource="http://purl.org/dc/dcmitype/StillImage" />
			<dc:title></dc:title>
		</cc:Work>
	</rdf:RDF>
</metadata>
<g
	inkscape:label="Layer 1"
	inkscape:groupmode="layer"
	id="layer1">
	<path style="fill:none;stroke:red;stroke-width:1px;stroke-linecap:butt;stroke-linejoin:miter;stroke-opacity:1" d="M 4,248.406 4,264.38 z" id="boundary" inkscape:connector-curvature="0" />
	<path style="fill:none;stroke:red;stroke-width:1px;stroke-linecap:butt;stroke-linejoin:miter;stroke-opacity:1" d="M 4,248.406 16.7794,235.626 z" id="boundary" inkscape:connector-curvature="0" />
	<path style="fill:none;stroke:red;stroke-width:1px;stroke-linecap:butt;stroke-linejoin:miter;stroke-opacity:1" d="M 4,264.38 11.9871,278.757 z" id="boundary" inkscape:connector-curvature="0" />
	<path style="fill:none;stroke:red;stroke-width:1px;stroke-linecap:butt;stroke-linejoin:miter;stroke-opacity:1" d="M 11.9871,278.757 11.9871,294.731 z" id="boundary" inkscape:connector-curvature="0" />
	<path style="fill:none;stroke:red;stroke-width:1px;stroke-linecap:butt;stroke-linejoin:miter;stroke-opacity:1" d="M 11.9871,294.731 19.9742,309.108 z" id="boundary" inkscape:connector-curvature="0" />
	<path style="fill:none;stroke:red;stroke-width:1px;stroke-linecap:butt;stroke-linejoin:miter;stroke-opacity:1" d="M 16.7794,235.626 19.9742,216.457 z" id="boundary" inkscape:connector-curvature="0" />
	<path style="fill:none;stroke:red;stroke-width:1px;stroke-linecap:butt;stroke-linejoin:miter;stroke-opacity:1" d="M 19.9742,216.457 27.9614,192.496 z" id="boundary" inkscape:connector-curvature="0" />
	<path style="fill:none;stroke:red;stroke-width:1px;stroke-linecap:butt;stroke-linejoin:miter;stroke-opacity:1" d="M 19.9742,309.108 19.9742,325.082 z" id="boundary" inkscape:connector-curvature="0" />
	<path style="fill:none;stroke:red;stroke-width:1px;stroke-linecap:butt;stroke-linejoin:miter;stroke-opacity:1" d="M 19.9742,325.082 27.9614,339.459 z" id="boundary" inkscape:connector-curvature="0" />
	<path style="fill:none;stroke:red;stroke-width:1px;stroke-linecap:butt;stroke-linejoin:miter;stroke-opacity:1" d="M 27.9614,192.496 43.9356,198.886 z" id="boundary" inkscape:connector-curvature="0" />
	<path style="fill:none;stroke:red;stroke-width:1px;stroke-linecap:butt;stroke-linejoin:miter;stroke-opacity:1" d="M 27.9614,339.459 27.9614,355.433 z" id="boundary" inkscape:connector-curvature="0" />
	<path style="fill:none;stroke:red;stroke-width:1px;stroke-linecap:butt;stroke-linejoin:miter;stroke-opacity:1" d="M 27.9614,355.433 35.9485,369.81 z" id="boundary" inkscape:connector-curvature="0" />
	<path style="fill:none;stroke:red;stroke-width:1px;stroke-linecap:butt;stroke-linejoin:miter;stroke-opacity:1" d="M 35.9485,369.81 43.9356,384.187 z" id="boundary" inkscape:connector-curvature="0" />
	<path style="fill:none;stroke:red;stroke-width:1px;stroke-linecap:butt;stroke-linejoin:miter;stroke-opacity:1" d="M 43.9356,198.886 53.5201,211.665 z" id="boundary" inkscape:connector-curvature="0" />
	<path style="fill:none;stroke:red;stroke-width:1px;stroke-linecap:butt;stroke-linejoin:miter;stroke-opacity:1" d="M 43.9356,384.187 51.9227,398.564 z" id="boundary" inkscape:connector-curvature="0" />
	<path style="fill:none;stroke:red;stroke-width:1px;stroke-linecap:butt;stroke-linejoin:miter;stroke-opacity:1" d="M 51.9227,398.564 59.9098,412.94 z" id="boundary" inkscape:connector-curvature="0" />
	<path style="fill:none;stroke:red;stroke-width:1px;stroke-linecap:butt;stroke-linejoin:miter;stroke-opacity:1" d="M 53.5201,211.665 69.4944,216.457 z" id="boundary" inkscape:connector-curvature="0" />
	<path style="fill:none;stroke:red;stroke-width:1px;stroke-linecap:butt;stroke-linejoin:miter;stroke-opacity:1" d="M 59.9098,412.94 64.7021,428.915 z" id="boundary" inkscape:connector-curvature="0" />
	<path style="fill:none;stroke:red;stroke-width:1px;stroke-linecap:butt;stroke-linejoin:miter;stroke-opacity:1" d="M 64.7021,428.915 67.8969,444.889 z" id="boundary" inkscape:connector-curvature="0" />
	<path style="fill:none;stroke:red;stroke-width:1px;stroke-linecap:butt;stroke-linejoin:miter;stroke-opacity:1" d="M 67.8969,444.889 72.6892,460.863 z" id="boundary" inkscape:connector-curvature="0" />
	<path style="fill:none;stroke:red;stroke-width:1px;stroke-linecap:butt;stroke-linejoin:miter;stroke-opacity:1" d="M 69.4944,216.457 69.4944,232.432 z" id="boundary" inkscape:connector-curvature="0" />
	<path style="fill:none;stroke:red;stroke-width:1px;stroke-linecap:butt;stroke-linejoin:miter;stroke-opacity:1" d="M 69.4944,232.432 75.8841,248.406 z" id="boundary" inkscape:connector-curvature="0" />
	<path style="fill:none;stroke:red;stroke-width:1px;stroke-linecap:butt;stroke-linejoin:miter;stroke-opacity:1" d="M 72.6892,460.863 75.8841,476.837 z" id="boundary" inkscape:connector-curvature="0" />
	<path style="fill:none;stroke:red;stroke-width:1px;stroke-linecap:butt;stroke-linejoin:miter;stroke-opacity:1" d="M 75.8841,248.406 85.4686,261.185 z" id="boundary" inkscape:connector-curvature="0" />
	<path style="fill:none;stroke:red;stroke-width:1px;stroke-linecap:butt;stroke-linejoin:miter;stroke-opacity:1" d="M 75.8841,476.837 83.8712,491.214 z" id="boundary" inkscape:connector-curvature="0" />
	<path style="fill:none;stroke:red;stroke-width:1px;stroke-linecap:butt;stroke-linejoin:miter;stroke-opacity:1" d="M 83.8712,491.214 83.8712,507.188 z" id="boundary" inkscape:connector-curvature="0" />
	<path style="fill:none;stroke:red;stroke-width:1px;stroke-linecap:butt;stroke-linejoin:miter;stroke-opacity:1" d="M 83.8712,507.188 91.8583,521.565 z" id="boundary" inkscape:connector-curvature="0" />
	<path style="fill:none;stroke:red;stroke-width:1px;stroke-linecap:butt;stroke-linejoin:miter;stroke-opacity:1" d="M 85.4686,261.185 88.6634,277.159 z" id="boundary" inkscape:connector-curvature="0" />
	<path style="fill:none;stroke:red;stroke-width:1px;stroke-linecap:butt;stroke-linejoin:miter;stroke-opacity:1" d="M 88.6634,277.159 93.4557,293.134 z" id="boundary" inkscape:connector-curvature="0" />
	<path style="fill:none;stroke:red;stroke-width:1px;stroke-linecap:butt;stroke-linejoin:miter;stroke-opacity:1" d="M 91.8583,521.565 93.4557,537.539 z" id="boundary" inkscape:connector-curvature="0" />
	<path style="fill:none;stroke:red;stroke-width:1px;stroke-linecap:butt;stroke-linejoin:miter;stroke-opacity:1" d="M 93.4557,293.134 101.443,307.51 z" id="boundary" inkscape:connector-curvature="0" />
	<path style="fill:none;stroke:red;stroke-width:1px;stroke-linecap:butt;stroke-linejoin:miter;stroke-opacity:1" d="M 93.4557,537.539 99.8454,553.514 z" id="boundary" inkscape:connector-curvature="0" />
	<path style="fill:none;stroke:red;stroke-width:1px;stroke-linecap:butt;stroke-linejoin:miter;stroke-opacity:1" d="M 99.8454,553.514 99.8454,569.488 z" id="boundary" inkscape:connector-curvature="0" />
	<path style="fill:none;stroke:red;stroke-width:1px;stroke-linecap:butt;stroke-linejoin:miter;stroke-opacity:1" d="M 99.8454,569.488 99.8454,585.462 z" id="boundary" inkscape:connector-curvature="0" />
	<path style="fill:none;stroke:red;stroke-width:1px;stroke-linecap:butt;stroke-linejoin:miter;stroke-opacity:1" d="M 99.8454,585.462 99.8454,601.436 z" id="boundary" inkscape:connector-curvature="0" />
	<path style="fill:none;stroke:red;stroke-width:1px;stroke-linecap:butt;stroke-linejoin:miter;stroke-opacity:1" d="M 99.8454,601.436 99.8454,617.411 z" id="boundary" inkscape:connector-curvature="0" />
	<path style="fill:none;stroke:red;stroke-width:1px;stroke-linecap:butt;stroke-linejoin:miter;stroke-opacity:1" d="M 99.8454,617.411 99.8454,633.385 z" id="boundary" inkscape:connector-curvature="0" />
	<path style="fill:none;stroke:red;stroke-width:1px;stroke-linecap:butt;stroke-linejoin:miter;stroke-opacity:1" d="M 99.8454,633.385 99.8454,649.359 z" id="boundary" inkscape:connector-curvature="0" />
	<path style="fill:none;stroke:red;stroke-width:1px;stroke-linecap:butt;stroke-linejoin:miter;stroke-opacity:1" d="M 99.8454,649.359 99.8454,665.333 z" id="boundary" inkscape:connector-curvature="0" />
	<path style="fill:none;stroke:red;stroke-width:1px;stroke-linecap:butt;stroke-linejoin:miter;stroke-opacity:1" d="M 99.8454,665.333 99.8454,681.308 z" id="boundary" inkscape:connector-curvature="0" />
	<path style="fill:none;stroke:red;stroke-width:1px;stroke-linecap:butt;stroke-linejoin:miter;stroke-opacity:1" d="M 99.8454,681.308 99.8454,697.282 z" id="boundary" inkscape:connector-curvature="0" />
	<path style="fill:none;stroke:red;stroke-width:1px;stroke-linecap:butt;stroke-linejoin:miter;stroke-opacity:1" d="M 99.8454,697.282 99.8454,713.256 z" id="boundary" inkscape:connector-curvature="0" />
	<path style="fill:none;stroke:red;stroke-width:1px;stroke-linecap:butt;stroke-linejoin:miter;stroke-opacity:1" d="M 99.8454,713.256 99.8454,729.23 z" id="boundary" inkscape:connector-curvature="0" />
	<path style="fill:none;stroke:red;stroke-width:1px;stroke-linecap:butt;stroke-linejoin:miter;stroke-opacity:1" d="M 99.8454,729.23 99.8454,745.205 z" id="boundary" inkscape:connector-curvature="0" />
	<path style="fill:none;stroke:red;stroke-width:1px;stroke-linecap:butt;stroke-linejoin:miter;stroke-opacity:1" d="M 99.8454,745.205 99.8454,761.179 z" id="boundary" inkscape:connector-curvature="0" />
	<path style="fill:none;stroke:red;stroke-width:1px;stroke-linecap:butt;stroke-linejoin:miter;stroke-opacity:1" d="M 99.8454,761.179 107.833,775.556 z" id="boundary" inkscape:connector-curvature="0" />
	<path style="fill:none;stroke:red;stroke-width:1px;stroke-linecap:butt;stroke-linejoin:miter;stroke-opacity:1" d="M 101.443,307.51 101.443,323.485 z" id="boundary" inkscape:connector-curvature="0" />
	<path style="fill:none;stroke:red;stroke-width:1px;stroke-linecap:butt;stroke-linejoin:miter;stroke-opacity:1" d="M 101.443,323.485 109.43,337.862 z" id="boundary" inkscape:connector-curvature="0" />
	<path style="fill:none;stroke:red;stroke-width:1px;stroke-linecap:butt;stroke-linejoin:miter;stroke-opacity:1" d="M 107.833,96.6506 115.82,80.6763 z" id="boundary" inkscape:connector-curvature="0" />
	<path style="fill:none;stroke:red;stroke-width:1px;stroke-linecap:butt;stroke-linejoin:miter;stroke-opacity:1" d="M 107.833,96.6506 115.82,111.027 z" id="boundary" inkscape:connector-curvature="0" />
	<path style="fill:none;stroke:red;stroke-width:1px;stroke-linecap:butt;stroke-linejoin:miter;stroke-opacity:1" d="M 107.833,775.556 107.833,791.53 z" id="boundary" inkscape:connector-curvature="0" />
	<path style="fill:none;stroke:red;stroke-width:1px;stroke-linecap:butt;stroke-linejoin:miter;stroke-opacity:1" d="M 107.833,791.53 107.833,807.504 z" id="boundary" inkscape:connector-curvature="0" />
	<path style="fill:none;stroke:red;stroke-width:1px;stroke-linecap:butt;stroke-linejoin:miter;stroke-opacity:1" d="M 107.833,807.504 115.82,821.881 z" id="boundary" inkscape:connector-curvature="0" />
	<path style="fill:none;stroke:red;stroke-width:1px;stroke-linecap:butt;stroke-linejoin:miter;stroke-opacity:1" d="M 109.43,337.862 117.417,352.238 z" id="boundary" inkscape:connector-curvature="0" />
	<path style="fill:none;stroke:red;stroke-width:1px;stroke-linecap:butt;stroke-linejoin:miter;stroke-opacity:1" d="M 115.82,80.6763 128.599,67.8969 z" id="boundary" inkscape:connector-curvature="0" />
	<path style="fill:none;stroke:red;stroke-width:1px;stroke-linecap:butt;stroke-linejoin:miter;stroke-opacity:1" d="M 115.82,111.027 123.807,125.404 z" id="boundary" inkscape:connector-curvature="0" />
	<path style="fill:none;stroke:red;stroke-width:1px;stroke-linecap:butt;stroke-linejoin:miter;stroke-opacity:1" d="M 115.82,821.881 115.82,837.855 z" id="boundary" inkscape:connector-curvature="0" />
	<path style="fill:none;stroke:red;stroke-width:1px;stroke-linecap:butt;stroke-linejoin:miter;stroke-opacity:1" d="M 115.82,837.855 123.807,852.232 z" id="boundary" inkscape:connector-curvature="0" />
	<path style="fill:none;stroke:red;stroke-width:1px;stroke-linecap:butt;stroke-linejoin:miter;stroke-opacity:1" d="M 115.82,943.285 123.807,919.324 z" id="boundary" inkscape:connector-curvature="0" />
	<path style="fill:none;stroke:red;stroke-width:1px;stroke-linecap:butt;stroke-linejoin:miter;stroke-opacity:1" d="M 115.82,943.285 125.404,956.064 z" id="boundary" inkscape:connector-curvature="0" />
	<path style="fill:none;stroke:red;stroke-width:1px;stroke-linecap:butt;stroke-linejoin:miter;stroke-opacity:1" d="M 117.417,352.238 125.404,366.615 z" id="boundary" inkscape:connector-curvature="0" />
	<path style="fill:none;stroke:red;stroke-width:1px;stroke-linecap:butt;stroke-linejoin:miter;stroke-opacity:1" d="M 123.807,125.404 123.807,141.378 z" id="boundary" inkscape:connector-curvature="0" />
	<path style="fill:none;stroke:red;stroke-width:1px;stroke-linecap:butt;stroke-linejoin:miter;stroke-opacity:1" d="M 123.807,141.378 131.794,155.755 z" id="boundary" inkscape:connector-curvature="0" />
	<path style="fill:none;stroke:red;stroke-width:1px;stroke-linecap:butt;stroke-linejoin:miter;stroke-opacity:1" d="M 123.807,852.232 128.599,868.206 z" id="boundary" inkscape:connector-curvature="0" />
	<path style="fill:none;stroke:red;stroke-width:1px;stroke-linecap:butt;stroke-linejoin:miter;stroke-opacity:1" d="M 123.807,903.349 123.807,919.324 z" id="boundary" inkscape:connector-curvature="0" />
	<path style="fill:none;stroke:red;stroke-width:1px;stroke-linecap:butt;stroke-linejoin:miter;stroke-opacity:1" d="M 123.807,903.349 131.794,884.18 z" id="boundary" inkscape:connector-curvature="0" />
	<path style="fill:none;stroke:red;stroke-width:1px;stroke-linecap:butt;stroke-linejoin:miter;stroke-opacity:1" d="M 125.404,366.615 133.391,380.992 z" id="boundary" inkscape:connector-curvature="0" />
	<path style="fill:none;stroke:red;stroke-width:1px;stroke-linecap:butt;stroke-linejoin:miter;stroke-opacity:1" d="M 125.404,956.064 141.378,956.064 z" id="boundary" inkscape:connector-curvature="0" />
	<path style="fill:none;stroke:red;stroke-width:1px;stroke-linecap:butt;stroke-linejoin:miter;stroke-opacity:1" d="M 128.599,67.8969 131.794,40.7407 z" id="boundary" inkscape:connector-curvature="0" />
	<path style="fill:none;stroke:red;stroke-width:1px;stroke-linecap:butt;stroke-linejoin:miter;stroke-opacity:1" d="M 128.599,868.206 131.794,884.18 z" id="boundary" inkscape:connector-curvature="0" />
	<path style="fill:none;stroke:red;stroke-width:1px;stroke-linecap:butt;stroke-linejoin:miter;stroke-opacity:1" d="M 131.794,40.7407 147.768,35.9485 z" id="boundary" inkscape:connector-curvature="0" />
	<path style="fill:none;stroke:red;stroke-width:1px;stroke-linecap:butt;stroke-linejoin:miter;stroke-opacity:1" d="M 131.794,155.755 131.794,171.729 z" id="boundary" inkscape:connector-curvature="0" />
	<path style="fill:none;stroke:red;stroke-width:1px;stroke-linecap:butt;stroke-linejoin:miter;stroke-opacity:1" d="M 131.794,171.729 131.794,187.704 z" id="boundary" inkscape:connector-curvature="0" />
	<path style="fill:none;stroke:red;stroke-width:1px;stroke-linecap:butt;stroke-linejoin:miter;stroke-opacity:1" d="M 131.794,187.704 131.794,203.678 z" id="boundary" inkscape:connector-curvature="0" />
	<path style="fill:none;stroke:red;stroke-width:1px;stroke-linecap:butt;stroke-linejoin:miter;stroke-opacity:1" d="M 131.794,203.678 139.781,218.055 z" id="boundary" inkscape:connector-curvature="0" />
	<path style="fill:none;stroke:red;stroke-width:1px;stroke-linecap:butt;stroke-linejoin:miter;stroke-opacity:1" d="M 133.391,380.992 133.391,396.966 z" id="boundary" inkscape:connector-curvature="0" />
	<path style="fill:none;stroke:red;stroke-width:1px;stroke-linecap:butt;stroke-linejoin:miter;stroke-opacity:1" d="M 133.391,396.966 141.378,411.343 z" id="boundary" inkscape:connector-curvature="0" />
	<path style="fill:none;stroke:red;stroke-width:1px;stroke-linecap:butt;stroke-linejoin:miter;stroke-opacity:1" d="M 139.781,218.055 139.781,234.029 z" id="boundary" inkscape:connector-curvature="0" />
	<path style="fill:none;stroke:red;stroke-width:1px;stroke-linecap:butt;stroke-linejoin:miter;stroke-opacity:1" d="M 139.781,234.029 139.781,250.003 z" id="boundary" inkscape:connector-curvature="0" />
	<path style="fill:none;stroke:red;stroke-width:1px;stroke-linecap:butt;stroke-linejoin:miter;stroke-opacity:1" d="M 139.781,250.003 141.378,265.977 z" id="boundary" inkscape:connector-curvature="0" />
	<path style="fill:none;stroke:red;stroke-width:1px;stroke-linecap:butt;stroke-linejoin:miter;stroke-opacity:1" d="M 141.378,265.977 147.768,281.952 z" id="boundary" inkscape:connector-curvature="0" />
	<path style="fill:none;stroke:red;stroke-width:1px;stroke-linecap:butt;stroke-linejoin:miter;stroke-opacity:1" d="M 141.378,411.343 154.158,420.928 z" id="boundary" inkscape:connector-curvature="0" />
	<path style="fill:none;stroke:red;stroke-width:1px;stroke-linecap:butt;stroke-linejoin:miter;stroke-opacity:1" d="M 141.378,956.064 157.353,956.064 z" id="boundary" inkscape:connector-curvature="0" />
	<path style="fill:none;stroke:red;stroke-width:1px;stroke-linecap:butt;stroke-linejoin:miter;stroke-opacity:1" d="M 147.768,35.9485 160.548,45.533 z" id="boundary" inkscape:connector-curvature="0" />
	<path style="fill:none;stroke:red;stroke-width:1px;stroke-linecap:butt;stroke-linejoin:miter;stroke-opacity:1" d="M 147.768,281.952 147.768,297.926 z" id="boundary" inkscape:connector-curvature="0" />
	<path style="fill:none;stroke:red;stroke-width:1px;stroke-linecap:butt;stroke-linejoin:miter;stroke-opacity:1" d="M 147.768,297.926 149.366,313.9 z" id="boundary" inkscape:connector-curvature="0" />
	<path style="fill:none;stroke:red;stroke-width:1px;stroke-linecap:butt;stroke-linejoin:miter;stroke-opacity:1" d="M 149.366,313.9 155.755,329.874 z" id="boundary" inkscape:connector-curvature="0" />
	<path style="fill:none;stroke:red;stroke-width:1px;stroke-linecap:butt;stroke-linejoin:miter;stroke-opacity:1" d="M 154.158,420.928 171.729,422.525 z" id="boundary" inkscape:connector-curvature="0" />
	<path style="fill:none;stroke:red;stroke-width:1px;stroke-linecap:butt;stroke-linejoin:miter;stroke-opacity:1" d="M 155.755,329.874 163.742,344.251 z" id="boundary" inkscape:connector-curvature="0" />
	<path style="fill:none;stroke:red;stroke-width:1px;stroke-linecap:butt;stroke-linejoin:miter;stroke-opacity:1" d="M 157.353,956.064 173.327,956.064 z" id="boundary" inkscape:connector-curvature="0" />
	<path style="fill:none;stroke:red;stroke-width:1px;stroke-linecap:butt;stroke-linejoin:miter;stroke-opacity:1" d="M 160.548,45.533 173.327,56.715 z" id="boundary" inkscape:connector-curvature="0" />
	<path style="fill:none;stroke:red;stroke-width:1px;stroke-linecap:butt;stroke-linejoin:miter;stroke-opacity:1" d="M 163.742,344.251 163.742,360.225 z" id="boundary" inkscape:connector-curvature="0" />
	<path style="fill:none;stroke:red;stroke-width:1px;stroke-linecap:butt;stroke-linejoin:miter;stroke-opacity:1" d="M 163.742,360.225 163.742,376.2 z" id="boundary" inkscape:connector-curvature="0" />
	<path style="fill:none;stroke:red;stroke-width:1px;stroke-linecap:butt;stroke-linejoin:miter;stroke-opacity:1" d="M 163.742,376.2 171.729,390.576 z" id="boundary" inkscape:connector-curvature="0" />
	<path style="fill:none;stroke:red;stroke-width:1px;stroke-linecap:butt;stroke-linejoin:miter;stroke-opacity:1" d="M 171.729,390.576 171.729,406.551 z" id="boundary" inkscape:connector-curvature="0" />
	<path style="fill:none;stroke:red;stroke-width:1px;stroke-linecap:butt;stroke-linejoin:miter;stroke-opacity:1" d="M 171.729,406.551 171.729,422.525 z" id="boundary" inkscape:connector-curvature="0" />
	<path style="fill:none;stroke:red;stroke-width:1px;stroke-linecap:butt;stroke-linejoin:miter;stroke-opacity:1" d="M 173.327,56.715 184.509,69.4944 z" id="boundary" inkscape:connector-curvature="0" />
	<path style="fill:none;stroke:red;stroke-width:1px;stroke-linecap:butt;stroke-linejoin:miter;stroke-opacity:1" d="M 173.327,956.064 189.301,956.064 z" id="boundary" inkscape:connector-curvature="0" />
	<path style="fill:none;stroke:red;stroke-width:1px;stroke-linecap:butt;stroke-linejoin:miter;stroke-opacity:1" d="M 184.509,69.4944 197.288,80.6763 z" id="boundary" inkscape:connector-curvature="0" />
	<path style="fill:none;stroke:red;stroke-width:1px;stroke-linecap:butt;stroke-linejoin:miter;stroke-opacity:1" d="M 189.301,956.064 205.275,959.259 z" id="boundary" inkscape:connector-curvature="0" />
	<path style="fill:none;stroke:red;stroke-width:1px;stroke-linecap:butt;stroke-linejoin:miter;stroke-opacity:1" d="M 197.288,80.6763 197.288,96.6506 z" id="boundary" inkscape:connector-curvature="0" />
	<path style="fill:none;stroke:red;stroke-width:1px;stroke-linecap:butt;stroke-linejoin:miter;stroke-opacity:1" d="M 197.288,96.6506 205.275,111.027 z" id="boundary" inkscape:connector-curvature="0" />
	<path style="fill:none;stroke:red;stroke-width:1px;stroke-linecap:butt;stroke-linejoin:miter;stroke-opacity:1" d="M 205.275,111.027 205.275,127.002 z" id="boundary" inkscape:connector-curvature="0" />
	<path style="fill:none;stroke:red;stroke-width:1px;stroke-linecap:butt;stroke-linejoin:miter;stroke-opacity:1" d="M 205.275,127.002 205.275,142.976 z" id="boundary" inkscape:connector-curvature="0" />
	<path style="fill:none;stroke:red;stroke-width:1px;stroke-linecap:butt;stroke-linejoin:miter;stroke-opacity:1" d="M 205.275,142.976 205.275,158.95 z" id="boundary" inkscape:connector-curvature="0" />
	<path style="fill:none;stroke:red;stroke-width:1px;stroke-linecap:butt;stroke-linejoin:miter;stroke-opacity:1" d="M 205.275,158.95 213.262,173.327 z" id="boundary" inkscape:connector-curvature="0" />
	<path style="fill:none;stroke:red;stroke-width:1px;stroke-linecap:butt;stroke-linejoin:miter;stroke-opacity:1" d="M 205.275,959.259 221.25,964.052 z" id="boundary" inkscape:connector-curvature="0" />
	<path style="fill:none;stroke:red;stroke-width:1px;stroke-linecap:butt;stroke-linejoin:miter;stroke-opacity:1" d="M 213.262,173.327 213.262,189.301 z" id="boundary" inkscape:connector-curvature="0" />
	<path style="fill:none;stroke:red;stroke-width:1px;stroke-linecap:butt;stroke-linejoin:miter;stroke-opacity:1" d="M 213.262,189.301 213.262,205.275 z" id="boundary" inkscape:connector-curvature="0" />
	<path style="fill:none;stroke:red;stroke-width:1px;stroke-linecap:butt;stroke-linejoin:miter;stroke-opacity:1" d="M 213.262,205.275 221.25,219.652 z" id="boundary" inkscape:connector-curvature="0" />
	<path style="fill:none;stroke:red;stroke-width:1px;stroke-linecap:butt;stroke-linejoin:miter;stroke-opacity:1" d="M 221.25,219.652 229.237,234.029 z" id="boundary" inkscape:connector-curvature="0" />
	<path style="fill:none;stroke:red;stroke-width:1px;stroke-linecap:butt;stroke-linejoin:miter;stroke-opacity:1" d="M 221.25,964.052 237.224,964.052 z" id="boundary" inkscape:connector-curvature="0" />
	<path style="fill:none;stroke:red;stroke-width:1px;stroke-linecap:butt;stroke-linejoin:miter;stroke-opacity:1" d="M 229.237,234.029 229.237,250.003 z" id="boundary" inkscape:connector-curvature="0" />
	<path style="fill:none;stroke:red;stroke-width:1px;stroke-linecap:butt;stroke-linejoin:miter;stroke-opacity:1" d="M 229.237,250.003 237.224,264.38 z" id="boundary" inkscape:connector-curvature="0" />
	<path style="fill:none;stroke:red;stroke-width:1px;stroke-linecap:butt;stroke-linejoin:miter;stroke-opacity:1" d="M 237.224,264.38 237.224,280.354 z" id="boundary" inkscape:connector-curvature="0" />
	<path style="fill:none;stroke:red;stroke-width:1px;stroke-linecap:butt;stroke-linejoin:miter;stroke-opacity:1" d="M 237.224,280.354 245.211,294.731 z" id="boundary" inkscape:connector-curvature="0" />
	<path style="fill:none;stroke:red;stroke-width:1px;stroke-linecap:butt;stroke-linejoin:miter;stroke-opacity:1" d="M 237.224,964.052 253.198,967.246 z" id="boundary" inkscape:connector-curvature="0" />
	<path style="fill:none;stroke:red;stroke-width:1px;stroke-linecap:butt;stroke-linejoin:miter;stroke-opacity:1" d="M 245.211,294.731 250.003,310.705 z" id="boundary" inkscape:connector-curvature="0" />
	<path style="fill:none;stroke:red;stroke-width:1px;stroke-linecap:butt;stroke-linejoin:miter;stroke-opacity:1" d="M 250.003,310.705 261.185,323.485 z" id="boundary" inkscape:connector-curvature="0" />
	<path style="fill:none;stroke:red;stroke-width:1px;stroke-linecap:butt;stroke-linejoin:miter;stroke-opacity:1" d="M 253.198,967.246 269.172,972.039 z" id="boundary" inkscape:connector-curvature="0" />
	<path style="fill:none;stroke:red;stroke-width:1px;stroke-linecap:butt;stroke-linejoin:miter;stroke-opacity:1" d="M 261.185,323.485 269.172,337.862 z" id="boundary" inkscape:connector-curvature="0" />
	<path style="fill:none;stroke:red;stroke-width:1px;stroke-linecap:butt;stroke-linejoin:miter;stroke-opacity:1" d="M 269.172,337.862 281.952,347.446 z" id="boundary" inkscape:connector-curvature="0" />
	<path style="fill:none;stroke:red;stroke-width:1px;stroke-linecap:butt;stroke-linejoin:miter;stroke-opacity:1" d="M 269.172,972.039 285.147,972.039 z" id="boundary" inkscape:connector-curvature="0" />
	<path style="fill:none;stroke:red;stroke-width:1px;stroke-linecap:butt;stroke-linejoin:miter;stroke-opacity:1" d="M 281.952,347.446 293.134,360.225 z" id="boundary" inkscape:connector-curvature="0" />
	<path style="fill:none;stroke:red;stroke-width:1px;stroke-linecap:butt;stroke-linejoin:miter;stroke-opacity:1" d="M 285.147,972.039 301.121,972.039 z" id="boundary" inkscape:connector-curvature="0" />
	<path style="fill:none;stroke:red;stroke-width:1px;stroke-linecap:butt;stroke-linejoin:miter;stroke-opacity:1" d="M 293.134,360.225 305.913,371.407 z" id="boundary" inkscape:connector-curvature="0" />
	<path style="fill:none;stroke:red;stroke-width:1px;stroke-linecap:butt;stroke-linejoin:miter;stroke-opacity:1" d="M 301.121,972.039 315.498,980.026 z" id="boundary" inkscape:connector-curvature="0" />
	<path style="fill:none;stroke:red;stroke-width:1px;stroke-linecap:butt;stroke-linejoin:miter;stroke-opacity:1" d="M 305.913,371.407 312.303,355.433 z" id="boundary" inkscape:connector-curvature="0" />
	<path style="fill:none;stroke:red;stroke-width:1px;stroke-linecap:butt;stroke-linejoin:miter;stroke-opacity:1" d="M 312.303,355.433 323.485,336.264 z" id="boundary" inkscape:connector-curvature="0" />
	<path style="fill:none;stroke:red;stroke-width:1px;stroke-linecap:butt;stroke-linejoin:miter;stroke-opacity:1" d="M 315.498,980.026 331.472,980.026 z" id="boundary" inkscape:connector-curvature="0" />
	<path style="fill:none;stroke:red;stroke-width:1px;stroke-linecap:butt;stroke-linejoin:miter;stroke-opacity:1" d="M 323.485,336.264 331.472,320.29 z" id="boundary" inkscape:connector-curvature="0" />
	<path style="fill:none;stroke:red;stroke-width:1px;stroke-linecap:butt;stroke-linejoin:miter;stroke-opacity:1" d="M 331.472,320.29 339.459,296.329 z" id="boundary" inkscape:connector-curvature="0" />
	<path style="fill:none;stroke:red;stroke-width:1px;stroke-linecap:butt;stroke-linejoin:miter;stroke-opacity:1" d="M 331.472,980.026 347.446,980.026 z" id="boundary" inkscape:connector-curvature="0" />
	<path style="fill:none;stroke:red;stroke-width:1px;stroke-linecap:butt;stroke-linejoin:miter;stroke-opacity:1" d="M 339.459,280.354 339.459,296.329 z" id="boundary" inkscape:connector-curvature="0" />
	<path style="fill:none;stroke:red;stroke-width:1px;stroke-linecap:butt;stroke-linejoin:miter;stroke-opacity:1" d="M 339.459,280.354 347.446,264.38 z" id="boundary" inkscape:connector-curvature="0" />
	<path style="fill:none;stroke:red;stroke-width:1px;stroke-linecap:butt;stroke-linejoin:miter;stroke-opacity:1" d="M 347.446,248.406 347.446,264.38 z" id="boundary" inkscape:connector-curvature="0" />
	<path style="fill:none;stroke:red;stroke-width:1px;stroke-linecap:butt;stroke-linejoin:miter;stroke-opacity:1" d="M 347.446,248.406 360.225,235.626 z" id="boundary" inkscape:connector-curvature="0" />
	<path style="fill:none;stroke:red;stroke-width:1px;stroke-linecap:butt;stroke-linejoin:miter;stroke-opacity:1" d="M 347.446,980.026 363.42,980.026 z" id="boundary" inkscape:connector-curvature="0" />
	<path style="fill:none;stroke:red;stroke-width:1px;stroke-linecap:butt;stroke-linejoin:miter;stroke-opacity:1" d="M 360.225,235.626 368.213,219.652 z" id="boundary" inkscape:connector-curvature="0" />
	<path style="fill:none;stroke:red;stroke-width:1px;stroke-linecap:butt;stroke-linejoin:miter;stroke-opacity:1" d="M 363.42,980.026 377.797,988.013 z" id="boundary" inkscape:connector-curvature="0" />
	<path style="fill:none;stroke:red;stroke-width:1px;stroke-linecap:butt;stroke-linejoin:miter;stroke-opacity:1" d="M 368.213,219.652 371.407,200.483 z" id="boundary" inkscape:connector-curvature="0" />
	<path style="fill:none;stroke:red;stroke-width:1px;stroke-linecap:butt;stroke-linejoin:miter;stroke-opacity:1" d="M 371.407,200.483 379.395,184.509 z" id="boundary" inkscape:connector-curvature="0" />
	<path style="fill:none;stroke:red;stroke-width:1px;stroke-linecap:butt;stroke-linejoin:miter;stroke-opacity:1" d="M 377.797,988.013 393.771,988.013 z" id="boundary" inkscape:connector-curvature="0" />
	<path style="fill:none;stroke:red;stroke-width:1px;stroke-linecap:butt;stroke-linejoin:miter;stroke-opacity:1" d="M 379.395,184.509 387.382,168.535 z" id="boundary" inkscape:connector-curvature="0" />
	<path style="fill:none;stroke:red;stroke-width:1px;stroke-linecap:butt;stroke-linejoin:miter;stroke-opacity:1" d="M 387.382,168.535 395.369,144.573 z" id="boundary" inkscape:connector-curvature="0" />
	<path style="fill:none;stroke:red;stroke-width:1px;stroke-linecap:butt;stroke-linejoin:miter;stroke-opacity:1" d="M 393.771,988.013 409.746,988.013 z" id="boundary" inkscape:connector-curvature="0" />
	<path style="fill:none;stroke:red;stroke-width:1px;stroke-linecap:butt;stroke-linejoin:miter;stroke-opacity:1" d="M 395.369,144.573 403.356,128.599 z" id="boundary" inkscape:connector-curvature="0" />
	<path style="fill:none;stroke:red;stroke-width:1px;stroke-linecap:butt;stroke-linejoin:miter;stroke-opacity:1" d="M 403.356,112.625 403.356,128.599 z" id="boundary" inkscape:connector-curvature="0" />
	<path style="fill:none;stroke:red;stroke-width:1px;stroke-linecap:butt;stroke-linejoin:miter;stroke-opacity:1" d="M 403.356,112.625 411.343,96.6506 z" id="boundary" inkscape:connector-curvature="0" />
	<path style="fill:none;stroke:red;stroke-width:1px;stroke-linecap:butt;stroke-linejoin:miter;stroke-opacity:1" d="M 409.746,988.013 424.122,996 z" id="boundary" inkscape:connector-curvature="0" />
	<path style="fill:none;stroke:red;stroke-width:1px;stroke-linecap:butt;stroke-linejoin:miter;stroke-opacity:1" d="M 411.343,96.6506 419.33,80.6763 z" id="boundary" inkscape:connector-curvature="0" />
	<path style="fill:none;stroke:red;stroke-width:1px;stroke-linecap:butt;stroke-linejoin:miter;stroke-opacity:1" d="M 419.33,80.6763 427.317,64.7021 z" id="boundary" inkscape:connector-curvature="0" />
	<path style="fill:none;stroke:red;stroke-width:1px;stroke-linecap:butt;stroke-linejoin:miter;stroke-opacity:1" d="M 424.122,996 440.097,994.403 z" id="boundary" inkscape:connector-curvature="0" />
	<path style="fill:none;stroke:red;stroke-width:1px;stroke-linecap:butt;stroke-linejoin:miter;stroke-opacity:1" d="M 427.317,48.7279 427.317,64.7021 z" id="boundary" inkscape:connector-curvature="0" />
	<path style="fill:none;stroke:red;stroke-width:1px;stroke-linecap:butt;stroke-linejoin:miter;stroke-opacity:1" d="M 427.317,48.7279 440.097,35.9485 z" id="boundary" inkscape:connector-curvature="0" />
	<path style="fill:none;stroke:red;stroke-width:1px;stroke-linecap:butt;stroke-linejoin:miter;stroke-opacity:1" d="M 428.915,365.018 428.915,380.992 z" id="boundary" inkscape:connector-curvature="0" />
	<path style="fill:none;stroke:red;stroke-width:1px;stroke-linecap:butt;stroke-linejoin:miter;stroke-opacity:1" d="M 428.915,365.018 436.902,341.056 z" id="boundary" inkscape:connector-curvature="0" />
	<path style="fill:none;stroke:red;stroke-width:1px;stroke-linecap:butt;stroke-linejoin:miter;stroke-opacity:1" d="M 428.915,380.992 428.915,396.966 z" id="boundary" inkscape:connector-curvature="0" />
	<path style="fill:none;stroke:red;stroke-width:1px;stroke-linecap:butt;stroke-linejoin:miter;stroke-opacity:1" d="M 428.915,396.966 444.889,390.576 z" id="boundary" inkscape:connector-curvature="0" />
	<path style="fill:none;stroke:red;stroke-width:1px;stroke-linecap:butt;stroke-linejoin:miter;stroke-opacity:1" d="M 436.902,341.056 444.889,317.095 z" id="boundary" inkscape:connector-curvature="0" />
	<path style="fill:none;stroke:red;stroke-width:1px;stroke-linecap:butt;stroke-linejoin:miter;stroke-opacity:1" d="M 440.097,35.9485 452.876,23.1691 z" id="boundary" inkscape:connector-curvature="0" />
	<path style="fill:none;stroke:red;stroke-width:1px;stroke-linecap:butt;stroke-linejoin:miter;stroke-opacity:1" d="M 440.097,994.403 448.084,978.428 z" id="boundary" inkscape:connector-curvature="0" />
	<path style="fill:none;stroke:red;stroke-width:1px;stroke-linecap:butt;stroke-linejoin:miter;stroke-opacity:1" d="M 444.889,285.147 444.889,301.121 z" id="boundary" inkscape:connector-curvature="0" />
	<path style="fill:none;stroke:red;stroke-width:1px;stroke-linecap:butt;stroke-linejoin:miter;stroke-opacity:1" d="M 444.889,285.147 452.876,269.172 z" id="boundary" inkscape:connector-curvature="0" />
	<path style="fill:none;stroke:red;stroke-width:1px;stroke-linecap:butt;stroke-linejoin:miter;stroke-opacity:1" d="M 444.889,301.121 444.889,317.095 z" id="boundary" inkscape:connector-curvature="0" />
	<path style="fill:none;stroke:red;stroke-width:1px;stroke-linecap:butt;stroke-linejoin:miter;stroke-opacity:1" d="M 444.889,390.576 457.668,379.395 z" id="boundary" inkscape:connector-curvature="0" />
	<path style="fill:none;stroke:red;stroke-width:1px;stroke-linecap:butt;stroke-linejoin:miter;stroke-opacity:1" d="M 448.084,978.428 460.863,956.064 z" id="boundary" inkscape:connector-curvature="0" />
	<path style="fill:none;stroke:red;stroke-width:1px;stroke-linecap:butt;stroke-linejoin:miter;stroke-opacity:1" d="M 452.876,23.1691 468.85,15.182 z" id="boundary" inkscape:connector-curvature="0" />
	<path style="fill:none;stroke:red;stroke-width:1px;stroke-linecap:butt;stroke-linejoin:miter;stroke-opacity:1" d="M 452.876,269.172 460.863,245.211 z" id="boundary" inkscape:connector-curvature="0" />
	<path style="fill:none;stroke:red;stroke-width:1px;stroke-linecap:butt;stroke-linejoin:miter;stroke-opacity:1" d="M 457.668,379.395 464.058,363.42 z" id="boundary" inkscape:connector-curvature="0" />
	<path style="fill:none;stroke:red;stroke-width:1px;stroke-linecap:butt;stroke-linejoin:miter;stroke-opacity:1" d="M 460.863,245.211 468.85,229.237 z" id="boundary" inkscape:connector-curvature="0" />
	<path style="fill:none;stroke:red;stroke-width:1px;stroke-linecap:butt;stroke-linejoin:miter;stroke-opacity:1" d="M 460.863,956.064 476.837,948.077 z" id="boundary" inkscape:connector-curvature="0" />
	<path style="fill:none;stroke:red;stroke-width:1px;stroke-linecap:butt;stroke-linejoin:miter;stroke-opacity:1" d="M 464.058,363.42 475.24,344.251 z" id="boundary" inkscape:connector-curvature="0" />
	<path style="fill:none;stroke:red;stroke-width:1px;stroke-linecap:butt;stroke-linejoin:miter;stroke-opacity:1" d="M 468.85,15.182 481.63,4 z" id="boundary" inkscape:connector-curvature="0" />
	<path style="fill:none;stroke:red;stroke-width:1px;stroke-linecap:butt;stroke-linejoin:miter;stroke-opacity:1" d="M 468.85,213.262 468.85,229.237 z" id="boundary" inkscape:connector-curvature="0" />
	<path style="fill:none;stroke:red;stroke-width:1px;stroke-linecap:butt;stroke-linejoin:miter;stroke-opacity:1" d="M 468.85,213.262 476.837,189.301 z" id="boundary" inkscape:connector-curvature="0" />
	<path style="fill:none;stroke:red;stroke-width:1px;stroke-linecap:butt;stroke-linejoin:miter;stroke-opacity:1" d="M 475.24,328.277 475.24,344.251 z" id="boundary" inkscape:connector-curvature="0" />
	<path style="fill:none;stroke:red;stroke-width:1px;stroke-linecap:butt;stroke-linejoin:miter;stroke-opacity:1" d="M 475.24,328.277 483.227,304.316 z" id="boundary" inkscape:connector-curvature="0" />
	<path style="fill:none;stroke:red;stroke-width:1px;stroke-linecap:butt;stroke-linejoin:miter;stroke-opacity:1" d="M 476.837,173.327 476.837,189.301 z" id="boundary" inkscape:connector-curvature="0" />
	<path style="fill:none;stroke:red;stroke-width:1px;stroke-linecap:butt;stroke-linejoin:miter;stroke-opacity:1" d="M 476.837,173.327 484.824,157.353 z" id="boundary" inkscape:connector-curvature="0" />
	<path style="fill:none;stroke:red;stroke-width:1px;stroke-linecap:butt;stroke-linejoin:miter;stroke-opacity:1" d="M 476.837,948.077 489.617,936.895 z" id="boundary" inkscape:connector-curvature="0" />
	<path style="fill:none;stroke:red;stroke-width:1px;stroke-linecap:butt;stroke-linejoin:miter;stroke-opacity:1" d="M 481.63,4 497.604,5.59742 z" id="boundary" inkscape:connector-curvature="0" />
	<path style="fill:none;stroke:red;stroke-width:1px;stroke-linecap:butt;stroke-linejoin:miter;stroke-opacity:1" d="M 483.227,304.316 491.214,288.341 z" id="boundary" inkscape:connector-curvature="0" />
	<path style="fill:none;stroke:red;stroke-width:1px;stroke-linecap:butt;stroke-linejoin:miter;stroke-opacity:1" d="M 484.824,141.378 484.824,157.353 z" id="boundary" inkscape:connector-curvature="0" />
	<path style="fill:none;stroke:red;stroke-width:1px;stroke-linecap:butt;stroke-linejoin:miter;stroke-opacity:1" d="M 484.824,141.378 492.812,125.404 z" id="boundary" inkscape:connector-curvature="0" />
	<path style="fill:none;stroke:red;stroke-width:1px;stroke-linecap:butt;stroke-linejoin:miter;stroke-opacity:1" d="M 489.617,936.895 500.799,924.116 z" id="boundary" inkscape:connector-curvature="0" />
	<path style="fill:none;stroke:red;stroke-width:1px;stroke-linecap:butt;stroke-linejoin:miter;stroke-opacity:1" d="M 491.214,288.341 503.994,275.562 z" id="boundary" inkscape:connector-curvature="0" />
	<path style="fill:none;stroke:red;stroke-width:1px;stroke-linecap:butt;stroke-linejoin:miter;stroke-opacity:1" d="M 492.812,125.404 500.799,101.443 z" id="boundary" inkscape:connector-curvature="0" />
	<path style="fill:none;stroke:red;stroke-width:1px;stroke-linecap:butt;stroke-linejoin:miter;stroke-opacity:1" d="M 497.604,5.59742 500.799,21.5717 z" id="boundary" inkscape:connector-curvature="0" />
	<path style="fill:none;stroke:red;stroke-width:1px;stroke-linecap:butt;stroke-linejoin:miter;stroke-opacity:1" d="M 500.799,21.5717 508.786,35.9485 z" id="boundary" inkscape:connector-curvature="0" />
	<path style="fill:none;stroke:red;stroke-width:1px;stroke-linecap:butt;stroke-linejoin:miter;stroke-opacity:1" d="M 500.799,101.443 508.786,83.8712 z" id="boundary" inkscape:connector-curvature="0" />
	<path style="fill:none;stroke:red;stroke-width:1px;stroke-linecap:butt;stroke-linejoin:miter;stroke-opacity:1" d="M 500.799,924.116 516.773,916.129 z" id="boundary" inkscape:connector-curvature="0" />
	<path style="fill:none;stroke:red;stroke-width:1px;stroke-linecap:butt;stroke-linejoin:miter;stroke-opacity:1" d="M 503.994,275.562 507.188,248.406 z" id="boundary" inkscape:connector-curvature="0" />
	<path style="fill:none;stroke:red;stroke-width:1px;stroke-linecap:butt;stroke-linejoin:miter;stroke-opacity:1" d="M 507.188,248.406 519.968,235.626 z" id="boundary" inkscape:connector-curvature="0" />
	<path style="fill:none;stroke:red;stroke-width:1px;stroke-linecap:butt;stroke-linejoin:miter;stroke-opacity:1" d="M 508.786,35.9485 508.786,51.9227 z" id="boundary" inkscape:connector-curvature="0" />
	<path style="fill:none;stroke:red;stroke-width:1px;stroke-linecap:butt;stroke-linejoin:miter;stroke-opacity:1" d="M 508.786,51.9227 508.786,67.8969 z" id="boundary" inkscape:connector-curvature="0" />
	<path style="fill:none;stroke:red;stroke-width:1px;stroke-linecap:butt;stroke-linejoin:miter;stroke-opacity:1" d="M 508.786,67.8969 508.786,83.8712 z" id="boundary" inkscape:connector-curvature="0" />
	<path style="fill:none;stroke:red;stroke-width:1px;stroke-linecap:butt;stroke-linejoin:miter;stroke-opacity:1" d="M 516.773,916.129 529.552,904.947 z" id="boundary" inkscape:connector-curvature="0" />
	<path style="fill:none;stroke:red;stroke-width:1px;stroke-linecap:butt;stroke-linejoin:miter;stroke-opacity:1" d="M 519.968,235.626 527.955,219.652 z" id="boundary" inkscape:connector-curvature="0" />
	<path style="fill:none;stroke:red;stroke-width:1px;stroke-linecap:butt;stroke-linejoin:miter;stroke-opacity:1" d="M 527.955,219.652 535.942,203.678 z" id="boundary" inkscape:connector-curvature="0" />
	<path style="fill:none;stroke:red;stroke-width:1px;stroke-linecap:butt;stroke-linejoin:miter;stroke-opacity:1" d="M 529.552,904.947 537.539,888.973 z" id="boundary" inkscape:connector-curvature="0" />
	<path style="fill:none;stroke:red;stroke-width:1px;stroke-linecap:butt;stroke-linejoin:miter;stroke-opacity:1" d="M 535.942,203.678 539.137,176.522 z" id="boundary" inkscape:connector-curvature="0" />
	<path style="fill:none;stroke:red;stroke-width:1px;stroke-linecap:butt;stroke-linejoin:miter;stroke-opacity:1" d="M 537.539,888.973 548.721,876.193 z" id="boundary" inkscape:connector-curvature="0" />
	<path style="fill:none;stroke:red;stroke-width:1px;stroke-linecap:butt;stroke-linejoin:miter;stroke-opacity:1" d="M 539.137,160.548 539.137,176.522 z" id="boundary" inkscape:connector-curvature="0" />
	<path style="fill:none;stroke:red;stroke-width:1px;stroke-linecap:butt;stroke-linejoin:miter;stroke-opacity:1" d="M 539.137,160.548 547.124,144.573 z" id="boundary" inkscape:connector-curvature="0" />
	<path style="fill:none;stroke:red;stroke-width:1px;stroke-linecap:butt;stroke-linejoin:miter;stroke-opacity:1" d="M 540.734,444.889 540.734,460.863 z" id="boundary" inkscape:connector-curvature="0" />
	<path style="fill:none;stroke:red;stroke-width:1px;stroke-linecap:butt;stroke-linejoin:miter;stroke-opacity:1" d="M 540.734,444.889 548.721,420.928 z" id="boundary" inkscape:connector-curvature="0" />
	<path style="fill:none;stroke:red;stroke-width:1px;stroke-linecap:butt;stroke-linejoin:miter;stroke-opacity:1" d="M 540.734,460.863 540.734,476.837 z" id="boundary" inkscape:connector-curvature="0" />
	<path style="fill:none;stroke:red;stroke-width:1px;stroke-linecap:butt;stroke-linejoin:miter;stroke-opacity:1" d="M 540.734,476.837 540.734,492.812 z" id="boundary" inkscape:connector-curvature="0" />
	<path style="fill:none;stroke:red;stroke-width:1px;stroke-linecap:butt;stroke-linejoin:miter;stroke-opacity:1" d="M 540.734,492.812 540.734,508.786 z" id="boundary" inkscape:connector-curvature="0" />
	<path style="fill:none;stroke:red;stroke-width:1px;stroke-linecap:butt;stroke-linejoin:miter;stroke-opacity:1" d="M 540.734,508.786 540.734,524.76 z" id="boundary" inkscape:connector-curvature="0" />
	<path style="fill:none;stroke:red;stroke-width:1px;stroke-linecap:butt;stroke-linejoin:miter;stroke-opacity:1" d="M 540.734,524.76 540.734,540.734 z" id="boundary" inkscape:connector-curvature="0" />
	<path style="fill:none;stroke:red;stroke-width:1px;stroke-linecap:butt;stroke-linejoin:miter;stroke-opacity:1" d="M 540.734,540.734 540.734,556.709 z" id="boundary" inkscape:connector-curvature="0" />
	<path style="fill:none;stroke:red;stroke-width:1px;stroke-linecap:butt;stroke-linejoin:miter;stroke-opacity:1" d="M 540.734,556.709 540.734,572.683 z" id="boundary" inkscape:connector-curvature="0" />
	<path style="fill:none;stroke:red;stroke-width:1px;stroke-linecap:butt;stroke-linejoin:miter;stroke-opacity:1" d="M 540.734,572.683 543.929,588.657 z" id="boundary" inkscape:connector-curvature="0" />
	<path style="fill:none;stroke:red;stroke-width:1px;stroke-linecap:butt;stroke-linejoin:miter;stroke-opacity:1" d="M 543.929,588.657 548.721,604.631 z" id="boundary" inkscape:connector-curvature="0" />
	<path style="fill:none;stroke:red;stroke-width:1px;stroke-linecap:butt;stroke-linejoin:miter;stroke-opacity:1" d="M 547.124,144.573 555.111,128.599 z" id="boundary" inkscape:connector-curvature="0" />
	<path style="fill:none;stroke:red;stroke-width:1px;stroke-linecap:butt;stroke-linejoin:miter;stroke-opacity:1" d="M 548.721,420.928 556.709,404.953 z" id="boundary" inkscape:connector-curvature="0" />
	<path style="fill:none;stroke:red;stroke-width:1px;stroke-linecap:butt;stroke-linejoin:miter;stroke-opacity:1" d="M 548.721,604.631 551.916,620.605 z" id="boundary" inkscape:connector-curvature="0" />
	<path style="fill:none;stroke:red;stroke-width:1px;stroke-linecap:butt;stroke-linejoin:miter;stroke-opacity:1" d="M 548.721,876.193 561.501,865.011 z" id="boundary" inkscape:connector-curvature="0" />
	<path style="fill:none;stroke:red;stroke-width:1px;stroke-linecap:butt;stroke-linejoin:miter;stroke-opacity:1" d="M 551.916,620.605 556.709,636.58 z" id="boundary" inkscape:connector-curvature="0" />
	<path style="fill:none;stroke:red;stroke-width:1px;stroke-linecap:butt;stroke-linejoin:miter;stroke-opacity:1" d="M 555.111,128.599 563.098,112.625 z" id="boundary" inkscape:connector-curvature="0" />
	<path style="fill:none;stroke:red;stroke-width:1px;stroke-linecap:butt;stroke-linejoin:miter;stroke-opacity:1" d="M 556.709,404.953 564.696,380.992 z" id="boundary" inkscape:connector-curvature="0" />
	<path style="fill:none;stroke:red;stroke-width:1px;stroke-linecap:butt;stroke-linejoin:miter;stroke-opacity:1" d="M 556.709,636.58 572.683,642.969 z" id="boundary" inkscape:connector-curvature="0" />
	<path style="fill:none;stroke:red;stroke-width:1px;stroke-linecap:butt;stroke-linejoin:miter;stroke-opacity:1" d="M 561.501,865.011 572.683,852.232 z" id="boundary" inkscape:connector-curvature="0" />
	<path style="fill:none;stroke:red;stroke-width:1px;stroke-linecap:butt;stroke-linejoin:miter;stroke-opacity:1" d="M 563.098,112.625 575.878,99.8454 z" id="boundary" inkscape:connector-curvature="0" />
	<path style="fill:none;stroke:red;stroke-width:1px;stroke-linecap:butt;stroke-linejoin:miter;stroke-opacity:1" d="M 564.696,380.992 572.683,365.018 z" id="boundary" inkscape:connector-curvature="0" />
	<path style="fill:none;stroke:red;stroke-width:1px;stroke-linecap:butt;stroke-linejoin:miter;stroke-opacity:1" d="M 572.683,365.018 580.67,341.056 z" id="boundary" inkscape:connector-curvature="0" />
	<path style="fill:none;stroke:red;stroke-width:1px;stroke-linecap:butt;stroke-linejoin:miter;stroke-opacity:1" d="M 572.683,642.969 587.06,634.982 z" id="boundary" inkscape:connector-curvature="0" />
	<path style="fill:none;stroke:red;stroke-width:1px;stroke-linecap:butt;stroke-linejoin:miter;stroke-opacity:1" d="M 572.683,852.232 580.67,836.258 z" id="boundary" inkscape:connector-curvature="0" />
	<path style="fill:none;stroke:red;stroke-width:1px;stroke-linecap:butt;stroke-linejoin:miter;stroke-opacity:1" d="M 575.878,99.8454 588.657,87.066 z" id="boundary" inkscape:connector-curvature="0" />
	<path style="fill:none;stroke:red;stroke-width:1px;stroke-linecap:butt;stroke-linejoin:miter;stroke-opacity:1" d="M 580.67,325.082 580.67,341.056 z" id="boundary" inkscape:connector-curvature="0" />
	<path style="fill:none;stroke:red;stroke-width:1px;stroke-linecap:butt;stroke-linejoin:miter;stroke-opacity:1" d="M 580.67,325.082 588.657,309.108 z" id="boundary" inkscape:connector-curvature="0" />
	<path style="fill:none;stroke:red;stroke-width:1px;stroke-linecap:butt;stroke-linejoin:miter;stroke-opacity:1" d="M 580.67,836.258 593.449,825.076 z" id="boundary" inkscape:connector-curvature="0" />
	<path style="fill:none;stroke:red;stroke-width:1px;stroke-linecap:butt;stroke-linejoin:miter;stroke-opacity:1" d="M 587.06,634.982 603.034,631.787 z" id="boundary" inkscape:connector-curvature="0" />
	<path style="fill:none;stroke:red;stroke-width:1px;stroke-linecap:butt;stroke-linejoin:miter;stroke-opacity:1" d="M 588.657,87.066 604.631,79.0789 z" id="boundary" inkscape:connector-curvature="0" />
	<path style="fill:none;stroke:red;stroke-width:1px;stroke-linecap:butt;stroke-linejoin:miter;stroke-opacity:1" d="M 588.657,309.108 596.644,293.134 z" id="boundary" inkscape:connector-curvature="0" />
	<path style="fill:none;stroke:red;stroke-width:1px;stroke-linecap:butt;stroke-linejoin:miter;stroke-opacity:1" d="M 593.449,825.076 604.631,812.296 z" id="boundary" inkscape:connector-curvature="0" />
	<path style="fill:none;stroke:red;stroke-width:1px;stroke-linecap:butt;stroke-linejoin:miter;stroke-opacity:1" d="M 596.644,293.134 604.631,277.159 z" id="boundary" inkscape:connector-curvature="0" />
	<path style="fill:none;stroke:red;stroke-width:1px;stroke-linecap:butt;stroke-linejoin:miter;stroke-opacity:1" d="M 603.034,631.787 615.813,619.008 z" id="boundary" inkscape:connector-curvature="0" />
	<path style="fill:none;stroke:red;stroke-width:1px;stroke-linecap:butt;stroke-linejoin:miter;stroke-opacity:1" d="M 604.631,79.0789 620.605,75.8841 z" id="boundary" inkscape:connector-curvature="0" />
	<path style="fill:none;stroke:red;stroke-width:1px;stroke-linecap:butt;stroke-linejoin:miter;stroke-opacity:1" d="M 604.631,277.159 612.618,253.198 z" id="boundary" inkscape:connector-curvature="0" />
	<path style="fill:none;stroke:red;stroke-width:1px;stroke-linecap:butt;stroke-linejoin:miter;stroke-opacity:1" d="M 604.631,812.296 612.618,796.322 z" id="boundary" inkscape:connector-curvature="0" />
	<path style="fill:none;stroke:red;stroke-width:1px;stroke-linecap:butt;stroke-linejoin:miter;stroke-opacity:1" d="M 612.618,237.224 612.618,253.198 z" id="boundary" inkscape:connector-curvature="0" />
	<path style="fill:none;stroke:red;stroke-width:1px;stroke-linecap:butt;stroke-linejoin:miter;stroke-opacity:1" d="M 612.618,237.224 620.605,213.262 z" id="boundary" inkscape:connector-curvature="0" />
	<path style="fill:none;stroke:red;stroke-width:1px;stroke-linecap:butt;stroke-linejoin:miter;stroke-opacity:1" d="M 612.618,796.322 626.995,788.335 z" id="boundary" inkscape:connector-curvature="0" />
	<path style="fill:none;stroke:red;stroke-width:1px;stroke-linecap:butt;stroke-linejoin:miter;stroke-opacity:1" d="M 615.813,619.008 628.593,606.229 z" id="boundary" inkscape:connector-curvature="0" />
	<path style="fill:none;stroke:red;stroke-width:1px;stroke-linecap:butt;stroke-linejoin:miter;stroke-opacity:1" d="M 620.605,75.8841 628.593,90.2609 z" id="boundary" inkscape:connector-curvature="0" />
	<path style="fill:none;stroke:red;stroke-width:1px;stroke-linecap:butt;stroke-linejoin:miter;stroke-opacity:1" d="M 620.605,213.262 628.593,197.288 z" id="boundary" inkscape:connector-curvature="0" />
	<path style="fill:none;stroke:red;stroke-width:1px;stroke-linecap:butt;stroke-linejoin:miter;stroke-opacity:1" d="M 626.995,788.335 639.775,778.75 z" id="boundary" inkscape:connector-curvature="0" />
	<path style="fill:none;stroke:red;stroke-width:1px;stroke-linecap:butt;stroke-linejoin:miter;stroke-opacity:1" d="M 628.593,90.2609 628.593,106.235 z" id="boundary" inkscape:connector-curvature="0" />
	<path style="fill:none;stroke:red;stroke-width:1px;stroke-linecap:butt;stroke-linejoin:miter;stroke-opacity:1" d="M 628.593,106.235 636.58,120.612 z" id="boundary" inkscape:connector-curvature="0" />
	<path style="fill:none;stroke:red;stroke-width:1px;stroke-linecap:butt;stroke-linejoin:miter;stroke-opacity:1" d="M 628.593,197.288 636.58,173.327 z" id="boundary" inkscape:connector-curvature="0" />
	<path style="fill:none;stroke:red;stroke-width:1px;stroke-linecap:butt;stroke-linejoin:miter;stroke-opacity:1" d="M 628.593,606.229 641.372,595.047 z" id="boundary" inkscape:connector-curvature="0" />
	<path style="fill:none;stroke:red;stroke-width:1px;stroke-linecap:butt;stroke-linejoin:miter;stroke-opacity:1" d="M 636.58,120.612 636.58,136.586 z" id="boundary" inkscape:connector-curvature="0" />
	<path style="fill:none;stroke:red;stroke-width:1px;stroke-linecap:butt;stroke-linejoin:miter;stroke-opacity:1" d="M 636.58,136.586 644.567,150.963 z" id="boundary" inkscape:connector-curvature="0" />
	<path style="fill:none;stroke:red;stroke-width:1px;stroke-linecap:butt;stroke-linejoin:miter;stroke-opacity:1" d="M 636.58,173.327 644.567,150.963 z" id="boundary" inkscape:connector-curvature="0" />
	<path style="fill:none;stroke:red;stroke-width:1px;stroke-linecap:butt;stroke-linejoin:miter;stroke-opacity:1" d="M 639.775,778.75 647.762,762.776 z" id="boundary" inkscape:connector-curvature="0" />
	<path style="fill:none;stroke:red;stroke-width:1px;stroke-linecap:butt;stroke-linejoin:miter;stroke-opacity:1" d="M 641.372,595.047 647.762,579.072 z" id="boundary" inkscape:connector-curvature="0" />
	<path style="fill:none;stroke:red;stroke-width:1px;stroke-linecap:butt;stroke-linejoin:miter;stroke-opacity:1" d="M 647.762,579.072 655.749,563.098 z" id="boundary" inkscape:connector-curvature="0" />
	<path style="fill:none;stroke:red;stroke-width:1px;stroke-linecap:butt;stroke-linejoin:miter;stroke-opacity:1" d="M 647.762,762.776 660.541,740.412 z" id="boundary" inkscape:connector-curvature="0" />
	<path style="fill:none;stroke:red;stroke-width:1px;stroke-linecap:butt;stroke-linejoin:miter;stroke-opacity:1" d="M 655.749,563.098 663.736,547.124 z" id="boundary" inkscape:connector-curvature="0" />
	<path style="fill:none;stroke:red;stroke-width:1px;stroke-linecap:butt;stroke-linejoin:miter;stroke-opacity:1" d="M 660.541,740.412 668.528,724.438 z" id="boundary" inkscape:connector-curvature="0" />
	<path style="fill:none;stroke:red;stroke-width:1px;stroke-linecap:butt;stroke-linejoin:miter;stroke-opacity:1" d="M 663.736,547.124 674.918,527.955 z" id="boundary" inkscape:connector-curvature="0" />
	<path style="fill:none;stroke:red;stroke-width:1px;stroke-linecap:butt;stroke-linejoin:miter;stroke-opacity:1" d="M 668.528,724.438 676.515,700.477 z" id="boundary" inkscape:connector-curvature="0" />
	<path style="fill:none;stroke:red;stroke-width:1px;stroke-linecap:butt;stroke-linejoin:miter;stroke-opacity:1" d="M 674.918,527.955 687.697,515.176 z" id="boundary" inkscape:connector-curvature="0" />
	<path style="fill:none;stroke:red;stroke-width:1px;stroke-linecap:butt;stroke-linejoin:miter;stroke-opacity:1" d="M 676.515,700.477 689.295,689.295 z" id="boundary" inkscape:connector-curvature="0" />
	<path style="fill:none;stroke:red;stroke-width:1px;stroke-linecap:butt;stroke-linejoin:miter;stroke-opacity:1" d="M 687.697,515.176 700.477,502.396 z" id="boundary" inkscape:connector-curvature="0" />
	<path style="fill:none;stroke:red;stroke-width:1px;stroke-linecap:butt;stroke-linejoin:miter;stroke-opacity:1" d="M 689.295,689.295 700.477,676.515 z" id="boundary" inkscape:connector-curvature="0" />
	<path style="fill:none;stroke:red;stroke-width:1px;stroke-linecap:butt;stroke-linejoin:miter;stroke-opacity:1" d="M 700.477,502.396 713.256,491.214 z" id="boundary" inkscape:connector-curvature="0" />
	<path style="fill:none;stroke:red;stroke-width:1px;stroke-linecap:butt;stroke-linejoin:miter;stroke-opacity:1" d="M 700.477,676.515 713.256,665.333 z" id="boundary" inkscape:connector-curvature="0" />
	<path style="fill:none;stroke:red;stroke-width:1px;stroke-linecap:butt;stroke-linejoin:miter;stroke-opacity:1" d="M 713.256,491.214 727.633,483.227 z" id="boundary" inkscape:connector-curvature="0" />
	<path style="fill:none;stroke:red;stroke-width:1px;stroke-linecap:butt;stroke-linejoin:miter;stroke-opacity:1" d="M 713.256,665.333 721.243,649.359 z" id="boundary" inkscape:connector-curvature="0" />
	<path style="fill:none;stroke:red;stroke-width:1px;stroke-linecap:butt;stroke-linejoin:miter;stroke-opacity:1" d="M 721.243,649.359 732.425,636.58 z" id="boundary" inkscape:connector-curvature="0" />
	<path style="fill:none;stroke:red;stroke-width:1px;stroke-linecap:butt;stroke-linejoin:miter;stroke-opacity:1" d="M 727.633,483.227 740.412,470.448 z" id="boundary" inkscape:connector-curvature="0" />
	<path style="fill:none;stroke:red;stroke-width:1px;stroke-linecap:butt;stroke-linejoin:miter;stroke-opacity:1" d="M 732.425,636.58 745.205,625.398 z" id="boundary" inkscape:connector-curvature="0" />
	<path style="fill:none;stroke:red;stroke-width:1px;stroke-linecap:butt;stroke-linejoin:miter;stroke-opacity:1" d="M 740.412,470.448 753.192,459.266 z" id="boundary" inkscape:connector-curvature="0" />
	<path style="fill:none;stroke:red;stroke-width:1px;stroke-linecap:butt;stroke-linejoin:miter;stroke-opacity:1" d="M 745.205,625.398 748.399,604.631 z" id="boundary" inkscape:connector-curvature="0" />
	<path style="fill:none;stroke:red;stroke-width:1px;stroke-linecap:butt;stroke-linejoin:miter;stroke-opacity:1" d="M 748.399,604.631 756.386,588.657 z" id="boundary" inkscape:connector-curvature="0" />
	<path style="fill:none;stroke:red;stroke-width:1px;stroke-linecap:butt;stroke-linejoin:miter;stroke-opacity:1" d="M 753.192,459.266 769.166,459.266 z" id="boundary" inkscape:connector-curvature="0" />
	<path style="fill:none;stroke:red;stroke-width:1px;stroke-linecap:butt;stroke-linejoin:miter;stroke-opacity:1" d="M 756.386,588.657 769.166,577.475 z" id="boundary" inkscape:connector-curvature="0" />
	<path style="fill:none;stroke:red;stroke-width:1px;stroke-linecap:butt;stroke-linejoin:miter;stroke-opacity:1" d="M 769.166,459.266 785.14,459.266 z" id="boundary" inkscape:connector-curvature="0" />
	<path style="fill:none;stroke:red;stroke-width:1px;stroke-linecap:butt;stroke-linejoin:miter;stroke-opacity:1" d="M 769.166,577.475 777.153,561.501 z" id="boundary" inkscape:connector-curvature="0" />
	<path style="fill:none;stroke:red;stroke-width:1px;stroke-linecap:butt;stroke-linejoin:miter;stroke-opacity:1" d="M 777.153,561.501 785.14,545.527 z" id="boundary" inkscape:connector-curvature="0" />
	<path style="fill:none;stroke:red;stroke-width:1px;stroke-linecap:butt;stroke-linejoin:miter;stroke-opacity:1" d="M 785.14,459.266 801.114,460.863 z" id="boundary" inkscape:connector-curvature="0" />
	<path style="fill:none;stroke:red;stroke-width:1px;stroke-linecap:butt;stroke-linejoin:miter;stroke-opacity:1" d="M 785.14,545.527 796.322,524.76 z" id="boundary" inkscape:connector-curvature="0" />
	<path style="fill:none;stroke:red;stroke-width:1px;stroke-linecap:butt;stroke-linejoin:miter;stroke-opacity:1" d="M 796.322,524.76 804.309,508.786 z" id="boundary" inkscape:connector-curvature="0" />
	<path style="fill:none;stroke:red;stroke-width:1px;stroke-linecap:butt;stroke-linejoin:miter;stroke-opacity:1" d="M 801.114,460.863 804.309,476.837 z" id="boundary" inkscape:connector-curvature="0" />
	<path style="fill:none;stroke:red;stroke-width:1px;stroke-linecap:butt;stroke-linejoin:miter;stroke-opacity:1" d="M 804.309,476.837 804.309,492.812 z" id="boundary" inkscape:connector-curvature="0" />
	<path style="fill:none;stroke:red;stroke-width:1px;stroke-linecap:butt;stroke-linejoin:miter;stroke-opacity:1" d="M 804.309,492.812 804.309,508.786 z" id="boundary" inkscape:connector-curvature="0" />
	<circle cx="4" cy="248.406" r="4" fill="#0" id="circle0"/>
	<circle cx="4" cy="264.38" r="4" fill="#0" id="circle1"/>
	<circle cx="11.9871" cy="278.757" r="4" fill="#0" id="circle2"/>
	<circle cx="11.9871" cy="294.731" r="4" fill="#0" id="circle3"/>
	<circle cx="16.7794" cy="235.626" r="4" fill="#0" id="circle4"/>
	<circle cx="19.9742" cy="216.457" r="4" fill="#0" id="circle5"/>
	<circle cx="19.9742" cy="309.108" r="4" fill="#0" id="circle6"/>
	<circle cx="19.9742" cy="325.082" r="4" fill="#0" id="circle7"/>
	<circle cx="27.9614" cy="192.496" r="4" fill="#0" id="circle8"/>
	<circle cx="27.9614" cy="339.459" r="4" fill="#0" id="circle9"/>
	<circle cx="27.9614" cy="355.433" r="4" fill="#0" id="circle10"/>
	<circle cx="35.9485" cy="369.81" r="4" fill="#0" id="circle11"/>
	<circle cx="43.9356" cy="198.886" r="4" fill="#0" id="circle12"/>
	<circle cx="43.9356" cy="384.187" r="4" fill="#0" id="circle13"/>
	<circle cx="51.9227" cy="398.564" r="4" fill="#0" id="circle14"/>
	<circle cx="53.5201" cy="211.665" r="4" fill="#0" id="circle15"/>
	<circle cx="59.9098" cy="412.94" r="4" fill="#0" id="circle16"/>
	<circle cx="64.7021" cy="428.915" r="4" fill="#0" id="circle17"/>
	<circle cx="67.8969" cy="444.889" r="4" fill="#0" id="circle18"/>
	<circle cx="69.4944" cy="216.457" r="4" fill="#0" id="circle19"/>
	<circle cx="69.4944" cy="232.432" r="4" fill="#0" id="circle20"/>
	<circle cx="72.6892" cy="460.863" r="4" fill="#0" id="circle21"/>
	<circle cx="75.8841" cy="248.406" r="4" fill="#0" id="circle22"/>
	<circle cx="75.8841" cy="476.837" r="4" fill="#0" id="circle23"/>
	<circle cx="83.8712" cy="491.214" r="4" fill="#0" id="circle24"/>
	<circle cx="83.8712" cy="507.188" r="4" fill="#0" id="circle25"/>
	<circle cx="85.4686" cy="261.185" r="4" fill="#0" id="circle26"/>
	<circle cx="88.6634" cy="277.159" r="4" fill="#0" id="circle27"/>
	<circle cx="91.8583" cy="521.565" r="4" fill="#0" id="circle28"/>
	<circle cx="93.4557" cy="293.134" r="4" fill="#0" id="circle29"/>
	<circle cx="93.4557" cy="537.539" r="4" fill="#0" id="circle30"/>
	<circle cx="99.8454" cy="553.514" r="4" fill="#0" id="circle31"/>
	<circle cx="99.8454" cy="569.488" r="4" fill="#0" id="circle32"/>
	<circle cx="99.8454" cy="585.462" r="4" fill="#0" id="circle33"/>
	<circle cx="99.8454" cy="601.436" r="4" fill="#0" id="circle34"/>
	<circle cx="99.8454" cy="617.411" r="4" fill="#0" id="circle35"/>
	<circle cx="99.8454" cy="633.385" r="4" fill="#0" id="circle36"/>
	<circle cx="99.8454" cy="649.359" r="4" fill="#0" id="circle37"/>
	<circle cx="99.8454" cy="665.333" r="4" fill="#0" id="circle38"/>
	<circle cx="99.8454" cy="681.308" r="4" fill="#0" id="circle39"/>
	<circle cx="99.8454" cy="697.282" r="4" fill="#0" id="circle40"/>
	<circle cx="99.8454" cy="713.256" r="4" fill="#0" id="circle41"/>
	<circle cx="99.8454" cy="729.23" r="4" fill="#0" id="circle42"/>
	<circle cx="99.8454" cy="745.205" r="4" fill="#0" id="circle43"/>
	<circle cx="99.8454" cy="761.179" r="4" fill="#0" id="circle44"/>
	<circle cx="101.443" cy="307.51" r="4" fill="#0" id="circle45"/>
	<circle cx="101.443" cy="323.485" r="4" fill="#0" id="circle46"/>
	<circle cx="107.833" cy="96.6506" r="4" fill="#0" id="circle47"/>
	<circle cx="107.833" cy="775.556" r="4" fill="#0" id="circle48"/>
	<circle cx="107.833" cy="791.53" r="4" fill="#0" id="circle49"/>
	<circle cx="107.833" cy="807.504" r="4" fill="#0" id="circle50"/>
	<circle cx="109.43" cy="337.862" r="4" fill="#0" id="circle51"/>
	<circle cx="115.82" cy="80.6763" r="4" fill="#0" id="circle52"/>
	<circle cx="115.82" cy="111.027" r="4" fill="#0" id="circle53"/>
	<circle cx="115.82" cy="821.881" r="4" fill="#0" id="circle54"/>
	<circle cx="115.82" cy="837.855" r="4" fill="#0" id="circle55"/>
	<circle cx="115.82" cy="943.285" r="4" fill="#0" id="circle56"/>
	<circle cx="117.417" cy="352.238" r="4" fill="#0" id="circle57"/>
	<circle cx="123.807" cy="125.404" r="4" fill="#0" id="circle58"/>
	<circle cx="123.807" cy="141.378" r="4" fill="#0" id="circle59"/>
	<circle cx="123.807" cy="852.232" r="4" fill="#0" id="circle60"/>
	<circle cx="123.807" cy="903.349" r="4" fill="#0" id="circle61"/>
	<circle cx="123.807" cy="919.324" r="4" fill="#0" id="circle62"/>
	<circle cx="125.404" cy="366.615" r="4" fill="#0" id="circle63"/>
	<circle cx="125.404" cy="956.064" r="4" fill="#0" id="circle64"/>
	<circle cx="128.599" cy="67.8969" r="4" fill="#0" id="circle65"/>
	<circle cx="128.599" cy="868.206" r="4" fill="#0" id="circle66"/>
	<circle cx="131.794" cy="40.7407" r="4" fill="#0" id="circle67"/>
	<circle cx="131.794" cy="155.755" r="4" fill="#0" id="circle68"/>
	<circle cx="131.794" cy="171.729" r="4" fill="#0" id="circle69"/>
	<circle cx="131.794" cy="187.704" r="4" fill="#0" id="circle70"/>
	<circle cx="131.794" cy="203.678" r="4" fill="#0" id="circle71"/>
	<circle cx="131.794" cy="884.18" r="4" fill="#0" id="circle72"/>
	<circle cx="133.391" cy="380.992" r="4" fill="#0" id="circle73"/>
	<circle cx="133.391" cy="396.966" r="4" fill="#0" id="circle74"/>
	<circle cx="139.781" cy="218.055" r="4" fill="#0" id="circle75"/>
	<circle cx="139.781" cy="234.029" r="4" fill="#0" id="circle76"/>
	<circle cx="139.781" cy="250.003" r="4" fill="#0" id="circle77"/>
	<circle cx="141.378" cy="265.977" r="4" fill="#0" id="circle78"/>
	<circle cx="141.378" cy="411.343" r="4" fill="#0" id="circle79"/>
	<circle cx="141.378" cy="956.064" r="4" fill="#0" id="circle80"/>
	<circle cx="147.768" cy="35.9485" r="4" fill="#0" id="circle81"/>
	<circle cx="147.768" cy="281.952" r="4" fill="#0" id="circle82"/>
	<circle cx="147.768" cy="297.926" r="4" fill="#0" id="circle83"/>
	<circle cx="149.366" cy="313.9" r="4" fill="#0" id="circle84"/>
	<circle cx="154.158" cy="420.928" r="4" fill="#0" id="circle85"/>
	<circle cx="155.755" cy="329.874" r="4" fill="#0" id="circle86"/>
	<circle cx="157.353" cy="956.064" r="4" fill="#0" id="circle87"/>
	<circle cx="160.548" cy="45.533" r="4" fill="#0" id="circle88"/>
	<circle cx="160.548" cy="436.902" r="4" fill="#0" id="circle89"/>
	<circle cx="163.742" cy="344.251" r="4" fill="#0" id="circle90"/>
	<circle cx="163.742" cy="360.225" r="4" fill="#0" id="circle91"/>
	<circle cx="163.742" cy="376.2" r="4" fill="#0" id="circle92"/>
	<circle cx="171.729" cy="390.576" r="4" fill="#0" id="circle93"/>
	<circle cx="171.729" cy="406.551" r="4" fill="#0" id="circle94"/>
	<circle cx="171.729" cy="422.525" r="4" fill="#0" id="circle95"/>
	<circle cx="173.327" cy="56.715" r="4" fill="#0" id="circle96"/>
	<circle cx="173.327" cy="956.064" r="4" fill="#0" id="circle97"/>
	<circle cx="184.509" cy="69.4944" r="4" fill="#0" id="circle98"/>
	<circle cx="189.301" cy="956.064" r="4" fill="#0" id="circle99"/>
	<circle cx="197.288" cy="80.6763" r="4" fill="#0" id="circle100"/>
	<circle cx="197.288" cy="96.6506" r="4" fill="#0" id="circle101"/>
	<circle cx="205.275" cy="111.027" r="4" fill="#0" id="circle102"/>
	<circle cx="205.275" cy="127.002" r="4" fill="#0" id="circle103"/>
	<circle cx="205.275" cy="142.976" r="4" fill="#0" id="circle104"/>
	<circle cx="205.275" cy="158.95" r="4" fill="#0" id="circle105"/>
	<circle cx="205.275" cy="959.259" r="4" fill="#0" id="circle106"/>
	<circle cx="213.262" cy="173.327" r="4" fill="#0" id="circle107"/>
	<circle cx="213.262" cy="189.301" r="4" fill="#0" id="circle108"/>
	<circle cx="213.262" cy="205.275" r="4" fill="#0" id="circle109"/>
	<circle cx="221.25" cy="219.652" r="4" fill="#0" id="circle110"/>
	<circle cx="221.25" cy="964.052" r="4" fill="#0" id="circle111"/>
	<circle cx="229.237" cy="234.029" r="4" fill="#0" id="circle112"/>
	<circle cx="229.237" cy="250.003" r="4" fill="#0" id="circle113"/>
	<circle cx="237.224" cy="264.38" r="4" fill="#0" id="circle114"/>
	<circle cx="237.224" cy="280.354" r="4" fill="#0" id="circle115"/>
	<circle cx="237.224" cy="964.052" r="4" fill="#0" id="circle116"/>
	<circle cx="245.211" cy="294.731" r="4" fill="#0" id="circle117"/>
	<circle cx="250.003" cy="310.705" r="4" fill="#0" id="circle118"/>
	<circle cx="253.198" cy="967.246" r="4" fill="#0" id="circle119"/>
	<circle cx="261.185" cy="323.485" r="4" fill="#0" id="circle120"/>
	<circle cx="269.172" cy="337.862" r="4" fill="#0" id="circle121"/>
	<circle cx="269.172" cy="972.039" r="4" fill="#0" id="circle122"/>
	<circle cx="281.952" cy="347.446" r="4" fill="#0" id="circle123"/>
	<circle cx="285.147" cy="972.039" r="4" fill="#0" id="circle124"/>
	<circle cx="293.134" cy="360.225" r="4" fill="#0" id="circle125"/>
	<circle cx="301.121" cy="972.039" r="4" fill="#0" id="circle126"/>
	<circle cx="305.913" cy="371.407" r="4" fill="#0" id="circle127"/>
	<circle cx="312.303" cy="355.433" r="4" fill="#0" id="circle128"/>
	<circle cx="315.498" cy="980.026" r="4" fill="#0" id="circle129"/>
	<circle cx="323.485" cy="336.264" r="4" fill="#0" id="circle130"/>
	<circle cx="331.472" cy="320.29" r="4" fill="#0" id="circle131"/>
	<circle cx="331.472" cy="980.026" r="4" fill="#0" id="circle132"/>
	<circle cx="339.459" cy="280.354" r="4" fill="#0" id="circle133"/>
	<circle cx="339.459" cy="296.329" r="4" fill="#0" id="circle134"/>
	<circle cx="347.446" cy="248.406" r="4" fill="#0" id="circle135"/>
	<circle cx="347.446" cy="264.38" r="4" fill="#0" id="circle136"/>
	<circle cx="347.446" cy="980.026" r="4" fill="#0" id="circle137"/>
	<circle cx="360.225" cy="235.626" r="4" fill="#0" id="circle138"/>
	<circle cx="363.42" cy="980.026" r="4" fill="#0" id="circle139"/>
	<circle cx="368.213" cy="219.652" r="4" fill="#0" id="circle140"/>
	<circle cx="371.407" cy="200.483" r="4" fill="#0" id="circle141"/>
	<circle cx="377.797" cy="988.013" r="4" fill="#0" id="circle142"/>
	<circle cx="379.395" cy="184.509" r="4" fill="#0" id="circle143"/>
	<circle cx="387.382" cy="168.535" r="4" fill="#0" id="circle144"/>
	<circle cx="393.771" cy="988.013" r="4" fill="#0" id="circle145"/>
	<circle cx="395.369" cy="144.573" r="4" fill="#0" id="circle146"/>
	<circle cx="403.356" cy="112.625" r="4" fill="#0" id="circle147"/>
	<circle cx="403.356" cy="128.599" r="4" fill="#0" id="circle148"/>
	<circle cx="409.746" cy="988.013" r="4" fill="#0" id="circle149"/>
	<circle cx="411.343" cy="96.6506" r="4" fill="#0" id="circle150"/>
	<circle cx="419.33" cy="80.6763" r="4" fill="#0" id="circle151"/>
	<circle cx="424.122" cy="996" r="4" fill="#0" id="circle152"/>
	<circle cx="427.317" cy="48.7279" r="4" fill="#0" id="circle153"/>
	<circle cx="427.317" cy="64.7021" r="4" fill="#0" id="circle154"/>
	<circle cx="428.915" cy="365.018" r="4" fill="#0" id="circle155"/>
	<circle cx="428.915" cy="380.992" r="4" fill="#0" id="circle156"/>
	<circle cx="428.915" cy="396.966" r="4" fill="#0" id="circle157"/>
	<circle cx="436.902" cy="341.056" r="4" fill="#0" id="circle158"/>
	<circle cx="440.097" cy="35.9485" r="4" fill="#0" id="circle159"/>
	<circle cx="440.097" cy="994.403" r="4" fill="#0" id="circle160"/>
	<circle cx="444.889" cy="285.147" r="4" fill="#0" id="circle161"/>
	<circle cx="444.889" cy="301.121" r="4" fill="#0" id="circle162"/>
	<circle cx="444.889" cy="317.095" r="4" fill="#0" id="circle163"/>
	<circle cx="444.889" cy="390.576" r="4" fill="#0" id="circle164"/>
	<circle cx="448.084" cy="978.428" r="4" fill="#0" id="circle165"/>
	<circle cx="452.876" cy="23.1691" r="4" fill="#0" id="circle166"/>
	<circle cx="452.876" cy="269.172" r="4" fill="#0" id="circle167"/>
	<circle cx="457.668" cy="379.395" r="4" fill="#0" id="circle168"/>
	<circle cx="460.863" cy="245.211" r="4" fill="#0" id="circle169"/>
	<circle cx="460.863" cy="956.064" r="4" fill="#0" id="circle170"/>
	<circle cx="464.058" cy="363.42" r="4" fill="#0" id="circle171"/>
	<circle cx="468.85" cy="15.182" r="4" fill="#0" id="circle172"/>
	<circle cx="468.85" cy="213.262" r="4" fill="#0" id="circle173"/>
	<circle cx="468.85" cy="229.237" r="4" fill="#0" id="circle174"/>
	<circle cx="475.24" cy="328.277" r="4" fill="#0" id="circle175"/>
	<circle cx="475.24" cy="344.251" r="4" fill="#0" id="circle176"/>
	<circle cx="476.837" cy="173.327" r="4" fill="#0" id="circle177"/>
	<circle cx="476.837" cy="189.301" r="4" fill="#0" id="circle178"/>
	<circle cx="476.837" cy="948.077" r="4" fill="#0" id="circle179"/>
	<circle cx="481.63" cy="4" r="4" fill="#0" id="circle180"/>
	<circle cx="483.227" cy="304.316" r="4" fill="#0" id="circle181"/>
	<circle cx="484.824" cy="141.378" r="4" fill="#0" id="circle182"/>
	<circle cx="484.824" cy="157.353" r="4" fill="#0" id="circle183"/>
	<circle cx="489.617" cy="936.895" r="4" fill="#0" id="circle184"/>
	<circle cx="491.214" cy="288.341" r="4" fill="#0" id="circle185"/>
	<circle cx="492.812" cy="125.404" r="4" fill="#0" id="circle186"/>
	<circle cx="497.604" cy="5.59742" r="4" fill="#0" id="circle187"/>
	<circle cx="500.799" cy="21.5717" r="4" fill="#0" id="circle188"/>
	<circle cx="500.799" cy="101.443" r="4" fill="#0" id="circle189"/>
	<circle cx="500.799" cy="924.116" r="4" fill="#0" id="circle190"/>
	<circle cx="503.994" cy="275.562" r="4" fill="#0" id="circle191"/>
	<circle cx="507.188" cy="248.406" r="4" fill="#0" id="circle192"/>
	<circle cx="508.786" cy="35.9485" r="4" fill="#0" id="circle193"/>
	<circle cx="508.786" cy="51.9227" r="4" fill="#0" id="circle194"/>
	<circle cx="508.786" cy="67.8969" r="4" fill="#0" id="circle195"/>
	<circle cx="508.786" cy="83.8712" r="4" fill="#0" id="circle196"/>
	<circle cx="516.773" cy="916.129" r="4" fill="#0" id="circle197"/>
	<circle cx="519.968" cy="235.626" r="4" fill="#0" id="circle198"/>
	<circle cx="527.955" cy="219.652" r="4" fill="#0" id="circle199"/>
	<circle cx="529.552" cy="904.947" r="4" fill="#0" id="circle200"/>
	<circle cx="535.942" cy="203.678" r="4" fill="#0" id="circle201"/>
	<circle cx="537.539" cy="888.973" r="4" fill="#0" id="circle202"/>
	<circle cx="539.137" cy="160.548" r="4" fill="#0" id="circle203"/>
	<circle cx="539.137" cy="176.522" r="4" fill="#0" id="circle204"/>
	<circle cx="540.734" cy="444.889" r="4" fill="#0" id="circle205"/>
	<circle cx="540.734" cy="460.863" r="4" fill="#0" id="circle206"/>
	<circle cx="540.734" cy="476.837" r="4" fill="#0" id="circle207"/>
	<circle cx="540.734" cy="492.812" r="4" fill="#0" id="circle208"/>
	<circle cx="540.734" cy="508.786" r="4" fill="#0" id="circle209"/>
	<circle cx="540.734" cy="524.76" r="4" fill="#0" id="circle210"/>
	<circle cx="540.734" cy="540.734" r="4" fill="#0" id="circle211"/>
	<circle cx="540.734" cy="556.709" r="4" fill="#0" id="circle212"/>
	<circle cx="540.734" cy="572.683" r="4" fill="#0" id="circle213"/>
	<circle cx="543.929" cy="588.657" r="4" fill="#0" id="circle214"/>
	<circle cx="547.124" cy="144.573" r="4" fill="#0" id="circle215"/>
	<circle cx="548.721" cy="420.928" r="4" fill="#0" id="circle216"/>
	<circle cx="548.721" cy="604.631" r="4" fill="#0" id="circle217"/>
	<circle cx="548.721" cy="876.193" r="4" fill="#0" id="circle218"/>
	<circle cx="551.916" cy="620.605" r="4" fill="#0" id="circle219"/>
	<circle cx="555.111" cy="128.599" r="4" fill="#0" id="circle220"/>
	<circle cx="556.709" cy="404.953" r="4" fill="#0" id="circle221"/>
	<circle cx="556.709" cy="636.58" r="4" fill="#0" id="circle222"/>
	<circle cx="561.501" cy="865.011" r="4" fill="#0" id="circle223"/>
	<circle cx="563.098" cy="112.625" r="4" fill="#0" id="circle224"/>
	<circle cx="564.696" cy="380.992" r="4" fill="#0" id="circle225"/>
	<circle cx="572.683" cy="365.018" r="4" fill="#0" id="circle226"/>
	<circle cx="572.683" cy="642.969" r="4" fill="#0" id="circle227"/>
	<circle cx="572.683" cy="852.232" r="4" fill="#0" id="circle228"/>
	<circle cx="575.878" cy="99.8454" r="4" fill="#0" id="circle229"/>
	<circle cx="580.67" cy="325.082" r="4" fill="#0" id="circle230"/>
	<circle cx="580.67" cy="341.056" r="4" fill="#0" id="circle231"/>
	<circle cx="580.67" cy="836.258" r="4" fill="#0" id="circle232"/>
	<circle cx="587.06" cy="634.982" r="4" fill="#0" id="circle233"/>
	<circle cx="588.657" cy="87.066" r="4" fill="#0" id="circle234"/>
	<circle cx="588.657" cy="309.108" r="4" fill="#0" id="circle235"/>
	<circle cx="593.449" cy="825.076" r="4" fill="#0" id="circle236"/>
	<circle cx="596.644" cy="293.134" r="4" fill="#0" id="circle237"/>
	<circle cx="603.034" cy="631.787" r="4" fill="#0" id="circle238"/>
	<circle cx="604.631" cy="79.0789" r="4" fill="#0" id="circle239"/>
	<circle cx="604.631" cy="277.159" r="4" fill="#0" id="circle240"/>
	<circle cx="604.631" cy="812.296" r="4" fill="#0" id="circle241"/>
	<circle cx="612.618" cy="237.224" r="4" fill="#0" id="circle242"/>
	<circle cx="612.618" cy="253.198" r="4" fill="#0" id="circle243"/>
	<circle cx="612.618" cy="796.322" r="4" fill="#0" id="circle244"/>
	<circle cx="615.813" cy="619.008" r="4" fill="#0" id="circle245"/>
	<circle cx="620.605" cy="75.8841" r="4" fill="#0" id="circle246"/>
	<circle cx="620.605" cy="213.262" r="4" fill="#0" id="circle247"/>
	<circle cx="626.995" cy="788.335" r="4" fill="#0" id="circle248"/>
	<circle cx="628.593" cy="90.2609" r="4" fill="#0" id="circle249"/>
	<circle cx="628.593" cy="106.235" r="4" fill="#0" id="circle250"/>
	<circle cx="628.593" cy="197.288" r="4" fill="#0" id="circle251"/>
	<circle cx="628.593" cy="606.229" r="4" fill="#0" id="circle252"/>
	<circle cx="636.58" cy="120.612" r="4" fill="#0" id="circle253"/>
	<circle cx="636.58" cy="136.586" r="4" fill="#0" id="circle254"/>
	<circle cx="636.58" cy="173.327" r="4" fill="#0" id="circle255"/>
	<circle cx="639.775" cy="778.75" r="4" fill="#0" id="circle256"/>
	<circle cx="641.372" cy="595.047" r="4" fill="#0" id="circle257"/>
	<circle cx="644.567" cy="150.963" r="4" fill="#0" id="circle258"/>
	<circle cx="647.762" cy="579.072" r="4" fill="#0" id="circle259"/>
	<circle cx="647.762" cy="762.776" r="4" fill="#0" id="circle260"/>
	<circle cx="655.749" cy="563.098" r="4" fill="#0" id="circle261"/>
	<circle cx="660.541" cy="740.412" r="4" fill="#0" id="circle262"/>
	<circle cx="663.736" cy="547.124" r="4" fill="#0" id="circle263"/>
	<circle cx="668.528" cy="724.438" r="4" fill="#0" id="circle264"/>
	<circle cx="674.918" cy="527.955" r="4" fill="#0" id="circle265"/>
	<circle cx="676.515" cy="700.477" r="4" fill="#0" id="circle266"/>
	<circle cx="687.697" cy="515.176" r="4" fill="#0" id="circle267"/>
	<circle cx="689.295" cy="689.295" r="4" fill="#0" id="circle268"/>
	<circle cx="700.477" cy="502.396" r="4" fill="#0" id="circle269"/>
	<circle cx="700.477" cy="676.515" r="4" fill="#0" id="circle270"/>
	<circle cx="713.256" cy="491.214" r="4" fill="#0" id="circle271"/>
	<circle cx="713.256" cy="665.333" r="4" fill="#0" id="circle272"/>
	<circle cx="721.243" cy="649.359" r="4" fill="#0" id="circle273"/>
	<circle cx="727.633" cy="483.227" r="4" fill="#0" id="circle274"/>
	<circle cx="732.425" cy="636.58" r="4" fill="#0" id="circle275"/>
	<circle cx="740.412" cy="470.448" r="4" fill="#0" id="circle276"/>
	<circle cx="745.205" cy="625.398" r="4" fill="#0" id="circle277"/>
	<circle cx="748.399" cy="604.631" r="4" fill="#0" id="circle278"/>
	<circle cx="753.192" cy="459.266" r="4" fill="#0" id="circle279"/>
	<circle cx="756.386" cy="588.657" r="4" fill="#0" id="circle280"/>
	<circle cx="769.166" cy="459.266" r="4" fill="#0" id="circle281"/>
	<circle cx="769.166" cy="577.475" r="4" fill="#0" id="circle282"/>
	<circle cx="777.153" cy="561.501" r="4" fill="#0" id="circle283"/>
	<circle cx="785.14" cy="459.266" r="4" fill="#0" id="circle284"/>
	<circle cx="785.14" cy="545.527" r="4" fill="#0" id="circle285"/>
	<circle cx="796.322" cy="524.76" r="4" fill="#0" id="circle286"/>
	<circle cx="801.114" cy="460.863" r="4" fill="#0" id="circle287"/>
	<circle cx="804.309" cy="476.837" r="4" fill="#0" id="circle288"/>
	<circle cx="804.309" cy="492.812" r="4" fill="#0" id="circle289"/>
	<circle cx="804.309" cy="508.786" r="4" fill="#0" id="circle290"/>
	</g>
</svg>