<?xml version="1.0" encoding="UTF-8" standalone="no"?>
<!-- Created with CurveBenchmark -->
<svg
	xmlns:dc="http://purl.org/dc/elements/1.1/"
	xmlns:cc="http://creativecommons.org/ns#"
	xmlns:rdf="http://www.w3.org/1999/02/22-rdf-syntax-ns#"
	xmlns:svg="http://www.w3.org/2000/svg"
	xmlns="http://www.w3.org/2000/svg"
	xmlns:sodipodi="http://sodipodi.sourceforge.net/DTD/sodipodi-0.dtd"
	xmlns:inkscape="http://www.inkscape.org/namespaces/inkscape"
	width="1000"
	height="1000"
	id="svg2"
	version="1.1"
	sodipodi:docname="manifold/vicur-chopper16.png.txt">
<defs
	id="defs4" />
<metadata
	id="metadata7">
	<rdf:RDF>
		<cc:Work
			rdf:about="">
			<dc:format>image/svg+xml</dc:format>
			<dc:type
				rdf:resource="http://purl.org/dc/dcmitype/StillImage" />
			<dc:title></dc:title>
		</cc:Work>
	</rdf:RDF>
</metadata>
<g
	inkscape:label="Layer 1"
	inkscape:groupmode="layer"
	id="layer1">
	<path style="fill:none;stroke:red;stroke-width:1px;stroke-linecap:butt;stroke-linejoin:miter;stroke-opacity:1" d="M 4,396.479 13.0018,369.474 z" id="boundary" inkscape:connector-curvature="0" />
	<path style="fill:none;stroke:red;stroke-width:1px;stroke-linecap:butt;stroke-linejoin:miter;stroke-opacity:1" d="M 4,396.479 13.0018,412.682 z" id="boundary" inkscape:connector-curvature="0" />
	<path style="fill:none;stroke:red;stroke-width:1px;stroke-linecap:butt;stroke-linejoin:miter;stroke-opacity:1" d="M 13.0018,315.463 13.0018,333.466 z" id="boundary" inkscape:connector-curvature="0" />
	<path style="fill:none;stroke:red;stroke-width:1px;stroke-linecap:butt;stroke-linejoin:miter;stroke-opacity:1" d="M 13.0018,315.463 27.4047,301.06 z" id="boundary" inkscape:connector-curvature="0" />
	<path style="fill:none;stroke:red;stroke-width:1px;stroke-linecap:butt;stroke-linejoin:miter;stroke-opacity:1" d="M 13.0018,333.466 13.0018,351.47 z" id="boundary" inkscape:connector-curvature="0" />
	<path style="fill:none;stroke:red;stroke-width:1px;stroke-linecap:butt;stroke-linejoin:miter;stroke-opacity:1" d="M 13.0018,351.47 13.0018,369.474 z" id="boundary" inkscape:connector-curvature="0" />
	<path style="fill:none;stroke:red;stroke-width:1px;stroke-linecap:butt;stroke-linejoin:miter;stroke-opacity:1" d="M 13.0018,412.682 25.6044,427.085 z" id="boundary" inkscape:connector-curvature="0" />
	<path style="fill:none;stroke:red;stroke-width:1px;stroke-linecap:butt;stroke-linejoin:miter;stroke-opacity:1" d="M 25.6044,427.085 40.0073,437.887 z" id="boundary" inkscape:connector-curvature="0" />
	<path style="fill:none;stroke:red;stroke-width:1px;stroke-linecap:butt;stroke-linejoin:miter;stroke-opacity:1" d="M 27.4047,301.06 36.4065,283.056 z" id="boundary" inkscape:connector-curvature="0" />
	<path style="fill:none;stroke:red;stroke-width:1px;stroke-linecap:butt;stroke-linejoin:miter;stroke-opacity:1" d="M 36.4065,283.056 50.8094,268.653 z" id="boundary" inkscape:connector-curvature="0" />
	<path style="fill:none;stroke:red;stroke-width:1px;stroke-linecap:butt;stroke-linejoin:miter;stroke-opacity:1" d="M 40.0073,437.887 50.8094,452.29 z" id="boundary" inkscape:connector-curvature="0" />
	<path style="fill:none;stroke:red;stroke-width:1px;stroke-linecap:butt;stroke-linejoin:miter;stroke-opacity:1" d="M 50.8094,268.653 59.8113,250.65 z" id="boundary" inkscape:connector-curvature="0" />
	<path style="fill:none;stroke:red;stroke-width:1px;stroke-linecap:butt;stroke-linejoin:miter;stroke-opacity:1" d="M 50.8094,452.29 68.8131,459.492 z" id="boundary" inkscape:connector-curvature="0" />
	<path style="fill:none;stroke:red;stroke-width:1px;stroke-linecap:butt;stroke-linejoin:miter;stroke-opacity:1" d="M 59.8113,250.65 76.0145,234.446 z" id="boundary" inkscape:connector-curvature="0" />
	<path style="fill:none;stroke:red;stroke-width:1px;stroke-linecap:butt;stroke-linejoin:miter;stroke-opacity:1" d="M 68.8131,459.492 86.8167,464.893 z" id="boundary" inkscape:connector-curvature="0" />
	<path style="fill:none;stroke:red;stroke-width:1px;stroke-linecap:butt;stroke-linejoin:miter;stroke-opacity:1" d="M 76.0145,234.446 90.4174,220.044 z" id="boundary" inkscape:connector-curvature="0" />
	<path style="fill:none;stroke:red;stroke-width:1px;stroke-linecap:butt;stroke-linejoin:miter;stroke-opacity:1" d="M 86.8167,464.893 104.82,464.893 z" id="boundary" inkscape:connector-curvature="0" />
	<path style="fill:none;stroke:red;stroke-width:1px;stroke-linecap:butt;stroke-linejoin:miter;stroke-opacity:1" d="M 90.4174,220.044 108.421,211.042 z" id="boundary" inkscape:connector-curvature="0" />
	<path style="fill:none;stroke:red;stroke-width:1px;stroke-linecap:butt;stroke-linejoin:miter;stroke-opacity:1" d="M 104.82,464.893 122.824,464.893 z" id="boundary" inkscape:connector-curvature="0" />
	<path style="fill:none;stroke:red;stroke-width:1px;stroke-linecap:butt;stroke-linejoin:miter;stroke-opacity:1" d="M 108.421,211.042 126.425,202.04 z" id="boundary" inkscape:connector-curvature="0" />
	<path style="fill:none;stroke:red;stroke-width:1px;stroke-linecap:butt;stroke-linejoin:miter;stroke-opacity:1" d="M 108.421,544.109 122.824,554.911 z" id="boundary" inkscape:connector-curvature="0" />
	<path style="fill:none;stroke:red;stroke-width:1px;stroke-linecap:butt;stroke-linejoin:miter;stroke-opacity:1" d="M 108.421,544.109 126.425,535.107 z" id="boundary" inkscape:connector-curvature="0" />
	<path style="fill:none;stroke:red;stroke-width:1px;stroke-linecap:butt;stroke-linejoin:miter;stroke-opacity:1" d="M 122.824,464.893 140.828,464.893 z" id="boundary" inkscape:connector-curvature="0" />
	<path style="fill:none;stroke:red;stroke-width:1px;stroke-linecap:butt;stroke-linejoin:miter;stroke-opacity:1" d="M 122.824,554.911 140.828,554.911 z" id="boundary" inkscape:connector-curvature="0" />
	<path style="fill:none;stroke:red;stroke-width:1px;stroke-linecap:butt;stroke-linejoin:miter;stroke-opacity:1" d="M 126.425,202.04 142.628,193.038 z" id="boundary" inkscape:connector-curvature="0" />
	<path style="fill:none;stroke:red;stroke-width:1px;stroke-linecap:butt;stroke-linejoin:miter;stroke-opacity:1" d="M 140.828,464.893 158.831,464.893 z" id="boundary" inkscape:connector-curvature="0" />
	<path style="fill:none;stroke:red;stroke-width:1px;stroke-linecap:butt;stroke-linejoin:miter;stroke-opacity:1" d="M 140.828,554.911 155.23,544.109 z" id="boundary" inkscape:connector-curvature="0" />
	<path style="fill:none;stroke:red;stroke-width:1px;stroke-linecap:butt;stroke-linejoin:miter;stroke-opacity:1" d="M 142.628,193.038 158.831,184.036 z" id="boundary" inkscape:connector-curvature="0" />
	<path style="fill:none;stroke:red;stroke-width:1px;stroke-linecap:butt;stroke-linejoin:miter;stroke-opacity:1" d="M 155.23,544.109 171.434,535.107 z" id="boundary" inkscape:connector-curvature="0" />
	<path style="fill:none;stroke:red;stroke-width:1px;stroke-linecap:butt;stroke-linejoin:miter;stroke-opacity:1" d="M 158.831,184.036 175.034,175.034 z" id="boundary" inkscape:connector-curvature="0" />
	<path style="fill:none;stroke:red;stroke-width:1px;stroke-linecap:butt;stroke-linejoin:miter;stroke-opacity:1" d="M 158.831,464.893 176.835,464.893 z" id="boundary" inkscape:connector-curvature="0" />
	<path style="fill:none;stroke:red;stroke-width:1px;stroke-linecap:butt;stroke-linejoin:miter;stroke-opacity:1" d="M 169.633,554.911 187.637,554.911 z" id="boundary" inkscape:connector-curvature="0" />
	<path style="fill:none;stroke:red;stroke-width:1px;stroke-linecap:butt;stroke-linejoin:miter;stroke-opacity:1" d="M 171.434,535.107 189.437,535.107 z" id="boundary" inkscape:connector-curvature="0" />
	<path style="fill:none;stroke:red;stroke-width:1px;stroke-linecap:butt;stroke-linejoin:miter;stroke-opacity:1" d="M 175.034,175.034 193.038,175.034 z" id="boundary" inkscape:connector-curvature="0" />
	<path style="fill:none;stroke:red;stroke-width:1px;stroke-linecap:butt;stroke-linejoin:miter;stroke-opacity:1" d="M 176.835,464.893 194.838,464.893 z" id="boundary" inkscape:connector-curvature="0" />
	<path style="fill:none;stroke:red;stroke-width:1px;stroke-linecap:butt;stroke-linejoin:miter;stroke-opacity:1" d="M 187.637,554.911 203.84,545.909 z" id="boundary" inkscape:connector-curvature="0" />
	<path style="fill:none;stroke:red;stroke-width:1px;stroke-linecap:butt;stroke-linejoin:miter;stroke-opacity:1" d="M 189.437,535.107 207.441,526.105 z" id="boundary" inkscape:connector-curvature="0" />
	<path style="fill:none;stroke:red;stroke-width:1px;stroke-linecap:butt;stroke-linejoin:miter;stroke-opacity:1" d="M 193.038,175.034 209.241,166.033 z" id="boundary" inkscape:connector-curvature="0" />
	<path style="fill:none;stroke:red;stroke-width:1px;stroke-linecap:butt;stroke-linejoin:miter;stroke-opacity:1" d="M 194.838,464.893 212.842,464.893 z" id="boundary" inkscape:connector-curvature="0" />
	<path style="fill:none;stroke:red;stroke-width:1px;stroke-linecap:butt;stroke-linejoin:miter;stroke-opacity:1" d="M 203.84,545.909 221.844,545.909 z" id="boundary" inkscape:connector-curvature="0" />
	<path style="fill:none;stroke:red;stroke-width:1px;stroke-linecap:butt;stroke-linejoin:miter;stroke-opacity:1" d="M 207.441,526.105 221.844,511.702 z" id="boundary" inkscape:connector-curvature="0" />
	<path style="fill:none;stroke:red;stroke-width:1px;stroke-linecap:butt;stroke-linejoin:miter;stroke-opacity:1" d="M 209.241,166.033 225.445,157.031 z" id="boundary" inkscape:connector-curvature="0" />
	<path style="fill:none;stroke:red;stroke-width:1px;stroke-linecap:butt;stroke-linejoin:miter;stroke-opacity:1" d="M 212.842,464.893 229.045,473.895 z" id="boundary" inkscape:connector-curvature="0" />
	<path style="fill:none;stroke:red;stroke-width:1px;stroke-linecap:butt;stroke-linejoin:miter;stroke-opacity:1" d="M 221.844,511.702 229.045,491.898 z" id="boundary" inkscape:connector-curvature="0" />
	<path style="fill:none;stroke:red;stroke-width:1px;stroke-linecap:butt;stroke-linejoin:miter;stroke-opacity:1" d="M 221.844,545.909 239.848,545.909 z" id="boundary" inkscape:connector-curvature="0" />
	<path style="fill:none;stroke:red;stroke-width:1px;stroke-linecap:butt;stroke-linejoin:miter;stroke-opacity:1" d="M 225.445,157.031 243.448,148.029 z" id="boundary" inkscape:connector-curvature="0" />
	<path style="fill:none;stroke:red;stroke-width:1px;stroke-linecap:butt;stroke-linejoin:miter;stroke-opacity:1" d="M 229.045,473.895 229.045,491.898 z" id="boundary" inkscape:connector-curvature="0" />
	<path style="fill:none;stroke:red;stroke-width:1px;stroke-linecap:butt;stroke-linejoin:miter;stroke-opacity:1" d="M 239.848,545.909 257.851,545.909 z" id="boundary" inkscape:connector-curvature="0" />
	<path style="fill:none;stroke:red;stroke-width:1px;stroke-linecap:butt;stroke-linejoin:miter;stroke-opacity:1" d="M 243.448,148.029 261.452,148.029 z" id="boundary" inkscape:connector-curvature="0" />
	<path style="fill:none;stroke:red;stroke-width:1px;stroke-linecap:butt;stroke-linejoin:miter;stroke-opacity:1" d="M 257.851,545.909 275.855,536.907 z" id="boundary" inkscape:connector-curvature="0" />
	<path style="fill:none;stroke:red;stroke-width:1px;stroke-linecap:butt;stroke-linejoin:miter;stroke-opacity:1" d="M 261.452,148.029 279.456,139.027 z" id="boundary" inkscape:connector-curvature="0" />
	<path style="fill:none;stroke:red;stroke-width:1px;stroke-linecap:butt;stroke-linejoin:miter;stroke-opacity:1" d="M 275.855,536.907 293.858,536.907 z" id="boundary" inkscape:connector-curvature="0" />
	<path style="fill:none;stroke:red;stroke-width:1px;stroke-linecap:butt;stroke-linejoin:miter;stroke-opacity:1" d="M 279.456,139.027 295.659,130.025 z" id="boundary" inkscape:connector-curvature="0" />
	<path style="fill:none;stroke:red;stroke-width:1px;stroke-linecap:butt;stroke-linejoin:miter;stroke-opacity:1" d="M 293.858,536.907 310.062,527.906 z" id="boundary" inkscape:connector-curvature="0" />
	<path style="fill:none;stroke:red;stroke-width:1px;stroke-linecap:butt;stroke-linejoin:miter;stroke-opacity:1" d="M 295.659,130.025 313.662,130.025 z" id="boundary" inkscape:connector-curvature="0" />
	<path style="fill:none;stroke:red;stroke-width:1px;stroke-linecap:butt;stroke-linejoin:miter;stroke-opacity:1" d="M 310.062,527.906 328.065,531.506 z" id="boundary" inkscape:connector-curvature="0" />
	<path style="fill:none;stroke:red;stroke-width:1px;stroke-linecap:butt;stroke-linejoin:miter;stroke-opacity:1" d="M 313.662,130.025 331.666,130.025 z" id="boundary" inkscape:connector-curvature="0" />
	<path style="fill:none;stroke:red;stroke-width:1px;stroke-linecap:butt;stroke-linejoin:miter;stroke-opacity:1" d="M 319.064,18.4029 337.067,13.0018 z" id="boundary" inkscape:connector-curvature="0" />
	<path style="fill:none;stroke:red;stroke-width:1px;stroke-linecap:butt;stroke-linejoin:miter;stroke-opacity:1" d="M 319.064,18.4029 340.668,31.0054 z" id="boundary" inkscape:connector-curvature="0" />
	<path style="fill:none;stroke:red;stroke-width:1px;stroke-linecap:butt;stroke-linejoin:miter;stroke-opacity:1" d="M 328.065,531.506 346.069,527.906 z" id="boundary" inkscape:connector-curvature="0" />
	<path style="fill:none;stroke:red;stroke-width:1px;stroke-linecap:butt;stroke-linejoin:miter;stroke-opacity:1" d="M 331.666,130.025 347.869,139.027 z" id="boundary" inkscape:connector-curvature="0" />
	<path style="fill:none;stroke:red;stroke-width:1px;stroke-linecap:butt;stroke-linejoin:miter;stroke-opacity:1" d="M 337.067,13.0018 355.071,13.0018 z" id="boundary" inkscape:connector-curvature="0" />
	<path style="fill:none;stroke:red;stroke-width:1px;stroke-linecap:butt;stroke-linejoin:miter;stroke-opacity:1" d="M 340.668,31.0054 358.672,32.8058 z" id="boundary" inkscape:connector-curvature="0" />
	<path style="fill:none;stroke:red;stroke-width:1px;stroke-linecap:butt;stroke-linejoin:miter;stroke-opacity:1" d="M 346.069,527.906 364.073,527.906 z" id="boundary" inkscape:connector-curvature="0" />
	<path style="fill:none;stroke:red;stroke-width:1px;stroke-linecap:butt;stroke-linejoin:miter;stroke-opacity:1" d="M 347.869,139.027 365.873,139.027 z" id="boundary" inkscape:connector-curvature="0" />
	<path style="fill:none;stroke:red;stroke-width:1px;stroke-linecap:butt;stroke-linejoin:miter;stroke-opacity:1" d="M 355.071,13.0018 373.074,13.0018 z" id="boundary" inkscape:connector-curvature="0" />
	<path style="fill:none;stroke:red;stroke-width:1px;stroke-linecap:butt;stroke-linejoin:miter;stroke-opacity:1" d="M 358.672,32.8058 364.073,50.8094 z" id="boundary" inkscape:connector-curvature="0" />
	<path style="fill:none;stroke:red;stroke-width:1px;stroke-linecap:butt;stroke-linejoin:miter;stroke-opacity:1" d="M 364.073,50.8094 374.875,65.2123 z" id="boundary" inkscape:connector-curvature="0" />
	<path style="fill:none;stroke:red;stroke-width:1px;stroke-linecap:butt;stroke-linejoin:miter;stroke-opacity:1" d="M 364.073,527.906 382.076,522.505 z" id="boundary" inkscape:connector-curvature="0" />
	<path style="fill:none;stroke:red;stroke-width:1px;stroke-linecap:butt;stroke-linejoin:miter;stroke-opacity:1" d="M 365.873,139.027 382.076,130.025 z" id="boundary" inkscape:connector-curvature="0" />
	<path style="fill:none;stroke:red;stroke-width:1px;stroke-linecap:butt;stroke-linejoin:miter;stroke-opacity:1" d="M 373.074,13.0018 391.078,13.0018 z" id="boundary" inkscape:connector-curvature="0" />
	<path style="fill:none;stroke:red;stroke-width:1px;stroke-linecap:butt;stroke-linejoin:miter;stroke-opacity:1" d="M 374.875,65.2123 389.278,77.8149 z" id="boundary" inkscape:connector-curvature="0" />
	<path style="fill:none;stroke:red;stroke-width:1px;stroke-linecap:butt;stroke-linejoin:miter;stroke-opacity:1" d="M 382.076,130.025 391.078,108.421 z" id="boundary" inkscape:connector-curvature="0" />
	<path style="fill:none;stroke:red;stroke-width:1px;stroke-linecap:butt;stroke-linejoin:miter;stroke-opacity:1" d="M 382.076,522.505 400.08,527.906 z" id="boundary" inkscape:connector-curvature="0" />
	<path style="fill:none;stroke:red;stroke-width:1px;stroke-linecap:butt;stroke-linejoin:miter;stroke-opacity:1" d="M 389.278,77.8149 401.88,92.2178 z" id="boundary" inkscape:connector-curvature="0" />
	<path style="fill:none;stroke:red;stroke-width:1px;stroke-linecap:butt;stroke-linejoin:miter;stroke-opacity:1" d="M 391.078,13.0018 407.281,4 z" id="boundary" inkscape:connector-curvature="0" />
	<path style="fill:none;stroke:red;stroke-width:1px;stroke-linecap:butt;stroke-linejoin:miter;stroke-opacity:1" d="M 391.078,108.421 401.88,92.2178 z" id="boundary" inkscape:connector-curvature="0" />
	<path style="fill:none;stroke:red;stroke-width:1px;stroke-linecap:butt;stroke-linejoin:miter;stroke-opacity:1" d="M 400.08,527.906 418.083,522.505 z" id="boundary" inkscape:connector-curvature="0" />
	<path style="fill:none;stroke:red;stroke-width:1px;stroke-linecap:butt;stroke-linejoin:miter;stroke-opacity:1" d="M 407.281,4 423.485,13.0018 z" id="boundary" inkscape:connector-curvature="0" />
	<path style="fill:none;stroke:red;stroke-width:1px;stroke-linecap:butt;stroke-linejoin:miter;stroke-opacity:1" d="M 410.882,50.8094 414.483,68.8131 z" id="boundary" inkscape:connector-curvature="0" />
	<path style="fill:none;stroke:red;stroke-width:1px;stroke-linecap:butt;stroke-linejoin:miter;stroke-opacity:1" d="M 410.882,50.8094 428.886,41.8076 z" id="boundary" inkscape:connector-curvature="0" />
	<path style="fill:none;stroke:red;stroke-width:1px;stroke-linecap:butt;stroke-linejoin:miter;stroke-opacity:1" d="M 414.483,68.8131 419.884,86.8167 z" id="boundary" inkscape:connector-curvature="0" />
	<path style="fill:none;stroke:red;stroke-width:1px;stroke-linecap:butt;stroke-linejoin:miter;stroke-opacity:1" d="M 418.083,522.505 436.087,518.904 z" id="boundary" inkscape:connector-curvature="0" />
	<path style="fill:none;stroke:red;stroke-width:1px;stroke-linecap:butt;stroke-linejoin:miter;stroke-opacity:1" d="M 419.884,86.8167 419.884,104.82 z" id="boundary" inkscape:connector-curvature="0" />
	<path style="fill:none;stroke:red;stroke-width:1px;stroke-linecap:butt;stroke-linejoin:miter;stroke-opacity:1" d="M 419.884,104.82 419.884,122.824 z" id="boundary" inkscape:connector-curvature="0" />
	<path style="fill:none;stroke:red;stroke-width:1px;stroke-linecap:butt;stroke-linejoin:miter;stroke-opacity:1" d="M 419.884,122.824 428.886,139.027 z" id="boundary" inkscape:connector-curvature="0" />
	<path style="fill:none;stroke:red;stroke-width:1px;stroke-linecap:butt;stroke-linejoin:miter;stroke-opacity:1" d="M 423.485,13.0018 439.688,22.0036 z" id="boundary" inkscape:connector-curvature="0" />
	<path style="fill:none;stroke:red;stroke-width:1px;stroke-linecap:butt;stroke-linejoin:miter;stroke-opacity:1" d="M 428.886,41.8076 439.688,22.0036 z" id="boundary" inkscape:connector-curvature="0" />
	<path style="fill:none;stroke:red;stroke-width:1px;stroke-linecap:butt;stroke-linejoin:miter;stroke-opacity:1" d="M 428.886,139.027 446.889,133.626 z" id="boundary" inkscape:connector-curvature="0" />
	<path style="fill:none;stroke:red;stroke-width:1px;stroke-linecap:butt;stroke-linejoin:miter;stroke-opacity:1" d="M 436.087,518.904 454.091,513.503 z" id="boundary" inkscape:connector-curvature="0" />
	<path style="fill:none;stroke:red;stroke-width:1px;stroke-linecap:butt;stroke-linejoin:miter;stroke-opacity:1" d="M 446.889,133.626 464.893,130.025 z" id="boundary" inkscape:connector-curvature="0" />
	<path style="fill:none;stroke:red;stroke-width:1px;stroke-linecap:butt;stroke-linejoin:miter;stroke-opacity:1" d="M 454.091,513.503 455.891,482.897 z" id="boundary" inkscape:connector-curvature="0" />
	<path style="fill:none;stroke:red;stroke-width:1px;stroke-linecap:butt;stroke-linejoin:miter;stroke-opacity:1" d="M 455.891,482.897 464.893,464.893 z" id="boundary" inkscape:connector-curvature="0" />
	<path style="fill:none;stroke:red;stroke-width:1px;stroke-linecap:butt;stroke-linejoin:miter;stroke-opacity:1" d="M 464.893,130.025 475.695,113.822 z" id="boundary" inkscape:connector-curvature="0" />
	<path style="fill:none;stroke:red;stroke-width:1px;stroke-linecap:butt;stroke-linejoin:miter;stroke-opacity:1" d="M 464.893,464.893 482.897,455.891 z" id="boundary" inkscape:connector-curvature="0" />
	<path style="fill:none;stroke:red;stroke-width:1px;stroke-linecap:butt;stroke-linejoin:miter;stroke-opacity:1" d="M 475.695,113.822 493.699,104.82 z" id="boundary" inkscape:connector-curvature="0" />
	<path style="fill:none;stroke:red;stroke-width:1px;stroke-linecap:butt;stroke-linejoin:miter;stroke-opacity:1" d="M 482.897,455.891 500.9,446.889 z" id="boundary" inkscape:connector-curvature="0" />
	<path style="fill:none;stroke:red;stroke-width:1px;stroke-linecap:butt;stroke-linejoin:miter;stroke-opacity:1" d="M 493.699,104.82 511.702,112.022 z" id="boundary" inkscape:connector-curvature="0" />
	<path style="fill:none;stroke:red;stroke-width:1px;stroke-linecap:butt;stroke-linejoin:miter;stroke-opacity:1" d="M 500.9,446.889 518.904,446.889 z" id="boundary" inkscape:connector-curvature="0" />
	<path style="fill:none;stroke:red;stroke-width:1px;stroke-linecap:butt;stroke-linejoin:miter;stroke-opacity:1" d="M 511.702,112.022 529.706,112.022 z" id="boundary" inkscape:connector-curvature="0" />
	<path style="fill:none;stroke:red;stroke-width:1px;stroke-linecap:butt;stroke-linejoin:miter;stroke-opacity:1" d="M 518.904,446.889 536.907,446.889 z" id="boundary" inkscape:connector-curvature="0" />
	<path style="fill:none;stroke:red;stroke-width:1px;stroke-linecap:butt;stroke-linejoin:miter;stroke-opacity:1" d="M 529.706,112.022 547.71,104.82 z" id="boundary" inkscape:connector-curvature="0" />
	<path style="fill:none;stroke:red;stroke-width:1px;stroke-linecap:butt;stroke-linejoin:miter;stroke-opacity:1" d="M 536.907,446.889 553.111,437.887 z" id="boundary" inkscape:connector-curvature="0" />
	<path style="fill:none;stroke:red;stroke-width:1px;stroke-linecap:butt;stroke-linejoin:miter;stroke-opacity:1" d="M 547.71,104.82 556.711,121.024 z" id="boundary" inkscape:connector-curvature="0" />
	<path style="fill:none;stroke:red;stroke-width:1px;stroke-linecap:butt;stroke-linejoin:miter;stroke-opacity:1" d="M 553.111,437.887 569.314,446.889 z" id="boundary" inkscape:connector-curvature="0" />
	<path style="fill:none;stroke:red;stroke-width:1px;stroke-linecap:butt;stroke-linejoin:miter;stroke-opacity:1" d="M 556.711,121.024 571.114,133.626 z" id="boundary" inkscape:connector-curvature="0" />
	<path style="fill:none;stroke:red;stroke-width:1px;stroke-linecap:butt;stroke-linejoin:miter;stroke-opacity:1" d="M 569.314,446.889 587.318,446.889 z" id="boundary" inkscape:connector-curvature="0" />
	<path style="fill:none;stroke:red;stroke-width:1px;stroke-linecap:butt;stroke-linejoin:miter;stroke-opacity:1" d="M 571.114,133.626 589.118,139.027 z" id="boundary" inkscape:connector-curvature="0" />
	<path style="fill:none;stroke:red;stroke-width:1px;stroke-linecap:butt;stroke-linejoin:miter;stroke-opacity:1" d="M 587.318,446.889 605.321,446.889 z" id="boundary" inkscape:connector-curvature="0" />
	<path style="fill:none;stroke:red;stroke-width:1px;stroke-linecap:butt;stroke-linejoin:miter;stroke-opacity:1" d="M 589.118,139.027 607.122,139.027 z" id="boundary" inkscape:connector-curvature="0" />
	<path style="fill:none;stroke:red;stroke-width:1px;stroke-linecap:butt;stroke-linejoin:miter;stroke-opacity:1" d="M 599.92,203.84 603.521,221.844 z" id="boundary" inkscape:connector-curvature="0" />
	<path style="fill:none;stroke:red;stroke-width:1px;stroke-linecap:butt;stroke-linejoin:miter;stroke-opacity:1" d="M 599.92,203.84 617.924,203.84 z" id="boundary" inkscape:connector-curvature="0" />
	<path style="fill:none;stroke:red;stroke-width:1px;stroke-linecap:butt;stroke-linejoin:miter;stroke-opacity:1" d="M 603.521,221.844 621.525,229.045 z" id="boundary" inkscape:connector-curvature="0" />
	<path style="fill:none;stroke:red;stroke-width:1px;stroke-linecap:butt;stroke-linejoin:miter;stroke-opacity:1" d="M 605.321,446.889 621.525,437.887 z" id="boundary" inkscape:connector-curvature="0" />
	<path style="fill:none;stroke:red;stroke-width:1px;stroke-linecap:butt;stroke-linejoin:miter;stroke-opacity:1" d="M 607.122,139.027 625.125,139.027 z" id="boundary" inkscape:connector-curvature="0" />
	<path style="fill:none;stroke:red;stroke-width:1px;stroke-linecap:butt;stroke-linejoin:miter;stroke-opacity:1" d="M 617.924,203.84 634.127,194.838 z" id="boundary" inkscape:connector-curvature="0" />
	<path style="fill:none;stroke:red;stroke-width:1px;stroke-linecap:butt;stroke-linejoin:miter;stroke-opacity:1" d="M 617.924,383.877 626.926,400.08 z" id="boundary" inkscape:connector-curvature="0" />
	<path style="fill:none;stroke:red;stroke-width:1px;stroke-linecap:butt;stroke-linejoin:miter;stroke-opacity:1" d="M 617.924,383.877 635.927,374.875 z" id="boundary" inkscape:connector-curvature="0" />
	<path style="fill:none;stroke:red;stroke-width:1px;stroke-linecap:butt;stroke-linejoin:miter;stroke-opacity:1" d="M 621.525,229.045 639.528,229.045 z" id="boundary" inkscape:connector-curvature="0" />
	<path style="fill:none;stroke:red;stroke-width:1px;stroke-linecap:butt;stroke-linejoin:miter;stroke-opacity:1" d="M 621.525,437.887 637.728,446.889 z" id="boundary" inkscape:connector-curvature="0" />
	<path style="fill:none;stroke:red;stroke-width:1px;stroke-linecap:butt;stroke-linejoin:miter;stroke-opacity:1" d="M 625.125,139.027 643.129,142.628 z" id="boundary" inkscape:connector-curvature="0" />
	<path style="fill:none;stroke:red;stroke-width:1px;stroke-linecap:butt;stroke-linejoin:miter;stroke-opacity:1" d="M 626.926,400.08 644.929,391.078 z" id="boundary" inkscape:connector-curvature="0" />
	<path style="fill:none;stroke:red;stroke-width:1px;stroke-linecap:butt;stroke-linejoin:miter;stroke-opacity:1" d="M 634.127,194.838 652.131,198.439 z" id="boundary" inkscape:connector-curvature="0" />
	<path style="fill:none;stroke:red;stroke-width:1px;stroke-linecap:butt;stroke-linejoin:miter;stroke-opacity:1" d="M 635.927,374.875 653.931,365.873 z" id="boundary" inkscape:connector-curvature="0" />
	<path style="fill:none;stroke:red;stroke-width:1px;stroke-linecap:butt;stroke-linejoin:miter;stroke-opacity:1" d="M 637.728,446.889 653.931,437.887 z" id="boundary" inkscape:connector-curvature="0" />
	<path style="fill:none;stroke:red;stroke-width:1px;stroke-linecap:butt;stroke-linejoin:miter;stroke-opacity:1" d="M 639.528,229.045 657.532,229.045 z" id="boundary" inkscape:connector-curvature="0" />
	<path style="fill:none;stroke:red;stroke-width:1px;stroke-linecap:butt;stroke-linejoin:miter;stroke-opacity:1" d="M 643.129,142.628 659.332,151.63 z" id="boundary" inkscape:connector-curvature="0" />
	<path style="fill:none;stroke:red;stroke-width:1px;stroke-linecap:butt;stroke-linejoin:miter;stroke-opacity:1" d="M 644.929,391.078 659.332,401.88 z" id="boundary" inkscape:connector-curvature="0" />
	<path style="fill:none;stroke:red;stroke-width:1px;stroke-linecap:butt;stroke-linejoin:miter;stroke-opacity:1" d="M 652.131,198.439 670.134,194.838 z" id="boundary" inkscape:connector-curvature="0" />
	<path style="fill:none;stroke:red;stroke-width:1px;stroke-linecap:butt;stroke-linejoin:miter;stroke-opacity:1" d="M 653.931,365.873 671.935,356.871 z" id="boundary" inkscape:connector-curvature="0" />
	<path style="fill:none;stroke:red;stroke-width:1px;stroke-linecap:butt;stroke-linejoin:miter;stroke-opacity:1" d="M 653.931,419.884 653.931,437.887 z" id="boundary" inkscape:connector-curvature="0" />
	<path style="fill:none;stroke:red;stroke-width:1px;stroke-linecap:butt;stroke-linejoin:miter;stroke-opacity:1" d="M 653.931,419.884 659.332,401.88 z" id="boundary" inkscape:connector-curvature="0" />
	<path style="fill:none;stroke:red;stroke-width:1px;stroke-linecap:butt;stroke-linejoin:miter;stroke-opacity:1" d="M 657.532,229.045 675.535,229.045 z" id="boundary" inkscape:connector-curvature="0" />
	<path style="fill:none;stroke:red;stroke-width:1px;stroke-linecap:butt;stroke-linejoin:miter;stroke-opacity:1" d="M 659.332,151.63 677.336,158.831 z" id="boundary" inkscape:connector-curvature="0" />
	<path style="fill:none;stroke:red;stroke-width:1px;stroke-linecap:butt;stroke-linejoin:miter;stroke-opacity:1" d="M 670.134,194.838 684.537,184.036 z" id="boundary" inkscape:connector-curvature="0" />
	<path style="fill:none;stroke:red;stroke-width:1px;stroke-linecap:butt;stroke-linejoin:miter;stroke-opacity:1" d="M 671.935,356.871 689.938,347.869 z" id="boundary" inkscape:connector-curvature="0" />
	<path style="fill:none;stroke:red;stroke-width:1px;stroke-linecap:butt;stroke-linejoin:miter;stroke-opacity:1" d="M 675.535,229.045 693.539,229.045 z" id="boundary" inkscape:connector-curvature="0" />
	<path style="fill:none;stroke:red;stroke-width:1px;stroke-linecap:butt;stroke-linejoin:miter;stroke-opacity:1" d="M 677.336,158.831 684.537,184.036 z" id="boundary" inkscape:connector-curvature="0" />
	<path style="fill:none;stroke:red;stroke-width:1px;stroke-linecap:butt;stroke-linejoin:miter;stroke-opacity:1" d="M 689.938,347.869 707.942,347.869 z" id="boundary" inkscape:connector-curvature="0" />
	<path style="fill:none;stroke:red;stroke-width:1px;stroke-linecap:butt;stroke-linejoin:miter;stroke-opacity:1" d="M 693.539,229.045 711.543,229.045 z" id="boundary" inkscape:connector-curvature="0" />
	<path style="fill:none;stroke:red;stroke-width:1px;stroke-linecap:butt;stroke-linejoin:miter;stroke-opacity:1" d="M 707.942,347.869 725.946,338.868 z" id="boundary" inkscape:connector-curvature="0" />
	<path style="fill:none;stroke:red;stroke-width:1px;stroke-linecap:butt;stroke-linejoin:miter;stroke-opacity:1" d="M 711.543,229.045 729.546,220.044 z" id="boundary" inkscape:connector-curvature="0" />
	<path style="fill:none;stroke:red;stroke-width:1px;stroke-linecap:butt;stroke-linejoin:miter;stroke-opacity:1" d="M 725.946,338.868 743.949,338.868 z" id="boundary" inkscape:connector-curvature="0" />
	<path style="fill:none;stroke:red;stroke-width:1px;stroke-linecap:butt;stroke-linejoin:miter;stroke-opacity:1" d="M 729.546,220.044 747.55,220.044 z" id="boundary" inkscape:connector-curvature="0" />
	<path style="fill:none;stroke:red;stroke-width:1px;stroke-linecap:butt;stroke-linejoin:miter;stroke-opacity:1" d="M 743.949,338.868 760.152,329.866 z" id="boundary" inkscape:connector-curvature="0" />
	<path style="fill:none;stroke:red;stroke-width:1px;stroke-linecap:butt;stroke-linejoin:miter;stroke-opacity:1" d="M 747.55,220.044 763.753,211.042 z" id="boundary" inkscape:connector-curvature="0" />
	<path style="fill:none;stroke:red;stroke-width:1px;stroke-linecap:butt;stroke-linejoin:miter;stroke-opacity:1" d="M 760.152,329.866 778.156,329.866 z" id="boundary" inkscape:connector-curvature="0" />
	<path style="fill:none;stroke:red;stroke-width:1px;stroke-linecap:butt;stroke-linejoin:miter;stroke-opacity:1" d="M 763.753,211.042 781.757,211.042 z" id="boundary" inkscape:connector-curvature="0" />
	<path style="fill:none;stroke:red;stroke-width:1px;stroke-linecap:butt;stroke-linejoin:miter;stroke-opacity:1" d="M 778.156,329.866 796.16,329.866 z" id="boundary" inkscape:connector-curvature="0" />
	<path style="fill:none;stroke:red;stroke-width:1px;stroke-linecap:butt;stroke-linejoin:miter;stroke-opacity:1" d="M 781.757,211.042 799.76,211.042 z" id="boundary" inkscape:connector-curvature="0" />
	<path style="fill:none;stroke:red;stroke-width:1px;stroke-linecap:butt;stroke-linejoin:miter;stroke-opacity:1" d="M 796.16,329.866 810.563,319.064 z" id="boundary" inkscape:connector-curvature="0" />
	<path style="fill:none;stroke:red;stroke-width:1px;stroke-linecap:butt;stroke-linejoin:miter;stroke-opacity:1" d="M 799.76,211.042 817.764,211.042 z" id="boundary" inkscape:connector-curvature="0" />
	<path style="fill:none;stroke:red;stroke-width:1px;stroke-linecap:butt;stroke-linejoin:miter;stroke-opacity:1" d="M 810.563,319.064 828.566,310.062 z" id="boundary" inkscape:connector-curvature="0" />
	<path style="fill:none;stroke:red;stroke-width:1px;stroke-linecap:butt;stroke-linejoin:miter;stroke-opacity:1" d="M 817.764,211.042 835.768,211.042 z" id="boundary" inkscape:connector-curvature="0" />
	<path style="fill:none;stroke:red;stroke-width:1px;stroke-linecap:butt;stroke-linejoin:miter;stroke-opacity:1" d="M 828.566,310.062 846.57,301.06 z" id="boundary" inkscape:connector-curvature="0" />
	<path style="fill:none;stroke:red;stroke-width:1px;stroke-linecap:butt;stroke-linejoin:miter;stroke-opacity:1" d="M 835.768,211.042 853.771,203.84 z" id="boundary" inkscape:connector-curvature="0" />
	<path style="fill:none;stroke:red;stroke-width:1px;stroke-linecap:butt;stroke-linejoin:miter;stroke-opacity:1" d="M 846.57,301.06 864.574,293.858 z" id="boundary" inkscape:connector-curvature="0" />
	<path style="fill:none;stroke:red;stroke-width:1px;stroke-linecap:butt;stroke-linejoin:miter;stroke-opacity:1" d="M 853.771,203.84 871.775,202.04 z" id="boundary" inkscape:connector-curvature="0" />
	<path style="fill:none;stroke:red;stroke-width:1px;stroke-linecap:butt;stroke-linejoin:miter;stroke-opacity:1" d="M 864.574,293.858 880.777,284.857 z" id="boundary" inkscape:connector-curvature="0" />
	<path style="fill:none;stroke:red;stroke-width:1px;stroke-linecap:butt;stroke-linejoin:miter;stroke-opacity:1" d="M 871.775,202.04 889.779,202.04 z" id="boundary" inkscape:connector-curvature="0" />
	<path style="fill:none;stroke:red;stroke-width:1px;stroke-linecap:butt;stroke-linejoin:miter;stroke-opacity:1" d="M 880.777,284.857 896.98,275.855 z" id="boundary" inkscape:connector-curvature="0" />
	<path style="fill:none;stroke:red;stroke-width:1px;stroke-linecap:butt;stroke-linejoin:miter;stroke-opacity:1" d="M 889.779,202.04 907.782,202.04 z" id="boundary" inkscape:connector-curvature="0" />
	<path style="fill:none;stroke:red;stroke-width:1px;stroke-linecap:butt;stroke-linejoin:miter;stroke-opacity:1" d="M 896.98,275.855 911.383,263.252 z" id="boundary" inkscape:connector-curvature="0" />
	<path style="fill:none;stroke:red;stroke-width:1px;stroke-linecap:butt;stroke-linejoin:miter;stroke-opacity:1" d="M 907.782,202.04 925.786,202.04 z" id="boundary" inkscape:connector-curvature="0" />
	<path style="fill:none;stroke:red;stroke-width:1px;stroke-linecap:butt;stroke-linejoin:miter;stroke-opacity:1" d="M 911.383,263.252 929.387,254.25 z" id="boundary" inkscape:connector-curvature="0" />
	<path style="fill:none;stroke:red;stroke-width:1px;stroke-linecap:butt;stroke-linejoin:miter;stroke-opacity:1" d="M 925.786,202.04 943.789,202.04 z" id="boundary" inkscape:connector-curvature="0" />
	<path style="fill:none;stroke:red;stroke-width:1px;stroke-linecap:butt;stroke-linejoin:miter;stroke-opacity:1" d="M 929.387,254.25 947.39,254.25 z" id="boundary" inkscape:connector-curvature="0" />
	<path style="fill:none;stroke:red;stroke-width:1px;stroke-linecap:butt;stroke-linejoin:miter;stroke-opacity:1" d="M 943.789,202.04 961.793,202.04 z" id="boundary" inkscape:connector-curvature="0" />
	<path style="fill:none;stroke:red;stroke-width:1px;stroke-linecap:butt;stroke-linejoin:miter;stroke-opacity:1" d="M 947.39,254.25 959.993,239.848 z" id="boundary" inkscape:connector-curvature="0" />
	<path style="fill:none;stroke:red;stroke-width:1px;stroke-linecap:butt;stroke-linejoin:miter;stroke-opacity:1" d="M 959.993,239.848 977.996,239.848 z" id="boundary" inkscape:connector-curvature="0" />
	<path style="fill:none;stroke:red;stroke-width:1px;stroke-linecap:butt;stroke-linejoin:miter;stroke-opacity:1" d="M 961.793,202.04 979.797,202.04 z" id="boundary" inkscape:connector-curvature="0" />
	<path style="fill:none;stroke:red;stroke-width:1px;stroke-linecap:butt;stroke-linejoin:miter;stroke-opacity:1" d="M 977.996,239.848 996,230.846 z" id="boundary" inkscape:connector-curvature="0" />
	<path style="fill:none;stroke:red;stroke-width:1px;stroke-linecap:butt;stroke-linejoin:miter;stroke-opacity:1" d="M 979.797,202.04 996,211.042 z" id="boundary" inkscape:connector-curvature="0" />
	<path style="fill:none;stroke:red;stroke-width:1px;stroke-linecap:butt;stroke-linejoin:miter;stroke-opacity:1" d="M 996,211.042 996,230.846 z" id="boundary" inkscape:connector-curvature="0" />
	<circle cx="4" cy="396.479" r="4" fill="#0" id="circle0"/>
	<circle cx="13.0018" cy="315.463" r="4" fill="#0" id="circle1"/>
	<circle cx="13.0018" cy="333.466" r="4" fill="#0" id="circle2"/>
	<circle cx="13.0018" cy="351.47" r="4" fill="#0" id="circle3"/>
	<circle cx="13.0018" cy="369.474" r="4" fill="#0" id="circle4"/>
	<circle cx="13.0018" cy="412.682" r="4" fill="#0" id="circle5"/>
	<circle cx="25.6044" cy="427.085" r="4" fill="#0" id="circle6"/>
	<circle cx="27.4047" cy="301.06" r="4" fill="#0" id="circle7"/>
	<circle cx="36.4065" cy="283.056" r="4" fill="#0" id="circle8"/>
	<circle cx="40.0073" cy="437.887" r="4" fill="#0" id="circle9"/>
	<circle cx="50.8094" cy="268.653" r="4" fill="#0" id="circle10"/>
	<circle cx="50.8094" cy="452.29" r="4" fill="#0" id="circle11"/>
	<circle cx="59.8113" cy="250.65" r="4" fill="#0" id="circle12"/>
	<circle cx="68.8131" cy="459.492" r="4" fill="#0" id="circle13"/>
	<circle cx="76.0145" cy="234.446" r="4" fill="#0" id="circle14"/>
	<circle cx="86.8167" cy="464.893" r="4" fill="#0" id="circle15"/>
	<circle cx="90.4174" cy="220.044" r="4" fill="#0" id="circle16"/>
	<circle cx="94.0181" cy="558.512" r="4" fill="#0" id="circle17"/>
	<circle cx="104.82" cy="464.893" r="4" fill="#0" id="circle18"/>
	<circle cx="108.421" cy="211.042" r="4" fill="#0" id="circle19"/>
	<circle cx="108.421" cy="544.109" r="4" fill="#0" id="circle20"/>
	<circle cx="122.824" cy="464.893" r="4" fill="#0" id="circle21"/>
	<circle cx="122.824" cy="554.911" r="4" fill="#0" id="circle22"/>
	<circle cx="126.425" cy="202.04" r="4" fill="#0" id="circle23"/>
	<circle cx="126.425" cy="535.107" r="4" fill="#0" id="circle24"/>
	<circle cx="140.828" cy="464.893" r="4" fill="#0" id="circle25"/>
	<circle cx="140.828" cy="554.911" r="4" fill="#0" id="circle26"/>
	<circle cx="142.628" cy="193.038" r="4" fill="#0" id="circle27"/>
	<circle cx="155.23" cy="544.109" r="4" fill="#0" id="circle28"/>
	<circle cx="158.831" cy="184.036" r="4" fill="#0" id="circle29"/>
	<circle cx="158.831" cy="464.893" r="4" fill="#0" id="circle30"/>
	<circle cx="169.633" cy="554.911" r="4" fill="#0" id="circle31"/>
	<circle cx="171.434" cy="535.107" r="4" fill="#0" id="circle32"/>
	<circle cx="175.034" cy="175.034" r="4" fill="#0" id="circle33"/>
	<circle cx="176.835" cy="464.893" r="4" fill="#0" id="circle34"/>
	<circle cx="187.637" cy="554.911" r="4" fill="#0" id="circle35"/>
	<circle cx="189.437" cy="535.107" r="4" fill="#0" id="circle36"/>
	<circle cx="193.038" cy="175.034" r="4" fill="#0" id="circle37"/>
	<circle cx="194.838" cy="464.893" r="4" fill="#0" id="circle38"/>
	<circle cx="203.84" cy="545.909" r="4" fill="#0" id="circle39"/>
	<circle cx="207.441" cy="526.105" r="4" fill="#0" id="circle40"/>
	<circle cx="209.241" cy="166.033" r="4" fill="#0" id="circle41"/>
	<circle cx="212.842" cy="464.893" r="4" fill="#0" id="circle42"/>
	<circle cx="221.844" cy="511.702" r="4" fill="#0" id="circle43"/>
	<circle cx="221.844" cy="545.909" r="4" fill="#0" id="circle44"/>
	<circle cx="225.445" cy="157.031" r="4" fill="#0" id="circle45"/>
	<circle cx="229.045" cy="473.895" r="4" fill="#0" id="circle46"/>
	<circle cx="229.045" cy="491.898" r="4" fill="#0" id="circle47"/>
	<circle cx="239.848" cy="545.909" r="4" fill="#0" id="circle48"/>
	<circle cx="243.448" cy="148.029" r="4" fill="#0" id="circle49"/>
	<circle cx="257.851" cy="545.909" r="4" fill="#0" id="circle50"/>
	<circle cx="261.452" cy="148.029" r="4" fill="#0" id="circle51"/>
	<circle cx="275.855" cy="536.907" r="4" fill="#0" id="circle52"/>
	<circle cx="279.456" cy="139.027" r="4" fill="#0" id="circle53"/>
	<circle cx="293.858" cy="536.907" r="4" fill="#0" id="circle54"/>
	<circle cx="295.659" cy="130.025" r="4" fill="#0" id="circle55"/>
	<circle cx="310.062" cy="527.906" r="4" fill="#0" id="circle56"/>
	<circle cx="313.662" cy="130.025" r="4" fill="#0" id="circle57"/>
	<circle cx="319.064" cy="18.4029" r="4" fill="#0" id="circle58"/>
	<circle cx="328.065" cy="531.506" r="4" fill="#0" id="circle59"/>
	<circle cx="331.666" cy="130.025" r="4" fill="#0" id="circle60"/>
	<circle cx="337.067" cy="13.0018" r="4" fill="#0" id="circle61"/>
	<circle cx="340.668" cy="31.0054" r="4" fill="#0" id="circle62"/>
	<circle cx="346.069" cy="527.906" r="4" fill="#0" id="circle63"/>
	<circle cx="347.869" cy="139.027" r="4" fill="#0" id="circle64"/>
	<circle cx="355.071" cy="13.0018" r="4" fill="#0" id="circle65"/>
	<circle cx="358.672" cy="32.8058" r="4" fill="#0" id="circle66"/>
	<circle cx="364.073" cy="50.8094" r="4" fill="#0" id="circle67"/>
	<circle cx="364.073" cy="527.906" r="4" fill="#0" id="circle68"/>
	<circle cx="365.873" cy="139.027" r="4" fill="#0" id="circle69"/>
	<circle cx="373.074" cy="13.0018" r="4" fill="#0" id="circle70"/>
	<circle cx="374.875" cy="65.2123" r="4" fill="#0" id="circle71"/>
	<circle cx="382.076" cy="130.025" r="4" fill="#0" id="circle72"/>
	<circle cx="382.076" cy="522.505" r="4" fill="#0" id="circle73"/>
	<circle cx="389.278" cy="77.8149" r="4" fill="#0" id="circle74"/>
	<circle cx="391.078" cy="13.0018" r="4" fill="#0" id="circle75"/>
	<circle cx="391.078" cy="108.421" r="4" fill="#0" id="circle76"/>
	<circle cx="400.08" cy="527.906" r="4" fill="#0" id="circle77"/>
	<circle cx="401.88" cy="92.2178" r="4" fill="#0" id="circle78"/>
	<circle cx="407.281" cy="4" r="4" fill="#0" id="circle79"/>
	<circle cx="410.882" cy="50.8094" r="4" fill="#0" id="circle80"/>
	<circle cx="414.483" cy="68.8131" r="4" fill="#0" id="circle81"/>
	<circle cx="418.083" cy="522.505" r="4" fill="#0" id="circle82"/>
	<circle cx="419.884" cy="86.8167" r="4" fill="#0" id="circle83"/>
	<circle cx="419.884" cy="104.82" r="4" fill="#0" id="circle84"/>
	<circle cx="419.884" cy="122.824" r="4" fill="#0" id="circle85"/>
	<circle cx="423.485" cy="13.0018" r="4" fill="#0" id="circle86"/>
	<circle cx="428.886" cy="41.8076" r="4" fill="#0" id="circle87"/>
	<circle cx="428.886" cy="139.027" r="4" fill="#0" id="circle88"/>
	<circle cx="436.087" cy="518.904" r="4" fill="#0" id="circle89"/>
	<circle cx="439.688" cy="22.0036" r="4" fill="#0" id="circle90"/>
	<circle cx="446.889" cy="133.626" r="4" fill="#0" id="circle91"/>
	<circle cx="454.091" cy="513.503" r="4" fill="#0" id="circle92"/>
	<circle cx="455.891" cy="482.897" r="4" fill="#0" id="circle93"/>
	<circle cx="464.893" cy="130.025" r="4" fill="#0" id="circle94"/>
	<circle cx="464.893" cy="464.893" r="4" fill="#0" id="circle95"/>
	<circle cx="475.695" cy="113.822" r="4" fill="#0" id="circle96"/>
	<circle cx="482.897" cy="455.891" r="4" fill="#0" id="circle97"/>
	<circle cx="493.699" cy="104.82" r="4" fill="#0" id="circle98"/>
	<circle cx="500.9" cy="446.889" r="4" fill="#0" id="circle99"/>
	<circle cx="511.702" cy="112.022" r="4" fill="#0" id="circle100"/>
	<circle cx="518.904" cy="446.889" r="4" fill="#0" id="circle101"/>
	<circle cx="529.706" cy="112.022" r="4" fill="#0" id="circle102"/>
	<circle cx="536.907" cy="446.889" r="4" fill="#0" id="circle103"/>
	<circle cx="547.71" cy="104.82" r="4" fill="#0" id="circle104"/>
	<circle cx="553.111" cy="437.887" r="4" fill="#0" id="circle105"/>
	<circle cx="556.711" cy="121.024" r="4" fill="#0" id="circle106"/>
	<circle cx="569.314" cy="446.889" r="4" fill="#0" id="circle107"/>
	<circle cx="571.114" cy="133.626" r="4" fill="#0" id="circle108"/>
	<circle cx="587.318" cy="446.889" r="4" fill="#0" id="circle109"/>
	<circle cx="589.118" cy="139.027" r="4" fill="#0" id="circle110"/>
	<circle cx="599.92" cy="203.84" r="4" fill="#0" id="circle111"/>
	<circle cx="603.521" cy="221.844" r="4" fill="#0" id="circle112"/>
	<circle cx="605.321" cy="446.889" r="4" fill="#0" id="circle113"/>
	<circle cx="607.122" cy="139.027" r="4" fill="#0" id="circle114"/>
	<circle cx="617.924" cy="203.84" r="4" fill="#0" id="circle115"/>
	<circle cx="617.924" cy="383.877" r="4" fill="#0" id="circle116"/>
	<circle cx="621.525" cy="229.045" r="4" fill="#0" id="circle117"/>
	<circle cx="621.525" cy="437.887" r="4" fill="#0" id="circle118"/>
	<circle cx="625.125" cy="139.027" r="4" fill="#0" id="circle119"/>
	<circle cx="626.926" cy="400.08" r="4" fill="#0" id="circle120"/>
	<circle cx="634.127" cy="194.838" r="4" fill="#0" id="circle121"/>
	<circle cx="635.927" cy="374.875" r="4" fill="#0" id="circle122"/>
	<circle cx="637.728" cy="446.889" r="4" fill="#0" id="circle123"/>
	<circle cx="639.528" cy="229.045" r="4" fill="#0" id="circle124"/>
	<circle cx="643.129" cy="142.628" r="4" fill="#0" id="circle125"/>
	<circle cx="644.929" cy="391.078" r="4" fill="#0" id="circle126"/>
	<circle cx="652.131" cy="198.439" r="4" fill="#0" id="circle127"/>
	<circle cx="653.931" cy="365.873" r="4" fill="#0" id="circle128"/>
	<circle cx="653.931" cy="419.884" r="4" fill="#0" id="circle129"/>
	<circle cx="653.931" cy="437.887" r="4" fill="#0" id="circle130"/>
	<circle cx="657.532" cy="229.045" r="4" fill="#0" id="circle131"/>
	<circle cx="659.332" cy="151.63" r="4" fill="#0" id="circle132"/>
	<circle cx="659.332" cy="401.88" r="4" fill="#0" id="circle133"/>
	<circle cx="670.134" cy="194.838" r="4" fill="#0" id="circle134"/>
	<circle cx="671.935" cy="356.871" r="4" fill="#0" id="circle135"/>
	<circle cx="675.535" cy="229.045" r="4" fill="#0" id="circle136"/>
	<circle cx="677.336" cy="158.831" r="4" fill="#0" id="circle137"/>
	<circle cx="684.537" cy="184.036" r="4" fill="#0" id="circle138"/>
	<circle cx="689.938" cy="347.869" r="4" fill="#0" id="circle139"/>
	<circle cx="693.539" cy="229.045" r="4" fill="#0" id="circle140"/>
	<circle cx="707.942" cy="347.869" r="4" fill="#0" id="circle141"/>
	<circle cx="711.543" cy="229.045" r="4" fill="#0" id="circle142"/>
	<circle cx="725.946" cy="338.868" r="4" fill="#0" id="circle143"/>
	<circle cx="729.546" cy="220.044" r="4" fill="#0" id="circle144"/>
	<circle cx="743.949" cy="338.868" r="4" fill="#0" id="circle145"/>
	<circle cx="747.55" cy="220.044" r="4" fill="#0" id="circle146"/>
	<circle cx="760.152" cy="329.866" r="4" fill="#0" id="circle147"/>
	<circle cx="763.753" cy="211.042" r="4" fill="#0" id="circle148"/>
	<circle cx="778.156" cy="329.866" r="4" fill="#0" id="circle149"/>
	<circle cx="781.757" cy="211.042" r="4" fill="#0" id="circle150"/>
	<circle cx="796.16" cy="329.866" r="4" fill="#0" id="circle151"/>
	<circle cx="799.76" cy="211.042" r="4" fill="#0" id="circle152"/>
	<circle cx="810.563" cy="319.064" r="4" fill="#0" id="circle153"/>
	<circle cx="817.764" cy="211.042" r="4" fill="#0" id="circle154"/>
	<circle cx="828.566" cy="310.062" r="4" fill="#0" id="circle155"/>
	<circle cx="835.768" cy="211.042" r="4" fill="#0" id="circle156"/>
	<circle cx="846.57" cy="301.06" r="4" fill="#0" id="circle157"/>
	<circle cx="853.771" cy="203.84" r="4" fill="#0" id="circle158"/>
	<circle cx="864.574" cy="293.858" r="4" fill="#0" id="circle159"/>
	<circle cx="871.775" cy="202.04" r="4" fill="#0" id="circle160"/>
	<circle cx="880.777" cy="284.857" r="4" fill="#0" id="circle161"/>
	<circle cx="889.779" cy="202.04" r="4" fill="#0" id="circle162"/>
	<circle cx="896.98" cy="275.855" r="4" fill="#0" id="circle163"/>
	<circle cx="907.782" cy="202.04" r="4" fill="#0" id="circle164"/>
	<circle cx="911.383" cy="263.252" r="4" fill="#0" id="circle165"/>
	<circle cx="925.786" cy="202.04" r="4" fill="#0" id="circle166"/>
	<circle cx="929.387" cy="254.25" r="4" fill="#0" id="circle167"/>
	<circle cx="943.789" cy="202.04" r="4" fill="#0" id="circle168"/>
	<circle cx="947.39" cy="254.25" r="4" fill="#0" id="circle169"/>
	<circle cx="959.993" cy="239.848" r="4" fill="#0" id="circle170"/>
	<circle cx="961.793" cy="202.04" r="4" fill="#0" id="circle171"/>
	<circle cx="977.996" cy="239.848" r="4" fill="#0" id="circle172"/>
	<circle cx="979.797" cy="202.04" r="4" fill="#0" id="circle173"/>
	<circle cx="996" cy="211.042" r="4" fill="#0" id="circle174"/>
	<circle cx="996" cy="230.846" r="4" fill="#0" id="circle175"/>
	</g>
</svg>