<?xml version="1.0" encoding="UTF-8" standalone="no"?>
<!-- Created with CurveBenchmark -->
<svg
	xmlns:dc="http://purl.org/dc/elements/1.1/"
	xmlns:cc="http://creativecommons.org/ns#"
	xmlns:rdf="http://www.w3.org/1999/02/22-rdf-syntax-ns#"
	xmlns:svg="http://www.w3.org/2000/svg"
	xmlns="http://www.w3.org/2000/svg"
	xmlns:sodipodi="http://sodipodi.sourceforge.net/DTD/sodipodi-0.dtd"
	xmlns:inkscape="http://www.inkscape.org/namespaces/inkscape"
	width="1000"
	height="1000"
	id="svg2"
	version="1.1"
	sodipodi:docname="manifold/vicur-teddy-04.png.txt">
<defs
	id="defs4" />
<metadata
	id="metadata7">
	<rdf:RDF>
		<cc:Work
			rdf:about="">
			<dc:format>image/svg+xml</dc:format>
			<dc:type
				rdf:resource="http://purl.org/dc/dcmitype/StillImage" />
			<dc:title></dc:title>
		</cc:Work>
	</rdf:RDF>
</metadata>
<g
	inkscape:label="Layer 1"
	inkscape:groupmode="layer"
	id="layer1">
	<path style="fill:none;stroke:red;stroke-width:1px;stroke-linecap:butt;stroke-linejoin:miter;stroke-opacity:1" d="M 4,723.794 4,732.928 z" id="boundary" inkscape:connector-curvature="0" />
	<path style="fill:none;stroke:red;stroke-width:1px;stroke-linecap:butt;stroke-linejoin:miter;stroke-opacity:1" d="M 4,723.794 8.56722,714.659 z" id="boundary" inkscape:connector-curvature="0" />
	<path style="fill:none;stroke:red;stroke-width:1px;stroke-linecap:butt;stroke-linejoin:miter;stroke-opacity:1" d="M 4,732.928 8.56722,750.284 z" id="boundary" inkscape:connector-curvature="0" />
	<path style="fill:none;stroke:red;stroke-width:1px;stroke-linecap:butt;stroke-linejoin:miter;stroke-opacity:1" d="M 8.56722,714.659 13.1344,705.525 z" id="boundary" inkscape:connector-curvature="0" />
	<path style="fill:none;stroke:red;stroke-width:1px;stroke-linecap:butt;stroke-linejoin:miter;stroke-opacity:1" d="M 8.56722,750.284 13.1344,758.505 z" id="boundary" inkscape:connector-curvature="0" />
	<path style="fill:none;stroke:red;stroke-width:1px;stroke-linecap:butt;stroke-linejoin:miter;stroke-opacity:1" d="M 13.1344,705.525 20.442,698.217 z" id="boundary" inkscape:connector-curvature="0" />
	<path style="fill:none;stroke:red;stroke-width:1px;stroke-linecap:butt;stroke-linejoin:miter;stroke-opacity:1" d="M 13.1344,758.505 13.1344,767.639 z" id="boundary" inkscape:connector-curvature="0" />
	<path style="fill:none;stroke:red;stroke-width:1px;stroke-linecap:butt;stroke-linejoin:miter;stroke-opacity:1" d="M 13.1344,767.639 19.5285,784.994 z" id="boundary" inkscape:connector-curvature="0" />
	<path style="fill:none;stroke:red;stroke-width:1px;stroke-linecap:butt;stroke-linejoin:miter;stroke-opacity:1" d="M 19.5285,784.994 22.2689,794.129 z" id="boundary" inkscape:connector-curvature="0" />
	<path style="fill:none;stroke:red;stroke-width:1px;stroke-linecap:butt;stroke-linejoin:miter;stroke-opacity:1" d="M 22.2689,794.129 31.4033,810.571 z" id="boundary" inkscape:connector-curvature="0" />
	<path style="fill:none;stroke:red;stroke-width:1px;stroke-linecap:butt;stroke-linejoin:miter;stroke-opacity:1" d="M 31.4033,810.571 35.9705,827.926 z" id="boundary" inkscape:connector-curvature="0" />
	<path style="fill:none;stroke:red;stroke-width:1px;stroke-linecap:butt;stroke-linejoin:miter;stroke-opacity:1" d="M 35.9705,404.088 35.9705,413.223 z" id="boundary" inkscape:connector-curvature="0" />
	<path style="fill:none;stroke:red;stroke-width:1px;stroke-linecap:butt;stroke-linejoin:miter;stroke-opacity:1" d="M 35.9705,404.088 40.5378,390.387 z" id="boundary" inkscape:connector-curvature="0" />
	<path style="fill:none;stroke:red;stroke-width:1px;stroke-linecap:butt;stroke-linejoin:miter;stroke-opacity:1" d="M 35.9705,413.223 35.9705,422.357 z" id="boundary" inkscape:connector-curvature="0" />
	<path style="fill:none;stroke:red;stroke-width:1px;stroke-linecap:butt;stroke-linejoin:miter;stroke-opacity:1" d="M 35.9705,422.357 35.9705,431.492 z" id="boundary" inkscape:connector-curvature="0" />
	<path style="fill:none;stroke:red;stroke-width:1px;stroke-linecap:butt;stroke-linejoin:miter;stroke-opacity:1" d="M 35.9705,431.492 35.9705,440.626 z" id="boundary" inkscape:connector-curvature="0" />
	<path style="fill:none;stroke:red;stroke-width:1px;stroke-linecap:butt;stroke-linejoin:miter;stroke-opacity:1" d="M 35.9705,440.626 35.9705,449.761 z" id="boundary" inkscape:connector-curvature="0" />
	<path style="fill:none;stroke:red;stroke-width:1px;stroke-linecap:butt;stroke-linejoin:miter;stroke-opacity:1" d="M 35.9705,449.761 35.9705,458.895 z" id="boundary" inkscape:connector-curvature="0" />
	<path style="fill:none;stroke:red;stroke-width:1px;stroke-linecap:butt;stroke-linejoin:miter;stroke-opacity:1" d="M 35.9705,458.895 35.9705,468.029 z" id="boundary" inkscape:connector-curvature="0" />
	<path style="fill:none;stroke:red;stroke-width:1px;stroke-linecap:butt;stroke-linejoin:miter;stroke-opacity:1" d="M 35.9705,468.029 40.5378,476.25 z" id="boundary" inkscape:connector-curvature="0" />
	<path style="fill:none;stroke:red;stroke-width:1px;stroke-linecap:butt;stroke-linejoin:miter;stroke-opacity:1" d="M 35.9705,827.926 40.5378,836.147 z" id="boundary" inkscape:connector-curvature="0" />
	<path style="fill:none;stroke:red;stroke-width:1px;stroke-linecap:butt;stroke-linejoin:miter;stroke-opacity:1" d="M 36.884,686.343 46.0184,681.775 z" id="boundary" inkscape:connector-curvature="0" />
	<path style="fill:none;stroke:red;stroke-width:1px;stroke-linecap:butt;stroke-linejoin:miter;stroke-opacity:1" d="M 40.5378,390.387 45.105,381.252 z" id="boundary" inkscape:connector-curvature="0" />
	<path style="fill:none;stroke:red;stroke-width:1px;stroke-linecap:butt;stroke-linejoin:miter;stroke-opacity:1" d="M 40.5378,476.25 40.5378,485.385 z" id="boundary" inkscape:connector-curvature="0" />
	<path style="fill:none;stroke:red;stroke-width:1px;stroke-linecap:butt;stroke-linejoin:miter;stroke-opacity:1" d="M 40.5378,836.147 45.105,844.368 z" id="boundary" inkscape:connector-curvature="0" />
	<path style="fill:none;stroke:red;stroke-width:1px;stroke-linecap:butt;stroke-linejoin:miter;stroke-opacity:1" d="M 45.105,381.252 49.6722,372.118 z" id="boundary" inkscape:connector-curvature="0" />
	<path style="fill:none;stroke:red;stroke-width:1px;stroke-linecap:butt;stroke-linejoin:miter;stroke-opacity:1" d="M 45.105,502.74 49.6722,510.961 z" id="boundary" inkscape:connector-curvature="0" />
	<path style="fill:none;stroke:red;stroke-width:1px;stroke-linecap:butt;stroke-linejoin:miter;stroke-opacity:1" d="M 45.105,844.368 54.2394,860.81 z" id="boundary" inkscape:connector-curvature="0" />
	<path style="fill:none;stroke:red;stroke-width:1px;stroke-linecap:butt;stroke-linejoin:miter;stroke-opacity:1" d="M 46.0184,681.775 55.1529,679.948 z" id="boundary" inkscape:connector-curvature="0" />
	<path style="fill:none;stroke:red;stroke-width:1px;stroke-linecap:butt;stroke-linejoin:miter;stroke-opacity:1" d="M 49.6722,510.961 58.8066,527.403 z" id="boundary" inkscape:connector-curvature="0" />
	<path style="fill:none;stroke:red;stroke-width:1px;stroke-linecap:butt;stroke-linejoin:miter;stroke-opacity:1" d="M 54.2394,860.81 54.2394,869.945 z" id="boundary" inkscape:connector-curvature="0" />
	<path style="fill:none;stroke:red;stroke-width:1px;stroke-linecap:butt;stroke-linejoin:miter;stroke-opacity:1" d="M 54.2394,869.945 63.3738,886.387 z" id="boundary" inkscape:connector-curvature="0" />
	<path style="fill:none;stroke:red;stroke-width:1px;stroke-linecap:butt;stroke-linejoin:miter;stroke-opacity:1" d="M 58.8066,527.403 67.9411,543.845 z" id="boundary" inkscape:connector-curvature="0" />
	<path style="fill:none;stroke:red;stroke-width:1px;stroke-linecap:butt;stroke-linejoin:miter;stroke-opacity:1" d="M 63.3738,886.387 72.5083,902.829 z" id="boundary" inkscape:connector-curvature="0" />
	<path style="fill:none;stroke:red;stroke-width:1px;stroke-linecap:butt;stroke-linejoin:miter;stroke-opacity:1" d="M 67.9411,543.845 77.989,559.374 z" id="boundary" inkscape:connector-curvature="0" />
	<path style="fill:none;stroke:red;stroke-width:1px;stroke-linecap:butt;stroke-linejoin:miter;stroke-opacity:1" d="M 72.5083,902.829 81.6427,919.271 z" id="boundary" inkscape:connector-curvature="0" />
	<path style="fill:none;stroke:red;stroke-width:1px;stroke-linecap:butt;stroke-linejoin:miter;stroke-opacity:1" d="M 77.989,343.801 87.1234,339.234 z" id="boundary" inkscape:connector-curvature="0" />
	<path style="fill:none;stroke:red;stroke-width:1px;stroke-linecap:butt;stroke-linejoin:miter;stroke-opacity:1" d="M 77.989,559.374 84.3831,566.681 z" id="boundary" inkscape:connector-curvature="0" />
	<path style="fill:none;stroke:red;stroke-width:1px;stroke-linecap:butt;stroke-linejoin:miter;stroke-opacity:1" d="M 81.6427,670.814 98.9982,666.247 z" id="boundary" inkscape:connector-curvature="0" />
	<path style="fill:none;stroke:red;stroke-width:1px;stroke-linecap:butt;stroke-linejoin:miter;stroke-opacity:1" d="M 81.6427,919.271 88.9503,936.626 z" id="boundary" inkscape:connector-curvature="0" />
	<path style="fill:none;stroke:red;stroke-width:1px;stroke-linecap:butt;stroke-linejoin:miter;stroke-opacity:1" d="M 84.3831,566.681 91.6906,573.076 z" id="boundary" inkscape:connector-curvature="0" />
	<path style="fill:none;stroke:red;stroke-width:1px;stroke-linecap:butt;stroke-linejoin:miter;stroke-opacity:1" d="M 87.1234,339.234 96.2578,337.407 z" id="boundary" inkscape:connector-curvature="0" />
	<path style="fill:none;stroke:red;stroke-width:1px;stroke-linecap:butt;stroke-linejoin:miter;stroke-opacity:1" d="M 88.9503,936.626 95.3444,943.934 z" id="boundary" inkscape:connector-curvature="0" />
	<path style="fill:none;stroke:red;stroke-width:1px;stroke-linecap:butt;stroke-linejoin:miter;stroke-opacity:1" d="M 91.6906,573.076 107.219,584.037 z" id="boundary" inkscape:connector-curvature="0" />
	<path style="fill:none;stroke:red;stroke-width:1px;stroke-linecap:butt;stroke-linejoin:miter;stroke-opacity:1" d="M 96.2578,337.407 104.479,332.84 z" id="boundary" inkscape:connector-curvature="0" />
	<path style="fill:none;stroke:red;stroke-width:1px;stroke-linecap:butt;stroke-linejoin:miter;stroke-opacity:1" d="M 98.9982,666.247 108.133,666.247 z" id="boundary" inkscape:connector-curvature="0" />
	<path style="fill:none;stroke:red;stroke-width:1px;stroke-linecap:butt;stroke-linejoin:miter;stroke-opacity:1" d="M 104.479,332.84 113.613,332.84 z" id="boundary" inkscape:connector-curvature="0" />
	<path style="fill:none;stroke:red;stroke-width:1px;stroke-linecap:butt;stroke-linejoin:miter;stroke-opacity:1" d="M 107.219,584.037 124.575,589.517 z" id="boundary" inkscape:connector-curvature="0" />
	<path style="fill:none;stroke:red;stroke-width:1px;stroke-linecap:butt;stroke-linejoin:miter;stroke-opacity:1" d="M 108.133,666.247 117.267,666.247 z" id="boundary" inkscape:connector-curvature="0" />
	<path style="fill:none;stroke:red;stroke-width:1px;stroke-linecap:butt;stroke-linejoin:miter;stroke-opacity:1" d="M 109.046,954.895 113.613,963.116 z" id="boundary" inkscape:connector-curvature="0" />
	<path style="fill:none;stroke:red;stroke-width:1px;stroke-linecap:butt;stroke-linejoin:miter;stroke-opacity:1" d="M 113.613,332.84 122.748,332.84 z" id="boundary" inkscape:connector-curvature="0" />
	<path style="fill:none;stroke:red;stroke-width:1px;stroke-linecap:butt;stroke-linejoin:miter;stroke-opacity:1" d="M 113.613,963.116 129.142,973.164 z" id="boundary" inkscape:connector-curvature="0" />
	<path style="fill:none;stroke:red;stroke-width:1px;stroke-linecap:butt;stroke-linejoin:miter;stroke-opacity:1" d="M 117.267,666.247 126.401,667.16 z" id="boundary" inkscape:connector-curvature="0" />
	<path style="fill:none;stroke:red;stroke-width:1px;stroke-linecap:butt;stroke-linejoin:miter;stroke-opacity:1" d="M 122.748,332.84 131.882,332.84 z" id="boundary" inkscape:connector-curvature="0" />
	<path style="fill:none;stroke:red;stroke-width:1px;stroke-linecap:butt;stroke-linejoin:miter;stroke-opacity:1" d="M 124.575,589.517 132.796,594.085 z" id="boundary" inkscape:connector-curvature="0" />
	<path style="fill:none;stroke:red;stroke-width:1px;stroke-linecap:butt;stroke-linejoin:miter;stroke-opacity:1" d="M 126.401,667.16 134.622,671.727 z" id="boundary" inkscape:connector-curvature="0" />
	<path style="fill:none;stroke:red;stroke-width:1px;stroke-linecap:butt;stroke-linejoin:miter;stroke-opacity:1" d="M 129.142,973.164 138.276,973.164 z" id="boundary" inkscape:connector-curvature="0" />
	<path style="fill:none;stroke:red;stroke-width:1px;stroke-linecap:butt;stroke-linejoin:miter;stroke-opacity:1" d="M 132.796,594.085 150.151,598.652 z" id="boundary" inkscape:connector-curvature="0" />
	<path style="fill:none;stroke:red;stroke-width:1px;stroke-linecap:butt;stroke-linejoin:miter;stroke-opacity:1" d="M 134.622,671.727 141.93,678.122 z" id="boundary" inkscape:connector-curvature="0" />
	<path style="fill:none;stroke:red;stroke-width:1px;stroke-linecap:butt;stroke-linejoin:miter;stroke-opacity:1" d="M 138.276,973.164 147.411,973.164 z" id="boundary" inkscape:connector-curvature="0" />
	<path style="fill:none;stroke:red;stroke-width:1px;stroke-linecap:butt;stroke-linejoin:miter;stroke-opacity:1" d="M 141.93,678.122 159.285,686.343 z" id="boundary" inkscape:connector-curvature="0" />
	<path style="fill:none;stroke:red;stroke-width:1px;stroke-linecap:butt;stroke-linejoin:miter;stroke-opacity:1" d="M 147.411,973.164 156.545,973.164 z" id="boundary" inkscape:connector-curvature="0" />
	<path style="fill:none;stroke:red;stroke-width:1px;stroke-linecap:butt;stroke-linejoin:miter;stroke-opacity:1" d="M 150.151,598.652 158.372,603.219 z" id="boundary" inkscape:connector-curvature="0" />
	<path style="fill:none;stroke:red;stroke-width:1px;stroke-linecap:butt;stroke-linejoin:miter;stroke-opacity:1" d="M 156.545,973.164 165.68,973.164 z" id="boundary" inkscape:connector-curvature="0" />
	<path style="fill:none;stroke:red;stroke-width:1px;stroke-linecap:butt;stroke-linejoin:miter;stroke-opacity:1" d="M 158.372,603.219 175.727,611.44 z" id="boundary" inkscape:connector-curvature="0" />
	<path style="fill:none;stroke:red;stroke-width:1px;stroke-linecap:butt;stroke-linejoin:miter;stroke-opacity:1" d="M 159.285,686.343 164.766,693.65 z" id="boundary" inkscape:connector-curvature="0" />
	<path style="fill:none;stroke:red;stroke-width:1px;stroke-linecap:butt;stroke-linejoin:miter;stroke-opacity:1" d="M 162.026,365.724 166.593,373.945 z" id="boundary" inkscape:connector-curvature="0" />
	<path style="fill:none;stroke:red;stroke-width:1px;stroke-linecap:butt;stroke-linejoin:miter;stroke-opacity:1" d="M 163.853,180.295 163.853,189.429 z" id="boundary" inkscape:connector-curvature="0" />
	<path style="fill:none;stroke:red;stroke-width:1px;stroke-linecap:butt;stroke-linejoin:miter;stroke-opacity:1" d="M 163.853,180.295 171.16,172.987 z" id="boundary" inkscape:connector-curvature="0" />
	<path style="fill:none;stroke:red;stroke-width:1px;stroke-linecap:butt;stroke-linejoin:miter;stroke-opacity:1" d="M 163.853,189.429 163.853,198.564 z" id="boundary" inkscape:connector-curvature="0" />
	<path style="fill:none;stroke:red;stroke-width:1px;stroke-linecap:butt;stroke-linejoin:miter;stroke-opacity:1" d="M 163.853,198.564 163.853,207.698 z" id="boundary" inkscape:connector-curvature="0" />
	<path style="fill:none;stroke:red;stroke-width:1px;stroke-linecap:butt;stroke-linejoin:miter;stroke-opacity:1" d="M 163.853,207.698 163.853,216.832 z" id="boundary" inkscape:connector-curvature="0" />
	<path style="fill:none;stroke:red;stroke-width:1px;stroke-linecap:butt;stroke-linejoin:miter;stroke-opacity:1" d="M 163.853,216.832 163.853,225.967 z" id="boundary" inkscape:connector-curvature="0" />
	<path style="fill:none;stroke:red;stroke-width:1px;stroke-linecap:butt;stroke-linejoin:miter;stroke-opacity:1" d="M 163.853,225.967 163.853,235.101 z" id="boundary" inkscape:connector-curvature="0" />
	<path style="fill:none;stroke:red;stroke-width:1px;stroke-linecap:butt;stroke-linejoin:miter;stroke-opacity:1" d="M 164.766,693.65 180.295,703.698 z" id="boundary" inkscape:connector-curvature="0" />
	<path style="fill:none;stroke:red;stroke-width:1px;stroke-linecap:butt;stroke-linejoin:miter;stroke-opacity:1" d="M 165.68,973.164 174.814,973.164 z" id="boundary" inkscape:connector-curvature="0" />
	<path style="fill:none;stroke:red;stroke-width:1px;stroke-linecap:butt;stroke-linejoin:miter;stroke-opacity:1" d="M 166.593,373.945 169.333,383.079 z" id="boundary" inkscape:connector-curvature="0" />
	<path style="fill:none;stroke:red;stroke-width:1px;stroke-linecap:butt;stroke-linejoin:miter;stroke-opacity:1" d="M 168.42,252.457 177.554,268.899 z" id="boundary" inkscape:connector-curvature="0" />
	<path style="fill:none;stroke:red;stroke-width:1px;stroke-linecap:butt;stroke-linejoin:miter;stroke-opacity:1" d="M 171.16,172.987 188.516,164.766 z" id="boundary" inkscape:connector-curvature="0" />
	<path style="fill:none;stroke:red;stroke-width:1px;stroke-linecap:butt;stroke-linejoin:miter;stroke-opacity:1" d="M 174.814,973.164 183.948,973.164 z" id="boundary" inkscape:connector-curvature="0" />
	<path style="fill:none;stroke:red;stroke-width:1px;stroke-linecap:butt;stroke-linejoin:miter;stroke-opacity:1" d="M 175.727,611.44 184.862,612.354 z" id="boundary" inkscape:connector-curvature="0" />
	<path style="fill:none;stroke:red;stroke-width:1px;stroke-linecap:butt;stroke-linejoin:miter;stroke-opacity:1" d="M 177.554,268.899 182.122,277.12 z" id="boundary" inkscape:connector-curvature="0" />
	<path style="fill:none;stroke:red;stroke-width:1px;stroke-linecap:butt;stroke-linejoin:miter;stroke-opacity:1" d="M 180.295,397.694 196.737,405.915 z" id="boundary" inkscape:connector-curvature="0" />
	<path style="fill:none;stroke:red;stroke-width:1px;stroke-linecap:butt;stroke-linejoin:miter;stroke-opacity:1" d="M 180.295,703.698 187.602,710.092 z" id="boundary" inkscape:connector-curvature="0" />
	<path style="fill:none;stroke:red;stroke-width:1px;stroke-linecap:butt;stroke-linejoin:miter;stroke-opacity:1" d="M 182.122,277.12 191.256,293.562 z" id="boundary" inkscape:connector-curvature="0" />
	<path style="fill:none;stroke:red;stroke-width:1px;stroke-linecap:butt;stroke-linejoin:miter;stroke-opacity:1" d="M 183.948,973.164 193.083,973.164 z" id="boundary" inkscape:connector-curvature="0" />
	<path style="fill:none;stroke:red;stroke-width:1px;stroke-linecap:butt;stroke-linejoin:miter;stroke-opacity:1" d="M 184.862,612.354 193.996,612.354 z" id="boundary" inkscape:connector-curvature="0" />
	<path style="fill:none;stroke:red;stroke-width:1px;stroke-linecap:butt;stroke-linejoin:miter;stroke-opacity:1" d="M 187.602,710.092 193.996,717.4 z" id="boundary" inkscape:connector-curvature="0" />
	<path style="fill:none;stroke:red;stroke-width:1px;stroke-linecap:butt;stroke-linejoin:miter;stroke-opacity:1" d="M 188.516,164.766 197.65,163.853 z" id="boundary" inkscape:connector-curvature="0" />
	<path style="fill:none;stroke:red;stroke-width:1px;stroke-linecap:butt;stroke-linejoin:miter;stroke-opacity:1" d="M 191.256,293.562 197.65,300.869 z" id="boundary" inkscape:connector-curvature="0" />
	<path style="fill:none;stroke:red;stroke-width:1px;stroke-linecap:butt;stroke-linejoin:miter;stroke-opacity:1" d="M 193.083,973.164 210.438,968.597 z" id="boundary" inkscape:connector-curvature="0" />
	<path style="fill:none;stroke:red;stroke-width:1px;stroke-linecap:butt;stroke-linejoin:miter;stroke-opacity:1" d="M 193.996,612.354 203.131,612.354 z" id="boundary" inkscape:connector-curvature="0" />
	<path style="fill:none;stroke:red;stroke-width:1px;stroke-linecap:butt;stroke-linejoin:miter;stroke-opacity:1" d="M 193.996,717.4 204.958,712.832 z" id="boundary" inkscape:connector-curvature="0" />
	<path style="fill:none;stroke:red;stroke-width:1px;stroke-linecap:butt;stroke-linejoin:miter;stroke-opacity:1" d="M 196.737,405.915 205.871,405.915 z" id="boundary" inkscape:connector-curvature="0" />
	<path style="fill:none;stroke:red;stroke-width:1px;stroke-linecap:butt;stroke-linejoin:miter;stroke-opacity:1" d="M 197.65,163.853 205.871,159.285 z" id="boundary" inkscape:connector-curvature="0" />
	<path style="fill:none;stroke:red;stroke-width:1px;stroke-linecap:butt;stroke-linejoin:miter;stroke-opacity:1" d="M 197.65,300.869 214.092,306.35 z" id="boundary" inkscape:connector-curvature="0" />
	<path style="fill:none;stroke:red;stroke-width:1px;stroke-linecap:butt;stroke-linejoin:miter;stroke-opacity:1" d="M 203.131,612.354 204.958,621.488 z" id="boundary" inkscape:connector-curvature="0" />
	<path style="fill:none;stroke:red;stroke-width:1px;stroke-linecap:butt;stroke-linejoin:miter;stroke-opacity:1" d="M 204.958,621.488 204.958,630.622 z" id="boundary" inkscape:connector-curvature="0" />
	<path style="fill:none;stroke:red;stroke-width:1px;stroke-linecap:butt;stroke-linejoin:miter;stroke-opacity:1" d="M 204.958,630.622 204.958,639.757 z" id="boundary" inkscape:connector-curvature="0" />
	<path style="fill:none;stroke:red;stroke-width:1px;stroke-linecap:butt;stroke-linejoin:miter;stroke-opacity:1" d="M 204.958,639.757 204.958,648.891 z" id="boundary" inkscape:connector-curvature="0" />
	<path style="fill:none;stroke:red;stroke-width:1px;stroke-linecap:butt;stroke-linejoin:miter;stroke-opacity:1" d="M 204.958,648.891 204.958,658.026 z" id="boundary" inkscape:connector-curvature="0" />
	<path style="fill:none;stroke:red;stroke-width:1px;stroke-linecap:butt;stroke-linejoin:miter;stroke-opacity:1" d="M 204.958,658.026 204.958,667.16 z" id="boundary" inkscape:connector-curvature="0" />
	<path style="fill:none;stroke:red;stroke-width:1px;stroke-linecap:butt;stroke-linejoin:miter;stroke-opacity:1" d="M 204.958,667.16 204.958,676.295 z" id="boundary" inkscape:connector-curvature="0" />
	<path style="fill:none;stroke:red;stroke-width:1px;stroke-linecap:butt;stroke-linejoin:miter;stroke-opacity:1" d="M 204.958,676.295 204.958,685.429 z" id="boundary" inkscape:connector-curvature="0" />
	<path style="fill:none;stroke:red;stroke-width:1px;stroke-linecap:butt;stroke-linejoin:miter;stroke-opacity:1" d="M 204.958,685.429 204.958,694.564 z" id="boundary" inkscape:connector-curvature="0" />
	<path style="fill:none;stroke:red;stroke-width:1px;stroke-linecap:butt;stroke-linejoin:miter;stroke-opacity:1" d="M 204.958,694.564 204.958,703.698 z" id="boundary" inkscape:connector-curvature="0" />
	<path style="fill:none;stroke:red;stroke-width:1px;stroke-linecap:butt;stroke-linejoin:miter;stroke-opacity:1" d="M 204.958,703.698 204.958,712.832 z" id="boundary" inkscape:connector-curvature="0" />
	<path style="fill:none;stroke:red;stroke-width:1px;stroke-linecap:butt;stroke-linejoin:miter;stroke-opacity:1" d="M 205.871,159.285 215.006,159.285 z" id="boundary" inkscape:connector-curvature="0" />
	<path style="fill:none;stroke:red;stroke-width:1px;stroke-linecap:butt;stroke-linejoin:miter;stroke-opacity:1" d="M 205.871,405.915 215.006,405.915 z" id="boundary" inkscape:connector-curvature="0" />
	<path style="fill:none;stroke:red;stroke-width:1px;stroke-linecap:butt;stroke-linejoin:miter;stroke-opacity:1" d="M 210.438,968.597 219.573,968.597 z" id="boundary" inkscape:connector-curvature="0" />
	<path style="fill:none;stroke:red;stroke-width:1px;stroke-linecap:butt;stroke-linejoin:miter;stroke-opacity:1" d="M 214.092,306.35 223.227,306.35 z" id="boundary" inkscape:connector-curvature="0" />
	<path style="fill:none;stroke:red;stroke-width:1px;stroke-linecap:butt;stroke-linejoin:miter;stroke-opacity:1" d="M 215.006,159.285 224.14,159.285 z" id="boundary" inkscape:connector-curvature="0" />
	<path style="fill:none;stroke:red;stroke-width:1px;stroke-linecap:butt;stroke-linejoin:miter;stroke-opacity:1" d="M 215.006,405.915 224.14,405.915 z" id="boundary" inkscape:connector-curvature="0" />
	<path style="fill:none;stroke:red;stroke-width:1px;stroke-linecap:butt;stroke-linejoin:miter;stroke-opacity:1" d="M 219.573,968.597 228.707,964.029 z" id="boundary" inkscape:connector-curvature="0" />
	<path style="fill:none;stroke:red;stroke-width:1px;stroke-linecap:butt;stroke-linejoin:miter;stroke-opacity:1" d="M 223.227,306.35 232.361,306.35 z" id="boundary" inkscape:connector-curvature="0" />
	<path style="fill:none;stroke:red;stroke-width:1px;stroke-linecap:butt;stroke-linejoin:miter;stroke-opacity:1" d="M 224.14,159.285 233.274,159.285 z" id="boundary" inkscape:connector-curvature="0" />
	<path style="fill:none;stroke:red;stroke-width:1px;stroke-linecap:butt;stroke-linejoin:miter;stroke-opacity:1" d="M 224.14,405.915 233.274,405.915 z" id="boundary" inkscape:connector-curvature="0" />
	<path style="fill:none;stroke:red;stroke-width:1px;stroke-linecap:butt;stroke-linejoin:miter;stroke-opacity:1" d="M 228.707,964.029 237.842,959.462 z" id="boundary" inkscape:connector-curvature="0" />
	<path style="fill:none;stroke:red;stroke-width:1px;stroke-linecap:butt;stroke-linejoin:miter;stroke-opacity:1" d="M 232.361,306.35 241.495,306.35 z" id="boundary" inkscape:connector-curvature="0" />
	<path style="fill:none;stroke:red;stroke-width:1px;stroke-linecap:butt;stroke-linejoin:miter;stroke-opacity:1" d="M 233.274,159.285 242.409,159.285 z" id="boundary" inkscape:connector-curvature="0" />
	<path style="fill:none;stroke:red;stroke-width:1px;stroke-linecap:butt;stroke-linejoin:miter;stroke-opacity:1" d="M 233.274,405.915 242.409,405.915 z" id="boundary" inkscape:connector-curvature="0" />
	<path style="fill:none;stroke:red;stroke-width:1px;stroke-linecap:butt;stroke-linejoin:miter;stroke-opacity:1" d="M 237.842,959.462 246.976,959.462 z" id="boundary" inkscape:connector-curvature="0" />
	<path style="fill:none;stroke:red;stroke-width:1px;stroke-linecap:butt;stroke-linejoin:miter;stroke-opacity:1" d="M 241.495,306.35 250.63,320.052 z" id="boundary" inkscape:connector-curvature="0" />
	<path style="fill:none;stroke:red;stroke-width:1px;stroke-linecap:butt;stroke-linejoin:miter;stroke-opacity:1" d="M 242.409,159.285 251.543,159.285 z" id="boundary" inkscape:connector-curvature="0" />
	<path style="fill:none;stroke:red;stroke-width:1px;stroke-linecap:butt;stroke-linejoin:miter;stroke-opacity:1" d="M 242.409,405.915 251.543,405.915 z" id="boundary" inkscape:connector-curvature="0" />
	<path style="fill:none;stroke:red;stroke-width:1px;stroke-linecap:butt;stroke-linejoin:miter;stroke-opacity:1" d="M 246.976,959.462 256.11,954.895 z" id="boundary" inkscape:connector-curvature="0" />
	<path style="fill:none;stroke:red;stroke-width:1px;stroke-linecap:butt;stroke-linejoin:miter;stroke-opacity:1" d="M 250.63,320.052 253.37,329.186 z" id="boundary" inkscape:connector-curvature="0" />
	<path style="fill:none;stroke:red;stroke-width:1px;stroke-linecap:butt;stroke-linejoin:miter;stroke-opacity:1" d="M 251.543,159.285 260.678,159.285 z" id="boundary" inkscape:connector-curvature="0" />
	<path style="fill:none;stroke:red;stroke-width:1px;stroke-linecap:butt;stroke-linejoin:miter;stroke-opacity:1" d="M 251.543,405.915 260.678,405.915 z" id="boundary" inkscape:connector-curvature="0" />
	<path style="fill:none;stroke:red;stroke-width:1px;stroke-linecap:butt;stroke-linejoin:miter;stroke-opacity:1" d="M 253.37,329.186 257.937,337.407 z" id="boundary" inkscape:connector-curvature="0" />
	<path style="fill:none;stroke:red;stroke-width:1px;stroke-linecap:butt;stroke-linejoin:miter;stroke-opacity:1" d="M 256.11,954.895 265.245,950.328 z" id="boundary" inkscape:connector-curvature="0" />
	<path style="fill:none;stroke:red;stroke-width:1px;stroke-linecap:butt;stroke-linejoin:miter;stroke-opacity:1" d="M 257.937,337.407 264.331,344.715 z" id="boundary" inkscape:connector-curvature="0" />
	<path style="fill:none;stroke:red;stroke-width:1px;stroke-linecap:butt;stroke-linejoin:miter;stroke-opacity:1" d="M 260.678,159.285 269.812,159.285 z" id="boundary" inkscape:connector-curvature="0" />
	<path style="fill:none;stroke:red;stroke-width:1px;stroke-linecap:butt;stroke-linejoin:miter;stroke-opacity:1" d="M 260.678,405.915 269.812,403.175 z" id="boundary" inkscape:connector-curvature="0" />
	<path style="fill:none;stroke:red;stroke-width:1px;stroke-linecap:butt;stroke-linejoin:miter;stroke-opacity:1" d="M 264.331,344.715 273.466,360.243 z" id="boundary" inkscape:connector-curvature="0" />
	<path style="fill:none;stroke:red;stroke-width:1px;stroke-linecap:butt;stroke-linejoin:miter;stroke-opacity:1" d="M 265.245,950.328 274.379,945.761 z" id="boundary" inkscape:connector-curvature="0" />
	<path style="fill:none;stroke:red;stroke-width:1px;stroke-linecap:butt;stroke-linejoin:miter;stroke-opacity:1" d="M 269.812,159.285 278.947,159.285 z" id="boundary" inkscape:connector-curvature="0" />
	<path style="fill:none;stroke:red;stroke-width:1px;stroke-linecap:butt;stroke-linejoin:miter;stroke-opacity:1" d="M 269.812,403.175 274.379,394.041 z" id="boundary" inkscape:connector-curvature="0" />
	<path style="fill:none;stroke:red;stroke-width:1px;stroke-linecap:butt;stroke-linejoin:miter;stroke-opacity:1" d="M 273.466,360.243 275.293,369.378 z" id="boundary" inkscape:connector-curvature="0" />
	<path style="fill:none;stroke:red;stroke-width:1px;stroke-linecap:butt;stroke-linejoin:miter;stroke-opacity:1" d="M 274.379,394.041 278.033,378.512 z" id="boundary" inkscape:connector-curvature="0" />
	<path style="fill:none;stroke:red;stroke-width:1px;stroke-linecap:butt;stroke-linejoin:miter;stroke-opacity:1" d="M 274.379,945.761 283.514,941.193 z" id="boundary" inkscape:connector-curvature="0" />
	<path style="fill:none;stroke:red;stroke-width:1px;stroke-linecap:butt;stroke-linejoin:miter;stroke-opacity:1" d="M 275.293,369.378 278.033,378.512 z" id="boundary" inkscape:connector-curvature="0" />
	<path style="fill:none;stroke:red;stroke-width:1px;stroke-linecap:butt;stroke-linejoin:miter;stroke-opacity:1" d="M 278.033,38.7109 278.033,47.8453 z" id="boundary" inkscape:connector-curvature="0" />
	<path style="fill:none;stroke:red;stroke-width:1px;stroke-linecap:butt;stroke-linejoin:miter;stroke-opacity:1" d="M 278.033,38.7109 282.6,29.5764 z" id="boundary" inkscape:connector-curvature="0" />
	<path style="fill:none;stroke:red;stroke-width:1px;stroke-linecap:butt;stroke-linejoin:miter;stroke-opacity:1" d="M 278.033,47.8453 278.033,56.9797 z" id="boundary" inkscape:connector-curvature="0" />
	<path style="fill:none;stroke:red;stroke-width:1px;stroke-linecap:butt;stroke-linejoin:miter;stroke-opacity:1" d="M 278.033,56.9797 282.6,65.2007 z" id="boundary" inkscape:connector-curvature="0" />
	<path style="fill:none;stroke:red;stroke-width:1px;stroke-linecap:butt;stroke-linejoin:miter;stroke-opacity:1" d="M 278.947,159.285 287.168,146.497 z" id="boundary" inkscape:connector-curvature="0" />
	<path style="fill:none;stroke:red;stroke-width:1px;stroke-linecap:butt;stroke-linejoin:miter;stroke-opacity:1" d="M 282.6,29.5764 291.735,25.0092 z" id="boundary" inkscape:connector-curvature="0" />
	<path style="fill:none;stroke:red;stroke-width:1px;stroke-linecap:butt;stroke-linejoin:miter;stroke-opacity:1" d="M 283.514,941.193 290.821,934.799 z" id="boundary" inkscape:connector-curvature="0" />
	<path style="fill:none;stroke:red;stroke-width:1px;stroke-linecap:butt;stroke-linejoin:miter;stroke-opacity:1" d="M 287.168,82.5562 287.168,91.6906 z" id="boundary" inkscape:connector-curvature="0" />
	<path style="fill:none;stroke:red;stroke-width:1px;stroke-linecap:butt;stroke-linejoin:miter;stroke-opacity:1" d="M 287.168,91.6906 287.168,100.825 z" id="boundary" inkscape:connector-curvature="0" />
	<path style="fill:none;stroke:red;stroke-width:1px;stroke-linecap:butt;stroke-linejoin:miter;stroke-opacity:1" d="M 287.168,100.825 287.168,109.959 z" id="boundary" inkscape:connector-curvature="0" />
	<path style="fill:none;stroke:red;stroke-width:1px;stroke-linecap:butt;stroke-linejoin:miter;stroke-opacity:1" d="M 287.168,109.959 287.168,119.094 z" id="boundary" inkscape:connector-curvature="0" />
	<path style="fill:none;stroke:red;stroke-width:1px;stroke-linecap:butt;stroke-linejoin:miter;stroke-opacity:1" d="M 287.168,119.094 287.168,128.228 z" id="boundary" inkscape:connector-curvature="0" />
	<path style="fill:none;stroke:red;stroke-width:1px;stroke-linecap:butt;stroke-linejoin:miter;stroke-opacity:1" d="M 287.168,128.228 287.168,137.363 z" id="boundary" inkscape:connector-curvature="0" />
	<path style="fill:none;stroke:red;stroke-width:1px;stroke-linecap:butt;stroke-linejoin:miter;stroke-opacity:1" d="M 287.168,137.363 287.168,146.497 z" id="boundary" inkscape:connector-curvature="0" />
	<path style="fill:none;stroke:red;stroke-width:1px;stroke-linecap:butt;stroke-linejoin:miter;stroke-opacity:1" d="M 306.35,922.924 322.792,911.963 z" id="boundary" inkscape:connector-curvature="0" />
	<path style="fill:none;stroke:red;stroke-width:1px;stroke-linecap:butt;stroke-linejoin:miter;stroke-opacity:1" d="M 308.177,13.1344 317.311,13.1344 z" id="boundary" inkscape:connector-curvature="0" />
	<path style="fill:none;stroke:red;stroke-width:1px;stroke-linecap:butt;stroke-linejoin:miter;stroke-opacity:1" d="M 317.311,13.1344 326.446,13.1344 z" id="boundary" inkscape:connector-curvature="0" />
	<path style="fill:none;stroke:red;stroke-width:1px;stroke-linecap:butt;stroke-linejoin:miter;stroke-opacity:1" d="M 322.792,911.963 329.186,900.088 z" id="boundary" inkscape:connector-curvature="0" />
	<path style="fill:none;stroke:red;stroke-width:1px;stroke-linecap:butt;stroke-linejoin:miter;stroke-opacity:1" d="M 326.446,13.1344 335.58,13.1344 z" id="boundary" inkscape:connector-curvature="0" />
	<path style="fill:none;stroke:red;stroke-width:1px;stroke-linecap:butt;stroke-linejoin:miter;stroke-opacity:1" d="M 329.186,900.088 338.32,900.088 z" id="boundary" inkscape:connector-curvature="0" />
	<path style="fill:none;stroke:red;stroke-width:1px;stroke-linecap:butt;stroke-linejoin:miter;stroke-opacity:1" d="M 335.58,13.1344 344.715,13.1344 z" id="boundary" inkscape:connector-curvature="0" />
	<path style="fill:none;stroke:red;stroke-width:1px;stroke-linecap:butt;stroke-linejoin:miter;stroke-opacity:1" d="M 338.32,900.088 347.455,900.088 z" id="boundary" inkscape:connector-curvature="0" />
	<path style="fill:none;stroke:red;stroke-width:1px;stroke-linecap:butt;stroke-linejoin:miter;stroke-opacity:1" d="M 344.715,13.1344 353.849,13.1344 z" id="boundary" inkscape:connector-curvature="0" />
	<path style="fill:none;stroke:red;stroke-width:1px;stroke-linecap:butt;stroke-linejoin:miter;stroke-opacity:1" d="M 347.455,900.088 358.416,913.79 z" id="boundary" inkscape:connector-curvature="0" />
	<path style="fill:none;stroke:red;stroke-width:1px;stroke-linecap:butt;stroke-linejoin:miter;stroke-opacity:1" d="M 358.416,913.79 365.724,920.184 z" id="boundary" inkscape:connector-curvature="0" />
	<path style="fill:none;stroke:red;stroke-width:1px;stroke-linecap:butt;stroke-linejoin:miter;stroke-opacity:1" d="M 381.252,931.145 390.387,932.059 z" id="boundary" inkscape:connector-curvature="0" />
	<path style="fill:none;stroke:red;stroke-width:1px;stroke-linecap:butt;stroke-linejoin:miter;stroke-opacity:1" d="M 387.646,26.8361 395.867,31.4033 z" id="boundary" inkscape:connector-curvature="0" />
	<path style="fill:none;stroke:red;stroke-width:1px;stroke-linecap:butt;stroke-linejoin:miter;stroke-opacity:1" d="M 390.387,932.059 399.521,932.059 z" id="boundary" inkscape:connector-curvature="0" />
	<path style="fill:none;stroke:red;stroke-width:1px;stroke-linecap:butt;stroke-linejoin:miter;stroke-opacity:1" d="M 395.867,31.4033 405.002,31.4033 z" id="boundary" inkscape:connector-curvature="0" />
	<path style="fill:none;stroke:red;stroke-width:1px;stroke-linecap:butt;stroke-linejoin:miter;stroke-opacity:1" d="M 399.521,932.059 408.656,932.059 z" id="boundary" inkscape:connector-curvature="0" />
	<path style="fill:none;stroke:red;stroke-width:1px;stroke-linecap:butt;stroke-linejoin:miter;stroke-opacity:1" d="M 405.002,31.4033 414.136,31.4033 z" id="boundary" inkscape:connector-curvature="0" />
	<path style="fill:none;stroke:red;stroke-width:1px;stroke-linecap:butt;stroke-linejoin:miter;stroke-opacity:1" d="M 408.656,932.059 417.79,932.059 z" id="boundary" inkscape:connector-curvature="0" />
	<path style="fill:none;stroke:red;stroke-width:1px;stroke-linecap:butt;stroke-linejoin:miter;stroke-opacity:1" d="M 414.136,31.4033 423.271,31.4033 z" id="boundary" inkscape:connector-curvature="0" />
	<path style="fill:none;stroke:red;stroke-width:1px;stroke-linecap:butt;stroke-linejoin:miter;stroke-opacity:1" d="M 417.79,932.059 426.924,932.059 z" id="boundary" inkscape:connector-curvature="0" />
	<path style="fill:none;stroke:red;stroke-width:1px;stroke-linecap:butt;stroke-linejoin:miter;stroke-opacity:1" d="M 423.271,31.4033 432.405,31.4033 z" id="boundary" inkscape:connector-curvature="0" />
	<path style="fill:none;stroke:red;stroke-width:1px;stroke-linecap:butt;stroke-linejoin:miter;stroke-opacity:1" d="M 426.924,932.059 436.059,932.059 z" id="boundary" inkscape:connector-curvature="0" />
	<path style="fill:none;stroke:red;stroke-width:1px;stroke-linecap:butt;stroke-linejoin:miter;stroke-opacity:1" d="M 432.405,31.4033 441.54,31.4033 z" id="boundary" inkscape:connector-curvature="0" />
	<path style="fill:none;stroke:red;stroke-width:1px;stroke-linecap:butt;stroke-linejoin:miter;stroke-opacity:1" d="M 436.059,932.059 445.193,932.059 z" id="boundary" inkscape:connector-curvature="0" />
	<path style="fill:none;stroke:red;stroke-width:1px;stroke-linecap:butt;stroke-linejoin:miter;stroke-opacity:1" d="M 441.54,31.4033 450.674,31.4033 z" id="boundary" inkscape:connector-curvature="0" />
	<path style="fill:none;stroke:red;stroke-width:1px;stroke-linecap:butt;stroke-linejoin:miter;stroke-opacity:1" d="M 445.193,932.059 454.328,932.059 z" id="boundary" inkscape:connector-curvature="0" />
	<path style="fill:none;stroke:red;stroke-width:1px;stroke-linecap:butt;stroke-linejoin:miter;stroke-opacity:1" d="M 450.674,31.4033 459.808,31.4033 z" id="boundary" inkscape:connector-curvature="0" />
	<path style="fill:none;stroke:red;stroke-width:1px;stroke-linecap:butt;stroke-linejoin:miter;stroke-opacity:1" d="M 454.328,932.059 463.462,932.059 z" id="boundary" inkscape:connector-curvature="0" />
	<path style="fill:none;stroke:red;stroke-width:1px;stroke-linecap:butt;stroke-linejoin:miter;stroke-opacity:1" d="M 459.808,31.4033 468.943,31.4033 z" id="boundary" inkscape:connector-curvature="0" />
	<path style="fill:none;stroke:red;stroke-width:1px;stroke-linecap:butt;stroke-linejoin:miter;stroke-opacity:1" d="M 463.462,932.059 472.597,932.059 z" id="boundary" inkscape:connector-curvature="0" />
	<path style="fill:none;stroke:red;stroke-width:1px;stroke-linecap:butt;stroke-linejoin:miter;stroke-opacity:1" d="M 468.943,31.4033 478.077,31.4033 z" id="boundary" inkscape:connector-curvature="0" />
	<path style="fill:none;stroke:red;stroke-width:1px;stroke-linecap:butt;stroke-linejoin:miter;stroke-opacity:1" d="M 472.597,932.059 481.731,932.059 z" id="boundary" inkscape:connector-curvature="0" />
	<path style="fill:none;stroke:red;stroke-width:1px;stroke-linecap:butt;stroke-linejoin:miter;stroke-opacity:1" d="M 478.077,31.4033 487.212,31.4033 z" id="boundary" inkscape:connector-curvature="0" />
	<path style="fill:none;stroke:red;stroke-width:1px;stroke-linecap:butt;stroke-linejoin:miter;stroke-opacity:1" d="M 481.731,932.059 490.866,932.059 z" id="boundary" inkscape:connector-curvature="0" />
	<path style="fill:none;stroke:red;stroke-width:1px;stroke-linecap:butt;stroke-linejoin:miter;stroke-opacity:1" d="M 487.212,31.4033 496.346,31.4033 z" id="boundary" inkscape:connector-curvature="0" />
	<path style="fill:none;stroke:red;stroke-width:1px;stroke-linecap:butt;stroke-linejoin:miter;stroke-opacity:1" d="M 490.866,932.059 500,932.059 z" id="boundary" inkscape:connector-curvature="0" />
	<path style="fill:none;stroke:red;stroke-width:1px;stroke-linecap:butt;stroke-linejoin:miter;stroke-opacity:1" d="M 496.346,31.4033 505.481,31.4033 z" id="boundary" inkscape:connector-curvature="0" />
	<path style="fill:none;stroke:red;stroke-width:1px;stroke-linecap:butt;stroke-linejoin:miter;stroke-opacity:1" d="M 500,932.059 508.221,927.492 z" id="boundary" inkscape:connector-curvature="0" />
	<path style="fill:none;stroke:red;stroke-width:1px;stroke-linecap:butt;stroke-linejoin:miter;stroke-opacity:1" d="M 505.481,31.4033 513.702,26.8361 z" id="boundary" inkscape:connector-curvature="0" />
	<path style="fill:none;stroke:red;stroke-width:1px;stroke-linecap:butt;stroke-linejoin:miter;stroke-opacity:1" d="M 513.702,26.8361 522.836,22.2689 z" id="boundary" inkscape:connector-curvature="0" />
	<path style="fill:none;stroke:red;stroke-width:1px;stroke-linecap:butt;stroke-linejoin:miter;stroke-opacity:1" d="M 521.009,909.223 538.365,904.656 z" id="boundary" inkscape:connector-curvature="0" />
	<path style="fill:none;stroke:red;stroke-width:1px;stroke-linecap:butt;stroke-linejoin:miter;stroke-opacity:1" d="M 522.836,22.2689 531.971,22.2689 z" id="boundary" inkscape:connector-curvature="0" />
	<path style="fill:none;stroke:red;stroke-width:1px;stroke-linecap:butt;stroke-linejoin:miter;stroke-opacity:1" d="M 531.971,22.2689 541.105,17.7017 z" id="boundary" inkscape:connector-curvature="0" />
	<path style="fill:none;stroke:red;stroke-width:1px;stroke-linecap:butt;stroke-linejoin:miter;stroke-opacity:1" d="M 538.365,904.656 546.586,909.223 z" id="boundary" inkscape:connector-curvature="0" />
	<path style="fill:none;stroke:red;stroke-width:1px;stroke-linecap:butt;stroke-linejoin:miter;stroke-opacity:1" d="M 541.105,17.7017 550.239,17.7017 z" id="boundary" inkscape:connector-curvature="0" />
	<path style="fill:none;stroke:red;stroke-width:1px;stroke-linecap:butt;stroke-linejoin:miter;stroke-opacity:1" d="M 546.586,909.223 550.239,918.357 z" id="boundary" inkscape:connector-curvature="0" />
	<path style="fill:none;stroke:red;stroke-width:1px;stroke-linecap:butt;stroke-linejoin:miter;stroke-opacity:1" d="M 566.681,5.82689 575.816,4 z" id="boundary" inkscape:connector-curvature="0" />
	<path style="fill:none;stroke:red;stroke-width:1px;stroke-linecap:butt;stroke-linejoin:miter;stroke-opacity:1" d="M 575.816,4 584.95,4 z" id="boundary" inkscape:connector-curvature="0" />
	<path style="fill:none;stroke:red;stroke-width:1px;stroke-linecap:butt;stroke-linejoin:miter;stroke-opacity:1" d="M 584.95,4 593.171,8.56722 z" id="boundary" inkscape:connector-curvature="0" />
	<path style="fill:none;stroke:red;stroke-width:1px;stroke-linecap:butt;stroke-linejoin:miter;stroke-opacity:1" d="M 591.344,941.193 599.565,945.761 z" id="boundary" inkscape:connector-curvature="0" />
	<path style="fill:none;stroke:red;stroke-width:1px;stroke-linecap:butt;stroke-linejoin:miter;stroke-opacity:1" d="M 593.171,8.56722 600.479,14.0479 z" id="boundary" inkscape:connector-curvature="0" />
	<path style="fill:none;stroke:red;stroke-width:1px;stroke-linecap:butt;stroke-linejoin:miter;stroke-opacity:1" d="M 599.565,945.761 606.873,951.241 z" id="boundary" inkscape:connector-curvature="0" />
	<path style="fill:none;stroke:red;stroke-width:1px;stroke-linecap:butt;stroke-linejoin:miter;stroke-opacity:1" d="M 600.479,14.0479 607.786,20.442 z" id="boundary" inkscape:connector-curvature="0" />
	<path style="fill:none;stroke:red;stroke-width:1px;stroke-linecap:butt;stroke-linejoin:miter;stroke-opacity:1" d="M 606.873,951.241 613.267,958.549 z" id="boundary" inkscape:connector-curvature="0" />
	<path style="fill:none;stroke:red;stroke-width:1px;stroke-linecap:butt;stroke-linejoin:miter;stroke-opacity:1" d="M 607.786,20.442 614.18,27.7495 z" id="boundary" inkscape:connector-curvature="0" />
	<path style="fill:none;stroke:red;stroke-width:1px;stroke-linecap:butt;stroke-linejoin:miter;stroke-opacity:1" d="M 612.354,342.888 612.354,352.022 z" id="boundary" inkscape:connector-curvature="0" />
	<path style="fill:none;stroke:red;stroke-width:1px;stroke-linecap:butt;stroke-linejoin:miter;stroke-opacity:1" d="M 612.354,342.888 616.921,333.753 z" id="boundary" inkscape:connector-curvature="0" />
	<path style="fill:none;stroke:red;stroke-width:1px;stroke-linecap:butt;stroke-linejoin:miter;stroke-opacity:1" d="M 612.354,352.022 612.354,361.157 z" id="boundary" inkscape:connector-curvature="0" />
	<path style="fill:none;stroke:red;stroke-width:1px;stroke-linecap:butt;stroke-linejoin:miter;stroke-opacity:1" d="M 612.354,361.157 614.18,370.291 z" id="boundary" inkscape:connector-curvature="0" />
	<path style="fill:none;stroke:red;stroke-width:1px;stroke-linecap:butt;stroke-linejoin:miter;stroke-opacity:1" d="M 613.267,958.549 620.575,964.029 z" id="boundary" inkscape:connector-curvature="0" />
	<path style="fill:none;stroke:red;stroke-width:1px;stroke-linecap:butt;stroke-linejoin:miter;stroke-opacity:1" d="M 614.18,27.7495 621.488,34.1436 z" id="boundary" inkscape:connector-curvature="0" />
	<path style="fill:none;stroke:red;stroke-width:1px;stroke-linecap:butt;stroke-linejoin:miter;stroke-opacity:1" d="M 614.18,370.291 621.488,387.646 z" id="boundary" inkscape:connector-curvature="0" />
	<path style="fill:none;stroke:red;stroke-width:1px;stroke-linecap:butt;stroke-linejoin:miter;stroke-opacity:1" d="M 616.921,333.753 633.363,322.792 z" id="boundary" inkscape:connector-curvature="0" />
	<path style="fill:none;stroke:red;stroke-width:1px;stroke-linecap:butt;stroke-linejoin:miter;stroke-opacity:1" d="M 620.575,964.029 626.055,971.337 z" id="boundary" inkscape:connector-curvature="0" />
	<path style="fill:none;stroke:red;stroke-width:1px;stroke-linecap:butt;stroke-linejoin:miter;stroke-opacity:1" d="M 621.488,387.646 626.055,395.867 z" id="boundary" inkscape:connector-curvature="0" />
	<path style="fill:none;stroke:red;stroke-width:1px;stroke-linecap:butt;stroke-linejoin:miter;stroke-opacity:1" d="M 626.055,395.867 642.497,401.348 z" id="boundary" inkscape:connector-curvature="0" />
	<path style="fill:none;stroke:red;stroke-width:1px;stroke-linecap:butt;stroke-linejoin:miter;stroke-opacity:1" d="M 626.055,971.337 633.363,977.731 z" id="boundary" inkscape:connector-curvature="0" />
	<path style="fill:none;stroke:red;stroke-width:1px;stroke-linecap:butt;stroke-linejoin:miter;stroke-opacity:1" d="M 633.363,322.792 648.891,315.484 z" id="boundary" inkscape:connector-curvature="0" />
	<path style="fill:none;stroke:red;stroke-width:1px;stroke-linecap:butt;stroke-linejoin:miter;stroke-opacity:1" d="M 633.363,977.731 641.584,982.298 z" id="boundary" inkscape:connector-curvature="0" />
	<path style="fill:none;stroke:red;stroke-width:1px;stroke-linecap:butt;stroke-linejoin:miter;stroke-opacity:1" d="M 641.584,982.298 648.891,988.692 z" id="boundary" inkscape:connector-curvature="0" />
	<path style="fill:none;stroke:red;stroke-width:1px;stroke-linecap:butt;stroke-linejoin:miter;stroke-opacity:1" d="M 642.497,401.348 651.632,401.348 z" id="boundary" inkscape:connector-curvature="0" />
	<path style="fill:none;stroke:red;stroke-width:1px;stroke-linecap:butt;stroke-linejoin:miter;stroke-opacity:1" d="M 644.324,75.2486 650.718,82.5562 z" id="boundary" inkscape:connector-curvature="0" />
	<path style="fill:none;stroke:red;stroke-width:1px;stroke-linecap:butt;stroke-linejoin:miter;stroke-opacity:1" d="M 648.891,315.484 665.333,306.35 z" id="boundary" inkscape:connector-curvature="0" />
	<path style="fill:none;stroke:red;stroke-width:1px;stroke-linecap:butt;stroke-linejoin:miter;stroke-opacity:1" d="M 650.718,82.5562 658.026,88.9503 z" id="boundary" inkscape:connector-curvature="0" />
	<path style="fill:none;stroke:red;stroke-width:1px;stroke-linecap:butt;stroke-linejoin:miter;stroke-opacity:1" d="M 651.632,401.348 668.987,405.915 z" id="boundary" inkscape:connector-curvature="0" />
	<path style="fill:none;stroke:red;stroke-width:1px;stroke-linecap:butt;stroke-linejoin:miter;stroke-opacity:1" d="M 665.333,306.35 674.468,304.523 z" id="boundary" inkscape:connector-curvature="0" />
	<path style="fill:none;stroke:red;stroke-width:1px;stroke-linecap:butt;stroke-linejoin:miter;stroke-opacity:1" d="M 666.247,996 675.381,996 z" id="boundary" inkscape:connector-curvature="0" />
	<path style="fill:none;stroke:red;stroke-width:1px;stroke-linecap:butt;stroke-linejoin:miter;stroke-opacity:1" d="M 668.987,405.915 678.122,405.915 z" id="boundary" inkscape:connector-curvature="0" />
	<path style="fill:none;stroke:red;stroke-width:1px;stroke-linecap:butt;stroke-linejoin:miter;stroke-opacity:1" d="M 673.554,99.9116 679.948,107.219 z" id="boundary" inkscape:connector-curvature="0" />
	<path style="fill:none;stroke:red;stroke-width:1px;stroke-linecap:butt;stroke-linejoin:miter;stroke-opacity:1" d="M 674.468,304.523 683.602,301.783 z" id="boundary" inkscape:connector-curvature="0" />
	<path style="fill:none;stroke:red;stroke-width:1px;stroke-linecap:butt;stroke-linejoin:miter;stroke-opacity:1" d="M 675.381,996 684.516,996 z" id="boundary" inkscape:connector-curvature="0" />
	<path style="fill:none;stroke:red;stroke-width:1px;stroke-linecap:butt;stroke-linejoin:miter;stroke-opacity:1" d="M 678.122,405.915 687.256,405.915 z" id="boundary" inkscape:connector-curvature="0" />
	<path style="fill:none;stroke:red;stroke-width:1px;stroke-linecap:butt;stroke-linejoin:miter;stroke-opacity:1" d="M 679.948,107.219 685.429,114.527 z" id="boundary" inkscape:connector-curvature="0" />
	<path style="fill:none;stroke:red;stroke-width:1px;stroke-linecap:butt;stroke-linejoin:miter;stroke-opacity:1" d="M 683.602,301.783 699.131,288.081 z" id="boundary" inkscape:connector-curvature="0" />
	<path style="fill:none;stroke:red;stroke-width:1px;stroke-linecap:butt;stroke-linejoin:miter;stroke-opacity:1" d="M 684.516,996 693.65,996 z" id="boundary" inkscape:connector-curvature="0" />
	<path style="fill:none;stroke:red;stroke-width:1px;stroke-linecap:butt;stroke-linejoin:miter;stroke-opacity:1" d="M 685.429,114.527 694.564,130.969 z" id="boundary" inkscape:connector-curvature="0" />
	<path style="fill:none;stroke:red;stroke-width:1px;stroke-linecap:butt;stroke-linejoin:miter;stroke-opacity:1" d="M 687.256,405.915 696.39,405.915 z" id="boundary" inkscape:connector-curvature="0" />
	<path style="fill:none;stroke:red;stroke-width:1px;stroke-linecap:butt;stroke-linejoin:miter;stroke-opacity:1" d="M 693.65,996 702.785,996 z" id="boundary" inkscape:connector-curvature="0" />
	<path style="fill:none;stroke:red;stroke-width:1px;stroke-linecap:butt;stroke-linejoin:miter;stroke-opacity:1" d="M 694.564,130.969 702.785,148.324 z" id="boundary" inkscape:connector-curvature="0" />
	<path style="fill:none;stroke:red;stroke-width:1px;stroke-linecap:butt;stroke-linejoin:miter;stroke-opacity:1" d="M 699.131,288.081 703.698,278.947 z" id="boundary" inkscape:connector-curvature="0" />
	<path style="fill:none;stroke:red;stroke-width:1px;stroke-linecap:butt;stroke-linejoin:miter;stroke-opacity:1" d="M 702.785,148.324 707.352,156.545 z" id="boundary" inkscape:connector-curvature="0" />
	<path style="fill:none;stroke:red;stroke-width:1px;stroke-linecap:butt;stroke-linejoin:miter;stroke-opacity:1" d="M 702.785,996 711.919,996 z" id="boundary" inkscape:connector-curvature="0" />
	<path style="fill:none;stroke:red;stroke-width:1px;stroke-linecap:butt;stroke-linejoin:miter;stroke-opacity:1" d="M 703.698,278.947 715.573,263.418 z" id="boundary" inkscape:connector-curvature="0" />
	<path style="fill:none;stroke:red;stroke-width:1px;stroke-linecap:butt;stroke-linejoin:miter;stroke-opacity:1" d="M 707.352,156.545 711.006,165.68 z" id="boundary" inkscape:connector-curvature="0" />
	<path style="fill:none;stroke:red;stroke-width:1px;stroke-linecap:butt;stroke-linejoin:miter;stroke-opacity:1" d="M 708.265,419.617 712.832,427.838 z" id="boundary" inkscape:connector-curvature="0" />
	<path style="fill:none;stroke:red;stroke-width:1px;stroke-linecap:butt;stroke-linejoin:miter;stroke-opacity:1" d="M 711.006,165.68 712.832,174.814 z" id="boundary" inkscape:connector-curvature="0" />
	<path style="fill:none;stroke:red;stroke-width:1px;stroke-linecap:butt;stroke-linejoin:miter;stroke-opacity:1" d="M 711.919,996 720.14,991.433 z" id="boundary" inkscape:connector-curvature="0" />
	<path style="fill:none;stroke:red;stroke-width:1px;stroke-linecap:butt;stroke-linejoin:miter;stroke-opacity:1" d="M 712.832,174.814 712.832,183.948 z" id="boundary" inkscape:connector-curvature="0" />
	<path style="fill:none;stroke:red;stroke-width:1px;stroke-linecap:butt;stroke-linejoin:miter;stroke-opacity:1" d="M 712.832,183.948 712.832,193.083 z" id="boundary" inkscape:connector-curvature="0" />
	<path style="fill:none;stroke:red;stroke-width:1px;stroke-linecap:butt;stroke-linejoin:miter;stroke-opacity:1" d="M 712.832,193.083 712.832,202.217 z" id="boundary" inkscape:connector-curvature="0" />
	<path style="fill:none;stroke:red;stroke-width:1px;stroke-linecap:butt;stroke-linejoin:miter;stroke-opacity:1" d="M 712.832,202.217 712.832,211.352 z" id="boundary" inkscape:connector-curvature="0" />
	<path style="fill:none;stroke:red;stroke-width:1px;stroke-linecap:butt;stroke-linejoin:miter;stroke-opacity:1" d="M 712.832,211.352 715.573,220.486 z" id="boundary" inkscape:connector-curvature="0" />
	<path style="fill:none;stroke:red;stroke-width:1px;stroke-linecap:butt;stroke-linejoin:miter;stroke-opacity:1" d="M 712.832,427.838 720.14,434.232 z" id="boundary" inkscape:connector-curvature="0" />
	<path style="fill:none;stroke:red;stroke-width:1px;stroke-linecap:butt;stroke-linejoin:miter;stroke-opacity:1" d="M 715.573,220.486 721.967,237.842 z" id="boundary" inkscape:connector-curvature="0" />
	<path style="fill:none;stroke:red;stroke-width:1px;stroke-linecap:butt;stroke-linejoin:miter;stroke-opacity:1" d="M 715.573,263.418 721.967,251.543 z" id="boundary" inkscape:connector-curvature="0" />
	<path style="fill:none;stroke:red;stroke-width:1px;stroke-linecap:butt;stroke-linejoin:miter;stroke-opacity:1" d="M 720.14,434.232 726.534,441.54 z" id="boundary" inkscape:connector-curvature="0" />
	<path style="fill:none;stroke:red;stroke-width:1px;stroke-linecap:butt;stroke-linejoin:miter;stroke-opacity:1" d="M 720.14,991.433 729.274,991.433 z" id="boundary" inkscape:connector-curvature="0" />
	<path style="fill:none;stroke:red;stroke-width:1px;stroke-linecap:butt;stroke-linejoin:miter;stroke-opacity:1" d="M 721.967,237.842 721.967,251.543 z" id="boundary" inkscape:connector-curvature="0" />
	<path style="fill:none;stroke:red;stroke-width:1px;stroke-linecap:butt;stroke-linejoin:miter;stroke-opacity:1" d="M 726.534,441.54 731.101,449.761 z" id="boundary" inkscape:connector-curvature="0" />
	<path style="fill:none;stroke:red;stroke-width:1px;stroke-linecap:butt;stroke-linejoin:miter;stroke-opacity:1" d="M 729.274,991.433 738.409,989.606 z" id="boundary" inkscape:connector-curvature="0" />
	<path style="fill:none;stroke:red;stroke-width:1px;stroke-linecap:butt;stroke-linejoin:miter;stroke-opacity:1" d="M 731.101,449.761 737.495,457.068 z" id="boundary" inkscape:connector-curvature="0" />
	<path style="fill:none;stroke:red;stroke-width:1px;stroke-linecap:butt;stroke-linejoin:miter;stroke-opacity:1" d="M 737.495,457.068 744.803,463.462 z" id="boundary" inkscape:connector-curvature="0" />
	<path style="fill:none;stroke:red;stroke-width:1px;stroke-linecap:butt;stroke-linejoin:miter;stroke-opacity:1" d="M 738.409,989.606 747.543,985.039 z" id="boundary" inkscape:connector-curvature="0" />
	<path style="fill:none;stroke:red;stroke-width:1px;stroke-linecap:butt;stroke-linejoin:miter;stroke-opacity:1" d="M 744.803,463.462 749.37,471.683 z" id="boundary" inkscape:connector-curvature="0" />
	<path style="fill:none;stroke:red;stroke-width:1px;stroke-linecap:butt;stroke-linejoin:miter;stroke-opacity:1" d="M 749.37,471.683 754.851,478.991 z" id="boundary" inkscape:connector-curvature="0" />
	<path style="fill:none;stroke:red;stroke-width:1px;stroke-linecap:butt;stroke-linejoin:miter;stroke-opacity:1" d="M 754.851,478.991 763.072,483.558 z" id="boundary" inkscape:connector-curvature="0" />
	<path style="fill:none;stroke:red;stroke-width:1px;stroke-linecap:butt;stroke-linejoin:miter;stroke-opacity:1" d="M 763.072,483.558 770.379,489.039 z" id="boundary" inkscape:connector-curvature="0" />
	<path style="fill:none;stroke:red;stroke-width:1px;stroke-linecap:butt;stroke-linejoin:miter;stroke-opacity:1" d="M 770.379,489.039 776.773,496.346 z" id="boundary" inkscape:connector-curvature="0" />
	<path style="fill:none;stroke:red;stroke-width:1px;stroke-linecap:butt;stroke-linejoin:miter;stroke-opacity:1" d="M 776.773,496.346 784.081,502.74 z" id="boundary" inkscape:connector-curvature="0" />
	<path style="fill:none;stroke:red;stroke-width:1px;stroke-linecap:butt;stroke-linejoin:miter;stroke-opacity:1" d="M 784.081,502.74 790.475,510.048 z" id="boundary" inkscape:connector-curvature="0" />
	<path style="fill:none;stroke:red;stroke-width:1px;stroke-linecap:butt;stroke-linejoin:miter;stroke-opacity:1" d="M 808.744,918.357 816.052,911.963 z" id="boundary" inkscape:connector-curvature="0" />
	<path style="fill:none;stroke:red;stroke-width:1px;stroke-linecap:butt;stroke-linejoin:miter;stroke-opacity:1" d="M 816.052,911.963 822.446,904.656 z" id="boundary" inkscape:connector-curvature="0" />
	<path style="fill:none;stroke:red;stroke-width:1px;stroke-linecap:butt;stroke-linejoin:miter;stroke-opacity:1" d="M 822.446,904.656 834.32,889.127 z" id="boundary" inkscape:connector-curvature="0" />
	<path style="fill:none;stroke:red;stroke-width:1px;stroke-linecap:butt;stroke-linejoin:miter;stroke-opacity:1" d="M 834.32,889.127 838.888,879.993 z" id="boundary" inkscape:connector-curvature="0" />
	<path style="fill:none;stroke:red;stroke-width:1px;stroke-linecap:butt;stroke-linejoin:miter;stroke-opacity:1" d="M 838.888,879.993 845.282,868.118 z" id="boundary" inkscape:connector-curvature="0" />
	<path style="fill:none;stroke:red;stroke-width:1px;stroke-linecap:butt;stroke-linejoin:miter;stroke-opacity:1" d="M 840.715,565.768 848.936,570.335 z" id="boundary" inkscape:connector-curvature="0" />
	<path style="fill:none;stroke:red;stroke-width:1px;stroke-linecap:butt;stroke-linejoin:miter;stroke-opacity:1" d="M 845.282,868.118 849.849,858.983 z" id="boundary" inkscape:connector-curvature="0" />
	<path style="fill:none;stroke:red;stroke-width:1px;stroke-linecap:butt;stroke-linejoin:miter;stroke-opacity:1" d="M 848.936,570.335 854.416,577.643 z" id="boundary" inkscape:connector-curvature="0" />
	<path style="fill:none;stroke:red;stroke-width:1px;stroke-linecap:butt;stroke-linejoin:miter;stroke-opacity:1" d="M 849.849,858.983 861.724,843.455 z" id="boundary" inkscape:connector-curvature="0" />
	<path style="fill:none;stroke:red;stroke-width:1px;stroke-linecap:butt;stroke-linejoin:miter;stroke-opacity:1" d="M 854.416,577.643 860.81,584.95 z" id="boundary" inkscape:connector-curvature="0" />
	<path style="fill:none;stroke:red;stroke-width:1px;stroke-linecap:butt;stroke-linejoin:miter;stroke-opacity:1" d="M 854.416,680.862 861.724,674.468 z" id="boundary" inkscape:connector-curvature="0" />
	<path style="fill:none;stroke:red;stroke-width:1px;stroke-linecap:butt;stroke-linejoin:miter;stroke-opacity:1" d="M 854.416,689.996 854.416,699.131 z" id="boundary" inkscape:connector-curvature="0" />
	<path style="fill:none;stroke:red;stroke-width:1px;stroke-linecap:butt;stroke-linejoin:miter;stroke-opacity:1" d="M 854.416,699.131 854.416,708.265 z" id="boundary" inkscape:connector-curvature="0" />
	<path style="fill:none;stroke:red;stroke-width:1px;stroke-linecap:butt;stroke-linejoin:miter;stroke-opacity:1" d="M 854.416,708.265 858.983,716.486 z" id="boundary" inkscape:connector-curvature="0" />
	<path style="fill:none;stroke:red;stroke-width:1px;stroke-linecap:butt;stroke-linejoin:miter;stroke-opacity:1" d="M 858.983,716.486 858.983,725.621 z" id="boundary" inkscape:connector-curvature="0" />
	<path style="fill:none;stroke:red;stroke-width:1px;stroke-linecap:butt;stroke-linejoin:miter;stroke-opacity:1" d="M 858.983,725.621 868.118,742.063 z" id="boundary" inkscape:connector-curvature="0" />
	<path style="fill:none;stroke:red;stroke-width:1px;stroke-linecap:butt;stroke-linejoin:miter;stroke-opacity:1" d="M 860.81,584.95 868.118,591.344 z" id="boundary" inkscape:connector-curvature="0" />
	<path style="fill:none;stroke:red;stroke-width:1px;stroke-linecap:butt;stroke-linejoin:miter;stroke-opacity:1" d="M 861.724,674.468 868.118,667.16 z" id="boundary" inkscape:connector-curvature="0" />
	<path style="fill:none;stroke:red;stroke-width:1px;stroke-linecap:butt;stroke-linejoin:miter;stroke-opacity:1" d="M 861.724,843.455 866.291,834.32 z" id="boundary" inkscape:connector-curvature="0" />
	<path style="fill:none;stroke:red;stroke-width:1px;stroke-linecap:butt;stroke-linejoin:miter;stroke-opacity:1" d="M 866.291,834.32 868.118,822.446 z" id="boundary" inkscape:connector-curvature="0" />
	<path style="fill:none;stroke:red;stroke-width:1px;stroke-linecap:butt;stroke-linejoin:miter;stroke-opacity:1" d="M 868.118,591.344 877.252,607.786 z" id="boundary" inkscape:connector-curvature="0" />
	<path style="fill:none;stroke:red;stroke-width:1px;stroke-linecap:butt;stroke-linejoin:miter;stroke-opacity:1" d="M 868.118,667.16 879.993,651.632 z" id="boundary" inkscape:connector-curvature="0" />
	<path style="fill:none;stroke:red;stroke-width:1px;stroke-linecap:butt;stroke-linejoin:miter;stroke-opacity:1" d="M 868.118,742.063 871.772,751.197 z" id="boundary" inkscape:connector-curvature="0" />
	<path style="fill:none;stroke:red;stroke-width:1px;stroke-linecap:butt;stroke-linejoin:miter;stroke-opacity:1" d="M 868.118,822.446 872.685,806.004 z" id="boundary" inkscape:connector-curvature="0" />
	<path style="fill:none;stroke:red;stroke-width:1px;stroke-linecap:butt;stroke-linejoin:miter;stroke-opacity:1" d="M 871.772,751.197 872.685,760.331 z" id="boundary" inkscape:connector-curvature="0" />
	<path style="fill:none;stroke:red;stroke-width:1px;stroke-linecap:butt;stroke-linejoin:miter;stroke-opacity:1" d="M 872.685,760.331 872.685,769.466 z" id="boundary" inkscape:connector-curvature="0" />
	<path style="fill:none;stroke:red;stroke-width:1px;stroke-linecap:butt;stroke-linejoin:miter;stroke-opacity:1" d="M 872.685,769.466 872.685,778.6 z" id="boundary" inkscape:connector-curvature="0" />
	<path style="fill:none;stroke:red;stroke-width:1px;stroke-linecap:butt;stroke-linejoin:miter;stroke-opacity:1" d="M 872.685,778.6 872.685,787.735 z" id="boundary" inkscape:connector-curvature="0" />
	<path style="fill:none;stroke:red;stroke-width:1px;stroke-linecap:butt;stroke-linejoin:miter;stroke-opacity:1" d="M 872.685,787.735 872.685,796.869 z" id="boundary" inkscape:connector-curvature="0" />
	<path style="fill:none;stroke:red;stroke-width:1px;stroke-linecap:butt;stroke-linejoin:miter;stroke-opacity:1" d="M 872.685,796.869 872.685,806.004 z" id="boundary" inkscape:connector-curvature="0" />
	<path style="fill:none;stroke:red;stroke-width:1px;stroke-linecap:butt;stroke-linejoin:miter;stroke-opacity:1" d="M 877.252,607.786 879.079,616.921 z" id="boundary" inkscape:connector-curvature="0" />
	<path style="fill:none;stroke:red;stroke-width:1px;stroke-linecap:butt;stroke-linejoin:miter;stroke-opacity:1" d="M 879.079,616.921 881.82,635.19 z" id="boundary" inkscape:connector-curvature="0" />
	<path style="fill:none;stroke:red;stroke-width:1px;stroke-linecap:butt;stroke-linejoin:miter;stroke-opacity:1" d="M 879.993,651.632 881.82,635.19 z" id="boundary" inkscape:connector-curvature="0" />
	<circle cx="4" cy="723.794" r="4" fill="#0" id="circle0"/>
	<circle cx="4" cy="732.928" r="4" fill="#0" id="circle1"/>
	<circle cx="8.56722" cy="714.659" r="4" fill="#0" id="circle2"/>
	<circle cx="8.56722" cy="741.149" r="4" fill="#0" id="circle3"/>
	<circle cx="8.56722" cy="750.284" r="4" fill="#0" id="circle4"/>
	<circle cx="13.1344" cy="705.525" r="4" fill="#0" id="circle5"/>
	<circle cx="13.1344" cy="758.505" r="4" fill="#0" id="circle6"/>
	<circle cx="13.1344" cy="767.639" r="4" fill="#0" id="circle7"/>
	<circle cx="17.7017" cy="775.86" r="4" fill="#0" id="circle8"/>
	<circle cx="19.5285" cy="784.994" r="4" fill="#0" id="circle9"/>
	<circle cx="20.442" cy="698.217" r="4" fill="#0" id="circle10"/>
	<circle cx="22.2689" cy="794.129" r="4" fill="#0" id="circle11"/>
	<circle cx="26.8361" cy="802.35" r="4" fill="#0" id="circle12"/>
	<circle cx="27.7495" cy="690.91" r="4" fill="#0" id="circle13"/>
	<circle cx="31.4033" cy="810.571" r="4" fill="#0" id="circle14"/>
	<circle cx="35.9705" cy="404.088" r="4" fill="#0" id="circle15"/>
	<circle cx="35.9705" cy="413.223" r="4" fill="#0" id="circle16"/>
	<circle cx="35.9705" cy="422.357" r="4" fill="#0" id="circle17"/>
	<circle cx="35.9705" cy="431.492" r="4" fill="#0" id="circle18"/>
	<circle cx="35.9705" cy="440.626" r="4" fill="#0" id="circle19"/>
	<circle cx="35.9705" cy="449.761" r="4" fill="#0" id="circle20"/>
	<circle cx="35.9705" cy="458.895" r="4" fill="#0" id="circle21"/>
	<circle cx="35.9705" cy="468.029" r="4" fill="#0" id="circle22"/>
	<circle cx="35.9705" cy="818.792" r="4" fill="#0" id="circle23"/>
	<circle cx="35.9705" cy="827.926" r="4" fill="#0" id="circle24"/>
	<circle cx="36.884" cy="686.343" r="4" fill="#0" id="circle25"/>
	<circle cx="40.5378" cy="390.387" r="4" fill="#0" id="circle26"/>
	<circle cx="40.5378" cy="476.25" r="4" fill="#0" id="circle27"/>
	<circle cx="40.5378" cy="485.385" r="4" fill="#0" id="circle28"/>
	<circle cx="40.5378" cy="836.147" r="4" fill="#0" id="circle29"/>
	<circle cx="45.105" cy="381.252" r="4" fill="#0" id="circle30"/>
	<circle cx="45.105" cy="493.606" r="4" fill="#0" id="circle31"/>
	<circle cx="45.105" cy="502.74" r="4" fill="#0" id="circle32"/>
	<circle cx="45.105" cy="844.368" r="4" fill="#0" id="circle33"/>
	<circle cx="46.0184" cy="681.775" r="4" fill="#0" id="circle34"/>
	<circle cx="49.6722" cy="372.118" r="4" fill="#0" id="circle35"/>
	<circle cx="49.6722" cy="510.961" r="4" fill="#0" id="circle36"/>
	<circle cx="49.6722" cy="852.589" r="4" fill="#0" id="circle37"/>
	<circle cx="54.2394" cy="519.182" r="4" fill="#0" id="circle38"/>
	<circle cx="54.2394" cy="860.81" r="4" fill="#0" id="circle39"/>
	<circle cx="54.2394" cy="869.945" r="4" fill="#0" id="circle40"/>
	<circle cx="55.1529" cy="679.948" r="4" fill="#0" id="circle41"/>
	<circle cx="56.9797" cy="364.81" r="4" fill="#0" id="circle42"/>
	<circle cx="58.8066" cy="527.403" r="4" fill="#0" id="circle43"/>
	<circle cx="58.8066" cy="878.166" r="4" fill="#0" id="circle44"/>
	<circle cx="61.547" cy="355.676" r="4" fill="#0" id="circle45"/>
	<circle cx="63.3738" cy="535.624" r="4" fill="#0" id="circle46"/>
	<circle cx="63.3738" cy="675.381" r="4" fill="#0" id="circle47"/>
	<circle cx="63.3738" cy="886.387" r="4" fill="#0" id="circle48"/>
	<circle cx="67.9411" cy="543.845" r="4" fill="#0" id="circle49"/>
	<circle cx="67.9411" cy="894.608" r="4" fill="#0" id="circle50"/>
	<circle cx="68.8545" cy="348.368" r="4" fill="#0" id="circle51"/>
	<circle cx="72.5083" cy="673.554" r="4" fill="#0" id="circle52"/>
	<circle cx="72.5083" cy="902.829" r="4" fill="#0" id="circle53"/>
	<circle cx="73.4217" cy="551.153" r="4" fill="#0" id="circle54"/>
	<circle cx="77.0755" cy="911.05" r="4" fill="#0" id="circle55"/>
	<circle cx="77.989" cy="343.801" r="4" fill="#0" id="circle56"/>
	<circle cx="77.989" cy="559.374" r="4" fill="#0" id="circle57"/>
	<circle cx="81.6427" cy="670.814" r="4" fill="#0" id="circle58"/>
	<circle cx="81.6427" cy="919.271" r="4" fill="#0" id="circle59"/>
	<circle cx="84.3831" cy="566.681" r="4" fill="#0" id="circle60"/>
	<circle cx="86.2099" cy="927.492" r="4" fill="#0" id="circle61"/>
	<circle cx="87.1234" cy="339.234" r="4" fill="#0" id="circle62"/>
	<circle cx="88.9503" cy="936.626" r="4" fill="#0" id="circle63"/>
	<circle cx="89.8637" cy="666.247" r="4" fill="#0" id="circle64"/>
	<circle cx="91.6906" cy="573.076" r="4" fill="#0" id="circle65"/>
	<circle cx="95.3444" cy="943.934" r="4" fill="#0" id="circle66"/>
	<circle cx="96.2578" cy="337.407" r="4" fill="#0" id="circle67"/>
	<circle cx="98.0847" cy="580.383" r="4" fill="#0" id="circle68"/>
	<circle cx="98.9982" cy="666.247" r="4" fill="#0" id="circle69"/>
	<circle cx="99.9116" cy="952.155" r="4" fill="#0" id="circle70"/>
	<circle cx="104.479" cy="332.84" r="4" fill="#0" id="circle71"/>
	<circle cx="107.219" cy="584.037" r="4" fill="#0" id="circle72"/>
	<circle cx="108.133" cy="666.247" r="4" fill="#0" id="circle73"/>
	<circle cx="109.046" cy="954.895" r="4" fill="#0" id="circle74"/>
	<circle cx="113.613" cy="332.84" r="4" fill="#0" id="circle75"/>
	<circle cx="113.613" cy="963.116" r="4" fill="#0" id="circle76"/>
	<circle cx="115.44" cy="588.604" r="4" fill="#0" id="circle77"/>
	<circle cx="117.267" cy="666.247" r="4" fill="#0" id="circle78"/>
	<circle cx="120.921" cy="968.597" r="4" fill="#0" id="circle79"/>
	<circle cx="122.748" cy="332.84" r="4" fill="#0" id="circle80"/>
	<circle cx="124.575" cy="589.517" r="4" fill="#0" id="circle81"/>
	<circle cx="126.401" cy="667.16" r="4" fill="#0" id="circle82"/>
	<circle cx="129.142" cy="973.164" r="4" fill="#0" id="circle83"/>
	<circle cx="131.882" cy="332.84" r="4" fill="#0" id="circle84"/>
	<circle cx="132.796" cy="594.085" r="4" fill="#0" id="circle85"/>
	<circle cx="134.622" cy="671.727" r="4" fill="#0" id="circle86"/>
	<circle cx="138.276" cy="973.164" r="4" fill="#0" id="circle87"/>
	<circle cx="140.103" cy="337.407" r="4" fill="#0" id="circle88"/>
	<circle cx="141.017" cy="598.652" r="4" fill="#0" id="circle89"/>
	<circle cx="141.93" cy="678.122" r="4" fill="#0" id="circle90"/>
	<circle cx="147.411" cy="973.164" r="4" fill="#0" id="circle91"/>
	<circle cx="148.324" cy="341.974" r="4" fill="#0" id="circle92"/>
	<circle cx="150.151" cy="598.652" r="4" fill="#0" id="circle93"/>
	<circle cx="150.151" cy="682.689" r="4" fill="#0" id="circle94"/>
	<circle cx="151.064" cy="351.109" r="4" fill="#0" id="circle95"/>
	<circle cx="156.545" cy="973.164" r="4" fill="#0" id="circle96"/>
	<circle cx="158.372" cy="356.589" r="4" fill="#0" id="circle97"/>
	<circle cx="158.372" cy="603.219" r="4" fill="#0" id="circle98"/>
	<circle cx="159.285" cy="686.343" r="4" fill="#0" id="circle99"/>
	<circle cx="162.026" cy="365.724" r="4" fill="#0" id="circle100"/>
	<circle cx="163.853" cy="180.295" r="4" fill="#0" id="circle101"/>
	<circle cx="163.853" cy="189.429" r="4" fill="#0" id="circle102"/>
	<circle cx="163.853" cy="198.564" r="4" fill="#0" id="circle103"/>
	<circle cx="163.853" cy="207.698" r="4" fill="#0" id="circle104"/>
	<circle cx="163.853" cy="216.832" r="4" fill="#0" id="circle105"/>
	<circle cx="163.853" cy="225.967" r="4" fill="#0" id="circle106"/>
	<circle cx="163.853" cy="235.101" r="4" fill="#0" id="circle107"/>
	<circle cx="164.766" cy="693.65" r="4" fill="#0" id="circle108"/>
	<circle cx="165.68" cy="973.164" r="4" fill="#0" id="circle109"/>
	<circle cx="166.593" cy="373.945" r="4" fill="#0" id="circle110"/>
	<circle cx="166.593" cy="607.786" r="4" fill="#0" id="circle111"/>
	<circle cx="168.42" cy="243.322" r="4" fill="#0" id="circle112"/>
	<circle cx="168.42" cy="252.457" r="4" fill="#0" id="circle113"/>
	<circle cx="169.333" cy="383.079" r="4" fill="#0" id="circle114"/>
	<circle cx="171.16" cy="172.987" r="4" fill="#0" id="circle115"/>
	<circle cx="172.074" cy="699.131" r="4" fill="#0" id="circle116"/>
	<circle cx="172.987" cy="260.678" r="4" fill="#0" id="circle117"/>
	<circle cx="174.814" cy="973.164" r="4" fill="#0" id="circle118"/>
	<circle cx="175.727" cy="611.44" r="4" fill="#0" id="circle119"/>
	<circle cx="176.641" cy="388.56" r="4" fill="#0" id="circle120"/>
	<circle cx="177.554" cy="268.899" r="4" fill="#0" id="circle121"/>
	<circle cx="179.381" cy="168.42" r="4" fill="#0" id="circle122"/>
	<circle cx="180.295" cy="397.694" r="4" fill="#0" id="circle123"/>
	<circle cx="180.295" cy="703.698" r="4" fill="#0" id="circle124"/>
	<circle cx="182.122" cy="277.12" r="4" fill="#0" id="circle125"/>
	<circle cx="183.948" cy="973.164" r="4" fill="#0" id="circle126"/>
	<circle cx="184.862" cy="612.354" r="4" fill="#0" id="circle127"/>
	<circle cx="186.689" cy="285.341" r="4" fill="#0" id="circle128"/>
	<circle cx="187.602" cy="404.088" r="4" fill="#0" id="circle129"/>
	<circle cx="187.602" cy="710.092" r="4" fill="#0" id="circle130"/>
	<circle cx="188.516" cy="164.766" r="4" fill="#0" id="circle131"/>
	<circle cx="191.256" cy="293.562" r="4" fill="#0" id="circle132"/>
	<circle cx="193.083" cy="973.164" r="4" fill="#0" id="circle133"/>
	<circle cx="193.996" cy="612.354" r="4" fill="#0" id="circle134"/>
	<circle cx="193.996" cy="717.4" r="4" fill="#0" id="circle135"/>
	<circle cx="196.737" cy="405.915" r="4" fill="#0" id="circle136"/>
	<circle cx="197.65" cy="163.853" r="4" fill="#0" id="circle137"/>
	<circle cx="197.65" cy="300.869" r="4" fill="#0" id="circle138"/>
	<circle cx="201.304" cy="723.794" r="4" fill="#0" id="circle139"/>
	<circle cx="201.304" cy="968.597" r="4" fill="#0" id="circle140"/>
	<circle cx="203.131" cy="612.354" r="4" fill="#0" id="circle141"/>
	<circle cx="204.958" cy="306.35" r="4" fill="#0" id="circle142"/>
	<circle cx="204.958" cy="621.488" r="4" fill="#0" id="circle143"/>
	<circle cx="204.958" cy="630.622" r="4" fill="#0" id="circle144"/>
	<circle cx="204.958" cy="639.757" r="4" fill="#0" id="circle145"/>
	<circle cx="204.958" cy="648.891" r="4" fill="#0" id="circle146"/>
	<circle cx="204.958" cy="658.026" r="4" fill="#0" id="circle147"/>
	<circle cx="204.958" cy="667.16" r="4" fill="#0" id="circle148"/>
	<circle cx="204.958" cy="676.295" r="4" fill="#0" id="circle149"/>
	<circle cx="204.958" cy="685.429" r="4" fill="#0" id="circle150"/>
	<circle cx="204.958" cy="694.564" r="4" fill="#0" id="circle151"/>
	<circle cx="204.958" cy="703.698" r="4" fill="#0" id="circle152"/>
	<circle cx="204.958" cy="712.832" r="4" fill="#0" id="circle153"/>
	<circle cx="205.871" cy="159.285" r="4" fill="#0" id="circle154"/>
	<circle cx="205.871" cy="405.915" r="4" fill="#0" id="circle155"/>
	<circle cx="210.438" cy="968.597" r="4" fill="#0" id="circle156"/>
	<circle cx="214.092" cy="306.35" r="4" fill="#0" id="circle157"/>
	<circle cx="215.006" cy="159.285" r="4" fill="#0" id="circle158"/>
	<circle cx="215.006" cy="405.915" r="4" fill="#0" id="circle159"/>
	<circle cx="219.573" cy="968.597" r="4" fill="#0" id="circle160"/>
	<circle cx="223.227" cy="306.35" r="4" fill="#0" id="circle161"/>
	<circle cx="224.14" cy="159.285" r="4" fill="#0" id="circle162"/>
	<circle cx="224.14" cy="405.915" r="4" fill="#0" id="circle163"/>
	<circle cx="228.707" cy="964.029" r="4" fill="#0" id="circle164"/>
	<circle cx="232.361" cy="306.35" r="4" fill="#0" id="circle165"/>
	<circle cx="233.274" cy="159.285" r="4" fill="#0" id="circle166"/>
	<circle cx="233.274" cy="405.915" r="4" fill="#0" id="circle167"/>
	<circle cx="237.842" cy="959.462" r="4" fill="#0" id="circle168"/>
	<circle cx="241.495" cy="306.35" r="4" fill="#0" id="circle169"/>
	<circle cx="242.409" cy="159.285" r="4" fill="#0" id="circle170"/>
	<circle cx="242.409" cy="405.915" r="4" fill="#0" id="circle171"/>
	<circle cx="246.976" cy="959.462" r="4" fill="#0" id="circle172"/>
	<circle cx="249.716" cy="310.917" r="4" fill="#0" id="circle173"/>
	<circle cx="250.63" cy="320.052" r="4" fill="#0" id="circle174"/>
	<circle cx="251.543" cy="159.285" r="4" fill="#0" id="circle175"/>
	<circle cx="251.543" cy="405.915" r="4" fill="#0" id="circle176"/>
	<circle cx="253.37" cy="329.186" r="4" fill="#0" id="circle177"/>
	<circle cx="256.11" cy="954.895" r="4" fill="#0" id="circle178"/>
	<circle cx="257.937" cy="337.407" r="4" fill="#0" id="circle179"/>
	<circle cx="260.678" cy="159.285" r="4" fill="#0" id="circle180"/>
	<circle cx="260.678" cy="405.915" r="4" fill="#0" id="circle181"/>
	<circle cx="264.331" cy="344.715" r="4" fill="#0" id="circle182"/>
	<circle cx="265.245" cy="950.328" r="4" fill="#0" id="circle183"/>
	<circle cx="269.812" cy="159.285" r="4" fill="#0" id="circle184"/>
	<circle cx="269.812" cy="403.175" r="4" fill="#0" id="circle185"/>
	<circle cx="271.639" cy="351.109" r="4" fill="#0" id="circle186"/>
	<circle cx="273.466" cy="360.243" r="4" fill="#0" id="circle187"/>
	<circle cx="274.379" cy="394.041" r="4" fill="#0" id="circle188"/>
	<circle cx="274.379" cy="945.761" r="4" fill="#0" id="circle189"/>
	<circle cx="275.293" cy="369.378" r="4" fill="#0" id="circle190"/>
	<circle cx="278.033" cy="38.7109" r="4" fill="#0" id="circle191"/>
	<circle cx="278.033" cy="47.8453" r="4" fill="#0" id="circle192"/>
	<circle cx="278.033" cy="56.9797" r="4" fill="#0" id="circle193"/>
	<circle cx="278.033" cy="378.512" r="4" fill="#0" id="circle194"/>
	<circle cx="278.947" cy="159.285" r="4" fill="#0" id="circle195"/>
	<circle cx="282.6" cy="29.5764" r="4" fill="#0" id="circle196"/>
	<circle cx="282.6" cy="65.2007" r="4" fill="#0" id="circle197"/>
	<circle cx="283.514" cy="941.193" r="4" fill="#0" id="circle198"/>
	<circle cx="287.168" cy="73.4217" r="4" fill="#0" id="circle199"/>
	<circle cx="287.168" cy="82.5562" r="4" fill="#0" id="circle200"/>
	<circle cx="287.168" cy="91.6906" r="4" fill="#0" id="circle201"/>
	<circle cx="287.168" cy="100.825" r="4" fill="#0" id="circle202"/>
	<circle cx="287.168" cy="109.959" r="4" fill="#0" id="circle203"/>
	<circle cx="287.168" cy="119.094" r="4" fill="#0" id="circle204"/>
	<circle cx="287.168" cy="128.228" r="4" fill="#0" id="circle205"/>
	<circle cx="287.168" cy="137.363" r="4" fill="#0" id="circle206"/>
	<circle cx="287.168" cy="146.497" r="4" fill="#0" id="circle207"/>
	<circle cx="290.821" cy="934.799" r="4" fill="#0" id="circle208"/>
	<circle cx="291.735" cy="25.0092" r="4" fill="#0" id="circle209"/>
	<circle cx="297.215" cy="927.492" r="4" fill="#0" id="circle210"/>
	<circle cx="299.042" cy="17.7017" r="4" fill="#0" id="circle211"/>
	<circle cx="306.35" cy="922.924" r="4" fill="#0" id="circle212"/>
	<circle cx="308.177" cy="13.1344" r="4" fill="#0" id="circle213"/>
	<circle cx="313.657" cy="916.53" r="4" fill="#0" id="circle214"/>
	<circle cx="317.311" cy="13.1344" r="4" fill="#0" id="circle215"/>
	<circle cx="322.792" cy="911.963" r="4" fill="#0" id="circle216"/>
	<circle cx="326.446" cy="13.1344" r="4" fill="#0" id="circle217"/>
	<circle cx="329.186" cy="900.088" r="4" fill="#0" id="circle218"/>
	<circle cx="335.58" cy="13.1344" r="4" fill="#0" id="circle219"/>
	<circle cx="338.32" cy="900.088" r="4" fill="#0" id="circle220"/>
	<circle cx="344.715" cy="13.1344" r="4" fill="#0" id="circle221"/>
	<circle cx="347.455" cy="900.088" r="4" fill="#0" id="circle222"/>
	<circle cx="353.849" cy="13.1344" r="4" fill="#0" id="circle223"/>
	<circle cx="355.676" cy="904.656" r="4" fill="#0" id="circle224"/>
	<circle cx="358.416" cy="913.79" r="4" fill="#0" id="circle225"/>
	<circle cx="362.07" cy="17.7017" r="4" fill="#0" id="circle226"/>
	<circle cx="365.724" cy="920.184" r="4" fill="#0" id="circle227"/>
	<circle cx="370.291" cy="22.2689" r="4" fill="#0" id="circle228"/>
	<circle cx="372.118" cy="927.492" r="4" fill="#0" id="circle229"/>
	<circle cx="378.512" cy="26.8361" r="4" fill="#0" id="circle230"/>
	<circle cx="381.252" cy="931.145" r="4" fill="#0" id="circle231"/>
	<circle cx="387.646" cy="26.8361" r="4" fill="#0" id="circle232"/>
	<circle cx="390.387" cy="932.059" r="4" fill="#0" id="circle233"/>
	<circle cx="395.867" cy="31.4033" r="4" fill="#0" id="circle234"/>
	<circle cx="399.521" cy="932.059" r="4" fill="#0" id="circle235"/>
	<circle cx="405.002" cy="31.4033" r="4" fill="#0" id="circle236"/>
	<circle cx="408.656" cy="932.059" r="4" fill="#0" id="circle237"/>
	<circle cx="414.136" cy="31.4033" r="4" fill="#0" id="circle238"/>
	<circle cx="417.79" cy="932.059" r="4" fill="#0" id="circle239"/>
	<circle cx="423.271" cy="31.4033" r="4" fill="#0" id="circle240"/>
	<circle cx="426.924" cy="932.059" r="4" fill="#0" id="circle241"/>
	<circle cx="432.405" cy="31.4033" r="4" fill="#0" id="circle242"/>
	<circle cx="436.059" cy="932.059" r="4" fill="#0" id="circle243"/>
	<circle cx="441.54" cy="31.4033" r="4" fill="#0" id="circle244"/>
	<circle cx="445.193" cy="932.059" r="4" fill="#0" id="circle245"/>
	<circle cx="450.674" cy="31.4033" r="4" fill="#0" id="circle246"/>
	<circle cx="454.328" cy="932.059" r="4" fill="#0" id="circle247"/>
	<circle cx="459.808" cy="31.4033" r="4" fill="#0" id="circle248"/>
	<circle cx="463.462" cy="932.059" r="4" fill="#0" id="circle249"/>
	<circle cx="468.943" cy="31.4033" r="4" fill="#0" id="circle250"/>
	<circle cx="472.597" cy="932.059" r="4" fill="#0" id="circle251"/>
	<circle cx="478.077" cy="31.4033" r="4" fill="#0" id="circle252"/>
	<circle cx="481.731" cy="932.059" r="4" fill="#0" id="circle253"/>
	<circle cx="487.212" cy="31.4033" r="4" fill="#0" id="circle254"/>
	<circle cx="490.866" cy="932.059" r="4" fill="#0" id="circle255"/>
	<circle cx="496.346" cy="31.4033" r="4" fill="#0" id="circle256"/>
	<circle cx="500" cy="932.059" r="4" fill="#0" id="circle257"/>
	<circle cx="505.481" cy="31.4033" r="4" fill="#0" id="circle258"/>
	<circle cx="508.221" cy="927.492" r="4" fill="#0" id="circle259"/>
	<circle cx="513.702" cy="26.8361" r="4" fill="#0" id="circle260"/>
	<circle cx="515.529" cy="920.184" r="4" fill="#0" id="circle261"/>
	<circle cx="521.009" cy="909.223" r="4" fill="#0" id="circle262"/>
	<circle cx="522.836" cy="22.2689" r="4" fill="#0" id="circle263"/>
	<circle cx="529.23" cy="904.656" r="4" fill="#0" id="circle264"/>
	<circle cx="531.971" cy="22.2689" r="4" fill="#0" id="circle265"/>
	<circle cx="538.365" cy="904.656" r="4" fill="#0" id="circle266"/>
	<circle cx="541.105" cy="17.7017" r="4" fill="#0" id="circle267"/>
	<circle cx="546.586" cy="909.223" r="4" fill="#0" id="circle268"/>
	<circle cx="550.239" cy="17.7017" r="4" fill="#0" id="circle269"/>
	<circle cx="550.239" cy="918.357" r="4" fill="#0" id="circle270"/>
	<circle cx="557.547" cy="10.3941" r="4" fill="#0" id="circle271"/>
	<circle cx="557.547" cy="924.751" r="4" fill="#0" id="circle272"/>
	<circle cx="565.768" cy="929.319" r="4" fill="#0" id="circle273"/>
	<circle cx="566.681" cy="5.82689" r="4" fill="#0" id="circle274"/>
	<circle cx="574.902" cy="932.059" r="4" fill="#0" id="circle275"/>
	<circle cx="575.816" cy="4" r="4" fill="#0" id="circle276"/>
	<circle cx="583.123" cy="936.626" r="4" fill="#0" id="circle277"/>
	<circle cx="584.95" cy="4" r="4" fill="#0" id="circle278"/>
	<circle cx="591.344" cy="941.193" r="4" fill="#0" id="circle279"/>
	<circle cx="593.171" cy="8.56722" r="4" fill="#0" id="circle280"/>
	<circle cx="599.565" cy="945.761" r="4" fill="#0" id="circle281"/>
	<circle cx="600.479" cy="14.0479" r="4" fill="#0" id="circle282"/>
	<circle cx="606.873" cy="951.241" r="4" fill="#0" id="circle283"/>
	<circle cx="607.786" cy="20.442" r="4" fill="#0" id="circle284"/>
	<circle cx="612.354" cy="342.888" r="4" fill="#0" id="circle285"/>
	<circle cx="612.354" cy="352.022" r="4" fill="#0" id="circle286"/>
	<circle cx="612.354" cy="361.157" r="4" fill="#0" id="circle287"/>
	<circle cx="613.267" cy="958.549" r="4" fill="#0" id="circle288"/>
	<circle cx="614.18" cy="27.7495" r="4" fill="#0" id="circle289"/>
	<circle cx="614.18" cy="370.291" r="4" fill="#0" id="circle290"/>
	<circle cx="616.921" cy="333.753" r="4" fill="#0" id="circle291"/>
	<circle cx="618.748" cy="378.512" r="4" fill="#0" id="circle292"/>
	<circle cx="620.575" cy="964.029" r="4" fill="#0" id="circle293"/>
	<circle cx="621.488" cy="34.1436" r="4" fill="#0" id="circle294"/>
	<circle cx="621.488" cy="387.646" r="4" fill="#0" id="circle295"/>
	<circle cx="624.228" cy="327.359" r="4" fill="#0" id="circle296"/>
	<circle cx="626.055" cy="395.867" r="4" fill="#0" id="circle297"/>
	<circle cx="626.055" cy="971.337" r="4" fill="#0" id="circle298"/>
	<circle cx="627.882" cy="41.4512" r="4" fill="#0" id="circle299"/>
	<circle cx="632.449" cy="49.6722" r="4" fill="#0" id="circle300"/>
	<circle cx="633.363" cy="322.792" r="4" fill="#0" id="circle301"/>
	<circle cx="633.363" cy="401.348" r="4" fill="#0" id="circle302"/>
	<circle cx="633.363" cy="977.731" r="4" fill="#0" id="circle303"/>
	<circle cx="635.19" cy="58.8066" r="4" fill="#0" id="circle304"/>
	<circle cx="639.757" cy="67.0276" r="4" fill="#0" id="circle305"/>
	<circle cx="639.757" cy="315.484" r="4" fill="#0" id="circle306"/>
	<circle cx="641.584" cy="982.298" r="4" fill="#0" id="circle307"/>
	<circle cx="642.497" cy="401.348" r="4" fill="#0" id="circle308"/>
	<circle cx="644.324" cy="75.2486" r="4" fill="#0" id="circle309"/>
	<circle cx="648.891" cy="315.484" r="4" fill="#0" id="circle310"/>
	<circle cx="648.891" cy="988.692" r="4" fill="#0" id="circle311"/>
	<circle cx="650.718" cy="82.5562" r="4" fill="#0" id="circle312"/>
	<circle cx="651.632" cy="401.348" r="4" fill="#0" id="circle313"/>
	<circle cx="657.112" cy="310.917" r="4" fill="#0" id="circle314"/>
	<circle cx="657.112" cy="993.26" r="4" fill="#0" id="circle315"/>
	<circle cx="658.026" cy="88.9503" r="4" fill="#0" id="circle316"/>
	<circle cx="659.853" cy="405.915" r="4" fill="#0" id="circle317"/>
	<circle cx="664.42" cy="96.2578" r="4" fill="#0" id="circle318"/>
	<circle cx="665.333" cy="306.35" r="4" fill="#0" id="circle319"/>
	<circle cx="666.247" cy="996" r="4" fill="#0" id="circle320"/>
	<circle cx="668.987" cy="405.915" r="4" fill="#0" id="circle321"/>
	<circle cx="673.554" cy="99.9116" r="4" fill="#0" id="circle322"/>
	<circle cx="674.468" cy="304.523" r="4" fill="#0" id="circle323"/>
	<circle cx="675.381" cy="996" r="4" fill="#0" id="circle324"/>
	<circle cx="678.122" cy="405.915" r="4" fill="#0" id="circle325"/>
	<circle cx="679.948" cy="107.219" r="4" fill="#0" id="circle326"/>
	<circle cx="683.602" cy="301.783" r="4" fill="#0" id="circle327"/>
	<circle cx="684.516" cy="996" r="4" fill="#0" id="circle328"/>
	<circle cx="685.429" cy="114.527" r="4" fill="#0" id="circle329"/>
	<circle cx="687.256" cy="405.915" r="4" fill="#0" id="circle330"/>
	<circle cx="689.996" cy="122.748" r="4" fill="#0" id="circle331"/>
	<circle cx="691.823" cy="297.215" r="4" fill="#0" id="circle332"/>
	<circle cx="693.65" cy="996" r="4" fill="#0" id="circle333"/>
	<circle cx="694.564" cy="130.969" r="4" fill="#0" id="circle334"/>
	<circle cx="696.39" cy="405.915" r="4" fill="#0" id="circle335"/>
	<circle cx="699.131" cy="139.19" r="4" fill="#0" id="circle336"/>
	<circle cx="699.131" cy="288.081" r="4" fill="#0" id="circle337"/>
	<circle cx="702.785" cy="148.324" r="4" fill="#0" id="circle338"/>
	<circle cx="702.785" cy="996" r="4" fill="#0" id="circle339"/>
	<circle cx="703.698" cy="278.947" r="4" fill="#0" id="circle340"/>
	<circle cx="704.611" cy="410.483" r="4" fill="#0" id="circle341"/>
	<circle cx="707.352" cy="156.545" r="4" fill="#0" id="circle342"/>
	<circle cx="708.265" cy="419.617" r="4" fill="#0" id="circle343"/>
	<circle cx="711.006" cy="165.68" r="4" fill="#0" id="circle344"/>
	<circle cx="711.006" cy="272.552" r="4" fill="#0" id="circle345"/>
	<circle cx="711.919" cy="996" r="4" fill="#0" id="circle346"/>
	<circle cx="712.832" cy="174.814" r="4" fill="#0" id="circle347"/>
	<circle cx="712.832" cy="183.948" r="4" fill="#0" id="circle348"/>
	<circle cx="712.832" cy="193.083" r="4" fill="#0" id="circle349"/>
	<circle cx="712.832" cy="202.217" r="4" fill="#0" id="circle350"/>
	<circle cx="712.832" cy="211.352" r="4" fill="#0" id="circle351"/>
	<circle cx="712.832" cy="427.838" r="4" fill="#0" id="circle352"/>
	<circle cx="715.573" cy="220.486" r="4" fill="#0" id="circle353"/>
	<circle cx="715.573" cy="263.418" r="4" fill="#0" id="circle354"/>
	<circle cx="720.14" cy="228.707" r="4" fill="#0" id="circle355"/>
	<circle cx="720.14" cy="434.232" r="4" fill="#0" id="circle356"/>
	<circle cx="720.14" cy="991.433" r="4" fill="#0" id="circle357"/>
	<circle cx="721.967" cy="237.842" r="4" fill="#0" id="circle358"/>
	<circle cx="721.967" cy="251.543" r="4" fill="#0" id="circle359"/>
	<circle cx="726.534" cy="441.54" r="4" fill="#0" id="circle360"/>
	<circle cx="729.274" cy="991.433" r="4" fill="#0" id="circle361"/>
	<circle cx="731.101" cy="449.761" r="4" fill="#0" id="circle362"/>
	<circle cx="737.495" cy="457.068" r="4" fill="#0" id="circle363"/>
	<circle cx="738.409" cy="989.606" r="4" fill="#0" id="circle364"/>
	<circle cx="744.803" cy="463.462" r="4" fill="#0" id="circle365"/>
	<circle cx="747.543" cy="985.039" r="4" fill="#0" id="circle366"/>
	<circle cx="749.37" cy="471.683" r="4" fill="#0" id="circle367"/>
	<circle cx="753.937" cy="977.731" r="4" fill="#0" id="circle368"/>
	<circle cx="754.851" cy="478.991" r="4" fill="#0" id="circle369"/>
	<circle cx="763.072" cy="483.558" r="4" fill="#0" id="circle370"/>
	<circle cx="763.072" cy="973.164" r="4" fill="#0" id="circle371"/>
	<circle cx="770.379" cy="489.039" r="4" fill="#0" id="circle372"/>
	<circle cx="770.379" cy="966.77" r="4" fill="#0" id="circle373"/>
	<circle cx="776.773" cy="496.346" r="4" fill="#0" id="circle374"/>
	<circle cx="779.514" cy="962.203" r="4" fill="#0" id="circle375"/>
	<circle cx="784.081" cy="502.74" r="4" fill="#0" id="circle376"/>
	<circle cx="785.908" cy="954.895" r="4" fill="#0" id="circle377"/>
	<circle cx="790.475" cy="510.048" r="4" fill="#0" id="circle378"/>
	<circle cx="790.475" cy="945.761" r="4" fill="#0" id="circle379"/>
	<circle cx="797.783" cy="516.442" r="4" fill="#0" id="circle380"/>
	<circle cx="797.783" cy="939.366" r="4" fill="#0" id="circle381"/>
	<circle cx="801.436" cy="525.576" r="4" fill="#0" id="circle382"/>
	<circle cx="804.177" cy="927.492" r="4" fill="#0" id="circle383"/>
	<circle cx="808.744" cy="531.971" r="4" fill="#0" id="circle384"/>
	<circle cx="808.744" cy="918.357" r="4" fill="#0" id="circle385"/>
	<circle cx="815.138" cy="539.278" r="4" fill="#0" id="circle386"/>
	<circle cx="816.052" cy="911.963" r="4" fill="#0" id="circle387"/>
	<circle cx="822.446" cy="904.656" r="4" fill="#0" id="circle388"/>
	<circle cx="824.273" cy="542.932" r="4" fill="#0" id="circle389"/>
	<circle cx="829.753" cy="898.262" r="4" fill="#0" id="circle390"/>
	<circle cx="830.667" cy="550.239" r="4" fill="#0" id="circle391"/>
	<circle cx="834.32" cy="889.127" r="4" fill="#0" id="circle392"/>
	<circle cx="836.147" cy="557.547" r="4" fill="#0" id="circle393"/>
	<circle cx="838.888" cy="879.993" r="4" fill="#0" id="circle394"/>
	<circle cx="840.715" cy="565.768" r="4" fill="#0" id="circle395"/>
	<circle cx="845.282" cy="868.118" r="4" fill="#0" id="circle396"/>
	<circle cx="848.936" cy="570.335" r="4" fill="#0" id="circle397"/>
	<circle cx="849.849" cy="858.983" r="4" fill="#0" id="circle398"/>
	<circle cx="854.416" cy="577.643" r="4" fill="#0" id="circle399"/>
	<circle cx="854.416" cy="680.862" r="4" fill="#0" id="circle400"/>
	<circle cx="854.416" cy="689.996" r="4" fill="#0" id="circle401"/>
	<circle cx="854.416" cy="699.131" r="4" fill="#0" id="circle402"/>
	<circle cx="854.416" cy="708.265" r="4" fill="#0" id="circle403"/>
	<circle cx="857.157" cy="852.589" r="4" fill="#0" id="circle404"/>
	<circle cx="858.983" cy="716.486" r="4" fill="#0" id="circle405"/>
	<circle cx="858.983" cy="725.621" r="4" fill="#0" id="circle406"/>
	<circle cx="860.81" cy="584.95" r="4" fill="#0" id="circle407"/>
	<circle cx="861.724" cy="674.468" r="4" fill="#0" id="circle408"/>
	<circle cx="861.724" cy="843.455" r="4" fill="#0" id="circle409"/>
	<circle cx="863.551" cy="733.842" r="4" fill="#0" id="circle410"/>
	<circle cx="866.291" cy="834.32" r="4" fill="#0" id="circle411"/>
	<circle cx="868.118" cy="591.344" r="4" fill="#0" id="circle412"/>
	<circle cx="868.118" cy="667.16" r="4" fill="#0" id="circle413"/>
	<circle cx="868.118" cy="742.063" r="4" fill="#0" id="circle414"/>
	<circle cx="868.118" cy="822.446" r="4" fill="#0" id="circle415"/>
	<circle cx="871.772" cy="751.197" r="4" fill="#0" id="circle416"/>
	<circle cx="872.685" cy="599.565" r="4" fill="#0" id="circle417"/>
	<circle cx="872.685" cy="760.331" r="4" fill="#0" id="circle418"/>
	<circle cx="872.685" cy="769.466" r="4" fill="#0" id="circle419"/>
	<circle cx="872.685" cy="778.6" r="4" fill="#0" id="circle420"/>
	<circle cx="872.685" cy="787.735" r="4" fill="#0" id="circle421"/>
	<circle cx="872.685" cy="796.869" r="4" fill="#0" id="circle422"/>
	<circle cx="872.685" cy="806.004" r="4" fill="#0" id="circle423"/>
	<circle cx="875.425" cy="660.766" r="4" fill="#0" id="circle424"/>
	<circle cx="877.252" cy="607.786" r="4" fill="#0" id="circle425"/>
	<circle cx="879.079" cy="616.921" r="4" fill="#0" id="circle426"/>
	<circle cx="879.993" cy="651.632" r="4" fill="#0" id="circle427"/>
	<circle cx="881.82" cy="635.19" r="4" fill="#0" id="circle428"/>
	<circle cx="883.646" cy="625.142" r="4" fill="#0" id="circle429"/>
	</g>
</svg>