<?xml version="1.0" encoding="UTF-8" standalone="no"?>
<!-- Created with CurveBenchmark -->
<svg
	xmlns:dc="http://purl.org/dc/elements/1.1/"
	xmlns:cc="http://creativecommons.org/ns#"
	xmlns:rdf="http://www.w3.org/1999/02/22-rdf-syntax-ns#"
	xmlns:svg="http://www.w3.org/2000/svg"
	xmlns="http://www.w3.org/2000/svg"
	xmlns:sodipodi="http://sodipodi.sourceforge.net/DTD/sodipodi-0.dtd"
	xmlns:inkscape="http://www.inkscape.org/namespaces/inkscape"
	width="1000"
	height="1000"
	id="svg2"
	version="1.1"
	sodipodi:docname="manifold/vicur-tree-20.png.txt">
<defs
	id="defs4" />
<metadata
	id="metadata7">
	<rdf:RDF>
		<cc:Work
			rdf:about="">
			<dc:format>image/svg+xml</dc:format>
			<dc:type
				rdf:resource="http://purl.org/dc/dcmitype/StillImage" />
			<dc:title></dc:title>
		</cc:Work>
	</rdf:RDF>
</metadata>
<g
	inkscape:label="Layer 1"
	inkscape:groupmode="layer"
	id="layer1">
	<path style="fill:none;stroke:red;stroke-width:1px;stroke-linecap:butt;stroke-linejoin:miter;stroke-opacity:1" d="M 4,707.531 4,717.908 z" id="boundary" inkscape:connector-curvature="0" />
	<path style="fill:none;stroke:red;stroke-width:1px;stroke-linecap:butt;stroke-linejoin:miter;stroke-opacity:1" d="M 4,707.531 12.3013,699.23 z" id="boundary" inkscape:connector-curvature="0" />
	<path style="fill:none;stroke:red;stroke-width:1px;stroke-linecap:butt;stroke-linejoin:miter;stroke-opacity:1" d="M 4,717.908 9.18828,727.247 z" id="boundary" inkscape:connector-curvature="0" />
	<path style="fill:none;stroke:red;stroke-width:1px;stroke-linecap:butt;stroke-linejoin:miter;stroke-opacity:1" d="M 9.18828,727.247 16.4519,735.548 z" id="boundary" inkscape:connector-curvature="0" />
	<path style="fill:none;stroke:red;stroke-width:1px;stroke-linecap:butt;stroke-linejoin:miter;stroke-opacity:1" d="M 12.3013,699.23 17.4895,688.854 z" id="boundary" inkscape:connector-curvature="0" />
	<path style="fill:none;stroke:red;stroke-width:1px;stroke-linecap:butt;stroke-linejoin:miter;stroke-opacity:1" d="M 16.4519,735.548 26.8285,736.586 z" id="boundary" inkscape:connector-curvature="0" />
	<path style="fill:none;stroke:red;stroke-width:1px;stroke-linecap:butt;stroke-linejoin:miter;stroke-opacity:1" d="M 17.4895,688.854 24.7531,676.402 z" id="boundary" inkscape:connector-curvature="0" />
	<path style="fill:none;stroke:red;stroke-width:1px;stroke-linecap:butt;stroke-linejoin:miter;stroke-opacity:1" d="M 24.7531,676.402 29.9414,666.025 z" id="boundary" inkscape:connector-curvature="0" />
	<path style="fill:none;stroke:red;stroke-width:1px;stroke-linecap:butt;stroke-linejoin:miter;stroke-opacity:1" d="M 26.8285,736.586 36.1674,741.774 z" id="boundary" inkscape:connector-curvature="0" />
	<path style="fill:none;stroke:red;stroke-width:1px;stroke-linecap:butt;stroke-linejoin:miter;stroke-opacity:1" d="M 29.9414,458.494 29.9414,468.87 z" id="boundary" inkscape:connector-curvature="0" />
	<path style="fill:none;stroke:red;stroke-width:1px;stroke-linecap:butt;stroke-linejoin:miter;stroke-opacity:1" d="M 29.9414,458.494 38.2427,450.192 z" id="boundary" inkscape:connector-curvature="0" />
	<path style="fill:none;stroke:red;stroke-width:1px;stroke-linecap:butt;stroke-linejoin:miter;stroke-opacity:1" d="M 29.9414,468.87 35.1297,478.209 z" id="boundary" inkscape:connector-curvature="0" />
	<path style="fill:none;stroke:red;stroke-width:1px;stroke-linecap:butt;stroke-linejoin:miter;stroke-opacity:1" d="M 29.9414,666.025 38.2427,657.724 z" id="boundary" inkscape:connector-curvature="0" />
	<path style="fill:none;stroke:red;stroke-width:1px;stroke-linecap:butt;stroke-linejoin:miter;stroke-opacity:1" d="M 35.1297,478.209 42.3933,486.51 z" id="boundary" inkscape:connector-curvature="0" />
	<path style="fill:none;stroke:red;stroke-width:1px;stroke-linecap:butt;stroke-linejoin:miter;stroke-opacity:1" d="M 36.1674,741.774 46.5439,741.774 z" id="boundary" inkscape:connector-curvature="0" />
	<path style="fill:none;stroke:red;stroke-width:1px;stroke-linecap:butt;stroke-linejoin:miter;stroke-opacity:1" d="M 38.2427,450.192 43.431,439.816 z" id="boundary" inkscape:connector-curvature="0" />
	<path style="fill:none;stroke:red;stroke-width:1px;stroke-linecap:butt;stroke-linejoin:miter;stroke-opacity:1" d="M 38.2427,657.724 45.5063,645.272 z" id="boundary" inkscape:connector-curvature="0" />
	<path style="fill:none;stroke:red;stroke-width:1px;stroke-linecap:butt;stroke-linejoin:miter;stroke-opacity:1" d="M 42.3933,486.51 52.7699,487.548 z" id="boundary" inkscape:connector-curvature="0" />
	<path style="fill:none;stroke:red;stroke-width:1px;stroke-linecap:butt;stroke-linejoin:miter;stroke-opacity:1" d="M 43.431,439.816 51.7322,431.515 z" id="boundary" inkscape:connector-curvature="0" />
	<path style="fill:none;stroke:red;stroke-width:1px;stroke-linecap:butt;stroke-linejoin:miter;stroke-opacity:1" d="M 45.5063,645.272 53.8075,636.971 z" id="boundary" inkscape:connector-curvature="0" />
	<path style="fill:none;stroke:red;stroke-width:1px;stroke-linecap:butt;stroke-linejoin:miter;stroke-opacity:1" d="M 46.5439,741.774 56.9205,741.774 z" id="boundary" inkscape:connector-curvature="0" />
	<path style="fill:none;stroke:red;stroke-width:1px;stroke-linecap:butt;stroke-linejoin:miter;stroke-opacity:1" d="M 51.7322,431.515 60.0335,424.251 z" id="boundary" inkscape:connector-curvature="0" />
	<path style="fill:none;stroke:red;stroke-width:1px;stroke-linecap:butt;stroke-linejoin:miter;stroke-opacity:1" d="M 52.7699,487.548 63.1464,487.548 z" id="boundary" inkscape:connector-curvature="0" />
	<path style="fill:none;stroke:red;stroke-width:1px;stroke-linecap:butt;stroke-linejoin:miter;stroke-opacity:1" d="M 53.8075,636.971 62.1088,628.669 z" id="boundary" inkscape:connector-curvature="0" />
	<path style="fill:none;stroke:red;stroke-width:1px;stroke-linecap:butt;stroke-linejoin:miter;stroke-opacity:1" d="M 56.9205,741.774 67.2971,741.774 z" id="boundary" inkscape:connector-curvature="0" />
	<path style="fill:none;stroke:red;stroke-width:1px;stroke-linecap:butt;stroke-linejoin:miter;stroke-opacity:1" d="M 60.0335,424.251 67.2971,415.95 z" id="boundary" inkscape:connector-curvature="0" />
	<path style="fill:none;stroke:red;stroke-width:1px;stroke-linecap:butt;stroke-linejoin:miter;stroke-opacity:1" d="M 62.1088,628.669 70.41,621.406 z" id="boundary" inkscape:connector-curvature="0" />
	<path style="fill:none;stroke:red;stroke-width:1px;stroke-linecap:butt;stroke-linejoin:miter;stroke-opacity:1" d="M 63.1464,487.548 73.523,487.548 z" id="boundary" inkscape:connector-curvature="0" />
	<path style="fill:none;stroke:red;stroke-width:1px;stroke-linecap:butt;stroke-linejoin:miter;stroke-opacity:1" d="M 67.2971,415.95 75.5983,408.686 z" id="boundary" inkscape:connector-curvature="0" />
	<path style="fill:none;stroke:red;stroke-width:1px;stroke-linecap:butt;stroke-linejoin:miter;stroke-opacity:1" d="M 67.2971,741.774 77.6736,741.774 z" id="boundary" inkscape:connector-curvature="0" />
	<path style="fill:none;stroke:red;stroke-width:1px;stroke-linecap:butt;stroke-linejoin:miter;stroke-opacity:1" d="M 70.41,621.406 77.6736,613.105 z" id="boundary" inkscape:connector-curvature="0" />
	<path style="fill:none;stroke:red;stroke-width:1px;stroke-linecap:butt;stroke-linejoin:miter;stroke-opacity:1" d="M 73.523,487.548 83.8996,487.548 z" id="boundary" inkscape:connector-curvature="0" />
	<path style="fill:none;stroke:red;stroke-width:1px;stroke-linecap:butt;stroke-linejoin:miter;stroke-opacity:1" d="M 75.5983,408.686 79.749,398.31 z" id="boundary" inkscape:connector-curvature="0" />
	<path style="fill:none;stroke:red;stroke-width:1px;stroke-linecap:butt;stroke-linejoin:miter;stroke-opacity:1" d="M 77.6736,613.105 82.8619,602.728 z" id="boundary" inkscape:connector-curvature="0" />
	<path style="fill:none;stroke:red;stroke-width:1px;stroke-linecap:butt;stroke-linejoin:miter;stroke-opacity:1" d="M 77.6736,741.774 88.0502,741.774 z" id="boundary" inkscape:connector-curvature="0" />
	<path style="fill:none;stroke:red;stroke-width:1px;stroke-linecap:butt;stroke-linejoin:miter;stroke-opacity:1" d="M 79.749,398.31 88.0502,390.008 z" id="boundary" inkscape:connector-curvature="0" />
	<path style="fill:none;stroke:red;stroke-width:1px;stroke-linecap:butt;stroke-linejoin:miter;stroke-opacity:1" d="M 82.8619,602.728 91.1632,595.464 z" id="boundary" inkscape:connector-curvature="0" />
	<path style="fill:none;stroke:red;stroke-width:1px;stroke-linecap:butt;stroke-linejoin:miter;stroke-opacity:1" d="M 83.8996,487.548 94.2762,487.548 z" id="boundary" inkscape:connector-curvature="0" />
	<path style="fill:none;stroke:red;stroke-width:1px;stroke-linecap:butt;stroke-linejoin:miter;stroke-opacity:1" d="M 88.0502,390.008 96.3515,382.745 z" id="boundary" inkscape:connector-curvature="0" />
	<path style="fill:none;stroke:red;stroke-width:1px;stroke-linecap:butt;stroke-linejoin:miter;stroke-opacity:1" d="M 88.0502,741.774 98.4268,741.774 z" id="boundary" inkscape:connector-curvature="0" />
	<path style="fill:none;stroke:red;stroke-width:1px;stroke-linecap:butt;stroke-linejoin:miter;stroke-opacity:1" d="M 91.1632,595.464 97.3891,583.013 z" id="boundary" inkscape:connector-curvature="0" />
	<path style="fill:none;stroke:red;stroke-width:1px;stroke-linecap:butt;stroke-linejoin:miter;stroke-opacity:1" d="M 94.2762,487.548 104.653,487.548 z" id="boundary" inkscape:connector-curvature="0" />
	<path style="fill:none;stroke:red;stroke-width:1px;stroke-linecap:butt;stroke-linejoin:miter;stroke-opacity:1" d="M 96.3515,382.745 103.615,374.444 z" id="boundary" inkscape:connector-curvature="0" />
	<path style="fill:none;stroke:red;stroke-width:1px;stroke-linecap:butt;stroke-linejoin:miter;stroke-opacity:1" d="M 97.3891,240.586 97.3891,250.962 z" id="boundary" inkscape:connector-curvature="0" />
	<path style="fill:none;stroke:red;stroke-width:1px;stroke-linecap:butt;stroke-linejoin:miter;stroke-opacity:1" d="M 97.3891,240.586 105.69,232.285 z" id="boundary" inkscape:connector-curvature="0" />
	<path style="fill:none;stroke:red;stroke-width:1px;stroke-linecap:butt;stroke-linejoin:miter;stroke-opacity:1" d="M 97.3891,250.962 102.577,260.301 z" id="boundary" inkscape:connector-curvature="0" />
	<path style="fill:none;stroke:red;stroke-width:1px;stroke-linecap:butt;stroke-linejoin:miter;stroke-opacity:1" d="M 97.3891,583.013 102.577,572.636 z" id="boundary" inkscape:connector-curvature="0" />
	<path style="fill:none;stroke:red;stroke-width:1px;stroke-linecap:butt;stroke-linejoin:miter;stroke-opacity:1" d="M 98.4268,741.774 108.803,741.774 z" id="boundary" inkscape:connector-curvature="0" />
	<path style="fill:none;stroke:red;stroke-width:1px;stroke-linecap:butt;stroke-linejoin:miter;stroke-opacity:1" d="M 102.577,260.301 112.954,264.452 z" id="boundary" inkscape:connector-curvature="0" />
	<path style="fill:none;stroke:red;stroke-width:1px;stroke-linecap:butt;stroke-linejoin:miter;stroke-opacity:1" d="M 102.577,572.636 110.879,564.335 z" id="boundary" inkscape:connector-curvature="0" />
	<path style="fill:none;stroke:red;stroke-width:1px;stroke-linecap:butt;stroke-linejoin:miter;stroke-opacity:1" d="M 103.615,374.444 111.916,367.18 z" id="boundary" inkscape:connector-curvature="0" />
	<path style="fill:none;stroke:red;stroke-width:1px;stroke-linecap:butt;stroke-linejoin:miter;stroke-opacity:1" d="M 104.653,487.548 115.029,487.548 z" id="boundary" inkscape:connector-curvature="0" />
	<path style="fill:none;stroke:red;stroke-width:1px;stroke-linecap:butt;stroke-linejoin:miter;stroke-opacity:1" d="M 105.69,232.285 115.029,227.096 z" id="boundary" inkscape:connector-curvature="0" />
	<path style="fill:none;stroke:red;stroke-width:1px;stroke-linecap:butt;stroke-linejoin:miter;stroke-opacity:1" d="M 108.803,741.774 118.142,736.586 z" id="boundary" inkscape:connector-curvature="0" />
	<path style="fill:none;stroke:red;stroke-width:1px;stroke-linecap:butt;stroke-linejoin:miter;stroke-opacity:1" d="M 110.879,564.335 116.067,553.958 z" id="boundary" inkscape:connector-curvature="0" />
	<path style="fill:none;stroke:red;stroke-width:1px;stroke-linecap:butt;stroke-linejoin:miter;stroke-opacity:1" d="M 111.916,367.18 119.18,358.879 z" id="boundary" inkscape:connector-curvature="0" />
	<path style="fill:none;stroke:red;stroke-width:1px;stroke-linecap:butt;stroke-linejoin:miter;stroke-opacity:1" d="M 112.954,264.452 122.293,269.64 z" id="boundary" inkscape:connector-curvature="0" />
	<path style="fill:none;stroke:red;stroke-width:1px;stroke-linecap:butt;stroke-linejoin:miter;stroke-opacity:1" d="M 115.029,227.096 123.331,219.833 z" id="boundary" inkscape:connector-curvature="0" />
	<path style="fill:none;stroke:red;stroke-width:1px;stroke-linecap:butt;stroke-linejoin:miter;stroke-opacity:1" d="M 115.029,487.548 125.406,487.548 z" id="boundary" inkscape:connector-curvature="0" />
	<path style="fill:none;stroke:red;stroke-width:1px;stroke-linecap:butt;stroke-linejoin:miter;stroke-opacity:1" d="M 116.067,553.958 123.331,541.506 z" id="boundary" inkscape:connector-curvature="0" />
	<path style="fill:none;stroke:red;stroke-width:1px;stroke-linecap:butt;stroke-linejoin:miter;stroke-opacity:1" d="M 118.142,736.586 128.519,736.586 z" id="boundary" inkscape:connector-curvature="0" />
	<path style="fill:none;stroke:red;stroke-width:1px;stroke-linecap:butt;stroke-linejoin:miter;stroke-opacity:1" d="M 119.18,358.879 127.481,351.615 z" id="boundary" inkscape:connector-curvature="0" />
	<path style="fill:none;stroke:red;stroke-width:1px;stroke-linecap:butt;stroke-linejoin:miter;stroke-opacity:1" d="M 122.293,269.64 132.669,269.64 z" id="boundary" inkscape:connector-curvature="0" />
	<path style="fill:none;stroke:red;stroke-width:1px;stroke-linecap:butt;stroke-linejoin:miter;stroke-opacity:1" d="M 123.331,219.833 133.707,214.644 z" id="boundary" inkscape:connector-curvature="0" />
	<path style="fill:none;stroke:red;stroke-width:1px;stroke-linecap:butt;stroke-linejoin:miter;stroke-opacity:1" d="M 123.331,541.506 128.519,531.13 z" id="boundary" inkscape:connector-curvature="0" />
	<path style="fill:none;stroke:red;stroke-width:1px;stroke-linecap:butt;stroke-linejoin:miter;stroke-opacity:1" d="M 125.406,487.548 133.707,479.247 z" id="boundary" inkscape:connector-curvature="0" />
	<path style="fill:none;stroke:red;stroke-width:1px;stroke-linecap:butt;stroke-linejoin:miter;stroke-opacity:1" d="M 127.481,351.615 134.745,343.314 z" id="boundary" inkscape:connector-curvature="0" />
	<path style="fill:none;stroke:red;stroke-width:1px;stroke-linecap:butt;stroke-linejoin:miter;stroke-opacity:1" d="M 128.519,520.753 128.519,531.13 z" id="boundary" inkscape:connector-curvature="0" />
	<path style="fill:none;stroke:red;stroke-width:1px;stroke-linecap:butt;stroke-linejoin:miter;stroke-opacity:1" d="M 128.519,520.753 136.82,512.452 z" id="boundary" inkscape:connector-curvature="0" />
	<path style="fill:none;stroke:red;stroke-width:1px;stroke-linecap:butt;stroke-linejoin:miter;stroke-opacity:1" d="M 128.519,736.586 138.895,736.586 z" id="boundary" inkscape:connector-curvature="0" />
	<path style="fill:none;stroke:red;stroke-width:1px;stroke-linecap:butt;stroke-linejoin:miter;stroke-opacity:1" d="M 132.669,269.64 143.046,269.64 z" id="boundary" inkscape:connector-curvature="0" />
	<path style="fill:none;stroke:red;stroke-width:1px;stroke-linecap:butt;stroke-linejoin:miter;stroke-opacity:1" d="M 133.707,214.644 142.008,206.343 z" id="boundary" inkscape:connector-curvature="0" />
	<path style="fill:none;stroke:red;stroke-width:1px;stroke-linecap:butt;stroke-linejoin:miter;stroke-opacity:1" d="M 133.707,479.247 144.084,477.172 z" id="boundary" inkscape:connector-curvature="0" />
	<path style="fill:none;stroke:red;stroke-width:1px;stroke-linecap:butt;stroke-linejoin:miter;stroke-opacity:1" d="M 134.745,343.314 143.046,336.05 z" id="boundary" inkscape:connector-curvature="0" />
	<path style="fill:none;stroke:red;stroke-width:1px;stroke-linecap:butt;stroke-linejoin:miter;stroke-opacity:1" d="M 136.82,512.452 138.895,500 z" id="boundary" inkscape:connector-curvature="0" />
	<path style="fill:none;stroke:red;stroke-width:1px;stroke-linecap:butt;stroke-linejoin:miter;stroke-opacity:1" d="M 138.895,500 144.084,487.548 z" id="boundary" inkscape:connector-curvature="0" />
	<path style="fill:none;stroke:red;stroke-width:1px;stroke-linecap:butt;stroke-linejoin:miter;stroke-opacity:1" d="M 138.895,736.586 149.272,736.586 z" id="boundary" inkscape:connector-curvature="0" />
	<path style="fill:none;stroke:red;stroke-width:1px;stroke-linecap:butt;stroke-linejoin:miter;stroke-opacity:1" d="M 142.008,206.343 151.347,201.155 z" id="boundary" inkscape:connector-curvature="0" />
	<path style="fill:none;stroke:red;stroke-width:1px;stroke-linecap:butt;stroke-linejoin:miter;stroke-opacity:1" d="M 143.046,269.64 153.423,269.64 z" id="boundary" inkscape:connector-curvature="0" />
	<path style="fill:none;stroke:red;stroke-width:1px;stroke-linecap:butt;stroke-linejoin:miter;stroke-opacity:1" d="M 143.046,336.05 150.31,327.749 z" id="boundary" inkscape:connector-curvature="0" />
	<path style="fill:none;stroke:red;stroke-width:1px;stroke-linecap:butt;stroke-linejoin:miter;stroke-opacity:1" d="M 144.084,477.172 144.084,487.548 z" id="boundary" inkscape:connector-curvature="0" />
	<path style="fill:none;stroke:red;stroke-width:1px;stroke-linecap:butt;stroke-linejoin:miter;stroke-opacity:1" d="M 149.272,736.586 159.649,736.586 z" id="boundary" inkscape:connector-curvature="0" />
	<path style="fill:none;stroke:red;stroke-width:1px;stroke-linecap:butt;stroke-linejoin:miter;stroke-opacity:1" d="M 150.31,327.749 155.498,317.372 z" id="boundary" inkscape:connector-curvature="0" />
	<path style="fill:none;stroke:red;stroke-width:1px;stroke-linecap:butt;stroke-linejoin:miter;stroke-opacity:1" d="M 151.347,201.155 156.536,191.816 z" id="boundary" inkscape:connector-curvature="0" />
	<path style="fill:none;stroke:red;stroke-width:1px;stroke-linecap:butt;stroke-linejoin:miter;stroke-opacity:1" d="M 153.423,269.64 163.799,267.565 z" id="boundary" inkscape:connector-curvature="0" />
	<path style="fill:none;stroke:red;stroke-width:1px;stroke-linecap:butt;stroke-linejoin:miter;stroke-opacity:1" d="M 155.498,317.372 163.799,310.109 z" id="boundary" inkscape:connector-curvature="0" />
	<path style="fill:none;stroke:red;stroke-width:1px;stroke-linecap:butt;stroke-linejoin:miter;stroke-opacity:1" d="M 156.536,191.816 164.837,185.59 z" id="boundary" inkscape:connector-curvature="0" />
	<path style="fill:none;stroke:red;stroke-width:1px;stroke-linecap:butt;stroke-linejoin:miter;stroke-opacity:1" d="M 159.649,736.586 170.025,736.586 z" id="boundary" inkscape:connector-curvature="0" />
	<path style="fill:none;stroke:red;stroke-width:1px;stroke-linecap:butt;stroke-linejoin:miter;stroke-opacity:1" d="M 163.799,267.565 174.176,262.377 z" id="boundary" inkscape:connector-curvature="0" />
	<path style="fill:none;stroke:red;stroke-width:1px;stroke-linecap:butt;stroke-linejoin:miter;stroke-opacity:1" d="M 163.799,310.109 170.025,292.469 z" id="boundary" inkscape:connector-curvature="0" />
	<path style="fill:none;stroke:red;stroke-width:1px;stroke-linecap:butt;stroke-linejoin:miter;stroke-opacity:1" d="M 164.837,185.59 174.176,180.402 z" id="boundary" inkscape:connector-curvature="0" />
	<path style="fill:none;stroke:red;stroke-width:1px;stroke-linecap:butt;stroke-linejoin:miter;stroke-opacity:1" d="M 170.025,292.469 178.326,284.167 z" id="boundary" inkscape:connector-curvature="0" />
	<path style="fill:none;stroke:red;stroke-width:1px;stroke-linecap:butt;stroke-linejoin:miter;stroke-opacity:1" d="M 170.025,736.586 180.402,736.586 z" id="boundary" inkscape:connector-curvature="0" />
	<path style="fill:none;stroke:red;stroke-width:1px;stroke-linecap:butt;stroke-linejoin:miter;stroke-opacity:1" d="M 174.176,180.402 183.515,175.213 z" id="boundary" inkscape:connector-curvature="0" />
	<path style="fill:none;stroke:red;stroke-width:1px;stroke-linecap:butt;stroke-linejoin:miter;stroke-opacity:1" d="M 174.176,262.377 184.552,259.264 z" id="boundary" inkscape:connector-curvature="0" />
	<path style="fill:none;stroke:red;stroke-width:1px;stroke-linecap:butt;stroke-linejoin:miter;stroke-opacity:1" d="M 178.326,284.167 183.515,273.791 z" id="boundary" inkscape:connector-curvature="0" />
	<path style="fill:none;stroke:red;stroke-width:1px;stroke-linecap:butt;stroke-linejoin:miter;stroke-opacity:1" d="M 180.402,736.586 189.741,731.397 z" id="boundary" inkscape:connector-curvature="0" />
	<path style="fill:none;stroke:red;stroke-width:1px;stroke-linecap:butt;stroke-linejoin:miter;stroke-opacity:1" d="M 183.515,175.213 191.816,166.912 z" id="boundary" inkscape:connector-curvature="0" />
	<path style="fill:none;stroke:red;stroke-width:1px;stroke-linecap:butt;stroke-linejoin:miter;stroke-opacity:1" d="M 183.515,273.791 184.552,259.264 z" id="boundary" inkscape:connector-curvature="0" />
	<path style="fill:none;stroke:red;stroke-width:1px;stroke-linecap:butt;stroke-linejoin:miter;stroke-opacity:1" d="M 189.741,731.397 199.079,726.209 z" id="boundary" inkscape:connector-curvature="0" />
	<path style="fill:none;stroke:red;stroke-width:1px;stroke-linecap:butt;stroke-linejoin:miter;stroke-opacity:1" d="M 191.816,166.912 200.117,159.649 z" id="boundary" inkscape:connector-curvature="0" />
	<path style="fill:none;stroke:red;stroke-width:1px;stroke-linecap:butt;stroke-linejoin:miter;stroke-opacity:1" d="M 199.079,726.209 209.456,725.172 z" id="boundary" inkscape:connector-curvature="0" />
	<path style="fill:none;stroke:red;stroke-width:1px;stroke-linecap:butt;stroke-linejoin:miter;stroke-opacity:1" d="M 200.117,159.649 207.381,151.347 z" id="boundary" inkscape:connector-curvature="0" />
	<path style="fill:none;stroke:red;stroke-width:1px;stroke-linecap:butt;stroke-linejoin:miter;stroke-opacity:1" d="M 207.381,151.347 212.569,140.971 z" id="boundary" inkscape:connector-curvature="0" />
	<path style="fill:none;stroke:red;stroke-width:1px;stroke-linecap:butt;stroke-linejoin:miter;stroke-opacity:1" d="M 209.456,725.172 216.72,733.473 z" id="boundary" inkscape:connector-curvature="0" />
	<path style="fill:none;stroke:red;stroke-width:1px;stroke-linecap:butt;stroke-linejoin:miter;stroke-opacity:1" d="M 212.569,140.971 220.87,133.707 z" id="boundary" inkscape:connector-curvature="0" />
	<path style="fill:none;stroke:red;stroke-width:1px;stroke-linecap:butt;stroke-linejoin:miter;stroke-opacity:1" d="M 216.72,733.473 216.72,743.849 z" id="boundary" inkscape:connector-curvature="0" />
	<path style="fill:none;stroke:red;stroke-width:1px;stroke-linecap:butt;stroke-linejoin:miter;stroke-opacity:1" d="M 216.72,743.849 216.72,754.226 z" id="boundary" inkscape:connector-curvature="0" />
	<path style="fill:none;stroke:red;stroke-width:1px;stroke-linecap:butt;stroke-linejoin:miter;stroke-opacity:1" d="M 216.72,754.226 216.72,764.603 z" id="boundary" inkscape:connector-curvature="0" />
	<path style="fill:none;stroke:red;stroke-width:1px;stroke-linecap:butt;stroke-linejoin:miter;stroke-opacity:1" d="M 216.72,764.603 216.72,774.979 z" id="boundary" inkscape:connector-curvature="0" />
	<path style="fill:none;stroke:red;stroke-width:1px;stroke-linecap:butt;stroke-linejoin:miter;stroke-opacity:1" d="M 216.72,774.979 216.72,785.356 z" id="boundary" inkscape:connector-curvature="0" />
	<path style="fill:none;stroke:red;stroke-width:1px;stroke-linecap:butt;stroke-linejoin:miter;stroke-opacity:1" d="M 216.72,785.356 216.72,795.732 z" id="boundary" inkscape:connector-curvature="0" />
	<path style="fill:none;stroke:red;stroke-width:1px;stroke-linecap:butt;stroke-linejoin:miter;stroke-opacity:1" d="M 216.72,795.732 216.72,806.109 z" id="boundary" inkscape:connector-curvature="0" />
	<path style="fill:none;stroke:red;stroke-width:1px;stroke-linecap:butt;stroke-linejoin:miter;stroke-opacity:1" d="M 216.72,806.109 216.72,816.485 z" id="boundary" inkscape:connector-curvature="0" />
	<path style="fill:none;stroke:red;stroke-width:1px;stroke-linecap:butt;stroke-linejoin:miter;stroke-opacity:1" d="M 216.72,816.485 216.72,826.862 z" id="boundary" inkscape:connector-curvature="0" />
	<path style="fill:none;stroke:red;stroke-width:1px;stroke-linecap:butt;stroke-linejoin:miter;stroke-opacity:1" d="M 216.72,826.862 216.72,837.238 z" id="boundary" inkscape:connector-curvature="0" />
	<path style="fill:none;stroke:red;stroke-width:1px;stroke-linecap:butt;stroke-linejoin:miter;stroke-opacity:1" d="M 216.72,837.238 216.72,847.615 z" id="boundary" inkscape:connector-curvature="0" />
	<path style="fill:none;stroke:red;stroke-width:1px;stroke-linecap:butt;stroke-linejoin:miter;stroke-opacity:1" d="M 216.72,847.615 216.72,857.992 z" id="boundary" inkscape:connector-curvature="0" />
	<path style="fill:none;stroke:red;stroke-width:1px;stroke-linecap:butt;stroke-linejoin:miter;stroke-opacity:1" d="M 216.72,857.992 216.72,868.368 z" id="boundary" inkscape:connector-curvature="0" />
	<path style="fill:none;stroke:red;stroke-width:1px;stroke-linecap:butt;stroke-linejoin:miter;stroke-opacity:1" d="M 216.72,868.368 216.72,878.745 z" id="boundary" inkscape:connector-curvature="0" />
	<path style="fill:none;stroke:red;stroke-width:1px;stroke-linecap:butt;stroke-linejoin:miter;stroke-opacity:1" d="M 216.72,878.745 216.72,889.121 z" id="boundary" inkscape:connector-curvature="0" />
	<path style="fill:none;stroke:red;stroke-width:1px;stroke-linecap:butt;stroke-linejoin:miter;stroke-opacity:1" d="M 216.72,889.121 216.72,899.498 z" id="boundary" inkscape:connector-curvature="0" />
	<path style="fill:none;stroke:red;stroke-width:1px;stroke-linecap:butt;stroke-linejoin:miter;stroke-opacity:1" d="M 216.72,899.498 216.72,909.874 z" id="boundary" inkscape:connector-curvature="0" />
	<path style="fill:none;stroke:red;stroke-width:1px;stroke-linecap:butt;stroke-linejoin:miter;stroke-opacity:1" d="M 216.72,909.874 216.72,920.251 z" id="boundary" inkscape:connector-curvature="0" />
	<path style="fill:none;stroke:red;stroke-width:1px;stroke-linecap:butt;stroke-linejoin:miter;stroke-opacity:1" d="M 216.72,920.251 216.72,930.628 z" id="boundary" inkscape:connector-curvature="0" />
	<path style="fill:none;stroke:red;stroke-width:1px;stroke-linecap:butt;stroke-linejoin:miter;stroke-opacity:1" d="M 216.72,930.628 216.72,941.004 z" id="boundary" inkscape:connector-curvature="0" />
	<path style="fill:none;stroke:red;stroke-width:1px;stroke-linecap:butt;stroke-linejoin:miter;stroke-opacity:1" d="M 216.72,941.004 216.72,951.381 z" id="boundary" inkscape:connector-curvature="0" />
	<path style="fill:none;stroke:red;stroke-width:1px;stroke-linecap:butt;stroke-linejoin:miter;stroke-opacity:1" d="M 216.72,951.381 216.72,961.757 z" id="boundary" inkscape:connector-curvature="0" />
	<path style="fill:none;stroke:red;stroke-width:1px;stroke-linecap:butt;stroke-linejoin:miter;stroke-opacity:1" d="M 216.72,961.757 216.72,972.134 z" id="boundary" inkscape:connector-curvature="0" />
	<path style="fill:none;stroke:red;stroke-width:1px;stroke-linecap:butt;stroke-linejoin:miter;stroke-opacity:1" d="M 216.72,972.134 216.72,982.51 z" id="boundary" inkscape:connector-curvature="0" />
	<path style="fill:none;stroke:red;stroke-width:1px;stroke-linecap:butt;stroke-linejoin:miter;stroke-opacity:1" d="M 216.72,982.51 221.908,991.849 z" id="boundary" inkscape:connector-curvature="0" />
	<path style="fill:none;stroke:red;stroke-width:1px;stroke-linecap:butt;stroke-linejoin:miter;stroke-opacity:1" d="M 220.87,133.707 228.134,125.406 z" id="boundary" inkscape:connector-curvature="0" />
	<path style="fill:none;stroke:red;stroke-width:1px;stroke-linecap:butt;stroke-linejoin:miter;stroke-opacity:1" d="M 221.908,991.849 232.285,996 z" id="boundary" inkscape:connector-curvature="0" />
	<path style="fill:none;stroke:red;stroke-width:1px;stroke-linecap:butt;stroke-linejoin:miter;stroke-opacity:1" d="M 228.134,125.406 236.435,118.142 z" id="boundary" inkscape:connector-curvature="0" />
	<path style="fill:none;stroke:red;stroke-width:1px;stroke-linecap:butt;stroke-linejoin:miter;stroke-opacity:1" d="M 232.285,996 242.661,996 z" id="boundary" inkscape:connector-curvature="0" />
	<path style="fill:none;stroke:red;stroke-width:1px;stroke-linecap:butt;stroke-linejoin:miter;stroke-opacity:1" d="M 236.435,118.142 242.661,105.69 z" id="boundary" inkscape:connector-curvature="0" />
	<path style="fill:none;stroke:red;stroke-width:1px;stroke-linecap:butt;stroke-linejoin:miter;stroke-opacity:1" d="M 242.661,105.69 250.962,97.3891 z" id="boundary" inkscape:connector-curvature="0" />
	<path style="fill:none;stroke:red;stroke-width:1px;stroke-linecap:butt;stroke-linejoin:miter;stroke-opacity:1" d="M 242.661,996 253.038,996 z" id="boundary" inkscape:connector-curvature="0" />
	<path style="fill:none;stroke:red;stroke-width:1px;stroke-linecap:butt;stroke-linejoin:miter;stroke-opacity:1" d="M 250.962,97.3891 259.264,89.0879 z" id="boundary" inkscape:connector-curvature="0" />
	<path style="fill:none;stroke:red;stroke-width:1px;stroke-linecap:butt;stroke-linejoin:miter;stroke-opacity:1" d="M 253.038,996 263.414,996 z" id="boundary" inkscape:connector-curvature="0" />
	<path style="fill:none;stroke:red;stroke-width:1px;stroke-linecap:butt;stroke-linejoin:miter;stroke-opacity:1" d="M 259.264,89.0879 267.565,81.8243 z" id="boundary" inkscape:connector-curvature="0" />
	<path style="fill:none;stroke:red;stroke-width:1px;stroke-linecap:butt;stroke-linejoin:miter;stroke-opacity:1" d="M 263.414,996 273.791,996 z" id="boundary" inkscape:connector-curvature="0" />
	<path style="fill:none;stroke:red;stroke-width:1px;stroke-linecap:butt;stroke-linejoin:miter;stroke-opacity:1" d="M 267.565,81.8243 274.828,73.523 z" id="boundary" inkscape:connector-curvature="0" />
	<path style="fill:none;stroke:red;stroke-width:1px;stroke-linecap:butt;stroke-linejoin:miter;stroke-opacity:1" d="M 273.791,996 284.167,996 z" id="boundary" inkscape:connector-curvature="0" />
	<path style="fill:none;stroke:red;stroke-width:1px;stroke-linecap:butt;stroke-linejoin:miter;stroke-opacity:1" d="M 274.828,73.523 280.017,63.1464 z" id="boundary" inkscape:connector-curvature="0" />
	<path style="fill:none;stroke:red;stroke-width:1px;stroke-linecap:butt;stroke-linejoin:miter;stroke-opacity:1" d="M 280.017,63.1464 288.318,55.8828 z" id="boundary" inkscape:connector-curvature="0" />
	<path style="fill:none;stroke:red;stroke-width:1px;stroke-linecap:butt;stroke-linejoin:miter;stroke-opacity:1" d="M 284.167,996 294.544,996 z" id="boundary" inkscape:connector-curvature="0" />
	<path style="fill:none;stroke:red;stroke-width:1px;stroke-linecap:butt;stroke-linejoin:miter;stroke-opacity:1" d="M 288.318,55.8828 289.356,43.431 z" id="boundary" inkscape:connector-curvature="0" />
	<path style="fill:none;stroke:red;stroke-width:1px;stroke-linecap:butt;stroke-linejoin:miter;stroke-opacity:1" d="M 289.356,43.431 294.544,33.0544 z" id="boundary" inkscape:connector-curvature="0" />
	<path style="fill:none;stroke:red;stroke-width:1px;stroke-linecap:butt;stroke-linejoin:miter;stroke-opacity:1" d="M 294.544,12.3013 294.544,22.6778 z" id="boundary" inkscape:connector-curvature="0" />
	<path style="fill:none;stroke:red;stroke-width:1px;stroke-linecap:butt;stroke-linejoin:miter;stroke-opacity:1" d="M 294.544,12.3013 302.845,4 z" id="boundary" inkscape:connector-curvature="0" />
	<path style="fill:none;stroke:red;stroke-width:1px;stroke-linecap:butt;stroke-linejoin:miter;stroke-opacity:1" d="M 294.544,22.6778 294.544,33.0544 z" id="boundary" inkscape:connector-curvature="0" />
	<path style="fill:none;stroke:red;stroke-width:1px;stroke-linecap:butt;stroke-linejoin:miter;stroke-opacity:1" d="M 294.544,996 304.921,996 z" id="boundary" inkscape:connector-curvature="0" />
	<path style="fill:none;stroke:red;stroke-width:1px;stroke-linecap:butt;stroke-linejoin:miter;stroke-opacity:1" d="M 302.845,4 313.222,4 z" id="boundary" inkscape:connector-curvature="0" />
	<path style="fill:none;stroke:red;stroke-width:1px;stroke-linecap:butt;stroke-linejoin:miter;stroke-opacity:1" d="M 304.921,996 315.297,996 z" id="boundary" inkscape:connector-curvature="0" />
	<path style="fill:none;stroke:red;stroke-width:1px;stroke-linecap:butt;stroke-linejoin:miter;stroke-opacity:1" d="M 313.222,4 320.485,12.3013 z" id="boundary" inkscape:connector-curvature="0" />
	<path style="fill:none;stroke:red;stroke-width:1px;stroke-linecap:butt;stroke-linejoin:miter;stroke-opacity:1" d="M 315.297,996 325.674,996 z" id="boundary" inkscape:connector-curvature="0" />
	<path style="fill:none;stroke:red;stroke-width:1px;stroke-linecap:butt;stroke-linejoin:miter;stroke-opacity:1" d="M 320.485,12.3013 321.523,22.6778 z" id="boundary" inkscape:connector-curvature="0" />
	<path style="fill:none;stroke:red;stroke-width:1px;stroke-linecap:butt;stroke-linejoin:miter;stroke-opacity:1" d="M 321.523,22.6778 321.523,33.0544 z" id="boundary" inkscape:connector-curvature="0" />
	<path style="fill:none;stroke:red;stroke-width:1px;stroke-linecap:butt;stroke-linejoin:miter;stroke-opacity:1" d="M 321.523,33.0544 326.711,42.3933 z" id="boundary" inkscape:connector-curvature="0" />
	<path style="fill:none;stroke:red;stroke-width:1px;stroke-linecap:butt;stroke-linejoin:miter;stroke-opacity:1" d="M 325.674,996 336.05,996 z" id="boundary" inkscape:connector-curvature="0" />
	<path style="fill:none;stroke:red;stroke-width:1px;stroke-linecap:butt;stroke-linejoin:miter;stroke-opacity:1" d="M 326.711,42.3933 331.9,51.7322 z" id="boundary" inkscape:connector-curvature="0" />
	<path style="fill:none;stroke:red;stroke-width:1px;stroke-linecap:butt;stroke-linejoin:miter;stroke-opacity:1" d="M 331.9,51.7322 337.088,61.0711 z" id="boundary" inkscape:connector-curvature="0" />
	<path style="fill:none;stroke:red;stroke-width:1px;stroke-linecap:butt;stroke-linejoin:miter;stroke-opacity:1" d="M 336.05,996 346.427,996 z" id="boundary" inkscape:connector-curvature="0" />
	<path style="fill:none;stroke:red;stroke-width:1px;stroke-linecap:butt;stroke-linejoin:miter;stroke-opacity:1" d="M 337.088,61.0711 342.276,70.41 z" id="boundary" inkscape:connector-curvature="0" />
	<path style="fill:none;stroke:red;stroke-width:1px;stroke-linecap:butt;stroke-linejoin:miter;stroke-opacity:1" d="M 342.276,70.41 347.464,79.749 z" id="boundary" inkscape:connector-curvature="0" />
	<path style="fill:none;stroke:red;stroke-width:1px;stroke-linecap:butt;stroke-linejoin:miter;stroke-opacity:1" d="M 346.427,996 356.803,996 z" id="boundary" inkscape:connector-curvature="0" />
	<path style="fill:none;stroke:red;stroke-width:1px;stroke-linecap:butt;stroke-linejoin:miter;stroke-opacity:1" d="M 347.464,79.749 351.615,90.1255 z" id="boundary" inkscape:connector-curvature="0" />
	<path style="fill:none;stroke:red;stroke-width:1px;stroke-linecap:butt;stroke-linejoin:miter;stroke-opacity:1" d="M 351.615,90.1255 352.653,100.502 z" id="boundary" inkscape:connector-curvature="0" />
	<path style="fill:none;stroke:red;stroke-width:1px;stroke-linecap:butt;stroke-linejoin:miter;stroke-opacity:1" d="M 352.653,100.502 352.653,110.879 z" id="boundary" inkscape:connector-curvature="0" />
	<path style="fill:none;stroke:red;stroke-width:1px;stroke-linecap:butt;stroke-linejoin:miter;stroke-opacity:1" d="M 352.653,110.879 352.653,121.255 z" id="boundary" inkscape:connector-curvature="0" />
	<path style="fill:none;stroke:red;stroke-width:1px;stroke-linecap:butt;stroke-linejoin:miter;stroke-opacity:1" d="M 352.653,121.255 356.803,131.632 z" id="boundary" inkscape:connector-curvature="0" />
	<path style="fill:none;stroke:red;stroke-width:1px;stroke-linecap:butt;stroke-linejoin:miter;stroke-opacity:1" d="M 356.803,131.632 357.841,142.008 z" id="boundary" inkscape:connector-curvature="0" />
	<path style="fill:none;stroke:red;stroke-width:1px;stroke-linecap:butt;stroke-linejoin:miter;stroke-opacity:1" d="M 356.803,996 367.18,996 z" id="boundary" inkscape:connector-curvature="0" />
	<path style="fill:none;stroke:red;stroke-width:1px;stroke-linecap:butt;stroke-linejoin:miter;stroke-opacity:1" d="M 357.841,142.008 363.029,151.347 z" id="boundary" inkscape:connector-curvature="0" />
	<path style="fill:none;stroke:red;stroke-width:1px;stroke-linecap:butt;stroke-linejoin:miter;stroke-opacity:1" d="M 363.029,151.347 363.029,161.724 z" id="boundary" inkscape:connector-curvature="0" />
	<path style="fill:none;stroke:red;stroke-width:1px;stroke-linecap:butt;stroke-linejoin:miter;stroke-opacity:1" d="M 363.029,161.724 366.142,172.1 z" id="boundary" inkscape:connector-curvature="0" />
	<path style="fill:none;stroke:red;stroke-width:1px;stroke-linecap:butt;stroke-linejoin:miter;stroke-opacity:1" d="M 366.142,172.1 371.331,181.439 z" id="boundary" inkscape:connector-curvature="0" />
	<path style="fill:none;stroke:red;stroke-width:1px;stroke-linecap:butt;stroke-linejoin:miter;stroke-opacity:1" d="M 367.18,996 377.556,996 z" id="boundary" inkscape:connector-curvature="0" />
	<path style="fill:none;stroke:red;stroke-width:1px;stroke-linecap:butt;stroke-linejoin:miter;stroke-opacity:1" d="M 371.331,181.439 375.481,191.816 z" id="boundary" inkscape:connector-curvature="0" />
	<path style="fill:none;stroke:red;stroke-width:1px;stroke-linecap:butt;stroke-linejoin:miter;stroke-opacity:1" d="M 373.406,268.603 373.406,278.979 z" id="boundary" inkscape:connector-curvature="0" />
	<path style="fill:none;stroke:red;stroke-width:1px;stroke-linecap:butt;stroke-linejoin:miter;stroke-opacity:1" d="M 373.406,268.603 383.782,266.527 z" id="boundary" inkscape:connector-curvature="0" />
	<path style="fill:none;stroke:red;stroke-width:1px;stroke-linecap:butt;stroke-linejoin:miter;stroke-opacity:1" d="M 373.406,278.979 378.594,288.318 z" id="boundary" inkscape:connector-curvature="0" />
	<path style="fill:none;stroke:red;stroke-width:1px;stroke-linecap:butt;stroke-linejoin:miter;stroke-opacity:1" d="M 375.481,191.816 383.782,199.079 z" id="boundary" inkscape:connector-curvature="0" />
	<path style="fill:none;stroke:red;stroke-width:1px;stroke-linecap:butt;stroke-linejoin:miter;stroke-opacity:1" d="M 377.556,996 387.933,996 z" id="boundary" inkscape:connector-curvature="0" />
	<path style="fill:none;stroke:red;stroke-width:1px;stroke-linecap:butt;stroke-linejoin:miter;stroke-opacity:1" d="M 378.594,288.318 383.782,297.657 z" id="boundary" inkscape:connector-curvature="0" />
	<path style="fill:none;stroke:red;stroke-width:1px;stroke-linecap:butt;stroke-linejoin:miter;stroke-opacity:1" d="M 383.782,199.079 387.933,209.456 z" id="boundary" inkscape:connector-curvature="0" />
	<path style="fill:none;stroke:red;stroke-width:1px;stroke-linecap:butt;stroke-linejoin:miter;stroke-opacity:1" d="M 383.782,266.527 393.121,271.715 z" id="boundary" inkscape:connector-curvature="0" />
	<path style="fill:none;stroke:red;stroke-width:1px;stroke-linecap:butt;stroke-linejoin:miter;stroke-opacity:1" d="M 383.782,297.657 388.971,306.996 z" id="boundary" inkscape:connector-curvature="0" />
	<path style="fill:none;stroke:red;stroke-width:1px;stroke-linecap:butt;stroke-linejoin:miter;stroke-opacity:1" d="M 387.933,209.456 393.121,218.795 z" id="boundary" inkscape:connector-curvature="0" />
	<path style="fill:none;stroke:red;stroke-width:1px;stroke-linecap:butt;stroke-linejoin:miter;stroke-opacity:1" d="M 387.933,996 398.31,996 z" id="boundary" inkscape:connector-curvature="0" />
	<path style="fill:none;stroke:red;stroke-width:1px;stroke-linecap:butt;stroke-linejoin:miter;stroke-opacity:1" d="M 388.971,306.996 394.159,316.335 z" id="boundary" inkscape:connector-curvature="0" />
	<path style="fill:none;stroke:red;stroke-width:1px;stroke-linecap:butt;stroke-linejoin:miter;stroke-opacity:1" d="M 388.971,741.774 388.971,752.151 z" id="boundary" inkscape:connector-curvature="0" />
	<path style="fill:none;stroke:red;stroke-width:1px;stroke-linecap:butt;stroke-linejoin:miter;stroke-opacity:1" d="M 388.971,741.774 399.347,741.774 z" id="boundary" inkscape:connector-curvature="0" />
	<path style="fill:none;stroke:red;stroke-width:1px;stroke-linecap:butt;stroke-linejoin:miter;stroke-opacity:1" d="M 388.971,752.151 388.971,762.527 z" id="boundary" inkscape:connector-curvature="0" />
	<path style="fill:none;stroke:red;stroke-width:1px;stroke-linecap:butt;stroke-linejoin:miter;stroke-opacity:1" d="M 388.971,762.527 388.971,772.904 z" id="boundary" inkscape:connector-curvature="0" />
	<path style="fill:none;stroke:red;stroke-width:1px;stroke-linecap:butt;stroke-linejoin:miter;stroke-opacity:1" d="M 388.971,772.904 394.159,782.243 z" id="boundary" inkscape:connector-curvature="0" />
	<path style="fill:none;stroke:red;stroke-width:1px;stroke-linecap:butt;stroke-linejoin:miter;stroke-opacity:1" d="M 393.121,218.795 399.347,227.096 z" id="boundary" inkscape:connector-curvature="0" />
	<path style="fill:none;stroke:red;stroke-width:1px;stroke-linecap:butt;stroke-linejoin:miter;stroke-opacity:1" d="M 393.121,271.715 403.498,274.828 z" id="boundary" inkscape:connector-curvature="0" />
	<path style="fill:none;stroke:red;stroke-width:1px;stroke-linecap:butt;stroke-linejoin:miter;stroke-opacity:1" d="M 394.159,316.335 394.159,326.711 z" id="boundary" inkscape:connector-curvature="0" />
	<path style="fill:none;stroke:red;stroke-width:1px;stroke-linecap:butt;stroke-linejoin:miter;stroke-opacity:1" d="M 394.159,326.711 399.347,336.05 z" id="boundary" inkscape:connector-curvature="0" />
	<path style="fill:none;stroke:red;stroke-width:1px;stroke-linecap:butt;stroke-linejoin:miter;stroke-opacity:1" d="M 394.159,782.243 394.159,792.619 z" id="boundary" inkscape:connector-curvature="0" />
	<path style="fill:none;stroke:red;stroke-width:1px;stroke-linecap:butt;stroke-linejoin:miter;stroke-opacity:1" d="M 394.159,792.619 399.347,801.958 z" id="boundary" inkscape:connector-curvature="0" />
	<path style="fill:none;stroke:red;stroke-width:1px;stroke-linecap:butt;stroke-linejoin:miter;stroke-opacity:1" d="M 398.31,996 406.611,989.774 z" id="boundary" inkscape:connector-curvature="0" />
	<path style="fill:none;stroke:red;stroke-width:1px;stroke-linecap:butt;stroke-linejoin:miter;stroke-opacity:1" d="M 399.347,227.096 407.649,233.322 z" id="boundary" inkscape:connector-curvature="0" />
	<path style="fill:none;stroke:red;stroke-width:1px;stroke-linecap:butt;stroke-linejoin:miter;stroke-opacity:1" d="M 399.347,336.05 404.536,345.389 z" id="boundary" inkscape:connector-curvature="0" />
	<path style="fill:none;stroke:red;stroke-width:1px;stroke-linecap:butt;stroke-linejoin:miter;stroke-opacity:1" d="M 399.347,741.774 409.724,741.774 z" id="boundary" inkscape:connector-curvature="0" />
	<path style="fill:none;stroke:red;stroke-width:1px;stroke-linecap:butt;stroke-linejoin:miter;stroke-opacity:1" d="M 399.347,801.958 399.347,812.335 z" id="boundary" inkscape:connector-curvature="0" />
	<path style="fill:none;stroke:red;stroke-width:1px;stroke-linecap:butt;stroke-linejoin:miter;stroke-opacity:1" d="M 399.347,812.335 399.347,822.711 z" id="boundary" inkscape:connector-curvature="0" />
	<path style="fill:none;stroke:red;stroke-width:1px;stroke-linecap:butt;stroke-linejoin:miter;stroke-opacity:1" d="M 399.347,822.711 399.347,833.088 z" id="boundary" inkscape:connector-curvature="0" />
	<path style="fill:none;stroke:red;stroke-width:1px;stroke-linecap:butt;stroke-linejoin:miter;stroke-opacity:1" d="M 399.347,833.088 399.347,843.464 z" id="boundary" inkscape:connector-curvature="0" />
	<path style="fill:none;stroke:red;stroke-width:1px;stroke-linecap:butt;stroke-linejoin:miter;stroke-opacity:1" d="M 399.347,843.464 399.347,853.841 z" id="boundary" inkscape:connector-curvature="0" />
	<path style="fill:none;stroke:red;stroke-width:1px;stroke-linecap:butt;stroke-linejoin:miter;stroke-opacity:1" d="M 399.347,853.841 399.347,864.218 z" id="boundary" inkscape:connector-curvature="0" />
	<path style="fill:none;stroke:red;stroke-width:1px;stroke-linecap:butt;stroke-linejoin:miter;stroke-opacity:1" d="M 399.347,864.218 399.347,874.594 z" id="boundary" inkscape:connector-curvature="0" />
	<path style="fill:none;stroke:red;stroke-width:1px;stroke-linecap:butt;stroke-linejoin:miter;stroke-opacity:1" d="M 399.347,874.594 399.347,884.971 z" id="boundary" inkscape:connector-curvature="0" />
	<path style="fill:none;stroke:red;stroke-width:1px;stroke-linecap:butt;stroke-linejoin:miter;stroke-opacity:1" d="M 399.347,884.971 399.347,895.347 z" id="boundary" inkscape:connector-curvature="0" />
	<path style="fill:none;stroke:red;stroke-width:1px;stroke-linecap:butt;stroke-linejoin:miter;stroke-opacity:1" d="M 399.347,895.347 399.347,905.724 z" id="boundary" inkscape:connector-curvature="0" />
	<path style="fill:none;stroke:red;stroke-width:1px;stroke-linecap:butt;stroke-linejoin:miter;stroke-opacity:1" d="M 399.347,905.724 399.347,916.1 z" id="boundary" inkscape:connector-curvature="0" />
	<path style="fill:none;stroke:red;stroke-width:1px;stroke-linecap:butt;stroke-linejoin:miter;stroke-opacity:1" d="M 399.347,916.1 399.347,926.477 z" id="boundary" inkscape:connector-curvature="0" />
	<path style="fill:none;stroke:red;stroke-width:1px;stroke-linecap:butt;stroke-linejoin:miter;stroke-opacity:1" d="M 399.347,926.477 399.347,936.854 z" id="boundary" inkscape:connector-curvature="0" />
	<path style="fill:none;stroke:red;stroke-width:1px;stroke-linecap:butt;stroke-linejoin:miter;stroke-opacity:1" d="M 399.347,936.854 399.347,947.23 z" id="boundary" inkscape:connector-curvature="0" />
	<path style="fill:none;stroke:red;stroke-width:1px;stroke-linecap:butt;stroke-linejoin:miter;stroke-opacity:1" d="M 399.347,947.23 404.536,956.569 z" id="boundary" inkscape:connector-curvature="0" />
	<path style="fill:none;stroke:red;stroke-width:1px;stroke-linecap:butt;stroke-linejoin:miter;stroke-opacity:1" d="M 403.498,274.828 412.837,280.017 z" id="boundary" inkscape:connector-curvature="0" />
	<path style="fill:none;stroke:red;stroke-width:1px;stroke-linecap:butt;stroke-linejoin:miter;stroke-opacity:1" d="M 404.536,345.389 409.724,354.728 z" id="boundary" inkscape:connector-curvature="0" />
	<path style="fill:none;stroke:red;stroke-width:1px;stroke-linecap:butt;stroke-linejoin:miter;stroke-opacity:1" d="M 404.536,956.569 408.686,966.946 z" id="boundary" inkscape:connector-curvature="0" />
	<path style="fill:none;stroke:red;stroke-width:1px;stroke-linecap:butt;stroke-linejoin:miter;stroke-opacity:1" d="M 406.611,989.774 414.912,975.247 z" id="boundary" inkscape:connector-curvature="0" />
	<path style="fill:none;stroke:red;stroke-width:1px;stroke-linecap:butt;stroke-linejoin:miter;stroke-opacity:1" d="M 407.649,233.322 416.987,238.51 z" id="boundary" inkscape:connector-curvature="0" />
	<path style="fill:none;stroke:red;stroke-width:1px;stroke-linecap:butt;stroke-linejoin:miter;stroke-opacity:1" d="M 408.686,966.946 414.912,975.247 z" id="boundary" inkscape:connector-curvature="0" />
	<path style="fill:none;stroke:red;stroke-width:1px;stroke-linecap:butt;stroke-linejoin:miter;stroke-opacity:1" d="M 409.724,354.728 413.874,365.105 z" id="boundary" inkscape:connector-curvature="0" />
	<path style="fill:none;stroke:red;stroke-width:1px;stroke-linecap:butt;stroke-linejoin:miter;stroke-opacity:1" d="M 409.724,741.774 420.1,741.774 z" id="boundary" inkscape:connector-curvature="0" />
	<path style="fill:none;stroke:red;stroke-width:1px;stroke-linecap:butt;stroke-linejoin:miter;stroke-opacity:1" d="M 412.837,280.017 422.176,285.205 z" id="boundary" inkscape:connector-curvature="0" />
	<path style="fill:none;stroke:red;stroke-width:1px;stroke-linecap:butt;stroke-linejoin:miter;stroke-opacity:1" d="M 413.874,365.105 419.063,374.444 z" id="boundary" inkscape:connector-curvature="0" />
	<path style="fill:none;stroke:red;stroke-width:1px;stroke-linecap:butt;stroke-linejoin:miter;stroke-opacity:1" d="M 416.987,238.51 427.364,242.661 z" id="boundary" inkscape:connector-curvature="0" />
	<path style="fill:none;stroke:red;stroke-width:1px;stroke-linecap:butt;stroke-linejoin:miter;stroke-opacity:1" d="M 419.063,374.444 423.213,384.82 z" id="boundary" inkscape:connector-curvature="0" />
	<path style="fill:none;stroke:red;stroke-width:1px;stroke-linecap:butt;stroke-linejoin:miter;stroke-opacity:1" d="M 420.1,741.774 430.477,741.774 z" id="boundary" inkscape:connector-curvature="0" />
	<path style="fill:none;stroke:red;stroke-width:1px;stroke-linecap:butt;stroke-linejoin:miter;stroke-opacity:1" d="M 422.176,285.205 432.552,285.205 z" id="boundary" inkscape:connector-curvature="0" />
	<path style="fill:none;stroke:red;stroke-width:1px;stroke-linecap:butt;stroke-linejoin:miter;stroke-opacity:1" d="M 423.213,384.82 430.477,393.121 z" id="boundary" inkscape:connector-curvature="0" />
	<path style="fill:none;stroke:red;stroke-width:1px;stroke-linecap:butt;stroke-linejoin:miter;stroke-opacity:1" d="M 425.289,482.36 425.289,492.736 z" id="boundary" inkscape:connector-curvature="0" />
	<path style="fill:none;stroke:red;stroke-width:1px;stroke-linecap:butt;stroke-linejoin:miter;stroke-opacity:1" d="M 425.289,482.36 435.665,484.435 z" id="boundary" inkscape:connector-curvature="0" />
	<path style="fill:none;stroke:red;stroke-width:1px;stroke-linecap:butt;stroke-linejoin:miter;stroke-opacity:1" d="M 425.289,492.736 427.364,503.113 z" id="boundary" inkscape:connector-curvature="0" />
	<path style="fill:none;stroke:red;stroke-width:1px;stroke-linecap:butt;stroke-linejoin:miter;stroke-opacity:1" d="M 427.364,242.661 436.703,247.849 z" id="boundary" inkscape:connector-curvature="0" />
	<path style="fill:none;stroke:red;stroke-width:1px;stroke-linecap:butt;stroke-linejoin:miter;stroke-opacity:1" d="M 427.364,503.113 430.477,513.49 z" id="boundary" inkscape:connector-curvature="0" />
	<path style="fill:none;stroke:red;stroke-width:1px;stroke-linecap:butt;stroke-linejoin:miter;stroke-opacity:1" d="M 430.477,393.121 435.665,402.46 z" id="boundary" inkscape:connector-curvature="0" />
	<path style="fill:none;stroke:red;stroke-width:1px;stroke-linecap:butt;stroke-linejoin:miter;stroke-opacity:1" d="M 430.477,513.49 430.477,523.866 z" id="boundary" inkscape:connector-curvature="0" />
	<path style="fill:none;stroke:red;stroke-width:1px;stroke-linecap:butt;stroke-linejoin:miter;stroke-opacity:1" d="M 430.477,523.866 435.665,533.205 z" id="boundary" inkscape:connector-curvature="0" />
	<path style="fill:none;stroke:red;stroke-width:1px;stroke-linecap:butt;stroke-linejoin:miter;stroke-opacity:1" d="M 430.477,741.774 439.816,746.962 z" id="boundary" inkscape:connector-curvature="0" />
	<path style="fill:none;stroke:red;stroke-width:1px;stroke-linecap:butt;stroke-linejoin:miter;stroke-opacity:1" d="M 432.552,285.205 442.929,289.356 z" id="boundary" inkscape:connector-curvature="0" />
	<path style="fill:none;stroke:red;stroke-width:1px;stroke-linecap:butt;stroke-linejoin:miter;stroke-opacity:1" d="M 435.665,402.46 443.967,409.724 z" id="boundary" inkscape:connector-curvature="0" />
	<path style="fill:none;stroke:red;stroke-width:1px;stroke-linecap:butt;stroke-linejoin:miter;stroke-opacity:1" d="M 435.665,484.435 445.004,489.623 z" id="boundary" inkscape:connector-curvature="0" />
	<path style="fill:none;stroke:red;stroke-width:1px;stroke-linecap:butt;stroke-linejoin:miter;stroke-opacity:1" d="M 435.665,533.205 435.665,543.582 z" id="boundary" inkscape:connector-curvature="0" />
	<path style="fill:none;stroke:red;stroke-width:1px;stroke-linecap:butt;stroke-linejoin:miter;stroke-opacity:1" d="M 435.665,543.582 443.967,549.808 z" id="boundary" inkscape:connector-curvature="0" />
	<path style="fill:none;stroke:red;stroke-width:1px;stroke-linecap:butt;stroke-linejoin:miter;stroke-opacity:1" d="M 436.703,247.849 447.079,247.849 z" id="boundary" inkscape:connector-curvature="0" />
	<path style="fill:none;stroke:red;stroke-width:1px;stroke-linecap:butt;stroke-linejoin:miter;stroke-opacity:1" d="M 439.816,746.962 450.192,746.962 z" id="boundary" inkscape:connector-curvature="0" />
	<path style="fill:none;stroke:red;stroke-width:1px;stroke-linecap:butt;stroke-linejoin:miter;stroke-opacity:1" d="M 442.929,289.356 453.305,290.393 z" id="boundary" inkscape:connector-curvature="0" />
	<path style="fill:none;stroke:red;stroke-width:1px;stroke-linecap:butt;stroke-linejoin:miter;stroke-opacity:1" d="M 443.967,409.724 451.23,418.025 z" id="boundary" inkscape:connector-curvature="0" />
	<path style="fill:none;stroke:red;stroke-width:1px;stroke-linecap:butt;stroke-linejoin:miter;stroke-opacity:1" d="M 443.967,549.808 446.042,560.184 z" id="boundary" inkscape:connector-curvature="0" />
	<path style="fill:none;stroke:red;stroke-width:1px;stroke-linecap:butt;stroke-linejoin:miter;stroke-opacity:1" d="M 445.004,489.623 455.381,492.736 z" id="boundary" inkscape:connector-curvature="0" />
	<path style="fill:none;stroke:red;stroke-width:1px;stroke-linecap:butt;stroke-linejoin:miter;stroke-opacity:1" d="M 446.042,560.184 451.23,569.523 z" id="boundary" inkscape:connector-curvature="0" />
	<path style="fill:none;stroke:red;stroke-width:1px;stroke-linecap:butt;stroke-linejoin:miter;stroke-opacity:1" d="M 447.079,247.849 456.418,253.038 z" id="boundary" inkscape:connector-curvature="0" />
	<path style="fill:none;stroke:red;stroke-width:1px;stroke-linecap:butt;stroke-linejoin:miter;stroke-opacity:1" d="M 450.192,746.962 460.569,746.962 z" id="boundary" inkscape:connector-curvature="0" />
	<path style="fill:none;stroke:red;stroke-width:1px;stroke-linecap:butt;stroke-linejoin:miter;stroke-opacity:1" d="M 451.23,418.025 456.418,427.364 z" id="boundary" inkscape:connector-curvature="0" />
	<path style="fill:none;stroke:red;stroke-width:1px;stroke-linecap:butt;stroke-linejoin:miter;stroke-opacity:1" d="M 451.23,569.523 456.418,578.862 z" id="boundary" inkscape:connector-curvature="0" />
	<path style="fill:none;stroke:red;stroke-width:1px;stroke-linecap:butt;stroke-linejoin:miter;stroke-opacity:1" d="M 453.305,290.393 463.682,290.393 z" id="boundary" inkscape:connector-curvature="0" />
	<path style="fill:none;stroke:red;stroke-width:1px;stroke-linecap:butt;stroke-linejoin:miter;stroke-opacity:1" d="M 455.381,492.736 465.757,492.736 z" id="boundary" inkscape:connector-curvature="0" />
	<path style="fill:none;stroke:red;stroke-width:1px;stroke-linecap:butt;stroke-linejoin:miter;stroke-opacity:1" d="M 456.418,253.038 465.757,258.226 z" id="boundary" inkscape:connector-curvature="0" />
	<path style="fill:none;stroke:red;stroke-width:1px;stroke-linecap:butt;stroke-linejoin:miter;stroke-opacity:1" d="M 456.418,427.364 463.682,435.665 z" id="boundary" inkscape:connector-curvature="0" />
	<path style="fill:none;stroke:red;stroke-width:1px;stroke-linecap:butt;stroke-linejoin:miter;stroke-opacity:1" d="M 456.418,578.862 461.607,588.201 z" id="boundary" inkscape:connector-curvature="0" />
	<path style="fill:none;stroke:red;stroke-width:1px;stroke-linecap:butt;stroke-linejoin:miter;stroke-opacity:1" d="M 460.569,746.962 470.946,746.962 z" id="boundary" inkscape:connector-curvature="0" />
	<path style="fill:none;stroke:red;stroke-width:1px;stroke-linecap:butt;stroke-linejoin:miter;stroke-opacity:1" d="M 461.607,588.201 465.757,598.577 z" id="boundary" inkscape:connector-curvature="0" />
	<path style="fill:none;stroke:red;stroke-width:1px;stroke-linecap:butt;stroke-linejoin:miter;stroke-opacity:1" d="M 463.682,290.393 474.059,290.393 z" id="boundary" inkscape:connector-curvature="0" />
	<path style="fill:none;stroke:red;stroke-width:1px;stroke-linecap:butt;stroke-linejoin:miter;stroke-opacity:1" d="M 463.682,435.665 471.983,442.929 z" id="boundary" inkscape:connector-curvature="0" />
	<path style="fill:none;stroke:red;stroke-width:1px;stroke-linecap:butt;stroke-linejoin:miter;stroke-opacity:1" d="M 465.757,258.226 476.134,260.301 z" id="boundary" inkscape:connector-curvature="0" />
	<path style="fill:none;stroke:red;stroke-width:1px;stroke-linecap:butt;stroke-linejoin:miter;stroke-opacity:1" d="M 465.757,492.736 475.096,497.925 z" id="boundary" inkscape:connector-curvature="0" />
	<path style="fill:none;stroke:red;stroke-width:1px;stroke-linecap:butt;stroke-linejoin:miter;stroke-opacity:1" d="M 465.757,598.577 471.983,606.879 z" id="boundary" inkscape:connector-curvature="0" />
	<path style="fill:none;stroke:red;stroke-width:1px;stroke-linecap:butt;stroke-linejoin:miter;stroke-opacity:1" d="M 470.946,746.962 481.322,746.962 z" id="boundary" inkscape:connector-curvature="0" />
	<path style="fill:none;stroke:red;stroke-width:1px;stroke-linecap:butt;stroke-linejoin:miter;stroke-opacity:1" d="M 471.983,442.929 479.247,451.23 z" id="boundary" inkscape:connector-curvature="0" />
	<path style="fill:none;stroke:red;stroke-width:1px;stroke-linecap:butt;stroke-linejoin:miter;stroke-opacity:1" d="M 471.983,606.879 471.983,617.255 z" id="boundary" inkscape:connector-curvature="0" />
	<path style="fill:none;stroke:red;stroke-width:1px;stroke-linecap:butt;stroke-linejoin:miter;stroke-opacity:1" d="M 471.983,617.255 480.285,623.481 z" id="boundary" inkscape:connector-curvature="0" />
	<path style="fill:none;stroke:red;stroke-width:1px;stroke-linecap:butt;stroke-linejoin:miter;stroke-opacity:1" d="M 474.059,290.393 483.397,285.205 z" id="boundary" inkscape:connector-curvature="0" />
	<path style="fill:none;stroke:red;stroke-width:1px;stroke-linecap:butt;stroke-linejoin:miter;stroke-opacity:1" d="M 475.096,497.925 484.435,503.113 z" id="boundary" inkscape:connector-curvature="0" />
	<path style="fill:none;stroke:red;stroke-width:1px;stroke-linecap:butt;stroke-linejoin:miter;stroke-opacity:1" d="M 476.134,260.301 482.36,268.603 z" id="boundary" inkscape:connector-curvature="0" />
	<path style="fill:none;stroke:red;stroke-width:1px;stroke-linecap:butt;stroke-linejoin:miter;stroke-opacity:1" d="M 479.247,451.23 487.548,458.494 z" id="boundary" inkscape:connector-curvature="0" />
	<path style="fill:none;stroke:red;stroke-width:1px;stroke-linecap:butt;stroke-linejoin:miter;stroke-opacity:1" d="M 480.285,623.481 487.548,631.782 z" id="boundary" inkscape:connector-curvature="0" />
	<path style="fill:none;stroke:red;stroke-width:1px;stroke-linecap:butt;stroke-linejoin:miter;stroke-opacity:1" d="M 481.322,746.962 491.699,746.962 z" id="boundary" inkscape:connector-curvature="0" />
	<path style="fill:none;stroke:red;stroke-width:1px;stroke-linecap:butt;stroke-linejoin:miter;stroke-opacity:1" d="M 482.36,268.603 483.397,285.205 z" id="boundary" inkscape:connector-curvature="0" />
	<path style="fill:none;stroke:red;stroke-width:1px;stroke-linecap:butt;stroke-linejoin:miter;stroke-opacity:1" d="M 484.435,503.113 494.812,507.264 z" id="boundary" inkscape:connector-curvature="0" />
	<path style="fill:none;stroke:red;stroke-width:1px;stroke-linecap:butt;stroke-linejoin:miter;stroke-opacity:1" d="M 487.548,458.494 496.887,463.682 z" id="boundary" inkscape:connector-curvature="0" />
	<path style="fill:none;stroke:red;stroke-width:1px;stroke-linecap:butt;stroke-linejoin:miter;stroke-opacity:1" d="M 487.548,631.782 487.548,642.159 z" id="boundary" inkscape:connector-curvature="0" />
	<path style="fill:none;stroke:red;stroke-width:1px;stroke-linecap:butt;stroke-linejoin:miter;stroke-opacity:1" d="M 487.548,642.159 495.849,648.385 z" id="boundary" inkscape:connector-curvature="0" />
	<path style="fill:none;stroke:red;stroke-width:1px;stroke-linecap:butt;stroke-linejoin:miter;stroke-opacity:1" d="M 491.699,746.962 502.075,746.962 z" id="boundary" inkscape:connector-curvature="0" />
	<path style="fill:none;stroke:red;stroke-width:1px;stroke-linecap:butt;stroke-linejoin:miter;stroke-opacity:1" d="M 494.812,507.264 505.188,508.301 z" id="boundary" inkscape:connector-curvature="0" />
	<path style="fill:none;stroke:red;stroke-width:1px;stroke-linecap:butt;stroke-linejoin:miter;stroke-opacity:1" d="M 495.849,648.385 503.113,656.686 z" id="boundary" inkscape:connector-curvature="0" />
	<path style="fill:none;stroke:red;stroke-width:1px;stroke-linecap:butt;stroke-linejoin:miter;stroke-opacity:1" d="M 496.887,463.682 507.264,465.757 z" id="boundary" inkscape:connector-curvature="0" />
	<path style="fill:none;stroke:red;stroke-width:1px;stroke-linecap:butt;stroke-linejoin:miter;stroke-opacity:1" d="M 502.075,746.962 512.452,746.962 z" id="boundary" inkscape:connector-curvature="0" />
	<path style="fill:none;stroke:red;stroke-width:1px;stroke-linecap:butt;stroke-linejoin:miter;stroke-opacity:1" d="M 503.113,656.686 513.49,657.724 z" id="boundary" inkscape:connector-curvature="0" />
	<path style="fill:none;stroke:red;stroke-width:1px;stroke-linecap:butt;stroke-linejoin:miter;stroke-opacity:1" d="M 505.188,508.301 515.565,508.301 z" id="boundary" inkscape:connector-curvature="0" />
	<path style="fill:none;stroke:red;stroke-width:1px;stroke-linecap:butt;stroke-linejoin:miter;stroke-opacity:1" d="M 507.264,465.757 516.603,470.946 z" id="boundary" inkscape:connector-curvature="0" />
	<path style="fill:none;stroke:red;stroke-width:1px;stroke-linecap:butt;stroke-linejoin:miter;stroke-opacity:1" d="M 512.452,746.962 522.828,743.849 z" id="boundary" inkscape:connector-curvature="0" />
	<path style="fill:none;stroke:red;stroke-width:1px;stroke-linecap:butt;stroke-linejoin:miter;stroke-opacity:1" d="M 513.49,657.724 521.791,663.95 z" id="boundary" inkscape:connector-curvature="0" />
	<path style="fill:none;stroke:red;stroke-width:1px;stroke-linecap:butt;stroke-linejoin:miter;stroke-opacity:1" d="M 515.565,508.301 525.941,508.301 z" id="boundary" inkscape:connector-curvature="0" />
	<path style="fill:none;stroke:red;stroke-width:1px;stroke-linecap:butt;stroke-linejoin:miter;stroke-opacity:1" d="M 516.603,470.946 526.979,471.983 z" id="boundary" inkscape:connector-curvature="0" />
	<path style="fill:none;stroke:red;stroke-width:1px;stroke-linecap:butt;stroke-linejoin:miter;stroke-opacity:1" d="M 521.791,663.95 531.13,669.138 z" id="boundary" inkscape:connector-curvature="0" />
	<path style="fill:none;stroke:red;stroke-width:1px;stroke-linecap:butt;stroke-linejoin:miter;stroke-opacity:1" d="M 522.828,743.849 533.205,741.774 z" id="boundary" inkscape:connector-curvature="0" />
	<path style="fill:none;stroke:red;stroke-width:1px;stroke-linecap:butt;stroke-linejoin:miter;stroke-opacity:1" d="M 525.941,508.301 536.318,507.264 z" id="boundary" inkscape:connector-curvature="0" />
	<path style="fill:none;stroke:red;stroke-width:1px;stroke-linecap:butt;stroke-linejoin:miter;stroke-opacity:1" d="M 526.979,471.983 536.318,477.172 z" id="boundary" inkscape:connector-curvature="0" />
	<path style="fill:none;stroke:red;stroke-width:1px;stroke-linecap:butt;stroke-linejoin:miter;stroke-opacity:1" d="M 531.13,669.138 541.506,673.289 z" id="boundary" inkscape:connector-curvature="0" />
	<path style="fill:none;stroke:red;stroke-width:1px;stroke-linecap:butt;stroke-linejoin:miter;stroke-opacity:1" d="M 533.205,741.774 543.582,741.774 z" id="boundary" inkscape:connector-curvature="0" />
	<path style="fill:none;stroke:red;stroke-width:1px;stroke-linecap:butt;stroke-linejoin:miter;stroke-opacity:1" d="M 536.318,477.172 544.619,484.435 z" id="boundary" inkscape:connector-curvature="0" />
	<path style="fill:none;stroke:red;stroke-width:1px;stroke-linecap:butt;stroke-linejoin:miter;stroke-opacity:1" d="M 536.318,507.264 544.619,494.812 z" id="boundary" inkscape:connector-curvature="0" />
	<path style="fill:none;stroke:red;stroke-width:1px;stroke-linecap:butt;stroke-linejoin:miter;stroke-opacity:1" d="M 541.506,673.289 550.845,678.477 z" id="boundary" inkscape:connector-curvature="0" />
	<path style="fill:none;stroke:red;stroke-width:1px;stroke-linecap:butt;stroke-linejoin:miter;stroke-opacity:1" d="M 543.582,741.774 552.921,736.586 z" id="boundary" inkscape:connector-curvature="0" />
	<path style="fill:none;stroke:red;stroke-width:1px;stroke-linecap:butt;stroke-linejoin:miter;stroke-opacity:1" d="M 544.619,484.435 544.619,494.812 z" id="boundary" inkscape:connector-curvature="0" />
	<path style="fill:none;stroke:red;stroke-width:1px;stroke-linecap:butt;stroke-linejoin:miter;stroke-opacity:1" d="M 550.845,678.477 560.184,683.665 z" id="boundary" inkscape:connector-curvature="0" />
	<path style="fill:none;stroke:red;stroke-width:1px;stroke-linecap:butt;stroke-linejoin:miter;stroke-opacity:1" d="M 552.921,736.586 563.297,736.586 z" id="boundary" inkscape:connector-curvature="0" />
	<path style="fill:none;stroke:red;stroke-width:1px;stroke-linecap:butt;stroke-linejoin:miter;stroke-opacity:1" d="M 560.184,683.665 570.561,683.665 z" id="boundary" inkscape:connector-curvature="0" />
	<path style="fill:none;stroke:red;stroke-width:1px;stroke-linecap:butt;stroke-linejoin:miter;stroke-opacity:1" d="M 563.297,736.586 573.674,736.586 z" id="boundary" inkscape:connector-curvature="0" />
	<path style="fill:none;stroke:red;stroke-width:1px;stroke-linecap:butt;stroke-linejoin:miter;stroke-opacity:1" d="M 570.561,683.665 580.937,683.665 z" id="boundary" inkscape:connector-curvature="0" />
	<path style="fill:none;stroke:red;stroke-width:1px;stroke-linecap:butt;stroke-linejoin:miter;stroke-opacity:1" d="M 573.674,736.586 583.013,731.397 z" id="boundary" inkscape:connector-curvature="0" />
	<path style="fill:none;stroke:red;stroke-width:1px;stroke-linecap:butt;stroke-linejoin:miter;stroke-opacity:1" d="M 580.937,683.665 591.314,683.665 z" id="boundary" inkscape:connector-curvature="0" />
	<path style="fill:none;stroke:red;stroke-width:1px;stroke-linecap:butt;stroke-linejoin:miter;stroke-opacity:1" d="M 583.013,731.397 592.351,726.209 z" id="boundary" inkscape:connector-curvature="0" />
	<path style="fill:none;stroke:red;stroke-width:1px;stroke-linecap:butt;stroke-linejoin:miter;stroke-opacity:1" d="M 591.314,683.665 601.69,686.778 z" id="boundary" inkscape:connector-curvature="0" />
	<path style="fill:none;stroke:red;stroke-width:1px;stroke-linecap:butt;stroke-linejoin:miter;stroke-opacity:1" d="M 592.351,726.209 602.728,726.209 z" id="boundary" inkscape:connector-curvature="0" />
	<path style="fill:none;stroke:red;stroke-width:1px;stroke-linecap:butt;stroke-linejoin:miter;stroke-opacity:1" d="M 601.69,686.778 611.029,691.967 z" id="boundary" inkscape:connector-curvature="0" />
	<path style="fill:none;stroke:red;stroke-width:1px;stroke-linecap:butt;stroke-linejoin:miter;stroke-opacity:1" d="M 602.728,726.209 612.067,721.021 z" id="boundary" inkscape:connector-curvature="0" />
	<path style="fill:none;stroke:red;stroke-width:1px;stroke-linecap:butt;stroke-linejoin:miter;stroke-opacity:1" d="M 611.029,691.967 621.406,696.117 z" id="boundary" inkscape:connector-curvature="0" />
	<path style="fill:none;stroke:red;stroke-width:1px;stroke-linecap:butt;stroke-linejoin:miter;stroke-opacity:1" d="M 612.067,721.021 622.444,715.833 z" id="boundary" inkscape:connector-curvature="0" />
	<path style="fill:none;stroke:red;stroke-width:1px;stroke-linecap:butt;stroke-linejoin:miter;stroke-opacity:1" d="M 621.406,696.117 627.632,704.418 z" id="boundary" inkscape:connector-curvature="0" />
	<path style="fill:none;stroke:red;stroke-width:1px;stroke-linecap:butt;stroke-linejoin:miter;stroke-opacity:1" d="M 622.444,715.833 627.632,704.418 z" id="boundary" inkscape:connector-curvature="0" />
	<circle cx="4" cy="707.531" r="4" fill="#0" id="circle0"/>
	<circle cx="4" cy="717.908" r="4" fill="#0" id="circle1"/>
	<circle cx="9.18828" cy="727.247" r="4" fill="#0" id="circle2"/>
	<circle cx="12.3013" cy="699.23" r="4" fill="#0" id="circle3"/>
	<circle cx="16.4519" cy="735.548" r="4" fill="#0" id="circle4"/>
	<circle cx="17.4895" cy="688.854" r="4" fill="#0" id="circle5"/>
	<circle cx="24.7531" cy="676.402" r="4" fill="#0" id="circle6"/>
	<circle cx="26.8285" cy="736.586" r="4" fill="#0" id="circle7"/>
	<circle cx="29.9414" cy="458.494" r="4" fill="#0" id="circle8"/>
	<circle cx="29.9414" cy="468.87" r="4" fill="#0" id="circle9"/>
	<circle cx="29.9414" cy="666.025" r="4" fill="#0" id="circle10"/>
	<circle cx="35.1297" cy="478.209" r="4" fill="#0" id="circle11"/>
	<circle cx="36.1674" cy="741.774" r="4" fill="#0" id="circle12"/>
	<circle cx="38.2427" cy="450.192" r="4" fill="#0" id="circle13"/>
	<circle cx="38.2427" cy="657.724" r="4" fill="#0" id="circle14"/>
	<circle cx="42.3933" cy="486.51" r="4" fill="#0" id="circle15"/>
	<circle cx="43.431" cy="439.816" r="4" fill="#0" id="circle16"/>
	<circle cx="45.5063" cy="645.272" r="4" fill="#0" id="circle17"/>
	<circle cx="46.5439" cy="741.774" r="4" fill="#0" id="circle18"/>
	<circle cx="51.7322" cy="431.515" r="4" fill="#0" id="circle19"/>
	<circle cx="52.7699" cy="487.548" r="4" fill="#0" id="circle20"/>
	<circle cx="53.8075" cy="636.971" r="4" fill="#0" id="circle21"/>
	<circle cx="56.9205" cy="741.774" r="4" fill="#0" id="circle22"/>
	<circle cx="60.0335" cy="424.251" r="4" fill="#0" id="circle23"/>
	<circle cx="62.1088" cy="628.669" r="4" fill="#0" id="circle24"/>
	<circle cx="63.1464" cy="487.548" r="4" fill="#0" id="circle25"/>
	<circle cx="67.2971" cy="415.95" r="4" fill="#0" id="circle26"/>
	<circle cx="67.2971" cy="741.774" r="4" fill="#0" id="circle27"/>
	<circle cx="70.41" cy="621.406" r="4" fill="#0" id="circle28"/>
	<circle cx="73.523" cy="487.548" r="4" fill="#0" id="circle29"/>
	<circle cx="75.5983" cy="408.686" r="4" fill="#0" id="circle30"/>
	<circle cx="77.6736" cy="613.105" r="4" fill="#0" id="circle31"/>
	<circle cx="77.6736" cy="741.774" r="4" fill="#0" id="circle32"/>
	<circle cx="79.749" cy="398.31" r="4" fill="#0" id="circle33"/>
	<circle cx="82.8619" cy="602.728" r="4" fill="#0" id="circle34"/>
	<circle cx="83.8996" cy="487.548" r="4" fill="#0" id="circle35"/>
	<circle cx="88.0502" cy="390.008" r="4" fill="#0" id="circle36"/>
	<circle cx="88.0502" cy="741.774" r="4" fill="#0" id="circle37"/>
	<circle cx="91.1632" cy="595.464" r="4" fill="#0" id="circle38"/>
	<circle cx="94.2762" cy="487.548" r="4" fill="#0" id="circle39"/>
	<circle cx="96.3515" cy="382.745" r="4" fill="#0" id="circle40"/>
	<circle cx="97.3891" cy="240.586" r="4" fill="#0" id="circle41"/>
	<circle cx="97.3891" cy="250.962" r="4" fill="#0" id="circle42"/>
	<circle cx="97.3891" cy="583.013" r="4" fill="#0" id="circle43"/>
	<circle cx="98.4268" cy="741.774" r="4" fill="#0" id="circle44"/>
	<circle cx="102.577" cy="260.301" r="4" fill="#0" id="circle45"/>
	<circle cx="102.577" cy="572.636" r="4" fill="#0" id="circle46"/>
	<circle cx="103.615" cy="374.444" r="4" fill="#0" id="circle47"/>
	<circle cx="104.653" cy="487.548" r="4" fill="#0" id="circle48"/>
	<circle cx="105.69" cy="232.285" r="4" fill="#0" id="circle49"/>
	<circle cx="108.803" cy="741.774" r="4" fill="#0" id="circle50"/>
	<circle cx="110.879" cy="564.335" r="4" fill="#0" id="circle51"/>
	<circle cx="111.916" cy="367.18" r="4" fill="#0" id="circle52"/>
	<circle cx="112.954" cy="264.452" r="4" fill="#0" id="circle53"/>
	<circle cx="115.029" cy="227.096" r="4" fill="#0" id="circle54"/>
	<circle cx="115.029" cy="487.548" r="4" fill="#0" id="circle55"/>
	<circle cx="116.067" cy="553.958" r="4" fill="#0" id="circle56"/>
	<circle cx="118.142" cy="736.586" r="4" fill="#0" id="circle57"/>
	<circle cx="119.18" cy="358.879" r="4" fill="#0" id="circle58"/>
	<circle cx="122.293" cy="269.64" r="4" fill="#0" id="circle59"/>
	<circle cx="123.331" cy="219.833" r="4" fill="#0" id="circle60"/>
	<circle cx="123.331" cy="541.506" r="4" fill="#0" id="circle61"/>
	<circle cx="125.406" cy="487.548" r="4" fill="#0" id="circle62"/>
	<circle cx="127.481" cy="351.615" r="4" fill="#0" id="circle63"/>
	<circle cx="128.519" cy="520.753" r="4" fill="#0" id="circle64"/>
	<circle cx="128.519" cy="531.13" r="4" fill="#0" id="circle65"/>
	<circle cx="128.519" cy="736.586" r="4" fill="#0" id="circle66"/>
	<circle cx="132.669" cy="269.64" r="4" fill="#0" id="circle67"/>
	<circle cx="133.707" cy="214.644" r="4" fill="#0" id="circle68"/>
	<circle cx="133.707" cy="479.247" r="4" fill="#0" id="circle69"/>
	<circle cx="134.745" cy="343.314" r="4" fill="#0" id="circle70"/>
	<circle cx="136.82" cy="512.452" r="4" fill="#0" id="circle71"/>
	<circle cx="138.895" cy="500" r="4" fill="#0" id="circle72"/>
	<circle cx="138.895" cy="736.586" r="4" fill="#0" id="circle73"/>
	<circle cx="142.008" cy="206.343" r="4" fill="#0" id="circle74"/>
	<circle cx="143.046" cy="269.64" r="4" fill="#0" id="circle75"/>
	<circle cx="143.046" cy="336.05" r="4" fill="#0" id="circle76"/>
	<circle cx="144.084" cy="477.172" r="4" fill="#0" id="circle77"/>
	<circle cx="144.084" cy="487.548" r="4" fill="#0" id="circle78"/>
	<circle cx="149.272" cy="736.586" r="4" fill="#0" id="circle79"/>
	<circle cx="150.31" cy="327.749" r="4" fill="#0" id="circle80"/>
	<circle cx="151.347" cy="201.155" r="4" fill="#0" id="circle81"/>
	<circle cx="153.423" cy="269.64" r="4" fill="#0" id="circle82"/>
	<circle cx="155.498" cy="317.372" r="4" fill="#0" id="circle83"/>
	<circle cx="156.536" cy="191.816" r="4" fill="#0" id="circle84"/>
	<circle cx="159.649" cy="736.586" r="4" fill="#0" id="circle85"/>
	<circle cx="163.799" cy="267.565" r="4" fill="#0" id="circle86"/>
	<circle cx="163.799" cy="310.109" r="4" fill="#0" id="circle87"/>
	<circle cx="164.837" cy="185.59" r="4" fill="#0" id="circle88"/>
	<circle cx="170.025" cy="292.469" r="4" fill="#0" id="circle89"/>
	<circle cx="170.025" cy="736.586" r="4" fill="#0" id="circle90"/>
	<circle cx="174.176" cy="180.402" r="4" fill="#0" id="circle91"/>
	<circle cx="174.176" cy="262.377" r="4" fill="#0" id="circle92"/>
	<circle cx="178.326" cy="284.167" r="4" fill="#0" id="circle93"/>
	<circle cx="180.402" cy="736.586" r="4" fill="#0" id="circle94"/>
	<circle cx="183.515" cy="175.213" r="4" fill="#0" id="circle95"/>
	<circle cx="183.515" cy="273.791" r="4" fill="#0" id="circle96"/>
	<circle cx="184.552" cy="259.264" r="4" fill="#0" id="circle97"/>
	<circle cx="189.741" cy="731.397" r="4" fill="#0" id="circle98"/>
	<circle cx="191.816" cy="166.912" r="4" fill="#0" id="circle99"/>
	<circle cx="199.079" cy="726.209" r="4" fill="#0" id="circle100"/>
	<circle cx="200.117" cy="159.649" r="4" fill="#0" id="circle101"/>
	<circle cx="207.381" cy="151.347" r="4" fill="#0" id="circle102"/>
	<circle cx="209.456" cy="725.172" r="4" fill="#0" id="circle103"/>
	<circle cx="212.569" cy="140.971" r="4" fill="#0" id="circle104"/>
	<circle cx="216.72" cy="733.473" r="4" fill="#0" id="circle105"/>
	<circle cx="216.72" cy="743.849" r="4" fill="#0" id="circle106"/>
	<circle cx="216.72" cy="754.226" r="4" fill="#0" id="circle107"/>
	<circle cx="216.72" cy="764.603" r="4" fill="#0" id="circle108"/>
	<circle cx="216.72" cy="774.979" r="4" fill="#0" id="circle109"/>
	<circle cx="216.72" cy="785.356" r="4" fill="#0" id="circle110"/>
	<circle cx="216.72" cy="795.732" r="4" fill="#0" id="circle111"/>
	<circle cx="216.72" cy="806.109" r="4" fill="#0" id="circle112"/>
	<circle cx="216.72" cy="816.485" r="4" fill="#0" id="circle113"/>
	<circle cx="216.72" cy="826.862" r="4" fill="#0" id="circle114"/>
	<circle cx="216.72" cy="837.238" r="4" fill="#0" id="circle115"/>
	<circle cx="216.72" cy="847.615" r="4" fill="#0" id="circle116"/>
	<circle cx="216.72" cy="857.992" r="4" fill="#0" id="circle117"/>
	<circle cx="216.72" cy="868.368" r="4" fill="#0" id="circle118"/>
	<circle cx="216.72" cy="878.745" r="4" fill="#0" id="circle119"/>
	<circle cx="216.72" cy="889.121" r="4" fill="#0" id="circle120"/>
	<circle cx="216.72" cy="899.498" r="4" fill="#0" id="circle121"/>
	<circle cx="216.72" cy="909.874" r="4" fill="#0" id="circle122"/>
	<circle cx="216.72" cy="920.251" r="4" fill="#0" id="circle123"/>
	<circle cx="216.72" cy="930.628" r="4" fill="#0" id="circle124"/>
	<circle cx="216.72" cy="941.004" r="4" fill="#0" id="circle125"/>
	<circle cx="216.72" cy="951.381" r="4" fill="#0" id="circle126"/>
	<circle cx="216.72" cy="961.757" r="4" fill="#0" id="circle127"/>
	<circle cx="216.72" cy="972.134" r="4" fill="#0" id="circle128"/>
	<circle cx="216.72" cy="982.51" r="4" fill="#0" id="circle129"/>
	<circle cx="220.87" cy="133.707" r="4" fill="#0" id="circle130"/>
	<circle cx="221.908" cy="991.849" r="4" fill="#0" id="circle131"/>
	<circle cx="228.134" cy="125.406" r="4" fill="#0" id="circle132"/>
	<circle cx="232.285" cy="996" r="4" fill="#0" id="circle133"/>
	<circle cx="236.435" cy="118.142" r="4" fill="#0" id="circle134"/>
	<circle cx="242.661" cy="105.69" r="4" fill="#0" id="circle135"/>
	<circle cx="242.661" cy="996" r="4" fill="#0" id="circle136"/>
	<circle cx="250.962" cy="97.3891" r="4" fill="#0" id="circle137"/>
	<circle cx="253.038" cy="996" r="4" fill="#0" id="circle138"/>
	<circle cx="259.264" cy="89.0879" r="4" fill="#0" id="circle139"/>
	<circle cx="263.414" cy="996" r="4" fill="#0" id="circle140"/>
	<circle cx="267.565" cy="81.8243" r="4" fill="#0" id="circle141"/>
	<circle cx="273.791" cy="996" r="4" fill="#0" id="circle142"/>
	<circle cx="274.828" cy="73.523" r="4" fill="#0" id="circle143"/>
	<circle cx="280.017" cy="63.1464" r="4" fill="#0" id="circle144"/>
	<circle cx="284.167" cy="996" r="4" fill="#0" id="circle145"/>
	<circle cx="288.318" cy="55.8828" r="4" fill="#0" id="circle146"/>
	<circle cx="289.356" cy="43.431" r="4" fill="#0" id="circle147"/>
	<circle cx="294.544" cy="12.3013" r="4" fill="#0" id="circle148"/>
	<circle cx="294.544" cy="22.6778" r="4" fill="#0" id="circle149"/>
	<circle cx="294.544" cy="33.0544" r="4" fill="#0" id="circle150"/>
	<circle cx="294.544" cy="996" r="4" fill="#0" id="circle151"/>
	<circle cx="302.845" cy="4" r="4" fill="#0" id="circle152"/>
	<circle cx="304.921" cy="996" r="4" fill="#0" id="circle153"/>
	<circle cx="313.222" cy="4" r="4" fill="#0" id="circle154"/>
	<circle cx="315.297" cy="996" r="4" fill="#0" id="circle155"/>
	<circle cx="320.485" cy="12.3013" r="4" fill="#0" id="circle156"/>
	<circle cx="321.523" cy="22.6778" r="4" fill="#0" id="circle157"/>
	<circle cx="321.523" cy="33.0544" r="4" fill="#0" id="circle158"/>
	<circle cx="325.674" cy="996" r="4" fill="#0" id="circle159"/>
	<circle cx="326.711" cy="42.3933" r="4" fill="#0" id="circle160"/>
	<circle cx="331.9" cy="51.7322" r="4" fill="#0" id="circle161"/>
	<circle cx="336.05" cy="996" r="4" fill="#0" id="circle162"/>
	<circle cx="337.088" cy="61.0711" r="4" fill="#0" id="circle163"/>
	<circle cx="342.276" cy="70.41" r="4" fill="#0" id="circle164"/>
	<circle cx="346.427" cy="996" r="4" fill="#0" id="circle165"/>
	<circle cx="347.464" cy="79.749" r="4" fill="#0" id="circle166"/>
	<circle cx="351.615" cy="90.1255" r="4" fill="#0" id="circle167"/>
	<circle cx="352.653" cy="100.502" r="4" fill="#0" id="circle168"/>
	<circle cx="352.653" cy="110.879" r="4" fill="#0" id="circle169"/>
	<circle cx="352.653" cy="121.255" r="4" fill="#0" id="circle170"/>
	<circle cx="356.803" cy="131.632" r="4" fill="#0" id="circle171"/>
	<circle cx="356.803" cy="996" r="4" fill="#0" id="circle172"/>
	<circle cx="357.841" cy="142.008" r="4" fill="#0" id="circle173"/>
	<circle cx="363.029" cy="151.347" r="4" fill="#0" id="circle174"/>
	<circle cx="363.029" cy="161.724" r="4" fill="#0" id="circle175"/>
	<circle cx="366.142" cy="172.1" r="4" fill="#0" id="circle176"/>
	<circle cx="367.18" cy="996" r="4" fill="#0" id="circle177"/>
	<circle cx="368.218" cy="259.264" r="4" fill="#0" id="circle178"/>
	<circle cx="371.331" cy="181.439" r="4" fill="#0" id="circle179"/>
	<circle cx="373.406" cy="268.603" r="4" fill="#0" id="circle180"/>
	<circle cx="373.406" cy="278.979" r="4" fill="#0" id="circle181"/>
	<circle cx="375.481" cy="191.816" r="4" fill="#0" id="circle182"/>
	<circle cx="377.556" cy="996" r="4" fill="#0" id="circle183"/>
	<circle cx="378.594" cy="288.318" r="4" fill="#0" id="circle184"/>
	<circle cx="383.782" cy="199.079" r="4" fill="#0" id="circle185"/>
	<circle cx="383.782" cy="266.527" r="4" fill="#0" id="circle186"/>
	<circle cx="383.782" cy="297.657" r="4" fill="#0" id="circle187"/>
	<circle cx="387.933" cy="209.456" r="4" fill="#0" id="circle188"/>
	<circle cx="387.933" cy="996" r="4" fill="#0" id="circle189"/>
	<circle cx="388.971" cy="306.996" r="4" fill="#0" id="circle190"/>
	<circle cx="388.971" cy="741.774" r="4" fill="#0" id="circle191"/>
	<circle cx="388.971" cy="752.151" r="4" fill="#0" id="circle192"/>
	<circle cx="388.971" cy="762.527" r="4" fill="#0" id="circle193"/>
	<circle cx="388.971" cy="772.904" r="4" fill="#0" id="circle194"/>
	<circle cx="393.121" cy="218.795" r="4" fill="#0" id="circle195"/>
	<circle cx="393.121" cy="271.715" r="4" fill="#0" id="circle196"/>
	<circle cx="394.159" cy="316.335" r="4" fill="#0" id="circle197"/>
	<circle cx="394.159" cy="326.711" r="4" fill="#0" id="circle198"/>
	<circle cx="394.159" cy="782.243" r="4" fill="#0" id="circle199"/>
	<circle cx="394.159" cy="792.619" r="4" fill="#0" id="circle200"/>
	<circle cx="398.31" cy="996" r="4" fill="#0" id="circle201"/>
	<circle cx="399.347" cy="227.096" r="4" fill="#0" id="circle202"/>
	<circle cx="399.347" cy="336.05" r="4" fill="#0" id="circle203"/>
	<circle cx="399.347" cy="741.774" r="4" fill="#0" id="circle204"/>
	<circle cx="399.347" cy="801.958" r="4" fill="#0" id="circle205"/>
	<circle cx="399.347" cy="812.335" r="4" fill="#0" id="circle206"/>
	<circle cx="399.347" cy="822.711" r="4" fill="#0" id="circle207"/>
	<circle cx="399.347" cy="833.088" r="4" fill="#0" id="circle208"/>
	<circle cx="399.347" cy="843.464" r="4" fill="#0" id="circle209"/>
	<circle cx="399.347" cy="853.841" r="4" fill="#0" id="circle210"/>
	<circle cx="399.347" cy="864.218" r="4" fill="#0" id="circle211"/>
	<circle cx="399.347" cy="874.594" r="4" fill="#0" id="circle212"/>
	<circle cx="399.347" cy="884.971" r="4" fill="#0" id="circle213"/>
	<circle cx="399.347" cy="895.347" r="4" fill="#0" id="circle214"/>
	<circle cx="399.347" cy="905.724" r="4" fill="#0" id="circle215"/>
	<circle cx="399.347" cy="916.1" r="4" fill="#0" id="circle216"/>
	<circle cx="399.347" cy="926.477" r="4" fill="#0" id="circle217"/>
	<circle cx="399.347" cy="936.854" r="4" fill="#0" id="circle218"/>
	<circle cx="399.347" cy="947.23" r="4" fill="#0" id="circle219"/>
	<circle cx="403.498" cy="274.828" r="4" fill="#0" id="circle220"/>
	<circle cx="404.536" cy="345.389" r="4" fill="#0" id="circle221"/>
	<circle cx="404.536" cy="956.569" r="4" fill="#0" id="circle222"/>
	<circle cx="406.611" cy="989.774" r="4" fill="#0" id="circle223"/>
	<circle cx="407.649" cy="233.322" r="4" fill="#0" id="circle224"/>
	<circle cx="408.686" cy="966.946" r="4" fill="#0" id="circle225"/>
	<circle cx="409.724" cy="354.728" r="4" fill="#0" id="circle226"/>
	<circle cx="409.724" cy="741.774" r="4" fill="#0" id="circle227"/>
	<circle cx="412.837" cy="280.017" r="4" fill="#0" id="circle228"/>
	<circle cx="413.874" cy="365.105" r="4" fill="#0" id="circle229"/>
	<circle cx="414.912" cy="975.247" r="4" fill="#0" id="circle230"/>
	<circle cx="416.987" cy="238.51" r="4" fill="#0" id="circle231"/>
	<circle cx="419.063" cy="374.444" r="4" fill="#0" id="circle232"/>
	<circle cx="420.1" cy="741.774" r="4" fill="#0" id="circle233"/>
	<circle cx="422.176" cy="285.205" r="4" fill="#0" id="circle234"/>
	<circle cx="423.213" cy="384.82" r="4" fill="#0" id="circle235"/>
	<circle cx="425.289" cy="482.36" r="4" fill="#0" id="circle236"/>
	<circle cx="425.289" cy="492.736" r="4" fill="#0" id="circle237"/>
	<circle cx="427.364" cy="242.661" r="4" fill="#0" id="circle238"/>
	<circle cx="427.364" cy="503.113" r="4" fill="#0" id="circle239"/>
	<circle cx="430.477" cy="393.121" r="4" fill="#0" id="circle240"/>
	<circle cx="430.477" cy="513.49" r="4" fill="#0" id="circle241"/>
	<circle cx="430.477" cy="523.866" r="4" fill="#0" id="circle242"/>
	<circle cx="430.477" cy="741.774" r="4" fill="#0" id="circle243"/>
	<circle cx="432.552" cy="285.205" r="4" fill="#0" id="circle244"/>
	<circle cx="435.665" cy="402.46" r="4" fill="#0" id="circle245"/>
	<circle cx="435.665" cy="484.435" r="4" fill="#0" id="circle246"/>
	<circle cx="435.665" cy="533.205" r="4" fill="#0" id="circle247"/>
	<circle cx="435.665" cy="543.582" r="4" fill="#0" id="circle248"/>
	<circle cx="436.703" cy="247.849" r="4" fill="#0" id="circle249"/>
	<circle cx="439.816" cy="746.962" r="4" fill="#0" id="circle250"/>
	<circle cx="442.929" cy="289.356" r="4" fill="#0" id="circle251"/>
	<circle cx="443.967" cy="409.724" r="4" fill="#0" id="circle252"/>
	<circle cx="443.967" cy="549.808" r="4" fill="#0" id="circle253"/>
	<circle cx="445.004" cy="489.623" r="4" fill="#0" id="circle254"/>
	<circle cx="446.042" cy="456.418" r="4" fill="#0" id="circle255"/>
	<circle cx="446.042" cy="560.184" r="4" fill="#0" id="circle256"/>
	<circle cx="447.079" cy="247.849" r="4" fill="#0" id="circle257"/>
	<circle cx="450.192" cy="746.962" r="4" fill="#0" id="circle258"/>
	<circle cx="451.23" cy="418.025" r="4" fill="#0" id="circle259"/>
	<circle cx="451.23" cy="569.523" r="4" fill="#0" id="circle260"/>
	<circle cx="453.305" cy="290.393" r="4" fill="#0" id="circle261"/>
	<circle cx="455.381" cy="492.736" r="4" fill="#0" id="circle262"/>
	<circle cx="456.418" cy="253.038" r="4" fill="#0" id="circle263"/>
	<circle cx="456.418" cy="427.364" r="4" fill="#0" id="circle264"/>
	<circle cx="456.418" cy="578.862" r="4" fill="#0" id="circle265"/>
	<circle cx="460.569" cy="746.962" r="4" fill="#0" id="circle266"/>
	<circle cx="461.607" cy="588.201" r="4" fill="#0" id="circle267"/>
	<circle cx="463.682" cy="290.393" r="4" fill="#0" id="circle268"/>
	<circle cx="463.682" cy="435.665" r="4" fill="#0" id="circle269"/>
	<circle cx="465.757" cy="258.226" r="4" fill="#0" id="circle270"/>
	<circle cx="465.757" cy="492.736" r="4" fill="#0" id="circle271"/>
	<circle cx="465.757" cy="598.577" r="4" fill="#0" id="circle272"/>
	<circle cx="470.946" cy="746.962" r="4" fill="#0" id="circle273"/>
	<circle cx="471.983" cy="442.929" r="4" fill="#0" id="circle274"/>
	<circle cx="471.983" cy="606.879" r="4" fill="#0" id="circle275"/>
	<circle cx="471.983" cy="617.255" r="4" fill="#0" id="circle276"/>
	<circle cx="474.059" cy="290.393" r="4" fill="#0" id="circle277"/>
	<circle cx="475.096" cy="497.925" r="4" fill="#0" id="circle278"/>
	<circle cx="476.134" cy="260.301" r="4" fill="#0" id="circle279"/>
	<circle cx="479.247" cy="451.23" r="4" fill="#0" id="circle280"/>
	<circle cx="480.285" cy="623.481" r="4" fill="#0" id="circle281"/>
	<circle cx="481.322" cy="746.962" r="4" fill="#0" id="circle282"/>
	<circle cx="482.36" cy="268.603" r="4" fill="#0" id="circle283"/>
	<circle cx="483.397" cy="285.205" r="4" fill="#0" id="circle284"/>
	<circle cx="484.435" cy="503.113" r="4" fill="#0" id="circle285"/>
	<circle cx="487.548" cy="458.494" r="4" fill="#0" id="circle286"/>
	<circle cx="487.548" cy="631.782" r="4" fill="#0" id="circle287"/>
	<circle cx="487.548" cy="642.159" r="4" fill="#0" id="circle288"/>
	<circle cx="491.699" cy="746.962" r="4" fill="#0" id="circle289"/>
	<circle cx="494.812" cy="507.264" r="4" fill="#0" id="circle290"/>
	<circle cx="495.849" cy="648.385" r="4" fill="#0" id="circle291"/>
	<circle cx="496.887" cy="463.682" r="4" fill="#0" id="circle292"/>
	<circle cx="502.075" cy="746.962" r="4" fill="#0" id="circle293"/>
	<circle cx="503.113" cy="656.686" r="4" fill="#0" id="circle294"/>
	<circle cx="505.188" cy="508.301" r="4" fill="#0" id="circle295"/>
	<circle cx="507.264" cy="465.757" r="4" fill="#0" id="circle296"/>
	<circle cx="512.452" cy="746.962" r="4" fill="#0" id="circle297"/>
	<circle cx="513.49" cy="657.724" r="4" fill="#0" id="circle298"/>
	<circle cx="515.565" cy="508.301" r="4" fill="#0" id="circle299"/>
	<circle cx="516.603" cy="470.946" r="4" fill="#0" id="circle300"/>
	<circle cx="521.791" cy="663.95" r="4" fill="#0" id="circle301"/>
	<circle cx="522.828" cy="743.849" r="4" fill="#0" id="circle302"/>
	<circle cx="525.941" cy="508.301" r="4" fill="#0" id="circle303"/>
	<circle cx="526.979" cy="471.983" r="4" fill="#0" id="circle304"/>
	<circle cx="531.13" cy="669.138" r="4" fill="#0" id="circle305"/>
	<circle cx="533.205" cy="741.774" r="4" fill="#0" id="circle306"/>
	<circle cx="536.318" cy="477.172" r="4" fill="#0" id="circle307"/>
	<circle cx="536.318" cy="507.264" r="4" fill="#0" id="circle308"/>
	<circle cx="541.506" cy="673.289" r="4" fill="#0" id="circle309"/>
	<circle cx="543.582" cy="741.774" r="4" fill="#0" id="circle310"/>
	<circle cx="544.619" cy="484.435" r="4" fill="#0" id="circle311"/>
	<circle cx="544.619" cy="494.812" r="4" fill="#0" id="circle312"/>
	<circle cx="550.845" cy="678.477" r="4" fill="#0" id="circle313"/>
	<circle cx="552.921" cy="736.586" r="4" fill="#0" id="circle314"/>
	<circle cx="560.184" cy="683.665" r="4" fill="#0" id="circle315"/>
	<circle cx="563.297" cy="736.586" r="4" fill="#0" id="circle316"/>
	<circle cx="570.561" cy="683.665" r="4" fill="#0" id="circle317"/>
	<circle cx="573.674" cy="736.586" r="4" fill="#0" id="circle318"/>
	<circle cx="580.937" cy="683.665" r="4" fill="#0" id="circle319"/>
	<circle cx="583.013" cy="731.397" r="4" fill="#0" id="circle320"/>
	<circle cx="591.314" cy="683.665" r="4" fill="#0" id="circle321"/>
	<circle cx="592.351" cy="726.209" r="4" fill="#0" id="circle322"/>
	<circle cx="601.69" cy="686.778" r="4" fill="#0" id="circle323"/>
	<circle cx="602.728" cy="726.209" r="4" fill="#0" id="circle324"/>
	<circle cx="611.029" cy="691.967" r="4" fill="#0" id="circle325"/>
	<circle cx="612.067" cy="721.021" r="4" fill="#0" id="circle326"/>
	<circle cx="621.406" cy="696.117" r="4" fill="#0" id="circle327"/>
	<circle cx="622.444" cy="715.833" r="4" fill="#0" id="circle328"/>
	<circle cx="627.632" cy="704.418" r="4" fill="#0" id="circle329"/>
	</g>
</svg>