<?xml version="1.0" encoding="UTF-8" standalone="no"?>
<!-- Created with CurveBenchmark -->
<svg
	xmlns:dc="http://purl.org/dc/elements/1.1/"
	xmlns:cc="http://creativecommons.org/ns#"
	xmlns:rdf="http://www.w3.org/1999/02/22-rdf-syntax-ns#"
	xmlns:svg="http://www.w3.org/2000/svg"
	xmlns="http://www.w3.org/2000/svg"
	xmlns:sodipodi="http://sodipodi.sourceforge.net/DTD/sodipodi-0.dtd"
	xmlns:inkscape="http://www.inkscape.org/namespaces/inkscape"
	width="1000"
	height="1000"
	id="svg2"
	version="1.1"
	sodipodi:docname="manifold/vicur-bird265.png.txt">
<defs
	id="defs4" />
<metadata
	id="metadata7">
	<rdf:RDF>
		<cc:Work
			rdf:about="">
			<dc:format>image/svg+xml</dc:format>
			<dc:type
				rdf:resource="http://purl.org/dc/dcmitype/StillImage" />
			<dc:title></dc:title>
		</cc:Work>
	</rdf:RDF>
</metadata>
<g
	inkscape:label="Layer 1"
	inkscape:groupmode="layer"
	id="layer1">
	<path style="fill:none;stroke:red;stroke-width:1px;stroke-linecap:butt;stroke-linejoin:miter;stroke-opacity:1" d="M 4,89.5843 4,128.486 z" id="boundary" inkscape:connector-curvature="0" />
	<path style="fill:none;stroke:red;stroke-width:1px;stroke-linecap:butt;stroke-linejoin:miter;stroke-opacity:1" d="M 4,89.5843 23.451,54.5725 z" id="boundary" inkscape:connector-curvature="0" />
	<path style="fill:none;stroke:red;stroke-width:1px;stroke-linecap:butt;stroke-linejoin:miter;stroke-opacity:1" d="M 4,128.486 4,167.388 z" id="boundary" inkscape:connector-curvature="0" />
	<path style="fill:none;stroke:red;stroke-width:1px;stroke-linecap:butt;stroke-linejoin:miter;stroke-opacity:1" d="M 4,167.388 4,206.29 z" id="boundary" inkscape:connector-curvature="0" />
	<path style="fill:none;stroke:red;stroke-width:1px;stroke-linecap:butt;stroke-linejoin:miter;stroke-opacity:1" d="M 4,206.29 11.7804,245.192 z" id="boundary" inkscape:connector-curvature="0" />
	<path style="fill:none;stroke:red;stroke-width:1px;stroke-linecap:butt;stroke-linejoin:miter;stroke-opacity:1" d="M 11.7804,245.192 19.5608,284.094 z" id="boundary" inkscape:connector-curvature="0" />
	<path style="fill:none;stroke:red;stroke-width:1px;stroke-linecap:butt;stroke-linejoin:miter;stroke-opacity:1" d="M 19.5608,284.094 35.1216,322.996 z" id="boundary" inkscape:connector-curvature="0" />
	<path style="fill:none;stroke:red;stroke-width:1px;stroke-linecap:butt;stroke-linejoin:miter;stroke-opacity:1" d="M 23.451,54.5725 54.5725,31.2314 z" id="boundary" inkscape:connector-curvature="0" />
	<path style="fill:none;stroke:red;stroke-width:1px;stroke-linecap:butt;stroke-linejoin:miter;stroke-opacity:1" d="M 27.3412,968.769 58.4627,992.11 z" id="boundary" inkscape:connector-curvature="0" />
	<path style="fill:none;stroke:red;stroke-width:1px;stroke-linecap:butt;stroke-linejoin:miter;stroke-opacity:1" d="M 27.3412,968.769 62.3529,949.318 z" id="boundary" inkscape:connector-curvature="0" />
	<path style="fill:none;stroke:red;stroke-width:1px;stroke-linecap:butt;stroke-linejoin:miter;stroke-opacity:1" d="M 35.1216,322.996 42.902,361.898 z" id="boundary" inkscape:connector-curvature="0" />
	<path style="fill:none;stroke:red;stroke-width:1px;stroke-linecap:butt;stroke-linejoin:miter;stroke-opacity:1" d="M 42.902,361.898 50.6824,400.8 z" id="boundary" inkscape:connector-curvature="0" />
	<path style="fill:none;stroke:red;stroke-width:1px;stroke-linecap:butt;stroke-linejoin:miter;stroke-opacity:1" d="M 50.6824,400.8 50.6824,439.702 z" id="boundary" inkscape:connector-curvature="0" />
	<path style="fill:none;stroke:red;stroke-width:1px;stroke-linecap:butt;stroke-linejoin:miter;stroke-opacity:1" d="M 50.6824,439.702 58.4627,478.604 z" id="boundary" inkscape:connector-curvature="0" />
	<path style="fill:none;stroke:red;stroke-width:1px;stroke-linecap:butt;stroke-linejoin:miter;stroke-opacity:1" d="M 54.5725,31.2314 89.5843,11.7804 z" id="boundary" inkscape:connector-curvature="0" />
	<path style="fill:none;stroke:red;stroke-width:1px;stroke-linecap:butt;stroke-linejoin:miter;stroke-opacity:1" d="M 58.4627,478.604 58.4627,517.506 z" id="boundary" inkscape:connector-curvature="0" />
	<path style="fill:none;stroke:red;stroke-width:1px;stroke-linecap:butt;stroke-linejoin:miter;stroke-opacity:1" d="M 58.4627,517.506 66.2431,556.408 z" id="boundary" inkscape:connector-curvature="0" />
	<path style="fill:none;stroke:red;stroke-width:1px;stroke-linecap:butt;stroke-linejoin:miter;stroke-opacity:1" d="M 58.4627,992.11 97.3647,996 z" id="boundary" inkscape:connector-curvature="0" />
	<path style="fill:none;stroke:red;stroke-width:1px;stroke-linecap:butt;stroke-linejoin:miter;stroke-opacity:1" d="M 62.3529,949.318 109.035,929.867 z" id="boundary" inkscape:connector-curvature="0" />
	<path style="fill:none;stroke:red;stroke-width:1px;stroke-linecap:butt;stroke-linejoin:miter;stroke-opacity:1" d="M 66.2431,556.408 66.2431,595.31 z" id="boundary" inkscape:connector-curvature="0" />
	<path style="fill:none;stroke:red;stroke-width:1px;stroke-linecap:butt;stroke-linejoin:miter;stroke-opacity:1" d="M 66.2431,595.31 74.0235,634.212 z" id="boundary" inkscape:connector-curvature="0" />
	<path style="fill:none;stroke:red;stroke-width:1px;stroke-linecap:butt;stroke-linejoin:miter;stroke-opacity:1" d="M 66.2431,844.282 66.2431,883.184 z" id="boundary" inkscape:connector-curvature="0" />
	<path style="fill:none;stroke:red;stroke-width:1px;stroke-linecap:butt;stroke-linejoin:miter;stroke-opacity:1" d="M 66.2431,844.282 74.0235,789.82 z" id="boundary" inkscape:connector-curvature="0" />
	<path style="fill:none;stroke:red;stroke-width:1px;stroke-linecap:butt;stroke-linejoin:miter;stroke-opacity:1" d="M 74.0235,634.212 74.0235,673.114 z" id="boundary" inkscape:connector-curvature="0" />
	<path style="fill:none;stroke:red;stroke-width:1px;stroke-linecap:butt;stroke-linejoin:miter;stroke-opacity:1" d="M 74.0235,673.114 74.0235,712.016 z" id="boundary" inkscape:connector-curvature="0" />
	<path style="fill:none;stroke:red;stroke-width:1px;stroke-linecap:butt;stroke-linejoin:miter;stroke-opacity:1" d="M 74.0235,712.016 74.0235,750.918 z" id="boundary" inkscape:connector-curvature="0" />
	<path style="fill:none;stroke:red;stroke-width:1px;stroke-linecap:butt;stroke-linejoin:miter;stroke-opacity:1" d="M 74.0235,750.918 74.0235,789.82 z" id="boundary" inkscape:connector-curvature="0" />
	<path style="fill:none;stroke:red;stroke-width:1px;stroke-linecap:butt;stroke-linejoin:miter;stroke-opacity:1" d="M 89.5843,11.7804 128.486,4 z" id="boundary" inkscape:connector-curvature="0" />
	<path style="fill:none;stroke:red;stroke-width:1px;stroke-linecap:butt;stroke-linejoin:miter;stroke-opacity:1" d="M 109.035,852.063 109.035,890.965 z" id="boundary" inkscape:connector-curvature="0" />
	<path style="fill:none;stroke:red;stroke-width:1px;stroke-linecap:butt;stroke-linejoin:miter;stroke-opacity:1" d="M 109.035,852.063 116.816,789.82 z" id="boundary" inkscape:connector-curvature="0" />
	<path style="fill:none;stroke:red;stroke-width:1px;stroke-linecap:butt;stroke-linejoin:miter;stroke-opacity:1" d="M 109.035,890.965 109.035,929.867 z" id="boundary" inkscape:connector-curvature="0" />
	<path style="fill:none;stroke:red;stroke-width:1px;stroke-linecap:butt;stroke-linejoin:miter;stroke-opacity:1" d="M 116.816,439.702 116.816,478.604 z" id="boundary" inkscape:connector-curvature="0" />
	<path style="fill:none;stroke:red;stroke-width:1px;stroke-linecap:butt;stroke-linejoin:miter;stroke-opacity:1" d="M 116.816,439.702 155.718,428.031 z" id="boundary" inkscape:connector-curvature="0" />
	<path style="fill:none;stroke:red;stroke-width:1px;stroke-linecap:butt;stroke-linejoin:miter;stroke-opacity:1" d="M 116.816,478.604 116.816,517.506 z" id="boundary" inkscape:connector-curvature="0" />
	<path style="fill:none;stroke:red;stroke-width:1px;stroke-linecap:butt;stroke-linejoin:miter;stroke-opacity:1" d="M 116.816,517.506 116.816,556.408 z" id="boundary" inkscape:connector-curvature="0" />
	<path style="fill:none;stroke:red;stroke-width:1px;stroke-linecap:butt;stroke-linejoin:miter;stroke-opacity:1" d="M 116.816,556.408 116.816,595.31 z" id="boundary" inkscape:connector-curvature="0" />
	<path style="fill:none;stroke:red;stroke-width:1px;stroke-linecap:butt;stroke-linejoin:miter;stroke-opacity:1" d="M 116.816,595.31 116.816,634.212 z" id="boundary" inkscape:connector-curvature="0" />
	<path style="fill:none;stroke:red;stroke-width:1px;stroke-linecap:butt;stroke-linejoin:miter;stroke-opacity:1" d="M 116.816,634.212 116.816,673.114 z" id="boundary" inkscape:connector-curvature="0" />
	<path style="fill:none;stroke:red;stroke-width:1px;stroke-linecap:butt;stroke-linejoin:miter;stroke-opacity:1" d="M 116.816,673.114 116.816,712.016 z" id="boundary" inkscape:connector-curvature="0" />
	<path style="fill:none;stroke:red;stroke-width:1px;stroke-linecap:butt;stroke-linejoin:miter;stroke-opacity:1" d="M 116.816,712.016 116.816,750.918 z" id="boundary" inkscape:connector-curvature="0" />
	<path style="fill:none;stroke:red;stroke-width:1px;stroke-linecap:butt;stroke-linejoin:miter;stroke-opacity:1" d="M 116.816,750.918 116.816,789.82 z" id="boundary" inkscape:connector-curvature="0" />
	<path style="fill:none;stroke:red;stroke-width:1px;stroke-linecap:butt;stroke-linejoin:miter;stroke-opacity:1" d="M 128.486,4 167.388,7.8902 z" id="boundary" inkscape:connector-curvature="0" />
	<path style="fill:none;stroke:red;stroke-width:1px;stroke-linecap:butt;stroke-linejoin:miter;stroke-opacity:1" d="M 155.718,428.031 167.388,466.933 z" id="boundary" inkscape:connector-curvature="0" />
	<path style="fill:none;stroke:red;stroke-width:1px;stroke-linecap:butt;stroke-linejoin:miter;stroke-opacity:1" d="M 159.608,960.988 167.388,914.306 z" id="boundary" inkscape:connector-curvature="0" />
	<path style="fill:none;stroke:red;stroke-width:1px;stroke-linecap:butt;stroke-linejoin:miter;stroke-opacity:1" d="M 159.608,960.988 179.059,996 z" id="boundary" inkscape:connector-curvature="0" />
	<path style="fill:none;stroke:red;stroke-width:1px;stroke-linecap:butt;stroke-linejoin:miter;stroke-opacity:1" d="M 167.388,7.8902 206.29,23.451 z" id="boundary" inkscape:connector-curvature="0" />
	<path style="fill:none;stroke:red;stroke-width:1px;stroke-linecap:butt;stroke-linejoin:miter;stroke-opacity:1" d="M 167.388,466.933 167.388,505.835 z" id="boundary" inkscape:connector-curvature="0" />
	<path style="fill:none;stroke:red;stroke-width:1px;stroke-linecap:butt;stroke-linejoin:miter;stroke-opacity:1" d="M 167.388,505.835 167.388,544.737 z" id="boundary" inkscape:connector-curvature="0" />
	<path style="fill:none;stroke:red;stroke-width:1px;stroke-linecap:butt;stroke-linejoin:miter;stroke-opacity:1" d="M 167.388,544.737 175.169,583.639 z" id="boundary" inkscape:connector-curvature="0" />
	<path style="fill:none;stroke:red;stroke-width:1px;stroke-linecap:butt;stroke-linejoin:miter;stroke-opacity:1" d="M 167.388,641.992 167.388,680.894 z" id="boundary" inkscape:connector-curvature="0" />
	<path style="fill:none;stroke:red;stroke-width:1px;stroke-linecap:butt;stroke-linejoin:miter;stroke-opacity:1" d="M 167.388,641.992 175.169,583.639 z" id="boundary" inkscape:connector-curvature="0" />
	<path style="fill:none;stroke:red;stroke-width:1px;stroke-linecap:butt;stroke-linejoin:miter;stroke-opacity:1" d="M 167.388,680.894 175.169,719.796 z" id="boundary" inkscape:connector-curvature="0" />
	<path style="fill:none;stroke:red;stroke-width:1px;stroke-linecap:butt;stroke-linejoin:miter;stroke-opacity:1" d="M 167.388,914.306 175.169,875.404 z" id="boundary" inkscape:connector-curvature="0" />
	<path style="fill:none;stroke:red;stroke-width:1px;stroke-linecap:butt;stroke-linejoin:miter;stroke-opacity:1" d="M 175.169,719.796 175.169,758.698 z" id="boundary" inkscape:connector-curvature="0" />
	<path style="fill:none;stroke:red;stroke-width:1px;stroke-linecap:butt;stroke-linejoin:miter;stroke-opacity:1" d="M 175.169,758.698 175.169,797.6 z" id="boundary" inkscape:connector-curvature="0" />
	<path style="fill:none;stroke:red;stroke-width:1px;stroke-linecap:butt;stroke-linejoin:miter;stroke-opacity:1" d="M 175.169,797.6 175.169,836.502 z" id="boundary" inkscape:connector-curvature="0" />
	<path style="fill:none;stroke:red;stroke-width:1px;stroke-linecap:butt;stroke-linejoin:miter;stroke-opacity:1" d="M 175.169,836.502 175.169,875.404 z" id="boundary" inkscape:connector-curvature="0" />
	<path style="fill:none;stroke:red;stroke-width:1px;stroke-linecap:butt;stroke-linejoin:miter;stroke-opacity:1" d="M 179.059,996 217.961,992.11 z" id="boundary" inkscape:connector-curvature="0" />
	<path style="fill:none;stroke:red;stroke-width:1px;stroke-linecap:butt;stroke-linejoin:miter;stroke-opacity:1" d="M 206.29,23.451 241.302,42.902 z" id="boundary" inkscape:connector-curvature="0" />
	<path style="fill:none;stroke:red;stroke-width:1px;stroke-linecap:butt;stroke-linejoin:miter;stroke-opacity:1" d="M 217.961,579.749 217.961,618.651 z" id="boundary" inkscape:connector-curvature="0" />
	<path style="fill:none;stroke:red;stroke-width:1px;stroke-linecap:butt;stroke-linejoin:miter;stroke-opacity:1" d="M 217.961,579.749 225.741,517.506 z" id="boundary" inkscape:connector-curvature="0" />
	<path style="fill:none;stroke:red;stroke-width:1px;stroke-linecap:butt;stroke-linejoin:miter;stroke-opacity:1" d="M 217.961,618.651 217.961,657.553 z" id="boundary" inkscape:connector-curvature="0" />
	<path style="fill:none;stroke:red;stroke-width:1px;stroke-linecap:butt;stroke-linejoin:miter;stroke-opacity:1" d="M 217.961,657.553 217.961,696.455 z" id="boundary" inkscape:connector-curvature="0" />
	<path style="fill:none;stroke:red;stroke-width:1px;stroke-linecap:butt;stroke-linejoin:miter;stroke-opacity:1" d="M 217.961,696.455 217.961,735.357 z" id="boundary" inkscape:connector-curvature="0" />
	<path style="fill:none;stroke:red;stroke-width:1px;stroke-linecap:butt;stroke-linejoin:miter;stroke-opacity:1" d="M 217.961,735.357 217.961,774.259 z" id="boundary" inkscape:connector-curvature="0" />
	<path style="fill:none;stroke:red;stroke-width:1px;stroke-linecap:butt;stroke-linejoin:miter;stroke-opacity:1" d="M 217.961,774.259 217.961,813.161 z" id="boundary" inkscape:connector-curvature="0" />
	<path style="fill:none;stroke:red;stroke-width:1px;stroke-linecap:butt;stroke-linejoin:miter;stroke-opacity:1" d="M 217.961,813.161 217.961,852.063 z" id="boundary" inkscape:connector-curvature="0" />
	<path style="fill:none;stroke:red;stroke-width:1px;stroke-linecap:butt;stroke-linejoin:miter;stroke-opacity:1" d="M 217.961,852.063 217.961,890.965 z" id="boundary" inkscape:connector-curvature="0" />
	<path style="fill:none;stroke:red;stroke-width:1px;stroke-linecap:butt;stroke-linejoin:miter;stroke-opacity:1" d="M 217.961,890.965 217.961,929.867 z" id="boundary" inkscape:connector-curvature="0" />
	<path style="fill:none;stroke:red;stroke-width:1px;stroke-linecap:butt;stroke-linejoin:miter;stroke-opacity:1" d="M 217.961,929.867 217.961,992.11 z" id="boundary" inkscape:connector-curvature="0" />
	<path style="fill:none;stroke:red;stroke-width:1px;stroke-linecap:butt;stroke-linejoin:miter;stroke-opacity:1" d="M 225.741,478.604 225.741,517.506 z" id="boundary" inkscape:connector-curvature="0" />
	<path style="fill:none;stroke:red;stroke-width:1px;stroke-linecap:butt;stroke-linejoin:miter;stroke-opacity:1" d="M 225.741,478.604 233.522,424.141 z" id="boundary" inkscape:connector-curvature="0" />
	<path style="fill:none;stroke:red;stroke-width:1px;stroke-linecap:butt;stroke-linejoin:miter;stroke-opacity:1" d="M 233.522,385.239 233.522,424.141 z" id="boundary" inkscape:connector-curvature="0" />
	<path style="fill:none;stroke:red;stroke-width:1px;stroke-linecap:butt;stroke-linejoin:miter;stroke-opacity:1" d="M 233.522,385.239 256.863,354.118 z" id="boundary" inkscape:connector-curvature="0" />
	<path style="fill:none;stroke:red;stroke-width:1px;stroke-linecap:butt;stroke-linejoin:miter;stroke-opacity:1" d="M 241.302,42.902 264.643,74.0235 z" id="boundary" inkscape:connector-curvature="0" />
	<path style="fill:none;stroke:red;stroke-width:1px;stroke-linecap:butt;stroke-linejoin:miter;stroke-opacity:1" d="M 256.863,354.118 272.424,307.435 z" id="boundary" inkscape:connector-curvature="0" />
	<path style="fill:none;stroke:red;stroke-width:1px;stroke-linecap:butt;stroke-linejoin:miter;stroke-opacity:1" d="M 264.643,74.0235 272.424,112.925 z" id="boundary" inkscape:connector-curvature="0" />
	<path style="fill:none;stroke:red;stroke-width:1px;stroke-linecap:butt;stroke-linejoin:miter;stroke-opacity:1" d="M 272.424,112.925 280.204,151.827 z" id="boundary" inkscape:connector-curvature="0" />
	<path style="fill:none;stroke:red;stroke-width:1px;stroke-linecap:butt;stroke-linejoin:miter;stroke-opacity:1" d="M 272.424,307.435 280.204,268.533 z" id="boundary" inkscape:connector-curvature="0" />
	<path style="fill:none;stroke:red;stroke-width:1px;stroke-linecap:butt;stroke-linejoin:miter;stroke-opacity:1" d="M 280.204,151.827 280.204,190.729 z" id="boundary" inkscape:connector-curvature="0" />
	<path style="fill:none;stroke:red;stroke-width:1px;stroke-linecap:butt;stroke-linejoin:miter;stroke-opacity:1" d="M 280.204,190.729 280.204,229.631 z" id="boundary" inkscape:connector-curvature="0" />
	<path style="fill:none;stroke:red;stroke-width:1px;stroke-linecap:butt;stroke-linejoin:miter;stroke-opacity:1" d="M 280.204,229.631 280.204,268.533 z" id="boundary" inkscape:connector-curvature="0" />
	<circle cx="4" cy="89.5843" r="4" fill="#0" id="circle0"/>
	<circle cx="4" cy="128.486" r="4" fill="#0" id="circle1"/>
	<circle cx="4" cy="167.388" r="4" fill="#0" id="circle2"/>
	<circle cx="4" cy="206.29" r="4" fill="#0" id="circle3"/>
	<circle cx="11.7804" cy="245.192" r="4" fill="#0" id="circle4"/>
	<circle cx="19.5608" cy="284.094" r="4" fill="#0" id="circle5"/>
	<circle cx="23.451" cy="54.5725" r="4" fill="#0" id="circle6"/>
	<circle cx="27.3412" cy="968.769" r="4" fill="#0" id="circle7"/>
	<circle cx="35.1216" cy="322.996" r="4" fill="#0" id="circle8"/>
	<circle cx="42.902" cy="361.898" r="4" fill="#0" id="circle9"/>
	<circle cx="50.6824" cy="400.8" r="4" fill="#0" id="circle10"/>
	<circle cx="50.6824" cy="439.702" r="4" fill="#0" id="circle11"/>
	<circle cx="54.5725" cy="31.2314" r="4" fill="#0" id="circle12"/>
	<circle cx="58.4627" cy="478.604" r="4" fill="#0" id="circle13"/>
	<circle cx="58.4627" cy="517.506" r="4" fill="#0" id="circle14"/>
	<circle cx="58.4627" cy="992.11" r="4" fill="#0" id="circle15"/>
	<circle cx="62.3529" cy="949.318" r="4" fill="#0" id="circle16"/>
	<circle cx="66.2431" cy="556.408" r="4" fill="#0" id="circle17"/>
	<circle cx="66.2431" cy="595.31" r="4" fill="#0" id="circle18"/>
	<circle cx="66.2431" cy="844.282" r="4" fill="#0" id="circle19"/>
	<circle cx="66.2431" cy="883.184" r="4" fill="#0" id="circle20"/>
	<circle cx="74.0235" cy="634.212" r="4" fill="#0" id="circle21"/>
	<circle cx="74.0235" cy="673.114" r="4" fill="#0" id="circle22"/>
	<circle cx="74.0235" cy="712.016" r="4" fill="#0" id="circle23"/>
	<circle cx="74.0235" cy="750.918" r="4" fill="#0" id="circle24"/>
	<circle cx="74.0235" cy="789.82" r="4" fill="#0" id="circle25"/>
	<circle cx="89.5843" cy="11.7804" r="4" fill="#0" id="circle26"/>
	<circle cx="97.3647" cy="996" r="4" fill="#0" id="circle27"/>
	<circle cx="109.035" cy="852.063" r="4" fill="#0" id="circle28"/>
	<circle cx="109.035" cy="890.965" r="4" fill="#0" id="circle29"/>
	<circle cx="109.035" cy="929.867" r="4" fill="#0" id="circle30"/>
	<circle cx="116.816" cy="439.702" r="4" fill="#0" id="circle31"/>
	<circle cx="116.816" cy="478.604" r="4" fill="#0" id="circle32"/>
	<circle cx="116.816" cy="517.506" r="4" fill="#0" id="circle33"/>
	<circle cx="116.816" cy="556.408" r="4" fill="#0" id="circle34"/>
	<circle cx="116.816" cy="595.31" r="4" fill="#0" id="circle35"/>
	<circle cx="116.816" cy="634.212" r="4" fill="#0" id="circle36"/>
	<circle cx="116.816" cy="673.114" r="4" fill="#0" id="circle37"/>
	<circle cx="116.816" cy="712.016" r="4" fill="#0" id="circle38"/>
	<circle cx="116.816" cy="750.918" r="4" fill="#0" id="circle39"/>
	<circle cx="116.816" cy="789.82" r="4" fill="#0" id="circle40"/>
	<circle cx="128.486" cy="4" r="4" fill="#0" id="circle41"/>
	<circle cx="155.718" cy="428.031" r="4" fill="#0" id="circle42"/>
	<circle cx="159.608" cy="960.988" r="4" fill="#0" id="circle43"/>
	<circle cx="167.388" cy="7.8902" r="4" fill="#0" id="circle44"/>
	<circle cx="167.388" cy="466.933" r="4" fill="#0" id="circle45"/>
	<circle cx="167.388" cy="505.835" r="4" fill="#0" id="circle46"/>
	<circle cx="167.388" cy="544.737" r="4" fill="#0" id="circle47"/>
	<circle cx="167.388" cy="641.992" r="4" fill="#0" id="circle48"/>
	<circle cx="167.388" cy="680.894" r="4" fill="#0" id="circle49"/>
	<circle cx="167.388" cy="914.306" r="4" fill="#0" id="circle50"/>
	<circle cx="175.169" cy="583.639" r="4" fill="#0" id="circle51"/>
	<circle cx="175.169" cy="719.796" r="4" fill="#0" id="circle52"/>
	<circle cx="175.169" cy="758.698" r="4" fill="#0" id="circle53"/>
	<circle cx="175.169" cy="797.6" r="4" fill="#0" id="circle54"/>
	<circle cx="175.169" cy="836.502" r="4" fill="#0" id="circle55"/>
	<circle cx="175.169" cy="875.404" r="4" fill="#0" id="circle56"/>
	<circle cx="179.059" cy="996" r="4" fill="#0" id="circle57"/>
	<circle cx="206.29" cy="23.451" r="4" fill="#0" id="circle58"/>
	<circle cx="217.961" cy="579.749" r="4" fill="#0" id="circle59"/>
	<circle cx="217.961" cy="618.651" r="4" fill="#0" id="circle60"/>
	<circle cx="217.961" cy="657.553" r="4" fill="#0" id="circle61"/>
	<circle cx="217.961" cy="696.455" r="4" fill="#0" id="circle62"/>
	<circle cx="217.961" cy="735.357" r="4" fill="#0" id="circle63"/>
	<circle cx="217.961" cy="774.259" r="4" fill="#0" id="circle64"/>
	<circle cx="217.961" cy="813.161" r="4" fill="#0" id="circle65"/>
	<circle cx="217.961" cy="852.063" r="4" fill="#0" id="circle66"/>
	<circle cx="217.961" cy="890.965" r="4" fill="#0" id="circle67"/>
	<circle cx="217.961" cy="929.867" r="4" fill="#0" id="circle68"/>
	<circle cx="217.961" cy="992.11" r="4" fill="#0" id="circle69"/>
	<circle cx="225.741" cy="478.604" r="4" fill="#0" id="circle70"/>
	<circle cx="225.741" cy="517.506" r="4" fill="#0" id="circle71"/>
	<circle cx="233.522" cy="385.239" r="4" fill="#0" id="circle72"/>
	<circle cx="233.522" cy="424.141" r="4" fill="#0" id="circle73"/>
	<circle cx="241.302" cy="42.902" r="4" fill="#0" id="circle74"/>
	<circle cx="256.863" cy="354.118" r="4" fill="#0" id="circle75"/>
	<circle cx="264.643" cy="74.0235" r="4" fill="#0" id="circle76"/>
	<circle cx="272.424" cy="112.925" r="4" fill="#0" id="circle77"/>
	<circle cx="272.424" cy="307.435" r="4" fill="#0" id="circle78"/>
	<circle cx="280.204" cy="151.827" r="4" fill="#0" id="circle79"/>
	<circle cx="280.204" cy="190.729" r="4" fill="#0" id="circle80"/>
	<circle cx="280.204" cy="229.631" r="4" fill="#0" id="circle81"/>
	<circle cx="280.204" cy="268.533" r="4" fill="#0" id="circle82"/>
	</g>
</svg>