<?xml version="1.0" encoding="UTF-8" standalone="no"?>
<!-- Created with CurveBenchmark -->
<svg
	xmlns:dc="http://purl.org/dc/elements/1.1/"
	xmlns:cc="http://creativecommons.org/ns#"
	xmlns:rdf="http://www.w3.org/1999/02/22-rdf-syntax-ns#"
	xmlns:svg="http://www.w3.org/2000/svg"
	xmlns="http://www.w3.org/2000/svg"
	xmlns:sodipodi="http://sodipodi.sourceforge.net/DTD/sodipodi-0.dtd"
	xmlns:inkscape="http://www.inkscape.org/namespaces/inkscape"
	width="1000"
	height="1000"
	id="svg2"
	version="1.1"
	sodipodi:docname="manifold/vicur-bird-17.png.txt">
<defs
	id="defs4" />
<metadata
	id="metadata7">
	<rdf:RDF>
		<cc:Work
			rdf:about="">
			<dc:format>image/svg+xml</dc:format>
			<dc:type
				rdf:resource="http://purl.org/dc/dcmitype/StillImage" />
			<dc:title></dc:title>
		</cc:Work>
	</rdf:RDF>
</metadata>
<g
	inkscape:label="Layer 1"
	inkscape:groupmode="layer"
	id="layer1">
	<path style="fill:none;stroke:red;stroke-width:1px;stroke-linecap:butt;stroke-linejoin:miter;stroke-opacity:1" d="M 4,101.975 4,109.63 z" id="boundary" inkscape:connector-curvature="0" />
	<path style="fill:none;stroke:red;stroke-width:1px;stroke-linecap:butt;stroke-linejoin:miter;stroke-opacity:1" d="M 4,109.63 8.59259,115.753 z" id="boundary" inkscape:connector-curvature="0" />
	<path style="fill:none;stroke:red;stroke-width:1px;stroke-linecap:butt;stroke-linejoin:miter;stroke-opacity:1" d="M 7.82716,94.321 13.9506,88.1975 z" id="boundary" inkscape:connector-curvature="0" />
	<path style="fill:none;stroke:red;stroke-width:1px;stroke-linecap:butt;stroke-linejoin:miter;stroke-opacity:1" d="M 8.59259,115.753 23.1358,119.58 z" id="boundary" inkscape:connector-curvature="0" />
	<path style="fill:none;stroke:red;stroke-width:1px;stroke-linecap:butt;stroke-linejoin:miter;stroke-opacity:1" d="M 13.9506,88.1975 20.8395,84.3704 z" id="boundary" inkscape:connector-curvature="0" />
	<path style="fill:none;stroke:red;stroke-width:1px;stroke-linecap:butt;stroke-linejoin:miter;stroke-opacity:1" d="M 20.8395,84.3704 24.6667,77.4815 z" id="boundary" inkscape:connector-curvature="0" />
	<path style="fill:none;stroke:red;stroke-width:1px;stroke-linecap:butt;stroke-linejoin:miter;stroke-opacity:1" d="M 23.1358,119.58 30.7901,119.58 z" id="boundary" inkscape:connector-curvature="0" />
	<path style="fill:none;stroke:red;stroke-width:1px;stroke-linecap:butt;stroke-linejoin:miter;stroke-opacity:1" d="M 24.6667,77.4815 38.4444,67.5309 z" id="boundary" inkscape:connector-curvature="0" />
	<path style="fill:none;stroke:red;stroke-width:1px;stroke-linecap:butt;stroke-linejoin:miter;stroke-opacity:1" d="M 30.7901,119.58 38.4444,119.58 z" id="boundary" inkscape:connector-curvature="0" />
	<path style="fill:none;stroke:red;stroke-width:1px;stroke-linecap:butt;stroke-linejoin:miter;stroke-opacity:1" d="M 38.4444,67.5309 46.0988,52.2222 z" id="boundary" inkscape:connector-curvature="0" />
	<path style="fill:none;stroke:red;stroke-width:1px;stroke-linecap:butt;stroke-linejoin:miter;stroke-opacity:1" d="M 38.4444,119.58 46.0988,119.58 z" id="boundary" inkscape:connector-curvature="0" />
	<path style="fill:none;stroke:red;stroke-width:1px;stroke-linecap:butt;stroke-linejoin:miter;stroke-opacity:1" d="M 46.0988,52.2222 49.9259,44.5679 z" id="boundary" inkscape:connector-curvature="0" />
	<path style="fill:none;stroke:red;stroke-width:1px;stroke-linecap:butt;stroke-linejoin:miter;stroke-opacity:1" d="M 46.0988,119.58 53.7531,119.58 z" id="boundary" inkscape:connector-curvature="0" />
	<path style="fill:none;stroke:red;stroke-width:1px;stroke-linecap:butt;stroke-linejoin:miter;stroke-opacity:1" d="M 49.9259,44.5679 56.0494,38.4444 z" id="boundary" inkscape:connector-curvature="0" />
	<path style="fill:none;stroke:red;stroke-width:1px;stroke-linecap:butt;stroke-linejoin:miter;stroke-opacity:1" d="M 53.7531,119.58 68.2963,123.407 z" id="boundary" inkscape:connector-curvature="0" />
	<path style="fill:none;stroke:red;stroke-width:1px;stroke-linecap:butt;stroke-linejoin:miter;stroke-opacity:1" d="M 56.0494,38.4444 69.8272,28.4938 z" id="boundary" inkscape:connector-curvature="0" />
	<path style="fill:none;stroke:red;stroke-width:1px;stroke-linecap:butt;stroke-linejoin:miter;stroke-opacity:1" d="M 68.2963,123.407 75.1852,119.58 z" id="boundary" inkscape:connector-curvature="0" />
	<path style="fill:none;stroke:red;stroke-width:1px;stroke-linecap:butt;stroke-linejoin:miter;stroke-opacity:1" d="M 69.8272,28.4938 77.4815,24.6667 z" id="boundary" inkscape:connector-curvature="0" />
	<path style="fill:none;stroke:red;stroke-width:1px;stroke-linecap:butt;stroke-linejoin:miter;stroke-opacity:1" d="M 75.1852,119.58 82.8395,122.642 z" id="boundary" inkscape:connector-curvature="0" />
	<path style="fill:none;stroke:red;stroke-width:1px;stroke-linecap:butt;stroke-linejoin:miter;stroke-opacity:1" d="M 77.4815,24.6667 90.4938,15.4815 z" id="boundary" inkscape:connector-curvature="0" />
	<path style="fill:none;stroke:red;stroke-width:1px;stroke-linecap:butt;stroke-linejoin:miter;stroke-opacity:1" d="M 80.5432,354.568 80.5432,362.222 z" id="boundary" inkscape:connector-curvature="0" />
	<path style="fill:none;stroke:red;stroke-width:1px;stroke-linecap:butt;stroke-linejoin:miter;stroke-opacity:1" d="M 80.5432,354.568 84.3704,346.914 z" id="boundary" inkscape:connector-curvature="0" />
	<path style="fill:none;stroke:red;stroke-width:1px;stroke-linecap:butt;stroke-linejoin:miter;stroke-opacity:1" d="M 80.5432,362.222 80.5432,369.877 z" id="boundary" inkscape:connector-curvature="0" />
	<path style="fill:none;stroke:red;stroke-width:1px;stroke-linecap:butt;stroke-linejoin:miter;stroke-opacity:1" d="M 80.5432,369.877 80.5432,377.531 z" id="boundary" inkscape:connector-curvature="0" />
	<path style="fill:none;stroke:red;stroke-width:1px;stroke-linecap:butt;stroke-linejoin:miter;stroke-opacity:1" d="M 80.5432,377.531 80.5432,385.185 z" id="boundary" inkscape:connector-curvature="0" />
	<path style="fill:none;stroke:red;stroke-width:1px;stroke-linecap:butt;stroke-linejoin:miter;stroke-opacity:1" d="M 80.5432,385.185 80.5432,392.84 z" id="boundary" inkscape:connector-curvature="0" />
	<path style="fill:none;stroke:red;stroke-width:1px;stroke-linecap:butt;stroke-linejoin:miter;stroke-opacity:1" d="M 80.5432,392.84 80.5432,400.494 z" id="boundary" inkscape:connector-curvature="0" />
	<path style="fill:none;stroke:red;stroke-width:1px;stroke-linecap:butt;stroke-linejoin:miter;stroke-opacity:1" d="M 80.5432,400.494 80.5432,408.148 z" id="boundary" inkscape:connector-curvature="0" />
	<path style="fill:none;stroke:red;stroke-width:1px;stroke-linecap:butt;stroke-linejoin:miter;stroke-opacity:1" d="M 80.5432,408.148 84.3704,422.691 z" id="boundary" inkscape:connector-curvature="0" />
	<path style="fill:none;stroke:red;stroke-width:1px;stroke-linecap:butt;stroke-linejoin:miter;stroke-opacity:1" d="M 82.8395,122.642 90.4938,123.407 z" id="boundary" inkscape:connector-curvature="0" />
	<path style="fill:none;stroke:red;stroke-width:1px;stroke-linecap:butt;stroke-linejoin:miter;stroke-opacity:1" d="M 84.3704,316.296 84.3704,323.951 z" id="boundary" inkscape:connector-curvature="0" />
	<path style="fill:none;stroke:red;stroke-width:1px;stroke-linecap:butt;stroke-linejoin:miter;stroke-opacity:1" d="M 84.3704,316.296 88.1975,304.815 z" id="boundary" inkscape:connector-curvature="0" />
	<path style="fill:none;stroke:red;stroke-width:1px;stroke-linecap:butt;stroke-linejoin:miter;stroke-opacity:1" d="M 84.3704,323.951 84.3704,331.605 z" id="boundary" inkscape:connector-curvature="0" />
	<path style="fill:none;stroke:red;stroke-width:1px;stroke-linecap:butt;stroke-linejoin:miter;stroke-opacity:1" d="M 84.3704,331.605 84.3704,339.259 z" id="boundary" inkscape:connector-curvature="0" />
	<path style="fill:none;stroke:red;stroke-width:1px;stroke-linecap:butt;stroke-linejoin:miter;stroke-opacity:1" d="M 84.3704,339.259 84.3704,346.914 z" id="boundary" inkscape:connector-curvature="0" />
	<path style="fill:none;stroke:red;stroke-width:1px;stroke-linecap:butt;stroke-linejoin:miter;stroke-opacity:1" d="M 84.3704,422.691 84.3704,430.346 z" id="boundary" inkscape:connector-curvature="0" />
	<path style="fill:none;stroke:red;stroke-width:1px;stroke-linecap:butt;stroke-linejoin:miter;stroke-opacity:1" d="M 84.3704,430.346 84.3704,438 z" id="boundary" inkscape:connector-curvature="0" />
	<path style="fill:none;stroke:red;stroke-width:1px;stroke-linecap:butt;stroke-linejoin:miter;stroke-opacity:1" d="M 84.3704,438 88.1975,452.543 z" id="boundary" inkscape:connector-curvature="0" />
	<path style="fill:none;stroke:red;stroke-width:1px;stroke-linecap:butt;stroke-linejoin:miter;stroke-opacity:1" d="M 88.1975,289.506 88.1975,297.16 z" id="boundary" inkscape:connector-curvature="0" />
	<path style="fill:none;stroke:red;stroke-width:1px;stroke-linecap:butt;stroke-linejoin:miter;stroke-opacity:1" d="M 88.1975,289.506 92.0247,281.852 z" id="boundary" inkscape:connector-curvature="0" />
	<path style="fill:none;stroke:red;stroke-width:1px;stroke-linecap:butt;stroke-linejoin:miter;stroke-opacity:1" d="M 88.1975,297.16 88.1975,304.815 z" id="boundary" inkscape:connector-curvature="0" />
	<path style="fill:none;stroke:red;stroke-width:1px;stroke-linecap:butt;stroke-linejoin:miter;stroke-opacity:1" d="M 88.1975,452.543 90.4938,460.198 z" id="boundary" inkscape:connector-curvature="0" />
	<path style="fill:none;stroke:red;stroke-width:1px;stroke-linecap:butt;stroke-linejoin:miter;stroke-opacity:1" d="M 90.4938,15.4815 105.037,8.59259 z" id="boundary" inkscape:connector-curvature="0" />
	<path style="fill:none;stroke:red;stroke-width:1px;stroke-linecap:butt;stroke-linejoin:miter;stroke-opacity:1" d="M 90.4938,123.407 96.6173,128.765 z" id="boundary" inkscape:connector-curvature="0" />
	<path style="fill:none;stroke:red;stroke-width:1px;stroke-linecap:butt;stroke-linejoin:miter;stroke-opacity:1" d="M 90.4938,460.198 96.6173,473.975 z" id="boundary" inkscape:connector-curvature="0" />
	<path style="fill:none;stroke:red;stroke-width:1px;stroke-linecap:butt;stroke-linejoin:miter;stroke-opacity:1" d="M 92.0247,274.198 92.0247,281.852 z" id="boundary" inkscape:connector-curvature="0" />
	<path style="fill:none;stroke:red;stroke-width:1px;stroke-linecap:butt;stroke-linejoin:miter;stroke-opacity:1" d="M 92.0247,274.198 95.8519,266.543 z" id="boundary" inkscape:connector-curvature="0" />
	<path style="fill:none;stroke:red;stroke-width:1px;stroke-linecap:butt;stroke-linejoin:miter;stroke-opacity:1" d="M 95.8519,258.889 95.8519,266.543 z" id="boundary" inkscape:connector-curvature="0" />
	<path style="fill:none;stroke:red;stroke-width:1px;stroke-linecap:butt;stroke-linejoin:miter;stroke-opacity:1" d="M 95.8519,258.889 99.679,247.407 z" id="boundary" inkscape:connector-curvature="0" />
	<path style="fill:none;stroke:red;stroke-width:1px;stroke-linecap:butt;stroke-linejoin:miter;stroke-opacity:1" d="M 96.6173,128.765 101.975,134.889 z" id="boundary" inkscape:connector-curvature="0" />
	<path style="fill:none;stroke:red;stroke-width:1px;stroke-linecap:butt;stroke-linejoin:miter;stroke-opacity:1" d="M 96.6173,473.975 103.506,488.519 z" id="boundary" inkscape:connector-curvature="0" />
	<path style="fill:none;stroke:red;stroke-width:1px;stroke-linecap:butt;stroke-linejoin:miter;stroke-opacity:1" d="M 99.679,239.753 99.679,247.407 z" id="boundary" inkscape:connector-curvature="0" />
	<path style="fill:none;stroke:red;stroke-width:1px;stroke-linecap:butt;stroke-linejoin:miter;stroke-opacity:1" d="M 99.679,239.753 103.506,232.099 z" id="boundary" inkscape:connector-curvature="0" />
	<path style="fill:none;stroke:red;stroke-width:1px;stroke-linecap:butt;stroke-linejoin:miter;stroke-opacity:1" d="M 101.975,134.889 108.864,149.432 z" id="boundary" inkscape:connector-curvature="0" />
	<path style="fill:none;stroke:red;stroke-width:1px;stroke-linecap:butt;stroke-linejoin:miter;stroke-opacity:1" d="M 103.506,224.444 103.506,232.099 z" id="boundary" inkscape:connector-curvature="0" />
	<path style="fill:none;stroke:red;stroke-width:1px;stroke-linecap:butt;stroke-linejoin:miter;stroke-opacity:1" d="M 103.506,224.444 107.333,212.963 z" id="boundary" inkscape:connector-curvature="0" />
	<path style="fill:none;stroke:red;stroke-width:1px;stroke-linecap:butt;stroke-linejoin:miter;stroke-opacity:1" d="M 103.506,488.519 111.16,502.296 z" id="boundary" inkscape:connector-curvature="0" />
	<path style="fill:none;stroke:red;stroke-width:1px;stroke-linecap:butt;stroke-linejoin:miter;stroke-opacity:1" d="M 105.037,8.59259 112.691,7.82716 z" id="boundary" inkscape:connector-curvature="0" />
	<path style="fill:none;stroke:red;stroke-width:1px;stroke-linecap:butt;stroke-linejoin:miter;stroke-opacity:1" d="M 107.333,205.309 107.333,212.963 z" id="boundary" inkscape:connector-curvature="0" />
	<path style="fill:none;stroke:red;stroke-width:1px;stroke-linecap:butt;stroke-linejoin:miter;stroke-opacity:1" d="M 107.333,205.309 111.16,195.358 z" id="boundary" inkscape:connector-curvature="0" />
	<path style="fill:none;stroke:red;stroke-width:1px;stroke-linecap:butt;stroke-linejoin:miter;stroke-opacity:1" d="M 108.864,149.432 111.16,157.086 z" id="boundary" inkscape:connector-curvature="0" />
	<path style="fill:none;stroke:red;stroke-width:1px;stroke-linecap:butt;stroke-linejoin:miter;stroke-opacity:1" d="M 111.16,157.086 111.16,164.741 z" id="boundary" inkscape:connector-curvature="0" />
	<path style="fill:none;stroke:red;stroke-width:1px;stroke-linecap:butt;stroke-linejoin:miter;stroke-opacity:1" d="M 111.16,164.741 111.16,172.395 z" id="boundary" inkscape:connector-curvature="0" />
	<path style="fill:none;stroke:red;stroke-width:1px;stroke-linecap:butt;stroke-linejoin:miter;stroke-opacity:1" d="M 111.16,172.395 111.16,180.049 z" id="boundary" inkscape:connector-curvature="0" />
	<path style="fill:none;stroke:red;stroke-width:1px;stroke-linecap:butt;stroke-linejoin:miter;stroke-opacity:1" d="M 111.16,180.049 111.16,187.704 z" id="boundary" inkscape:connector-curvature="0" />
	<path style="fill:none;stroke:red;stroke-width:1px;stroke-linecap:butt;stroke-linejoin:miter;stroke-opacity:1" d="M 111.16,187.704 111.16,195.358 z" id="boundary" inkscape:connector-curvature="0" />
	<path style="fill:none;stroke:red;stroke-width:1px;stroke-linecap:butt;stroke-linejoin:miter;stroke-opacity:1" d="M 111.16,502.296 119.58,515.309 z" id="boundary" inkscape:connector-curvature="0" />
	<path style="fill:none;stroke:red;stroke-width:1px;stroke-linecap:butt;stroke-linejoin:miter;stroke-opacity:1" d="M 112.691,7.82716 120.346,4.76543 z" id="boundary" inkscape:connector-curvature="0" />
	<path style="fill:none;stroke:red;stroke-width:1px;stroke-linecap:butt;stroke-linejoin:miter;stroke-opacity:1" d="M 120.346,4.76543 128,4 z" id="boundary" inkscape:connector-curvature="0" />
	<path style="fill:none;stroke:red;stroke-width:1px;stroke-linecap:butt;stroke-linejoin:miter;stroke-opacity:1" d="M 122.642,522.963 128.765,528.321 z" id="boundary" inkscape:connector-curvature="0" />
	<path style="fill:none;stroke:red;stroke-width:1px;stroke-linecap:butt;stroke-linejoin:miter;stroke-opacity:1" d="M 128,4 135.654,4 z" id="boundary" inkscape:connector-curvature="0" />
	<path style="fill:none;stroke:red;stroke-width:1px;stroke-linecap:butt;stroke-linejoin:miter;stroke-opacity:1" d="M 128.765,528.321 134.123,534.444 z" id="boundary" inkscape:connector-curvature="0" />
	<path style="fill:none;stroke:red;stroke-width:1px;stroke-linecap:butt;stroke-linejoin:miter;stroke-opacity:1" d="M 134.123,534.444 137.951,541.333 z" id="boundary" inkscape:connector-curvature="0" />
	<path style="fill:none;stroke:red;stroke-width:1px;stroke-linecap:butt;stroke-linejoin:miter;stroke-opacity:1" d="M 135.654,4 143.309,4 z" id="boundary" inkscape:connector-curvature="0" />
	<path style="fill:none;stroke:red;stroke-width:1px;stroke-linecap:butt;stroke-linejoin:miter;stroke-opacity:1" d="M 137.951,541.333 143.309,547.457 z" id="boundary" inkscape:connector-curvature="0" />
	<path style="fill:none;stroke:red;stroke-width:1px;stroke-linecap:butt;stroke-linejoin:miter;stroke-opacity:1" d="M 143.309,4 150.963,4 z" id="boundary" inkscape:connector-curvature="0" />
	<path style="fill:none;stroke:red;stroke-width:1px;stroke-linecap:butt;stroke-linejoin:miter;stroke-opacity:1" d="M 143.309,547.457 149.432,552.049 z" id="boundary" inkscape:connector-curvature="0" />
	<path style="fill:none;stroke:red;stroke-width:1px;stroke-linecap:butt;stroke-linejoin:miter;stroke-opacity:1" d="M 149.432,552.049 154.025,558.173 z" id="boundary" inkscape:connector-curvature="0" />
	<path style="fill:none;stroke:red;stroke-width:1px;stroke-linecap:butt;stroke-linejoin:miter;stroke-opacity:1" d="M 150.963,4 158.617,4 z" id="boundary" inkscape:connector-curvature="0" />
	<path style="fill:none;stroke:red;stroke-width:1px;stroke-linecap:butt;stroke-linejoin:miter;stroke-opacity:1" d="M 154.025,558.173 160.148,563.531 z" id="boundary" inkscape:connector-curvature="0" />
	<path style="fill:none;stroke:red;stroke-width:1px;stroke-linecap:butt;stroke-linejoin:miter;stroke-opacity:1" d="M 158.617,4 166.272,4 z" id="boundary" inkscape:connector-curvature="0" />
	<path style="fill:none;stroke:red;stroke-width:1px;stroke-linecap:butt;stroke-linejoin:miter;stroke-opacity:1" d="M 160.148,563.531 165.506,569.654 z" id="boundary" inkscape:connector-curvature="0" />
	<path style="fill:none;stroke:red;stroke-width:1px;stroke-linecap:butt;stroke-linejoin:miter;stroke-opacity:1" d="M 165.506,569.654 171.63,575.012 z" id="boundary" inkscape:connector-curvature="0" />
	<path style="fill:none;stroke:red;stroke-width:1px;stroke-linecap:butt;stroke-linejoin:miter;stroke-opacity:1" d="M 166.272,4 180.815,7.82716 z" id="boundary" inkscape:connector-curvature="0" />
	<path style="fill:none;stroke:red;stroke-width:1px;stroke-linecap:butt;stroke-linejoin:miter;stroke-opacity:1" d="M 171.63,575.012 176.222,581.136 z" id="boundary" inkscape:connector-curvature="0" />
	<path style="fill:none;stroke:red;stroke-width:1px;stroke-linecap:butt;stroke-linejoin:miter;stroke-opacity:1" d="M 176.222,581.136 180.049,588.025 z" id="boundary" inkscape:connector-curvature="0" />
	<path style="fill:none;stroke:red;stroke-width:1px;stroke-linecap:butt;stroke-linejoin:miter;stroke-opacity:1" d="M 180.049,588.025 186.173,593.383 z" id="boundary" inkscape:connector-curvature="0" />
	<path style="fill:none;stroke:red;stroke-width:1px;stroke-linecap:butt;stroke-linejoin:miter;stroke-opacity:1" d="M 180.815,7.82716 195.358,13.1852 z" id="boundary" inkscape:connector-curvature="0" />
	<path style="fill:none;stroke:red;stroke-width:1px;stroke-linecap:butt;stroke-linejoin:miter;stroke-opacity:1" d="M 186.173,593.383 192.296,597.975 z" id="boundary" inkscape:connector-curvature="0" />
	<path style="fill:none;stroke:red;stroke-width:1px;stroke-linecap:butt;stroke-linejoin:miter;stroke-opacity:1" d="M 192.296,597.975 199.185,601.802 z" id="boundary" inkscape:connector-curvature="0" />
	<path style="fill:none;stroke:red;stroke-width:1px;stroke-linecap:butt;stroke-linejoin:miter;stroke-opacity:1" d="M 199.185,601.802 206.074,605.63 z" id="boundary" inkscape:connector-curvature="0" />
	<path style="fill:none;stroke:red;stroke-width:1px;stroke-linecap:butt;stroke-linejoin:miter;stroke-opacity:1" d="M 206.074,605.63 211.432,611.753 z" id="boundary" inkscape:connector-curvature="0" />
	<path style="fill:none;stroke:red;stroke-width:1px;stroke-linecap:butt;stroke-linejoin:miter;stroke-opacity:1" d="M 207.605,19.3086 214.494,23.1358 z" id="boundary" inkscape:connector-curvature="0" />
	<path style="fill:none;stroke:red;stroke-width:1px;stroke-linecap:butt;stroke-linejoin:miter;stroke-opacity:1" d="M 211.432,611.753 217.556,617.111 z" id="boundary" inkscape:connector-curvature="0" />
	<path style="fill:none;stroke:red;stroke-width:1px;stroke-linecap:butt;stroke-linejoin:miter;stroke-opacity:1" d="M 214.494,23.1358 220.617,27.7284 z" id="boundary" inkscape:connector-curvature="0" />
	<path style="fill:none;stroke:red;stroke-width:1px;stroke-linecap:butt;stroke-linejoin:miter;stroke-opacity:1" d="M 217.556,617.111 224.444,620.938 z" id="boundary" inkscape:connector-curvature="0" />
	<path style="fill:none;stroke:red;stroke-width:1px;stroke-linecap:butt;stroke-linejoin:miter;stroke-opacity:1" d="M 220.617,27.7284 226.741,33.0864 z" id="boundary" inkscape:connector-curvature="0" />
	<path style="fill:none;stroke:red;stroke-width:1px;stroke-linecap:butt;stroke-linejoin:miter;stroke-opacity:1" d="M 224.444,620.938 231.333,624.765 z" id="boundary" inkscape:connector-curvature="0" />
	<path style="fill:none;stroke:red;stroke-width:1px;stroke-linecap:butt;stroke-linejoin:miter;stroke-opacity:1" d="M 226.741,33.0864 232.099,39.2099 z" id="boundary" inkscape:connector-curvature="0" />
	<path style="fill:none;stroke:red;stroke-width:1px;stroke-linecap:butt;stroke-linejoin:miter;stroke-opacity:1" d="M 231.333,624.765 237.457,629.358 z" id="boundary" inkscape:connector-curvature="0" />
	<path style="fill:none;stroke:red;stroke-width:1px;stroke-linecap:butt;stroke-linejoin:miter;stroke-opacity:1" d="M 232.099,39.2099 235.926,46.0988 z" id="boundary" inkscape:connector-curvature="0" />
	<path style="fill:none;stroke:red;stroke-width:1px;stroke-linecap:butt;stroke-linejoin:miter;stroke-opacity:1" d="M 235.926,46.0988 241.284,52.2222 z" id="boundary" inkscape:connector-curvature="0" />
	<path style="fill:none;stroke:red;stroke-width:1px;stroke-linecap:butt;stroke-linejoin:miter;stroke-opacity:1" d="M 237.457,629.358 241.284,636.247 z" id="boundary" inkscape:connector-curvature="0" />
	<path style="fill:none;stroke:red;stroke-width:1px;stroke-linecap:butt;stroke-linejoin:miter;stroke-opacity:1" d="M 241.284,636.247 245.877,642.37 z" id="boundary" inkscape:connector-curvature="0" />
	<path style="fill:none;stroke:red;stroke-width:1px;stroke-linecap:butt;stroke-linejoin:miter;stroke-opacity:1" d="M 245.877,642.37 252,647.728 z" id="boundary" inkscape:connector-curvature="0" />
	<path style="fill:none;stroke:red;stroke-width:1px;stroke-linecap:butt;stroke-linejoin:miter;stroke-opacity:1" d="M 259.654,93.5556 261.185,101.21 z" id="boundary" inkscape:connector-curvature="0" />
	<path style="fill:none;stroke:red;stroke-width:1px;stroke-linecap:butt;stroke-linejoin:miter;stroke-opacity:1" d="M 261.185,101.21 261.185,108.864 z" id="boundary" inkscape:connector-curvature="0" />
	<path style="fill:none;stroke:red;stroke-width:1px;stroke-linecap:butt;stroke-linejoin:miter;stroke-opacity:1" d="M 261.185,108.864 265.012,115.753 z" id="boundary" inkscape:connector-curvature="0" />
	<path style="fill:none;stroke:red;stroke-width:1px;stroke-linecap:butt;stroke-linejoin:miter;stroke-opacity:1" d="M 265.012,115.753 265.012,123.407 z" id="boundary" inkscape:connector-curvature="0" />
	<path style="fill:none;stroke:red;stroke-width:1px;stroke-linecap:butt;stroke-linejoin:miter;stroke-opacity:1" d="M 265.012,123.407 265.012,131.062 z" id="boundary" inkscape:connector-curvature="0" />
	<path style="fill:none;stroke:red;stroke-width:1px;stroke-linecap:butt;stroke-linejoin:miter;stroke-opacity:1" d="M 265.012,131.062 265.012,138.716 z" id="boundary" inkscape:connector-curvature="0" />
	<path style="fill:none;stroke:red;stroke-width:1px;stroke-linecap:butt;stroke-linejoin:miter;stroke-opacity:1" d="M 266.543,654.617 273.432,658.444 z" id="boundary" inkscape:connector-curvature="0" />
	<path style="fill:none;stroke:red;stroke-width:1px;stroke-linecap:butt;stroke-linejoin:miter;stroke-opacity:1" d="M 268.84,153.259 268.84,160.914 z" id="boundary" inkscape:connector-curvature="0" />
	<path style="fill:none;stroke:red;stroke-width:1px;stroke-linecap:butt;stroke-linejoin:miter;stroke-opacity:1" d="M 268.84,160.914 268.84,168.568 z" id="boundary" inkscape:connector-curvature="0" />
	<path style="fill:none;stroke:red;stroke-width:1px;stroke-linecap:butt;stroke-linejoin:miter;stroke-opacity:1" d="M 272.667,183.111 279.556,197.654 z" id="boundary" inkscape:connector-curvature="0" />
	<path style="fill:none;stroke:red;stroke-width:1px;stroke-linecap:butt;stroke-linejoin:miter;stroke-opacity:1" d="M 273.432,658.444 281.086,661.506 z" id="boundary" inkscape:connector-curvature="0" />
	<path style="fill:none;stroke:red;stroke-width:1px;stroke-linecap:butt;stroke-linejoin:miter;stroke-opacity:1" d="M 275.728,760.247 281.852,754.123 z" id="boundary" inkscape:connector-curvature="0" />
	<path style="fill:none;stroke:red;stroke-width:1px;stroke-linecap:butt;stroke-linejoin:miter;stroke-opacity:1" d="M 279.556,197.654 283.383,204.543 z" id="boundary" inkscape:connector-curvature="0" />
	<path style="fill:none;stroke:red;stroke-width:1px;stroke-linecap:butt;stroke-linejoin:miter;stroke-opacity:1" d="M 281.852,754.123 287.975,748 z" id="boundary" inkscape:connector-curvature="0" />
	<path style="fill:none;stroke:red;stroke-width:1px;stroke-linecap:butt;stroke-linejoin:miter;stroke-opacity:1" d="M 283.383,204.543 286.444,212.198 z" id="boundary" inkscape:connector-curvature="0" />
	<path style="fill:none;stroke:red;stroke-width:1px;stroke-linecap:butt;stroke-linejoin:miter;stroke-opacity:1" d="M 286.444,212.198 287.975,219.852 z" id="boundary" inkscape:connector-curvature="0" />
	<path style="fill:none;stroke:red;stroke-width:1px;stroke-linecap:butt;stroke-linejoin:miter;stroke-opacity:1" d="M 287.975,748 301.753,746.469 z" id="boundary" inkscape:connector-curvature="0" />
	<path style="fill:none;stroke:red;stroke-width:1px;stroke-linecap:butt;stroke-linejoin:miter;stroke-opacity:1" d="M 295.63,233.63 301.753,238.222 z" id="boundary" inkscape:connector-curvature="0" />
	<path style="fill:none;stroke:red;stroke-width:1px;stroke-linecap:butt;stroke-linejoin:miter;stroke-opacity:1" d="M 301.753,238.222 307.111,244.346 z" id="boundary" inkscape:connector-curvature="0" />
	<path style="fill:none;stroke:red;stroke-width:1px;stroke-linecap:butt;stroke-linejoin:miter;stroke-opacity:1" d="M 301.753,746.469 309.407,746.469 z" id="boundary" inkscape:connector-curvature="0" />
	<path style="fill:none;stroke:red;stroke-width:1px;stroke-linecap:butt;stroke-linejoin:miter;stroke-opacity:1" d="M 302.519,770.198 310.173,770.198 z" id="boundary" inkscape:connector-curvature="0" />
	<path style="fill:none;stroke:red;stroke-width:1px;stroke-linecap:butt;stroke-linejoin:miter;stroke-opacity:1" d="M 307.111,244.346 310.938,251.235 z" id="boundary" inkscape:connector-curvature="0" />
	<path style="fill:none;stroke:red;stroke-width:1px;stroke-linecap:butt;stroke-linejoin:miter;stroke-opacity:1" d="M 309.407,746.469 317.062,746.469 z" id="boundary" inkscape:connector-curvature="0" />
	<path style="fill:none;stroke:red;stroke-width:1px;stroke-linecap:butt;stroke-linejoin:miter;stroke-opacity:1" d="M 310.173,770.198 317.827,770.198 z" id="boundary" inkscape:connector-curvature="0" />
	<path style="fill:none;stroke:red;stroke-width:1px;stroke-linecap:butt;stroke-linejoin:miter;stroke-opacity:1" d="M 310.938,251.235 316.296,257.358 z" id="boundary" inkscape:connector-curvature="0" />
	<path style="fill:none;stroke:red;stroke-width:1px;stroke-linecap:butt;stroke-linejoin:miter;stroke-opacity:1" d="M 316.296,257.358 322.42,262.716 z" id="boundary" inkscape:connector-curvature="0" />
	<path style="fill:none;stroke:red;stroke-width:1px;stroke-linecap:butt;stroke-linejoin:miter;stroke-opacity:1" d="M 317.062,746.469 332.37,746.469 z" id="boundary" inkscape:connector-curvature="0" />
	<path style="fill:none;stroke:red;stroke-width:1px;stroke-linecap:butt;stroke-linejoin:miter;stroke-opacity:1" d="M 317.827,770.198 325.481,770.198 z" id="boundary" inkscape:connector-curvature="0" />
	<path style="fill:none;stroke:red;stroke-width:1px;stroke-linecap:butt;stroke-linejoin:miter;stroke-opacity:1" d="M 325.481,770.198 333.136,770.198 z" id="boundary" inkscape:connector-curvature="0" />
	<path style="fill:none;stroke:red;stroke-width:1px;stroke-linecap:butt;stroke-linejoin:miter;stroke-opacity:1" d="M 332.37,746.469 340.025,746.469 z" id="boundary" inkscape:connector-curvature="0" />
	<path style="fill:none;stroke:red;stroke-width:1px;stroke-linecap:butt;stroke-linejoin:miter;stroke-opacity:1" d="M 333.136,770.198 340.79,770.198 z" id="boundary" inkscape:connector-curvature="0" />
	<path style="fill:none;stroke:red;stroke-width:1px;stroke-linecap:butt;stroke-linejoin:miter;stroke-opacity:1" d="M 335.432,271.901 340.79,278.025 z" id="boundary" inkscape:connector-curvature="0" />
	<path style="fill:none;stroke:red;stroke-width:1px;stroke-linecap:butt;stroke-linejoin:miter;stroke-opacity:1" d="M 340.025,746.469 346.914,742.642 z" id="boundary" inkscape:connector-curvature="0" />
	<path style="fill:none;stroke:red;stroke-width:1px;stroke-linecap:butt;stroke-linejoin:miter;stroke-opacity:1" d="M 340.79,278.025 346.914,283.383 z" id="boundary" inkscape:connector-curvature="0" />
	<path style="fill:none;stroke:red;stroke-width:1px;stroke-linecap:butt;stroke-linejoin:miter;stroke-opacity:1" d="M 346.148,686 359.926,693.654 z" id="boundary" inkscape:connector-curvature="0" />
	<path style="fill:none;stroke:red;stroke-width:1px;stroke-linecap:butt;stroke-linejoin:miter;stroke-opacity:1" d="M 346.914,283.383 352.272,289.506 z" id="boundary" inkscape:connector-curvature="0" />
	<path style="fill:none;stroke:red;stroke-width:1px;stroke-linecap:butt;stroke-linejoin:miter;stroke-opacity:1" d="M 346.914,742.642 353.037,736.519 z" id="boundary" inkscape:connector-curvature="0" />
	<path style="fill:none;stroke:red;stroke-width:1px;stroke-linecap:butt;stroke-linejoin:miter;stroke-opacity:1" d="M 353.037,736.519 362.222,723.506 z" id="boundary" inkscape:connector-curvature="0" />
	<path style="fill:none;stroke:red;stroke-width:1px;stroke-linecap:butt;stroke-linejoin:miter;stroke-opacity:1" d="M 355.333,774.025 362.988,774.025 z" id="boundary" inkscape:connector-curvature="0" />
	<path style="fill:none;stroke:red;stroke-width:1px;stroke-linecap:butt;stroke-linejoin:miter;stroke-opacity:1" d="M 359.926,693.654 363.753,700.543 z" id="boundary" inkscape:connector-curvature="0" />
	<path style="fill:none;stroke:red;stroke-width:1px;stroke-linecap:butt;stroke-linejoin:miter;stroke-opacity:1" d="M 362.222,723.506 363.753,715.852 z" id="boundary" inkscape:connector-curvature="0" />
	<path style="fill:none;stroke:red;stroke-width:1px;stroke-linecap:butt;stroke-linejoin:miter;stroke-opacity:1" d="M 362.988,774.025 370.642,774.025 z" id="boundary" inkscape:connector-curvature="0" />
	<path style="fill:none;stroke:red;stroke-width:1px;stroke-linecap:butt;stroke-linejoin:miter;stroke-opacity:1" d="M 363.753,700.543 363.753,708.198 z" id="boundary" inkscape:connector-curvature="0" />
	<path style="fill:none;stroke:red;stroke-width:1px;stroke-linecap:butt;stroke-linejoin:miter;stroke-opacity:1" d="M 363.753,708.198 363.753,715.852 z" id="boundary" inkscape:connector-curvature="0" />
	<path style="fill:none;stroke:red;stroke-width:1px;stroke-linecap:butt;stroke-linejoin:miter;stroke-opacity:1" d="M 365.284,298.691 372.173,302.519 z" id="boundary" inkscape:connector-curvature="0" />
	<path style="fill:none;stroke:red;stroke-width:1px;stroke-linecap:butt;stroke-linejoin:miter;stroke-opacity:1" d="M 370.642,774.025 378.296,774.025 z" id="boundary" inkscape:connector-curvature="0" />
	<path style="fill:none;stroke:red;stroke-width:1px;stroke-linecap:butt;stroke-linejoin:miter;stroke-opacity:1" d="M 372.173,302.519 385.185,310.938 z" id="boundary" inkscape:connector-curvature="0" />
	<path style="fill:none;stroke:red;stroke-width:1px;stroke-linecap:butt;stroke-linejoin:miter;stroke-opacity:1" d="M 378.296,774.025 385.185,777.852 z" id="boundary" inkscape:connector-curvature="0" />
	<path style="fill:none;stroke:red;stroke-width:1px;stroke-linecap:butt;stroke-linejoin:miter;stroke-opacity:1" d="M 385.185,310.938 399.728,317.827 z" id="boundary" inkscape:connector-curvature="0" />
	<path style="fill:none;stroke:red;stroke-width:1px;stroke-linecap:butt;stroke-linejoin:miter;stroke-opacity:1" d="M 391.309,728.099 391.309,735.753 z" id="boundary" inkscape:connector-curvature="0" />
	<path style="fill:none;stroke:red;stroke-width:1px;stroke-linecap:butt;stroke-linejoin:miter;stroke-opacity:1" d="M 391.309,728.099 395.136,720.444 z" id="boundary" inkscape:connector-curvature="0" />
	<path style="fill:none;stroke:red;stroke-width:1px;stroke-linecap:butt;stroke-linejoin:miter;stroke-opacity:1" d="M 391.309,735.753 391.309,743.407 z" id="boundary" inkscape:connector-curvature="0" />
	<path style="fill:none;stroke:red;stroke-width:1px;stroke-linecap:butt;stroke-linejoin:miter;stroke-opacity:1" d="M 391.309,743.407 391.309,751.062 z" id="boundary" inkscape:connector-curvature="0" />
	<path style="fill:none;stroke:red;stroke-width:1px;stroke-linecap:butt;stroke-linejoin:miter;stroke-opacity:1" d="M 391.309,751.062 395.136,757.951 z" id="boundary" inkscape:connector-curvature="0" />
	<path style="fill:none;stroke:red;stroke-width:1px;stroke-linecap:butt;stroke-linejoin:miter;stroke-opacity:1" d="M 395.136,720.444 398.963,712.79 z" id="boundary" inkscape:connector-curvature="0" />
	<path style="fill:none;stroke:red;stroke-width:1px;stroke-linecap:butt;stroke-linejoin:miter;stroke-opacity:1" d="M 398.198,787.037 404.321,792.395 z" id="boundary" inkscape:connector-curvature="0" />
	<path style="fill:none;stroke:red;stroke-width:1px;stroke-linecap:butt;stroke-linejoin:miter;stroke-opacity:1" d="M 398.963,712.79 402.79,705.136 z" id="boundary" inkscape:connector-curvature="0" />
	<path style="fill:none;stroke:red;stroke-width:1px;stroke-linecap:butt;stroke-linejoin:miter;stroke-opacity:1" d="M 399.728,317.827 413.506,325.481 z" id="boundary" inkscape:connector-curvature="0" />
	<path style="fill:none;stroke:red;stroke-width:1px;stroke-linecap:butt;stroke-linejoin:miter;stroke-opacity:1" d="M 402.79,705.136 408.914,699.778 z" id="boundary" inkscape:connector-curvature="0" />
	<path style="fill:none;stroke:red;stroke-width:1px;stroke-linecap:butt;stroke-linejoin:miter;stroke-opacity:1" d="M 402.79,771.728 406.617,778.617 z" id="boundary" inkscape:connector-curvature="0" />
	<path style="fill:none;stroke:red;stroke-width:1px;stroke-linecap:butt;stroke-linejoin:miter;stroke-opacity:1" d="M 404.321,792.395 406.617,778.617 z" id="boundary" inkscape:connector-curvature="0" />
	<path style="fill:none;stroke:red;stroke-width:1px;stroke-linecap:butt;stroke-linejoin:miter;stroke-opacity:1" d="M 413.506,325.481 421.16,327.012 z" id="boundary" inkscape:connector-curvature="0" />
	<path style="fill:none;stroke:red;stroke-width:1px;stroke-linecap:butt;stroke-linejoin:miter;stroke-opacity:1" d="M 421.16,327.012 435.704,333.901 z" id="boundary" inkscape:connector-curvature="0" />
	<path style="fill:none;stroke:red;stroke-width:1px;stroke-linecap:butt;stroke-linejoin:miter;stroke-opacity:1" d="M 421.926,689.827 429.58,689.827 z" id="boundary" inkscape:connector-curvature="0" />
	<path style="fill:none;stroke:red;stroke-width:1px;stroke-linecap:butt;stroke-linejoin:miter;stroke-opacity:1" d="M 429.58,689.827 437.235,689.827 z" id="boundary" inkscape:connector-curvature="0" />
	<path style="fill:none;stroke:red;stroke-width:1px;stroke-linecap:butt;stroke-linejoin:miter;stroke-opacity:1" d="M 437.235,689.827 444.889,689.827 z" id="boundary" inkscape:connector-curvature="0" />
	<path style="fill:none;stroke:red;stroke-width:1px;stroke-linecap:butt;stroke-linejoin:miter;stroke-opacity:1" d="M 444.889,689.827 451.778,693.654 z" id="boundary" inkscape:connector-curvature="0" />
	<path style="fill:none;stroke:red;stroke-width:1px;stroke-linecap:butt;stroke-linejoin:miter;stroke-opacity:1" d="M 450.247,340.79 464.025,348.444 z" id="boundary" inkscape:connector-curvature="0" />
	<path style="fill:none;stroke:red;stroke-width:1px;stroke-linecap:butt;stroke-linejoin:miter;stroke-opacity:1" d="M 451.778,693.654 459.432,693.654 z" id="boundary" inkscape:connector-curvature="0" />
	<path style="fill:none;stroke:red;stroke-width:1px;stroke-linecap:butt;stroke-linejoin:miter;stroke-opacity:1" d="M 459.432,693.654 467.086,693.654 z" id="boundary" inkscape:connector-curvature="0" />
	<path style="fill:none;stroke:red;stroke-width:1px;stroke-linecap:butt;stroke-linejoin:miter;stroke-opacity:1" d="M 464.025,348.444 471.679,350.741 z" id="boundary" inkscape:connector-curvature="0" />
	<path style="fill:none;stroke:red;stroke-width:1px;stroke-linecap:butt;stroke-linejoin:miter;stroke-opacity:1" d="M 471.679,350.741 479.333,352.272 z" id="boundary" inkscape:connector-curvature="0" />
	<path style="fill:none;stroke:red;stroke-width:1px;stroke-linecap:butt;stroke-linejoin:miter;stroke-opacity:1" d="M 479.333,352.272 486.222,356.099 z" id="boundary" inkscape:connector-curvature="0" />
	<path style="fill:none;stroke:red;stroke-width:1px;stroke-linecap:butt;stroke-linejoin:miter;stroke-opacity:1" d="M 481.63,697.481 496.173,692.889 z" id="boundary" inkscape:connector-curvature="0" />
	<path style="fill:none;stroke:red;stroke-width:1px;stroke-linecap:butt;stroke-linejoin:miter;stroke-opacity:1" d="M 486.222,356.099 500.765,360.691 z" id="boundary" inkscape:connector-curvature="0" />
	<path style="fill:none;stroke:red;stroke-width:1px;stroke-linecap:butt;stroke-linejoin:miter;stroke-opacity:1" d="M 496.173,692.889 503.827,689.827 z" id="boundary" inkscape:connector-curvature="0" />
	<path style="fill:none;stroke:red;stroke-width:1px;stroke-linecap:butt;stroke-linejoin:miter;stroke-opacity:1" d="M 500.765,360.691 507.654,364.519 z" id="boundary" inkscape:connector-curvature="0" />
	<path style="fill:none;stroke:red;stroke-width:1px;stroke-linecap:butt;stroke-linejoin:miter;stroke-opacity:1" d="M 503.827,689.827 511.481,689.062 z" id="boundary" inkscape:connector-curvature="0" />
	<path style="fill:none;stroke:red;stroke-width:1px;stroke-linecap:butt;stroke-linejoin:miter;stroke-opacity:1" d="M 511.481,689.062 519.136,686 z" id="boundary" inkscape:connector-curvature="0" />
	<path style="fill:none;stroke:red;stroke-width:1px;stroke-linecap:butt;stroke-linejoin:miter;stroke-opacity:1" d="M 515.309,367.58 522.198,371.407 z" id="boundary" inkscape:connector-curvature="0" />
	<path style="fill:none;stroke:red;stroke-width:1px;stroke-linecap:butt;stroke-linejoin:miter;stroke-opacity:1" d="M 519.136,686 532.914,678.346 z" id="boundary" inkscape:connector-curvature="0" />
	<path style="fill:none;stroke:red;stroke-width:1px;stroke-linecap:butt;stroke-linejoin:miter;stroke-opacity:1" d="M 522.198,371.407 529.086,375.235 z" id="boundary" inkscape:connector-curvature="0" />
	<path style="fill:none;stroke:red;stroke-width:1px;stroke-linecap:butt;stroke-linejoin:miter;stroke-opacity:1" d="M 529.086,375.235 543.63,380.593 z" id="boundary" inkscape:connector-curvature="0" />
	<path style="fill:none;stroke:red;stroke-width:1px;stroke-linecap:butt;stroke-linejoin:miter;stroke-opacity:1" d="M 532.914,678.346 540.568,674.519 z" id="boundary" inkscape:connector-curvature="0" />
	<path style="fill:none;stroke:red;stroke-width:1px;stroke-linecap:butt;stroke-linejoin:miter;stroke-opacity:1" d="M 540.568,674.519 548.222,670.691 z" id="boundary" inkscape:connector-curvature="0" />
	<path style="fill:none;stroke:red;stroke-width:1px;stroke-linecap:butt;stroke-linejoin:miter;stroke-opacity:1" d="M 543.63,380.593 550.519,384.42 z" id="boundary" inkscape:connector-curvature="0" />
	<path style="fill:none;stroke:red;stroke-width:1px;stroke-linecap:butt;stroke-linejoin:miter;stroke-opacity:1" d="M 548.222,670.691 555.877,663.037 z" id="boundary" inkscape:connector-curvature="0" />
	<path style="fill:none;stroke:red;stroke-width:1px;stroke-linecap:butt;stroke-linejoin:miter;stroke-opacity:1" d="M 550.519,384.42 558.173,387.481 z" id="boundary" inkscape:connector-curvature="0" />
	<path style="fill:none;stroke:red;stroke-width:1px;stroke-linecap:butt;stroke-linejoin:miter;stroke-opacity:1" d="M 555.877,663.037 563.531,659.21 z" id="boundary" inkscape:connector-curvature="0" />
	<path style="fill:none;stroke:red;stroke-width:1px;stroke-linecap:butt;stroke-linejoin:miter;stroke-opacity:1" d="M 558.173,387.481 565.827,390.543 z" id="boundary" inkscape:connector-curvature="0" />
	<path style="fill:none;stroke:red;stroke-width:1px;stroke-linecap:butt;stroke-linejoin:miter;stroke-opacity:1" d="M 563.531,659.21 571.185,659.21 z" id="boundary" inkscape:connector-curvature="0" />
	<path style="fill:none;stroke:red;stroke-width:1px;stroke-linecap:butt;stroke-linejoin:miter;stroke-opacity:1" d="M 565.827,390.543 572.716,394.37 z" id="boundary" inkscape:connector-curvature="0" />
	<path style="fill:none;stroke:red;stroke-width:1px;stroke-linecap:butt;stroke-linejoin:miter;stroke-opacity:1" d="M 571.185,659.21 577.309,653.852 z" id="boundary" inkscape:connector-curvature="0" />
	<path style="fill:none;stroke:red;stroke-width:1px;stroke-linecap:butt;stroke-linejoin:miter;stroke-opacity:1" d="M 572.716,394.37 586.494,402.025 z" id="boundary" inkscape:connector-curvature="0" />
	<path style="fill:none;stroke:red;stroke-width:1px;stroke-linecap:butt;stroke-linejoin:miter;stroke-opacity:1" d="M 577.309,653.852 590.321,647.728 z" id="boundary" inkscape:connector-curvature="0" />
	<path style="fill:none;stroke:red;stroke-width:1px;stroke-linecap:butt;stroke-linejoin:miter;stroke-opacity:1" d="M 586.494,402.025 594.148,404.321 z" id="boundary" inkscape:connector-curvature="0" />
	<path style="fill:none;stroke:red;stroke-width:1px;stroke-linecap:butt;stroke-linejoin:miter;stroke-opacity:1" d="M 590.321,647.728 604.099,638.543 z" id="boundary" inkscape:connector-curvature="0" />
	<path style="fill:none;stroke:red;stroke-width:1px;stroke-linecap:butt;stroke-linejoin:miter;stroke-opacity:1" d="M 594.148,404.321 608.691,409.679 z" id="boundary" inkscape:connector-curvature="0" />
	<path style="fill:none;stroke:red;stroke-width:1px;stroke-linecap:butt;stroke-linejoin:miter;stroke-opacity:1" d="M 604.099,638.543 611.753,634.716 z" id="boundary" inkscape:connector-curvature="0" />
	<path style="fill:none;stroke:red;stroke-width:1px;stroke-linecap:butt;stroke-linejoin:miter;stroke-opacity:1" d="M 608.691,409.679 623.235,414.272 z" id="boundary" inkscape:connector-curvature="0" />
	<path style="fill:none;stroke:red;stroke-width:1px;stroke-linecap:butt;stroke-linejoin:miter;stroke-opacity:1" d="M 611.753,634.716 619.407,630.889 z" id="boundary" inkscape:connector-curvature="0" />
	<path style="fill:none;stroke:red;stroke-width:1px;stroke-linecap:butt;stroke-linejoin:miter;stroke-opacity:1" d="M 619.407,630.889 627.062,627.062 z" id="boundary" inkscape:connector-curvature="0" />
	<path style="fill:none;stroke:red;stroke-width:1px;stroke-linecap:butt;stroke-linejoin:miter;stroke-opacity:1" d="M 623.235,414.272 637.778,421.16 z" id="boundary" inkscape:connector-curvature="0" />
	<path style="fill:none;stroke:red;stroke-width:1px;stroke-linecap:butt;stroke-linejoin:miter;stroke-opacity:1" d="M 627.062,627.062 639.309,617.111 z" id="boundary" inkscape:connector-curvature="0" />
	<path style="fill:none;stroke:red;stroke-width:1px;stroke-linecap:butt;stroke-linejoin:miter;stroke-opacity:1" d="M 637.778,421.16 644.667,424.988 z" id="boundary" inkscape:connector-curvature="0" />
	<path style="fill:none;stroke:red;stroke-width:1px;stroke-linecap:butt;stroke-linejoin:miter;stroke-opacity:1" d="M 653.852,613.284 668.395,609.457 z" id="boundary" inkscape:connector-curvature="0" />
	<path style="fill:none;stroke:red;stroke-width:1px;stroke-linecap:butt;stroke-linejoin:miter;stroke-opacity:1" d="M 659.21,431.111 673.753,438 z" id="boundary" inkscape:connector-curvature="0" />
	<path style="fill:none;stroke:red;stroke-width:1px;stroke-linecap:butt;stroke-linejoin:miter;stroke-opacity:1" d="M 668.395,609.457 676.049,609.457 z" id="boundary" inkscape:connector-curvature="0" />
	<path style="fill:none;stroke:red;stroke-width:1px;stroke-linecap:butt;stroke-linejoin:miter;stroke-opacity:1" d="M 673.753,438 681.407,440.296 z" id="boundary" inkscape:connector-curvature="0" />
	<path style="fill:none;stroke:red;stroke-width:1px;stroke-linecap:butt;stroke-linejoin:miter;stroke-opacity:1" d="M 676.049,609.457 683.704,609.457 z" id="boundary" inkscape:connector-curvature="0" />
	<path style="fill:none;stroke:red;stroke-width:1px;stroke-linecap:butt;stroke-linejoin:miter;stroke-opacity:1" d="M 681.407,440.296 689.062,440.296 z" id="boundary" inkscape:connector-curvature="0" />
	<path style="fill:none;stroke:red;stroke-width:1px;stroke-linecap:butt;stroke-linejoin:miter;stroke-opacity:1" d="M 683.704,609.457 691.358,609.457 z" id="boundary" inkscape:connector-curvature="0" />
	<path style="fill:none;stroke:red;stroke-width:1px;stroke-linecap:butt;stroke-linejoin:miter;stroke-opacity:1" d="M 689.062,440.296 696.716,441.827 z" id="boundary" inkscape:connector-curvature="0" />
	<path style="fill:none;stroke:red;stroke-width:1px;stroke-linecap:butt;stroke-linejoin:miter;stroke-opacity:1" d="M 691.358,609.457 699.012,608.691 z" id="boundary" inkscape:connector-curvature="0" />
	<path style="fill:none;stroke:red;stroke-width:1px;stroke-linecap:butt;stroke-linejoin:miter;stroke-opacity:1" d="M 696.716,441.827 704.37,444.123 z" id="boundary" inkscape:connector-curvature="0" />
	<path style="fill:none;stroke:red;stroke-width:1px;stroke-linecap:butt;stroke-linejoin:miter;stroke-opacity:1" d="M 699.012,608.691 706.667,605.63 z" id="boundary" inkscape:connector-curvature="0" />
	<path style="fill:none;stroke:red;stroke-width:1px;stroke-linecap:butt;stroke-linejoin:miter;stroke-opacity:1" d="M 704.37,444.123 718.914,447.951 z" id="boundary" inkscape:connector-curvature="0" />
	<path style="fill:none;stroke:red;stroke-width:1px;stroke-linecap:butt;stroke-linejoin:miter;stroke-opacity:1" d="M 706.667,605.63 714.321,605.63 z" id="boundary" inkscape:connector-curvature="0" />
	<path style="fill:none;stroke:red;stroke-width:1px;stroke-linecap:butt;stroke-linejoin:miter;stroke-opacity:1" d="M 714.321,605.63 721.975,605.63 z" id="boundary" inkscape:connector-curvature="0" />
	<path style="fill:none;stroke:red;stroke-width:1px;stroke-linecap:butt;stroke-linejoin:miter;stroke-opacity:1" d="M 718.914,447.951 725.802,451.778 z" id="boundary" inkscape:connector-curvature="0" />
	<path style="fill:none;stroke:red;stroke-width:1px;stroke-linecap:butt;stroke-linejoin:miter;stroke-opacity:1" d="M 721.975,605.63 728.864,609.457 z" id="boundary" inkscape:connector-curvature="0" />
	<path style="fill:none;stroke:red;stroke-width:1px;stroke-linecap:butt;stroke-linejoin:miter;stroke-opacity:1" d="M 725.802,451.778 733.457,451.778 z" id="boundary" inkscape:connector-curvature="0" />
	<path style="fill:none;stroke:red;stroke-width:1px;stroke-linecap:butt;stroke-linejoin:miter;stroke-opacity:1" d="M 728.864,609.457 736.519,609.457 z" id="boundary" inkscape:connector-curvature="0" />
	<path style="fill:none;stroke:red;stroke-width:1px;stroke-linecap:butt;stroke-linejoin:miter;stroke-opacity:1" d="M 733.457,451.778 741.111,451.778 z" id="boundary" inkscape:connector-curvature="0" />
	<path style="fill:none;stroke:red;stroke-width:1px;stroke-linecap:butt;stroke-linejoin:miter;stroke-opacity:1" d="M 736.519,609.457 751.062,614.815 z" id="boundary" inkscape:connector-curvature="0" />
	<path style="fill:none;stroke:red;stroke-width:1px;stroke-linecap:butt;stroke-linejoin:miter;stroke-opacity:1" d="M 741.111,451.778 748.765,451.778 z" id="boundary" inkscape:connector-curvature="0" />
	<path style="fill:none;stroke:red;stroke-width:1px;stroke-linecap:butt;stroke-linejoin:miter;stroke-opacity:1" d="M 748.765,451.778 756.42,451.778 z" id="boundary" inkscape:connector-curvature="0" />
	<path style="fill:none;stroke:red;stroke-width:1px;stroke-linecap:butt;stroke-linejoin:miter;stroke-opacity:1" d="M 751.062,614.815 765.605,620.938 z" id="boundary" inkscape:connector-curvature="0" />
	<path style="fill:none;stroke:red;stroke-width:1px;stroke-linecap:butt;stroke-linejoin:miter;stroke-opacity:1" d="M 756.42,451.778 764.074,451.778 z" id="boundary" inkscape:connector-curvature="0" />
	<path style="fill:none;stroke:red;stroke-width:1px;stroke-linecap:butt;stroke-linejoin:miter;stroke-opacity:1" d="M 764.074,451.778 771.728,451.778 z" id="boundary" inkscape:connector-curvature="0" />
	<path style="fill:none;stroke:red;stroke-width:1px;stroke-linecap:butt;stroke-linejoin:miter;stroke-opacity:1" d="M 765.605,620.938 773.259,620.938 z" id="boundary" inkscape:connector-curvature="0" />
	<path style="fill:none;stroke:red;stroke-width:1px;stroke-linecap:butt;stroke-linejoin:miter;stroke-opacity:1" d="M 771.728,451.778 786.272,455.605 z" id="boundary" inkscape:connector-curvature="0" />
	<path style="fill:none;stroke:red;stroke-width:1px;stroke-linecap:butt;stroke-linejoin:miter;stroke-opacity:1" d="M 773.259,620.938 787.037,628.593 z" id="boundary" inkscape:connector-curvature="0" />
	<path style="fill:none;stroke:red;stroke-width:1px;stroke-linecap:butt;stroke-linejoin:miter;stroke-opacity:1" d="M 786.272,455.605 800.815,459.432 z" id="boundary" inkscape:connector-curvature="0" />
	<path style="fill:none;stroke:red;stroke-width:1px;stroke-linecap:butt;stroke-linejoin:miter;stroke-opacity:1" d="M 787.037,628.593 794.691,631.654 z" id="boundary" inkscape:connector-curvature="0" />
	<path style="fill:none;stroke:red;stroke-width:1px;stroke-linecap:butt;stroke-linejoin:miter;stroke-opacity:1" d="M 794.691,631.654 802.346,632.42 z" id="boundary" inkscape:connector-curvature="0" />
	<path style="fill:none;stroke:red;stroke-width:1px;stroke-linecap:butt;stroke-linejoin:miter;stroke-opacity:1" d="M 800.815,459.432 808.469,459.432 z" id="boundary" inkscape:connector-curvature="0" />
	<path style="fill:none;stroke:red;stroke-width:1px;stroke-linecap:butt;stroke-linejoin:miter;stroke-opacity:1" d="M 802.346,632.42 816.889,636.247 z" id="boundary" inkscape:connector-curvature="0" />
	<path style="fill:none;stroke:red;stroke-width:1px;stroke-linecap:butt;stroke-linejoin:miter;stroke-opacity:1" d="M 808.469,459.432 816.123,461.728 z" id="boundary" inkscape:connector-curvature="0" />
	<path style="fill:none;stroke:red;stroke-width:1px;stroke-linecap:butt;stroke-linejoin:miter;stroke-opacity:1" d="M 816.123,461.728 823.778,459.432 z" id="boundary" inkscape:connector-curvature="0" />
	<path style="fill:none;stroke:red;stroke-width:1px;stroke-linecap:butt;stroke-linejoin:miter;stroke-opacity:1" d="M 823.778,459.432 831.432,459.432 z" id="boundary" inkscape:connector-curvature="0" />
	<path style="fill:none;stroke:red;stroke-width:1px;stroke-linecap:butt;stroke-linejoin:miter;stroke-opacity:1" d="M 831.432,459.432 839.086,459.432 z" id="boundary" inkscape:connector-curvature="0" />
	<path style="fill:none;stroke:red;stroke-width:1px;stroke-linecap:butt;stroke-linejoin:miter;stroke-opacity:1" d="M 839.086,459.432 846.741,459.432 z" id="boundary" inkscape:connector-curvature="0" />
	<path style="fill:none;stroke:red;stroke-width:1px;stroke-linecap:butt;stroke-linejoin:miter;stroke-opacity:1" d="M 846.741,459.432 854.395,459.432 z" id="boundary" inkscape:connector-curvature="0" />
	<path style="fill:none;stroke:red;stroke-width:1px;stroke-linecap:butt;stroke-linejoin:miter;stroke-opacity:1" d="M 854.395,459.432 862.049,459.432 z" id="boundary" inkscape:connector-curvature="0" />
	<path style="fill:none;stroke:red;stroke-width:1px;stroke-linecap:butt;stroke-linejoin:miter;stroke-opacity:1" d="M 862.049,459.432 869.704,459.432 z" id="boundary" inkscape:connector-curvature="0" />
	<path style="fill:none;stroke:red;stroke-width:1px;stroke-linecap:butt;stroke-linejoin:miter;stroke-opacity:1" d="M 869.704,459.432 877.358,459.432 z" id="boundary" inkscape:connector-curvature="0" />
	<path style="fill:none;stroke:red;stroke-width:1px;stroke-linecap:butt;stroke-linejoin:miter;stroke-opacity:1" d="M 877.358,459.432 885.012,459.432 z" id="boundary" inkscape:connector-curvature="0" />
	<path style="fill:none;stroke:red;stroke-width:1px;stroke-linecap:butt;stroke-linejoin:miter;stroke-opacity:1" d="M 885.012,459.432 892.667,461.728 z" id="boundary" inkscape:connector-curvature="0" />
	<path style="fill:none;stroke:red;stroke-width:1px;stroke-linecap:butt;stroke-linejoin:miter;stroke-opacity:1" d="M 892.667,461.728 900.321,463.259 z" id="boundary" inkscape:connector-curvature="0" />
	<path style="fill:none;stroke:red;stroke-width:1px;stroke-linecap:butt;stroke-linejoin:miter;stroke-opacity:1" d="M 897.259,659.21 904.914,659.21 z" id="boundary" inkscape:connector-curvature="0" />
	<path style="fill:none;stroke:red;stroke-width:1px;stroke-linecap:butt;stroke-linejoin:miter;stroke-opacity:1" d="M 900.321,463.259 907.975,463.259 z" id="boundary" inkscape:connector-curvature="0" />
	<path style="fill:none;stroke:red;stroke-width:1px;stroke-linecap:butt;stroke-linejoin:miter;stroke-opacity:1" d="M 904.914,659.21 912.568,659.21 z" id="boundary" inkscape:connector-curvature="0" />
	<path style="fill:none;stroke:red;stroke-width:1px;stroke-linecap:butt;stroke-linejoin:miter;stroke-opacity:1" d="M 907.975,463.259 915.63,463.259 z" id="boundary" inkscape:connector-curvature="0" />
	<path style="fill:none;stroke:red;stroke-width:1px;stroke-linecap:butt;stroke-linejoin:miter;stroke-opacity:1" d="M 912.568,659.21 920.222,659.21 z" id="boundary" inkscape:connector-curvature="0" />
	<path style="fill:none;stroke:red;stroke-width:1px;stroke-linecap:butt;stroke-linejoin:miter;stroke-opacity:1" d="M 915.63,463.259 923.284,463.259 z" id="boundary" inkscape:connector-curvature="0" />
	<path style="fill:none;stroke:red;stroke-width:1px;stroke-linecap:butt;stroke-linejoin:miter;stroke-opacity:1" d="M 920.222,659.21 927.877,659.21 z" id="boundary" inkscape:connector-curvature="0" />
	<path style="fill:none;stroke:red;stroke-width:1px;stroke-linecap:butt;stroke-linejoin:miter;stroke-opacity:1" d="M 923.284,463.259 930.173,467.086 z" id="boundary" inkscape:connector-curvature="0" />
	<path style="fill:none;stroke:red;stroke-width:1px;stroke-linecap:butt;stroke-linejoin:miter;stroke-opacity:1" d="M 927.877,659.21 934.765,655.383 z" id="boundary" inkscape:connector-curvature="0" />
	<path style="fill:none;stroke:red;stroke-width:1px;stroke-linecap:butt;stroke-linejoin:miter;stroke-opacity:1" d="M 930.173,467.086 938.593,479.333 z" id="boundary" inkscape:connector-curvature="0" />
	<path style="fill:none;stroke:red;stroke-width:1px;stroke-linecap:butt;stroke-linejoin:miter;stroke-opacity:1" d="M 934.765,490.815 938.593,479.333 z" id="boundary" inkscape:connector-curvature="0" />
	<path style="fill:none;stroke:red;stroke-width:1px;stroke-linecap:butt;stroke-linejoin:miter;stroke-opacity:1" d="M 934.765,655.383 942.42,651.556 z" id="boundary" inkscape:connector-curvature="0" />
	<path style="fill:none;stroke:red;stroke-width:1px;stroke-linecap:butt;stroke-linejoin:miter;stroke-opacity:1" d="M 942.42,493.877 949.309,497.704 z" id="boundary" inkscape:connector-curvature="0" />
	<path style="fill:none;stroke:red;stroke-width:1px;stroke-linecap:butt;stroke-linejoin:miter;stroke-opacity:1" d="M 942.42,536.741 950.074,532.914 z" id="boundary" inkscape:connector-curvature="0" />
	<path style="fill:none;stroke:red;stroke-width:1px;stroke-linecap:butt;stroke-linejoin:miter;stroke-opacity:1" d="M 942.42,536.741 951.605,540.568 z" id="boundary" inkscape:connector-curvature="0" />
	<path style="fill:none;stroke:red;stroke-width:1px;stroke-linecap:butt;stroke-linejoin:miter;stroke-opacity:1" d="M 949.309,497.704 955.432,502.296 z" id="boundary" inkscape:connector-curvature="0" />
	<path style="fill:none;stroke:red;stroke-width:1px;stroke-linecap:butt;stroke-linejoin:miter;stroke-opacity:1" d="M 950.074,532.914 957.728,529.086 z" id="boundary" inkscape:connector-curvature="0" />
	<path style="fill:none;stroke:red;stroke-width:1px;stroke-linecap:butt;stroke-linejoin:miter;stroke-opacity:1" d="M 950.074,651.556 956.963,647.728 z" id="boundary" inkscape:connector-curvature="0" />
	<path style="fill:none;stroke:red;stroke-width:1px;stroke-linecap:butt;stroke-linejoin:miter;stroke-opacity:1" d="M 951.605,540.568 959.259,543.63 z" id="boundary" inkscape:connector-curvature="0" />
	<path style="fill:none;stroke:red;stroke-width:1px;stroke-linecap:butt;stroke-linejoin:miter;stroke-opacity:1" d="M 955.432,502.296 961.556,507.654 z" id="boundary" inkscape:connector-curvature="0" />
	<path style="fill:none;stroke:red;stroke-width:1px;stroke-linecap:butt;stroke-linejoin:miter;stroke-opacity:1" d="M 956.963,647.728 963.852,643.901 z" id="boundary" inkscape:connector-curvature="0" />
	<path style="fill:none;stroke:red;stroke-width:1px;stroke-linecap:butt;stroke-linejoin:miter;stroke-opacity:1" d="M 957.728,529.086 965.383,522.198 z" id="boundary" inkscape:connector-curvature="0" />
	<path style="fill:none;stroke:red;stroke-width:1px;stroke-linecap:butt;stroke-linejoin:miter;stroke-opacity:1" d="M 959.259,543.63 966.914,543.63 z" id="boundary" inkscape:connector-curvature="0" />
	<path style="fill:none;stroke:red;stroke-width:1px;stroke-linecap:butt;stroke-linejoin:miter;stroke-opacity:1" d="M 961.556,507.654 965.383,522.198 z" id="boundary" inkscape:connector-curvature="0" />
	<path style="fill:none;stroke:red;stroke-width:1px;stroke-linecap:butt;stroke-linejoin:miter;stroke-opacity:1" d="M 966.914,543.63 979.926,551.284 z" id="boundary" inkscape:connector-curvature="0" />
	<path style="fill:none;stroke:red;stroke-width:1px;stroke-linecap:butt;stroke-linejoin:miter;stroke-opacity:1" d="M 979.926,551.284 986.049,555.877 z" id="boundary" inkscape:connector-curvature="0" />
	<path style="fill:none;stroke:red;stroke-width:1px;stroke-linecap:butt;stroke-linejoin:miter;stroke-opacity:1" d="M 996,568.123 996,575.778 z" id="boundary" inkscape:connector-curvature="0" />
	<path style="fill:none;stroke:red;stroke-width:1px;stroke-linecap:butt;stroke-linejoin:miter;stroke-opacity:1" d="M 996,575.778 996,583.432 z" id="boundary" inkscape:connector-curvature="0" />
	<circle cx="4" cy="101.975" r="4" fill="#0" id="circle0"/>
	<circle cx="4" cy="109.63" r="4" fill="#0" id="circle1"/>
	<circle cx="7.82716" cy="94.321" r="4" fill="#0" id="circle2"/>
	<circle cx="8.59259" cy="115.753" r="4" fill="#0" id="circle3"/>
	<circle cx="13.9506" cy="88.1975" r="4" fill="#0" id="circle4"/>
	<circle cx="15.4815" cy="119.58" r="4" fill="#0" id="circle5"/>
	<circle cx="20.8395" cy="84.3704" r="4" fill="#0" id="circle6"/>
	<circle cx="23.1358" cy="119.58" r="4" fill="#0" id="circle7"/>
	<circle cx="24.6667" cy="77.4815" r="4" fill="#0" id="circle8"/>
	<circle cx="30.7901" cy="71.358" r="4" fill="#0" id="circle9"/>
	<circle cx="30.7901" cy="119.58" r="4" fill="#0" id="circle10"/>
	<circle cx="38.4444" cy="67.5309" r="4" fill="#0" id="circle11"/>
	<circle cx="38.4444" cy="119.58" r="4" fill="#0" id="circle12"/>
	<circle cx="44.5679" cy="61.4074" r="4" fill="#0" id="circle13"/>
	<circle cx="46.0988" cy="52.2222" r="4" fill="#0" id="circle14"/>
	<circle cx="46.0988" cy="119.58" r="4" fill="#0" id="circle15"/>
	<circle cx="49.9259" cy="44.5679" r="4" fill="#0" id="circle16"/>
	<circle cx="53.7531" cy="119.58" r="4" fill="#0" id="circle17"/>
	<circle cx="56.0494" cy="38.4444" r="4" fill="#0" id="circle18"/>
	<circle cx="60.642" cy="123.407" r="4" fill="#0" id="circle19"/>
	<circle cx="62.1728" cy="32.321" r="4" fill="#0" id="circle20"/>
	<circle cx="68.2963" cy="123.407" r="4" fill="#0" id="circle21"/>
	<circle cx="69.8272" cy="28.4938" r="4" fill="#0" id="circle22"/>
	<circle cx="75.1852" cy="119.58" r="4" fill="#0" id="circle23"/>
	<circle cx="77.4815" cy="24.6667" r="4" fill="#0" id="circle24"/>
	<circle cx="80.5432" cy="354.568" r="4" fill="#0" id="circle25"/>
	<circle cx="80.5432" cy="362.222" r="4" fill="#0" id="circle26"/>
	<circle cx="80.5432" cy="369.877" r="4" fill="#0" id="circle27"/>
	<circle cx="80.5432" cy="377.531" r="4" fill="#0" id="circle28"/>
	<circle cx="80.5432" cy="385.185" r="4" fill="#0" id="circle29"/>
	<circle cx="80.5432" cy="392.84" r="4" fill="#0" id="circle30"/>
	<circle cx="80.5432" cy="400.494" r="4" fill="#0" id="circle31"/>
	<circle cx="80.5432" cy="408.148" r="4" fill="#0" id="circle32"/>
	<circle cx="82.8395" cy="122.642" r="4" fill="#0" id="circle33"/>
	<circle cx="83.6049" cy="19.3086" r="4" fill="#0" id="circle34"/>
	<circle cx="84.3704" cy="316.296" r="4" fill="#0" id="circle35"/>
	<circle cx="84.3704" cy="323.951" r="4" fill="#0" id="circle36"/>
	<circle cx="84.3704" cy="331.605" r="4" fill="#0" id="circle37"/>
	<circle cx="84.3704" cy="339.259" r="4" fill="#0" id="circle38"/>
	<circle cx="84.3704" cy="346.914" r="4" fill="#0" id="circle39"/>
	<circle cx="84.3704" cy="415.037" r="4" fill="#0" id="circle40"/>
	<circle cx="84.3704" cy="422.691" r="4" fill="#0" id="circle41"/>
	<circle cx="84.3704" cy="430.346" r="4" fill="#0" id="circle42"/>
	<circle cx="84.3704" cy="438" r="4" fill="#0" id="circle43"/>
	<circle cx="88.1975" cy="289.506" r="4" fill="#0" id="circle44"/>
	<circle cx="88.1975" cy="297.16" r="4" fill="#0" id="circle45"/>
	<circle cx="88.1975" cy="304.815" r="4" fill="#0" id="circle46"/>
	<circle cx="88.1975" cy="444.889" r="4" fill="#0" id="circle47"/>
	<circle cx="88.1975" cy="452.543" r="4" fill="#0" id="circle48"/>
	<circle cx="90.4938" cy="15.4815" r="4" fill="#0" id="circle49"/>
	<circle cx="90.4938" cy="123.407" r="4" fill="#0" id="circle50"/>
	<circle cx="90.4938" cy="460.198" r="4" fill="#0" id="circle51"/>
	<circle cx="92.0247" cy="274.198" r="4" fill="#0" id="circle52"/>
	<circle cx="92.0247" cy="281.852" r="4" fill="#0" id="circle53"/>
	<circle cx="95.8519" cy="258.889" r="4" fill="#0" id="circle54"/>
	<circle cx="95.8519" cy="266.543" r="4" fill="#0" id="circle55"/>
	<circle cx="95.8519" cy="466.321" r="4" fill="#0" id="circle56"/>
	<circle cx="96.6173" cy="128.765" r="4" fill="#0" id="circle57"/>
	<circle cx="96.6173" cy="473.975" r="4" fill="#0" id="circle58"/>
	<circle cx="97.3827" cy="11.6543" r="4" fill="#0" id="circle59"/>
	<circle cx="99.679" cy="239.753" r="4" fill="#0" id="circle60"/>
	<circle cx="99.679" cy="247.407" r="4" fill="#0" id="circle61"/>
	<circle cx="100.444" cy="480.864" r="4" fill="#0" id="circle62"/>
	<circle cx="101.975" cy="134.889" r="4" fill="#0" id="circle63"/>
	<circle cx="103.506" cy="224.444" r="4" fill="#0" id="circle64"/>
	<circle cx="103.506" cy="232.099" r="4" fill="#0" id="circle65"/>
	<circle cx="103.506" cy="488.519" r="4" fill="#0" id="circle66"/>
	<circle cx="105.037" cy="8.59259" r="4" fill="#0" id="circle67"/>
	<circle cx="105.802" cy="141.778" r="4" fill="#0" id="circle68"/>
	<circle cx="107.333" cy="205.309" r="4" fill="#0" id="circle69"/>
	<circle cx="107.333" cy="212.963" r="4" fill="#0" id="circle70"/>
	<circle cx="107.333" cy="495.407" r="4" fill="#0" id="circle71"/>
	<circle cx="108.864" cy="149.432" r="4" fill="#0" id="circle72"/>
	<circle cx="111.16" cy="157.086" r="4" fill="#0" id="circle73"/>
	<circle cx="111.16" cy="164.741" r="4" fill="#0" id="circle74"/>
	<circle cx="111.16" cy="172.395" r="4" fill="#0" id="circle75"/>
	<circle cx="111.16" cy="180.049" r="4" fill="#0" id="circle76"/>
	<circle cx="111.16" cy="187.704" r="4" fill="#0" id="circle77"/>
	<circle cx="111.16" cy="195.358" r="4" fill="#0" id="circle78"/>
	<circle cx="111.16" cy="502.296" r="4" fill="#0" id="circle79"/>
	<circle cx="112.691" cy="7.82716" r="4" fill="#0" id="circle80"/>
	<circle cx="115.753" cy="508.42" r="4" fill="#0" id="circle81"/>
	<circle cx="119.58" cy="515.309" r="4" fill="#0" id="circle82"/>
	<circle cx="120.346" cy="4.76543" r="4" fill="#0" id="circle83"/>
	<circle cx="122.642" cy="522.963" r="4" fill="#0" id="circle84"/>
	<circle cx="128" cy="4" r="4" fill="#0" id="circle85"/>
	<circle cx="128.765" cy="528.321" r="4" fill="#0" id="circle86"/>
	<circle cx="134.123" cy="534.444" r="4" fill="#0" id="circle87"/>
	<circle cx="135.654" cy="4" r="4" fill="#0" id="circle88"/>
	<circle cx="137.951" cy="541.333" r="4" fill="#0" id="circle89"/>
	<circle cx="143.309" cy="4" r="4" fill="#0" id="circle90"/>
	<circle cx="143.309" cy="547.457" r="4" fill="#0" id="circle91"/>
	<circle cx="149.432" cy="552.049" r="4" fill="#0" id="circle92"/>
	<circle cx="150.963" cy="4" r="4" fill="#0" id="circle93"/>
	<circle cx="154.025" cy="558.173" r="4" fill="#0" id="circle94"/>
	<circle cx="158.617" cy="4" r="4" fill="#0" id="circle95"/>
	<circle cx="160.148" cy="563.531" r="4" fill="#0" id="circle96"/>
	<circle cx="165.506" cy="569.654" r="4" fill="#0" id="circle97"/>
	<circle cx="166.272" cy="4" r="4" fill="#0" id="circle98"/>
	<circle cx="171.63" cy="575.012" r="4" fill="#0" id="circle99"/>
	<circle cx="173.16" cy="7.82716" r="4" fill="#0" id="circle100"/>
	<circle cx="176.222" cy="581.136" r="4" fill="#0" id="circle101"/>
	<circle cx="180.049" cy="588.025" r="4" fill="#0" id="circle102"/>
	<circle cx="180.815" cy="7.82716" r="4" fill="#0" id="circle103"/>
	<circle cx="186.173" cy="593.383" r="4" fill="#0" id="circle104"/>
	<circle cx="187.704" cy="11.6543" r="4" fill="#0" id="circle105"/>
	<circle cx="192.296" cy="597.975" r="4" fill="#0" id="circle106"/>
	<circle cx="195.358" cy="13.1852" r="4" fill="#0" id="circle107"/>
	<circle cx="199.185" cy="601.802" r="4" fill="#0" id="circle108"/>
	<circle cx="199.951" cy="19.3086" r="4" fill="#0" id="circle109"/>
	<circle cx="206.074" cy="605.63" r="4" fill="#0" id="circle110"/>
	<circle cx="207.605" cy="19.3086" r="4" fill="#0" id="circle111"/>
	<circle cx="211.432" cy="611.753" r="4" fill="#0" id="circle112"/>
	<circle cx="214.494" cy="23.1358" r="4" fill="#0" id="circle113"/>
	<circle cx="217.556" cy="617.111" r="4" fill="#0" id="circle114"/>
	<circle cx="220.617" cy="27.7284" r="4" fill="#0" id="circle115"/>
	<circle cx="224.444" cy="620.938" r="4" fill="#0" id="circle116"/>
	<circle cx="226.741" cy="33.0864" r="4" fill="#0" id="circle117"/>
	<circle cx="231.333" cy="624.765" r="4" fill="#0" id="circle118"/>
	<circle cx="232.099" cy="39.2099" r="4" fill="#0" id="circle119"/>
	<circle cx="235.926" cy="46.0988" r="4" fill="#0" id="circle120"/>
	<circle cx="237.457" cy="629.358" r="4" fill="#0" id="circle121"/>
	<circle cx="241.284" cy="52.2222" r="4" fill="#0" id="circle122"/>
	<circle cx="241.284" cy="636.247" r="4" fill="#0" id="circle123"/>
	<circle cx="245.877" cy="58.3457" r="4" fill="#0" id="circle124"/>
	<circle cx="245.877" cy="642.37" r="4" fill="#0" id="circle125"/>
	<circle cx="247.407" cy="66" r="4" fill="#0" id="circle126"/>
	<circle cx="252" cy="647.728" r="4" fill="#0" id="circle127"/>
	<circle cx="253.531" cy="71.358" r="4" fill="#0" id="circle128"/>
	<circle cx="253.531" cy="79.0123" r="4" fill="#0" id="circle129"/>
	<circle cx="257.358" cy="85.9012" r="4" fill="#0" id="circle130"/>
	<circle cx="258.889" cy="651.556" r="4" fill="#0" id="circle131"/>
	<circle cx="259.654" cy="93.5556" r="4" fill="#0" id="circle132"/>
	<circle cx="261.185" cy="101.21" r="4" fill="#0" id="circle133"/>
	<circle cx="261.185" cy="108.864" r="4" fill="#0" id="circle134"/>
	<circle cx="265.012" cy="115.753" r="4" fill="#0" id="circle135"/>
	<circle cx="265.012" cy="123.407" r="4" fill="#0" id="circle136"/>
	<circle cx="265.012" cy="131.062" r="4" fill="#0" id="circle137"/>
	<circle cx="265.012" cy="138.716" r="4" fill="#0" id="circle138"/>
	<circle cx="266.543" cy="654.617" r="4" fill="#0" id="circle139"/>
	<circle cx="268.84" cy="145.605" r="4" fill="#0" id="circle140"/>
	<circle cx="268.84" cy="153.259" r="4" fill="#0" id="circle141"/>
	<circle cx="268.84" cy="160.914" r="4" fill="#0" id="circle142"/>
	<circle cx="268.84" cy="168.568" r="4" fill="#0" id="circle143"/>
	<circle cx="272.667" cy="175.457" r="4" fill="#0" id="circle144"/>
	<circle cx="272.667" cy="183.111" r="4" fill="#0" id="circle145"/>
	<circle cx="273.432" cy="658.444" r="4" fill="#0" id="circle146"/>
	<circle cx="275.728" cy="760.247" r="4" fill="#0" id="circle147"/>
	<circle cx="276.494" cy="190" r="4" fill="#0" id="circle148"/>
	<circle cx="279.556" cy="197.654" r="4" fill="#0" id="circle149"/>
	<circle cx="280.321" cy="766.37" r="4" fill="#0" id="circle150"/>
	<circle cx="281.086" cy="661.506" r="4" fill="#0" id="circle151"/>
	<circle cx="281.852" cy="754.123" r="4" fill="#0" id="circle152"/>
	<circle cx="283.383" cy="204.543" r="4" fill="#0" id="circle153"/>
	<circle cx="286.444" cy="212.198" r="4" fill="#0" id="circle154"/>
	<circle cx="287.975" cy="219.852" r="4" fill="#0" id="circle155"/>
	<circle cx="287.975" cy="665.333" r="4" fill="#0" id="circle156"/>
	<circle cx="287.975" cy="748" r="4" fill="#0" id="circle157"/>
	<circle cx="287.975" cy="766.37" r="4" fill="#0" id="circle158"/>
	<circle cx="292.568" cy="225.975" r="4" fill="#0" id="circle159"/>
	<circle cx="294.099" cy="743.407" r="4" fill="#0" id="circle160"/>
	<circle cx="294.864" cy="770.198" r="4" fill="#0" id="circle161"/>
	<circle cx="295.63" cy="233.63" r="4" fill="#0" id="circle162"/>
	<circle cx="295.63" cy="668.395" r="4" fill="#0" id="circle163"/>
	<circle cx="301.753" cy="238.222" r="4" fill="#0" id="circle164"/>
	<circle cx="301.753" cy="746.469" r="4" fill="#0" id="circle165"/>
	<circle cx="302.519" cy="672.222" r="4" fill="#0" id="circle166"/>
	<circle cx="302.519" cy="770.198" r="4" fill="#0" id="circle167"/>
	<circle cx="307.111" cy="244.346" r="4" fill="#0" id="circle168"/>
	<circle cx="309.407" cy="746.469" r="4" fill="#0" id="circle169"/>
	<circle cx="310.173" cy="674.519" r="4" fill="#0" id="circle170"/>
	<circle cx="310.173" cy="770.198" r="4" fill="#0" id="circle171"/>
	<circle cx="310.938" cy="251.235" r="4" fill="#0" id="circle172"/>
	<circle cx="316.296" cy="257.358" r="4" fill="#0" id="circle173"/>
	<circle cx="317.062" cy="746.469" r="4" fill="#0" id="circle174"/>
	<circle cx="317.827" cy="674.519" r="4" fill="#0" id="circle175"/>
	<circle cx="317.827" cy="770.198" r="4" fill="#0" id="circle176"/>
	<circle cx="322.42" cy="262.716" r="4" fill="#0" id="circle177"/>
	<circle cx="324.716" cy="678.346" r="4" fill="#0" id="circle178"/>
	<circle cx="324.716" cy="746.469" r="4" fill="#0" id="circle179"/>
	<circle cx="325.481" cy="770.198" r="4" fill="#0" id="circle180"/>
	<circle cx="327.778" cy="268.84" r="4" fill="#0" id="circle181"/>
	<circle cx="331.605" cy="682.173" r="4" fill="#0" id="circle182"/>
	<circle cx="332.37" cy="746.469" r="4" fill="#0" id="circle183"/>
	<circle cx="333.136" cy="770.198" r="4" fill="#0" id="circle184"/>
	<circle cx="335.432" cy="271.901" r="4" fill="#0" id="circle185"/>
	<circle cx="338.494" cy="686" r="4" fill="#0" id="circle186"/>
	<circle cx="340.025" cy="746.469" r="4" fill="#0" id="circle187"/>
	<circle cx="340.79" cy="278.025" r="4" fill="#0" id="circle188"/>
	<circle cx="340.79" cy="770.198" r="4" fill="#0" id="circle189"/>
	<circle cx="346.148" cy="686" r="4" fill="#0" id="circle190"/>
	<circle cx="346.914" cy="283.383" r="4" fill="#0" id="circle191"/>
	<circle cx="346.914" cy="742.642" r="4" fill="#0" id="circle192"/>
	<circle cx="347.679" cy="774.025" r="4" fill="#0" id="circle193"/>
	<circle cx="352.272" cy="289.506" r="4" fill="#0" id="circle194"/>
	<circle cx="353.037" cy="689.827" r="4" fill="#0" id="circle195"/>
	<circle cx="353.037" cy="736.519" r="4" fill="#0" id="circle196"/>
	<circle cx="355.333" cy="774.025" r="4" fill="#0" id="circle197"/>
	<circle cx="358.395" cy="294.864" r="4" fill="#0" id="circle198"/>
	<circle cx="359.16" cy="731.16" r="4" fill="#0" id="circle199"/>
	<circle cx="359.926" cy="693.654" r="4" fill="#0" id="circle200"/>
	<circle cx="362.222" cy="723.506" r="4" fill="#0" id="circle201"/>
	<circle cx="362.988" cy="774.025" r="4" fill="#0" id="circle202"/>
	<circle cx="363.753" cy="700.543" r="4" fill="#0" id="circle203"/>
	<circle cx="363.753" cy="708.198" r="4" fill="#0" id="circle204"/>
	<circle cx="363.753" cy="715.852" r="4" fill="#0" id="circle205"/>
	<circle cx="365.284" cy="298.691" r="4" fill="#0" id="circle206"/>
	<circle cx="370.642" cy="774.025" r="4" fill="#0" id="circle207"/>
	<circle cx="372.173" cy="302.519" r="4" fill="#0" id="circle208"/>
	<circle cx="378.296" cy="307.111" r="4" fill="#0" id="circle209"/>
	<circle cx="378.296" cy="774.025" r="4" fill="#0" id="circle210"/>
	<circle cx="385.185" cy="310.938" r="4" fill="#0" id="circle211"/>
	<circle cx="385.185" cy="777.852" r="4" fill="#0" id="circle212"/>
	<circle cx="391.309" cy="728.099" r="4" fill="#0" id="circle213"/>
	<circle cx="391.309" cy="735.753" r="4" fill="#0" id="circle214"/>
	<circle cx="391.309" cy="743.407" r="4" fill="#0" id="circle215"/>
	<circle cx="391.309" cy="751.062" r="4" fill="#0" id="circle216"/>
	<circle cx="391.309" cy="783.21" r="4" fill="#0" id="circle217"/>
	<circle cx="392.84" cy="314" r="4" fill="#0" id="circle218"/>
	<circle cx="395.136" cy="720.444" r="4" fill="#0" id="circle219"/>
	<circle cx="395.136" cy="757.951" r="4" fill="#0" id="circle220"/>
	<circle cx="398.198" cy="787.037" r="4" fill="#0" id="circle221"/>
	<circle cx="398.963" cy="712.79" r="4" fill="#0" id="circle222"/>
	<circle cx="398.963" cy="764.84" r="4" fill="#0" id="circle223"/>
	<circle cx="399.728" cy="317.827" r="4" fill="#0" id="circle224"/>
	<circle cx="402.79" cy="705.136" r="4" fill="#0" id="circle225"/>
	<circle cx="402.79" cy="771.728" r="4" fill="#0" id="circle226"/>
	<circle cx="404.321" cy="792.395" r="4" fill="#0" id="circle227"/>
	<circle cx="406.617" cy="321.654" r="4" fill="#0" id="circle228"/>
	<circle cx="406.617" cy="778.617" r="4" fill="#0" id="circle229"/>
	<circle cx="408.914" cy="699.778" r="4" fill="#0" id="circle230"/>
	<circle cx="409.679" cy="798.519" r="4" fill="#0" id="circle231"/>
	<circle cx="410.444" cy="785.506" r="4" fill="#0" id="circle232"/>
	<circle cx="413.506" cy="325.481" r="4" fill="#0" id="circle233"/>
	<circle cx="414.272" cy="693.654" r="4" fill="#0" id="circle234"/>
	<circle cx="421.16" cy="327.012" r="4" fill="#0" id="circle235"/>
	<circle cx="421.926" cy="689.827" r="4" fill="#0" id="circle236"/>
	<circle cx="428.049" cy="330.84" r="4" fill="#0" id="circle237"/>
	<circle cx="429.58" cy="689.827" r="4" fill="#0" id="circle238"/>
	<circle cx="435.704" cy="333.901" r="4" fill="#0" id="circle239"/>
	<circle cx="437.235" cy="689.827" r="4" fill="#0" id="circle240"/>
	<circle cx="442.593" cy="337.728" r="4" fill="#0" id="circle241"/>
	<circle cx="444.889" cy="689.827" r="4" fill="#0" id="circle242"/>
	<circle cx="450.247" cy="340.79" r="4" fill="#0" id="circle243"/>
	<circle cx="451.778" cy="693.654" r="4" fill="#0" id="circle244"/>
	<circle cx="457.136" cy="344.617" r="4" fill="#0" id="circle245"/>
	<circle cx="459.432" cy="693.654" r="4" fill="#0" id="circle246"/>
	<circle cx="464.025" cy="348.444" r="4" fill="#0" id="circle247"/>
	<circle cx="467.086" cy="693.654" r="4" fill="#0" id="circle248"/>
	<circle cx="471.679" cy="350.741" r="4" fill="#0" id="circle249"/>
	<circle cx="474.741" cy="693.654" r="4" fill="#0" id="circle250"/>
	<circle cx="479.333" cy="352.272" r="4" fill="#0" id="circle251"/>
	<circle cx="481.63" cy="697.481" r="4" fill="#0" id="circle252"/>
	<circle cx="486.222" cy="356.099" r="4" fill="#0" id="circle253"/>
	<circle cx="488.519" cy="693.654" r="4" fill="#0" id="circle254"/>
	<circle cx="493.111" cy="359.926" r="4" fill="#0" id="circle255"/>
	<circle cx="496.173" cy="692.889" r="4" fill="#0" id="circle256"/>
	<circle cx="500.765" cy="360.691" r="4" fill="#0" id="circle257"/>
	<circle cx="503.827" cy="689.827" r="4" fill="#0" id="circle258"/>
	<circle cx="507.654" cy="364.519" r="4" fill="#0" id="circle259"/>
	<circle cx="511.481" cy="689.062" r="4" fill="#0" id="circle260"/>
	<circle cx="515.309" cy="367.58" r="4" fill="#0" id="circle261"/>
	<circle cx="519.136" cy="686" r="4" fill="#0" id="circle262"/>
	<circle cx="522.198" cy="371.407" r="4" fill="#0" id="circle263"/>
	<circle cx="526.025" cy="682.173" r="4" fill="#0" id="circle264"/>
	<circle cx="529.086" cy="375.235" r="4" fill="#0" id="circle265"/>
	<circle cx="532.914" cy="678.346" r="4" fill="#0" id="circle266"/>
	<circle cx="535.975" cy="379.062" r="4" fill="#0" id="circle267"/>
	<circle cx="540.568" cy="674.519" r="4" fill="#0" id="circle268"/>
	<circle cx="543.63" cy="380.593" r="4" fill="#0" id="circle269"/>
	<circle cx="548.222" cy="670.691" r="4" fill="#0" id="circle270"/>
	<circle cx="550.519" cy="384.42" r="4" fill="#0" id="circle271"/>
	<circle cx="555.877" cy="663.037" r="4" fill="#0" id="circle272"/>
	<circle cx="558.173" cy="387.481" r="4" fill="#0" id="circle273"/>
	<circle cx="563.531" cy="659.21" r="4" fill="#0" id="circle274"/>
	<circle cx="565.827" cy="390.543" r="4" fill="#0" id="circle275"/>
	<circle cx="571.185" cy="659.21" r="4" fill="#0" id="circle276"/>
	<circle cx="572.716" cy="394.37" r="4" fill="#0" id="circle277"/>
	<circle cx="577.309" cy="653.852" r="4" fill="#0" id="circle278"/>
	<circle cx="579.605" cy="398.198" r="4" fill="#0" id="circle279"/>
	<circle cx="582.667" cy="647.728" r="4" fill="#0" id="circle280"/>
	<circle cx="586.494" cy="402.025" r="4" fill="#0" id="circle281"/>
	<circle cx="590.321" cy="647.728" r="4" fill="#0" id="circle282"/>
	<circle cx="594.148" cy="404.321" r="4" fill="#0" id="circle283"/>
	<circle cx="596.444" cy="642.37" r="4" fill="#0" id="circle284"/>
	<circle cx="601.037" cy="408.148" r="4" fill="#0" id="circle285"/>
	<circle cx="604.099" cy="638.543" r="4" fill="#0" id="circle286"/>
	<circle cx="608.691" cy="409.679" r="4" fill="#0" id="circle287"/>
	<circle cx="611.753" cy="634.716" r="4" fill="#0" id="circle288"/>
	<circle cx="615.58" cy="413.506" r="4" fill="#0" id="circle289"/>
	<circle cx="619.407" cy="630.889" r="4" fill="#0" id="circle290"/>
	<circle cx="623.235" cy="414.272" r="4" fill="#0" id="circle291"/>
	<circle cx="627.062" cy="627.062" r="4" fill="#0" id="circle292"/>
	<circle cx="630.123" cy="418.099" r="4" fill="#0" id="circle293"/>
	<circle cx="632.42" cy="620.938" r="4" fill="#0" id="circle294"/>
	<circle cx="637.778" cy="421.16" r="4" fill="#0" id="circle295"/>
	<circle cx="639.309" cy="617.111" r="4" fill="#0" id="circle296"/>
	<circle cx="644.667" cy="424.988" r="4" fill="#0" id="circle297"/>
	<circle cx="646.198" cy="613.284" r="4" fill="#0" id="circle298"/>
	<circle cx="651.556" cy="428.815" r="4" fill="#0" id="circle299"/>
	<circle cx="653.852" cy="613.284" r="4" fill="#0" id="circle300"/>
	<circle cx="659.21" cy="431.111" r="4" fill="#0" id="circle301"/>
	<circle cx="660.741" cy="609.457" r="4" fill="#0" id="circle302"/>
	<circle cx="666.099" cy="434.938" r="4" fill="#0" id="circle303"/>
	<circle cx="668.395" cy="609.457" r="4" fill="#0" id="circle304"/>
	<circle cx="673.753" cy="438" r="4" fill="#0" id="circle305"/>
	<circle cx="676.049" cy="609.457" r="4" fill="#0" id="circle306"/>
	<circle cx="681.407" cy="440.296" r="4" fill="#0" id="circle307"/>
	<circle cx="683.704" cy="609.457" r="4" fill="#0" id="circle308"/>
	<circle cx="689.062" cy="440.296" r="4" fill="#0" id="circle309"/>
	<circle cx="691.358" cy="609.457" r="4" fill="#0" id="circle310"/>
	<circle cx="696.716" cy="441.827" r="4" fill="#0" id="circle311"/>
	<circle cx="699.012" cy="608.691" r="4" fill="#0" id="circle312"/>
	<circle cx="704.37" cy="444.123" r="4" fill="#0" id="circle313"/>
	<circle cx="706.667" cy="605.63" r="4" fill="#0" id="circle314"/>
	<circle cx="711.259" cy="447.951" r="4" fill="#0" id="circle315"/>
	<circle cx="714.321" cy="605.63" r="4" fill="#0" id="circle316"/>
	<circle cx="718.914" cy="447.951" r="4" fill="#0" id="circle317"/>
	<circle cx="721.975" cy="605.63" r="4" fill="#0" id="circle318"/>
	<circle cx="725.802" cy="451.778" r="4" fill="#0" id="circle319"/>
	<circle cx="728.864" cy="609.457" r="4" fill="#0" id="circle320"/>
	<circle cx="733.457" cy="451.778" r="4" fill="#0" id="circle321"/>
	<circle cx="736.519" cy="609.457" r="4" fill="#0" id="circle322"/>
	<circle cx="741.111" cy="451.778" r="4" fill="#0" id="circle323"/>
	<circle cx="743.407" cy="613.284" r="4" fill="#0" id="circle324"/>
	<circle cx="748.765" cy="451.778" r="4" fill="#0" id="circle325"/>
	<circle cx="751.062" cy="614.815" r="4" fill="#0" id="circle326"/>
	<circle cx="756.42" cy="451.778" r="4" fill="#0" id="circle327"/>
	<circle cx="757.951" cy="618.642" r="4" fill="#0" id="circle328"/>
	<circle cx="764.074" cy="451.778" r="4" fill="#0" id="circle329"/>
	<circle cx="765.605" cy="620.938" r="4" fill="#0" id="circle330"/>
	<circle cx="771.728" cy="451.778" r="4" fill="#0" id="circle331"/>
	<circle cx="773.259" cy="620.938" r="4" fill="#0" id="circle332"/>
	<circle cx="778.617" cy="455.605" r="4" fill="#0" id="circle333"/>
	<circle cx="780.148" cy="624.765" r="4" fill="#0" id="circle334"/>
	<circle cx="786.272" cy="455.605" r="4" fill="#0" id="circle335"/>
	<circle cx="787.037" cy="628.593" r="4" fill="#0" id="circle336"/>
	<circle cx="793.16" cy="459.432" r="4" fill="#0" id="circle337"/>
	<circle cx="794.691" cy="631.654" r="4" fill="#0" id="circle338"/>
	<circle cx="800.815" cy="459.432" r="4" fill="#0" id="circle339"/>
	<circle cx="802.346" cy="632.42" r="4" fill="#0" id="circle340"/>
	<circle cx="808.469" cy="459.432" r="4" fill="#0" id="circle341"/>
	<circle cx="809.235" cy="636.247" r="4" fill="#0" id="circle342"/>
	<circle cx="816.123" cy="461.728" r="4" fill="#0" id="circle343"/>
	<circle cx="816.889" cy="636.247" r="4" fill="#0" id="circle344"/>
	<circle cx="823.778" cy="459.432" r="4" fill="#0" id="circle345"/>
	<circle cx="823.778" cy="640.074" r="4" fill="#0" id="circle346"/>
	<circle cx="831.432" cy="459.432" r="4" fill="#0" id="circle347"/>
	<circle cx="831.432" cy="641.605" r="4" fill="#0" id="circle348"/>
	<circle cx="839.086" cy="459.432" r="4" fill="#0" id="circle349"/>
	<circle cx="839.086" cy="643.901" r="4" fill="#0" id="circle350"/>
	<circle cx="845.975" cy="647.728" r="4" fill="#0" id="circle351"/>
	<circle cx="846.741" cy="459.432" r="4" fill="#0" id="circle352"/>
	<circle cx="853.63" cy="647.728" r="4" fill="#0" id="circle353"/>
	<circle cx="854.395" cy="459.432" r="4" fill="#0" id="circle354"/>
	<circle cx="860.519" cy="651.556" r="4" fill="#0" id="circle355"/>
	<circle cx="862.049" cy="459.432" r="4" fill="#0" id="circle356"/>
	<circle cx="867.407" cy="655.383" r="4" fill="#0" id="circle357"/>
	<circle cx="869.704" cy="459.432" r="4" fill="#0" id="circle358"/>
	<circle cx="875.062" cy="655.383" r="4" fill="#0" id="circle359"/>
	<circle cx="877.358" cy="459.432" r="4" fill="#0" id="circle360"/>
	<circle cx="882.716" cy="655.383" r="4" fill="#0" id="circle361"/>
	<circle cx="885.012" cy="459.432" r="4" fill="#0" id="circle362"/>
	<circle cx="889.605" cy="659.21" r="4" fill="#0" id="circle363"/>
	<circle cx="892.667" cy="461.728" r="4" fill="#0" id="circle364"/>
	<circle cx="897.259" cy="659.21" r="4" fill="#0" id="circle365"/>
	<circle cx="900.321" cy="463.259" r="4" fill="#0" id="circle366"/>
	<circle cx="904.914" cy="659.21" r="4" fill="#0" id="circle367"/>
	<circle cx="907.975" cy="463.259" r="4" fill="#0" id="circle368"/>
	<circle cx="912.568" cy="659.21" r="4" fill="#0" id="circle369"/>
	<circle cx="915.63" cy="463.259" r="4" fill="#0" id="circle370"/>
	<circle cx="920.222" cy="659.21" r="4" fill="#0" id="circle371"/>
	<circle cx="923.284" cy="463.259" r="4" fill="#0" id="circle372"/>
	<circle cx="927.877" cy="659.21" r="4" fill="#0" id="circle373"/>
	<circle cx="930.173" cy="467.086" r="4" fill="#0" id="circle374"/>
	<circle cx="934.765" cy="490.815" r="4" fill="#0" id="circle375"/>
	<circle cx="934.765" cy="655.383" r="4" fill="#0" id="circle376"/>
	<circle cx="936.296" cy="471.679" r="4" fill="#0" id="circle377"/>
	<circle cx="938.593" cy="479.333" r="4" fill="#0" id="circle378"/>
	<circle cx="942.42" cy="493.877" r="4" fill="#0" id="circle379"/>
	<circle cx="942.42" cy="536.741" r="4" fill="#0" id="circle380"/>
	<circle cx="942.42" cy="651.556" r="4" fill="#0" id="circle381"/>
	<circle cx="949.309" cy="497.704" r="4" fill="#0" id="circle382"/>
	<circle cx="950.074" cy="532.914" r="4" fill="#0" id="circle383"/>
	<circle cx="950.074" cy="651.556" r="4" fill="#0" id="circle384"/>
	<circle cx="951.605" cy="540.568" r="4" fill="#0" id="circle385"/>
	<circle cx="955.432" cy="502.296" r="4" fill="#0" id="circle386"/>
	<circle cx="956.963" cy="647.728" r="4" fill="#0" id="circle387"/>
	<circle cx="957.728" cy="529.086" r="4" fill="#0" id="circle388"/>
	<circle cx="959.259" cy="543.63" r="4" fill="#0" id="circle389"/>
	<circle cx="961.556" cy="507.654" r="4" fill="#0" id="circle390"/>
	<circle cx="963.852" cy="643.901" r="4" fill="#0" id="circle391"/>
	<circle cx="965.383" cy="514.543" r="4" fill="#0" id="circle392"/>
	<circle cx="965.383" cy="522.198" r="4" fill="#0" id="circle393"/>
	<circle cx="966.914" cy="543.63" r="4" fill="#0" id="circle394"/>
	<circle cx="970.741" cy="639.309" r="4" fill="#0" id="circle395"/>
	<circle cx="972.272" cy="549.753" r="4" fill="#0" id="circle396"/>
	<circle cx="973.037" cy="628.593" r="4" fill="#0" id="circle397"/>
	<circle cx="979.16" cy="623.235" r="4" fill="#0" id="circle398"/>
	<circle cx="979.926" cy="551.284" r="4" fill="#0" id="circle399"/>
	<circle cx="980.691" cy="601.802" r="4" fill="#0" id="circle400"/>
	<circle cx="980.691" cy="609.457" r="4" fill="#0" id="circle401"/>
	<circle cx="986.049" cy="555.877" r="4" fill="#0" id="circle402"/>
	<circle cx="988.346" cy="597.975" r="4" fill="#0" id="circle403"/>
	<circle cx="992.173" cy="561.235" r="4" fill="#0" id="circle404"/>
	<circle cx="994.469" cy="592.617" r="4" fill="#0" id="circle405"/>
	<circle cx="996" cy="568.123" r="4" fill="#0" id="circle406"/>
	<circle cx="996" cy="575.778" r="4" fill="#0" id="circle407"/>
	<circle cx="996" cy="583.432" r="4" fill="#0" id="circle408"/>
	</g>
</svg>