<?xml version="1.0" encoding="UTF-8" standalone="no"?>
<!-- Created with CurveBenchmark -->
<svg
	xmlns:dc="http://purl.org/dc/elements/1.1/"
	xmlns:cc="http://creativecommons.org/ns#"
	xmlns:rdf="http://www.w3.org/1999/02/22-rdf-syntax-ns#"
	xmlns:svg="http://www.w3.org/2000/svg"
	xmlns="http://www.w3.org/2000/svg"
	xmlns:sodipodi="http://sodipodi.sourceforge.net/DTD/sodipodi-0.dtd"
	xmlns:inkscape="http://www.inkscape.org/namespaces/inkscape"
	width="1000"
	height="1000"
	id="svg2"
	version="1.1"
	sodipodi:docname="manifold/vicur-textbox24.png.txt">
<defs
	id="defs4" />
<metadata
	id="metadata7">
	<rdf:RDF>
		<cc:Work
			rdf:about="">
			<dc:format>image/svg+xml</dc:format>
			<dc:type
				rdf:resource="http://purl.org/dc/dcmitype/StillImage" />
			<dc:title></dc:title>
		</cc:Work>
	</rdf:RDF>
</metadata>
<g
	inkscape:label="Layer 1"
	inkscape:groupmode="layer"
	id="layer1">
	<path style="fill:none;stroke:red;stroke-width:1px;stroke-linecap:butt;stroke-linejoin:miter;stroke-opacity:1" d="M 4,50.4684 16.1222,66.6314 z" id="boundary" inkscape:connector-curvature="0" />
	<path style="fill:none;stroke:red;stroke-width:1px;stroke-linecap:butt;stroke-linejoin:miter;stroke-opacity:1" d="M 4,50.4684 24.2037,40.3666 z" id="boundary" inkscape:connector-curvature="0" />
	<path style="fill:none;stroke:red;stroke-width:1px;stroke-linecap:butt;stroke-linejoin:miter;stroke-opacity:1" d="M 16.1222,66.6314 24.2037,86.835 z" id="boundary" inkscape:connector-curvature="0" />
	<path style="fill:none;stroke:red;stroke-width:1px;stroke-linecap:butt;stroke-linejoin:miter;stroke-opacity:1" d="M 24.2037,40.3666 44.4073,34.3055 z" id="boundary" inkscape:connector-curvature="0" />
	<path style="fill:none;stroke:red;stroke-width:1px;stroke-linecap:butt;stroke-linejoin:miter;stroke-opacity:1" d="M 24.2037,86.835 24.2037,107.039 z" id="boundary" inkscape:connector-curvature="0" />
	<path style="fill:none;stroke:red;stroke-width:1px;stroke-linecap:butt;stroke-linejoin:miter;stroke-opacity:1" d="M 24.2037,107.039 24.2037,127.242 z" id="boundary" inkscape:connector-curvature="0" />
	<path style="fill:none;stroke:red;stroke-width:1px;stroke-linecap:butt;stroke-linejoin:miter;stroke-opacity:1" d="M 24.2037,127.242 24.2037,147.446 z" id="boundary" inkscape:connector-curvature="0" />
	<path style="fill:none;stroke:red;stroke-width:1px;stroke-linecap:butt;stroke-linejoin:miter;stroke-opacity:1" d="M 24.2037,147.446 24.2037,167.65 z" id="boundary" inkscape:connector-curvature="0" />
	<path style="fill:none;stroke:red;stroke-width:1px;stroke-linecap:butt;stroke-linejoin:miter;stroke-opacity:1" d="M 24.2037,167.65 24.2037,187.853 z" id="boundary" inkscape:connector-curvature="0" />
	<path style="fill:none;stroke:red;stroke-width:1px;stroke-linecap:butt;stroke-linejoin:miter;stroke-opacity:1" d="M 24.2037,187.853 24.2037,208.057 z" id="boundary" inkscape:connector-curvature="0" />
	<path style="fill:none;stroke:red;stroke-width:1px;stroke-linecap:butt;stroke-linejoin:miter;stroke-opacity:1" d="M 24.2037,208.057 24.2037,228.261 z" id="boundary" inkscape:connector-curvature="0" />
	<path style="fill:none;stroke:red;stroke-width:1px;stroke-linecap:butt;stroke-linejoin:miter;stroke-opacity:1" d="M 24.2037,228.261 24.2037,248.464 z" id="boundary" inkscape:connector-curvature="0" />
	<path style="fill:none;stroke:red;stroke-width:1px;stroke-linecap:butt;stroke-linejoin:miter;stroke-opacity:1" d="M 24.2037,248.464 24.2037,268.668 z" id="boundary" inkscape:connector-curvature="0" />
	<path style="fill:none;stroke:red;stroke-width:1px;stroke-linecap:butt;stroke-linejoin:miter;stroke-opacity:1" d="M 24.2037,268.668 24.2037,288.872 z" id="boundary" inkscape:connector-curvature="0" />
	<path style="fill:none;stroke:red;stroke-width:1px;stroke-linecap:butt;stroke-linejoin:miter;stroke-opacity:1" d="M 24.2037,288.872 24.2037,309.075 z" id="boundary" inkscape:connector-curvature="0" />
	<path style="fill:none;stroke:red;stroke-width:1px;stroke-linecap:butt;stroke-linejoin:miter;stroke-opacity:1" d="M 24.2037,309.075 24.2037,329.279 z" id="boundary" inkscape:connector-curvature="0" />
	<path style="fill:none;stroke:red;stroke-width:1px;stroke-linecap:butt;stroke-linejoin:miter;stroke-opacity:1" d="M 24.2037,329.279 24.2037,349.483 z" id="boundary" inkscape:connector-curvature="0" />
	<path style="fill:none;stroke:red;stroke-width:1px;stroke-linecap:butt;stroke-linejoin:miter;stroke-opacity:1" d="M 24.2037,349.483 24.2037,369.686 z" id="boundary" inkscape:connector-curvature="0" />
	<path style="fill:none;stroke:red;stroke-width:1px;stroke-linecap:butt;stroke-linejoin:miter;stroke-opacity:1" d="M 24.2037,369.686 24.2037,389.89 z" id="boundary" inkscape:connector-curvature="0" />
	<path style="fill:none;stroke:red;stroke-width:1px;stroke-linecap:butt;stroke-linejoin:miter;stroke-opacity:1" d="M 24.2037,389.89 24.2037,410.094 z" id="boundary" inkscape:connector-curvature="0" />
	<path style="fill:none;stroke:red;stroke-width:1px;stroke-linecap:butt;stroke-linejoin:miter;stroke-opacity:1" d="M 24.2037,410.094 24.2037,430.297 z" id="boundary" inkscape:connector-curvature="0" />
	<path style="fill:none;stroke:red;stroke-width:1px;stroke-linecap:butt;stroke-linejoin:miter;stroke-opacity:1" d="M 24.2037,430.297 24.2037,450.501 z" id="boundary" inkscape:connector-curvature="0" />
	<path style="fill:none;stroke:red;stroke-width:1px;stroke-linecap:butt;stroke-linejoin:miter;stroke-opacity:1" d="M 24.2037,450.501 24.2037,470.705 z" id="boundary" inkscape:connector-curvature="0" />
	<path style="fill:none;stroke:red;stroke-width:1px;stroke-linecap:butt;stroke-linejoin:miter;stroke-opacity:1" d="M 24.2037,470.705 34.3055,488.888 z" id="boundary" inkscape:connector-curvature="0" />
	<path style="fill:none;stroke:red;stroke-width:1px;stroke-linecap:butt;stroke-linejoin:miter;stroke-opacity:1" d="M 34.3055,488.888 34.3055,509.092 z" id="boundary" inkscape:connector-curvature="0" />
	<path style="fill:none;stroke:red;stroke-width:1px;stroke-linecap:butt;stroke-linejoin:miter;stroke-opacity:1" d="M 34.3055,509.092 34.3055,529.295 z" id="boundary" inkscape:connector-curvature="0" />
	<path style="fill:none;stroke:red;stroke-width:1px;stroke-linecap:butt;stroke-linejoin:miter;stroke-opacity:1" d="M 34.3055,529.295 34.3055,549.499 z" id="boundary" inkscape:connector-curvature="0" />
	<path style="fill:none;stroke:red;stroke-width:1px;stroke-linecap:butt;stroke-linejoin:miter;stroke-opacity:1" d="M 34.3055,549.499 34.3055,569.703 z" id="boundary" inkscape:connector-curvature="0" />
	<path style="fill:none;stroke:red;stroke-width:1px;stroke-linecap:butt;stroke-linejoin:miter;stroke-opacity:1" d="M 34.3055,569.703 34.3055,589.906 z" id="boundary" inkscape:connector-curvature="0" />
	<path style="fill:none;stroke:red;stroke-width:1px;stroke-linecap:butt;stroke-linejoin:miter;stroke-opacity:1" d="M 34.3055,589.906 34.3055,610.11 z" id="boundary" inkscape:connector-curvature="0" />
	<path style="fill:none;stroke:red;stroke-width:1px;stroke-linecap:butt;stroke-linejoin:miter;stroke-opacity:1" d="M 34.3055,610.11 50.4684,622.232 z" id="boundary" inkscape:connector-curvature="0" />
	<path style="fill:none;stroke:red;stroke-width:1px;stroke-linecap:butt;stroke-linejoin:miter;stroke-opacity:1" d="M 44.4073,34.3055 64.611,34.3055 z" id="boundary" inkscape:connector-curvature="0" />
	<path style="fill:none;stroke:red;stroke-width:1px;stroke-linecap:butt;stroke-linejoin:miter;stroke-opacity:1" d="M 50.4684,622.232 70.6721,622.232 z" id="boundary" inkscape:connector-curvature="0" />
	<path style="fill:none;stroke:red;stroke-width:1px;stroke-linecap:butt;stroke-linejoin:miter;stroke-opacity:1" d="M 64.611,34.3055 84.8147,34.3055 z" id="boundary" inkscape:connector-curvature="0" />
	<path style="fill:none;stroke:red;stroke-width:1px;stroke-linecap:butt;stroke-linejoin:miter;stroke-opacity:1" d="M 70.6721,622.232 90.8758,622.232 z" id="boundary" inkscape:connector-curvature="0" />
	<path style="fill:none;stroke:red;stroke-width:1px;stroke-linecap:butt;stroke-linejoin:miter;stroke-opacity:1" d="M 84.8147,34.3055 105.018,34.3055 z" id="boundary" inkscape:connector-curvature="0" />
	<path style="fill:none;stroke:red;stroke-width:1px;stroke-linecap:butt;stroke-linejoin:miter;stroke-opacity:1" d="M 90.8758,622.232 111.079,622.232 z" id="boundary" inkscape:connector-curvature="0" />
	<path style="fill:none;stroke:red;stroke-width:1px;stroke-linecap:butt;stroke-linejoin:miter;stroke-opacity:1" d="M 105.018,34.3055 125.222,34.3055 z" id="boundary" inkscape:connector-curvature="0" />
	<path style="fill:none;stroke:red;stroke-width:1px;stroke-linecap:butt;stroke-linejoin:miter;stroke-opacity:1" d="M 111.079,622.232 131.283,622.232 z" id="boundary" inkscape:connector-curvature="0" />
	<path style="fill:none;stroke:red;stroke-width:1px;stroke-linecap:butt;stroke-linejoin:miter;stroke-opacity:1" d="M 125.222,34.3055 145.426,34.3055 z" id="boundary" inkscape:connector-curvature="0" />
	<path style="fill:none;stroke:red;stroke-width:1px;stroke-linecap:butt;stroke-linejoin:miter;stroke-opacity:1" d="M 131.283,622.232 151.487,622.232 z" id="boundary" inkscape:connector-curvature="0" />
	<path style="fill:none;stroke:red;stroke-width:1px;stroke-linecap:butt;stroke-linejoin:miter;stroke-opacity:1" d="M 145.426,34.3055 165.629,34.3055 z" id="boundary" inkscape:connector-curvature="0" />
	<path style="fill:none;stroke:red;stroke-width:1px;stroke-linecap:butt;stroke-linejoin:miter;stroke-opacity:1" d="M 151.487,622.232 171.69,622.232 z" id="boundary" inkscape:connector-curvature="0" />
	<path style="fill:none;stroke:red;stroke-width:1px;stroke-linecap:butt;stroke-linejoin:miter;stroke-opacity:1" d="M 165.629,34.3055 185.833,34.3055 z" id="boundary" inkscape:connector-curvature="0" />
	<path style="fill:none;stroke:red;stroke-width:1px;stroke-linecap:butt;stroke-linejoin:miter;stroke-opacity:1" d="M 171.69,622.232 191.894,622.232 z" id="boundary" inkscape:connector-curvature="0" />
	<path style="fill:none;stroke:red;stroke-width:1px;stroke-linecap:butt;stroke-linejoin:miter;stroke-opacity:1" d="M 185.833,34.3055 206.037,34.3055 z" id="boundary" inkscape:connector-curvature="0" />
	<path style="fill:none;stroke:red;stroke-width:1px;stroke-linecap:butt;stroke-linejoin:miter;stroke-opacity:1" d="M 191.894,622.232 195.935,642.436 z" id="boundary" inkscape:connector-curvature="0" />
	<path style="fill:none;stroke:red;stroke-width:1px;stroke-linecap:butt;stroke-linejoin:miter;stroke-opacity:1" d="M 195.935,642.436 214.118,652.538 z" id="boundary" inkscape:connector-curvature="0" />
	<path style="fill:none;stroke:red;stroke-width:1px;stroke-linecap:butt;stroke-linejoin:miter;stroke-opacity:1" d="M 206.037,34.3055 226.24,34.3055 z" id="boundary" inkscape:connector-curvature="0" />
	<path style="fill:none;stroke:red;stroke-width:1px;stroke-linecap:butt;stroke-linejoin:miter;stroke-opacity:1" d="M 214.118,652.538 222.2,672.741 z" id="boundary" inkscape:connector-curvature="0" />
	<path style="fill:none;stroke:red;stroke-width:1px;stroke-linecap:butt;stroke-linejoin:miter;stroke-opacity:1" d="M 222.2,672.741 240.383,682.843 z" id="boundary" inkscape:connector-curvature="0" />
	<path style="fill:none;stroke:red;stroke-width:1px;stroke-linecap:butt;stroke-linejoin:miter;stroke-opacity:1" d="M 226.24,34.3055 246.444,34.3055 z" id="boundary" inkscape:connector-curvature="0" />
	<path style="fill:none;stroke:red;stroke-width:1px;stroke-linecap:butt;stroke-linejoin:miter;stroke-opacity:1" d="M 240.383,682.843 246.444,703.047 z" id="boundary" inkscape:connector-curvature="0" />
	<path style="fill:none;stroke:red;stroke-width:1px;stroke-linecap:butt;stroke-linejoin:miter;stroke-opacity:1" d="M 246.444,34.3055 258.566,18.1426 z" id="boundary" inkscape:connector-curvature="0" />
	<path style="fill:none;stroke:red;stroke-width:1px;stroke-linecap:butt;stroke-linejoin:miter;stroke-opacity:1" d="M 246.444,703.047 258.566,719.21 z" id="boundary" inkscape:connector-curvature="0" />
	<path style="fill:none;stroke:red;stroke-width:1px;stroke-linecap:butt;stroke-linejoin:miter;stroke-opacity:1" d="M 258.566,18.1426 278.77,14.1018 z" id="boundary" inkscape:connector-curvature="0" />
	<path style="fill:none;stroke:red;stroke-width:1px;stroke-linecap:butt;stroke-linejoin:miter;stroke-opacity:1" d="M 258.566,719.21 276.749,729.312 z" id="boundary" inkscape:connector-curvature="0" />
	<path style="fill:none;stroke:red;stroke-width:1px;stroke-linecap:butt;stroke-linejoin:miter;stroke-opacity:1" d="M 276.749,729.312 286.851,747.495 z" id="boundary" inkscape:connector-curvature="0" />
	<path style="fill:none;stroke:red;stroke-width:1px;stroke-linecap:butt;stroke-linejoin:miter;stroke-opacity:1" d="M 278.77,14.1018 298.974,14.1018 z" id="boundary" inkscape:connector-curvature="0" />
	<path style="fill:none;stroke:red;stroke-width:1px;stroke-linecap:butt;stroke-linejoin:miter;stroke-opacity:1" d="M 286.851,747.495 286.851,767.699 z" id="boundary" inkscape:connector-curvature="0" />
	<path style="fill:none;stroke:red;stroke-width:1px;stroke-linecap:butt;stroke-linejoin:miter;stroke-opacity:1" d="M 286.851,767.699 303.014,781.841 z" id="boundary" inkscape:connector-curvature="0" />
	<path style="fill:none;stroke:red;stroke-width:1px;stroke-linecap:butt;stroke-linejoin:miter;stroke-opacity:1" d="M 298.974,14.1018 319.177,14.1018 z" id="boundary" inkscape:connector-curvature="0" />
	<path style="fill:none;stroke:red;stroke-width:1px;stroke-linecap:butt;stroke-linejoin:miter;stroke-opacity:1" d="M 303.014,781.841 323.218,771.739 z" id="boundary" inkscape:connector-curvature="0" />
	<path style="fill:none;stroke:red;stroke-width:1px;stroke-linecap:butt;stroke-linejoin:miter;stroke-opacity:1" d="M 319.177,14.1018 339.381,14.1018 z" id="boundary" inkscape:connector-curvature="0" />
	<path style="fill:none;stroke:red;stroke-width:1px;stroke-linecap:butt;stroke-linejoin:miter;stroke-opacity:1" d="M 323.218,771.739 333.32,753.556 z" id="boundary" inkscape:connector-curvature="0" />
	<path style="fill:none;stroke:red;stroke-width:1px;stroke-linecap:butt;stroke-linejoin:miter;stroke-opacity:1" d="M 333.32,753.556 349.483,723.251 z" id="boundary" inkscape:connector-curvature="0" />
	<path style="fill:none;stroke:red;stroke-width:1px;stroke-linecap:butt;stroke-linejoin:miter;stroke-opacity:1" d="M 339.381,14.1018 359.585,14.1018 z" id="boundary" inkscape:connector-curvature="0" />
	<path style="fill:none;stroke:red;stroke-width:1px;stroke-linecap:butt;stroke-linejoin:miter;stroke-opacity:1" d="M 349.483,723.251 367.666,713.149 z" id="boundary" inkscape:connector-curvature="0" />
	<path style="fill:none;stroke:red;stroke-width:1px;stroke-linecap:butt;stroke-linejoin:miter;stroke-opacity:1" d="M 359.585,14.1018 379.788,14.1018 z" id="boundary" inkscape:connector-curvature="0" />
	<path style="fill:none;stroke:red;stroke-width:1px;stroke-linecap:butt;stroke-linejoin:miter;stroke-opacity:1" d="M 367.666,713.149 383.829,701.026 z" id="boundary" inkscape:connector-curvature="0" />
	<path style="fill:none;stroke:red;stroke-width:1px;stroke-linecap:butt;stroke-linejoin:miter;stroke-opacity:1" d="M 379.788,14.1018 399.992,14.1018 z" id="boundary" inkscape:connector-curvature="0" />
	<path style="fill:none;stroke:red;stroke-width:1px;stroke-linecap:butt;stroke-linejoin:miter;stroke-opacity:1" d="M 383.829,701.026 389.89,672.741 z" id="boundary" inkscape:connector-curvature="0" />
	<path style="fill:none;stroke:red;stroke-width:1px;stroke-linecap:butt;stroke-linejoin:miter;stroke-opacity:1" d="M 389.89,672.741 410.094,652.538 z" id="boundary" inkscape:connector-curvature="0" />
	<path style="fill:none;stroke:red;stroke-width:1px;stroke-linecap:butt;stroke-linejoin:miter;stroke-opacity:1" d="M 399.992,14.1018 420.196,14.1018 z" id="boundary" inkscape:connector-curvature="0" />
	<path style="fill:none;stroke:red;stroke-width:1px;stroke-linecap:butt;stroke-linejoin:miter;stroke-opacity:1" d="M 410.094,652.538 420.196,622.232 z" id="boundary" inkscape:connector-curvature="0" />
	<path style="fill:none;stroke:red;stroke-width:1px;stroke-linecap:butt;stroke-linejoin:miter;stroke-opacity:1" d="M 420.196,14.1018 440.399,14.1018 z" id="boundary" inkscape:connector-curvature="0" />
	<path style="fill:none;stroke:red;stroke-width:1px;stroke-linecap:butt;stroke-linejoin:miter;stroke-opacity:1" d="M 420.196,622.232 440.399,612.13 z" id="boundary" inkscape:connector-curvature="0" />
	<path style="fill:none;stroke:red;stroke-width:1px;stroke-linecap:butt;stroke-linejoin:miter;stroke-opacity:1" d="M 440.399,14.1018 460.603,14.1018 z" id="boundary" inkscape:connector-curvature="0" />
	<path style="fill:none;stroke:red;stroke-width:1px;stroke-linecap:butt;stroke-linejoin:miter;stroke-opacity:1" d="M 440.399,612.13 460.603,612.13 z" id="boundary" inkscape:connector-curvature="0" />
	<path style="fill:none;stroke:red;stroke-width:1px;stroke-linecap:butt;stroke-linejoin:miter;stroke-opacity:1" d="M 460.603,14.1018 480.807,14.1018 z" id="boundary" inkscape:connector-curvature="0" />
	<path style="fill:none;stroke:red;stroke-width:1px;stroke-linecap:butt;stroke-linejoin:miter;stroke-opacity:1" d="M 460.603,612.13 480.807,612.13 z" id="boundary" inkscape:connector-curvature="0" />
	<path style="fill:none;stroke:red;stroke-width:1px;stroke-linecap:butt;stroke-linejoin:miter;stroke-opacity:1" d="M 480.807,14.1018 501.01,14.1018 z" id="boundary" inkscape:connector-curvature="0" />
	<path style="fill:none;stroke:red;stroke-width:1px;stroke-linecap:butt;stroke-linejoin:miter;stroke-opacity:1" d="M 480.807,612.13 501.01,612.13 z" id="boundary" inkscape:connector-curvature="0" />
	<path style="fill:none;stroke:red;stroke-width:1px;stroke-linecap:butt;stroke-linejoin:miter;stroke-opacity:1" d="M 501.01,14.1018 521.214,14.1018 z" id="boundary" inkscape:connector-curvature="0" />
	<path style="fill:none;stroke:red;stroke-width:1px;stroke-linecap:butt;stroke-linejoin:miter;stroke-opacity:1" d="M 501.01,612.13 521.214,612.13 z" id="boundary" inkscape:connector-curvature="0" />
	<path style="fill:none;stroke:red;stroke-width:1px;stroke-linecap:butt;stroke-linejoin:miter;stroke-opacity:1" d="M 521.214,14.1018 541.418,14.1018 z" id="boundary" inkscape:connector-curvature="0" />
	<path style="fill:none;stroke:red;stroke-width:1px;stroke-linecap:butt;stroke-linejoin:miter;stroke-opacity:1" d="M 521.214,612.13 541.418,612.13 z" id="boundary" inkscape:connector-curvature="0" />
	<path style="fill:none;stroke:red;stroke-width:1px;stroke-linecap:butt;stroke-linejoin:miter;stroke-opacity:1" d="M 541.418,14.1018 561.621,14.1018 z" id="boundary" inkscape:connector-curvature="0" />
	<path style="fill:none;stroke:red;stroke-width:1px;stroke-linecap:butt;stroke-linejoin:miter;stroke-opacity:1" d="M 541.418,612.13 561.621,612.13 z" id="boundary" inkscape:connector-curvature="0" />
	<path style="fill:none;stroke:red;stroke-width:1px;stroke-linecap:butt;stroke-linejoin:miter;stroke-opacity:1" d="M 561.621,14.1018 581.825,14.1018 z" id="boundary" inkscape:connector-curvature="0" />
	<path style="fill:none;stroke:red;stroke-width:1px;stroke-linecap:butt;stroke-linejoin:miter;stroke-opacity:1" d="M 561.621,612.13 581.825,612.13 z" id="boundary" inkscape:connector-curvature="0" />
	<path style="fill:none;stroke:red;stroke-width:1px;stroke-linecap:butt;stroke-linejoin:miter;stroke-opacity:1" d="M 581.825,14.1018 602.029,14.1018 z" id="boundary" inkscape:connector-curvature="0" />
	<path style="fill:none;stroke:red;stroke-width:1px;stroke-linecap:butt;stroke-linejoin:miter;stroke-opacity:1" d="M 581.825,612.13 602.029,612.13 z" id="boundary" inkscape:connector-curvature="0" />
	<path style="fill:none;stroke:red;stroke-width:1px;stroke-linecap:butt;stroke-linejoin:miter;stroke-opacity:1" d="M 602.029,14.1018 622.232,14.1018 z" id="boundary" inkscape:connector-curvature="0" />
	<path style="fill:none;stroke:red;stroke-width:1px;stroke-linecap:butt;stroke-linejoin:miter;stroke-opacity:1" d="M 602.029,612.13 622.232,612.13 z" id="boundary" inkscape:connector-curvature="0" />
	<path style="fill:none;stroke:red;stroke-width:1px;stroke-linecap:butt;stroke-linejoin:miter;stroke-opacity:1" d="M 622.232,14.1018 642.436,14.1018 z" id="boundary" inkscape:connector-curvature="0" />
	<path style="fill:none;stroke:red;stroke-width:1px;stroke-linecap:butt;stroke-linejoin:miter;stroke-opacity:1" d="M 622.232,612.13 642.436,612.13 z" id="boundary" inkscape:connector-curvature="0" />
	<path style="fill:none;stroke:red;stroke-width:1px;stroke-linecap:butt;stroke-linejoin:miter;stroke-opacity:1" d="M 642.436,14.1018 662.64,14.1018 z" id="boundary" inkscape:connector-curvature="0" />
	<path style="fill:none;stroke:red;stroke-width:1px;stroke-linecap:butt;stroke-linejoin:miter;stroke-opacity:1" d="M 642.436,612.13 662.64,612.13 z" id="boundary" inkscape:connector-curvature="0" />
	<path style="fill:none;stroke:red;stroke-width:1px;stroke-linecap:butt;stroke-linejoin:miter;stroke-opacity:1" d="M 662.64,14.1018 680.823,4 z" id="boundary" inkscape:connector-curvature="0" />
	<path style="fill:none;stroke:red;stroke-width:1px;stroke-linecap:butt;stroke-linejoin:miter;stroke-opacity:1" d="M 662.64,612.13 682.843,612.13 z" id="boundary" inkscape:connector-curvature="0" />
	<path style="fill:none;stroke:red;stroke-width:1px;stroke-linecap:butt;stroke-linejoin:miter;stroke-opacity:1" d="M 680.823,4 701.026,4 z" id="boundary" inkscape:connector-curvature="0" />
	<path style="fill:none;stroke:red;stroke-width:1px;stroke-linecap:butt;stroke-linejoin:miter;stroke-opacity:1" d="M 682.843,612.13 703.047,612.13 z" id="boundary" inkscape:connector-curvature="0" />
	<path style="fill:none;stroke:red;stroke-width:1px;stroke-linecap:butt;stroke-linejoin:miter;stroke-opacity:1" d="M 701.026,4 721.23,4 z" id="boundary" inkscape:connector-curvature="0" />
	<path style="fill:none;stroke:red;stroke-width:1px;stroke-linecap:butt;stroke-linejoin:miter;stroke-opacity:1" d="M 703.047,612.13 723.251,612.13 z" id="boundary" inkscape:connector-curvature="0" />
	<path style="fill:none;stroke:red;stroke-width:1px;stroke-linecap:butt;stroke-linejoin:miter;stroke-opacity:1" d="M 721.23,4 741.434,4 z" id="boundary" inkscape:connector-curvature="0" />
	<path style="fill:none;stroke:red;stroke-width:1px;stroke-linecap:butt;stroke-linejoin:miter;stroke-opacity:1" d="M 723.251,612.13 743.454,612.13 z" id="boundary" inkscape:connector-curvature="0" />
	<path style="fill:none;stroke:red;stroke-width:1px;stroke-linecap:butt;stroke-linejoin:miter;stroke-opacity:1" d="M 741.434,4 761.637,4 z" id="boundary" inkscape:connector-curvature="0" />
	<path style="fill:none;stroke:red;stroke-width:1px;stroke-linecap:butt;stroke-linejoin:miter;stroke-opacity:1" d="M 743.454,612.13 763.658,612.13 z" id="boundary" inkscape:connector-curvature="0" />
	<path style="fill:none;stroke:red;stroke-width:1px;stroke-linecap:butt;stroke-linejoin:miter;stroke-opacity:1" d="M 761.637,4 781.841,4 z" id="boundary" inkscape:connector-curvature="0" />
	<path style="fill:none;stroke:red;stroke-width:1px;stroke-linecap:butt;stroke-linejoin:miter;stroke-opacity:1" d="M 763.658,612.13 783.862,612.13 z" id="boundary" inkscape:connector-curvature="0" />
	<path style="fill:none;stroke:red;stroke-width:1px;stroke-linecap:butt;stroke-linejoin:miter;stroke-opacity:1" d="M 781.841,4 802.045,4 z" id="boundary" inkscape:connector-curvature="0" />
	<path style="fill:none;stroke:red;stroke-width:1px;stroke-linecap:butt;stroke-linejoin:miter;stroke-opacity:1" d="M 783.862,612.13 793.963,591.927 z" id="boundary" inkscape:connector-curvature="0" />
	<path style="fill:none;stroke:red;stroke-width:1px;stroke-linecap:butt;stroke-linejoin:miter;stroke-opacity:1" d="M 793.963,591.927 814.167,591.927 z" id="boundary" inkscape:connector-curvature="0" />
	<path style="fill:none;stroke:red;stroke-width:1px;stroke-linecap:butt;stroke-linejoin:miter;stroke-opacity:1" d="M 802.045,4 822.248,4 z" id="boundary" inkscape:connector-curvature="0" />
	<path style="fill:none;stroke:red;stroke-width:1px;stroke-linecap:butt;stroke-linejoin:miter;stroke-opacity:1" d="M 814.167,591.927 834.371,591.927 z" id="boundary" inkscape:connector-curvature="0" />
	<path style="fill:none;stroke:red;stroke-width:1px;stroke-linecap:butt;stroke-linejoin:miter;stroke-opacity:1" d="M 822.248,4 842.452,4 z" id="boundary" inkscape:connector-curvature="0" />
	<path style="fill:none;stroke:red;stroke-width:1px;stroke-linecap:butt;stroke-linejoin:miter;stroke-opacity:1" d="M 834.371,591.927 854.574,591.927 z" id="boundary" inkscape:connector-curvature="0" />
	<path style="fill:none;stroke:red;stroke-width:1px;stroke-linecap:butt;stroke-linejoin:miter;stroke-opacity:1" d="M 842.452,4 862.656,4 z" id="boundary" inkscape:connector-curvature="0" />
	<path style="fill:none;stroke:red;stroke-width:1px;stroke-linecap:butt;stroke-linejoin:miter;stroke-opacity:1" d="M 854.574,591.927 874.778,591.927 z" id="boundary" inkscape:connector-curvature="0" />
	<path style="fill:none;stroke:red;stroke-width:1px;stroke-linecap:butt;stroke-linejoin:miter;stroke-opacity:1" d="M 862.656,4 882.859,4 z" id="boundary" inkscape:connector-curvature="0" />
	<path style="fill:none;stroke:red;stroke-width:1px;stroke-linecap:butt;stroke-linejoin:miter;stroke-opacity:1" d="M 874.778,591.927 894.982,591.927 z" id="boundary" inkscape:connector-curvature="0" />
	<path style="fill:none;stroke:red;stroke-width:1px;stroke-linecap:butt;stroke-linejoin:miter;stroke-opacity:1" d="M 882.859,4 903.063,4 z" id="boundary" inkscape:connector-curvature="0" />
	<path style="fill:none;stroke:red;stroke-width:1px;stroke-linecap:butt;stroke-linejoin:miter;stroke-opacity:1" d="M 894.982,591.927 915.185,591.927 z" id="boundary" inkscape:connector-curvature="0" />
	<path style="fill:none;stroke:red;stroke-width:1px;stroke-linecap:butt;stroke-linejoin:miter;stroke-opacity:1" d="M 903.063,4 923.267,4 z" id="boundary" inkscape:connector-curvature="0" />
	<path style="fill:none;stroke:red;stroke-width:1px;stroke-linecap:butt;stroke-linejoin:miter;stroke-opacity:1" d="M 915.185,591.927 935.389,591.927 z" id="boundary" inkscape:connector-curvature="0" />
	<path style="fill:none;stroke:red;stroke-width:1px;stroke-linecap:butt;stroke-linejoin:miter;stroke-opacity:1" d="M 923.267,4 943.47,4 z" id="boundary" inkscape:connector-curvature="0" />
	<path style="fill:none;stroke:red;stroke-width:1px;stroke-linecap:butt;stroke-linejoin:miter;stroke-opacity:1" d="M 935.389,591.927 955.593,591.927 z" id="boundary" inkscape:connector-curvature="0" />
	<path style="fill:none;stroke:red;stroke-width:1px;stroke-linecap:butt;stroke-linejoin:miter;stroke-opacity:1" d="M 943.47,4 963.674,4 z" id="boundary" inkscape:connector-curvature="0" />
	<path style="fill:none;stroke:red;stroke-width:1px;stroke-linecap:butt;stroke-linejoin:miter;stroke-opacity:1" d="M 955.593,591.927 975.796,591.927 z" id="boundary" inkscape:connector-curvature="0" />
	<path style="fill:none;stroke:red;stroke-width:1px;stroke-linecap:butt;stroke-linejoin:miter;stroke-opacity:1" d="M 963.674,4 983.878,8.04073 z" id="boundary" inkscape:connector-curvature="0" />
	<path style="fill:none;stroke:red;stroke-width:1px;stroke-linecap:butt;stroke-linejoin:miter;stroke-opacity:1" d="M 975.796,591.927 996,571.723 z" id="boundary" inkscape:connector-curvature="0" />
	<path style="fill:none;stroke:red;stroke-width:1px;stroke-linecap:butt;stroke-linejoin:miter;stroke-opacity:1" d="M 983.878,8.04073 985.898,28.2444 z" id="boundary" inkscape:connector-curvature="0" />
	<path style="fill:none;stroke:red;stroke-width:1px;stroke-linecap:butt;stroke-linejoin:miter;stroke-opacity:1" d="M 985.898,28.2444 985.898,48.4481 z" id="boundary" inkscape:connector-curvature="0" />
	<path style="fill:none;stroke:red;stroke-width:1px;stroke-linecap:butt;stroke-linejoin:miter;stroke-opacity:1" d="M 985.898,48.4481 985.898,68.6517 z" id="boundary" inkscape:connector-curvature="0" />
	<path style="fill:none;stroke:red;stroke-width:1px;stroke-linecap:butt;stroke-linejoin:miter;stroke-opacity:1" d="M 985.898,68.6517 985.898,88.8554 z" id="boundary" inkscape:connector-curvature="0" />
	<path style="fill:none;stroke:red;stroke-width:1px;stroke-linecap:butt;stroke-linejoin:miter;stroke-opacity:1" d="M 985.898,88.8554 985.898,109.059 z" id="boundary" inkscape:connector-curvature="0" />
	<path style="fill:none;stroke:red;stroke-width:1px;stroke-linecap:butt;stroke-linejoin:miter;stroke-opacity:1" d="M 985.898,109.059 985.898,129.263 z" id="boundary" inkscape:connector-curvature="0" />
	<path style="fill:none;stroke:red;stroke-width:1px;stroke-linecap:butt;stroke-linejoin:miter;stroke-opacity:1" d="M 985.898,129.263 985.898,149.466 z" id="boundary" inkscape:connector-curvature="0" />
	<path style="fill:none;stroke:red;stroke-width:1px;stroke-linecap:butt;stroke-linejoin:miter;stroke-opacity:1" d="M 985.898,149.466 985.898,169.67 z" id="boundary" inkscape:connector-curvature="0" />
	<path style="fill:none;stroke:red;stroke-width:1px;stroke-linecap:butt;stroke-linejoin:miter;stroke-opacity:1" d="M 985.898,169.67 985.898,189.874 z" id="boundary" inkscape:connector-curvature="0" />
	<path style="fill:none;stroke:red;stroke-width:1px;stroke-linecap:butt;stroke-linejoin:miter;stroke-opacity:1" d="M 985.898,189.874 985.898,210.077 z" id="boundary" inkscape:connector-curvature="0" />
	<path style="fill:none;stroke:red;stroke-width:1px;stroke-linecap:butt;stroke-linejoin:miter;stroke-opacity:1" d="M 985.898,210.077 985.898,230.281 z" id="boundary" inkscape:connector-curvature="0" />
	<path style="fill:none;stroke:red;stroke-width:1px;stroke-linecap:butt;stroke-linejoin:miter;stroke-opacity:1" d="M 985.898,230.281 985.898,250.485 z" id="boundary" inkscape:connector-curvature="0" />
	<path style="fill:none;stroke:red;stroke-width:1px;stroke-linecap:butt;stroke-linejoin:miter;stroke-opacity:1" d="M 985.898,250.485 985.898,270.688 z" id="boundary" inkscape:connector-curvature="0" />
	<path style="fill:none;stroke:red;stroke-width:1px;stroke-linecap:butt;stroke-linejoin:miter;stroke-opacity:1" d="M 985.898,270.688 985.898,290.892 z" id="boundary" inkscape:connector-curvature="0" />
	<path style="fill:none;stroke:red;stroke-width:1px;stroke-linecap:butt;stroke-linejoin:miter;stroke-opacity:1" d="M 985.898,290.892 985.898,311.096 z" id="boundary" inkscape:connector-curvature="0" />
	<path style="fill:none;stroke:red;stroke-width:1px;stroke-linecap:butt;stroke-linejoin:miter;stroke-opacity:1" d="M 985.898,311.096 985.898,331.299 z" id="boundary" inkscape:connector-curvature="0" />
	<path style="fill:none;stroke:red;stroke-width:1px;stroke-linecap:butt;stroke-linejoin:miter;stroke-opacity:1" d="M 985.898,331.299 985.898,351.503 z" id="boundary" inkscape:connector-curvature="0" />
	<path style="fill:none;stroke:red;stroke-width:1px;stroke-linecap:butt;stroke-linejoin:miter;stroke-opacity:1" d="M 985.898,351.503 996,369.686 z" id="boundary" inkscape:connector-curvature="0" />
	<path style="fill:none;stroke:red;stroke-width:1px;stroke-linecap:butt;stroke-linejoin:miter;stroke-opacity:1" d="M 996,369.686 996,389.89 z" id="boundary" inkscape:connector-curvature="0" />
	<path style="fill:none;stroke:red;stroke-width:1px;stroke-linecap:butt;stroke-linejoin:miter;stroke-opacity:1" d="M 996,389.89 996,410.094 z" id="boundary" inkscape:connector-curvature="0" />
	<path style="fill:none;stroke:red;stroke-width:1px;stroke-linecap:butt;stroke-linejoin:miter;stroke-opacity:1" d="M 996,410.094 996,430.297 z" id="boundary" inkscape:connector-curvature="0" />
	<path style="fill:none;stroke:red;stroke-width:1px;stroke-linecap:butt;stroke-linejoin:miter;stroke-opacity:1" d="M 996,430.297 996,450.501 z" id="boundary" inkscape:connector-curvature="0" />
	<path style="fill:none;stroke:red;stroke-width:1px;stroke-linecap:butt;stroke-linejoin:miter;stroke-opacity:1" d="M 996,450.501 996,470.705 z" id="boundary" inkscape:connector-curvature="0" />
	<path style="fill:none;stroke:red;stroke-width:1px;stroke-linecap:butt;stroke-linejoin:miter;stroke-opacity:1" d="M 996,470.705 996,490.908 z" id="boundary" inkscape:connector-curvature="0" />
	<path style="fill:none;stroke:red;stroke-width:1px;stroke-linecap:butt;stroke-linejoin:miter;stroke-opacity:1" d="M 996,490.908 996,511.112 z" id="boundary" inkscape:connector-curvature="0" />
	<path style="fill:none;stroke:red;stroke-width:1px;stroke-linecap:butt;stroke-linejoin:miter;stroke-opacity:1" d="M 996,511.112 996,531.316 z" id="boundary" inkscape:connector-curvature="0" />
	<path style="fill:none;stroke:red;stroke-width:1px;stroke-linecap:butt;stroke-linejoin:miter;stroke-opacity:1" d="M 996,531.316 996,551.519 z" id="boundary" inkscape:connector-curvature="0" />
	<path style="fill:none;stroke:red;stroke-width:1px;stroke-linecap:butt;stroke-linejoin:miter;stroke-opacity:1" d="M 996,551.519 996,571.723 z" id="boundary" inkscape:connector-curvature="0" />
	<circle cx="4" cy="50.4684" r="4" fill="#0" id="circle0"/>
	<circle cx="16.1222" cy="66.6314" r="4" fill="#0" id="circle1"/>
	<circle cx="24.2037" cy="40.3666" r="4" fill="#0" id="circle2"/>
	<circle cx="24.2037" cy="86.835" r="4" fill="#0" id="circle3"/>
	<circle cx="24.2037" cy="107.039" r="4" fill="#0" id="circle4"/>
	<circle cx="24.2037" cy="127.242" r="4" fill="#0" id="circle5"/>
	<circle cx="24.2037" cy="147.446" r="4" fill="#0" id="circle6"/>
	<circle cx="24.2037" cy="167.65" r="4" fill="#0" id="circle7"/>
	<circle cx="24.2037" cy="187.853" r="4" fill="#0" id="circle8"/>
	<circle cx="24.2037" cy="208.057" r="4" fill="#0" id="circle9"/>
	<circle cx="24.2037" cy="228.261" r="4" fill="#0" id="circle10"/>
	<circle cx="24.2037" cy="248.464" r="4" fill="#0" id="circle11"/>
	<circle cx="24.2037" cy="268.668" r="4" fill="#0" id="circle12"/>
	<circle cx="24.2037" cy="288.872" r="4" fill="#0" id="circle13"/>
	<circle cx="24.2037" cy="309.075" r="4" fill="#0" id="circle14"/>
	<circle cx="24.2037" cy="329.279" r="4" fill="#0" id="circle15"/>
	<circle cx="24.2037" cy="349.483" r="4" fill="#0" id="circle16"/>
	<circle cx="24.2037" cy="369.686" r="4" fill="#0" id="circle17"/>
	<circle cx="24.2037" cy="389.89" r="4" fill="#0" id="circle18"/>
	<circle cx="24.2037" cy="410.094" r="4" fill="#0" id="circle19"/>
	<circle cx="24.2037" cy="430.297" r="4" fill="#0" id="circle20"/>
	<circle cx="24.2037" cy="450.501" r="4" fill="#0" id="circle21"/>
	<circle cx="24.2037" cy="470.705" r="4" fill="#0" id="circle22"/>
	<circle cx="34.3055" cy="488.888" r="4" fill="#0" id="circle23"/>
	<circle cx="34.3055" cy="509.092" r="4" fill="#0" id="circle24"/>
	<circle cx="34.3055" cy="529.295" r="4" fill="#0" id="circle25"/>
	<circle cx="34.3055" cy="549.499" r="4" fill="#0" id="circle26"/>
	<circle cx="34.3055" cy="569.703" r="4" fill="#0" id="circle27"/>
	<circle cx="34.3055" cy="589.906" r="4" fill="#0" id="circle28"/>
	<circle cx="34.3055" cy="610.11" r="4" fill="#0" id="circle29"/>
	<circle cx="44.4073" cy="34.3055" r="4" fill="#0" id="circle30"/>
	<circle cx="50.4684" cy="622.232" r="4" fill="#0" id="circle31"/>
	<circle cx="64.611" cy="34.3055" r="4" fill="#0" id="circle32"/>
	<circle cx="70.6721" cy="622.232" r="4" fill="#0" id="circle33"/>
	<circle cx="84.8147" cy="34.3055" r="4" fill="#0" id="circle34"/>
	<circle cx="90.8758" cy="622.232" r="4" fill="#0" id="circle35"/>
	<circle cx="105.018" cy="34.3055" r="4" fill="#0" id="circle36"/>
	<circle cx="111.079" cy="622.232" r="4" fill="#0" id="circle37"/>
	<circle cx="125.222" cy="34.3055" r="4" fill="#0" id="circle38"/>
	<circle cx="131.283" cy="622.232" r="4" fill="#0" id="circle39"/>
	<circle cx="145.426" cy="34.3055" r="4" fill="#0" id="circle40"/>
	<circle cx="151.487" cy="622.232" r="4" fill="#0" id="circle41"/>
	<circle cx="165.629" cy="34.3055" r="4" fill="#0" id="circle42"/>
	<circle cx="171.69" cy="622.232" r="4" fill="#0" id="circle43"/>
	<circle cx="185.833" cy="34.3055" r="4" fill="#0" id="circle44"/>
	<circle cx="191.894" cy="622.232" r="4" fill="#0" id="circle45"/>
	<circle cx="195.935" cy="642.436" r="4" fill="#0" id="circle46"/>
	<circle cx="206.037" cy="34.3055" r="4" fill="#0" id="circle47"/>
	<circle cx="214.118" cy="652.538" r="4" fill="#0" id="circle48"/>
	<circle cx="222.2" cy="672.741" r="4" fill="#0" id="circle49"/>
	<circle cx="226.24" cy="34.3055" r="4" fill="#0" id="circle50"/>
	<circle cx="240.383" cy="682.843" r="4" fill="#0" id="circle51"/>
	<circle cx="246.444" cy="34.3055" r="4" fill="#0" id="circle52"/>
	<circle cx="246.444" cy="703.047" r="4" fill="#0" id="circle53"/>
	<circle cx="258.566" cy="18.1426" r="4" fill="#0" id="circle54"/>
	<circle cx="258.566" cy="719.21" r="4" fill="#0" id="circle55"/>
	<circle cx="276.749" cy="729.312" r="4" fill="#0" id="circle56"/>
	<circle cx="278.77" cy="14.1018" r="4" fill="#0" id="circle57"/>
	<circle cx="286.851" cy="747.495" r="4" fill="#0" id="circle58"/>
	<circle cx="286.851" cy="767.699" r="4" fill="#0" id="circle59"/>
	<circle cx="298.974" cy="14.1018" r="4" fill="#0" id="circle60"/>
	<circle cx="303.014" cy="781.841" r="4" fill="#0" id="circle61"/>
	<circle cx="319.177" cy="14.1018" r="4" fill="#0" id="circle62"/>
	<circle cx="323.218" cy="771.739" r="4" fill="#0" id="circle63"/>
	<circle cx="333.32" cy="753.556" r="4" fill="#0" id="circle64"/>
	<circle cx="339.381" cy="14.1018" r="4" fill="#0" id="circle65"/>
	<circle cx="349.483" cy="723.251" r="4" fill="#0" id="circle66"/>
	<circle cx="359.585" cy="14.1018" r="4" fill="#0" id="circle67"/>
	<circle cx="367.666" cy="713.149" r="4" fill="#0" id="circle68"/>
	<circle cx="379.788" cy="14.1018" r="4" fill="#0" id="circle69"/>
	<circle cx="383.829" cy="701.026" r="4" fill="#0" id="circle70"/>
	<circle cx="389.89" cy="672.741" r="4" fill="#0" id="circle71"/>
	<circle cx="399.992" cy="14.1018" r="4" fill="#0" id="circle72"/>
	<circle cx="410.094" cy="652.538" r="4" fill="#0" id="circle73"/>
	<circle cx="420.196" cy="14.1018" r="4" fill="#0" id="circle74"/>
	<circle cx="420.196" cy="622.232" r="4" fill="#0" id="circle75"/>
	<circle cx="440.399" cy="14.1018" r="4" fill="#0" id="circle76"/>
	<circle cx="440.399" cy="612.13" r="4" fill="#0" id="circle77"/>
	<circle cx="460.603" cy="14.1018" r="4" fill="#0" id="circle78"/>
	<circle cx="460.603" cy="612.13" r="4" fill="#0" id="circle79"/>
	<circle cx="480.807" cy="14.1018" r="4" fill="#0" id="circle80"/>
	<circle cx="480.807" cy="612.13" r="4" fill="#0" id="circle81"/>
	<circle cx="501.01" cy="14.1018" r="4" fill="#0" id="circle82"/>
	<circle cx="501.01" cy="612.13" r="4" fill="#0" id="circle83"/>
	<circle cx="521.214" cy="14.1018" r="4" fill="#0" id="circle84"/>
	<circle cx="521.214" cy="612.13" r="4" fill="#0" id="circle85"/>
	<circle cx="541.418" cy="14.1018" r="4" fill="#0" id="circle86"/>
	<circle cx="541.418" cy="612.13" r="4" fill="#0" id="circle87"/>
	<circle cx="561.621" cy="14.1018" r="4" fill="#0" id="circle88"/>
	<circle cx="561.621" cy="612.13" r="4" fill="#0" id="circle89"/>
	<circle cx="581.825" cy="14.1018" r="4" fill="#0" id="circle90"/>
	<circle cx="581.825" cy="612.13" r="4" fill="#0" id="circle91"/>
	<circle cx="602.029" cy="14.1018" r="4" fill="#0" id="circle92"/>
	<circle cx="602.029" cy="612.13" r="4" fill="#0" id="circle93"/>
	<circle cx="622.232" cy="14.1018" r="4" fill="#0" id="circle94"/>
	<circle cx="622.232" cy="612.13" r="4" fill="#0" id="circle95"/>
	<circle cx="642.436" cy="14.1018" r="4" fill="#0" id="circle96"/>
	<circle cx="642.436" cy="612.13" r="4" fill="#0" id="circle97"/>
	<circle cx="662.64" cy="14.1018" r="4" fill="#0" id="circle98"/>
	<circle cx="662.64" cy="612.13" r="4" fill="#0" id="circle99"/>
	<circle cx="680.823" cy="4" r="4" fill="#0" id="circle100"/>
	<circle cx="682.843" cy="612.13" r="4" fill="#0" id="circle101"/>
	<circle cx="701.026" cy="4" r="4" fill="#0" id="circle102"/>
	<circle cx="703.047" cy="612.13" r="4" fill="#0" id="circle103"/>
	<circle cx="721.23" cy="4" r="4" fill="#0" id="circle104"/>
	<circle cx="723.251" cy="612.13" r="4" fill="#0" id="circle105"/>
	<circle cx="741.434" cy="4" r="4" fill="#0" id="circle106"/>
	<circle cx="743.454" cy="612.13" r="4" fill="#0" id="circle107"/>
	<circle cx="761.637" cy="4" r="4" fill="#0" id="circle108"/>
	<circle cx="763.658" cy="612.13" r="4" fill="#0" id="circle109"/>
	<circle cx="781.841" cy="4" r="4" fill="#0" id="circle110"/>
	<circle cx="783.862" cy="612.13" r="4" fill="#0" id="circle111"/>
	<circle cx="793.963" cy="591.927" r="4" fill="#0" id="circle112"/>
	<circle cx="802.045" cy="4" r="4" fill="#0" id="circle113"/>
	<circle cx="814.167" cy="591.927" r="4" fill="#0" id="circle114"/>
	<circle cx="822.248" cy="4" r="4" fill="#0" id="circle115"/>
	<circle cx="834.371" cy="591.927" r="4" fill="#0" id="circle116"/>
	<circle cx="842.452" cy="4" r="4" fill="#0" id="circle117"/>
	<circle cx="854.574" cy="591.927" r="4" fill="#0" id="circle118"/>
	<circle cx="862.656" cy="4" r="4" fill="#0" id="circle119"/>
	<circle cx="874.778" cy="591.927" r="4" fill="#0" id="circle120"/>
	<circle cx="882.859" cy="4" r="4" fill="#0" id="circle121"/>
	<circle cx="894.982" cy="591.927" r="4" fill="#0" id="circle122"/>
	<circle cx="903.063" cy="4" r="4" fill="#0" id="circle123"/>
	<circle cx="915.185" cy="591.927" r="4" fill="#0" id="circle124"/>
	<circle cx="923.267" cy="4" r="4" fill="#0" id="circle125"/>
	<circle cx="935.389" cy="591.927" r="4" fill="#0" id="circle126"/>
	<circle cx="943.47" cy="4" r="4" fill="#0" id="circle127"/>
	<circle cx="955.593" cy="591.927" r="4" fill="#0" id="circle128"/>
	<circle cx="963.674" cy="4" r="4" fill="#0" id="circle129"/>
	<circle cx="975.796" cy="591.927" r="4" fill="#0" id="circle130"/>
	<circle cx="983.878" cy="8.04073" r="4" fill="#0" id="circle131"/>
	<circle cx="985.898" cy="28.2444" r="4" fill="#0" id="circle132"/>
	<circle cx="985.898" cy="48.4481" r="4" fill="#0" id="circle133"/>
	<circle cx="985.898" cy="68.6517" r="4" fill="#0" id="circle134"/>
	<circle cx="985.898" cy="88.8554" r="4" fill="#0" id="circle135"/>
	<circle cx="985.898" cy="109.059" r="4" fill="#0" id="circle136"/>
	<circle cx="985.898" cy="129.263" r="4" fill="#0" id="circle137"/>
	<circle cx="985.898" cy="149.466" r="4" fill="#0" id="circle138"/>
	<circle cx="985.898" cy="169.67" r="4" fill="#0" id="circle139"/>
	<circle cx="985.898" cy="189.874" r="4" fill="#0" id="circle140"/>
	<circle cx="985.898" cy="210.077" r="4" fill="#0" id="circle141"/>
	<circle cx="985.898" cy="230.281" r="4" fill="#0" id="circle142"/>
	<circle cx="985.898" cy="250.485" r="4" fill="#0" id="circle143"/>
	<circle cx="985.898" cy="270.688" r="4" fill="#0" id="circle144"/>
	<circle cx="985.898" cy="290.892" r="4" fill="#0" id="circle145"/>
	<circle cx="985.898" cy="311.096" r="4" fill="#0" id="circle146"/>
	<circle cx="985.898" cy="331.299" r="4" fill="#0" id="circle147"/>
	<circle cx="985.898" cy="351.503" r="4" fill="#0" id="circle148"/>
	<circle cx="996" cy="369.686" r="4" fill="#0" id="circle149"/>
	<circle cx="996" cy="389.89" r="4" fill="#0" id="circle150"/>
	<circle cx="996" cy="410.094" r="4" fill="#0" id="circle151"/>
	<circle cx="996" cy="430.297" r="4" fill="#0" id="circle152"/>
	<circle cx="996" cy="450.501" r="4" fill="#0" id="circle153"/>
	<circle cx="996" cy="470.705" r="4" fill="#0" id="circle154"/>
	<circle cx="996" cy="490.908" r="4" fill="#0" id="circle155"/>
	<circle cx="996" cy="511.112" r="4" fill="#0" id="circle156"/>
	<circle cx="996" cy="531.316" r="4" fill="#0" id="circle157"/>
	<circle cx="996" cy="551.519" r="4" fill="#0" id="circle158"/>
	<circle cx="996" cy="571.723" r="4" fill="#0" id="circle159"/>
	</g>
</svg>