<?xml version="1.0" encoding="UTF-8" standalone="no"?>
<!-- Created with CurveBenchmark -->
<svg
	xmlns:dc="http://purl.org/dc/elements/1.1/"
	xmlns:cc="http://creativecommons.org/ns#"
	xmlns:rdf="http://www.w3.org/1999/02/22-rdf-syntax-ns#"
	xmlns:svg="http://www.w3.org/2000/svg"
	xmlns="http://www.w3.org/2000/svg"
	xmlns:sodipodi="http://sodipodi.sourceforge.net/DTD/sodipodi-0.dtd"
	xmlns:inkscape="http://www.inkscape.org/namespaces/inkscape"
	width="1000"
	height="1000"
	id="svg2"
	version="1.1"
	sodipodi:docname="manifold/vicur-chicken-14.png.txt">
<defs
	id="defs4" />
<metadata
	id="metadata7">
	<rdf:RDF>
		<cc:Work
			rdf:about="">
			<dc:format>image/svg+xml</dc:format>
			<dc:type
				rdf:resource="http://purl.org/dc/dcmitype/StillImage" />
			<dc:title></dc:title>
		</cc:Work>
	</rdf:RDF>
</metadata>
<g
	inkscape:label="Layer 1"
	inkscape:groupmode="layer"
	id="layer1">
	<path style="fill:none;stroke:red;stroke-width:1px;stroke-linecap:butt;stroke-linejoin:miter;stroke-opacity:1" d="M 4,472.506 4,494.501 z" id="boundary" inkscape:connector-curvature="0" />
	<path style="fill:none;stroke:red;stroke-width:1px;stroke-linecap:butt;stroke-linejoin:miter;stroke-opacity:1" d="M 4,472.506 14.9978,450.51 z" id="boundary" inkscape:connector-curvature="0" />
	<path style="fill:none;stroke:red;stroke-width:1px;stroke-linecap:butt;stroke-linejoin:miter;stroke-opacity:1" d="M 4,494.501 14.9978,514.297 z" id="boundary" inkscape:connector-curvature="0" />
	<path style="fill:none;stroke:red;stroke-width:1px;stroke-linecap:butt;stroke-linejoin:miter;stroke-opacity:1" d="M 14.9978,384.523 14.9978,406.519 z" id="boundary" inkscape:connector-curvature="0" />
	<path style="fill:none;stroke:red;stroke-width:1px;stroke-linecap:butt;stroke-linejoin:miter;stroke-opacity:1" d="M 14.9978,384.523 32.5942,366.927 z" id="boundary" inkscape:connector-curvature="0" />
	<path style="fill:none;stroke:red;stroke-width:1px;stroke-linecap:butt;stroke-linejoin:miter;stroke-opacity:1" d="M 14.9978,406.519 14.9978,428.514 z" id="boundary" inkscape:connector-curvature="0" />
	<path style="fill:none;stroke:red;stroke-width:1px;stroke-linecap:butt;stroke-linejoin:miter;stroke-opacity:1" d="M 14.9978,428.514 14.9978,450.51 z" id="boundary" inkscape:connector-curvature="0" />
	<path style="fill:none;stroke:red;stroke-width:1px;stroke-linecap:butt;stroke-linejoin:miter;stroke-opacity:1" d="M 14.9978,514.297 25.9956,534.093 z" id="boundary" inkscape:connector-curvature="0" />
	<path style="fill:none;stroke:red;stroke-width:1px;stroke-linecap:butt;stroke-linejoin:miter;stroke-opacity:1" d="M 25.9956,534.093 36.9933,571.486 z" id="boundary" inkscape:connector-curvature="0" />
	<path style="fill:none;stroke:red;stroke-width:1px;stroke-linecap:butt;stroke-linejoin:miter;stroke-opacity:1" d="M 25.9956,659.468 25.9956,681.463 z" id="boundary" inkscape:connector-curvature="0" />
	<path style="fill:none;stroke:red;stroke-width:1px;stroke-linecap:butt;stroke-linejoin:miter;stroke-opacity:1" d="M 25.9956,659.468 36.9933,626.475 z" id="boundary" inkscape:connector-curvature="0" />
	<path style="fill:none;stroke:red;stroke-width:1px;stroke-linecap:butt;stroke-linejoin:miter;stroke-opacity:1" d="M 25.9956,681.463 47.9911,688.062 z" id="boundary" inkscape:connector-curvature="0" />
	<path style="fill:none;stroke:red;stroke-width:1px;stroke-linecap:butt;stroke-linejoin:miter;stroke-opacity:1" d="M 32.5942,366.927 54.5898,366.927 z" id="boundary" inkscape:connector-curvature="0" />
	<path style="fill:none;stroke:red;stroke-width:1px;stroke-linecap:butt;stroke-linejoin:miter;stroke-opacity:1" d="M 36.9933,571.486 36.9933,593.481 z" id="boundary" inkscape:connector-curvature="0" />
	<path style="fill:none;stroke:red;stroke-width:1px;stroke-linecap:butt;stroke-linejoin:miter;stroke-opacity:1" d="M 36.9933,593.481 36.9933,626.475 z" id="boundary" inkscape:connector-curvature="0" />
	<path style="fill:none;stroke:red;stroke-width:1px;stroke-linecap:butt;stroke-linejoin:miter;stroke-opacity:1" d="M 47.9911,527.494 58.9889,505.499 z" id="boundary" inkscape:connector-curvature="0" />
	<path style="fill:none;stroke:red;stroke-width:1px;stroke-linecap:butt;stroke-linejoin:miter;stroke-opacity:1" d="M 47.9911,527.494 58.9889,564.887 z" id="boundary" inkscape:connector-curvature="0" />
	<path style="fill:none;stroke:red;stroke-width:1px;stroke-linecap:butt;stroke-linejoin:miter;stroke-opacity:1" d="M 47.9911,688.062 69.9867,688.062 z" id="boundary" inkscape:connector-curvature="0" />
	<path style="fill:none;stroke:red;stroke-width:1px;stroke-linecap:butt;stroke-linejoin:miter;stroke-opacity:1" d="M 54.5898,366.927 61.1885,388.922 z" id="boundary" inkscape:connector-curvature="0" />
	<path style="fill:none;stroke:red;stroke-width:1px;stroke-linecap:butt;stroke-linejoin:miter;stroke-opacity:1" d="M 58.9889,505.499 72.1863,468.106 z" id="boundary" inkscape:connector-curvature="0" />
	<path style="fill:none;stroke:red;stroke-width:1px;stroke-linecap:butt;stroke-linejoin:miter;stroke-opacity:1" d="M 58.9889,564.887 80.9845,560.488 z" id="boundary" inkscape:connector-curvature="0" />
	<path style="fill:none;stroke:red;stroke-width:1px;stroke-linecap:butt;stroke-linejoin:miter;stroke-opacity:1" d="M 61.1885,388.922 61.1885,410.918 z" id="boundary" inkscape:connector-curvature="0" />
	<path style="fill:none;stroke:red;stroke-width:1px;stroke-linecap:butt;stroke-linejoin:miter;stroke-opacity:1" d="M 61.1885,410.918 72.1863,468.106 z" id="boundary" inkscape:connector-curvature="0" />
	<path style="fill:none;stroke:red;stroke-width:1px;stroke-linecap:butt;stroke-linejoin:miter;stroke-opacity:1" d="M 69.9867,688.062 91.9823,688.062 z" id="boundary" inkscape:connector-curvature="0" />
	<path style="fill:none;stroke:red;stroke-width:1px;stroke-linecap:butt;stroke-linejoin:miter;stroke-opacity:1" d="M 80.9845,421.916 91.9823,457.109 z" id="boundary" inkscape:connector-curvature="0" />
	<path style="fill:none;stroke:red;stroke-width:1px;stroke-linecap:butt;stroke-linejoin:miter;stroke-opacity:1" d="M 80.9845,421.916 102.98,421.916 z" id="boundary" inkscape:connector-curvature="0" />
	<path style="fill:none;stroke:red;stroke-width:1px;stroke-linecap:butt;stroke-linejoin:miter;stroke-opacity:1" d="M 80.9845,560.488 98.5809,542.891 z" id="boundary" inkscape:connector-curvature="0" />
	<path style="fill:none;stroke:red;stroke-width:1px;stroke-linecap:butt;stroke-linejoin:miter;stroke-opacity:1" d="M 91.9823,457.109 105.18,474.705 z" id="boundary" inkscape:connector-curvature="0" />
	<path style="fill:none;stroke:red;stroke-width:1px;stroke-linecap:butt;stroke-linejoin:miter;stroke-opacity:1" d="M 91.9823,688.062 105.18,655.069 z" id="boundary" inkscape:connector-curvature="0" />
	<path style="fill:none;stroke:red;stroke-width:1px;stroke-linecap:butt;stroke-linejoin:miter;stroke-opacity:1" d="M 98.5809,542.891 109.579,520.896 z" id="boundary" inkscape:connector-curvature="0" />
	<path style="fill:none;stroke:red;stroke-width:1px;stroke-linecap:butt;stroke-linejoin:miter;stroke-opacity:1" d="M 102.98,421.916 124.976,417.517 z" id="boundary" inkscape:connector-curvature="0" />
	<path style="fill:none;stroke:red;stroke-width:1px;stroke-linecap:butt;stroke-linejoin:miter;stroke-opacity:1" d="M 105.18,474.705 122.776,490.102 z" id="boundary" inkscape:connector-curvature="0" />
	<path style="fill:none;stroke:red;stroke-width:1px;stroke-linecap:butt;stroke-linejoin:miter;stroke-opacity:1" d="M 105.18,589.082 105.18,611.078 z" id="boundary" inkscape:connector-curvature="0" />
	<path style="fill:none;stroke:red;stroke-width:1px;stroke-linecap:butt;stroke-linejoin:miter;stroke-opacity:1" d="M 105.18,589.082 127.175,578.084 z" id="boundary" inkscape:connector-curvature="0" />
	<path style="fill:none;stroke:red;stroke-width:1px;stroke-linecap:butt;stroke-linejoin:miter;stroke-opacity:1" d="M 105.18,611.078 105.18,633.073 z" id="boundary" inkscape:connector-curvature="0" />
	<path style="fill:none;stroke:red;stroke-width:1px;stroke-linecap:butt;stroke-linejoin:miter;stroke-opacity:1" d="M 105.18,633.073 105.18,655.069 z" id="boundary" inkscape:connector-curvature="0" />
	<path style="fill:none;stroke:red;stroke-width:1px;stroke-linecap:butt;stroke-linejoin:miter;stroke-opacity:1" d="M 109.579,520.896 122.776,490.102 z" id="boundary" inkscape:connector-curvature="0" />
	<path style="fill:none;stroke:red;stroke-width:1px;stroke-linecap:butt;stroke-linejoin:miter;stroke-opacity:1" d="M 124.976,417.517 142.572,399.92 z" id="boundary" inkscape:connector-curvature="0" />
	<path style="fill:none;stroke:red;stroke-width:1px;stroke-linecap:butt;stroke-linejoin:miter;stroke-opacity:1" d="M 127.175,578.084 149.171,578.084 z" id="boundary" inkscape:connector-curvature="0" />
	<path style="fill:none;stroke:red;stroke-width:1px;stroke-linecap:butt;stroke-linejoin:miter;stroke-opacity:1" d="M 142.572,399.92 164.568,399.92 z" id="boundary" inkscape:connector-curvature="0" />
	<path style="fill:none;stroke:red;stroke-width:1px;stroke-linecap:butt;stroke-linejoin:miter;stroke-opacity:1" d="M 149.171,578.084 162.368,595.681 z" id="boundary" inkscape:connector-curvature="0" />
	<path style="fill:none;stroke:red;stroke-width:1px;stroke-linecap:butt;stroke-linejoin:miter;stroke-opacity:1" d="M 162.368,595.681 179.965,608.878 z" id="boundary" inkscape:connector-curvature="0" />
	<path style="fill:none;stroke:red;stroke-width:1px;stroke-linecap:butt;stroke-linejoin:miter;stroke-opacity:1" d="M 164.568,399.92 168.967,373.525 z" id="boundary" inkscape:connector-curvature="0" />
	<path style="fill:none;stroke:red;stroke-width:1px;stroke-linecap:butt;stroke-linejoin:miter;stroke-opacity:1" d="M 168.967,373.525 179.965,351.53 z" id="boundary" inkscape:connector-curvature="0" />
	<path style="fill:none;stroke:red;stroke-width:1px;stroke-linecap:butt;stroke-linejoin:miter;stroke-opacity:1" d="M 179.965,351.53 197.561,333.933 z" id="boundary" inkscape:connector-curvature="0" />
	<path style="fill:none;stroke:red;stroke-width:1px;stroke-linecap:butt;stroke-linejoin:miter;stroke-opacity:1" d="M 179.965,608.878 179.965,630.874 z" id="boundary" inkscape:connector-curvature="0" />
	<path style="fill:none;stroke:red;stroke-width:1px;stroke-linecap:butt;stroke-linejoin:miter;stroke-opacity:1" d="M 179.965,630.874 179.965,652.869 z" id="boundary" inkscape:connector-curvature="0" />
	<path style="fill:none;stroke:red;stroke-width:1px;stroke-linecap:butt;stroke-linejoin:miter;stroke-opacity:1" d="M 179.965,652.869 179.965,674.865 z" id="boundary" inkscape:connector-curvature="0" />
	<path style="fill:none;stroke:red;stroke-width:1px;stroke-linecap:butt;stroke-linejoin:miter;stroke-opacity:1" d="M 179.965,674.865 179.965,696.86 z" id="boundary" inkscape:connector-curvature="0" />
	<path style="fill:none;stroke:red;stroke-width:1px;stroke-linecap:butt;stroke-linejoin:miter;stroke-opacity:1" d="M 179.965,696.86 179.965,718.856 z" id="boundary" inkscape:connector-curvature="0" />
	<path style="fill:none;stroke:red;stroke-width:1px;stroke-linecap:butt;stroke-linejoin:miter;stroke-opacity:1" d="M 179.965,718.856 179.965,740.851 z" id="boundary" inkscape:connector-curvature="0" />
	<path style="fill:none;stroke:red;stroke-width:1px;stroke-linecap:butt;stroke-linejoin:miter;stroke-opacity:1" d="M 179.965,740.851 190.962,760.647 z" id="boundary" inkscape:connector-curvature="0" />
	<path style="fill:none;stroke:red;stroke-width:1px;stroke-linecap:butt;stroke-linejoin:miter;stroke-opacity:1" d="M 190.962,760.647 193.162,782.643 z" id="boundary" inkscape:connector-curvature="0" />
	<path style="fill:none;stroke:red;stroke-width:1px;stroke-linecap:butt;stroke-linejoin:miter;stroke-opacity:1" d="M 193.162,782.643 201.96,804.639 z" id="boundary" inkscape:connector-curvature="0" />
	<path style="fill:none;stroke:red;stroke-width:1px;stroke-linecap:butt;stroke-linejoin:miter;stroke-opacity:1" d="M 197.561,333.933 201.96,307.539 z" id="boundary" inkscape:connector-curvature="0" />
	<path style="fill:none;stroke:red;stroke-width:1px;stroke-linecap:butt;stroke-linejoin:miter;stroke-opacity:1" d="M 201.96,307.539 212.958,285.543 z" id="boundary" inkscape:connector-curvature="0" />
	<path style="fill:none;stroke:red;stroke-width:1px;stroke-linecap:butt;stroke-linejoin:miter;stroke-opacity:1" d="M 201.96,804.639 212.958,824.435 z" id="boundary" inkscape:connector-curvature="0" />
	<path style="fill:none;stroke:red;stroke-width:1px;stroke-linecap:butt;stroke-linejoin:miter;stroke-opacity:1" d="M 212.958,285.543 230.554,267.947 z" id="boundary" inkscape:connector-curvature="0" />
	<path style="fill:none;stroke:red;stroke-width:1px;stroke-linecap:butt;stroke-linejoin:miter;stroke-opacity:1" d="M 212.958,824.435 234.953,831.033 z" id="boundary" inkscape:connector-curvature="0" />
	<path style="fill:none;stroke:red;stroke-width:1px;stroke-linecap:butt;stroke-linejoin:miter;stroke-opacity:1" d="M 230.554,267.947 234.953,241.552 z" id="boundary" inkscape:connector-curvature="0" />
	<path style="fill:none;stroke:red;stroke-width:1px;stroke-linecap:butt;stroke-linejoin:miter;stroke-opacity:1" d="M 234.953,241.552 245.951,219.557 z" id="boundary" inkscape:connector-curvature="0" />
	<path style="fill:none;stroke:red;stroke-width:1px;stroke-linecap:butt;stroke-linejoin:miter;stroke-opacity:1" d="M 234.953,831.033 248.151,848.63 z" id="boundary" inkscape:connector-curvature="0" />
	<path style="fill:none;stroke:red;stroke-width:1px;stroke-linecap:butt;stroke-linejoin:miter;stroke-opacity:1" d="M 245.951,219.557 263.548,201.96 z" id="boundary" inkscape:connector-curvature="0" />
	<path style="fill:none;stroke:red;stroke-width:1px;stroke-linecap:butt;stroke-linejoin:miter;stroke-opacity:1" d="M 248.151,848.63 265.747,864.027 z" id="boundary" inkscape:connector-curvature="0" />
	<path style="fill:none;stroke:red;stroke-width:1px;stroke-linecap:butt;stroke-linejoin:miter;stroke-opacity:1" d="M 263.548,201.96 281.144,184.364 z" id="boundary" inkscape:connector-curvature="0" />
	<path style="fill:none;stroke:red;stroke-width:1px;stroke-linecap:butt;stroke-linejoin:miter;stroke-opacity:1" d="M 265.747,864.027 281.144,881.623 z" id="boundary" inkscape:connector-curvature="0" />
	<path style="fill:none;stroke:red;stroke-width:1px;stroke-linecap:butt;stroke-linejoin:miter;stroke-opacity:1" d="M 281.144,184.364 298.741,168.967 z" id="boundary" inkscape:connector-curvature="0" />
	<path style="fill:none;stroke:red;stroke-width:1px;stroke-linecap:butt;stroke-linejoin:miter;stroke-opacity:1" d="M 281.144,881.623 298.741,897.02 z" id="boundary" inkscape:connector-curvature="0" />
	<path style="fill:none;stroke:red;stroke-width:1px;stroke-linecap:butt;stroke-linejoin:miter;stroke-opacity:1" d="M 298.741,168.967 314.137,151.37 z" id="boundary" inkscape:connector-curvature="0" />
	<path style="fill:none;stroke:red;stroke-width:1px;stroke-linecap:butt;stroke-linejoin:miter;stroke-opacity:1" d="M 298.741,897.02 314.137,914.616 z" id="boundary" inkscape:connector-curvature="0" />
	<path style="fill:none;stroke:red;stroke-width:1px;stroke-linecap:butt;stroke-linejoin:miter;stroke-opacity:1" d="M 314.137,151.37 336.133,140.373 z" id="boundary" inkscape:connector-curvature="0" />
	<path style="fill:none;stroke:red;stroke-width:1px;stroke-linecap:butt;stroke-linejoin:miter;stroke-opacity:1" d="M 314.137,914.616 336.133,923.415 z" id="boundary" inkscape:connector-curvature="0" />
	<path style="fill:none;stroke:red;stroke-width:1px;stroke-linecap:butt;stroke-linejoin:miter;stroke-opacity:1" d="M 336.133,140.373 358.129,135.973 z" id="boundary" inkscape:connector-curvature="0" />
	<path style="fill:none;stroke:red;stroke-width:1px;stroke-linecap:butt;stroke-linejoin:miter;stroke-opacity:1" d="M 336.133,923.415 351.53,941.011 z" id="boundary" inkscape:connector-curvature="0" />
	<path style="fill:none;stroke:red;stroke-width:1px;stroke-linecap:butt;stroke-linejoin:miter;stroke-opacity:1" d="M 351.53,941.011 369.126,956.408 z" id="boundary" inkscape:connector-curvature="0" />
	<path style="fill:none;stroke:red;stroke-width:1px;stroke-linecap:butt;stroke-linejoin:miter;stroke-opacity:1" d="M 358.129,135.973 380.124,135.973 z" id="boundary" inkscape:connector-curvature="0" />
	<path style="fill:none;stroke:red;stroke-width:1px;stroke-linecap:butt;stroke-linejoin:miter;stroke-opacity:1" d="M 369.126,956.408 391.122,963.007 z" id="boundary" inkscape:connector-curvature="0" />
	<path style="fill:none;stroke:red;stroke-width:1px;stroke-linecap:butt;stroke-linejoin:miter;stroke-opacity:1" d="M 380.124,135.973 402.12,135.973 z" id="boundary" inkscape:connector-curvature="0" />
	<path style="fill:none;stroke:red;stroke-width:1px;stroke-linecap:butt;stroke-linejoin:miter;stroke-opacity:1" d="M 391.122,963.007 413.118,967.406 z" id="boundary" inkscape:connector-curvature="0" />
	<path style="fill:none;stroke:red;stroke-width:1px;stroke-linecap:butt;stroke-linejoin:miter;stroke-opacity:1" d="M 402.12,135.973 424.115,135.973 z" id="boundary" inkscape:connector-curvature="0" />
	<path style="fill:none;stroke:red;stroke-width:1px;stroke-linecap:butt;stroke-linejoin:miter;stroke-opacity:1" d="M 413.118,967.406 428.514,985.002 z" id="boundary" inkscape:connector-curvature="0" />
	<path style="fill:none;stroke:red;stroke-width:1px;stroke-linecap:butt;stroke-linejoin:miter;stroke-opacity:1" d="M 424.115,135.973 446.111,135.973 z" id="boundary" inkscape:connector-curvature="0" />
	<path style="fill:none;stroke:red;stroke-width:1px;stroke-linecap:butt;stroke-linejoin:miter;stroke-opacity:1" d="M 428.514,985.002 448.31,996 z" id="boundary" inkscape:connector-curvature="0" />
	<path style="fill:none;stroke:red;stroke-width:1px;stroke-linecap:butt;stroke-linejoin:miter;stroke-opacity:1" d="M 446.111,135.973 468.106,135.973 z" id="boundary" inkscape:connector-curvature="0" />
	<path style="fill:none;stroke:red;stroke-width:1px;stroke-linecap:butt;stroke-linejoin:miter;stroke-opacity:1" d="M 448.31,996 470.306,996 z" id="boundary" inkscape:connector-curvature="0" />
	<path style="fill:none;stroke:red;stroke-width:1px;stroke-linecap:butt;stroke-linejoin:miter;stroke-opacity:1" d="M 468.106,135.973 487.902,124.976 z" id="boundary" inkscape:connector-curvature="0" />
	<path style="fill:none;stroke:red;stroke-width:1px;stroke-linecap:butt;stroke-linejoin:miter;stroke-opacity:1" d="M 470.306,996 492.302,996 z" id="boundary" inkscape:connector-curvature="0" />
	<path style="fill:none;stroke:red;stroke-width:1px;stroke-linecap:butt;stroke-linejoin:miter;stroke-opacity:1" d="M 487.902,124.976 509.898,124.976 z" id="boundary" inkscape:connector-curvature="0" />
	<path style="fill:none;stroke:red;stroke-width:1px;stroke-linecap:butt;stroke-linejoin:miter;stroke-opacity:1" d="M 492.302,996 512.098,985.002 z" id="boundary" inkscape:connector-curvature="0" />
	<path style="fill:none;stroke:red;stroke-width:1px;stroke-linecap:butt;stroke-linejoin:miter;stroke-opacity:1" d="M 509.898,124.976 529.694,113.978 z" id="boundary" inkscape:connector-curvature="0" />
	<path style="fill:none;stroke:red;stroke-width:1px;stroke-linecap:butt;stroke-linejoin:miter;stroke-opacity:1" d="M 512.098,985.002 534.093,985.002 z" id="boundary" inkscape:connector-curvature="0" />
	<path style="fill:none;stroke:red;stroke-width:1px;stroke-linecap:butt;stroke-linejoin:miter;stroke-opacity:1" d="M 529.694,113.978 549.49,102.98 z" id="boundary" inkscape:connector-curvature="0" />
	<path style="fill:none;stroke:red;stroke-width:1px;stroke-linecap:butt;stroke-linejoin:miter;stroke-opacity:1" d="M 534.093,985.002 556.089,985.002 z" id="boundary" inkscape:connector-curvature="0" />
	<path style="fill:none;stroke:red;stroke-width:1px;stroke-linecap:butt;stroke-linejoin:miter;stroke-opacity:1" d="M 549.49,102.98 567.086,85.3836 z" id="boundary" inkscape:connector-curvature="0" />
	<path style="fill:none;stroke:red;stroke-width:1px;stroke-linecap:butt;stroke-linejoin:miter;stroke-opacity:1" d="M 556.089,985.002 578.084,985.002 z" id="boundary" inkscape:connector-curvature="0" />
	<path style="fill:none;stroke:red;stroke-width:1px;stroke-linecap:butt;stroke-linejoin:miter;stroke-opacity:1" d="M 567.086,85.3836 589.082,74.3858 z" id="boundary" inkscape:connector-curvature="0" />
	<path style="fill:none;stroke:red;stroke-width:1px;stroke-linecap:butt;stroke-linejoin:miter;stroke-opacity:1" d="M 578.084,985.002 600.08,985.002 z" id="boundary" inkscape:connector-curvature="0" />
	<path style="fill:none;stroke:red;stroke-width:1px;stroke-linecap:butt;stroke-linejoin:miter;stroke-opacity:1" d="M 589.082,74.3858 606.678,58.9889 z" id="boundary" inkscape:connector-curvature="0" />
	<path style="fill:none;stroke:red;stroke-width:1px;stroke-linecap:butt;stroke-linejoin:miter;stroke-opacity:1" d="M 600.08,985.002 619.876,974.004 z" id="boundary" inkscape:connector-curvature="0" />
	<path style="fill:none;stroke:red;stroke-width:1px;stroke-linecap:butt;stroke-linejoin:miter;stroke-opacity:1" d="M 606.678,58.9889 626.475,47.9911 z" id="boundary" inkscape:connector-curvature="0" />
	<path style="fill:none;stroke:red;stroke-width:1px;stroke-linecap:butt;stroke-linejoin:miter;stroke-opacity:1" d="M 619.876,974.004 641.871,974.004 z" id="boundary" inkscape:connector-curvature="0" />
	<path style="fill:none;stroke:red;stroke-width:1px;stroke-linecap:butt;stroke-linejoin:miter;stroke-opacity:1" d="M 622.075,446.111 622.075,468.106 z" id="boundary" inkscape:connector-curvature="0" />
	<path style="fill:none;stroke:red;stroke-width:1px;stroke-linecap:butt;stroke-linejoin:miter;stroke-opacity:1" d="M 622.075,446.111 639.672,430.714 z" id="boundary" inkscape:connector-curvature="0" />
	<path style="fill:none;stroke:red;stroke-width:1px;stroke-linecap:butt;stroke-linejoin:miter;stroke-opacity:1" d="M 622.075,468.106 622.075,490.102 z" id="boundary" inkscape:connector-curvature="0" />
	<path style="fill:none;stroke:red;stroke-width:1px;stroke-linecap:butt;stroke-linejoin:miter;stroke-opacity:1" d="M 622.075,490.102 622.075,512.098 z" id="boundary" inkscape:connector-curvature="0" />
	<path style="fill:none;stroke:red;stroke-width:1px;stroke-linecap:butt;stroke-linejoin:miter;stroke-opacity:1" d="M 622.075,512.098 622.075,534.093 z" id="boundary" inkscape:connector-curvature="0" />
	<path style="fill:none;stroke:red;stroke-width:1px;stroke-linecap:butt;stroke-linejoin:miter;stroke-opacity:1" d="M 622.075,534.093 622.075,556.089 z" id="boundary" inkscape:connector-curvature="0" />
	<path style="fill:none;stroke:red;stroke-width:1px;stroke-linecap:butt;stroke-linejoin:miter;stroke-opacity:1" d="M 622.075,556.089 626.475,578.084 z" id="boundary" inkscape:connector-curvature="0" />
	<path style="fill:none;stroke:red;stroke-width:1px;stroke-linecap:butt;stroke-linejoin:miter;stroke-opacity:1" d="M 622.075,677.064 633.073,644.071 z" id="boundary" inkscape:connector-curvature="0" />
	<path style="fill:none;stroke:red;stroke-width:1px;stroke-linecap:butt;stroke-linejoin:miter;stroke-opacity:1" d="M 622.075,677.064 644.071,685.863 z" id="boundary" inkscape:connector-curvature="0" />
	<path style="fill:none;stroke:red;stroke-width:1px;stroke-linecap:butt;stroke-linejoin:miter;stroke-opacity:1" d="M 626.475,47.9911 641.871,21.5965 z" id="boundary" inkscape:connector-curvature="0" />
	<path style="fill:none;stroke:red;stroke-width:1px;stroke-linecap:butt;stroke-linejoin:miter;stroke-opacity:1" d="M 626.475,578.084 633.073,600.08 z" id="boundary" inkscape:connector-curvature="0" />
	<path style="fill:none;stroke:red;stroke-width:1px;stroke-linecap:butt;stroke-linejoin:miter;stroke-opacity:1" d="M 633.073,600.08 633.073,622.075 z" id="boundary" inkscape:connector-curvature="0" />
	<path style="fill:none;stroke:red;stroke-width:1px;stroke-linecap:butt;stroke-linejoin:miter;stroke-opacity:1" d="M 633.073,622.075 633.073,644.071 z" id="boundary" inkscape:connector-curvature="0" />
	<path style="fill:none;stroke:red;stroke-width:1px;stroke-linecap:butt;stroke-linejoin:miter;stroke-opacity:1" d="M 639.672,430.714 650.67,408.718 z" id="boundary" inkscape:connector-curvature="0" />
	<path style="fill:none;stroke:red;stroke-width:1px;stroke-linecap:butt;stroke-linejoin:miter;stroke-opacity:1" d="M 641.871,21.5965 659.468,4 z" id="boundary" inkscape:connector-curvature="0" />
	<path style="fill:none;stroke:red;stroke-width:1px;stroke-linecap:butt;stroke-linejoin:miter;stroke-opacity:1" d="M 641.871,974.004 659.468,960.807 z" id="boundary" inkscape:connector-curvature="0" />
	<path style="fill:none;stroke:red;stroke-width:1px;stroke-linecap:butt;stroke-linejoin:miter;stroke-opacity:1" d="M 644.071,685.863 666.067,692.461 z" id="boundary" inkscape:connector-curvature="0" />
	<path style="fill:none;stroke:red;stroke-width:1px;stroke-linecap:butt;stroke-linejoin:miter;stroke-opacity:1" d="M 650.67,408.718 666.067,391.122 z" id="boundary" inkscape:connector-curvature="0" />
	<path style="fill:none;stroke:red;stroke-width:1px;stroke-linecap:butt;stroke-linejoin:miter;stroke-opacity:1" d="M 659.468,4 681.463,4 z" id="boundary" inkscape:connector-curvature="0" />
	<path style="fill:none;stroke:red;stroke-width:1px;stroke-linecap:butt;stroke-linejoin:miter;stroke-opacity:1" d="M 659.468,960.807 677.064,941.011 z" id="boundary" inkscape:connector-curvature="0" />
	<path style="fill:none;stroke:red;stroke-width:1px;stroke-linecap:butt;stroke-linejoin:miter;stroke-opacity:1" d="M 666.067,391.122 688.062,391.122 z" id="boundary" inkscape:connector-curvature="0" />
	<path style="fill:none;stroke:red;stroke-width:1px;stroke-linecap:butt;stroke-linejoin:miter;stroke-opacity:1" d="M 666.067,692.461 688.062,696.86 z" id="boundary" inkscape:connector-curvature="0" />
	<path style="fill:none;stroke:red;stroke-width:1px;stroke-linecap:butt;stroke-linejoin:miter;stroke-opacity:1" d="M 677.064,941.011 699.06,941.011 z" id="boundary" inkscape:connector-curvature="0" />
	<path style="fill:none;stroke:red;stroke-width:1px;stroke-linecap:butt;stroke-linejoin:miter;stroke-opacity:1" d="M 681.463,4 701.259,14.9978 z" id="boundary" inkscape:connector-curvature="0" />
	<path style="fill:none;stroke:red;stroke-width:1px;stroke-linecap:butt;stroke-linejoin:miter;stroke-opacity:1" d="M 688.062,391.122 710.058,391.122 z" id="boundary" inkscape:connector-curvature="0" />
	<path style="fill:none;stroke:red;stroke-width:1px;stroke-linecap:butt;stroke-linejoin:miter;stroke-opacity:1" d="M 688.062,696.86 710.058,703.459 z" id="boundary" inkscape:connector-curvature="0" />
	<path style="fill:none;stroke:red;stroke-width:1px;stroke-linecap:butt;stroke-linejoin:miter;stroke-opacity:1" d="M 699.06,941.011 718.856,930.013 z" id="boundary" inkscape:connector-curvature="0" />
	<path style="fill:none;stroke:red;stroke-width:1px;stroke-linecap:butt;stroke-linejoin:miter;stroke-opacity:1" d="M 701.259,14.9978 718.856,30.3947 z" id="boundary" inkscape:connector-curvature="0" />
	<path style="fill:none;stroke:red;stroke-width:1px;stroke-linecap:butt;stroke-linejoin:miter;stroke-opacity:1" d="M 710.058,391.122 732.053,391.122 z" id="boundary" inkscape:connector-curvature="0" />
	<path style="fill:none;stroke:red;stroke-width:1px;stroke-linecap:butt;stroke-linejoin:miter;stroke-opacity:1" d="M 710.058,703.459 732.053,707.858 z" id="boundary" inkscape:connector-curvature="0" />
	<path style="fill:none;stroke:red;stroke-width:1px;stroke-linecap:butt;stroke-linejoin:miter;stroke-opacity:1" d="M 718.856,30.3947 740.851,36.9933 z" id="boundary" inkscape:connector-curvature="0" />
	<path style="fill:none;stroke:red;stroke-width:1px;stroke-linecap:butt;stroke-linejoin:miter;stroke-opacity:1" d="M 718.856,930.013 740.851,930.013 z" id="boundary" inkscape:connector-curvature="0" />
	<path style="fill:none;stroke:red;stroke-width:1px;stroke-linecap:butt;stroke-linejoin:miter;stroke-opacity:1" d="M 732.053,391.122 754.049,391.122 z" id="boundary" inkscape:connector-curvature="0" />
	<path style="fill:none;stroke:red;stroke-width:1px;stroke-linecap:butt;stroke-linejoin:miter;stroke-opacity:1" d="M 732.053,707.858 751.849,718.856 z" id="boundary" inkscape:connector-curvature="0" />
	<path style="fill:none;stroke:red;stroke-width:1px;stroke-linecap:butt;stroke-linejoin:miter;stroke-opacity:1" d="M 740.851,36.9933 762.847,41.3925 z" id="boundary" inkscape:connector-curvature="0" />
	<path style="fill:none;stroke:red;stroke-width:1px;stroke-linecap:butt;stroke-linejoin:miter;stroke-opacity:1" d="M 740.851,930.013 762.847,930.013 z" id="boundary" inkscape:connector-curvature="0" />
	<path style="fill:none;stroke:red;stroke-width:1px;stroke-linecap:butt;stroke-linejoin:miter;stroke-opacity:1" d="M 751.849,718.856 773.845,718.856 z" id="boundary" inkscape:connector-curvature="0" />
	<path style="fill:none;stroke:red;stroke-width:1px;stroke-linecap:butt;stroke-linejoin:miter;stroke-opacity:1" d="M 754.049,391.122 776.044,380.124 z" id="boundary" inkscape:connector-curvature="0" />
	<path style="fill:none;stroke:red;stroke-width:1px;stroke-linecap:butt;stroke-linejoin:miter;stroke-opacity:1" d="M 762.847,41.3925 782.643,52.3902 z" id="boundary" inkscape:connector-curvature="0" />
	<path style="fill:none;stroke:red;stroke-width:1px;stroke-linecap:butt;stroke-linejoin:miter;stroke-opacity:1" d="M 762.847,930.013 776.044,947.61 z" id="boundary" inkscape:connector-curvature="0" />
	<path style="fill:none;stroke:red;stroke-width:1px;stroke-linecap:butt;stroke-linejoin:miter;stroke-opacity:1" d="M 773.845,718.856 795.84,718.856 z" id="boundary" inkscape:connector-curvature="0" />
	<path style="fill:none;stroke:red;stroke-width:1px;stroke-linecap:butt;stroke-linejoin:miter;stroke-opacity:1" d="M 776.044,380.124 795.84,369.126 z" id="boundary" inkscape:connector-curvature="0" />
	<path style="fill:none;stroke:red;stroke-width:1px;stroke-linecap:butt;stroke-linejoin:miter;stroke-opacity:1" d="M 776.044,947.61 793.641,963.007 z" id="boundary" inkscape:connector-curvature="0" />
	<path style="fill:none;stroke:red;stroke-width:1px;stroke-linecap:butt;stroke-linejoin:miter;stroke-opacity:1" d="M 782.643,52.3902 798.04,69.9867 z" id="boundary" inkscape:connector-curvature="0" />
	<path style="fill:none;stroke:red;stroke-width:1px;stroke-linecap:butt;stroke-linejoin:miter;stroke-opacity:1" d="M 793.641,963.007 815.636,958.608 z" id="boundary" inkscape:connector-curvature="0" />
	<path style="fill:none;stroke:red;stroke-width:1px;stroke-linecap:butt;stroke-linejoin:miter;stroke-opacity:1" d="M 795.84,369.126 813.437,355.929 z" id="boundary" inkscape:connector-curvature="0" />
	<path style="fill:none;stroke:red;stroke-width:1px;stroke-linecap:butt;stroke-linejoin:miter;stroke-opacity:1" d="M 795.84,718.856 817.836,723.255 z" id="boundary" inkscape:connector-curvature="0" />
	<path style="fill:none;stroke:red;stroke-width:1px;stroke-linecap:butt;stroke-linejoin:miter;stroke-opacity:1" d="M 798.04,69.9867 817.836,80.9845 z" id="boundary" inkscape:connector-curvature="0" />
	<path style="fill:none;stroke:red;stroke-width:1px;stroke-linecap:butt;stroke-linejoin:miter;stroke-opacity:1" d="M 813.437,355.929 835.432,344.931 z" id="boundary" inkscape:connector-curvature="0" />
	<path style="fill:none;stroke:red;stroke-width:1px;stroke-linecap:butt;stroke-linejoin:miter;stroke-opacity:1" d="M 815.636,958.608 837.632,947.61 z" id="boundary" inkscape:connector-curvature="0" />
	<path style="fill:none;stroke:red;stroke-width:1px;stroke-linecap:butt;stroke-linejoin:miter;stroke-opacity:1" d="M 817.836,80.9845 835.432,94.1818 z" id="boundary" inkscape:connector-curvature="0" />
	<path style="fill:none;stroke:red;stroke-width:1px;stroke-linecap:butt;stroke-linejoin:miter;stroke-opacity:1" d="M 817.836,723.255 839.831,729.854 z" id="boundary" inkscape:connector-curvature="0" />
	<path style="fill:none;stroke:red;stroke-width:1px;stroke-linecap:butt;stroke-linejoin:miter;stroke-opacity:1" d="M 835.432,94.1818 853.029,109.579 z" id="boundary" inkscape:connector-curvature="0" />
	<path style="fill:none;stroke:red;stroke-width:1px;stroke-linecap:butt;stroke-linejoin:miter;stroke-opacity:1" d="M 835.432,344.931 853.029,314.137 z" id="boundary" inkscape:connector-curvature="0" />
	<path style="fill:none;stroke:red;stroke-width:1px;stroke-linecap:butt;stroke-linejoin:miter;stroke-opacity:1" d="M 837.632,947.61 859.627,941.011 z" id="boundary" inkscape:connector-curvature="0" />
	<path style="fill:none;stroke:red;stroke-width:1px;stroke-linecap:butt;stroke-linejoin:miter;stroke-opacity:1" d="M 839.831,729.854 859.627,740.851 z" id="boundary" inkscape:connector-curvature="0" />
	<path style="fill:none;stroke:red;stroke-width:1px;stroke-linecap:butt;stroke-linejoin:miter;stroke-opacity:1" d="M 842.031,149.171 853.029,109.579 z" id="boundary" inkscape:connector-curvature="0" />
	<path style="fill:none;stroke:red;stroke-width:1px;stroke-linecap:butt;stroke-linejoin:miter;stroke-opacity:1" d="M 842.031,149.171 853.029,168.967 z" id="boundary" inkscape:connector-curvature="0" />
	<path style="fill:none;stroke:red;stroke-width:1px;stroke-linecap:butt;stroke-linejoin:miter;stroke-opacity:1" d="M 853.029,168.967 864.027,188.763 z" id="boundary" inkscape:connector-curvature="0" />
	<path style="fill:none;stroke:red;stroke-width:1px;stroke-linecap:butt;stroke-linejoin:miter;stroke-opacity:1" d="M 853.029,314.137 875.024,303.14 z" id="boundary" inkscape:connector-curvature="0" />
	<path style="fill:none;stroke:red;stroke-width:1px;stroke-linecap:butt;stroke-linejoin:miter;stroke-opacity:1" d="M 859.627,740.851 879.424,751.849 z" id="boundary" inkscape:connector-curvature="0" />
	<path style="fill:none;stroke:red;stroke-width:1px;stroke-linecap:butt;stroke-linejoin:miter;stroke-opacity:1" d="M 859.627,941.011 879.424,952.009 z" id="boundary" inkscape:connector-curvature="0" />
	<path style="fill:none;stroke:red;stroke-width:1px;stroke-linecap:butt;stroke-linejoin:miter;stroke-opacity:1" d="M 864.027,188.763 864.027,210.758 z" id="boundary" inkscape:connector-curvature="0" />
	<path style="fill:none;stroke:red;stroke-width:1px;stroke-linecap:butt;stroke-linejoin:miter;stroke-opacity:1" d="M 864.027,210.758 881.623,226.155 z" id="boundary" inkscape:connector-curvature="0" />
	<path style="fill:none;stroke:red;stroke-width:1px;stroke-linecap:butt;stroke-linejoin:miter;stroke-opacity:1" d="M 875.024,303.14 886.022,270.146 z" id="boundary" inkscape:connector-curvature="0" />
	<path style="fill:none;stroke:red;stroke-width:1px;stroke-linecap:butt;stroke-linejoin:miter;stroke-opacity:1" d="M 879.424,751.849 899.22,762.847 z" id="boundary" inkscape:connector-curvature="0" />
	<path style="fill:none;stroke:red;stroke-width:1px;stroke-linecap:butt;stroke-linejoin:miter;stroke-opacity:1" d="M 879.424,952.009 901.419,949.809 z" id="boundary" inkscape:connector-curvature="0" />
	<path style="fill:none;stroke:red;stroke-width:1px;stroke-linecap:butt;stroke-linejoin:miter;stroke-opacity:1" d="M 881.623,226.155 886.022,248.151 z" id="boundary" inkscape:connector-curvature="0" />
	<path style="fill:none;stroke:red;stroke-width:1px;stroke-linecap:butt;stroke-linejoin:miter;stroke-opacity:1" d="M 886.022,248.151 886.022,270.146 z" id="boundary" inkscape:connector-curvature="0" />
	<path style="fill:none;stroke:red;stroke-width:1px;stroke-linecap:butt;stroke-linejoin:miter;stroke-opacity:1" d="M 899.22,762.847 908.018,784.843 z" id="boundary" inkscape:connector-curvature="0" />
	<path style="fill:none;stroke:red;stroke-width:1px;stroke-linecap:butt;stroke-linejoin:miter;stroke-opacity:1" d="M 901.419,949.809 912.417,927.814 z" id="boundary" inkscape:connector-curvature="0" />
	<path style="fill:none;stroke:red;stroke-width:1px;stroke-linecap:butt;stroke-linejoin:miter;stroke-opacity:1" d="M 908.018,784.843 908.018,806.838 z" id="boundary" inkscape:connector-curvature="0" />
	<path style="fill:none;stroke:red;stroke-width:1px;stroke-linecap:butt;stroke-linejoin:miter;stroke-opacity:1" d="M 908.018,806.838 919.016,826.634 z" id="boundary" inkscape:connector-curvature="0" />
	<path style="fill:none;stroke:red;stroke-width:1px;stroke-linecap:butt;stroke-linejoin:miter;stroke-opacity:1" d="M 912.417,927.814 919.016,892.621 z" id="boundary" inkscape:connector-curvature="0" />
	<path style="fill:none;stroke:red;stroke-width:1px;stroke-linecap:butt;stroke-linejoin:miter;stroke-opacity:1" d="M 919.016,826.634 919.016,848.63 z" id="boundary" inkscape:connector-curvature="0" />
	<path style="fill:none;stroke:red;stroke-width:1px;stroke-linecap:butt;stroke-linejoin:miter;stroke-opacity:1" d="M 919.016,848.63 919.016,870.625 z" id="boundary" inkscape:connector-curvature="0" />
	<path style="fill:none;stroke:red;stroke-width:1px;stroke-linecap:butt;stroke-linejoin:miter;stroke-opacity:1" d="M 919.016,870.625 919.016,892.621 z" id="boundary" inkscape:connector-curvature="0" />
	<circle cx="4" cy="472.506" r="4" fill="#0" id="circle0"/>
	<circle cx="4" cy="494.501" r="4" fill="#0" id="circle1"/>
	<circle cx="14.9978" cy="384.523" r="4" fill="#0" id="circle2"/>
	<circle cx="14.9978" cy="406.519" r="4" fill="#0" id="circle3"/>
	<circle cx="14.9978" cy="428.514" r="4" fill="#0" id="circle4"/>
	<circle cx="14.9978" cy="450.51" r="4" fill="#0" id="circle5"/>
	<circle cx="14.9978" cy="514.297" r="4" fill="#0" id="circle6"/>
	<circle cx="25.9956" cy="534.093" r="4" fill="#0" id="circle7"/>
	<circle cx="25.9956" cy="659.468" r="4" fill="#0" id="circle8"/>
	<circle cx="25.9956" cy="681.463" r="4" fill="#0" id="circle9"/>
	<circle cx="32.5942" cy="366.927" r="4" fill="#0" id="circle10"/>
	<circle cx="36.9933" cy="571.486" r="4" fill="#0" id="circle11"/>
	<circle cx="36.9933" cy="593.481" r="4" fill="#0" id="circle12"/>
	<circle cx="36.9933" cy="626.475" r="4" fill="#0" id="circle13"/>
	<circle cx="47.9911" cy="527.494" r="4" fill="#0" id="circle14"/>
	<circle cx="47.9911" cy="688.062" r="4" fill="#0" id="circle15"/>
	<circle cx="54.5898" cy="366.927" r="4" fill="#0" id="circle16"/>
	<circle cx="58.9889" cy="505.499" r="4" fill="#0" id="circle17"/>
	<circle cx="58.9889" cy="564.887" r="4" fill="#0" id="circle18"/>
	<circle cx="58.9889" cy="600.08" r="4" fill="#0" id="circle19"/>
	<circle cx="61.1885" cy="388.922" r="4" fill="#0" id="circle20"/>
	<circle cx="61.1885" cy="410.918" r="4" fill="#0" id="circle21"/>
	<circle cx="69.9867" cy="688.062" r="4" fill="#0" id="circle22"/>
	<circle cx="72.1863" cy="468.106" r="4" fill="#0" id="circle23"/>
	<circle cx="80.9845" cy="421.916" r="4" fill="#0" id="circle24"/>
	<circle cx="80.9845" cy="560.488" r="4" fill="#0" id="circle25"/>
	<circle cx="91.9823" cy="457.109" r="4" fill="#0" id="circle26"/>
	<circle cx="91.9823" cy="688.062" r="4" fill="#0" id="circle27"/>
	<circle cx="98.5809" cy="542.891" r="4" fill="#0" id="circle28"/>
	<circle cx="102.98" cy="421.916" r="4" fill="#0" id="circle29"/>
	<circle cx="105.18" cy="474.705" r="4" fill="#0" id="circle30"/>
	<circle cx="105.18" cy="589.082" r="4" fill="#0" id="circle31"/>
	<circle cx="105.18" cy="611.078" r="4" fill="#0" id="circle32"/>
	<circle cx="105.18" cy="633.073" r="4" fill="#0" id="circle33"/>
	<circle cx="105.18" cy="655.069" r="4" fill="#0" id="circle34"/>
	<circle cx="109.579" cy="520.896" r="4" fill="#0" id="circle35"/>
	<circle cx="122.776" cy="490.102" r="4" fill="#0" id="circle36"/>
	<circle cx="124.976" cy="417.517" r="4" fill="#0" id="circle37"/>
	<circle cx="127.175" cy="578.084" r="4" fill="#0" id="circle38"/>
	<circle cx="142.572" cy="399.92" r="4" fill="#0" id="circle39"/>
	<circle cx="149.171" cy="578.084" r="4" fill="#0" id="circle40"/>
	<circle cx="162.368" cy="595.681" r="4" fill="#0" id="circle41"/>
	<circle cx="164.568" cy="399.92" r="4" fill="#0" id="circle42"/>
	<circle cx="168.967" cy="373.525" r="4" fill="#0" id="circle43"/>
	<circle cx="179.965" cy="351.53" r="4" fill="#0" id="circle44"/>
	<circle cx="179.965" cy="608.878" r="4" fill="#0" id="circle45"/>
	<circle cx="179.965" cy="630.874" r="4" fill="#0" id="circle46"/>
	<circle cx="179.965" cy="652.869" r="4" fill="#0" id="circle47"/>
	<circle cx="179.965" cy="674.865" r="4" fill="#0" id="circle48"/>
	<circle cx="179.965" cy="696.86" r="4" fill="#0" id="circle49"/>
	<circle cx="179.965" cy="718.856" r="4" fill="#0" id="circle50"/>
	<circle cx="179.965" cy="740.851" r="4" fill="#0" id="circle51"/>
	<circle cx="190.962" cy="760.647" r="4" fill="#0" id="circle52"/>
	<circle cx="193.162" cy="782.643" r="4" fill="#0" id="circle53"/>
	<circle cx="197.561" cy="333.933" r="4" fill="#0" id="circle54"/>
	<circle cx="201.96" cy="307.539" r="4" fill="#0" id="circle55"/>
	<circle cx="201.96" cy="804.639" r="4" fill="#0" id="circle56"/>
	<circle cx="212.958" cy="285.543" r="4" fill="#0" id="circle57"/>
	<circle cx="212.958" cy="824.435" r="4" fill="#0" id="circle58"/>
	<circle cx="230.554" cy="267.947" r="4" fill="#0" id="circle59"/>
	<circle cx="234.953" cy="241.552" r="4" fill="#0" id="circle60"/>
	<circle cx="234.953" cy="831.033" r="4" fill="#0" id="circle61"/>
	<circle cx="245.951" cy="219.557" r="4" fill="#0" id="circle62"/>
	<circle cx="248.151" cy="848.63" r="4" fill="#0" id="circle63"/>
	<circle cx="263.548" cy="201.96" r="4" fill="#0" id="circle64"/>
	<circle cx="265.747" cy="864.027" r="4" fill="#0" id="circle65"/>
	<circle cx="281.144" cy="184.364" r="4" fill="#0" id="circle66"/>
	<circle cx="281.144" cy="881.623" r="4" fill="#0" id="circle67"/>
	<circle cx="298.741" cy="168.967" r="4" fill="#0" id="circle68"/>
	<circle cx="298.741" cy="897.02" r="4" fill="#0" id="circle69"/>
	<circle cx="314.137" cy="151.37" r="4" fill="#0" id="circle70"/>
	<circle cx="314.137" cy="914.616" r="4" fill="#0" id="circle71"/>
	<circle cx="336.133" cy="140.373" r="4" fill="#0" id="circle72"/>
	<circle cx="336.133" cy="923.415" r="4" fill="#0" id="circle73"/>
	<circle cx="351.53" cy="941.011" r="4" fill="#0" id="circle74"/>
	<circle cx="358.129" cy="135.973" r="4" fill="#0" id="circle75"/>
	<circle cx="369.126" cy="956.408" r="4" fill="#0" id="circle76"/>
	<circle cx="380.124" cy="135.973" r="4" fill="#0" id="circle77"/>
	<circle cx="391.122" cy="963.007" r="4" fill="#0" id="circle78"/>
	<circle cx="402.12" cy="135.973" r="4" fill="#0" id="circle79"/>
	<circle cx="413.118" cy="967.406" r="4" fill="#0" id="circle80"/>
	<circle cx="424.115" cy="135.973" r="4" fill="#0" id="circle81"/>
	<circle cx="428.514" cy="985.002" r="4" fill="#0" id="circle82"/>
	<circle cx="446.111" cy="135.973" r="4" fill="#0" id="circle83"/>
	<circle cx="448.31" cy="996" r="4" fill="#0" id="circle84"/>
	<circle cx="468.106" cy="135.973" r="4" fill="#0" id="circle85"/>
	<circle cx="470.306" cy="996" r="4" fill="#0" id="circle86"/>
	<circle cx="487.902" cy="124.976" r="4" fill="#0" id="circle87"/>
	<circle cx="492.302" cy="996" r="4" fill="#0" id="circle88"/>
	<circle cx="509.898" cy="124.976" r="4" fill="#0" id="circle89"/>
	<circle cx="512.098" cy="985.002" r="4" fill="#0" id="circle90"/>
	<circle cx="529.694" cy="113.978" r="4" fill="#0" id="circle91"/>
	<circle cx="534.093" cy="985.002" r="4" fill="#0" id="circle92"/>
	<circle cx="549.49" cy="102.98" r="4" fill="#0" id="circle93"/>
	<circle cx="556.089" cy="985.002" r="4" fill="#0" id="circle94"/>
	<circle cx="567.086" cy="85.3836" r="4" fill="#0" id="circle95"/>
	<circle cx="578.084" cy="985.002" r="4" fill="#0" id="circle96"/>
	<circle cx="589.082" cy="74.3858" r="4" fill="#0" id="circle97"/>
	<circle cx="600.08" cy="985.002" r="4" fill="#0" id="circle98"/>
	<circle cx="606.678" cy="58.9889" r="4" fill="#0" id="circle99"/>
	<circle cx="619.876" cy="974.004" r="4" fill="#0" id="circle100"/>
	<circle cx="622.075" cy="446.111" r="4" fill="#0" id="circle101"/>
	<circle cx="622.075" cy="468.106" r="4" fill="#0" id="circle102"/>
	<circle cx="622.075" cy="490.102" r="4" fill="#0" id="circle103"/>
	<circle cx="622.075" cy="512.098" r="4" fill="#0" id="circle104"/>
	<circle cx="622.075" cy="534.093" r="4" fill="#0" id="circle105"/>
	<circle cx="622.075" cy="556.089" r="4" fill="#0" id="circle106"/>
	<circle cx="622.075" cy="677.064" r="4" fill="#0" id="circle107"/>
	<circle cx="626.475" cy="47.9911" r="4" fill="#0" id="circle108"/>
	<circle cx="626.475" cy="578.084" r="4" fill="#0" id="circle109"/>
	<circle cx="633.073" cy="600.08" r="4" fill="#0" id="circle110"/>
	<circle cx="633.073" cy="622.075" r="4" fill="#0" id="circle111"/>
	<circle cx="633.073" cy="644.071" r="4" fill="#0" id="circle112"/>
	<circle cx="639.672" cy="430.714" r="4" fill="#0" id="circle113"/>
	<circle cx="641.871" cy="21.5965" r="4" fill="#0" id="circle114"/>
	<circle cx="641.871" cy="974.004" r="4" fill="#0" id="circle115"/>
	<circle cx="644.071" cy="685.863" r="4" fill="#0" id="circle116"/>
	<circle cx="650.67" cy="408.718" r="4" fill="#0" id="circle117"/>
	<circle cx="659.468" cy="4" r="4" fill="#0" id="circle118"/>
	<circle cx="659.468" cy="960.807" r="4" fill="#0" id="circle119"/>
	<circle cx="666.067" cy="391.122" r="4" fill="#0" id="circle120"/>
	<circle cx="666.067" cy="692.461" r="4" fill="#0" id="circle121"/>
	<circle cx="677.064" cy="941.011" r="4" fill="#0" id="circle122"/>
	<circle cx="681.463" cy="4" r="4" fill="#0" id="circle123"/>
	<circle cx="688.062" cy="391.122" r="4" fill="#0" id="circle124"/>
	<circle cx="688.062" cy="696.86" r="4" fill="#0" id="circle125"/>
	<circle cx="699.06" cy="941.011" r="4" fill="#0" id="circle126"/>
	<circle cx="701.259" cy="14.9978" r="4" fill="#0" id="circle127"/>
	<circle cx="710.058" cy="391.122" r="4" fill="#0" id="circle128"/>
	<circle cx="710.058" cy="703.459" r="4" fill="#0" id="circle129"/>
	<circle cx="718.856" cy="30.3947" r="4" fill="#0" id="circle130"/>
	<circle cx="718.856" cy="930.013" r="4" fill="#0" id="circle131"/>
	<circle cx="732.053" cy="391.122" r="4" fill="#0" id="circle132"/>
	<circle cx="732.053" cy="707.858" r="4" fill="#0" id="circle133"/>
	<circle cx="740.851" cy="36.9933" r="4" fill="#0" id="circle134"/>
	<circle cx="740.851" cy="930.013" r="4" fill="#0" id="circle135"/>
	<circle cx="751.849" cy="718.856" r="4" fill="#0" id="circle136"/>
	<circle cx="754.049" cy="391.122" r="4" fill="#0" id="circle137"/>
	<circle cx="762.847" cy="41.3925" r="4" fill="#0" id="circle138"/>
	<circle cx="762.847" cy="930.013" r="4" fill="#0" id="circle139"/>
	<circle cx="773.845" cy="718.856" r="4" fill="#0" id="circle140"/>
	<circle cx="776.044" cy="380.124" r="4" fill="#0" id="circle141"/>
	<circle cx="776.044" cy="947.61" r="4" fill="#0" id="circle142"/>
	<circle cx="782.643" cy="52.3902" r="4" fill="#0" id="circle143"/>
	<circle cx="793.641" cy="963.007" r="4" fill="#0" id="circle144"/>
	<circle cx="795.84" cy="369.126" r="4" fill="#0" id="circle145"/>
	<circle cx="795.84" cy="718.856" r="4" fill="#0" id="circle146"/>
	<circle cx="798.04" cy="69.9867" r="4" fill="#0" id="circle147"/>
	<circle cx="802.439" cy="985.002" r="4" fill="#0" id="circle148"/>
	<circle cx="813.437" cy="355.929" r="4" fill="#0" id="circle149"/>
	<circle cx="815.636" cy="958.608" r="4" fill="#0" id="circle150"/>
	<circle cx="817.836" cy="80.9845" r="4" fill="#0" id="circle151"/>
	<circle cx="817.836" cy="723.255" r="4" fill="#0" id="circle152"/>
	<circle cx="835.432" cy="94.1818" r="4" fill="#0" id="circle153"/>
	<circle cx="835.432" cy="344.931" r="4" fill="#0" id="circle154"/>
	<circle cx="837.632" cy="947.61" r="4" fill="#0" id="circle155"/>
	<circle cx="839.831" cy="729.854" r="4" fill="#0" id="circle156"/>
	<circle cx="842.031" cy="149.171" r="4" fill="#0" id="circle157"/>
	<circle cx="853.029" cy="109.579" r="4" fill="#0" id="circle158"/>
	<circle cx="853.029" cy="168.967" r="4" fill="#0" id="circle159"/>
	<circle cx="853.029" cy="314.137" r="4" fill="#0" id="circle160"/>
	<circle cx="859.627" cy="740.851" r="4" fill="#0" id="circle161"/>
	<circle cx="859.627" cy="941.011" r="4" fill="#0" id="circle162"/>
	<circle cx="864.027" cy="188.763" r="4" fill="#0" id="circle163"/>
	<circle cx="864.027" cy="210.758" r="4" fill="#0" id="circle164"/>
	<circle cx="875.024" cy="303.14" r="4" fill="#0" id="circle165"/>
	<circle cx="879.424" cy="751.849" r="4" fill="#0" id="circle166"/>
	<circle cx="879.424" cy="952.009" r="4" fill="#0" id="circle167"/>
	<circle cx="881.623" cy="226.155" r="4" fill="#0" id="circle168"/>
	<circle cx="886.022" cy="248.151" r="4" fill="#0" id="circle169"/>
	<circle cx="886.022" cy="270.146" r="4" fill="#0" id="circle170"/>
	<circle cx="899.22" cy="762.847" r="4" fill="#0" id="circle171"/>
	<circle cx="901.419" cy="949.809" r="4" fill="#0" id="circle172"/>
	<circle cx="908.018" cy="784.843" r="4" fill="#0" id="circle173"/>
	<circle cx="908.018" cy="806.838" r="4" fill="#0" id="circle174"/>
	<circle cx="912.417" cy="927.814" r="4" fill="#0" id="circle175"/>
	<circle cx="919.016" cy="826.634" r="4" fill="#0" id="circle176"/>
	<circle cx="919.016" cy="848.63" r="4" fill="#0" id="circle177"/>
	<circle cx="919.016" cy="870.625" r="4" fill="#0" id="circle178"/>
	<circle cx="919.016" cy="892.621" r="4" fill="#0" id="circle179"/>
	</g>
</svg>