<?xml version="1.0" encoding="UTF-8" standalone="no"?>
<!-- Created with CurveBenchmark -->
<svg
	xmlns:dc="http://purl.org/dc/elements/1.1/"
	xmlns:cc="http://creativecommons.org/ns#"
	xmlns:rdf="http://www.w3.org/1999/02/22-rdf-syntax-ns#"
	xmlns:svg="http://www.w3.org/2000/svg"
	xmlns="http://www.w3.org/2000/svg"
	xmlns:sodipodi="http://sodipodi.sourceforge.net/DTD/sodipodi-0.dtd"
	xmlns:inkscape="http://www.inkscape.org/namespaces/inkscape"
	width="1000"
	height="1000"
	id="svg2"
	version="1.1"
	sodipodi:docname="manifold/vicur-guitar230.png.txt">
<defs
	id="defs4" />
<metadata
	id="metadata7">
	<rdf:RDF>
		<cc:Work
			rdf:about="">
			<dc:format>image/svg+xml</dc:format>
			<dc:type
				rdf:resource="http://purl.org/dc/dcmitype/StillImage" />
			<dc:title></dc:title>
		</cc:Work>
	</rdf:RDF>
</metadata>
<g
	inkscape:label="Layer 1"
	inkscape:groupmode="layer"
	id="layer1">
	<path style="fill:none;stroke:red;stroke-width:1px;stroke-linecap:butt;stroke-linejoin:miter;stroke-opacity:1" d="M 4,803.208 4,838.261 z" id="boundary" inkscape:connector-curvature="0" />
	<path style="fill:none;stroke:red;stroke-width:1px;stroke-linecap:butt;stroke-linejoin:miter;stroke-opacity:1" d="M 4,803.208 18.0212,754.134 z" id="boundary" inkscape:connector-curvature="0" />
	<path style="fill:none;stroke:red;stroke-width:1px;stroke-linecap:butt;stroke-linejoin:miter;stroke-opacity:1" d="M 4,838.261 4,873.314 z" id="boundary" inkscape:connector-curvature="0" />
	<path style="fill:none;stroke:red;stroke-width:1px;stroke-linecap:butt;stroke-linejoin:miter;stroke-opacity:1" d="M 4,873.314 18.0212,908.367 z" id="boundary" inkscape:connector-curvature="0" />
	<path style="fill:none;stroke:red;stroke-width:1px;stroke-linecap:butt;stroke-linejoin:miter;stroke-opacity:1" d="M 18.0212,754.134 32.0424,719.081 z" id="boundary" inkscape:connector-curvature="0" />
	<path style="fill:none;stroke:red;stroke-width:1px;stroke-linecap:butt;stroke-linejoin:miter;stroke-opacity:1" d="M 18.0212,908.367 35.5477,939.915 z" id="boundary" inkscape:connector-curvature="0" />
	<path style="fill:none;stroke:red;stroke-width:1px;stroke-linecap:butt;stroke-linejoin:miter;stroke-opacity:1" d="M 32.0424,550.827 32.0424,585.88 z" id="boundary" inkscape:connector-curvature="0" />
	<path style="fill:none;stroke:red;stroke-width:1px;stroke-linecap:butt;stroke-linejoin:miter;stroke-opacity:1" d="M 32.0424,550.827 67.0954,543.816 z" id="boundary" inkscape:connector-curvature="0" />
	<path style="fill:none;stroke:red;stroke-width:1px;stroke-linecap:butt;stroke-linejoin:miter;stroke-opacity:1" d="M 32.0424,585.88 39.053,620.933 z" id="boundary" inkscape:connector-curvature="0" />
	<path style="fill:none;stroke:red;stroke-width:1px;stroke-linecap:butt;stroke-linejoin:miter;stroke-opacity:1" d="M 32.0424,719.081 46.0636,655.986 z" id="boundary" inkscape:connector-curvature="0" />
	<path style="fill:none;stroke:red;stroke-width:1px;stroke-linecap:butt;stroke-linejoin:miter;stroke-opacity:1" d="M 35.5477,939.915 60.0848,967.958 z" id="boundary" inkscape:connector-curvature="0" />
	<path style="fill:none;stroke:red;stroke-width:1px;stroke-linecap:butt;stroke-linejoin:miter;stroke-opacity:1" d="M 39.053,620.933 46.0636,655.986 z" id="boundary" inkscape:connector-curvature="0" />
	<path style="fill:none;stroke:red;stroke-width:1px;stroke-linecap:butt;stroke-linejoin:miter;stroke-opacity:1" d="M 60.0848,967.958 95.1378,981.979 z" id="boundary" inkscape:connector-curvature="0" />
	<path style="fill:none;stroke:red;stroke-width:1px;stroke-linecap:butt;stroke-linejoin:miter;stroke-opacity:1" d="M 67.0954,543.816 102.148,515.774 z" id="boundary" inkscape:connector-curvature="0" />
	<path style="fill:none;stroke:red;stroke-width:1px;stroke-linecap:butt;stroke-linejoin:miter;stroke-opacity:1" d="M 95.1378,981.979 130.191,988.989 z" id="boundary" inkscape:connector-curvature="0" />
	<path style="fill:none;stroke:red;stroke-width:1px;stroke-linecap:butt;stroke-linejoin:miter;stroke-opacity:1" d="M 102.148,361.541 102.148,410.615 z" id="boundary" inkscape:connector-curvature="0" />
	<path style="fill:none;stroke:red;stroke-width:1px;stroke-linecap:butt;stroke-linejoin:miter;stroke-opacity:1" d="M 102.148,361.541 109.159,312.466 z" id="boundary" inkscape:connector-curvature="0" />
	<path style="fill:none;stroke:red;stroke-width:1px;stroke-linecap:butt;stroke-linejoin:miter;stroke-opacity:1" d="M 102.148,410.615 102.148,445.668 z" id="boundary" inkscape:connector-curvature="0" />
	<path style="fill:none;stroke:red;stroke-width:1px;stroke-linecap:butt;stroke-linejoin:miter;stroke-opacity:1" d="M 102.148,445.668 102.148,480.721 z" id="boundary" inkscape:connector-curvature="0" />
	<path style="fill:none;stroke:red;stroke-width:1px;stroke-linecap:butt;stroke-linejoin:miter;stroke-opacity:1" d="M 102.148,480.721 102.148,515.774 z" id="boundary" inkscape:connector-curvature="0" />
	<path style="fill:none;stroke:red;stroke-width:1px;stroke-linecap:butt;stroke-linejoin:miter;stroke-opacity:1" d="M 109.159,102.148 109.159,137.201 z" id="boundary" inkscape:connector-curvature="0" />
	<path style="fill:none;stroke:red;stroke-width:1px;stroke-linecap:butt;stroke-linejoin:miter;stroke-opacity:1" d="M 109.159,102.148 116.17,67.0954 z" id="boundary" inkscape:connector-curvature="0" />
	<path style="fill:none;stroke:red;stroke-width:1px;stroke-linecap:butt;stroke-linejoin:miter;stroke-opacity:1" d="M 109.159,137.201 109.159,172.254 z" id="boundary" inkscape:connector-curvature="0" />
	<path style="fill:none;stroke:red;stroke-width:1px;stroke-linecap:butt;stroke-linejoin:miter;stroke-opacity:1" d="M 109.159,172.254 109.159,207.307 z" id="boundary" inkscape:connector-curvature="0" />
	<path style="fill:none;stroke:red;stroke-width:1px;stroke-linecap:butt;stroke-linejoin:miter;stroke-opacity:1" d="M 109.159,207.307 109.159,242.36 z" id="boundary" inkscape:connector-curvature="0" />
	<path style="fill:none;stroke:red;stroke-width:1px;stroke-linecap:butt;stroke-linejoin:miter;stroke-opacity:1" d="M 109.159,242.36 109.159,277.413 z" id="boundary" inkscape:connector-curvature="0" />
	<path style="fill:none;stroke:red;stroke-width:1px;stroke-linecap:butt;stroke-linejoin:miter;stroke-opacity:1" d="M 109.159,277.413 109.159,312.466 z" id="boundary" inkscape:connector-curvature="0" />
	<path style="fill:none;stroke:red;stroke-width:1px;stroke-linecap:butt;stroke-linejoin:miter;stroke-opacity:1" d="M 116.17,67.0954 123.18,32.0424 z" id="boundary" inkscape:connector-curvature="0" />
	<path style="fill:none;stroke:red;stroke-width:1px;stroke-linecap:butt;stroke-linejoin:miter;stroke-opacity:1" d="M 123.18,32.0424 144.212,4 z" id="boundary" inkscape:connector-curvature="0" />
	<path style="fill:none;stroke:red;stroke-width:1px;stroke-linecap:butt;stroke-linejoin:miter;stroke-opacity:1" d="M 130.191,988.989 165.244,996 z" id="boundary" inkscape:connector-curvature="0" />
	<path style="fill:none;stroke:red;stroke-width:1px;stroke-linecap:butt;stroke-linejoin:miter;stroke-opacity:1" d="M 144.212,4 179.265,11.0106 z" id="boundary" inkscape:connector-curvature="0" />
	<path style="fill:none;stroke:red;stroke-width:1px;stroke-linecap:butt;stroke-linejoin:miter;stroke-opacity:1" d="M 147.717,137.201 147.717,172.254 z" id="boundary" inkscape:connector-curvature="0" />
	<path style="fill:none;stroke:red;stroke-width:1px;stroke-linecap:butt;stroke-linejoin:miter;stroke-opacity:1" d="M 147.717,137.201 165.244,84.6219 z" id="boundary" inkscape:connector-curvature="0" />
	<path style="fill:none;stroke:red;stroke-width:1px;stroke-linecap:butt;stroke-linejoin:miter;stroke-opacity:1" d="M 147.717,172.254 147.717,207.307 z" id="boundary" inkscape:connector-curvature="0" />
	<path style="fill:none;stroke:red;stroke-width:1px;stroke-linecap:butt;stroke-linejoin:miter;stroke-opacity:1" d="M 147.717,207.307 147.717,242.36 z" id="boundary" inkscape:connector-curvature="0" />
	<path style="fill:none;stroke:red;stroke-width:1px;stroke-linecap:butt;stroke-linejoin:miter;stroke-opacity:1" d="M 147.717,242.36 147.717,277.413 z" id="boundary" inkscape:connector-curvature="0" />
	<path style="fill:none;stroke:red;stroke-width:1px;stroke-linecap:butt;stroke-linejoin:miter;stroke-opacity:1" d="M 147.717,277.413 147.717,312.466 z" id="boundary" inkscape:connector-curvature="0" />
	<path style="fill:none;stroke:red;stroke-width:1px;stroke-linecap:butt;stroke-linejoin:miter;stroke-opacity:1" d="M 147.717,312.466 154.728,347.519 z" id="boundary" inkscape:connector-curvature="0" />
	<path style="fill:none;stroke:red;stroke-width:1px;stroke-linecap:butt;stroke-linejoin:miter;stroke-opacity:1" d="M 154.728,347.519 154.728,382.572 z" id="boundary" inkscape:connector-curvature="0" />
	<path style="fill:none;stroke:red;stroke-width:1px;stroke-linecap:butt;stroke-linejoin:miter;stroke-opacity:1" d="M 154.728,382.572 154.728,417.625 z" id="boundary" inkscape:connector-curvature="0" />
	<path style="fill:none;stroke:red;stroke-width:1px;stroke-linecap:butt;stroke-linejoin:miter;stroke-opacity:1" d="M 154.728,417.625 154.728,452.678 z" id="boundary" inkscape:connector-curvature="0" />
	<path style="fill:none;stroke:red;stroke-width:1px;stroke-linecap:butt;stroke-linejoin:miter;stroke-opacity:1" d="M 154.728,452.678 175.76,480.721 z" id="boundary" inkscape:connector-curvature="0" />
	<path style="fill:none;stroke:red;stroke-width:1px;stroke-linecap:butt;stroke-linejoin:miter;stroke-opacity:1" d="M 165.244,84.6219 175.76,46.0636 z" id="boundary" inkscape:connector-curvature="0" />
	<path style="fill:none;stroke:red;stroke-width:1px;stroke-linecap:butt;stroke-linejoin:miter;stroke-opacity:1" d="M 165.244,996 200.297,988.989 z" id="boundary" inkscape:connector-curvature="0" />
	<path style="fill:none;stroke:red;stroke-width:1px;stroke-linecap:butt;stroke-linejoin:miter;stroke-opacity:1" d="M 175.76,46.0636 179.265,11.0106 z" id="boundary" inkscape:connector-curvature="0" />
	<path style="fill:none;stroke:red;stroke-width:1px;stroke-linecap:butt;stroke-linejoin:miter;stroke-opacity:1" d="M 175.76,480.721 210.813,487.731 z" id="boundary" inkscape:connector-curvature="0" />
	<path style="fill:none;stroke:red;stroke-width:1px;stroke-linecap:butt;stroke-linejoin:miter;stroke-opacity:1" d="M 200.297,988.989 235.35,988.989 z" id="boundary" inkscape:connector-curvature="0" />
	<path style="fill:none;stroke:red;stroke-width:1px;stroke-linecap:butt;stroke-linejoin:miter;stroke-opacity:1" d="M 210.813,487.731 245.866,501.753 z" id="boundary" inkscape:connector-curvature="0" />
	<path style="fill:none;stroke:red;stroke-width:1px;stroke-linecap:butt;stroke-linejoin:miter;stroke-opacity:1" d="M 235.35,988.989 266.898,971.463 z" id="boundary" inkscape:connector-curvature="0" />
	<path style="fill:none;stroke:red;stroke-width:1px;stroke-linecap:butt;stroke-linejoin:miter;stroke-opacity:1" d="M 245.866,501.753 277.413,519.279 z" id="boundary" inkscape:connector-curvature="0" />
	<path style="fill:none;stroke:red;stroke-width:1px;stroke-linecap:butt;stroke-linejoin:miter;stroke-opacity:1" d="M 266.898,971.463 294.94,943.42 z" id="boundary" inkscape:connector-curvature="0" />
	<path style="fill:none;stroke:red;stroke-width:1px;stroke-linecap:butt;stroke-linejoin:miter;stroke-opacity:1" d="M 277.413,519.279 294.94,550.827 z" id="boundary" inkscape:connector-curvature="0" />
	<path style="fill:none;stroke:red;stroke-width:1px;stroke-linecap:butt;stroke-linejoin:miter;stroke-opacity:1" d="M 280.919,648.975 280.919,684.028 z" id="boundary" inkscape:connector-curvature="0" />
	<path style="fill:none;stroke:red;stroke-width:1px;stroke-linecap:butt;stroke-linejoin:miter;stroke-opacity:1" d="M 280.919,648.975 294.94,585.88 z" id="boundary" inkscape:connector-curvature="0" />
	<path style="fill:none;stroke:red;stroke-width:1px;stroke-linecap:butt;stroke-linejoin:miter;stroke-opacity:1" d="M 280.919,684.028 294.94,719.081 z" id="boundary" inkscape:connector-curvature="0" />
	<path style="fill:none;stroke:red;stroke-width:1px;stroke-linecap:butt;stroke-linejoin:miter;stroke-opacity:1" d="M 294.94,550.827 294.94,585.88 z" id="boundary" inkscape:connector-curvature="0" />
	<path style="fill:none;stroke:red;stroke-width:1px;stroke-linecap:butt;stroke-linejoin:miter;stroke-opacity:1" d="M 294.94,719.081 308.961,754.134 z" id="boundary" inkscape:connector-curvature="0" />
	<path style="fill:none;stroke:red;stroke-width:1px;stroke-linecap:butt;stroke-linejoin:miter;stroke-opacity:1" d="M 294.94,943.42 315.972,908.367 z" id="boundary" inkscape:connector-curvature="0" />
	<path style="fill:none;stroke:red;stroke-width:1px;stroke-linecap:butt;stroke-linejoin:miter;stroke-opacity:1" d="M 308.961,754.134 322.982,789.187 z" id="boundary" inkscape:connector-curvature="0" />
	<path style="fill:none;stroke:red;stroke-width:1px;stroke-linecap:butt;stroke-linejoin:miter;stroke-opacity:1" d="M 315.972,908.367 329.993,859.293 z" id="boundary" inkscape:connector-curvature="0" />
	<path style="fill:none;stroke:red;stroke-width:1px;stroke-linecap:butt;stroke-linejoin:miter;stroke-opacity:1" d="M 322.982,789.187 329.993,824.24 z" id="boundary" inkscape:connector-curvature="0" />
	<path style="fill:none;stroke:red;stroke-width:1px;stroke-linecap:butt;stroke-linejoin:miter;stroke-opacity:1" d="M 329.993,824.24 329.993,859.293 z" id="boundary" inkscape:connector-curvature="0" />
	<circle cx="4" cy="803.208" r="4" fill="#0" id="circle0"/>
	<circle cx="4" cy="838.261" r="4" fill="#0" id="circle1"/>
	<circle cx="4" cy="873.314" r="4" fill="#0" id="circle2"/>
	<circle cx="18.0212" cy="754.134" r="4" fill="#0" id="circle3"/>
	<circle cx="18.0212" cy="908.367" r="4" fill="#0" id="circle4"/>
	<circle cx="32.0424" cy="550.827" r="4" fill="#0" id="circle5"/>
	<circle cx="32.0424" cy="585.88" r="4" fill="#0" id="circle6"/>
	<circle cx="32.0424" cy="719.081" r="4" fill="#0" id="circle7"/>
	<circle cx="35.5477" cy="939.915" r="4" fill="#0" id="circle8"/>
	<circle cx="39.053" cy="620.933" r="4" fill="#0" id="circle9"/>
	<circle cx="46.0636" cy="655.986" r="4" fill="#0" id="circle10"/>
	<circle cx="60.0848" cy="967.958" r="4" fill="#0" id="circle11"/>
	<circle cx="67.0954" cy="543.816" r="4" fill="#0" id="circle12"/>
	<circle cx="95.1378" cy="981.979" r="4" fill="#0" id="circle13"/>
	<circle cx="102.148" cy="361.541" r="4" fill="#0" id="circle14"/>
	<circle cx="102.148" cy="410.615" r="4" fill="#0" id="circle15"/>
	<circle cx="102.148" cy="445.668" r="4" fill="#0" id="circle16"/>
	<circle cx="102.148" cy="480.721" r="4" fill="#0" id="circle17"/>
	<circle cx="102.148" cy="515.774" r="4" fill="#0" id="circle18"/>
	<circle cx="109.159" cy="102.148" r="4" fill="#0" id="circle19"/>
	<circle cx="109.159" cy="137.201" r="4" fill="#0" id="circle20"/>
	<circle cx="109.159" cy="172.254" r="4" fill="#0" id="circle21"/>
	<circle cx="109.159" cy="207.307" r="4" fill="#0" id="circle22"/>
	<circle cx="109.159" cy="242.36" r="4" fill="#0" id="circle23"/>
	<circle cx="109.159" cy="277.413" r="4" fill="#0" id="circle24"/>
	<circle cx="109.159" cy="312.466" r="4" fill="#0" id="circle25"/>
	<circle cx="116.17" cy="67.0954" r="4" fill="#0" id="circle26"/>
	<circle cx="123.18" cy="32.0424" r="4" fill="#0" id="circle27"/>
	<circle cx="130.191" cy="988.989" r="4" fill="#0" id="circle28"/>
	<circle cx="144.212" cy="4" r="4" fill="#0" id="circle29"/>
	<circle cx="147.717" cy="137.201" r="4" fill="#0" id="circle30"/>
	<circle cx="147.717" cy="172.254" r="4" fill="#0" id="circle31"/>
	<circle cx="147.717" cy="207.307" r="4" fill="#0" id="circle32"/>
	<circle cx="147.717" cy="242.36" r="4" fill="#0" id="circle33"/>
	<circle cx="147.717" cy="277.413" r="4" fill="#0" id="circle34"/>
	<circle cx="147.717" cy="312.466" r="4" fill="#0" id="circle35"/>
	<circle cx="154.728" cy="347.519" r="4" fill="#0" id="circle36"/>
	<circle cx="154.728" cy="382.572" r="4" fill="#0" id="circle37"/>
	<circle cx="154.728" cy="417.625" r="4" fill="#0" id="circle38"/>
	<circle cx="154.728" cy="452.678" r="4" fill="#0" id="circle39"/>
	<circle cx="165.244" cy="84.6219" r="4" fill="#0" id="circle40"/>
	<circle cx="165.244" cy="996" r="4" fill="#0" id="circle41"/>
	<circle cx="175.76" cy="46.0636" r="4" fill="#0" id="circle42"/>
	<circle cx="175.76" cy="480.721" r="4" fill="#0" id="circle43"/>
	<circle cx="179.265" cy="11.0106" r="4" fill="#0" id="circle44"/>
	<circle cx="200.297" cy="988.989" r="4" fill="#0" id="circle45"/>
	<circle cx="210.813" cy="487.731" r="4" fill="#0" id="circle46"/>
	<circle cx="235.35" cy="988.989" r="4" fill="#0" id="circle47"/>
	<circle cx="245.866" cy="501.753" r="4" fill="#0" id="circle48"/>
	<circle cx="266.898" cy="971.463" r="4" fill="#0" id="circle49"/>
	<circle cx="277.413" cy="519.279" r="4" fill="#0" id="circle50"/>
	<circle cx="280.919" cy="648.975" r="4" fill="#0" id="circle51"/>
	<circle cx="280.919" cy="684.028" r="4" fill="#0" id="circle52"/>
	<circle cx="294.94" cy="550.827" r="4" fill="#0" id="circle53"/>
	<circle cx="294.94" cy="585.88" r="4" fill="#0" id="circle54"/>
	<circle cx="294.94" cy="719.081" r="4" fill="#0" id="circle55"/>
	<circle cx="294.94" cy="943.42" r="4" fill="#0" id="circle56"/>
	<circle cx="308.961" cy="754.134" r="4" fill="#0" id="circle57"/>
	<circle cx="315.972" cy="908.367" r="4" fill="#0" id="circle58"/>
	<circle cx="322.982" cy="789.187" r="4" fill="#0" id="circle59"/>
	<circle cx="329.993" cy="824.24" r="4" fill="#0" id="circle60"/>
	<circle cx="329.993" cy="859.293" r="4" fill="#0" id="circle61"/>
	</g>
</svg>