<?xml version="1.0" encoding="UTF-8" standalone="no"?>
<!-- Created with CurveBenchmark -->
<svg
	xmlns:dc="http://purl.org/dc/elements/1.1/"
	xmlns:cc="http://creativecommons.org/ns#"
	xmlns:rdf="http://www.w3.org/1999/02/22-rdf-syntax-ns#"
	xmlns:svg="http://www.w3.org/2000/svg"
	xmlns="http://www.w3.org/2000/svg"
	xmlns:sodipodi="http://sodipodi.sourceforge.net/DTD/sodipodi-0.dtd"
	xmlns:inkscape="http://www.inkscape.org/namespaces/inkscape"
	width="1000"
	height="1000"
	id="svg2"
	version="1.1"
	sodipodi:docname="manifold/vicur-elephant11.png.txt">
<defs
	id="defs4" />
<metadata
	id="metadata7">
	<rdf:RDF>
		<cc:Work
			rdf:about="">
			<dc:format>image/svg+xml</dc:format>
			<dc:type
				rdf:resource="http://purl.org/dc/dcmitype/StillImage" />
			<dc:title></dc:title>
		</cc:Work>
	</rdf:RDF>
</metadata>
<g
	inkscape:label="Layer 1"
	inkscape:groupmode="layer"
	id="layer1">
	<path style="fill:none;stroke:red;stroke-width:1px;stroke-linecap:butt;stroke-linejoin:miter;stroke-opacity:1" d="M 4,518.507 13.2537,500 z" id="boundary" inkscape:connector-curvature="0" />
	<path style="fill:none;stroke:red;stroke-width:1px;stroke-linecap:butt;stroke-linejoin:miter;stroke-opacity:1" d="M 4,518.507 15.1045,533.313 z" id="boundary" inkscape:connector-curvature="0" />
	<path style="fill:none;stroke:red;stroke-width:1px;stroke-linecap:butt;stroke-linejoin:miter;stroke-opacity:1" d="M 13.2537,500 28.0597,485.194 z" id="boundary" inkscape:connector-curvature="0" />
	<path style="fill:none;stroke:red;stroke-width:1px;stroke-linecap:butt;stroke-linejoin:miter;stroke-opacity:1" d="M 15.1045,533.313 31.7612,524.06 z" id="boundary" inkscape:connector-curvature="0" />
	<path style="fill:none;stroke:red;stroke-width:1px;stroke-linecap:butt;stroke-linejoin:miter;stroke-opacity:1" d="M 28.0597,485.194 41.0149,462.985 z" id="boundary" inkscape:connector-curvature="0" />
	<path style="fill:none;stroke:red;stroke-width:1px;stroke-linecap:butt;stroke-linejoin:miter;stroke-opacity:1" d="M 31.7612,524.06 46.5672,512.955 z" id="boundary" inkscape:connector-curvature="0" />
	<path style="fill:none;stroke:red;stroke-width:1px;stroke-linecap:butt;stroke-linejoin:miter;stroke-opacity:1" d="M 41.0149,462.985 59.5224,444.478 z" id="boundary" inkscape:connector-curvature="0" />
	<path style="fill:none;stroke:red;stroke-width:1px;stroke-linecap:butt;stroke-linejoin:miter;stroke-opacity:1" d="M 46.5672,512.955 61.3731,496.299 z" id="boundary" inkscape:connector-curvature="0" />
	<path style="fill:none;stroke:red;stroke-width:1px;stroke-linecap:butt;stroke-linejoin:miter;stroke-opacity:1" d="M 50.2687,648.06 59.5224,664.716 z" id="boundary" inkscape:connector-curvature="0" />
	<path style="fill:none;stroke:red;stroke-width:1px;stroke-linecap:butt;stroke-linejoin:miter;stroke-opacity:1" d="M 50.2687,648.06 68.7761,638.806 z" id="boundary" inkscape:connector-curvature="0" />
	<path style="fill:none;stroke:red;stroke-width:1px;stroke-linecap:butt;stroke-linejoin:miter;stroke-opacity:1" d="M 59.5224,444.478 68.7761,425.97 z" id="boundary" inkscape:connector-curvature="0" />
	<path style="fill:none;stroke:red;stroke-width:1px;stroke-linecap:butt;stroke-linejoin:miter;stroke-opacity:1" d="M 59.5224,664.716 72.4776,679.522 z" id="boundary" inkscape:connector-curvature="0" />
	<path style="fill:none;stroke:red;stroke-width:1px;stroke-linecap:butt;stroke-linejoin:miter;stroke-opacity:1" d="M 61.3731,496.299 76.1791,483.343 z" id="boundary" inkscape:connector-curvature="0" />
	<path style="fill:none;stroke:red;stroke-width:1px;stroke-linecap:butt;stroke-linejoin:miter;stroke-opacity:1" d="M 68.7761,425.97 83.5821,411.164 z" id="boundary" inkscape:connector-curvature="0" />
	<path style="fill:none;stroke:red;stroke-width:1px;stroke-linecap:butt;stroke-linejoin:miter;stroke-opacity:1" d="M 68.7761,638.806 87.2836,629.552 z" id="boundary" inkscape:connector-curvature="0" />
	<path style="fill:none;stroke:red;stroke-width:1px;stroke-linecap:butt;stroke-linejoin:miter;stroke-opacity:1" d="M 72.4776,679.522 90.9851,672.119 z" id="boundary" inkscape:connector-curvature="0" />
	<path style="fill:none;stroke:red;stroke-width:1px;stroke-linecap:butt;stroke-linejoin:miter;stroke-opacity:1" d="M 76.1791,483.343 89.1343,468.537 z" id="boundary" inkscape:connector-curvature="0" />
	<path style="fill:none;stroke:red;stroke-width:1px;stroke-linecap:butt;stroke-linejoin:miter;stroke-opacity:1" d="M 83.5821,411.164 96.5373,388.955 z" id="boundary" inkscape:connector-curvature="0" />
	<path style="fill:none;stroke:red;stroke-width:1px;stroke-linecap:butt;stroke-linejoin:miter;stroke-opacity:1" d="M 87.2836,629.552 96.5373,611.045 z" id="boundary" inkscape:connector-curvature="0" />
	<path style="fill:none;stroke:red;stroke-width:1px;stroke-linecap:butt;stroke-linejoin:miter;stroke-opacity:1" d="M 89.1343,468.537 103.94,455.582 z" id="boundary" inkscape:connector-curvature="0" />
	<path style="fill:none;stroke:red;stroke-width:1px;stroke-linecap:butt;stroke-linejoin:miter;stroke-opacity:1" d="M 90.9851,672.119 105.791,657.313 z" id="boundary" inkscape:connector-curvature="0" />
	<path style="fill:none;stroke:red;stroke-width:1px;stroke-linecap:butt;stroke-linejoin:miter;stroke-opacity:1" d="M 96.5373,388.955 105.791,370.448 z" id="boundary" inkscape:connector-curvature="0" />
	<path style="fill:none;stroke:red;stroke-width:1px;stroke-linecap:butt;stroke-linejoin:miter;stroke-opacity:1" d="M 96.5373,611.045 111.343,596.239 z" id="boundary" inkscape:connector-curvature="0" />
	<path style="fill:none;stroke:red;stroke-width:1px;stroke-linecap:butt;stroke-linejoin:miter;stroke-opacity:1" d="M 103.94,455.582 115.045,440.776 z" id="boundary" inkscape:connector-curvature="0" />
	<path style="fill:none;stroke:red;stroke-width:1px;stroke-linecap:butt;stroke-linejoin:miter;stroke-opacity:1" d="M 105.791,370.448 115.045,342.687 z" id="boundary" inkscape:connector-curvature="0" />
	<path style="fill:none;stroke:red;stroke-width:1px;stroke-linecap:butt;stroke-linejoin:miter;stroke-opacity:1" d="M 105.791,490.746 116.896,505.552 z" id="boundary" inkscape:connector-curvature="0" />
	<path style="fill:none;stroke:red;stroke-width:1px;stroke-linecap:butt;stroke-linejoin:miter;stroke-opacity:1" d="M 105.791,490.746 124.299,481.493 z" id="boundary" inkscape:connector-curvature="0" />
	<path style="fill:none;stroke:red;stroke-width:1px;stroke-linecap:butt;stroke-linejoin:miter;stroke-opacity:1" d="M 105.791,657.313 120.597,644.358 z" id="boundary" inkscape:connector-curvature="0" />
	<path style="fill:none;stroke:red;stroke-width:1px;stroke-linecap:butt;stroke-linejoin:miter;stroke-opacity:1" d="M 111.343,596.239 120.597,577.731 z" id="boundary" inkscape:connector-curvature="0" />
	<path style="fill:none;stroke:red;stroke-width:1px;stroke-linecap:butt;stroke-linejoin:miter;stroke-opacity:1" d="M 115.045,342.687 124.299,324.179 z" id="boundary" inkscape:connector-curvature="0" />
	<path style="fill:none;stroke:red;stroke-width:1px;stroke-linecap:butt;stroke-linejoin:miter;stroke-opacity:1" d="M 115.045,440.776 124.299,457.433 z" id="boundary" inkscape:connector-curvature="0" />
	<path style="fill:none;stroke:red;stroke-width:1px;stroke-linecap:butt;stroke-linejoin:miter;stroke-opacity:1" d="M 116.896,505.552 128,520.358 z" id="boundary" inkscape:connector-curvature="0" />
	<path style="fill:none;stroke:red;stroke-width:1px;stroke-linecap:butt;stroke-linejoin:miter;stroke-opacity:1" d="M 120.597,577.731 129.851,559.224 z" id="boundary" inkscape:connector-curvature="0" />
	<path style="fill:none;stroke:red;stroke-width:1px;stroke-linecap:butt;stroke-linejoin:miter;stroke-opacity:1" d="M 120.597,644.358 137.254,635.104 z" id="boundary" inkscape:connector-curvature="0" />
	<path style="fill:none;stroke:red;stroke-width:1px;stroke-linecap:butt;stroke-linejoin:miter;stroke-opacity:1" d="M 124.299,305.672 124.299,324.179 z" id="boundary" inkscape:connector-curvature="0" />
	<path style="fill:none;stroke:red;stroke-width:1px;stroke-linecap:butt;stroke-linejoin:miter;stroke-opacity:1" d="M 124.299,305.672 133.552,277.91 z" id="boundary" inkscape:connector-curvature="0" />
	<path style="fill:none;stroke:red;stroke-width:1px;stroke-linecap:butt;stroke-linejoin:miter;stroke-opacity:1" d="M 124.299,457.433 124.299,481.493 z" id="boundary" inkscape:connector-curvature="0" />
	<path style="fill:none;stroke:red;stroke-width:1px;stroke-linecap:butt;stroke-linejoin:miter;stroke-opacity:1" d="M 128,520.358 142.806,531.463 z" id="boundary" inkscape:connector-curvature="0" />
	<path style="fill:none;stroke:red;stroke-width:1px;stroke-linecap:butt;stroke-linejoin:miter;stroke-opacity:1" d="M 129.851,559.224 142.806,531.463 z" id="boundary" inkscape:connector-curvature="0" />
	<path style="fill:none;stroke:red;stroke-width:1px;stroke-linecap:butt;stroke-linejoin:miter;stroke-opacity:1" d="M 133.552,148.358 133.552,166.866 z" id="boundary" inkscape:connector-curvature="0" />
	<path style="fill:none;stroke:red;stroke-width:1px;stroke-linecap:butt;stroke-linejoin:miter;stroke-opacity:1" d="M 133.552,148.358 142.806,129.851 z" id="boundary" inkscape:connector-curvature="0" />
	<path style="fill:none;stroke:red;stroke-width:1px;stroke-linecap:butt;stroke-linejoin:miter;stroke-opacity:1" d="M 133.552,166.866 133.552,185.373 z" id="boundary" inkscape:connector-curvature="0" />
	<path style="fill:none;stroke:red;stroke-width:1px;stroke-linecap:butt;stroke-linejoin:miter;stroke-opacity:1" d="M 133.552,185.373 142.806,202.03 z" id="boundary" inkscape:connector-curvature="0" />
	<path style="fill:none;stroke:red;stroke-width:1px;stroke-linecap:butt;stroke-linejoin:miter;stroke-opacity:1" d="M 133.552,240.896 133.552,259.403 z" id="boundary" inkscape:connector-curvature="0" />
	<path style="fill:none;stroke:red;stroke-width:1px;stroke-linecap:butt;stroke-linejoin:miter;stroke-opacity:1" d="M 133.552,240.896 142.806,220.537 z" id="boundary" inkscape:connector-curvature="0" />
	<path style="fill:none;stroke:red;stroke-width:1px;stroke-linecap:butt;stroke-linejoin:miter;stroke-opacity:1" d="M 133.552,259.403 133.552,277.91 z" id="boundary" inkscape:connector-curvature="0" />
	<path style="fill:none;stroke:red;stroke-width:1px;stroke-linecap:butt;stroke-linejoin:miter;stroke-opacity:1" d="M 137.254,635.104 144.657,616.597 z" id="boundary" inkscape:connector-curvature="0" />
	<path style="fill:none;stroke:red;stroke-width:1px;stroke-linecap:butt;stroke-linejoin:miter;stroke-opacity:1" d="M 142.806,129.851 157.612,115.045 z" id="boundary" inkscape:connector-curvature="0" />
	<path style="fill:none;stroke:red;stroke-width:1px;stroke-linecap:butt;stroke-linejoin:miter;stroke-opacity:1" d="M 142.806,202.03 142.806,220.537 z" id="boundary" inkscape:connector-curvature="0" />
	<path style="fill:none;stroke:red;stroke-width:1px;stroke-linecap:butt;stroke-linejoin:miter;stroke-opacity:1" d="M 144.657,616.597 159.463,603.642 z" id="boundary" inkscape:connector-curvature="0" />
	<path style="fill:none;stroke:red;stroke-width:1px;stroke-linecap:butt;stroke-linejoin:miter;stroke-opacity:1" d="M 157.612,115.045 166.866,96.5373 z" id="boundary" inkscape:connector-curvature="0" />
	<path style="fill:none;stroke:red;stroke-width:1px;stroke-linecap:butt;stroke-linejoin:miter;stroke-opacity:1" d="M 159.463,603.642 168.716,585.134 z" id="boundary" inkscape:connector-curvature="0" />
	<path style="fill:none;stroke:red;stroke-width:1px;stroke-linecap:butt;stroke-linejoin:miter;stroke-opacity:1" d="M 166.866,96.5373 185.373,87.2836 z" id="boundary" inkscape:connector-curvature="0" />
	<path style="fill:none;stroke:red;stroke-width:1px;stroke-linecap:butt;stroke-linejoin:miter;stroke-opacity:1" d="M 168.716,585.134 172.418,561.075 z" id="boundary" inkscape:connector-curvature="0" />
	<path style="fill:none;stroke:red;stroke-width:1px;stroke-linecap:butt;stroke-linejoin:miter;stroke-opacity:1" d="M 172.418,561.075 190.925,551.821 z" id="boundary" inkscape:connector-curvature="0" />
	<path style="fill:none;stroke:red;stroke-width:1px;stroke-linecap:butt;stroke-linejoin:miter;stroke-opacity:1" d="M 185.373,87.2836 202.03,78.0299 z" id="boundary" inkscape:connector-curvature="0" />
	<path style="fill:none;stroke:red;stroke-width:1px;stroke-linecap:butt;stroke-linejoin:miter;stroke-opacity:1" d="M 190.925,533.313 190.925,551.821 z" id="boundary" inkscape:connector-curvature="0" />
	<path style="fill:none;stroke:red;stroke-width:1px;stroke-linecap:butt;stroke-linejoin:miter;stroke-opacity:1" d="M 190.925,533.313 200.179,505.552 z" id="boundary" inkscape:connector-curvature="0" />
	<path style="fill:none;stroke:red;stroke-width:1px;stroke-linecap:butt;stroke-linejoin:miter;stroke-opacity:1" d="M 200.179,505.552 214.985,492.597 z" id="boundary" inkscape:connector-curvature="0" />
	<path style="fill:none;stroke:red;stroke-width:1px;stroke-linecap:butt;stroke-linejoin:miter;stroke-opacity:1" d="M 202.03,78.0299 216.836,65.0746 z" id="boundary" inkscape:connector-curvature="0" />
	<path style="fill:none;stroke:red;stroke-width:1px;stroke-linecap:butt;stroke-linejoin:miter;stroke-opacity:1" d="M 214.985,492.597 233.493,487.045 z" id="boundary" inkscape:connector-curvature="0" />
	<path style="fill:none;stroke:red;stroke-width:1px;stroke-linecap:butt;stroke-linejoin:miter;stroke-opacity:1" d="M 216.836,65.0746 235.343,55.8209 z" id="boundary" inkscape:connector-curvature="0" />
	<path style="fill:none;stroke:red;stroke-width:1px;stroke-linecap:butt;stroke-linejoin:miter;stroke-opacity:1" d="M 233.493,487.045 250.149,475.94 z" id="boundary" inkscape:connector-curvature="0" />
	<path style="fill:none;stroke:red;stroke-width:1px;stroke-linecap:butt;stroke-linejoin:miter;stroke-opacity:1" d="M 235.343,55.8209 250.149,41.0149 z" id="boundary" inkscape:connector-curvature="0" />
	<path style="fill:none;stroke:red;stroke-width:1px;stroke-linecap:butt;stroke-linejoin:miter;stroke-opacity:1" d="M 250.149,41.0149 266.806,31.7612 z" id="boundary" inkscape:connector-curvature="0" />
	<path style="fill:none;stroke:red;stroke-width:1px;stroke-linecap:butt;stroke-linejoin:miter;stroke-opacity:1" d="M 250.149,475.94 264.955,450.03 z" id="boundary" inkscape:connector-curvature="0" />
	<path style="fill:none;stroke:red;stroke-width:1px;stroke-linecap:butt;stroke-linejoin:miter;stroke-opacity:1" d="M 264.955,450.03 279.761,437.075 z" id="boundary" inkscape:connector-curvature="0" />
	<path style="fill:none;stroke:red;stroke-width:1px;stroke-linecap:butt;stroke-linejoin:miter;stroke-opacity:1" d="M 266.806,31.7612 285.313,24.3582 z" id="boundary" inkscape:connector-curvature="0" />
	<path style="fill:none;stroke:red;stroke-width:1px;stroke-linecap:butt;stroke-linejoin:miter;stroke-opacity:1" d="M 279.761,437.075 289.015,418.567 z" id="boundary" inkscape:connector-curvature="0" />
	<path style="fill:none;stroke:red;stroke-width:1px;stroke-linecap:butt;stroke-linejoin:miter;stroke-opacity:1" d="M 285.313,24.3582 303.821,22.5075 z" id="boundary" inkscape:connector-curvature="0" />
	<path style="fill:none;stroke:red;stroke-width:1px;stroke-linecap:butt;stroke-linejoin:miter;stroke-opacity:1" d="M 289.015,418.567 300.119,433.373 z" id="boundary" inkscape:connector-curvature="0" />
	<path style="fill:none;stroke:red;stroke-width:1px;stroke-linecap:butt;stroke-linejoin:miter;stroke-opacity:1" d="M 300.119,433.373 300.119,451.881 z" id="boundary" inkscape:connector-curvature="0" />
	<path style="fill:none;stroke:red;stroke-width:1px;stroke-linecap:butt;stroke-linejoin:miter;stroke-opacity:1" d="M 300.119,451.881 300.119,470.388 z" id="boundary" inkscape:connector-curvature="0" />
	<path style="fill:none;stroke:red;stroke-width:1px;stroke-linecap:butt;stroke-linejoin:miter;stroke-opacity:1" d="M 300.119,470.388 300.119,488.896 z" id="boundary" inkscape:connector-curvature="0" />
	<path style="fill:none;stroke:red;stroke-width:1px;stroke-linecap:butt;stroke-linejoin:miter;stroke-opacity:1" d="M 300.119,488.896 300.119,507.403 z" id="boundary" inkscape:connector-curvature="0" />
	<path style="fill:none;stroke:red;stroke-width:1px;stroke-linecap:butt;stroke-linejoin:miter;stroke-opacity:1" d="M 300.119,507.403 309.373,524.06 z" id="boundary" inkscape:connector-curvature="0" />
	<path style="fill:none;stroke:red;stroke-width:1px;stroke-linecap:butt;stroke-linejoin:miter;stroke-opacity:1" d="M 303.821,22.5075 322.328,22.5075 z" id="boundary" inkscape:connector-curvature="0" />
	<path style="fill:none;stroke:red;stroke-width:1px;stroke-linecap:butt;stroke-linejoin:miter;stroke-opacity:1" d="M 309.373,524.06 309.373,542.567 z" id="boundary" inkscape:connector-curvature="0" />
	<path style="fill:none;stroke:red;stroke-width:1px;stroke-linecap:butt;stroke-linejoin:miter;stroke-opacity:1" d="M 309.373,542.567 318.627,559.224 z" id="boundary" inkscape:connector-curvature="0" />
	<path style="fill:none;stroke:red;stroke-width:1px;stroke-linecap:butt;stroke-linejoin:miter;stroke-opacity:1" d="M 318.627,559.224 329.731,574.03 z" id="boundary" inkscape:connector-curvature="0" />
	<path style="fill:none;stroke:red;stroke-width:1px;stroke-linecap:butt;stroke-linejoin:miter;stroke-opacity:1" d="M 322.328,22.5075 340.836,22.5075 z" id="boundary" inkscape:connector-curvature="0" />
	<path style="fill:none;stroke:red;stroke-width:1px;stroke-linecap:butt;stroke-linejoin:miter;stroke-opacity:1" d="M 329.731,574.03 337.134,592.537 z" id="boundary" inkscape:connector-curvature="0" />
	<path style="fill:none;stroke:red;stroke-width:1px;stroke-linecap:butt;stroke-linejoin:miter;stroke-opacity:1" d="M 337.134,592.537 346.388,609.194 z" id="boundary" inkscape:connector-curvature="0" />
	<path style="fill:none;stroke:red;stroke-width:1px;stroke-linecap:butt;stroke-linejoin:miter;stroke-opacity:1" d="M 337.134,703.582 346.388,720.239 z" id="boundary" inkscape:connector-curvature="0" />
	<path style="fill:none;stroke:red;stroke-width:1px;stroke-linecap:butt;stroke-linejoin:miter;stroke-opacity:1" d="M 337.134,703.582 351.94,688.776 z" id="boundary" inkscape:connector-curvature="0" />
	<path style="fill:none;stroke:red;stroke-width:1px;stroke-linecap:butt;stroke-linejoin:miter;stroke-opacity:1" d="M 340.836,22.5075 359.343,15.1045 z" id="boundary" inkscape:connector-curvature="0" />
	<path style="fill:none;stroke:red;stroke-width:1px;stroke-linecap:butt;stroke-linejoin:miter;stroke-opacity:1" d="M 346.388,609.194 355.642,625.851 z" id="boundary" inkscape:connector-curvature="0" />
	<path style="fill:none;stroke:red;stroke-width:1px;stroke-linecap:butt;stroke-linejoin:miter;stroke-opacity:1" d="M 346.388,720.239 364.896,727.642 z" id="boundary" inkscape:connector-curvature="0" />
	<path style="fill:none;stroke:red;stroke-width:1px;stroke-linecap:butt;stroke-linejoin:miter;stroke-opacity:1" d="M 351.94,688.776 364.896,662.866 z" id="boundary" inkscape:connector-curvature="0" />
	<path style="fill:none;stroke:red;stroke-width:1px;stroke-linecap:butt;stroke-linejoin:miter;stroke-opacity:1" d="M 355.642,625.851 361.194,644.358 z" id="boundary" inkscape:connector-curvature="0" />
	<path style="fill:none;stroke:red;stroke-width:1px;stroke-linecap:butt;stroke-linejoin:miter;stroke-opacity:1" d="M 359.343,15.1045 377.851,13.2537 z" id="boundary" inkscape:connector-curvature="0" />
	<path style="fill:none;stroke:red;stroke-width:1px;stroke-linecap:butt;stroke-linejoin:miter;stroke-opacity:1" d="M 361.194,644.358 364.896,662.866 z" id="boundary" inkscape:connector-curvature="0" />
	<path style="fill:none;stroke:red;stroke-width:1px;stroke-linecap:butt;stroke-linejoin:miter;stroke-opacity:1" d="M 364.896,727.642 383.403,727.642 z" id="boundary" inkscape:connector-curvature="0" />
	<path style="fill:none;stroke:red;stroke-width:1px;stroke-linecap:butt;stroke-linejoin:miter;stroke-opacity:1" d="M 377.851,13.2537 396.358,13.2537 z" id="boundary" inkscape:connector-curvature="0" />
	<path style="fill:none;stroke:red;stroke-width:1px;stroke-linecap:butt;stroke-linejoin:miter;stroke-opacity:1" d="M 383.403,727.642 401.91,727.642 z" id="boundary" inkscape:connector-curvature="0" />
	<path style="fill:none;stroke:red;stroke-width:1px;stroke-linecap:butt;stroke-linejoin:miter;stroke-opacity:1" d="M 396.358,13.2537 414.866,5.85075 z" id="boundary" inkscape:connector-curvature="0" />
	<path style="fill:none;stroke:red;stroke-width:1px;stroke-linecap:butt;stroke-linejoin:miter;stroke-opacity:1" d="M 401.91,727.642 420.418,727.642 z" id="boundary" inkscape:connector-curvature="0" />
	<path style="fill:none;stroke:red;stroke-width:1px;stroke-linecap:butt;stroke-linejoin:miter;stroke-opacity:1" d="M 414.866,5.85075 433.373,4 z" id="boundary" inkscape:connector-curvature="0" />
	<path style="fill:none;stroke:red;stroke-width:1px;stroke-linecap:butt;stroke-linejoin:miter;stroke-opacity:1" d="M 420.418,727.642 438.925,727.642 z" id="boundary" inkscape:connector-curvature="0" />
	<path style="fill:none;stroke:red;stroke-width:1px;stroke-linecap:butt;stroke-linejoin:miter;stroke-opacity:1" d="M 433.373,4 450.03,13.2537 z" id="boundary" inkscape:connector-curvature="0" />
	<path style="fill:none;stroke:red;stroke-width:1px;stroke-linecap:butt;stroke-linejoin:miter;stroke-opacity:1" d="M 438.925,727.642 457.433,722.09 z" id="boundary" inkscape:connector-curvature="0" />
	<path style="fill:none;stroke:red;stroke-width:1px;stroke-linecap:butt;stroke-linejoin:miter;stroke-opacity:1" d="M 450.03,13.2537 464.836,24.3582 z" id="boundary" inkscape:connector-curvature="0" />
	<path style="fill:none;stroke:red;stroke-width:1px;stroke-linecap:butt;stroke-linejoin:miter;stroke-opacity:1" d="M 450.03,542.567 450.03,561.075 z" id="boundary" inkscape:connector-curvature="0" />
	<path style="fill:none;stroke:red;stroke-width:1px;stroke-linecap:butt;stroke-linejoin:miter;stroke-opacity:1" d="M 450.03,542.567 468.537,546.269 z" id="boundary" inkscape:connector-curvature="0" />
	<path style="fill:none;stroke:red;stroke-width:1px;stroke-linecap:butt;stroke-linejoin:miter;stroke-opacity:1" d="M 450.03,561.075 450.03,579.582 z" id="boundary" inkscape:connector-curvature="0" />
	<path style="fill:none;stroke:red;stroke-width:1px;stroke-linecap:butt;stroke-linejoin:miter;stroke-opacity:1" d="M 450.03,579.582 450.03,598.09 z" id="boundary" inkscape:connector-curvature="0" />
	<path style="fill:none;stroke:red;stroke-width:1px;stroke-linecap:butt;stroke-linejoin:miter;stroke-opacity:1" d="M 450.03,598.09 453.731,616.597 z" id="boundary" inkscape:connector-curvature="0" />
	<path style="fill:none;stroke:red;stroke-width:1px;stroke-linecap:butt;stroke-linejoin:miter;stroke-opacity:1" d="M 453.731,616.597 459.284,635.104 z" id="boundary" inkscape:connector-curvature="0" />
	<path style="fill:none;stroke:red;stroke-width:1px;stroke-linecap:butt;stroke-linejoin:miter;stroke-opacity:1" d="M 457.433,722.09 475.94,712.836 z" id="boundary" inkscape:connector-curvature="0" />
	<path style="fill:none;stroke:red;stroke-width:1px;stroke-linecap:butt;stroke-linejoin:miter;stroke-opacity:1" d="M 459.284,635.104 459.284,653.612 z" id="boundary" inkscape:connector-curvature="0" />
	<path style="fill:none;stroke:red;stroke-width:1px;stroke-linecap:butt;stroke-linejoin:miter;stroke-opacity:1" d="M 459.284,653.612 459.284,672.119 z" id="boundary" inkscape:connector-curvature="0" />
	<path style="fill:none;stroke:red;stroke-width:1px;stroke-linecap:butt;stroke-linejoin:miter;stroke-opacity:1" d="M 459.284,672.119 462.985,690.627 z" id="boundary" inkscape:connector-curvature="0" />
	<path style="fill:none;stroke:red;stroke-width:1px;stroke-linecap:butt;stroke-linejoin:miter;stroke-opacity:1" d="M 462.985,690.627 475.94,712.836 z" id="boundary" inkscape:connector-curvature="0" />
	<path style="fill:none;stroke:red;stroke-width:1px;stroke-linecap:butt;stroke-linejoin:miter;stroke-opacity:1" d="M 464.836,24.3582 472.239,42.8657 z" id="boundary" inkscape:connector-curvature="0" />
	<path style="fill:none;stroke:red;stroke-width:1px;stroke-linecap:butt;stroke-linejoin:miter;stroke-opacity:1" d="M 468.537,546.269 475.94,564.776 z" id="boundary" inkscape:connector-curvature="0" />
	<path style="fill:none;stroke:red;stroke-width:1px;stroke-linecap:butt;stroke-linejoin:miter;stroke-opacity:1" d="M 472.239,42.8657 481.493,59.5224 z" id="boundary" inkscape:connector-curvature="0" />
	<path style="fill:none;stroke:red;stroke-width:1px;stroke-linecap:butt;stroke-linejoin:miter;stroke-opacity:1" d="M 475.94,564.776 485.194,581.433 z" id="boundary" inkscape:connector-curvature="0" />
	<path style="fill:none;stroke:red;stroke-width:1px;stroke-linecap:butt;stroke-linejoin:miter;stroke-opacity:1" d="M 481.493,59.5224 494.448,74.3284 z" id="boundary" inkscape:connector-curvature="0" />
	<path style="fill:none;stroke:red;stroke-width:1px;stroke-linecap:butt;stroke-linejoin:miter;stroke-opacity:1" d="M 485.194,581.433 494.448,598.09 z" id="boundary" inkscape:connector-curvature="0" />
	<path style="fill:none;stroke:red;stroke-width:1px;stroke-linecap:butt;stroke-linejoin:miter;stroke-opacity:1" d="M 485.194,657.313 485.194,675.821 z" id="boundary" inkscape:connector-curvature="0" />
	<path style="fill:none;stroke:red;stroke-width:1px;stroke-linecap:butt;stroke-linejoin:miter;stroke-opacity:1" d="M 485.194,657.313 494.448,635.104 z" id="boundary" inkscape:connector-curvature="0" />
	<path style="fill:none;stroke:red;stroke-width:1px;stroke-linecap:butt;stroke-linejoin:miter;stroke-opacity:1" d="M 485.194,675.821 494.448,692.478 z" id="boundary" inkscape:connector-curvature="0" />
	<path style="fill:none;stroke:red;stroke-width:1px;stroke-linecap:butt;stroke-linejoin:miter;stroke-opacity:1" d="M 494.448,74.3284 509.254,87.2836 z" id="boundary" inkscape:connector-curvature="0" />
	<path style="fill:none;stroke:red;stroke-width:1px;stroke-linecap:butt;stroke-linejoin:miter;stroke-opacity:1" d="M 494.448,598.09 494.448,616.597 z" id="boundary" inkscape:connector-curvature="0" />
	<path style="fill:none;stroke:red;stroke-width:1px;stroke-linecap:butt;stroke-linejoin:miter;stroke-opacity:1" d="M 494.448,616.597 494.448,635.104 z" id="boundary" inkscape:connector-curvature="0" />
	<path style="fill:none;stroke:red;stroke-width:1px;stroke-linecap:butt;stroke-linejoin:miter;stroke-opacity:1" d="M 494.448,692.478 503.701,709.134 z" id="boundary" inkscape:connector-curvature="0" />
	<path style="fill:none;stroke:red;stroke-width:1px;stroke-linecap:butt;stroke-linejoin:miter;stroke-opacity:1" d="M 503.701,709.134 509.254,727.642 z" id="boundary" inkscape:connector-curvature="0" />
	<path style="fill:none;stroke:red;stroke-width:1px;stroke-linecap:butt;stroke-linejoin:miter;stroke-opacity:1" d="M 509.254,87.2836 527.761,87.2836 z" id="boundary" inkscape:connector-curvature="0" />
	<path style="fill:none;stroke:red;stroke-width:1px;stroke-linecap:butt;stroke-linejoin:miter;stroke-opacity:1" d="M 509.254,727.642 527.761,727.642 z" id="boundary" inkscape:connector-curvature="0" />
	<path style="fill:none;stroke:red;stroke-width:1px;stroke-linecap:butt;stroke-linejoin:miter;stroke-opacity:1" d="M 527.761,87.2836 546.269,87.2836 z" id="boundary" inkscape:connector-curvature="0" />
	<path style="fill:none;stroke:red;stroke-width:1px;stroke-linecap:butt;stroke-linejoin:miter;stroke-opacity:1" d="M 527.761,727.642 546.269,727.642 z" id="boundary" inkscape:connector-curvature="0" />
	<path style="fill:none;stroke:red;stroke-width:1px;stroke-linecap:butt;stroke-linejoin:miter;stroke-opacity:1" d="M 546.269,87.2836 564.776,87.2836 z" id="boundary" inkscape:connector-curvature="0" />
	<path style="fill:none;stroke:red;stroke-width:1px;stroke-linecap:butt;stroke-linejoin:miter;stroke-opacity:1" d="M 546.269,727.642 564.776,727.642 z" id="boundary" inkscape:connector-curvature="0" />
	<path style="fill:none;stroke:red;stroke-width:1px;stroke-linecap:butt;stroke-linejoin:miter;stroke-opacity:1" d="M 564.776,87.2836 583.284,87.2836 z" id="boundary" inkscape:connector-curvature="0" />
	<path style="fill:none;stroke:red;stroke-width:1px;stroke-linecap:butt;stroke-linejoin:miter;stroke-opacity:1" d="M 564.776,727.642 583.284,727.642 z" id="boundary" inkscape:connector-curvature="0" />
	<path style="fill:none;stroke:red;stroke-width:1px;stroke-linecap:butt;stroke-linejoin:miter;stroke-opacity:1" d="M 579.582,551.821 579.582,570.328 z" id="boundary" inkscape:connector-curvature="0" />
	<path style="fill:none;stroke:red;stroke-width:1px;stroke-linecap:butt;stroke-linejoin:miter;stroke-opacity:1" d="M 579.582,551.821 596.239,542.567 z" id="boundary" inkscape:connector-curvature="0" />
	<path style="fill:none;stroke:red;stroke-width:1px;stroke-linecap:butt;stroke-linejoin:miter;stroke-opacity:1" d="M 579.582,570.328 579.582,588.836 z" id="boundary" inkscape:connector-curvature="0" />
	<path style="fill:none;stroke:red;stroke-width:1px;stroke-linecap:butt;stroke-linejoin:miter;stroke-opacity:1" d="M 579.582,588.836 579.582,607.343 z" id="boundary" inkscape:connector-curvature="0" />
	<path style="fill:none;stroke:red;stroke-width:1px;stroke-linecap:butt;stroke-linejoin:miter;stroke-opacity:1" d="M 579.582,607.343 579.582,625.851 z" id="boundary" inkscape:connector-curvature="0" />
	<path style="fill:none;stroke:red;stroke-width:1px;stroke-linecap:butt;stroke-linejoin:miter;stroke-opacity:1" d="M 579.582,625.851 588.836,642.507 z" id="boundary" inkscape:connector-curvature="0" />
	<path style="fill:none;stroke:red;stroke-width:1px;stroke-linecap:butt;stroke-linejoin:miter;stroke-opacity:1" d="M 583.284,87.2836 601.791,87.2836 z" id="boundary" inkscape:connector-curvature="0" />
	<path style="fill:none;stroke:red;stroke-width:1px;stroke-linecap:butt;stroke-linejoin:miter;stroke-opacity:1" d="M 583.284,727.642 599.94,718.388 z" id="boundary" inkscape:connector-curvature="0" />
	<path style="fill:none;stroke:red;stroke-width:1px;stroke-linecap:butt;stroke-linejoin:miter;stroke-opacity:1" d="M 588.836,642.507 598.09,659.164 z" id="boundary" inkscape:connector-curvature="0" />
	<path style="fill:none;stroke:red;stroke-width:1px;stroke-linecap:butt;stroke-linejoin:miter;stroke-opacity:1" d="M 596.239,542.567 612.896,533.313 z" id="boundary" inkscape:connector-curvature="0" />
	<path style="fill:none;stroke:red;stroke-width:1px;stroke-linecap:butt;stroke-linejoin:miter;stroke-opacity:1" d="M 598.09,659.164 598.09,677.672 z" id="boundary" inkscape:connector-curvature="0" />
	<path style="fill:none;stroke:red;stroke-width:1px;stroke-linecap:butt;stroke-linejoin:miter;stroke-opacity:1" d="M 598.09,677.672 607.343,694.328 z" id="boundary" inkscape:connector-curvature="0" />
	<path style="fill:none;stroke:red;stroke-width:1px;stroke-linecap:butt;stroke-linejoin:miter;stroke-opacity:1" d="M 599.94,718.388 607.343,694.328 z" id="boundary" inkscape:connector-curvature="0" />
	<path style="fill:none;stroke:red;stroke-width:1px;stroke-linecap:butt;stroke-linejoin:miter;stroke-opacity:1" d="M 601.791,87.2836 620.299,87.2836 z" id="boundary" inkscape:connector-curvature="0" />
	<path style="fill:none;stroke:red;stroke-width:1px;stroke-linecap:butt;stroke-linejoin:miter;stroke-opacity:1" d="M 612.896,533.313 631.403,533.313 z" id="boundary" inkscape:connector-curvature="0" />
	<path style="fill:none;stroke:red;stroke-width:1px;stroke-linecap:butt;stroke-linejoin:miter;stroke-opacity:1" d="M 620.299,87.2836 636.955,78.0299 z" id="boundary" inkscape:connector-curvature="0" />
	<path style="fill:none;stroke:red;stroke-width:1px;stroke-linecap:butt;stroke-linejoin:miter;stroke-opacity:1" d="M 631.403,533.313 649.91,533.313 z" id="boundary" inkscape:connector-curvature="0" />
	<path style="fill:none;stroke:red;stroke-width:1px;stroke-linecap:butt;stroke-linejoin:miter;stroke-opacity:1" d="M 636.955,78.0299 655.463,78.0299 z" id="boundary" inkscape:connector-curvature="0" />
	<path style="fill:none;stroke:red;stroke-width:1px;stroke-linecap:butt;stroke-linejoin:miter;stroke-opacity:1" d="M 649.91,533.313 668.418,533.313 z" id="boundary" inkscape:connector-curvature="0" />
	<path style="fill:none;stroke:red;stroke-width:1px;stroke-linecap:butt;stroke-linejoin:miter;stroke-opacity:1" d="M 655.463,78.0299 673.97,78.0299 z" id="boundary" inkscape:connector-curvature="0" />
	<path style="fill:none;stroke:red;stroke-width:1px;stroke-linecap:butt;stroke-linejoin:miter;stroke-opacity:1" d="M 668.418,533.313 686.925,533.313 z" id="boundary" inkscape:connector-curvature="0" />
	<path style="fill:none;stroke:red;stroke-width:1px;stroke-linecap:butt;stroke-linejoin:miter;stroke-opacity:1" d="M 673.97,78.0299 692.478,78.0299 z" id="boundary" inkscape:connector-curvature="0" />
	<path style="fill:none;stroke:red;stroke-width:1px;stroke-linecap:butt;stroke-linejoin:miter;stroke-opacity:1" d="M 686.925,533.313 703.582,542.567 z" id="boundary" inkscape:connector-curvature="0" />
	<path style="fill:none;stroke:red;stroke-width:1px;stroke-linecap:butt;stroke-linejoin:miter;stroke-opacity:1" d="M 692.478,78.0299 710.985,78.0299 z" id="boundary" inkscape:connector-curvature="0" />
	<path style="fill:none;stroke:red;stroke-width:1px;stroke-linecap:butt;stroke-linejoin:miter;stroke-opacity:1" d="M 703.582,542.567 716.537,557.373 z" id="boundary" inkscape:connector-curvature="0" />
	<path style="fill:none;stroke:red;stroke-width:1px;stroke-linecap:butt;stroke-linejoin:miter;stroke-opacity:1" d="M 710.985,78.0299 729.493,78.0299 z" id="boundary" inkscape:connector-curvature="0" />
	<path style="fill:none;stroke:red;stroke-width:1px;stroke-linecap:butt;stroke-linejoin:miter;stroke-opacity:1" d="M 716.537,557.373 725.791,574.03 z" id="boundary" inkscape:connector-curvature="0" />
	<path style="fill:none;stroke:red;stroke-width:1px;stroke-linecap:butt;stroke-linejoin:miter;stroke-opacity:1" d="M 716.537,694.328 716.537,712.836 z" id="boundary" inkscape:connector-curvature="0" />
	<path style="fill:none;stroke:red;stroke-width:1px;stroke-linecap:butt;stroke-linejoin:miter;stroke-opacity:1" d="M 716.537,694.328 735.045,685.075 z" id="boundary" inkscape:connector-curvature="0" />
	<path style="fill:none;stroke:red;stroke-width:1px;stroke-linecap:butt;stroke-linejoin:miter;stroke-opacity:1" d="M 716.537,712.836 725.791,729.493 z" id="boundary" inkscape:connector-curvature="0" />
	<path style="fill:none;stroke:red;stroke-width:1px;stroke-linecap:butt;stroke-linejoin:miter;stroke-opacity:1" d="M 725.791,574.03 725.791,592.537 z" id="boundary" inkscape:connector-curvature="0" />
	<path style="fill:none;stroke:red;stroke-width:1px;stroke-linecap:butt;stroke-linejoin:miter;stroke-opacity:1" d="M 725.791,592.537 735.045,609.194 z" id="boundary" inkscape:connector-curvature="0" />
	<path style="fill:none;stroke:red;stroke-width:1px;stroke-linecap:butt;stroke-linejoin:miter;stroke-opacity:1" d="M 725.791,729.493 744.299,736.896 z" id="boundary" inkscape:connector-curvature="0" />
	<path style="fill:none;stroke:red;stroke-width:1px;stroke-linecap:butt;stroke-linejoin:miter;stroke-opacity:1" d="M 729.493,78.0299 746.149,87.2836 z" id="boundary" inkscape:connector-curvature="0" />
	<path style="fill:none;stroke:red;stroke-width:1px;stroke-linecap:butt;stroke-linejoin:miter;stroke-opacity:1" d="M 735.045,609.194 744.299,625.851 z" id="boundary" inkscape:connector-curvature="0" />
	<path style="fill:none;stroke:red;stroke-width:1px;stroke-linecap:butt;stroke-linejoin:miter;stroke-opacity:1" d="M 735.045,685.075 744.299,662.866 z" id="boundary" inkscape:connector-curvature="0" />
	<path style="fill:none;stroke:red;stroke-width:1px;stroke-linecap:butt;stroke-linejoin:miter;stroke-opacity:1" d="M 744.299,625.851 744.299,644.358 z" id="boundary" inkscape:connector-curvature="0" />
	<path style="fill:none;stroke:red;stroke-width:1px;stroke-linecap:butt;stroke-linejoin:miter;stroke-opacity:1" d="M 744.299,644.358 744.299,662.866 z" id="boundary" inkscape:connector-curvature="0" />
	<path style="fill:none;stroke:red;stroke-width:1px;stroke-linecap:butt;stroke-linejoin:miter;stroke-opacity:1" d="M 744.299,736.896 762.806,736.896 z" id="boundary" inkscape:connector-curvature="0" />
	<path style="fill:none;stroke:red;stroke-width:1px;stroke-linecap:butt;stroke-linejoin:miter;stroke-opacity:1" d="M 746.149,87.2836 764.657,87.2836 z" id="boundary" inkscape:connector-curvature="0" />
	<path style="fill:none;stroke:red;stroke-width:1px;stroke-linecap:butt;stroke-linejoin:miter;stroke-opacity:1" d="M 762.806,736.896 781.313,736.896 z" id="boundary" inkscape:connector-curvature="0" />
	<path style="fill:none;stroke:red;stroke-width:1px;stroke-linecap:butt;stroke-linejoin:miter;stroke-opacity:1" d="M 764.657,87.2836 781.313,96.5373 z" id="boundary" inkscape:connector-curvature="0" />
	<path style="fill:none;stroke:red;stroke-width:1px;stroke-linecap:butt;stroke-linejoin:miter;stroke-opacity:1" d="M 781.313,96.5373 796.119,107.642 z" id="boundary" inkscape:connector-curvature="0" />
	<path style="fill:none;stroke:red;stroke-width:1px;stroke-linecap:butt;stroke-linejoin:miter;stroke-opacity:1" d="M 781.313,736.896 797.97,746.149 z" id="boundary" inkscape:connector-curvature="0" />
	<path style="fill:none;stroke:red;stroke-width:1px;stroke-linecap:butt;stroke-linejoin:miter;stroke-opacity:1" d="M 796.119,107.642 814.627,115.045 z" id="boundary" inkscape:connector-curvature="0" />
	<path style="fill:none;stroke:red;stroke-width:1px;stroke-linecap:butt;stroke-linejoin:miter;stroke-opacity:1" d="M 797.97,746.149 814.627,755.403 z" id="boundary" inkscape:connector-curvature="0" />
	<path style="fill:none;stroke:red;stroke-width:1px;stroke-linecap:butt;stroke-linejoin:miter;stroke-opacity:1" d="M 814.627,115.045 827.582,129.851 z" id="boundary" inkscape:connector-curvature="0" />
	<path style="fill:none;stroke:red;stroke-width:1px;stroke-linecap:butt;stroke-linejoin:miter;stroke-opacity:1" d="M 814.627,755.403 833.134,755.403 z" id="boundary" inkscape:connector-curvature="0" />
	<path style="fill:none;stroke:red;stroke-width:1px;stroke-linecap:butt;stroke-linejoin:miter;stroke-opacity:1" d="M 827.582,129.851 842.388,142.806 z" id="boundary" inkscape:connector-curvature="0" />
	<path style="fill:none;stroke:red;stroke-width:1px;stroke-linecap:butt;stroke-linejoin:miter;stroke-opacity:1" d="M 833.134,755.403 851.642,755.403 z" id="boundary" inkscape:connector-curvature="0" />
	<path style="fill:none;stroke:red;stroke-width:1px;stroke-linecap:butt;stroke-linejoin:miter;stroke-opacity:1" d="M 842.388,142.806 855.343,157.612 z" id="boundary" inkscape:connector-curvature="0" />
	<path style="fill:none;stroke:red;stroke-width:1px;stroke-linecap:butt;stroke-linejoin:miter;stroke-opacity:1" d="M 851.642,755.403 870.149,755.403 z" id="boundary" inkscape:connector-curvature="0" />
	<path style="fill:none;stroke:red;stroke-width:1px;stroke-linecap:butt;stroke-linejoin:miter;stroke-opacity:1" d="M 855.343,157.612 870.149,170.567 z" id="boundary" inkscape:connector-curvature="0" />
	<path style="fill:none;stroke:red;stroke-width:1px;stroke-linecap:butt;stroke-linejoin:miter;stroke-opacity:1" d="M 870.149,170.567 886.806,179.821 z" id="boundary" inkscape:connector-curvature="0" />
	<path style="fill:none;stroke:red;stroke-width:1px;stroke-linecap:butt;stroke-linejoin:miter;stroke-opacity:1" d="M 870.149,755.403 888.657,755.403 z" id="boundary" inkscape:connector-curvature="0" />
	<path style="fill:none;stroke:red;stroke-width:1px;stroke-linecap:butt;stroke-linejoin:miter;stroke-opacity:1" d="M 886.806,179.821 894.209,198.328 z" id="boundary" inkscape:connector-curvature="0" />
	<path style="fill:none;stroke:red;stroke-width:1px;stroke-linecap:butt;stroke-linejoin:miter;stroke-opacity:1" d="M 888.657,755.403 907.164,755.403 z" id="boundary" inkscape:connector-curvature="0" />
	<path style="fill:none;stroke:red;stroke-width:1px;stroke-linecap:butt;stroke-linejoin:miter;stroke-opacity:1" d="M 894.209,198.328 909.015,209.433 z" id="boundary" inkscape:connector-curvature="0" />
	<path style="fill:none;stroke:red;stroke-width:1px;stroke-linecap:butt;stroke-linejoin:miter;stroke-opacity:1" d="M 903.463,440.776 903.463,459.284 z" id="boundary" inkscape:connector-curvature="0" />
	<path style="fill:none;stroke:red;stroke-width:1px;stroke-linecap:butt;stroke-linejoin:miter;stroke-opacity:1" d="M 903.463,440.776 912.716,422.269 z" id="boundary" inkscape:connector-curvature="0" />
	<path style="fill:none;stroke:red;stroke-width:1px;stroke-linecap:butt;stroke-linejoin:miter;stroke-opacity:1" d="M 903.463,459.284 903.463,477.791 z" id="boundary" inkscape:connector-curvature="0" />
	<path style="fill:none;stroke:red;stroke-width:1px;stroke-linecap:butt;stroke-linejoin:miter;stroke-opacity:1" d="M 903.463,477.791 903.463,496.299 z" id="boundary" inkscape:connector-curvature="0" />
	<path style="fill:none;stroke:red;stroke-width:1px;stroke-linecap:butt;stroke-linejoin:miter;stroke-opacity:1" d="M 903.463,496.299 903.463,514.806 z" id="boundary" inkscape:connector-curvature="0" />
	<path style="fill:none;stroke:red;stroke-width:1px;stroke-linecap:butt;stroke-linejoin:miter;stroke-opacity:1" d="M 903.463,514.806 903.463,533.313 z" id="boundary" inkscape:connector-curvature="0" />
	<path style="fill:none;stroke:red;stroke-width:1px;stroke-linecap:butt;stroke-linejoin:miter;stroke-opacity:1" d="M 903.463,533.313 907.164,551.821 z" id="boundary" inkscape:connector-curvature="0" />
	<path style="fill:none;stroke:red;stroke-width:1px;stroke-linecap:butt;stroke-linejoin:miter;stroke-opacity:1" d="M 907.164,551.821 916.418,568.478 z" id="boundary" inkscape:connector-curvature="0" />
	<path style="fill:none;stroke:red;stroke-width:1px;stroke-linecap:butt;stroke-linejoin:miter;stroke-opacity:1" d="M 907.164,755.403 923.821,746.149 z" id="boundary" inkscape:connector-curvature="0" />
	<path style="fill:none;stroke:red;stroke-width:1px;stroke-linecap:butt;stroke-linejoin:miter;stroke-opacity:1" d="M 909.015,209.433 921.97,224.239 z" id="boundary" inkscape:connector-curvature="0" />
	<path style="fill:none;stroke:red;stroke-width:1px;stroke-linecap:butt;stroke-linejoin:miter;stroke-opacity:1" d="M 912.716,422.269 921.97,403.761 z" id="boundary" inkscape:connector-curvature="0" />
	<path style="fill:none;stroke:red;stroke-width:1px;stroke-linecap:butt;stroke-linejoin:miter;stroke-opacity:1" d="M 916.418,568.478 921.97,586.985 z" id="boundary" inkscape:connector-curvature="0" />
	<path style="fill:none;stroke:red;stroke-width:1px;stroke-linecap:butt;stroke-linejoin:miter;stroke-opacity:1" d="M 921.97,224.239 931.224,240.896 z" id="boundary" inkscape:connector-curvature="0" />
	<path style="fill:none;stroke:red;stroke-width:1px;stroke-linecap:butt;stroke-linejoin:miter;stroke-opacity:1" d="M 921.97,385.254 921.97,403.761 z" id="boundary" inkscape:connector-curvature="0" />
	<path style="fill:none;stroke:red;stroke-width:1px;stroke-linecap:butt;stroke-linejoin:miter;stroke-opacity:1" d="M 921.97,385.254 931.224,357.493 z" id="boundary" inkscape:connector-curvature="0" />
	<path style="fill:none;stroke:red;stroke-width:1px;stroke-linecap:butt;stroke-linejoin:miter;stroke-opacity:1" d="M 921.97,586.985 921.97,605.493 z" id="boundary" inkscape:connector-curvature="0" />
	<path style="fill:none;stroke:red;stroke-width:1px;stroke-linecap:butt;stroke-linejoin:miter;stroke-opacity:1" d="M 921.97,605.493 921.97,624 z" id="boundary" inkscape:connector-curvature="0" />
	<path style="fill:none;stroke:red;stroke-width:1px;stroke-linecap:butt;stroke-linejoin:miter;stroke-opacity:1" d="M 921.97,624 936.776,635.104 z" id="boundary" inkscape:connector-curvature="0" />
	<path style="fill:none;stroke:red;stroke-width:1px;stroke-linecap:butt;stroke-linejoin:miter;stroke-opacity:1" d="M 923.821,746.149 942.328,746.149 z" id="boundary" inkscape:connector-curvature="0" />
	<path style="fill:none;stroke:red;stroke-width:1px;stroke-linecap:butt;stroke-linejoin:miter;stroke-opacity:1" d="M 931.224,240.896 940.478,257.552 z" id="boundary" inkscape:connector-curvature="0" />
	<path style="fill:none;stroke:red;stroke-width:1px;stroke-linecap:butt;stroke-linejoin:miter;stroke-opacity:1" d="M 931.224,357.493 947.881,348.239 z" id="boundary" inkscape:connector-curvature="0" />
	<path style="fill:none;stroke:red;stroke-width:1px;stroke-linecap:butt;stroke-linejoin:miter;stroke-opacity:1" d="M 936.776,635.104 940.478,653.612 z" id="boundary" inkscape:connector-curvature="0" />
	<path style="fill:none;stroke:red;stroke-width:1px;stroke-linecap:butt;stroke-linejoin:miter;stroke-opacity:1" d="M 938.627,462.985 938.627,481.493 z" id="boundary" inkscape:connector-curvature="0" />
	<path style="fill:none;stroke:red;stroke-width:1px;stroke-linecap:butt;stroke-linejoin:miter;stroke-opacity:1" d="M 938.627,462.985 947.881,444.478 z" id="boundary" inkscape:connector-curvature="0" />
	<path style="fill:none;stroke:red;stroke-width:1px;stroke-linecap:butt;stroke-linejoin:miter;stroke-opacity:1" d="M 938.627,481.493 938.627,500 z" id="boundary" inkscape:connector-curvature="0" />
	<path style="fill:none;stroke:red;stroke-width:1px;stroke-linecap:butt;stroke-linejoin:miter;stroke-opacity:1" d="M 938.627,500 938.627,518.507 z" id="boundary" inkscape:connector-curvature="0" />
	<path style="fill:none;stroke:red;stroke-width:1px;stroke-linecap:butt;stroke-linejoin:miter;stroke-opacity:1" d="M 938.627,518.507 947.881,535.164 z" id="boundary" inkscape:connector-curvature="0" />
	<path style="fill:none;stroke:red;stroke-width:1px;stroke-linecap:butt;stroke-linejoin:miter;stroke-opacity:1" d="M 940.478,257.552 946.03,276.06 z" id="boundary" inkscape:connector-curvature="0" />
	<path style="fill:none;stroke:red;stroke-width:1px;stroke-linecap:butt;stroke-linejoin:miter;stroke-opacity:1" d="M 940.478,653.612 940.478,672.119 z" id="boundary" inkscape:connector-curvature="0" />
	<path style="fill:none;stroke:red;stroke-width:1px;stroke-linecap:butt;stroke-linejoin:miter;stroke-opacity:1" d="M 940.478,672.119 949.731,688.776 z" id="boundary" inkscape:connector-curvature="0" />
	<path style="fill:none;stroke:red;stroke-width:1px;stroke-linecap:butt;stroke-linejoin:miter;stroke-opacity:1" d="M 942.328,746.149 949.731,725.791 z" id="boundary" inkscape:connector-curvature="0" />
	<path style="fill:none;stroke:red;stroke-width:1px;stroke-linecap:butt;stroke-linejoin:miter;stroke-opacity:1" d="M 946.03,276.06 949.731,294.567 z" id="boundary" inkscape:connector-curvature="0" />
	<path style="fill:none;stroke:red;stroke-width:1px;stroke-linecap:butt;stroke-linejoin:miter;stroke-opacity:1" d="M 947.881,348.239 957.134,364.896 z" id="boundary" inkscape:connector-curvature="0" />
	<path style="fill:none;stroke:red;stroke-width:1px;stroke-linecap:butt;stroke-linejoin:miter;stroke-opacity:1" d="M 947.881,444.478 957.134,420.418 z" id="boundary" inkscape:connector-curvature="0" />
	<path style="fill:none;stroke:red;stroke-width:1px;stroke-linecap:butt;stroke-linejoin:miter;stroke-opacity:1" d="M 947.881,535.164 966.388,542.567 z" id="boundary" inkscape:connector-curvature="0" />
	<path style="fill:none;stroke:red;stroke-width:1px;stroke-linecap:butt;stroke-linejoin:miter;stroke-opacity:1" d="M 949.731,294.567 960.836,309.373 z" id="boundary" inkscape:connector-curvature="0" />
	<path style="fill:none;stroke:red;stroke-width:1px;stroke-linecap:butt;stroke-linejoin:miter;stroke-opacity:1" d="M 949.731,688.776 949.731,707.284 z" id="boundary" inkscape:connector-curvature="0" />
	<path style="fill:none;stroke:red;stroke-width:1px;stroke-linecap:butt;stroke-linejoin:miter;stroke-opacity:1" d="M 949.731,707.284 949.731,725.791 z" id="boundary" inkscape:connector-curvature="0" />
	<path style="fill:none;stroke:red;stroke-width:1px;stroke-linecap:butt;stroke-linejoin:miter;stroke-opacity:1" d="M 957.134,364.896 957.134,383.403 z" id="boundary" inkscape:connector-curvature="0" />
	<path style="fill:none;stroke:red;stroke-width:1px;stroke-linecap:butt;stroke-linejoin:miter;stroke-opacity:1" d="M 957.134,383.403 957.134,401.91 z" id="boundary" inkscape:connector-curvature="0" />
	<path style="fill:none;stroke:red;stroke-width:1px;stroke-linecap:butt;stroke-linejoin:miter;stroke-opacity:1" d="M 957.134,401.91 957.134,420.418 z" id="boundary" inkscape:connector-curvature="0" />
	<path style="fill:none;stroke:red;stroke-width:1px;stroke-linecap:butt;stroke-linejoin:miter;stroke-opacity:1" d="M 958.985,487.045 958.985,505.552 z" id="boundary" inkscape:connector-curvature="0" />
	<path style="fill:none;stroke:red;stroke-width:1px;stroke-linecap:butt;stroke-linejoin:miter;stroke-opacity:1" d="M 958.985,487.045 968.239,468.537 z" id="boundary" inkscape:connector-curvature="0" />
	<path style="fill:none;stroke:red;stroke-width:1px;stroke-linecap:butt;stroke-linejoin:miter;stroke-opacity:1" d="M 958.985,505.552 968.239,522.209 z" id="boundary" inkscape:connector-curvature="0" />
	<path style="fill:none;stroke:red;stroke-width:1px;stroke-linecap:butt;stroke-linejoin:miter;stroke-opacity:1" d="M 960.836,309.373 968.239,327.881 z" id="boundary" inkscape:connector-curvature="0" />
	<path style="fill:none;stroke:red;stroke-width:1px;stroke-linecap:butt;stroke-linejoin:miter;stroke-opacity:1" d="M 966.388,542.567 983.045,533.313 z" id="boundary" inkscape:connector-curvature="0" />
	<path style="fill:none;stroke:red;stroke-width:1px;stroke-linecap:butt;stroke-linejoin:miter;stroke-opacity:1" d="M 968.239,327.881 983.045,338.985 z" id="boundary" inkscape:connector-curvature="0" />
	<path style="fill:none;stroke:red;stroke-width:1px;stroke-linecap:butt;stroke-linejoin:miter;stroke-opacity:1" d="M 968.239,468.537 983.045,455.582 z" id="boundary" inkscape:connector-curvature="0" />
	<path style="fill:none;stroke:red;stroke-width:1px;stroke-linecap:butt;stroke-linejoin:miter;stroke-opacity:1" d="M 968.239,522.209 983.045,533.313 z" id="boundary" inkscape:connector-curvature="0" />
	<path style="fill:none;stroke:red;stroke-width:1px;stroke-linecap:butt;stroke-linejoin:miter;stroke-opacity:1" d="M 983.045,338.985 986.746,357.493 z" id="boundary" inkscape:connector-curvature="0" />
	<path style="fill:none;stroke:red;stroke-width:1px;stroke-linecap:butt;stroke-linejoin:miter;stroke-opacity:1" d="M 983.045,455.582 992.299,437.075 z" id="boundary" inkscape:connector-curvature="0" />
	<path style="fill:none;stroke:red;stroke-width:1px;stroke-linecap:butt;stroke-linejoin:miter;stroke-opacity:1" d="M 986.746,357.493 990.448,376 z" id="boundary" inkscape:connector-curvature="0" />
	<path style="fill:none;stroke:red;stroke-width:1px;stroke-linecap:butt;stroke-linejoin:miter;stroke-opacity:1" d="M 990.448,376 996,394.507 z" id="boundary" inkscape:connector-curvature="0" />
	<path style="fill:none;stroke:red;stroke-width:1px;stroke-linecap:butt;stroke-linejoin:miter;stroke-opacity:1" d="M 992.299,437.075 996,413.015 z" id="boundary" inkscape:connector-curvature="0" />
	<path style="fill:none;stroke:red;stroke-width:1px;stroke-linecap:butt;stroke-linejoin:miter;stroke-opacity:1" d="M 996,394.507 996,413.015 z" id="boundary" inkscape:connector-curvature="0" />
	<circle cx="4" cy="518.507" r="4" fill="#0" id="circle0"/>
	<circle cx="13.2537" cy="500" r="4" fill="#0" id="circle1"/>
	<circle cx="15.1045" cy="533.313" r="4" fill="#0" id="circle2"/>
	<circle cx="28.0597" cy="485.194" r="4" fill="#0" id="circle3"/>
	<circle cx="31.7612" cy="524.06" r="4" fill="#0" id="circle4"/>
	<circle cx="41.0149" cy="462.985" r="4" fill="#0" id="circle5"/>
	<circle cx="46.5672" cy="512.955" r="4" fill="#0" id="circle6"/>
	<circle cx="50.2687" cy="648.06" r="4" fill="#0" id="circle7"/>
	<circle cx="59.5224" cy="444.478" r="4" fill="#0" id="circle8"/>
	<circle cx="59.5224" cy="664.716" r="4" fill="#0" id="circle9"/>
	<circle cx="61.3731" cy="496.299" r="4" fill="#0" id="circle10"/>
	<circle cx="68.7761" cy="425.97" r="4" fill="#0" id="circle11"/>
	<circle cx="68.7761" cy="638.806" r="4" fill="#0" id="circle12"/>
	<circle cx="72.4776" cy="679.522" r="4" fill="#0" id="circle13"/>
	<circle cx="76.1791" cy="483.343" r="4" fill="#0" id="circle14"/>
	<circle cx="83.5821" cy="411.164" r="4" fill="#0" id="circle15"/>
	<circle cx="87.2836" cy="629.552" r="4" fill="#0" id="circle16"/>
	<circle cx="89.1343" cy="468.537" r="4" fill="#0" id="circle17"/>
	<circle cx="90.9851" cy="672.119" r="4" fill="#0" id="circle18"/>
	<circle cx="96.5373" cy="388.955" r="4" fill="#0" id="circle19"/>
	<circle cx="96.5373" cy="611.045" r="4" fill="#0" id="circle20"/>
	<circle cx="103.94" cy="455.582" r="4" fill="#0" id="circle21"/>
	<circle cx="105.791" cy="370.448" r="4" fill="#0" id="circle22"/>
	<circle cx="105.791" cy="490.746" r="4" fill="#0" id="circle23"/>
	<circle cx="105.791" cy="657.313" r="4" fill="#0" id="circle24"/>
	<circle cx="111.343" cy="596.239" r="4" fill="#0" id="circle25"/>
	<circle cx="115.045" cy="342.687" r="4" fill="#0" id="circle26"/>
	<circle cx="115.045" cy="440.776" r="4" fill="#0" id="circle27"/>
	<circle cx="116.896" cy="505.552" r="4" fill="#0" id="circle28"/>
	<circle cx="120.597" cy="577.731" r="4" fill="#0" id="circle29"/>
	<circle cx="120.597" cy="644.358" r="4" fill="#0" id="circle30"/>
	<circle cx="124.299" cy="305.672" r="4" fill="#0" id="circle31"/>
	<circle cx="124.299" cy="324.179" r="4" fill="#0" id="circle32"/>
	<circle cx="124.299" cy="457.433" r="4" fill="#0" id="circle33"/>
	<circle cx="124.299" cy="481.493" r="4" fill="#0" id="circle34"/>
	<circle cx="128" cy="520.358" r="4" fill="#0" id="circle35"/>
	<circle cx="129.851" cy="559.224" r="4" fill="#0" id="circle36"/>
	<circle cx="133.552" cy="148.358" r="4" fill="#0" id="circle37"/>
	<circle cx="133.552" cy="166.866" r="4" fill="#0" id="circle38"/>
	<circle cx="133.552" cy="185.373" r="4" fill="#0" id="circle39"/>
	<circle cx="133.552" cy="240.896" r="4" fill="#0" id="circle40"/>
	<circle cx="133.552" cy="259.403" r="4" fill="#0" id="circle41"/>
	<circle cx="133.552" cy="277.91" r="4" fill="#0" id="circle42"/>
	<circle cx="137.254" cy="635.104" r="4" fill="#0" id="circle43"/>
	<circle cx="142.806" cy="129.851" r="4" fill="#0" id="circle44"/>
	<circle cx="142.806" cy="202.03" r="4" fill="#0" id="circle45"/>
	<circle cx="142.806" cy="220.537" r="4" fill="#0" id="circle46"/>
	<circle cx="142.806" cy="531.463" r="4" fill="#0" id="circle47"/>
	<circle cx="144.657" cy="616.597" r="4" fill="#0" id="circle48"/>
	<circle cx="157.612" cy="115.045" r="4" fill="#0" id="circle49"/>
	<circle cx="159.463" cy="603.642" r="4" fill="#0" id="circle50"/>
	<circle cx="166.866" cy="96.5373" r="4" fill="#0" id="circle51"/>
	<circle cx="168.716" cy="585.134" r="4" fill="#0" id="circle52"/>
	<circle cx="172.418" cy="561.075" r="4" fill="#0" id="circle53"/>
	<circle cx="185.373" cy="87.2836" r="4" fill="#0" id="circle54"/>
	<circle cx="190.925" cy="533.313" r="4" fill="#0" id="circle55"/>
	<circle cx="190.925" cy="551.821" r="4" fill="#0" id="circle56"/>
	<circle cx="200.179" cy="505.552" r="4" fill="#0" id="circle57"/>
	<circle cx="202.03" cy="78.0299" r="4" fill="#0" id="circle58"/>
	<circle cx="214.985" cy="492.597" r="4" fill="#0" id="circle59"/>
	<circle cx="216.836" cy="65.0746" r="4" fill="#0" id="circle60"/>
	<circle cx="233.493" cy="487.045" r="4" fill="#0" id="circle61"/>
	<circle cx="235.343" cy="55.8209" r="4" fill="#0" id="circle62"/>
	<circle cx="250.149" cy="41.0149" r="4" fill="#0" id="circle63"/>
	<circle cx="250.149" cy="475.94" r="4" fill="#0" id="circle64"/>
	<circle cx="264.955" cy="450.03" r="4" fill="#0" id="circle65"/>
	<circle cx="266.806" cy="31.7612" r="4" fill="#0" id="circle66"/>
	<circle cx="279.761" cy="437.075" r="4" fill="#0" id="circle67"/>
	<circle cx="285.313" cy="24.3582" r="4" fill="#0" id="circle68"/>
	<circle cx="289.015" cy="418.567" r="4" fill="#0" id="circle69"/>
	<circle cx="300.119" cy="433.373" r="4" fill="#0" id="circle70"/>
	<circle cx="300.119" cy="451.881" r="4" fill="#0" id="circle71"/>
	<circle cx="300.119" cy="470.388" r="4" fill="#0" id="circle72"/>
	<circle cx="300.119" cy="488.896" r="4" fill="#0" id="circle73"/>
	<circle cx="300.119" cy="507.403" r="4" fill="#0" id="circle74"/>
	<circle cx="303.821" cy="22.5075" r="4" fill="#0" id="circle75"/>
	<circle cx="309.373" cy="524.06" r="4" fill="#0" id="circle76"/>
	<circle cx="309.373" cy="542.567" r="4" fill="#0" id="circle77"/>
	<circle cx="318.627" cy="559.224" r="4" fill="#0" id="circle78"/>
	<circle cx="322.328" cy="22.5075" r="4" fill="#0" id="circle79"/>
	<circle cx="329.731" cy="574.03" r="4" fill="#0" id="circle80"/>
	<circle cx="337.134" cy="592.537" r="4" fill="#0" id="circle81"/>
	<circle cx="337.134" cy="703.582" r="4" fill="#0" id="circle82"/>
	<circle cx="340.836" cy="22.5075" r="4" fill="#0" id="circle83"/>
	<circle cx="346.388" cy="609.194" r="4" fill="#0" id="circle84"/>
	<circle cx="346.388" cy="720.239" r="4" fill="#0" id="circle85"/>
	<circle cx="351.94" cy="688.776" r="4" fill="#0" id="circle86"/>
	<circle cx="355.642" cy="625.851" r="4" fill="#0" id="circle87"/>
	<circle cx="359.343" cy="15.1045" r="4" fill="#0" id="circle88"/>
	<circle cx="361.194" cy="644.358" r="4" fill="#0" id="circle89"/>
	<circle cx="364.896" cy="662.866" r="4" fill="#0" id="circle90"/>
	<circle cx="364.896" cy="727.642" r="4" fill="#0" id="circle91"/>
	<circle cx="377.851" cy="13.2537" r="4" fill="#0" id="circle92"/>
	<circle cx="383.403" cy="727.642" r="4" fill="#0" id="circle93"/>
	<circle cx="396.358" cy="13.2537" r="4" fill="#0" id="circle94"/>
	<circle cx="401.91" cy="727.642" r="4" fill="#0" id="circle95"/>
	<circle cx="414.866" cy="5.85075" r="4" fill="#0" id="circle96"/>
	<circle cx="420.418" cy="727.642" r="4" fill="#0" id="circle97"/>
	<circle cx="433.373" cy="4" r="4" fill="#0" id="circle98"/>
	<circle cx="438.925" cy="727.642" r="4" fill="#0" id="circle99"/>
	<circle cx="450.03" cy="13.2537" r="4" fill="#0" id="circle100"/>
	<circle cx="450.03" cy="542.567" r="4" fill="#0" id="circle101"/>
	<circle cx="450.03" cy="561.075" r="4" fill="#0" id="circle102"/>
	<circle cx="450.03" cy="579.582" r="4" fill="#0" id="circle103"/>
	<circle cx="450.03" cy="598.09" r="4" fill="#0" id="circle104"/>
	<circle cx="453.731" cy="616.597" r="4" fill="#0" id="circle105"/>
	<circle cx="457.433" cy="722.09" r="4" fill="#0" id="circle106"/>
	<circle cx="459.284" cy="635.104" r="4" fill="#0" id="circle107"/>
	<circle cx="459.284" cy="653.612" r="4" fill="#0" id="circle108"/>
	<circle cx="459.284" cy="672.119" r="4" fill="#0" id="circle109"/>
	<circle cx="462.985" cy="690.627" r="4" fill="#0" id="circle110"/>
	<circle cx="464.836" cy="24.3582" r="4" fill="#0" id="circle111"/>
	<circle cx="468.537" cy="546.269" r="4" fill="#0" id="circle112"/>
	<circle cx="472.239" cy="42.8657" r="4" fill="#0" id="circle113"/>
	<circle cx="475.94" cy="564.776" r="4" fill="#0" id="circle114"/>
	<circle cx="475.94" cy="712.836" r="4" fill="#0" id="circle115"/>
	<circle cx="481.493" cy="59.5224" r="4" fill="#0" id="circle116"/>
	<circle cx="485.194" cy="581.433" r="4" fill="#0" id="circle117"/>
	<circle cx="485.194" cy="657.313" r="4" fill="#0" id="circle118"/>
	<circle cx="485.194" cy="675.821" r="4" fill="#0" id="circle119"/>
	<circle cx="494.448" cy="74.3284" r="4" fill="#0" id="circle120"/>
	<circle cx="494.448" cy="598.09" r="4" fill="#0" id="circle121"/>
	<circle cx="494.448" cy="616.597" r="4" fill="#0" id="circle122"/>
	<circle cx="494.448" cy="635.104" r="4" fill="#0" id="circle123"/>
	<circle cx="494.448" cy="692.478" r="4" fill="#0" id="circle124"/>
	<circle cx="503.701" cy="709.134" r="4" fill="#0" id="circle125"/>
	<circle cx="509.254" cy="87.2836" r="4" fill="#0" id="circle126"/>
	<circle cx="509.254" cy="727.642" r="4" fill="#0" id="circle127"/>
	<circle cx="527.761" cy="87.2836" r="4" fill="#0" id="circle128"/>
	<circle cx="527.761" cy="727.642" r="4" fill="#0" id="circle129"/>
	<circle cx="546.269" cy="87.2836" r="4" fill="#0" id="circle130"/>
	<circle cx="546.269" cy="727.642" r="4" fill="#0" id="circle131"/>
	<circle cx="564.776" cy="87.2836" r="4" fill="#0" id="circle132"/>
	<circle cx="564.776" cy="727.642" r="4" fill="#0" id="circle133"/>
	<circle cx="579.582" cy="551.821" r="4" fill="#0" id="circle134"/>
	<circle cx="579.582" cy="570.328" r="4" fill="#0" id="circle135"/>
	<circle cx="579.582" cy="588.836" r="4" fill="#0" id="circle136"/>
	<circle cx="579.582" cy="607.343" r="4" fill="#0" id="circle137"/>
	<circle cx="579.582" cy="625.851" r="4" fill="#0" id="circle138"/>
	<circle cx="583.284" cy="87.2836" r="4" fill="#0" id="circle139"/>
	<circle cx="583.284" cy="727.642" r="4" fill="#0" id="circle140"/>
	<circle cx="588.836" cy="642.507" r="4" fill="#0" id="circle141"/>
	<circle cx="596.239" cy="542.567" r="4" fill="#0" id="circle142"/>
	<circle cx="598.09" cy="659.164" r="4" fill="#0" id="circle143"/>
	<circle cx="598.09" cy="677.672" r="4" fill="#0" id="circle144"/>
	<circle cx="599.94" cy="718.388" r="4" fill="#0" id="circle145"/>
	<circle cx="601.791" cy="87.2836" r="4" fill="#0" id="circle146"/>
	<circle cx="607.343" cy="694.328" r="4" fill="#0" id="circle147"/>
	<circle cx="612.896" cy="533.313" r="4" fill="#0" id="circle148"/>
	<circle cx="620.299" cy="87.2836" r="4" fill="#0" id="circle149"/>
	<circle cx="631.403" cy="533.313" r="4" fill="#0" id="circle150"/>
	<circle cx="636.955" cy="78.0299" r="4" fill="#0" id="circle151"/>
	<circle cx="649.91" cy="533.313" r="4" fill="#0" id="circle152"/>
	<circle cx="655.463" cy="78.0299" r="4" fill="#0" id="circle153"/>
	<circle cx="668.418" cy="533.313" r="4" fill="#0" id="circle154"/>
	<circle cx="673.97" cy="78.0299" r="4" fill="#0" id="circle155"/>
	<circle cx="686.925" cy="533.313" r="4" fill="#0" id="circle156"/>
	<circle cx="692.478" cy="78.0299" r="4" fill="#0" id="circle157"/>
	<circle cx="703.582" cy="542.567" r="4" fill="#0" id="circle158"/>
	<circle cx="710.985" cy="78.0299" r="4" fill="#0" id="circle159"/>
	<circle cx="716.537" cy="557.373" r="4" fill="#0" id="circle160"/>
	<circle cx="716.537" cy="694.328" r="4" fill="#0" id="circle161"/>
	<circle cx="716.537" cy="712.836" r="4" fill="#0" id="circle162"/>
	<circle cx="725.791" cy="574.03" r="4" fill="#0" id="circle163"/>
	<circle cx="725.791" cy="592.537" r="4" fill="#0" id="circle164"/>
	<circle cx="725.791" cy="729.493" r="4" fill="#0" id="circle165"/>
	<circle cx="729.493" cy="78.0299" r="4" fill="#0" id="circle166"/>
	<circle cx="735.045" cy="609.194" r="4" fill="#0" id="circle167"/>
	<circle cx="735.045" cy="685.075" r="4" fill="#0" id="circle168"/>
	<circle cx="744.299" cy="625.851" r="4" fill="#0" id="circle169"/>
	<circle cx="744.299" cy="644.358" r="4" fill="#0" id="circle170"/>
	<circle cx="744.299" cy="662.866" r="4" fill="#0" id="circle171"/>
	<circle cx="744.299" cy="736.896" r="4" fill="#0" id="circle172"/>
	<circle cx="746.149" cy="87.2836" r="4" fill="#0" id="circle173"/>
	<circle cx="762.806" cy="736.896" r="4" fill="#0" id="circle174"/>
	<circle cx="764.657" cy="87.2836" r="4" fill="#0" id="circle175"/>
	<circle cx="781.313" cy="96.5373" r="4" fill="#0" id="circle176"/>
	<circle cx="781.313" cy="736.896" r="4" fill="#0" id="circle177"/>
	<circle cx="796.119" cy="107.642" r="4" fill="#0" id="circle178"/>
	<circle cx="797.97" cy="746.149" r="4" fill="#0" id="circle179"/>
	<circle cx="814.627" cy="115.045" r="4" fill="#0" id="circle180"/>
	<circle cx="814.627" cy="755.403" r="4" fill="#0" id="circle181"/>
	<circle cx="827.582" cy="129.851" r="4" fill="#0" id="circle182"/>
	<circle cx="833.134" cy="755.403" r="4" fill="#0" id="circle183"/>
	<circle cx="842.388" cy="142.806" r="4" fill="#0" id="circle184"/>
	<circle cx="851.642" cy="755.403" r="4" fill="#0" id="circle185"/>
	<circle cx="855.343" cy="157.612" r="4" fill="#0" id="circle186"/>
	<circle cx="870.149" cy="170.567" r="4" fill="#0" id="circle187"/>
	<circle cx="870.149" cy="755.403" r="4" fill="#0" id="circle188"/>
	<circle cx="886.806" cy="179.821" r="4" fill="#0" id="circle189"/>
	<circle cx="888.657" cy="755.403" r="4" fill="#0" id="circle190"/>
	<circle cx="894.209" cy="198.328" r="4" fill="#0" id="circle191"/>
	<circle cx="903.463" cy="440.776" r="4" fill="#0" id="circle192"/>
	<circle cx="903.463" cy="459.284" r="4" fill="#0" id="circle193"/>
	<circle cx="903.463" cy="477.791" r="4" fill="#0" id="circle194"/>
	<circle cx="903.463" cy="496.299" r="4" fill="#0" id="circle195"/>
	<circle cx="903.463" cy="514.806" r="4" fill="#0" id="circle196"/>
	<circle cx="903.463" cy="533.313" r="4" fill="#0" id="circle197"/>
	<circle cx="907.164" cy="551.821" r="4" fill="#0" id="circle198"/>
	<circle cx="907.164" cy="755.403" r="4" fill="#0" id="circle199"/>
	<circle cx="909.015" cy="209.433" r="4" fill="#0" id="circle200"/>
	<circle cx="912.716" cy="422.269" r="4" fill="#0" id="circle201"/>
	<circle cx="916.418" cy="568.478" r="4" fill="#0" id="circle202"/>
	<circle cx="921.97" cy="224.239" r="4" fill="#0" id="circle203"/>
	<circle cx="921.97" cy="385.254" r="4" fill="#0" id="circle204"/>
	<circle cx="921.97" cy="403.761" r="4" fill="#0" id="circle205"/>
	<circle cx="921.97" cy="586.985" r="4" fill="#0" id="circle206"/>
	<circle cx="921.97" cy="605.493" r="4" fill="#0" id="circle207"/>
	<circle cx="921.97" cy="624" r="4" fill="#0" id="circle208"/>
	<circle cx="923.821" cy="746.149" r="4" fill="#0" id="circle209"/>
	<circle cx="931.224" cy="240.896" r="4" fill="#0" id="circle210"/>
	<circle cx="931.224" cy="357.493" r="4" fill="#0" id="circle211"/>
	<circle cx="936.776" cy="635.104" r="4" fill="#0" id="circle212"/>
	<circle cx="938.627" cy="462.985" r="4" fill="#0" id="circle213"/>
	<circle cx="938.627" cy="481.493" r="4" fill="#0" id="circle214"/>
	<circle cx="938.627" cy="500" r="4" fill="#0" id="circle215"/>
	<circle cx="938.627" cy="518.507" r="4" fill="#0" id="circle216"/>
	<circle cx="940.478" cy="257.552" r="4" fill="#0" id="circle217"/>
	<circle cx="940.478" cy="653.612" r="4" fill="#0" id="circle218"/>
	<circle cx="940.478" cy="672.119" r="4" fill="#0" id="circle219"/>
	<circle cx="942.328" cy="746.149" r="4" fill="#0" id="circle220"/>
	<circle cx="946.03" cy="276.06" r="4" fill="#0" id="circle221"/>
	<circle cx="947.881" cy="348.239" r="4" fill="#0" id="circle222"/>
	<circle cx="947.881" cy="444.478" r="4" fill="#0" id="circle223"/>
	<circle cx="947.881" cy="535.164" r="4" fill="#0" id="circle224"/>
	<circle cx="949.731" cy="294.567" r="4" fill="#0" id="circle225"/>
	<circle cx="949.731" cy="688.776" r="4" fill="#0" id="circle226"/>
	<circle cx="949.731" cy="707.284" r="4" fill="#0" id="circle227"/>
	<circle cx="949.731" cy="725.791" r="4" fill="#0" id="circle228"/>
	<circle cx="957.134" cy="364.896" r="4" fill="#0" id="circle229"/>
	<circle cx="957.134" cy="383.403" r="4" fill="#0" id="circle230"/>
	<circle cx="957.134" cy="401.91" r="4" fill="#0" id="circle231"/>
	<circle cx="957.134" cy="420.418" r="4" fill="#0" id="circle232"/>
	<circle cx="958.985" cy="487.045" r="4" fill="#0" id="circle233"/>
	<circle cx="958.985" cy="505.552" r="4" fill="#0" id="circle234"/>
	<circle cx="960.836" cy="309.373" r="4" fill="#0" id="circle235"/>
	<circle cx="966.388" cy="542.567" r="4" fill="#0" id="circle236"/>
	<circle cx="968.239" cy="327.881" r="4" fill="#0" id="circle237"/>
	<circle cx="968.239" cy="468.537" r="4" fill="#0" id="circle238"/>
	<circle cx="968.239" cy="522.209" r="4" fill="#0" id="circle239"/>
	<circle cx="983.045" cy="338.985" r="4" fill="#0" id="circle240"/>
	<circle cx="983.045" cy="455.582" r="4" fill="#0" id="circle241"/>
	<circle cx="983.045" cy="533.313" r="4" fill="#0" id="circle242"/>
	<circle cx="986.746" cy="357.493" r="4" fill="#0" id="circle243"/>
	<circle cx="990.448" cy="376" r="4" fill="#0" id="circle244"/>
	<circle cx="992.299" cy="437.075" r="4" fill="#0" id="circle245"/>
	<circle cx="996" cy="394.507" r="4" fill="#0" id="circle246"/>
	<circle cx="996" cy="413.015" r="4" fill="#0" id="circle247"/>
	</g>
</svg>