<?xml version="1.0" encoding="UTF-8" standalone="no"?>
<!-- Created with CurveBenchmark -->
<svg
	xmlns:dc="http://purl.org/dc/elements/1.1/"
	xmlns:cc="http://creativecommons.org/ns#"
	xmlns:rdf="http://www.w3.org/1999/02/22-rdf-syntax-ns#"
	xmlns:svg="http://www.w3.org/2000/svg"
	xmlns="http://www.w3.org/2000/svg"
	xmlns:sodipodi="http://sodipodi.sourceforge.net/DTD/sodipodi-0.dtd"
	xmlns:inkscape="http://www.inkscape.org/namespaces/inkscape"
	width="1000"
	height="1000"
	id="svg2"
	version="1.1"
	sodipodi:docname="manifold/vicur-television015.png.txt">
<defs
	id="defs4" />
<metadata
	id="metadata7">
	<rdf:RDF>
		<cc:Work
			rdf:about="">
			<dc:format>image/svg+xml</dc:format>
			<dc:type
				rdf:resource="http://purl.org/dc/dcmitype/StillImage" />
			<dc:title></dc:title>
		</cc:Work>
	</rdf:RDF>
</metadata>
<g
	inkscape:label="Layer 1"
	inkscape:groupmode="layer"
	id="layer1">
	<path style="fill:none;stroke:red;stroke-width:1px;stroke-linecap:butt;stroke-linejoin:miter;stroke-opacity:1" d="M 4,752.066 4,784.59 z" id="boundary" inkscape:connector-curvature="0" />
	<path style="fill:none;stroke:red;stroke-width:1px;stroke-linecap:butt;stroke-linejoin:miter;stroke-opacity:1" d="M 4,752.066 36.5246,745.561 z" id="boundary" inkscape:connector-curvature="0" />
	<path style="fill:none;stroke:red;stroke-width:1px;stroke-linecap:butt;stroke-linejoin:miter;stroke-opacity:1" d="M 4,784.59 20.2623,813.862 z" id="boundary" inkscape:connector-curvature="0" />
	<path style="fill:none;stroke:red;stroke-width:1px;stroke-linecap:butt;stroke-linejoin:miter;stroke-opacity:1" d="M 20.2623,813.862 52.7869,823.62 z" id="boundary" inkscape:connector-curvature="0" />
	<path style="fill:none;stroke:red;stroke-width:1px;stroke-linecap:butt;stroke-linejoin:miter;stroke-opacity:1" d="M 36.5246,745.561 69.0492,745.561 z" id="boundary" inkscape:connector-curvature="0" />
	<path style="fill:none;stroke:red;stroke-width:1px;stroke-linecap:butt;stroke-linejoin:miter;stroke-opacity:1" d="M 49.5344,556.918 78.8066,573.18 z" id="boundary" inkscape:connector-curvature="0" />
	<path style="fill:none;stroke:red;stroke-width:1px;stroke-linecap:butt;stroke-linejoin:miter;stroke-opacity:1" d="M 49.5344,556.918 95.0689,543.908 z" id="boundary" inkscape:connector-curvature="0" />
	<path style="fill:none;stroke:red;stroke-width:1px;stroke-linecap:butt;stroke-linejoin:miter;stroke-opacity:1" d="M 49.5344,654.492 75.5541,677.259 z" id="boundary" inkscape:connector-curvature="0" />
	<path style="fill:none;stroke:red;stroke-width:1px;stroke-linecap:butt;stroke-linejoin:miter;stroke-opacity:1" d="M 49.5344,654.492 91.8164,647.987 z" id="boundary" inkscape:connector-curvature="0" />
	<path style="fill:none;stroke:red;stroke-width:1px;stroke-linecap:butt;stroke-linejoin:miter;stroke-opacity:1" d="M 52.7869,823.62 85.3115,813.862 z" id="boundary" inkscape:connector-curvature="0" />
	<path style="fill:none;stroke:red;stroke-width:1px;stroke-linecap:butt;stroke-linejoin:miter;stroke-opacity:1" d="M 69.0492,745.561 101.574,745.561 z" id="boundary" inkscape:connector-curvature="0" />
	<path style="fill:none;stroke:red;stroke-width:1px;stroke-linecap:butt;stroke-linejoin:miter;stroke-opacity:1" d="M 75.5541,677.259 108.079,677.259 z" id="boundary" inkscape:connector-curvature="0" />
	<path style="fill:none;stroke:red;stroke-width:1px;stroke-linecap:butt;stroke-linejoin:miter;stroke-opacity:1" d="M 78.8066,573.18 111.331,573.18 z" id="boundary" inkscape:connector-curvature="0" />
	<path style="fill:none;stroke:red;stroke-width:1px;stroke-linecap:butt;stroke-linejoin:miter;stroke-opacity:1" d="M 85.3115,813.862 117.836,823.62 z" id="boundary" inkscape:connector-curvature="0" />
	<path style="fill:none;stroke:red;stroke-width:1px;stroke-linecap:butt;stroke-linejoin:miter;stroke-opacity:1" d="M 91.8164,647.987 124.341,647.987 z" id="boundary" inkscape:connector-curvature="0" />
	<path style="fill:none;stroke:red;stroke-width:1px;stroke-linecap:butt;stroke-linejoin:miter;stroke-opacity:1" d="M 95.0689,543.908 127.593,543.908 z" id="boundary" inkscape:connector-curvature="0" />
	<path style="fill:none;stroke:red;stroke-width:1px;stroke-linecap:butt;stroke-linejoin:miter;stroke-opacity:1" d="M 101.574,745.561 134.098,745.561 z" id="boundary" inkscape:connector-curvature="0" />
	<path style="fill:none;stroke:red;stroke-width:1px;stroke-linecap:butt;stroke-linejoin:miter;stroke-opacity:1" d="M 108.079,677.259 140.603,677.259 z" id="boundary" inkscape:connector-curvature="0" />
	<path style="fill:none;stroke:red;stroke-width:1px;stroke-linecap:butt;stroke-linejoin:miter;stroke-opacity:1" d="M 111.331,573.18 143.856,573.18 z" id="boundary" inkscape:connector-curvature="0" />
	<path style="fill:none;stroke:red;stroke-width:1px;stroke-linecap:butt;stroke-linejoin:miter;stroke-opacity:1" d="M 117.836,823.62 150.361,813.862 z" id="boundary" inkscape:connector-curvature="0" />
	<path style="fill:none;stroke:red;stroke-width:1px;stroke-linecap:butt;stroke-linejoin:miter;stroke-opacity:1" d="M 121.089,10.5049 121.089,43.0295 z" id="boundary" inkscape:connector-curvature="0" />
	<path style="fill:none;stroke:red;stroke-width:1px;stroke-linecap:butt;stroke-linejoin:miter;stroke-opacity:1" d="M 121.089,10.5049 153.613,4 z" id="boundary" inkscape:connector-curvature="0" />
	<path style="fill:none;stroke:red;stroke-width:1px;stroke-linecap:butt;stroke-linejoin:miter;stroke-opacity:1" d="M 121.089,43.0295 121.089,75.5541 z" id="boundary" inkscape:connector-curvature="0" />
	<path style="fill:none;stroke:red;stroke-width:1px;stroke-linecap:butt;stroke-linejoin:miter;stroke-opacity:1" d="M 121.089,75.5541 121.089,108.079 z" id="boundary" inkscape:connector-curvature="0" />
	<path style="fill:none;stroke:red;stroke-width:1px;stroke-linecap:butt;stroke-linejoin:miter;stroke-opacity:1" d="M 121.089,108.079 121.089,140.603 z" id="boundary" inkscape:connector-curvature="0" />
	<path style="fill:none;stroke:red;stroke-width:1px;stroke-linecap:butt;stroke-linejoin:miter;stroke-opacity:1" d="M 121.089,140.603 121.089,173.128 z" id="boundary" inkscape:connector-curvature="0" />
	<path style="fill:none;stroke:red;stroke-width:1px;stroke-linecap:butt;stroke-linejoin:miter;stroke-opacity:1" d="M 121.089,173.128 121.089,205.652 z" id="boundary" inkscape:connector-curvature="0" />
	<path style="fill:none;stroke:red;stroke-width:1px;stroke-linecap:butt;stroke-linejoin:miter;stroke-opacity:1" d="M 121.089,205.652 121.089,238.177 z" id="boundary" inkscape:connector-curvature="0" />
	<path style="fill:none;stroke:red;stroke-width:1px;stroke-linecap:butt;stroke-linejoin:miter;stroke-opacity:1" d="M 121.089,238.177 121.089,270.702 z" id="boundary" inkscape:connector-curvature="0" />
	<path style="fill:none;stroke:red;stroke-width:1px;stroke-linecap:butt;stroke-linejoin:miter;stroke-opacity:1" d="M 121.089,270.702 121.089,303.226 z" id="boundary" inkscape:connector-curvature="0" />
	<path style="fill:none;stroke:red;stroke-width:1px;stroke-linecap:butt;stroke-linejoin:miter;stroke-opacity:1" d="M 121.089,303.226 121.089,335.751 z" id="boundary" inkscape:connector-curvature="0" />
	<path style="fill:none;stroke:red;stroke-width:1px;stroke-linecap:butt;stroke-linejoin:miter;stroke-opacity:1" d="M 121.089,335.751 121.089,368.275 z" id="boundary" inkscape:connector-curvature="0" />
	<path style="fill:none;stroke:red;stroke-width:1px;stroke-linecap:butt;stroke-linejoin:miter;stroke-opacity:1" d="M 121.089,368.275 121.089,400.8 z" id="boundary" inkscape:connector-curvature="0" />
	<path style="fill:none;stroke:red;stroke-width:1px;stroke-linecap:butt;stroke-linejoin:miter;stroke-opacity:1" d="M 121.089,400.8 124.341,433.325 z" id="boundary" inkscape:connector-curvature="0" />
	<path style="fill:none;stroke:red;stroke-width:1px;stroke-linecap:butt;stroke-linejoin:miter;stroke-opacity:1" d="M 124.341,433.325 156.866,436.577 z" id="boundary" inkscape:connector-curvature="0" />
	<path style="fill:none;stroke:red;stroke-width:1px;stroke-linecap:butt;stroke-linejoin:miter;stroke-opacity:1" d="M 124.341,647.987 156.866,647.987 z" id="boundary" inkscape:connector-curvature="0" />
	<path style="fill:none;stroke:red;stroke-width:1px;stroke-linecap:butt;stroke-linejoin:miter;stroke-opacity:1" d="M 127.593,543.908 160.118,543.908 z" id="boundary" inkscape:connector-curvature="0" />
	<path style="fill:none;stroke:red;stroke-width:1px;stroke-linecap:butt;stroke-linejoin:miter;stroke-opacity:1" d="M 134.098,745.561 166.623,745.561 z" id="boundary" inkscape:connector-curvature="0" />
	<path style="fill:none;stroke:red;stroke-width:1px;stroke-linecap:butt;stroke-linejoin:miter;stroke-opacity:1" d="M 140.603,677.259 173.128,677.259 z" id="boundary" inkscape:connector-curvature="0" />
	<path style="fill:none;stroke:red;stroke-width:1px;stroke-linecap:butt;stroke-linejoin:miter;stroke-opacity:1" d="M 143.856,573.18 176.38,573.18 z" id="boundary" inkscape:connector-curvature="0" />
	<path style="fill:none;stroke:red;stroke-width:1px;stroke-linecap:butt;stroke-linejoin:miter;stroke-opacity:1" d="M 150.361,813.862 182.885,813.862 z" id="boundary" inkscape:connector-curvature="0" />
	<path style="fill:none;stroke:red;stroke-width:1px;stroke-linecap:butt;stroke-linejoin:miter;stroke-opacity:1" d="M 153.613,4 186.138,4 z" id="boundary" inkscape:connector-curvature="0" />
	<path style="fill:none;stroke:red;stroke-width:1px;stroke-linecap:butt;stroke-linejoin:miter;stroke-opacity:1" d="M 156.866,436.577 189.39,436.577 z" id="boundary" inkscape:connector-curvature="0" />
	<path style="fill:none;stroke:red;stroke-width:1px;stroke-linecap:butt;stroke-linejoin:miter;stroke-opacity:1" d="M 156.866,647.987 189.39,647.987 z" id="boundary" inkscape:connector-curvature="0" />
	<path style="fill:none;stroke:red;stroke-width:1px;stroke-linecap:butt;stroke-linejoin:miter;stroke-opacity:1" d="M 160.118,543.908 192.643,543.908 z" id="boundary" inkscape:connector-curvature="0" />
	<path style="fill:none;stroke:red;stroke-width:1px;stroke-linecap:butt;stroke-linejoin:miter;stroke-opacity:1" d="M 166.623,745.561 199.148,745.561 z" id="boundary" inkscape:connector-curvature="0" />
	<path style="fill:none;stroke:red;stroke-width:1px;stroke-linecap:butt;stroke-linejoin:miter;stroke-opacity:1" d="M 173.128,677.259 205.652,677.259 z" id="boundary" inkscape:connector-curvature="0" />
	<path style="fill:none;stroke:red;stroke-width:1px;stroke-linecap:butt;stroke-linejoin:miter;stroke-opacity:1" d="M 176.38,573.18 208.905,573.18 z" id="boundary" inkscape:connector-curvature="0" />
	<path style="fill:none;stroke:red;stroke-width:1px;stroke-linecap:butt;stroke-linejoin:miter;stroke-opacity:1" d="M 182.885,813.862 215.41,813.862 z" id="boundary" inkscape:connector-curvature="0" />
	<path style="fill:none;stroke:red;stroke-width:1px;stroke-linecap:butt;stroke-linejoin:miter;stroke-opacity:1" d="M 186.138,4 218.662,4 z" id="boundary" inkscape:connector-curvature="0" />
	<path style="fill:none;stroke:red;stroke-width:1px;stroke-linecap:butt;stroke-linejoin:miter;stroke-opacity:1" d="M 189.39,436.577 221.915,436.577 z" id="boundary" inkscape:connector-curvature="0" />
	<path style="fill:none;stroke:red;stroke-width:1px;stroke-linecap:butt;stroke-linejoin:miter;stroke-opacity:1" d="M 189.39,647.987 221.915,647.987 z" id="boundary" inkscape:connector-curvature="0" />
	<path style="fill:none;stroke:red;stroke-width:1px;stroke-linecap:butt;stroke-linejoin:miter;stroke-opacity:1" d="M 192.643,543.908 225.167,543.908 z" id="boundary" inkscape:connector-curvature="0" />
	<path style="fill:none;stroke:red;stroke-width:1px;stroke-linecap:butt;stroke-linejoin:miter;stroke-opacity:1" d="M 199.148,745.561 231.672,745.561 z" id="boundary" inkscape:connector-curvature="0" />
	<path style="fill:none;stroke:red;stroke-width:1px;stroke-linecap:butt;stroke-linejoin:miter;stroke-opacity:1" d="M 205.652,677.259 238.177,677.259 z" id="boundary" inkscape:connector-curvature="0" />
	<path style="fill:none;stroke:red;stroke-width:1px;stroke-linecap:butt;stroke-linejoin:miter;stroke-opacity:1" d="M 208.905,573.18 241.43,573.18 z" id="boundary" inkscape:connector-curvature="0" />
	<path style="fill:none;stroke:red;stroke-width:1px;stroke-linecap:butt;stroke-linejoin:miter;stroke-opacity:1" d="M 215.41,813.862 247.934,813.862 z" id="boundary" inkscape:connector-curvature="0" />
	<path style="fill:none;stroke:red;stroke-width:1px;stroke-linecap:butt;stroke-linejoin:miter;stroke-opacity:1" d="M 218.662,4 251.187,4 z" id="boundary" inkscape:connector-curvature="0" />
	<path style="fill:none;stroke:red;stroke-width:1px;stroke-linecap:butt;stroke-linejoin:miter;stroke-opacity:1" d="M 221.915,436.577 254.439,436.577 z" id="boundary" inkscape:connector-curvature="0" />
	<path style="fill:none;stroke:red;stroke-width:1px;stroke-linecap:butt;stroke-linejoin:miter;stroke-opacity:1" d="M 221.915,647.987 254.439,647.987 z" id="boundary" inkscape:connector-curvature="0" />
	<path style="fill:none;stroke:red;stroke-width:1px;stroke-linecap:butt;stroke-linejoin:miter;stroke-opacity:1" d="M 225.167,543.908 257.692,543.908 z" id="boundary" inkscape:connector-curvature="0" />
	<path style="fill:none;stroke:red;stroke-width:1px;stroke-linecap:butt;stroke-linejoin:miter;stroke-opacity:1" d="M 231.672,745.561 264.197,745.561 z" id="boundary" inkscape:connector-curvature="0" />
	<path style="fill:none;stroke:red;stroke-width:1px;stroke-linecap:butt;stroke-linejoin:miter;stroke-opacity:1" d="M 238.177,677.259 270.702,677.259 z" id="boundary" inkscape:connector-curvature="0" />
	<path style="fill:none;stroke:red;stroke-width:1px;stroke-linecap:butt;stroke-linejoin:miter;stroke-opacity:1" d="M 241.43,573.18 273.954,573.18 z" id="boundary" inkscape:connector-curvature="0" />
	<path style="fill:none;stroke:red;stroke-width:1px;stroke-linecap:butt;stroke-linejoin:miter;stroke-opacity:1" d="M 247.934,813.862 280.459,813.862 z" id="boundary" inkscape:connector-curvature="0" />
	<path style="fill:none;stroke:red;stroke-width:1px;stroke-linecap:butt;stroke-linejoin:miter;stroke-opacity:1" d="M 251.187,4 283.711,4 z" id="boundary" inkscape:connector-curvature="0" />
	<path style="fill:none;stroke:red;stroke-width:1px;stroke-linecap:butt;stroke-linejoin:miter;stroke-opacity:1" d="M 254.439,436.577 286.964,436.577 z" id="boundary" inkscape:connector-curvature="0" />
	<path style="fill:none;stroke:red;stroke-width:1px;stroke-linecap:butt;stroke-linejoin:miter;stroke-opacity:1" d="M 254.439,647.987 286.964,647.987 z" id="boundary" inkscape:connector-curvature="0" />
	<path style="fill:none;stroke:red;stroke-width:1px;stroke-linecap:butt;stroke-linejoin:miter;stroke-opacity:1" d="M 257.692,543.908 290.216,543.908 z" id="boundary" inkscape:connector-curvature="0" />
	<path style="fill:none;stroke:red;stroke-width:1px;stroke-linecap:butt;stroke-linejoin:miter;stroke-opacity:1" d="M 264.197,745.561 296.721,745.561 z" id="boundary" inkscape:connector-curvature="0" />
	<path style="fill:none;stroke:red;stroke-width:1px;stroke-linecap:butt;stroke-linejoin:miter;stroke-opacity:1" d="M 270.702,677.259 303.226,677.259 z" id="boundary" inkscape:connector-curvature="0" />
	<path style="fill:none;stroke:red;stroke-width:1px;stroke-linecap:butt;stroke-linejoin:miter;stroke-opacity:1" d="M 273.954,573.18 306.479,573.18 z" id="boundary" inkscape:connector-curvature="0" />
	<path style="fill:none;stroke:red;stroke-width:1px;stroke-linecap:butt;stroke-linejoin:miter;stroke-opacity:1" d="M 280.459,813.862 312.984,813.862 z" id="boundary" inkscape:connector-curvature="0" />
	<path style="fill:none;stroke:red;stroke-width:1px;stroke-linecap:butt;stroke-linejoin:miter;stroke-opacity:1" d="M 283.711,4 316.236,4 z" id="boundary" inkscape:connector-curvature="0" />
	<path style="fill:none;stroke:red;stroke-width:1px;stroke-linecap:butt;stroke-linejoin:miter;stroke-opacity:1" d="M 286.964,436.577 319.489,436.577 z" id="boundary" inkscape:connector-curvature="0" />
	<path style="fill:none;stroke:red;stroke-width:1px;stroke-linecap:butt;stroke-linejoin:miter;stroke-opacity:1" d="M 286.964,647.987 319.489,647.987 z" id="boundary" inkscape:connector-curvature="0" />
	<path style="fill:none;stroke:red;stroke-width:1px;stroke-linecap:butt;stroke-linejoin:miter;stroke-opacity:1" d="M 290.216,543.908 322.741,543.908 z" id="boundary" inkscape:connector-curvature="0" />
	<path style="fill:none;stroke:red;stroke-width:1px;stroke-linecap:butt;stroke-linejoin:miter;stroke-opacity:1" d="M 296.721,745.561 329.246,745.561 z" id="boundary" inkscape:connector-curvature="0" />
	<path style="fill:none;stroke:red;stroke-width:1px;stroke-linecap:butt;stroke-linejoin:miter;stroke-opacity:1" d="M 303.226,677.259 335.751,677.259 z" id="boundary" inkscape:connector-curvature="0" />
	<path style="fill:none;stroke:red;stroke-width:1px;stroke-linecap:butt;stroke-linejoin:miter;stroke-opacity:1" d="M 306.479,573.18 339.003,573.18 z" id="boundary" inkscape:connector-curvature="0" />
	<path style="fill:none;stroke:red;stroke-width:1px;stroke-linecap:butt;stroke-linejoin:miter;stroke-opacity:1" d="M 312.984,813.862 345.508,813.862 z" id="boundary" inkscape:connector-curvature="0" />
	<path style="fill:none;stroke:red;stroke-width:1px;stroke-linecap:butt;stroke-linejoin:miter;stroke-opacity:1" d="M 316.236,4 348.761,4 z" id="boundary" inkscape:connector-curvature="0" />
	<path style="fill:none;stroke:red;stroke-width:1px;stroke-linecap:butt;stroke-linejoin:miter;stroke-opacity:1" d="M 319.489,436.577 352.013,436.577 z" id="boundary" inkscape:connector-curvature="0" />
	<path style="fill:none;stroke:red;stroke-width:1px;stroke-linecap:butt;stroke-linejoin:miter;stroke-opacity:1" d="M 319.489,647.987 352.013,647.987 z" id="boundary" inkscape:connector-curvature="0" />
	<path style="fill:none;stroke:red;stroke-width:1px;stroke-linecap:butt;stroke-linejoin:miter;stroke-opacity:1" d="M 322.741,543.908 355.266,543.908 z" id="boundary" inkscape:connector-curvature="0" />
	<path style="fill:none;stroke:red;stroke-width:1px;stroke-linecap:butt;stroke-linejoin:miter;stroke-opacity:1" d="M 329.246,745.561 361.77,745.561 z" id="boundary" inkscape:connector-curvature="0" />
	<path style="fill:none;stroke:red;stroke-width:1px;stroke-linecap:butt;stroke-linejoin:miter;stroke-opacity:1" d="M 335.751,677.259 368.275,677.259 z" id="boundary" inkscape:connector-curvature="0" />
	<path style="fill:none;stroke:red;stroke-width:1px;stroke-linecap:butt;stroke-linejoin:miter;stroke-opacity:1" d="M 339.003,573.18 371.528,573.18 z" id="boundary" inkscape:connector-curvature="0" />
	<path style="fill:none;stroke:red;stroke-width:1px;stroke-linecap:butt;stroke-linejoin:miter;stroke-opacity:1" d="M 345.508,813.862 378.033,813.862 z" id="boundary" inkscape:connector-curvature="0" />
	<path style="fill:none;stroke:red;stroke-width:1px;stroke-linecap:butt;stroke-linejoin:miter;stroke-opacity:1" d="M 348.761,4 381.285,4 z" id="boundary" inkscape:connector-curvature="0" />
	<path style="fill:none;stroke:red;stroke-width:1px;stroke-linecap:butt;stroke-linejoin:miter;stroke-opacity:1" d="M 352.013,436.577 384.538,436.577 z" id="boundary" inkscape:connector-curvature="0" />
	<path style="fill:none;stroke:red;stroke-width:1px;stroke-linecap:butt;stroke-linejoin:miter;stroke-opacity:1" d="M 352.013,647.987 384.538,647.987 z" id="boundary" inkscape:connector-curvature="0" />
	<path style="fill:none;stroke:red;stroke-width:1px;stroke-linecap:butt;stroke-linejoin:miter;stroke-opacity:1" d="M 355.266,543.908 387.79,543.908 z" id="boundary" inkscape:connector-curvature="0" />
	<path style="fill:none;stroke:red;stroke-width:1px;stroke-linecap:butt;stroke-linejoin:miter;stroke-opacity:1" d="M 361.77,745.561 394.295,745.561 z" id="boundary" inkscape:connector-curvature="0" />
	<path style="fill:none;stroke:red;stroke-width:1px;stroke-linecap:butt;stroke-linejoin:miter;stroke-opacity:1" d="M 368.275,677.259 400.8,677.259 z" id="boundary" inkscape:connector-curvature="0" />
	<path style="fill:none;stroke:red;stroke-width:1px;stroke-linecap:butt;stroke-linejoin:miter;stroke-opacity:1" d="M 371.528,573.18 404.052,573.18 z" id="boundary" inkscape:connector-curvature="0" />
	<path style="fill:none;stroke:red;stroke-width:1px;stroke-linecap:butt;stroke-linejoin:miter;stroke-opacity:1" d="M 378.033,813.862 410.557,813.862 z" id="boundary" inkscape:connector-curvature="0" />
	<path style="fill:none;stroke:red;stroke-width:1px;stroke-linecap:butt;stroke-linejoin:miter;stroke-opacity:1" d="M 381.285,4 413.81,4 z" id="boundary" inkscape:connector-curvature="0" />
	<path style="fill:none;stroke:red;stroke-width:1px;stroke-linecap:butt;stroke-linejoin:miter;stroke-opacity:1" d="M 384.538,436.577 417.062,436.577 z" id="boundary" inkscape:connector-curvature="0" />
	<path style="fill:none;stroke:red;stroke-width:1px;stroke-linecap:butt;stroke-linejoin:miter;stroke-opacity:1" d="M 384.538,647.987 417.062,644.734 z" id="boundary" inkscape:connector-curvature="0" />
	<path style="fill:none;stroke:red;stroke-width:1px;stroke-linecap:butt;stroke-linejoin:miter;stroke-opacity:1" d="M 387.79,543.908 420.315,534.151 z" id="boundary" inkscape:connector-curvature="0" />
	<path style="fill:none;stroke:red;stroke-width:1px;stroke-linecap:butt;stroke-linejoin:miter;stroke-opacity:1" d="M 394.295,745.561 420.315,703.279 z" id="boundary" inkscape:connector-curvature="0" />
	<path style="fill:none;stroke:red;stroke-width:1px;stroke-linecap:butt;stroke-linejoin:miter;stroke-opacity:1" d="M 400.8,677.259 420.315,703.279 z" id="boundary" inkscape:connector-curvature="0" />
	<path style="fill:none;stroke:red;stroke-width:1px;stroke-linecap:butt;stroke-linejoin:miter;stroke-opacity:1" d="M 404.052,573.18 420.315,602.452 z" id="boundary" inkscape:connector-curvature="0" />
	<path style="fill:none;stroke:red;stroke-width:1px;stroke-linecap:butt;stroke-linejoin:miter;stroke-opacity:1" d="M 410.557,813.862 443.082,813.862 z" id="boundary" inkscape:connector-curvature="0" />
	<path style="fill:none;stroke:red;stroke-width:1px;stroke-linecap:butt;stroke-linejoin:miter;stroke-opacity:1" d="M 413.81,4 446.334,4 z" id="boundary" inkscape:connector-curvature="0" />
	<path style="fill:none;stroke:red;stroke-width:1px;stroke-linecap:butt;stroke-linejoin:miter;stroke-opacity:1" d="M 417.062,436.577 420.315,469.102 z" id="boundary" inkscape:connector-curvature="0" />
	<path style="fill:none;stroke:red;stroke-width:1px;stroke-linecap:butt;stroke-linejoin:miter;stroke-opacity:1" d="M 417.062,644.734 420.315,602.452 z" id="boundary" inkscape:connector-curvature="0" />
	<path style="fill:none;stroke:red;stroke-width:1px;stroke-linecap:butt;stroke-linejoin:miter;stroke-opacity:1" d="M 420.315,469.102 420.315,501.626 z" id="boundary" inkscape:connector-curvature="0" />
	<path style="fill:none;stroke:red;stroke-width:1px;stroke-linecap:butt;stroke-linejoin:miter;stroke-opacity:1" d="M 420.315,501.626 420.315,534.151 z" id="boundary" inkscape:connector-curvature="0" />
	<path style="fill:none;stroke:red;stroke-width:1px;stroke-linecap:butt;stroke-linejoin:miter;stroke-opacity:1" d="M 443.082,813.862 475.607,813.862 z" id="boundary" inkscape:connector-curvature="0" />
	<path style="fill:none;stroke:red;stroke-width:1px;stroke-linecap:butt;stroke-linejoin:miter;stroke-opacity:1" d="M 446.334,4 478.859,4 z" id="boundary" inkscape:connector-curvature="0" />
	<path style="fill:none;stroke:red;stroke-width:1px;stroke-linecap:butt;stroke-linejoin:miter;stroke-opacity:1" d="M 475.607,813.862 508.131,813.862 z" id="boundary" inkscape:connector-curvature="0" />
	<path style="fill:none;stroke:red;stroke-width:1px;stroke-linecap:butt;stroke-linejoin:miter;stroke-opacity:1" d="M 478.859,4 511.384,4 z" id="boundary" inkscape:connector-curvature="0" />
	<path style="fill:none;stroke:red;stroke-width:1px;stroke-linecap:butt;stroke-linejoin:miter;stroke-opacity:1" d="M 508.131,813.862 540.656,813.862 z" id="boundary" inkscape:connector-curvature="0" />
	<path style="fill:none;stroke:red;stroke-width:1px;stroke-linecap:butt;stroke-linejoin:miter;stroke-opacity:1" d="M 511.384,4 543.908,4 z" id="boundary" inkscape:connector-curvature="0" />
	<path style="fill:none;stroke:red;stroke-width:1px;stroke-linecap:butt;stroke-linejoin:miter;stroke-opacity:1" d="M 540.656,813.862 573.18,813.862 z" id="boundary" inkscape:connector-curvature="0" />
	<path style="fill:none;stroke:red;stroke-width:1px;stroke-linecap:butt;stroke-linejoin:miter;stroke-opacity:1" d="M 543.908,4 576.433,4 z" id="boundary" inkscape:connector-curvature="0" />
	<path style="fill:none;stroke:red;stroke-width:1px;stroke-linecap:butt;stroke-linejoin:miter;stroke-opacity:1" d="M 573.18,813.862 605.705,813.862 z" id="boundary" inkscape:connector-curvature="0" />
	<path style="fill:none;stroke:red;stroke-width:1px;stroke-linecap:butt;stroke-linejoin:miter;stroke-opacity:1" d="M 576.433,4 608.957,4 z" id="boundary" inkscape:connector-curvature="0" />
	<path style="fill:none;stroke:red;stroke-width:1px;stroke-linecap:butt;stroke-linejoin:miter;stroke-opacity:1" d="M 605.705,813.862 638.23,813.862 z" id="boundary" inkscape:connector-curvature="0" />
	<path style="fill:none;stroke:red;stroke-width:1px;stroke-linecap:butt;stroke-linejoin:miter;stroke-opacity:1" d="M 608.957,4 641.482,4 z" id="boundary" inkscape:connector-curvature="0" />
	<path style="fill:none;stroke:red;stroke-width:1px;stroke-linecap:butt;stroke-linejoin:miter;stroke-opacity:1" d="M 618.715,439.83 618.715,472.354 z" id="boundary" inkscape:connector-curvature="0" />
	<path style="fill:none;stroke:red;stroke-width:1px;stroke-linecap:butt;stroke-linejoin:miter;stroke-opacity:1" d="M 618.715,439.83 651.239,436.577 z" id="boundary" inkscape:connector-curvature="0" />
	<path style="fill:none;stroke:red;stroke-width:1px;stroke-linecap:butt;stroke-linejoin:miter;stroke-opacity:1" d="M 618.715,472.354 618.715,504.879 z" id="boundary" inkscape:connector-curvature="0" />
	<path style="fill:none;stroke:red;stroke-width:1px;stroke-linecap:butt;stroke-linejoin:miter;stroke-opacity:1" d="M 618.715,504.879 618.715,537.403 z" id="boundary" inkscape:connector-curvature="0" />
	<path style="fill:none;stroke:red;stroke-width:1px;stroke-linecap:butt;stroke-linejoin:miter;stroke-opacity:1" d="M 618.715,537.403 651.239,543.908 z" id="boundary" inkscape:connector-curvature="0" />
	<path style="fill:none;stroke:red;stroke-width:1px;stroke-linecap:butt;stroke-linejoin:miter;stroke-opacity:1" d="M 618.715,576.433 618.715,608.957 z" id="boundary" inkscape:connector-curvature="0" />
	<path style="fill:none;stroke:red;stroke-width:1px;stroke-linecap:butt;stroke-linejoin:miter;stroke-opacity:1" d="M 618.715,576.433 667.502,573.18 z" id="boundary" inkscape:connector-curvature="0" />
	<path style="fill:none;stroke:red;stroke-width:1px;stroke-linecap:butt;stroke-linejoin:miter;stroke-opacity:1" d="M 618.715,608.957 618.715,641.482 z" id="boundary" inkscape:connector-curvature="0" />
	<path style="fill:none;stroke:red;stroke-width:1px;stroke-linecap:butt;stroke-linejoin:miter;stroke-opacity:1" d="M 618.715,641.482 651.239,647.987 z" id="boundary" inkscape:connector-curvature="0" />
	<path style="fill:none;stroke:red;stroke-width:1px;stroke-linecap:butt;stroke-linejoin:miter;stroke-opacity:1" d="M 618.715,680.511 618.715,713.036 z" id="boundary" inkscape:connector-curvature="0" />
	<path style="fill:none;stroke:red;stroke-width:1px;stroke-linecap:butt;stroke-linejoin:miter;stroke-opacity:1" d="M 618.715,680.511 667.502,677.259 z" id="boundary" inkscape:connector-curvature="0" />
	<path style="fill:none;stroke:red;stroke-width:1px;stroke-linecap:butt;stroke-linejoin:miter;stroke-opacity:1" d="M 618.715,713.036 621.967,745.561 z" id="boundary" inkscape:connector-curvature="0" />
	<path style="fill:none;stroke:red;stroke-width:1px;stroke-linecap:butt;stroke-linejoin:miter;stroke-opacity:1" d="M 621.967,745.561 654.492,745.561 z" id="boundary" inkscape:connector-curvature="0" />
	<path style="fill:none;stroke:red;stroke-width:1px;stroke-linecap:butt;stroke-linejoin:miter;stroke-opacity:1" d="M 638.23,813.862 670.754,813.862 z" id="boundary" inkscape:connector-curvature="0" />
	<path style="fill:none;stroke:red;stroke-width:1px;stroke-linecap:butt;stroke-linejoin:miter;stroke-opacity:1" d="M 641.482,4 674.007,4 z" id="boundary" inkscape:connector-curvature="0" />
	<path style="fill:none;stroke:red;stroke-width:1px;stroke-linecap:butt;stroke-linejoin:miter;stroke-opacity:1" d="M 651.239,436.577 683.764,436.577 z" id="boundary" inkscape:connector-curvature="0" />
	<path style="fill:none;stroke:red;stroke-width:1px;stroke-linecap:butt;stroke-linejoin:miter;stroke-opacity:1" d="M 651.239,543.908 683.764,543.908 z" id="boundary" inkscape:connector-curvature="0" />
	<path style="fill:none;stroke:red;stroke-width:1px;stroke-linecap:butt;stroke-linejoin:miter;stroke-opacity:1" d="M 651.239,647.987 683.764,647.987 z" id="boundary" inkscape:connector-curvature="0" />
	<path style="fill:none;stroke:red;stroke-width:1px;stroke-linecap:butt;stroke-linejoin:miter;stroke-opacity:1" d="M 654.492,745.561 687.016,745.561 z" id="boundary" inkscape:connector-curvature="0" />
	<path style="fill:none;stroke:red;stroke-width:1px;stroke-linecap:butt;stroke-linejoin:miter;stroke-opacity:1" d="M 667.502,573.18 700.026,573.18 z" id="boundary" inkscape:connector-curvature="0" />
	<path style="fill:none;stroke:red;stroke-width:1px;stroke-linecap:butt;stroke-linejoin:miter;stroke-opacity:1" d="M 667.502,677.259 700.026,677.259 z" id="boundary" inkscape:connector-curvature="0" />
	<path style="fill:none;stroke:red;stroke-width:1px;stroke-linecap:butt;stroke-linejoin:miter;stroke-opacity:1" d="M 670.754,813.862 703.279,813.862 z" id="boundary" inkscape:connector-curvature="0" />
	<path style="fill:none;stroke:red;stroke-width:1px;stroke-linecap:butt;stroke-linejoin:miter;stroke-opacity:1" d="M 674.007,4 706.531,4 z" id="boundary" inkscape:connector-curvature="0" />
	<path style="fill:none;stroke:red;stroke-width:1px;stroke-linecap:butt;stroke-linejoin:miter;stroke-opacity:1" d="M 683.764,436.577 716.289,436.577 z" id="boundary" inkscape:connector-curvature="0" />
	<path style="fill:none;stroke:red;stroke-width:1px;stroke-linecap:butt;stroke-linejoin:miter;stroke-opacity:1" d="M 683.764,543.908 716.289,543.908 z" id="boundary" inkscape:connector-curvature="0" />
	<path style="fill:none;stroke:red;stroke-width:1px;stroke-linecap:butt;stroke-linejoin:miter;stroke-opacity:1" d="M 683.764,647.987 716.289,647.987 z" id="boundary" inkscape:connector-curvature="0" />
	<path style="fill:none;stroke:red;stroke-width:1px;stroke-linecap:butt;stroke-linejoin:miter;stroke-opacity:1" d="M 687.016,745.561 719.541,745.561 z" id="boundary" inkscape:connector-curvature="0" />
	<path style="fill:none;stroke:red;stroke-width:1px;stroke-linecap:butt;stroke-linejoin:miter;stroke-opacity:1" d="M 700.026,573.18 732.551,573.18 z" id="boundary" inkscape:connector-curvature="0" />
	<path style="fill:none;stroke:red;stroke-width:1px;stroke-linecap:butt;stroke-linejoin:miter;stroke-opacity:1" d="M 700.026,677.259 732.551,677.259 z" id="boundary" inkscape:connector-curvature="0" />
	<path style="fill:none;stroke:red;stroke-width:1px;stroke-linecap:butt;stroke-linejoin:miter;stroke-opacity:1" d="M 703.279,813.862 735.803,813.862 z" id="boundary" inkscape:connector-curvature="0" />
	<path style="fill:none;stroke:red;stroke-width:1px;stroke-linecap:butt;stroke-linejoin:miter;stroke-opacity:1" d="M 706.531,4 739.056,4 z" id="boundary" inkscape:connector-curvature="0" />
	<path style="fill:none;stroke:red;stroke-width:1px;stroke-linecap:butt;stroke-linejoin:miter;stroke-opacity:1" d="M 716.289,436.577 748.813,436.577 z" id="boundary" inkscape:connector-curvature="0" />
	<path style="fill:none;stroke:red;stroke-width:1px;stroke-linecap:butt;stroke-linejoin:miter;stroke-opacity:1" d="M 716.289,543.908 748.813,543.908 z" id="boundary" inkscape:connector-curvature="0" />
	<path style="fill:none;stroke:red;stroke-width:1px;stroke-linecap:butt;stroke-linejoin:miter;stroke-opacity:1" d="M 716.289,647.987 748.813,647.987 z" id="boundary" inkscape:connector-curvature="0" />
	<path style="fill:none;stroke:red;stroke-width:1px;stroke-linecap:butt;stroke-linejoin:miter;stroke-opacity:1" d="M 719.541,745.561 752.066,745.561 z" id="boundary" inkscape:connector-curvature="0" />
	<path style="fill:none;stroke:red;stroke-width:1px;stroke-linecap:butt;stroke-linejoin:miter;stroke-opacity:1" d="M 732.551,573.18 765.075,573.18 z" id="boundary" inkscape:connector-curvature="0" />
	<path style="fill:none;stroke:red;stroke-width:1px;stroke-linecap:butt;stroke-linejoin:miter;stroke-opacity:1" d="M 732.551,677.259 765.075,677.259 z" id="boundary" inkscape:connector-curvature="0" />
	<path style="fill:none;stroke:red;stroke-width:1px;stroke-linecap:butt;stroke-linejoin:miter;stroke-opacity:1" d="M 735.803,813.862 768.328,813.862 z" id="boundary" inkscape:connector-curvature="0" />
	<path style="fill:none;stroke:red;stroke-width:1px;stroke-linecap:butt;stroke-linejoin:miter;stroke-opacity:1" d="M 739.056,4 771.58,4 z" id="boundary" inkscape:connector-curvature="0" />
	<path style="fill:none;stroke:red;stroke-width:1px;stroke-linecap:butt;stroke-linejoin:miter;stroke-opacity:1" d="M 748.813,436.577 781.338,436.577 z" id="boundary" inkscape:connector-curvature="0" />
	<path style="fill:none;stroke:red;stroke-width:1px;stroke-linecap:butt;stroke-linejoin:miter;stroke-opacity:1" d="M 748.813,543.908 781.338,543.908 z" id="boundary" inkscape:connector-curvature="0" />
	<path style="fill:none;stroke:red;stroke-width:1px;stroke-linecap:butt;stroke-linejoin:miter;stroke-opacity:1" d="M 748.813,647.987 781.338,647.987 z" id="boundary" inkscape:connector-curvature="0" />
	<path style="fill:none;stroke:red;stroke-width:1px;stroke-linecap:butt;stroke-linejoin:miter;stroke-opacity:1" d="M 752.066,745.561 784.59,745.561 z" id="boundary" inkscape:connector-curvature="0" />
	<path style="fill:none;stroke:red;stroke-width:1px;stroke-linecap:butt;stroke-linejoin:miter;stroke-opacity:1" d="M 765.075,573.18 797.6,573.18 z" id="boundary" inkscape:connector-curvature="0" />
	<path style="fill:none;stroke:red;stroke-width:1px;stroke-linecap:butt;stroke-linejoin:miter;stroke-opacity:1" d="M 765.075,677.259 797.6,677.259 z" id="boundary" inkscape:connector-curvature="0" />
	<path style="fill:none;stroke:red;stroke-width:1px;stroke-linecap:butt;stroke-linejoin:miter;stroke-opacity:1" d="M 768.328,813.862 800.852,813.862 z" id="boundary" inkscape:connector-curvature="0" />
	<path style="fill:none;stroke:red;stroke-width:1px;stroke-linecap:butt;stroke-linejoin:miter;stroke-opacity:1" d="M 771.58,4 804.105,4 z" id="boundary" inkscape:connector-curvature="0" />
	<path style="fill:none;stroke:red;stroke-width:1px;stroke-linecap:butt;stroke-linejoin:miter;stroke-opacity:1" d="M 781.338,436.577 813.862,436.577 z" id="boundary" inkscape:connector-curvature="0" />
	<path style="fill:none;stroke:red;stroke-width:1px;stroke-linecap:butt;stroke-linejoin:miter;stroke-opacity:1" d="M 781.338,543.908 813.862,543.908 z" id="boundary" inkscape:connector-curvature="0" />
	<path style="fill:none;stroke:red;stroke-width:1px;stroke-linecap:butt;stroke-linejoin:miter;stroke-opacity:1" d="M 781.338,647.987 813.862,647.987 z" id="boundary" inkscape:connector-curvature="0" />
	<path style="fill:none;stroke:red;stroke-width:1px;stroke-linecap:butt;stroke-linejoin:miter;stroke-opacity:1" d="M 784.59,745.561 817.115,745.561 z" id="boundary" inkscape:connector-curvature="0" />
	<path style="fill:none;stroke:red;stroke-width:1px;stroke-linecap:butt;stroke-linejoin:miter;stroke-opacity:1" d="M 797.6,573.18 830.125,573.18 z" id="boundary" inkscape:connector-curvature="0" />
	<path style="fill:none;stroke:red;stroke-width:1px;stroke-linecap:butt;stroke-linejoin:miter;stroke-opacity:1" d="M 797.6,677.259 830.125,677.259 z" id="boundary" inkscape:connector-curvature="0" />
	<path style="fill:none;stroke:red;stroke-width:1px;stroke-linecap:butt;stroke-linejoin:miter;stroke-opacity:1" d="M 800.852,813.862 833.377,813.862 z" id="boundary" inkscape:connector-curvature="0" />
	<path style="fill:none;stroke:red;stroke-width:1px;stroke-linecap:butt;stroke-linejoin:miter;stroke-opacity:1" d="M 804.105,4 836.63,4 z" id="boundary" inkscape:connector-curvature="0" />
	<path style="fill:none;stroke:red;stroke-width:1px;stroke-linecap:butt;stroke-linejoin:miter;stroke-opacity:1" d="M 813.862,436.577 846.387,436.577 z" id="boundary" inkscape:connector-curvature="0" />
	<path style="fill:none;stroke:red;stroke-width:1px;stroke-linecap:butt;stroke-linejoin:miter;stroke-opacity:1" d="M 813.862,543.908 846.387,543.908 z" id="boundary" inkscape:connector-curvature="0" />
	<path style="fill:none;stroke:red;stroke-width:1px;stroke-linecap:butt;stroke-linejoin:miter;stroke-opacity:1" d="M 813.862,647.987 846.387,647.987 z" id="boundary" inkscape:connector-curvature="0" />
	<path style="fill:none;stroke:red;stroke-width:1px;stroke-linecap:butt;stroke-linejoin:miter;stroke-opacity:1" d="M 817.115,745.561 849.639,745.561 z" id="boundary" inkscape:connector-curvature="0" />
	<path style="fill:none;stroke:red;stroke-width:1px;stroke-linecap:butt;stroke-linejoin:miter;stroke-opacity:1" d="M 830.125,573.18 862.649,573.18 z" id="boundary" inkscape:connector-curvature="0" />
	<path style="fill:none;stroke:red;stroke-width:1px;stroke-linecap:butt;stroke-linejoin:miter;stroke-opacity:1" d="M 830.125,677.259 862.649,677.259 z" id="boundary" inkscape:connector-curvature="0" />
	<path style="fill:none;stroke:red;stroke-width:1px;stroke-linecap:butt;stroke-linejoin:miter;stroke-opacity:1" d="M 833.377,813.862 865.902,813.862 z" id="boundary" inkscape:connector-curvature="0" />
	<path style="fill:none;stroke:red;stroke-width:1px;stroke-linecap:butt;stroke-linejoin:miter;stroke-opacity:1" d="M 836.63,4 869.154,7.25246 z" id="boundary" inkscape:connector-curvature="0" />
	<path style="fill:none;stroke:red;stroke-width:1px;stroke-linecap:butt;stroke-linejoin:miter;stroke-opacity:1" d="M 846.387,436.577 878.911,430.072 z" id="boundary" inkscape:connector-curvature="0" />
	<path style="fill:none;stroke:red;stroke-width:1px;stroke-linecap:butt;stroke-linejoin:miter;stroke-opacity:1" d="M 846.387,543.908 878.911,543.908 z" id="boundary" inkscape:connector-curvature="0" />
	<path style="fill:none;stroke:red;stroke-width:1px;stroke-linecap:butt;stroke-linejoin:miter;stroke-opacity:1" d="M 846.387,647.987 878.911,647.987 z" id="boundary" inkscape:connector-curvature="0" />
	<path style="fill:none;stroke:red;stroke-width:1px;stroke-linecap:butt;stroke-linejoin:miter;stroke-opacity:1" d="M 849.639,745.561 882.164,745.561 z" id="boundary" inkscape:connector-curvature="0" />
	<path style="fill:none;stroke:red;stroke-width:1px;stroke-linecap:butt;stroke-linejoin:miter;stroke-opacity:1" d="M 862.649,573.18 895.174,573.18 z" id="boundary" inkscape:connector-curvature="0" />
	<path style="fill:none;stroke:red;stroke-width:1px;stroke-linecap:butt;stroke-linejoin:miter;stroke-opacity:1" d="M 862.649,677.259 895.174,677.259 z" id="boundary" inkscape:connector-curvature="0" />
	<path style="fill:none;stroke:red;stroke-width:1px;stroke-linecap:butt;stroke-linejoin:miter;stroke-opacity:1" d="M 865.902,813.862 898.426,826.872 z" id="boundary" inkscape:connector-curvature="0" />
	<path style="fill:none;stroke:red;stroke-width:1px;stroke-linecap:butt;stroke-linejoin:miter;stroke-opacity:1" d="M 869.154,7.25246 878.911,39.777 z" id="boundary" inkscape:connector-curvature="0" />
	<path style="fill:none;stroke:red;stroke-width:1px;stroke-linecap:butt;stroke-linejoin:miter;stroke-opacity:1" d="M 878.911,39.777 878.911,72.3016 z" id="boundary" inkscape:connector-curvature="0" />
	<path style="fill:none;stroke:red;stroke-width:1px;stroke-linecap:butt;stroke-linejoin:miter;stroke-opacity:1" d="M 878.911,72.3016 878.911,104.826 z" id="boundary" inkscape:connector-curvature="0" />
	<path style="fill:none;stroke:red;stroke-width:1px;stroke-linecap:butt;stroke-linejoin:miter;stroke-opacity:1" d="M 878.911,104.826 878.911,137.351 z" id="boundary" inkscape:connector-curvature="0" />
	<path style="fill:none;stroke:red;stroke-width:1px;stroke-linecap:butt;stroke-linejoin:miter;stroke-opacity:1" d="M 878.911,137.351 878.911,169.875 z" id="boundary" inkscape:connector-curvature="0" />
	<path style="fill:none;stroke:red;stroke-width:1px;stroke-linecap:butt;stroke-linejoin:miter;stroke-opacity:1" d="M 878.911,169.875 878.911,202.4 z" id="boundary" inkscape:connector-curvature="0" />
	<path style="fill:none;stroke:red;stroke-width:1px;stroke-linecap:butt;stroke-linejoin:miter;stroke-opacity:1" d="M 878.911,202.4 878.911,234.925 z" id="boundary" inkscape:connector-curvature="0" />
	<path style="fill:none;stroke:red;stroke-width:1px;stroke-linecap:butt;stroke-linejoin:miter;stroke-opacity:1" d="M 878.911,234.925 878.911,267.449 z" id="boundary" inkscape:connector-curvature="0" />
	<path style="fill:none;stroke:red;stroke-width:1px;stroke-linecap:butt;stroke-linejoin:miter;stroke-opacity:1" d="M 878.911,267.449 878.911,299.974 z" id="boundary" inkscape:connector-curvature="0" />
	<path style="fill:none;stroke:red;stroke-width:1px;stroke-linecap:butt;stroke-linejoin:miter;stroke-opacity:1" d="M 878.911,299.974 878.911,332.498 z" id="boundary" inkscape:connector-curvature="0" />
	<path style="fill:none;stroke:red;stroke-width:1px;stroke-linecap:butt;stroke-linejoin:miter;stroke-opacity:1" d="M 878.911,332.498 878.911,365.023 z" id="boundary" inkscape:connector-curvature="0" />
	<path style="fill:none;stroke:red;stroke-width:1px;stroke-linecap:butt;stroke-linejoin:miter;stroke-opacity:1" d="M 878.911,365.023 878.911,397.548 z" id="boundary" inkscape:connector-curvature="0" />
	<path style="fill:none;stroke:red;stroke-width:1px;stroke-linecap:butt;stroke-linejoin:miter;stroke-opacity:1" d="M 878.911,397.548 878.911,430.072 z" id="boundary" inkscape:connector-curvature="0" />
	<path style="fill:none;stroke:red;stroke-width:1px;stroke-linecap:butt;stroke-linejoin:miter;stroke-opacity:1" d="M 878.911,543.908 911.436,543.908 z" id="boundary" inkscape:connector-curvature="0" />
	<path style="fill:none;stroke:red;stroke-width:1px;stroke-linecap:butt;stroke-linejoin:miter;stroke-opacity:1" d="M 878.911,647.987 911.436,647.987 z" id="boundary" inkscape:connector-curvature="0" />
	<path style="fill:none;stroke:red;stroke-width:1px;stroke-linecap:butt;stroke-linejoin:miter;stroke-opacity:1" d="M 882.164,745.561 914.689,745.561 z" id="boundary" inkscape:connector-curvature="0" />
	<path style="fill:none;stroke:red;stroke-width:1px;stroke-linecap:butt;stroke-linejoin:miter;stroke-opacity:1" d="M 895.174,573.18 911.436,543.908 z" id="boundary" inkscape:connector-curvature="0" />
	<path style="fill:none;stroke:red;stroke-width:1px;stroke-linecap:butt;stroke-linejoin:miter;stroke-opacity:1" d="M 895.174,677.259 911.436,647.987 z" id="boundary" inkscape:connector-curvature="0" />
	<path style="fill:none;stroke:red;stroke-width:1px;stroke-linecap:butt;stroke-linejoin:miter;stroke-opacity:1" d="M 898.426,826.872 930.951,813.862 z" id="boundary" inkscape:connector-curvature="0" />
	<path style="fill:none;stroke:red;stroke-width:1px;stroke-linecap:butt;stroke-linejoin:miter;stroke-opacity:1" d="M 914.689,745.561 947.213,745.561 z" id="boundary" inkscape:connector-curvature="0" />
	<path style="fill:none;stroke:red;stroke-width:1px;stroke-linecap:butt;stroke-linejoin:miter;stroke-opacity:1" d="M 930.951,813.862 963.475,813.862 z" id="boundary" inkscape:connector-curvature="0" />
	<path style="fill:none;stroke:red;stroke-width:1px;stroke-linecap:butt;stroke-linejoin:miter;stroke-opacity:1" d="M 947.213,745.561 979.738,745.561 z" id="boundary" inkscape:connector-curvature="0" />
	<path style="fill:none;stroke:red;stroke-width:1px;stroke-linecap:butt;stroke-linejoin:miter;stroke-opacity:1" d="M 963.475,813.862 996,807.357 z" id="boundary" inkscape:connector-curvature="0" />
	<path style="fill:none;stroke:red;stroke-width:1px;stroke-linecap:butt;stroke-linejoin:miter;stroke-opacity:1" d="M 979.738,745.561 996,774.833 z" id="boundary" inkscape:connector-curvature="0" />
	<path style="fill:none;stroke:red;stroke-width:1px;stroke-linecap:butt;stroke-linejoin:miter;stroke-opacity:1" d="M 996,774.833 996,807.357 z" id="boundary" inkscape:connector-curvature="0" />
	<circle cx="4" cy="752.066" r="4" fill="#0" id="circle0"/>
	<circle cx="4" cy="784.59" r="4" fill="#0" id="circle1"/>
	<circle cx="20.2623" cy="813.862" r="4" fill="#0" id="circle2"/>
	<circle cx="36.5246" cy="745.561" r="4" fill="#0" id="circle3"/>
	<circle cx="49.5344" cy="556.918" r="4" fill="#0" id="circle4"/>
	<circle cx="49.5344" cy="654.492" r="4" fill="#0" id="circle5"/>
	<circle cx="52.7869" cy="823.62" r="4" fill="#0" id="circle6"/>
	<circle cx="69.0492" cy="745.561" r="4" fill="#0" id="circle7"/>
	<circle cx="75.5541" cy="677.259" r="4" fill="#0" id="circle8"/>
	<circle cx="78.8066" cy="573.18" r="4" fill="#0" id="circle9"/>
	<circle cx="85.3115" cy="813.862" r="4" fill="#0" id="circle10"/>
	<circle cx="91.8164" cy="647.987" r="4" fill="#0" id="circle11"/>
	<circle cx="95.0689" cy="543.908" r="4" fill="#0" id="circle12"/>
	<circle cx="101.574" cy="745.561" r="4" fill="#0" id="circle13"/>
	<circle cx="108.079" cy="677.259" r="4" fill="#0" id="circle14"/>
	<circle cx="111.331" cy="573.18" r="4" fill="#0" id="circle15"/>
	<circle cx="117.836" cy="823.62" r="4" fill="#0" id="circle16"/>
	<circle cx="121.089" cy="10.5049" r="4" fill="#0" id="circle17"/>
	<circle cx="121.089" cy="43.0295" r="4" fill="#0" id="circle18"/>
	<circle cx="121.089" cy="75.5541" r="4" fill="#0" id="circle19"/>
	<circle cx="121.089" cy="108.079" r="4" fill="#0" id="circle20"/>
	<circle cx="121.089" cy="140.603" r="4" fill="#0" id="circle21"/>
	<circle cx="121.089" cy="173.128" r="4" fill="#0" id="circle22"/>
	<circle cx="121.089" cy="205.652" r="4" fill="#0" id="circle23"/>
	<circle cx="121.089" cy="238.177" r="4" fill="#0" id="circle24"/>
	<circle cx="121.089" cy="270.702" r="4" fill="#0" id="circle25"/>
	<circle cx="121.089" cy="303.226" r="4" fill="#0" id="circle26"/>
	<circle cx="121.089" cy="335.751" r="4" fill="#0" id="circle27"/>
	<circle cx="121.089" cy="368.275" r="4" fill="#0" id="circle28"/>
	<circle cx="121.089" cy="400.8" r="4" fill="#0" id="circle29"/>
	<circle cx="124.341" cy="433.325" r="4" fill="#0" id="circle30"/>
	<circle cx="124.341" cy="647.987" r="4" fill="#0" id="circle31"/>
	<circle cx="127.593" cy="543.908" r="4" fill="#0" id="circle32"/>
	<circle cx="134.098" cy="745.561" r="4" fill="#0" id="circle33"/>
	<circle cx="140.603" cy="677.259" r="4" fill="#0" id="circle34"/>
	<circle cx="143.856" cy="573.18" r="4" fill="#0" id="circle35"/>
	<circle cx="150.361" cy="813.862" r="4" fill="#0" id="circle36"/>
	<circle cx="153.613" cy="4" r="4" fill="#0" id="circle37"/>
	<circle cx="156.866" cy="436.577" r="4" fill="#0" id="circle38"/>
	<circle cx="156.866" cy="647.987" r="4" fill="#0" id="circle39"/>
	<circle cx="160.118" cy="543.908" r="4" fill="#0" id="circle40"/>
	<circle cx="166.623" cy="745.561" r="4" fill="#0" id="circle41"/>
	<circle cx="173.128" cy="677.259" r="4" fill="#0" id="circle42"/>
	<circle cx="176.38" cy="573.18" r="4" fill="#0" id="circle43"/>
	<circle cx="182.885" cy="813.862" r="4" fill="#0" id="circle44"/>
	<circle cx="186.138" cy="4" r="4" fill="#0" id="circle45"/>
	<circle cx="189.39" cy="436.577" r="4" fill="#0" id="circle46"/>
	<circle cx="189.39" cy="647.987" r="4" fill="#0" id="circle47"/>
	<circle cx="192.643" cy="543.908" r="4" fill="#0" id="circle48"/>
	<circle cx="199.148" cy="745.561" r="4" fill="#0" id="circle49"/>
	<circle cx="205.652" cy="677.259" r="4" fill="#0" id="circle50"/>
	<circle cx="208.905" cy="573.18" r="4" fill="#0" id="circle51"/>
	<circle cx="215.41" cy="813.862" r="4" fill="#0" id="circle52"/>
	<circle cx="218.662" cy="4" r="4" fill="#0" id="circle53"/>
	<circle cx="221.915" cy="436.577" r="4" fill="#0" id="circle54"/>
	<circle cx="221.915" cy="647.987" r="4" fill="#0" id="circle55"/>
	<circle cx="225.167" cy="543.908" r="4" fill="#0" id="circle56"/>
	<circle cx="231.672" cy="745.561" r="4" fill="#0" id="circle57"/>
	<circle cx="238.177" cy="677.259" r="4" fill="#0" id="circle58"/>
	<circle cx="241.43" cy="573.18" r="4" fill="#0" id="circle59"/>
	<circle cx="247.934" cy="813.862" r="4" fill="#0" id="circle60"/>
	<circle cx="251.187" cy="4" r="4" fill="#0" id="circle61"/>
	<circle cx="254.439" cy="436.577" r="4" fill="#0" id="circle62"/>
	<circle cx="254.439" cy="647.987" r="4" fill="#0" id="circle63"/>
	<circle cx="257.692" cy="543.908" r="4" fill="#0" id="circle64"/>
	<circle cx="264.197" cy="745.561" r="4" fill="#0" id="circle65"/>
	<circle cx="270.702" cy="677.259" r="4" fill="#0" id="circle66"/>
	<circle cx="273.954" cy="573.18" r="4" fill="#0" id="circle67"/>
	<circle cx="280.459" cy="813.862" r="4" fill="#0" id="circle68"/>
	<circle cx="283.711" cy="4" r="4" fill="#0" id="circle69"/>
	<circle cx="286.964" cy="436.577" r="4" fill="#0" id="circle70"/>
	<circle cx="286.964" cy="647.987" r="4" fill="#0" id="circle71"/>
	<circle cx="290.216" cy="543.908" r="4" fill="#0" id="circle72"/>
	<circle cx="296.721" cy="745.561" r="4" fill="#0" id="circle73"/>
	<circle cx="303.226" cy="677.259" r="4" fill="#0" id="circle74"/>
	<circle cx="306.479" cy="573.18" r="4" fill="#0" id="circle75"/>
	<circle cx="312.984" cy="813.862" r="4" fill="#0" id="circle76"/>
	<circle cx="316.236" cy="4" r="4" fill="#0" id="circle77"/>
	<circle cx="319.489" cy="436.577" r="4" fill="#0" id="circle78"/>
	<circle cx="319.489" cy="647.987" r="4" fill="#0" id="circle79"/>
	<circle cx="322.741" cy="543.908" r="4" fill="#0" id="circle80"/>
	<circle cx="329.246" cy="745.561" r="4" fill="#0" id="circle81"/>
	<circle cx="335.751" cy="677.259" r="4" fill="#0" id="circle82"/>
	<circle cx="339.003" cy="573.18" r="4" fill="#0" id="circle83"/>
	<circle cx="345.508" cy="813.862" r="4" fill="#0" id="circle84"/>
	<circle cx="348.761" cy="4" r="4" fill="#0" id="circle85"/>
	<circle cx="352.013" cy="436.577" r="4" fill="#0" id="circle86"/>
	<circle cx="352.013" cy="647.987" r="4" fill="#0" id="circle87"/>
	<circle cx="355.266" cy="543.908" r="4" fill="#0" id="circle88"/>
	<circle cx="361.77" cy="745.561" r="4" fill="#0" id="circle89"/>
	<circle cx="368.275" cy="677.259" r="4" fill="#0" id="circle90"/>
	<circle cx="371.528" cy="573.18" r="4" fill="#0" id="circle91"/>
	<circle cx="378.033" cy="813.862" r="4" fill="#0" id="circle92"/>
	<circle cx="381.285" cy="4" r="4" fill="#0" id="circle93"/>
	<circle cx="384.538" cy="436.577" r="4" fill="#0" id="circle94"/>
	<circle cx="384.538" cy="647.987" r="4" fill="#0" id="circle95"/>
	<circle cx="387.79" cy="543.908" r="4" fill="#0" id="circle96"/>
	<circle cx="394.295" cy="745.561" r="4" fill="#0" id="circle97"/>
	<circle cx="400.8" cy="677.259" r="4" fill="#0" id="circle98"/>
	<circle cx="404.052" cy="573.18" r="4" fill="#0" id="circle99"/>
	<circle cx="410.557" cy="813.862" r="4" fill="#0" id="circle100"/>
	<circle cx="413.81" cy="4" r="4" fill="#0" id="circle101"/>
	<circle cx="417.062" cy="436.577" r="4" fill="#0" id="circle102"/>
	<circle cx="417.062" cy="644.734" r="4" fill="#0" id="circle103"/>
	<circle cx="420.315" cy="469.102" r="4" fill="#0" id="circle104"/>
	<circle cx="420.315" cy="501.626" r="4" fill="#0" id="circle105"/>
	<circle cx="420.315" cy="534.151" r="4" fill="#0" id="circle106"/>
	<circle cx="420.315" cy="602.452" r="4" fill="#0" id="circle107"/>
	<circle cx="420.315" cy="703.279" r="4" fill="#0" id="circle108"/>
	<circle cx="443.082" cy="813.862" r="4" fill="#0" id="circle109"/>
	<circle cx="446.334" cy="4" r="4" fill="#0" id="circle110"/>
	<circle cx="475.607" cy="813.862" r="4" fill="#0" id="circle111"/>
	<circle cx="478.859" cy="4" r="4" fill="#0" id="circle112"/>
	<circle cx="508.131" cy="813.862" r="4" fill="#0" id="circle113"/>
	<circle cx="511.384" cy="4" r="4" fill="#0" id="circle114"/>
	<circle cx="540.656" cy="813.862" r="4" fill="#0" id="circle115"/>
	<circle cx="543.908" cy="4" r="4" fill="#0" id="circle116"/>
	<circle cx="573.18" cy="813.862" r="4" fill="#0" id="circle117"/>
	<circle cx="576.433" cy="4" r="4" fill="#0" id="circle118"/>
	<circle cx="605.705" cy="813.862" r="4" fill="#0" id="circle119"/>
	<circle cx="608.957" cy="4" r="4" fill="#0" id="circle120"/>
	<circle cx="618.715" cy="439.83" r="4" fill="#0" id="circle121"/>
	<circle cx="618.715" cy="472.354" r="4" fill="#0" id="circle122"/>
	<circle cx="618.715" cy="504.879" r="4" fill="#0" id="circle123"/>
	<circle cx="618.715" cy="537.403" r="4" fill="#0" id="circle124"/>
	<circle cx="618.715" cy="576.433" r="4" fill="#0" id="circle125"/>
	<circle cx="618.715" cy="608.957" r="4" fill="#0" id="circle126"/>
	<circle cx="618.715" cy="641.482" r="4" fill="#0" id="circle127"/>
	<circle cx="618.715" cy="680.511" r="4" fill="#0" id="circle128"/>
	<circle cx="618.715" cy="713.036" r="4" fill="#0" id="circle129"/>
	<circle cx="621.967" cy="745.561" r="4" fill="#0" id="circle130"/>
	<circle cx="638.23" cy="813.862" r="4" fill="#0" id="circle131"/>
	<circle cx="641.482" cy="4" r="4" fill="#0" id="circle132"/>
	<circle cx="651.239" cy="436.577" r="4" fill="#0" id="circle133"/>
	<circle cx="651.239" cy="543.908" r="4" fill="#0" id="circle134"/>
	<circle cx="651.239" cy="647.987" r="4" fill="#0" id="circle135"/>
	<circle cx="654.492" cy="745.561" r="4" fill="#0" id="circle136"/>
	<circle cx="667.502" cy="573.18" r="4" fill="#0" id="circle137"/>
	<circle cx="667.502" cy="677.259" r="4" fill="#0" id="circle138"/>
	<circle cx="670.754" cy="813.862" r="4" fill="#0" id="circle139"/>
	<circle cx="674.007" cy="4" r="4" fill="#0" id="circle140"/>
	<circle cx="683.764" cy="436.577" r="4" fill="#0" id="circle141"/>
	<circle cx="683.764" cy="543.908" r="4" fill="#0" id="circle142"/>
	<circle cx="683.764" cy="647.987" r="4" fill="#0" id="circle143"/>
	<circle cx="687.016" cy="745.561" r="4" fill="#0" id="circle144"/>
	<circle cx="700.026" cy="573.18" r="4" fill="#0" id="circle145"/>
	<circle cx="700.026" cy="677.259" r="4" fill="#0" id="circle146"/>
	<circle cx="703.279" cy="813.862" r="4" fill="#0" id="circle147"/>
	<circle cx="706.531" cy="4" r="4" fill="#0" id="circle148"/>
	<circle cx="716.289" cy="436.577" r="4" fill="#0" id="circle149"/>
	<circle cx="716.289" cy="543.908" r="4" fill="#0" id="circle150"/>
	<circle cx="716.289" cy="647.987" r="4" fill="#0" id="circle151"/>
	<circle cx="719.541" cy="745.561" r="4" fill="#0" id="circle152"/>
	<circle cx="732.551" cy="573.18" r="4" fill="#0" id="circle153"/>
	<circle cx="732.551" cy="677.259" r="4" fill="#0" id="circle154"/>
	<circle cx="735.803" cy="813.862" r="4" fill="#0" id="circle155"/>
	<circle cx="739.056" cy="4" r="4" fill="#0" id="circle156"/>
	<circle cx="748.813" cy="436.577" r="4" fill="#0" id="circle157"/>
	<circle cx="748.813" cy="543.908" r="4" fill="#0" id="circle158"/>
	<circle cx="748.813" cy="647.987" r="4" fill="#0" id="circle159"/>
	<circle cx="752.066" cy="745.561" r="4" fill="#0" id="circle160"/>
	<circle cx="765.075" cy="573.18" r="4" fill="#0" id="circle161"/>
	<circle cx="765.075" cy="677.259" r="4" fill="#0" id="circle162"/>
	<circle cx="768.328" cy="813.862" r="4" fill="#0" id="circle163"/>
	<circle cx="771.58" cy="4" r="4" fill="#0" id="circle164"/>
	<circle cx="781.338" cy="436.577" r="4" fill="#0" id="circle165"/>
	<circle cx="781.338" cy="543.908" r="4" fill="#0" id="circle166"/>
	<circle cx="781.338" cy="647.987" r="4" fill="#0" id="circle167"/>
	<circle cx="784.59" cy="745.561" r="4" fill="#0" id="circle168"/>
	<circle cx="797.6" cy="573.18" r="4" fill="#0" id="circle169"/>
	<circle cx="797.6" cy="677.259" r="4" fill="#0" id="circle170"/>
	<circle cx="800.852" cy="813.862" r="4" fill="#0" id="circle171"/>
	<circle cx="804.105" cy="4" r="4" fill="#0" id="circle172"/>
	<circle cx="813.862" cy="436.577" r="4" fill="#0" id="circle173"/>
	<circle cx="813.862" cy="543.908" r="4" fill="#0" id="circle174"/>
	<circle cx="813.862" cy="647.987" r="4" fill="#0" id="circle175"/>
	<circle cx="817.115" cy="745.561" r="4" fill="#0" id="circle176"/>
	<circle cx="830.125" cy="573.18" r="4" fill="#0" id="circle177"/>
	<circle cx="830.125" cy="677.259" r="4" fill="#0" id="circle178"/>
	<circle cx="833.377" cy="813.862" r="4" fill="#0" id="circle179"/>
	<circle cx="836.63" cy="4" r="4" fill="#0" id="circle180"/>
	<circle cx="846.387" cy="436.577" r="4" fill="#0" id="circle181"/>
	<circle cx="846.387" cy="543.908" r="4" fill="#0" id="circle182"/>
	<circle cx="846.387" cy="647.987" r="4" fill="#0" id="circle183"/>
	<circle cx="849.639" cy="745.561" r="4" fill="#0" id="circle184"/>
	<circle cx="862.649" cy="573.18" r="4" fill="#0" id="circle185"/>
	<circle cx="862.649" cy="677.259" r="4" fill="#0" id="circle186"/>
	<circle cx="865.902" cy="813.862" r="4" fill="#0" id="circle187"/>
	<circle cx="869.154" cy="7.25246" r="4" fill="#0" id="circle188"/>
	<circle cx="878.911" cy="39.777" r="4" fill="#0" id="circle189"/>
	<circle cx="878.911" cy="72.3016" r="4" fill="#0" id="circle190"/>
	<circle cx="878.911" cy="104.826" r="4" fill="#0" id="circle191"/>
	<circle cx="878.911" cy="137.351" r="4" fill="#0" id="circle192"/>
	<circle cx="878.911" cy="169.875" r="4" fill="#0" id="circle193"/>
	<circle cx="878.911" cy="202.4" r="4" fill="#0" id="circle194"/>
	<circle cx="878.911" cy="234.925" r="4" fill="#0" id="circle195"/>
	<circle cx="878.911" cy="267.449" r="4" fill="#0" id="circle196"/>
	<circle cx="878.911" cy="299.974" r="4" fill="#0" id="circle197"/>
	<circle cx="878.911" cy="332.498" r="4" fill="#0" id="circle198"/>
	<circle cx="878.911" cy="365.023" r="4" fill="#0" id="circle199"/>
	<circle cx="878.911" cy="397.548" r="4" fill="#0" id="circle200"/>
	<circle cx="878.911" cy="430.072" r="4" fill="#0" id="circle201"/>
	<circle cx="878.911" cy="543.908" r="4" fill="#0" id="circle202"/>
	<circle cx="878.911" cy="647.987" r="4" fill="#0" id="circle203"/>
	<circle cx="882.164" cy="745.561" r="4" fill="#0" id="circle204"/>
	<circle cx="895.174" cy="573.18" r="4" fill="#0" id="circle205"/>
	<circle cx="895.174" cy="677.259" r="4" fill="#0" id="circle206"/>
	<circle cx="898.426" cy="826.872" r="4" fill="#0" id="circle207"/>
	<circle cx="911.436" cy="543.908" r="4" fill="#0" id="circle208"/>
	<circle cx="911.436" cy="647.987" r="4" fill="#0" id="circle209"/>
	<circle cx="914.689" cy="745.561" r="4" fill="#0" id="circle210"/>
	<circle cx="930.951" cy="813.862" r="4" fill="#0" id="circle211"/>
	<circle cx="947.213" cy="745.561" r="4" fill="#0" id="circle212"/>
	<circle cx="963.475" cy="813.862" r="4" fill="#0" id="circle213"/>
	<circle cx="979.738" cy="745.561" r="4" fill="#0" id="circle214"/>
	<circle cx="996" cy="774.833" r="4" fill="#0" id="circle215"/>
	<circle cx="996" cy="807.357" r="4" fill="#0" id="circle216"/>
	</g>
</svg>