<?xml version="1.0" encoding="UTF-8" standalone="no"?>
<!-- Created with CurveBenchmark -->
<svg
	xmlns:dc="http://purl.org/dc/elements/1.1/"
	xmlns:cc="http://creativecommons.org/ns#"
	xmlns:rdf="http://www.w3.org/1999/02/22-rdf-syntax-ns#"
	xmlns:svg="http://www.w3.org/2000/svg"
	xmlns="http://www.w3.org/2000/svg"
	xmlns:sodipodi="http://sodipodi.sourceforge.net/DTD/sodipodi-0.dtd"
	xmlns:inkscape="http://www.inkscape.org/namespaces/inkscape"
	width="1000"
	height="1000"
	id="svg2"
	version="1.1"
	sodipodi:docname="manifold/vicur-teddy-09.png.txt">
<defs
	id="defs4" />
<metadata
	id="metadata7">
	<rdf:RDF>
		<cc:Work
			rdf:about="">
			<dc:format>image/svg+xml</dc:format>
			<dc:type
				rdf:resource="http://purl.org/dc/dcmitype/StillImage" />
			<dc:title></dc:title>
		</cc:Work>
	</rdf:RDF>
</metadata>
<g
	inkscape:label="Layer 1"
	inkscape:groupmode="layer"
	id="layer1">
	<path style="fill:none;stroke:red;stroke-width:1px;stroke-linecap:butt;stroke-linejoin:miter;stroke-opacity:1" d="M 4,690.769 4,700.075 z" id="boundary" inkscape:connector-curvature="0" />
	<path style="fill:none;stroke:red;stroke-width:1px;stroke-linecap:butt;stroke-linejoin:miter;stroke-opacity:1" d="M 4,690.769 8.65291,681.463 z" id="boundary" inkscape:connector-curvature="0" />
	<path style="fill:none;stroke:red;stroke-width:1px;stroke-linecap:butt;stroke-linejoin:miter;stroke-opacity:1" d="M 4,700.075 4,709.381 z" id="boundary" inkscape:connector-curvature="0" />
	<path style="fill:none;stroke:red;stroke-width:1px;stroke-linecap:butt;stroke-linejoin:miter;stroke-opacity:1" d="M 4,709.381 4,718.687 z" id="boundary" inkscape:connector-curvature="0" />
	<path style="fill:none;stroke:red;stroke-width:1px;stroke-linecap:butt;stroke-linejoin:miter;stroke-opacity:1" d="M 4,718.687 4,727.992 z" id="boundary" inkscape:connector-curvature="0" />
	<path style="fill:none;stroke:red;stroke-width:1px;stroke-linecap:butt;stroke-linejoin:miter;stroke-opacity:1" d="M 4,727.992 4,737.298 z" id="boundary" inkscape:connector-curvature="0" />
	<path style="fill:none;stroke:red;stroke-width:1px;stroke-linecap:butt;stroke-linejoin:miter;stroke-opacity:1" d="M 4,737.298 4,746.604 z" id="boundary" inkscape:connector-curvature="0" />
	<path style="fill:none;stroke:red;stroke-width:1px;stroke-linecap:butt;stroke-linejoin:miter;stroke-opacity:1" d="M 4,746.604 4,755.91 z" id="boundary" inkscape:connector-curvature="0" />
	<path style="fill:none;stroke:red;stroke-width:1px;stroke-linecap:butt;stroke-linejoin:miter;stroke-opacity:1" d="M 4,755.91 4,765.216 z" id="boundary" inkscape:connector-curvature="0" />
	<path style="fill:none;stroke:red;stroke-width:1px;stroke-linecap:butt;stroke-linejoin:miter;stroke-opacity:1" d="M 4,765.216 4,774.522 z" id="boundary" inkscape:connector-curvature="0" />
	<path style="fill:none;stroke:red;stroke-width:1px;stroke-linecap:butt;stroke-linejoin:miter;stroke-opacity:1" d="M 8.65291,681.463 17.9587,676.811 z" id="boundary" inkscape:connector-curvature="0" />
	<path style="fill:none;stroke:red;stroke-width:1px;stroke-linecap:butt;stroke-linejoin:miter;stroke-opacity:1" d="M 17.9587,676.811 27.2645,674.019 z" id="boundary" inkscape:connector-curvature="0" />
	<path style="fill:none;stroke:red;stroke-width:1px;stroke-linecap:butt;stroke-linejoin:miter;stroke-opacity:1" d="M 27.2645,420.901 27.2645,430.206 z" id="boundary" inkscape:connector-curvature="0" />
	<path style="fill:none;stroke:red;stroke-width:1px;stroke-linecap:butt;stroke-linejoin:miter;stroke-opacity:1" d="M 27.2645,420.901 31.9174,411.595 z" id="boundary" inkscape:connector-curvature="0" />
	<path style="fill:none;stroke:red;stroke-width:1px;stroke-linecap:butt;stroke-linejoin:miter;stroke-opacity:1" d="M 27.2645,430.206 27.2645,439.512 z" id="boundary" inkscape:connector-curvature="0" />
	<path style="fill:none;stroke:red;stroke-width:1px;stroke-linecap:butt;stroke-linejoin:miter;stroke-opacity:1" d="M 27.2645,439.512 27.2645,448.818 z" id="boundary" inkscape:connector-curvature="0" />
	<path style="fill:none;stroke:red;stroke-width:1px;stroke-linecap:butt;stroke-linejoin:miter;stroke-opacity:1" d="M 27.2645,448.818 27.2645,458.124 z" id="boundary" inkscape:connector-curvature="0" />
	<path style="fill:none;stroke:red;stroke-width:1px;stroke-linecap:butt;stroke-linejoin:miter;stroke-opacity:1" d="M 27.2645,458.124 27.2645,467.43 z" id="boundary" inkscape:connector-curvature="0" />
	<path style="fill:none;stroke:red;stroke-width:1px;stroke-linecap:butt;stroke-linejoin:miter;stroke-opacity:1" d="M 27.2645,467.43 27.2645,476.735 z" id="boundary" inkscape:connector-curvature="0" />
	<path style="fill:none;stroke:red;stroke-width:1px;stroke-linecap:butt;stroke-linejoin:miter;stroke-opacity:1" d="M 27.2645,476.735 27.2645,486.041 z" id="boundary" inkscape:connector-curvature="0" />
	<path style="fill:none;stroke:red;stroke-width:1px;stroke-linecap:butt;stroke-linejoin:miter;stroke-opacity:1" d="M 27.2645,486.041 27.2645,495.347 z" id="boundary" inkscape:connector-curvature="0" />
	<path style="fill:none;stroke:red;stroke-width:1px;stroke-linecap:butt;stroke-linejoin:miter;stroke-opacity:1" d="M 27.2645,674.019 36.5704,672.158 z" id="boundary" inkscape:connector-curvature="0" />
	<path style="fill:none;stroke:red;stroke-width:1px;stroke-linecap:butt;stroke-linejoin:miter;stroke-opacity:1" d="M 31.9174,411.595 36.5704,402.289 z" id="boundary" inkscape:connector-curvature="0" />
	<path style="fill:none;stroke:red;stroke-width:1px;stroke-linecap:butt;stroke-linejoin:miter;stroke-opacity:1" d="M 31.9174,513.028 36.5704,521.403 z" id="boundary" inkscape:connector-curvature="0" />
	<path style="fill:none;stroke:red;stroke-width:1px;stroke-linecap:butt;stroke-linejoin:miter;stroke-opacity:1" d="M 36.5704,402.289 41.2233,392.983 z" id="boundary" inkscape:connector-curvature="0" />
	<path style="fill:none;stroke:red;stroke-width:1px;stroke-linecap:butt;stroke-linejoin:miter;stroke-opacity:1" d="M 36.5704,521.403 42.1538,528.848 z" id="boundary" inkscape:connector-curvature="0" />
	<path style="fill:none;stroke:red;stroke-width:1px;stroke-linecap:butt;stroke-linejoin:miter;stroke-opacity:1" d="M 36.5704,672.158 45.8762,669.366 z" id="boundary" inkscape:connector-curvature="0" />
	<path style="fill:none;stroke:red;stroke-width:1px;stroke-linecap:butt;stroke-linejoin:miter;stroke-opacity:1" d="M 41.2233,392.983 45.8762,383.677 z" id="boundary" inkscape:connector-curvature="0" />
	<path style="fill:none;stroke:red;stroke-width:1px;stroke-linecap:butt;stroke-linejoin:miter;stroke-opacity:1" d="M 42.1538,528.848 46.8068,537.223 z" id="boundary" inkscape:connector-curvature="0" />
	<path style="fill:none;stroke:red;stroke-width:1px;stroke-linecap:butt;stroke-linejoin:miter;stroke-opacity:1" d="M 45.8762,383.677 53.3208,376.233 z" id="boundary" inkscape:connector-curvature="0" />
	<path style="fill:none;stroke:red;stroke-width:1px;stroke-linecap:butt;stroke-linejoin:miter;stroke-opacity:1" d="M 45.8762,669.366 55.182,669.366 z" id="boundary" inkscape:connector-curvature="0" />
	<path style="fill:none;stroke:red;stroke-width:1px;stroke-linecap:butt;stroke-linejoin:miter;stroke-opacity:1" d="M 46.8068,537.223 53.3208,544.668 z" id="boundary" inkscape:connector-curvature="0" />
	<path style="fill:none;stroke:red;stroke-width:1px;stroke-linecap:butt;stroke-linejoin:miter;stroke-opacity:1" d="M 53.3208,376.233 61.6961,371.58 z" id="boundary" inkscape:connector-curvature="0" />
	<path style="fill:none;stroke:red;stroke-width:1px;stroke-linecap:butt;stroke-linejoin:miter;stroke-opacity:1" d="M 55.182,669.366 64.4878,669.366 z" id="boundary" inkscape:connector-curvature="0" />
	<path style="fill:none;stroke:red;stroke-width:1px;stroke-linecap:butt;stroke-linejoin:miter;stroke-opacity:1" d="M 61.6961,371.58 69.1407,365.066 z" id="boundary" inkscape:connector-curvature="0" />
	<path style="fill:none;stroke:red;stroke-width:1px;stroke-linecap:butt;stroke-linejoin:miter;stroke-opacity:1" d="M 64.4878,669.366 73.7936,669.366 z" id="boundary" inkscape:connector-curvature="0" />
	<path style="fill:none;stroke:red;stroke-width:1px;stroke-linecap:butt;stroke-linejoin:miter;stroke-opacity:1" d="M 69.1407,900.15 69.1407,909.456 z" id="boundary" inkscape:connector-curvature="0" />
	<path style="fill:none;stroke:red;stroke-width:1px;stroke-linecap:butt;stroke-linejoin:miter;stroke-opacity:1" d="M 69.1407,909.456 73.7936,917.831 z" id="boundary" inkscape:connector-curvature="0" />
	<path style="fill:none;stroke:red;stroke-width:1px;stroke-linecap:butt;stroke-linejoin:miter;stroke-opacity:1" d="M 73.7936,669.366 83.0994,669.366 z" id="boundary" inkscape:connector-curvature="0" />
	<path style="fill:none;stroke:red;stroke-width:1px;stroke-linecap:butt;stroke-linejoin:miter;stroke-opacity:1" d="M 73.7936,917.831 80.3077,925.276 z" id="boundary" inkscape:connector-curvature="0" />
	<path style="fill:none;stroke:red;stroke-width:1px;stroke-linecap:butt;stroke-linejoin:miter;stroke-opacity:1" d="M 80.3077,925.276 87.7523,930.859 z" id="boundary" inkscape:connector-curvature="0" />
	<path style="fill:none;stroke:red;stroke-width:1px;stroke-linecap:butt;stroke-linejoin:miter;stroke-opacity:1" d="M 83.0994,346.454 92.4053,341.801 z" id="boundary" inkscape:connector-curvature="0" />
	<path style="fill:none;stroke:red;stroke-width:1px;stroke-linecap:butt;stroke-linejoin:miter;stroke-opacity:1" d="M 83.0994,669.366 91.4747,664.713 z" id="boundary" inkscape:connector-curvature="0" />
	<path style="fill:none;stroke:red;stroke-width:1px;stroke-linecap:butt;stroke-linejoin:miter;stroke-opacity:1" d="M 87.7523,930.859 93.3358,938.304 z" id="boundary" inkscape:connector-curvature="0" />
	<path style="fill:none;stroke:red;stroke-width:1px;stroke-linecap:butt;stroke-linejoin:miter;stroke-opacity:1" d="M 91.4747,664.713 100.78,665.644 z" id="boundary" inkscape:connector-curvature="0" />
	<path style="fill:none;stroke:red;stroke-width:1px;stroke-linecap:butt;stroke-linejoin:miter;stroke-opacity:1" d="M 92.4053,341.801 101.711,339.009 z" id="boundary" inkscape:connector-curvature="0" />
	<path style="fill:none;stroke:red;stroke-width:1px;stroke-linecap:butt;stroke-linejoin:miter;stroke-opacity:1" d="M 100.78,665.644 109.156,670.296 z" id="boundary" inkscape:connector-curvature="0" />
	<path style="fill:none;stroke:red;stroke-width:1px;stroke-linecap:butt;stroke-linejoin:miter;stroke-opacity:1" d="M 101.711,339.009 111.017,339.009 z" id="boundary" inkscape:connector-curvature="0" />
	<path style="fill:none;stroke:red;stroke-width:1px;stroke-linecap:butt;stroke-linejoin:miter;stroke-opacity:1" d="M 104.503,567.932 122.184,575.377 z" id="boundary" inkscape:connector-curvature="0" />
	<path style="fill:none;stroke:red;stroke-width:1px;stroke-linecap:butt;stroke-linejoin:miter;stroke-opacity:1" d="M 109.156,670.296 113.809,678.672 z" id="boundary" inkscape:connector-curvature="0" />
	<path style="fill:none;stroke:red;stroke-width:1px;stroke-linecap:butt;stroke-linejoin:miter;stroke-opacity:1" d="M 110.086,944.818 119.392,944.818 z" id="boundary" inkscape:connector-curvature="0" />
	<path style="fill:none;stroke:red;stroke-width:1px;stroke-linecap:butt;stroke-linejoin:miter;stroke-opacity:1" d="M 111.017,339.009 120.323,340.871 z" id="boundary" inkscape:connector-curvature="0" />
	<path style="fill:none;stroke:red;stroke-width:1px;stroke-linecap:butt;stroke-linejoin:miter;stroke-opacity:1" d="M 113.809,678.672 120.323,686.116 z" id="boundary" inkscape:connector-curvature="0" />
	<path style="fill:none;stroke:red;stroke-width:1px;stroke-linecap:butt;stroke-linejoin:miter;stroke-opacity:1" d="M 119.392,944.818 128.698,944.818 z" id="boundary" inkscape:connector-curvature="0" />
	<path style="fill:none;stroke:red;stroke-width:1px;stroke-linecap:butt;stroke-linejoin:miter;stroke-opacity:1" d="M 120.323,340.871 128.698,345.523 z" id="boundary" inkscape:connector-curvature="0" />
	<path style="fill:none;stroke:red;stroke-width:1px;stroke-linecap:butt;stroke-linejoin:miter;stroke-opacity:1" d="M 122.184,575.377 131.49,577.238 z" id="boundary" inkscape:connector-curvature="0" />
	<path style="fill:none;stroke:red;stroke-width:1px;stroke-linecap:butt;stroke-linejoin:miter;stroke-opacity:1" d="M 128.698,345.523 139.865,361.343 z" id="boundary" inkscape:connector-curvature="0" />
	<path style="fill:none;stroke:red;stroke-width:1px;stroke-linecap:butt;stroke-linejoin:miter;stroke-opacity:1" d="M 128.698,944.818 138.004,944.818 z" id="boundary" inkscape:connector-curvature="0" />
	<path style="fill:none;stroke:red;stroke-width:1px;stroke-linecap:butt;stroke-linejoin:miter;stroke-opacity:1" d="M 130.559,701.936 135.212,710.311 z" id="boundary" inkscape:connector-curvature="0" />
	<path style="fill:none;stroke:red;stroke-width:1px;stroke-linecap:butt;stroke-linejoin:miter;stroke-opacity:1" d="M 131.49,577.238 140.795,580.03 z" id="boundary" inkscape:connector-curvature="0" />
	<path style="fill:none;stroke:red;stroke-width:1px;stroke-linecap:butt;stroke-linejoin:miter;stroke-opacity:1" d="M 135.212,710.311 142.657,716.826 z" id="boundary" inkscape:connector-curvature="0" />
	<path style="fill:none;stroke:red;stroke-width:1px;stroke-linecap:butt;stroke-linejoin:miter;stroke-opacity:1" d="M 138.004,944.818 147.31,944.818 z" id="boundary" inkscape:connector-curvature="0" />
	<path style="fill:none;stroke:red;stroke-width:1px;stroke-linecap:butt;stroke-linejoin:miter;stroke-opacity:1" d="M 139.865,361.343 144.518,369.719 z" id="boundary" inkscape:connector-curvature="0" />
	<path style="fill:none;stroke:red;stroke-width:1px;stroke-linecap:butt;stroke-linejoin:miter;stroke-opacity:1" d="M 140.795,580.03 148.24,586.544 z" id="boundary" inkscape:connector-curvature="0" />
	<path style="fill:none;stroke:red;stroke-width:1px;stroke-linecap:butt;stroke-linejoin:miter;stroke-opacity:1" d="M 142.657,716.826 149.171,724.27 z" id="boundary" inkscape:connector-curvature="0" />
	<path style="fill:none;stroke:red;stroke-width:1px;stroke-linecap:butt;stroke-linejoin:miter;stroke-opacity:1" d="M 144.518,369.719 151.032,377.163 z" id="boundary" inkscape:connector-curvature="0" />
	<path style="fill:none;stroke:red;stroke-width:1px;stroke-linecap:butt;stroke-linejoin:miter;stroke-opacity:1" d="M 147.31,944.818 156.615,944.818 z" id="boundary" inkscape:connector-curvature="0" />
	<path style="fill:none;stroke:red;stroke-width:1px;stroke-linecap:butt;stroke-linejoin:miter;stroke-opacity:1" d="M 148.24,586.544 153.824,593.989 z" id="boundary" inkscape:connector-curvature="0" />
	<path style="fill:none;stroke:red;stroke-width:1px;stroke-linecap:butt;stroke-linejoin:miter;stroke-opacity:1" d="M 149.171,724.27 156.615,730.784 z" id="boundary" inkscape:connector-curvature="0" />
	<path style="fill:none;stroke:red;stroke-width:1px;stroke-linecap:butt;stroke-linejoin:miter;stroke-opacity:1" d="M 151.032,377.163 158.477,394.844 z" id="boundary" inkscape:connector-curvature="0" />
	<path style="fill:none;stroke:red;stroke-width:1px;stroke-linecap:butt;stroke-linejoin:miter;stroke-opacity:1" d="M 153.824,593.989 158.477,602.364 z" id="boundary" inkscape:connector-curvature="0" />
	<path style="fill:none;stroke:red;stroke-width:1px;stroke-linecap:butt;stroke-linejoin:miter;stroke-opacity:1" d="M 156.615,730.784 163.129,738.229 z" id="boundary" inkscape:connector-curvature="0" />
	<path style="fill:none;stroke:red;stroke-width:1px;stroke-linecap:butt;stroke-linejoin:miter;stroke-opacity:1" d="M 156.615,944.818 165.921,944.818 z" id="boundary" inkscape:connector-curvature="0" />
	<path style="fill:none;stroke:red;stroke-width:1px;stroke-linecap:butt;stroke-linejoin:miter;stroke-opacity:1" d="M 158.477,394.844 169.644,409.734 z" id="boundary" inkscape:connector-curvature="0" />
	<path style="fill:none;stroke:red;stroke-width:1px;stroke-linecap:butt;stroke-linejoin:miter;stroke-opacity:1" d="M 158.477,602.364 166.852,607.017 z" id="boundary" inkscape:connector-curvature="0" />
	<path style="fill:none;stroke:red;stroke-width:1px;stroke-linecap:butt;stroke-linejoin:miter;stroke-opacity:1" d="M 162.199,202.214 162.199,211.52 z" id="boundary" inkscape:connector-curvature="0" />
	<path style="fill:none;stroke:red;stroke-width:1px;stroke-linecap:butt;stroke-linejoin:miter;stroke-opacity:1" d="M 162.199,202.214 166.852,192.908 z" id="boundary" inkscape:connector-curvature="0" />
	<path style="fill:none;stroke:red;stroke-width:1px;stroke-linecap:butt;stroke-linejoin:miter;stroke-opacity:1" d="M 162.199,211.52 162.199,220.826 z" id="boundary" inkscape:connector-curvature="0" />
	<path style="fill:none;stroke:red;stroke-width:1px;stroke-linecap:butt;stroke-linejoin:miter;stroke-opacity:1" d="M 162.199,220.826 162.199,230.131 z" id="boundary" inkscape:connector-curvature="0" />
	<path style="fill:none;stroke:red;stroke-width:1px;stroke-linecap:butt;stroke-linejoin:miter;stroke-opacity:1" d="M 162.199,230.131 162.199,239.437 z" id="boundary" inkscape:connector-curvature="0" />
	<path style="fill:none;stroke:red;stroke-width:1px;stroke-linecap:butt;stroke-linejoin:miter;stroke-opacity:1" d="M 163.129,738.229 170.574,744.743 z" id="boundary" inkscape:connector-curvature="0" />
	<path style="fill:none;stroke:red;stroke-width:1px;stroke-linecap:butt;stroke-linejoin:miter;stroke-opacity:1" d="M 165.921,944.818 174.296,940.165 z" id="boundary" inkscape:connector-curvature="0" />
	<path style="fill:none;stroke:red;stroke-width:1px;stroke-linecap:butt;stroke-linejoin:miter;stroke-opacity:1" d="M 166.852,607.017 174.296,613.531 z" id="boundary" inkscape:connector-curvature="0" />
	<path style="fill:none;stroke:red;stroke-width:1px;stroke-linecap:butt;stroke-linejoin:miter;stroke-opacity:1" d="M 169.644,409.734 178.949,413.456 z" id="boundary" inkscape:connector-curvature="0" />
	<path style="fill:none;stroke:red;stroke-width:1px;stroke-linecap:butt;stroke-linejoin:miter;stroke-opacity:1" d="M 170.574,744.743 177.088,752.188 z" id="boundary" inkscape:connector-curvature="0" />
	<path style="fill:none;stroke:red;stroke-width:1px;stroke-linecap:butt;stroke-linejoin:miter;stroke-opacity:1" d="M 174.296,613.531 182.672,618.184 z" id="boundary" inkscape:connector-curvature="0" />
	<path style="fill:none;stroke:red;stroke-width:1px;stroke-linecap:butt;stroke-linejoin:miter;stroke-opacity:1" d="M 174.296,940.165 183.602,940.165 z" id="boundary" inkscape:connector-curvature="0" />
	<path style="fill:none;stroke:red;stroke-width:1px;stroke-linecap:butt;stroke-linejoin:miter;stroke-opacity:1" d="M 177.088,752.188 184.533,757.771 z" id="boundary" inkscape:connector-curvature="0" />
	<path style="fill:none;stroke:red;stroke-width:1px;stroke-linecap:butt;stroke-linejoin:miter;stroke-opacity:1" d="M 178.949,413.456 188.255,413.456 z" id="boundary" inkscape:connector-curvature="0" />
	<path style="fill:none;stroke:red;stroke-width:1px;stroke-linecap:butt;stroke-linejoin:miter;stroke-opacity:1" d="M 182.672,618.184 190.116,633.073 z" id="boundary" inkscape:connector-curvature="0" />
	<path style="fill:none;stroke:red;stroke-width:1px;stroke-linecap:butt;stroke-linejoin:miter;stroke-opacity:1" d="M 183.602,940.165 191.977,935.512 z" id="boundary" inkscape:connector-curvature="0" />
	<path style="fill:none;stroke:red;stroke-width:1px;stroke-linecap:butt;stroke-linejoin:miter;stroke-opacity:1" d="M 184.533,757.771 202.214,762.424 z" id="boundary" inkscape:connector-curvature="0" />
	<path style="fill:none;stroke:red;stroke-width:1px;stroke-linecap:butt;stroke-linejoin:miter;stroke-opacity:1" d="M 188.255,413.456 197.561,413.456 z" id="boundary" inkscape:connector-curvature="0" />
	<path style="fill:none;stroke:red;stroke-width:1px;stroke-linecap:butt;stroke-linejoin:miter;stroke-opacity:1" d="M 190.116,633.073 194.769,650.754 z" id="boundary" inkscape:connector-curvature="0" />
	<path style="fill:none;stroke:red;stroke-width:1px;stroke-linecap:butt;stroke-linejoin:miter;stroke-opacity:1" d="M 191.977,935.512 201.283,935.512 z" id="boundary" inkscape:connector-curvature="0" />
	<path style="fill:none;stroke:red;stroke-width:1px;stroke-linecap:butt;stroke-linejoin:miter;stroke-opacity:1" d="M 194.769,650.754 196.63,660.06 z" id="boundary" inkscape:connector-curvature="0" />
	<path style="fill:none;stroke:red;stroke-width:1px;stroke-linecap:butt;stroke-linejoin:miter;stroke-opacity:1" d="M 196.63,660.06 199.422,669.366 z" id="boundary" inkscape:connector-curvature="0" />
	<path style="fill:none;stroke:red;stroke-width:1px;stroke-linecap:butt;stroke-linejoin:miter;stroke-opacity:1" d="M 197.561,413.456 206.867,413.456 z" id="boundary" inkscape:connector-curvature="0" />
	<path style="fill:none;stroke:red;stroke-width:1px;stroke-linecap:butt;stroke-linejoin:miter;stroke-opacity:1" d="M 199.422,669.366 199.422,678.672 z" id="boundary" inkscape:connector-curvature="0" />
	<path style="fill:none;stroke:red;stroke-width:1px;stroke-linecap:butt;stroke-linejoin:miter;stroke-opacity:1" d="M 199.422,678.672 199.422,687.977 z" id="boundary" inkscape:connector-curvature="0" />
	<path style="fill:none;stroke:red;stroke-width:1px;stroke-linecap:butt;stroke-linejoin:miter;stroke-opacity:1" d="M 199.422,687.977 199.422,697.283 z" id="boundary" inkscape:connector-curvature="0" />
	<path style="fill:none;stroke:red;stroke-width:1px;stroke-linecap:butt;stroke-linejoin:miter;stroke-opacity:1" d="M 199.422,697.283 204.075,714.964 z" id="boundary" inkscape:connector-curvature="0" />
	<path style="fill:none;stroke:red;stroke-width:1px;stroke-linecap:butt;stroke-linejoin:miter;stroke-opacity:1" d="M 201.283,935.512 210.589,935.512 z" id="boundary" inkscape:connector-curvature="0" />
	<path style="fill:none;stroke:red;stroke-width:1px;stroke-linecap:butt;stroke-linejoin:miter;stroke-opacity:1" d="M 202.214,157.546 219.895,152.893 z" id="boundary" inkscape:connector-curvature="0" />
	<path style="fill:none;stroke:red;stroke-width:1px;stroke-linecap:butt;stroke-linejoin:miter;stroke-opacity:1" d="M 202.214,762.424 204.075,752.188 z" id="boundary" inkscape:connector-curvature="0" />
	<path style="fill:none;stroke:red;stroke-width:1px;stroke-linecap:butt;stroke-linejoin:miter;stroke-opacity:1" d="M 204.075,714.964 204.075,724.27 z" id="boundary" inkscape:connector-curvature="0" />
	<path style="fill:none;stroke:red;stroke-width:1px;stroke-linecap:butt;stroke-linejoin:miter;stroke-opacity:1" d="M 204.075,724.27 204.075,733.576 z" id="boundary" inkscape:connector-curvature="0" />
	<path style="fill:none;stroke:red;stroke-width:1px;stroke-linecap:butt;stroke-linejoin:miter;stroke-opacity:1" d="M 204.075,733.576 204.075,742.882 z" id="boundary" inkscape:connector-curvature="0" />
	<path style="fill:none;stroke:red;stroke-width:1px;stroke-linecap:butt;stroke-linejoin:miter;stroke-opacity:1" d="M 204.075,742.882 204.075,752.188 z" id="boundary" inkscape:connector-curvature="0" />
	<path style="fill:none;stroke:red;stroke-width:1px;stroke-linecap:butt;stroke-linejoin:miter;stroke-opacity:1" d="M 206.867,413.456 216.173,413.456 z" id="boundary" inkscape:connector-curvature="0" />
	<path style="fill:none;stroke:red;stroke-width:1px;stroke-linecap:butt;stroke-linejoin:miter;stroke-opacity:1" d="M 210.589,935.512 219.895,935.512 z" id="boundary" inkscape:connector-curvature="0" />
	<path style="fill:none;stroke:red;stroke-width:1px;stroke-linecap:butt;stroke-linejoin:miter;stroke-opacity:1" d="M 212.45,298.064 230.131,302.717 z" id="boundary" inkscape:connector-curvature="0" />
	<path style="fill:none;stroke:red;stroke-width:1px;stroke-linecap:butt;stroke-linejoin:miter;stroke-opacity:1" d="M 216.173,413.456 233.854,408.803 z" id="boundary" inkscape:connector-curvature="0" />
	<path style="fill:none;stroke:red;stroke-width:1px;stroke-linecap:butt;stroke-linejoin:miter;stroke-opacity:1" d="M 219.895,152.893 228.27,148.24 z" id="boundary" inkscape:connector-curvature="0" />
	<path style="fill:none;stroke:red;stroke-width:1px;stroke-linecap:butt;stroke-linejoin:miter;stroke-opacity:1" d="M 219.895,935.512 229.201,935.512 z" id="boundary" inkscape:connector-curvature="0" />
	<path style="fill:none;stroke:red;stroke-width:1px;stroke-linecap:butt;stroke-linejoin:miter;stroke-opacity:1" d="M 228.27,148.24 237.576,148.24 z" id="boundary" inkscape:connector-curvature="0" />
	<path style="fill:none;stroke:red;stroke-width:1px;stroke-linecap:butt;stroke-linejoin:miter;stroke-opacity:1" d="M 229.201,935.512 238.507,935.512 z" id="boundary" inkscape:connector-curvature="0" />
	<path style="fill:none;stroke:red;stroke-width:1px;stroke-linecap:butt;stroke-linejoin:miter;stroke-opacity:1" d="M 230.131,302.717 239.437,302.717 z" id="boundary" inkscape:connector-curvature="0" />
	<path style="fill:none;stroke:red;stroke-width:1px;stroke-linecap:butt;stroke-linejoin:miter;stroke-opacity:1" d="M 233.854,408.803 243.159,408.803 z" id="boundary" inkscape:connector-curvature="0" />
	<path style="fill:none;stroke:red;stroke-width:1px;stroke-linecap:butt;stroke-linejoin:miter;stroke-opacity:1" d="M 237.576,148.24 246.882,148.24 z" id="boundary" inkscape:connector-curvature="0" />
	<path style="fill:none;stroke:red;stroke-width:1px;stroke-linecap:butt;stroke-linejoin:miter;stroke-opacity:1" d="M 238.507,935.512 247.812,935.512 z" id="boundary" inkscape:connector-curvature="0" />
	<path style="fill:none;stroke:red;stroke-width:1px;stroke-linecap:butt;stroke-linejoin:miter;stroke-opacity:1" d="M 239.437,302.717 248.743,302.717 z" id="boundary" inkscape:connector-curvature="0" />
	<path style="fill:none;stroke:red;stroke-width:1px;stroke-linecap:butt;stroke-linejoin:miter;stroke-opacity:1" d="M 243.159,408.803 252.465,405.081 z" id="boundary" inkscape:connector-curvature="0" />
	<path style="fill:none;stroke:red;stroke-width:1px;stroke-linecap:butt;stroke-linejoin:miter;stroke-opacity:1" d="M 246.882,148.24 256.188,145.448 z" id="boundary" inkscape:connector-curvature="0" />
	<path style="fill:none;stroke:red;stroke-width:1px;stroke-linecap:butt;stroke-linejoin:miter;stroke-opacity:1" d="M 247.812,935.512 257.118,935.512 z" id="boundary" inkscape:connector-curvature="0" />
	<path style="fill:none;stroke:red;stroke-width:1px;stroke-linecap:butt;stroke-linejoin:miter;stroke-opacity:1" d="M 248.743,302.717 250.604,312.023 z" id="boundary" inkscape:connector-curvature="0" />
	<path style="fill:none;stroke:red;stroke-width:1px;stroke-linecap:butt;stroke-linejoin:miter;stroke-opacity:1" d="M 250.604,312.023 250.604,321.328 z" id="boundary" inkscape:connector-curvature="0" />
	<path style="fill:none;stroke:red;stroke-width:1px;stroke-linecap:butt;stroke-linejoin:miter;stroke-opacity:1" d="M 250.604,321.328 250.604,330.634 z" id="boundary" inkscape:connector-curvature="0" />
	<path style="fill:none;stroke:red;stroke-width:1px;stroke-linecap:butt;stroke-linejoin:miter;stroke-opacity:1" d="M 252.465,405.081 261.771,404.15 z" id="boundary" inkscape:connector-curvature="0" />
	<path style="fill:none;stroke:red;stroke-width:1px;stroke-linecap:butt;stroke-linejoin:miter;stroke-opacity:1" d="M 255.257,348.315 264.563,365.066 z" id="boundary" inkscape:connector-curvature="0" />
	<path style="fill:none;stroke:red;stroke-width:1px;stroke-linecap:butt;stroke-linejoin:miter;stroke-opacity:1" d="M 256.188,145.448 260.841,136.143 z" id="boundary" inkscape:connector-curvature="0" />
	<path style="fill:none;stroke:red;stroke-width:1px;stroke-linecap:butt;stroke-linejoin:miter;stroke-opacity:1" d="M 257.118,935.512 266.424,935.512 z" id="boundary" inkscape:connector-curvature="0" />
	<path style="fill:none;stroke:red;stroke-width:1px;stroke-linecap:butt;stroke-linejoin:miter;stroke-opacity:1" d="M 261.771,404.15 269.216,392.053 z" id="boundary" inkscape:connector-curvature="0" />
	<path style="fill:none;stroke:red;stroke-width:1px;stroke-linecap:butt;stroke-linejoin:miter;stroke-opacity:1" d="M 264.563,365.066 269.216,382.747 z" id="boundary" inkscape:connector-curvature="0" />
	<path style="fill:none;stroke:red;stroke-width:1px;stroke-linecap:butt;stroke-linejoin:miter;stroke-opacity:1" d="M 266.424,935.512 275.73,935.512 z" id="boundary" inkscape:connector-curvature="0" />
	<path style="fill:none;stroke:red;stroke-width:1px;stroke-linecap:butt;stroke-linejoin:miter;stroke-opacity:1" d="M 269.216,382.747 269.216,392.053 z" id="boundary" inkscape:connector-curvature="0" />
	<path style="fill:none;stroke:red;stroke-width:1px;stroke-linecap:butt;stroke-linejoin:miter;stroke-opacity:1" d="M 273.869,118.462 278.522,109.156 z" id="boundary" inkscape:connector-curvature="0" />
	<path style="fill:none;stroke:red;stroke-width:1px;stroke-linecap:butt;stroke-linejoin:miter;stroke-opacity:1" d="M 278.522,34.7092 278.522,44.015 z" id="boundary" inkscape:connector-curvature="0" />
	<path style="fill:none;stroke:red;stroke-width:1px;stroke-linecap:butt;stroke-linejoin:miter;stroke-opacity:1" d="M 278.522,34.7092 283.174,25.4034 z" id="boundary" inkscape:connector-curvature="0" />
	<path style="fill:none;stroke:red;stroke-width:1px;stroke-linecap:butt;stroke-linejoin:miter;stroke-opacity:1" d="M 278.522,44.015 278.522,53.3208 z" id="boundary" inkscape:connector-curvature="0" />
	<path style="fill:none;stroke:red;stroke-width:1px;stroke-linecap:butt;stroke-linejoin:miter;stroke-opacity:1" d="M 278.522,53.3208 278.522,62.6266 z" id="boundary" inkscape:connector-curvature="0" />
	<path style="fill:none;stroke:red;stroke-width:1px;stroke-linecap:butt;stroke-linejoin:miter;stroke-opacity:1" d="M 278.522,62.6266 278.522,71.9325 z" id="boundary" inkscape:connector-curvature="0" />
	<path style="fill:none;stroke:red;stroke-width:1px;stroke-linecap:butt;stroke-linejoin:miter;stroke-opacity:1" d="M 278.522,71.9325 278.522,81.2383 z" id="boundary" inkscape:connector-curvature="0" />
	<path style="fill:none;stroke:red;stroke-width:1px;stroke-linecap:butt;stroke-linejoin:miter;stroke-opacity:1" d="M 278.522,81.2383 278.522,90.5441 z" id="boundary" inkscape:connector-curvature="0" />
	<path style="fill:none;stroke:red;stroke-width:1px;stroke-linecap:butt;stroke-linejoin:miter;stroke-opacity:1" d="M 278.522,90.5441 278.522,99.8499 z" id="boundary" inkscape:connector-curvature="0" />
	<path style="fill:none;stroke:red;stroke-width:1px;stroke-linecap:butt;stroke-linejoin:miter;stroke-opacity:1" d="M 278.522,99.8499 278.522,109.156 z" id="boundary" inkscape:connector-curvature="0" />
	<path style="fill:none;stroke:red;stroke-width:1px;stroke-linecap:butt;stroke-linejoin:miter;stroke-opacity:1" d="M 295.272,8.65291 304.578,4 z" id="boundary" inkscape:connector-curvature="0" />
	<path style="fill:none;stroke:red;stroke-width:1px;stroke-linecap:butt;stroke-linejoin:miter;stroke-opacity:1" d="M 304.578,4 313.884,4 z" id="boundary" inkscape:connector-curvature="0" />
	<path style="fill:none;stroke:red;stroke-width:1px;stroke-linecap:butt;stroke-linejoin:miter;stroke-opacity:1" d="M 310.161,898.289 319.467,898.289 z" id="boundary" inkscape:connector-curvature="0" />
	<path style="fill:none;stroke:red;stroke-width:1px;stroke-linecap:butt;stroke-linejoin:miter;stroke-opacity:1" d="M 313.884,4 323.189,4 z" id="boundary" inkscape:connector-curvature="0" />
	<path style="fill:none;stroke:red;stroke-width:1px;stroke-linecap:butt;stroke-linejoin:miter;stroke-opacity:1" d="M 319.467,898.289 328.773,898.289 z" id="boundary" inkscape:connector-curvature="0" />
	<path style="fill:none;stroke:red;stroke-width:1px;stroke-linecap:butt;stroke-linejoin:miter;stroke-opacity:1" d="M 374.371,930.859 383.677,934.582 z" id="boundary" inkscape:connector-curvature="0" />
	<path style="fill:none;stroke:red;stroke-width:1px;stroke-linecap:butt;stroke-linejoin:miter;stroke-opacity:1" d="M 383.677,934.582 392.983,935.512 z" id="boundary" inkscape:connector-curvature="0" />
	<path style="fill:none;stroke:red;stroke-width:1px;stroke-linecap:butt;stroke-linejoin:miter;stroke-opacity:1" d="M 391.122,36.5704 400.428,36.5704 z" id="boundary" inkscape:connector-curvature="0" />
	<path style="fill:none;stroke:red;stroke-width:1px;stroke-linecap:butt;stroke-linejoin:miter;stroke-opacity:1" d="M 392.983,935.512 402.289,935.512 z" id="boundary" inkscape:connector-curvature="0" />
	<path style="fill:none;stroke:red;stroke-width:1px;stroke-linecap:butt;stroke-linejoin:miter;stroke-opacity:1" d="M 400.428,36.5704 409.734,36.5704 z" id="boundary" inkscape:connector-curvature="0" />
	<path style="fill:none;stroke:red;stroke-width:1px;stroke-linecap:butt;stroke-linejoin:miter;stroke-opacity:1" d="M 402.289,935.512 411.595,935.512 z" id="boundary" inkscape:connector-curvature="0" />
	<path style="fill:none;stroke:red;stroke-width:1px;stroke-linecap:butt;stroke-linejoin:miter;stroke-opacity:1" d="M 409.734,36.5704 419.039,36.5704 z" id="boundary" inkscape:connector-curvature="0" />
	<path style="fill:none;stroke:red;stroke-width:1px;stroke-linecap:butt;stroke-linejoin:miter;stroke-opacity:1" d="M 411.595,935.512 420.901,935.512 z" id="boundary" inkscape:connector-curvature="0" />
	<path style="fill:none;stroke:red;stroke-width:1px;stroke-linecap:butt;stroke-linejoin:miter;stroke-opacity:1" d="M 419.039,36.5704 427.415,41.2233 z" id="boundary" inkscape:connector-curvature="0" />
	<path style="fill:none;stroke:red;stroke-width:1px;stroke-linecap:butt;stroke-linejoin:miter;stroke-opacity:1" d="M 420.901,935.512 430.206,935.512 z" id="boundary" inkscape:connector-curvature="0" />
	<path style="fill:none;stroke:red;stroke-width:1px;stroke-linecap:butt;stroke-linejoin:miter;stroke-opacity:1" d="M 427.415,41.2233 436.72,41.2233 z" id="boundary" inkscape:connector-curvature="0" />
	<path style="fill:none;stroke:red;stroke-width:1px;stroke-linecap:butt;stroke-linejoin:miter;stroke-opacity:1" d="M 430.206,935.512 439.512,935.512 z" id="boundary" inkscape:connector-curvature="0" />
	<path style="fill:none;stroke:red;stroke-width:1px;stroke-linecap:butt;stroke-linejoin:miter;stroke-opacity:1" d="M 436.72,41.2233 446.026,41.2233 z" id="boundary" inkscape:connector-curvature="0" />
	<path style="fill:none;stroke:red;stroke-width:1px;stroke-linecap:butt;stroke-linejoin:miter;stroke-opacity:1" d="M 439.512,935.512 448.818,935.512 z" id="boundary" inkscape:connector-curvature="0" />
	<path style="fill:none;stroke:red;stroke-width:1px;stroke-linecap:butt;stroke-linejoin:miter;stroke-opacity:1" d="M 446.026,41.2233 455.332,41.2233 z" id="boundary" inkscape:connector-curvature="0" />
	<path style="fill:none;stroke:red;stroke-width:1px;stroke-linecap:butt;stroke-linejoin:miter;stroke-opacity:1" d="M 448.818,935.512 458.124,935.512 z" id="boundary" inkscape:connector-curvature="0" />
	<path style="fill:none;stroke:red;stroke-width:1px;stroke-linecap:butt;stroke-linejoin:miter;stroke-opacity:1" d="M 455.332,41.2233 464.638,41.2233 z" id="boundary" inkscape:connector-curvature="0" />
	<path style="fill:none;stroke:red;stroke-width:1px;stroke-linecap:butt;stroke-linejoin:miter;stroke-opacity:1" d="M 458.124,935.512 475.805,930.859 z" id="boundary" inkscape:connector-curvature="0" />
	<path style="fill:none;stroke:red;stroke-width:1px;stroke-linecap:butt;stroke-linejoin:miter;stroke-opacity:1" d="M 464.638,41.2233 473.944,41.2233 z" id="boundary" inkscape:connector-curvature="0" />
	<path style="fill:none;stroke:red;stroke-width:1px;stroke-linecap:butt;stroke-linejoin:miter;stroke-opacity:1" d="M 473.944,41.2233 483.25,41.2233 z" id="boundary" inkscape:connector-curvature="0" />
	<path style="fill:none;stroke:red;stroke-width:1px;stroke-linecap:butt;stroke-linejoin:miter;stroke-opacity:1" d="M 475.805,930.859 485.111,930.859 z" id="boundary" inkscape:connector-curvature="0" />
	<path style="fill:none;stroke:red;stroke-width:1px;stroke-linecap:butt;stroke-linejoin:miter;stroke-opacity:1" d="M 483.25,41.2233 492.555,41.2233 z" id="boundary" inkscape:connector-curvature="0" />
	<path style="fill:none;stroke:red;stroke-width:1px;stroke-linecap:butt;stroke-linejoin:miter;stroke-opacity:1" d="M 485.111,930.859 494.417,930.859 z" id="boundary" inkscape:connector-curvature="0" />
	<path style="fill:none;stroke:red;stroke-width:1px;stroke-linecap:butt;stroke-linejoin:miter;stroke-opacity:1" d="M 492.555,41.2233 501.861,41.2233 z" id="boundary" inkscape:connector-curvature="0" />
	<path style="fill:none;stroke:red;stroke-width:1px;stroke-linecap:butt;stroke-linejoin:miter;stroke-opacity:1" d="M 501.861,41.2233 511.167,41.2233 z" id="boundary" inkscape:connector-curvature="0" />
	<path style="fill:none;stroke:red;stroke-width:1px;stroke-linecap:butt;stroke-linejoin:miter;stroke-opacity:1" d="M 511.167,41.2233 520.473,41.2233 z" id="boundary" inkscape:connector-curvature="0" />
	<path style="fill:none;stroke:red;stroke-width:1px;stroke-linecap:butt;stroke-linejoin:miter;stroke-opacity:1" d="M 512.098,926.206 521.403,921.553 z" id="boundary" inkscape:connector-curvature="0" />
	<path style="fill:none;stroke:red;stroke-width:1px;stroke-linecap:butt;stroke-linejoin:miter;stroke-opacity:1" d="M 520.473,41.2233 529.779,41.2233 z" id="boundary" inkscape:connector-curvature="0" />
	<path style="fill:none;stroke:red;stroke-width:1px;stroke-linecap:butt;stroke-linejoin:miter;stroke-opacity:1" d="M 521.403,921.553 530.709,921.553 z" id="boundary" inkscape:connector-curvature="0" />
	<path style="fill:none;stroke:red;stroke-width:1px;stroke-linecap:butt;stroke-linejoin:miter;stroke-opacity:1" d="M 529.779,41.2233 539.084,41.2233 z" id="boundary" inkscape:connector-curvature="0" />
	<path style="fill:none;stroke:red;stroke-width:1px;stroke-linecap:butt;stroke-linejoin:miter;stroke-opacity:1" d="M 530.709,921.553 540.015,921.553 z" id="boundary" inkscape:connector-curvature="0" />
	<path style="fill:none;stroke:red;stroke-width:1px;stroke-linecap:butt;stroke-linejoin:miter;stroke-opacity:1" d="M 539.084,41.2233 548.39,41.2233 z" id="boundary" inkscape:connector-curvature="0" />
	<path style="fill:none;stroke:red;stroke-width:1px;stroke-linecap:butt;stroke-linejoin:miter;stroke-opacity:1" d="M 540.015,921.553 548.39,926.206 z" id="boundary" inkscape:connector-curvature="0" />
	<path style="fill:none;stroke:red;stroke-width:1px;stroke-linecap:butt;stroke-linejoin:miter;stroke-opacity:1" d="M 548.39,41.2233 557.696,41.2233 z" id="boundary" inkscape:connector-curvature="0" />
	<path style="fill:none;stroke:red;stroke-width:1px;stroke-linecap:butt;stroke-linejoin:miter;stroke-opacity:1" d="M 557.696,41.2233 567.002,39.3621 z" id="boundary" inkscape:connector-curvature="0" />
	<path style="fill:none;stroke:red;stroke-width:1px;stroke-linecap:butt;stroke-linejoin:miter;stroke-opacity:1" d="M 566.071,930.859 583.752,935.512 z" id="boundary" inkscape:connector-curvature="0" />
	<path style="fill:none;stroke:red;stroke-width:1px;stroke-linecap:butt;stroke-linejoin:miter;stroke-opacity:1" d="M 567.002,39.3621 582.822,27.2645 z" id="boundary" inkscape:connector-curvature="0" />
	<path style="fill:none;stroke:red;stroke-width:1px;stroke-linecap:butt;stroke-linejoin:miter;stroke-opacity:1" d="M 582.822,27.2645 600.503,19.8199 z" id="boundary" inkscape:connector-curvature="0" />
	<path style="fill:none;stroke:red;stroke-width:1px;stroke-linecap:butt;stroke-linejoin:miter;stroke-opacity:1" d="M 583.752,935.512 592.128,940.165 z" id="boundary" inkscape:connector-curvature="0" />
	<path style="fill:none;stroke:red;stroke-width:1px;stroke-linecap:butt;stroke-linejoin:miter;stroke-opacity:1" d="M 592.128,940.165 601.433,942.957 z" id="boundary" inkscape:connector-curvature="0" />
	<path style="fill:none;stroke:red;stroke-width:1px;stroke-linecap:butt;stroke-linejoin:miter;stroke-opacity:1" d="M 595.85,316.675 595.85,325.981 z" id="boundary" inkscape:connector-curvature="0" />
	<path style="fill:none;stroke:red;stroke-width:1px;stroke-linecap:butt;stroke-linejoin:miter;stroke-opacity:1" d="M 595.85,316.675 605.156,312.023 z" id="boundary" inkscape:connector-curvature="0" />
	<path style="fill:none;stroke:red;stroke-width:1px;stroke-linecap:butt;stroke-linejoin:miter;stroke-opacity:1" d="M 595.85,325.981 595.85,335.287 z" id="boundary" inkscape:connector-curvature="0" />
	<path style="fill:none;stroke:red;stroke-width:1px;stroke-linecap:butt;stroke-linejoin:miter;stroke-opacity:1" d="M 595.85,335.287 600.503,343.662 z" id="boundary" inkscape:connector-curvature="0" />
	<path style="fill:none;stroke:red;stroke-width:1px;stroke-linecap:butt;stroke-linejoin:miter;stroke-opacity:1" d="M 600.503,19.8199 609.809,17.9587 z" id="boundary" inkscape:connector-curvature="0" />
	<path style="fill:none;stroke:red;stroke-width:1px;stroke-linecap:butt;stroke-linejoin:miter;stroke-opacity:1" d="M 600.503,343.662 609.809,343.662 z" id="boundary" inkscape:connector-curvature="0" />
	<path style="fill:none;stroke:red;stroke-width:1px;stroke-linecap:butt;stroke-linejoin:miter;stroke-opacity:1" d="M 601.433,942.957 609.809,947.61 z" id="boundary" inkscape:connector-curvature="0" />
	<path style="fill:none;stroke:red;stroke-width:1px;stroke-linecap:butt;stroke-linejoin:miter;stroke-opacity:1" d="M 605.156,312.023 613.531,307.37 z" id="boundary" inkscape:connector-curvature="0" />
	<path style="fill:none;stroke:red;stroke-width:1px;stroke-linecap:butt;stroke-linejoin:miter;stroke-opacity:1" d="M 609.809,343.662 619.114,343.662 z" id="boundary" inkscape:connector-curvature="0" />
	<path style="fill:none;stroke:red;stroke-width:1px;stroke-linecap:butt;stroke-linejoin:miter;stroke-opacity:1" d="M 609.809,947.61 619.114,951.332 z" id="boundary" inkscape:connector-curvature="0" />
	<path style="fill:none;stroke:red;stroke-width:1px;stroke-linecap:butt;stroke-linejoin:miter;stroke-opacity:1" d="M 619.114,20.7505 627.49,25.4034 z" id="boundary" inkscape:connector-curvature="0" />
	<path style="fill:none;stroke:red;stroke-width:1px;stroke-linecap:butt;stroke-linejoin:miter;stroke-opacity:1" d="M 619.114,343.662 626.559,349.246 z" id="boundary" inkscape:connector-curvature="0" />
	<path style="fill:none;stroke:red;stroke-width:1px;stroke-linecap:butt;stroke-linejoin:miter;stroke-opacity:1" d="M 619.114,951.332 625.629,958.777 z" id="boundary" inkscape:connector-curvature="0" />
	<path style="fill:none;stroke:red;stroke-width:1px;stroke-linecap:butt;stroke-linejoin:miter;stroke-opacity:1" d="M 625.629,958.777 633.073,965.291 z" id="boundary" inkscape:connector-curvature="0" />
	<path style="fill:none;stroke:red;stroke-width:1px;stroke-linecap:butt;stroke-linejoin:miter;stroke-opacity:1" d="M 627.49,25.4034 637.726,41.2233 z" id="boundary" inkscape:connector-curvature="0" />
	<path style="fill:none;stroke:red;stroke-width:1px;stroke-linecap:butt;stroke-linejoin:miter;stroke-opacity:1" d="M 630.281,298.064 639.587,298.064 z" id="boundary" inkscape:connector-curvature="0" />
	<path style="fill:none;stroke:red;stroke-width:1px;stroke-linecap:butt;stroke-linejoin:miter;stroke-opacity:1" d="M 633.073,965.291 648.893,976.458 z" id="boundary" inkscape:connector-curvature="0" />
	<path style="fill:none;stroke:red;stroke-width:1px;stroke-linecap:butt;stroke-linejoin:miter;stroke-opacity:1" d="M 637.726,41.2233 637.726,50.5291 z" id="boundary" inkscape:connector-curvature="0" />
	<path style="fill:none;stroke:red;stroke-width:1px;stroke-linecap:butt;stroke-linejoin:miter;stroke-opacity:1" d="M 639.587,298.064 648.893,297.133 z" id="boundary" inkscape:connector-curvature="0" />
	<path style="fill:none;stroke:red;stroke-width:1px;stroke-linecap:butt;stroke-linejoin:miter;stroke-opacity:1" d="M 642.379,68.2101 649.824,74.7242 z" id="boundary" inkscape:connector-curvature="0" />
	<path style="fill:none;stroke:red;stroke-width:1px;stroke-linecap:butt;stroke-linejoin:miter;stroke-opacity:1" d="M 648.893,297.133 658.199,293.411 z" id="boundary" inkscape:connector-curvature="0" />
	<path style="fill:none;stroke:red;stroke-width:1px;stroke-linecap:butt;stroke-linejoin:miter;stroke-opacity:1" d="M 648.893,976.458 655.407,983.902 z" id="boundary" inkscape:connector-curvature="0" />
	<path style="fill:none;stroke:red;stroke-width:1px;stroke-linecap:butt;stroke-linejoin:miter;stroke-opacity:1" d="M 649.824,74.7242 656.338,82.1689 z" id="boundary" inkscape:connector-curvature="0" />
	<path style="fill:none;stroke:red;stroke-width:1px;stroke-linecap:butt;stroke-linejoin:miter;stroke-opacity:1" d="M 655.407,983.902 662.852,990.417 z" id="boundary" inkscape:connector-curvature="0" />
	<path style="fill:none;stroke:red;stroke-width:1px;stroke-linecap:butt;stroke-linejoin:miter;stroke-opacity:1" d="M 656.338,82.1689 663.782,88.6829 z" id="boundary" inkscape:connector-curvature="0" />
	<path style="fill:none;stroke:red;stroke-width:1px;stroke-linecap:butt;stroke-linejoin:miter;stroke-opacity:1" d="M 658.199,293.411 666.574,288.758 z" id="boundary" inkscape:connector-curvature="0" />
	<path style="fill:none;stroke:red;stroke-width:1px;stroke-linecap:butt;stroke-linejoin:miter;stroke-opacity:1" d="M 662.852,990.417 679.602,996 z" id="boundary" inkscape:connector-curvature="0" />
	<path style="fill:none;stroke:red;stroke-width:1px;stroke-linecap:butt;stroke-linejoin:miter;stroke-opacity:1" d="M 663.782,88.6829 670.296,96.1276 z" id="boundary" inkscape:connector-curvature="0" />
	<path style="fill:none;stroke:red;stroke-width:1px;stroke-linecap:butt;stroke-linejoin:miter;stroke-opacity:1" d="M 667.505,380.886 676.811,380.886 z" id="boundary" inkscape:connector-curvature="0" />
	<path style="fill:none;stroke:red;stroke-width:1px;stroke-linecap:butt;stroke-linejoin:miter;stroke-opacity:1" d="M 676.811,380.886 686.116,380.886 z" id="boundary" inkscape:connector-curvature="0" />
	<path style="fill:none;stroke:red;stroke-width:1px;stroke-linecap:butt;stroke-linejoin:miter;stroke-opacity:1" d="M 679.602,996 688.908,996 z" id="boundary" inkscape:connector-curvature="0" />
	<path style="fill:none;stroke:red;stroke-width:1px;stroke-linecap:butt;stroke-linejoin:miter;stroke-opacity:1" d="M 684.255,274.799 688.908,265.493 z" id="boundary" inkscape:connector-curvature="0" />
	<path style="fill:none;stroke:red;stroke-width:1px;stroke-linecap:butt;stroke-linejoin:miter;stroke-opacity:1" d="M 686.116,106.364 692.63,113.809 z" id="boundary" inkscape:connector-curvature="0" />
	<path style="fill:none;stroke:red;stroke-width:1px;stroke-linecap:butt;stroke-linejoin:miter;stroke-opacity:1" d="M 686.116,380.886 695.422,380.886 z" id="boundary" inkscape:connector-curvature="0" />
	<path style="fill:none;stroke:red;stroke-width:1px;stroke-linecap:butt;stroke-linejoin:miter;stroke-opacity:1" d="M 688.908,996 698.214,996 z" id="boundary" inkscape:connector-curvature="0" />
	<path style="fill:none;stroke:red;stroke-width:1px;stroke-linecap:butt;stroke-linejoin:miter;stroke-opacity:1" d="M 692.63,113.809 698.214,121.253 z" id="boundary" inkscape:connector-curvature="0" />
	<path style="fill:none;stroke:red;stroke-width:1px;stroke-linecap:butt;stroke-linejoin:miter;stroke-opacity:1" d="M 695.422,380.886 704.728,380.886 z" id="boundary" inkscape:connector-curvature="0" />
	<path style="fill:none;stroke:red;stroke-width:1px;stroke-linecap:butt;stroke-linejoin:miter;stroke-opacity:1" d="M 698.214,260.841 705.659,254.326 z" id="boundary" inkscape:connector-curvature="0" />
	<path style="fill:none;stroke:red;stroke-width:1px;stroke-linecap:butt;stroke-linejoin:miter;stroke-opacity:1" d="M 698.214,996 707.52,996 z" id="boundary" inkscape:connector-curvature="0" />
	<path style="fill:none;stroke:red;stroke-width:1px;stroke-linecap:butt;stroke-linejoin:miter;stroke-opacity:1" d="M 704.728,380.886 713.103,385.538 z" id="boundary" inkscape:connector-curvature="0" />
	<path style="fill:none;stroke:red;stroke-width:1px;stroke-linecap:butt;stroke-linejoin:miter;stroke-opacity:1" d="M 705.659,254.326 712.173,246.882 z" id="boundary" inkscape:connector-curvature="0" />
	<path style="fill:none;stroke:red;stroke-width:1px;stroke-linecap:butt;stroke-linejoin:miter;stroke-opacity:1" d="M 707.52,996 716.826,996 z" id="boundary" inkscape:connector-curvature="0" />
	<path style="fill:none;stroke:red;stroke-width:1px;stroke-linecap:butt;stroke-linejoin:miter;stroke-opacity:1" d="M 713.103,385.538 716.826,394.844 z" id="boundary" inkscape:connector-curvature="0" />
	<path style="fill:none;stroke:red;stroke-width:1px;stroke-linecap:butt;stroke-linejoin:miter;stroke-opacity:1" d="M 716.826,394.844 726.131,411.595 z" id="boundary" inkscape:connector-curvature="0" />
	<path style="fill:none;stroke:red;stroke-width:1px;stroke-linecap:butt;stroke-linejoin:miter;stroke-opacity:1" d="M 716.826,996 726.131,996 z" id="boundary" inkscape:connector-curvature="0" />
	<path style="fill:none;stroke:red;stroke-width:1px;stroke-linecap:butt;stroke-linejoin:miter;stroke-opacity:1" d="M 726.131,411.595 729.854,420.901 z" id="boundary" inkscape:connector-curvature="0" />
	<path style="fill:none;stroke:red;stroke-width:1px;stroke-linecap:butt;stroke-linejoin:miter;stroke-opacity:1" d="M 729.854,420.901 734.507,429.276 z" id="boundary" inkscape:connector-curvature="0" />
	<path style="fill:none;stroke:red;stroke-width:1px;stroke-linecap:butt;stroke-linejoin:miter;stroke-opacity:1" d="M 734.507,429.276 740.09,436.72 z" id="boundary" inkscape:connector-curvature="0" />
	<path style="fill:none;stroke:red;stroke-width:1px;stroke-linecap:butt;stroke-linejoin:miter;stroke-opacity:1" d="M 740.09,436.72 747.535,442.304 z" id="boundary" inkscape:connector-curvature="0" />
	<path style="fill:none;stroke:red;stroke-width:1px;stroke-linecap:butt;stroke-linejoin:miter;stroke-opacity:1" d="M 740.09,977.388 747.535,970.874 z" id="boundary" inkscape:connector-curvature="0" />
	<path style="fill:none;stroke:red;stroke-width:1px;stroke-linecap:butt;stroke-linejoin:miter;stroke-opacity:1" d="M 747.535,442.304 754.049,449.749 z" id="boundary" inkscape:connector-curvature="0" />
	<path style="fill:none;stroke:red;stroke-width:1px;stroke-linecap:butt;stroke-linejoin:miter;stroke-opacity:1" d="M 747.535,970.874 754.049,963.43 z" id="boundary" inkscape:connector-curvature="0" />
	<path style="fill:none;stroke:red;stroke-width:1px;stroke-linecap:butt;stroke-linejoin:miter;stroke-opacity:1" d="M 754.049,449.749 761.493,455.332 z" id="boundary" inkscape:connector-curvature="0" />
	<path style="fill:none;stroke:red;stroke-width:1px;stroke-linecap:butt;stroke-linejoin:miter;stroke-opacity:1" d="M 754.049,963.43 761.493,956.916 z" id="boundary" inkscape:connector-curvature="0" />
	<path style="fill:none;stroke:red;stroke-width:1px;stroke-linecap:butt;stroke-linejoin:miter;stroke-opacity:1" d="M 761.493,455.332 778.244,464.638 z" id="boundary" inkscape:connector-curvature="0" />
	<path style="fill:none;stroke:red;stroke-width:1px;stroke-linecap:butt;stroke-linejoin:miter;stroke-opacity:1" d="M 761.493,956.916 768.008,949.471 z" id="boundary" inkscape:connector-curvature="0" />
	<path style="fill:none;stroke:red;stroke-width:1px;stroke-linecap:butt;stroke-linejoin:miter;stroke-opacity:1" d="M 778.244,464.638 789.411,480.458 z" id="boundary" inkscape:connector-curvature="0" />
	<path style="fill:none;stroke:red;stroke-width:1px;stroke-linecap:butt;stroke-linejoin:miter;stroke-opacity:1" d="M 780.105,933.651 786.619,926.206 z" id="boundary" inkscape:connector-curvature="0" />
	<path style="fill:none;stroke:red;stroke-width:1px;stroke-linecap:butt;stroke-linejoin:miter;stroke-opacity:1" d="M 786.619,926.206 794.064,919.692 z" id="boundary" inkscape:connector-curvature="0" />
	<path style="fill:none;stroke:red;stroke-width:1px;stroke-linecap:butt;stroke-linejoin:miter;stroke-opacity:1" d="M 789.411,480.458 795.925,487.902 z" id="boundary" inkscape:connector-curvature="0" />
	<path style="fill:none;stroke:red;stroke-width:1px;stroke-linecap:butt;stroke-linejoin:miter;stroke-opacity:1" d="M 794.064,919.692 800.578,912.248 z" id="boundary" inkscape:connector-curvature="0" />
	<path style="fill:none;stroke:red;stroke-width:1px;stroke-linecap:butt;stroke-linejoin:miter;stroke-opacity:1" d="M 795.925,487.902 803.37,493.486 z" id="boundary" inkscape:connector-curvature="0" />
	<path style="fill:none;stroke:red;stroke-width:1px;stroke-linecap:butt;stroke-linejoin:miter;stroke-opacity:1" d="M 803.37,493.486 814.537,509.306 z" id="boundary" inkscape:connector-curvature="0" />
	<path style="fill:none;stroke:red;stroke-width:1px;stroke-linecap:butt;stroke-linejoin:miter;stroke-opacity:1" d="M 814.537,509.306 819.189,517.681 z" id="boundary" inkscape:connector-curvature="0" />
	<path style="fill:none;stroke:red;stroke-width:1px;stroke-linecap:butt;stroke-linejoin:miter;stroke-opacity:1" d="M 819.189,517.681 824.773,525.126 z" id="boundary" inkscape:connector-curvature="0" />
	<path style="fill:none;stroke:red;stroke-width:1px;stroke-linecap:butt;stroke-linejoin:miter;stroke-opacity:1" d="M 824.773,525.126 832.218,531.64 z" id="boundary" inkscape:connector-curvature="0" />
	<path style="fill:none;stroke:red;stroke-width:1px;stroke-linecap:butt;stroke-linejoin:miter;stroke-opacity:1" d="M 832.218,531.64 837.801,539.084 z" id="boundary" inkscape:connector-curvature="0" />
	<path style="fill:none;stroke:red;stroke-width:1px;stroke-linecap:butt;stroke-linejoin:miter;stroke-opacity:1" d="M 837.801,539.084 847.107,555.835 z" id="boundary" inkscape:connector-curvature="0" />
	<path style="fill:none;stroke:red;stroke-width:1px;stroke-linecap:butt;stroke-linejoin:miter;stroke-opacity:1" d="M 842.454,856.413 847.107,847.107 z" id="boundary" inkscape:connector-curvature="0" />
	<path style="fill:none;stroke:red;stroke-width:1px;stroke-linecap:butt;stroke-linejoin:miter;stroke-opacity:1" d="M 847.107,555.835 853.621,563.28 z" id="boundary" inkscape:connector-curvature="0" />
	<path style="fill:none;stroke:red;stroke-width:1px;stroke-linecap:butt;stroke-linejoin:miter;stroke-opacity:1" d="M 847.107,679.602 847.107,688.908 z" id="boundary" inkscape:connector-curvature="0" />
	<path style="fill:none;stroke:red;stroke-width:1px;stroke-linecap:butt;stroke-linejoin:miter;stroke-opacity:1" d="M 847.107,679.602 854.552,673.088 z" id="boundary" inkscape:connector-curvature="0" />
	<path style="fill:none;stroke:red;stroke-width:1px;stroke-linecap:butt;stroke-linejoin:miter;stroke-opacity:1" d="M 847.107,688.908 847.107,698.214 z" id="boundary" inkscape:connector-curvature="0" />
	<path style="fill:none;stroke:red;stroke-width:1px;stroke-linecap:butt;stroke-linejoin:miter;stroke-opacity:1" d="M 847.107,847.107 851.76,837.801 z" id="boundary" inkscape:connector-curvature="0" />
	<path style="fill:none;stroke:red;stroke-width:1px;stroke-linecap:butt;stroke-linejoin:miter;stroke-opacity:1" d="M 851.76,837.801 856.413,828.495 z" id="boundary" inkscape:connector-curvature="0" />
	<path style="fill:none;stroke:red;stroke-width:1px;stroke-linecap:butt;stroke-linejoin:miter;stroke-opacity:1" d="M 853.621,563.28 864.788,579.099 z" id="boundary" inkscape:connector-curvature="0" />
	<path style="fill:none;stroke:red;stroke-width:1px;stroke-linecap:butt;stroke-linejoin:miter;stroke-opacity:1" d="M 854.552,673.088 861.066,665.644 z" id="boundary" inkscape:connector-curvature="0" />
	<path style="fill:none;stroke:red;stroke-width:1px;stroke-linecap:butt;stroke-linejoin:miter;stroke-opacity:1" d="M 856.413,828.495 861.066,819.189 z" id="boundary" inkscape:connector-curvature="0" />
	<path style="fill:none;stroke:red;stroke-width:1px;stroke-linecap:butt;stroke-linejoin:miter;stroke-opacity:1" d="M 861.066,665.644 873.163,649.824 z" id="boundary" inkscape:connector-curvature="0" />
	<path style="fill:none;stroke:red;stroke-width:1px;stroke-linecap:butt;stroke-linejoin:miter;stroke-opacity:1" d="M 861.066,819.189 865.719,806.161 z" id="boundary" inkscape:connector-curvature="0" />
	<path style="fill:none;stroke:red;stroke-width:1px;stroke-linecap:butt;stroke-linejoin:miter;stroke-opacity:1" d="M 864.788,579.099 865.719,588.405 z" id="boundary" inkscape:connector-curvature="0" />
	<path style="fill:none;stroke:red;stroke-width:1px;stroke-linecap:butt;stroke-linejoin:miter;stroke-opacity:1" d="M 865.719,588.405 869.441,597.711 z" id="boundary" inkscape:connector-curvature="0" />
	<path style="fill:none;stroke:red;stroke-width:1px;stroke-linecap:butt;stroke-linejoin:miter;stroke-opacity:1" d="M 865.719,731.715 865.719,741.021 z" id="boundary" inkscape:connector-curvature="0" />
	<path style="fill:none;stroke:red;stroke-width:1px;stroke-linecap:butt;stroke-linejoin:miter;stroke-opacity:1" d="M 865.719,741.021 865.719,750.326 z" id="boundary" inkscape:connector-curvature="0" />
	<path style="fill:none;stroke:red;stroke-width:1px;stroke-linecap:butt;stroke-linejoin:miter;stroke-opacity:1" d="M 865.719,750.326 865.719,759.632 z" id="boundary" inkscape:connector-curvature="0" />
	<path style="fill:none;stroke:red;stroke-width:1px;stroke-linecap:butt;stroke-linejoin:miter;stroke-opacity:1" d="M 865.719,759.632 865.719,768.938 z" id="boundary" inkscape:connector-curvature="0" />
	<path style="fill:none;stroke:red;stroke-width:1px;stroke-linecap:butt;stroke-linejoin:miter;stroke-opacity:1" d="M 865.719,768.938 865.719,778.244 z" id="boundary" inkscape:connector-curvature="0" />
	<path style="fill:none;stroke:red;stroke-width:1px;stroke-linecap:butt;stroke-linejoin:miter;stroke-opacity:1" d="M 865.719,778.244 865.719,787.55 z" id="boundary" inkscape:connector-curvature="0" />
	<path style="fill:none;stroke:red;stroke-width:1px;stroke-linecap:butt;stroke-linejoin:miter;stroke-opacity:1" d="M 865.719,787.55 865.719,796.856 z" id="boundary" inkscape:connector-curvature="0" />
	<path style="fill:none;stroke:red;stroke-width:1px;stroke-linecap:butt;stroke-linejoin:miter;stroke-opacity:1" d="M 865.719,796.856 865.719,806.161 z" id="boundary" inkscape:connector-curvature="0" />
	<path style="fill:none;stroke:red;stroke-width:1px;stroke-linecap:butt;stroke-linejoin:miter;stroke-opacity:1" d="M 869.441,597.711 879.677,613.531 z" id="boundary" inkscape:connector-curvature="0" />
	<path style="fill:none;stroke:red;stroke-width:1px;stroke-linecap:butt;stroke-linejoin:miter;stroke-opacity:1" d="M 873.163,649.824 875.024,637.726 z" id="boundary" inkscape:connector-curvature="0" />
	<path style="fill:none;stroke:red;stroke-width:1px;stroke-linecap:butt;stroke-linejoin:miter;stroke-opacity:1" d="M 875.024,628.42 875.024,637.726 z" id="boundary" inkscape:connector-curvature="0" />
	<path style="fill:none;stroke:red;stroke-width:1px;stroke-linecap:butt;stroke-linejoin:miter;stroke-opacity:1" d="M 875.024,628.42 879.677,613.531 z" id="boundary" inkscape:connector-curvature="0" />
	<circle cx="4" cy="690.769" r="4" fill="#0" id="circle0"/>
	<circle cx="4" cy="700.075" r="4" fill="#0" id="circle1"/>
	<circle cx="4" cy="709.381" r="4" fill="#0" id="circle2"/>
	<circle cx="4" cy="718.687" r="4" fill="#0" id="circle3"/>
	<circle cx="4" cy="727.992" r="4" fill="#0" id="circle4"/>
	<circle cx="4" cy="737.298" r="4" fill="#0" id="circle5"/>
	<circle cx="4" cy="746.604" r="4" fill="#0" id="circle6"/>
	<circle cx="4" cy="755.91" r="4" fill="#0" id="circle7"/>
	<circle cx="4" cy="765.216" r="4" fill="#0" id="circle8"/>
	<circle cx="4" cy="774.522" r="4" fill="#0" id="circle9"/>
	<circle cx="8.65291" cy="681.463" r="4" fill="#0" id="circle10"/>
	<circle cx="8.65291" cy="782.897" r="4" fill="#0" id="circle11"/>
	<circle cx="8.65291" cy="792.203" r="4" fill="#0" id="circle12"/>
	<circle cx="13.3058" cy="800.578" r="4" fill="#0" id="circle13"/>
	<circle cx="17.9587" cy="676.811" r="4" fill="#0" id="circle14"/>
	<circle cx="17.9587" cy="808.953" r="4" fill="#0" id="circle15"/>
	<circle cx="22.6116" cy="817.328" r="4" fill="#0" id="circle16"/>
	<circle cx="27.2645" cy="420.901" r="4" fill="#0" id="circle17"/>
	<circle cx="27.2645" cy="430.206" r="4" fill="#0" id="circle18"/>
	<circle cx="27.2645" cy="439.512" r="4" fill="#0" id="circle19"/>
	<circle cx="27.2645" cy="448.818" r="4" fill="#0" id="circle20"/>
	<circle cx="27.2645" cy="458.124" r="4" fill="#0" id="circle21"/>
	<circle cx="27.2645" cy="467.43" r="4" fill="#0" id="circle22"/>
	<circle cx="27.2645" cy="476.735" r="4" fill="#0" id="circle23"/>
	<circle cx="27.2645" cy="486.041" r="4" fill="#0" id="circle24"/>
	<circle cx="27.2645" cy="495.347" r="4" fill="#0" id="circle25"/>
	<circle cx="27.2645" cy="674.019" r="4" fill="#0" id="circle26"/>
	<circle cx="27.2645" cy="825.704" r="4" fill="#0" id="circle27"/>
	<circle cx="31.9174" cy="411.595" r="4" fill="#0" id="circle28"/>
	<circle cx="31.9174" cy="503.722" r="4" fill="#0" id="circle29"/>
	<circle cx="31.9174" cy="513.028" r="4" fill="#0" id="circle30"/>
	<circle cx="31.9174" cy="834.079" r="4" fill="#0" id="circle31"/>
	<circle cx="36.5704" cy="402.289" r="4" fill="#0" id="circle32"/>
	<circle cx="36.5704" cy="521.403" r="4" fill="#0" id="circle33"/>
	<circle cx="36.5704" cy="672.158" r="4" fill="#0" id="circle34"/>
	<circle cx="36.5704" cy="842.454" r="4" fill="#0" id="circle35"/>
	<circle cx="41.2233" cy="392.983" r="4" fill="#0" id="circle36"/>
	<circle cx="41.2233" cy="850.829" r="4" fill="#0" id="circle37"/>
	<circle cx="42.1538" cy="528.848" r="4" fill="#0" id="circle38"/>
	<circle cx="45.8762" cy="383.677" r="4" fill="#0" id="circle39"/>
	<circle cx="45.8762" cy="669.366" r="4" fill="#0" id="circle40"/>
	<circle cx="45.8762" cy="859.205" r="4" fill="#0" id="circle41"/>
	<circle cx="46.8068" cy="537.223" r="4" fill="#0" id="circle42"/>
	<circle cx="50.5291" cy="867.58" r="4" fill="#0" id="circle43"/>
	<circle cx="53.3208" cy="376.233" r="4" fill="#0" id="circle44"/>
	<circle cx="53.3208" cy="544.668" r="4" fill="#0" id="circle45"/>
	<circle cx="55.182" cy="669.366" r="4" fill="#0" id="circle46"/>
	<circle cx="57.9737" cy="874.094" r="4" fill="#0" id="circle47"/>
	<circle cx="59.8349" cy="883.4" r="4" fill="#0" id="circle48"/>
	<circle cx="61.6961" cy="371.58" r="4" fill="#0" id="circle49"/>
	<circle cx="61.6961" cy="549.321" r="4" fill="#0" id="circle50"/>
	<circle cx="64.4878" cy="669.366" r="4" fill="#0" id="circle51"/>
	<circle cx="64.4878" cy="891.775" r="4" fill="#0" id="circle52"/>
	<circle cx="69.1407" cy="365.066" r="4" fill="#0" id="circle53"/>
	<circle cx="69.1407" cy="900.15" r="4" fill="#0" id="circle54"/>
	<circle cx="69.1407" cy="909.456" r="4" fill="#0" id="circle55"/>
	<circle cx="70.0713" cy="553.974" r="4" fill="#0" id="circle56"/>
	<circle cx="73.7936" cy="669.366" r="4" fill="#0" id="circle57"/>
	<circle cx="73.7936" cy="917.831" r="4" fill="#0" id="circle58"/>
	<circle cx="76.5854" cy="357.621" r="4" fill="#0" id="circle59"/>
	<circle cx="78.4465" cy="558.627" r="4" fill="#0" id="circle60"/>
	<circle cx="80.3077" cy="925.276" r="4" fill="#0" id="circle61"/>
	<circle cx="83.0994" cy="346.454" r="4" fill="#0" id="circle62"/>
	<circle cx="83.0994" cy="669.366" r="4" fill="#0" id="circle63"/>
	<circle cx="86.8218" cy="563.28" r="4" fill="#0" id="circle64"/>
	<circle cx="87.7523" cy="930.859" r="4" fill="#0" id="circle65"/>
	<circle cx="91.4747" cy="664.713" r="4" fill="#0" id="circle66"/>
	<circle cx="92.4053" cy="341.801" r="4" fill="#0" id="circle67"/>
	<circle cx="93.3358" cy="938.304" r="4" fill="#0" id="circle68"/>
	<circle cx="95.197" cy="567.932" r="4" fill="#0" id="circle69"/>
	<circle cx="100.78" cy="665.644" r="4" fill="#0" id="circle70"/>
	<circle cx="100.78" cy="944.818" r="4" fill="#0" id="circle71"/>
	<circle cx="101.711" cy="339.009" r="4" fill="#0" id="circle72"/>
	<circle cx="104.503" cy="567.932" r="4" fill="#0" id="circle73"/>
	<circle cx="109.156" cy="670.296" r="4" fill="#0" id="circle74"/>
	<circle cx="110.086" cy="944.818" r="4" fill="#0" id="circle75"/>
	<circle cx="111.017" cy="339.009" r="4" fill="#0" id="circle76"/>
	<circle cx="112.878" cy="572.585" r="4" fill="#0" id="circle77"/>
	<circle cx="113.809" cy="678.672" r="4" fill="#0" id="circle78"/>
	<circle cx="119.392" cy="944.818" r="4" fill="#0" id="circle79"/>
	<circle cx="120.323" cy="340.871" r="4" fill="#0" id="circle80"/>
	<circle cx="120.323" cy="686.116" r="4" fill="#0" id="circle81"/>
	<circle cx="122.184" cy="575.377" r="4" fill="#0" id="circle82"/>
	<circle cx="127.767" cy="692.63" r="4" fill="#0" id="circle83"/>
	<circle cx="128.698" cy="345.523" r="4" fill="#0" id="circle84"/>
	<circle cx="128.698" cy="944.818" r="4" fill="#0" id="circle85"/>
	<circle cx="130.559" cy="701.936" r="4" fill="#0" id="circle86"/>
	<circle cx="131.49" cy="577.238" r="4" fill="#0" id="circle87"/>
	<circle cx="135.212" cy="352.968" r="4" fill="#0" id="circle88"/>
	<circle cx="135.212" cy="710.311" r="4" fill="#0" id="circle89"/>
	<circle cx="138.004" cy="944.818" r="4" fill="#0" id="circle90"/>
	<circle cx="139.865" cy="361.343" r="4" fill="#0" id="circle91"/>
	<circle cx="140.795" cy="580.03" r="4" fill="#0" id="circle92"/>
	<circle cx="142.657" cy="716.826" r="4" fill="#0" id="circle93"/>
	<circle cx="144.518" cy="369.719" r="4" fill="#0" id="circle94"/>
	<circle cx="147.31" cy="944.818" r="4" fill="#0" id="circle95"/>
	<circle cx="148.24" cy="586.544" r="4" fill="#0" id="circle96"/>
	<circle cx="149.171" cy="724.27" r="4" fill="#0" id="circle97"/>
	<circle cx="151.032" cy="377.163" r="4" fill="#0" id="circle98"/>
	<circle cx="153.824" cy="593.989" r="4" fill="#0" id="circle99"/>
	<circle cx="155.685" cy="385.538" r="4" fill="#0" id="circle100"/>
	<circle cx="156.615" cy="730.784" r="4" fill="#0" id="circle101"/>
	<circle cx="156.615" cy="944.818" r="4" fill="#0" id="circle102"/>
	<circle cx="158.477" cy="394.844" r="4" fill="#0" id="circle103"/>
	<circle cx="158.477" cy="602.364" r="4" fill="#0" id="circle104"/>
	<circle cx="162.199" cy="202.214" r="4" fill="#0" id="circle105"/>
	<circle cx="162.199" cy="211.52" r="4" fill="#0" id="circle106"/>
	<circle cx="162.199" cy="220.826" r="4" fill="#0" id="circle107"/>
	<circle cx="162.199" cy="230.131" r="4" fill="#0" id="circle108"/>
	<circle cx="162.199" cy="239.437" r="4" fill="#0" id="circle109"/>
	<circle cx="163.129" cy="738.229" r="4" fill="#0" id="circle110"/>
	<circle cx="165.921" cy="400.428" r="4" fill="#0" id="circle111"/>
	<circle cx="165.921" cy="944.818" r="4" fill="#0" id="circle112"/>
	<circle cx="166.852" cy="192.908" r="4" fill="#0" id="circle113"/>
	<circle cx="166.852" cy="247.812" r="4" fill="#0" id="circle114"/>
	<circle cx="166.852" cy="257.118" r="4" fill="#0" id="circle115"/>
	<circle cx="166.852" cy="607.017" r="4" fill="#0" id="circle116"/>
	<circle cx="169.644" cy="409.734" r="4" fill="#0" id="circle117"/>
	<circle cx="170.574" cy="744.743" r="4" fill="#0" id="circle118"/>
	<circle cx="171.505" cy="265.493" r="4" fill="#0" id="circle119"/>
	<circle cx="174.296" cy="185.463" r="4" fill="#0" id="circle120"/>
	<circle cx="174.296" cy="274.799" r="4" fill="#0" id="circle121"/>
	<circle cx="174.296" cy="613.531" r="4" fill="#0" id="circle122"/>
	<circle cx="174.296" cy="940.165" r="4" fill="#0" id="circle123"/>
	<circle cx="177.088" cy="752.188" r="4" fill="#0" id="circle124"/>
	<circle cx="178.949" cy="176.158" r="4" fill="#0" id="circle125"/>
	<circle cx="178.949" cy="283.174" r="4" fill="#0" id="circle126"/>
	<circle cx="178.949" cy="413.456" r="4" fill="#0" id="circle127"/>
	<circle cx="182.672" cy="618.184" r="4" fill="#0" id="circle128"/>
	<circle cx="183.602" cy="940.165" r="4" fill="#0" id="circle129"/>
	<circle cx="184.533" cy="757.771" r="4" fill="#0" id="circle130"/>
	<circle cx="186.394" cy="168.713" r="4" fill="#0" id="circle131"/>
	<circle cx="186.394" cy="288.758" r="4" fill="#0" id="circle132"/>
	<circle cx="188.255" cy="413.456" r="4" fill="#0" id="circle133"/>
	<circle cx="190.116" cy="623.767" r="4" fill="#0" id="circle134"/>
	<circle cx="190.116" cy="633.073" r="4" fill="#0" id="circle135"/>
	<circle cx="191.977" cy="935.512" r="4" fill="#0" id="circle136"/>
	<circle cx="192.908" cy="762.424" r="4" fill="#0" id="circle137"/>
	<circle cx="193.839" cy="162.199" r="4" fill="#0" id="circle138"/>
	<circle cx="194.769" cy="293.411" r="4" fill="#0" id="circle139"/>
	<circle cx="194.769" cy="641.448" r="4" fill="#0" id="circle140"/>
	<circle cx="194.769" cy="650.754" r="4" fill="#0" id="circle141"/>
	<circle cx="196.63" cy="660.06" r="4" fill="#0" id="circle142"/>
	<circle cx="197.561" cy="413.456" r="4" fill="#0" id="circle143"/>
	<circle cx="199.422" cy="669.366" r="4" fill="#0" id="circle144"/>
	<circle cx="199.422" cy="678.672" r="4" fill="#0" id="circle145"/>
	<circle cx="199.422" cy="687.977" r="4" fill="#0" id="circle146"/>
	<circle cx="199.422" cy="697.283" r="4" fill="#0" id="circle147"/>
	<circle cx="201.283" cy="935.512" r="4" fill="#0" id="circle148"/>
	<circle cx="202.214" cy="157.546" r="4" fill="#0" id="circle149"/>
	<circle cx="202.214" cy="762.424" r="4" fill="#0" id="circle150"/>
	<circle cx="203.144" cy="298.064" r="4" fill="#0" id="circle151"/>
	<circle cx="204.075" cy="705.659" r="4" fill="#0" id="circle152"/>
	<circle cx="204.075" cy="714.964" r="4" fill="#0" id="circle153"/>
	<circle cx="204.075" cy="724.27" r="4" fill="#0" id="circle154"/>
	<circle cx="204.075" cy="733.576" r="4" fill="#0" id="circle155"/>
	<circle cx="204.075" cy="742.882" r="4" fill="#0" id="circle156"/>
	<circle cx="204.075" cy="752.188" r="4" fill="#0" id="circle157"/>
	<circle cx="206.867" cy="413.456" r="4" fill="#0" id="circle158"/>
	<circle cx="210.589" cy="152.893" r="4" fill="#0" id="circle159"/>
	<circle cx="210.589" cy="935.512" r="4" fill="#0" id="circle160"/>
	<circle cx="212.45" cy="298.064" r="4" fill="#0" id="circle161"/>
	<circle cx="216.173" cy="413.456" r="4" fill="#0" id="circle162"/>
	<circle cx="219.895" cy="152.893" r="4" fill="#0" id="circle163"/>
	<circle cx="219.895" cy="935.512" r="4" fill="#0" id="circle164"/>
	<circle cx="220.826" cy="302.717" r="4" fill="#0" id="circle165"/>
	<circle cx="224.548" cy="408.803" r="4" fill="#0" id="circle166"/>
	<circle cx="228.27" cy="148.24" r="4" fill="#0" id="circle167"/>
	<circle cx="229.201" cy="935.512" r="4" fill="#0" id="circle168"/>
	<circle cx="230.131" cy="302.717" r="4" fill="#0" id="circle169"/>
	<circle cx="233.854" cy="408.803" r="4" fill="#0" id="circle170"/>
	<circle cx="237.576" cy="148.24" r="4" fill="#0" id="circle171"/>
	<circle cx="238.507" cy="935.512" r="4" fill="#0" id="circle172"/>
	<circle cx="239.437" cy="302.717" r="4" fill="#0" id="circle173"/>
	<circle cx="243.159" cy="408.803" r="4" fill="#0" id="circle174"/>
	<circle cx="246.882" cy="148.24" r="4" fill="#0" id="circle175"/>
	<circle cx="247.812" cy="935.512" r="4" fill="#0" id="circle176"/>
	<circle cx="248.743" cy="302.717" r="4" fill="#0" id="circle177"/>
	<circle cx="250.604" cy="312.023" r="4" fill="#0" id="circle178"/>
	<circle cx="250.604" cy="321.328" r="4" fill="#0" id="circle179"/>
	<circle cx="250.604" cy="330.634" r="4" fill="#0" id="circle180"/>
	<circle cx="252.465" cy="405.081" r="4" fill="#0" id="circle181"/>
	<circle cx="255.257" cy="339.009" r="4" fill="#0" id="circle182"/>
	<circle cx="255.257" cy="348.315" r="4" fill="#0" id="circle183"/>
	<circle cx="256.188" cy="145.448" r="4" fill="#0" id="circle184"/>
	<circle cx="257.118" cy="935.512" r="4" fill="#0" id="circle185"/>
	<circle cx="259.91" cy="356.69" r="4" fill="#0" id="circle186"/>
	<circle cx="260.841" cy="136.143" r="4" fill="#0" id="circle187"/>
	<circle cx="261.771" cy="404.15" r="4" fill="#0" id="circle188"/>
	<circle cx="264.563" cy="365.066" r="4" fill="#0" id="circle189"/>
	<circle cx="266.424" cy="935.512" r="4" fill="#0" id="circle190"/>
	<circle cx="268.285" cy="129.629" r="4" fill="#0" id="circle191"/>
	<circle cx="269.216" cy="373.441" r="4" fill="#0" id="circle192"/>
	<circle cx="269.216" cy="382.747" r="4" fill="#0" id="circle193"/>
	<circle cx="269.216" cy="392.053" r="4" fill="#0" id="circle194"/>
	<circle cx="273.869" cy="118.462" r="4" fill="#0" id="circle195"/>
	<circle cx="275.73" cy="935.512" r="4" fill="#0" id="circle196"/>
	<circle cx="278.522" cy="34.7092" r="4" fill="#0" id="circle197"/>
	<circle cx="278.522" cy="44.015" r="4" fill="#0" id="circle198"/>
	<circle cx="278.522" cy="53.3208" r="4" fill="#0" id="circle199"/>
	<circle cx="278.522" cy="62.6266" r="4" fill="#0" id="circle200"/>
	<circle cx="278.522" cy="71.9325" r="4" fill="#0" id="circle201"/>
	<circle cx="278.522" cy="81.2383" r="4" fill="#0" id="circle202"/>
	<circle cx="278.522" cy="90.5441" r="4" fill="#0" id="circle203"/>
	<circle cx="278.522" cy="99.8499" r="4" fill="#0" id="circle204"/>
	<circle cx="278.522" cy="109.156" r="4" fill="#0" id="circle205"/>
	<circle cx="283.174" cy="25.4034" r="4" fill="#0" id="circle206"/>
	<circle cx="283.174" cy="928.068" r="4" fill="#0" id="circle207"/>
	<circle cx="288.758" cy="916.901" r="4" fill="#0" id="circle208"/>
	<circle cx="290.619" cy="17.9587" r="4" fill="#0" id="circle209"/>
	<circle cx="293.411" cy="907.595" r="4" fill="#0" id="circle210"/>
	<circle cx="295.272" cy="8.65291" r="4" fill="#0" id="circle211"/>
	<circle cx="301.786" cy="902.942" r="4" fill="#0" id="circle212"/>
	<circle cx="304.578" cy="4" r="4" fill="#0" id="circle213"/>
	<circle cx="310.161" cy="898.289" r="4" fill="#0" id="circle214"/>
	<circle cx="313.884" cy="4" r="4" fill="#0" id="circle215"/>
	<circle cx="319.467" cy="898.289" r="4" fill="#0" id="circle216"/>
	<circle cx="323.189" cy="4" r="4" fill="#0" id="circle217"/>
	<circle cx="328.773" cy="898.289" r="4" fill="#0" id="circle218"/>
	<circle cx="331.565" cy="8.65291" r="4" fill="#0" id="circle219"/>
	<circle cx="335.287" cy="905.734" r="4" fill="#0" id="circle220"/>
	<circle cx="339.94" cy="13.3058" r="4" fill="#0" id="circle221"/>
	<circle cx="339.94" cy="914.109" r="4" fill="#0" id="circle222"/>
	<circle cx="348.315" cy="918.762" r="4" fill="#0" id="circle223"/>
	<circle cx="349.246" cy="13.3058" r="4" fill="#0" id="circle224"/>
	<circle cx="357.621" cy="17.9587" r="4" fill="#0" id="circle225"/>
	<circle cx="357.621" cy="921.553" r="4" fill="#0" id="circle226"/>
	<circle cx="365.066" cy="23.5422" r="4" fill="#0" id="circle227"/>
	<circle cx="365.996" cy="926.206" r="4" fill="#0" id="circle228"/>
	<circle cx="374.371" cy="27.2645" r="4" fill="#0" id="circle229"/>
	<circle cx="374.371" cy="930.859" r="4" fill="#0" id="circle230"/>
	<circle cx="382.747" cy="31.9174" r="4" fill="#0" id="circle231"/>
	<circle cx="383.677" cy="934.582" r="4" fill="#0" id="circle232"/>
	<circle cx="391.122" cy="36.5704" r="4" fill="#0" id="circle233"/>
	<circle cx="392.983" cy="935.512" r="4" fill="#0" id="circle234"/>
	<circle cx="400.428" cy="36.5704" r="4" fill="#0" id="circle235"/>
	<circle cx="402.289" cy="935.512" r="4" fill="#0" id="circle236"/>
	<circle cx="409.734" cy="36.5704" r="4" fill="#0" id="circle237"/>
	<circle cx="411.595" cy="935.512" r="4" fill="#0" id="circle238"/>
	<circle cx="419.039" cy="36.5704" r="4" fill="#0" id="circle239"/>
	<circle cx="420.901" cy="935.512" r="4" fill="#0" id="circle240"/>
	<circle cx="427.415" cy="41.2233" r="4" fill="#0" id="circle241"/>
	<circle cx="430.206" cy="935.512" r="4" fill="#0" id="circle242"/>
	<circle cx="436.72" cy="41.2233" r="4" fill="#0" id="circle243"/>
	<circle cx="439.512" cy="935.512" r="4" fill="#0" id="circle244"/>
	<circle cx="446.026" cy="41.2233" r="4" fill="#0" id="circle245"/>
	<circle cx="448.818" cy="935.512" r="4" fill="#0" id="circle246"/>
	<circle cx="455.332" cy="41.2233" r="4" fill="#0" id="circle247"/>
	<circle cx="458.124" cy="935.512" r="4" fill="#0" id="circle248"/>
	<circle cx="464.638" cy="41.2233" r="4" fill="#0" id="circle249"/>
	<circle cx="466.499" cy="930.859" r="4" fill="#0" id="circle250"/>
	<circle cx="473.944" cy="41.2233" r="4" fill="#0" id="circle251"/>
	<circle cx="475.805" cy="930.859" r="4" fill="#0" id="circle252"/>
	<circle cx="483.25" cy="41.2233" r="4" fill="#0" id="circle253"/>
	<circle cx="485.111" cy="930.859" r="4" fill="#0" id="circle254"/>
	<circle cx="492.555" cy="41.2233" r="4" fill="#0" id="circle255"/>
	<circle cx="494.417" cy="930.859" r="4" fill="#0" id="circle256"/>
	<circle cx="501.861" cy="41.2233" r="4" fill="#0" id="circle257"/>
	<circle cx="502.792" cy="926.206" r="4" fill="#0" id="circle258"/>
	<circle cx="511.167" cy="41.2233" r="4" fill="#0" id="circle259"/>
	<circle cx="512.098" cy="926.206" r="4" fill="#0" id="circle260"/>
	<circle cx="520.473" cy="41.2233" r="4" fill="#0" id="circle261"/>
	<circle cx="521.403" cy="921.553" r="4" fill="#0" id="circle262"/>
	<circle cx="529.779" cy="41.2233" r="4" fill="#0" id="circle263"/>
	<circle cx="530.709" cy="921.553" r="4" fill="#0" id="circle264"/>
	<circle cx="539.084" cy="41.2233" r="4" fill="#0" id="circle265"/>
	<circle cx="540.015" cy="921.553" r="4" fill="#0" id="circle266"/>
	<circle cx="548.39" cy="41.2233" r="4" fill="#0" id="circle267"/>
	<circle cx="548.39" cy="926.206" r="4" fill="#0" id="circle268"/>
	<circle cx="556.765" cy="930.859" r="4" fill="#0" id="circle269"/>
	<circle cx="557.696" cy="41.2233" r="4" fill="#0" id="circle270"/>
	<circle cx="566.071" cy="930.859" r="4" fill="#0" id="circle271"/>
	<circle cx="567.002" cy="39.3621" r="4" fill="#0" id="circle272"/>
	<circle cx="574.447" cy="31.9174" r="4" fill="#0" id="circle273"/>
	<circle cx="574.447" cy="935.512" r="4" fill="#0" id="circle274"/>
	<circle cx="582.822" cy="27.2645" r="4" fill="#0" id="circle275"/>
	<circle cx="583.752" cy="935.512" r="4" fill="#0" id="circle276"/>
	<circle cx="591.197" cy="22.6116" r="4" fill="#0" id="circle277"/>
	<circle cx="592.128" cy="940.165" r="4" fill="#0" id="circle278"/>
	<circle cx="595.85" cy="316.675" r="4" fill="#0" id="circle279"/>
	<circle cx="595.85" cy="325.981" r="4" fill="#0" id="circle280"/>
	<circle cx="595.85" cy="335.287" r="4" fill="#0" id="circle281"/>
	<circle cx="600.503" cy="19.8199" r="4" fill="#0" id="circle282"/>
	<circle cx="600.503" cy="343.662" r="4" fill="#0" id="circle283"/>
	<circle cx="601.433" cy="942.957" r="4" fill="#0" id="circle284"/>
	<circle cx="605.156" cy="312.023" r="4" fill="#0" id="circle285"/>
	<circle cx="609.809" cy="17.9587" r="4" fill="#0" id="circle286"/>
	<circle cx="609.809" cy="343.662" r="4" fill="#0" id="circle287"/>
	<circle cx="609.809" cy="947.61" r="4" fill="#0" id="circle288"/>
	<circle cx="613.531" cy="307.37" r="4" fill="#0" id="circle289"/>
	<circle cx="619.114" cy="20.7505" r="4" fill="#0" id="circle290"/>
	<circle cx="619.114" cy="343.662" r="4" fill="#0" id="circle291"/>
	<circle cx="619.114" cy="951.332" r="4" fill="#0" id="circle292"/>
	<circle cx="621.906" cy="302.717" r="4" fill="#0" id="circle293"/>
	<circle cx="625.629" cy="958.777" r="4" fill="#0" id="circle294"/>
	<circle cx="626.559" cy="349.246" r="4" fill="#0" id="circle295"/>
	<circle cx="627.49" cy="25.4034" r="4" fill="#0" id="circle296"/>
	<circle cx="630.281" cy="298.064" r="4" fill="#0" id="circle297"/>
	<circle cx="633.073" cy="32.848" r="4" fill="#0" id="circle298"/>
	<circle cx="633.073" cy="356.69" r="4" fill="#0" id="circle299"/>
	<circle cx="633.073" cy="365.996" r="4" fill="#0" id="circle300"/>
	<circle cx="633.073" cy="965.291" r="4" fill="#0" id="circle301"/>
	<circle cx="637.726" cy="41.2233" r="4" fill="#0" id="circle302"/>
	<circle cx="637.726" cy="50.5291" r="4" fill="#0" id="circle303"/>
	<circle cx="639.587" cy="298.064" r="4" fill="#0" id="circle304"/>
	<circle cx="639.587" cy="972.735" r="4" fill="#0" id="circle305"/>
	<circle cx="640.518" cy="371.58" r="4" fill="#0" id="circle306"/>
	<circle cx="642.379" cy="58.9043" r="4" fill="#0" id="circle307"/>
	<circle cx="642.379" cy="68.2101" r="4" fill="#0" id="circle308"/>
	<circle cx="648.893" cy="297.133" r="4" fill="#0" id="circle309"/>
	<circle cx="648.893" cy="976.458" r="4" fill="#0" id="circle310"/>
	<circle cx="649.824" cy="74.7242" r="4" fill="#0" id="circle311"/>
	<circle cx="649.824" cy="372.51" r="4" fill="#0" id="circle312"/>
	<circle cx="655.407" cy="983.902" r="4" fill="#0" id="circle313"/>
	<circle cx="656.338" cy="82.1689" r="4" fill="#0" id="circle314"/>
	<circle cx="658.199" cy="293.411" r="4" fill="#0" id="circle315"/>
	<circle cx="658.199" cy="377.163" r="4" fill="#0" id="circle316"/>
	<circle cx="662.852" cy="990.417" r="4" fill="#0" id="circle317"/>
	<circle cx="663.782" cy="88.6829" r="4" fill="#0" id="circle318"/>
	<circle cx="666.574" cy="288.758" r="4" fill="#0" id="circle319"/>
	<circle cx="667.505" cy="380.886" r="4" fill="#0" id="circle320"/>
	<circle cx="670.296" cy="96.1276" r="4" fill="#0" id="circle321"/>
	<circle cx="670.296" cy="996" r="4" fill="#0" id="circle322"/>
	<circle cx="674.949" cy="284.105" r="4" fill="#0" id="circle323"/>
	<circle cx="676.811" cy="380.886" r="4" fill="#0" id="circle324"/>
	<circle cx="677.741" cy="101.711" r="4" fill="#0" id="circle325"/>
	<circle cx="679.602" cy="996" r="4" fill="#0" id="circle326"/>
	<circle cx="684.255" cy="274.799" r="4" fill="#0" id="circle327"/>
	<circle cx="686.116" cy="106.364" r="4" fill="#0" id="circle328"/>
	<circle cx="686.116" cy="380.886" r="4" fill="#0" id="circle329"/>
	<circle cx="688.908" cy="265.493" r="4" fill="#0" id="circle330"/>
	<circle cx="688.908" cy="996" r="4" fill="#0" id="circle331"/>
	<circle cx="692.63" cy="113.809" r="4" fill="#0" id="circle332"/>
	<circle cx="695.422" cy="380.886" r="4" fill="#0" id="circle333"/>
	<circle cx="698.214" cy="121.253" r="4" fill="#0" id="circle334"/>
	<circle cx="698.214" cy="260.841" r="4" fill="#0" id="circle335"/>
	<circle cx="698.214" cy="996" r="4" fill="#0" id="circle336"/>
	<circle cx="702.867" cy="129.629" r="4" fill="#0" id="circle337"/>
	<circle cx="702.867" cy="177.088" r="4" fill="#0" id="circle338"/>
	<circle cx="702.867" cy="186.394" r="4" fill="#0" id="circle339"/>
	<circle cx="704.728" cy="380.886" r="4" fill="#0" id="circle340"/>
	<circle cx="705.659" cy="254.326" r="4" fill="#0" id="circle341"/>
	<circle cx="707.52" cy="138.004" r="4" fill="#0" id="circle342"/>
	<circle cx="707.52" cy="194.769" r="4" fill="#0" id="circle343"/>
	<circle cx="707.52" cy="996" r="4" fill="#0" id="circle344"/>
	<circle cx="710.311" cy="170.574" r="4" fill="#0" id="circle345"/>
	<circle cx="712.173" cy="146.379" r="4" fill="#0" id="circle346"/>
	<circle cx="712.173" cy="246.882" r="4" fill="#0" id="circle347"/>
	<circle cx="713.103" cy="385.538" r="4" fill="#0" id="circle348"/>
	<circle cx="716.826" cy="154.754" r="4" fill="#0" id="circle349"/>
	<circle cx="716.826" cy="197.561" r="4" fill="#0" id="circle350"/>
	<circle cx="716.826" cy="394.844" r="4" fill="#0" id="circle351"/>
	<circle cx="716.826" cy="996" r="4" fill="#0" id="circle352"/>
	<circle cx="719.617" cy="240.368" r="4" fill="#0" id="circle353"/>
	<circle cx="720.548" cy="206.867" r="4" fill="#0" id="circle354"/>
	<circle cx="721.478" cy="403.22" r="4" fill="#0" id="circle355"/>
	<circle cx="724.27" cy="231.062" r="4" fill="#0" id="circle356"/>
	<circle cx="725.201" cy="215.242" r="4" fill="#0" id="circle357"/>
	<circle cx="726.131" cy="411.595" r="4" fill="#0" id="circle358"/>
	<circle cx="726.131" cy="996" r="4" fill="#0" id="circle359"/>
	<circle cx="729.854" cy="420.901" r="4" fill="#0" id="circle360"/>
	<circle cx="733.576" cy="989.486" r="4" fill="#0" id="circle361"/>
	<circle cx="734.507" cy="429.276" r="4" fill="#0" id="circle362"/>
	<circle cx="740.09" cy="436.72" r="4" fill="#0" id="circle363"/>
	<circle cx="740.09" cy="977.388" r="4" fill="#0" id="circle364"/>
	<circle cx="747.535" cy="442.304" r="4" fill="#0" id="circle365"/>
	<circle cx="747.535" cy="970.874" r="4" fill="#0" id="circle366"/>
	<circle cx="754.049" cy="449.749" r="4" fill="#0" id="circle367"/>
	<circle cx="754.049" cy="963.43" r="4" fill="#0" id="circle368"/>
	<circle cx="761.493" cy="455.332" r="4" fill="#0" id="circle369"/>
	<circle cx="761.493" cy="956.916" r="4" fill="#0" id="circle370"/>
	<circle cx="768.008" cy="949.471" r="4" fill="#0" id="circle371"/>
	<circle cx="769.869" cy="459.985" r="4" fill="#0" id="circle372"/>
	<circle cx="775.452" cy="942.957" r="4" fill="#0" id="circle373"/>
	<circle cx="778.244" cy="464.638" r="4" fill="#0" id="circle374"/>
	<circle cx="780.105" cy="933.651" r="4" fill="#0" id="circle375"/>
	<circle cx="785.689" cy="471.152" r="4" fill="#0" id="circle376"/>
	<circle cx="786.619" cy="926.206" r="4" fill="#0" id="circle377"/>
	<circle cx="789.411" cy="480.458" r="4" fill="#0" id="circle378"/>
	<circle cx="794.064" cy="919.692" r="4" fill="#0" id="circle379"/>
	<circle cx="795.925" cy="487.902" r="4" fill="#0" id="circle380"/>
	<circle cx="800.578" cy="912.248" r="4" fill="#0" id="circle381"/>
	<circle cx="803.37" cy="493.486" r="4" fill="#0" id="circle382"/>
	<circle cx="808.023" cy="905.734" r="4" fill="#0" id="circle383"/>
	<circle cx="809.884" cy="500.931" r="4" fill="#0" id="circle384"/>
	<circle cx="812.675" cy="896.428" r="4" fill="#0" id="circle385"/>
	<circle cx="814.537" cy="509.306" r="4" fill="#0" id="circle386"/>
	<circle cx="819.189" cy="517.681" r="4" fill="#0" id="circle387"/>
	<circle cx="819.189" cy="888.983" r="4" fill="#0" id="circle388"/>
	<circle cx="824.773" cy="525.126" r="4" fill="#0" id="circle389"/>
	<circle cx="826.634" cy="882.469" r="4" fill="#0" id="circle390"/>
	<circle cx="831.287" cy="873.163" r="4" fill="#0" id="circle391"/>
	<circle cx="832.218" cy="531.64" r="4" fill="#0" id="circle392"/>
	<circle cx="837.801" cy="539.084" r="4" fill="#0" id="circle393"/>
	<circle cx="837.801" cy="865.719" r="4" fill="#0" id="circle394"/>
	<circle cx="842.454" cy="547.46" r="4" fill="#0" id="circle395"/>
	<circle cx="842.454" cy="856.413" r="4" fill="#0" id="circle396"/>
	<circle cx="847.107" cy="555.835" r="4" fill="#0" id="circle397"/>
	<circle cx="847.107" cy="679.602" r="4" fill="#0" id="circle398"/>
	<circle cx="847.107" cy="688.908" r="4" fill="#0" id="circle399"/>
	<circle cx="847.107" cy="698.214" r="4" fill="#0" id="circle400"/>
	<circle cx="847.107" cy="847.107" r="4" fill="#0" id="circle401"/>
	<circle cx="851.76" cy="706.589" r="4" fill="#0" id="circle402"/>
	<circle cx="851.76" cy="837.801" r="4" fill="#0" id="circle403"/>
	<circle cx="853.621" cy="563.28" r="4" fill="#0" id="circle404"/>
	<circle cx="854.552" cy="673.088" r="4" fill="#0" id="circle405"/>
	<circle cx="856.413" cy="714.964" r="4" fill="#0" id="circle406"/>
	<circle cx="856.413" cy="828.495" r="4" fill="#0" id="circle407"/>
	<circle cx="861.066" cy="569.794" r="4" fill="#0" id="circle408"/>
	<circle cx="861.066" cy="665.644" r="4" fill="#0" id="circle409"/>
	<circle cx="861.066" cy="723.34" r="4" fill="#0" id="circle410"/>
	<circle cx="861.066" cy="819.189" r="4" fill="#0" id="circle411"/>
	<circle cx="864.788" cy="579.099" r="4" fill="#0" id="circle412"/>
	<circle cx="865.719" cy="588.405" r="4" fill="#0" id="circle413"/>
	<circle cx="865.719" cy="731.715" r="4" fill="#0" id="circle414"/>
	<circle cx="865.719" cy="741.021" r="4" fill="#0" id="circle415"/>
	<circle cx="865.719" cy="750.326" r="4" fill="#0" id="circle416"/>
	<circle cx="865.719" cy="759.632" r="4" fill="#0" id="circle417"/>
	<circle cx="865.719" cy="768.938" r="4" fill="#0" id="circle418"/>
	<circle cx="865.719" cy="778.244" r="4" fill="#0" id="circle419"/>
	<circle cx="865.719" cy="787.55" r="4" fill="#0" id="circle420"/>
	<circle cx="865.719" cy="796.856" r="4" fill="#0" id="circle421"/>
	<circle cx="865.719" cy="806.161" r="4" fill="#0" id="circle422"/>
	<circle cx="868.51" cy="659.129" r="4" fill="#0" id="circle423"/>
	<circle cx="869.441" cy="597.711" r="4" fill="#0" id="circle424"/>
	<circle cx="873.163" cy="649.824" r="4" fill="#0" id="circle425"/>
	<circle cx="875.024" cy="605.156" r="4" fill="#0" id="circle426"/>
	<circle cx="875.024" cy="628.42" r="4" fill="#0" id="circle427"/>
	<circle cx="875.024" cy="637.726" r="4" fill="#0" id="circle428"/>
	<circle cx="879.677" cy="613.531" r="4" fill="#0" id="circle429"/>
	</g>
</svg>