<?xml version="1.0" encoding="UTF-8" standalone="no"?>
<!-- Created with CurveBenchmark -->
<svg
	xmlns:dc="http://purl.org/dc/elements/1.1/"
	xmlns:cc="http://creativecommons.org/ns#"
	xmlns:rdf="http://www.w3.org/1999/02/22-rdf-syntax-ns#"
	xmlns:svg="http://www.w3.org/2000/svg"
	xmlns="http://www.w3.org/2000/svg"
	xmlns:sodipodi="http://sodipodi.sourceforge.net/DTD/sodipodi-0.dtd"
	xmlns:inkscape="http://www.inkscape.org/namespaces/inkscape"
	width="1000"
	height="1000"
	id="svg2"
	version="1.1"
	sodipodi:docname="manifold/vicur-Heart17.png.txt">
<defs
	id="defs4" />
<metadata
	id="metadata7">
	<rdf:RDF>
		<cc:Work
			rdf:about="">
			<dc:format>image/svg+xml</dc:format>
			<dc:type
				rdf:resource="http://purl.org/dc/dcmitype/StillImage" />
			<dc:title></dc:title>
		</cc:Work>
	</rdf:RDF>
</metadata>
<g
	inkscape:label="Layer 1"
	inkscape:groupmode="layer"
	id="layer1">
	<path style="fill:none;stroke:red;stroke-width:1px;stroke-linecap:butt;stroke-linejoin:miter;stroke-opacity:1" d="M 4,188.821 4,207.681 z" id="boundary" inkscape:connector-curvature="0" />
	<path style="fill:none;stroke:red;stroke-width:1px;stroke-linecap:butt;stroke-linejoin:miter;stroke-opacity:1" d="M 4,188.821 13.4297,169.962 z" id="boundary" inkscape:connector-curvature="0" />
	<path style="fill:none;stroke:red;stroke-width:1px;stroke-linecap:butt;stroke-linejoin:miter;stroke-opacity:1" d="M 4,207.681 4,226.54 z" id="boundary" inkscape:connector-curvature="0" />
	<path style="fill:none;stroke:red;stroke-width:1px;stroke-linecap:butt;stroke-linejoin:miter;stroke-opacity:1" d="M 4,226.54 4,245.399 z" id="boundary" inkscape:connector-curvature="0" />
	<path style="fill:none;stroke:red;stroke-width:1px;stroke-linecap:butt;stroke-linejoin:miter;stroke-opacity:1" d="M 4,245.399 4,264.259 z" id="boundary" inkscape:connector-curvature="0" />
	<path style="fill:none;stroke:red;stroke-width:1px;stroke-linecap:butt;stroke-linejoin:miter;stroke-opacity:1" d="M 4,264.259 4,283.118 z" id="boundary" inkscape:connector-curvature="0" />
	<path style="fill:none;stroke:red;stroke-width:1px;stroke-linecap:butt;stroke-linejoin:miter;stroke-opacity:1" d="M 4,283.118 4,301.977 z" id="boundary" inkscape:connector-curvature="0" />
	<path style="fill:none;stroke:red;stroke-width:1px;stroke-linecap:butt;stroke-linejoin:miter;stroke-opacity:1" d="M 4,301.977 13.4297,318.951 z" id="boundary" inkscape:connector-curvature="0" />
	<path style="fill:none;stroke:red;stroke-width:1px;stroke-linecap:butt;stroke-linejoin:miter;stroke-opacity:1" d="M 13.4297,151.103 13.4297,169.962 z" id="boundary" inkscape:connector-curvature="0" />
	<path style="fill:none;stroke:red;stroke-width:1px;stroke-linecap:butt;stroke-linejoin:miter;stroke-opacity:1" d="M 13.4297,151.103 22.8593,132.243 z" id="boundary" inkscape:connector-curvature="0" />
	<path style="fill:none;stroke:red;stroke-width:1px;stroke-linecap:butt;stroke-linejoin:miter;stroke-opacity:1" d="M 13.4297,318.951 13.4297,337.81 z" id="boundary" inkscape:connector-curvature="0" />
	<path style="fill:none;stroke:red;stroke-width:1px;stroke-linecap:butt;stroke-linejoin:miter;stroke-opacity:1" d="M 13.4297,337.81 22.8593,354.783 z" id="boundary" inkscape:connector-curvature="0" />
	<path style="fill:none;stroke:red;stroke-width:1px;stroke-linecap:butt;stroke-linejoin:miter;stroke-opacity:1" d="M 22.8593,132.243 32.289,113.384 z" id="boundary" inkscape:connector-curvature="0" />
	<path style="fill:none;stroke:red;stroke-width:1px;stroke-linecap:butt;stroke-linejoin:miter;stroke-opacity:1" d="M 22.8593,354.783 28.5171,373.643 z" id="boundary" inkscape:connector-curvature="0" />
	<path style="fill:none;stroke:red;stroke-width:1px;stroke-linecap:butt;stroke-linejoin:miter;stroke-opacity:1" d="M 28.5171,373.643 37.9468,390.616 z" id="boundary" inkscape:connector-curvature="0" />
	<path style="fill:none;stroke:red;stroke-width:1px;stroke-linecap:butt;stroke-linejoin:miter;stroke-opacity:1" d="M 32.289,113.384 41.7186,94.5247 z" id="boundary" inkscape:connector-curvature="0" />
	<path style="fill:none;stroke:red;stroke-width:1px;stroke-linecap:butt;stroke-linejoin:miter;stroke-opacity:1" d="M 37.9468,390.616 45.4905,409.475 z" id="boundary" inkscape:connector-curvature="0" />
	<path style="fill:none;stroke:red;stroke-width:1px;stroke-linecap:butt;stroke-linejoin:miter;stroke-opacity:1" d="M 41.7186,94.5247 51.1483,75.6654 z" id="boundary" inkscape:connector-curvature="0" />
	<path style="fill:none;stroke:red;stroke-width:1px;stroke-linecap:butt;stroke-linejoin:miter;stroke-opacity:1" d="M 45.4905,409.475 60.5779,420.791 z" id="boundary" inkscape:connector-curvature="0" />
	<path style="fill:none;stroke:red;stroke-width:1px;stroke-linecap:butt;stroke-linejoin:miter;stroke-opacity:1" d="M 51.1483,75.6654 60.5779,56.8061 z" id="boundary" inkscape:connector-curvature="0" />
	<path style="fill:none;stroke:red;stroke-width:1px;stroke-linecap:butt;stroke-linejoin:miter;stroke-opacity:1" d="M 60.5779,56.8061 75.6654,41.7186 z" id="boundary" inkscape:connector-curvature="0" />
	<path style="fill:none;stroke:red;stroke-width:1px;stroke-linecap:butt;stroke-linejoin:miter;stroke-opacity:1" d="M 60.5779,420.791 70.0076,437.764 z" id="boundary" inkscape:connector-curvature="0" />
	<path style="fill:none;stroke:red;stroke-width:1px;stroke-linecap:butt;stroke-linejoin:miter;stroke-opacity:1" d="M 70.0076,437.764 81.3232,452.852 z" id="boundary" inkscape:connector-curvature="0" />
	<path style="fill:none;stroke:red;stroke-width:1px;stroke-linecap:butt;stroke-linejoin:miter;stroke-opacity:1" d="M 75.6654,41.7186 92.6388,32.289 z" id="boundary" inkscape:connector-curvature="0" />
	<path style="fill:none;stroke:red;stroke-width:1px;stroke-linecap:butt;stroke-linejoin:miter;stroke-opacity:1" d="M 81.3232,452.852 98.2966,462.281 z" id="boundary" inkscape:connector-curvature="0" />
	<path style="fill:none;stroke:red;stroke-width:1px;stroke-linecap:butt;stroke-linejoin:miter;stroke-opacity:1" d="M 92.6388,32.289 109.612,22.8593 z" id="boundary" inkscape:connector-curvature="0" />
	<path style="fill:none;stroke:red;stroke-width:1px;stroke-linecap:butt;stroke-linejoin:miter;stroke-opacity:1" d="M 98.2966,462.281 117.156,467.939 z" id="boundary" inkscape:connector-curvature="0" />
	<path style="fill:none;stroke:red;stroke-width:1px;stroke-linecap:butt;stroke-linejoin:miter;stroke-opacity:1" d="M 109.612,22.8593 126.586,13.4297 z" id="boundary" inkscape:connector-curvature="0" />
	<path style="fill:none;stroke:red;stroke-width:1px;stroke-linecap:butt;stroke-linejoin:miter;stroke-opacity:1" d="M 117.156,467.939 136.015,467.939 z" id="boundary" inkscape:connector-curvature="0" />
	<path style="fill:none;stroke:red;stroke-width:1px;stroke-linecap:butt;stroke-linejoin:miter;stroke-opacity:1" d="M 126.586,13.4297 143.559,4 z" id="boundary" inkscape:connector-curvature="0" />
	<path style="fill:none;stroke:red;stroke-width:1px;stroke-linecap:butt;stroke-linejoin:miter;stroke-opacity:1" d="M 136.015,467.939 154.875,467.939 z" id="boundary" inkscape:connector-curvature="0" />
	<path style="fill:none;stroke:red;stroke-width:1px;stroke-linecap:butt;stroke-linejoin:miter;stroke-opacity:1" d="M 143.559,4 162.418,4 z" id="boundary" inkscape:connector-curvature="0" />
	<path style="fill:none;stroke:red;stroke-width:1px;stroke-linecap:butt;stroke-linejoin:miter;stroke-opacity:1" d="M 154.875,467.939 173.734,467.939 z" id="boundary" inkscape:connector-curvature="0" />
	<path style="fill:none;stroke:red;stroke-width:1px;stroke-linecap:butt;stroke-linejoin:miter;stroke-opacity:1" d="M 162.418,4 181.278,4 z" id="boundary" inkscape:connector-curvature="0" />
	<path style="fill:none;stroke:red;stroke-width:1px;stroke-linecap:butt;stroke-linejoin:miter;stroke-opacity:1" d="M 173.734,467.939 192.593,462.281 z" id="boundary" inkscape:connector-curvature="0" />
	<path style="fill:none;stroke:red;stroke-width:1px;stroke-linecap:butt;stroke-linejoin:miter;stroke-opacity:1" d="M 181.278,4 200.137,4 z" id="boundary" inkscape:connector-curvature="0" />
	<path style="fill:none;stroke:red;stroke-width:1px;stroke-linecap:butt;stroke-linejoin:miter;stroke-opacity:1" d="M 192.593,462.281 211.452,458.51 z" id="boundary" inkscape:connector-curvature="0" />
	<path style="fill:none;stroke:red;stroke-width:1px;stroke-linecap:butt;stroke-linejoin:miter;stroke-opacity:1" d="M 200.137,4 218.996,4 z" id="boundary" inkscape:connector-curvature="0" />
	<path style="fill:none;stroke:red;stroke-width:1px;stroke-linecap:butt;stroke-linejoin:miter;stroke-opacity:1" d="M 211.452,458.51 230.312,458.51 z" id="boundary" inkscape:connector-curvature="0" />
	<path style="fill:none;stroke:red;stroke-width:1px;stroke-linecap:butt;stroke-linejoin:miter;stroke-opacity:1" d="M 218.996,4 237.856,4 z" id="boundary" inkscape:connector-curvature="0" />
	<path style="fill:none;stroke:red;stroke-width:1px;stroke-linecap:butt;stroke-linejoin:miter;stroke-opacity:1" d="M 230.312,458.51 249.171,458.51 z" id="boundary" inkscape:connector-curvature="0" />
	<path style="fill:none;stroke:red;stroke-width:1px;stroke-linecap:butt;stroke-linejoin:miter;stroke-opacity:1" d="M 237.856,4 256.715,4 z" id="boundary" inkscape:connector-curvature="0" />
	<path style="fill:none;stroke:red;stroke-width:1px;stroke-linecap:butt;stroke-linejoin:miter;stroke-opacity:1" d="M 249.171,458.51 268.03,458.51 z" id="boundary" inkscape:connector-curvature="0" />
	<path style="fill:none;stroke:red;stroke-width:1px;stroke-linecap:butt;stroke-linejoin:miter;stroke-opacity:1" d="M 256.715,4 273.688,13.4297 z" id="boundary" inkscape:connector-curvature="0" />
	<path style="fill:none;stroke:red;stroke-width:1px;stroke-linecap:butt;stroke-linejoin:miter;stroke-opacity:1" d="M 268.03,458.51 286.89,458.51 z" id="boundary" inkscape:connector-curvature="0" />
	<path style="fill:none;stroke:red;stroke-width:1px;stroke-linecap:butt;stroke-linejoin:miter;stroke-opacity:1" d="M 273.688,13.4297 290.662,22.8593 z" id="boundary" inkscape:connector-curvature="0" />
	<path style="fill:none;stroke:red;stroke-width:1px;stroke-linecap:butt;stroke-linejoin:miter;stroke-opacity:1" d="M 286.89,458.51 296.319,475.483 z" id="boundary" inkscape:connector-curvature="0" />
	<path style="fill:none;stroke:red;stroke-width:1px;stroke-linecap:butt;stroke-linejoin:miter;stroke-opacity:1" d="M 286.89,575.437 286.89,594.297 z" id="boundary" inkscape:connector-curvature="0" />
	<path style="fill:none;stroke:red;stroke-width:1px;stroke-linecap:butt;stroke-linejoin:miter;stroke-opacity:1" d="M 286.89,575.437 296.319,550.92 z" id="boundary" inkscape:connector-curvature="0" />
	<path style="fill:none;stroke:red;stroke-width:1px;stroke-linecap:butt;stroke-linejoin:miter;stroke-opacity:1" d="M 286.89,594.297 286.89,613.156 z" id="boundary" inkscape:connector-curvature="0" />
	<path style="fill:none;stroke:red;stroke-width:1px;stroke-linecap:butt;stroke-linejoin:miter;stroke-opacity:1" d="M 286.89,613.156 286.89,632.015 z" id="boundary" inkscape:connector-curvature="0" />
	<path style="fill:none;stroke:red;stroke-width:1px;stroke-linecap:butt;stroke-linejoin:miter;stroke-opacity:1" d="M 286.89,632.015 301.977,645.217 z" id="boundary" inkscape:connector-curvature="0" />
	<path style="fill:none;stroke:red;stroke-width:1px;stroke-linecap:butt;stroke-linejoin:miter;stroke-opacity:1" d="M 290.662,22.8593 307.635,32.289 z" id="boundary" inkscape:connector-curvature="0" />
	<path style="fill:none;stroke:red;stroke-width:1px;stroke-linecap:butt;stroke-linejoin:miter;stroke-opacity:1" d="M 296.319,475.483 296.319,494.342 z" id="boundary" inkscape:connector-curvature="0" />
	<path style="fill:none;stroke:red;stroke-width:1px;stroke-linecap:butt;stroke-linejoin:miter;stroke-opacity:1" d="M 296.319,494.342 296.319,513.202 z" id="boundary" inkscape:connector-curvature="0" />
	<path style="fill:none;stroke:red;stroke-width:1px;stroke-linecap:butt;stroke-linejoin:miter;stroke-opacity:1" d="M 296.319,513.202 296.319,532.061 z" id="boundary" inkscape:connector-curvature="0" />
	<path style="fill:none;stroke:red;stroke-width:1px;stroke-linecap:butt;stroke-linejoin:miter;stroke-opacity:1" d="M 296.319,532.061 296.319,550.92 z" id="boundary" inkscape:connector-curvature="0" />
	<path style="fill:none;stroke:red;stroke-width:1px;stroke-linecap:butt;stroke-linejoin:miter;stroke-opacity:1" d="M 301.977,645.217 318.951,654.646 z" id="boundary" inkscape:connector-curvature="0" />
	<path style="fill:none;stroke:red;stroke-width:1px;stroke-linecap:butt;stroke-linejoin:miter;stroke-opacity:1" d="M 307.635,32.289 326.494,37.9468 z" id="boundary" inkscape:connector-curvature="0" />
	<path style="fill:none;stroke:red;stroke-width:1px;stroke-linecap:butt;stroke-linejoin:miter;stroke-opacity:1" d="M 318.951,654.646 334.038,665.962 z" id="boundary" inkscape:connector-curvature="0" />
	<path style="fill:none;stroke:red;stroke-width:1px;stroke-linecap:butt;stroke-linejoin:miter;stroke-opacity:1" d="M 326.494,37.9468 343.468,47.3764 z" id="boundary" inkscape:connector-curvature="0" />
	<path style="fill:none;stroke:red;stroke-width:1px;stroke-linecap:butt;stroke-linejoin:miter;stroke-opacity:1" d="M 334.038,665.962 351.011,675.392 z" id="boundary" inkscape:connector-curvature="0" />
	<path style="fill:none;stroke:red;stroke-width:1px;stroke-linecap:butt;stroke-linejoin:miter;stroke-opacity:1" d="M 343.468,47.3764 362.327,54.9202 z" id="boundary" inkscape:connector-curvature="0" />
	<path style="fill:none;stroke:red;stroke-width:1px;stroke-linecap:butt;stroke-linejoin:miter;stroke-opacity:1" d="M 351.011,675.392 358.555,694.251 z" id="boundary" inkscape:connector-curvature="0" />
	<path style="fill:none;stroke:red;stroke-width:1px;stroke-linecap:butt;stroke-linejoin:miter;stroke-opacity:1" d="M 358.555,694.251 375.529,703.681 z" id="boundary" inkscape:connector-curvature="0" />
	<path style="fill:none;stroke:red;stroke-width:1px;stroke-linecap:butt;stroke-linejoin:miter;stroke-opacity:1" d="M 362.327,54.9202 373.643,70.0076 z" id="boundary" inkscape:connector-curvature="0" />
	<path style="fill:none;stroke:red;stroke-width:1px;stroke-linecap:butt;stroke-linejoin:miter;stroke-opacity:1" d="M 373.643,70.0076 388.73,81.3232 z" id="boundary" inkscape:connector-curvature="0" />
	<path style="fill:none;stroke:red;stroke-width:1px;stroke-linecap:butt;stroke-linejoin:miter;stroke-opacity:1" d="M 375.529,703.681 390.616,714.996 z" id="boundary" inkscape:connector-curvature="0" />
	<path style="fill:none;stroke:red;stroke-width:1px;stroke-linecap:butt;stroke-linejoin:miter;stroke-opacity:1" d="M 388.73,81.3232 401.932,96.4106 z" id="boundary" inkscape:connector-curvature="0" />
	<path style="fill:none;stroke:red;stroke-width:1px;stroke-linecap:butt;stroke-linejoin:miter;stroke-opacity:1" d="M 390.616,714.996 403.817,730.084 z" id="boundary" inkscape:connector-curvature="0" />
	<path style="fill:none;stroke:red;stroke-width:1px;stroke-linecap:butt;stroke-linejoin:miter;stroke-opacity:1" d="M 401.932,96.4106 417.019,109.612 z" id="boundary" inkscape:connector-curvature="0" />
	<path style="fill:none;stroke:red;stroke-width:1px;stroke-linecap:butt;stroke-linejoin:miter;stroke-opacity:1" d="M 403.817,730.084 422.677,737.627 z" id="boundary" inkscape:connector-curvature="0" />
	<path style="fill:none;stroke:red;stroke-width:1px;stroke-linecap:butt;stroke-linejoin:miter;stroke-opacity:1" d="M 417.019,109.612 424.563,128.471 z" id="boundary" inkscape:connector-curvature="0" />
	<path style="fill:none;stroke:red;stroke-width:1px;stroke-linecap:butt;stroke-linejoin:miter;stroke-opacity:1" d="M 422.677,737.627 437.764,750.829 z" id="boundary" inkscape:connector-curvature="0" />
	<path style="fill:none;stroke:red;stroke-width:1px;stroke-linecap:butt;stroke-linejoin:miter;stroke-opacity:1" d="M 424.563,128.471 433.992,145.445 z" id="boundary" inkscape:connector-curvature="0" />
	<path style="fill:none;stroke:red;stroke-width:1px;stroke-linecap:butt;stroke-linejoin:miter;stroke-opacity:1" d="M 433.992,145.445 439.65,164.304 z" id="boundary" inkscape:connector-curvature="0" />
	<path style="fill:none;stroke:red;stroke-width:1px;stroke-linecap:butt;stroke-linejoin:miter;stroke-opacity:1" d="M 437.764,750.829 449.08,765.916 z" id="boundary" inkscape:connector-curvature="0" />
	<path style="fill:none;stroke:red;stroke-width:1px;stroke-linecap:butt;stroke-linejoin:miter;stroke-opacity:1" d="M 439.65,164.304 449.08,181.278 z" id="boundary" inkscape:connector-curvature="0" />
	<path style="fill:none;stroke:red;stroke-width:1px;stroke-linecap:butt;stroke-linejoin:miter;stroke-opacity:1" d="M 449.08,181.278 458.51,198.251 z" id="boundary" inkscape:connector-curvature="0" />
	<path style="fill:none;stroke:red;stroke-width:1px;stroke-linecap:butt;stroke-linejoin:miter;stroke-opacity:1" d="M 449.08,765.916 466.053,775.346 z" id="boundary" inkscape:connector-curvature="0" />
	<path style="fill:none;stroke:red;stroke-width:1px;stroke-linecap:butt;stroke-linejoin:miter;stroke-opacity:1" d="M 458.51,198.251 467.939,215.224 z" id="boundary" inkscape:connector-curvature="0" />
	<path style="fill:none;stroke:red;stroke-width:1px;stroke-linecap:butt;stroke-linejoin:miter;stroke-opacity:1" d="M 466.053,775.346 475.483,792.319 z" id="boundary" inkscape:connector-curvature="0" />
	<path style="fill:none;stroke:red;stroke-width:1px;stroke-linecap:butt;stroke-linejoin:miter;stroke-opacity:1" d="M 467.939,215.224 477.369,232.198 z" id="boundary" inkscape:connector-curvature="0" />
	<path style="fill:none;stroke:red;stroke-width:1px;stroke-linecap:butt;stroke-linejoin:miter;stroke-opacity:1" d="M 475.483,792.319 490.57,805.521 z" id="boundary" inkscape:connector-curvature="0" />
	<path style="fill:none;stroke:red;stroke-width:1px;stroke-linecap:butt;stroke-linejoin:miter;stroke-opacity:1" d="M 477.369,232.198 486.798,249.171 z" id="boundary" inkscape:connector-curvature="0" />
	<path style="fill:none;stroke:red;stroke-width:1px;stroke-linecap:butt;stroke-linejoin:miter;stroke-opacity:1" d="M 486.798,249.171 496.228,266.144 z" id="boundary" inkscape:connector-curvature="0" />
	<path style="fill:none;stroke:red;stroke-width:1px;stroke-linecap:butt;stroke-linejoin:miter;stroke-opacity:1" d="M 490.57,805.521 505.658,816.837 z" id="boundary" inkscape:connector-curvature="0" />
	<path style="fill:none;stroke:red;stroke-width:1px;stroke-linecap:butt;stroke-linejoin:miter;stroke-opacity:1" d="M 496.228,266.144 515.087,262.373 z" id="boundary" inkscape:connector-curvature="0" />
	<path style="fill:none;stroke:red;stroke-width:1px;stroke-linecap:butt;stroke-linejoin:miter;stroke-opacity:1" d="M 505.658,816.837 524.517,816.837 z" id="boundary" inkscape:connector-curvature="0" />
	<path style="fill:none;stroke:red;stroke-width:1px;stroke-linecap:butt;stroke-linejoin:miter;stroke-opacity:1" d="M 515.087,262.373 524.517,243.513 z" id="boundary" inkscape:connector-curvature="0" />
	<path style="fill:none;stroke:red;stroke-width:1px;stroke-linecap:butt;stroke-linejoin:miter;stroke-opacity:1" d="M 524.517,243.513 533.947,224.654 z" id="boundary" inkscape:connector-curvature="0" />
	<path style="fill:none;stroke:red;stroke-width:1px;stroke-linecap:butt;stroke-linejoin:miter;stroke-opacity:1" d="M 524.517,816.837 539.605,803.635 z" id="boundary" inkscape:connector-curvature="0" />
	<path style="fill:none;stroke:red;stroke-width:1px;stroke-linecap:butt;stroke-linejoin:miter;stroke-opacity:1" d="M 533.947,224.654 543.376,205.795 z" id="boundary" inkscape:connector-curvature="0" />
	<path style="fill:none;stroke:red;stroke-width:1px;stroke-linecap:butt;stroke-linejoin:miter;stroke-opacity:1" d="M 539.605,803.635 552.806,788.548 z" id="boundary" inkscape:connector-curvature="0" />
	<path style="fill:none;stroke:red;stroke-width:1px;stroke-linecap:butt;stroke-linejoin:miter;stroke-opacity:1" d="M 543.376,205.795 558.464,192.593 z" id="boundary" inkscape:connector-curvature="0" />
	<path style="fill:none;stroke:red;stroke-width:1px;stroke-linecap:butt;stroke-linejoin:miter;stroke-opacity:1" d="M 552.806,788.548 571.665,779.118 z" id="boundary" inkscape:connector-curvature="0" />
	<path style="fill:none;stroke:red;stroke-width:1px;stroke-linecap:butt;stroke-linejoin:miter;stroke-opacity:1" d="M 558.464,192.593 566.008,173.734 z" id="boundary" inkscape:connector-curvature="0" />
	<path style="fill:none;stroke:red;stroke-width:1px;stroke-linecap:butt;stroke-linejoin:miter;stroke-opacity:1" d="M 566.008,173.734 575.437,154.875 z" id="boundary" inkscape:connector-curvature="0" />
	<path style="fill:none;stroke:red;stroke-width:1px;stroke-linecap:butt;stroke-linejoin:miter;stroke-opacity:1" d="M 571.665,779.118 590.525,769.688 z" id="boundary" inkscape:connector-curvature="0" />
	<path style="fill:none;stroke:red;stroke-width:1px;stroke-linecap:butt;stroke-linejoin:miter;stroke-opacity:1" d="M 575.437,154.875 584.867,136.015 z" id="boundary" inkscape:connector-curvature="0" />
	<path style="fill:none;stroke:red;stroke-width:1px;stroke-linecap:butt;stroke-linejoin:miter;stroke-opacity:1" d="M 584.867,136.015 594.297,117.156 z" id="boundary" inkscape:connector-curvature="0" />
	<path style="fill:none;stroke:red;stroke-width:1px;stroke-linecap:butt;stroke-linejoin:miter;stroke-opacity:1" d="M 590.525,769.688 605.612,756.487 z" id="boundary" inkscape:connector-curvature="0" />
	<path style="fill:none;stroke:red;stroke-width:1px;stroke-linecap:butt;stroke-linejoin:miter;stroke-opacity:1" d="M 594.297,117.156 609.384,102.068 z" id="boundary" inkscape:connector-curvature="0" />
	<path style="fill:none;stroke:red;stroke-width:1px;stroke-linecap:butt;stroke-linejoin:miter;stroke-opacity:1" d="M 605.612,756.487 618.814,741.399 z" id="boundary" inkscape:connector-curvature="0" />
	<path style="fill:none;stroke:red;stroke-width:1px;stroke-linecap:butt;stroke-linejoin:miter;stroke-opacity:1" d="M 609.384,102.068 624.471,88.8669 z" id="boundary" inkscape:connector-curvature="0" />
	<path style="fill:none;stroke:red;stroke-width:1px;stroke-linecap:butt;stroke-linejoin:miter;stroke-opacity:1" d="M 618.814,741.399 637.673,731.97 z" id="boundary" inkscape:connector-curvature="0" />
	<path style="fill:none;stroke:red;stroke-width:1px;stroke-linecap:butt;stroke-linejoin:miter;stroke-opacity:1" d="M 624.471,88.8669 637.673,73.7795 z" id="boundary" inkscape:connector-curvature="0" />
	<path style="fill:none;stroke:red;stroke-width:1px;stroke-linecap:butt;stroke-linejoin:miter;stroke-opacity:1" d="M 637.673,73.7795 647.103,54.9202 z" id="boundary" inkscape:connector-curvature="0" />
	<path style="fill:none;stroke:red;stroke-width:1px;stroke-linecap:butt;stroke-linejoin:miter;stroke-opacity:1" d="M 637.673,731.97 656.532,722.54 z" id="boundary" inkscape:connector-curvature="0" />
	<path style="fill:none;stroke:red;stroke-width:1px;stroke-linecap:butt;stroke-linejoin:miter;stroke-opacity:1" d="M 647.103,54.9202 665.962,45.4905 z" id="boundary" inkscape:connector-curvature="0" />
	<path style="fill:none;stroke:red;stroke-width:1px;stroke-linecap:butt;stroke-linejoin:miter;stroke-opacity:1" d="M 656.532,722.54 675.392,713.11 z" id="boundary" inkscape:connector-curvature="0" />
	<path style="fill:none;stroke:red;stroke-width:1px;stroke-linecap:butt;stroke-linejoin:miter;stroke-opacity:1" d="M 665.962,45.4905 684.821,36.0608 z" id="boundary" inkscape:connector-curvature="0" />
	<path style="fill:none;stroke:red;stroke-width:1px;stroke-linecap:butt;stroke-linejoin:miter;stroke-opacity:1" d="M 675.392,713.11 694.251,703.681 z" id="boundary" inkscape:connector-curvature="0" />
	<path style="fill:none;stroke:red;stroke-width:1px;stroke-linecap:butt;stroke-linejoin:miter;stroke-opacity:1" d="M 684.821,36.0608 703.681,26.6312 z" id="boundary" inkscape:connector-curvature="0" />
	<path style="fill:none;stroke:red;stroke-width:1px;stroke-linecap:butt;stroke-linejoin:miter;stroke-opacity:1" d="M 694.251,703.681 713.11,694.251 z" id="boundary" inkscape:connector-curvature="0" />
	<path style="fill:none;stroke:red;stroke-width:1px;stroke-linecap:butt;stroke-linejoin:miter;stroke-opacity:1" d="M 703.681,26.6312 722.54,22.8593 z" id="boundary" inkscape:connector-curvature="0" />
	<path style="fill:none;stroke:red;stroke-width:1px;stroke-linecap:butt;stroke-linejoin:miter;stroke-opacity:1" d="M 713.11,694.251 730.084,684.821 z" id="boundary" inkscape:connector-curvature="0" />
	<path style="fill:none;stroke:red;stroke-width:1px;stroke-linecap:butt;stroke-linejoin:miter;stroke-opacity:1" d="M 722.54,22.8593 741.399,22.8593 z" id="boundary" inkscape:connector-curvature="0" />
	<path style="fill:none;stroke:red;stroke-width:1px;stroke-linecap:butt;stroke-linejoin:miter;stroke-opacity:1" d="M 730.084,684.821 745.171,673.506 z" id="boundary" inkscape:connector-curvature="0" />
	<path style="fill:none;stroke:red;stroke-width:1px;stroke-linecap:butt;stroke-linejoin:miter;stroke-opacity:1" d="M 741.399,22.8593 760.259,22.8593 z" id="boundary" inkscape:connector-curvature="0" />
	<path style="fill:none;stroke:red;stroke-width:1px;stroke-linecap:butt;stroke-linejoin:miter;stroke-opacity:1" d="M 745.171,673.506 760.259,656.532 z" id="boundary" inkscape:connector-curvature="0" />
	<path style="fill:none;stroke:red;stroke-width:1px;stroke-linecap:butt;stroke-linejoin:miter;stroke-opacity:1" d="M 760.259,22.8593 779.118,22.8593 z" id="boundary" inkscape:connector-curvature="0" />
	<path style="fill:none;stroke:red;stroke-width:1px;stroke-linecap:butt;stroke-linejoin:miter;stroke-opacity:1" d="M 760.259,656.532 779.118,647.103 z" id="boundary" inkscape:connector-curvature="0" />
	<path style="fill:none;stroke:red;stroke-width:1px;stroke-linecap:butt;stroke-linejoin:miter;stroke-opacity:1" d="M 779.118,22.8593 797.977,22.8593 z" id="boundary" inkscape:connector-curvature="0" />
	<path style="fill:none;stroke:red;stroke-width:1px;stroke-linecap:butt;stroke-linejoin:miter;stroke-opacity:1" d="M 779.118,647.103 797.977,637.673 z" id="boundary" inkscape:connector-curvature="0" />
	<path style="fill:none;stroke:red;stroke-width:1px;stroke-linecap:butt;stroke-linejoin:miter;stroke-opacity:1" d="M 797.977,22.8593 814.951,32.289 z" id="boundary" inkscape:connector-curvature="0" />
	<path style="fill:none;stroke:red;stroke-width:1px;stroke-linecap:butt;stroke-linejoin:miter;stroke-opacity:1" d="M 797.977,637.673 813.065,624.471 z" id="boundary" inkscape:connector-curvature="0" />
	<path style="fill:none;stroke:red;stroke-width:1px;stroke-linecap:butt;stroke-linejoin:miter;stroke-opacity:1" d="M 813.065,624.471 826.266,609.384 z" id="boundary" inkscape:connector-curvature="0" />
	<path style="fill:none;stroke:red;stroke-width:1px;stroke-linecap:butt;stroke-linejoin:miter;stroke-opacity:1" d="M 814.951,32.289 831.924,41.7186 z" id="boundary" inkscape:connector-curvature="0" />
	<path style="fill:none;stroke:red;stroke-width:1px;stroke-linecap:butt;stroke-linejoin:miter;stroke-opacity:1" d="M 826.266,609.384 841.354,596.183 z" id="boundary" inkscape:connector-curvature="0" />
	<path style="fill:none;stroke:red;stroke-width:1px;stroke-linecap:butt;stroke-linejoin:miter;stroke-opacity:1" d="M 831.924,41.7186 850.783,41.7186 z" id="boundary" inkscape:connector-curvature="0" />
	<path style="fill:none;stroke:red;stroke-width:1px;stroke-linecap:butt;stroke-linejoin:miter;stroke-opacity:1" d="M 841.354,596.183 860.213,586.753 z" id="boundary" inkscape:connector-curvature="0" />
	<path style="fill:none;stroke:red;stroke-width:1px;stroke-linecap:butt;stroke-linejoin:miter;stroke-opacity:1" d="M 850.783,41.7186 867.757,51.1483 z" id="boundary" inkscape:connector-curvature="0" />
	<path style="fill:none;stroke:red;stroke-width:1px;stroke-linecap:butt;stroke-linejoin:miter;stroke-opacity:1" d="M 860.213,586.753 873.414,562.236 z" id="boundary" inkscape:connector-curvature="0" />
	<path style="fill:none;stroke:red;stroke-width:1px;stroke-linecap:butt;stroke-linejoin:miter;stroke-opacity:1" d="M 867.757,51.1483 880.958,66.2357 z" id="boundary" inkscape:connector-curvature="0" />
	<path style="fill:none;stroke:red;stroke-width:1px;stroke-linecap:butt;stroke-linejoin:miter;stroke-opacity:1" d="M 873.414,562.236 888.502,549.034 z" id="boundary" inkscape:connector-curvature="0" />
	<path style="fill:none;stroke:red;stroke-width:1px;stroke-linecap:butt;stroke-linejoin:miter;stroke-opacity:1" d="M 880.958,66.2357 896.046,79.4373 z" id="boundary" inkscape:connector-curvature="0" />
	<path style="fill:none;stroke:red;stroke-width:1px;stroke-linecap:butt;stroke-linejoin:miter;stroke-opacity:1" d="M 888.502,549.034 901.703,533.947 z" id="boundary" inkscape:connector-curvature="0" />
	<path style="fill:none;stroke:red;stroke-width:1px;stroke-linecap:butt;stroke-linejoin:miter;stroke-opacity:1" d="M 896.046,79.4373 913.019,88.8669 z" id="boundary" inkscape:connector-curvature="0" />
	<path style="fill:none;stroke:red;stroke-width:1px;stroke-linecap:butt;stroke-linejoin:miter;stroke-opacity:1" d="M 901.703,533.947 911.133,515.087 z" id="boundary" inkscape:connector-curvature="0" />
	<path style="fill:none;stroke:red;stroke-width:1px;stroke-linecap:butt;stroke-linejoin:miter;stroke-opacity:1" d="M 911.133,515.087 926.221,501.886 z" id="boundary" inkscape:connector-curvature="0" />
	<path style="fill:none;stroke:red;stroke-width:1px;stroke-linecap:butt;stroke-linejoin:miter;stroke-opacity:1" d="M 913.019,88.8669 929.992,98.2966 z" id="boundary" inkscape:connector-curvature="0" />
	<path style="fill:none;stroke:red;stroke-width:1px;stroke-linecap:butt;stroke-linejoin:miter;stroke-opacity:1" d="M 926.221,501.886 939.422,477.369 z" id="boundary" inkscape:connector-curvature="0" />
	<path style="fill:none;stroke:red;stroke-width:1px;stroke-linecap:butt;stroke-linejoin:miter;stroke-opacity:1" d="M 929.992,98.2966 945.08,109.612 z" id="boundary" inkscape:connector-curvature="0" />
	<path style="fill:none;stroke:red;stroke-width:1px;stroke-linecap:butt;stroke-linejoin:miter;stroke-opacity:1" d="M 939.422,477.369 954.51,464.167 z" id="boundary" inkscape:connector-curvature="0" />
	<path style="fill:none;stroke:red;stroke-width:1px;stroke-linecap:butt;stroke-linejoin:miter;stroke-opacity:1" d="M 945.08,109.612 952.624,128.471 z" id="boundary" inkscape:connector-curvature="0" />
	<path style="fill:none;stroke:red;stroke-width:1px;stroke-linecap:butt;stroke-linejoin:miter;stroke-opacity:1" d="M 952.624,128.471 967.711,141.673 z" id="boundary" inkscape:connector-curvature="0" />
	<path style="fill:none;stroke:red;stroke-width:1px;stroke-linecap:butt;stroke-linejoin:miter;stroke-opacity:1" d="M 954.51,464.167 963.939,445.308 z" id="boundary" inkscape:connector-curvature="0" />
	<path style="fill:none;stroke:red;stroke-width:1px;stroke-linecap:butt;stroke-linejoin:miter;stroke-opacity:1" d="M 963.939,445.308 973.369,426.449 z" id="boundary" inkscape:connector-curvature="0" />
	<path style="fill:none;stroke:red;stroke-width:1px;stroke-linecap:butt;stroke-linejoin:miter;stroke-opacity:1" d="M 967.711,141.673 967.711,160.532 z" id="boundary" inkscape:connector-curvature="0" />
	<path style="fill:none;stroke:red;stroke-width:1px;stroke-linecap:butt;stroke-linejoin:miter;stroke-opacity:1" d="M 967.711,160.532 977.141,177.506 z" id="boundary" inkscape:connector-curvature="0" />
	<path style="fill:none;stroke:red;stroke-width:1px;stroke-linecap:butt;stroke-linejoin:miter;stroke-opacity:1" d="M 973.369,426.449 977.141,392.502 z" id="boundary" inkscape:connector-curvature="0" />
	<path style="fill:none;stroke:red;stroke-width:1px;stroke-linecap:butt;stroke-linejoin:miter;stroke-opacity:1" d="M 977.141,177.506 986.57,194.479 z" id="boundary" inkscape:connector-curvature="0" />
	<path style="fill:none;stroke:red;stroke-width:1px;stroke-linecap:butt;stroke-linejoin:miter;stroke-opacity:1" d="M 977.141,392.502 986.57,364.213 z" id="boundary" inkscape:connector-curvature="0" />
	<path style="fill:none;stroke:red;stroke-width:1px;stroke-linecap:butt;stroke-linejoin:miter;stroke-opacity:1" d="M 986.57,194.479 986.57,213.338 z" id="boundary" inkscape:connector-curvature="0" />
	<path style="fill:none;stroke:red;stroke-width:1px;stroke-linecap:butt;stroke-linejoin:miter;stroke-opacity:1" d="M 986.57,213.338 996,230.312 z" id="boundary" inkscape:connector-curvature="0" />
	<path style="fill:none;stroke:red;stroke-width:1px;stroke-linecap:butt;stroke-linejoin:miter;stroke-opacity:1" d="M 986.57,364.213 996,343.468 z" id="boundary" inkscape:connector-curvature="0" />
	<path style="fill:none;stroke:red;stroke-width:1px;stroke-linecap:butt;stroke-linejoin:miter;stroke-opacity:1" d="M 996,230.312 996,249.171 z" id="boundary" inkscape:connector-curvature="0" />
	<path style="fill:none;stroke:red;stroke-width:1px;stroke-linecap:butt;stroke-linejoin:miter;stroke-opacity:1" d="M 996,249.171 996,268.03 z" id="boundary" inkscape:connector-curvature="0" />
	<path style="fill:none;stroke:red;stroke-width:1px;stroke-linecap:butt;stroke-linejoin:miter;stroke-opacity:1" d="M 996,268.03 996,286.89 z" id="boundary" inkscape:connector-curvature="0" />
	<path style="fill:none;stroke:red;stroke-width:1px;stroke-linecap:butt;stroke-linejoin:miter;stroke-opacity:1" d="M 996,286.89 996,305.749 z" id="boundary" inkscape:connector-curvature="0" />
	<path style="fill:none;stroke:red;stroke-width:1px;stroke-linecap:butt;stroke-linejoin:miter;stroke-opacity:1" d="M 996,305.749 996,324.608 z" id="boundary" inkscape:connector-curvature="0" />
	<path style="fill:none;stroke:red;stroke-width:1px;stroke-linecap:butt;stroke-linejoin:miter;stroke-opacity:1" d="M 996,324.608 996,343.468 z" id="boundary" inkscape:connector-curvature="0" />
	<circle cx="4" cy="188.821" r="4" fill="#0" id="circle0"/>
	<circle cx="4" cy="207.681" r="4" fill="#0" id="circle1"/>
	<circle cx="4" cy="226.54" r="4" fill="#0" id="circle2"/>
	<circle cx="4" cy="245.399" r="4" fill="#0" id="circle3"/>
	<circle cx="4" cy="264.259" r="4" fill="#0" id="circle4"/>
	<circle cx="4" cy="283.118" r="4" fill="#0" id="circle5"/>
	<circle cx="4" cy="301.977" r="4" fill="#0" id="circle6"/>
	<circle cx="13.4297" cy="151.103" r="4" fill="#0" id="circle7"/>
	<circle cx="13.4297" cy="169.962" r="4" fill="#0" id="circle8"/>
	<circle cx="13.4297" cy="318.951" r="4" fill="#0" id="circle9"/>
	<circle cx="13.4297" cy="337.81" r="4" fill="#0" id="circle10"/>
	<circle cx="22.8593" cy="132.243" r="4" fill="#0" id="circle11"/>
	<circle cx="22.8593" cy="354.783" r="4" fill="#0" id="circle12"/>
	<circle cx="28.5171" cy="373.643" r="4" fill="#0" id="circle13"/>
	<circle cx="32.289" cy="113.384" r="4" fill="#0" id="circle14"/>
	<circle cx="37.9468" cy="390.616" r="4" fill="#0" id="circle15"/>
	<circle cx="41.7186" cy="94.5247" r="4" fill="#0" id="circle16"/>
	<circle cx="45.4905" cy="409.475" r="4" fill="#0" id="circle17"/>
	<circle cx="51.1483" cy="75.6654" r="4" fill="#0" id="circle18"/>
	<circle cx="60.5779" cy="56.8061" r="4" fill="#0" id="circle19"/>
	<circle cx="60.5779" cy="420.791" r="4" fill="#0" id="circle20"/>
	<circle cx="70.0076" cy="437.764" r="4" fill="#0" id="circle21"/>
	<circle cx="75.6654" cy="41.7186" r="4" fill="#0" id="circle22"/>
	<circle cx="81.3232" cy="452.852" r="4" fill="#0" id="circle23"/>
	<circle cx="92.6388" cy="32.289" r="4" fill="#0" id="circle24"/>
	<circle cx="98.2966" cy="462.281" r="4" fill="#0" id="circle25"/>
	<circle cx="109.612" cy="22.8593" r="4" fill="#0" id="circle26"/>
	<circle cx="117.156" cy="467.939" r="4" fill="#0" id="circle27"/>
	<circle cx="126.586" cy="13.4297" r="4" fill="#0" id="circle28"/>
	<circle cx="136.015" cy="467.939" r="4" fill="#0" id="circle29"/>
	<circle cx="143.559" cy="4" r="4" fill="#0" id="circle30"/>
	<circle cx="154.875" cy="467.939" r="4" fill="#0" id="circle31"/>
	<circle cx="162.418" cy="4" r="4" fill="#0" id="circle32"/>
	<circle cx="173.734" cy="467.939" r="4" fill="#0" id="circle33"/>
	<circle cx="181.278" cy="4" r="4" fill="#0" id="circle34"/>
	<circle cx="192.593" cy="462.281" r="4" fill="#0" id="circle35"/>
	<circle cx="200.137" cy="4" r="4" fill="#0" id="circle36"/>
	<circle cx="211.452" cy="458.51" r="4" fill="#0" id="circle37"/>
	<circle cx="218.996" cy="4" r="4" fill="#0" id="circle38"/>
	<circle cx="230.312" cy="458.51" r="4" fill="#0" id="circle39"/>
	<circle cx="237.856" cy="4" r="4" fill="#0" id="circle40"/>
	<circle cx="249.171" cy="458.51" r="4" fill="#0" id="circle41"/>
	<circle cx="256.715" cy="4" r="4" fill="#0" id="circle42"/>
	<circle cx="268.03" cy="458.51" r="4" fill="#0" id="circle43"/>
	<circle cx="273.688" cy="13.4297" r="4" fill="#0" id="circle44"/>
	<circle cx="286.89" cy="458.51" r="4" fill="#0" id="circle45"/>
	<circle cx="286.89" cy="575.437" r="4" fill="#0" id="circle46"/>
	<circle cx="286.89" cy="594.297" r="4" fill="#0" id="circle47"/>
	<circle cx="286.89" cy="613.156" r="4" fill="#0" id="circle48"/>
	<circle cx="286.89" cy="632.015" r="4" fill="#0" id="circle49"/>
	<circle cx="290.662" cy="22.8593" r="4" fill="#0" id="circle50"/>
	<circle cx="296.319" cy="475.483" r="4" fill="#0" id="circle51"/>
	<circle cx="296.319" cy="494.342" r="4" fill="#0" id="circle52"/>
	<circle cx="296.319" cy="513.202" r="4" fill="#0" id="circle53"/>
	<circle cx="296.319" cy="532.061" r="4" fill="#0" id="circle54"/>
	<circle cx="296.319" cy="550.92" r="4" fill="#0" id="circle55"/>
	<circle cx="301.977" cy="645.217" r="4" fill="#0" id="circle56"/>
	<circle cx="307.635" cy="32.289" r="4" fill="#0" id="circle57"/>
	<circle cx="318.951" cy="654.646" r="4" fill="#0" id="circle58"/>
	<circle cx="326.494" cy="37.9468" r="4" fill="#0" id="circle59"/>
	<circle cx="334.038" cy="665.962" r="4" fill="#0" id="circle60"/>
	<circle cx="343.468" cy="47.3764" r="4" fill="#0" id="circle61"/>
	<circle cx="351.011" cy="675.392" r="4" fill="#0" id="circle62"/>
	<circle cx="358.555" cy="694.251" r="4" fill="#0" id="circle63"/>
	<circle cx="362.327" cy="54.9202" r="4" fill="#0" id="circle64"/>
	<circle cx="373.643" cy="70.0076" r="4" fill="#0" id="circle65"/>
	<circle cx="375.529" cy="703.681" r="4" fill="#0" id="circle66"/>
	<circle cx="388.73" cy="81.3232" r="4" fill="#0" id="circle67"/>
	<circle cx="390.616" cy="714.996" r="4" fill="#0" id="circle68"/>
	<circle cx="401.932" cy="96.4106" r="4" fill="#0" id="circle69"/>
	<circle cx="403.817" cy="730.084" r="4" fill="#0" id="circle70"/>
	<circle cx="417.019" cy="109.612" r="4" fill="#0" id="circle71"/>
	<circle cx="422.677" cy="737.627" r="4" fill="#0" id="circle72"/>
	<circle cx="424.563" cy="128.471" r="4" fill="#0" id="circle73"/>
	<circle cx="433.992" cy="145.445" r="4" fill="#0" id="circle74"/>
	<circle cx="437.764" cy="750.829" r="4" fill="#0" id="circle75"/>
	<circle cx="439.65" cy="164.304" r="4" fill="#0" id="circle76"/>
	<circle cx="449.08" cy="181.278" r="4" fill="#0" id="circle77"/>
	<circle cx="449.08" cy="765.916" r="4" fill="#0" id="circle78"/>
	<circle cx="458.51" cy="198.251" r="4" fill="#0" id="circle79"/>
	<circle cx="466.053" cy="775.346" r="4" fill="#0" id="circle80"/>
	<circle cx="467.939" cy="215.224" r="4" fill="#0" id="circle81"/>
	<circle cx="475.483" cy="792.319" r="4" fill="#0" id="circle82"/>
	<circle cx="477.369" cy="232.198" r="4" fill="#0" id="circle83"/>
	<circle cx="486.798" cy="249.171" r="4" fill="#0" id="circle84"/>
	<circle cx="490.57" cy="805.521" r="4" fill="#0" id="circle85"/>
	<circle cx="496.228" cy="266.144" r="4" fill="#0" id="circle86"/>
	<circle cx="505.658" cy="816.837" r="4" fill="#0" id="circle87"/>
	<circle cx="515.087" cy="262.373" r="4" fill="#0" id="circle88"/>
	<circle cx="524.517" cy="243.513" r="4" fill="#0" id="circle89"/>
	<circle cx="524.517" cy="816.837" r="4" fill="#0" id="circle90"/>
	<circle cx="533.947" cy="224.654" r="4" fill="#0" id="circle91"/>
	<circle cx="539.605" cy="803.635" r="4" fill="#0" id="circle92"/>
	<circle cx="543.376" cy="205.795" r="4" fill="#0" id="circle93"/>
	<circle cx="552.806" cy="788.548" r="4" fill="#0" id="circle94"/>
	<circle cx="558.464" cy="192.593" r="4" fill="#0" id="circle95"/>
	<circle cx="566.008" cy="173.734" r="4" fill="#0" id="circle96"/>
	<circle cx="571.665" cy="779.118" r="4" fill="#0" id="circle97"/>
	<circle cx="575.437" cy="154.875" r="4" fill="#0" id="circle98"/>
	<circle cx="584.867" cy="136.015" r="4" fill="#0" id="circle99"/>
	<circle cx="590.525" cy="769.688" r="4" fill="#0" id="circle100"/>
	<circle cx="594.297" cy="117.156" r="4" fill="#0" id="circle101"/>
	<circle cx="605.612" cy="756.487" r="4" fill="#0" id="circle102"/>
	<circle cx="609.384" cy="102.068" r="4" fill="#0" id="circle103"/>
	<circle cx="618.814" cy="741.399" r="4" fill="#0" id="circle104"/>
	<circle cx="624.471" cy="88.8669" r="4" fill="#0" id="circle105"/>
	<circle cx="637.673" cy="73.7795" r="4" fill="#0" id="circle106"/>
	<circle cx="637.673" cy="731.97" r="4" fill="#0" id="circle107"/>
	<circle cx="647.103" cy="54.9202" r="4" fill="#0" id="circle108"/>
	<circle cx="656.532" cy="722.54" r="4" fill="#0" id="circle109"/>
	<circle cx="665.962" cy="45.4905" r="4" fill="#0" id="circle110"/>
	<circle cx="675.392" cy="713.11" r="4" fill="#0" id="circle111"/>
	<circle cx="684.821" cy="36.0608" r="4" fill="#0" id="circle112"/>
	<circle cx="694.251" cy="703.681" r="4" fill="#0" id="circle113"/>
	<circle cx="703.681" cy="26.6312" r="4" fill="#0" id="circle114"/>
	<circle cx="713.11" cy="694.251" r="4" fill="#0" id="circle115"/>
	<circle cx="722.54" cy="22.8593" r="4" fill="#0" id="circle116"/>
	<circle cx="730.084" cy="684.821" r="4" fill="#0" id="circle117"/>
	<circle cx="741.399" cy="22.8593" r="4" fill="#0" id="circle118"/>
	<circle cx="745.171" cy="673.506" r="4" fill="#0" id="circle119"/>
	<circle cx="760.259" cy="22.8593" r="4" fill="#0" id="circle120"/>
	<circle cx="760.259" cy="656.532" r="4" fill="#0" id="circle121"/>
	<circle cx="779.118" cy="22.8593" r="4" fill="#0" id="circle122"/>
	<circle cx="779.118" cy="647.103" r="4" fill="#0" id="circle123"/>
	<circle cx="797.977" cy="22.8593" r="4" fill="#0" id="circle124"/>
	<circle cx="797.977" cy="637.673" r="4" fill="#0" id="circle125"/>
	<circle cx="813.065" cy="624.471" r="4" fill="#0" id="circle126"/>
	<circle cx="814.951" cy="32.289" r="4" fill="#0" id="circle127"/>
	<circle cx="826.266" cy="609.384" r="4" fill="#0" id="circle128"/>
	<circle cx="831.924" cy="41.7186" r="4" fill="#0" id="circle129"/>
	<circle cx="841.354" cy="596.183" r="4" fill="#0" id="circle130"/>
	<circle cx="850.783" cy="41.7186" r="4" fill="#0" id="circle131"/>
	<circle cx="860.213" cy="586.753" r="4" fill="#0" id="circle132"/>
	<circle cx="867.757" cy="51.1483" r="4" fill="#0" id="circle133"/>
	<circle cx="873.414" cy="562.236" r="4" fill="#0" id="circle134"/>
	<circle cx="880.958" cy="66.2357" r="4" fill="#0" id="circle135"/>
	<circle cx="888.502" cy="549.034" r="4" fill="#0" id="circle136"/>
	<circle cx="896.046" cy="79.4373" r="4" fill="#0" id="circle137"/>
	<circle cx="901.703" cy="533.947" r="4" fill="#0" id="circle138"/>
	<circle cx="911.133" cy="515.087" r="4" fill="#0" id="circle139"/>
	<circle cx="913.019" cy="88.8669" r="4" fill="#0" id="circle140"/>
	<circle cx="926.221" cy="501.886" r="4" fill="#0" id="circle141"/>
	<circle cx="929.992" cy="98.2966" r="4" fill="#0" id="circle142"/>
	<circle cx="939.422" cy="477.369" r="4" fill="#0" id="circle143"/>
	<circle cx="945.08" cy="109.612" r="4" fill="#0" id="circle144"/>
	<circle cx="952.624" cy="128.471" r="4" fill="#0" id="circle145"/>
	<circle cx="954.51" cy="464.167" r="4" fill="#0" id="circle146"/>
	<circle cx="963.939" cy="445.308" r="4" fill="#0" id="circle147"/>
	<circle cx="967.711" cy="141.673" r="4" fill="#0" id="circle148"/>
	<circle cx="967.711" cy="160.532" r="4" fill="#0" id="circle149"/>
	<circle cx="973.369" cy="426.449" r="4" fill="#0" id="circle150"/>
	<circle cx="977.141" cy="177.506" r="4" fill="#0" id="circle151"/>
	<circle cx="977.141" cy="392.502" r="4" fill="#0" id="circle152"/>
	<circle cx="986.57" cy="194.479" r="4" fill="#0" id="circle153"/>
	<circle cx="986.57" cy="213.338" r="4" fill="#0" id="circle154"/>
	<circle cx="986.57" cy="364.213" r="4" fill="#0" id="circle155"/>
	<circle cx="996" cy="230.312" r="4" fill="#0" id="circle156"/>
	<circle cx="996" cy="249.171" r="4" fill="#0" id="circle157"/>
	<circle cx="996" cy="268.03" r="4" fill="#0" id="circle158"/>
	<circle cx="996" cy="286.89" r="4" fill="#0" id="circle159"/>
	<circle cx="996" cy="305.749" r="4" fill="#0" id="circle160"/>
	<circle cx="996" cy="324.608" r="4" fill="#0" id="circle161"/>
	<circle cx="996" cy="343.468" r="4" fill="#0" id="circle162"/>
	</g>
</svg>