<?xml version="1.0" encoding="UTF-8" standalone="no"?>
<!-- Created with CurveBenchmark -->
<svg
	xmlns:dc="http://purl.org/dc/elements/1.1/"
	xmlns:cc="http://creativecommons.org/ns#"
	xmlns:rdf="http://www.w3.org/1999/02/22-rdf-syntax-ns#"
	xmlns:svg="http://www.w3.org/2000/svg"
	xmlns="http://www.w3.org/2000/svg"
	xmlns:sodipodi="http://sodipodi.sourceforge.net/DTD/sodipodi-0.dtd"
	xmlns:inkscape="http://www.inkscape.org/namespaces/inkscape"
	width="1000"
	height="1000"
	id="svg2"
	version="1.1"
	sodipodi:docname="manifold/vicur-television085.png.txt">
<defs
	id="defs4" />
<metadata
	id="metadata7">
	<rdf:RDF>
		<cc:Work
			rdf:about="">
			<dc:format>image/svg+xml</dc:format>
			<dc:type
				rdf:resource="http://purl.org/dc/dcmitype/StillImage" />
			<dc:title></dc:title>
		</cc:Work>
	</rdf:RDF>
</metadata>
<g
	inkscape:label="Layer 1"
	inkscape:groupmode="layer"
	id="layer1">
	<path style="fill:none;stroke:red;stroke-width:1px;stroke-linecap:butt;stroke-linejoin:miter;stroke-opacity:1" d="M 4,670.561 39.2885,690.166 z" id="boundary" inkscape:connector-curvature="0" />
	<path style="fill:none;stroke:red;stroke-width:1px;stroke-linecap:butt;stroke-linejoin:miter;stroke-opacity:1" d="M 4,670.561 58.8933,654.877 z" id="boundary" inkscape:connector-curvature="0" />
	<path style="fill:none;stroke:red;stroke-width:1px;stroke-linecap:butt;stroke-linejoin:miter;stroke-opacity:1" d="M 4,788.19 35.3676,815.636 z" id="boundary" inkscape:connector-curvature="0" />
	<path style="fill:none;stroke:red;stroke-width:1px;stroke-linecap:butt;stroke-linejoin:miter;stroke-opacity:1" d="M 4,788.19 54.9723,780.348 z" id="boundary" inkscape:connector-curvature="0" />
	<path style="fill:none;stroke:red;stroke-width:1px;stroke-linecap:butt;stroke-linejoin:miter;stroke-opacity:1" d="M 4,905.818 4,945.028 z" id="boundary" inkscape:connector-curvature="0" />
	<path style="fill:none;stroke:red;stroke-width:1px;stroke-linecap:butt;stroke-linejoin:miter;stroke-opacity:1" d="M 4,905.818 43.2095,897.976 z" id="boundary" inkscape:connector-curvature="0" />
	<path style="fill:none;stroke:red;stroke-width:1px;stroke-linecap:butt;stroke-linejoin:miter;stroke-opacity:1" d="M 4,945.028 23.6047,980.316 z" id="boundary" inkscape:connector-curvature="0" />
	<path style="fill:none;stroke:red;stroke-width:1px;stroke-linecap:butt;stroke-linejoin:miter;stroke-opacity:1" d="M 23.6047,980.316 62.8142,992.079 z" id="boundary" inkscape:connector-curvature="0" />
	<path style="fill:none;stroke:red;stroke-width:1px;stroke-linecap:butt;stroke-linejoin:miter;stroke-opacity:1" d="M 35.3676,815.636 74.5771,815.636 z" id="boundary" inkscape:connector-curvature="0" />
	<path style="fill:none;stroke:red;stroke-width:1px;stroke-linecap:butt;stroke-linejoin:miter;stroke-opacity:1" d="M 39.2885,690.166 78.498,690.166 z" id="boundary" inkscape:connector-curvature="0" />
	<path style="fill:none;stroke:red;stroke-width:1px;stroke-linecap:butt;stroke-linejoin:miter;stroke-opacity:1" d="M 43.2095,897.976 82.419,897.976 z" id="boundary" inkscape:connector-curvature="0" />
	<path style="fill:none;stroke:red;stroke-width:1px;stroke-linecap:butt;stroke-linejoin:miter;stroke-opacity:1" d="M 54.9723,780.348 94.1818,780.348 z" id="boundary" inkscape:connector-curvature="0" />
	<path style="fill:none;stroke:red;stroke-width:1px;stroke-linecap:butt;stroke-linejoin:miter;stroke-opacity:1" d="M 58.8933,654.877 98.1028,654.877 z" id="boundary" inkscape:connector-curvature="0" />
	<path style="fill:none;stroke:red;stroke-width:1px;stroke-linecap:butt;stroke-linejoin:miter;stroke-opacity:1" d="M 62.8142,992.079 102.024,980.316 z" id="boundary" inkscape:connector-curvature="0" />
	<path style="fill:none;stroke:red;stroke-width:1px;stroke-linecap:butt;stroke-linejoin:miter;stroke-opacity:1" d="M 74.5771,815.636 113.787,815.636 z" id="boundary" inkscape:connector-curvature="0" />
	<path style="fill:none;stroke:red;stroke-width:1px;stroke-linecap:butt;stroke-linejoin:miter;stroke-opacity:1" d="M 78.498,690.166 117.708,690.166 z" id="boundary" inkscape:connector-curvature="0" />
	<path style="fill:none;stroke:red;stroke-width:1px;stroke-linecap:butt;stroke-linejoin:miter;stroke-opacity:1" d="M 82.419,897.976 121.628,897.976 z" id="boundary" inkscape:connector-curvature="0" />
	<path style="fill:none;stroke:red;stroke-width:1px;stroke-linecap:butt;stroke-linejoin:miter;stroke-opacity:1" d="M 94.1818,780.348 133.391,780.348 z" id="boundary" inkscape:connector-curvature="0" />
	<path style="fill:none;stroke:red;stroke-width:1px;stroke-linecap:butt;stroke-linejoin:miter;stroke-opacity:1" d="M 98.1028,654.877 137.312,654.877 z" id="boundary" inkscape:connector-curvature="0" />
	<path style="fill:none;stroke:red;stroke-width:1px;stroke-linecap:butt;stroke-linejoin:miter;stroke-opacity:1" d="M 102.024,980.316 141.233,996 z" id="boundary" inkscape:connector-curvature="0" />
	<path style="fill:none;stroke:red;stroke-width:1px;stroke-linecap:butt;stroke-linejoin:miter;stroke-opacity:1" d="M 113.787,815.636 152.996,815.636 z" id="boundary" inkscape:connector-curvature="0" />
	<path style="fill:none;stroke:red;stroke-width:1px;stroke-linecap:butt;stroke-linejoin:miter;stroke-opacity:1" d="M 117.708,690.166 156.917,690.166 z" id="boundary" inkscape:connector-curvature="0" />
	<path style="fill:none;stroke:red;stroke-width:1px;stroke-linecap:butt;stroke-linejoin:miter;stroke-opacity:1" d="M 121.628,897.976 160.838,897.976 z" id="boundary" inkscape:connector-curvature="0" />
	<path style="fill:none;stroke:red;stroke-width:1px;stroke-linecap:butt;stroke-linejoin:miter;stroke-opacity:1" d="M 133.391,780.348 172.601,780.348 z" id="boundary" inkscape:connector-curvature="0" />
	<path style="fill:none;stroke:red;stroke-width:1px;stroke-linecap:butt;stroke-linejoin:miter;stroke-opacity:1" d="M 137.312,654.877 176.522,654.877 z" id="boundary" inkscape:connector-curvature="0" />
	<path style="fill:none;stroke:red;stroke-width:1px;stroke-linecap:butt;stroke-linejoin:miter;stroke-opacity:1" d="M 141.233,996 180.443,980.316 z" id="boundary" inkscape:connector-curvature="0" />
	<path style="fill:none;stroke:red;stroke-width:1px;stroke-linecap:butt;stroke-linejoin:miter;stroke-opacity:1" d="M 152.996,815.636 192.206,815.636 z" id="boundary" inkscape:connector-curvature="0" />
	<path style="fill:none;stroke:red;stroke-width:1px;stroke-linecap:butt;stroke-linejoin:miter;stroke-opacity:1" d="M 156.917,690.166 196.126,690.166 z" id="boundary" inkscape:connector-curvature="0" />
	<path style="fill:none;stroke:red;stroke-width:1px;stroke-linecap:butt;stroke-linejoin:miter;stroke-opacity:1" d="M 160.838,897.976 200.047,897.976 z" id="boundary" inkscape:connector-curvature="0" />
	<path style="fill:none;stroke:red;stroke-width:1px;stroke-linecap:butt;stroke-linejoin:miter;stroke-opacity:1" d="M 172.601,780.348 211.81,780.348 z" id="boundary" inkscape:connector-curvature="0" />
	<path style="fill:none;stroke:red;stroke-width:1px;stroke-linecap:butt;stroke-linejoin:miter;stroke-opacity:1" d="M 176.522,654.877 215.731,654.877 z" id="boundary" inkscape:connector-curvature="0" />
	<path style="fill:none;stroke:red;stroke-width:1px;stroke-linecap:butt;stroke-linejoin:miter;stroke-opacity:1" d="M 180.443,980.316 219.652,980.316 z" id="boundary" inkscape:connector-curvature="0" />
	<path style="fill:none;stroke:red;stroke-width:1px;stroke-linecap:butt;stroke-linejoin:miter;stroke-opacity:1" d="M 184.364,43.2095 184.364,82.419 z" id="boundary" inkscape:connector-curvature="0" />
	<path style="fill:none;stroke:red;stroke-width:1px;stroke-linecap:butt;stroke-linejoin:miter;stroke-opacity:1" d="M 184.364,43.2095 207.889,11.8419 z" id="boundary" inkscape:connector-curvature="0" />
	<path style="fill:none;stroke:red;stroke-width:1px;stroke-linecap:butt;stroke-linejoin:miter;stroke-opacity:1" d="M 184.364,82.419 184.364,121.628 z" id="boundary" inkscape:connector-curvature="0" />
	<path style="fill:none;stroke:red;stroke-width:1px;stroke-linecap:butt;stroke-linejoin:miter;stroke-opacity:1" d="M 184.364,121.628 184.364,160.838 z" id="boundary" inkscape:connector-curvature="0" />
	<path style="fill:none;stroke:red;stroke-width:1px;stroke-linecap:butt;stroke-linejoin:miter;stroke-opacity:1" d="M 184.364,160.838 184.364,200.047 z" id="boundary" inkscape:connector-curvature="0" />
	<path style="fill:none;stroke:red;stroke-width:1px;stroke-linecap:butt;stroke-linejoin:miter;stroke-opacity:1" d="M 184.364,200.047 184.364,239.257 z" id="boundary" inkscape:connector-curvature="0" />
	<path style="fill:none;stroke:red;stroke-width:1px;stroke-linecap:butt;stroke-linejoin:miter;stroke-opacity:1" d="M 184.364,239.257 184.364,278.466 z" id="boundary" inkscape:connector-curvature="0" />
	<path style="fill:none;stroke:red;stroke-width:1px;stroke-linecap:butt;stroke-linejoin:miter;stroke-opacity:1" d="M 184.364,278.466 184.364,317.676 z" id="boundary" inkscape:connector-curvature="0" />
	<path style="fill:none;stroke:red;stroke-width:1px;stroke-linecap:butt;stroke-linejoin:miter;stroke-opacity:1" d="M 184.364,317.676 184.364,356.885 z" id="boundary" inkscape:connector-curvature="0" />
	<path style="fill:none;stroke:red;stroke-width:1px;stroke-linecap:butt;stroke-linejoin:miter;stroke-opacity:1" d="M 184.364,356.885 184.364,396.095 z" id="boundary" inkscape:connector-curvature="0" />
	<path style="fill:none;stroke:red;stroke-width:1px;stroke-linecap:butt;stroke-linejoin:miter;stroke-opacity:1" d="M 184.364,396.095 184.364,435.304 z" id="boundary" inkscape:connector-curvature="0" />
	<path style="fill:none;stroke:red;stroke-width:1px;stroke-linecap:butt;stroke-linejoin:miter;stroke-opacity:1" d="M 184.364,435.304 184.364,474.514 z" id="boundary" inkscape:connector-curvature="0" />
	<path style="fill:none;stroke:red;stroke-width:1px;stroke-linecap:butt;stroke-linejoin:miter;stroke-opacity:1" d="M 184.364,474.514 200.047,513.723 z" id="boundary" inkscape:connector-curvature="0" />
	<path style="fill:none;stroke:red;stroke-width:1px;stroke-linecap:butt;stroke-linejoin:miter;stroke-opacity:1" d="M 192.206,815.636 231.415,815.636 z" id="boundary" inkscape:connector-curvature="0" />
	<path style="fill:none;stroke:red;stroke-width:1px;stroke-linecap:butt;stroke-linejoin:miter;stroke-opacity:1" d="M 196.126,690.166 235.336,690.166 z" id="boundary" inkscape:connector-curvature="0" />
	<path style="fill:none;stroke:red;stroke-width:1px;stroke-linecap:butt;stroke-linejoin:miter;stroke-opacity:1" d="M 200.047,513.723 239.257,525.486 z" id="boundary" inkscape:connector-curvature="0" />
	<path style="fill:none;stroke:red;stroke-width:1px;stroke-linecap:butt;stroke-linejoin:miter;stroke-opacity:1" d="M 200.047,897.976 239.257,897.976 z" id="boundary" inkscape:connector-curvature="0" />
	<path style="fill:none;stroke:red;stroke-width:1px;stroke-linecap:butt;stroke-linejoin:miter;stroke-opacity:1" d="M 207.889,11.8419 247.099,4 z" id="boundary" inkscape:connector-curvature="0" />
	<path style="fill:none;stroke:red;stroke-width:1px;stroke-linecap:butt;stroke-linejoin:miter;stroke-opacity:1" d="M 211.81,780.348 251.02,780.348 z" id="boundary" inkscape:connector-curvature="0" />
	<path style="fill:none;stroke:red;stroke-width:1px;stroke-linecap:butt;stroke-linejoin:miter;stroke-opacity:1" d="M 215.731,654.877 254.941,654.877 z" id="boundary" inkscape:connector-curvature="0" />
	<path style="fill:none;stroke:red;stroke-width:1px;stroke-linecap:butt;stroke-linejoin:miter;stroke-opacity:1" d="M 219.652,980.316 258.862,980.316 z" id="boundary" inkscape:connector-curvature="0" />
	<path style="fill:none;stroke:red;stroke-width:1px;stroke-linecap:butt;stroke-linejoin:miter;stroke-opacity:1" d="M 231.415,815.636 270.625,815.636 z" id="boundary" inkscape:connector-curvature="0" />
	<path style="fill:none;stroke:red;stroke-width:1px;stroke-linecap:butt;stroke-linejoin:miter;stroke-opacity:1" d="M 235.336,690.166 274.545,698.008 z" id="boundary" inkscape:connector-curvature="0" />
	<path style="fill:none;stroke:red;stroke-width:1px;stroke-linecap:butt;stroke-linejoin:miter;stroke-opacity:1" d="M 239.257,525.486 278.466,529.407 z" id="boundary" inkscape:connector-curvature="0" />
	<path style="fill:none;stroke:red;stroke-width:1px;stroke-linecap:butt;stroke-linejoin:miter;stroke-opacity:1" d="M 239.257,897.976 278.466,894.055 z" id="boundary" inkscape:connector-curvature="0" />
	<path style="fill:none;stroke:red;stroke-width:1px;stroke-linecap:butt;stroke-linejoin:miter;stroke-opacity:1" d="M 247.099,4 286.308,4 z" id="boundary" inkscape:connector-curvature="0" />
	<path style="fill:none;stroke:red;stroke-width:1px;stroke-linecap:butt;stroke-linejoin:miter;stroke-opacity:1" d="M 251.02,780.348 278.466,737.217 z" id="boundary" inkscape:connector-curvature="0" />
	<path style="fill:none;stroke:red;stroke-width:1px;stroke-linecap:butt;stroke-linejoin:miter;stroke-opacity:1" d="M 254.941,654.877 278.466,607.826 z" id="boundary" inkscape:connector-curvature="0" />
	<path style="fill:none;stroke:red;stroke-width:1px;stroke-linecap:butt;stroke-linejoin:miter;stroke-opacity:1" d="M 258.862,980.316 298.071,980.316 z" id="boundary" inkscape:connector-curvature="0" />
	<path style="fill:none;stroke:red;stroke-width:1px;stroke-linecap:butt;stroke-linejoin:miter;stroke-opacity:1" d="M 270.625,815.636 278.466,854.846 z" id="boundary" inkscape:connector-curvature="0" />
	<path style="fill:none;stroke:red;stroke-width:1px;stroke-linecap:butt;stroke-linejoin:miter;stroke-opacity:1" d="M 274.545,698.008 278.466,737.217 z" id="boundary" inkscape:connector-curvature="0" />
	<path style="fill:none;stroke:red;stroke-width:1px;stroke-linecap:butt;stroke-linejoin:miter;stroke-opacity:1" d="M 278.466,529.407 278.466,568.617 z" id="boundary" inkscape:connector-curvature="0" />
	<path style="fill:none;stroke:red;stroke-width:1px;stroke-linecap:butt;stroke-linejoin:miter;stroke-opacity:1" d="M 278.466,568.617 278.466,607.826 z" id="boundary" inkscape:connector-curvature="0" />
	<path style="fill:none;stroke:red;stroke-width:1px;stroke-linecap:butt;stroke-linejoin:miter;stroke-opacity:1" d="M 278.466,854.846 278.466,894.055 z" id="boundary" inkscape:connector-curvature="0" />
	<path style="fill:none;stroke:red;stroke-width:1px;stroke-linecap:butt;stroke-linejoin:miter;stroke-opacity:1" d="M 286.308,4 321.597,23.6047 z" id="boundary" inkscape:connector-curvature="0" />
	<path style="fill:none;stroke:red;stroke-width:1px;stroke-linecap:butt;stroke-linejoin:miter;stroke-opacity:1" d="M 298.071,980.316 337.281,988.158 z" id="boundary" inkscape:connector-curvature="0" />
	<path style="fill:none;stroke:red;stroke-width:1px;stroke-linecap:butt;stroke-linejoin:miter;stroke-opacity:1" d="M 321.597,23.6047 321.597,62.8142 z" id="boundary" inkscape:connector-curvature="0" />
	<path style="fill:none;stroke:red;stroke-width:1px;stroke-linecap:butt;stroke-linejoin:miter;stroke-opacity:1" d="M 321.597,62.8142 356.885,82.419 z" id="boundary" inkscape:connector-curvature="0" />
	<path style="fill:none;stroke:red;stroke-width:1px;stroke-linecap:butt;stroke-linejoin:miter;stroke-opacity:1" d="M 337.281,988.158 376.49,984.237 z" id="boundary" inkscape:connector-curvature="0" />
	<path style="fill:none;stroke:red;stroke-width:1px;stroke-linecap:butt;stroke-linejoin:miter;stroke-opacity:1" d="M 356.885,82.419 384.332,113.787 z" id="boundary" inkscape:connector-curvature="0" />
	<path style="fill:none;stroke:red;stroke-width:1px;stroke-linecap:butt;stroke-linejoin:miter;stroke-opacity:1" d="M 376.49,984.237 415.7,980.316 z" id="boundary" inkscape:connector-curvature="0" />
	<path style="fill:none;stroke:red;stroke-width:1px;stroke-linecap:butt;stroke-linejoin:miter;stroke-opacity:1" d="M 384.332,113.787 384.332,152.996 z" id="boundary" inkscape:connector-curvature="0" />
	<path style="fill:none;stroke:red;stroke-width:1px;stroke-linecap:butt;stroke-linejoin:miter;stroke-opacity:1" d="M 384.332,152.996 384.332,192.206 z" id="boundary" inkscape:connector-curvature="0" />
	<path style="fill:none;stroke:red;stroke-width:1px;stroke-linecap:butt;stroke-linejoin:miter;stroke-opacity:1" d="M 384.332,192.206 384.332,231.415 z" id="boundary" inkscape:connector-curvature="0" />
	<path style="fill:none;stroke:red;stroke-width:1px;stroke-linecap:butt;stroke-linejoin:miter;stroke-opacity:1" d="M 384.332,231.415 384.332,270.625 z" id="boundary" inkscape:connector-curvature="0" />
	<path style="fill:none;stroke:red;stroke-width:1px;stroke-linecap:butt;stroke-linejoin:miter;stroke-opacity:1" d="M 384.332,270.625 384.332,309.834 z" id="boundary" inkscape:connector-curvature="0" />
	<path style="fill:none;stroke:red;stroke-width:1px;stroke-linecap:butt;stroke-linejoin:miter;stroke-opacity:1" d="M 384.332,309.834 384.332,349.043 z" id="boundary" inkscape:connector-curvature="0" />
	<path style="fill:none;stroke:red;stroke-width:1px;stroke-linecap:butt;stroke-linejoin:miter;stroke-opacity:1" d="M 384.332,349.043 384.332,388.253 z" id="boundary" inkscape:connector-curvature="0" />
	<path style="fill:none;stroke:red;stroke-width:1px;stroke-linecap:butt;stroke-linejoin:miter;stroke-opacity:1" d="M 384.332,388.253 384.332,427.462 z" id="boundary" inkscape:connector-curvature="0" />
	<path style="fill:none;stroke:red;stroke-width:1px;stroke-linecap:butt;stroke-linejoin:miter;stroke-opacity:1" d="M 384.332,427.462 384.332,466.672 z" id="boundary" inkscape:connector-curvature="0" />
	<path style="fill:none;stroke:red;stroke-width:1px;stroke-linecap:butt;stroke-linejoin:miter;stroke-opacity:1" d="M 384.332,466.672 384.332,505.881 z" id="boundary" inkscape:connector-curvature="0" />
	<path style="fill:none;stroke:red;stroke-width:1px;stroke-linecap:butt;stroke-linejoin:miter;stroke-opacity:1" d="M 384.332,505.881 384.332,545.091 z" id="boundary" inkscape:connector-curvature="0" />
	<path style="fill:none;stroke:red;stroke-width:1px;stroke-linecap:butt;stroke-linejoin:miter;stroke-opacity:1" d="M 384.332,545.091 384.332,584.3 z" id="boundary" inkscape:connector-curvature="0" />
	<path style="fill:none;stroke:red;stroke-width:1px;stroke-linecap:butt;stroke-linejoin:miter;stroke-opacity:1" d="M 384.332,584.3 384.332,623.51 z" id="boundary" inkscape:connector-curvature="0" />
	<path style="fill:none;stroke:red;stroke-width:1px;stroke-linecap:butt;stroke-linejoin:miter;stroke-opacity:1" d="M 384.332,623.51 384.332,662.719 z" id="boundary" inkscape:connector-curvature="0" />
	<path style="fill:none;stroke:red;stroke-width:1px;stroke-linecap:butt;stroke-linejoin:miter;stroke-opacity:1" d="M 384.332,662.719 384.332,701.929 z" id="boundary" inkscape:connector-curvature="0" />
	<path style="fill:none;stroke:red;stroke-width:1px;stroke-linecap:butt;stroke-linejoin:miter;stroke-opacity:1" d="M 384.332,701.929 384.332,741.138 z" id="boundary" inkscape:connector-curvature="0" />
	<path style="fill:none;stroke:red;stroke-width:1px;stroke-linecap:butt;stroke-linejoin:miter;stroke-opacity:1" d="M 384.332,741.138 384.332,780.348 z" id="boundary" inkscape:connector-curvature="0" />
	<path style="fill:none;stroke:red;stroke-width:1px;stroke-linecap:butt;stroke-linejoin:miter;stroke-opacity:1" d="M 384.332,780.348 384.332,819.557 z" id="boundary" inkscape:connector-curvature="0" />
	<path style="fill:none;stroke:red;stroke-width:1px;stroke-linecap:butt;stroke-linejoin:miter;stroke-opacity:1" d="M 384.332,819.557 384.332,858.767 z" id="boundary" inkscape:connector-curvature="0" />
	<path style="fill:none;stroke:red;stroke-width:1px;stroke-linecap:butt;stroke-linejoin:miter;stroke-opacity:1" d="M 384.332,858.767 388.253,897.976 z" id="boundary" inkscape:connector-curvature="0" />
	<path style="fill:none;stroke:red;stroke-width:1px;stroke-linecap:butt;stroke-linejoin:miter;stroke-opacity:1" d="M 388.253,897.976 427.462,897.976 z" id="boundary" inkscape:connector-curvature="0" />
	<path style="fill:none;stroke:red;stroke-width:1px;stroke-linecap:butt;stroke-linejoin:miter;stroke-opacity:1" d="M 415.7,980.316 454.909,980.316 z" id="boundary" inkscape:connector-curvature="0" />
	<path style="fill:none;stroke:red;stroke-width:1px;stroke-linecap:butt;stroke-linejoin:miter;stroke-opacity:1" d="M 427.462,897.976 466.672,897.976 z" id="boundary" inkscape:connector-curvature="0" />
	<path style="fill:none;stroke:red;stroke-width:1px;stroke-linecap:butt;stroke-linejoin:miter;stroke-opacity:1" d="M 454.909,980.316 486.277,933.265 z" id="boundary" inkscape:connector-curvature="0" />
	<path style="fill:none;stroke:red;stroke-width:1px;stroke-linecap:butt;stroke-linejoin:miter;stroke-opacity:1" d="M 466.672,897.976 486.277,933.265 z" id="boundary" inkscape:connector-curvature="0" />
	<circle cx="4" cy="670.561" r="4" fill="#0" id="circle0"/>
	<circle cx="4" cy="788.19" r="4" fill="#0" id="circle1"/>
	<circle cx="4" cy="905.818" r="4" fill="#0" id="circle2"/>
	<circle cx="4" cy="945.028" r="4" fill="#0" id="circle3"/>
	<circle cx="23.6047" cy="980.316" r="4" fill="#0" id="circle4"/>
	<circle cx="35.3676" cy="815.636" r="4" fill="#0" id="circle5"/>
	<circle cx="39.2885" cy="690.166" r="4" fill="#0" id="circle6"/>
	<circle cx="43.2095" cy="897.976" r="4" fill="#0" id="circle7"/>
	<circle cx="54.9723" cy="780.348" r="4" fill="#0" id="circle8"/>
	<circle cx="58.8933" cy="654.877" r="4" fill="#0" id="circle9"/>
	<circle cx="62.8142" cy="992.079" r="4" fill="#0" id="circle10"/>
	<circle cx="74.5771" cy="815.636" r="4" fill="#0" id="circle11"/>
	<circle cx="78.498" cy="690.166" r="4" fill="#0" id="circle12"/>
	<circle cx="82.419" cy="897.976" r="4" fill="#0" id="circle13"/>
	<circle cx="94.1818" cy="780.348" r="4" fill="#0" id="circle14"/>
	<circle cx="98.1028" cy="654.877" r="4" fill="#0" id="circle15"/>
	<circle cx="102.024" cy="980.316" r="4" fill="#0" id="circle16"/>
	<circle cx="113.787" cy="815.636" r="4" fill="#0" id="circle17"/>
	<circle cx="117.708" cy="690.166" r="4" fill="#0" id="circle18"/>
	<circle cx="121.628" cy="897.976" r="4" fill="#0" id="circle19"/>
	<circle cx="133.391" cy="780.348" r="4" fill="#0" id="circle20"/>
	<circle cx="137.312" cy="654.877" r="4" fill="#0" id="circle21"/>
	<circle cx="141.233" cy="996" r="4" fill="#0" id="circle22"/>
	<circle cx="152.996" cy="815.636" r="4" fill="#0" id="circle23"/>
	<circle cx="156.917" cy="690.166" r="4" fill="#0" id="circle24"/>
	<circle cx="160.838" cy="897.976" r="4" fill="#0" id="circle25"/>
	<circle cx="172.601" cy="780.348" r="4" fill="#0" id="circle26"/>
	<circle cx="176.522" cy="654.877" r="4" fill="#0" id="circle27"/>
	<circle cx="180.443" cy="980.316" r="4" fill="#0" id="circle28"/>
	<circle cx="184.364" cy="43.2095" r="4" fill="#0" id="circle29"/>
	<circle cx="184.364" cy="82.419" r="4" fill="#0" id="circle30"/>
	<circle cx="184.364" cy="121.628" r="4" fill="#0" id="circle31"/>
	<circle cx="184.364" cy="160.838" r="4" fill="#0" id="circle32"/>
	<circle cx="184.364" cy="200.047" r="4" fill="#0" id="circle33"/>
	<circle cx="184.364" cy="239.257" r="4" fill="#0" id="circle34"/>
	<circle cx="184.364" cy="278.466" r="4" fill="#0" id="circle35"/>
	<circle cx="184.364" cy="317.676" r="4" fill="#0" id="circle36"/>
	<circle cx="184.364" cy="356.885" r="4" fill="#0" id="circle37"/>
	<circle cx="184.364" cy="396.095" r="4" fill="#0" id="circle38"/>
	<circle cx="184.364" cy="435.304" r="4" fill="#0" id="circle39"/>
	<circle cx="184.364" cy="474.514" r="4" fill="#0" id="circle40"/>
	<circle cx="192.206" cy="815.636" r="4" fill="#0" id="circle41"/>
	<circle cx="196.126" cy="690.166" r="4" fill="#0" id="circle42"/>
	<circle cx="200.047" cy="513.723" r="4" fill="#0" id="circle43"/>
	<circle cx="200.047" cy="897.976" r="4" fill="#0" id="circle44"/>
	<circle cx="207.889" cy="11.8419" r="4" fill="#0" id="circle45"/>
	<circle cx="211.81" cy="780.348" r="4" fill="#0" id="circle46"/>
	<circle cx="215.731" cy="654.877" r="4" fill="#0" id="circle47"/>
	<circle cx="219.652" cy="980.316" r="4" fill="#0" id="circle48"/>
	<circle cx="231.415" cy="815.636" r="4" fill="#0" id="circle49"/>
	<circle cx="235.336" cy="690.166" r="4" fill="#0" id="circle50"/>
	<circle cx="239.257" cy="525.486" r="4" fill="#0" id="circle51"/>
	<circle cx="239.257" cy="897.976" r="4" fill="#0" id="circle52"/>
	<circle cx="247.099" cy="4" r="4" fill="#0" id="circle53"/>
	<circle cx="251.02" cy="780.348" r="4" fill="#0" id="circle54"/>
	<circle cx="254.941" cy="654.877" r="4" fill="#0" id="circle55"/>
	<circle cx="258.862" cy="980.316" r="4" fill="#0" id="circle56"/>
	<circle cx="270.625" cy="815.636" r="4" fill="#0" id="circle57"/>
	<circle cx="274.545" cy="698.008" r="4" fill="#0" id="circle58"/>
	<circle cx="278.466" cy="529.407" r="4" fill="#0" id="circle59"/>
	<circle cx="278.466" cy="568.617" r="4" fill="#0" id="circle60"/>
	<circle cx="278.466" cy="607.826" r="4" fill="#0" id="circle61"/>
	<circle cx="278.466" cy="737.217" r="4" fill="#0" id="circle62"/>
	<circle cx="278.466" cy="854.846" r="4" fill="#0" id="circle63"/>
	<circle cx="278.466" cy="894.055" r="4" fill="#0" id="circle64"/>
	<circle cx="286.308" cy="4" r="4" fill="#0" id="circle65"/>
	<circle cx="298.071" cy="980.316" r="4" fill="#0" id="circle66"/>
	<circle cx="321.597" cy="23.6047" r="4" fill="#0" id="circle67"/>
	<circle cx="321.597" cy="62.8142" r="4" fill="#0" id="circle68"/>
	<circle cx="337.281" cy="988.158" r="4" fill="#0" id="circle69"/>
	<circle cx="356.885" cy="82.419" r="4" fill="#0" id="circle70"/>
	<circle cx="376.49" cy="984.237" r="4" fill="#0" id="circle71"/>
	<circle cx="384.332" cy="113.787" r="4" fill="#0" id="circle72"/>
	<circle cx="384.332" cy="152.996" r="4" fill="#0" id="circle73"/>
	<circle cx="384.332" cy="192.206" r="4" fill="#0" id="circle74"/>
	<circle cx="384.332" cy="231.415" r="4" fill="#0" id="circle75"/>
	<circle cx="384.332" cy="270.625" r="4" fill="#0" id="circle76"/>
	<circle cx="384.332" cy="309.834" r="4" fill="#0" id="circle77"/>
	<circle cx="384.332" cy="349.043" r="4" fill="#0" id="circle78"/>
	<circle cx="384.332" cy="388.253" r="4" fill="#0" id="circle79"/>
	<circle cx="384.332" cy="427.462" r="4" fill="#0" id="circle80"/>
	<circle cx="384.332" cy="466.672" r="4" fill="#0" id="circle81"/>
	<circle cx="384.332" cy="505.881" r="4" fill="#0" id="circle82"/>
	<circle cx="384.332" cy="545.091" r="4" fill="#0" id="circle83"/>
	<circle cx="384.332" cy="584.3" r="4" fill="#0" id="circle84"/>
	<circle cx="384.332" cy="623.51" r="4" fill="#0" id="circle85"/>
	<circle cx="384.332" cy="662.719" r="4" fill="#0" id="circle86"/>
	<circle cx="384.332" cy="701.929" r="4" fill="#0" id="circle87"/>
	<circle cx="384.332" cy="741.138" r="4" fill="#0" id="circle88"/>
	<circle cx="384.332" cy="780.348" r="4" fill="#0" id="circle89"/>
	<circle cx="384.332" cy="819.557" r="4" fill="#0" id="circle90"/>
	<circle cx="384.332" cy="858.767" r="4" fill="#0" id="circle91"/>
	<circle cx="388.253" cy="897.976" r="4" fill="#0" id="circle92"/>
	<circle cx="415.7" cy="980.316" r="4" fill="#0" id="circle93"/>
	<circle cx="427.462" cy="897.976" r="4" fill="#0" id="circle94"/>
	<circle cx="454.909" cy="980.316" r="4" fill="#0" id="circle95"/>
	<circle cx="466.672" cy="897.976" r="4" fill="#0" id="circle96"/>
	<circle cx="486.277" cy="933.265" r="4" fill="#0" id="circle97"/>
	</g>
</svg>