<?xml version="1.0" encoding="UTF-8" standalone="no"?>
<!-- Created with CurveBenchmark -->
<svg
	xmlns:dc="http://purl.org/dc/elements/1.1/"
	xmlns:cc="http://creativecommons.org/ns#"
	xmlns:rdf="http://www.w3.org/1999/02/22-rdf-syntax-ns#"
	xmlns:svg="http://www.w3.org/2000/svg"
	xmlns="http://www.w3.org/2000/svg"
	xmlns:sodipodi="http://sodipodi.sourceforge.net/DTD/sodipodi-0.dtd"
	xmlns:inkscape="http://www.inkscape.org/namespaces/inkscape"
	width="1000"
	height="1000"
	id="svg2"
	version="1.1"
	sodipodi:docname="manifold/vicur-breadknifebinary10.png.txt">
<defs
	id="defs4" />
<metadata
	id="metadata7">
	<rdf:RDF>
		<cc:Work
			rdf:about="">
			<dc:format>image/svg+xml</dc:format>
			<dc:type
				rdf:resource="http://purl.org/dc/dcmitype/StillImage" />
			<dc:title></dc:title>
		</cc:Work>
	</rdf:RDF>
</metadata>
<g
	inkscape:label="Layer 1"
	inkscape:groupmode="layer"
	id="layer1">
	<path style="fill:none;stroke:red;stroke-width:1px;stroke-linecap:butt;stroke-linejoin:miter;stroke-opacity:1" d="M 4,531.795 10.359,595.385 z" id="boundary" inkscape:connector-curvature="0" />
	<path style="fill:none;stroke:red;stroke-width:1px;stroke-linecap:butt;stroke-linejoin:miter;stroke-opacity:1" d="M 4,531.795 61.2308,500 z" id="boundary" inkscape:connector-curvature="0" />
	<path style="fill:none;stroke:red;stroke-width:1px;stroke-linecap:butt;stroke-linejoin:miter;stroke-opacity:1" d="M 10.359,595.385 61.2308,639.897 z" id="boundary" inkscape:connector-curvature="0" />
	<path style="fill:none;stroke:red;stroke-width:1px;stroke-linecap:butt;stroke-linejoin:miter;stroke-opacity:1" d="M 61.2308,500 118.462,468.205 z" id="boundary" inkscape:connector-curvature="0" />
	<path style="fill:none;stroke:red;stroke-width:1px;stroke-linecap:butt;stroke-linejoin:miter;stroke-opacity:1" d="M 61.2308,639.897 118.462,601.744 z" id="boundary" inkscape:connector-curvature="0" />
	<path style="fill:none;stroke:red;stroke-width:1px;stroke-linecap:butt;stroke-linejoin:miter;stroke-opacity:1" d="M 118.462,468.205 175.692,436.41 z" id="boundary" inkscape:connector-curvature="0" />
	<path style="fill:none;stroke:red;stroke-width:1px;stroke-linecap:butt;stroke-linejoin:miter;stroke-opacity:1" d="M 118.462,601.744 169.333,563.59 z" id="boundary" inkscape:connector-curvature="0" />
	<path style="fill:none;stroke:red;stroke-width:1px;stroke-linecap:butt;stroke-linejoin:miter;stroke-opacity:1" d="M 169.333,563.59 226.564,525.436 z" id="boundary" inkscape:connector-curvature="0" />
	<path style="fill:none;stroke:red;stroke-width:1px;stroke-linecap:butt;stroke-linejoin:miter;stroke-opacity:1" d="M 175.692,436.41 232.923,398.256 z" id="boundary" inkscape:connector-curvature="0" />
	<path style="fill:none;stroke:red;stroke-width:1px;stroke-linecap:butt;stroke-linejoin:miter;stroke-opacity:1" d="M 226.564,525.436 283.795,487.282 z" id="boundary" inkscape:connector-curvature="0" />
	<path style="fill:none;stroke:red;stroke-width:1px;stroke-linecap:butt;stroke-linejoin:miter;stroke-opacity:1" d="M 232.923,398.256 290.154,366.462 z" id="boundary" inkscape:connector-curvature="0" />
	<path style="fill:none;stroke:red;stroke-width:1px;stroke-linecap:butt;stroke-linejoin:miter;stroke-opacity:1" d="M 283.795,487.282 341.026,449.128 z" id="boundary" inkscape:connector-curvature="0" />
	<path style="fill:none;stroke:red;stroke-width:1px;stroke-linecap:butt;stroke-linejoin:miter;stroke-opacity:1" d="M 290.154,366.462 347.385,328.308 z" id="boundary" inkscape:connector-curvature="0" />
	<path style="fill:none;stroke:red;stroke-width:1px;stroke-linecap:butt;stroke-linejoin:miter;stroke-opacity:1" d="M 341.026,449.128 391.897,410.974 z" id="boundary" inkscape:connector-curvature="0" />
	<path style="fill:none;stroke:red;stroke-width:1px;stroke-linecap:butt;stroke-linejoin:miter;stroke-opacity:1" d="M 347.385,328.308 410.974,302.872 z" id="boundary" inkscape:connector-curvature="0" />
	<path style="fill:none;stroke:red;stroke-width:1px;stroke-linecap:butt;stroke-linejoin:miter;stroke-opacity:1" d="M 391.897,410.974 442.769,366.462 z" id="boundary" inkscape:connector-curvature="0" />
	<path style="fill:none;stroke:red;stroke-width:1px;stroke-linecap:butt;stroke-linejoin:miter;stroke-opacity:1" d="M 410.974,302.872 468.205,264.718 z" id="boundary" inkscape:connector-curvature="0" />
	<path style="fill:none;stroke:red;stroke-width:1px;stroke-linecap:butt;stroke-linejoin:miter;stroke-opacity:1" d="M 442.769,366.462 506.359,353.744 z" id="boundary" inkscape:connector-curvature="0" />
	<path style="fill:none;stroke:red;stroke-width:1px;stroke-linecap:butt;stroke-linejoin:miter;stroke-opacity:1" d="M 468.205,264.718 525.436,232.923 z" id="boundary" inkscape:connector-curvature="0" />
	<path style="fill:none;stroke:red;stroke-width:1px;stroke-linecap:butt;stroke-linejoin:miter;stroke-opacity:1" d="M 506.359,353.744 563.59,321.949 z" id="boundary" inkscape:connector-curvature="0" />
	<path style="fill:none;stroke:red;stroke-width:1px;stroke-linecap:butt;stroke-linejoin:miter;stroke-opacity:1" d="M 525.436,232.923 582.667,194.769 z" id="boundary" inkscape:connector-curvature="0" />
	<path style="fill:none;stroke:red;stroke-width:1px;stroke-linecap:butt;stroke-linejoin:miter;stroke-opacity:1" d="M 563.59,321.949 614.462,283.795 z" id="boundary" inkscape:connector-curvature="0" />
	<path style="fill:none;stroke:red;stroke-width:1px;stroke-linecap:butt;stroke-linejoin:miter;stroke-opacity:1" d="M 582.667,194.769 639.897,156.615 z" id="boundary" inkscape:connector-curvature="0" />
	<path style="fill:none;stroke:red;stroke-width:1px;stroke-linecap:butt;stroke-linejoin:miter;stroke-opacity:1" d="M 614.462,283.795 665.333,245.641 z" id="boundary" inkscape:connector-curvature="0" />
	<path style="fill:none;stroke:red;stroke-width:1px;stroke-linecap:butt;stroke-linejoin:miter;stroke-opacity:1" d="M 639.897,156.615 697.128,124.821 z" id="boundary" inkscape:connector-curvature="0" />
	<path style="fill:none;stroke:red;stroke-width:1px;stroke-linecap:butt;stroke-linejoin:miter;stroke-opacity:1" d="M 665.333,245.641 722.564,213.846 z" id="boundary" inkscape:connector-curvature="0" />
	<path style="fill:none;stroke:red;stroke-width:1px;stroke-linecap:butt;stroke-linejoin:miter;stroke-opacity:1" d="M 697.128,124.821 754.359,86.6667 z" id="boundary" inkscape:connector-curvature="0" />
	<path style="fill:none;stroke:red;stroke-width:1px;stroke-linecap:butt;stroke-linejoin:miter;stroke-opacity:1" d="M 722.564,213.846 779.795,182.051 z" id="boundary" inkscape:connector-curvature="0" />
	<path style="fill:none;stroke:red;stroke-width:1px;stroke-linecap:butt;stroke-linejoin:miter;stroke-opacity:1" d="M 754.359,86.6667 811.59,48.5128 z" id="boundary" inkscape:connector-curvature="0" />
	<path style="fill:none;stroke:red;stroke-width:1px;stroke-linecap:butt;stroke-linejoin:miter;stroke-opacity:1" d="M 779.795,182.051 830.667,137.538 z" id="boundary" inkscape:connector-curvature="0" />
	<path style="fill:none;stroke:red;stroke-width:1px;stroke-linecap:butt;stroke-linejoin:miter;stroke-opacity:1" d="M 811.59,48.5128 868.821,16.7179 z" id="boundary" inkscape:connector-curvature="0" />
	<path style="fill:none;stroke:red;stroke-width:1px;stroke-linecap:butt;stroke-linejoin:miter;stroke-opacity:1" d="M 830.667,137.538 881.538,99.3846 z" id="boundary" inkscape:connector-curvature="0" />
	<path style="fill:none;stroke:red;stroke-width:1px;stroke-linecap:butt;stroke-linejoin:miter;stroke-opacity:1" d="M 868.821,16.7179 932.41,4 z" id="boundary" inkscape:connector-curvature="0" />
	<path style="fill:none;stroke:red;stroke-width:1px;stroke-linecap:butt;stroke-linejoin:miter;stroke-opacity:1" d="M 881.538,99.3846 938.769,67.5897 z" id="boundary" inkscape:connector-curvature="0" />
	<path style="fill:none;stroke:red;stroke-width:1px;stroke-linecap:butt;stroke-linejoin:miter;stroke-opacity:1" d="M 932.41,4 996,4 z" id="boundary" inkscape:connector-curvature="0" />
	<path style="fill:none;stroke:red;stroke-width:1px;stroke-linecap:butt;stroke-linejoin:miter;stroke-opacity:1" d="M 938.769,67.5897 996,4 z" id="boundary" inkscape:connector-curvature="0" />
	<circle cx="4" cy="531.795" r="4" fill="#0" id="circle0"/>
	<circle cx="10.359" cy="595.385" r="4" fill="#0" id="circle1"/>
	<circle cx="61.2308" cy="500" r="4" fill="#0" id="circle2"/>
	<circle cx="61.2308" cy="639.897" r="4" fill="#0" id="circle3"/>
	<circle cx="118.462" cy="468.205" r="4" fill="#0" id="circle4"/>
	<circle cx="118.462" cy="601.744" r="4" fill="#0" id="circle5"/>
	<circle cx="169.333" cy="563.59" r="4" fill="#0" id="circle6"/>
	<circle cx="175.692" cy="436.41" r="4" fill="#0" id="circle7"/>
	<circle cx="226.564" cy="525.436" r="4" fill="#0" id="circle8"/>
	<circle cx="232.923" cy="398.256" r="4" fill="#0" id="circle9"/>
	<circle cx="283.795" cy="487.282" r="4" fill="#0" id="circle10"/>
	<circle cx="290.154" cy="366.462" r="4" fill="#0" id="circle11"/>
	<circle cx="341.026" cy="449.128" r="4" fill="#0" id="circle12"/>
	<circle cx="347.385" cy="328.308" r="4" fill="#0" id="circle13"/>
	<circle cx="391.897" cy="410.974" r="4" fill="#0" id="circle14"/>
	<circle cx="410.974" cy="302.872" r="4" fill="#0" id="circle15"/>
	<circle cx="442.769" cy="366.462" r="4" fill="#0" id="circle16"/>
	<circle cx="468.205" cy="264.718" r="4" fill="#0" id="circle17"/>
	<circle cx="506.359" cy="353.744" r="4" fill="#0" id="circle18"/>
	<circle cx="525.436" cy="232.923" r="4" fill="#0" id="circle19"/>
	<circle cx="563.59" cy="321.949" r="4" fill="#0" id="circle20"/>
	<circle cx="582.667" cy="194.769" r="4" fill="#0" id="circle21"/>
	<circle cx="614.462" cy="283.795" r="4" fill="#0" id="circle22"/>
	<circle cx="639.897" cy="156.615" r="4" fill="#0" id="circle23"/>
	<circle cx="665.333" cy="245.641" r="4" fill="#0" id="circle24"/>
	<circle cx="697.128" cy="124.821" r="4" fill="#0" id="circle25"/>
	<circle cx="722.564" cy="213.846" r="4" fill="#0" id="circle26"/>
	<circle cx="754.359" cy="86.6667" r="4" fill="#0" id="circle27"/>
	<circle cx="779.795" cy="182.051" r="4" fill="#0" id="circle28"/>
	<circle cx="811.59" cy="48.5128" r="4" fill="#0" id="circle29"/>
	<circle cx="830.667" cy="137.538" r="4" fill="#0" id="circle30"/>
	<circle cx="868.821" cy="16.7179" r="4" fill="#0" id="circle31"/>
	<circle cx="881.538" cy="99.3846" r="4" fill="#0" id="circle32"/>
	<circle cx="932.41" cy="4" r="4" fill="#0" id="circle33"/>
	<circle cx="938.769" cy="67.5897" r="4" fill="#0" id="circle34"/>
	<circle cx="996" cy="4" r="4" fill="#0" id="circle35"/>
	</g>
</svg>