<?xml version="1.0" encoding="UTF-8" standalone="no"?>
<!-- Created with CurveBenchmark -->
<svg
	xmlns:dc="http://purl.org/dc/elements/1.1/"
	xmlns:cc="http://creativecommons.org/ns#"
	xmlns:rdf="http://www.w3.org/1999/02/22-rdf-syntax-ns#"
	xmlns:svg="http://www.w3.org/2000/svg"
	xmlns="http://www.w3.org/2000/svg"
	xmlns:sodipodi="http://sodipodi.sourceforge.net/DTD/sodipodi-0.dtd"
	xmlns:inkscape="http://www.inkscape.org/namespaces/inkscape"
	width="1000"
	height="1000"
	id="svg2"
	version="1.1"
	sodipodi:docname="manifold/vicur-elephant21.png.txt">
<defs
	id="defs4" />
<metadata
	id="metadata7">
	<rdf:RDF>
		<cc:Work
			rdf:about="">
			<dc:format>image/svg+xml</dc:format>
			<dc:type
				rdf:resource="http://purl.org/dc/dcmitype/StillImage" />
			<dc:title></dc:title>
		</cc:Work>
	</rdf:RDF>
</metadata>
<g
	inkscape:label="Layer 1"
	inkscape:groupmode="layer"
	id="layer1">
	<path style="fill:none;stroke:red;stroke-width:1px;stroke-linecap:butt;stroke-linejoin:miter;stroke-opacity:1" d="M 4,532.693 4,551.375 z" id="boundary" inkscape:connector-curvature="0" />
	<path style="fill:none;stroke:red;stroke-width:1px;stroke-linecap:butt;stroke-linejoin:miter;stroke-opacity:1" d="M 4,532.693 13.3409,514.011 z" id="boundary" inkscape:connector-curvature="0" />
	<path style="fill:none;stroke:red;stroke-width:1px;stroke-linecap:butt;stroke-linejoin:miter;stroke-opacity:1" d="M 4,551.375 22.6817,542.034 z" id="boundary" inkscape:connector-curvature="0" />
	<path style="fill:none;stroke:red;stroke-width:1px;stroke-linecap:butt;stroke-linejoin:miter;stroke-opacity:1" d="M 13.3409,514.011 22.6817,495.33 z" id="boundary" inkscape:connector-curvature="0" />
	<path style="fill:none;stroke:red;stroke-width:1px;stroke-linecap:butt;stroke-linejoin:miter;stroke-opacity:1" d="M 22.6817,495.33 32.0226,476.648 z" id="boundary" inkscape:connector-curvature="0" />
	<path style="fill:none;stroke:red;stroke-width:1px;stroke-linecap:butt;stroke-linejoin:miter;stroke-opacity:1" d="M 22.6817,542.034 37.6271,528.957 z" id="boundary" inkscape:connector-curvature="0" />
	<path style="fill:none;stroke:red;stroke-width:1px;stroke-linecap:butt;stroke-linejoin:miter;stroke-opacity:1" d="M 32.0226,476.648 46.968,461.702 z" id="boundary" inkscape:connector-curvature="0" />
	<path style="fill:none;stroke:red;stroke-width:1px;stroke-linecap:butt;stroke-linejoin:miter;stroke-opacity:1" d="M 37.6271,528.957 54.4407,519.616 z" id="boundary" inkscape:connector-curvature="0" />
	<path style="fill:none;stroke:red;stroke-width:1px;stroke-linecap:butt;stroke-linejoin:miter;stroke-opacity:1" d="M 46.968,461.702 56.3089,443.021 z" id="boundary" inkscape:connector-curvature="0" />
	<path style="fill:none;stroke:red;stroke-width:1px;stroke-linecap:butt;stroke-linejoin:miter;stroke-opacity:1" d="M 54.4407,519.616 61.9134,500.934 z" id="boundary" inkscape:connector-curvature="0" />
	<path style="fill:none;stroke:red;stroke-width:1px;stroke-linecap:butt;stroke-linejoin:miter;stroke-opacity:1" d="M 56.3089,443.021 60.0452,420.603 z" id="boundary" inkscape:connector-curvature="0" />
	<path style="fill:none;stroke:red;stroke-width:1px;stroke-linecap:butt;stroke-linejoin:miter;stroke-opacity:1" d="M 60.0452,420.603 78.7269,401.921 z" id="boundary" inkscape:connector-curvature="0" />
	<path style="fill:none;stroke:red;stroke-width:1px;stroke-linecap:butt;stroke-linejoin:miter;stroke-opacity:1" d="M 61.9134,500.934 76.8588,487.857 z" id="boundary" inkscape:connector-curvature="0" />
	<path style="fill:none;stroke:red;stroke-width:1px;stroke-linecap:butt;stroke-linejoin:miter;stroke-opacity:1" d="M 76.8588,487.857 89.936,472.911 z" id="boundary" inkscape:connector-curvature="0" />
	<path style="fill:none;stroke:red;stroke-width:1px;stroke-linecap:butt;stroke-linejoin:miter;stroke-opacity:1" d="M 78.7269,271.149 78.7269,289.831 z" id="boundary" inkscape:connector-curvature="0" />
	<path style="fill:none;stroke:red;stroke-width:1px;stroke-linecap:butt;stroke-linejoin:miter;stroke-opacity:1" d="M 78.7269,271.149 93.6723,256.203 z" id="boundary" inkscape:connector-curvature="0" />
	<path style="fill:none;stroke:red;stroke-width:1px;stroke-linecap:butt;stroke-linejoin:miter;stroke-opacity:1" d="M 78.7269,289.831 78.7269,308.512 z" id="boundary" inkscape:connector-curvature="0" />
	<path style="fill:none;stroke:red;stroke-width:1px;stroke-linecap:butt;stroke-linejoin:miter;stroke-opacity:1" d="M 78.7269,308.512 78.7269,327.194 z" id="boundary" inkscape:connector-curvature="0" />
	<path style="fill:none;stroke:red;stroke-width:1px;stroke-linecap:butt;stroke-linejoin:miter;stroke-opacity:1" d="M 78.7269,327.194 78.7269,345.876 z" id="boundary" inkscape:connector-curvature="0" />
	<path style="fill:none;stroke:red;stroke-width:1px;stroke-linecap:butt;stroke-linejoin:miter;stroke-opacity:1" d="M 78.7269,345.876 78.7269,364.557 z" id="boundary" inkscape:connector-curvature="0" />
	<path style="fill:none;stroke:red;stroke-width:1px;stroke-linecap:butt;stroke-linejoin:miter;stroke-opacity:1" d="M 78.7269,364.557 78.7269,383.239 z" id="boundary" inkscape:connector-curvature="0" />
	<path style="fill:none;stroke:red;stroke-width:1px;stroke-linecap:butt;stroke-linejoin:miter;stroke-opacity:1" d="M 78.7269,383.239 78.7269,401.921 z" id="boundary" inkscape:connector-curvature="0" />
	<path style="fill:none;stroke:red;stroke-width:1px;stroke-linecap:butt;stroke-linejoin:miter;stroke-opacity:1" d="M 88.0678,121.695 88.0678,140.377 z" id="boundary" inkscape:connector-curvature="0" />
	<path style="fill:none;stroke:red;stroke-width:1px;stroke-linecap:butt;stroke-linejoin:miter;stroke-opacity:1" d="M 88.0678,121.695 103.013,106.75 z" id="boundary" inkscape:connector-curvature="0" />
	<path style="fill:none;stroke:red;stroke-width:1px;stroke-linecap:butt;stroke-linejoin:miter;stroke-opacity:1" d="M 88.0678,140.377 88.0678,159.058 z" id="boundary" inkscape:connector-curvature="0" />
	<path style="fill:none;stroke:red;stroke-width:1px;stroke-linecap:butt;stroke-linejoin:miter;stroke-opacity:1" d="M 88.0678,159.058 88.0678,177.74 z" id="boundary" inkscape:connector-curvature="0" />
	<path style="fill:none;stroke:red;stroke-width:1px;stroke-linecap:butt;stroke-linejoin:miter;stroke-opacity:1" d="M 88.0678,177.74 97.4087,194.554 z" id="boundary" inkscape:connector-curvature="0" />
	<path style="fill:none;stroke:red;stroke-width:1px;stroke-linecap:butt;stroke-linejoin:miter;stroke-opacity:1" d="M 89.936,472.911 104.881,459.834 z" id="boundary" inkscape:connector-curvature="0" />
	<path style="fill:none;stroke:red;stroke-width:1px;stroke-linecap:butt;stroke-linejoin:miter;stroke-opacity:1" d="M 93.6723,256.203 97.4087,231.917 z" id="boundary" inkscape:connector-curvature="0" />
	<path style="fill:none;stroke:red;stroke-width:1px;stroke-linecap:butt;stroke-linejoin:miter;stroke-opacity:1" d="M 97.4087,194.554 97.4087,213.235 z" id="boundary" inkscape:connector-curvature="0" />
	<path style="fill:none;stroke:red;stroke-width:1px;stroke-linecap:butt;stroke-linejoin:miter;stroke-opacity:1" d="M 97.4087,213.235 97.4087,231.917 z" id="boundary" inkscape:connector-curvature="0" />
	<path style="fill:none;stroke:red;stroke-width:1px;stroke-linecap:butt;stroke-linejoin:miter;stroke-opacity:1" d="M 103.013,106.75 106.75,84.3315 z" id="boundary" inkscape:connector-curvature="0" />
	<path style="fill:none;stroke:red;stroke-width:1px;stroke-linecap:butt;stroke-linejoin:miter;stroke-opacity:1" d="M 104.881,459.834 123.563,463.571 z" id="boundary" inkscape:connector-curvature="0" />
	<path style="fill:none;stroke:red;stroke-width:1px;stroke-linecap:butt;stroke-linejoin:miter;stroke-opacity:1" d="M 106.75,65.6497 106.75,84.3315 z" id="boundary" inkscape:connector-curvature="0" />
	<path style="fill:none;stroke:red;stroke-width:1px;stroke-linecap:butt;stroke-linejoin:miter;stroke-opacity:1" d="M 106.75,65.6497 121.695,50.7043 z" id="boundary" inkscape:connector-curvature="0" />
	<path style="fill:none;stroke:red;stroke-width:1px;stroke-linecap:butt;stroke-linejoin:miter;stroke-opacity:1" d="M 106.75,495.33 116.09,512.143 z" id="boundary" inkscape:connector-curvature="0" />
	<path style="fill:none;stroke:red;stroke-width:1px;stroke-linecap:butt;stroke-linejoin:miter;stroke-opacity:1" d="M 106.75,495.33 125.431,482.252 z" id="boundary" inkscape:connector-curvature="0" />
	<path style="fill:none;stroke:red;stroke-width:1px;stroke-linecap:butt;stroke-linejoin:miter;stroke-opacity:1" d="M 116.09,512.143 134.772,519.616 z" id="boundary" inkscape:connector-curvature="0" />
	<path style="fill:none;stroke:red;stroke-width:1px;stroke-linecap:butt;stroke-linejoin:miter;stroke-opacity:1" d="M 121.695,50.7043 136.64,35.7589 z" id="boundary" inkscape:connector-curvature="0" />
	<path style="fill:none;stroke:red;stroke-width:1px;stroke-linecap:butt;stroke-linejoin:miter;stroke-opacity:1" d="M 123.563,463.571 125.431,482.252 z" id="boundary" inkscape:connector-curvature="0" />
	<path style="fill:none;stroke:red;stroke-width:1px;stroke-linecap:butt;stroke-linejoin:miter;stroke-opacity:1" d="M 125.431,775.556 125.431,794.237 z" id="boundary" inkscape:connector-curvature="0" />
	<path style="fill:none;stroke:red;stroke-width:1px;stroke-linecap:butt;stroke-linejoin:miter;stroke-opacity:1" d="M 125.431,775.556 144.113,773.687 z" id="boundary" inkscape:connector-curvature="0" />
	<path style="fill:none;stroke:red;stroke-width:1px;stroke-linecap:butt;stroke-linejoin:miter;stroke-opacity:1" d="M 125.431,794.237 125.431,812.919 z" id="boundary" inkscape:connector-curvature="0" />
	<path style="fill:none;stroke:red;stroke-width:1px;stroke-linecap:butt;stroke-linejoin:miter;stroke-opacity:1" d="M 125.431,812.919 144.113,818.524 z" id="boundary" inkscape:connector-curvature="0" />
	<path style="fill:none;stroke:red;stroke-width:1px;stroke-linecap:butt;stroke-linejoin:miter;stroke-opacity:1" d="M 134.772,519.616 134.772,538.298 z" id="boundary" inkscape:connector-curvature="0" />
	<path style="fill:none;stroke:red;stroke-width:1px;stroke-linecap:butt;stroke-linejoin:miter;stroke-opacity:1" d="M 134.772,538.298 134.772,570.056 z" id="boundary" inkscape:connector-curvature="0" />
	<path style="fill:none;stroke:red;stroke-width:1px;stroke-linecap:butt;stroke-linejoin:miter;stroke-opacity:1" d="M 134.772,570.056 144.113,586.87 z" id="boundary" inkscape:connector-curvature="0" />
	<path style="fill:none;stroke:red;stroke-width:1px;stroke-linecap:butt;stroke-linejoin:miter;stroke-opacity:1" d="M 136.64,35.7589 155.322,26.4181 z" id="boundary" inkscape:connector-curvature="0" />
	<path style="fill:none;stroke:red;stroke-width:1px;stroke-linecap:butt;stroke-linejoin:miter;stroke-opacity:1" d="M 144.113,586.87 144.113,605.552 z" id="boundary" inkscape:connector-curvature="0" />
	<path style="fill:none;stroke:red;stroke-width:1px;stroke-linecap:butt;stroke-linejoin:miter;stroke-opacity:1" d="M 144.113,605.552 144.113,624.234 z" id="boundary" inkscape:connector-curvature="0" />
	<path style="fill:none;stroke:red;stroke-width:1px;stroke-linecap:butt;stroke-linejoin:miter;stroke-opacity:1" d="M 144.113,624.234 153.454,641.047 z" id="boundary" inkscape:connector-curvature="0" />
	<path style="fill:none;stroke:red;stroke-width:1px;stroke-linecap:butt;stroke-linejoin:miter;stroke-opacity:1" d="M 144.113,773.687 153.454,756.874 z" id="boundary" inkscape:connector-curvature="0" />
	<path style="fill:none;stroke:red;stroke-width:1px;stroke-linecap:butt;stroke-linejoin:miter;stroke-opacity:1" d="M 144.113,818.524 162.795,818.524 z" id="boundary" inkscape:connector-curvature="0" />
	<path style="fill:none;stroke:red;stroke-width:1px;stroke-linecap:butt;stroke-linejoin:miter;stroke-opacity:1" d="M 153.454,641.047 159.058,659.729 z" id="boundary" inkscape:connector-curvature="0" />
	<path style="fill:none;stroke:red;stroke-width:1px;stroke-linecap:butt;stroke-linejoin:miter;stroke-opacity:1" d="M 153.454,756.874 162.795,738.192 z" id="boundary" inkscape:connector-curvature="0" />
	<path style="fill:none;stroke:red;stroke-width:1px;stroke-linecap:butt;stroke-linejoin:miter;stroke-opacity:1" d="M 155.322,26.4181 174.004,17.0772 z" id="boundary" inkscape:connector-curvature="0" />
	<path style="fill:none;stroke:red;stroke-width:1px;stroke-linecap:butt;stroke-linejoin:miter;stroke-opacity:1" d="M 159.058,659.729 162.795,678.411 z" id="boundary" inkscape:connector-curvature="0" />
	<path style="fill:none;stroke:red;stroke-width:1px;stroke-linecap:butt;stroke-linejoin:miter;stroke-opacity:1" d="M 162.795,678.411 168.399,697.092 z" id="boundary" inkscape:connector-curvature="0" />
	<path style="fill:none;stroke:red;stroke-width:1px;stroke-linecap:butt;stroke-linejoin:miter;stroke-opacity:1" d="M 162.795,719.51 162.795,738.192 z" id="boundary" inkscape:connector-curvature="0" />
	<path style="fill:none;stroke:red;stroke-width:1px;stroke-linecap:butt;stroke-linejoin:miter;stroke-opacity:1" d="M 162.795,719.51 168.399,697.092 z" id="boundary" inkscape:connector-curvature="0" />
	<path style="fill:none;stroke:red;stroke-width:1px;stroke-linecap:butt;stroke-linejoin:miter;stroke-opacity:1" d="M 162.795,818.524 181.476,818.524 z" id="boundary" inkscape:connector-curvature="0" />
	<path style="fill:none;stroke:red;stroke-width:1px;stroke-linecap:butt;stroke-linejoin:miter;stroke-opacity:1" d="M 174.004,17.0772 188.949,4 z" id="boundary" inkscape:connector-curvature="0" />
	<path style="fill:none;stroke:red;stroke-width:1px;stroke-linecap:butt;stroke-linejoin:miter;stroke-opacity:1" d="M 181.476,818.524 200.158,812.919 z" id="boundary" inkscape:connector-curvature="0" />
	<path style="fill:none;stroke:red;stroke-width:1px;stroke-linecap:butt;stroke-linejoin:miter;stroke-opacity:1" d="M 188.949,4 207.631,5.86817 z" id="boundary" inkscape:connector-curvature="0" />
	<path style="fill:none;stroke:red;stroke-width:1px;stroke-linecap:butt;stroke-linejoin:miter;stroke-opacity:1" d="M 200.158,812.919 211.367,781.16 z" id="boundary" inkscape:connector-curvature="0" />
	<path style="fill:none;stroke:red;stroke-width:1px;stroke-linecap:butt;stroke-linejoin:miter;stroke-opacity:1" d="M 207.631,5.86817 220.708,20.8136 z" id="boundary" inkscape:connector-curvature="0" />
	<path style="fill:none;stroke:red;stroke-width:1px;stroke-linecap:butt;stroke-linejoin:miter;stroke-opacity:1" d="M 211.367,762.478 211.367,781.16 z" id="boundary" inkscape:connector-curvature="0" />
	<path style="fill:none;stroke:red;stroke-width:1px;stroke-linecap:butt;stroke-linejoin:miter;stroke-opacity:1" d="M 211.367,762.478 220.708,734.456 z" id="boundary" inkscape:connector-curvature="0" />
	<path style="fill:none;stroke:red;stroke-width:1px;stroke-linecap:butt;stroke-linejoin:miter;stroke-opacity:1" d="M 220.708,20.8136 239.39,22.6817 z" id="boundary" inkscape:connector-curvature="0" />
	<path style="fill:none;stroke:red;stroke-width:1px;stroke-linecap:butt;stroke-linejoin:miter;stroke-opacity:1" d="M 220.708,500.934 220.708,519.616 z" id="boundary" inkscape:connector-curvature="0" />
	<path style="fill:none;stroke:red;stroke-width:1px;stroke-linecap:butt;stroke-linejoin:miter;stroke-opacity:1" d="M 220.708,500.934 230.049,482.252 z" id="boundary" inkscape:connector-curvature="0" />
	<path style="fill:none;stroke:red;stroke-width:1px;stroke-linecap:butt;stroke-linejoin:miter;stroke-opacity:1" d="M 220.708,519.616 220.708,538.298 z" id="boundary" inkscape:connector-curvature="0" />
	<path style="fill:none;stroke:red;stroke-width:1px;stroke-linecap:butt;stroke-linejoin:miter;stroke-opacity:1" d="M 220.708,538.298 220.708,556.979 z" id="boundary" inkscape:connector-curvature="0" />
	<path style="fill:none;stroke:red;stroke-width:1px;stroke-linecap:butt;stroke-linejoin:miter;stroke-opacity:1" d="M 220.708,556.979 220.708,575.661 z" id="boundary" inkscape:connector-curvature="0" />
	<path style="fill:none;stroke:red;stroke-width:1px;stroke-linecap:butt;stroke-linejoin:miter;stroke-opacity:1" d="M 220.708,575.661 224.444,594.343 z" id="boundary" inkscape:connector-curvature="0" />
	<path style="fill:none;stroke:red;stroke-width:1px;stroke-linecap:butt;stroke-linejoin:miter;stroke-opacity:1" d="M 220.708,650.388 230.049,631.706 z" id="boundary" inkscape:connector-curvature="0" />
	<path style="fill:none;stroke:red;stroke-width:1px;stroke-linecap:butt;stroke-linejoin:miter;stroke-opacity:1" d="M 220.708,650.388 230.049,667.202 z" id="boundary" inkscape:connector-curvature="0" />
	<path style="fill:none;stroke:red;stroke-width:1px;stroke-linecap:butt;stroke-linejoin:miter;stroke-opacity:1" d="M 220.708,734.456 230.049,706.433 z" id="boundary" inkscape:connector-curvature="0" />
	<path style="fill:none;stroke:red;stroke-width:1px;stroke-linecap:butt;stroke-linejoin:miter;stroke-opacity:1" d="M 224.444,594.343 230.049,613.024 z" id="boundary" inkscape:connector-curvature="0" />
	<path style="fill:none;stroke:red;stroke-width:1px;stroke-linecap:butt;stroke-linejoin:miter;stroke-opacity:1" d="M 230.049,482.252 244.994,469.175 z" id="boundary" inkscape:connector-curvature="0" />
	<path style="fill:none;stroke:red;stroke-width:1px;stroke-linecap:butt;stroke-linejoin:miter;stroke-opacity:1" d="M 230.049,613.024 230.049,631.706 z" id="boundary" inkscape:connector-curvature="0" />
	<path style="fill:none;stroke:red;stroke-width:1px;stroke-linecap:butt;stroke-linejoin:miter;stroke-opacity:1" d="M 230.049,667.202 230.049,687.751 z" id="boundary" inkscape:connector-curvature="0" />
	<path style="fill:none;stroke:red;stroke-width:1px;stroke-linecap:butt;stroke-linejoin:miter;stroke-opacity:1" d="M 230.049,687.751 230.049,706.433 z" id="boundary" inkscape:connector-curvature="0" />
	<path style="fill:none;stroke:red;stroke-width:1px;stroke-linecap:butt;stroke-linejoin:miter;stroke-opacity:1" d="M 239.39,22.6817 258.072,22.6817 z" id="boundary" inkscape:connector-curvature="0" />
	<path style="fill:none;stroke:red;stroke-width:1px;stroke-linecap:butt;stroke-linejoin:miter;stroke-opacity:1" d="M 244.994,469.175 248.731,435.548 z" id="boundary" inkscape:connector-curvature="0" />
	<path style="fill:none;stroke:red;stroke-width:1px;stroke-linecap:butt;stroke-linejoin:miter;stroke-opacity:1" d="M 248.731,435.548 258.072,416.866 z" id="boundary" inkscape:connector-curvature="0" />
	<path style="fill:none;stroke:red;stroke-width:1px;stroke-linecap:butt;stroke-linejoin:miter;stroke-opacity:1" d="M 258.072,22.6817 276.753,22.6817 z" id="boundary" inkscape:connector-curvature="0" />
	<path style="fill:none;stroke:red;stroke-width:1px;stroke-linecap:butt;stroke-linejoin:miter;stroke-opacity:1" d="M 258.072,398.185 258.072,416.866 z" id="boundary" inkscape:connector-curvature="0" />
	<path style="fill:none;stroke:red;stroke-width:1px;stroke-linecap:butt;stroke-linejoin:miter;stroke-opacity:1" d="M 258.072,398.185 274.885,388.844 z" id="boundary" inkscape:connector-curvature="0" />
	<path style="fill:none;stroke:red;stroke-width:1px;stroke-linecap:butt;stroke-linejoin:miter;stroke-opacity:1" d="M 274.885,388.844 274.885,407.525 z" id="boundary" inkscape:connector-curvature="0" />
	<path style="fill:none;stroke:red;stroke-width:1px;stroke-linecap:butt;stroke-linejoin:miter;stroke-opacity:1" d="M 274.885,407.525 280.49,426.207 z" id="boundary" inkscape:connector-curvature="0" />
	<path style="fill:none;stroke:red;stroke-width:1px;stroke-linecap:butt;stroke-linejoin:miter;stroke-opacity:1" d="M 276.753,22.6817 295.435,22.6817 z" id="boundary" inkscape:connector-curvature="0" />
	<path style="fill:none;stroke:red;stroke-width:1px;stroke-linecap:butt;stroke-linejoin:miter;stroke-opacity:1" d="M 280.49,426.207 284.226,444.889 z" id="boundary" inkscape:connector-curvature="0" />
	<path style="fill:none;stroke:red;stroke-width:1px;stroke-linecap:butt;stroke-linejoin:miter;stroke-opacity:1" d="M 284.226,444.889 284.226,463.571 z" id="boundary" inkscape:connector-curvature="0" />
	<path style="fill:none;stroke:red;stroke-width:1px;stroke-linecap:butt;stroke-linejoin:miter;stroke-opacity:1" d="M 284.226,463.571 284.226,482.252 z" id="boundary" inkscape:connector-curvature="0" />
	<path style="fill:none;stroke:red;stroke-width:1px;stroke-linecap:butt;stroke-linejoin:miter;stroke-opacity:1" d="M 284.226,482.252 289.831,500.934 z" id="boundary" inkscape:connector-curvature="0" />
	<path style="fill:none;stroke:red;stroke-width:1px;stroke-linecap:butt;stroke-linejoin:miter;stroke-opacity:1" d="M 289.831,500.934 293.567,519.616 z" id="boundary" inkscape:connector-curvature="0" />
	<path style="fill:none;stroke:red;stroke-width:1px;stroke-linecap:butt;stroke-linejoin:miter;stroke-opacity:1" d="M 293.567,519.616 302.908,536.429 z" id="boundary" inkscape:connector-curvature="0" />
	<path style="fill:none;stroke:red;stroke-width:1px;stroke-linecap:butt;stroke-linejoin:miter;stroke-opacity:1" d="M 295.435,22.6817 312.249,13.3409 z" id="boundary" inkscape:connector-curvature="0" />
	<path style="fill:none;stroke:red;stroke-width:1px;stroke-linecap:butt;stroke-linejoin:miter;stroke-opacity:1" d="M 302.908,536.429 306.644,555.111 z" id="boundary" inkscape:connector-curvature="0" />
	<path style="fill:none;stroke:red;stroke-width:1px;stroke-linecap:butt;stroke-linejoin:miter;stroke-opacity:1" d="M 306.644,555.111 315.985,571.925 z" id="boundary" inkscape:connector-curvature="0" />
	<path style="fill:none;stroke:red;stroke-width:1px;stroke-linecap:butt;stroke-linejoin:miter;stroke-opacity:1" d="M 312.249,13.3409 330.93,13.3409 z" id="boundary" inkscape:connector-curvature="0" />
	<path style="fill:none;stroke:red;stroke-width:1px;stroke-linecap:butt;stroke-linejoin:miter;stroke-opacity:1" d="M 312.249,682.147 312.249,700.829 z" id="boundary" inkscape:connector-curvature="0" />
	<path style="fill:none;stroke:red;stroke-width:1px;stroke-linecap:butt;stroke-linejoin:miter;stroke-opacity:1" d="M 312.249,682.147 321.589,654.124 z" id="boundary" inkscape:connector-curvature="0" />
	<path style="fill:none;stroke:red;stroke-width:1px;stroke-linecap:butt;stroke-linejoin:miter;stroke-opacity:1" d="M 312.249,700.829 321.589,717.642 z" id="boundary" inkscape:connector-curvature="0" />
	<path style="fill:none;stroke:red;stroke-width:1px;stroke-linecap:butt;stroke-linejoin:miter;stroke-opacity:1" d="M 315.985,571.925 321.589,590.606 z" id="boundary" inkscape:connector-curvature="0" />
	<path style="fill:none;stroke:red;stroke-width:1px;stroke-linecap:butt;stroke-linejoin:miter;stroke-opacity:1" d="M 321.589,590.606 330.93,607.42 z" id="boundary" inkscape:connector-curvature="0" />
	<path style="fill:none;stroke:red;stroke-width:1px;stroke-linecap:butt;stroke-linejoin:miter;stroke-opacity:1" d="M 321.589,654.124 340.271,624.234 z" id="boundary" inkscape:connector-curvature="0" />
	<path style="fill:none;stroke:red;stroke-width:1px;stroke-linecap:butt;stroke-linejoin:miter;stroke-opacity:1" d="M 321.589,717.642 340.271,725.115 z" id="boundary" inkscape:connector-curvature="0" />
	<path style="fill:none;stroke:red;stroke-width:1px;stroke-linecap:butt;stroke-linejoin:miter;stroke-opacity:1" d="M 330.93,13.3409 349.612,13.3409 z" id="boundary" inkscape:connector-curvature="0" />
	<path style="fill:none;stroke:red;stroke-width:1px;stroke-linecap:butt;stroke-linejoin:miter;stroke-opacity:1" d="M 330.93,607.42 340.271,624.234 z" id="boundary" inkscape:connector-curvature="0" />
	<path style="fill:none;stroke:red;stroke-width:1px;stroke-linecap:butt;stroke-linejoin:miter;stroke-opacity:1" d="M 340.271,725.115 349.612,741.928 z" id="boundary" inkscape:connector-curvature="0" />
	<path style="fill:none;stroke:red;stroke-width:1px;stroke-linecap:butt;stroke-linejoin:miter;stroke-opacity:1" d="M 349.612,13.3409 368.294,13.3409 z" id="boundary" inkscape:connector-curvature="0" />
	<path style="fill:none;stroke:red;stroke-width:1px;stroke-linecap:butt;stroke-linejoin:miter;stroke-opacity:1" d="M 349.612,741.928 364.557,753.137 z" id="boundary" inkscape:connector-curvature="0" />
	<path style="fill:none;stroke:red;stroke-width:1px;stroke-linecap:butt;stroke-linejoin:miter;stroke-opacity:1" d="M 364.557,753.137 377.635,768.083 z" id="boundary" inkscape:connector-curvature="0" />
	<path style="fill:none;stroke:red;stroke-width:1px;stroke-linecap:butt;stroke-linejoin:miter;stroke-opacity:1" d="M 368.294,13.3409 386.976,13.3409 z" id="boundary" inkscape:connector-curvature="0" />
	<path style="fill:none;stroke:red;stroke-width:1px;stroke-linecap:butt;stroke-linejoin:miter;stroke-opacity:1" d="M 368.294,784.896 377.635,768.083 z" id="boundary" inkscape:connector-curvature="0" />
	<path style="fill:none;stroke:red;stroke-width:1px;stroke-linecap:butt;stroke-linejoin:miter;stroke-opacity:1" d="M 368.294,784.896 383.239,797.974 z" id="boundary" inkscape:connector-curvature="0" />
	<path style="fill:none;stroke:red;stroke-width:1px;stroke-linecap:butt;stroke-linejoin:miter;stroke-opacity:1" d="M 383.239,797.974 401.921,799.842 z" id="boundary" inkscape:connector-curvature="0" />
	<path style="fill:none;stroke:red;stroke-width:1px;stroke-linecap:butt;stroke-linejoin:miter;stroke-opacity:1" d="M 386.976,13.3409 405.657,13.3409 z" id="boundary" inkscape:connector-curvature="0" />
	<path style="fill:none;stroke:red;stroke-width:1px;stroke-linecap:butt;stroke-linejoin:miter;stroke-opacity:1" d="M 401.921,799.842 420.603,799.842 z" id="boundary" inkscape:connector-curvature="0" />
	<path style="fill:none;stroke:red;stroke-width:1px;stroke-linecap:butt;stroke-linejoin:miter;stroke-opacity:1" d="M 405.657,13.3409 424.339,17.0772 z" id="boundary" inkscape:connector-curvature="0" />
	<path style="fill:none;stroke:red;stroke-width:1px;stroke-linecap:butt;stroke-linejoin:miter;stroke-opacity:1" d="M 420.603,799.842 439.284,797.974 z" id="boundary" inkscape:connector-curvature="0" />
	<path style="fill:none;stroke:red;stroke-width:1px;stroke-linecap:butt;stroke-linejoin:miter;stroke-opacity:1" d="M 424.339,17.0772 443.021,22.6817 z" id="boundary" inkscape:connector-curvature="0" />
	<path style="fill:none;stroke:red;stroke-width:1px;stroke-linecap:butt;stroke-linejoin:miter;stroke-opacity:1" d="M 439.284,797.974 448.625,779.292 z" id="boundary" inkscape:connector-curvature="0" />
	<path style="fill:none;stroke:red;stroke-width:1px;stroke-linecap:butt;stroke-linejoin:miter;stroke-opacity:1" d="M 443.021,22.6817 459.834,32.0226 z" id="boundary" inkscape:connector-curvature="0" />
	<path style="fill:none;stroke:red;stroke-width:1px;stroke-linecap:butt;stroke-linejoin:miter;stroke-opacity:1" d="M 448.625,779.292 454.23,743.797 z" id="boundary" inkscape:connector-curvature="0" />
	<path style="fill:none;stroke:red;stroke-width:1px;stroke-linecap:butt;stroke-linejoin:miter;stroke-opacity:1" d="M 454.23,725.115 454.23,743.797 z" id="boundary" inkscape:connector-curvature="0" />
	<path style="fill:none;stroke:red;stroke-width:1px;stroke-linecap:butt;stroke-linejoin:miter;stroke-opacity:1" d="M 454.23,725.115 469.175,712.038 z" id="boundary" inkscape:connector-curvature="0" />
	<path style="fill:none;stroke:red;stroke-width:1px;stroke-linecap:butt;stroke-linejoin:miter;stroke-opacity:1" d="M 459.834,32.0226 478.516,32.0226 z" id="boundary" inkscape:connector-curvature="0" />
	<path style="fill:none;stroke:red;stroke-width:1px;stroke-linecap:butt;stroke-linejoin:miter;stroke-opacity:1" d="M 469.175,712.038 478.516,693.356 z" id="boundary" inkscape:connector-curvature="0" />
	<path style="fill:none;stroke:red;stroke-width:1px;stroke-linecap:butt;stroke-linejoin:miter;stroke-opacity:1" d="M 478.516,32.0226 497.198,32.0226 z" id="boundary" inkscape:connector-curvature="0" />
	<path style="fill:none;stroke:red;stroke-width:1px;stroke-linecap:butt;stroke-linejoin:miter;stroke-opacity:1" d="M 478.516,693.356 482.252,659.729 z" id="boundary" inkscape:connector-curvature="0" />
	<path style="fill:none;stroke:red;stroke-width:1px;stroke-linecap:butt;stroke-linejoin:miter;stroke-opacity:1" d="M 482.252,641.047 482.252,659.729 z" id="boundary" inkscape:connector-curvature="0" />
	<path style="fill:none;stroke:red;stroke-width:1px;stroke-linecap:butt;stroke-linejoin:miter;stroke-opacity:1" d="M 482.252,641.047 497.198,627.97 z" id="boundary" inkscape:connector-curvature="0" />
	<path style="fill:none;stroke:red;stroke-width:1px;stroke-linecap:butt;stroke-linejoin:miter;stroke-opacity:1" d="M 497.198,32.0226 514.011,22.6817 z" id="boundary" inkscape:connector-curvature="0" />
	<path style="fill:none;stroke:red;stroke-width:1px;stroke-linecap:butt;stroke-linejoin:miter;stroke-opacity:1" d="M 497.198,627.97 500.934,603.684 z" id="boundary" inkscape:connector-curvature="0" />
	<path style="fill:none;stroke:red;stroke-width:1px;stroke-linecap:butt;stroke-linejoin:miter;stroke-opacity:1" d="M 500.934,603.684 515.879,590.606 z" id="boundary" inkscape:connector-curvature="0" />
	<path style="fill:none;stroke:red;stroke-width:1px;stroke-linecap:butt;stroke-linejoin:miter;stroke-opacity:1" d="M 514.011,22.6817 532.693,13.3409 z" id="boundary" inkscape:connector-curvature="0" />
	<path style="fill:none;stroke:red;stroke-width:1px;stroke-linecap:butt;stroke-linejoin:miter;stroke-opacity:1" d="M 515.879,590.606 528.957,575.661 z" id="boundary" inkscape:connector-curvature="0" />
	<path style="fill:none;stroke:red;stroke-width:1px;stroke-linecap:butt;stroke-linejoin:miter;stroke-opacity:1" d="M 528.957,556.979 528.957,575.661 z" id="boundary" inkscape:connector-curvature="0" />
	<path style="fill:none;stroke:red;stroke-width:1px;stroke-linecap:butt;stroke-linejoin:miter;stroke-opacity:1" d="M 528.957,556.979 543.902,543.902 z" id="boundary" inkscape:connector-curvature="0" />
	<path style="fill:none;stroke:red;stroke-width:1px;stroke-linecap:butt;stroke-linejoin:miter;stroke-opacity:1" d="M 532.693,13.3409 551.375,13.3409 z" id="boundary" inkscape:connector-curvature="0" />
	<path style="fill:none;stroke:red;stroke-width:1px;stroke-linecap:butt;stroke-linejoin:miter;stroke-opacity:1" d="M 543.902,543.902 556.979,519.616 z" id="boundary" inkscape:connector-curvature="0" />
	<path style="fill:none;stroke:red;stroke-width:1px;stroke-linecap:butt;stroke-linejoin:miter;stroke-opacity:1" d="M 551.375,13.3409 570.056,13.3409 z" id="boundary" inkscape:connector-curvature="0" />
	<path style="fill:none;stroke:red;stroke-width:1px;stroke-linecap:butt;stroke-linejoin:miter;stroke-opacity:1" d="M 556.979,519.616 575.661,519.616 z" id="boundary" inkscape:connector-curvature="0" />
	<path style="fill:none;stroke:red;stroke-width:1px;stroke-linecap:butt;stroke-linejoin:miter;stroke-opacity:1" d="M 570.056,13.3409 588.738,13.3409 z" id="boundary" inkscape:connector-curvature="0" />
	<path style="fill:none;stroke:red;stroke-width:1px;stroke-linecap:butt;stroke-linejoin:miter;stroke-opacity:1" d="M 575.661,519.616 594.343,519.616 z" id="boundary" inkscape:connector-curvature="0" />
	<path style="fill:none;stroke:red;stroke-width:1px;stroke-linecap:butt;stroke-linejoin:miter;stroke-opacity:1" d="M 588.738,13.3409 607.42,13.3409 z" id="boundary" inkscape:connector-curvature="0" />
	<path style="fill:none;stroke:red;stroke-width:1px;stroke-linecap:butt;stroke-linejoin:miter;stroke-opacity:1" d="M 594.343,519.616 613.024,519.616 z" id="boundary" inkscape:connector-curvature="0" />
	<path style="fill:none;stroke:red;stroke-width:1px;stroke-linecap:butt;stroke-linejoin:miter;stroke-opacity:1" d="M 607.42,13.3409 626.102,13.3409 z" id="boundary" inkscape:connector-curvature="0" />
	<path style="fill:none;stroke:red;stroke-width:1px;stroke-linecap:butt;stroke-linejoin:miter;stroke-opacity:1" d="M 611.156,663.465 620.497,680.279 z" id="boundary" inkscape:connector-curvature="0" />
	<path style="fill:none;stroke:red;stroke-width:1px;stroke-linecap:butt;stroke-linejoin:miter;stroke-opacity:1" d="M 611.156,663.465 626.102,648.52 z" id="boundary" inkscape:connector-curvature="0" />
	<path style="fill:none;stroke:red;stroke-width:1px;stroke-linecap:butt;stroke-linejoin:miter;stroke-opacity:1" d="M 613.024,519.616 631.706,510.275 z" id="boundary" inkscape:connector-curvature="0" />
	<path style="fill:none;stroke:red;stroke-width:1px;stroke-linecap:butt;stroke-linejoin:miter;stroke-opacity:1" d="M 620.497,680.279 629.838,697.092 z" id="boundary" inkscape:connector-curvature="0" />
	<path style="fill:none;stroke:red;stroke-width:1px;stroke-linecap:butt;stroke-linejoin:miter;stroke-opacity:1" d="M 626.102,13.3409 642.915,22.6817 z" id="boundary" inkscape:connector-curvature="0" />
	<path style="fill:none;stroke:red;stroke-width:1px;stroke-linecap:butt;stroke-linejoin:miter;stroke-opacity:1" d="M 626.102,648.52 642.915,639.179 z" id="boundary" inkscape:connector-curvature="0" />
	<path style="fill:none;stroke:red;stroke-width:1px;stroke-linecap:butt;stroke-linejoin:miter;stroke-opacity:1" d="M 629.838,697.092 648.52,697.092 z" id="boundary" inkscape:connector-curvature="0" />
	<path style="fill:none;stroke:red;stroke-width:1px;stroke-linecap:butt;stroke-linejoin:miter;stroke-opacity:1" d="M 631.706,510.275 650.388,510.275 z" id="boundary" inkscape:connector-curvature="0" />
	<path style="fill:none;stroke:red;stroke-width:1px;stroke-linecap:butt;stroke-linejoin:miter;stroke-opacity:1" d="M 642.915,22.6817 661.597,22.6817 z" id="boundary" inkscape:connector-curvature="0" />
	<path style="fill:none;stroke:red;stroke-width:1px;stroke-linecap:butt;stroke-linejoin:miter;stroke-opacity:1" d="M 642.915,639.179 648.52,616.761 z" id="boundary" inkscape:connector-curvature="0" />
	<path style="fill:none;stroke:red;stroke-width:1px;stroke-linecap:butt;stroke-linejoin:miter;stroke-opacity:1" d="M 648.52,616.761 657.861,585.002 z" id="boundary" inkscape:connector-curvature="0" />
	<path style="fill:none;stroke:red;stroke-width:1px;stroke-linecap:butt;stroke-linejoin:miter;stroke-opacity:1" d="M 648.52,697.092 665.333,706.433 z" id="boundary" inkscape:connector-curvature="0" />
	<path style="fill:none;stroke:red;stroke-width:1px;stroke-linecap:butt;stroke-linejoin:miter;stroke-opacity:1" d="M 650.388,510.275 657.861,528.957 z" id="boundary" inkscape:connector-curvature="0" />
	<path style="fill:none;stroke:red;stroke-width:1px;stroke-linecap:butt;stroke-linejoin:miter;stroke-opacity:1" d="M 657.861,528.957 657.861,547.638 z" id="boundary" inkscape:connector-curvature="0" />
	<path style="fill:none;stroke:red;stroke-width:1px;stroke-linecap:butt;stroke-linejoin:miter;stroke-opacity:1" d="M 657.861,547.638 657.861,566.32 z" id="boundary" inkscape:connector-curvature="0" />
	<path style="fill:none;stroke:red;stroke-width:1px;stroke-linecap:butt;stroke-linejoin:miter;stroke-opacity:1" d="M 657.861,566.32 657.861,585.002 z" id="boundary" inkscape:connector-curvature="0" />
	<path style="fill:none;stroke:red;stroke-width:1px;stroke-linecap:butt;stroke-linejoin:miter;stroke-opacity:1" d="M 661.597,22.6817 678.411,32.0226 z" id="boundary" inkscape:connector-curvature="0" />
	<path style="fill:none;stroke:red;stroke-width:1px;stroke-linecap:butt;stroke-linejoin:miter;stroke-opacity:1" d="M 665.333,706.433 684.015,706.433 z" id="boundary" inkscape:connector-curvature="0" />
	<path style="fill:none;stroke:red;stroke-width:1px;stroke-linecap:butt;stroke-linejoin:miter;stroke-opacity:1" d="M 678.411,32.0226 697.092,32.0226 z" id="boundary" inkscape:connector-curvature="0" />
	<path style="fill:none;stroke:red;stroke-width:1px;stroke-linecap:butt;stroke-linejoin:miter;stroke-opacity:1" d="M 684.015,706.433 700.829,715.774 z" id="boundary" inkscape:connector-curvature="0" />
	<path style="fill:none;stroke:red;stroke-width:1px;stroke-linecap:butt;stroke-linejoin:miter;stroke-opacity:1" d="M 697.092,32.0226 713.906,41.3635 z" id="boundary" inkscape:connector-curvature="0" />
	<path style="fill:none;stroke:red;stroke-width:1px;stroke-linecap:butt;stroke-linejoin:miter;stroke-opacity:1" d="M 700.829,715.774 719.51,715.774 z" id="boundary" inkscape:connector-curvature="0" />
	<path style="fill:none;stroke:red;stroke-width:1px;stroke-linecap:butt;stroke-linejoin:miter;stroke-opacity:1" d="M 713.906,41.3635 730.719,50.7043 z" id="boundary" inkscape:connector-curvature="0" />
	<path style="fill:none;stroke:red;stroke-width:1px;stroke-linecap:butt;stroke-linejoin:miter;stroke-opacity:1" d="M 719.51,715.774 738.192,713.906 z" id="boundary" inkscape:connector-curvature="0" />
	<path style="fill:none;stroke:red;stroke-width:1px;stroke-linecap:butt;stroke-linejoin:miter;stroke-opacity:1" d="M 730.719,50.7043 749.401,50.7043 z" id="boundary" inkscape:connector-curvature="0" />
	<path style="fill:none;stroke:red;stroke-width:1px;stroke-linecap:butt;stroke-linejoin:miter;stroke-opacity:1" d="M 738.192,713.906 747.533,695.224 z" id="boundary" inkscape:connector-curvature="0" />
	<path style="fill:none;stroke:red;stroke-width:1px;stroke-linecap:butt;stroke-linejoin:miter;stroke-opacity:1" d="M 747.533,695.224 753.137,669.07 z" id="boundary" inkscape:connector-curvature="0" />
	<path style="fill:none;stroke:red;stroke-width:1px;stroke-linecap:butt;stroke-linejoin:miter;stroke-opacity:1" d="M 749.401,50.7043 766.215,60.0452 z" id="boundary" inkscape:connector-curvature="0" />
	<path style="fill:none;stroke:red;stroke-width:1px;stroke-linecap:butt;stroke-linejoin:miter;stroke-opacity:1" d="M 753.137,650.388 753.137,669.07 z" id="boundary" inkscape:connector-curvature="0" />
	<path style="fill:none;stroke:red;stroke-width:1px;stroke-linecap:butt;stroke-linejoin:miter;stroke-opacity:1" d="M 753.137,650.388 762.478,622.365 z" id="boundary" inkscape:connector-curvature="0" />
	<path style="fill:none;stroke:red;stroke-width:1px;stroke-linecap:butt;stroke-linejoin:miter;stroke-opacity:1" d="M 762.478,622.365 771.819,594.343 z" id="boundary" inkscape:connector-curvature="0" />
	<path style="fill:none;stroke:red;stroke-width:1px;stroke-linecap:butt;stroke-linejoin:miter;stroke-opacity:1" d="M 766.215,60.0452 779.292,74.9906 z" id="boundary" inkscape:connector-curvature="0" />
	<path style="fill:none;stroke:red;stroke-width:1px;stroke-linecap:butt;stroke-linejoin:miter;stroke-opacity:1" d="M 771.819,575.661 771.819,594.343 z" id="boundary" inkscape:connector-curvature="0" />
	<path style="fill:none;stroke:red;stroke-width:1px;stroke-linecap:butt;stroke-linejoin:miter;stroke-opacity:1" d="M 771.819,575.661 781.16,547.638 z" id="boundary" inkscape:connector-curvature="0" />
	<path style="fill:none;stroke:red;stroke-width:1px;stroke-linecap:butt;stroke-linejoin:miter;stroke-opacity:1" d="M 779.292,74.9906 794.237,88.0678 z" id="boundary" inkscape:connector-curvature="0" />
	<path style="fill:none;stroke:red;stroke-width:1px;stroke-linecap:butt;stroke-linejoin:miter;stroke-opacity:1" d="M 781.16,547.638 797.974,556.979 z" id="boundary" inkscape:connector-curvature="0" />
	<path style="fill:none;stroke:red;stroke-width:1px;stroke-linecap:butt;stroke-linejoin:miter;stroke-opacity:1" d="M 794.237,88.0678 807.315,103.013 z" id="boundary" inkscape:connector-curvature="0" />
	<path style="fill:none;stroke:red;stroke-width:1px;stroke-linecap:butt;stroke-linejoin:miter;stroke-opacity:1" d="M 797.974,556.979 809.183,571.925 z" id="boundary" inkscape:connector-curvature="0" />
	<path style="fill:none;stroke:red;stroke-width:1px;stroke-linecap:butt;stroke-linejoin:miter;stroke-opacity:1" d="M 807.315,103.013 825.996,106.75 z" id="boundary" inkscape:connector-curvature="0" />
	<path style="fill:none;stroke:red;stroke-width:1px;stroke-linecap:butt;stroke-linejoin:miter;stroke-opacity:1" d="M 809.183,571.925 818.524,588.738 z" id="boundary" inkscape:connector-curvature="0" />
	<path style="fill:none;stroke:red;stroke-width:1px;stroke-linecap:butt;stroke-linejoin:miter;stroke-opacity:1" d="M 818.524,588.738 825.996,607.42 z" id="boundary" inkscape:connector-curvature="0" />
	<path style="fill:none;stroke:red;stroke-width:1px;stroke-linecap:butt;stroke-linejoin:miter;stroke-opacity:1" d="M 825.996,106.75 840.942,117.959 z" id="boundary" inkscape:connector-curvature="0" />
	<path style="fill:none;stroke:red;stroke-width:1px;stroke-linecap:butt;stroke-linejoin:miter;stroke-opacity:1" d="M 825.996,607.42 835.337,624.234 z" id="boundary" inkscape:connector-curvature="0" />
	<path style="fill:none;stroke:red;stroke-width:1px;stroke-linecap:butt;stroke-linejoin:miter;stroke-opacity:1" d="M 835.337,624.234 835.337,642.915 z" id="boundary" inkscape:connector-curvature="0" />
	<path style="fill:none;stroke:red;stroke-width:1px;stroke-linecap:butt;stroke-linejoin:miter;stroke-opacity:1" d="M 835.337,642.915 844.678,659.729 z" id="boundary" inkscape:connector-curvature="0" />
	<path style="fill:none;stroke:red;stroke-width:1px;stroke-linecap:butt;stroke-linejoin:miter;stroke-opacity:1" d="M 835.337,682.147 835.337,700.829 z" id="boundary" inkscape:connector-curvature="0" />
	<path style="fill:none;stroke:red;stroke-width:1px;stroke-linecap:butt;stroke-linejoin:miter;stroke-opacity:1" d="M 835.337,682.147 844.678,659.729 z" id="boundary" inkscape:connector-curvature="0" />
	<path style="fill:none;stroke:red;stroke-width:1px;stroke-linecap:butt;stroke-linejoin:miter;stroke-opacity:1" d="M 835.337,700.829 835.337,719.51 z" id="boundary" inkscape:connector-curvature="0" />
	<path style="fill:none;stroke:red;stroke-width:1px;stroke-linecap:butt;stroke-linejoin:miter;stroke-opacity:1" d="M 835.337,719.51 854.019,725.115 z" id="boundary" inkscape:connector-curvature="0" />
	<path style="fill:none;stroke:red;stroke-width:1px;stroke-linecap:butt;stroke-linejoin:miter;stroke-opacity:1" d="M 840.942,117.959 855.887,131.036 z" id="boundary" inkscape:connector-curvature="0" />
	<path style="fill:none;stroke:red;stroke-width:1px;stroke-linecap:butt;stroke-linejoin:miter;stroke-opacity:1" d="M 854.019,725.115 872.701,725.115 z" id="boundary" inkscape:connector-curvature="0" />
	<path style="fill:none;stroke:red;stroke-width:1px;stroke-linecap:butt;stroke-linejoin:miter;stroke-opacity:1" d="M 855.887,131.036 865.228,147.849 z" id="boundary" inkscape:connector-curvature="0" />
	<path style="fill:none;stroke:red;stroke-width:1px;stroke-linecap:butt;stroke-linejoin:miter;stroke-opacity:1" d="M 865.228,147.849 874.569,164.663 z" id="boundary" inkscape:connector-curvature="0" />
	<path style="fill:none;stroke:red;stroke-width:1px;stroke-linecap:butt;stroke-linejoin:miter;stroke-opacity:1" d="M 872.701,725.115 891.382,719.51 z" id="boundary" inkscape:connector-curvature="0" />
	<path style="fill:none;stroke:red;stroke-width:1px;stroke-linecap:butt;stroke-linejoin:miter;stroke-opacity:1" d="M 874.569,164.663 883.91,181.476 z" id="boundary" inkscape:connector-curvature="0" />
	<path style="fill:none;stroke:red;stroke-width:1px;stroke-linecap:butt;stroke-linejoin:miter;stroke-opacity:1" d="M 874.569,360.821 874.569,379.503 z" id="boundary" inkscape:connector-curvature="0" />
	<path style="fill:none;stroke:red;stroke-width:1px;stroke-linecap:butt;stroke-linejoin:miter;stroke-opacity:1" d="M 874.569,360.821 893.25,364.557 z" id="boundary" inkscape:connector-curvature="0" />
	<path style="fill:none;stroke:red;stroke-width:1px;stroke-linecap:butt;stroke-linejoin:miter;stroke-opacity:1" d="M 874.569,379.503 874.569,398.185 z" id="boundary" inkscape:connector-curvature="0" />
	<path style="fill:none;stroke:red;stroke-width:1px;stroke-linecap:butt;stroke-linejoin:miter;stroke-opacity:1" d="M 874.569,398.185 874.569,416.866 z" id="boundary" inkscape:connector-curvature="0" />
	<path style="fill:none;stroke:red;stroke-width:1px;stroke-linecap:butt;stroke-linejoin:miter;stroke-opacity:1" d="M 874.569,416.866 874.569,435.548 z" id="boundary" inkscape:connector-curvature="0" />
	<path style="fill:none;stroke:red;stroke-width:1px;stroke-linecap:butt;stroke-linejoin:miter;stroke-opacity:1" d="M 874.569,435.548 874.569,454.23 z" id="boundary" inkscape:connector-curvature="0" />
	<path style="fill:none;stroke:red;stroke-width:1px;stroke-linecap:butt;stroke-linejoin:miter;stroke-opacity:1" d="M 874.569,454.23 874.569,472.911 z" id="boundary" inkscape:connector-curvature="0" />
	<path style="fill:none;stroke:red;stroke-width:1px;stroke-linecap:butt;stroke-linejoin:miter;stroke-opacity:1" d="M 874.569,472.911 874.569,491.593 z" id="boundary" inkscape:connector-curvature="0" />
	<path style="fill:none;stroke:red;stroke-width:1px;stroke-linecap:butt;stroke-linejoin:miter;stroke-opacity:1" d="M 874.569,491.593 883.91,508.407 z" id="boundary" inkscape:connector-curvature="0" />
	<path style="fill:none;stroke:red;stroke-width:1px;stroke-linecap:butt;stroke-linejoin:miter;stroke-opacity:1" d="M 883.91,181.476 893.25,198.29 z" id="boundary" inkscape:connector-curvature="0" />
	<path style="fill:none;stroke:red;stroke-width:1px;stroke-linecap:butt;stroke-linejoin:miter;stroke-opacity:1" d="M 883.91,508.407 893.25,525.22 z" id="boundary" inkscape:connector-curvature="0" />
	<path style="fill:none;stroke:red;stroke-width:1px;stroke-linecap:butt;stroke-linejoin:miter;stroke-opacity:1" d="M 891.382,719.51 910.064,715.774 z" id="boundary" inkscape:connector-curvature="0" />
	<path style="fill:none;stroke:red;stroke-width:1px;stroke-linecap:butt;stroke-linejoin:miter;stroke-opacity:1" d="M 893.25,198.29 902.591,215.104 z" id="boundary" inkscape:connector-curvature="0" />
	<path style="fill:none;stroke:red;stroke-width:1px;stroke-linecap:butt;stroke-linejoin:miter;stroke-opacity:1" d="M 893.25,364.557 906.328,379.503 z" id="boundary" inkscape:connector-curvature="0" />
	<path style="fill:none;stroke:red;stroke-width:1px;stroke-linecap:butt;stroke-linejoin:miter;stroke-opacity:1" d="M 893.25,525.22 893.25,543.902 z" id="boundary" inkscape:connector-curvature="0" />
	<path style="fill:none;stroke:red;stroke-width:1px;stroke-linecap:butt;stroke-linejoin:miter;stroke-opacity:1" d="M 893.25,543.902 902.591,560.716 z" id="boundary" inkscape:connector-curvature="0" />
	<path style="fill:none;stroke:red;stroke-width:1px;stroke-linecap:butt;stroke-linejoin:miter;stroke-opacity:1" d="M 902.591,215.104 911.932,231.917 z" id="boundary" inkscape:connector-curvature="0" />
	<path style="fill:none;stroke:red;stroke-width:1px;stroke-linecap:butt;stroke-linejoin:miter;stroke-opacity:1" d="M 902.591,314.117 911.932,287.962 z" id="boundary" inkscape:connector-curvature="0" />
	<path style="fill:none;stroke:red;stroke-width:1px;stroke-linecap:butt;stroke-linejoin:miter;stroke-opacity:1" d="M 902.591,314.117 911.932,330.93 z" id="boundary" inkscape:connector-curvature="0" />
	<path style="fill:none;stroke:red;stroke-width:1px;stroke-linecap:butt;stroke-linejoin:miter;stroke-opacity:1" d="M 902.591,560.716 910.064,579.397 z" id="boundary" inkscape:connector-curvature="0" />
	<path style="fill:none;stroke:red;stroke-width:1px;stroke-linecap:butt;stroke-linejoin:miter;stroke-opacity:1" d="M 906.328,379.503 921.273,392.58 z" id="boundary" inkscape:connector-curvature="0" />
	<path style="fill:none;stroke:red;stroke-width:1px;stroke-linecap:butt;stroke-linejoin:miter;stroke-opacity:1" d="M 910.064,579.397 919.405,596.211 z" id="boundary" inkscape:connector-curvature="0" />
	<path style="fill:none;stroke:red;stroke-width:1px;stroke-linecap:butt;stroke-linejoin:miter;stroke-opacity:1" d="M 910.064,715.774 926.878,706.433 z" id="boundary" inkscape:connector-curvature="0" />
	<path style="fill:none;stroke:red;stroke-width:1px;stroke-linecap:butt;stroke-linejoin:miter;stroke-opacity:1" d="M 911.932,231.917 911.932,250.599 z" id="boundary" inkscape:connector-curvature="0" />
	<path style="fill:none;stroke:red;stroke-width:1px;stroke-linecap:butt;stroke-linejoin:miter;stroke-opacity:1" d="M 911.932,250.599 911.932,269.281 z" id="boundary" inkscape:connector-curvature="0" />
	<path style="fill:none;stroke:red;stroke-width:1px;stroke-linecap:butt;stroke-linejoin:miter;stroke-opacity:1" d="M 911.932,269.281 911.932,287.962 z" id="boundary" inkscape:connector-curvature="0" />
	<path style="fill:none;stroke:red;stroke-width:1px;stroke-linecap:butt;stroke-linejoin:miter;stroke-opacity:1" d="M 911.932,330.93 921.273,347.744 z" id="boundary" inkscape:connector-curvature="0" />
	<path style="fill:none;stroke:red;stroke-width:1px;stroke-linecap:butt;stroke-linejoin:miter;stroke-opacity:1" d="M 919.405,596.211 926.878,614.893 z" id="boundary" inkscape:connector-curvature="0" />
	<path style="fill:none;stroke:red;stroke-width:1px;stroke-linecap:butt;stroke-linejoin:miter;stroke-opacity:1" d="M 921.273,347.744 936.218,360.821 z" id="boundary" inkscape:connector-curvature="0" />
	<path style="fill:none;stroke:red;stroke-width:1px;stroke-linecap:butt;stroke-linejoin:miter;stroke-opacity:1" d="M 921.273,392.58 934.35,407.525 z" id="boundary" inkscape:connector-curvature="0" />
	<path style="fill:none;stroke:red;stroke-width:1px;stroke-linecap:butt;stroke-linejoin:miter;stroke-opacity:1" d="M 926.878,614.893 936.218,631.706 z" id="boundary" inkscape:connector-curvature="0" />
	<path style="fill:none;stroke:red;stroke-width:1px;stroke-linecap:butt;stroke-linejoin:miter;stroke-opacity:1" d="M 926.878,706.433 943.691,695.224 z" id="boundary" inkscape:connector-curvature="0" />
	<path style="fill:none;stroke:red;stroke-width:1px;stroke-linecap:butt;stroke-linejoin:miter;stroke-opacity:1" d="M 934.35,407.525 947.427,422.471 z" id="boundary" inkscape:connector-curvature="0" />
	<path style="fill:none;stroke:red;stroke-width:1px;stroke-linecap:butt;stroke-linejoin:miter;stroke-opacity:1" d="M 936.218,360.821 949.296,375.766 z" id="boundary" inkscape:connector-curvature="0" />
	<path style="fill:none;stroke:red;stroke-width:1px;stroke-linecap:butt;stroke-linejoin:miter;stroke-opacity:1" d="M 936.218,631.706 943.691,650.388 z" id="boundary" inkscape:connector-curvature="0" />
	<path style="fill:none;stroke:red;stroke-width:1px;stroke-linecap:butt;stroke-linejoin:miter;stroke-opacity:1" d="M 943.691,650.388 949.296,669.07 z" id="boundary" inkscape:connector-curvature="0" />
	<path style="fill:none;stroke:red;stroke-width:1px;stroke-linecap:butt;stroke-linejoin:miter;stroke-opacity:1" d="M 943.691,695.224 949.296,669.07 z" id="boundary" inkscape:connector-curvature="0" />
	<path style="fill:none;stroke:red;stroke-width:1px;stroke-linecap:butt;stroke-linejoin:miter;stroke-opacity:1" d="M 947.427,422.471 949.296,441.153 z" id="boundary" inkscape:connector-curvature="0" />
	<path style="fill:none;stroke:red;stroke-width:1px;stroke-linecap:butt;stroke-linejoin:miter;stroke-opacity:1" d="M 949.296,375.766 958.637,392.58 z" id="boundary" inkscape:connector-curvature="0" />
	<path style="fill:none;stroke:red;stroke-width:1px;stroke-linecap:butt;stroke-linejoin:miter;stroke-opacity:1" d="M 949.296,441.153 967.977,448.625 z" id="boundary" inkscape:connector-curvature="0" />
	<path style="fill:none;stroke:red;stroke-width:1px;stroke-linecap:butt;stroke-linejoin:miter;stroke-opacity:1" d="M 958.637,392.58 967.977,409.394 z" id="boundary" inkscape:connector-curvature="0" />
	<path style="fill:none;stroke:red;stroke-width:1px;stroke-linecap:butt;stroke-linejoin:miter;stroke-opacity:1" d="M 967.977,409.394 977.318,426.207 z" id="boundary" inkscape:connector-curvature="0" />
	<path style="fill:none;stroke:red;stroke-width:1px;stroke-linecap:butt;stroke-linejoin:miter;stroke-opacity:1" d="M 967.977,448.625 975.45,467.307 z" id="boundary" inkscape:connector-curvature="0" />
	<path style="fill:none;stroke:red;stroke-width:1px;stroke-linecap:butt;stroke-linejoin:miter;stroke-opacity:1" d="M 975.45,467.307 984.791,484.121 z" id="boundary" inkscape:connector-curvature="0" />
	<path style="fill:none;stroke:red;stroke-width:1px;stroke-linecap:butt;stroke-linejoin:miter;stroke-opacity:1" d="M 977.318,426.207 986.659,443.021 z" id="boundary" inkscape:connector-curvature="0" />
	<path style="fill:none;stroke:red;stroke-width:1px;stroke-linecap:butt;stroke-linejoin:miter;stroke-opacity:1" d="M 984.791,484.121 996,459.834 z" id="boundary" inkscape:connector-curvature="0" />
	<path style="fill:none;stroke:red;stroke-width:1px;stroke-linecap:butt;stroke-linejoin:miter;stroke-opacity:1" d="M 986.659,443.021 996,459.834 z" id="boundary" inkscape:connector-curvature="0" />
	<circle cx="4" cy="532.693" r="4" fill="#0" id="circle0"/>
	<circle cx="4" cy="551.375" r="4" fill="#0" id="circle1"/>
	<circle cx="13.3409" cy="514.011" r="4" fill="#0" id="circle2"/>
	<circle cx="22.6817" cy="495.33" r="4" fill="#0" id="circle3"/>
	<circle cx="22.6817" cy="542.034" r="4" fill="#0" id="circle4"/>
	<circle cx="32.0226" cy="476.648" r="4" fill="#0" id="circle5"/>
	<circle cx="37.6271" cy="528.957" r="4" fill="#0" id="circle6"/>
	<circle cx="46.968" cy="461.702" r="4" fill="#0" id="circle7"/>
	<circle cx="54.4407" cy="519.616" r="4" fill="#0" id="circle8"/>
	<circle cx="56.3089" cy="443.021" r="4" fill="#0" id="circle9"/>
	<circle cx="60.0452" cy="420.603" r="4" fill="#0" id="circle10"/>
	<circle cx="61.9134" cy="500.934" r="4" fill="#0" id="circle11"/>
	<circle cx="76.8588" cy="487.857" r="4" fill="#0" id="circle12"/>
	<circle cx="78.7269" cy="271.149" r="4" fill="#0" id="circle13"/>
	<circle cx="78.7269" cy="289.831" r="4" fill="#0" id="circle14"/>
	<circle cx="78.7269" cy="308.512" r="4" fill="#0" id="circle15"/>
	<circle cx="78.7269" cy="327.194" r="4" fill="#0" id="circle16"/>
	<circle cx="78.7269" cy="345.876" r="4" fill="#0" id="circle17"/>
	<circle cx="78.7269" cy="364.557" r="4" fill="#0" id="circle18"/>
	<circle cx="78.7269" cy="383.239" r="4" fill="#0" id="circle19"/>
	<circle cx="78.7269" cy="401.921" r="4" fill="#0" id="circle20"/>
	<circle cx="88.0678" cy="121.695" r="4" fill="#0" id="circle21"/>
	<circle cx="88.0678" cy="140.377" r="4" fill="#0" id="circle22"/>
	<circle cx="88.0678" cy="159.058" r="4" fill="#0" id="circle23"/>
	<circle cx="88.0678" cy="177.74" r="4" fill="#0" id="circle24"/>
	<circle cx="89.936" cy="472.911" r="4" fill="#0" id="circle25"/>
	<circle cx="93.6723" cy="256.203" r="4" fill="#0" id="circle26"/>
	<circle cx="97.4087" cy="194.554" r="4" fill="#0" id="circle27"/>
	<circle cx="97.4087" cy="213.235" r="4" fill="#0" id="circle28"/>
	<circle cx="97.4087" cy="231.917" r="4" fill="#0" id="circle29"/>
	<circle cx="103.013" cy="106.75" r="4" fill="#0" id="circle30"/>
	<circle cx="104.881" cy="459.834" r="4" fill="#0" id="circle31"/>
	<circle cx="106.75" cy="65.6497" r="4" fill="#0" id="circle32"/>
	<circle cx="106.75" cy="84.3315" r="4" fill="#0" id="circle33"/>
	<circle cx="106.75" cy="495.33" r="4" fill="#0" id="circle34"/>
	<circle cx="116.09" cy="512.143" r="4" fill="#0" id="circle35"/>
	<circle cx="121.695" cy="50.7043" r="4" fill="#0" id="circle36"/>
	<circle cx="123.563" cy="463.571" r="4" fill="#0" id="circle37"/>
	<circle cx="125.431" cy="482.252" r="4" fill="#0" id="circle38"/>
	<circle cx="125.431" cy="775.556" r="4" fill="#0" id="circle39"/>
	<circle cx="125.431" cy="794.237" r="4" fill="#0" id="circle40"/>
	<circle cx="125.431" cy="812.919" r="4" fill="#0" id="circle41"/>
	<circle cx="134.772" cy="519.616" r="4" fill="#0" id="circle42"/>
	<circle cx="134.772" cy="538.298" r="4" fill="#0" id="circle43"/>
	<circle cx="134.772" cy="570.056" r="4" fill="#0" id="circle44"/>
	<circle cx="136.64" cy="35.7589" r="4" fill="#0" id="circle45"/>
	<circle cx="144.113" cy="586.87" r="4" fill="#0" id="circle46"/>
	<circle cx="144.113" cy="605.552" r="4" fill="#0" id="circle47"/>
	<circle cx="144.113" cy="624.234" r="4" fill="#0" id="circle48"/>
	<circle cx="144.113" cy="773.687" r="4" fill="#0" id="circle49"/>
	<circle cx="144.113" cy="818.524" r="4" fill="#0" id="circle50"/>
	<circle cx="153.454" cy="641.047" r="4" fill="#0" id="circle51"/>
	<circle cx="153.454" cy="756.874" r="4" fill="#0" id="circle52"/>
	<circle cx="155.322" cy="26.4181" r="4" fill="#0" id="circle53"/>
	<circle cx="159.058" cy="659.729" r="4" fill="#0" id="circle54"/>
	<circle cx="162.795" cy="678.411" r="4" fill="#0" id="circle55"/>
	<circle cx="162.795" cy="719.51" r="4" fill="#0" id="circle56"/>
	<circle cx="162.795" cy="738.192" r="4" fill="#0" id="circle57"/>
	<circle cx="162.795" cy="818.524" r="4" fill="#0" id="circle58"/>
	<circle cx="168.399" cy="697.092" r="4" fill="#0" id="circle59"/>
	<circle cx="174.004" cy="17.0772" r="4" fill="#0" id="circle60"/>
	<circle cx="181.476" cy="818.524" r="4" fill="#0" id="circle61"/>
	<circle cx="188.949" cy="4" r="4" fill="#0" id="circle62"/>
	<circle cx="200.158" cy="812.919" r="4" fill="#0" id="circle63"/>
	<circle cx="207.631" cy="5.86817" r="4" fill="#0" id="circle64"/>
	<circle cx="211.367" cy="762.478" r="4" fill="#0" id="circle65"/>
	<circle cx="211.367" cy="781.16" r="4" fill="#0" id="circle66"/>
	<circle cx="220.708" cy="20.8136" r="4" fill="#0" id="circle67"/>
	<circle cx="220.708" cy="500.934" r="4" fill="#0" id="circle68"/>
	<circle cx="220.708" cy="519.616" r="4" fill="#0" id="circle69"/>
	<circle cx="220.708" cy="538.298" r="4" fill="#0" id="circle70"/>
	<circle cx="220.708" cy="556.979" r="4" fill="#0" id="circle71"/>
	<circle cx="220.708" cy="575.661" r="4" fill="#0" id="circle72"/>
	<circle cx="220.708" cy="650.388" r="4" fill="#0" id="circle73"/>
	<circle cx="220.708" cy="734.456" r="4" fill="#0" id="circle74"/>
	<circle cx="224.444" cy="594.343" r="4" fill="#0" id="circle75"/>
	<circle cx="230.049" cy="482.252" r="4" fill="#0" id="circle76"/>
	<circle cx="230.049" cy="613.024" r="4" fill="#0" id="circle77"/>
	<circle cx="230.049" cy="631.706" r="4" fill="#0" id="circle78"/>
	<circle cx="230.049" cy="667.202" r="4" fill="#0" id="circle79"/>
	<circle cx="230.049" cy="687.751" r="4" fill="#0" id="circle80"/>
	<circle cx="230.049" cy="706.433" r="4" fill="#0" id="circle81"/>
	<circle cx="239.39" cy="22.6817" r="4" fill="#0" id="circle82"/>
	<circle cx="244.994" cy="469.175" r="4" fill="#0" id="circle83"/>
	<circle cx="248.731" cy="435.548" r="4" fill="#0" id="circle84"/>
	<circle cx="258.072" cy="22.6817" r="4" fill="#0" id="circle85"/>
	<circle cx="258.072" cy="398.185" r="4" fill="#0" id="circle86"/>
	<circle cx="258.072" cy="416.866" r="4" fill="#0" id="circle87"/>
	<circle cx="274.885" cy="388.844" r="4" fill="#0" id="circle88"/>
	<circle cx="274.885" cy="407.525" r="4" fill="#0" id="circle89"/>
	<circle cx="276.753" cy="22.6817" r="4" fill="#0" id="circle90"/>
	<circle cx="280.49" cy="426.207" r="4" fill="#0" id="circle91"/>
	<circle cx="284.226" cy="444.889" r="4" fill="#0" id="circle92"/>
	<circle cx="284.226" cy="463.571" r="4" fill="#0" id="circle93"/>
	<circle cx="284.226" cy="482.252" r="4" fill="#0" id="circle94"/>
	<circle cx="289.831" cy="500.934" r="4" fill="#0" id="circle95"/>
	<circle cx="293.567" cy="519.616" r="4" fill="#0" id="circle96"/>
	<circle cx="295.435" cy="22.6817" r="4" fill="#0" id="circle97"/>
	<circle cx="302.908" cy="536.429" r="4" fill="#0" id="circle98"/>
	<circle cx="306.644" cy="555.111" r="4" fill="#0" id="circle99"/>
	<circle cx="312.249" cy="13.3409" r="4" fill="#0" id="circle100"/>
	<circle cx="312.249" cy="682.147" r="4" fill="#0" id="circle101"/>
	<circle cx="312.249" cy="700.829" r="4" fill="#0" id="circle102"/>
	<circle cx="315.985" cy="571.925" r="4" fill="#0" id="circle103"/>
	<circle cx="321.589" cy="590.606" r="4" fill="#0" id="circle104"/>
	<circle cx="321.589" cy="635.443" r="4" fill="#0" id="circle105"/>
	<circle cx="321.589" cy="654.124" r="4" fill="#0" id="circle106"/>
	<circle cx="321.589" cy="717.642" r="4" fill="#0" id="circle107"/>
	<circle cx="330.93" cy="13.3409" r="4" fill="#0" id="circle108"/>
	<circle cx="330.93" cy="607.42" r="4" fill="#0" id="circle109"/>
	<circle cx="340.271" cy="624.234" r="4" fill="#0" id="circle110"/>
	<circle cx="340.271" cy="725.115" r="4" fill="#0" id="circle111"/>
	<circle cx="349.612" cy="13.3409" r="4" fill="#0" id="circle112"/>
	<circle cx="349.612" cy="741.928" r="4" fill="#0" id="circle113"/>
	<circle cx="364.557" cy="753.137" r="4" fill="#0" id="circle114"/>
	<circle cx="368.294" cy="13.3409" r="4" fill="#0" id="circle115"/>
	<circle cx="368.294" cy="784.896" r="4" fill="#0" id="circle116"/>
	<circle cx="377.635" cy="768.083" r="4" fill="#0" id="circle117"/>
	<circle cx="381.371" cy="743.797" r="4" fill="#0" id="circle118"/>
	<circle cx="383.239" cy="797.974" r="4" fill="#0" id="circle119"/>
	<circle cx="386.976" cy="13.3409" r="4" fill="#0" id="circle120"/>
	<circle cx="401.921" cy="799.842" r="4" fill="#0" id="circle121"/>
	<circle cx="405.657" cy="13.3409" r="4" fill="#0" id="circle122"/>
	<circle cx="420.603" cy="799.842" r="4" fill="#0" id="circle123"/>
	<circle cx="424.339" cy="17.0772" r="4" fill="#0" id="circle124"/>
	<circle cx="439.284" cy="797.974" r="4" fill="#0" id="circle125"/>
	<circle cx="443.021" cy="22.6817" r="4" fill="#0" id="circle126"/>
	<circle cx="448.625" cy="779.292" r="4" fill="#0" id="circle127"/>
	<circle cx="454.23" cy="725.115" r="4" fill="#0" id="circle128"/>
	<circle cx="454.23" cy="743.797" r="4" fill="#0" id="circle129"/>
	<circle cx="459.834" cy="32.0226" r="4" fill="#0" id="circle130"/>
	<circle cx="469.175" cy="712.038" r="4" fill="#0" id="circle131"/>
	<circle cx="478.516" cy="32.0226" r="4" fill="#0" id="circle132"/>
	<circle cx="478.516" cy="693.356" r="4" fill="#0" id="circle133"/>
	<circle cx="482.252" cy="641.047" r="4" fill="#0" id="circle134"/>
	<circle cx="482.252" cy="659.729" r="4" fill="#0" id="circle135"/>
	<circle cx="497.198" cy="32.0226" r="4" fill="#0" id="circle136"/>
	<circle cx="497.198" cy="627.97" r="4" fill="#0" id="circle137"/>
	<circle cx="500.934" cy="603.684" r="4" fill="#0" id="circle138"/>
	<circle cx="514.011" cy="22.6817" r="4" fill="#0" id="circle139"/>
	<circle cx="515.879" cy="590.606" r="4" fill="#0" id="circle140"/>
	<circle cx="528.957" cy="556.979" r="4" fill="#0" id="circle141"/>
	<circle cx="528.957" cy="575.661" r="4" fill="#0" id="circle142"/>
	<circle cx="532.693" cy="13.3409" r="4" fill="#0" id="circle143"/>
	<circle cx="543.902" cy="543.902" r="4" fill="#0" id="circle144"/>
	<circle cx="551.375" cy="13.3409" r="4" fill="#0" id="circle145"/>
	<circle cx="556.979" cy="519.616" r="4" fill="#0" id="circle146"/>
	<circle cx="570.056" cy="13.3409" r="4" fill="#0" id="circle147"/>
	<circle cx="575.661" cy="519.616" r="4" fill="#0" id="circle148"/>
	<circle cx="588.738" cy="13.3409" r="4" fill="#0" id="circle149"/>
	<circle cx="594.343" cy="519.616" r="4" fill="#0" id="circle150"/>
	<circle cx="607.42" cy="13.3409" r="4" fill="#0" id="circle151"/>
	<circle cx="611.156" cy="663.465" r="4" fill="#0" id="circle152"/>
	<circle cx="613.024" cy="519.616" r="4" fill="#0" id="circle153"/>
	<circle cx="620.497" cy="680.279" r="4" fill="#0" id="circle154"/>
	<circle cx="626.102" cy="13.3409" r="4" fill="#0" id="circle155"/>
	<circle cx="626.102" cy="648.52" r="4" fill="#0" id="circle156"/>
	<circle cx="629.838" cy="697.092" r="4" fill="#0" id="circle157"/>
	<circle cx="631.706" cy="510.275" r="4" fill="#0" id="circle158"/>
	<circle cx="642.915" cy="22.6817" r="4" fill="#0" id="circle159"/>
	<circle cx="642.915" cy="639.179" r="4" fill="#0" id="circle160"/>
	<circle cx="648.52" cy="616.761" r="4" fill="#0" id="circle161"/>
	<circle cx="648.52" cy="697.092" r="4" fill="#0" id="circle162"/>
	<circle cx="650.388" cy="510.275" r="4" fill="#0" id="circle163"/>
	<circle cx="657.861" cy="528.957" r="4" fill="#0" id="circle164"/>
	<circle cx="657.861" cy="547.638" r="4" fill="#0" id="circle165"/>
	<circle cx="657.861" cy="566.32" r="4" fill="#0" id="circle166"/>
	<circle cx="657.861" cy="585.002" r="4" fill="#0" id="circle167"/>
	<circle cx="661.597" cy="22.6817" r="4" fill="#0" id="circle168"/>
	<circle cx="665.333" cy="706.433" r="4" fill="#0" id="circle169"/>
	<circle cx="678.411" cy="32.0226" r="4" fill="#0" id="circle170"/>
	<circle cx="684.015" cy="706.433" r="4" fill="#0" id="circle171"/>
	<circle cx="697.092" cy="32.0226" r="4" fill="#0" id="circle172"/>
	<circle cx="700.829" cy="715.774" r="4" fill="#0" id="circle173"/>
	<circle cx="713.906" cy="41.3635" r="4" fill="#0" id="circle174"/>
	<circle cx="719.51" cy="715.774" r="4" fill="#0" id="circle175"/>
	<circle cx="730.719" cy="50.7043" r="4" fill="#0" id="circle176"/>
	<circle cx="738.192" cy="713.906" r="4" fill="#0" id="circle177"/>
	<circle cx="747.533" cy="695.224" r="4" fill="#0" id="circle178"/>
	<circle cx="749.401" cy="50.7043" r="4" fill="#0" id="circle179"/>
	<circle cx="753.137" cy="650.388" r="4" fill="#0" id="circle180"/>
	<circle cx="753.137" cy="669.07" r="4" fill="#0" id="circle181"/>
	<circle cx="762.478" cy="622.365" r="4" fill="#0" id="circle182"/>
	<circle cx="766.215" cy="60.0452" r="4" fill="#0" id="circle183"/>
	<circle cx="771.819" cy="575.661" r="4" fill="#0" id="circle184"/>
	<circle cx="771.819" cy="594.343" r="4" fill="#0" id="circle185"/>
	<circle cx="779.292" cy="74.9906" r="4" fill="#0" id="circle186"/>
	<circle cx="781.16" cy="547.638" r="4" fill="#0" id="circle187"/>
	<circle cx="794.237" cy="88.0678" r="4" fill="#0" id="circle188"/>
	<circle cx="797.974" cy="556.979" r="4" fill="#0" id="circle189"/>
	<circle cx="807.315" cy="103.013" r="4" fill="#0" id="circle190"/>
	<circle cx="809.183" cy="571.925" r="4" fill="#0" id="circle191"/>
	<circle cx="818.524" cy="588.738" r="4" fill="#0" id="circle192"/>
	<circle cx="825.996" cy="106.75" r="4" fill="#0" id="circle193"/>
	<circle cx="825.996" cy="607.42" r="4" fill="#0" id="circle194"/>
	<circle cx="835.337" cy="624.234" r="4" fill="#0" id="circle195"/>
	<circle cx="835.337" cy="642.915" r="4" fill="#0" id="circle196"/>
	<circle cx="835.337" cy="682.147" r="4" fill="#0" id="circle197"/>
	<circle cx="835.337" cy="700.829" r="4" fill="#0" id="circle198"/>
	<circle cx="835.337" cy="719.51" r="4" fill="#0" id="circle199"/>
	<circle cx="840.942" cy="117.959" r="4" fill="#0" id="circle200"/>
	<circle cx="844.678" cy="659.729" r="4" fill="#0" id="circle201"/>
	<circle cx="854.019" cy="725.115" r="4" fill="#0" id="circle202"/>
	<circle cx="855.887" cy="131.036" r="4" fill="#0" id="circle203"/>
	<circle cx="865.228" cy="147.849" r="4" fill="#0" id="circle204"/>
	<circle cx="872.701" cy="725.115" r="4" fill="#0" id="circle205"/>
	<circle cx="874.569" cy="164.663" r="4" fill="#0" id="circle206"/>
	<circle cx="874.569" cy="360.821" r="4" fill="#0" id="circle207"/>
	<circle cx="874.569" cy="379.503" r="4" fill="#0" id="circle208"/>
	<circle cx="874.569" cy="398.185" r="4" fill="#0" id="circle209"/>
	<circle cx="874.569" cy="416.866" r="4" fill="#0" id="circle210"/>
	<circle cx="874.569" cy="435.548" r="4" fill="#0" id="circle211"/>
	<circle cx="874.569" cy="454.23" r="4" fill="#0" id="circle212"/>
	<circle cx="874.569" cy="472.911" r="4" fill="#0" id="circle213"/>
	<circle cx="874.569" cy="491.593" r="4" fill="#0" id="circle214"/>
	<circle cx="883.91" cy="181.476" r="4" fill="#0" id="circle215"/>
	<circle cx="883.91" cy="508.407" r="4" fill="#0" id="circle216"/>
	<circle cx="891.382" cy="719.51" r="4" fill="#0" id="circle217"/>
	<circle cx="893.25" cy="198.29" r="4" fill="#0" id="circle218"/>
	<circle cx="893.25" cy="364.557" r="4" fill="#0" id="circle219"/>
	<circle cx="893.25" cy="525.22" r="4" fill="#0" id="circle220"/>
	<circle cx="893.25" cy="543.902" r="4" fill="#0" id="circle221"/>
	<circle cx="902.591" cy="215.104" r="4" fill="#0" id="circle222"/>
	<circle cx="902.591" cy="314.117" r="4" fill="#0" id="circle223"/>
	<circle cx="902.591" cy="560.716" r="4" fill="#0" id="circle224"/>
	<circle cx="906.328" cy="379.503" r="4" fill="#0" id="circle225"/>
	<circle cx="910.064" cy="579.397" r="4" fill="#0" id="circle226"/>
	<circle cx="910.064" cy="715.774" r="4" fill="#0" id="circle227"/>
	<circle cx="911.932" cy="231.917" r="4" fill="#0" id="circle228"/>
	<circle cx="911.932" cy="250.599" r="4" fill="#0" id="circle229"/>
	<circle cx="911.932" cy="269.281" r="4" fill="#0" id="circle230"/>
	<circle cx="911.932" cy="287.962" r="4" fill="#0" id="circle231"/>
	<circle cx="911.932" cy="330.93" r="4" fill="#0" id="circle232"/>
	<circle cx="919.405" cy="596.211" r="4" fill="#0" id="circle233"/>
	<circle cx="921.273" cy="347.744" r="4" fill="#0" id="circle234"/>
	<circle cx="921.273" cy="392.58" r="4" fill="#0" id="circle235"/>
	<circle cx="926.878" cy="614.893" r="4" fill="#0" id="circle236"/>
	<circle cx="926.878" cy="706.433" r="4" fill="#0" id="circle237"/>
	<circle cx="934.35" cy="407.525" r="4" fill="#0" id="circle238"/>
	<circle cx="936.218" cy="360.821" r="4" fill="#0" id="circle239"/>
	<circle cx="936.218" cy="631.706" r="4" fill="#0" id="circle240"/>
	<circle cx="943.691" cy="650.388" r="4" fill="#0" id="circle241"/>
	<circle cx="943.691" cy="695.224" r="4" fill="#0" id="circle242"/>
	<circle cx="947.427" cy="422.471" r="4" fill="#0" id="circle243"/>
	<circle cx="949.296" cy="375.766" r="4" fill="#0" id="circle244"/>
	<circle cx="949.296" cy="441.153" r="4" fill="#0" id="circle245"/>
	<circle cx="949.296" cy="669.07" r="4" fill="#0" id="circle246"/>
	<circle cx="958.637" cy="392.58" r="4" fill="#0" id="circle247"/>
	<circle cx="967.977" cy="409.394" r="4" fill="#0" id="circle248"/>
	<circle cx="967.977" cy="448.625" r="4" fill="#0" id="circle249"/>
	<circle cx="975.45" cy="467.307" r="4" fill="#0" id="circle250"/>
	<circle cx="977.318" cy="426.207" r="4" fill="#0" id="circle251"/>
	<circle cx="984.791" cy="484.121" r="4" fill="#0" id="circle252"/>
	<circle cx="986.659" cy="443.021" r="4" fill="#0" id="circle253"/>
	<circle cx="996" cy="459.834" r="4" fill="#0" id="circle254"/>
	</g>
</svg>