<?xml version="1.0" encoding="UTF-8" standalone="no"?>
<!-- Created with CurveBenchmark -->
<svg
	xmlns:dc="http://purl.org/dc/elements/1.1/"
	xmlns:cc="http://creativecommons.org/ns#"
	xmlns:rdf="http://www.w3.org/1999/02/22-rdf-syntax-ns#"
	xmlns:svg="http://www.w3.org/2000/svg"
	xmlns="http://www.w3.org/2000/svg"
	xmlns:sodipodi="http://sodipodi.sourceforge.net/DTD/sodipodi-0.dtd"
	xmlns:inkscape="http://www.inkscape.org/namespaces/inkscape"
	width="1000"
	height="1000"
	id="svg2"
	version="1.1"
	sodipodi:docname="manifold/vicur-carriage-15.png.txt">
<defs
	id="defs4" />
<metadata
	id="metadata7">
	<rdf:RDF>
		<cc:Work
			rdf:about="">
			<dc:format>image/svg+xml</dc:format>
			<dc:type
				rdf:resource="http://purl.org/dc/dcmitype/StillImage" />
			<dc:title></dc:title>
		</cc:Work>
	</rdf:RDF>
</metadata>
<g
	inkscape:label="Layer 1"
	inkscape:groupmode="layer"
	id="layer1">
	<path style="fill:none;stroke:red;stroke-width:1px;stroke-linecap:butt;stroke-linejoin:miter;stroke-opacity:1" d="M 4,149.665 8.60967,140.446 z" id="boundary" inkscape:connector-curvature="0" />
	<path style="fill:none;stroke:red;stroke-width:1px;stroke-linecap:butt;stroke-linejoin:miter;stroke-opacity:1" d="M 4,149.665 17.829,161.651 z" id="boundary" inkscape:connector-curvature="0" />
	<path style="fill:none;stroke:red;stroke-width:1px;stroke-linecap:butt;stroke-linejoin:miter;stroke-opacity:1" d="M 8.60967,131.227 8.60967,140.446 z" id="boundary" inkscape:connector-curvature="0" />
	<path style="fill:none;stroke:red;stroke-width:1px;stroke-linecap:butt;stroke-linejoin:miter;stroke-opacity:1" d="M 8.60967,131.227 13.2193,117.398 z" id="boundary" inkscape:connector-curvature="0" />
	<path style="fill:none;stroke:red;stroke-width:1px;stroke-linecap:butt;stroke-linejoin:miter;stroke-opacity:1" d="M 13.2193,117.398 17.829,108.178 z" id="boundary" inkscape:connector-curvature="0" />
	<path style="fill:none;stroke:red;stroke-width:1px;stroke-linecap:butt;stroke-linejoin:miter;stroke-opacity:1" d="M 17.829,108.178 29.8141,91.5836 z" id="boundary" inkscape:connector-curvature="0" />
	<path style="fill:none;stroke:red;stroke-width:1px;stroke-linecap:butt;stroke-linejoin:miter;stroke-opacity:1" d="M 17.829,161.651 35.3457,166.26 z" id="boundary" inkscape:connector-curvature="0" />
	<path style="fill:none;stroke:red;stroke-width:1px;stroke-linecap:butt;stroke-linejoin:miter;stroke-opacity:1" d="M 29.8141,91.5836 34.4238,82.3643 z" id="boundary" inkscape:connector-curvature="0" />
	<path style="fill:none;stroke:red;stroke-width:1px;stroke-linecap:butt;stroke-linejoin:miter;stroke-opacity:1" d="M 34.4238,82.3643 39.0335,73.145 z" id="boundary" inkscape:connector-curvature="0" />
	<path style="fill:none;stroke:red;stroke-width:1px;stroke-linecap:butt;stroke-linejoin:miter;stroke-opacity:1" d="M 35.3457,166.26 43.6431,160.729 z" id="boundary" inkscape:connector-curvature="0" />
	<path style="fill:none;stroke:red;stroke-width:1px;stroke-linecap:butt;stroke-linejoin:miter;stroke-opacity:1" d="M 39.0335,73.145 43.6431,63.9257 z" id="boundary" inkscape:connector-curvature="0" />
	<path style="fill:none;stroke:red;stroke-width:1px;stroke-linecap:butt;stroke-linejoin:miter;stroke-opacity:1" d="M 43.6431,63.9257 52.8625,63.9257 z" id="boundary" inkscape:connector-curvature="0" />
	<path style="fill:none;stroke:red;stroke-width:1px;stroke-linecap:butt;stroke-linejoin:miter;stroke-opacity:1" d="M 43.6431,160.729 55.6283,143.212 z" id="boundary" inkscape:connector-curvature="0" />
	<path style="fill:none;stroke:red;stroke-width:1px;stroke-linecap:butt;stroke-linejoin:miter;stroke-opacity:1" d="M 52.8625,63.9257 62.0818,63.9257 z" id="boundary" inkscape:connector-curvature="0" />
	<path style="fill:none;stroke:red;stroke-width:1px;stroke-linecap:butt;stroke-linejoin:miter;stroke-opacity:1" d="M 55.6283,143.212 60.2379,133.993 z" id="boundary" inkscape:connector-curvature="0" />
	<path style="fill:none;stroke:red;stroke-width:1px;stroke-linecap:butt;stroke-linejoin:miter;stroke-opacity:1" d="M 60.2379,133.993 64.8476,124.773 z" id="boundary" inkscape:connector-curvature="0" />
	<path style="fill:none;stroke:red;stroke-width:1px;stroke-linecap:butt;stroke-linejoin:miter;stroke-opacity:1" d="M 62.0818,63.9257 70.3792,68.5353 z" id="boundary" inkscape:connector-curvature="0" />
	<path style="fill:none;stroke:red;stroke-width:1px;stroke-linecap:butt;stroke-linejoin:miter;stroke-opacity:1" d="M 64.8476,124.773 73.145,120.164 z" id="boundary" inkscape:connector-curvature="0" />
	<path style="fill:none;stroke:red;stroke-width:1px;stroke-linecap:butt;stroke-linejoin:miter;stroke-opacity:1" d="M 70.3792,68.5353 79.5985,68.5353 z" id="boundary" inkscape:connector-curvature="0" />
	<path style="fill:none;stroke:red;stroke-width:1px;stroke-linecap:butt;stroke-linejoin:miter;stroke-opacity:1" d="M 73.145,120.164 90.6617,115.554 z" id="boundary" inkscape:connector-curvature="0" />
	<path style="fill:none;stroke:red;stroke-width:1px;stroke-linecap:butt;stroke-linejoin:miter;stroke-opacity:1" d="M 79.5985,68.5353 87.8959,73.145 z" id="boundary" inkscape:connector-curvature="0" />
	<path style="fill:none;stroke:red;stroke-width:1px;stroke-linecap:butt;stroke-linejoin:miter;stroke-opacity:1" d="M 86.974,375.539 86.974,384.758 z" id="boundary" inkscape:connector-curvature="0" />
	<path style="fill:none;stroke:red;stroke-width:1px;stroke-linecap:butt;stroke-linejoin:miter;stroke-opacity:1" d="M 86.974,375.539 91.5836,366.32 z" id="boundary" inkscape:connector-curvature="0" />
	<path style="fill:none;stroke:red;stroke-width:1px;stroke-linecap:butt;stroke-linejoin:miter;stroke-opacity:1" d="M 86.974,384.758 91.5836,393.056 z" id="boundary" inkscape:connector-curvature="0" />
	<path style="fill:none;stroke:red;stroke-width:1px;stroke-linecap:butt;stroke-linejoin:miter;stroke-opacity:1" d="M 87.8959,73.145 104.491,82.3643 z" id="boundary" inkscape:connector-curvature="0" />
	<path style="fill:none;stroke:red;stroke-width:1px;stroke-linecap:butt;stroke-linejoin:miter;stroke-opacity:1" d="M 90.6617,115.554 96.1933,132.149 z" id="boundary" inkscape:connector-curvature="0" />
	<path style="fill:none;stroke:red;stroke-width:1px;stroke-linecap:butt;stroke-linejoin:miter;stroke-opacity:1" d="M 91.5836,366.32 96.1933,352.491 z" id="boundary" inkscape:connector-curvature="0" />
	<path style="fill:none;stroke:red;stroke-width:1px;stroke-linecap:butt;stroke-linejoin:miter;stroke-opacity:1" d="M 96.1933,132.149 96.1933,141.368 z" id="boundary" inkscape:connector-curvature="0" />
	<path style="fill:none;stroke:red;stroke-width:1px;stroke-linecap:butt;stroke-linejoin:miter;stroke-opacity:1" d="M 96.1933,141.368 97.1152,150.587 z" id="boundary" inkscape:connector-curvature="0" />
	<path style="fill:none;stroke:red;stroke-width:1px;stroke-linecap:butt;stroke-linejoin:miter;stroke-opacity:1" d="M 96.1933,352.491 100.803,343.271 z" id="boundary" inkscape:connector-curvature="0" />
	<path style="fill:none;stroke:red;stroke-width:1px;stroke-linecap:butt;stroke-linejoin:miter;stroke-opacity:1" d="M 97.1152,150.587 101.725,158.885 z" id="boundary" inkscape:connector-curvature="0" />
	<path style="fill:none;stroke:red;stroke-width:1px;stroke-linecap:butt;stroke-linejoin:miter;stroke-opacity:1" d="M 100.803,343.271 105.413,334.052 z" id="boundary" inkscape:connector-curvature="0" />
	<path style="fill:none;stroke:red;stroke-width:1px;stroke-linecap:butt;stroke-linejoin:miter;stroke-opacity:1" d="M 101.725,158.885 110.022,175.48 z" id="boundary" inkscape:connector-curvature="0" />
	<path style="fill:none;stroke:red;stroke-width:1px;stroke-linecap:butt;stroke-linejoin:miter;stroke-opacity:1" d="M 104.491,82.3643 122.007,86.974 z" id="boundary" inkscape:connector-curvature="0" />
	<path style="fill:none;stroke:red;stroke-width:1px;stroke-linecap:butt;stroke-linejoin:miter;stroke-opacity:1" d="M 105.413,334.052 110.022,322.989 z" id="boundary" inkscape:connector-curvature="0" />
	<path style="fill:none;stroke:red;stroke-width:1px;stroke-linecap:butt;stroke-linejoin:miter;stroke-opacity:1" d="M 107.257,396.743 120.164,382.914 z" id="boundary" inkscape:connector-curvature="0" />
	<path style="fill:none;stroke:red;stroke-width:1px;stroke-linecap:butt;stroke-linejoin:miter;stroke-opacity:1" d="M 110.022,175.48 110.022,184.699 z" id="boundary" inkscape:connector-curvature="0" />
	<path style="fill:none;stroke:red;stroke-width:1px;stroke-linecap:butt;stroke-linejoin:miter;stroke-opacity:1" d="M 110.022,184.699 110.022,193.918 z" id="boundary" inkscape:connector-curvature="0" />
	<path style="fill:none;stroke:red;stroke-width:1px;stroke-linecap:butt;stroke-linejoin:miter;stroke-opacity:1" d="M 110.022,193.918 110.022,203.138 z" id="boundary" inkscape:connector-curvature="0" />
	<path style="fill:none;stroke:red;stroke-width:1px;stroke-linecap:butt;stroke-linejoin:miter;stroke-opacity:1" d="M 110.022,203.138 110.022,212.357 z" id="boundary" inkscape:connector-curvature="0" />
	<path style="fill:none;stroke:red;stroke-width:1px;stroke-linecap:butt;stroke-linejoin:miter;stroke-opacity:1" d="M 110.022,212.357 110.022,221.576 z" id="boundary" inkscape:connector-curvature="0" />
	<path style="fill:none;stroke:red;stroke-width:1px;stroke-linecap:butt;stroke-linejoin:miter;stroke-opacity:1" d="M 110.022,221.576 110.022,230.796 z" id="boundary" inkscape:connector-curvature="0" />
	<path style="fill:none;stroke:red;stroke-width:1px;stroke-linecap:butt;stroke-linejoin:miter;stroke-opacity:1" d="M 110.022,230.796 110.022,240.015 z" id="boundary" inkscape:connector-curvature="0" />
	<path style="fill:none;stroke:red;stroke-width:1px;stroke-linecap:butt;stroke-linejoin:miter;stroke-opacity:1" d="M 110.022,240.015 110.022,249.234 z" id="boundary" inkscape:connector-curvature="0" />
	<path style="fill:none;stroke:red;stroke-width:1px;stroke-linecap:butt;stroke-linejoin:miter;stroke-opacity:1" d="M 110.022,249.234 110.022,258.454 z" id="boundary" inkscape:connector-curvature="0" />
	<path style="fill:none;stroke:red;stroke-width:1px;stroke-linecap:butt;stroke-linejoin:miter;stroke-opacity:1" d="M 110.022,258.454 110.022,267.673 z" id="boundary" inkscape:connector-curvature="0" />
	<path style="fill:none;stroke:red;stroke-width:1px;stroke-linecap:butt;stroke-linejoin:miter;stroke-opacity:1" d="M 110.022,267.673 110.022,276.892 z" id="boundary" inkscape:connector-curvature="0" />
	<path style="fill:none;stroke:red;stroke-width:1px;stroke-linecap:butt;stroke-linejoin:miter;stroke-opacity:1" d="M 110.022,276.892 110.022,286.112 z" id="boundary" inkscape:connector-curvature="0" />
	<path style="fill:none;stroke:red;stroke-width:1px;stroke-linecap:butt;stroke-linejoin:miter;stroke-opacity:1" d="M 110.022,286.112 110.022,295.331 z" id="boundary" inkscape:connector-curvature="0" />
	<path style="fill:none;stroke:red;stroke-width:1px;stroke-linecap:butt;stroke-linejoin:miter;stroke-opacity:1" d="M 110.022,295.331 110.022,304.55 z" id="boundary" inkscape:connector-curvature="0" />
	<path style="fill:none;stroke:red;stroke-width:1px;stroke-linecap:butt;stroke-linejoin:miter;stroke-opacity:1" d="M 110.022,304.55 110.022,313.77 z" id="boundary" inkscape:connector-curvature="0" />
	<path style="fill:none;stroke:red;stroke-width:1px;stroke-linecap:butt;stroke-linejoin:miter;stroke-opacity:1" d="M 110.022,313.77 110.022,322.989 z" id="boundary" inkscape:connector-curvature="0" />
	<path style="fill:none;stroke:red;stroke-width:1px;stroke-linecap:butt;stroke-linejoin:miter;stroke-opacity:1" d="M 120.164,382.914 124.773,369.086 z" id="boundary" inkscape:connector-curvature="0" />
	<path style="fill:none;stroke:red;stroke-width:1px;stroke-linecap:butt;stroke-linejoin:miter;stroke-opacity:1" d="M 122.007,86.974 130.305,91.5836 z" id="boundary" inkscape:connector-curvature="0" />
	<path style="fill:none;stroke:red;stroke-width:1px;stroke-linecap:butt;stroke-linejoin:miter;stroke-opacity:1" d="M 124.773,322.989 124.773,332.208 z" id="boundary" inkscape:connector-curvature="0" />
	<path style="fill:none;stroke:red;stroke-width:1px;stroke-linecap:butt;stroke-linejoin:miter;stroke-opacity:1" d="M 124.773,322.989 129.383,313.77 z" id="boundary" inkscape:connector-curvature="0" />
	<path style="fill:none;stroke:red;stroke-width:1px;stroke-linecap:butt;stroke-linejoin:miter;stroke-opacity:1" d="M 124.773,332.208 124.773,341.428 z" id="boundary" inkscape:connector-curvature="0" />
	<path style="fill:none;stroke:red;stroke-width:1px;stroke-linecap:butt;stroke-linejoin:miter;stroke-opacity:1" d="M 124.773,341.428 124.773,350.647 z" id="boundary" inkscape:connector-curvature="0" />
	<path style="fill:none;stroke:red;stroke-width:1px;stroke-linecap:butt;stroke-linejoin:miter;stroke-opacity:1" d="M 124.773,350.647 124.773,359.866 z" id="boundary" inkscape:connector-curvature="0" />
	<path style="fill:none;stroke:red;stroke-width:1px;stroke-linecap:butt;stroke-linejoin:miter;stroke-opacity:1" d="M 124.773,359.866 124.773,369.086 z" id="boundary" inkscape:connector-curvature="0" />
	<path style="fill:none;stroke:red;stroke-width:1px;stroke-linecap:butt;stroke-linejoin:miter;stroke-opacity:1" d="M 129.383,313.77 133.993,304.55 z" id="boundary" inkscape:connector-curvature="0" />
	<path style="fill:none;stroke:red;stroke-width:1px;stroke-linecap:butt;stroke-linejoin:miter;stroke-opacity:1" d="M 130.305,91.5836 146.9,100.803 z" id="boundary" inkscape:connector-curvature="0" />
	<path style="fill:none;stroke:red;stroke-width:1px;stroke-linecap:butt;stroke-linejoin:miter;stroke-opacity:1" d="M 133.993,304.55 141.368,298.097 z" id="boundary" inkscape:connector-curvature="0" />
	<path style="fill:none;stroke:red;stroke-width:1px;stroke-linecap:butt;stroke-linejoin:miter;stroke-opacity:1" d="M 141.368,298.097 147.822,290.721 z" id="boundary" inkscape:connector-curvature="0" />
	<path style="fill:none;stroke:red;stroke-width:1px;stroke-linecap:butt;stroke-linejoin:miter;stroke-opacity:1" d="M 146.9,100.803 154.275,106.335 z" id="boundary" inkscape:connector-curvature="0" />
	<path style="fill:none;stroke:red;stroke-width:1px;stroke-linecap:butt;stroke-linejoin:miter;stroke-opacity:1" d="M 147.822,290.721 164.416,279.658 z" id="boundary" inkscape:connector-curvature="0" />
	<path style="fill:none;stroke:red;stroke-width:1px;stroke-linecap:butt;stroke-linejoin:miter;stroke-opacity:1" d="M 154.275,106.335 161.651,112.788 z" id="boundary" inkscape:connector-curvature="0" />
	<path style="fill:none;stroke:red;stroke-width:1px;stroke-linecap:butt;stroke-linejoin:miter;stroke-opacity:1" d="M 161.651,112.788 179.167,121.086 z" id="boundary" inkscape:connector-curvature="0" />
	<path style="fill:none;stroke:red;stroke-width:1px;stroke-linecap:butt;stroke-linejoin:miter;stroke-opacity:1" d="M 164.416,279.658 169.026,270.439 z" id="boundary" inkscape:connector-curvature="0" />
	<path style="fill:none;stroke:red;stroke-width:1px;stroke-linecap:butt;stroke-linejoin:miter;stroke-opacity:1" d="M 169.026,270.439 175.48,258.454 z" id="boundary" inkscape:connector-curvature="0" />
	<path style="fill:none;stroke:red;stroke-width:1px;stroke-linecap:butt;stroke-linejoin:miter;stroke-opacity:1" d="M 175.48,258.454 184.699,258.454 z" id="boundary" inkscape:connector-curvature="0" />
	<path style="fill:none;stroke:red;stroke-width:1px;stroke-linecap:butt;stroke-linejoin:miter;stroke-opacity:1" d="M 179.167,121.086 192.996,133.071 z" id="boundary" inkscape:connector-curvature="0" />
	<path style="fill:none;stroke:red;stroke-width:1px;stroke-linecap:butt;stroke-linejoin:miter;stroke-opacity:1" d="M 184.699,258.454 193.918,258.454 z" id="boundary" inkscape:connector-curvature="0" />
	<path style="fill:none;stroke:red;stroke-width:1px;stroke-linecap:butt;stroke-linejoin:miter;stroke-opacity:1" d="M 192.996,133.071 210.513,137.68 z" id="boundary" inkscape:connector-curvature="0" />
	<path style="fill:none;stroke:red;stroke-width:1px;stroke-linecap:butt;stroke-linejoin:miter;stroke-opacity:1" d="M 193.918,258.454 203.138,258.454 z" id="boundary" inkscape:connector-curvature="0" />
	<path style="fill:none;stroke:red;stroke-width:1px;stroke-linecap:butt;stroke-linejoin:miter;stroke-opacity:1" d="M 203.138,258.454 212.357,253.844 z" id="boundary" inkscape:connector-curvature="0" />
	<path style="fill:none;stroke:red;stroke-width:1px;stroke-linecap:butt;stroke-linejoin:miter;stroke-opacity:1" d="M 210.513,137.68 219.732,137.68 z" id="boundary" inkscape:connector-curvature="0" />
	<path style="fill:none;stroke:red;stroke-width:1px;stroke-linecap:butt;stroke-linejoin:miter;stroke-opacity:1" d="M 212.357,253.844 221.576,253.844 z" id="boundary" inkscape:connector-curvature="0" />
	<path style="fill:none;stroke:red;stroke-width:1px;stroke-linecap:butt;stroke-linejoin:miter;stroke-opacity:1" d="M 219.732,137.68 228.952,137.68 z" id="boundary" inkscape:connector-curvature="0" />
	<path style="fill:none;stroke:red;stroke-width:1px;stroke-linecap:butt;stroke-linejoin:miter;stroke-opacity:1" d="M 221.576,253.844 229.874,249.234 z" id="boundary" inkscape:connector-curvature="0" />
	<path style="fill:none;stroke:red;stroke-width:1px;stroke-linecap:butt;stroke-linejoin:miter;stroke-opacity:1" d="M 228.952,137.68 238.171,137.68 z" id="boundary" inkscape:connector-curvature="0" />
	<path style="fill:none;stroke:red;stroke-width:1px;stroke-linecap:butt;stroke-linejoin:miter;stroke-opacity:1" d="M 229.874,249.234 239.093,249.234 z" id="boundary" inkscape:connector-curvature="0" />
	<path style="fill:none;stroke:red;stroke-width:1px;stroke-linecap:butt;stroke-linejoin:miter;stroke-opacity:1" d="M 238.171,137.68 247.39,137.68 z" id="boundary" inkscape:connector-curvature="0" />
	<path style="fill:none;stroke:red;stroke-width:1px;stroke-linecap:butt;stroke-linejoin:miter;stroke-opacity:1" d="M 239.093,249.234 256.61,244.625 z" id="boundary" inkscape:connector-curvature="0" />
	<path style="fill:none;stroke:red;stroke-width:1px;stroke-linecap:butt;stroke-linejoin:miter;stroke-opacity:1" d="M 247.39,137.68 256.61,137.68 z" id="boundary" inkscape:connector-curvature="0" />
	<path style="fill:none;stroke:red;stroke-width:1px;stroke-linecap:butt;stroke-linejoin:miter;stroke-opacity:1" d="M 256.61,137.68 265.829,137.68 z" id="boundary" inkscape:connector-curvature="0" />
	<path style="fill:none;stroke:red;stroke-width:1px;stroke-linecap:butt;stroke-linejoin:miter;stroke-opacity:1" d="M 256.61,244.625 265.829,244.625 z" id="boundary" inkscape:connector-curvature="0" />
	<path style="fill:none;stroke:red;stroke-width:1px;stroke-linecap:butt;stroke-linejoin:miter;stroke-opacity:1" d="M 265.829,137.68 275.048,137.68 z" id="boundary" inkscape:connector-curvature="0" />
	<path style="fill:none;stroke:red;stroke-width:1px;stroke-linecap:butt;stroke-linejoin:miter;stroke-opacity:1" d="M 265.829,244.625 275.048,244.625 z" id="boundary" inkscape:connector-curvature="0" />
	<path style="fill:none;stroke:red;stroke-width:1px;stroke-linecap:butt;stroke-linejoin:miter;stroke-opacity:1" d="M 275.048,137.68 292.565,133.071 z" id="boundary" inkscape:connector-curvature="0" />
	<path style="fill:none;stroke:red;stroke-width:1px;stroke-linecap:butt;stroke-linejoin:miter;stroke-opacity:1" d="M 275.048,244.625 284.268,244.625 z" id="boundary" inkscape:connector-curvature="0" />
	<path style="fill:none;stroke:red;stroke-width:1px;stroke-linecap:butt;stroke-linejoin:miter;stroke-opacity:1" d="M 284.268,244.625 293.487,244.625 z" id="boundary" inkscape:connector-curvature="0" />
	<path style="fill:none;stroke:red;stroke-width:1px;stroke-linecap:butt;stroke-linejoin:miter;stroke-opacity:1" d="M 292.565,133.071 301.784,128.461 z" id="boundary" inkscape:connector-curvature="0" />
	<path style="fill:none;stroke:red;stroke-width:1px;stroke-linecap:butt;stroke-linejoin:miter;stroke-opacity:1" d="M 293.487,244.625 302.706,244.625 z" id="boundary" inkscape:connector-curvature="0" />
	<path style="fill:none;stroke:red;stroke-width:1px;stroke-linecap:butt;stroke-linejoin:miter;stroke-opacity:1" d="M 301.784,128.461 311.004,128.461 z" id="boundary" inkscape:connector-curvature="0" />
	<path style="fill:none;stroke:red;stroke-width:1px;stroke-linecap:butt;stroke-linejoin:miter;stroke-opacity:1" d="M 302.706,244.625 311.926,244.625 z" id="boundary" inkscape:connector-curvature="0" />
	<path style="fill:none;stroke:red;stroke-width:1px;stroke-linecap:butt;stroke-linejoin:miter;stroke-opacity:1" d="M 311.004,128.461 328.52,120.164 z" id="boundary" inkscape:connector-curvature="0" />
	<path style="fill:none;stroke:red;stroke-width:1px;stroke-linecap:butt;stroke-linejoin:miter;stroke-opacity:1" d="M 311.926,244.625 315.613,253.844 z" id="boundary" inkscape:connector-curvature="0" />
	<path style="fill:none;stroke:red;stroke-width:1px;stroke-linecap:butt;stroke-linejoin:miter;stroke-opacity:1" d="M 315.613,253.844 317.457,263.063 z" id="boundary" inkscape:connector-curvature="0" />
	<path style="fill:none;stroke:red;stroke-width:1px;stroke-linecap:butt;stroke-linejoin:miter;stroke-opacity:1" d="M 317.457,263.063 317.457,272.283 z" id="boundary" inkscape:connector-curvature="0" />
	<path style="fill:none;stroke:red;stroke-width:1px;stroke-linecap:butt;stroke-linejoin:miter;stroke-opacity:1" d="M 317.457,272.283 317.457,281.502 z" id="boundary" inkscape:connector-curvature="0" />
	<path style="fill:none;stroke:red;stroke-width:1px;stroke-linecap:butt;stroke-linejoin:miter;stroke-opacity:1" d="M 317.457,281.502 317.457,290.721 z" id="boundary" inkscape:connector-curvature="0" />
	<path style="fill:none;stroke:red;stroke-width:1px;stroke-linecap:butt;stroke-linejoin:miter;stroke-opacity:1" d="M 322.067,308.238 322.067,317.457 z" id="boundary" inkscape:connector-curvature="0" />
	<path style="fill:none;stroke:red;stroke-width:1px;stroke-linecap:butt;stroke-linejoin:miter;stroke-opacity:1" d="M 322.067,317.457 322.067,326.677 z" id="boundary" inkscape:connector-curvature="0" />
	<path style="fill:none;stroke:red;stroke-width:1px;stroke-linecap:butt;stroke-linejoin:miter;stroke-opacity:1" d="M 322.067,326.677 322.067,335.896 z" id="boundary" inkscape:connector-curvature="0" />
	<path style="fill:none;stroke:red;stroke-width:1px;stroke-linecap:butt;stroke-linejoin:miter;stroke-opacity:1" d="M 322.067,335.896 322.067,345.115 z" id="boundary" inkscape:connector-curvature="0" />
	<path style="fill:none;stroke:red;stroke-width:1px;stroke-linecap:butt;stroke-linejoin:miter;stroke-opacity:1" d="M 322.067,345.115 322.067,354.335 z" id="boundary" inkscape:connector-curvature="0" />
	<path style="fill:none;stroke:red;stroke-width:1px;stroke-linecap:butt;stroke-linejoin:miter;stroke-opacity:1" d="M 322.067,354.335 322.067,363.554 z" id="boundary" inkscape:connector-curvature="0" />
	<path style="fill:none;stroke:red;stroke-width:1px;stroke-linecap:butt;stroke-linejoin:miter;stroke-opacity:1" d="M 322.067,363.554 322.067,372.773 z" id="boundary" inkscape:connector-curvature="0" />
	<path style="fill:none;stroke:red;stroke-width:1px;stroke-linecap:butt;stroke-linejoin:miter;stroke-opacity:1" d="M 322.067,372.773 326.677,381.071 z" id="boundary" inkscape:connector-curvature="0" />
	<path style="fill:none;stroke:red;stroke-width:1px;stroke-linecap:butt;stroke-linejoin:miter;stroke-opacity:1" d="M 326.677,381.071 334.052,387.524 z" id="boundary" inkscape:connector-curvature="0" />
	<path style="fill:none;stroke:red;stroke-width:1px;stroke-linecap:butt;stroke-linejoin:miter;stroke-opacity:1" d="M 328.52,120.164 337.74,119.242 z" id="boundary" inkscape:connector-curvature="0" />
	<path style="fill:none;stroke:red;stroke-width:1px;stroke-linecap:butt;stroke-linejoin:miter;stroke-opacity:1" d="M 334.052,387.524 342.349,392.134 z" id="boundary" inkscape:connector-curvature="0" />
	<path style="fill:none;stroke:red;stroke-width:1px;stroke-linecap:butt;stroke-linejoin:miter;stroke-opacity:1" d="M 337.74,119.242 346.037,123.851 z" id="boundary" inkscape:connector-curvature="0" />
	<path style="fill:none;stroke:red;stroke-width:1px;stroke-linecap:butt;stroke-linejoin:miter;stroke-opacity:1" d="M 342.349,392.134 350.647,387.524 z" id="boundary" inkscape:connector-curvature="0" />
	<path style="fill:none;stroke:red;stroke-width:1px;stroke-linecap:butt;stroke-linejoin:miter;stroke-opacity:1" d="M 346.037,123.851 355.257,126.617 z" id="boundary" inkscape:connector-curvature="0" />
	<path style="fill:none;stroke:red;stroke-width:1px;stroke-linecap:butt;stroke-linejoin:miter;stroke-opacity:1" d="M 355.257,126.617 359.866,134.914 z" id="boundary" inkscape:connector-curvature="0" />
	<path style="fill:none;stroke:red;stroke-width:1px;stroke-linecap:butt;stroke-linejoin:miter;stroke-opacity:1" d="M 359.866,134.914 364.476,143.212 z" id="boundary" inkscape:connector-curvature="0" />
	<path style="fill:none;stroke:red;stroke-width:1px;stroke-linecap:butt;stroke-linejoin:miter;stroke-opacity:1" d="M 362.632,371.851 364.476,359.866 z" id="boundary" inkscape:connector-curvature="0" />
	<path style="fill:none;stroke:red;stroke-width:1px;stroke-linecap:butt;stroke-linejoin:miter;stroke-opacity:1" d="M 364.476,143.212 373.695,159.807 z" id="boundary" inkscape:connector-curvature="0" />
	<path style="fill:none;stroke:red;stroke-width:1px;stroke-linecap:butt;stroke-linejoin:miter;stroke-opacity:1" d="M 364.476,359.866 369.086,346.037 z" id="boundary" inkscape:connector-curvature="0" />
	<path style="fill:none;stroke:red;stroke-width:1px;stroke-linecap:butt;stroke-linejoin:miter;stroke-opacity:1" d="M 369.086,272.283 369.086,281.502 z" id="boundary" inkscape:connector-curvature="0" />
	<path style="fill:none;stroke:red;stroke-width:1px;stroke-linecap:butt;stroke-linejoin:miter;stroke-opacity:1" d="M 369.086,281.502 369.086,290.721 z" id="boundary" inkscape:connector-curvature="0" />
	<path style="fill:none;stroke:red;stroke-width:1px;stroke-linecap:butt;stroke-linejoin:miter;stroke-opacity:1" d="M 369.086,290.721 369.086,299.941 z" id="boundary" inkscape:connector-curvature="0" />
	<path style="fill:none;stroke:red;stroke-width:1px;stroke-linecap:butt;stroke-linejoin:miter;stroke-opacity:1" d="M 369.086,299.941 369.086,309.16 z" id="boundary" inkscape:connector-curvature="0" />
	<path style="fill:none;stroke:red;stroke-width:1px;stroke-linecap:butt;stroke-linejoin:miter;stroke-opacity:1" d="M 369.086,309.16 370.929,318.379 z" id="boundary" inkscape:connector-curvature="0" />
	<path style="fill:none;stroke:red;stroke-width:1px;stroke-linecap:butt;stroke-linejoin:miter;stroke-opacity:1" d="M 369.086,346.037 373.695,336.818 z" id="boundary" inkscape:connector-curvature="0" />
	<path style="fill:none;stroke:red;stroke-width:1px;stroke-linecap:butt;stroke-linejoin:miter;stroke-opacity:1" d="M 370.929,318.379 373.695,327.599 z" id="boundary" inkscape:connector-curvature="0" />
	<path style="fill:none;stroke:red;stroke-width:1px;stroke-linecap:butt;stroke-linejoin:miter;stroke-opacity:1" d="M 373.695,159.807 384.758,175.48 z" id="boundary" inkscape:connector-curvature="0" />
	<path style="fill:none;stroke:red;stroke-width:1px;stroke-linecap:butt;stroke-linejoin:miter;stroke-opacity:1" d="M 373.695,327.599 373.695,336.818 z" id="boundary" inkscape:connector-curvature="0" />
	<path style="fill:none;stroke:red;stroke-width:1px;stroke-linecap:butt;stroke-linejoin:miter;stroke-opacity:1" d="M 384.758,175.48 389.368,183.777 z" id="boundary" inkscape:connector-curvature="0" />
	<path style="fill:none;stroke:red;stroke-width:1px;stroke-linecap:butt;stroke-linejoin:miter;stroke-opacity:1" d="M 385.68,263.063 394.9,263.063 z" id="boundary" inkscape:connector-curvature="0" />
	<path style="fill:none;stroke:red;stroke-width:1px;stroke-linecap:butt;stroke-linejoin:miter;stroke-opacity:1" d="M 389.368,183.777 392.134,192.996 z" id="boundary" inkscape:connector-curvature="0" />
	<path style="fill:none;stroke:red;stroke-width:1px;stroke-linecap:butt;stroke-linejoin:miter;stroke-opacity:1" d="M 392.134,192.996 396.743,201.294 z" id="boundary" inkscape:connector-curvature="0" />
	<path style="fill:none;stroke:red;stroke-width:1px;stroke-linecap:butt;stroke-linejoin:miter;stroke-opacity:1" d="M 394.9,263.063 404.119,263.063 z" id="boundary" inkscape:connector-curvature="0" />
	<path style="fill:none;stroke:red;stroke-width:1px;stroke-linecap:butt;stroke-linejoin:miter;stroke-opacity:1" d="M 396.743,201.294 405.963,217.888 z" id="boundary" inkscape:connector-curvature="0" />
	<path style="fill:none;stroke:red;stroke-width:1px;stroke-linecap:butt;stroke-linejoin:miter;stroke-opacity:1" d="M 404.119,263.063 413.338,263.063 z" id="boundary" inkscape:connector-curvature="0" />
	<path style="fill:none;stroke:red;stroke-width:1px;stroke-linecap:butt;stroke-linejoin:miter;stroke-opacity:1" d="M 405.963,217.888 410.572,226.186 z" id="boundary" inkscape:connector-curvature="0" />
	<path style="fill:none;stroke:red;stroke-width:1px;stroke-linecap:butt;stroke-linejoin:miter;stroke-opacity:1" d="M 410.572,226.186 424.401,234.483 z" id="boundary" inkscape:connector-curvature="0" />
	<path style="fill:none;stroke:red;stroke-width:1px;stroke-linecap:butt;stroke-linejoin:miter;stroke-opacity:1" d="M 413.338,263.063 422.558,263.063 z" id="boundary" inkscape:connector-curvature="0" />
	<path style="fill:none;stroke:red;stroke-width:1px;stroke-linecap:butt;stroke-linejoin:miter;stroke-opacity:1" d="M 422.558,263.063 430.855,267.673 z" id="boundary" inkscape:connector-curvature="0" />
	<path style="fill:none;stroke:red;stroke-width:1px;stroke-linecap:butt;stroke-linejoin:miter;stroke-opacity:1" d="M 424.401,234.483 433.621,234.483 z" id="boundary" inkscape:connector-curvature="0" />
	<path style="fill:none;stroke:red;stroke-width:1px;stroke-linecap:butt;stroke-linejoin:miter;stroke-opacity:1" d="M 430.855,267.673 438.23,274.126 z" id="boundary" inkscape:connector-curvature="0" />
	<path style="fill:none;stroke:red;stroke-width:1px;stroke-linecap:butt;stroke-linejoin:miter;stroke-opacity:1" d="M 433.621,234.483 442.84,231.717 z" id="boundary" inkscape:connector-curvature="0" />
	<path style="fill:none;stroke:red;stroke-width:1px;stroke-linecap:butt;stroke-linejoin:miter;stroke-opacity:1" d="M 438.23,274.126 446.528,287.955 z" id="boundary" inkscape:connector-curvature="0" />
	<path style="fill:none;stroke:red;stroke-width:1px;stroke-linecap:butt;stroke-linejoin:miter;stroke-opacity:1" d="M 442.84,231.717 452.059,229.874 z" id="boundary" inkscape:connector-curvature="0" />
	<path style="fill:none;stroke:red;stroke-width:1px;stroke-linecap:butt;stroke-linejoin:miter;stroke-opacity:1" d="M 446.528,287.955 446.528,297.175 z" id="boundary" inkscape:connector-curvature="0" />
	<path style="fill:none;stroke:red;stroke-width:1px;stroke-linecap:butt;stroke-linejoin:miter;stroke-opacity:1" d="M 446.528,297.175 446.528,306.394 z" id="boundary" inkscape:connector-curvature="0" />
	<path style="fill:none;stroke:red;stroke-width:1px;stroke-linecap:butt;stroke-linejoin:miter;stroke-opacity:1" d="M 446.528,306.394 446.528,315.613 z" id="boundary" inkscape:connector-curvature="0" />
	<path style="fill:none;stroke:red;stroke-width:1px;stroke-linecap:butt;stroke-linejoin:miter;stroke-opacity:1" d="M 446.528,315.613 446.528,324.833 z" id="boundary" inkscape:connector-curvature="0" />
	<path style="fill:none;stroke:red;stroke-width:1px;stroke-linecap:butt;stroke-linejoin:miter;stroke-opacity:1" d="M 446.528,324.833 446.528,334.052 z" id="boundary" inkscape:connector-curvature="0" />
	<path style="fill:none;stroke:red;stroke-width:1px;stroke-linecap:butt;stroke-linejoin:miter;stroke-opacity:1" d="M 446.528,334.052 446.528,343.271 z" id="boundary" inkscape:connector-curvature="0" />
	<path style="fill:none;stroke:red;stroke-width:1px;stroke-linecap:butt;stroke-linejoin:miter;stroke-opacity:1" d="M 446.528,343.271 446.528,352.491 z" id="boundary" inkscape:connector-curvature="0" />
	<path style="fill:none;stroke:red;stroke-width:1px;stroke-linecap:butt;stroke-linejoin:miter;stroke-opacity:1" d="M 446.528,352.491 451.138,360.788 z" id="boundary" inkscape:connector-curvature="0" />
	<path style="fill:none;stroke:red;stroke-width:1px;stroke-linecap:butt;stroke-linejoin:miter;stroke-opacity:1" d="M 452.059,229.874 461.279,227.108 z" id="boundary" inkscape:connector-curvature="0" />
	<path style="fill:none;stroke:red;stroke-width:1px;stroke-linecap:butt;stroke-linejoin:miter;stroke-opacity:1" d="M 460.357,377.383 464.967,385.68 z" id="boundary" inkscape:connector-curvature="0" />
	<path style="fill:none;stroke:red;stroke-width:1px;stroke-linecap:butt;stroke-linejoin:miter;stroke-opacity:1" d="M 461.279,227.108 470.498,225.264 z" id="boundary" inkscape:connector-curvature="0" />
	<path style="fill:none;stroke:red;stroke-width:1px;stroke-linecap:butt;stroke-linejoin:miter;stroke-opacity:1" d="M 464.967,385.68 469.576,393.978 z" id="boundary" inkscape:connector-curvature="0" />
	<path style="fill:none;stroke:red;stroke-width:1px;stroke-linecap:butt;stroke-linejoin:miter;stroke-opacity:1" d="M 469.576,393.978 476.952,400.431 z" id="boundary" inkscape:connector-curvature="0" />
	<path style="fill:none;stroke:red;stroke-width:1px;stroke-linecap:butt;stroke-linejoin:miter;stroke-opacity:1" d="M 470.498,225.264 479.717,225.264 z" id="boundary" inkscape:connector-curvature="0" />
	<path style="fill:none;stroke:red;stroke-width:1px;stroke-linecap:butt;stroke-linejoin:miter;stroke-opacity:1" d="M 479.717,225.264 488.015,214.201 z" id="boundary" inkscape:connector-curvature="0" />
	<path style="fill:none;stroke:red;stroke-width:1px;stroke-linecap:butt;stroke-linejoin:miter;stroke-opacity:1" d="M 488.015,214.201 492.625,200.372 z" id="boundary" inkscape:connector-curvature="0" />
	<path style="fill:none;stroke:red;stroke-width:1px;stroke-linecap:butt;stroke-linejoin:miter;stroke-opacity:1" d="M 492.625,191.152 492.625,200.372 z" id="boundary" inkscape:connector-curvature="0" />
	<path style="fill:none;stroke:red;stroke-width:1px;stroke-linecap:butt;stroke-linejoin:miter;stroke-opacity:1" d="M 492.625,191.152 497.234,181.933 z" id="boundary" inkscape:connector-curvature="0" />
	<path style="fill:none;stroke:red;stroke-width:1px;stroke-linecap:butt;stroke-linejoin:miter;stroke-opacity:1" d="M 494.468,405.963 503.688,405.963 z" id="boundary" inkscape:connector-curvature="0" />
	<path style="fill:none;stroke:red;stroke-width:1px;stroke-linecap:butt;stroke-linejoin:miter;stroke-opacity:1" d="M 497.234,145.056 497.234,154.275 z" id="boundary" inkscape:connector-curvature="0" />
	<path style="fill:none;stroke:red;stroke-width:1px;stroke-linecap:butt;stroke-linejoin:miter;stroke-opacity:1" d="M 497.234,145.056 501.844,135.836 z" id="boundary" inkscape:connector-curvature="0" />
	<path style="fill:none;stroke:red;stroke-width:1px;stroke-linecap:butt;stroke-linejoin:miter;stroke-opacity:1" d="M 497.234,154.275 497.234,163.494 z" id="boundary" inkscape:connector-curvature="0" />
	<path style="fill:none;stroke:red;stroke-width:1px;stroke-linecap:butt;stroke-linejoin:miter;stroke-opacity:1" d="M 497.234,163.494 497.234,172.714 z" id="boundary" inkscape:connector-curvature="0" />
	<path style="fill:none;stroke:red;stroke-width:1px;stroke-linecap:butt;stroke-linejoin:miter;stroke-opacity:1" d="M 497.234,172.714 497.234,181.933 z" id="boundary" inkscape:connector-curvature="0" />
	<path style="fill:none;stroke:red;stroke-width:1px;stroke-linecap:butt;stroke-linejoin:miter;stroke-opacity:1" d="M 501.844,135.836 506.454,126.617 z" id="boundary" inkscape:connector-curvature="0" />
	<path style="fill:none;stroke:red;stroke-width:1px;stroke-linecap:butt;stroke-linejoin:miter;stroke-opacity:1" d="M 503.688,405.963 512.907,405.963 z" id="boundary" inkscape:connector-curvature="0" />
	<path style="fill:none;stroke:red;stroke-width:1px;stroke-linecap:butt;stroke-linejoin:miter;stroke-opacity:1" d="M 506.454,126.617 513.829,119.242 z" id="boundary" inkscape:connector-curvature="0" />
	<path style="fill:none;stroke:red;stroke-width:1px;stroke-linecap:butt;stroke-linejoin:miter;stroke-opacity:1" d="M 512.907,405.963 522.126,405.963 z" id="boundary" inkscape:connector-curvature="0" />
	<path style="fill:none;stroke:red;stroke-width:1px;stroke-linecap:butt;stroke-linejoin:miter;stroke-opacity:1" d="M 513.829,119.242 521.204,111.866 z" id="boundary" inkscape:connector-curvature="0" />
	<path style="fill:none;stroke:red;stroke-width:1px;stroke-linecap:butt;stroke-linejoin:miter;stroke-opacity:1" d="M 521.204,111.866 532.268,96.1933 z" id="boundary" inkscape:connector-curvature="0" />
	<path style="fill:none;stroke:red;stroke-width:1px;stroke-linecap:butt;stroke-linejoin:miter;stroke-opacity:1" d="M 522.126,405.963 531.346,405.963 z" id="boundary" inkscape:connector-curvature="0" />
	<path style="fill:none;stroke:red;stroke-width:1px;stroke-linecap:butt;stroke-linejoin:miter;stroke-opacity:1" d="M 531.346,405.963 540.565,405.963 z" id="boundary" inkscape:connector-curvature="0" />
	<path style="fill:none;stroke:red;stroke-width:1px;stroke-linecap:butt;stroke-linejoin:miter;stroke-opacity:1" d="M 532.268,96.1933 534.112,85.1301 z" id="boundary" inkscape:connector-curvature="0" />
	<path style="fill:none;stroke:red;stroke-width:1px;stroke-linecap:butt;stroke-linejoin:miter;stroke-opacity:1" d="M 534.112,57.4721 534.112,66.6914 z" id="boundary" inkscape:connector-curvature="0" />
	<path style="fill:none;stroke:red;stroke-width:1px;stroke-linecap:butt;stroke-linejoin:miter;stroke-opacity:1" d="M 534.112,57.4721 538.721,43.6431 z" id="boundary" inkscape:connector-curvature="0" />
	<path style="fill:none;stroke:red;stroke-width:1px;stroke-linecap:butt;stroke-linejoin:miter;stroke-opacity:1" d="M 534.112,66.6914 534.112,75.9108 z" id="boundary" inkscape:connector-curvature="0" />
	<path style="fill:none;stroke:red;stroke-width:1px;stroke-linecap:butt;stroke-linejoin:miter;stroke-opacity:1" d="M 534.112,75.9108 534.112,85.1301 z" id="boundary" inkscape:connector-curvature="0" />
	<path style="fill:none;stroke:red;stroke-width:1px;stroke-linecap:butt;stroke-linejoin:miter;stroke-opacity:1" d="M 538.721,43.6431 543.331,25.2045 z" id="boundary" inkscape:connector-curvature="0" />
	<path style="fill:none;stroke:red;stroke-width:1px;stroke-linecap:butt;stroke-linejoin:miter;stroke-opacity:1" d="M 543.331,25.2045 547.941,15.9851 z" id="boundary" inkscape:connector-curvature="0" />
	<path style="fill:none;stroke:red;stroke-width:1px;stroke-linecap:butt;stroke-linejoin:miter;stroke-opacity:1" d="M 547.941,15.9851 564.535,4 z" id="boundary" inkscape:connector-curvature="0" />
	<path style="fill:none;stroke:red;stroke-width:1px;stroke-linecap:butt;stroke-linejoin:miter;stroke-opacity:1" d="M 558.082,396.743 567.301,392.134 z" id="boundary" inkscape:connector-curvature="0" />
	<path style="fill:none;stroke:red;stroke-width:1px;stroke-linecap:butt;stroke-linejoin:miter;stroke-opacity:1" d="M 564.535,4 573.755,4 z" id="boundary" inkscape:connector-curvature="0" />
	<path style="fill:none;stroke:red;stroke-width:1px;stroke-linecap:butt;stroke-linejoin:miter;stroke-opacity:1" d="M 567.301,392.134 576.52,387.524 z" id="boundary" inkscape:connector-curvature="0" />
	<path style="fill:none;stroke:red;stroke-width:1px;stroke-linecap:butt;stroke-linejoin:miter;stroke-opacity:1" d="M 573.755,4 580.208,11.3755 z" id="boundary" inkscape:connector-curvature="0" />
	<path style="fill:none;stroke:red;stroke-width:1px;stroke-linecap:butt;stroke-linejoin:miter;stroke-opacity:1" d="M 580.208,11.3755 590.349,27.0483 z" id="boundary" inkscape:connector-curvature="0" />
	<path style="fill:none;stroke:red;stroke-width:1px;stroke-linecap:butt;stroke-linejoin:miter;stroke-opacity:1" d="M 590.349,369.086 594.959,359.866 z" id="boundary" inkscape:connector-curvature="0" />
	<path style="fill:none;stroke:red;stroke-width:1px;stroke-linecap:butt;stroke-linejoin:miter;stroke-opacity:1" d="M 594.959,359.866 599.569,346.037 z" id="boundary" inkscape:connector-curvature="0" />
	<path style="fill:none;stroke:red;stroke-width:1px;stroke-linecap:butt;stroke-linejoin:miter;stroke-opacity:1" d="M 599.569,346.037 604.178,336.818 z" id="boundary" inkscape:connector-curvature="0" />
	<path style="fill:none;stroke:red;stroke-width:1px;stroke-linecap:butt;stroke-linejoin:miter;stroke-opacity:1" d="M 601.413,41.7993 606.022,50.0967 z" id="boundary" inkscape:connector-curvature="0" />
	<path style="fill:none;stroke:red;stroke-width:1px;stroke-linecap:butt;stroke-linejoin:miter;stroke-opacity:1" d="M 604.178,244.625 604.178,253.844 z" id="boundary" inkscape:connector-curvature="0" />
	<path style="fill:none;stroke:red;stroke-width:1px;stroke-linecap:butt;stroke-linejoin:miter;stroke-opacity:1" d="M 604.178,244.625 613.398,244.625 z" id="boundary" inkscape:connector-curvature="0" />
	<path style="fill:none;stroke:red;stroke-width:1px;stroke-linecap:butt;stroke-linejoin:miter;stroke-opacity:1" d="M 604.178,253.844 604.178,263.063 z" id="boundary" inkscape:connector-curvature="0" />
	<path style="fill:none;stroke:red;stroke-width:1px;stroke-linecap:butt;stroke-linejoin:miter;stroke-opacity:1" d="M 604.178,263.063 604.178,272.283 z" id="boundary" inkscape:connector-curvature="0" />
	<path style="fill:none;stroke:red;stroke-width:1px;stroke-linecap:butt;stroke-linejoin:miter;stroke-opacity:1" d="M 604.178,272.283 604.178,281.502 z" id="boundary" inkscape:connector-curvature="0" />
	<path style="fill:none;stroke:red;stroke-width:1px;stroke-linecap:butt;stroke-linejoin:miter;stroke-opacity:1" d="M 604.178,281.502 604.178,290.721 z" id="boundary" inkscape:connector-curvature="0" />
	<path style="fill:none;stroke:red;stroke-width:1px;stroke-linecap:butt;stroke-linejoin:miter;stroke-opacity:1" d="M 604.178,290.721 604.178,299.941 z" id="boundary" inkscape:connector-curvature="0" />
	<path style="fill:none;stroke:red;stroke-width:1px;stroke-linecap:butt;stroke-linejoin:miter;stroke-opacity:1" d="M 604.178,299.941 604.178,309.16 z" id="boundary" inkscape:connector-curvature="0" />
	<path style="fill:none;stroke:red;stroke-width:1px;stroke-linecap:butt;stroke-linejoin:miter;stroke-opacity:1" d="M 604.178,309.16 604.178,318.379 z" id="boundary" inkscape:connector-curvature="0" />
	<path style="fill:none;stroke:red;stroke-width:1px;stroke-linecap:butt;stroke-linejoin:miter;stroke-opacity:1" d="M 604.178,318.379 604.178,327.599 z" id="boundary" inkscape:connector-curvature="0" />
	<path style="fill:none;stroke:red;stroke-width:1px;stroke-linecap:butt;stroke-linejoin:miter;stroke-opacity:1" d="M 604.178,327.599 604.178,336.818 z" id="boundary" inkscape:connector-curvature="0" />
	<path style="fill:none;stroke:red;stroke-width:1px;stroke-linecap:butt;stroke-linejoin:miter;stroke-opacity:1" d="M 606.022,50.0967 612.476,57.4721 z" id="boundary" inkscape:connector-curvature="0" />
	<path style="fill:none;stroke:red;stroke-width:1px;stroke-linecap:butt;stroke-linejoin:miter;stroke-opacity:1" d="M 612.476,57.4721 620.773,74.9888 z" id="boundary" inkscape:connector-curvature="0" />
	<path style="fill:none;stroke:red;stroke-width:1px;stroke-linecap:butt;stroke-linejoin:miter;stroke-opacity:1" d="M 613.398,244.625 621.695,249.234 z" id="boundary" inkscape:connector-curvature="0" />
	<path style="fill:none;stroke:red;stroke-width:1px;stroke-linecap:butt;stroke-linejoin:miter;stroke-opacity:1" d="M 620.773,74.9888 625.383,83.2862 z" id="boundary" inkscape:connector-curvature="0" />
	<path style="fill:none;stroke:red;stroke-width:1px;stroke-linecap:butt;stroke-linejoin:miter;stroke-opacity:1" d="M 621.695,249.234 627.227,256.61 z" id="boundary" inkscape:connector-curvature="0" />
	<path style="fill:none;stroke:red;stroke-width:1px;stroke-linecap:butt;stroke-linejoin:miter;stroke-opacity:1" d="M 625.383,83.2862 627.227,92.5056 z" id="boundary" inkscape:connector-curvature="0" />
	<path style="fill:none;stroke:red;stroke-width:1px;stroke-linecap:butt;stroke-linejoin:miter;stroke-opacity:1" d="M 627.227,92.5056 631.836,100.803 z" id="boundary" inkscape:connector-curvature="0" />
	<path style="fill:none;stroke:red;stroke-width:1px;stroke-linecap:butt;stroke-linejoin:miter;stroke-opacity:1" d="M 627.227,256.61 634.602,263.063 z" id="boundary" inkscape:connector-curvature="0" />
	<path style="fill:none;stroke:red;stroke-width:1px;stroke-linecap:butt;stroke-linejoin:miter;stroke-opacity:1" d="M 631.836,100.803 636.446,118.32 z" id="boundary" inkscape:connector-curvature="0" />
	<path style="fill:none;stroke:red;stroke-width:1px;stroke-linecap:butt;stroke-linejoin:miter;stroke-opacity:1" d="M 631.836,133.993 631.836,143.212 z" id="boundary" inkscape:connector-curvature="0" />
	<path style="fill:none;stroke:red;stroke-width:1px;stroke-linecap:butt;stroke-linejoin:miter;stroke-opacity:1" d="M 631.836,133.993 636.446,118.32 z" id="boundary" inkscape:connector-curvature="0" />
	<path style="fill:none;stroke:red;stroke-width:1px;stroke-linecap:butt;stroke-linejoin:miter;stroke-opacity:1" d="M 631.836,143.212 631.836,152.431 z" id="boundary" inkscape:connector-curvature="0" />
	<path style="fill:none;stroke:red;stroke-width:1px;stroke-linecap:butt;stroke-linejoin:miter;stroke-opacity:1" d="M 631.836,152.431 631.836,161.651 z" id="boundary" inkscape:connector-curvature="0" />
	<path style="fill:none;stroke:red;stroke-width:1px;stroke-linecap:butt;stroke-linejoin:miter;stroke-opacity:1" d="M 631.836,161.651 631.836,170.87 z" id="boundary" inkscape:connector-curvature="0" />
	<path style="fill:none;stroke:red;stroke-width:1px;stroke-linecap:butt;stroke-linejoin:miter;stroke-opacity:1" d="M 631.836,170.87 631.836,180.089 z" id="boundary" inkscape:connector-curvature="0" />
	<path style="fill:none;stroke:red;stroke-width:1px;stroke-linecap:butt;stroke-linejoin:miter;stroke-opacity:1" d="M 631.836,180.089 631.836,189.309 z" id="boundary" inkscape:connector-curvature="0" />
	<path style="fill:none;stroke:red;stroke-width:1px;stroke-linecap:butt;stroke-linejoin:miter;stroke-opacity:1" d="M 631.836,189.309 631.836,198.528 z" id="boundary" inkscape:connector-curvature="0" />
	<path style="fill:none;stroke:red;stroke-width:1px;stroke-linecap:butt;stroke-linejoin:miter;stroke-opacity:1" d="M 631.836,198.528 631.836,207.747 z" id="boundary" inkscape:connector-curvature="0" />
	<path style="fill:none;stroke:red;stroke-width:1px;stroke-linecap:butt;stroke-linejoin:miter;stroke-opacity:1" d="M 631.836,207.747 645.665,216.045 z" id="boundary" inkscape:connector-curvature="0" />
	<path style="fill:none;stroke:red;stroke-width:1px;stroke-linecap:butt;stroke-linejoin:miter;stroke-opacity:1" d="M 634.602,263.063 644.743,279.658 z" id="boundary" inkscape:connector-curvature="0" />
	<path style="fill:none;stroke:red;stroke-width:1px;stroke-linecap:butt;stroke-linejoin:miter;stroke-opacity:1" d="M 644.743,279.658 649.353,287.955 z" id="boundary" inkscape:connector-curvature="0" />
	<path style="fill:none;stroke:red;stroke-width:1px;stroke-linecap:butt;stroke-linejoin:miter;stroke-opacity:1" d="M 645.665,216.045 654.885,213.279 z" id="boundary" inkscape:connector-curvature="0" />
	<path style="fill:none;stroke:red;stroke-width:1px;stroke-linecap:butt;stroke-linejoin:miter;stroke-opacity:1" d="M 649.353,287.955 649.353,297.175 z" id="boundary" inkscape:connector-curvature="0" />
	<path style="fill:none;stroke:red;stroke-width:1px;stroke-linecap:butt;stroke-linejoin:miter;stroke-opacity:1" d="M 649.353,297.175 649.353,306.394 z" id="boundary" inkscape:connector-curvature="0" />
	<path style="fill:none;stroke:red;stroke-width:1px;stroke-linecap:butt;stroke-linejoin:miter;stroke-opacity:1" d="M 649.353,306.394 653.963,314.691 z" id="boundary" inkscape:connector-curvature="0" />
	<path style="fill:none;stroke:red;stroke-width:1px;stroke-linecap:butt;stroke-linejoin:miter;stroke-opacity:1" d="M 653.963,314.691 661.338,332.208 z" id="boundary" inkscape:connector-curvature="0" />
	<path style="fill:none;stroke:red;stroke-width:1px;stroke-linecap:butt;stroke-linejoin:miter;stroke-opacity:1" d="M 661.338,332.208 677.933,341.428 z" id="boundary" inkscape:connector-curvature="0" />
	<path style="fill:none;stroke:red;stroke-width:1px;stroke-linecap:butt;stroke-linejoin:miter;stroke-opacity:1" d="M 664.104,211.435 681.621,204.981 z" id="boundary" inkscape:connector-curvature="0" />
	<path style="fill:none;stroke:red;stroke-width:1px;stroke-linecap:butt;stroke-linejoin:miter;stroke-opacity:1" d="M 677.933,341.428 687.152,341.428 z" id="boundary" inkscape:connector-curvature="0" />
	<path style="fill:none;stroke:red;stroke-width:1px;stroke-linecap:butt;stroke-linejoin:miter;stroke-opacity:1" d="M 681.621,204.981 690.84,195.762 z" id="boundary" inkscape:connector-curvature="0" />
	<path style="fill:none;stroke:red;stroke-width:1px;stroke-linecap:butt;stroke-linejoin:miter;stroke-opacity:1" d="M 687.152,341.428 696.372,341.428 z" id="boundary" inkscape:connector-curvature="0" />
	<path style="fill:none;stroke:red;stroke-width:1px;stroke-linecap:butt;stroke-linejoin:miter;stroke-opacity:1" d="M 690.84,186.543 690.84,195.762 z" id="boundary" inkscape:connector-curvature="0" />
	<path style="fill:none;stroke:red;stroke-width:1px;stroke-linecap:butt;stroke-linejoin:miter;stroke-opacity:1" d="M 690.84,186.543 695.45,177.323 z" id="boundary" inkscape:connector-curvature="0" />
	<path style="fill:none;stroke:red;stroke-width:1px;stroke-linecap:butt;stroke-linejoin:miter;stroke-opacity:1" d="M 696.372,341.428 705.591,341.428 z" id="boundary" inkscape:connector-curvature="0" />
	<path style="fill:none;stroke:red;stroke-width:1px;stroke-linecap:butt;stroke-linejoin:miter;stroke-opacity:1" d="M 705.591,341.428 714.81,341.428 z" id="boundary" inkscape:connector-curvature="0" />
	<path style="fill:none;stroke:red;stroke-width:1px;stroke-linecap:butt;stroke-linejoin:miter;stroke-opacity:1" d="M 709.279,158.885 716.654,151.509 z" id="boundary" inkscape:connector-curvature="0" />
	<path style="fill:none;stroke:red;stroke-width:1px;stroke-linecap:butt;stroke-linejoin:miter;stroke-opacity:1" d="M 714.81,341.428 724.03,341.428 z" id="boundary" inkscape:connector-curvature="0" />
	<path style="fill:none;stroke:red;stroke-width:1px;stroke-linecap:butt;stroke-linejoin:miter;stroke-opacity:1" d="M 716.654,151.509 724.03,144.134 z" id="boundary" inkscape:connector-curvature="0" />
	<path style="fill:none;stroke:red;stroke-width:1px;stroke-linecap:butt;stroke-linejoin:miter;stroke-opacity:1" d="M 724.03,144.134 731.405,137.68 z" id="boundary" inkscape:connector-curvature="0" />
	<path style="fill:none;stroke:red;stroke-width:1px;stroke-linecap:butt;stroke-linejoin:miter;stroke-opacity:1" d="M 724.03,341.428 733.249,341.428 z" id="boundary" inkscape:connector-curvature="0" />
	<path style="fill:none;stroke:red;stroke-width:1px;stroke-linecap:butt;stroke-linejoin:miter;stroke-opacity:1" d="M 731.405,137.68 739.703,133.071 z" id="boundary" inkscape:connector-curvature="0" />
	<path style="fill:none;stroke:red;stroke-width:1px;stroke-linecap:butt;stroke-linejoin:miter;stroke-opacity:1" d="M 733.249,341.428 742.468,341.428 z" id="boundary" inkscape:connector-curvature="0" />
	<path style="fill:none;stroke:red;stroke-width:1px;stroke-linecap:butt;stroke-linejoin:miter;stroke-opacity:1" d="M 739.703,133.071 757.219,124.773 z" id="boundary" inkscape:connector-curvature="0" />
	<path style="fill:none;stroke:red;stroke-width:1px;stroke-linecap:butt;stroke-linejoin:miter;stroke-opacity:1" d="M 742.468,341.428 751.688,341.428 z" id="boundary" inkscape:connector-curvature="0" />
	<path style="fill:none;stroke:red;stroke-width:1px;stroke-linecap:butt;stroke-linejoin:miter;stroke-opacity:1" d="M 751.688,341.428 760.907,341.428 z" id="boundary" inkscape:connector-curvature="0" />
	<path style="fill:none;stroke:red;stroke-width:1px;stroke-linecap:butt;stroke-linejoin:miter;stroke-opacity:1" d="M 757.219,124.773 766.439,123.851 z" id="boundary" inkscape:connector-curvature="0" />
	<path style="fill:none;stroke:red;stroke-width:1px;stroke-linecap:butt;stroke-linejoin:miter;stroke-opacity:1" d="M 760.907,341.428 770.126,341.428 z" id="boundary" inkscape:connector-curvature="0" />
	<path style="fill:none;stroke:red;stroke-width:1px;stroke-linecap:butt;stroke-linejoin:miter;stroke-opacity:1" d="M 766.439,123.851 774.736,119.242 z" id="boundary" inkscape:connector-curvature="0" />
	<path style="fill:none;stroke:red;stroke-width:1px;stroke-linecap:butt;stroke-linejoin:miter;stroke-opacity:1" d="M 770.126,341.428 779.346,358.022 z" id="boundary" inkscape:connector-curvature="0" />
	<path style="fill:none;stroke:red;stroke-width:1px;stroke-linecap:butt;stroke-linejoin:miter;stroke-opacity:1" d="M 774.736,119.242 783.033,103.569 z" id="boundary" inkscape:connector-curvature="0" />
	<path style="fill:none;stroke:red;stroke-width:1px;stroke-linecap:butt;stroke-linejoin:miter;stroke-opacity:1" d="M 779.346,358.022 787.643,375.539 z" id="boundary" inkscape:connector-curvature="0" />
	<path style="fill:none;stroke:red;stroke-width:1px;stroke-linecap:butt;stroke-linejoin:miter;stroke-opacity:1" d="M 783.033,75.9108 783.033,85.1301 z" id="boundary" inkscape:connector-curvature="0" />
	<path style="fill:none;stroke:red;stroke-width:1px;stroke-linecap:butt;stroke-linejoin:miter;stroke-opacity:1" d="M 783.033,75.9108 790.409,68.5353 z" id="boundary" inkscape:connector-curvature="0" />
	<path style="fill:none;stroke:red;stroke-width:1px;stroke-linecap:butt;stroke-linejoin:miter;stroke-opacity:1" d="M 783.033,85.1301 783.033,94.3494 z" id="boundary" inkscape:connector-curvature="0" />
	<path style="fill:none;stroke:red;stroke-width:1px;stroke-linecap:butt;stroke-linejoin:miter;stroke-opacity:1" d="M 783.033,94.3494 783.033,103.569 z" id="boundary" inkscape:connector-curvature="0" />
	<path style="fill:none;stroke:red;stroke-width:1px;stroke-linecap:butt;stroke-linejoin:miter;stroke-opacity:1" d="M 787.643,375.539 796.862,392.134 z" id="boundary" inkscape:connector-curvature="0" />
	<path style="fill:none;stroke:red;stroke-width:1px;stroke-linecap:butt;stroke-linejoin:miter;stroke-opacity:1" d="M 790.409,68.5353 807.926,63.9257 z" id="boundary" inkscape:connector-curvature="0" />
	<path style="fill:none;stroke:red;stroke-width:1px;stroke-linecap:butt;stroke-linejoin:miter;stroke-opacity:1" d="M 796.862,392.134 799.628,401.353 z" id="boundary" inkscape:connector-curvature="0" />
	<path style="fill:none;stroke:red;stroke-width:1px;stroke-linecap:butt;stroke-linejoin:miter;stroke-opacity:1" d="M 799.628,401.353 815.301,412.416 z" id="boundary" inkscape:connector-curvature="0" />
	<path style="fill:none;stroke:red;stroke-width:1px;stroke-linecap:butt;stroke-linejoin:miter;stroke-opacity:1" d="M 807.926,63.9257 816.223,68.5353 z" id="boundary" inkscape:connector-curvature="0" />
	<path style="fill:none;stroke:red;stroke-width:1px;stroke-linecap:butt;stroke-linejoin:miter;stroke-opacity:1" d="M 815.301,412.416 832.818,419.792 z" id="boundary" inkscape:connector-curvature="0" />
	<path style="fill:none;stroke:red;stroke-width:1px;stroke-linecap:butt;stroke-linejoin:miter;stroke-opacity:1" d="M 816.223,68.5353 827.286,83.2862 z" id="boundary" inkscape:connector-curvature="0" />
	<path style="fill:none;stroke:red;stroke-width:1px;stroke-linecap:butt;stroke-linejoin:miter;stroke-opacity:1" d="M 827.286,83.2862 834.662,100.803 z" id="boundary" inkscape:connector-curvature="0" />
	<path style="fill:none;stroke:red;stroke-width:1px;stroke-linecap:butt;stroke-linejoin:miter;stroke-opacity:1" d="M 832.818,419.792 850.335,428.089 z" id="boundary" inkscape:connector-curvature="0" />
	<path style="fill:none;stroke:red;stroke-width:1px;stroke-linecap:butt;stroke-linejoin:miter;stroke-opacity:1" d="M 850.335,428.089 859.554,429.011 z" id="boundary" inkscape:connector-curvature="0" />
	<path style="fill:none;stroke:red;stroke-width:1px;stroke-linecap:butt;stroke-linejoin:miter;stroke-opacity:1" d="M 859.554,429.011 868.773,429.011 z" id="boundary" inkscape:connector-curvature="0" />
	<path style="fill:none;stroke:red;stroke-width:1px;stroke-linecap:butt;stroke-linejoin:miter;stroke-opacity:1" d="M 866.007,123.851 875.227,123.851 z" id="boundary" inkscape:connector-curvature="0" />
	<path style="fill:none;stroke:red;stroke-width:1px;stroke-linecap:butt;stroke-linejoin:miter;stroke-opacity:1" d="M 868.773,429.011 877.993,429.011 z" id="boundary" inkscape:connector-curvature="0" />
	<path style="fill:none;stroke:red;stroke-width:1px;stroke-linecap:butt;stroke-linejoin:miter;stroke-opacity:1" d="M 875.227,123.851 884.446,123.851 z" id="boundary" inkscape:connector-curvature="0" />
	<path style="fill:none;stroke:red;stroke-width:1px;stroke-linecap:butt;stroke-linejoin:miter;stroke-opacity:1" d="M 877.993,429.011 887.212,429.011 z" id="boundary" inkscape:connector-curvature="0" />
	<path style="fill:none;stroke:red;stroke-width:1px;stroke-linecap:butt;stroke-linejoin:miter;stroke-opacity:1" d="M 884.446,123.851 893.665,123.851 z" id="boundary" inkscape:connector-curvature="0" />
	<path style="fill:none;stroke:red;stroke-width:1px;stroke-linecap:butt;stroke-linejoin:miter;stroke-opacity:1" d="M 887.212,429.011 896.431,429.011 z" id="boundary" inkscape:connector-curvature="0" />
	<path style="fill:none;stroke:red;stroke-width:1px;stroke-linecap:butt;stroke-linejoin:miter;stroke-opacity:1" d="M 893.665,123.851 902.885,123.851 z" id="boundary" inkscape:connector-curvature="0" />
	<path style="fill:none;stroke:red;stroke-width:1px;stroke-linecap:butt;stroke-linejoin:miter;stroke-opacity:1" d="M 896.431,429.011 905.651,428.089 z" id="boundary" inkscape:connector-curvature="0" />
	<path style="fill:none;stroke:red;stroke-width:1px;stroke-linecap:butt;stroke-linejoin:miter;stroke-opacity:1" d="M 902.885,123.851 912.104,125.695 z" id="boundary" inkscape:connector-curvature="0" />
	<path style="fill:none;stroke:red;stroke-width:1px;stroke-linecap:butt;stroke-linejoin:miter;stroke-opacity:1" d="M 905.651,428.089 914.87,423.48 z" id="boundary" inkscape:connector-curvature="0" />
	<path style="fill:none;stroke:red;stroke-width:1px;stroke-linecap:butt;stroke-linejoin:miter;stroke-opacity:1" d="M 912.104,125.695 920.401,130.305 z" id="boundary" inkscape:connector-curvature="0" />
	<path style="fill:none;stroke:red;stroke-width:1px;stroke-linecap:butt;stroke-linejoin:miter;stroke-opacity:1" d="M 914.87,423.48 924.089,418.87 z" id="boundary" inkscape:connector-curvature="0" />
	<path style="fill:none;stroke:red;stroke-width:1px;stroke-linecap:butt;stroke-linejoin:miter;stroke-opacity:1" d="M 924.089,418.87 940.684,405.963 z" id="boundary" inkscape:connector-curvature="0" />
	<path style="fill:none;stroke:red;stroke-width:1px;stroke-linecap:butt;stroke-linejoin:miter;stroke-opacity:1" d="M 926.855,147.822 931.465,156.119 z" id="boundary" inkscape:connector-curvature="0" />
	<path style="fill:none;stroke:red;stroke-width:1px;stroke-linecap:butt;stroke-linejoin:miter;stroke-opacity:1" d="M 931.465,156.119 931.465,165.338 z" id="boundary" inkscape:connector-curvature="0" />
	<path style="fill:none;stroke:red;stroke-width:1px;stroke-linecap:butt;stroke-linejoin:miter;stroke-opacity:1" d="M 936.074,173.636 944.372,191.152 z" id="boundary" inkscape:connector-curvature="0" />
	<path style="fill:none;stroke:red;stroke-width:1px;stroke-linecap:butt;stroke-linejoin:miter;stroke-opacity:1" d="M 940.684,405.963 948.059,399.509 z" id="boundary" inkscape:connector-curvature="0" />
	<path style="fill:none;stroke:red;stroke-width:1px;stroke-linecap:butt;stroke-linejoin:miter;stroke-opacity:1" d="M 944.372,191.152 945.294,200.372 z" id="boundary" inkscape:connector-curvature="0" />
	<path style="fill:none;stroke:red;stroke-width:1px;stroke-linecap:butt;stroke-linejoin:miter;stroke-opacity:1" d="M 945.294,200.372 948.981,209.591 z" id="boundary" inkscape:connector-curvature="0" />
	<path style="fill:none;stroke:red;stroke-width:1px;stroke-linecap:butt;stroke-linejoin:miter;stroke-opacity:1" d="M 948.059,399.509 954.513,392.134 z" id="boundary" inkscape:connector-curvature="0" />
	<path style="fill:none;stroke:red;stroke-width:1px;stroke-linecap:butt;stroke-linejoin:miter;stroke-opacity:1" d="M 948.981,209.591 949.903,218.81 z" id="boundary" inkscape:connector-curvature="0" />
	<path style="fill:none;stroke:red;stroke-width:1px;stroke-linecap:butt;stroke-linejoin:miter;stroke-opacity:1" d="M 949.903,218.81 949.903,228.03 z" id="boundary" inkscape:connector-curvature="0" />
	<path style="fill:none;stroke:red;stroke-width:1px;stroke-linecap:butt;stroke-linejoin:miter;stroke-opacity:1" d="M 949.903,228.03 949.903,237.249 z" id="boundary" inkscape:connector-curvature="0" />
	<path style="fill:none;stroke:red;stroke-width:1px;stroke-linecap:butt;stroke-linejoin:miter;stroke-opacity:1" d="M 949.903,237.249 956.357,244.625 z" id="boundary" inkscape:connector-curvature="0" />
	<path style="fill:none;stroke:red;stroke-width:1px;stroke-linecap:butt;stroke-linejoin:miter;stroke-opacity:1" d="M 954.513,392.134 966.498,376.461 z" id="boundary" inkscape:connector-curvature="0" />
	<path style="fill:none;stroke:red;stroke-width:1px;stroke-linecap:butt;stroke-linejoin:miter;stroke-opacity:1" d="M 956.357,244.625 963.732,251.078 z" id="boundary" inkscape:connector-curvature="0" />
	<path style="fill:none;stroke:red;stroke-width:1px;stroke-linecap:butt;stroke-linejoin:miter;stroke-opacity:1" d="M 963.732,251.078 968.342,259.375 z" id="boundary" inkscape:connector-curvature="0" />
	<path style="fill:none;stroke:red;stroke-width:1px;stroke-linecap:butt;stroke-linejoin:miter;stroke-opacity:1" d="M 966.498,376.461 977.561,359.866 z" id="boundary" inkscape:connector-curvature="0" />
	<path style="fill:none;stroke:red;stroke-width:1px;stroke-linecap:butt;stroke-linejoin:miter;stroke-opacity:1" d="M 968.342,259.375 973.874,266.751 z" id="boundary" inkscape:connector-curvature="0" />
	<path style="fill:none;stroke:red;stroke-width:1px;stroke-linecap:butt;stroke-linejoin:miter;stroke-opacity:1" d="M 973.874,266.751 981.249,273.204 z" id="boundary" inkscape:connector-curvature="0" />
	<path style="fill:none;stroke:red;stroke-width:1px;stroke-linecap:butt;stroke-linejoin:miter;stroke-opacity:1" d="M 977.561,359.866 982.171,350.647 z" id="boundary" inkscape:connector-curvature="0" />
	<path style="fill:none;stroke:red;stroke-width:1px;stroke-linecap:butt;stroke-linejoin:miter;stroke-opacity:1" d="M 981.249,273.204 986.781,280.58 z" id="boundary" inkscape:connector-curvature="0" />
	<path style="fill:none;stroke:red;stroke-width:1px;stroke-linecap:butt;stroke-linejoin:miter;stroke-opacity:1" d="M 982.171,350.647 986.781,341.428 z" id="boundary" inkscape:connector-curvature="0" />
	<path style="fill:none;stroke:red;stroke-width:1px;stroke-linecap:butt;stroke-linejoin:miter;stroke-opacity:1" d="M 986.781,280.58 996,297.175 z" id="boundary" inkscape:connector-curvature="0" />
	<path style="fill:none;stroke:red;stroke-width:1px;stroke-linecap:butt;stroke-linejoin:miter;stroke-opacity:1" d="M 986.781,341.428 991.39,327.599 z" id="boundary" inkscape:connector-curvature="0" />
	<path style="fill:none;stroke:red;stroke-width:1px;stroke-linecap:butt;stroke-linejoin:miter;stroke-opacity:1" d="M 991.39,318.379 991.39,327.599 z" id="boundary" inkscape:connector-curvature="0" />
	<path style="fill:none;stroke:red;stroke-width:1px;stroke-linecap:butt;stroke-linejoin:miter;stroke-opacity:1" d="M 991.39,318.379 996,306.394 z" id="boundary" inkscape:connector-curvature="0" />
	<path style="fill:none;stroke:red;stroke-width:1px;stroke-linecap:butt;stroke-linejoin:miter;stroke-opacity:1" d="M 996,297.175 996,306.394 z" id="boundary" inkscape:connector-curvature="0" />
	<circle cx="4" cy="149.665" r="4" fill="#0" id="circle0"/>
	<circle cx="8.60967" cy="131.227" r="4" fill="#0" id="circle1"/>
	<circle cx="8.60967" cy="140.446" r="4" fill="#0" id="circle2"/>
	<circle cx="8.60967" cy="157.963" r="4" fill="#0" id="circle3"/>
	<circle cx="13.2193" cy="117.398" r="4" fill="#0" id="circle4"/>
	<circle cx="17.829" cy="108.178" r="4" fill="#0" id="circle5"/>
	<circle cx="17.829" cy="161.651" r="4" fill="#0" id="circle6"/>
	<circle cx="25.2045" cy="100.803" r="4" fill="#0" id="circle7"/>
	<circle cx="26.1264" cy="166.26" r="4" fill="#0" id="circle8"/>
	<circle cx="29.8141" cy="91.5836" r="4" fill="#0" id="circle9"/>
	<circle cx="34.4238" cy="82.3643" r="4" fill="#0" id="circle10"/>
	<circle cx="35.3457" cy="166.26" r="4" fill="#0" id="circle11"/>
	<circle cx="39.0335" cy="73.145" r="4" fill="#0" id="circle12"/>
	<circle cx="43.6431" cy="63.9257" r="4" fill="#0" id="circle13"/>
	<circle cx="43.6431" cy="160.729" r="4" fill="#0" id="circle14"/>
	<circle cx="51.0186" cy="152.431" r="4" fill="#0" id="circle15"/>
	<circle cx="52.8625" cy="63.9257" r="4" fill="#0" id="circle16"/>
	<circle cx="55.6283" cy="143.212" r="4" fill="#0" id="circle17"/>
	<circle cx="60.2379" cy="133.993" r="4" fill="#0" id="circle18"/>
	<circle cx="62.0818" cy="63.9257" r="4" fill="#0" id="circle19"/>
	<circle cx="64.8476" cy="124.773" r="4" fill="#0" id="circle20"/>
	<circle cx="70.3792" cy="68.5353" r="4" fill="#0" id="circle21"/>
	<circle cx="73.145" cy="120.164" r="4" fill="#0" id="circle22"/>
	<circle cx="79.5985" cy="68.5353" r="4" fill="#0" id="circle23"/>
	<circle cx="81.4424" cy="115.554" r="4" fill="#0" id="circle24"/>
	<circle cx="86.974" cy="375.539" r="4" fill="#0" id="circle25"/>
	<circle cx="86.974" cy="384.758" r="4" fill="#0" id="circle26"/>
	<circle cx="87.8959" cy="73.145" r="4" fill="#0" id="circle27"/>
	<circle cx="90.6617" cy="115.554" r="4" fill="#0" id="circle28"/>
	<circle cx="91.5836" cy="366.32" r="4" fill="#0" id="circle29"/>
	<circle cx="91.5836" cy="393.056" r="4" fill="#0" id="circle30"/>
	<circle cx="96.1933" cy="77.7546" r="4" fill="#0" id="circle31"/>
	<circle cx="96.1933" cy="122.929" r="4" fill="#0" id="circle32"/>
	<circle cx="96.1933" cy="132.149" r="4" fill="#0" id="circle33"/>
	<circle cx="96.1933" cy="141.368" r="4" fill="#0" id="circle34"/>
	<circle cx="96.1933" cy="352.491" r="4" fill="#0" id="circle35"/>
	<circle cx="97.1152" cy="150.587" r="4" fill="#0" id="circle36"/>
	<circle cx="98.0372" cy="400.431" r="4" fill="#0" id="circle37"/>
	<circle cx="100.803" cy="343.271" r="4" fill="#0" id="circle38"/>
	<circle cx="101.725" cy="158.885" r="4" fill="#0" id="circle39"/>
	<circle cx="104.491" cy="82.3643" r="4" fill="#0" id="circle40"/>
	<circle cx="105.413" cy="334.052" r="4" fill="#0" id="circle41"/>
	<circle cx="107.257" cy="396.743" r="4" fill="#0" id="circle42"/>
	<circle cx="108.178" cy="166.26" r="4" fill="#0" id="circle43"/>
	<circle cx="110.022" cy="175.48" r="4" fill="#0" id="circle44"/>
	<circle cx="110.022" cy="184.699" r="4" fill="#0" id="circle45"/>
	<circle cx="110.022" cy="193.918" r="4" fill="#0" id="circle46"/>
	<circle cx="110.022" cy="203.138" r="4" fill="#0" id="circle47"/>
	<circle cx="110.022" cy="212.357" r="4" fill="#0" id="circle48"/>
	<circle cx="110.022" cy="221.576" r="4" fill="#0" id="circle49"/>
	<circle cx="110.022" cy="230.796" r="4" fill="#0" id="circle50"/>
	<circle cx="110.022" cy="240.015" r="4" fill="#0" id="circle51"/>
	<circle cx="110.022" cy="249.234" r="4" fill="#0" id="circle52"/>
	<circle cx="110.022" cy="258.454" r="4" fill="#0" id="circle53"/>
	<circle cx="110.022" cy="267.673" r="4" fill="#0" id="circle54"/>
	<circle cx="110.022" cy="276.892" r="4" fill="#0" id="circle55"/>
	<circle cx="110.022" cy="286.112" r="4" fill="#0" id="circle56"/>
	<circle cx="110.022" cy="295.331" r="4" fill="#0" id="circle57"/>
	<circle cx="110.022" cy="304.55" r="4" fill="#0" id="circle58"/>
	<circle cx="110.022" cy="313.77" r="4" fill="#0" id="circle59"/>
	<circle cx="110.022" cy="322.989" r="4" fill="#0" id="circle60"/>
	<circle cx="112.788" cy="86.974" r="4" fill="#0" id="circle61"/>
	<circle cx="115.554" cy="392.134" r="4" fill="#0" id="circle62"/>
	<circle cx="120.164" cy="382.914" r="4" fill="#0" id="circle63"/>
	<circle cx="122.007" cy="86.974" r="4" fill="#0" id="circle64"/>
	<circle cx="124.773" cy="322.989" r="4" fill="#0" id="circle65"/>
	<circle cx="124.773" cy="332.208" r="4" fill="#0" id="circle66"/>
	<circle cx="124.773" cy="341.428" r="4" fill="#0" id="circle67"/>
	<circle cx="124.773" cy="350.647" r="4" fill="#0" id="circle68"/>
	<circle cx="124.773" cy="359.866" r="4" fill="#0" id="circle69"/>
	<circle cx="124.773" cy="369.086" r="4" fill="#0" id="circle70"/>
	<circle cx="129.383" cy="313.77" r="4" fill="#0" id="circle71"/>
	<circle cx="130.305" cy="91.5836" r="4" fill="#0" id="circle72"/>
	<circle cx="133.993" cy="304.55" r="4" fill="#0" id="circle73"/>
	<circle cx="138.602" cy="96.1933" r="4" fill="#0" id="circle74"/>
	<circle cx="141.368" cy="298.097" r="4" fill="#0" id="circle75"/>
	<circle cx="146.9" cy="100.803" r="4" fill="#0" id="circle76"/>
	<circle cx="147.822" cy="290.721" r="4" fill="#0" id="circle77"/>
	<circle cx="154.275" cy="106.335" r="4" fill="#0" id="circle78"/>
	<circle cx="155.197" cy="284.268" r="4" fill="#0" id="circle79"/>
	<circle cx="161.651" cy="112.788" r="4" fill="#0" id="circle80"/>
	<circle cx="164.416" cy="279.658" r="4" fill="#0" id="circle81"/>
	<circle cx="169.026" cy="270.439" r="4" fill="#0" id="circle82"/>
	<circle cx="169.948" cy="117.398" r="4" fill="#0" id="circle83"/>
	<circle cx="175.48" cy="258.454" r="4" fill="#0" id="circle84"/>
	<circle cx="179.167" cy="121.086" r="4" fill="#0" id="circle85"/>
	<circle cx="184.699" cy="128.461" r="4" fill="#0" id="circle86"/>
	<circle cx="184.699" cy="258.454" r="4" fill="#0" id="circle87"/>
	<circle cx="192.996" cy="133.071" r="4" fill="#0" id="circle88"/>
	<circle cx="193.918" cy="258.454" r="4" fill="#0" id="circle89"/>
	<circle cx="201.294" cy="137.68" r="4" fill="#0" id="circle90"/>
	<circle cx="203.138" cy="258.454" r="4" fill="#0" id="circle91"/>
	<circle cx="210.513" cy="137.68" r="4" fill="#0" id="circle92"/>
	<circle cx="212.357" cy="253.844" r="4" fill="#0" id="circle93"/>
	<circle cx="219.732" cy="137.68" r="4" fill="#0" id="circle94"/>
	<circle cx="221.576" cy="253.844" r="4" fill="#0" id="circle95"/>
	<circle cx="228.952" cy="137.68" r="4" fill="#0" id="circle96"/>
	<circle cx="229.874" cy="249.234" r="4" fill="#0" id="circle97"/>
	<circle cx="238.171" cy="137.68" r="4" fill="#0" id="circle98"/>
	<circle cx="239.093" cy="249.234" r="4" fill="#0" id="circle99"/>
	<circle cx="247.39" cy="137.68" r="4" fill="#0" id="circle100"/>
	<circle cx="247.39" cy="244.625" r="4" fill="#0" id="circle101"/>
	<circle cx="256.61" cy="137.68" r="4" fill="#0" id="circle102"/>
	<circle cx="256.61" cy="244.625" r="4" fill="#0" id="circle103"/>
	<circle cx="265.829" cy="137.68" r="4" fill="#0" id="circle104"/>
	<circle cx="265.829" cy="244.625" r="4" fill="#0" id="circle105"/>
	<circle cx="275.048" cy="137.68" r="4" fill="#0" id="circle106"/>
	<circle cx="275.048" cy="244.625" r="4" fill="#0" id="circle107"/>
	<circle cx="283.346" cy="133.071" r="4" fill="#0" id="circle108"/>
	<circle cx="284.268" cy="244.625" r="4" fill="#0" id="circle109"/>
	<circle cx="292.565" cy="133.071" r="4" fill="#0" id="circle110"/>
	<circle cx="293.487" cy="244.625" r="4" fill="#0" id="circle111"/>
	<circle cx="301.784" cy="128.461" r="4" fill="#0" id="circle112"/>
	<circle cx="302.706" cy="244.625" r="4" fill="#0" id="circle113"/>
	<circle cx="311.004" cy="128.461" r="4" fill="#0" id="circle114"/>
	<circle cx="311.926" cy="244.625" r="4" fill="#0" id="circle115"/>
	<circle cx="315.613" cy="253.844" r="4" fill="#0" id="circle116"/>
	<circle cx="317.457" cy="263.063" r="4" fill="#0" id="circle117"/>
	<circle cx="317.457" cy="272.283" r="4" fill="#0" id="circle118"/>
	<circle cx="317.457" cy="281.502" r="4" fill="#0" id="circle119"/>
	<circle cx="317.457" cy="290.721" r="4" fill="#0" id="circle120"/>
	<circle cx="319.301" cy="123.851" r="4" fill="#0" id="circle121"/>
	<circle cx="322.067" cy="299.019" r="4" fill="#0" id="circle122"/>
	<circle cx="322.067" cy="308.238" r="4" fill="#0" id="circle123"/>
	<circle cx="322.067" cy="317.457" r="4" fill="#0" id="circle124"/>
	<circle cx="322.067" cy="326.677" r="4" fill="#0" id="circle125"/>
	<circle cx="322.067" cy="335.896" r="4" fill="#0" id="circle126"/>
	<circle cx="322.067" cy="345.115" r="4" fill="#0" id="circle127"/>
	<circle cx="322.067" cy="354.335" r="4" fill="#0" id="circle128"/>
	<circle cx="322.067" cy="363.554" r="4" fill="#0" id="circle129"/>
	<circle cx="322.067" cy="372.773" r="4" fill="#0" id="circle130"/>
	<circle cx="326.677" cy="381.071" r="4" fill="#0" id="circle131"/>
	<circle cx="328.52" cy="120.164" r="4" fill="#0" id="circle132"/>
	<circle cx="334.052" cy="387.524" r="4" fill="#0" id="circle133"/>
	<circle cx="337.74" cy="119.242" r="4" fill="#0" id="circle134"/>
	<circle cx="342.349" cy="392.134" r="4" fill="#0" id="circle135"/>
	<circle cx="346.037" cy="123.851" r="4" fill="#0" id="circle136"/>
	<circle cx="350.647" cy="387.524" r="4" fill="#0" id="circle137"/>
	<circle cx="355.257" cy="126.617" r="4" fill="#0" id="circle138"/>
	<circle cx="358.022" cy="381.071" r="4" fill="#0" id="circle139"/>
	<circle cx="359.866" cy="134.914" r="4" fill="#0" id="circle140"/>
	<circle cx="362.632" cy="371.851" r="4" fill="#0" id="circle141"/>
	<circle cx="364.476" cy="143.212" r="4" fill="#0" id="circle142"/>
	<circle cx="364.476" cy="359.866" r="4" fill="#0" id="circle143"/>
	<circle cx="369.086" cy="151.509" r="4" fill="#0" id="circle144"/>
	<circle cx="369.086" cy="272.283" r="4" fill="#0" id="circle145"/>
	<circle cx="369.086" cy="281.502" r="4" fill="#0" id="circle146"/>
	<circle cx="369.086" cy="290.721" r="4" fill="#0" id="circle147"/>
	<circle cx="369.086" cy="299.941" r="4" fill="#0" id="circle148"/>
	<circle cx="369.086" cy="309.16" r="4" fill="#0" id="circle149"/>
	<circle cx="369.086" cy="346.037" r="4" fill="#0" id="circle150"/>
	<circle cx="370.929" cy="318.379" r="4" fill="#0" id="circle151"/>
	<circle cx="373.695" cy="159.807" r="4" fill="#0" id="circle152"/>
	<circle cx="373.695" cy="327.599" r="4" fill="#0" id="circle153"/>
	<circle cx="373.695" cy="336.818" r="4" fill="#0" id="circle154"/>
	<circle cx="377.383" cy="267.673" r="4" fill="#0" id="circle155"/>
	<circle cx="381.071" cy="166.26" r="4" fill="#0" id="circle156"/>
	<circle cx="384.758" cy="175.48" r="4" fill="#0" id="circle157"/>
	<circle cx="385.68" cy="263.063" r="4" fill="#0" id="circle158"/>
	<circle cx="389.368" cy="183.777" r="4" fill="#0" id="circle159"/>
	<circle cx="392.134" cy="192.996" r="4" fill="#0" id="circle160"/>
	<circle cx="394.9" cy="263.063" r="4" fill="#0" id="circle161"/>
	<circle cx="396.743" cy="201.294" r="4" fill="#0" id="circle162"/>
	<circle cx="401.353" cy="209.591" r="4" fill="#0" id="circle163"/>
	<circle cx="404.119" cy="263.063" r="4" fill="#0" id="circle164"/>
	<circle cx="405.963" cy="217.888" r="4" fill="#0" id="circle165"/>
	<circle cx="410.572" cy="226.186" r="4" fill="#0" id="circle166"/>
	<circle cx="413.338" cy="263.063" r="4" fill="#0" id="circle167"/>
	<circle cx="415.182" cy="234.483" r="4" fill="#0" id="circle168"/>
	<circle cx="422.558" cy="263.063" r="4" fill="#0" id="circle169"/>
	<circle cx="424.401" cy="234.483" r="4" fill="#0" id="circle170"/>
	<circle cx="430.855" cy="267.673" r="4" fill="#0" id="circle171"/>
	<circle cx="433.621" cy="234.483" r="4" fill="#0" id="circle172"/>
	<circle cx="438.23" cy="274.126" r="4" fill="#0" id="circle173"/>
	<circle cx="442.84" cy="231.717" r="4" fill="#0" id="circle174"/>
	<circle cx="446.528" cy="278.736" r="4" fill="#0" id="circle175"/>
	<circle cx="446.528" cy="287.955" r="4" fill="#0" id="circle176"/>
	<circle cx="446.528" cy="297.175" r="4" fill="#0" id="circle177"/>
	<circle cx="446.528" cy="306.394" r="4" fill="#0" id="circle178"/>
	<circle cx="446.528" cy="315.613" r="4" fill="#0" id="circle179"/>
	<circle cx="446.528" cy="324.833" r="4" fill="#0" id="circle180"/>
	<circle cx="446.528" cy="334.052" r="4" fill="#0" id="circle181"/>
	<circle cx="446.528" cy="343.271" r="4" fill="#0" id="circle182"/>
	<circle cx="446.528" cy="352.491" r="4" fill="#0" id="circle183"/>
	<circle cx="451.138" cy="360.788" r="4" fill="#0" id="circle184"/>
	<circle cx="452.059" cy="229.874" r="4" fill="#0" id="circle185"/>
	<circle cx="455.747" cy="369.086" r="4" fill="#0" id="circle186"/>
	<circle cx="460.357" cy="377.383" r="4" fill="#0" id="circle187"/>
	<circle cx="461.279" cy="227.108" r="4" fill="#0" id="circle188"/>
	<circle cx="464.967" cy="385.68" r="4" fill="#0" id="circle189"/>
	<circle cx="469.576" cy="393.978" r="4" fill="#0" id="circle190"/>
	<circle cx="470.498" cy="225.264" r="4" fill="#0" id="circle191"/>
	<circle cx="476.952" cy="400.431" r="4" fill="#0" id="circle192"/>
	<circle cx="479.717" cy="225.264" r="4" fill="#0" id="circle193"/>
	<circle cx="485.249" cy="405.041" r="4" fill="#0" id="circle194"/>
	<circle cx="488.015" cy="214.201" r="4" fill="#0" id="circle195"/>
	<circle cx="492.625" cy="191.152" r="4" fill="#0" id="circle196"/>
	<circle cx="492.625" cy="200.372" r="4" fill="#0" id="circle197"/>
	<circle cx="494.468" cy="405.963" r="4" fill="#0" id="circle198"/>
	<circle cx="497.234" cy="145.056" r="4" fill="#0" id="circle199"/>
	<circle cx="497.234" cy="154.275" r="4" fill="#0" id="circle200"/>
	<circle cx="497.234" cy="163.494" r="4" fill="#0" id="circle201"/>
	<circle cx="497.234" cy="172.714" r="4" fill="#0" id="circle202"/>
	<circle cx="497.234" cy="181.933" r="4" fill="#0" id="circle203"/>
	<circle cx="501.844" cy="135.836" r="4" fill="#0" id="circle204"/>
	<circle cx="503.688" cy="405.963" r="4" fill="#0" id="circle205"/>
	<circle cx="506.454" cy="126.617" r="4" fill="#0" id="circle206"/>
	<circle cx="512.907" cy="405.963" r="4" fill="#0" id="circle207"/>
	<circle cx="513.829" cy="119.242" r="4" fill="#0" id="circle208"/>
	<circle cx="521.204" cy="111.866" r="4" fill="#0" id="circle209"/>
	<circle cx="522.126" cy="405.963" r="4" fill="#0" id="circle210"/>
	<circle cx="528.58" cy="105.413" r="4" fill="#0" id="circle211"/>
	<circle cx="531.346" cy="405.963" r="4" fill="#0" id="circle212"/>
	<circle cx="532.268" cy="96.1933" r="4" fill="#0" id="circle213"/>
	<circle cx="534.112" cy="57.4721" r="4" fill="#0" id="circle214"/>
	<circle cx="534.112" cy="66.6914" r="4" fill="#0" id="circle215"/>
	<circle cx="534.112" cy="75.9108" r="4" fill="#0" id="circle216"/>
	<circle cx="534.112" cy="85.1301" r="4" fill="#0" id="circle217"/>
	<circle cx="538.721" cy="43.6431" r="4" fill="#0" id="circle218"/>
	<circle cx="540.565" cy="405.963" r="4" fill="#0" id="circle219"/>
	<circle cx="543.331" cy="25.2045" r="4" fill="#0" id="circle220"/>
	<circle cx="543.331" cy="34.4238" r="4" fill="#0" id="circle221"/>
	<circle cx="547.941" cy="15.9851" r="4" fill="#0" id="circle222"/>
	<circle cx="548.862" cy="401.353" r="4" fill="#0" id="circle223"/>
	<circle cx="555.316" cy="8.60967" r="4" fill="#0" id="circle224"/>
	<circle cx="558.082" cy="396.743" r="4" fill="#0" id="circle225"/>
	<circle cx="564.535" cy="4" r="4" fill="#0" id="circle226"/>
	<circle cx="567.301" cy="392.134" r="4" fill="#0" id="circle227"/>
	<circle cx="573.755" cy="4" r="4" fill="#0" id="circle228"/>
	<circle cx="576.52" cy="387.524" r="4" fill="#0" id="circle229"/>
	<circle cx="580.208" cy="11.3755" r="4" fill="#0" id="circle230"/>
	<circle cx="583.896" cy="381.071" r="4" fill="#0" id="circle231"/>
	<circle cx="587.584" cy="17.829" r="4" fill="#0" id="circle232"/>
	<circle cx="590.349" cy="27.0483" r="4" fill="#0" id="circle233"/>
	<circle cx="590.349" cy="369.086" r="4" fill="#0" id="circle234"/>
	<circle cx="594.959" cy="359.866" r="4" fill="#0" id="circle235"/>
	<circle cx="597.725" cy="32.5799" r="4" fill="#0" id="circle236"/>
	<circle cx="599.569" cy="346.037" r="4" fill="#0" id="circle237"/>
	<circle cx="601.413" cy="41.7993" r="4" fill="#0" id="circle238"/>
	<circle cx="604.178" cy="244.625" r="4" fill="#0" id="circle239"/>
	<circle cx="604.178" cy="253.844" r="4" fill="#0" id="circle240"/>
	<circle cx="604.178" cy="263.063" r="4" fill="#0" id="circle241"/>
	<circle cx="604.178" cy="272.283" r="4" fill="#0" id="circle242"/>
	<circle cx="604.178" cy="281.502" r="4" fill="#0" id="circle243"/>
	<circle cx="604.178" cy="290.721" r="4" fill="#0" id="circle244"/>
	<circle cx="604.178" cy="299.941" r="4" fill="#0" id="circle245"/>
	<circle cx="604.178" cy="309.16" r="4" fill="#0" id="circle246"/>
	<circle cx="604.178" cy="318.379" r="4" fill="#0" id="circle247"/>
	<circle cx="604.178" cy="327.599" r="4" fill="#0" id="circle248"/>
	<circle cx="604.178" cy="336.818" r="4" fill="#0" id="circle249"/>
	<circle cx="606.022" cy="50.0967" r="4" fill="#0" id="circle250"/>
	<circle cx="612.476" cy="57.4721" r="4" fill="#0" id="circle251"/>
	<circle cx="613.398" cy="244.625" r="4" fill="#0" id="circle252"/>
	<circle cx="617.086" cy="65.7695" r="4" fill="#0" id="circle253"/>
	<circle cx="620.773" cy="74.9888" r="4" fill="#0" id="circle254"/>
	<circle cx="621.695" cy="249.234" r="4" fill="#0" id="circle255"/>
	<circle cx="625.383" cy="83.2862" r="4" fill="#0" id="circle256"/>
	<circle cx="627.227" cy="92.5056" r="4" fill="#0" id="circle257"/>
	<circle cx="627.227" cy="256.61" r="4" fill="#0" id="circle258"/>
	<circle cx="631.836" cy="100.803" r="4" fill="#0" id="circle259"/>
	<circle cx="631.836" cy="133.993" r="4" fill="#0" id="circle260"/>
	<circle cx="631.836" cy="143.212" r="4" fill="#0" id="circle261"/>
	<circle cx="631.836" cy="152.431" r="4" fill="#0" id="circle262"/>
	<circle cx="631.836" cy="161.651" r="4" fill="#0" id="circle263"/>
	<circle cx="631.836" cy="170.87" r="4" fill="#0" id="circle264"/>
	<circle cx="631.836" cy="180.089" r="4" fill="#0" id="circle265"/>
	<circle cx="631.836" cy="189.309" r="4" fill="#0" id="circle266"/>
	<circle cx="631.836" cy="198.528" r="4" fill="#0" id="circle267"/>
	<circle cx="631.836" cy="207.747" r="4" fill="#0" id="circle268"/>
	<circle cx="634.602" cy="263.063" r="4" fill="#0" id="circle269"/>
	<circle cx="636.446" cy="109.1" r="4" fill="#0" id="circle270"/>
	<circle cx="636.446" cy="118.32" r="4" fill="#0" id="circle271"/>
	<circle cx="636.446" cy="216.045" r="4" fill="#0" id="circle272"/>
	<circle cx="641.056" cy="270.439" r="4" fill="#0" id="circle273"/>
	<circle cx="644.743" cy="279.658" r="4" fill="#0" id="circle274"/>
	<circle cx="645.665" cy="216.045" r="4" fill="#0" id="circle275"/>
	<circle cx="649.353" cy="287.955" r="4" fill="#0" id="circle276"/>
	<circle cx="649.353" cy="297.175" r="4" fill="#0" id="circle277"/>
	<circle cx="649.353" cy="306.394" r="4" fill="#0" id="circle278"/>
	<circle cx="653.963" cy="314.691" r="4" fill="#0" id="circle279"/>
	<circle cx="654.885" cy="213.279" r="4" fill="#0" id="circle280"/>
	<circle cx="658.572" cy="322.989" r="4" fill="#0" id="circle281"/>
	<circle cx="661.338" cy="332.208" r="4" fill="#0" id="circle282"/>
	<circle cx="664.104" cy="211.435" r="4" fill="#0" id="circle283"/>
	<circle cx="668.714" cy="338.662" r="4" fill="#0" id="circle284"/>
	<circle cx="672.401" cy="206.825" r="4" fill="#0" id="circle285"/>
	<circle cx="677.933" cy="341.428" r="4" fill="#0" id="circle286"/>
	<circle cx="681.621" cy="204.981" r="4" fill="#0" id="circle287"/>
	<circle cx="687.152" cy="341.428" r="4" fill="#0" id="circle288"/>
	<circle cx="690.84" cy="186.543" r="4" fill="#0" id="circle289"/>
	<circle cx="690.84" cy="195.762" r="4" fill="#0" id="circle290"/>
	<circle cx="695.45" cy="177.323" r="4" fill="#0" id="circle291"/>
	<circle cx="696.372" cy="341.428" r="4" fill="#0" id="circle292"/>
	<circle cx="702.825" cy="169.948" r="4" fill="#0" id="circle293"/>
	<circle cx="705.591" cy="341.428" r="4" fill="#0" id="circle294"/>
	<circle cx="709.279" cy="158.885" r="4" fill="#0" id="circle295"/>
	<circle cx="714.81" cy="341.428" r="4" fill="#0" id="circle296"/>
	<circle cx="716.654" cy="151.509" r="4" fill="#0" id="circle297"/>
	<circle cx="724.03" cy="144.134" r="4" fill="#0" id="circle298"/>
	<circle cx="724.03" cy="341.428" r="4" fill="#0" id="circle299"/>
	<circle cx="731.405" cy="137.68" r="4" fill="#0" id="circle300"/>
	<circle cx="733.249" cy="341.428" r="4" fill="#0" id="circle301"/>
	<circle cx="739.703" cy="133.071" r="4" fill="#0" id="circle302"/>
	<circle cx="742.468" cy="341.428" r="4" fill="#0" id="circle303"/>
	<circle cx="748" cy="128.461" r="4" fill="#0" id="circle304"/>
	<circle cx="751.688" cy="341.428" r="4" fill="#0" id="circle305"/>
	<circle cx="757.219" cy="124.773" r="4" fill="#0" id="circle306"/>
	<circle cx="760.907" cy="341.428" r="4" fill="#0" id="circle307"/>
	<circle cx="766.439" cy="123.851" r="4" fill="#0" id="circle308"/>
	<circle cx="770.126" cy="341.428" r="4" fill="#0" id="circle309"/>
	<circle cx="774.736" cy="119.242" r="4" fill="#0" id="circle310"/>
	<circle cx="775.658" cy="348.803" r="4" fill="#0" id="circle311"/>
	<circle cx="779.346" cy="358.022" r="4" fill="#0" id="circle312"/>
	<circle cx="783.033" cy="75.9108" r="4" fill="#0" id="circle313"/>
	<circle cx="783.033" cy="85.1301" r="4" fill="#0" id="circle314"/>
	<circle cx="783.033" cy="94.3494" r="4" fill="#0" id="circle315"/>
	<circle cx="783.033" cy="103.569" r="4" fill="#0" id="circle316"/>
	<circle cx="783.033" cy="112.788" r="4" fill="#0" id="circle317"/>
	<circle cx="783.955" cy="366.32" r="4" fill="#0" id="circle318"/>
	<circle cx="787.643" cy="375.539" r="4" fill="#0" id="circle319"/>
	<circle cx="790.409" cy="68.5353" r="4" fill="#0" id="circle320"/>
	<circle cx="792.253" cy="383.836" r="4" fill="#0" id="circle321"/>
	<circle cx="796.862" cy="392.134" r="4" fill="#0" id="circle322"/>
	<circle cx="798.706" cy="63.9257" r="4" fill="#0" id="circle323"/>
	<circle cx="799.628" cy="401.353" r="4" fill="#0" id="circle324"/>
	<circle cx="807.004" cy="407.807" r="4" fill="#0" id="circle325"/>
	<circle cx="807.926" cy="63.9257" r="4" fill="#0" id="circle326"/>
	<circle cx="815.301" cy="412.416" r="4" fill="#0" id="circle327"/>
	<circle cx="816.223" cy="68.5353" r="4" fill="#0" id="circle328"/>
	<circle cx="823.599" cy="74.0669" r="4" fill="#0" id="circle329"/>
	<circle cx="824.52" cy="415.182" r="4" fill="#0" id="circle330"/>
	<circle cx="827.286" cy="83.2862" r="4" fill="#0" id="circle331"/>
	<circle cx="831.896" cy="91.5836" r="4" fill="#0" id="circle332"/>
	<circle cx="832.818" cy="419.792" r="4" fill="#0" id="circle333"/>
	<circle cx="834.662" cy="100.803" r="4" fill="#0" id="circle334"/>
	<circle cx="834.662" cy="110.022" r="4" fill="#0" id="circle335"/>
	<circle cx="839.271" cy="118.32" r="4" fill="#0" id="circle336"/>
	<circle cx="841.115" cy="424.401" r="4" fill="#0" id="circle337"/>
	<circle cx="848.491" cy="119.242" r="4" fill="#0" id="circle338"/>
	<circle cx="850.335" cy="428.089" r="4" fill="#0" id="circle339"/>
	<circle cx="856.788" cy="123.851" r="4" fill="#0" id="circle340"/>
	<circle cx="859.554" cy="429.011" r="4" fill="#0" id="circle341"/>
	<circle cx="866.007" cy="123.851" r="4" fill="#0" id="circle342"/>
	<circle cx="868.773" cy="429.011" r="4" fill="#0" id="circle343"/>
	<circle cx="875.227" cy="123.851" r="4" fill="#0" id="circle344"/>
	<circle cx="877.993" cy="429.011" r="4" fill="#0" id="circle345"/>
	<circle cx="884.446" cy="123.851" r="4" fill="#0" id="circle346"/>
	<circle cx="887.212" cy="429.011" r="4" fill="#0" id="circle347"/>
	<circle cx="893.665" cy="123.851" r="4" fill="#0" id="circle348"/>
	<circle cx="896.431" cy="429.011" r="4" fill="#0" id="circle349"/>
	<circle cx="902.885" cy="123.851" r="4" fill="#0" id="circle350"/>
	<circle cx="905.651" cy="428.089" r="4" fill="#0" id="circle351"/>
	<circle cx="912.104" cy="125.695" r="4" fill="#0" id="circle352"/>
	<circle cx="914.87" cy="423.48" r="4" fill="#0" id="circle353"/>
	<circle cx="920.401" cy="130.305" r="4" fill="#0" id="circle354"/>
	<circle cx="924.089" cy="418.87" r="4" fill="#0" id="circle355"/>
	<circle cx="925.011" cy="138.602" r="4" fill="#0" id="circle356"/>
	<circle cx="926.855" cy="147.822" r="4" fill="#0" id="circle357"/>
	<circle cx="931.465" cy="156.119" r="4" fill="#0" id="circle358"/>
	<circle cx="931.465" cy="165.338" r="4" fill="#0" id="circle359"/>
	<circle cx="931.465" cy="410.572" r="4" fill="#0" id="circle360"/>
	<circle cx="936.074" cy="173.636" r="4" fill="#0" id="circle361"/>
	<circle cx="940.684" cy="181.933" r="4" fill="#0" id="circle362"/>
	<circle cx="940.684" cy="405.963" r="4" fill="#0" id="circle363"/>
	<circle cx="944.372" cy="191.152" r="4" fill="#0" id="circle364"/>
	<circle cx="945.294" cy="200.372" r="4" fill="#0" id="circle365"/>
	<circle cx="948.059" cy="399.509" r="4" fill="#0" id="circle366"/>
	<circle cx="948.981" cy="209.591" r="4" fill="#0" id="circle367"/>
	<circle cx="949.903" cy="218.81" r="4" fill="#0" id="circle368"/>
	<circle cx="949.903" cy="228.03" r="4" fill="#0" id="circle369"/>
	<circle cx="949.903" cy="237.249" r="4" fill="#0" id="circle370"/>
	<circle cx="954.513" cy="392.134" r="4" fill="#0" id="circle371"/>
	<circle cx="956.357" cy="244.625" r="4" fill="#0" id="circle372"/>
	<circle cx="961.888" cy="385.68" r="4" fill="#0" id="circle373"/>
	<circle cx="963.732" cy="251.078" r="4" fill="#0" id="circle374"/>
	<circle cx="966.498" cy="376.461" r="4" fill="#0" id="circle375"/>
	<circle cx="968.342" cy="259.375" r="4" fill="#0" id="circle376"/>
	<circle cx="972.952" cy="369.086" r="4" fill="#0" id="circle377"/>
	<circle cx="973.874" cy="266.751" r="4" fill="#0" id="circle378"/>
	<circle cx="977.561" cy="359.866" r="4" fill="#0" id="circle379"/>
	<circle cx="981.249" cy="273.204" r="4" fill="#0" id="circle380"/>
	<circle cx="982.171" cy="350.647" r="4" fill="#0" id="circle381"/>
	<circle cx="986.781" cy="280.58" r="4" fill="#0" id="circle382"/>
	<circle cx="986.781" cy="341.428" r="4" fill="#0" id="circle383"/>
	<circle cx="991.39" cy="288.877" r="4" fill="#0" id="circle384"/>
	<circle cx="991.39" cy="318.379" r="4" fill="#0" id="circle385"/>
	<circle cx="991.39" cy="327.599" r="4" fill="#0" id="circle386"/>
	<circle cx="996" cy="297.175" r="4" fill="#0" id="circle387"/>
	<circle cx="996" cy="306.394" r="4" fill="#0" id="circle388"/>
	</g>
</svg>