<?xml version="1.0" encoding="UTF-8" standalone="no"?>
<!-- Created with CurveBenchmark -->
<svg
	xmlns:dc="http://purl.org/dc/elements/1.1/"
	xmlns:cc="http://creativecommons.org/ns#"
	xmlns:rdf="http://www.w3.org/1999/02/22-rdf-syntax-ns#"
	xmlns:svg="http://www.w3.org/2000/svg"
	xmlns="http://www.w3.org/2000/svg"
	xmlns:sodipodi="http://sodipodi.sourceforge.net/DTD/sodipodi-0.dtd"
	xmlns:inkscape="http://www.inkscape.org/namespaces/inkscape"
	width="1000"
	height="1000"
	id="svg2"
	version="1.1"
	sodipodi:docname="manifold/vicur-fountain-11.png.txt">
<defs
	id="defs4" />
<metadata
	id="metadata7">
	<rdf:RDF>
		<cc:Work
			rdf:about="">
			<dc:format>image/svg+xml</dc:format>
			<dc:type
				rdf:resource="http://purl.org/dc/dcmitype/StillImage" />
			<dc:title></dc:title>
		</cc:Work>
	</rdf:RDF>
</metadata>
<g
	inkscape:label="Layer 1"
	inkscape:groupmode="layer"
	id="layer1">
	<path style="fill:none;stroke:red;stroke-width:1px;stroke-linecap:butt;stroke-linejoin:miter;stroke-opacity:1" d="M 4,596.623 4,606.533 z" id="boundary" inkscape:connector-curvature="0" />
	<path style="fill:none;stroke:red;stroke-width:1px;stroke-linecap:butt;stroke-linejoin:miter;stroke-opacity:1" d="M 4,596.623 8.95504,586.713 z" id="boundary" inkscape:connector-curvature="0" />
	<path style="fill:none;stroke:red;stroke-width:1px;stroke-linecap:butt;stroke-linejoin:miter;stroke-opacity:1" d="M 4,606.533 4,616.444 z" id="boundary" inkscape:connector-curvature="0" />
	<path style="fill:none;stroke:red;stroke-width:1px;stroke-linecap:butt;stroke-linejoin:miter;stroke-opacity:1" d="M 4,616.444 4,626.354 z" id="boundary" inkscape:connector-curvature="0" />
	<path style="fill:none;stroke:red;stroke-width:1px;stroke-linecap:butt;stroke-linejoin:miter;stroke-opacity:1" d="M 4,626.354 8.95504,635.273 z" id="boundary" inkscape:connector-curvature="0" />
	<path style="fill:none;stroke:red;stroke-width:1px;stroke-linecap:butt;stroke-linejoin:miter;stroke-opacity:1" d="M 8.95504,576.803 8.95504,586.713 z" id="boundary" inkscape:connector-curvature="0" />
	<path style="fill:none;stroke:red;stroke-width:1px;stroke-linecap:butt;stroke-linejoin:miter;stroke-opacity:1" d="M 8.95504,576.803 13.9101,566.893 z" id="boundary" inkscape:connector-curvature="0" />
	<path style="fill:none;stroke:red;stroke-width:1px;stroke-linecap:butt;stroke-linejoin:miter;stroke-opacity:1" d="M 8.95504,635.273 18.8651,639.237 z" id="boundary" inkscape:connector-curvature="0" />
	<path style="fill:none;stroke:red;stroke-width:1px;stroke-linecap:butt;stroke-linejoin:miter;stroke-opacity:1" d="M 13.9101,566.893 18.8651,556.983 z" id="boundary" inkscape:connector-curvature="0" />
	<path style="fill:none;stroke:red;stroke-width:1px;stroke-linecap:butt;stroke-linejoin:miter;stroke-opacity:1" d="M 18.8651,556.983 23.8202,547.073 z" id="boundary" inkscape:connector-curvature="0" />
	<path style="fill:none;stroke:red;stroke-width:1px;stroke-linecap:butt;stroke-linejoin:miter;stroke-opacity:1" d="M 18.8651,639.237 24.8112,647.165 z" id="boundary" inkscape:connector-curvature="0" />
	<path style="fill:none;stroke:red;stroke-width:1px;stroke-linecap:butt;stroke-linejoin:miter;stroke-opacity:1" d="M 23.8202,547.073 31.7483,539.145 z" id="boundary" inkscape:connector-curvature="0" />
	<path style="fill:none;stroke:red;stroke-width:1px;stroke-linecap:butt;stroke-linejoin:miter;stroke-opacity:1" d="M 24.8112,647.165 32.7393,654.102 z" id="boundary" inkscape:connector-curvature="0" />
	<path style="fill:none;stroke:red;stroke-width:1px;stroke-linecap:butt;stroke-linejoin:miter;stroke-opacity:1" d="M 31.7483,539.145 39.6763,531.217 z" id="boundary" inkscape:connector-curvature="0" />
	<path style="fill:none;stroke:red;stroke-width:1px;stroke-linecap:butt;stroke-linejoin:miter;stroke-opacity:1" d="M 32.7393,654.102 50.5774,664.012 z" id="boundary" inkscape:connector-curvature="0" />
	<path style="fill:none;stroke:red;stroke-width:1px;stroke-linecap:butt;stroke-linejoin:miter;stroke-opacity:1" d="M 39.6763,531.217 47.6044,524.28 z" id="boundary" inkscape:connector-curvature="0" />
	<path style="fill:none;stroke:red;stroke-width:1px;stroke-linecap:butt;stroke-linejoin:miter;stroke-opacity:1" d="M 47.6044,524.28 54.5415,516.352 z" id="boundary" inkscape:connector-curvature="0" />
	<path style="fill:none;stroke:red;stroke-width:1px;stroke-linecap:butt;stroke-linejoin:miter;stroke-opacity:1" d="M 50.5774,664.012 68.4156,673.922 z" id="boundary" inkscape:connector-curvature="0" />
	<path style="fill:none;stroke:red;stroke-width:1px;stroke-linecap:butt;stroke-linejoin:miter;stroke-opacity:1" d="M 54.5415,516.352 71.3886,504.46 z" id="boundary" inkscape:connector-curvature="0" />
	<path style="fill:none;stroke:red;stroke-width:1px;stroke-linecap:butt;stroke-linejoin:miter;stroke-opacity:1" d="M 78.3257,673.922 96.1638,683.832 z" id="boundary" inkscape:connector-curvature="0" />
	<path style="fill:none;stroke:red;stroke-width:1px;stroke-linecap:butt;stroke-linejoin:miter;stroke-opacity:1" d="M 89.2268,491.576 106.074,479.684 z" id="boundary" inkscape:connector-curvature="0" />
	<path style="fill:none;stroke:red;stroke-width:1px;stroke-linecap:butt;stroke-linejoin:miter;stroke-opacity:1" d="M 96.1638,683.832 106.074,687.796 z" id="boundary" inkscape:connector-curvature="0" />
	<path style="fill:none;stroke:red;stroke-width:1px;stroke-linecap:butt;stroke-linejoin:miter;stroke-opacity:1" d="M 106.074,479.684 115.984,474.729 z" id="boundary" inkscape:connector-curvature="0" />
	<path style="fill:none;stroke:red;stroke-width:1px;stroke-linecap:butt;stroke-linejoin:miter;stroke-opacity:1" d="M 106.074,687.796 115.984,688.787 z" id="boundary" inkscape:connector-curvature="0" />
	<path style="fill:none;stroke:red;stroke-width:1px;stroke-linecap:butt;stroke-linejoin:miter;stroke-opacity:1" d="M 115.984,474.729 125.894,469.774 z" id="boundary" inkscape:connector-curvature="0" />
	<path style="fill:none;stroke:red;stroke-width:1px;stroke-linecap:butt;stroke-linejoin:miter;stroke-opacity:1" d="M 115.984,688.787 125.894,692.751 z" id="boundary" inkscape:connector-curvature="0" />
	<path style="fill:none;stroke:red;stroke-width:1px;stroke-linecap:butt;stroke-linejoin:miter;stroke-opacity:1" d="M 125.894,469.774 135.804,464.819 z" id="boundary" inkscape:connector-curvature="0" />
	<path style="fill:none;stroke:red;stroke-width:1px;stroke-linecap:butt;stroke-linejoin:miter;stroke-opacity:1" d="M 125.894,692.751 135.804,693.742 z" id="boundary" inkscape:connector-curvature="0" />
	<path style="fill:none;stroke:red;stroke-width:1px;stroke-linecap:butt;stroke-linejoin:miter;stroke-opacity:1" d="M 135.804,693.742 154.633,698.697 z" id="boundary" inkscape:connector-curvature="0" />
	<path style="fill:none;stroke:red;stroke-width:1px;stroke-linecap:butt;stroke-linejoin:miter;stroke-opacity:1" d="M 145.714,464.819 164.543,455.9 z" id="boundary" inkscape:connector-curvature="0" />
	<path style="fill:none;stroke:red;stroke-width:1px;stroke-linecap:butt;stroke-linejoin:miter;stroke-opacity:1" d="M 154.633,698.697 164.543,701.67 z" id="boundary" inkscape:connector-curvature="0" />
	<path style="fill:none;stroke:red;stroke-width:1px;stroke-linecap:butt;stroke-linejoin:miter;stroke-opacity:1" d="M 164.543,455.9 174.454,454.909 z" id="boundary" inkscape:connector-curvature="0" />
	<path style="fill:none;stroke:red;stroke-width:1px;stroke-linecap:butt;stroke-linejoin:miter;stroke-opacity:1" d="M 164.543,701.67 174.454,703.652 z" id="boundary" inkscape:connector-curvature="0" />
	<path style="fill:none;stroke:red;stroke-width:1px;stroke-linecap:butt;stroke-linejoin:miter;stroke-opacity:1" d="M 174.454,454.909 184.364,450.945 z" id="boundary" inkscape:connector-curvature="0" />
	<path style="fill:none;stroke:red;stroke-width:1px;stroke-linecap:butt;stroke-linejoin:miter;stroke-opacity:1" d="M 174.454,703.652 184.364,703.652 z" id="boundary" inkscape:connector-curvature="0" />
	<path style="fill:none;stroke:red;stroke-width:1px;stroke-linecap:butt;stroke-linejoin:miter;stroke-opacity:1" d="M 184.364,450.945 192.292,433.107 z" id="boundary" inkscape:connector-curvature="0" />
	<path style="fill:none;stroke:red;stroke-width:1px;stroke-linecap:butt;stroke-linejoin:miter;stroke-opacity:1" d="M 184.364,703.652 203.193,710.589 z" id="boundary" inkscape:connector-curvature="0" />
	<path style="fill:none;stroke:red;stroke-width:1px;stroke-linecap:butt;stroke-linejoin:miter;stroke-opacity:1" d="M 192.292,433.107 197.247,423.197 z" id="boundary" inkscape:connector-curvature="0" />
	<path style="fill:none;stroke:red;stroke-width:1px;stroke-linecap:butt;stroke-linejoin:miter;stroke-opacity:1" d="M 197.247,413.287 197.247,423.197 z" id="boundary" inkscape:connector-curvature="0" />
	<path style="fill:none;stroke:red;stroke-width:1px;stroke-linecap:butt;stroke-linejoin:miter;stroke-opacity:1" d="M 197.247,413.287 202.202,403.377 z" id="boundary" inkscape:connector-curvature="0" />
	<path style="fill:none;stroke:red;stroke-width:1px;stroke-linecap:butt;stroke-linejoin:miter;stroke-opacity:1" d="M 202.202,403.377 215.085,385.538 z" id="boundary" inkscape:connector-curvature="0" />
	<path style="fill:none;stroke:red;stroke-width:1px;stroke-linecap:butt;stroke-linejoin:miter;stroke-opacity:1" d="M 203.193,710.589 213.103,713.562 z" id="boundary" inkscape:connector-curvature="0" />
	<path style="fill:none;stroke:red;stroke-width:1px;stroke-linecap:butt;stroke-linejoin:miter;stroke-opacity:1" d="M 213.103,713.562 223.013,713.562 z" id="boundary" inkscape:connector-curvature="0" />
	<path style="fill:none;stroke:red;stroke-width:1px;stroke-linecap:butt;stroke-linejoin:miter;stroke-opacity:1" d="M 215.085,385.538 220.04,375.628 z" id="boundary" inkscape:connector-curvature="0" />
	<path style="fill:none;stroke:red;stroke-width:1px;stroke-linecap:butt;stroke-linejoin:miter;stroke-opacity:1" d="M 220.04,375.628 229.95,370.673 z" id="boundary" inkscape:connector-curvature="0" />
	<path style="fill:none;stroke:red;stroke-width:1px;stroke-linecap:butt;stroke-linejoin:miter;stroke-opacity:1" d="M 223.013,713.562 231.932,718.517 z" id="boundary" inkscape:connector-curvature="0" />
	<path style="fill:none;stroke:red;stroke-width:1px;stroke-linecap:butt;stroke-linejoin:miter;stroke-opacity:1" d="M 229.95,370.673 239.86,365.718 z" id="boundary" inkscape:connector-curvature="0" />
	<path style="fill:none;stroke:red;stroke-width:1px;stroke-linecap:butt;stroke-linejoin:miter;stroke-opacity:1" d="M 239.86,365.718 249.77,360.763 z" id="boundary" inkscape:connector-curvature="0" />
	<path style="fill:none;stroke:red;stroke-width:1px;stroke-linecap:butt;stroke-linejoin:miter;stroke-opacity:1" d="M 241.842,718.517 260.671,723.473 z" id="boundary" inkscape:connector-curvature="0" />
	<path style="fill:none;stroke:red;stroke-width:1px;stroke-linecap:butt;stroke-linejoin:miter;stroke-opacity:1" d="M 259.68,360.763 278.509,355.808 z" id="boundary" inkscape:connector-curvature="0" />
	<path style="fill:none;stroke:red;stroke-width:1px;stroke-linecap:butt;stroke-linejoin:miter;stroke-opacity:1" d="M 260.671,723.473 269.59,728.428 z" id="boundary" inkscape:connector-curvature="0" />
	<path style="fill:none;stroke:red;stroke-width:1px;stroke-linecap:butt;stroke-linejoin:miter;stroke-opacity:1" d="M 269.59,728.428 279.5,728.428 z" id="boundary" inkscape:connector-curvature="0" />
	<path style="fill:none;stroke:red;stroke-width:1px;stroke-linecap:butt;stroke-linejoin:miter;stroke-opacity:1" d="M 278.509,355.808 287.429,350.853 z" id="boundary" inkscape:connector-curvature="0" />
	<path style="fill:none;stroke:red;stroke-width:1px;stroke-linecap:butt;stroke-linejoin:miter;stroke-opacity:1" d="M 279.5,728.428 289.411,732.392 z" id="boundary" inkscape:connector-curvature="0" />
	<path style="fill:none;stroke:red;stroke-width:1px;stroke-linecap:butt;stroke-linejoin:miter;stroke-opacity:1" d="M 287.429,350.853 297.339,350.853 z" id="boundary" inkscape:connector-curvature="0" />
	<path style="fill:none;stroke:red;stroke-width:1px;stroke-linecap:butt;stroke-linejoin:miter;stroke-opacity:1" d="M 289.411,732.392 299.321,733.383 z" id="boundary" inkscape:connector-curvature="0" />
	<path style="fill:none;stroke:red;stroke-width:1px;stroke-linecap:butt;stroke-linejoin:miter;stroke-opacity:1" d="M 297.339,350.853 306.258,345.898 z" id="boundary" inkscape:connector-curvature="0" />
	<path style="fill:none;stroke:red;stroke-width:1px;stroke-linecap:butt;stroke-linejoin:miter;stroke-opacity:1" d="M 299.321,733.383 318.15,741.311 z" id="boundary" inkscape:connector-curvature="0" />
	<path style="fill:none;stroke:red;stroke-width:1px;stroke-linecap:butt;stroke-linejoin:miter;stroke-opacity:1" d="M 306.258,345.898 316.168,345.898 z" id="boundary" inkscape:connector-curvature="0" />
	<path style="fill:none;stroke:red;stroke-width:1px;stroke-linecap:butt;stroke-linejoin:miter;stroke-opacity:1" d="M 316.168,345.898 334.997,340.943 z" id="boundary" inkscape:connector-curvature="0" />
	<path style="fill:none;stroke:red;stroke-width:1px;stroke-linecap:butt;stroke-linejoin:miter;stroke-opacity:1" d="M 318.15,741.311 328.06,743.293 z" id="boundary" inkscape:connector-curvature="0" />
	<path style="fill:none;stroke:red;stroke-width:1px;stroke-linecap:butt;stroke-linejoin:miter;stroke-opacity:1" d="M 328.06,743.293 337.97,746.266 z" id="boundary" inkscape:connector-curvature="0" />
	<path style="fill:none;stroke:red;stroke-width:1px;stroke-linecap:butt;stroke-linejoin:miter;stroke-opacity:1" d="M 334.997,340.943 344.907,340.943 z" id="boundary" inkscape:connector-curvature="0" />
	<path style="fill:none;stroke:red;stroke-width:1px;stroke-linecap:butt;stroke-linejoin:miter;stroke-opacity:1" d="M 337.97,746.266 347.88,748.248 z" id="boundary" inkscape:connector-curvature="0" />
	<path style="fill:none;stroke:red;stroke-width:1px;stroke-linecap:butt;stroke-linejoin:miter;stroke-opacity:1" d="M 344.907,340.943 354.817,340.943 z" id="boundary" inkscape:connector-curvature="0" />
	<path style="fill:none;stroke:red;stroke-width:1px;stroke-linecap:butt;stroke-linejoin:miter;stroke-opacity:1" d="M 347.88,748.248 357.79,748.248 z" id="boundary" inkscape:connector-curvature="0" />
	<path style="fill:none;stroke:red;stroke-width:1px;stroke-linecap:butt;stroke-linejoin:miter;stroke-opacity:1" d="M 350.853,135.804 350.853,145.714 z" id="boundary" inkscape:connector-curvature="0" />
	<path style="fill:none;stroke:red;stroke-width:1px;stroke-linecap:butt;stroke-linejoin:miter;stroke-opacity:1" d="M 350.853,135.804 358.781,127.876 z" id="boundary" inkscape:connector-curvature="0" />
	<path style="fill:none;stroke:red;stroke-width:1px;stroke-linecap:butt;stroke-linejoin:miter;stroke-opacity:1" d="M 350.853,145.714 360.763,148.687 z" id="boundary" inkscape:connector-curvature="0" />
	<path style="fill:none;stroke:red;stroke-width:1px;stroke-linecap:butt;stroke-linejoin:miter;stroke-opacity:1" d="M 354.817,340.943 373.646,335.988 z" id="boundary" inkscape:connector-curvature="0" />
	<path style="fill:none;stroke:red;stroke-width:1px;stroke-linecap:butt;stroke-linejoin:miter;stroke-opacity:1" d="M 357.79,748.248 366.709,753.203 z" id="boundary" inkscape:connector-curvature="0" />
	<path style="fill:none;stroke:red;stroke-width:1px;stroke-linecap:butt;stroke-linejoin:miter;stroke-opacity:1" d="M 360.763,148.687 369.682,153.642 z" id="boundary" inkscape:connector-curvature="0" />
	<path style="fill:none;stroke:red;stroke-width:1px;stroke-linecap:butt;stroke-linejoin:miter;stroke-opacity:1" d="M 366.709,753.203 376.619,753.203 z" id="boundary" inkscape:connector-curvature="0" />
	<path style="fill:none;stroke:red;stroke-width:1px;stroke-linecap:butt;stroke-linejoin:miter;stroke-opacity:1" d="M 369.682,153.642 379.592,153.642 z" id="boundary" inkscape:connector-curvature="0" />
	<path style="fill:none;stroke:red;stroke-width:1px;stroke-linecap:butt;stroke-linejoin:miter;stroke-opacity:1" d="M 373.646,335.988 383.556,335.988 z" id="boundary" inkscape:connector-curvature="0" />
	<path style="fill:none;stroke:red;stroke-width:1px;stroke-linecap:butt;stroke-linejoin:miter;stroke-opacity:1" d="M 376.619,753.203 386.529,753.203 z" id="boundary" inkscape:connector-curvature="0" />
	<path style="fill:none;stroke:red;stroke-width:1px;stroke-linecap:butt;stroke-linejoin:miter;stroke-opacity:1" d="M 383.556,335.988 393.467,335.988 z" id="boundary" inkscape:connector-curvature="0" />
	<path style="fill:none;stroke:red;stroke-width:1px;stroke-linecap:butt;stroke-linejoin:miter;stroke-opacity:1" d="M 386.529,753.203 396.44,753.203 z" id="boundary" inkscape:connector-curvature="0" />
	<path style="fill:none;stroke:red;stroke-width:1px;stroke-linecap:butt;stroke-linejoin:miter;stroke-opacity:1" d="M 393.467,335.988 403.377,335.988 z" id="boundary" inkscape:connector-curvature="0" />
	<path style="fill:none;stroke:red;stroke-width:1px;stroke-linecap:butt;stroke-linejoin:miter;stroke-opacity:1" d="M 394.458,108.056 404.368,108.056 z" id="boundary" inkscape:connector-curvature="0" />
	<path style="fill:none;stroke:red;stroke-width:1px;stroke-linecap:butt;stroke-linejoin:miter;stroke-opacity:1" d="M 396.44,753.203 406.35,755.185 z" id="boundary" inkscape:connector-curvature="0" />
	<path style="fill:none;stroke:red;stroke-width:1px;stroke-linecap:butt;stroke-linejoin:miter;stroke-opacity:1" d="M 398.422,158.597 417.251,163.552 z" id="boundary" inkscape:connector-curvature="0" />
	<path style="fill:none;stroke:red;stroke-width:1px;stroke-linecap:butt;stroke-linejoin:miter;stroke-opacity:1" d="M 403.377,335.988 413.287,335.988 z" id="boundary" inkscape:connector-curvature="0" />
	<path style="fill:none;stroke:red;stroke-width:1px;stroke-linecap:butt;stroke-linejoin:miter;stroke-opacity:1" d="M 404.368,108.056 414.278,108.056 z" id="boundary" inkscape:connector-curvature="0" />
	<path style="fill:none;stroke:red;stroke-width:1px;stroke-linecap:butt;stroke-linejoin:miter;stroke-opacity:1" d="M 406.35,755.185 416.26,758.158 z" id="boundary" inkscape:connector-curvature="0" />
	<path style="fill:none;stroke:red;stroke-width:1px;stroke-linecap:butt;stroke-linejoin:miter;stroke-opacity:1" d="M 413.287,335.988 423.197,335.988 z" id="boundary" inkscape:connector-curvature="0" />
	<path style="fill:none;stroke:red;stroke-width:1px;stroke-linecap:butt;stroke-linejoin:miter;stroke-opacity:1" d="M 414.278,108.056 424.188,108.056 z" id="boundary" inkscape:connector-curvature="0" />
	<path style="fill:none;stroke:red;stroke-width:1px;stroke-linecap:butt;stroke-linejoin:miter;stroke-opacity:1" d="M 416.26,758.158 426.17,758.158 z" id="boundary" inkscape:connector-curvature="0" />
	<path style="fill:none;stroke:red;stroke-width:1px;stroke-linecap:butt;stroke-linejoin:miter;stroke-opacity:1" d="M 417.251,163.552 427.161,163.552 z" id="boundary" inkscape:connector-curvature="0" />
	<path style="fill:none;stroke:red;stroke-width:1px;stroke-linecap:butt;stroke-linejoin:miter;stroke-opacity:1" d="M 423.197,335.988 430.134,322.114 z" id="boundary" inkscape:connector-curvature="0" />
	<path style="fill:none;stroke:red;stroke-width:1px;stroke-linecap:butt;stroke-linejoin:miter;stroke-opacity:1" d="M 424.188,108.056 434.098,108.056 z" id="boundary" inkscape:connector-curvature="0" />
	<path style="fill:none;stroke:red;stroke-width:1px;stroke-linecap:butt;stroke-linejoin:miter;stroke-opacity:1" d="M 426.17,758.158 436.08,758.158 z" id="boundary" inkscape:connector-curvature="0" />
	<path style="fill:none;stroke:red;stroke-width:1px;stroke-linecap:butt;stroke-linejoin:miter;stroke-opacity:1" d="M 427.161,163.552 430.134,173.463 z" id="boundary" inkscape:connector-curvature="0" />
	<path style="fill:none;stroke:red;stroke-width:1px;stroke-linecap:butt;stroke-linejoin:miter;stroke-opacity:1" d="M 430.134,173.463 430.134,183.373 z" id="boundary" inkscape:connector-curvature="0" />
	<path style="fill:none;stroke:red;stroke-width:1px;stroke-linecap:butt;stroke-linejoin:miter;stroke-opacity:1" d="M 430.134,183.373 430.134,193.283 z" id="boundary" inkscape:connector-curvature="0" />
	<path style="fill:none;stroke:red;stroke-width:1px;stroke-linecap:butt;stroke-linejoin:miter;stroke-opacity:1" d="M 430.134,193.283 430.134,203.193 z" id="boundary" inkscape:connector-curvature="0" />
	<path style="fill:none;stroke:red;stroke-width:1px;stroke-linecap:butt;stroke-linejoin:miter;stroke-opacity:1" d="M 430.134,203.193 430.134,213.103 z" id="boundary" inkscape:connector-curvature="0" />
	<path style="fill:none;stroke:red;stroke-width:1px;stroke-linecap:butt;stroke-linejoin:miter;stroke-opacity:1" d="M 430.134,213.103 430.134,223.013 z" id="boundary" inkscape:connector-curvature="0" />
	<path style="fill:none;stroke:red;stroke-width:1px;stroke-linecap:butt;stroke-linejoin:miter;stroke-opacity:1" d="M 430.134,223.013 430.134,232.923 z" id="boundary" inkscape:connector-curvature="0" />
	<path style="fill:none;stroke:red;stroke-width:1px;stroke-linecap:butt;stroke-linejoin:miter;stroke-opacity:1" d="M 430.134,232.923 430.134,242.833 z" id="boundary" inkscape:connector-curvature="0" />
	<path style="fill:none;stroke:red;stroke-width:1px;stroke-linecap:butt;stroke-linejoin:miter;stroke-opacity:1" d="M 430.134,242.833 430.134,252.743 z" id="boundary" inkscape:connector-curvature="0" />
	<path style="fill:none;stroke:red;stroke-width:1px;stroke-linecap:butt;stroke-linejoin:miter;stroke-opacity:1" d="M 430.134,252.743 430.134,262.653 z" id="boundary" inkscape:connector-curvature="0" />
	<path style="fill:none;stroke:red;stroke-width:1px;stroke-linecap:butt;stroke-linejoin:miter;stroke-opacity:1" d="M 430.134,262.653 430.134,272.563 z" id="boundary" inkscape:connector-curvature="0" />
	<path style="fill:none;stroke:red;stroke-width:1px;stroke-linecap:butt;stroke-linejoin:miter;stroke-opacity:1" d="M 430.134,272.563 430.134,282.474 z" id="boundary" inkscape:connector-curvature="0" />
	<path style="fill:none;stroke:red;stroke-width:1px;stroke-linecap:butt;stroke-linejoin:miter;stroke-opacity:1" d="M 430.134,282.474 430.134,292.384 z" id="boundary" inkscape:connector-curvature="0" />
	<path style="fill:none;stroke:red;stroke-width:1px;stroke-linecap:butt;stroke-linejoin:miter;stroke-opacity:1" d="M 430.134,292.384 430.134,302.294 z" id="boundary" inkscape:connector-curvature="0" />
	<path style="fill:none;stroke:red;stroke-width:1px;stroke-linecap:butt;stroke-linejoin:miter;stroke-opacity:1" d="M 430.134,302.294 430.134,312.204 z" id="boundary" inkscape:connector-curvature="0" />
	<path style="fill:none;stroke:red;stroke-width:1px;stroke-linecap:butt;stroke-linejoin:miter;stroke-opacity:1" d="M 430.134,312.204 430.134,322.114 z" id="boundary" inkscape:connector-curvature="0" />
	<path style="fill:none;stroke:red;stroke-width:1px;stroke-linecap:butt;stroke-linejoin:miter;stroke-opacity:1" d="M 434.098,108.056 444.008,108.056 z" id="boundary" inkscape:connector-curvature="0" />
	<path style="fill:none;stroke:red;stroke-width:1px;stroke-linecap:butt;stroke-linejoin:miter;stroke-opacity:1" d="M 436.08,758.158 445.99,760.14 z" id="boundary" inkscape:connector-curvature="0" />
	<path style="fill:none;stroke:red;stroke-width:1px;stroke-linecap:butt;stroke-linejoin:miter;stroke-opacity:1" d="M 444.008,108.056 453.918,108.056 z" id="boundary" inkscape:connector-curvature="0" />
	<path style="fill:none;stroke:red;stroke-width:1px;stroke-linecap:butt;stroke-linejoin:miter;stroke-opacity:1" d="M 445.99,760.14 455.9,763.113 z" id="boundary" inkscape:connector-curvature="0" />
	<path style="fill:none;stroke:red;stroke-width:1px;stroke-linecap:butt;stroke-linejoin:miter;stroke-opacity:1" d="M 453.918,108.056 454.909,96.1638 z" id="boundary" inkscape:connector-curvature="0" />
	<path style="fill:none;stroke:red;stroke-width:1px;stroke-linecap:butt;stroke-linejoin:miter;stroke-opacity:1" d="M 454.909,16.8831 454.909,26.7932 z" id="boundary" inkscape:connector-curvature="0" />
	<path style="fill:none;stroke:red;stroke-width:1px;stroke-linecap:butt;stroke-linejoin:miter;stroke-opacity:1" d="M 454.909,16.8831 462.837,8.95504 z" id="boundary" inkscape:connector-curvature="0" />
	<path style="fill:none;stroke:red;stroke-width:1px;stroke-linecap:butt;stroke-linejoin:miter;stroke-opacity:1" d="M 454.909,26.7932 454.909,36.7033 z" id="boundary" inkscape:connector-curvature="0" />
	<path style="fill:none;stroke:red;stroke-width:1px;stroke-linecap:butt;stroke-linejoin:miter;stroke-opacity:1" d="M 454.909,36.7033 454.909,46.6134 z" id="boundary" inkscape:connector-curvature="0" />
	<path style="fill:none;stroke:red;stroke-width:1px;stroke-linecap:butt;stroke-linejoin:miter;stroke-opacity:1" d="M 454.909,46.6134 454.909,56.5235 z" id="boundary" inkscape:connector-curvature="0" />
	<path style="fill:none;stroke:red;stroke-width:1px;stroke-linecap:butt;stroke-linejoin:miter;stroke-opacity:1" d="M 454.909,56.5235 454.909,66.4336 z" id="boundary" inkscape:connector-curvature="0" />
	<path style="fill:none;stroke:red;stroke-width:1px;stroke-linecap:butt;stroke-linejoin:miter;stroke-opacity:1" d="M 454.909,66.4336 454.909,76.3437 z" id="boundary" inkscape:connector-curvature="0" />
	<path style="fill:none;stroke:red;stroke-width:1px;stroke-linecap:butt;stroke-linejoin:miter;stroke-opacity:1" d="M 454.909,76.3437 454.909,86.2537 z" id="boundary" inkscape:connector-curvature="0" />
	<path style="fill:none;stroke:red;stroke-width:1px;stroke-linecap:butt;stroke-linejoin:miter;stroke-opacity:1" d="M 454.909,86.2537 454.909,96.1638 z" id="boundary" inkscape:connector-curvature="0" />
	<path style="fill:none;stroke:red;stroke-width:1px;stroke-linecap:butt;stroke-linejoin:miter;stroke-opacity:1" d="M 455.9,763.113 465.81,763.113 z" id="boundary" inkscape:connector-curvature="0" />
	<path style="fill:none;stroke:red;stroke-width:1px;stroke-linecap:butt;stroke-linejoin:miter;stroke-opacity:1" d="M 462.837,8.95504 481.666,4 z" id="boundary" inkscape:connector-curvature="0" />
	<path style="fill:none;stroke:red;stroke-width:1px;stroke-linecap:butt;stroke-linejoin:miter;stroke-opacity:1" d="M 465.81,763.113 475.72,765.095 z" id="boundary" inkscape:connector-curvature="0" />
	<path style="fill:none;stroke:red;stroke-width:1px;stroke-linecap:butt;stroke-linejoin:miter;stroke-opacity:1" d="M 475.72,765.095 485.63,768.068 z" id="boundary" inkscape:connector-curvature="0" />
	<path style="fill:none;stroke:red;stroke-width:1px;stroke-linecap:butt;stroke-linejoin:miter;stroke-opacity:1" d="M 481.666,4 491.576,4 z" id="boundary" inkscape:connector-curvature="0" />
	<path style="fill:none;stroke:red;stroke-width:1px;stroke-linecap:butt;stroke-linejoin:miter;stroke-opacity:1" d="M 485.63,768.068 495.54,768.068 z" id="boundary" inkscape:connector-curvature="0" />
	<path style="fill:none;stroke:red;stroke-width:1px;stroke-linecap:butt;stroke-linejoin:miter;stroke-opacity:1" d="M 491.576,4 501.487,4 z" id="boundary" inkscape:connector-curvature="0" />
	<path style="fill:none;stroke:red;stroke-width:1px;stroke-linecap:butt;stroke-linejoin:miter;stroke-opacity:1" d="M 495.54,768.068 504.46,773.023 z" id="boundary" inkscape:connector-curvature="0" />
	<path style="fill:none;stroke:red;stroke-width:1px;stroke-linecap:butt;stroke-linejoin:miter;stroke-opacity:1" d="M 501.487,4 511.397,4 z" id="boundary" inkscape:connector-curvature="0" />
	<path style="fill:none;stroke:red;stroke-width:1px;stroke-linecap:butt;stroke-linejoin:miter;stroke-opacity:1" d="M 504.46,773.023 514.37,773.023 z" id="boundary" inkscape:connector-curvature="0" />
	<path style="fill:none;stroke:red;stroke-width:1px;stroke-linecap:butt;stroke-linejoin:miter;stroke-opacity:1" d="M 514.37,773.023 524.28,773.023 z" id="boundary" inkscape:connector-curvature="0" />
	<path style="fill:none;stroke:red;stroke-width:1px;stroke-linecap:butt;stroke-linejoin:miter;stroke-opacity:1" d="M 524.28,773.023 534.19,773.023 z" id="boundary" inkscape:connector-curvature="0" />
	<path style="fill:none;stroke:red;stroke-width:1px;stroke-linecap:butt;stroke-linejoin:miter;stroke-opacity:1" d="M 534.19,36.7033 535.181,46.6134 z" id="boundary" inkscape:connector-curvature="0" />
	<path style="fill:none;stroke:red;stroke-width:1px;stroke-linecap:butt;stroke-linejoin:miter;stroke-opacity:1" d="M 534.19,773.023 544.1,773.023 z" id="boundary" inkscape:connector-curvature="0" />
	<path style="fill:none;stroke:red;stroke-width:1px;stroke-linecap:butt;stroke-linejoin:miter;stroke-opacity:1" d="M 535.181,46.6134 539.145,56.5235 z" id="boundary" inkscape:connector-curvature="0" />
	<path style="fill:none;stroke:red;stroke-width:1px;stroke-linecap:butt;stroke-linejoin:miter;stroke-opacity:1" d="M 539.145,56.5235 540.136,66.4336 z" id="boundary" inkscape:connector-curvature="0" />
	<path style="fill:none;stroke:red;stroke-width:1px;stroke-linecap:butt;stroke-linejoin:miter;stroke-opacity:1" d="M 540.136,66.4336 540.136,76.3437 z" id="boundary" inkscape:connector-curvature="0" />
	<path style="fill:none;stroke:red;stroke-width:1px;stroke-linecap:butt;stroke-linejoin:miter;stroke-opacity:1" d="M 540.136,76.3437 540.136,86.2537 z" id="boundary" inkscape:connector-curvature="0" />
	<path style="fill:none;stroke:red;stroke-width:1px;stroke-linecap:butt;stroke-linejoin:miter;stroke-opacity:1" d="M 540.136,86.2537 540.136,96.1638 z" id="boundary" inkscape:connector-curvature="0" />
	<path style="fill:none;stroke:red;stroke-width:1px;stroke-linecap:butt;stroke-linejoin:miter;stroke-opacity:1" d="M 540.136,96.1638 540.136,106.074 z" id="boundary" inkscape:connector-curvature="0" />
	<path style="fill:none;stroke:red;stroke-width:1px;stroke-linecap:butt;stroke-linejoin:miter;stroke-opacity:1" d="M 540.136,106.074 540.136,115.984 z" id="boundary" inkscape:connector-curvature="0" />
	<path style="fill:none;stroke:red;stroke-width:1px;stroke-linecap:butt;stroke-linejoin:miter;stroke-opacity:1" d="M 544.1,773.023 554.01,773.023 z" id="boundary" inkscape:connector-curvature="0" />
	<path style="fill:none;stroke:red;stroke-width:1px;stroke-linecap:butt;stroke-linejoin:miter;stroke-opacity:1" d="M 545.091,193.283 545.091,203.193 z" id="boundary" inkscape:connector-curvature="0" />
	<path style="fill:none;stroke:red;stroke-width:1px;stroke-linecap:butt;stroke-linejoin:miter;stroke-opacity:1" d="M 545.091,193.283 555.001,193.283 z" id="boundary" inkscape:connector-curvature="0" />
	<path style="fill:none;stroke:red;stroke-width:1px;stroke-linecap:butt;stroke-linejoin:miter;stroke-opacity:1" d="M 545.091,203.193 545.091,213.103 z" id="boundary" inkscape:connector-curvature="0" />
	<path style="fill:none;stroke:red;stroke-width:1px;stroke-linecap:butt;stroke-linejoin:miter;stroke-opacity:1" d="M 545.091,213.103 545.091,223.013 z" id="boundary" inkscape:connector-curvature="0" />
	<path style="fill:none;stroke:red;stroke-width:1px;stroke-linecap:butt;stroke-linejoin:miter;stroke-opacity:1" d="M 545.091,223.013 545.091,232.923 z" id="boundary" inkscape:connector-curvature="0" />
	<path style="fill:none;stroke:red;stroke-width:1px;stroke-linecap:butt;stroke-linejoin:miter;stroke-opacity:1" d="M 545.091,232.923 545.091,242.833 z" id="boundary" inkscape:connector-curvature="0" />
	<path style="fill:none;stroke:red;stroke-width:1px;stroke-linecap:butt;stroke-linejoin:miter;stroke-opacity:1" d="M 545.091,242.833 547.073,252.743 z" id="boundary" inkscape:connector-curvature="0" />
	<path style="fill:none;stroke:red;stroke-width:1px;stroke-linecap:butt;stroke-linejoin:miter;stroke-opacity:1" d="M 547.073,252.743 550.046,262.653 z" id="boundary" inkscape:connector-curvature="0" />
	<path style="fill:none;stroke:red;stroke-width:1px;stroke-linecap:butt;stroke-linejoin:miter;stroke-opacity:1" d="M 550.046,262.653 550.046,272.563 z" id="boundary" inkscape:connector-curvature="0" />
	<path style="fill:none;stroke:red;stroke-width:1px;stroke-linecap:butt;stroke-linejoin:miter;stroke-opacity:1" d="M 550.046,272.563 550.046,282.474 z" id="boundary" inkscape:connector-curvature="0" />
	<path style="fill:none;stroke:red;stroke-width:1px;stroke-linecap:butt;stroke-linejoin:miter;stroke-opacity:1" d="M 550.046,282.474 550.046,292.384 z" id="boundary" inkscape:connector-curvature="0" />
	<path style="fill:none;stroke:red;stroke-width:1px;stroke-linecap:butt;stroke-linejoin:miter;stroke-opacity:1" d="M 550.046,292.384 550.046,302.294 z" id="boundary" inkscape:connector-curvature="0" />
	<path style="fill:none;stroke:red;stroke-width:1px;stroke-linecap:butt;stroke-linejoin:miter;stroke-opacity:1" d="M 550.046,302.294 550.046,312.204 z" id="boundary" inkscape:connector-curvature="0" />
	<path style="fill:none;stroke:red;stroke-width:1px;stroke-linecap:butt;stroke-linejoin:miter;stroke-opacity:1" d="M 550.046,312.204 555.001,321.123 z" id="boundary" inkscape:connector-curvature="0" />
	<path style="fill:none;stroke:red;stroke-width:1px;stroke-linecap:butt;stroke-linejoin:miter;stroke-opacity:1" d="M 554.01,773.023 563.92,773.023 z" id="boundary" inkscape:connector-curvature="0" />
	<path style="fill:none;stroke:red;stroke-width:1px;stroke-linecap:butt;stroke-linejoin:miter;stroke-opacity:1" d="M 555.001,193.283 564.911,193.283 z" id="boundary" inkscape:connector-curvature="0" />
	<path style="fill:none;stroke:red;stroke-width:1px;stroke-linecap:butt;stroke-linejoin:miter;stroke-opacity:1" d="M 555.001,321.123 573.83,328.06 z" id="boundary" inkscape:connector-curvature="0" />
	<path style="fill:none;stroke:red;stroke-width:1px;stroke-linecap:butt;stroke-linejoin:miter;stroke-opacity:1" d="M 557.974,122.921 567.884,122.921 z" id="boundary" inkscape:connector-curvature="0" />
	<path style="fill:none;stroke:red;stroke-width:1px;stroke-linecap:butt;stroke-linejoin:miter;stroke-opacity:1" d="M 563.92,773.023 573.83,773.023 z" id="boundary" inkscape:connector-curvature="0" />
	<path style="fill:none;stroke:red;stroke-width:1px;stroke-linecap:butt;stroke-linejoin:miter;stroke-opacity:1" d="M 564.911,193.283 574.821,193.283 z" id="boundary" inkscape:connector-curvature="0" />
	<path style="fill:none;stroke:red;stroke-width:1px;stroke-linecap:butt;stroke-linejoin:miter;stroke-opacity:1" d="M 567.884,122.921 577.794,122.921 z" id="boundary" inkscape:connector-curvature="0" />
	<path style="fill:none;stroke:red;stroke-width:1px;stroke-linecap:butt;stroke-linejoin:miter;stroke-opacity:1" d="M 573.83,328.06 583.74,331.033 z" id="boundary" inkscape:connector-curvature="0" />
	<path style="fill:none;stroke:red;stroke-width:1px;stroke-linecap:butt;stroke-linejoin:miter;stroke-opacity:1" d="M 573.83,773.023 582.749,777.978 z" id="boundary" inkscape:connector-curvature="0" />
	<path style="fill:none;stroke:red;stroke-width:1px;stroke-linecap:butt;stroke-linejoin:miter;stroke-opacity:1" d="M 574.821,193.283 584.731,193.283 z" id="boundary" inkscape:connector-curvature="0" />
	<path style="fill:none;stroke:red;stroke-width:1px;stroke-linecap:butt;stroke-linejoin:miter;stroke-opacity:1" d="M 577.794,122.921 587.704,122.921 z" id="boundary" inkscape:connector-curvature="0" />
	<path style="fill:none;stroke:red;stroke-width:1px;stroke-linecap:butt;stroke-linejoin:miter;stroke-opacity:1" d="M 582.749,777.978 592.659,777.978 z" id="boundary" inkscape:connector-curvature="0" />
	<path style="fill:none;stroke:red;stroke-width:1px;stroke-linecap:butt;stroke-linejoin:miter;stroke-opacity:1" d="M 583.74,331.033 593.65,331.033 z" id="boundary" inkscape:connector-curvature="0" />
	<path style="fill:none;stroke:red;stroke-width:1px;stroke-linecap:butt;stroke-linejoin:miter;stroke-opacity:1" d="M 584.731,193.283 594.641,193.283 z" id="boundary" inkscape:connector-curvature="0" />
	<path style="fill:none;stroke:red;stroke-width:1px;stroke-linecap:butt;stroke-linejoin:miter;stroke-opacity:1" d="M 587.704,122.921 597.614,122.921 z" id="boundary" inkscape:connector-curvature="0" />
	<path style="fill:none;stroke:red;stroke-width:1px;stroke-linecap:butt;stroke-linejoin:miter;stroke-opacity:1" d="M 592.659,777.978 602.569,777.978 z" id="boundary" inkscape:connector-curvature="0" />
	<path style="fill:none;stroke:red;stroke-width:1px;stroke-linecap:butt;stroke-linejoin:miter;stroke-opacity:1" d="M 593.65,331.033 612.48,335.988 z" id="boundary" inkscape:connector-curvature="0" />
	<path style="fill:none;stroke:red;stroke-width:1px;stroke-linecap:butt;stroke-linejoin:miter;stroke-opacity:1" d="M 594.641,193.283 603.56,188.328 z" id="boundary" inkscape:connector-curvature="0" />
	<path style="fill:none;stroke:red;stroke-width:1px;stroke-linecap:butt;stroke-linejoin:miter;stroke-opacity:1" d="M 597.614,122.921 607.524,122.921 z" id="boundary" inkscape:connector-curvature="0" />
	<path style="fill:none;stroke:red;stroke-width:1px;stroke-linecap:butt;stroke-linejoin:miter;stroke-opacity:1" d="M 602.569,777.978 612.48,777.978 z" id="boundary" inkscape:connector-curvature="0" />
	<path style="fill:none;stroke:red;stroke-width:1px;stroke-linecap:butt;stroke-linejoin:miter;stroke-opacity:1" d="M 603.56,188.328 613.471,188.328 z" id="boundary" inkscape:connector-curvature="0" />
	<path style="fill:none;stroke:red;stroke-width:1px;stroke-linecap:butt;stroke-linejoin:miter;stroke-opacity:1" d="M 607.524,122.921 617.435,122.921 z" id="boundary" inkscape:connector-curvature="0" />
	<path style="fill:none;stroke:red;stroke-width:1px;stroke-linecap:butt;stroke-linejoin:miter;stroke-opacity:1" d="M 612.48,335.988 622.39,335.988 z" id="boundary" inkscape:connector-curvature="0" />
	<path style="fill:none;stroke:red;stroke-width:1px;stroke-linecap:butt;stroke-linejoin:miter;stroke-opacity:1" d="M 612.48,777.978 622.39,777.978 z" id="boundary" inkscape:connector-curvature="0" />
	<path style="fill:none;stroke:red;stroke-width:1px;stroke-linecap:butt;stroke-linejoin:miter;stroke-opacity:1" d="M 613.471,188.328 622.39,183.373 z" id="boundary" inkscape:connector-curvature="0" />
	<path style="fill:none;stroke:red;stroke-width:1px;stroke-linecap:butt;stroke-linejoin:miter;stroke-opacity:1" d="M 617.435,122.921 627.345,122.921 z" id="boundary" inkscape:connector-curvature="0" />
	<path style="fill:none;stroke:red;stroke-width:1px;stroke-linecap:butt;stroke-linejoin:miter;stroke-opacity:1" d="M 622.39,335.988 632.3,336.979 z" id="boundary" inkscape:connector-curvature="0" />
	<path style="fill:none;stroke:red;stroke-width:1px;stroke-linecap:butt;stroke-linejoin:miter;stroke-opacity:1" d="M 622.39,777.978 632.3,777.978 z" id="boundary" inkscape:connector-curvature="0" />
	<path style="fill:none;stroke:red;stroke-width:1px;stroke-linecap:butt;stroke-linejoin:miter;stroke-opacity:1" d="M 627.345,122.921 637.255,122.921 z" id="boundary" inkscape:connector-curvature="0" />
	<path style="fill:none;stroke:red;stroke-width:1px;stroke-linecap:butt;stroke-linejoin:miter;stroke-opacity:1" d="M 632.3,336.979 642.21,340.943 z" id="boundary" inkscape:connector-curvature="0" />
	<path style="fill:none;stroke:red;stroke-width:1px;stroke-linecap:butt;stroke-linejoin:miter;stroke-opacity:1" d="M 632.3,777.978 642.21,777.978 z" id="boundary" inkscape:connector-curvature="0" />
	<path style="fill:none;stroke:red;stroke-width:1px;stroke-linecap:butt;stroke-linejoin:miter;stroke-opacity:1" d="M 637.255,122.921 647.165,122.921 z" id="boundary" inkscape:connector-curvature="0" />
	<path style="fill:none;stroke:red;stroke-width:1px;stroke-linecap:butt;stroke-linejoin:miter;stroke-opacity:1" d="M 639.237,168.507 648.156,163.552 z" id="boundary" inkscape:connector-curvature="0" />
	<path style="fill:none;stroke:red;stroke-width:1px;stroke-linecap:butt;stroke-linejoin:miter;stroke-opacity:1" d="M 642.21,340.943 652.12,340.943 z" id="boundary" inkscape:connector-curvature="0" />
	<path style="fill:none;stroke:red;stroke-width:1px;stroke-linecap:butt;stroke-linejoin:miter;stroke-opacity:1" d="M 642.21,777.978 652.12,777.978 z" id="boundary" inkscape:connector-curvature="0" />
	<path style="fill:none;stroke:red;stroke-width:1px;stroke-linecap:butt;stroke-linejoin:miter;stroke-opacity:1" d="M 647.165,122.921 657.075,123.912 z" id="boundary" inkscape:connector-curvature="0" />
	<path style="fill:none;stroke:red;stroke-width:1px;stroke-linecap:butt;stroke-linejoin:miter;stroke-opacity:1" d="M 648.156,163.552 664.012,143.732 z" id="boundary" inkscape:connector-curvature="0" />
	<path style="fill:none;stroke:red;stroke-width:1px;stroke-linecap:butt;stroke-linejoin:miter;stroke-opacity:1" d="M 652.12,340.943 662.03,341.934 z" id="boundary" inkscape:connector-curvature="0" />
	<path style="fill:none;stroke:red;stroke-width:1px;stroke-linecap:butt;stroke-linejoin:miter;stroke-opacity:1" d="M 652.12,777.978 662.03,777.978 z" id="boundary" inkscape:connector-curvature="0" />
	<path style="fill:none;stroke:red;stroke-width:1px;stroke-linecap:butt;stroke-linejoin:miter;stroke-opacity:1" d="M 657.075,123.912 664.012,143.732 z" id="boundary" inkscape:connector-curvature="0" />
	<path style="fill:none;stroke:red;stroke-width:1px;stroke-linecap:butt;stroke-linejoin:miter;stroke-opacity:1" d="M 662.03,341.934 671.94,345.898 z" id="boundary" inkscape:connector-curvature="0" />
	<path style="fill:none;stroke:red;stroke-width:1px;stroke-linecap:butt;stroke-linejoin:miter;stroke-opacity:1" d="M 662.03,777.978 671.94,777.978 z" id="boundary" inkscape:connector-curvature="0" />
	<path style="fill:none;stroke:red;stroke-width:1px;stroke-linecap:butt;stroke-linejoin:miter;stroke-opacity:1" d="M 671.94,345.898 681.85,345.898 z" id="boundary" inkscape:connector-curvature="0" />
	<path style="fill:none;stroke:red;stroke-width:1px;stroke-linecap:butt;stroke-linejoin:miter;stroke-opacity:1" d="M 671.94,777.978 690.769,773.023 z" id="boundary" inkscape:connector-curvature="0" />
	<path style="fill:none;stroke:red;stroke-width:1px;stroke-linecap:butt;stroke-linejoin:miter;stroke-opacity:1" d="M 681.85,345.898 691.76,345.898 z" id="boundary" inkscape:connector-curvature="0" />
	<path style="fill:none;stroke:red;stroke-width:1px;stroke-linecap:butt;stroke-linejoin:miter;stroke-opacity:1" d="M 690.769,773.023 700.679,772.032 z" id="boundary" inkscape:connector-curvature="0" />
	<path style="fill:none;stroke:red;stroke-width:1px;stroke-linecap:butt;stroke-linejoin:miter;stroke-opacity:1" d="M 691.76,345.898 700.679,350.853 z" id="boundary" inkscape:connector-curvature="0" />
	<path style="fill:none;stroke:red;stroke-width:1px;stroke-linecap:butt;stroke-linejoin:miter;stroke-opacity:1" d="M 700.679,350.853 710.589,350.853 z" id="boundary" inkscape:connector-curvature="0" />
	<path style="fill:none;stroke:red;stroke-width:1px;stroke-linecap:butt;stroke-linejoin:miter;stroke-opacity:1" d="M 700.679,772.032 710.589,768.068 z" id="boundary" inkscape:connector-curvature="0" />
	<path style="fill:none;stroke:red;stroke-width:1px;stroke-linecap:butt;stroke-linejoin:miter;stroke-opacity:1" d="M 710.589,350.853 720.5,350.853 z" id="boundary" inkscape:connector-curvature="0" />
	<path style="fill:none;stroke:red;stroke-width:1px;stroke-linecap:butt;stroke-linejoin:miter;stroke-opacity:1" d="M 710.589,768.068 720.5,767.077 z" id="boundary" inkscape:connector-curvature="0" />
	<path style="fill:none;stroke:red;stroke-width:1px;stroke-linecap:butt;stroke-linejoin:miter;stroke-opacity:1" d="M 720.5,350.853 730.41,350.853 z" id="boundary" inkscape:connector-curvature="0" />
	<path style="fill:none;stroke:red;stroke-width:1px;stroke-linecap:butt;stroke-linejoin:miter;stroke-opacity:1" d="M 720.5,767.077 730.41,762.122 z" id="boundary" inkscape:connector-curvature="0" />
	<path style="fill:none;stroke:red;stroke-width:1px;stroke-linecap:butt;stroke-linejoin:miter;stroke-opacity:1" d="M 730.41,350.853 739.329,355.808 z" id="boundary" inkscape:connector-curvature="0" />
	<path style="fill:none;stroke:red;stroke-width:1px;stroke-linecap:butt;stroke-linejoin:miter;stroke-opacity:1" d="M 730.41,762.122 740.32,758.158 z" id="boundary" inkscape:connector-curvature="0" />
	<path style="fill:none;stroke:red;stroke-width:1px;stroke-linecap:butt;stroke-linejoin:miter;stroke-opacity:1" d="M 739.329,355.808 758.158,363.736 z" id="boundary" inkscape:connector-curvature="0" />
	<path style="fill:none;stroke:red;stroke-width:1px;stroke-linecap:butt;stroke-linejoin:miter;stroke-opacity:1" d="M 740.32,758.158 750.23,757.167 z" id="boundary" inkscape:connector-curvature="0" />
	<path style="fill:none;stroke:red;stroke-width:1px;stroke-linecap:butt;stroke-linejoin:miter;stroke-opacity:1" d="M 750.23,757.167 760.14,753.203 z" id="boundary" inkscape:connector-curvature="0" />
	<path style="fill:none;stroke:red;stroke-width:1px;stroke-linecap:butt;stroke-linejoin:miter;stroke-opacity:1" d="M 758.158,363.736 768.068,365.718 z" id="boundary" inkscape:connector-curvature="0" />
	<path style="fill:none;stroke:red;stroke-width:1px;stroke-linecap:butt;stroke-linejoin:miter;stroke-opacity:1" d="M 768.068,365.718 777.978,365.718 z" id="boundary" inkscape:connector-curvature="0" />
	<path style="fill:none;stroke:red;stroke-width:1px;stroke-linecap:butt;stroke-linejoin:miter;stroke-opacity:1" d="M 777.978,365.718 796.807,370.673 z" id="boundary" inkscape:connector-curvature="0" />
	<path style="fill:none;stroke:red;stroke-width:1px;stroke-linecap:butt;stroke-linejoin:miter;stroke-opacity:1" d="M 796.807,370.673 806.717,370.673 z" id="boundary" inkscape:connector-curvature="0" />
	<path style="fill:none;stroke:red;stroke-width:1px;stroke-linecap:butt;stroke-linejoin:miter;stroke-opacity:1" d="M 806.717,370.673 816.627,372.655 z" id="boundary" inkscape:connector-curvature="0" />
	<path style="fill:none;stroke:red;stroke-width:1px;stroke-linecap:butt;stroke-linejoin:miter;stroke-opacity:1" d="M 814.645,728.428 823.564,723.473 z" id="boundary" inkscape:connector-curvature="0" />
	<path style="fill:none;stroke:red;stroke-width:1px;stroke-linecap:butt;stroke-linejoin:miter;stroke-opacity:1" d="M 823.564,723.473 831.493,715.544 z" id="boundary" inkscape:connector-curvature="0" />
	<path style="fill:none;stroke:red;stroke-width:1px;stroke-linecap:butt;stroke-linejoin:miter;stroke-opacity:1" d="M 831.493,715.544 839.421,708.607 z" id="boundary" inkscape:connector-curvature="0" />
	<path style="fill:none;stroke:red;stroke-width:1px;stroke-linecap:butt;stroke-linejoin:miter;stroke-opacity:1" d="M 832.484,408.332 832.484,418.242 z" id="boundary" inkscape:connector-curvature="0" />
	<path style="fill:none;stroke:red;stroke-width:1px;stroke-linecap:butt;stroke-linejoin:miter;stroke-opacity:1" d="M 832.484,418.242 832.484,428.152 z" id="boundary" inkscape:connector-curvature="0" />
	<path style="fill:none;stroke:red;stroke-width:1px;stroke-linecap:butt;stroke-linejoin:miter;stroke-opacity:1" d="M 832.484,428.152 832.484,438.062 z" id="boundary" inkscape:connector-curvature="0" />
	<path style="fill:none;stroke:red;stroke-width:1px;stroke-linecap:butt;stroke-linejoin:miter;stroke-opacity:1" d="M 832.484,438.062 832.484,447.972 z" id="boundary" inkscape:connector-curvature="0" />
	<path style="fill:none;stroke:red;stroke-width:1px;stroke-linecap:butt;stroke-linejoin:miter;stroke-opacity:1" d="M 832.484,447.972 832.484,457.882 z" id="boundary" inkscape:connector-curvature="0" />
	<path style="fill:none;stroke:red;stroke-width:1px;stroke-linecap:butt;stroke-linejoin:miter;stroke-opacity:1" d="M 832.484,457.882 836.448,467.792 z" id="boundary" inkscape:connector-curvature="0" />
	<path style="fill:none;stroke:red;stroke-width:1px;stroke-linecap:butt;stroke-linejoin:miter;stroke-opacity:1" d="M 839.421,708.607 848.34,703.652 z" id="boundary" inkscape:connector-curvature="0" />
	<path style="fill:none;stroke:red;stroke-width:1px;stroke-linecap:butt;stroke-linejoin:miter;stroke-opacity:1" d="M 848.34,703.652 856.268,695.724 z" id="boundary" inkscape:connector-curvature="0" />
	<path style="fill:none;stroke:red;stroke-width:1px;stroke-linecap:butt;stroke-linejoin:miter;stroke-opacity:1" d="M 856.268,695.724 864.196,687.796 z" id="boundary" inkscape:connector-curvature="0" />
	<path style="fill:none;stroke:red;stroke-width:1px;stroke-linecap:butt;stroke-linejoin:miter;stroke-opacity:1" d="M 864.196,687.796 872.124,678.877 z" id="boundary" inkscape:connector-curvature="0" />
	<path style="fill:none;stroke:red;stroke-width:1px;stroke-linecap:butt;stroke-linejoin:miter;stroke-opacity:1" d="M 872.124,678.877 880.052,671.94 z" id="boundary" inkscape:connector-curvature="0" />
	<path style="fill:none;stroke:red;stroke-width:1px;stroke-linecap:butt;stroke-linejoin:miter;stroke-opacity:1" d="M 880.052,671.94 896.899,664.012 z" id="boundary" inkscape:connector-curvature="0" />
	<path style="fill:none;stroke:red;stroke-width:1px;stroke-linecap:butt;stroke-linejoin:miter;stroke-opacity:1" d="M 896.899,664.012 905.818,659.057 z" id="boundary" inkscape:connector-curvature="0" />
	<path style="fill:none;stroke:red;stroke-width:1px;stroke-linecap:butt;stroke-linejoin:miter;stroke-opacity:1" d="M 899.872,495.54 908.791,500.496 z" id="boundary" inkscape:connector-curvature="0" />
	<path style="fill:none;stroke:red;stroke-width:1px;stroke-linecap:butt;stroke-linejoin:miter;stroke-opacity:1" d="M 905.818,659.057 915.728,656.084 z" id="boundary" inkscape:connector-curvature="0" />
	<path style="fill:none;stroke:red;stroke-width:1px;stroke-linecap:butt;stroke-linejoin:miter;stroke-opacity:1" d="M 908.791,500.496 926.629,509.415 z" id="boundary" inkscape:connector-curvature="0" />
	<path style="fill:none;stroke:red;stroke-width:1px;stroke-linecap:butt;stroke-linejoin:miter;stroke-opacity:1" d="M 915.728,656.084 925.638,651.129 z" id="boundary" inkscape:connector-curvature="0" />
	<path style="fill:none;stroke:red;stroke-width:1px;stroke-linecap:butt;stroke-linejoin:miter;stroke-opacity:1" d="M 925.638,651.129 935.548,646.174 z" id="boundary" inkscape:connector-curvature="0" />
	<path style="fill:none;stroke:red;stroke-width:1px;stroke-linecap:butt;stroke-linejoin:miter;stroke-opacity:1" d="M 926.629,509.415 936.539,512.388 z" id="boundary" inkscape:connector-curvature="0" />
	<path style="fill:none;stroke:red;stroke-width:1px;stroke-linecap:butt;stroke-linejoin:miter;stroke-opacity:1" d="M 935.548,646.174 945.459,641.219 z" id="boundary" inkscape:connector-curvature="0" />
	<path style="fill:none;stroke:red;stroke-width:1px;stroke-linecap:butt;stroke-linejoin:miter;stroke-opacity:1" d="M 936.539,512.388 946.45,514.37 z" id="boundary" inkscape:connector-curvature="0" />
	<path style="fill:none;stroke:red;stroke-width:1px;stroke-linecap:butt;stroke-linejoin:miter;stroke-opacity:1" d="M 945.459,641.219 953.387,633.291 z" id="boundary" inkscape:connector-curvature="0" />
	<path style="fill:none;stroke:red;stroke-width:1px;stroke-linecap:butt;stroke-linejoin:miter;stroke-opacity:1" d="M 946.45,514.37 956.36,517.343 z" id="boundary" inkscape:connector-curvature="0" />
	<path style="fill:none;stroke:red;stroke-width:1px;stroke-linecap:butt;stroke-linejoin:miter;stroke-opacity:1" d="M 953.387,633.291 961.315,624.372 z" id="boundary" inkscape:connector-curvature="0" />
	<path style="fill:none;stroke:red;stroke-width:1px;stroke-linecap:butt;stroke-linejoin:miter;stroke-opacity:1" d="M 956.36,517.343 975.189,524.28 z" id="boundary" inkscape:connector-curvature="0" />
	<path style="fill:none;stroke:red;stroke-width:1px;stroke-linecap:butt;stroke-linejoin:miter;stroke-opacity:1" d="M 961.315,624.372 974.198,607.524 z" id="boundary" inkscape:connector-curvature="0" />
	<path style="fill:none;stroke:red;stroke-width:1px;stroke-linecap:butt;stroke-linejoin:miter;stroke-opacity:1" d="M 974.198,607.524 979.153,597.614 z" id="boundary" inkscape:connector-curvature="0" />
	<path style="fill:none;stroke:red;stroke-width:1px;stroke-linecap:butt;stroke-linejoin:miter;stroke-opacity:1" d="M 979.153,597.614 984.108,587.704 z" id="boundary" inkscape:connector-curvature="0" />
	<path style="fill:none;stroke:red;stroke-width:1px;stroke-linecap:butt;stroke-linejoin:miter;stroke-opacity:1" d="M 984.108,587.704 989.063,577.794 z" id="boundary" inkscape:connector-curvature="0" />
	<path style="fill:none;stroke:red;stroke-width:1px;stroke-linecap:butt;stroke-linejoin:miter;stroke-opacity:1" d="M 985.099,526.262 996,543.109 z" id="boundary" inkscape:connector-curvature="0" />
	<path style="fill:none;stroke:red;stroke-width:1px;stroke-linecap:butt;stroke-linejoin:miter;stroke-opacity:1" d="M 989.063,577.794 994.018,567.884 z" id="boundary" inkscape:connector-curvature="0" />
	<path style="fill:none;stroke:red;stroke-width:1px;stroke-linecap:butt;stroke-linejoin:miter;stroke-opacity:1" d="M 994.018,567.884 996,553.019 z" id="boundary" inkscape:connector-curvature="0" />
	<path style="fill:none;stroke:red;stroke-width:1px;stroke-linecap:butt;stroke-linejoin:miter;stroke-opacity:1" d="M 996,543.109 996,553.019 z" id="boundary" inkscape:connector-curvature="0" />
	<circle cx="4" cy="596.623" r="4" fill="#0" id="circle0"/>
	<circle cx="4" cy="606.533" r="4" fill="#0" id="circle1"/>
	<circle cx="4" cy="616.444" r="4" fill="#0" id="circle2"/>
	<circle cx="4" cy="626.354" r="4" fill="#0" id="circle3"/>
	<circle cx="8.95504" cy="576.803" r="4" fill="#0" id="circle4"/>
	<circle cx="8.95504" cy="586.713" r="4" fill="#0" id="circle5"/>
	<circle cx="8.95504" cy="635.273" r="4" fill="#0" id="circle6"/>
	<circle cx="13.9101" cy="566.893" r="4" fill="#0" id="circle7"/>
	<circle cx="18.8651" cy="556.983" r="4" fill="#0" id="circle8"/>
	<circle cx="18.8651" cy="639.237" r="4" fill="#0" id="circle9"/>
	<circle cx="23.8202" cy="547.073" r="4" fill="#0" id="circle10"/>
	<circle cx="24.8112" cy="647.165" r="4" fill="#0" id="circle11"/>
	<circle cx="31.7483" cy="539.145" r="4" fill="#0" id="circle12"/>
	<circle cx="32.7393" cy="654.102" r="4" fill="#0" id="circle13"/>
	<circle cx="39.6763" cy="531.217" r="4" fill="#0" id="circle14"/>
	<circle cx="41.6583" cy="659.057" r="4" fill="#0" id="circle15"/>
	<circle cx="47.6044" cy="524.28" r="4" fill="#0" id="circle16"/>
	<circle cx="50.5774" cy="664.012" r="4" fill="#0" id="circle17"/>
	<circle cx="54.5415" cy="516.352" r="4" fill="#0" id="circle18"/>
	<circle cx="59.4965" cy="668.967" r="4" fill="#0" id="circle19"/>
	<circle cx="62.4695" cy="509.415" r="4" fill="#0" id="circle20"/>
	<circle cx="68.4156" cy="673.922" r="4" fill="#0" id="circle21"/>
	<circle cx="71.3886" cy="504.46" r="4" fill="#0" id="circle22"/>
	<circle cx="78.3257" cy="673.922" r="4" fill="#0" id="circle23"/>
	<circle cx="79.3167" cy="496.531" r="4" fill="#0" id="circle24"/>
	<circle cx="87.2448" cy="678.877" r="4" fill="#0" id="circle25"/>
	<circle cx="89.2268" cy="491.576" r="4" fill="#0" id="circle26"/>
	<circle cx="96.1638" cy="683.832" r="4" fill="#0" id="circle27"/>
	<circle cx="97.1548" cy="484.639" r="4" fill="#0" id="circle28"/>
	<circle cx="106.074" cy="479.684" r="4" fill="#0" id="circle29"/>
	<circle cx="106.074" cy="687.796" r="4" fill="#0" id="circle30"/>
	<circle cx="115.984" cy="474.729" r="4" fill="#0" id="circle31"/>
	<circle cx="115.984" cy="688.787" r="4" fill="#0" id="circle32"/>
	<circle cx="125.894" cy="469.774" r="4" fill="#0" id="circle33"/>
	<circle cx="125.894" cy="692.751" r="4" fill="#0" id="circle34"/>
	<circle cx="135.804" cy="464.819" r="4" fill="#0" id="circle35"/>
	<circle cx="135.804" cy="693.742" r="4" fill="#0" id="circle36"/>
	<circle cx="144.723" cy="698.697" r="4" fill="#0" id="circle37"/>
	<circle cx="145.714" cy="464.819" r="4" fill="#0" id="circle38"/>
	<circle cx="154.633" cy="459.864" r="4" fill="#0" id="circle39"/>
	<circle cx="154.633" cy="698.697" r="4" fill="#0" id="circle40"/>
	<circle cx="164.543" cy="455.9" r="4" fill="#0" id="circle41"/>
	<circle cx="164.543" cy="701.67" r="4" fill="#0" id="circle42"/>
	<circle cx="174.454" cy="454.909" r="4" fill="#0" id="circle43"/>
	<circle cx="174.454" cy="703.652" r="4" fill="#0" id="circle44"/>
	<circle cx="184.364" cy="450.945" r="4" fill="#0" id="circle45"/>
	<circle cx="184.364" cy="703.652" r="4" fill="#0" id="circle46"/>
	<circle cx="192.292" cy="433.107" r="4" fill="#0" id="circle47"/>
	<circle cx="192.292" cy="443.017" r="4" fill="#0" id="circle48"/>
	<circle cx="193.283" cy="708.607" r="4" fill="#0" id="circle49"/>
	<circle cx="197.247" cy="413.287" r="4" fill="#0" id="circle50"/>
	<circle cx="197.247" cy="423.197" r="4" fill="#0" id="circle51"/>
	<circle cx="202.202" cy="403.377" r="4" fill="#0" id="circle52"/>
	<circle cx="203.193" cy="710.589" r="4" fill="#0" id="circle53"/>
	<circle cx="210.13" cy="395.449" r="4" fill="#0" id="circle54"/>
	<circle cx="213.103" cy="713.562" r="4" fill="#0" id="circle55"/>
	<circle cx="215.085" cy="385.538" r="4" fill="#0" id="circle56"/>
	<circle cx="220.04" cy="375.628" r="4" fill="#0" id="circle57"/>
	<circle cx="223.013" cy="713.562" r="4" fill="#0" id="circle58"/>
	<circle cx="229.95" cy="370.673" r="4" fill="#0" id="circle59"/>
	<circle cx="231.932" cy="718.517" r="4" fill="#0" id="circle60"/>
	<circle cx="239.86" cy="365.718" r="4" fill="#0" id="circle61"/>
	<circle cx="241.842" cy="718.517" r="4" fill="#0" id="circle62"/>
	<circle cx="249.77" cy="360.763" r="4" fill="#0" id="circle63"/>
	<circle cx="250.761" cy="723.473" r="4" fill="#0" id="circle64"/>
	<circle cx="259.68" cy="360.763" r="4" fill="#0" id="circle65"/>
	<circle cx="260.671" cy="723.473" r="4" fill="#0" id="circle66"/>
	<circle cx="268.599" cy="355.808" r="4" fill="#0" id="circle67"/>
	<circle cx="269.59" cy="728.428" r="4" fill="#0" id="circle68"/>
	<circle cx="278.509" cy="355.808" r="4" fill="#0" id="circle69"/>
	<circle cx="279.5" cy="728.428" r="4" fill="#0" id="circle70"/>
	<circle cx="287.429" cy="350.853" r="4" fill="#0" id="circle71"/>
	<circle cx="289.411" cy="732.392" r="4" fill="#0" id="circle72"/>
	<circle cx="297.339" cy="350.853" r="4" fill="#0" id="circle73"/>
	<circle cx="299.321" cy="733.383" r="4" fill="#0" id="circle74"/>
	<circle cx="306.258" cy="345.898" r="4" fill="#0" id="circle75"/>
	<circle cx="308.24" cy="738.338" r="4" fill="#0" id="circle76"/>
	<circle cx="316.168" cy="345.898" r="4" fill="#0" id="circle77"/>
	<circle cx="318.15" cy="741.311" r="4" fill="#0" id="circle78"/>
	<circle cx="325.087" cy="340.943" r="4" fill="#0" id="circle79"/>
	<circle cx="328.06" cy="743.293" r="4" fill="#0" id="circle80"/>
	<circle cx="334.997" cy="340.943" r="4" fill="#0" id="circle81"/>
	<circle cx="337.97" cy="746.266" r="4" fill="#0" id="circle82"/>
	<circle cx="344.907" cy="340.943" r="4" fill="#0" id="circle83"/>
	<circle cx="347.88" cy="748.248" r="4" fill="#0" id="circle84"/>
	<circle cx="350.853" cy="135.804" r="4" fill="#0" id="circle85"/>
	<circle cx="350.853" cy="145.714" r="4" fill="#0" id="circle86"/>
	<circle cx="354.817" cy="340.943" r="4" fill="#0" id="circle87"/>
	<circle cx="357.79" cy="748.248" r="4" fill="#0" id="circle88"/>
	<circle cx="358.781" cy="127.876" r="4" fill="#0" id="circle89"/>
	<circle cx="360.763" cy="148.687" r="4" fill="#0" id="circle90"/>
	<circle cx="363.736" cy="335.988" r="4" fill="#0" id="circle91"/>
	<circle cx="366.709" cy="753.203" r="4" fill="#0" id="circle92"/>
	<circle cx="367.7" cy="122.921" r="4" fill="#0" id="circle93"/>
	<circle cx="369.682" cy="153.642" r="4" fill="#0" id="circle94"/>
	<circle cx="373.646" cy="335.988" r="4" fill="#0" id="circle95"/>
	<circle cx="376.619" cy="117.966" r="4" fill="#0" id="circle96"/>
	<circle cx="376.619" cy="753.203" r="4" fill="#0" id="circle97"/>
	<circle cx="379.592" cy="153.642" r="4" fill="#0" id="circle98"/>
	<circle cx="383.556" cy="335.988" r="4" fill="#0" id="circle99"/>
	<circle cx="385.538" cy="113.011" r="4" fill="#0" id="circle100"/>
	<circle cx="386.529" cy="753.203" r="4" fill="#0" id="circle101"/>
	<circle cx="388.511" cy="158.597" r="4" fill="#0" id="circle102"/>
	<circle cx="393.467" cy="335.988" r="4" fill="#0" id="circle103"/>
	<circle cx="394.458" cy="108.056" r="4" fill="#0" id="circle104"/>
	<circle cx="396.44" cy="753.203" r="4" fill="#0" id="circle105"/>
	<circle cx="398.422" cy="158.597" r="4" fill="#0" id="circle106"/>
	<circle cx="403.377" cy="335.988" r="4" fill="#0" id="circle107"/>
	<circle cx="404.368" cy="108.056" r="4" fill="#0" id="circle108"/>
	<circle cx="406.35" cy="755.185" r="4" fill="#0" id="circle109"/>
	<circle cx="407.341" cy="163.552" r="4" fill="#0" id="circle110"/>
	<circle cx="413.287" cy="335.988" r="4" fill="#0" id="circle111"/>
	<circle cx="414.278" cy="108.056" r="4" fill="#0" id="circle112"/>
	<circle cx="416.26" cy="758.158" r="4" fill="#0" id="circle113"/>
	<circle cx="417.251" cy="163.552" r="4" fill="#0" id="circle114"/>
	<circle cx="423.197" cy="335.988" r="4" fill="#0" id="circle115"/>
	<circle cx="424.188" cy="108.056" r="4" fill="#0" id="circle116"/>
	<circle cx="426.17" cy="758.158" r="4" fill="#0" id="circle117"/>
	<circle cx="427.161" cy="163.552" r="4" fill="#0" id="circle118"/>
	<circle cx="430.134" cy="173.463" r="4" fill="#0" id="circle119"/>
	<circle cx="430.134" cy="183.373" r="4" fill="#0" id="circle120"/>
	<circle cx="430.134" cy="193.283" r="4" fill="#0" id="circle121"/>
	<circle cx="430.134" cy="203.193" r="4" fill="#0" id="circle122"/>
	<circle cx="430.134" cy="213.103" r="4" fill="#0" id="circle123"/>
	<circle cx="430.134" cy="223.013" r="4" fill="#0" id="circle124"/>
	<circle cx="430.134" cy="232.923" r="4" fill="#0" id="circle125"/>
	<circle cx="430.134" cy="242.833" r="4" fill="#0" id="circle126"/>
	<circle cx="430.134" cy="252.743" r="4" fill="#0" id="circle127"/>
	<circle cx="430.134" cy="262.653" r="4" fill="#0" id="circle128"/>
	<circle cx="430.134" cy="272.563" r="4" fill="#0" id="circle129"/>
	<circle cx="430.134" cy="282.474" r="4" fill="#0" id="circle130"/>
	<circle cx="430.134" cy="292.384" r="4" fill="#0" id="circle131"/>
	<circle cx="430.134" cy="302.294" r="4" fill="#0" id="circle132"/>
	<circle cx="430.134" cy="312.204" r="4" fill="#0" id="circle133"/>
	<circle cx="430.134" cy="322.114" r="4" fill="#0" id="circle134"/>
	<circle cx="434.098" cy="108.056" r="4" fill="#0" id="circle135"/>
	<circle cx="436.08" cy="758.158" r="4" fill="#0" id="circle136"/>
	<circle cx="444.008" cy="108.056" r="4" fill="#0" id="circle137"/>
	<circle cx="445.99" cy="760.14" r="4" fill="#0" id="circle138"/>
	<circle cx="453.918" cy="108.056" r="4" fill="#0" id="circle139"/>
	<circle cx="454.909" cy="16.8831" r="4" fill="#0" id="circle140"/>
	<circle cx="454.909" cy="26.7932" r="4" fill="#0" id="circle141"/>
	<circle cx="454.909" cy="36.7033" r="4" fill="#0" id="circle142"/>
	<circle cx="454.909" cy="46.6134" r="4" fill="#0" id="circle143"/>
	<circle cx="454.909" cy="56.5235" r="4" fill="#0" id="circle144"/>
	<circle cx="454.909" cy="66.4336" r="4" fill="#0" id="circle145"/>
	<circle cx="454.909" cy="76.3437" r="4" fill="#0" id="circle146"/>
	<circle cx="454.909" cy="86.2537" r="4" fill="#0" id="circle147"/>
	<circle cx="454.909" cy="96.1638" r="4" fill="#0" id="circle148"/>
	<circle cx="455.9" cy="763.113" r="4" fill="#0" id="circle149"/>
	<circle cx="462.837" cy="8.95504" r="4" fill="#0" id="circle150"/>
	<circle cx="465.81" cy="763.113" r="4" fill="#0" id="circle151"/>
	<circle cx="471.756" cy="4" r="4" fill="#0" id="circle152"/>
	<circle cx="475.72" cy="765.095" r="4" fill="#0" id="circle153"/>
	<circle cx="481.666" cy="4" r="4" fill="#0" id="circle154"/>
	<circle cx="485.63" cy="768.068" r="4" fill="#0" id="circle155"/>
	<circle cx="491.576" cy="4" r="4" fill="#0" id="circle156"/>
	<circle cx="495.54" cy="768.068" r="4" fill="#0" id="circle157"/>
	<circle cx="501.487" cy="4" r="4" fill="#0" id="circle158"/>
	<circle cx="504.46" cy="773.023" r="4" fill="#0" id="circle159"/>
	<circle cx="511.397" cy="4" r="4" fill="#0" id="circle160"/>
	<circle cx="514.37" cy="773.023" r="4" fill="#0" id="circle161"/>
	<circle cx="520.316" cy="8.95504" r="4" fill="#0" id="circle162"/>
	<circle cx="524.28" cy="773.023" r="4" fill="#0" id="circle163"/>
	<circle cx="525.271" cy="17.8741" r="4" fill="#0" id="circle164"/>
	<circle cx="530.226" cy="26.7932" r="4" fill="#0" id="circle165"/>
	<circle cx="534.19" cy="36.7033" r="4" fill="#0" id="circle166"/>
	<circle cx="534.19" cy="773.023" r="4" fill="#0" id="circle167"/>
	<circle cx="535.181" cy="46.6134" r="4" fill="#0" id="circle168"/>
	<circle cx="539.145" cy="56.5235" r="4" fill="#0" id="circle169"/>
	<circle cx="540.136" cy="66.4336" r="4" fill="#0" id="circle170"/>
	<circle cx="540.136" cy="76.3437" r="4" fill="#0" id="circle171"/>
	<circle cx="540.136" cy="86.2537" r="4" fill="#0" id="circle172"/>
	<circle cx="540.136" cy="96.1638" r="4" fill="#0" id="circle173"/>
	<circle cx="540.136" cy="106.074" r="4" fill="#0" id="circle174"/>
	<circle cx="540.136" cy="115.984" r="4" fill="#0" id="circle175"/>
	<circle cx="544.1" cy="773.023" r="4" fill="#0" id="circle176"/>
	<circle cx="545.091" cy="193.283" r="4" fill="#0" id="circle177"/>
	<circle cx="545.091" cy="203.193" r="4" fill="#0" id="circle178"/>
	<circle cx="545.091" cy="213.103" r="4" fill="#0" id="circle179"/>
	<circle cx="545.091" cy="223.013" r="4" fill="#0" id="circle180"/>
	<circle cx="545.091" cy="232.923" r="4" fill="#0" id="circle181"/>
	<circle cx="545.091" cy="242.833" r="4" fill="#0" id="circle182"/>
	<circle cx="547.073" cy="252.743" r="4" fill="#0" id="circle183"/>
	<circle cx="548.064" cy="122.921" r="4" fill="#0" id="circle184"/>
	<circle cx="550.046" cy="262.653" r="4" fill="#0" id="circle185"/>
	<circle cx="550.046" cy="272.563" r="4" fill="#0" id="circle186"/>
	<circle cx="550.046" cy="282.474" r="4" fill="#0" id="circle187"/>
	<circle cx="550.046" cy="292.384" r="4" fill="#0" id="circle188"/>
	<circle cx="550.046" cy="302.294" r="4" fill="#0" id="circle189"/>
	<circle cx="550.046" cy="312.204" r="4" fill="#0" id="circle190"/>
	<circle cx="554.01" cy="773.023" r="4" fill="#0" id="circle191"/>
	<circle cx="555.001" cy="193.283" r="4" fill="#0" id="circle192"/>
	<circle cx="555.001" cy="321.123" r="4" fill="#0" id="circle193"/>
	<circle cx="557.974" cy="122.921" r="4" fill="#0" id="circle194"/>
	<circle cx="563.92" cy="326.078" r="4" fill="#0" id="circle195"/>
	<circle cx="563.92" cy="773.023" r="4" fill="#0" id="circle196"/>
	<circle cx="564.911" cy="193.283" r="4" fill="#0" id="circle197"/>
	<circle cx="567.884" cy="122.921" r="4" fill="#0" id="circle198"/>
	<circle cx="573.83" cy="328.06" r="4" fill="#0" id="circle199"/>
	<circle cx="573.83" cy="773.023" r="4" fill="#0" id="circle200"/>
	<circle cx="574.821" cy="193.283" r="4" fill="#0" id="circle201"/>
	<circle cx="577.794" cy="122.921" r="4" fill="#0" id="circle202"/>
	<circle cx="582.749" cy="777.978" r="4" fill="#0" id="circle203"/>
	<circle cx="583.74" cy="331.033" r="4" fill="#0" id="circle204"/>
	<circle cx="584.731" cy="193.283" r="4" fill="#0" id="circle205"/>
	<circle cx="587.704" cy="122.921" r="4" fill="#0" id="circle206"/>
	<circle cx="592.659" cy="777.978" r="4" fill="#0" id="circle207"/>
	<circle cx="593.65" cy="331.033" r="4" fill="#0" id="circle208"/>
	<circle cx="594.641" cy="193.283" r="4" fill="#0" id="circle209"/>
	<circle cx="597.614" cy="122.921" r="4" fill="#0" id="circle210"/>
	<circle cx="602.569" cy="335.988" r="4" fill="#0" id="circle211"/>
	<circle cx="602.569" cy="777.978" r="4" fill="#0" id="circle212"/>
	<circle cx="603.56" cy="188.328" r="4" fill="#0" id="circle213"/>
	<circle cx="607.524" cy="122.921" r="4" fill="#0" id="circle214"/>
	<circle cx="612.48" cy="335.988" r="4" fill="#0" id="circle215"/>
	<circle cx="612.48" cy="777.978" r="4" fill="#0" id="circle216"/>
	<circle cx="613.471" cy="188.328" r="4" fill="#0" id="circle217"/>
	<circle cx="617.435" cy="122.921" r="4" fill="#0" id="circle218"/>
	<circle cx="622.39" cy="183.373" r="4" fill="#0" id="circle219"/>
	<circle cx="622.39" cy="335.988" r="4" fill="#0" id="circle220"/>
	<circle cx="622.39" cy="777.978" r="4" fill="#0" id="circle221"/>
	<circle cx="627.345" cy="122.921" r="4" fill="#0" id="circle222"/>
	<circle cx="631.309" cy="177.427" r="4" fill="#0" id="circle223"/>
	<circle cx="632.3" cy="336.979" r="4" fill="#0" id="circle224"/>
	<circle cx="632.3" cy="777.978" r="4" fill="#0" id="circle225"/>
	<circle cx="637.255" cy="122.921" r="4" fill="#0" id="circle226"/>
	<circle cx="639.237" cy="168.507" r="4" fill="#0" id="circle227"/>
	<circle cx="642.21" cy="340.943" r="4" fill="#0" id="circle228"/>
	<circle cx="642.21" cy="777.978" r="4" fill="#0" id="circle229"/>
	<circle cx="647.165" cy="122.921" r="4" fill="#0" id="circle230"/>
	<circle cx="648.156" cy="163.552" r="4" fill="#0" id="circle231"/>
	<circle cx="652.12" cy="340.943" r="4" fill="#0" id="circle232"/>
	<circle cx="652.12" cy="777.978" r="4" fill="#0" id="circle233"/>
	<circle cx="656.084" cy="157.606" r="4" fill="#0" id="circle234"/>
	<circle cx="657.075" cy="123.912" r="4" fill="#0" id="circle235"/>
	<circle cx="662.03" cy="341.934" r="4" fill="#0" id="circle236"/>
	<circle cx="662.03" cy="777.978" r="4" fill="#0" id="circle237"/>
	<circle cx="664.012" cy="131.84" r="4" fill="#0" id="circle238"/>
	<circle cx="664.012" cy="143.732" r="4" fill="#0" id="circle239"/>
	<circle cx="671.94" cy="345.898" r="4" fill="#0" id="circle240"/>
	<circle cx="671.94" cy="777.978" r="4" fill="#0" id="circle241"/>
	<circle cx="680.859" cy="773.023" r="4" fill="#0" id="circle242"/>
	<circle cx="681.85" cy="345.898" r="4" fill="#0" id="circle243"/>
	<circle cx="690.769" cy="773.023" r="4" fill="#0" id="circle244"/>
	<circle cx="691.76" cy="345.898" r="4" fill="#0" id="circle245"/>
	<circle cx="700.679" cy="350.853" r="4" fill="#0" id="circle246"/>
	<circle cx="700.679" cy="772.032" r="4" fill="#0" id="circle247"/>
	<circle cx="710.589" cy="350.853" r="4" fill="#0" id="circle248"/>
	<circle cx="710.589" cy="768.068" r="4" fill="#0" id="circle249"/>
	<circle cx="720.5" cy="350.853" r="4" fill="#0" id="circle250"/>
	<circle cx="720.5" cy="767.077" r="4" fill="#0" id="circle251"/>
	<circle cx="730.41" cy="350.853" r="4" fill="#0" id="circle252"/>
	<circle cx="730.41" cy="762.122" r="4" fill="#0" id="circle253"/>
	<circle cx="739.329" cy="355.808" r="4" fill="#0" id="circle254"/>
	<circle cx="740.32" cy="758.158" r="4" fill="#0" id="circle255"/>
	<circle cx="748.248" cy="360.763" r="4" fill="#0" id="circle256"/>
	<circle cx="750.23" cy="757.167" r="4" fill="#0" id="circle257"/>
	<circle cx="758.158" cy="363.736" r="4" fill="#0" id="circle258"/>
	<circle cx="760.14" cy="753.203" r="4" fill="#0" id="circle259"/>
	<circle cx="768.068" cy="365.718" r="4" fill="#0" id="circle260"/>
	<circle cx="769.059" cy="748.248" r="4" fill="#0" id="circle261"/>
	<circle cx="777.978" cy="365.718" r="4" fill="#0" id="circle262"/>
	<circle cx="778.969" cy="748.248" r="4" fill="#0" id="circle263"/>
	<circle cx="786.897" cy="370.673" r="4" fill="#0" id="circle264"/>
	<circle cx="787.888" cy="743.293" r="4" fill="#0" id="circle265"/>
	<circle cx="796.807" cy="370.673" r="4" fill="#0" id="circle266"/>
	<circle cx="796.807" cy="738.338" r="4" fill="#0" id="circle267"/>
	<circle cx="805.726" cy="733.383" r="4" fill="#0" id="circle268"/>
	<circle cx="806.717" cy="370.673" r="4" fill="#0" id="circle269"/>
	<circle cx="814.645" cy="728.428" r="4" fill="#0" id="circle270"/>
	<circle cx="816.627" cy="372.655" r="4" fill="#0" id="circle271"/>
	<circle cx="822.573" cy="380.583" r="4" fill="#0" id="circle272"/>
	<circle cx="823.564" cy="723.473" r="4" fill="#0" id="circle273"/>
	<circle cx="827.528" cy="389.502" r="4" fill="#0" id="circle274"/>
	<circle cx="831.493" cy="715.544" r="4" fill="#0" id="circle275"/>
	<circle cx="832.484" cy="398.422" r="4" fill="#0" id="circle276"/>
	<circle cx="832.484" cy="408.332" r="4" fill="#0" id="circle277"/>
	<circle cx="832.484" cy="418.242" r="4" fill="#0" id="circle278"/>
	<circle cx="832.484" cy="428.152" r="4" fill="#0" id="circle279"/>
	<circle cx="832.484" cy="438.062" r="4" fill="#0" id="circle280"/>
	<circle cx="832.484" cy="447.972" r="4" fill="#0" id="circle281"/>
	<circle cx="832.484" cy="457.882" r="4" fill="#0" id="circle282"/>
	<circle cx="836.448" cy="467.792" r="4" fill="#0" id="circle283"/>
	<circle cx="839.421" cy="708.607" r="4" fill="#0" id="circle284"/>
	<circle cx="844.376" cy="474.729" r="4" fill="#0" id="circle285"/>
	<circle cx="848.34" cy="703.652" r="4" fill="#0" id="circle286"/>
	<circle cx="853.295" cy="479.684" r="4" fill="#0" id="circle287"/>
	<circle cx="856.268" cy="695.724" r="4" fill="#0" id="circle288"/>
	<circle cx="862.214" cy="484.639" r="4" fill="#0" id="circle289"/>
	<circle cx="864.196" cy="687.796" r="4" fill="#0" id="circle290"/>
	<circle cx="872.124" cy="484.639" r="4" fill="#0" id="circle291"/>
	<circle cx="872.124" cy="678.877" r="4" fill="#0" id="circle292"/>
	<circle cx="880.052" cy="671.94" r="4" fill="#0" id="circle293"/>
	<circle cx="881.043" cy="489.594" r="4" fill="#0" id="circle294"/>
	<circle cx="886.989" cy="664.012" r="4" fill="#0" id="circle295"/>
	<circle cx="889.962" cy="494.549" r="4" fill="#0" id="circle296"/>
	<circle cx="896.899" cy="664.012" r="4" fill="#0" id="circle297"/>
	<circle cx="899.872" cy="495.54" r="4" fill="#0" id="circle298"/>
	<circle cx="905.818" cy="659.057" r="4" fill="#0" id="circle299"/>
	<circle cx="908.791" cy="500.496" r="4" fill="#0" id="circle300"/>
	<circle cx="915.728" cy="656.084" r="4" fill="#0" id="circle301"/>
	<circle cx="916.719" cy="507.433" r="4" fill="#0" id="circle302"/>
	<circle cx="925.638" cy="651.129" r="4" fill="#0" id="circle303"/>
	<circle cx="926.629" cy="509.415" r="4" fill="#0" id="circle304"/>
	<circle cx="935.548" cy="646.174" r="4" fill="#0" id="circle305"/>
	<circle cx="936.539" cy="512.388" r="4" fill="#0" id="circle306"/>
	<circle cx="945.459" cy="641.219" r="4" fill="#0" id="circle307"/>
	<circle cx="946.45" cy="514.37" r="4" fill="#0" id="circle308"/>
	<circle cx="953.387" cy="633.291" r="4" fill="#0" id="circle309"/>
	<circle cx="956.36" cy="517.343" r="4" fill="#0" id="circle310"/>
	<circle cx="961.315" cy="624.372" r="4" fill="#0" id="circle311"/>
	<circle cx="965.279" cy="522.298" r="4" fill="#0" id="circle312"/>
	<circle cx="969.243" cy="617.435" r="4" fill="#0" id="circle313"/>
	<circle cx="974.198" cy="607.524" r="4" fill="#0" id="circle314"/>
	<circle cx="975.189" cy="524.28" r="4" fill="#0" id="circle315"/>
	<circle cx="979.153" cy="597.614" r="4" fill="#0" id="circle316"/>
	<circle cx="984.108" cy="587.704" r="4" fill="#0" id="circle317"/>
	<circle cx="985.099" cy="526.262" r="4" fill="#0" id="circle318"/>
	<circle cx="989.063" cy="577.794" r="4" fill="#0" id="circle319"/>
	<circle cx="991.045" cy="534.19" r="4" fill="#0" id="circle320"/>
	<circle cx="994.018" cy="567.884" r="4" fill="#0" id="circle321"/>
	<circle cx="996" cy="543.109" r="4" fill="#0" id="circle322"/>
	<circle cx="996" cy="553.019" r="4" fill="#0" id="circle323"/>
	</g>
</svg>