<?xml version="1.0" encoding="UTF-8" standalone="no"?>
<!-- Created with CurveBenchmark -->
<svg
	xmlns:dc="http://purl.org/dc/elements/1.1/"
	xmlns:cc="http://creativecommons.org/ns#"
	xmlns:rdf="http://www.w3.org/1999/02/22-rdf-syntax-ns#"
	xmlns:svg="http://www.w3.org/2000/svg"
	xmlns="http://www.w3.org/2000/svg"
	xmlns:sodipodi="http://sodipodi.sourceforge.net/DTD/sodipodi-0.dtd"
	xmlns:inkscape="http://www.inkscape.org/namespaces/inkscape"
	width="1000"
	height="1000"
	id="svg2"
	version="1.1"
	sodipodi:docname="manifold/vicur-apple-19.png.txt">
<defs
	id="defs4" />
<metadata
	id="metadata7">
	<rdf:RDF>
		<cc:Work
			rdf:about="">
			<dc:format>image/svg+xml</dc:format>
			<dc:type
				rdf:resource="http://purl.org/dc/dcmitype/StillImage" />
			<dc:title></dc:title>
		</cc:Work>
	</rdf:RDF>
</metadata>
<g
	inkscape:label="Layer 1"
	inkscape:groupmode="layer"
	id="layer1">
	<path style="fill:none;stroke:red;stroke-width:1px;stroke-linecap:butt;stroke-linejoin:miter;stroke-opacity:1" d="M 4,508.732 4,517.465 z" id="boundary" inkscape:connector-curvature="0" />
	<path style="fill:none;stroke:red;stroke-width:1px;stroke-linecap:butt;stroke-linejoin:miter;stroke-opacity:1" d="M 4,508.732 8.3662,495.634 z" id="boundary" inkscape:connector-curvature="0" />
	<path style="fill:none;stroke:red;stroke-width:1px;stroke-linecap:butt;stroke-linejoin:miter;stroke-opacity:1" d="M 4,517.465 4,526.197 z" id="boundary" inkscape:connector-curvature="0" />
	<path style="fill:none;stroke:red;stroke-width:1px;stroke-linecap:butt;stroke-linejoin:miter;stroke-opacity:1" d="M 4,526.197 4,534.93 z" id="boundary" inkscape:connector-curvature="0" />
	<path style="fill:none;stroke:red;stroke-width:1px;stroke-linecap:butt;stroke-linejoin:miter;stroke-opacity:1" d="M 4,534.93 4,543.662 z" id="boundary" inkscape:connector-curvature="0" />
	<path style="fill:none;stroke:red;stroke-width:1px;stroke-linecap:butt;stroke-linejoin:miter;stroke-opacity:1" d="M 4,543.662 4,552.394 z" id="boundary" inkscape:connector-curvature="0" />
	<path style="fill:none;stroke:red;stroke-width:1px;stroke-linecap:butt;stroke-linejoin:miter;stroke-opacity:1" d="M 4,552.394 4,561.127 z" id="boundary" inkscape:connector-curvature="0" />
	<path style="fill:none;stroke:red;stroke-width:1px;stroke-linecap:butt;stroke-linejoin:miter;stroke-opacity:1" d="M 4,561.127 4,569.859 z" id="boundary" inkscape:connector-curvature="0" />
	<path style="fill:none;stroke:red;stroke-width:1px;stroke-linecap:butt;stroke-linejoin:miter;stroke-opacity:1" d="M 4,569.859 4,578.592 z" id="boundary" inkscape:connector-curvature="0" />
	<path style="fill:none;stroke:red;stroke-width:1px;stroke-linecap:butt;stroke-linejoin:miter;stroke-opacity:1" d="M 4,578.592 4,587.324 z" id="boundary" inkscape:connector-curvature="0" />
	<path style="fill:none;stroke:red;stroke-width:1px;stroke-linecap:butt;stroke-linejoin:miter;stroke-opacity:1" d="M 4,587.324 8.3662,595.183 z" id="boundary" inkscape:connector-curvature="0" />
	<path style="fill:none;stroke:red;stroke-width:1px;stroke-linecap:butt;stroke-linejoin:miter;stroke-opacity:1" d="M 8.3662,478.169 8.3662,486.901 z" id="boundary" inkscape:connector-curvature="0" />
	<path style="fill:none;stroke:red;stroke-width:1px;stroke-linecap:butt;stroke-linejoin:miter;stroke-opacity:1" d="M 8.3662,478.169 12.7324,469.437 z" id="boundary" inkscape:connector-curvature="0" />
	<path style="fill:none;stroke:red;stroke-width:1px;stroke-linecap:butt;stroke-linejoin:miter;stroke-opacity:1" d="M 8.3662,486.901 8.3662,495.634 z" id="boundary" inkscape:connector-curvature="0" />
	<path style="fill:none;stroke:red;stroke-width:1px;stroke-linecap:butt;stroke-linejoin:miter;stroke-opacity:1" d="M 8.3662,595.183 8.3662,603.915 z" id="boundary" inkscape:connector-curvature="0" />
	<path style="fill:none;stroke:red;stroke-width:1px;stroke-linecap:butt;stroke-linejoin:miter;stroke-opacity:1" d="M 8.3662,603.915 8.3662,612.648 z" id="boundary" inkscape:connector-curvature="0" />
	<path style="fill:none;stroke:red;stroke-width:1px;stroke-linecap:butt;stroke-linejoin:miter;stroke-opacity:1" d="M 8.3662,612.648 12.7324,620.507 z" id="boundary" inkscape:connector-curvature="0" />
	<path style="fill:none;stroke:red;stroke-width:1px;stroke-linecap:butt;stroke-linejoin:miter;stroke-opacity:1" d="M 12.7324,460.704 12.7324,469.437 z" id="boundary" inkscape:connector-curvature="0" />
	<path style="fill:none;stroke:red;stroke-width:1px;stroke-linecap:butt;stroke-linejoin:miter;stroke-opacity:1" d="M 12.7324,460.704 17.0986,451.972 z" id="boundary" inkscape:connector-curvature="0" />
	<path style="fill:none;stroke:red;stroke-width:1px;stroke-linecap:butt;stroke-linejoin:miter;stroke-opacity:1" d="M 12.7324,620.507 12.7324,629.239 z" id="boundary" inkscape:connector-curvature="0" />
	<path style="fill:none;stroke:red;stroke-width:1px;stroke-linecap:butt;stroke-linejoin:miter;stroke-opacity:1" d="M 12.7324,629.239 15.3521,637.972 z" id="boundary" inkscape:connector-curvature="0" />
	<path style="fill:none;stroke:red;stroke-width:1px;stroke-linecap:butt;stroke-linejoin:miter;stroke-opacity:1" d="M 15.3521,637.972 17.0986,646.704 z" id="boundary" inkscape:connector-curvature="0" />
	<path style="fill:none;stroke:red;stroke-width:1px;stroke-linecap:butt;stroke-linejoin:miter;stroke-opacity:1" d="M 17.0986,443.239 17.0986,451.972 z" id="boundary" inkscape:connector-curvature="0" />
	<path style="fill:none;stroke:red;stroke-width:1px;stroke-linecap:butt;stroke-linejoin:miter;stroke-opacity:1" d="M 17.0986,443.239 21.4648,430.141 z" id="boundary" inkscape:connector-curvature="0" />
	<path style="fill:none;stroke:red;stroke-width:1px;stroke-linecap:butt;stroke-linejoin:miter;stroke-opacity:1" d="M 17.0986,646.704 19.7183,655.437 z" id="boundary" inkscape:connector-curvature="0" />
	<path style="fill:none;stroke:red;stroke-width:1px;stroke-linecap:butt;stroke-linejoin:miter;stroke-opacity:1" d="M 19.7183,655.437 21.4648,664.169 z" id="boundary" inkscape:connector-curvature="0" />
	<path style="fill:none;stroke:red;stroke-width:1px;stroke-linecap:butt;stroke-linejoin:miter;stroke-opacity:1" d="M 21.4648,430.141 25.831,417.042 z" id="boundary" inkscape:connector-curvature="0" />
	<path style="fill:none;stroke:red;stroke-width:1px;stroke-linecap:butt;stroke-linejoin:miter;stroke-opacity:1" d="M 21.4648,664.169 25.831,672.028 z" id="boundary" inkscape:connector-curvature="0" />
	<path style="fill:none;stroke:red;stroke-width:1px;stroke-linecap:butt;stroke-linejoin:miter;stroke-opacity:1" d="M 25.831,417.042 30.1972,403.944 z" id="boundary" inkscape:connector-curvature="0" />
	<path style="fill:none;stroke:red;stroke-width:1px;stroke-linecap:butt;stroke-linejoin:miter;stroke-opacity:1" d="M 25.831,672.028 27.5775,680.761 z" id="boundary" inkscape:connector-curvature="0" />
	<path style="fill:none;stroke:red;stroke-width:1px;stroke-linecap:butt;stroke-linejoin:miter;stroke-opacity:1" d="M 27.5775,680.761 30.1972,689.493 z" id="boundary" inkscape:connector-curvature="0" />
	<path style="fill:none;stroke:red;stroke-width:1px;stroke-linecap:butt;stroke-linejoin:miter;stroke-opacity:1" d="M 30.1972,403.944 34.5634,395.211 z" id="boundary" inkscape:connector-curvature="0" />
	<path style="fill:none;stroke:red;stroke-width:1px;stroke-linecap:butt;stroke-linejoin:miter;stroke-opacity:1" d="M 30.1972,689.493 34.5634,697.352 z" id="boundary" inkscape:connector-curvature="0" />
	<path style="fill:none;stroke:red;stroke-width:1px;stroke-linecap:butt;stroke-linejoin:miter;stroke-opacity:1" d="M 34.5634,395.211 38.9296,386.479 z" id="boundary" inkscape:connector-curvature="0" />
	<path style="fill:none;stroke:red;stroke-width:1px;stroke-linecap:butt;stroke-linejoin:miter;stroke-opacity:1" d="M 34.5634,697.352 38.9296,705.211 z" id="boundary" inkscape:connector-curvature="0" />
	<path style="fill:none;stroke:red;stroke-width:1px;stroke-linecap:butt;stroke-linejoin:miter;stroke-opacity:1" d="M 38.9296,386.479 43.2958,377.746 z" id="boundary" inkscape:connector-curvature="0" />
	<path style="fill:none;stroke:red;stroke-width:1px;stroke-linecap:butt;stroke-linejoin:miter;stroke-opacity:1" d="M 38.9296,705.211 43.2958,713.07 z" id="boundary" inkscape:connector-curvature="0" />
	<path style="fill:none;stroke:red;stroke-width:1px;stroke-linecap:butt;stroke-linejoin:miter;stroke-opacity:1" d="M 43.2958,377.746 47.662,369.014 z" id="boundary" inkscape:connector-curvature="0" />
	<path style="fill:none;stroke:red;stroke-width:1px;stroke-linecap:butt;stroke-linejoin:miter;stroke-opacity:1" d="M 43.2958,713.07 47.662,720.93 z" id="boundary" inkscape:connector-curvature="0" />
	<path style="fill:none;stroke:red;stroke-width:1px;stroke-linecap:butt;stroke-linejoin:miter;stroke-opacity:1" d="M 47.662,369.014 52.0282,360.282 z" id="boundary" inkscape:connector-curvature="0" />
	<path style="fill:none;stroke:red;stroke-width:1px;stroke-linecap:butt;stroke-linejoin:miter;stroke-opacity:1" d="M 47.662,720.93 50.2817,729.662 z" id="boundary" inkscape:connector-curvature="0" />
	<path style="fill:none;stroke:red;stroke-width:1px;stroke-linecap:butt;stroke-linejoin:miter;stroke-opacity:1" d="M 50.2817,729.662 54.6479,737.521 z" id="boundary" inkscape:connector-curvature="0" />
	<path style="fill:none;stroke:red;stroke-width:1px;stroke-linecap:butt;stroke-linejoin:miter;stroke-opacity:1" d="M 52.0282,360.282 56.3944,351.549 z" id="boundary" inkscape:connector-curvature="0" />
	<path style="fill:none;stroke:red;stroke-width:1px;stroke-linecap:butt;stroke-linejoin:miter;stroke-opacity:1" d="M 54.6479,737.521 58.1408,746.254 z" id="boundary" inkscape:connector-curvature="0" />
	<path style="fill:none;stroke:red;stroke-width:1px;stroke-linecap:butt;stroke-linejoin:miter;stroke-opacity:1" d="M 56.3944,351.549 60.7606,342.817 z" id="boundary" inkscape:connector-curvature="0" />
	<path style="fill:none;stroke:red;stroke-width:1px;stroke-linecap:butt;stroke-linejoin:miter;stroke-opacity:1" d="M 58.1408,746.254 62.507,754.113 z" id="boundary" inkscape:connector-curvature="0" />
	<path style="fill:none;stroke:red;stroke-width:1px;stroke-linecap:butt;stroke-linejoin:miter;stroke-opacity:1" d="M 60.7606,342.817 67.7465,335.831 z" id="boundary" inkscape:connector-curvature="0" />
	<path style="fill:none;stroke:red;stroke-width:1px;stroke-linecap:butt;stroke-linejoin:miter;stroke-opacity:1" d="M 62.507,754.113 69.493,760.225 z" id="boundary" inkscape:connector-curvature="0" />
	<path style="fill:none;stroke:red;stroke-width:1px;stroke-linecap:butt;stroke-linejoin:miter;stroke-opacity:1" d="M 67.7465,335.831 72.1127,327.099 z" id="boundary" inkscape:connector-curvature="0" />
	<path style="fill:none;stroke:red;stroke-width:1px;stroke-linecap:butt;stroke-linejoin:miter;stroke-opacity:1" d="M 69.493,760.225 72.1127,768.958 z" id="boundary" inkscape:connector-curvature="0" />
	<path style="fill:none;stroke:red;stroke-width:1px;stroke-linecap:butt;stroke-linejoin:miter;stroke-opacity:1" d="M 72.1127,327.099 78.2254,316.62 z" id="boundary" inkscape:connector-curvature="0" />
	<path style="fill:none;stroke:red;stroke-width:1px;stroke-linecap:butt;stroke-linejoin:miter;stroke-opacity:1" d="M 78.2254,316.62 85.2113,309.634 z" id="boundary" inkscape:connector-curvature="0" />
	<path style="fill:none;stroke:red;stroke-width:1px;stroke-linecap:butt;stroke-linejoin:miter;stroke-opacity:1" d="M 82.5915,783.803 89.5775,789.915 z" id="boundary" inkscape:connector-curvature="0" />
	<path style="fill:none;stroke:red;stroke-width:1px;stroke-linecap:butt;stroke-linejoin:miter;stroke-opacity:1" d="M 85.2113,309.634 92.1972,302.648 z" id="boundary" inkscape:connector-curvature="0" />
	<path style="fill:none;stroke:red;stroke-width:1px;stroke-linecap:butt;stroke-linejoin:miter;stroke-opacity:1" d="M 89.5775,789.915 100.056,804.761 z" id="boundary" inkscape:connector-curvature="0" />
	<path style="fill:none;stroke:red;stroke-width:1px;stroke-linecap:butt;stroke-linejoin:miter;stroke-opacity:1" d="M 92.1972,302.648 96.5634,293.915 z" id="boundary" inkscape:connector-curvature="0" />
	<path style="fill:none;stroke:red;stroke-width:1px;stroke-linecap:butt;stroke-linejoin:miter;stroke-opacity:1" d="M 96.5634,293.915 103.549,287.803 z" id="boundary" inkscape:connector-curvature="0" />
	<path style="fill:none;stroke:red;stroke-width:1px;stroke-linecap:butt;stroke-linejoin:miter;stroke-opacity:1" d="M 100.056,804.761 106.169,811.746 z" id="boundary" inkscape:connector-curvature="0" />
	<path style="fill:none;stroke:red;stroke-width:1px;stroke-linecap:butt;stroke-linejoin:miter;stroke-opacity:1" d="M 103.549,287.803 109.662,280.817 z" id="boundary" inkscape:connector-curvature="0" />
	<path style="fill:none;stroke:red;stroke-width:1px;stroke-linecap:butt;stroke-linejoin:miter;stroke-opacity:1" d="M 106.169,811.746 113.155,816.986 z" id="boundary" inkscape:connector-curvature="0" />
	<path style="fill:none;stroke:red;stroke-width:1px;stroke-linecap:butt;stroke-linejoin:miter;stroke-opacity:1" d="M 109.662,280.817 116.648,274.704 z" id="boundary" inkscape:connector-curvature="0" />
	<path style="fill:none;stroke:red;stroke-width:1px;stroke-linecap:butt;stroke-linejoin:miter;stroke-opacity:1" d="M 113.155,816.986 125.38,830.085 z" id="boundary" inkscape:connector-curvature="0" />
	<path style="fill:none;stroke:red;stroke-width:1px;stroke-linecap:butt;stroke-linejoin:miter;stroke-opacity:1" d="M 116.648,274.704 122.761,267.718 z" id="boundary" inkscape:connector-curvature="0" />
	<path style="fill:none;stroke:red;stroke-width:1px;stroke-linecap:butt;stroke-linejoin:miter;stroke-opacity:1" d="M 122.761,267.718 135.859,254.62 z" id="boundary" inkscape:connector-curvature="0" />
	<path style="fill:none;stroke:red;stroke-width:1px;stroke-linecap:butt;stroke-linejoin:miter;stroke-opacity:1" d="M 125.38,830.085 131.493,837.07 z" id="boundary" inkscape:connector-curvature="0" />
	<path style="fill:none;stroke:red;stroke-width:1px;stroke-linecap:butt;stroke-linejoin:miter;stroke-opacity:1" d="M 131.493,837.07 138.479,843.183 z" id="boundary" inkscape:connector-curvature="0" />
	<path style="fill:none;stroke:red;stroke-width:1px;stroke-linecap:butt;stroke-linejoin:miter;stroke-opacity:1" d="M 135.859,254.62 142.845,248.507 z" id="boundary" inkscape:connector-curvature="0" />
	<path style="fill:none;stroke:red;stroke-width:1px;stroke-linecap:butt;stroke-linejoin:miter;stroke-opacity:1" d="M 138.479,843.183 151.577,856.282 z" id="boundary" inkscape:connector-curvature="0" />
	<path style="fill:none;stroke:red;stroke-width:1px;stroke-linecap:butt;stroke-linejoin:miter;stroke-opacity:1" d="M 151.577,856.282 159.437,860.648 z" id="boundary" inkscape:connector-curvature="0" />
	<path style="fill:none;stroke:red;stroke-width:1px;stroke-linecap:butt;stroke-linejoin:miter;stroke-opacity:1" d="M 157.69,237.155 164.676,231.042 z" id="boundary" inkscape:connector-curvature="0" />
	<path style="fill:none;stroke:red;stroke-width:1px;stroke-linecap:butt;stroke-linejoin:miter;stroke-opacity:1" d="M 159.437,860.648 172.535,873.746 z" id="boundary" inkscape:connector-curvature="0" />
	<path style="fill:none;stroke:red;stroke-width:1px;stroke-linecap:butt;stroke-linejoin:miter;stroke-opacity:1" d="M 164.676,231.042 170.789,224.056 z" id="boundary" inkscape:connector-curvature="0" />
	<path style="fill:none;stroke:red;stroke-width:1px;stroke-linecap:butt;stroke-linejoin:miter;stroke-opacity:1" d="M 170.789,224.056 179.521,219.69 z" id="boundary" inkscape:connector-curvature="0" />
	<path style="fill:none;stroke:red;stroke-width:1px;stroke-linecap:butt;stroke-linejoin:miter;stroke-opacity:1" d="M 172.535,873.746 181.268,877.239 z" id="boundary" inkscape:connector-curvature="0" />
	<path style="fill:none;stroke:red;stroke-width:1px;stroke-linecap:butt;stroke-linejoin:miter;stroke-opacity:1" d="M 179.521,219.69 186.507,213.577 z" id="boundary" inkscape:connector-curvature="0" />
	<path style="fill:none;stroke:red;stroke-width:1px;stroke-linecap:butt;stroke-linejoin:miter;stroke-opacity:1" d="M 181.268,877.239 196.113,886.845 z" id="boundary" inkscape:connector-curvature="0" />
	<path style="fill:none;stroke:red;stroke-width:1px;stroke-linecap:butt;stroke-linejoin:miter;stroke-opacity:1" d="M 186.507,213.577 194.366,209.211 z" id="boundary" inkscape:connector-curvature="0" />
	<path style="fill:none;stroke:red;stroke-width:1px;stroke-linecap:butt;stroke-linejoin:miter;stroke-opacity:1" d="M 194.366,209.211 202.225,204.845 z" id="boundary" inkscape:connector-curvature="0" />
	<path style="fill:none;stroke:red;stroke-width:1px;stroke-linecap:butt;stroke-linejoin:miter;stroke-opacity:1" d="M 196.113,886.845 203.972,891.211 z" id="boundary" inkscape:connector-curvature="0" />
	<path style="fill:none;stroke:red;stroke-width:1px;stroke-linecap:butt;stroke-linejoin:miter;stroke-opacity:1" d="M 203.972,891.211 218.817,901.69 z" id="boundary" inkscape:connector-curvature="0" />
	<path style="fill:none;stroke:red;stroke-width:1px;stroke-linecap:butt;stroke-linejoin:miter;stroke-opacity:1" d="M 217.944,194.366 226.676,190 z" id="boundary" inkscape:connector-curvature="0" />
	<path style="fill:none;stroke:red;stroke-width:1px;stroke-linecap:butt;stroke-linejoin:miter;stroke-opacity:1" d="M 218.817,901.69 226.676,906.056 z" id="boundary" inkscape:connector-curvature="0" />
	<path style="fill:none;stroke:red;stroke-width:1px;stroke-linecap:butt;stroke-linejoin:miter;stroke-opacity:1" d="M 226.676,190 235.408,185.634 z" id="boundary" inkscape:connector-curvature="0" />
	<path style="fill:none;stroke:red;stroke-width:1px;stroke-linecap:butt;stroke-linejoin:miter;stroke-opacity:1" d="M 226.676,906.056 235.408,908.676 z" id="boundary" inkscape:connector-curvature="0" />
	<path style="fill:none;stroke:red;stroke-width:1px;stroke-linecap:butt;stroke-linejoin:miter;stroke-opacity:1" d="M 235.408,185.634 244.141,181.268 z" id="boundary" inkscape:connector-curvature="0" />
	<path style="fill:none;stroke:red;stroke-width:1px;stroke-linecap:butt;stroke-linejoin:miter;stroke-opacity:1" d="M 235.408,908.676 243.268,913.042 z" id="boundary" inkscape:connector-curvature="0" />
	<path style="fill:none;stroke:red;stroke-width:1px;stroke-linecap:butt;stroke-linejoin:miter;stroke-opacity:1" d="M 243.268,913.042 251.127,917.408 z" id="boundary" inkscape:connector-curvature="0" />
	<path style="fill:none;stroke:red;stroke-width:1px;stroke-linecap:butt;stroke-linejoin:miter;stroke-opacity:1" d="M 244.141,181.268 252.873,176.901 z" id="boundary" inkscape:connector-curvature="0" />
	<path style="fill:none;stroke:red;stroke-width:1px;stroke-linecap:butt;stroke-linejoin:miter;stroke-opacity:1" d="M 251.127,917.408 258.986,921.775 z" id="boundary" inkscape:connector-curvature="0" />
	<path style="fill:none;stroke:red;stroke-width:1px;stroke-linecap:butt;stroke-linejoin:miter;stroke-opacity:1" d="M 252.873,176.901 261.606,172.535 z" id="boundary" inkscape:connector-curvature="0" />
	<path style="fill:none;stroke:red;stroke-width:1px;stroke-linecap:butt;stroke-linejoin:miter;stroke-opacity:1" d="M 258.986,921.775 266.845,926.141 z" id="boundary" inkscape:connector-curvature="0" />
	<path style="fill:none;stroke:red;stroke-width:1px;stroke-linecap:butt;stroke-linejoin:miter;stroke-opacity:1" d="M 261.606,172.535 270.338,169.915 z" id="boundary" inkscape:connector-curvature="0" />
	<path style="fill:none;stroke:red;stroke-width:1px;stroke-linecap:butt;stroke-linejoin:miter;stroke-opacity:1" d="M 266.845,926.141 275.577,927.887 z" id="boundary" inkscape:connector-curvature="0" />
	<path style="fill:none;stroke:red;stroke-width:1px;stroke-linecap:butt;stroke-linejoin:miter;stroke-opacity:1" d="M 270.338,169.915 278.197,165.549 z" id="boundary" inkscape:connector-curvature="0" />
	<path style="fill:none;stroke:red;stroke-width:1px;stroke-linecap:butt;stroke-linejoin:miter;stroke-opacity:1" d="M 275.577,927.887 284.31,930.507 z" id="boundary" inkscape:connector-curvature="0" />
	<path style="fill:none;stroke:red;stroke-width:1px;stroke-linecap:butt;stroke-linejoin:miter;stroke-opacity:1" d="M 278.197,165.549 286.93,165.549 z" id="boundary" inkscape:connector-curvature="0" />
	<path style="fill:none;stroke:red;stroke-width:1px;stroke-linecap:butt;stroke-linejoin:miter;stroke-opacity:1" d="M 284.31,930.507 292.169,934.873 z" id="boundary" inkscape:connector-curvature="0" />
	<path style="fill:none;stroke:red;stroke-width:1px;stroke-linecap:butt;stroke-linejoin:miter;stroke-opacity:1" d="M 286.93,165.549 294.789,161.183 z" id="boundary" inkscape:connector-curvature="0" />
	<path style="fill:none;stroke:red;stroke-width:1px;stroke-linecap:butt;stroke-linejoin:miter;stroke-opacity:1" d="M 292.169,934.873 300.028,939.239 z" id="boundary" inkscape:connector-curvature="0" />
	<path style="fill:none;stroke:red;stroke-width:1px;stroke-linecap:butt;stroke-linejoin:miter;stroke-opacity:1" d="M 294.789,161.183 302.648,156.817 z" id="boundary" inkscape:connector-curvature="0" />
	<path style="fill:none;stroke:red;stroke-width:1px;stroke-linecap:butt;stroke-linejoin:miter;stroke-opacity:1" d="M 300.028,939.239 308.761,939.239 z" id="boundary" inkscape:connector-curvature="0" />
	<path style="fill:none;stroke:red;stroke-width:1px;stroke-linecap:butt;stroke-linejoin:miter;stroke-opacity:1" d="M 302.648,156.817 311.38,156.817 z" id="boundary" inkscape:connector-curvature="0" />
	<path style="fill:none;stroke:red;stroke-width:1px;stroke-linecap:butt;stroke-linejoin:miter;stroke-opacity:1" d="M 308.761,939.239 316.62,943.606 z" id="boundary" inkscape:connector-curvature="0" />
	<path style="fill:none;stroke:red;stroke-width:1px;stroke-linecap:butt;stroke-linejoin:miter;stroke-opacity:1" d="M 311.38,156.817 319.239,152.451 z" id="boundary" inkscape:connector-curvature="0" />
	<path style="fill:none;stroke:red;stroke-width:1px;stroke-linecap:butt;stroke-linejoin:miter;stroke-opacity:1" d="M 316.62,943.606 325.352,943.606 z" id="boundary" inkscape:connector-curvature="0" />
	<path style="fill:none;stroke:red;stroke-width:1px;stroke-linecap:butt;stroke-linejoin:miter;stroke-opacity:1" d="M 319.239,152.451 327.972,149.831 z" id="boundary" inkscape:connector-curvature="0" />
	<path style="fill:none;stroke:red;stroke-width:1px;stroke-linecap:butt;stroke-linejoin:miter;stroke-opacity:1" d="M 325.352,943.606 333.211,947.972 z" id="boundary" inkscape:connector-curvature="0" />
	<path style="fill:none;stroke:red;stroke-width:1px;stroke-linecap:butt;stroke-linejoin:miter;stroke-opacity:1" d="M 327.972,149.831 336.704,148.085 z" id="boundary" inkscape:connector-curvature="0" />
	<path style="fill:none;stroke:red;stroke-width:1px;stroke-linecap:butt;stroke-linejoin:miter;stroke-opacity:1" d="M 333.211,947.972 341.944,947.972 z" id="boundary" inkscape:connector-curvature="0" />
	<path style="fill:none;stroke:red;stroke-width:1px;stroke-linecap:butt;stroke-linejoin:miter;stroke-opacity:1" d="M 336.704,148.085 345.437,145.465 z" id="boundary" inkscape:connector-curvature="0" />
	<path style="fill:none;stroke:red;stroke-width:1px;stroke-linecap:butt;stroke-linejoin:miter;stroke-opacity:1" d="M 341.944,947.972 349.803,952.338 z" id="boundary" inkscape:connector-curvature="0" />
	<path style="fill:none;stroke:red;stroke-width:1px;stroke-linecap:butt;stroke-linejoin:miter;stroke-opacity:1" d="M 345.437,145.465 354.169,143.718 z" id="boundary" inkscape:connector-curvature="0" />
	<path style="fill:none;stroke:red;stroke-width:1px;stroke-linecap:butt;stroke-linejoin:miter;stroke-opacity:1" d="M 349.803,952.338 358.535,952.338 z" id="boundary" inkscape:connector-curvature="0" />
	<path style="fill:none;stroke:red;stroke-width:1px;stroke-linecap:butt;stroke-linejoin:miter;stroke-opacity:1" d="M 354.169,143.718 362.901,143.718 z" id="boundary" inkscape:connector-curvature="0" />
	<path style="fill:none;stroke:red;stroke-width:1px;stroke-linecap:butt;stroke-linejoin:miter;stroke-opacity:1" d="M 358.535,952.338 367.268,954.085 z" id="boundary" inkscape:connector-curvature="0" />
	<path style="fill:none;stroke:red;stroke-width:1px;stroke-linecap:butt;stroke-linejoin:miter;stroke-opacity:1" d="M 362.901,143.718 370.761,139.352 z" id="boundary" inkscape:connector-curvature="0" />
	<path style="fill:none;stroke:red;stroke-width:1px;stroke-linecap:butt;stroke-linejoin:miter;stroke-opacity:1" d="M 367.268,954.085 376,956.704 z" id="boundary" inkscape:connector-curvature="0" />
	<path style="fill:none;stroke:red;stroke-width:1px;stroke-linecap:butt;stroke-linejoin:miter;stroke-opacity:1" d="M 370.761,139.352 379.493,139.352 z" id="boundary" inkscape:connector-curvature="0" />
	<path style="fill:none;stroke:red;stroke-width:1px;stroke-linecap:butt;stroke-linejoin:miter;stroke-opacity:1" d="M 376,956.704 384.732,956.704 z" id="boundary" inkscape:connector-curvature="0" />
	<path style="fill:none;stroke:red;stroke-width:1px;stroke-linecap:butt;stroke-linejoin:miter;stroke-opacity:1" d="M 379.493,139.352 388.225,139.352 z" id="boundary" inkscape:connector-curvature="0" />
	<path style="fill:none;stroke:red;stroke-width:1px;stroke-linecap:butt;stroke-linejoin:miter;stroke-opacity:1" d="M 384.732,956.704 393.465,956.704 z" id="boundary" inkscape:connector-curvature="0" />
	<path style="fill:none;stroke:red;stroke-width:1px;stroke-linecap:butt;stroke-linejoin:miter;stroke-opacity:1" d="M 388.225,139.352 396.958,139.352 z" id="boundary" inkscape:connector-curvature="0" />
	<path style="fill:none;stroke:red;stroke-width:1px;stroke-linecap:butt;stroke-linejoin:miter;stroke-opacity:1" d="M 393.465,956.704 402.197,958.451 z" id="boundary" inkscape:connector-curvature="0" />
	<path style="fill:none;stroke:red;stroke-width:1px;stroke-linecap:butt;stroke-linejoin:miter;stroke-opacity:1" d="M 396.958,139.352 404.817,134.986 z" id="boundary" inkscape:connector-curvature="0" />
	<path style="fill:none;stroke:red;stroke-width:1px;stroke-linecap:butt;stroke-linejoin:miter;stroke-opacity:1" d="M 402.197,958.451 410.93,961.07 z" id="boundary" inkscape:connector-curvature="0" />
	<path style="fill:none;stroke:red;stroke-width:1px;stroke-linecap:butt;stroke-linejoin:miter;stroke-opacity:1" d="M 404.817,134.986 413.549,134.986 z" id="boundary" inkscape:connector-curvature="0" />
	<path style="fill:none;stroke:red;stroke-width:1px;stroke-linecap:butt;stroke-linejoin:miter;stroke-opacity:1" d="M 410.93,961.07 419.662,961.07 z" id="boundary" inkscape:connector-curvature="0" />
	<path style="fill:none;stroke:red;stroke-width:1px;stroke-linecap:butt;stroke-linejoin:miter;stroke-opacity:1" d="M 413.549,134.986 422.282,134.986 z" id="boundary" inkscape:connector-curvature="0" />
	<path style="fill:none;stroke:red;stroke-width:1px;stroke-linecap:butt;stroke-linejoin:miter;stroke-opacity:1" d="M 419.662,961.07 428.394,961.07 z" id="boundary" inkscape:connector-curvature="0" />
	<path style="fill:none;stroke:red;stroke-width:1px;stroke-linecap:butt;stroke-linejoin:miter;stroke-opacity:1" d="M 422.282,134.986 431.014,134.986 z" id="boundary" inkscape:connector-curvature="0" />
	<path style="fill:none;stroke:red;stroke-width:1px;stroke-linecap:butt;stroke-linejoin:miter;stroke-opacity:1" d="M 428.394,961.07 437.127,961.07 z" id="boundary" inkscape:connector-curvature="0" />
	<path style="fill:none;stroke:red;stroke-width:1px;stroke-linecap:butt;stroke-linejoin:miter;stroke-opacity:1" d="M 431.014,134.986 439.746,134.986 z" id="boundary" inkscape:connector-curvature="0" />
	<path style="fill:none;stroke:red;stroke-width:1px;stroke-linecap:butt;stroke-linejoin:miter;stroke-opacity:1" d="M 437.127,961.07 445.859,961.07 z" id="boundary" inkscape:connector-curvature="0" />
	<path style="fill:none;stroke:red;stroke-width:1px;stroke-linecap:butt;stroke-linejoin:miter;stroke-opacity:1" d="M 439.746,134.986 448.479,134.986 z" id="boundary" inkscape:connector-curvature="0" />
	<path style="fill:none;stroke:red;stroke-width:1px;stroke-linecap:butt;stroke-linejoin:miter;stroke-opacity:1" d="M 445.859,961.07 454.592,961.07 z" id="boundary" inkscape:connector-curvature="0" />
	<path style="fill:none;stroke:red;stroke-width:1px;stroke-linecap:butt;stroke-linejoin:miter;stroke-opacity:1" d="M 448.479,134.986 457.211,134.986 z" id="boundary" inkscape:connector-curvature="0" />
	<path style="fill:none;stroke:red;stroke-width:1px;stroke-linecap:butt;stroke-linejoin:miter;stroke-opacity:1" d="M 454.592,961.07 463.324,961.07 z" id="boundary" inkscape:connector-curvature="0" />
	<path style="fill:none;stroke:red;stroke-width:1px;stroke-linecap:butt;stroke-linejoin:miter;stroke-opacity:1" d="M 457.211,134.986 465.944,134.986 z" id="boundary" inkscape:connector-curvature="0" />
	<path style="fill:none;stroke:red;stroke-width:1px;stroke-linecap:butt;stroke-linejoin:miter;stroke-opacity:1" d="M 462.451,19.7183 466.817,27.5775 z" id="boundary" inkscape:connector-curvature="0" />
	<path style="fill:none;stroke:red;stroke-width:1px;stroke-linecap:butt;stroke-linejoin:miter;stroke-opacity:1" d="M 463.324,961.07 472.056,961.07 z" id="boundary" inkscape:connector-curvature="0" />
	<path style="fill:none;stroke:red;stroke-width:1px;stroke-linecap:butt;stroke-linejoin:miter;stroke-opacity:1" d="M 465.944,134.986 474.676,134.986 z" id="boundary" inkscape:connector-curvature="0" />
	<path style="fill:none;stroke:red;stroke-width:1px;stroke-linecap:butt;stroke-linejoin:miter;stroke-opacity:1" d="M 466.817,27.5775 471.183,35.4366 z" id="boundary" inkscape:connector-curvature="0" />
	<path style="fill:none;stroke:red;stroke-width:1px;stroke-linecap:butt;stroke-linejoin:miter;stroke-opacity:1" d="M 471.183,35.4366 473.803,44.169 z" id="boundary" inkscape:connector-curvature="0" />
	<path style="fill:none;stroke:red;stroke-width:1px;stroke-linecap:butt;stroke-linejoin:miter;stroke-opacity:1" d="M 472.056,961.07 480.789,961.07 z" id="boundary" inkscape:connector-curvature="0" />
	<path style="fill:none;stroke:red;stroke-width:1px;stroke-linecap:butt;stroke-linejoin:miter;stroke-opacity:1" d="M 473.803,44.169 478.169,52.0282 z" id="boundary" inkscape:connector-curvature="0" />
	<path style="fill:none;stroke:red;stroke-width:1px;stroke-linecap:butt;stroke-linejoin:miter;stroke-opacity:1" d="M 474.676,134.986 483.408,134.986 z" id="boundary" inkscape:connector-curvature="0" />
	<path style="fill:none;stroke:red;stroke-width:1px;stroke-linecap:butt;stroke-linejoin:miter;stroke-opacity:1" d="M 478.169,52.0282 479.915,60.7606 z" id="boundary" inkscape:connector-curvature="0" />
	<path style="fill:none;stroke:red;stroke-width:1px;stroke-linecap:butt;stroke-linejoin:miter;stroke-opacity:1" d="M 479.915,60.7606 484.282,68.6197 z" id="boundary" inkscape:connector-curvature="0" />
	<path style="fill:none;stroke:red;stroke-width:1px;stroke-linecap:butt;stroke-linejoin:miter;stroke-opacity:1" d="M 480.789,961.07 489.521,961.07 z" id="boundary" inkscape:connector-curvature="0" />
	<path style="fill:none;stroke:red;stroke-width:1px;stroke-linecap:butt;stroke-linejoin:miter;stroke-opacity:1" d="M 483.408,134.986 492.141,134.986 z" id="boundary" inkscape:connector-curvature="0" />
	<path style="fill:none;stroke:red;stroke-width:1px;stroke-linecap:butt;stroke-linejoin:miter;stroke-opacity:1" d="M 484.282,68.6197 484.282,77.3521 z" id="boundary" inkscape:connector-curvature="0" />
	<path style="fill:none;stroke:red;stroke-width:1px;stroke-linecap:butt;stroke-linejoin:miter;stroke-opacity:1" d="M 484.282,77.3521 488.648,85.2113 z" id="boundary" inkscape:connector-curvature="0" />
	<path style="fill:none;stroke:red;stroke-width:1px;stroke-linecap:butt;stroke-linejoin:miter;stroke-opacity:1" d="M 488.648,85.2113 488.648,93.9437 z" id="boundary" inkscape:connector-curvature="0" />
	<path style="fill:none;stroke:red;stroke-width:1px;stroke-linecap:butt;stroke-linejoin:miter;stroke-opacity:1" d="M 488.648,93.9437 493.014,101.803 z" id="boundary" inkscape:connector-curvature="0" />
	<path style="fill:none;stroke:red;stroke-width:1px;stroke-linecap:butt;stroke-linejoin:miter;stroke-opacity:1" d="M 489.521,961.07 497.38,956.704 z" id="boundary" inkscape:connector-curvature="0" />
	<path style="fill:none;stroke:red;stroke-width:1px;stroke-linecap:butt;stroke-linejoin:miter;stroke-opacity:1" d="M 492.141,134.986 493.014,119.268 z" id="boundary" inkscape:connector-curvature="0" />
	<path style="fill:none;stroke:red;stroke-width:1px;stroke-linecap:butt;stroke-linejoin:miter;stroke-opacity:1" d="M 493.014,101.803 493.014,110.535 z" id="boundary" inkscape:connector-curvature="0" />
	<path style="fill:none;stroke:red;stroke-width:1px;stroke-linecap:butt;stroke-linejoin:miter;stroke-opacity:1" d="M 493.014,110.535 493.014,119.268 z" id="boundary" inkscape:connector-curvature="0" />
	<path style="fill:none;stroke:red;stroke-width:1px;stroke-linecap:butt;stroke-linejoin:miter;stroke-opacity:1" d="M 493.887,28.4507 498.254,36.3099 z" id="boundary" inkscape:connector-curvature="0" />
	<path style="fill:none;stroke:red;stroke-width:1px;stroke-linecap:butt;stroke-linejoin:miter;stroke-opacity:1" d="M 497.38,956.704 506.113,956.704 z" id="boundary" inkscape:connector-curvature="0" />
	<path style="fill:none;stroke:red;stroke-width:1px;stroke-linecap:butt;stroke-linejoin:miter;stroke-opacity:1" d="M 498.254,36.3099 502.62,44.169 z" id="boundary" inkscape:connector-curvature="0" />
	<path style="fill:none;stroke:red;stroke-width:1px;stroke-linecap:butt;stroke-linejoin:miter;stroke-opacity:1" d="M 502.62,44.169 502.62,52.9014 z" id="boundary" inkscape:connector-curvature="0" />
	<path style="fill:none;stroke:red;stroke-width:1px;stroke-linecap:butt;stroke-linejoin:miter;stroke-opacity:1" d="M 502.62,52.9014 506.986,60.7606 z" id="boundary" inkscape:connector-curvature="0" />
	<path style="fill:none;stroke:red;stroke-width:1px;stroke-linecap:butt;stroke-linejoin:miter;stroke-opacity:1" d="M 506.113,956.704 514.845,956.704 z" id="boundary" inkscape:connector-curvature="0" />
	<path style="fill:none;stroke:red;stroke-width:1px;stroke-linecap:butt;stroke-linejoin:miter;stroke-opacity:1" d="M 506.986,60.7606 511.352,68.6197 z" id="boundary" inkscape:connector-curvature="0" />
	<path style="fill:none;stroke:red;stroke-width:1px;stroke-linecap:butt;stroke-linejoin:miter;stroke-opacity:1" d="M 511.352,68.6197 511.352,77.3521 z" id="boundary" inkscape:connector-curvature="0" />
	<path style="fill:none;stroke:red;stroke-width:1px;stroke-linecap:butt;stroke-linejoin:miter;stroke-opacity:1" d="M 511.352,77.3521 515.718,85.2113 z" id="boundary" inkscape:connector-curvature="0" />
	<path style="fill:none;stroke:red;stroke-width:1px;stroke-linecap:butt;stroke-linejoin:miter;stroke-opacity:1" d="M 514.845,956.704 523.577,956.704 z" id="boundary" inkscape:connector-curvature="0" />
	<path style="fill:none;stroke:red;stroke-width:1px;stroke-linecap:butt;stroke-linejoin:miter;stroke-opacity:1" d="M 515.718,85.2113 515.718,93.9437 z" id="boundary" inkscape:connector-curvature="0" />
	<path style="fill:none;stroke:red;stroke-width:1px;stroke-linecap:butt;stroke-linejoin:miter;stroke-opacity:1" d="M 515.718,93.9437 515.718,102.676 z" id="boundary" inkscape:connector-curvature="0" />
	<path style="fill:none;stroke:red;stroke-width:1px;stroke-linecap:butt;stroke-linejoin:miter;stroke-opacity:1" d="M 515.718,102.676 520.085,110.535 z" id="boundary" inkscape:connector-curvature="0" />
	<path style="fill:none;stroke:red;stroke-width:1px;stroke-linecap:butt;stroke-linejoin:miter;stroke-opacity:1" d="M 520.085,110.535 525.324,117.521 z" id="boundary" inkscape:connector-curvature="0" />
	<path style="fill:none;stroke:red;stroke-width:1px;stroke-linecap:butt;stroke-linejoin:miter;stroke-opacity:1" d="M 523.577,956.704 531.437,961.07 z" id="boundary" inkscape:connector-curvature="0" />
	<path style="fill:none;stroke:red;stroke-width:1px;stroke-linecap:butt;stroke-linejoin:miter;stroke-opacity:1" d="M 525.324,117.521 532.31,107.042 z" id="boundary" inkscape:connector-curvature="0" />
	<path style="fill:none;stroke:red;stroke-width:1px;stroke-linecap:butt;stroke-linejoin:miter;stroke-opacity:1" d="M 531.437,961.07 540.169,961.07 z" id="boundary" inkscape:connector-curvature="0" />
	<path style="fill:none;stroke:red;stroke-width:1px;stroke-linecap:butt;stroke-linejoin:miter;stroke-opacity:1" d="M 532.31,107.042 536.676,98.3099 z" id="boundary" inkscape:connector-curvature="0" />
	<path style="fill:none;stroke:red;stroke-width:1px;stroke-linecap:butt;stroke-linejoin:miter;stroke-opacity:1" d="M 536.676,80.8451 536.676,89.5775 z" id="boundary" inkscape:connector-curvature="0" />
	<path style="fill:none;stroke:red;stroke-width:1px;stroke-linecap:butt;stroke-linejoin:miter;stroke-opacity:1" d="M 536.676,80.8451 541.042,67.7465 z" id="boundary" inkscape:connector-curvature="0" />
	<path style="fill:none;stroke:red;stroke-width:1px;stroke-linecap:butt;stroke-linejoin:miter;stroke-opacity:1" d="M 536.676,89.5775 536.676,98.3099 z" id="boundary" inkscape:connector-curvature="0" />
	<path style="fill:none;stroke:red;stroke-width:1px;stroke-linecap:butt;stroke-linejoin:miter;stroke-opacity:1" d="M 540.169,961.07 548.901,961.07 z" id="boundary" inkscape:connector-curvature="0" />
	<path style="fill:none;stroke:red;stroke-width:1px;stroke-linecap:butt;stroke-linejoin:miter;stroke-opacity:1" d="M 541.042,67.7465 545.408,59.0141 z" id="boundary" inkscape:connector-curvature="0" />
	<path style="fill:none;stroke:red;stroke-width:1px;stroke-linecap:butt;stroke-linejoin:miter;stroke-opacity:1" d="M 541.915,122.761 541.915,131.493 z" id="boundary" inkscape:connector-curvature="0" />
	<path style="fill:none;stroke:red;stroke-width:1px;stroke-linecap:butt;stroke-linejoin:miter;stroke-opacity:1" d="M 541.915,122.761 550.648,122.761 z" id="boundary" inkscape:connector-curvature="0" />
	<path style="fill:none;stroke:red;stroke-width:1px;stroke-linecap:butt;stroke-linejoin:miter;stroke-opacity:1" d="M 541.915,131.493 550.648,134.986 z" id="boundary" inkscape:connector-curvature="0" />
	<path style="fill:none;stroke:red;stroke-width:1px;stroke-linecap:butt;stroke-linejoin:miter;stroke-opacity:1" d="M 545.408,59.0141 549.775,50.2817 z" id="boundary" inkscape:connector-curvature="0" />
	<path style="fill:none;stroke:red;stroke-width:1px;stroke-linecap:butt;stroke-linejoin:miter;stroke-opacity:1" d="M 548.901,961.07 557.634,961.07 z" id="boundary" inkscape:connector-curvature="0" />
	<path style="fill:none;stroke:red;stroke-width:1px;stroke-linecap:butt;stroke-linejoin:miter;stroke-opacity:1" d="M 549.775,50.2817 556.761,43.2958 z" id="boundary" inkscape:connector-curvature="0" />
	<path style="fill:none;stroke:red;stroke-width:1px;stroke-linecap:butt;stroke-linejoin:miter;stroke-opacity:1" d="M 550.648,122.761 557.634,116.648 z" id="boundary" inkscape:connector-curvature="0" />
	<path style="fill:none;stroke:red;stroke-width:1px;stroke-linecap:butt;stroke-linejoin:miter;stroke-opacity:1" d="M 550.648,134.986 559.38,134.986 z" id="boundary" inkscape:connector-curvature="0" />
	<path style="fill:none;stroke:red;stroke-width:1px;stroke-linecap:butt;stroke-linejoin:miter;stroke-opacity:1" d="M 556.761,43.2958 561.127,34.5634 z" id="boundary" inkscape:connector-curvature="0" />
	<path style="fill:none;stroke:red;stroke-width:1px;stroke-linecap:butt;stroke-linejoin:miter;stroke-opacity:1" d="M 557.634,116.648 566.366,114.028 z" id="boundary" inkscape:connector-curvature="0" />
	<path style="fill:none;stroke:red;stroke-width:1px;stroke-linecap:butt;stroke-linejoin:miter;stroke-opacity:1" d="M 557.634,961.07 566.366,961.07 z" id="boundary" inkscape:connector-curvature="0" />
	<path style="fill:none;stroke:red;stroke-width:1px;stroke-linecap:butt;stroke-linejoin:miter;stroke-opacity:1" d="M 559.38,134.986 568.113,134.986 z" id="boundary" inkscape:connector-curvature="0" />
	<path style="fill:none;stroke:red;stroke-width:1px;stroke-linecap:butt;stroke-linejoin:miter;stroke-opacity:1" d="M 561.127,34.5634 568.113,27.5775 z" id="boundary" inkscape:connector-curvature="0" />
	<path style="fill:none;stroke:red;stroke-width:1px;stroke-linecap:butt;stroke-linejoin:miter;stroke-opacity:1" d="M 566.366,114.028 575.099,112.282 z" id="boundary" inkscape:connector-curvature="0" />
	<path style="fill:none;stroke:red;stroke-width:1px;stroke-linecap:butt;stroke-linejoin:miter;stroke-opacity:1" d="M 566.366,961.07 575.099,961.07 z" id="boundary" inkscape:connector-curvature="0" />
	<path style="fill:none;stroke:red;stroke-width:1px;stroke-linecap:butt;stroke-linejoin:miter;stroke-opacity:1" d="M 568.113,27.5775 575.099,21.4648 z" id="boundary" inkscape:connector-curvature="0" />
	<path style="fill:none;stroke:red;stroke-width:1px;stroke-linecap:butt;stroke-linejoin:miter;stroke-opacity:1" d="M 568.113,134.986 576.845,134.986 z" id="boundary" inkscape:connector-curvature="0" />
	<path style="fill:none;stroke:red;stroke-width:1px;stroke-linecap:butt;stroke-linejoin:miter;stroke-opacity:1" d="M 575.099,21.4648 582.958,17.0986 z" id="boundary" inkscape:connector-curvature="0" />
	<path style="fill:none;stroke:red;stroke-width:1px;stroke-linecap:butt;stroke-linejoin:miter;stroke-opacity:1" d="M 575.099,112.282 583.831,107.915 z" id="boundary" inkscape:connector-curvature="0" />
	<path style="fill:none;stroke:red;stroke-width:1px;stroke-linecap:butt;stroke-linejoin:miter;stroke-opacity:1" d="M 575.099,961.07 583.831,961.07 z" id="boundary" inkscape:connector-curvature="0" />
	<path style="fill:none;stroke:red;stroke-width:1px;stroke-linecap:butt;stroke-linejoin:miter;stroke-opacity:1" d="M 576.845,134.986 585.577,134.986 z" id="boundary" inkscape:connector-curvature="0" />
	<path style="fill:none;stroke:red;stroke-width:1px;stroke-linecap:butt;stroke-linejoin:miter;stroke-opacity:1" d="M 582.958,17.0986 591.69,12.7324 z" id="boundary" inkscape:connector-curvature="0" />
	<path style="fill:none;stroke:red;stroke-width:1px;stroke-linecap:butt;stroke-linejoin:miter;stroke-opacity:1" d="M 583.831,107.915 588.197,99.1831 z" id="boundary" inkscape:connector-curvature="0" />
	<path style="fill:none;stroke:red;stroke-width:1px;stroke-linecap:butt;stroke-linejoin:miter;stroke-opacity:1" d="M 583.831,961.07 592.563,961.07 z" id="boundary" inkscape:connector-curvature="0" />
	<path style="fill:none;stroke:red;stroke-width:1px;stroke-linecap:butt;stroke-linejoin:miter;stroke-opacity:1" d="M 585.577,134.986 594.31,134.986 z" id="boundary" inkscape:connector-curvature="0" />
	<path style="fill:none;stroke:red;stroke-width:1px;stroke-linecap:butt;stroke-linejoin:miter;stroke-opacity:1" d="M 588.197,99.1831 596.93,96.5634 z" id="boundary" inkscape:connector-curvature="0" />
	<path style="fill:none;stroke:red;stroke-width:1px;stroke-linecap:butt;stroke-linejoin:miter;stroke-opacity:1" d="M 591.69,12.7324 600.423,8.3662 z" id="boundary" inkscape:connector-curvature="0" />
	<path style="fill:none;stroke:red;stroke-width:1px;stroke-linecap:butt;stroke-linejoin:miter;stroke-opacity:1" d="M 592.563,961.07 601.296,961.07 z" id="boundary" inkscape:connector-curvature="0" />
	<path style="fill:none;stroke:red;stroke-width:1px;stroke-linecap:butt;stroke-linejoin:miter;stroke-opacity:1" d="M 594.31,134.986 603.042,134.986 z" id="boundary" inkscape:connector-curvature="0" />
	<path style="fill:none;stroke:red;stroke-width:1px;stroke-linecap:butt;stroke-linejoin:miter;stroke-opacity:1" d="M 596.93,96.5634 604.789,91.3239 z" id="boundary" inkscape:connector-curvature="0" />
	<path style="fill:none;stroke:red;stroke-width:1px;stroke-linecap:butt;stroke-linejoin:miter;stroke-opacity:1" d="M 600.423,8.3662 609.155,8.3662 z" id="boundary" inkscape:connector-curvature="0" />
	<path style="fill:none;stroke:red;stroke-width:1px;stroke-linecap:butt;stroke-linejoin:miter;stroke-opacity:1" d="M 601.296,961.07 610.028,961.07 z" id="boundary" inkscape:connector-curvature="0" />
	<path style="fill:none;stroke:red;stroke-width:1px;stroke-linecap:butt;stroke-linejoin:miter;stroke-opacity:1" d="M 603.042,134.986 611.775,134.986 z" id="boundary" inkscape:connector-curvature="0" />
	<path style="fill:none;stroke:red;stroke-width:1px;stroke-linecap:butt;stroke-linejoin:miter;stroke-opacity:1" d="M 604.789,91.3239 613.521,86.9577 z" id="boundary" inkscape:connector-curvature="0" />
	<path style="fill:none;stroke:red;stroke-width:1px;stroke-linecap:butt;stroke-linejoin:miter;stroke-opacity:1" d="M 609.155,8.3662 617.887,8.3662 z" id="boundary" inkscape:connector-curvature="0" />
	<path style="fill:none;stroke:red;stroke-width:1px;stroke-linecap:butt;stroke-linejoin:miter;stroke-opacity:1" d="M 610.028,961.07 617.887,956.704 z" id="boundary" inkscape:connector-curvature="0" />
	<path style="fill:none;stroke:red;stroke-width:1px;stroke-linecap:butt;stroke-linejoin:miter;stroke-opacity:1" d="M 611.775,134.986 619.634,139.352 z" id="boundary" inkscape:connector-curvature="0" />
	<path style="fill:none;stroke:red;stroke-width:1px;stroke-linecap:butt;stroke-linejoin:miter;stroke-opacity:1" d="M 613.521,86.9577 622.254,82.5915 z" id="boundary" inkscape:connector-curvature="0" />
	<path style="fill:none;stroke:red;stroke-width:1px;stroke-linecap:butt;stroke-linejoin:miter;stroke-opacity:1" d="M 617.887,8.3662 625.746,4 z" id="boundary" inkscape:connector-curvature="0" />
	<path style="fill:none;stroke:red;stroke-width:1px;stroke-linecap:butt;stroke-linejoin:miter;stroke-opacity:1" d="M 617.887,956.704 626.62,956.704 z" id="boundary" inkscape:connector-curvature="0" />
	<path style="fill:none;stroke:red;stroke-width:1px;stroke-linecap:butt;stroke-linejoin:miter;stroke-opacity:1" d="M 619.634,139.352 628.366,139.352 z" id="boundary" inkscape:connector-curvature="0" />
	<path style="fill:none;stroke:red;stroke-width:1px;stroke-linecap:butt;stroke-linejoin:miter;stroke-opacity:1" d="M 622.254,82.5915 629.239,74.7324 z" id="boundary" inkscape:connector-curvature="0" />
	<path style="fill:none;stroke:red;stroke-width:1px;stroke-linecap:butt;stroke-linejoin:miter;stroke-opacity:1" d="M 625.746,4 634.479,4 z" id="boundary" inkscape:connector-curvature="0" />
	<path style="fill:none;stroke:red;stroke-width:1px;stroke-linecap:butt;stroke-linejoin:miter;stroke-opacity:1" d="M 626.62,956.704 635.352,956.704 z" id="boundary" inkscape:connector-curvature="0" />
	<path style="fill:none;stroke:red;stroke-width:1px;stroke-linecap:butt;stroke-linejoin:miter;stroke-opacity:1" d="M 628.366,139.352 637.099,139.352 z" id="boundary" inkscape:connector-curvature="0" />
	<path style="fill:none;stroke:red;stroke-width:1px;stroke-linecap:butt;stroke-linejoin:miter;stroke-opacity:1" d="M 629.239,74.7324 636.225,68.6197 z" id="boundary" inkscape:connector-curvature="0" />
	<path style="fill:none;stroke:red;stroke-width:1px;stroke-linecap:butt;stroke-linejoin:miter;stroke-opacity:1" d="M 634.479,4 643.211,4 z" id="boundary" inkscape:connector-curvature="0" />
	<path style="fill:none;stroke:red;stroke-width:1px;stroke-linecap:butt;stroke-linejoin:miter;stroke-opacity:1" d="M 635.352,956.704 644.085,955.831 z" id="boundary" inkscape:connector-curvature="0" />
	<path style="fill:none;stroke:red;stroke-width:1px;stroke-linecap:butt;stroke-linejoin:miter;stroke-opacity:1" d="M 636.225,68.6197 644.958,64.2535 z" id="boundary" inkscape:connector-curvature="0" />
	<path style="fill:none;stroke:red;stroke-width:1px;stroke-linecap:butt;stroke-linejoin:miter;stroke-opacity:1" d="M 637.099,139.352 645.831,141.099 z" id="boundary" inkscape:connector-curvature="0" />
	<path style="fill:none;stroke:red;stroke-width:1px;stroke-linecap:butt;stroke-linejoin:miter;stroke-opacity:1" d="M 643.211,4 651.944,4 z" id="boundary" inkscape:connector-curvature="0" />
	<path style="fill:none;stroke:red;stroke-width:1px;stroke-linecap:butt;stroke-linejoin:miter;stroke-opacity:1" d="M 644.085,955.831 652.817,952.338 z" id="boundary" inkscape:connector-curvature="0" />
	<path style="fill:none;stroke:red;stroke-width:1px;stroke-linecap:butt;stroke-linejoin:miter;stroke-opacity:1" d="M 644.958,64.2535 651.07,57.2676 z" id="boundary" inkscape:connector-curvature="0" />
	<path style="fill:none;stroke:red;stroke-width:1px;stroke-linecap:butt;stroke-linejoin:miter;stroke-opacity:1" d="M 645.831,141.099 654.563,143.718 z" id="boundary" inkscape:connector-curvature="0" />
	<path style="fill:none;stroke:red;stroke-width:1px;stroke-linecap:butt;stroke-linejoin:miter;stroke-opacity:1" d="M 651.07,57.2676 658.056,51.1549 z" id="boundary" inkscape:connector-curvature="0" />
	<path style="fill:none;stroke:red;stroke-width:1px;stroke-linecap:butt;stroke-linejoin:miter;stroke-opacity:1" d="M 651.944,4 660.676,4 z" id="boundary" inkscape:connector-curvature="0" />
	<path style="fill:none;stroke:red;stroke-width:1px;stroke-linecap:butt;stroke-linejoin:miter;stroke-opacity:1" d="M 652.817,952.338 661.549,952.338 z" id="boundary" inkscape:connector-curvature="0" />
	<path style="fill:none;stroke:red;stroke-width:1px;stroke-linecap:butt;stroke-linejoin:miter;stroke-opacity:1" d="M 654.563,143.718 663.296,143.718 z" id="boundary" inkscape:connector-curvature="0" />
	<path style="fill:none;stroke:red;stroke-width:1px;stroke-linecap:butt;stroke-linejoin:miter;stroke-opacity:1" d="M 660.676,4 669.408,4 z" id="boundary" inkscape:connector-curvature="0" />
	<path style="fill:none;stroke:red;stroke-width:1px;stroke-linecap:butt;stroke-linejoin:miter;stroke-opacity:1" d="M 661.549,952.338 669.408,947.972 z" id="boundary" inkscape:connector-curvature="0" />
	<path style="fill:none;stroke:red;stroke-width:1px;stroke-linecap:butt;stroke-linejoin:miter;stroke-opacity:1" d="M 663.296,143.718 671.155,148.085 z" id="boundary" inkscape:connector-curvature="0" />
	<path style="fill:none;stroke:red;stroke-width:1px;stroke-linecap:butt;stroke-linejoin:miter;stroke-opacity:1" d="M 668.535,35.4366 672.901,26.7042 z" id="boundary" inkscape:connector-curvature="0" />
	<path style="fill:none;stroke:red;stroke-width:1px;stroke-linecap:butt;stroke-linejoin:miter;stroke-opacity:1" d="M 669.408,4 677.268,8.3662 z" id="boundary" inkscape:connector-curvature="0" />
	<path style="fill:none;stroke:red;stroke-width:1px;stroke-linecap:butt;stroke-linejoin:miter;stroke-opacity:1" d="M 669.408,947.972 678.141,947.972 z" id="boundary" inkscape:connector-curvature="0" />
	<path style="fill:none;stroke:red;stroke-width:1px;stroke-linecap:butt;stroke-linejoin:miter;stroke-opacity:1" d="M 671.155,148.085 679.887,148.085 z" id="boundary" inkscape:connector-curvature="0" />
	<path style="fill:none;stroke:red;stroke-width:1px;stroke-linecap:butt;stroke-linejoin:miter;stroke-opacity:1" d="M 672.901,26.7042 677.268,17.0986 z" id="boundary" inkscape:connector-curvature="0" />
	<path style="fill:none;stroke:red;stroke-width:1px;stroke-linecap:butt;stroke-linejoin:miter;stroke-opacity:1" d="M 677.268,8.3662 677.268,17.0986 z" id="boundary" inkscape:connector-curvature="0" />
	<path style="fill:none;stroke:red;stroke-width:1px;stroke-linecap:butt;stroke-linejoin:miter;stroke-opacity:1" d="M 678.141,947.972 686,943.606 z" id="boundary" inkscape:connector-curvature="0" />
	<path style="fill:none;stroke:red;stroke-width:1px;stroke-linecap:butt;stroke-linejoin:miter;stroke-opacity:1" d="M 679.887,148.085 687.746,152.451 z" id="boundary" inkscape:connector-curvature="0" />
	<path style="fill:none;stroke:red;stroke-width:1px;stroke-linecap:butt;stroke-linejoin:miter;stroke-opacity:1" d="M 686,943.606 694.732,943.606 z" id="boundary" inkscape:connector-curvature="0" />
	<path style="fill:none;stroke:red;stroke-width:1px;stroke-linecap:butt;stroke-linejoin:miter;stroke-opacity:1" d="M 687.746,152.451 696.479,152.451 z" id="boundary" inkscape:connector-curvature="0" />
	<path style="fill:none;stroke:red;stroke-width:1px;stroke-linecap:butt;stroke-linejoin:miter;stroke-opacity:1" d="M 694.732,943.606 702.592,939.239 z" id="boundary" inkscape:connector-curvature="0" />
	<path style="fill:none;stroke:red;stroke-width:1px;stroke-linecap:butt;stroke-linejoin:miter;stroke-opacity:1" d="M 696.479,152.451 704.338,156.817 z" id="boundary" inkscape:connector-curvature="0" />
	<path style="fill:none;stroke:red;stroke-width:1px;stroke-linecap:butt;stroke-linejoin:miter;stroke-opacity:1" d="M 702.592,939.239 711.324,936.62 z" id="boundary" inkscape:connector-curvature="0" />
	<path style="fill:none;stroke:red;stroke-width:1px;stroke-linecap:butt;stroke-linejoin:miter;stroke-opacity:1" d="M 704.338,156.817 712.197,161.183 z" id="boundary" inkscape:connector-curvature="0" />
	<path style="fill:none;stroke:red;stroke-width:1px;stroke-linecap:butt;stroke-linejoin:miter;stroke-opacity:1" d="M 711.324,936.62 720.056,934.873 z" id="boundary" inkscape:connector-curvature="0" />
	<path style="fill:none;stroke:red;stroke-width:1px;stroke-linecap:butt;stroke-linejoin:miter;stroke-opacity:1" d="M 712.197,161.183 720.93,161.183 z" id="boundary" inkscape:connector-curvature="0" />
	<path style="fill:none;stroke:red;stroke-width:1px;stroke-linecap:butt;stroke-linejoin:miter;stroke-opacity:1" d="M 720.056,934.873 727.915,930.507 z" id="boundary" inkscape:connector-curvature="0" />
	<path style="fill:none;stroke:red;stroke-width:1px;stroke-linecap:butt;stroke-linejoin:miter;stroke-opacity:1" d="M 720.93,161.183 728.789,165.549 z" id="boundary" inkscape:connector-curvature="0" />
	<path style="fill:none;stroke:red;stroke-width:1px;stroke-linecap:butt;stroke-linejoin:miter;stroke-opacity:1" d="M 727.915,930.507 736.648,928.761 z" id="boundary" inkscape:connector-curvature="0" />
	<path style="fill:none;stroke:red;stroke-width:1px;stroke-linecap:butt;stroke-linejoin:miter;stroke-opacity:1" d="M 728.789,165.549 737.521,167.296 z" id="boundary" inkscape:connector-curvature="0" />
	<path style="fill:none;stroke:red;stroke-width:1px;stroke-linecap:butt;stroke-linejoin:miter;stroke-opacity:1" d="M 736.648,928.761 745.38,924.394 z" id="boundary" inkscape:connector-curvature="0" />
	<path style="fill:none;stroke:red;stroke-width:1px;stroke-linecap:butt;stroke-linejoin:miter;stroke-opacity:1" d="M 737.521,167.296 745.38,171.662 z" id="boundary" inkscape:connector-curvature="0" />
	<path style="fill:none;stroke:red;stroke-width:1px;stroke-linecap:butt;stroke-linejoin:miter;stroke-opacity:1" d="M 745.38,171.662 754.113,175.155 z" id="boundary" inkscape:connector-curvature="0" />
	<path style="fill:none;stroke:red;stroke-width:1px;stroke-linecap:butt;stroke-linejoin:miter;stroke-opacity:1" d="M 745.38,924.394 754.113,920.028 z" id="boundary" inkscape:connector-curvature="0" />
	<path style="fill:none;stroke:red;stroke-width:1px;stroke-linecap:butt;stroke-linejoin:miter;stroke-opacity:1" d="M 754.113,175.155 761.972,179.521 z" id="boundary" inkscape:connector-curvature="0" />
	<path style="fill:none;stroke:red;stroke-width:1px;stroke-linecap:butt;stroke-linejoin:miter;stroke-opacity:1" d="M 754.113,920.028 762.845,915.662 z" id="boundary" inkscape:connector-curvature="0" />
	<path style="fill:none;stroke:red;stroke-width:1px;stroke-linecap:butt;stroke-linejoin:miter;stroke-opacity:1" d="M 761.972,179.521 770.704,183.014 z" id="boundary" inkscape:connector-curvature="0" />
	<path style="fill:none;stroke:red;stroke-width:1px;stroke-linecap:butt;stroke-linejoin:miter;stroke-opacity:1" d="M 762.845,915.662 771.577,911.296 z" id="boundary" inkscape:connector-curvature="0" />
	<path style="fill:none;stroke:red;stroke-width:1px;stroke-linecap:butt;stroke-linejoin:miter;stroke-opacity:1" d="M 770.704,183.014 778.563,187.38 z" id="boundary" inkscape:connector-curvature="0" />
	<path style="fill:none;stroke:red;stroke-width:1px;stroke-linecap:butt;stroke-linejoin:miter;stroke-opacity:1" d="M 771.577,911.296 780.31,906.93 z" id="boundary" inkscape:connector-curvature="0" />
	<path style="fill:none;stroke:red;stroke-width:1px;stroke-linecap:butt;stroke-linejoin:miter;stroke-opacity:1" d="M 778.563,187.38 786.423,191.746 z" id="boundary" inkscape:connector-curvature="0" />
	<path style="fill:none;stroke:red;stroke-width:1px;stroke-linecap:butt;stroke-linejoin:miter;stroke-opacity:1" d="M 780.31,906.93 789.042,902.563 z" id="boundary" inkscape:connector-curvature="0" />
	<path style="fill:none;stroke:red;stroke-width:1px;stroke-linecap:butt;stroke-linejoin:miter;stroke-opacity:1" d="M 789.042,902.563 803.887,891.211 z" id="boundary" inkscape:connector-curvature="0" />
	<path style="fill:none;stroke:red;stroke-width:1px;stroke-linecap:butt;stroke-linejoin:miter;stroke-opacity:1" d="M 801.268,201.352 810,204.845 z" id="boundary" inkscape:connector-curvature="0" />
	<path style="fill:none;stroke:red;stroke-width:1px;stroke-linecap:butt;stroke-linejoin:miter;stroke-opacity:1" d="M 803.887,891.211 812.62,886.845 z" id="boundary" inkscape:connector-curvature="0" />
	<path style="fill:none;stroke:red;stroke-width:1px;stroke-linecap:butt;stroke-linejoin:miter;stroke-opacity:1" d="M 810,204.845 823.099,217.944 z" id="boundary" inkscape:connector-curvature="0" />
	<path style="fill:none;stroke:red;stroke-width:1px;stroke-linecap:butt;stroke-linejoin:miter;stroke-opacity:1" d="M 812.62,886.845 819.606,880.732 z" id="boundary" inkscape:connector-curvature="0" />
	<path style="fill:none;stroke:red;stroke-width:1px;stroke-linecap:butt;stroke-linejoin:miter;stroke-opacity:1" d="M 819.606,880.732 828.338,876.366 z" id="boundary" inkscape:connector-curvature="0" />
	<path style="fill:none;stroke:red;stroke-width:1px;stroke-linecap:butt;stroke-linejoin:miter;stroke-opacity:1" d="M 823.099,217.944 830.958,222.31 z" id="boundary" inkscape:connector-curvature="0" />
	<path style="fill:none;stroke:red;stroke-width:1px;stroke-linecap:butt;stroke-linejoin:miter;stroke-opacity:1" d="M 828.338,876.366 842.31,865.014 z" id="boundary" inkscape:connector-curvature="0" />
	<path style="fill:none;stroke:red;stroke-width:1px;stroke-linecap:butt;stroke-linejoin:miter;stroke-opacity:1" d="M 830.958,222.31 837.944,228.423 z" id="boundary" inkscape:connector-curvature="0" />
	<path style="fill:none;stroke:red;stroke-width:1px;stroke-linecap:butt;stroke-linejoin:miter;stroke-opacity:1" d="M 837.944,228.423 845.803,232.789 z" id="boundary" inkscape:connector-curvature="0" />
	<path style="fill:none;stroke:red;stroke-width:1px;stroke-linecap:butt;stroke-linejoin:miter;stroke-opacity:1" d="M 842.31,865.014 849.296,859.775 z" id="boundary" inkscape:connector-curvature="0" />
	<path style="fill:none;stroke:red;stroke-width:1px;stroke-linecap:butt;stroke-linejoin:miter;stroke-opacity:1" d="M 845.803,232.789 851.915,239.775 z" id="boundary" inkscape:connector-curvature="0" />
	<path style="fill:none;stroke:red;stroke-width:1px;stroke-linecap:butt;stroke-linejoin:miter;stroke-opacity:1" d="M 849.296,859.775 856.282,851.915 z" id="boundary" inkscape:connector-curvature="0" />
	<path style="fill:none;stroke:red;stroke-width:1px;stroke-linecap:butt;stroke-linejoin:miter;stroke-opacity:1" d="M 851.915,239.775 858.901,245.014 z" id="boundary" inkscape:connector-curvature="0" />
	<path style="fill:none;stroke:red;stroke-width:1px;stroke-linecap:butt;stroke-linejoin:miter;stroke-opacity:1" d="M 856.282,851.915 869.38,838.817 z" id="boundary" inkscape:connector-curvature="0" />
	<path style="fill:none;stroke:red;stroke-width:1px;stroke-linecap:butt;stroke-linejoin:miter;stroke-opacity:1" d="M 858.901,245.014 865.014,252 z" id="boundary" inkscape:connector-curvature="0" />
	<path style="fill:none;stroke:red;stroke-width:1px;stroke-linecap:butt;stroke-linejoin:miter;stroke-opacity:1" d="M 865.014,252 872,258.113 z" id="boundary" inkscape:connector-curvature="0" />
	<path style="fill:none;stroke:red;stroke-width:1px;stroke-linecap:butt;stroke-linejoin:miter;stroke-opacity:1" d="M 869.38,838.817 876.366,832.704 z" id="boundary" inkscape:connector-curvature="0" />
	<path style="fill:none;stroke:red;stroke-width:1px;stroke-linecap:butt;stroke-linejoin:miter;stroke-opacity:1" d="M 872,258.113 878.113,265.099 z" id="boundary" inkscape:connector-curvature="0" />
	<path style="fill:none;stroke:red;stroke-width:1px;stroke-linecap:butt;stroke-linejoin:miter;stroke-opacity:1" d="M 876.366,832.704 882.479,825.718 z" id="boundary" inkscape:connector-curvature="0" />
	<path style="fill:none;stroke:red;stroke-width:1px;stroke-linecap:butt;stroke-linejoin:miter;stroke-opacity:1" d="M 878.113,265.099 891.211,278.197 z" id="boundary" inkscape:connector-curvature="0" />
	<path style="fill:none;stroke:red;stroke-width:1px;stroke-linecap:butt;stroke-linejoin:miter;stroke-opacity:1" d="M 891.211,278.197 898.197,284.31 z" id="boundary" inkscape:connector-curvature="0" />
	<path style="fill:none;stroke:red;stroke-width:1px;stroke-linecap:butt;stroke-linejoin:miter;stroke-opacity:1" d="M 895.577,812.62 902.563,806.507 z" id="boundary" inkscape:connector-curvature="0" />
	<path style="fill:none;stroke:red;stroke-width:1px;stroke-linecap:butt;stroke-linejoin:miter;stroke-opacity:1" d="M 898.197,284.31 908.676,299.155 z" id="boundary" inkscape:connector-curvature="0" />
	<path style="fill:none;stroke:red;stroke-width:1px;stroke-linecap:butt;stroke-linejoin:miter;stroke-opacity:1" d="M 902.563,806.507 906.93,797.775 z" id="boundary" inkscape:connector-curvature="0" />
	<path style="fill:none;stroke:red;stroke-width:1px;stroke-linecap:butt;stroke-linejoin:miter;stroke-opacity:1" d="M 906.93,797.775 913.042,790.789 z" id="boundary" inkscape:connector-curvature="0" />
	<path style="fill:none;stroke:red;stroke-width:1px;stroke-linecap:butt;stroke-linejoin:miter;stroke-opacity:1" d="M 908.676,299.155 914.789,306.141 z" id="boundary" inkscape:connector-curvature="0" />
	<path style="fill:none;stroke:red;stroke-width:1px;stroke-linecap:butt;stroke-linejoin:miter;stroke-opacity:1" d="M 913.042,790.789 920.028,784.676 z" id="boundary" inkscape:connector-curvature="0" />
	<path style="fill:none;stroke:red;stroke-width:1px;stroke-linecap:butt;stroke-linejoin:miter;stroke-opacity:1" d="M 914.789,306.141 925.268,320.986 z" id="boundary" inkscape:connector-curvature="0" />
	<path style="fill:none;stroke:red;stroke-width:1px;stroke-linecap:butt;stroke-linejoin:miter;stroke-opacity:1" d="M 920.028,784.676 924.394,775.944 z" id="boundary" inkscape:connector-curvature="0" />
	<path style="fill:none;stroke:red;stroke-width:1px;stroke-linecap:butt;stroke-linejoin:miter;stroke-opacity:1" d="M 924.394,775.944 930.507,764.592 z" id="boundary" inkscape:connector-curvature="0" />
	<path style="fill:none;stroke:red;stroke-width:1px;stroke-linecap:butt;stroke-linejoin:miter;stroke-opacity:1" d="M 925.268,320.986 934.873,335.831 z" id="boundary" inkscape:connector-curvature="0" />
	<path style="fill:none;stroke:red;stroke-width:1px;stroke-linecap:butt;stroke-linejoin:miter;stroke-opacity:1" d="M 930.507,764.592 934.873,755.859 z" id="boundary" inkscape:connector-curvature="0" />
	<path style="fill:none;stroke:red;stroke-width:1px;stroke-linecap:butt;stroke-linejoin:miter;stroke-opacity:1" d="M 934.873,335.831 939.239,343.69 z" id="boundary" inkscape:connector-curvature="0" />
	<path style="fill:none;stroke:red;stroke-width:1px;stroke-linecap:butt;stroke-linejoin:miter;stroke-opacity:1" d="M 934.873,755.859 941.859,749.746 z" id="boundary" inkscape:connector-curvature="0" />
	<path style="fill:none;stroke:red;stroke-width:1px;stroke-linecap:butt;stroke-linejoin:miter;stroke-opacity:1" d="M 939.239,343.69 943.606,351.549 z" id="boundary" inkscape:connector-curvature="0" />
	<path style="fill:none;stroke:red;stroke-width:1px;stroke-linecap:butt;stroke-linejoin:miter;stroke-opacity:1" d="M 941.859,749.746 946.225,741.014 z" id="boundary" inkscape:connector-curvature="0" />
	<path style="fill:none;stroke:red;stroke-width:1px;stroke-linecap:butt;stroke-linejoin:miter;stroke-opacity:1" d="M 943.606,351.549 947.972,359.408 z" id="boundary" inkscape:connector-curvature="0" />
	<path style="fill:none;stroke:red;stroke-width:1px;stroke-linecap:butt;stroke-linejoin:miter;stroke-opacity:1" d="M 946.225,741.014 950.592,732.282 z" id="boundary" inkscape:connector-curvature="0" />
	<path style="fill:none;stroke:red;stroke-width:1px;stroke-linecap:butt;stroke-linejoin:miter;stroke-opacity:1" d="M 947.972,359.408 952.338,367.268 z" id="boundary" inkscape:connector-curvature="0" />
	<path style="fill:none;stroke:red;stroke-width:1px;stroke-linecap:butt;stroke-linejoin:miter;stroke-opacity:1" d="M 950.592,732.282 954.958,723.549 z" id="boundary" inkscape:connector-curvature="0" />
	<path style="fill:none;stroke:red;stroke-width:1px;stroke-linecap:butt;stroke-linejoin:miter;stroke-opacity:1" d="M 952.338,367.268 956.704,375.127 z" id="boundary" inkscape:connector-curvature="0" />
	<path style="fill:none;stroke:red;stroke-width:1px;stroke-linecap:butt;stroke-linejoin:miter;stroke-opacity:1" d="M 954.958,723.549 959.324,714.817 z" id="boundary" inkscape:connector-curvature="0" />
	<path style="fill:none;stroke:red;stroke-width:1px;stroke-linecap:butt;stroke-linejoin:miter;stroke-opacity:1" d="M 956.704,375.127 961.07,382.986 z" id="boundary" inkscape:connector-curvature="0" />
	<path style="fill:none;stroke:red;stroke-width:1px;stroke-linecap:butt;stroke-linejoin:miter;stroke-opacity:1" d="M 959.324,714.817 963.69,706.085 z" id="boundary" inkscape:connector-curvature="0" />
	<path style="fill:none;stroke:red;stroke-width:1px;stroke-linecap:butt;stroke-linejoin:miter;stroke-opacity:1" d="M 961.07,382.986 965.437,390.845 z" id="boundary" inkscape:connector-curvature="0" />
	<path style="fill:none;stroke:red;stroke-width:1px;stroke-linecap:butt;stroke-linejoin:miter;stroke-opacity:1" d="M 963.69,706.085 965.437,694.732 z" id="boundary" inkscape:connector-curvature="0" />
	<path style="fill:none;stroke:red;stroke-width:1px;stroke-linecap:butt;stroke-linejoin:miter;stroke-opacity:1" d="M 965.437,390.845 965.437,399.577 z" id="boundary" inkscape:connector-curvature="0" />
	<path style="fill:none;stroke:red;stroke-width:1px;stroke-linecap:butt;stroke-linejoin:miter;stroke-opacity:1" d="M 965.437,399.577 969.803,407.437 z" id="boundary" inkscape:connector-curvature="0" />
	<path style="fill:none;stroke:red;stroke-width:1px;stroke-linecap:butt;stroke-linejoin:miter;stroke-opacity:1" d="M 965.437,694.732 969.803,686 z" id="boundary" inkscape:connector-curvature="0" />
	<path style="fill:none;stroke:red;stroke-width:1px;stroke-linecap:butt;stroke-linejoin:miter;stroke-opacity:1" d="M 969.803,407.437 974.169,415.296 z" id="boundary" inkscape:connector-curvature="0" />
	<path style="fill:none;stroke:red;stroke-width:1px;stroke-linecap:butt;stroke-linejoin:miter;stroke-opacity:1" d="M 969.803,686 974.169,672.901 z" id="boundary" inkscape:connector-curvature="0" />
	<path style="fill:none;stroke:red;stroke-width:1px;stroke-linecap:butt;stroke-linejoin:miter;stroke-opacity:1" d="M 974.169,415.296 975.915,424.028 z" id="boundary" inkscape:connector-curvature="0" />
	<path style="fill:none;stroke:red;stroke-width:1px;stroke-linecap:butt;stroke-linejoin:miter;stroke-opacity:1" d="M 974.169,672.901 978.535,659.803 z" id="boundary" inkscape:connector-curvature="0" />
	<path style="fill:none;stroke:red;stroke-width:1px;stroke-linecap:butt;stroke-linejoin:miter;stroke-opacity:1" d="M 975.915,424.028 978.535,432.761 z" id="boundary" inkscape:connector-curvature="0" />
	<path style="fill:none;stroke:red;stroke-width:1px;stroke-linecap:butt;stroke-linejoin:miter;stroke-opacity:1" d="M 978.535,432.761 982.901,440.62 z" id="boundary" inkscape:connector-curvature="0" />
	<path style="fill:none;stroke:red;stroke-width:1px;stroke-linecap:butt;stroke-linejoin:miter;stroke-opacity:1" d="M 978.535,659.803 982.901,651.07 z" id="boundary" inkscape:connector-curvature="0" />
	<path style="fill:none;stroke:red;stroke-width:1px;stroke-linecap:butt;stroke-linejoin:miter;stroke-opacity:1" d="M 982.901,440.62 982.901,449.352 z" id="boundary" inkscape:connector-curvature="0" />
	<path style="fill:none;stroke:red;stroke-width:1px;stroke-linecap:butt;stroke-linejoin:miter;stroke-opacity:1" d="M 982.901,449.352 987.268,457.211 z" id="boundary" inkscape:connector-curvature="0" />
	<path style="fill:none;stroke:red;stroke-width:1px;stroke-linecap:butt;stroke-linejoin:miter;stroke-opacity:1" d="M 982.901,642.338 982.901,651.07 z" id="boundary" inkscape:connector-curvature="0" />
	<path style="fill:none;stroke:red;stroke-width:1px;stroke-linecap:butt;stroke-linejoin:miter;stroke-opacity:1" d="M 982.901,642.338 987.268,629.239 z" id="boundary" inkscape:connector-curvature="0" />
	<path style="fill:none;stroke:red;stroke-width:1px;stroke-linecap:butt;stroke-linejoin:miter;stroke-opacity:1" d="M 987.268,457.211 987.268,465.944 z" id="boundary" inkscape:connector-curvature="0" />
	<path style="fill:none;stroke:red;stroke-width:1px;stroke-linecap:butt;stroke-linejoin:miter;stroke-opacity:1" d="M 987.268,465.944 987.268,474.676 z" id="boundary" inkscape:connector-curvature="0" />
	<path style="fill:none;stroke:red;stroke-width:1px;stroke-linecap:butt;stroke-linejoin:miter;stroke-opacity:1" d="M 987.268,474.676 991.634,482.535 z" id="boundary" inkscape:connector-curvature="0" />
	<path style="fill:none;stroke:red;stroke-width:1px;stroke-linecap:butt;stroke-linejoin:miter;stroke-opacity:1" d="M 987.268,620.507 987.268,629.239 z" id="boundary" inkscape:connector-curvature="0" />
	<path style="fill:none;stroke:red;stroke-width:1px;stroke-linecap:butt;stroke-linejoin:miter;stroke-opacity:1" d="M 987.268,620.507 991.634,607.408 z" id="boundary" inkscape:connector-curvature="0" />
	<path style="fill:none;stroke:red;stroke-width:1px;stroke-linecap:butt;stroke-linejoin:miter;stroke-opacity:1" d="M 991.634,482.535 991.634,491.268 z" id="boundary" inkscape:connector-curvature="0" />
	<path style="fill:none;stroke:red;stroke-width:1px;stroke-linecap:butt;stroke-linejoin:miter;stroke-opacity:1" d="M 991.634,491.268 991.634,500 z" id="boundary" inkscape:connector-curvature="0" />
	<path style="fill:none;stroke:red;stroke-width:1px;stroke-linecap:butt;stroke-linejoin:miter;stroke-opacity:1" d="M 991.634,500 995.127,508.732 z" id="boundary" inkscape:connector-curvature="0" />
	<path style="fill:none;stroke:red;stroke-width:1px;stroke-linecap:butt;stroke-linejoin:miter;stroke-opacity:1" d="M 991.634,589.944 991.634,598.676 z" id="boundary" inkscape:connector-curvature="0" />
	<path style="fill:none;stroke:red;stroke-width:1px;stroke-linecap:butt;stroke-linejoin:miter;stroke-opacity:1" d="M 991.634,589.944 996,578.592 z" id="boundary" inkscape:connector-curvature="0" />
	<path style="fill:none;stroke:red;stroke-width:1px;stroke-linecap:butt;stroke-linejoin:miter;stroke-opacity:1" d="M 991.634,598.676 991.634,607.408 z" id="boundary" inkscape:connector-curvature="0" />
	<path style="fill:none;stroke:red;stroke-width:1px;stroke-linecap:butt;stroke-linejoin:miter;stroke-opacity:1" d="M 995.127,508.732 996,517.465 z" id="boundary" inkscape:connector-curvature="0" />
	<path style="fill:none;stroke:red;stroke-width:1px;stroke-linecap:butt;stroke-linejoin:miter;stroke-opacity:1" d="M 996,517.465 996,526.197 z" id="boundary" inkscape:connector-curvature="0" />
	<path style="fill:none;stroke:red;stroke-width:1px;stroke-linecap:butt;stroke-linejoin:miter;stroke-opacity:1" d="M 996,526.197 996,534.93 z" id="boundary" inkscape:connector-curvature="0" />
	<path style="fill:none;stroke:red;stroke-width:1px;stroke-linecap:butt;stroke-linejoin:miter;stroke-opacity:1" d="M 996,534.93 996,543.662 z" id="boundary" inkscape:connector-curvature="0" />
	<path style="fill:none;stroke:red;stroke-width:1px;stroke-linecap:butt;stroke-linejoin:miter;stroke-opacity:1" d="M 996,543.662 996,552.394 z" id="boundary" inkscape:connector-curvature="0" />
	<path style="fill:none;stroke:red;stroke-width:1px;stroke-linecap:butt;stroke-linejoin:miter;stroke-opacity:1" d="M 996,552.394 996,561.127 z" id="boundary" inkscape:connector-curvature="0" />
	<path style="fill:none;stroke:red;stroke-width:1px;stroke-linecap:butt;stroke-linejoin:miter;stroke-opacity:1" d="M 996,561.127 996,569.859 z" id="boundary" inkscape:connector-curvature="0" />
	<path style="fill:none;stroke:red;stroke-width:1px;stroke-linecap:butt;stroke-linejoin:miter;stroke-opacity:1" d="M 996,569.859 996,578.592 z" id="boundary" inkscape:connector-curvature="0" />
	<circle cx="4" cy="508.732" r="4" fill="#0" id="circle0"/>
	<circle cx="4" cy="517.465" r="4" fill="#0" id="circle1"/>
	<circle cx="4" cy="526.197" r="4" fill="#0" id="circle2"/>
	<circle cx="4" cy="534.93" r="4" fill="#0" id="circle3"/>
	<circle cx="4" cy="543.662" r="4" fill="#0" id="circle4"/>
	<circle cx="4" cy="552.394" r="4" fill="#0" id="circle5"/>
	<circle cx="4" cy="561.127" r="4" fill="#0" id="circle6"/>
	<circle cx="4" cy="569.859" r="4" fill="#0" id="circle7"/>
	<circle cx="4" cy="578.592" r="4" fill="#0" id="circle8"/>
	<circle cx="4" cy="587.324" r="4" fill="#0" id="circle9"/>
	<circle cx="8.3662" cy="478.169" r="4" fill="#0" id="circle10"/>
	<circle cx="8.3662" cy="486.901" r="4" fill="#0" id="circle11"/>
	<circle cx="8.3662" cy="495.634" r="4" fill="#0" id="circle12"/>
	<circle cx="8.3662" cy="595.183" r="4" fill="#0" id="circle13"/>
	<circle cx="8.3662" cy="603.915" r="4" fill="#0" id="circle14"/>
	<circle cx="8.3662" cy="612.648" r="4" fill="#0" id="circle15"/>
	<circle cx="12.7324" cy="460.704" r="4" fill="#0" id="circle16"/>
	<circle cx="12.7324" cy="469.437" r="4" fill="#0" id="circle17"/>
	<circle cx="12.7324" cy="620.507" r="4" fill="#0" id="circle18"/>
	<circle cx="12.7324" cy="629.239" r="4" fill="#0" id="circle19"/>
	<circle cx="15.3521" cy="637.972" r="4" fill="#0" id="circle20"/>
	<circle cx="17.0986" cy="443.239" r="4" fill="#0" id="circle21"/>
	<circle cx="17.0986" cy="451.972" r="4" fill="#0" id="circle22"/>
	<circle cx="17.0986" cy="646.704" r="4" fill="#0" id="circle23"/>
	<circle cx="19.7183" cy="655.437" r="4" fill="#0" id="circle24"/>
	<circle cx="21.4648" cy="430.141" r="4" fill="#0" id="circle25"/>
	<circle cx="21.4648" cy="664.169" r="4" fill="#0" id="circle26"/>
	<circle cx="25.831" cy="417.042" r="4" fill="#0" id="circle27"/>
	<circle cx="25.831" cy="672.028" r="4" fill="#0" id="circle28"/>
	<circle cx="27.5775" cy="680.761" r="4" fill="#0" id="circle29"/>
	<circle cx="30.1972" cy="403.944" r="4" fill="#0" id="circle30"/>
	<circle cx="30.1972" cy="689.493" r="4" fill="#0" id="circle31"/>
	<circle cx="34.5634" cy="395.211" r="4" fill="#0" id="circle32"/>
	<circle cx="34.5634" cy="697.352" r="4" fill="#0" id="circle33"/>
	<circle cx="38.9296" cy="386.479" r="4" fill="#0" id="circle34"/>
	<circle cx="38.9296" cy="705.211" r="4" fill="#0" id="circle35"/>
	<circle cx="43.2958" cy="377.746" r="4" fill="#0" id="circle36"/>
	<circle cx="43.2958" cy="713.07" r="4" fill="#0" id="circle37"/>
	<circle cx="47.662" cy="369.014" r="4" fill="#0" id="circle38"/>
	<circle cx="47.662" cy="720.93" r="4" fill="#0" id="circle39"/>
	<circle cx="50.2817" cy="729.662" r="4" fill="#0" id="circle40"/>
	<circle cx="52.0282" cy="360.282" r="4" fill="#0" id="circle41"/>
	<circle cx="54.6479" cy="737.521" r="4" fill="#0" id="circle42"/>
	<circle cx="56.3944" cy="351.549" r="4" fill="#0" id="circle43"/>
	<circle cx="58.1408" cy="746.254" r="4" fill="#0" id="circle44"/>
	<circle cx="60.7606" cy="342.817" r="4" fill="#0" id="circle45"/>
	<circle cx="62.507" cy="754.113" r="4" fill="#0" id="circle46"/>
	<circle cx="67.7465" cy="335.831" r="4" fill="#0" id="circle47"/>
	<circle cx="69.493" cy="760.225" r="4" fill="#0" id="circle48"/>
	<circle cx="72.1127" cy="327.099" r="4" fill="#0" id="circle49"/>
	<circle cx="72.1127" cy="768.958" r="4" fill="#0" id="circle50"/>
	<circle cx="78.2254" cy="316.62" r="4" fill="#0" id="circle51"/>
	<circle cx="78.2254" cy="775.944" r="4" fill="#0" id="circle52"/>
	<circle cx="82.5915" cy="783.803" r="4" fill="#0" id="circle53"/>
	<circle cx="85.2113" cy="309.634" r="4" fill="#0" id="circle54"/>
	<circle cx="89.5775" cy="789.915" r="4" fill="#0" id="circle55"/>
	<circle cx="92.1972" cy="302.648" r="4" fill="#0" id="circle56"/>
	<circle cx="95.6901" cy="796.901" r="4" fill="#0" id="circle57"/>
	<circle cx="96.5634" cy="293.915" r="4" fill="#0" id="circle58"/>
	<circle cx="100.056" cy="804.761" r="4" fill="#0" id="circle59"/>
	<circle cx="103.549" cy="287.803" r="4" fill="#0" id="circle60"/>
	<circle cx="106.169" cy="811.746" r="4" fill="#0" id="circle61"/>
	<circle cx="109.662" cy="280.817" r="4" fill="#0" id="circle62"/>
	<circle cx="113.155" cy="816.986" r="4" fill="#0" id="circle63"/>
	<circle cx="116.648" cy="274.704" r="4" fill="#0" id="circle64"/>
	<circle cx="118.394" cy="823.972" r="4" fill="#0" id="circle65"/>
	<circle cx="122.761" cy="267.718" r="4" fill="#0" id="circle66"/>
	<circle cx="125.38" cy="830.085" r="4" fill="#0" id="circle67"/>
	<circle cx="129.746" cy="261.606" r="4" fill="#0" id="circle68"/>
	<circle cx="131.493" cy="837.07" r="4" fill="#0" id="circle69"/>
	<circle cx="135.859" cy="254.62" r="4" fill="#0" id="circle70"/>
	<circle cx="138.479" cy="843.183" r="4" fill="#0" id="circle71"/>
	<circle cx="142.845" cy="248.507" r="4" fill="#0" id="circle72"/>
	<circle cx="144.592" cy="850.169" r="4" fill="#0" id="circle73"/>
	<circle cx="148.958" cy="241.521" r="4" fill="#0" id="circle74"/>
	<circle cx="151.577" cy="856.282" r="4" fill="#0" id="circle75"/>
	<circle cx="157.69" cy="237.155" r="4" fill="#0" id="circle76"/>
	<circle cx="159.437" cy="860.648" r="4" fill="#0" id="circle77"/>
	<circle cx="164.676" cy="231.042" r="4" fill="#0" id="circle78"/>
	<circle cx="166.423" cy="866.761" r="4" fill="#0" id="circle79"/>
	<circle cx="170.789" cy="224.056" r="4" fill="#0" id="circle80"/>
	<circle cx="172.535" cy="873.746" r="4" fill="#0" id="circle81"/>
	<circle cx="179.521" cy="219.69" r="4" fill="#0" id="circle82"/>
	<circle cx="181.268" cy="877.239" r="4" fill="#0" id="circle83"/>
	<circle cx="186.507" cy="213.577" r="4" fill="#0" id="circle84"/>
	<circle cx="188.254" cy="882.479" r="4" fill="#0" id="circle85"/>
	<circle cx="194.366" cy="209.211" r="4" fill="#0" id="circle86"/>
	<circle cx="196.113" cy="886.845" r="4" fill="#0" id="circle87"/>
	<circle cx="202.225" cy="204.845" r="4" fill="#0" id="circle88"/>
	<circle cx="203.972" cy="891.211" r="4" fill="#0" id="circle89"/>
	<circle cx="209.211" cy="198.732" r="4" fill="#0" id="circle90"/>
	<circle cx="210.085" cy="898.197" r="4" fill="#0" id="circle91"/>
	<circle cx="217.944" cy="194.366" r="4" fill="#0" id="circle92"/>
	<circle cx="218.817" cy="901.69" r="4" fill="#0" id="circle93"/>
	<circle cx="226.676" cy="190" r="4" fill="#0" id="circle94"/>
	<circle cx="226.676" cy="906.056" r="4" fill="#0" id="circle95"/>
	<circle cx="235.408" cy="185.634" r="4" fill="#0" id="circle96"/>
	<circle cx="235.408" cy="908.676" r="4" fill="#0" id="circle97"/>
	<circle cx="243.268" cy="913.042" r="4" fill="#0" id="circle98"/>
	<circle cx="244.141" cy="181.268" r="4" fill="#0" id="circle99"/>
	<circle cx="251.127" cy="917.408" r="4" fill="#0" id="circle100"/>
	<circle cx="252.873" cy="176.901" r="4" fill="#0" id="circle101"/>
	<circle cx="258.986" cy="921.775" r="4" fill="#0" id="circle102"/>
	<circle cx="261.606" cy="172.535" r="4" fill="#0" id="circle103"/>
	<circle cx="266.845" cy="926.141" r="4" fill="#0" id="circle104"/>
	<circle cx="270.338" cy="169.915" r="4" fill="#0" id="circle105"/>
	<circle cx="275.577" cy="927.887" r="4" fill="#0" id="circle106"/>
	<circle cx="278.197" cy="165.549" r="4" fill="#0" id="circle107"/>
	<circle cx="284.31" cy="930.507" r="4" fill="#0" id="circle108"/>
	<circle cx="286.93" cy="165.549" r="4" fill="#0" id="circle109"/>
	<circle cx="292.169" cy="934.873" r="4" fill="#0" id="circle110"/>
	<circle cx="294.789" cy="161.183" r="4" fill="#0" id="circle111"/>
	<circle cx="300.028" cy="939.239" r="4" fill="#0" id="circle112"/>
	<circle cx="302.648" cy="156.817" r="4" fill="#0" id="circle113"/>
	<circle cx="308.761" cy="939.239" r="4" fill="#0" id="circle114"/>
	<circle cx="311.38" cy="156.817" r="4" fill="#0" id="circle115"/>
	<circle cx="316.62" cy="943.606" r="4" fill="#0" id="circle116"/>
	<circle cx="319.239" cy="152.451" r="4" fill="#0" id="circle117"/>
	<circle cx="325.352" cy="943.606" r="4" fill="#0" id="circle118"/>
	<circle cx="327.972" cy="149.831" r="4" fill="#0" id="circle119"/>
	<circle cx="333.211" cy="947.972" r="4" fill="#0" id="circle120"/>
	<circle cx="336.704" cy="148.085" r="4" fill="#0" id="circle121"/>
	<circle cx="341.944" cy="947.972" r="4" fill="#0" id="circle122"/>
	<circle cx="345.437" cy="145.465" r="4" fill="#0" id="circle123"/>
	<circle cx="349.803" cy="952.338" r="4" fill="#0" id="circle124"/>
	<circle cx="354.169" cy="143.718" r="4" fill="#0" id="circle125"/>
	<circle cx="358.535" cy="952.338" r="4" fill="#0" id="circle126"/>
	<circle cx="362.901" cy="143.718" r="4" fill="#0" id="circle127"/>
	<circle cx="367.268" cy="954.085" r="4" fill="#0" id="circle128"/>
	<circle cx="370.761" cy="139.352" r="4" fill="#0" id="circle129"/>
	<circle cx="376" cy="956.704" r="4" fill="#0" id="circle130"/>
	<circle cx="379.493" cy="139.352" r="4" fill="#0" id="circle131"/>
	<circle cx="384.732" cy="956.704" r="4" fill="#0" id="circle132"/>
	<circle cx="388.225" cy="139.352" r="4" fill="#0" id="circle133"/>
	<circle cx="393.465" cy="956.704" r="4" fill="#0" id="circle134"/>
	<circle cx="396.958" cy="139.352" r="4" fill="#0" id="circle135"/>
	<circle cx="402.197" cy="958.451" r="4" fill="#0" id="circle136"/>
	<circle cx="404.817" cy="134.986" r="4" fill="#0" id="circle137"/>
	<circle cx="410.93" cy="961.07" r="4" fill="#0" id="circle138"/>
	<circle cx="413.549" cy="134.986" r="4" fill="#0" id="circle139"/>
	<circle cx="419.662" cy="961.07" r="4" fill="#0" id="circle140"/>
	<circle cx="422.282" cy="134.986" r="4" fill="#0" id="circle141"/>
	<circle cx="428.394" cy="961.07" r="4" fill="#0" id="circle142"/>
	<circle cx="431.014" cy="134.986" r="4" fill="#0" id="circle143"/>
	<circle cx="437.127" cy="961.07" r="4" fill="#0" id="circle144"/>
	<circle cx="439.746" cy="134.986" r="4" fill="#0" id="circle145"/>
	<circle cx="445.859" cy="961.07" r="4" fill="#0" id="circle146"/>
	<circle cx="448.479" cy="134.986" r="4" fill="#0" id="circle147"/>
	<circle cx="454.592" cy="961.07" r="4" fill="#0" id="circle148"/>
	<circle cx="457.211" cy="134.986" r="4" fill="#0" id="circle149"/>
	<circle cx="462.451" cy="19.7183" r="4" fill="#0" id="circle150"/>
	<circle cx="463.324" cy="961.07" r="4" fill="#0" id="circle151"/>
	<circle cx="465.944" cy="134.986" r="4" fill="#0" id="circle152"/>
	<circle cx="466.817" cy="27.5775" r="4" fill="#0" id="circle153"/>
	<circle cx="469.437" cy="12.7324" r="4" fill="#0" id="circle154"/>
	<circle cx="471.183" cy="35.4366" r="4" fill="#0" id="circle155"/>
	<circle cx="472.056" cy="961.07" r="4" fill="#0" id="circle156"/>
	<circle cx="473.803" cy="44.169" r="4" fill="#0" id="circle157"/>
	<circle cx="474.676" cy="134.986" r="4" fill="#0" id="circle158"/>
	<circle cx="478.169" cy="12.7324" r="4" fill="#0" id="circle159"/>
	<circle cx="478.169" cy="52.0282" r="4" fill="#0" id="circle160"/>
	<circle cx="479.915" cy="60.7606" r="4" fill="#0" id="circle161"/>
	<circle cx="480.789" cy="961.07" r="4" fill="#0" id="circle162"/>
	<circle cx="483.408" cy="134.986" r="4" fill="#0" id="circle163"/>
	<circle cx="484.282" cy="68.6197" r="4" fill="#0" id="circle164"/>
	<circle cx="484.282" cy="77.3521" r="4" fill="#0" id="circle165"/>
	<circle cx="486.901" cy="12.7324" r="4" fill="#0" id="circle166"/>
	<circle cx="488.648" cy="85.2113" r="4" fill="#0" id="circle167"/>
	<circle cx="488.648" cy="93.9437" r="4" fill="#0" id="circle168"/>
	<circle cx="489.521" cy="961.07" r="4" fill="#0" id="circle169"/>
	<circle cx="492.141" cy="134.986" r="4" fill="#0" id="circle170"/>
	<circle cx="493.014" cy="19.7183" r="4" fill="#0" id="circle171"/>
	<circle cx="493.014" cy="101.803" r="4" fill="#0" id="circle172"/>
	<circle cx="493.014" cy="110.535" r="4" fill="#0" id="circle173"/>
	<circle cx="493.014" cy="119.268" r="4" fill="#0" id="circle174"/>
	<circle cx="493.887" cy="28.4507" r="4" fill="#0" id="circle175"/>
	<circle cx="497.38" cy="956.704" r="4" fill="#0" id="circle176"/>
	<circle cx="498.254" cy="36.3099" r="4" fill="#0" id="circle177"/>
	<circle cx="502.62" cy="44.169" r="4" fill="#0" id="circle178"/>
	<circle cx="502.62" cy="52.9014" r="4" fill="#0" id="circle179"/>
	<circle cx="506.113" cy="956.704" r="4" fill="#0" id="circle180"/>
	<circle cx="506.986" cy="60.7606" r="4" fill="#0" id="circle181"/>
	<circle cx="511.352" cy="68.6197" r="4" fill="#0" id="circle182"/>
	<circle cx="511.352" cy="77.3521" r="4" fill="#0" id="circle183"/>
	<circle cx="514.845" cy="956.704" r="4" fill="#0" id="circle184"/>
	<circle cx="515.718" cy="85.2113" r="4" fill="#0" id="circle185"/>
	<circle cx="515.718" cy="93.9437" r="4" fill="#0" id="circle186"/>
	<circle cx="515.718" cy="102.676" r="4" fill="#0" id="circle187"/>
	<circle cx="520.085" cy="110.535" r="4" fill="#0" id="circle188"/>
	<circle cx="523.577" cy="956.704" r="4" fill="#0" id="circle189"/>
	<circle cx="525.324" cy="117.521" r="4" fill="#0" id="circle190"/>
	<circle cx="531.437" cy="961.07" r="4" fill="#0" id="circle191"/>
	<circle cx="532.31" cy="107.042" r="4" fill="#0" id="circle192"/>
	<circle cx="536.676" cy="80.8451" r="4" fill="#0" id="circle193"/>
	<circle cx="536.676" cy="89.5775" r="4" fill="#0" id="circle194"/>
	<circle cx="536.676" cy="98.3099" r="4" fill="#0" id="circle195"/>
	<circle cx="540.169" cy="961.07" r="4" fill="#0" id="circle196"/>
	<circle cx="541.042" cy="67.7465" r="4" fill="#0" id="circle197"/>
	<circle cx="541.915" cy="122.761" r="4" fill="#0" id="circle198"/>
	<circle cx="541.915" cy="131.493" r="4" fill="#0" id="circle199"/>
	<circle cx="545.408" cy="59.0141" r="4" fill="#0" id="circle200"/>
	<circle cx="548.901" cy="961.07" r="4" fill="#0" id="circle201"/>
	<circle cx="549.775" cy="50.2817" r="4" fill="#0" id="circle202"/>
	<circle cx="550.648" cy="122.761" r="4" fill="#0" id="circle203"/>
	<circle cx="550.648" cy="134.986" r="4" fill="#0" id="circle204"/>
	<circle cx="556.761" cy="43.2958" r="4" fill="#0" id="circle205"/>
	<circle cx="557.634" cy="116.648" r="4" fill="#0" id="circle206"/>
	<circle cx="557.634" cy="961.07" r="4" fill="#0" id="circle207"/>
	<circle cx="559.38" cy="134.986" r="4" fill="#0" id="circle208"/>
	<circle cx="561.127" cy="34.5634" r="4" fill="#0" id="circle209"/>
	<circle cx="566.366" cy="114.028" r="4" fill="#0" id="circle210"/>
	<circle cx="566.366" cy="961.07" r="4" fill="#0" id="circle211"/>
	<circle cx="568.113" cy="27.5775" r="4" fill="#0" id="circle212"/>
	<circle cx="568.113" cy="134.986" r="4" fill="#0" id="circle213"/>
	<circle cx="575.099" cy="21.4648" r="4" fill="#0" id="circle214"/>
	<circle cx="575.099" cy="112.282" r="4" fill="#0" id="circle215"/>
	<circle cx="575.099" cy="961.07" r="4" fill="#0" id="circle216"/>
	<circle cx="576.845" cy="134.986" r="4" fill="#0" id="circle217"/>
	<circle cx="582.958" cy="17.0986" r="4" fill="#0" id="circle218"/>
	<circle cx="583.831" cy="107.915" r="4" fill="#0" id="circle219"/>
	<circle cx="583.831" cy="961.07" r="4" fill="#0" id="circle220"/>
	<circle cx="585.577" cy="134.986" r="4" fill="#0" id="circle221"/>
	<circle cx="588.197" cy="99.1831" r="4" fill="#0" id="circle222"/>
	<circle cx="591.69" cy="12.7324" r="4" fill="#0" id="circle223"/>
	<circle cx="592.563" cy="961.07" r="4" fill="#0" id="circle224"/>
	<circle cx="594.31" cy="134.986" r="4" fill="#0" id="circle225"/>
	<circle cx="596.93" cy="96.5634" r="4" fill="#0" id="circle226"/>
	<circle cx="600.423" cy="8.3662" r="4" fill="#0" id="circle227"/>
	<circle cx="601.296" cy="961.07" r="4" fill="#0" id="circle228"/>
	<circle cx="603.042" cy="134.986" r="4" fill="#0" id="circle229"/>
	<circle cx="604.789" cy="91.3239" r="4" fill="#0" id="circle230"/>
	<circle cx="609.155" cy="8.3662" r="4" fill="#0" id="circle231"/>
	<circle cx="610.028" cy="961.07" r="4" fill="#0" id="circle232"/>
	<circle cx="611.775" cy="134.986" r="4" fill="#0" id="circle233"/>
	<circle cx="613.521" cy="86.9577" r="4" fill="#0" id="circle234"/>
	<circle cx="617.887" cy="8.3662" r="4" fill="#0" id="circle235"/>
	<circle cx="617.887" cy="956.704" r="4" fill="#0" id="circle236"/>
	<circle cx="619.634" cy="139.352" r="4" fill="#0" id="circle237"/>
	<circle cx="622.254" cy="82.5915" r="4" fill="#0" id="circle238"/>
	<circle cx="625.746" cy="4" r="4" fill="#0" id="circle239"/>
	<circle cx="626.62" cy="956.704" r="4" fill="#0" id="circle240"/>
	<circle cx="628.366" cy="139.352" r="4" fill="#0" id="circle241"/>
	<circle cx="629.239" cy="74.7324" r="4" fill="#0" id="circle242"/>
	<circle cx="634.479" cy="4" r="4" fill="#0" id="circle243"/>
	<circle cx="635.352" cy="956.704" r="4" fill="#0" id="circle244"/>
	<circle cx="636.225" cy="68.6197" r="4" fill="#0" id="circle245"/>
	<circle cx="637.099" cy="139.352" r="4" fill="#0" id="circle246"/>
	<circle cx="643.211" cy="4" r="4" fill="#0" id="circle247"/>
	<circle cx="644.085" cy="955.831" r="4" fill="#0" id="circle248"/>
	<circle cx="644.958" cy="64.2535" r="4" fill="#0" id="circle249"/>
	<circle cx="645.831" cy="141.099" r="4" fill="#0" id="circle250"/>
	<circle cx="651.07" cy="57.2676" r="4" fill="#0" id="circle251"/>
	<circle cx="651.944" cy="4" r="4" fill="#0" id="circle252"/>
	<circle cx="652.817" cy="952.338" r="4" fill="#0" id="circle253"/>
	<circle cx="654.563" cy="143.718" r="4" fill="#0" id="circle254"/>
	<circle cx="658.056" cy="51.1549" r="4" fill="#0" id="circle255"/>
	<circle cx="660.676" cy="4" r="4" fill="#0" id="circle256"/>
	<circle cx="661.549" cy="952.338" r="4" fill="#0" id="circle257"/>
	<circle cx="663.296" cy="143.718" r="4" fill="#0" id="circle258"/>
	<circle cx="664.169" cy="44.169" r="4" fill="#0" id="circle259"/>
	<circle cx="668.535" cy="35.4366" r="4" fill="#0" id="circle260"/>
	<circle cx="669.408" cy="4" r="4" fill="#0" id="circle261"/>
	<circle cx="669.408" cy="947.972" r="4" fill="#0" id="circle262"/>
	<circle cx="671.155" cy="148.085" r="4" fill="#0" id="circle263"/>
	<circle cx="672.901" cy="26.7042" r="4" fill="#0" id="circle264"/>
	<circle cx="677.268" cy="8.3662" r="4" fill="#0" id="circle265"/>
	<circle cx="677.268" cy="17.0986" r="4" fill="#0" id="circle266"/>
	<circle cx="678.141" cy="947.972" r="4" fill="#0" id="circle267"/>
	<circle cx="679.887" cy="148.085" r="4" fill="#0" id="circle268"/>
	<circle cx="686" cy="943.606" r="4" fill="#0" id="circle269"/>
	<circle cx="687.746" cy="152.451" r="4" fill="#0" id="circle270"/>
	<circle cx="694.732" cy="943.606" r="4" fill="#0" id="circle271"/>
	<circle cx="696.479" cy="152.451" r="4" fill="#0" id="circle272"/>
	<circle cx="702.592" cy="939.239" r="4" fill="#0" id="circle273"/>
	<circle cx="704.338" cy="156.817" r="4" fill="#0" id="circle274"/>
	<circle cx="711.324" cy="936.62" r="4" fill="#0" id="circle275"/>
	<circle cx="712.197" cy="161.183" r="4" fill="#0" id="circle276"/>
	<circle cx="720.056" cy="934.873" r="4" fill="#0" id="circle277"/>
	<circle cx="720.93" cy="161.183" r="4" fill="#0" id="circle278"/>
	<circle cx="727.915" cy="930.507" r="4" fill="#0" id="circle279"/>
	<circle cx="728.789" cy="165.549" r="4" fill="#0" id="circle280"/>
	<circle cx="736.648" cy="928.761" r="4" fill="#0" id="circle281"/>
	<circle cx="737.521" cy="167.296" r="4" fill="#0" id="circle282"/>
	<circle cx="745.38" cy="171.662" r="4" fill="#0" id="circle283"/>
	<circle cx="745.38" cy="924.394" r="4" fill="#0" id="circle284"/>
	<circle cx="754.113" cy="175.155" r="4" fill="#0" id="circle285"/>
	<circle cx="754.113" cy="920.028" r="4" fill="#0" id="circle286"/>
	<circle cx="761.972" cy="179.521" r="4" fill="#0" id="circle287"/>
	<circle cx="762.845" cy="915.662" r="4" fill="#0" id="circle288"/>
	<circle cx="770.704" cy="183.014" r="4" fill="#0" id="circle289"/>
	<circle cx="771.577" cy="911.296" r="4" fill="#0" id="circle290"/>
	<circle cx="778.563" cy="187.38" r="4" fill="#0" id="circle291"/>
	<circle cx="780.31" cy="906.93" r="4" fill="#0" id="circle292"/>
	<circle cx="786.423" cy="191.746" r="4" fill="#0" id="circle293"/>
	<circle cx="789.042" cy="902.563" r="4" fill="#0" id="circle294"/>
	<circle cx="793.408" cy="196.986" r="4" fill="#0" id="circle295"/>
	<circle cx="795.155" cy="895.577" r="4" fill="#0" id="circle296"/>
	<circle cx="801.268" cy="201.352" r="4" fill="#0" id="circle297"/>
	<circle cx="803.887" cy="891.211" r="4" fill="#0" id="circle298"/>
	<circle cx="810" cy="204.845" r="4" fill="#0" id="circle299"/>
	<circle cx="812.62" cy="886.845" r="4" fill="#0" id="circle300"/>
	<circle cx="816.113" cy="211.831" r="4" fill="#0" id="circle301"/>
	<circle cx="819.606" cy="880.732" r="4" fill="#0" id="circle302"/>
	<circle cx="823.099" cy="217.944" r="4" fill="#0" id="circle303"/>
	<circle cx="828.338" cy="876.366" r="4" fill="#0" id="circle304"/>
	<circle cx="830.958" cy="222.31" r="4" fill="#0" id="circle305"/>
	<circle cx="834.451" cy="869.38" r="4" fill="#0" id="circle306"/>
	<circle cx="837.944" cy="228.423" r="4" fill="#0" id="circle307"/>
	<circle cx="842.31" cy="865.014" r="4" fill="#0" id="circle308"/>
	<circle cx="845.803" cy="232.789" r="4" fill="#0" id="circle309"/>
	<circle cx="849.296" cy="859.775" r="4" fill="#0" id="circle310"/>
	<circle cx="851.915" cy="239.775" r="4" fill="#0" id="circle311"/>
	<circle cx="856.282" cy="851.915" r="4" fill="#0" id="circle312"/>
	<circle cx="858.901" cy="245.014" r="4" fill="#0" id="circle313"/>
	<circle cx="863.268" cy="845.803" r="4" fill="#0" id="circle314"/>
	<circle cx="865.014" cy="252" r="4" fill="#0" id="circle315"/>
	<circle cx="869.38" cy="838.817" r="4" fill="#0" id="circle316"/>
	<circle cx="872" cy="258.113" r="4" fill="#0" id="circle317"/>
	<circle cx="876.366" cy="832.704" r="4" fill="#0" id="circle318"/>
	<circle cx="878.113" cy="265.099" r="4" fill="#0" id="circle319"/>
	<circle cx="882.479" cy="825.718" r="4" fill="#0" id="circle320"/>
	<circle cx="885.099" cy="271.211" r="4" fill="#0" id="circle321"/>
	<circle cx="889.465" cy="819.606" r="4" fill="#0" id="circle322"/>
	<circle cx="891.211" cy="278.197" r="4" fill="#0" id="circle323"/>
	<circle cx="895.577" cy="812.62" r="4" fill="#0" id="circle324"/>
	<circle cx="898.197" cy="284.31" r="4" fill="#0" id="circle325"/>
	<circle cx="902.563" cy="806.507" r="4" fill="#0" id="circle326"/>
	<circle cx="904.31" cy="291.296" r="4" fill="#0" id="circle327"/>
	<circle cx="906.93" cy="797.775" r="4" fill="#0" id="circle328"/>
	<circle cx="908.676" cy="299.155" r="4" fill="#0" id="circle329"/>
	<circle cx="913.042" cy="790.789" r="4" fill="#0" id="circle330"/>
	<circle cx="914.789" cy="306.141" r="4" fill="#0" id="circle331"/>
	<circle cx="920.028" cy="784.676" r="4" fill="#0" id="circle332"/>
	<circle cx="921.775" cy="312.254" r="4" fill="#0" id="circle333"/>
	<circle cx="924.394" cy="775.944" r="4" fill="#0" id="circle334"/>
	<circle cx="925.268" cy="320.986" r="4" fill="#0" id="circle335"/>
	<circle cx="930.507" cy="327.972" r="4" fill="#0" id="circle336"/>
	<circle cx="930.507" cy="764.592" r="4" fill="#0" id="circle337"/>
	<circle cx="934.873" cy="335.831" r="4" fill="#0" id="circle338"/>
	<circle cx="934.873" cy="755.859" r="4" fill="#0" id="circle339"/>
	<circle cx="939.239" cy="343.69" r="4" fill="#0" id="circle340"/>
	<circle cx="941.859" cy="749.746" r="4" fill="#0" id="circle341"/>
	<circle cx="943.606" cy="351.549" r="4" fill="#0" id="circle342"/>
	<circle cx="946.225" cy="741.014" r="4" fill="#0" id="circle343"/>
	<circle cx="947.972" cy="359.408" r="4" fill="#0" id="circle344"/>
	<circle cx="950.592" cy="732.282" r="4" fill="#0" id="circle345"/>
	<circle cx="952.338" cy="367.268" r="4" fill="#0" id="circle346"/>
	<circle cx="954.958" cy="723.549" r="4" fill="#0" id="circle347"/>
	<circle cx="956.704" cy="375.127" r="4" fill="#0" id="circle348"/>
	<circle cx="959.324" cy="714.817" r="4" fill="#0" id="circle349"/>
	<circle cx="961.07" cy="382.986" r="4" fill="#0" id="circle350"/>
	<circle cx="963.69" cy="706.085" r="4" fill="#0" id="circle351"/>
	<circle cx="965.437" cy="390.845" r="4" fill="#0" id="circle352"/>
	<circle cx="965.437" cy="399.577" r="4" fill="#0" id="circle353"/>
	<circle cx="965.437" cy="694.732" r="4" fill="#0" id="circle354"/>
	<circle cx="969.803" cy="407.437" r="4" fill="#0" id="circle355"/>
	<circle cx="969.803" cy="686" r="4" fill="#0" id="circle356"/>
	<circle cx="974.169" cy="415.296" r="4" fill="#0" id="circle357"/>
	<circle cx="974.169" cy="672.901" r="4" fill="#0" id="circle358"/>
	<circle cx="975.915" cy="424.028" r="4" fill="#0" id="circle359"/>
	<circle cx="978.535" cy="432.761" r="4" fill="#0" id="circle360"/>
	<circle cx="978.535" cy="659.803" r="4" fill="#0" id="circle361"/>
	<circle cx="982.901" cy="440.62" r="4" fill="#0" id="circle362"/>
	<circle cx="982.901" cy="449.352" r="4" fill="#0" id="circle363"/>
	<circle cx="982.901" cy="642.338" r="4" fill="#0" id="circle364"/>
	<circle cx="982.901" cy="651.07" r="4" fill="#0" id="circle365"/>
	<circle cx="987.268" cy="457.211" r="4" fill="#0" id="circle366"/>
	<circle cx="987.268" cy="465.944" r="4" fill="#0" id="circle367"/>
	<circle cx="987.268" cy="474.676" r="4" fill="#0" id="circle368"/>
	<circle cx="987.268" cy="620.507" r="4" fill="#0" id="circle369"/>
	<circle cx="987.268" cy="629.239" r="4" fill="#0" id="circle370"/>
	<circle cx="991.634" cy="482.535" r="4" fill="#0" id="circle371"/>
	<circle cx="991.634" cy="491.268" r="4" fill="#0" id="circle372"/>
	<circle cx="991.634" cy="500" r="4" fill="#0" id="circle373"/>
	<circle cx="991.634" cy="589.944" r="4" fill="#0" id="circle374"/>
	<circle cx="991.634" cy="598.676" r="4" fill="#0" id="circle375"/>
	<circle cx="991.634" cy="607.408" r="4" fill="#0" id="circle376"/>
	<circle cx="995.127" cy="508.732" r="4" fill="#0" id="circle377"/>
	<circle cx="996" cy="517.465" r="4" fill="#0" id="circle378"/>
	<circle cx="996" cy="526.197" r="4" fill="#0" id="circle379"/>
	<circle cx="996" cy="534.93" r="4" fill="#0" id="circle380"/>
	<circle cx="996" cy="543.662" r="4" fill="#0" id="circle381"/>
	<circle cx="996" cy="552.394" r="4" fill="#0" id="circle382"/>
	<circle cx="996" cy="561.127" r="4" fill="#0" id="circle383"/>
	<circle cx="996" cy="569.859" r="4" fill="#0" id="circle384"/>
	<circle cx="996" cy="578.592" r="4" fill="#0" id="circle385"/>
	</g>
</svg>