<?xml version="1.0" encoding="UTF-8" standalone="no"?>
<!-- Created with CurveBenchmark -->
<svg
	xmlns:dc="http://purl.org/dc/elements/1.1/"
	xmlns:cc="http://creativecommons.org/ns#"
	xmlns:rdf="http://www.w3.org/1999/02/22-rdf-syntax-ns#"
	xmlns:svg="http://www.w3.org/2000/svg"
	xmlns="http://www.w3.org/2000/svg"
	xmlns:sodipodi="http://sodipodi.sourceforge.net/DTD/sodipodi-0.dtd"
	xmlns:inkscape="http://www.inkscape.org/namespaces/inkscape"
	width="1000"
	height="1000"
	id="svg2"
	version="1.1"
	sodipodi:docname="manifold/vicur-television270.png.txt">
<defs
	id="defs4" />
<metadata
	id="metadata7">
	<rdf:RDF>
		<cc:Work
			rdf:about="">
			<dc:format>image/svg+xml</dc:format>
			<dc:type
				rdf:resource="http://purl.org/dc/dcmitype/StillImage" />
			<dc:title></dc:title>
		</cc:Work>
	</rdf:RDF>
</metadata>
<g
	inkscape:label="Layer 1"
	inkscape:groupmode="layer"
	id="layer1">
	<path style="fill:none;stroke:red;stroke-width:1px;stroke-linecap:butt;stroke-linejoin:miter;stroke-opacity:1" d="M 4,905.1 4,944.622 z" id="boundary" inkscape:connector-curvature="0" />
	<path style="fill:none;stroke:red;stroke-width:1px;stroke-linecap:butt;stroke-linejoin:miter;stroke-opacity:1" d="M 4,905.1 43.5219,897.195 z" id="boundary" inkscape:connector-curvature="0" />
	<path style="fill:none;stroke:red;stroke-width:1px;stroke-linecap:butt;stroke-linejoin:miter;stroke-opacity:1" d="M 4,944.622 15.8566,984.143 z" id="boundary" inkscape:connector-curvature="0" />
	<path style="fill:none;stroke:red;stroke-width:1px;stroke-linecap:butt;stroke-linejoin:miter;stroke-opacity:1" d="M 15.8566,984.143 55.3785,984.143 z" id="boundary" inkscape:connector-curvature="0" />
	<path style="fill:none;stroke:red;stroke-width:1px;stroke-linecap:butt;stroke-linejoin:miter;stroke-opacity:1" d="M 43.5219,897.195 67.2351,865.578 z" id="boundary" inkscape:connector-curvature="0" />
	<path style="fill:none;stroke:red;stroke-width:1px;stroke-linecap:butt;stroke-linejoin:miter;stroke-opacity:1" d="M 55.3785,984.143 94.9004,980.191 z" id="boundary" inkscape:connector-curvature="0" />
	<path style="fill:none;stroke:red;stroke-width:1px;stroke-linecap:butt;stroke-linejoin:miter;stroke-opacity:1" d="M 67.2351,75.1394 67.2351,114.661 z" id="boundary" inkscape:connector-curvature="0" />
	<path style="fill:none;stroke:red;stroke-width:1px;stroke-linecap:butt;stroke-linejoin:miter;stroke-opacity:1" d="M 67.2351,75.1394 106.757,75.1394 z" id="boundary" inkscape:connector-curvature="0" />
	<path style="fill:none;stroke:red;stroke-width:1px;stroke-linecap:butt;stroke-linejoin:miter;stroke-opacity:1" d="M 67.2351,114.661 67.2351,154.183 z" id="boundary" inkscape:connector-curvature="0" />
	<path style="fill:none;stroke:red;stroke-width:1px;stroke-linecap:butt;stroke-linejoin:miter;stroke-opacity:1" d="M 67.2351,154.183 67.2351,193.705 z" id="boundary" inkscape:connector-curvature="0" />
	<path style="fill:none;stroke:red;stroke-width:1px;stroke-linecap:butt;stroke-linejoin:miter;stroke-opacity:1" d="M 67.2351,193.705 67.2351,233.227 z" id="boundary" inkscape:connector-curvature="0" />
	<path style="fill:none;stroke:red;stroke-width:1px;stroke-linecap:butt;stroke-linejoin:miter;stroke-opacity:1" d="M 67.2351,233.227 67.2351,272.749 z" id="boundary" inkscape:connector-curvature="0" />
	<path style="fill:none;stroke:red;stroke-width:1px;stroke-linecap:butt;stroke-linejoin:miter;stroke-opacity:1" d="M 67.2351,272.749 67.2351,312.271 z" id="boundary" inkscape:connector-curvature="0" />
	<path style="fill:none;stroke:red;stroke-width:1px;stroke-linecap:butt;stroke-linejoin:miter;stroke-opacity:1" d="M 67.2351,312.271 67.2351,351.793 z" id="boundary" inkscape:connector-curvature="0" />
	<path style="fill:none;stroke:red;stroke-width:1px;stroke-linecap:butt;stroke-linejoin:miter;stroke-opacity:1" d="M 67.2351,351.793 67.2351,391.315 z" id="boundary" inkscape:connector-curvature="0" />
	<path style="fill:none;stroke:red;stroke-width:1px;stroke-linecap:butt;stroke-linejoin:miter;stroke-opacity:1" d="M 67.2351,391.315 67.2351,430.837 z" id="boundary" inkscape:connector-curvature="0" />
	<path style="fill:none;stroke:red;stroke-width:1px;stroke-linecap:butt;stroke-linejoin:miter;stroke-opacity:1" d="M 67.2351,430.837 67.2351,470.359 z" id="boundary" inkscape:connector-curvature="0" />
	<path style="fill:none;stroke:red;stroke-width:1px;stroke-linecap:butt;stroke-linejoin:miter;stroke-opacity:1" d="M 67.2351,470.359 67.2351,509.88 z" id="boundary" inkscape:connector-curvature="0" />
	<path style="fill:none;stroke:red;stroke-width:1px;stroke-linecap:butt;stroke-linejoin:miter;stroke-opacity:1" d="M 67.2351,509.88 67.2351,549.402 z" id="boundary" inkscape:connector-curvature="0" />
	<path style="fill:none;stroke:red;stroke-width:1px;stroke-linecap:butt;stroke-linejoin:miter;stroke-opacity:1" d="M 67.2351,549.402 67.2351,588.924 z" id="boundary" inkscape:connector-curvature="0" />
	<path style="fill:none;stroke:red;stroke-width:1px;stroke-linecap:butt;stroke-linejoin:miter;stroke-opacity:1" d="M 67.2351,588.924 67.2351,628.446 z" id="boundary" inkscape:connector-curvature="0" />
	<path style="fill:none;stroke:red;stroke-width:1px;stroke-linecap:butt;stroke-linejoin:miter;stroke-opacity:1" d="M 67.2351,628.446 67.2351,667.968 z" id="boundary" inkscape:connector-curvature="0" />
	<path style="fill:none;stroke:red;stroke-width:1px;stroke-linecap:butt;stroke-linejoin:miter;stroke-opacity:1" d="M 67.2351,667.968 67.2351,707.49 z" id="boundary" inkscape:connector-curvature="0" />
	<path style="fill:none;stroke:red;stroke-width:1px;stroke-linecap:butt;stroke-linejoin:miter;stroke-opacity:1" d="M 67.2351,707.49 67.2351,747.012 z" id="boundary" inkscape:connector-curvature="0" />
	<path style="fill:none;stroke:red;stroke-width:1px;stroke-linecap:butt;stroke-linejoin:miter;stroke-opacity:1" d="M 67.2351,747.012 67.2351,786.534 z" id="boundary" inkscape:connector-curvature="0" />
	<path style="fill:none;stroke:red;stroke-width:1px;stroke-linecap:butt;stroke-linejoin:miter;stroke-opacity:1" d="M 67.2351,786.534 67.2351,826.056 z" id="boundary" inkscape:connector-curvature="0" />
	<path style="fill:none;stroke:red;stroke-width:1px;stroke-linecap:butt;stroke-linejoin:miter;stroke-opacity:1" d="M 67.2351,826.056 67.2351,865.578 z" id="boundary" inkscape:connector-curvature="0" />
	<path style="fill:none;stroke:red;stroke-width:1px;stroke-linecap:butt;stroke-linejoin:miter;stroke-opacity:1" d="M 94.9004,980.191 134.422,980.191 z" id="boundary" inkscape:connector-curvature="0" />
	<path style="fill:none;stroke:red;stroke-width:1px;stroke-linecap:butt;stroke-linejoin:miter;stroke-opacity:1" d="M 106.757,75.1394 146.279,75.1394 z" id="boundary" inkscape:connector-curvature="0" />
	<path style="fill:none;stroke:red;stroke-width:1px;stroke-linecap:butt;stroke-linejoin:miter;stroke-opacity:1" d="M 134.422,980.191 173.944,980.191 z" id="boundary" inkscape:connector-curvature="0" />
	<path style="fill:none;stroke:red;stroke-width:1px;stroke-linecap:butt;stroke-linejoin:miter;stroke-opacity:1" d="M 146.279,75.1394 162.088,4 z" id="boundary" inkscape:connector-curvature="0" />
	<path style="fill:none;stroke:red;stroke-width:1px;stroke-linecap:butt;stroke-linejoin:miter;stroke-opacity:1" d="M 150.231,509.88 150.231,549.402 z" id="boundary" inkscape:connector-curvature="0" />
	<path style="fill:none;stroke:red;stroke-width:1px;stroke-linecap:butt;stroke-linejoin:miter;stroke-opacity:1" d="M 150.231,509.88 189.753,521.737 z" id="boundary" inkscape:connector-curvature="0" />
	<path style="fill:none;stroke:red;stroke-width:1px;stroke-linecap:butt;stroke-linejoin:miter;stroke-opacity:1" d="M 150.231,549.402 150.231,588.924 z" id="boundary" inkscape:connector-curvature="0" />
	<path style="fill:none;stroke:red;stroke-width:1px;stroke-linecap:butt;stroke-linejoin:miter;stroke-opacity:1" d="M 150.231,588.924 150.231,628.446 z" id="boundary" inkscape:connector-curvature="0" />
	<path style="fill:none;stroke:red;stroke-width:1px;stroke-linecap:butt;stroke-linejoin:miter;stroke-opacity:1" d="M 150.231,628.446 181.849,652.159 z" id="boundary" inkscape:connector-curvature="0" />
	<path style="fill:none;stroke:red;stroke-width:1px;stroke-linecap:butt;stroke-linejoin:miter;stroke-opacity:1" d="M 150.231,707.49 150.231,747.012 z" id="boundary" inkscape:connector-curvature="0" />
	<path style="fill:none;stroke:red;stroke-width:1px;stroke-linecap:butt;stroke-linejoin:miter;stroke-opacity:1" d="M 150.231,707.49 201.61,687.729 z" id="boundary" inkscape:connector-curvature="0" />
	<path style="fill:none;stroke:red;stroke-width:1px;stroke-linecap:butt;stroke-linejoin:miter;stroke-opacity:1" d="M 150.231,747.012 173.944,778.629 z" id="boundary" inkscape:connector-curvature="0" />
	<path style="fill:none;stroke:red;stroke-width:1px;stroke-linecap:butt;stroke-linejoin:miter;stroke-opacity:1" d="M 150.231,826.056 150.231,865.578 z" id="boundary" inkscape:connector-curvature="0" />
	<path style="fill:none;stroke:red;stroke-width:1px;stroke-linecap:butt;stroke-linejoin:miter;stroke-opacity:1" d="M 150.231,826.056 193.705,814.199 z" id="boundary" inkscape:connector-curvature="0" />
	<path style="fill:none;stroke:red;stroke-width:1px;stroke-linecap:butt;stroke-linejoin:miter;stroke-opacity:1" d="M 150.231,865.578 154.183,909.052 z" id="boundary" inkscape:connector-curvature="0" />
	<path style="fill:none;stroke:red;stroke-width:1px;stroke-linecap:butt;stroke-linejoin:miter;stroke-opacity:1" d="M 154.183,909.052 193.705,897.195 z" id="boundary" inkscape:connector-curvature="0" />
	<path style="fill:none;stroke:red;stroke-width:1px;stroke-linecap:butt;stroke-linejoin:miter;stroke-opacity:1" d="M 162.088,4 201.61,15.8566 z" id="boundary" inkscape:connector-curvature="0" />
	<path style="fill:none;stroke:red;stroke-width:1px;stroke-linecap:butt;stroke-linejoin:miter;stroke-opacity:1" d="M 173.944,778.629 213.466,778.629 z" id="boundary" inkscape:connector-curvature="0" />
	<path style="fill:none;stroke:red;stroke-width:1px;stroke-linecap:butt;stroke-linejoin:miter;stroke-opacity:1" d="M 173.944,980.191 213.466,980.191 z" id="boundary" inkscape:connector-curvature="0" />
	<path style="fill:none;stroke:red;stroke-width:1px;stroke-linecap:butt;stroke-linejoin:miter;stroke-opacity:1" d="M 181.849,652.159 221.371,652.159 z" id="boundary" inkscape:connector-curvature="0" />
	<path style="fill:none;stroke:red;stroke-width:1px;stroke-linecap:butt;stroke-linejoin:miter;stroke-opacity:1" d="M 189.753,521.737 213.466,490.12 z" id="boundary" inkscape:connector-curvature="0" />
	<path style="fill:none;stroke:red;stroke-width:1px;stroke-linecap:butt;stroke-linejoin:miter;stroke-opacity:1" d="M 193.705,814.199 233.227,814.199 z" id="boundary" inkscape:connector-curvature="0" />
	<path style="fill:none;stroke:red;stroke-width:1px;stroke-linecap:butt;stroke-linejoin:miter;stroke-opacity:1" d="M 193.705,897.195 225.323,920.908 z" id="boundary" inkscape:connector-curvature="0" />
	<path style="fill:none;stroke:red;stroke-width:1px;stroke-linecap:butt;stroke-linejoin:miter;stroke-opacity:1" d="M 201.61,15.8566 213.466,55.3785 z" id="boundary" inkscape:connector-curvature="0" />
	<path style="fill:none;stroke:red;stroke-width:1px;stroke-linecap:butt;stroke-linejoin:miter;stroke-opacity:1" d="M 201.61,687.729 241.131,687.729 z" id="boundary" inkscape:connector-curvature="0" />
	<path style="fill:none;stroke:red;stroke-width:1px;stroke-linecap:butt;stroke-linejoin:miter;stroke-opacity:1" d="M 213.466,55.3785 213.466,94.9004 z" id="boundary" inkscape:connector-curvature="0" />
	<path style="fill:none;stroke:red;stroke-width:1px;stroke-linecap:butt;stroke-linejoin:miter;stroke-opacity:1" d="M 213.466,94.9004 213.466,134.422 z" id="boundary" inkscape:connector-curvature="0" />
	<path style="fill:none;stroke:red;stroke-width:1px;stroke-linecap:butt;stroke-linejoin:miter;stroke-opacity:1" d="M 213.466,134.422 213.466,173.944 z" id="boundary" inkscape:connector-curvature="0" />
	<path style="fill:none;stroke:red;stroke-width:1px;stroke-linecap:butt;stroke-linejoin:miter;stroke-opacity:1" d="M 213.466,173.944 213.466,213.466 z" id="boundary" inkscape:connector-curvature="0" />
	<path style="fill:none;stroke:red;stroke-width:1px;stroke-linecap:butt;stroke-linejoin:miter;stroke-opacity:1" d="M 213.466,213.466 213.466,252.988 z" id="boundary" inkscape:connector-curvature="0" />
	<path style="fill:none;stroke:red;stroke-width:1px;stroke-linecap:butt;stroke-linejoin:miter;stroke-opacity:1" d="M 213.466,252.988 213.466,292.51 z" id="boundary" inkscape:connector-curvature="0" />
	<path style="fill:none;stroke:red;stroke-width:1px;stroke-linecap:butt;stroke-linejoin:miter;stroke-opacity:1" d="M 213.466,292.51 213.466,332.032 z" id="boundary" inkscape:connector-curvature="0" />
	<path style="fill:none;stroke:red;stroke-width:1px;stroke-linecap:butt;stroke-linejoin:miter;stroke-opacity:1" d="M 213.466,332.032 213.466,371.554 z" id="boundary" inkscape:connector-curvature="0" />
	<path style="fill:none;stroke:red;stroke-width:1px;stroke-linecap:butt;stroke-linejoin:miter;stroke-opacity:1" d="M 213.466,371.554 213.466,411.076 z" id="boundary" inkscape:connector-curvature="0" />
	<path style="fill:none;stroke:red;stroke-width:1px;stroke-linecap:butt;stroke-linejoin:miter;stroke-opacity:1" d="M 213.466,411.076 213.466,450.598 z" id="boundary" inkscape:connector-curvature="0" />
	<path style="fill:none;stroke:red;stroke-width:1px;stroke-linecap:butt;stroke-linejoin:miter;stroke-opacity:1" d="M 213.466,450.598 213.466,490.12 z" id="boundary" inkscape:connector-curvature="0" />
	<path style="fill:none;stroke:red;stroke-width:1px;stroke-linecap:butt;stroke-linejoin:miter;stroke-opacity:1" d="M 213.466,778.629 252.988,778.629 z" id="boundary" inkscape:connector-curvature="0" />
	<path style="fill:none;stroke:red;stroke-width:1px;stroke-linecap:butt;stroke-linejoin:miter;stroke-opacity:1" d="M 213.466,980.191 252.988,980.191 z" id="boundary" inkscape:connector-curvature="0" />
	<path style="fill:none;stroke:red;stroke-width:1px;stroke-linecap:butt;stroke-linejoin:miter;stroke-opacity:1" d="M 221.371,652.159 260.892,652.159 z" id="boundary" inkscape:connector-curvature="0" />
	<path style="fill:none;stroke:red;stroke-width:1px;stroke-linecap:butt;stroke-linejoin:miter;stroke-opacity:1" d="M 225.323,920.908 256.94,897.195 z" id="boundary" inkscape:connector-curvature="0" />
	<path style="fill:none;stroke:red;stroke-width:1px;stroke-linecap:butt;stroke-linejoin:miter;stroke-opacity:1" d="M 233.227,814.199 272.749,814.199 z" id="boundary" inkscape:connector-curvature="0" />
	<path style="fill:none;stroke:red;stroke-width:1px;stroke-linecap:butt;stroke-linejoin:miter;stroke-opacity:1" d="M 241.131,687.729 280.653,687.729 z" id="boundary" inkscape:connector-curvature="0" />
	<path style="fill:none;stroke:red;stroke-width:1px;stroke-linecap:butt;stroke-linejoin:miter;stroke-opacity:1" d="M 252.988,778.629 292.51,778.629 z" id="boundary" inkscape:connector-curvature="0" />
	<path style="fill:none;stroke:red;stroke-width:1px;stroke-linecap:butt;stroke-linejoin:miter;stroke-opacity:1" d="M 252.988,980.191 292.51,980.191 z" id="boundary" inkscape:connector-curvature="0" />
	<path style="fill:none;stroke:red;stroke-width:1px;stroke-linecap:butt;stroke-linejoin:miter;stroke-opacity:1" d="M 256.94,897.195 296.462,897.195 z" id="boundary" inkscape:connector-curvature="0" />
	<path style="fill:none;stroke:red;stroke-width:1px;stroke-linecap:butt;stroke-linejoin:miter;stroke-opacity:1" d="M 260.892,652.159 300.414,652.159 z" id="boundary" inkscape:connector-curvature="0" />
	<path style="fill:none;stroke:red;stroke-width:1px;stroke-linecap:butt;stroke-linejoin:miter;stroke-opacity:1" d="M 272.749,814.199 312.271,814.199 z" id="boundary" inkscape:connector-curvature="0" />
	<path style="fill:none;stroke:red;stroke-width:1px;stroke-linecap:butt;stroke-linejoin:miter;stroke-opacity:1" d="M 280.653,687.729 320.175,687.729 z" id="boundary" inkscape:connector-curvature="0" />
	<path style="fill:none;stroke:red;stroke-width:1px;stroke-linecap:butt;stroke-linejoin:miter;stroke-opacity:1" d="M 292.51,778.629 332.032,778.629 z" id="boundary" inkscape:connector-curvature="0" />
	<path style="fill:none;stroke:red;stroke-width:1px;stroke-linecap:butt;stroke-linejoin:miter;stroke-opacity:1" d="M 292.51,980.191 332.032,996 z" id="boundary" inkscape:connector-curvature="0" />
	<path style="fill:none;stroke:red;stroke-width:1px;stroke-linecap:butt;stroke-linejoin:miter;stroke-opacity:1" d="M 296.462,897.195 335.984,897.195 z" id="boundary" inkscape:connector-curvature="0" />
	<path style="fill:none;stroke:red;stroke-width:1px;stroke-linecap:butt;stroke-linejoin:miter;stroke-opacity:1" d="M 300.414,652.159 339.936,652.159 z" id="boundary" inkscape:connector-curvature="0" />
	<path style="fill:none;stroke:red;stroke-width:1px;stroke-linecap:butt;stroke-linejoin:miter;stroke-opacity:1" d="M 312.271,814.199 351.793,814.199 z" id="boundary" inkscape:connector-curvature="0" />
	<path style="fill:none;stroke:red;stroke-width:1px;stroke-linecap:butt;stroke-linejoin:miter;stroke-opacity:1" d="M 320.175,687.729 359.697,687.729 z" id="boundary" inkscape:connector-curvature="0" />
	<path style="fill:none;stroke:red;stroke-width:1px;stroke-linecap:butt;stroke-linejoin:miter;stroke-opacity:1" d="M 332.032,778.629 371.554,778.629 z" id="boundary" inkscape:connector-curvature="0" />
	<path style="fill:none;stroke:red;stroke-width:1px;stroke-linecap:butt;stroke-linejoin:miter;stroke-opacity:1" d="M 332.032,996 371.554,980.191 z" id="boundary" inkscape:connector-curvature="0" />
	<path style="fill:none;stroke:red;stroke-width:1px;stroke-linecap:butt;stroke-linejoin:miter;stroke-opacity:1" d="M 335.984,897.195 375.506,897.195 z" id="boundary" inkscape:connector-curvature="0" />
	<path style="fill:none;stroke:red;stroke-width:1px;stroke-linecap:butt;stroke-linejoin:miter;stroke-opacity:1" d="M 339.936,652.159 379.458,652.159 z" id="boundary" inkscape:connector-curvature="0" />
	<path style="fill:none;stroke:red;stroke-width:1px;stroke-linecap:butt;stroke-linejoin:miter;stroke-opacity:1" d="M 351.793,814.199 371.554,778.629 z" id="boundary" inkscape:connector-curvature="0" />
	<path style="fill:none;stroke:red;stroke-width:1px;stroke-linecap:butt;stroke-linejoin:miter;stroke-opacity:1" d="M 359.697,687.729 379.458,652.159 z" id="boundary" inkscape:connector-curvature="0" />
	<path style="fill:none;stroke:red;stroke-width:1px;stroke-linecap:butt;stroke-linejoin:miter;stroke-opacity:1" d="M 371.554,980.191 387.363,936.717 z" id="boundary" inkscape:connector-curvature="0" />
	<path style="fill:none;stroke:red;stroke-width:1px;stroke-linecap:butt;stroke-linejoin:miter;stroke-opacity:1" d="M 375.506,897.195 387.363,936.717 z" id="boundary" inkscape:connector-curvature="0" />
	<circle cx="4" cy="905.1" r="4" fill="#0" id="circle0"/>
	<circle cx="4" cy="944.622" r="4" fill="#0" id="circle1"/>
	<circle cx="15.8566" cy="984.143" r="4" fill="#0" id="circle2"/>
	<circle cx="43.5219" cy="897.195" r="4" fill="#0" id="circle3"/>
	<circle cx="55.3785" cy="984.143" r="4" fill="#0" id="circle4"/>
	<circle cx="67.2351" cy="75.1394" r="4" fill="#0" id="circle5"/>
	<circle cx="67.2351" cy="114.661" r="4" fill="#0" id="circle6"/>
	<circle cx="67.2351" cy="154.183" r="4" fill="#0" id="circle7"/>
	<circle cx="67.2351" cy="193.705" r="4" fill="#0" id="circle8"/>
	<circle cx="67.2351" cy="233.227" r="4" fill="#0" id="circle9"/>
	<circle cx="67.2351" cy="272.749" r="4" fill="#0" id="circle10"/>
	<circle cx="67.2351" cy="312.271" r="4" fill="#0" id="circle11"/>
	<circle cx="67.2351" cy="351.793" r="4" fill="#0" id="circle12"/>
	<circle cx="67.2351" cy="391.315" r="4" fill="#0" id="circle13"/>
	<circle cx="67.2351" cy="430.837" r="4" fill="#0" id="circle14"/>
	<circle cx="67.2351" cy="470.359" r="4" fill="#0" id="circle15"/>
	<circle cx="67.2351" cy="509.88" r="4" fill="#0" id="circle16"/>
	<circle cx="67.2351" cy="549.402" r="4" fill="#0" id="circle17"/>
	<circle cx="67.2351" cy="588.924" r="4" fill="#0" id="circle18"/>
	<circle cx="67.2351" cy="628.446" r="4" fill="#0" id="circle19"/>
	<circle cx="67.2351" cy="667.968" r="4" fill="#0" id="circle20"/>
	<circle cx="67.2351" cy="707.49" r="4" fill="#0" id="circle21"/>
	<circle cx="67.2351" cy="747.012" r="4" fill="#0" id="circle22"/>
	<circle cx="67.2351" cy="786.534" r="4" fill="#0" id="circle23"/>
	<circle cx="67.2351" cy="826.056" r="4" fill="#0" id="circle24"/>
	<circle cx="67.2351" cy="865.578" r="4" fill="#0" id="circle25"/>
	<circle cx="94.9004" cy="980.191" r="4" fill="#0" id="circle26"/>
	<circle cx="106.757" cy="75.1394" r="4" fill="#0" id="circle27"/>
	<circle cx="134.422" cy="980.191" r="4" fill="#0" id="circle28"/>
	<circle cx="146.279" cy="75.1394" r="4" fill="#0" id="circle29"/>
	<circle cx="150.231" cy="509.88" r="4" fill="#0" id="circle30"/>
	<circle cx="150.231" cy="549.402" r="4" fill="#0" id="circle31"/>
	<circle cx="150.231" cy="588.924" r="4" fill="#0" id="circle32"/>
	<circle cx="150.231" cy="628.446" r="4" fill="#0" id="circle33"/>
	<circle cx="150.231" cy="707.49" r="4" fill="#0" id="circle34"/>
	<circle cx="150.231" cy="747.012" r="4" fill="#0" id="circle35"/>
	<circle cx="150.231" cy="826.056" r="4" fill="#0" id="circle36"/>
	<circle cx="150.231" cy="865.578" r="4" fill="#0" id="circle37"/>
	<circle cx="154.183" cy="909.052" r="4" fill="#0" id="circle38"/>
	<circle cx="162.088" cy="4" r="4" fill="#0" id="circle39"/>
	<circle cx="173.944" cy="778.629" r="4" fill="#0" id="circle40"/>
	<circle cx="173.944" cy="980.191" r="4" fill="#0" id="circle41"/>
	<circle cx="181.849" cy="652.159" r="4" fill="#0" id="circle42"/>
	<circle cx="189.753" cy="521.737" r="4" fill="#0" id="circle43"/>
	<circle cx="193.705" cy="814.199" r="4" fill="#0" id="circle44"/>
	<circle cx="193.705" cy="897.195" r="4" fill="#0" id="circle45"/>
	<circle cx="201.61" cy="15.8566" r="4" fill="#0" id="circle46"/>
	<circle cx="201.61" cy="687.729" r="4" fill="#0" id="circle47"/>
	<circle cx="213.466" cy="55.3785" r="4" fill="#0" id="circle48"/>
	<circle cx="213.466" cy="94.9004" r="4" fill="#0" id="circle49"/>
	<circle cx="213.466" cy="134.422" r="4" fill="#0" id="circle50"/>
	<circle cx="213.466" cy="173.944" r="4" fill="#0" id="circle51"/>
	<circle cx="213.466" cy="213.466" r="4" fill="#0" id="circle52"/>
	<circle cx="213.466" cy="252.988" r="4" fill="#0" id="circle53"/>
	<circle cx="213.466" cy="292.51" r="4" fill="#0" id="circle54"/>
	<circle cx="213.466" cy="332.032" r="4" fill="#0" id="circle55"/>
	<circle cx="213.466" cy="371.554" r="4" fill="#0" id="circle56"/>
	<circle cx="213.466" cy="411.076" r="4" fill="#0" id="circle57"/>
	<circle cx="213.466" cy="450.598" r="4" fill="#0" id="circle58"/>
	<circle cx="213.466" cy="490.12" r="4" fill="#0" id="circle59"/>
	<circle cx="213.466" cy="778.629" r="4" fill="#0" id="circle60"/>
	<circle cx="213.466" cy="980.191" r="4" fill="#0" id="circle61"/>
	<circle cx="221.371" cy="652.159" r="4" fill="#0" id="circle62"/>
	<circle cx="225.323" cy="920.908" r="4" fill="#0" id="circle63"/>
	<circle cx="233.227" cy="814.199" r="4" fill="#0" id="circle64"/>
	<circle cx="241.131" cy="687.729" r="4" fill="#0" id="circle65"/>
	<circle cx="252.988" cy="778.629" r="4" fill="#0" id="circle66"/>
	<circle cx="252.988" cy="980.191" r="4" fill="#0" id="circle67"/>
	<circle cx="256.94" cy="897.195" r="4" fill="#0" id="circle68"/>
	<circle cx="260.892" cy="652.159" r="4" fill="#0" id="circle69"/>
	<circle cx="272.749" cy="814.199" r="4" fill="#0" id="circle70"/>
	<circle cx="280.653" cy="687.729" r="4" fill="#0" id="circle71"/>
	<circle cx="292.51" cy="778.629" r="4" fill="#0" id="circle72"/>
	<circle cx="292.51" cy="980.191" r="4" fill="#0" id="circle73"/>
	<circle cx="296.462" cy="897.195" r="4" fill="#0" id="circle74"/>
	<circle cx="300.414" cy="652.159" r="4" fill="#0" id="circle75"/>
	<circle cx="312.271" cy="814.199" r="4" fill="#0" id="circle76"/>
	<circle cx="320.175" cy="687.729" r="4" fill="#0" id="circle77"/>
	<circle cx="332.032" cy="778.629" r="4" fill="#0" id="circle78"/>
	<circle cx="332.032" cy="996" r="4" fill="#0" id="circle79"/>
	<circle cx="335.984" cy="897.195" r="4" fill="#0" id="circle80"/>
	<circle cx="339.936" cy="652.159" r="4" fill="#0" id="circle81"/>
	<circle cx="351.793" cy="814.199" r="4" fill="#0" id="circle82"/>
	<circle cx="359.697" cy="687.729" r="4" fill="#0" id="circle83"/>
	<circle cx="371.554" cy="778.629" r="4" fill="#0" id="circle84"/>
	<circle cx="371.554" cy="980.191" r="4" fill="#0" id="circle85"/>
	<circle cx="375.506" cy="897.195" r="4" fill="#0" id="circle86"/>
	<circle cx="379.458" cy="652.159" r="4" fill="#0" id="circle87"/>
	<circle cx="387.363" cy="936.717" r="4" fill="#0" id="circle88"/>
	</g>
</svg>