<?xml version="1.0" encoding="UTF-8" standalone="no"?>
<!-- Created with CurveBenchmark -->
<svg
	xmlns:dc="http://purl.org/dc/elements/1.1/"
	xmlns:cc="http://creativecommons.org/ns#"
	xmlns:rdf="http://www.w3.org/1999/02/22-rdf-syntax-ns#"
	xmlns:svg="http://www.w3.org/2000/svg"
	xmlns="http://www.w3.org/2000/svg"
	xmlns:sodipodi="http://sodipodi.sourceforge.net/DTD/sodipodi-0.dtd"
	xmlns:inkscape="http://www.inkscape.org/namespaces/inkscape"
	width="1000"
	height="1000"
	id="svg2"
	version="1.1"
	sodipodi:docname="manifold/vicur-woodenspoonbinary24.png.txt">
<defs
	id="defs4" />
<metadata
	id="metadata7">
	<rdf:RDF>
		<cc:Work
			rdf:about="">
			<dc:format>image/svg+xml</dc:format>
			<dc:type
				rdf:resource="http://purl.org/dc/dcmitype/StillImage" />
			<dc:title></dc:title>
		</cc:Work>
	</rdf:RDF>
</metadata>
<g
	inkscape:label="Layer 1"
	inkscape:groupmode="layer"
	id="layer1">
	<path style="fill:none;stroke:red;stroke-width:1px;stroke-linecap:butt;stroke-linejoin:miter;stroke-opacity:1" d="M 4,37.502 5.13566,43.1803 z" id="boundary" inkscape:connector-curvature="0" />
	<path style="fill:none;stroke:red;stroke-width:1px;stroke-linecap:butt;stroke-linejoin:miter;stroke-opacity:1" d="M 4,37.502 6.83915,31.8237 z" id="boundary" inkscape:connector-curvature="0" />
	<path style="fill:none;stroke:red;stroke-width:1px;stroke-linecap:butt;stroke-linejoin:miter;stroke-opacity:1" d="M 5.13566,43.1803 7.97481,48.2908 z" id="boundary" inkscape:connector-curvature="0" />
	<path style="fill:none;stroke:red;stroke-width:1px;stroke-linecap:butt;stroke-linejoin:miter;stroke-opacity:1" d="M 6.83915,31.8237 10.2461,27.2811 z" id="boundary" inkscape:connector-curvature="0" />
	<path style="fill:none;stroke:red;stroke-width:1px;stroke-linecap:butt;stroke-linejoin:miter;stroke-opacity:1" d="M 7.97481,48.2908 11.3818,52.8334 z" id="boundary" inkscape:connector-curvature="0" />
	<path style="fill:none;stroke:red;stroke-width:1px;stroke-linecap:butt;stroke-linejoin:miter;stroke-opacity:1" d="M 10.2461,27.2811 15.9244,25.0097 z" id="boundary" inkscape:connector-curvature="0" />
	<path style="fill:none;stroke:red;stroke-width:1px;stroke-linecap:butt;stroke-linejoin:miter;stroke-opacity:1" d="M 11.3818,52.8334 17.0601,53.9691 z" id="boundary" inkscape:connector-curvature="0" />
	<path style="fill:none;stroke:red;stroke-width:1px;stroke-linecap:butt;stroke-linejoin:miter;stroke-opacity:1" d="M 15.9244,25.0097 21.6027,25.0097 z" id="boundary" inkscape:connector-curvature="0" />
	<path style="fill:none;stroke:red;stroke-width:1px;stroke-linecap:butt;stroke-linejoin:miter;stroke-opacity:1" d="M 17.0601,53.9691 22.7384,54.5369 z" id="boundary" inkscape:connector-curvature="0" />
	<path style="fill:none;stroke:red;stroke-width:1px;stroke-linecap:butt;stroke-linejoin:miter;stroke-opacity:1" d="M 21.6027,25.0097 27.2811,25.0097 z" id="boundary" inkscape:connector-curvature="0" />
	<path style="fill:none;stroke:red;stroke-width:1px;stroke-linecap:butt;stroke-linejoin:miter;stroke-opacity:1" d="M 22.7384,54.5369 28.4167,55.6726 z" id="boundary" inkscape:connector-curvature="0" />
	<path style="fill:none;stroke:red;stroke-width:1px;stroke-linecap:butt;stroke-linejoin:miter;stroke-opacity:1" d="M 27.2811,25.0097 32.9594,25.0097 z" id="boundary" inkscape:connector-curvature="0" />
	<path style="fill:none;stroke:red;stroke-width:1px;stroke-linecap:butt;stroke-linejoin:miter;stroke-opacity:1" d="M 28.4167,55.6726 34.095,55.6726 z" id="boundary" inkscape:connector-curvature="0" />
	<path style="fill:none;stroke:red;stroke-width:1px;stroke-linecap:butt;stroke-linejoin:miter;stroke-opacity:1" d="M 32.9594,25.0097 38.6377,25.5776 z" id="boundary" inkscape:connector-curvature="0" />
	<path style="fill:none;stroke:red;stroke-width:1px;stroke-linecap:butt;stroke-linejoin:miter;stroke-opacity:1" d="M 34.095,55.6726 39.7733,56.2404 z" id="boundary" inkscape:connector-curvature="0" />
	<path style="fill:none;stroke:red;stroke-width:1px;stroke-linecap:butt;stroke-linejoin:miter;stroke-opacity:1" d="M 38.6377,25.5776 44.316,25.5776 z" id="boundary" inkscape:connector-curvature="0" />
	<path style="fill:none;stroke:red;stroke-width:1px;stroke-linecap:butt;stroke-linejoin:miter;stroke-opacity:1" d="M 39.7733,56.2404 45.4516,56.8082 z" id="boundary" inkscape:connector-curvature="0" />
	<path style="fill:none;stroke:red;stroke-width:1px;stroke-linecap:butt;stroke-linejoin:miter;stroke-opacity:1" d="M 44.316,25.5776 49.9943,26.1454 z" id="boundary" inkscape:connector-curvature="0" />
	<path style="fill:none;stroke:red;stroke-width:1px;stroke-linecap:butt;stroke-linejoin:miter;stroke-opacity:1" d="M 45.4516,56.8082 51.1299,56.8082 z" id="boundary" inkscape:connector-curvature="0" />
	<path style="fill:none;stroke:red;stroke-width:1px;stroke-linecap:butt;stroke-linejoin:miter;stroke-opacity:1" d="M 49.9943,26.1454 55.6726,26.7132 z" id="boundary" inkscape:connector-curvature="0" />
	<path style="fill:none;stroke:red;stroke-width:1px;stroke-linecap:butt;stroke-linejoin:miter;stroke-opacity:1" d="M 51.1299,56.8082 56.8082,57.3761 z" id="boundary" inkscape:connector-curvature="0" />
	<path style="fill:none;stroke:red;stroke-width:1px;stroke-linecap:butt;stroke-linejoin:miter;stroke-opacity:1" d="M 55.6726,26.7132 61.3509,26.7132 z" id="boundary" inkscape:connector-curvature="0" />
	<path style="fill:none;stroke:red;stroke-width:1px;stroke-linecap:butt;stroke-linejoin:miter;stroke-opacity:1" d="M 56.8082,57.3761 62.4865,56.8082 z" id="boundary" inkscape:connector-curvature="0" />
	<path style="fill:none;stroke:red;stroke-width:1px;stroke-linecap:butt;stroke-linejoin:miter;stroke-opacity:1" d="M 61.3509,26.7132 67.0292,27.2811 z" id="boundary" inkscape:connector-curvature="0" />
	<path style="fill:none;stroke:red;stroke-width:1px;stroke-linecap:butt;stroke-linejoin:miter;stroke-opacity:1" d="M 62.4865,56.8082 68.1649,56.8082 z" id="boundary" inkscape:connector-curvature="0" />
	<path style="fill:none;stroke:red;stroke-width:1px;stroke-linecap:butt;stroke-linejoin:miter;stroke-opacity:1" d="M 67.0292,27.2811 72.7075,27.8489 z" id="boundary" inkscape:connector-curvature="0" />
	<path style="fill:none;stroke:red;stroke-width:1px;stroke-linecap:butt;stroke-linejoin:miter;stroke-opacity:1" d="M 68.1649,56.8082 73.8432,57.9439 z" id="boundary" inkscape:connector-curvature="0" />
	<path style="fill:none;stroke:red;stroke-width:1px;stroke-linecap:butt;stroke-linejoin:miter;stroke-opacity:1" d="M 72.7075,27.8489 78.3858,28.4167 z" id="boundary" inkscape:connector-curvature="0" />
	<path style="fill:none;stroke:red;stroke-width:1px;stroke-linecap:butt;stroke-linejoin:miter;stroke-opacity:1" d="M 73.8432,57.9439 79.5215,58.5117 z" id="boundary" inkscape:connector-curvature="0" />
	<path style="fill:none;stroke:red;stroke-width:1px;stroke-linecap:butt;stroke-linejoin:miter;stroke-opacity:1" d="M 78.3858,28.4167 84.0641,28.4167 z" id="boundary" inkscape:connector-curvature="0" />
	<path style="fill:none;stroke:red;stroke-width:1px;stroke-linecap:butt;stroke-linejoin:miter;stroke-opacity:1" d="M 79.5215,58.5117 85.1998,57.9439 z" id="boundary" inkscape:connector-curvature="0" />
	<path style="fill:none;stroke:red;stroke-width:1px;stroke-linecap:butt;stroke-linejoin:miter;stroke-opacity:1" d="M 84.0641,28.4167 89.7424,28.9845 z" id="boundary" inkscape:connector-curvature="0" />
	<path style="fill:none;stroke:red;stroke-width:1px;stroke-linecap:butt;stroke-linejoin:miter;stroke-opacity:1" d="M 85.1998,57.9439 90.8781,57.3761 z" id="boundary" inkscape:connector-curvature="0" />
	<path style="fill:none;stroke:red;stroke-width:1px;stroke-linecap:butt;stroke-linejoin:miter;stroke-opacity:1" d="M 89.7424,28.9845 95.4207,28.9845 z" id="boundary" inkscape:connector-curvature="0" />
	<path style="fill:none;stroke:red;stroke-width:1px;stroke-linecap:butt;stroke-linejoin:miter;stroke-opacity:1" d="M 90.8781,57.3761 96.5564,57.9439 z" id="boundary" inkscape:connector-curvature="0" />
	<path style="fill:none;stroke:red;stroke-width:1px;stroke-linecap:butt;stroke-linejoin:miter;stroke-opacity:1" d="M 95.4207,28.9845 101.099,30.1202 z" id="boundary" inkscape:connector-curvature="0" />
	<path style="fill:none;stroke:red;stroke-width:1px;stroke-linecap:butt;stroke-linejoin:miter;stroke-opacity:1" d="M 96.5564,57.9439 102.235,58.5117 z" id="boundary" inkscape:connector-curvature="0" />
	<path style="fill:none;stroke:red;stroke-width:1px;stroke-linecap:butt;stroke-linejoin:miter;stroke-opacity:1" d="M 101.099,30.1202 106.777,30.1202 z" id="boundary" inkscape:connector-curvature="0" />
	<path style="fill:none;stroke:red;stroke-width:1px;stroke-linecap:butt;stroke-linejoin:miter;stroke-opacity:1" d="M 102.235,58.5117 107.913,59.0796 z" id="boundary" inkscape:connector-curvature="0" />
	<path style="fill:none;stroke:red;stroke-width:1px;stroke-linecap:butt;stroke-linejoin:miter;stroke-opacity:1" d="M 106.777,30.1202 112.456,30.1202 z" id="boundary" inkscape:connector-curvature="0" />
	<path style="fill:none;stroke:red;stroke-width:1px;stroke-linecap:butt;stroke-linejoin:miter;stroke-opacity:1" d="M 107.913,59.0796 113.591,59.0796 z" id="boundary" inkscape:connector-curvature="0" />
	<path style="fill:none;stroke:red;stroke-width:1px;stroke-linecap:butt;stroke-linejoin:miter;stroke-opacity:1" d="M 112.456,30.1202 118.134,30.688 z" id="boundary" inkscape:connector-curvature="0" />
	<path style="fill:none;stroke:red;stroke-width:1px;stroke-linecap:butt;stroke-linejoin:miter;stroke-opacity:1" d="M 113.591,59.0796 119.27,60.2152 z" id="boundary" inkscape:connector-curvature="0" />
	<path style="fill:none;stroke:red;stroke-width:1px;stroke-linecap:butt;stroke-linejoin:miter;stroke-opacity:1" d="M 118.134,30.688 123.812,31.2559 z" id="boundary" inkscape:connector-curvature="0" />
	<path style="fill:none;stroke:red;stroke-width:1px;stroke-linecap:butt;stroke-linejoin:miter;stroke-opacity:1" d="M 119.27,60.2152 124.948,60.7831 z" id="boundary" inkscape:connector-curvature="0" />
	<path style="fill:none;stroke:red;stroke-width:1px;stroke-linecap:butt;stroke-linejoin:miter;stroke-opacity:1" d="M 123.812,31.2559 129.491,31.2559 z" id="boundary" inkscape:connector-curvature="0" />
	<path style="fill:none;stroke:red;stroke-width:1px;stroke-linecap:butt;stroke-linejoin:miter;stroke-opacity:1" d="M 124.948,60.7831 130.626,60.7831 z" id="boundary" inkscape:connector-curvature="0" />
	<path style="fill:none;stroke:red;stroke-width:1px;stroke-linecap:butt;stroke-linejoin:miter;stroke-opacity:1" d="M 129.491,31.2559 135.169,31.8237 z" id="boundary" inkscape:connector-curvature="0" />
	<path style="fill:none;stroke:red;stroke-width:1px;stroke-linecap:butt;stroke-linejoin:miter;stroke-opacity:1" d="M 130.626,60.7831 136.305,60.2152 z" id="boundary" inkscape:connector-curvature="0" />
	<path style="fill:none;stroke:red;stroke-width:1px;stroke-linecap:butt;stroke-linejoin:miter;stroke-opacity:1" d="M 135.169,31.8237 140.847,32.9594 z" id="boundary" inkscape:connector-curvature="0" />
	<path style="fill:none;stroke:red;stroke-width:1px;stroke-linecap:butt;stroke-linejoin:miter;stroke-opacity:1" d="M 136.305,60.2152 141.983,60.7831 z" id="boundary" inkscape:connector-curvature="0" />
	<path style="fill:none;stroke:red;stroke-width:1px;stroke-linecap:butt;stroke-linejoin:miter;stroke-opacity:1" d="M 140.847,32.9594 146.525,32.9594 z" id="boundary" inkscape:connector-curvature="0" />
	<path style="fill:none;stroke:red;stroke-width:1px;stroke-linecap:butt;stroke-linejoin:miter;stroke-opacity:1" d="M 141.983,60.7831 147.661,60.7831 z" id="boundary" inkscape:connector-curvature="0" />
	<path style="fill:none;stroke:red;stroke-width:1px;stroke-linecap:butt;stroke-linejoin:miter;stroke-opacity:1" d="M 146.525,32.9594 152.204,32.9594 z" id="boundary" inkscape:connector-curvature="0" />
	<path style="fill:none;stroke:red;stroke-width:1px;stroke-linecap:butt;stroke-linejoin:miter;stroke-opacity:1" d="M 147.661,60.7831 153.339,60.7831 z" id="boundary" inkscape:connector-curvature="0" />
	<path style="fill:none;stroke:red;stroke-width:1px;stroke-linecap:butt;stroke-linejoin:miter;stroke-opacity:1" d="M 152.204,32.9594 157.882,34.095 z" id="boundary" inkscape:connector-curvature="0" />
	<path style="fill:none;stroke:red;stroke-width:1px;stroke-linecap:butt;stroke-linejoin:miter;stroke-opacity:1" d="M 153.339,60.7831 159.018,61.3509 z" id="boundary" inkscape:connector-curvature="0" />
	<path style="fill:none;stroke:red;stroke-width:1px;stroke-linecap:butt;stroke-linejoin:miter;stroke-opacity:1" d="M 157.882,34.095 163.56,34.095 z" id="boundary" inkscape:connector-curvature="0" />
	<path style="fill:none;stroke:red;stroke-width:1px;stroke-linecap:butt;stroke-linejoin:miter;stroke-opacity:1" d="M 159.018,61.3509 164.696,61.9187 z" id="boundary" inkscape:connector-curvature="0" />
	<path style="fill:none;stroke:red;stroke-width:1px;stroke-linecap:butt;stroke-linejoin:miter;stroke-opacity:1" d="M 163.56,34.095 169.239,34.095 z" id="boundary" inkscape:connector-curvature="0" />
	<path style="fill:none;stroke:red;stroke-width:1px;stroke-linecap:butt;stroke-linejoin:miter;stroke-opacity:1" d="M 164.696,61.9187 170.374,61.9187 z" id="boundary" inkscape:connector-curvature="0" />
	<path style="fill:none;stroke:red;stroke-width:1px;stroke-linecap:butt;stroke-linejoin:miter;stroke-opacity:1" d="M 169.239,34.095 174.917,34.6629 z" id="boundary" inkscape:connector-curvature="0" />
	<path style="fill:none;stroke:red;stroke-width:1px;stroke-linecap:butt;stroke-linejoin:miter;stroke-opacity:1" d="M 170.374,61.9187 176.053,62.4865 z" id="boundary" inkscape:connector-curvature="0" />
	<path style="fill:none;stroke:red;stroke-width:1px;stroke-linecap:butt;stroke-linejoin:miter;stroke-opacity:1" d="M 174.917,34.6629 180.595,35.2307 z" id="boundary" inkscape:connector-curvature="0" />
	<path style="fill:none;stroke:red;stroke-width:1px;stroke-linecap:butt;stroke-linejoin:miter;stroke-opacity:1" d="M 176.053,62.4865 181.731,62.4865 z" id="boundary" inkscape:connector-curvature="0" />
	<path style="fill:none;stroke:red;stroke-width:1px;stroke-linecap:butt;stroke-linejoin:miter;stroke-opacity:1" d="M 180.595,35.2307 186.274,35.2307 z" id="boundary" inkscape:connector-curvature="0" />
	<path style="fill:none;stroke:red;stroke-width:1px;stroke-linecap:butt;stroke-linejoin:miter;stroke-opacity:1" d="M 181.731,62.4865 187.409,62.4865 z" id="boundary" inkscape:connector-curvature="0" />
	<path style="fill:none;stroke:red;stroke-width:1px;stroke-linecap:butt;stroke-linejoin:miter;stroke-opacity:1" d="M 186.274,35.2307 191.952,35.7985 z" id="boundary" inkscape:connector-curvature="0" />
	<path style="fill:none;stroke:red;stroke-width:1px;stroke-linecap:butt;stroke-linejoin:miter;stroke-opacity:1" d="M 187.409,62.4865 193.088,63.6222 z" id="boundary" inkscape:connector-curvature="0" />
	<path style="fill:none;stroke:red;stroke-width:1px;stroke-linecap:butt;stroke-linejoin:miter;stroke-opacity:1" d="M 191.952,35.7985 197.63,35.7985 z" id="boundary" inkscape:connector-curvature="0" />
	<path style="fill:none;stroke:red;stroke-width:1px;stroke-linecap:butt;stroke-linejoin:miter;stroke-opacity:1" d="M 193.088,63.6222 198.766,64.19 z" id="boundary" inkscape:connector-curvature="0" />
	<path style="fill:none;stroke:red;stroke-width:1px;stroke-linecap:butt;stroke-linejoin:miter;stroke-opacity:1" d="M 197.63,35.7985 203.309,35.7985 z" id="boundary" inkscape:connector-curvature="0" />
	<path style="fill:none;stroke:red;stroke-width:1px;stroke-linecap:butt;stroke-linejoin:miter;stroke-opacity:1" d="M 198.766,64.19 204.444,64.19 z" id="boundary" inkscape:connector-curvature="0" />
	<path style="fill:none;stroke:red;stroke-width:1px;stroke-linecap:butt;stroke-linejoin:miter;stroke-opacity:1" d="M 203.309,35.7985 208.987,36.3663 z" id="boundary" inkscape:connector-curvature="0" />
	<path style="fill:none;stroke:red;stroke-width:1px;stroke-linecap:butt;stroke-linejoin:miter;stroke-opacity:1" d="M 204.444,64.19 210.122,65.3257 z" id="boundary" inkscape:connector-curvature="0" />
	<path style="fill:none;stroke:red;stroke-width:1px;stroke-linecap:butt;stroke-linejoin:miter;stroke-opacity:1" d="M 208.987,36.3663 214.665,36.9342 z" id="boundary" inkscape:connector-curvature="0" />
	<path style="fill:none;stroke:red;stroke-width:1px;stroke-linecap:butt;stroke-linejoin:miter;stroke-opacity:1" d="M 210.122,65.3257 215.801,65.3257 z" id="boundary" inkscape:connector-curvature="0" />
	<path style="fill:none;stroke:red;stroke-width:1px;stroke-linecap:butt;stroke-linejoin:miter;stroke-opacity:1" d="M 214.665,36.9342 220.343,36.9342 z" id="boundary" inkscape:connector-curvature="0" />
	<path style="fill:none;stroke:red;stroke-width:1px;stroke-linecap:butt;stroke-linejoin:miter;stroke-opacity:1" d="M 215.801,65.3257 221.479,65.3257 z" id="boundary" inkscape:connector-curvature="0" />
	<path style="fill:none;stroke:red;stroke-width:1px;stroke-linecap:butt;stroke-linejoin:miter;stroke-opacity:1" d="M 220.343,36.9342 226.022,37.502 z" id="boundary" inkscape:connector-curvature="0" />
	<path style="fill:none;stroke:red;stroke-width:1px;stroke-linecap:butt;stroke-linejoin:miter;stroke-opacity:1" d="M 221.479,65.3257 227.157,65.8935 z" id="boundary" inkscape:connector-curvature="0" />
	<path style="fill:none;stroke:red;stroke-width:1px;stroke-linecap:butt;stroke-linejoin:miter;stroke-opacity:1" d="M 226.022,37.502 231.7,38.0698 z" id="boundary" inkscape:connector-curvature="0" />
	<path style="fill:none;stroke:red;stroke-width:1px;stroke-linecap:butt;stroke-linejoin:miter;stroke-opacity:1" d="M 227.157,65.8935 232.836,67.0292 z" id="boundary" inkscape:connector-curvature="0" />
	<path style="fill:none;stroke:red;stroke-width:1px;stroke-linecap:butt;stroke-linejoin:miter;stroke-opacity:1" d="M 231.7,38.0698 237.378,38.0698 z" id="boundary" inkscape:connector-curvature="0" />
	<path style="fill:none;stroke:red;stroke-width:1px;stroke-linecap:butt;stroke-linejoin:miter;stroke-opacity:1" d="M 232.836,67.0292 238.514,67.0292 z" id="boundary" inkscape:connector-curvature="0" />
	<path style="fill:none;stroke:red;stroke-width:1px;stroke-linecap:butt;stroke-linejoin:miter;stroke-opacity:1" d="M 237.378,38.0698 243.057,39.2055 z" id="boundary" inkscape:connector-curvature="0" />
	<path style="fill:none;stroke:red;stroke-width:1px;stroke-linecap:butt;stroke-linejoin:miter;stroke-opacity:1" d="M 238.514,67.0292 244.192,67.597 z" id="boundary" inkscape:connector-curvature="0" />
	<path style="fill:none;stroke:red;stroke-width:1px;stroke-linecap:butt;stroke-linejoin:miter;stroke-opacity:1" d="M 243.057,39.2055 248.735,39.2055 z" id="boundary" inkscape:connector-curvature="0" />
	<path style="fill:none;stroke:red;stroke-width:1px;stroke-linecap:butt;stroke-linejoin:miter;stroke-opacity:1" d="M 244.192,67.597 249.871,67.597 z" id="boundary" inkscape:connector-curvature="0" />
	<path style="fill:none;stroke:red;stroke-width:1px;stroke-linecap:butt;stroke-linejoin:miter;stroke-opacity:1" d="M 248.735,39.2055 254.413,39.2055 z" id="boundary" inkscape:connector-curvature="0" />
	<path style="fill:none;stroke:red;stroke-width:1px;stroke-linecap:butt;stroke-linejoin:miter;stroke-opacity:1" d="M 249.871,67.597 255.549,68.1649 z" id="boundary" inkscape:connector-curvature="0" />
	<path style="fill:none;stroke:red;stroke-width:1px;stroke-linecap:butt;stroke-linejoin:miter;stroke-opacity:1" d="M 254.413,39.2055 260.092,39.7733 z" id="boundary" inkscape:connector-curvature="0" />
	<path style="fill:none;stroke:red;stroke-width:1px;stroke-linecap:butt;stroke-linejoin:miter;stroke-opacity:1" d="M 255.549,68.1649 261.227,68.1649 z" id="boundary" inkscape:connector-curvature="0" />
	<path style="fill:none;stroke:red;stroke-width:1px;stroke-linecap:butt;stroke-linejoin:miter;stroke-opacity:1" d="M 260.092,39.7733 265.77,40.3412 z" id="boundary" inkscape:connector-curvature="0" />
	<path style="fill:none;stroke:red;stroke-width:1px;stroke-linecap:butt;stroke-linejoin:miter;stroke-opacity:1" d="M 261.227,68.1649 266.906,69.3005 z" id="boundary" inkscape:connector-curvature="0" />
	<path style="fill:none;stroke:red;stroke-width:1px;stroke-linecap:butt;stroke-linejoin:miter;stroke-opacity:1" d="M 265.77,40.3412 271.448,40.3412 z" id="boundary" inkscape:connector-curvature="0" />
	<path style="fill:none;stroke:red;stroke-width:1px;stroke-linecap:butt;stroke-linejoin:miter;stroke-opacity:1" d="M 266.906,69.3005 272.584,69.8683 z" id="boundary" inkscape:connector-curvature="0" />
	<path style="fill:none;stroke:red;stroke-width:1px;stroke-linecap:butt;stroke-linejoin:miter;stroke-opacity:1" d="M 271.448,40.3412 277.127,40.3412 z" id="boundary" inkscape:connector-curvature="0" />
	<path style="fill:none;stroke:red;stroke-width:1px;stroke-linecap:butt;stroke-linejoin:miter;stroke-opacity:1" d="M 272.584,69.8683 278.262,70.4362 z" id="boundary" inkscape:connector-curvature="0" />
	<path style="fill:none;stroke:red;stroke-width:1px;stroke-linecap:butt;stroke-linejoin:miter;stroke-opacity:1" d="M 277.127,40.3412 282.805,40.3412 z" id="boundary" inkscape:connector-curvature="0" />
	<path style="fill:none;stroke:red;stroke-width:1px;stroke-linecap:butt;stroke-linejoin:miter;stroke-opacity:1" d="M 278.262,70.4362 283.94,69.8683 z" id="boundary" inkscape:connector-curvature="0" />
	<path style="fill:none;stroke:red;stroke-width:1px;stroke-linecap:butt;stroke-linejoin:miter;stroke-opacity:1" d="M 282.805,40.3412 288.483,41.4768 z" id="boundary" inkscape:connector-curvature="0" />
	<path style="fill:none;stroke:red;stroke-width:1px;stroke-linecap:butt;stroke-linejoin:miter;stroke-opacity:1" d="M 283.94,69.8683 289.619,70.4362 z" id="boundary" inkscape:connector-curvature="0" />
	<path style="fill:none;stroke:red;stroke-width:1px;stroke-linecap:butt;stroke-linejoin:miter;stroke-opacity:1" d="M 288.483,41.4768 294.161,41.4768 z" id="boundary" inkscape:connector-curvature="0" />
	<path style="fill:none;stroke:red;stroke-width:1px;stroke-linecap:butt;stroke-linejoin:miter;stroke-opacity:1" d="M 289.619,70.4362 295.297,71.004 z" id="boundary" inkscape:connector-curvature="0" />
	<path style="fill:none;stroke:red;stroke-width:1px;stroke-linecap:butt;stroke-linejoin:miter;stroke-opacity:1" d="M 294.161,41.4768 299.84,42.0446 z" id="boundary" inkscape:connector-curvature="0" />
	<path style="fill:none;stroke:red;stroke-width:1px;stroke-linecap:butt;stroke-linejoin:miter;stroke-opacity:1" d="M 295.297,71.004 300.975,71.5718 z" id="boundary" inkscape:connector-curvature="0" />
	<path style="fill:none;stroke:red;stroke-width:1px;stroke-linecap:butt;stroke-linejoin:miter;stroke-opacity:1" d="M 299.84,42.0446 305.518,42.0446 z" id="boundary" inkscape:connector-curvature="0" />
	<path style="fill:none;stroke:red;stroke-width:1px;stroke-linecap:butt;stroke-linejoin:miter;stroke-opacity:1" d="M 300.975,71.5718 306.654,72.1397 z" id="boundary" inkscape:connector-curvature="0" />
	<path style="fill:none;stroke:red;stroke-width:1px;stroke-linecap:butt;stroke-linejoin:miter;stroke-opacity:1" d="M 305.518,42.0446 311.196,42.0446 z" id="boundary" inkscape:connector-curvature="0" />
	<path style="fill:none;stroke:red;stroke-width:1px;stroke-linecap:butt;stroke-linejoin:miter;stroke-opacity:1" d="M 306.654,72.1397 312.332,72.7075 z" id="boundary" inkscape:connector-curvature="0" />
	<path style="fill:none;stroke:red;stroke-width:1px;stroke-linecap:butt;stroke-linejoin:miter;stroke-opacity:1" d="M 311.196,42.0446 316.875,41.4768 z" id="boundary" inkscape:connector-curvature="0" />
	<path style="fill:none;stroke:red;stroke-width:1px;stroke-linecap:butt;stroke-linejoin:miter;stroke-opacity:1" d="M 312.332,72.7075 318.01,73.2753 z" id="boundary" inkscape:connector-curvature="0" />
	<path style="fill:none;stroke:red;stroke-width:1px;stroke-linecap:butt;stroke-linejoin:miter;stroke-opacity:1" d="M 316.875,41.4768 322.553,41.4768 z" id="boundary" inkscape:connector-curvature="0" />
	<path style="fill:none;stroke:red;stroke-width:1px;stroke-linecap:butt;stroke-linejoin:miter;stroke-opacity:1" d="M 318.01,73.2753 323.689,74.411 z" id="boundary" inkscape:connector-curvature="0" />
	<path style="fill:none;stroke:red;stroke-width:1px;stroke-linecap:butt;stroke-linejoin:miter;stroke-opacity:1" d="M 322.553,41.4768 328.231,41.4768 z" id="boundary" inkscape:connector-curvature="0" />
	<path style="fill:none;stroke:red;stroke-width:1px;stroke-linecap:butt;stroke-linejoin:miter;stroke-opacity:1" d="M 323.689,74.411 329.367,74.9788 z" id="boundary" inkscape:connector-curvature="0" />
	<path style="fill:none;stroke:red;stroke-width:1px;stroke-linecap:butt;stroke-linejoin:miter;stroke-opacity:1" d="M 328.231,41.4768 333.91,40.909 z" id="boundary" inkscape:connector-curvature="0" />
	<path style="fill:none;stroke:red;stroke-width:1px;stroke-linecap:butt;stroke-linejoin:miter;stroke-opacity:1" d="M 329.367,74.9788 335.045,76.6823 z" id="boundary" inkscape:connector-curvature="0" />
	<path style="fill:none;stroke:red;stroke-width:1px;stroke-linecap:butt;stroke-linejoin:miter;stroke-opacity:1" d="M 333.91,40.909 339.588,40.909 z" id="boundary" inkscape:connector-curvature="0" />
	<path style="fill:none;stroke:red;stroke-width:1px;stroke-linecap:butt;stroke-linejoin:miter;stroke-opacity:1" d="M 335.045,76.6823 340.724,77.2501 z" id="boundary" inkscape:connector-curvature="0" />
	<path style="fill:none;stroke:red;stroke-width:1px;stroke-linecap:butt;stroke-linejoin:miter;stroke-opacity:1" d="M 339.588,40.909 345.266,40.3412 z" id="boundary" inkscape:connector-curvature="0" />
	<path style="fill:none;stroke:red;stroke-width:1px;stroke-linecap:butt;stroke-linejoin:miter;stroke-opacity:1" d="M 340.724,77.2501 346.402,78.3858 z" id="boundary" inkscape:connector-curvature="0" />
	<path style="fill:none;stroke:red;stroke-width:1px;stroke-linecap:butt;stroke-linejoin:miter;stroke-opacity:1" d="M 345.266,40.3412 350.944,39.7733 z" id="boundary" inkscape:connector-curvature="0" />
	<path style="fill:none;stroke:red;stroke-width:1px;stroke-linecap:butt;stroke-linejoin:miter;stroke-opacity:1" d="M 346.402,78.3858 352.08,80.0893 z" id="boundary" inkscape:connector-curvature="0" />
	<path style="fill:none;stroke:red;stroke-width:1px;stroke-linecap:butt;stroke-linejoin:miter;stroke-opacity:1" d="M 350.944,39.7733 356.623,38.6377 z" id="boundary" inkscape:connector-curvature="0" />
	<path style="fill:none;stroke:red;stroke-width:1px;stroke-linecap:butt;stroke-linejoin:miter;stroke-opacity:1" d="M 352.08,80.0893 357.758,81.225 z" id="boundary" inkscape:connector-curvature="0" />
	<path style="fill:none;stroke:red;stroke-width:1px;stroke-linecap:butt;stroke-linejoin:miter;stroke-opacity:1" d="M 356.623,38.6377 362.301,38.0698 z" id="boundary" inkscape:connector-curvature="0" />
	<path style="fill:none;stroke:red;stroke-width:1px;stroke-linecap:butt;stroke-linejoin:miter;stroke-opacity:1" d="M 357.758,81.225 363.437,82.9284 z" id="boundary" inkscape:connector-curvature="0" />
	<path style="fill:none;stroke:red;stroke-width:1px;stroke-linecap:butt;stroke-linejoin:miter;stroke-opacity:1" d="M 362.301,38.0698 367.979,36.9342 z" id="boundary" inkscape:connector-curvature="0" />
	<path style="fill:none;stroke:red;stroke-width:1px;stroke-linecap:butt;stroke-linejoin:miter;stroke-opacity:1" d="M 363.437,82.9284 369.115,84.6319 z" id="boundary" inkscape:connector-curvature="0" />
	<path style="fill:none;stroke:red;stroke-width:1px;stroke-linecap:butt;stroke-linejoin:miter;stroke-opacity:1" d="M 367.979,36.9342 373.658,35.2307 z" id="boundary" inkscape:connector-curvature="0" />
	<path style="fill:none;stroke:red;stroke-width:1px;stroke-linecap:butt;stroke-linejoin:miter;stroke-opacity:1" d="M 369.115,84.6319 374.793,86.3354 z" id="boundary" inkscape:connector-curvature="0" />
	<path style="fill:none;stroke:red;stroke-width:1px;stroke-linecap:butt;stroke-linejoin:miter;stroke-opacity:1" d="M 373.658,35.2307 379.336,34.095 z" id="boundary" inkscape:connector-curvature="0" />
	<path style="fill:none;stroke:red;stroke-width:1px;stroke-linecap:butt;stroke-linejoin:miter;stroke-opacity:1" d="M 374.793,86.3354 380.472,88.6068 z" id="boundary" inkscape:connector-curvature="0" />
	<path style="fill:none;stroke:red;stroke-width:1px;stroke-linecap:butt;stroke-linejoin:miter;stroke-opacity:1" d="M 379.336,34.095 385.014,31.8237 z" id="boundary" inkscape:connector-curvature="0" />
	<path style="fill:none;stroke:red;stroke-width:1px;stroke-linecap:butt;stroke-linejoin:miter;stroke-opacity:1" d="M 380.472,88.6068 386.15,90.8781 z" id="boundary" inkscape:connector-curvature="0" />
	<path style="fill:none;stroke:red;stroke-width:1px;stroke-linecap:butt;stroke-linejoin:miter;stroke-opacity:1" d="M 385.014,31.8237 390.693,30.1202 z" id="boundary" inkscape:connector-curvature="0" />
	<path style="fill:none;stroke:red;stroke-width:1px;stroke-linecap:butt;stroke-linejoin:miter;stroke-opacity:1" d="M 386.15,90.8781 391.828,92.5816 z" id="boundary" inkscape:connector-curvature="0" />
	<path style="fill:none;stroke:red;stroke-width:1px;stroke-linecap:butt;stroke-linejoin:miter;stroke-opacity:1" d="M 390.693,30.1202 396.371,28.4167 z" id="boundary" inkscape:connector-curvature="0" />
	<path style="fill:none;stroke:red;stroke-width:1px;stroke-linecap:butt;stroke-linejoin:miter;stroke-opacity:1" d="M 391.828,92.5816 397.507,94.8529 z" id="boundary" inkscape:connector-curvature="0" />
	<path style="fill:none;stroke:red;stroke-width:1px;stroke-linecap:butt;stroke-linejoin:miter;stroke-opacity:1" d="M 396.371,28.4167 402.049,26.1454 z" id="boundary" inkscape:connector-curvature="0" />
	<path style="fill:none;stroke:red;stroke-width:1px;stroke-linecap:butt;stroke-linejoin:miter;stroke-opacity:1" d="M 397.507,94.8529 403.185,97.1242 z" id="boundary" inkscape:connector-curvature="0" />
	<path style="fill:none;stroke:red;stroke-width:1px;stroke-linecap:butt;stroke-linejoin:miter;stroke-opacity:1" d="M 402.049,26.1454 407.728,25.0097 z" id="boundary" inkscape:connector-curvature="0" />
	<path style="fill:none;stroke:red;stroke-width:1px;stroke-linecap:butt;stroke-linejoin:miter;stroke-opacity:1" d="M 403.185,97.1242 408.863,99.3955 z" id="boundary" inkscape:connector-curvature="0" />
	<path style="fill:none;stroke:red;stroke-width:1px;stroke-linecap:butt;stroke-linejoin:miter;stroke-opacity:1" d="M 407.728,25.0097 413.406,22.7384 z" id="boundary" inkscape:connector-curvature="0" />
	<path style="fill:none;stroke:red;stroke-width:1px;stroke-linecap:butt;stroke-linejoin:miter;stroke-opacity:1" d="M 408.863,99.3955 414.541,101.667 z" id="boundary" inkscape:connector-curvature="0" />
	<path style="fill:none;stroke:red;stroke-width:1px;stroke-linecap:butt;stroke-linejoin:miter;stroke-opacity:1" d="M 413.406,22.7384 419.084,21.0349 z" id="boundary" inkscape:connector-curvature="0" />
	<path style="fill:none;stroke:red;stroke-width:1px;stroke-linecap:butt;stroke-linejoin:miter;stroke-opacity:1" d="M 414.541,101.667 420.22,103.938 z" id="boundary" inkscape:connector-curvature="0" />
	<path style="fill:none;stroke:red;stroke-width:1px;stroke-linecap:butt;stroke-linejoin:miter;stroke-opacity:1" d="M 419.084,21.0349 424.762,19.3314 z" id="boundary" inkscape:connector-curvature="0" />
	<path style="fill:none;stroke:red;stroke-width:1px;stroke-linecap:butt;stroke-linejoin:miter;stroke-opacity:1" d="M 420.22,103.938 425.898,106.21 z" id="boundary" inkscape:connector-curvature="0" />
	<path style="fill:none;stroke:red;stroke-width:1px;stroke-linecap:butt;stroke-linejoin:miter;stroke-opacity:1" d="M 424.762,19.3314 430.441,18.1958 z" id="boundary" inkscape:connector-curvature="0" />
	<path style="fill:none;stroke:red;stroke-width:1px;stroke-linecap:butt;stroke-linejoin:miter;stroke-opacity:1" d="M 425.898,106.21 431.576,107.913 z" id="boundary" inkscape:connector-curvature="0" />
	<path style="fill:none;stroke:red;stroke-width:1px;stroke-linecap:butt;stroke-linejoin:miter;stroke-opacity:1" d="M 430.441,18.1958 436.119,16.4923 z" id="boundary" inkscape:connector-curvature="0" />
	<path style="fill:none;stroke:red;stroke-width:1px;stroke-linecap:butt;stroke-linejoin:miter;stroke-opacity:1" d="M 431.576,107.913 437.255,109.616 z" id="boundary" inkscape:connector-curvature="0" />
	<path style="fill:none;stroke:red;stroke-width:1px;stroke-linecap:butt;stroke-linejoin:miter;stroke-opacity:1" d="M 436.119,16.4923 441.797,14.7888 z" id="boundary" inkscape:connector-curvature="0" />
	<path style="fill:none;stroke:red;stroke-width:1px;stroke-linecap:butt;stroke-linejoin:miter;stroke-opacity:1" d="M 437.255,109.616 442.933,111.888 z" id="boundary" inkscape:connector-curvature="0" />
	<path style="fill:none;stroke:red;stroke-width:1px;stroke-linecap:butt;stroke-linejoin:miter;stroke-opacity:1" d="M 441.797,14.7888 447.476,13.6531 z" id="boundary" inkscape:connector-curvature="0" />
	<path style="fill:none;stroke:red;stroke-width:1px;stroke-linecap:butt;stroke-linejoin:miter;stroke-opacity:1" d="M 442.933,111.888 448.611,114.159 z" id="boundary" inkscape:connector-curvature="0" />
	<path style="fill:none;stroke:red;stroke-width:1px;stroke-linecap:butt;stroke-linejoin:miter;stroke-opacity:1" d="M 447.476,13.6531 453.154,11.9496 z" id="boundary" inkscape:connector-curvature="0" />
	<path style="fill:none;stroke:red;stroke-width:1px;stroke-linecap:butt;stroke-linejoin:miter;stroke-opacity:1" d="M 448.611,114.159 454.29,115.295 z" id="boundary" inkscape:connector-curvature="0" />
	<path style="fill:none;stroke:red;stroke-width:1px;stroke-linecap:butt;stroke-linejoin:miter;stroke-opacity:1" d="M 453.154,11.9496 458.832,10.2461 z" id="boundary" inkscape:connector-curvature="0" />
	<path style="fill:none;stroke:red;stroke-width:1px;stroke-linecap:butt;stroke-linejoin:miter;stroke-opacity:1" d="M 454.29,115.295 459.968,116.998 z" id="boundary" inkscape:connector-curvature="0" />
	<path style="fill:none;stroke:red;stroke-width:1px;stroke-linecap:butt;stroke-linejoin:miter;stroke-opacity:1" d="M 458.832,10.2461 464.511,9.67831 z" id="boundary" inkscape:connector-curvature="0" />
	<path style="fill:none;stroke:red;stroke-width:1px;stroke-linecap:butt;stroke-linejoin:miter;stroke-opacity:1" d="M 459.968,116.998 465.646,119.27 z" id="boundary" inkscape:connector-curvature="0" />
	<path style="fill:none;stroke:red;stroke-width:1px;stroke-linecap:butt;stroke-linejoin:miter;stroke-opacity:1" d="M 464.511,9.67831 470.189,7.97481 z" id="boundary" inkscape:connector-curvature="0" />
	<path style="fill:none;stroke:red;stroke-width:1px;stroke-linecap:butt;stroke-linejoin:miter;stroke-opacity:1" d="M 465.646,119.27 471.325,120.405 z" id="boundary" inkscape:connector-curvature="0" />
	<path style="fill:none;stroke:red;stroke-width:1px;stroke-linecap:butt;stroke-linejoin:miter;stroke-opacity:1" d="M 470.189,7.97481 475.867,7.40698 z" id="boundary" inkscape:connector-curvature="0" />
	<path style="fill:none;stroke:red;stroke-width:1px;stroke-linecap:butt;stroke-linejoin:miter;stroke-opacity:1" d="M 471.325,120.405 477.003,122.109 z" id="boundary" inkscape:connector-curvature="0" />
	<path style="fill:none;stroke:red;stroke-width:1px;stroke-linecap:butt;stroke-linejoin:miter;stroke-opacity:1" d="M 475.867,7.40698 481.546,6.83915 z" id="boundary" inkscape:connector-curvature="0" />
	<path style="fill:none;stroke:red;stroke-width:1px;stroke-linecap:butt;stroke-linejoin:miter;stroke-opacity:1" d="M 477.003,122.109 482.681,122.677 z" id="boundary" inkscape:connector-curvature="0" />
	<path style="fill:none;stroke:red;stroke-width:1px;stroke-linecap:butt;stroke-linejoin:miter;stroke-opacity:1" d="M 481.546,6.83915 487.224,5.70349 z" id="boundary" inkscape:connector-curvature="0" />
	<path style="fill:none;stroke:red;stroke-width:1px;stroke-linecap:butt;stroke-linejoin:miter;stroke-opacity:1" d="M 482.681,122.677 488.359,124.948 z" id="boundary" inkscape:connector-curvature="0" />
	<path style="fill:none;stroke:red;stroke-width:1px;stroke-linecap:butt;stroke-linejoin:miter;stroke-opacity:1" d="M 487.224,5.70349 492.902,5.13566 z" id="boundary" inkscape:connector-curvature="0" />
	<path style="fill:none;stroke:red;stroke-width:1px;stroke-linecap:butt;stroke-linejoin:miter;stroke-opacity:1" d="M 488.359,124.948 494.038,126.084 z" id="boundary" inkscape:connector-curvature="0" />
	<path style="fill:none;stroke:red;stroke-width:1px;stroke-linecap:butt;stroke-linejoin:miter;stroke-opacity:1" d="M 492.902,5.13566 498.58,4.56783 z" id="boundary" inkscape:connector-curvature="0" />
	<path style="fill:none;stroke:red;stroke-width:1px;stroke-linecap:butt;stroke-linejoin:miter;stroke-opacity:1" d="M 494.038,126.084 499.716,126.084 z" id="boundary" inkscape:connector-curvature="0" />
	<path style="fill:none;stroke:red;stroke-width:1px;stroke-linecap:butt;stroke-linejoin:miter;stroke-opacity:1" d="M 498.58,4.56783 504.259,4 z" id="boundary" inkscape:connector-curvature="0" />
	<path style="fill:none;stroke:red;stroke-width:1px;stroke-linecap:butt;stroke-linejoin:miter;stroke-opacity:1" d="M 499.716,126.084 505.394,127.219 z" id="boundary" inkscape:connector-curvature="0" />
	<path style="fill:none;stroke:red;stroke-width:1px;stroke-linecap:butt;stroke-linejoin:miter;stroke-opacity:1" d="M 504.259,4 509.937,4 z" id="boundary" inkscape:connector-curvature="0" />
	<path style="fill:none;stroke:red;stroke-width:1px;stroke-linecap:butt;stroke-linejoin:miter;stroke-opacity:1" d="M 505.394,127.219 511.073,127.787 z" id="boundary" inkscape:connector-curvature="0" />
	<path style="fill:none;stroke:red;stroke-width:1px;stroke-linecap:butt;stroke-linejoin:miter;stroke-opacity:1" d="M 509.937,4 515.615,4 z" id="boundary" inkscape:connector-curvature="0" />
	<path style="fill:none;stroke:red;stroke-width:1px;stroke-linecap:butt;stroke-linejoin:miter;stroke-opacity:1" d="M 511.073,127.787 516.751,128.355 z" id="boundary" inkscape:connector-curvature="0" />
	<path style="fill:none;stroke:red;stroke-width:1px;stroke-linecap:butt;stroke-linejoin:miter;stroke-opacity:1" d="M 515.615,4 521.294,4 z" id="boundary" inkscape:connector-curvature="0" />
	<path style="fill:none;stroke:red;stroke-width:1px;stroke-linecap:butt;stroke-linejoin:miter;stroke-opacity:1" d="M 516.751,128.355 522.429,128.923 z" id="boundary" inkscape:connector-curvature="0" />
	<path style="fill:none;stroke:red;stroke-width:1px;stroke-linecap:butt;stroke-linejoin:miter;stroke-opacity:1" d="M 521.294,4 526.972,4.56783 z" id="boundary" inkscape:connector-curvature="0" />
	<path style="fill:none;stroke:red;stroke-width:1px;stroke-linecap:butt;stroke-linejoin:miter;stroke-opacity:1" d="M 522.429,128.923 528.108,128.923 z" id="boundary" inkscape:connector-curvature="0" />
	<path style="fill:none;stroke:red;stroke-width:1px;stroke-linecap:butt;stroke-linejoin:miter;stroke-opacity:1" d="M 526.972,4.56783 532.65,5.13566 z" id="boundary" inkscape:connector-curvature="0" />
	<path style="fill:none;stroke:red;stroke-width:1px;stroke-linecap:butt;stroke-linejoin:miter;stroke-opacity:1" d="M 528.108,128.923 533.786,129.491 z" id="boundary" inkscape:connector-curvature="0" />
	<path style="fill:none;stroke:red;stroke-width:1px;stroke-linecap:butt;stroke-linejoin:miter;stroke-opacity:1" d="M 532.65,5.13566 538.329,5.70349 z" id="boundary" inkscape:connector-curvature="0" />
	<path style="fill:none;stroke:red;stroke-width:1px;stroke-linecap:butt;stroke-linejoin:miter;stroke-opacity:1" d="M 533.786,129.491 539.464,128.923 z" id="boundary" inkscape:connector-curvature="0" />
	<path style="fill:none;stroke:red;stroke-width:1px;stroke-linecap:butt;stroke-linejoin:miter;stroke-opacity:1" d="M 538.329,5.70349 544.007,6.83915 z" id="boundary" inkscape:connector-curvature="0" />
	<path style="fill:none;stroke:red;stroke-width:1px;stroke-linecap:butt;stroke-linejoin:miter;stroke-opacity:1" d="M 539.464,128.923 545.143,128.923 z" id="boundary" inkscape:connector-curvature="0" />
	<path style="fill:none;stroke:red;stroke-width:1px;stroke-linecap:butt;stroke-linejoin:miter;stroke-opacity:1" d="M 544.007,6.83915 549.685,7.40698 z" id="boundary" inkscape:connector-curvature="0" />
	<path style="fill:none;stroke:red;stroke-width:1px;stroke-linecap:butt;stroke-linejoin:miter;stroke-opacity:1" d="M 545.143,128.923 550.821,128.355 z" id="boundary" inkscape:connector-curvature="0" />
	<path style="fill:none;stroke:red;stroke-width:1px;stroke-linecap:butt;stroke-linejoin:miter;stroke-opacity:1" d="M 549.685,7.40698 555.363,8.54264 z" id="boundary" inkscape:connector-curvature="0" />
	<path style="fill:none;stroke:red;stroke-width:1px;stroke-linecap:butt;stroke-linejoin:miter;stroke-opacity:1" d="M 550.821,128.355 556.499,127.219 z" id="boundary" inkscape:connector-curvature="0" />
	<path style="fill:none;stroke:red;stroke-width:1px;stroke-linecap:butt;stroke-linejoin:miter;stroke-opacity:1" d="M 555.363,8.54264 561.042,9.11048 z" id="boundary" inkscape:connector-curvature="0" />
	<path style="fill:none;stroke:red;stroke-width:1px;stroke-linecap:butt;stroke-linejoin:miter;stroke-opacity:1" d="M 556.499,127.219 562.177,127.219 z" id="boundary" inkscape:connector-curvature="0" />
	<path style="fill:none;stroke:red;stroke-width:1px;stroke-linecap:butt;stroke-linejoin:miter;stroke-opacity:1" d="M 561.042,9.11048 566.72,10.814 z" id="boundary" inkscape:connector-curvature="0" />
	<path style="fill:none;stroke:red;stroke-width:1px;stroke-linecap:butt;stroke-linejoin:miter;stroke-opacity:1" d="M 562.177,127.219 567.856,126.651 z" id="boundary" inkscape:connector-curvature="0" />
	<path style="fill:none;stroke:red;stroke-width:1px;stroke-linecap:butt;stroke-linejoin:miter;stroke-opacity:1" d="M 566.72,10.814 572.398,11.9496 z" id="boundary" inkscape:connector-curvature="0" />
	<path style="fill:none;stroke:red;stroke-width:1px;stroke-linecap:butt;stroke-linejoin:miter;stroke-opacity:1" d="M 567.856,126.651 573.534,124.38 z" id="boundary" inkscape:connector-curvature="0" />
	<path style="fill:none;stroke:red;stroke-width:1px;stroke-linecap:butt;stroke-linejoin:miter;stroke-opacity:1" d="M 572.398,11.9496 578.077,13.6531 z" id="boundary" inkscape:connector-curvature="0" />
	<path style="fill:none;stroke:red;stroke-width:1px;stroke-linecap:butt;stroke-linejoin:miter;stroke-opacity:1" d="M 573.534,124.38 579.212,123.244 z" id="boundary" inkscape:connector-curvature="0" />
	<path style="fill:none;stroke:red;stroke-width:1px;stroke-linecap:butt;stroke-linejoin:miter;stroke-opacity:1" d="M 578.077,13.6531 583.755,15.3566 z" id="boundary" inkscape:connector-curvature="0" />
	<path style="fill:none;stroke:red;stroke-width:1px;stroke-linecap:butt;stroke-linejoin:miter;stroke-opacity:1" d="M 579.212,123.244 584.891,120.973 z" id="boundary" inkscape:connector-curvature="0" />
	<path style="fill:none;stroke:red;stroke-width:1px;stroke-linecap:butt;stroke-linejoin:miter;stroke-opacity:1" d="M 583.755,15.3566 588.865,18.1958 z" id="boundary" inkscape:connector-curvature="0" />
	<path style="fill:none;stroke:red;stroke-width:1px;stroke-linecap:butt;stroke-linejoin:miter;stroke-opacity:1" d="M 584.891,120.973 590.569,119.27 z" id="boundary" inkscape:connector-curvature="0" />
	<path style="fill:none;stroke:red;stroke-width:1px;stroke-linecap:butt;stroke-linejoin:miter;stroke-opacity:1" d="M 588.865,18.1958 594.544,20.4671 z" id="boundary" inkscape:connector-curvature="0" />
	<path style="fill:none;stroke:red;stroke-width:1px;stroke-linecap:butt;stroke-linejoin:miter;stroke-opacity:1" d="M 590.569,119.27 595.679,116.43 z" id="boundary" inkscape:connector-curvature="0" />
	<path style="fill:none;stroke:red;stroke-width:1px;stroke-linecap:butt;stroke-linejoin:miter;stroke-opacity:1" d="M 594.544,20.4671 599.086,23.8741 z" id="boundary" inkscape:connector-curvature="0" />
	<path style="fill:none;stroke:red;stroke-width:1px;stroke-linecap:butt;stroke-linejoin:miter;stroke-opacity:1" d="M 595.679,116.43 601.358,114.727 z" id="boundary" inkscape:connector-curvature="0" />
	<path style="fill:none;stroke:red;stroke-width:1px;stroke-linecap:butt;stroke-linejoin:miter;stroke-opacity:1" d="M 599.086,23.8741 603.629,27.2811 z" id="boundary" inkscape:connector-curvature="0" />
	<path style="fill:none;stroke:red;stroke-width:1px;stroke-linecap:butt;stroke-linejoin:miter;stroke-opacity:1" d="M 601.358,114.727 607.036,112.456 z" id="boundary" inkscape:connector-curvature="0" />
	<path style="fill:none;stroke:red;stroke-width:1px;stroke-linecap:butt;stroke-linejoin:miter;stroke-opacity:1" d="M 603.629,27.2811 607.036,31.8237 z" id="boundary" inkscape:connector-curvature="0" />
	<path style="fill:none;stroke:red;stroke-width:1px;stroke-linecap:butt;stroke-linejoin:miter;stroke-opacity:1" d="M 607.036,31.8237 609.875,36.9342 z" id="boundary" inkscape:connector-curvature="0" />
	<path style="fill:none;stroke:red;stroke-width:1px;stroke-linecap:butt;stroke-linejoin:miter;stroke-opacity:1" d="M 607.036,112.456 610.443,106.21 z" id="boundary" inkscape:connector-curvature="0" />
	<path style="fill:none;stroke:red;stroke-width:1px;stroke-linecap:butt;stroke-linejoin:miter;stroke-opacity:1" d="M 609.875,36.9342 611.579,42.6125 z" id="boundary" inkscape:connector-curvature="0" />
	<path style="fill:none;stroke:red;stroke-width:1px;stroke-linecap:butt;stroke-linejoin:miter;stroke-opacity:1" d="M 610.443,106.21 615.554,90.8781 z" id="boundary" inkscape:connector-curvature="0" />
	<path style="fill:none;stroke:red;stroke-width:1px;stroke-linecap:butt;stroke-linejoin:miter;stroke-opacity:1" d="M 611.579,42.6125 613.85,48.2908 z" id="boundary" inkscape:connector-curvature="0" />
	<path style="fill:none;stroke:red;stroke-width:1px;stroke-linecap:butt;stroke-linejoin:miter;stroke-opacity:1" d="M 613.85,48.2908 614.418,53.9691 z" id="boundary" inkscape:connector-curvature="0" />
	<path style="fill:none;stroke:red;stroke-width:1px;stroke-linecap:butt;stroke-linejoin:miter;stroke-opacity:1" d="M 614.418,53.9691 615.554,59.6474 z" id="boundary" inkscape:connector-curvature="0" />
	<path style="fill:none;stroke:red;stroke-width:1px;stroke-linecap:butt;stroke-linejoin:miter;stroke-opacity:1" d="M 615.554,59.6474 616.689,65.3257 z" id="boundary" inkscape:connector-curvature="0" />
	<path style="fill:none;stroke:red;stroke-width:1px;stroke-linecap:butt;stroke-linejoin:miter;stroke-opacity:1" d="M 615.554,90.8781 616.689,81.225 z" id="boundary" inkscape:connector-curvature="0" />
	<circle cx="4" cy="37.502" r="4" fill="#0" id="circle0"/>
	<circle cx="5.13566" cy="43.1803" r="4" fill="#0" id="circle1"/>
	<circle cx="6.83915" cy="31.8237" r="4" fill="#0" id="circle2"/>
	<circle cx="7.97481" cy="48.2908" r="4" fill="#0" id="circle3"/>
	<circle cx="10.2461" cy="27.2811" r="4" fill="#0" id="circle4"/>
	<circle cx="11.3818" cy="52.8334" r="4" fill="#0" id="circle5"/>
	<circle cx="15.9244" cy="25.0097" r="4" fill="#0" id="circle6"/>
	<circle cx="17.0601" cy="53.9691" r="4" fill="#0" id="circle7"/>
	<circle cx="21.6027" cy="25.0097" r="4" fill="#0" id="circle8"/>
	<circle cx="22.7384" cy="54.5369" r="4" fill="#0" id="circle9"/>
	<circle cx="27.2811" cy="25.0097" r="4" fill="#0" id="circle10"/>
	<circle cx="28.4167" cy="55.6726" r="4" fill="#0" id="circle11"/>
	<circle cx="32.9594" cy="25.0097" r="4" fill="#0" id="circle12"/>
	<circle cx="34.095" cy="55.6726" r="4" fill="#0" id="circle13"/>
	<circle cx="38.6377" cy="25.5776" r="4" fill="#0" id="circle14"/>
	<circle cx="39.7733" cy="56.2404" r="4" fill="#0" id="circle15"/>
	<circle cx="44.316" cy="25.5776" r="4" fill="#0" id="circle16"/>
	<circle cx="45.4516" cy="56.8082" r="4" fill="#0" id="circle17"/>
	<circle cx="49.9943" cy="26.1454" r="4" fill="#0" id="circle18"/>
	<circle cx="51.1299" cy="56.8082" r="4" fill="#0" id="circle19"/>
	<circle cx="55.6726" cy="26.7132" r="4" fill="#0" id="circle20"/>
	<circle cx="56.8082" cy="57.3761" r="4" fill="#0" id="circle21"/>
	<circle cx="61.3509" cy="26.7132" r="4" fill="#0" id="circle22"/>
	<circle cx="62.4865" cy="56.8082" r="4" fill="#0" id="circle23"/>
	<circle cx="67.0292" cy="27.2811" r="4" fill="#0" id="circle24"/>
	<circle cx="68.1649" cy="56.8082" r="4" fill="#0" id="circle25"/>
	<circle cx="72.7075" cy="27.8489" r="4" fill="#0" id="circle26"/>
	<circle cx="73.8432" cy="57.9439" r="4" fill="#0" id="circle27"/>
	<circle cx="78.3858" cy="28.4167" r="4" fill="#0" id="circle28"/>
	<circle cx="79.5215" cy="58.5117" r="4" fill="#0" id="circle29"/>
	<circle cx="84.0641" cy="28.4167" r="4" fill="#0" id="circle30"/>
	<circle cx="85.1998" cy="57.9439" r="4" fill="#0" id="circle31"/>
	<circle cx="89.7424" cy="28.9845" r="4" fill="#0" id="circle32"/>
	<circle cx="90.8781" cy="57.3761" r="4" fill="#0" id="circle33"/>
	<circle cx="95.4207" cy="28.9845" r="4" fill="#0" id="circle34"/>
	<circle cx="96.5564" cy="57.9439" r="4" fill="#0" id="circle35"/>
	<circle cx="101.099" cy="30.1202" r="4" fill="#0" id="circle36"/>
	<circle cx="102.235" cy="58.5117" r="4" fill="#0" id="circle37"/>
	<circle cx="106.777" cy="30.1202" r="4" fill="#0" id="circle38"/>
	<circle cx="107.913" cy="59.0796" r="4" fill="#0" id="circle39"/>
	<circle cx="112.456" cy="30.1202" r="4" fill="#0" id="circle40"/>
	<circle cx="113.591" cy="59.0796" r="4" fill="#0" id="circle41"/>
	<circle cx="118.134" cy="30.688" r="4" fill="#0" id="circle42"/>
	<circle cx="119.27" cy="60.2152" r="4" fill="#0" id="circle43"/>
	<circle cx="123.812" cy="31.2559" r="4" fill="#0" id="circle44"/>
	<circle cx="124.948" cy="60.7831" r="4" fill="#0" id="circle45"/>
	<circle cx="129.491" cy="31.2559" r="4" fill="#0" id="circle46"/>
	<circle cx="130.626" cy="60.7831" r="4" fill="#0" id="circle47"/>
	<circle cx="135.169" cy="31.8237" r="4" fill="#0" id="circle48"/>
	<circle cx="136.305" cy="60.2152" r="4" fill="#0" id="circle49"/>
	<circle cx="140.847" cy="32.9594" r="4" fill="#0" id="circle50"/>
	<circle cx="141.983" cy="60.7831" r="4" fill="#0" id="circle51"/>
	<circle cx="146.525" cy="32.9594" r="4" fill="#0" id="circle52"/>
	<circle cx="147.661" cy="60.7831" r="4" fill="#0" id="circle53"/>
	<circle cx="152.204" cy="32.9594" r="4" fill="#0" id="circle54"/>
	<circle cx="153.339" cy="60.7831" r="4" fill="#0" id="circle55"/>
	<circle cx="157.882" cy="34.095" r="4" fill="#0" id="circle56"/>
	<circle cx="159.018" cy="61.3509" r="4" fill="#0" id="circle57"/>
	<circle cx="163.56" cy="34.095" r="4" fill="#0" id="circle58"/>
	<circle cx="164.696" cy="61.9187" r="4" fill="#0" id="circle59"/>
	<circle cx="169.239" cy="34.095" r="4" fill="#0" id="circle60"/>
	<circle cx="170.374" cy="61.9187" r="4" fill="#0" id="circle61"/>
	<circle cx="174.917" cy="34.6629" r="4" fill="#0" id="circle62"/>
	<circle cx="176.053" cy="62.4865" r="4" fill="#0" id="circle63"/>
	<circle cx="180.595" cy="35.2307" r="4" fill="#0" id="circle64"/>
	<circle cx="181.731" cy="62.4865" r="4" fill="#0" id="circle65"/>
	<circle cx="186.274" cy="35.2307" r="4" fill="#0" id="circle66"/>
	<circle cx="187.409" cy="62.4865" r="4" fill="#0" id="circle67"/>
	<circle cx="191.952" cy="35.7985" r="4" fill="#0" id="circle68"/>
	<circle cx="193.088" cy="63.6222" r="4" fill="#0" id="circle69"/>
	<circle cx="197.63" cy="35.7985" r="4" fill="#0" id="circle70"/>
	<circle cx="198.766" cy="64.19" r="4" fill="#0" id="circle71"/>
	<circle cx="203.309" cy="35.7985" r="4" fill="#0" id="circle72"/>
	<circle cx="204.444" cy="64.19" r="4" fill="#0" id="circle73"/>
	<circle cx="208.987" cy="36.3663" r="4" fill="#0" id="circle74"/>
	<circle cx="210.122" cy="65.3257" r="4" fill="#0" id="circle75"/>
	<circle cx="214.665" cy="36.9342" r="4" fill="#0" id="circle76"/>
	<circle cx="215.801" cy="65.3257" r="4" fill="#0" id="circle77"/>
	<circle cx="220.343" cy="36.9342" r="4" fill="#0" id="circle78"/>
	<circle cx="221.479" cy="65.3257" r="4" fill="#0" id="circle79"/>
	<circle cx="226.022" cy="37.502" r="4" fill="#0" id="circle80"/>
	<circle cx="227.157" cy="65.8935" r="4" fill="#0" id="circle81"/>
	<circle cx="231.7" cy="38.0698" r="4" fill="#0" id="circle82"/>
	<circle cx="232.836" cy="67.0292" r="4" fill="#0" id="circle83"/>
	<circle cx="237.378" cy="38.0698" r="4" fill="#0" id="circle84"/>
	<circle cx="238.514" cy="67.0292" r="4" fill="#0" id="circle85"/>
	<circle cx="243.057" cy="39.2055" r="4" fill="#0" id="circle86"/>
	<circle cx="244.192" cy="67.597" r="4" fill="#0" id="circle87"/>
	<circle cx="248.735" cy="39.2055" r="4" fill="#0" id="circle88"/>
	<circle cx="249.871" cy="67.597" r="4" fill="#0" id="circle89"/>
	<circle cx="254.413" cy="39.2055" r="4" fill="#0" id="circle90"/>
	<circle cx="255.549" cy="68.1649" r="4" fill="#0" id="circle91"/>
	<circle cx="260.092" cy="39.7733" r="4" fill="#0" id="circle92"/>
	<circle cx="261.227" cy="68.1649" r="4" fill="#0" id="circle93"/>
	<circle cx="265.77" cy="40.3412" r="4" fill="#0" id="circle94"/>
	<circle cx="266.906" cy="69.3005" r="4" fill="#0" id="circle95"/>
	<circle cx="271.448" cy="40.3412" r="4" fill="#0" id="circle96"/>
	<circle cx="272.584" cy="69.8683" r="4" fill="#0" id="circle97"/>
	<circle cx="277.127" cy="40.3412" r="4" fill="#0" id="circle98"/>
	<circle cx="278.262" cy="70.4362" r="4" fill="#0" id="circle99"/>
	<circle cx="282.805" cy="40.3412" r="4" fill="#0" id="circle100"/>
	<circle cx="283.94" cy="69.8683" r="4" fill="#0" id="circle101"/>
	<circle cx="288.483" cy="41.4768" r="4" fill="#0" id="circle102"/>
	<circle cx="289.619" cy="70.4362" r="4" fill="#0" id="circle103"/>
	<circle cx="294.161" cy="41.4768" r="4" fill="#0" id="circle104"/>
	<circle cx="295.297" cy="71.004" r="4" fill="#0" id="circle105"/>
	<circle cx="299.84" cy="42.0446" r="4" fill="#0" id="circle106"/>
	<circle cx="300.975" cy="71.5718" r="4" fill="#0" id="circle107"/>
	<circle cx="305.518" cy="42.0446" r="4" fill="#0" id="circle108"/>
	<circle cx="306.654" cy="72.1397" r="4" fill="#0" id="circle109"/>
	<circle cx="311.196" cy="42.0446" r="4" fill="#0" id="circle110"/>
	<circle cx="312.332" cy="72.7075" r="4" fill="#0" id="circle111"/>
	<circle cx="316.875" cy="41.4768" r="4" fill="#0" id="circle112"/>
	<circle cx="318.01" cy="73.2753" r="4" fill="#0" id="circle113"/>
	<circle cx="322.553" cy="41.4768" r="4" fill="#0" id="circle114"/>
	<circle cx="323.689" cy="74.411" r="4" fill="#0" id="circle115"/>
	<circle cx="328.231" cy="41.4768" r="4" fill="#0" id="circle116"/>
	<circle cx="329.367" cy="74.9788" r="4" fill="#0" id="circle117"/>
	<circle cx="333.91" cy="40.909" r="4" fill="#0" id="circle118"/>
	<circle cx="335.045" cy="76.6823" r="4" fill="#0" id="circle119"/>
	<circle cx="339.588" cy="40.909" r="4" fill="#0" id="circle120"/>
	<circle cx="340.724" cy="77.2501" r="4" fill="#0" id="circle121"/>
	<circle cx="345.266" cy="40.3412" r="4" fill="#0" id="circle122"/>
	<circle cx="346.402" cy="78.3858" r="4" fill="#0" id="circle123"/>
	<circle cx="350.944" cy="39.7733" r="4" fill="#0" id="circle124"/>
	<circle cx="352.08" cy="80.0893" r="4" fill="#0" id="circle125"/>
	<circle cx="356.623" cy="38.6377" r="4" fill="#0" id="circle126"/>
	<circle cx="357.758" cy="81.225" r="4" fill="#0" id="circle127"/>
	<circle cx="362.301" cy="38.0698" r="4" fill="#0" id="circle128"/>
	<circle cx="363.437" cy="82.9284" r="4" fill="#0" id="circle129"/>
	<circle cx="367.979" cy="36.9342" r="4" fill="#0" id="circle130"/>
	<circle cx="369.115" cy="84.6319" r="4" fill="#0" id="circle131"/>
	<circle cx="373.658" cy="35.2307" r="4" fill="#0" id="circle132"/>
	<circle cx="374.793" cy="86.3354" r="4" fill="#0" id="circle133"/>
	<circle cx="379.336" cy="34.095" r="4" fill="#0" id="circle134"/>
	<circle cx="380.472" cy="88.6068" r="4" fill="#0" id="circle135"/>
	<circle cx="385.014" cy="31.8237" r="4" fill="#0" id="circle136"/>
	<circle cx="386.15" cy="90.8781" r="4" fill="#0" id="circle137"/>
	<circle cx="390.693" cy="30.1202" r="4" fill="#0" id="circle138"/>
	<circle cx="391.828" cy="92.5816" r="4" fill="#0" id="circle139"/>
	<circle cx="396.371" cy="28.4167" r="4" fill="#0" id="circle140"/>
	<circle cx="397.507" cy="94.8529" r="4" fill="#0" id="circle141"/>
	<circle cx="402.049" cy="26.1454" r="4" fill="#0" id="circle142"/>
	<circle cx="403.185" cy="97.1242" r="4" fill="#0" id="circle143"/>
	<circle cx="407.728" cy="25.0097" r="4" fill="#0" id="circle144"/>
	<circle cx="408.863" cy="99.3955" r="4" fill="#0" id="circle145"/>
	<circle cx="413.406" cy="22.7384" r="4" fill="#0" id="circle146"/>
	<circle cx="414.541" cy="101.667" r="4" fill="#0" id="circle147"/>
	<circle cx="419.084" cy="21.0349" r="4" fill="#0" id="circle148"/>
	<circle cx="420.22" cy="103.938" r="4" fill="#0" id="circle149"/>
	<circle cx="424.762" cy="19.3314" r="4" fill="#0" id="circle150"/>
	<circle cx="425.898" cy="106.21" r="4" fill="#0" id="circle151"/>
	<circle cx="430.441" cy="18.1958" r="4" fill="#0" id="circle152"/>
	<circle cx="431.576" cy="107.913" r="4" fill="#0" id="circle153"/>
	<circle cx="436.119" cy="16.4923" r="4" fill="#0" id="circle154"/>
	<circle cx="437.255" cy="109.616" r="4" fill="#0" id="circle155"/>
	<circle cx="441.797" cy="14.7888" r="4" fill="#0" id="circle156"/>
	<circle cx="442.933" cy="111.888" r="4" fill="#0" id="circle157"/>
	<circle cx="447.476" cy="13.6531" r="4" fill="#0" id="circle158"/>
	<circle cx="448.611" cy="114.159" r="4" fill="#0" id="circle159"/>
	<circle cx="453.154" cy="11.9496" r="4" fill="#0" id="circle160"/>
	<circle cx="454.29" cy="115.295" r="4" fill="#0" id="circle161"/>
	<circle cx="458.832" cy="10.2461" r="4" fill="#0" id="circle162"/>
	<circle cx="459.968" cy="116.998" r="4" fill="#0" id="circle163"/>
	<circle cx="464.511" cy="9.67831" r="4" fill="#0" id="circle164"/>
	<circle cx="465.646" cy="119.27" r="4" fill="#0" id="circle165"/>
	<circle cx="470.189" cy="7.97481" r="4" fill="#0" id="circle166"/>
	<circle cx="471.325" cy="120.405" r="4" fill="#0" id="circle167"/>
	<circle cx="475.867" cy="7.40698" r="4" fill="#0" id="circle168"/>
	<circle cx="477.003" cy="122.109" r="4" fill="#0" id="circle169"/>
	<circle cx="481.546" cy="6.83915" r="4" fill="#0" id="circle170"/>
	<circle cx="482.681" cy="122.677" r="4" fill="#0" id="circle171"/>
	<circle cx="487.224" cy="5.70349" r="4" fill="#0" id="circle172"/>
	<circle cx="488.359" cy="124.948" r="4" fill="#0" id="circle173"/>
	<circle cx="492.902" cy="5.13566" r="4" fill="#0" id="circle174"/>
	<circle cx="494.038" cy="126.084" r="4" fill="#0" id="circle175"/>
	<circle cx="498.58" cy="4.56783" r="4" fill="#0" id="circle176"/>
	<circle cx="499.716" cy="126.084" r="4" fill="#0" id="circle177"/>
	<circle cx="504.259" cy="4" r="4" fill="#0" id="circle178"/>
	<circle cx="505.394" cy="127.219" r="4" fill="#0" id="circle179"/>
	<circle cx="509.937" cy="4" r="4" fill="#0" id="circle180"/>
	<circle cx="511.073" cy="127.787" r="4" fill="#0" id="circle181"/>
	<circle cx="515.615" cy="4" r="4" fill="#0" id="circle182"/>
	<circle cx="516.751" cy="128.355" r="4" fill="#0" id="circle183"/>
	<circle cx="521.294" cy="4" r="4" fill="#0" id="circle184"/>
	<circle cx="522.429" cy="128.923" r="4" fill="#0" id="circle185"/>
	<circle cx="526.972" cy="4.56783" r="4" fill="#0" id="circle186"/>
	<circle cx="528.108" cy="128.923" r="4" fill="#0" id="circle187"/>
	<circle cx="532.65" cy="5.13566" r="4" fill="#0" id="circle188"/>
	<circle cx="533.786" cy="129.491" r="4" fill="#0" id="circle189"/>
	<circle cx="538.329" cy="5.70349" r="4" fill="#0" id="circle190"/>
	<circle cx="539.464" cy="128.923" r="4" fill="#0" id="circle191"/>
	<circle cx="544.007" cy="6.83915" r="4" fill="#0" id="circle192"/>
	<circle cx="545.143" cy="128.923" r="4" fill="#0" id="circle193"/>
	<circle cx="549.685" cy="7.40698" r="4" fill="#0" id="circle194"/>
	<circle cx="550.821" cy="128.355" r="4" fill="#0" id="circle195"/>
	<circle cx="555.363" cy="8.54264" r="4" fill="#0" id="circle196"/>
	<circle cx="556.499" cy="127.219" r="4" fill="#0" id="circle197"/>
	<circle cx="561.042" cy="9.11048" r="4" fill="#0" id="circle198"/>
	<circle cx="562.177" cy="127.219" r="4" fill="#0" id="circle199"/>
	<circle cx="566.72" cy="10.814" r="4" fill="#0" id="circle200"/>
	<circle cx="567.856" cy="126.651" r="4" fill="#0" id="circle201"/>
	<circle cx="572.398" cy="11.9496" r="4" fill="#0" id="circle202"/>
	<circle cx="573.534" cy="124.38" r="4" fill="#0" id="circle203"/>
	<circle cx="578.077" cy="13.6531" r="4" fill="#0" id="circle204"/>
	<circle cx="579.212" cy="123.244" r="4" fill="#0" id="circle205"/>
	<circle cx="583.755" cy="15.3566" r="4" fill="#0" id="circle206"/>
	<circle cx="584.891" cy="120.973" r="4" fill="#0" id="circle207"/>
	<circle cx="588.865" cy="18.1958" r="4" fill="#0" id="circle208"/>
	<circle cx="590.569" cy="119.27" r="4" fill="#0" id="circle209"/>
	<circle cx="594.544" cy="20.4671" r="4" fill="#0" id="circle210"/>
	<circle cx="595.679" cy="116.43" r="4" fill="#0" id="circle211"/>
	<circle cx="599.086" cy="23.8741" r="4" fill="#0" id="circle212"/>
	<circle cx="601.358" cy="114.727" r="4" fill="#0" id="circle213"/>
	<circle cx="603.629" cy="27.2811" r="4" fill="#0" id="circle214"/>
	<circle cx="607.036" cy="31.8237" r="4" fill="#0" id="circle215"/>
	<circle cx="607.036" cy="112.456" r="4" fill="#0" id="circle216"/>
	<circle cx="609.875" cy="36.9342" r="4" fill="#0" id="circle217"/>
	<circle cx="610.443" cy="106.21" r="4" fill="#0" id="circle218"/>
	<circle cx="611.579" cy="42.6125" r="4" fill="#0" id="circle219"/>
	<circle cx="613.85" cy="48.2908" r="4" fill="#0" id="circle220"/>
	<circle cx="613.85" cy="101.099" r="4" fill="#0" id="circle221"/>
	<circle cx="614.418" cy="53.9691" r="4" fill="#0" id="circle222"/>
	<circle cx="615.554" cy="59.6474" r="4" fill="#0" id="circle223"/>
	<circle cx="615.554" cy="90.8781" r="4" fill="#0" id="circle224"/>
	<circle cx="616.689" cy="65.3257" r="4" fill="#0" id="circle225"/>
	<circle cx="616.689" cy="81.225" r="4" fill="#0" id="circle226"/>
	<circle cx="617.257" cy="71.004" r="4" fill="#0" id="circle227"/>
	<circle cx="996" cy="528.108" r="4" fill="#0" id="circle228"/>
	</g>
</svg>