<?xml version="1.0" encoding="UTF-8" standalone="no"?>
<!-- Created with CurveBenchmark -->
<svg
	xmlns:dc="http://purl.org/dc/elements/1.1/"
	xmlns:cc="http://creativecommons.org/ns#"
	xmlns:rdf="http://www.w3.org/1999/02/22-rdf-syntax-ns#"
	xmlns:svg="http://www.w3.org/2000/svg"
	xmlns="http://www.w3.org/2000/svg"
	xmlns:sodipodi="http://sodipodi.sourceforge.net/DTD/sodipodi-0.dtd"
	xmlns:inkscape="http://www.inkscape.org/namespaces/inkscape"
	width="1000"
	height="1000"
	id="svg2"
	version="1.1"
	sodipodi:docname="manifold/vicur-lmfish-7.png.txt">
<defs
	id="defs4" />
<metadata
	id="metadata7">
	<rdf:RDF>
		<cc:Work
			rdf:about="">
			<dc:format>image/svg+xml</dc:format>
			<dc:type
				rdf:resource="http://purl.org/dc/dcmitype/StillImage" />
			<dc:title></dc:title>
		</cc:Work>
	</rdf:RDF>
</metadata>
<g
	inkscape:label="Layer 1"
	inkscape:groupmode="layer"
	id="layer1">
	<path style="fill:none;stroke:red;stroke-width:1px;stroke-linecap:butt;stroke-linejoin:miter;stroke-opacity:1" d="M 4,577.29 4,584.011 z" id="boundary" inkscape:connector-curvature="0" />
	<path style="fill:none;stroke:red;stroke-width:1px;stroke-linecap:butt;stroke-linejoin:miter;stroke-opacity:1" d="M 4,584.011 4,590.732 z" id="boundary" inkscape:connector-curvature="0" />
	<path style="fill:none;stroke:red;stroke-width:1px;stroke-linecap:butt;stroke-linejoin:miter;stroke-opacity:1" d="M 4,590.732 9.37669,595.436 z" id="boundary" inkscape:connector-curvature="0" />
	<path style="fill:none;stroke:red;stroke-width:1px;stroke-linecap:butt;stroke-linejoin:miter;stroke-opacity:1" d="M 9.37669,595.436 12.065,602.157 z" id="boundary" inkscape:connector-curvature="0" />
	<path style="fill:none;stroke:red;stroke-width:1px;stroke-linecap:butt;stroke-linejoin:miter;stroke-opacity:1" d="M 10.7209,557.127 14.0813,550.407 z" id="boundary" inkscape:connector-curvature="0" />
	<path style="fill:none;stroke:red;stroke-width:1px;stroke-linecap:butt;stroke-linejoin:miter;stroke-opacity:1" d="M 12.065,602.157 15.4255,608.206 z" id="boundary" inkscape:connector-curvature="0" />
	<path style="fill:none;stroke:red;stroke-width:1px;stroke-linecap:butt;stroke-linejoin:miter;stroke-opacity:1" d="M 14.0813,550.407 17.4417,543.686 z" id="boundary" inkscape:connector-curvature="0" />
	<path style="fill:none;stroke:red;stroke-width:1px;stroke-linecap:butt;stroke-linejoin:miter;stroke-opacity:1" d="M 15.4255,608.206 20.8022,612.911 z" id="boundary" inkscape:connector-curvature="0" />
	<path style="fill:none;stroke:red;stroke-width:1px;stroke-linecap:butt;stroke-linejoin:miter;stroke-opacity:1" d="M 17.4417,543.686 22.8184,538.309 z" id="boundary" inkscape:connector-curvature="0" />
	<path style="fill:none;stroke:red;stroke-width:1px;stroke-linecap:butt;stroke-linejoin:miter;stroke-opacity:1" d="M 20.8022,612.911 26.8509,616.271 z" id="boundary" inkscape:connector-curvature="0" />
	<path style="fill:none;stroke:red;stroke-width:1px;stroke-linecap:butt;stroke-linejoin:miter;stroke-opacity:1" d="M 22.8184,538.309 28.1951,532.932 z" id="boundary" inkscape:connector-curvature="0" />
	<path style="fill:none;stroke:red;stroke-width:1px;stroke-linecap:butt;stroke-linejoin:miter;stroke-opacity:1" d="M 26.8509,616.271 31.5556,621.648 z" id="boundary" inkscape:connector-curvature="0" />
	<path style="fill:none;stroke:red;stroke-width:1px;stroke-linecap:butt;stroke-linejoin:miter;stroke-opacity:1" d="M 28.1951,532.932 31.5556,526.211 z" id="boundary" inkscape:connector-curvature="0" />
	<path style="fill:none;stroke:red;stroke-width:1px;stroke-linecap:butt;stroke-linejoin:miter;stroke-opacity:1" d="M 31.5556,526.211 36.9322,521.507 z" id="boundary" inkscape:connector-curvature="0" />
	<path style="fill:none;stroke:red;stroke-width:1px;stroke-linecap:butt;stroke-linejoin:miter;stroke-opacity:1" d="M 36.9322,521.507 41.6369,516.13 z" id="boundary" inkscape:connector-curvature="0" />
	<path style="fill:none;stroke:red;stroke-width:1px;stroke-linecap:butt;stroke-linejoin:miter;stroke-opacity:1" d="M 41.6369,516.13 47.0136,511.425 z" id="boundary" inkscape:connector-curvature="0" />
	<path style="fill:none;stroke:red;stroke-width:1px;stroke-linecap:butt;stroke-linejoin:miter;stroke-opacity:1" d="M 47.0136,511.425 51.7182,506.049 z" id="boundary" inkscape:connector-curvature="0" />
	<path style="fill:none;stroke:red;stroke-width:1px;stroke-linecap:butt;stroke-linejoin:miter;stroke-opacity:1" d="M 51.7182,506.049 57.0949,501.344 z" id="boundary" inkscape:connector-curvature="0" />
	<path style="fill:none;stroke:red;stroke-width:1px;stroke-linecap:butt;stroke-linejoin:miter;stroke-opacity:1" d="M 69.8645,494.623 76.5854,491.263 z" id="boundary" inkscape:connector-curvature="0" />
	<path style="fill:none;stroke:red;stroke-width:1px;stroke-linecap:butt;stroke-linejoin:miter;stroke-opacity:1" d="M 76.5854,491.263 82.6341,487.902 z" id="boundary" inkscape:connector-curvature="0" />
	<path style="fill:none;stroke:red;stroke-width:1px;stroke-linecap:butt;stroke-linejoin:miter;stroke-opacity:1" d="M 82.6341,487.902 88.6829,484.542 z" id="boundary" inkscape:connector-curvature="0" />
	<path style="fill:none;stroke:red;stroke-width:1px;stroke-linecap:butt;stroke-linejoin:miter;stroke-opacity:1" d="M 88.6829,484.542 94.7317,479.837 z" id="boundary" inkscape:connector-curvature="0" />
	<path style="fill:none;stroke:red;stroke-width:1px;stroke-linecap:butt;stroke-linejoin:miter;stroke-opacity:1" d="M 94.7317,479.837 100.108,474.461 z" id="boundary" inkscape:connector-curvature="0" />
	<path style="fill:none;stroke:red;stroke-width:1px;stroke-linecap:butt;stroke-linejoin:miter;stroke-opacity:1" d="M 100.108,474.461 106.157,471.1 z" id="boundary" inkscape:connector-curvature="0" />
	<path style="fill:none;stroke:red;stroke-width:1px;stroke-linecap:butt;stroke-linejoin:miter;stroke-opacity:1" d="M 106.157,471.1 111.534,466.396 z" id="boundary" inkscape:connector-curvature="0" />
	<path style="fill:none;stroke:red;stroke-width:1px;stroke-linecap:butt;stroke-linejoin:miter;stroke-opacity:1" d="M 111.534,466.396 118.255,463.035 z" id="boundary" inkscape:connector-curvature="0" />
	<path style="fill:none;stroke:red;stroke-width:1px;stroke-linecap:butt;stroke-linejoin:miter;stroke-opacity:1" d="M 118.255,463.035 123.631,457.659 z" id="boundary" inkscape:connector-curvature="0" />
	<path style="fill:none;stroke:red;stroke-width:1px;stroke-linecap:butt;stroke-linejoin:miter;stroke-opacity:1" d="M 123.631,457.659 129.008,452.282 z" id="boundary" inkscape:connector-curvature="0" />
	<path style="fill:none;stroke:red;stroke-width:1px;stroke-linecap:butt;stroke-linejoin:miter;stroke-opacity:1" d="M 139.089,622.992 145.81,622.992 z" id="boundary" inkscape:connector-curvature="0" />
	<path style="fill:none;stroke:red;stroke-width:1px;stroke-linecap:butt;stroke-linejoin:miter;stroke-opacity:1" d="M 142.45,445.561 149.171,442.201 z" id="boundary" inkscape:connector-curvature="0" />
	<path style="fill:none;stroke:red;stroke-width:1px;stroke-linecap:butt;stroke-linejoin:miter;stroke-opacity:1" d="M 145.81,622.992 151.859,619.631 z" id="boundary" inkscape:connector-curvature="0" />
	<path style="fill:none;stroke:red;stroke-width:1px;stroke-linecap:butt;stroke-linejoin:miter;stroke-opacity:1" d="M 149.171,442.201 154.547,437.496 z" id="boundary" inkscape:connector-curvature="0" />
	<path style="fill:none;stroke:red;stroke-width:1px;stroke-linecap:butt;stroke-linejoin:miter;stroke-opacity:1" d="M 167.317,430.775 173.366,427.415 z" id="boundary" inkscape:connector-curvature="0" />
	<path style="fill:none;stroke:red;stroke-width:1px;stroke-linecap:butt;stroke-linejoin:miter;stroke-opacity:1" d="M 173.366,427.415 179.415,424.054 z" id="boundary" inkscape:connector-curvature="0" />
	<path style="fill:none;stroke:red;stroke-width:1px;stroke-linecap:butt;stroke-linejoin:miter;stroke-opacity:1" d="M 178.743,610.894 185.463,607.534 z" id="boundary" inkscape:connector-curvature="0" />
	<path style="fill:none;stroke:red;stroke-width:1px;stroke-linecap:butt;stroke-linejoin:miter;stroke-opacity:1" d="M 179.415,424.054 185.463,420.694 z" id="boundary" inkscape:connector-curvature="0" />
	<path style="fill:none;stroke:red;stroke-width:1px;stroke-linecap:butt;stroke-linejoin:miter;stroke-opacity:1" d="M 185.463,420.694 191.512,417.333 z" id="boundary" inkscape:connector-curvature="0" />
	<path style="fill:none;stroke:red;stroke-width:1px;stroke-linecap:butt;stroke-linejoin:miter;stroke-opacity:1" d="M 185.463,607.534 190.84,602.829 z" id="boundary" inkscape:connector-curvature="0" />
	<path style="fill:none;stroke:red;stroke-width:1px;stroke-linecap:butt;stroke-linejoin:miter;stroke-opacity:1" d="M 190.84,602.829 196.889,599.469 z" id="boundary" inkscape:connector-curvature="0" />
	<path style="fill:none;stroke:red;stroke-width:1px;stroke-linecap:butt;stroke-linejoin:miter;stroke-opacity:1" d="M 191.512,417.333 197.561,413.973 z" id="boundary" inkscape:connector-curvature="0" />
	<path style="fill:none;stroke:red;stroke-width:1px;stroke-linecap:butt;stroke-linejoin:miter;stroke-opacity:1" d="M 197.561,413.973 203.61,410.612 z" id="boundary" inkscape:connector-curvature="0" />
	<path style="fill:none;stroke:red;stroke-width:1px;stroke-linecap:butt;stroke-linejoin:miter;stroke-opacity:1" d="M 203.61,410.612 209.659,407.252 z" id="boundary" inkscape:connector-curvature="0" />
	<path style="fill:none;stroke:red;stroke-width:1px;stroke-linecap:butt;stroke-linejoin:miter;stroke-opacity:1" d="M 209.659,407.252 215.707,402.547 z" id="boundary" inkscape:connector-curvature="0" />
	<path style="fill:none;stroke:red;stroke-width:1px;stroke-linecap:butt;stroke-linejoin:miter;stroke-opacity:1" d="M 209.659,592.748 215.707,589.388 z" id="boundary" inkscape:connector-curvature="0" />
	<path style="fill:none;stroke:red;stroke-width:1px;stroke-linecap:butt;stroke-linejoin:miter;stroke-opacity:1" d="M 215.707,589.388 221.756,586.027 z" id="boundary" inkscape:connector-curvature="0" />
	<path style="fill:none;stroke:red;stroke-width:1px;stroke-linecap:butt;stroke-linejoin:miter;stroke-opacity:1" d="M 221.756,586.027 227.805,582.667 z" id="boundary" inkscape:connector-curvature="0" />
	<path style="fill:none;stroke:red;stroke-width:1px;stroke-linecap:butt;stroke-linejoin:miter;stroke-opacity:1" d="M 227.805,582.667 233.854,579.306 z" id="boundary" inkscape:connector-curvature="0" />
	<path style="fill:none;stroke:red;stroke-width:1px;stroke-linecap:butt;stroke-linejoin:miter;stroke-opacity:1" d="M 233.854,579.306 239.902,575.946 z" id="boundary" inkscape:connector-curvature="0" />
	<path style="fill:none;stroke:red;stroke-width:1px;stroke-linecap:butt;stroke-linejoin:miter;stroke-opacity:1" d="M 239.902,575.946 245.951,572.585 z" id="boundary" inkscape:connector-curvature="0" />
	<path style="fill:none;stroke:red;stroke-width:1px;stroke-linecap:butt;stroke-linejoin:miter;stroke-opacity:1" d="M 258.049,565.864 264.77,565.864 z" id="boundary" inkscape:connector-curvature="0" />
	<path style="fill:none;stroke:red;stroke-width:1px;stroke-linecap:butt;stroke-linejoin:miter;stroke-opacity:1" d="M 259.393,298.374 266.114,291.653 z" id="boundary" inkscape:connector-curvature="0" />
	<path style="fill:none;stroke:red;stroke-width:1px;stroke-linecap:butt;stroke-linejoin:miter;stroke-opacity:1" d="M 264.77,565.864 270.818,569.225 z" id="boundary" inkscape:connector-curvature="0" />
	<path style="fill:none;stroke:red;stroke-width:1px;stroke-linecap:butt;stroke-linejoin:miter;stroke-opacity:1" d="M 266.114,291.653 271.491,286.276 z" id="boundary" inkscape:connector-curvature="0" />
	<path style="fill:none;stroke:red;stroke-width:1px;stroke-linecap:butt;stroke-linejoin:miter;stroke-opacity:1" d="M 270.818,569.225 276.867,572.585 z" id="boundary" inkscape:connector-curvature="0" />
	<path style="fill:none;stroke:red;stroke-width:1px;stroke-linecap:butt;stroke-linejoin:miter;stroke-opacity:1" d="M 271.491,286.276 277.539,282.916 z" id="boundary" inkscape:connector-curvature="0" />
	<path style="fill:none;stroke:red;stroke-width:1px;stroke-linecap:butt;stroke-linejoin:miter;stroke-opacity:1" d="M 277.539,282.916 282.916,278.211 z" id="boundary" inkscape:connector-curvature="0" />
	<path style="fill:none;stroke:red;stroke-width:1px;stroke-linecap:butt;stroke-linejoin:miter;stroke-opacity:1" d="M 327.274,254.016 333.995,252.672 z" id="boundary" inkscape:connector-curvature="0" />
	<path style="fill:none;stroke:red;stroke-width:1px;stroke-linecap:butt;stroke-linejoin:miter;stroke-opacity:1" d="M 333.995,252.672 340.043,256.033 z" id="boundary" inkscape:connector-curvature="0" />
	<path style="fill:none;stroke:red;stroke-width:1px;stroke-linecap:butt;stroke-linejoin:miter;stroke-opacity:1" d="M 353.485,254.016 357.518,259.393 z" id="boundary" inkscape:connector-curvature="0" />
	<path style="fill:none;stroke:red;stroke-width:1px;stroke-linecap:butt;stroke-linejoin:miter;stroke-opacity:1" d="M 357.518,259.393 363.566,262.753 z" id="boundary" inkscape:connector-curvature="0" />
	<path style="fill:none;stroke:red;stroke-width:1px;stroke-linecap:butt;stroke-linejoin:miter;stroke-opacity:1" d="M 363.566,262.753 368.943,266.786 z" id="boundary" inkscape:connector-curvature="0" />
	<path style="fill:none;stroke:red;stroke-width:1px;stroke-linecap:butt;stroke-linejoin:miter;stroke-opacity:1" d="M 377.008,278.211 382.385,282.916 z" id="boundary" inkscape:connector-curvature="0" />
	<path style="fill:none;stroke:red;stroke-width:1px;stroke-linecap:butt;stroke-linejoin:miter;stroke-opacity:1" d="M 382.385,282.916 388.434,286.276 z" id="boundary" inkscape:connector-curvature="0" />
	<path style="fill:none;stroke:red;stroke-width:1px;stroke-linecap:butt;stroke-linejoin:miter;stroke-opacity:1" d="M 397.843,309.799 405.236,297.03 z" id="boundary" inkscape:connector-curvature="0" />
	<path style="fill:none;stroke:red;stroke-width:1px;stroke-linecap:butt;stroke-linejoin:miter;stroke-opacity:1" d="M 405.236,297.03 407.252,284.932 z" id="boundary" inkscape:connector-curvature="0" />
	<path style="fill:none;stroke:red;stroke-width:1px;stroke-linecap:butt;stroke-linejoin:miter;stroke-opacity:1" d="M 407.252,284.932 410.612,271.491 z" id="boundary" inkscape:connector-curvature="0" />
	<path style="fill:none;stroke:red;stroke-width:1px;stroke-linecap:butt;stroke-linejoin:miter;stroke-opacity:1" d="M 410.612,271.491 413.973,264.77 z" id="boundary" inkscape:connector-curvature="0" />
	<path style="fill:none;stroke:red;stroke-width:1px;stroke-linecap:butt;stroke-linejoin:miter;stroke-opacity:1" d="M 413.973,264.77 420.694,247.967 z" id="boundary" inkscape:connector-curvature="0" />
	<path style="fill:none;stroke:red;stroke-width:1px;stroke-linecap:butt;stroke-linejoin:miter;stroke-opacity:1" d="M 420.694,247.967 424.054,237.886 z" id="boundary" inkscape:connector-curvature="0" />
	<path style="fill:none;stroke:red;stroke-width:1px;stroke-linecap:butt;stroke-linejoin:miter;stroke-opacity:1" d="M 424.054,237.886 432.791,225.789 z" id="boundary" inkscape:connector-curvature="0" />
	<path style="fill:none;stroke:red;stroke-width:1px;stroke-linecap:butt;stroke-linejoin:miter;stroke-opacity:1" d="M 428.087,478.493 433.463,473.789 z" id="boundary" inkscape:connector-curvature="0" />
	<path style="fill:none;stroke:red;stroke-width:1px;stroke-linecap:butt;stroke-linejoin:miter;stroke-opacity:1" d="M 433.463,473.789 438.168,468.412 z" id="boundary" inkscape:connector-curvature="0" />
	<path style="fill:none;stroke:red;stroke-width:1px;stroke-linecap:butt;stroke-linejoin:miter;stroke-opacity:1" d="M 438.168,468.412 444.217,465.051 z" id="boundary" inkscape:connector-curvature="0" />
	<path style="fill:none;stroke:red;stroke-width:1px;stroke-linecap:butt;stroke-linejoin:miter;stroke-opacity:1" d="M 441.528,213.691 446.905,208.986 z" id="boundary" inkscape:connector-curvature="0" />
	<path style="fill:none;stroke:red;stroke-width:1px;stroke-linecap:butt;stroke-linejoin:miter;stroke-opacity:1" d="M 444.217,465.051 450.266,461.691 z" id="boundary" inkscape:connector-curvature="0" />
	<path style="fill:none;stroke:red;stroke-width:1px;stroke-linecap:butt;stroke-linejoin:miter;stroke-opacity:1" d="M 446.905,208.986 451.61,203.61 z" id="boundary" inkscape:connector-curvature="0" />
	<path style="fill:none;stroke:red;stroke-width:1px;stroke-linecap:butt;stroke-linejoin:miter;stroke-opacity:1" d="M 450.266,461.691 456.314,458.331 z" id="boundary" inkscape:connector-curvature="0" />
	<path style="fill:none;stroke:red;stroke-width:1px;stroke-linecap:butt;stroke-linejoin:miter;stroke-opacity:1" d="M 451.61,203.61 456.986,198.905 z" id="boundary" inkscape:connector-curvature="0" />
	<path style="fill:none;stroke:red;stroke-width:1px;stroke-linecap:butt;stroke-linejoin:miter;stroke-opacity:1" d="M 456.314,458.331 462.363,454.97 z" id="boundary" inkscape:connector-curvature="0" />
	<path style="fill:none;stroke:red;stroke-width:1px;stroke-linecap:butt;stroke-linejoin:miter;stroke-opacity:1" d="M 456.986,198.905 463.035,195.545 z" id="boundary" inkscape:connector-curvature="0" />
	<path style="fill:none;stroke:red;stroke-width:1px;stroke-linecap:butt;stroke-linejoin:miter;stroke-opacity:1" d="M 475.133,451.61 481.182,448.249 z" id="boundary" inkscape:connector-curvature="0" />
	<path style="fill:none;stroke:red;stroke-width:1px;stroke-linecap:butt;stroke-linejoin:miter;stroke-opacity:1" d="M 481.182,448.249 486.558,444.217 z" id="boundary" inkscape:connector-curvature="0" />
	<path style="fill:none;stroke:red;stroke-width:1px;stroke-linecap:butt;stroke-linejoin:miter;stroke-opacity:1" d="M 486.558,444.217 491.935,438.168 z" id="boundary" inkscape:connector-curvature="0" />
	<path style="fill:none;stroke:red;stroke-width:1px;stroke-linecap:butt;stroke-linejoin:miter;stroke-opacity:1" d="M 491.935,438.168 497.984,434.808 z" id="boundary" inkscape:connector-curvature="0" />
	<path style="fill:none;stroke:red;stroke-width:1px;stroke-linecap:butt;stroke-linejoin:miter;stroke-opacity:1" d="M 497.984,434.808 504.705,434.808 z" id="boundary" inkscape:connector-curvature="0" />
	<path style="fill:none;stroke:red;stroke-width:1px;stroke-linecap:butt;stroke-linejoin:miter;stroke-opacity:1" d="M 504.705,434.808 510.753,438.168 z" id="boundary" inkscape:connector-curvature="0" />
	<path style="fill:none;stroke:red;stroke-width:1px;stroke-linecap:butt;stroke-linejoin:miter;stroke-opacity:1" d="M 510.753,438.168 516.802,441.528 z" id="boundary" inkscape:connector-curvature="0" />
	<path style="fill:none;stroke:red;stroke-width:1px;stroke-linecap:butt;stroke-linejoin:miter;stroke-opacity:1" d="M 514.786,172.022 520.835,168.661 z" id="boundary" inkscape:connector-curvature="0" />
	<path style="fill:none;stroke:red;stroke-width:1px;stroke-linecap:butt;stroke-linejoin:miter;stroke-opacity:1" d="M 520.835,168.661 526.883,165.301 z" id="boundary" inkscape:connector-curvature="0" />
	<path style="fill:none;stroke:red;stroke-width:1px;stroke-linecap:butt;stroke-linejoin:miter;stroke-opacity:1" d="M 526.883,165.301 533.604,165.301 z" id="boundary" inkscape:connector-curvature="0" />
	<path style="fill:none;stroke:red;stroke-width:1px;stroke-linecap:butt;stroke-linejoin:miter;stroke-opacity:1" d="M 563.176,444.889 569.897,444.889 z" id="boundary" inkscape:connector-curvature="0" />
	<path style="fill:none;stroke:red;stroke-width:1px;stroke-linecap:butt;stroke-linejoin:miter;stroke-opacity:1" d="M 569.897,444.889 575.274,439.512 z" id="boundary" inkscape:connector-curvature="0" />
	<path style="fill:none;stroke:red;stroke-width:1px;stroke-linecap:butt;stroke-linejoin:miter;stroke-opacity:1" d="M 578.634,147.154 585.355,145.138 z" id="boundary" inkscape:connector-curvature="0" />
	<path style="fill:none;stroke:red;stroke-width:1px;stroke-linecap:butt;stroke-linejoin:miter;stroke-opacity:1" d="M 585.355,145.138 591.404,141.778 z" id="boundary" inkscape:connector-curvature="0" />
	<path style="fill:none;stroke:red;stroke-width:1px;stroke-linecap:butt;stroke-linejoin:miter;stroke-opacity:1" d="M 588.715,432.791 595.436,431.447 z" id="boundary" inkscape:connector-curvature="0" />
	<path style="fill:none;stroke:red;stroke-width:1px;stroke-linecap:butt;stroke-linejoin:miter;stroke-opacity:1" d="M 591.404,141.778 597.453,138.417 z" id="boundary" inkscape:connector-curvature="0" />
	<path style="fill:none;stroke:red;stroke-width:1px;stroke-linecap:butt;stroke-linejoin:miter;stroke-opacity:1" d="M 595.436,431.447 601.485,428.087 z" id="boundary" inkscape:connector-curvature="0" />
	<path style="fill:none;stroke:red;stroke-width:1px;stroke-linecap:butt;stroke-linejoin:miter;stroke-opacity:1" d="M 601.485,428.087 607.534,424.726 z" id="boundary" inkscape:connector-curvature="0" />
	<path style="fill:none;stroke:red;stroke-width:1px;stroke-linecap:butt;stroke-linejoin:miter;stroke-opacity:1" d="M 607.534,424.726 613.583,421.366 z" id="boundary" inkscape:connector-curvature="0" />
	<path style="fill:none;stroke:red;stroke-width:1px;stroke-linecap:butt;stroke-linejoin:miter;stroke-opacity:1" d="M 613.583,421.366 619.631,418.005 z" id="boundary" inkscape:connector-curvature="0" />
	<path style="fill:none;stroke:red;stroke-width:1px;stroke-linecap:butt;stroke-linejoin:miter;stroke-opacity:1" d="M 619.631,418.005 625.008,413.301 z" id="boundary" inkscape:connector-curvature="0" />
	<path style="fill:none;stroke:red;stroke-width:1px;stroke-linecap:butt;stroke-linejoin:miter;stroke-opacity:1" d="M 625.008,413.301 631.729,409.94 z" id="boundary" inkscape:connector-curvature="0" />
	<path style="fill:none;stroke:red;stroke-width:1px;stroke-linecap:butt;stroke-linejoin:miter;stroke-opacity:1" d="M 631.729,409.94 636.434,404.564 z" id="boundary" inkscape:connector-curvature="0" />
	<path style="fill:none;stroke:red;stroke-width:1px;stroke-linecap:butt;stroke-linejoin:miter;stroke-opacity:1" d="M 636.434,404.564 642.482,401.203 z" id="boundary" inkscape:connector-curvature="0" />
	<path style="fill:none;stroke:red;stroke-width:1px;stroke-linecap:butt;stroke-linejoin:miter;stroke-opacity:1" d="M 642.482,401.203 648.531,397.843 z" id="boundary" inkscape:connector-curvature="0" />
	<path style="fill:none;stroke:red;stroke-width:1px;stroke-linecap:butt;stroke-linejoin:miter;stroke-opacity:1" d="M 648.531,397.843 654.58,393.81 z" id="boundary" inkscape:connector-curvature="0" />
	<path style="fill:none;stroke:red;stroke-width:1px;stroke-linecap:butt;stroke-linejoin:miter;stroke-opacity:1" d="M 654.58,393.81 659.957,387.762 z" id="boundary" inkscape:connector-curvature="0" />
	<path style="fill:none;stroke:red;stroke-width:1px;stroke-linecap:butt;stroke-linejoin:miter;stroke-opacity:1" d="M 659.957,387.762 666.005,384.401 z" id="boundary" inkscape:connector-curvature="0" />
	<path style="fill:none;stroke:red;stroke-width:1px;stroke-linecap:butt;stroke-linejoin:miter;stroke-opacity:1" d="M 663.317,118.255 669.366,114.894 z" id="boundary" inkscape:connector-curvature="0" />
	<path style="fill:none;stroke:red;stroke-width:1px;stroke-linecap:butt;stroke-linejoin:miter;stroke-opacity:1" d="M 669.366,114.894 676.087,114.894 z" id="boundary" inkscape:connector-curvature="0" />
	<path style="fill:none;stroke:red;stroke-width:1px;stroke-linecap:butt;stroke-linejoin:miter;stroke-opacity:1" d="M 676.087,114.894 682.136,111.534 z" id="boundary" inkscape:connector-curvature="0" />
	<path style="fill:none;stroke:red;stroke-width:1px;stroke-linecap:butt;stroke-linejoin:miter;stroke-opacity:1" d="M 686.84,176.054 692.217,171.35 z" id="boundary" inkscape:connector-curvature="0" />
	<path style="fill:none;stroke:red;stroke-width:1px;stroke-linecap:butt;stroke-linejoin:miter;stroke-opacity:1" d="M 692.217,171.35 696.921,165.973 z" id="boundary" inkscape:connector-curvature="0" />
	<path style="fill:none;stroke:red;stroke-width:1px;stroke-linecap:butt;stroke-linejoin:miter;stroke-opacity:1" d="M 695.577,362.894 702.298,359.534 z" id="boundary" inkscape:connector-curvature="0" />
	<path style="fill:none;stroke:red;stroke-width:1px;stroke-linecap:butt;stroke-linejoin:miter;stroke-opacity:1" d="M 696.921,165.973 702.298,161.268 z" id="boundary" inkscape:connector-curvature="0" />
	<path style="fill:none;stroke:red;stroke-width:1px;stroke-linecap:butt;stroke-linejoin:miter;stroke-opacity:1" d="M 697.593,175.382 703.642,172.022 z" id="boundary" inkscape:connector-curvature="0" />
	<path style="fill:none;stroke:red;stroke-width:1px;stroke-linecap:butt;stroke-linejoin:miter;stroke-opacity:1" d="M 702.298,161.268 707.003,155.892 z" id="boundary" inkscape:connector-curvature="0" />
	<path style="fill:none;stroke:red;stroke-width:1px;stroke-linecap:butt;stroke-linejoin:miter;stroke-opacity:1" d="M 702.298,359.534 707.003,354.157 z" id="boundary" inkscape:connector-curvature="0" />
	<path style="fill:none;stroke:red;stroke-width:1px;stroke-linecap:butt;stroke-linejoin:miter;stroke-opacity:1" d="M 703.642,172.022 709.691,168.661 z" id="boundary" inkscape:connector-curvature="0" />
	<path style="fill:none;stroke:red;stroke-width:1px;stroke-linecap:butt;stroke-linejoin:miter;stroke-opacity:1" d="M 709.691,168.661 715.74,165.301 z" id="boundary" inkscape:connector-curvature="0" />
	<path style="fill:none;stroke:red;stroke-width:1px;stroke-linecap:butt;stroke-linejoin:miter;stroke-opacity:1" d="M 715.74,165.301 721.789,161.94 z" id="boundary" inkscape:connector-curvature="0" />
	<path style="fill:none;stroke:red;stroke-width:1px;stroke-linecap:butt;stroke-linejoin:miter;stroke-opacity:1" d="M 719.1,346.092 725.821,342.732 z" id="boundary" inkscape:connector-curvature="0" />
	<path style="fill:none;stroke:red;stroke-width:1px;stroke-linecap:butt;stroke-linejoin:miter;stroke-opacity:1" d="M 721.789,161.94 727.837,158.58 z" id="boundary" inkscape:connector-curvature="0" />
	<path style="fill:none;stroke:red;stroke-width:1px;stroke-linecap:butt;stroke-linejoin:miter;stroke-opacity:1" d="M 725.821,342.732 730.526,337.355 z" id="boundary" inkscape:connector-curvature="0" />
	<path style="fill:none;stroke:red;stroke-width:1px;stroke-linecap:butt;stroke-linejoin:miter;stroke-opacity:1" d="M 727.837,158.58 733.214,153.875 z" id="boundary" inkscape:connector-curvature="0" />
	<path style="fill:none;stroke:red;stroke-width:1px;stroke-linecap:butt;stroke-linejoin:miter;stroke-opacity:1" d="M 730.526,337.355 735.902,332.65 z" id="boundary" inkscape:connector-curvature="0" />
	<path style="fill:none;stroke:red;stroke-width:1px;stroke-linecap:butt;stroke-linejoin:miter;stroke-opacity:1" d="M 733.886,273.507 740.607,270.146 z" id="boundary" inkscape:connector-curvature="0" />
	<path style="fill:none;stroke:red;stroke-width:1px;stroke-linecap:butt;stroke-linejoin:miter;stroke-opacity:1" d="M 740.607,270.146 743.967,276.195 z" id="boundary" inkscape:connector-curvature="0" />
	<path style="fill:none;stroke:red;stroke-width:1px;stroke-linecap:butt;stroke-linejoin:miter;stroke-opacity:1" d="M 743.295,140.434 748.672,135.057 z" id="boundary" inkscape:connector-curvature="0" />
	<path style="fill:none;stroke:red;stroke-width:1px;stroke-linecap:butt;stroke-linejoin:miter;stroke-opacity:1" d="M 743.967,276.195 750.688,272.835 z" id="boundary" inkscape:connector-curvature="0" />
	<path style="fill:none;stroke:red;stroke-width:1px;stroke-linecap:butt;stroke-linejoin:miter;stroke-opacity:1" d="M 747.328,266.786 752.705,262.081 z" id="boundary" inkscape:connector-curvature="0" />
	<path style="fill:none;stroke:red;stroke-width:1px;stroke-linecap:butt;stroke-linejoin:miter;stroke-opacity:1" d="M 748.672,135.057 754.049,129.68 z" id="boundary" inkscape:connector-curvature="0" />
	<path style="fill:none;stroke:red;stroke-width:1px;stroke-linecap:butt;stroke-linejoin:miter;stroke-opacity:1" d="M 750.688,272.835 756.737,269.474 z" id="boundary" inkscape:connector-curvature="0" />
	<path style="fill:none;stroke:red;stroke-width:1px;stroke-linecap:butt;stroke-linejoin:miter;stroke-opacity:1" d="M 752.705,262.081 757.409,256.705 z" id="boundary" inkscape:connector-curvature="0" />
	<path style="fill:none;stroke:red;stroke-width:1px;stroke-linecap:butt;stroke-linejoin:miter;stroke-opacity:1" d="M 754.049,129.68 757.409,122.959 z" id="boundary" inkscape:connector-curvature="0" />
	<path style="fill:none;stroke:red;stroke-width:1px;stroke-linecap:butt;stroke-linejoin:miter;stroke-opacity:1" d="M 756.737,269.474 762.786,266.114 z" id="boundary" inkscape:connector-curvature="0" />
	<path style="fill:none;stroke:red;stroke-width:1px;stroke-linecap:butt;stroke-linejoin:miter;stroke-opacity:1" d="M 757.409,122.959 763.458,116.911 z" id="boundary" inkscape:connector-curvature="0" />
	<path style="fill:none;stroke:red;stroke-width:1px;stroke-linecap:butt;stroke-linejoin:miter;stroke-opacity:1" d="M 757.409,256.705 762.786,252 z" id="boundary" inkscape:connector-curvature="0" />
	<path style="fill:none;stroke:red;stroke-width:1px;stroke-linecap:butt;stroke-linejoin:miter;stroke-opacity:1" d="M 760.77,317.192 766.146,312.488 z" id="boundary" inkscape:connector-curvature="0" />
	<path style="fill:none;stroke:red;stroke-width:1px;stroke-linecap:butt;stroke-linejoin:miter;stroke-opacity:1" d="M 762.786,252 768.835,262.753 z" id="boundary" inkscape:connector-curvature="0" />
	<path style="fill:none;stroke:red;stroke-width:1px;stroke-linecap:butt;stroke-linejoin:miter;stroke-opacity:1" d="M 762.786,266.114 768.835,262.753 z" id="boundary" inkscape:connector-curvature="0" />
	<path style="fill:none;stroke:red;stroke-width:1px;stroke-linecap:butt;stroke-linejoin:miter;stroke-opacity:1" d="M 763.458,116.911 768.835,111.534 z" id="boundary" inkscape:connector-curvature="0" />
	<path style="fill:none;stroke:red;stroke-width:1px;stroke-linecap:butt;stroke-linejoin:miter;stroke-opacity:1" d="M 766.146,312.488 770.851,307.111 z" id="boundary" inkscape:connector-curvature="0" />
	<path style="fill:none;stroke:red;stroke-width:1px;stroke-linecap:butt;stroke-linejoin:miter;stroke-opacity:1" d="M 768.835,111.534 774.211,106.157 z" id="boundary" inkscape:connector-curvature="0" />
	<path style="fill:none;stroke:red;stroke-width:1px;stroke-linecap:butt;stroke-linejoin:miter;stroke-opacity:1" d="M 770.851,307.111 776.228,302.407 z" id="boundary" inkscape:connector-curvature="0" />
	<path style="fill:none;stroke:red;stroke-width:1px;stroke-linecap:butt;stroke-linejoin:miter;stroke-opacity:1" d="M 774.211,106.157 779.588,101.453 z" id="boundary" inkscape:connector-curvature="0" />
	<path style="fill:none;stroke:red;stroke-width:1px;stroke-linecap:butt;stroke-linejoin:miter;stroke-opacity:1" d="M 774.211,243.263 780.26,239.902 z" id="boundary" inkscape:connector-curvature="0" />
	<path style="fill:none;stroke:red;stroke-width:1px;stroke-linecap:butt;stroke-linejoin:miter;stroke-opacity:1" d="M 776.228,302.407 780.26,297.03 z" id="boundary" inkscape:connector-curvature="0" />
	<path style="fill:none;stroke:red;stroke-width:1px;stroke-linecap:butt;stroke-linejoin:miter;stroke-opacity:1" d="M 779.588,101.453 784.293,96.0759 z" id="boundary" inkscape:connector-curvature="0" />
	<path style="fill:none;stroke:red;stroke-width:1px;stroke-linecap:butt;stroke-linejoin:miter;stroke-opacity:1" d="M 780.26,239.902 786.309,236.542 z" id="boundary" inkscape:connector-curvature="0" />
	<path style="fill:none;stroke:red;stroke-width:1px;stroke-linecap:butt;stroke-linejoin:miter;stroke-opacity:1" d="M 780.26,297.03 784.293,290.309 z" id="boundary" inkscape:connector-curvature="0" />
	<path style="fill:none;stroke:red;stroke-width:1px;stroke-linecap:butt;stroke-linejoin:miter;stroke-opacity:1" d="M 782.276,259.393 788.997,259.393 z" id="boundary" inkscape:connector-curvature="0" />
	<path style="fill:none;stroke:red;stroke-width:1px;stroke-linecap:butt;stroke-linejoin:miter;stroke-opacity:1" d="M 784.293,96.0759 789.669,91.3713 z" id="boundary" inkscape:connector-curvature="0" />
	<path style="fill:none;stroke:red;stroke-width:1px;stroke-linecap:butt;stroke-linejoin:miter;stroke-opacity:1" d="M 786.309,236.542 792.358,233.182 z" id="boundary" inkscape:connector-curvature="0" />
	<path style="fill:none;stroke:red;stroke-width:1px;stroke-linecap:butt;stroke-linejoin:miter;stroke-opacity:1" d="M 788.997,259.393 794.374,263.425 z" id="boundary" inkscape:connector-curvature="0" />
	<path style="fill:none;stroke:red;stroke-width:1px;stroke-linecap:butt;stroke-linejoin:miter;stroke-opacity:1" d="M 789.669,91.3713 792.358,84.6504 z" id="boundary" inkscape:connector-curvature="0" />
	<path style="fill:none;stroke:red;stroke-width:1px;stroke-linecap:butt;stroke-linejoin:miter;stroke-opacity:1" d="M 792.358,84.6504 797.734,79.2737 z" id="boundary" inkscape:connector-curvature="0" />
	<path style="fill:none;stroke:red;stroke-width:1px;stroke-linecap:butt;stroke-linejoin:miter;stroke-opacity:1" d="M 792.358,233.182 798.407,229.821 z" id="boundary" inkscape:connector-curvature="0" />
	<path style="fill:none;stroke:red;stroke-width:1px;stroke-linecap:butt;stroke-linejoin:miter;stroke-opacity:1" d="M 797.734,79.2737 803.111,74.5691 z" id="boundary" inkscape:connector-curvature="0" />
	<path style="fill:none;stroke:red;stroke-width:1px;stroke-linecap:butt;stroke-linejoin:miter;stroke-opacity:1" d="M 814.537,65.832 819.913,61.1274 z" id="boundary" inkscape:connector-curvature="0" />
	<path style="fill:none;stroke:red;stroke-width:1px;stroke-linecap:butt;stroke-linejoin:miter;stroke-opacity:1" d="M 819.913,61.1274 824.618,55.7507 z" id="boundary" inkscape:connector-curvature="0" />
	<path style="fill:none;stroke:red;stroke-width:1px;stroke-linecap:butt;stroke-linejoin:miter;stroke-opacity:1" d="M 824.618,55.7507 829.995,51.0461 z" id="boundary" inkscape:connector-curvature="0" />
	<path style="fill:none;stroke:red;stroke-width:1px;stroke-linecap:butt;stroke-linejoin:miter;stroke-opacity:1" d="M 829.995,51.0461 836.043,47.6856 z" id="boundary" inkscape:connector-curvature="0" />
	<path style="fill:none;stroke:red;stroke-width:1px;stroke-linecap:butt;stroke-linejoin:miter;stroke-opacity:1" d="M 830.667,219.74 836.043,215.707 z" id="boundary" inkscape:connector-curvature="0" />
	<path style="fill:none;stroke:red;stroke-width:1px;stroke-linecap:butt;stroke-linejoin:miter;stroke-opacity:1" d="M 836.043,47.6856 841.42,42.3089 z" id="boundary" inkscape:connector-curvature="0" />
	<path style="fill:none;stroke:red;stroke-width:1px;stroke-linecap:butt;stroke-linejoin:miter;stroke-opacity:1" d="M 836.043,215.707 842.764,213.019 z" id="boundary" inkscape:connector-curvature="0" />
	<path style="fill:none;stroke:red;stroke-width:1px;stroke-linecap:butt;stroke-linejoin:miter;stroke-opacity:1" d="M 841.42,42.3089 846.797,37.6043 z" id="boundary" inkscape:connector-curvature="0" />
	<path style="fill:none;stroke:red;stroke-width:1px;stroke-linecap:butt;stroke-linejoin:miter;stroke-opacity:1" d="M 855.534,209.659 861.583,206.298 z" id="boundary" inkscape:connector-curvature="0" />
	<path style="fill:none;stroke:red;stroke-width:1px;stroke-linecap:butt;stroke-linejoin:miter;stroke-opacity:1" d="M 859.566,30.8835 866.287,27.523 z" id="boundary" inkscape:connector-curvature="0" />
	<path style="fill:none;stroke:red;stroke-width:1px;stroke-linecap:butt;stroke-linejoin:miter;stroke-opacity:1" d="M 861.583,206.298 867.631,202.938 z" id="boundary" inkscape:connector-curvature="0" />
	<path style="fill:none;stroke:red;stroke-width:1px;stroke-linecap:butt;stroke-linejoin:miter;stroke-opacity:1" d="M 866.287,27.523 872.336,24.1626 z" id="boundary" inkscape:connector-curvature="0" />
	<path style="fill:none;stroke:red;stroke-width:1px;stroke-linecap:butt;stroke-linejoin:miter;stroke-opacity:1" d="M 872.336,24.1626 878.385,20.8022 z" id="boundary" inkscape:connector-curvature="0" />
	<path style="fill:none;stroke:red;stroke-width:1px;stroke-linecap:butt;stroke-linejoin:miter;stroke-opacity:1" d="M 878.385,20.8022 884.434,17.4417 z" id="boundary" inkscape:connector-curvature="0" />
	<path style="fill:none;stroke:red;stroke-width:1px;stroke-linecap:butt;stroke-linejoin:miter;stroke-opacity:1" d="M 884.434,17.4417 890.482,14.0813 z" id="boundary" inkscape:connector-curvature="0" />
	<path style="fill:none;stroke:red;stroke-width:1px;stroke-linecap:butt;stroke-linejoin:miter;stroke-opacity:1" d="M 890.482,14.0813 896.531,10.7209 z" id="boundary" inkscape:connector-curvature="0" />
	<path style="fill:none;stroke:red;stroke-width:1px;stroke-linecap:butt;stroke-linejoin:miter;stroke-opacity:1" d="M 893.843,191.512 900.564,188.152 z" id="boundary" inkscape:connector-curvature="0" />
	<path style="fill:none;stroke:red;stroke-width:1px;stroke-linecap:butt;stroke-linejoin:miter;stroke-opacity:1" d="M 900.564,188.152 905.268,182.775 z" id="boundary" inkscape:connector-curvature="0" />
	<path style="fill:none;stroke:red;stroke-width:1px;stroke-linecap:butt;stroke-linejoin:miter;stroke-opacity:1" d="M 905.268,182.775 911.989,179.415 z" id="boundary" inkscape:connector-curvature="0" />
	<path style="fill:none;stroke:red;stroke-width:1px;stroke-linecap:butt;stroke-linejoin:miter;stroke-opacity:1" d="M 911.989,179.415 918.038,176.054 z" id="boundary" inkscape:connector-curvature="0" />
	<path style="fill:none;stroke:red;stroke-width:1px;stroke-linecap:butt;stroke-linejoin:miter;stroke-opacity:1" d="M 918.038,176.054 924.087,172.694 z" id="boundary" inkscape:connector-curvature="0" />
	<path style="fill:none;stroke:red;stroke-width:1px;stroke-linecap:butt;stroke-linejoin:miter;stroke-opacity:1" d="M 924.087,172.694 930.136,169.333 z" id="boundary" inkscape:connector-curvature="0" />
	<path style="fill:none;stroke:red;stroke-width:1px;stroke-linecap:butt;stroke-linejoin:miter;stroke-opacity:1" d="M 930.136,169.333 936.184,165.973 z" id="boundary" inkscape:connector-curvature="0" />
	<path style="fill:none;stroke:red;stroke-width:1px;stroke-linecap:butt;stroke-linejoin:miter;stroke-opacity:1" d="M 936.184,4 942.905,4 z" id="boundary" inkscape:connector-curvature="0" />
	<path style="fill:none;stroke:red;stroke-width:1px;stroke-linecap:butt;stroke-linejoin:miter;stroke-opacity:1" d="M 936.184,165.973 942.233,162.612 z" id="boundary" inkscape:connector-curvature="0" />
	<path style="fill:none;stroke:red;stroke-width:1px;stroke-linecap:butt;stroke-linejoin:miter;stroke-opacity:1" d="M 942.233,162.612 947.61,157.908 z" id="boundary" inkscape:connector-curvature="0" />
	<path style="fill:none;stroke:red;stroke-width:1px;stroke-linecap:butt;stroke-linejoin:miter;stroke-opacity:1" d="M 942.905,4 948.282,8.70461 z" id="boundary" inkscape:connector-curvature="0" />
	<path style="fill:none;stroke:red;stroke-width:1px;stroke-linecap:butt;stroke-linejoin:miter;stroke-opacity:1" d="M 947.61,157.908 952.314,152.531 z" id="boundary" inkscape:connector-curvature="0" />
	<path style="fill:none;stroke:red;stroke-width:1px;stroke-linecap:butt;stroke-linejoin:miter;stroke-opacity:1" d="M 948.282,8.70461 954.331,12.065 z" id="boundary" inkscape:connector-curvature="0" />
	<path style="fill:none;stroke:red;stroke-width:1px;stroke-linecap:butt;stroke-linejoin:miter;stroke-opacity:1" d="M 952.314,152.531 957.691,147.827 z" id="boundary" inkscape:connector-curvature="0" />
	<path style="fill:none;stroke:red;stroke-width:1px;stroke-linecap:butt;stroke-linejoin:miter;stroke-opacity:1" d="M 954.331,12.065 959.035,17.4417 z" id="boundary" inkscape:connector-curvature="0" />
	<path style="fill:none;stroke:red;stroke-width:1px;stroke-linecap:butt;stroke-linejoin:miter;stroke-opacity:1" d="M 957.691,147.827 962.396,142.45 z" id="boundary" inkscape:connector-curvature="0" />
	<path style="fill:none;stroke:red;stroke-width:1px;stroke-linecap:butt;stroke-linejoin:miter;stroke-opacity:1" d="M 959.035,17.4417 964.412,21.4743 z" id="boundary" inkscape:connector-curvature="0" />
	<path style="fill:none;stroke:red;stroke-width:1px;stroke-linecap:butt;stroke-linejoin:miter;stroke-opacity:1" d="M 962.396,142.45 968.444,139.089 z" id="boundary" inkscape:connector-curvature="0" />
	<path style="fill:none;stroke:red;stroke-width:1px;stroke-linecap:butt;stroke-linejoin:miter;stroke-opacity:1" d="M 964.412,21.4743 969.117,26.8509 z" id="boundary" inkscape:connector-curvature="0" />
	<path style="fill:none;stroke:red;stroke-width:1px;stroke-linecap:butt;stroke-linejoin:miter;stroke-opacity:1" d="M 969.117,26.8509 969.117,33.5718 z" id="boundary" inkscape:connector-curvature="0" />
	<path style="fill:none;stroke:red;stroke-width:1px;stroke-linecap:butt;stroke-linejoin:miter;stroke-opacity:1" d="M 969.117,33.5718 972.477,39.6206 z" id="boundary" inkscape:connector-curvature="0" />
	<path style="fill:none;stroke:red;stroke-width:1px;stroke-linecap:butt;stroke-linejoin:miter;stroke-opacity:1" d="M 972.477,39.6206 978.526,42.981 z" id="boundary" inkscape:connector-curvature="0" />
	<path style="fill:none;stroke:red;stroke-width:1px;stroke-linecap:butt;stroke-linejoin:miter;stroke-opacity:1" d="M 989.279,74.5691 992.64,80.6179 z" id="boundary" inkscape:connector-curvature="0" />
	<path style="fill:none;stroke:red;stroke-width:1px;stroke-linecap:butt;stroke-linejoin:miter;stroke-opacity:1" d="M 992.64,80.6179 996,86.6667 z" id="boundary" inkscape:connector-curvature="0" />
	<circle cx="4" cy="577.29" r="4" fill="#0" id="circle0"/>
	<circle cx="4" cy="584.011" r="4" fill="#0" id="circle1"/>
	<circle cx="4" cy="590.732" r="4" fill="#0" id="circle2"/>
	<circle cx="9.37669" cy="571.913" r="4" fill="#0" id="circle3"/>
	<circle cx="9.37669" cy="595.436" r="4" fill="#0" id="circle4"/>
	<circle cx="10.7209" cy="557.127" r="4" fill="#0" id="circle5"/>
	<circle cx="10.7209" cy="563.848" r="4" fill="#0" id="circle6"/>
	<circle cx="12.065" cy="602.157" r="4" fill="#0" id="circle7"/>
	<circle cx="14.0813" cy="550.407" r="4" fill="#0" id="circle8"/>
	<circle cx="15.4255" cy="608.206" r="4" fill="#0" id="circle9"/>
	<circle cx="17.4417" cy="543.686" r="4" fill="#0" id="circle10"/>
	<circle cx="20.8022" cy="612.911" r="4" fill="#0" id="circle11"/>
	<circle cx="22.8184" cy="538.309" r="4" fill="#0" id="circle12"/>
	<circle cx="26.8509" cy="616.271" r="4" fill="#0" id="circle13"/>
	<circle cx="28.1951" cy="532.932" r="4" fill="#0" id="circle14"/>
	<circle cx="31.5556" cy="526.211" r="4" fill="#0" id="circle15"/>
	<circle cx="31.5556" cy="621.648" r="4" fill="#0" id="circle16"/>
	<circle cx="36.9322" cy="521.507" r="4" fill="#0" id="circle17"/>
	<circle cx="38.2764" cy="622.992" r="4" fill="#0" id="circle18"/>
	<circle cx="41.6369" cy="516.13" r="4" fill="#0" id="circle19"/>
	<circle cx="44.9973" cy="624.336" r="4" fill="#0" id="circle20"/>
	<circle cx="47.0136" cy="511.425" r="4" fill="#0" id="circle21"/>
	<circle cx="51.7182" cy="506.049" r="4" fill="#0" id="circle22"/>
	<circle cx="51.7182" cy="626.352" r="4" fill="#0" id="circle23"/>
	<circle cx="57.0949" cy="501.344" r="4" fill="#0" id="circle24"/>
	<circle cx="58.439" cy="626.352" r="4" fill="#0" id="circle25"/>
	<circle cx="63.1436" cy="497.984" r="4" fill="#0" id="circle26"/>
	<circle cx="65.1599" cy="627.696" r="4" fill="#0" id="circle27"/>
	<circle cx="69.8645" cy="494.623" r="4" fill="#0" id="circle28"/>
	<circle cx="71.8808" cy="629.713" r="4" fill="#0" id="circle29"/>
	<circle cx="76.5854" cy="491.263" r="4" fill="#0" id="circle30"/>
	<circle cx="78.6016" cy="629.713" r="4" fill="#0" id="circle31"/>
	<circle cx="82.6341" cy="487.902" r="4" fill="#0" id="circle32"/>
	<circle cx="85.3225" cy="629.713" r="4" fill="#0" id="circle33"/>
	<circle cx="88.6829" cy="484.542" r="4" fill="#0" id="circle34"/>
	<circle cx="92.0434" cy="629.713" r="4" fill="#0" id="circle35"/>
	<circle cx="94.7317" cy="479.837" r="4" fill="#0" id="circle36"/>
	<circle cx="98.7642" cy="626.352" r="4" fill="#0" id="circle37"/>
	<circle cx="100.108" cy="474.461" r="4" fill="#0" id="circle38"/>
	<circle cx="105.485" cy="626.352" r="4" fill="#0" id="circle39"/>
	<circle cx="106.157" cy="471.1" r="4" fill="#0" id="circle40"/>
	<circle cx="111.534" cy="466.396" r="4" fill="#0" id="circle41"/>
	<circle cx="112.206" cy="626.352" r="4" fill="#0" id="circle42"/>
	<circle cx="118.255" cy="463.035" r="4" fill="#0" id="circle43"/>
	<circle cx="118.927" cy="626.352" r="4" fill="#0" id="circle44"/>
	<circle cx="123.631" cy="457.659" r="4" fill="#0" id="circle45"/>
	<circle cx="125.648" cy="626.352" r="4" fill="#0" id="circle46"/>
	<circle cx="129.008" cy="452.282" r="4" fill="#0" id="circle47"/>
	<circle cx="132.369" cy="622.992" r="4" fill="#0" id="circle48"/>
	<circle cx="135.729" cy="448.921" r="4" fill="#0" id="circle49"/>
	<circle cx="139.089" cy="622.992" r="4" fill="#0" id="circle50"/>
	<circle cx="142.45" cy="445.561" r="4" fill="#0" id="circle51"/>
	<circle cx="145.81" cy="622.992" r="4" fill="#0" id="circle52"/>
	<circle cx="149.171" cy="442.201" r="4" fill="#0" id="circle53"/>
	<circle cx="151.859" cy="619.631" r="4" fill="#0" id="circle54"/>
	<circle cx="154.547" cy="437.496" r="4" fill="#0" id="circle55"/>
	<circle cx="158.58" cy="617.615" r="4" fill="#0" id="circle56"/>
	<circle cx="160.596" cy="434.136" r="4" fill="#0" id="circle57"/>
	<circle cx="165.301" cy="614.255" r="4" fill="#0" id="circle58"/>
	<circle cx="167.317" cy="430.775" r="4" fill="#0" id="circle59"/>
	<circle cx="172.022" cy="612.911" r="4" fill="#0" id="circle60"/>
	<circle cx="173.366" cy="427.415" r="4" fill="#0" id="circle61"/>
	<circle cx="178.743" cy="610.894" r="4" fill="#0" id="circle62"/>
	<circle cx="179.415" cy="424.054" r="4" fill="#0" id="circle63"/>
	<circle cx="185.463" cy="420.694" r="4" fill="#0" id="circle64"/>
	<circle cx="185.463" cy="607.534" r="4" fill="#0" id="circle65"/>
	<circle cx="190.84" cy="602.829" r="4" fill="#0" id="circle66"/>
	<circle cx="191.512" cy="417.333" r="4" fill="#0" id="circle67"/>
	<circle cx="196.889" cy="599.469" r="4" fill="#0" id="circle68"/>
	<circle cx="197.561" cy="413.973" r="4" fill="#0" id="circle69"/>
	<circle cx="202.938" cy="596.108" r="4" fill="#0" id="circle70"/>
	<circle cx="203.61" cy="410.612" r="4" fill="#0" id="circle71"/>
	<circle cx="209.659" cy="407.252" r="4" fill="#0" id="circle72"/>
	<circle cx="209.659" cy="592.748" r="4" fill="#0" id="circle73"/>
	<circle cx="215.707" cy="402.547" r="4" fill="#0" id="circle74"/>
	<circle cx="215.707" cy="589.388" r="4" fill="#0" id="circle75"/>
	<circle cx="221.756" cy="586.027" r="4" fill="#0" id="circle76"/>
	<circle cx="222.428" cy="399.187" r="4" fill="#0" id="circle77"/>
	<circle cx="225.789" cy="385.745" r="4" fill="#0" id="circle78"/>
	<circle cx="225.789" cy="392.466" r="4" fill="#0" id="circle79"/>
	<circle cx="227.805" cy="582.667" r="4" fill="#0" id="circle80"/>
	<circle cx="229.149" cy="372.304" r="4" fill="#0" id="circle81"/>
	<circle cx="229.149" cy="379.024" r="4" fill="#0" id="circle82"/>
	<circle cx="232.509" cy="362.222" r="4" fill="#0" id="circle83"/>
	<circle cx="233.854" cy="579.306" r="4" fill="#0" id="circle84"/>
	<circle cx="235.87" cy="348.78" r="4" fill="#0" id="circle85"/>
	<circle cx="235.87" cy="355.501" r="4" fill="#0" id="circle86"/>
	<circle cx="239.23" cy="342.06" r="4" fill="#0" id="circle87"/>
	<circle cx="239.902" cy="575.946" r="4" fill="#0" id="circle88"/>
	<circle cx="242.591" cy="335.339" r="4" fill="#0" id="circle89"/>
	<circle cx="245.951" cy="325.257" r="4" fill="#0" id="circle90"/>
	<circle cx="245.951" cy="572.585" r="4" fill="#0" id="circle91"/>
	<circle cx="249.312" cy="318.537" r="4" fill="#0" id="circle92"/>
	<circle cx="251.328" cy="568.553" r="4" fill="#0" id="circle93"/>
	<circle cx="252.672" cy="311.816" r="4" fill="#0" id="circle94"/>
	<circle cx="256.033" cy="305.095" r="4" fill="#0" id="circle95"/>
	<circle cx="258.049" cy="565.864" r="4" fill="#0" id="circle96"/>
	<circle cx="259.393" cy="298.374" r="4" fill="#0" id="circle97"/>
	<circle cx="264.77" cy="565.864" r="4" fill="#0" id="circle98"/>
	<circle cx="266.114" cy="291.653" r="4" fill="#0" id="circle99"/>
	<circle cx="270.818" cy="569.225" r="4" fill="#0" id="circle100"/>
	<circle cx="271.491" cy="286.276" r="4" fill="#0" id="circle101"/>
	<circle cx="276.867" cy="572.585" r="4" fill="#0" id="circle102"/>
	<circle cx="277.539" cy="282.916" r="4" fill="#0" id="circle103"/>
	<circle cx="282.916" cy="278.211" r="4" fill="#0" id="circle104"/>
	<circle cx="283.588" cy="573.93" r="4" fill="#0" id="circle105"/>
	<circle cx="289.637" cy="274.851" r="4" fill="#0" id="circle106"/>
	<circle cx="290.309" cy="572.585" r="4" fill="#0" id="circle107"/>
	<circle cx="296.358" cy="271.491" r="4" fill="#0" id="circle108"/>
	<circle cx="297.03" cy="569.225" r="4" fill="#0" id="circle109"/>
	<circle cx="303.079" cy="269.474" r="4" fill="#0" id="circle110"/>
	<circle cx="303.751" cy="565.864" r="4" fill="#0" id="circle111"/>
	<circle cx="309.799" cy="268.13" r="4" fill="#0" id="circle112"/>
	<circle cx="310.472" cy="562.504" r="4" fill="#0" id="circle113"/>
	<circle cx="315.176" cy="262.753" r="4" fill="#0" id="circle114"/>
	<circle cx="316.52" cy="559.144" r="4" fill="#0" id="circle115"/>
	<circle cx="320.553" cy="257.377" r="4" fill="#0" id="circle116"/>
	<circle cx="321.897" cy="555.111" r="4" fill="#0" id="circle117"/>
	<circle cx="327.274" cy="254.016" r="4" fill="#0" id="circle118"/>
	<circle cx="328.618" cy="551.751" r="4" fill="#0" id="circle119"/>
	<circle cx="333.995" cy="252.672" r="4" fill="#0" id="circle120"/>
	<circle cx="335.339" cy="548.39" r="4" fill="#0" id="circle121"/>
	<circle cx="340.043" cy="256.033" r="4" fill="#0" id="circle122"/>
	<circle cx="342.06" cy="545.03" r="4" fill="#0" id="circle123"/>
	<circle cx="346.764" cy="254.688" r="4" fill="#0" id="circle124"/>
	<circle cx="347.436" cy="538.981" r="4" fill="#0" id="circle125"/>
	<circle cx="353.485" cy="254.016" r="4" fill="#0" id="circle126"/>
	<circle cx="354.157" cy="535.621" r="4" fill="#0" id="circle127"/>
	<circle cx="357.518" cy="259.393" r="4" fill="#0" id="circle128"/>
	<circle cx="360.878" cy="532.26" r="4" fill="#0" id="circle129"/>
	<circle cx="363.566" cy="262.753" r="4" fill="#0" id="circle130"/>
	<circle cx="367.599" cy="528.9" r="4" fill="#0" id="circle131"/>
	<circle cx="368.943" cy="266.786" r="4" fill="#0" id="circle132"/>
	<circle cx="373.648" cy="525.539" r="4" fill="#0" id="circle133"/>
	<circle cx="374.32" cy="271.491" r="4" fill="#0" id="circle134"/>
	<circle cx="377.008" cy="278.211" r="4" fill="#0" id="circle135"/>
	<circle cx="380.369" cy="525.539" r="4" fill="#0" id="circle136"/>
	<circle cx="382.385" cy="282.916" r="4" fill="#0" id="circle137"/>
	<circle cx="386.417" cy="522.179" r="4" fill="#0" id="circle138"/>
	<circle cx="387.762" cy="303.751" r="4" fill="#0" id="circle139"/>
	<circle cx="388.434" cy="286.276" r="4" fill="#0" id="circle140"/>
	<circle cx="391.122" cy="292.997" r="4" fill="#0" id="circle141"/>
	<circle cx="391.122" cy="309.799" r="4" fill="#0" id="circle142"/>
	<circle cx="392.466" cy="518.146" r="4" fill="#0" id="circle143"/>
	<circle cx="397.843" cy="309.799" r="4" fill="#0" id="circle144"/>
	<circle cx="399.187" cy="514.786" r="4" fill="#0" id="circle145"/>
	<circle cx="401.875" cy="303.751" r="4" fill="#0" id="circle146"/>
	<circle cx="405.236" cy="297.03" r="4" fill="#0" id="circle147"/>
	<circle cx="405.908" cy="511.425" r="4" fill="#0" id="circle148"/>
	<circle cx="407.252" cy="284.932" r="4" fill="#0" id="circle149"/>
	<circle cx="410.612" cy="271.491" r="4" fill="#0" id="circle150"/>
	<circle cx="410.612" cy="278.211" r="4" fill="#0" id="circle151"/>
	<circle cx="412.629" cy="508.065" r="4" fill="#0" id="circle152"/>
	<circle cx="413.973" cy="264.77" r="4" fill="#0" id="circle153"/>
	<circle cx="418.005" cy="502.016" r="4" fill="#0" id="circle154"/>
	<circle cx="419.35" cy="259.393" r="4" fill="#0" id="circle155"/>
	<circle cx="420.694" cy="247.967" r="4" fill="#0" id="circle156"/>
	<circle cx="424.054" cy="237.886" r="4" fill="#0" id="circle157"/>
	<circle cx="424.726" cy="498.656" r="4" fill="#0" id="circle158"/>
	<circle cx="428.087" cy="478.493" r="4" fill="#0" id="circle159"/>
	<circle cx="429.431" cy="232.509" r="4" fill="#0" id="circle160"/>
	<circle cx="431.447" cy="495.295" r="4" fill="#0" id="circle161"/>
	<circle cx="432.791" cy="225.789" r="4" fill="#0" id="circle162"/>
	<circle cx="433.463" cy="473.789" r="4" fill="#0" id="circle163"/>
	<circle cx="434.808" cy="481.182" r="4" fill="#0" id="circle164"/>
	<circle cx="438.168" cy="220.412" r="4" fill="#0" id="circle165"/>
	<circle cx="438.168" cy="468.412" r="4" fill="#0" id="circle166"/>
	<circle cx="438.168" cy="491.935" r="4" fill="#0" id="circle167"/>
	<circle cx="441.528" cy="213.691" r="4" fill="#0" id="circle168"/>
	<circle cx="441.528" cy="483.198" r="4" fill="#0" id="circle169"/>
	<circle cx="444.217" cy="465.051" r="4" fill="#0" id="circle170"/>
	<circle cx="446.905" cy="208.986" r="4" fill="#0" id="circle171"/>
	<circle cx="450.266" cy="461.691" r="4" fill="#0" id="circle172"/>
	<circle cx="451.61" cy="203.61" r="4" fill="#0" id="circle173"/>
	<circle cx="456.314" cy="458.331" r="4" fill="#0" id="circle174"/>
	<circle cx="456.986" cy="198.905" r="4" fill="#0" id="circle175"/>
	<circle cx="462.363" cy="454.97" r="4" fill="#0" id="circle176"/>
	<circle cx="463.035" cy="195.545" r="4" fill="#0" id="circle177"/>
	<circle cx="468.412" cy="190.168" r="4" fill="#0" id="circle178"/>
	<circle cx="468.412" cy="451.61" r="4" fill="#0" id="circle179"/>
	<circle cx="475.133" cy="186.808" r="4" fill="#0" id="circle180"/>
	<circle cx="475.133" cy="451.61" r="4" fill="#0" id="circle181"/>
	<circle cx="481.182" cy="448.249" r="4" fill="#0" id="circle182"/>
	<circle cx="481.854" cy="183.447" r="4" fill="#0" id="circle183"/>
	<circle cx="486.558" cy="444.217" r="4" fill="#0" id="circle184"/>
	<circle cx="488.575" cy="180.087" r="4" fill="#0" id="circle185"/>
	<circle cx="491.935" cy="438.168" r="4" fill="#0" id="circle186"/>
	<circle cx="495.295" cy="176.726" r="4" fill="#0" id="circle187"/>
	<circle cx="497.984" cy="434.808" r="4" fill="#0" id="circle188"/>
	<circle cx="502.016" cy="175.382" r="4" fill="#0" id="circle189"/>
	<circle cx="504.705" cy="434.808" r="4" fill="#0" id="circle190"/>
	<circle cx="508.065" cy="172.022" r="4" fill="#0" id="circle191"/>
	<circle cx="510.753" cy="438.168" r="4" fill="#0" id="circle192"/>
	<circle cx="514.786" cy="172.022" r="4" fill="#0" id="circle193"/>
	<circle cx="516.802" cy="441.528" r="4" fill="#0" id="circle194"/>
	<circle cx="520.835" cy="168.661" r="4" fill="#0" id="circle195"/>
	<circle cx="523.523" cy="441.528" r="4" fill="#0" id="circle196"/>
	<circle cx="526.883" cy="165.301" r="4" fill="#0" id="circle197"/>
	<circle cx="530.244" cy="441.528" r="4" fill="#0" id="circle198"/>
	<circle cx="533.604" cy="165.301" r="4" fill="#0" id="circle199"/>
	<circle cx="536.293" cy="444.889" r="4" fill="#0" id="circle200"/>
	<circle cx="539.653" cy="161.94" r="4" fill="#0" id="circle201"/>
	<circle cx="543.014" cy="444.889" r="4" fill="#0" id="circle202"/>
	<circle cx="546.374" cy="161.94" r="4" fill="#0" id="circle203"/>
	<circle cx="549.734" cy="444.889" r="4" fill="#0" id="circle204"/>
	<circle cx="552.423" cy="158.58" r="4" fill="#0" id="circle205"/>
	<circle cx="556.455" cy="444.889" r="4" fill="#0" id="circle206"/>
	<circle cx="558.472" cy="155.22" r="4" fill="#0" id="circle207"/>
	<circle cx="563.176" cy="444.889" r="4" fill="#0" id="circle208"/>
	<circle cx="565.192" cy="153.875" r="4" fill="#0" id="circle209"/>
	<circle cx="569.897" cy="444.889" r="4" fill="#0" id="circle210"/>
	<circle cx="571.913" cy="150.515" r="4" fill="#0" id="circle211"/>
	<circle cx="575.274" cy="439.512" r="4" fill="#0" id="circle212"/>
	<circle cx="578.634" cy="147.154" r="4" fill="#0" id="circle213"/>
	<circle cx="581.995" cy="436.152" r="4" fill="#0" id="circle214"/>
	<circle cx="585.355" cy="145.138" r="4" fill="#0" id="circle215"/>
	<circle cx="588.715" cy="432.791" r="4" fill="#0" id="circle216"/>
	<circle cx="591.404" cy="141.778" r="4" fill="#0" id="circle217"/>
	<circle cx="595.436" cy="431.447" r="4" fill="#0" id="circle218"/>
	<circle cx="597.453" cy="138.417" r="4" fill="#0" id="circle219"/>
	<circle cx="601.485" cy="428.087" r="4" fill="#0" id="circle220"/>
	<circle cx="604.173" cy="138.417" r="4" fill="#0" id="circle221"/>
	<circle cx="607.534" cy="424.726" r="4" fill="#0" id="circle222"/>
	<circle cx="610.894" cy="135.057" r="4" fill="#0" id="circle223"/>
	<circle cx="613.583" cy="421.366" r="4" fill="#0" id="circle224"/>
	<circle cx="617.615" cy="131.696" r="4" fill="#0" id="circle225"/>
	<circle cx="619.631" cy="418.005" r="4" fill="#0" id="circle226"/>
	<circle cx="624.336" cy="131.696" r="4" fill="#0" id="circle227"/>
	<circle cx="625.008" cy="413.301" r="4" fill="#0" id="circle228"/>
	<circle cx="631.057" cy="128.336" r="4" fill="#0" id="circle229"/>
	<circle cx="631.729" cy="409.94" r="4" fill="#0" id="circle230"/>
	<circle cx="636.434" cy="404.564" r="4" fill="#0" id="circle231"/>
	<circle cx="637.106" cy="124.976" r="4" fill="#0" id="circle232"/>
	<circle cx="642.482" cy="401.203" r="4" fill="#0" id="circle233"/>
	<circle cx="643.827" cy="124.976" r="4" fill="#0" id="circle234"/>
	<circle cx="648.531" cy="397.843" r="4" fill="#0" id="circle235"/>
	<circle cx="649.875" cy="121.615" r="4" fill="#0" id="circle236"/>
	<circle cx="654.58" cy="393.81" r="4" fill="#0" id="circle237"/>
	<circle cx="656.596" cy="119.599" r="4" fill="#0" id="circle238"/>
	<circle cx="659.957" cy="387.762" r="4" fill="#0" id="circle239"/>
	<circle cx="663.317" cy="118.255" r="4" fill="#0" id="circle240"/>
	<circle cx="666.005" cy="384.401" r="4" fill="#0" id="circle241"/>
	<circle cx="669.366" cy="114.894" r="4" fill="#0" id="circle242"/>
	<circle cx="671.382" cy="380.369" r="4" fill="#0" id="circle243"/>
	<circle cx="676.087" cy="114.894" r="4" fill="#0" id="circle244"/>
	<circle cx="678.103" cy="377.008" r="4" fill="#0" id="circle245"/>
	<circle cx="682.136" cy="111.534" r="4" fill="#0" id="circle246"/>
	<circle cx="683.48" cy="370.959" r="4" fill="#0" id="circle247"/>
	<circle cx="686.84" cy="176.054" r="4" fill="#0" id="circle248"/>
	<circle cx="688.856" cy="111.534" r="4" fill="#0" id="circle249"/>
	<circle cx="688.856" cy="366.255" r="4" fill="#0" id="circle250"/>
	<circle cx="692.217" cy="171.35" r="4" fill="#0" id="circle251"/>
	<circle cx="695.577" cy="111.534" r="4" fill="#0" id="circle252"/>
	<circle cx="695.577" cy="362.894" r="4" fill="#0" id="circle253"/>
	<circle cx="696.921" cy="165.973" r="4" fill="#0" id="circle254"/>
	<circle cx="697.593" cy="175.382" r="4" fill="#0" id="circle255"/>
	<circle cx="701.626" cy="108.173" r="4" fill="#0" id="circle256"/>
	<circle cx="702.298" cy="161.268" r="4" fill="#0" id="circle257"/>
	<circle cx="702.298" cy="359.534" r="4" fill="#0" id="circle258"/>
	<circle cx="703.642" cy="172.022" r="4" fill="#0" id="circle259"/>
	<circle cx="707.003" cy="155.892" r="4" fill="#0" id="circle260"/>
	<circle cx="707.003" cy="354.157" r="4" fill="#0" id="circle261"/>
	<circle cx="708.347" cy="108.173" r="4" fill="#0" id="circle262"/>
	<circle cx="709.691" cy="168.661" r="4" fill="#0" id="circle263"/>
	<circle cx="712.379" cy="151.187" r="4" fill="#0" id="circle264"/>
	<circle cx="712.379" cy="349.453" r="4" fill="#0" id="circle265"/>
	<circle cx="715.068" cy="108.173" r="4" fill="#0" id="circle266"/>
	<circle cx="715.74" cy="165.301" r="4" fill="#0" id="circle267"/>
	<circle cx="719.1" cy="147.827" r="4" fill="#0" id="circle268"/>
	<circle cx="719.1" cy="346.092" r="4" fill="#0" id="circle269"/>
	<circle cx="721.789" cy="104.813" r="4" fill="#0" id="circle270"/>
	<circle cx="721.789" cy="161.94" r="4" fill="#0" id="circle271"/>
	<circle cx="723.805" cy="142.45" r="4" fill="#0" id="circle272"/>
	<circle cx="725.821" cy="342.732" r="4" fill="#0" id="circle273"/>
	<circle cx="727.165" cy="135.729" r="4" fill="#0" id="circle274"/>
	<circle cx="727.837" cy="158.58" r="4" fill="#0" id="circle275"/>
	<circle cx="728.509" cy="104.813" r="4" fill="#0" id="circle276"/>
	<circle cx="730.526" cy="337.355" r="4" fill="#0" id="circle277"/>
	<circle cx="733.214" cy="110.19" r="4" fill="#0" id="circle278"/>
	<circle cx="733.214" cy="153.875" r="4" fill="#0" id="circle279"/>
	<circle cx="733.886" cy="129.008" r="4" fill="#0" id="circle280"/>
	<circle cx="733.886" cy="273.507" r="4" fill="#0" id="circle281"/>
	<circle cx="735.902" cy="332.65" r="4" fill="#0" id="circle282"/>
	<circle cx="736.575" cy="116.238" r="4" fill="#0" id="circle283"/>
	<circle cx="737.247" cy="122.959" r="4" fill="#0" id="circle284"/>
	<circle cx="737.247" cy="279.556" r="4" fill="#0" id="circle285"/>
	<circle cx="738.591" cy="148.499" r="4" fill="#0" id="circle286"/>
	<circle cx="740.607" cy="270.146" r="4" fill="#0" id="circle287"/>
	<circle cx="740.607" cy="327.274" r="4" fill="#0" id="circle288"/>
	<circle cx="743.295" cy="140.434" r="4" fill="#0" id="circle289"/>
	<circle cx="743.967" cy="276.195" r="4" fill="#0" id="circle290"/>
	<circle cx="747.328" cy="266.786" r="4" fill="#0" id="circle291"/>
	<circle cx="747.328" cy="323.913" r="4" fill="#0" id="circle292"/>
	<circle cx="748.672" cy="135.057" r="4" fill="#0" id="circle293"/>
	<circle cx="750.688" cy="272.835" r="4" fill="#0" id="circle294"/>
	<circle cx="752.705" cy="262.081" r="4" fill="#0" id="circle295"/>
	<circle cx="754.049" cy="129.68" r="4" fill="#0" id="circle296"/>
	<circle cx="754.049" cy="320.553" r="4" fill="#0" id="circle297"/>
	<circle cx="756.737" cy="269.474" r="4" fill="#0" id="circle298"/>
	<circle cx="757.409" cy="122.959" r="4" fill="#0" id="circle299"/>
	<circle cx="757.409" cy="256.705" r="4" fill="#0" id="circle300"/>
	<circle cx="760.77" cy="317.192" r="4" fill="#0" id="circle301"/>
	<circle cx="762.786" cy="252" r="4" fill="#0" id="circle302"/>
	<circle cx="762.786" cy="266.114" r="4" fill="#0" id="circle303"/>
	<circle cx="763.458" cy="116.911" r="4" fill="#0" id="circle304"/>
	<circle cx="766.146" cy="312.488" r="4" fill="#0" id="circle305"/>
	<circle cx="767.491" cy="246.623" r="4" fill="#0" id="circle306"/>
	<circle cx="768.835" cy="111.534" r="4" fill="#0" id="circle307"/>
	<circle cx="768.835" cy="262.753" r="4" fill="#0" id="circle308"/>
	<circle cx="770.851" cy="307.111" r="4" fill="#0" id="circle309"/>
	<circle cx="774.211" cy="106.157" r="4" fill="#0" id="circle310"/>
	<circle cx="774.211" cy="243.263" r="4" fill="#0" id="circle311"/>
	<circle cx="775.556" cy="259.393" r="4" fill="#0" id="circle312"/>
	<circle cx="776.228" cy="302.407" r="4" fill="#0" id="circle313"/>
	<circle cx="779.588" cy="101.453" r="4" fill="#0" id="circle314"/>
	<circle cx="780.26" cy="239.902" r="4" fill="#0" id="circle315"/>
	<circle cx="780.26" cy="297.03" r="4" fill="#0" id="circle316"/>
	<circle cx="782.276" cy="259.393" r="4" fill="#0" id="circle317"/>
	<circle cx="784.293" cy="96.0759" r="4" fill="#0" id="circle318"/>
	<circle cx="784.293" cy="290.309" r="4" fill="#0" id="circle319"/>
	<circle cx="786.309" cy="236.542" r="4" fill="#0" id="circle320"/>
	<circle cx="788.997" cy="259.393" r="4" fill="#0" id="circle321"/>
	<circle cx="789.669" cy="91.3713" r="4" fill="#0" id="circle322"/>
	<circle cx="789.669" cy="285.604" r="4" fill="#0" id="circle323"/>
	<circle cx="792.358" cy="84.6504" r="4" fill="#0" id="circle324"/>
	<circle cx="792.358" cy="233.182" r="4" fill="#0" id="circle325"/>
	<circle cx="794.374" cy="263.425" r="4" fill="#0" id="circle326"/>
	<circle cx="794.374" cy="276.867" r="4" fill="#0" id="circle327"/>
	<circle cx="797.734" cy="79.2737" r="4" fill="#0" id="circle328"/>
	<circle cx="797.734" cy="269.474" r="4" fill="#0" id="circle329"/>
	<circle cx="798.407" cy="229.821" r="4" fill="#0" id="circle330"/>
	<circle cx="803.111" cy="74.5691" r="4" fill="#0" id="circle331"/>
	<circle cx="804.455" cy="226.461" r="4" fill="#0" id="circle332"/>
	<circle cx="807.816" cy="69.1924" r="4" fill="#0" id="circle333"/>
	<circle cx="811.176" cy="223.1" r="4" fill="#0" id="circle334"/>
	<circle cx="814.537" cy="65.832" r="4" fill="#0" id="circle335"/>
	<circle cx="817.897" cy="223.1" r="4" fill="#0" id="circle336"/>
	<circle cx="819.913" cy="61.1274" r="4" fill="#0" id="circle337"/>
	<circle cx="823.946" cy="219.74" r="4" fill="#0" id="circle338"/>
	<circle cx="824.618" cy="55.7507" r="4" fill="#0" id="circle339"/>
	<circle cx="829.995" cy="51.0461" r="4" fill="#0" id="circle340"/>
	<circle cx="830.667" cy="219.74" r="4" fill="#0" id="circle341"/>
	<circle cx="836.043" cy="47.6856" r="4" fill="#0" id="circle342"/>
	<circle cx="836.043" cy="215.707" r="4" fill="#0" id="circle343"/>
	<circle cx="841.42" cy="42.3089" r="4" fill="#0" id="circle344"/>
	<circle cx="842.764" cy="213.019" r="4" fill="#0" id="circle345"/>
	<circle cx="846.797" cy="37.6043" r="4" fill="#0" id="circle346"/>
	<circle cx="848.813" cy="209.659" r="4" fill="#0" id="circle347"/>
	<circle cx="852.846" cy="34.2439" r="4" fill="#0" id="circle348"/>
	<circle cx="855.534" cy="209.659" r="4" fill="#0" id="circle349"/>
	<circle cx="859.566" cy="30.8835" r="4" fill="#0" id="circle350"/>
	<circle cx="861.583" cy="206.298" r="4" fill="#0" id="circle351"/>
	<circle cx="866.287" cy="27.523" r="4" fill="#0" id="circle352"/>
	<circle cx="867.631" cy="202.938" r="4" fill="#0" id="circle353"/>
	<circle cx="872.336" cy="24.1626" r="4" fill="#0" id="circle354"/>
	<circle cx="873.68" cy="199.577" r="4" fill="#0" id="circle355"/>
	<circle cx="878.385" cy="20.8022" r="4" fill="#0" id="circle356"/>
	<circle cx="880.401" cy="198.233" r="4" fill="#0" id="circle357"/>
	<circle cx="884.434" cy="17.4417" r="4" fill="#0" id="circle358"/>
	<circle cx="887.122" cy="194.873" r="4" fill="#0" id="circle359"/>
	<circle cx="890.482" cy="14.0813" r="4" fill="#0" id="circle360"/>
	<circle cx="893.843" cy="191.512" r="4" fill="#0" id="circle361"/>
	<circle cx="896.531" cy="10.7209" r="4" fill="#0" id="circle362"/>
	<circle cx="900.564" cy="188.152" r="4" fill="#0" id="circle363"/>
	<circle cx="902.58" cy="7.36043" r="4" fill="#0" id="circle364"/>
	<circle cx="905.268" cy="182.775" r="4" fill="#0" id="circle365"/>
	<circle cx="909.301" cy="4.67209" r="4" fill="#0" id="circle366"/>
	<circle cx="911.989" cy="179.415" r="4" fill="#0" id="circle367"/>
	<circle cx="916.022" cy="4" r="4" fill="#0" id="circle368"/>
	<circle cx="918.038" cy="176.054" r="4" fill="#0" id="circle369"/>
	<circle cx="922.743" cy="4" r="4" fill="#0" id="circle370"/>
	<circle cx="924.087" cy="172.694" r="4" fill="#0" id="circle371"/>
	<circle cx="929.463" cy="4" r="4" fill="#0" id="circle372"/>
	<circle cx="930.136" cy="169.333" r="4" fill="#0" id="circle373"/>
	<circle cx="936.184" cy="4" r="4" fill="#0" id="circle374"/>
	<circle cx="936.184" cy="165.973" r="4" fill="#0" id="circle375"/>
	<circle cx="942.233" cy="162.612" r="4" fill="#0" id="circle376"/>
	<circle cx="942.905" cy="4" r="4" fill="#0" id="circle377"/>
	<circle cx="947.61" cy="157.908" r="4" fill="#0" id="circle378"/>
	<circle cx="948.282" cy="8.70461" r="4" fill="#0" id="circle379"/>
	<circle cx="952.314" cy="152.531" r="4" fill="#0" id="circle380"/>
	<circle cx="954.331" cy="12.065" r="4" fill="#0" id="circle381"/>
	<circle cx="957.691" cy="147.827" r="4" fill="#0" id="circle382"/>
	<circle cx="959.035" cy="17.4417" r="4" fill="#0" id="circle383"/>
	<circle cx="962.396" cy="142.45" r="4" fill="#0" id="circle384"/>
	<circle cx="964.412" cy="21.4743" r="4" fill="#0" id="circle385"/>
	<circle cx="968.444" cy="139.089" r="4" fill="#0" id="circle386"/>
	<circle cx="969.117" cy="26.8509" r="4" fill="#0" id="circle387"/>
	<circle cx="969.117" cy="33.5718" r="4" fill="#0" id="circle388"/>
	<circle cx="972.477" cy="39.6206" r="4" fill="#0" id="circle389"/>
	<circle cx="973.821" cy="135.057" r="4" fill="#0" id="circle390"/>
	<circle cx="978.526" cy="42.981" r="4" fill="#0" id="circle391"/>
	<circle cx="979.198" cy="125.648" r="4" fill="#0" id="circle392"/>
	<circle cx="981.886" cy="49.0298" r="4" fill="#0" id="circle393"/>
	<circle cx="984.575" cy="55.7507" r="4" fill="#0" id="circle394"/>
	<circle cx="984.575" cy="120.943" r="4" fill="#0" id="circle395"/>
	<circle cx="989.279" cy="61.1274" r="4" fill="#0" id="circle396"/>
	<circle cx="989.279" cy="67.8482" r="4" fill="#0" id="circle397"/>
	<circle cx="989.279" cy="74.5691" r="4" fill="#0" id="circle398"/>
	<circle cx="989.279" cy="108.846" r="4" fill="#0" id="circle399"/>
	<circle cx="989.279" cy="115.566" r="4" fill="#0" id="circle400"/>
	<circle cx="992.64" cy="80.6179" r="4" fill="#0" id="circle401"/>
	<circle cx="992.64" cy="102.125" r="4" fill="#0" id="circle402"/>
	<circle cx="996" cy="86.6667" r="4" fill="#0" id="circle403"/>
	<circle cx="996" cy="93.3875" r="4" fill="#0" id="circle404"/>
	</g>
</svg>