<?xml version="1.0" encoding="UTF-8" standalone="no"?>
<!-- Created with CurveBenchmark -->
<svg
	xmlns:dc="http://purl.org/dc/elements/1.1/"
	xmlns:cc="http://creativecommons.org/ns#"
	xmlns:rdf="http://www.w3.org/1999/02/22-rdf-syntax-ns#"
	xmlns:svg="http://www.w3.org/2000/svg"
	xmlns="http://www.w3.org/2000/svg"
	xmlns:sodipodi="http://sodipodi.sourceforge.net/DTD/sodipodi-0.dtd"
	xmlns:inkscape="http://www.inkscape.org/namespaces/inkscape"
	width="1000"
	height="1000"
	id="svg2"
	version="1.1"
	sodipodi:docname="manifold/vicur-swamprabbitocc1.png.txt">
<defs
	id="defs4" />
<metadata
	id="metadata7">
	<rdf:RDF>
		<cc:Work
			rdf:about="">
			<dc:format>image/svg+xml</dc:format>
			<dc:type
				rdf:resource="http://purl.org/dc/dcmitype/StillImage" />
			<dc:title></dc:title>
		</cc:Work>
	</rdf:RDF>
</metadata>
<g
	inkscape:label="Layer 1"
	inkscape:groupmode="layer"
	id="layer1">
	<path style="fill:none;stroke:red;stroke-width:1px;stroke-linecap:butt;stroke-linejoin:miter;stroke-opacity:1" d="M 4,360.79 4,381.414 z" id="boundary" inkscape:connector-curvature="0" />
	<path style="fill:none;stroke:red;stroke-width:1px;stroke-linecap:butt;stroke-linejoin:miter;stroke-opacity:1" d="M 4,360.79 14.3119,340.166 z" id="boundary" inkscape:connector-curvature="0" />
	<path style="fill:none;stroke:red;stroke-width:1px;stroke-linecap:butt;stroke-linejoin:miter;stroke-opacity:1" d="M 4,381.414 4,402.037 z" id="boundary" inkscape:connector-curvature="0" />
	<path style="fill:none;stroke:red;stroke-width:1px;stroke-linecap:butt;stroke-linejoin:miter;stroke-opacity:1" d="M 4,402.037 20.499,416.474 z" id="boundary" inkscape:connector-curvature="0" />
	<path style="fill:none;stroke:red;stroke-width:1px;stroke-linecap:butt;stroke-linejoin:miter;stroke-opacity:1" d="M 14.3119,319.543 14.3119,340.166 z" id="boundary" inkscape:connector-curvature="0" />
	<path style="fill:none;stroke:red;stroke-width:1px;stroke-linecap:butt;stroke-linejoin:miter;stroke-opacity:1" d="M 14.3119,319.543 24.6237,298.919 z" id="boundary" inkscape:connector-curvature="0" />
	<path style="fill:none;stroke:red;stroke-width:1px;stroke-linecap:butt;stroke-linejoin:miter;stroke-opacity:1" d="M 20.499,416.474 36.9979,428.848 z" id="boundary" inkscape:connector-curvature="0" />
	<path style="fill:none;stroke:red;stroke-width:1px;stroke-linecap:butt;stroke-linejoin:miter;stroke-opacity:1" d="M 24.6237,298.919 41.1227,282.42 z" id="boundary" inkscape:connector-curvature="0" />
	<path style="fill:none;stroke:red;stroke-width:1px;stroke-linecap:butt;stroke-linejoin:miter;stroke-opacity:1" d="M 36.9979,428.848 55.5593,439.16 z" id="boundary" inkscape:connector-curvature="0" />
	<path style="fill:none;stroke:red;stroke-width:1px;stroke-linecap:butt;stroke-linejoin:miter;stroke-opacity:1" d="M 41.1227,282.42 51.4345,261.796 z" id="boundary" inkscape:connector-curvature="0" />
	<path style="fill:none;stroke:red;stroke-width:1px;stroke-linecap:butt;stroke-linejoin:miter;stroke-opacity:1" d="M 51.4345,261.796 61.7464,241.173 z" id="boundary" inkscape:connector-curvature="0" />
	<path style="fill:none;stroke:red;stroke-width:1px;stroke-linecap:butt;stroke-linejoin:miter;stroke-opacity:1" d="M 55.5593,439.16 74.1206,449.472 z" id="boundary" inkscape:connector-curvature="0" />
	<path style="fill:none;stroke:red;stroke-width:1px;stroke-linecap:butt;stroke-linejoin:miter;stroke-opacity:1" d="M 61.7464,241.173 82.3701,230.861 z" id="boundary" inkscape:connector-curvature="0" />
	<path style="fill:none;stroke:red;stroke-width:1px;stroke-linecap:butt;stroke-linejoin:miter;stroke-opacity:1" d="M 74.1206,449.472 92.6819,459.784 z" id="boundary" inkscape:connector-curvature="0" />
	<path style="fill:none;stroke:red;stroke-width:1px;stroke-linecap:butt;stroke-linejoin:miter;stroke-opacity:1" d="M 82.3701,230.861 102.994,230.861 z" id="boundary" inkscape:connector-curvature="0" />
	<path style="fill:none;stroke:red;stroke-width:1px;stroke-linecap:butt;stroke-linejoin:miter;stroke-opacity:1" d="M 92.6819,459.784 113.306,459.784 z" id="boundary" inkscape:connector-curvature="0" />
	<path style="fill:none;stroke:red;stroke-width:1px;stroke-linecap:butt;stroke-linejoin:miter;stroke-opacity:1" d="M 102.994,230.861 113.306,210.237 z" id="boundary" inkscape:connector-curvature="0" />
	<path style="fill:none;stroke:red;stroke-width:1px;stroke-linecap:butt;stroke-linejoin:miter;stroke-opacity:1" d="M 113.306,210.237 133.929,199.925 z" id="boundary" inkscape:connector-curvature="0" />
	<path style="fill:none;stroke:red;stroke-width:1px;stroke-linecap:butt;stroke-linejoin:miter;stroke-opacity:1" d="M 113.306,459.784 144.241,480.407 z" id="boundary" inkscape:connector-curvature="0" />
	<path style="fill:none;stroke:red;stroke-width:1px;stroke-linecap:butt;stroke-linejoin:miter;stroke-opacity:1" d="M 133.929,199.925 152.491,189.613 z" id="boundary" inkscape:connector-curvature="0" />
	<path style="fill:none;stroke:red;stroke-width:1px;stroke-linecap:butt;stroke-linejoin:miter;stroke-opacity:1" d="M 144.241,480.407 160.74,494.844 z" id="boundary" inkscape:connector-curvature="0" />
	<path style="fill:none;stroke:red;stroke-width:1px;stroke-linecap:butt;stroke-linejoin:miter;stroke-opacity:1" d="M 152.491,189.613 171.052,179.301 z" id="boundary" inkscape:connector-curvature="0" />
	<path style="fill:none;stroke:red;stroke-width:1px;stroke-linecap:butt;stroke-linejoin:miter;stroke-opacity:1" d="M 160.74,494.844 175.177,511.343 z" id="boundary" inkscape:connector-curvature="0" />
	<path style="fill:none;stroke:red;stroke-width:1px;stroke-linecap:butt;stroke-linejoin:miter;stroke-opacity:1" d="M 168.99,82.3701 168.99,102.994 z" id="boundary" inkscape:connector-curvature="0" />
	<path style="fill:none;stroke:red;stroke-width:1px;stroke-linecap:butt;stroke-linejoin:miter;stroke-opacity:1" d="M 168.99,82.3701 179.301,61.7464 z" id="boundary" inkscape:connector-curvature="0" />
	<path style="fill:none;stroke:red;stroke-width:1px;stroke-linecap:butt;stroke-linejoin:miter;stroke-opacity:1" d="M 168.99,102.994 168.99,123.617 z" id="boundary" inkscape:connector-curvature="0" />
	<path style="fill:none;stroke:red;stroke-width:1px;stroke-linecap:butt;stroke-linejoin:miter;stroke-opacity:1" d="M 168.99,123.617 168.99,144.241 z" id="boundary" inkscape:connector-curvature="0" />
	<path style="fill:none;stroke:red;stroke-width:1px;stroke-linecap:butt;stroke-linejoin:miter;stroke-opacity:1" d="M 168.99,144.241 171.052,179.301 z" id="boundary" inkscape:connector-curvature="0" />
	<path style="fill:none;stroke:red;stroke-width:1px;stroke-linecap:butt;stroke-linejoin:miter;stroke-opacity:1" d="M 175.177,511.343 191.676,525.78 z" id="boundary" inkscape:connector-curvature="0" />
	<path style="fill:none;stroke:red;stroke-width:1px;stroke-linecap:butt;stroke-linejoin:miter;stroke-opacity:1" d="M 179.301,41.1227 179.301,61.7464 z" id="boundary" inkscape:connector-curvature="0" />
	<path style="fill:none;stroke:red;stroke-width:1px;stroke-linecap:butt;stroke-linejoin:miter;stroke-opacity:1" d="M 179.301,41.1227 195.8,24.6237 z" id="boundary" inkscape:connector-curvature="0" />
	<path style="fill:none;stroke:red;stroke-width:1px;stroke-linecap:butt;stroke-linejoin:miter;stroke-opacity:1" d="M 179.301,670.146 195.8,653.647 z" id="boundary" inkscape:connector-curvature="0" />
	<path style="fill:none;stroke:red;stroke-width:1px;stroke-linecap:butt;stroke-linejoin:miter;stroke-opacity:1" d="M 179.301,670.146 199.925,676.333 z" id="boundary" inkscape:connector-curvature="0" />
	<path style="fill:none;stroke:red;stroke-width:1px;stroke-linecap:butt;stroke-linejoin:miter;stroke-opacity:1" d="M 191.676,525.78 206.112,542.279 z" id="boundary" inkscape:connector-curvature="0" />
	<path style="fill:none;stroke:red;stroke-width:1px;stroke-linecap:butt;stroke-linejoin:miter;stroke-opacity:1" d="M 195.8,24.6237 214.362,14.3119 z" id="boundary" inkscape:connector-curvature="0" />
	<path style="fill:none;stroke:red;stroke-width:1px;stroke-linecap:butt;stroke-linejoin:miter;stroke-opacity:1" d="M 195.8,653.647 216.424,653.647 z" id="boundary" inkscape:connector-curvature="0" />
	<path style="fill:none;stroke:red;stroke-width:1px;stroke-linecap:butt;stroke-linejoin:miter;stroke-opacity:1" d="M 199.925,676.333 218.486,686.644 z" id="boundary" inkscape:connector-curvature="0" />
	<path style="fill:none;stroke:red;stroke-width:1px;stroke-linecap:butt;stroke-linejoin:miter;stroke-opacity:1" d="M 206.112,542.279 226.736,550.528 z" id="boundary" inkscape:connector-curvature="0" />
	<path style="fill:none;stroke:red;stroke-width:1px;stroke-linecap:butt;stroke-linejoin:miter;stroke-opacity:1" d="M 214.362,14.3119 232.923,4 z" id="boundary" inkscape:connector-curvature="0" />
	<path style="fill:none;stroke:red;stroke-width:1px;stroke-linecap:butt;stroke-linejoin:miter;stroke-opacity:1" d="M 216.424,653.647 234.985,643.335 z" id="boundary" inkscape:connector-curvature="0" />
	<path style="fill:none;stroke:red;stroke-width:1px;stroke-linecap:butt;stroke-linejoin:miter;stroke-opacity:1" d="M 218.486,686.644 239.11,686.644 z" id="boundary" inkscape:connector-curvature="0" />
	<path style="fill:none;stroke:red;stroke-width:1px;stroke-linecap:butt;stroke-linejoin:miter;stroke-opacity:1" d="M 226.736,550.528 241.173,567.027 z" id="boundary" inkscape:connector-curvature="0" />
	<path style="fill:none;stroke:red;stroke-width:1px;stroke-linecap:butt;stroke-linejoin:miter;stroke-opacity:1" d="M 232.923,4 253.547,4 z" id="boundary" inkscape:connector-curvature="0" />
	<path style="fill:none;stroke:red;stroke-width:1px;stroke-linecap:butt;stroke-linejoin:miter;stroke-opacity:1" d="M 234.985,643.335 255.609,643.335 z" id="boundary" inkscape:connector-curvature="0" />
	<path style="fill:none;stroke:red;stroke-width:1px;stroke-linecap:butt;stroke-linejoin:miter;stroke-opacity:1" d="M 239.11,686.644 259.734,686.644 z" id="boundary" inkscape:connector-curvature="0" />
	<path style="fill:none;stroke:red;stroke-width:1px;stroke-linecap:butt;stroke-linejoin:miter;stroke-opacity:1" d="M 241.173,567.027 251.484,585.588 z" id="boundary" inkscape:connector-curvature="0" />
	<path style="fill:none;stroke:red;stroke-width:1px;stroke-linecap:butt;stroke-linejoin:miter;stroke-opacity:1" d="M 251.484,585.588 251.484,606.212 z" id="boundary" inkscape:connector-curvature="0" />
	<path style="fill:none;stroke:red;stroke-width:1px;stroke-linecap:butt;stroke-linejoin:miter;stroke-opacity:1" d="M 251.484,606.212 255.609,643.335 z" id="boundary" inkscape:connector-curvature="0" />
	<path style="fill:none;stroke:red;stroke-width:1px;stroke-linecap:butt;stroke-linejoin:miter;stroke-opacity:1" d="M 253.547,4 274.17,4 z" id="boundary" inkscape:connector-curvature="0" />
	<path style="fill:none;stroke:red;stroke-width:1px;stroke-linecap:butt;stroke-linejoin:miter;stroke-opacity:1" d="M 259.734,686.644 280.358,682.52 z" id="boundary" inkscape:connector-curvature="0" />
	<path style="fill:none;stroke:red;stroke-width:1px;stroke-linecap:butt;stroke-linejoin:miter;stroke-opacity:1" d="M 274.17,4 294.794,4 z" id="boundary" inkscape:connector-curvature="0" />
	<path style="fill:none;stroke:red;stroke-width:1px;stroke-linecap:butt;stroke-linejoin:miter;stroke-opacity:1" d="M 280.358,682.52 294.794,666.021 z" id="boundary" inkscape:connector-curvature="0" />
	<path style="fill:none;stroke:red;stroke-width:1px;stroke-linecap:butt;stroke-linejoin:miter;stroke-opacity:1" d="M 294.794,4 315.418,10.1871 z" id="boundary" inkscape:connector-curvature="0" />
	<path style="fill:none;stroke:red;stroke-width:1px;stroke-linecap:butt;stroke-linejoin:miter;stroke-opacity:1" d="M 294.794,666.021 313.356,676.333 z" id="boundary" inkscape:connector-curvature="0" />
	<path style="fill:none;stroke:red;stroke-width:1px;stroke-linecap:butt;stroke-linejoin:miter;stroke-opacity:1" d="M 313.356,676.333 333.979,676.333 z" id="boundary" inkscape:connector-curvature="0" />
	<path style="fill:none;stroke:red;stroke-width:1px;stroke-linecap:butt;stroke-linejoin:miter;stroke-opacity:1" d="M 315.418,10.1871 325.73,28.7484 z" id="boundary" inkscape:connector-curvature="0" />
	<path style="fill:none;stroke:red;stroke-width:1px;stroke-linecap:butt;stroke-linejoin:miter;stroke-opacity:1" d="M 315.418,160.74 315.418,181.364 z" id="boundary" inkscape:connector-curvature="0" />
	<path style="fill:none;stroke:red;stroke-width:1px;stroke-linecap:butt;stroke-linejoin:miter;stroke-opacity:1" d="M 315.418,160.74 325.73,129.805 z" id="boundary" inkscape:connector-curvature="0" />
	<path style="fill:none;stroke:red;stroke-width:1px;stroke-linecap:butt;stroke-linejoin:miter;stroke-opacity:1" d="M 315.418,181.364 336.042,189.613 z" id="boundary" inkscape:connector-curvature="0" />
	<path style="fill:none;stroke:red;stroke-width:1px;stroke-linecap:butt;stroke-linejoin:miter;stroke-opacity:1" d="M 325.73,28.7484 325.73,49.3721 z" id="boundary" inkscape:connector-curvature="0" />
	<path style="fill:none;stroke:red;stroke-width:1px;stroke-linecap:butt;stroke-linejoin:miter;stroke-opacity:1" d="M 325.73,49.3721 325.73,69.9958 z" id="boundary" inkscape:connector-curvature="0" />
	<path style="fill:none;stroke:red;stroke-width:1px;stroke-linecap:butt;stroke-linejoin:miter;stroke-opacity:1" d="M 325.73,69.9958 338.104,86.4948 z" id="boundary" inkscape:connector-curvature="0" />
	<path style="fill:none;stroke:red;stroke-width:1px;stroke-linecap:butt;stroke-linejoin:miter;stroke-opacity:1" d="M 325.73,109.181 325.73,129.805 z" id="boundary" inkscape:connector-curvature="0" />
	<path style="fill:none;stroke:red;stroke-width:1px;stroke-linecap:butt;stroke-linejoin:miter;stroke-opacity:1" d="M 325.73,109.181 338.104,86.4948 z" id="boundary" inkscape:connector-curvature="0" />
	<path style="fill:none;stroke:red;stroke-width:1px;stroke-linecap:butt;stroke-linejoin:miter;stroke-opacity:1" d="M 333.979,676.333 352.541,686.644 z" id="boundary" inkscape:connector-curvature="0" />
	<path style="fill:none;stroke:red;stroke-width:1px;stroke-linecap:butt;stroke-linejoin:miter;stroke-opacity:1" d="M 336.042,189.613 356.665,189.613 z" id="boundary" inkscape:connector-curvature="0" />
	<path style="fill:none;stroke:red;stroke-width:1px;stroke-linecap:butt;stroke-linejoin:miter;stroke-opacity:1" d="M 352.541,686.644 373.164,686.644 z" id="boundary" inkscape:connector-curvature="0" />
	<path style="fill:none;stroke:red;stroke-width:1px;stroke-linecap:butt;stroke-linejoin:miter;stroke-opacity:1" d="M 356.665,189.613 375.227,199.925 z" id="boundary" inkscape:connector-curvature="0" />
	<path style="fill:none;stroke:red;stroke-width:1px;stroke-linecap:butt;stroke-linejoin:miter;stroke-opacity:1" d="M 373.164,686.644 391.726,676.333 z" id="boundary" inkscape:connector-curvature="0" />
	<path style="fill:none;stroke:red;stroke-width:1px;stroke-linecap:butt;stroke-linejoin:miter;stroke-opacity:1" d="M 375.227,199.925 393.788,189.613 z" id="boundary" inkscape:connector-curvature="0" />
	<path style="fill:none;stroke:red;stroke-width:1px;stroke-linecap:butt;stroke-linejoin:miter;stroke-opacity:1" d="M 391.726,676.333 412.349,676.333 z" id="boundary" inkscape:connector-curvature="0" />
	<path style="fill:none;stroke:red;stroke-width:1px;stroke-linecap:butt;stroke-linejoin:miter;stroke-opacity:1" d="M 393.788,189.613 414.412,189.613 z" id="boundary" inkscape:connector-curvature="0" />
	<path style="fill:none;stroke:red;stroke-width:1px;stroke-linecap:butt;stroke-linejoin:miter;stroke-opacity:1" d="M 414.412,189.613 432.973,179.301 z" id="boundary" inkscape:connector-curvature="0" />
	<path style="fill:none;stroke:red;stroke-width:1px;stroke-linecap:butt;stroke-linejoin:miter;stroke-opacity:1" d="M 430.911,666.021 449.472,676.333 z" id="boundary" inkscape:connector-curvature="0" />
	<path style="fill:none;stroke:red;stroke-width:1px;stroke-linecap:butt;stroke-linejoin:miter;stroke-opacity:1" d="M 430.911,666.021 470.096,676.333 z" id="boundary" inkscape:connector-curvature="0" />
	<path style="fill:none;stroke:red;stroke-width:1px;stroke-linecap:butt;stroke-linejoin:miter;stroke-opacity:1" d="M 432.973,179.301 453.597,168.99 z" id="boundary" inkscape:connector-curvature="0" />
	<path style="fill:none;stroke:red;stroke-width:1px;stroke-linecap:butt;stroke-linejoin:miter;stroke-opacity:1" d="M 447.41,144.241 453.597,168.99 z" id="boundary" inkscape:connector-curvature="0" />
	<path style="fill:none;stroke:red;stroke-width:1px;stroke-linecap:butt;stroke-linejoin:miter;stroke-opacity:1" d="M 447.41,144.241 468.033,133.929 z" id="boundary" inkscape:connector-curvature="0" />
	<path style="fill:none;stroke:red;stroke-width:1px;stroke-linecap:butt;stroke-linejoin:miter;stroke-opacity:1" d="M 447.41,711.393 447.41,732.017 z" id="boundary" inkscape:connector-curvature="0" />
	<path style="fill:none;stroke:red;stroke-width:1px;stroke-linecap:butt;stroke-linejoin:miter;stroke-opacity:1" d="M 447.41,711.393 449.472,676.333 z" id="boundary" inkscape:connector-curvature="0" />
	<path style="fill:none;stroke:red;stroke-width:1px;stroke-linecap:butt;stroke-linejoin:miter;stroke-opacity:1" d="M 447.41,732.017 468.033,738.204 z" id="boundary" inkscape:connector-curvature="0" />
	<path style="fill:none;stroke:red;stroke-width:1px;stroke-linecap:butt;stroke-linejoin:miter;stroke-opacity:1" d="M 468.033,133.929 488.657,123.617 z" id="boundary" inkscape:connector-curvature="0" />
	<path style="fill:none;stroke:red;stroke-width:1px;stroke-linecap:butt;stroke-linejoin:miter;stroke-opacity:1" d="M 468.033,705.206 486.595,694.894 z" id="boundary" inkscape:connector-curvature="0" />
	<path style="fill:none;stroke:red;stroke-width:1px;stroke-linecap:butt;stroke-linejoin:miter;stroke-opacity:1" d="M 468.033,738.204 486.595,748.516 z" id="boundary" inkscape:connector-curvature="0" />
	<path style="fill:none;stroke:red;stroke-width:1px;stroke-linecap:butt;stroke-linejoin:miter;stroke-opacity:1" d="M 470.096,676.333 486.595,694.894 z" id="boundary" inkscape:connector-curvature="0" />
	<path style="fill:none;stroke:red;stroke-width:1px;stroke-linecap:butt;stroke-linejoin:miter;stroke-opacity:1" d="M 486.595,748.516 505.156,758.827 z" id="boundary" inkscape:connector-curvature="0" />
	<path style="fill:none;stroke:red;stroke-width:1px;stroke-linecap:butt;stroke-linejoin:miter;stroke-opacity:1" d="M 488.657,123.617 505.156,107.119 z" id="boundary" inkscape:connector-curvature="0" />
	<path style="fill:none;stroke:red;stroke-width:1px;stroke-linecap:butt;stroke-linejoin:miter;stroke-opacity:1" d="M 505.156,107.119 525.78,96.8067 z" id="boundary" inkscape:connector-curvature="0" />
	<path style="fill:none;stroke:red;stroke-width:1px;stroke-linecap:butt;stroke-linejoin:miter;stroke-opacity:1" d="M 505.156,758.827 525.78,758.827 z" id="boundary" inkscape:connector-curvature="0" />
	<path style="fill:none;stroke:red;stroke-width:1px;stroke-linecap:butt;stroke-linejoin:miter;stroke-opacity:1" d="M 525.78,96.8067 546.403,96.8067 z" id="boundary" inkscape:connector-curvature="0" />
	<path style="fill:none;stroke:red;stroke-width:1px;stroke-linecap:butt;stroke-linejoin:miter;stroke-opacity:1" d="M 525.78,758.827 546.403,758.827 z" id="boundary" inkscape:connector-curvature="0" />
	<path style="fill:none;stroke:red;stroke-width:1px;stroke-linecap:butt;stroke-linejoin:miter;stroke-opacity:1" d="M 546.403,96.8067 567.027,96.8067 z" id="boundary" inkscape:connector-curvature="0" />
	<path style="fill:none;stroke:red;stroke-width:1px;stroke-linecap:butt;stroke-linejoin:miter;stroke-opacity:1" d="M 546.403,758.827 567.027,758.827 z" id="boundary" inkscape:connector-curvature="0" />
	<path style="fill:none;stroke:red;stroke-width:1px;stroke-linecap:butt;stroke-linejoin:miter;stroke-opacity:1" d="M 567.027,96.8067 587.651,96.8067 z" id="boundary" inkscape:connector-curvature="0" />
	<path style="fill:none;stroke:red;stroke-width:1px;stroke-linecap:butt;stroke-linejoin:miter;stroke-opacity:1" d="M 567.027,758.827 587.651,758.827 z" id="boundary" inkscape:connector-curvature="0" />
	<path style="fill:none;stroke:red;stroke-width:1px;stroke-linecap:butt;stroke-linejoin:miter;stroke-opacity:1" d="M 587.651,96.8067 608.274,86.4948 z" id="boundary" inkscape:connector-curvature="0" />
	<path style="fill:none;stroke:red;stroke-width:1px;stroke-linecap:butt;stroke-linejoin:miter;stroke-opacity:1" d="M 587.651,758.827 608.274,758.827 z" id="boundary" inkscape:connector-curvature="0" />
	<path style="fill:none;stroke:red;stroke-width:1px;stroke-linecap:butt;stroke-linejoin:miter;stroke-opacity:1" d="M 608.274,86.4948 628.898,86.4948 z" id="boundary" inkscape:connector-curvature="0" />
	<path style="fill:none;stroke:red;stroke-width:1px;stroke-linecap:butt;stroke-linejoin:miter;stroke-opacity:1" d="M 608.274,758.827 628.898,758.827 z" id="boundary" inkscape:connector-curvature="0" />
	<path style="fill:none;stroke:red;stroke-width:1px;stroke-linecap:butt;stroke-linejoin:miter;stroke-opacity:1" d="M 628.898,86.4948 649.522,86.4948 z" id="boundary" inkscape:connector-curvature="0" />
	<path style="fill:none;stroke:red;stroke-width:1px;stroke-linecap:butt;stroke-linejoin:miter;stroke-opacity:1" d="M 628.898,758.827 649.522,758.827 z" id="boundary" inkscape:connector-curvature="0" />
	<path style="fill:none;stroke:red;stroke-width:1px;stroke-linecap:butt;stroke-linejoin:miter;stroke-opacity:1" d="M 649.522,86.4948 670.146,86.4948 z" id="boundary" inkscape:connector-curvature="0" />
	<path style="fill:none;stroke:red;stroke-width:1px;stroke-linecap:butt;stroke-linejoin:miter;stroke-opacity:1" d="M 649.522,758.827 670.146,758.827 z" id="boundary" inkscape:connector-curvature="0" />
	<path style="fill:none;stroke:red;stroke-width:1px;stroke-linecap:butt;stroke-linejoin:miter;stroke-opacity:1" d="M 670.146,86.4948 690.769,86.4948 z" id="boundary" inkscape:connector-curvature="0" />
	<path style="fill:none;stroke:red;stroke-width:1px;stroke-linecap:butt;stroke-linejoin:miter;stroke-opacity:1" d="M 670.146,758.827 690.769,758.827 z" id="boundary" inkscape:connector-curvature="0" />
	<path style="fill:none;stroke:red;stroke-width:1px;stroke-linecap:butt;stroke-linejoin:miter;stroke-opacity:1" d="M 690.769,86.4948 711.393,86.4948 z" id="boundary" inkscape:connector-curvature="0" />
	<path style="fill:none;stroke:red;stroke-width:1px;stroke-linecap:butt;stroke-linejoin:miter;stroke-opacity:1" d="M 690.769,758.827 711.393,756.765 z" id="boundary" inkscape:connector-curvature="0" />
	<path style="fill:none;stroke:red;stroke-width:1px;stroke-linecap:butt;stroke-linejoin:miter;stroke-opacity:1" d="M 711.393,86.4948 732.017,86.4948 z" id="boundary" inkscape:connector-curvature="0" />
	<path style="fill:none;stroke:red;stroke-width:1px;stroke-linecap:butt;stroke-linejoin:miter;stroke-opacity:1" d="M 711.393,756.765 732.017,748.516 z" id="boundary" inkscape:connector-curvature="0" />
	<path style="fill:none;stroke:red;stroke-width:1px;stroke-linecap:butt;stroke-linejoin:miter;stroke-opacity:1" d="M 732.017,86.4948 752.64,86.4948 z" id="boundary" inkscape:connector-curvature="0" />
	<path style="fill:none;stroke:red;stroke-width:1px;stroke-linecap:butt;stroke-linejoin:miter;stroke-opacity:1" d="M 732.017,748.516 752.64,748.516 z" id="boundary" inkscape:connector-curvature="0" />
	<path style="fill:none;stroke:red;stroke-width:1px;stroke-linecap:butt;stroke-linejoin:miter;stroke-opacity:1" d="M 752.64,86.4948 771.202,76.183 z" id="boundary" inkscape:connector-curvature="0" />
	<path style="fill:none;stroke:red;stroke-width:1px;stroke-linecap:butt;stroke-linejoin:miter;stroke-opacity:1" d="M 752.64,748.516 773.264,748.516 z" id="boundary" inkscape:connector-curvature="0" />
	<path style="fill:none;stroke:red;stroke-width:1px;stroke-linecap:butt;stroke-linejoin:miter;stroke-opacity:1" d="M 771.202,76.183 791.825,76.183 z" id="boundary" inkscape:connector-curvature="0" />
	<path style="fill:none;stroke:red;stroke-width:1px;stroke-linecap:butt;stroke-linejoin:miter;stroke-opacity:1" d="M 773.264,748.516 793.888,746.453 z" id="boundary" inkscape:connector-curvature="0" />
	<path style="fill:none;stroke:red;stroke-width:1px;stroke-linecap:butt;stroke-linejoin:miter;stroke-opacity:1" d="M 791.825,76.183 812.449,76.183 z" id="boundary" inkscape:connector-curvature="0" />
	<path style="fill:none;stroke:red;stroke-width:1px;stroke-linecap:butt;stroke-linejoin:miter;stroke-opacity:1" d="M 793.888,746.453 814.511,746.453 z" id="boundary" inkscape:connector-curvature="0" />
	<path style="fill:none;stroke:red;stroke-width:1px;stroke-linecap:butt;stroke-linejoin:miter;stroke-opacity:1" d="M 812.449,76.183 833.073,76.183 z" id="boundary" inkscape:connector-curvature="0" />
	<path style="fill:none;stroke:red;stroke-width:1px;stroke-linecap:butt;stroke-linejoin:miter;stroke-opacity:1" d="M 814.511,746.453 835.135,748.516 z" id="boundary" inkscape:connector-curvature="0" />
	<path style="fill:none;stroke:red;stroke-width:1px;stroke-linecap:butt;stroke-linejoin:miter;stroke-opacity:1" d="M 833.073,76.183 849.572,90.6195 z" id="boundary" inkscape:connector-curvature="0" />
	<path style="fill:none;stroke:red;stroke-width:1px;stroke-linecap:butt;stroke-linejoin:miter;stroke-opacity:1" d="M 835.135,748.516 855.759,748.516 z" id="boundary" inkscape:connector-curvature="0" />
	<path style="fill:none;stroke:red;stroke-width:1px;stroke-linecap:butt;stroke-linejoin:miter;stroke-opacity:1" d="M 849.572,90.6195 857.821,111.243 z" id="boundary" inkscape:connector-curvature="0" />
	<path style="fill:none;stroke:red;stroke-width:1px;stroke-linecap:butt;stroke-linejoin:miter;stroke-opacity:1" d="M 855.759,748.516 874.32,738.204 z" id="boundary" inkscape:connector-curvature="0" />
	<path style="fill:none;stroke:red;stroke-width:1px;stroke-linecap:butt;stroke-linejoin:miter;stroke-opacity:1" d="M 857.821,111.243 872.258,127.742 z" id="boundary" inkscape:connector-curvature="0" />
	<path style="fill:none;stroke:red;stroke-width:1px;stroke-linecap:butt;stroke-linejoin:miter;stroke-opacity:1" d="M 872.258,127.742 888.757,140.116 z" id="boundary" inkscape:connector-curvature="0" />
	<path style="fill:none;stroke:red;stroke-width:1px;stroke-linecap:butt;stroke-linejoin:miter;stroke-opacity:1" d="M 874.32,738.204 892.881,727.892 z" id="boundary" inkscape:connector-curvature="0" />
	<path style="fill:none;stroke:red;stroke-width:1px;stroke-linecap:butt;stroke-linejoin:miter;stroke-opacity:1" d="M 888.757,140.116 897.006,160.74 z" id="boundary" inkscape:connector-curvature="0" />
	<path style="fill:none;stroke:red;stroke-width:1px;stroke-linecap:butt;stroke-linejoin:miter;stroke-opacity:1" d="M 892.881,727.892 903.193,707.268 z" id="boundary" inkscape:connector-curvature="0" />
	<path style="fill:none;stroke:red;stroke-width:1px;stroke-linecap:butt;stroke-linejoin:miter;stroke-opacity:1" d="M 897.006,160.74 913.505,175.177 z" id="boundary" inkscape:connector-curvature="0" />
	<path style="fill:none;stroke:red;stroke-width:1px;stroke-linecap:butt;stroke-linejoin:miter;stroke-opacity:1" d="M 903.193,707.268 919.692,692.832 z" id="boundary" inkscape:connector-curvature="0" />
	<path style="fill:none;stroke:red;stroke-width:1px;stroke-linecap:butt;stroke-linejoin:miter;stroke-opacity:1" d="M 913.505,175.177 927.942,191.676 z" id="boundary" inkscape:connector-curvature="0" />
	<path style="fill:none;stroke:red;stroke-width:1px;stroke-linecap:butt;stroke-linejoin:miter;stroke-opacity:1" d="M 913.505,614.462 913.505,635.085 z" id="boundary" inkscape:connector-curvature="0" />
	<path style="fill:none;stroke:red;stroke-width:1px;stroke-linecap:butt;stroke-linejoin:miter;stroke-opacity:1" d="M 913.505,614.462 923.817,593.838 z" id="boundary" inkscape:connector-curvature="0" />
	<path style="fill:none;stroke:red;stroke-width:1px;stroke-linecap:butt;stroke-linejoin:miter;stroke-opacity:1" d="M 913.505,635.085 913.505,655.709 z" id="boundary" inkscape:connector-curvature="0" />
	<path style="fill:none;stroke:red;stroke-width:1px;stroke-linecap:butt;stroke-linejoin:miter;stroke-opacity:1" d="M 913.505,655.709 919.692,692.832 z" id="boundary" inkscape:connector-curvature="0" />
	<path style="fill:none;stroke:red;stroke-width:1px;stroke-linecap:butt;stroke-linejoin:miter;stroke-opacity:1" d="M 923.817,552.59 923.817,573.214 z" id="boundary" inkscape:connector-curvature="0" />
	<path style="fill:none;stroke:red;stroke-width:1px;stroke-linecap:butt;stroke-linejoin:miter;stroke-opacity:1" d="M 923.817,552.59 960.94,552.59 z" id="boundary" inkscape:connector-curvature="0" />
	<path style="fill:none;stroke:red;stroke-width:1px;stroke-linecap:butt;stroke-linejoin:miter;stroke-opacity:1" d="M 923.817,573.214 923.817,593.838 z" id="boundary" inkscape:connector-curvature="0" />
	<path style="fill:none;stroke:red;stroke-width:1px;stroke-linecap:butt;stroke-linejoin:miter;stroke-opacity:1" d="M 927.942,191.676 938.254,210.237 z" id="boundary" inkscape:connector-curvature="0" />
	<path style="fill:none;stroke:red;stroke-width:1px;stroke-linecap:butt;stroke-linejoin:miter;stroke-opacity:1" d="M 938.254,210.237 952.69,226.736 z" id="boundary" inkscape:connector-curvature="0" />
	<path style="fill:none;stroke:red;stroke-width:1px;stroke-linecap:butt;stroke-linejoin:miter;stroke-opacity:1" d="M 952.69,226.736 969.189,241.173 z" id="boundary" inkscape:connector-curvature="0" />
	<path style="fill:none;stroke:red;stroke-width:1px;stroke-linecap:butt;stroke-linejoin:miter;stroke-opacity:1" d="M 960.94,552.59 981.563,548.466 z" id="boundary" inkscape:connector-curvature="0" />
	<path style="fill:none;stroke:red;stroke-width:1px;stroke-linecap:butt;stroke-linejoin:miter;stroke-opacity:1" d="M 969.189,241.173 975.376,261.796 z" id="boundary" inkscape:connector-curvature="0" />
	<path style="fill:none;stroke:red;stroke-width:1px;stroke-linecap:butt;stroke-linejoin:miter;stroke-opacity:1" d="M 975.376,261.796 991.875,274.17 z" id="boundary" inkscape:connector-curvature="0" />
	<path style="fill:none;stroke:red;stroke-width:1px;stroke-linecap:butt;stroke-linejoin:miter;stroke-opacity:1" d="M 981.563,548.466 996,521.655 z" id="boundary" inkscape:connector-curvature="0" />
	<path style="fill:none;stroke:red;stroke-width:1px;stroke-linecap:butt;stroke-linejoin:miter;stroke-opacity:1" d="M 991.875,274.17 996,294.794 z" id="boundary" inkscape:connector-curvature="0" />
	<path style="fill:none;stroke:red;stroke-width:1px;stroke-linecap:butt;stroke-linejoin:miter;stroke-opacity:1" d="M 996,294.794 996,315.418 z" id="boundary" inkscape:connector-curvature="0" />
	<path style="fill:none;stroke:red;stroke-width:1px;stroke-linecap:butt;stroke-linejoin:miter;stroke-opacity:1" d="M 996,315.418 996,336.042 z" id="boundary" inkscape:connector-curvature="0" />
	<path style="fill:none;stroke:red;stroke-width:1px;stroke-linecap:butt;stroke-linejoin:miter;stroke-opacity:1" d="M 996,336.042 996,356.665 z" id="boundary" inkscape:connector-curvature="0" />
	<path style="fill:none;stroke:red;stroke-width:1px;stroke-linecap:butt;stroke-linejoin:miter;stroke-opacity:1" d="M 996,356.665 996,377.289 z" id="boundary" inkscape:connector-curvature="0" />
	<path style="fill:none;stroke:red;stroke-width:1px;stroke-linecap:butt;stroke-linejoin:miter;stroke-opacity:1" d="M 996,377.289 996,397.913 z" id="boundary" inkscape:connector-curvature="0" />
	<path style="fill:none;stroke:red;stroke-width:1px;stroke-linecap:butt;stroke-linejoin:miter;stroke-opacity:1" d="M 996,397.913 996,418.536 z" id="boundary" inkscape:connector-curvature="0" />
	<path style="fill:none;stroke:red;stroke-width:1px;stroke-linecap:butt;stroke-linejoin:miter;stroke-opacity:1" d="M 996,418.536 996,439.16 z" id="boundary" inkscape:connector-curvature="0" />
	<path style="fill:none;stroke:red;stroke-width:1px;stroke-linecap:butt;stroke-linejoin:miter;stroke-opacity:1" d="M 996,439.16 996,459.784 z" id="boundary" inkscape:connector-curvature="0" />
	<path style="fill:none;stroke:red;stroke-width:1px;stroke-linecap:butt;stroke-linejoin:miter;stroke-opacity:1" d="M 996,459.784 996,480.407 z" id="boundary" inkscape:connector-curvature="0" />
	<path style="fill:none;stroke:red;stroke-width:1px;stroke-linecap:butt;stroke-linejoin:miter;stroke-opacity:1" d="M 996,480.407 996,501.031 z" id="boundary" inkscape:connector-curvature="0" />
	<path style="fill:none;stroke:red;stroke-width:1px;stroke-linecap:butt;stroke-linejoin:miter;stroke-opacity:1" d="M 996,501.031 996,521.655 z" id="boundary" inkscape:connector-curvature="0" />
	<circle cx="4" cy="360.79" r="4" fill="#0" id="circle0"/>
	<circle cx="4" cy="381.414" r="4" fill="#0" id="circle1"/>
	<circle cx="4" cy="402.037" r="4" fill="#0" id="circle2"/>
	<circle cx="14.3119" cy="319.543" r="4" fill="#0" id="circle3"/>
	<circle cx="14.3119" cy="340.166" r="4" fill="#0" id="circle4"/>
	<circle cx="20.499" cy="416.474" r="4" fill="#0" id="circle5"/>
	<circle cx="24.6237" cy="298.919" r="4" fill="#0" id="circle6"/>
	<circle cx="36.9979" cy="428.848" r="4" fill="#0" id="circle7"/>
	<circle cx="41.1227" cy="282.42" r="4" fill="#0" id="circle8"/>
	<circle cx="51.4345" cy="261.796" r="4" fill="#0" id="circle9"/>
	<circle cx="55.5593" cy="439.16" r="4" fill="#0" id="circle10"/>
	<circle cx="61.7464" cy="241.173" r="4" fill="#0" id="circle11"/>
	<circle cx="74.1206" cy="449.472" r="4" fill="#0" id="circle12"/>
	<circle cx="82.3701" cy="230.861" r="4" fill="#0" id="circle13"/>
	<circle cx="92.6819" cy="459.784" r="4" fill="#0" id="circle14"/>
	<circle cx="102.994" cy="230.861" r="4" fill="#0" id="circle15"/>
	<circle cx="113.306" cy="210.237" r="4" fill="#0" id="circle16"/>
	<circle cx="113.306" cy="459.784" r="4" fill="#0" id="circle17"/>
	<circle cx="123.617" cy="478.345" r="4" fill="#0" id="circle18"/>
	<circle cx="133.929" cy="199.925" r="4" fill="#0" id="circle19"/>
	<circle cx="144.241" cy="480.407" r="4" fill="#0" id="circle20"/>
	<circle cx="152.491" cy="189.613" r="4" fill="#0" id="circle21"/>
	<circle cx="160.74" cy="494.844" r="4" fill="#0" id="circle22"/>
	<circle cx="168.99" cy="82.3701" r="4" fill="#0" id="circle23"/>
	<circle cx="168.99" cy="102.994" r="4" fill="#0" id="circle24"/>
	<circle cx="168.99" cy="123.617" r="4" fill="#0" id="circle25"/>
	<circle cx="168.99" cy="144.241" r="4" fill="#0" id="circle26"/>
	<circle cx="171.052" cy="179.301" r="4" fill="#0" id="circle27"/>
	<circle cx="175.177" cy="511.343" r="4" fill="#0" id="circle28"/>
	<circle cx="179.301" cy="41.1227" r="4" fill="#0" id="circle29"/>
	<circle cx="179.301" cy="61.7464" r="4" fill="#0" id="circle30"/>
	<circle cx="179.301" cy="670.146" r="4" fill="#0" id="circle31"/>
	<circle cx="191.676" cy="525.78" r="4" fill="#0" id="circle32"/>
	<circle cx="195.8" cy="24.6237" r="4" fill="#0" id="circle33"/>
	<circle cx="195.8" cy="653.647" r="4" fill="#0" id="circle34"/>
	<circle cx="199.925" cy="676.333" r="4" fill="#0" id="circle35"/>
	<circle cx="206.112" cy="542.279" r="4" fill="#0" id="circle36"/>
	<circle cx="214.362" cy="14.3119" r="4" fill="#0" id="circle37"/>
	<circle cx="216.424" cy="653.647" r="4" fill="#0" id="circle38"/>
	<circle cx="218.486" cy="686.644" r="4" fill="#0" id="circle39"/>
	<circle cx="226.736" cy="550.528" r="4" fill="#0" id="circle40"/>
	<circle cx="232.923" cy="4" r="4" fill="#0" id="circle41"/>
	<circle cx="234.985" cy="643.335" r="4" fill="#0" id="circle42"/>
	<circle cx="239.11" cy="686.644" r="4" fill="#0" id="circle43"/>
	<circle cx="241.173" cy="567.027" r="4" fill="#0" id="circle44"/>
	<circle cx="251.484" cy="585.588" r="4" fill="#0" id="circle45"/>
	<circle cx="251.484" cy="606.212" r="4" fill="#0" id="circle46"/>
	<circle cx="253.547" cy="4" r="4" fill="#0" id="circle47"/>
	<circle cx="255.609" cy="643.335" r="4" fill="#0" id="circle48"/>
	<circle cx="259.734" cy="686.644" r="4" fill="#0" id="circle49"/>
	<circle cx="274.17" cy="4" r="4" fill="#0" id="circle50"/>
	<circle cx="280.358" cy="682.52" r="4" fill="#0" id="circle51"/>
	<circle cx="294.794" cy="4" r="4" fill="#0" id="circle52"/>
	<circle cx="294.794" cy="666.021" r="4" fill="#0" id="circle53"/>
	<circle cx="313.356" cy="676.333" r="4" fill="#0" id="circle54"/>
	<circle cx="315.418" cy="10.1871" r="4" fill="#0" id="circle55"/>
	<circle cx="315.418" cy="160.74" r="4" fill="#0" id="circle56"/>
	<circle cx="315.418" cy="181.364" r="4" fill="#0" id="circle57"/>
	<circle cx="325.73" cy="28.7484" r="4" fill="#0" id="circle58"/>
	<circle cx="325.73" cy="49.3721" r="4" fill="#0" id="circle59"/>
	<circle cx="325.73" cy="69.9958" r="4" fill="#0" id="circle60"/>
	<circle cx="325.73" cy="109.181" r="4" fill="#0" id="circle61"/>
	<circle cx="325.73" cy="129.805" r="4" fill="#0" id="circle62"/>
	<circle cx="333.979" cy="676.333" r="4" fill="#0" id="circle63"/>
	<circle cx="336.042" cy="189.613" r="4" fill="#0" id="circle64"/>
	<circle cx="338.104" cy="86.4948" r="4" fill="#0" id="circle65"/>
	<circle cx="352.541" cy="686.644" r="4" fill="#0" id="circle66"/>
	<circle cx="356.665" cy="189.613" r="4" fill="#0" id="circle67"/>
	<circle cx="373.164" cy="686.644" r="4" fill="#0" id="circle68"/>
	<circle cx="375.227" cy="199.925" r="4" fill="#0" id="circle69"/>
	<circle cx="391.726" cy="676.333" r="4" fill="#0" id="circle70"/>
	<circle cx="393.788" cy="189.613" r="4" fill="#0" id="circle71"/>
	<circle cx="412.349" cy="676.333" r="4" fill="#0" id="circle72"/>
	<circle cx="414.412" cy="189.613" r="4" fill="#0" id="circle73"/>
	<circle cx="430.911" cy="666.021" r="4" fill="#0" id="circle74"/>
	<circle cx="432.973" cy="179.301" r="4" fill="#0" id="circle75"/>
	<circle cx="447.41" cy="144.241" r="4" fill="#0" id="circle76"/>
	<circle cx="447.41" cy="711.393" r="4" fill="#0" id="circle77"/>
	<circle cx="447.41" cy="732.017" r="4" fill="#0" id="circle78"/>
	<circle cx="449.472" cy="676.333" r="4" fill="#0" id="circle79"/>
	<circle cx="453.597" cy="168.99" r="4" fill="#0" id="circle80"/>
	<circle cx="468.033" cy="133.929" r="4" fill="#0" id="circle81"/>
	<circle cx="468.033" cy="705.206" r="4" fill="#0" id="circle82"/>
	<circle cx="468.033" cy="738.204" r="4" fill="#0" id="circle83"/>
	<circle cx="470.096" cy="676.333" r="4" fill="#0" id="circle84"/>
	<circle cx="486.595" cy="694.894" r="4" fill="#0" id="circle85"/>
	<circle cx="486.595" cy="748.516" r="4" fill="#0" id="circle86"/>
	<circle cx="488.657" cy="123.617" r="4" fill="#0" id="circle87"/>
	<circle cx="505.156" cy="107.119" r="4" fill="#0" id="circle88"/>
	<circle cx="505.156" cy="758.827" r="4" fill="#0" id="circle89"/>
	<circle cx="525.78" cy="96.8067" r="4" fill="#0" id="circle90"/>
	<circle cx="525.78" cy="758.827" r="4" fill="#0" id="circle91"/>
	<circle cx="546.403" cy="96.8067" r="4" fill="#0" id="circle92"/>
	<circle cx="546.403" cy="758.827" r="4" fill="#0" id="circle93"/>
	<circle cx="567.027" cy="96.8067" r="4" fill="#0" id="circle94"/>
	<circle cx="567.027" cy="758.827" r="4" fill="#0" id="circle95"/>
	<circle cx="587.651" cy="96.8067" r="4" fill="#0" id="circle96"/>
	<circle cx="587.651" cy="758.827" r="4" fill="#0" id="circle97"/>
	<circle cx="608.274" cy="86.4948" r="4" fill="#0" id="circle98"/>
	<circle cx="608.274" cy="758.827" r="4" fill="#0" id="circle99"/>
	<circle cx="628.898" cy="86.4948" r="4" fill="#0" id="circle100"/>
	<circle cx="628.898" cy="758.827" r="4" fill="#0" id="circle101"/>
	<circle cx="649.522" cy="86.4948" r="4" fill="#0" id="circle102"/>
	<circle cx="649.522" cy="758.827" r="4" fill="#0" id="circle103"/>
	<circle cx="670.146" cy="86.4948" r="4" fill="#0" id="circle104"/>
	<circle cx="670.146" cy="758.827" r="4" fill="#0" id="circle105"/>
	<circle cx="690.769" cy="86.4948" r="4" fill="#0" id="circle106"/>
	<circle cx="690.769" cy="758.827" r="4" fill="#0" id="circle107"/>
	<circle cx="711.393" cy="86.4948" r="4" fill="#0" id="circle108"/>
	<circle cx="711.393" cy="756.765" r="4" fill="#0" id="circle109"/>
	<circle cx="732.017" cy="86.4948" r="4" fill="#0" id="circle110"/>
	<circle cx="732.017" cy="748.516" r="4" fill="#0" id="circle111"/>
	<circle cx="752.64" cy="86.4948" r="4" fill="#0" id="circle112"/>
	<circle cx="752.64" cy="748.516" r="4" fill="#0" id="circle113"/>
	<circle cx="771.202" cy="76.183" r="4" fill="#0" id="circle114"/>
	<circle cx="773.264" cy="748.516" r="4" fill="#0" id="circle115"/>
	<circle cx="791.825" cy="76.183" r="4" fill="#0" id="circle116"/>
	<circle cx="793.888" cy="746.453" r="4" fill="#0" id="circle117"/>
	<circle cx="812.449" cy="76.183" r="4" fill="#0" id="circle118"/>
	<circle cx="814.511" cy="746.453" r="4" fill="#0" id="circle119"/>
	<circle cx="833.073" cy="76.183" r="4" fill="#0" id="circle120"/>
	<circle cx="835.135" cy="748.516" r="4" fill="#0" id="circle121"/>
	<circle cx="849.572" cy="90.6195" r="4" fill="#0" id="circle122"/>
	<circle cx="855.759" cy="748.516" r="4" fill="#0" id="circle123"/>
	<circle cx="857.821" cy="111.243" r="4" fill="#0" id="circle124"/>
	<circle cx="872.258" cy="127.742" r="4" fill="#0" id="circle125"/>
	<circle cx="874.32" cy="738.204" r="4" fill="#0" id="circle126"/>
	<circle cx="888.757" cy="140.116" r="4" fill="#0" id="circle127"/>
	<circle cx="892.881" cy="727.892" r="4" fill="#0" id="circle128"/>
	<circle cx="897.006" cy="160.74" r="4" fill="#0" id="circle129"/>
	<circle cx="903.193" cy="707.268" r="4" fill="#0" id="circle130"/>
	<circle cx="913.505" cy="175.177" r="4" fill="#0" id="circle131"/>
	<circle cx="913.505" cy="614.462" r="4" fill="#0" id="circle132"/>
	<circle cx="913.505" cy="635.085" r="4" fill="#0" id="circle133"/>
	<circle cx="913.505" cy="655.709" r="4" fill="#0" id="circle134"/>
	<circle cx="919.692" cy="692.832" r="4" fill="#0" id="circle135"/>
	<circle cx="923.817" cy="552.59" r="4" fill="#0" id="circle136"/>
	<circle cx="923.817" cy="573.214" r="4" fill="#0" id="circle137"/>
	<circle cx="923.817" cy="593.838" r="4" fill="#0" id="circle138"/>
	<circle cx="927.942" cy="191.676" r="4" fill="#0" id="circle139"/>
	<circle cx="938.254" cy="210.237" r="4" fill="#0" id="circle140"/>
	<circle cx="942.378" cy="562.902" r="4" fill="#0" id="circle141"/>
	<circle cx="952.69" cy="226.736" r="4" fill="#0" id="circle142"/>
	<circle cx="960.94" cy="552.59" r="4" fill="#0" id="circle143"/>
	<circle cx="969.189" cy="241.173" r="4" fill="#0" id="circle144"/>
	<circle cx="975.376" cy="261.796" r="4" fill="#0" id="circle145"/>
	<circle cx="981.563" cy="548.466" r="4" fill="#0" id="circle146"/>
	<circle cx="991.875" cy="274.17" r="4" fill="#0" id="circle147"/>
	<circle cx="996" cy="294.794" r="4" fill="#0" id="circle148"/>
	<circle cx="996" cy="315.418" r="4" fill="#0" id="circle149"/>
	<circle cx="996" cy="336.042" r="4" fill="#0" id="circle150"/>
	<circle cx="996" cy="356.665" r="4" fill="#0" id="circle151"/>
	<circle cx="996" cy="377.289" r="4" fill="#0" id="circle152"/>
	<circle cx="996" cy="397.913" r="4" fill="#0" id="circle153"/>
	<circle cx="996" cy="418.536" r="4" fill="#0" id="circle154"/>
	<circle cx="996" cy="439.16" r="4" fill="#0" id="circle155"/>
	<circle cx="996" cy="459.784" r="4" fill="#0" id="circle156"/>
	<circle cx="996" cy="480.407" r="4" fill="#0" id="circle157"/>
	<circle cx="996" cy="501.031" r="4" fill="#0" id="circle158"/>
	<circle cx="996" cy="521.655" r="4" fill="#0" id="circle159"/>
	</g>
</svg>