<?xml version="1.0" encoding="UTF-8" standalone="no"?>
<!-- Created with CurveBenchmark -->
<svg
	xmlns:dc="http://purl.org/dc/elements/1.1/"
	xmlns:cc="http://creativecommons.org/ns#"
	xmlns:rdf="http://www.w3.org/1999/02/22-rdf-syntax-ns#"
	xmlns:svg="http://www.w3.org/2000/svg"
	xmlns="http://www.w3.org/2000/svg"
	xmlns:sodipodi="http://sodipodi.sourceforge.net/DTD/sodipodi-0.dtd"
	xmlns:inkscape="http://www.inkscape.org/namespaces/inkscape"
	width="1000"
	height="1000"
	id="svg2"
	version="1.1"
	sodipodi:docname="manifold/vicur-teddy260.png.txt">
<defs
	id="defs4" />
<metadata
	id="metadata7">
	<rdf:RDF>
		<cc:Work
			rdf:about="">
			<dc:format>image/svg+xml</dc:format>
			<dc:type
				rdf:resource="http://purl.org/dc/dcmitype/StillImage" />
			<dc:title></dc:title>
		</cc:Work>
	</rdf:RDF>
</metadata>
<g
	inkscape:label="Layer 1"
	inkscape:groupmode="layer"
	id="layer1">
	<path style="fill:none;stroke:red;stroke-width:1px;stroke-linecap:butt;stroke-linejoin:miter;stroke-opacity:1" d="M 4,823.601 4,851.863 z" id="boundary" inkscape:connector-curvature="0" />
	<path style="fill:none;stroke:red;stroke-width:1px;stroke-linecap:butt;stroke-linejoin:miter;stroke-opacity:1" d="M 4,823.601 9.65242,795.339 z" id="boundary" inkscape:connector-curvature="0" />
	<path style="fill:none;stroke:red;stroke-width:1px;stroke-linecap:butt;stroke-linejoin:miter;stroke-opacity:1" d="M 4,851.863 4,880.125 z" id="boundary" inkscape:connector-curvature="0" />
	<path style="fill:none;stroke:red;stroke-width:1px;stroke-linecap:butt;stroke-linejoin:miter;stroke-opacity:1" d="M 4,880.125 4,908.387 z" id="boundary" inkscape:connector-curvature="0" />
	<path style="fill:none;stroke:red;stroke-width:1px;stroke-linecap:butt;stroke-linejoin:miter;stroke-opacity:1" d="M 4,908.387 9.65242,936.65 z" id="boundary" inkscape:connector-curvature="0" />
	<path style="fill:none;stroke:red;stroke-width:1px;stroke-linecap:butt;stroke-linejoin:miter;stroke-opacity:1" d="M 9.65242,795.339 20.9573,761.425 z" id="boundary" inkscape:connector-curvature="0" />
	<path style="fill:none;stroke:red;stroke-width:1px;stroke-linecap:butt;stroke-linejoin:miter;stroke-opacity:1" d="M 9.65242,936.65 29.4359,959.259 z" id="boundary" inkscape:connector-curvature="0" />
	<path style="fill:none;stroke:red;stroke-width:1px;stroke-linecap:butt;stroke-linejoin:miter;stroke-opacity:1" d="M 20.9573,761.425 43.567,744.467 z" id="boundary" inkscape:connector-curvature="0" />
	<path style="fill:none;stroke:red;stroke-width:1px;stroke-linecap:butt;stroke-linejoin:miter;stroke-opacity:1" d="M 29.4359,959.259 52.0456,976.217 z" id="boundary" inkscape:connector-curvature="0" />
	<path style="fill:none;stroke:red;stroke-width:1px;stroke-linecap:butt;stroke-linejoin:miter;stroke-opacity:1" d="M 43.567,744.467 66.1766,727.51 z" id="boundary" inkscape:connector-curvature="0" />
	<path style="fill:none;stroke:red;stroke-width:1px;stroke-linecap:butt;stroke-linejoin:miter;stroke-opacity:1" d="M 52.0456,976.217 77.4815,990.348 z" id="boundary" inkscape:connector-curvature="0" />
	<path style="fill:none;stroke:red;stroke-width:1px;stroke-linecap:butt;stroke-linejoin:miter;stroke-opacity:1" d="M 54.8718,507.066 54.8718,535.328 z" id="boundary" inkscape:connector-curvature="0" />
	<path style="fill:none;stroke:red;stroke-width:1px;stroke-linecap:butt;stroke-linejoin:miter;stroke-opacity:1" d="M 54.8718,507.066 66.1766,478.803 z" id="boundary" inkscape:connector-curvature="0" />
	<path style="fill:none;stroke:red;stroke-width:1px;stroke-linecap:butt;stroke-linejoin:miter;stroke-opacity:1" d="M 54.8718,535.328 60.5242,563.59 z" id="boundary" inkscape:connector-curvature="0" />
	<path style="fill:none;stroke:red;stroke-width:1px;stroke-linecap:butt;stroke-linejoin:miter;stroke-opacity:1" d="M 60.5242,563.59 77.4815,586.199 z" id="boundary" inkscape:connector-curvature="0" />
	<path style="fill:none;stroke:red;stroke-width:1px;stroke-linecap:butt;stroke-linejoin:miter;stroke-opacity:1" d="M 66.1766,478.803 83.1339,456.194 z" id="boundary" inkscape:connector-curvature="0" />
	<path style="fill:none;stroke:red;stroke-width:1px;stroke-linecap:butt;stroke-linejoin:miter;stroke-opacity:1" d="M 66.1766,727.51 94.4387,727.51 z" id="boundary" inkscape:connector-curvature="0" />
	<path style="fill:none;stroke:red;stroke-width:1px;stroke-linecap:butt;stroke-linejoin:miter;stroke-opacity:1" d="M 77.4815,586.199 97.265,608.809 z" id="boundary" inkscape:connector-curvature="0" />
	<path style="fill:none;stroke:red;stroke-width:1px;stroke-linecap:butt;stroke-linejoin:miter;stroke-opacity:1" d="M 77.4815,990.348 105.744,993.174 z" id="boundary" inkscape:connector-curvature="0" />
	<path style="fill:none;stroke:red;stroke-width:1px;stroke-linecap:butt;stroke-linejoin:miter;stroke-opacity:1" d="M 83.1339,456.194 111.396,444.889 z" id="boundary" inkscape:connector-curvature="0" />
	<path style="fill:none;stroke:red;stroke-width:1px;stroke-linecap:butt;stroke-linejoin:miter;stroke-opacity:1" d="M 94.4387,727.51 122.701,727.51 z" id="boundary" inkscape:connector-curvature="0" />
	<path style="fill:none;stroke:red;stroke-width:1px;stroke-linecap:butt;stroke-linejoin:miter;stroke-opacity:1" d="M 97.265,608.809 122.701,622.94 z" id="boundary" inkscape:connector-curvature="0" />
	<path style="fill:none;stroke:red;stroke-width:1px;stroke-linecap:butt;stroke-linejoin:miter;stroke-opacity:1" d="M 105.744,993.174 134.006,996 z" id="boundary" inkscape:connector-curvature="0" />
	<path style="fill:none;stroke:red;stroke-width:1px;stroke-linecap:butt;stroke-linejoin:miter;stroke-opacity:1" d="M 111.396,444.889 139.658,439.236 z" id="boundary" inkscape:connector-curvature="0" />
	<path style="fill:none;stroke:red;stroke-width:1px;stroke-linecap:butt;stroke-linejoin:miter;stroke-opacity:1" d="M 122.701,622.94 150.963,634.245 z" id="boundary" inkscape:connector-curvature="0" />
	<path style="fill:none;stroke:red;stroke-width:1px;stroke-linecap:butt;stroke-linejoin:miter;stroke-opacity:1" d="M 122.701,727.51 150.963,727.51 z" id="boundary" inkscape:connector-curvature="0" />
	<path style="fill:none;stroke:red;stroke-width:1px;stroke-linecap:butt;stroke-linejoin:miter;stroke-opacity:1" d="M 134.006,996 162.268,996 z" id="boundary" inkscape:connector-curvature="0" />
	<path style="fill:none;stroke:red;stroke-width:1px;stroke-linecap:butt;stroke-linejoin:miter;stroke-opacity:1" d="M 139.658,439.236 167.92,433.584 z" id="boundary" inkscape:connector-curvature="0" />
	<path style="fill:none;stroke:red;stroke-width:1px;stroke-linecap:butt;stroke-linejoin:miter;stroke-opacity:1" d="M 150.963,634.245 179.225,645.55 z" id="boundary" inkscape:connector-curvature="0" />
	<path style="fill:none;stroke:red;stroke-width:1px;stroke-linecap:butt;stroke-linejoin:miter;stroke-opacity:1" d="M 150.963,727.51 179.225,733.162 z" id="boundary" inkscape:connector-curvature="0" />
	<path style="fill:none;stroke:red;stroke-width:1px;stroke-linecap:butt;stroke-linejoin:miter;stroke-opacity:1" d="M 162.268,996 190.53,996 z" id="boundary" inkscape:connector-curvature="0" />
	<path style="fill:none;stroke:red;stroke-width:1px;stroke-linecap:butt;stroke-linejoin:miter;stroke-opacity:1" d="M 167.92,433.584 196.182,427.932 z" id="boundary" inkscape:connector-curvature="0" />
	<path style="fill:none;stroke:red;stroke-width:1px;stroke-linecap:butt;stroke-linejoin:miter;stroke-opacity:1" d="M 179.225,645.55 207.487,651.202 z" id="boundary" inkscape:connector-curvature="0" />
	<path style="fill:none;stroke:red;stroke-width:1px;stroke-linecap:butt;stroke-linejoin:miter;stroke-opacity:1" d="M 179.225,733.162 207.487,733.162 z" id="boundary" inkscape:connector-curvature="0" />
	<path style="fill:none;stroke:red;stroke-width:1px;stroke-linecap:butt;stroke-linejoin:miter;stroke-opacity:1" d="M 190.53,996 218.792,984.695 z" id="boundary" inkscape:connector-curvature="0" />
	<path style="fill:none;stroke:red;stroke-width:1px;stroke-linecap:butt;stroke-linejoin:miter;stroke-opacity:1" d="M 196.182,427.932 224.444,427.932 z" id="boundary" inkscape:connector-curvature="0" />
	<path style="fill:none;stroke:red;stroke-width:1px;stroke-linecap:butt;stroke-linejoin:miter;stroke-opacity:1" d="M 207.487,651.202 235.749,662.507 z" id="boundary" inkscape:connector-curvature="0" />
	<path style="fill:none;stroke:red;stroke-width:1px;stroke-linecap:butt;stroke-linejoin:miter;stroke-opacity:1" d="M 207.487,733.162 235.749,727.51 z" id="boundary" inkscape:connector-curvature="0" />
	<path style="fill:none;stroke:red;stroke-width:1px;stroke-linecap:butt;stroke-linejoin:miter;stroke-opacity:1" d="M 218.792,984.695 247.054,973.39 z" id="boundary" inkscape:connector-curvature="0" />
	<path style="fill:none;stroke:red;stroke-width:1px;stroke-linecap:butt;stroke-linejoin:miter;stroke-opacity:1" d="M 224.444,427.932 252.707,416.627 z" id="boundary" inkscape:connector-curvature="0" />
	<path style="fill:none;stroke:red;stroke-width:1px;stroke-linecap:butt;stroke-linejoin:miter;stroke-opacity:1" d="M 235.749,662.507 264.011,656.855 z" id="boundary" inkscape:connector-curvature="0" />
	<path style="fill:none;stroke:red;stroke-width:1px;stroke-linecap:butt;stroke-linejoin:miter;stroke-opacity:1" d="M 235.749,727.51 264.011,716.205 z" id="boundary" inkscape:connector-curvature="0" />
	<path style="fill:none;stroke:red;stroke-width:1px;stroke-linecap:butt;stroke-linejoin:miter;stroke-opacity:1" d="M 247.054,973.39 275.316,973.39 z" id="boundary" inkscape:connector-curvature="0" />
	<path style="fill:none;stroke:red;stroke-width:1px;stroke-linecap:butt;stroke-linejoin:miter;stroke-opacity:1" d="M 252.707,416.627 269.664,394.017 z" id="boundary" inkscape:connector-curvature="0" />
	<path style="fill:none;stroke:red;stroke-width:1px;stroke-linecap:butt;stroke-linejoin:miter;stroke-opacity:1" d="M 264.011,656.855 275.316,685.117 z" id="boundary" inkscape:connector-curvature="0" />
	<path style="fill:none;stroke:red;stroke-width:1px;stroke-linecap:butt;stroke-linejoin:miter;stroke-opacity:1" d="M 264.011,716.205 275.316,685.117 z" id="boundary" inkscape:connector-curvature="0" />
	<path style="fill:none;stroke:red;stroke-width:1px;stroke-linecap:butt;stroke-linejoin:miter;stroke-opacity:1" d="M 269.664,394.017 297.926,388.365 z" id="boundary" inkscape:connector-curvature="0" />
	<path style="fill:none;stroke:red;stroke-width:1px;stroke-linecap:butt;stroke-linejoin:miter;stroke-opacity:1" d="M 275.316,973.39 303.578,967.738 z" id="boundary" inkscape:connector-curvature="0" />
	<path style="fill:none;stroke:red;stroke-width:1px;stroke-linecap:butt;stroke-linejoin:miter;stroke-opacity:1" d="M 297.926,275.316 300.752,303.578 z" id="boundary" inkscape:connector-curvature="0" />
	<path style="fill:none;stroke:red;stroke-width:1px;stroke-linecap:butt;stroke-linejoin:miter;stroke-opacity:1" d="M 297.926,275.316 303.578,247.054 z" id="boundary" inkscape:connector-curvature="0" />
	<path style="fill:none;stroke:red;stroke-width:1px;stroke-linecap:butt;stroke-linejoin:miter;stroke-opacity:1" d="M 297.926,388.365 326.188,382.712 z" id="boundary" inkscape:connector-curvature="0" />
	<path style="fill:none;stroke:red;stroke-width:1px;stroke-linecap:butt;stroke-linejoin:miter;stroke-opacity:1" d="M 300.752,303.578 309.231,331.84 z" id="boundary" inkscape:connector-curvature="0" />
	<path style="fill:none;stroke:red;stroke-width:1px;stroke-linecap:butt;stroke-linejoin:miter;stroke-opacity:1" d="M 303.578,247.054 317.709,221.618 z" id="boundary" inkscape:connector-curvature="0" />
	<path style="fill:none;stroke:red;stroke-width:1px;stroke-linecap:butt;stroke-linejoin:miter;stroke-opacity:1" d="M 303.578,967.738 331.84,973.39 z" id="boundary" inkscape:connector-curvature="0" />
	<path style="fill:none;stroke:red;stroke-width:1px;stroke-linecap:butt;stroke-linejoin:miter;stroke-opacity:1" d="M 309.231,331.84 326.188,354.45 z" id="boundary" inkscape:connector-curvature="0" />
	<path style="fill:none;stroke:red;stroke-width:1px;stroke-linecap:butt;stroke-linejoin:miter;stroke-opacity:1" d="M 314.883,77.4815 317.709,105.744 z" id="boundary" inkscape:connector-curvature="0" />
	<path style="fill:none;stroke:red;stroke-width:1px;stroke-linecap:butt;stroke-linejoin:miter;stroke-opacity:1" d="M 314.883,77.4815 326.188,49.2194 z" id="boundary" inkscape:connector-curvature="0" />
	<path style="fill:none;stroke:red;stroke-width:1px;stroke-linecap:butt;stroke-linejoin:miter;stroke-opacity:1" d="M 317.709,105.744 326.188,134.006 z" id="boundary" inkscape:connector-curvature="0" />
	<path style="fill:none;stroke:red;stroke-width:1px;stroke-linecap:butt;stroke-linejoin:miter;stroke-opacity:1" d="M 317.709,221.618 329.014,193.356 z" id="boundary" inkscape:connector-curvature="0" />
	<path style="fill:none;stroke:red;stroke-width:1px;stroke-linecap:butt;stroke-linejoin:miter;stroke-opacity:1" d="M 326.188,49.2194 343.145,26.6097 z" id="boundary" inkscape:connector-curvature="0" />
	<path style="fill:none;stroke:red;stroke-width:1px;stroke-linecap:butt;stroke-linejoin:miter;stroke-opacity:1" d="M 326.188,134.006 334.667,162.268 z" id="boundary" inkscape:connector-curvature="0" />
	<path style="fill:none;stroke:red;stroke-width:1px;stroke-linecap:butt;stroke-linejoin:miter;stroke-opacity:1" d="M 326.188,354.45 326.188,382.712 z" id="boundary" inkscape:connector-curvature="0" />
	<path style="fill:none;stroke:red;stroke-width:1px;stroke-linecap:butt;stroke-linejoin:miter;stroke-opacity:1" d="M 329.014,193.356 334.667,162.268 z" id="boundary" inkscape:connector-curvature="0" />
	<path style="fill:none;stroke:red;stroke-width:1px;stroke-linecap:butt;stroke-linejoin:miter;stroke-opacity:1" d="M 331.84,973.39 360.103,973.39 z" id="boundary" inkscape:connector-curvature="0" />
	<path style="fill:none;stroke:red;stroke-width:1px;stroke-linecap:butt;stroke-linejoin:miter;stroke-opacity:1" d="M 343.145,26.6097 371.407,15.3048 z" id="boundary" inkscape:connector-curvature="0" />
	<path style="fill:none;stroke:red;stroke-width:1px;stroke-linecap:butt;stroke-linejoin:miter;stroke-opacity:1" d="M 360.103,973.39 388.365,979.043 z" id="boundary" inkscape:connector-curvature="0" />
	<path style="fill:none;stroke:red;stroke-width:1px;stroke-linecap:butt;stroke-linejoin:miter;stroke-opacity:1" d="M 371.407,15.3048 399.67,4 z" id="boundary" inkscape:connector-curvature="0" />
	<path style="fill:none;stroke:red;stroke-width:1px;stroke-linecap:butt;stroke-linejoin:miter;stroke-opacity:1" d="M 388.365,979.043 416.627,979.043 z" id="boundary" inkscape:connector-curvature="0" />
	<path style="fill:none;stroke:red;stroke-width:1px;stroke-linecap:butt;stroke-linejoin:miter;stroke-opacity:1" d="M 399.67,4 427.932,9.65242 z" id="boundary" inkscape:connector-curvature="0" />
	<path style="fill:none;stroke:red;stroke-width:1px;stroke-linecap:butt;stroke-linejoin:miter;stroke-opacity:1" d="M 416.627,979.043 444.889,984.695 z" id="boundary" inkscape:connector-curvature="0" />
	<path style="fill:none;stroke:red;stroke-width:1px;stroke-linecap:butt;stroke-linejoin:miter;stroke-opacity:1" d="M 427.932,9.65242 456.194,15.3048 z" id="boundary" inkscape:connector-curvature="0" />
	<path style="fill:none;stroke:red;stroke-width:1px;stroke-linecap:butt;stroke-linejoin:miter;stroke-opacity:1" d="M 444.889,984.695 473.151,990.348 z" id="boundary" inkscape:connector-curvature="0" />
	<path style="fill:none;stroke:red;stroke-width:1px;stroke-linecap:butt;stroke-linejoin:miter;stroke-opacity:1" d="M 456.194,15.3048 478.803,32.2621 z" id="boundary" inkscape:connector-curvature="0" />
	<path style="fill:none;stroke:red;stroke-width:1px;stroke-linecap:butt;stroke-linejoin:miter;stroke-opacity:1" d="M 473.151,990.348 501.413,990.348 z" id="boundary" inkscape:connector-curvature="0" />
	<path style="fill:none;stroke:red;stroke-width:1px;stroke-linecap:butt;stroke-linejoin:miter;stroke-opacity:1" d="M 478.803,32.2621 507.066,43.567 z" id="boundary" inkscape:connector-curvature="0" />
	<path style="fill:none;stroke:red;stroke-width:1px;stroke-linecap:butt;stroke-linejoin:miter;stroke-opacity:1" d="M 501.413,990.348 529.675,996 z" id="boundary" inkscape:connector-curvature="0" />
	<path style="fill:none;stroke:red;stroke-width:1px;stroke-linecap:butt;stroke-linejoin:miter;stroke-opacity:1" d="M 507.066,43.567 535.328,43.567 z" id="boundary" inkscape:connector-curvature="0" />
	<path style="fill:none;stroke:red;stroke-width:1px;stroke-linecap:butt;stroke-linejoin:miter;stroke-opacity:1" d="M 529.675,996 557.937,996 z" id="boundary" inkscape:connector-curvature="0" />
	<path style="fill:none;stroke:red;stroke-width:1px;stroke-linecap:butt;stroke-linejoin:miter;stroke-opacity:1" d="M 535.328,43.567 563.59,43.567 z" id="boundary" inkscape:connector-curvature="0" />
	<path style="fill:none;stroke:red;stroke-width:1px;stroke-linecap:butt;stroke-linejoin:miter;stroke-opacity:1" d="M 557.937,996 586.199,996 z" id="boundary" inkscape:connector-curvature="0" />
	<path style="fill:none;stroke:red;stroke-width:1px;stroke-linecap:butt;stroke-linejoin:miter;stroke-opacity:1" d="M 563.59,43.567 591.852,43.567 z" id="boundary" inkscape:connector-curvature="0" />
	<path style="fill:none;stroke:red;stroke-width:1px;stroke-linecap:butt;stroke-linejoin:miter;stroke-opacity:1" d="M 586.199,996 614.462,996 z" id="boundary" inkscape:connector-curvature="0" />
	<path style="fill:none;stroke:red;stroke-width:1px;stroke-linecap:butt;stroke-linejoin:miter;stroke-opacity:1" d="M 591.852,43.567 614.462,26.6097 z" id="boundary" inkscape:connector-curvature="0" />
	<path style="fill:none;stroke:red;stroke-width:1px;stroke-linecap:butt;stroke-linejoin:miter;stroke-opacity:1" d="M 614.462,26.6097 642.724,15.3048 z" id="boundary" inkscape:connector-curvature="0" />
	<path style="fill:none;stroke:red;stroke-width:1px;stroke-linecap:butt;stroke-linejoin:miter;stroke-opacity:1" d="M 614.462,996 642.724,996 z" id="boundary" inkscape:connector-curvature="0" />
	<path style="fill:none;stroke:red;stroke-width:1px;stroke-linecap:butt;stroke-linejoin:miter;stroke-opacity:1" d="M 642.724,15.3048 670.986,9.65242 z" id="boundary" inkscape:connector-curvature="0" />
	<path style="fill:none;stroke:red;stroke-width:1px;stroke-linecap:butt;stroke-linejoin:miter;stroke-opacity:1" d="M 642.724,996 670.986,984.695 z" id="boundary" inkscape:connector-curvature="0" />
	<path style="fill:none;stroke:red;stroke-width:1px;stroke-linecap:butt;stroke-linejoin:miter;stroke-opacity:1" d="M 670.986,9.65242 699.248,4 z" id="boundary" inkscape:connector-curvature="0" />
	<path style="fill:none;stroke:red;stroke-width:1px;stroke-linecap:butt;stroke-linejoin:miter;stroke-opacity:1" d="M 670.986,984.695 693.595,967.738 z" id="boundary" inkscape:connector-curvature="0" />
	<path style="fill:none;stroke:red;stroke-width:1px;stroke-linecap:butt;stroke-linejoin:miter;stroke-opacity:1" d="M 693.595,967.738 707.726,930.997 z" id="boundary" inkscape:connector-curvature="0" />
	<path style="fill:none;stroke:red;stroke-width:1px;stroke-linecap:butt;stroke-linejoin:miter;stroke-opacity:1" d="M 699.248,4 727.51,12.4786 z" id="boundary" inkscape:connector-curvature="0" />
	<path style="fill:none;stroke:red;stroke-width:1px;stroke-linecap:butt;stroke-linejoin:miter;stroke-opacity:1" d="M 707.726,930.997 713.379,902.735 z" id="boundary" inkscape:connector-curvature="0" />
	<path style="fill:none;stroke:red;stroke-width:1px;stroke-linecap:butt;stroke-linejoin:miter;stroke-opacity:1" d="M 713.379,902.735 719.031,868.821 z" id="boundary" inkscape:connector-curvature="0" />
	<path style="fill:none;stroke:red;stroke-width:1px;stroke-linecap:butt;stroke-linejoin:miter;stroke-opacity:1" d="M 719.031,360.103 733.162,385.538 z" id="boundary" inkscape:connector-curvature="0" />
	<path style="fill:none;stroke:red;stroke-width:1px;stroke-linecap:butt;stroke-linejoin:miter;stroke-opacity:1" d="M 719.031,360.103 735.989,320.536 z" id="boundary" inkscape:connector-curvature="0" />
	<path style="fill:none;stroke:red;stroke-width:1px;stroke-linecap:butt;stroke-linejoin:miter;stroke-opacity:1" d="M 719.031,670.986 724.684,699.248 z" id="boundary" inkscape:connector-curvature="0" />
	<path style="fill:none;stroke:red;stroke-width:1px;stroke-linecap:butt;stroke-linejoin:miter;stroke-opacity:1" d="M 719.031,670.986 741.641,651.202 z" id="boundary" inkscape:connector-curvature="0" />
	<path style="fill:none;stroke:red;stroke-width:1px;stroke-linecap:butt;stroke-linejoin:miter;stroke-opacity:1" d="M 719.031,784.034 719.031,812.296 z" id="boundary" inkscape:connector-curvature="0" />
	<path style="fill:none;stroke:red;stroke-width:1px;stroke-linecap:butt;stroke-linejoin:miter;stroke-opacity:1" d="M 719.031,784.034 735.989,755.772 z" id="boundary" inkscape:connector-curvature="0" />
	<path style="fill:none;stroke:red;stroke-width:1px;stroke-linecap:butt;stroke-linejoin:miter;stroke-opacity:1" d="M 719.031,812.296 721.858,840.558 z" id="boundary" inkscape:connector-curvature="0" />
	<path style="fill:none;stroke:red;stroke-width:1px;stroke-linecap:butt;stroke-linejoin:miter;stroke-opacity:1" d="M 719.031,868.821 721.858,840.558 z" id="boundary" inkscape:connector-curvature="0" />
	<path style="fill:none;stroke:red;stroke-width:1px;stroke-linecap:butt;stroke-linejoin:miter;stroke-opacity:1" d="M 724.684,699.248 727.51,727.51 z" id="boundary" inkscape:connector-curvature="0" />
	<path style="fill:none;stroke:red;stroke-width:1px;stroke-linecap:butt;stroke-linejoin:miter;stroke-opacity:1" d="M 727.51,12.4786 752.946,26.6097 z" id="boundary" inkscape:connector-curvature="0" />
	<path style="fill:none;stroke:red;stroke-width:1px;stroke-linecap:butt;stroke-linejoin:miter;stroke-opacity:1" d="M 727.51,727.51 735.989,755.772 z" id="boundary" inkscape:connector-curvature="0" />
	<path style="fill:none;stroke:red;stroke-width:1px;stroke-linecap:butt;stroke-linejoin:miter;stroke-opacity:1" d="M 733.162,385.538 758.598,399.67 z" id="boundary" inkscape:connector-curvature="0" />
	<path style="fill:none;stroke:red;stroke-width:1px;stroke-linecap:butt;stroke-linejoin:miter;stroke-opacity:1" d="M 735.989,320.536 752.946,292.274 z" id="boundary" inkscape:connector-curvature="0" />
	<path style="fill:none;stroke:red;stroke-width:1px;stroke-linecap:butt;stroke-linejoin:miter;stroke-opacity:1" d="M 741.641,651.202 769.903,637.071 z" id="boundary" inkscape:connector-curvature="0" />
	<path style="fill:none;stroke:red;stroke-width:1px;stroke-linecap:butt;stroke-linejoin:miter;stroke-opacity:1" d="M 752.946,26.6097 769.903,49.2194 z" id="boundary" inkscape:connector-curvature="0" />
	<path style="fill:none;stroke:red;stroke-width:1px;stroke-linecap:butt;stroke-linejoin:miter;stroke-opacity:1" d="M 752.946,156.615 752.946,184.877 z" id="boundary" inkscape:connector-curvature="0" />
	<path style="fill:none;stroke:red;stroke-width:1px;stroke-linecap:butt;stroke-linejoin:miter;stroke-opacity:1" d="M 752.946,156.615 764.251,128.353 z" id="boundary" inkscape:connector-curvature="0" />
	<path style="fill:none;stroke:red;stroke-width:1px;stroke-linecap:butt;stroke-linejoin:miter;stroke-opacity:1" d="M 752.946,184.877 761.425,213.14 z" id="boundary" inkscape:connector-curvature="0" />
	<path style="fill:none;stroke:red;stroke-width:1px;stroke-linecap:butt;stroke-linejoin:miter;stroke-opacity:1" d="M 752.946,292.274 758.598,264.011 z" id="boundary" inkscape:connector-curvature="0" />
	<path style="fill:none;stroke:red;stroke-width:1px;stroke-linecap:butt;stroke-linejoin:miter;stroke-opacity:1" d="M 758.598,264.011 761.425,213.14 z" id="boundary" inkscape:connector-curvature="0" />
	<path style="fill:none;stroke:red;stroke-width:1px;stroke-linecap:butt;stroke-linejoin:miter;stroke-opacity:1" d="M 758.598,399.67 778.382,422.279 z" id="boundary" inkscape:connector-curvature="0" />
	<path style="fill:none;stroke:red;stroke-width:1px;stroke-linecap:butt;stroke-linejoin:miter;stroke-opacity:1" d="M 764.251,128.353 775.556,77.4815 z" id="boundary" inkscape:connector-curvature="0" />
	<path style="fill:none;stroke:red;stroke-width:1px;stroke-linecap:butt;stroke-linejoin:miter;stroke-opacity:1" d="M 769.903,49.2194 775.556,77.4815 z" id="boundary" inkscape:connector-curvature="0" />
	<path style="fill:none;stroke:red;stroke-width:1px;stroke-linecap:butt;stroke-linejoin:miter;stroke-opacity:1" d="M 769.903,637.071 792.513,614.462 z" id="boundary" inkscape:connector-curvature="0" />
	<path style="fill:none;stroke:red;stroke-width:1px;stroke-linecap:butt;stroke-linejoin:miter;stroke-opacity:1" d="M 778.382,422.279 800.991,439.236 z" id="boundary" inkscape:connector-curvature="0" />
	<path style="fill:none;stroke:red;stroke-width:1px;stroke-linecap:butt;stroke-linejoin:miter;stroke-opacity:1" d="M 792.513,614.462 809.47,591.852 z" id="boundary" inkscape:connector-curvature="0" />
	<path style="fill:none;stroke:red;stroke-width:1px;stroke-linecap:butt;stroke-linejoin:miter;stroke-opacity:1" d="M 800.991,439.236 815.123,464.672 z" id="boundary" inkscape:connector-curvature="0" />
	<path style="fill:none;stroke:red;stroke-width:1px;stroke-linecap:butt;stroke-linejoin:miter;stroke-opacity:1" d="M 809.47,591.852 826.427,569.242 z" id="boundary" inkscape:connector-curvature="0" />
	<path style="fill:none;stroke:red;stroke-width:1px;stroke-linecap:butt;stroke-linejoin:miter;stroke-opacity:1" d="M 815.123,464.672 829.254,490.108 z" id="boundary" inkscape:connector-curvature="0" />
	<path style="fill:none;stroke:red;stroke-width:1px;stroke-linecap:butt;stroke-linejoin:miter;stroke-opacity:1" d="M 826.427,569.242 832.08,524.023 z" id="boundary" inkscape:connector-curvature="0" />
	<path style="fill:none;stroke:red;stroke-width:1px;stroke-linecap:butt;stroke-linejoin:miter;stroke-opacity:1" d="M 829.254,490.108 832.08,524.023 z" id="boundary" inkscape:connector-curvature="0" />
	<circle cx="4" cy="823.601" r="4" fill="#0" id="circle0"/>
	<circle cx="4" cy="851.863" r="4" fill="#0" id="circle1"/>
	<circle cx="4" cy="880.125" r="4" fill="#0" id="circle2"/>
	<circle cx="4" cy="908.387" r="4" fill="#0" id="circle3"/>
	<circle cx="9.65242" cy="795.339" r="4" fill="#0" id="circle4"/>
	<circle cx="9.65242" cy="936.65" r="4" fill="#0" id="circle5"/>
	<circle cx="20.9573" cy="761.425" r="4" fill="#0" id="circle6"/>
	<circle cx="29.4359" cy="959.259" r="4" fill="#0" id="circle7"/>
	<circle cx="43.567" cy="744.467" r="4" fill="#0" id="circle8"/>
	<circle cx="52.0456" cy="976.217" r="4" fill="#0" id="circle9"/>
	<circle cx="54.8718" cy="507.066" r="4" fill="#0" id="circle10"/>
	<circle cx="54.8718" cy="535.328" r="4" fill="#0" id="circle11"/>
	<circle cx="60.5242" cy="563.59" r="4" fill="#0" id="circle12"/>
	<circle cx="66.1766" cy="478.803" r="4" fill="#0" id="circle13"/>
	<circle cx="66.1766" cy="727.51" r="4" fill="#0" id="circle14"/>
	<circle cx="77.4815" cy="586.199" r="4" fill="#0" id="circle15"/>
	<circle cx="77.4815" cy="990.348" r="4" fill="#0" id="circle16"/>
	<circle cx="83.1339" cy="456.194" r="4" fill="#0" id="circle17"/>
	<circle cx="94.4387" cy="727.51" r="4" fill="#0" id="circle18"/>
	<circle cx="97.265" cy="608.809" r="4" fill="#0" id="circle19"/>
	<circle cx="105.744" cy="993.174" r="4" fill="#0" id="circle20"/>
	<circle cx="111.396" cy="444.889" r="4" fill="#0" id="circle21"/>
	<circle cx="122.701" cy="622.94" r="4" fill="#0" id="circle22"/>
	<circle cx="122.701" cy="727.51" r="4" fill="#0" id="circle23"/>
	<circle cx="134.006" cy="996" r="4" fill="#0" id="circle24"/>
	<circle cx="139.658" cy="439.236" r="4" fill="#0" id="circle25"/>
	<circle cx="150.963" cy="634.245" r="4" fill="#0" id="circle26"/>
	<circle cx="150.963" cy="727.51" r="4" fill="#0" id="circle27"/>
	<circle cx="162.268" cy="996" r="4" fill="#0" id="circle28"/>
	<circle cx="167.92" cy="433.584" r="4" fill="#0" id="circle29"/>
	<circle cx="179.225" cy="645.55" r="4" fill="#0" id="circle30"/>
	<circle cx="179.225" cy="733.162" r="4" fill="#0" id="circle31"/>
	<circle cx="190.53" cy="996" r="4" fill="#0" id="circle32"/>
	<circle cx="196.182" cy="427.932" r="4" fill="#0" id="circle33"/>
	<circle cx="207.487" cy="651.202" r="4" fill="#0" id="circle34"/>
	<circle cx="207.487" cy="733.162" r="4" fill="#0" id="circle35"/>
	<circle cx="218.792" cy="984.695" r="4" fill="#0" id="circle36"/>
	<circle cx="224.444" cy="427.932" r="4" fill="#0" id="circle37"/>
	<circle cx="235.749" cy="662.507" r="4" fill="#0" id="circle38"/>
	<circle cx="235.749" cy="727.51" r="4" fill="#0" id="circle39"/>
	<circle cx="247.054" cy="973.39" r="4" fill="#0" id="circle40"/>
	<circle cx="252.707" cy="416.627" r="4" fill="#0" id="circle41"/>
	<circle cx="264.011" cy="656.855" r="4" fill="#0" id="circle42"/>
	<circle cx="264.011" cy="716.205" r="4" fill="#0" id="circle43"/>
	<circle cx="269.664" cy="394.017" r="4" fill="#0" id="circle44"/>
	<circle cx="275.316" cy="685.117" r="4" fill="#0" id="circle45"/>
	<circle cx="275.316" cy="973.39" r="4" fill="#0" id="circle46"/>
	<circle cx="297.926" cy="275.316" r="4" fill="#0" id="circle47"/>
	<circle cx="297.926" cy="388.365" r="4" fill="#0" id="circle48"/>
	<circle cx="300.752" cy="303.578" r="4" fill="#0" id="circle49"/>
	<circle cx="303.578" cy="247.054" r="4" fill="#0" id="circle50"/>
	<circle cx="303.578" cy="967.738" r="4" fill="#0" id="circle51"/>
	<circle cx="309.231" cy="331.84" r="4" fill="#0" id="circle52"/>
	<circle cx="314.883" cy="77.4815" r="4" fill="#0" id="circle53"/>
	<circle cx="317.709" cy="105.744" r="4" fill="#0" id="circle54"/>
	<circle cx="317.709" cy="221.618" r="4" fill="#0" id="circle55"/>
	<circle cx="326.188" cy="49.2194" r="4" fill="#0" id="circle56"/>
	<circle cx="326.188" cy="134.006" r="4" fill="#0" id="circle57"/>
	<circle cx="326.188" cy="354.45" r="4" fill="#0" id="circle58"/>
	<circle cx="326.188" cy="382.712" r="4" fill="#0" id="circle59"/>
	<circle cx="329.014" cy="193.356" r="4" fill="#0" id="circle60"/>
	<circle cx="331.84" cy="973.39" r="4" fill="#0" id="circle61"/>
	<circle cx="334.667" cy="162.268" r="4" fill="#0" id="circle62"/>
	<circle cx="343.145" cy="26.6097" r="4" fill="#0" id="circle63"/>
	<circle cx="360.103" cy="973.39" r="4" fill="#0" id="circle64"/>
	<circle cx="371.407" cy="15.3048" r="4" fill="#0" id="circle65"/>
	<circle cx="388.365" cy="979.043" r="4" fill="#0" id="circle66"/>
	<circle cx="399.67" cy="4" r="4" fill="#0" id="circle67"/>
	<circle cx="416.627" cy="979.043" r="4" fill="#0" id="circle68"/>
	<circle cx="427.932" cy="9.65242" r="4" fill="#0" id="circle69"/>
	<circle cx="444.889" cy="984.695" r="4" fill="#0" id="circle70"/>
	<circle cx="456.194" cy="15.3048" r="4" fill="#0" id="circle71"/>
	<circle cx="473.151" cy="990.348" r="4" fill="#0" id="circle72"/>
	<circle cx="478.803" cy="32.2621" r="4" fill="#0" id="circle73"/>
	<circle cx="501.413" cy="990.348" r="4" fill="#0" id="circle74"/>
	<circle cx="507.066" cy="43.567" r="4" fill="#0" id="circle75"/>
	<circle cx="529.675" cy="996" r="4" fill="#0" id="circle76"/>
	<circle cx="535.328" cy="43.567" r="4" fill="#0" id="circle77"/>
	<circle cx="557.937" cy="996" r="4" fill="#0" id="circle78"/>
	<circle cx="563.59" cy="43.567" r="4" fill="#0" id="circle79"/>
	<circle cx="586.199" cy="996" r="4" fill="#0" id="circle80"/>
	<circle cx="591.852" cy="43.567" r="4" fill="#0" id="circle81"/>
	<circle cx="614.462" cy="26.6097" r="4" fill="#0" id="circle82"/>
	<circle cx="614.462" cy="996" r="4" fill="#0" id="circle83"/>
	<circle cx="642.724" cy="15.3048" r="4" fill="#0" id="circle84"/>
	<circle cx="642.724" cy="996" r="4" fill="#0" id="circle85"/>
	<circle cx="670.986" cy="9.65242" r="4" fill="#0" id="circle86"/>
	<circle cx="670.986" cy="984.695" r="4" fill="#0" id="circle87"/>
	<circle cx="693.595" cy="967.738" r="4" fill="#0" id="circle88"/>
	<circle cx="699.248" cy="4" r="4" fill="#0" id="circle89"/>
	<circle cx="707.726" cy="930.997" r="4" fill="#0" id="circle90"/>
	<circle cx="713.379" cy="902.735" r="4" fill="#0" id="circle91"/>
	<circle cx="719.031" cy="360.103" r="4" fill="#0" id="circle92"/>
	<circle cx="719.031" cy="670.986" r="4" fill="#0" id="circle93"/>
	<circle cx="719.031" cy="784.034" r="4" fill="#0" id="circle94"/>
	<circle cx="719.031" cy="812.296" r="4" fill="#0" id="circle95"/>
	<circle cx="719.031" cy="868.821" r="4" fill="#0" id="circle96"/>
	<circle cx="721.858" cy="840.558" r="4" fill="#0" id="circle97"/>
	<circle cx="724.684" cy="699.248" r="4" fill="#0" id="circle98"/>
	<circle cx="727.51" cy="12.4786" r="4" fill="#0" id="circle99"/>
	<circle cx="727.51" cy="727.51" r="4" fill="#0" id="circle100"/>
	<circle cx="733.162" cy="385.538" r="4" fill="#0" id="circle101"/>
	<circle cx="735.989" cy="320.536" r="4" fill="#0" id="circle102"/>
	<circle cx="735.989" cy="755.772" r="4" fill="#0" id="circle103"/>
	<circle cx="741.641" cy="651.202" r="4" fill="#0" id="circle104"/>
	<circle cx="752.946" cy="26.6097" r="4" fill="#0" id="circle105"/>
	<circle cx="752.946" cy="156.615" r="4" fill="#0" id="circle106"/>
	<circle cx="752.946" cy="184.877" r="4" fill="#0" id="circle107"/>
	<circle cx="752.946" cy="292.274" r="4" fill="#0" id="circle108"/>
	<circle cx="758.598" cy="264.011" r="4" fill="#0" id="circle109"/>
	<circle cx="758.598" cy="399.67" r="4" fill="#0" id="circle110"/>
	<circle cx="761.425" cy="213.14" r="4" fill="#0" id="circle111"/>
	<circle cx="764.251" cy="128.353" r="4" fill="#0" id="circle112"/>
	<circle cx="769.903" cy="49.2194" r="4" fill="#0" id="circle113"/>
	<circle cx="769.903" cy="637.071" r="4" fill="#0" id="circle114"/>
	<circle cx="775.556" cy="77.4815" r="4" fill="#0" id="circle115"/>
	<circle cx="778.382" cy="422.279" r="4" fill="#0" id="circle116"/>
	<circle cx="792.513" cy="614.462" r="4" fill="#0" id="circle117"/>
	<circle cx="800.991" cy="439.236" r="4" fill="#0" id="circle118"/>
	<circle cx="809.47" cy="591.852" r="4" fill="#0" id="circle119"/>
	<circle cx="815.123" cy="464.672" r="4" fill="#0" id="circle120"/>
	<circle cx="826.427" cy="569.242" r="4" fill="#0" id="circle121"/>
	<circle cx="829.254" cy="490.108" r="4" fill="#0" id="circle122"/>
	<circle cx="832.08" cy="524.023" r="4" fill="#0" id="circle123"/>
	</g>
</svg>