<?xml version="1.0" encoding="UTF-8" standalone="no"?>
<!-- Created with CurveBenchmark -->
<svg
	xmlns:dc="http://purl.org/dc/elements/1.1/"
	xmlns:cc="http://creativecommons.org/ns#"
	xmlns:rdf="http://www.w3.org/1999/02/22-rdf-syntax-ns#"
	xmlns:svg="http://www.w3.org/2000/svg"
	xmlns="http://www.w3.org/2000/svg"
	xmlns:sodipodi="http://sodipodi.sourceforge.net/DTD/sodipodi-0.dtd"
	xmlns:inkscape="http://www.inkscape.org/namespaces/inkscape"
	width="1000"
	height="1000"
	id="svg2"
	version="1.1"
	sodipodi:docname="manifold/vicur-bunny08.png.txt">
<defs
	id="defs4" />
<metadata
	id="metadata7">
	<rdf:RDF>
		<cc:Work
			rdf:about="">
			<dc:format>image/svg+xml</dc:format>
			<dc:type
				rdf:resource="http://purl.org/dc/dcmitype/StillImage" />
			<dc:title></dc:title>
		</cc:Work>
	</rdf:RDF>
</metadata>
<g
	inkscape:label="Layer 1"
	inkscape:groupmode="layer"
	id="layer1">
	<path style="fill:none;stroke:red;stroke-width:1px;stroke-linecap:butt;stroke-linejoin:miter;stroke-opacity:1" d="M 4,500 4,522.752 z" id="boundary" inkscape:connector-curvature="0" />
	<path style="fill:none;stroke:red;stroke-width:1px;stroke-linecap:butt;stroke-linejoin:miter;stroke-opacity:1" d="M 4,500 26.7523,477.248 z" id="boundary" inkscape:connector-curvature="0" />
	<path style="fill:none;stroke:red;stroke-width:1px;stroke-linecap:butt;stroke-linejoin:miter;stroke-opacity:1" d="M 4,522.752 26.7523,552.33 z" id="boundary" inkscape:connector-curvature="0" />
	<path style="fill:none;stroke:red;stroke-width:1px;stroke-linecap:butt;stroke-linejoin:miter;stroke-opacity:1" d="M 26.7523,477.248 38.1284,443.119 z" id="boundary" inkscape:connector-curvature="0" />
	<path style="fill:none;stroke:red;stroke-width:1px;stroke-linecap:butt;stroke-linejoin:miter;stroke-opacity:1" d="M 26.7523,529.578 26.7523,552.33 z" id="boundary" inkscape:connector-curvature="0" />
	<path style="fill:none;stroke:red;stroke-width:1px;stroke-linecap:butt;stroke-linejoin:miter;stroke-opacity:1" d="M 33.578,575.083 56.3303,584.183 z" id="boundary" inkscape:connector-curvature="0" />
	<path style="fill:none;stroke:red;stroke-width:1px;stroke-linecap:butt;stroke-linejoin:miter;stroke-opacity:1" d="M 38.1284,443.119 56.3303,424.917 z" id="boundary" inkscape:connector-curvature="0" />
	<path style="fill:none;stroke:red;stroke-width:1px;stroke-linecap:butt;stroke-linejoin:miter;stroke-opacity:1" d="M 56.3303,424.917 67.7064,402.165 z" id="boundary" inkscape:connector-curvature="0" />
	<path style="fill:none;stroke:red;stroke-width:1px;stroke-linecap:butt;stroke-linejoin:miter;stroke-opacity:1" d="M 56.3303,584.183 74.5321,597.835 z" id="boundary" inkscape:connector-curvature="0" />
	<path style="fill:none;stroke:red;stroke-width:1px;stroke-linecap:butt;stroke-linejoin:miter;stroke-opacity:1" d="M 67.7064,402.165 85.9083,383.963 z" id="boundary" inkscape:connector-curvature="0" />
	<path style="fill:none;stroke:red;stroke-width:1px;stroke-linecap:butt;stroke-linejoin:miter;stroke-opacity:1" d="M 74.5321,597.835 97.2844,602.385 z" id="boundary" inkscape:connector-curvature="0" />
	<path style="fill:none;stroke:red;stroke-width:1px;stroke-linecap:butt;stroke-linejoin:miter;stroke-opacity:1" d="M 85.9083,383.963 97.2844,361.211 z" id="boundary" inkscape:connector-curvature="0" />
	<path style="fill:none;stroke:red;stroke-width:1px;stroke-linecap:butt;stroke-linejoin:miter;stroke-opacity:1" d="M 97.2844,361.211 115.486,345.284 z" id="boundary" inkscape:connector-curvature="0" />
	<path style="fill:none;stroke:red;stroke-width:1px;stroke-linecap:butt;stroke-linejoin:miter;stroke-opacity:1" d="M 97.2844,602.385 120.037,609.211 z" id="boundary" inkscape:connector-curvature="0" />
	<path style="fill:none;stroke:red;stroke-width:1px;stroke-linecap:butt;stroke-linejoin:miter;stroke-opacity:1" d="M 115.486,345.284 135.963,333.908 z" id="boundary" inkscape:connector-curvature="0" />
	<path style="fill:none;stroke:red;stroke-width:1px;stroke-linecap:butt;stroke-linejoin:miter;stroke-opacity:1" d="M 120.037,609.211 140.514,620.587 z" id="boundary" inkscape:connector-curvature="0" />
	<path style="fill:none;stroke:red;stroke-width:1px;stroke-linecap:butt;stroke-linejoin:miter;stroke-opacity:1" d="M 135.963,333.908 156.44,322.532 z" id="boundary" inkscape:connector-curvature="0" />
	<path style="fill:none;stroke:red;stroke-width:1px;stroke-linecap:butt;stroke-linejoin:miter;stroke-opacity:1" d="M 140.514,620.587 160.991,631.963 z" id="boundary" inkscape:connector-curvature="0" />
	<path style="fill:none;stroke:red;stroke-width:1px;stroke-linecap:butt;stroke-linejoin:miter;stroke-opacity:1" d="M 156.44,322.532 179.193,322.532 z" id="boundary" inkscape:connector-curvature="0" />
	<path style="fill:none;stroke:red;stroke-width:1px;stroke-linecap:butt;stroke-linejoin:miter;stroke-opacity:1" d="M 160.991,631.963 176.917,650.165 z" id="boundary" inkscape:connector-curvature="0" />
	<path style="fill:none;stroke:red;stroke-width:1px;stroke-linecap:butt;stroke-linejoin:miter;stroke-opacity:1" d="M 174.642,750.275 174.642,773.028 z" id="boundary" inkscape:connector-curvature="0" />
	<path style="fill:none;stroke:red;stroke-width:1px;stroke-linecap:butt;stroke-linejoin:miter;stroke-opacity:1" d="M 174.642,750.275 192.844,732.073 z" id="boundary" inkscape:connector-curvature="0" />
	<path style="fill:none;stroke:red;stroke-width:1px;stroke-linecap:butt;stroke-linejoin:miter;stroke-opacity:1" d="M 174.642,773.028 192.844,788.954 z" id="boundary" inkscape:connector-curvature="0" />
	<path style="fill:none;stroke:red;stroke-width:1px;stroke-linecap:butt;stroke-linejoin:miter;stroke-opacity:1" d="M 176.917,650.165 186.018,672.917 z" id="boundary" inkscape:connector-curvature="0" />
	<path style="fill:none;stroke:red;stroke-width:1px;stroke-linecap:butt;stroke-linejoin:miter;stroke-opacity:1" d="M 179.193,322.532 197.394,295.229 z" id="boundary" inkscape:connector-curvature="0" />
	<path style="fill:none;stroke:red;stroke-width:1px;stroke-linecap:butt;stroke-linejoin:miter;stroke-opacity:1" d="M 186.018,672.917 197.394,693.394 z" id="boundary" inkscape:connector-curvature="0" />
	<path style="fill:none;stroke:red;stroke-width:1px;stroke-linecap:butt;stroke-linejoin:miter;stroke-opacity:1" d="M 192.844,732.073 208.771,713.872 z" id="boundary" inkscape:connector-curvature="0" />
	<path style="fill:none;stroke:red;stroke-width:1px;stroke-linecap:butt;stroke-linejoin:miter;stroke-opacity:1" d="M 192.844,788.954 211.046,802.606 z" id="boundary" inkscape:connector-curvature="0" />
	<path style="fill:none;stroke:red;stroke-width:1px;stroke-linecap:butt;stroke-linejoin:miter;stroke-opacity:1" d="M 197.394,181.468 197.394,204.22 z" id="boundary" inkscape:connector-curvature="0" />
	<path style="fill:none;stroke:red;stroke-width:1px;stroke-linecap:butt;stroke-linejoin:miter;stroke-opacity:1" d="M 197.394,181.468 208.771,158.716 z" id="boundary" inkscape:connector-curvature="0" />
	<path style="fill:none;stroke:red;stroke-width:1px;stroke-linecap:butt;stroke-linejoin:miter;stroke-opacity:1" d="M 197.394,204.22 197.394,226.972 z" id="boundary" inkscape:connector-curvature="0" />
	<path style="fill:none;stroke:red;stroke-width:1px;stroke-linecap:butt;stroke-linejoin:miter;stroke-opacity:1" d="M 197.394,226.972 197.394,249.725 z" id="boundary" inkscape:connector-curvature="0" />
	<path style="fill:none;stroke:red;stroke-width:1px;stroke-linecap:butt;stroke-linejoin:miter;stroke-opacity:1" d="M 197.394,249.725 197.394,272.477 z" id="boundary" inkscape:connector-curvature="0" />
	<path style="fill:none;stroke:red;stroke-width:1px;stroke-linecap:butt;stroke-linejoin:miter;stroke-opacity:1" d="M 197.394,272.477 197.394,295.229 z" id="boundary" inkscape:connector-curvature="0" />
	<path style="fill:none;stroke:red;stroke-width:1px;stroke-linecap:butt;stroke-linejoin:miter;stroke-opacity:1" d="M 197.394,693.394 208.771,713.872 z" id="boundary" inkscape:connector-curvature="0" />
	<path style="fill:none;stroke:red;stroke-width:1px;stroke-linecap:butt;stroke-linejoin:miter;stroke-opacity:1" d="M 208.771,158.716 220.147,135.963 z" id="boundary" inkscape:connector-curvature="0" />
	<path style="fill:none;stroke:red;stroke-width:1px;stroke-linecap:butt;stroke-linejoin:miter;stroke-opacity:1" d="M 211.046,802.606 233.798,802.606 z" id="boundary" inkscape:connector-curvature="0" />
	<path style="fill:none;stroke:red;stroke-width:1px;stroke-linecap:butt;stroke-linejoin:miter;stroke-opacity:1" d="M 220.147,135.963 231.523,113.211 z" id="boundary" inkscape:connector-curvature="0" />
	<path style="fill:none;stroke:red;stroke-width:1px;stroke-linecap:butt;stroke-linejoin:miter;stroke-opacity:1" d="M 231.523,113.211 242.899,90.4587 z" id="boundary" inkscape:connector-curvature="0" />
	<path style="fill:none;stroke:red;stroke-width:1px;stroke-linecap:butt;stroke-linejoin:miter;stroke-opacity:1" d="M 233.798,802.606 254.275,813.982 z" id="boundary" inkscape:connector-curvature="0" />
	<path style="fill:none;stroke:red;stroke-width:1px;stroke-linecap:butt;stroke-linejoin:miter;stroke-opacity:1" d="M 242.899,90.4587 261.101,72.2569 z" id="boundary" inkscape:connector-curvature="0" />
	<path style="fill:none;stroke:red;stroke-width:1px;stroke-linecap:butt;stroke-linejoin:miter;stroke-opacity:1" d="M 254.275,813.982 274.752,825.358 z" id="boundary" inkscape:connector-curvature="0" />
	<path style="fill:none;stroke:red;stroke-width:1px;stroke-linecap:butt;stroke-linejoin:miter;stroke-opacity:1" d="M 261.101,72.2569 272.477,49.5046 z" id="boundary" inkscape:connector-curvature="0" />
	<path style="fill:none;stroke:red;stroke-width:1px;stroke-linecap:butt;stroke-linejoin:miter;stroke-opacity:1" d="M 272.477,49.5046 292.954,38.1284 z" id="boundary" inkscape:connector-curvature="0" />
	<path style="fill:none;stroke:red;stroke-width:1px;stroke-linecap:butt;stroke-linejoin:miter;stroke-opacity:1" d="M 274.752,825.358 297.505,825.358 z" id="boundary" inkscape:connector-curvature="0" />
	<path style="fill:none;stroke:red;stroke-width:1px;stroke-linecap:butt;stroke-linejoin:miter;stroke-opacity:1" d="M 292.954,38.1284 313.431,26.7523 z" id="boundary" inkscape:connector-curvature="0" />
	<path style="fill:none;stroke:red;stroke-width:1px;stroke-linecap:butt;stroke-linejoin:miter;stroke-opacity:1" d="M 297.505,825.358 320.257,825.358 z" id="boundary" inkscape:connector-curvature="0" />
	<path style="fill:none;stroke:red;stroke-width:1px;stroke-linecap:butt;stroke-linejoin:miter;stroke-opacity:1" d="M 313.431,26.7523 336.183,19.9266 z" id="boundary" inkscape:connector-curvature="0" />
	<path style="fill:none;stroke:red;stroke-width:1px;stroke-linecap:butt;stroke-linejoin:miter;stroke-opacity:1" d="M 320.257,825.358 343.009,825.358 z" id="boundary" inkscape:connector-curvature="0" />
	<path style="fill:none;stroke:red;stroke-width:1px;stroke-linecap:butt;stroke-linejoin:miter;stroke-opacity:1" d="M 336.183,19.9266 354.385,4 z" id="boundary" inkscape:connector-curvature="0" />
	<path style="fill:none;stroke:red;stroke-width:1px;stroke-linecap:butt;stroke-linejoin:miter;stroke-opacity:1" d="M 336.183,324.807 347.56,345.284 z" id="boundary" inkscape:connector-curvature="0" />
	<path style="fill:none;stroke:red;stroke-width:1px;stroke-linecap:butt;stroke-linejoin:miter;stroke-opacity:1" d="M 336.183,324.807 358.936,324.807 z" id="boundary" inkscape:connector-curvature="0" />
	<path style="fill:none;stroke:red;stroke-width:1px;stroke-linecap:butt;stroke-linejoin:miter;stroke-opacity:1" d="M 343.009,825.358 365.761,825.358 z" id="boundary" inkscape:connector-curvature="0" />
	<path style="fill:none;stroke:red;stroke-width:1px;stroke-linecap:butt;stroke-linejoin:miter;stroke-opacity:1" d="M 347.56,345.284 370.312,345.284 z" id="boundary" inkscape:connector-curvature="0" />
	<path style="fill:none;stroke:red;stroke-width:1px;stroke-linecap:butt;stroke-linejoin:miter;stroke-opacity:1" d="M 354.385,4 374.862,15.3761 z" id="boundary" inkscape:connector-curvature="0" />
	<path style="fill:none;stroke:red;stroke-width:1px;stroke-linecap:butt;stroke-linejoin:miter;stroke-opacity:1" d="M 358.936,324.807 381.688,313.431 z" id="boundary" inkscape:connector-curvature="0" />
	<path style="fill:none;stroke:red;stroke-width:1px;stroke-linecap:butt;stroke-linejoin:miter;stroke-opacity:1" d="M 365.761,825.358 388.514,825.358 z" id="boundary" inkscape:connector-curvature="0" />
	<path style="fill:none;stroke:red;stroke-width:1px;stroke-linecap:butt;stroke-linejoin:miter;stroke-opacity:1" d="M 370.312,345.284 393.064,352.11 z" id="boundary" inkscape:connector-curvature="0" />
	<path style="fill:none;stroke:red;stroke-width:1px;stroke-linecap:butt;stroke-linejoin:miter;stroke-opacity:1" d="M 374.862,15.3761 393.064,29.0275 z" id="boundary" inkscape:connector-curvature="0" />
	<path style="fill:none;stroke:red;stroke-width:1px;stroke-linecap:butt;stroke-linejoin:miter;stroke-opacity:1" d="M 381.688,313.431 399.89,297.505 z" id="boundary" inkscape:connector-curvature="0" />
	<path style="fill:none;stroke:red;stroke-width:1px;stroke-linecap:butt;stroke-linejoin:miter;stroke-opacity:1" d="M 388.514,825.358 411.266,825.358 z" id="boundary" inkscape:connector-curvature="0" />
	<path style="fill:none;stroke:red;stroke-width:1px;stroke-linecap:butt;stroke-linejoin:miter;stroke-opacity:1" d="M 393.064,29.0275 393.064,51.7798 z" id="boundary" inkscape:connector-curvature="0" />
	<path style="fill:none;stroke:red;stroke-width:1px;stroke-linecap:butt;stroke-linejoin:miter;stroke-opacity:1" d="M 393.064,51.7798 415.817,60.8807 z" id="boundary" inkscape:connector-curvature="0" />
	<path style="fill:none;stroke:red;stroke-width:1px;stroke-linecap:butt;stroke-linejoin:miter;stroke-opacity:1" d="M 393.064,352.11 413.541,363.486 z" id="boundary" inkscape:connector-curvature="0" />
	<path style="fill:none;stroke:red;stroke-width:1px;stroke-linecap:butt;stroke-linejoin:miter;stroke-opacity:1" d="M 399.89,297.505 415.817,279.303 z" id="boundary" inkscape:connector-curvature="0" />
	<path style="fill:none;stroke:red;stroke-width:1px;stroke-linecap:butt;stroke-linejoin:miter;stroke-opacity:1" d="M 411.266,825.358 431.743,813.982 z" id="boundary" inkscape:connector-curvature="0" />
	<path style="fill:none;stroke:red;stroke-width:1px;stroke-linecap:butt;stroke-linejoin:miter;stroke-opacity:1" d="M 413.541,363.486 436.294,368.037 z" id="boundary" inkscape:connector-curvature="0" />
	<path style="fill:none;stroke:red;stroke-width:1px;stroke-linecap:butt;stroke-linejoin:miter;stroke-opacity:1" d="M 415.817,60.8807 436.294,49.5046 z" id="boundary" inkscape:connector-curvature="0" />
	<path style="fill:none;stroke:red;stroke-width:1px;stroke-linecap:butt;stroke-linejoin:miter;stroke-opacity:1" d="M 415.817,279.303 427.193,256.55 z" id="boundary" inkscape:connector-curvature="0" />
	<path style="fill:none;stroke:red;stroke-width:1px;stroke-linecap:butt;stroke-linejoin:miter;stroke-opacity:1" d="M 427.193,233.798 427.193,256.55 z" id="boundary" inkscape:connector-curvature="0" />
	<path style="fill:none;stroke:red;stroke-width:1px;stroke-linecap:butt;stroke-linejoin:miter;stroke-opacity:1" d="M 427.193,233.798 438.569,211.046 z" id="boundary" inkscape:connector-curvature="0" />
	<path style="fill:none;stroke:red;stroke-width:1px;stroke-linecap:butt;stroke-linejoin:miter;stroke-opacity:1" d="M 431.743,813.982 454.495,813.982 z" id="boundary" inkscape:connector-curvature="0" />
	<path style="fill:none;stroke:red;stroke-width:1px;stroke-linecap:butt;stroke-linejoin:miter;stroke-opacity:1" d="M 436.294,49.5046 459.046,54.055 z" id="boundary" inkscape:connector-curvature="0" />
	<path style="fill:none;stroke:red;stroke-width:1px;stroke-linecap:butt;stroke-linejoin:miter;stroke-opacity:1" d="M 436.294,368.037 456.771,379.413 z" id="boundary" inkscape:connector-curvature="0" />
	<path style="fill:none;stroke:red;stroke-width:1px;stroke-linecap:butt;stroke-linejoin:miter;stroke-opacity:1" d="M 438.569,165.541 438.569,188.294 z" id="boundary" inkscape:connector-curvature="0" />
	<path style="fill:none;stroke:red;stroke-width:1px;stroke-linecap:butt;stroke-linejoin:miter;stroke-opacity:1" d="M 438.569,165.541 449.945,131.413 z" id="boundary" inkscape:connector-curvature="0" />
	<path style="fill:none;stroke:red;stroke-width:1px;stroke-linecap:butt;stroke-linejoin:miter;stroke-opacity:1" d="M 438.569,188.294 438.569,211.046 z" id="boundary" inkscape:connector-curvature="0" />
	<path style="fill:none;stroke:red;stroke-width:1px;stroke-linecap:butt;stroke-linejoin:miter;stroke-opacity:1" d="M 449.945,131.413 461.321,99.5596 z" id="boundary" inkscape:connector-curvature="0" />
	<path style="fill:none;stroke:red;stroke-width:1px;stroke-linecap:butt;stroke-linejoin:miter;stroke-opacity:1" d="M 454.495,813.982 477.248,811.706 z" id="boundary" inkscape:connector-curvature="0" />
	<path style="fill:none;stroke:red;stroke-width:1px;stroke-linecap:butt;stroke-linejoin:miter;stroke-opacity:1" d="M 456.771,379.413 479.523,379.413 z" id="boundary" inkscape:connector-curvature="0" />
	<path style="fill:none;stroke:red;stroke-width:1px;stroke-linecap:butt;stroke-linejoin:miter;stroke-opacity:1" d="M 459.046,54.055 461.321,76.8073 z" id="boundary" inkscape:connector-curvature="0" />
	<path style="fill:none;stroke:red;stroke-width:1px;stroke-linecap:butt;stroke-linejoin:miter;stroke-opacity:1" d="M 461.321,76.8073 461.321,99.5596 z" id="boundary" inkscape:connector-curvature="0" />
	<path style="fill:none;stroke:red;stroke-width:1px;stroke-linecap:butt;stroke-linejoin:miter;stroke-opacity:1" d="M 477.248,811.706 500,802.606 z" id="boundary" inkscape:connector-curvature="0" />
	<path style="fill:none;stroke:red;stroke-width:1px;stroke-linecap:butt;stroke-linejoin:miter;stroke-opacity:1" d="M 479.523,379.413 500,368.037 z" id="boundary" inkscape:connector-curvature="0" />
	<path style="fill:none;stroke:red;stroke-width:1px;stroke-linecap:butt;stroke-linejoin:miter;stroke-opacity:1" d="M 500,368.037 522.752,356.661 z" id="boundary" inkscape:connector-curvature="0" />
	<path style="fill:none;stroke:red;stroke-width:1px;stroke-linecap:butt;stroke-linejoin:miter;stroke-opacity:1" d="M 500,802.606 520.477,813.982 z" id="boundary" inkscape:connector-curvature="0" />
	<path style="fill:none;stroke:red;stroke-width:1px;stroke-linecap:butt;stroke-linejoin:miter;stroke-opacity:1" d="M 520.477,813.982 543.229,813.982 z" id="boundary" inkscape:connector-curvature="0" />
	<path style="fill:none;stroke:red;stroke-width:1px;stroke-linecap:butt;stroke-linejoin:miter;stroke-opacity:1" d="M 522.752,356.661 543.229,345.284 z" id="boundary" inkscape:connector-curvature="0" />
	<path style="fill:none;stroke:red;stroke-width:1px;stroke-linecap:butt;stroke-linejoin:miter;stroke-opacity:1" d="M 543.229,345.284 565.982,336.183 z" id="boundary" inkscape:connector-curvature="0" />
	<path style="fill:none;stroke:red;stroke-width:1px;stroke-linecap:butt;stroke-linejoin:miter;stroke-opacity:1" d="M 543.229,813.982 565.982,813.982 z" id="boundary" inkscape:connector-curvature="0" />
	<path style="fill:none;stroke:red;stroke-width:1px;stroke-linecap:butt;stroke-linejoin:miter;stroke-opacity:1" d="M 565.982,336.183 588.734,324.807 z" id="boundary" inkscape:connector-curvature="0" />
	<path style="fill:none;stroke:red;stroke-width:1px;stroke-linecap:butt;stroke-linejoin:miter;stroke-opacity:1" d="M 565.982,813.982 588.734,813.982 z" id="boundary" inkscape:connector-curvature="0" />
	<path style="fill:none;stroke:red;stroke-width:1px;stroke-linecap:butt;stroke-linejoin:miter;stroke-opacity:1" d="M 588.734,324.807 611.486,322.532 z" id="boundary" inkscape:connector-curvature="0" />
	<path style="fill:none;stroke:red;stroke-width:1px;stroke-linecap:butt;stroke-linejoin:miter;stroke-opacity:1" d="M 588.734,813.982 609.211,825.358 z" id="boundary" inkscape:connector-curvature="0" />
	<path style="fill:none;stroke:red;stroke-width:1px;stroke-linecap:butt;stroke-linejoin:miter;stroke-opacity:1" d="M 609.211,825.358 631.963,825.358 z" id="boundary" inkscape:connector-curvature="0" />
	<path style="fill:none;stroke:red;stroke-width:1px;stroke-linecap:butt;stroke-linejoin:miter;stroke-opacity:1" d="M 611.486,322.532 634.239,322.532 z" id="boundary" inkscape:connector-curvature="0" />
	<path style="fill:none;stroke:red;stroke-width:1px;stroke-linecap:butt;stroke-linejoin:miter;stroke-opacity:1" d="M 631.963,825.358 654.716,825.358 z" id="boundary" inkscape:connector-curvature="0" />
	<path style="fill:none;stroke:red;stroke-width:1px;stroke-linecap:butt;stroke-linejoin:miter;stroke-opacity:1" d="M 634.239,322.532 656.991,322.532 z" id="boundary" inkscape:connector-curvature="0" />
	<path style="fill:none;stroke:red;stroke-width:1px;stroke-linecap:butt;stroke-linejoin:miter;stroke-opacity:1" d="M 654.716,825.358 677.468,825.358 z" id="boundary" inkscape:connector-curvature="0" />
	<path style="fill:none;stroke:red;stroke-width:1px;stroke-linecap:butt;stroke-linejoin:miter;stroke-opacity:1" d="M 656.991,322.532 679.743,322.532 z" id="boundary" inkscape:connector-curvature="0" />
	<path style="fill:none;stroke:red;stroke-width:1px;stroke-linecap:butt;stroke-linejoin:miter;stroke-opacity:1" d="M 677.468,825.358 700.22,825.358 z" id="boundary" inkscape:connector-curvature="0" />
	<path style="fill:none;stroke:red;stroke-width:1px;stroke-linecap:butt;stroke-linejoin:miter;stroke-opacity:1" d="M 679.743,322.532 702.495,322.532 z" id="boundary" inkscape:connector-curvature="0" />
	<path style="fill:none;stroke:red;stroke-width:1px;stroke-linecap:butt;stroke-linejoin:miter;stroke-opacity:1" d="M 700.22,825.358 722.972,813.982 z" id="boundary" inkscape:connector-curvature="0" />
	<path style="fill:none;stroke:red;stroke-width:1px;stroke-linecap:butt;stroke-linejoin:miter;stroke-opacity:1" d="M 702.495,322.532 722.972,333.908 z" id="boundary" inkscape:connector-curvature="0" />
	<path style="fill:none;stroke:red;stroke-width:1px;stroke-linecap:butt;stroke-linejoin:miter;stroke-opacity:1" d="M 722.972,333.908 745.725,340.734 z" id="boundary" inkscape:connector-curvature="0" />
	<path style="fill:none;stroke:red;stroke-width:1px;stroke-linecap:butt;stroke-linejoin:miter;stroke-opacity:1" d="M 722.972,813.982 745.725,813.982 z" id="boundary" inkscape:connector-curvature="0" />
	<path style="fill:none;stroke:red;stroke-width:1px;stroke-linecap:butt;stroke-linejoin:miter;stroke-opacity:1" d="M 745.725,340.734 768.477,345.284 z" id="boundary" inkscape:connector-curvature="0" />
	<path style="fill:none;stroke:red;stroke-width:1px;stroke-linecap:butt;stroke-linejoin:miter;stroke-opacity:1" d="M 745.725,813.982 768.477,813.982 z" id="boundary" inkscape:connector-curvature="0" />
	<path style="fill:none;stroke:red;stroke-width:1px;stroke-linecap:butt;stroke-linejoin:miter;stroke-opacity:1" d="M 768.477,345.284 788.954,356.661 z" id="boundary" inkscape:connector-curvature="0" />
	<path style="fill:none;stroke:red;stroke-width:1px;stroke-linecap:butt;stroke-linejoin:miter;stroke-opacity:1" d="M 768.477,813.982 791.229,813.982 z" id="boundary" inkscape:connector-curvature="0" />
	<path style="fill:none;stroke:red;stroke-width:1px;stroke-linecap:butt;stroke-linejoin:miter;stroke-opacity:1" d="M 788.954,356.661 807.156,370.312 z" id="boundary" inkscape:connector-curvature="0" />
	<path style="fill:none;stroke:red;stroke-width:1px;stroke-linecap:butt;stroke-linejoin:miter;stroke-opacity:1" d="M 791.229,813.982 813.982,813.982 z" id="boundary" inkscape:connector-curvature="0" />
	<path style="fill:none;stroke:red;stroke-width:1px;stroke-linecap:butt;stroke-linejoin:miter;stroke-opacity:1" d="M 807.156,370.312 825.358,386.239 z" id="boundary" inkscape:connector-curvature="0" />
	<path style="fill:none;stroke:red;stroke-width:1px;stroke-linecap:butt;stroke-linejoin:miter;stroke-opacity:1" d="M 813.982,813.982 836.734,813.982 z" id="boundary" inkscape:connector-curvature="0" />
	<path style="fill:none;stroke:red;stroke-width:1px;stroke-linecap:butt;stroke-linejoin:miter;stroke-opacity:1" d="M 825.358,386.239 841.284,404.44 z" id="boundary" inkscape:connector-curvature="0" />
	<path style="fill:none;stroke:red;stroke-width:1px;stroke-linecap:butt;stroke-linejoin:miter;stroke-opacity:1" d="M 836.734,813.982 859.486,813.982 z" id="boundary" inkscape:connector-curvature="0" />
	<path style="fill:none;stroke:red;stroke-width:1px;stroke-linecap:butt;stroke-linejoin:miter;stroke-opacity:1" d="M 841.284,404.44 859.486,420.367 z" id="boundary" inkscape:connector-curvature="0" />
	<path style="fill:none;stroke:red;stroke-width:1px;stroke-linecap:butt;stroke-linejoin:miter;stroke-opacity:1" d="M 859.486,420.367 875.413,438.569 z" id="boundary" inkscape:connector-curvature="0" />
	<path style="fill:none;stroke:red;stroke-width:1px;stroke-linecap:butt;stroke-linejoin:miter;stroke-opacity:1" d="M 859.486,813.982 882.239,802.606 z" id="boundary" inkscape:connector-curvature="0" />
	<path style="fill:none;stroke:red;stroke-width:1px;stroke-linecap:butt;stroke-linejoin:miter;stroke-opacity:1" d="M 875.413,438.569 893.615,454.495 z" id="boundary" inkscape:connector-curvature="0" />
	<path style="fill:none;stroke:red;stroke-width:1px;stroke-linecap:butt;stroke-linejoin:miter;stroke-opacity:1" d="M 882.239,802.606 893.615,779.853 z" id="boundary" inkscape:connector-curvature="0" />
	<path style="fill:none;stroke:red;stroke-width:1px;stroke-linecap:butt;stroke-linejoin:miter;stroke-opacity:1" d="M 893.615,454.495 902.716,477.248 z" id="boundary" inkscape:connector-curvature="0" />
	<path style="fill:none;stroke:red;stroke-width:1px;stroke-linecap:butt;stroke-linejoin:miter;stroke-opacity:1" d="M 893.615,779.853 911.817,763.927 z" id="boundary" inkscape:connector-curvature="0" />
	<path style="fill:none;stroke:red;stroke-width:1px;stroke-linecap:butt;stroke-linejoin:miter;stroke-opacity:1" d="M 902.716,477.248 916.367,495.45 z" id="boundary" inkscape:connector-curvature="0" />
	<path style="fill:none;stroke:red;stroke-width:1px;stroke-linecap:butt;stroke-linejoin:miter;stroke-opacity:1" d="M 911.817,763.927 923.193,741.174 z" id="boundary" inkscape:connector-curvature="0" />
	<path style="fill:none;stroke:red;stroke-width:1px;stroke-linecap:butt;stroke-linejoin:miter;stroke-opacity:1" d="M 916.367,495.45 916.367,518.202 z" id="boundary" inkscape:connector-curvature="0" />
	<path style="fill:none;stroke:red;stroke-width:1px;stroke-linecap:butt;stroke-linejoin:miter;stroke-opacity:1" d="M 916.367,518.202 939.119,527.303 z" id="boundary" inkscape:connector-curvature="0" />
	<path style="fill:none;stroke:red;stroke-width:1px;stroke-linecap:butt;stroke-linejoin:miter;stroke-opacity:1" d="M 923.193,741.174 932.294,711.596 z" id="boundary" inkscape:connector-curvature="0" />
	<path style="fill:none;stroke:red;stroke-width:1px;stroke-linecap:butt;stroke-linejoin:miter;stroke-opacity:1" d="M 927.743,688.844 932.294,711.596 z" id="boundary" inkscape:connector-curvature="0" />
	<path style="fill:none;stroke:red;stroke-width:1px;stroke-linecap:butt;stroke-linejoin:miter;stroke-opacity:1" d="M 927.743,688.844 950.495,688.844 z" id="boundary" inkscape:connector-curvature="0" />
	<path style="fill:none;stroke:red;stroke-width:1px;stroke-linecap:butt;stroke-linejoin:miter;stroke-opacity:1" d="M 939.119,527.303 961.872,527.303 z" id="boundary" inkscape:connector-curvature="0" />
	<path style="fill:none;stroke:red;stroke-width:1px;stroke-linecap:butt;stroke-linejoin:miter;stroke-opacity:1" d="M 950.495,688.844 973.248,677.468 z" id="boundary" inkscape:connector-curvature="0" />
	<path style="fill:none;stroke:red;stroke-width:1px;stroke-linecap:butt;stroke-linejoin:miter;stroke-opacity:1" d="M 961.872,527.303 973.248,547.78 z" id="boundary" inkscape:connector-curvature="0" />
	<path style="fill:none;stroke:red;stroke-width:1px;stroke-linecap:butt;stroke-linejoin:miter;stroke-opacity:1" d="M 973.248,547.78 984.624,568.257 z" id="boundary" inkscape:connector-curvature="0" />
	<path style="fill:none;stroke:red;stroke-width:1px;stroke-linecap:butt;stroke-linejoin:miter;stroke-opacity:1" d="M 973.248,677.468 991.45,661.541 z" id="boundary" inkscape:connector-curvature="0" />
	<path style="fill:none;stroke:red;stroke-width:1px;stroke-linecap:butt;stroke-linejoin:miter;stroke-opacity:1" d="M 984.624,568.257 996,588.734 z" id="boundary" inkscape:connector-curvature="0" />
	<path style="fill:none;stroke:red;stroke-width:1px;stroke-linecap:butt;stroke-linejoin:miter;stroke-opacity:1" d="M 991.45,661.541 996,634.239 z" id="boundary" inkscape:connector-curvature="0" />
	<path style="fill:none;stroke:red;stroke-width:1px;stroke-linecap:butt;stroke-linejoin:miter;stroke-opacity:1" d="M 996,588.734 996,611.486 z" id="boundary" inkscape:connector-curvature="0" />
	<path style="fill:none;stroke:red;stroke-width:1px;stroke-linecap:butt;stroke-linejoin:miter;stroke-opacity:1" d="M 996,611.486 996,634.239 z" id="boundary" inkscape:connector-curvature="0" />
	<circle cx="4" cy="500" r="4" fill="#0" id="circle0"/>
	<circle cx="4" cy="522.752" r="4" fill="#0" id="circle1"/>
	<circle cx="26.7523" cy="477.248" r="4" fill="#0" id="circle2"/>
	<circle cx="26.7523" cy="529.578" r="4" fill="#0" id="circle3"/>
	<circle cx="26.7523" cy="552.33" r="4" fill="#0" id="circle4"/>
	<circle cx="33.578" cy="575.083" r="4" fill="#0" id="circle5"/>
	<circle cx="38.1284" cy="443.119" r="4" fill="#0" id="circle6"/>
	<circle cx="56.3303" cy="424.917" r="4" fill="#0" id="circle7"/>
	<circle cx="56.3303" cy="584.183" r="4" fill="#0" id="circle8"/>
	<circle cx="67.7064" cy="402.165" r="4" fill="#0" id="circle9"/>
	<circle cx="74.5321" cy="597.835" r="4" fill="#0" id="circle10"/>
	<circle cx="85.9083" cy="383.963" r="4" fill="#0" id="circle11"/>
	<circle cx="97.2844" cy="361.211" r="4" fill="#0" id="circle12"/>
	<circle cx="97.2844" cy="602.385" r="4" fill="#0" id="circle13"/>
	<circle cx="115.486" cy="345.284" r="4" fill="#0" id="circle14"/>
	<circle cx="120.037" cy="609.211" r="4" fill="#0" id="circle15"/>
	<circle cx="135.963" cy="333.908" r="4" fill="#0" id="circle16"/>
	<circle cx="140.514" cy="620.587" r="4" fill="#0" id="circle17"/>
	<circle cx="156.44" cy="322.532" r="4" fill="#0" id="circle18"/>
	<circle cx="160.991" cy="631.963" r="4" fill="#0" id="circle19"/>
	<circle cx="174.642" cy="750.275" r="4" fill="#0" id="circle20"/>
	<circle cx="174.642" cy="773.028" r="4" fill="#0" id="circle21"/>
	<circle cx="176.917" cy="650.165" r="4" fill="#0" id="circle22"/>
	<circle cx="179.193" cy="322.532" r="4" fill="#0" id="circle23"/>
	<circle cx="186.018" cy="672.917" r="4" fill="#0" id="circle24"/>
	<circle cx="192.844" cy="732.073" r="4" fill="#0" id="circle25"/>
	<circle cx="192.844" cy="788.954" r="4" fill="#0" id="circle26"/>
	<circle cx="197.394" cy="181.468" r="4" fill="#0" id="circle27"/>
	<circle cx="197.394" cy="204.22" r="4" fill="#0" id="circle28"/>
	<circle cx="197.394" cy="226.972" r="4" fill="#0" id="circle29"/>
	<circle cx="197.394" cy="249.725" r="4" fill="#0" id="circle30"/>
	<circle cx="197.394" cy="272.477" r="4" fill="#0" id="circle31"/>
	<circle cx="197.394" cy="295.229" r="4" fill="#0" id="circle32"/>
	<circle cx="197.394" cy="693.394" r="4" fill="#0" id="circle33"/>
	<circle cx="208.771" cy="158.716" r="4" fill="#0" id="circle34"/>
	<circle cx="208.771" cy="713.872" r="4" fill="#0" id="circle35"/>
	<circle cx="211.046" cy="802.606" r="4" fill="#0" id="circle36"/>
	<circle cx="220.147" cy="135.963" r="4" fill="#0" id="circle37"/>
	<circle cx="231.523" cy="113.211" r="4" fill="#0" id="circle38"/>
	<circle cx="233.798" cy="802.606" r="4" fill="#0" id="circle39"/>
	<circle cx="242.899" cy="90.4587" r="4" fill="#0" id="circle40"/>
	<circle cx="254.275" cy="813.982" r="4" fill="#0" id="circle41"/>
	<circle cx="261.101" cy="72.2569" r="4" fill="#0" id="circle42"/>
	<circle cx="272.477" cy="49.5046" r="4" fill="#0" id="circle43"/>
	<circle cx="274.752" cy="825.358" r="4" fill="#0" id="circle44"/>
	<circle cx="292.954" cy="38.1284" r="4" fill="#0" id="circle45"/>
	<circle cx="297.505" cy="825.358" r="4" fill="#0" id="circle46"/>
	<circle cx="313.431" cy="26.7523" r="4" fill="#0" id="circle47"/>
	<circle cx="320.257" cy="825.358" r="4" fill="#0" id="circle48"/>
	<circle cx="336.183" cy="19.9266" r="4" fill="#0" id="circle49"/>
	<circle cx="336.183" cy="324.807" r="4" fill="#0" id="circle50"/>
	<circle cx="343.009" cy="825.358" r="4" fill="#0" id="circle51"/>
	<circle cx="347.56" cy="345.284" r="4" fill="#0" id="circle52"/>
	<circle cx="354.385" cy="4" r="4" fill="#0" id="circle53"/>
	<circle cx="358.936" cy="324.807" r="4" fill="#0" id="circle54"/>
	<circle cx="365.761" cy="825.358" r="4" fill="#0" id="circle55"/>
	<circle cx="370.312" cy="345.284" r="4" fill="#0" id="circle56"/>
	<circle cx="374.862" cy="15.3761" r="4" fill="#0" id="circle57"/>
	<circle cx="381.688" cy="313.431" r="4" fill="#0" id="circle58"/>
	<circle cx="388.514" cy="825.358" r="4" fill="#0" id="circle59"/>
	<circle cx="393.064" cy="29.0275" r="4" fill="#0" id="circle60"/>
	<circle cx="393.064" cy="51.7798" r="4" fill="#0" id="circle61"/>
	<circle cx="393.064" cy="352.11" r="4" fill="#0" id="circle62"/>
	<circle cx="399.89" cy="297.505" r="4" fill="#0" id="circle63"/>
	<circle cx="411.266" cy="825.358" r="4" fill="#0" id="circle64"/>
	<circle cx="413.541" cy="363.486" r="4" fill="#0" id="circle65"/>
	<circle cx="415.817" cy="60.8807" r="4" fill="#0" id="circle66"/>
	<circle cx="415.817" cy="279.303" r="4" fill="#0" id="circle67"/>
	<circle cx="427.193" cy="233.798" r="4" fill="#0" id="circle68"/>
	<circle cx="427.193" cy="256.55" r="4" fill="#0" id="circle69"/>
	<circle cx="431.743" cy="813.982" r="4" fill="#0" id="circle70"/>
	<circle cx="436.294" cy="49.5046" r="4" fill="#0" id="circle71"/>
	<circle cx="436.294" cy="368.037" r="4" fill="#0" id="circle72"/>
	<circle cx="438.569" cy="165.541" r="4" fill="#0" id="circle73"/>
	<circle cx="438.569" cy="188.294" r="4" fill="#0" id="circle74"/>
	<circle cx="438.569" cy="211.046" r="4" fill="#0" id="circle75"/>
	<circle cx="449.945" cy="131.413" r="4" fill="#0" id="circle76"/>
	<circle cx="454.495" cy="813.982" r="4" fill="#0" id="circle77"/>
	<circle cx="456.771" cy="379.413" r="4" fill="#0" id="circle78"/>
	<circle cx="459.046" cy="54.055" r="4" fill="#0" id="circle79"/>
	<circle cx="461.321" cy="76.8073" r="4" fill="#0" id="circle80"/>
	<circle cx="461.321" cy="99.5596" r="4" fill="#0" id="circle81"/>
	<circle cx="477.248" cy="811.706" r="4" fill="#0" id="circle82"/>
	<circle cx="479.523" cy="379.413" r="4" fill="#0" id="circle83"/>
	<circle cx="500" cy="368.037" r="4" fill="#0" id="circle84"/>
	<circle cx="500" cy="802.606" r="4" fill="#0" id="circle85"/>
	<circle cx="520.477" cy="813.982" r="4" fill="#0" id="circle86"/>
	<circle cx="522.752" cy="356.661" r="4" fill="#0" id="circle87"/>
	<circle cx="543.229" cy="345.284" r="4" fill="#0" id="circle88"/>
	<circle cx="543.229" cy="813.982" r="4" fill="#0" id="circle89"/>
	<circle cx="565.982" cy="336.183" r="4" fill="#0" id="circle90"/>
	<circle cx="565.982" cy="813.982" r="4" fill="#0" id="circle91"/>
	<circle cx="588.734" cy="324.807" r="4" fill="#0" id="circle92"/>
	<circle cx="588.734" cy="813.982" r="4" fill="#0" id="circle93"/>
	<circle cx="609.211" cy="825.358" r="4" fill="#0" id="circle94"/>
	<circle cx="611.486" cy="322.532" r="4" fill="#0" id="circle95"/>
	<circle cx="631.963" cy="825.358" r="4" fill="#0" id="circle96"/>
	<circle cx="634.239" cy="322.532" r="4" fill="#0" id="circle97"/>
	<circle cx="654.716" cy="825.358" r="4" fill="#0" id="circle98"/>
	<circle cx="656.991" cy="322.532" r="4" fill="#0" id="circle99"/>
	<circle cx="677.468" cy="825.358" r="4" fill="#0" id="circle100"/>
	<circle cx="679.743" cy="322.532" r="4" fill="#0" id="circle101"/>
	<circle cx="700.22" cy="825.358" r="4" fill="#0" id="circle102"/>
	<circle cx="702.495" cy="322.532" r="4" fill="#0" id="circle103"/>
	<circle cx="722.972" cy="333.908" r="4" fill="#0" id="circle104"/>
	<circle cx="722.972" cy="813.982" r="4" fill="#0" id="circle105"/>
	<circle cx="745.725" cy="340.734" r="4" fill="#0" id="circle106"/>
	<circle cx="745.725" cy="813.982" r="4" fill="#0" id="circle107"/>
	<circle cx="768.477" cy="345.284" r="4" fill="#0" id="circle108"/>
	<circle cx="768.477" cy="813.982" r="4" fill="#0" id="circle109"/>
	<circle cx="788.954" cy="356.661" r="4" fill="#0" id="circle110"/>
	<circle cx="791.229" cy="813.982" r="4" fill="#0" id="circle111"/>
	<circle cx="807.156" cy="370.312" r="4" fill="#0" id="circle112"/>
	<circle cx="813.982" cy="813.982" r="4" fill="#0" id="circle113"/>
	<circle cx="825.358" cy="386.239" r="4" fill="#0" id="circle114"/>
	<circle cx="836.734" cy="813.982" r="4" fill="#0" id="circle115"/>
	<circle cx="841.284" cy="404.44" r="4" fill="#0" id="circle116"/>
	<circle cx="859.486" cy="420.367" r="4" fill="#0" id="circle117"/>
	<circle cx="859.486" cy="813.982" r="4" fill="#0" id="circle118"/>
	<circle cx="875.413" cy="438.569" r="4" fill="#0" id="circle119"/>
	<circle cx="882.239" cy="802.606" r="4" fill="#0" id="circle120"/>
	<circle cx="893.615" cy="454.495" r="4" fill="#0" id="circle121"/>
	<circle cx="893.615" cy="779.853" r="4" fill="#0" id="circle122"/>
	<circle cx="902.716" cy="477.248" r="4" fill="#0" id="circle123"/>
	<circle cx="911.817" cy="763.927" r="4" fill="#0" id="circle124"/>
	<circle cx="916.367" cy="495.45" r="4" fill="#0" id="circle125"/>
	<circle cx="916.367" cy="518.202" r="4" fill="#0" id="circle126"/>
	<circle cx="923.193" cy="741.174" r="4" fill="#0" id="circle127"/>
	<circle cx="927.743" cy="688.844" r="4" fill="#0" id="circle128"/>
	<circle cx="932.294" cy="711.596" r="4" fill="#0" id="circle129"/>
	<circle cx="939.119" cy="527.303" r="4" fill="#0" id="circle130"/>
	<circle cx="950.495" cy="688.844" r="4" fill="#0" id="circle131"/>
	<circle cx="961.872" cy="527.303" r="4" fill="#0" id="circle132"/>
	<circle cx="973.248" cy="547.78" r="4" fill="#0" id="circle133"/>
	<circle cx="973.248" cy="677.468" r="4" fill="#0" id="circle134"/>
	<circle cx="984.624" cy="568.257" r="4" fill="#0" id="circle135"/>
	<circle cx="991.45" cy="661.541" r="4" fill="#0" id="circle136"/>
	<circle cx="996" cy="588.734" r="4" fill="#0" id="circle137"/>
	<circle cx="996" cy="611.486" r="4" fill="#0" id="circle138"/>
	<circle cx="996" cy="634.239" r="4" fill="#0" id="circle139"/>
	</g>
</svg>