<?xml version="1.0" encoding="UTF-8" standalone="no"?>
<!-- Created with CurveBenchmark -->
<svg
	xmlns:dc="http://purl.org/dc/elements/1.1/"
	xmlns:cc="http://creativecommons.org/ns#"
	xmlns:rdf="http://www.w3.org/1999/02/22-rdf-syntax-ns#"
	xmlns:svg="http://www.w3.org/2000/svg"
	xmlns="http://www.w3.org/2000/svg"
	xmlns:sodipodi="http://sodipodi.sourceforge.net/DTD/sodipodi-0.dtd"
	xmlns:inkscape="http://www.inkscape.org/namespaces/inkscape"
	width="1000"
	height="1000"
	id="svg2"
	version="1.1"
	sodipodi:docname="manifold/vicur-elephant19.png.txt">
<defs
	id="defs4" />
<metadata
	id="metadata7">
	<rdf:RDF>
		<cc:Work
			rdf:about="">
			<dc:format>image/svg+xml</dc:format>
			<dc:type
				rdf:resource="http://purl.org/dc/dcmitype/StillImage" />
			<dc:title></dc:title>
		</cc:Work>
	</rdf:RDF>
</metadata>
<g
	inkscape:label="Layer 1"
	inkscape:groupmode="layer"
	id="layer1">
	<path style="fill:none;stroke:red;stroke-width:1px;stroke-linecap:butt;stroke-linejoin:miter;stroke-opacity:1" d="M 4,103.029 4,120.103 z" id="boundary" inkscape:connector-curvature="0" />
	<path style="fill:none;stroke:red;stroke-width:1px;stroke-linecap:butt;stroke-linejoin:miter;stroke-opacity:1" d="M 4,103.029 12.537,85.9552 z" id="boundary" inkscape:connector-curvature="0" />
	<path style="fill:none;stroke:red;stroke-width:1px;stroke-linecap:butt;stroke-linejoin:miter;stroke-opacity:1" d="M 4,120.103 12.537,135.47 z" id="boundary" inkscape:connector-curvature="0" />
	<path style="fill:none;stroke:red;stroke-width:1px;stroke-linecap:butt;stroke-linejoin:miter;stroke-opacity:1" d="M 12.537,68.8812 12.537,85.9552 z" id="boundary" inkscape:connector-curvature="0" />
	<path style="fill:none;stroke:red;stroke-width:1px;stroke-linecap:butt;stroke-linejoin:miter;stroke-opacity:1" d="M 12.537,68.8812 21.074,51.8072 z" id="boundary" inkscape:connector-curvature="0" />
	<path style="fill:none;stroke:red;stroke-width:1px;stroke-linecap:butt;stroke-linejoin:miter;stroke-opacity:1" d="M 12.537,135.47 12.537,152.544 z" id="boundary" inkscape:connector-curvature="0" />
	<path style="fill:none;stroke:red;stroke-width:1px;stroke-linecap:butt;stroke-linejoin:miter;stroke-opacity:1" d="M 12.537,152.544 12.537,169.618 z" id="boundary" inkscape:connector-curvature="0" />
	<path style="fill:none;stroke:red;stroke-width:1px;stroke-linecap:butt;stroke-linejoin:miter;stroke-opacity:1" d="M 12.537,169.618 21.074,184.985 z" id="boundary" inkscape:connector-curvature="0" />
	<path style="fill:none;stroke:red;stroke-width:1px;stroke-linecap:butt;stroke-linejoin:miter;stroke-opacity:1" d="M 21.074,51.8072 34.7332,38.148 z" id="boundary" inkscape:connector-curvature="0" />
	<path style="fill:none;stroke:red;stroke-width:1px;stroke-linecap:butt;stroke-linejoin:miter;stroke-opacity:1" d="M 21.074,184.985 26.1962,202.059 z" id="boundary" inkscape:connector-curvature="0" />
	<path style="fill:none;stroke:red;stroke-width:1px;stroke-linecap:butt;stroke-linejoin:miter;stroke-opacity:1" d="M 26.1962,202.059 38.148,215.718 z" id="boundary" inkscape:connector-curvature="0" />
	<path style="fill:none;stroke:red;stroke-width:1px;stroke-linecap:butt;stroke-linejoin:miter;stroke-opacity:1" d="M 34.7332,38.148 48.3924,24.4888 z" id="boundary" inkscape:connector-curvature="0" />
	<path style="fill:none;stroke:red;stroke-width:1px;stroke-linecap:butt;stroke-linejoin:miter;stroke-opacity:1" d="M 38.148,215.718 46.685,231.084 z" id="boundary" inkscape:connector-curvature="0" />
	<path style="fill:none;stroke:red;stroke-width:1px;stroke-linecap:butt;stroke-linejoin:miter;stroke-opacity:1" d="M 46.685,231.084 55.222,246.451 z" id="boundary" inkscape:connector-curvature="0" />
	<path style="fill:none;stroke:red;stroke-width:1px;stroke-linecap:butt;stroke-linejoin:miter;stroke-opacity:1" d="M 46.685,290.843 55.222,306.21 z" id="boundary" inkscape:connector-curvature="0" />
	<path style="fill:none;stroke:red;stroke-width:1px;stroke-linecap:butt;stroke-linejoin:miter;stroke-opacity:1" d="M 46.685,290.843 63.759,289.136 z" id="boundary" inkscape:connector-curvature="0" />
	<path style="fill:none;stroke:red;stroke-width:1px;stroke-linecap:butt;stroke-linejoin:miter;stroke-opacity:1" d="M 48.3924,24.4888 62.0516,12.537 z" id="boundary" inkscape:connector-curvature="0" />
	<path style="fill:none;stroke:red;stroke-width:1px;stroke-linecap:butt;stroke-linejoin:miter;stroke-opacity:1" d="M 55.222,246.451 67.1738,260.11 z" id="boundary" inkscape:connector-curvature="0" />
	<path style="fill:none;stroke:red;stroke-width:1px;stroke-linecap:butt;stroke-linejoin:miter;stroke-opacity:1" d="M 55.222,306.21 67.1738,319.869 z" id="boundary" inkscape:connector-curvature="0" />
	<path style="fill:none;stroke:red;stroke-width:1px;stroke-linecap:butt;stroke-linejoin:miter;stroke-opacity:1" d="M 62.0516,12.537 77.4182,4 z" id="boundary" inkscape:connector-curvature="0" />
	<path style="fill:none;stroke:red;stroke-width:1px;stroke-linecap:butt;stroke-linejoin:miter;stroke-opacity:1" d="M 63.759,289.136 80.833,294.258 z" id="boundary" inkscape:connector-curvature="0" />
	<path style="fill:none;stroke:red;stroke-width:1px;stroke-linecap:butt;stroke-linejoin:miter;stroke-opacity:1" d="M 67.1738,260.11 80.833,270.355 z" id="boundary" inkscape:connector-curvature="0" />
	<path style="fill:none;stroke:red;stroke-width:1px;stroke-linecap:butt;stroke-linejoin:miter;stroke-opacity:1" d="M 67.1738,319.869 80.833,330.114 z" id="boundary" inkscape:connector-curvature="0" />
	<path style="fill:none;stroke:red;stroke-width:1px;stroke-linecap:butt;stroke-linejoin:miter;stroke-opacity:1" d="M 74.0034,91.0775 77.4182,108.151 z" id="boundary" inkscape:connector-curvature="0" />
	<path style="fill:none;stroke:red;stroke-width:1px;stroke-linecap:butt;stroke-linejoin:miter;stroke-opacity:1" d="M 74.0034,91.0775 87.6627,79.1256 z" id="boundary" inkscape:connector-curvature="0" />
	<path style="fill:none;stroke:red;stroke-width:1px;stroke-linecap:butt;stroke-linejoin:miter;stroke-opacity:1" d="M 77.4182,4 94.4923,4 z" id="boundary" inkscape:connector-curvature="0" />
	<path style="fill:none;stroke:red;stroke-width:1px;stroke-linecap:butt;stroke-linejoin:miter;stroke-opacity:1" d="M 77.4182,108.151 82.5404,125.225 z" id="boundary" inkscape:connector-curvature="0" />
	<path style="fill:none;stroke:red;stroke-width:1px;stroke-linecap:butt;stroke-linejoin:miter;stroke-opacity:1" d="M 80.833,270.355 96.1997,278.892 z" id="boundary" inkscape:connector-curvature="0" />
	<path style="fill:none;stroke:red;stroke-width:1px;stroke-linecap:butt;stroke-linejoin:miter;stroke-opacity:1" d="M 80.833,294.258 96.1997,278.892 z" id="boundary" inkscape:connector-curvature="0" />
	<path style="fill:none;stroke:red;stroke-width:1px;stroke-linecap:butt;stroke-linejoin:miter;stroke-opacity:1" d="M 80.833,330.114 96.1997,338.651 z" id="boundary" inkscape:connector-curvature="0" />
	<path style="fill:none;stroke:red;stroke-width:1px;stroke-linecap:butt;stroke-linejoin:miter;stroke-opacity:1" d="M 82.5404,125.225 91.0775,140.592 z" id="boundary" inkscape:connector-curvature="0" />
	<path style="fill:none;stroke:red;stroke-width:1px;stroke-linecap:butt;stroke-linejoin:miter;stroke-opacity:1" d="M 87.6627,79.1256 97.9071,65.4664 z" id="boundary" inkscape:connector-curvature="0" />
	<path style="fill:none;stroke:red;stroke-width:1px;stroke-linecap:butt;stroke-linejoin:miter;stroke-opacity:1" d="M 91.0775,140.592 99.6145,155.959 z" id="boundary" inkscape:connector-curvature="0" />
	<path style="fill:none;stroke:red;stroke-width:1px;stroke-linecap:butt;stroke-linejoin:miter;stroke-opacity:1" d="M 94.4923,4 108.151,14.2444 z" id="boundary" inkscape:connector-curvature="0" />
	<path style="fill:none;stroke:red;stroke-width:1px;stroke-linecap:butt;stroke-linejoin:miter;stroke-opacity:1" d="M 96.1997,338.651 111.566,347.188 z" id="boundary" inkscape:connector-curvature="0" />
	<path style="fill:none;stroke:red;stroke-width:1px;stroke-linecap:butt;stroke-linejoin:miter;stroke-opacity:1" d="M 97.9071,65.4664 108.151,48.3924 z" id="boundary" inkscape:connector-curvature="0" />
	<path style="fill:none;stroke:red;stroke-width:1px;stroke-linecap:butt;stroke-linejoin:miter;stroke-opacity:1" d="M 99.6145,155.959 108.151,171.325 z" id="boundary" inkscape:connector-curvature="0" />
	<path style="fill:none;stroke:red;stroke-width:1px;stroke-linecap:butt;stroke-linejoin:miter;stroke-opacity:1" d="M 108.151,14.2444 108.151,31.3184 z" id="boundary" inkscape:connector-curvature="0" />
	<path style="fill:none;stroke:red;stroke-width:1px;stroke-linecap:butt;stroke-linejoin:miter;stroke-opacity:1" d="M 108.151,31.3184 108.151,48.3924 z" id="boundary" inkscape:connector-curvature="0" />
	<path style="fill:none;stroke:red;stroke-width:1px;stroke-linecap:butt;stroke-linejoin:miter;stroke-opacity:1" d="M 108.151,171.325 121.811,183.277 z" id="boundary" inkscape:connector-curvature="0" />
	<path style="fill:none;stroke:red;stroke-width:1px;stroke-linecap:butt;stroke-linejoin:miter;stroke-opacity:1" d="M 111.566,347.188 120.103,362.554 z" id="boundary" inkscape:connector-curvature="0" />
	<path style="fill:none;stroke:red;stroke-width:1px;stroke-linecap:butt;stroke-linejoin:miter;stroke-opacity:1" d="M 120.103,362.554 133.762,372.799 z" id="boundary" inkscape:connector-curvature="0" />
	<path style="fill:none;stroke:red;stroke-width:1px;stroke-linecap:butt;stroke-linejoin:miter;stroke-opacity:1" d="M 121.811,183.277 137.177,191.814 z" id="boundary" inkscape:connector-curvature="0" />
	<path style="fill:none;stroke:red;stroke-width:1px;stroke-linecap:butt;stroke-linejoin:miter;stroke-opacity:1" d="M 133.762,372.799 149.129,381.336 z" id="boundary" inkscape:connector-curvature="0" />
	<path style="fill:none;stroke:red;stroke-width:1px;stroke-linecap:butt;stroke-linejoin:miter;stroke-opacity:1" d="M 137.177,191.814 152.544,200.351 z" id="boundary" inkscape:connector-curvature="0" />
	<path style="fill:none;stroke:red;stroke-width:1px;stroke-linecap:butt;stroke-linejoin:miter;stroke-opacity:1" d="M 149.129,381.336 166.203,381.336 z" id="boundary" inkscape:connector-curvature="0" />
	<path style="fill:none;stroke:red;stroke-width:1px;stroke-linecap:butt;stroke-linejoin:miter;stroke-opacity:1" d="M 152.544,200.351 169.618,200.351 z" id="boundary" inkscape:connector-curvature="0" />
	<path style="fill:none;stroke:red;stroke-width:1px;stroke-linecap:butt;stroke-linejoin:miter;stroke-opacity:1" d="M 166.203,381.336 183.277,381.336 z" id="boundary" inkscape:connector-curvature="0" />
	<path style="fill:none;stroke:red;stroke-width:1px;stroke-linecap:butt;stroke-linejoin:miter;stroke-opacity:1" d="M 169.618,200.351 186.692,200.351 z" id="boundary" inkscape:connector-curvature="0" />
	<path style="fill:none;stroke:red;stroke-width:1px;stroke-linecap:butt;stroke-linejoin:miter;stroke-opacity:1" d="M 183.277,381.336 198.644,389.873 z" id="boundary" inkscape:connector-curvature="0" />
	<path style="fill:none;stroke:red;stroke-width:1px;stroke-linecap:butt;stroke-linejoin:miter;stroke-opacity:1" d="M 186.692,200.351 202.059,208.888 z" id="boundary" inkscape:connector-curvature="0" />
	<path style="fill:none;stroke:red;stroke-width:1px;stroke-linecap:butt;stroke-linejoin:miter;stroke-opacity:1" d="M 191.814,914.045 191.814,931.119 z" id="boundary" inkscape:connector-curvature="0" />
	<path style="fill:none;stroke:red;stroke-width:1px;stroke-linecap:butt;stroke-linejoin:miter;stroke-opacity:1" d="M 191.814,914.045 200.351,896.971 z" id="boundary" inkscape:connector-curvature="0" />
	<path style="fill:none;stroke:red;stroke-width:1px;stroke-linecap:butt;stroke-linejoin:miter;stroke-opacity:1" d="M 191.814,931.119 200.351,946.485 z" id="boundary" inkscape:connector-curvature="0" />
	<path style="fill:none;stroke:red;stroke-width:1px;stroke-linecap:butt;stroke-linejoin:miter;stroke-opacity:1" d="M 198.644,389.873 214.01,398.41 z" id="boundary" inkscape:connector-curvature="0" />
	<path style="fill:none;stroke:red;stroke-width:1px;stroke-linecap:butt;stroke-linejoin:miter;stroke-opacity:1" d="M 200.351,896.971 214.01,883.312 z" id="boundary" inkscape:connector-curvature="0" />
	<path style="fill:none;stroke:red;stroke-width:1px;stroke-linecap:butt;stroke-linejoin:miter;stroke-opacity:1" d="M 200.351,946.485 212.303,960.145 z" id="boundary" inkscape:connector-curvature="0" />
	<path style="fill:none;stroke:red;stroke-width:1px;stroke-linecap:butt;stroke-linejoin:miter;stroke-opacity:1" d="M 202.059,208.888 219.133,208.888 z" id="boundary" inkscape:connector-curvature="0" />
	<path style="fill:none;stroke:red;stroke-width:1px;stroke-linecap:butt;stroke-linejoin:miter;stroke-opacity:1" d="M 212.303,960.145 229.377,961.852 z" id="boundary" inkscape:connector-curvature="0" />
	<path style="fill:none;stroke:red;stroke-width:1px;stroke-linecap:butt;stroke-linejoin:miter;stroke-opacity:1" d="M 214.01,398.41 225.962,412.069 z" id="boundary" inkscape:connector-curvature="0" />
	<path style="fill:none;stroke:red;stroke-width:1px;stroke-linecap:butt;stroke-linejoin:miter;stroke-opacity:1" d="M 214.01,883.312 225.962,854.286 z" id="boundary" inkscape:connector-curvature="0" />
	<path style="fill:none;stroke:red;stroke-width:1px;stroke-linecap:butt;stroke-linejoin:miter;stroke-opacity:1" d="M 219.133,208.888 234.499,200.351 z" id="boundary" inkscape:connector-curvature="0" />
	<path style="fill:none;stroke:red;stroke-width:1px;stroke-linecap:butt;stroke-linejoin:miter;stroke-opacity:1" d="M 225.962,412.069 234.499,427.435 z" id="boundary" inkscape:connector-curvature="0" />
	<path style="fill:none;stroke:red;stroke-width:1px;stroke-linecap:butt;stroke-linejoin:miter;stroke-opacity:1" d="M 225.962,854.286 234.499,837.212 z" id="boundary" inkscape:connector-curvature="0" />
	<path style="fill:none;stroke:red;stroke-width:1px;stroke-linecap:butt;stroke-linejoin:miter;stroke-opacity:1" d="M 229.377,961.852 246.451,961.852 z" id="boundary" inkscape:connector-curvature="0" />
	<path style="fill:none;stroke:red;stroke-width:1px;stroke-linecap:butt;stroke-linejoin:miter;stroke-opacity:1" d="M 234.499,200.351 251.573,200.351 z" id="boundary" inkscape:connector-curvature="0" />
	<path style="fill:none;stroke:red;stroke-width:1px;stroke-linecap:butt;stroke-linejoin:miter;stroke-opacity:1" d="M 234.499,427.435 248.158,439.387 z" id="boundary" inkscape:connector-curvature="0" />
	<path style="fill:none;stroke:red;stroke-width:1px;stroke-linecap:butt;stroke-linejoin:miter;stroke-opacity:1" d="M 234.499,803.064 234.499,820.138 z" id="boundary" inkscape:connector-curvature="0" />
	<path style="fill:none;stroke:red;stroke-width:1px;stroke-linecap:butt;stroke-linejoin:miter;stroke-opacity:1" d="M 234.499,803.064 243.036,777.453 z" id="boundary" inkscape:connector-curvature="0" />
	<path style="fill:none;stroke:red;stroke-width:1px;stroke-linecap:butt;stroke-linejoin:miter;stroke-opacity:1" d="M 234.499,820.138 234.499,837.212 z" id="boundary" inkscape:connector-curvature="0" />
	<path style="fill:none;stroke:red;stroke-width:1px;stroke-linecap:butt;stroke-linejoin:miter;stroke-opacity:1" d="M 243.036,777.453 251.573,751.842 z" id="boundary" inkscape:connector-curvature="0" />
	<path style="fill:none;stroke:red;stroke-width:1px;stroke-linecap:butt;stroke-linejoin:miter;stroke-opacity:1" d="M 246.451,961.852 263.525,961.852 z" id="boundary" inkscape:connector-curvature="0" />
	<path style="fill:none;stroke:red;stroke-width:1px;stroke-linecap:butt;stroke-linejoin:miter;stroke-opacity:1" d="M 248.158,439.387 260.11,453.046 z" id="boundary" inkscape:connector-curvature="0" />
	<path style="fill:none;stroke:red;stroke-width:1px;stroke-linecap:butt;stroke-linejoin:miter;stroke-opacity:1" d="M 251.573,200.351 268.647,200.351 z" id="boundary" inkscape:connector-curvature="0" />
	<path style="fill:none;stroke:red;stroke-width:1px;stroke-linecap:butt;stroke-linejoin:miter;stroke-opacity:1" d="M 251.573,751.842 260.11,726.231 z" id="boundary" inkscape:connector-curvature="0" />
	<path style="fill:none;stroke:red;stroke-width:1px;stroke-linecap:butt;stroke-linejoin:miter;stroke-opacity:1" d="M 260.11,453.046 277.184,458.169 z" id="boundary" inkscape:connector-curvature="0" />
	<path style="fill:none;stroke:red;stroke-width:1px;stroke-linecap:butt;stroke-linejoin:miter;stroke-opacity:1" d="M 260.11,726.231 268.647,700.62 z" id="boundary" inkscape:connector-curvature="0" />
	<path style="fill:none;stroke:red;stroke-width:1px;stroke-linecap:butt;stroke-linejoin:miter;stroke-opacity:1" d="M 263.525,961.852 280.599,961.852 z" id="boundary" inkscape:connector-curvature="0" />
	<path style="fill:none;stroke:red;stroke-width:1px;stroke-linecap:butt;stroke-linejoin:miter;stroke-opacity:1" d="M 268.647,200.351 284.014,191.814 z" id="boundary" inkscape:connector-curvature="0" />
	<path style="fill:none;stroke:red;stroke-width:1px;stroke-linecap:butt;stroke-linejoin:miter;stroke-opacity:1" d="M 268.647,700.62 277.184,683.546 z" id="boundary" inkscape:connector-curvature="0" />
	<path style="fill:none;stroke:red;stroke-width:1px;stroke-linecap:butt;stroke-linejoin:miter;stroke-opacity:1" d="M 277.184,458.169 287.429,471.828 z" id="boundary" inkscape:connector-curvature="0" />
	<path style="fill:none;stroke:red;stroke-width:1px;stroke-linecap:butt;stroke-linejoin:miter;stroke-opacity:1" d="M 277.184,666.472 277.184,683.546 z" id="boundary" inkscape:connector-curvature="0" />
	<path style="fill:none;stroke:red;stroke-width:1px;stroke-linecap:butt;stroke-linejoin:miter;stroke-opacity:1" d="M 277.184,666.472 285.721,640.861 z" id="boundary" inkscape:connector-curvature="0" />
	<path style="fill:none;stroke:red;stroke-width:1px;stroke-linecap:butt;stroke-linejoin:miter;stroke-opacity:1" d="M 280.599,961.852 297.673,961.852 z" id="boundary" inkscape:connector-curvature="0" />
	<path style="fill:none;stroke:red;stroke-width:1px;stroke-linecap:butt;stroke-linejoin:miter;stroke-opacity:1" d="M 284.014,191.814 301.088,191.814 z" id="boundary" inkscape:connector-curvature="0" />
	<path style="fill:none;stroke:red;stroke-width:1px;stroke-linecap:butt;stroke-linejoin:miter;stroke-opacity:1" d="M 285.721,555.491 294.258,529.88 z" id="boundary" inkscape:connector-curvature="0" />
	<path style="fill:none;stroke:red;stroke-width:1px;stroke-linecap:butt;stroke-linejoin:miter;stroke-opacity:1" d="M 285.721,555.491 294.258,570.857 z" id="boundary" inkscape:connector-curvature="0" />
	<path style="fill:none;stroke:red;stroke-width:1px;stroke-linecap:butt;stroke-linejoin:miter;stroke-opacity:1" d="M 285.721,640.861 294.258,622.079 z" id="boundary" inkscape:connector-curvature="0" />
	<path style="fill:none;stroke:red;stroke-width:1px;stroke-linecap:butt;stroke-linejoin:miter;stroke-opacity:1" d="M 287.429,471.828 301.088,483.78 z" id="boundary" inkscape:connector-curvature="0" />
	<path style="fill:none;stroke:red;stroke-width:1px;stroke-linecap:butt;stroke-linejoin:miter;stroke-opacity:1" d="M 294.258,512.806 294.258,529.88 z" id="boundary" inkscape:connector-curvature="0" />
	<path style="fill:none;stroke:red;stroke-width:1px;stroke-linecap:butt;stroke-linejoin:miter;stroke-opacity:1" d="M 294.258,512.806 301.088,483.78 z" id="boundary" inkscape:connector-curvature="0" />
	<path style="fill:none;stroke:red;stroke-width:1px;stroke-linecap:butt;stroke-linejoin:miter;stroke-opacity:1" d="M 294.258,570.857 294.258,587.931 z" id="boundary" inkscape:connector-curvature="0" />
	<path style="fill:none;stroke:red;stroke-width:1px;stroke-linecap:butt;stroke-linejoin:miter;stroke-opacity:1" d="M 294.258,587.931 294.258,605.005 z" id="boundary" inkscape:connector-curvature="0" />
	<path style="fill:none;stroke:red;stroke-width:1px;stroke-linecap:butt;stroke-linejoin:miter;stroke-opacity:1" d="M 294.258,605.005 294.258,622.079 z" id="boundary" inkscape:connector-curvature="0" />
	<path style="fill:none;stroke:red;stroke-width:1px;stroke-linecap:butt;stroke-linejoin:miter;stroke-opacity:1" d="M 297.673,961.852 314.747,961.852 z" id="boundary" inkscape:connector-curvature="0" />
	<path style="fill:none;stroke:red;stroke-width:1px;stroke-linecap:butt;stroke-linejoin:miter;stroke-opacity:1" d="M 301.088,191.814 318.162,191.814 z" id="boundary" inkscape:connector-curvature="0" />
	<path style="fill:none;stroke:red;stroke-width:1px;stroke-linecap:butt;stroke-linejoin:miter;stroke-opacity:1" d="M 314.747,961.852 330.114,953.315 z" id="boundary" inkscape:connector-curvature="0" />
	<path style="fill:none;stroke:red;stroke-width:1px;stroke-linecap:butt;stroke-linejoin:miter;stroke-opacity:1" d="M 318.162,191.814 333.528,183.277 z" id="boundary" inkscape:connector-curvature="0" />
	<path style="fill:none;stroke:red;stroke-width:1px;stroke-linecap:butt;stroke-linejoin:miter;stroke-opacity:1" d="M 330.114,953.315 345.48,944.778 z" id="boundary" inkscape:connector-curvature="0" />
	<path style="fill:none;stroke:red;stroke-width:1px;stroke-linecap:butt;stroke-linejoin:miter;stroke-opacity:1" d="M 333.528,183.277 350.602,183.277 z" id="boundary" inkscape:connector-curvature="0" />
	<path style="fill:none;stroke:red;stroke-width:1px;stroke-linecap:butt;stroke-linejoin:miter;stroke-opacity:1" d="M 345.48,944.778 355.725,927.704 z" id="boundary" inkscape:connector-curvature="0" />
	<path style="fill:none;stroke:red;stroke-width:1px;stroke-linecap:butt;stroke-linejoin:miter;stroke-opacity:1" d="M 347.188,859.408 347.188,876.482 z" id="boundary" inkscape:connector-curvature="0" />
	<path style="fill:none;stroke:red;stroke-width:1px;stroke-linecap:butt;stroke-linejoin:miter;stroke-opacity:1" d="M 347.188,859.408 355.725,833.797 z" id="boundary" inkscape:connector-curvature="0" />
	<path style="fill:none;stroke:red;stroke-width:1px;stroke-linecap:butt;stroke-linejoin:miter;stroke-opacity:1" d="M 347.188,876.482 350.602,893.556 z" id="boundary" inkscape:connector-curvature="0" />
	<path style="fill:none;stroke:red;stroke-width:1px;stroke-linecap:butt;stroke-linejoin:miter;stroke-opacity:1" d="M 350.602,183.277 365.969,191.814 z" id="boundary" inkscape:connector-curvature="0" />
	<path style="fill:none;stroke:red;stroke-width:1px;stroke-linecap:butt;stroke-linejoin:miter;stroke-opacity:1" d="M 350.602,893.556 355.725,910.63 z" id="boundary" inkscape:connector-curvature="0" />
	<path style="fill:none;stroke:red;stroke-width:1px;stroke-linecap:butt;stroke-linejoin:miter;stroke-opacity:1" d="M 355.725,833.797 364.262,816.723 z" id="boundary" inkscape:connector-curvature="0" />
	<path style="fill:none;stroke:red;stroke-width:1px;stroke-linecap:butt;stroke-linejoin:miter;stroke-opacity:1" d="M 355.725,910.63 355.725,927.704 z" id="boundary" inkscape:connector-curvature="0" />
	<path style="fill:none;stroke:red;stroke-width:1px;stroke-linecap:butt;stroke-linejoin:miter;stroke-opacity:1" d="M 364.262,816.723 372.799,791.112 z" id="boundary" inkscape:connector-curvature="0" />
	<path style="fill:none;stroke:red;stroke-width:1px;stroke-linecap:butt;stroke-linejoin:miter;stroke-opacity:1" d="M 365.969,191.814 379.628,203.766 z" id="boundary" inkscape:connector-curvature="0" />
	<path style="fill:none;stroke:red;stroke-width:1px;stroke-linecap:butt;stroke-linejoin:miter;stroke-opacity:1" d="M 372.799,791.112 381.336,774.038 z" id="boundary" inkscape:connector-curvature="0" />
	<path style="fill:none;stroke:red;stroke-width:1px;stroke-linecap:butt;stroke-linejoin:miter;stroke-opacity:1" d="M 379.628,203.766 389.873,217.425 z" id="boundary" inkscape:connector-curvature="0" />
	<path style="fill:none;stroke:red;stroke-width:1px;stroke-linecap:butt;stroke-linejoin:miter;stroke-opacity:1" d="M 381.336,774.038 391.58,787.697 z" id="boundary" inkscape:connector-curvature="0" />
	<path style="fill:none;stroke:red;stroke-width:1px;stroke-linecap:butt;stroke-linejoin:miter;stroke-opacity:1" d="M 388.165,939.656 388.165,956.73 z" id="boundary" inkscape:connector-curvature="0" />
	<path style="fill:none;stroke:red;stroke-width:1px;stroke-linecap:butt;stroke-linejoin:miter;stroke-opacity:1" d="M 388.165,939.656 401.824,925.997 z" id="boundary" inkscape:connector-curvature="0" />
	<path style="fill:none;stroke:red;stroke-width:1px;stroke-linecap:butt;stroke-linejoin:miter;stroke-opacity:1" d="M 388.165,956.73 388.165,973.804 z" id="boundary" inkscape:connector-curvature="0" />
	<path style="fill:none;stroke:red;stroke-width:1px;stroke-linecap:butt;stroke-linejoin:miter;stroke-opacity:1" d="M 388.165,973.804 405.239,978.926 z" id="boundary" inkscape:connector-curvature="0" />
	<path style="fill:none;stroke:red;stroke-width:1px;stroke-linecap:butt;stroke-linejoin:miter;stroke-opacity:1" d="M 389.873,217.425 403.532,227.67 z" id="boundary" inkscape:connector-curvature="0" />
	<path style="fill:none;stroke:red;stroke-width:1px;stroke-linecap:butt;stroke-linejoin:miter;stroke-opacity:1" d="M 391.58,787.697 396.702,804.771 z" id="boundary" inkscape:connector-curvature="0" />
	<path style="fill:none;stroke:red;stroke-width:1px;stroke-linecap:butt;stroke-linejoin:miter;stroke-opacity:1" d="M 396.702,804.771 396.702,821.845 z" id="boundary" inkscape:connector-curvature="0" />
	<path style="fill:none;stroke:red;stroke-width:1px;stroke-linecap:butt;stroke-linejoin:miter;stroke-opacity:1" d="M 396.702,821.845 405.239,837.212 z" id="boundary" inkscape:connector-curvature="0" />
	<path style="fill:none;stroke:red;stroke-width:1px;stroke-linecap:butt;stroke-linejoin:miter;stroke-opacity:1" d="M 401.824,925.997 410.361,908.923 z" id="boundary" inkscape:connector-curvature="0" />
	<path style="fill:none;stroke:red;stroke-width:1px;stroke-linecap:butt;stroke-linejoin:miter;stroke-opacity:1" d="M 403.532,227.67 418.898,236.207 z" id="boundary" inkscape:connector-curvature="0" />
	<path style="fill:none;stroke:red;stroke-width:1px;stroke-linecap:butt;stroke-linejoin:miter;stroke-opacity:1" d="M 405.239,837.212 405.239,854.286 z" id="boundary" inkscape:connector-curvature="0" />
	<path style="fill:none;stroke:red;stroke-width:1px;stroke-linecap:butt;stroke-linejoin:miter;stroke-opacity:1" d="M 405.239,854.286 413.776,869.652 z" id="boundary" inkscape:connector-curvature="0" />
	<path style="fill:none;stroke:red;stroke-width:1px;stroke-linecap:butt;stroke-linejoin:miter;stroke-opacity:1" d="M 405.239,978.926 420.606,987.463 z" id="boundary" inkscape:connector-curvature="0" />
	<path style="fill:none;stroke:red;stroke-width:1px;stroke-linecap:butt;stroke-linejoin:miter;stroke-opacity:1" d="M 410.361,908.923 418.898,891.849 z" id="boundary" inkscape:connector-curvature="0" />
	<path style="fill:none;stroke:red;stroke-width:1px;stroke-linecap:butt;stroke-linejoin:miter;stroke-opacity:1" d="M 413.776,869.652 418.898,891.849 z" id="boundary" inkscape:connector-curvature="0" />
	<path style="fill:none;stroke:red;stroke-width:1px;stroke-linecap:butt;stroke-linejoin:miter;stroke-opacity:1" d="M 418.898,236.207 435.972,243.036 z" id="boundary" inkscape:connector-curvature="0" />
	<path style="fill:none;stroke:red;stroke-width:1px;stroke-linecap:butt;stroke-linejoin:miter;stroke-opacity:1" d="M 420.606,987.463 435.972,996 z" id="boundary" inkscape:connector-curvature="0" />
	<path style="fill:none;stroke:red;stroke-width:1px;stroke-linecap:butt;stroke-linejoin:miter;stroke-opacity:1" d="M 435.972,243.036 453.046,243.036 z" id="boundary" inkscape:connector-curvature="0" />
	<path style="fill:none;stroke:red;stroke-width:1px;stroke-linecap:butt;stroke-linejoin:miter;stroke-opacity:1" d="M 435.972,996 453.046,996 z" id="boundary" inkscape:connector-curvature="0" />
	<path style="fill:none;stroke:red;stroke-width:1px;stroke-linecap:butt;stroke-linejoin:miter;stroke-opacity:1" d="M 453.046,243.036 470.12,243.036 z" id="boundary" inkscape:connector-curvature="0" />
	<path style="fill:none;stroke:red;stroke-width:1px;stroke-linecap:butt;stroke-linejoin:miter;stroke-opacity:1" d="M 453.046,996 470.12,996 z" id="boundary" inkscape:connector-curvature="0" />
	<path style="fill:none;stroke:red;stroke-width:1px;stroke-linecap:butt;stroke-linejoin:miter;stroke-opacity:1" d="M 470.12,243.036 487.194,243.036 z" id="boundary" inkscape:connector-curvature="0" />
	<path style="fill:none;stroke:red;stroke-width:1px;stroke-linecap:butt;stroke-linejoin:miter;stroke-opacity:1" d="M 470.12,996 487.194,996 z" id="boundary" inkscape:connector-curvature="0" />
	<path style="fill:none;stroke:red;stroke-width:1px;stroke-linecap:butt;stroke-linejoin:miter;stroke-opacity:1" d="M 487.194,243.036 504.269,243.036 z" id="boundary" inkscape:connector-curvature="0" />
	<path style="fill:none;stroke:red;stroke-width:1px;stroke-linecap:butt;stroke-linejoin:miter;stroke-opacity:1" d="M 487.194,996 504.269,994.293 z" id="boundary" inkscape:connector-curvature="0" />
	<path style="fill:none;stroke:red;stroke-width:1px;stroke-linecap:butt;stroke-linejoin:miter;stroke-opacity:1" d="M 504.269,243.036 519.635,251.573 z" id="boundary" inkscape:connector-curvature="0" />
	<path style="fill:none;stroke:red;stroke-width:1px;stroke-linecap:butt;stroke-linejoin:miter;stroke-opacity:1" d="M 504.269,994.293 521.343,987.463 z" id="boundary" inkscape:connector-curvature="0" />
	<path style="fill:none;stroke:red;stroke-width:1px;stroke-linecap:butt;stroke-linejoin:miter;stroke-opacity:1" d="M 509.391,688.668 509.391,705.742 z" id="boundary" inkscape:connector-curvature="0" />
	<path style="fill:none;stroke:red;stroke-width:1px;stroke-linecap:butt;stroke-linejoin:miter;stroke-opacity:1" d="M 509.391,688.668 524.757,697.205 z" id="boundary" inkscape:connector-curvature="0" />
	<path style="fill:none;stroke:red;stroke-width:1px;stroke-linecap:butt;stroke-linejoin:miter;stroke-opacity:1" d="M 509.391,705.742 509.391,722.816 z" id="boundary" inkscape:connector-curvature="0" />
	<path style="fill:none;stroke:red;stroke-width:1px;stroke-linecap:butt;stroke-linejoin:miter;stroke-opacity:1" d="M 509.391,722.816 517.928,738.182 z" id="boundary" inkscape:connector-curvature="0" />
	<path style="fill:none;stroke:red;stroke-width:1px;stroke-linecap:butt;stroke-linejoin:miter;stroke-opacity:1" d="M 517.928,738.182 517.928,755.256 z" id="boundary" inkscape:connector-curvature="0" />
	<path style="fill:none;stroke:red;stroke-width:1px;stroke-linecap:butt;stroke-linejoin:miter;stroke-opacity:1" d="M 517.928,755.256 517.928,772.33 z" id="boundary" inkscape:connector-curvature="0" />
	<path style="fill:none;stroke:red;stroke-width:1px;stroke-linecap:butt;stroke-linejoin:miter;stroke-opacity:1" d="M 517.928,772.33 526.465,787.697 z" id="boundary" inkscape:connector-curvature="0" />
	<path style="fill:none;stroke:red;stroke-width:1px;stroke-linecap:butt;stroke-linejoin:miter;stroke-opacity:1" d="M 519.635,251.573 536.709,251.573 z" id="boundary" inkscape:connector-curvature="0" />
	<path style="fill:none;stroke:red;stroke-width:1px;stroke-linecap:butt;stroke-linejoin:miter;stroke-opacity:1" d="M 521.343,987.463 538.417,985.756 z" id="boundary" inkscape:connector-curvature="0" />
	<path style="fill:none;stroke:red;stroke-width:1px;stroke-linecap:butt;stroke-linejoin:miter;stroke-opacity:1" d="M 524.757,697.205 540.124,705.742 z" id="boundary" inkscape:connector-curvature="0" />
	<path style="fill:none;stroke:red;stroke-width:1px;stroke-linecap:butt;stroke-linejoin:miter;stroke-opacity:1" d="M 526.465,787.697 526.465,804.771 z" id="boundary" inkscape:connector-curvature="0" />
	<path style="fill:none;stroke:red;stroke-width:1px;stroke-linecap:butt;stroke-linejoin:miter;stroke-opacity:1" d="M 526.465,804.771 535.002,820.138 z" id="boundary" inkscape:connector-curvature="0" />
	<path style="fill:none;stroke:red;stroke-width:1px;stroke-linecap:butt;stroke-linejoin:miter;stroke-opacity:1" d="M 535.002,820.138 541.831,837.212 z" id="boundary" inkscape:connector-curvature="0" />
	<path style="fill:none;stroke:red;stroke-width:1px;stroke-linecap:butt;stroke-linejoin:miter;stroke-opacity:1" d="M 536.709,251.573 552.076,260.11 z" id="boundary" inkscape:connector-curvature="0" />
	<path style="fill:none;stroke:red;stroke-width:1px;stroke-linecap:butt;stroke-linejoin:miter;stroke-opacity:1" d="M 538.417,985.756 552.076,972.096 z" id="boundary" inkscape:connector-curvature="0" />
	<path style="fill:none;stroke:red;stroke-width:1px;stroke-linecap:butt;stroke-linejoin:miter;stroke-opacity:1" d="M 540.124,705.742 557.198,705.742 z" id="boundary" inkscape:connector-curvature="0" />
	<path style="fill:none;stroke:red;stroke-width:1px;stroke-linecap:butt;stroke-linejoin:miter;stroke-opacity:1" d="M 541.831,837.212 543.539,854.286 z" id="boundary" inkscape:connector-curvature="0" />
	<path style="fill:none;stroke:red;stroke-width:1px;stroke-linecap:butt;stroke-linejoin:miter;stroke-opacity:1" d="M 543.539,854.286 543.539,871.36 z" id="boundary" inkscape:connector-curvature="0" />
	<path style="fill:none;stroke:red;stroke-width:1px;stroke-linecap:butt;stroke-linejoin:miter;stroke-opacity:1" d="M 543.539,871.36 543.539,888.434 z" id="boundary" inkscape:connector-curvature="0" />
	<path style="fill:none;stroke:red;stroke-width:1px;stroke-linecap:butt;stroke-linejoin:miter;stroke-opacity:1" d="M 543.539,888.434 543.539,905.508 z" id="boundary" inkscape:connector-curvature="0" />
	<path style="fill:none;stroke:red;stroke-width:1px;stroke-linecap:butt;stroke-linejoin:miter;stroke-opacity:1" d="M 543.539,905.508 543.539,922.582 z" id="boundary" inkscape:connector-curvature="0" />
	<path style="fill:none;stroke:red;stroke-width:1px;stroke-linecap:butt;stroke-linejoin:miter;stroke-opacity:1" d="M 543.539,922.582 543.539,939.656 z" id="boundary" inkscape:connector-curvature="0" />
	<path style="fill:none;stroke:red;stroke-width:1px;stroke-linecap:butt;stroke-linejoin:miter;stroke-opacity:1" d="M 543.539,939.656 552.076,955.022 z" id="boundary" inkscape:connector-curvature="0" />
	<path style="fill:none;stroke:red;stroke-width:1px;stroke-linecap:butt;stroke-linejoin:miter;stroke-opacity:1" d="M 552.076,260.11 567.442,268.647 z" id="boundary" inkscape:connector-curvature="0" />
	<path style="fill:none;stroke:red;stroke-width:1px;stroke-linecap:butt;stroke-linejoin:miter;stroke-opacity:1" d="M 552.076,955.022 552.076,972.096 z" id="boundary" inkscape:connector-curvature="0" />
	<path style="fill:none;stroke:red;stroke-width:1px;stroke-linecap:butt;stroke-linejoin:miter;stroke-opacity:1" d="M 557.198,705.742 574.272,705.742 z" id="boundary" inkscape:connector-curvature="0" />
	<path style="fill:none;stroke:red;stroke-width:1px;stroke-linecap:butt;stroke-linejoin:miter;stroke-opacity:1" d="M 567.442,268.647 582.809,277.184 z" id="boundary" inkscape:connector-curvature="0" />
	<path style="fill:none;stroke:red;stroke-width:1px;stroke-linecap:butt;stroke-linejoin:miter;stroke-opacity:1" d="M 567.442,896.971 575.979,871.36 z" id="boundary" inkscape:connector-curvature="0" />
	<path style="fill:none;stroke:red;stroke-width:1px;stroke-linecap:butt;stroke-linejoin:miter;stroke-opacity:1" d="M 567.442,896.971 575.979,912.337 z" id="boundary" inkscape:connector-curvature="0" />
	<path style="fill:none;stroke:red;stroke-width:1px;stroke-linecap:butt;stroke-linejoin:miter;stroke-opacity:1" d="M 574.272,705.742 589.639,714.279 z" id="boundary" inkscape:connector-curvature="0" />
	<path style="fill:none;stroke:red;stroke-width:1px;stroke-linecap:butt;stroke-linejoin:miter;stroke-opacity:1" d="M 575.979,854.286 575.979,871.36 z" id="boundary" inkscape:connector-curvature="0" />
	<path style="fill:none;stroke:red;stroke-width:1px;stroke-linecap:butt;stroke-linejoin:miter;stroke-opacity:1" d="M 575.979,854.286 584.516,837.212 z" id="boundary" inkscape:connector-curvature="0" />
	<path style="fill:none;stroke:red;stroke-width:1px;stroke-linecap:butt;stroke-linejoin:miter;stroke-opacity:1" d="M 575.979,912.337 584.516,927.704 z" id="boundary" inkscape:connector-curvature="0" />
	<path style="fill:none;stroke:red;stroke-width:1px;stroke-linecap:butt;stroke-linejoin:miter;stroke-opacity:1" d="M 582.809,277.184 594.761,290.843 z" id="boundary" inkscape:connector-curvature="0" />
	<path style="fill:none;stroke:red;stroke-width:1px;stroke-linecap:butt;stroke-linejoin:miter;stroke-opacity:1" d="M 584.516,803.064 584.516,820.138 z" id="boundary" inkscape:connector-curvature="0" />
	<path style="fill:none;stroke:red;stroke-width:1px;stroke-linecap:butt;stroke-linejoin:miter;stroke-opacity:1" d="M 584.516,803.064 593.053,785.99 z" id="boundary" inkscape:connector-curvature="0" />
	<path style="fill:none;stroke:red;stroke-width:1px;stroke-linecap:butt;stroke-linejoin:miter;stroke-opacity:1" d="M 584.516,820.138 584.516,837.212 z" id="boundary" inkscape:connector-curvature="0" />
	<path style="fill:none;stroke:red;stroke-width:1px;stroke-linecap:butt;stroke-linejoin:miter;stroke-opacity:1" d="M 584.516,927.704 599.883,936.241 z" id="boundary" inkscape:connector-curvature="0" />
	<path style="fill:none;stroke:red;stroke-width:1px;stroke-linecap:butt;stroke-linejoin:miter;stroke-opacity:1" d="M 589.639,714.279 606.713,714.279 z" id="boundary" inkscape:connector-curvature="0" />
	<path style="fill:none;stroke:red;stroke-width:1px;stroke-linecap:butt;stroke-linejoin:miter;stroke-opacity:1" d="M 593.053,768.916 593.053,785.99 z" id="boundary" inkscape:connector-curvature="0" />
	<path style="fill:none;stroke:red;stroke-width:1px;stroke-linecap:butt;stroke-linejoin:miter;stroke-opacity:1" d="M 593.053,768.916 601.59,743.305 z" id="boundary" inkscape:connector-curvature="0" />
	<path style="fill:none;stroke:red;stroke-width:1px;stroke-linecap:butt;stroke-linejoin:miter;stroke-opacity:1" d="M 594.761,290.843 594.761,307.917 z" id="boundary" inkscape:connector-curvature="0" />
	<path style="fill:none;stroke:red;stroke-width:1px;stroke-linecap:butt;stroke-linejoin:miter;stroke-opacity:1" d="M 594.761,307.917 610.127,316.454 z" id="boundary" inkscape:connector-curvature="0" />
	<path style="fill:none;stroke:red;stroke-width:1px;stroke-linecap:butt;stroke-linejoin:miter;stroke-opacity:1" d="M 599.883,936.241 616.957,936.241 z" id="boundary" inkscape:connector-curvature="0" />
	<path style="fill:none;stroke:red;stroke-width:1px;stroke-linecap:butt;stroke-linejoin:miter;stroke-opacity:1" d="M 601.59,743.305 606.713,714.279 z" id="boundary" inkscape:connector-curvature="0" />
	<path style="fill:none;stroke:red;stroke-width:1px;stroke-linecap:butt;stroke-linejoin:miter;stroke-opacity:1" d="M 610.127,316.454 627.201,319.869 z" id="boundary" inkscape:connector-curvature="0" />
	<path style="fill:none;stroke:red;stroke-width:1px;stroke-linecap:butt;stroke-linejoin:miter;stroke-opacity:1" d="M 616.957,936.241 634.031,936.241 z" id="boundary" inkscape:connector-curvature="0" />
	<path style="fill:none;stroke:red;stroke-width:1px;stroke-linecap:butt;stroke-linejoin:miter;stroke-opacity:1" d="M 627.201,319.869 644.275,319.869 z" id="boundary" inkscape:connector-curvature="0" />
	<path style="fill:none;stroke:red;stroke-width:1px;stroke-linecap:butt;stroke-linejoin:miter;stroke-opacity:1" d="M 634.031,936.241 651.105,936.241 z" id="boundary" inkscape:connector-curvature="0" />
	<path style="fill:none;stroke:red;stroke-width:1px;stroke-linecap:butt;stroke-linejoin:miter;stroke-opacity:1" d="M 644.275,319.869 661.349,319.869 z" id="boundary" inkscape:connector-curvature="0" />
	<path style="fill:none;stroke:red;stroke-width:1px;stroke-linecap:butt;stroke-linejoin:miter;stroke-opacity:1" d="M 651.105,936.241 668.179,932.826 z" id="boundary" inkscape:connector-curvature="0" />
	<path style="fill:none;stroke:red;stroke-width:1px;stroke-linecap:butt;stroke-linejoin:miter;stroke-opacity:1" d="M 661.349,319.869 678.423,319.869 z" id="boundary" inkscape:connector-curvature="0" />
	<path style="fill:none;stroke:red;stroke-width:1px;stroke-linecap:butt;stroke-linejoin:miter;stroke-opacity:1" d="M 668.179,932.826 685.253,924.289 z" id="boundary" inkscape:connector-curvature="0" />
	<path style="fill:none;stroke:red;stroke-width:1px;stroke-linecap:butt;stroke-linejoin:miter;stroke-opacity:1" d="M 678.423,319.869 695.497,319.869 z" id="boundary" inkscape:connector-curvature="0" />
	<path style="fill:none;stroke:red;stroke-width:1px;stroke-linecap:butt;stroke-linejoin:miter;stroke-opacity:1" d="M 685.253,924.289 697.205,902.093 z" id="boundary" inkscape:connector-curvature="0" />
	<path style="fill:none;stroke:red;stroke-width:1px;stroke-linecap:butt;stroke-linejoin:miter;stroke-opacity:1" d="M 695.497,319.869 710.864,328.406 z" id="boundary" inkscape:connector-curvature="0" />
	<path style="fill:none;stroke:red;stroke-width:1px;stroke-linecap:butt;stroke-linejoin:miter;stroke-opacity:1" d="M 697.205,867.945 697.205,885.019 z" id="boundary" inkscape:connector-curvature="0" />
	<path style="fill:none;stroke:red;stroke-width:1px;stroke-linecap:butt;stroke-linejoin:miter;stroke-opacity:1" d="M 697.205,867.945 705.742,850.871 z" id="boundary" inkscape:connector-curvature="0" />
	<path style="fill:none;stroke:red;stroke-width:1px;stroke-linecap:butt;stroke-linejoin:miter;stroke-opacity:1" d="M 697.205,885.019 697.205,902.093 z" id="boundary" inkscape:connector-curvature="0" />
	<path style="fill:none;stroke:red;stroke-width:1px;stroke-linecap:butt;stroke-linejoin:miter;stroke-opacity:1" d="M 705.742,850.871 714.279,833.797 z" id="boundary" inkscape:connector-curvature="0" />
	<path style="fill:none;stroke:red;stroke-width:1px;stroke-linecap:butt;stroke-linejoin:miter;stroke-opacity:1" d="M 710.864,328.406 727.938,328.406 z" id="boundary" inkscape:connector-curvature="0" />
	<path style="fill:none;stroke:red;stroke-width:1px;stroke-linecap:butt;stroke-linejoin:miter;stroke-opacity:1" d="M 714.279,799.649 714.279,816.723 z" id="boundary" inkscape:connector-curvature="0" />
	<path style="fill:none;stroke:red;stroke-width:1px;stroke-linecap:butt;stroke-linejoin:miter;stroke-opacity:1" d="M 714.279,799.649 722.816,774.038 z" id="boundary" inkscape:connector-curvature="0" />
	<path style="fill:none;stroke:red;stroke-width:1px;stroke-linecap:butt;stroke-linejoin:miter;stroke-opacity:1" d="M 714.279,816.723 714.279,833.797 z" id="boundary" inkscape:connector-curvature="0" />
	<path style="fill:none;stroke:red;stroke-width:1px;stroke-linecap:butt;stroke-linejoin:miter;stroke-opacity:1" d="M 722.816,774.038 738.182,765.501 z" id="boundary" inkscape:connector-curvature="0" />
	<path style="fill:none;stroke:red;stroke-width:1px;stroke-linecap:butt;stroke-linejoin:miter;stroke-opacity:1" d="M 727.938,328.406 743.305,336.943 z" id="boundary" inkscape:connector-curvature="0" />
	<path style="fill:none;stroke:red;stroke-width:1px;stroke-linecap:butt;stroke-linejoin:miter;stroke-opacity:1" d="M 738.182,765.501 753.549,774.038 z" id="boundary" inkscape:connector-curvature="0" />
	<path style="fill:none;stroke:red;stroke-width:1px;stroke-linecap:butt;stroke-linejoin:miter;stroke-opacity:1" d="M 743.305,336.943 758.671,345.48 z" id="boundary" inkscape:connector-curvature="0" />
	<path style="fill:none;stroke:red;stroke-width:1px;stroke-linecap:butt;stroke-linejoin:miter;stroke-opacity:1" d="M 753.549,774.038 768.916,782.575 z" id="boundary" inkscape:connector-curvature="0" />
	<path style="fill:none;stroke:red;stroke-width:1px;stroke-linecap:butt;stroke-linejoin:miter;stroke-opacity:1" d="M 758.671,345.48 774.038,354.017 z" id="boundary" inkscape:connector-curvature="0" />
	<path style="fill:none;stroke:red;stroke-width:1px;stroke-linecap:butt;stroke-linejoin:miter;stroke-opacity:1" d="M 768.916,782.575 782.575,794.527 z" id="boundary" inkscape:connector-curvature="0" />
	<path style="fill:none;stroke:red;stroke-width:1px;stroke-linecap:butt;stroke-linejoin:miter;stroke-opacity:1" d="M 774.038,354.017 787.697,364.262 z" id="boundary" inkscape:connector-curvature="0" />
	<path style="fill:none;stroke:red;stroke-width:1px;stroke-linecap:butt;stroke-linejoin:miter;stroke-opacity:1" d="M 782.575,794.527 799.649,799.649 z" id="boundary" inkscape:connector-curvature="0" />
	<path style="fill:none;stroke:red;stroke-width:1px;stroke-linecap:butt;stroke-linejoin:miter;stroke-opacity:1" d="M 787.697,364.262 799.649,377.921 z" id="boundary" inkscape:connector-curvature="0" />
	<path style="fill:none;stroke:red;stroke-width:1px;stroke-linecap:butt;stroke-linejoin:miter;stroke-opacity:1" d="M 799.649,377.921 808.186,393.287 z" id="boundary" inkscape:connector-curvature="0" />
	<path style="fill:none;stroke:red;stroke-width:1px;stroke-linecap:butt;stroke-linejoin:miter;stroke-opacity:1" d="M 799.649,799.649 815.015,808.186 z" id="boundary" inkscape:connector-curvature="0" />
	<path style="fill:none;stroke:red;stroke-width:1px;stroke-linecap:butt;stroke-linejoin:miter;stroke-opacity:1" d="M 808.186,393.287 823.552,401.824 z" id="boundary" inkscape:connector-curvature="0" />
	<path style="fill:none;stroke:red;stroke-width:1px;stroke-linecap:butt;stroke-linejoin:miter;stroke-opacity:1" d="M 815.015,808.186 830.382,816.723 z" id="boundary" inkscape:connector-curvature="0" />
	<path style="fill:none;stroke:red;stroke-width:1px;stroke-linecap:butt;stroke-linejoin:miter;stroke-opacity:1" d="M 815.015,888.434 815.015,905.508 z" id="boundary" inkscape:connector-curvature="0" />
	<path style="fill:none;stroke:red;stroke-width:1px;stroke-linecap:butt;stroke-linejoin:miter;stroke-opacity:1" d="M 815.015,888.434 823.552,871.36 z" id="boundary" inkscape:connector-curvature="0" />
	<path style="fill:none;stroke:red;stroke-width:1px;stroke-linecap:butt;stroke-linejoin:miter;stroke-opacity:1" d="M 815.015,905.508 815.015,922.582 z" id="boundary" inkscape:connector-curvature="0" />
	<path style="fill:none;stroke:red;stroke-width:1px;stroke-linecap:butt;stroke-linejoin:miter;stroke-opacity:1" d="M 815.015,922.582 828.675,934.534 z" id="boundary" inkscape:connector-curvature="0" />
	<path style="fill:none;stroke:red;stroke-width:1px;stroke-linecap:butt;stroke-linejoin:miter;stroke-opacity:1" d="M 823.552,401.824 832.09,417.191 z" id="boundary" inkscape:connector-curvature="0" />
	<path style="fill:none;stroke:red;stroke-width:1px;stroke-linecap:butt;stroke-linejoin:miter;stroke-opacity:1" d="M 823.552,871.36 837.212,857.701 z" id="boundary" inkscape:connector-curvature="0" />
	<path style="fill:none;stroke:red;stroke-width:1px;stroke-linecap:butt;stroke-linejoin:miter;stroke-opacity:1" d="M 828.675,934.534 845.749,936.241 z" id="boundary" inkscape:connector-curvature="0" />
	<path style="fill:none;stroke:red;stroke-width:1px;stroke-linecap:butt;stroke-linejoin:miter;stroke-opacity:1" d="M 830.382,816.723 840.627,830.382 z" id="boundary" inkscape:connector-curvature="0" />
	<path style="fill:none;stroke:red;stroke-width:1px;stroke-linecap:butt;stroke-linejoin:miter;stroke-opacity:1" d="M 832.09,417.191 842.334,430.85 z" id="boundary" inkscape:connector-curvature="0" />
	<path style="fill:none;stroke:red;stroke-width:1px;stroke-linecap:butt;stroke-linejoin:miter;stroke-opacity:1" d="M 837.212,857.701 840.627,830.382 z" id="boundary" inkscape:connector-curvature="0" />
	<path style="fill:none;stroke:red;stroke-width:1px;stroke-linecap:butt;stroke-linejoin:miter;stroke-opacity:1" d="M 842.334,430.85 855.993,441.095 z" id="boundary" inkscape:connector-curvature="0" />
	<path style="fill:none;stroke:red;stroke-width:1px;stroke-linecap:butt;stroke-linejoin:miter;stroke-opacity:1" d="M 845.749,936.241 862.823,943.071 z" id="boundary" inkscape:connector-curvature="0" />
	<path style="fill:none;stroke:red;stroke-width:1px;stroke-linecap:butt;stroke-linejoin:miter;stroke-opacity:1" d="M 855.993,441.095 867.945,454.754 z" id="boundary" inkscape:connector-curvature="0" />
	<path style="fill:none;stroke:red;stroke-width:1px;stroke-linecap:butt;stroke-linejoin:miter;stroke-opacity:1" d="M 859.408,654.52 867.945,669.886 z" id="boundary" inkscape:connector-curvature="0" />
	<path style="fill:none;stroke:red;stroke-width:1px;stroke-linecap:butt;stroke-linejoin:miter;stroke-opacity:1" d="M 859.408,654.52 876.482,645.983 z" id="boundary" inkscape:connector-curvature="0" />
	<path style="fill:none;stroke:red;stroke-width:1px;stroke-linecap:butt;stroke-linejoin:miter;stroke-opacity:1" d="M 862.823,943.071 879.897,944.778 z" id="boundary" inkscape:connector-curvature="0" />
	<path style="fill:none;stroke:red;stroke-width:1px;stroke-linecap:butt;stroke-linejoin:miter;stroke-opacity:1" d="M 867.945,454.754 876.482,470.12 z" id="boundary" inkscape:connector-curvature="0" />
	<path style="fill:none;stroke:red;stroke-width:1px;stroke-linecap:butt;stroke-linejoin:miter;stroke-opacity:1" d="M 867.945,669.886 876.482,685.253 z" id="boundary" inkscape:connector-curvature="0" />
	<path style="fill:none;stroke:red;stroke-width:1px;stroke-linecap:butt;stroke-linejoin:miter;stroke-opacity:1" d="M 876.482,470.12 888.434,483.78 z" id="boundary" inkscape:connector-curvature="0" />
	<path style="fill:none;stroke:red;stroke-width:1px;stroke-linecap:butt;stroke-linejoin:miter;stroke-opacity:1" d="M 876.482,645.983 885.019,628.909 z" id="boundary" inkscape:connector-curvature="0" />
	<path style="fill:none;stroke:red;stroke-width:1px;stroke-linecap:butt;stroke-linejoin:miter;stroke-opacity:1" d="M 876.482,685.253 890.141,697.205 z" id="boundary" inkscape:connector-curvature="0" />
	<path style="fill:none;stroke:red;stroke-width:1px;stroke-linecap:butt;stroke-linejoin:miter;stroke-opacity:1" d="M 879.897,944.778 896.971,944.778 z" id="boundary" inkscape:connector-curvature="0" />
	<path style="fill:none;stroke:red;stroke-width:1px;stroke-linecap:butt;stroke-linejoin:miter;stroke-opacity:1" d="M 885.019,628.909 898.678,616.957 z" id="boundary" inkscape:connector-curvature="0" />
	<path style="fill:none;stroke:red;stroke-width:1px;stroke-linecap:butt;stroke-linejoin:miter;stroke-opacity:1" d="M 888.434,483.78 902.093,495.731 z" id="boundary" inkscape:connector-curvature="0" />
	<path style="fill:none;stroke:red;stroke-width:1px;stroke-linecap:butt;stroke-linejoin:miter;stroke-opacity:1" d="M 890.141,697.205 896.971,714.279 z" id="boundary" inkscape:connector-curvature="0" />
	<path style="fill:none;stroke:red;stroke-width:1px;stroke-linecap:butt;stroke-linejoin:miter;stroke-opacity:1" d="M 896.971,714.279 910.63,726.231 z" id="boundary" inkscape:connector-curvature="0" />
	<path style="fill:none;stroke:red;stroke-width:1px;stroke-linecap:butt;stroke-linejoin:miter;stroke-opacity:1" d="M 896.971,944.778 914.045,944.778 z" id="boundary" inkscape:connector-curvature="0" />
	<path style="fill:none;stroke:red;stroke-width:1px;stroke-linecap:butt;stroke-linejoin:miter;stroke-opacity:1" d="M 898.678,616.957 902.093,594.761 z" id="boundary" inkscape:connector-curvature="0" />
	<path style="fill:none;stroke:red;stroke-width:1px;stroke-linecap:butt;stroke-linejoin:miter;stroke-opacity:1" d="M 902.093,495.731 902.093,512.806 z" id="boundary" inkscape:connector-curvature="0" />
	<path style="fill:none;stroke:red;stroke-width:1px;stroke-linecap:butt;stroke-linejoin:miter;stroke-opacity:1" d="M 902.093,512.806 910.63,528.172 z" id="boundary" inkscape:connector-curvature="0" />
	<path style="fill:none;stroke:red;stroke-width:1px;stroke-linecap:butt;stroke-linejoin:miter;stroke-opacity:1" d="M 902.093,594.761 910.63,579.394 z" id="boundary" inkscape:connector-curvature="0" />
	<path style="fill:none;stroke:red;stroke-width:1px;stroke-linecap:butt;stroke-linejoin:miter;stroke-opacity:1" d="M 910.63,528.172 910.63,545.246 z" id="boundary" inkscape:connector-curvature="0" />
	<path style="fill:none;stroke:red;stroke-width:1px;stroke-linecap:butt;stroke-linejoin:miter;stroke-opacity:1" d="M 910.63,545.246 910.63,562.32 z" id="boundary" inkscape:connector-curvature="0" />
	<path style="fill:none;stroke:red;stroke-width:1px;stroke-linecap:butt;stroke-linejoin:miter;stroke-opacity:1" d="M 910.63,562.32 910.63,579.394 z" id="boundary" inkscape:connector-curvature="0" />
	<path style="fill:none;stroke:red;stroke-width:1px;stroke-linecap:butt;stroke-linejoin:miter;stroke-opacity:1" d="M 910.63,726.231 917.46,743.305 z" id="boundary" inkscape:connector-curvature="0" />
	<path style="fill:none;stroke:red;stroke-width:1px;stroke-linecap:butt;stroke-linejoin:miter;stroke-opacity:1" d="M 914.045,944.778 929.411,936.241 z" id="boundary" inkscape:connector-curvature="0" />
	<path style="fill:none;stroke:red;stroke-width:1px;stroke-linecap:butt;stroke-linejoin:miter;stroke-opacity:1" d="M 917.46,743.305 931.119,755.256 z" id="boundary" inkscape:connector-curvature="0" />
	<path style="fill:none;stroke:red;stroke-width:1px;stroke-linecap:butt;stroke-linejoin:miter;stroke-opacity:1" d="M 929.411,936.241 946.485,936.241 z" id="boundary" inkscape:connector-curvature="0" />
	<path style="fill:none;stroke:red;stroke-width:1px;stroke-linecap:butt;stroke-linejoin:miter;stroke-opacity:1" d="M 931.119,755.256 943.071,768.916 z" id="boundary" inkscape:connector-curvature="0" />
	<path style="fill:none;stroke:red;stroke-width:1px;stroke-linecap:butt;stroke-linejoin:miter;stroke-opacity:1" d="M 943.071,768.916 951.608,784.282 z" id="boundary" inkscape:connector-curvature="0" />
	<path style="fill:none;stroke:red;stroke-width:1px;stroke-linecap:butt;stroke-linejoin:miter;stroke-opacity:1" d="M 946.485,936.241 961.852,927.704 z" id="boundary" inkscape:connector-curvature="0" />
	<path style="fill:none;stroke:red;stroke-width:1px;stroke-linecap:butt;stroke-linejoin:miter;stroke-opacity:1" d="M 951.608,784.282 961.852,797.941 z" id="boundary" inkscape:connector-curvature="0" />
	<path style="fill:none;stroke:red;stroke-width:1px;stroke-linecap:butt;stroke-linejoin:miter;stroke-opacity:1" d="M 961.852,797.941 961.852,815.015 z" id="boundary" inkscape:connector-curvature="0" />
	<path style="fill:none;stroke:red;stroke-width:1px;stroke-linecap:butt;stroke-linejoin:miter;stroke-opacity:1" d="M 961.852,815.015 961.852,832.09 z" id="boundary" inkscape:connector-curvature="0" />
	<path style="fill:none;stroke:red;stroke-width:1px;stroke-linecap:butt;stroke-linejoin:miter;stroke-opacity:1" d="M 961.852,832.09 961.852,849.164 z" id="boundary" inkscape:connector-curvature="0" />
	<path style="fill:none;stroke:red;stroke-width:1px;stroke-linecap:butt;stroke-linejoin:miter;stroke-opacity:1" d="M 961.852,849.164 970.389,864.53 z" id="boundary" inkscape:connector-curvature="0" />
	<path style="fill:none;stroke:red;stroke-width:1px;stroke-linecap:butt;stroke-linejoin:miter;stroke-opacity:1" d="M 961.852,927.704 975.511,915.752 z" id="boundary" inkscape:connector-curvature="0" />
	<path style="fill:none;stroke:red;stroke-width:1px;stroke-linecap:butt;stroke-linejoin:miter;stroke-opacity:1" d="M 970.389,864.53 970.389,881.604 z" id="boundary" inkscape:connector-curvature="0" />
	<path style="fill:none;stroke:red;stroke-width:1px;stroke-linecap:butt;stroke-linejoin:miter;stroke-opacity:1" d="M 970.389,881.604 978.926,896.971 z" id="boundary" inkscape:connector-curvature="0" />
	<path style="fill:none;stroke:red;stroke-width:1px;stroke-linecap:butt;stroke-linejoin:miter;stroke-opacity:1" d="M 975.511,915.752 978.926,896.971 z" id="boundary" inkscape:connector-curvature="0" />
	<circle cx="4" cy="103.029" r="4" fill="#0" id="circle0"/>
	<circle cx="4" cy="120.103" r="4" fill="#0" id="circle1"/>
	<circle cx="12.537" cy="68.8812" r="4" fill="#0" id="circle2"/>
	<circle cx="12.537" cy="85.9552" r="4" fill="#0" id="circle3"/>
	<circle cx="12.537" cy="135.47" r="4" fill="#0" id="circle4"/>
	<circle cx="12.537" cy="152.544" r="4" fill="#0" id="circle5"/>
	<circle cx="12.537" cy="169.618" r="4" fill="#0" id="circle6"/>
	<circle cx="21.074" cy="51.8072" r="4" fill="#0" id="circle7"/>
	<circle cx="21.074" cy="184.985" r="4" fill="#0" id="circle8"/>
	<circle cx="26.1962" cy="202.059" r="4" fill="#0" id="circle9"/>
	<circle cx="34.7332" cy="38.148" r="4" fill="#0" id="circle10"/>
	<circle cx="38.148" cy="215.718" r="4" fill="#0" id="circle11"/>
	<circle cx="46.685" cy="231.084" r="4" fill="#0" id="circle12"/>
	<circle cx="46.685" cy="290.843" r="4" fill="#0" id="circle13"/>
	<circle cx="48.3924" cy="24.4888" r="4" fill="#0" id="circle14"/>
	<circle cx="55.222" cy="246.451" r="4" fill="#0" id="circle15"/>
	<circle cx="55.222" cy="306.21" r="4" fill="#0" id="circle16"/>
	<circle cx="62.0516" cy="12.537" r="4" fill="#0" id="circle17"/>
	<circle cx="63.759" cy="289.136" r="4" fill="#0" id="circle18"/>
	<circle cx="67.1738" cy="260.11" r="4" fill="#0" id="circle19"/>
	<circle cx="67.1738" cy="319.869" r="4" fill="#0" id="circle20"/>
	<circle cx="74.0034" cy="91.0775" r="4" fill="#0" id="circle21"/>
	<circle cx="77.4182" cy="4" r="4" fill="#0" id="circle22"/>
	<circle cx="77.4182" cy="108.151" r="4" fill="#0" id="circle23"/>
	<circle cx="80.833" cy="270.355" r="4" fill="#0" id="circle24"/>
	<circle cx="80.833" cy="294.258" r="4" fill="#0" id="circle25"/>
	<circle cx="80.833" cy="330.114" r="4" fill="#0" id="circle26"/>
	<circle cx="82.5404" cy="125.225" r="4" fill="#0" id="circle27"/>
	<circle cx="87.6627" cy="79.1256" r="4" fill="#0" id="circle28"/>
	<circle cx="91.0775" cy="140.592" r="4" fill="#0" id="circle29"/>
	<circle cx="94.4923" cy="4" r="4" fill="#0" id="circle30"/>
	<circle cx="96.1997" cy="278.892" r="4" fill="#0" id="circle31"/>
	<circle cx="96.1997" cy="338.651" r="4" fill="#0" id="circle32"/>
	<circle cx="97.9071" cy="65.4664" r="4" fill="#0" id="circle33"/>
	<circle cx="99.6145" cy="155.959" r="4" fill="#0" id="circle34"/>
	<circle cx="108.151" cy="14.2444" r="4" fill="#0" id="circle35"/>
	<circle cx="108.151" cy="31.3184" r="4" fill="#0" id="circle36"/>
	<circle cx="108.151" cy="48.3924" r="4" fill="#0" id="circle37"/>
	<circle cx="108.151" cy="171.325" r="4" fill="#0" id="circle38"/>
	<circle cx="111.566" cy="347.188" r="4" fill="#0" id="circle39"/>
	<circle cx="120.103" cy="362.554" r="4" fill="#0" id="circle40"/>
	<circle cx="121.811" cy="183.277" r="4" fill="#0" id="circle41"/>
	<circle cx="133.762" cy="372.799" r="4" fill="#0" id="circle42"/>
	<circle cx="137.177" cy="191.814" r="4" fill="#0" id="circle43"/>
	<circle cx="149.129" cy="381.336" r="4" fill="#0" id="circle44"/>
	<circle cx="152.544" cy="200.351" r="4" fill="#0" id="circle45"/>
	<circle cx="166.203" cy="381.336" r="4" fill="#0" id="circle46"/>
	<circle cx="169.618" cy="200.351" r="4" fill="#0" id="circle47"/>
	<circle cx="183.277" cy="381.336" r="4" fill="#0" id="circle48"/>
	<circle cx="186.692" cy="200.351" r="4" fill="#0" id="circle49"/>
	<circle cx="191.814" cy="914.045" r="4" fill="#0" id="circle50"/>
	<circle cx="191.814" cy="931.119" r="4" fill="#0" id="circle51"/>
	<circle cx="198.644" cy="389.873" r="4" fill="#0" id="circle52"/>
	<circle cx="200.351" cy="896.971" r="4" fill="#0" id="circle53"/>
	<circle cx="200.351" cy="946.485" r="4" fill="#0" id="circle54"/>
	<circle cx="202.059" cy="208.888" r="4" fill="#0" id="circle55"/>
	<circle cx="212.303" cy="960.145" r="4" fill="#0" id="circle56"/>
	<circle cx="214.01" cy="398.41" r="4" fill="#0" id="circle57"/>
	<circle cx="214.01" cy="883.312" r="4" fill="#0" id="circle58"/>
	<circle cx="219.133" cy="208.888" r="4" fill="#0" id="circle59"/>
	<circle cx="225.962" cy="412.069" r="4" fill="#0" id="circle60"/>
	<circle cx="225.962" cy="854.286" r="4" fill="#0" id="circle61"/>
	<circle cx="229.377" cy="961.852" r="4" fill="#0" id="circle62"/>
	<circle cx="234.499" cy="200.351" r="4" fill="#0" id="circle63"/>
	<circle cx="234.499" cy="427.435" r="4" fill="#0" id="circle64"/>
	<circle cx="234.499" cy="803.064" r="4" fill="#0" id="circle65"/>
	<circle cx="234.499" cy="820.138" r="4" fill="#0" id="circle66"/>
	<circle cx="234.499" cy="837.212" r="4" fill="#0" id="circle67"/>
	<circle cx="243.036" cy="777.453" r="4" fill="#0" id="circle68"/>
	<circle cx="246.451" cy="961.852" r="4" fill="#0" id="circle69"/>
	<circle cx="248.158" cy="439.387" r="4" fill="#0" id="circle70"/>
	<circle cx="251.573" cy="200.351" r="4" fill="#0" id="circle71"/>
	<circle cx="251.573" cy="751.842" r="4" fill="#0" id="circle72"/>
	<circle cx="260.11" cy="453.046" r="4" fill="#0" id="circle73"/>
	<circle cx="260.11" cy="726.231" r="4" fill="#0" id="circle74"/>
	<circle cx="263.525" cy="961.852" r="4" fill="#0" id="circle75"/>
	<circle cx="268.647" cy="200.351" r="4" fill="#0" id="circle76"/>
	<circle cx="268.647" cy="700.62" r="4" fill="#0" id="circle77"/>
	<circle cx="277.184" cy="458.169" r="4" fill="#0" id="circle78"/>
	<circle cx="277.184" cy="666.472" r="4" fill="#0" id="circle79"/>
	<circle cx="277.184" cy="683.546" r="4" fill="#0" id="circle80"/>
	<circle cx="280.599" cy="961.852" r="4" fill="#0" id="circle81"/>
	<circle cx="284.014" cy="191.814" r="4" fill="#0" id="circle82"/>
	<circle cx="285.721" cy="555.491" r="4" fill="#0" id="circle83"/>
	<circle cx="285.721" cy="640.861" r="4" fill="#0" id="circle84"/>
	<circle cx="287.429" cy="471.828" r="4" fill="#0" id="circle85"/>
	<circle cx="294.258" cy="512.806" r="4" fill="#0" id="circle86"/>
	<circle cx="294.258" cy="529.88" r="4" fill="#0" id="circle87"/>
	<circle cx="294.258" cy="570.857" r="4" fill="#0" id="circle88"/>
	<circle cx="294.258" cy="587.931" r="4" fill="#0" id="circle89"/>
	<circle cx="294.258" cy="605.005" r="4" fill="#0" id="circle90"/>
	<circle cx="294.258" cy="622.079" r="4" fill="#0" id="circle91"/>
	<circle cx="297.673" cy="961.852" r="4" fill="#0" id="circle92"/>
	<circle cx="301.088" cy="191.814" r="4" fill="#0" id="circle93"/>
	<circle cx="301.088" cy="483.78" r="4" fill="#0" id="circle94"/>
	<circle cx="314.747" cy="961.852" r="4" fill="#0" id="circle95"/>
	<circle cx="318.162" cy="191.814" r="4" fill="#0" id="circle96"/>
	<circle cx="330.114" cy="953.315" r="4" fill="#0" id="circle97"/>
	<circle cx="333.528" cy="183.277" r="4" fill="#0" id="circle98"/>
	<circle cx="345.48" cy="944.778" r="4" fill="#0" id="circle99"/>
	<circle cx="347.188" cy="859.408" r="4" fill="#0" id="circle100"/>
	<circle cx="347.188" cy="876.482" r="4" fill="#0" id="circle101"/>
	<circle cx="350.602" cy="183.277" r="4" fill="#0" id="circle102"/>
	<circle cx="350.602" cy="893.556" r="4" fill="#0" id="circle103"/>
	<circle cx="355.725" cy="833.797" r="4" fill="#0" id="circle104"/>
	<circle cx="355.725" cy="910.63" r="4" fill="#0" id="circle105"/>
	<circle cx="355.725" cy="927.704" r="4" fill="#0" id="circle106"/>
	<circle cx="364.262" cy="816.723" r="4" fill="#0" id="circle107"/>
	<circle cx="365.969" cy="191.814" r="4" fill="#0" id="circle108"/>
	<circle cx="372.799" cy="791.112" r="4" fill="#0" id="circle109"/>
	<circle cx="379.628" cy="203.766" r="4" fill="#0" id="circle110"/>
	<circle cx="381.336" cy="774.038" r="4" fill="#0" id="circle111"/>
	<circle cx="388.165" cy="939.656" r="4" fill="#0" id="circle112"/>
	<circle cx="388.165" cy="956.73" r="4" fill="#0" id="circle113"/>
	<circle cx="388.165" cy="973.804" r="4" fill="#0" id="circle114"/>
	<circle cx="389.873" cy="217.425" r="4" fill="#0" id="circle115"/>
	<circle cx="391.58" cy="787.697" r="4" fill="#0" id="circle116"/>
	<circle cx="396.702" cy="804.771" r="4" fill="#0" id="circle117"/>
	<circle cx="396.702" cy="821.845" r="4" fill="#0" id="circle118"/>
	<circle cx="401.824" cy="925.997" r="4" fill="#0" id="circle119"/>
	<circle cx="403.532" cy="227.67" r="4" fill="#0" id="circle120"/>
	<circle cx="405.239" cy="837.212" r="4" fill="#0" id="circle121"/>
	<circle cx="405.239" cy="854.286" r="4" fill="#0" id="circle122"/>
	<circle cx="405.239" cy="978.926" r="4" fill="#0" id="circle123"/>
	<circle cx="410.361" cy="908.923" r="4" fill="#0" id="circle124"/>
	<circle cx="413.776" cy="869.652" r="4" fill="#0" id="circle125"/>
	<circle cx="418.898" cy="236.207" r="4" fill="#0" id="circle126"/>
	<circle cx="418.898" cy="891.849" r="4" fill="#0" id="circle127"/>
	<circle cx="420.606" cy="987.463" r="4" fill="#0" id="circle128"/>
	<circle cx="435.972" cy="243.036" r="4" fill="#0" id="circle129"/>
	<circle cx="435.972" cy="996" r="4" fill="#0" id="circle130"/>
	<circle cx="453.046" cy="243.036" r="4" fill="#0" id="circle131"/>
	<circle cx="453.046" cy="996" r="4" fill="#0" id="circle132"/>
	<circle cx="470.12" cy="243.036" r="4" fill="#0" id="circle133"/>
	<circle cx="470.12" cy="996" r="4" fill="#0" id="circle134"/>
	<circle cx="487.194" cy="243.036" r="4" fill="#0" id="circle135"/>
	<circle cx="487.194" cy="996" r="4" fill="#0" id="circle136"/>
	<circle cx="504.269" cy="243.036" r="4" fill="#0" id="circle137"/>
	<circle cx="504.269" cy="994.293" r="4" fill="#0" id="circle138"/>
	<circle cx="509.391" cy="688.668" r="4" fill="#0" id="circle139"/>
	<circle cx="509.391" cy="705.742" r="4" fill="#0" id="circle140"/>
	<circle cx="509.391" cy="722.816" r="4" fill="#0" id="circle141"/>
	<circle cx="517.928" cy="738.182" r="4" fill="#0" id="circle142"/>
	<circle cx="517.928" cy="755.256" r="4" fill="#0" id="circle143"/>
	<circle cx="517.928" cy="772.33" r="4" fill="#0" id="circle144"/>
	<circle cx="519.635" cy="251.573" r="4" fill="#0" id="circle145"/>
	<circle cx="521.343" cy="987.463" r="4" fill="#0" id="circle146"/>
	<circle cx="524.757" cy="697.205" r="4" fill="#0" id="circle147"/>
	<circle cx="526.465" cy="787.697" r="4" fill="#0" id="circle148"/>
	<circle cx="526.465" cy="804.771" r="4" fill="#0" id="circle149"/>
	<circle cx="535.002" cy="820.138" r="4" fill="#0" id="circle150"/>
	<circle cx="536.709" cy="251.573" r="4" fill="#0" id="circle151"/>
	<circle cx="538.417" cy="985.756" r="4" fill="#0" id="circle152"/>
	<circle cx="540.124" cy="705.742" r="4" fill="#0" id="circle153"/>
	<circle cx="541.831" cy="837.212" r="4" fill="#0" id="circle154"/>
	<circle cx="543.539" cy="854.286" r="4" fill="#0" id="circle155"/>
	<circle cx="543.539" cy="871.36" r="4" fill="#0" id="circle156"/>
	<circle cx="543.539" cy="888.434" r="4" fill="#0" id="circle157"/>
	<circle cx="543.539" cy="905.508" r="4" fill="#0" id="circle158"/>
	<circle cx="543.539" cy="922.582" r="4" fill="#0" id="circle159"/>
	<circle cx="543.539" cy="939.656" r="4" fill="#0" id="circle160"/>
	<circle cx="552.076" cy="260.11" r="4" fill="#0" id="circle161"/>
	<circle cx="552.076" cy="955.022" r="4" fill="#0" id="circle162"/>
	<circle cx="552.076" cy="972.096" r="4" fill="#0" id="circle163"/>
	<circle cx="557.198" cy="705.742" r="4" fill="#0" id="circle164"/>
	<circle cx="567.442" cy="268.647" r="4" fill="#0" id="circle165"/>
	<circle cx="567.442" cy="896.971" r="4" fill="#0" id="circle166"/>
	<circle cx="574.272" cy="705.742" r="4" fill="#0" id="circle167"/>
	<circle cx="575.979" cy="854.286" r="4" fill="#0" id="circle168"/>
	<circle cx="575.979" cy="871.36" r="4" fill="#0" id="circle169"/>
	<circle cx="575.979" cy="912.337" r="4" fill="#0" id="circle170"/>
	<circle cx="582.809" cy="277.184" r="4" fill="#0" id="circle171"/>
	<circle cx="584.516" cy="803.064" r="4" fill="#0" id="circle172"/>
	<circle cx="584.516" cy="820.138" r="4" fill="#0" id="circle173"/>
	<circle cx="584.516" cy="837.212" r="4" fill="#0" id="circle174"/>
	<circle cx="584.516" cy="927.704" r="4" fill="#0" id="circle175"/>
	<circle cx="589.639" cy="714.279" r="4" fill="#0" id="circle176"/>
	<circle cx="593.053" cy="768.916" r="4" fill="#0" id="circle177"/>
	<circle cx="593.053" cy="785.99" r="4" fill="#0" id="circle178"/>
	<circle cx="594.761" cy="290.843" r="4" fill="#0" id="circle179"/>
	<circle cx="594.761" cy="307.917" r="4" fill="#0" id="circle180"/>
	<circle cx="599.883" cy="936.241" r="4" fill="#0" id="circle181"/>
	<circle cx="601.59" cy="743.305" r="4" fill="#0" id="circle182"/>
	<circle cx="606.713" cy="714.279" r="4" fill="#0" id="circle183"/>
	<circle cx="610.127" cy="316.454" r="4" fill="#0" id="circle184"/>
	<circle cx="616.957" cy="936.241" r="4" fill="#0" id="circle185"/>
	<circle cx="627.201" cy="319.869" r="4" fill="#0" id="circle186"/>
	<circle cx="634.031" cy="936.241" r="4" fill="#0" id="circle187"/>
	<circle cx="644.275" cy="319.869" r="4" fill="#0" id="circle188"/>
	<circle cx="651.105" cy="936.241" r="4" fill="#0" id="circle189"/>
	<circle cx="661.349" cy="319.869" r="4" fill="#0" id="circle190"/>
	<circle cx="668.179" cy="932.826" r="4" fill="#0" id="circle191"/>
	<circle cx="678.423" cy="319.869" r="4" fill="#0" id="circle192"/>
	<circle cx="685.253" cy="924.289" r="4" fill="#0" id="circle193"/>
	<circle cx="695.497" cy="319.869" r="4" fill="#0" id="circle194"/>
	<circle cx="697.205" cy="867.945" r="4" fill="#0" id="circle195"/>
	<circle cx="697.205" cy="885.019" r="4" fill="#0" id="circle196"/>
	<circle cx="697.205" cy="902.093" r="4" fill="#0" id="circle197"/>
	<circle cx="705.742" cy="850.871" r="4" fill="#0" id="circle198"/>
	<circle cx="710.864" cy="328.406" r="4" fill="#0" id="circle199"/>
	<circle cx="714.279" cy="799.649" r="4" fill="#0" id="circle200"/>
	<circle cx="714.279" cy="816.723" r="4" fill="#0" id="circle201"/>
	<circle cx="714.279" cy="833.797" r="4" fill="#0" id="circle202"/>
	<circle cx="722.816" cy="774.038" r="4" fill="#0" id="circle203"/>
	<circle cx="727.938" cy="328.406" r="4" fill="#0" id="circle204"/>
	<circle cx="738.182" cy="765.501" r="4" fill="#0" id="circle205"/>
	<circle cx="743.305" cy="336.943" r="4" fill="#0" id="circle206"/>
	<circle cx="753.549" cy="774.038" r="4" fill="#0" id="circle207"/>
	<circle cx="758.671" cy="345.48" r="4" fill="#0" id="circle208"/>
	<circle cx="768.916" cy="782.575" r="4" fill="#0" id="circle209"/>
	<circle cx="774.038" cy="354.017" r="4" fill="#0" id="circle210"/>
	<circle cx="782.575" cy="794.527" r="4" fill="#0" id="circle211"/>
	<circle cx="787.697" cy="364.262" r="4" fill="#0" id="circle212"/>
	<circle cx="799.649" cy="377.921" r="4" fill="#0" id="circle213"/>
	<circle cx="799.649" cy="799.649" r="4" fill="#0" id="circle214"/>
	<circle cx="808.186" cy="393.287" r="4" fill="#0" id="circle215"/>
	<circle cx="815.015" cy="808.186" r="4" fill="#0" id="circle216"/>
	<circle cx="815.015" cy="888.434" r="4" fill="#0" id="circle217"/>
	<circle cx="815.015" cy="905.508" r="4" fill="#0" id="circle218"/>
	<circle cx="815.015" cy="922.582" r="4" fill="#0" id="circle219"/>
	<circle cx="823.552" cy="401.824" r="4" fill="#0" id="circle220"/>
	<circle cx="823.552" cy="871.36" r="4" fill="#0" id="circle221"/>
	<circle cx="828.675" cy="934.534" r="4" fill="#0" id="circle222"/>
	<circle cx="830.382" cy="816.723" r="4" fill="#0" id="circle223"/>
	<circle cx="832.09" cy="417.191" r="4" fill="#0" id="circle224"/>
	<circle cx="837.212" cy="857.701" r="4" fill="#0" id="circle225"/>
	<circle cx="840.627" cy="830.382" r="4" fill="#0" id="circle226"/>
	<circle cx="842.334" cy="430.85" r="4" fill="#0" id="circle227"/>
	<circle cx="845.749" cy="936.241" r="4" fill="#0" id="circle228"/>
	<circle cx="855.993" cy="441.095" r="4" fill="#0" id="circle229"/>
	<circle cx="859.408" cy="654.52" r="4" fill="#0" id="circle230"/>
	<circle cx="862.823" cy="943.071" r="4" fill="#0" id="circle231"/>
	<circle cx="867.945" cy="454.754" r="4" fill="#0" id="circle232"/>
	<circle cx="867.945" cy="669.886" r="4" fill="#0" id="circle233"/>
	<circle cx="876.482" cy="470.12" r="4" fill="#0" id="circle234"/>
	<circle cx="876.482" cy="645.983" r="4" fill="#0" id="circle235"/>
	<circle cx="876.482" cy="685.253" r="4" fill="#0" id="circle236"/>
	<circle cx="879.897" cy="944.778" r="4" fill="#0" id="circle237"/>
	<circle cx="885.019" cy="628.909" r="4" fill="#0" id="circle238"/>
	<circle cx="888.434" cy="483.78" r="4" fill="#0" id="circle239"/>
	<circle cx="890.141" cy="697.205" r="4" fill="#0" id="circle240"/>
	<circle cx="896.971" cy="714.279" r="4" fill="#0" id="circle241"/>
	<circle cx="896.971" cy="944.778" r="4" fill="#0" id="circle242"/>
	<circle cx="898.678" cy="616.957" r="4" fill="#0" id="circle243"/>
	<circle cx="902.093" cy="495.731" r="4" fill="#0" id="circle244"/>
	<circle cx="902.093" cy="512.806" r="4" fill="#0" id="circle245"/>
	<circle cx="902.093" cy="594.761" r="4" fill="#0" id="circle246"/>
	<circle cx="910.63" cy="528.172" r="4" fill="#0" id="circle247"/>
	<circle cx="910.63" cy="545.246" r="4" fill="#0" id="circle248"/>
	<circle cx="910.63" cy="562.32" r="4" fill="#0" id="circle249"/>
	<circle cx="910.63" cy="579.394" r="4" fill="#0" id="circle250"/>
	<circle cx="910.63" cy="726.231" r="4" fill="#0" id="circle251"/>
	<circle cx="914.045" cy="944.778" r="4" fill="#0" id="circle252"/>
	<circle cx="917.46" cy="743.305" r="4" fill="#0" id="circle253"/>
	<circle cx="929.411" cy="936.241" r="4" fill="#0" id="circle254"/>
	<circle cx="931.119" cy="755.256" r="4" fill="#0" id="circle255"/>
	<circle cx="943.071" cy="768.916" r="4" fill="#0" id="circle256"/>
	<circle cx="946.485" cy="936.241" r="4" fill="#0" id="circle257"/>
	<circle cx="951.608" cy="784.282" r="4" fill="#0" id="circle258"/>
	<circle cx="961.852" cy="797.941" r="4" fill="#0" id="circle259"/>
	<circle cx="961.852" cy="815.015" r="4" fill="#0" id="circle260"/>
	<circle cx="961.852" cy="832.09" r="4" fill="#0" id="circle261"/>
	<circle cx="961.852" cy="849.164" r="4" fill="#0" id="circle262"/>
	<circle cx="961.852" cy="927.704" r="4" fill="#0" id="circle263"/>
	<circle cx="970.389" cy="864.53" r="4" fill="#0" id="circle264"/>
	<circle cx="970.389" cy="881.604" r="4" fill="#0" id="circle265"/>
	<circle cx="975.511" cy="915.752" r="4" fill="#0" id="circle266"/>
	<circle cx="978.926" cy="896.971" r="4" fill="#0" id="circle267"/>
	</g>
</svg>