<?xml version="1.0" encoding="UTF-8" standalone="no"?>
<!-- Created with CurveBenchmark -->
<svg
	xmlns:dc="http://purl.org/dc/elements/1.1/"
	xmlns:cc="http://creativecommons.org/ns#"
	xmlns:rdf="http://www.w3.org/1999/02/22-rdf-syntax-ns#"
	xmlns:svg="http://www.w3.org/2000/svg"
	xmlns="http://www.w3.org/2000/svg"
	xmlns:sodipodi="http://sodipodi.sourceforge.net/DTD/sodipodi-0.dtd"
	xmlns:inkscape="http://www.inkscape.org/namespaces/inkscape"
	width="1000"
	height="1000"
	id="svg2"
	version="1.1"
	sodipodi:docname="manifold/vicur-fish-13.png.txt">
<defs
	id="defs4" />
<metadata
	id="metadata7">
	<rdf:RDF>
		<cc:Work
			rdf:about="">
			<dc:format>image/svg+xml</dc:format>
			<dc:type
				rdf:resource="http://purl.org/dc/dcmitype/StillImage" />
			<dc:title></dc:title>
		</cc:Work>
	</rdf:RDF>
</metadata>
<g
	inkscape:label="Layer 1"
	inkscape:groupmode="layer"
	id="layer1">
	<path style="fill:none;stroke:red;stroke-width:1px;stroke-linecap:butt;stroke-linejoin:miter;stroke-opacity:1" d="M 4,132.636 4,144.224 z" id="boundary" inkscape:connector-curvature="0" />
	<path style="fill:none;stroke:red;stroke-width:1px;stroke-linecap:butt;stroke-linejoin:miter;stroke-opacity:1" d="M 4,132.636 13.271,123.364 z" id="boundary" inkscape:connector-curvature="0" />
	<path style="fill:none;stroke:red;stroke-width:1px;stroke-linecap:butt;stroke-linejoin:miter;stroke-opacity:1" d="M 4,144.224 4,155.813 z" id="boundary" inkscape:connector-curvature="0" />
	<path style="fill:none;stroke:red;stroke-width:1px;stroke-linecap:butt;stroke-linejoin:miter;stroke-opacity:1" d="M 4,155.813 9.79439,166.243 z" id="boundary" inkscape:connector-curvature="0" />
	<path style="fill:none;stroke:red;stroke-width:1px;stroke-linecap:butt;stroke-linejoin:miter;stroke-opacity:1" d="M 9.79439,166.243 15.5888,176.673 z" id="boundary" inkscape:connector-curvature="0" />
	<path style="fill:none;stroke:red;stroke-width:1px;stroke-linecap:butt;stroke-linejoin:miter;stroke-opacity:1" d="M 9.79439,265.907 9.79439,277.495 z" id="boundary" inkscape:connector-curvature="0" />
	<path style="fill:none;stroke:red;stroke-width:1px;stroke-linecap:butt;stroke-linejoin:miter;stroke-opacity:1" d="M 9.79439,265.907 15.5888,246.206 z" id="boundary" inkscape:connector-curvature="0" />
	<path style="fill:none;stroke:red;stroke-width:1px;stroke-linecap:butt;stroke-linejoin:miter;stroke-opacity:1" d="M 9.79439,277.495 16.7477,286.766 z" id="boundary" inkscape:connector-curvature="0" />
	<path style="fill:none;stroke:red;stroke-width:1px;stroke-linecap:butt;stroke-linejoin:miter;stroke-opacity:1" d="M 13.271,123.364 23.7009,129.159 z" id="boundary" inkscape:connector-curvature="0" />
	<path style="fill:none;stroke:red;stroke-width:1px;stroke-linecap:butt;stroke-linejoin:miter;stroke-opacity:1" d="M 15.5888,176.673 15.5888,188.262 z" id="boundary" inkscape:connector-curvature="0" />
	<path style="fill:none;stroke:red;stroke-width:1px;stroke-linecap:butt;stroke-linejoin:miter;stroke-opacity:1" d="M 15.5888,188.262 15.5888,199.85 z" id="boundary" inkscape:connector-curvature="0" />
	<path style="fill:none;stroke:red;stroke-width:1px;stroke-linecap:butt;stroke-linejoin:miter;stroke-opacity:1" d="M 15.5888,199.85 15.5888,211.439 z" id="boundary" inkscape:connector-curvature="0" />
	<path style="fill:none;stroke:red;stroke-width:1px;stroke-linecap:butt;stroke-linejoin:miter;stroke-opacity:1" d="M 15.5888,211.439 15.5888,223.028 z" id="boundary" inkscape:connector-curvature="0" />
	<path style="fill:none;stroke:red;stroke-width:1px;stroke-linecap:butt;stroke-linejoin:miter;stroke-opacity:1" d="M 15.5888,223.028 15.5888,234.617 z" id="boundary" inkscape:connector-curvature="0" />
	<path style="fill:none;stroke:red;stroke-width:1px;stroke-linecap:butt;stroke-linejoin:miter;stroke-opacity:1" d="M 15.5888,234.617 15.5888,246.206 z" id="boundary" inkscape:connector-curvature="0" />
	<path style="fill:none;stroke:red;stroke-width:1px;stroke-linecap:butt;stroke-linejoin:miter;stroke-opacity:1" d="M 16.7477,286.766 28.3364,286.766 z" id="boundary" inkscape:connector-curvature="0" />
	<path style="fill:none;stroke:red;stroke-width:1px;stroke-linecap:butt;stroke-linejoin:miter;stroke-opacity:1" d="M 23.7009,129.159 35.2897,129.159 z" id="boundary" inkscape:connector-curvature="0" />
	<path style="fill:none;stroke:red;stroke-width:1px;stroke-linecap:butt;stroke-linejoin:miter;stroke-opacity:1" d="M 28.3364,286.766 39.9252,286.766 z" id="boundary" inkscape:connector-curvature="0" />
	<path style="fill:none;stroke:red;stroke-width:1px;stroke-linecap:butt;stroke-linejoin:miter;stroke-opacity:1" d="M 35.2897,129.159 46.8785,129.159 z" id="boundary" inkscape:connector-curvature="0" />
	<path style="fill:none;stroke:red;stroke-width:1px;stroke-linecap:butt;stroke-linejoin:miter;stroke-opacity:1" d="M 39.9252,286.766 51.514,286.766 z" id="boundary" inkscape:connector-curvature="0" />
	<path style="fill:none;stroke:red;stroke-width:1px;stroke-linecap:butt;stroke-linejoin:miter;stroke-opacity:1" d="M 46.8785,129.159 57.3084,134.953 z" id="boundary" inkscape:connector-curvature="0" />
	<path style="fill:none;stroke:red;stroke-width:1px;stroke-linecap:butt;stroke-linejoin:miter;stroke-opacity:1" d="M 51.514,286.766 63.1028,286.766 z" id="boundary" inkscape:connector-curvature="0" />
	<path style="fill:none;stroke:red;stroke-width:1px;stroke-linecap:butt;stroke-linejoin:miter;stroke-opacity:1" d="M 57.3084,134.953 68.8972,138.43 z" id="boundary" inkscape:connector-curvature="0" />
	<path style="fill:none;stroke:red;stroke-width:1px;stroke-linecap:butt;stroke-linejoin:miter;stroke-opacity:1" d="M 63.1028,286.766 74.6916,286.766 z" id="boundary" inkscape:connector-curvature="0" />
	<path style="fill:none;stroke:red;stroke-width:1px;stroke-linecap:butt;stroke-linejoin:miter;stroke-opacity:1" d="M 68.8972,138.43 80.486,140.748 z" id="boundary" inkscape:connector-curvature="0" />
	<path style="fill:none;stroke:red;stroke-width:1px;stroke-linecap:butt;stroke-linejoin:miter;stroke-opacity:1" d="M 74.6916,286.766 85.1215,280.972 z" id="boundary" inkscape:connector-curvature="0" />
	<path style="fill:none;stroke:red;stroke-width:1px;stroke-linecap:butt;stroke-linejoin:miter;stroke-opacity:1" d="M 80.486,140.748 90.9159,146.542 z" id="boundary" inkscape:connector-curvature="0" />
	<path style="fill:none;stroke:red;stroke-width:1px;stroke-linecap:butt;stroke-linejoin:miter;stroke-opacity:1" d="M 85.1215,280.972 96.7103,280.972 z" id="boundary" inkscape:connector-curvature="0" />
	<path style="fill:none;stroke:red;stroke-width:1px;stroke-linecap:butt;stroke-linejoin:miter;stroke-opacity:1" d="M 90.9159,146.542 102.505,146.542 z" id="boundary" inkscape:connector-curvature="0" />
	<path style="fill:none;stroke:red;stroke-width:1px;stroke-linecap:butt;stroke-linejoin:miter;stroke-opacity:1" d="M 96.7103,280.972 107.14,275.178 z" id="boundary" inkscape:connector-curvature="0" />
	<path style="fill:none;stroke:red;stroke-width:1px;stroke-linecap:butt;stroke-linejoin:miter;stroke-opacity:1" d="M 102.505,146.542 114.093,148.86 z" id="boundary" inkscape:connector-curvature="0" />
	<path style="fill:none;stroke:red;stroke-width:1px;stroke-linecap:butt;stroke-linejoin:miter;stroke-opacity:1" d="M 107.14,275.178 117.57,269.383 z" id="boundary" inkscape:connector-curvature="0" />
	<path style="fill:none;stroke:red;stroke-width:1px;stroke-linecap:butt;stroke-linejoin:miter;stroke-opacity:1" d="M 114.093,148.86 125.682,152.336 z" id="boundary" inkscape:connector-curvature="0" />
	<path style="fill:none;stroke:red;stroke-width:1px;stroke-linecap:butt;stroke-linejoin:miter;stroke-opacity:1" d="M 117.57,269.383 129.159,268.224 z" id="boundary" inkscape:connector-curvature="0" />
	<path style="fill:none;stroke:red;stroke-width:1px;stroke-linecap:butt;stroke-linejoin:miter;stroke-opacity:1" d="M 125.682,152.336 137.271,152.336 z" id="boundary" inkscape:connector-curvature="0" />
	<path style="fill:none;stroke:red;stroke-width:1px;stroke-linecap:butt;stroke-linejoin:miter;stroke-opacity:1" d="M 129.159,268.224 140.748,262.43 z" id="boundary" inkscape:connector-curvature="0" />
	<path style="fill:none;stroke:red;stroke-width:1px;stroke-linecap:butt;stroke-linejoin:miter;stroke-opacity:1" d="M 137.271,152.336 147.701,158.131 z" id="boundary" inkscape:connector-curvature="0" />
	<path style="fill:none;stroke:red;stroke-width:1px;stroke-linecap:butt;stroke-linejoin:miter;stroke-opacity:1" d="M 140.748,262.43 152.336,257.794 z" id="boundary" inkscape:connector-curvature="0" />
	<path style="fill:none;stroke:red;stroke-width:1px;stroke-linecap:butt;stroke-linejoin:miter;stroke-opacity:1" d="M 147.701,158.131 159.29,158.131 z" id="boundary" inkscape:connector-curvature="0" />
	<path style="fill:none;stroke:red;stroke-width:1px;stroke-linecap:butt;stroke-linejoin:miter;stroke-opacity:1" d="M 152.336,257.794 162.766,252 z" id="boundary" inkscape:connector-curvature="0" />
	<path style="fill:none;stroke:red;stroke-width:1px;stroke-linecap:butt;stroke-linejoin:miter;stroke-opacity:1" d="M 159.29,158.131 170.879,158.131 z" id="boundary" inkscape:connector-curvature="0" />
	<path style="fill:none;stroke:red;stroke-width:1px;stroke-linecap:butt;stroke-linejoin:miter;stroke-opacity:1" d="M 162.766,252 174.355,252 z" id="boundary" inkscape:connector-curvature="0" />
	<path style="fill:none;stroke:red;stroke-width:1px;stroke-linecap:butt;stroke-linejoin:miter;stroke-opacity:1" d="M 170.879,158.131 181.308,163.925 z" id="boundary" inkscape:connector-curvature="0" />
	<path style="fill:none;stroke:red;stroke-width:1px;stroke-linecap:butt;stroke-linejoin:miter;stroke-opacity:1" d="M 174.355,252 184.785,246.206 z" id="boundary" inkscape:connector-curvature="0" />
	<path style="fill:none;stroke:red;stroke-width:1px;stroke-linecap:butt;stroke-linejoin:miter;stroke-opacity:1" d="M 181.308,163.925 192.897,163.925 z" id="boundary" inkscape:connector-curvature="0" />
	<path style="fill:none;stroke:red;stroke-width:1px;stroke-linecap:butt;stroke-linejoin:miter;stroke-opacity:1" d="M 184.785,246.206 196.374,240.411 z" id="boundary" inkscape:connector-curvature="0" />
	<path style="fill:none;stroke:red;stroke-width:1px;stroke-linecap:butt;stroke-linejoin:miter;stroke-opacity:1" d="M 192.897,163.925 204.486,163.925 z" id="boundary" inkscape:connector-curvature="0" />
	<path style="fill:none;stroke:red;stroke-width:1px;stroke-linecap:butt;stroke-linejoin:miter;stroke-opacity:1" d="M 196.374,240.411 207.963,240.411 z" id="boundary" inkscape:connector-curvature="0" />
	<path style="fill:none;stroke:red;stroke-width:1px;stroke-linecap:butt;stroke-linejoin:miter;stroke-opacity:1" d="M 204.486,163.925 216.075,163.925 z" id="boundary" inkscape:connector-curvature="0" />
	<path style="fill:none;stroke:red;stroke-width:1px;stroke-linecap:butt;stroke-linejoin:miter;stroke-opacity:1" d="M 207.963,240.411 219.551,240.411 z" id="boundary" inkscape:connector-curvature="0" />
	<path style="fill:none;stroke:red;stroke-width:1px;stroke-linecap:butt;stroke-linejoin:miter;stroke-opacity:1" d="M 216.075,163.925 227.664,163.925 z" id="boundary" inkscape:connector-curvature="0" />
	<path style="fill:none;stroke:red;stroke-width:1px;stroke-linecap:butt;stroke-linejoin:miter;stroke-opacity:1" d="M 219.551,240.411 231.14,240.411 z" id="boundary" inkscape:connector-curvature="0" />
	<path style="fill:none;stroke:red;stroke-width:1px;stroke-linecap:butt;stroke-linejoin:miter;stroke-opacity:1" d="M 227.664,163.925 239.252,163.925 z" id="boundary" inkscape:connector-curvature="0" />
	<path style="fill:none;stroke:red;stroke-width:1px;stroke-linecap:butt;stroke-linejoin:miter;stroke-opacity:1" d="M 229.981,126.841 229.981,138.43 z" id="boundary" inkscape:connector-curvature="0" />
	<path style="fill:none;stroke:red;stroke-width:1px;stroke-linecap:butt;stroke-linejoin:miter;stroke-opacity:1" d="M 229.981,126.841 239.252,117.57 z" id="boundary" inkscape:connector-curvature="0" />
	<path style="fill:none;stroke:red;stroke-width:1px;stroke-linecap:butt;stroke-linejoin:miter;stroke-opacity:1" d="M 229.981,138.43 239.252,146.542 z" id="boundary" inkscape:connector-curvature="0" />
	<path style="fill:none;stroke:red;stroke-width:1px;stroke-linecap:butt;stroke-linejoin:miter;stroke-opacity:1" d="M 231.14,240.411 242.729,240.411 z" id="boundary" inkscape:connector-curvature="0" />
	<path style="fill:none;stroke:red;stroke-width:1px;stroke-linecap:butt;stroke-linejoin:miter;stroke-opacity:1" d="M 239.252,117.57 249.682,111.776 z" id="boundary" inkscape:connector-curvature="0" />
	<path style="fill:none;stroke:red;stroke-width:1px;stroke-linecap:butt;stroke-linejoin:miter;stroke-opacity:1" d="M 239.252,146.542 248.523,153.495 z" id="boundary" inkscape:connector-curvature="0" />
	<path style="fill:none;stroke:red;stroke-width:1px;stroke-linecap:butt;stroke-linejoin:miter;stroke-opacity:1" d="M 239.252,163.925 248.523,153.495 z" id="boundary" inkscape:connector-curvature="0" />
	<path style="fill:none;stroke:red;stroke-width:1px;stroke-linecap:butt;stroke-linejoin:miter;stroke-opacity:1" d="M 242.729,240.411 254.318,240.411 z" id="boundary" inkscape:connector-curvature="0" />
	<path style="fill:none;stroke:red;stroke-width:1px;stroke-linecap:butt;stroke-linejoin:miter;stroke-opacity:1" d="M 249.682,111.776 261.271,107.14 z" id="boundary" inkscape:connector-curvature="0" />
	<path style="fill:none;stroke:red;stroke-width:1px;stroke-linecap:butt;stroke-linejoin:miter;stroke-opacity:1" d="M 254.318,240.411 264.748,246.206 z" id="boundary" inkscape:connector-curvature="0" />
	<path style="fill:none;stroke:red;stroke-width:1px;stroke-linecap:butt;stroke-linejoin:miter;stroke-opacity:1" d="M 261.271,107.14 272.86,101.346 z" id="boundary" inkscape:connector-curvature="0" />
	<path style="fill:none;stroke:red;stroke-width:1px;stroke-linecap:butt;stroke-linejoin:miter;stroke-opacity:1" d="M 264.748,246.206 276.336,246.206 z" id="boundary" inkscape:connector-curvature="0" />
	<path style="fill:none;stroke:red;stroke-width:1px;stroke-linecap:butt;stroke-linejoin:miter;stroke-opacity:1" d="M 264.748,277.495 264.748,289.084 z" id="boundary" inkscape:connector-curvature="0" />
	<path style="fill:none;stroke:red;stroke-width:1px;stroke-linecap:butt;stroke-linejoin:miter;stroke-opacity:1" d="M 264.748,277.495 274.019,268.224 z" id="boundary" inkscape:connector-curvature="0" />
	<path style="fill:none;stroke:red;stroke-width:1px;stroke-linecap:butt;stroke-linejoin:miter;stroke-opacity:1" d="M 264.748,289.084 270.542,299.514 z" id="boundary" inkscape:connector-curvature="0" />
	<path style="fill:none;stroke:red;stroke-width:1px;stroke-linecap:butt;stroke-linejoin:miter;stroke-opacity:1" d="M 270.542,299.514 276.336,309.944 z" id="boundary" inkscape:connector-curvature="0" />
	<path style="fill:none;stroke:red;stroke-width:1px;stroke-linecap:butt;stroke-linejoin:miter;stroke-opacity:1" d="M 272.86,101.346 284.449,95.5514 z" id="boundary" inkscape:connector-curvature="0" />
	<path style="fill:none;stroke:red;stroke-width:1px;stroke-linecap:butt;stroke-linejoin:miter;stroke-opacity:1" d="M 274.019,268.224 283.29,258.953 z" id="boundary" inkscape:connector-curvature="0" />
	<path style="fill:none;stroke:red;stroke-width:1px;stroke-linecap:butt;stroke-linejoin:miter;stroke-opacity:1" d="M 276.336,246.206 283.29,258.953 z" id="boundary" inkscape:connector-curvature="0" />
	<path style="fill:none;stroke:red;stroke-width:1px;stroke-linecap:butt;stroke-linejoin:miter;stroke-opacity:1" d="M 276.336,309.944 282.131,320.374 z" id="boundary" inkscape:connector-curvature="0" />
	<path style="fill:none;stroke:red;stroke-width:1px;stroke-linecap:butt;stroke-linejoin:miter;stroke-opacity:1" d="M 282.131,320.374 284.449,331.963 z" id="boundary" inkscape:connector-curvature="0" />
	<path style="fill:none;stroke:red;stroke-width:1px;stroke-linecap:butt;stroke-linejoin:miter;stroke-opacity:1" d="M 284.449,95.5514 296.037,94.3925 z" id="boundary" inkscape:connector-curvature="0" />
	<path style="fill:none;stroke:red;stroke-width:1px;stroke-linecap:butt;stroke-linejoin:miter;stroke-opacity:1" d="M 284.449,331.963 287.925,343.551 z" id="boundary" inkscape:connector-curvature="0" />
	<path style="fill:none;stroke:red;stroke-width:1px;stroke-linecap:butt;stroke-linejoin:miter;stroke-opacity:1" d="M 287.925,343.551 294.879,352.822 z" id="boundary" inkscape:connector-curvature="0" />
	<path style="fill:none;stroke:red;stroke-width:1px;stroke-linecap:butt;stroke-linejoin:miter;stroke-opacity:1" d="M 294.879,352.822 302.991,362.093 z" id="boundary" inkscape:connector-curvature="0" />
	<path style="fill:none;stroke:red;stroke-width:1px;stroke-linecap:butt;stroke-linejoin:miter;stroke-opacity:1" d="M 296.037,94.3925 306.467,88.5981 z" id="boundary" inkscape:connector-curvature="0" />
	<path style="fill:none;stroke:red;stroke-width:1px;stroke-linecap:butt;stroke-linejoin:miter;stroke-opacity:1" d="M 302.991,362.093 313.421,356.299 z" id="boundary" inkscape:connector-curvature="0" />
	<path style="fill:none;stroke:red;stroke-width:1px;stroke-linecap:butt;stroke-linejoin:miter;stroke-opacity:1" d="M 306.467,88.5981 316.897,82.8037 z" id="boundary" inkscape:connector-curvature="0" />
	<path style="fill:none;stroke:red;stroke-width:1px;stroke-linecap:butt;stroke-linejoin:miter;stroke-opacity:1" d="M 313.421,356.299 323.85,350.505 z" id="boundary" inkscape:connector-curvature="0" />
	<path style="fill:none;stroke:red;stroke-width:1px;stroke-linecap:butt;stroke-linejoin:miter;stroke-opacity:1" d="M 316.897,82.8037 328.486,80.486 z" id="boundary" inkscape:connector-curvature="0" />
	<path style="fill:none;stroke:red;stroke-width:1px;stroke-linecap:butt;stroke-linejoin:miter;stroke-opacity:1" d="M 323.85,350.505 333.121,342.393 z" id="boundary" inkscape:connector-curvature="0" />
	<path style="fill:none;stroke:red;stroke-width:1px;stroke-linecap:butt;stroke-linejoin:miter;stroke-opacity:1" d="M 328.486,80.486 340.075,77.0093 z" id="boundary" inkscape:connector-curvature="0" />
	<path style="fill:none;stroke:red;stroke-width:1px;stroke-linecap:butt;stroke-linejoin:miter;stroke-opacity:1" d="M 333.121,342.393 341.234,327.327 z" id="boundary" inkscape:connector-curvature="0" />
	<path style="fill:none;stroke:red;stroke-width:1px;stroke-linecap:butt;stroke-linejoin:miter;stroke-opacity:1" d="M 340.075,77.0093 351.664,74.6916 z" id="boundary" inkscape:connector-curvature="0" />
	<path style="fill:none;stroke:red;stroke-width:1px;stroke-linecap:butt;stroke-linejoin:miter;stroke-opacity:1" d="M 341.234,327.327 350.505,319.215 z" id="boundary" inkscape:connector-curvature="0" />
	<path style="fill:none;stroke:red;stroke-width:1px;stroke-linecap:butt;stroke-linejoin:miter;stroke-opacity:1" d="M 350.505,319.215 358.617,309.944 z" id="boundary" inkscape:connector-curvature="0" />
	<path style="fill:none;stroke:red;stroke-width:1px;stroke-linecap:butt;stroke-linejoin:miter;stroke-opacity:1" d="M 351.664,74.6916 363.252,71.215 z" id="boundary" inkscape:connector-curvature="0" />
	<path style="fill:none;stroke:red;stroke-width:1px;stroke-linecap:butt;stroke-linejoin:miter;stroke-opacity:1" d="M 358.617,309.944 364.411,298.355 z" id="boundary" inkscape:connector-curvature="0" />
	<path style="fill:none;stroke:red;stroke-width:1px;stroke-linecap:butt;stroke-linejoin:miter;stroke-opacity:1" d="M 363.252,71.215 373.682,65.4206 z" id="boundary" inkscape:connector-curvature="0" />
	<path style="fill:none;stroke:red;stroke-width:1px;stroke-linecap:butt;stroke-linejoin:miter;stroke-opacity:1" d="M 364.411,298.355 373.682,290.243 z" id="boundary" inkscape:connector-curvature="0" />
	<path style="fill:none;stroke:red;stroke-width:1px;stroke-linecap:butt;stroke-linejoin:miter;stroke-opacity:1" d="M 373.682,65.4206 384.112,59.6262 z" id="boundary" inkscape:connector-curvature="0" />
	<path style="fill:none;stroke:red;stroke-width:1px;stroke-linecap:butt;stroke-linejoin:miter;stroke-opacity:1" d="M 373.682,290.243 385.271,292.561 z" id="boundary" inkscape:connector-curvature="0" />
	<path style="fill:none;stroke:red;stroke-width:1px;stroke-linecap:butt;stroke-linejoin:miter;stroke-opacity:1" d="M 384.112,59.6262 395.701,59.6262 z" id="boundary" inkscape:connector-curvature="0" />
	<path style="fill:none;stroke:red;stroke-width:1px;stroke-linecap:butt;stroke-linejoin:miter;stroke-opacity:1" d="M 385.271,292.561 396.86,292.561 z" id="boundary" inkscape:connector-curvature="0" />
	<path style="fill:none;stroke:red;stroke-width:1px;stroke-linecap:butt;stroke-linejoin:miter;stroke-opacity:1" d="M 395.701,59.6262 406.131,53.8318 z" id="boundary" inkscape:connector-curvature="0" />
	<path style="fill:none;stroke:red;stroke-width:1px;stroke-linecap:butt;stroke-linejoin:miter;stroke-opacity:1" d="M 396.86,292.561 408.449,292.561 z" id="boundary" inkscape:connector-curvature="0" />
	<path style="fill:none;stroke:red;stroke-width:1px;stroke-linecap:butt;stroke-linejoin:miter;stroke-opacity:1" d="M 406.131,53.8318 417.72,53.8318 z" id="boundary" inkscape:connector-curvature="0" />
	<path style="fill:none;stroke:red;stroke-width:1px;stroke-linecap:butt;stroke-linejoin:miter;stroke-opacity:1" d="M 408.449,292.561 418.879,298.355 z" id="boundary" inkscape:connector-curvature="0" />
	<path style="fill:none;stroke:red;stroke-width:1px;stroke-linecap:butt;stroke-linejoin:miter;stroke-opacity:1" d="M 417.72,53.8318 428.15,48.0374 z" id="boundary" inkscape:connector-curvature="0" />
	<path style="fill:none;stroke:red;stroke-width:1px;stroke-linecap:butt;stroke-linejoin:miter;stroke-opacity:1" d="M 418.879,298.355 430.467,298.355 z" id="boundary" inkscape:connector-curvature="0" />
	<path style="fill:none;stroke:red;stroke-width:1px;stroke-linecap:butt;stroke-linejoin:miter;stroke-opacity:1" d="M 428.15,48.0374 439.738,48.0374 z" id="boundary" inkscape:connector-curvature="0" />
	<path style="fill:none;stroke:red;stroke-width:1px;stroke-linecap:butt;stroke-linejoin:miter;stroke-opacity:1" d="M 430.467,298.355 442.056,298.355 z" id="boundary" inkscape:connector-curvature="0" />
	<path style="fill:none;stroke:red;stroke-width:1px;stroke-linecap:butt;stroke-linejoin:miter;stroke-opacity:1" d="M 439.738,48.0374 451.327,48.0374 z" id="boundary" inkscape:connector-curvature="0" />
	<path style="fill:none;stroke:red;stroke-width:1px;stroke-linecap:butt;stroke-linejoin:miter;stroke-opacity:1" d="M 442.056,298.355 453.645,298.355 z" id="boundary" inkscape:connector-curvature="0" />
	<path style="fill:none;stroke:red;stroke-width:1px;stroke-linecap:butt;stroke-linejoin:miter;stroke-opacity:1" d="M 451.327,48.0374 462.916,48.0374 z" id="boundary" inkscape:connector-curvature="0" />
	<path style="fill:none;stroke:red;stroke-width:1px;stroke-linecap:butt;stroke-linejoin:miter;stroke-opacity:1" d="M 453.645,298.355 465.234,302.991 z" id="boundary" inkscape:connector-curvature="0" />
	<path style="fill:none;stroke:red;stroke-width:1px;stroke-linecap:butt;stroke-linejoin:miter;stroke-opacity:1" d="M 462.916,48.0374 474.505,48.0374 z" id="boundary" inkscape:connector-curvature="0" />
	<path style="fill:none;stroke:red;stroke-width:1px;stroke-linecap:butt;stroke-linejoin:miter;stroke-opacity:1" d="M 465.234,302.991 476.822,304.15 z" id="boundary" inkscape:connector-curvature="0" />
	<path style="fill:none;stroke:red;stroke-width:1px;stroke-linecap:butt;stroke-linejoin:miter;stroke-opacity:1" d="M 474.505,48.0374 484.935,53.8318 z" id="boundary" inkscape:connector-curvature="0" />
	<path style="fill:none;stroke:red;stroke-width:1px;stroke-linecap:butt;stroke-linejoin:miter;stroke-opacity:1" d="M 476.822,304.15 488.411,304.15 z" id="boundary" inkscape:connector-curvature="0" />
	<path style="fill:none;stroke:red;stroke-width:1px;stroke-linecap:butt;stroke-linejoin:miter;stroke-opacity:1" d="M 484.935,53.8318 495.364,59.6262 z" id="boundary" inkscape:connector-curvature="0" />
	<path style="fill:none;stroke:red;stroke-width:1px;stroke-linecap:butt;stroke-linejoin:miter;stroke-opacity:1" d="M 488.411,304.15 500,304.15 z" id="boundary" inkscape:connector-curvature="0" />
	<path style="fill:none;stroke:red;stroke-width:1px;stroke-linecap:butt;stroke-linejoin:miter;stroke-opacity:1" d="M 495.364,59.6262 505.794,65.4206 z" id="boundary" inkscape:connector-curvature="0" />
	<path style="fill:none;stroke:red;stroke-width:1px;stroke-linecap:butt;stroke-linejoin:miter;stroke-opacity:1" d="M 500,304.15 511.589,304.15 z" id="boundary" inkscape:connector-curvature="0" />
	<path style="fill:none;stroke:red;stroke-width:1px;stroke-linecap:butt;stroke-linejoin:miter;stroke-opacity:1" d="M 505.794,65.4206 513.907,74.6916 z" id="boundary" inkscape:connector-curvature="0" />
	<path style="fill:none;stroke:red;stroke-width:1px;stroke-linecap:butt;stroke-linejoin:miter;stroke-opacity:1" d="M 511.589,304.15 523.178,304.15 z" id="boundary" inkscape:connector-curvature="0" />
	<path style="fill:none;stroke:red;stroke-width:1px;stroke-linecap:butt;stroke-linejoin:miter;stroke-opacity:1" d="M 513.907,74.6916 523.178,82.8037 z" id="boundary" inkscape:connector-curvature="0" />
	<path style="fill:none;stroke:red;stroke-width:1px;stroke-linecap:butt;stroke-linejoin:miter;stroke-opacity:1" d="M 523.178,82.8037 531.29,92.0748 z" id="boundary" inkscape:connector-curvature="0" />
	<path style="fill:none;stroke:red;stroke-width:1px;stroke-linecap:butt;stroke-linejoin:miter;stroke-opacity:1" d="M 523.178,304.15 534.766,304.15 z" id="boundary" inkscape:connector-curvature="0" />
	<path style="fill:none;stroke:red;stroke-width:1px;stroke-linecap:butt;stroke-linejoin:miter;stroke-opacity:1" d="M 531.29,92.0748 542.879,94.3925 z" id="boundary" inkscape:connector-curvature="0" />
	<path style="fill:none;stroke:red;stroke-width:1px;stroke-linecap:butt;stroke-linejoin:miter;stroke-opacity:1" d="M 534.766,304.15 546.355,304.15 z" id="boundary" inkscape:connector-curvature="0" />
	<path style="fill:none;stroke:red;stroke-width:1px;stroke-linecap:butt;stroke-linejoin:miter;stroke-opacity:1" d="M 542.879,94.3925 554.467,94.3925 z" id="boundary" inkscape:connector-curvature="0" />
	<path style="fill:none;stroke:red;stroke-width:1px;stroke-linecap:butt;stroke-linejoin:miter;stroke-opacity:1" d="M 546.355,304.15 557.944,304.15 z" id="boundary" inkscape:connector-curvature="0" />
	<path style="fill:none;stroke:red;stroke-width:1px;stroke-linecap:butt;stroke-linejoin:miter;stroke-opacity:1" d="M 554.467,94.3925 566.056,92.0748 z" id="boundary" inkscape:connector-curvature="0" />
	<path style="fill:none;stroke:red;stroke-width:1px;stroke-linecap:butt;stroke-linejoin:miter;stroke-opacity:1" d="M 557.944,304.15 569.533,304.15 z" id="boundary" inkscape:connector-curvature="0" />
	<path style="fill:none;stroke:red;stroke-width:1px;stroke-linecap:butt;stroke-linejoin:miter;stroke-opacity:1" d="M 566.056,92.0748 575.327,82.8037 z" id="boundary" inkscape:connector-curvature="0" />
	<path style="fill:none;stroke:red;stroke-width:1px;stroke-linecap:butt;stroke-linejoin:miter;stroke-opacity:1" d="M 569.533,304.15 581.121,304.15 z" id="boundary" inkscape:connector-curvature="0" />
	<path style="fill:none;stroke:red;stroke-width:1px;stroke-linecap:butt;stroke-linejoin:miter;stroke-opacity:1" d="M 571.85,68.8972 575.327,82.8037 z" id="boundary" inkscape:connector-curvature="0" />
	<path style="fill:none;stroke:red;stroke-width:1px;stroke-linecap:butt;stroke-linejoin:miter;stroke-opacity:1" d="M 571.85,68.8972 583.439,56.1495 z" id="boundary" inkscape:connector-curvature="0" />
	<path style="fill:none;stroke:red;stroke-width:1px;stroke-linecap:butt;stroke-linejoin:miter;stroke-opacity:1" d="M 581.121,304.15 592.71,304.15 z" id="boundary" inkscape:connector-curvature="0" />
	<path style="fill:none;stroke:red;stroke-width:1px;stroke-linecap:butt;stroke-linejoin:miter;stroke-opacity:1" d="M 583.439,56.1495 589.234,42.243 z" id="boundary" inkscape:connector-curvature="0" />
	<path style="fill:none;stroke:red;stroke-width:1px;stroke-linecap:butt;stroke-linejoin:miter;stroke-opacity:1" d="M 589.234,42.243 595.028,22.5421 z" id="boundary" inkscape:connector-curvature="0" />
	<path style="fill:none;stroke:red;stroke-width:1px;stroke-linecap:butt;stroke-linejoin:miter;stroke-opacity:1" d="M 592.71,304.15 604.299,304.15 z" id="boundary" inkscape:connector-curvature="0" />
	<path style="fill:none;stroke:red;stroke-width:1px;stroke-linecap:butt;stroke-linejoin:miter;stroke-opacity:1" d="M 595.028,22.5421 600.822,10.9533 z" id="boundary" inkscape:connector-curvature="0" />
	<path style="fill:none;stroke:red;stroke-width:1px;stroke-linecap:butt;stroke-linejoin:miter;stroke-opacity:1" d="M 600.822,10.9533 612.411,7.47664 z" id="boundary" inkscape:connector-curvature="0" />
	<path style="fill:none;stroke:red;stroke-width:1px;stroke-linecap:butt;stroke-linejoin:miter;stroke-opacity:1" d="M 604.299,304.15 615.888,304.15 z" id="boundary" inkscape:connector-curvature="0" />
	<path style="fill:none;stroke:red;stroke-width:1px;stroke-linecap:butt;stroke-linejoin:miter;stroke-opacity:1" d="M 612.411,7.47664 624,7.47664 z" id="boundary" inkscape:connector-curvature="0" />
	<path style="fill:none;stroke:red;stroke-width:1px;stroke-linecap:butt;stroke-linejoin:miter;stroke-opacity:1" d="M 615.888,304.15 627.477,302.991 z" id="boundary" inkscape:connector-curvature="0" />
	<path style="fill:none;stroke:red;stroke-width:1px;stroke-linecap:butt;stroke-linejoin:miter;stroke-opacity:1" d="M 624,7.47664 635.589,4 z" id="boundary" inkscape:connector-curvature="0" />
	<path style="fill:none;stroke:red;stroke-width:1px;stroke-linecap:butt;stroke-linejoin:miter;stroke-opacity:1" d="M 627.477,302.991 639.065,298.355 z" id="boundary" inkscape:connector-curvature="0" />
	<path style="fill:none;stroke:red;stroke-width:1px;stroke-linecap:butt;stroke-linejoin:miter;stroke-opacity:1" d="M 635.589,4 640.224,15.5888 z" id="boundary" inkscape:connector-curvature="0" />
	<path style="fill:none;stroke:red;stroke-width:1px;stroke-linecap:butt;stroke-linejoin:miter;stroke-opacity:1" d="M 639.065,298.355 650.654,298.355 z" id="boundary" inkscape:connector-curvature="0" />
	<path style="fill:none;stroke:red;stroke-width:1px;stroke-linecap:butt;stroke-linejoin:miter;stroke-opacity:1" d="M 640.224,15.5888 648.336,24.8598 z" id="boundary" inkscape:connector-curvature="0" />
	<path style="fill:none;stroke:red;stroke-width:1px;stroke-linecap:butt;stroke-linejoin:miter;stroke-opacity:1" d="M 648.336,24.8598 659.925,28.3364 z" id="boundary" inkscape:connector-curvature="0" />
	<path style="fill:none;stroke:red;stroke-width:1px;stroke-linecap:butt;stroke-linejoin:miter;stroke-opacity:1" d="M 650.654,298.355 662.243,298.355 z" id="boundary" inkscape:connector-curvature="0" />
	<path style="fill:none;stroke:red;stroke-width:1px;stroke-linecap:butt;stroke-linejoin:miter;stroke-opacity:1" d="M 659.925,28.3364 668.037,37.6075 z" id="boundary" inkscape:connector-curvature="0" />
	<path style="fill:none;stroke:red;stroke-width:1px;stroke-linecap:butt;stroke-linejoin:miter;stroke-opacity:1" d="M 662.243,298.355 673.832,298.355 z" id="boundary" inkscape:connector-curvature="0" />
	<path style="fill:none;stroke:red;stroke-width:1px;stroke-linecap:butt;stroke-linejoin:miter;stroke-opacity:1" d="M 668.037,37.6075 677.308,45.7196 z" id="boundary" inkscape:connector-curvature="0" />
	<path style="fill:none;stroke:red;stroke-width:1px;stroke-linecap:butt;stroke-linejoin:miter;stroke-opacity:1" d="M 670.355,341.234 670.355,352.822 z" id="boundary" inkscape:connector-curvature="0" />
	<path style="fill:none;stroke:red;stroke-width:1px;stroke-linecap:butt;stroke-linejoin:miter;stroke-opacity:1" d="M 670.355,341.234 676.15,323.85 z" id="boundary" inkscape:connector-curvature="0" />
	<path style="fill:none;stroke:red;stroke-width:1px;stroke-linecap:butt;stroke-linejoin:miter;stroke-opacity:1" d="M 670.355,352.822 670.355,364.411 z" id="boundary" inkscape:connector-curvature="0" />
	<path style="fill:none;stroke:red;stroke-width:1px;stroke-linecap:butt;stroke-linejoin:miter;stroke-opacity:1" d="M 670.355,364.411 670.355,376 z" id="boundary" inkscape:connector-curvature="0" />
	<path style="fill:none;stroke:red;stroke-width:1px;stroke-linecap:butt;stroke-linejoin:miter;stroke-opacity:1" d="M 670.355,376 670.355,387.589 z" id="boundary" inkscape:connector-curvature="0" />
	<path style="fill:none;stroke:red;stroke-width:1px;stroke-linecap:butt;stroke-linejoin:miter;stroke-opacity:1" d="M 670.355,387.589 676.15,398.019 z" id="boundary" inkscape:connector-curvature="0" />
	<path style="fill:none;stroke:red;stroke-width:1px;stroke-linecap:butt;stroke-linejoin:miter;stroke-opacity:1" d="M 673.832,298.355 685.421,298.355 z" id="boundary" inkscape:connector-curvature="0" />
	<path style="fill:none;stroke:red;stroke-width:1px;stroke-linecap:butt;stroke-linejoin:miter;stroke-opacity:1" d="M 676.15,323.85 685.421,314.579 z" id="boundary" inkscape:connector-curvature="0" />
	<path style="fill:none;stroke:red;stroke-width:1px;stroke-linecap:butt;stroke-linejoin:miter;stroke-opacity:1" d="M 676.15,398.019 681.944,408.449 z" id="boundary" inkscape:connector-curvature="0" />
	<path style="fill:none;stroke:red;stroke-width:1px;stroke-linecap:butt;stroke-linejoin:miter;stroke-opacity:1" d="M 677.308,45.7196 681.944,57.3084 z" id="boundary" inkscape:connector-curvature="0" />
	<path style="fill:none;stroke:red;stroke-width:1px;stroke-linecap:butt;stroke-linejoin:miter;stroke-opacity:1" d="M 681.944,57.3084 687.738,67.7383 z" id="boundary" inkscape:connector-curvature="0" />
	<path style="fill:none;stroke:red;stroke-width:1px;stroke-linecap:butt;stroke-linejoin:miter;stroke-opacity:1" d="M 681.944,408.449 691.215,401.495 z" id="boundary" inkscape:connector-curvature="0" />
	<path style="fill:none;stroke:red;stroke-width:1px;stroke-linecap:butt;stroke-linejoin:miter;stroke-opacity:1" d="M 685.421,298.355 694.692,305.308 z" id="boundary" inkscape:connector-curvature="0" />
	<path style="fill:none;stroke:red;stroke-width:1px;stroke-linecap:butt;stroke-linejoin:miter;stroke-opacity:1" d="M 685.421,314.579 694.692,305.308 z" id="boundary" inkscape:connector-curvature="0" />
	<path style="fill:none;stroke:red;stroke-width:1px;stroke-linecap:butt;stroke-linejoin:miter;stroke-opacity:1" d="M 687.738,67.7383 692.374,79.3271 z" id="boundary" inkscape:connector-curvature="0" />
	<path style="fill:none;stroke:red;stroke-width:1px;stroke-linecap:butt;stroke-linejoin:miter;stroke-opacity:1" d="M 691.215,401.495 697.009,389.907 z" id="boundary" inkscape:connector-curvature="0" />
	<path style="fill:none;stroke:red;stroke-width:1px;stroke-linecap:butt;stroke-linejoin:miter;stroke-opacity:1" d="M 692.374,79.3271 700.486,88.5981 z" id="boundary" inkscape:connector-curvature="0" />
	<path style="fill:none;stroke:red;stroke-width:1px;stroke-linecap:butt;stroke-linejoin:miter;stroke-opacity:1" d="M 697.009,389.907 706.28,373.682 z" id="boundary" inkscape:connector-curvature="0" />
	<path style="fill:none;stroke:red;stroke-width:1px;stroke-linecap:butt;stroke-linejoin:miter;stroke-opacity:1" d="M 700.486,88.5981 710.916,94.3925 z" id="boundary" inkscape:connector-curvature="0" />
	<path style="fill:none;stroke:red;stroke-width:1px;stroke-linecap:butt;stroke-linejoin:miter;stroke-opacity:1" d="M 706.28,373.682 712.075,362.093 z" id="boundary" inkscape:connector-curvature="0" />
	<path style="fill:none;stroke:red;stroke-width:1px;stroke-linecap:butt;stroke-linejoin:miter;stroke-opacity:1" d="M 710.916,94.3925 722.505,94.3925 z" id="boundary" inkscape:connector-curvature="0" />
	<path style="fill:none;stroke:red;stroke-width:1px;stroke-linecap:butt;stroke-linejoin:miter;stroke-opacity:1" d="M 712.075,362.093 717.869,350.505 z" id="boundary" inkscape:connector-curvature="0" />
	<path style="fill:none;stroke:red;stroke-width:1px;stroke-linecap:butt;stroke-linejoin:miter;stroke-opacity:1" d="M 717.869,350.505 723.664,338.916 z" id="boundary" inkscape:connector-curvature="0" />
	<path style="fill:none;stroke:red;stroke-width:1px;stroke-linecap:butt;stroke-linejoin:miter;stroke-opacity:1" d="M 722.505,94.3925 734.093,94.3925 z" id="boundary" inkscape:connector-curvature="0" />
	<path style="fill:none;stroke:red;stroke-width:1px;stroke-linecap:butt;stroke-linejoin:miter;stroke-opacity:1" d="M 723.664,338.916 729.458,321.533 z" id="boundary" inkscape:connector-curvature="0" />
	<path style="fill:none;stroke:red;stroke-width:1px;stroke-linecap:butt;stroke-linejoin:miter;stroke-opacity:1" d="M 729.458,321.533 735.252,304.15 z" id="boundary" inkscape:connector-curvature="0" />
	<path style="fill:none;stroke:red;stroke-width:1px;stroke-linecap:butt;stroke-linejoin:miter;stroke-opacity:1" d="M 734.093,94.3925 745.682,94.3925 z" id="boundary" inkscape:connector-curvature="0" />
	<path style="fill:none;stroke:red;stroke-width:1px;stroke-linecap:butt;stroke-linejoin:miter;stroke-opacity:1" d="M 735.252,304.15 741.047,286.766 z" id="boundary" inkscape:connector-curvature="0" />
	<path style="fill:none;stroke:red;stroke-width:1px;stroke-linecap:butt;stroke-linejoin:miter;stroke-opacity:1" d="M 741.047,286.766 752.636,286.766 z" id="boundary" inkscape:connector-curvature="0" />
	<path style="fill:none;stroke:red;stroke-width:1px;stroke-linecap:butt;stroke-linejoin:miter;stroke-opacity:1" d="M 745.682,94.3925 757.271,96.7103 z" id="boundary" inkscape:connector-curvature="0" />
	<path style="fill:none;stroke:red;stroke-width:1px;stroke-linecap:butt;stroke-linejoin:miter;stroke-opacity:1" d="M 752.636,286.766 764.224,280.972 z" id="boundary" inkscape:connector-curvature="0" />
	<path style="fill:none;stroke:red;stroke-width:1px;stroke-linecap:butt;stroke-linejoin:miter;stroke-opacity:1" d="M 757.271,96.7103 768.86,100.187 z" id="boundary" inkscape:connector-curvature="0" />
	<path style="fill:none;stroke:red;stroke-width:1px;stroke-linecap:butt;stroke-linejoin:miter;stroke-opacity:1" d="M 764.224,280.972 775.813,280.972 z" id="boundary" inkscape:connector-curvature="0" />
	<path style="fill:none;stroke:red;stroke-width:1px;stroke-linecap:butt;stroke-linejoin:miter;stroke-opacity:1" d="M 768.86,100.187 780.449,100.187 z" id="boundary" inkscape:connector-curvature="0" />
	<path style="fill:none;stroke:red;stroke-width:1px;stroke-linecap:butt;stroke-linejoin:miter;stroke-opacity:1" d="M 775.813,280.972 786.243,275.178 z" id="boundary" inkscape:connector-curvature="0" />
	<path style="fill:none;stroke:red;stroke-width:1px;stroke-linecap:butt;stroke-linejoin:miter;stroke-opacity:1" d="M 780.449,100.187 792.037,100.187 z" id="boundary" inkscape:connector-curvature="0" />
	<path style="fill:none;stroke:red;stroke-width:1px;stroke-linecap:butt;stroke-linejoin:miter;stroke-opacity:1" d="M 786.243,275.178 797.832,275.178 z" id="boundary" inkscape:connector-curvature="0" />
	<path style="fill:none;stroke:red;stroke-width:1px;stroke-linecap:butt;stroke-linejoin:miter;stroke-opacity:1" d="M 792.037,100.187 802.467,105.981 z" id="boundary" inkscape:connector-curvature="0" />
	<path style="fill:none;stroke:red;stroke-width:1px;stroke-linecap:butt;stroke-linejoin:miter;stroke-opacity:1" d="M 797.832,275.178 808.262,269.383 z" id="boundary" inkscape:connector-curvature="0" />
	<path style="fill:none;stroke:red;stroke-width:1px;stroke-linecap:butt;stroke-linejoin:miter;stroke-opacity:1" d="M 802.467,105.981 814.056,105.981 z" id="boundary" inkscape:connector-curvature="0" />
	<path style="fill:none;stroke:red;stroke-width:1px;stroke-linecap:butt;stroke-linejoin:miter;stroke-opacity:1" d="M 808.262,269.383 819.85,267.065 z" id="boundary" inkscape:connector-curvature="0" />
	<path style="fill:none;stroke:red;stroke-width:1px;stroke-linecap:butt;stroke-linejoin:miter;stroke-opacity:1" d="M 814.056,105.981 825.645,107.14 z" id="boundary" inkscape:connector-curvature="0" />
	<path style="fill:none;stroke:red;stroke-width:1px;stroke-linecap:butt;stroke-linejoin:miter;stroke-opacity:1" d="M 819.85,267.065 831.439,263.589 z" id="boundary" inkscape:connector-curvature="0" />
	<path style="fill:none;stroke:red;stroke-width:1px;stroke-linecap:butt;stroke-linejoin:miter;stroke-opacity:1" d="M 825.645,107.14 837.234,111.776 z" id="boundary" inkscape:connector-curvature="0" />
	<path style="fill:none;stroke:red;stroke-width:1px;stroke-linecap:butt;stroke-linejoin:miter;stroke-opacity:1" d="M 831.439,263.589 841.869,257.794 z" id="boundary" inkscape:connector-curvature="0" />
	<path style="fill:none;stroke:red;stroke-width:1px;stroke-linecap:butt;stroke-linejoin:miter;stroke-opacity:1" d="M 837.234,111.776 848.822,111.776 z" id="boundary" inkscape:connector-curvature="0" />
	<path style="fill:none;stroke:red;stroke-width:1px;stroke-linecap:butt;stroke-linejoin:miter;stroke-opacity:1" d="M 841.869,257.794 853.458,257.794 z" id="boundary" inkscape:connector-curvature="0" />
	<path style="fill:none;stroke:red;stroke-width:1px;stroke-linecap:butt;stroke-linejoin:miter;stroke-opacity:1" d="M 848.822,111.776 859.252,117.57 z" id="boundary" inkscape:connector-curvature="0" />
	<path style="fill:none;stroke:red;stroke-width:1px;stroke-linecap:butt;stroke-linejoin:miter;stroke-opacity:1" d="M 853.458,257.794 863.888,252 z" id="boundary" inkscape:connector-curvature="0" />
	<path style="fill:none;stroke:red;stroke-width:1px;stroke-linecap:butt;stroke-linejoin:miter;stroke-opacity:1" d="M 859.252,117.57 870.841,117.57 z" id="boundary" inkscape:connector-curvature="0" />
	<path style="fill:none;stroke:red;stroke-width:1px;stroke-linecap:butt;stroke-linejoin:miter;stroke-opacity:1" d="M 863.888,252 875.477,252 z" id="boundary" inkscape:connector-curvature="0" />
	<path style="fill:none;stroke:red;stroke-width:1px;stroke-linecap:butt;stroke-linejoin:miter;stroke-opacity:1" d="M 870.841,117.57 882.43,117.57 z" id="boundary" inkscape:connector-curvature="0" />
	<path style="fill:none;stroke:red;stroke-width:1px;stroke-linecap:butt;stroke-linejoin:miter;stroke-opacity:1" d="M 875.477,252 885.907,246.206 z" id="boundary" inkscape:connector-curvature="0" />
	<path style="fill:none;stroke:red;stroke-width:1px;stroke-linecap:butt;stroke-linejoin:miter;stroke-opacity:1" d="M 882.43,117.57 892.86,123.364 z" id="boundary" inkscape:connector-curvature="0" />
	<path style="fill:none;stroke:red;stroke-width:1px;stroke-linecap:butt;stroke-linejoin:miter;stroke-opacity:1" d="M 885.907,246.206 896.336,240.411 z" id="boundary" inkscape:connector-curvature="0" />
	<path style="fill:none;stroke:red;stroke-width:1px;stroke-linecap:butt;stroke-linejoin:miter;stroke-opacity:1" d="M 892.86,123.364 904.449,123.364 z" id="boundary" inkscape:connector-curvature="0" />
	<path style="fill:none;stroke:red;stroke-width:1px;stroke-linecap:butt;stroke-linejoin:miter;stroke-opacity:1" d="M 896.336,240.411 907.925,236.935 z" id="boundary" inkscape:connector-curvature="0" />
	<path style="fill:none;stroke:red;stroke-width:1px;stroke-linecap:butt;stroke-linejoin:miter;stroke-opacity:1" d="M 904.449,123.364 914.879,129.159 z" id="boundary" inkscape:connector-curvature="0" />
	<path style="fill:none;stroke:red;stroke-width:1px;stroke-linecap:butt;stroke-linejoin:miter;stroke-opacity:1" d="M 907.925,236.935 919.514,234.617 z" id="boundary" inkscape:connector-curvature="0" />
	<path style="fill:none;stroke:red;stroke-width:1px;stroke-linecap:butt;stroke-linejoin:miter;stroke-opacity:1" d="M 914.879,129.159 926.467,129.159 z" id="boundary" inkscape:connector-curvature="0" />
	<path style="fill:none;stroke:red;stroke-width:1px;stroke-linecap:butt;stroke-linejoin:miter;stroke-opacity:1" d="M 919.514,234.617 929.944,228.822 z" id="boundary" inkscape:connector-curvature="0" />
	<path style="fill:none;stroke:red;stroke-width:1px;stroke-linecap:butt;stroke-linejoin:miter;stroke-opacity:1" d="M 926.467,129.159 936.897,134.953 z" id="boundary" inkscape:connector-curvature="0" />
	<path style="fill:none;stroke:red;stroke-width:1px;stroke-linecap:butt;stroke-linejoin:miter;stroke-opacity:1" d="M 929.944,228.822 941.533,226.505 z" id="boundary" inkscape:connector-curvature="0" />
	<path style="fill:none;stroke:red;stroke-width:1px;stroke-linecap:butt;stroke-linejoin:miter;stroke-opacity:1" d="M 936.897,134.953 947.327,140.748 z" id="boundary" inkscape:connector-curvature="0" />
	<path style="fill:none;stroke:red;stroke-width:1px;stroke-linecap:butt;stroke-linejoin:miter;stroke-opacity:1" d="M 941.533,226.505 953.121,220.71 z" id="boundary" inkscape:connector-curvature="0" />
	<path style="fill:none;stroke:red;stroke-width:1px;stroke-linecap:butt;stroke-linejoin:miter;stroke-opacity:1" d="M 947.327,140.748 957.757,146.542 z" id="boundary" inkscape:connector-curvature="0" />
	<path style="fill:none;stroke:red;stroke-width:1px;stroke-linecap:butt;stroke-linejoin:miter;stroke-opacity:1" d="M 953.121,220.71 964.71,214.916 z" id="boundary" inkscape:connector-curvature="0" />
	<path style="fill:none;stroke:red;stroke-width:1px;stroke-linecap:butt;stroke-linejoin:miter;stroke-opacity:1" d="M 957.757,146.542 968.187,152.336 z" id="boundary" inkscape:connector-curvature="0" />
	<path style="fill:none;stroke:red;stroke-width:1px;stroke-linecap:butt;stroke-linejoin:miter;stroke-opacity:1" d="M 964.71,214.916 976.299,209.121 z" id="boundary" inkscape:connector-curvature="0" />
	<path style="fill:none;stroke:red;stroke-width:1px;stroke-linecap:butt;stroke-linejoin:miter;stroke-opacity:1" d="M 968.187,152.336 972.822,165.084 z" id="boundary" inkscape:connector-curvature="0" />
	<path style="fill:none;stroke:red;stroke-width:1px;stroke-linecap:butt;stroke-linejoin:miter;stroke-opacity:1" d="M 972.822,165.084 972.822,176.673 z" id="boundary" inkscape:connector-curvature="0" />
	<path style="fill:none;stroke:red;stroke-width:1px;stroke-linecap:butt;stroke-linejoin:miter;stroke-opacity:1" d="M 972.822,176.673 984.411,175.514 z" id="boundary" inkscape:connector-curvature="0" />
	<path style="fill:none;stroke:red;stroke-width:1px;stroke-linecap:butt;stroke-linejoin:miter;stroke-opacity:1" d="M 976.299,209.121 984.411,199.85 z" id="boundary" inkscape:connector-curvature="0" />
	<path style="fill:none;stroke:red;stroke-width:1px;stroke-linecap:butt;stroke-linejoin:miter;stroke-opacity:1" d="M 984.411,175.514 996,175.514 z" id="boundary" inkscape:connector-curvature="0" />
	<path style="fill:none;stroke:red;stroke-width:1px;stroke-linecap:butt;stroke-linejoin:miter;stroke-opacity:1" d="M 984.411,199.85 996,194.056 z" id="boundary" inkscape:connector-curvature="0" />
	<path style="fill:none;stroke:red;stroke-width:1px;stroke-linecap:butt;stroke-linejoin:miter;stroke-opacity:1" d="M 996,175.514 996,194.056 z" id="boundary" inkscape:connector-curvature="0" />
	<circle cx="4" cy="132.636" r="4" fill="#0" id="circle0"/>
	<circle cx="4" cy="144.224" r="4" fill="#0" id="circle1"/>
	<circle cx="4" cy="155.813" r="4" fill="#0" id="circle2"/>
	<circle cx="9.79439" cy="166.243" r="4" fill="#0" id="circle3"/>
	<circle cx="9.79439" cy="265.907" r="4" fill="#0" id="circle4"/>
	<circle cx="9.79439" cy="277.495" r="4" fill="#0" id="circle5"/>
	<circle cx="13.271" cy="123.364" r="4" fill="#0" id="circle6"/>
	<circle cx="15.5888" cy="176.673" r="4" fill="#0" id="circle7"/>
	<circle cx="15.5888" cy="188.262" r="4" fill="#0" id="circle8"/>
	<circle cx="15.5888" cy="199.85" r="4" fill="#0" id="circle9"/>
	<circle cx="15.5888" cy="211.439" r="4" fill="#0" id="circle10"/>
	<circle cx="15.5888" cy="223.028" r="4" fill="#0" id="circle11"/>
	<circle cx="15.5888" cy="234.617" r="4" fill="#0" id="circle12"/>
	<circle cx="15.5888" cy="246.206" r="4" fill="#0" id="circle13"/>
	<circle cx="16.7477" cy="286.766" r="4" fill="#0" id="circle14"/>
	<circle cx="23.7009" cy="129.159" r="4" fill="#0" id="circle15"/>
	<circle cx="28.3364" cy="286.766" r="4" fill="#0" id="circle16"/>
	<circle cx="35.2897" cy="129.159" r="4" fill="#0" id="circle17"/>
	<circle cx="39.9252" cy="286.766" r="4" fill="#0" id="circle18"/>
	<circle cx="46.8785" cy="129.159" r="4" fill="#0" id="circle19"/>
	<circle cx="51.514" cy="286.766" r="4" fill="#0" id="circle20"/>
	<circle cx="57.3084" cy="134.953" r="4" fill="#0" id="circle21"/>
	<circle cx="63.1028" cy="286.766" r="4" fill="#0" id="circle22"/>
	<circle cx="68.8972" cy="138.43" r="4" fill="#0" id="circle23"/>
	<circle cx="74.6916" cy="286.766" r="4" fill="#0" id="circle24"/>
	<circle cx="80.486" cy="140.748" r="4" fill="#0" id="circle25"/>
	<circle cx="85.1215" cy="280.972" r="4" fill="#0" id="circle26"/>
	<circle cx="90.9159" cy="146.542" r="4" fill="#0" id="circle27"/>
	<circle cx="96.7103" cy="280.972" r="4" fill="#0" id="circle28"/>
	<circle cx="102.505" cy="146.542" r="4" fill="#0" id="circle29"/>
	<circle cx="107.14" cy="275.178" r="4" fill="#0" id="circle30"/>
	<circle cx="114.093" cy="148.86" r="4" fill="#0" id="circle31"/>
	<circle cx="117.57" cy="269.383" r="4" fill="#0" id="circle32"/>
	<circle cx="125.682" cy="152.336" r="4" fill="#0" id="circle33"/>
	<circle cx="129.159" cy="268.224" r="4" fill="#0" id="circle34"/>
	<circle cx="137.271" cy="152.336" r="4" fill="#0" id="circle35"/>
	<circle cx="140.748" cy="262.43" r="4" fill="#0" id="circle36"/>
	<circle cx="147.701" cy="158.131" r="4" fill="#0" id="circle37"/>
	<circle cx="152.336" cy="257.794" r="4" fill="#0" id="circle38"/>
	<circle cx="159.29" cy="158.131" r="4" fill="#0" id="circle39"/>
	<circle cx="162.766" cy="252" r="4" fill="#0" id="circle40"/>
	<circle cx="170.879" cy="158.131" r="4" fill="#0" id="circle41"/>
	<circle cx="174.355" cy="252" r="4" fill="#0" id="circle42"/>
	<circle cx="181.308" cy="163.925" r="4" fill="#0" id="circle43"/>
	<circle cx="184.785" cy="246.206" r="4" fill="#0" id="circle44"/>
	<circle cx="192.897" cy="163.925" r="4" fill="#0" id="circle45"/>
	<circle cx="196.374" cy="240.411" r="4" fill="#0" id="circle46"/>
	<circle cx="204.486" cy="163.925" r="4" fill="#0" id="circle47"/>
	<circle cx="207.963" cy="240.411" r="4" fill="#0" id="circle48"/>
	<circle cx="216.075" cy="163.925" r="4" fill="#0" id="circle49"/>
	<circle cx="219.551" cy="240.411" r="4" fill="#0" id="circle50"/>
	<circle cx="227.664" cy="163.925" r="4" fill="#0" id="circle51"/>
	<circle cx="229.981" cy="126.841" r="4" fill="#0" id="circle52"/>
	<circle cx="229.981" cy="138.43" r="4" fill="#0" id="circle53"/>
	<circle cx="231.14" cy="240.411" r="4" fill="#0" id="circle54"/>
	<circle cx="239.252" cy="117.57" r="4" fill="#0" id="circle55"/>
	<circle cx="239.252" cy="146.542" r="4" fill="#0" id="circle56"/>
	<circle cx="239.252" cy="163.925" r="4" fill="#0" id="circle57"/>
	<circle cx="242.729" cy="240.411" r="4" fill="#0" id="circle58"/>
	<circle cx="248.523" cy="153.495" r="4" fill="#0" id="circle59"/>
	<circle cx="249.682" cy="111.776" r="4" fill="#0" id="circle60"/>
	<circle cx="254.318" cy="240.411" r="4" fill="#0" id="circle61"/>
	<circle cx="261.271" cy="107.14" r="4" fill="#0" id="circle62"/>
	<circle cx="264.748" cy="246.206" r="4" fill="#0" id="circle63"/>
	<circle cx="264.748" cy="277.495" r="4" fill="#0" id="circle64"/>
	<circle cx="264.748" cy="289.084" r="4" fill="#0" id="circle65"/>
	<circle cx="270.542" cy="299.514" r="4" fill="#0" id="circle66"/>
	<circle cx="272.86" cy="101.346" r="4" fill="#0" id="circle67"/>
	<circle cx="274.019" cy="268.224" r="4" fill="#0" id="circle68"/>
	<circle cx="276.336" cy="246.206" r="4" fill="#0" id="circle69"/>
	<circle cx="276.336" cy="309.944" r="4" fill="#0" id="circle70"/>
	<circle cx="282.131" cy="320.374" r="4" fill="#0" id="circle71"/>
	<circle cx="283.29" cy="258.953" r="4" fill="#0" id="circle72"/>
	<circle cx="284.449" cy="95.5514" r="4" fill="#0" id="circle73"/>
	<circle cx="284.449" cy="331.963" r="4" fill="#0" id="circle74"/>
	<circle cx="287.925" cy="343.551" r="4" fill="#0" id="circle75"/>
	<circle cx="294.879" cy="352.822" r="4" fill="#0" id="circle76"/>
	<circle cx="296.037" cy="94.3925" r="4" fill="#0" id="circle77"/>
	<circle cx="302.991" cy="362.093" r="4" fill="#0" id="circle78"/>
	<circle cx="306.467" cy="88.5981" r="4" fill="#0" id="circle79"/>
	<circle cx="313.421" cy="356.299" r="4" fill="#0" id="circle80"/>
	<circle cx="316.897" cy="82.8037" r="4" fill="#0" id="circle81"/>
	<circle cx="323.85" cy="350.505" r="4" fill="#0" id="circle82"/>
	<circle cx="328.486" cy="80.486" r="4" fill="#0" id="circle83"/>
	<circle cx="333.121" cy="342.393" r="4" fill="#0" id="circle84"/>
	<circle cx="340.075" cy="77.0093" r="4" fill="#0" id="circle85"/>
	<circle cx="341.234" cy="327.327" r="4" fill="#0" id="circle86"/>
	<circle cx="350.505" cy="319.215" r="4" fill="#0" id="circle87"/>
	<circle cx="351.664" cy="74.6916" r="4" fill="#0" id="circle88"/>
	<circle cx="358.617" cy="309.944" r="4" fill="#0" id="circle89"/>
	<circle cx="363.252" cy="71.215" r="4" fill="#0" id="circle90"/>
	<circle cx="364.411" cy="298.355" r="4" fill="#0" id="circle91"/>
	<circle cx="373.682" cy="65.4206" r="4" fill="#0" id="circle92"/>
	<circle cx="373.682" cy="290.243" r="4" fill="#0" id="circle93"/>
	<circle cx="384.112" cy="59.6262" r="4" fill="#0" id="circle94"/>
	<circle cx="385.271" cy="292.561" r="4" fill="#0" id="circle95"/>
	<circle cx="395.701" cy="59.6262" r="4" fill="#0" id="circle96"/>
	<circle cx="396.86" cy="292.561" r="4" fill="#0" id="circle97"/>
	<circle cx="406.131" cy="53.8318" r="4" fill="#0" id="circle98"/>
	<circle cx="408.449" cy="292.561" r="4" fill="#0" id="circle99"/>
	<circle cx="417.72" cy="53.8318" r="4" fill="#0" id="circle100"/>
	<circle cx="418.879" cy="298.355" r="4" fill="#0" id="circle101"/>
	<circle cx="428.15" cy="48.0374" r="4" fill="#0" id="circle102"/>
	<circle cx="430.467" cy="298.355" r="4" fill="#0" id="circle103"/>
	<circle cx="439.738" cy="48.0374" r="4" fill="#0" id="circle104"/>
	<circle cx="442.056" cy="298.355" r="4" fill="#0" id="circle105"/>
	<circle cx="451.327" cy="48.0374" r="4" fill="#0" id="circle106"/>
	<circle cx="453.645" cy="298.355" r="4" fill="#0" id="circle107"/>
	<circle cx="462.916" cy="48.0374" r="4" fill="#0" id="circle108"/>
	<circle cx="465.234" cy="302.991" r="4" fill="#0" id="circle109"/>
	<circle cx="474.505" cy="48.0374" r="4" fill="#0" id="circle110"/>
	<circle cx="476.822" cy="304.15" r="4" fill="#0" id="circle111"/>
	<circle cx="484.935" cy="53.8318" r="4" fill="#0" id="circle112"/>
	<circle cx="488.411" cy="304.15" r="4" fill="#0" id="circle113"/>
	<circle cx="495.364" cy="59.6262" r="4" fill="#0" id="circle114"/>
	<circle cx="500" cy="304.15" r="4" fill="#0" id="circle115"/>
	<circle cx="505.794" cy="65.4206" r="4" fill="#0" id="circle116"/>
	<circle cx="511.589" cy="304.15" r="4" fill="#0" id="circle117"/>
	<circle cx="513.907" cy="74.6916" r="4" fill="#0" id="circle118"/>
	<circle cx="523.178" cy="82.8037" r="4" fill="#0" id="circle119"/>
	<circle cx="523.178" cy="304.15" r="4" fill="#0" id="circle120"/>
	<circle cx="531.29" cy="92.0748" r="4" fill="#0" id="circle121"/>
	<circle cx="534.766" cy="304.15" r="4" fill="#0" id="circle122"/>
	<circle cx="542.879" cy="94.3925" r="4" fill="#0" id="circle123"/>
	<circle cx="546.355" cy="304.15" r="4" fill="#0" id="circle124"/>
	<circle cx="554.467" cy="94.3925" r="4" fill="#0" id="circle125"/>
	<circle cx="557.944" cy="304.15" r="4" fill="#0" id="circle126"/>
	<circle cx="566.056" cy="92.0748" r="4" fill="#0" id="circle127"/>
	<circle cx="569.533" cy="304.15" r="4" fill="#0" id="circle128"/>
	<circle cx="571.85" cy="68.8972" r="4" fill="#0" id="circle129"/>
	<circle cx="575.327" cy="82.8037" r="4" fill="#0" id="circle130"/>
	<circle cx="577.645" cy="45.7196" r="4" fill="#0" id="circle131"/>
	<circle cx="581.121" cy="304.15" r="4" fill="#0" id="circle132"/>
	<circle cx="583.439" cy="56.1495" r="4" fill="#0" id="circle133"/>
	<circle cx="589.234" cy="42.243" r="4" fill="#0" id="circle134"/>
	<circle cx="592.71" cy="304.15" r="4" fill="#0" id="circle135"/>
	<circle cx="595.028" cy="22.5421" r="4" fill="#0" id="circle136"/>
	<circle cx="600.822" cy="10.9533" r="4" fill="#0" id="circle137"/>
	<circle cx="604.299" cy="304.15" r="4" fill="#0" id="circle138"/>
	<circle cx="612.411" cy="7.47664" r="4" fill="#0" id="circle139"/>
	<circle cx="615.888" cy="304.15" r="4" fill="#0" id="circle140"/>
	<circle cx="624" cy="7.47664" r="4" fill="#0" id="circle141"/>
	<circle cx="627.477" cy="302.991" r="4" fill="#0" id="circle142"/>
	<circle cx="635.589" cy="4" r="4" fill="#0" id="circle143"/>
	<circle cx="639.065" cy="298.355" r="4" fill="#0" id="circle144"/>
	<circle cx="640.224" cy="15.5888" r="4" fill="#0" id="circle145"/>
	<circle cx="648.336" cy="24.8598" r="4" fill="#0" id="circle146"/>
	<circle cx="650.654" cy="298.355" r="4" fill="#0" id="circle147"/>
	<circle cx="659.925" cy="28.3364" r="4" fill="#0" id="circle148"/>
	<circle cx="662.243" cy="298.355" r="4" fill="#0" id="circle149"/>
	<circle cx="668.037" cy="37.6075" r="4" fill="#0" id="circle150"/>
	<circle cx="670.355" cy="341.234" r="4" fill="#0" id="circle151"/>
	<circle cx="670.355" cy="352.822" r="4" fill="#0" id="circle152"/>
	<circle cx="670.355" cy="364.411" r="4" fill="#0" id="circle153"/>
	<circle cx="670.355" cy="376" r="4" fill="#0" id="circle154"/>
	<circle cx="670.355" cy="387.589" r="4" fill="#0" id="circle155"/>
	<circle cx="673.832" cy="298.355" r="4" fill="#0" id="circle156"/>
	<circle cx="676.15" cy="323.85" r="4" fill="#0" id="circle157"/>
	<circle cx="676.15" cy="398.019" r="4" fill="#0" id="circle158"/>
	<circle cx="677.308" cy="45.7196" r="4" fill="#0" id="circle159"/>
	<circle cx="681.944" cy="57.3084" r="4" fill="#0" id="circle160"/>
	<circle cx="681.944" cy="408.449" r="4" fill="#0" id="circle161"/>
	<circle cx="685.421" cy="298.355" r="4" fill="#0" id="circle162"/>
	<circle cx="685.421" cy="314.579" r="4" fill="#0" id="circle163"/>
	<circle cx="687.738" cy="67.7383" r="4" fill="#0" id="circle164"/>
	<circle cx="691.215" cy="401.495" r="4" fill="#0" id="circle165"/>
	<circle cx="692.374" cy="79.3271" r="4" fill="#0" id="circle166"/>
	<circle cx="694.692" cy="305.308" r="4" fill="#0" id="circle167"/>
	<circle cx="697.009" cy="389.907" r="4" fill="#0" id="circle168"/>
	<circle cx="700.486" cy="88.5981" r="4" fill="#0" id="circle169"/>
	<circle cx="706.28" cy="373.682" r="4" fill="#0" id="circle170"/>
	<circle cx="710.916" cy="94.3925" r="4" fill="#0" id="circle171"/>
	<circle cx="712.075" cy="362.093" r="4" fill="#0" id="circle172"/>
	<circle cx="717.869" cy="350.505" r="4" fill="#0" id="circle173"/>
	<circle cx="722.505" cy="94.3925" r="4" fill="#0" id="circle174"/>
	<circle cx="723.664" cy="338.916" r="4" fill="#0" id="circle175"/>
	<circle cx="729.458" cy="321.533" r="4" fill="#0" id="circle176"/>
	<circle cx="734.093" cy="94.3925" r="4" fill="#0" id="circle177"/>
	<circle cx="735.252" cy="304.15" r="4" fill="#0" id="circle178"/>
	<circle cx="741.047" cy="286.766" r="4" fill="#0" id="circle179"/>
	<circle cx="745.682" cy="94.3925" r="4" fill="#0" id="circle180"/>
	<circle cx="752.636" cy="286.766" r="4" fill="#0" id="circle181"/>
	<circle cx="757.271" cy="96.7103" r="4" fill="#0" id="circle182"/>
	<circle cx="764.224" cy="280.972" r="4" fill="#0" id="circle183"/>
	<circle cx="768.86" cy="100.187" r="4" fill="#0" id="circle184"/>
	<circle cx="775.813" cy="280.972" r="4" fill="#0" id="circle185"/>
	<circle cx="780.449" cy="100.187" r="4" fill="#0" id="circle186"/>
	<circle cx="786.243" cy="275.178" r="4" fill="#0" id="circle187"/>
	<circle cx="792.037" cy="100.187" r="4" fill="#0" id="circle188"/>
	<circle cx="797.832" cy="275.178" r="4" fill="#0" id="circle189"/>
	<circle cx="802.467" cy="105.981" r="4" fill="#0" id="circle190"/>
	<circle cx="808.262" cy="269.383" r="4" fill="#0" id="circle191"/>
	<circle cx="814.056" cy="105.981" r="4" fill="#0" id="circle192"/>
	<circle cx="819.85" cy="267.065" r="4" fill="#0" id="circle193"/>
	<circle cx="825.645" cy="107.14" r="4" fill="#0" id="circle194"/>
	<circle cx="831.439" cy="263.589" r="4" fill="#0" id="circle195"/>
	<circle cx="837.234" cy="111.776" r="4" fill="#0" id="circle196"/>
	<circle cx="841.869" cy="257.794" r="4" fill="#0" id="circle197"/>
	<circle cx="848.822" cy="111.776" r="4" fill="#0" id="circle198"/>
	<circle cx="853.458" cy="257.794" r="4" fill="#0" id="circle199"/>
	<circle cx="859.252" cy="117.57" r="4" fill="#0" id="circle200"/>
	<circle cx="863.888" cy="252" r="4" fill="#0" id="circle201"/>
	<circle cx="870.841" cy="117.57" r="4" fill="#0" id="circle202"/>
	<circle cx="875.477" cy="252" r="4" fill="#0" id="circle203"/>
	<circle cx="882.43" cy="117.57" r="4" fill="#0" id="circle204"/>
	<circle cx="885.907" cy="246.206" r="4" fill="#0" id="circle205"/>
	<circle cx="892.86" cy="123.364" r="4" fill="#0" id="circle206"/>
	<circle cx="896.336" cy="240.411" r="4" fill="#0" id="circle207"/>
	<circle cx="904.449" cy="123.364" r="4" fill="#0" id="circle208"/>
	<circle cx="907.925" cy="236.935" r="4" fill="#0" id="circle209"/>
	<circle cx="914.879" cy="129.159" r="4" fill="#0" id="circle210"/>
	<circle cx="919.514" cy="234.617" r="4" fill="#0" id="circle211"/>
	<circle cx="926.467" cy="129.159" r="4" fill="#0" id="circle212"/>
	<circle cx="929.944" cy="228.822" r="4" fill="#0" id="circle213"/>
	<circle cx="936.897" cy="134.953" r="4" fill="#0" id="circle214"/>
	<circle cx="941.533" cy="226.505" r="4" fill="#0" id="circle215"/>
	<circle cx="947.327" cy="140.748" r="4" fill="#0" id="circle216"/>
	<circle cx="953.121" cy="220.71" r="4" fill="#0" id="circle217"/>
	<circle cx="957.757" cy="146.542" r="4" fill="#0" id="circle218"/>
	<circle cx="964.71" cy="214.916" r="4" fill="#0" id="circle219"/>
	<circle cx="968.187" cy="152.336" r="4" fill="#0" id="circle220"/>
	<circle cx="972.822" cy="165.084" r="4" fill="#0" id="circle221"/>
	<circle cx="972.822" cy="176.673" r="4" fill="#0" id="circle222"/>
	<circle cx="976.299" cy="209.121" r="4" fill="#0" id="circle223"/>
	<circle cx="984.411" cy="175.514" r="4" fill="#0" id="circle224"/>
	<circle cx="984.411" cy="199.85" r="4" fill="#0" id="circle225"/>
	<circle cx="996" cy="175.514" r="4" fill="#0" id="circle226"/>
	<circle cx="996" cy="194.056" r="4" fill="#0" id="circle227"/>
	</g>
</svg>