<?xml version="1.0" encoding="UTF-8" standalone="no"?>
<!-- Created with CurveBenchmark -->
<svg
	xmlns:dc="http://purl.org/dc/elements/1.1/"
	xmlns:cc="http://creativecommons.org/ns#"
	xmlns:rdf="http://www.w3.org/1999/02/22-rdf-syntax-ns#"
	xmlns:svg="http://www.w3.org/2000/svg"
	xmlns="http://www.w3.org/2000/svg"
	xmlns:sodipodi="http://sodipodi.sourceforge.net/DTD/sodipodi-0.dtd"
	xmlns:inkscape="http://www.inkscape.org/namespaces/inkscape"
	width="1000"
	height="1000"
	id="svg2"
	version="1.1"
	sodipodi:docname="manifold/vicur-television210.png.txt">
<defs
	id="defs4" />
<metadata
	id="metadata7">
	<rdf:RDF>
		<cc:Work
			rdf:about="">
			<dc:format>image/svg+xml</dc:format>
			<dc:type
				rdf:resource="http://purl.org/dc/dcmitype/StillImage" />
			<dc:title></dc:title>
		</cc:Work>
	</rdf:RDF>
</metadata>
<g
	inkscape:label="Layer 1"
	inkscape:groupmode="layer"
	id="layer1">
	<path style="fill:none;stroke:red;stroke-width:1px;stroke-linecap:butt;stroke-linejoin:miter;stroke-opacity:1" d="M 4,767.077 4,800.254 z" id="boundary" inkscape:connector-curvature="0" />
	<path style="fill:none;stroke:red;stroke-width:1px;stroke-linecap:butt;stroke-linejoin:miter;stroke-opacity:1" d="M 4,767.077 37.1773,760.441 z" id="boundary" inkscape:connector-curvature="0" />
	<path style="fill:none;stroke:red;stroke-width:1px;stroke-linecap:butt;stroke-linejoin:miter;stroke-opacity:1" d="M 4,800.254 20.5886,830.114 z" id="boundary" inkscape:connector-curvature="0" />
	<path style="fill:none;stroke:red;stroke-width:1px;stroke-linecap:butt;stroke-linejoin:miter;stroke-opacity:1" d="M 20.5886,830.114 53.7659,830.114 z" id="boundary" inkscape:connector-curvature="0" />
	<path style="fill:none;stroke:red;stroke-width:1px;stroke-linecap:butt;stroke-linejoin:miter;stroke-opacity:1" d="M 37.1773,760.441 63.7191,780.348 z" id="boundary" inkscape:connector-curvature="0" />
	<path style="fill:none;stroke:red;stroke-width:1px;stroke-linecap:butt;stroke-linejoin:miter;stroke-opacity:1" d="M 53.7659,830.114 86.9431,830.114 z" id="boundary" inkscape:connector-curvature="0" />
	<path style="fill:none;stroke:red;stroke-width:1px;stroke-linecap:butt;stroke-linejoin:miter;stroke-opacity:1" d="M 63.7191,780.348 116.803,780.348 z" id="boundary" inkscape:connector-curvature="0" />
	<path style="fill:none;stroke:red;stroke-width:1px;stroke-linecap:butt;stroke-linejoin:miter;stroke-opacity:1" d="M 86.9431,830.114 120.12,830.114 z" id="boundary" inkscape:connector-curvature="0" />
	<path style="fill:none;stroke:red;stroke-width:1px;stroke-linecap:butt;stroke-linejoin:miter;stroke-opacity:1" d="M 96.8963,568.013 126.756,584.602 z" id="boundary" inkscape:connector-curvature="0" />
	<path style="fill:none;stroke:red;stroke-width:1px;stroke-linecap:butt;stroke-linejoin:miter;stroke-opacity:1" d="M 96.8963,568.013 143.344,554.742 z" id="boundary" inkscape:connector-curvature="0" />
	<path style="fill:none;stroke:red;stroke-width:1px;stroke-linecap:butt;stroke-linejoin:miter;stroke-opacity:1" d="M 96.8963,667.545 123.438,690.769 z" id="boundary" inkscape:connector-curvature="0" />
	<path style="fill:none;stroke:red;stroke-width:1px;stroke-linecap:butt;stroke-linejoin:miter;stroke-opacity:1" d="M 96.8963,667.545 140.027,660.91 z" id="boundary" inkscape:connector-curvature="0" />
	<path style="fill:none;stroke:red;stroke-width:1px;stroke-linecap:butt;stroke-linejoin:miter;stroke-opacity:1" d="M 116.803,780.348 143.344,760.441 z" id="boundary" inkscape:connector-curvature="0" />
	<path style="fill:none;stroke:red;stroke-width:1px;stroke-linecap:butt;stroke-linejoin:miter;stroke-opacity:1" d="M 120.12,830.114 153.298,830.114 z" id="boundary" inkscape:connector-curvature="0" />
	<path style="fill:none;stroke:red;stroke-width:1px;stroke-linecap:butt;stroke-linejoin:miter;stroke-opacity:1" d="M 123.438,690.769 156.615,690.769 z" id="boundary" inkscape:connector-curvature="0" />
	<path style="fill:none;stroke:red;stroke-width:1px;stroke-linecap:butt;stroke-linejoin:miter;stroke-opacity:1" d="M 126.756,584.602 159.933,584.602 z" id="boundary" inkscape:connector-curvature="0" />
	<path style="fill:none;stroke:red;stroke-width:1px;stroke-linecap:butt;stroke-linejoin:miter;stroke-opacity:1" d="M 140.027,660.91 173.204,660.91 z" id="boundary" inkscape:connector-curvature="0" />
	<path style="fill:none;stroke:red;stroke-width:1px;stroke-linecap:butt;stroke-linejoin:miter;stroke-opacity:1" d="M 143.344,17.2709 143.344,50.4482 z" id="boundary" inkscape:connector-curvature="0" />
	<path style="fill:none;stroke:red;stroke-width:1px;stroke-linecap:butt;stroke-linejoin:miter;stroke-opacity:1" d="M 143.344,17.2709 176.522,4 z" id="boundary" inkscape:connector-curvature="0" />
	<path style="fill:none;stroke:red;stroke-width:1px;stroke-linecap:butt;stroke-linejoin:miter;stroke-opacity:1" d="M 143.344,50.4482 143.344,83.6254 z" id="boundary" inkscape:connector-curvature="0" />
	<path style="fill:none;stroke:red;stroke-width:1px;stroke-linecap:butt;stroke-linejoin:miter;stroke-opacity:1" d="M 143.344,83.6254 143.344,116.803 z" id="boundary" inkscape:connector-curvature="0" />
	<path style="fill:none;stroke:red;stroke-width:1px;stroke-linecap:butt;stroke-linejoin:miter;stroke-opacity:1" d="M 143.344,116.803 143.344,149.98 z" id="boundary" inkscape:connector-curvature="0" />
	<path style="fill:none;stroke:red;stroke-width:1px;stroke-linecap:butt;stroke-linejoin:miter;stroke-opacity:1" d="M 143.344,149.98 143.344,183.157 z" id="boundary" inkscape:connector-curvature="0" />
	<path style="fill:none;stroke:red;stroke-width:1px;stroke-linecap:butt;stroke-linejoin:miter;stroke-opacity:1" d="M 143.344,183.157 143.344,216.334 z" id="boundary" inkscape:connector-curvature="0" />
	<path style="fill:none;stroke:red;stroke-width:1px;stroke-linecap:butt;stroke-linejoin:miter;stroke-opacity:1" d="M 143.344,216.334 143.344,249.512 z" id="boundary" inkscape:connector-curvature="0" />
	<path style="fill:none;stroke:red;stroke-width:1px;stroke-linecap:butt;stroke-linejoin:miter;stroke-opacity:1" d="M 143.344,249.512 143.344,282.689 z" id="boundary" inkscape:connector-curvature="0" />
	<path style="fill:none;stroke:red;stroke-width:1px;stroke-linecap:butt;stroke-linejoin:miter;stroke-opacity:1" d="M 143.344,282.689 143.344,315.866 z" id="boundary" inkscape:connector-curvature="0" />
	<path style="fill:none;stroke:red;stroke-width:1px;stroke-linecap:butt;stroke-linejoin:miter;stroke-opacity:1" d="M 143.344,315.866 143.344,349.043 z" id="boundary" inkscape:connector-curvature="0" />
	<path style="fill:none;stroke:red;stroke-width:1px;stroke-linecap:butt;stroke-linejoin:miter;stroke-opacity:1" d="M 143.344,349.043 143.344,382.221 z" id="boundary" inkscape:connector-curvature="0" />
	<path style="fill:none;stroke:red;stroke-width:1px;stroke-linecap:butt;stroke-linejoin:miter;stroke-opacity:1" d="M 143.344,382.221 143.344,415.398 z" id="boundary" inkscape:connector-curvature="0" />
	<path style="fill:none;stroke:red;stroke-width:1px;stroke-linecap:butt;stroke-linejoin:miter;stroke-opacity:1" d="M 143.344,415.398 159.933,445.258 z" id="boundary" inkscape:connector-curvature="0" />
	<path style="fill:none;stroke:red;stroke-width:1px;stroke-linecap:butt;stroke-linejoin:miter;stroke-opacity:1" d="M 143.344,554.742 176.522,554.742 z" id="boundary" inkscape:connector-curvature="0" />
	<path style="fill:none;stroke:red;stroke-width:1px;stroke-linecap:butt;stroke-linejoin:miter;stroke-opacity:1" d="M 143.344,760.441 176.522,760.441 z" id="boundary" inkscape:connector-curvature="0" />
	<path style="fill:none;stroke:red;stroke-width:1px;stroke-linecap:butt;stroke-linejoin:miter;stroke-opacity:1" d="M 153.298,830.114 186.475,833.431 z" id="boundary" inkscape:connector-curvature="0" />
	<path style="fill:none;stroke:red;stroke-width:1px;stroke-linecap:butt;stroke-linejoin:miter;stroke-opacity:1" d="M 156.615,690.769 189.793,690.769 z" id="boundary" inkscape:connector-curvature="0" />
	<path style="fill:none;stroke:red;stroke-width:1px;stroke-linecap:butt;stroke-linejoin:miter;stroke-opacity:1" d="M 159.933,445.258 193.11,445.258 z" id="boundary" inkscape:connector-curvature="0" />
	<path style="fill:none;stroke:red;stroke-width:1px;stroke-linecap:butt;stroke-linejoin:miter;stroke-opacity:1" d="M 159.933,584.602 193.11,584.602 z" id="boundary" inkscape:connector-curvature="0" />
	<path style="fill:none;stroke:red;stroke-width:1px;stroke-linecap:butt;stroke-linejoin:miter;stroke-opacity:1" d="M 173.204,660.91 206.381,660.91 z" id="boundary" inkscape:connector-curvature="0" />
	<path style="fill:none;stroke:red;stroke-width:1px;stroke-linecap:butt;stroke-linejoin:miter;stroke-opacity:1" d="M 176.522,4 209.699,4 z" id="boundary" inkscape:connector-curvature="0" />
	<path style="fill:none;stroke:red;stroke-width:1px;stroke-linecap:butt;stroke-linejoin:miter;stroke-opacity:1" d="M 176.522,554.742 209.699,554.742 z" id="boundary" inkscape:connector-curvature="0" />
	<path style="fill:none;stroke:red;stroke-width:1px;stroke-linecap:butt;stroke-linejoin:miter;stroke-opacity:1" d="M 176.522,760.441 209.699,760.441 z" id="boundary" inkscape:connector-curvature="0" />
	<path style="fill:none;stroke:red;stroke-width:1px;stroke-linecap:butt;stroke-linejoin:miter;stroke-opacity:1" d="M 186.475,833.431 219.652,830.114 z" id="boundary" inkscape:connector-curvature="0" />
	<path style="fill:none;stroke:red;stroke-width:1px;stroke-linecap:butt;stroke-linejoin:miter;stroke-opacity:1" d="M 189.793,690.769 222.97,690.769 z" id="boundary" inkscape:connector-curvature="0" />
	<path style="fill:none;stroke:red;stroke-width:1px;stroke-linecap:butt;stroke-linejoin:miter;stroke-opacity:1" d="M 193.11,445.258 226.288,445.258 z" id="boundary" inkscape:connector-curvature="0" />
	<path style="fill:none;stroke:red;stroke-width:1px;stroke-linecap:butt;stroke-linejoin:miter;stroke-opacity:1" d="M 193.11,584.602 226.288,584.602 z" id="boundary" inkscape:connector-curvature="0" />
	<path style="fill:none;stroke:red;stroke-width:1px;stroke-linecap:butt;stroke-linejoin:miter;stroke-opacity:1" d="M 206.381,660.91 239.559,660.91 z" id="boundary" inkscape:connector-curvature="0" />
	<path style="fill:none;stroke:red;stroke-width:1px;stroke-linecap:butt;stroke-linejoin:miter;stroke-opacity:1" d="M 209.699,4 242.876,4 z" id="boundary" inkscape:connector-curvature="0" />
	<path style="fill:none;stroke:red;stroke-width:1px;stroke-linecap:butt;stroke-linejoin:miter;stroke-opacity:1" d="M 209.699,554.742 242.876,554.742 z" id="boundary" inkscape:connector-curvature="0" />
	<path style="fill:none;stroke:red;stroke-width:1px;stroke-linecap:butt;stroke-linejoin:miter;stroke-opacity:1" d="M 209.699,760.441 242.876,760.441 z" id="boundary" inkscape:connector-curvature="0" />
	<path style="fill:none;stroke:red;stroke-width:1px;stroke-linecap:butt;stroke-linejoin:miter;stroke-opacity:1" d="M 219.652,830.114 252.829,830.114 z" id="boundary" inkscape:connector-curvature="0" />
	<path style="fill:none;stroke:red;stroke-width:1px;stroke-linecap:butt;stroke-linejoin:miter;stroke-opacity:1" d="M 222.97,690.769 256.147,690.769 z" id="boundary" inkscape:connector-curvature="0" />
	<path style="fill:none;stroke:red;stroke-width:1px;stroke-linecap:butt;stroke-linejoin:miter;stroke-opacity:1" d="M 226.288,445.258 259.465,445.258 z" id="boundary" inkscape:connector-curvature="0" />
	<path style="fill:none;stroke:red;stroke-width:1px;stroke-linecap:butt;stroke-linejoin:miter;stroke-opacity:1" d="M 226.288,584.602 259.465,584.602 z" id="boundary" inkscape:connector-curvature="0" />
	<path style="fill:none;stroke:red;stroke-width:1px;stroke-linecap:butt;stroke-linejoin:miter;stroke-opacity:1" d="M 239.559,660.91 272.736,660.91 z" id="boundary" inkscape:connector-curvature="0" />
	<path style="fill:none;stroke:red;stroke-width:1px;stroke-linecap:butt;stroke-linejoin:miter;stroke-opacity:1" d="M 242.876,4 276.054,4 z" id="boundary" inkscape:connector-curvature="0" />
	<path style="fill:none;stroke:red;stroke-width:1px;stroke-linecap:butt;stroke-linejoin:miter;stroke-opacity:1" d="M 242.876,554.742 276.054,554.742 z" id="boundary" inkscape:connector-curvature="0" />
	<path style="fill:none;stroke:red;stroke-width:1px;stroke-linecap:butt;stroke-linejoin:miter;stroke-opacity:1" d="M 242.876,760.441 276.054,760.441 z" id="boundary" inkscape:connector-curvature="0" />
	<path style="fill:none;stroke:red;stroke-width:1px;stroke-linecap:butt;stroke-linejoin:miter;stroke-opacity:1" d="M 252.829,830.114 286.007,830.114 z" id="boundary" inkscape:connector-curvature="0" />
	<path style="fill:none;stroke:red;stroke-width:1px;stroke-linecap:butt;stroke-linejoin:miter;stroke-opacity:1" d="M 256.147,690.769 289.324,690.769 z" id="boundary" inkscape:connector-curvature="0" />
	<path style="fill:none;stroke:red;stroke-width:1px;stroke-linecap:butt;stroke-linejoin:miter;stroke-opacity:1" d="M 259.465,445.258 292.642,445.258 z" id="boundary" inkscape:connector-curvature="0" />
	<path style="fill:none;stroke:red;stroke-width:1px;stroke-linecap:butt;stroke-linejoin:miter;stroke-opacity:1" d="M 259.465,584.602 292.642,584.602 z" id="boundary" inkscape:connector-curvature="0" />
	<path style="fill:none;stroke:red;stroke-width:1px;stroke-linecap:butt;stroke-linejoin:miter;stroke-opacity:1" d="M 272.736,660.91 305.913,660.91 z" id="boundary" inkscape:connector-curvature="0" />
	<path style="fill:none;stroke:red;stroke-width:1px;stroke-linecap:butt;stroke-linejoin:miter;stroke-opacity:1" d="M 276.054,4 309.231,4 z" id="boundary" inkscape:connector-curvature="0" />
	<path style="fill:none;stroke:red;stroke-width:1px;stroke-linecap:butt;stroke-linejoin:miter;stroke-opacity:1" d="M 276.054,554.742 309.231,554.742 z" id="boundary" inkscape:connector-curvature="0" />
	<path style="fill:none;stroke:red;stroke-width:1px;stroke-linecap:butt;stroke-linejoin:miter;stroke-opacity:1" d="M 276.054,760.441 309.231,760.441 z" id="boundary" inkscape:connector-curvature="0" />
	<path style="fill:none;stroke:red;stroke-width:1px;stroke-linecap:butt;stroke-linejoin:miter;stroke-opacity:1" d="M 286.007,830.114 319.184,830.114 z" id="boundary" inkscape:connector-curvature="0" />
	<path style="fill:none;stroke:red;stroke-width:1px;stroke-linecap:butt;stroke-linejoin:miter;stroke-opacity:1" d="M 289.324,690.769 322.502,690.769 z" id="boundary" inkscape:connector-curvature="0" />
	<path style="fill:none;stroke:red;stroke-width:1px;stroke-linecap:butt;stroke-linejoin:miter;stroke-opacity:1" d="M 292.642,445.258 325.819,445.258 z" id="boundary" inkscape:connector-curvature="0" />
	<path style="fill:none;stroke:red;stroke-width:1px;stroke-linecap:butt;stroke-linejoin:miter;stroke-opacity:1" d="M 292.642,584.602 325.819,584.602 z" id="boundary" inkscape:connector-curvature="0" />
	<path style="fill:none;stroke:red;stroke-width:1px;stroke-linecap:butt;stroke-linejoin:miter;stroke-opacity:1" d="M 305.913,660.91 339.09,660.91 z" id="boundary" inkscape:connector-curvature="0" />
	<path style="fill:none;stroke:red;stroke-width:1px;stroke-linecap:butt;stroke-linejoin:miter;stroke-opacity:1" d="M 309.231,4 342.408,4 z" id="boundary" inkscape:connector-curvature="0" />
	<path style="fill:none;stroke:red;stroke-width:1px;stroke-linecap:butt;stroke-linejoin:miter;stroke-opacity:1" d="M 309.231,554.742 342.408,554.742 z" id="boundary" inkscape:connector-curvature="0" />
	<path style="fill:none;stroke:red;stroke-width:1px;stroke-linecap:butt;stroke-linejoin:miter;stroke-opacity:1" d="M 309.231,760.441 342.408,760.441 z" id="boundary" inkscape:connector-curvature="0" />
	<path style="fill:none;stroke:red;stroke-width:1px;stroke-linecap:butt;stroke-linejoin:miter;stroke-opacity:1" d="M 319.184,830.114 352.361,830.114 z" id="boundary" inkscape:connector-curvature="0" />
	<path style="fill:none;stroke:red;stroke-width:1px;stroke-linecap:butt;stroke-linejoin:miter;stroke-opacity:1" d="M 322.502,690.769 355.679,690.769 z" id="boundary" inkscape:connector-curvature="0" />
	<path style="fill:none;stroke:red;stroke-width:1px;stroke-linecap:butt;stroke-linejoin:miter;stroke-opacity:1" d="M 325.819,445.258 358.997,445.258 z" id="boundary" inkscape:connector-curvature="0" />
	<path style="fill:none;stroke:red;stroke-width:1px;stroke-linecap:butt;stroke-linejoin:miter;stroke-opacity:1" d="M 325.819,584.602 358.997,584.602 z" id="boundary" inkscape:connector-curvature="0" />
	<path style="fill:none;stroke:red;stroke-width:1px;stroke-linecap:butt;stroke-linejoin:miter;stroke-opacity:1" d="M 339.09,660.91 355.679,690.769 z" id="boundary" inkscape:connector-curvature="0" />
	<path style="fill:none;stroke:red;stroke-width:1px;stroke-linecap:butt;stroke-linejoin:miter;stroke-opacity:1" d="M 342.408,4 375.585,4 z" id="boundary" inkscape:connector-curvature="0" />
	<path style="fill:none;stroke:red;stroke-width:1px;stroke-linecap:butt;stroke-linejoin:miter;stroke-opacity:1" d="M 342.408,554.742 368.95,511.612 z" id="boundary" inkscape:connector-curvature="0" />
	<path style="fill:none;stroke:red;stroke-width:1px;stroke-linecap:butt;stroke-linejoin:miter;stroke-opacity:1" d="M 342.408,760.441 368.95,723.946 z" id="boundary" inkscape:connector-curvature="0" />
	<path style="fill:none;stroke:red;stroke-width:1px;stroke-linecap:butt;stroke-linejoin:miter;stroke-opacity:1" d="M 352.361,830.114 385.538,830.114 z" id="boundary" inkscape:connector-curvature="0" />
	<path style="fill:none;stroke:red;stroke-width:1px;stroke-linecap:butt;stroke-linejoin:miter;stroke-opacity:1" d="M 358.997,445.258 368.95,478.435 z" id="boundary" inkscape:connector-curvature="0" />
	<path style="fill:none;stroke:red;stroke-width:1px;stroke-linecap:butt;stroke-linejoin:miter;stroke-opacity:1" d="M 358.997,584.602 368.95,617.779 z" id="boundary" inkscape:connector-curvature="0" />
	<path style="fill:none;stroke:red;stroke-width:1px;stroke-linecap:butt;stroke-linejoin:miter;stroke-opacity:1" d="M 368.95,478.435 368.95,511.612 z" id="boundary" inkscape:connector-curvature="0" />
	<path style="fill:none;stroke:red;stroke-width:1px;stroke-linecap:butt;stroke-linejoin:miter;stroke-opacity:1" d="M 375.585,4 408.763,4 z" id="boundary" inkscape:connector-curvature="0" />
	<path style="fill:none;stroke:red;stroke-width:1px;stroke-linecap:butt;stroke-linejoin:miter;stroke-opacity:1" d="M 385.538,830.114 418.716,830.114 z" id="boundary" inkscape:connector-curvature="0" />
	<path style="fill:none;stroke:red;stroke-width:1px;stroke-linecap:butt;stroke-linejoin:miter;stroke-opacity:1" d="M 408.763,4 441.94,4 z" id="boundary" inkscape:connector-curvature="0" />
	<path style="fill:none;stroke:red;stroke-width:1px;stroke-linecap:butt;stroke-linejoin:miter;stroke-opacity:1" d="M 418.716,830.114 451.893,830.114 z" id="boundary" inkscape:connector-curvature="0" />
	<path style="fill:none;stroke:red;stroke-width:1px;stroke-linecap:butt;stroke-linejoin:miter;stroke-opacity:1" d="M 441.94,4 475.117,4 z" id="boundary" inkscape:connector-curvature="0" />
	<path style="fill:none;stroke:red;stroke-width:1px;stroke-linecap:butt;stroke-linejoin:miter;stroke-opacity:1" d="M 451.893,830.114 485.07,830.114 z" id="boundary" inkscape:connector-curvature="0" />
	<path style="fill:none;stroke:red;stroke-width:1px;stroke-linecap:butt;stroke-linejoin:miter;stroke-opacity:1" d="M 475.117,4 508.294,4 z" id="boundary" inkscape:connector-curvature="0" />
	<path style="fill:none;stroke:red;stroke-width:1px;stroke-linecap:butt;stroke-linejoin:miter;stroke-opacity:1" d="M 485.07,830.114 518.247,830.114 z" id="boundary" inkscape:connector-curvature="0" />
	<path style="fill:none;stroke:red;stroke-width:1px;stroke-linecap:butt;stroke-linejoin:miter;stroke-opacity:1" d="M 508.294,4 541.472,4 z" id="boundary" inkscape:connector-curvature="0" />
	<path style="fill:none;stroke:red;stroke-width:1px;stroke-linecap:butt;stroke-linejoin:miter;stroke-opacity:1" d="M 518.247,830.114 551.425,830.114 z" id="boundary" inkscape:connector-curvature="0" />
	<path style="fill:none;stroke:red;stroke-width:1px;stroke-linecap:butt;stroke-linejoin:miter;stroke-opacity:1" d="M 541.472,4 574.649,4 z" id="boundary" inkscape:connector-curvature="0" />
	<path style="fill:none;stroke:red;stroke-width:1px;stroke-linecap:butt;stroke-linejoin:miter;stroke-opacity:1" d="M 551.425,830.114 584.602,830.114 z" id="boundary" inkscape:connector-curvature="0" />
	<path style="fill:none;stroke:red;stroke-width:1px;stroke-linecap:butt;stroke-linejoin:miter;stroke-opacity:1" d="M 558.06,448.575 558.06,481.753 z" id="boundary" inkscape:connector-curvature="0" />
	<path style="fill:none;stroke:red;stroke-width:1px;stroke-linecap:butt;stroke-linejoin:miter;stroke-opacity:1" d="M 558.06,448.575 591.237,445.258 z" id="boundary" inkscape:connector-curvature="0" />
	<path style="fill:none;stroke:red;stroke-width:1px;stroke-linecap:butt;stroke-linejoin:miter;stroke-opacity:1" d="M 558.06,481.753 558.06,514.93 z" id="boundary" inkscape:connector-curvature="0" />
	<path style="fill:none;stroke:red;stroke-width:1px;stroke-linecap:butt;stroke-linejoin:miter;stroke-opacity:1" d="M 558.06,514.93 558.06,548.107 z" id="boundary" inkscape:connector-curvature="0" />
	<path style="fill:none;stroke:red;stroke-width:1px;stroke-linecap:butt;stroke-linejoin:miter;stroke-opacity:1" d="M 558.06,548.107 591.237,554.742 z" id="boundary" inkscape:connector-curvature="0" />
	<path style="fill:none;stroke:red;stroke-width:1px;stroke-linecap:butt;stroke-linejoin:miter;stroke-opacity:1" d="M 558.06,587.92 558.06,621.097 z" id="boundary" inkscape:connector-curvature="0" />
	<path style="fill:none;stroke:red;stroke-width:1px;stroke-linecap:butt;stroke-linejoin:miter;stroke-opacity:1" d="M 558.06,587.92 607.826,584.602 z" id="boundary" inkscape:connector-curvature="0" />
	<path style="fill:none;stroke:red;stroke-width:1px;stroke-linecap:butt;stroke-linejoin:miter;stroke-opacity:1" d="M 558.06,621.097 558.06,654.274 z" id="boundary" inkscape:connector-curvature="0" />
	<path style="fill:none;stroke:red;stroke-width:1px;stroke-linecap:butt;stroke-linejoin:miter;stroke-opacity:1" d="M 558.06,654.274 591.237,660.91 z" id="boundary" inkscape:connector-curvature="0" />
	<path style="fill:none;stroke:red;stroke-width:1px;stroke-linecap:butt;stroke-linejoin:miter;stroke-opacity:1" d="M 558.06,694.087 558.06,727.264 z" id="boundary" inkscape:connector-curvature="0" />
	<path style="fill:none;stroke:red;stroke-width:1px;stroke-linecap:butt;stroke-linejoin:miter;stroke-opacity:1" d="M 558.06,694.087 607.826,690.769 z" id="boundary" inkscape:connector-curvature="0" />
	<path style="fill:none;stroke:red;stroke-width:1px;stroke-linecap:butt;stroke-linejoin:miter;stroke-opacity:1" d="M 558.06,727.264 561.378,760.441 z" id="boundary" inkscape:connector-curvature="0" />
	<path style="fill:none;stroke:red;stroke-width:1px;stroke-linecap:butt;stroke-linejoin:miter;stroke-opacity:1" d="M 561.378,760.441 594.555,760.441 z" id="boundary" inkscape:connector-curvature="0" />
	<path style="fill:none;stroke:red;stroke-width:1px;stroke-linecap:butt;stroke-linejoin:miter;stroke-opacity:1" d="M 574.649,4 607.826,4 z" id="boundary" inkscape:connector-curvature="0" />
	<path style="fill:none;stroke:red;stroke-width:1px;stroke-linecap:butt;stroke-linejoin:miter;stroke-opacity:1" d="M 584.602,830.114 617.779,830.114 z" id="boundary" inkscape:connector-curvature="0" />
	<path style="fill:none;stroke:red;stroke-width:1px;stroke-linecap:butt;stroke-linejoin:miter;stroke-opacity:1" d="M 591.237,445.258 624.415,445.258 z" id="boundary" inkscape:connector-curvature="0" />
	<path style="fill:none;stroke:red;stroke-width:1px;stroke-linecap:butt;stroke-linejoin:miter;stroke-opacity:1" d="M 591.237,554.742 624.415,554.742 z" id="boundary" inkscape:connector-curvature="0" />
	<path style="fill:none;stroke:red;stroke-width:1px;stroke-linecap:butt;stroke-linejoin:miter;stroke-opacity:1" d="M 591.237,660.91 624.415,660.91 z" id="boundary" inkscape:connector-curvature="0" />
	<path style="fill:none;stroke:red;stroke-width:1px;stroke-linecap:butt;stroke-linejoin:miter;stroke-opacity:1" d="M 594.555,760.441 627.732,760.441 z" id="boundary" inkscape:connector-curvature="0" />
	<path style="fill:none;stroke:red;stroke-width:1px;stroke-linecap:butt;stroke-linejoin:miter;stroke-opacity:1" d="M 607.826,4 641.003,4 z" id="boundary" inkscape:connector-curvature="0" />
	<path style="fill:none;stroke:red;stroke-width:1px;stroke-linecap:butt;stroke-linejoin:miter;stroke-opacity:1" d="M 607.826,584.602 641.003,584.602 z" id="boundary" inkscape:connector-curvature="0" />
	<path style="fill:none;stroke:red;stroke-width:1px;stroke-linecap:butt;stroke-linejoin:miter;stroke-opacity:1" d="M 607.826,690.769 641.003,690.769 z" id="boundary" inkscape:connector-curvature="0" />
	<path style="fill:none;stroke:red;stroke-width:1px;stroke-linecap:butt;stroke-linejoin:miter;stroke-opacity:1" d="M 617.779,830.114 650.957,830.114 z" id="boundary" inkscape:connector-curvature="0" />
	<path style="fill:none;stroke:red;stroke-width:1px;stroke-linecap:butt;stroke-linejoin:miter;stroke-opacity:1" d="M 624.415,445.258 657.592,445.258 z" id="boundary" inkscape:connector-curvature="0" />
	<path style="fill:none;stroke:red;stroke-width:1px;stroke-linecap:butt;stroke-linejoin:miter;stroke-opacity:1" d="M 624.415,554.742 657.592,554.742 z" id="boundary" inkscape:connector-curvature="0" />
	<path style="fill:none;stroke:red;stroke-width:1px;stroke-linecap:butt;stroke-linejoin:miter;stroke-opacity:1" d="M 624.415,660.91 657.592,660.91 z" id="boundary" inkscape:connector-curvature="0" />
	<path style="fill:none;stroke:red;stroke-width:1px;stroke-linecap:butt;stroke-linejoin:miter;stroke-opacity:1" d="M 627.732,760.441 660.91,760.441 z" id="boundary" inkscape:connector-curvature="0" />
	<path style="fill:none;stroke:red;stroke-width:1px;stroke-linecap:butt;stroke-linejoin:miter;stroke-opacity:1" d="M 641.003,4 674.181,4 z" id="boundary" inkscape:connector-curvature="0" />
	<path style="fill:none;stroke:red;stroke-width:1px;stroke-linecap:butt;stroke-linejoin:miter;stroke-opacity:1" d="M 641.003,584.602 674.181,584.602 z" id="boundary" inkscape:connector-curvature="0" />
	<path style="fill:none;stroke:red;stroke-width:1px;stroke-linecap:butt;stroke-linejoin:miter;stroke-opacity:1" d="M 641.003,690.769 674.181,690.769 z" id="boundary" inkscape:connector-curvature="0" />
	<path style="fill:none;stroke:red;stroke-width:1px;stroke-linecap:butt;stroke-linejoin:miter;stroke-opacity:1" d="M 650.957,830.114 684.134,830.114 z" id="boundary" inkscape:connector-curvature="0" />
	<path style="fill:none;stroke:red;stroke-width:1px;stroke-linecap:butt;stroke-linejoin:miter;stroke-opacity:1" d="M 657.592,445.258 690.769,445.258 z" id="boundary" inkscape:connector-curvature="0" />
	<path style="fill:none;stroke:red;stroke-width:1px;stroke-linecap:butt;stroke-linejoin:miter;stroke-opacity:1" d="M 657.592,554.742 690.769,554.742 z" id="boundary" inkscape:connector-curvature="0" />
	<path style="fill:none;stroke:red;stroke-width:1px;stroke-linecap:butt;stroke-linejoin:miter;stroke-opacity:1" d="M 657.592,660.91 690.769,660.91 z" id="boundary" inkscape:connector-curvature="0" />
	<path style="fill:none;stroke:red;stroke-width:1px;stroke-linecap:butt;stroke-linejoin:miter;stroke-opacity:1" d="M 660.91,760.441 694.087,760.441 z" id="boundary" inkscape:connector-curvature="0" />
	<path style="fill:none;stroke:red;stroke-width:1px;stroke-linecap:butt;stroke-linejoin:miter;stroke-opacity:1" d="M 674.181,4 707.358,4 z" id="boundary" inkscape:connector-curvature="0" />
	<path style="fill:none;stroke:red;stroke-width:1px;stroke-linecap:butt;stroke-linejoin:miter;stroke-opacity:1" d="M 674.181,584.602 707.358,584.602 z" id="boundary" inkscape:connector-curvature="0" />
	<path style="fill:none;stroke:red;stroke-width:1px;stroke-linecap:butt;stroke-linejoin:miter;stroke-opacity:1" d="M 674.181,690.769 707.358,690.769 z" id="boundary" inkscape:connector-curvature="0" />
	<path style="fill:none;stroke:red;stroke-width:1px;stroke-linecap:butt;stroke-linejoin:miter;stroke-opacity:1" d="M 684.134,830.114 717.311,830.114 z" id="boundary" inkscape:connector-curvature="0" />
	<path style="fill:none;stroke:red;stroke-width:1px;stroke-linecap:butt;stroke-linejoin:miter;stroke-opacity:1" d="M 690.769,445.258 723.946,445.258 z" id="boundary" inkscape:connector-curvature="0" />
	<path style="fill:none;stroke:red;stroke-width:1px;stroke-linecap:butt;stroke-linejoin:miter;stroke-opacity:1" d="M 690.769,554.742 723.946,554.742 z" id="boundary" inkscape:connector-curvature="0" />
	<path style="fill:none;stroke:red;stroke-width:1px;stroke-linecap:butt;stroke-linejoin:miter;stroke-opacity:1" d="M 690.769,660.91 723.946,660.91 z" id="boundary" inkscape:connector-curvature="0" />
	<path style="fill:none;stroke:red;stroke-width:1px;stroke-linecap:butt;stroke-linejoin:miter;stroke-opacity:1" d="M 694.087,760.441 727.264,760.441 z" id="boundary" inkscape:connector-curvature="0" />
	<path style="fill:none;stroke:red;stroke-width:1px;stroke-linecap:butt;stroke-linejoin:miter;stroke-opacity:1" d="M 707.358,4 740.535,4 z" id="boundary" inkscape:connector-curvature="0" />
	<path style="fill:none;stroke:red;stroke-width:1px;stroke-linecap:butt;stroke-linejoin:miter;stroke-opacity:1" d="M 707.358,584.602 740.535,584.602 z" id="boundary" inkscape:connector-curvature="0" />
	<path style="fill:none;stroke:red;stroke-width:1px;stroke-linecap:butt;stroke-linejoin:miter;stroke-opacity:1" d="M 707.358,690.769 740.535,690.769 z" id="boundary" inkscape:connector-curvature="0" />
	<path style="fill:none;stroke:red;stroke-width:1px;stroke-linecap:butt;stroke-linejoin:miter;stroke-opacity:1" d="M 717.311,830.114 750.488,830.114 z" id="boundary" inkscape:connector-curvature="0" />
	<path style="fill:none;stroke:red;stroke-width:1px;stroke-linecap:butt;stroke-linejoin:miter;stroke-opacity:1" d="M 723.946,445.258 757.124,445.258 z" id="boundary" inkscape:connector-curvature="0" />
	<path style="fill:none;stroke:red;stroke-width:1px;stroke-linecap:butt;stroke-linejoin:miter;stroke-opacity:1" d="M 723.946,554.742 757.124,554.742 z" id="boundary" inkscape:connector-curvature="0" />
	<path style="fill:none;stroke:red;stroke-width:1px;stroke-linecap:butt;stroke-linejoin:miter;stroke-opacity:1" d="M 723.946,660.91 757.124,660.91 z" id="boundary" inkscape:connector-curvature="0" />
	<path style="fill:none;stroke:red;stroke-width:1px;stroke-linecap:butt;stroke-linejoin:miter;stroke-opacity:1" d="M 727.264,760.441 760.441,760.441 z" id="boundary" inkscape:connector-curvature="0" />
	<path style="fill:none;stroke:red;stroke-width:1px;stroke-linecap:butt;stroke-linejoin:miter;stroke-opacity:1" d="M 740.535,4 773.712,4 z" id="boundary" inkscape:connector-curvature="0" />
	<path style="fill:none;stroke:red;stroke-width:1px;stroke-linecap:butt;stroke-linejoin:miter;stroke-opacity:1" d="M 740.535,584.602 773.712,584.602 z" id="boundary" inkscape:connector-curvature="0" />
	<path style="fill:none;stroke:red;stroke-width:1px;stroke-linecap:butt;stroke-linejoin:miter;stroke-opacity:1" d="M 740.535,690.769 773.712,690.769 z" id="boundary" inkscape:connector-curvature="0" />
	<path style="fill:none;stroke:red;stroke-width:1px;stroke-linecap:butt;stroke-linejoin:miter;stroke-opacity:1" d="M 750.488,830.114 783.666,830.114 z" id="boundary" inkscape:connector-curvature="0" />
	<path style="fill:none;stroke:red;stroke-width:1px;stroke-linecap:butt;stroke-linejoin:miter;stroke-opacity:1" d="M 757.124,445.258 790.301,445.258 z" id="boundary" inkscape:connector-curvature="0" />
	<path style="fill:none;stroke:red;stroke-width:1px;stroke-linecap:butt;stroke-linejoin:miter;stroke-opacity:1" d="M 757.124,554.742 790.301,554.742 z" id="boundary" inkscape:connector-curvature="0" />
	<path style="fill:none;stroke:red;stroke-width:1px;stroke-linecap:butt;stroke-linejoin:miter;stroke-opacity:1" d="M 757.124,660.91 790.301,660.91 z" id="boundary" inkscape:connector-curvature="0" />
	<path style="fill:none;stroke:red;stroke-width:1px;stroke-linecap:butt;stroke-linejoin:miter;stroke-opacity:1" d="M 760.441,760.441 793.619,760.441 z" id="boundary" inkscape:connector-curvature="0" />
	<path style="fill:none;stroke:red;stroke-width:1px;stroke-linecap:butt;stroke-linejoin:miter;stroke-opacity:1" d="M 773.712,4 806.89,4 z" id="boundary" inkscape:connector-curvature="0" />
	<path style="fill:none;stroke:red;stroke-width:1px;stroke-linecap:butt;stroke-linejoin:miter;stroke-opacity:1" d="M 773.712,584.602 806.89,584.602 z" id="boundary" inkscape:connector-curvature="0" />
	<path style="fill:none;stroke:red;stroke-width:1px;stroke-linecap:butt;stroke-linejoin:miter;stroke-opacity:1" d="M 773.712,690.769 806.89,690.769 z" id="boundary" inkscape:connector-curvature="0" />
	<path style="fill:none;stroke:red;stroke-width:1px;stroke-linecap:butt;stroke-linejoin:miter;stroke-opacity:1" d="M 783.666,830.114 816.843,843.385 z" id="boundary" inkscape:connector-curvature="0" />
	<path style="fill:none;stroke:red;stroke-width:1px;stroke-linecap:butt;stroke-linejoin:miter;stroke-opacity:1" d="M 790.301,445.258 823.478,445.258 z" id="boundary" inkscape:connector-curvature="0" />
	<path style="fill:none;stroke:red;stroke-width:1px;stroke-linecap:butt;stroke-linejoin:miter;stroke-opacity:1" d="M 790.301,554.742 823.478,554.742 z" id="boundary" inkscape:connector-curvature="0" />
	<path style="fill:none;stroke:red;stroke-width:1px;stroke-linecap:butt;stroke-linejoin:miter;stroke-opacity:1" d="M 790.301,660.91 823.478,660.91 z" id="boundary" inkscape:connector-curvature="0" />
	<path style="fill:none;stroke:red;stroke-width:1px;stroke-linecap:butt;stroke-linejoin:miter;stroke-opacity:1" d="M 793.619,760.441 826.796,760.441 z" id="boundary" inkscape:connector-curvature="0" />
	<path style="fill:none;stroke:red;stroke-width:1px;stroke-linecap:butt;stroke-linejoin:miter;stroke-opacity:1" d="M 806.89,4 840.067,7.31773 z" id="boundary" inkscape:connector-curvature="0" />
	<path style="fill:none;stroke:red;stroke-width:1px;stroke-linecap:butt;stroke-linejoin:miter;stroke-opacity:1" d="M 806.89,584.602 840.067,584.602 z" id="boundary" inkscape:connector-curvature="0" />
	<path style="fill:none;stroke:red;stroke-width:1px;stroke-linecap:butt;stroke-linejoin:miter;stroke-opacity:1" d="M 806.89,690.769 840.067,690.769 z" id="boundary" inkscape:connector-curvature="0" />
	<path style="fill:none;stroke:red;stroke-width:1px;stroke-linecap:butt;stroke-linejoin:miter;stroke-opacity:1" d="M 816.843,843.385 850.02,830.114 z" id="boundary" inkscape:connector-curvature="0" />
	<path style="fill:none;stroke:red;stroke-width:1px;stroke-linecap:butt;stroke-linejoin:miter;stroke-opacity:1" d="M 823.478,445.258 843.385,395.492 z" id="boundary" inkscape:connector-curvature="0" />
	<path style="fill:none;stroke:red;stroke-width:1px;stroke-linecap:butt;stroke-linejoin:miter;stroke-opacity:1" d="M 823.478,554.742 856.656,554.742 z" id="boundary" inkscape:connector-curvature="0" />
	<path style="fill:none;stroke:red;stroke-width:1px;stroke-linecap:butt;stroke-linejoin:miter;stroke-opacity:1" d="M 823.478,660.91 856.656,660.91 z" id="boundary" inkscape:connector-curvature="0" />
	<path style="fill:none;stroke:red;stroke-width:1px;stroke-linecap:butt;stroke-linejoin:miter;stroke-opacity:1" d="M 826.796,760.441 853.338,780.348 z" id="boundary" inkscape:connector-curvature="0" />
	<path style="fill:none;stroke:red;stroke-width:1px;stroke-linecap:butt;stroke-linejoin:miter;stroke-opacity:1" d="M 840.067,7.31773 850.02,40.495 z" id="boundary" inkscape:connector-curvature="0" />
	<path style="fill:none;stroke:red;stroke-width:1px;stroke-linecap:butt;stroke-linejoin:miter;stroke-opacity:1" d="M 840.067,584.602 873.244,584.602 z" id="boundary" inkscape:connector-curvature="0" />
	<path style="fill:none;stroke:red;stroke-width:1px;stroke-linecap:butt;stroke-linejoin:miter;stroke-opacity:1" d="M 840.067,690.769 873.244,690.769 z" id="boundary" inkscape:connector-curvature="0" />
	<path style="fill:none;stroke:red;stroke-width:1px;stroke-linecap:butt;stroke-linejoin:miter;stroke-opacity:1" d="M 843.385,130.074 843.385,163.251 z" id="boundary" inkscape:connector-curvature="0" />
	<path style="fill:none;stroke:red;stroke-width:1px;stroke-linecap:butt;stroke-linejoin:miter;stroke-opacity:1" d="M 843.385,130.074 850.02,73.6722 z" id="boundary" inkscape:connector-curvature="0" />
	<path style="fill:none;stroke:red;stroke-width:1px;stroke-linecap:butt;stroke-linejoin:miter;stroke-opacity:1" d="M 843.385,163.251 843.385,196.428 z" id="boundary" inkscape:connector-curvature="0" />
	<path style="fill:none;stroke:red;stroke-width:1px;stroke-linecap:butt;stroke-linejoin:miter;stroke-opacity:1" d="M 843.385,196.428 843.385,229.605 z" id="boundary" inkscape:connector-curvature="0" />
	<path style="fill:none;stroke:red;stroke-width:1px;stroke-linecap:butt;stroke-linejoin:miter;stroke-opacity:1" d="M 843.385,229.605 843.385,262.783 z" id="boundary" inkscape:connector-curvature="0" />
	<path style="fill:none;stroke:red;stroke-width:1px;stroke-linecap:butt;stroke-linejoin:miter;stroke-opacity:1" d="M 843.385,262.783 843.385,295.96 z" id="boundary" inkscape:connector-curvature="0" />
	<path style="fill:none;stroke:red;stroke-width:1px;stroke-linecap:butt;stroke-linejoin:miter;stroke-opacity:1" d="M 843.385,295.96 843.385,329.137 z" id="boundary" inkscape:connector-curvature="0" />
	<path style="fill:none;stroke:red;stroke-width:1px;stroke-linecap:butt;stroke-linejoin:miter;stroke-opacity:1" d="M 843.385,329.137 843.385,362.314 z" id="boundary" inkscape:connector-curvature="0" />
	<path style="fill:none;stroke:red;stroke-width:1px;stroke-linecap:butt;stroke-linejoin:miter;stroke-opacity:1" d="M 843.385,362.314 843.385,395.492 z" id="boundary" inkscape:connector-curvature="0" />
	<path style="fill:none;stroke:red;stroke-width:1px;stroke-linecap:butt;stroke-linejoin:miter;stroke-opacity:1" d="M 850.02,40.495 850.02,73.6722 z" id="boundary" inkscape:connector-curvature="0" />
	<path style="fill:none;stroke:red;stroke-width:1px;stroke-linecap:butt;stroke-linejoin:miter;stroke-opacity:1" d="M 850.02,830.114 883.197,830.114 z" id="boundary" inkscape:connector-curvature="0" />
	<path style="fill:none;stroke:red;stroke-width:1px;stroke-linecap:butt;stroke-linejoin:miter;stroke-opacity:1" d="M 853.338,780.348 906.421,780.348 z" id="boundary" inkscape:connector-curvature="0" />
	<path style="fill:none;stroke:red;stroke-width:1px;stroke-linecap:butt;stroke-linejoin:miter;stroke-opacity:1" d="M 856.656,554.742 889.833,554.742 z" id="boundary" inkscape:connector-curvature="0" />
	<path style="fill:none;stroke:red;stroke-width:1px;stroke-linecap:butt;stroke-linejoin:miter;stroke-opacity:1" d="M 856.656,660.91 889.833,660.91 z" id="boundary" inkscape:connector-curvature="0" />
	<path style="fill:none;stroke:red;stroke-width:1px;stroke-linecap:butt;stroke-linejoin:miter;stroke-opacity:1" d="M 873.244,584.602 906.421,584.602 z" id="boundary" inkscape:connector-curvature="0" />
	<path style="fill:none;stroke:red;stroke-width:1px;stroke-linecap:butt;stroke-linejoin:miter;stroke-opacity:1" d="M 873.244,690.769 906.421,690.769 z" id="boundary" inkscape:connector-curvature="0" />
	<path style="fill:none;stroke:red;stroke-width:1px;stroke-linecap:butt;stroke-linejoin:miter;stroke-opacity:1" d="M 883.197,830.114 916.375,830.114 z" id="boundary" inkscape:connector-curvature="0" />
	<path style="fill:none;stroke:red;stroke-width:1px;stroke-linecap:butt;stroke-linejoin:miter;stroke-opacity:1" d="M 889.833,554.742 923.01,554.742 z" id="boundary" inkscape:connector-curvature="0" />
	<path style="fill:none;stroke:red;stroke-width:1px;stroke-linecap:butt;stroke-linejoin:miter;stroke-opacity:1" d="M 889.833,660.91 923.01,660.91 z" id="boundary" inkscape:connector-curvature="0" />
	<path style="fill:none;stroke:red;stroke-width:1px;stroke-linecap:butt;stroke-linejoin:miter;stroke-opacity:1" d="M 906.421,584.602 939.599,584.602 z" id="boundary" inkscape:connector-curvature="0" />
	<path style="fill:none;stroke:red;stroke-width:1px;stroke-linecap:butt;stroke-linejoin:miter;stroke-opacity:1" d="M 906.421,690.769 949.552,680.816 z" id="boundary" inkscape:connector-curvature="0" />
	<path style="fill:none;stroke:red;stroke-width:1px;stroke-linecap:butt;stroke-linejoin:miter;stroke-opacity:1" d="M 906.421,780.348 932.963,760.441 z" id="boundary" inkscape:connector-curvature="0" />
	<path style="fill:none;stroke:red;stroke-width:1px;stroke-linecap:butt;stroke-linejoin:miter;stroke-opacity:1" d="M 916.375,830.114 949.552,843.385 z" id="boundary" inkscape:connector-curvature="0" />
	<path style="fill:none;stroke:red;stroke-width:1px;stroke-linecap:butt;stroke-linejoin:miter;stroke-opacity:1" d="M 923.01,554.742 939.599,584.602 z" id="boundary" inkscape:connector-curvature="0" />
	<path style="fill:none;stroke:red;stroke-width:1px;stroke-linecap:butt;stroke-linejoin:miter;stroke-opacity:1" d="M 923.01,660.91 949.552,680.816 z" id="boundary" inkscape:connector-curvature="0" />
	<path style="fill:none;stroke:red;stroke-width:1px;stroke-linecap:butt;stroke-linejoin:miter;stroke-opacity:1" d="M 932.963,760.441 966.14,760.441 z" id="boundary" inkscape:connector-curvature="0" />
	<path style="fill:none;stroke:red;stroke-width:1px;stroke-linecap:butt;stroke-linejoin:miter;stroke-opacity:1" d="M 949.552,843.385 982.729,830.114 z" id="boundary" inkscape:connector-curvature="0" />
	<path style="fill:none;stroke:red;stroke-width:1px;stroke-linecap:butt;stroke-linejoin:miter;stroke-opacity:1" d="M 966.14,760.441 996,777.03 z" id="boundary" inkscape:connector-curvature="0" />
	<path style="fill:none;stroke:red;stroke-width:1px;stroke-linecap:butt;stroke-linejoin:miter;stroke-opacity:1" d="M 982.729,830.114 996,777.03 z" id="boundary" inkscape:connector-curvature="0" />
	<circle cx="4" cy="767.077" r="4" fill="#0" id="circle0"/>
	<circle cx="4" cy="800.254" r="4" fill="#0" id="circle1"/>
	<circle cx="20.5886" cy="830.114" r="4" fill="#0" id="circle2"/>
	<circle cx="37.1773" cy="760.441" r="4" fill="#0" id="circle3"/>
	<circle cx="53.7659" cy="830.114" r="4" fill="#0" id="circle4"/>
	<circle cx="63.7191" cy="780.348" r="4" fill="#0" id="circle5"/>
	<circle cx="86.9431" cy="830.114" r="4" fill="#0" id="circle6"/>
	<circle cx="90.2609" cy="760.441" r="4" fill="#0" id="circle7"/>
	<circle cx="96.8963" cy="568.013" r="4" fill="#0" id="circle8"/>
	<circle cx="96.8963" cy="667.545" r="4" fill="#0" id="circle9"/>
	<circle cx="116.803" cy="780.348" r="4" fill="#0" id="circle10"/>
	<circle cx="120.12" cy="830.114" r="4" fill="#0" id="circle11"/>
	<circle cx="123.438" cy="690.769" r="4" fill="#0" id="circle12"/>
	<circle cx="126.756" cy="584.602" r="4" fill="#0" id="circle13"/>
	<circle cx="140.027" cy="660.91" r="4" fill="#0" id="circle14"/>
	<circle cx="143.344" cy="17.2709" r="4" fill="#0" id="circle15"/>
	<circle cx="143.344" cy="50.4482" r="4" fill="#0" id="circle16"/>
	<circle cx="143.344" cy="83.6254" r="4" fill="#0" id="circle17"/>
	<circle cx="143.344" cy="116.803" r="4" fill="#0" id="circle18"/>
	<circle cx="143.344" cy="149.98" r="4" fill="#0" id="circle19"/>
	<circle cx="143.344" cy="183.157" r="4" fill="#0" id="circle20"/>
	<circle cx="143.344" cy="216.334" r="4" fill="#0" id="circle21"/>
	<circle cx="143.344" cy="249.512" r="4" fill="#0" id="circle22"/>
	<circle cx="143.344" cy="282.689" r="4" fill="#0" id="circle23"/>
	<circle cx="143.344" cy="315.866" r="4" fill="#0" id="circle24"/>
	<circle cx="143.344" cy="349.043" r="4" fill="#0" id="circle25"/>
	<circle cx="143.344" cy="382.221" r="4" fill="#0" id="circle26"/>
	<circle cx="143.344" cy="415.398" r="4" fill="#0" id="circle27"/>
	<circle cx="143.344" cy="554.742" r="4" fill="#0" id="circle28"/>
	<circle cx="143.344" cy="760.441" r="4" fill="#0" id="circle29"/>
	<circle cx="153.298" cy="830.114" r="4" fill="#0" id="circle30"/>
	<circle cx="156.615" cy="690.769" r="4" fill="#0" id="circle31"/>
	<circle cx="159.933" cy="445.258" r="4" fill="#0" id="circle32"/>
	<circle cx="159.933" cy="584.602" r="4" fill="#0" id="circle33"/>
	<circle cx="173.204" cy="660.91" r="4" fill="#0" id="circle34"/>
	<circle cx="176.522" cy="4" r="4" fill="#0" id="circle35"/>
	<circle cx="176.522" cy="554.742" r="4" fill="#0" id="circle36"/>
	<circle cx="176.522" cy="760.441" r="4" fill="#0" id="circle37"/>
	<circle cx="186.475" cy="833.431" r="4" fill="#0" id="circle38"/>
	<circle cx="189.793" cy="690.769" r="4" fill="#0" id="circle39"/>
	<circle cx="193.11" cy="445.258" r="4" fill="#0" id="circle40"/>
	<circle cx="193.11" cy="584.602" r="4" fill="#0" id="circle41"/>
	<circle cx="206.381" cy="660.91" r="4" fill="#0" id="circle42"/>
	<circle cx="209.699" cy="4" r="4" fill="#0" id="circle43"/>
	<circle cx="209.699" cy="554.742" r="4" fill="#0" id="circle44"/>
	<circle cx="209.699" cy="760.441" r="4" fill="#0" id="circle45"/>
	<circle cx="219.652" cy="830.114" r="4" fill="#0" id="circle46"/>
	<circle cx="222.97" cy="690.769" r="4" fill="#0" id="circle47"/>
	<circle cx="226.288" cy="445.258" r="4" fill="#0" id="circle48"/>
	<circle cx="226.288" cy="584.602" r="4" fill="#0" id="circle49"/>
	<circle cx="239.559" cy="660.91" r="4" fill="#0" id="circle50"/>
	<circle cx="242.876" cy="4" r="4" fill="#0" id="circle51"/>
	<circle cx="242.876" cy="554.742" r="4" fill="#0" id="circle52"/>
	<circle cx="242.876" cy="760.441" r="4" fill="#0" id="circle53"/>
	<circle cx="252.829" cy="830.114" r="4" fill="#0" id="circle54"/>
	<circle cx="256.147" cy="690.769" r="4" fill="#0" id="circle55"/>
	<circle cx="259.465" cy="445.258" r="4" fill="#0" id="circle56"/>
	<circle cx="259.465" cy="584.602" r="4" fill="#0" id="circle57"/>
	<circle cx="272.736" cy="660.91" r="4" fill="#0" id="circle58"/>
	<circle cx="276.054" cy="4" r="4" fill="#0" id="circle59"/>
	<circle cx="276.054" cy="554.742" r="4" fill="#0" id="circle60"/>
	<circle cx="276.054" cy="760.441" r="4" fill="#0" id="circle61"/>
	<circle cx="286.007" cy="830.114" r="4" fill="#0" id="circle62"/>
	<circle cx="289.324" cy="690.769" r="4" fill="#0" id="circle63"/>
	<circle cx="292.642" cy="445.258" r="4" fill="#0" id="circle64"/>
	<circle cx="292.642" cy="584.602" r="4" fill="#0" id="circle65"/>
	<circle cx="305.913" cy="660.91" r="4" fill="#0" id="circle66"/>
	<circle cx="309.231" cy="4" r="4" fill="#0" id="circle67"/>
	<circle cx="309.231" cy="554.742" r="4" fill="#0" id="circle68"/>
	<circle cx="309.231" cy="760.441" r="4" fill="#0" id="circle69"/>
	<circle cx="319.184" cy="830.114" r="4" fill="#0" id="circle70"/>
	<circle cx="322.502" cy="690.769" r="4" fill="#0" id="circle71"/>
	<circle cx="325.819" cy="445.258" r="4" fill="#0" id="circle72"/>
	<circle cx="325.819" cy="584.602" r="4" fill="#0" id="circle73"/>
	<circle cx="339.09" cy="660.91" r="4" fill="#0" id="circle74"/>
	<circle cx="342.408" cy="4" r="4" fill="#0" id="circle75"/>
	<circle cx="342.408" cy="554.742" r="4" fill="#0" id="circle76"/>
	<circle cx="342.408" cy="760.441" r="4" fill="#0" id="circle77"/>
	<circle cx="352.361" cy="830.114" r="4" fill="#0" id="circle78"/>
	<circle cx="355.679" cy="690.769" r="4" fill="#0" id="circle79"/>
	<circle cx="358.997" cy="445.258" r="4" fill="#0" id="circle80"/>
	<circle cx="358.997" cy="584.602" r="4" fill="#0" id="circle81"/>
	<circle cx="368.95" cy="478.435" r="4" fill="#0" id="circle82"/>
	<circle cx="368.95" cy="511.612" r="4" fill="#0" id="circle83"/>
	<circle cx="368.95" cy="617.779" r="4" fill="#0" id="circle84"/>
	<circle cx="368.95" cy="723.946" r="4" fill="#0" id="circle85"/>
	<circle cx="375.585" cy="4" r="4" fill="#0" id="circle86"/>
	<circle cx="385.538" cy="830.114" r="4" fill="#0" id="circle87"/>
	<circle cx="408.763" cy="4" r="4" fill="#0" id="circle88"/>
	<circle cx="418.716" cy="830.114" r="4" fill="#0" id="circle89"/>
	<circle cx="441.94" cy="4" r="4" fill="#0" id="circle90"/>
	<circle cx="451.893" cy="830.114" r="4" fill="#0" id="circle91"/>
	<circle cx="475.117" cy="4" r="4" fill="#0" id="circle92"/>
	<circle cx="485.07" cy="830.114" r="4" fill="#0" id="circle93"/>
	<circle cx="508.294" cy="4" r="4" fill="#0" id="circle94"/>
	<circle cx="518.247" cy="830.114" r="4" fill="#0" id="circle95"/>
	<circle cx="541.472" cy="4" r="4" fill="#0" id="circle96"/>
	<circle cx="551.425" cy="830.114" r="4" fill="#0" id="circle97"/>
	<circle cx="558.06" cy="448.575" r="4" fill="#0" id="circle98"/>
	<circle cx="558.06" cy="481.753" r="4" fill="#0" id="circle99"/>
	<circle cx="558.06" cy="514.93" r="4" fill="#0" id="circle100"/>
	<circle cx="558.06" cy="548.107" r="4" fill="#0" id="circle101"/>
	<circle cx="558.06" cy="587.92" r="4" fill="#0" id="circle102"/>
	<circle cx="558.06" cy="621.097" r="4" fill="#0" id="circle103"/>
	<circle cx="558.06" cy="654.274" r="4" fill="#0" id="circle104"/>
	<circle cx="558.06" cy="694.087" r="4" fill="#0" id="circle105"/>
	<circle cx="558.06" cy="727.264" r="4" fill="#0" id="circle106"/>
	<circle cx="561.378" cy="760.441" r="4" fill="#0" id="circle107"/>
	<circle cx="574.649" cy="4" r="4" fill="#0" id="circle108"/>
	<circle cx="584.602" cy="830.114" r="4" fill="#0" id="circle109"/>
	<circle cx="591.237" cy="445.258" r="4" fill="#0" id="circle110"/>
	<circle cx="591.237" cy="554.742" r="4" fill="#0" id="circle111"/>
	<circle cx="591.237" cy="660.91" r="4" fill="#0" id="circle112"/>
	<circle cx="594.555" cy="760.441" r="4" fill="#0" id="circle113"/>
	<circle cx="607.826" cy="4" r="4" fill="#0" id="circle114"/>
	<circle cx="607.826" cy="584.602" r="4" fill="#0" id="circle115"/>
	<circle cx="607.826" cy="690.769" r="4" fill="#0" id="circle116"/>
	<circle cx="617.779" cy="830.114" r="4" fill="#0" id="circle117"/>
	<circle cx="624.415" cy="445.258" r="4" fill="#0" id="circle118"/>
	<circle cx="624.415" cy="554.742" r="4" fill="#0" id="circle119"/>
	<circle cx="624.415" cy="660.91" r="4" fill="#0" id="circle120"/>
	<circle cx="627.732" cy="760.441" r="4" fill="#0" id="circle121"/>
	<circle cx="641.003" cy="4" r="4" fill="#0" id="circle122"/>
	<circle cx="641.003" cy="584.602" r="4" fill="#0" id="circle123"/>
	<circle cx="641.003" cy="690.769" r="4" fill="#0" id="circle124"/>
	<circle cx="650.957" cy="830.114" r="4" fill="#0" id="circle125"/>
	<circle cx="657.592" cy="445.258" r="4" fill="#0" id="circle126"/>
	<circle cx="657.592" cy="554.742" r="4" fill="#0" id="circle127"/>
	<circle cx="657.592" cy="660.91" r="4" fill="#0" id="circle128"/>
	<circle cx="660.91" cy="760.441" r="4" fill="#0" id="circle129"/>
	<circle cx="674.181" cy="4" r="4" fill="#0" id="circle130"/>
	<circle cx="674.181" cy="584.602" r="4" fill="#0" id="circle131"/>
	<circle cx="674.181" cy="690.769" r="4" fill="#0" id="circle132"/>
	<circle cx="684.134" cy="830.114" r="4" fill="#0" id="circle133"/>
	<circle cx="690.769" cy="445.258" r="4" fill="#0" id="circle134"/>
	<circle cx="690.769" cy="554.742" r="4" fill="#0" id="circle135"/>
	<circle cx="690.769" cy="660.91" r="4" fill="#0" id="circle136"/>
	<circle cx="694.087" cy="760.441" r="4" fill="#0" id="circle137"/>
	<circle cx="707.358" cy="4" r="4" fill="#0" id="circle138"/>
	<circle cx="707.358" cy="584.602" r="4" fill="#0" id="circle139"/>
	<circle cx="707.358" cy="690.769" r="4" fill="#0" id="circle140"/>
	<circle cx="717.311" cy="830.114" r="4" fill="#0" id="circle141"/>
	<circle cx="723.946" cy="445.258" r="4" fill="#0" id="circle142"/>
	<circle cx="723.946" cy="554.742" r="4" fill="#0" id="circle143"/>
	<circle cx="723.946" cy="660.91" r="4" fill="#0" id="circle144"/>
	<circle cx="727.264" cy="760.441" r="4" fill="#0" id="circle145"/>
	<circle cx="740.535" cy="4" r="4" fill="#0" id="circle146"/>
	<circle cx="740.535" cy="584.602" r="4" fill="#0" id="circle147"/>
	<circle cx="740.535" cy="690.769" r="4" fill="#0" id="circle148"/>
	<circle cx="750.488" cy="830.114" r="4" fill="#0" id="circle149"/>
	<circle cx="757.124" cy="445.258" r="4" fill="#0" id="circle150"/>
	<circle cx="757.124" cy="554.742" r="4" fill="#0" id="circle151"/>
	<circle cx="757.124" cy="660.91" r="4" fill="#0" id="circle152"/>
	<circle cx="760.441" cy="760.441" r="4" fill="#0" id="circle153"/>
	<circle cx="773.712" cy="4" r="4" fill="#0" id="circle154"/>
	<circle cx="773.712" cy="584.602" r="4" fill="#0" id="circle155"/>
	<circle cx="773.712" cy="690.769" r="4" fill="#0" id="circle156"/>
	<circle cx="783.666" cy="830.114" r="4" fill="#0" id="circle157"/>
	<circle cx="790.301" cy="445.258" r="4" fill="#0" id="circle158"/>
	<circle cx="790.301" cy="554.742" r="4" fill="#0" id="circle159"/>
	<circle cx="790.301" cy="660.91" r="4" fill="#0" id="circle160"/>
	<circle cx="793.619" cy="760.441" r="4" fill="#0" id="circle161"/>
	<circle cx="806.89" cy="4" r="4" fill="#0" id="circle162"/>
	<circle cx="806.89" cy="584.602" r="4" fill="#0" id="circle163"/>
	<circle cx="806.89" cy="690.769" r="4" fill="#0" id="circle164"/>
	<circle cx="816.843" cy="843.385" r="4" fill="#0" id="circle165"/>
	<circle cx="823.478" cy="445.258" r="4" fill="#0" id="circle166"/>
	<circle cx="823.478" cy="554.742" r="4" fill="#0" id="circle167"/>
	<circle cx="823.478" cy="660.91" r="4" fill="#0" id="circle168"/>
	<circle cx="826.796" cy="760.441" r="4" fill="#0" id="circle169"/>
	<circle cx="840.067" cy="7.31773" r="4" fill="#0" id="circle170"/>
	<circle cx="840.067" cy="584.602" r="4" fill="#0" id="circle171"/>
	<circle cx="840.067" cy="690.769" r="4" fill="#0" id="circle172"/>
	<circle cx="843.385" cy="130.074" r="4" fill="#0" id="circle173"/>
	<circle cx="843.385" cy="163.251" r="4" fill="#0" id="circle174"/>
	<circle cx="843.385" cy="196.428" r="4" fill="#0" id="circle175"/>
	<circle cx="843.385" cy="229.605" r="4" fill="#0" id="circle176"/>
	<circle cx="843.385" cy="262.783" r="4" fill="#0" id="circle177"/>
	<circle cx="843.385" cy="295.96" r="4" fill="#0" id="circle178"/>
	<circle cx="843.385" cy="329.137" r="4" fill="#0" id="circle179"/>
	<circle cx="843.385" cy="362.314" r="4" fill="#0" id="circle180"/>
	<circle cx="843.385" cy="395.492" r="4" fill="#0" id="circle181"/>
	<circle cx="850.02" cy="40.495" r="4" fill="#0" id="circle182"/>
	<circle cx="850.02" cy="73.6722" r="4" fill="#0" id="circle183"/>
	<circle cx="850.02" cy="830.114" r="4" fill="#0" id="circle184"/>
	<circle cx="853.338" cy="780.348" r="4" fill="#0" id="circle185"/>
	<circle cx="856.656" cy="554.742" r="4" fill="#0" id="circle186"/>
	<circle cx="856.656" cy="660.91" r="4" fill="#0" id="circle187"/>
	<circle cx="873.244" cy="584.602" r="4" fill="#0" id="circle188"/>
	<circle cx="873.244" cy="690.769" r="4" fill="#0" id="circle189"/>
	<circle cx="879.88" cy="760.441" r="4" fill="#0" id="circle190"/>
	<circle cx="883.197" cy="830.114" r="4" fill="#0" id="circle191"/>
	<circle cx="889.833" cy="554.742" r="4" fill="#0" id="circle192"/>
	<circle cx="889.833" cy="660.91" r="4" fill="#0" id="circle193"/>
	<circle cx="906.421" cy="584.602" r="4" fill="#0" id="circle194"/>
	<circle cx="906.421" cy="690.769" r="4" fill="#0" id="circle195"/>
	<circle cx="906.421" cy="780.348" r="4" fill="#0" id="circle196"/>
	<circle cx="916.375" cy="830.114" r="4" fill="#0" id="circle197"/>
	<circle cx="923.01" cy="554.742" r="4" fill="#0" id="circle198"/>
	<circle cx="923.01" cy="660.91" r="4" fill="#0" id="circle199"/>
	<circle cx="932.963" cy="760.441" r="4" fill="#0" id="circle200"/>
	<circle cx="939.599" cy="584.602" r="4" fill="#0" id="circle201"/>
	<circle cx="949.552" cy="680.816" r="4" fill="#0" id="circle202"/>
	<circle cx="949.552" cy="843.385" r="4" fill="#0" id="circle203"/>
	<circle cx="966.14" cy="760.441" r="4" fill="#0" id="circle204"/>
	<circle cx="982.729" cy="830.114" r="4" fill="#0" id="circle205"/>
	<circle cx="996" cy="777.03" r="4" fill="#0" id="circle206"/>
	</g>
</svg>