<?xml version="1.0" encoding="UTF-8" standalone="no"?>
<!-- Created with CurveBenchmark -->
<svg
	xmlns:dc="http://purl.org/dc/elements/1.1/"
	xmlns:cc="http://creativecommons.org/ns#"
	xmlns:rdf="http://www.w3.org/1999/02/22-rdf-syntax-ns#"
	xmlns:svg="http://www.w3.org/2000/svg"
	xmlns="http://www.w3.org/2000/svg"
	xmlns:sodipodi="http://sodipodi.sourceforge.net/DTD/sodipodi-0.dtd"
	xmlns:inkscape="http://www.inkscape.org/namespaces/inkscape"
	width="1000"
	height="1000"
	id="svg2"
	version="1.1"
	sodipodi:docname="manifold/vicur-classic13.png.txt">
<defs
	id="defs4" />
<metadata
	id="metadata7">
	<rdf:RDF>
		<cc:Work
			rdf:about="">
			<dc:format>image/svg+xml</dc:format>
			<dc:type
				rdf:resource="http://purl.org/dc/dcmitype/StillImage" />
			<dc:title></dc:title>
		</cc:Work>
	</rdf:RDF>
</metadata>
<g
	inkscape:label="Layer 1"
	inkscape:groupmode="layer"
	id="layer1">
	<path style="fill:none;stroke:red;stroke-width:1px;stroke-linecap:butt;stroke-linejoin:miter;stroke-opacity:1" d="M 4,302.884 18.6691,288.214 z" id="boundary" inkscape:connector-curvature="0" />
	<path style="fill:none;stroke:red;stroke-width:1px;stroke-linecap:butt;stroke-linejoin:miter;stroke-opacity:1" d="M 4,302.884 18.6691,315.719 z" id="boundary" inkscape:connector-curvature="0" />
	<path style="fill:none;stroke:red;stroke-width:1px;stroke-linecap:butt;stroke-linejoin:miter;stroke-opacity:1" d="M 18.6691,288.214 33.3383,273.545 z" id="boundary" inkscape:connector-curvature="0" />
	<path style="fill:none;stroke:red;stroke-width:1px;stroke-linecap:butt;stroke-linejoin:miter;stroke-opacity:1" d="M 18.6691,315.719 37.0055,317.553 z" id="boundary" inkscape:connector-curvature="0" />
	<path style="fill:none;stroke:red;stroke-width:1px;stroke-linecap:butt;stroke-linejoin:miter;stroke-opacity:1" d="M 33.3383,273.545 51.6747,264.377 z" id="boundary" inkscape:connector-curvature="0" />
	<path style="fill:none;stroke:red;stroke-width:1px;stroke-linecap:butt;stroke-linejoin:miter;stroke-opacity:1" d="M 37.0055,317.553 49.841,332.222 z" id="boundary" inkscape:connector-curvature="0" />
	<path style="fill:none;stroke:red;stroke-width:1px;stroke-linecap:butt;stroke-linejoin:miter;stroke-opacity:1" d="M 49.841,332.222 59.0092,348.725 z" id="boundary" inkscape:connector-curvature="0" />
	<path style="fill:none;stroke:red;stroke-width:1px;stroke-linecap:butt;stroke-linejoin:miter;stroke-opacity:1" d="M 51.6747,264.377 66.3438,251.542 z" id="boundary" inkscape:connector-curvature="0" />
	<path style="fill:none;stroke:red;stroke-width:1px;stroke-linecap:butt;stroke-linejoin:miter;stroke-opacity:1" d="M 59.0092,211.201 59.0092,229.538 z" id="boundary" inkscape:connector-curvature="0" />
	<path style="fill:none;stroke:red;stroke-width:1px;stroke-linecap:butt;stroke-linejoin:miter;stroke-opacity:1" d="M 59.0092,211.201 73.6784,196.532 z" id="boundary" inkscape:connector-curvature="0" />
	<path style="fill:none;stroke:red;stroke-width:1px;stroke-linecap:butt;stroke-linejoin:miter;stroke-opacity:1" d="M 59.0092,229.538 66.3438,251.542 z" id="boundary" inkscape:connector-curvature="0" />
	<path style="fill:none;stroke:red;stroke-width:1px;stroke-linecap:butt;stroke-linejoin:miter;stroke-opacity:1" d="M 59.0092,348.725 68.1774,365.227 z" id="boundary" inkscape:connector-curvature="0" />
	<path style="fill:none;stroke:red;stroke-width:1px;stroke-linecap:butt;stroke-linejoin:miter;stroke-opacity:1" d="M 68.1774,365.227 77.3457,381.73 z" id="boundary" inkscape:connector-curvature="0" />
	<path style="fill:none;stroke:red;stroke-width:1px;stroke-linecap:butt;stroke-linejoin:miter;stroke-opacity:1" d="M 73.6784,196.532 92.0148,187.364 z" id="boundary" inkscape:connector-curvature="0" />
	<path style="fill:none;stroke:red;stroke-width:1px;stroke-linecap:butt;stroke-linejoin:miter;stroke-opacity:1" d="M 77.3457,381.73 93.8484,390.898 z" id="boundary" inkscape:connector-curvature="0" />
	<path style="fill:none;stroke:red;stroke-width:1px;stroke-linecap:butt;stroke-linejoin:miter;stroke-opacity:1" d="M 92.0148,187.364 110.351,187.364 z" id="boundary" inkscape:connector-curvature="0" />
	<path style="fill:none;stroke:red;stroke-width:1px;stroke-linecap:butt;stroke-linejoin:miter;stroke-opacity:1" d="M 93.8484,390.898 110.351,400.067 z" id="boundary" inkscape:connector-curvature="0" />
	<path style="fill:none;stroke:red;stroke-width:1px;stroke-linecap:butt;stroke-linejoin:miter;stroke-opacity:1" d="M 110.351,187.364 119.519,169.028 z" id="boundary" inkscape:connector-curvature="0" />
	<path style="fill:none;stroke:red;stroke-width:1px;stroke-linecap:butt;stroke-linejoin:miter;stroke-opacity:1" d="M 110.351,400.067 128.688,400.067 z" id="boundary" inkscape:connector-curvature="0" />
	<path style="fill:none;stroke:red;stroke-width:1px;stroke-linecap:butt;stroke-linejoin:miter;stroke-opacity:1" d="M 119.519,169.028 134.189,154.359 z" id="boundary" inkscape:connector-curvature="0" />
	<path style="fill:none;stroke:red;stroke-width:1px;stroke-linecap:butt;stroke-linejoin:miter;stroke-opacity:1" d="M 128.688,400.067 147.024,400.067 z" id="boundary" inkscape:connector-curvature="0" />
	<path style="fill:none;stroke:red;stroke-width:1px;stroke-linecap:butt;stroke-linejoin:miter;stroke-opacity:1" d="M 134.189,154.359 152.525,159.86 z" id="boundary" inkscape:connector-curvature="0" />
	<path style="fill:none;stroke:red;stroke-width:1px;stroke-linecap:butt;stroke-linejoin:miter;stroke-opacity:1" d="M 147.024,400.067 163.527,390.898 z" id="boundary" inkscape:connector-curvature="0" />
	<path style="fill:none;stroke:red;stroke-width:1px;stroke-linecap:butt;stroke-linejoin:miter;stroke-opacity:1" d="M 152.525,159.86 163.527,143.357 z" id="boundary" inkscape:connector-curvature="0" />
	<path style="fill:none;stroke:red;stroke-width:1px;stroke-linecap:butt;stroke-linejoin:miter;stroke-opacity:1" d="M 163.527,143.357 178.196,119.519 z" id="boundary" inkscape:connector-curvature="0" />
	<path style="fill:none;stroke:red;stroke-width:1px;stroke-linecap:butt;stroke-linejoin:miter;stroke-opacity:1" d="M 163.527,390.898 180.03,381.73 z" id="boundary" inkscape:connector-curvature="0" />
	<path style="fill:none;stroke:red;stroke-width:1px;stroke-linecap:butt;stroke-linejoin:miter;stroke-opacity:1" d="M 178.196,119.519 196.532,114.018 z" id="boundary" inkscape:connector-curvature="0" />
	<path style="fill:none;stroke:red;stroke-width:1px;stroke-linecap:butt;stroke-linejoin:miter;stroke-opacity:1" d="M 180.03,381.73 196.532,372.562 z" id="boundary" inkscape:connector-curvature="0" />
	<path style="fill:none;stroke:red;stroke-width:1px;stroke-linecap:butt;stroke-linejoin:miter;stroke-opacity:1" d="M 196.532,114.018 213.035,123.187 z" id="boundary" inkscape:connector-curvature="0" />
	<path style="fill:none;stroke:red;stroke-width:1px;stroke-linecap:butt;stroke-linejoin:miter;stroke-opacity:1" d="M 196.532,372.562 205.701,389.065 z" id="boundary" inkscape:connector-curvature="0" />
	<path style="fill:none;stroke:red;stroke-width:1px;stroke-linecap:butt;stroke-linejoin:miter;stroke-opacity:1" d="M 205.701,389.065 216.702,403.734 z" id="boundary" inkscape:connector-curvature="0" />
	<path style="fill:none;stroke:red;stroke-width:1px;stroke-linecap:butt;stroke-linejoin:miter;stroke-opacity:1" d="M 213.035,123.187 231.372,123.187 z" id="boundary" inkscape:connector-curvature="0" />
	<path style="fill:none;stroke:red;stroke-width:1px;stroke-linecap:butt;stroke-linejoin:miter;stroke-opacity:1" d="M 216.702,403.734 233.205,412.902 z" id="boundary" inkscape:connector-curvature="0" />
	<path style="fill:none;stroke:red;stroke-width:1px;stroke-linecap:butt;stroke-linejoin:miter;stroke-opacity:1" d="M 231.372,123.187 249.708,123.187 z" id="boundary" inkscape:connector-curvature="0" />
	<path style="fill:none;stroke:red;stroke-width:1px;stroke-linecap:butt;stroke-linejoin:miter;stroke-opacity:1" d="M 233.205,412.902 251.542,418.403 z" id="boundary" inkscape:connector-curvature="0" />
	<path style="fill:none;stroke:red;stroke-width:1px;stroke-linecap:butt;stroke-linejoin:miter;stroke-opacity:1" d="M 249.708,123.187 268.044,123.187 z" id="boundary" inkscape:connector-curvature="0" />
	<path style="fill:none;stroke:red;stroke-width:1px;stroke-linecap:butt;stroke-linejoin:miter;stroke-opacity:1" d="M 251.542,418.403 269.878,418.403 z" id="boundary" inkscape:connector-curvature="0" />
	<path style="fill:none;stroke:red;stroke-width:1px;stroke-linecap:butt;stroke-linejoin:miter;stroke-opacity:1" d="M 268.044,123.187 286.381,123.187 z" id="boundary" inkscape:connector-curvature="0" />
	<path style="fill:none;stroke:red;stroke-width:1px;stroke-linecap:butt;stroke-linejoin:miter;stroke-opacity:1" d="M 269.878,418.403 288.214,418.403 z" id="boundary" inkscape:connector-curvature="0" />
	<path style="fill:none;stroke:red;stroke-width:1px;stroke-linecap:butt;stroke-linejoin:miter;stroke-opacity:1" d="M 286.381,123.187 304.717,123.187 z" id="boundary" inkscape:connector-curvature="0" />
	<path style="fill:none;stroke:red;stroke-width:1px;stroke-linecap:butt;stroke-linejoin:miter;stroke-opacity:1" d="M 288.214,418.403 306.551,418.403 z" id="boundary" inkscape:connector-curvature="0" />
	<path style="fill:none;stroke:red;stroke-width:1px;stroke-linecap:butt;stroke-linejoin:miter;stroke-opacity:1" d="M 304.717,123.187 323.054,123.187 z" id="boundary" inkscape:connector-curvature="0" />
	<path style="fill:none;stroke:red;stroke-width:1px;stroke-linecap:butt;stroke-linejoin:miter;stroke-opacity:1" d="M 306.551,418.403 323.054,409.235 z" id="boundary" inkscape:connector-curvature="0" />
	<path style="fill:none;stroke:red;stroke-width:1px;stroke-linecap:butt;stroke-linejoin:miter;stroke-opacity:1" d="M 323.054,123.187 341.39,123.187 z" id="boundary" inkscape:connector-curvature="0" />
	<path style="fill:none;stroke:red;stroke-width:1px;stroke-linecap:butt;stroke-linejoin:miter;stroke-opacity:1" d="M 323.054,409.235 339.556,398.233 z" id="boundary" inkscape:connector-curvature="0" />
	<path style="fill:none;stroke:red;stroke-width:1px;stroke-linecap:butt;stroke-linejoin:miter;stroke-opacity:1" d="M 339.556,398.233 348.725,379.896 z" id="boundary" inkscape:connector-curvature="0" />
	<path style="fill:none;stroke:red;stroke-width:1px;stroke-linecap:butt;stroke-linejoin:miter;stroke-opacity:1" d="M 341.39,123.187 359.726,123.187 z" id="boundary" inkscape:connector-curvature="0" />
	<path style="fill:none;stroke:red;stroke-width:1px;stroke-linecap:butt;stroke-linejoin:miter;stroke-opacity:1" d="M 348.725,379.896 357.893,361.56 z" id="boundary" inkscape:connector-curvature="0" />
	<path style="fill:none;stroke:red;stroke-width:1px;stroke-linecap:butt;stroke-linejoin:miter;stroke-opacity:1" d="M 357.893,361.56 367.061,345.057 z" id="boundary" inkscape:connector-curvature="0" />
	<path style="fill:none;stroke:red;stroke-width:1px;stroke-linecap:butt;stroke-linejoin:miter;stroke-opacity:1" d="M 359.726,123.187 378.063,123.187 z" id="boundary" inkscape:connector-curvature="0" />
	<path style="fill:none;stroke:red;stroke-width:1px;stroke-linecap:butt;stroke-linejoin:miter;stroke-opacity:1" d="M 367.061,345.057 385.397,345.057 z" id="boundary" inkscape:connector-curvature="0" />
	<path style="fill:none;stroke:red;stroke-width:1px;stroke-linecap:butt;stroke-linejoin:miter;stroke-opacity:1" d="M 378.063,123.187 389.065,101.183 z" id="boundary" inkscape:connector-curvature="0" />
	<path style="fill:none;stroke:red;stroke-width:1px;stroke-linecap:butt;stroke-linejoin:miter;stroke-opacity:1" d="M 385.397,345.057 403.734,343.224 z" id="boundary" inkscape:connector-curvature="0" />
	<path style="fill:none;stroke:red;stroke-width:1px;stroke-linecap:butt;stroke-linejoin:miter;stroke-opacity:1" d="M 389.065,37.0055 398.233,64.5102 z" id="boundary" inkscape:connector-curvature="0" />
	<path style="fill:none;stroke:red;stroke-width:1px;stroke-linecap:butt;stroke-linejoin:miter;stroke-opacity:1" d="M 389.065,37.0055 407.401,31.5046 z" id="boundary" inkscape:connector-curvature="0" />
	<path style="fill:none;stroke:red;stroke-width:1px;stroke-linecap:butt;stroke-linejoin:miter;stroke-opacity:1" d="M 389.065,101.183 398.233,82.8466 z" id="boundary" inkscape:connector-curvature="0" />
	<path style="fill:none;stroke:red;stroke-width:1px;stroke-linecap:butt;stroke-linejoin:miter;stroke-opacity:1" d="M 398.233,64.5102 398.233,82.8466 z" id="boundary" inkscape:connector-curvature="0" />
	<path style="fill:none;stroke:red;stroke-width:1px;stroke-linecap:butt;stroke-linejoin:miter;stroke-opacity:1" d="M 403.734,343.224 422.07,335.889 z" id="boundary" inkscape:connector-curvature="0" />
	<path style="fill:none;stroke:red;stroke-width:1px;stroke-linecap:butt;stroke-linejoin:miter;stroke-opacity:1" d="M 407.401,31.5046 425.738,31.5046 z" id="boundary" inkscape:connector-curvature="0" />
	<path style="fill:none;stroke:red;stroke-width:1px;stroke-linecap:butt;stroke-linejoin:miter;stroke-opacity:1" d="M 422.07,335.889 440.407,335.889 z" id="boundary" inkscape:connector-curvature="0" />
	<path style="fill:none;stroke:red;stroke-width:1px;stroke-linecap:butt;stroke-linejoin:miter;stroke-opacity:1" d="M 425.738,31.5046 442.24,22.3364 z" id="boundary" inkscape:connector-curvature="0" />
	<path style="fill:none;stroke:red;stroke-width:1px;stroke-linecap:butt;stroke-linejoin:miter;stroke-opacity:1" d="M 440.407,335.889 458.743,335.889 z" id="boundary" inkscape:connector-curvature="0" />
	<path style="fill:none;stroke:red;stroke-width:1px;stroke-linecap:butt;stroke-linejoin:miter;stroke-opacity:1" d="M 442.24,22.3364 460.577,22.3364 z" id="boundary" inkscape:connector-curvature="0" />
	<path style="fill:none;stroke:red;stroke-width:1px;stroke-linecap:butt;stroke-linejoin:miter;stroke-opacity:1" d="M 458.743,335.889 477.079,335.889 z" id="boundary" inkscape:connector-curvature="0" />
	<path style="fill:none;stroke:red;stroke-width:1px;stroke-linecap:butt;stroke-linejoin:miter;stroke-opacity:1" d="M 460.577,22.3364 478.913,22.3364 z" id="boundary" inkscape:connector-curvature="0" />
	<path style="fill:none;stroke:red;stroke-width:1px;stroke-linecap:butt;stroke-linejoin:miter;stroke-opacity:1" d="M 477.079,335.889 495.416,334.055 z" id="boundary" inkscape:connector-curvature="0" />
	<path style="fill:none;stroke:red;stroke-width:1px;stroke-linecap:butt;stroke-linejoin:miter;stroke-opacity:1" d="M 478.913,22.3364 497.25,22.3364 z" id="boundary" inkscape:connector-curvature="0" />
	<path style="fill:none;stroke:red;stroke-width:1px;stroke-linecap:butt;stroke-linejoin:miter;stroke-opacity:1" d="M 495.416,334.055 513.752,334.055 z" id="boundary" inkscape:connector-curvature="0" />
	<path style="fill:none;stroke:red;stroke-width:1px;stroke-linecap:butt;stroke-linejoin:miter;stroke-opacity:1" d="M 497.25,22.3364 515.586,22.3364 z" id="boundary" inkscape:connector-curvature="0" />
	<path style="fill:none;stroke:red;stroke-width:1px;stroke-linecap:butt;stroke-linejoin:miter;stroke-opacity:1" d="M 513.752,334.055 532.089,334.055 z" id="boundary" inkscape:connector-curvature="0" />
	<path style="fill:none;stroke:red;stroke-width:1px;stroke-linecap:butt;stroke-linejoin:miter;stroke-opacity:1" d="M 515.586,22.3364 532.089,13.1682 z" id="boundary" inkscape:connector-curvature="0" />
	<path style="fill:none;stroke:red;stroke-width:1px;stroke-linecap:butt;stroke-linejoin:miter;stroke-opacity:1" d="M 532.089,13.1682 550.425,13.1682 z" id="boundary" inkscape:connector-curvature="0" />
	<path style="fill:none;stroke:red;stroke-width:1px;stroke-linecap:butt;stroke-linejoin:miter;stroke-opacity:1" d="M 532.089,334.055 550.425,334.055 z" id="boundary" inkscape:connector-curvature="0" />
	<path style="fill:none;stroke:red;stroke-width:1px;stroke-linecap:butt;stroke-linejoin:miter;stroke-opacity:1" d="M 550.425,13.1682 568.762,13.1682 z" id="boundary" inkscape:connector-curvature="0" />
	<path style="fill:none;stroke:red;stroke-width:1px;stroke-linecap:butt;stroke-linejoin:miter;stroke-opacity:1" d="M 550.425,334.055 568.762,334.055 z" id="boundary" inkscape:connector-curvature="0" />
	<path style="fill:none;stroke:red;stroke-width:1px;stroke-linecap:butt;stroke-linejoin:miter;stroke-opacity:1" d="M 568.762,13.1682 587.098,13.1682 z" id="boundary" inkscape:connector-curvature="0" />
	<path style="fill:none;stroke:red;stroke-width:1px;stroke-linecap:butt;stroke-linejoin:miter;stroke-opacity:1" d="M 568.762,334.055 587.098,334.055 z" id="boundary" inkscape:connector-curvature="0" />
	<path style="fill:none;stroke:red;stroke-width:1px;stroke-linecap:butt;stroke-linejoin:miter;stroke-opacity:1" d="M 587.098,13.1682 603.601,4 z" id="boundary" inkscape:connector-curvature="0" />
	<path style="fill:none;stroke:red;stroke-width:1px;stroke-linecap:butt;stroke-linejoin:miter;stroke-opacity:1" d="M 587.098,334.055 605.434,334.055 z" id="boundary" inkscape:connector-curvature="0" />
	<path style="fill:none;stroke:red;stroke-width:1px;stroke-linecap:butt;stroke-linejoin:miter;stroke-opacity:1" d="M 603.601,4 621.937,4 z" id="boundary" inkscape:connector-curvature="0" />
	<path style="fill:none;stroke:red;stroke-width:1px;stroke-linecap:butt;stroke-linejoin:miter;stroke-opacity:1" d="M 605.434,334.055 618.27,348.725 z" id="boundary" inkscape:connector-curvature="0" />
	<path style="fill:none;stroke:red;stroke-width:1px;stroke-linecap:butt;stroke-linejoin:miter;stroke-opacity:1" d="M 618.27,348.725 627.438,365.227 z" id="boundary" inkscape:connector-curvature="0" />
	<path style="fill:none;stroke:red;stroke-width:1px;stroke-linecap:butt;stroke-linejoin:miter;stroke-opacity:1" d="M 621.937,4 640.274,4 z" id="boundary" inkscape:connector-curvature="0" />
	<path style="fill:none;stroke:red;stroke-width:1px;stroke-linecap:butt;stroke-linejoin:miter;stroke-opacity:1" d="M 627.438,365.227 645.774,372.562 z" id="boundary" inkscape:connector-curvature="0" />
	<path style="fill:none;stroke:red;stroke-width:1px;stroke-linecap:butt;stroke-linejoin:miter;stroke-opacity:1" d="M 640.274,4 658.61,4 z" id="boundary" inkscape:connector-curvature="0" />
	<path style="fill:none;stroke:red;stroke-width:1px;stroke-linecap:butt;stroke-linejoin:miter;stroke-opacity:1" d="M 645.774,372.562 662.277,381.73 z" id="boundary" inkscape:connector-curvature="0" />
	<path style="fill:none;stroke:red;stroke-width:1px;stroke-linecap:butt;stroke-linejoin:miter;stroke-opacity:1" d="M 658.61,4 676.946,4 z" id="boundary" inkscape:connector-curvature="0" />
	<path style="fill:none;stroke:red;stroke-width:1px;stroke-linecap:butt;stroke-linejoin:miter;stroke-opacity:1" d="M 662.277,381.73 678.78,390.898 z" id="boundary" inkscape:connector-curvature="0" />
	<path style="fill:none;stroke:red;stroke-width:1px;stroke-linecap:butt;stroke-linejoin:miter;stroke-opacity:1" d="M 676.946,4 695.283,4 z" id="boundary" inkscape:connector-curvature="0" />
	<path style="fill:none;stroke:red;stroke-width:1px;stroke-linecap:butt;stroke-linejoin:miter;stroke-opacity:1" d="M 678.78,390.898 697.116,389.065 z" id="boundary" inkscape:connector-curvature="0" />
	<path style="fill:none;stroke:red;stroke-width:1px;stroke-linecap:butt;stroke-linejoin:miter;stroke-opacity:1" d="M 695.283,4 713.619,4 z" id="boundary" inkscape:connector-curvature="0" />
	<path style="fill:none;stroke:red;stroke-width:1px;stroke-linecap:butt;stroke-linejoin:miter;stroke-opacity:1" d="M 697.116,389.065 715.453,379.896 z" id="boundary" inkscape:connector-curvature="0" />
	<path style="fill:none;stroke:red;stroke-width:1px;stroke-linecap:butt;stroke-linejoin:miter;stroke-opacity:1" d="M 713.619,4 731.956,4 z" id="boundary" inkscape:connector-curvature="0" />
	<path style="fill:none;stroke:red;stroke-width:1px;stroke-linecap:butt;stroke-linejoin:miter;stroke-opacity:1" d="M 715.453,379.896 733.789,370.728 z" id="boundary" inkscape:connector-curvature="0" />
	<path style="fill:none;stroke:red;stroke-width:1px;stroke-linecap:butt;stroke-linejoin:miter;stroke-opacity:1" d="M 731.956,4 750.292,4 z" id="boundary" inkscape:connector-curvature="0" />
	<path style="fill:none;stroke:red;stroke-width:1px;stroke-linecap:butt;stroke-linejoin:miter;stroke-opacity:1" d="M 733.789,370.728 748.458,354.226 z" id="boundary" inkscape:connector-curvature="0" />
	<path style="fill:none;stroke:red;stroke-width:1px;stroke-linecap:butt;stroke-linejoin:miter;stroke-opacity:1" d="M 748.458,354.226 764.961,345.057 z" id="boundary" inkscape:connector-curvature="0" />
	<path style="fill:none;stroke:red;stroke-width:1px;stroke-linecap:butt;stroke-linejoin:miter;stroke-opacity:1" d="M 750.292,4 768.628,4 z" id="boundary" inkscape:connector-curvature="0" />
	<path style="fill:none;stroke:red;stroke-width:1px;stroke-linecap:butt;stroke-linejoin:miter;stroke-opacity:1" d="M 764.961,345.057 775.963,359.726 z" id="boundary" inkscape:connector-curvature="0" />
	<path style="fill:none;stroke:red;stroke-width:1px;stroke-linecap:butt;stroke-linejoin:miter;stroke-opacity:1" d="M 768.628,4 786.965,4 z" id="boundary" inkscape:connector-curvature="0" />
	<path style="fill:none;stroke:red;stroke-width:1px;stroke-linecap:butt;stroke-linejoin:miter;stroke-opacity:1" d="M 775.963,359.726 785.131,376.229 z" id="boundary" inkscape:connector-curvature="0" />
	<path style="fill:none;stroke:red;stroke-width:1px;stroke-linecap:butt;stroke-linejoin:miter;stroke-opacity:1" d="M 785.131,376.229 797.967,390.898 z" id="boundary" inkscape:connector-curvature="0" />
	<path style="fill:none;stroke:red;stroke-width:1px;stroke-linecap:butt;stroke-linejoin:miter;stroke-opacity:1" d="M 786.965,4 805.301,4 z" id="boundary" inkscape:connector-curvature="0" />
	<path style="fill:none;stroke:red;stroke-width:1px;stroke-linecap:butt;stroke-linejoin:miter;stroke-opacity:1" d="M 797.967,390.898 814.47,400.067 z" id="boundary" inkscape:connector-curvature="0" />
	<path style="fill:none;stroke:red;stroke-width:1px;stroke-linecap:butt;stroke-linejoin:miter;stroke-opacity:1" d="M 805.301,4 823.638,4 z" id="boundary" inkscape:connector-curvature="0" />
	<path style="fill:none;stroke:red;stroke-width:1px;stroke-linecap:butt;stroke-linejoin:miter;stroke-opacity:1" d="M 814.47,400.067 830.972,409.235 z" id="boundary" inkscape:connector-curvature="0" />
	<path style="fill:none;stroke:red;stroke-width:1px;stroke-linecap:butt;stroke-linejoin:miter;stroke-opacity:1" d="M 823.638,4 841.974,4 z" id="boundary" inkscape:connector-curvature="0" />
	<path style="fill:none;stroke:red;stroke-width:1px;stroke-linecap:butt;stroke-linejoin:miter;stroke-opacity:1" d="M 830.972,409.235 849.309,409.235 z" id="boundary" inkscape:connector-curvature="0" />
	<path style="fill:none;stroke:red;stroke-width:1px;stroke-linecap:butt;stroke-linejoin:miter;stroke-opacity:1" d="M 841.974,4 860.311,4 z" id="boundary" inkscape:connector-curvature="0" />
	<path style="fill:none;stroke:red;stroke-width:1px;stroke-linecap:butt;stroke-linejoin:miter;stroke-opacity:1" d="M 849.309,409.235 867.645,409.235 z" id="boundary" inkscape:connector-curvature="0" />
	<path style="fill:none;stroke:red;stroke-width:1px;stroke-linecap:butt;stroke-linejoin:miter;stroke-opacity:1" d="M 860.311,4 878.647,4 z" id="boundary" inkscape:connector-curvature="0" />
	<path style="fill:none;stroke:red;stroke-width:1px;stroke-linecap:butt;stroke-linejoin:miter;stroke-opacity:1" d="M 867.645,409.235 884.148,400.067 z" id="boundary" inkscape:connector-curvature="0" />
	<path style="fill:none;stroke:red;stroke-width:1px;stroke-linecap:butt;stroke-linejoin:miter;stroke-opacity:1" d="M 878.647,4 896.983,4 z" id="boundary" inkscape:connector-curvature="0" />
	<path style="fill:none;stroke:red;stroke-width:1px;stroke-linecap:butt;stroke-linejoin:miter;stroke-opacity:1" d="M 884.148,400.067 900.651,390.898 z" id="boundary" inkscape:connector-curvature="0" />
	<path style="fill:none;stroke:red;stroke-width:1px;stroke-linecap:butt;stroke-linejoin:miter;stroke-opacity:1" d="M 896.983,4 915.32,4 z" id="boundary" inkscape:connector-curvature="0" />
	<path style="fill:none;stroke:red;stroke-width:1px;stroke-linecap:butt;stroke-linejoin:miter;stroke-opacity:1" d="M 900.651,390.898 913.486,372.562 z" id="boundary" inkscape:connector-curvature="0" />
	<path style="fill:none;stroke:red;stroke-width:1px;stroke-linecap:butt;stroke-linejoin:miter;stroke-opacity:1" d="M 913.486,372.562 928.155,359.726 z" id="boundary" inkscape:connector-curvature="0" />
	<path style="fill:none;stroke:red;stroke-width:1px;stroke-linecap:butt;stroke-linejoin:miter;stroke-opacity:1" d="M 915.32,4 931.823,13.1682 z" id="boundary" inkscape:connector-curvature="0" />
	<path style="fill:none;stroke:red;stroke-width:1px;stroke-linecap:butt;stroke-linejoin:miter;stroke-opacity:1" d="M 928.155,359.726 931.823,335.889 z" id="boundary" inkscape:connector-curvature="0" />
	<path style="fill:none;stroke:red;stroke-width:1px;stroke-linecap:butt;stroke-linejoin:miter;stroke-opacity:1" d="M 931.823,13.1682 950.159,13.1682 z" id="boundary" inkscape:connector-curvature="0" />
	<path style="fill:none;stroke:red;stroke-width:1px;stroke-linecap:butt;stroke-linejoin:miter;stroke-opacity:1" d="M 931.823,335.889 948.325,326.721 z" id="boundary" inkscape:connector-curvature="0" />
	<path style="fill:none;stroke:red;stroke-width:1px;stroke-linecap:butt;stroke-linejoin:miter;stroke-opacity:1" d="M 940.991,115.852 940.991,134.189 z" id="boundary" inkscape:connector-curvature="0" />
	<path style="fill:none;stroke:red;stroke-width:1px;stroke-linecap:butt;stroke-linejoin:miter;stroke-opacity:1" d="M 940.991,115.852 950.159,88.3475 z" id="boundary" inkscape:connector-curvature="0" />
	<path style="fill:none;stroke:red;stroke-width:1px;stroke-linecap:butt;stroke-linejoin:miter;stroke-opacity:1" d="M 940.991,134.189 950.159,150.691 z" id="boundary" inkscape:connector-curvature="0" />
	<path style="fill:none;stroke:red;stroke-width:1px;stroke-linecap:butt;stroke-linejoin:miter;stroke-opacity:1" d="M 948.325,326.721 966.662,321.22 z" id="boundary" inkscape:connector-curvature="0" />
	<path style="fill:none;stroke:red;stroke-width:1px;stroke-linecap:butt;stroke-linejoin:miter;stroke-opacity:1" d="M 950.159,13.1682 959.327,29.671 z" id="boundary" inkscape:connector-curvature="0" />
	<path style="fill:none;stroke:red;stroke-width:1px;stroke-linecap:butt;stroke-linejoin:miter;stroke-opacity:1" d="M 950.159,70.0111 950.159,88.3475 z" id="boundary" inkscape:connector-curvature="0" />
	<path style="fill:none;stroke:red;stroke-width:1px;stroke-linecap:butt;stroke-linejoin:miter;stroke-opacity:1" d="M 950.159,70.0111 959.327,48.0074 z" id="boundary" inkscape:connector-curvature="0" />
	<path style="fill:none;stroke:red;stroke-width:1px;stroke-linecap:butt;stroke-linejoin:miter;stroke-opacity:1" d="M 950.159,150.691 968.495,147.024 z" id="boundary" inkscape:connector-curvature="0" />
	<path style="fill:none;stroke:red;stroke-width:1px;stroke-linecap:butt;stroke-linejoin:miter;stroke-opacity:1" d="M 959.327,29.671 959.327,48.0074 z" id="boundary" inkscape:connector-curvature="0" />
	<path style="fill:none;stroke:red;stroke-width:1px;stroke-linecap:butt;stroke-linejoin:miter;stroke-opacity:1" d="M 966.662,321.22 977.664,299.216 z" id="boundary" inkscape:connector-curvature="0" />
	<path style="fill:none;stroke:red;stroke-width:1px;stroke-linecap:butt;stroke-linejoin:miter;stroke-opacity:1" d="M 968.495,147.024 986.832,147.024 z" id="boundary" inkscape:connector-curvature="0" />
	<path style="fill:none;stroke:red;stroke-width:1px;stroke-linecap:butt;stroke-linejoin:miter;stroke-opacity:1" d="M 977.664,299.216 996,279.046 z" id="boundary" inkscape:connector-curvature="0" />
	<path style="fill:none;stroke:red;stroke-width:1px;stroke-linecap:butt;stroke-linejoin:miter;stroke-opacity:1" d="M 986.832,147.024 986.832,170.861 z" id="boundary" inkscape:connector-curvature="0" />
	<path style="fill:none;stroke:red;stroke-width:1px;stroke-linecap:butt;stroke-linejoin:miter;stroke-opacity:1" d="M 986.832,170.861 986.832,189.198 z" id="boundary" inkscape:connector-curvature="0" />
	<path style="fill:none;stroke:red;stroke-width:1px;stroke-linecap:butt;stroke-linejoin:miter;stroke-opacity:1" d="M 986.832,189.198 986.832,207.534 z" id="boundary" inkscape:connector-curvature="0" />
	<path style="fill:none;stroke:red;stroke-width:1px;stroke-linecap:butt;stroke-linejoin:miter;stroke-opacity:1" d="M 986.832,207.534 986.832,225.871 z" id="boundary" inkscape:connector-curvature="0" />
	<path style="fill:none;stroke:red;stroke-width:1px;stroke-linecap:butt;stroke-linejoin:miter;stroke-opacity:1" d="M 986.832,225.871 986.832,244.207 z" id="boundary" inkscape:connector-curvature="0" />
	<path style="fill:none;stroke:red;stroke-width:1px;stroke-linecap:butt;stroke-linejoin:miter;stroke-opacity:1" d="M 986.832,244.207 996,260.71 z" id="boundary" inkscape:connector-curvature="0" />
	<path style="fill:none;stroke:red;stroke-width:1px;stroke-linecap:butt;stroke-linejoin:miter;stroke-opacity:1" d="M 996,260.71 996,279.046 z" id="boundary" inkscape:connector-curvature="0" />
	<circle cx="4" cy="302.884" r="4" fill="#0" id="circle0"/>
	<circle cx="18.6691" cy="288.214" r="4" fill="#0" id="circle1"/>
	<circle cx="18.6691" cy="315.719" r="4" fill="#0" id="circle2"/>
	<circle cx="33.3383" cy="273.545" r="4" fill="#0" id="circle3"/>
	<circle cx="37.0055" cy="317.553" r="4" fill="#0" id="circle4"/>
	<circle cx="49.841" cy="332.222" r="4" fill="#0" id="circle5"/>
	<circle cx="51.6747" cy="264.377" r="4" fill="#0" id="circle6"/>
	<circle cx="59.0092" cy="211.201" r="4" fill="#0" id="circle7"/>
	<circle cx="59.0092" cy="229.538" r="4" fill="#0" id="circle8"/>
	<circle cx="59.0092" cy="348.725" r="4" fill="#0" id="circle9"/>
	<circle cx="66.3438" cy="251.542" r="4" fill="#0" id="circle10"/>
	<circle cx="68.1774" cy="365.227" r="4" fill="#0" id="circle11"/>
	<circle cx="73.6784" cy="196.532" r="4" fill="#0" id="circle12"/>
	<circle cx="77.3457" cy="381.73" r="4" fill="#0" id="circle13"/>
	<circle cx="92.0148" cy="187.364" r="4" fill="#0" id="circle14"/>
	<circle cx="93.8484" cy="390.898" r="4" fill="#0" id="circle15"/>
	<circle cx="110.351" cy="187.364" r="4" fill="#0" id="circle16"/>
	<circle cx="110.351" cy="400.067" r="4" fill="#0" id="circle17"/>
	<circle cx="119.519" cy="169.028" r="4" fill="#0" id="circle18"/>
	<circle cx="128.688" cy="400.067" r="4" fill="#0" id="circle19"/>
	<circle cx="134.189" cy="154.359" r="4" fill="#0" id="circle20"/>
	<circle cx="147.024" cy="400.067" r="4" fill="#0" id="circle21"/>
	<circle cx="152.525" cy="159.86" r="4" fill="#0" id="circle22"/>
	<circle cx="163.527" cy="143.357" r="4" fill="#0" id="circle23"/>
	<circle cx="163.527" cy="390.898" r="4" fill="#0" id="circle24"/>
	<circle cx="178.196" cy="119.519" r="4" fill="#0" id="circle25"/>
	<circle cx="180.03" cy="381.73" r="4" fill="#0" id="circle26"/>
	<circle cx="196.532" cy="114.018" r="4" fill="#0" id="circle27"/>
	<circle cx="196.532" cy="372.562" r="4" fill="#0" id="circle28"/>
	<circle cx="205.701" cy="389.065" r="4" fill="#0" id="circle29"/>
	<circle cx="213.035" cy="123.187" r="4" fill="#0" id="circle30"/>
	<circle cx="216.702" cy="403.734" r="4" fill="#0" id="circle31"/>
	<circle cx="231.372" cy="123.187" r="4" fill="#0" id="circle32"/>
	<circle cx="233.205" cy="412.902" r="4" fill="#0" id="circle33"/>
	<circle cx="249.708" cy="123.187" r="4" fill="#0" id="circle34"/>
	<circle cx="251.542" cy="418.403" r="4" fill="#0" id="circle35"/>
	<circle cx="268.044" cy="123.187" r="4" fill="#0" id="circle36"/>
	<circle cx="269.878" cy="418.403" r="4" fill="#0" id="circle37"/>
	<circle cx="286.381" cy="123.187" r="4" fill="#0" id="circle38"/>
	<circle cx="288.214" cy="418.403" r="4" fill="#0" id="circle39"/>
	<circle cx="304.717" cy="123.187" r="4" fill="#0" id="circle40"/>
	<circle cx="306.551" cy="418.403" r="4" fill="#0" id="circle41"/>
	<circle cx="323.054" cy="123.187" r="4" fill="#0" id="circle42"/>
	<circle cx="323.054" cy="409.235" r="4" fill="#0" id="circle43"/>
	<circle cx="339.556" cy="398.233" r="4" fill="#0" id="circle44"/>
	<circle cx="341.39" cy="123.187" r="4" fill="#0" id="circle45"/>
	<circle cx="348.725" cy="379.896" r="4" fill="#0" id="circle46"/>
	<circle cx="357.893" cy="361.56" r="4" fill="#0" id="circle47"/>
	<circle cx="359.726" cy="123.187" r="4" fill="#0" id="circle48"/>
	<circle cx="367.061" cy="345.057" r="4" fill="#0" id="circle49"/>
	<circle cx="378.063" cy="123.187" r="4" fill="#0" id="circle50"/>
	<circle cx="385.397" cy="345.057" r="4" fill="#0" id="circle51"/>
	<circle cx="389.065" cy="37.0055" r="4" fill="#0" id="circle52"/>
	<circle cx="389.065" cy="101.183" r="4" fill="#0" id="circle53"/>
	<circle cx="398.233" cy="64.5102" r="4" fill="#0" id="circle54"/>
	<circle cx="398.233" cy="82.8466" r="4" fill="#0" id="circle55"/>
	<circle cx="403.734" cy="343.224" r="4" fill="#0" id="circle56"/>
	<circle cx="407.401" cy="31.5046" r="4" fill="#0" id="circle57"/>
	<circle cx="422.07" cy="335.889" r="4" fill="#0" id="circle58"/>
	<circle cx="425.738" cy="31.5046" r="4" fill="#0" id="circle59"/>
	<circle cx="440.407" cy="335.889" r="4" fill="#0" id="circle60"/>
	<circle cx="442.24" cy="22.3364" r="4" fill="#0" id="circle61"/>
	<circle cx="458.743" cy="335.889" r="4" fill="#0" id="circle62"/>
	<circle cx="460.577" cy="22.3364" r="4" fill="#0" id="circle63"/>
	<circle cx="477.079" cy="335.889" r="4" fill="#0" id="circle64"/>
	<circle cx="478.913" cy="22.3364" r="4" fill="#0" id="circle65"/>
	<circle cx="495.416" cy="334.055" r="4" fill="#0" id="circle66"/>
	<circle cx="497.25" cy="22.3364" r="4" fill="#0" id="circle67"/>
	<circle cx="513.752" cy="334.055" r="4" fill="#0" id="circle68"/>
	<circle cx="515.586" cy="22.3364" r="4" fill="#0" id="circle69"/>
	<circle cx="532.089" cy="13.1682" r="4" fill="#0" id="circle70"/>
	<circle cx="532.089" cy="334.055" r="4" fill="#0" id="circle71"/>
	<circle cx="550.425" cy="13.1682" r="4" fill="#0" id="circle72"/>
	<circle cx="550.425" cy="334.055" r="4" fill="#0" id="circle73"/>
	<circle cx="568.762" cy="13.1682" r="4" fill="#0" id="circle74"/>
	<circle cx="568.762" cy="334.055" r="4" fill="#0" id="circle75"/>
	<circle cx="587.098" cy="13.1682" r="4" fill="#0" id="circle76"/>
	<circle cx="587.098" cy="334.055" r="4" fill="#0" id="circle77"/>
	<circle cx="603.601" cy="4" r="4" fill="#0" id="circle78"/>
	<circle cx="605.434" cy="334.055" r="4" fill="#0" id="circle79"/>
	<circle cx="618.27" cy="348.725" r="4" fill="#0" id="circle80"/>
	<circle cx="621.937" cy="4" r="4" fill="#0" id="circle81"/>
	<circle cx="627.438" cy="365.227" r="4" fill="#0" id="circle82"/>
	<circle cx="640.274" cy="4" r="4" fill="#0" id="circle83"/>
	<circle cx="645.774" cy="372.562" r="4" fill="#0" id="circle84"/>
	<circle cx="658.61" cy="4" r="4" fill="#0" id="circle85"/>
	<circle cx="662.277" cy="381.73" r="4" fill="#0" id="circle86"/>
	<circle cx="676.946" cy="4" r="4" fill="#0" id="circle87"/>
	<circle cx="678.78" cy="390.898" r="4" fill="#0" id="circle88"/>
	<circle cx="695.283" cy="4" r="4" fill="#0" id="circle89"/>
	<circle cx="697.116" cy="389.065" r="4" fill="#0" id="circle90"/>
	<circle cx="713.619" cy="4" r="4" fill="#0" id="circle91"/>
	<circle cx="715.453" cy="379.896" r="4" fill="#0" id="circle92"/>
	<circle cx="731.956" cy="4" r="4" fill="#0" id="circle93"/>
	<circle cx="733.789" cy="370.728" r="4" fill="#0" id="circle94"/>
	<circle cx="748.458" cy="354.226" r="4" fill="#0" id="circle95"/>
	<circle cx="750.292" cy="4" r="4" fill="#0" id="circle96"/>
	<circle cx="764.961" cy="345.057" r="4" fill="#0" id="circle97"/>
	<circle cx="768.628" cy="4" r="4" fill="#0" id="circle98"/>
	<circle cx="775.963" cy="359.726" r="4" fill="#0" id="circle99"/>
	<circle cx="785.131" cy="376.229" r="4" fill="#0" id="circle100"/>
	<circle cx="786.965" cy="4" r="4" fill="#0" id="circle101"/>
	<circle cx="797.967" cy="390.898" r="4" fill="#0" id="circle102"/>
	<circle cx="805.301" cy="4" r="4" fill="#0" id="circle103"/>
	<circle cx="814.47" cy="400.067" r="4" fill="#0" id="circle104"/>
	<circle cx="823.638" cy="4" r="4" fill="#0" id="circle105"/>
	<circle cx="830.972" cy="409.235" r="4" fill="#0" id="circle106"/>
	<circle cx="841.974" cy="4" r="4" fill="#0" id="circle107"/>
	<circle cx="849.309" cy="409.235" r="4" fill="#0" id="circle108"/>
	<circle cx="860.311" cy="4" r="4" fill="#0" id="circle109"/>
	<circle cx="867.645" cy="409.235" r="4" fill="#0" id="circle110"/>
	<circle cx="878.647" cy="4" r="4" fill="#0" id="circle111"/>
	<circle cx="884.148" cy="400.067" r="4" fill="#0" id="circle112"/>
	<circle cx="896.983" cy="4" r="4" fill="#0" id="circle113"/>
	<circle cx="900.651" cy="390.898" r="4" fill="#0" id="circle114"/>
	<circle cx="913.486" cy="372.562" r="4" fill="#0" id="circle115"/>
	<circle cx="915.32" cy="4" r="4" fill="#0" id="circle116"/>
	<circle cx="928.155" cy="359.726" r="4" fill="#0" id="circle117"/>
	<circle cx="931.823" cy="13.1682" r="4" fill="#0" id="circle118"/>
	<circle cx="931.823" cy="335.889" r="4" fill="#0" id="circle119"/>
	<circle cx="940.991" cy="115.852" r="4" fill="#0" id="circle120"/>
	<circle cx="940.991" cy="134.189" r="4" fill="#0" id="circle121"/>
	<circle cx="948.325" cy="326.721" r="4" fill="#0" id="circle122"/>
	<circle cx="950.159" cy="13.1682" r="4" fill="#0" id="circle123"/>
	<circle cx="950.159" cy="70.0111" r="4" fill="#0" id="circle124"/>
	<circle cx="950.159" cy="88.3475" r="4" fill="#0" id="circle125"/>
	<circle cx="950.159" cy="150.691" r="4" fill="#0" id="circle126"/>
	<circle cx="959.327" cy="29.671" r="4" fill="#0" id="circle127"/>
	<circle cx="959.327" cy="48.0074" r="4" fill="#0" id="circle128"/>
	<circle cx="966.662" cy="321.22" r="4" fill="#0" id="circle129"/>
	<circle cx="968.495" cy="147.024" r="4" fill="#0" id="circle130"/>
	<circle cx="977.664" cy="299.216" r="4" fill="#0" id="circle131"/>
	<circle cx="986.832" cy="147.024" r="4" fill="#0" id="circle132"/>
	<circle cx="986.832" cy="170.861" r="4" fill="#0" id="circle133"/>
	<circle cx="986.832" cy="189.198" r="4" fill="#0" id="circle134"/>
	<circle cx="986.832" cy="207.534" r="4" fill="#0" id="circle135"/>
	<circle cx="986.832" cy="225.871" r="4" fill="#0" id="circle136"/>
	<circle cx="986.832" cy="244.207" r="4" fill="#0" id="circle137"/>
	<circle cx="996" cy="260.71" r="4" fill="#0" id="circle138"/>
	<circle cx="996" cy="279.046" r="4" fill="#0" id="circle139"/>
	</g>
</svg>