<?xml version="1.0" encoding="UTF-8" standalone="no"?>
<!-- Created with CurveBenchmark -->
<svg
	xmlns:dc="http://purl.org/dc/elements/1.1/"
	xmlns:cc="http://creativecommons.org/ns#"
	xmlns:rdf="http://www.w3.org/1999/02/22-rdf-syntax-ns#"
	xmlns:svg="http://www.w3.org/2000/svg"
	xmlns="http://www.w3.org/2000/svg"
	xmlns:sodipodi="http://sodipodi.sourceforge.net/DTD/sodipodi-0.dtd"
	xmlns:inkscape="http://www.inkscape.org/namespaces/inkscape"
	width="1000"
	height="1000"
	id="svg2"
	version="1.1"
	sodipodi:docname="manifold/vicur-television070.png.txt">
<defs
	id="defs4" />
<metadata
	id="metadata7">
	<rdf:RDF>
		<cc:Work
			rdf:about="">
			<dc:format>image/svg+xml</dc:format>
			<dc:type
				rdf:resource="http://purl.org/dc/dcmitype/StillImage" />
			<dc:title></dc:title>
		</cc:Work>
	</rdf:RDF>
</metadata>
<g
	inkscape:label="Layer 1"
	inkscape:groupmode="layer"
	id="layer1">
	<path style="fill:none;stroke:red;stroke-width:1px;stroke-linecap:butt;stroke-linejoin:miter;stroke-opacity:1" d="M 4,905.818 4,945.028 z" id="boundary" inkscape:connector-curvature="0" />
	<path style="fill:none;stroke:red;stroke-width:1px;stroke-linecap:butt;stroke-linejoin:miter;stroke-opacity:1" d="M 4,905.818 43.2095,897.976 z" id="boundary" inkscape:connector-curvature="0" />
	<path style="fill:none;stroke:red;stroke-width:1px;stroke-linecap:butt;stroke-linejoin:miter;stroke-opacity:1" d="M 4,945.028 23.6047,980.316 z" id="boundary" inkscape:connector-curvature="0" />
	<path style="fill:none;stroke:red;stroke-width:1px;stroke-linecap:butt;stroke-linejoin:miter;stroke-opacity:1" d="M 19.6838,670.561 54.9723,690.166 z" id="boundary" inkscape:connector-curvature="0" />
	<path style="fill:none;stroke:red;stroke-width:1px;stroke-linecap:butt;stroke-linejoin:miter;stroke-opacity:1" d="M 19.6838,670.561 74.5771,654.877 z" id="boundary" inkscape:connector-curvature="0" />
	<path style="fill:none;stroke:red;stroke-width:1px;stroke-linecap:butt;stroke-linejoin:miter;stroke-opacity:1" d="M 19.6838,788.19 51.0514,815.636 z" id="boundary" inkscape:connector-curvature="0" />
	<path style="fill:none;stroke:red;stroke-width:1px;stroke-linecap:butt;stroke-linejoin:miter;stroke-opacity:1" d="M 19.6838,788.19 70.6561,780.348 z" id="boundary" inkscape:connector-curvature="0" />
	<path style="fill:none;stroke:red;stroke-width:1px;stroke-linecap:butt;stroke-linejoin:miter;stroke-opacity:1" d="M 23.6047,980.316 62.8142,996 z" id="boundary" inkscape:connector-curvature="0" />
	<path style="fill:none;stroke:red;stroke-width:1px;stroke-linecap:butt;stroke-linejoin:miter;stroke-opacity:1" d="M 43.2095,897.976 82.419,897.976 z" id="boundary" inkscape:connector-curvature="0" />
	<path style="fill:none;stroke:red;stroke-width:1px;stroke-linecap:butt;stroke-linejoin:miter;stroke-opacity:1" d="M 51.0514,815.636 90.2609,815.636 z" id="boundary" inkscape:connector-curvature="0" />
	<path style="fill:none;stroke:red;stroke-width:1px;stroke-linecap:butt;stroke-linejoin:miter;stroke-opacity:1" d="M 54.9723,690.166 94.1818,690.166 z" id="boundary" inkscape:connector-curvature="0" />
	<path style="fill:none;stroke:red;stroke-width:1px;stroke-linecap:butt;stroke-linejoin:miter;stroke-opacity:1" d="M 62.8142,996 102.024,980.316 z" id="boundary" inkscape:connector-curvature="0" />
	<path style="fill:none;stroke:red;stroke-width:1px;stroke-linecap:butt;stroke-linejoin:miter;stroke-opacity:1" d="M 70.6561,780.348 109.866,780.348 z" id="boundary" inkscape:connector-curvature="0" />
	<path style="fill:none;stroke:red;stroke-width:1px;stroke-linecap:butt;stroke-linejoin:miter;stroke-opacity:1" d="M 74.5771,654.877 113.787,654.877 z" id="boundary" inkscape:connector-curvature="0" />
	<path style="fill:none;stroke:red;stroke-width:1px;stroke-linecap:butt;stroke-linejoin:miter;stroke-opacity:1" d="M 82.419,897.976 121.628,897.976 z" id="boundary" inkscape:connector-curvature="0" />
	<path style="fill:none;stroke:red;stroke-width:1px;stroke-linecap:butt;stroke-linejoin:miter;stroke-opacity:1" d="M 90.2609,815.636 129.47,815.636 z" id="boundary" inkscape:connector-curvature="0" />
	<path style="fill:none;stroke:red;stroke-width:1px;stroke-linecap:butt;stroke-linejoin:miter;stroke-opacity:1" d="M 94.1818,690.166 133.391,690.166 z" id="boundary" inkscape:connector-curvature="0" />
	<path style="fill:none;stroke:red;stroke-width:1px;stroke-linecap:butt;stroke-linejoin:miter;stroke-opacity:1" d="M 102.024,980.316 141.233,980.316 z" id="boundary" inkscape:connector-curvature="0" />
	<path style="fill:none;stroke:red;stroke-width:1px;stroke-linecap:butt;stroke-linejoin:miter;stroke-opacity:1" d="M 109.866,780.348 149.075,780.348 z" id="boundary" inkscape:connector-curvature="0" />
	<path style="fill:none;stroke:red;stroke-width:1px;stroke-linecap:butt;stroke-linejoin:miter;stroke-opacity:1" d="M 113.787,654.877 152.996,654.877 z" id="boundary" inkscape:connector-curvature="0" />
	<path style="fill:none;stroke:red;stroke-width:1px;stroke-linecap:butt;stroke-linejoin:miter;stroke-opacity:1" d="M 121.628,897.976 160.838,897.976 z" id="boundary" inkscape:connector-curvature="0" />
	<path style="fill:none;stroke:red;stroke-width:1px;stroke-linecap:butt;stroke-linejoin:miter;stroke-opacity:1" d="M 129.47,815.636 168.68,815.636 z" id="boundary" inkscape:connector-curvature="0" />
	<path style="fill:none;stroke:red;stroke-width:1px;stroke-linecap:butt;stroke-linejoin:miter;stroke-opacity:1" d="M 133.391,690.166 172.601,690.166 z" id="boundary" inkscape:connector-curvature="0" />
	<path style="fill:none;stroke:red;stroke-width:1px;stroke-linecap:butt;stroke-linejoin:miter;stroke-opacity:1" d="M 141.233,980.316 180.443,980.316 z" id="boundary" inkscape:connector-curvature="0" />
	<path style="fill:none;stroke:red;stroke-width:1px;stroke-linecap:butt;stroke-linejoin:miter;stroke-opacity:1" d="M 149.075,780.348 188.285,780.348 z" id="boundary" inkscape:connector-curvature="0" />
	<path style="fill:none;stroke:red;stroke-width:1px;stroke-linecap:butt;stroke-linejoin:miter;stroke-opacity:1" d="M 152.996,654.877 192.206,654.877 z" id="boundary" inkscape:connector-curvature="0" />
	<path style="fill:none;stroke:red;stroke-width:1px;stroke-linecap:butt;stroke-linejoin:miter;stroke-opacity:1" d="M 160.838,897.976 200.047,897.976 z" id="boundary" inkscape:connector-curvature="0" />
	<path style="fill:none;stroke:red;stroke-width:1px;stroke-linecap:butt;stroke-linejoin:miter;stroke-opacity:1" d="M 168.68,815.636 207.889,815.636 z" id="boundary" inkscape:connector-curvature="0" />
	<path style="fill:none;stroke:red;stroke-width:1px;stroke-linecap:butt;stroke-linejoin:miter;stroke-opacity:1" d="M 172.601,690.166 211.81,690.166 z" id="boundary" inkscape:connector-curvature="0" />
	<path style="fill:none;stroke:red;stroke-width:1px;stroke-linecap:butt;stroke-linejoin:miter;stroke-opacity:1" d="M 180.443,980.316 219.652,980.316 z" id="boundary" inkscape:connector-curvature="0" />
	<path style="fill:none;stroke:red;stroke-width:1px;stroke-linecap:butt;stroke-linejoin:miter;stroke-opacity:1" d="M 188.285,780.348 227.494,780.348 z" id="boundary" inkscape:connector-curvature="0" />
	<path style="fill:none;stroke:red;stroke-width:1px;stroke-linecap:butt;stroke-linejoin:miter;stroke-opacity:1" d="M 192.206,654.877 231.415,654.877 z" id="boundary" inkscape:connector-curvature="0" />
	<path style="fill:none;stroke:red;stroke-width:1px;stroke-linecap:butt;stroke-linejoin:miter;stroke-opacity:1" d="M 200.047,897.976 239.257,897.976 z" id="boundary" inkscape:connector-curvature="0" />
	<path style="fill:none;stroke:red;stroke-width:1px;stroke-linecap:butt;stroke-linejoin:miter;stroke-opacity:1" d="M 207.889,19.6838 207.889,58.8933 z" id="boundary" inkscape:connector-curvature="0" />
	<path style="fill:none;stroke:red;stroke-width:1px;stroke-linecap:butt;stroke-linejoin:miter;stroke-opacity:1" d="M 207.889,19.6838 247.099,4 z" id="boundary" inkscape:connector-curvature="0" />
	<path style="fill:none;stroke:red;stroke-width:1px;stroke-linecap:butt;stroke-linejoin:miter;stroke-opacity:1" d="M 207.889,58.8933 207.889,98.1028 z" id="boundary" inkscape:connector-curvature="0" />
	<path style="fill:none;stroke:red;stroke-width:1px;stroke-linecap:butt;stroke-linejoin:miter;stroke-opacity:1" d="M 207.889,98.1028 207.889,137.312 z" id="boundary" inkscape:connector-curvature="0" />
	<path style="fill:none;stroke:red;stroke-width:1px;stroke-linecap:butt;stroke-linejoin:miter;stroke-opacity:1" d="M 207.889,137.312 207.889,176.522 z" id="boundary" inkscape:connector-curvature="0" />
	<path style="fill:none;stroke:red;stroke-width:1px;stroke-linecap:butt;stroke-linejoin:miter;stroke-opacity:1" d="M 207.889,176.522 207.889,215.731 z" id="boundary" inkscape:connector-curvature="0" />
	<path style="fill:none;stroke:red;stroke-width:1px;stroke-linecap:butt;stroke-linejoin:miter;stroke-opacity:1" d="M 207.889,215.731 207.889,254.941 z" id="boundary" inkscape:connector-curvature="0" />
	<path style="fill:none;stroke:red;stroke-width:1px;stroke-linecap:butt;stroke-linejoin:miter;stroke-opacity:1" d="M 207.889,254.941 207.889,294.15 z" id="boundary" inkscape:connector-curvature="0" />
	<path style="fill:none;stroke:red;stroke-width:1px;stroke-linecap:butt;stroke-linejoin:miter;stroke-opacity:1" d="M 207.889,294.15 207.889,333.36 z" id="boundary" inkscape:connector-curvature="0" />
	<path style="fill:none;stroke:red;stroke-width:1px;stroke-linecap:butt;stroke-linejoin:miter;stroke-opacity:1" d="M 207.889,333.36 207.889,372.569 z" id="boundary" inkscape:connector-curvature="0" />
	<path style="fill:none;stroke:red;stroke-width:1px;stroke-linecap:butt;stroke-linejoin:miter;stroke-opacity:1" d="M 207.889,372.569 207.889,411.779 z" id="boundary" inkscape:connector-curvature="0" />
	<path style="fill:none;stroke:red;stroke-width:1px;stroke-linecap:butt;stroke-linejoin:miter;stroke-opacity:1" d="M 207.889,411.779 207.889,450.988 z" id="boundary" inkscape:connector-curvature="0" />
	<path style="fill:none;stroke:red;stroke-width:1px;stroke-linecap:butt;stroke-linejoin:miter;stroke-opacity:1" d="M 207.889,450.988 207.889,490.198 z" id="boundary" inkscape:connector-curvature="0" />
	<path style="fill:none;stroke:red;stroke-width:1px;stroke-linecap:butt;stroke-linejoin:miter;stroke-opacity:1" d="M 207.889,490.198 227.494,525.486 z" id="boundary" inkscape:connector-curvature="0" />
	<path style="fill:none;stroke:red;stroke-width:1px;stroke-linecap:butt;stroke-linejoin:miter;stroke-opacity:1" d="M 207.889,815.636 247.099,815.636 z" id="boundary" inkscape:connector-curvature="0" />
	<path style="fill:none;stroke:red;stroke-width:1px;stroke-linecap:butt;stroke-linejoin:miter;stroke-opacity:1" d="M 211.81,690.166 251.02,690.166 z" id="boundary" inkscape:connector-curvature="0" />
	<path style="fill:none;stroke:red;stroke-width:1px;stroke-linecap:butt;stroke-linejoin:miter;stroke-opacity:1" d="M 219.652,980.316 258.862,980.316 z" id="boundary" inkscape:connector-curvature="0" />
	<path style="fill:none;stroke:red;stroke-width:1px;stroke-linecap:butt;stroke-linejoin:miter;stroke-opacity:1" d="M 227.494,525.486 266.704,525.486 z" id="boundary" inkscape:connector-curvature="0" />
	<path style="fill:none;stroke:red;stroke-width:1px;stroke-linecap:butt;stroke-linejoin:miter;stroke-opacity:1" d="M 227.494,780.348 266.704,780.348 z" id="boundary" inkscape:connector-curvature="0" />
	<path style="fill:none;stroke:red;stroke-width:1px;stroke-linecap:butt;stroke-linejoin:miter;stroke-opacity:1" d="M 231.415,654.877 270.625,654.877 z" id="boundary" inkscape:connector-curvature="0" />
	<path style="fill:none;stroke:red;stroke-width:1px;stroke-linecap:butt;stroke-linejoin:miter;stroke-opacity:1" d="M 239.257,897.976 278.466,897.976 z" id="boundary" inkscape:connector-curvature="0" />
	<path style="fill:none;stroke:red;stroke-width:1px;stroke-linecap:butt;stroke-linejoin:miter;stroke-opacity:1" d="M 247.099,4 286.308,4 z" id="boundary" inkscape:connector-curvature="0" />
	<path style="fill:none;stroke:red;stroke-width:1px;stroke-linecap:butt;stroke-linejoin:miter;stroke-opacity:1" d="M 247.099,815.636 286.308,815.636 z" id="boundary" inkscape:connector-curvature="0" />
	<path style="fill:none;stroke:red;stroke-width:1px;stroke-linecap:butt;stroke-linejoin:miter;stroke-opacity:1" d="M 251.02,690.166 290.229,690.166 z" id="boundary" inkscape:connector-curvature="0" />
	<path style="fill:none;stroke:red;stroke-width:1px;stroke-linecap:butt;stroke-linejoin:miter;stroke-opacity:1" d="M 258.862,980.316 298.071,980.316 z" id="boundary" inkscape:connector-curvature="0" />
	<path style="fill:none;stroke:red;stroke-width:1px;stroke-linecap:butt;stroke-linejoin:miter;stroke-opacity:1" d="M 266.704,525.486 305.913,525.486 z" id="boundary" inkscape:connector-curvature="0" />
	<path style="fill:none;stroke:red;stroke-width:1px;stroke-linecap:butt;stroke-linejoin:miter;stroke-opacity:1" d="M 266.704,780.348 305.913,780.348 z" id="boundary" inkscape:connector-curvature="0" />
	<path style="fill:none;stroke:red;stroke-width:1px;stroke-linecap:butt;stroke-linejoin:miter;stroke-opacity:1" d="M 270.625,654.877 309.834,654.877 z" id="boundary" inkscape:connector-curvature="0" />
	<path style="fill:none;stroke:red;stroke-width:1px;stroke-linecap:butt;stroke-linejoin:miter;stroke-opacity:1" d="M 278.466,897.976 317.676,897.976 z" id="boundary" inkscape:connector-curvature="0" />
	<path style="fill:none;stroke:red;stroke-width:1px;stroke-linecap:butt;stroke-linejoin:miter;stroke-opacity:1" d="M 286.308,4 325.518,4 z" id="boundary" inkscape:connector-curvature="0" />
	<path style="fill:none;stroke:red;stroke-width:1px;stroke-linecap:butt;stroke-linejoin:miter;stroke-opacity:1" d="M 286.308,815.636 325.518,815.636 z" id="boundary" inkscape:connector-curvature="0" />
	<path style="fill:none;stroke:red;stroke-width:1px;stroke-linecap:butt;stroke-linejoin:miter;stroke-opacity:1" d="M 290.229,690.166 329.439,690.166 z" id="boundary" inkscape:connector-curvature="0" />
	<path style="fill:none;stroke:red;stroke-width:1px;stroke-linecap:butt;stroke-linejoin:miter;stroke-opacity:1" d="M 298.071,980.316 337.281,996 z" id="boundary" inkscape:connector-curvature="0" />
	<path style="fill:none;stroke:red;stroke-width:1px;stroke-linecap:butt;stroke-linejoin:miter;stroke-opacity:1" d="M 305.913,525.486 345.123,525.486 z" id="boundary" inkscape:connector-curvature="0" />
	<path style="fill:none;stroke:red;stroke-width:1px;stroke-linecap:butt;stroke-linejoin:miter;stroke-opacity:1" d="M 305.913,780.348 345.123,780.348 z" id="boundary" inkscape:connector-curvature="0" />
	<path style="fill:none;stroke:red;stroke-width:1px;stroke-linecap:butt;stroke-linejoin:miter;stroke-opacity:1" d="M 309.834,654.877 349.043,654.877 z" id="boundary" inkscape:connector-curvature="0" />
	<path style="fill:none;stroke:red;stroke-width:1px;stroke-linecap:butt;stroke-linejoin:miter;stroke-opacity:1" d="M 317.676,897.976 356.885,897.976 z" id="boundary" inkscape:connector-curvature="0" />
	<path style="fill:none;stroke:red;stroke-width:1px;stroke-linecap:butt;stroke-linejoin:miter;stroke-opacity:1" d="M 325.518,4 364.727,4 z" id="boundary" inkscape:connector-curvature="0" />
	<path style="fill:none;stroke:red;stroke-width:1px;stroke-linecap:butt;stroke-linejoin:miter;stroke-opacity:1" d="M 325.518,815.636 364.727,815.636 z" id="boundary" inkscape:connector-curvature="0" />
	<path style="fill:none;stroke:red;stroke-width:1px;stroke-linecap:butt;stroke-linejoin:miter;stroke-opacity:1" d="M 329.439,690.166 368.648,690.166 z" id="boundary" inkscape:connector-curvature="0" />
	<path style="fill:none;stroke:red;stroke-width:1px;stroke-linecap:butt;stroke-linejoin:miter;stroke-opacity:1" d="M 337.281,996 376.49,980.316 z" id="boundary" inkscape:connector-curvature="0" />
	<path style="fill:none;stroke:red;stroke-width:1px;stroke-linecap:butt;stroke-linejoin:miter;stroke-opacity:1" d="M 345.123,525.486 380.411,545.091 z" id="boundary" inkscape:connector-curvature="0" />
	<path style="fill:none;stroke:red;stroke-width:1px;stroke-linecap:butt;stroke-linejoin:miter;stroke-opacity:1" d="M 345.123,780.348 380.411,729.375 z" id="boundary" inkscape:connector-curvature="0" />
	<path style="fill:none;stroke:red;stroke-width:1px;stroke-linecap:butt;stroke-linejoin:miter;stroke-opacity:1" d="M 349.043,654.877 380.411,623.51 z" id="boundary" inkscape:connector-curvature="0" />
	<path style="fill:none;stroke:red;stroke-width:1px;stroke-linecap:butt;stroke-linejoin:miter;stroke-opacity:1" d="M 356.885,897.976 380.411,854.846 z" id="boundary" inkscape:connector-curvature="0" />
	<path style="fill:none;stroke:red;stroke-width:1px;stroke-linecap:butt;stroke-linejoin:miter;stroke-opacity:1" d="M 364.727,4 403.937,4 z" id="boundary" inkscape:connector-curvature="0" />
	<path style="fill:none;stroke:red;stroke-width:1px;stroke-linecap:butt;stroke-linejoin:miter;stroke-opacity:1" d="M 364.727,815.636 380.411,854.846 z" id="boundary" inkscape:connector-curvature="0" />
	<path style="fill:none;stroke:red;stroke-width:1px;stroke-linecap:butt;stroke-linejoin:miter;stroke-opacity:1" d="M 368.648,690.166 380.411,729.375 z" id="boundary" inkscape:connector-curvature="0" />
	<path style="fill:none;stroke:red;stroke-width:1px;stroke-linecap:butt;stroke-linejoin:miter;stroke-opacity:1" d="M 376.49,980.316 415.7,996 z" id="boundary" inkscape:connector-curvature="0" />
	<path style="fill:none;stroke:red;stroke-width:1px;stroke-linecap:butt;stroke-linejoin:miter;stroke-opacity:1" d="M 380.411,545.091 380.411,584.3 z" id="boundary" inkscape:connector-curvature="0" />
	<path style="fill:none;stroke:red;stroke-width:1px;stroke-linecap:butt;stroke-linejoin:miter;stroke-opacity:1" d="M 380.411,584.3 380.411,623.51 z" id="boundary" inkscape:connector-curvature="0" />
	<path style="fill:none;stroke:red;stroke-width:1px;stroke-linecap:butt;stroke-linejoin:miter;stroke-opacity:1" d="M 403.937,4 443.146,4 z" id="boundary" inkscape:connector-curvature="0" />
	<path style="fill:none;stroke:red;stroke-width:1px;stroke-linecap:butt;stroke-linejoin:miter;stroke-opacity:1" d="M 415.7,996 454.909,980.316 z" id="boundary" inkscape:connector-curvature="0" />
	<path style="fill:none;stroke:red;stroke-width:1px;stroke-linecap:butt;stroke-linejoin:miter;stroke-opacity:1" d="M 443.146,4 482.356,4 z" id="boundary" inkscape:connector-curvature="0" />
	<path style="fill:none;stroke:red;stroke-width:1px;stroke-linecap:butt;stroke-linejoin:miter;stroke-opacity:1" d="M 454.909,980.316 494.119,980.316 z" id="boundary" inkscape:connector-curvature="0" />
	<path style="fill:none;stroke:red;stroke-width:1px;stroke-linecap:butt;stroke-linejoin:miter;stroke-opacity:1" d="M 482.356,4 521.565,4 z" id="boundary" inkscape:connector-curvature="0" />
	<path style="fill:none;stroke:red;stroke-width:1px;stroke-linecap:butt;stroke-linejoin:miter;stroke-opacity:1" d="M 494.119,980.316 533.328,980.316 z" id="boundary" inkscape:connector-curvature="0" />
	<path style="fill:none;stroke:red;stroke-width:1px;stroke-linecap:butt;stroke-linejoin:miter;stroke-opacity:1" d="M 521.565,4 560.775,11.8419 z" id="boundary" inkscape:connector-curvature="0" />
	<path style="fill:none;stroke:red;stroke-width:1px;stroke-linecap:butt;stroke-linejoin:miter;stroke-opacity:1" d="M 533.328,529.407 533.328,568.617 z" id="boundary" inkscape:connector-curvature="0" />
	<path style="fill:none;stroke:red;stroke-width:1px;stroke-linecap:butt;stroke-linejoin:miter;stroke-opacity:1" d="M 533.328,529.407 564.696,474.514 z" id="boundary" inkscape:connector-curvature="0" />
	<path style="fill:none;stroke:red;stroke-width:1px;stroke-linecap:butt;stroke-linejoin:miter;stroke-opacity:1" d="M 533.328,568.617 533.328,607.826 z" id="boundary" inkscape:connector-curvature="0" />
	<path style="fill:none;stroke:red;stroke-width:1px;stroke-linecap:butt;stroke-linejoin:miter;stroke-opacity:1" d="M 533.328,607.826 533.328,647.036 z" id="boundary" inkscape:connector-curvature="0" />
	<path style="fill:none;stroke:red;stroke-width:1px;stroke-linecap:butt;stroke-linejoin:miter;stroke-opacity:1" d="M 533.328,647.036 533.328,694.087 z" id="boundary" inkscape:connector-curvature="0" />
	<path style="fill:none;stroke:red;stroke-width:1px;stroke-linecap:butt;stroke-linejoin:miter;stroke-opacity:1" d="M 533.328,694.087 533.328,733.296 z" id="boundary" inkscape:connector-curvature="0" />
	<path style="fill:none;stroke:red;stroke-width:1px;stroke-linecap:butt;stroke-linejoin:miter;stroke-opacity:1" d="M 533.328,733.296 533.328,772.506 z" id="boundary" inkscape:connector-curvature="0" />
	<path style="fill:none;stroke:red;stroke-width:1px;stroke-linecap:butt;stroke-linejoin:miter;stroke-opacity:1" d="M 533.328,772.506 572.538,780.348 z" id="boundary" inkscape:connector-curvature="0" />
	<path style="fill:none;stroke:red;stroke-width:1px;stroke-linecap:butt;stroke-linejoin:miter;stroke-opacity:1" d="M 533.328,819.557 533.328,858.767 z" id="boundary" inkscape:connector-curvature="0" />
	<path style="fill:none;stroke:red;stroke-width:1px;stroke-linecap:butt;stroke-linejoin:miter;stroke-opacity:1" d="M 533.328,819.557 592.142,815.636 z" id="boundary" inkscape:connector-curvature="0" />
	<path style="fill:none;stroke:red;stroke-width:1px;stroke-linecap:butt;stroke-linejoin:miter;stroke-opacity:1" d="M 533.328,858.767 537.249,897.976 z" id="boundary" inkscape:connector-curvature="0" />
	<path style="fill:none;stroke:red;stroke-width:1px;stroke-linecap:butt;stroke-linejoin:miter;stroke-opacity:1" d="M 533.328,980.316 572.538,980.316 z" id="boundary" inkscape:connector-curvature="0" />
	<path style="fill:none;stroke:red;stroke-width:1px;stroke-linecap:butt;stroke-linejoin:miter;stroke-opacity:1" d="M 537.249,897.976 576.458,897.976 z" id="boundary" inkscape:connector-curvature="0" />
	<path style="fill:none;stroke:red;stroke-width:1px;stroke-linecap:butt;stroke-linejoin:miter;stroke-opacity:1" d="M 560.775,11.8419 564.696,51.0514 z" id="boundary" inkscape:connector-curvature="0" />
	<path style="fill:none;stroke:red;stroke-width:1px;stroke-linecap:butt;stroke-linejoin:miter;stroke-opacity:1" d="M 564.696,51.0514 576.458,90.2609 z" id="boundary" inkscape:connector-curvature="0" />
	<path style="fill:none;stroke:red;stroke-width:1px;stroke-linecap:butt;stroke-linejoin:miter;stroke-opacity:1" d="M 564.696,239.257 564.696,278.466 z" id="boundary" inkscape:connector-curvature="0" />
	<path style="fill:none;stroke:red;stroke-width:1px;stroke-linecap:butt;stroke-linejoin:miter;stroke-opacity:1" d="M 564.696,239.257 580.379,168.68 z" id="boundary" inkscape:connector-curvature="0" />
	<path style="fill:none;stroke:red;stroke-width:1px;stroke-linecap:butt;stroke-linejoin:miter;stroke-opacity:1" d="M 564.696,278.466 564.696,317.676 z" id="boundary" inkscape:connector-curvature="0" />
	<path style="fill:none;stroke:red;stroke-width:1px;stroke-linecap:butt;stroke-linejoin:miter;stroke-opacity:1" d="M 564.696,317.676 564.696,356.885 z" id="boundary" inkscape:connector-curvature="0" />
	<path style="fill:none;stroke:red;stroke-width:1px;stroke-linecap:butt;stroke-linejoin:miter;stroke-opacity:1" d="M 564.696,356.885 564.696,396.095 z" id="boundary" inkscape:connector-curvature="0" />
	<path style="fill:none;stroke:red;stroke-width:1px;stroke-linecap:butt;stroke-linejoin:miter;stroke-opacity:1" d="M 564.696,396.095 564.696,435.304 z" id="boundary" inkscape:connector-curvature="0" />
	<path style="fill:none;stroke:red;stroke-width:1px;stroke-linecap:butt;stroke-linejoin:miter;stroke-opacity:1" d="M 564.696,435.304 564.696,474.514 z" id="boundary" inkscape:connector-curvature="0" />
	<path style="fill:none;stroke:red;stroke-width:1px;stroke-linecap:butt;stroke-linejoin:miter;stroke-opacity:1" d="M 572.538,654.877 592.142,690.166 z" id="boundary" inkscape:connector-curvature="0" />
	<path style="fill:none;stroke:red;stroke-width:1px;stroke-linecap:butt;stroke-linejoin:miter;stroke-opacity:1" d="M 572.538,780.348 611.747,780.348 z" id="boundary" inkscape:connector-curvature="0" />
	<path style="fill:none;stroke:red;stroke-width:1px;stroke-linecap:butt;stroke-linejoin:miter;stroke-opacity:1" d="M 572.538,980.316 611.747,980.316 z" id="boundary" inkscape:connector-curvature="0" />
	<path style="fill:none;stroke:red;stroke-width:1px;stroke-linecap:butt;stroke-linejoin:miter;stroke-opacity:1" d="M 576.458,90.2609 580.379,129.47 z" id="boundary" inkscape:connector-curvature="0" />
	<path style="fill:none;stroke:red;stroke-width:1px;stroke-linecap:butt;stroke-linejoin:miter;stroke-opacity:1" d="M 576.458,897.976 615.668,897.976 z" id="boundary" inkscape:connector-curvature="0" />
	<path style="fill:none;stroke:red;stroke-width:1px;stroke-linecap:butt;stroke-linejoin:miter;stroke-opacity:1" d="M 580.379,129.47 580.379,168.68 z" id="boundary" inkscape:connector-curvature="0" />
	<path style="fill:none;stroke:red;stroke-width:1px;stroke-linecap:butt;stroke-linejoin:miter;stroke-opacity:1" d="M 592.142,815.636 611.747,780.348 z" id="boundary" inkscape:connector-curvature="0" />
	<path style="fill:none;stroke:red;stroke-width:1px;stroke-linecap:butt;stroke-linejoin:miter;stroke-opacity:1" d="M 611.747,980.316 650.957,980.316 z" id="boundary" inkscape:connector-curvature="0" />
	<path style="fill:none;stroke:red;stroke-width:1px;stroke-linecap:butt;stroke-linejoin:miter;stroke-opacity:1" d="M 615.668,897.976 654.877,897.976 z" id="boundary" inkscape:connector-curvature="0" />
	<path style="fill:none;stroke:red;stroke-width:1px;stroke-linecap:butt;stroke-linejoin:miter;stroke-opacity:1" d="M 650.957,980.316 690.166,980.316 z" id="boundary" inkscape:connector-curvature="0" />
	<path style="fill:none;stroke:red;stroke-width:1px;stroke-linecap:butt;stroke-linejoin:miter;stroke-opacity:1" d="M 654.877,897.976 694.087,897.976 z" id="boundary" inkscape:connector-curvature="0" />
	<path style="fill:none;stroke:red;stroke-width:1px;stroke-linecap:butt;stroke-linejoin:miter;stroke-opacity:1" d="M 690.166,980.316 729.375,980.316 z" id="boundary" inkscape:connector-curvature="0" />
	<path style="fill:none;stroke:red;stroke-width:1px;stroke-linecap:butt;stroke-linejoin:miter;stroke-opacity:1" d="M 694.087,897.976 733.296,897.976 z" id="boundary" inkscape:connector-curvature="0" />
	<path style="fill:none;stroke:red;stroke-width:1px;stroke-linecap:butt;stroke-linejoin:miter;stroke-opacity:1" d="M 729.375,980.316 745.059,937.186 z" id="boundary" inkscape:connector-curvature="0" />
	<path style="fill:none;stroke:red;stroke-width:1px;stroke-linecap:butt;stroke-linejoin:miter;stroke-opacity:1" d="M 733.296,897.976 745.059,937.186 z" id="boundary" inkscape:connector-curvature="0" />
	<circle cx="4" cy="905.818" r="4" fill="#0" id="circle0"/>
	<circle cx="4" cy="945.028" r="4" fill="#0" id="circle1"/>
	<circle cx="19.6838" cy="670.561" r="4" fill="#0" id="circle2"/>
	<circle cx="19.6838" cy="788.19" r="4" fill="#0" id="circle3"/>
	<circle cx="23.6047" cy="980.316" r="4" fill="#0" id="circle4"/>
	<circle cx="43.2095" cy="897.976" r="4" fill="#0" id="circle5"/>
	<circle cx="51.0514" cy="815.636" r="4" fill="#0" id="circle6"/>
	<circle cx="54.9723" cy="690.166" r="4" fill="#0" id="circle7"/>
	<circle cx="62.8142" cy="996" r="4" fill="#0" id="circle8"/>
	<circle cx="70.6561" cy="780.348" r="4" fill="#0" id="circle9"/>
	<circle cx="74.5771" cy="654.877" r="4" fill="#0" id="circle10"/>
	<circle cx="82.419" cy="897.976" r="4" fill="#0" id="circle11"/>
	<circle cx="90.2609" cy="815.636" r="4" fill="#0" id="circle12"/>
	<circle cx="94.1818" cy="690.166" r="4" fill="#0" id="circle13"/>
	<circle cx="102.024" cy="980.316" r="4" fill="#0" id="circle14"/>
	<circle cx="109.866" cy="780.348" r="4" fill="#0" id="circle15"/>
	<circle cx="113.787" cy="654.877" r="4" fill="#0" id="circle16"/>
	<circle cx="121.628" cy="897.976" r="4" fill="#0" id="circle17"/>
	<circle cx="129.47" cy="815.636" r="4" fill="#0" id="circle18"/>
	<circle cx="133.391" cy="690.166" r="4" fill="#0" id="circle19"/>
	<circle cx="141.233" cy="980.316" r="4" fill="#0" id="circle20"/>
	<circle cx="149.075" cy="780.348" r="4" fill="#0" id="circle21"/>
	<circle cx="152.996" cy="654.877" r="4" fill="#0" id="circle22"/>
	<circle cx="160.838" cy="897.976" r="4" fill="#0" id="circle23"/>
	<circle cx="168.68" cy="815.636" r="4" fill="#0" id="circle24"/>
	<circle cx="172.601" cy="690.166" r="4" fill="#0" id="circle25"/>
	<circle cx="180.443" cy="980.316" r="4" fill="#0" id="circle26"/>
	<circle cx="188.285" cy="780.348" r="4" fill="#0" id="circle27"/>
	<circle cx="192.206" cy="654.877" r="4" fill="#0" id="circle28"/>
	<circle cx="200.047" cy="897.976" r="4" fill="#0" id="circle29"/>
	<circle cx="207.889" cy="19.6838" r="4" fill="#0" id="circle30"/>
	<circle cx="207.889" cy="58.8933" r="4" fill="#0" id="circle31"/>
	<circle cx="207.889" cy="98.1028" r="4" fill="#0" id="circle32"/>
	<circle cx="207.889" cy="137.312" r="4" fill="#0" id="circle33"/>
	<circle cx="207.889" cy="176.522" r="4" fill="#0" id="circle34"/>
	<circle cx="207.889" cy="215.731" r="4" fill="#0" id="circle35"/>
	<circle cx="207.889" cy="254.941" r="4" fill="#0" id="circle36"/>
	<circle cx="207.889" cy="294.15" r="4" fill="#0" id="circle37"/>
	<circle cx="207.889" cy="333.36" r="4" fill="#0" id="circle38"/>
	<circle cx="207.889" cy="372.569" r="4" fill="#0" id="circle39"/>
	<circle cx="207.889" cy="411.779" r="4" fill="#0" id="circle40"/>
	<circle cx="207.889" cy="450.988" r="4" fill="#0" id="circle41"/>
	<circle cx="207.889" cy="490.198" r="4" fill="#0" id="circle42"/>
	<circle cx="207.889" cy="815.636" r="4" fill="#0" id="circle43"/>
	<circle cx="211.81" cy="690.166" r="4" fill="#0" id="circle44"/>
	<circle cx="219.652" cy="980.316" r="4" fill="#0" id="circle45"/>
	<circle cx="227.494" cy="525.486" r="4" fill="#0" id="circle46"/>
	<circle cx="227.494" cy="780.348" r="4" fill="#0" id="circle47"/>
	<circle cx="231.415" cy="654.877" r="4" fill="#0" id="circle48"/>
	<circle cx="239.257" cy="897.976" r="4" fill="#0" id="circle49"/>
	<circle cx="247.099" cy="4" r="4" fill="#0" id="circle50"/>
	<circle cx="247.099" cy="815.636" r="4" fill="#0" id="circle51"/>
	<circle cx="251.02" cy="690.166" r="4" fill="#0" id="circle52"/>
	<circle cx="258.862" cy="980.316" r="4" fill="#0" id="circle53"/>
	<circle cx="266.704" cy="525.486" r="4" fill="#0" id="circle54"/>
	<circle cx="266.704" cy="780.348" r="4" fill="#0" id="circle55"/>
	<circle cx="270.625" cy="654.877" r="4" fill="#0" id="circle56"/>
	<circle cx="278.466" cy="897.976" r="4" fill="#0" id="circle57"/>
	<circle cx="286.308" cy="4" r="4" fill="#0" id="circle58"/>
	<circle cx="286.308" cy="815.636" r="4" fill="#0" id="circle59"/>
	<circle cx="290.229" cy="690.166" r="4" fill="#0" id="circle60"/>
	<circle cx="298.071" cy="980.316" r="4" fill="#0" id="circle61"/>
	<circle cx="305.913" cy="525.486" r="4" fill="#0" id="circle62"/>
	<circle cx="305.913" cy="780.348" r="4" fill="#0" id="circle63"/>
	<circle cx="309.834" cy="654.877" r="4" fill="#0" id="circle64"/>
	<circle cx="317.676" cy="897.976" r="4" fill="#0" id="circle65"/>
	<circle cx="325.518" cy="4" r="4" fill="#0" id="circle66"/>
	<circle cx="325.518" cy="815.636" r="4" fill="#0" id="circle67"/>
	<circle cx="329.439" cy="690.166" r="4" fill="#0" id="circle68"/>
	<circle cx="337.281" cy="996" r="4" fill="#0" id="circle69"/>
	<circle cx="345.123" cy="525.486" r="4" fill="#0" id="circle70"/>
	<circle cx="345.123" cy="780.348" r="4" fill="#0" id="circle71"/>
	<circle cx="349.043" cy="654.877" r="4" fill="#0" id="circle72"/>
	<circle cx="356.885" cy="897.976" r="4" fill="#0" id="circle73"/>
	<circle cx="364.727" cy="4" r="4" fill="#0" id="circle74"/>
	<circle cx="364.727" cy="815.636" r="4" fill="#0" id="circle75"/>
	<circle cx="368.648" cy="690.166" r="4" fill="#0" id="circle76"/>
	<circle cx="376.49" cy="980.316" r="4" fill="#0" id="circle77"/>
	<circle cx="380.411" cy="545.091" r="4" fill="#0" id="circle78"/>
	<circle cx="380.411" cy="584.3" r="4" fill="#0" id="circle79"/>
	<circle cx="380.411" cy="623.51" r="4" fill="#0" id="circle80"/>
	<circle cx="380.411" cy="729.375" r="4" fill="#0" id="circle81"/>
	<circle cx="380.411" cy="854.846" r="4" fill="#0" id="circle82"/>
	<circle cx="403.937" cy="4" r="4" fill="#0" id="circle83"/>
	<circle cx="415.7" cy="996" r="4" fill="#0" id="circle84"/>
	<circle cx="443.146" cy="4" r="4" fill="#0" id="circle85"/>
	<circle cx="454.909" cy="980.316" r="4" fill="#0" id="circle86"/>
	<circle cx="482.356" cy="4" r="4" fill="#0" id="circle87"/>
	<circle cx="494.119" cy="980.316" r="4" fill="#0" id="circle88"/>
	<circle cx="521.565" cy="4" r="4" fill="#0" id="circle89"/>
	<circle cx="533.328" cy="529.407" r="4" fill="#0" id="circle90"/>
	<circle cx="533.328" cy="568.617" r="4" fill="#0" id="circle91"/>
	<circle cx="533.328" cy="607.826" r="4" fill="#0" id="circle92"/>
	<circle cx="533.328" cy="647.036" r="4" fill="#0" id="circle93"/>
	<circle cx="533.328" cy="694.087" r="4" fill="#0" id="circle94"/>
	<circle cx="533.328" cy="733.296" r="4" fill="#0" id="circle95"/>
	<circle cx="533.328" cy="772.506" r="4" fill="#0" id="circle96"/>
	<circle cx="533.328" cy="819.557" r="4" fill="#0" id="circle97"/>
	<circle cx="533.328" cy="858.767" r="4" fill="#0" id="circle98"/>
	<circle cx="533.328" cy="980.316" r="4" fill="#0" id="circle99"/>
	<circle cx="537.249" cy="897.976" r="4" fill="#0" id="circle100"/>
	<circle cx="560.775" cy="11.8419" r="4" fill="#0" id="circle101"/>
	<circle cx="564.696" cy="51.0514" r="4" fill="#0" id="circle102"/>
	<circle cx="564.696" cy="239.257" r="4" fill="#0" id="circle103"/>
	<circle cx="564.696" cy="278.466" r="4" fill="#0" id="circle104"/>
	<circle cx="564.696" cy="317.676" r="4" fill="#0" id="circle105"/>
	<circle cx="564.696" cy="356.885" r="4" fill="#0" id="circle106"/>
	<circle cx="564.696" cy="396.095" r="4" fill="#0" id="circle107"/>
	<circle cx="564.696" cy="435.304" r="4" fill="#0" id="circle108"/>
	<circle cx="564.696" cy="474.514" r="4" fill="#0" id="circle109"/>
	<circle cx="572.538" cy="654.877" r="4" fill="#0" id="circle110"/>
	<circle cx="572.538" cy="780.348" r="4" fill="#0" id="circle111"/>
	<circle cx="572.538" cy="980.316" r="4" fill="#0" id="circle112"/>
	<circle cx="576.458" cy="90.2609" r="4" fill="#0" id="circle113"/>
	<circle cx="576.458" cy="897.976" r="4" fill="#0" id="circle114"/>
	<circle cx="580.379" cy="129.47" r="4" fill="#0" id="circle115"/>
	<circle cx="580.379" cy="168.68" r="4" fill="#0" id="circle116"/>
	<circle cx="592.142" cy="690.166" r="4" fill="#0" id="circle117"/>
	<circle cx="592.142" cy="815.636" r="4" fill="#0" id="circle118"/>
	<circle cx="611.747" cy="780.348" r="4" fill="#0" id="circle119"/>
	<circle cx="611.747" cy="980.316" r="4" fill="#0" id="circle120"/>
	<circle cx="615.668" cy="897.976" r="4" fill="#0" id="circle121"/>
	<circle cx="650.957" cy="980.316" r="4" fill="#0" id="circle122"/>
	<circle cx="654.877" cy="897.976" r="4" fill="#0" id="circle123"/>
	<circle cx="690.166" cy="980.316" r="4" fill="#0" id="circle124"/>
	<circle cx="694.087" cy="897.976" r="4" fill="#0" id="circle125"/>
	<circle cx="729.375" cy="980.316" r="4" fill="#0" id="circle126"/>
	<circle cx="733.296" cy="897.976" r="4" fill="#0" id="circle127"/>
	<circle cx="745.059" cy="937.186" r="4" fill="#0" id="circle128"/>
	</g>
</svg>