<?xml version="1.0" encoding="UTF-8" standalone="no"?>
<!-- Created with CurveBenchmark -->
<svg
	xmlns:dc="http://purl.org/dc/elements/1.1/"
	xmlns:cc="http://creativecommons.org/ns#"
	xmlns:rdf="http://www.w3.org/1999/02/22-rdf-syntax-ns#"
	xmlns:svg="http://www.w3.org/2000/svg"
	xmlns="http://www.w3.org/2000/svg"
	xmlns:sodipodi="http://sodipodi.sourceforge.net/DTD/sodipodi-0.dtd"
	xmlns:inkscape="http://www.inkscape.org/namespaces/inkscape"
	width="1000"
	height="1000"
	id="svg2"
	version="1.1"
	sodipodi:docname="manifold/vicur-hammer060.png.txt">
<defs
	id="defs4" />
<metadata
	id="metadata7">
	<rdf:RDF>
		<cc:Work
			rdf:about="">
			<dc:format>image/svg+xml</dc:format>
			<dc:type
				rdf:resource="http://purl.org/dc/dcmitype/StillImage" />
			<dc:title></dc:title>
		</cc:Work>
	</rdf:RDF>
</metadata>
<g
	inkscape:label="Layer 1"
	inkscape:groupmode="layer"
	id="layer1">
	<path style="fill:none;stroke:red;stroke-width:1px;stroke-linecap:butt;stroke-linejoin:miter;stroke-opacity:1" d="M 4,153.519 9.75072,124.765 z" id="boundary" inkscape:connector-curvature="0" />
	<path style="fill:none;stroke:red;stroke-width:1px;stroke-linecap:butt;stroke-linejoin:miter;stroke-opacity:1" d="M 4,153.519 18.3768,179.397 z" id="boundary" inkscape:connector-curvature="0" />
	<path style="fill:none;stroke:red;stroke-width:1px;stroke-linecap:butt;stroke-linejoin:miter;stroke-opacity:1" d="M 9.75072,124.765 21.2522,90.2609 z" id="boundary" inkscape:connector-curvature="0" />
	<path style="fill:none;stroke:red;stroke-width:1px;stroke-linecap:butt;stroke-linejoin:miter;stroke-opacity:1" d="M 18.3768,179.397 47.1304,179.397 z" id="boundary" inkscape:connector-curvature="0" />
	<path style="fill:none;stroke:red;stroke-width:1px;stroke-linecap:butt;stroke-linejoin:miter;stroke-opacity:1" d="M 21.2522,90.2609 35.629,64.3826 z" id="boundary" inkscape:connector-curvature="0" />
	<path style="fill:none;stroke:red;stroke-width:1px;stroke-linecap:butt;stroke-linejoin:miter;stroke-opacity:1" d="M 35.629,64.3826 50.0058,38.5043 z" id="boundary" inkscape:connector-curvature="0" />
	<path style="fill:none;stroke:red;stroke-width:1px;stroke-linecap:butt;stroke-linejoin:miter;stroke-opacity:1" d="M 47.1304,179.397 75.8841,179.397 z" id="boundary" inkscape:connector-curvature="0" />
	<path style="fill:none;stroke:red;stroke-width:1px;stroke-linecap:butt;stroke-linejoin:miter;stroke-opacity:1" d="M 50.0058,38.5043 67.258,15.5014 z" id="boundary" inkscape:connector-curvature="0" />
	<path style="fill:none;stroke:red;stroke-width:1px;stroke-linecap:butt;stroke-linejoin:miter;stroke-opacity:1" d="M 67.258,15.5014 96.0116,4 z" id="boundary" inkscape:connector-curvature="0" />
	<path style="fill:none;stroke:red;stroke-width:1px;stroke-linecap:butt;stroke-linejoin:miter;stroke-opacity:1" d="M 75.8841,179.397 101.762,193.774 z" id="boundary" inkscape:connector-curvature="0" />
	<path style="fill:none;stroke:red;stroke-width:1px;stroke-linecap:butt;stroke-linejoin:miter;stroke-opacity:1" d="M 78.7594,970.122 84.5101,941.368 z" id="boundary" inkscape:connector-curvature="0" />
	<path style="fill:none;stroke:red;stroke-width:1px;stroke-linecap:butt;stroke-linejoin:miter;stroke-opacity:1" d="M 78.7594,970.122 93.1362,996 z" id="boundary" inkscape:connector-curvature="0" />
	<path style="fill:none;stroke:red;stroke-width:1px;stroke-linecap:butt;stroke-linejoin:miter;stroke-opacity:1" d="M 84.5101,510.064 84.5101,538.817 z" id="boundary" inkscape:connector-curvature="0" />
	<path style="fill:none;stroke:red;stroke-width:1px;stroke-linecap:butt;stroke-linejoin:miter;stroke-opacity:1" d="M 84.5101,510.064 90.2609,469.809 z" id="boundary" inkscape:connector-curvature="0" />
	<path style="fill:none;stroke:red;stroke-width:1px;stroke-linecap:butt;stroke-linejoin:miter;stroke-opacity:1" d="M 84.5101,538.817 84.5101,567.571 z" id="boundary" inkscape:connector-curvature="0" />
	<path style="fill:none;stroke:red;stroke-width:1px;stroke-linecap:butt;stroke-linejoin:miter;stroke-opacity:1" d="M 84.5101,567.571 84.5101,596.325 z" id="boundary" inkscape:connector-curvature="0" />
	<path style="fill:none;stroke:red;stroke-width:1px;stroke-linecap:butt;stroke-linejoin:miter;stroke-opacity:1" d="M 84.5101,596.325 84.5101,625.078 z" id="boundary" inkscape:connector-curvature="0" />
	<path style="fill:none;stroke:red;stroke-width:1px;stroke-linecap:butt;stroke-linejoin:miter;stroke-opacity:1" d="M 84.5101,625.078 84.5101,653.832 z" id="boundary" inkscape:connector-curvature="0" />
	<path style="fill:none;stroke:red;stroke-width:1px;stroke-linecap:butt;stroke-linejoin:miter;stroke-opacity:1" d="M 84.5101,653.832 84.5101,682.586 z" id="boundary" inkscape:connector-curvature="0" />
	<path style="fill:none;stroke:red;stroke-width:1px;stroke-linecap:butt;stroke-linejoin:miter;stroke-opacity:1" d="M 84.5101,682.586 84.5101,711.339 z" id="boundary" inkscape:connector-curvature="0" />
	<path style="fill:none;stroke:red;stroke-width:1px;stroke-linecap:butt;stroke-linejoin:miter;stroke-opacity:1" d="M 84.5101,711.339 84.5101,740.093 z" id="boundary" inkscape:connector-curvature="0" />
	<path style="fill:none;stroke:red;stroke-width:1px;stroke-linecap:butt;stroke-linejoin:miter;stroke-opacity:1" d="M 84.5101,740.093 84.5101,768.846 z" id="boundary" inkscape:connector-curvature="0" />
	<path style="fill:none;stroke:red;stroke-width:1px;stroke-linecap:butt;stroke-linejoin:miter;stroke-opacity:1" d="M 84.5101,768.846 84.5101,797.6 z" id="boundary" inkscape:connector-curvature="0" />
	<path style="fill:none;stroke:red;stroke-width:1px;stroke-linecap:butt;stroke-linejoin:miter;stroke-opacity:1" d="M 84.5101,797.6 84.5101,826.354 z" id="boundary" inkscape:connector-curvature="0" />
	<path style="fill:none;stroke:red;stroke-width:1px;stroke-linecap:butt;stroke-linejoin:miter;stroke-opacity:1" d="M 84.5101,826.354 84.5101,855.107 z" id="boundary" inkscape:connector-curvature="0" />
	<path style="fill:none;stroke:red;stroke-width:1px;stroke-linecap:butt;stroke-linejoin:miter;stroke-opacity:1" d="M 84.5101,855.107 84.5101,883.861 z" id="boundary" inkscape:connector-curvature="0" />
	<path style="fill:none;stroke:red;stroke-width:1px;stroke-linecap:butt;stroke-linejoin:miter;stroke-opacity:1" d="M 84.5101,883.861 84.5101,912.614 z" id="boundary" inkscape:connector-curvature="0" />
	<path style="fill:none;stroke:red;stroke-width:1px;stroke-linecap:butt;stroke-linejoin:miter;stroke-opacity:1" d="M 84.5101,912.614 84.5101,941.368 z" id="boundary" inkscape:connector-curvature="0" />
	<path style="fill:none;stroke:red;stroke-width:1px;stroke-linecap:butt;stroke-linejoin:miter;stroke-opacity:1" d="M 90.2609,469.809 101.762,435.304 z" id="boundary" inkscape:connector-curvature="0" />
	<path style="fill:none;stroke:red;stroke-width:1px;stroke-linecap:butt;stroke-linejoin:miter;stroke-opacity:1" d="M 93.1362,996 121.89,996 z" id="boundary" inkscape:connector-curvature="0" />
	<path style="fill:none;stroke:red;stroke-width:1px;stroke-linecap:butt;stroke-linejoin:miter;stroke-opacity:1" d="M 96.0116,4 124.765,4 z" id="boundary" inkscape:connector-curvature="0" />
	<path style="fill:none;stroke:red;stroke-width:1px;stroke-linecap:butt;stroke-linejoin:miter;stroke-opacity:1" d="M 101.762,193.774 107.513,222.528 z" id="boundary" inkscape:connector-curvature="0" />
	<path style="fill:none;stroke:red;stroke-width:1px;stroke-linecap:butt;stroke-linejoin:miter;stroke-opacity:1" d="M 101.762,435.304 107.513,400.8 z" id="boundary" inkscape:connector-curvature="0" />
	<path style="fill:none;stroke:red;stroke-width:1px;stroke-linecap:butt;stroke-linejoin:miter;stroke-opacity:1" d="M 107.513,222.528 107.513,251.281 z" id="boundary" inkscape:connector-curvature="0" />
	<path style="fill:none;stroke:red;stroke-width:1px;stroke-linecap:butt;stroke-linejoin:miter;stroke-opacity:1" d="M 107.513,251.281 113.264,280.035 z" id="boundary" inkscape:connector-curvature="0" />
	<path style="fill:none;stroke:red;stroke-width:1px;stroke-linecap:butt;stroke-linejoin:miter;stroke-opacity:1" d="M 107.513,400.8 113.264,366.296 z" id="boundary" inkscape:connector-curvature="0" />
	<path style="fill:none;stroke:red;stroke-width:1px;stroke-linecap:butt;stroke-linejoin:miter;stroke-opacity:1" d="M 113.264,280.035 113.264,308.788 z" id="boundary" inkscape:connector-curvature="0" />
	<path style="fill:none;stroke:red;stroke-width:1px;stroke-linecap:butt;stroke-linejoin:miter;stroke-opacity:1" d="M 113.264,308.788 113.264,337.542 z" id="boundary" inkscape:connector-curvature="0" />
	<path style="fill:none;stroke:red;stroke-width:1px;stroke-linecap:butt;stroke-linejoin:miter;stroke-opacity:1" d="M 113.264,337.542 113.264,366.296 z" id="boundary" inkscape:connector-curvature="0" />
	<path style="fill:none;stroke:red;stroke-width:1px;stroke-linecap:butt;stroke-linejoin:miter;stroke-opacity:1" d="M 121.89,996 150.643,996 z" id="boundary" inkscape:connector-curvature="0" />
	<path style="fill:none;stroke:red;stroke-width:1px;stroke-linecap:butt;stroke-linejoin:miter;stroke-opacity:1" d="M 124.765,4 153.519,4 z" id="boundary" inkscape:connector-curvature="0" />
	<path style="fill:none;stroke:red;stroke-width:1px;stroke-linecap:butt;stroke-linejoin:miter;stroke-opacity:1" d="M 150.643,996 179.397,996 z" id="boundary" inkscape:connector-curvature="0" />
	<path style="fill:none;stroke:red;stroke-width:1px;stroke-linecap:butt;stroke-linejoin:miter;stroke-opacity:1" d="M 153.519,4 182.272,4 z" id="boundary" inkscape:connector-curvature="0" />
	<path style="fill:none;stroke:red;stroke-width:1px;stroke-linecap:butt;stroke-linejoin:miter;stroke-opacity:1" d="M 179.397,996 208.151,996 z" id="boundary" inkscape:connector-curvature="0" />
	<path style="fill:none;stroke:red;stroke-width:1px;stroke-linecap:butt;stroke-linejoin:miter;stroke-opacity:1" d="M 182.272,4 211.026,4 z" id="boundary" inkscape:connector-curvature="0" />
	<path style="fill:none;stroke:red;stroke-width:1px;stroke-linecap:butt;stroke-linejoin:miter;stroke-opacity:1" d="M 185.148,228.278 185.148,257.032 z" id="boundary" inkscape:connector-curvature="0" />
	<path style="fill:none;stroke:red;stroke-width:1px;stroke-linecap:butt;stroke-linejoin:miter;stroke-opacity:1" d="M 185.148,228.278 190.899,193.774 z" id="boundary" inkscape:connector-curvature="0" />
	<path style="fill:none;stroke:red;stroke-width:1px;stroke-linecap:butt;stroke-linejoin:miter;stroke-opacity:1" d="M 185.148,257.032 185.148,285.786 z" id="boundary" inkscape:connector-curvature="0" />
	<path style="fill:none;stroke:red;stroke-width:1px;stroke-linecap:butt;stroke-linejoin:miter;stroke-opacity:1" d="M 185.148,285.786 185.148,314.539 z" id="boundary" inkscape:connector-curvature="0" />
	<path style="fill:none;stroke:red;stroke-width:1px;stroke-linecap:butt;stroke-linejoin:miter;stroke-opacity:1" d="M 185.148,314.539 185.148,343.293 z" id="boundary" inkscape:connector-curvature="0" />
	<path style="fill:none;stroke:red;stroke-width:1px;stroke-linecap:butt;stroke-linejoin:miter;stroke-opacity:1" d="M 185.148,343.293 185.148,372.046 z" id="boundary" inkscape:connector-curvature="0" />
	<path style="fill:none;stroke:red;stroke-width:1px;stroke-linecap:butt;stroke-linejoin:miter;stroke-opacity:1" d="M 185.148,372.046 185.148,400.8 z" id="boundary" inkscape:connector-curvature="0" />
	<path style="fill:none;stroke:red;stroke-width:1px;stroke-linecap:butt;stroke-linejoin:miter;stroke-opacity:1" d="M 185.148,400.8 188.023,429.554 z" id="boundary" inkscape:connector-curvature="0" />
	<path style="fill:none;stroke:red;stroke-width:1px;stroke-linecap:butt;stroke-linejoin:miter;stroke-opacity:1" d="M 188.023,429.554 196.649,458.307 z" id="boundary" inkscape:connector-curvature="0" />
	<path style="fill:none;stroke:red;stroke-width:1px;stroke-linecap:butt;stroke-linejoin:miter;stroke-opacity:1" d="M 190.899,193.774 202.4,159.27 z" id="boundary" inkscape:connector-curvature="0" />
	<path style="fill:none;stroke:red;stroke-width:1px;stroke-linecap:butt;stroke-linejoin:miter;stroke-opacity:1" d="M 196.649,458.307 208.151,487.061 z" id="boundary" inkscape:connector-curvature="0" />
	<path style="fill:none;stroke:red;stroke-width:1px;stroke-linecap:butt;stroke-linejoin:miter;stroke-opacity:1" d="M 202.4,159.27 208.151,119.014 z" id="boundary" inkscape:connector-curvature="0" />
	<path style="fill:none;stroke:red;stroke-width:1px;stroke-linecap:butt;stroke-linejoin:miter;stroke-opacity:1" d="M 208.151,119.014 222.528,93.1362 z" id="boundary" inkscape:connector-curvature="0" />
	<path style="fill:none;stroke:red;stroke-width:1px;stroke-linecap:butt;stroke-linejoin:miter;stroke-opacity:1" d="M 208.151,487.061 208.151,515.814 z" id="boundary" inkscape:connector-curvature="0" />
	<path style="fill:none;stroke:red;stroke-width:1px;stroke-linecap:butt;stroke-linejoin:miter;stroke-opacity:1" d="M 208.151,515.814 208.151,544.568 z" id="boundary" inkscape:connector-curvature="0" />
	<path style="fill:none;stroke:red;stroke-width:1px;stroke-linecap:butt;stroke-linejoin:miter;stroke-opacity:1" d="M 208.151,544.568 208.151,573.322 z" id="boundary" inkscape:connector-curvature="0" />
	<path style="fill:none;stroke:red;stroke-width:1px;stroke-linecap:butt;stroke-linejoin:miter;stroke-opacity:1" d="M 208.151,573.322 208.151,602.075 z" id="boundary" inkscape:connector-curvature="0" />
	<path style="fill:none;stroke:red;stroke-width:1px;stroke-linecap:butt;stroke-linejoin:miter;stroke-opacity:1" d="M 208.151,602.075 208.151,630.829 z" id="boundary" inkscape:connector-curvature="0" />
	<path style="fill:none;stroke:red;stroke-width:1px;stroke-linecap:butt;stroke-linejoin:miter;stroke-opacity:1" d="M 208.151,630.829 208.151,659.583 z" id="boundary" inkscape:connector-curvature="0" />
	<path style="fill:none;stroke:red;stroke-width:1px;stroke-linecap:butt;stroke-linejoin:miter;stroke-opacity:1" d="M 208.151,659.583 208.151,688.336 z" id="boundary" inkscape:connector-curvature="0" />
	<path style="fill:none;stroke:red;stroke-width:1px;stroke-linecap:butt;stroke-linejoin:miter;stroke-opacity:1" d="M 208.151,688.336 208.151,717.09 z" id="boundary" inkscape:connector-curvature="0" />
	<path style="fill:none;stroke:red;stroke-width:1px;stroke-linecap:butt;stroke-linejoin:miter;stroke-opacity:1" d="M 208.151,717.09 208.151,745.843 z" id="boundary" inkscape:connector-curvature="0" />
	<path style="fill:none;stroke:red;stroke-width:1px;stroke-linecap:butt;stroke-linejoin:miter;stroke-opacity:1" d="M 208.151,745.843 208.151,774.597 z" id="boundary" inkscape:connector-curvature="0" />
	<path style="fill:none;stroke:red;stroke-width:1px;stroke-linecap:butt;stroke-linejoin:miter;stroke-opacity:1" d="M 208.151,774.597 208.151,803.351 z" id="boundary" inkscape:connector-curvature="0" />
	<path style="fill:none;stroke:red;stroke-width:1px;stroke-linecap:butt;stroke-linejoin:miter;stroke-opacity:1" d="M 208.151,803.351 208.151,832.104 z" id="boundary" inkscape:connector-curvature="0" />
	<path style="fill:none;stroke:red;stroke-width:1px;stroke-linecap:butt;stroke-linejoin:miter;stroke-opacity:1" d="M 208.151,832.104 208.151,860.858 z" id="boundary" inkscape:connector-curvature="0" />
	<path style="fill:none;stroke:red;stroke-width:1px;stroke-linecap:butt;stroke-linejoin:miter;stroke-opacity:1" d="M 208.151,860.858 208.151,889.612 z" id="boundary" inkscape:connector-curvature="0" />
	<path style="fill:none;stroke:red;stroke-width:1px;stroke-linecap:butt;stroke-linejoin:miter;stroke-opacity:1" d="M 208.151,889.612 208.151,918.365 z" id="boundary" inkscape:connector-curvature="0" />
	<path style="fill:none;stroke:red;stroke-width:1px;stroke-linecap:butt;stroke-linejoin:miter;stroke-opacity:1" d="M 208.151,918.365 213.901,947.119 z" id="boundary" inkscape:connector-curvature="0" />
	<path style="fill:none;stroke:red;stroke-width:1px;stroke-linecap:butt;stroke-linejoin:miter;stroke-opacity:1" d="M 208.151,996 213.901,947.119 z" id="boundary" inkscape:connector-curvature="0" />
	<path style="fill:none;stroke:red;stroke-width:1px;stroke-linecap:butt;stroke-linejoin:miter;stroke-opacity:1" d="M 211.026,4 239.78,4 z" id="boundary" inkscape:connector-curvature="0" />
	<path style="fill:none;stroke:red;stroke-width:1px;stroke-linecap:butt;stroke-linejoin:miter;stroke-opacity:1" d="M 222.528,93.1362 251.281,87.3855 z" id="boundary" inkscape:connector-curvature="0" />
	<path style="fill:none;stroke:red;stroke-width:1px;stroke-linecap:butt;stroke-linejoin:miter;stroke-opacity:1" d="M 239.78,4 265.658,18.3768 z" id="boundary" inkscape:connector-curvature="0" />
	<path style="fill:none;stroke:red;stroke-width:1px;stroke-linecap:butt;stroke-linejoin:miter;stroke-opacity:1" d="M 251.281,87.3855 271.409,61.5072 z" id="boundary" inkscape:connector-curvature="0" />
	<path style="fill:none;stroke:red;stroke-width:1px;stroke-linecap:butt;stroke-linejoin:miter;stroke-opacity:1" d="M 265.658,18.3768 271.409,61.5072 z" id="boundary" inkscape:connector-curvature="0" />
	<circle cx="4" cy="153.519" r="4" fill="#0" id="circle0"/>
	<circle cx="9.75072" cy="124.765" r="4" fill="#0" id="circle1"/>
	<circle cx="18.3768" cy="179.397" r="4" fill="#0" id="circle2"/>
	<circle cx="21.2522" cy="90.2609" r="4" fill="#0" id="circle3"/>
	<circle cx="35.629" cy="64.3826" r="4" fill="#0" id="circle4"/>
	<circle cx="47.1304" cy="179.397" r="4" fill="#0" id="circle5"/>
	<circle cx="50.0058" cy="38.5043" r="4" fill="#0" id="circle6"/>
	<circle cx="67.258" cy="15.5014" r="4" fill="#0" id="circle7"/>
	<circle cx="75.8841" cy="179.397" r="4" fill="#0" id="circle8"/>
	<circle cx="78.7594" cy="970.122" r="4" fill="#0" id="circle9"/>
	<circle cx="84.5101" cy="510.064" r="4" fill="#0" id="circle10"/>
	<circle cx="84.5101" cy="538.817" r="4" fill="#0" id="circle11"/>
	<circle cx="84.5101" cy="567.571" r="4" fill="#0" id="circle12"/>
	<circle cx="84.5101" cy="596.325" r="4" fill="#0" id="circle13"/>
	<circle cx="84.5101" cy="625.078" r="4" fill="#0" id="circle14"/>
	<circle cx="84.5101" cy="653.832" r="4" fill="#0" id="circle15"/>
	<circle cx="84.5101" cy="682.586" r="4" fill="#0" id="circle16"/>
	<circle cx="84.5101" cy="711.339" r="4" fill="#0" id="circle17"/>
	<circle cx="84.5101" cy="740.093" r="4" fill="#0" id="circle18"/>
	<circle cx="84.5101" cy="768.846" r="4" fill="#0" id="circle19"/>
	<circle cx="84.5101" cy="797.6" r="4" fill="#0" id="circle20"/>
	<circle cx="84.5101" cy="826.354" r="4" fill="#0" id="circle21"/>
	<circle cx="84.5101" cy="855.107" r="4" fill="#0" id="circle22"/>
	<circle cx="84.5101" cy="883.861" r="4" fill="#0" id="circle23"/>
	<circle cx="84.5101" cy="912.614" r="4" fill="#0" id="circle24"/>
	<circle cx="84.5101" cy="941.368" r="4" fill="#0" id="circle25"/>
	<circle cx="90.2609" cy="469.809" r="4" fill="#0" id="circle26"/>
	<circle cx="93.1362" cy="996" r="4" fill="#0" id="circle27"/>
	<circle cx="96.0116" cy="4" r="4" fill="#0" id="circle28"/>
	<circle cx="101.762" cy="193.774" r="4" fill="#0" id="circle29"/>
	<circle cx="101.762" cy="435.304" r="4" fill="#0" id="circle30"/>
	<circle cx="107.513" cy="222.528" r="4" fill="#0" id="circle31"/>
	<circle cx="107.513" cy="251.281" r="4" fill="#0" id="circle32"/>
	<circle cx="107.513" cy="400.8" r="4" fill="#0" id="circle33"/>
	<circle cx="113.264" cy="280.035" r="4" fill="#0" id="circle34"/>
	<circle cx="113.264" cy="308.788" r="4" fill="#0" id="circle35"/>
	<circle cx="113.264" cy="337.542" r="4" fill="#0" id="circle36"/>
	<circle cx="113.264" cy="366.296" r="4" fill="#0" id="circle37"/>
	<circle cx="121.89" cy="996" r="4" fill="#0" id="circle38"/>
	<circle cx="124.765" cy="4" r="4" fill="#0" id="circle39"/>
	<circle cx="150.643" cy="996" r="4" fill="#0" id="circle40"/>
	<circle cx="153.519" cy="4" r="4" fill="#0" id="circle41"/>
	<circle cx="179.397" cy="996" r="4" fill="#0" id="circle42"/>
	<circle cx="182.272" cy="4" r="4" fill="#0" id="circle43"/>
	<circle cx="185.148" cy="228.278" r="4" fill="#0" id="circle44"/>
	<circle cx="185.148" cy="257.032" r="4" fill="#0" id="circle45"/>
	<circle cx="185.148" cy="285.786" r="4" fill="#0" id="circle46"/>
	<circle cx="185.148" cy="314.539" r="4" fill="#0" id="circle47"/>
	<circle cx="185.148" cy="343.293" r="4" fill="#0" id="circle48"/>
	<circle cx="185.148" cy="372.046" r="4" fill="#0" id="circle49"/>
	<circle cx="185.148" cy="400.8" r="4" fill="#0" id="circle50"/>
	<circle cx="188.023" cy="429.554" r="4" fill="#0" id="circle51"/>
	<circle cx="190.899" cy="193.774" r="4" fill="#0" id="circle52"/>
	<circle cx="196.649" cy="458.307" r="4" fill="#0" id="circle53"/>
	<circle cx="202.4" cy="159.27" r="4" fill="#0" id="circle54"/>
	<circle cx="208.151" cy="119.014" r="4" fill="#0" id="circle55"/>
	<circle cx="208.151" cy="487.061" r="4" fill="#0" id="circle56"/>
	<circle cx="208.151" cy="515.814" r="4" fill="#0" id="circle57"/>
	<circle cx="208.151" cy="544.568" r="4" fill="#0" id="circle58"/>
	<circle cx="208.151" cy="573.322" r="4" fill="#0" id="circle59"/>
	<circle cx="208.151" cy="602.075" r="4" fill="#0" id="circle60"/>
	<circle cx="208.151" cy="630.829" r="4" fill="#0" id="circle61"/>
	<circle cx="208.151" cy="659.583" r="4" fill="#0" id="circle62"/>
	<circle cx="208.151" cy="688.336" r="4" fill="#0" id="circle63"/>
	<circle cx="208.151" cy="717.09" r="4" fill="#0" id="circle64"/>
	<circle cx="208.151" cy="745.843" r="4" fill="#0" id="circle65"/>
	<circle cx="208.151" cy="774.597" r="4" fill="#0" id="circle66"/>
	<circle cx="208.151" cy="803.351" r="4" fill="#0" id="circle67"/>
	<circle cx="208.151" cy="832.104" r="4" fill="#0" id="circle68"/>
	<circle cx="208.151" cy="860.858" r="4" fill="#0" id="circle69"/>
	<circle cx="208.151" cy="889.612" r="4" fill="#0" id="circle70"/>
	<circle cx="208.151" cy="918.365" r="4" fill="#0" id="circle71"/>
	<circle cx="208.151" cy="996" r="4" fill="#0" id="circle72"/>
	<circle cx="211.026" cy="4" r="4" fill="#0" id="circle73"/>
	<circle cx="213.901" cy="947.119" r="4" fill="#0" id="circle74"/>
	<circle cx="222.528" cy="93.1362" r="4" fill="#0" id="circle75"/>
	<circle cx="239.78" cy="4" r="4" fill="#0" id="circle76"/>
	<circle cx="251.281" cy="87.3855" r="4" fill="#0" id="circle77"/>
	<circle cx="265.658" cy="18.3768" r="4" fill="#0" id="circle78"/>
	<circle cx="271.409" cy="61.5072" r="4" fill="#0" id="circle79"/>
	</g>
</svg>