<?xml version="1.0" encoding="UTF-8" standalone="no"?>
<!-- Created with CurveBenchmark -->
<svg
	xmlns:dc="http://purl.org/dc/elements/1.1/"
	xmlns:cc="http://creativecommons.org/ns#"
	xmlns:rdf="http://www.w3.org/1999/02/22-rdf-syntax-ns#"
	xmlns:svg="http://www.w3.org/2000/svg"
	xmlns="http://www.w3.org/2000/svg"
	xmlns:sodipodi="http://sodipodi.sourceforge.net/DTD/sodipodi-0.dtd"
	xmlns:inkscape="http://www.inkscape.org/namespaces/inkscape"
	width="1000"
	height="1000"
	id="svg2"
	version="1.1"
	sodipodi:docname="manifold/vicur-truck-13.png.txt">
<defs
	id="defs4" />
<metadata
	id="metadata7">
	<rdf:RDF>
		<cc:Work
			rdf:about="">
			<dc:format>image/svg+xml</dc:format>
			<dc:type
				rdf:resource="http://purl.org/dc/dcmitype/StillImage" />
			<dc:title></dc:title>
		</cc:Work>
	</rdf:RDF>
</metadata>
<g
	inkscape:label="Layer 1"
	inkscape:groupmode="layer"
	id="layer1">
	<path style="fill:none;stroke:red;stroke-width:1px;stroke-linecap:butt;stroke-linejoin:miter;stroke-opacity:1" d="M 4,243.448 4,261.452 z" id="boundary" inkscape:connector-curvature="0" />
	<path style="fill:none;stroke:red;stroke-width:1px;stroke-linecap:butt;stroke-linejoin:miter;stroke-opacity:1" d="M 4,261.452 4,279.456 z" id="boundary" inkscape:connector-curvature="0" />
	<path style="fill:none;stroke:red;stroke-width:1px;stroke-linecap:butt;stroke-linejoin:miter;stroke-opacity:1" d="M 4,279.456 13.0018,295.659 z" id="boundary" inkscape:connector-curvature="0" />
	<path style="fill:none;stroke:red;stroke-width:1px;stroke-linecap:butt;stroke-linejoin:miter;stroke-opacity:1" d="M 13.0018,295.659 25.6044,310.062 z" id="boundary" inkscape:connector-curvature="0" />
	<path style="fill:none;stroke:red;stroke-width:1px;stroke-linecap:butt;stroke-linejoin:miter;stroke-opacity:1" d="M 25.6044,310.062 43.608,302.86 z" id="boundary" inkscape:connector-curvature="0" />
	<path style="fill:none;stroke:red;stroke-width:1px;stroke-linecap:butt;stroke-linejoin:miter;stroke-opacity:1" d="M 31.0054,216.443 49.0091,211.042 z" id="boundary" inkscape:connector-curvature="0" />
	<path style="fill:none;stroke:red;stroke-width:1px;stroke-linecap:butt;stroke-linejoin:miter;stroke-opacity:1" d="M 31.0054,387.477 40.0073,369.474 z" id="boundary" inkscape:connector-curvature="0" />
	<path style="fill:none;stroke:red;stroke-width:1px;stroke-linecap:butt;stroke-linejoin:miter;stroke-opacity:1" d="M 31.0054,423.485 31.0054,441.488 z" id="boundary" inkscape:connector-curvature="0" />
	<path style="fill:none;stroke:red;stroke-width:1px;stroke-linecap:butt;stroke-linejoin:miter;stroke-opacity:1" d="M 31.0054,441.488 40.0073,457.691 z" id="boundary" inkscape:connector-curvature="0" />
	<path style="fill:none;stroke:red;stroke-width:1px;stroke-linecap:butt;stroke-linejoin:miter;stroke-opacity:1" d="M 40.0073,369.474 58.0109,360.472 z" id="boundary" inkscape:connector-curvature="0" />
	<path style="fill:none;stroke:red;stroke-width:1px;stroke-linecap:butt;stroke-linejoin:miter;stroke-opacity:1" d="M 40.0073,457.691 49.0091,473.895 z" id="boundary" inkscape:connector-curvature="0" />
	<path style="fill:none;stroke:red;stroke-width:1px;stroke-linecap:butt;stroke-linejoin:miter;stroke-opacity:1" d="M 49.0091,211.042 65.2123,202.04 z" id="boundary" inkscape:connector-curvature="0" />
	<path style="fill:none;stroke:red;stroke-width:1px;stroke-linecap:butt;stroke-linejoin:miter;stroke-opacity:1" d="M 49.0091,473.895 59.8113,488.298 z" id="boundary" inkscape:connector-curvature="0" />
	<path style="fill:none;stroke:red;stroke-width:1px;stroke-linecap:butt;stroke-linejoin:miter;stroke-opacity:1" d="M 59.8113,488.298 67.0127,506.301 z" id="boundary" inkscape:connector-curvature="0" />
	<path style="fill:none;stroke:red;stroke-width:1px;stroke-linecap:butt;stroke-linejoin:miter;stroke-opacity:1" d="M 65.2123,202.04 83.216,202.04 z" id="boundary" inkscape:connector-curvature="0" />
	<path style="fill:none;stroke:red;stroke-width:1px;stroke-linecap:butt;stroke-linejoin:miter;stroke-opacity:1" d="M 67.0127,506.301 76.0145,522.505 z" id="boundary" inkscape:connector-curvature="0" />
	<path style="fill:none;stroke:red;stroke-width:1px;stroke-linecap:butt;stroke-linejoin:miter;stroke-opacity:1" d="M 76.0145,522.505 90.4174,535.107 z" id="boundary" inkscape:connector-curvature="0" />
	<path style="fill:none;stroke:red;stroke-width:1px;stroke-linecap:butt;stroke-linejoin:miter;stroke-opacity:1" d="M 83.216,202.04 101.22,202.04 z" id="boundary" inkscape:connector-curvature="0" />
	<path style="fill:none;stroke:red;stroke-width:1px;stroke-linecap:butt;stroke-linejoin:miter;stroke-opacity:1" d="M 90.4174,535.107 108.421,535.107 z" id="boundary" inkscape:connector-curvature="0" />
	<path style="fill:none;stroke:red;stroke-width:1px;stroke-linecap:butt;stroke-linejoin:miter;stroke-opacity:1" d="M 101.22,202.04 113.822,187.637 z" id="boundary" inkscape:connector-curvature="0" />
	<path style="fill:none;stroke:red;stroke-width:1px;stroke-linecap:butt;stroke-linejoin:miter;stroke-opacity:1" d="M 113.822,187.637 128.225,175.034 z" id="boundary" inkscape:connector-curvature="0" />
	<path style="fill:none;stroke:red;stroke-width:1px;stroke-linecap:butt;stroke-linejoin:miter;stroke-opacity:1" d="M 128.225,175.034 144.428,166.033 z" id="boundary" inkscape:connector-curvature="0" />
	<path style="fill:none;stroke:red;stroke-width:1px;stroke-linecap:butt;stroke-linejoin:miter;stroke-opacity:1" d="M 144.428,166.033 162.432,157.031 z" id="boundary" inkscape:connector-curvature="0" />
	<path style="fill:none;stroke:red;stroke-width:1px;stroke-linecap:butt;stroke-linejoin:miter;stroke-opacity:1" d="M 162.432,157.031 180.436,157.031 z" id="boundary" inkscape:connector-curvature="0" />
	<path style="fill:none;stroke:red;stroke-width:1px;stroke-linecap:butt;stroke-linejoin:miter;stroke-opacity:1" d="M 180.436,157.031 196.639,148.029 z" id="boundary" inkscape:connector-curvature="0" />
	<path style="fill:none;stroke:red;stroke-width:1px;stroke-linecap:butt;stroke-linejoin:miter;stroke-opacity:1" d="M 394.679,139.027 412.682,139.027 z" id="boundary" inkscape:connector-curvature="0" />
	<path style="fill:none;stroke:red;stroke-width:1px;stroke-linecap:butt;stroke-linejoin:miter;stroke-opacity:1" d="M 412.682,139.027 430.686,139.027 z" id="boundary" inkscape:connector-curvature="0" />
	<path style="fill:none;stroke:red;stroke-width:1px;stroke-linecap:butt;stroke-linejoin:miter;stroke-opacity:1" d="M 454.091,54.4102 463.093,36.4065 z" id="boundary" inkscape:connector-curvature="0" />
	<path style="fill:none;stroke:red;stroke-width:1px;stroke-linecap:butt;stroke-linejoin:miter;stroke-opacity:1" d="M 463.093,36.4065 477.495,22.0036 z" id="boundary" inkscape:connector-curvature="0" />
	<path style="fill:none;stroke:red;stroke-width:1px;stroke-linecap:butt;stroke-linejoin:miter;stroke-opacity:1" d="M 477.495,22.0036 493.699,13.0018 z" id="boundary" inkscape:connector-curvature="0" />
	<path style="fill:none;stroke:red;stroke-width:1px;stroke-linecap:butt;stroke-linejoin:miter;stroke-opacity:1" d="M 493.699,13.0018 511.702,13.0018 z" id="boundary" inkscape:connector-curvature="0" />
	<path style="fill:none;stroke:red;stroke-width:1px;stroke-linecap:butt;stroke-linejoin:miter;stroke-opacity:1" d="M 547.71,13.0018 565.713,13.0018 z" id="boundary" inkscape:connector-curvature="0" />
	<path style="fill:none;stroke:red;stroke-width:1px;stroke-linecap:butt;stroke-linejoin:miter;stroke-opacity:1" d="M 556.711,527.906 574.715,527.906 z" id="boundary" inkscape:connector-curvature="0" />
	<path style="fill:none;stroke:red;stroke-width:1px;stroke-linecap:butt;stroke-linejoin:miter;stroke-opacity:1" d="M 565.713,13.0018 581.917,4 z" id="boundary" inkscape:connector-curvature="0" />
	<path style="fill:none;stroke:red;stroke-width:1px;stroke-linecap:butt;stroke-linejoin:miter;stroke-opacity:1" d="M 574.715,527.906 592.719,527.906 z" id="boundary" inkscape:connector-curvature="0" />
	<path style="fill:none;stroke:red;stroke-width:1px;stroke-linecap:butt;stroke-linejoin:miter;stroke-opacity:1" d="M 581.917,4 599.92,4 z" id="boundary" inkscape:connector-curvature="0" />
	<path style="fill:none;stroke:red;stroke-width:1px;stroke-linecap:butt;stroke-linejoin:miter;stroke-opacity:1" d="M 592.719,527.906 608.922,518.904 z" id="boundary" inkscape:connector-curvature="0" />
	<path style="fill:none;stroke:red;stroke-width:1px;stroke-linecap:butt;stroke-linejoin:miter;stroke-opacity:1" d="M 608.922,518.904 625.125,509.902 z" id="boundary" inkscape:connector-curvature="0" />
	<path style="fill:none;stroke:red;stroke-width:1px;stroke-linecap:butt;stroke-linejoin:miter;stroke-opacity:1" d="M 625.125,509.902 641.328,500.9 z" id="boundary" inkscape:connector-curvature="0" />
	<path style="fill:none;stroke:red;stroke-width:1px;stroke-linecap:butt;stroke-linejoin:miter;stroke-opacity:1" d="M 641.328,500.9 659.332,497.299 z" id="boundary" inkscape:connector-curvature="0" />
	<path style="fill:none;stroke:red;stroke-width:1px;stroke-linecap:butt;stroke-linejoin:miter;stroke-opacity:1" d="M 659.332,497.299 695.339,479.296 z" id="boundary" inkscape:connector-curvature="0" />
	<path style="fill:none;stroke:red;stroke-width:1px;stroke-linecap:butt;stroke-linejoin:miter;stroke-opacity:1" d="M 689.938,4 707.942,4 z" id="boundary" inkscape:connector-curvature="0" />
	<path style="fill:none;stroke:red;stroke-width:1px;stroke-linecap:butt;stroke-linejoin:miter;stroke-opacity:1" d="M 695.339,479.296 707.942,455.891 z" id="boundary" inkscape:connector-curvature="0" />
	<path style="fill:none;stroke:red;stroke-width:1px;stroke-linecap:butt;stroke-linejoin:miter;stroke-opacity:1" d="M 707.942,4 725.946,9.40109 z" id="boundary" inkscape:connector-curvature="0" />
	<path style="fill:none;stroke:red;stroke-width:1px;stroke-linecap:butt;stroke-linejoin:miter;stroke-opacity:1" d="M 707.942,455.891 743.949,455.891 z" id="boundary" inkscape:connector-curvature="0" />
	<path style="fill:none;stroke:red;stroke-width:1px;stroke-linecap:butt;stroke-linejoin:miter;stroke-opacity:1" d="M 725.946,9.40109 738.548,23.804 z" id="boundary" inkscape:connector-curvature="0" />
	<path style="fill:none;stroke:red;stroke-width:1px;stroke-linecap:butt;stroke-linejoin:miter;stroke-opacity:1" d="M 743.949,59.8113 743.949,77.8149 z" id="boundary" inkscape:connector-curvature="0" />
	<path style="fill:none;stroke:red;stroke-width:1px;stroke-linecap:butt;stroke-linejoin:miter;stroke-opacity:1" d="M 743.949,77.8149 752.951,94.0181 z" id="boundary" inkscape:connector-curvature="0" />
	<path style="fill:none;stroke:red;stroke-width:1px;stroke-linecap:butt;stroke-linejoin:miter;stroke-opacity:1" d="M 743.949,455.891 761.953,455.891 z" id="boundary" inkscape:connector-curvature="0" />
	<path style="fill:none;stroke:red;stroke-width:1px;stroke-linecap:butt;stroke-linejoin:miter;stroke-opacity:1" d="M 752.951,94.0181 752.951,112.022 z" id="boundary" inkscape:connector-curvature="0" />
	<path style="fill:none;stroke:red;stroke-width:1px;stroke-linecap:butt;stroke-linejoin:miter;stroke-opacity:1" d="M 752.951,112.022 761.953,128.225 z" id="boundary" inkscape:connector-curvature="0" />
	<path style="fill:none;stroke:red;stroke-width:1px;stroke-linecap:butt;stroke-linejoin:miter;stroke-opacity:1" d="M 761.953,128.225 770.955,144.428 z" id="boundary" inkscape:connector-curvature="0" />
	<path style="fill:none;stroke:red;stroke-width:1px;stroke-linecap:butt;stroke-linejoin:miter;stroke-opacity:1" d="M 761.953,455.891 787.158,473.895 z" id="boundary" inkscape:connector-curvature="0" />
	<path style="fill:none;stroke:red;stroke-width:1px;stroke-linecap:butt;stroke-linejoin:miter;stroke-opacity:1" d="M 770.955,144.428 770.955,162.432 z" id="boundary" inkscape:connector-curvature="0" />
	<path style="fill:none;stroke:red;stroke-width:1px;stroke-linecap:butt;stroke-linejoin:miter;stroke-opacity:1" d="M 770.955,162.432 778.156,180.436 z" id="boundary" inkscape:connector-curvature="0" />
	<path style="fill:none;stroke:red;stroke-width:1px;stroke-linecap:butt;stroke-linejoin:miter;stroke-opacity:1" d="M 778.156,180.436 787.158,196.639 z" id="boundary" inkscape:connector-curvature="0" />
	<path style="fill:none;stroke:red;stroke-width:1px;stroke-linecap:butt;stroke-linejoin:miter;stroke-opacity:1" d="M 787.158,196.639 797.96,211.042 z" id="boundary" inkscape:connector-curvature="0" />
	<path style="fill:none;stroke:red;stroke-width:1px;stroke-linecap:butt;stroke-linejoin:miter;stroke-opacity:1" d="M 787.158,473.895 797.96,488.298 z" id="boundary" inkscape:connector-curvature="0" />
	<path style="fill:none;stroke:red;stroke-width:1px;stroke-linecap:butt;stroke-linejoin:miter;stroke-opacity:1" d="M 797.96,211.042 806.962,227.245 z" id="boundary" inkscape:connector-curvature="0" />
	<path style="fill:none;stroke:red;stroke-width:1px;stroke-linecap:butt;stroke-linejoin:miter;stroke-opacity:1" d="M 797.96,488.298 812.363,500.9 z" id="boundary" inkscape:connector-curvature="0" />
	<path style="fill:none;stroke:red;stroke-width:1px;stroke-linecap:butt;stroke-linejoin:miter;stroke-opacity:1" d="M 806.962,227.245 821.365,238.047 z" id="boundary" inkscape:connector-curvature="0" />
	<path style="fill:none;stroke:red;stroke-width:1px;stroke-linecap:butt;stroke-linejoin:miter;stroke-opacity:1" d="M 848.37,500.9 866.374,500.9 z" id="boundary" inkscape:connector-curvature="0" />
	<path style="fill:none;stroke:red;stroke-width:1px;stroke-linecap:butt;stroke-linejoin:miter;stroke-opacity:1" d="M 857.372,238.047 873.575,247.049 z" id="boundary" inkscape:connector-curvature="0" />
	<path style="fill:none;stroke:red;stroke-width:1px;stroke-linecap:butt;stroke-linejoin:miter;stroke-opacity:1" d="M 866.374,500.9 884.377,500.9 z" id="boundary" inkscape:connector-curvature="0" />
	<path style="fill:none;stroke:red;stroke-width:1px;stroke-linecap:butt;stroke-linejoin:miter;stroke-opacity:1" d="M 873.575,247.049 886.178,261.452 z" id="boundary" inkscape:connector-curvature="0" />
	<path style="fill:none;stroke:red;stroke-width:1px;stroke-linecap:butt;stroke-linejoin:miter;stroke-opacity:1" d="M 884.377,500.9 900.581,491.898 z" id="boundary" inkscape:connector-curvature="0" />
	<path style="fill:none;stroke:red;stroke-width:1px;stroke-linecap:butt;stroke-linejoin:miter;stroke-opacity:1" d="M 886.178,261.452 887.978,279.456 z" id="boundary" inkscape:connector-curvature="0" />
	<path style="fill:none;stroke:red;stroke-width:1px;stroke-linecap:butt;stroke-linejoin:miter;stroke-opacity:1" d="M 887.978,279.456 904.181,288.457 z" id="boundary" inkscape:connector-curvature="0" />
	<path style="fill:none;stroke:red;stroke-width:1px;stroke-linecap:butt;stroke-linejoin:miter;stroke-opacity:1" d="M 904.181,288.457 914.984,302.86 z" id="boundary" inkscape:connector-curvature="0" />
	<path style="fill:none;stroke:red;stroke-width:1px;stroke-linecap:butt;stroke-linejoin:miter;stroke-opacity:1" d="M 914.984,302.86 923.985,319.064 z" id="boundary" inkscape:connector-curvature="0" />
	<path style="fill:none;stroke:red;stroke-width:1px;stroke-linecap:butt;stroke-linejoin:miter;stroke-opacity:1" d="M 959.993,319.064 976.196,328.065 z" id="boundary" inkscape:connector-curvature="0" />
	<path style="fill:none;stroke:red;stroke-width:1px;stroke-linecap:butt;stroke-linejoin:miter;stroke-opacity:1" d="M 959.993,437.887 977.996,428.886 z" id="boundary" inkscape:connector-curvature="0" />
	<path style="fill:none;stroke:red;stroke-width:1px;stroke-linecap:butt;stroke-linejoin:miter;stroke-opacity:1" d="M 976.196,328.065 986.998,342.468 z" id="boundary" inkscape:connector-curvature="0" />
	<path style="fill:none;stroke:red;stroke-width:1px;stroke-linecap:butt;stroke-linejoin:miter;stroke-opacity:1" d="M 977.996,428.886 996,394.679 z" id="boundary" inkscape:connector-curvature="0" />
	<path style="fill:none;stroke:red;stroke-width:1px;stroke-linecap:butt;stroke-linejoin:miter;stroke-opacity:1" d="M 986.998,342.468 996,358.672 z" id="boundary" inkscape:connector-curvature="0" />
	<path style="fill:none;stroke:red;stroke-width:1px;stroke-linecap:butt;stroke-linejoin:miter;stroke-opacity:1" d="M 996,358.672 996,394.679 z" id="boundary" inkscape:connector-curvature="0" />
	<circle cx="4" cy="243.448" r="4" fill="#0" id="circle0"/>
	<circle cx="4" cy="261.452" r="4" fill="#0" id="circle1"/>
	<circle cx="4" cy="279.456" r="4" fill="#0" id="circle2"/>
	<circle cx="13.0018" cy="225.445" r="4" fill="#0" id="circle3"/>
	<circle cx="13.0018" cy="295.659" r="4" fill="#0" id="circle4"/>
	<circle cx="25.6044" cy="310.062" r="4" fill="#0" id="circle5"/>
	<circle cx="31.0054" cy="216.443" r="4" fill="#0" id="circle6"/>
	<circle cx="31.0054" cy="387.477" r="4" fill="#0" id="circle7"/>
	<circle cx="31.0054" cy="405.481" r="4" fill="#0" id="circle8"/>
	<circle cx="31.0054" cy="423.485" r="4" fill="#0" id="circle9"/>
	<circle cx="31.0054" cy="441.488" r="4" fill="#0" id="circle10"/>
	<circle cx="40.0073" cy="369.474" r="4" fill="#0" id="circle11"/>
	<circle cx="40.0073" cy="457.691" r="4" fill="#0" id="circle12"/>
	<circle cx="43.608" cy="302.86" r="4" fill="#0" id="circle13"/>
	<circle cx="49.0091" cy="211.042" r="4" fill="#0" id="circle14"/>
	<circle cx="49.0091" cy="473.895" r="4" fill="#0" id="circle15"/>
	<circle cx="58.0109" cy="360.472" r="4" fill="#0" id="circle16"/>
	<circle cx="59.8113" cy="488.298" r="4" fill="#0" id="circle17"/>
	<circle cx="61.6116" cy="302.86" r="4" fill="#0" id="circle18"/>
	<circle cx="65.2123" cy="202.04" r="4" fill="#0" id="circle19"/>
	<circle cx="67.0127" cy="506.301" r="4" fill="#0" id="circle20"/>
	<circle cx="76.0145" cy="355.071" r="4" fill="#0" id="circle21"/>
	<circle cx="76.0145" cy="522.505" r="4" fill="#0" id="circle22"/>
	<circle cx="79.6152" cy="302.86" r="4" fill="#0" id="circle23"/>
	<circle cx="83.216" cy="202.04" r="4" fill="#0" id="circle24"/>
	<circle cx="90.4174" cy="535.107" r="4" fill="#0" id="circle25"/>
	<circle cx="94.0181" cy="351.47" r="4" fill="#0" id="circle26"/>
	<circle cx="97.6189" cy="302.86" r="4" fill="#0" id="circle27"/>
	<circle cx="101.22" cy="202.04" r="4" fill="#0" id="circle28"/>
	<circle cx="108.421" cy="535.107" r="4" fill="#0" id="circle29"/>
	<circle cx="112.022" cy="346.069" r="4" fill="#0" id="circle30"/>
	<circle cx="113.822" cy="187.637" r="4" fill="#0" id="circle31"/>
	<circle cx="115.623" cy="302.86" r="4" fill="#0" id="circle32"/>
	<circle cx="126.425" cy="527.906" r="4" fill="#0" id="circle33"/>
	<circle cx="128.225" cy="175.034" r="4" fill="#0" id="circle34"/>
	<circle cx="130.025" cy="346.069" r="4" fill="#0" id="circle35"/>
	<circle cx="133.626" cy="302.86" r="4" fill="#0" id="circle36"/>
	<circle cx="144.428" cy="166.033" r="4" fill="#0" id="circle37"/>
	<circle cx="144.428" cy="526.105" r="4" fill="#0" id="circle38"/>
	<circle cx="148.029" cy="346.069" r="4" fill="#0" id="circle39"/>
	<circle cx="151.63" cy="308.261" r="4" fill="#0" id="circle40"/>
	<circle cx="157.031" cy="326.265" r="4" fill="#0" id="circle41"/>
	<circle cx="162.432" cy="157.031" r="4" fill="#0" id="circle42"/>
	<circle cx="162.432" cy="518.904" r="4" fill="#0" id="circle43"/>
	<circle cx="180.436" cy="157.031" r="4" fill="#0" id="circle44"/>
	<circle cx="180.436" cy="518.904" r="4" fill="#0" id="circle45"/>
	<circle cx="196.639" cy="148.029" r="4" fill="#0" id="circle46"/>
	<circle cx="198.439" cy="518.904" r="4" fill="#0" id="circle47"/>
	<circle cx="214.642" cy="148.029" r="4" fill="#0" id="circle48"/>
	<circle cx="216.443" cy="518.904" r="4" fill="#0" id="circle49"/>
	<circle cx="232.646" cy="148.029" r="4" fill="#0" id="circle50"/>
	<circle cx="234.446" cy="518.904" r="4" fill="#0" id="circle51"/>
	<circle cx="250.65" cy="140.828" r="4" fill="#0" id="circle52"/>
	<circle cx="252.45" cy="517.103" r="4" fill="#0" id="circle53"/>
	<circle cx="268.653" cy="139.027" r="4" fill="#0" id="circle54"/>
	<circle cx="270.454" cy="508.102" r="4" fill="#0" id="circle55"/>
	<circle cx="286.657" cy="139.027" r="4" fill="#0" id="circle56"/>
	<circle cx="288.457" cy="500.9" r="4" fill="#0" id="circle57"/>
	<circle cx="304.661" cy="139.027" r="4" fill="#0" id="circle58"/>
	<circle cx="306.461" cy="500.9" r="4" fill="#0" id="circle59"/>
	<circle cx="322.664" cy="139.027" r="4" fill="#0" id="circle60"/>
	<circle cx="324.465" cy="500.9" r="4" fill="#0" id="circle61"/>
	<circle cx="340.668" cy="139.027" r="4" fill="#0" id="circle62"/>
	<circle cx="342.468" cy="500.9" r="4" fill="#0" id="circle63"/>
	<circle cx="358.672" cy="139.027" r="4" fill="#0" id="circle64"/>
	<circle cx="360.472" cy="500.9" r="4" fill="#0" id="circle65"/>
	<circle cx="376.675" cy="139.027" r="4" fill="#0" id="circle66"/>
	<circle cx="378.475" cy="500.9" r="4" fill="#0" id="circle67"/>
	<circle cx="394.679" cy="139.027" r="4" fill="#0" id="circle68"/>
	<circle cx="396.479" cy="500.9" r="4" fill="#0" id="circle69"/>
	<circle cx="412.682" cy="139.027" r="4" fill="#0" id="circle70"/>
	<circle cx="414.483" cy="500.9" r="4" fill="#0" id="circle71"/>
	<circle cx="430.686" cy="139.027" r="4" fill="#0" id="circle72"/>
	<circle cx="432.486" cy="500.9" r="4" fill="#0" id="circle73"/>
	<circle cx="445.089" cy="108.421" r="4" fill="#0" id="circle74"/>
	<circle cx="445.089" cy="126.425" r="4" fill="#0" id="circle75"/>
	<circle cx="450.49" cy="500.9" r="4" fill="#0" id="circle76"/>
	<circle cx="454.091" cy="54.4102" r="4" fill="#0" id="circle77"/>
	<circle cx="454.091" cy="72.4138" r="4" fill="#0" id="circle78"/>
	<circle cx="454.091" cy="90.4174" r="4" fill="#0" id="circle79"/>
	<circle cx="463.093" cy="36.4065" r="4" fill="#0" id="circle80"/>
	<circle cx="468.494" cy="508.102" r="4" fill="#0" id="circle81"/>
	<circle cx="477.495" cy="22.0036" r="4" fill="#0" id="circle82"/>
	<circle cx="484.697" cy="517.103" r="4" fill="#0" id="circle83"/>
	<circle cx="493.699" cy="13.0018" r="4" fill="#0" id="circle84"/>
	<circle cx="502.701" cy="524.305" r="4" fill="#0" id="circle85"/>
	<circle cx="511.702" cy="13.0018" r="4" fill="#0" id="circle86"/>
	<circle cx="520.704" cy="527.906" r="4" fill="#0" id="circle87"/>
	<circle cx="529.706" cy="13.0018" r="4" fill="#0" id="circle88"/>
	<circle cx="538.708" cy="527.906" r="4" fill="#0" id="circle89"/>
	<circle cx="547.71" cy="13.0018" r="4" fill="#0" id="circle90"/>
	<circle cx="556.711" cy="527.906" r="4" fill="#0" id="circle91"/>
	<circle cx="565.713" cy="13.0018" r="4" fill="#0" id="circle92"/>
	<circle cx="574.715" cy="527.906" r="4" fill="#0" id="circle93"/>
	<circle cx="581.917" cy="4" r="4" fill="#0" id="circle94"/>
	<circle cx="592.719" cy="527.906" r="4" fill="#0" id="circle95"/>
	<circle cx="599.92" cy="4" r="4" fill="#0" id="circle96"/>
	<circle cx="608.922" cy="518.904" r="4" fill="#0" id="circle97"/>
	<circle cx="617.924" cy="4" r="4" fill="#0" id="circle98"/>
	<circle cx="625.125" cy="509.902" r="4" fill="#0" id="circle99"/>
	<circle cx="635.927" cy="4" r="4" fill="#0" id="circle100"/>
	<circle cx="641.328" cy="500.9" r="4" fill="#0" id="circle101"/>
	<circle cx="653.931" cy="4" r="4" fill="#0" id="circle102"/>
	<circle cx="659.332" cy="497.299" r="4" fill="#0" id="circle103"/>
	<circle cx="671.935" cy="4" r="4" fill="#0" id="circle104"/>
	<circle cx="677.336" cy="488.298" r="4" fill="#0" id="circle105"/>
	<circle cx="689.938" cy="4" r="4" fill="#0" id="circle106"/>
	<circle cx="695.339" cy="479.296" r="4" fill="#0" id="circle107"/>
	<circle cx="707.942" cy="4" r="4" fill="#0" id="circle108"/>
	<circle cx="707.942" cy="455.891" r="4" fill="#0" id="circle109"/>
	<circle cx="725.946" cy="9.40109" r="4" fill="#0" id="circle110"/>
	<circle cx="725.946" cy="455.891" r="4" fill="#0" id="circle111"/>
	<circle cx="738.548" cy="23.804" r="4" fill="#0" id="circle112"/>
	<circle cx="743.949" cy="41.8076" r="4" fill="#0" id="circle113"/>
	<circle cx="743.949" cy="59.8113" r="4" fill="#0" id="circle114"/>
	<circle cx="743.949" cy="77.8149" r="4" fill="#0" id="circle115"/>
	<circle cx="743.949" cy="455.891" r="4" fill="#0" id="circle116"/>
	<circle cx="752.951" cy="94.0181" r="4" fill="#0" id="circle117"/>
	<circle cx="752.951" cy="112.022" r="4" fill="#0" id="circle118"/>
	<circle cx="761.953" cy="128.225" r="4" fill="#0" id="circle119"/>
	<circle cx="761.953" cy="455.891" r="4" fill="#0" id="circle120"/>
	<circle cx="770.955" cy="144.428" r="4" fill="#0" id="circle121"/>
	<circle cx="770.955" cy="162.432" r="4" fill="#0" id="circle122"/>
	<circle cx="778.156" cy="180.436" r="4" fill="#0" id="circle123"/>
	<circle cx="779.956" cy="455.891" r="4" fill="#0" id="circle124"/>
	<circle cx="787.158" cy="196.639" r="4" fill="#0" id="circle125"/>
	<circle cx="787.158" cy="473.895" r="4" fill="#0" id="circle126"/>
	<circle cx="797.96" cy="211.042" r="4" fill="#0" id="circle127"/>
	<circle cx="797.96" cy="488.298" r="4" fill="#0" id="circle128"/>
	<circle cx="806.962" cy="227.245" r="4" fill="#0" id="circle129"/>
	<circle cx="812.363" cy="500.9" r="4" fill="#0" id="circle130"/>
	<circle cx="821.365" cy="238.047" r="4" fill="#0" id="circle131"/>
	<circle cx="830.367" cy="500.9" r="4" fill="#0" id="circle132"/>
	<circle cx="839.368" cy="238.047" r="4" fill="#0" id="circle133"/>
	<circle cx="848.37" cy="500.9" r="4" fill="#0" id="circle134"/>
	<circle cx="857.372" cy="238.047" r="4" fill="#0" id="circle135"/>
	<circle cx="866.374" cy="500.9" r="4" fill="#0" id="circle136"/>
	<circle cx="873.575" cy="247.049" r="4" fill="#0" id="circle137"/>
	<circle cx="884.377" cy="500.9" r="4" fill="#0" id="circle138"/>
	<circle cx="886.178" cy="261.452" r="4" fill="#0" id="circle139"/>
	<circle cx="887.978" cy="279.456" r="4" fill="#0" id="circle140"/>
	<circle cx="900.581" cy="491.898" r="4" fill="#0" id="circle141"/>
	<circle cx="904.181" cy="288.457" r="4" fill="#0" id="circle142"/>
	<circle cx="914.984" cy="302.86" r="4" fill="#0" id="circle143"/>
	<circle cx="914.984" cy="473.895" r="4" fill="#0" id="circle144"/>
	<circle cx="923.985" cy="319.064" r="4" fill="#0" id="circle145"/>
	<circle cx="923.985" cy="437.887" r="4" fill="#0" id="circle146"/>
	<circle cx="923.985" cy="455.891" r="4" fill="#0" id="circle147"/>
	<circle cx="941.989" cy="319.064" r="4" fill="#0" id="circle148"/>
	<circle cx="941.989" cy="437.887" r="4" fill="#0" id="circle149"/>
	<circle cx="959.993" cy="319.064" r="4" fill="#0" id="circle150"/>
	<circle cx="959.993" cy="437.887" r="4" fill="#0" id="circle151"/>
	<circle cx="976.196" cy="328.065" r="4" fill="#0" id="circle152"/>
	<circle cx="977.996" cy="428.886" r="4" fill="#0" id="circle153"/>
	<circle cx="986.998" cy="342.468" r="4" fill="#0" id="circle154"/>
	<circle cx="992.399" cy="416.283" r="4" fill="#0" id="circle155"/>
	<circle cx="996" cy="358.672" r="4" fill="#0" id="circle156"/>
	<circle cx="996" cy="376.675" r="4" fill="#0" id="circle157"/>
	<circle cx="996" cy="394.679" r="4" fill="#0" id="circle158"/>
	</g>
</svg>