<?xml version="1.0" encoding="UTF-8" standalone="no"?>
<!-- Created with CurveBenchmark -->
<svg
	xmlns:dc="http://purl.org/dc/elements/1.1/"
	xmlns:cc="http://creativecommons.org/ns#"
	xmlns:rdf="http://www.w3.org/1999/02/22-rdf-syntax-ns#"
	xmlns:svg="http://www.w3.org/2000/svg"
	xmlns="http://www.w3.org/2000/svg"
	xmlns:sodipodi="http://sodipodi.sourceforge.net/DTD/sodipodi-0.dtd"
	xmlns:inkscape="http://www.inkscape.org/namespaces/inkscape"
	width="1000"
	height="1000"
	id="svg2"
	version="1.1"
	sodipodi:docname="manifold/vicur-mgen1dp.png.txt">
<defs
	id="defs4" />
<metadata
	id="metadata7">
	<rdf:RDF>
		<cc:Work
			rdf:about="">
			<dc:format>image/svg+xml</dc:format>
			<dc:type
				rdf:resource="http://purl.org/dc/dcmitype/StillImage" />
			<dc:title></dc:title>
		</cc:Work>
	</rdf:RDF>
</metadata>
<g
	inkscape:label="Layer 1"
	inkscape:groupmode="layer"
	id="layer1">
	<path style="fill:none;stroke:red;stroke-width:1px;stroke-linecap:butt;stroke-linejoin:miter;stroke-opacity:1" d="M 4,28.7524 4,47.7927 z" id="boundary" inkscape:connector-curvature="0" />
	<path style="fill:none;stroke:red;stroke-width:1px;stroke-linecap:butt;stroke-linejoin:miter;stroke-opacity:1" d="M 4,28.7524 23.0403,19.2322 z" id="boundary" inkscape:connector-curvature="0" />
	<path style="fill:none;stroke:red;stroke-width:1px;stroke-linecap:butt;stroke-linejoin:miter;stroke-opacity:1" d="M 4,47.7927 4,76.3532 z" id="boundary" inkscape:connector-curvature="0" />
	<path style="fill:none;stroke:red;stroke-width:1px;stroke-linecap:butt;stroke-linejoin:miter;stroke-opacity:1" d="M 4,76.3532 23.0403,82.0653 z" id="boundary" inkscape:connector-curvature="0" />
	<path style="fill:none;stroke:red;stroke-width:1px;stroke-linecap:butt;stroke-linejoin:miter;stroke-opacity:1" d="M 23.0403,19.2322 38.2726,4 z" id="boundary" inkscape:connector-curvature="0" />
	<path style="fill:none;stroke:red;stroke-width:1px;stroke-linecap:butt;stroke-linejoin:miter;stroke-opacity:1" d="M 23.0403,82.0653 34.4645,97.2975 z" id="boundary" inkscape:connector-curvature="0" />
	<path style="fill:none;stroke:red;stroke-width:1px;stroke-linecap:butt;stroke-linejoin:miter;stroke-opacity:1" d="M 34.4645,97.2975 49.6967,110.626 z" id="boundary" inkscape:connector-curvature="0" />
	<path style="fill:none;stroke:red;stroke-width:1px;stroke-linecap:butt;stroke-linejoin:miter;stroke-opacity:1" d="M 38.2726,4 57.3129,4 z" id="boundary" inkscape:connector-curvature="0" />
	<path style="fill:none;stroke:red;stroke-width:1px;stroke-linecap:butt;stroke-linejoin:miter;stroke-opacity:1" d="M 49.6967,110.626 63.025,125.858 z" id="boundary" inkscape:connector-curvature="0" />
	<path style="fill:none;stroke:red;stroke-width:1px;stroke-linecap:butt;stroke-linejoin:miter;stroke-opacity:1" d="M 57.3129,4 74.4491,13.5202 z" id="boundary" inkscape:connector-curvature="0" />
	<path style="fill:none;stroke:red;stroke-width:1px;stroke-linecap:butt;stroke-linejoin:miter;stroke-opacity:1" d="M 63.025,125.858 78.2572,139.186 z" id="boundary" inkscape:connector-curvature="0" />
	<path style="fill:none;stroke:red;stroke-width:1px;stroke-linecap:butt;stroke-linejoin:miter;stroke-opacity:1" d="M 74.4491,13.5202 91.5854,23.0403 z" id="boundary" inkscape:connector-curvature="0" />
	<path style="fill:none;stroke:red;stroke-width:1px;stroke-linecap:butt;stroke-linejoin:miter;stroke-opacity:1" d="M 78.2572,139.186 95.3935,148.706 z" id="boundary" inkscape:connector-curvature="0" />
	<path style="fill:none;stroke:red;stroke-width:1px;stroke-linecap:butt;stroke-linejoin:miter;stroke-opacity:1" d="M 89.6814,799.885 89.6814,818.925 z" id="boundary" inkscape:connector-curvature="0" />
	<path style="fill:none;stroke:red;stroke-width:1px;stroke-linecap:butt;stroke-linejoin:miter;stroke-opacity:1" d="M 89.6814,799.885 104.914,784.653 z" id="boundary" inkscape:connector-curvature="0" />
	<path style="fill:none;stroke:red;stroke-width:1px;stroke-linecap:butt;stroke-linejoin:miter;stroke-opacity:1" d="M 89.6814,818.925 108.722,815.117 z" id="boundary" inkscape:connector-curvature="0" />
	<path style="fill:none;stroke:red;stroke-width:1px;stroke-linecap:butt;stroke-linejoin:miter;stroke-opacity:1" d="M 91.5854,23.0403 110.626,28.7524 z" id="boundary" inkscape:connector-curvature="0" />
	<path style="fill:none;stroke:red;stroke-width:1px;stroke-linecap:butt;stroke-linejoin:miter;stroke-opacity:1" d="M 95.3935,148.706 112.53,158.226 z" id="boundary" inkscape:connector-curvature="0" />
	<path style="fill:none;stroke:red;stroke-width:1px;stroke-linecap:butt;stroke-linejoin:miter;stroke-opacity:1" d="M 104.914,784.653 120.146,769.42 z" id="boundary" inkscape:connector-curvature="0" />
	<path style="fill:none;stroke:red;stroke-width:1px;stroke-linecap:butt;stroke-linejoin:miter;stroke-opacity:1" d="M 108.722,815.117 125.858,824.637 z" id="boundary" inkscape:connector-curvature="0" />
	<path style="fill:none;stroke:red;stroke-width:1px;stroke-linecap:butt;stroke-linejoin:miter;stroke-opacity:1" d="M 110.626,28.7524 123.954,43.9846 z" id="boundary" inkscape:connector-curvature="0" />
	<path style="fill:none;stroke:red;stroke-width:1px;stroke-linecap:butt;stroke-linejoin:miter;stroke-opacity:1" d="M 112.53,158.226 127.762,169.651 z" id="boundary" inkscape:connector-curvature="0" />
	<path style="fill:none;stroke:red;stroke-width:1px;stroke-linecap:butt;stroke-linejoin:miter;stroke-opacity:1" d="M 120.146,769.42 135.378,756.092 z" id="boundary" inkscape:connector-curvature="0" />
	<path style="fill:none;stroke:red;stroke-width:1px;stroke-linecap:butt;stroke-linejoin:miter;stroke-opacity:1" d="M 123.954,43.9846 139.186,57.3129 z" id="boundary" inkscape:connector-curvature="0" />
	<path style="fill:none;stroke:red;stroke-width:1px;stroke-linecap:butt;stroke-linejoin:miter;stroke-opacity:1" d="M 125.858,824.637 142.994,834.157 z" id="boundary" inkscape:connector-curvature="0" />
	<path style="fill:none;stroke:red;stroke-width:1px;stroke-linecap:butt;stroke-linejoin:miter;stroke-opacity:1" d="M 127.762,169.651 141.09,184.883 z" id="boundary" inkscape:connector-curvature="0" />
	<path style="fill:none;stroke:red;stroke-width:1px;stroke-linecap:butt;stroke-linejoin:miter;stroke-opacity:1" d="M 135.378,756.092 148.706,740.86 z" id="boundary" inkscape:connector-curvature="0" />
	<path style="fill:none;stroke:red;stroke-width:1px;stroke-linecap:butt;stroke-linejoin:miter;stroke-opacity:1" d="M 139.186,57.3129 152.514,72.5451 z" id="boundary" inkscape:connector-curvature="0" />
	<path style="fill:none;stroke:red;stroke-width:1px;stroke-linecap:butt;stroke-linejoin:miter;stroke-opacity:1" d="M 141.09,184.883 156.322,196.307 z" id="boundary" inkscape:connector-curvature="0" />
	<path style="fill:none;stroke:red;stroke-width:1px;stroke-linecap:butt;stroke-linejoin:miter;stroke-opacity:1" d="M 142.994,834.157 162.035,834.157 z" id="boundary" inkscape:connector-curvature="0" />
	<path style="fill:none;stroke:red;stroke-width:1px;stroke-linecap:butt;stroke-linejoin:miter;stroke-opacity:1" d="M 148.706,740.86 163.939,727.532 z" id="boundary" inkscape:connector-curvature="0" />
	<path style="fill:none;stroke:red;stroke-width:1px;stroke-linecap:butt;stroke-linejoin:miter;stroke-opacity:1" d="M 152.514,72.5451 167.747,85.8733 z" id="boundary" inkscape:connector-curvature="0" />
	<path style="fill:none;stroke:red;stroke-width:1px;stroke-linecap:butt;stroke-linejoin:miter;stroke-opacity:1" d="M 156.322,196.307 167.747,211.539 z" id="boundary" inkscape:connector-curvature="0" />
	<path style="fill:none;stroke:red;stroke-width:1px;stroke-linecap:butt;stroke-linejoin:miter;stroke-opacity:1" d="M 156.322,276.276 165.843,257.236 z" id="boundary" inkscape:connector-curvature="0" />
	<path style="fill:none;stroke:red;stroke-width:1px;stroke-linecap:butt;stroke-linejoin:miter;stroke-opacity:1" d="M 156.322,276.276 165.843,293.413 z" id="boundary" inkscape:connector-curvature="0" />
	<path style="fill:none;stroke:red;stroke-width:1px;stroke-linecap:butt;stroke-linejoin:miter;stroke-opacity:1" d="M 156.322,314.357 156.322,342.917 z" id="boundary" inkscape:connector-curvature="0" />
	<path style="fill:none;stroke:red;stroke-width:1px;stroke-linecap:butt;stroke-linejoin:miter;stroke-opacity:1" d="M 156.322,314.357 165.843,293.413 z" id="boundary" inkscape:connector-curvature="0" />
	<path style="fill:none;stroke:red;stroke-width:1px;stroke-linecap:butt;stroke-linejoin:miter;stroke-opacity:1" d="M 156.322,342.917 175.363,348.63 z" id="boundary" inkscape:connector-curvature="0" />
	<path style="fill:none;stroke:red;stroke-width:1px;stroke-linecap:butt;stroke-linejoin:miter;stroke-opacity:1" d="M 156.322,590.441 156.322,609.482 z" id="boundary" inkscape:connector-curvature="0" />
	<path style="fill:none;stroke:red;stroke-width:1px;stroke-linecap:butt;stroke-linejoin:miter;stroke-opacity:1" d="M 156.322,590.441 165.843,571.401 z" id="boundary" inkscape:connector-curvature="0" />
	<path style="fill:none;stroke:red;stroke-width:1px;stroke-linecap:butt;stroke-linejoin:miter;stroke-opacity:1" d="M 156.322,609.482 156.322,628.522 z" id="boundary" inkscape:connector-curvature="0" />
	<path style="fill:none;stroke:red;stroke-width:1px;stroke-linecap:butt;stroke-linejoin:miter;stroke-opacity:1" d="M 156.322,628.522 165.843,645.658 z" id="boundary" inkscape:connector-curvature="0" />
	<path style="fill:none;stroke:red;stroke-width:1px;stroke-linecap:butt;stroke-linejoin:miter;stroke-opacity:1" d="M 156.322,666.603 165.843,645.658 z" id="boundary" inkscape:connector-curvature="0" />
	<path style="fill:none;stroke:red;stroke-width:1px;stroke-linecap:butt;stroke-linejoin:miter;stroke-opacity:1" d="M 156.322,666.603 165.843,683.739 z" id="boundary" inkscape:connector-curvature="0" />
	<path style="fill:none;stroke:red;stroke-width:1px;stroke-linecap:butt;stroke-linejoin:miter;stroke-opacity:1" d="M 162.035,834.157 181.075,834.157 z" id="boundary" inkscape:connector-curvature="0" />
	<path style="fill:none;stroke:red;stroke-width:1px;stroke-linecap:butt;stroke-linejoin:miter;stroke-opacity:1" d="M 163.939,727.532 165.843,702.779 z" id="boundary" inkscape:connector-curvature="0" />
	<path style="fill:none;stroke:red;stroke-width:1px;stroke-linecap:butt;stroke-linejoin:miter;stroke-opacity:1" d="M 165.843,238.196 165.843,257.236 z" id="boundary" inkscape:connector-curvature="0" />
	<path style="fill:none;stroke:red;stroke-width:1px;stroke-linecap:butt;stroke-linejoin:miter;stroke-opacity:1" d="M 165.843,238.196 167.747,211.539 z" id="boundary" inkscape:connector-curvature="0" />
	<path style="fill:none;stroke:red;stroke-width:1px;stroke-linecap:butt;stroke-linejoin:miter;stroke-opacity:1" d="M 165.843,552.361 165.843,571.401 z" id="boundary" inkscape:connector-curvature="0" />
	<path style="fill:none;stroke:red;stroke-width:1px;stroke-linecap:butt;stroke-linejoin:miter;stroke-opacity:1" d="M 165.843,552.361 175.363,533.321 z" id="boundary" inkscape:connector-curvature="0" />
	<path style="fill:none;stroke:red;stroke-width:1px;stroke-linecap:butt;stroke-linejoin:miter;stroke-opacity:1" d="M 165.843,683.739 165.843,702.779 z" id="boundary" inkscape:connector-curvature="0" />
	<path style="fill:none;stroke:red;stroke-width:1px;stroke-linecap:butt;stroke-linejoin:miter;stroke-opacity:1" d="M 167.747,85.8733 181.075,101.106 z" id="boundary" inkscape:connector-curvature="0" />
	<path style="fill:none;stroke:red;stroke-width:1px;stroke-linecap:butt;stroke-linejoin:miter;stroke-opacity:1" d="M 175.363,348.63 181.075,367.67 z" id="boundary" inkscape:connector-curvature="0" />
	<path style="fill:none;stroke:red;stroke-width:1px;stroke-linecap:butt;stroke-linejoin:miter;stroke-opacity:1" d="M 175.363,533.321 184.883,514.28 z" id="boundary" inkscape:connector-curvature="0" />
	<path style="fill:none;stroke:red;stroke-width:1px;stroke-linecap:butt;stroke-linejoin:miter;stroke-opacity:1" d="M 181.075,101.106 190.595,118.242 z" id="boundary" inkscape:connector-curvature="0" />
	<path style="fill:none;stroke:red;stroke-width:1px;stroke-linecap:butt;stroke-linejoin:miter;stroke-opacity:1" d="M 181.075,367.67 196.307,380.998 z" id="boundary" inkscape:connector-curvature="0" />
	<path style="fill:none;stroke:red;stroke-width:1px;stroke-linecap:butt;stroke-linejoin:miter;stroke-opacity:1" d="M 181.075,834.157 200.115,834.157 z" id="boundary" inkscape:connector-curvature="0" />
	<path style="fill:none;stroke:red;stroke-width:1px;stroke-linecap:butt;stroke-linejoin:miter;stroke-opacity:1" d="M 184.883,514.28 194.403,495.24 z" id="boundary" inkscape:connector-curvature="0" />
	<path style="fill:none;stroke:red;stroke-width:1px;stroke-linecap:butt;stroke-linejoin:miter;stroke-opacity:1" d="M 190.595,118.242 203.923,133.474 z" id="boundary" inkscape:connector-curvature="0" />
	<path style="fill:none;stroke:red;stroke-width:1px;stroke-linecap:butt;stroke-linejoin:miter;stroke-opacity:1" d="M 194.403,476.2 194.403,495.24 z" id="boundary" inkscape:connector-curvature="0" />
	<path style="fill:none;stroke:red;stroke-width:1px;stroke-linecap:butt;stroke-linejoin:miter;stroke-opacity:1" d="M 194.403,476.2 213.443,457.159 z" id="boundary" inkscape:connector-curvature="0" />
	<path style="fill:none;stroke:red;stroke-width:1px;stroke-linecap:butt;stroke-linejoin:miter;stroke-opacity:1" d="M 196.307,380.998 209.635,396.23 z" id="boundary" inkscape:connector-curvature="0" />
	<path style="fill:none;stroke:red;stroke-width:1px;stroke-linecap:butt;stroke-linejoin:miter;stroke-opacity:1" d="M 200.115,834.157 219.155,834.157 z" id="boundary" inkscape:connector-curvature="0" />
	<path style="fill:none;stroke:red;stroke-width:1px;stroke-linecap:butt;stroke-linejoin:miter;stroke-opacity:1" d="M 203.923,133.474 222.964,141.09 z" id="boundary" inkscape:connector-curvature="0" />
	<path style="fill:none;stroke:red;stroke-width:1px;stroke-linecap:butt;stroke-linejoin:miter;stroke-opacity:1" d="M 209.635,396.23 224.868,409.559 z" id="boundary" inkscape:connector-curvature="0" />
	<path style="fill:none;stroke:red;stroke-width:1px;stroke-linecap:butt;stroke-linejoin:miter;stroke-opacity:1" d="M 213.443,457.159 222.964,438.119 z" id="boundary" inkscape:connector-curvature="0" />
	<path style="fill:none;stroke:red;stroke-width:1px;stroke-linecap:butt;stroke-linejoin:miter;stroke-opacity:1" d="M 219.155,834.157 234.388,847.486 z" id="boundary" inkscape:connector-curvature="0" />
	<path style="fill:none;stroke:red;stroke-width:1px;stroke-linecap:butt;stroke-linejoin:miter;stroke-opacity:1" d="M 222.964,141.09 234.388,156.322 z" id="boundary" inkscape:connector-curvature="0" />
	<path style="fill:none;stroke:red;stroke-width:1px;stroke-linecap:butt;stroke-linejoin:miter;stroke-opacity:1" d="M 222.964,438.119 224.868,409.559 z" id="boundary" inkscape:connector-curvature="0" />
	<path style="fill:none;stroke:red;stroke-width:1px;stroke-linecap:butt;stroke-linejoin:miter;stroke-opacity:1" d="M 234.388,156.322 253.428,156.322 z" id="boundary" inkscape:connector-curvature="0" />
	<path style="fill:none;stroke:red;stroke-width:1px;stroke-linecap:butt;stroke-linejoin:miter;stroke-opacity:1" d="M 234.388,847.486 242.004,866.526 z" id="boundary" inkscape:connector-curvature="0" />
	<path style="fill:none;stroke:red;stroke-width:1px;stroke-linecap:butt;stroke-linejoin:miter;stroke-opacity:1" d="M 242.004,866.526 251.524,883.662 z" id="boundary" inkscape:connector-curvature="0" />
	<path style="fill:none;stroke:red;stroke-width:1px;stroke-linecap:butt;stroke-linejoin:miter;stroke-opacity:1" d="M 251.524,883.662 264.852,898.894 z" id="boundary" inkscape:connector-curvature="0" />
	<path style="fill:none;stroke:red;stroke-width:1px;stroke-linecap:butt;stroke-linejoin:miter;stroke-opacity:1" d="M 253.428,156.322 272.468,150.61 z" id="boundary" inkscape:connector-curvature="0" />
	<path style="fill:none;stroke:red;stroke-width:1px;stroke-linecap:butt;stroke-linejoin:miter;stroke-opacity:1" d="M 264.852,898.894 274.372,916.031 z" id="boundary" inkscape:connector-curvature="0" />
	<path style="fill:none;stroke:red;stroke-width:1px;stroke-linecap:butt;stroke-linejoin:miter;stroke-opacity:1" d="M 272.468,150.61 291.509,141.09 z" id="boundary" inkscape:connector-curvature="0" />
	<path style="fill:none;stroke:red;stroke-width:1px;stroke-linecap:butt;stroke-linejoin:miter;stroke-opacity:1" d="M 274.372,916.031 281.988,935.071 z" id="boundary" inkscape:connector-curvature="0" />
	<path style="fill:none;stroke:red;stroke-width:1px;stroke-linecap:butt;stroke-linejoin:miter;stroke-opacity:1" d="M 281.988,935.071 297.221,948.399 z" id="boundary" inkscape:connector-curvature="0" />
	<path style="fill:none;stroke:red;stroke-width:1px;stroke-linecap:butt;stroke-linejoin:miter;stroke-opacity:1" d="M 291.509,141.09 310.549,137.282 z" id="boundary" inkscape:connector-curvature="0" />
	<path style="fill:none;stroke:red;stroke-width:1px;stroke-linecap:butt;stroke-linejoin:miter;stroke-opacity:1" d="M 297.221,948.399 310.549,963.631 z" id="boundary" inkscape:connector-curvature="0" />
	<path style="fill:none;stroke:red;stroke-width:1px;stroke-linecap:butt;stroke-linejoin:miter;stroke-opacity:1" d="M 310.549,137.282 327.685,127.762 z" id="boundary" inkscape:connector-curvature="0" />
	<path style="fill:none;stroke:red;stroke-width:1px;stroke-linecap:butt;stroke-linejoin:miter;stroke-opacity:1" d="M 310.549,963.631 325.781,976.96 z" id="boundary" inkscape:connector-curvature="0" />
	<path style="fill:none;stroke:red;stroke-width:1px;stroke-linecap:butt;stroke-linejoin:miter;stroke-opacity:1" d="M 325.781,976.96 342.917,986.48 z" id="boundary" inkscape:connector-curvature="0" />
	<path style="fill:none;stroke:red;stroke-width:1px;stroke-linecap:butt;stroke-linejoin:miter;stroke-opacity:1" d="M 327.685,127.762 344.821,118.242 z" id="boundary" inkscape:connector-curvature="0" />
	<path style="fill:none;stroke:red;stroke-width:1px;stroke-linecap:butt;stroke-linejoin:miter;stroke-opacity:1" d="M 342.917,986.48 361.958,986.48 z" id="boundary" inkscape:connector-curvature="0" />
	<path style="fill:none;stroke:red;stroke-width:1px;stroke-linecap:butt;stroke-linejoin:miter;stroke-opacity:1" d="M 344.821,118.242 363.862,118.242 z" id="boundary" inkscape:connector-curvature="0" />
	<path style="fill:none;stroke:red;stroke-width:1px;stroke-linecap:butt;stroke-linejoin:miter;stroke-opacity:1" d="M 361.958,986.48 379.094,996 z" id="boundary" inkscape:connector-curvature="0" />
	<path style="fill:none;stroke:red;stroke-width:1px;stroke-linecap:butt;stroke-linejoin:miter;stroke-opacity:1" d="M 363.862,118.242 380.998,108.722 z" id="boundary" inkscape:connector-curvature="0" />
	<path style="fill:none;stroke:red;stroke-width:1px;stroke-linecap:butt;stroke-linejoin:miter;stroke-opacity:1" d="M 379.094,996 398.134,996 z" id="boundary" inkscape:connector-curvature="0" />
	<path style="fill:none;stroke:red;stroke-width:1px;stroke-linecap:butt;stroke-linejoin:miter;stroke-opacity:1" d="M 380.998,108.722 400.038,108.722 z" id="boundary" inkscape:connector-curvature="0" />
	<path style="fill:none;stroke:red;stroke-width:1px;stroke-linecap:butt;stroke-linejoin:miter;stroke-opacity:1" d="M 398.134,996 417.175,996 z" id="boundary" inkscape:connector-curvature="0" />
	<path style="fill:none;stroke:red;stroke-width:1px;stroke-linecap:butt;stroke-linejoin:miter;stroke-opacity:1" d="M 400.038,108.722 419.079,99.2015 z" id="boundary" inkscape:connector-curvature="0" />
	<path style="fill:none;stroke:red;stroke-width:1px;stroke-linecap:butt;stroke-linejoin:miter;stroke-opacity:1" d="M 417.175,996 436.215,996 z" id="boundary" inkscape:connector-curvature="0" />
	<path style="fill:none;stroke:red;stroke-width:1px;stroke-linecap:butt;stroke-linejoin:miter;stroke-opacity:1" d="M 419.079,99.2015 436.215,108.722 z" id="boundary" inkscape:connector-curvature="0" />
	<path style="fill:none;stroke:red;stroke-width:1px;stroke-linecap:butt;stroke-linejoin:miter;stroke-opacity:1" d="M 436.215,108.722 455.255,108.722 z" id="boundary" inkscape:connector-curvature="0" />
	<path style="fill:none;stroke:red;stroke-width:1px;stroke-linecap:butt;stroke-linejoin:miter;stroke-opacity:1" d="M 436.215,996 455.255,996 z" id="boundary" inkscape:connector-curvature="0" />
	<path style="fill:none;stroke:red;stroke-width:1px;stroke-linecap:butt;stroke-linejoin:miter;stroke-opacity:1" d="M 455.255,108.722 474.296,101.106 z" id="boundary" inkscape:connector-curvature="0" />
	<path style="fill:none;stroke:red;stroke-width:1px;stroke-linecap:butt;stroke-linejoin:miter;stroke-opacity:1" d="M 455.255,996 472.392,986.48 z" id="boundary" inkscape:connector-curvature="0" />
	<path style="fill:none;stroke:red;stroke-width:1px;stroke-linecap:butt;stroke-linejoin:miter;stroke-opacity:1" d="M 472.392,986.48 491.432,986.48 z" id="boundary" inkscape:connector-curvature="0" />
	<path style="fill:none;stroke:red;stroke-width:1px;stroke-linecap:butt;stroke-linejoin:miter;stroke-opacity:1" d="M 474.296,101.106 493.336,108.722 z" id="boundary" inkscape:connector-curvature="0" />
	<path style="fill:none;stroke:red;stroke-width:1px;stroke-linecap:butt;stroke-linejoin:miter;stroke-opacity:1" d="M 491.432,986.48 508.568,976.96 z" id="boundary" inkscape:connector-curvature="0" />
	<path style="fill:none;stroke:red;stroke-width:1px;stroke-linecap:butt;stroke-linejoin:miter;stroke-opacity:1" d="M 493.336,108.722 512.376,108.722 z" id="boundary" inkscape:connector-curvature="0" />
	<path style="fill:none;stroke:red;stroke-width:1px;stroke-linecap:butt;stroke-linejoin:miter;stroke-opacity:1" d="M 508.568,976.96 525.704,967.44 z" id="boundary" inkscape:connector-curvature="0" />
	<path style="fill:none;stroke:red;stroke-width:1px;stroke-linecap:butt;stroke-linejoin:miter;stroke-opacity:1" d="M 512.376,108.722 531.417,108.722 z" id="boundary" inkscape:connector-curvature="0" />
	<path style="fill:none;stroke:red;stroke-width:1px;stroke-linecap:butt;stroke-linejoin:miter;stroke-opacity:1" d="M 525.704,967.44 542.841,956.015 z" id="boundary" inkscape:connector-curvature="0" />
	<path style="fill:none;stroke:red;stroke-width:1px;stroke-linecap:butt;stroke-linejoin:miter;stroke-opacity:1" d="M 531.417,108.722 548.553,118.242 z" id="boundary" inkscape:connector-curvature="0" />
	<path style="fill:none;stroke:red;stroke-width:1px;stroke-linecap:butt;stroke-linejoin:miter;stroke-opacity:1" d="M 542.841,956.015 561.881,946.495 z" id="boundary" inkscape:connector-curvature="0" />
	<path style="fill:none;stroke:red;stroke-width:1px;stroke-linecap:butt;stroke-linejoin:miter;stroke-opacity:1" d="M 548.553,118.242 567.593,123.954 z" id="boundary" inkscape:connector-curvature="0" />
	<path style="fill:none;stroke:red;stroke-width:1px;stroke-linecap:butt;stroke-linejoin:miter;stroke-opacity:1" d="M 561.881,946.495 577.113,919.839 z" id="boundary" inkscape:connector-curvature="0" />
	<path style="fill:none;stroke:red;stroke-width:1px;stroke-linecap:butt;stroke-linejoin:miter;stroke-opacity:1" d="M 567.593,123.954 586.633,127.762 z" id="boundary" inkscape:connector-curvature="0" />
	<path style="fill:none;stroke:red;stroke-width:1px;stroke-linecap:butt;stroke-linejoin:miter;stroke-opacity:1" d="M 577.113,919.839 586.633,900.798 z" id="boundary" inkscape:connector-curvature="0" />
	<path style="fill:none;stroke:red;stroke-width:1px;stroke-linecap:butt;stroke-linejoin:miter;stroke-opacity:1" d="M 586.633,127.762 603.77,137.282 z" id="boundary" inkscape:connector-curvature="0" />
	<path style="fill:none;stroke:red;stroke-width:1px;stroke-linecap:butt;stroke-linejoin:miter;stroke-opacity:1" d="M 586.633,900.798 596.154,881.758 z" id="boundary" inkscape:connector-curvature="0" />
	<path style="fill:none;stroke:red;stroke-width:1px;stroke-linecap:butt;stroke-linejoin:miter;stroke-opacity:1" d="M 596.154,881.758 611.386,868.43 z" id="boundary" inkscape:connector-curvature="0" />
	<path style="fill:none;stroke:red;stroke-width:1px;stroke-linecap:butt;stroke-linejoin:miter;stroke-opacity:1" d="M 603.77,137.282 622.81,141.09 z" id="boundary" inkscape:connector-curvature="0" />
	<path style="fill:none;stroke:red;stroke-width:1px;stroke-linecap:butt;stroke-linejoin:miter;stroke-opacity:1" d="M 611.386,868.43 615.194,843.678 z" id="boundary" inkscape:connector-curvature="0" />
	<path style="fill:none;stroke:red;stroke-width:1px;stroke-linecap:butt;stroke-linejoin:miter;stroke-opacity:1" d="M 615.194,843.678 630.426,830.349 z" id="boundary" inkscape:connector-curvature="0" />
	<path style="fill:none;stroke:red;stroke-width:1px;stroke-linecap:butt;stroke-linejoin:miter;stroke-opacity:1" d="M 622.81,141.09 639.946,150.61 z" id="boundary" inkscape:connector-curvature="0" />
	<path style="fill:none;stroke:red;stroke-width:1px;stroke-linecap:butt;stroke-linejoin:miter;stroke-opacity:1" d="M 630.426,830.349 634.234,805.597 z" id="boundary" inkscape:connector-curvature="0" />
	<path style="fill:none;stroke:red;stroke-width:1px;stroke-linecap:butt;stroke-linejoin:miter;stroke-opacity:1" d="M 634.234,805.597 643.754,786.557 z" id="boundary" inkscape:connector-curvature="0" />
	<path style="fill:none;stroke:red;stroke-width:1px;stroke-linecap:butt;stroke-linejoin:miter;stroke-opacity:1" d="M 639.946,150.61 653.274,165.843 z" id="boundary" inkscape:connector-curvature="0" />
	<path style="fill:none;stroke:red;stroke-width:1px;stroke-linecap:butt;stroke-linejoin:miter;stroke-opacity:1" d="M 643.754,386.71 653.274,403.846 z" id="boundary" inkscape:connector-curvature="0" />
	<path style="fill:none;stroke:red;stroke-width:1px;stroke-linecap:butt;stroke-linejoin:miter;stroke-opacity:1" d="M 643.754,386.71 658.987,373.382 z" id="boundary" inkscape:connector-curvature="0" />
	<path style="fill:none;stroke:red;stroke-width:1px;stroke-linecap:butt;stroke-linejoin:miter;stroke-opacity:1" d="M 643.754,786.557 653.274,767.516 z" id="boundary" inkscape:connector-curvature="0" />
	<path style="fill:none;stroke:red;stroke-width:1px;stroke-linecap:butt;stroke-linejoin:miter;stroke-opacity:1" d="M 653.274,165.843 668.507,177.267 z" id="boundary" inkscape:connector-curvature="0" />
	<path style="fill:none;stroke:red;stroke-width:1px;stroke-linecap:butt;stroke-linejoin:miter;stroke-opacity:1" d="M 653.274,403.846 662.795,420.983 z" id="boundary" inkscape:connector-curvature="0" />
	<path style="fill:none;stroke:red;stroke-width:1px;stroke-linecap:butt;stroke-linejoin:miter;stroke-opacity:1" d="M 653.274,767.516 668.507,754.188 z" id="boundary" inkscape:connector-curvature="0" />
	<path style="fill:none;stroke:red;stroke-width:1px;stroke-linecap:butt;stroke-linejoin:miter;stroke-opacity:1" d="M 658.987,373.382 672.315,358.15 z" id="boundary" inkscape:connector-curvature="0" />
	<path style="fill:none;stroke:red;stroke-width:1px;stroke-linecap:butt;stroke-linejoin:miter;stroke-opacity:1" d="M 662.795,420.983 672.315,438.119 z" id="boundary" inkscape:connector-curvature="0" />
	<path style="fill:none;stroke:red;stroke-width:1px;stroke-linecap:butt;stroke-linejoin:miter;stroke-opacity:1" d="M 668.507,177.267 681.835,192.499 z" id="boundary" inkscape:connector-curvature="0" />
	<path style="fill:none;stroke:red;stroke-width:1px;stroke-linecap:butt;stroke-linejoin:miter;stroke-opacity:1" d="M 668.507,754.188 672.315,729.436 z" id="boundary" inkscape:connector-curvature="0" />
	<path style="fill:none;stroke:red;stroke-width:1px;stroke-linecap:butt;stroke-linejoin:miter;stroke-opacity:1" d="M 672.315,358.15 691.355,348.63 z" id="boundary" inkscape:connector-curvature="0" />
	<path style="fill:none;stroke:red;stroke-width:1px;stroke-linecap:butt;stroke-linejoin:miter;stroke-opacity:1" d="M 672.315,438.119 681.835,455.255 z" id="boundary" inkscape:connector-curvature="0" />
	<path style="fill:none;stroke:red;stroke-width:1px;stroke-linecap:butt;stroke-linejoin:miter;stroke-opacity:1" d="M 672.315,729.436 681.835,700.875 z" id="boundary" inkscape:connector-curvature="0" />
	<path style="fill:none;stroke:red;stroke-width:1px;stroke-linecap:butt;stroke-linejoin:miter;stroke-opacity:1" d="M 681.835,192.499 697.067,205.827 z" id="boundary" inkscape:connector-curvature="0" />
	<path style="fill:none;stroke:red;stroke-width:1px;stroke-linecap:butt;stroke-linejoin:miter;stroke-opacity:1" d="M 681.835,455.255 691.355,472.392 z" id="boundary" inkscape:connector-curvature="0" />
	<path style="fill:none;stroke:red;stroke-width:1px;stroke-linecap:butt;stroke-linejoin:miter;stroke-opacity:1" d="M 681.835,700.875 691.355,681.835 z" id="boundary" inkscape:connector-curvature="0" />
	<path style="fill:none;stroke:red;stroke-width:1px;stroke-linecap:butt;stroke-linejoin:miter;stroke-opacity:1" d="M 691.355,348.63 708.491,339.109 z" id="boundary" inkscape:connector-curvature="0" />
	<path style="fill:none;stroke:red;stroke-width:1px;stroke-linecap:butt;stroke-linejoin:miter;stroke-opacity:1" d="M 691.355,472.392 700.875,489.528 z" id="boundary" inkscape:connector-curvature="0" />
	<path style="fill:none;stroke:red;stroke-width:1px;stroke-linecap:butt;stroke-linejoin:miter;stroke-opacity:1" d="M 691.355,681.835 700.875,662.795 z" id="boundary" inkscape:connector-curvature="0" />
	<path style="fill:none;stroke:red;stroke-width:1px;stroke-linecap:butt;stroke-linejoin:miter;stroke-opacity:1" d="M 697.067,205.827 700.875,224.868 z" id="boundary" inkscape:connector-curvature="0" />
	<path style="fill:none;stroke:red;stroke-width:1px;stroke-linecap:butt;stroke-linejoin:miter;stroke-opacity:1" d="M 700.875,224.868 710.395,242.004 z" id="boundary" inkscape:connector-curvature="0" />
	<path style="fill:none;stroke:red;stroke-width:1px;stroke-linecap:butt;stroke-linejoin:miter;stroke-opacity:1" d="M 700.875,489.528 700.875,508.568 z" id="boundary" inkscape:connector-curvature="0" />
	<path style="fill:none;stroke:red;stroke-width:1px;stroke-linecap:butt;stroke-linejoin:miter;stroke-opacity:1" d="M 700.875,508.568 710.395,525.704 z" id="boundary" inkscape:connector-curvature="0" />
	<path style="fill:none;stroke:red;stroke-width:1px;stroke-linecap:butt;stroke-linejoin:miter;stroke-opacity:1" d="M 700.875,643.754 700.875,662.795 z" id="boundary" inkscape:connector-curvature="0" />
	<path style="fill:none;stroke:red;stroke-width:1px;stroke-linecap:butt;stroke-linejoin:miter;stroke-opacity:1" d="M 700.875,643.754 710.395,624.714 z" id="boundary" inkscape:connector-curvature="0" />
	<path style="fill:none;stroke:red;stroke-width:1px;stroke-linecap:butt;stroke-linejoin:miter;stroke-opacity:1" d="M 708.491,339.109 723.724,327.685 z" id="boundary" inkscape:connector-curvature="0" />
	<path style="fill:none;stroke:red;stroke-width:1px;stroke-linecap:butt;stroke-linejoin:miter;stroke-opacity:1" d="M 710.395,242.004 729.436,242.004 z" id="boundary" inkscape:connector-curvature="0" />
	<path style="fill:none;stroke:red;stroke-width:1px;stroke-linecap:butt;stroke-linejoin:miter;stroke-opacity:1" d="M 710.395,525.704 710.395,548.553 z" id="boundary" inkscape:connector-curvature="0" />
	<path style="fill:none;stroke:red;stroke-width:1px;stroke-linecap:butt;stroke-linejoin:miter;stroke-opacity:1" d="M 710.395,548.553 710.395,567.593 z" id="boundary" inkscape:connector-curvature="0" />
	<path style="fill:none;stroke:red;stroke-width:1px;stroke-linecap:butt;stroke-linejoin:miter;stroke-opacity:1" d="M 710.395,567.593 710.395,586.633 z" id="boundary" inkscape:connector-curvature="0" />
	<path style="fill:none;stroke:red;stroke-width:1px;stroke-linecap:butt;stroke-linejoin:miter;stroke-opacity:1" d="M 710.395,586.633 710.395,605.674 z" id="boundary" inkscape:connector-curvature="0" />
	<path style="fill:none;stroke:red;stroke-width:1px;stroke-linecap:butt;stroke-linejoin:miter;stroke-opacity:1" d="M 710.395,605.674 710.395,624.714 z" id="boundary" inkscape:connector-curvature="0" />
	<path style="fill:none;stroke:red;stroke-width:1px;stroke-linecap:butt;stroke-linejoin:miter;stroke-opacity:1" d="M 723.724,327.685 742.764,318.165 z" id="boundary" inkscape:connector-curvature="0" />
	<path style="fill:none;stroke:red;stroke-width:1px;stroke-linecap:butt;stroke-linejoin:miter;stroke-opacity:1" d="M 729.436,242.004 748.476,236.292 z" id="boundary" inkscape:connector-curvature="0" />
	<path style="fill:none;stroke:red;stroke-width:1px;stroke-linecap:butt;stroke-linejoin:miter;stroke-opacity:1" d="M 742.764,318.165 761.804,308.645 z" id="boundary" inkscape:connector-curvature="0" />
	<path style="fill:none;stroke:red;stroke-width:1px;stroke-linecap:butt;stroke-linejoin:miter;stroke-opacity:1" d="M 748.476,236.292 767.516,232.484 z" id="boundary" inkscape:connector-curvature="0" />
	<path style="fill:none;stroke:red;stroke-width:1px;stroke-linecap:butt;stroke-linejoin:miter;stroke-opacity:1" d="M 761.804,308.645 780.845,308.645 z" id="boundary" inkscape:connector-curvature="0" />
	<path style="fill:none;stroke:red;stroke-width:1px;stroke-linecap:butt;stroke-linejoin:miter;stroke-opacity:1" d="M 767.516,232.484 784.653,222.964 z" id="boundary" inkscape:connector-curvature="0" />
	<path style="fill:none;stroke:red;stroke-width:1px;stroke-linecap:butt;stroke-linejoin:miter;stroke-opacity:1" d="M 780.845,308.645 799.885,299.125 z" id="boundary" inkscape:connector-curvature="0" />
	<path style="fill:none;stroke:red;stroke-width:1px;stroke-linecap:butt;stroke-linejoin:miter;stroke-opacity:1" d="M 784.653,222.964 803.693,219.155 z" id="boundary" inkscape:connector-curvature="0" />
	<path style="fill:none;stroke:red;stroke-width:1px;stroke-linecap:butt;stroke-linejoin:miter;stroke-opacity:1" d="M 799.885,299.125 818.925,299.125 z" id="boundary" inkscape:connector-curvature="0" />
	<path style="fill:none;stroke:red;stroke-width:1px;stroke-linecap:butt;stroke-linejoin:miter;stroke-opacity:1" d="M 803.693,219.155 822.733,209.635 z" id="boundary" inkscape:connector-curvature="0" />
	<path style="fill:none;stroke:red;stroke-width:1px;stroke-linecap:butt;stroke-linejoin:miter;stroke-opacity:1" d="M 818.925,299.125 837.965,291.509 z" id="boundary" inkscape:connector-curvature="0" />
	<path style="fill:none;stroke:red;stroke-width:1px;stroke-linecap:butt;stroke-linejoin:miter;stroke-opacity:1" d="M 822.733,209.635 841.774,203.923 z" id="boundary" inkscape:connector-curvature="0" />
	<path style="fill:none;stroke:red;stroke-width:1px;stroke-linecap:butt;stroke-linejoin:miter;stroke-opacity:1" d="M 837.965,291.509 857.006,289.605 z" id="boundary" inkscape:connector-curvature="0" />
	<path style="fill:none;stroke:red;stroke-width:1px;stroke-linecap:butt;stroke-linejoin:miter;stroke-opacity:1" d="M 841.774,203.923 858.91,194.403 z" id="boundary" inkscape:connector-curvature="0" />
	<path style="fill:none;stroke:red;stroke-width:1px;stroke-linecap:butt;stroke-linejoin:miter;stroke-opacity:1" d="M 857.006,289.605 876.046,281.988 z" id="boundary" inkscape:connector-curvature="0" />
	<path style="fill:none;stroke:red;stroke-width:1px;stroke-linecap:butt;stroke-linejoin:miter;stroke-opacity:1" d="M 858.91,194.403 876.046,184.883 z" id="boundary" inkscape:connector-curvature="0" />
	<path style="fill:none;stroke:red;stroke-width:1px;stroke-linecap:butt;stroke-linejoin:miter;stroke-opacity:1" d="M 876.046,184.883 895.086,184.883 z" id="boundary" inkscape:connector-curvature="0" />
	<path style="fill:none;stroke:red;stroke-width:1px;stroke-linecap:butt;stroke-linejoin:miter;stroke-opacity:1" d="M 876.046,281.988 893.182,272.468 z" id="boundary" inkscape:connector-curvature="0" />
	<path style="fill:none;stroke:red;stroke-width:1px;stroke-linecap:butt;stroke-linejoin:miter;stroke-opacity:1" d="M 893.182,272.468 912.223,272.468 z" id="boundary" inkscape:connector-curvature="0" />
	<path style="fill:none;stroke:red;stroke-width:1px;stroke-linecap:butt;stroke-linejoin:miter;stroke-opacity:1" d="M 895.086,184.883 912.223,175.363 z" id="boundary" inkscape:connector-curvature="0" />
	<path style="fill:none;stroke:red;stroke-width:1px;stroke-linecap:butt;stroke-linejoin:miter;stroke-opacity:1" d="M 912.223,175.363 931.263,175.363 z" id="boundary" inkscape:connector-curvature="0" />
	<path style="fill:none;stroke:red;stroke-width:1px;stroke-linecap:butt;stroke-linejoin:miter;stroke-opacity:1" d="M 912.223,272.468 927.455,257.236 z" id="boundary" inkscape:connector-curvature="0" />
	<path style="fill:none;stroke:red;stroke-width:1px;stroke-linecap:butt;stroke-linejoin:miter;stroke-opacity:1" d="M 927.455,257.236 942.687,243.908 z" id="boundary" inkscape:connector-curvature="0" />
	<path style="fill:none;stroke:red;stroke-width:1px;stroke-linecap:butt;stroke-linejoin:miter;stroke-opacity:1" d="M 931.263,175.363 948.399,165.843 z" id="boundary" inkscape:connector-curvature="0" />
	<path style="fill:none;stroke:red;stroke-width:1px;stroke-linecap:butt;stroke-linejoin:miter;stroke-opacity:1" d="M 942.687,243.908 959.823,234.388 z" id="boundary" inkscape:connector-curvature="0" />
	<path style="fill:none;stroke:red;stroke-width:1px;stroke-linecap:butt;stroke-linejoin:miter;stroke-opacity:1" d="M 948.399,165.843 967.44,171.555 z" id="boundary" inkscape:connector-curvature="0" />
	<path style="fill:none;stroke:red;stroke-width:1px;stroke-linecap:butt;stroke-linejoin:miter;stroke-opacity:1" d="M 959.823,234.388 967.44,205.827 z" id="boundary" inkscape:connector-curvature="0" />
	<path style="fill:none;stroke:red;stroke-width:1px;stroke-linecap:butt;stroke-linejoin:miter;stroke-opacity:1" d="M 967.44,171.555 976.96,188.691 z" id="boundary" inkscape:connector-curvature="0" />
	<path style="fill:none;stroke:red;stroke-width:1px;stroke-linecap:butt;stroke-linejoin:miter;stroke-opacity:1" d="M 967.44,205.827 976.96,188.691 z" id="boundary" inkscape:connector-curvature="0" />
	<circle cx="4" cy="28.7524" r="4" fill="#0" id="circle0"/>
	<circle cx="4" cy="47.7927" r="4" fill="#0" id="circle1"/>
	<circle cx="4" cy="76.3532" r="4" fill="#0" id="circle2"/>
	<circle cx="23.0403" cy="19.2322" r="4" fill="#0" id="circle3"/>
	<circle cx="23.0403" cy="82.0653" r="4" fill="#0" id="circle4"/>
	<circle cx="34.4645" cy="97.2975" r="4" fill="#0" id="circle5"/>
	<circle cx="38.2726" cy="4" r="4" fill="#0" id="circle6"/>
	<circle cx="49.6967" cy="110.626" r="4" fill="#0" id="circle7"/>
	<circle cx="57.3129" cy="4" r="4" fill="#0" id="circle8"/>
	<circle cx="63.025" cy="125.858" r="4" fill="#0" id="circle9"/>
	<circle cx="74.4491" cy="13.5202" r="4" fill="#0" id="circle10"/>
	<circle cx="78.2572" cy="139.186" r="4" fill="#0" id="circle11"/>
	<circle cx="89.6814" cy="799.885" r="4" fill="#0" id="circle12"/>
	<circle cx="89.6814" cy="818.925" r="4" fill="#0" id="circle13"/>
	<circle cx="91.5854" cy="23.0403" r="4" fill="#0" id="circle14"/>
	<circle cx="95.3935" cy="148.706" r="4" fill="#0" id="circle15"/>
	<circle cx="104.914" cy="784.653" r="4" fill="#0" id="circle16"/>
	<circle cx="108.722" cy="815.117" r="4" fill="#0" id="circle17"/>
	<circle cx="110.626" cy="28.7524" r="4" fill="#0" id="circle18"/>
	<circle cx="112.53" cy="158.226" r="4" fill="#0" id="circle19"/>
	<circle cx="120.146" cy="769.42" r="4" fill="#0" id="circle20"/>
	<circle cx="123.954" cy="43.9846" r="4" fill="#0" id="circle21"/>
	<circle cx="125.858" cy="824.637" r="4" fill="#0" id="circle22"/>
	<circle cx="127.762" cy="169.651" r="4" fill="#0" id="circle23"/>
	<circle cx="135.378" cy="756.092" r="4" fill="#0" id="circle24"/>
	<circle cx="139.186" cy="57.3129" r="4" fill="#0" id="circle25"/>
	<circle cx="141.09" cy="184.883" r="4" fill="#0" id="circle26"/>
	<circle cx="142.994" cy="834.157" r="4" fill="#0" id="circle27"/>
	<circle cx="148.706" cy="740.86" r="4" fill="#0" id="circle28"/>
	<circle cx="152.514" cy="72.5451" r="4" fill="#0" id="circle29"/>
	<circle cx="156.322" cy="196.307" r="4" fill="#0" id="circle30"/>
	<circle cx="156.322" cy="276.276" r="4" fill="#0" id="circle31"/>
	<circle cx="156.322" cy="314.357" r="4" fill="#0" id="circle32"/>
	<circle cx="156.322" cy="342.917" r="4" fill="#0" id="circle33"/>
	<circle cx="156.322" cy="590.441" r="4" fill="#0" id="circle34"/>
	<circle cx="156.322" cy="609.482" r="4" fill="#0" id="circle35"/>
	<circle cx="156.322" cy="628.522" r="4" fill="#0" id="circle36"/>
	<circle cx="156.322" cy="666.603" r="4" fill="#0" id="circle37"/>
	<circle cx="162.035" cy="834.157" r="4" fill="#0" id="circle38"/>
	<circle cx="163.939" cy="727.532" r="4" fill="#0" id="circle39"/>
	<circle cx="165.843" cy="238.196" r="4" fill="#0" id="circle40"/>
	<circle cx="165.843" cy="257.236" r="4" fill="#0" id="circle41"/>
	<circle cx="165.843" cy="293.413" r="4" fill="#0" id="circle42"/>
	<circle cx="165.843" cy="552.361" r="4" fill="#0" id="circle43"/>
	<circle cx="165.843" cy="571.401" r="4" fill="#0" id="circle44"/>
	<circle cx="165.843" cy="645.658" r="4" fill="#0" id="circle45"/>
	<circle cx="165.843" cy="683.739" r="4" fill="#0" id="circle46"/>
	<circle cx="165.843" cy="702.779" r="4" fill="#0" id="circle47"/>
	<circle cx="167.747" cy="85.8733" r="4" fill="#0" id="circle48"/>
	<circle cx="167.747" cy="211.539" r="4" fill="#0" id="circle49"/>
	<circle cx="175.363" cy="348.63" r="4" fill="#0" id="circle50"/>
	<circle cx="175.363" cy="533.321" r="4" fill="#0" id="circle51"/>
	<circle cx="181.075" cy="101.106" r="4" fill="#0" id="circle52"/>
	<circle cx="181.075" cy="367.67" r="4" fill="#0" id="circle53"/>
	<circle cx="181.075" cy="834.157" r="4" fill="#0" id="circle54"/>
	<circle cx="184.883" cy="514.28" r="4" fill="#0" id="circle55"/>
	<circle cx="190.595" cy="118.242" r="4" fill="#0" id="circle56"/>
	<circle cx="194.403" cy="476.2" r="4" fill="#0" id="circle57"/>
	<circle cx="194.403" cy="495.24" r="4" fill="#0" id="circle58"/>
	<circle cx="196.307" cy="380.998" r="4" fill="#0" id="circle59"/>
	<circle cx="200.115" cy="834.157" r="4" fill="#0" id="circle60"/>
	<circle cx="203.923" cy="133.474" r="4" fill="#0" id="circle61"/>
	<circle cx="209.635" cy="396.23" r="4" fill="#0" id="circle62"/>
	<circle cx="213.443" cy="457.159" r="4" fill="#0" id="circle63"/>
	<circle cx="219.155" cy="834.157" r="4" fill="#0" id="circle64"/>
	<circle cx="222.964" cy="141.09" r="4" fill="#0" id="circle65"/>
	<circle cx="222.964" cy="438.119" r="4" fill="#0" id="circle66"/>
	<circle cx="224.868" cy="409.559" r="4" fill="#0" id="circle67"/>
	<circle cx="234.388" cy="156.322" r="4" fill="#0" id="circle68"/>
	<circle cx="234.388" cy="847.486" r="4" fill="#0" id="circle69"/>
	<circle cx="242.004" cy="866.526" r="4" fill="#0" id="circle70"/>
	<circle cx="251.524" cy="883.662" r="4" fill="#0" id="circle71"/>
	<circle cx="253.428" cy="156.322" r="4" fill="#0" id="circle72"/>
	<circle cx="264.852" cy="898.894" r="4" fill="#0" id="circle73"/>
	<circle cx="272.468" cy="150.61" r="4" fill="#0" id="circle74"/>
	<circle cx="274.372" cy="916.031" r="4" fill="#0" id="circle75"/>
	<circle cx="281.988" cy="935.071" r="4" fill="#0" id="circle76"/>
	<circle cx="291.509" cy="141.09" r="4" fill="#0" id="circle77"/>
	<circle cx="297.221" cy="948.399" r="4" fill="#0" id="circle78"/>
	<circle cx="310.549" cy="137.282" r="4" fill="#0" id="circle79"/>
	<circle cx="310.549" cy="963.631" r="4" fill="#0" id="circle80"/>
	<circle cx="325.781" cy="976.96" r="4" fill="#0" id="circle81"/>
	<circle cx="327.685" cy="127.762" r="4" fill="#0" id="circle82"/>
	<circle cx="342.917" cy="986.48" r="4" fill="#0" id="circle83"/>
	<circle cx="344.821" cy="118.242" r="4" fill="#0" id="circle84"/>
	<circle cx="361.958" cy="986.48" r="4" fill="#0" id="circle85"/>
	<circle cx="363.862" cy="118.242" r="4" fill="#0" id="circle86"/>
	<circle cx="379.094" cy="996" r="4" fill="#0" id="circle87"/>
	<circle cx="380.998" cy="108.722" r="4" fill="#0" id="circle88"/>
	<circle cx="398.134" cy="996" r="4" fill="#0" id="circle89"/>
	<circle cx="400.038" cy="108.722" r="4" fill="#0" id="circle90"/>
	<circle cx="417.175" cy="996" r="4" fill="#0" id="circle91"/>
	<circle cx="419.079" cy="99.2015" r="4" fill="#0" id="circle92"/>
	<circle cx="436.215" cy="108.722" r="4" fill="#0" id="circle93"/>
	<circle cx="436.215" cy="996" r="4" fill="#0" id="circle94"/>
	<circle cx="455.255" cy="108.722" r="4" fill="#0" id="circle95"/>
	<circle cx="455.255" cy="996" r="4" fill="#0" id="circle96"/>
	<circle cx="472.392" cy="986.48" r="4" fill="#0" id="circle97"/>
	<circle cx="474.296" cy="101.106" r="4" fill="#0" id="circle98"/>
	<circle cx="491.432" cy="986.48" r="4" fill="#0" id="circle99"/>
	<circle cx="493.336" cy="108.722" r="4" fill="#0" id="circle100"/>
	<circle cx="508.568" cy="976.96" r="4" fill="#0" id="circle101"/>
	<circle cx="512.376" cy="108.722" r="4" fill="#0" id="circle102"/>
	<circle cx="525.704" cy="967.44" r="4" fill="#0" id="circle103"/>
	<circle cx="531.417" cy="108.722" r="4" fill="#0" id="circle104"/>
	<circle cx="542.841" cy="956.015" r="4" fill="#0" id="circle105"/>
	<circle cx="548.553" cy="118.242" r="4" fill="#0" id="circle106"/>
	<circle cx="561.881" cy="946.495" r="4" fill="#0" id="circle107"/>
	<circle cx="567.593" cy="123.954" r="4" fill="#0" id="circle108"/>
	<circle cx="577.113" cy="919.839" r="4" fill="#0" id="circle109"/>
	<circle cx="586.633" cy="127.762" r="4" fill="#0" id="circle110"/>
	<circle cx="586.633" cy="900.798" r="4" fill="#0" id="circle111"/>
	<circle cx="596.154" cy="881.758" r="4" fill="#0" id="circle112"/>
	<circle cx="603.77" cy="137.282" r="4" fill="#0" id="circle113"/>
	<circle cx="611.386" cy="868.43" r="4" fill="#0" id="circle114"/>
	<circle cx="615.194" cy="843.678" r="4" fill="#0" id="circle115"/>
	<circle cx="622.81" cy="141.09" r="4" fill="#0" id="circle116"/>
	<circle cx="630.426" cy="830.349" r="4" fill="#0" id="circle117"/>
	<circle cx="634.234" cy="805.597" r="4" fill="#0" id="circle118"/>
	<circle cx="639.946" cy="150.61" r="4" fill="#0" id="circle119"/>
	<circle cx="643.754" cy="386.71" r="4" fill="#0" id="circle120"/>
	<circle cx="643.754" cy="786.557" r="4" fill="#0" id="circle121"/>
	<circle cx="653.274" cy="165.843" r="4" fill="#0" id="circle122"/>
	<circle cx="653.274" cy="403.846" r="4" fill="#0" id="circle123"/>
	<circle cx="653.274" cy="767.516" r="4" fill="#0" id="circle124"/>
	<circle cx="658.987" cy="373.382" r="4" fill="#0" id="circle125"/>
	<circle cx="662.795" cy="420.983" r="4" fill="#0" id="circle126"/>
	<circle cx="668.507" cy="177.267" r="4" fill="#0" id="circle127"/>
	<circle cx="668.507" cy="754.188" r="4" fill="#0" id="circle128"/>
	<circle cx="672.315" cy="358.15" r="4" fill="#0" id="circle129"/>
	<circle cx="672.315" cy="438.119" r="4" fill="#0" id="circle130"/>
	<circle cx="672.315" cy="729.436" r="4" fill="#0" id="circle131"/>
	<circle cx="681.835" cy="192.499" r="4" fill="#0" id="circle132"/>
	<circle cx="681.835" cy="455.255" r="4" fill="#0" id="circle133"/>
	<circle cx="681.835" cy="700.875" r="4" fill="#0" id="circle134"/>
	<circle cx="691.355" cy="348.63" r="4" fill="#0" id="circle135"/>
	<circle cx="691.355" cy="472.392" r="4" fill="#0" id="circle136"/>
	<circle cx="691.355" cy="681.835" r="4" fill="#0" id="circle137"/>
	<circle cx="697.067" cy="205.827" r="4" fill="#0" id="circle138"/>
	<circle cx="700.875" cy="224.868" r="4" fill="#0" id="circle139"/>
	<circle cx="700.875" cy="489.528" r="4" fill="#0" id="circle140"/>
	<circle cx="700.875" cy="508.568" r="4" fill="#0" id="circle141"/>
	<circle cx="700.875" cy="643.754" r="4" fill="#0" id="circle142"/>
	<circle cx="700.875" cy="662.795" r="4" fill="#0" id="circle143"/>
	<circle cx="708.491" cy="339.109" r="4" fill="#0" id="circle144"/>
	<circle cx="710.395" cy="242.004" r="4" fill="#0" id="circle145"/>
	<circle cx="710.395" cy="525.704" r="4" fill="#0" id="circle146"/>
	<circle cx="710.395" cy="548.553" r="4" fill="#0" id="circle147"/>
	<circle cx="710.395" cy="567.593" r="4" fill="#0" id="circle148"/>
	<circle cx="710.395" cy="586.633" r="4" fill="#0" id="circle149"/>
	<circle cx="710.395" cy="605.674" r="4" fill="#0" id="circle150"/>
	<circle cx="710.395" cy="624.714" r="4" fill="#0" id="circle151"/>
	<circle cx="723.724" cy="327.685" r="4" fill="#0" id="circle152"/>
	<circle cx="729.436" cy="242.004" r="4" fill="#0" id="circle153"/>
	<circle cx="742.764" cy="318.165" r="4" fill="#0" id="circle154"/>
	<circle cx="748.476" cy="236.292" r="4" fill="#0" id="circle155"/>
	<circle cx="761.804" cy="308.645" r="4" fill="#0" id="circle156"/>
	<circle cx="767.516" cy="232.484" r="4" fill="#0" id="circle157"/>
	<circle cx="780.845" cy="308.645" r="4" fill="#0" id="circle158"/>
	<circle cx="784.653" cy="222.964" r="4" fill="#0" id="circle159"/>
	<circle cx="799.885" cy="299.125" r="4" fill="#0" id="circle160"/>
	<circle cx="803.693" cy="219.155" r="4" fill="#0" id="circle161"/>
	<circle cx="818.925" cy="299.125" r="4" fill="#0" id="circle162"/>
	<circle cx="822.733" cy="209.635" r="4" fill="#0" id="circle163"/>
	<circle cx="837.965" cy="291.509" r="4" fill="#0" id="circle164"/>
	<circle cx="841.774" cy="203.923" r="4" fill="#0" id="circle165"/>
	<circle cx="857.006" cy="289.605" r="4" fill="#0" id="circle166"/>
	<circle cx="858.91" cy="194.403" r="4" fill="#0" id="circle167"/>
	<circle cx="876.046" cy="184.883" r="4" fill="#0" id="circle168"/>
	<circle cx="876.046" cy="281.988" r="4" fill="#0" id="circle169"/>
	<circle cx="893.182" cy="272.468" r="4" fill="#0" id="circle170"/>
	<circle cx="895.086" cy="184.883" r="4" fill="#0" id="circle171"/>
	<circle cx="912.223" cy="175.363" r="4" fill="#0" id="circle172"/>
	<circle cx="912.223" cy="272.468" r="4" fill="#0" id="circle173"/>
	<circle cx="927.455" cy="257.236" r="4" fill="#0" id="circle174"/>
	<circle cx="931.263" cy="175.363" r="4" fill="#0" id="circle175"/>
	<circle cx="942.687" cy="243.908" r="4" fill="#0" id="circle176"/>
	<circle cx="948.399" cy="165.843" r="4" fill="#0" id="circle177"/>
	<circle cx="959.823" cy="234.388" r="4" fill="#0" id="circle178"/>
	<circle cx="967.44" cy="171.555" r="4" fill="#0" id="circle179"/>
	<circle cx="967.44" cy="205.827" r="4" fill="#0" id="circle180"/>
	<circle cx="976.96" cy="188.691" r="4" fill="#0" id="circle181"/>
	</g>
</svg>