<?xml version="1.0" encoding="UTF-8" standalone="no"?>
<!-- Created with CurveBenchmark -->
<svg
	xmlns:dc="http://purl.org/dc/elements/1.1/"
	xmlns:cc="http://creativecommons.org/ns#"
	xmlns:rdf="http://www.w3.org/1999/02/22-rdf-syntax-ns#"
	xmlns:svg="http://www.w3.org/2000/svg"
	xmlns="http://www.w3.org/2000/svg"
	xmlns:sodipodi="http://sodipodi.sourceforge.net/DTD/sodipodi-0.dtd"
	xmlns:inkscape="http://www.inkscape.org/namespaces/inkscape"
	width="1000"
	height="1000"
	id="svg2"
	version="1.1"
	sodipodi:docname="manifold/vicur-fish235.png.txt">
<defs
	id="defs4" />
<metadata
	id="metadata7">
	<rdf:RDF>
		<cc:Work
			rdf:about="">
			<dc:format>image/svg+xml</dc:format>
			<dc:type
				rdf:resource="http://purl.org/dc/dcmitype/StillImage" />
			<dc:title></dc:title>
		</cc:Work>
	</rdf:RDF>
</metadata>
<g
	inkscape:label="Layer 1"
	inkscape:groupmode="layer"
	id="layer1">
	<path style="fill:none;stroke:red;stroke-width:1px;stroke-linecap:butt;stroke-linejoin:miter;stroke-opacity:1" d="M 4,218.235 13.3146,264.808 z" id="boundary" inkscape:connector-curvature="0" />
	<path style="fill:none;stroke:red;stroke-width:1px;stroke-linecap:butt;stroke-linejoin:miter;stroke-opacity:1" d="M 4,218.235 50.5728,204.263 z" id="boundary" inkscape:connector-curvature="0" />
	<path style="fill:none;stroke:red;stroke-width:1px;stroke-linecap:butt;stroke-linejoin:miter;stroke-opacity:1" d="M 4,534.93 22.6291,451.099 z" id="boundary" inkscape:connector-curvature="0" />
	<path style="fill:none;stroke:red;stroke-width:1px;stroke-linecap:butt;stroke-linejoin:miter;stroke-opacity:1" d="M 4,534.93 45.9155,558.216 z" id="boundary" inkscape:connector-curvature="0" />
	<path style="fill:none;stroke:red;stroke-width:1px;stroke-linecap:butt;stroke-linejoin:miter;stroke-opacity:1" d="M 13.3146,264.808 22.6291,311.38 z" id="boundary" inkscape:connector-curvature="0" />
	<path style="fill:none;stroke:red;stroke-width:1px;stroke-linecap:butt;stroke-linejoin:miter;stroke-opacity:1" d="M 22.6291,311.38 22.6291,357.953 z" id="boundary" inkscape:connector-curvature="0" />
	<path style="fill:none;stroke:red;stroke-width:1px;stroke-linecap:butt;stroke-linejoin:miter;stroke-opacity:1" d="M 22.6291,357.953 22.6291,404.526 z" id="boundary" inkscape:connector-curvature="0" />
	<path style="fill:none;stroke:red;stroke-width:1px;stroke-linecap:butt;stroke-linejoin:miter;stroke-opacity:1" d="M 22.6291,404.526 22.6291,451.099 z" id="boundary" inkscape:connector-curvature="0" />
	<path style="fill:none;stroke:red;stroke-width:1px;stroke-linecap:butt;stroke-linejoin:miter;stroke-opacity:1" d="M 45.9155,558.216 92.4883,544.244 z" id="boundary" inkscape:connector-curvature="0" />
	<path style="fill:none;stroke:red;stroke-width:1px;stroke-linecap:butt;stroke-linejoin:miter;stroke-opacity:1" d="M 50.5728,204.263 97.1455,222.892 z" id="boundary" inkscape:connector-curvature="0" />
	<path style="fill:none;stroke:red;stroke-width:1px;stroke-linecap:butt;stroke-linejoin:miter;stroke-opacity:1" d="M 92.4883,544.244 129.746,516.3 z" id="boundary" inkscape:connector-curvature="0" />
	<path style="fill:none;stroke:red;stroke-width:1px;stroke-linecap:butt;stroke-linejoin:miter;stroke-opacity:1" d="M 97.1455,222.892 134.404,250.836 z" id="boundary" inkscape:connector-curvature="0" />
	<path style="fill:none;stroke:red;stroke-width:1px;stroke-linecap:butt;stroke-linejoin:miter;stroke-opacity:1" d="M 129.746,516.3 167.005,479.042 z" id="boundary" inkscape:connector-curvature="0" />
	<path style="fill:none;stroke:red;stroke-width:1px;stroke-linecap:butt;stroke-linejoin:miter;stroke-opacity:1" d="M 134.404,250.836 171.662,278.779 z" id="boundary" inkscape:connector-curvature="0" />
	<path style="fill:none;stroke:red;stroke-width:1px;stroke-linecap:butt;stroke-linejoin:miter;stroke-opacity:1" d="M 167.005,479.042 208.92,455.756 z" id="boundary" inkscape:connector-curvature="0" />
	<path style="fill:none;stroke:red;stroke-width:1px;stroke-linecap:butt;stroke-linejoin:miter;stroke-opacity:1" d="M 171.662,278.779 218.235,264.808 z" id="boundary" inkscape:connector-curvature="0" />
	<path style="fill:none;stroke:red;stroke-width:1px;stroke-linecap:butt;stroke-linejoin:miter;stroke-opacity:1" d="M 208.92,455.756 218.235,502.329 z" id="boundary" inkscape:connector-curvature="0" />
	<path style="fill:none;stroke:red;stroke-width:1px;stroke-linecap:butt;stroke-linejoin:miter;stroke-opacity:1" d="M 218.235,264.808 241.521,222.892 z" id="boundary" inkscape:connector-curvature="0" />
	<path style="fill:none;stroke:red;stroke-width:1px;stroke-linecap:butt;stroke-linejoin:miter;stroke-opacity:1" d="M 218.235,502.329 227.549,548.901 z" id="boundary" inkscape:connector-curvature="0" />
	<path style="fill:none;stroke:red;stroke-width:1px;stroke-linecap:butt;stroke-linejoin:miter;stroke-opacity:1" d="M 227.549,548.901 236.864,595.474 z" id="boundary" inkscape:connector-curvature="0" />
	<path style="fill:none;stroke:red;stroke-width:1px;stroke-linecap:butt;stroke-linejoin:miter;stroke-opacity:1" d="M 236.864,595.474 283.437,604.789 z" id="boundary" inkscape:connector-curvature="0" />
	<path style="fill:none;stroke:red;stroke-width:1px;stroke-linecap:butt;stroke-linejoin:miter;stroke-opacity:1" d="M 241.521,222.892 269.465,185.634 z" id="boundary" inkscape:connector-curvature="0" />
	<path style="fill:none;stroke:red;stroke-width:1px;stroke-linecap:butt;stroke-linejoin:miter;stroke-opacity:1" d="M 269.465,185.634 292.751,143.718 z" id="boundary" inkscape:connector-curvature="0" />
	<path style="fill:none;stroke:red;stroke-width:1px;stroke-linecap:butt;stroke-linejoin:miter;stroke-opacity:1" d="M 283.437,604.789 330.009,595.474 z" id="boundary" inkscape:connector-curvature="0" />
	<path style="fill:none;stroke:red;stroke-width:1px;stroke-linecap:butt;stroke-linejoin:miter;stroke-opacity:1" d="M 292.751,143.718 339.324,125.089 z" id="boundary" inkscape:connector-curvature="0" />
	<path style="fill:none;stroke:red;stroke-width:1px;stroke-linecap:butt;stroke-linejoin:miter;stroke-opacity:1" d="M 330.009,595.474 371.925,572.188 z" id="boundary" inkscape:connector-curvature="0" />
	<path style="fill:none;stroke:red;stroke-width:1px;stroke-linecap:butt;stroke-linejoin:miter;stroke-opacity:1" d="M 339.324,125.089 381.239,148.376 z" id="boundary" inkscape:connector-curvature="0" />
	<path style="fill:none;stroke:red;stroke-width:1px;stroke-linecap:butt;stroke-linejoin:miter;stroke-opacity:1" d="M 371.925,572.188 418.498,576.845 z" id="boundary" inkscape:connector-curvature="0" />
	<path style="fill:none;stroke:red;stroke-width:1px;stroke-linecap:butt;stroke-linejoin:miter;stroke-opacity:1" d="M 381.239,148.376 427.812,148.376 z" id="boundary" inkscape:connector-curvature="0" />
	<path style="fill:none;stroke:red;stroke-width:1px;stroke-linecap:butt;stroke-linejoin:miter;stroke-opacity:1" d="M 418.498,576.845 465.07,576.845 z" id="boundary" inkscape:connector-curvature="0" />
	<path style="fill:none;stroke:red;stroke-width:1px;stroke-linecap:butt;stroke-linejoin:miter;stroke-opacity:1" d="M 427.812,148.376 455.756,111.117 z" id="boundary" inkscape:connector-curvature="0" />
	<path style="fill:none;stroke:red;stroke-width:1px;stroke-linecap:butt;stroke-linejoin:miter;stroke-opacity:1" d="M 451.099,711.906 469.728,646.704 z" id="boundary" inkscape:connector-curvature="0" />
	<path style="fill:none;stroke:red;stroke-width:1px;stroke-linecap:butt;stroke-linejoin:miter;stroke-opacity:1" d="M 451.099,711.906 474.385,753.822 z" id="boundary" inkscape:connector-curvature="0" />
	<path style="fill:none;stroke:red;stroke-width:1px;stroke-linecap:butt;stroke-linejoin:miter;stroke-opacity:1" d="M 455.756,111.117 493.014,78.5164 z" id="boundary" inkscape:connector-curvature="0" />
	<path style="fill:none;stroke:red;stroke-width:1px;stroke-linecap:butt;stroke-linejoin:miter;stroke-opacity:1" d="M 465.07,576.845 469.728,646.704 z" id="boundary" inkscape:connector-curvature="0" />
	<path style="fill:none;stroke:red;stroke-width:1px;stroke-linecap:butt;stroke-linejoin:miter;stroke-opacity:1" d="M 474.385,753.822 520.958,739.85 z" id="boundary" inkscape:connector-curvature="0" />
	<path style="fill:none;stroke:red;stroke-width:1px;stroke-linecap:butt;stroke-linejoin:miter;stroke-opacity:1" d="M 493.014,78.5164 534.93,41.2582 z" id="boundary" inkscape:connector-curvature="0" />
	<path style="fill:none;stroke:red;stroke-width:1px;stroke-linecap:butt;stroke-linejoin:miter;stroke-opacity:1" d="M 520.958,739.85 558.216,711.906 z" id="boundary" inkscape:connector-curvature="0" />
	<path style="fill:none;stroke:red;stroke-width:1px;stroke-linecap:butt;stroke-linejoin:miter;stroke-opacity:1" d="M 534.93,41.2582 581.502,22.6291 z" id="boundary" inkscape:connector-curvature="0" />
	<path style="fill:none;stroke:red;stroke-width:1px;stroke-linecap:butt;stroke-linejoin:miter;stroke-opacity:1" d="M 558.216,711.906 586.16,674.648 z" id="boundary" inkscape:connector-curvature="0" />
	<path style="fill:none;stroke:red;stroke-width:1px;stroke-linecap:butt;stroke-linejoin:miter;stroke-opacity:1" d="M 581.502,22.6291 628.075,4 z" id="boundary" inkscape:connector-curvature="0" />
	<path style="fill:none;stroke:red;stroke-width:1px;stroke-linecap:butt;stroke-linejoin:miter;stroke-opacity:1" d="M 586.16,674.648 632.732,679.305 z" id="boundary" inkscape:connector-curvature="0" />
	<path style="fill:none;stroke:red;stroke-width:1px;stroke-linecap:butt;stroke-linejoin:miter;stroke-opacity:1" d="M 628.075,4 656.019,41.2582 z" id="boundary" inkscape:connector-curvature="0" />
	<path style="fill:none;stroke:red;stroke-width:1px;stroke-linecap:butt;stroke-linejoin:miter;stroke-opacity:1" d="M 632.732,679.305 656.019,721.221 z" id="boundary" inkscape:connector-curvature="0" />
	<path style="fill:none;stroke:red;stroke-width:1px;stroke-linecap:butt;stroke-linejoin:miter;stroke-opacity:1" d="M 656.019,41.2582 679.305,83.1737 z" id="boundary" inkscape:connector-curvature="0" />
	<path style="fill:none;stroke:red;stroke-width:1px;stroke-linecap:butt;stroke-linejoin:miter;stroke-opacity:1" d="M 656.019,721.221 688.62,758.479 z" id="boundary" inkscape:connector-curvature="0" />
	<path style="fill:none;stroke:red;stroke-width:1px;stroke-linecap:butt;stroke-linejoin:miter;stroke-opacity:1" d="M 679.305,83.1737 693.277,148.376 z" id="boundary" inkscape:connector-curvature="0" />
	<path style="fill:none;stroke:red;stroke-width:1px;stroke-linecap:butt;stroke-linejoin:miter;stroke-opacity:1" d="M 688.62,758.479 735.192,730.535 z" id="boundary" inkscape:connector-curvature="0" />
	<path style="fill:none;stroke:red;stroke-width:1px;stroke-linecap:butt;stroke-linejoin:miter;stroke-opacity:1" d="M 693.277,148.376 735.192,171.662 z" id="boundary" inkscape:connector-curvature="0" />
	<path style="fill:none;stroke:red;stroke-width:1px;stroke-linecap:butt;stroke-linejoin:miter;stroke-opacity:1" d="M 735.192,171.662 781.765,190.291 z" id="boundary" inkscape:connector-curvature="0" />
	<path style="fill:none;stroke:red;stroke-width:1px;stroke-linecap:butt;stroke-linejoin:miter;stroke-opacity:1" d="M 735.192,730.535 753.822,683.962 z" id="boundary" inkscape:connector-curvature="0" />
	<path style="fill:none;stroke:red;stroke-width:1px;stroke-linecap:butt;stroke-linejoin:miter;stroke-opacity:1" d="M 753.822,590.817 753.822,637.39 z" id="boundary" inkscape:connector-curvature="0" />
	<path style="fill:none;stroke:red;stroke-width:1px;stroke-linecap:butt;stroke-linejoin:miter;stroke-opacity:1" d="M 753.822,590.817 800.394,572.188 z" id="boundary" inkscape:connector-curvature="0" />
	<path style="fill:none;stroke:red;stroke-width:1px;stroke-linecap:butt;stroke-linejoin:miter;stroke-opacity:1" d="M 753.822,637.39 753.822,683.962 z" id="boundary" inkscape:connector-curvature="0" />
	<path style="fill:none;stroke:red;stroke-width:1px;stroke-linecap:butt;stroke-linejoin:miter;stroke-opacity:1" d="M 781.765,190.291 823.681,213.577 z" id="boundary" inkscape:connector-curvature="0" />
	<path style="fill:none;stroke:red;stroke-width:1px;stroke-linecap:butt;stroke-linejoin:miter;stroke-opacity:1" d="M 800.394,572.188 842.31,548.901 z" id="boundary" inkscape:connector-curvature="0" />
	<path style="fill:none;stroke:red;stroke-width:1px;stroke-linecap:butt;stroke-linejoin:miter;stroke-opacity:1" d="M 823.681,213.577 870.254,227.549 z" id="boundary" inkscape:connector-curvature="0" />
	<path style="fill:none;stroke:red;stroke-width:1px;stroke-linecap:butt;stroke-linejoin:miter;stroke-opacity:1" d="M 842.31,548.901 888.883,530.272 z" id="boundary" inkscape:connector-curvature="0" />
	<path style="fill:none;stroke:red;stroke-width:1px;stroke-linecap:butt;stroke-linejoin:miter;stroke-opacity:1" d="M 870.254,227.549 912.169,250.836 z" id="boundary" inkscape:connector-curvature="0" />
	<path style="fill:none;stroke:red;stroke-width:1px;stroke-linecap:butt;stroke-linejoin:miter;stroke-opacity:1" d="M 888.883,530.272 926.141,502.329 z" id="boundary" inkscape:connector-curvature="0" />
	<path style="fill:none;stroke:red;stroke-width:1px;stroke-linecap:butt;stroke-linejoin:miter;stroke-opacity:1" d="M 912.169,250.836 940.113,288.094 z" id="boundary" inkscape:connector-curvature="0" />
	<path style="fill:none;stroke:red;stroke-width:1px;stroke-linecap:butt;stroke-linejoin:miter;stroke-opacity:1" d="M 926.141,502.329 958.742,460.413 z" id="boundary" inkscape:connector-curvature="0" />
	<path style="fill:none;stroke:red;stroke-width:1px;stroke-linecap:butt;stroke-linejoin:miter;stroke-opacity:1" d="M 940.113,288.094 977.371,320.695 z" id="boundary" inkscape:connector-curvature="0" />
	<path style="fill:none;stroke:red;stroke-width:1px;stroke-linecap:butt;stroke-linejoin:miter;stroke-opacity:1" d="M 958.742,460.413 977.371,413.84 z" id="boundary" inkscape:connector-curvature="0" />
	<path style="fill:none;stroke:red;stroke-width:1px;stroke-linecap:butt;stroke-linejoin:miter;stroke-opacity:1" d="M 977.371,320.695 996,367.268 z" id="boundary" inkscape:connector-curvature="0" />
	<path style="fill:none;stroke:red;stroke-width:1px;stroke-linecap:butt;stroke-linejoin:miter;stroke-opacity:1" d="M 977.371,413.84 996,367.268 z" id="boundary" inkscape:connector-curvature="0" />
	<circle cx="4" cy="218.235" r="4" fill="#0" id="circle0"/>
	<circle cx="4" cy="534.93" r="4" fill="#0" id="circle1"/>
	<circle cx="13.3146" cy="264.808" r="4" fill="#0" id="circle2"/>
	<circle cx="22.6291" cy="311.38" r="4" fill="#0" id="circle3"/>
	<circle cx="22.6291" cy="357.953" r="4" fill="#0" id="circle4"/>
	<circle cx="22.6291" cy="404.526" r="4" fill="#0" id="circle5"/>
	<circle cx="22.6291" cy="451.099" r="4" fill="#0" id="circle6"/>
	<circle cx="45.9155" cy="558.216" r="4" fill="#0" id="circle7"/>
	<circle cx="50.5728" cy="204.263" r="4" fill="#0" id="circle8"/>
	<circle cx="92.4883" cy="544.244" r="4" fill="#0" id="circle9"/>
	<circle cx="97.1455" cy="222.892" r="4" fill="#0" id="circle10"/>
	<circle cx="129.746" cy="516.3" r="4" fill="#0" id="circle11"/>
	<circle cx="134.404" cy="250.836" r="4" fill="#0" id="circle12"/>
	<circle cx="167.005" cy="479.042" r="4" fill="#0" id="circle13"/>
	<circle cx="171.662" cy="278.779" r="4" fill="#0" id="circle14"/>
	<circle cx="208.92" cy="455.756" r="4" fill="#0" id="circle15"/>
	<circle cx="218.235" cy="264.808" r="4" fill="#0" id="circle16"/>
	<circle cx="218.235" cy="502.329" r="4" fill="#0" id="circle17"/>
	<circle cx="227.549" cy="548.901" r="4" fill="#0" id="circle18"/>
	<circle cx="236.864" cy="595.474" r="4" fill="#0" id="circle19"/>
	<circle cx="241.521" cy="222.892" r="4" fill="#0" id="circle20"/>
	<circle cx="269.465" cy="185.634" r="4" fill="#0" id="circle21"/>
	<circle cx="283.437" cy="604.789" r="4" fill="#0" id="circle22"/>
	<circle cx="292.751" cy="143.718" r="4" fill="#0" id="circle23"/>
	<circle cx="330.009" cy="595.474" r="4" fill="#0" id="circle24"/>
	<circle cx="339.324" cy="125.089" r="4" fill="#0" id="circle25"/>
	<circle cx="371.925" cy="572.188" r="4" fill="#0" id="circle26"/>
	<circle cx="381.239" cy="148.376" r="4" fill="#0" id="circle27"/>
	<circle cx="418.498" cy="576.845" r="4" fill="#0" id="circle28"/>
	<circle cx="427.812" cy="148.376" r="4" fill="#0" id="circle29"/>
	<circle cx="451.099" cy="711.906" r="4" fill="#0" id="circle30"/>
	<circle cx="455.756" cy="111.117" r="4" fill="#0" id="circle31"/>
	<circle cx="465.07" cy="576.845" r="4" fill="#0" id="circle32"/>
	<circle cx="469.728" cy="646.704" r="4" fill="#0" id="circle33"/>
	<circle cx="474.385" cy="753.822" r="4" fill="#0" id="circle34"/>
	<circle cx="493.014" cy="78.5164" r="4" fill="#0" id="circle35"/>
	<circle cx="520.958" cy="739.85" r="4" fill="#0" id="circle36"/>
	<circle cx="534.93" cy="41.2582" r="4" fill="#0" id="circle37"/>
	<circle cx="558.216" cy="711.906" r="4" fill="#0" id="circle38"/>
	<circle cx="581.502" cy="22.6291" r="4" fill="#0" id="circle39"/>
	<circle cx="586.16" cy="674.648" r="4" fill="#0" id="circle40"/>
	<circle cx="628.075" cy="4" r="4" fill="#0" id="circle41"/>
	<circle cx="632.732" cy="679.305" r="4" fill="#0" id="circle42"/>
	<circle cx="656.019" cy="41.2582" r="4" fill="#0" id="circle43"/>
	<circle cx="656.019" cy="721.221" r="4" fill="#0" id="circle44"/>
	<circle cx="679.305" cy="83.1737" r="4" fill="#0" id="circle45"/>
	<circle cx="688.62" cy="758.479" r="4" fill="#0" id="circle46"/>
	<circle cx="693.277" cy="148.376" r="4" fill="#0" id="circle47"/>
	<circle cx="735.192" cy="171.662" r="4" fill="#0" id="circle48"/>
	<circle cx="735.192" cy="730.535" r="4" fill="#0" id="circle49"/>
	<circle cx="753.822" cy="590.817" r="4" fill="#0" id="circle50"/>
	<circle cx="753.822" cy="637.39" r="4" fill="#0" id="circle51"/>
	<circle cx="753.822" cy="683.962" r="4" fill="#0" id="circle52"/>
	<circle cx="781.765" cy="190.291" r="4" fill="#0" id="circle53"/>
	<circle cx="800.394" cy="572.188" r="4" fill="#0" id="circle54"/>
	<circle cx="823.681" cy="213.577" r="4" fill="#0" id="circle55"/>
	<circle cx="842.31" cy="548.901" r="4" fill="#0" id="circle56"/>
	<circle cx="870.254" cy="227.549" r="4" fill="#0" id="circle57"/>
	<circle cx="888.883" cy="530.272" r="4" fill="#0" id="circle58"/>
	<circle cx="912.169" cy="250.836" r="4" fill="#0" id="circle59"/>
	<circle cx="926.141" cy="502.329" r="4" fill="#0" id="circle60"/>
	<circle cx="940.113" cy="288.094" r="4" fill="#0" id="circle61"/>
	<circle cx="958.742" cy="460.413" r="4" fill="#0" id="circle62"/>
	<circle cx="977.371" cy="320.695" r="4" fill="#0" id="circle63"/>
	<circle cx="977.371" cy="413.84" r="4" fill="#0" id="circle64"/>
	<circle cx="996" cy="367.268" r="4" fill="#0" id="circle65"/>
	</g>
</svg>