<?xml version="1.0" encoding="UTF-8" standalone="no"?>
<!-- Created with CurveBenchmark -->
<svg
	xmlns:dc="http://purl.org/dc/elements/1.1/"
	xmlns:cc="http://creativecommons.org/ns#"
	xmlns:rdf="http://www.w3.org/1999/02/22-rdf-syntax-ns#"
	xmlns:svg="http://www.w3.org/2000/svg"
	xmlns="http://www.w3.org/2000/svg"
	xmlns:sodipodi="http://sodipodi.sourceforge.net/DTD/sodipodi-0.dtd"
	xmlns:inkscape="http://www.inkscape.org/namespaces/inkscape"
	width="1000"
	height="1000"
	id="svg2"
	version="1.1"
	sodipodi:docname="manifold/vicur-chopper03.png.txt">
<defs
	id="defs4" />
<metadata
	id="metadata7">
	<rdf:RDF>
		<cc:Work
			rdf:about="">
			<dc:format>image/svg+xml</dc:format>
			<dc:type
				rdf:resource="http://purl.org/dc/dcmitype/StillImage" />
			<dc:title></dc:title>
		</cc:Work>
	</rdf:RDF>
</metadata>
<g
	inkscape:label="Layer 1"
	inkscape:groupmode="layer"
	id="layer1">
	<path style="fill:none;stroke:red;stroke-width:1px;stroke-linecap:butt;stroke-linejoin:miter;stroke-opacity:1" d="M 4,672.601 4,690.769 z" id="boundary" inkscape:connector-curvature="0" />
	<path style="fill:none;stroke:red;stroke-width:1px;stroke-linecap:butt;stroke-linejoin:miter;stroke-opacity:1" d="M 4,672.601 13.0842,654.432 z" id="boundary" inkscape:connector-curvature="0" />
	<path style="fill:none;stroke:red;stroke-width:1px;stroke-linecap:butt;stroke-linejoin:miter;stroke-opacity:1" d="M 4,690.769 18.5348,703.487 z" id="boundary" inkscape:connector-curvature="0" />
	<path style="fill:none;stroke:red;stroke-width:1px;stroke-linecap:butt;stroke-linejoin:miter;stroke-opacity:1" d="M 13.0842,654.432 27.619,639.897 z" id="boundary" inkscape:connector-curvature="0" />
	<path style="fill:none;stroke:red;stroke-width:1px;stroke-linecap:butt;stroke-linejoin:miter;stroke-opacity:1" d="M 18.5348,703.487 36.7033,705.304 z" id="boundary" inkscape:connector-curvature="0" />
	<path style="fill:none;stroke:red;stroke-width:1px;stroke-linecap:butt;stroke-linejoin:miter;stroke-opacity:1" d="M 27.619,639.897 45.7875,639.897 z" id="boundary" inkscape:connector-curvature="0" />
	<path style="fill:none;stroke:red;stroke-width:1px;stroke-linecap:butt;stroke-linejoin:miter;stroke-opacity:1" d="M 31.2527,409.158 31.2527,427.326 z" id="boundary" inkscape:connector-curvature="0" />
	<path style="fill:none;stroke:red;stroke-width:1px;stroke-linecap:butt;stroke-linejoin:miter;stroke-opacity:1" d="M 31.2527,409.158 40.337,381.905 z" id="boundary" inkscape:connector-curvature="0" />
	<path style="fill:none;stroke:red;stroke-width:1px;stroke-linecap:butt;stroke-linejoin:miter;stroke-opacity:1" d="M 31.2527,427.326 31.2527,445.495 z" id="boundary" inkscape:connector-curvature="0" />
	<path style="fill:none;stroke:red;stroke-width:1px;stroke-linecap:butt;stroke-linejoin:miter;stroke-opacity:1" d="M 31.2527,445.495 31.2527,463.663 z" id="boundary" inkscape:connector-curvature="0" />
	<path style="fill:none;stroke:red;stroke-width:1px;stroke-linecap:butt;stroke-linejoin:miter;stroke-opacity:1" d="M 31.2527,463.663 31.2527,481.832 z" id="boundary" inkscape:connector-curvature="0" />
	<path style="fill:none;stroke:red;stroke-width:1px;stroke-linecap:butt;stroke-linejoin:miter;stroke-opacity:1" d="M 31.2527,481.832 31.2527,500 z" id="boundary" inkscape:connector-curvature="0" />
	<path style="fill:none;stroke:red;stroke-width:1px;stroke-linecap:butt;stroke-linejoin:miter;stroke-opacity:1" d="M 31.2527,500 31.2527,518.168 z" id="boundary" inkscape:connector-curvature="0" />
	<path style="fill:none;stroke:red;stroke-width:1px;stroke-linecap:butt;stroke-linejoin:miter;stroke-opacity:1" d="M 31.2527,518.168 31.2527,536.337 z" id="boundary" inkscape:connector-curvature="0" />
	<path style="fill:none;stroke:red;stroke-width:1px;stroke-linecap:butt;stroke-linejoin:miter;stroke-opacity:1" d="M 31.2527,536.337 31.2527,554.505 z" id="boundary" inkscape:connector-curvature="0" />
	<path style="fill:none;stroke:red;stroke-width:1px;stroke-linecap:butt;stroke-linejoin:miter;stroke-opacity:1" d="M 31.2527,554.505 45.7875,567.223 z" id="boundary" inkscape:connector-curvature="0" />
	<path style="fill:none;stroke:red;stroke-width:1px;stroke-linecap:butt;stroke-linejoin:miter;stroke-opacity:1" d="M 36.7033,705.304 53.0549,696.22 z" id="boundary" inkscape:connector-curvature="0" />
	<path style="fill:none;stroke:red;stroke-width:1px;stroke-linecap:butt;stroke-linejoin:miter;stroke-opacity:1" d="M 40.337,381.905 49.4212,354.652 z" id="boundary" inkscape:connector-curvature="0" />
	<path style="fill:none;stroke:red;stroke-width:1px;stroke-linecap:butt;stroke-linejoin:miter;stroke-opacity:1" d="M 45.7875,567.223 53.0549,585.392 z" id="boundary" inkscape:connector-curvature="0" />
	<path style="fill:none;stroke:red;stroke-width:1px;stroke-linecap:butt;stroke-linejoin:miter;stroke-opacity:1" d="M 45.7875,639.897 62.1392,630.813 z" id="boundary" inkscape:connector-curvature="0" />
	<path style="fill:none;stroke:red;stroke-width:1px;stroke-linecap:butt;stroke-linejoin:miter;stroke-opacity:1" d="M 49.4212,354.652 58.5055,327.399 z" id="boundary" inkscape:connector-curvature="0" />
	<path style="fill:none;stroke:red;stroke-width:1px;stroke-linecap:butt;stroke-linejoin:miter;stroke-opacity:1" d="M 53.0549,585.392 71.2234,587.209 z" id="boundary" inkscape:connector-curvature="0" />
	<path style="fill:none;stroke:red;stroke-width:1px;stroke-linecap:butt;stroke-linejoin:miter;stroke-opacity:1" d="M 53.0549,696.22 71.2234,696.22 z" id="boundary" inkscape:connector-curvature="0" />
	<path style="fill:none;stroke:red;stroke-width:1px;stroke-linecap:butt;stroke-linejoin:miter;stroke-opacity:1" d="M 58.5055,309.231 58.5055,327.399 z" id="boundary" inkscape:connector-curvature="0" />
	<path style="fill:none;stroke:red;stroke-width:1px;stroke-linecap:butt;stroke-linejoin:miter;stroke-opacity:1" d="M 58.5055,309.231 67.5897,291.062 z" id="boundary" inkscape:connector-curvature="0" />
	<path style="fill:none;stroke:red;stroke-width:1px;stroke-linecap:butt;stroke-linejoin:miter;stroke-opacity:1" d="M 62.1392,630.813 69.4066,648.982 z" id="boundary" inkscape:connector-curvature="0" />
	<path style="fill:none;stroke:red;stroke-width:1px;stroke-linecap:butt;stroke-linejoin:miter;stroke-opacity:1" d="M 67.5897,291.062 85.7582,272.894 z" id="boundary" inkscape:connector-curvature="0" />
	<path style="fill:none;stroke:red;stroke-width:1px;stroke-linecap:butt;stroke-linejoin:miter;stroke-opacity:1" d="M 69.4066,648.982 69.4066,667.15 z" id="boundary" inkscape:connector-curvature="0" />
	<path style="fill:none;stroke:red;stroke-width:1px;stroke-linecap:butt;stroke-linejoin:miter;stroke-opacity:1" d="M 69.4066,667.15 71.2234,696.22 z" id="boundary" inkscape:connector-curvature="0" />
	<path style="fill:none;stroke:red;stroke-width:1px;stroke-linecap:butt;stroke-linejoin:miter;stroke-opacity:1" d="M 71.2234,587.209 89.3919,587.209 z" id="boundary" inkscape:connector-curvature="0" />
	<path style="fill:none;stroke:red;stroke-width:1px;stroke-linecap:butt;stroke-linejoin:miter;stroke-opacity:1" d="M 85.7582,272.894 100.293,258.359 z" id="boundary" inkscape:connector-curvature="0" />
	<path style="fill:none;stroke:red;stroke-width:1px;stroke-linecap:butt;stroke-linejoin:miter;stroke-opacity:1" d="M 87.5751,667.15 89.3919,696.22 z" id="boundary" inkscape:connector-curvature="0" />
	<path style="fill:none;stroke:red;stroke-width:1px;stroke-linecap:butt;stroke-linejoin:miter;stroke-opacity:1" d="M 87.5751,667.15 105.744,661.7 z" id="boundary" inkscape:connector-curvature="0" />
	<path style="fill:none;stroke:red;stroke-width:1px;stroke-linecap:butt;stroke-linejoin:miter;stroke-opacity:1" d="M 89.3919,587.209 107.56,587.209 z" id="boundary" inkscape:connector-curvature="0" />
	<path style="fill:none;stroke:red;stroke-width:1px;stroke-linecap:butt;stroke-linejoin:miter;stroke-opacity:1" d="M 89.3919,696.22 107.56,696.22 z" id="boundary" inkscape:connector-curvature="0" />
	<path style="fill:none;stroke:red;stroke-width:1px;stroke-linecap:butt;stroke-linejoin:miter;stroke-opacity:1" d="M 100.293,258.359 116.645,249.275 z" id="boundary" inkscape:connector-curvature="0" />
	<path style="fill:none;stroke:red;stroke-width:1px;stroke-linecap:butt;stroke-linejoin:miter;stroke-opacity:1" d="M 105.744,661.7 120.278,648.982 z" id="boundary" inkscape:connector-curvature="0" />
	<path style="fill:none;stroke:red;stroke-width:1px;stroke-linecap:butt;stroke-linejoin:miter;stroke-opacity:1" d="M 107.56,587.209 125.729,592.659 z" id="boundary" inkscape:connector-curvature="0" />
	<path style="fill:none;stroke:red;stroke-width:1px;stroke-linecap:butt;stroke-linejoin:miter;stroke-opacity:1" d="M 107.56,696.22 125.729,696.22 z" id="boundary" inkscape:connector-curvature="0" />
	<path style="fill:none;stroke:red;stroke-width:1px;stroke-linecap:butt;stroke-linejoin:miter;stroke-opacity:1" d="M 116.645,249.275 143.897,231.106 z" id="boundary" inkscape:connector-curvature="0" />
	<path style="fill:none;stroke:red;stroke-width:1px;stroke-linecap:butt;stroke-linejoin:miter;stroke-opacity:1" d="M 120.278,648.982 136.63,658.066 z" id="boundary" inkscape:connector-curvature="0" />
	<path style="fill:none;stroke:red;stroke-width:1px;stroke-linecap:butt;stroke-linejoin:miter;stroke-opacity:1" d="M 125.729,592.659 143.897,592.659 z" id="boundary" inkscape:connector-curvature="0" />
	<path style="fill:none;stroke:red;stroke-width:1px;stroke-linecap:butt;stroke-linejoin:miter;stroke-opacity:1" d="M 125.729,696.22 143.897,696.22 z" id="boundary" inkscape:connector-curvature="0" />
	<path style="fill:none;stroke:red;stroke-width:1px;stroke-linecap:butt;stroke-linejoin:miter;stroke-opacity:1" d="M 136.63,658.066 154.799,648.982 z" id="boundary" inkscape:connector-curvature="0" />
	<path style="fill:none;stroke:red;stroke-width:1px;stroke-linecap:butt;stroke-linejoin:miter;stroke-opacity:1" d="M 143.897,231.106 152.982,214.755 z" id="boundary" inkscape:connector-curvature="0" />
	<path style="fill:none;stroke:red;stroke-width:1px;stroke-linecap:butt;stroke-linejoin:miter;stroke-opacity:1" d="M 143.897,592.659 160.249,601.744 z" id="boundary" inkscape:connector-curvature="0" />
	<path style="fill:none;stroke:red;stroke-width:1px;stroke-linecap:butt;stroke-linejoin:miter;stroke-opacity:1" d="M 143.897,696.22 160.249,687.136 z" id="boundary" inkscape:connector-curvature="0" />
	<path style="fill:none;stroke:red;stroke-width:1px;stroke-linecap:butt;stroke-linejoin:miter;stroke-opacity:1" d="M 152.982,214.755 171.15,205.67 z" id="boundary" inkscape:connector-curvature="0" />
	<path style="fill:none;stroke:red;stroke-width:1px;stroke-linecap:butt;stroke-linejoin:miter;stroke-opacity:1" d="M 154.799,648.982 172.967,639.897 z" id="boundary" inkscape:connector-curvature="0" />
	<path style="fill:none;stroke:red;stroke-width:1px;stroke-linecap:butt;stroke-linejoin:miter;stroke-opacity:1" d="M 160.249,601.744 178.418,609.011 z" id="boundary" inkscape:connector-curvature="0" />
	<path style="fill:none;stroke:red;stroke-width:1px;stroke-linecap:butt;stroke-linejoin:miter;stroke-opacity:1" d="M 160.249,687.136 176.601,678.051 z" id="boundary" inkscape:connector-curvature="0" />
	<path style="fill:none;stroke:red;stroke-width:1px;stroke-linecap:butt;stroke-linejoin:miter;stroke-opacity:1" d="M 171.15,205.67 189.319,196.586 z" id="boundary" inkscape:connector-curvature="0" />
	<path style="fill:none;stroke:red;stroke-width:1px;stroke-linecap:butt;stroke-linejoin:miter;stroke-opacity:1" d="M 172.967,639.897 178.418,609.011 z" id="boundary" inkscape:connector-curvature="0" />
	<path style="fill:none;stroke:red;stroke-width:1px;stroke-linecap:butt;stroke-linejoin:miter;stroke-opacity:1" d="M 176.601,678.051 194.769,678.051 z" id="boundary" inkscape:connector-curvature="0" />
	<path style="fill:none;stroke:red;stroke-width:1px;stroke-linecap:butt;stroke-linejoin:miter;stroke-opacity:1" d="M 189.319,196.586 207.487,196.586 z" id="boundary" inkscape:connector-curvature="0" />
	<path style="fill:none;stroke:red;stroke-width:1px;stroke-linecap:butt;stroke-linejoin:miter;stroke-opacity:1" d="M 194.769,678.051 212.938,678.051 z" id="boundary" inkscape:connector-curvature="0" />
	<path style="fill:none;stroke:red;stroke-width:1px;stroke-linecap:butt;stroke-linejoin:miter;stroke-opacity:1" d="M 207.487,196.586 225.656,194.769 z" id="boundary" inkscape:connector-curvature="0" />
	<path style="fill:none;stroke:red;stroke-width:1px;stroke-linecap:butt;stroke-linejoin:miter;stroke-opacity:1" d="M 212.938,678.051 231.106,678.051 z" id="boundary" inkscape:connector-curvature="0" />
	<path style="fill:none;stroke:red;stroke-width:1px;stroke-linecap:butt;stroke-linejoin:miter;stroke-opacity:1" d="M 225.656,194.769 243.824,187.502 z" id="boundary" inkscape:connector-curvature="0" />
	<path style="fill:none;stroke:red;stroke-width:1px;stroke-linecap:butt;stroke-linejoin:miter;stroke-opacity:1" d="M 231.106,678.051 249.275,678.051 z" id="boundary" inkscape:connector-curvature="0" />
	<path style="fill:none;stroke:red;stroke-width:1px;stroke-linecap:butt;stroke-linejoin:miter;stroke-opacity:1" d="M 243.824,187.502 261.993,185.685 z" id="boundary" inkscape:connector-curvature="0" />
	<path style="fill:none;stroke:red;stroke-width:1px;stroke-linecap:butt;stroke-linejoin:miter;stroke-opacity:1" d="M 249.275,678.051 267.443,672.601 z" id="boundary" inkscape:connector-curvature="0" />
	<path style="fill:none;stroke:red;stroke-width:1px;stroke-linecap:butt;stroke-linejoin:miter;stroke-opacity:1" d="M 261.993,185.685 278.344,176.601 z" id="boundary" inkscape:connector-curvature="0" />
	<path style="fill:none;stroke:red;stroke-width:1px;stroke-linecap:butt;stroke-linejoin:miter;stroke-opacity:1" d="M 267.443,672.601 285.612,668.967 z" id="boundary" inkscape:connector-curvature="0" />
	<path style="fill:none;stroke:red;stroke-width:1px;stroke-linecap:butt;stroke-linejoin:miter;stroke-opacity:1" d="M 278.344,176.601 311.048,176.601 z" id="boundary" inkscape:connector-curvature="0" />
	<path style="fill:none;stroke:red;stroke-width:1px;stroke-linecap:butt;stroke-linejoin:miter;stroke-opacity:1" d="M 285.612,668.967 303.78,668.967 z" id="boundary" inkscape:connector-curvature="0" />
	<path style="fill:none;stroke:red;stroke-width:1px;stroke-linecap:butt;stroke-linejoin:miter;stroke-opacity:1" d="M 303.78,668.967 320.132,659.883 z" id="boundary" inkscape:connector-curvature="0" />
	<path style="fill:none;stroke:red;stroke-width:1px;stroke-linecap:butt;stroke-linejoin:miter;stroke-opacity:1" d="M 311.048,176.601 329.216,176.601 z" id="boundary" inkscape:connector-curvature="0" />
	<path style="fill:none;stroke:red;stroke-width:1px;stroke-linecap:butt;stroke-linejoin:miter;stroke-opacity:1" d="M 320.132,659.883 338.3,659.883 z" id="boundary" inkscape:connector-curvature="0" />
	<path style="fill:none;stroke:red;stroke-width:1px;stroke-linecap:butt;stroke-linejoin:miter;stroke-opacity:1" d="M 329.216,176.601 345.568,167.516 z" id="boundary" inkscape:connector-curvature="0" />
	<path style="fill:none;stroke:red;stroke-width:1px;stroke-linecap:butt;stroke-linejoin:miter;stroke-opacity:1" d="M 331.033,36.7033 331.033,54.8718 z" id="boundary" inkscape:connector-curvature="0" />
	<path style="fill:none;stroke:red;stroke-width:1px;stroke-linecap:butt;stroke-linejoin:miter;stroke-opacity:1" d="M 331.033,36.7033 349.201,31.2527 z" id="boundary" inkscape:connector-curvature="0" />
	<path style="fill:none;stroke:red;stroke-width:1px;stroke-linecap:butt;stroke-linejoin:miter;stroke-opacity:1" d="M 331.033,54.8718 331.033,73.0403 z" id="boundary" inkscape:connector-curvature="0" />
	<path style="fill:none;stroke:red;stroke-width:1px;stroke-linecap:butt;stroke-linejoin:miter;stroke-opacity:1" d="M 331.033,73.0403 349.201,78.4908 z" id="boundary" inkscape:connector-curvature="0" />
	<path style="fill:none;stroke:red;stroke-width:1px;stroke-linecap:butt;stroke-linejoin:miter;stroke-opacity:1" d="M 338.3,659.883 356.469,659.883 z" id="boundary" inkscape:connector-curvature="0" />
	<path style="fill:none;stroke:red;stroke-width:1px;stroke-linecap:butt;stroke-linejoin:miter;stroke-opacity:1" d="M 345.568,167.516 363.736,158.432 z" id="boundary" inkscape:connector-curvature="0" />
	<path style="fill:none;stroke:red;stroke-width:1px;stroke-linecap:butt;stroke-linejoin:miter;stroke-opacity:1" d="M 349.201,31.2527 367.37,31.2527 z" id="boundary" inkscape:connector-curvature="0" />
	<path style="fill:none;stroke:red;stroke-width:1px;stroke-linecap:butt;stroke-linejoin:miter;stroke-opacity:1" d="M 349.201,78.4908 367.37,78.4908 z" id="boundary" inkscape:connector-curvature="0" />
	<path style="fill:none;stroke:red;stroke-width:1px;stroke-linecap:butt;stroke-linejoin:miter;stroke-opacity:1" d="M 356.469,659.883 374.637,656.249 z" id="boundary" inkscape:connector-curvature="0" />
	<path style="fill:none;stroke:red;stroke-width:1px;stroke-linecap:butt;stroke-linejoin:miter;stroke-opacity:1" d="M 363.736,158.432 381.905,158.432 z" id="boundary" inkscape:connector-curvature="0" />
	<path style="fill:none;stroke:red;stroke-width:1px;stroke-linecap:butt;stroke-linejoin:miter;stroke-opacity:1" d="M 367.37,31.2527 385.538,31.2527 z" id="boundary" inkscape:connector-curvature="0" />
	<path style="fill:none;stroke:red;stroke-width:1px;stroke-linecap:butt;stroke-linejoin:miter;stroke-opacity:1" d="M 367.37,78.4908 367.37,96.6593 z" id="boundary" inkscape:connector-curvature="0" />
	<path style="fill:none;stroke:red;stroke-width:1px;stroke-linecap:butt;stroke-linejoin:miter;stroke-opacity:1" d="M 367.37,96.6593 372.821,114.828 z" id="boundary" inkscape:connector-curvature="0" />
	<path style="fill:none;stroke:red;stroke-width:1px;stroke-linecap:butt;stroke-linejoin:miter;stroke-opacity:1" d="M 372.821,114.828 385.538,129.363 z" id="boundary" inkscape:connector-curvature="0" />
	<path style="fill:none;stroke:red;stroke-width:1px;stroke-linecap:butt;stroke-linejoin:miter;stroke-opacity:1" d="M 374.637,656.249 392.806,650.799 z" id="boundary" inkscape:connector-curvature="0" />
	<path style="fill:none;stroke:red;stroke-width:1px;stroke-linecap:butt;stroke-linejoin:miter;stroke-opacity:1" d="M 381.905,158.432 385.538,129.363 z" id="boundary" inkscape:connector-curvature="0" />
	<path style="fill:none;stroke:red;stroke-width:1px;stroke-linecap:butt;stroke-linejoin:miter;stroke-opacity:1" d="M 385.538,31.2527 401.89,22.1685 z" id="boundary" inkscape:connector-curvature="0" />
	<path style="fill:none;stroke:red;stroke-width:1px;stroke-linecap:butt;stroke-linejoin:miter;stroke-opacity:1" d="M 392.806,650.799 410.974,647.165 z" id="boundary" inkscape:connector-curvature="0" />
	<path style="fill:none;stroke:red;stroke-width:1px;stroke-linecap:butt;stroke-linejoin:miter;stroke-opacity:1" d="M 401.89,22.1685 418.242,13.0842 z" id="boundary" inkscape:connector-curvature="0" />
	<path style="fill:none;stroke:red;stroke-width:1px;stroke-linecap:butt;stroke-linejoin:miter;stroke-opacity:1" d="M 410.974,647.165 420.059,628.996 z" id="boundary" inkscape:connector-curvature="0" />
	<path style="fill:none;stroke:red;stroke-width:1px;stroke-linecap:butt;stroke-linejoin:miter;stroke-opacity:1" d="M 418.242,13.0842 436.41,13.0842 z" id="boundary" inkscape:connector-curvature="0" />
	<path style="fill:none;stroke:red;stroke-width:1px;stroke-linecap:butt;stroke-linejoin:miter;stroke-opacity:1" d="M 420.059,628.996 430.96,614.462 z" id="boundary" inkscape:connector-curvature="0" />
	<path style="fill:none;stroke:red;stroke-width:1px;stroke-linecap:butt;stroke-linejoin:miter;stroke-opacity:1" d="M 423.692,60.3223 423.692,78.4908 z" id="boundary" inkscape:connector-curvature="0" />
	<path style="fill:none;stroke:red;stroke-width:1px;stroke-linecap:butt;stroke-linejoin:miter;stroke-opacity:1" d="M 423.692,60.3223 440.044,51.2381 z" id="boundary" inkscape:connector-curvature="0" />
	<path style="fill:none;stroke:red;stroke-width:1px;stroke-linecap:butt;stroke-linejoin:miter;stroke-opacity:1" d="M 423.692,78.4908 427.326,96.6593 z" id="boundary" inkscape:connector-curvature="0" />
	<path style="fill:none;stroke:red;stroke-width:1px;stroke-linecap:butt;stroke-linejoin:miter;stroke-opacity:1" d="M 427.326,96.6593 441.861,109.377 z" id="boundary" inkscape:connector-curvature="0" />
	<path style="fill:none;stroke:red;stroke-width:1px;stroke-linecap:butt;stroke-linejoin:miter;stroke-opacity:1" d="M 430.96,614.462 447.311,605.377 z" id="boundary" inkscape:connector-curvature="0" />
	<path style="fill:none;stroke:red;stroke-width:1px;stroke-linecap:butt;stroke-linejoin:miter;stroke-opacity:1" d="M 436.41,13.0842 452.762,4 z" id="boundary" inkscape:connector-curvature="0" />
	<path style="fill:none;stroke:red;stroke-width:1px;stroke-linecap:butt;stroke-linejoin:miter;stroke-opacity:1" d="M 440.044,51.2381 456.396,42.1538 z" id="boundary" inkscape:connector-curvature="0" />
	<path style="fill:none;stroke:red;stroke-width:1px;stroke-linecap:butt;stroke-linejoin:miter;stroke-opacity:1" d="M 441.861,109.377 449.128,127.546 z" id="boundary" inkscape:connector-curvature="0" />
	<path style="fill:none;stroke:red;stroke-width:1px;stroke-linecap:butt;stroke-linejoin:miter;stroke-opacity:1" d="M 447.311,605.377 465.48,605.377 z" id="boundary" inkscape:connector-curvature="0" />
	<path style="fill:none;stroke:red;stroke-width:1px;stroke-linecap:butt;stroke-linejoin:miter;stroke-opacity:1" d="M 449.128,127.546 458.212,143.897 z" id="boundary" inkscape:connector-curvature="0" />
	<path style="fill:none;stroke:red;stroke-width:1px;stroke-linecap:butt;stroke-linejoin:miter;stroke-opacity:1" d="M 452.762,4 467.297,16.7179 z" id="boundary" inkscape:connector-curvature="0" />
	<path style="fill:none;stroke:red;stroke-width:1px;stroke-linecap:butt;stroke-linejoin:miter;stroke-opacity:1" d="M 456.396,42.1538 467.297,16.7179 z" id="boundary" inkscape:connector-curvature="0" />
	<path style="fill:none;stroke:red;stroke-width:1px;stroke-linecap:butt;stroke-linejoin:miter;stroke-opacity:1" d="M 458.212,143.897 469.114,158.432 z" id="boundary" inkscape:connector-curvature="0" />
	<path style="fill:none;stroke:red;stroke-width:1px;stroke-linecap:butt;stroke-linejoin:miter;stroke-opacity:1" d="M 465.48,605.377 483.648,605.377 z" id="boundary" inkscape:connector-curvature="0" />
	<path style="fill:none;stroke:red;stroke-width:1px;stroke-linecap:butt;stroke-linejoin:miter;stroke-opacity:1" d="M 469.114,158.432 487.282,158.432 z" id="boundary" inkscape:connector-curvature="0" />
	<path style="fill:none;stroke:red;stroke-width:1px;stroke-linecap:butt;stroke-linejoin:miter;stroke-opacity:1" d="M 483.648,605.377 501.817,605.377 z" id="boundary" inkscape:connector-curvature="0" />
	<path style="fill:none;stroke:red;stroke-width:1px;stroke-linecap:butt;stroke-linejoin:miter;stroke-opacity:1" d="M 487.282,158.432 505.451,158.432 z" id="boundary" inkscape:connector-curvature="0" />
	<path style="fill:none;stroke:red;stroke-width:1px;stroke-linecap:butt;stroke-linejoin:miter;stroke-opacity:1" d="M 501.817,605.377 519.985,605.377 z" id="boundary" inkscape:connector-curvature="0" />
	<path style="fill:none;stroke:red;stroke-width:1px;stroke-linecap:butt;stroke-linejoin:miter;stroke-opacity:1" d="M 505.451,158.432 523.619,158.432 z" id="boundary" inkscape:connector-curvature="0" />
	<path style="fill:none;stroke:red;stroke-width:1px;stroke-linecap:butt;stroke-linejoin:miter;stroke-opacity:1" d="M 519.985,605.377 538.154,605.377 z" id="boundary" inkscape:connector-curvature="0" />
	<path style="fill:none;stroke:red;stroke-width:1px;stroke-linecap:butt;stroke-linejoin:miter;stroke-opacity:1" d="M 523.619,158.432 541.788,158.432 z" id="boundary" inkscape:connector-curvature="0" />
	<path style="fill:none;stroke:red;stroke-width:1px;stroke-linecap:butt;stroke-linejoin:miter;stroke-opacity:1" d="M 538.154,605.377 556.322,605.377 z" id="boundary" inkscape:connector-curvature="0" />
	<path style="fill:none;stroke:red;stroke-width:1px;stroke-linecap:butt;stroke-linejoin:miter;stroke-opacity:1" d="M 541.788,158.432 558.139,167.516 z" id="boundary" inkscape:connector-curvature="0" />
	<path style="fill:none;stroke:red;stroke-width:1px;stroke-linecap:butt;stroke-linejoin:miter;stroke-opacity:1" d="M 556.322,605.377 574.491,605.377 z" id="boundary" inkscape:connector-curvature="0" />
	<path style="fill:none;stroke:red;stroke-width:1px;stroke-linecap:butt;stroke-linejoin:miter;stroke-opacity:1" d="M 558.139,167.516 563.59,149.348 z" id="boundary" inkscape:connector-curvature="0" />
	<path style="fill:none;stroke:red;stroke-width:1px;stroke-linecap:butt;stroke-linejoin:miter;stroke-opacity:1" d="M 563.59,149.348 581.758,140.264 z" id="boundary" inkscape:connector-curvature="0" />
	<path style="fill:none;stroke:red;stroke-width:1px;stroke-linecap:butt;stroke-linejoin:miter;stroke-opacity:1" d="M 574.491,605.377 592.659,605.377 z" id="boundary" inkscape:connector-curvature="0" />
	<path style="fill:none;stroke:red;stroke-width:1px;stroke-linecap:butt;stroke-linejoin:miter;stroke-opacity:1" d="M 581.758,140.264 594.476,154.799 z" id="boundary" inkscape:connector-curvature="0" />
	<path style="fill:none;stroke:red;stroke-width:1px;stroke-linecap:butt;stroke-linejoin:miter;stroke-opacity:1" d="M 592.659,605.377 610.828,605.377 z" id="boundary" inkscape:connector-curvature="0" />
	<path style="fill:none;stroke:red;stroke-width:1px;stroke-linecap:butt;stroke-linejoin:miter;stroke-opacity:1" d="M 594.476,154.799 605.377,169.333 z" id="boundary" inkscape:connector-curvature="0" />
	<path style="fill:none;stroke:red;stroke-width:1px;stroke-linecap:butt;stroke-linejoin:miter;stroke-opacity:1" d="M 605.377,169.333 619.912,180.234 z" id="boundary" inkscape:connector-curvature="0" />
	<path style="fill:none;stroke:red;stroke-width:1px;stroke-linecap:butt;stroke-linejoin:miter;stroke-opacity:1" d="M 610.828,605.377 628.996,605.377 z" id="boundary" inkscape:connector-curvature="0" />
	<path style="fill:none;stroke:red;stroke-width:1px;stroke-linecap:butt;stroke-linejoin:miter;stroke-opacity:1" d="M 619.912,180.234 638.081,187.502 z" id="boundary" inkscape:connector-curvature="0" />
	<path style="fill:none;stroke:red;stroke-width:1px;stroke-linecap:butt;stroke-linejoin:miter;stroke-opacity:1" d="M 623.546,278.344 632.63,294.696 z" id="boundary" inkscape:connector-curvature="0" />
	<path style="fill:none;stroke:red;stroke-width:1px;stroke-linecap:butt;stroke-linejoin:miter;stroke-opacity:1" d="M 623.546,278.344 641.714,278.344 z" id="boundary" inkscape:connector-curvature="0" />
	<path style="fill:none;stroke:red;stroke-width:1px;stroke-linecap:butt;stroke-linejoin:miter;stroke-opacity:1" d="M 628.996,605.377 647.165,605.377 z" id="boundary" inkscape:connector-curvature="0" />
	<path style="fill:none;stroke:red;stroke-width:1px;stroke-linecap:butt;stroke-linejoin:miter;stroke-opacity:1" d="M 632.63,294.696 650.799,300.147 z" id="boundary" inkscape:connector-curvature="0" />
	<path style="fill:none;stroke:red;stroke-width:1px;stroke-linecap:butt;stroke-linejoin:miter;stroke-opacity:1" d="M 638.081,187.502 647.165,203.853 z" id="boundary" inkscape:connector-curvature="0" />
	<path style="fill:none;stroke:red;stroke-width:1px;stroke-linecap:butt;stroke-linejoin:miter;stroke-opacity:1" d="M 641.714,278.344 659.883,269.26 z" id="boundary" inkscape:connector-curvature="0" />
	<path style="fill:none;stroke:red;stroke-width:1px;stroke-linecap:butt;stroke-linejoin:miter;stroke-opacity:1" d="M 647.165,203.853 663.516,212.938 z" id="boundary" inkscape:connector-curvature="0" />
	<path style="fill:none;stroke:red;stroke-width:1px;stroke-linecap:butt;stroke-linejoin:miter;stroke-opacity:1" d="M 647.165,605.377 663.516,596.293 z" id="boundary" inkscape:connector-curvature="0" />
	<path style="fill:none;stroke:red;stroke-width:1px;stroke-linecap:butt;stroke-linejoin:miter;stroke-opacity:1" d="M 650.799,300.147 668.967,294.696 z" id="boundary" inkscape:connector-curvature="0" />
	<path style="fill:none;stroke:red;stroke-width:1px;stroke-linecap:butt;stroke-linejoin:miter;stroke-opacity:1" d="M 659.883,269.26 668.967,251.092 z" id="boundary" inkscape:connector-curvature="0" />
	<path style="fill:none;stroke:red;stroke-width:1px;stroke-linecap:butt;stroke-linejoin:miter;stroke-opacity:1" d="M 663.516,212.938 678.051,223.839 z" id="boundary" inkscape:connector-curvature="0" />
	<path style="fill:none;stroke:red;stroke-width:1px;stroke-linecap:butt;stroke-linejoin:miter;stroke-opacity:1" d="M 663.516,596.293 681.685,596.293 z" id="boundary" inkscape:connector-curvature="0" />
	<path style="fill:none;stroke:red;stroke-width:1px;stroke-linecap:butt;stroke-linejoin:miter;stroke-opacity:1" d="M 668.967,251.092 678.051,223.839 z" id="boundary" inkscape:connector-curvature="0" />
	<path style="fill:none;stroke:red;stroke-width:1px;stroke-linecap:butt;stroke-linejoin:miter;stroke-opacity:1" d="M 668.967,294.696 685.319,285.612 z" id="boundary" inkscape:connector-curvature="0" />
	<path style="fill:none;stroke:red;stroke-width:1px;stroke-linecap:butt;stroke-linejoin:miter;stroke-opacity:1" d="M 681.685,596.293 699.853,596.293 z" id="boundary" inkscape:connector-curvature="0" />
	<path style="fill:none;stroke:red;stroke-width:1px;stroke-linecap:butt;stroke-linejoin:miter;stroke-opacity:1" d="M 685.319,285.612 703.487,285.612 z" id="boundary" inkscape:connector-curvature="0" />
	<path style="fill:none;stroke:red;stroke-width:1px;stroke-linecap:butt;stroke-linejoin:miter;stroke-opacity:1" d="M 687.136,441.861 696.22,458.212 z" id="boundary" inkscape:connector-curvature="0" />
	<path style="fill:none;stroke:red;stroke-width:1px;stroke-linecap:butt;stroke-linejoin:miter;stroke-opacity:1" d="M 687.136,441.861 701.67,429.143 z" id="boundary" inkscape:connector-curvature="0" />
	<path style="fill:none;stroke:red;stroke-width:1px;stroke-linecap:butt;stroke-linejoin:miter;stroke-opacity:1" d="M 696.22,458.212 714.388,458.212 z" id="boundary" inkscape:connector-curvature="0" />
	<path style="fill:none;stroke:red;stroke-width:1px;stroke-linecap:butt;stroke-linejoin:miter;stroke-opacity:1" d="M 699.853,596.293 718.022,596.293 z" id="boundary" inkscape:connector-curvature="0" />
	<path style="fill:none;stroke:red;stroke-width:1px;stroke-linecap:butt;stroke-linejoin:miter;stroke-opacity:1" d="M 701.67,429.143 719.839,429.143 z" id="boundary" inkscape:connector-curvature="0" />
	<path style="fill:none;stroke:red;stroke-width:1px;stroke-linecap:butt;stroke-linejoin:miter;stroke-opacity:1" d="M 703.487,285.612 721.656,285.612 z" id="boundary" inkscape:connector-curvature="0" />
	<path style="fill:none;stroke:red;stroke-width:1px;stroke-linecap:butt;stroke-linejoin:miter;stroke-opacity:1" d="M 714.388,458.212 732.557,458.212 z" id="boundary" inkscape:connector-curvature="0" />
	<path style="fill:none;stroke:red;stroke-width:1px;stroke-linecap:butt;stroke-linejoin:miter;stroke-opacity:1" d="M 718.022,596.293 736.19,594.476 z" id="boundary" inkscape:connector-curvature="0" />
	<path style="fill:none;stroke:red;stroke-width:1px;stroke-linecap:butt;stroke-linejoin:miter;stroke-opacity:1" d="M 719.839,429.143 738.007,420.059 z" id="boundary" inkscape:connector-curvature="0" />
	<path style="fill:none;stroke:red;stroke-width:1px;stroke-linecap:butt;stroke-linejoin:miter;stroke-opacity:1" d="M 721.656,285.612 739.824,285.612 z" id="boundary" inkscape:connector-curvature="0" />
	<path style="fill:none;stroke:red;stroke-width:1px;stroke-linecap:butt;stroke-linejoin:miter;stroke-opacity:1" d="M 732.557,458.212 748.908,467.297 z" id="boundary" inkscape:connector-curvature="0" />
	<path style="fill:none;stroke:red;stroke-width:1px;stroke-linecap:butt;stroke-linejoin:miter;stroke-opacity:1" d="M 736.19,594.476 754.359,587.209 z" id="boundary" inkscape:connector-curvature="0" />
	<path style="fill:none;stroke:red;stroke-width:1px;stroke-linecap:butt;stroke-linejoin:miter;stroke-opacity:1" d="M 738.007,420.059 750.725,405.524 z" id="boundary" inkscape:connector-curvature="0" />
	<path style="fill:none;stroke:red;stroke-width:1px;stroke-linecap:butt;stroke-linejoin:miter;stroke-opacity:1" d="M 739.824,285.612 757.993,285.612 z" id="boundary" inkscape:connector-curvature="0" />
	<path style="fill:none;stroke:red;stroke-width:1px;stroke-linecap:butt;stroke-linejoin:miter;stroke-opacity:1" d="M 748.908,467.297 767.077,467.297 z" id="boundary" inkscape:connector-curvature="0" />
	<path style="fill:none;stroke:red;stroke-width:1px;stroke-linecap:butt;stroke-linejoin:miter;stroke-opacity:1" d="M 750.725,405.524 765.26,392.806 z" id="boundary" inkscape:connector-curvature="0" />
	<path style="fill:none;stroke:red;stroke-width:1px;stroke-linecap:butt;stroke-linejoin:miter;stroke-opacity:1" d="M 754.359,587.209 770.711,578.125 z" id="boundary" inkscape:connector-curvature="0" />
	<path style="fill:none;stroke:red;stroke-width:1px;stroke-linecap:butt;stroke-linejoin:miter;stroke-opacity:1" d="M 757.993,285.612 776.161,285.612 z" id="boundary" inkscape:connector-curvature="0" />
	<path style="fill:none;stroke:red;stroke-width:1px;stroke-linecap:butt;stroke-linejoin:miter;stroke-opacity:1" d="M 765.26,392.806 777.978,378.271 z" id="boundary" inkscape:connector-curvature="0" />
	<path style="fill:none;stroke:red;stroke-width:1px;stroke-linecap:butt;stroke-linejoin:miter;stroke-opacity:1" d="M 767.077,467.297 777.978,481.832 z" id="boundary" inkscape:connector-curvature="0" />
	<path style="fill:none;stroke:red;stroke-width:1px;stroke-linecap:butt;stroke-linejoin:miter;stroke-opacity:1" d="M 770.711,578.125 787.062,559.956 z" id="boundary" inkscape:connector-curvature="0" />
	<path style="fill:none;stroke:red;stroke-width:1px;stroke-linecap:butt;stroke-linejoin:miter;stroke-opacity:1" d="M 776.161,285.612 794.33,280.161 z" id="boundary" inkscape:connector-curvature="0" />
	<path style="fill:none;stroke:red;stroke-width:1px;stroke-linecap:butt;stroke-linejoin:miter;stroke-opacity:1" d="M 777.978,378.271 794.33,369.187 z" id="boundary" inkscape:connector-curvature="0" />
	<path style="fill:none;stroke:red;stroke-width:1px;stroke-linecap:butt;stroke-linejoin:miter;stroke-opacity:1" d="M 777.978,481.832 787.062,498.183 z" id="boundary" inkscape:connector-curvature="0" />
	<path style="fill:none;stroke:red;stroke-width:1px;stroke-linecap:butt;stroke-linejoin:miter;stroke-opacity:1" d="M 787.062,498.183 796.147,514.535 z" id="boundary" inkscape:connector-curvature="0" />
	<path style="fill:none;stroke:red;stroke-width:1px;stroke-linecap:butt;stroke-linejoin:miter;stroke-opacity:1" d="M 787.062,559.956 796.147,532.703 z" id="boundary" inkscape:connector-curvature="0" />
	<path style="fill:none;stroke:red;stroke-width:1px;stroke-linecap:butt;stroke-linejoin:miter;stroke-opacity:1" d="M 794.33,280.161 812.498,276.527 z" id="boundary" inkscape:connector-curvature="0" />
	<path style="fill:none;stroke:red;stroke-width:1px;stroke-linecap:butt;stroke-linejoin:miter;stroke-opacity:1" d="M 794.33,369.187 810.681,360.103 z" id="boundary" inkscape:connector-curvature="0" />
	<path style="fill:none;stroke:red;stroke-width:1px;stroke-linecap:butt;stroke-linejoin:miter;stroke-opacity:1" d="M 796.147,514.535 796.147,532.703 z" id="boundary" inkscape:connector-curvature="0" />
	<path style="fill:none;stroke:red;stroke-width:1px;stroke-linecap:butt;stroke-linejoin:miter;stroke-opacity:1" d="M 810.681,360.103 827.033,351.018 z" id="boundary" inkscape:connector-curvature="0" />
	<path style="fill:none;stroke:red;stroke-width:1px;stroke-linecap:butt;stroke-linejoin:miter;stroke-opacity:1" d="M 812.498,276.527 828.85,267.443 z" id="boundary" inkscape:connector-curvature="0" />
	<path style="fill:none;stroke:red;stroke-width:1px;stroke-linecap:butt;stroke-linejoin:miter;stroke-opacity:1" d="M 827.033,351.018 845.201,351.018 z" id="boundary" inkscape:connector-curvature="0" />
	<path style="fill:none;stroke:red;stroke-width:1px;stroke-linecap:butt;stroke-linejoin:miter;stroke-opacity:1" d="M 828.85,267.443 847.018,267.443 z" id="boundary" inkscape:connector-curvature="0" />
	<path style="fill:none;stroke:red;stroke-width:1px;stroke-linecap:butt;stroke-linejoin:miter;stroke-opacity:1" d="M 845.201,351.018 861.553,341.934 z" id="boundary" inkscape:connector-curvature="0" />
	<path style="fill:none;stroke:red;stroke-width:1px;stroke-linecap:butt;stroke-linejoin:miter;stroke-opacity:1" d="M 847.018,267.443 865.187,267.443 z" id="boundary" inkscape:connector-curvature="0" />
	<path style="fill:none;stroke:red;stroke-width:1px;stroke-linecap:butt;stroke-linejoin:miter;stroke-opacity:1" d="M 861.553,341.934 877.905,332.85 z" id="boundary" inkscape:connector-curvature="0" />
	<path style="fill:none;stroke:red;stroke-width:1px;stroke-linecap:butt;stroke-linejoin:miter;stroke-opacity:1" d="M 865.187,267.443 881.538,258.359 z" id="boundary" inkscape:connector-curvature="0" />
	<path style="fill:none;stroke:red;stroke-width:1px;stroke-linecap:butt;stroke-linejoin:miter;stroke-opacity:1" d="M 877.905,332.85 896.073,332.85 z" id="boundary" inkscape:connector-curvature="0" />
	<path style="fill:none;stroke:red;stroke-width:1px;stroke-linecap:butt;stroke-linejoin:miter;stroke-opacity:1" d="M 881.538,258.359 899.707,258.359 z" id="boundary" inkscape:connector-curvature="0" />
	<path style="fill:none;stroke:red;stroke-width:1px;stroke-linecap:butt;stroke-linejoin:miter;stroke-opacity:1" d="M 896.073,332.85 914.242,332.85 z" id="boundary" inkscape:connector-curvature="0" />
	<path style="fill:none;stroke:red;stroke-width:1px;stroke-linecap:butt;stroke-linejoin:miter;stroke-opacity:1" d="M 899.707,258.359 916.059,249.275 z" id="boundary" inkscape:connector-curvature="0" />
	<path style="fill:none;stroke:red;stroke-width:1px;stroke-linecap:butt;stroke-linejoin:miter;stroke-opacity:1" d="M 914.242,332.85 930.593,323.766 z" id="boundary" inkscape:connector-curvature="0" />
	<path style="fill:none;stroke:red;stroke-width:1px;stroke-linecap:butt;stroke-linejoin:miter;stroke-opacity:1" d="M 916.059,249.275 934.227,242.007 z" id="boundary" inkscape:connector-curvature="0" />
	<path style="fill:none;stroke:red;stroke-width:1px;stroke-linecap:butt;stroke-linejoin:miter;stroke-opacity:1" d="M 930.593,323.766 948.762,318.315 z" id="boundary" inkscape:connector-curvature="0" />
	<path style="fill:none;stroke:red;stroke-width:1px;stroke-linecap:butt;stroke-linejoin:miter;stroke-opacity:1" d="M 934.227,242.007 952.396,242.007 z" id="boundary" inkscape:connector-curvature="0" />
	<path style="fill:none;stroke:red;stroke-width:1px;stroke-linecap:butt;stroke-linejoin:miter;stroke-opacity:1" d="M 948.762,318.315 966.93,309.231 z" id="boundary" inkscape:connector-curvature="0" />
	<path style="fill:none;stroke:red;stroke-width:1px;stroke-linecap:butt;stroke-linejoin:miter;stroke-opacity:1" d="M 952.396,242.007 970.564,240.19 z" id="boundary" inkscape:connector-curvature="0" />
	<path style="fill:none;stroke:red;stroke-width:1px;stroke-linecap:butt;stroke-linejoin:miter;stroke-opacity:1" d="M 966.93,309.231 981.465,294.696 z" id="boundary" inkscape:connector-curvature="0" />
	<path style="fill:none;stroke:red;stroke-width:1px;stroke-linecap:butt;stroke-linejoin:miter;stroke-opacity:1" d="M 970.564,240.19 986.916,249.275 z" id="boundary" inkscape:connector-curvature="0" />
	<path style="fill:none;stroke:red;stroke-width:1px;stroke-linecap:butt;stroke-linejoin:miter;stroke-opacity:1" d="M 981.465,294.696 996,265.626 z" id="boundary" inkscape:connector-curvature="0" />
	<path style="fill:none;stroke:red;stroke-width:1px;stroke-linecap:butt;stroke-linejoin:miter;stroke-opacity:1" d="M 986.916,249.275 996,265.626 z" id="boundary" inkscape:connector-curvature="0" />
	<circle cx="4" cy="672.601" r="4" fill="#0" id="circle0"/>
	<circle cx="4" cy="690.769" r="4" fill="#0" id="circle1"/>
	<circle cx="13.0842" cy="654.432" r="4" fill="#0" id="circle2"/>
	<circle cx="18.5348" cy="703.487" r="4" fill="#0" id="circle3"/>
	<circle cx="27.619" cy="639.897" r="4" fill="#0" id="circle4"/>
	<circle cx="31.2527" cy="409.158" r="4" fill="#0" id="circle5"/>
	<circle cx="31.2527" cy="427.326" r="4" fill="#0" id="circle6"/>
	<circle cx="31.2527" cy="445.495" r="4" fill="#0" id="circle7"/>
	<circle cx="31.2527" cy="463.663" r="4" fill="#0" id="circle8"/>
	<circle cx="31.2527" cy="481.832" r="4" fill="#0" id="circle9"/>
	<circle cx="31.2527" cy="500" r="4" fill="#0" id="circle10"/>
	<circle cx="31.2527" cy="518.168" r="4" fill="#0" id="circle11"/>
	<circle cx="31.2527" cy="536.337" r="4" fill="#0" id="circle12"/>
	<circle cx="31.2527" cy="554.505" r="4" fill="#0" id="circle13"/>
	<circle cx="36.7033" cy="705.304" r="4" fill="#0" id="circle14"/>
	<circle cx="40.337" cy="381.905" r="4" fill="#0" id="circle15"/>
	<circle cx="45.7875" cy="567.223" r="4" fill="#0" id="circle16"/>
	<circle cx="45.7875" cy="639.897" r="4" fill="#0" id="circle17"/>
	<circle cx="49.4212" cy="354.652" r="4" fill="#0" id="circle18"/>
	<circle cx="53.0549" cy="585.392" r="4" fill="#0" id="circle19"/>
	<circle cx="53.0549" cy="696.22" r="4" fill="#0" id="circle20"/>
	<circle cx="58.5055" cy="309.231" r="4" fill="#0" id="circle21"/>
	<circle cx="58.5055" cy="327.399" r="4" fill="#0" id="circle22"/>
	<circle cx="62.1392" cy="630.813" r="4" fill="#0" id="circle23"/>
	<circle cx="67.5897" cy="291.062" r="4" fill="#0" id="circle24"/>
	<circle cx="69.4066" cy="648.982" r="4" fill="#0" id="circle25"/>
	<circle cx="69.4066" cy="667.15" r="4" fill="#0" id="circle26"/>
	<circle cx="71.2234" cy="587.209" r="4" fill="#0" id="circle27"/>
	<circle cx="71.2234" cy="696.22" r="4" fill="#0" id="circle28"/>
	<circle cx="85.7582" cy="272.894" r="4" fill="#0" id="circle29"/>
	<circle cx="87.5751" cy="667.15" r="4" fill="#0" id="circle30"/>
	<circle cx="89.3919" cy="587.209" r="4" fill="#0" id="circle31"/>
	<circle cx="89.3919" cy="696.22" r="4" fill="#0" id="circle32"/>
	<circle cx="100.293" cy="258.359" r="4" fill="#0" id="circle33"/>
	<circle cx="105.744" cy="661.7" r="4" fill="#0" id="circle34"/>
	<circle cx="107.56" cy="587.209" r="4" fill="#0" id="circle35"/>
	<circle cx="107.56" cy="696.22" r="4" fill="#0" id="circle36"/>
	<circle cx="116.645" cy="249.275" r="4" fill="#0" id="circle37"/>
	<circle cx="120.278" cy="648.982" r="4" fill="#0" id="circle38"/>
	<circle cx="125.729" cy="232.923" r="4" fill="#0" id="circle39"/>
	<circle cx="125.729" cy="592.659" r="4" fill="#0" id="circle40"/>
	<circle cx="125.729" cy="696.22" r="4" fill="#0" id="circle41"/>
	<circle cx="136.63" cy="658.066" r="4" fill="#0" id="circle42"/>
	<circle cx="143.897" cy="231.106" r="4" fill="#0" id="circle43"/>
	<circle cx="143.897" cy="592.659" r="4" fill="#0" id="circle44"/>
	<circle cx="143.897" cy="696.22" r="4" fill="#0" id="circle45"/>
	<circle cx="152.982" cy="214.755" r="4" fill="#0" id="circle46"/>
	<circle cx="154.799" cy="648.982" r="4" fill="#0" id="circle47"/>
	<circle cx="160.249" cy="601.744" r="4" fill="#0" id="circle48"/>
	<circle cx="160.249" cy="687.136" r="4" fill="#0" id="circle49"/>
	<circle cx="171.15" cy="205.67" r="4" fill="#0" id="circle50"/>
	<circle cx="172.967" cy="639.897" r="4" fill="#0" id="circle51"/>
	<circle cx="176.601" cy="678.051" r="4" fill="#0" id="circle52"/>
	<circle cx="178.418" cy="609.011" r="4" fill="#0" id="circle53"/>
	<circle cx="189.319" cy="196.586" r="4" fill="#0" id="circle54"/>
	<circle cx="194.769" cy="678.051" r="4" fill="#0" id="circle55"/>
	<circle cx="207.487" cy="196.586" r="4" fill="#0" id="circle56"/>
	<circle cx="212.938" cy="678.051" r="4" fill="#0" id="circle57"/>
	<circle cx="225.656" cy="194.769" r="4" fill="#0" id="circle58"/>
	<circle cx="231.106" cy="678.051" r="4" fill="#0" id="circle59"/>
	<circle cx="243.824" cy="187.502" r="4" fill="#0" id="circle60"/>
	<circle cx="249.275" cy="678.051" r="4" fill="#0" id="circle61"/>
	<circle cx="261.993" cy="185.685" r="4" fill="#0" id="circle62"/>
	<circle cx="267.443" cy="672.601" r="4" fill="#0" id="circle63"/>
	<circle cx="278.344" cy="176.601" r="4" fill="#0" id="circle64"/>
	<circle cx="285.612" cy="668.967" r="4" fill="#0" id="circle65"/>
	<circle cx="294.696" cy="185.685" r="4" fill="#0" id="circle66"/>
	<circle cx="303.78" cy="668.967" r="4" fill="#0" id="circle67"/>
	<circle cx="311.048" cy="176.601" r="4" fill="#0" id="circle68"/>
	<circle cx="320.132" cy="659.883" r="4" fill="#0" id="circle69"/>
	<circle cx="329.216" cy="176.601" r="4" fill="#0" id="circle70"/>
	<circle cx="331.033" cy="36.7033" r="4" fill="#0" id="circle71"/>
	<circle cx="331.033" cy="54.8718" r="4" fill="#0" id="circle72"/>
	<circle cx="331.033" cy="73.0403" r="4" fill="#0" id="circle73"/>
	<circle cx="338.3" cy="659.883" r="4" fill="#0" id="circle74"/>
	<circle cx="345.568" cy="167.516" r="4" fill="#0" id="circle75"/>
	<circle cx="349.201" cy="31.2527" r="4" fill="#0" id="circle76"/>
	<circle cx="349.201" cy="78.4908" r="4" fill="#0" id="circle77"/>
	<circle cx="356.469" cy="659.883" r="4" fill="#0" id="circle78"/>
	<circle cx="363.736" cy="158.432" r="4" fill="#0" id="circle79"/>
	<circle cx="367.37" cy="31.2527" r="4" fill="#0" id="circle80"/>
	<circle cx="367.37" cy="78.4908" r="4" fill="#0" id="circle81"/>
	<circle cx="367.37" cy="96.6593" r="4" fill="#0" id="circle82"/>
	<circle cx="372.821" cy="114.828" r="4" fill="#0" id="circle83"/>
	<circle cx="374.637" cy="656.249" r="4" fill="#0" id="circle84"/>
	<circle cx="381.905" cy="158.432" r="4" fill="#0" id="circle85"/>
	<circle cx="385.538" cy="31.2527" r="4" fill="#0" id="circle86"/>
	<circle cx="385.538" cy="129.363" r="4" fill="#0" id="circle87"/>
	<circle cx="392.806" cy="650.799" r="4" fill="#0" id="circle88"/>
	<circle cx="401.89" cy="22.1685" r="4" fill="#0" id="circle89"/>
	<circle cx="410.974" cy="647.165" r="4" fill="#0" id="circle90"/>
	<circle cx="418.242" cy="13.0842" r="4" fill="#0" id="circle91"/>
	<circle cx="420.059" cy="628.996" r="4" fill="#0" id="circle92"/>
	<circle cx="423.692" cy="60.3223" r="4" fill="#0" id="circle93"/>
	<circle cx="423.692" cy="78.4908" r="4" fill="#0" id="circle94"/>
	<circle cx="427.326" cy="96.6593" r="4" fill="#0" id="circle95"/>
	<circle cx="430.96" cy="614.462" r="4" fill="#0" id="circle96"/>
	<circle cx="436.41" cy="13.0842" r="4" fill="#0" id="circle97"/>
	<circle cx="440.044" cy="51.2381" r="4" fill="#0" id="circle98"/>
	<circle cx="441.861" cy="109.377" r="4" fill="#0" id="circle99"/>
	<circle cx="447.311" cy="605.377" r="4" fill="#0" id="circle100"/>
	<circle cx="449.128" cy="127.546" r="4" fill="#0" id="circle101"/>
	<circle cx="452.762" cy="4" r="4" fill="#0" id="circle102"/>
	<circle cx="456.396" cy="42.1538" r="4" fill="#0" id="circle103"/>
	<circle cx="458.212" cy="143.897" r="4" fill="#0" id="circle104"/>
	<circle cx="465.48" cy="605.377" r="4" fill="#0" id="circle105"/>
	<circle cx="467.297" cy="16.7179" r="4" fill="#0" id="circle106"/>
	<circle cx="469.114" cy="158.432" r="4" fill="#0" id="circle107"/>
	<circle cx="483.648" cy="605.377" r="4" fill="#0" id="circle108"/>
	<circle cx="487.282" cy="158.432" r="4" fill="#0" id="circle109"/>
	<circle cx="501.817" cy="605.377" r="4" fill="#0" id="circle110"/>
	<circle cx="505.451" cy="158.432" r="4" fill="#0" id="circle111"/>
	<circle cx="519.985" cy="605.377" r="4" fill="#0" id="circle112"/>
	<circle cx="523.619" cy="158.432" r="4" fill="#0" id="circle113"/>
	<circle cx="538.154" cy="605.377" r="4" fill="#0" id="circle114"/>
	<circle cx="541.788" cy="158.432" r="4" fill="#0" id="circle115"/>
	<circle cx="556.322" cy="605.377" r="4" fill="#0" id="circle116"/>
	<circle cx="558.139" cy="167.516" r="4" fill="#0" id="circle117"/>
	<circle cx="563.59" cy="149.348" r="4" fill="#0" id="circle118"/>
	<circle cx="574.491" cy="605.377" r="4" fill="#0" id="circle119"/>
	<circle cx="581.758" cy="140.264" r="4" fill="#0" id="circle120"/>
	<circle cx="592.659" cy="605.377" r="4" fill="#0" id="circle121"/>
	<circle cx="594.476" cy="154.799" r="4" fill="#0" id="circle122"/>
	<circle cx="605.377" cy="169.333" r="4" fill="#0" id="circle123"/>
	<circle cx="610.828" cy="605.377" r="4" fill="#0" id="circle124"/>
	<circle cx="619.912" cy="180.234" r="4" fill="#0" id="circle125"/>
	<circle cx="623.546" cy="278.344" r="4" fill="#0" id="circle126"/>
	<circle cx="628.996" cy="605.377" r="4" fill="#0" id="circle127"/>
	<circle cx="632.63" cy="294.696" r="4" fill="#0" id="circle128"/>
	<circle cx="638.081" cy="187.502" r="4" fill="#0" id="circle129"/>
	<circle cx="641.714" cy="278.344" r="4" fill="#0" id="circle130"/>
	<circle cx="647.165" cy="203.853" r="4" fill="#0" id="circle131"/>
	<circle cx="647.165" cy="605.377" r="4" fill="#0" id="circle132"/>
	<circle cx="650.799" cy="300.147" r="4" fill="#0" id="circle133"/>
	<circle cx="659.883" cy="269.26" r="4" fill="#0" id="circle134"/>
	<circle cx="663.516" cy="212.938" r="4" fill="#0" id="circle135"/>
	<circle cx="663.516" cy="596.293" r="4" fill="#0" id="circle136"/>
	<circle cx="668.967" cy="251.092" r="4" fill="#0" id="circle137"/>
	<circle cx="668.967" cy="294.696" r="4" fill="#0" id="circle138"/>
	<circle cx="678.051" cy="223.839" r="4" fill="#0" id="circle139"/>
	<circle cx="681.685" cy="596.293" r="4" fill="#0" id="circle140"/>
	<circle cx="685.319" cy="285.612" r="4" fill="#0" id="circle141"/>
	<circle cx="687.136" cy="441.861" r="4" fill="#0" id="circle142"/>
	<circle cx="696.22" cy="458.212" r="4" fill="#0" id="circle143"/>
	<circle cx="699.853" cy="596.293" r="4" fill="#0" id="circle144"/>
	<circle cx="701.67" cy="429.143" r="4" fill="#0" id="circle145"/>
	<circle cx="703.487" cy="285.612" r="4" fill="#0" id="circle146"/>
	<circle cx="714.388" cy="458.212" r="4" fill="#0" id="circle147"/>
	<circle cx="718.022" cy="596.293" r="4" fill="#0" id="circle148"/>
	<circle cx="719.839" cy="429.143" r="4" fill="#0" id="circle149"/>
	<circle cx="721.656" cy="285.612" r="4" fill="#0" id="circle150"/>
	<circle cx="732.557" cy="458.212" r="4" fill="#0" id="circle151"/>
	<circle cx="736.19" cy="594.476" r="4" fill="#0" id="circle152"/>
	<circle cx="738.007" cy="420.059" r="4" fill="#0" id="circle153"/>
	<circle cx="739.824" cy="285.612" r="4" fill="#0" id="circle154"/>
	<circle cx="748.908" cy="467.297" r="4" fill="#0" id="circle155"/>
	<circle cx="750.725" cy="405.524" r="4" fill="#0" id="circle156"/>
	<circle cx="754.359" cy="587.209" r="4" fill="#0" id="circle157"/>
	<circle cx="757.993" cy="285.612" r="4" fill="#0" id="circle158"/>
	<circle cx="765.26" cy="392.806" r="4" fill="#0" id="circle159"/>
	<circle cx="767.077" cy="467.297" r="4" fill="#0" id="circle160"/>
	<circle cx="770.711" cy="578.125" r="4" fill="#0" id="circle161"/>
	<circle cx="776.161" cy="285.612" r="4" fill="#0" id="circle162"/>
	<circle cx="777.978" cy="378.271" r="4" fill="#0" id="circle163"/>
	<circle cx="777.978" cy="481.832" r="4" fill="#0" id="circle164"/>
	<circle cx="787.062" cy="498.183" r="4" fill="#0" id="circle165"/>
	<circle cx="787.062" cy="559.956" r="4" fill="#0" id="circle166"/>
	<circle cx="794.33" cy="280.161" r="4" fill="#0" id="circle167"/>
	<circle cx="794.33" cy="369.187" r="4" fill="#0" id="circle168"/>
	<circle cx="796.147" cy="514.535" r="4" fill="#0" id="circle169"/>
	<circle cx="796.147" cy="532.703" r="4" fill="#0" id="circle170"/>
	<circle cx="810.681" cy="360.103" r="4" fill="#0" id="circle171"/>
	<circle cx="812.498" cy="276.527" r="4" fill="#0" id="circle172"/>
	<circle cx="827.033" cy="351.018" r="4" fill="#0" id="circle173"/>
	<circle cx="828.85" cy="267.443" r="4" fill="#0" id="circle174"/>
	<circle cx="845.201" cy="351.018" r="4" fill="#0" id="circle175"/>
	<circle cx="847.018" cy="267.443" r="4" fill="#0" id="circle176"/>
	<circle cx="861.553" cy="341.934" r="4" fill="#0" id="circle177"/>
	<circle cx="865.187" cy="267.443" r="4" fill="#0" id="circle178"/>
	<circle cx="877.905" cy="332.85" r="4" fill="#0" id="circle179"/>
	<circle cx="881.538" cy="258.359" r="4" fill="#0" id="circle180"/>
	<circle cx="896.073" cy="332.85" r="4" fill="#0" id="circle181"/>
	<circle cx="899.707" cy="258.359" r="4" fill="#0" id="circle182"/>
	<circle cx="914.242" cy="332.85" r="4" fill="#0" id="circle183"/>
	<circle cx="916.059" cy="249.275" r="4" fill="#0" id="circle184"/>
	<circle cx="930.593" cy="323.766" r="4" fill="#0" id="circle185"/>
	<circle cx="934.227" cy="242.007" r="4" fill="#0" id="circle186"/>
	<circle cx="948.762" cy="318.315" r="4" fill="#0" id="circle187"/>
	<circle cx="952.396" cy="242.007" r="4" fill="#0" id="circle188"/>
	<circle cx="966.93" cy="309.231" r="4" fill="#0" id="circle189"/>
	<circle cx="970.564" cy="240.19" r="4" fill="#0" id="circle190"/>
	<circle cx="981.465" cy="294.696" r="4" fill="#0" id="circle191"/>
	<circle cx="986.916" cy="249.275" r="4" fill="#0" id="circle192"/>
	<circle cx="996" cy="265.626" r="4" fill="#0" id="circle193"/>
	</g>
</svg>