<?xml version="1.0" encoding="UTF-8" standalone="no"?>
<!-- Created with CurveBenchmark -->
<svg
	xmlns:dc="http://purl.org/dc/elements/1.1/"
	xmlns:cc="http://creativecommons.org/ns#"
	xmlns:rdf="http://www.w3.org/1999/02/22-rdf-syntax-ns#"
	xmlns:svg="http://www.w3.org/2000/svg"
	xmlns="http://www.w3.org/2000/svg"
	xmlns:sodipodi="http://sodipodi.sourceforge.net/DTD/sodipodi-0.dtd"
	xmlns:inkscape="http://www.inkscape.org/namespaces/inkscape"
	width="1000"
	height="1000"
	id="svg2"
	version="1.1"
	sodipodi:docname="manifold/vicur-flightbird18.png.txt">
<defs
	id="defs4" />
<metadata
	id="metadata7">
	<rdf:RDF>
		<cc:Work
			rdf:about="">
			<dc:format>image/svg+xml</dc:format>
			<dc:type
				rdf:resource="http://purl.org/dc/dcmitype/StillImage" />
			<dc:title></dc:title>
		</cc:Work>
	</rdf:RDF>
</metadata>
<g
	inkscape:label="Layer 1"
	inkscape:groupmode="layer"
	id="layer1">
	<path style="fill:none;stroke:red;stroke-width:1px;stroke-linecap:butt;stroke-linejoin:miter;stroke-opacity:1" d="M 4,561.909 4,576.476 z" id="boundary" inkscape:connector-curvature="0" />
	<path style="fill:none;stroke:red;stroke-width:1px;stroke-linecap:butt;stroke-linejoin:miter;stroke-opacity:1" d="M 4,561.909 15.6535,550.256 z" id="boundary" inkscape:connector-curvature="0" />
	<path style="fill:none;stroke:red;stroke-width:1px;stroke-linecap:butt;stroke-linejoin:miter;stroke-opacity:1" d="M 4,576.476 15.6535,586.673 z" id="boundary" inkscape:connector-curvature="0" />
	<path style="fill:none;stroke:red;stroke-width:1px;stroke-linecap:butt;stroke-linejoin:miter;stroke-opacity:1" d="M 15.6535,550.256 27.3069,538.602 z" id="boundary" inkscape:connector-curvature="0" />
	<path style="fill:none;stroke:red;stroke-width:1px;stroke-linecap:butt;stroke-linejoin:miter;stroke-opacity:1" d="M 15.6535,586.673 30.2203,586.673 z" id="boundary" inkscape:connector-curvature="0" />
	<path style="fill:none;stroke:red;stroke-width:1px;stroke-linecap:butt;stroke-linejoin:miter;stroke-opacity:1" d="M 27.3069,538.602 34.5903,524.035 z" id="boundary" inkscape:connector-curvature="0" />
	<path style="fill:none;stroke:red;stroke-width:1px;stroke-linecap:butt;stroke-linejoin:miter;stroke-opacity:1" d="M 30.2203,586.673 44.7871,586.673 z" id="boundary" inkscape:connector-curvature="0" />
	<path style="fill:none;stroke:red;stroke-width:1px;stroke-linecap:butt;stroke-linejoin:miter;stroke-opacity:1" d="M 34.5903,524.035 41.8737,509.468 z" id="boundary" inkscape:connector-curvature="0" />
	<path style="fill:none;stroke:red;stroke-width:1px;stroke-linecap:butt;stroke-linejoin:miter;stroke-opacity:1" d="M 37.5037,573.562 66.6373,573.562 z" id="boundary" inkscape:connector-curvature="0" />
	<path style="fill:none;stroke:red;stroke-width:1px;stroke-linecap:butt;stroke-linejoin:miter;stroke-opacity:1" d="M 41.8737,509.468 53.5272,499.272 z" id="boundary" inkscape:connector-curvature="0" />
	<path style="fill:none;stroke:red;stroke-width:1px;stroke-linecap:butt;stroke-linejoin:miter;stroke-opacity:1" d="M 44.7871,586.673 59.3539,586.673 z" id="boundary" inkscape:connector-curvature="0" />
	<path style="fill:none;stroke:red;stroke-width:1px;stroke-linecap:butt;stroke-linejoin:miter;stroke-opacity:1" d="M 53.5272,499.272 63.7239,487.618 z" id="boundary" inkscape:connector-curvature="0" />
	<path style="fill:none;stroke:red;stroke-width:1px;stroke-linecap:butt;stroke-linejoin:miter;stroke-opacity:1" d="M 59.3539,586.673 73.9207,586.673 z" id="boundary" inkscape:connector-curvature="0" />
	<path style="fill:none;stroke:red;stroke-width:1px;stroke-linecap:butt;stroke-linejoin:miter;stroke-opacity:1" d="M 63.7239,487.618 75.3774,477.421 z" id="boundary" inkscape:connector-curvature="0" />
	<path style="fill:none;stroke:red;stroke-width:1px;stroke-linecap:butt;stroke-linejoin:miter;stroke-opacity:1" d="M 66.6373,573.562 95.7709,564.822 z" id="boundary" inkscape:connector-curvature="0" />
	<path style="fill:none;stroke:red;stroke-width:1px;stroke-linecap:butt;stroke-linejoin:miter;stroke-opacity:1" d="M 73.9207,586.673 88.4875,579.389 z" id="boundary" inkscape:connector-curvature="0" />
	<path style="fill:none;stroke:red;stroke-width:1px;stroke-linecap:butt;stroke-linejoin:miter;stroke-opacity:1" d="M 75.3774,477.421 85.5742,465.768 z" id="boundary" inkscape:connector-curvature="0" />
	<path style="fill:none;stroke:red;stroke-width:1px;stroke-linecap:butt;stroke-linejoin:miter;stroke-opacity:1" d="M 85.5742,465.768 100.141,458.485 z" id="boundary" inkscape:connector-curvature="0" />
	<path style="fill:none;stroke:red;stroke-width:1px;stroke-linecap:butt;stroke-linejoin:miter;stroke-opacity:1" d="M 88.4875,579.389 95.7709,564.822 z" id="boundary" inkscape:connector-curvature="0" />
	<path style="fill:none;stroke:red;stroke-width:1px;stroke-linecap:butt;stroke-linejoin:miter;stroke-opacity:1" d="M 100.141,458.485 107.424,443.918 z" id="boundary" inkscape:connector-curvature="0" />
	<path style="fill:none;stroke:red;stroke-width:1px;stroke-linecap:butt;stroke-linejoin:miter;stroke-opacity:1" d="M 107.424,443.918 121.991,436.634 z" id="boundary" inkscape:connector-curvature="0" />
	<path style="fill:none;stroke:red;stroke-width:1px;stroke-linecap:butt;stroke-linejoin:miter;stroke-opacity:1" d="M 110.338,564.822 124.905,558.996 z" id="boundary" inkscape:connector-curvature="0" />
	<path style="fill:none;stroke:red;stroke-width:1px;stroke-linecap:butt;stroke-linejoin:miter;stroke-opacity:1" d="M 121.991,436.634 136.558,433.721 z" id="boundary" inkscape:connector-curvature="0" />
	<path style="fill:none;stroke:red;stroke-width:1px;stroke-linecap:butt;stroke-linejoin:miter;stroke-opacity:1" d="M 124.905,558.996 138.015,551.712 z" id="boundary" inkscape:connector-curvature="0" />
	<path style="fill:none;stroke:red;stroke-width:1px;stroke-linecap:butt;stroke-linejoin:miter;stroke-opacity:1" d="M 136.558,433.721 149.668,426.438 z" id="boundary" inkscape:connector-curvature="0" />
	<path style="fill:none;stroke:red;stroke-width:1px;stroke-linecap:butt;stroke-linejoin:miter;stroke-opacity:1" d="M 138.015,551.712 151.125,544.429 z" id="boundary" inkscape:connector-curvature="0" />
	<path style="fill:none;stroke:red;stroke-width:1px;stroke-linecap:butt;stroke-linejoin:miter;stroke-opacity:1" d="M 149.668,426.438 162.778,419.154 z" id="boundary" inkscape:connector-curvature="0" />
	<path style="fill:none;stroke:red;stroke-width:1px;stroke-linecap:butt;stroke-linejoin:miter;stroke-opacity:1" d="M 151.125,544.429 165.692,544.429 z" id="boundary" inkscape:connector-curvature="0" />
	<path style="fill:none;stroke:red;stroke-width:1px;stroke-linecap:butt;stroke-linejoin:miter;stroke-opacity:1" d="M 162.778,419.154 172.975,407.501 z" id="boundary" inkscape:connector-curvature="0" />
	<path style="fill:none;stroke:red;stroke-width:1px;stroke-linecap:butt;stroke-linejoin:miter;stroke-opacity:1" d="M 165.692,544.429 177.345,534.232 z" id="boundary" inkscape:connector-curvature="0" />
	<path style="fill:none;stroke:red;stroke-width:1px;stroke-linecap:butt;stroke-linejoin:miter;stroke-opacity:1" d="M 172.975,407.501 184.628,397.304 z" id="boundary" inkscape:connector-curvature="0" />
	<path style="fill:none;stroke:red;stroke-width:1px;stroke-linecap:butt;stroke-linejoin:miter;stroke-opacity:1" d="M 177.345,534.232 191.912,529.862 z" id="boundary" inkscape:connector-curvature="0" />
	<path style="fill:none;stroke:red;stroke-width:1px;stroke-linecap:butt;stroke-linejoin:miter;stroke-opacity:1" d="M 184.628,397.304 194.825,385.651 z" id="boundary" inkscape:connector-curvature="0" />
	<path style="fill:none;stroke:red;stroke-width:1px;stroke-linecap:butt;stroke-linejoin:miter;stroke-opacity:1" d="M 191.912,529.862 206.479,526.949 z" id="boundary" inkscape:connector-curvature="0" />
	<path style="fill:none;stroke:red;stroke-width:1px;stroke-linecap:butt;stroke-linejoin:miter;stroke-opacity:1" d="M 194.825,385.651 209.392,378.367 z" id="boundary" inkscape:connector-curvature="0" />
	<path style="fill:none;stroke:red;stroke-width:1px;stroke-linecap:butt;stroke-linejoin:miter;stroke-opacity:1" d="M 206.479,526.949 221.046,522.579 z" id="boundary" inkscape:connector-curvature="0" />
	<path style="fill:none;stroke:red;stroke-width:1px;stroke-linecap:butt;stroke-linejoin:miter;stroke-opacity:1" d="M 209.392,378.367 223.959,375.454 z" id="boundary" inkscape:connector-curvature="0" />
	<path style="fill:none;stroke:red;stroke-width:1px;stroke-linecap:butt;stroke-linejoin:miter;stroke-opacity:1" d="M 221.046,522.579 235.612,522.579 z" id="boundary" inkscape:connector-curvature="0" />
	<path style="fill:none;stroke:red;stroke-width:1px;stroke-linecap:butt;stroke-linejoin:miter;stroke-opacity:1" d="M 223.959,375.454 238.526,375.454 z" id="boundary" inkscape:connector-curvature="0" />
	<path style="fill:none;stroke:red;stroke-width:1px;stroke-linecap:butt;stroke-linejoin:miter;stroke-opacity:1" d="M 235.612,522.579 250.179,522.579 z" id="boundary" inkscape:connector-curvature="0" />
	<path style="fill:none;stroke:red;stroke-width:1px;stroke-linecap:butt;stroke-linejoin:miter;stroke-opacity:1" d="M 238.526,375.454 253.093,375.454 z" id="boundary" inkscape:connector-curvature="0" />
	<path style="fill:none;stroke:red;stroke-width:1px;stroke-linecap:butt;stroke-linejoin:miter;stroke-opacity:1" d="M 250.179,522.579 263.289,513.838 z" id="boundary" inkscape:connector-curvature="0" />
	<path style="fill:none;stroke:red;stroke-width:1px;stroke-linecap:butt;stroke-linejoin:miter;stroke-opacity:1" d="M 253.093,375.454 267.659,375.454 z" id="boundary" inkscape:connector-curvature="0" />
	<path style="fill:none;stroke:red;stroke-width:1px;stroke-linecap:butt;stroke-linejoin:miter;stroke-opacity:1" d="M 263.289,513.838 277.856,513.838 z" id="boundary" inkscape:connector-curvature="0" />
	<path style="fill:none;stroke:red;stroke-width:1px;stroke-linecap:butt;stroke-linejoin:miter;stroke-opacity:1" d="M 267.659,375.454 282.226,375.454 z" id="boundary" inkscape:connector-curvature="0" />
	<path style="fill:none;stroke:red;stroke-width:1px;stroke-linecap:butt;stroke-linejoin:miter;stroke-opacity:1" d="M 277.856,513.838 292.423,513.838 z" id="boundary" inkscape:connector-curvature="0" />
	<path style="fill:none;stroke:red;stroke-width:1px;stroke-linecap:butt;stroke-linejoin:miter;stroke-opacity:1" d="M 282.226,375.454 296.793,371.084 z" id="boundary" inkscape:connector-curvature="0" />
	<path style="fill:none;stroke:red;stroke-width:1px;stroke-linecap:butt;stroke-linejoin:miter;stroke-opacity:1" d="M 292.423,513.838 306.99,508.012 z" id="boundary" inkscape:connector-curvature="0" />
	<path style="fill:none;stroke:red;stroke-width:1px;stroke-linecap:butt;stroke-linejoin:miter;stroke-opacity:1" d="M 296.793,371.084 311.36,368.17 z" id="boundary" inkscape:connector-curvature="0" />
	<path style="fill:none;stroke:red;stroke-width:1px;stroke-linecap:butt;stroke-linejoin:miter;stroke-opacity:1" d="M 306.99,508.012 320.1,500.728 z" id="boundary" inkscape:connector-curvature="0" />
	<path style="fill:none;stroke:red;stroke-width:1px;stroke-linecap:butt;stroke-linejoin:miter;stroke-opacity:1" d="M 311.36,368.17 325.927,363.8 z" id="boundary" inkscape:connector-curvature="0" />
	<path style="fill:none;stroke:red;stroke-width:1px;stroke-linecap:butt;stroke-linejoin:miter;stroke-opacity:1" d="M 320.1,500.728 334.667,500.728 z" id="boundary" inkscape:connector-curvature="0" />
	<path style="fill:none;stroke:red;stroke-width:1px;stroke-linecap:butt;stroke-linejoin:miter;stroke-opacity:1" d="M 325.927,363.8 340.493,356.517 z" id="boundary" inkscape:connector-curvature="0" />
	<path style="fill:none;stroke:red;stroke-width:1px;stroke-linecap:butt;stroke-linejoin:miter;stroke-opacity:1" d="M 334.667,500.728 349.233,500.728 z" id="boundary" inkscape:connector-curvature="0" />
	<path style="fill:none;stroke:red;stroke-width:1px;stroke-linecap:butt;stroke-linejoin:miter;stroke-opacity:1" d="M 340.493,356.517 355.06,353.604 z" id="boundary" inkscape:connector-curvature="0" />
	<path style="fill:none;stroke:red;stroke-width:1px;stroke-linecap:butt;stroke-linejoin:miter;stroke-opacity:1" d="M 349.233,500.728 363.8,500.728 z" id="boundary" inkscape:connector-curvature="0" />
	<path style="fill:none;stroke:red;stroke-width:1px;stroke-linecap:butt;stroke-linejoin:miter;stroke-opacity:1" d="M 355.06,353.604 368.17,343.407 z" id="boundary" inkscape:connector-curvature="0" />
	<path style="fill:none;stroke:red;stroke-width:1px;stroke-linecap:butt;stroke-linejoin:miter;stroke-opacity:1" d="M 363.8,500.728 376.91,493.445 z" id="boundary" inkscape:connector-curvature="0" />
	<path style="fill:none;stroke:red;stroke-width:1px;stroke-linecap:butt;stroke-linejoin:miter;stroke-opacity:1" d="M 368.17,343.407 382.737,339.037 z" id="boundary" inkscape:connector-curvature="0" />
	<path style="fill:none;stroke:red;stroke-width:1px;stroke-linecap:butt;stroke-linejoin:miter;stroke-opacity:1" d="M 376.91,493.445 391.477,486.162 z" id="boundary" inkscape:connector-curvature="0" />
	<path style="fill:none;stroke:red;stroke-width:1px;stroke-linecap:butt;stroke-linejoin:miter;stroke-opacity:1" d="M 379.824,54.9838 385.651,69.5507 z" id="boundary" inkscape:connector-curvature="0" />
	<path style="fill:none;stroke:red;stroke-width:1px;stroke-linecap:butt;stroke-linejoin:miter;stroke-opacity:1" d="M 379.824,54.9838 394.391,54.9838 z" id="boundary" inkscape:connector-curvature="0" />
	<path style="fill:none;stroke:red;stroke-width:1px;stroke-linecap:butt;stroke-linejoin:miter;stroke-opacity:1" d="M 382.737,339.037 397.304,339.037 z" id="boundary" inkscape:connector-curvature="0" />
	<path style="fill:none;stroke:red;stroke-width:1px;stroke-linecap:butt;stroke-linejoin:miter;stroke-opacity:1" d="M 385.651,69.5507 397.304,78.2907 z" id="boundary" inkscape:connector-curvature="0" />
	<path style="fill:none;stroke:red;stroke-width:1px;stroke-linecap:butt;stroke-linejoin:miter;stroke-opacity:1" d="M 391.477,486.162 406.044,486.162 z" id="boundary" inkscape:connector-curvature="0" />
	<path style="fill:none;stroke:red;stroke-width:1px;stroke-linecap:butt;stroke-linejoin:miter;stroke-opacity:1" d="M 394.391,54.9838 406.044,66.6373 z" id="boundary" inkscape:connector-curvature="0" />
	<path style="fill:none;stroke:red;stroke-width:1px;stroke-linecap:butt;stroke-linejoin:miter;stroke-opacity:1" d="M 397.304,78.2907 406.044,89.9442 z" id="boundary" inkscape:connector-curvature="0" />
	<path style="fill:none;stroke:red;stroke-width:1px;stroke-linecap:butt;stroke-linejoin:miter;stroke-opacity:1" d="M 397.304,339.037 410.414,331.753 z" id="boundary" inkscape:connector-curvature="0" />
	<path style="fill:none;stroke:red;stroke-width:1px;stroke-linecap:butt;stroke-linejoin:miter;stroke-opacity:1" d="M 406.044,66.6373 420.611,84.1175 z" id="boundary" inkscape:connector-curvature="0" />
	<path style="fill:none;stroke:red;stroke-width:1px;stroke-linecap:butt;stroke-linejoin:miter;stroke-opacity:1" d="M 406.044,89.9442 413.327,103.054 z" id="boundary" inkscape:connector-curvature="0" />
	<path style="fill:none;stroke:red;stroke-width:1px;stroke-linecap:butt;stroke-linejoin:miter;stroke-opacity:1" d="M 406.044,486.162 417.698,475.965 z" id="boundary" inkscape:connector-curvature="0" />
	<path style="fill:none;stroke:red;stroke-width:1px;stroke-linecap:butt;stroke-linejoin:miter;stroke-opacity:1" d="M 410.414,331.753 423.524,324.47 z" id="boundary" inkscape:connector-curvature="0" />
	<path style="fill:none;stroke:red;stroke-width:1px;stroke-linecap:butt;stroke-linejoin:miter;stroke-opacity:1" d="M 413.327,103.054 423.524,114.708 z" id="boundary" inkscape:connector-curvature="0" />
	<path style="fill:none;stroke:red;stroke-width:1px;stroke-linecap:butt;stroke-linejoin:miter;stroke-opacity:1" d="M 417.698,475.965 432.264,468.681 z" id="boundary" inkscape:connector-curvature="0" />
	<path style="fill:none;stroke:red;stroke-width:1px;stroke-linecap:butt;stroke-linejoin:miter;stroke-opacity:1" d="M 420.611,84.1175 432.264,92.8576 z" id="boundary" inkscape:connector-curvature="0" />
	<path style="fill:none;stroke:red;stroke-width:1px;stroke-linecap:butt;stroke-linejoin:miter;stroke-opacity:1" d="M 423.524,114.708 430.808,127.818 z" id="boundary" inkscape:connector-curvature="0" />
	<path style="fill:none;stroke:red;stroke-width:1px;stroke-linecap:butt;stroke-linejoin:miter;stroke-opacity:1" d="M 423.524,324.47 435.178,312.816 z" id="boundary" inkscape:connector-curvature="0" />
	<path style="fill:none;stroke:red;stroke-width:1px;stroke-linecap:butt;stroke-linejoin:miter;stroke-opacity:1" d="M 430.808,127.818 441.004,139.471 z" id="boundary" inkscape:connector-curvature="0" />
	<path style="fill:none;stroke:red;stroke-width:1px;stroke-linecap:butt;stroke-linejoin:miter;stroke-opacity:1" d="M 432.264,92.8576 442.461,104.511 z" id="boundary" inkscape:connector-curvature="0" />
	<path style="fill:none;stroke:red;stroke-width:1px;stroke-linecap:butt;stroke-linejoin:miter;stroke-opacity:1" d="M 432.264,468.681 439.548,454.115 z" id="boundary" inkscape:connector-curvature="0" />
	<path style="fill:none;stroke:red;stroke-width:1px;stroke-linecap:butt;stroke-linejoin:miter;stroke-opacity:1" d="M 435.178,312.816 441.004,285.14 z" id="boundary" inkscape:connector-curvature="0" />
	<path style="fill:none;stroke:red;stroke-width:1px;stroke-linecap:butt;stroke-linejoin:miter;stroke-opacity:1" d="M 439.548,454.115 448.288,442.461 z" id="boundary" inkscape:connector-curvature="0" />
	<path style="fill:none;stroke:red;stroke-width:1px;stroke-linecap:butt;stroke-linejoin:miter;stroke-opacity:1" d="M 441.004,139.471 452.658,149.668 z" id="boundary" inkscape:connector-curvature="0" />
	<path style="fill:none;stroke:red;stroke-width:1px;stroke-linecap:butt;stroke-linejoin:miter;stroke-opacity:1" d="M 441.004,190.455 441.004,205.022 z" id="boundary" inkscape:connector-curvature="0" />
	<path style="fill:none;stroke:red;stroke-width:1px;stroke-linecap:butt;stroke-linejoin:miter;stroke-opacity:1" d="M 441.004,190.455 448.288,175.888 z" id="boundary" inkscape:connector-curvature="0" />
	<path style="fill:none;stroke:red;stroke-width:1px;stroke-linecap:butt;stroke-linejoin:miter;stroke-opacity:1" d="M 441.004,205.022 441.004,226.872 z" id="boundary" inkscape:connector-curvature="0" />
	<path style="fill:none;stroke:red;stroke-width:1px;stroke-linecap:butt;stroke-linejoin:miter;stroke-opacity:1" d="M 441.004,226.872 448.288,239.982 z" id="boundary" inkscape:connector-curvature="0" />
	<path style="fill:none;stroke:red;stroke-width:1px;stroke-linecap:butt;stroke-linejoin:miter;stroke-opacity:1" d="M 441.004,285.14 448.288,269.116 z" id="boundary" inkscape:connector-curvature="0" />
	<path style="fill:none;stroke:red;stroke-width:1px;stroke-linecap:butt;stroke-linejoin:miter;stroke-opacity:1" d="M 442.461,104.511 454.115,114.708 z" id="boundary" inkscape:connector-curvature="0" />
	<path style="fill:none;stroke:red;stroke-width:1px;stroke-linecap:butt;stroke-linejoin:miter;stroke-opacity:1" d="M 448.288,175.888 459.941,164.235 z" id="boundary" inkscape:connector-curvature="0" />
	<path style="fill:none;stroke:red;stroke-width:1px;stroke-linecap:butt;stroke-linejoin:miter;stroke-opacity:1" d="M 448.288,239.982 448.288,254.549 z" id="boundary" inkscape:connector-curvature="0" />
	<path style="fill:none;stroke:red;stroke-width:1px;stroke-linecap:butt;stroke-linejoin:miter;stroke-opacity:1" d="M 448.288,254.549 448.288,269.116 z" id="boundary" inkscape:connector-curvature="0" />
	<path style="fill:none;stroke:red;stroke-width:1px;stroke-linecap:butt;stroke-linejoin:miter;stroke-opacity:1" d="M 448.288,442.461 462.855,442.461 z" id="boundary" inkscape:connector-curvature="0" />
	<path style="fill:none;stroke:red;stroke-width:1px;stroke-linecap:butt;stroke-linejoin:miter;stroke-opacity:1" d="M 452.658,149.668 459.941,164.235 z" id="boundary" inkscape:connector-curvature="0" />
	<path style="fill:none;stroke:red;stroke-width:1px;stroke-linecap:butt;stroke-linejoin:miter;stroke-opacity:1" d="M 454.115,114.708 464.311,126.361 z" id="boundary" inkscape:connector-curvature="0" />
	<path style="fill:none;stroke:red;stroke-width:1px;stroke-linecap:butt;stroke-linejoin:miter;stroke-opacity:1" d="M 462.855,442.461 475.965,435.178 z" id="boundary" inkscape:connector-curvature="0" />
	<path style="fill:none;stroke:red;stroke-width:1px;stroke-linecap:butt;stroke-linejoin:miter;stroke-opacity:1" d="M 464.311,126.361 475.965,136.558 z" id="boundary" inkscape:connector-curvature="0" />
	<path style="fill:none;stroke:red;stroke-width:1px;stroke-linecap:butt;stroke-linejoin:miter;stroke-opacity:1" d="M 475.965,136.558 489.075,143.841 z" id="boundary" inkscape:connector-curvature="0" />
	<path style="fill:none;stroke:red;stroke-width:1px;stroke-linecap:butt;stroke-linejoin:miter;stroke-opacity:1" d="M 475.965,435.178 490.532,435.178 z" id="boundary" inkscape:connector-curvature="0" />
	<path style="fill:none;stroke:red;stroke-width:1px;stroke-linecap:butt;stroke-linejoin:miter;stroke-opacity:1" d="M 489.075,143.841 500.728,154.038 z" id="boundary" inkscape:connector-curvature="0" />
	<path style="fill:none;stroke:red;stroke-width:1px;stroke-linecap:butt;stroke-linejoin:miter;stroke-opacity:1" d="M 490.532,435.178 503.642,427.894 z" id="boundary" inkscape:connector-curvature="0" />
	<path style="fill:none;stroke:red;stroke-width:1px;stroke-linecap:butt;stroke-linejoin:miter;stroke-opacity:1" d="M 500.728,154.038 510.925,165.692 z" id="boundary" inkscape:connector-curvature="0" />
	<path style="fill:none;stroke:red;stroke-width:1px;stroke-linecap:butt;stroke-linejoin:miter;stroke-opacity:1" d="M 503.642,427.894 518.209,433.721 z" id="boundary" inkscape:connector-curvature="0" />
	<path style="fill:none;stroke:red;stroke-width:1px;stroke-linecap:butt;stroke-linejoin:miter;stroke-opacity:1" d="M 510.925,165.692 518.209,178.802 z" id="boundary" inkscape:connector-curvature="0" />
	<path style="fill:none;stroke:red;stroke-width:1px;stroke-linecap:butt;stroke-linejoin:miter;stroke-opacity:1" d="M 518.209,178.802 522.579,193.369 z" id="boundary" inkscape:connector-curvature="0" />
	<path style="fill:none;stroke:red;stroke-width:1px;stroke-linecap:butt;stroke-linejoin:miter;stroke-opacity:1" d="M 518.209,433.721 521.122,448.288 z" id="boundary" inkscape:connector-curvature="0" />
	<path style="fill:none;stroke:red;stroke-width:1px;stroke-linecap:butt;stroke-linejoin:miter;stroke-opacity:1" d="M 521.122,448.288 521.122,462.855 z" id="boundary" inkscape:connector-curvature="0" />
	<path style="fill:none;stroke:red;stroke-width:1px;stroke-linecap:butt;stroke-linejoin:miter;stroke-opacity:1" d="M 521.122,462.855 521.122,477.421 z" id="boundary" inkscape:connector-curvature="0" />
	<path style="fill:none;stroke:red;stroke-width:1px;stroke-linecap:butt;stroke-linejoin:miter;stroke-opacity:1" d="M 521.122,477.421 529.862,489.075 z" id="boundary" inkscape:connector-curvature="0" />
	<path style="fill:none;stroke:red;stroke-width:1px;stroke-linecap:butt;stroke-linejoin:miter;stroke-opacity:1" d="M 522.579,193.369 522.579,207.935 z" id="boundary" inkscape:connector-curvature="0" />
	<path style="fill:none;stroke:red;stroke-width:1px;stroke-linecap:butt;stroke-linejoin:miter;stroke-opacity:1" d="M 522.579,207.935 522.579,231.242 z" id="boundary" inkscape:connector-curvature="0" />
	<path style="fill:none;stroke:red;stroke-width:1px;stroke-linecap:butt;stroke-linejoin:miter;stroke-opacity:1" d="M 522.579,231.242 529.862,244.352 z" id="boundary" inkscape:connector-curvature="0" />
	<path style="fill:none;stroke:red;stroke-width:1px;stroke-linecap:butt;stroke-linejoin:miter;stroke-opacity:1" d="M 529.862,244.352 544.429,244.352 z" id="boundary" inkscape:connector-curvature="0" />
	<path style="fill:none;stroke:red;stroke-width:1px;stroke-linecap:butt;stroke-linejoin:miter;stroke-opacity:1" d="M 529.862,489.075 544.429,493.445 z" id="boundary" inkscape:connector-curvature="0" />
	<path style="fill:none;stroke:red;stroke-width:1px;stroke-linecap:butt;stroke-linejoin:miter;stroke-opacity:1" d="M 544.429,244.352 558.996,239.982 z" id="boundary" inkscape:connector-curvature="0" />
	<path style="fill:none;stroke:red;stroke-width:1px;stroke-linecap:butt;stroke-linejoin:miter;stroke-opacity:1" d="M 544.429,493.445 558.996,486.162 z" id="boundary" inkscape:connector-curvature="0" />
	<path style="fill:none;stroke:red;stroke-width:1px;stroke-linecap:butt;stroke-linejoin:miter;stroke-opacity:1" d="M 558.996,239.982 570.649,229.786 z" id="boundary" inkscape:connector-curvature="0" />
	<path style="fill:none;stroke:red;stroke-width:1px;stroke-linecap:butt;stroke-linejoin:miter;stroke-opacity:1" d="M 558.996,486.162 573.562,486.162 z" id="boundary" inkscape:connector-curvature="0" />
	<path style="fill:none;stroke:red;stroke-width:1px;stroke-linecap:butt;stroke-linejoin:miter;stroke-opacity:1" d="M 570.649,229.786 583.759,222.502 z" id="boundary" inkscape:connector-curvature="0" />
	<path style="fill:none;stroke:red;stroke-width:1px;stroke-linecap:butt;stroke-linejoin:miter;stroke-opacity:1" d="M 573.562,384.194 573.562,398.761 z" id="boundary" inkscape:connector-curvature="0" />
	<path style="fill:none;stroke:red;stroke-width:1px;stroke-linecap:butt;stroke-linejoin:miter;stroke-opacity:1" d="M 573.562,384.194 585.216,373.997 z" id="boundary" inkscape:connector-curvature="0" />
	<path style="fill:none;stroke:red;stroke-width:1px;stroke-linecap:butt;stroke-linejoin:miter;stroke-opacity:1" d="M 573.562,398.761 585.216,407.501 z" id="boundary" inkscape:connector-curvature="0" />
	<path style="fill:none;stroke:red;stroke-width:1px;stroke-linecap:butt;stroke-linejoin:miter;stroke-opacity:1" d="M 573.562,486.162 588.129,471.595 z" id="boundary" inkscape:connector-curvature="0" />
	<path style="fill:none;stroke:red;stroke-width:1px;stroke-linecap:butt;stroke-linejoin:miter;stroke-opacity:1" d="M 583.759,222.502 598.326,222.502 z" id="boundary" inkscape:connector-curvature="0" />
	<path style="fill:none;stroke:red;stroke-width:1px;stroke-linecap:butt;stroke-linejoin:miter;stroke-opacity:1" d="M 585.216,373.997 599.783,366.714 z" id="boundary" inkscape:connector-curvature="0" />
	<path style="fill:none;stroke:red;stroke-width:1px;stroke-linecap:butt;stroke-linejoin:miter;stroke-opacity:1" d="M 585.216,407.501 592.499,420.611 z" id="boundary" inkscape:connector-curvature="0" />
	<path style="fill:none;stroke:red;stroke-width:1px;stroke-linecap:butt;stroke-linejoin:miter;stroke-opacity:1" d="M 588.129,471.595 599.783,461.398 z" id="boundary" inkscape:connector-curvature="0" />
	<path style="fill:none;stroke:red;stroke-width:1px;stroke-linecap:butt;stroke-linejoin:miter;stroke-opacity:1" d="M 592.499,420.611 602.696,432.264 z" id="boundary" inkscape:connector-curvature="0" />
	<path style="fill:none;stroke:red;stroke-width:1px;stroke-linecap:butt;stroke-linejoin:miter;stroke-opacity:1" d="M 598.326,222.502 611.436,215.219 z" id="boundary" inkscape:connector-curvature="0" />
	<path style="fill:none;stroke:red;stroke-width:1px;stroke-linecap:butt;stroke-linejoin:miter;stroke-opacity:1" d="M 599.783,366.714 608.523,355.06 z" id="boundary" inkscape:connector-curvature="0" />
	<path style="fill:none;stroke:red;stroke-width:1px;stroke-linecap:butt;stroke-linejoin:miter;stroke-opacity:1" d="M 599.783,461.398 607.066,446.831 z" id="boundary" inkscape:connector-curvature="0" />
	<path style="fill:none;stroke:red;stroke-width:1px;stroke-linecap:butt;stroke-linejoin:miter;stroke-opacity:1" d="M 602.696,432.264 607.066,446.831 z" id="boundary" inkscape:connector-curvature="0" />
	<path style="fill:none;stroke:red;stroke-width:1px;stroke-linecap:butt;stroke-linejoin:miter;stroke-opacity:1" d="M 608.523,355.06 620.176,346.32 z" id="boundary" inkscape:connector-curvature="0" />
	<path style="fill:none;stroke:red;stroke-width:1px;stroke-linecap:butt;stroke-linejoin:miter;stroke-opacity:1" d="M 611.436,215.219 623.09,205.022 z" id="boundary" inkscape:connector-curvature="0" />
	<path style="fill:none;stroke:red;stroke-width:1px;stroke-linecap:butt;stroke-linejoin:miter;stroke-opacity:1" d="M 620.176,346.32 634.743,339.037 z" id="boundary" inkscape:connector-curvature="0" />
	<path style="fill:none;stroke:red;stroke-width:1px;stroke-linecap:butt;stroke-linejoin:miter;stroke-opacity:1" d="M 623.09,205.022 634.743,193.369 z" id="boundary" inkscape:connector-curvature="0" />
	<path style="fill:none;stroke:red;stroke-width:1px;stroke-linecap:butt;stroke-linejoin:miter;stroke-opacity:1" d="M 634.743,193.369 647.853,186.085 z" id="boundary" inkscape:connector-curvature="0" />
	<path style="fill:none;stroke:red;stroke-width:1px;stroke-linecap:butt;stroke-linejoin:miter;stroke-opacity:1" d="M 634.743,339.037 646.396,325.927 z" id="boundary" inkscape:connector-curvature="0" />
	<path style="fill:none;stroke:red;stroke-width:1px;stroke-linecap:butt;stroke-linejoin:miter;stroke-opacity:1" d="M 646.396,325.927 660.963,325.927 z" id="boundary" inkscape:connector-curvature="0" />
	<path style="fill:none;stroke:red;stroke-width:1px;stroke-linecap:butt;stroke-linejoin:miter;stroke-opacity:1" d="M 647.853,186.085 659.507,175.888 z" id="boundary" inkscape:connector-curvature="0" />
	<path style="fill:none;stroke:red;stroke-width:1px;stroke-linecap:butt;stroke-linejoin:miter;stroke-opacity:1" d="M 659.507,175.888 666.79,161.322 z" id="boundary" inkscape:connector-curvature="0" />
	<path style="fill:none;stroke:red;stroke-width:1px;stroke-linecap:butt;stroke-linejoin:miter;stroke-opacity:1" d="M 660.963,325.927 675.53,325.927 z" id="boundary" inkscape:connector-curvature="0" />
	<path style="fill:none;stroke:red;stroke-width:1px;stroke-linecap:butt;stroke-linejoin:miter;stroke-opacity:1" d="M 666.79,161.322 678.443,149.668 z" id="boundary" inkscape:connector-curvature="0" />
	<path style="fill:none;stroke:red;stroke-width:1px;stroke-linecap:butt;stroke-linejoin:miter;stroke-opacity:1" d="M 675.53,325.927 690.097,318.643 z" id="boundary" inkscape:connector-curvature="0" />
	<path style="fill:none;stroke:red;stroke-width:1px;stroke-linecap:butt;stroke-linejoin:miter;stroke-opacity:1" d="M 678.443,149.668 690.097,138.015 z" id="boundary" inkscape:connector-curvature="0" />
	<path style="fill:none;stroke:red;stroke-width:1px;stroke-linecap:butt;stroke-linejoin:miter;stroke-opacity:1" d="M 690.097,138.015 701.75,127.818 z" id="boundary" inkscape:connector-curvature="0" />
	<path style="fill:none;stroke:red;stroke-width:1px;stroke-linecap:butt;stroke-linejoin:miter;stroke-opacity:1" d="M 690.097,318.643 704.664,311.36 z" id="boundary" inkscape:connector-curvature="0" />
	<path style="fill:none;stroke:red;stroke-width:1px;stroke-linecap:butt;stroke-linejoin:miter;stroke-opacity:1" d="M 701.75,127.818 703.207,110.338 z" id="boundary" inkscape:connector-curvature="0" />
	<path style="fill:none;stroke:red;stroke-width:1px;stroke-linecap:butt;stroke-linejoin:miter;stroke-opacity:1" d="M 703.207,110.338 714.86,98.6843 z" id="boundary" inkscape:connector-curvature="0" />
	<path style="fill:none;stroke:red;stroke-width:1px;stroke-linecap:butt;stroke-linejoin:miter;stroke-opacity:1" d="M 704.664,311.36 716.317,301.163 z" id="boundary" inkscape:connector-curvature="0" />
	<path style="fill:none;stroke:red;stroke-width:1px;stroke-linecap:butt;stroke-linejoin:miter;stroke-opacity:1" d="M 714.86,98.6843 726.514,87.0308 z" id="boundary" inkscape:connector-curvature="0" />
	<path style="fill:none;stroke:red;stroke-width:1px;stroke-linecap:butt;stroke-linejoin:miter;stroke-opacity:1" d="M 716.317,301.163 726.514,289.51 z" id="boundary" inkscape:connector-curvature="0" />
	<path style="fill:none;stroke:red;stroke-width:1px;stroke-linecap:butt;stroke-linejoin:miter;stroke-opacity:1" d="M 726.514,87.0308 732.341,66.6373 z" id="boundary" inkscape:connector-curvature="0" />
	<path style="fill:none;stroke:red;stroke-width:1px;stroke-linecap:butt;stroke-linejoin:miter;stroke-opacity:1" d="M 726.514,289.51 738.167,279.313 z" id="boundary" inkscape:connector-curvature="0" />
	<path style="fill:none;stroke:red;stroke-width:1px;stroke-linecap:butt;stroke-linejoin:miter;stroke-opacity:1" d="M 732.341,66.6373 743.994,54.9838 z" id="boundary" inkscape:connector-curvature="0" />
	<path style="fill:none;stroke:red;stroke-width:1px;stroke-linecap:butt;stroke-linejoin:miter;stroke-opacity:1" d="M 738.167,279.313 748.364,267.659 z" id="boundary" inkscape:connector-curvature="0" />
	<path style="fill:none;stroke:red;stroke-width:1px;stroke-linecap:butt;stroke-linejoin:miter;stroke-opacity:1" d="M 743.994,54.9838 758.561,47.7004 z" id="boundary" inkscape:connector-curvature="0" />
	<path style="fill:none;stroke:red;stroke-width:1px;stroke-linecap:butt;stroke-linejoin:miter;stroke-opacity:1" d="M 748.364,267.659 760.018,257.463 z" id="boundary" inkscape:connector-curvature="0" />
	<path style="fill:none;stroke:red;stroke-width:1px;stroke-linecap:butt;stroke-linejoin:miter;stroke-opacity:1" d="M 758.561,47.7004 771.671,40.417 z" id="boundary" inkscape:connector-curvature="0" />
	<path style="fill:none;stroke:red;stroke-width:1px;stroke-linecap:butt;stroke-linejoin:miter;stroke-opacity:1" d="M 760.018,257.463 767.301,242.896 z" id="boundary" inkscape:connector-curvature="0" />
	<path style="fill:none;stroke:red;stroke-width:1px;stroke-linecap:butt;stroke-linejoin:miter;stroke-opacity:1" d="M 767.301,242.896 777.498,223.959 z" id="boundary" inkscape:connector-curvature="0" />
	<path style="fill:none;stroke:red;stroke-width:1px;stroke-linecap:butt;stroke-linejoin:miter;stroke-opacity:1" d="M 771.671,40.417 786.238,40.417 z" id="boundary" inkscape:connector-curvature="0" />
	<path style="fill:none;stroke:red;stroke-width:1px;stroke-linecap:butt;stroke-linejoin:miter;stroke-opacity:1" d="M 777.498,223.959 792.065,209.392 z" id="boundary" inkscape:connector-curvature="0" />
	<path style="fill:none;stroke:red;stroke-width:1px;stroke-linecap:butt;stroke-linejoin:miter;stroke-opacity:1" d="M 786.238,40.417 800.805,40.417 z" id="boundary" inkscape:connector-curvature="0" />
	<path style="fill:none;stroke:red;stroke-width:1px;stroke-linecap:butt;stroke-linejoin:miter;stroke-opacity:1" d="M 792.065,209.392 799.348,194.825 z" id="boundary" inkscape:connector-curvature="0" />
	<path style="fill:none;stroke:red;stroke-width:1px;stroke-linecap:butt;stroke-linejoin:miter;stroke-opacity:1" d="M 799.348,194.825 811.001,184.628 z" id="boundary" inkscape:connector-curvature="0" />
	<path style="fill:none;stroke:red;stroke-width:1px;stroke-linecap:butt;stroke-linejoin:miter;stroke-opacity:1" d="M 800.805,40.417 813.915,33.1336 z" id="boundary" inkscape:connector-curvature="0" />
	<path style="fill:none;stroke:red;stroke-width:1px;stroke-linecap:butt;stroke-linejoin:miter;stroke-opacity:1" d="M 811.001,184.628 821.198,172.975 z" id="boundary" inkscape:connector-curvature="0" />
	<path style="fill:none;stroke:red;stroke-width:1px;stroke-linecap:butt;stroke-linejoin:miter;stroke-opacity:1" d="M 813.915,33.1336 828.482,28.7636 z" id="boundary" inkscape:connector-curvature="0" />
	<path style="fill:none;stroke:red;stroke-width:1px;stroke-linecap:butt;stroke-linejoin:miter;stroke-opacity:1" d="M 821.198,172.975 828.482,158.408 z" id="boundary" inkscape:connector-curvature="0" />
	<path style="fill:none;stroke:red;stroke-width:1px;stroke-linecap:butt;stroke-linejoin:miter;stroke-opacity:1" d="M 828.482,28.7636 843.048,25.8502 z" id="boundary" inkscape:connector-curvature="0" />
	<path style="fill:none;stroke:red;stroke-width:1px;stroke-linecap:butt;stroke-linejoin:miter;stroke-opacity:1" d="M 828.482,158.408 843.048,143.841 z" id="boundary" inkscape:connector-curvature="0" />
	<path style="fill:none;stroke:red;stroke-width:1px;stroke-linecap:butt;stroke-linejoin:miter;stroke-opacity:1" d="M 843.048,25.8502 856.159,18.5668 z" id="boundary" inkscape:connector-curvature="0" />
	<path style="fill:none;stroke:red;stroke-width:1px;stroke-linecap:butt;stroke-linejoin:miter;stroke-opacity:1" d="M 843.048,143.841 857.615,143.841 z" id="boundary" inkscape:connector-curvature="0" />
	<path style="fill:none;stroke:red;stroke-width:1px;stroke-linecap:butt;stroke-linejoin:miter;stroke-opacity:1" d="M 856.159,18.5668 869.269,11.2834 z" id="boundary" inkscape:connector-curvature="0" />
	<path style="fill:none;stroke:red;stroke-width:1px;stroke-linecap:butt;stroke-linejoin:miter;stroke-opacity:1" d="M 857.615,143.841 864.899,129.275 z" id="boundary" inkscape:connector-curvature="0" />
	<path style="fill:none;stroke:red;stroke-width:1px;stroke-linecap:butt;stroke-linejoin:miter;stroke-opacity:1" d="M 864.899,129.275 879.465,129.275 z" id="boundary" inkscape:connector-curvature="0" />
	<path style="fill:none;stroke:red;stroke-width:1px;stroke-linecap:butt;stroke-linejoin:miter;stroke-opacity:1" d="M 869.269,11.2834 883.836,11.2834 z" id="boundary" inkscape:connector-curvature="0" />
	<path style="fill:none;stroke:red;stroke-width:1px;stroke-linecap:butt;stroke-linejoin:miter;stroke-opacity:1" d="M 879.465,129.275 892.576,121.991 z" id="boundary" inkscape:connector-curvature="0" />
	<path style="fill:none;stroke:red;stroke-width:1px;stroke-linecap:butt;stroke-linejoin:miter;stroke-opacity:1" d="M 883.836,11.2834 896.946,4 z" id="boundary" inkscape:connector-curvature="0" />
	<path style="fill:none;stroke:red;stroke-width:1px;stroke-linecap:butt;stroke-linejoin:miter;stroke-opacity:1" d="M 892.576,121.991 901.316,107.424 z" id="boundary" inkscape:connector-curvature="0" />
	<path style="fill:none;stroke:red;stroke-width:1px;stroke-linecap:butt;stroke-linejoin:miter;stroke-opacity:1" d="M 896.946,4 911.512,4 z" id="boundary" inkscape:connector-curvature="0" />
	<path style="fill:none;stroke:red;stroke-width:1px;stroke-linecap:butt;stroke-linejoin:miter;stroke-opacity:1" d="M 901.316,107.424 912.969,97.2276 z" id="boundary" inkscape:connector-curvature="0" />
	<path style="fill:none;stroke:red;stroke-width:1px;stroke-linecap:butt;stroke-linejoin:miter;stroke-opacity:1" d="M 911.512,4 926.079,4 z" id="boundary" inkscape:connector-curvature="0" />
	<path style="fill:none;stroke:red;stroke-width:1px;stroke-linecap:butt;stroke-linejoin:miter;stroke-opacity:1" d="M 912.969,97.2276 927.536,92.8576 z" id="boundary" inkscape:connector-curvature="0" />
	<path style="fill:none;stroke:red;stroke-width:1px;stroke-linecap:butt;stroke-linejoin:miter;stroke-opacity:1" d="M 926.079,4 940.646,4 z" id="boundary" inkscape:connector-curvature="0" />
	<path style="fill:none;stroke:red;stroke-width:1px;stroke-linecap:butt;stroke-linejoin:miter;stroke-opacity:1" d="M 927.536,92.8576 940.646,85.5742 z" id="boundary" inkscape:connector-curvature="0" />
	<path style="fill:none;stroke:red;stroke-width:1px;stroke-linecap:butt;stroke-linejoin:miter;stroke-opacity:1" d="M 940.646,4 955.213,4 z" id="boundary" inkscape:connector-curvature="0" />
	<path style="fill:none;stroke:red;stroke-width:1px;stroke-linecap:butt;stroke-linejoin:miter;stroke-opacity:1" d="M 940.646,85.5742 952.3,63.7239 z" id="boundary" inkscape:connector-curvature="0" />
	<path style="fill:none;stroke:red;stroke-width:1px;stroke-linecap:butt;stroke-linejoin:miter;stroke-opacity:1" d="M 952.3,63.7239 959.583,41.8737 z" id="boundary" inkscape:connector-curvature="0" />
	<path style="fill:none;stroke:red;stroke-width:1px;stroke-linecap:butt;stroke-linejoin:miter;stroke-opacity:1" d="M 955.213,4 969.78,4 z" id="boundary" inkscape:connector-curvature="0" />
	<path style="fill:none;stroke:red;stroke-width:1px;stroke-linecap:butt;stroke-linejoin:miter;stroke-opacity:1" d="M 959.583,41.8737 972.693,34.5903 z" id="boundary" inkscape:connector-curvature="0" />
	<path style="fill:none;stroke:red;stroke-width:1px;stroke-linecap:butt;stroke-linejoin:miter;stroke-opacity:1" d="M 969.78,4 984.347,4 z" id="boundary" inkscape:connector-curvature="0" />
	<path style="fill:none;stroke:red;stroke-width:1px;stroke-linecap:butt;stroke-linejoin:miter;stroke-opacity:1" d="M 972.693,34.5903 987.26,30.2203 z" id="boundary" inkscape:connector-curvature="0" />
	<path style="fill:none;stroke:red;stroke-width:1px;stroke-linecap:butt;stroke-linejoin:miter;stroke-opacity:1" d="M 984.347,4 996,12.7401 z" id="boundary" inkscape:connector-curvature="0" />
	<path style="fill:none;stroke:red;stroke-width:1px;stroke-linecap:butt;stroke-linejoin:miter;stroke-opacity:1" d="M 987.26,30.2203 996,12.7401 z" id="boundary" inkscape:connector-curvature="0" />
	<circle cx="4" cy="561.909" r="4" fill="#0" id="circle0"/>
	<circle cx="4" cy="576.476" r="4" fill="#0" id="circle1"/>
	<circle cx="15.6535" cy="550.256" r="4" fill="#0" id="circle2"/>
	<circle cx="15.6535" cy="586.673" r="4" fill="#0" id="circle3"/>
	<circle cx="27.3069" cy="538.602" r="4" fill="#0" id="circle4"/>
	<circle cx="30.2203" cy="586.673" r="4" fill="#0" id="circle5"/>
	<circle cx="34.5903" cy="524.035" r="4" fill="#0" id="circle6"/>
	<circle cx="37.5037" cy="573.562" r="4" fill="#0" id="circle7"/>
	<circle cx="41.8737" cy="509.468" r="4" fill="#0" id="circle8"/>
	<circle cx="44.7871" cy="586.673" r="4" fill="#0" id="circle9"/>
	<circle cx="53.5272" cy="499.272" r="4" fill="#0" id="circle10"/>
	<circle cx="59.3539" cy="586.673" r="4" fill="#0" id="circle11"/>
	<circle cx="63.7239" cy="487.618" r="4" fill="#0" id="circle12"/>
	<circle cx="66.6373" cy="573.562" r="4" fill="#0" id="circle13"/>
	<circle cx="73.9207" cy="586.673" r="4" fill="#0" id="circle14"/>
	<circle cx="75.3774" cy="477.421" r="4" fill="#0" id="circle15"/>
	<circle cx="85.5742" cy="465.768" r="4" fill="#0" id="circle16"/>
	<circle cx="88.4875" cy="579.389" r="4" fill="#0" id="circle17"/>
	<circle cx="95.7709" cy="564.822" r="4" fill="#0" id="circle18"/>
	<circle cx="100.141" cy="458.485" r="4" fill="#0" id="circle19"/>
	<circle cx="107.424" cy="443.918" r="4" fill="#0" id="circle20"/>
	<circle cx="110.338" cy="564.822" r="4" fill="#0" id="circle21"/>
	<circle cx="121.991" cy="436.634" r="4" fill="#0" id="circle22"/>
	<circle cx="124.905" cy="558.996" r="4" fill="#0" id="circle23"/>
	<circle cx="136.558" cy="433.721" r="4" fill="#0" id="circle24"/>
	<circle cx="138.015" cy="551.712" r="4" fill="#0" id="circle25"/>
	<circle cx="149.668" cy="426.438" r="4" fill="#0" id="circle26"/>
	<circle cx="151.125" cy="544.429" r="4" fill="#0" id="circle27"/>
	<circle cx="162.778" cy="419.154" r="4" fill="#0" id="circle28"/>
	<circle cx="165.692" cy="544.429" r="4" fill="#0" id="circle29"/>
	<circle cx="172.975" cy="407.501" r="4" fill="#0" id="circle30"/>
	<circle cx="177.345" cy="534.232" r="4" fill="#0" id="circle31"/>
	<circle cx="184.628" cy="397.304" r="4" fill="#0" id="circle32"/>
	<circle cx="191.912" cy="529.862" r="4" fill="#0" id="circle33"/>
	<circle cx="194.825" cy="385.651" r="4" fill="#0" id="circle34"/>
	<circle cx="206.479" cy="526.949" r="4" fill="#0" id="circle35"/>
	<circle cx="209.392" cy="378.367" r="4" fill="#0" id="circle36"/>
	<circle cx="221.046" cy="522.579" r="4" fill="#0" id="circle37"/>
	<circle cx="223.959" cy="375.454" r="4" fill="#0" id="circle38"/>
	<circle cx="235.612" cy="522.579" r="4" fill="#0" id="circle39"/>
	<circle cx="238.526" cy="375.454" r="4" fill="#0" id="circle40"/>
	<circle cx="250.179" cy="522.579" r="4" fill="#0" id="circle41"/>
	<circle cx="253.093" cy="375.454" r="4" fill="#0" id="circle42"/>
	<circle cx="263.289" cy="513.838" r="4" fill="#0" id="circle43"/>
	<circle cx="267.659" cy="375.454" r="4" fill="#0" id="circle44"/>
	<circle cx="277.856" cy="513.838" r="4" fill="#0" id="circle45"/>
	<circle cx="282.226" cy="375.454" r="4" fill="#0" id="circle46"/>
	<circle cx="292.423" cy="513.838" r="4" fill="#0" id="circle47"/>
	<circle cx="296.793" cy="371.084" r="4" fill="#0" id="circle48"/>
	<circle cx="306.99" cy="508.012" r="4" fill="#0" id="circle49"/>
	<circle cx="311.36" cy="368.17" r="4" fill="#0" id="circle50"/>
	<circle cx="320.1" cy="500.728" r="4" fill="#0" id="circle51"/>
	<circle cx="325.927" cy="363.8" r="4" fill="#0" id="circle52"/>
	<circle cx="334.667" cy="500.728" r="4" fill="#0" id="circle53"/>
	<circle cx="340.493" cy="356.517" r="4" fill="#0" id="circle54"/>
	<circle cx="349.233" cy="500.728" r="4" fill="#0" id="circle55"/>
	<circle cx="355.06" cy="353.604" r="4" fill="#0" id="circle56"/>
	<circle cx="363.8" cy="500.728" r="4" fill="#0" id="circle57"/>
	<circle cx="368.17" cy="44.7871" r="4" fill="#0" id="circle58"/>
	<circle cx="368.17" cy="343.407" r="4" fill="#0" id="circle59"/>
	<circle cx="376.91" cy="493.445" r="4" fill="#0" id="circle60"/>
	<circle cx="379.824" cy="54.9838" r="4" fill="#0" id="circle61"/>
	<circle cx="382.737" cy="339.037" r="4" fill="#0" id="circle62"/>
	<circle cx="385.651" cy="69.5507" r="4" fill="#0" id="circle63"/>
	<circle cx="391.477" cy="486.162" r="4" fill="#0" id="circle64"/>
	<circle cx="394.391" cy="54.9838" r="4" fill="#0" id="circle65"/>
	<circle cx="397.304" cy="78.2907" r="4" fill="#0" id="circle66"/>
	<circle cx="397.304" cy="339.037" r="4" fill="#0" id="circle67"/>
	<circle cx="406.044" cy="66.6373" r="4" fill="#0" id="circle68"/>
	<circle cx="406.044" cy="89.9442" r="4" fill="#0" id="circle69"/>
	<circle cx="406.044" cy="486.162" r="4" fill="#0" id="circle70"/>
	<circle cx="410.414" cy="331.753" r="4" fill="#0" id="circle71"/>
	<circle cx="413.327" cy="103.054" r="4" fill="#0" id="circle72"/>
	<circle cx="417.698" cy="475.965" r="4" fill="#0" id="circle73"/>
	<circle cx="420.611" cy="84.1175" r="4" fill="#0" id="circle74"/>
	<circle cx="423.524" cy="114.708" r="4" fill="#0" id="circle75"/>
	<circle cx="423.524" cy="324.47" r="4" fill="#0" id="circle76"/>
	<circle cx="430.808" cy="127.818" r="4" fill="#0" id="circle77"/>
	<circle cx="432.264" cy="92.8576" r="4" fill="#0" id="circle78"/>
	<circle cx="432.264" cy="468.681" r="4" fill="#0" id="circle79"/>
	<circle cx="435.178" cy="312.816" r="4" fill="#0" id="circle80"/>
	<circle cx="439.548" cy="454.115" r="4" fill="#0" id="circle81"/>
	<circle cx="441.004" cy="139.471" r="4" fill="#0" id="circle82"/>
	<circle cx="441.004" cy="190.455" r="4" fill="#0" id="circle83"/>
	<circle cx="441.004" cy="205.022" r="4" fill="#0" id="circle84"/>
	<circle cx="441.004" cy="226.872" r="4" fill="#0" id="circle85"/>
	<circle cx="441.004" cy="285.14" r="4" fill="#0" id="circle86"/>
	<circle cx="442.461" cy="104.511" r="4" fill="#0" id="circle87"/>
	<circle cx="448.288" cy="175.888" r="4" fill="#0" id="circle88"/>
	<circle cx="448.288" cy="239.982" r="4" fill="#0" id="circle89"/>
	<circle cx="448.288" cy="254.549" r="4" fill="#0" id="circle90"/>
	<circle cx="448.288" cy="269.116" r="4" fill="#0" id="circle91"/>
	<circle cx="448.288" cy="442.461" r="4" fill="#0" id="circle92"/>
	<circle cx="452.658" cy="149.668" r="4" fill="#0" id="circle93"/>
	<circle cx="454.115" cy="114.708" r="4" fill="#0" id="circle94"/>
	<circle cx="459.941" cy="164.235" r="4" fill="#0" id="circle95"/>
	<circle cx="462.855" cy="442.461" r="4" fill="#0" id="circle96"/>
	<circle cx="464.311" cy="126.361" r="4" fill="#0" id="circle97"/>
	<circle cx="475.965" cy="136.558" r="4" fill="#0" id="circle98"/>
	<circle cx="475.965" cy="435.178" r="4" fill="#0" id="circle99"/>
	<circle cx="489.075" cy="143.841" r="4" fill="#0" id="circle100"/>
	<circle cx="490.532" cy="435.178" r="4" fill="#0" id="circle101"/>
	<circle cx="500.728" cy="154.038" r="4" fill="#0" id="circle102"/>
	<circle cx="503.642" cy="427.894" r="4" fill="#0" id="circle103"/>
	<circle cx="510.925" cy="165.692" r="4" fill="#0" id="circle104"/>
	<circle cx="518.209" cy="178.802" r="4" fill="#0" id="circle105"/>
	<circle cx="518.209" cy="433.721" r="4" fill="#0" id="circle106"/>
	<circle cx="521.122" cy="448.288" r="4" fill="#0" id="circle107"/>
	<circle cx="521.122" cy="462.855" r="4" fill="#0" id="circle108"/>
	<circle cx="521.122" cy="477.421" r="4" fill="#0" id="circle109"/>
	<circle cx="522.579" cy="193.369" r="4" fill="#0" id="circle110"/>
	<circle cx="522.579" cy="207.935" r="4" fill="#0" id="circle111"/>
	<circle cx="522.579" cy="231.242" r="4" fill="#0" id="circle112"/>
	<circle cx="529.862" cy="244.352" r="4" fill="#0" id="circle113"/>
	<circle cx="529.862" cy="489.075" r="4" fill="#0" id="circle114"/>
	<circle cx="544.429" cy="244.352" r="4" fill="#0" id="circle115"/>
	<circle cx="544.429" cy="493.445" r="4" fill="#0" id="circle116"/>
	<circle cx="558.996" cy="239.982" r="4" fill="#0" id="circle117"/>
	<circle cx="558.996" cy="486.162" r="4" fill="#0" id="circle118"/>
	<circle cx="570.649" cy="229.786" r="4" fill="#0" id="circle119"/>
	<circle cx="573.562" cy="384.194" r="4" fill="#0" id="circle120"/>
	<circle cx="573.562" cy="398.761" r="4" fill="#0" id="circle121"/>
	<circle cx="573.562" cy="486.162" r="4" fill="#0" id="circle122"/>
	<circle cx="583.759" cy="222.502" r="4" fill="#0" id="circle123"/>
	<circle cx="585.216" cy="373.997" r="4" fill="#0" id="circle124"/>
	<circle cx="585.216" cy="407.501" r="4" fill="#0" id="circle125"/>
	<circle cx="588.129" cy="471.595" r="4" fill="#0" id="circle126"/>
	<circle cx="592.499" cy="420.611" r="4" fill="#0" id="circle127"/>
	<circle cx="598.326" cy="222.502" r="4" fill="#0" id="circle128"/>
	<circle cx="599.783" cy="366.714" r="4" fill="#0" id="circle129"/>
	<circle cx="599.783" cy="461.398" r="4" fill="#0" id="circle130"/>
	<circle cx="602.696" cy="432.264" r="4" fill="#0" id="circle131"/>
	<circle cx="607.066" cy="446.831" r="4" fill="#0" id="circle132"/>
	<circle cx="608.523" cy="355.06" r="4" fill="#0" id="circle133"/>
	<circle cx="611.436" cy="215.219" r="4" fill="#0" id="circle134"/>
	<circle cx="620.176" cy="346.32" r="4" fill="#0" id="circle135"/>
	<circle cx="623.09" cy="205.022" r="4" fill="#0" id="circle136"/>
	<circle cx="634.743" cy="193.369" r="4" fill="#0" id="circle137"/>
	<circle cx="634.743" cy="339.037" r="4" fill="#0" id="circle138"/>
	<circle cx="646.396" cy="325.927" r="4" fill="#0" id="circle139"/>
	<circle cx="647.853" cy="186.085" r="4" fill="#0" id="circle140"/>
	<circle cx="659.507" cy="175.888" r="4" fill="#0" id="circle141"/>
	<circle cx="660.963" cy="325.927" r="4" fill="#0" id="circle142"/>
	<circle cx="666.79" cy="161.322" r="4" fill="#0" id="circle143"/>
	<circle cx="675.53" cy="325.927" r="4" fill="#0" id="circle144"/>
	<circle cx="678.443" cy="149.668" r="4" fill="#0" id="circle145"/>
	<circle cx="690.097" cy="138.015" r="4" fill="#0" id="circle146"/>
	<circle cx="690.097" cy="318.643" r="4" fill="#0" id="circle147"/>
	<circle cx="701.75" cy="127.818" r="4" fill="#0" id="circle148"/>
	<circle cx="703.207" cy="110.338" r="4" fill="#0" id="circle149"/>
	<circle cx="704.664" cy="311.36" r="4" fill="#0" id="circle150"/>
	<circle cx="714.86" cy="98.6843" r="4" fill="#0" id="circle151"/>
	<circle cx="716.317" cy="301.163" r="4" fill="#0" id="circle152"/>
	<circle cx="726.514" cy="87.0308" r="4" fill="#0" id="circle153"/>
	<circle cx="726.514" cy="289.51" r="4" fill="#0" id="circle154"/>
	<circle cx="732.341" cy="66.6373" r="4" fill="#0" id="circle155"/>
	<circle cx="738.167" cy="279.313" r="4" fill="#0" id="circle156"/>
	<circle cx="743.994" cy="54.9838" r="4" fill="#0" id="circle157"/>
	<circle cx="748.364" cy="267.659" r="4" fill="#0" id="circle158"/>
	<circle cx="758.561" cy="47.7004" r="4" fill="#0" id="circle159"/>
	<circle cx="760.018" cy="257.463" r="4" fill="#0" id="circle160"/>
	<circle cx="767.301" cy="242.896" r="4" fill="#0" id="circle161"/>
	<circle cx="771.671" cy="40.417" r="4" fill="#0" id="circle162"/>
	<circle cx="777.498" cy="223.959" r="4" fill="#0" id="circle163"/>
	<circle cx="786.238" cy="40.417" r="4" fill="#0" id="circle164"/>
	<circle cx="792.065" cy="209.392" r="4" fill="#0" id="circle165"/>
	<circle cx="799.348" cy="194.825" r="4" fill="#0" id="circle166"/>
	<circle cx="800.805" cy="40.417" r="4" fill="#0" id="circle167"/>
	<circle cx="811.001" cy="184.628" r="4" fill="#0" id="circle168"/>
	<circle cx="813.915" cy="33.1336" r="4" fill="#0" id="circle169"/>
	<circle cx="821.198" cy="172.975" r="4" fill="#0" id="circle170"/>
	<circle cx="828.482" cy="28.7636" r="4" fill="#0" id="circle171"/>
	<circle cx="828.482" cy="158.408" r="4" fill="#0" id="circle172"/>
	<circle cx="843.048" cy="25.8502" r="4" fill="#0" id="circle173"/>
	<circle cx="843.048" cy="143.841" r="4" fill="#0" id="circle174"/>
	<circle cx="856.159" cy="18.5668" r="4" fill="#0" id="circle175"/>
	<circle cx="857.615" cy="143.841" r="4" fill="#0" id="circle176"/>
	<circle cx="864.899" cy="129.275" r="4" fill="#0" id="circle177"/>
	<circle cx="869.269" cy="11.2834" r="4" fill="#0" id="circle178"/>
	<circle cx="879.465" cy="129.275" r="4" fill="#0" id="circle179"/>
	<circle cx="883.836" cy="11.2834" r="4" fill="#0" id="circle180"/>
	<circle cx="892.576" cy="121.991" r="4" fill="#0" id="circle181"/>
	<circle cx="896.946" cy="4" r="4" fill="#0" id="circle182"/>
	<circle cx="901.316" cy="107.424" r="4" fill="#0" id="circle183"/>
	<circle cx="911.512" cy="4" r="4" fill="#0" id="circle184"/>
	<circle cx="912.969" cy="97.2276" r="4" fill="#0" id="circle185"/>
	<circle cx="926.079" cy="4" r="4" fill="#0" id="circle186"/>
	<circle cx="927.536" cy="92.8576" r="4" fill="#0" id="circle187"/>
	<circle cx="937.733" cy="63.7239" r="4" fill="#0" id="circle188"/>
	<circle cx="940.646" cy="4" r="4" fill="#0" id="circle189"/>
	<circle cx="940.646" cy="85.5742" r="4" fill="#0" id="circle190"/>
	<circle cx="952.3" cy="63.7239" r="4" fill="#0" id="circle191"/>
	<circle cx="955.213" cy="4" r="4" fill="#0" id="circle192"/>
	<circle cx="959.583" cy="41.8737" r="4" fill="#0" id="circle193"/>
	<circle cx="966.866" cy="54.9838" r="4" fill="#0" id="circle194"/>
	<circle cx="969.78" cy="4" r="4" fill="#0" id="circle195"/>
	<circle cx="972.693" cy="34.5903" r="4" fill="#0" id="circle196"/>
	<circle cx="984.347" cy="4" r="4" fill="#0" id="circle197"/>
	<circle cx="987.26" cy="30.2203" r="4" fill="#0" id="circle198"/>
	<circle cx="996" cy="12.7401" r="4" fill="#0" id="circle199"/>
	</g>
</svg>