<?xml version="1.0" encoding="UTF-8" standalone="no"?>
<!-- Created with CurveBenchmark -->
<svg
	xmlns:dc="http://purl.org/dc/elements/1.1/"
	xmlns:cc="http://creativecommons.org/ns#"
	xmlns:rdf="http://www.w3.org/1999/02/22-rdf-syntax-ns#"
	xmlns:svg="http://www.w3.org/2000/svg"
	xmlns="http://www.w3.org/2000/svg"
	xmlns:sodipodi="http://sodipodi.sourceforge.net/DTD/sodipodi-0.dtd"
	xmlns:inkscape="http://www.inkscape.org/namespaces/inkscape"
	width="1000"
	height="1000"
	id="svg2"
	version="1.1"
	sodipodi:docname="manifold/vicur-classic20.png.txt">
<defs
	id="defs4" />
<metadata
	id="metadata7">
	<rdf:RDF>
		<cc:Work
			rdf:about="">
			<dc:format>image/svg+xml</dc:format>
			<dc:type
				rdf:resource="http://purl.org/dc/dcmitype/StillImage" />
			<dc:title></dc:title>
		</cc:Work>
	</rdf:RDF>
</metadata>
<g
	inkscape:label="Layer 1"
	inkscape:groupmode="layer"
	id="layer1">
	<path style="fill:none;stroke:red;stroke-width:1px;stroke-linecap:butt;stroke-linejoin:miter;stroke-opacity:1" d="M 4,266.211 13.1682,282.713 z" id="boundary" inkscape:connector-curvature="0" />
	<path style="fill:none;stroke:red;stroke-width:1px;stroke-linecap:butt;stroke-linejoin:miter;stroke-opacity:1" d="M 4,266.211 22.3364,260.71 z" id="boundary" inkscape:connector-curvature="0" />
	<path style="fill:none;stroke:red;stroke-width:1px;stroke-linecap:butt;stroke-linejoin:miter;stroke-opacity:1" d="M 4,302.884 22.3364,308.384 z" id="boundary" inkscape:connector-curvature="0" />
	<path style="fill:none;stroke:red;stroke-width:1px;stroke-linecap:butt;stroke-linejoin:miter;stroke-opacity:1" d="M 13.1682,282.713 22.3364,308.384 z" id="boundary" inkscape:connector-curvature="0" />
	<path style="fill:none;stroke:red;stroke-width:1px;stroke-linecap:butt;stroke-linejoin:miter;stroke-opacity:1" d="M 22.3364,260.71 38.8392,269.878 z" id="boundary" inkscape:connector-curvature="0" />
	<path style="fill:none;stroke:red;stroke-width:1px;stroke-linecap:butt;stroke-linejoin:miter;stroke-opacity:1" d="M 38.8392,269.878 51.6747,255.209 z" id="boundary" inkscape:connector-curvature="0" />
	<path style="fill:none;stroke:red;stroke-width:1px;stroke-linecap:butt;stroke-linejoin:miter;stroke-opacity:1" d="M 40.6728,308.384 49.841,324.887 z" id="boundary" inkscape:connector-curvature="0" />
	<path style="fill:none;stroke:red;stroke-width:1px;stroke-linecap:butt;stroke-linejoin:miter;stroke-opacity:1" d="M 49.841,211.201 49.841,229.538 z" id="boundary" inkscape:connector-curvature="0" />
	<path style="fill:none;stroke:red;stroke-width:1px;stroke-linecap:butt;stroke-linejoin:miter;stroke-opacity:1" d="M 49.841,211.201 64.5102,196.532 z" id="boundary" inkscape:connector-curvature="0" />
	<path style="fill:none;stroke:red;stroke-width:1px;stroke-linecap:butt;stroke-linejoin:miter;stroke-opacity:1" d="M 49.841,229.538 66.3438,242.373 z" id="boundary" inkscape:connector-curvature="0" />
	<path style="fill:none;stroke:red;stroke-width:1px;stroke-linecap:butt;stroke-linejoin:miter;stroke-opacity:1" d="M 49.841,324.887 53.5083,343.224 z" id="boundary" inkscape:connector-curvature="0" />
	<path style="fill:none;stroke:red;stroke-width:1px;stroke-linecap:butt;stroke-linejoin:miter;stroke-opacity:1" d="M 51.6747,255.209 66.3438,242.373 z" id="boundary" inkscape:connector-curvature="0" />
	<path style="fill:none;stroke:red;stroke-width:1px;stroke-linecap:butt;stroke-linejoin:miter;stroke-opacity:1" d="M 53.5083,343.224 62.6765,359.726 z" id="boundary" inkscape:connector-curvature="0" />
	<path style="fill:none;stroke:red;stroke-width:1px;stroke-linecap:butt;stroke-linejoin:miter;stroke-opacity:1" d="M 62.6765,359.726 77.3457,370.728 z" id="boundary" inkscape:connector-curvature="0" />
	<path style="fill:none;stroke:red;stroke-width:1px;stroke-linecap:butt;stroke-linejoin:miter;stroke-opacity:1" d="M 64.5102,196.532 82.8466,187.364 z" id="boundary" inkscape:connector-curvature="0" />
	<path style="fill:none;stroke:red;stroke-width:1px;stroke-linecap:butt;stroke-linejoin:miter;stroke-opacity:1" d="M 77.3457,370.728 92.0148,381.73 z" id="boundary" inkscape:connector-curvature="0" />
	<path style="fill:none;stroke:red;stroke-width:1px;stroke-linecap:butt;stroke-linejoin:miter;stroke-opacity:1" d="M 82.8466,187.364 101.183,187.364 z" id="boundary" inkscape:connector-curvature="0" />
	<path style="fill:none;stroke:red;stroke-width:1px;stroke-linecap:butt;stroke-linejoin:miter;stroke-opacity:1" d="M 92.0148,381.73 108.518,390.898 z" id="boundary" inkscape:connector-curvature="0" />
	<path style="fill:none;stroke:red;stroke-width:1px;stroke-linecap:butt;stroke-linejoin:miter;stroke-opacity:1" d="M 101.183,187.364 114.018,165.36 z" id="boundary" inkscape:connector-curvature="0" />
	<path style="fill:none;stroke:red;stroke-width:1px;stroke-linecap:butt;stroke-linejoin:miter;stroke-opacity:1" d="M 108.518,390.898 126.854,390.898 z" id="boundary" inkscape:connector-curvature="0" />
	<path style="fill:none;stroke:red;stroke-width:1px;stroke-linecap:butt;stroke-linejoin:miter;stroke-opacity:1" d="M 114.018,165.36 128.688,150.691 z" id="boundary" inkscape:connector-curvature="0" />
	<path style="fill:none;stroke:red;stroke-width:1px;stroke-linecap:butt;stroke-linejoin:miter;stroke-opacity:1" d="M 126.854,390.898 143.357,381.73 z" id="boundary" inkscape:connector-curvature="0" />
	<path style="fill:none;stroke:red;stroke-width:1px;stroke-linecap:butt;stroke-linejoin:miter;stroke-opacity:1" d="M 128.688,150.691 147.024,150.691 z" id="boundary" inkscape:connector-curvature="0" />
	<path style="fill:none;stroke:red;stroke-width:1px;stroke-linecap:butt;stroke-linejoin:miter;stroke-opacity:1" d="M 143.357,381.73 161.693,381.73 z" id="boundary" inkscape:connector-curvature="0" />
	<path style="fill:none;stroke:red;stroke-width:1px;stroke-linecap:butt;stroke-linejoin:miter;stroke-opacity:1" d="M 147.024,150.691 161.693,136.022 z" id="boundary" inkscape:connector-curvature="0" />
	<path style="fill:none;stroke:red;stroke-width:1px;stroke-linecap:butt;stroke-linejoin:miter;stroke-opacity:1" d="M 161.693,136.022 176.362,123.187 z" id="boundary" inkscape:connector-curvature="0" />
	<path style="fill:none;stroke:red;stroke-width:1px;stroke-linecap:butt;stroke-linejoin:miter;stroke-opacity:1" d="M 161.693,381.73 178.196,372.562 z" id="boundary" inkscape:connector-curvature="0" />
	<path style="fill:none;stroke:red;stroke-width:1px;stroke-linecap:butt;stroke-linejoin:miter;stroke-opacity:1" d="M 176.362,123.187 178.196,101.183 z" id="boundary" inkscape:connector-curvature="0" />
	<path style="fill:none;stroke:red;stroke-width:1px;stroke-linecap:butt;stroke-linejoin:miter;stroke-opacity:1" d="M 178.196,101.183 196.532,99.3494 z" id="boundary" inkscape:connector-curvature="0" />
	<path style="fill:none;stroke:red;stroke-width:1px;stroke-linecap:butt;stroke-linejoin:miter;stroke-opacity:1" d="M 178.196,372.562 194.699,363.394 z" id="boundary" inkscape:connector-curvature="0" />
	<path style="fill:none;stroke:red;stroke-width:1px;stroke-linecap:butt;stroke-linejoin:miter;stroke-opacity:1" d="M 194.699,363.394 202.033,381.73 z" id="boundary" inkscape:connector-curvature="0" />
	<path style="fill:none;stroke:red;stroke-width:1px;stroke-linecap:butt;stroke-linejoin:miter;stroke-opacity:1" d="M 196.532,99.3494 207.534,114.018 z" id="boundary" inkscape:connector-curvature="0" />
	<path style="fill:none;stroke:red;stroke-width:1px;stroke-linecap:butt;stroke-linejoin:miter;stroke-opacity:1" d="M 202.033,381.73 216.702,394.566 z" id="boundary" inkscape:connector-curvature="0" />
	<path style="fill:none;stroke:red;stroke-width:1px;stroke-linecap:butt;stroke-linejoin:miter;stroke-opacity:1" d="M 207.534,114.018 225.871,114.018 z" id="boundary" inkscape:connector-curvature="0" />
	<path style="fill:none;stroke:red;stroke-width:1px;stroke-linecap:butt;stroke-linejoin:miter;stroke-opacity:1" d="M 216.702,394.566 229.538,409.235 z" id="boundary" inkscape:connector-curvature="0" />
	<path style="fill:none;stroke:red;stroke-width:1px;stroke-linecap:butt;stroke-linejoin:miter;stroke-opacity:1" d="M 225.871,114.018 242.373,123.187 z" id="boundary" inkscape:connector-curvature="0" />
	<path style="fill:none;stroke:red;stroke-width:1px;stroke-linecap:butt;stroke-linejoin:miter;stroke-opacity:1" d="M 229.538,409.235 247.874,416.569 z" id="boundary" inkscape:connector-curvature="0" />
	<path style="fill:none;stroke:red;stroke-width:1px;stroke-linecap:butt;stroke-linejoin:miter;stroke-opacity:1" d="M 242.373,123.187 260.71,117.686 z" id="boundary" inkscape:connector-curvature="0" />
	<path style="fill:none;stroke:red;stroke-width:1px;stroke-linecap:butt;stroke-linejoin:miter;stroke-opacity:1" d="M 247.874,416.569 266.211,416.569 z" id="boundary" inkscape:connector-curvature="0" />
	<path style="fill:none;stroke:red;stroke-width:1px;stroke-linecap:butt;stroke-linejoin:miter;stroke-opacity:1" d="M 260.71,117.686 279.046,114.018 z" id="boundary" inkscape:connector-curvature="0" />
	<path style="fill:none;stroke:red;stroke-width:1px;stroke-linecap:butt;stroke-linejoin:miter;stroke-opacity:1" d="M 266.211,416.569 284.547,416.569 z" id="boundary" inkscape:connector-curvature="0" />
	<path style="fill:none;stroke:red;stroke-width:1px;stroke-linecap:butt;stroke-linejoin:miter;stroke-opacity:1" d="M 279.046,114.018 295.549,123.187 z" id="boundary" inkscape:connector-curvature="0" />
	<path style="fill:none;stroke:red;stroke-width:1px;stroke-linecap:butt;stroke-linejoin:miter;stroke-opacity:1" d="M 284.547,416.569 302.884,409.235 z" id="boundary" inkscape:connector-curvature="0" />
	<path style="fill:none;stroke:red;stroke-width:1px;stroke-linecap:butt;stroke-linejoin:miter;stroke-opacity:1" d="M 295.549,123.187 312.052,114.018 z" id="boundary" inkscape:connector-curvature="0" />
	<path style="fill:none;stroke:red;stroke-width:1px;stroke-linecap:butt;stroke-linejoin:miter;stroke-opacity:1" d="M 302.884,409.235 319.386,400.067 z" id="boundary" inkscape:connector-curvature="0" />
	<path style="fill:none;stroke:red;stroke-width:1px;stroke-linecap:butt;stroke-linejoin:miter;stroke-opacity:1" d="M 312.052,114.018 330.388,114.018 z" id="boundary" inkscape:connector-curvature="0" />
	<path style="fill:none;stroke:red;stroke-width:1px;stroke-linecap:butt;stroke-linejoin:miter;stroke-opacity:1" d="M 319.386,400.067 326.721,381.73 z" id="boundary" inkscape:connector-curvature="0" />
	<path style="fill:none;stroke:red;stroke-width:1px;stroke-linecap:butt;stroke-linejoin:miter;stroke-opacity:1" d="M 326.721,381.73 345.057,363.394 z" id="boundary" inkscape:connector-curvature="0" />
	<path style="fill:none;stroke:red;stroke-width:1px;stroke-linecap:butt;stroke-linejoin:miter;stroke-opacity:1" d="M 330.388,114.018 348.725,114.018 z" id="boundary" inkscape:connector-curvature="0" />
	<path style="fill:none;stroke:red;stroke-width:1px;stroke-linecap:butt;stroke-linejoin:miter;stroke-opacity:1" d="M 345.057,363.394 354.226,345.057 z" id="boundary" inkscape:connector-curvature="0" />
	<path style="fill:none;stroke:red;stroke-width:1px;stroke-linecap:butt;stroke-linejoin:miter;stroke-opacity:1" d="M 348.725,114.018 367.061,114.018 z" id="boundary" inkscape:connector-curvature="0" />
	<path style="fill:none;stroke:red;stroke-width:1px;stroke-linecap:butt;stroke-linejoin:miter;stroke-opacity:1" d="M 354.226,345.057 370.728,335.889 z" id="boundary" inkscape:connector-curvature="0" />
	<path style="fill:none;stroke:red;stroke-width:1px;stroke-linecap:butt;stroke-linejoin:miter;stroke-opacity:1" d="M 367.061,114.018 379.896,92.0148 z" id="boundary" inkscape:connector-curvature="0" />
	<path style="fill:none;stroke:red;stroke-width:1px;stroke-linecap:butt;stroke-linejoin:miter;stroke-opacity:1" d="M 370.728,335.889 389.065,335.889 z" id="boundary" inkscape:connector-curvature="0" />
	<path style="fill:none;stroke:red;stroke-width:1px;stroke-linecap:butt;stroke-linejoin:miter;stroke-opacity:1" d="M 379.896,37.0055 389.065,64.5102 z" id="boundary" inkscape:connector-curvature="0" />
	<path style="fill:none;stroke:red;stroke-width:1px;stroke-linecap:butt;stroke-linejoin:miter;stroke-opacity:1" d="M 379.896,37.0055 398.233,31.5046 z" id="boundary" inkscape:connector-curvature="0" />
	<path style="fill:none;stroke:red;stroke-width:1px;stroke-linecap:butt;stroke-linejoin:miter;stroke-opacity:1" d="M 379.896,92.0148 389.065,64.5102 z" id="boundary" inkscape:connector-curvature="0" />
	<path style="fill:none;stroke:red;stroke-width:1px;stroke-linecap:butt;stroke-linejoin:miter;stroke-opacity:1" d="M 389.065,335.889 407.401,335.889 z" id="boundary" inkscape:connector-curvature="0" />
	<path style="fill:none;stroke:red;stroke-width:1px;stroke-linecap:butt;stroke-linejoin:miter;stroke-opacity:1" d="M 398.233,31.5046 416.569,27.8373 z" id="boundary" inkscape:connector-curvature="0" />
	<path style="fill:none;stroke:red;stroke-width:1px;stroke-linecap:butt;stroke-linejoin:miter;stroke-opacity:1" d="M 407.401,335.889 423.904,326.721 z" id="boundary" inkscape:connector-curvature="0" />
	<path style="fill:none;stroke:red;stroke-width:1px;stroke-linecap:butt;stroke-linejoin:miter;stroke-opacity:1" d="M 416.569,27.8373 434.906,26.0037 z" id="boundary" inkscape:connector-curvature="0" />
	<path style="fill:none;stroke:red;stroke-width:1px;stroke-linecap:butt;stroke-linejoin:miter;stroke-opacity:1" d="M 423.904,326.721 442.24,326.721 z" id="boundary" inkscape:connector-curvature="0" />
	<path style="fill:none;stroke:red;stroke-width:1px;stroke-linecap:butt;stroke-linejoin:miter;stroke-opacity:1" d="M 434.906,26.0037 453.242,22.3364 z" id="boundary" inkscape:connector-curvature="0" />
	<path style="fill:none;stroke:red;stroke-width:1px;stroke-linecap:butt;stroke-linejoin:miter;stroke-opacity:1" d="M 442.24,326.721 460.577,326.721 z" id="boundary" inkscape:connector-curvature="0" />
	<path style="fill:none;stroke:red;stroke-width:1px;stroke-linecap:butt;stroke-linejoin:miter;stroke-opacity:1" d="M 453.242,22.3364 471.579,22.3364 z" id="boundary" inkscape:connector-curvature="0" />
	<path style="fill:none;stroke:red;stroke-width:1px;stroke-linecap:butt;stroke-linejoin:miter;stroke-opacity:1" d="M 460.577,326.721 478.913,326.721 z" id="boundary" inkscape:connector-curvature="0" />
	<path style="fill:none;stroke:red;stroke-width:1px;stroke-linecap:butt;stroke-linejoin:miter;stroke-opacity:1" d="M 471.579,22.3364 489.915,16.8355 z" id="boundary" inkscape:connector-curvature="0" />
	<path style="fill:none;stroke:red;stroke-width:1px;stroke-linecap:butt;stroke-linejoin:miter;stroke-opacity:1" d="M 478.913,326.721 497.25,326.721 z" id="boundary" inkscape:connector-curvature="0" />
	<path style="fill:none;stroke:red;stroke-width:1px;stroke-linecap:butt;stroke-linejoin:miter;stroke-opacity:1" d="M 489.915,16.8355 508.251,18.6691 z" id="boundary" inkscape:connector-curvature="0" />
	<path style="fill:none;stroke:red;stroke-width:1px;stroke-linecap:butt;stroke-linejoin:miter;stroke-opacity:1" d="M 497.25,326.721 515.586,326.721 z" id="boundary" inkscape:connector-curvature="0" />
	<path style="fill:none;stroke:red;stroke-width:1px;stroke-linecap:butt;stroke-linejoin:miter;stroke-opacity:1" d="M 508.251,18.6691 526.588,13.1682 z" id="boundary" inkscape:connector-curvature="0" />
	<path style="fill:none;stroke:red;stroke-width:1px;stroke-linecap:butt;stroke-linejoin:miter;stroke-opacity:1" d="M 515.586,326.721 533.922,326.721 z" id="boundary" inkscape:connector-curvature="0" />
	<path style="fill:none;stroke:red;stroke-width:1px;stroke-linecap:butt;stroke-linejoin:miter;stroke-opacity:1" d="M 526.588,13.1682 544.924,13.1682 z" id="boundary" inkscape:connector-curvature="0" />
	<path style="fill:none;stroke:red;stroke-width:1px;stroke-linecap:butt;stroke-linejoin:miter;stroke-opacity:1" d="M 533.922,326.721 552.259,326.721 z" id="boundary" inkscape:connector-curvature="0" />
	<path style="fill:none;stroke:red;stroke-width:1px;stroke-linecap:butt;stroke-linejoin:miter;stroke-opacity:1" d="M 544.924,13.1682 563.261,13.1682 z" id="boundary" inkscape:connector-curvature="0" />
	<path style="fill:none;stroke:red;stroke-width:1px;stroke-linecap:butt;stroke-linejoin:miter;stroke-opacity:1" d="M 552.259,326.721 570.595,326.721 z" id="boundary" inkscape:connector-curvature="0" />
	<path style="fill:none;stroke:red;stroke-width:1px;stroke-linecap:butt;stroke-linejoin:miter;stroke-opacity:1" d="M 563.261,13.1682 579.763,4 z" id="boundary" inkscape:connector-curvature="0" />
	<path style="fill:none;stroke:red;stroke-width:1px;stroke-linecap:butt;stroke-linejoin:miter;stroke-opacity:1" d="M 570.595,326.721 587.098,317.553 z" id="boundary" inkscape:connector-curvature="0" />
	<path style="fill:none;stroke:red;stroke-width:1px;stroke-linecap:butt;stroke-linejoin:miter;stroke-opacity:1" d="M 579.763,4 598.1,4 z" id="boundary" inkscape:connector-curvature="0" />
	<path style="fill:none;stroke:red;stroke-width:1px;stroke-linecap:butt;stroke-linejoin:miter;stroke-opacity:1" d="M 587.098,317.553 599.933,332.222 z" id="boundary" inkscape:connector-curvature="0" />
	<path style="fill:none;stroke:red;stroke-width:1px;stroke-linecap:butt;stroke-linejoin:miter;stroke-opacity:1" d="M 598.1,4 616.436,4 z" id="boundary" inkscape:connector-curvature="0" />
	<path style="fill:none;stroke:red;stroke-width:1px;stroke-linecap:butt;stroke-linejoin:miter;stroke-opacity:1" d="M 599.933,332.222 609.102,348.725 z" id="boundary" inkscape:connector-curvature="0" />
	<path style="fill:none;stroke:red;stroke-width:1px;stroke-linecap:butt;stroke-linejoin:miter;stroke-opacity:1" d="M 609.102,348.725 620.104,363.394 z" id="boundary" inkscape:connector-curvature="0" />
	<path style="fill:none;stroke:red;stroke-width:1px;stroke-linecap:butt;stroke-linejoin:miter;stroke-opacity:1" d="M 616.436,4 634.773,4 z" id="boundary" inkscape:connector-curvature="0" />
	<path style="fill:none;stroke:red;stroke-width:1px;stroke-linecap:butt;stroke-linejoin:miter;stroke-opacity:1" d="M 620.104,363.394 636.606,372.562 z" id="boundary" inkscape:connector-curvature="0" />
	<path style="fill:none;stroke:red;stroke-width:1px;stroke-linecap:butt;stroke-linejoin:miter;stroke-opacity:1" d="M 634.773,4 653.109,4 z" id="boundary" inkscape:connector-curvature="0" />
	<path style="fill:none;stroke:red;stroke-width:1px;stroke-linecap:butt;stroke-linejoin:miter;stroke-opacity:1" d="M 636.606,372.562 653.109,381.73 z" id="boundary" inkscape:connector-curvature="0" />
	<path style="fill:none;stroke:red;stroke-width:1px;stroke-linecap:butt;stroke-linejoin:miter;stroke-opacity:1" d="M 653.109,4 671.445,4 z" id="boundary" inkscape:connector-curvature="0" />
	<path style="fill:none;stroke:red;stroke-width:1px;stroke-linecap:butt;stroke-linejoin:miter;stroke-opacity:1" d="M 653.109,381.73 671.445,381.73 z" id="boundary" inkscape:connector-curvature="0" />
	<path style="fill:none;stroke:red;stroke-width:1px;stroke-linecap:butt;stroke-linejoin:miter;stroke-opacity:1" d="M 671.445,4 689.782,4 z" id="boundary" inkscape:connector-curvature="0" />
	<path style="fill:none;stroke:red;stroke-width:1px;stroke-linecap:butt;stroke-linejoin:miter;stroke-opacity:1" d="M 671.445,381.73 687.948,372.562 z" id="boundary" inkscape:connector-curvature="0" />
	<path style="fill:none;stroke:red;stroke-width:1px;stroke-linecap:butt;stroke-linejoin:miter;stroke-opacity:1" d="M 687.948,372.562 704.451,363.394 z" id="boundary" inkscape:connector-curvature="0" />
	<path style="fill:none;stroke:red;stroke-width:1px;stroke-linecap:butt;stroke-linejoin:miter;stroke-opacity:1" d="M 689.782,4 708.118,4 z" id="boundary" inkscape:connector-curvature="0" />
	<path style="fill:none;stroke:red;stroke-width:1px;stroke-linecap:butt;stroke-linejoin:miter;stroke-opacity:1" d="M 704.451,363.394 720.954,354.226 z" id="boundary" inkscape:connector-curvature="0" />
	<path style="fill:none;stroke:red;stroke-width:1px;stroke-linecap:butt;stroke-linejoin:miter;stroke-opacity:1" d="M 708.118,4 726.455,4 z" id="boundary" inkscape:connector-curvature="0" />
	<path style="fill:none;stroke:red;stroke-width:1px;stroke-linecap:butt;stroke-linejoin:miter;stroke-opacity:1" d="M 720.954,354.226 730.122,335.889 z" id="boundary" inkscape:connector-curvature="0" />
	<path style="fill:none;stroke:red;stroke-width:1px;stroke-linecap:butt;stroke-linejoin:miter;stroke-opacity:1" d="M 726.455,4 744.791,4 z" id="boundary" inkscape:connector-curvature="0" />
	<path style="fill:none;stroke:red;stroke-width:1px;stroke-linecap:butt;stroke-linejoin:miter;stroke-opacity:1" d="M 730.122,335.889 748.458,335.889 z" id="boundary" inkscape:connector-curvature="0" />
	<path style="fill:none;stroke:red;stroke-width:1px;stroke-linecap:butt;stroke-linejoin:miter;stroke-opacity:1" d="M 744.791,4 763.128,4 z" id="boundary" inkscape:connector-curvature="0" />
	<path style="fill:none;stroke:red;stroke-width:1px;stroke-linecap:butt;stroke-linejoin:miter;stroke-opacity:1" d="M 748.458,335.889 755.793,354.226 z" id="boundary" inkscape:connector-curvature="0" />
	<path style="fill:none;stroke:red;stroke-width:1px;stroke-linecap:butt;stroke-linejoin:miter;stroke-opacity:1" d="M 755.793,354.226 766.795,368.895 z" id="boundary" inkscape:connector-curvature="0" />
	<path style="fill:none;stroke:red;stroke-width:1px;stroke-linecap:butt;stroke-linejoin:miter;stroke-opacity:1" d="M 763.128,4 781.464,4 z" id="boundary" inkscape:connector-curvature="0" />
	<path style="fill:none;stroke:red;stroke-width:1px;stroke-linecap:butt;stroke-linejoin:miter;stroke-opacity:1" d="M 766.795,368.895 781.464,381.73 z" id="boundary" inkscape:connector-curvature="0" />
	<path style="fill:none;stroke:red;stroke-width:1px;stroke-linecap:butt;stroke-linejoin:miter;stroke-opacity:1" d="M 781.464,4 799.8,4 z" id="boundary" inkscape:connector-curvature="0" />
	<path style="fill:none;stroke:red;stroke-width:1px;stroke-linecap:butt;stroke-linejoin:miter;stroke-opacity:1" d="M 781.464,381.73 797.967,390.898 z" id="boundary" inkscape:connector-curvature="0" />
	<path style="fill:none;stroke:red;stroke-width:1px;stroke-linecap:butt;stroke-linejoin:miter;stroke-opacity:1" d="M 797.967,390.898 814.47,400.067 z" id="boundary" inkscape:connector-curvature="0" />
	<path style="fill:none;stroke:red;stroke-width:1px;stroke-linecap:butt;stroke-linejoin:miter;stroke-opacity:1" d="M 799.8,4 818.137,4 z" id="boundary" inkscape:connector-curvature="0" />
	<path style="fill:none;stroke:red;stroke-width:1px;stroke-linecap:butt;stroke-linejoin:miter;stroke-opacity:1" d="M 814.47,400.067 832.806,400.067 z" id="boundary" inkscape:connector-curvature="0" />
	<path style="fill:none;stroke:red;stroke-width:1px;stroke-linecap:butt;stroke-linejoin:miter;stroke-opacity:1" d="M 818.137,4 836.473,4 z" id="boundary" inkscape:connector-curvature="0" />
	<path style="fill:none;stroke:red;stroke-width:1px;stroke-linecap:butt;stroke-linejoin:miter;stroke-opacity:1" d="M 832.806,400.067 851.142,400.067 z" id="boundary" inkscape:connector-curvature="0" />
	<path style="fill:none;stroke:red;stroke-width:1px;stroke-linecap:butt;stroke-linejoin:miter;stroke-opacity:1" d="M 836.473,4 854.81,4 z" id="boundary" inkscape:connector-curvature="0" />
	<path style="fill:none;stroke:red;stroke-width:1px;stroke-linecap:butt;stroke-linejoin:miter;stroke-opacity:1" d="M 851.142,400.067 867.645,390.898 z" id="boundary" inkscape:connector-curvature="0" />
	<path style="fill:none;stroke:red;stroke-width:1px;stroke-linecap:butt;stroke-linejoin:miter;stroke-opacity:1" d="M 854.81,4 873.146,4 z" id="boundary" inkscape:connector-curvature="0" />
	<path style="fill:none;stroke:red;stroke-width:1px;stroke-linecap:butt;stroke-linejoin:miter;stroke-opacity:1" d="M 867.645,390.898 882.314,378.063 z" id="boundary" inkscape:connector-curvature="0" />
	<path style="fill:none;stroke:red;stroke-width:1px;stroke-linecap:butt;stroke-linejoin:miter;stroke-opacity:1" d="M 873.146,4 891.482,5.83364 z" id="boundary" inkscape:connector-curvature="0" />
	<path style="fill:none;stroke:red;stroke-width:1px;stroke-linecap:butt;stroke-linejoin:miter;stroke-opacity:1" d="M 882.314,378.063 895.15,363.394 z" id="boundary" inkscape:connector-curvature="0" />
	<path style="fill:none;stroke:red;stroke-width:1px;stroke-linecap:butt;stroke-linejoin:miter;stroke-opacity:1" d="M 891.482,5.83364 909.819,13.1682 z" id="boundary" inkscape:connector-curvature="0" />
	<path style="fill:none;stroke:red;stroke-width:1px;stroke-linecap:butt;stroke-linejoin:miter;stroke-opacity:1" d="M 895.15,363.394 909.819,350.558 z" id="boundary" inkscape:connector-curvature="0" />
	<path style="fill:none;stroke:red;stroke-width:1px;stroke-linecap:butt;stroke-linejoin:miter;stroke-opacity:1" d="M 909.819,13.1682 928.155,15.0018 z" id="boundary" inkscape:connector-curvature="0" />
	<path style="fill:none;stroke:red;stroke-width:1px;stroke-linecap:butt;stroke-linejoin:miter;stroke-opacity:1" d="M 909.819,350.558 913.486,317.553 z" id="boundary" inkscape:connector-curvature="0" />
	<path style="fill:none;stroke:red;stroke-width:1px;stroke-linecap:butt;stroke-linejoin:miter;stroke-opacity:1" d="M 913.486,317.553 931.823,317.553 z" id="boundary" inkscape:connector-curvature="0" />
	<path style="fill:none;stroke:red;stroke-width:1px;stroke-linecap:butt;stroke-linejoin:miter;stroke-opacity:1" d="M 922.654,97.5157 922.654,125.02 z" id="boundary" inkscape:connector-curvature="0" />
	<path style="fill:none;stroke:red;stroke-width:1px;stroke-linecap:butt;stroke-linejoin:miter;stroke-opacity:1" d="M 922.654,97.5157 931.823,70.0111 z" id="boundary" inkscape:connector-curvature="0" />
	<path style="fill:none;stroke:red;stroke-width:1px;stroke-linecap:butt;stroke-linejoin:miter;stroke-opacity:1" d="M 922.654,125.02 931.823,141.523 z" id="boundary" inkscape:connector-curvature="0" />
	<path style="fill:none;stroke:red;stroke-width:1px;stroke-linecap:butt;stroke-linejoin:miter;stroke-opacity:1" d="M 928.155,15.0018 931.823,33.3383 z" id="boundary" inkscape:connector-curvature="0" />
	<path style="fill:none;stroke:red;stroke-width:1px;stroke-linecap:butt;stroke-linejoin:miter;stroke-opacity:1" d="M 931.823,33.3383 931.823,51.6747 z" id="boundary" inkscape:connector-curvature="0" />
	<path style="fill:none;stroke:red;stroke-width:1px;stroke-linecap:butt;stroke-linejoin:miter;stroke-opacity:1" d="M 931.823,51.6747 931.823,70.0111 z" id="boundary" inkscape:connector-curvature="0" />
	<path style="fill:none;stroke:red;stroke-width:1px;stroke-linecap:butt;stroke-linejoin:miter;stroke-opacity:1" d="M 931.823,141.523 950.159,141.523 z" id="boundary" inkscape:connector-curvature="0" />
	<path style="fill:none;stroke:red;stroke-width:1px;stroke-linecap:butt;stroke-linejoin:miter;stroke-opacity:1" d="M 931.823,317.553 940.991,299.216 z" id="boundary" inkscape:connector-curvature="0" />
	<path style="fill:none;stroke:red;stroke-width:1px;stroke-linecap:butt;stroke-linejoin:miter;stroke-opacity:1" d="M 940.991,299.216 957.494,290.048 z" id="boundary" inkscape:connector-curvature="0" />
	<path style="fill:none;stroke:red;stroke-width:1px;stroke-linecap:butt;stroke-linejoin:miter;stroke-opacity:1" d="M 950.159,141.523 968.495,141.523 z" id="boundary" inkscape:connector-curvature="0" />
	<path style="fill:none;stroke:red;stroke-width:1px;stroke-linecap:butt;stroke-linejoin:miter;stroke-opacity:1" d="M 957.494,290.048 973.996,299.216 z" id="boundary" inkscape:connector-curvature="0" />
	<path style="fill:none;stroke:red;stroke-width:1px;stroke-linecap:butt;stroke-linejoin:miter;stroke-opacity:1" d="M 959.327,244.207 968.495,214.869 z" id="boundary" inkscape:connector-curvature="0" />
	<path style="fill:none;stroke:red;stroke-width:1px;stroke-linecap:butt;stroke-linejoin:miter;stroke-opacity:1" d="M 959.327,244.207 977.664,251.542 z" id="boundary" inkscape:connector-curvature="0" />
	<path style="fill:none;stroke:red;stroke-width:1px;stroke-linecap:butt;stroke-linejoin:miter;stroke-opacity:1" d="M 968.495,141.523 968.495,159.86 z" id="boundary" inkscape:connector-curvature="0" />
	<path style="fill:none;stroke:red;stroke-width:1px;stroke-linecap:butt;stroke-linejoin:miter;stroke-opacity:1" d="M 968.495,159.86 968.495,178.196 z" id="boundary" inkscape:connector-curvature="0" />
	<path style="fill:none;stroke:red;stroke-width:1px;stroke-linecap:butt;stroke-linejoin:miter;stroke-opacity:1" d="M 968.495,178.196 968.495,196.532 z" id="boundary" inkscape:connector-curvature="0" />
	<path style="fill:none;stroke:red;stroke-width:1px;stroke-linecap:butt;stroke-linejoin:miter;stroke-opacity:1" d="M 968.495,196.532 968.495,214.869 z" id="boundary" inkscape:connector-curvature="0" />
	<path style="fill:none;stroke:red;stroke-width:1px;stroke-linecap:butt;stroke-linejoin:miter;stroke-opacity:1" d="M 973.996,299.216 992.333,295.549 z" id="boundary" inkscape:connector-curvature="0" />
	<path style="fill:none;stroke:red;stroke-width:1px;stroke-linecap:butt;stroke-linejoin:miter;stroke-opacity:1" d="M 977.664,251.542 996,257.043 z" id="boundary" inkscape:connector-curvature="0" />
	<path style="fill:none;stroke:red;stroke-width:1px;stroke-linecap:butt;stroke-linejoin:miter;stroke-opacity:1" d="M 992.333,295.549 996,275.379 z" id="boundary" inkscape:connector-curvature="0" />
	<path style="fill:none;stroke:red;stroke-width:1px;stroke-linecap:butt;stroke-linejoin:miter;stroke-opacity:1" d="M 996,257.043 996,275.379 z" id="boundary" inkscape:connector-curvature="0" />
	<circle cx="4" cy="266.211" r="4" fill="#0" id="circle0"/>
	<circle cx="4" cy="302.884" r="4" fill="#0" id="circle1"/>
	<circle cx="13.1682" cy="282.713" r="4" fill="#0" id="circle2"/>
	<circle cx="22.3364" cy="260.71" r="4" fill="#0" id="circle3"/>
	<circle cx="22.3364" cy="308.384" r="4" fill="#0" id="circle4"/>
	<circle cx="38.8392" cy="269.878" r="4" fill="#0" id="circle5"/>
	<circle cx="40.6728" cy="308.384" r="4" fill="#0" id="circle6"/>
	<circle cx="49.841" cy="211.201" r="4" fill="#0" id="circle7"/>
	<circle cx="49.841" cy="229.538" r="4" fill="#0" id="circle8"/>
	<circle cx="49.841" cy="324.887" r="4" fill="#0" id="circle9"/>
	<circle cx="51.6747" cy="255.209" r="4" fill="#0" id="circle10"/>
	<circle cx="53.5083" cy="343.224" r="4" fill="#0" id="circle11"/>
	<circle cx="62.6765" cy="359.726" r="4" fill="#0" id="circle12"/>
	<circle cx="64.5102" cy="196.532" r="4" fill="#0" id="circle13"/>
	<circle cx="66.3438" cy="242.373" r="4" fill="#0" id="circle14"/>
	<circle cx="77.3457" cy="370.728" r="4" fill="#0" id="circle15"/>
	<circle cx="82.8466" cy="187.364" r="4" fill="#0" id="circle16"/>
	<circle cx="92.0148" cy="381.73" r="4" fill="#0" id="circle17"/>
	<circle cx="101.183" cy="187.364" r="4" fill="#0" id="circle18"/>
	<circle cx="108.518" cy="390.898" r="4" fill="#0" id="circle19"/>
	<circle cx="114.018" cy="165.36" r="4" fill="#0" id="circle20"/>
	<circle cx="126.854" cy="390.898" r="4" fill="#0" id="circle21"/>
	<circle cx="128.688" cy="150.691" r="4" fill="#0" id="circle22"/>
	<circle cx="143.357" cy="381.73" r="4" fill="#0" id="circle23"/>
	<circle cx="147.024" cy="150.691" r="4" fill="#0" id="circle24"/>
	<circle cx="161.693" cy="136.022" r="4" fill="#0" id="circle25"/>
	<circle cx="161.693" cy="381.73" r="4" fill="#0" id="circle26"/>
	<circle cx="176.362" cy="123.187" r="4" fill="#0" id="circle27"/>
	<circle cx="178.196" cy="101.183" r="4" fill="#0" id="circle28"/>
	<circle cx="178.196" cy="372.562" r="4" fill="#0" id="circle29"/>
	<circle cx="194.699" cy="363.394" r="4" fill="#0" id="circle30"/>
	<circle cx="196.532" cy="99.3494" r="4" fill="#0" id="circle31"/>
	<circle cx="202.033" cy="381.73" r="4" fill="#0" id="circle32"/>
	<circle cx="207.534" cy="114.018" r="4" fill="#0" id="circle33"/>
	<circle cx="216.702" cy="394.566" r="4" fill="#0" id="circle34"/>
	<circle cx="225.871" cy="114.018" r="4" fill="#0" id="circle35"/>
	<circle cx="229.538" cy="409.235" r="4" fill="#0" id="circle36"/>
	<circle cx="242.373" cy="123.187" r="4" fill="#0" id="circle37"/>
	<circle cx="247.874" cy="416.569" r="4" fill="#0" id="circle38"/>
	<circle cx="260.71" cy="117.686" r="4" fill="#0" id="circle39"/>
	<circle cx="266.211" cy="416.569" r="4" fill="#0" id="circle40"/>
	<circle cx="279.046" cy="114.018" r="4" fill="#0" id="circle41"/>
	<circle cx="284.547" cy="416.569" r="4" fill="#0" id="circle42"/>
	<circle cx="295.549" cy="123.187" r="4" fill="#0" id="circle43"/>
	<circle cx="302.884" cy="409.235" r="4" fill="#0" id="circle44"/>
	<circle cx="312.052" cy="114.018" r="4" fill="#0" id="circle45"/>
	<circle cx="319.386" cy="400.067" r="4" fill="#0" id="circle46"/>
	<circle cx="326.721" cy="381.73" r="4" fill="#0" id="circle47"/>
	<circle cx="330.388" cy="114.018" r="4" fill="#0" id="circle48"/>
	<circle cx="345.057" cy="363.394" r="4" fill="#0" id="circle49"/>
	<circle cx="348.725" cy="114.018" r="4" fill="#0" id="circle50"/>
	<circle cx="354.226" cy="345.057" r="4" fill="#0" id="circle51"/>
	<circle cx="367.061" cy="114.018" r="4" fill="#0" id="circle52"/>
	<circle cx="370.728" cy="335.889" r="4" fill="#0" id="circle53"/>
	<circle cx="379.896" cy="37.0055" r="4" fill="#0" id="circle54"/>
	<circle cx="379.896" cy="92.0148" r="4" fill="#0" id="circle55"/>
	<circle cx="389.065" cy="64.5102" r="4" fill="#0" id="circle56"/>
	<circle cx="389.065" cy="335.889" r="4" fill="#0" id="circle57"/>
	<circle cx="398.233" cy="31.5046" r="4" fill="#0" id="circle58"/>
	<circle cx="407.401" cy="335.889" r="4" fill="#0" id="circle59"/>
	<circle cx="416.569" cy="27.8373" r="4" fill="#0" id="circle60"/>
	<circle cx="423.904" cy="326.721" r="4" fill="#0" id="circle61"/>
	<circle cx="434.906" cy="26.0037" r="4" fill="#0" id="circle62"/>
	<circle cx="442.24" cy="326.721" r="4" fill="#0" id="circle63"/>
	<circle cx="453.242" cy="22.3364" r="4" fill="#0" id="circle64"/>
	<circle cx="460.577" cy="326.721" r="4" fill="#0" id="circle65"/>
	<circle cx="471.579" cy="22.3364" r="4" fill="#0" id="circle66"/>
	<circle cx="478.913" cy="326.721" r="4" fill="#0" id="circle67"/>
	<circle cx="489.915" cy="16.8355" r="4" fill="#0" id="circle68"/>
	<circle cx="497.25" cy="326.721" r="4" fill="#0" id="circle69"/>
	<circle cx="508.251" cy="18.6691" r="4" fill="#0" id="circle70"/>
	<circle cx="515.586" cy="326.721" r="4" fill="#0" id="circle71"/>
	<circle cx="526.588" cy="13.1682" r="4" fill="#0" id="circle72"/>
	<circle cx="533.922" cy="326.721" r="4" fill="#0" id="circle73"/>
	<circle cx="544.924" cy="13.1682" r="4" fill="#0" id="circle74"/>
	<circle cx="552.259" cy="326.721" r="4" fill="#0" id="circle75"/>
	<circle cx="563.261" cy="13.1682" r="4" fill="#0" id="circle76"/>
	<circle cx="570.595" cy="326.721" r="4" fill="#0" id="circle77"/>
	<circle cx="579.763" cy="4" r="4" fill="#0" id="circle78"/>
	<circle cx="587.098" cy="317.553" r="4" fill="#0" id="circle79"/>
	<circle cx="598.1" cy="4" r="4" fill="#0" id="circle80"/>
	<circle cx="599.933" cy="332.222" r="4" fill="#0" id="circle81"/>
	<circle cx="609.102" cy="348.725" r="4" fill="#0" id="circle82"/>
	<circle cx="616.436" cy="4" r="4" fill="#0" id="circle83"/>
	<circle cx="620.104" cy="363.394" r="4" fill="#0" id="circle84"/>
	<circle cx="634.773" cy="4" r="4" fill="#0" id="circle85"/>
	<circle cx="636.606" cy="372.562" r="4" fill="#0" id="circle86"/>
	<circle cx="653.109" cy="4" r="4" fill="#0" id="circle87"/>
	<circle cx="653.109" cy="381.73" r="4" fill="#0" id="circle88"/>
	<circle cx="671.445" cy="4" r="4" fill="#0" id="circle89"/>
	<circle cx="671.445" cy="381.73" r="4" fill="#0" id="circle90"/>
	<circle cx="687.948" cy="372.562" r="4" fill="#0" id="circle91"/>
	<circle cx="689.782" cy="4" r="4" fill="#0" id="circle92"/>
	<circle cx="704.451" cy="363.394" r="4" fill="#0" id="circle93"/>
	<circle cx="708.118" cy="4" r="4" fill="#0" id="circle94"/>
	<circle cx="720.954" cy="354.226" r="4" fill="#0" id="circle95"/>
	<circle cx="726.455" cy="4" r="4" fill="#0" id="circle96"/>
	<circle cx="730.122" cy="335.889" r="4" fill="#0" id="circle97"/>
	<circle cx="744.791" cy="4" r="4" fill="#0" id="circle98"/>
	<circle cx="748.458" cy="335.889" r="4" fill="#0" id="circle99"/>
	<circle cx="755.793" cy="354.226" r="4" fill="#0" id="circle100"/>
	<circle cx="763.128" cy="4" r="4" fill="#0" id="circle101"/>
	<circle cx="766.795" cy="368.895" r="4" fill="#0" id="circle102"/>
	<circle cx="781.464" cy="4" r="4" fill="#0" id="circle103"/>
	<circle cx="781.464" cy="381.73" r="4" fill="#0" id="circle104"/>
	<circle cx="797.967" cy="390.898" r="4" fill="#0" id="circle105"/>
	<circle cx="799.8" cy="4" r="4" fill="#0" id="circle106"/>
	<circle cx="814.47" cy="400.067" r="4" fill="#0" id="circle107"/>
	<circle cx="818.137" cy="4" r="4" fill="#0" id="circle108"/>
	<circle cx="832.806" cy="400.067" r="4" fill="#0" id="circle109"/>
	<circle cx="836.473" cy="4" r="4" fill="#0" id="circle110"/>
	<circle cx="851.142" cy="400.067" r="4" fill="#0" id="circle111"/>
	<circle cx="854.81" cy="4" r="4" fill="#0" id="circle112"/>
	<circle cx="867.645" cy="390.898" r="4" fill="#0" id="circle113"/>
	<circle cx="873.146" cy="4" r="4" fill="#0" id="circle114"/>
	<circle cx="882.314" cy="378.063" r="4" fill="#0" id="circle115"/>
	<circle cx="891.482" cy="5.83364" r="4" fill="#0" id="circle116"/>
	<circle cx="895.15" cy="363.394" r="4" fill="#0" id="circle117"/>
	<circle cx="909.819" cy="13.1682" r="4" fill="#0" id="circle118"/>
	<circle cx="909.819" cy="350.558" r="4" fill="#0" id="circle119"/>
	<circle cx="913.486" cy="317.553" r="4" fill="#0" id="circle120"/>
	<circle cx="922.654" cy="97.5157" r="4" fill="#0" id="circle121"/>
	<circle cx="922.654" cy="125.02" r="4" fill="#0" id="circle122"/>
	<circle cx="928.155" cy="15.0018" r="4" fill="#0" id="circle123"/>
	<circle cx="931.823" cy="33.3383" r="4" fill="#0" id="circle124"/>
	<circle cx="931.823" cy="51.6747" r="4" fill="#0" id="circle125"/>
	<circle cx="931.823" cy="70.0111" r="4" fill="#0" id="circle126"/>
	<circle cx="931.823" cy="141.523" r="4" fill="#0" id="circle127"/>
	<circle cx="931.823" cy="317.553" r="4" fill="#0" id="circle128"/>
	<circle cx="940.991" cy="299.216" r="4" fill="#0" id="circle129"/>
	<circle cx="950.159" cy="141.523" r="4" fill="#0" id="circle130"/>
	<circle cx="957.494" cy="290.048" r="4" fill="#0" id="circle131"/>
	<circle cx="959.327" cy="244.207" r="4" fill="#0" id="circle132"/>
	<circle cx="968.495" cy="141.523" r="4" fill="#0" id="circle133"/>
	<circle cx="968.495" cy="159.86" r="4" fill="#0" id="circle134"/>
	<circle cx="968.495" cy="178.196" r="4" fill="#0" id="circle135"/>
	<circle cx="968.495" cy="196.532" r="4" fill="#0" id="circle136"/>
	<circle cx="968.495" cy="214.869" r="4" fill="#0" id="circle137"/>
	<circle cx="973.996" cy="299.216" r="4" fill="#0" id="circle138"/>
	<circle cx="977.664" cy="251.542" r="4" fill="#0" id="circle139"/>
	<circle cx="992.333" cy="295.549" r="4" fill="#0" id="circle140"/>
	<circle cx="996" cy="257.043" r="4" fill="#0" id="circle141"/>
	<circle cx="996" cy="275.379" r="4" fill="#0" id="circle142"/>
	</g>
</svg>