<?xml version="1.0" encoding="UTF-8" standalone="no"?>
<!-- Created with CurveBenchmark -->
<svg
	xmlns:dc="http://purl.org/dc/elements/1.1/"
	xmlns:cc="http://creativecommons.org/ns#"
	xmlns:rdf="http://www.w3.org/1999/02/22-rdf-syntax-ns#"
	xmlns:svg="http://www.w3.org/2000/svg"
	xmlns="http://www.w3.org/2000/svg"
	xmlns:sodipodi="http://sodipodi.sourceforge.net/DTD/sodipodi-0.dtd"
	xmlns:inkscape="http://www.inkscape.org/namespaces/inkscape"
	width="1000"
	height="1000"
	id="svg2"
	version="1.1"
	sodipodi:docname="manifold/vicur-tree-17.png.txt">
<defs
	id="defs4" />
<metadata
	id="metadata7">
	<rdf:RDF>
		<cc:Work
			rdf:about="">
			<dc:format>image/svg+xml</dc:format>
			<dc:type
				rdf:resource="http://purl.org/dc/dcmitype/StillImage" />
			<dc:title></dc:title>
		</cc:Work>
	</rdf:RDF>
</metadata>
<g
	inkscape:label="Layer 1"
	inkscape:groupmode="layer"
	id="layer1">
	<path style="fill:none;stroke:red;stroke-width:1px;stroke-linecap:butt;stroke-linejoin:miter;stroke-opacity:1" d="M 4,780.809 8.8249,771.16 z" id="boundary" inkscape:connector-curvature="0" />
	<path style="fill:none;stroke:red;stroke-width:1px;stroke-linecap:butt;stroke-linejoin:miter;stroke-opacity:1" d="M 4,780.809 9.78988,788.529 z" id="boundary" inkscape:connector-curvature="0" />
	<path style="fill:none;stroke:red;stroke-width:1px;stroke-linecap:butt;stroke-linejoin:miter;stroke-opacity:1" d="M 8.8249,771.16 16.5447,763.44 z" id="boundary" inkscape:connector-curvature="0" />
	<path style="fill:none;stroke:red;stroke-width:1px;stroke-linecap:butt;stroke-linejoin:miter;stroke-opacity:1" d="M 9.78988,788.529 18.4747,793.354 z" id="boundary" inkscape:connector-curvature="0" />
	<path style="fill:none;stroke:red;stroke-width:1px;stroke-linecap:butt;stroke-linejoin:miter;stroke-opacity:1" d="M 16.5447,763.44 31.9844,748.965 z" id="boundary" inkscape:connector-curvature="0" />
	<path style="fill:none;stroke:red;stroke-width:1px;stroke-linecap:butt;stroke-linejoin:miter;stroke-opacity:1" d="M 18.4747,793.354 27.1595,798.179 z" id="boundary" inkscape:connector-curvature="0" />
	<path style="fill:none;stroke:red;stroke-width:1px;stroke-linecap:butt;stroke-linejoin:miter;stroke-opacity:1" d="M 27.1595,798.179 35.8444,803.004 z" id="boundary" inkscape:connector-curvature="0" />
	<path style="fill:none;stroke:red;stroke-width:1px;stroke-linecap:butt;stroke-linejoin:miter;stroke-opacity:1" d="M 31.9844,748.965 38.7393,741.245 z" id="boundary" inkscape:connector-curvature="0" />
	<path style="fill:none;stroke:red;stroke-width:1px;stroke-linecap:butt;stroke-linejoin:miter;stroke-opacity:1" d="M 35.8444,803.004 45.4942,803.004 z" id="boundary" inkscape:connector-curvature="0" />
	<path style="fill:none;stroke:red;stroke-width:1px;stroke-linecap:butt;stroke-linejoin:miter;stroke-opacity:1" d="M 38.7393,741.245 46.4591,734.49 z" id="boundary" inkscape:connector-curvature="0" />
	<path style="fill:none;stroke:red;stroke-width:1px;stroke-linecap:butt;stroke-linejoin:miter;stroke-opacity:1" d="M 45.4942,803.004 55.144,803.004 z" id="boundary" inkscape:connector-curvature="0" />
	<path style="fill:none;stroke:red;stroke-width:1px;stroke-linecap:butt;stroke-linejoin:miter;stroke-opacity:1" d="M 46.4591,734.49 52.249,722.911 z" id="boundary" inkscape:connector-curvature="0" />
	<path style="fill:none;stroke:red;stroke-width:1px;stroke-linecap:butt;stroke-linejoin:miter;stroke-opacity:1" d="M 52.249,722.911 59.9689,715.191 z" id="boundary" inkscape:connector-curvature="0" />
	<path style="fill:none;stroke:red;stroke-width:1px;stroke-linecap:butt;stroke-linejoin:miter;stroke-opacity:1" d="M 55.144,803.004 64.7938,803.004 z" id="boundary" inkscape:connector-curvature="0" />
	<path style="fill:none;stroke:red;stroke-width:1px;stroke-linecap:butt;stroke-linejoin:miter;stroke-opacity:1" d="M 59.9689,715.191 67.6887,707.471 z" id="boundary" inkscape:connector-curvature="0" />
	<path style="fill:none;stroke:red;stroke-width:1px;stroke-linecap:butt;stroke-linejoin:miter;stroke-opacity:1" d="M 64.7938,803.004 74.4436,803.004 z" id="boundary" inkscape:connector-curvature="0" />
	<path style="fill:none;stroke:red;stroke-width:1px;stroke-linecap:butt;stroke-linejoin:miter;stroke-opacity:1" d="M 67.6887,707.471 75.4086,700.716 z" id="boundary" inkscape:connector-curvature="0" />
	<path style="fill:none;stroke:red;stroke-width:1px;stroke-linecap:butt;stroke-linejoin:miter;stroke-opacity:1" d="M 71.5486,563.689 79.2685,555.969 z" id="boundary" inkscape:connector-curvature="0" />
	<path style="fill:none;stroke:red;stroke-width:1px;stroke-linecap:butt;stroke-linejoin:miter;stroke-opacity:1" d="M 71.5486,563.689 81.1984,566.584 z" id="boundary" inkscape:connector-curvature="0" />
	<path style="fill:none;stroke:red;stroke-width:1px;stroke-linecap:butt;stroke-linejoin:miter;stroke-opacity:1" d="M 74.4436,803.004 84.0934,803.004 z" id="boundary" inkscape:connector-curvature="0" />
	<path style="fill:none;stroke:red;stroke-width:1px;stroke-linecap:butt;stroke-linejoin:miter;stroke-opacity:1" d="M 75.4086,700.716 81.1984,689.136 z" id="boundary" inkscape:connector-curvature="0" />
	<path style="fill:none;stroke:red;stroke-width:1px;stroke-linecap:butt;stroke-linejoin:miter;stroke-opacity:1" d="M 79.2685,555.969 86.9883,548.249 z" id="boundary" inkscape:connector-curvature="0" />
	<path style="fill:none;stroke:red;stroke-width:1px;stroke-linecap:butt;stroke-linejoin:miter;stroke-opacity:1" d="M 81.1984,566.584 90.8482,566.584 z" id="boundary" inkscape:connector-curvature="0" />
	<path style="fill:none;stroke:red;stroke-width:1px;stroke-linecap:butt;stroke-linejoin:miter;stroke-opacity:1" d="M 81.1984,689.136 86.0233,679.486 z" id="boundary" inkscape:connector-curvature="0" />
	<path style="fill:none;stroke:red;stroke-width:1px;stroke-linecap:butt;stroke-linejoin:miter;stroke-opacity:1" d="M 84.0934,803.004 93.7432,803.004 z" id="boundary" inkscape:connector-curvature="0" />
	<path style="fill:none;stroke:red;stroke-width:1px;stroke-linecap:butt;stroke-linejoin:miter;stroke-opacity:1" d="M 86.0233,679.486 93.7432,671.767 z" id="boundary" inkscape:connector-curvature="0" />
	<path style="fill:none;stroke:red;stroke-width:1px;stroke-linecap:butt;stroke-linejoin:miter;stroke-opacity:1" d="M 86.9883,548.249 94.7082,541.494 z" id="boundary" inkscape:connector-curvature="0" />
	<path style="fill:none;stroke:red;stroke-width:1px;stroke-linecap:butt;stroke-linejoin:miter;stroke-opacity:1" d="M 90.8482,566.584 100.498,566.584 z" id="boundary" inkscape:connector-curvature="0" />
	<path style="fill:none;stroke:red;stroke-width:1px;stroke-linecap:butt;stroke-linejoin:miter;stroke-opacity:1" d="M 93.7432,671.767 106.288,654.397 z" id="boundary" inkscape:connector-curvature="0" />
	<path style="fill:none;stroke:red;stroke-width:1px;stroke-linecap:butt;stroke-linejoin:miter;stroke-opacity:1" d="M 93.7432,803.004 103.393,803.004 z" id="boundary" inkscape:connector-curvature="0" />
	<path style="fill:none;stroke:red;stroke-width:1px;stroke-linecap:butt;stroke-linejoin:miter;stroke-opacity:1" d="M 94.7082,541.494 98.5681,531.844 z" id="boundary" inkscape:connector-curvature="0" />
	<path style="fill:none;stroke:red;stroke-width:1px;stroke-linecap:butt;stroke-linejoin:miter;stroke-opacity:1" d="M 98.5681,531.844 106.288,524.125 z" id="boundary" inkscape:connector-curvature="0" />
	<path style="fill:none;stroke:red;stroke-width:1px;stroke-linecap:butt;stroke-linejoin:miter;stroke-opacity:1" d="M 100.498,566.584 110.148,566.584 z" id="boundary" inkscape:connector-curvature="0" />
	<path style="fill:none;stroke:red;stroke-width:1px;stroke-linecap:butt;stroke-linejoin:miter;stroke-opacity:1" d="M 103.393,803.004 113.043,803.004 z" id="boundary" inkscape:connector-curvature="0" />
	<path style="fill:none;stroke:red;stroke-width:1px;stroke-linecap:butt;stroke-linejoin:miter;stroke-opacity:1" d="M 106.288,524.125 120.763,509.65 z" id="boundary" inkscape:connector-curvature="0" />
	<path style="fill:none;stroke:red;stroke-width:1px;stroke-linecap:butt;stroke-linejoin:miter;stroke-opacity:1" d="M 106.288,654.397 119.798,636.062 z" id="boundary" inkscape:connector-curvature="0" />
	<path style="fill:none;stroke:red;stroke-width:1px;stroke-linecap:butt;stroke-linejoin:miter;stroke-opacity:1" d="M 110.148,566.584 119.798,566.584 z" id="boundary" inkscape:connector-curvature="0" />
	<path style="fill:none;stroke:red;stroke-width:1px;stroke-linecap:butt;stroke-linejoin:miter;stroke-opacity:1" d="M 113.043,803.004 122.693,803.004 z" id="boundary" inkscape:connector-curvature="0" />
	<path style="fill:none;stroke:red;stroke-width:1px;stroke-linecap:butt;stroke-linejoin:miter;stroke-opacity:1" d="M 119.798,566.584 129.447,566.584 z" id="boundary" inkscape:connector-curvature="0" />
	<path style="fill:none;stroke:red;stroke-width:1px;stroke-linecap:butt;stroke-linejoin:miter;stroke-opacity:1" d="M 119.798,636.062 127.518,628.342 z" id="boundary" inkscape:connector-curvature="0" />
	<path style="fill:none;stroke:red;stroke-width:1px;stroke-linecap:butt;stroke-linejoin:miter;stroke-opacity:1" d="M 120.763,509.65 125.588,500 z" id="boundary" inkscape:connector-curvature="0" />
	<path style="fill:none;stroke:red;stroke-width:1px;stroke-linecap:butt;stroke-linejoin:miter;stroke-opacity:1" d="M 122.693,803.004 132.342,803.004 z" id="boundary" inkscape:connector-curvature="0" />
	<path style="fill:none;stroke:red;stroke-width:1px;stroke-linecap:butt;stroke-linejoin:miter;stroke-opacity:1" d="M 125.588,500 130.412,490.35 z" id="boundary" inkscape:connector-curvature="0" />
	<path style="fill:none;stroke:red;stroke-width:1px;stroke-linecap:butt;stroke-linejoin:miter;stroke-opacity:1" d="M 127.518,628.342 135.237,620.623 z" id="boundary" inkscape:connector-curvature="0" />
	<path style="fill:none;stroke:red;stroke-width:1px;stroke-linecap:butt;stroke-linejoin:miter;stroke-opacity:1" d="M 129.447,566.584 139.097,566.584 z" id="boundary" inkscape:connector-curvature="0" />
	<path style="fill:none;stroke:red;stroke-width:1px;stroke-linecap:butt;stroke-linejoin:miter;stroke-opacity:1" d="M 130.412,490.35 135.237,480.7 z" id="boundary" inkscape:connector-curvature="0" />
	<path style="fill:none;stroke:red;stroke-width:1px;stroke-linecap:butt;stroke-linejoin:miter;stroke-opacity:1" d="M 132.342,803.004 141.992,803.004 z" id="boundary" inkscape:connector-curvature="0" />
	<path style="fill:none;stroke:red;stroke-width:1px;stroke-linecap:butt;stroke-linejoin:miter;stroke-opacity:1" d="M 135.237,480.7 142.957,473.946 z" id="boundary" inkscape:connector-curvature="0" />
	<path style="fill:none;stroke:red;stroke-width:1px;stroke-linecap:butt;stroke-linejoin:miter;stroke-opacity:1" d="M 135.237,620.623 140.062,610.973 z" id="boundary" inkscape:connector-curvature="0" />
	<path style="fill:none;stroke:red;stroke-width:1px;stroke-linecap:butt;stroke-linejoin:miter;stroke-opacity:1" d="M 139.097,566.584 144.887,574.304 z" id="boundary" inkscape:connector-curvature="0" />
	<path style="fill:none;stroke:red;stroke-width:1px;stroke-linecap:butt;stroke-linejoin:miter;stroke-opacity:1" d="M 140.062,610.973 144.887,601.323 z" id="boundary" inkscape:connector-curvature="0" />
	<path style="fill:none;stroke:red;stroke-width:1px;stroke-linecap:butt;stroke-linejoin:miter;stroke-opacity:1" d="M 141.992,803.004 151.642,803.004 z" id="boundary" inkscape:connector-curvature="0" />
	<path style="fill:none;stroke:red;stroke-width:1px;stroke-linecap:butt;stroke-linejoin:miter;stroke-opacity:1" d="M 142.957,473.946 148.747,462.366 z" id="boundary" inkscape:connector-curvature="0" />
	<path style="fill:none;stroke:red;stroke-width:1px;stroke-linecap:butt;stroke-linejoin:miter;stroke-opacity:1" d="M 144.887,574.304 148.747,583.953 z" id="boundary" inkscape:connector-curvature="0" />
	<path style="fill:none;stroke:red;stroke-width:1px;stroke-linecap:butt;stroke-linejoin:miter;stroke-opacity:1" d="M 144.887,601.323 148.747,583.953 z" id="boundary" inkscape:connector-curvature="0" />
	<path style="fill:none;stroke:red;stroke-width:1px;stroke-linecap:butt;stroke-linejoin:miter;stroke-opacity:1" d="M 148.747,462.366 158.397,443.066 z" id="boundary" inkscape:connector-curvature="0" />
	<path style="fill:none;stroke:red;stroke-width:1px;stroke-linecap:butt;stroke-linejoin:miter;stroke-opacity:1" d="M 151.642,803.004 161.292,803.004 z" id="boundary" inkscape:connector-curvature="0" />
	<path style="fill:none;stroke:red;stroke-width:1px;stroke-linecap:butt;stroke-linejoin:miter;stroke-opacity:1" d="M 158.397,443.066 166.117,435.346 z" id="boundary" inkscape:connector-curvature="0" />
	<path style="fill:none;stroke:red;stroke-width:1px;stroke-linecap:butt;stroke-linejoin:miter;stroke-opacity:1" d="M 161.292,803.004 170.942,803.004 z" id="boundary" inkscape:connector-curvature="0" />
	<path style="fill:none;stroke:red;stroke-width:1px;stroke-linecap:butt;stroke-linejoin:miter;stroke-opacity:1" d="M 166.117,435.346 168.047,418.942 z" id="boundary" inkscape:connector-curvature="0" />
	<path style="fill:none;stroke:red;stroke-width:1px;stroke-linecap:butt;stroke-linejoin:miter;stroke-opacity:1" d="M 168.047,418.942 175.767,411.222 z" id="boundary" inkscape:connector-curvature="0" />
	<path style="fill:none;stroke:red;stroke-width:1px;stroke-linecap:butt;stroke-linejoin:miter;stroke-opacity:1" d="M 170.942,803.004 180.591,803.004 z" id="boundary" inkscape:connector-curvature="0" />
	<path style="fill:none;stroke:red;stroke-width:1px;stroke-linecap:butt;stroke-linejoin:miter;stroke-opacity:1" d="M 175.767,411.222 182.521,399.642 z" id="boundary" inkscape:connector-curvature="0" />
	<path style="fill:none;stroke:red;stroke-width:1px;stroke-linecap:butt;stroke-linejoin:miter;stroke-opacity:1" d="M 180.591,803.004 190.241,803.004 z" id="boundary" inkscape:connector-curvature="0" />
	<path style="fill:none;stroke:red;stroke-width:1px;stroke-linecap:butt;stroke-linejoin:miter;stroke-opacity:1" d="M 182.521,399.642 187.346,389.992 z" id="boundary" inkscape:connector-curvature="0" />
	<path style="fill:none;stroke:red;stroke-width:1px;stroke-linecap:butt;stroke-linejoin:miter;stroke-opacity:1" d="M 187.346,274.195 195.066,266.475 z" id="boundary" inkscape:connector-curvature="0" />
	<path style="fill:none;stroke:red;stroke-width:1px;stroke-linecap:butt;stroke-linejoin:miter;stroke-opacity:1" d="M 187.346,274.195 196.996,277.089 z" id="boundary" inkscape:connector-curvature="0" />
	<path style="fill:none;stroke:red;stroke-width:1px;stroke-linecap:butt;stroke-linejoin:miter;stroke-opacity:1" d="M 187.346,389.992 192.171,380.342 z" id="boundary" inkscape:connector-curvature="0" />
	<path style="fill:none;stroke:red;stroke-width:1px;stroke-linecap:butt;stroke-linejoin:miter;stroke-opacity:1" d="M 190.241,803.004 199.891,803.004 z" id="boundary" inkscape:connector-curvature="0" />
	<path style="fill:none;stroke:red;stroke-width:1px;stroke-linecap:butt;stroke-linejoin:miter;stroke-opacity:1" d="M 192.171,380.342 199.891,372.623 z" id="boundary" inkscape:connector-curvature="0" />
	<path style="fill:none;stroke:red;stroke-width:1px;stroke-linecap:butt;stroke-linejoin:miter;stroke-opacity:1" d="M 195.066,266.475 202.786,258.755 z" id="boundary" inkscape:connector-curvature="0" />
	<path style="fill:none;stroke:red;stroke-width:1px;stroke-linecap:butt;stroke-linejoin:miter;stroke-opacity:1" d="M 196.996,277.089 205.681,272.265 z" id="boundary" inkscape:connector-curvature="0" />
	<path style="fill:none;stroke:red;stroke-width:1px;stroke-linecap:butt;stroke-linejoin:miter;stroke-opacity:1" d="M 199.891,372.623 206.646,361.043 z" id="boundary" inkscape:connector-curvature="0" />
	<path style="fill:none;stroke:red;stroke-width:1px;stroke-linecap:butt;stroke-linejoin:miter;stroke-opacity:1" d="M 199.891,803.004 208.576,807.829 z" id="boundary" inkscape:connector-curvature="0" />
	<path style="fill:none;stroke:red;stroke-width:1px;stroke-linecap:butt;stroke-linejoin:miter;stroke-opacity:1" d="M 202.786,258.755 210.506,252 z" id="boundary" inkscape:connector-curvature="0" />
	<path style="fill:none;stroke:red;stroke-width:1px;stroke-linecap:butt;stroke-linejoin:miter;stroke-opacity:1" d="M 205.681,272.265 215.331,272.265 z" id="boundary" inkscape:connector-curvature="0" />
	<path style="fill:none;stroke:red;stroke-width:1px;stroke-linecap:butt;stroke-linejoin:miter;stroke-opacity:1" d="M 206.646,361.043 211.471,351.393 z" id="boundary" inkscape:connector-curvature="0" />
	<path style="fill:none;stroke:red;stroke-width:1px;stroke-linecap:butt;stroke-linejoin:miter;stroke-opacity:1" d="M 208.576,807.829 218.226,807.829 z" id="boundary" inkscape:connector-curvature="0" />
	<path style="fill:none;stroke:red;stroke-width:1px;stroke-linecap:butt;stroke-linejoin:miter;stroke-opacity:1" d="M 211.471,351.393 216.296,341.743 z" id="boundary" inkscape:connector-curvature="0" />
	<path style="fill:none;stroke:red;stroke-width:1px;stroke-linecap:butt;stroke-linejoin:miter;stroke-opacity:1" d="M 215.331,272.265 224.981,272.265 z" id="boundary" inkscape:connector-curvature="0" />
	<path style="fill:none;stroke:red;stroke-width:1px;stroke-linecap:butt;stroke-linejoin:miter;stroke-opacity:1" d="M 216.296,341.743 221.121,332.093 z" id="boundary" inkscape:connector-curvature="0" />
	<path style="fill:none;stroke:red;stroke-width:1px;stroke-linecap:butt;stroke-linejoin:miter;stroke-opacity:1" d="M 218.226,807.829 227.875,807.829 z" id="boundary" inkscape:connector-curvature="0" />
	<path style="fill:none;stroke:red;stroke-width:1px;stroke-linecap:butt;stroke-linejoin:miter;stroke-opacity:1" d="M 221.121,332.093 228.84,324.374 z" id="boundary" inkscape:connector-curvature="0" />
	<path style="fill:none;stroke:red;stroke-width:1px;stroke-linecap:butt;stroke-linejoin:miter;stroke-opacity:1" d="M 224.981,237.525 231.735,229.805 z" id="boundary" inkscape:connector-curvature="0" />
	<path style="fill:none;stroke:red;stroke-width:1px;stroke-linecap:butt;stroke-linejoin:miter;stroke-opacity:1" d="M 224.981,272.265 233.665,277.089 z" id="boundary" inkscape:connector-curvature="0" />
	<path style="fill:none;stroke:red;stroke-width:1px;stroke-linecap:butt;stroke-linejoin:miter;stroke-opacity:1" d="M 227.875,807.829 237.525,807.829 z" id="boundary" inkscape:connector-curvature="0" />
	<path style="fill:none;stroke:red;stroke-width:1px;stroke-linecap:butt;stroke-linejoin:miter;stroke-opacity:1" d="M 228.84,324.374 233.665,314.724 z" id="boundary" inkscape:connector-curvature="0" />
	<path style="fill:none;stroke:red;stroke-width:1px;stroke-linecap:butt;stroke-linejoin:miter;stroke-opacity:1" d="M 231.735,229.805 239.455,223.051 z" id="boundary" inkscape:connector-curvature="0" />
	<path style="fill:none;stroke:red;stroke-width:1px;stroke-linecap:butt;stroke-linejoin:miter;stroke-opacity:1" d="M 233.665,277.089 240.42,284.809 z" id="boundary" inkscape:connector-curvature="0" />
	<path style="fill:none;stroke:red;stroke-width:1px;stroke-linecap:butt;stroke-linejoin:miter;stroke-opacity:1" d="M 233.665,314.724 238.49,305.074 z" id="boundary" inkscape:connector-curvature="0" />
	<path style="fill:none;stroke:red;stroke-width:1px;stroke-linecap:butt;stroke-linejoin:miter;stroke-opacity:1" d="M 237.525,807.829 247.175,807.829 z" id="boundary" inkscape:connector-curvature="0" />
	<path style="fill:none;stroke:red;stroke-width:1px;stroke-linecap:butt;stroke-linejoin:miter;stroke-opacity:1" d="M 238.49,305.074 240.42,294.459 z" id="boundary" inkscape:connector-curvature="0" />
	<path style="fill:none;stroke:red;stroke-width:1px;stroke-linecap:butt;stroke-linejoin:miter;stroke-opacity:1" d="M 239.455,223.051 246.21,215.331 z" id="boundary" inkscape:connector-curvature="0" />
	<path style="fill:none;stroke:red;stroke-width:1px;stroke-linecap:butt;stroke-linejoin:miter;stroke-opacity:1" d="M 240.42,284.809 240.42,294.459 z" id="boundary" inkscape:connector-curvature="0" />
	<path style="fill:none;stroke:red;stroke-width:1px;stroke-linecap:butt;stroke-linejoin:miter;stroke-opacity:1" d="M 246.21,215.331 253.93,208.576 z" id="boundary" inkscape:connector-curvature="0" />
	<path style="fill:none;stroke:red;stroke-width:1px;stroke-linecap:butt;stroke-linejoin:miter;stroke-opacity:1" d="M 247.175,807.829 256.825,807.829 z" id="boundary" inkscape:connector-curvature="0" />
	<path style="fill:none;stroke:red;stroke-width:1px;stroke-linecap:butt;stroke-linejoin:miter;stroke-opacity:1" d="M 253.93,208.576 260.685,200.856 z" id="boundary" inkscape:connector-curvature="0" />
	<path style="fill:none;stroke:red;stroke-width:1px;stroke-linecap:butt;stroke-linejoin:miter;stroke-opacity:1" d="M 256.825,807.829 266.475,807.829 z" id="boundary" inkscape:connector-curvature="0" />
	<path style="fill:none;stroke:red;stroke-width:1px;stroke-linecap:butt;stroke-linejoin:miter;stroke-opacity:1" d="M 260.685,200.856 268.405,194.101 z" id="boundary" inkscape:connector-curvature="0" />
	<path style="fill:none;stroke:red;stroke-width:1px;stroke-linecap:butt;stroke-linejoin:miter;stroke-opacity:1" d="M 266.475,807.829 276.125,807.829 z" id="boundary" inkscape:connector-curvature="0" />
	<path style="fill:none;stroke:red;stroke-width:1px;stroke-linecap:butt;stroke-linejoin:miter;stroke-opacity:1" d="M 268.405,194.101 275.16,186.381 z" id="boundary" inkscape:connector-curvature="0" />
	<path style="fill:none;stroke:red;stroke-width:1px;stroke-linecap:butt;stroke-linejoin:miter;stroke-opacity:1" d="M 276.125,807.829 285.774,807.829 z" id="boundary" inkscape:connector-curvature="0" />
	<path style="fill:none;stroke:red;stroke-width:1px;stroke-linecap:butt;stroke-linejoin:miter;stroke-opacity:1" d="M 285.774,807.829 295.424,807.829 z" id="boundary" inkscape:connector-curvature="0" />
	<path style="fill:none;stroke:red;stroke-width:1px;stroke-linecap:butt;stroke-linejoin:miter;stroke-opacity:1" d="M 286.739,169.977 294.459,162.257 z" id="boundary" inkscape:connector-curvature="0" />
	<path style="fill:none;stroke:red;stroke-width:1px;stroke-linecap:butt;stroke-linejoin:miter;stroke-opacity:1" d="M 294.459,162.257 299.284,152.607 z" id="boundary" inkscape:connector-curvature="0" />
	<path style="fill:none;stroke:red;stroke-width:1px;stroke-linecap:butt;stroke-linejoin:miter;stroke-opacity:1" d="M 295.424,807.829 305.074,810.724 z" id="boundary" inkscape:connector-curvature="0" />
	<path style="fill:none;stroke:red;stroke-width:1px;stroke-linecap:butt;stroke-linejoin:miter;stroke-opacity:1" d="M 299.284,152.607 310.864,136.202 z" id="boundary" inkscape:connector-curvature="0" />
	<path style="fill:none;stroke:red;stroke-width:1px;stroke-linecap:butt;stroke-linejoin:miter;stroke-opacity:1" d="M 305.074,810.724 314.724,807.829 z" id="boundary" inkscape:connector-curvature="0" />
	<path style="fill:none;stroke:red;stroke-width:1px;stroke-linecap:butt;stroke-linejoin:miter;stroke-opacity:1" d="M 310.864,136.202 315.689,126.553 z" id="boundary" inkscape:connector-curvature="0" />
	<path style="fill:none;stroke:red;stroke-width:1px;stroke-linecap:butt;stroke-linejoin:miter;stroke-opacity:1" d="M 314.724,807.829 324.374,807.829 z" id="boundary" inkscape:connector-curvature="0" />
	<path style="fill:none;stroke:red;stroke-width:1px;stroke-linecap:butt;stroke-linejoin:miter;stroke-opacity:1" d="M 315.689,126.553 323.409,118.833 z" id="boundary" inkscape:connector-curvature="0" />
	<path style="fill:none;stroke:red;stroke-width:1px;stroke-linecap:butt;stroke-linejoin:miter;stroke-opacity:1" d="M 323.409,118.833 328.233,109.183 z" id="boundary" inkscape:connector-curvature="0" />
	<path style="fill:none;stroke:red;stroke-width:1px;stroke-linecap:butt;stroke-linejoin:miter;stroke-opacity:1" d="M 324.374,807.829 333.058,803.004 z" id="boundary" inkscape:connector-curvature="0" />
	<path style="fill:none;stroke:red;stroke-width:1px;stroke-linecap:butt;stroke-linejoin:miter;stroke-opacity:1" d="M 328.233,109.183 333.058,99.5331 z" id="boundary" inkscape:connector-curvature="0" />
	<path style="fill:none;stroke:red;stroke-width:1px;stroke-linecap:butt;stroke-linejoin:miter;stroke-opacity:1" d="M 333.058,99.5331 336.918,81.1984 z" id="boundary" inkscape:connector-curvature="0" />
	<path style="fill:none;stroke:red;stroke-width:1px;stroke-linecap:butt;stroke-linejoin:miter;stroke-opacity:1" d="M 333.058,803.004 340.778,796.249 z" id="boundary" inkscape:connector-curvature="0" />
	<path style="fill:none;stroke:red;stroke-width:1px;stroke-linecap:butt;stroke-linejoin:miter;stroke-opacity:1" d="M 336.918,81.1984 341.743,71.5486 z" id="boundary" inkscape:connector-curvature="0" />
	<path style="fill:none;stroke:red;stroke-width:1px;stroke-linecap:butt;stroke-linejoin:miter;stroke-opacity:1" d="M 340.778,796.249 347.533,788.529 z" id="boundary" inkscape:connector-curvature="0" />
	<path style="fill:none;stroke:red;stroke-width:1px;stroke-linecap:butt;stroke-linejoin:miter;stroke-opacity:1" d="M 341.743,71.5486 349.463,63.8288 z" id="boundary" inkscape:connector-curvature="0" />
	<path style="fill:none;stroke:red;stroke-width:1px;stroke-linecap:butt;stroke-linejoin:miter;stroke-opacity:1" d="M 347.533,788.529 357.183,788.529 z" id="boundary" inkscape:connector-curvature="0" />
	<path style="fill:none;stroke:red;stroke-width:1px;stroke-linecap:butt;stroke-linejoin:miter;stroke-opacity:1" d="M 349.463,63.8288 354.288,54.179 z" id="boundary" inkscape:connector-curvature="0" />
	<path style="fill:none;stroke:red;stroke-width:1px;stroke-linecap:butt;stroke-linejoin:miter;stroke-opacity:1" d="M 354.288,54.179 359.113,44.5292 z" id="boundary" inkscape:connector-curvature="0" />
	<path style="fill:none;stroke:red;stroke-width:1px;stroke-linecap:butt;stroke-linejoin:miter;stroke-opacity:1" d="M 357.183,788.529 366.833,788.529 z" id="boundary" inkscape:connector-curvature="0" />
	<path style="fill:none;stroke:red;stroke-width:1px;stroke-linecap:butt;stroke-linejoin:miter;stroke-opacity:1" d="M 359.113,44.5292 365.868,32.9494 z" id="boundary" inkscape:connector-curvature="0" />
	<path style="fill:none;stroke:red;stroke-width:1px;stroke-linecap:butt;stroke-linejoin:miter;stroke-opacity:1" d="M 365.868,32.9494 370.693,23.2996 z" id="boundary" inkscape:connector-curvature="0" />
	<path style="fill:none;stroke:red;stroke-width:1px;stroke-linecap:butt;stroke-linejoin:miter;stroke-opacity:1" d="M 366.833,788.529 375.518,793.354 z" id="boundary" inkscape:connector-curvature="0" />
	<path style="fill:none;stroke:red;stroke-width:1px;stroke-linecap:butt;stroke-linejoin:miter;stroke-opacity:1" d="M 370.693,23.2996 375.518,13.6498 z" id="boundary" inkscape:connector-curvature="0" />
	<path style="fill:none;stroke:red;stroke-width:1px;stroke-linecap:butt;stroke-linejoin:miter;stroke-opacity:1" d="M 370.693,944.856 370.693,954.506 z" id="boundary" inkscape:connector-curvature="0" />
	<path style="fill:none;stroke:red;stroke-width:1px;stroke-linecap:butt;stroke-linejoin:miter;stroke-opacity:1" d="M 370.693,944.856 375.518,935.206 z" id="boundary" inkscape:connector-curvature="0" />
	<path style="fill:none;stroke:red;stroke-width:1px;stroke-linecap:butt;stroke-linejoin:miter;stroke-opacity:1" d="M 370.693,954.506 370.693,964.156 z" id="boundary" inkscape:connector-curvature="0" />
	<path style="fill:none;stroke:red;stroke-width:1px;stroke-linecap:butt;stroke-linejoin:miter;stroke-opacity:1" d="M 370.693,964.156 370.693,973.805 z" id="boundary" inkscape:connector-curvature="0" />
	<path style="fill:none;stroke:red;stroke-width:1px;stroke-linecap:butt;stroke-linejoin:miter;stroke-opacity:1" d="M 370.693,973.805 375.518,982.49 z" id="boundary" inkscape:connector-curvature="0" />
	<path style="fill:none;stroke:red;stroke-width:1px;stroke-linecap:butt;stroke-linejoin:miter;stroke-opacity:1" d="M 375.518,13.6498 380.342,4 z" id="boundary" inkscape:connector-curvature="0" />
	<path style="fill:none;stroke:red;stroke-width:1px;stroke-linecap:butt;stroke-linejoin:miter;stroke-opacity:1" d="M 375.518,793.354 380.342,802.039 z" id="boundary" inkscape:connector-curvature="0" />
	<path style="fill:none;stroke:red;stroke-width:1px;stroke-linecap:butt;stroke-linejoin:miter;stroke-opacity:1" d="M 375.518,925.556 375.518,935.206 z" id="boundary" inkscape:connector-curvature="0" />
	<path style="fill:none;stroke:red;stroke-width:1px;stroke-linecap:butt;stroke-linejoin:miter;stroke-opacity:1" d="M 375.518,925.556 380.342,908.187 z" id="boundary" inkscape:connector-curvature="0" />
	<path style="fill:none;stroke:red;stroke-width:1px;stroke-linecap:butt;stroke-linejoin:miter;stroke-opacity:1" d="M 375.518,982.49 382.272,990.21 z" id="boundary" inkscape:connector-curvature="0" />
	<path style="fill:none;stroke:red;stroke-width:1px;stroke-linecap:butt;stroke-linejoin:miter;stroke-opacity:1" d="M 380.342,4 389.992,7.85992 z" id="boundary" inkscape:connector-curvature="0" />
	<path style="fill:none;stroke:red;stroke-width:1px;stroke-linecap:butt;stroke-linejoin:miter;stroke-opacity:1" d="M 380.342,802.039 380.342,811.689 z" id="boundary" inkscape:connector-curvature="0" />
	<path style="fill:none;stroke:red;stroke-width:1px;stroke-linecap:butt;stroke-linejoin:miter;stroke-opacity:1" d="M 380.342,811.689 380.342,821.339 z" id="boundary" inkscape:connector-curvature="0" />
	<path style="fill:none;stroke:red;stroke-width:1px;stroke-linecap:butt;stroke-linejoin:miter;stroke-opacity:1" d="M 380.342,821.339 380.342,830.988 z" id="boundary" inkscape:connector-curvature="0" />
	<path style="fill:none;stroke:red;stroke-width:1px;stroke-linecap:butt;stroke-linejoin:miter;stroke-opacity:1" d="M 380.342,830.988 380.342,840.638 z" id="boundary" inkscape:connector-curvature="0" />
	<path style="fill:none;stroke:red;stroke-width:1px;stroke-linecap:butt;stroke-linejoin:miter;stroke-opacity:1" d="M 380.342,840.638 380.342,850.288 z" id="boundary" inkscape:connector-curvature="0" />
	<path style="fill:none;stroke:red;stroke-width:1px;stroke-linecap:butt;stroke-linejoin:miter;stroke-opacity:1" d="M 380.342,850.288 380.342,859.938 z" id="boundary" inkscape:connector-curvature="0" />
	<path style="fill:none;stroke:red;stroke-width:1px;stroke-linecap:butt;stroke-linejoin:miter;stroke-opacity:1" d="M 380.342,859.938 380.342,869.588 z" id="boundary" inkscape:connector-curvature="0" />
	<path style="fill:none;stroke:red;stroke-width:1px;stroke-linecap:butt;stroke-linejoin:miter;stroke-opacity:1" d="M 380.342,869.588 380.342,879.237 z" id="boundary" inkscape:connector-curvature="0" />
	<path style="fill:none;stroke:red;stroke-width:1px;stroke-linecap:butt;stroke-linejoin:miter;stroke-opacity:1" d="M 380.342,879.237 380.342,888.887 z" id="boundary" inkscape:connector-curvature="0" />
	<path style="fill:none;stroke:red;stroke-width:1px;stroke-linecap:butt;stroke-linejoin:miter;stroke-opacity:1" d="M 380.342,888.887 380.342,898.537 z" id="boundary" inkscape:connector-curvature="0" />
	<path style="fill:none;stroke:red;stroke-width:1px;stroke-linecap:butt;stroke-linejoin:miter;stroke-opacity:1" d="M 380.342,898.537 380.342,908.187 z" id="boundary" inkscape:connector-curvature="0" />
	<path style="fill:none;stroke:red;stroke-width:1px;stroke-linecap:butt;stroke-linejoin:miter;stroke-opacity:1" d="M 382.272,990.21 399.642,993.105 z" id="boundary" inkscape:connector-curvature="0" />
	<path style="fill:none;stroke:red;stroke-width:1px;stroke-linecap:butt;stroke-linejoin:miter;stroke-opacity:1" d="M 389.992,7.85992 390.957,17.5097 z" id="boundary" inkscape:connector-curvature="0" />
	<path style="fill:none;stroke:red;stroke-width:1px;stroke-linecap:butt;stroke-linejoin:miter;stroke-opacity:1" d="M 390.957,17.5097 390.957,27.1595 z" id="boundary" inkscape:connector-curvature="0" />
	<path style="fill:none;stroke:red;stroke-width:1px;stroke-linecap:butt;stroke-linejoin:miter;stroke-opacity:1" d="M 390.957,27.1595 395.782,35.8444 z" id="boundary" inkscape:connector-curvature="0" />
	<path style="fill:none;stroke:red;stroke-width:1px;stroke-linecap:butt;stroke-linejoin:miter;stroke-opacity:1" d="M 395.782,35.8444 395.782,45.4942 z" id="boundary" inkscape:connector-curvature="0" />
	<path style="fill:none;stroke:red;stroke-width:1px;stroke-linecap:butt;stroke-linejoin:miter;stroke-opacity:1" d="M 395.782,45.4942 400.607,54.179 z" id="boundary" inkscape:connector-curvature="0" />
	<path style="fill:none;stroke:red;stroke-width:1px;stroke-linecap:butt;stroke-linejoin:miter;stroke-opacity:1" d="M 399.642,993.105 407.362,985.385 z" id="boundary" inkscape:connector-curvature="0" />
	<path style="fill:none;stroke:red;stroke-width:1px;stroke-linecap:butt;stroke-linejoin:miter;stroke-opacity:1" d="M 400.607,54.179 400.607,63.8288 z" id="boundary" inkscape:connector-curvature="0" />
	<path style="fill:none;stroke:red;stroke-width:1px;stroke-linecap:butt;stroke-linejoin:miter;stroke-opacity:1" d="M 400.607,63.8288 405.432,72.5136 z" id="boundary" inkscape:connector-curvature="0" />
	<path style="fill:none;stroke:red;stroke-width:1px;stroke-linecap:butt;stroke-linejoin:miter;stroke-opacity:1" d="M 405.432,72.5136 410.257,81.1984 z" id="boundary" inkscape:connector-curvature="0" />
	<path style="fill:none;stroke:red;stroke-width:1px;stroke-linecap:butt;stroke-linejoin:miter;stroke-opacity:1" d="M 407.362,985.385 412.187,975.735 z" id="boundary" inkscape:connector-curvature="0" />
	<path style="fill:none;stroke:red;stroke-width:1px;stroke-linecap:butt;stroke-linejoin:miter;stroke-opacity:1" d="M 410.257,81.1984 410.257,90.8482 z" id="boundary" inkscape:connector-curvature="0" />
	<path style="fill:none;stroke:red;stroke-width:1px;stroke-linecap:butt;stroke-linejoin:miter;stroke-opacity:1" d="M 410.257,90.8482 410.257,100.498 z" id="boundary" inkscape:connector-curvature="0" />
	<path style="fill:none;stroke:red;stroke-width:1px;stroke-linecap:butt;stroke-linejoin:miter;stroke-opacity:1" d="M 410.257,100.498 415.082,109.183 z" id="boundary" inkscape:connector-curvature="0" />
	<path style="fill:none;stroke:red;stroke-width:1px;stroke-linecap:butt;stroke-linejoin:miter;stroke-opacity:1" d="M 412.187,975.735 415.082,962.226 z" id="boundary" inkscape:connector-curvature="0" />
	<path style="fill:none;stroke:red;stroke-width:1px;stroke-linecap:butt;stroke-linejoin:miter;stroke-opacity:1" d="M 415.082,109.183 419.907,117.868 z" id="boundary" inkscape:connector-curvature="0" />
	<path style="fill:none;stroke:red;stroke-width:1px;stroke-linecap:butt;stroke-linejoin:miter;stroke-opacity:1" d="M 415.082,942.926 415.082,952.576 z" id="boundary" inkscape:connector-curvature="0" />
	<path style="fill:none;stroke:red;stroke-width:1px;stroke-linecap:butt;stroke-linejoin:miter;stroke-opacity:1" d="M 415.082,942.926 419.907,933.276 z" id="boundary" inkscape:connector-curvature="0" />
	<path style="fill:none;stroke:red;stroke-width:1px;stroke-linecap:butt;stroke-linejoin:miter;stroke-opacity:1" d="M 415.082,952.576 415.082,962.226 z" id="boundary" inkscape:connector-curvature="0" />
	<path style="fill:none;stroke:red;stroke-width:1px;stroke-linecap:butt;stroke-linejoin:miter;stroke-opacity:1" d="M 419.907,117.868 419.907,127.518 z" id="boundary" inkscape:connector-curvature="0" />
	<path style="fill:none;stroke:red;stroke-width:1px;stroke-linecap:butt;stroke-linejoin:miter;stroke-opacity:1" d="M 419.907,127.518 424.732,136.202 z" id="boundary" inkscape:connector-curvature="0" />
	<path style="fill:none;stroke:red;stroke-width:1px;stroke-linecap:butt;stroke-linejoin:miter;stroke-opacity:1" d="M 419.907,807.829 419.907,817.479 z" id="boundary" inkscape:connector-curvature="0" />
	<path style="fill:none;stroke:red;stroke-width:1px;stroke-linecap:butt;stroke-linejoin:miter;stroke-opacity:1" d="M 419.907,807.829 427.626,801.074 z" id="boundary" inkscape:connector-curvature="0" />
	<path style="fill:none;stroke:red;stroke-width:1px;stroke-linecap:butt;stroke-linejoin:miter;stroke-opacity:1" d="M 419.907,817.479 419.907,827.128 z" id="boundary" inkscape:connector-curvature="0" />
	<path style="fill:none;stroke:red;stroke-width:1px;stroke-linecap:butt;stroke-linejoin:miter;stroke-opacity:1" d="M 419.907,827.128 419.907,836.778 z" id="boundary" inkscape:connector-curvature="0" />
	<path style="fill:none;stroke:red;stroke-width:1px;stroke-linecap:butt;stroke-linejoin:miter;stroke-opacity:1" d="M 419.907,836.778 419.907,846.428 z" id="boundary" inkscape:connector-curvature="0" />
	<path style="fill:none;stroke:red;stroke-width:1px;stroke-linecap:butt;stroke-linejoin:miter;stroke-opacity:1" d="M 419.907,846.428 419.907,856.078 z" id="boundary" inkscape:connector-curvature="0" />
	<path style="fill:none;stroke:red;stroke-width:1px;stroke-linecap:butt;stroke-linejoin:miter;stroke-opacity:1" d="M 419.907,856.078 419.907,865.728 z" id="boundary" inkscape:connector-curvature="0" />
	<path style="fill:none;stroke:red;stroke-width:1px;stroke-linecap:butt;stroke-linejoin:miter;stroke-opacity:1" d="M 419.907,865.728 419.907,875.377 z" id="boundary" inkscape:connector-curvature="0" />
	<path style="fill:none;stroke:red;stroke-width:1px;stroke-linecap:butt;stroke-linejoin:miter;stroke-opacity:1" d="M 419.907,875.377 419.907,885.027 z" id="boundary" inkscape:connector-curvature="0" />
	<path style="fill:none;stroke:red;stroke-width:1px;stroke-linecap:butt;stroke-linejoin:miter;stroke-opacity:1" d="M 419.907,885.027 419.907,894.677 z" id="boundary" inkscape:connector-curvature="0" />
	<path style="fill:none;stroke:red;stroke-width:1px;stroke-linecap:butt;stroke-linejoin:miter;stroke-opacity:1" d="M 419.907,894.677 419.907,904.327 z" id="boundary" inkscape:connector-curvature="0" />
	<path style="fill:none;stroke:red;stroke-width:1px;stroke-linecap:butt;stroke-linejoin:miter;stroke-opacity:1" d="M 419.907,904.327 419.907,913.977 z" id="boundary" inkscape:connector-curvature="0" />
	<path style="fill:none;stroke:red;stroke-width:1px;stroke-linecap:butt;stroke-linejoin:miter;stroke-opacity:1" d="M 419.907,913.977 419.907,923.626 z" id="boundary" inkscape:connector-curvature="0" />
	<path style="fill:none;stroke:red;stroke-width:1px;stroke-linecap:butt;stroke-linejoin:miter;stroke-opacity:1" d="M 419.907,923.626 419.907,933.276 z" id="boundary" inkscape:connector-curvature="0" />
	<path style="fill:none;stroke:red;stroke-width:1px;stroke-linecap:butt;stroke-linejoin:miter;stroke-opacity:1" d="M 424.732,136.202 429.556,144.887 z" id="boundary" inkscape:connector-curvature="0" />
	<path style="fill:none;stroke:red;stroke-width:1px;stroke-linecap:butt;stroke-linejoin:miter;stroke-opacity:1" d="M 427.626,801.074 432.451,791.424 z" id="boundary" inkscape:connector-curvature="0" />
	<path style="fill:none;stroke:red;stroke-width:1px;stroke-linecap:butt;stroke-linejoin:miter;stroke-opacity:1" d="M 429.556,144.887 434.381,153.572 z" id="boundary" inkscape:connector-curvature="0" />
	<path style="fill:none;stroke:red;stroke-width:1px;stroke-linecap:butt;stroke-linejoin:miter;stroke-opacity:1" d="M 432.451,791.424 439.206,783.704 z" id="boundary" inkscape:connector-curvature="0" />
	<path style="fill:none;stroke:red;stroke-width:1px;stroke-linecap:butt;stroke-linejoin:miter;stroke-opacity:1" d="M 434.381,153.572 438.241,163.222 z" id="boundary" inkscape:connector-curvature="0" />
	<path style="fill:none;stroke:red;stroke-width:1px;stroke-linecap:butt;stroke-linejoin:miter;stroke-opacity:1" d="M 438.241,163.222 443.066,171.907 z" id="boundary" inkscape:connector-curvature="0" />
	<path style="fill:none;stroke:red;stroke-width:1px;stroke-linecap:butt;stroke-linejoin:miter;stroke-opacity:1" d="M 439.206,783.704 448.856,783.704 z" id="boundary" inkscape:connector-curvature="0" />
	<path style="fill:none;stroke:red;stroke-width:1px;stroke-linecap:butt;stroke-linejoin:miter;stroke-opacity:1" d="M 448.856,783.704 458.506,783.704 z" id="boundary" inkscape:connector-curvature="0" />
	<path style="fill:none;stroke:red;stroke-width:1px;stroke-linecap:butt;stroke-linejoin:miter;stroke-opacity:1" d="M 453.681,277.089 453.681,286.739 z" id="boundary" inkscape:connector-curvature="0" />
	<path style="fill:none;stroke:red;stroke-width:1px;stroke-linecap:butt;stroke-linejoin:miter;stroke-opacity:1" d="M 453.681,277.089 461.401,270.335 z" id="boundary" inkscape:connector-curvature="0" />
	<path style="fill:none;stroke:red;stroke-width:1px;stroke-linecap:butt;stroke-linejoin:miter;stroke-opacity:1" d="M 453.681,286.739 453.681,296.389 z" id="boundary" inkscape:connector-curvature="0" />
	<path style="fill:none;stroke:red;stroke-width:1px;stroke-linecap:butt;stroke-linejoin:miter;stroke-opacity:1" d="M 453.681,296.389 458.506,305.074 z" id="boundary" inkscape:connector-curvature="0" />
	<path style="fill:none;stroke:red;stroke-width:1px;stroke-linecap:butt;stroke-linejoin:miter;stroke-opacity:1" d="M 458.506,305.074 458.506,314.724 z" id="boundary" inkscape:connector-curvature="0" />
	<path style="fill:none;stroke:red;stroke-width:1px;stroke-linecap:butt;stroke-linejoin:miter;stroke-opacity:1" d="M 458.506,314.724 463.331,323.409 z" id="boundary" inkscape:connector-curvature="0" />
	<path style="fill:none;stroke:red;stroke-width:1px;stroke-linecap:butt;stroke-linejoin:miter;stroke-opacity:1" d="M 458.506,783.704 468.156,783.704 z" id="boundary" inkscape:connector-curvature="0" />
	<path style="fill:none;stroke:red;stroke-width:1px;stroke-linecap:butt;stroke-linejoin:miter;stroke-opacity:1" d="M 461.401,270.335 471.051,267.44 z" id="boundary" inkscape:connector-curvature="0" />
	<path style="fill:none;stroke:red;stroke-width:1px;stroke-linecap:butt;stroke-linejoin:miter;stroke-opacity:1" d="M 463.331,323.409 471.051,330.163 z" id="boundary" inkscape:connector-curvature="0" />
	<path style="fill:none;stroke:red;stroke-width:1px;stroke-linecap:butt;stroke-linejoin:miter;stroke-opacity:1" d="M 468.156,783.704 477.805,783.704 z" id="boundary" inkscape:connector-curvature="0" />
	<path style="fill:none;stroke:red;stroke-width:1px;stroke-linecap:butt;stroke-linejoin:miter;stroke-opacity:1" d="M 471.051,267.44 480.7,267.44 z" id="boundary" inkscape:connector-curvature="0" />
	<path style="fill:none;stroke:red;stroke-width:1px;stroke-linecap:butt;stroke-linejoin:miter;stroke-opacity:1" d="M 471.051,330.163 474.911,339.813 z" id="boundary" inkscape:connector-curvature="0" />
	<path style="fill:none;stroke:red;stroke-width:1px;stroke-linecap:butt;stroke-linejoin:miter;stroke-opacity:1" d="M 472.981,211.471 479.735,219.191 z" id="boundary" inkscape:connector-curvature="0" />
	<path style="fill:none;stroke:red;stroke-width:1px;stroke-linecap:butt;stroke-linejoin:miter;stroke-opacity:1" d="M 474.911,339.813 482.63,346.568 z" id="boundary" inkscape:connector-curvature="0" />
	<path style="fill:none;stroke:red;stroke-width:1px;stroke-linecap:butt;stroke-linejoin:miter;stroke-opacity:1" d="M 477.805,783.704 487.455,783.704 z" id="boundary" inkscape:connector-curvature="0" />
	<path style="fill:none;stroke:red;stroke-width:1px;stroke-linecap:butt;stroke-linejoin:miter;stroke-opacity:1" d="M 479.735,219.191 489.385,223.051 z" id="boundary" inkscape:connector-curvature="0" />
	<path style="fill:none;stroke:red;stroke-width:1px;stroke-linecap:butt;stroke-linejoin:miter;stroke-opacity:1" d="M 480.7,267.44 490.35,267.44 z" id="boundary" inkscape:connector-curvature="0" />
	<path style="fill:none;stroke:red;stroke-width:1px;stroke-linecap:butt;stroke-linejoin:miter;stroke-opacity:1" d="M 482.63,346.568 482.63,356.218 z" id="boundary" inkscape:connector-curvature="0" />
	<path style="fill:none;stroke:red;stroke-width:1px;stroke-linecap:butt;stroke-linejoin:miter;stroke-opacity:1" d="M 482.63,356.218 489.385,363.938 z" id="boundary" inkscape:connector-curvature="0" />
	<path style="fill:none;stroke:red;stroke-width:1px;stroke-linecap:butt;stroke-linejoin:miter;stroke-opacity:1" d="M 487.455,783.704 497.105,785.634 z" id="boundary" inkscape:connector-curvature="0" />
	<path style="fill:none;stroke:red;stroke-width:1px;stroke-linecap:butt;stroke-linejoin:miter;stroke-opacity:1" d="M 489.385,223.051 496.14,230.77 z" id="boundary" inkscape:connector-curvature="0" />
	<path style="fill:none;stroke:red;stroke-width:1px;stroke-linecap:butt;stroke-linejoin:miter;stroke-opacity:1" d="M 489.385,363.938 497.105,370.693 z" id="boundary" inkscape:connector-curvature="0" />
	<path style="fill:none;stroke:red;stroke-width:1px;stroke-linecap:butt;stroke-linejoin:miter;stroke-opacity:1" d="M 490.35,267.44 499.035,272.265 z" id="boundary" inkscape:connector-curvature="0" />
	<path style="fill:none;stroke:red;stroke-width:1px;stroke-linecap:butt;stroke-linejoin:miter;stroke-opacity:1" d="M 496.14,230.77 500.965,239.455 z" id="boundary" inkscape:connector-curvature="0" />
	<path style="fill:none;stroke:red;stroke-width:1px;stroke-linecap:butt;stroke-linejoin:miter;stroke-opacity:1" d="M 497.105,370.693 501.93,379.377 z" id="boundary" inkscape:connector-curvature="0" />
	<path style="fill:none;stroke:red;stroke-width:1px;stroke-linecap:butt;stroke-linejoin:miter;stroke-opacity:1" d="M 497.105,785.634 506.755,788.529 z" id="boundary" inkscape:connector-curvature="0" />
	<path style="fill:none;stroke:red;stroke-width:1px;stroke-linecap:butt;stroke-linejoin:miter;stroke-opacity:1" d="M 499.035,272.265 508.685,272.265 z" id="boundary" inkscape:connector-curvature="0" />
	<path style="fill:none;stroke:red;stroke-width:1px;stroke-linecap:butt;stroke-linejoin:miter;stroke-opacity:1" d="M 500.965,239.455 506.755,247.175 z" id="boundary" inkscape:connector-curvature="0" />
	<path style="fill:none;stroke:red;stroke-width:1px;stroke-linecap:butt;stroke-linejoin:miter;stroke-opacity:1" d="M 501.93,379.377 506.755,388.062 z" id="boundary" inkscape:connector-curvature="0" />
	<path style="fill:none;stroke:red;stroke-width:1px;stroke-linecap:butt;stroke-linejoin:miter;stroke-opacity:1" d="M 506.755,247.175 516.405,250.07 z" id="boundary" inkscape:connector-curvature="0" />
	<path style="fill:none;stroke:red;stroke-width:1px;stroke-linecap:butt;stroke-linejoin:miter;stroke-opacity:1" d="M 506.755,388.062 511.58,396.747 z" id="boundary" inkscape:connector-curvature="0" />
	<path style="fill:none;stroke:red;stroke-width:1px;stroke-linecap:butt;stroke-linejoin:miter;stroke-opacity:1" d="M 506.755,788.529 516.405,788.529 z" id="boundary" inkscape:connector-curvature="0" />
	<path style="fill:none;stroke:red;stroke-width:1px;stroke-linecap:butt;stroke-linejoin:miter;stroke-opacity:1" d="M 508.685,272.265 518.335,272.265 z" id="boundary" inkscape:connector-curvature="0" />
	<path style="fill:none;stroke:red;stroke-width:1px;stroke-linecap:butt;stroke-linejoin:miter;stroke-opacity:1" d="M 511.58,396.747 519.3,402.537 z" id="boundary" inkscape:connector-curvature="0" />
	<path style="fill:none;stroke:red;stroke-width:1px;stroke-linecap:butt;stroke-linejoin:miter;stroke-opacity:1" d="M 516.405,788.529 526.054,790.459 z" id="boundary" inkscape:connector-curvature="0" />
	<path style="fill:none;stroke:red;stroke-width:1px;stroke-linecap:butt;stroke-linejoin:miter;stroke-opacity:1" d="M 518.335,272.265 527.984,266.475 z" id="boundary" inkscape:connector-curvature="0" />
	<path style="fill:none;stroke:red;stroke-width:1px;stroke-linecap:butt;stroke-linejoin:miter;stroke-opacity:1" d="M 519.3,402.537 526.054,410.257 z" id="boundary" inkscape:connector-curvature="0" />
	<path style="fill:none;stroke:red;stroke-width:1px;stroke-linecap:butt;stroke-linejoin:miter;stroke-opacity:1" d="M 526.054,410.257 530.879,418.942 z" id="boundary" inkscape:connector-curvature="0" />
	<path style="fill:none;stroke:red;stroke-width:1px;stroke-linecap:butt;stroke-linejoin:miter;stroke-opacity:1" d="M 526.054,790.459 534.739,795.284 z" id="boundary" inkscape:connector-curvature="0" />
	<path style="fill:none;stroke:red;stroke-width:1px;stroke-linecap:butt;stroke-linejoin:miter;stroke-opacity:1" d="M 530.879,418.942 538.599,425.696 z" id="boundary" inkscape:connector-curvature="0" />
	<path style="fill:none;stroke:red;stroke-width:1px;stroke-linecap:butt;stroke-linejoin:miter;stroke-opacity:1" d="M 534.739,795.284 544.389,798.179 z" id="boundary" inkscape:connector-curvature="0" />
	<path style="fill:none;stroke:red;stroke-width:1px;stroke-linecap:butt;stroke-linejoin:miter;stroke-opacity:1" d="M 538.599,425.696 547.284,430.521 z" id="boundary" inkscape:connector-curvature="0" />
	<path style="fill:none;stroke:red;stroke-width:1px;stroke-linecap:butt;stroke-linejoin:miter;stroke-opacity:1" d="M 544.389,798.179 553.074,803.004 z" id="boundary" inkscape:connector-curvature="0" />
	<path style="fill:none;stroke:red;stroke-width:1px;stroke-linecap:butt;stroke-linejoin:miter;stroke-opacity:1" d="M 547.284,430.521 561.759,444.996 z" id="boundary" inkscape:connector-curvature="0" />
	<path style="fill:none;stroke:red;stroke-width:1px;stroke-linecap:butt;stroke-linejoin:miter;stroke-opacity:1" d="M 553.074,803.004 562.724,803.004 z" id="boundary" inkscape:connector-curvature="0" />
	<path style="fill:none;stroke:red;stroke-width:1px;stroke-linecap:butt;stroke-linejoin:miter;stroke-opacity:1" d="M 561.759,444.996 568.514,452.716 z" id="boundary" inkscape:connector-curvature="0" />
	<path style="fill:none;stroke:red;stroke-width:1px;stroke-linecap:butt;stroke-linejoin:miter;stroke-opacity:1" d="M 562.724,803.004 572.374,803.004 z" id="boundary" inkscape:connector-curvature="0" />
	<path style="fill:none;stroke:red;stroke-width:1px;stroke-linecap:butt;stroke-linejoin:miter;stroke-opacity:1" d="M 564.654,542.459 564.654,552.109 z" id="boundary" inkscape:connector-curvature="0" />
	<path style="fill:none;stroke:red;stroke-width:1px;stroke-linecap:butt;stroke-linejoin:miter;stroke-opacity:1" d="M 564.654,542.459 572.374,535.704 z" id="boundary" inkscape:connector-curvature="0" />
	<path style="fill:none;stroke:red;stroke-width:1px;stroke-linecap:butt;stroke-linejoin:miter;stroke-opacity:1" d="M 564.654,552.109 564.654,561.759 z" id="boundary" inkscape:connector-curvature="0" />
	<path style="fill:none;stroke:red;stroke-width:1px;stroke-linecap:butt;stroke-linejoin:miter;stroke-opacity:1" d="M 564.654,561.759 566.584,571.409 z" id="boundary" inkscape:connector-curvature="0" />
	<path style="fill:none;stroke:red;stroke-width:1px;stroke-linecap:butt;stroke-linejoin:miter;stroke-opacity:1" d="M 566.584,571.409 569.479,581.058 z" id="boundary" inkscape:connector-curvature="0" />
	<path style="fill:none;stroke:red;stroke-width:1px;stroke-linecap:butt;stroke-linejoin:miter;stroke-opacity:1" d="M 568.514,452.716 573.339,461.401 z" id="boundary" inkscape:connector-curvature="0" />
	<path style="fill:none;stroke:red;stroke-width:1px;stroke-linecap:butt;stroke-linejoin:miter;stroke-opacity:1" d="M 569.479,581.058 571.409,590.708 z" id="boundary" inkscape:connector-curvature="0" />
	<path style="fill:none;stroke:red;stroke-width:1px;stroke-linecap:butt;stroke-linejoin:miter;stroke-opacity:1" d="M 571.409,590.708 576.233,599.393 z" id="boundary" inkscape:connector-curvature="0" />
	<path style="fill:none;stroke:red;stroke-width:1px;stroke-linecap:butt;stroke-linejoin:miter;stroke-opacity:1" d="M 572.374,535.704 582.023,532.809 z" id="boundary" inkscape:connector-curvature="0" />
	<path style="fill:none;stroke:red;stroke-width:1px;stroke-linecap:butt;stroke-linejoin:miter;stroke-opacity:1" d="M 572.374,803.004 582.023,803.004 z" id="boundary" inkscape:connector-curvature="0" />
	<path style="fill:none;stroke:red;stroke-width:1px;stroke-linecap:butt;stroke-linejoin:miter;stroke-opacity:1" d="M 573.339,461.401 586.848,474.911 z" id="boundary" inkscape:connector-curvature="0" />
	<path style="fill:none;stroke:red;stroke-width:1px;stroke-linecap:butt;stroke-linejoin:miter;stroke-opacity:1" d="M 576.233,599.393 579.128,609.043 z" id="boundary" inkscape:connector-curvature="0" />
	<path style="fill:none;stroke:red;stroke-width:1px;stroke-linecap:butt;stroke-linejoin:miter;stroke-opacity:1" d="M 579.128,609.043 583.953,617.728 z" id="boundary" inkscape:connector-curvature="0" />
	<path style="fill:none;stroke:red;stroke-width:1px;stroke-linecap:butt;stroke-linejoin:miter;stroke-opacity:1" d="M 582.023,532.809 591.673,532.809 z" id="boundary" inkscape:connector-curvature="0" />
	<path style="fill:none;stroke:red;stroke-width:1px;stroke-linecap:butt;stroke-linejoin:miter;stroke-opacity:1" d="M 582.023,803.004 590.708,807.829 z" id="boundary" inkscape:connector-curvature="0" />
	<path style="fill:none;stroke:red;stroke-width:1px;stroke-linecap:butt;stroke-linejoin:miter;stroke-opacity:1" d="M 583.953,617.728 583.953,627.377 z" id="boundary" inkscape:connector-curvature="0" />
	<path style="fill:none;stroke:red;stroke-width:1px;stroke-linecap:butt;stroke-linejoin:miter;stroke-opacity:1" d="M 583.953,627.377 588.778,636.062 z" id="boundary" inkscape:connector-curvature="0" />
	<path style="fill:none;stroke:red;stroke-width:1px;stroke-linecap:butt;stroke-linejoin:miter;stroke-opacity:1" d="M 586.848,474.911 593.603,482.63 z" id="boundary" inkscape:connector-curvature="0" />
	<path style="fill:none;stroke:red;stroke-width:1px;stroke-linecap:butt;stroke-linejoin:miter;stroke-opacity:1" d="M 588.778,636.062 593.603,644.747 z" id="boundary" inkscape:connector-curvature="0" />
	<path style="fill:none;stroke:red;stroke-width:1px;stroke-linecap:butt;stroke-linejoin:miter;stroke-opacity:1" d="M 590.708,807.829 600.358,807.829 z" id="boundary" inkscape:connector-curvature="0" />
	<path style="fill:none;stroke:red;stroke-width:1px;stroke-linecap:butt;stroke-linejoin:miter;stroke-opacity:1" d="M 591.673,532.809 601.323,532.809 z" id="boundary" inkscape:connector-curvature="0" />
	<path style="fill:none;stroke:red;stroke-width:1px;stroke-linecap:butt;stroke-linejoin:miter;stroke-opacity:1" d="M 593.603,482.63 598.428,491.315 z" id="boundary" inkscape:connector-curvature="0" />
	<path style="fill:none;stroke:red;stroke-width:1px;stroke-linecap:butt;stroke-linejoin:miter;stroke-opacity:1" d="M 593.603,644.747 598.428,653.432 z" id="boundary" inkscape:connector-curvature="0" />
	<path style="fill:none;stroke:red;stroke-width:1px;stroke-linecap:butt;stroke-linejoin:miter;stroke-opacity:1" d="M 598.428,491.315 605.183,499.035 z" id="boundary" inkscape:connector-curvature="0" />
	<path style="fill:none;stroke:red;stroke-width:1px;stroke-linecap:butt;stroke-linejoin:miter;stroke-opacity:1" d="M 598.428,653.432 603.253,662.117 z" id="boundary" inkscape:connector-curvature="0" />
	<path style="fill:none;stroke:red;stroke-width:1px;stroke-linecap:butt;stroke-linejoin:miter;stroke-opacity:1" d="M 600.358,807.829 610.008,807.829 z" id="boundary" inkscape:connector-curvature="0" />
	<path style="fill:none;stroke:red;stroke-width:1px;stroke-linecap:butt;stroke-linejoin:miter;stroke-opacity:1" d="M 601.323,532.809 610.008,537.634 z" id="boundary" inkscape:connector-curvature="0" />
	<path style="fill:none;stroke:red;stroke-width:1px;stroke-linecap:butt;stroke-linejoin:miter;stroke-opacity:1" d="M 603.253,662.117 608.078,670.802 z" id="boundary" inkscape:connector-curvature="0" />
	<path style="fill:none;stroke:red;stroke-width:1px;stroke-linecap:butt;stroke-linejoin:miter;stroke-opacity:1" d="M 605.183,499.035 619.658,513.51 z" id="boundary" inkscape:connector-curvature="0" />
	<path style="fill:none;stroke:red;stroke-width:1px;stroke-linecap:butt;stroke-linejoin:miter;stroke-opacity:1" d="M 608.078,670.802 608.078,680.451 z" id="boundary" inkscape:connector-curvature="0" />
	<path style="fill:none;stroke:red;stroke-width:1px;stroke-linecap:butt;stroke-linejoin:miter;stroke-opacity:1" d="M 608.078,680.451 612.903,689.136 z" id="boundary" inkscape:connector-curvature="0" />
	<path style="fill:none;stroke:red;stroke-width:1px;stroke-linecap:butt;stroke-linejoin:miter;stroke-opacity:1" d="M 610.008,537.634 619.658,537.634 z" id="boundary" inkscape:connector-curvature="0" />
	<path style="fill:none;stroke:red;stroke-width:1px;stroke-linecap:butt;stroke-linejoin:miter;stroke-opacity:1" d="M 610.008,807.829 619.658,807.829 z" id="boundary" inkscape:connector-curvature="0" />
	<path style="fill:none;stroke:red;stroke-width:1px;stroke-linecap:butt;stroke-linejoin:miter;stroke-opacity:1" d="M 619.658,513.51 629.307,517.37 z" id="boundary" inkscape:connector-curvature="0" />
	<path style="fill:none;stroke:red;stroke-width:1px;stroke-linecap:butt;stroke-linejoin:miter;stroke-opacity:1" d="M 619.658,537.634 629.307,541.494 z" id="boundary" inkscape:connector-curvature="0" />
	<path style="fill:none;stroke:red;stroke-width:1px;stroke-linecap:butt;stroke-linejoin:miter;stroke-opacity:1" d="M 619.658,807.829 629.307,807.829 z" id="boundary" inkscape:connector-curvature="0" />
	<path style="fill:none;stroke:red;stroke-width:1px;stroke-linecap:butt;stroke-linejoin:miter;stroke-opacity:1" d="M 624.482,705.541 627.377,715.191 z" id="boundary" inkscape:connector-curvature="0" />
	<path style="fill:none;stroke:red;stroke-width:1px;stroke-linecap:butt;stroke-linejoin:miter;stroke-opacity:1" d="M 627.377,715.191 632.202,723.875 z" id="boundary" inkscape:connector-curvature="0" />
	<path style="fill:none;stroke:red;stroke-width:1px;stroke-linecap:butt;stroke-linejoin:miter;stroke-opacity:1" d="M 629.307,517.37 632.202,527.019 z" id="boundary" inkscape:connector-curvature="0" />
	<path style="fill:none;stroke:red;stroke-width:1px;stroke-linecap:butt;stroke-linejoin:miter;stroke-opacity:1" d="M 629.307,541.494 632.202,527.019 z" id="boundary" inkscape:connector-curvature="0" />
	<path style="fill:none;stroke:red;stroke-width:1px;stroke-linecap:butt;stroke-linejoin:miter;stroke-opacity:1" d="M 629.307,807.829 638.957,807.829 z" id="boundary" inkscape:connector-curvature="0" />
	<path style="fill:none;stroke:red;stroke-width:1px;stroke-linecap:butt;stroke-linejoin:miter;stroke-opacity:1" d="M 632.202,723.875 637.027,732.56 z" id="boundary" inkscape:connector-curvature="0" />
	<path style="fill:none;stroke:red;stroke-width:1px;stroke-linecap:butt;stroke-linejoin:miter;stroke-opacity:1" d="M 637.027,732.56 643.782,740.28 z" id="boundary" inkscape:connector-curvature="0" />
	<path style="fill:none;stroke:red;stroke-width:1px;stroke-linecap:butt;stroke-linejoin:miter;stroke-opacity:1" d="M 638.957,807.829 648.607,806.864 z" id="boundary" inkscape:connector-curvature="0" />
	<path style="fill:none;stroke:red;stroke-width:1px;stroke-linecap:butt;stroke-linejoin:miter;stroke-opacity:1" d="M 643.782,740.28 651.502,747.035 z" id="boundary" inkscape:connector-curvature="0" />
	<path style="fill:none;stroke:red;stroke-width:1px;stroke-linecap:butt;stroke-linejoin:miter;stroke-opacity:1" d="M 648.607,806.864 658.257,803.004 z" id="boundary" inkscape:connector-curvature="0" />
	<path style="fill:none;stroke:red;stroke-width:1px;stroke-linecap:butt;stroke-linejoin:miter;stroke-opacity:1" d="M 651.502,747.035 656.327,755.72 z" id="boundary" inkscape:connector-curvature="0" />
	<path style="fill:none;stroke:red;stroke-width:1px;stroke-linecap:butt;stroke-linejoin:miter;stroke-opacity:1" d="M 656.327,755.72 669.837,770.195 z" id="boundary" inkscape:connector-curvature="0" />
	<path style="fill:none;stroke:red;stroke-width:1px;stroke-linecap:butt;stroke-linejoin:miter;stroke-opacity:1" d="M 658.257,803.004 667.907,802.039 z" id="boundary" inkscape:connector-curvature="0" />
	<path style="fill:none;stroke:red;stroke-width:1px;stroke-linecap:butt;stroke-linejoin:miter;stroke-opacity:1" d="M 667.907,802.039 677.556,798.179 z" id="boundary" inkscape:connector-curvature="0" />
	<path style="fill:none;stroke:red;stroke-width:1px;stroke-linecap:butt;stroke-linejoin:miter;stroke-opacity:1" d="M 669.837,770.195 673.696,779.844 z" id="boundary" inkscape:connector-curvature="0" />
	<path style="fill:none;stroke:red;stroke-width:1px;stroke-linecap:butt;stroke-linejoin:miter;stroke-opacity:1" d="M 673.696,779.844 680.451,787.564 z" id="boundary" inkscape:connector-curvature="0" />
	<path style="fill:none;stroke:red;stroke-width:1px;stroke-linecap:butt;stroke-linejoin:miter;stroke-opacity:1" d="M 677.556,798.179 680.451,787.564 z" id="boundary" inkscape:connector-curvature="0" />
	<circle cx="4" cy="780.809" r="4" fill="#0" id="circle0"/>
	<circle cx="8.8249" cy="771.16" r="4" fill="#0" id="circle1"/>
	<circle cx="9.78988" cy="788.529" r="4" fill="#0" id="circle2"/>
	<circle cx="16.5447" cy="763.44" r="4" fill="#0" id="circle3"/>
	<circle cx="18.4747" cy="793.354" r="4" fill="#0" id="circle4"/>
	<circle cx="24.2646" cy="755.72" r="4" fill="#0" id="circle5"/>
	<circle cx="27.1595" cy="798.179" r="4" fill="#0" id="circle6"/>
	<circle cx="31.9844" cy="748.965" r="4" fill="#0" id="circle7"/>
	<circle cx="35.8444" cy="803.004" r="4" fill="#0" id="circle8"/>
	<circle cx="38.7393" cy="741.245" r="4" fill="#0" id="circle9"/>
	<circle cx="45.4942" cy="803.004" r="4" fill="#0" id="circle10"/>
	<circle cx="46.4591" cy="734.49" r="4" fill="#0" id="circle11"/>
	<circle cx="52.249" cy="722.911" r="4" fill="#0" id="circle12"/>
	<circle cx="55.144" cy="803.004" r="4" fill="#0" id="circle13"/>
	<circle cx="59.9689" cy="715.191" r="4" fill="#0" id="circle14"/>
	<circle cx="64.7938" cy="803.004" r="4" fill="#0" id="circle15"/>
	<circle cx="67.6887" cy="707.471" r="4" fill="#0" id="circle16"/>
	<circle cx="71.5486" cy="563.689" r="4" fill="#0" id="circle17"/>
	<circle cx="74.4436" cy="803.004" r="4" fill="#0" id="circle18"/>
	<circle cx="75.4086" cy="700.716" r="4" fill="#0" id="circle19"/>
	<circle cx="79.2685" cy="555.969" r="4" fill="#0" id="circle20"/>
	<circle cx="81.1984" cy="566.584" r="4" fill="#0" id="circle21"/>
	<circle cx="81.1984" cy="689.136" r="4" fill="#0" id="circle22"/>
	<circle cx="84.0934" cy="803.004" r="4" fill="#0" id="circle23"/>
	<circle cx="86.0233" cy="679.486" r="4" fill="#0" id="circle24"/>
	<circle cx="86.9883" cy="548.249" r="4" fill="#0" id="circle25"/>
	<circle cx="90.8482" cy="566.584" r="4" fill="#0" id="circle26"/>
	<circle cx="93.7432" cy="671.767" r="4" fill="#0" id="circle27"/>
	<circle cx="93.7432" cy="803.004" r="4" fill="#0" id="circle28"/>
	<circle cx="94.7082" cy="541.494" r="4" fill="#0" id="circle29"/>
	<circle cx="98.5681" cy="531.844" r="4" fill="#0" id="circle30"/>
	<circle cx="100.498" cy="566.584" r="4" fill="#0" id="circle31"/>
	<circle cx="101.463" cy="664.047" r="4" fill="#0" id="circle32"/>
	<circle cx="103.393" cy="803.004" r="4" fill="#0" id="circle33"/>
	<circle cx="106.288" cy="524.125" r="4" fill="#0" id="circle34"/>
	<circle cx="106.288" cy="654.397" r="4" fill="#0" id="circle35"/>
	<circle cx="110.148" cy="566.584" r="4" fill="#0" id="circle36"/>
	<circle cx="113.043" cy="803.004" r="4" fill="#0" id="circle37"/>
	<circle cx="114.008" cy="517.37" r="4" fill="#0" id="circle38"/>
	<circle cx="114.008" cy="647.642" r="4" fill="#0" id="circle39"/>
	<circle cx="119.798" cy="566.584" r="4" fill="#0" id="circle40"/>
	<circle cx="119.798" cy="636.062" r="4" fill="#0" id="circle41"/>
	<circle cx="120.763" cy="509.65" r="4" fill="#0" id="circle42"/>
	<circle cx="122.693" cy="803.004" r="4" fill="#0" id="circle43"/>
	<circle cx="125.588" cy="500" r="4" fill="#0" id="circle44"/>
	<circle cx="127.518" cy="628.342" r="4" fill="#0" id="circle45"/>
	<circle cx="129.447" cy="566.584" r="4" fill="#0" id="circle46"/>
	<circle cx="130.412" cy="490.35" r="4" fill="#0" id="circle47"/>
	<circle cx="132.342" cy="803.004" r="4" fill="#0" id="circle48"/>
	<circle cx="135.237" cy="480.7" r="4" fill="#0" id="circle49"/>
	<circle cx="135.237" cy="620.623" r="4" fill="#0" id="circle50"/>
	<circle cx="139.097" cy="566.584" r="4" fill="#0" id="circle51"/>
	<circle cx="140.062" cy="610.973" r="4" fill="#0" id="circle52"/>
	<circle cx="141.992" cy="803.004" r="4" fill="#0" id="circle53"/>
	<circle cx="142.957" cy="473.946" r="4" fill="#0" id="circle54"/>
	<circle cx="144.887" cy="574.304" r="4" fill="#0" id="circle55"/>
	<circle cx="144.887" cy="601.323" r="4" fill="#0" id="circle56"/>
	<circle cx="148.747" cy="462.366" r="4" fill="#0" id="circle57"/>
	<circle cx="148.747" cy="583.953" r="4" fill="#0" id="circle58"/>
	<circle cx="151.642" cy="803.004" r="4" fill="#0" id="circle59"/>
	<circle cx="156.467" cy="454.646" r="4" fill="#0" id="circle60"/>
	<circle cx="158.397" cy="443.066" r="4" fill="#0" id="circle61"/>
	<circle cx="161.292" cy="803.004" r="4" fill="#0" id="circle62"/>
	<circle cx="166.117" cy="435.346" r="4" fill="#0" id="circle63"/>
	<circle cx="168.047" cy="418.942" r="4" fill="#0" id="circle64"/>
	<circle cx="170.942" cy="803.004" r="4" fill="#0" id="circle65"/>
	<circle cx="175.767" cy="411.222" r="4" fill="#0" id="circle66"/>
	<circle cx="180.591" cy="803.004" r="4" fill="#0" id="circle67"/>
	<circle cx="182.521" cy="399.642" r="4" fill="#0" id="circle68"/>
	<circle cx="187.346" cy="274.195" r="4" fill="#0" id="circle69"/>
	<circle cx="187.346" cy="389.992" r="4" fill="#0" id="circle70"/>
	<circle cx="190.241" cy="803.004" r="4" fill="#0" id="circle71"/>
	<circle cx="192.171" cy="380.342" r="4" fill="#0" id="circle72"/>
	<circle cx="195.066" cy="266.475" r="4" fill="#0" id="circle73"/>
	<circle cx="196.996" cy="277.089" r="4" fill="#0" id="circle74"/>
	<circle cx="199.891" cy="372.623" r="4" fill="#0" id="circle75"/>
	<circle cx="199.891" cy="803.004" r="4" fill="#0" id="circle76"/>
	<circle cx="202.786" cy="258.755" r="4" fill="#0" id="circle77"/>
	<circle cx="205.681" cy="272.265" r="4" fill="#0" id="circle78"/>
	<circle cx="206.646" cy="361.043" r="4" fill="#0" id="circle79"/>
	<circle cx="208.576" cy="807.829" r="4" fill="#0" id="circle80"/>
	<circle cx="210.506" cy="252" r="4" fill="#0" id="circle81"/>
	<circle cx="211.471" cy="351.393" r="4" fill="#0" id="circle82"/>
	<circle cx="215.331" cy="272.265" r="4" fill="#0" id="circle83"/>
	<circle cx="216.296" cy="341.743" r="4" fill="#0" id="circle84"/>
	<circle cx="217.261" cy="244.28" r="4" fill="#0" id="circle85"/>
	<circle cx="218.226" cy="807.829" r="4" fill="#0" id="circle86"/>
	<circle cx="221.121" cy="332.093" r="4" fill="#0" id="circle87"/>
	<circle cx="224.981" cy="237.525" r="4" fill="#0" id="circle88"/>
	<circle cx="224.981" cy="272.265" r="4" fill="#0" id="circle89"/>
	<circle cx="227.875" cy="807.829" r="4" fill="#0" id="circle90"/>
	<circle cx="228.84" cy="324.374" r="4" fill="#0" id="circle91"/>
	<circle cx="231.735" cy="229.805" r="4" fill="#0" id="circle92"/>
	<circle cx="233.665" cy="277.089" r="4" fill="#0" id="circle93"/>
	<circle cx="233.665" cy="314.724" r="4" fill="#0" id="circle94"/>
	<circle cx="237.525" cy="807.829" r="4" fill="#0" id="circle95"/>
	<circle cx="238.49" cy="305.074" r="4" fill="#0" id="circle96"/>
	<circle cx="239.455" cy="223.051" r="4" fill="#0" id="circle97"/>
	<circle cx="240.42" cy="284.809" r="4" fill="#0" id="circle98"/>
	<circle cx="240.42" cy="294.459" r="4" fill="#0" id="circle99"/>
	<circle cx="246.21" cy="215.331" r="4" fill="#0" id="circle100"/>
	<circle cx="247.175" cy="807.829" r="4" fill="#0" id="circle101"/>
	<circle cx="253.93" cy="208.576" r="4" fill="#0" id="circle102"/>
	<circle cx="256.825" cy="807.829" r="4" fill="#0" id="circle103"/>
	<circle cx="260.685" cy="200.856" r="4" fill="#0" id="circle104"/>
	<circle cx="266.475" cy="807.829" r="4" fill="#0" id="circle105"/>
	<circle cx="268.405" cy="194.101" r="4" fill="#0" id="circle106"/>
	<circle cx="275.16" cy="186.381" r="4" fill="#0" id="circle107"/>
	<circle cx="276.125" cy="807.829" r="4" fill="#0" id="circle108"/>
	<circle cx="282.879" cy="179.626" r="4" fill="#0" id="circle109"/>
	<circle cx="285.774" cy="807.829" r="4" fill="#0" id="circle110"/>
	<circle cx="286.739" cy="169.977" r="4" fill="#0" id="circle111"/>
	<circle cx="294.459" cy="162.257" r="4" fill="#0" id="circle112"/>
	<circle cx="295.424" cy="807.829" r="4" fill="#0" id="circle113"/>
	<circle cx="299.284" cy="152.607" r="4" fill="#0" id="circle114"/>
	<circle cx="305.074" cy="810.724" r="4" fill="#0" id="circle115"/>
	<circle cx="307.004" cy="145.852" r="4" fill="#0" id="circle116"/>
	<circle cx="310.864" cy="136.202" r="4" fill="#0" id="circle117"/>
	<circle cx="314.724" cy="807.829" r="4" fill="#0" id="circle118"/>
	<circle cx="315.689" cy="126.553" r="4" fill="#0" id="circle119"/>
	<circle cx="323.409" cy="118.833" r="4" fill="#0" id="circle120"/>
	<circle cx="324.374" cy="807.829" r="4" fill="#0" id="circle121"/>
	<circle cx="328.233" cy="109.183" r="4" fill="#0" id="circle122"/>
	<circle cx="333.058" cy="99.5331" r="4" fill="#0" id="circle123"/>
	<circle cx="333.058" cy="803.004" r="4" fill="#0" id="circle124"/>
	<circle cx="336.918" cy="81.1984" r="4" fill="#0" id="circle125"/>
	<circle cx="340.778" cy="796.249" r="4" fill="#0" id="circle126"/>
	<circle cx="341.743" cy="71.5486" r="4" fill="#0" id="circle127"/>
	<circle cx="347.533" cy="788.529" r="4" fill="#0" id="circle128"/>
	<circle cx="349.463" cy="63.8288" r="4" fill="#0" id="circle129"/>
	<circle cx="354.288" cy="54.179" r="4" fill="#0" id="circle130"/>
	<circle cx="357.183" cy="788.529" r="4" fill="#0" id="circle131"/>
	<circle cx="359.113" cy="44.5292" r="4" fill="#0" id="circle132"/>
	<circle cx="365.868" cy="32.9494" r="4" fill="#0" id="circle133"/>
	<circle cx="366.833" cy="788.529" r="4" fill="#0" id="circle134"/>
	<circle cx="370.693" cy="23.2996" r="4" fill="#0" id="circle135"/>
	<circle cx="370.693" cy="944.856" r="4" fill="#0" id="circle136"/>
	<circle cx="370.693" cy="954.506" r="4" fill="#0" id="circle137"/>
	<circle cx="370.693" cy="964.156" r="4" fill="#0" id="circle138"/>
	<circle cx="370.693" cy="973.805" r="4" fill="#0" id="circle139"/>
	<circle cx="375.518" cy="13.6498" r="4" fill="#0" id="circle140"/>
	<circle cx="375.518" cy="793.354" r="4" fill="#0" id="circle141"/>
	<circle cx="375.518" cy="925.556" r="4" fill="#0" id="circle142"/>
	<circle cx="375.518" cy="935.206" r="4" fill="#0" id="circle143"/>
	<circle cx="375.518" cy="982.49" r="4" fill="#0" id="circle144"/>
	<circle cx="380.342" cy="4" r="4" fill="#0" id="circle145"/>
	<circle cx="380.342" cy="802.039" r="4" fill="#0" id="circle146"/>
	<circle cx="380.342" cy="811.689" r="4" fill="#0" id="circle147"/>
	<circle cx="380.342" cy="821.339" r="4" fill="#0" id="circle148"/>
	<circle cx="380.342" cy="830.988" r="4" fill="#0" id="circle149"/>
	<circle cx="380.342" cy="840.638" r="4" fill="#0" id="circle150"/>
	<circle cx="380.342" cy="850.288" r="4" fill="#0" id="circle151"/>
	<circle cx="380.342" cy="859.938" r="4" fill="#0" id="circle152"/>
	<circle cx="380.342" cy="869.588" r="4" fill="#0" id="circle153"/>
	<circle cx="380.342" cy="879.237" r="4" fill="#0" id="circle154"/>
	<circle cx="380.342" cy="888.887" r="4" fill="#0" id="circle155"/>
	<circle cx="380.342" cy="898.537" r="4" fill="#0" id="circle156"/>
	<circle cx="380.342" cy="908.187" r="4" fill="#0" id="circle157"/>
	<circle cx="382.272" cy="990.21" r="4" fill="#0" id="circle158"/>
	<circle cx="389.992" cy="7.85992" r="4" fill="#0" id="circle159"/>
	<circle cx="389.992" cy="996" r="4" fill="#0" id="circle160"/>
	<circle cx="390.957" cy="17.5097" r="4" fill="#0" id="circle161"/>
	<circle cx="390.957" cy="27.1595" r="4" fill="#0" id="circle162"/>
	<circle cx="395.782" cy="35.8444" r="4" fill="#0" id="circle163"/>
	<circle cx="395.782" cy="45.4942" r="4" fill="#0" id="circle164"/>
	<circle cx="399.642" cy="993.105" r="4" fill="#0" id="circle165"/>
	<circle cx="400.607" cy="54.179" r="4" fill="#0" id="circle166"/>
	<circle cx="400.607" cy="63.8288" r="4" fill="#0" id="circle167"/>
	<circle cx="405.432" cy="72.5136" r="4" fill="#0" id="circle168"/>
	<circle cx="407.362" cy="985.385" r="4" fill="#0" id="circle169"/>
	<circle cx="410.257" cy="81.1984" r="4" fill="#0" id="circle170"/>
	<circle cx="410.257" cy="90.8482" r="4" fill="#0" id="circle171"/>
	<circle cx="410.257" cy="100.498" r="4" fill="#0" id="circle172"/>
	<circle cx="412.187" cy="975.735" r="4" fill="#0" id="circle173"/>
	<circle cx="415.082" cy="109.183" r="4" fill="#0" id="circle174"/>
	<circle cx="415.082" cy="942.926" r="4" fill="#0" id="circle175"/>
	<circle cx="415.082" cy="952.576" r="4" fill="#0" id="circle176"/>
	<circle cx="415.082" cy="962.226" r="4" fill="#0" id="circle177"/>
	<circle cx="419.907" cy="117.868" r="4" fill="#0" id="circle178"/>
	<circle cx="419.907" cy="127.518" r="4" fill="#0" id="circle179"/>
	<circle cx="419.907" cy="807.829" r="4" fill="#0" id="circle180"/>
	<circle cx="419.907" cy="817.479" r="4" fill="#0" id="circle181"/>
	<circle cx="419.907" cy="827.128" r="4" fill="#0" id="circle182"/>
	<circle cx="419.907" cy="836.778" r="4" fill="#0" id="circle183"/>
	<circle cx="419.907" cy="846.428" r="4" fill="#0" id="circle184"/>
	<circle cx="419.907" cy="856.078" r="4" fill="#0" id="circle185"/>
	<circle cx="419.907" cy="865.728" r="4" fill="#0" id="circle186"/>
	<circle cx="419.907" cy="875.377" r="4" fill="#0" id="circle187"/>
	<circle cx="419.907" cy="885.027" r="4" fill="#0" id="circle188"/>
	<circle cx="419.907" cy="894.677" r="4" fill="#0" id="circle189"/>
	<circle cx="419.907" cy="904.327" r="4" fill="#0" id="circle190"/>
	<circle cx="419.907" cy="913.977" r="4" fill="#0" id="circle191"/>
	<circle cx="419.907" cy="923.626" r="4" fill="#0" id="circle192"/>
	<circle cx="419.907" cy="933.276" r="4" fill="#0" id="circle193"/>
	<circle cx="424.732" cy="136.202" r="4" fill="#0" id="circle194"/>
	<circle cx="427.626" cy="801.074" r="4" fill="#0" id="circle195"/>
	<circle cx="429.556" cy="144.887" r="4" fill="#0" id="circle196"/>
	<circle cx="432.451" cy="791.424" r="4" fill="#0" id="circle197"/>
	<circle cx="434.381" cy="153.572" r="4" fill="#0" id="circle198"/>
	<circle cx="438.241" cy="163.222" r="4" fill="#0" id="circle199"/>
	<circle cx="439.206" cy="783.704" r="4" fill="#0" id="circle200"/>
	<circle cx="443.066" cy="171.907" r="4" fill="#0" id="circle201"/>
	<circle cx="448.856" cy="179.626" r="4" fill="#0" id="circle202"/>
	<circle cx="448.856" cy="783.704" r="4" fill="#0" id="circle203"/>
	<circle cx="453.681" cy="188.311" r="4" fill="#0" id="circle204"/>
	<circle cx="453.681" cy="277.089" r="4" fill="#0" id="circle205"/>
	<circle cx="453.681" cy="286.739" r="4" fill="#0" id="circle206"/>
	<circle cx="453.681" cy="296.389" r="4" fill="#0" id="circle207"/>
	<circle cx="458.506" cy="196.996" r="4" fill="#0" id="circle208"/>
	<circle cx="458.506" cy="305.074" r="4" fill="#0" id="circle209"/>
	<circle cx="458.506" cy="314.724" r="4" fill="#0" id="circle210"/>
	<circle cx="458.506" cy="783.704" r="4" fill="#0" id="circle211"/>
	<circle cx="461.401" cy="270.335" r="4" fill="#0" id="circle212"/>
	<circle cx="463.331" cy="323.409" r="4" fill="#0" id="circle213"/>
	<circle cx="465.261" cy="204.716" r="4" fill="#0" id="circle214"/>
	<circle cx="468.156" cy="783.704" r="4" fill="#0" id="circle215"/>
	<circle cx="471.051" cy="267.44" r="4" fill="#0" id="circle216"/>
	<circle cx="471.051" cy="330.163" r="4" fill="#0" id="circle217"/>
	<circle cx="472.981" cy="211.471" r="4" fill="#0" id="circle218"/>
	<circle cx="474.911" cy="339.813" r="4" fill="#0" id="circle219"/>
	<circle cx="477.805" cy="783.704" r="4" fill="#0" id="circle220"/>
	<circle cx="479.735" cy="219.191" r="4" fill="#0" id="circle221"/>
	<circle cx="480.7" cy="267.44" r="4" fill="#0" id="circle222"/>
	<circle cx="482.63" cy="346.568" r="4" fill="#0" id="circle223"/>
	<circle cx="482.63" cy="356.218" r="4" fill="#0" id="circle224"/>
	<circle cx="487.455" cy="783.704" r="4" fill="#0" id="circle225"/>
	<circle cx="489.385" cy="223.051" r="4" fill="#0" id="circle226"/>
	<circle cx="489.385" cy="363.938" r="4" fill="#0" id="circle227"/>
	<circle cx="490.35" cy="267.44" r="4" fill="#0" id="circle228"/>
	<circle cx="496.14" cy="230.77" r="4" fill="#0" id="circle229"/>
	<circle cx="497.105" cy="370.693" r="4" fill="#0" id="circle230"/>
	<circle cx="497.105" cy="785.634" r="4" fill="#0" id="circle231"/>
	<circle cx="499.035" cy="272.265" r="4" fill="#0" id="circle232"/>
	<circle cx="500.965" cy="239.455" r="4" fill="#0" id="circle233"/>
	<circle cx="501.93" cy="379.377" r="4" fill="#0" id="circle234"/>
	<circle cx="506.755" cy="247.175" r="4" fill="#0" id="circle235"/>
	<circle cx="506.755" cy="388.062" r="4" fill="#0" id="circle236"/>
	<circle cx="506.755" cy="788.529" r="4" fill="#0" id="circle237"/>
	<circle cx="508.685" cy="272.265" r="4" fill="#0" id="circle238"/>
	<circle cx="511.58" cy="396.747" r="4" fill="#0" id="circle239"/>
	<circle cx="516.405" cy="250.07" r="4" fill="#0" id="circle240"/>
	<circle cx="516.405" cy="788.529" r="4" fill="#0" id="circle241"/>
	<circle cx="518.335" cy="272.265" r="4" fill="#0" id="circle242"/>
	<circle cx="519.3" cy="402.537" r="4" fill="#0" id="circle243"/>
	<circle cx="523.16" cy="257.79" r="4" fill="#0" id="circle244"/>
	<circle cx="526.054" cy="410.257" r="4" fill="#0" id="circle245"/>
	<circle cx="526.054" cy="790.459" r="4" fill="#0" id="circle246"/>
	<circle cx="527.984" cy="266.475" r="4" fill="#0" id="circle247"/>
	<circle cx="530.879" cy="418.942" r="4" fill="#0" id="circle248"/>
	<circle cx="534.739" cy="795.284" r="4" fill="#0" id="circle249"/>
	<circle cx="538.599" cy="425.696" r="4" fill="#0" id="circle250"/>
	<circle cx="544.389" cy="798.179" r="4" fill="#0" id="circle251"/>
	<circle cx="547.284" cy="430.521" r="4" fill="#0" id="circle252"/>
	<circle cx="553.074" cy="803.004" r="4" fill="#0" id="circle253"/>
	<circle cx="554.039" cy="438.241" r="4" fill="#0" id="circle254"/>
	<circle cx="561.759" cy="444.996" r="4" fill="#0" id="circle255"/>
	<circle cx="562.724" cy="803.004" r="4" fill="#0" id="circle256"/>
	<circle cx="564.654" cy="542.459" r="4" fill="#0" id="circle257"/>
	<circle cx="564.654" cy="552.109" r="4" fill="#0" id="circle258"/>
	<circle cx="564.654" cy="561.759" r="4" fill="#0" id="circle259"/>
	<circle cx="566.584" cy="571.409" r="4" fill="#0" id="circle260"/>
	<circle cx="568.514" cy="452.716" r="4" fill="#0" id="circle261"/>
	<circle cx="569.479" cy="581.058" r="4" fill="#0" id="circle262"/>
	<circle cx="571.409" cy="590.708" r="4" fill="#0" id="circle263"/>
	<circle cx="572.374" cy="535.704" r="4" fill="#0" id="circle264"/>
	<circle cx="572.374" cy="803.004" r="4" fill="#0" id="circle265"/>
	<circle cx="573.339" cy="461.401" r="4" fill="#0" id="circle266"/>
	<circle cx="576.233" cy="599.393" r="4" fill="#0" id="circle267"/>
	<circle cx="579.128" cy="469.121" r="4" fill="#0" id="circle268"/>
	<circle cx="579.128" cy="609.043" r="4" fill="#0" id="circle269"/>
	<circle cx="582.023" cy="532.809" r="4" fill="#0" id="circle270"/>
	<circle cx="582.023" cy="803.004" r="4" fill="#0" id="circle271"/>
	<circle cx="583.953" cy="617.728" r="4" fill="#0" id="circle272"/>
	<circle cx="583.953" cy="627.377" r="4" fill="#0" id="circle273"/>
	<circle cx="586.848" cy="474.911" r="4" fill="#0" id="circle274"/>
	<circle cx="588.778" cy="636.062" r="4" fill="#0" id="circle275"/>
	<circle cx="590.708" cy="807.829" r="4" fill="#0" id="circle276"/>
	<circle cx="591.673" cy="532.809" r="4" fill="#0" id="circle277"/>
	<circle cx="593.603" cy="482.63" r="4" fill="#0" id="circle278"/>
	<circle cx="593.603" cy="644.747" r="4" fill="#0" id="circle279"/>
	<circle cx="598.428" cy="491.315" r="4" fill="#0" id="circle280"/>
	<circle cx="598.428" cy="653.432" r="4" fill="#0" id="circle281"/>
	<circle cx="600.358" cy="807.829" r="4" fill="#0" id="circle282"/>
	<circle cx="601.323" cy="532.809" r="4" fill="#0" id="circle283"/>
	<circle cx="603.253" cy="662.117" r="4" fill="#0" id="circle284"/>
	<circle cx="605.183" cy="499.035" r="4" fill="#0" id="circle285"/>
	<circle cx="608.078" cy="670.802" r="4" fill="#0" id="circle286"/>
	<circle cx="608.078" cy="680.451" r="4" fill="#0" id="circle287"/>
	<circle cx="610.008" cy="537.634" r="4" fill="#0" id="circle288"/>
	<circle cx="610.008" cy="807.829" r="4" fill="#0" id="circle289"/>
	<circle cx="612.903" cy="505.79" r="4" fill="#0" id="circle290"/>
	<circle cx="612.903" cy="689.136" r="4" fill="#0" id="circle291"/>
	<circle cx="619.658" cy="513.51" r="4" fill="#0" id="circle292"/>
	<circle cx="619.658" cy="537.634" r="4" fill="#0" id="circle293"/>
	<circle cx="619.658" cy="696.856" r="4" fill="#0" id="circle294"/>
	<circle cx="619.658" cy="807.829" r="4" fill="#0" id="circle295"/>
	<circle cx="624.482" cy="705.541" r="4" fill="#0" id="circle296"/>
	<circle cx="627.377" cy="715.191" r="4" fill="#0" id="circle297"/>
	<circle cx="629.307" cy="517.37" r="4" fill="#0" id="circle298"/>
	<circle cx="629.307" cy="541.494" r="4" fill="#0" id="circle299"/>
	<circle cx="629.307" cy="807.829" r="4" fill="#0" id="circle300"/>
	<circle cx="632.202" cy="527.019" r="4" fill="#0" id="circle301"/>
	<circle cx="632.202" cy="723.875" r="4" fill="#0" id="circle302"/>
	<circle cx="637.027" cy="535.704" r="4" fill="#0" id="circle303"/>
	<circle cx="637.027" cy="732.56" r="4" fill="#0" id="circle304"/>
	<circle cx="638.957" cy="807.829" r="4" fill="#0" id="circle305"/>
	<circle cx="643.782" cy="740.28" r="4" fill="#0" id="circle306"/>
	<circle cx="648.607" cy="806.864" r="4" fill="#0" id="circle307"/>
	<circle cx="651.502" cy="747.035" r="4" fill="#0" id="circle308"/>
	<circle cx="656.327" cy="755.72" r="4" fill="#0" id="circle309"/>
	<circle cx="658.257" cy="803.004" r="4" fill="#0" id="circle310"/>
	<circle cx="662.117" cy="763.44" r="4" fill="#0" id="circle311"/>
	<circle cx="667.907" cy="802.039" r="4" fill="#0" id="circle312"/>
	<circle cx="669.837" cy="770.195" r="4" fill="#0" id="circle313"/>
	<circle cx="673.696" cy="779.844" r="4" fill="#0" id="circle314"/>
	<circle cx="677.556" cy="798.179" r="4" fill="#0" id="circle315"/>
	<circle cx="680.451" cy="787.564" r="4" fill="#0" id="circle316"/>
	</g>
</svg>