<?xml version="1.0" encoding="UTF-8" standalone="no"?>
<!-- Created with CurveBenchmark -->
<svg
	xmlns:dc="http://purl.org/dc/elements/1.1/"
	xmlns:cc="http://creativecommons.org/ns#"
	xmlns:rdf="http://www.w3.org/1999/02/22-rdf-syntax-ns#"
	xmlns:svg="http://www.w3.org/2000/svg"
	xmlns="http://www.w3.org/2000/svg"
	xmlns:sodipodi="http://sodipodi.sourceforge.net/DTD/sodipodi-0.dtd"
	xmlns:inkscape="http://www.inkscape.org/namespaces/inkscape"
	width="1000"
	height="1000"
	id="svg2"
	version="1.1"
	sodipodi:docname="manifold/vicur-ray0466.png.txt">
<defs
	id="defs4" />
<metadata
	id="metadata7">
	<rdf:RDF>
		<cc:Work
			rdf:about="">
			<dc:format>image/svg+xml</dc:format>
			<dc:type
				rdf:resource="http://purl.org/dc/dcmitype/StillImage" />
			<dc:title></dc:title>
		</cc:Work>
	</rdf:RDF>
</metadata>
<g
	inkscape:label="Layer 1"
	inkscape:groupmode="layer"
	id="layer1">
	<path style="fill:none;stroke:red;stroke-width:1px;stroke-linecap:butt;stroke-linejoin:miter;stroke-opacity:1" d="M 4,480.825 4,493.608 z" id="boundary" inkscape:connector-curvature="0" />
	<path style="fill:none;stroke:red;stroke-width:1px;stroke-linecap:butt;stroke-linejoin:miter;stroke-opacity:1" d="M 4,480.825 10.3918,468.041 z" id="boundary" inkscape:connector-curvature="0" />
	<path style="fill:none;stroke:red;stroke-width:1px;stroke-linecap:butt;stroke-linejoin:miter;stroke-opacity:1" d="M 4,493.608 4,506.392 z" id="boundary" inkscape:connector-curvature="0" />
	<path style="fill:none;stroke:red;stroke-width:1px;stroke-linecap:butt;stroke-linejoin:miter;stroke-opacity:1" d="M 4,506.392 4,519.175 z" id="boundary" inkscape:connector-curvature="0" />
	<path style="fill:none;stroke:red;stroke-width:1px;stroke-linecap:butt;stroke-linejoin:miter;stroke-opacity:1" d="M 4,519.175 4,531.959 z" id="boundary" inkscape:connector-curvature="0" />
	<path style="fill:none;stroke:red;stroke-width:1px;stroke-linecap:butt;stroke-linejoin:miter;stroke-opacity:1" d="M 4,531.959 4,544.742 z" id="boundary" inkscape:connector-curvature="0" />
	<path style="fill:none;stroke:red;stroke-width:1px;stroke-linecap:butt;stroke-linejoin:miter;stroke-opacity:1" d="M 4,544.742 4,557.526 z" id="boundary" inkscape:connector-curvature="0" />
	<path style="fill:none;stroke:red;stroke-width:1px;stroke-linecap:butt;stroke-linejoin:miter;stroke-opacity:1" d="M 4,557.526 10.3918,569.031 z" id="boundary" inkscape:connector-curvature="0" />
	<path style="fill:none;stroke:red;stroke-width:1px;stroke-linecap:butt;stroke-linejoin:miter;stroke-opacity:1" d="M 10.3918,455.258 10.3918,468.041 z" id="boundary" inkscape:connector-curvature="0" />
	<path style="fill:none;stroke:red;stroke-width:1px;stroke-linecap:butt;stroke-linejoin:miter;stroke-opacity:1" d="M 10.3918,455.258 16.7835,442.474 z" id="boundary" inkscape:connector-curvature="0" />
	<path style="fill:none;stroke:red;stroke-width:1px;stroke-linecap:butt;stroke-linejoin:miter;stroke-opacity:1" d="M 10.3918,569.031 23.1753,574.144 z" id="boundary" inkscape:connector-curvature="0" />
	<path style="fill:none;stroke:red;stroke-width:1px;stroke-linecap:butt;stroke-linejoin:miter;stroke-opacity:1" d="M 16.7835,429.691 16.7835,442.474 z" id="boundary" inkscape:connector-curvature="0" />
	<path style="fill:none;stroke:red;stroke-width:1px;stroke-linecap:butt;stroke-linejoin:miter;stroke-opacity:1" d="M 16.7835,429.691 23.1753,416.907 z" id="boundary" inkscape:connector-curvature="0" />
	<path style="fill:none;stroke:red;stroke-width:1px;stroke-linecap:butt;stroke-linejoin:miter;stroke-opacity:1" d="M 23.1753,416.907 29.567,404.124 z" id="boundary" inkscape:connector-curvature="0" />
	<path style="fill:none;stroke:red;stroke-width:1px;stroke-linecap:butt;stroke-linejoin:miter;stroke-opacity:1" d="M 23.1753,574.144 30.8454,584.371 z" id="boundary" inkscape:connector-curvature="0" />
	<path style="fill:none;stroke:red;stroke-width:1px;stroke-linecap:butt;stroke-linejoin:miter;stroke-opacity:1" d="M 29.567,391.34 29.567,404.124 z" id="boundary" inkscape:connector-curvature="0" />
	<path style="fill:none;stroke:red;stroke-width:1px;stroke-linecap:butt;stroke-linejoin:miter;stroke-opacity:1" d="M 29.567,391.34 35.9588,378.557 z" id="boundary" inkscape:connector-curvature="0" />
	<path style="fill:none;stroke:red;stroke-width:1px;stroke-linecap:butt;stroke-linejoin:miter;stroke-opacity:1" d="M 30.8454,584.371 43.6289,586.928 z" id="boundary" inkscape:connector-curvature="0" />
	<path style="fill:none;stroke:red;stroke-width:1px;stroke-linecap:butt;stroke-linejoin:miter;stroke-opacity:1" d="M 35.9588,378.557 42.3505,365.773 z" id="boundary" inkscape:connector-curvature="0" />
	<path style="fill:none;stroke:red;stroke-width:1px;stroke-linecap:butt;stroke-linejoin:miter;stroke-opacity:1" d="M 42.3505,352.99 42.3505,365.773 z" id="boundary" inkscape:connector-curvature="0" />
	<path style="fill:none;stroke:red;stroke-width:1px;stroke-linecap:butt;stroke-linejoin:miter;stroke-opacity:1" d="M 42.3505,352.99 48.7423,340.206 z" id="boundary" inkscape:connector-curvature="0" />
	<path style="fill:none;stroke:red;stroke-width:1px;stroke-linecap:butt;stroke-linejoin:miter;stroke-opacity:1" d="M 43.6289,586.928 56.4124,586.928 z" id="boundary" inkscape:connector-curvature="0" />
	<path style="fill:none;stroke:red;stroke-width:1px;stroke-linecap:butt;stroke-linejoin:miter;stroke-opacity:1" d="M 48.7423,340.206 55.134,321.031 z" id="boundary" inkscape:connector-curvature="0" />
	<path style="fill:none;stroke:red;stroke-width:1px;stroke-linecap:butt;stroke-linejoin:miter;stroke-opacity:1" d="M 55.134,308.247 55.134,321.031 z" id="boundary" inkscape:connector-curvature="0" />
	<path style="fill:none;stroke:red;stroke-width:1px;stroke-linecap:butt;stroke-linejoin:miter;stroke-opacity:1" d="M 55.134,308.247 61.5258,295.464 z" id="boundary" inkscape:connector-curvature="0" />
	<path style="fill:none;stroke:red;stroke-width:1px;stroke-linecap:butt;stroke-linejoin:miter;stroke-opacity:1" d="M 56.4124,586.928 67.9175,593.32 z" id="boundary" inkscape:connector-curvature="0" />
	<path style="fill:none;stroke:red;stroke-width:1px;stroke-linecap:butt;stroke-linejoin:miter;stroke-opacity:1" d="M 61.5258,257.113 61.5258,269.897 z" id="boundary" inkscape:connector-curvature="0" />
	<path style="fill:none;stroke:red;stroke-width:1px;stroke-linecap:butt;stroke-linejoin:miter;stroke-opacity:1" d="M 61.5258,257.113 67.9175,237.938 z" id="boundary" inkscape:connector-curvature="0" />
	<path style="fill:none;stroke:red;stroke-width:1px;stroke-linecap:butt;stroke-linejoin:miter;stroke-opacity:1" d="M 61.5258,269.897 61.5258,282.68 z" id="boundary" inkscape:connector-curvature="0" />
	<path style="fill:none;stroke:red;stroke-width:1px;stroke-linecap:butt;stroke-linejoin:miter;stroke-opacity:1" d="M 61.5258,282.68 61.5258,295.464 z" id="boundary" inkscape:connector-curvature="0" />
	<path style="fill:none;stroke:red;stroke-width:1px;stroke-linecap:butt;stroke-linejoin:miter;stroke-opacity:1" d="M 67.9175,212.371 67.9175,225.155 z" id="boundary" inkscape:connector-curvature="0" />
	<path style="fill:none;stroke:red;stroke-width:1px;stroke-linecap:butt;stroke-linejoin:miter;stroke-opacity:1" d="M 67.9175,212.371 74.3093,199.588 z" id="boundary" inkscape:connector-curvature="0" />
	<path style="fill:none;stroke:red;stroke-width:1px;stroke-linecap:butt;stroke-linejoin:miter;stroke-opacity:1" d="M 67.9175,225.155 67.9175,237.938 z" id="boundary" inkscape:connector-curvature="0" />
	<path style="fill:none;stroke:red;stroke-width:1px;stroke-linecap:butt;stroke-linejoin:miter;stroke-opacity:1" d="M 67.9175,593.32 80.701,593.32 z" id="boundary" inkscape:connector-curvature="0" />
	<path style="fill:none;stroke:red;stroke-width:1px;stroke-linecap:butt;stroke-linejoin:miter;stroke-opacity:1" d="M 74.3093,174.021 74.3093,186.804 z" id="boundary" inkscape:connector-curvature="0" />
	<path style="fill:none;stroke:red;stroke-width:1px;stroke-linecap:butt;stroke-linejoin:miter;stroke-opacity:1" d="M 74.3093,174.021 80.701,161.237 z" id="boundary" inkscape:connector-curvature="0" />
	<path style="fill:none;stroke:red;stroke-width:1px;stroke-linecap:butt;stroke-linejoin:miter;stroke-opacity:1" d="M 74.3093,186.804 74.3093,199.588 z" id="boundary" inkscape:connector-curvature="0" />
	<path style="fill:none;stroke:red;stroke-width:1px;stroke-linecap:butt;stroke-linejoin:miter;stroke-opacity:1" d="M 80.701,7.83505 80.701,20.6186 z" id="boundary" inkscape:connector-curvature="0" />
	<path style="fill:none;stroke:red;stroke-width:1px;stroke-linecap:butt;stroke-linejoin:miter;stroke-opacity:1" d="M 80.701,7.83505 93.4845,4 z" id="boundary" inkscape:connector-curvature="0" />
	<path style="fill:none;stroke:red;stroke-width:1px;stroke-linecap:butt;stroke-linejoin:miter;stroke-opacity:1" d="M 80.701,20.6186 80.701,33.4021 z" id="boundary" inkscape:connector-curvature="0" />
	<path style="fill:none;stroke:red;stroke-width:1px;stroke-linecap:butt;stroke-linejoin:miter;stroke-opacity:1" d="M 80.701,33.4021 87.0928,44.9072 z" id="boundary" inkscape:connector-curvature="0" />
	<path style="fill:none;stroke:red;stroke-width:1px;stroke-linecap:butt;stroke-linejoin:miter;stroke-opacity:1" d="M 80.701,148.454 80.701,161.237 z" id="boundary" inkscape:connector-curvature="0" />
	<path style="fill:none;stroke:red;stroke-width:1px;stroke-linecap:butt;stroke-linejoin:miter;stroke-opacity:1" d="M 80.701,148.454 87.0928,134.392 z" id="boundary" inkscape:connector-curvature="0" />
	<path style="fill:none;stroke:red;stroke-width:1px;stroke-linecap:butt;stroke-linejoin:miter;stroke-opacity:1" d="M 80.701,593.32 93.4845,593.32 z" id="boundary" inkscape:connector-curvature="0" />
	<path style="fill:none;stroke:red;stroke-width:1px;stroke-linecap:butt;stroke-linejoin:miter;stroke-opacity:1" d="M 87.0928,44.9072 87.0928,57.6907 z" id="boundary" inkscape:connector-curvature="0" />
	<path style="fill:none;stroke:red;stroke-width:1px;stroke-linecap:butt;stroke-linejoin:miter;stroke-opacity:1" d="M 87.0928,57.6907 87.0928,70.4742 z" id="boundary" inkscape:connector-curvature="0" />
	<path style="fill:none;stroke:red;stroke-width:1px;stroke-linecap:butt;stroke-linejoin:miter;stroke-opacity:1" d="M 87.0928,70.4742 87.0928,83.2577 z" id="boundary" inkscape:connector-curvature="0" />
	<path style="fill:none;stroke:red;stroke-width:1px;stroke-linecap:butt;stroke-linejoin:miter;stroke-opacity:1" d="M 87.0928,83.2577 87.0928,96.0412 z" id="boundary" inkscape:connector-curvature="0" />
	<path style="fill:none;stroke:red;stroke-width:1px;stroke-linecap:butt;stroke-linejoin:miter;stroke-opacity:1" d="M 87.0928,96.0412 87.0928,108.825 z" id="boundary" inkscape:connector-curvature="0" />
	<path style="fill:none;stroke:red;stroke-width:1px;stroke-linecap:butt;stroke-linejoin:miter;stroke-opacity:1" d="M 87.0928,108.825 87.0928,121.608 z" id="boundary" inkscape:connector-curvature="0" />
	<path style="fill:none;stroke:red;stroke-width:1px;stroke-linecap:butt;stroke-linejoin:miter;stroke-opacity:1" d="M 87.0928,121.608 87.0928,134.392 z" id="boundary" inkscape:connector-curvature="0" />
	<path style="fill:none;stroke:red;stroke-width:1px;stroke-linecap:butt;stroke-linejoin:miter;stroke-opacity:1" d="M 93.4845,4 106.268,4 z" id="boundary" inkscape:connector-curvature="0" />
	<path style="fill:none;stroke:red;stroke-width:1px;stroke-linecap:butt;stroke-linejoin:miter;stroke-opacity:1" d="M 93.4845,593.32 106.268,593.32 z" id="boundary" inkscape:connector-curvature="0" />
	<path style="fill:none;stroke:red;stroke-width:1px;stroke-linecap:butt;stroke-linejoin:miter;stroke-opacity:1" d="M 106.268,4 113.938,14.2268 z" id="boundary" inkscape:connector-curvature="0" />
	<path style="fill:none;stroke:red;stroke-width:1px;stroke-linecap:butt;stroke-linejoin:miter;stroke-opacity:1" d="M 106.268,593.32 119.052,593.32 z" id="boundary" inkscape:connector-curvature="0" />
	<path style="fill:none;stroke:red;stroke-width:1px;stroke-linecap:butt;stroke-linejoin:miter;stroke-opacity:1" d="M 113.938,14.2268 126.722,16.7835 z" id="boundary" inkscape:connector-curvature="0" />
	<path style="fill:none;stroke:red;stroke-width:1px;stroke-linecap:butt;stroke-linejoin:miter;stroke-opacity:1" d="M 119.052,593.32 131.835,593.32 z" id="boundary" inkscape:connector-curvature="0" />
	<path style="fill:none;stroke:red;stroke-width:1px;stroke-linecap:butt;stroke-linejoin:miter;stroke-opacity:1" d="M 126.722,16.7835 136.948,24.4536 z" id="boundary" inkscape:connector-curvature="0" />
	<path style="fill:none;stroke:red;stroke-width:1px;stroke-linecap:butt;stroke-linejoin:miter;stroke-opacity:1" d="M 131.835,593.32 143.34,599.711 z" id="boundary" inkscape:connector-curvature="0" />
	<path style="fill:none;stroke:red;stroke-width:1px;stroke-linecap:butt;stroke-linejoin:miter;stroke-opacity:1" d="M 136.948,24.4536 149.732,29.567 z" id="boundary" inkscape:connector-curvature="0" />
	<path style="fill:none;stroke:red;stroke-width:1px;stroke-linecap:butt;stroke-linejoin:miter;stroke-opacity:1" d="M 143.34,599.711 154.845,606.103 z" id="boundary" inkscape:connector-curvature="0" />
	<path style="fill:none;stroke:red;stroke-width:1px;stroke-linecap:butt;stroke-linejoin:miter;stroke-opacity:1" d="M 149.732,29.567 162.515,29.567 z" id="boundary" inkscape:connector-curvature="0" />
	<path style="fill:none;stroke:red;stroke-width:1px;stroke-linecap:butt;stroke-linejoin:miter;stroke-opacity:1" d="M 154.845,606.103 167.629,611.216 z" id="boundary" inkscape:connector-curvature="0" />
	<path style="fill:none;stroke:red;stroke-width:1px;stroke-linecap:butt;stroke-linejoin:miter;stroke-opacity:1" d="M 162.515,29.567 174.021,35.9588 z" id="boundary" inkscape:connector-curvature="0" />
	<path style="fill:none;stroke:red;stroke-width:1px;stroke-linecap:butt;stroke-linejoin:miter;stroke-opacity:1" d="M 167.629,611.216 179.134,617.608 z" id="boundary" inkscape:connector-curvature="0" />
	<path style="fill:none;stroke:red;stroke-width:1px;stroke-linecap:butt;stroke-linejoin:miter;stroke-opacity:1" d="M 174.021,35.9588 186.804,35.9588 z" id="boundary" inkscape:connector-curvature="0" />
	<path style="fill:none;stroke:red;stroke-width:1px;stroke-linecap:butt;stroke-linejoin:miter;stroke-opacity:1" d="M 179.134,617.608 191.918,618.887 z" id="boundary" inkscape:connector-curvature="0" />
	<path style="fill:none;stroke:red;stroke-width:1px;stroke-linecap:butt;stroke-linejoin:miter;stroke-opacity:1" d="M 186.804,35.9588 199.588,35.9588 z" id="boundary" inkscape:connector-curvature="0" />
	<path style="fill:none;stroke:red;stroke-width:1px;stroke-linecap:butt;stroke-linejoin:miter;stroke-opacity:1" d="M 191.918,618.887 204.701,618.887 z" id="boundary" inkscape:connector-curvature="0" />
	<path style="fill:none;stroke:red;stroke-width:1px;stroke-linecap:butt;stroke-linejoin:miter;stroke-opacity:1" d="M 199.588,35.9588 212.371,35.9588 z" id="boundary" inkscape:connector-curvature="0" />
	<path style="fill:none;stroke:red;stroke-width:1px;stroke-linecap:butt;stroke-linejoin:miter;stroke-opacity:1" d="M 204.701,618.887 217.485,618.887 z" id="boundary" inkscape:connector-curvature="0" />
	<path style="fill:none;stroke:red;stroke-width:1px;stroke-linecap:butt;stroke-linejoin:miter;stroke-opacity:1" d="M 212.371,35.9588 225.155,29.567 z" id="boundary" inkscape:connector-curvature="0" />
	<path style="fill:none;stroke:red;stroke-width:1px;stroke-linecap:butt;stroke-linejoin:miter;stroke-opacity:1" d="M 217.485,618.887 230.268,622.722 z" id="boundary" inkscape:connector-curvature="0" />
	<path style="fill:none;stroke:red;stroke-width:1px;stroke-linecap:butt;stroke-linejoin:miter;stroke-opacity:1" d="M 225.155,29.567 237.938,29.567 z" id="boundary" inkscape:connector-curvature="0" />
	<path style="fill:none;stroke:red;stroke-width:1px;stroke-linecap:butt;stroke-linejoin:miter;stroke-opacity:1" d="M 230.268,622.722 243.052,625.278 z" id="boundary" inkscape:connector-curvature="0" />
	<path style="fill:none;stroke:red;stroke-width:1px;stroke-linecap:butt;stroke-linejoin:miter;stroke-opacity:1" d="M 237.938,29.567 250.722,29.567 z" id="boundary" inkscape:connector-curvature="0" />
	<path style="fill:none;stroke:red;stroke-width:1px;stroke-linecap:butt;stroke-linejoin:miter;stroke-opacity:1" d="M 243.052,625.278 255.835,625.278 z" id="boundary" inkscape:connector-curvature="0" />
	<path style="fill:none;stroke:red;stroke-width:1px;stroke-linecap:butt;stroke-linejoin:miter;stroke-opacity:1" d="M 250.722,29.567 263.505,29.567 z" id="boundary" inkscape:connector-curvature="0" />
	<path style="fill:none;stroke:red;stroke-width:1px;stroke-linecap:butt;stroke-linejoin:miter;stroke-opacity:1" d="M 255.835,625.278 268.619,625.278 z" id="boundary" inkscape:connector-curvature="0" />
	<path style="fill:none;stroke:red;stroke-width:1px;stroke-linecap:butt;stroke-linejoin:miter;stroke-opacity:1" d="M 263.505,29.567 276.289,23.1753 z" id="boundary" inkscape:connector-curvature="0" />
	<path style="fill:none;stroke:red;stroke-width:1px;stroke-linecap:butt;stroke-linejoin:miter;stroke-opacity:1" d="M 268.619,625.278 281.402,625.278 z" id="boundary" inkscape:connector-curvature="0" />
	<path style="fill:none;stroke:red;stroke-width:1px;stroke-linecap:butt;stroke-linejoin:miter;stroke-opacity:1" d="M 276.289,23.1753 289.072,23.1753 z" id="boundary" inkscape:connector-curvature="0" />
	<path style="fill:none;stroke:red;stroke-width:1px;stroke-linecap:butt;stroke-linejoin:miter;stroke-opacity:1" d="M 281.402,625.278 292.907,618.887 z" id="boundary" inkscape:connector-curvature="0" />
	<path style="fill:none;stroke:red;stroke-width:1px;stroke-linecap:butt;stroke-linejoin:miter;stroke-opacity:1" d="M 289.072,23.1753 301.856,23.1753 z" id="boundary" inkscape:connector-curvature="0" />
	<path style="fill:none;stroke:red;stroke-width:1px;stroke-linecap:butt;stroke-linejoin:miter;stroke-opacity:1" d="M 292.907,618.887 305.691,618.887 z" id="boundary" inkscape:connector-curvature="0" />
	<path style="fill:none;stroke:red;stroke-width:1px;stroke-linecap:butt;stroke-linejoin:miter;stroke-opacity:1" d="M 301.856,23.1753 314.639,23.1753 z" id="boundary" inkscape:connector-curvature="0" />
	<path style="fill:none;stroke:red;stroke-width:1px;stroke-linecap:butt;stroke-linejoin:miter;stroke-opacity:1" d="M 305.691,618.887 318.474,618.887 z" id="boundary" inkscape:connector-curvature="0" />
	<path style="fill:none;stroke:red;stroke-width:1px;stroke-linecap:butt;stroke-linejoin:miter;stroke-opacity:1" d="M 314.639,23.1753 327.423,23.1753 z" id="boundary" inkscape:connector-curvature="0" />
	<path style="fill:none;stroke:red;stroke-width:1px;stroke-linecap:butt;stroke-linejoin:miter;stroke-opacity:1" d="M 318.474,618.887 331.258,612.495 z" id="boundary" inkscape:connector-curvature="0" />
	<path style="fill:none;stroke:red;stroke-width:1px;stroke-linecap:butt;stroke-linejoin:miter;stroke-opacity:1" d="M 327.423,23.1753 340.206,23.1753 z" id="boundary" inkscape:connector-curvature="0" />
	<path style="fill:none;stroke:red;stroke-width:1px;stroke-linecap:butt;stroke-linejoin:miter;stroke-opacity:1" d="M 331.258,612.495 344.041,606.103 z" id="boundary" inkscape:connector-curvature="0" />
	<path style="fill:none;stroke:red;stroke-width:1px;stroke-linecap:butt;stroke-linejoin:miter;stroke-opacity:1" d="M 340.206,23.1753 352.99,23.1753 z" id="boundary" inkscape:connector-curvature="0" />
	<path style="fill:none;stroke:red;stroke-width:1px;stroke-linecap:butt;stroke-linejoin:miter;stroke-opacity:1" d="M 344.041,606.103 356.825,599.711 z" id="boundary" inkscape:connector-curvature="0" />
	<path style="fill:none;stroke:red;stroke-width:1px;stroke-linecap:butt;stroke-linejoin:miter;stroke-opacity:1" d="M 352.99,23.1753 365.773,23.1753 z" id="boundary" inkscape:connector-curvature="0" />
	<path style="fill:none;stroke:red;stroke-width:1px;stroke-linecap:butt;stroke-linejoin:miter;stroke-opacity:1" d="M 356.825,599.711 369.608,593.32 z" id="boundary" inkscape:connector-curvature="0" />
	<path style="fill:none;stroke:red;stroke-width:1px;stroke-linecap:butt;stroke-linejoin:miter;stroke-opacity:1" d="M 365.773,23.1753 378.557,23.1753 z" id="boundary" inkscape:connector-curvature="0" />
	<path style="fill:none;stroke:red;stroke-width:1px;stroke-linecap:butt;stroke-linejoin:miter;stroke-opacity:1" d="M 369.608,593.32 381.113,586.928 z" id="boundary" inkscape:connector-curvature="0" />
	<path style="fill:none;stroke:red;stroke-width:1px;stroke-linecap:butt;stroke-linejoin:miter;stroke-opacity:1" d="M 378.557,23.1753 391.34,23.1753 z" id="boundary" inkscape:connector-curvature="0" />
	<path style="fill:none;stroke:red;stroke-width:1px;stroke-linecap:butt;stroke-linejoin:miter;stroke-opacity:1" d="M 381.113,586.928 391.34,579.258 z" id="boundary" inkscape:connector-curvature="0" />
	<path style="fill:none;stroke:red;stroke-width:1px;stroke-linecap:butt;stroke-linejoin:miter;stroke-opacity:1" d="M 391.34,23.1753 402.845,29.567 z" id="boundary" inkscape:connector-curvature="0" />
	<path style="fill:none;stroke:red;stroke-width:1px;stroke-linecap:butt;stroke-linejoin:miter;stroke-opacity:1" d="M 391.34,579.258 397.732,566.474 z" id="boundary" inkscape:connector-curvature="0" />
	<path style="fill:none;stroke:red;stroke-width:1px;stroke-linecap:butt;stroke-linejoin:miter;stroke-opacity:1" d="M 397.732,566.474 407.959,548.577 z" id="boundary" inkscape:connector-curvature="0" />
	<path style="fill:none;stroke:red;stroke-width:1px;stroke-linecap:butt;stroke-linejoin:miter;stroke-opacity:1" d="M 402.845,29.567 415.629,29.567 z" id="boundary" inkscape:connector-curvature="0" />
	<path style="fill:none;stroke:red;stroke-width:1px;stroke-linecap:butt;stroke-linejoin:miter;stroke-opacity:1" d="M 407.959,548.577 419.464,554.969 z" id="boundary" inkscape:connector-curvature="0" />
	<path style="fill:none;stroke:red;stroke-width:1px;stroke-linecap:butt;stroke-linejoin:miter;stroke-opacity:1" d="M 415.629,29.567 428.412,29.567 z" id="boundary" inkscape:connector-curvature="0" />
	<path style="fill:none;stroke:red;stroke-width:1px;stroke-linecap:butt;stroke-linejoin:miter;stroke-opacity:1" d="M 419.464,554.969 419.464,567.753 z" id="boundary" inkscape:connector-curvature="0" />
	<path style="fill:none;stroke:red;stroke-width:1px;stroke-linecap:butt;stroke-linejoin:miter;stroke-opacity:1" d="M 419.464,567.753 425.856,579.258 z" id="boundary" inkscape:connector-curvature="0" />
	<path style="fill:none;stroke:red;stroke-width:1px;stroke-linecap:butt;stroke-linejoin:miter;stroke-opacity:1" d="M 425.856,579.258 428.412,592.041 z" id="boundary" inkscape:connector-curvature="0" />
	<path style="fill:none;stroke:red;stroke-width:1px;stroke-linecap:butt;stroke-linejoin:miter;stroke-opacity:1" d="M 428.412,29.567 441.196,29.567 z" id="boundary" inkscape:connector-curvature="0" />
	<path style="fill:none;stroke:red;stroke-width:1px;stroke-linecap:butt;stroke-linejoin:miter;stroke-opacity:1" d="M 428.412,592.041 432.247,604.825 z" id="boundary" inkscape:connector-curvature="0" />
	<path style="fill:none;stroke:red;stroke-width:1px;stroke-linecap:butt;stroke-linejoin:miter;stroke-opacity:1" d="M 432.247,604.825 445.031,606.103 z" id="boundary" inkscape:connector-curvature="0" />
	<path style="fill:none;stroke:red;stroke-width:1px;stroke-linecap:butt;stroke-linejoin:miter;stroke-opacity:1" d="M 441.196,29.567 453.979,29.567 z" id="boundary" inkscape:connector-curvature="0" />
	<path style="fill:none;stroke:red;stroke-width:1px;stroke-linecap:butt;stroke-linejoin:miter;stroke-opacity:1" d="M 445.031,606.103 452.701,586.928 z" id="boundary" inkscape:connector-curvature="0" />
	<path style="fill:none;stroke:red;stroke-width:1px;stroke-linecap:butt;stroke-linejoin:miter;stroke-opacity:1" d="M 452.701,586.928 464.206,580.536 z" id="boundary" inkscape:connector-curvature="0" />
	<path style="fill:none;stroke:red;stroke-width:1px;stroke-linecap:butt;stroke-linejoin:miter;stroke-opacity:1" d="M 453.979,29.567 466.763,29.567 z" id="boundary" inkscape:connector-curvature="0" />
	<path style="fill:none;stroke:red;stroke-width:1px;stroke-linecap:butt;stroke-linejoin:miter;stroke-opacity:1" d="M 464.206,580.536 475.711,586.928 z" id="boundary" inkscape:connector-curvature="0" />
	<path style="fill:none;stroke:red;stroke-width:1px;stroke-linecap:butt;stroke-linejoin:miter;stroke-opacity:1" d="M 466.763,29.567 479.546,29.567 z" id="boundary" inkscape:connector-curvature="0" />
	<path style="fill:none;stroke:red;stroke-width:1px;stroke-linecap:butt;stroke-linejoin:miter;stroke-opacity:1" d="M 475.711,586.928 488.495,586.928 z" id="boundary" inkscape:connector-curvature="0" />
	<path style="fill:none;stroke:red;stroke-width:1px;stroke-linecap:butt;stroke-linejoin:miter;stroke-opacity:1" d="M 479.546,29.567 492.33,24.4536 z" id="boundary" inkscape:connector-curvature="0" />
	<path style="fill:none;stroke:red;stroke-width:1px;stroke-linecap:butt;stroke-linejoin:miter;stroke-opacity:1" d="M 488.495,586.928 500,593.32 z" id="boundary" inkscape:connector-curvature="0" />
	<path style="fill:none;stroke:red;stroke-width:1px;stroke-linecap:butt;stroke-linejoin:miter;stroke-opacity:1" d="M 492.33,24.4536 505.113,23.1753 z" id="boundary" inkscape:connector-curvature="0" />
	<path style="fill:none;stroke:red;stroke-width:1px;stroke-linecap:butt;stroke-linejoin:miter;stroke-opacity:1" d="M 500,593.32 512.784,593.32 z" id="boundary" inkscape:connector-curvature="0" />
	<path style="fill:none;stroke:red;stroke-width:1px;stroke-linecap:butt;stroke-linejoin:miter;stroke-opacity:1" d="M 505.113,23.1753 516.619,16.7835 z" id="boundary" inkscape:connector-curvature="0" />
	<path style="fill:none;stroke:red;stroke-width:1px;stroke-linecap:butt;stroke-linejoin:miter;stroke-opacity:1" d="M 512.784,593.32 525.567,593.32 z" id="boundary" inkscape:connector-curvature="0" />
	<path style="fill:none;stroke:red;stroke-width:1px;stroke-linecap:butt;stroke-linejoin:miter;stroke-opacity:1" d="M 516.619,16.7835 529.402,16.7835 z" id="boundary" inkscape:connector-curvature="0" />
	<path style="fill:none;stroke:red;stroke-width:1px;stroke-linecap:butt;stroke-linejoin:miter;stroke-opacity:1" d="M 525.567,593.32 538.351,593.32 z" id="boundary" inkscape:connector-curvature="0" />
	<path style="fill:none;stroke:red;stroke-width:1px;stroke-linecap:butt;stroke-linejoin:miter;stroke-opacity:1" d="M 529.402,16.7835 542.186,16.7835 z" id="boundary" inkscape:connector-curvature="0" />
	<path style="fill:none;stroke:red;stroke-width:1px;stroke-linecap:butt;stroke-linejoin:miter;stroke-opacity:1" d="M 538.351,593.32 551.134,598.433 z" id="boundary" inkscape:connector-curvature="0" />
	<path style="fill:none;stroke:red;stroke-width:1px;stroke-linecap:butt;stroke-linejoin:miter;stroke-opacity:1" d="M 542.186,16.7835 554.969,16.7835 z" id="boundary" inkscape:connector-curvature="0" />
	<path style="fill:none;stroke:red;stroke-width:1px;stroke-linecap:butt;stroke-linejoin:miter;stroke-opacity:1" d="M 551.134,598.433 560.082,608.66 z" id="boundary" inkscape:connector-curvature="0" />
	<path style="fill:none;stroke:red;stroke-width:1px;stroke-linecap:butt;stroke-linejoin:miter;stroke-opacity:1" d="M 554.969,16.7835 567.753,16.7835 z" id="boundary" inkscape:connector-curvature="0" />
	<path style="fill:none;stroke:red;stroke-width:1px;stroke-linecap:butt;stroke-linejoin:miter;stroke-opacity:1" d="M 560.082,608.66 566.474,620.165 z" id="boundary" inkscape:connector-curvature="0" />
	<path style="fill:none;stroke:red;stroke-width:1px;stroke-linecap:butt;stroke-linejoin:miter;stroke-opacity:1" d="M 566.474,620.165 575.423,630.392 z" id="boundary" inkscape:connector-curvature="0" />
	<path style="fill:none;stroke:red;stroke-width:1px;stroke-linecap:butt;stroke-linejoin:miter;stroke-opacity:1" d="M 567.753,16.7835 580.536,16.7835 z" id="boundary" inkscape:connector-curvature="0" />
	<path style="fill:none;stroke:red;stroke-width:1px;stroke-linecap:butt;stroke-linejoin:miter;stroke-opacity:1" d="M 575.423,630.392 581.814,641.897 z" id="boundary" inkscape:connector-curvature="0" />
	<path style="fill:none;stroke:red;stroke-width:1px;stroke-linecap:butt;stroke-linejoin:miter;stroke-opacity:1" d="M 580.536,16.7835 593.32,16.7835 z" id="boundary" inkscape:connector-curvature="0" />
	<path style="fill:none;stroke:red;stroke-width:1px;stroke-linecap:butt;stroke-linejoin:miter;stroke-opacity:1" d="M 580.536,420.742 586.928,432.247 z" id="boundary" inkscape:connector-curvature="0" />
	<path style="fill:none;stroke:red;stroke-width:1px;stroke-linecap:butt;stroke-linejoin:miter;stroke-opacity:1" d="M 580.536,420.742 593.32,414.351 z" id="boundary" inkscape:connector-curvature="0" />
	<path style="fill:none;stroke:red;stroke-width:1px;stroke-linecap:butt;stroke-linejoin:miter;stroke-opacity:1" d="M 581.814,641.897 592.041,650.845 z" id="boundary" inkscape:connector-curvature="0" />
	<path style="fill:none;stroke:red;stroke-width:1px;stroke-linecap:butt;stroke-linejoin:miter;stroke-opacity:1" d="M 586.928,432.247 599.711,432.247 z" id="boundary" inkscape:connector-curvature="0" />
	<path style="fill:none;stroke:red;stroke-width:1px;stroke-linecap:butt;stroke-linejoin:miter;stroke-opacity:1" d="M 592.041,650.845 595.876,663.629 z" id="boundary" inkscape:connector-curvature="0" />
	<path style="fill:none;stroke:red;stroke-width:1px;stroke-linecap:butt;stroke-linejoin:miter;stroke-opacity:1" d="M 593.32,16.7835 606.103,16.7835 z" id="boundary" inkscape:connector-curvature="0" />
	<path style="fill:none;stroke:red;stroke-width:1px;stroke-linecap:butt;stroke-linejoin:miter;stroke-opacity:1" d="M 593.32,414.351 603.546,405.402 z" id="boundary" inkscape:connector-curvature="0" />
	<path style="fill:none;stroke:red;stroke-width:1px;stroke-linecap:butt;stroke-linejoin:miter;stroke-opacity:1" d="M 593.32,491.052 593.32,503.835 z" id="boundary" inkscape:connector-curvature="0" />
	<path style="fill:none;stroke:red;stroke-width:1px;stroke-linecap:butt;stroke-linejoin:miter;stroke-opacity:1" d="M 593.32,491.052 603.546,482.103 z" id="boundary" inkscape:connector-curvature="0" />
	<path style="fill:none;stroke:red;stroke-width:1px;stroke-linecap:butt;stroke-linejoin:miter;stroke-opacity:1" d="M 593.32,503.835 593.32,516.619 z" id="boundary" inkscape:connector-curvature="0" />
	<path style="fill:none;stroke:red;stroke-width:1px;stroke-linecap:butt;stroke-linejoin:miter;stroke-opacity:1" d="M 593.32,516.619 593.32,529.402 z" id="boundary" inkscape:connector-curvature="0" />
	<path style="fill:none;stroke:red;stroke-width:1px;stroke-linecap:butt;stroke-linejoin:miter;stroke-opacity:1" d="M 593.32,529.402 593.32,542.186 z" id="boundary" inkscape:connector-curvature="0" />
	<path style="fill:none;stroke:red;stroke-width:1px;stroke-linecap:butt;stroke-linejoin:miter;stroke-opacity:1" d="M 593.32,542.186 593.32,554.969 z" id="boundary" inkscape:connector-curvature="0" />
	<path style="fill:none;stroke:red;stroke-width:1px;stroke-linecap:butt;stroke-linejoin:miter;stroke-opacity:1" d="M 593.32,554.969 599.711,566.474 z" id="boundary" inkscape:connector-curvature="0" />
	<path style="fill:none;stroke:red;stroke-width:1px;stroke-linecap:butt;stroke-linejoin:miter;stroke-opacity:1" d="M 595.876,663.629 606.103,672.577 z" id="boundary" inkscape:connector-curvature="0" />
	<path style="fill:none;stroke:red;stroke-width:1px;stroke-linecap:butt;stroke-linejoin:miter;stroke-opacity:1" d="M 599.711,432.247 609.938,439.918 z" id="boundary" inkscape:connector-curvature="0" />
	<path style="fill:none;stroke:red;stroke-width:1px;stroke-linecap:butt;stroke-linejoin:miter;stroke-opacity:1" d="M 599.711,566.474 606.103,577.979 z" id="boundary" inkscape:connector-curvature="0" />
	<path style="fill:none;stroke:red;stroke-width:1px;stroke-linecap:butt;stroke-linejoin:miter;stroke-opacity:1" d="M 603.546,405.402 612.495,395.175 z" id="boundary" inkscape:connector-curvature="0" />
	<path style="fill:none;stroke:red;stroke-width:1px;stroke-linecap:butt;stroke-linejoin:miter;stroke-opacity:1" d="M 603.546,482.103 616.33,478.268 z" id="boundary" inkscape:connector-curvature="0" />
	<path style="fill:none;stroke:red;stroke-width:1px;stroke-linecap:butt;stroke-linejoin:miter;stroke-opacity:1" d="M 606.103,16.7835 618.887,16.7835 z" id="boundary" inkscape:connector-curvature="0" />
	<path style="fill:none;stroke:red;stroke-width:1px;stroke-linecap:butt;stroke-linejoin:miter;stroke-opacity:1" d="M 606.103,577.979 612.495,589.485 z" id="boundary" inkscape:connector-curvature="0" />
	<path style="fill:none;stroke:red;stroke-width:1px;stroke-linecap:butt;stroke-linejoin:miter;stroke-opacity:1" d="M 606.103,672.577 615.052,682.804 z" id="boundary" inkscape:connector-curvature="0" />
	<path style="fill:none;stroke:red;stroke-width:1px;stroke-linecap:butt;stroke-linejoin:miter;stroke-opacity:1" d="M 609.938,439.918 618.887,450.144 z" id="boundary" inkscape:connector-curvature="0" />
	<path style="fill:none;stroke:red;stroke-width:1px;stroke-linecap:butt;stroke-linejoin:miter;stroke-opacity:1" d="M 612.495,395.175 618.887,382.392 z" id="boundary" inkscape:connector-curvature="0" />
	<path style="fill:none;stroke:red;stroke-width:1px;stroke-linecap:butt;stroke-linejoin:miter;stroke-opacity:1" d="M 612.495,589.485 618.887,600.99 z" id="boundary" inkscape:connector-curvature="0" />
	<path style="fill:none;stroke:red;stroke-width:1px;stroke-linecap:butt;stroke-linejoin:miter;stroke-opacity:1" d="M 615.052,682.804 624,693.031 z" id="boundary" inkscape:connector-curvature="0" />
	<path style="fill:none;stroke:red;stroke-width:1px;stroke-linecap:butt;stroke-linejoin:miter;stroke-opacity:1" d="M 616.33,478.268 629.113,475.711 z" id="boundary" inkscape:connector-curvature="0" />
	<path style="fill:none;stroke:red;stroke-width:1px;stroke-linecap:butt;stroke-linejoin:miter;stroke-opacity:1" d="M 618.887,16.7835 631.67,20.6186 z" id="boundary" inkscape:connector-curvature="0" />
	<path style="fill:none;stroke:red;stroke-width:1px;stroke-linecap:butt;stroke-linejoin:miter;stroke-opacity:1" d="M 618.887,382.392 625.278,369.608 z" id="boundary" inkscape:connector-curvature="0" />
	<path style="fill:none;stroke:red;stroke-width:1px;stroke-linecap:butt;stroke-linejoin:miter;stroke-opacity:1" d="M 618.887,450.144 631.67,455.258 z" id="boundary" inkscape:connector-curvature="0" />
	<path style="fill:none;stroke:red;stroke-width:1px;stroke-linecap:butt;stroke-linejoin:miter;stroke-opacity:1" d="M 618.887,600.99 626.557,611.216 z" id="boundary" inkscape:connector-curvature="0" />
	<path style="fill:none;stroke:red;stroke-width:1px;stroke-linecap:butt;stroke-linejoin:miter;stroke-opacity:1" d="M 624,693.031 630.392,704.536 z" id="boundary" inkscape:connector-curvature="0" />
	<path style="fill:none;stroke:red;stroke-width:1px;stroke-linecap:butt;stroke-linejoin:miter;stroke-opacity:1" d="M 625.278,369.608 631.67,356.825 z" id="boundary" inkscape:connector-curvature="0" />
	<path style="fill:none;stroke:red;stroke-width:1px;stroke-linecap:butt;stroke-linejoin:miter;stroke-opacity:1" d="M 626.557,611.216 631.67,624 z" id="boundary" inkscape:connector-curvature="0" />
	<path style="fill:none;stroke:red;stroke-width:1px;stroke-linecap:butt;stroke-linejoin:miter;stroke-opacity:1" d="M 629.113,475.711 631.67,455.258 z" id="boundary" inkscape:connector-curvature="0" />
	<path style="fill:none;stroke:red;stroke-width:1px;stroke-linecap:butt;stroke-linejoin:miter;stroke-opacity:1" d="M 630.392,704.536 640.619,713.485 z" id="boundary" inkscape:connector-curvature="0" />
	<path style="fill:none;stroke:red;stroke-width:1px;stroke-linecap:butt;stroke-linejoin:miter;stroke-opacity:1" d="M 631.67,20.6186 643.175,27.0103 z" id="boundary" inkscape:connector-curvature="0" />
	<path style="fill:none;stroke:red;stroke-width:1px;stroke-linecap:butt;stroke-linejoin:miter;stroke-opacity:1" d="M 631.67,356.825 638.062,344.041 z" id="boundary" inkscape:connector-curvature="0" />
	<path style="fill:none;stroke:red;stroke-width:1px;stroke-linecap:butt;stroke-linejoin:miter;stroke-opacity:1" d="M 631.67,624 641.897,631.67 z" id="boundary" inkscape:connector-curvature="0" />
	<path style="fill:none;stroke:red;stroke-width:1px;stroke-linecap:butt;stroke-linejoin:miter;stroke-opacity:1" d="M 638.062,344.041 644.454,331.258 z" id="boundary" inkscape:connector-curvature="0" />
	<path style="fill:none;stroke:red;stroke-width:1px;stroke-linecap:butt;stroke-linejoin:miter;stroke-opacity:1" d="M 640.619,713.485 645.732,726.268 z" id="boundary" inkscape:connector-curvature="0" />
	<path style="fill:none;stroke:red;stroke-width:1px;stroke-linecap:butt;stroke-linejoin:miter;stroke-opacity:1" d="M 641.897,631.67 647.01,644.454 z" id="boundary" inkscape:connector-curvature="0" />
	<path style="fill:none;stroke:red;stroke-width:1px;stroke-linecap:butt;stroke-linejoin:miter;stroke-opacity:1" d="M 643.175,27.0103 655.959,32.1237 z" id="boundary" inkscape:connector-curvature="0" />
	<path style="fill:none;stroke:red;stroke-width:1px;stroke-linecap:butt;stroke-linejoin:miter;stroke-opacity:1" d="M 644.454,318.474 644.454,331.258 z" id="boundary" inkscape:connector-curvature="0" />
	<path style="fill:none;stroke:red;stroke-width:1px;stroke-linecap:butt;stroke-linejoin:miter;stroke-opacity:1" d="M 644.454,318.474 650.845,299.299 z" id="boundary" inkscape:connector-curvature="0" />
	<path style="fill:none;stroke:red;stroke-width:1px;stroke-linecap:butt;stroke-linejoin:miter;stroke-opacity:1" d="M 645.732,726.268 658.515,731.381 z" id="boundary" inkscape:connector-curvature="0" />
	<path style="fill:none;stroke:red;stroke-width:1px;stroke-linecap:butt;stroke-linejoin:miter;stroke-opacity:1" d="M 647.01,644.454 653.402,655.959 z" id="boundary" inkscape:connector-curvature="0" />
	<path style="fill:none;stroke:red;stroke-width:1px;stroke-linecap:butt;stroke-linejoin:miter;stroke-opacity:1" d="M 650.845,299.299 657.237,287.794 z" id="boundary" inkscape:connector-curvature="0" />
	<path style="fill:none;stroke:red;stroke-width:1px;stroke-linecap:butt;stroke-linejoin:miter;stroke-opacity:1" d="M 653.402,655.959 662.351,666.186 z" id="boundary" inkscape:connector-curvature="0" />
	<path style="fill:none;stroke:red;stroke-width:1px;stroke-linecap:butt;stroke-linejoin:miter;stroke-opacity:1" d="M 655.959,32.1237 657.237,44.9072 z" id="boundary" inkscape:connector-curvature="0" />
	<path style="fill:none;stroke:red;stroke-width:1px;stroke-linecap:butt;stroke-linejoin:miter;stroke-opacity:1" d="M 657.237,44.9072 657.237,57.6907 z" id="boundary" inkscape:connector-curvature="0" />
	<path style="fill:none;stroke:red;stroke-width:1px;stroke-linecap:butt;stroke-linejoin:miter;stroke-opacity:1" d="M 657.237,57.6907 657.237,70.4742 z" id="boundary" inkscape:connector-curvature="0" />
	<path style="fill:none;stroke:red;stroke-width:1px;stroke-linecap:butt;stroke-linejoin:miter;stroke-opacity:1" d="M 657.237,70.4742 657.237,83.2577 z" id="boundary" inkscape:connector-curvature="0" />
	<path style="fill:none;stroke:red;stroke-width:1px;stroke-linecap:butt;stroke-linejoin:miter;stroke-opacity:1" d="M 657.237,83.2577 657.237,96.0412 z" id="boundary" inkscape:connector-curvature="0" />
	<path style="fill:none;stroke:red;stroke-width:1px;stroke-linecap:butt;stroke-linejoin:miter;stroke-opacity:1" d="M 657.237,96.0412 657.237,108.825 z" id="boundary" inkscape:connector-curvature="0" />
	<path style="fill:none;stroke:red;stroke-width:1px;stroke-linecap:butt;stroke-linejoin:miter;stroke-opacity:1" d="M 657.237,108.825 657.237,121.608 z" id="boundary" inkscape:connector-curvature="0" />
	<path style="fill:none;stroke:red;stroke-width:1px;stroke-linecap:butt;stroke-linejoin:miter;stroke-opacity:1" d="M 657.237,121.608 657.237,134.392 z" id="boundary" inkscape:connector-curvature="0" />
	<path style="fill:none;stroke:red;stroke-width:1px;stroke-linecap:butt;stroke-linejoin:miter;stroke-opacity:1" d="M 657.237,134.392 657.237,147.175 z" id="boundary" inkscape:connector-curvature="0" />
	<path style="fill:none;stroke:red;stroke-width:1px;stroke-linecap:butt;stroke-linejoin:miter;stroke-opacity:1" d="M 657.237,147.175 657.237,159.959 z" id="boundary" inkscape:connector-curvature="0" />
	<path style="fill:none;stroke:red;stroke-width:1px;stroke-linecap:butt;stroke-linejoin:miter;stroke-opacity:1" d="M 657.237,159.959 657.237,172.742 z" id="boundary" inkscape:connector-curvature="0" />
	<path style="fill:none;stroke:red;stroke-width:1px;stroke-linecap:butt;stroke-linejoin:miter;stroke-opacity:1" d="M 657.237,172.742 657.237,185.526 z" id="boundary" inkscape:connector-curvature="0" />
	<path style="fill:none;stroke:red;stroke-width:1px;stroke-linecap:butt;stroke-linejoin:miter;stroke-opacity:1" d="M 657.237,185.526 657.237,198.309 z" id="boundary" inkscape:connector-curvature="0" />
	<path style="fill:none;stroke:red;stroke-width:1px;stroke-linecap:butt;stroke-linejoin:miter;stroke-opacity:1" d="M 657.237,198.309 657.237,211.093 z" id="boundary" inkscape:connector-curvature="0" />
	<path style="fill:none;stroke:red;stroke-width:1px;stroke-linecap:butt;stroke-linejoin:miter;stroke-opacity:1" d="M 657.237,211.093 657.237,223.876 z" id="boundary" inkscape:connector-curvature="0" />
	<path style="fill:none;stroke:red;stroke-width:1px;stroke-linecap:butt;stroke-linejoin:miter;stroke-opacity:1" d="M 657.237,223.876 657.237,236.66 z" id="boundary" inkscape:connector-curvature="0" />
	<path style="fill:none;stroke:red;stroke-width:1px;stroke-linecap:butt;stroke-linejoin:miter;stroke-opacity:1" d="M 657.237,236.66 657.237,249.443 z" id="boundary" inkscape:connector-curvature="0" />
	<path style="fill:none;stroke:red;stroke-width:1px;stroke-linecap:butt;stroke-linejoin:miter;stroke-opacity:1" d="M 657.237,249.443 657.237,262.227 z" id="boundary" inkscape:connector-curvature="0" />
	<path style="fill:none;stroke:red;stroke-width:1px;stroke-linecap:butt;stroke-linejoin:miter;stroke-opacity:1" d="M 657.237,262.227 657.237,275.01 z" id="boundary" inkscape:connector-curvature="0" />
	<path style="fill:none;stroke:red;stroke-width:1px;stroke-linecap:butt;stroke-linejoin:miter;stroke-opacity:1" d="M 657.237,275.01 657.237,287.794 z" id="boundary" inkscape:connector-curvature="0" />
	<path style="fill:none;stroke:red;stroke-width:1px;stroke-linecap:butt;stroke-linejoin:miter;stroke-opacity:1" d="M 658.515,731.381 668.742,740.33 z" id="boundary" inkscape:connector-curvature="0" />
	<path style="fill:none;stroke:red;stroke-width:1px;stroke-linecap:butt;stroke-linejoin:miter;stroke-opacity:1" d="M 662.351,666.186 668.742,677.691 z" id="boundary" inkscape:connector-curvature="0" />
	<path style="fill:none;stroke:red;stroke-width:1px;stroke-linecap:butt;stroke-linejoin:miter;stroke-opacity:1" d="M 668.742,677.691 673.856,690.474 z" id="boundary" inkscape:connector-curvature="0" />
	<path style="fill:none;stroke:red;stroke-width:1px;stroke-linecap:butt;stroke-linejoin:miter;stroke-opacity:1" d="M 668.742,740.33 680.247,746.722 z" id="boundary" inkscape:connector-curvature="0" />
	<path style="fill:none;stroke:red;stroke-width:1px;stroke-linecap:butt;stroke-linejoin:miter;stroke-opacity:1" d="M 673.856,690.474 682.804,700.701 z" id="boundary" inkscape:connector-curvature="0" />
	<path style="fill:none;stroke:red;stroke-width:1px;stroke-linecap:butt;stroke-linejoin:miter;stroke-opacity:1" d="M 680.247,746.722 687.918,756.948 z" id="boundary" inkscape:connector-curvature="0" />
	<path style="fill:none;stroke:red;stroke-width:1px;stroke-linecap:butt;stroke-linejoin:miter;stroke-opacity:1" d="M 682.804,700.701 689.196,712.206 z" id="boundary" inkscape:connector-curvature="0" />
	<path style="fill:none;stroke:red;stroke-width:1px;stroke-linecap:butt;stroke-linejoin:miter;stroke-opacity:1" d="M 687.918,756.948 698.144,765.897 z" id="boundary" inkscape:connector-curvature="0" />
	<path style="fill:none;stroke:red;stroke-width:1px;stroke-linecap:butt;stroke-linejoin:miter;stroke-opacity:1" d="M 689.196,712.206 701.979,717.32 z" id="boundary" inkscape:connector-curvature="0" />
	<path style="fill:none;stroke:red;stroke-width:1px;stroke-linecap:butt;stroke-linejoin:miter;stroke-opacity:1" d="M 698.144,765.897 708.371,774.845 z" id="boundary" inkscape:connector-curvature="0" />
	<path style="fill:none;stroke:red;stroke-width:1px;stroke-linecap:butt;stroke-linejoin:miter;stroke-opacity:1" d="M 701.979,717.32 710.928,727.546 z" id="boundary" inkscape:connector-curvature="0" />
	<path style="fill:none;stroke:red;stroke-width:1px;stroke-linecap:butt;stroke-linejoin:miter;stroke-opacity:1" d="M 708.371,774.845 717.32,785.072 z" id="boundary" inkscape:connector-curvature="0" />
	<path style="fill:none;stroke:red;stroke-width:1px;stroke-linecap:butt;stroke-linejoin:miter;stroke-opacity:1" d="M 710.928,727.546 723.711,732.66 z" id="boundary" inkscape:connector-curvature="0" />
	<path style="fill:none;stroke:red;stroke-width:1px;stroke-linecap:butt;stroke-linejoin:miter;stroke-opacity:1" d="M 717.32,785.072 730.103,790.186 z" id="boundary" inkscape:connector-curvature="0" />
	<path style="fill:none;stroke:red;stroke-width:1px;stroke-linecap:butt;stroke-linejoin:miter;stroke-opacity:1" d="M 723.711,732.66 727.546,745.443 z" id="boundary" inkscape:connector-curvature="0" />
	<path style="fill:none;stroke:red;stroke-width:1px;stroke-linecap:butt;stroke-linejoin:miter;stroke-opacity:1" d="M 727.546,745.443 739.052,751.835 z" id="boundary" inkscape:connector-curvature="0" />
	<path style="fill:none;stroke:red;stroke-width:1px;stroke-linecap:butt;stroke-linejoin:miter;stroke-opacity:1" d="M 730.103,790.186 740.33,797.856 z" id="boundary" inkscape:connector-curvature="0" />
	<path style="fill:none;stroke:red;stroke-width:1px;stroke-linecap:butt;stroke-linejoin:miter;stroke-opacity:1" d="M 739.052,751.835 750.557,758.227 z" id="boundary" inkscape:connector-curvature="0" />
	<path style="fill:none;stroke:red;stroke-width:1px;stroke-linecap:butt;stroke-linejoin:miter;stroke-opacity:1" d="M 740.33,797.856 751.835,804.247 z" id="boundary" inkscape:connector-curvature="0" />
	<path style="fill:none;stroke:red;stroke-width:1px;stroke-linecap:butt;stroke-linejoin:miter;stroke-opacity:1" d="M 750.557,758.227 759.505,768.454 z" id="boundary" inkscape:connector-curvature="0" />
	<path style="fill:none;stroke:red;stroke-width:1px;stroke-linecap:butt;stroke-linejoin:miter;stroke-opacity:1" d="M 751.835,804.247 763.34,810.639 z" id="boundary" inkscape:connector-curvature="0" />
	<path style="fill:none;stroke:red;stroke-width:1px;stroke-linecap:butt;stroke-linejoin:miter;stroke-opacity:1" d="M 759.505,768.454 772.289,771.01 z" id="boundary" inkscape:connector-curvature="0" />
	<path style="fill:none;stroke:red;stroke-width:1px;stroke-linecap:butt;stroke-linejoin:miter;stroke-opacity:1" d="M 763.34,810.639 776.124,810.639 z" id="boundary" inkscape:connector-curvature="0" />
	<path style="fill:none;stroke:red;stroke-width:1px;stroke-linecap:butt;stroke-linejoin:miter;stroke-opacity:1" d="M 772.289,771.01 782.515,778.68 z" id="boundary" inkscape:connector-curvature="0" />
	<path style="fill:none;stroke:red;stroke-width:1px;stroke-linecap:butt;stroke-linejoin:miter;stroke-opacity:1" d="M 776.124,810.639 787.629,817.031 z" id="boundary" inkscape:connector-curvature="0" />
	<path style="fill:none;stroke:red;stroke-width:1px;stroke-linecap:butt;stroke-linejoin:miter;stroke-opacity:1" d="M 782.515,778.68 794.021,785.072 z" id="boundary" inkscape:connector-curvature="0" />
	<path style="fill:none;stroke:red;stroke-width:1px;stroke-linecap:butt;stroke-linejoin:miter;stroke-opacity:1" d="M 787.629,817.031 800.412,817.031 z" id="boundary" inkscape:connector-curvature="0" />
	<path style="fill:none;stroke:red;stroke-width:1px;stroke-linecap:butt;stroke-linejoin:miter;stroke-opacity:1" d="M 794.021,785.072 804.247,794.021 z" id="boundary" inkscape:connector-curvature="0" />
	<path style="fill:none;stroke:red;stroke-width:1px;stroke-linecap:butt;stroke-linejoin:miter;stroke-opacity:1" d="M 800.412,817.031 813.196,817.031 z" id="boundary" inkscape:connector-curvature="0" />
	<path style="fill:none;stroke:red;stroke-width:1px;stroke-linecap:butt;stroke-linejoin:miter;stroke-opacity:1" d="M 804.247,794.021 817.031,796.577 z" id="boundary" inkscape:connector-curvature="0" />
	<path style="fill:none;stroke:red;stroke-width:1px;stroke-linecap:butt;stroke-linejoin:miter;stroke-opacity:1" d="M 813.196,817.031 824.701,823.423 z" id="boundary" inkscape:connector-curvature="0" />
	<path style="fill:none;stroke:red;stroke-width:1px;stroke-linecap:butt;stroke-linejoin:miter;stroke-opacity:1" d="M 817.031,796.577 829.814,796.577 z" id="boundary" inkscape:connector-curvature="0" />
	<path style="fill:none;stroke:red;stroke-width:1px;stroke-linecap:butt;stroke-linejoin:miter;stroke-opacity:1" d="M 824.701,823.423 836.206,829.814 z" id="boundary" inkscape:connector-curvature="0" />
	<path style="fill:none;stroke:red;stroke-width:1px;stroke-linecap:butt;stroke-linejoin:miter;stroke-opacity:1" d="M 829.814,796.577 842.598,796.577 z" id="boundary" inkscape:connector-curvature="0" />
	<path style="fill:none;stroke:red;stroke-width:1px;stroke-linecap:butt;stroke-linejoin:miter;stroke-opacity:1" d="M 836.206,829.814 848.99,829.814 z" id="boundary" inkscape:connector-curvature="0" />
	<path style="fill:none;stroke:red;stroke-width:1px;stroke-linecap:butt;stroke-linejoin:miter;stroke-opacity:1" d="M 842.598,796.577 855.381,796.577 z" id="boundary" inkscape:connector-curvature="0" />
	<path style="fill:none;stroke:red;stroke-width:1px;stroke-linecap:butt;stroke-linejoin:miter;stroke-opacity:1" d="M 848.99,829.814 861.773,829.814 z" id="boundary" inkscape:connector-curvature="0" />
	<path style="fill:none;stroke:red;stroke-width:1px;stroke-linecap:butt;stroke-linejoin:miter;stroke-opacity:1" d="M 855.381,796.577 868.165,792.742 z" id="boundary" inkscape:connector-curvature="0" />
	<path style="fill:none;stroke:red;stroke-width:1px;stroke-linecap:butt;stroke-linejoin:miter;stroke-opacity:1" d="M 861.773,829.814 874.557,829.814 z" id="boundary" inkscape:connector-curvature="0" />
	<path style="fill:none;stroke:red;stroke-width:1px;stroke-linecap:butt;stroke-linejoin:miter;stroke-opacity:1" d="M 868.165,792.742 880.948,790.186 z" id="boundary" inkscape:connector-curvature="0" />
	<path style="fill:none;stroke:red;stroke-width:1px;stroke-linecap:butt;stroke-linejoin:miter;stroke-opacity:1" d="M 874.557,829.814 887.34,829.814 z" id="boundary" inkscape:connector-curvature="0" />
	<path style="fill:none;stroke:red;stroke-width:1px;stroke-linecap:butt;stroke-linejoin:miter;stroke-opacity:1" d="M 880.948,790.186 893.732,790.186 z" id="boundary" inkscape:connector-curvature="0" />
	<path style="fill:none;stroke:red;stroke-width:1px;stroke-linecap:butt;stroke-linejoin:miter;stroke-opacity:1" d="M 887.34,829.814 900.124,829.814 z" id="boundary" inkscape:connector-curvature="0" />
	<path style="fill:none;stroke:red;stroke-width:1px;stroke-linecap:butt;stroke-linejoin:miter;stroke-opacity:1" d="M 893.732,790.186 900.124,801.691 z" id="boundary" inkscape:connector-curvature="0" />
	<path style="fill:none;stroke:red;stroke-width:1px;stroke-linecap:butt;stroke-linejoin:miter;stroke-opacity:1" d="M 900.124,801.691 906.515,813.196 z" id="boundary" inkscape:connector-curvature="0" />
	<path style="fill:none;stroke:red;stroke-width:1px;stroke-linecap:butt;stroke-linejoin:miter;stroke-opacity:1" d="M 900.124,829.814 912.907,829.814 z" id="boundary" inkscape:connector-curvature="0" />
	<path style="fill:none;stroke:red;stroke-width:1px;stroke-linecap:butt;stroke-linejoin:miter;stroke-opacity:1" d="M 906.515,813.196 919.299,815.753 z" id="boundary" inkscape:connector-curvature="0" />
	<path style="fill:none;stroke:red;stroke-width:1px;stroke-linecap:butt;stroke-linejoin:miter;stroke-opacity:1" d="M 912.907,829.814 924.412,836.206 z" id="boundary" inkscape:connector-curvature="0" />
	<path style="fill:none;stroke:red;stroke-width:1px;stroke-linecap:butt;stroke-linejoin:miter;stroke-opacity:1" d="M 919.299,815.753 932.082,811.918 z" id="boundary" inkscape:connector-curvature="0" />
	<path style="fill:none;stroke:red;stroke-width:1px;stroke-linecap:butt;stroke-linejoin:miter;stroke-opacity:1" d="M 924.412,836.206 937.196,836.206 z" id="boundary" inkscape:connector-curvature="0" />
	<path style="fill:none;stroke:red;stroke-width:1px;stroke-linecap:butt;stroke-linejoin:miter;stroke-opacity:1" d="M 932.082,811.918 944.866,809.361 z" id="boundary" inkscape:connector-curvature="0" />
	<path style="fill:none;stroke:red;stroke-width:1px;stroke-linecap:butt;stroke-linejoin:miter;stroke-opacity:1" d="M 937.196,836.206 948.701,842.598 z" id="boundary" inkscape:connector-curvature="0" />
	<path style="fill:none;stroke:red;stroke-width:1px;stroke-linecap:butt;stroke-linejoin:miter;stroke-opacity:1" d="M 944.866,809.361 957.649,809.361 z" id="boundary" inkscape:connector-curvature="0" />
	<path style="fill:none;stroke:red;stroke-width:1px;stroke-linecap:butt;stroke-linejoin:miter;stroke-opacity:1" d="M 948.701,842.598 961.485,842.598 z" id="boundary" inkscape:connector-curvature="0" />
	<path style="fill:none;stroke:red;stroke-width:1px;stroke-linecap:butt;stroke-linejoin:miter;stroke-opacity:1" d="M 957.649,809.361 970.433,809.361 z" id="boundary" inkscape:connector-curvature="0" />
	<path style="fill:none;stroke:red;stroke-width:1px;stroke-linecap:butt;stroke-linejoin:miter;stroke-opacity:1" d="M 970.433,809.361 983.216,813.196 z" id="boundary" inkscape:connector-curvature="0" />
	<path style="fill:none;stroke:red;stroke-width:1px;stroke-linecap:butt;stroke-linejoin:miter;stroke-opacity:1" d="M 972.99,848.99 983.216,838.763 z" id="boundary" inkscape:connector-curvature="0" />
	<path style="fill:none;stroke:red;stroke-width:1px;stroke-linecap:butt;stroke-linejoin:miter;stroke-opacity:1" d="M 972.99,848.99 985.773,854.103 z" id="boundary" inkscape:connector-curvature="0" />
	<path style="fill:none;stroke:red;stroke-width:1px;stroke-linecap:butt;stroke-linejoin:miter;stroke-opacity:1" d="M 983.216,813.196 983.216,825.979 z" id="boundary" inkscape:connector-curvature="0" />
	<path style="fill:none;stroke:red;stroke-width:1px;stroke-linecap:butt;stroke-linejoin:miter;stroke-opacity:1" d="M 983.216,825.979 983.216,838.763 z" id="boundary" inkscape:connector-curvature="0" />
	<path style="fill:none;stroke:red;stroke-width:1px;stroke-linecap:butt;stroke-linejoin:miter;stroke-opacity:1" d="M 985.773,854.103 996,845.155 z" id="boundary" inkscape:connector-curvature="0" />
	<circle cx="4" cy="480.825" r="4" fill="#0" id="circle0"/>
	<circle cx="4" cy="493.608" r="4" fill="#0" id="circle1"/>
	<circle cx="4" cy="506.392" r="4" fill="#0" id="circle2"/>
	<circle cx="4" cy="519.175" r="4" fill="#0" id="circle3"/>
	<circle cx="4" cy="531.959" r="4" fill="#0" id="circle4"/>
	<circle cx="4" cy="544.742" r="4" fill="#0" id="circle5"/>
	<circle cx="4" cy="557.526" r="4" fill="#0" id="circle6"/>
	<circle cx="10.3918" cy="455.258" r="4" fill="#0" id="circle7"/>
	<circle cx="10.3918" cy="468.041" r="4" fill="#0" id="circle8"/>
	<circle cx="10.3918" cy="569.031" r="4" fill="#0" id="circle9"/>
	<circle cx="16.7835" cy="429.691" r="4" fill="#0" id="circle10"/>
	<circle cx="16.7835" cy="442.474" r="4" fill="#0" id="circle11"/>
	<circle cx="23.1753" cy="416.907" r="4" fill="#0" id="circle12"/>
	<circle cx="23.1753" cy="574.144" r="4" fill="#0" id="circle13"/>
	<circle cx="29.567" cy="391.34" r="4" fill="#0" id="circle14"/>
	<circle cx="29.567" cy="404.124" r="4" fill="#0" id="circle15"/>
	<circle cx="30.8454" cy="584.371" r="4" fill="#0" id="circle16"/>
	<circle cx="35.9588" cy="378.557" r="4" fill="#0" id="circle17"/>
	<circle cx="42.3505" cy="352.99" r="4" fill="#0" id="circle18"/>
	<circle cx="42.3505" cy="365.773" r="4" fill="#0" id="circle19"/>
	<circle cx="43.6289" cy="586.928" r="4" fill="#0" id="circle20"/>
	<circle cx="48.7423" cy="340.206" r="4" fill="#0" id="circle21"/>
	<circle cx="55.134" cy="308.247" r="4" fill="#0" id="circle22"/>
	<circle cx="55.134" cy="321.031" r="4" fill="#0" id="circle23"/>
	<circle cx="56.4124" cy="586.928" r="4" fill="#0" id="circle24"/>
	<circle cx="61.5258" cy="257.113" r="4" fill="#0" id="circle25"/>
	<circle cx="61.5258" cy="269.897" r="4" fill="#0" id="circle26"/>
	<circle cx="61.5258" cy="282.68" r="4" fill="#0" id="circle27"/>
	<circle cx="61.5258" cy="295.464" r="4" fill="#0" id="circle28"/>
	<circle cx="67.9175" cy="212.371" r="4" fill="#0" id="circle29"/>
	<circle cx="67.9175" cy="225.155" r="4" fill="#0" id="circle30"/>
	<circle cx="67.9175" cy="237.938" r="4" fill="#0" id="circle31"/>
	<circle cx="67.9175" cy="593.32" r="4" fill="#0" id="circle32"/>
	<circle cx="74.3093" cy="174.021" r="4" fill="#0" id="circle33"/>
	<circle cx="74.3093" cy="186.804" r="4" fill="#0" id="circle34"/>
	<circle cx="74.3093" cy="199.588" r="4" fill="#0" id="circle35"/>
	<circle cx="80.701" cy="7.83505" r="4" fill="#0" id="circle36"/>
	<circle cx="80.701" cy="20.6186" r="4" fill="#0" id="circle37"/>
	<circle cx="80.701" cy="33.4021" r="4" fill="#0" id="circle38"/>
	<circle cx="80.701" cy="148.454" r="4" fill="#0" id="circle39"/>
	<circle cx="80.701" cy="161.237" r="4" fill="#0" id="circle40"/>
	<circle cx="80.701" cy="593.32" r="4" fill="#0" id="circle41"/>
	<circle cx="87.0928" cy="44.9072" r="4" fill="#0" id="circle42"/>
	<circle cx="87.0928" cy="57.6907" r="4" fill="#0" id="circle43"/>
	<circle cx="87.0928" cy="70.4742" r="4" fill="#0" id="circle44"/>
	<circle cx="87.0928" cy="83.2577" r="4" fill="#0" id="circle45"/>
	<circle cx="87.0928" cy="96.0412" r="4" fill="#0" id="circle46"/>
	<circle cx="87.0928" cy="108.825" r="4" fill="#0" id="circle47"/>
	<circle cx="87.0928" cy="121.608" r="4" fill="#0" id="circle48"/>
	<circle cx="87.0928" cy="134.392" r="4" fill="#0" id="circle49"/>
	<circle cx="93.4845" cy="4" r="4" fill="#0" id="circle50"/>
	<circle cx="93.4845" cy="593.32" r="4" fill="#0" id="circle51"/>
	<circle cx="106.268" cy="4" r="4" fill="#0" id="circle52"/>
	<circle cx="106.268" cy="593.32" r="4" fill="#0" id="circle53"/>
	<circle cx="113.938" cy="14.2268" r="4" fill="#0" id="circle54"/>
	<circle cx="119.052" cy="593.32" r="4" fill="#0" id="circle55"/>
	<circle cx="126.722" cy="16.7835" r="4" fill="#0" id="circle56"/>
	<circle cx="131.835" cy="593.32" r="4" fill="#0" id="circle57"/>
	<circle cx="136.948" cy="24.4536" r="4" fill="#0" id="circle58"/>
	<circle cx="143.34" cy="599.711" r="4" fill="#0" id="circle59"/>
	<circle cx="149.732" cy="29.567" r="4" fill="#0" id="circle60"/>
	<circle cx="154.845" cy="606.103" r="4" fill="#0" id="circle61"/>
	<circle cx="162.515" cy="29.567" r="4" fill="#0" id="circle62"/>
	<circle cx="167.629" cy="611.216" r="4" fill="#0" id="circle63"/>
	<circle cx="174.021" cy="35.9588" r="4" fill="#0" id="circle64"/>
	<circle cx="179.134" cy="617.608" r="4" fill="#0" id="circle65"/>
	<circle cx="186.804" cy="35.9588" r="4" fill="#0" id="circle66"/>
	<circle cx="191.918" cy="618.887" r="4" fill="#0" id="circle67"/>
	<circle cx="199.588" cy="35.9588" r="4" fill="#0" id="circle68"/>
	<circle cx="204.701" cy="618.887" r="4" fill="#0" id="circle69"/>
	<circle cx="212.371" cy="35.9588" r="4" fill="#0" id="circle70"/>
	<circle cx="217.485" cy="618.887" r="4" fill="#0" id="circle71"/>
	<circle cx="225.155" cy="29.567" r="4" fill="#0" id="circle72"/>
	<circle cx="230.268" cy="622.722" r="4" fill="#0" id="circle73"/>
	<circle cx="237.938" cy="29.567" r="4" fill="#0" id="circle74"/>
	<circle cx="243.052" cy="625.278" r="4" fill="#0" id="circle75"/>
	<circle cx="250.722" cy="29.567" r="4" fill="#0" id="circle76"/>
	<circle cx="255.835" cy="625.278" r="4" fill="#0" id="circle77"/>
	<circle cx="263.505" cy="29.567" r="4" fill="#0" id="circle78"/>
	<circle cx="268.619" cy="625.278" r="4" fill="#0" id="circle79"/>
	<circle cx="276.289" cy="23.1753" r="4" fill="#0" id="circle80"/>
	<circle cx="281.402" cy="625.278" r="4" fill="#0" id="circle81"/>
	<circle cx="289.072" cy="23.1753" r="4" fill="#0" id="circle82"/>
	<circle cx="292.907" cy="618.887" r="4" fill="#0" id="circle83"/>
	<circle cx="301.856" cy="23.1753" r="4" fill="#0" id="circle84"/>
	<circle cx="305.691" cy="618.887" r="4" fill="#0" id="circle85"/>
	<circle cx="314.639" cy="23.1753" r="4" fill="#0" id="circle86"/>
	<circle cx="318.474" cy="618.887" r="4" fill="#0" id="circle87"/>
	<circle cx="327.423" cy="23.1753" r="4" fill="#0" id="circle88"/>
	<circle cx="331.258" cy="612.495" r="4" fill="#0" id="circle89"/>
	<circle cx="340.206" cy="23.1753" r="4" fill="#0" id="circle90"/>
	<circle cx="344.041" cy="606.103" r="4" fill="#0" id="circle91"/>
	<circle cx="352.99" cy="23.1753" r="4" fill="#0" id="circle92"/>
	<circle cx="356.825" cy="599.711" r="4" fill="#0" id="circle93"/>
	<circle cx="365.773" cy="23.1753" r="4" fill="#0" id="circle94"/>
	<circle cx="369.608" cy="593.32" r="4" fill="#0" id="circle95"/>
	<circle cx="378.557" cy="23.1753" r="4" fill="#0" id="circle96"/>
	<circle cx="381.113" cy="586.928" r="4" fill="#0" id="circle97"/>
	<circle cx="391.34" cy="23.1753" r="4" fill="#0" id="circle98"/>
	<circle cx="391.34" cy="579.258" r="4" fill="#0" id="circle99"/>
	<circle cx="397.732" cy="566.474" r="4" fill="#0" id="circle100"/>
	<circle cx="402.845" cy="29.567" r="4" fill="#0" id="circle101"/>
	<circle cx="407.959" cy="548.577" r="4" fill="#0" id="circle102"/>
	<circle cx="415.629" cy="29.567" r="4" fill="#0" id="circle103"/>
	<circle cx="419.464" cy="554.969" r="4" fill="#0" id="circle104"/>
	<circle cx="419.464" cy="567.753" r="4" fill="#0" id="circle105"/>
	<circle cx="425.856" cy="579.258" r="4" fill="#0" id="circle106"/>
	<circle cx="428.412" cy="29.567" r="4" fill="#0" id="circle107"/>
	<circle cx="428.412" cy="592.041" r="4" fill="#0" id="circle108"/>
	<circle cx="432.247" cy="604.825" r="4" fill="#0" id="circle109"/>
	<circle cx="441.196" cy="29.567" r="4" fill="#0" id="circle110"/>
	<circle cx="445.031" cy="606.103" r="4" fill="#0" id="circle111"/>
	<circle cx="452.701" cy="586.928" r="4" fill="#0" id="circle112"/>
	<circle cx="453.979" cy="29.567" r="4" fill="#0" id="circle113"/>
	<circle cx="464.206" cy="580.536" r="4" fill="#0" id="circle114"/>
	<circle cx="466.763" cy="29.567" r="4" fill="#0" id="circle115"/>
	<circle cx="475.711" cy="586.928" r="4" fill="#0" id="circle116"/>
	<circle cx="479.546" cy="29.567" r="4" fill="#0" id="circle117"/>
	<circle cx="488.495" cy="586.928" r="4" fill="#0" id="circle118"/>
	<circle cx="492.33" cy="24.4536" r="4" fill="#0" id="circle119"/>
	<circle cx="500" cy="593.32" r="4" fill="#0" id="circle120"/>
	<circle cx="505.113" cy="23.1753" r="4" fill="#0" id="circle121"/>
	<circle cx="512.784" cy="593.32" r="4" fill="#0" id="circle122"/>
	<circle cx="516.619" cy="16.7835" r="4" fill="#0" id="circle123"/>
	<circle cx="525.567" cy="593.32" r="4" fill="#0" id="circle124"/>
	<circle cx="529.402" cy="16.7835" r="4" fill="#0" id="circle125"/>
	<circle cx="538.351" cy="593.32" r="4" fill="#0" id="circle126"/>
	<circle cx="542.186" cy="16.7835" r="4" fill="#0" id="circle127"/>
	<circle cx="551.134" cy="598.433" r="4" fill="#0" id="circle128"/>
	<circle cx="554.969" cy="16.7835" r="4" fill="#0" id="circle129"/>
	<circle cx="560.082" cy="608.66" r="4" fill="#0" id="circle130"/>
	<circle cx="566.474" cy="620.165" r="4" fill="#0" id="circle131"/>
	<circle cx="567.753" cy="16.7835" r="4" fill="#0" id="circle132"/>
	<circle cx="575.423" cy="630.392" r="4" fill="#0" id="circle133"/>
	<circle cx="580.536" cy="16.7835" r="4" fill="#0" id="circle134"/>
	<circle cx="580.536" cy="420.742" r="4" fill="#0" id="circle135"/>
	<circle cx="581.814" cy="641.897" r="4" fill="#0" id="circle136"/>
	<circle cx="586.928" cy="432.247" r="4" fill="#0" id="circle137"/>
	<circle cx="592.041" cy="650.845" r="4" fill="#0" id="circle138"/>
	<circle cx="593.32" cy="16.7835" r="4" fill="#0" id="circle139"/>
	<circle cx="593.32" cy="414.351" r="4" fill="#0" id="circle140"/>
	<circle cx="593.32" cy="491.052" r="4" fill="#0" id="circle141"/>
	<circle cx="593.32" cy="503.835" r="4" fill="#0" id="circle142"/>
	<circle cx="593.32" cy="516.619" r="4" fill="#0" id="circle143"/>
	<circle cx="593.32" cy="529.402" r="4" fill="#0" id="circle144"/>
	<circle cx="593.32" cy="542.186" r="4" fill="#0" id="circle145"/>
	<circle cx="593.32" cy="554.969" r="4" fill="#0" id="circle146"/>
	<circle cx="595.876" cy="663.629" r="4" fill="#0" id="circle147"/>
	<circle cx="599.711" cy="432.247" r="4" fill="#0" id="circle148"/>
	<circle cx="599.711" cy="566.474" r="4" fill="#0" id="circle149"/>
	<circle cx="603.546" cy="405.402" r="4" fill="#0" id="circle150"/>
	<circle cx="603.546" cy="482.103" r="4" fill="#0" id="circle151"/>
	<circle cx="606.103" cy="16.7835" r="4" fill="#0" id="circle152"/>
	<circle cx="606.103" cy="577.979" r="4" fill="#0" id="circle153"/>
	<circle cx="606.103" cy="672.577" r="4" fill="#0" id="circle154"/>
	<circle cx="609.938" cy="439.918" r="4" fill="#0" id="circle155"/>
	<circle cx="612.495" cy="395.175" r="4" fill="#0" id="circle156"/>
	<circle cx="612.495" cy="589.485" r="4" fill="#0" id="circle157"/>
	<circle cx="615.052" cy="682.804" r="4" fill="#0" id="circle158"/>
	<circle cx="616.33" cy="478.268" r="4" fill="#0" id="circle159"/>
	<circle cx="618.887" cy="16.7835" r="4" fill="#0" id="circle160"/>
	<circle cx="618.887" cy="382.392" r="4" fill="#0" id="circle161"/>
	<circle cx="618.887" cy="450.144" r="4" fill="#0" id="circle162"/>
	<circle cx="618.887" cy="600.99" r="4" fill="#0" id="circle163"/>
	<circle cx="624" cy="693.031" r="4" fill="#0" id="circle164"/>
	<circle cx="625.278" cy="369.608" r="4" fill="#0" id="circle165"/>
	<circle cx="626.557" cy="611.216" r="4" fill="#0" id="circle166"/>
	<circle cx="629.113" cy="475.711" r="4" fill="#0" id="circle167"/>
	<circle cx="630.392" cy="704.536" r="4" fill="#0" id="circle168"/>
	<circle cx="631.67" cy="20.6186" r="4" fill="#0" id="circle169"/>
	<circle cx="631.67" cy="356.825" r="4" fill="#0" id="circle170"/>
	<circle cx="631.67" cy="455.258" r="4" fill="#0" id="circle171"/>
	<circle cx="631.67" cy="624" r="4" fill="#0" id="circle172"/>
	<circle cx="638.062" cy="344.041" r="4" fill="#0" id="circle173"/>
	<circle cx="640.619" cy="713.485" r="4" fill="#0" id="circle174"/>
	<circle cx="641.897" cy="631.67" r="4" fill="#0" id="circle175"/>
	<circle cx="643.175" cy="27.0103" r="4" fill="#0" id="circle176"/>
	<circle cx="644.454" cy="318.474" r="4" fill="#0" id="circle177"/>
	<circle cx="644.454" cy="331.258" r="4" fill="#0" id="circle178"/>
	<circle cx="645.732" cy="726.268" r="4" fill="#0" id="circle179"/>
	<circle cx="647.01" cy="644.454" r="4" fill="#0" id="circle180"/>
	<circle cx="650.845" cy="299.299" r="4" fill="#0" id="circle181"/>
	<circle cx="653.402" cy="655.959" r="4" fill="#0" id="circle182"/>
	<circle cx="655.959" cy="32.1237" r="4" fill="#0" id="circle183"/>
	<circle cx="657.237" cy="44.9072" r="4" fill="#0" id="circle184"/>
	<circle cx="657.237" cy="57.6907" r="4" fill="#0" id="circle185"/>
	<circle cx="657.237" cy="70.4742" r="4" fill="#0" id="circle186"/>
	<circle cx="657.237" cy="83.2577" r="4" fill="#0" id="circle187"/>
	<circle cx="657.237" cy="96.0412" r="4" fill="#0" id="circle188"/>
	<circle cx="657.237" cy="108.825" r="4" fill="#0" id="circle189"/>
	<circle cx="657.237" cy="121.608" r="4" fill="#0" id="circle190"/>
	<circle cx="657.237" cy="134.392" r="4" fill="#0" id="circle191"/>
	<circle cx="657.237" cy="147.175" r="4" fill="#0" id="circle192"/>
	<circle cx="657.237" cy="159.959" r="4" fill="#0" id="circle193"/>
	<circle cx="657.237" cy="172.742" r="4" fill="#0" id="circle194"/>
	<circle cx="657.237" cy="185.526" r="4" fill="#0" id="circle195"/>
	<circle cx="657.237" cy="198.309" r="4" fill="#0" id="circle196"/>
	<circle cx="657.237" cy="211.093" r="4" fill="#0" id="circle197"/>
	<circle cx="657.237" cy="223.876" r="4" fill="#0" id="circle198"/>
	<circle cx="657.237" cy="236.66" r="4" fill="#0" id="circle199"/>
	<circle cx="657.237" cy="249.443" r="4" fill="#0" id="circle200"/>
	<circle cx="657.237" cy="262.227" r="4" fill="#0" id="circle201"/>
	<circle cx="657.237" cy="275.01" r="4" fill="#0" id="circle202"/>
	<circle cx="657.237" cy="287.794" r="4" fill="#0" id="circle203"/>
	<circle cx="658.515" cy="731.381" r="4" fill="#0" id="circle204"/>
	<circle cx="662.351" cy="666.186" r="4" fill="#0" id="circle205"/>
	<circle cx="668.742" cy="677.691" r="4" fill="#0" id="circle206"/>
	<circle cx="668.742" cy="740.33" r="4" fill="#0" id="circle207"/>
	<circle cx="673.856" cy="690.474" r="4" fill="#0" id="circle208"/>
	<circle cx="680.247" cy="746.722" r="4" fill="#0" id="circle209"/>
	<circle cx="682.804" cy="700.701" r="4" fill="#0" id="circle210"/>
	<circle cx="687.918" cy="756.948" r="4" fill="#0" id="circle211"/>
	<circle cx="689.196" cy="712.206" r="4" fill="#0" id="circle212"/>
	<circle cx="698.144" cy="765.897" r="4" fill="#0" id="circle213"/>
	<circle cx="701.979" cy="717.32" r="4" fill="#0" id="circle214"/>
	<circle cx="708.371" cy="774.845" r="4" fill="#0" id="circle215"/>
	<circle cx="710.928" cy="727.546" r="4" fill="#0" id="circle216"/>
	<circle cx="717.32" cy="785.072" r="4" fill="#0" id="circle217"/>
	<circle cx="723.711" cy="732.66" r="4" fill="#0" id="circle218"/>
	<circle cx="727.546" cy="745.443" r="4" fill="#0" id="circle219"/>
	<circle cx="730.103" cy="790.186" r="4" fill="#0" id="circle220"/>
	<circle cx="739.052" cy="751.835" r="4" fill="#0" id="circle221"/>
	<circle cx="740.33" cy="797.856" r="4" fill="#0" id="circle222"/>
	<circle cx="750.557" cy="758.227" r="4" fill="#0" id="circle223"/>
	<circle cx="751.835" cy="804.247" r="4" fill="#0" id="circle224"/>
	<circle cx="759.505" cy="768.454" r="4" fill="#0" id="circle225"/>
	<circle cx="763.34" cy="810.639" r="4" fill="#0" id="circle226"/>
	<circle cx="772.289" cy="771.01" r="4" fill="#0" id="circle227"/>
	<circle cx="776.124" cy="810.639" r="4" fill="#0" id="circle228"/>
	<circle cx="782.515" cy="778.68" r="4" fill="#0" id="circle229"/>
	<circle cx="787.629" cy="817.031" r="4" fill="#0" id="circle230"/>
	<circle cx="794.021" cy="785.072" r="4" fill="#0" id="circle231"/>
	<circle cx="800.412" cy="817.031" r="4" fill="#0" id="circle232"/>
	<circle cx="804.247" cy="794.021" r="4" fill="#0" id="circle233"/>
	<circle cx="813.196" cy="817.031" r="4" fill="#0" id="circle234"/>
	<circle cx="817.031" cy="796.577" r="4" fill="#0" id="circle235"/>
	<circle cx="824.701" cy="823.423" r="4" fill="#0" id="circle236"/>
	<circle cx="829.814" cy="796.577" r="4" fill="#0" id="circle237"/>
	<circle cx="836.206" cy="829.814" r="4" fill="#0" id="circle238"/>
	<circle cx="842.598" cy="796.577" r="4" fill="#0" id="circle239"/>
	<circle cx="848.99" cy="829.814" r="4" fill="#0" id="circle240"/>
	<circle cx="855.381" cy="796.577" r="4" fill="#0" id="circle241"/>
	<circle cx="861.773" cy="829.814" r="4" fill="#0" id="circle242"/>
	<circle cx="868.165" cy="792.742" r="4" fill="#0" id="circle243"/>
	<circle cx="874.557" cy="829.814" r="4" fill="#0" id="circle244"/>
	<circle cx="880.948" cy="790.186" r="4" fill="#0" id="circle245"/>
	<circle cx="887.34" cy="829.814" r="4" fill="#0" id="circle246"/>
	<circle cx="893.732" cy="790.186" r="4" fill="#0" id="circle247"/>
	<circle cx="900.124" cy="801.691" r="4" fill="#0" id="circle248"/>
	<circle cx="900.124" cy="829.814" r="4" fill="#0" id="circle249"/>
	<circle cx="906.515" cy="813.196" r="4" fill="#0" id="circle250"/>
	<circle cx="912.907" cy="829.814" r="4" fill="#0" id="circle251"/>
	<circle cx="919.299" cy="815.753" r="4" fill="#0" id="circle252"/>
	<circle cx="924.412" cy="836.206" r="4" fill="#0" id="circle253"/>
	<circle cx="932.082" cy="811.918" r="4" fill="#0" id="circle254"/>
	<circle cx="937.196" cy="836.206" r="4" fill="#0" id="circle255"/>
	<circle cx="944.866" cy="809.361" r="4" fill="#0" id="circle256"/>
	<circle cx="948.701" cy="842.598" r="4" fill="#0" id="circle257"/>
	<circle cx="957.649" cy="809.361" r="4" fill="#0" id="circle258"/>
	<circle cx="961.485" cy="842.598" r="4" fill="#0" id="circle259"/>
	<circle cx="970.433" cy="809.361" r="4" fill="#0" id="circle260"/>
	<circle cx="972.99" cy="848.99" r="4" fill="#0" id="circle261"/>
	<circle cx="983.216" cy="813.196" r="4" fill="#0" id="circle262"/>
	<circle cx="983.216" cy="825.979" r="4" fill="#0" id="circle263"/>
	<circle cx="983.216" cy="838.763" r="4" fill="#0" id="circle264"/>
	<circle cx="985.773" cy="854.103" r="4" fill="#0" id="circle265"/>
	<circle cx="996" cy="845.155" r="4" fill="#0" id="circle266"/>
	</g>
</svg>