<?xml version="1.0" encoding="UTF-8" standalone="no"?>
<!-- Created with CurveBenchmark -->
<svg
	xmlns:dc="http://purl.org/dc/elements/1.1/"
	xmlns:cc="http://creativecommons.org/ns#"
	xmlns:rdf="http://www.w3.org/1999/02/22-rdf-syntax-ns#"
	xmlns:svg="http://www.w3.org/2000/svg"
	xmlns="http://www.w3.org/2000/svg"
	xmlns:sodipodi="http://sodipodi.sourceforge.net/DTD/sodipodi-0.dtd"
	xmlns:inkscape="http://www.inkscape.org/namespaces/inkscape"
	width="1000"
	height="1000"
	id="svg2"
	version="1.1"
	sodipodi:docname="manifold/vicur-hammer31.png.txt">
<defs
	id="defs4" />
<metadata
	id="metadata7">
	<rdf:RDF>
		<cc:Work
			rdf:about="">
			<dc:format>image/svg+xml</dc:format>
			<dc:type
				rdf:resource="http://purl.org/dc/dcmitype/StillImage" />
			<dc:title></dc:title>
		</cc:Work>
	</rdf:RDF>
</metadata>
<g
	inkscape:label="Layer 1"
	inkscape:groupmode="layer"
	id="layer1">
	<path style="fill:none;stroke:red;stroke-width:1px;stroke-linecap:butt;stroke-linejoin:miter;stroke-opacity:1" d="M 4,55.6069 4,84.2775 z" id="boundary" inkscape:connector-curvature="0" />
	<path style="fill:none;stroke:red;stroke-width:1px;stroke-linecap:butt;stroke-linejoin:miter;stroke-opacity:1" d="M 4,55.6069 18.3353,26.9364 z" id="boundary" inkscape:connector-curvature="0" />
	<path style="fill:none;stroke:red;stroke-width:1px;stroke-linecap:butt;stroke-linejoin:miter;stroke-opacity:1" d="M 4,84.2775 26.9364,104.347 z" id="boundary" inkscape:connector-curvature="0" />
	<path style="fill:none;stroke:red;stroke-width:1px;stroke-linecap:butt;stroke-linejoin:miter;stroke-opacity:1" d="M 18.3353,26.9364 41.2717,4 z" id="boundary" inkscape:connector-curvature="0" />
	<path style="fill:none;stroke:red;stroke-width:1px;stroke-linecap:butt;stroke-linejoin:miter;stroke-opacity:1" d="M 26.9364,104.347 47.0058,127.283 z" id="boundary" inkscape:connector-curvature="0" />
	<path style="fill:none;stroke:red;stroke-width:1px;stroke-linecap:butt;stroke-linejoin:miter;stroke-opacity:1" d="M 41.2717,4 69.9422,4 z" id="boundary" inkscape:connector-curvature="0" />
	<path style="fill:none;stroke:red;stroke-width:1px;stroke-linecap:butt;stroke-linejoin:miter;stroke-opacity:1" d="M 47.0058,127.283 69.9422,147.353 z" id="boundary" inkscape:connector-curvature="0" />
	<path style="fill:none;stroke:red;stroke-width:1px;stroke-linecap:butt;stroke-linejoin:miter;stroke-opacity:1" d="M 69.9422,4 98.6127,4 z" id="boundary" inkscape:connector-curvature="0" />
	<path style="fill:none;stroke:red;stroke-width:1px;stroke-linecap:butt;stroke-linejoin:miter;stroke-opacity:1" d="M 69.9422,147.353 90.0116,170.289 z" id="boundary" inkscape:connector-curvature="0" />
	<path style="fill:none;stroke:red;stroke-width:1px;stroke-linecap:butt;stroke-linejoin:miter;stroke-opacity:1" d="M 90.0116,170.289 107.214,193.225 z" id="boundary" inkscape:connector-curvature="0" />
	<path style="fill:none;stroke:red;stroke-width:1px;stroke-linecap:butt;stroke-linejoin:miter;stroke-opacity:1" d="M 98.6127,4 127.283,4 z" id="boundary" inkscape:connector-curvature="0" />
	<path style="fill:none;stroke:red;stroke-width:1px;stroke-linecap:butt;stroke-linejoin:miter;stroke-opacity:1" d="M 107.214,193.225 124.416,216.162 z" id="boundary" inkscape:connector-curvature="0" />
	<path style="fill:none;stroke:red;stroke-width:1px;stroke-linecap:butt;stroke-linejoin:miter;stroke-opacity:1" d="M 124.416,216.162 147.353,236.231 z" id="boundary" inkscape:connector-curvature="0" />
	<path style="fill:none;stroke:red;stroke-width:1px;stroke-linecap:butt;stroke-linejoin:miter;stroke-opacity:1" d="M 127.283,4 150.22,21.2023 z" id="boundary" inkscape:connector-curvature="0" />
	<path style="fill:none;stroke:red;stroke-width:1px;stroke-linecap:butt;stroke-linejoin:miter;stroke-opacity:1" d="M 147.353,236.231 164.555,259.168 z" id="boundary" inkscape:connector-curvature="0" />
	<path style="fill:none;stroke:red;stroke-width:1px;stroke-linecap:butt;stroke-linejoin:miter;stroke-opacity:1" d="M 150.22,21.2023 155.954,49.8728 z" id="boundary" inkscape:connector-curvature="0" />
	<path style="fill:none;stroke:red;stroke-width:1px;stroke-linecap:butt;stroke-linejoin:miter;stroke-opacity:1" d="M 155.954,49.8728 178.89,69.9422 z" id="boundary" inkscape:connector-curvature="0" />
	<path style="fill:none;stroke:red;stroke-width:1px;stroke-linecap:butt;stroke-linejoin:miter;stroke-opacity:1" d="M 164.555,259.168 187.491,279.237 z" id="boundary" inkscape:connector-curvature="0" />
	<path style="fill:none;stroke:red;stroke-width:1px;stroke-linecap:butt;stroke-linejoin:miter;stroke-opacity:1" d="M 178.89,69.9422 198.96,92.8786 z" id="boundary" inkscape:connector-curvature="0" />
	<path style="fill:none;stroke:red;stroke-width:1px;stroke-linecap:butt;stroke-linejoin:miter;stroke-opacity:1" d="M 187.491,279.237 207.561,302.173 z" id="boundary" inkscape:connector-curvature="0" />
	<path style="fill:none;stroke:red;stroke-width:1px;stroke-linecap:butt;stroke-linejoin:miter;stroke-opacity:1" d="M 198.96,92.8786 213.295,118.682 z" id="boundary" inkscape:connector-curvature="0" />
	<path style="fill:none;stroke:red;stroke-width:1px;stroke-linecap:butt;stroke-linejoin:miter;stroke-opacity:1" d="M 207.561,302.173 230.497,322.243 z" id="boundary" inkscape:connector-curvature="0" />
	<path style="fill:none;stroke:red;stroke-width:1px;stroke-linecap:butt;stroke-linejoin:miter;stroke-opacity:1" d="M 213.295,118.682 233.364,141.618 z" id="boundary" inkscape:connector-curvature="0" />
	<path style="fill:none;stroke:red;stroke-width:1px;stroke-linecap:butt;stroke-linejoin:miter;stroke-opacity:1" d="M 230.497,322.243 247.699,345.179 z" id="boundary" inkscape:connector-curvature="0" />
	<path style="fill:none;stroke:red;stroke-width:1px;stroke-linecap:butt;stroke-linejoin:miter;stroke-opacity:1" d="M 233.364,141.618 256.301,161.688 z" id="boundary" inkscape:connector-curvature="0" />
	<path style="fill:none;stroke:red;stroke-width:1px;stroke-linecap:butt;stroke-linejoin:miter;stroke-opacity:1" d="M 247.699,345.179 250.566,373.85 z" id="boundary" inkscape:connector-curvature="0" />
	<path style="fill:none;stroke:red;stroke-width:1px;stroke-linecap:butt;stroke-linejoin:miter;stroke-opacity:1" d="M 250.566,373.85 273.503,393.919 z" id="boundary" inkscape:connector-curvature="0" />
	<path style="fill:none;stroke:red;stroke-width:1px;stroke-linecap:butt;stroke-linejoin:miter;stroke-opacity:1" d="M 256.301,161.688 264.902,190.358 z" id="boundary" inkscape:connector-curvature="0" />
	<path style="fill:none;stroke:red;stroke-width:1px;stroke-linecap:butt;stroke-linejoin:miter;stroke-opacity:1" d="M 264.902,190.358 293.572,198.96 z" id="boundary" inkscape:connector-curvature="0" />
	<path style="fill:none;stroke:red;stroke-width:1px;stroke-linecap:butt;stroke-linejoin:miter;stroke-opacity:1" d="M 273.503,393.919 299.306,408.254 z" id="boundary" inkscape:connector-curvature="0" />
	<path style="fill:none;stroke:red;stroke-width:1px;stroke-linecap:butt;stroke-linejoin:miter;stroke-opacity:1" d="M 293.572,198.96 305.04,227.63 z" id="boundary" inkscape:connector-curvature="0" />
	<path style="fill:none;stroke:red;stroke-width:1px;stroke-linecap:butt;stroke-linejoin:miter;stroke-opacity:1" d="M 299.306,408.254 322.243,428.324 z" id="boundary" inkscape:connector-curvature="0" />
	<path style="fill:none;stroke:red;stroke-width:1px;stroke-linecap:butt;stroke-linejoin:miter;stroke-opacity:1" d="M 305.04,227.63 327.977,247.699 z" id="boundary" inkscape:connector-curvature="0" />
	<path style="fill:none;stroke:red;stroke-width:1px;stroke-linecap:butt;stroke-linejoin:miter;stroke-opacity:1" d="M 322.243,428.324 342.312,451.26 z" id="boundary" inkscape:connector-curvature="0" />
	<path style="fill:none;stroke:red;stroke-width:1px;stroke-linecap:butt;stroke-linejoin:miter;stroke-opacity:1" d="M 327.977,247.699 348.046,270.636 z" id="boundary" inkscape:connector-curvature="0" />
	<path style="fill:none;stroke:red;stroke-width:1px;stroke-linecap:butt;stroke-linejoin:miter;stroke-opacity:1" d="M 342.312,451.26 365.249,471.329 z" id="boundary" inkscape:connector-curvature="0" />
	<path style="fill:none;stroke:red;stroke-width:1px;stroke-linecap:butt;stroke-linejoin:miter;stroke-opacity:1" d="M 348.046,270.636 365.249,293.572 z" id="boundary" inkscape:connector-curvature="0" />
	<path style="fill:none;stroke:red;stroke-width:1px;stroke-linecap:butt;stroke-linejoin:miter;stroke-opacity:1" d="M 365.249,293.572 379.584,319.376 z" id="boundary" inkscape:connector-curvature="0" />
	<path style="fill:none;stroke:red;stroke-width:1px;stroke-linecap:butt;stroke-linejoin:miter;stroke-opacity:1" d="M 365.249,471.329 376.717,500 z" id="boundary" inkscape:connector-curvature="0" />
	<path style="fill:none;stroke:red;stroke-width:1px;stroke-linecap:butt;stroke-linejoin:miter;stroke-opacity:1" d="M 376.717,500 399.653,520.069 z" id="boundary" inkscape:connector-curvature="0" />
	<path style="fill:none;stroke:red;stroke-width:1px;stroke-linecap:butt;stroke-linejoin:miter;stroke-opacity:1" d="M 379.584,319.376 402.52,336.578 z" id="boundary" inkscape:connector-curvature="0" />
	<path style="fill:none;stroke:red;stroke-width:1px;stroke-linecap:butt;stroke-linejoin:miter;stroke-opacity:1" d="M 399.653,520.069 411.121,548.74 z" id="boundary" inkscape:connector-curvature="0" />
	<path style="fill:none;stroke:red;stroke-width:1px;stroke-linecap:butt;stroke-linejoin:miter;stroke-opacity:1" d="M 402.52,336.578 422.59,359.514 z" id="boundary" inkscape:connector-curvature="0" />
	<path style="fill:none;stroke:red;stroke-width:1px;stroke-linecap:butt;stroke-linejoin:miter;stroke-opacity:1" d="M 411.121,548.74 434.058,565.942 z" id="boundary" inkscape:connector-curvature="0" />
	<path style="fill:none;stroke:red;stroke-width:1px;stroke-linecap:butt;stroke-linejoin:miter;stroke-opacity:1" d="M 422.59,359.514 422.59,388.185 z" id="boundary" inkscape:connector-curvature="0" />
	<path style="fill:none;stroke:red;stroke-width:1px;stroke-linecap:butt;stroke-linejoin:miter;stroke-opacity:1" d="M 422.59,388.185 445.526,405.387 z" id="boundary" inkscape:connector-curvature="0" />
	<path style="fill:none;stroke:red;stroke-width:1px;stroke-linecap:butt;stroke-linejoin:miter;stroke-opacity:1" d="M 434.058,565.942 442.659,594.613 z" id="boundary" inkscape:connector-curvature="0" />
	<path style="fill:none;stroke:red;stroke-width:1px;stroke-linecap:butt;stroke-linejoin:miter;stroke-opacity:1" d="M 442.659,594.613 471.329,606.081 z" id="boundary" inkscape:connector-curvature="0" />
	<path style="fill:none;stroke:red;stroke-width:1px;stroke-linecap:butt;stroke-linejoin:miter;stroke-opacity:1" d="M 445.526,405.387 471.329,419.723 z" id="boundary" inkscape:connector-curvature="0" />
	<path style="fill:none;stroke:red;stroke-width:1px;stroke-linecap:butt;stroke-linejoin:miter;stroke-opacity:1" d="M 471.329,419.723 479.931,448.393 z" id="boundary" inkscape:connector-curvature="0" />
	<path style="fill:none;stroke:red;stroke-width:1px;stroke-linecap:butt;stroke-linejoin:miter;stroke-opacity:1" d="M 471.329,606.081 491.399,629.017 z" id="boundary" inkscape:connector-curvature="0" />
	<path style="fill:none;stroke:red;stroke-width:1px;stroke-linecap:butt;stroke-linejoin:miter;stroke-opacity:1" d="M 479.931,448.393 502.867,465.595 z" id="boundary" inkscape:connector-curvature="0" />
	<path style="fill:none;stroke:red;stroke-width:1px;stroke-linecap:butt;stroke-linejoin:miter;stroke-opacity:1" d="M 491.399,629.017 505.734,654.821 z" id="boundary" inkscape:connector-curvature="0" />
	<path style="fill:none;stroke:red;stroke-width:1px;stroke-linecap:butt;stroke-linejoin:miter;stroke-opacity:1" d="M 502.867,465.595 514.335,494.266 z" id="boundary" inkscape:connector-curvature="0" />
	<path style="fill:none;stroke:red;stroke-width:1px;stroke-linecap:butt;stroke-linejoin:miter;stroke-opacity:1" d="M 505.734,654.821 525.803,677.757 z" id="boundary" inkscape:connector-curvature="0" />
	<path style="fill:none;stroke:red;stroke-width:1px;stroke-linecap:butt;stroke-linejoin:miter;stroke-opacity:1" d="M 514.335,494.266 537.272,514.335 z" id="boundary" inkscape:connector-curvature="0" />
	<path style="fill:none;stroke:red;stroke-width:1px;stroke-linecap:butt;stroke-linejoin:miter;stroke-opacity:1" d="M 525.803,677.757 534.405,706.428 z" id="boundary" inkscape:connector-curvature="0" />
	<path style="fill:none;stroke:red;stroke-width:1px;stroke-linecap:butt;stroke-linejoin:miter;stroke-opacity:1" d="M 534.405,706.428 551.607,729.364 z" id="boundary" inkscape:connector-curvature="0" />
	<path style="fill:none;stroke:red;stroke-width:1px;stroke-linecap:butt;stroke-linejoin:miter;stroke-opacity:1" d="M 537.272,514.335 537.272,543.006 z" id="boundary" inkscape:connector-curvature="0" />
	<path style="fill:none;stroke:red;stroke-width:1px;stroke-linecap:butt;stroke-linejoin:miter;stroke-opacity:1" d="M 537.272,543.006 557.341,565.942 z" id="boundary" inkscape:connector-curvature="0" />
	<path style="fill:none;stroke:red;stroke-width:1px;stroke-linecap:butt;stroke-linejoin:miter;stroke-opacity:1" d="M 548.74,901.387 548.74,930.058 z" id="boundary" inkscape:connector-curvature="0" />
	<path style="fill:none;stroke:red;stroke-width:1px;stroke-linecap:butt;stroke-linejoin:miter;stroke-opacity:1" d="M 548.74,901.387 577.41,887.052 z" id="boundary" inkscape:connector-curvature="0" />
	<path style="fill:none;stroke:red;stroke-width:1px;stroke-linecap:butt;stroke-linejoin:miter;stroke-opacity:1" d="M 548.74,930.058 548.74,958.728 z" id="boundary" inkscape:connector-curvature="0" />
	<path style="fill:none;stroke:red;stroke-width:1px;stroke-linecap:butt;stroke-linejoin:miter;stroke-opacity:1" d="M 548.74,958.728 563.075,984.532 z" id="boundary" inkscape:connector-curvature="0" />
	<path style="fill:none;stroke:red;stroke-width:1px;stroke-linecap:butt;stroke-linejoin:miter;stroke-opacity:1" d="M 551.607,729.364 563.075,758.035 z" id="boundary" inkscape:connector-curvature="0" />
	<path style="fill:none;stroke:red;stroke-width:1px;stroke-linecap:butt;stroke-linejoin:miter;stroke-opacity:1" d="M 557.341,565.942 571.676,591.746 z" id="boundary" inkscape:connector-curvature="0" />
	<path style="fill:none;stroke:red;stroke-width:1px;stroke-linecap:butt;stroke-linejoin:miter;stroke-opacity:1" d="M 563.075,758.035 586.012,778.104 z" id="boundary" inkscape:connector-curvature="0" />
	<path style="fill:none;stroke:red;stroke-width:1px;stroke-linecap:butt;stroke-linejoin:miter;stroke-opacity:1" d="M 563.075,984.532 591.746,996 z" id="boundary" inkscape:connector-curvature="0" />
	<path style="fill:none;stroke:red;stroke-width:1px;stroke-linecap:butt;stroke-linejoin:miter;stroke-opacity:1" d="M 571.676,591.746 591.746,614.682 z" id="boundary" inkscape:connector-curvature="0" />
	<path style="fill:none;stroke:red;stroke-width:1px;stroke-linecap:butt;stroke-linejoin:miter;stroke-opacity:1" d="M 577.41,887.052 606.081,878.451 z" id="boundary" inkscape:connector-curvature="0" />
	<path style="fill:none;stroke:red;stroke-width:1px;stroke-linecap:butt;stroke-linejoin:miter;stroke-opacity:1" d="M 586.012,778.104 597.48,806.775 z" id="boundary" inkscape:connector-curvature="0" />
	<path style="fill:none;stroke:red;stroke-width:1px;stroke-linecap:butt;stroke-linejoin:miter;stroke-opacity:1" d="M 591.746,614.682 606.081,640.486 z" id="boundary" inkscape:connector-curvature="0" />
	<path style="fill:none;stroke:red;stroke-width:1px;stroke-linecap:butt;stroke-linejoin:miter;stroke-opacity:1" d="M 591.746,996 620.416,996 z" id="boundary" inkscape:connector-curvature="0" />
	<path style="fill:none;stroke:red;stroke-width:1px;stroke-linecap:butt;stroke-linejoin:miter;stroke-opacity:1" d="M 597.48,806.775 620.416,823.977 z" id="boundary" inkscape:connector-curvature="0" />
	<path style="fill:none;stroke:red;stroke-width:1px;stroke-linecap:butt;stroke-linejoin:miter;stroke-opacity:1" d="M 606.081,640.486 631.884,654.821 z" id="boundary" inkscape:connector-curvature="0" />
	<path style="fill:none;stroke:red;stroke-width:1px;stroke-linecap:butt;stroke-linejoin:miter;stroke-opacity:1" d="M 606.081,878.451 634.751,878.451 z" id="boundary" inkscape:connector-curvature="0" />
	<path style="fill:none;stroke:red;stroke-width:1px;stroke-linecap:butt;stroke-linejoin:miter;stroke-opacity:1" d="M 620.416,823.977 634.751,849.78 z" id="boundary" inkscape:connector-curvature="0" />
	<path style="fill:none;stroke:red;stroke-width:1px;stroke-linecap:butt;stroke-linejoin:miter;stroke-opacity:1" d="M 620.416,996 643.353,978.798 z" id="boundary" inkscape:connector-curvature="0" />
	<path style="fill:none;stroke:red;stroke-width:1px;stroke-linecap:butt;stroke-linejoin:miter;stroke-opacity:1" d="M 631.884,654.821 651.954,677.757 z" id="boundary" inkscape:connector-curvature="0" />
	<path style="fill:none;stroke:red;stroke-width:1px;stroke-linecap:butt;stroke-linejoin:miter;stroke-opacity:1" d="M 634.751,849.78 634.751,878.451 z" id="boundary" inkscape:connector-curvature="0" />
	<path style="fill:none;stroke:red;stroke-width:1px;stroke-linecap:butt;stroke-linejoin:miter;stroke-opacity:1" d="M 643.353,978.798 666.289,952.994 z" id="boundary" inkscape:connector-curvature="0" />
	<path style="fill:none;stroke:red;stroke-width:1px;stroke-linecap:butt;stroke-linejoin:miter;stroke-opacity:1" d="M 651.954,677.757 666.289,703.561 z" id="boundary" inkscape:connector-curvature="0" />
	<path style="fill:none;stroke:red;stroke-width:1px;stroke-linecap:butt;stroke-linejoin:miter;stroke-opacity:1" d="M 666.289,703.561 680.624,729.364 z" id="boundary" inkscape:connector-curvature="0" />
	<path style="fill:none;stroke:red;stroke-width:1px;stroke-linecap:butt;stroke-linejoin:miter;stroke-opacity:1" d="M 666.289,952.994 694.96,952.994 z" id="boundary" inkscape:connector-curvature="0" />
	<path style="fill:none;stroke:red;stroke-width:1px;stroke-linecap:butt;stroke-linejoin:miter;stroke-opacity:1" d="M 680.624,729.364 694.96,755.168 z" id="boundary" inkscape:connector-curvature="0" />
	<path style="fill:none;stroke:red;stroke-width:1px;stroke-linecap:butt;stroke-linejoin:miter;stroke-opacity:1" d="M 694.96,755.168 723.63,758.035 z" id="boundary" inkscape:connector-curvature="0" />
	<path style="fill:none;stroke:red;stroke-width:1px;stroke-linecap:butt;stroke-linejoin:miter;stroke-opacity:1" d="M 694.96,952.994 723.63,952.994 z" id="boundary" inkscape:connector-curvature="0" />
	<path style="fill:none;stroke:red;stroke-width:1px;stroke-linecap:butt;stroke-linejoin:miter;stroke-opacity:1" d="M 723.63,758.035 752.301,755.168 z" id="boundary" inkscape:connector-curvature="0" />
	<path style="fill:none;stroke:red;stroke-width:1px;stroke-linecap:butt;stroke-linejoin:miter;stroke-opacity:1" d="M 723.63,952.994 749.434,938.659 z" id="boundary" inkscape:connector-curvature="0" />
	<path style="fill:none;stroke:red;stroke-width:1px;stroke-linecap:butt;stroke-linejoin:miter;stroke-opacity:1" d="M 749.434,938.659 772.37,921.457 z" id="boundary" inkscape:connector-curvature="0" />
	<path style="fill:none;stroke:red;stroke-width:1px;stroke-linecap:butt;stroke-linejoin:miter;stroke-opacity:1" d="M 752.301,755.168 775.237,735.098 z" id="boundary" inkscape:connector-curvature="0" />
	<path style="fill:none;stroke:red;stroke-width:1px;stroke-linecap:butt;stroke-linejoin:miter;stroke-opacity:1" d="M 772.37,921.457 801.04,907.121 z" id="boundary" inkscape:connector-curvature="0" />
	<path style="fill:none;stroke:red;stroke-width:1px;stroke-linecap:butt;stroke-linejoin:miter;stroke-opacity:1" d="M 775.237,735.098 803.908,735.098 z" id="boundary" inkscape:connector-curvature="0" />
	<path style="fill:none;stroke:red;stroke-width:1px;stroke-linecap:butt;stroke-linejoin:miter;stroke-opacity:1" d="M 801.04,907.121 823.977,881.318 z" id="boundary" inkscape:connector-curvature="0" />
	<path style="fill:none;stroke:red;stroke-width:1px;stroke-linecap:butt;stroke-linejoin:miter;stroke-opacity:1" d="M 803.908,735.098 829.711,720.763 z" id="boundary" inkscape:connector-curvature="0" />
	<path style="fill:none;stroke:red;stroke-width:1px;stroke-linecap:butt;stroke-linejoin:miter;stroke-opacity:1" d="M 823.977,881.318 849.78,866.983 z" id="boundary" inkscape:connector-curvature="0" />
	<path style="fill:none;stroke:red;stroke-width:1px;stroke-linecap:butt;stroke-linejoin:miter;stroke-opacity:1" d="M 829.711,720.763 858.382,720.763 z" id="boundary" inkscape:connector-curvature="0" />
	<path style="fill:none;stroke:red;stroke-width:1px;stroke-linecap:butt;stroke-linejoin:miter;stroke-opacity:1" d="M 849.78,866.983 866.983,838.312 z" id="boundary" inkscape:connector-curvature="0" />
	<path style="fill:none;stroke:red;stroke-width:1px;stroke-linecap:butt;stroke-linejoin:miter;stroke-opacity:1" d="M 858.382,720.763 878.451,743.699 z" id="boundary" inkscape:connector-curvature="0" />
	<path style="fill:none;stroke:red;stroke-width:1px;stroke-linecap:butt;stroke-linejoin:miter;stroke-opacity:1" d="M 866.983,838.312 889.919,818.243 z" id="boundary" inkscape:connector-curvature="0" />
	<path style="fill:none;stroke:red;stroke-width:1px;stroke-linecap:butt;stroke-linejoin:miter;stroke-opacity:1" d="M 878.451,743.699 895.653,766.636 z" id="boundary" inkscape:connector-curvature="0" />
	<path style="fill:none;stroke:red;stroke-width:1px;stroke-linecap:butt;stroke-linejoin:miter;stroke-opacity:1" d="M 889.919,818.243 895.653,766.636 z" id="boundary" inkscape:connector-curvature="0" />
	<circle cx="4" cy="55.6069" r="4" fill="#0" id="circle0"/>
	<circle cx="4" cy="84.2775" r="4" fill="#0" id="circle1"/>
	<circle cx="18.3353" cy="26.9364" r="4" fill="#0" id="circle2"/>
	<circle cx="26.9364" cy="104.347" r="4" fill="#0" id="circle3"/>
	<circle cx="41.2717" cy="4" r="4" fill="#0" id="circle4"/>
	<circle cx="47.0058" cy="127.283" r="4" fill="#0" id="circle5"/>
	<circle cx="69.9422" cy="4" r="4" fill="#0" id="circle6"/>
	<circle cx="69.9422" cy="147.353" r="4" fill="#0" id="circle7"/>
	<circle cx="90.0116" cy="170.289" r="4" fill="#0" id="circle8"/>
	<circle cx="98.6127" cy="4" r="4" fill="#0" id="circle9"/>
	<circle cx="107.214" cy="193.225" r="4" fill="#0" id="circle10"/>
	<circle cx="124.416" cy="216.162" r="4" fill="#0" id="circle11"/>
	<circle cx="127.283" cy="4" r="4" fill="#0" id="circle12"/>
	<circle cx="147.353" cy="236.231" r="4" fill="#0" id="circle13"/>
	<circle cx="150.22" cy="21.2023" r="4" fill="#0" id="circle14"/>
	<circle cx="155.954" cy="49.8728" r="4" fill="#0" id="circle15"/>
	<circle cx="164.555" cy="259.168" r="4" fill="#0" id="circle16"/>
	<circle cx="178.89" cy="69.9422" r="4" fill="#0" id="circle17"/>
	<circle cx="187.491" cy="279.237" r="4" fill="#0" id="circle18"/>
	<circle cx="198.96" cy="92.8786" r="4" fill="#0" id="circle19"/>
	<circle cx="207.561" cy="302.173" r="4" fill="#0" id="circle20"/>
	<circle cx="213.295" cy="118.682" r="4" fill="#0" id="circle21"/>
	<circle cx="230.497" cy="322.243" r="4" fill="#0" id="circle22"/>
	<circle cx="233.364" cy="141.618" r="4" fill="#0" id="circle23"/>
	<circle cx="247.699" cy="345.179" r="4" fill="#0" id="circle24"/>
	<circle cx="250.566" cy="373.85" r="4" fill="#0" id="circle25"/>
	<circle cx="256.301" cy="161.688" r="4" fill="#0" id="circle26"/>
	<circle cx="264.902" cy="190.358" r="4" fill="#0" id="circle27"/>
	<circle cx="273.503" cy="393.919" r="4" fill="#0" id="circle28"/>
	<circle cx="293.572" cy="198.96" r="4" fill="#0" id="circle29"/>
	<circle cx="299.306" cy="408.254" r="4" fill="#0" id="circle30"/>
	<circle cx="305.04" cy="227.63" r="4" fill="#0" id="circle31"/>
	<circle cx="322.243" cy="428.324" r="4" fill="#0" id="circle32"/>
	<circle cx="327.977" cy="247.699" r="4" fill="#0" id="circle33"/>
	<circle cx="342.312" cy="451.26" r="4" fill="#0" id="circle34"/>
	<circle cx="348.046" cy="270.636" r="4" fill="#0" id="circle35"/>
	<circle cx="365.249" cy="293.572" r="4" fill="#0" id="circle36"/>
	<circle cx="365.249" cy="471.329" r="4" fill="#0" id="circle37"/>
	<circle cx="376.717" cy="500" r="4" fill="#0" id="circle38"/>
	<circle cx="379.584" cy="319.376" r="4" fill="#0" id="circle39"/>
	<circle cx="399.653" cy="520.069" r="4" fill="#0" id="circle40"/>
	<circle cx="402.52" cy="336.578" r="4" fill="#0" id="circle41"/>
	<circle cx="411.121" cy="548.74" r="4" fill="#0" id="circle42"/>
	<circle cx="422.59" cy="359.514" r="4" fill="#0" id="circle43"/>
	<circle cx="422.59" cy="388.185" r="4" fill="#0" id="circle44"/>
	<circle cx="434.058" cy="565.942" r="4" fill="#0" id="circle45"/>
	<circle cx="442.659" cy="594.613" r="4" fill="#0" id="circle46"/>
	<circle cx="445.526" cy="405.387" r="4" fill="#0" id="circle47"/>
	<circle cx="471.329" cy="419.723" r="4" fill="#0" id="circle48"/>
	<circle cx="471.329" cy="606.081" r="4" fill="#0" id="circle49"/>
	<circle cx="479.931" cy="448.393" r="4" fill="#0" id="circle50"/>
	<circle cx="491.399" cy="629.017" r="4" fill="#0" id="circle51"/>
	<circle cx="502.867" cy="465.595" r="4" fill="#0" id="circle52"/>
	<circle cx="505.734" cy="654.821" r="4" fill="#0" id="circle53"/>
	<circle cx="514.335" cy="494.266" r="4" fill="#0" id="circle54"/>
	<circle cx="525.803" cy="677.757" r="4" fill="#0" id="circle55"/>
	<circle cx="534.405" cy="706.428" r="4" fill="#0" id="circle56"/>
	<circle cx="537.272" cy="514.335" r="4" fill="#0" id="circle57"/>
	<circle cx="537.272" cy="543.006" r="4" fill="#0" id="circle58"/>
	<circle cx="548.74" cy="901.387" r="4" fill="#0" id="circle59"/>
	<circle cx="548.74" cy="930.058" r="4" fill="#0" id="circle60"/>
	<circle cx="548.74" cy="958.728" r="4" fill="#0" id="circle61"/>
	<circle cx="551.607" cy="729.364" r="4" fill="#0" id="circle62"/>
	<circle cx="557.341" cy="565.942" r="4" fill="#0" id="circle63"/>
	<circle cx="563.075" cy="758.035" r="4" fill="#0" id="circle64"/>
	<circle cx="563.075" cy="984.532" r="4" fill="#0" id="circle65"/>
	<circle cx="571.676" cy="591.746" r="4" fill="#0" id="circle66"/>
	<circle cx="577.41" cy="887.052" r="4" fill="#0" id="circle67"/>
	<circle cx="586.012" cy="778.104" r="4" fill="#0" id="circle68"/>
	<circle cx="591.746" cy="614.682" r="4" fill="#0" id="circle69"/>
	<circle cx="591.746" cy="996" r="4" fill="#0" id="circle70"/>
	<circle cx="597.48" cy="806.775" r="4" fill="#0" id="circle71"/>
	<circle cx="606.081" cy="640.486" r="4" fill="#0" id="circle72"/>
	<circle cx="606.081" cy="878.451" r="4" fill="#0" id="circle73"/>
	<circle cx="620.416" cy="823.977" r="4" fill="#0" id="circle74"/>
	<circle cx="620.416" cy="996" r="4" fill="#0" id="circle75"/>
	<circle cx="631.884" cy="654.821" r="4" fill="#0" id="circle76"/>
	<circle cx="634.751" cy="849.78" r="4" fill="#0" id="circle77"/>
	<circle cx="634.751" cy="878.451" r="4" fill="#0" id="circle78"/>
	<circle cx="643.353" cy="978.798" r="4" fill="#0" id="circle79"/>
	<circle cx="651.954" cy="677.757" r="4" fill="#0" id="circle80"/>
	<circle cx="666.289" cy="703.561" r="4" fill="#0" id="circle81"/>
	<circle cx="666.289" cy="952.994" r="4" fill="#0" id="circle82"/>
	<circle cx="680.624" cy="729.364" r="4" fill="#0" id="circle83"/>
	<circle cx="694.96" cy="755.168" r="4" fill="#0" id="circle84"/>
	<circle cx="694.96" cy="952.994" r="4" fill="#0" id="circle85"/>
	<circle cx="723.63" cy="758.035" r="4" fill="#0" id="circle86"/>
	<circle cx="723.63" cy="952.994" r="4" fill="#0" id="circle87"/>
	<circle cx="749.434" cy="938.659" r="4" fill="#0" id="circle88"/>
	<circle cx="752.301" cy="755.168" r="4" fill="#0" id="circle89"/>
	<circle cx="772.37" cy="921.457" r="4" fill="#0" id="circle90"/>
	<circle cx="775.237" cy="735.098" r="4" fill="#0" id="circle91"/>
	<circle cx="801.04" cy="907.121" r="4" fill="#0" id="circle92"/>
	<circle cx="803.908" cy="735.098" r="4" fill="#0" id="circle93"/>
	<circle cx="823.977" cy="881.318" r="4" fill="#0" id="circle94"/>
	<circle cx="829.711" cy="720.763" r="4" fill="#0" id="circle95"/>
	<circle cx="849.78" cy="866.983" r="4" fill="#0" id="circle96"/>
	<circle cx="858.382" cy="720.763" r="4" fill="#0" id="circle97"/>
	<circle cx="866.983" cy="838.312" r="4" fill="#0" id="circle98"/>
	<circle cx="878.451" cy="743.699" r="4" fill="#0" id="circle99"/>
	<circle cx="889.919" cy="818.243" r="4" fill="#0" id="circle100"/>
	<circle cx="895.653" cy="766.636" r="4" fill="#0" id="circle101"/>
	</g>
</svg>