<?xml version="1.0" encoding="UTF-8" standalone="no"?>
<!-- Created with CurveBenchmark -->
<svg
	xmlns:dc="http://purl.org/dc/elements/1.1/"
	xmlns:cc="http://creativecommons.org/ns#"
	xmlns:rdf="http://www.w3.org/1999/02/22-rdf-syntax-ns#"
	xmlns:svg="http://www.w3.org/2000/svg"
	xmlns="http://www.w3.org/2000/svg"
	xmlns:sodipodi="http://sodipodi.sourceforge.net/DTD/sodipodi-0.dtd"
	xmlns:inkscape="http://www.inkscape.org/namespaces/inkscape"
	width="1000"
	height="1000"
	id="svg2"
	version="1.1"
	sodipodi:docname="manifold/vicur-flatfish23.png.txt">
<defs
	id="defs4" />
<metadata
	id="metadata7">
	<rdf:RDF>
		<cc:Work
			rdf:about="">
			<dc:format>image/svg+xml</dc:format>
			<dc:type
				rdf:resource="http://purl.org/dc/dcmitype/StillImage" />
			<dc:title></dc:title>
		</cc:Work>
	</rdf:RDF>
</metadata>
<g
	inkscape:label="Layer 1"
	inkscape:groupmode="layer"
	id="layer1">
	<path style="fill:none;stroke:red;stroke-width:1px;stroke-linecap:butt;stroke-linejoin:miter;stroke-opacity:1" d="M 4,244.288 4,260.524 z" id="boundary" inkscape:connector-curvature="0" />
	<path style="fill:none;stroke:red;stroke-width:1px;stroke-linecap:butt;stroke-linejoin:miter;stroke-opacity:1" d="M 4,244.288 12.1178,228.052 z" id="boundary" inkscape:connector-curvature="0" />
	<path style="fill:none;stroke:red;stroke-width:1px;stroke-linecap:butt;stroke-linejoin:miter;stroke-opacity:1" d="M 4,260.524 4,276.759 z" id="boundary" inkscape:connector-curvature="0" />
	<path style="fill:none;stroke:red;stroke-width:1px;stroke-linecap:butt;stroke-linejoin:miter;stroke-opacity:1" d="M 4,276.759 4,292.995 z" id="boundary" inkscape:connector-curvature="0" />
	<path style="fill:none;stroke:red;stroke-width:1px;stroke-linecap:butt;stroke-linejoin:miter;stroke-opacity:1" d="M 4,292.995 12.1178,307.607 z" id="boundary" inkscape:connector-curvature="0" />
	<path style="fill:none;stroke:red;stroke-width:1px;stroke-linecap:butt;stroke-linejoin:miter;stroke-opacity:1" d="M 12.1178,228.052 20.2357,211.817 z" id="boundary" inkscape:connector-curvature="0" />
	<path style="fill:none;stroke:red;stroke-width:1px;stroke-linecap:butt;stroke-linejoin:miter;stroke-opacity:1" d="M 12.1178,307.607 20.2357,322.219 z" id="boundary" inkscape:connector-curvature="0" />
	<path style="fill:none;stroke:red;stroke-width:1px;stroke-linecap:butt;stroke-linejoin:miter;stroke-opacity:1" d="M 20.2357,211.817 33.2242,198.828 z" id="boundary" inkscape:connector-curvature="0" />
	<path style="fill:none;stroke:red;stroke-width:1px;stroke-linecap:butt;stroke-linejoin:miter;stroke-opacity:1" d="M 20.2357,322.219 34.8478,330.337 z" id="boundary" inkscape:connector-curvature="0" />
	<path style="fill:none;stroke:red;stroke-width:1px;stroke-linecap:butt;stroke-linejoin:miter;stroke-opacity:1" d="M 33.2242,198.828 44.5892,179.345 z" id="boundary" inkscape:connector-curvature="0" />
	<path style="fill:none;stroke:red;stroke-width:1px;stroke-linecap:butt;stroke-linejoin:miter;stroke-opacity:1" d="M 34.8478,330.337 46.2128,343.326 z" id="boundary" inkscape:connector-curvature="0" />
	<path style="fill:none;stroke:red;stroke-width:1px;stroke-linecap:butt;stroke-linejoin:miter;stroke-opacity:1" d="M 44.5892,179.345 60.8249,171.227 z" id="boundary" inkscape:connector-curvature="0" />
	<path style="fill:none;stroke:red;stroke-width:1px;stroke-linecap:butt;stroke-linejoin:miter;stroke-opacity:1" d="M 46.2128,343.326 62.4484,346.573 z" id="boundary" inkscape:connector-curvature="0" />
	<path style="fill:none;stroke:red;stroke-width:1px;stroke-linecap:butt;stroke-linejoin:miter;stroke-opacity:1" d="M 60.8249,171.227 73.8134,158.239 z" id="boundary" inkscape:connector-curvature="0" />
	<path style="fill:none;stroke:red;stroke-width:1px;stroke-linecap:butt;stroke-linejoin:miter;stroke-opacity:1" d="M 62.4484,346.573 77.0606,354.691 z" id="boundary" inkscape:connector-curvature="0" />
	<path style="fill:none;stroke:red;stroke-width:1px;stroke-linecap:butt;stroke-linejoin:miter;stroke-opacity:1" d="M 73.8134,158.239 85.1784,138.756 z" id="boundary" inkscape:connector-curvature="0" />
	<path style="fill:none;stroke:red;stroke-width:1px;stroke-linecap:butt;stroke-linejoin:miter;stroke-opacity:1" d="M 77.0606,354.691 86.802,367.679 z" id="boundary" inkscape:connector-curvature="0" />
	<path style="fill:none;stroke:red;stroke-width:1px;stroke-linecap:butt;stroke-linejoin:miter;stroke-opacity:1" d="M 85.1784,138.756 98.1669,125.768 z" id="boundary" inkscape:connector-curvature="0" />
	<path style="fill:none;stroke:red;stroke-width:1px;stroke-linecap:butt;stroke-linejoin:miter;stroke-opacity:1" d="M 86.802,367.679 101.414,375.797 z" id="boundary" inkscape:connector-curvature="0" />
	<path style="fill:none;stroke:red;stroke-width:1px;stroke-linecap:butt;stroke-linejoin:miter;stroke-opacity:1" d="M 98.1669,125.768 111.155,112.779 z" id="boundary" inkscape:connector-curvature="0" />
	<path style="fill:none;stroke:red;stroke-width:1px;stroke-linecap:butt;stroke-linejoin:miter;stroke-opacity:1" d="M 101.414,375.797 114.403,387.162 z" id="boundary" inkscape:connector-curvature="0" />
	<path style="fill:none;stroke:red;stroke-width:1px;stroke-linecap:butt;stroke-linejoin:miter;stroke-opacity:1" d="M 111.155,112.779 124.144,101.414 z" id="boundary" inkscape:connector-curvature="0" />
	<path style="fill:none;stroke:red;stroke-width:1px;stroke-linecap:butt;stroke-linejoin:miter;stroke-opacity:1" d="M 114.403,387.162 129.015,395.28 z" id="boundary" inkscape:connector-curvature="0" />
	<path style="fill:none;stroke:red;stroke-width:1px;stroke-linecap:butt;stroke-linejoin:miter;stroke-opacity:1" d="M 124.144,101.414 138.756,93.2962 z" id="boundary" inkscape:connector-curvature="0" />
	<path style="fill:none;stroke:red;stroke-width:1px;stroke-linecap:butt;stroke-linejoin:miter;stroke-opacity:1" d="M 129.015,395.28 143.627,403.398 z" id="boundary" inkscape:connector-curvature="0" />
	<path style="fill:none;stroke:red;stroke-width:1px;stroke-linecap:butt;stroke-linejoin:miter;stroke-opacity:1" d="M 138.756,93.2962 153.368,85.1784 z" id="boundary" inkscape:connector-curvature="0" />
	<path style="fill:none;stroke:red;stroke-width:1px;stroke-linecap:butt;stroke-linejoin:miter;stroke-opacity:1" d="M 143.627,403.398 158.239,411.516 z" id="boundary" inkscape:connector-curvature="0" />
	<path style="fill:none;stroke:red;stroke-width:1px;stroke-linecap:butt;stroke-linejoin:miter;stroke-opacity:1" d="M 153.368,85.1784 169.604,78.6841 z" id="boundary" inkscape:connector-curvature="0" />
	<path style="fill:none;stroke:red;stroke-width:1px;stroke-linecap:butt;stroke-linejoin:miter;stroke-opacity:1" d="M 158.239,411.516 172.851,419.633 z" id="boundary" inkscape:connector-curvature="0" />
	<path style="fill:none;stroke:red;stroke-width:1px;stroke-linecap:butt;stroke-linejoin:miter;stroke-opacity:1" d="M 169.604,78.6841 182.592,68.9427 z" id="boundary" inkscape:connector-curvature="0" />
	<path style="fill:none;stroke:red;stroke-width:1px;stroke-linecap:butt;stroke-linejoin:miter;stroke-opacity:1" d="M 172.851,419.633 187.463,427.751 z" id="boundary" inkscape:connector-curvature="0" />
	<path style="fill:none;stroke:red;stroke-width:1px;stroke-linecap:butt;stroke-linejoin:miter;stroke-opacity:1" d="M 182.592,68.9427 197.205,60.8249 z" id="boundary" inkscape:connector-curvature="0" />
	<path style="fill:none;stroke:red;stroke-width:1px;stroke-linecap:butt;stroke-linejoin:miter;stroke-opacity:1" d="M 187.463,427.751 203.699,427.751 z" id="boundary" inkscape:connector-curvature="0" />
	<path style="fill:none;stroke:red;stroke-width:1px;stroke-linecap:butt;stroke-linejoin:miter;stroke-opacity:1" d="M 197.205,60.8249 211.817,52.707 z" id="boundary" inkscape:connector-curvature="0" />
	<path style="fill:none;stroke:red;stroke-width:1px;stroke-linecap:butt;stroke-linejoin:miter;stroke-opacity:1" d="M 203.699,427.751 219.935,434.245 z" id="boundary" inkscape:connector-curvature="0" />
	<path style="fill:none;stroke:red;stroke-width:1px;stroke-linecap:butt;stroke-linejoin:miter;stroke-opacity:1" d="M 211.817,52.707 224.805,39.7185 z" id="boundary" inkscape:connector-curvature="0" />
	<path style="fill:none;stroke:red;stroke-width:1px;stroke-linecap:butt;stroke-linejoin:miter;stroke-opacity:1" d="M 219.935,434.245 234.547,442.363 z" id="boundary" inkscape:connector-curvature="0" />
	<path style="fill:none;stroke:red;stroke-width:1px;stroke-linecap:butt;stroke-linejoin:miter;stroke-opacity:1" d="M 224.805,39.7185 241.041,31.6007 z" id="boundary" inkscape:connector-curvature="0" />
	<path style="fill:none;stroke:red;stroke-width:1px;stroke-linecap:butt;stroke-linejoin:miter;stroke-opacity:1" d="M 234.547,442.363 247.535,452.105 z" id="boundary" inkscape:connector-curvature="0" />
	<path style="fill:none;stroke:red;stroke-width:1px;stroke-linecap:butt;stroke-linejoin:miter;stroke-opacity:1" d="M 241.041,31.6007 254.029,20.2357 z" id="boundary" inkscape:connector-curvature="0" />
	<path style="fill:none;stroke:red;stroke-width:1px;stroke-linecap:butt;stroke-linejoin:miter;stroke-opacity:1" d="M 247.535,452.105 257.277,465.093 z" id="boundary" inkscape:connector-curvature="0" />
	<path style="fill:none;stroke:red;stroke-width:1px;stroke-linecap:butt;stroke-linejoin:miter;stroke-opacity:1" d="M 254.029,20.2357 268.642,12.1178 z" id="boundary" inkscape:connector-curvature="0" />
	<path style="fill:none;stroke:red;stroke-width:1px;stroke-linecap:butt;stroke-linejoin:miter;stroke-opacity:1" d="M 257.277,465.093 265.394,479.705 z" id="boundary" inkscape:connector-curvature="0" />
	<path style="fill:none;stroke:red;stroke-width:1px;stroke-linecap:butt;stroke-linejoin:miter;stroke-opacity:1" d="M 265.394,479.705 276.759,492.694 z" id="boundary" inkscape:connector-curvature="0" />
	<path style="fill:none;stroke:red;stroke-width:1px;stroke-linecap:butt;stroke-linejoin:miter;stroke-opacity:1" d="M 268.642,12.1178 284.877,12.1178 z" id="boundary" inkscape:connector-curvature="0" />
	<path style="fill:none;stroke:red;stroke-width:1px;stroke-linecap:butt;stroke-linejoin:miter;stroke-opacity:1" d="M 276.759,492.694 289.748,504.059 z" id="boundary" inkscape:connector-curvature="0" />
	<path style="fill:none;stroke:red;stroke-width:1px;stroke-linecap:butt;stroke-linejoin:miter;stroke-opacity:1" d="M 284.877,12.1178 301.113,12.1178 z" id="boundary" inkscape:connector-curvature="0" />
	<path style="fill:none;stroke:red;stroke-width:1px;stroke-linecap:butt;stroke-linejoin:miter;stroke-opacity:1" d="M 289.748,504.059 296.242,520.295 z" id="boundary" inkscape:connector-curvature="0" />
	<path style="fill:none;stroke:red;stroke-width:1px;stroke-linecap:butt;stroke-linejoin:miter;stroke-opacity:1" d="M 296.242,520.295 304.36,534.907 z" id="boundary" inkscape:connector-curvature="0" />
	<path style="fill:none;stroke:red;stroke-width:1px;stroke-linecap:butt;stroke-linejoin:miter;stroke-opacity:1" d="M 301.113,12.1178 317.349,4 z" id="boundary" inkscape:connector-curvature="0" />
	<path style="fill:none;stroke:red;stroke-width:1px;stroke-linecap:butt;stroke-linejoin:miter;stroke-opacity:1" d="M 304.36,534.907 320.596,533.283 z" id="boundary" inkscape:connector-curvature="0" />
	<path style="fill:none;stroke:red;stroke-width:1px;stroke-linecap:butt;stroke-linejoin:miter;stroke-opacity:1" d="M 317.349,4 333.584,4 z" id="boundary" inkscape:connector-curvature="0" />
	<path style="fill:none;stroke:red;stroke-width:1px;stroke-linecap:butt;stroke-linejoin:miter;stroke-opacity:1" d="M 320.596,533.283 330.337,515.424 z" id="boundary" inkscape:connector-curvature="0" />
	<path style="fill:none;stroke:red;stroke-width:1px;stroke-linecap:butt;stroke-linejoin:miter;stroke-opacity:1" d="M 322.219,435.869 322.219,452.105 z" id="boundary" inkscape:connector-curvature="0" />
	<path style="fill:none;stroke:red;stroke-width:1px;stroke-linecap:butt;stroke-linejoin:miter;stroke-opacity:1" d="M 322.219,435.869 338.455,439.116 z" id="boundary" inkscape:connector-curvature="0" />
	<path style="fill:none;stroke:red;stroke-width:1px;stroke-linecap:butt;stroke-linejoin:miter;stroke-opacity:1" d="M 322.219,452.105 322.219,468.34 z" id="boundary" inkscape:connector-curvature="0" />
	<path style="fill:none;stroke:red;stroke-width:1px;stroke-linecap:butt;stroke-linejoin:miter;stroke-opacity:1" d="M 322.219,468.34 322.219,484.576 z" id="boundary" inkscape:connector-curvature="0" />
	<path style="fill:none;stroke:red;stroke-width:1px;stroke-linecap:butt;stroke-linejoin:miter;stroke-opacity:1" d="M 322.219,484.576 330.337,499.188 z" id="boundary" inkscape:connector-curvature="0" />
	<path style="fill:none;stroke:red;stroke-width:1px;stroke-linecap:butt;stroke-linejoin:miter;stroke-opacity:1" d="M 330.337,499.188 330.337,515.424 z" id="boundary" inkscape:connector-curvature="0" />
	<path style="fill:none;stroke:red;stroke-width:1px;stroke-linecap:butt;stroke-linejoin:miter;stroke-opacity:1" d="M 333.584,4 349.82,4 z" id="boundary" inkscape:connector-curvature="0" />
	<path style="fill:none;stroke:red;stroke-width:1px;stroke-linecap:butt;stroke-linejoin:miter;stroke-opacity:1" d="M 338.455,439.116 353.067,447.234 z" id="boundary" inkscape:connector-curvature="0" />
	<path style="fill:none;stroke:red;stroke-width:1px;stroke-linecap:butt;stroke-linejoin:miter;stroke-opacity:1" d="M 349.82,4 366.056,4 z" id="boundary" inkscape:connector-curvature="0" />
	<path style="fill:none;stroke:red;stroke-width:1px;stroke-linecap:butt;stroke-linejoin:miter;stroke-opacity:1" d="M 353.067,447.234 366.056,458.599 z" id="boundary" inkscape:connector-curvature="0" />
	<path style="fill:none;stroke:red;stroke-width:1px;stroke-linecap:butt;stroke-linejoin:miter;stroke-opacity:1" d="M 366.056,4 382.291,4 z" id="boundary" inkscape:connector-curvature="0" />
	<path style="fill:none;stroke:red;stroke-width:1px;stroke-linecap:butt;stroke-linejoin:miter;stroke-opacity:1" d="M 366.056,458.599 380.668,466.717 z" id="boundary" inkscape:connector-curvature="0" />
	<path style="fill:none;stroke:red;stroke-width:1px;stroke-linecap:butt;stroke-linejoin:miter;stroke-opacity:1" d="M 380.668,466.717 393.656,476.458 z" id="boundary" inkscape:connector-curvature="0" />
	<path style="fill:none;stroke:red;stroke-width:1px;stroke-linecap:butt;stroke-linejoin:miter;stroke-opacity:1" d="M 382.291,4 398.527,4 z" id="boundary" inkscape:connector-curvature="0" />
	<path style="fill:none;stroke:red;stroke-width:1px;stroke-linecap:butt;stroke-linejoin:miter;stroke-opacity:1" d="M 393.656,476.458 409.892,479.705 z" id="boundary" inkscape:connector-curvature="0" />
	<path style="fill:none;stroke:red;stroke-width:1px;stroke-linecap:butt;stroke-linejoin:miter;stroke-opacity:1" d="M 398.527,4 413.139,12.1178 z" id="boundary" inkscape:connector-curvature="0" />
	<path style="fill:none;stroke:red;stroke-width:1px;stroke-linecap:butt;stroke-linejoin:miter;stroke-opacity:1" d="M 409.892,479.705 426.128,476.458 z" id="boundary" inkscape:connector-curvature="0" />
	<path style="fill:none;stroke:red;stroke-width:1px;stroke-linecap:butt;stroke-linejoin:miter;stroke-opacity:1" d="M 413.139,12.1178 429.375,12.1178 z" id="boundary" inkscape:connector-curvature="0" />
	<path style="fill:none;stroke:red;stroke-width:1px;stroke-linecap:butt;stroke-linejoin:miter;stroke-opacity:1" d="M 426.128,476.458 442.363,476.458 z" id="boundary" inkscape:connector-curvature="0" />
	<path style="fill:none;stroke:red;stroke-width:1px;stroke-linecap:butt;stroke-linejoin:miter;stroke-opacity:1" d="M 429.375,12.1178 445.61,12.1178 z" id="boundary" inkscape:connector-curvature="0" />
	<path style="fill:none;stroke:red;stroke-width:1px;stroke-linecap:butt;stroke-linejoin:miter;stroke-opacity:1" d="M 442.363,476.458 458.599,476.458 z" id="boundary" inkscape:connector-curvature="0" />
	<path style="fill:none;stroke:red;stroke-width:1px;stroke-linecap:butt;stroke-linejoin:miter;stroke-opacity:1" d="M 445.61,12.1178 461.846,12.1178 z" id="boundary" inkscape:connector-curvature="0" />
	<path style="fill:none;stroke:red;stroke-width:1px;stroke-linecap:butt;stroke-linejoin:miter;stroke-opacity:1" d="M 458.599,476.458 473.211,484.576 z" id="boundary" inkscape:connector-curvature="0" />
	<path style="fill:none;stroke:red;stroke-width:1px;stroke-linecap:butt;stroke-linejoin:miter;stroke-opacity:1" d="M 461.846,12.1178 476.458,20.2357 z" id="boundary" inkscape:connector-curvature="0" />
	<path style="fill:none;stroke:red;stroke-width:1px;stroke-linecap:butt;stroke-linejoin:miter;stroke-opacity:1" d="M 473.211,484.576 489.447,484.576 z" id="boundary" inkscape:connector-curvature="0" />
	<path style="fill:none;stroke:red;stroke-width:1px;stroke-linecap:butt;stroke-linejoin:miter;stroke-opacity:1" d="M 476.458,20.2357 491.07,28.3535 z" id="boundary" inkscape:connector-curvature="0" />
	<path style="fill:none;stroke:red;stroke-width:1px;stroke-linecap:butt;stroke-linejoin:miter;stroke-opacity:1" d="M 489.447,484.576 505.682,484.576 z" id="boundary" inkscape:connector-curvature="0" />
	<path style="fill:none;stroke:red;stroke-width:1px;stroke-linecap:butt;stroke-linejoin:miter;stroke-opacity:1" d="M 491.07,28.3535 507.306,23.4828 z" id="boundary" inkscape:connector-curvature="0" />
	<path style="fill:none;stroke:red;stroke-width:1px;stroke-linecap:butt;stroke-linejoin:miter;stroke-opacity:1" d="M 505.682,484.576 521.918,481.329 z" id="boundary" inkscape:connector-curvature="0" />
	<path style="fill:none;stroke:red;stroke-width:1px;stroke-linecap:butt;stroke-linejoin:miter;stroke-opacity:1" d="M 507.306,23.4828 523.542,28.3535 z" id="boundary" inkscape:connector-curvature="0" />
	<path style="fill:none;stroke:red;stroke-width:1px;stroke-linecap:butt;stroke-linejoin:miter;stroke-opacity:1" d="M 521.918,481.329 538.154,476.458 z" id="boundary" inkscape:connector-curvature="0" />
	<path style="fill:none;stroke:red;stroke-width:1px;stroke-linecap:butt;stroke-linejoin:miter;stroke-opacity:1" d="M 523.542,28.3535 539.777,31.6007 z" id="boundary" inkscape:connector-curvature="0" />
	<path style="fill:none;stroke:red;stroke-width:1px;stroke-linecap:butt;stroke-linejoin:miter;stroke-opacity:1" d="M 538.154,476.458 554.39,473.211 z" id="boundary" inkscape:connector-curvature="0" />
	<path style="fill:none;stroke:red;stroke-width:1px;stroke-linecap:butt;stroke-linejoin:miter;stroke-opacity:1" d="M 539.777,31.6007 556.013,36.4714 z" id="boundary" inkscape:connector-curvature="0" />
	<path style="fill:none;stroke:red;stroke-width:1px;stroke-linecap:butt;stroke-linejoin:miter;stroke-opacity:1" d="M 554.39,473.211 565.755,460.223 z" id="boundary" inkscape:connector-curvature="0" />
	<path style="fill:none;stroke:red;stroke-width:1px;stroke-linecap:butt;stroke-linejoin:miter;stroke-opacity:1" d="M 556.013,36.4714 572.249,39.7185 z" id="boundary" inkscape:connector-curvature="0" />
	<path style="fill:none;stroke:red;stroke-width:1px;stroke-linecap:butt;stroke-linejoin:miter;stroke-opacity:1" d="M 565.755,460.223 581.99,460.223 z" id="boundary" inkscape:connector-curvature="0" />
	<path style="fill:none;stroke:red;stroke-width:1px;stroke-linecap:butt;stroke-linejoin:miter;stroke-opacity:1" d="M 572.249,39.7185 586.861,47.8363 z" id="boundary" inkscape:connector-curvature="0" />
	<path style="fill:none;stroke:red;stroke-width:1px;stroke-linecap:butt;stroke-linejoin:miter;stroke-opacity:1" d="M 581.99,460.223 598.226,460.223 z" id="boundary" inkscape:connector-curvature="0" />
	<path style="fill:none;stroke:red;stroke-width:1px;stroke-linecap:butt;stroke-linejoin:miter;stroke-opacity:1" d="M 586.861,47.8363 596.602,60.8249 z" id="boundary" inkscape:connector-curvature="0" />
	<path style="fill:none;stroke:red;stroke-width:1px;stroke-linecap:butt;stroke-linejoin:miter;stroke-opacity:1" d="M 596.602,60.8249 612.838,64.072 z" id="boundary" inkscape:connector-curvature="0" />
	<path style="fill:none;stroke:red;stroke-width:1px;stroke-linecap:butt;stroke-linejoin:miter;stroke-opacity:1" d="M 598.226,460.223 611.214,448.858 z" id="boundary" inkscape:connector-curvature="0" />
	<path style="fill:none;stroke:red;stroke-width:1px;stroke-linecap:butt;stroke-linejoin:miter;stroke-opacity:1" d="M 611.214,448.858 627.45,443.987 z" id="boundary" inkscape:connector-curvature="0" />
	<path style="fill:none;stroke:red;stroke-width:1px;stroke-linecap:butt;stroke-linejoin:miter;stroke-opacity:1" d="M 612.838,64.072 622.579,77.0606 z" id="boundary" inkscape:connector-curvature="0" />
	<path style="fill:none;stroke:red;stroke-width:1px;stroke-linecap:butt;stroke-linejoin:miter;stroke-opacity:1" d="M 622.579,77.0606 638.815,81.9313 z" id="boundary" inkscape:connector-curvature="0" />
	<path style="fill:none;stroke:red;stroke-width:1px;stroke-linecap:butt;stroke-linejoin:miter;stroke-opacity:1" d="M 627.45,443.987 643.686,440.74 z" id="boundary" inkscape:connector-curvature="0" />
	<path style="fill:none;stroke:red;stroke-width:1px;stroke-linecap:butt;stroke-linejoin:miter;stroke-opacity:1" d="M 638.815,81.9313 653.427,90.0491 z" id="boundary" inkscape:connector-curvature="0" />
	<path style="fill:none;stroke:red;stroke-width:1px;stroke-linecap:butt;stroke-linejoin:miter;stroke-opacity:1" d="M 643.686,440.74 655.051,427.751 z" id="boundary" inkscape:connector-curvature="0" />
	<path style="fill:none;stroke:red;stroke-width:1px;stroke-linecap:butt;stroke-linejoin:miter;stroke-opacity:1" d="M 653.427,90.0491 666.416,101.414 z" id="boundary" inkscape:connector-curvature="0" />
	<path style="fill:none;stroke:red;stroke-width:1px;stroke-linecap:butt;stroke-linejoin:miter;stroke-opacity:1" d="M 655.051,427.751 671.286,419.633 z" id="boundary" inkscape:connector-curvature="0" />
	<path style="fill:none;stroke:red;stroke-width:1px;stroke-linecap:butt;stroke-linejoin:miter;stroke-opacity:1" d="M 666.416,101.414 677.781,114.403 z" id="boundary" inkscape:connector-curvature="0" />
	<path style="fill:none;stroke:red;stroke-width:1px;stroke-linecap:butt;stroke-linejoin:miter;stroke-opacity:1" d="M 671.286,419.633 685.899,411.516 z" id="boundary" inkscape:connector-curvature="0" />
	<path style="fill:none;stroke:red;stroke-width:1px;stroke-linecap:butt;stroke-linejoin:miter;stroke-opacity:1" d="M 677.781,114.403 690.769,125.768 z" id="boundary" inkscape:connector-curvature="0" />
	<path style="fill:none;stroke:red;stroke-width:1px;stroke-linecap:butt;stroke-linejoin:miter;stroke-opacity:1" d="M 685.899,411.516 702.134,406.645 z" id="boundary" inkscape:connector-curvature="0" />
	<path style="fill:none;stroke:red;stroke-width:1px;stroke-linecap:butt;stroke-linejoin:miter;stroke-opacity:1" d="M 690.769,125.768 703.758,135.509 z" id="boundary" inkscape:connector-curvature="0" />
	<path style="fill:none;stroke:red;stroke-width:1px;stroke-linecap:butt;stroke-linejoin:miter;stroke-opacity:1" d="M 702.134,406.645 715.123,395.28 z" id="boundary" inkscape:connector-curvature="0" />
	<path style="fill:none;stroke:red;stroke-width:1px;stroke-linecap:butt;stroke-linejoin:miter;stroke-opacity:1" d="M 703.758,135.509 711.876,150.121 z" id="boundary" inkscape:connector-curvature="0" />
	<path style="fill:none;stroke:red;stroke-width:1px;stroke-linecap:butt;stroke-linejoin:miter;stroke-opacity:1" d="M 711.876,150.121 724.864,159.863 z" id="boundary" inkscape:connector-curvature="0" />
	<path style="fill:none;stroke:red;stroke-width:1px;stroke-linecap:butt;stroke-linejoin:miter;stroke-opacity:1" d="M 715.123,395.28 728.111,379.044 z" id="boundary" inkscape:connector-curvature="0" />
	<path style="fill:none;stroke:red;stroke-width:1px;stroke-linecap:butt;stroke-linejoin:miter;stroke-opacity:1" d="M 724.864,159.863 739.476,167.98 z" id="boundary" inkscape:connector-curvature="0" />
	<path style="fill:none;stroke:red;stroke-width:1px;stroke-linecap:butt;stroke-linejoin:miter;stroke-opacity:1" d="M 728.111,379.044 741.1,367.679 z" id="boundary" inkscape:connector-curvature="0" />
	<path style="fill:none;stroke:red;stroke-width:1px;stroke-linecap:butt;stroke-linejoin:miter;stroke-opacity:1" d="M 739.476,167.98 747.594,182.592 z" id="boundary" inkscape:connector-curvature="0" />
	<path style="fill:none;stroke:red;stroke-width:1px;stroke-linecap:butt;stroke-linejoin:miter;stroke-opacity:1" d="M 741.1,367.679 752.465,354.691 z" id="boundary" inkscape:connector-curvature="0" />
	<path style="fill:none;stroke:red;stroke-width:1px;stroke-linecap:butt;stroke-linejoin:miter;stroke-opacity:1" d="M 747.594,182.592 758.959,195.581 z" id="boundary" inkscape:connector-curvature="0" />
	<path style="fill:none;stroke:red;stroke-width:1px;stroke-linecap:butt;stroke-linejoin:miter;stroke-opacity:1" d="M 752.465,354.691 767.077,346.573 z" id="boundary" inkscape:connector-curvature="0" />
	<path style="fill:none;stroke:red;stroke-width:1px;stroke-linecap:butt;stroke-linejoin:miter;stroke-opacity:1" d="M 758.959,195.581 775.195,202.075 z" id="boundary" inkscape:connector-curvature="0" />
	<path style="fill:none;stroke:red;stroke-width:1px;stroke-linecap:butt;stroke-linejoin:miter;stroke-opacity:1" d="M 767.077,346.573 780.065,336.831 z" id="boundary" inkscape:connector-curvature="0" />
	<path style="fill:none;stroke:red;stroke-width:1px;stroke-linecap:butt;stroke-linejoin:miter;stroke-opacity:1" d="M 775.195,202.075 791.43,206.946 z" id="boundary" inkscape:connector-curvature="0" />
	<path style="fill:none;stroke:red;stroke-width:1px;stroke-linecap:butt;stroke-linejoin:miter;stroke-opacity:1" d="M 780.065,336.831 793.054,322.219 z" id="boundary" inkscape:connector-curvature="0" />
	<path style="fill:none;stroke:red;stroke-width:1px;stroke-linecap:butt;stroke-linejoin:miter;stroke-opacity:1" d="M 791.43,206.946 806.043,215.064 z" id="boundary" inkscape:connector-curvature="0" />
	<path style="fill:none;stroke:red;stroke-width:1px;stroke-linecap:butt;stroke-linejoin:miter;stroke-opacity:1" d="M 793.054,322.219 809.29,322.219 z" id="boundary" inkscape:connector-curvature="0" />
	<path style="fill:none;stroke:red;stroke-width:1px;stroke-linecap:butt;stroke-linejoin:miter;stroke-opacity:1" d="M 806.043,215.064 817.408,202.075 z" id="boundary" inkscape:connector-curvature="0" />
	<path style="fill:none;stroke:red;stroke-width:1px;stroke-linecap:butt;stroke-linejoin:miter;stroke-opacity:1" d="M 809.29,322.219 825.525,322.219 z" id="boundary" inkscape:connector-curvature="0" />
	<path style="fill:none;stroke:red;stroke-width:1px;stroke-linecap:butt;stroke-linejoin:miter;stroke-opacity:1" d="M 817.408,202.075 833.643,198.828 z" id="boundary" inkscape:connector-curvature="0" />
	<path style="fill:none;stroke:red;stroke-width:1px;stroke-linecap:butt;stroke-linejoin:miter;stroke-opacity:1" d="M 825.525,322.219 840.137,330.337 z" id="boundary" inkscape:connector-curvature="0" />
	<path style="fill:none;stroke:red;stroke-width:1px;stroke-linecap:butt;stroke-linejoin:miter;stroke-opacity:1" d="M 833.643,198.828 848.255,187.463 z" id="boundary" inkscape:connector-curvature="0" />
	<path style="fill:none;stroke:red;stroke-width:1px;stroke-linecap:butt;stroke-linejoin:miter;stroke-opacity:1" d="M 840.137,330.337 849.879,343.326 z" id="boundary" inkscape:connector-curvature="0" />
	<path style="fill:none;stroke:red;stroke-width:1px;stroke-linecap:butt;stroke-linejoin:miter;stroke-opacity:1" d="M 848.255,187.463 861.244,174.475 z" id="boundary" inkscape:connector-curvature="0" />
	<path style="fill:none;stroke:red;stroke-width:1px;stroke-linecap:butt;stroke-linejoin:miter;stroke-opacity:1" d="M 849.879,343.326 866.115,349.82 z" id="boundary" inkscape:connector-curvature="0" />
	<path style="fill:none;stroke:red;stroke-width:1px;stroke-linecap:butt;stroke-linejoin:miter;stroke-opacity:1" d="M 861.244,174.475 874.232,161.486 z" id="boundary" inkscape:connector-curvature="0" />
	<path style="fill:none;stroke:red;stroke-width:1px;stroke-linecap:butt;stroke-linejoin:miter;stroke-opacity:1" d="M 866.115,349.82 880.727,357.938 z" id="boundary" inkscape:connector-curvature="0" />
	<path style="fill:none;stroke:red;stroke-width:1px;stroke-linecap:butt;stroke-linejoin:miter;stroke-opacity:1" d="M 874.232,161.486 887.221,150.121 z" id="boundary" inkscape:connector-curvature="0" />
	<path style="fill:none;stroke:red;stroke-width:1px;stroke-linecap:butt;stroke-linejoin:miter;stroke-opacity:1" d="M 880.727,357.938 893.715,369.303 z" id="boundary" inkscape:connector-curvature="0" />
	<path style="fill:none;stroke:red;stroke-width:1px;stroke-linecap:butt;stroke-linejoin:miter;stroke-opacity:1" d="M 887.221,150.121 898.586,137.133 z" id="boundary" inkscape:connector-curvature="0" />
	<path style="fill:none;stroke:red;stroke-width:1px;stroke-linecap:butt;stroke-linejoin:miter;stroke-opacity:1" d="M 893.715,369.303 908.327,377.421 z" id="boundary" inkscape:connector-curvature="0" />
	<path style="fill:none;stroke:red;stroke-width:1px;stroke-linecap:butt;stroke-linejoin:miter;stroke-opacity:1" d="M 898.586,137.133 914.822,133.885 z" id="boundary" inkscape:connector-curvature="0" />
	<path style="fill:none;stroke:red;stroke-width:1px;stroke-linecap:butt;stroke-linejoin:miter;stroke-opacity:1" d="M 908.327,377.421 921.316,387.162 z" id="boundary" inkscape:connector-curvature="0" />
	<path style="fill:none;stroke:red;stroke-width:1px;stroke-linecap:butt;stroke-linejoin:miter;stroke-opacity:1" d="M 914.822,133.885 929.434,125.768 z" id="boundary" inkscape:connector-curvature="0" />
	<path style="fill:none;stroke:red;stroke-width:1px;stroke-linecap:butt;stroke-linejoin:miter;stroke-opacity:1" d="M 921.316,387.162 937.552,387.162 z" id="boundary" inkscape:connector-curvature="0" />
	<path style="fill:none;stroke:red;stroke-width:1px;stroke-linecap:butt;stroke-linejoin:miter;stroke-opacity:1" d="M 929.434,125.768 944.046,117.65 z" id="boundary" inkscape:connector-curvature="0" />
	<path style="fill:none;stroke:red;stroke-width:1px;stroke-linecap:butt;stroke-linejoin:miter;stroke-opacity:1" d="M 937.552,387.162 947.293,400.151 z" id="boundary" inkscape:connector-curvature="0" />
	<path style="fill:none;stroke:red;stroke-width:1px;stroke-linecap:butt;stroke-linejoin:miter;stroke-opacity:1" d="M 944.046,117.65 958.658,109.532 z" id="boundary" inkscape:connector-curvature="0" />
	<path style="fill:none;stroke:red;stroke-width:1px;stroke-linecap:butt;stroke-linejoin:miter;stroke-opacity:1" d="M 947.293,400.151 963.529,403.398 z" id="boundary" inkscape:connector-curvature="0" />
	<path style="fill:none;stroke:red;stroke-width:1px;stroke-linecap:butt;stroke-linejoin:miter;stroke-opacity:1" d="M 958.658,109.532 974.894,101.414 z" id="boundary" inkscape:connector-curvature="0" />
	<path style="fill:none;stroke:red;stroke-width:1px;stroke-linecap:butt;stroke-linejoin:miter;stroke-opacity:1" d="M 963.529,167.98 963.529,184.216 z" id="boundary" inkscape:connector-curvature="0" />
	<path style="fill:none;stroke:red;stroke-width:1px;stroke-linecap:butt;stroke-linejoin:miter;stroke-opacity:1" d="M 963.529,167.98 971.646,151.745 z" id="boundary" inkscape:connector-curvature="0" />
	<path style="fill:none;stroke:red;stroke-width:1px;stroke-linecap:butt;stroke-linejoin:miter;stroke-opacity:1" d="M 963.529,184.216 963.529,200.452 z" id="boundary" inkscape:connector-curvature="0" />
	<path style="fill:none;stroke:red;stroke-width:1px;stroke-linecap:butt;stroke-linejoin:miter;stroke-opacity:1" d="M 963.529,200.452 966.776,216.687 z" id="boundary" inkscape:connector-curvature="0" />
	<path style="fill:none;stroke:red;stroke-width:1px;stroke-linecap:butt;stroke-linejoin:miter;stroke-opacity:1" d="M 963.529,403.398 979.764,403.398 z" id="boundary" inkscape:connector-curvature="0" />
	<path style="fill:none;stroke:red;stroke-width:1px;stroke-linecap:butt;stroke-linejoin:miter;stroke-opacity:1" d="M 966.776,216.687 979.764,228.052 z" id="boundary" inkscape:connector-curvature="0" />
	<path style="fill:none;stroke:red;stroke-width:1px;stroke-linecap:butt;stroke-linejoin:miter;stroke-opacity:1" d="M 971.646,151.745 984.635,140.38 z" id="boundary" inkscape:connector-curvature="0" />
	<path style="fill:none;stroke:red;stroke-width:1px;stroke-linecap:butt;stroke-linejoin:miter;stroke-opacity:1" d="M 974.894,101.414 991.129,101.414 z" id="boundary" inkscape:connector-curvature="0" />
	<path style="fill:none;stroke:red;stroke-width:1px;stroke-linecap:butt;stroke-linejoin:miter;stroke-opacity:1" d="M 979.764,228.052 979.764,244.288 z" id="boundary" inkscape:connector-curvature="0" />
	<path style="fill:none;stroke:red;stroke-width:1px;stroke-linecap:butt;stroke-linejoin:miter;stroke-opacity:1" d="M 979.764,244.288 979.764,260.524 z" id="boundary" inkscape:connector-curvature="0" />
	<path style="fill:none;stroke:red;stroke-width:1px;stroke-linecap:butt;stroke-linejoin:miter;stroke-opacity:1" d="M 979.764,260.524 979.764,276.759 z" id="boundary" inkscape:connector-curvature="0" />
	<path style="fill:none;stroke:red;stroke-width:1px;stroke-linecap:butt;stroke-linejoin:miter;stroke-opacity:1" d="M 979.764,276.759 979.764,292.995 z" id="boundary" inkscape:connector-curvature="0" />
	<path style="fill:none;stroke:red;stroke-width:1px;stroke-linecap:butt;stroke-linejoin:miter;stroke-opacity:1" d="M 979.764,292.995 979.764,309.231 z" id="boundary" inkscape:connector-curvature="0" />
	<path style="fill:none;stroke:red;stroke-width:1px;stroke-linecap:butt;stroke-linejoin:miter;stroke-opacity:1" d="M 979.764,309.231 979.764,325.466 z" id="boundary" inkscape:connector-curvature="0" />
	<path style="fill:none;stroke:red;stroke-width:1px;stroke-linecap:butt;stroke-linejoin:miter;stroke-opacity:1" d="M 979.764,325.466 979.764,341.702 z" id="boundary" inkscape:connector-curvature="0" />
	<path style="fill:none;stroke:red;stroke-width:1px;stroke-linecap:butt;stroke-linejoin:miter;stroke-opacity:1" d="M 979.764,341.702 979.764,357.938 z" id="boundary" inkscape:connector-curvature="0" />
	<path style="fill:none;stroke:red;stroke-width:1px;stroke-linecap:butt;stroke-linejoin:miter;stroke-opacity:1" d="M 979.764,357.938 979.764,374.173 z" id="boundary" inkscape:connector-curvature="0" />
	<path style="fill:none;stroke:red;stroke-width:1px;stroke-linecap:butt;stroke-linejoin:miter;stroke-opacity:1" d="M 979.764,374.173 991.129,387.162 z" id="boundary" inkscape:connector-curvature="0" />
	<path style="fill:none;stroke:red;stroke-width:1px;stroke-linecap:butt;stroke-linejoin:miter;stroke-opacity:1" d="M 979.764,403.398 996,403.398 z" id="boundary" inkscape:connector-curvature="0" />
	<path style="fill:none;stroke:red;stroke-width:1px;stroke-linecap:butt;stroke-linejoin:miter;stroke-opacity:1" d="M 984.635,140.38 996,127.391 z" id="boundary" inkscape:connector-curvature="0" />
	<path style="fill:none;stroke:red;stroke-width:1px;stroke-linecap:butt;stroke-linejoin:miter;stroke-opacity:1" d="M 991.129,101.414 996,127.391 z" id="boundary" inkscape:connector-curvature="0" />
	<path style="fill:none;stroke:red;stroke-width:1px;stroke-linecap:butt;stroke-linejoin:miter;stroke-opacity:1" d="M 991.129,387.162 996,403.398 z" id="boundary" inkscape:connector-curvature="0" />
	<circle cx="4" cy="244.288" r="4" fill="#0" id="circle0"/>
	<circle cx="4" cy="260.524" r="4" fill="#0" id="circle1"/>
	<circle cx="4" cy="276.759" r="4" fill="#0" id="circle2"/>
	<circle cx="4" cy="292.995" r="4" fill="#0" id="circle3"/>
	<circle cx="12.1178" cy="228.052" r="4" fill="#0" id="circle4"/>
	<circle cx="12.1178" cy="307.607" r="4" fill="#0" id="circle5"/>
	<circle cx="20.2357" cy="211.817" r="4" fill="#0" id="circle6"/>
	<circle cx="20.2357" cy="322.219" r="4" fill="#0" id="circle7"/>
	<circle cx="33.2242" cy="198.828" r="4" fill="#0" id="circle8"/>
	<circle cx="34.8478" cy="330.337" r="4" fill="#0" id="circle9"/>
	<circle cx="44.5892" cy="179.345" r="4" fill="#0" id="circle10"/>
	<circle cx="46.2128" cy="343.326" r="4" fill="#0" id="circle11"/>
	<circle cx="60.8249" cy="171.227" r="4" fill="#0" id="circle12"/>
	<circle cx="62.4484" cy="346.573" r="4" fill="#0" id="circle13"/>
	<circle cx="73.8134" cy="158.239" r="4" fill="#0" id="circle14"/>
	<circle cx="77.0606" cy="354.691" r="4" fill="#0" id="circle15"/>
	<circle cx="85.1784" cy="138.756" r="4" fill="#0" id="circle16"/>
	<circle cx="86.802" cy="367.679" r="4" fill="#0" id="circle17"/>
	<circle cx="98.1669" cy="125.768" r="4" fill="#0" id="circle18"/>
	<circle cx="101.414" cy="375.797" r="4" fill="#0" id="circle19"/>
	<circle cx="111.155" cy="112.779" r="4" fill="#0" id="circle20"/>
	<circle cx="114.403" cy="387.162" r="4" fill="#0" id="circle21"/>
	<circle cx="124.144" cy="101.414" r="4" fill="#0" id="circle22"/>
	<circle cx="129.015" cy="395.28" r="4" fill="#0" id="circle23"/>
	<circle cx="138.756" cy="93.2962" r="4" fill="#0" id="circle24"/>
	<circle cx="143.627" cy="403.398" r="4" fill="#0" id="circle25"/>
	<circle cx="153.368" cy="85.1784" r="4" fill="#0" id="circle26"/>
	<circle cx="158.239" cy="411.516" r="4" fill="#0" id="circle27"/>
	<circle cx="169.604" cy="78.6841" r="4" fill="#0" id="circle28"/>
	<circle cx="172.851" cy="419.633" r="4" fill="#0" id="circle29"/>
	<circle cx="182.592" cy="68.9427" r="4" fill="#0" id="circle30"/>
	<circle cx="187.463" cy="427.751" r="4" fill="#0" id="circle31"/>
	<circle cx="197.205" cy="60.8249" r="4" fill="#0" id="circle32"/>
	<circle cx="203.699" cy="427.751" r="4" fill="#0" id="circle33"/>
	<circle cx="211.817" cy="52.707" r="4" fill="#0" id="circle34"/>
	<circle cx="219.935" cy="434.245" r="4" fill="#0" id="circle35"/>
	<circle cx="224.805" cy="39.7185" r="4" fill="#0" id="circle36"/>
	<circle cx="234.547" cy="442.363" r="4" fill="#0" id="circle37"/>
	<circle cx="241.041" cy="31.6007" r="4" fill="#0" id="circle38"/>
	<circle cx="247.535" cy="452.105" r="4" fill="#0" id="circle39"/>
	<circle cx="254.029" cy="20.2357" r="4" fill="#0" id="circle40"/>
	<circle cx="257.277" cy="465.093" r="4" fill="#0" id="circle41"/>
	<circle cx="265.394" cy="479.705" r="4" fill="#0" id="circle42"/>
	<circle cx="268.642" cy="12.1178" r="4" fill="#0" id="circle43"/>
	<circle cx="276.759" cy="492.694" r="4" fill="#0" id="circle44"/>
	<circle cx="284.877" cy="12.1178" r="4" fill="#0" id="circle45"/>
	<circle cx="289.748" cy="504.059" r="4" fill="#0" id="circle46"/>
	<circle cx="296.242" cy="520.295" r="4" fill="#0" id="circle47"/>
	<circle cx="301.113" cy="12.1178" r="4" fill="#0" id="circle48"/>
	<circle cx="304.36" cy="534.907" r="4" fill="#0" id="circle49"/>
	<circle cx="317.349" cy="4" r="4" fill="#0" id="circle50"/>
	<circle cx="320.596" cy="533.283" r="4" fill="#0" id="circle51"/>
	<circle cx="322.219" cy="435.869" r="4" fill="#0" id="circle52"/>
	<circle cx="322.219" cy="452.105" r="4" fill="#0" id="circle53"/>
	<circle cx="322.219" cy="468.34" r="4" fill="#0" id="circle54"/>
	<circle cx="322.219" cy="484.576" r="4" fill="#0" id="circle55"/>
	<circle cx="330.337" cy="499.188" r="4" fill="#0" id="circle56"/>
	<circle cx="330.337" cy="515.424" r="4" fill="#0" id="circle57"/>
	<circle cx="333.584" cy="4" r="4" fill="#0" id="circle58"/>
	<circle cx="338.455" cy="439.116" r="4" fill="#0" id="circle59"/>
	<circle cx="349.82" cy="4" r="4" fill="#0" id="circle60"/>
	<circle cx="353.067" cy="447.234" r="4" fill="#0" id="circle61"/>
	<circle cx="366.056" cy="4" r="4" fill="#0" id="circle62"/>
	<circle cx="366.056" cy="458.599" r="4" fill="#0" id="circle63"/>
	<circle cx="380.668" cy="466.717" r="4" fill="#0" id="circle64"/>
	<circle cx="382.291" cy="4" r="4" fill="#0" id="circle65"/>
	<circle cx="393.656" cy="476.458" r="4" fill="#0" id="circle66"/>
	<circle cx="398.527" cy="4" r="4" fill="#0" id="circle67"/>
	<circle cx="409.892" cy="479.705" r="4" fill="#0" id="circle68"/>
	<circle cx="413.139" cy="12.1178" r="4" fill="#0" id="circle69"/>
	<circle cx="426.128" cy="476.458" r="4" fill="#0" id="circle70"/>
	<circle cx="429.375" cy="12.1178" r="4" fill="#0" id="circle71"/>
	<circle cx="442.363" cy="476.458" r="4" fill="#0" id="circle72"/>
	<circle cx="445.61" cy="12.1178" r="4" fill="#0" id="circle73"/>
	<circle cx="458.599" cy="476.458" r="4" fill="#0" id="circle74"/>
	<circle cx="461.846" cy="12.1178" r="4" fill="#0" id="circle75"/>
	<circle cx="473.211" cy="484.576" r="4" fill="#0" id="circle76"/>
	<circle cx="476.458" cy="20.2357" r="4" fill="#0" id="circle77"/>
	<circle cx="489.447" cy="484.576" r="4" fill="#0" id="circle78"/>
	<circle cx="491.07" cy="28.3535" r="4" fill="#0" id="circle79"/>
	<circle cx="505.682" cy="484.576" r="4" fill="#0" id="circle80"/>
	<circle cx="507.306" cy="23.4828" r="4" fill="#0" id="circle81"/>
	<circle cx="521.918" cy="481.329" r="4" fill="#0" id="circle82"/>
	<circle cx="523.542" cy="28.3535" r="4" fill="#0" id="circle83"/>
	<circle cx="538.154" cy="476.458" r="4" fill="#0" id="circle84"/>
	<circle cx="539.777" cy="31.6007" r="4" fill="#0" id="circle85"/>
	<circle cx="554.39" cy="473.211" r="4" fill="#0" id="circle86"/>
	<circle cx="556.013" cy="36.4714" r="4" fill="#0" id="circle87"/>
	<circle cx="565.755" cy="460.223" r="4" fill="#0" id="circle88"/>
	<circle cx="572.249" cy="39.7185" r="4" fill="#0" id="circle89"/>
	<circle cx="581.99" cy="460.223" r="4" fill="#0" id="circle90"/>
	<circle cx="586.861" cy="47.8363" r="4" fill="#0" id="circle91"/>
	<circle cx="596.602" cy="60.8249" r="4" fill="#0" id="circle92"/>
	<circle cx="598.226" cy="460.223" r="4" fill="#0" id="circle93"/>
	<circle cx="611.214" cy="448.858" r="4" fill="#0" id="circle94"/>
	<circle cx="612.838" cy="64.072" r="4" fill="#0" id="circle95"/>
	<circle cx="622.579" cy="77.0606" r="4" fill="#0" id="circle96"/>
	<circle cx="627.45" cy="443.987" r="4" fill="#0" id="circle97"/>
	<circle cx="638.815" cy="81.9313" r="4" fill="#0" id="circle98"/>
	<circle cx="643.686" cy="440.74" r="4" fill="#0" id="circle99"/>
	<circle cx="653.427" cy="90.0491" r="4" fill="#0" id="circle100"/>
	<circle cx="655.051" cy="427.751" r="4" fill="#0" id="circle101"/>
	<circle cx="666.416" cy="101.414" r="4" fill="#0" id="circle102"/>
	<circle cx="671.286" cy="419.633" r="4" fill="#0" id="circle103"/>
	<circle cx="677.781" cy="114.403" r="4" fill="#0" id="circle104"/>
	<circle cx="685.899" cy="411.516" r="4" fill="#0" id="circle105"/>
	<circle cx="690.769" cy="125.768" r="4" fill="#0" id="circle106"/>
	<circle cx="702.134" cy="406.645" r="4" fill="#0" id="circle107"/>
	<circle cx="703.758" cy="135.509" r="4" fill="#0" id="circle108"/>
	<circle cx="711.876" cy="150.121" r="4" fill="#0" id="circle109"/>
	<circle cx="715.123" cy="395.28" r="4" fill="#0" id="circle110"/>
	<circle cx="724.864" cy="159.863" r="4" fill="#0" id="circle111"/>
	<circle cx="728.111" cy="379.044" r="4" fill="#0" id="circle112"/>
	<circle cx="739.476" cy="167.98" r="4" fill="#0" id="circle113"/>
	<circle cx="741.1" cy="367.679" r="4" fill="#0" id="circle114"/>
	<circle cx="747.594" cy="182.592" r="4" fill="#0" id="circle115"/>
	<circle cx="752.465" cy="354.691" r="4" fill="#0" id="circle116"/>
	<circle cx="758.959" cy="195.581" r="4" fill="#0" id="circle117"/>
	<circle cx="767.077" cy="346.573" r="4" fill="#0" id="circle118"/>
	<circle cx="775.195" cy="202.075" r="4" fill="#0" id="circle119"/>
	<circle cx="780.065" cy="336.831" r="4" fill="#0" id="circle120"/>
	<circle cx="791.43" cy="206.946" r="4" fill="#0" id="circle121"/>
	<circle cx="793.054" cy="322.219" r="4" fill="#0" id="circle122"/>
	<circle cx="806.043" cy="215.064" r="4" fill="#0" id="circle123"/>
	<circle cx="809.29" cy="322.219" r="4" fill="#0" id="circle124"/>
	<circle cx="817.408" cy="202.075" r="4" fill="#0" id="circle125"/>
	<circle cx="825.525" cy="322.219" r="4" fill="#0" id="circle126"/>
	<circle cx="833.643" cy="198.828" r="4" fill="#0" id="circle127"/>
	<circle cx="840.137" cy="330.337" r="4" fill="#0" id="circle128"/>
	<circle cx="848.255" cy="187.463" r="4" fill="#0" id="circle129"/>
	<circle cx="849.879" cy="343.326" r="4" fill="#0" id="circle130"/>
	<circle cx="861.244" cy="174.475" r="4" fill="#0" id="circle131"/>
	<circle cx="866.115" cy="349.82" r="4" fill="#0" id="circle132"/>
	<circle cx="874.232" cy="161.486" r="4" fill="#0" id="circle133"/>
	<circle cx="880.727" cy="357.938" r="4" fill="#0" id="circle134"/>
	<circle cx="887.221" cy="150.121" r="4" fill="#0" id="circle135"/>
	<circle cx="893.715" cy="369.303" r="4" fill="#0" id="circle136"/>
	<circle cx="898.586" cy="137.133" r="4" fill="#0" id="circle137"/>
	<circle cx="908.327" cy="377.421" r="4" fill="#0" id="circle138"/>
	<circle cx="914.822" cy="133.885" r="4" fill="#0" id="circle139"/>
	<circle cx="921.316" cy="387.162" r="4" fill="#0" id="circle140"/>
	<circle cx="929.434" cy="125.768" r="4" fill="#0" id="circle141"/>
	<circle cx="937.552" cy="387.162" r="4" fill="#0" id="circle142"/>
	<circle cx="944.046" cy="117.65" r="4" fill="#0" id="circle143"/>
	<circle cx="947.293" cy="400.151" r="4" fill="#0" id="circle144"/>
	<circle cx="958.658" cy="109.532" r="4" fill="#0" id="circle145"/>
	<circle cx="963.529" cy="167.98" r="4" fill="#0" id="circle146"/>
	<circle cx="963.529" cy="184.216" r="4" fill="#0" id="circle147"/>
	<circle cx="963.529" cy="200.452" r="4" fill="#0" id="circle148"/>
	<circle cx="963.529" cy="403.398" r="4" fill="#0" id="circle149"/>
	<circle cx="966.776" cy="216.687" r="4" fill="#0" id="circle150"/>
	<circle cx="971.646" cy="151.745" r="4" fill="#0" id="circle151"/>
	<circle cx="974.894" cy="101.414" r="4" fill="#0" id="circle152"/>
	<circle cx="979.764" cy="228.052" r="4" fill="#0" id="circle153"/>
	<circle cx="979.764" cy="244.288" r="4" fill="#0" id="circle154"/>
	<circle cx="979.764" cy="260.524" r="4" fill="#0" id="circle155"/>
	<circle cx="979.764" cy="276.759" r="4" fill="#0" id="circle156"/>
	<circle cx="979.764" cy="292.995" r="4" fill="#0" id="circle157"/>
	<circle cx="979.764" cy="309.231" r="4" fill="#0" id="circle158"/>
	<circle cx="979.764" cy="325.466" r="4" fill="#0" id="circle159"/>
	<circle cx="979.764" cy="341.702" r="4" fill="#0" id="circle160"/>
	<circle cx="979.764" cy="357.938" r="4" fill="#0" id="circle161"/>
	<circle cx="979.764" cy="374.173" r="4" fill="#0" id="circle162"/>
	<circle cx="979.764" cy="403.398" r="4" fill="#0" id="circle163"/>
	<circle cx="984.635" cy="140.38" r="4" fill="#0" id="circle164"/>
	<circle cx="991.129" cy="101.414" r="4" fill="#0" id="circle165"/>
	<circle cx="991.129" cy="387.162" r="4" fill="#0" id="circle166"/>
	<circle cx="996" cy="127.391" r="4" fill="#0" id="circle167"/>
	<circle cx="996" cy="403.398" r="4" fill="#0" id="circle168"/>
	</g>
</svg>