<?xml version="1.0" encoding="UTF-8" standalone="no"?>
<!-- Created with CurveBenchmark -->
<svg
	xmlns:dc="http://purl.org/dc/elements/1.1/"
	xmlns:cc="http://creativecommons.org/ns#"
	xmlns:rdf="http://www.w3.org/1999/02/22-rdf-syntax-ns#"
	xmlns:svg="http://www.w3.org/2000/svg"
	xmlns="http://www.w3.org/2000/svg"
	xmlns:sodipodi="http://sodipodi.sourceforge.net/DTD/sodipodi-0.dtd"
	xmlns:inkscape="http://www.inkscape.org/namespaces/inkscape"
	width="1000"
	height="1000"
	id="svg2"
	version="1.1"
	sodipodi:docname="manifold/vicur-guitar285.png.txt">
<defs
	id="defs4" />
<metadata
	id="metadata7">
	<rdf:RDF>
		<cc:Work
			rdf:about="">
			<dc:format>image/svg+xml</dc:format>
			<dc:type
				rdf:resource="http://purl.org/dc/dcmitype/StillImage" />
			<dc:title></dc:title>
		</cc:Work>
	</rdf:RDF>
</metadata>
<g
	inkscape:label="Layer 1"
	inkscape:groupmode="layer"
	id="layer1">
	<path style="fill:none;stroke:red;stroke-width:1px;stroke-linecap:butt;stroke-linejoin:miter;stroke-opacity:1" d="M 4,775.166 4,810.219 z" id="boundary" inkscape:connector-curvature="0" />
	<path style="fill:none;stroke:red;stroke-width:1px;stroke-linecap:butt;stroke-linejoin:miter;stroke-opacity:1" d="M 4,775.166 11.0106,733.102 z" id="boundary" inkscape:connector-curvature="0" />
	<path style="fill:none;stroke:red;stroke-width:1px;stroke-linecap:butt;stroke-linejoin:miter;stroke-opacity:1" d="M 4,810.219 4,845.272 z" id="boundary" inkscape:connector-curvature="0" />
	<path style="fill:none;stroke:red;stroke-width:1px;stroke-linecap:butt;stroke-linejoin:miter;stroke-opacity:1" d="M 4,845.272 4,880.325 z" id="boundary" inkscape:connector-curvature="0" />
	<path style="fill:none;stroke:red;stroke-width:1px;stroke-linecap:butt;stroke-linejoin:miter;stroke-opacity:1" d="M 4,880.325 11.0106,915.378 z" id="boundary" inkscape:connector-curvature="0" />
	<path style="fill:none;stroke:red;stroke-width:1px;stroke-linecap:butt;stroke-linejoin:miter;stroke-opacity:1" d="M 11.0106,733.102 18.0212,684.028 z" id="boundary" inkscape:connector-curvature="0" />
	<path style="fill:none;stroke:red;stroke-width:1px;stroke-linecap:butt;stroke-linejoin:miter;stroke-opacity:1" d="M 11.0106,915.378 18.0212,950.431 z" id="boundary" inkscape:connector-curvature="0" />
	<path style="fill:none;stroke:red;stroke-width:1px;stroke-linecap:butt;stroke-linejoin:miter;stroke-opacity:1" d="M 18.0212,529.795 18.0212,564.848 z" id="boundary" inkscape:connector-curvature="0" />
	<path style="fill:none;stroke:red;stroke-width:1px;stroke-linecap:butt;stroke-linejoin:miter;stroke-opacity:1" d="M 18.0212,529.795 39.053,473.71 z" id="boundary" inkscape:connector-curvature="0" />
	<path style="fill:none;stroke:red;stroke-width:1px;stroke-linecap:butt;stroke-linejoin:miter;stroke-opacity:1" d="M 18.0212,564.848 18.0212,599.901 z" id="boundary" inkscape:connector-curvature="0" />
	<path style="fill:none;stroke:red;stroke-width:1px;stroke-linecap:butt;stroke-linejoin:miter;stroke-opacity:1" d="M 18.0212,599.901 18.0212,634.954 z" id="boundary" inkscape:connector-curvature="0" />
	<path style="fill:none;stroke:red;stroke-width:1px;stroke-linecap:butt;stroke-linejoin:miter;stroke-opacity:1" d="M 18.0212,634.954 18.0212,684.028 z" id="boundary" inkscape:connector-curvature="0" />
	<path style="fill:none;stroke:red;stroke-width:1px;stroke-linecap:butt;stroke-linejoin:miter;stroke-opacity:1" d="M 18.0212,950.431 35.5477,981.979 z" id="boundary" inkscape:connector-curvature="0" />
	<path style="fill:none;stroke:red;stroke-width:1px;stroke-linecap:butt;stroke-linejoin:miter;stroke-opacity:1" d="M 35.5477,981.979 70.6007,988.989 z" id="boundary" inkscape:connector-curvature="0" />
	<path style="fill:none;stroke:red;stroke-width:1px;stroke-linecap:butt;stroke-linejoin:miter;stroke-opacity:1" d="M 39.053,179.265 39.053,214.318 z" id="boundary" inkscape:connector-curvature="0" />
	<path style="fill:none;stroke:red;stroke-width:1px;stroke-linecap:butt;stroke-linejoin:miter;stroke-opacity:1" d="M 39.053,179.265 46.0636,137.201 z" id="boundary" inkscape:connector-curvature="0" />
	<path style="fill:none;stroke:red;stroke-width:1px;stroke-linecap:butt;stroke-linejoin:miter;stroke-opacity:1" d="M 39.053,214.318 39.053,249.371 z" id="boundary" inkscape:connector-curvature="0" />
	<path style="fill:none;stroke:red;stroke-width:1px;stroke-linecap:butt;stroke-linejoin:miter;stroke-opacity:1" d="M 39.053,249.371 39.053,284.424 z" id="boundary" inkscape:connector-curvature="0" />
	<path style="fill:none;stroke:red;stroke-width:1px;stroke-linecap:butt;stroke-linejoin:miter;stroke-opacity:1" d="M 39.053,284.424 39.053,333.498 z" id="boundary" inkscape:connector-curvature="0" />
	<path style="fill:none;stroke:red;stroke-width:1px;stroke-linecap:butt;stroke-linejoin:miter;stroke-opacity:1" d="M 39.053,333.498 39.053,368.551 z" id="boundary" inkscape:connector-curvature="0" />
	<path style="fill:none;stroke:red;stroke-width:1px;stroke-linecap:butt;stroke-linejoin:miter;stroke-opacity:1" d="M 39.053,368.551 39.053,403.604 z" id="boundary" inkscape:connector-curvature="0" />
	<path style="fill:none;stroke:red;stroke-width:1px;stroke-linecap:butt;stroke-linejoin:miter;stroke-opacity:1" d="M 39.053,403.604 39.053,438.657 z" id="boundary" inkscape:connector-curvature="0" />
	<path style="fill:none;stroke:red;stroke-width:1px;stroke-linecap:butt;stroke-linejoin:miter;stroke-opacity:1" d="M 39.053,438.657 39.053,473.71 z" id="boundary" inkscape:connector-curvature="0" />
	<path style="fill:none;stroke:red;stroke-width:1px;stroke-linecap:butt;stroke-linejoin:miter;stroke-opacity:1" d="M 46.0636,102.148 46.0636,137.201 z" id="boundary" inkscape:connector-curvature="0" />
	<path style="fill:none;stroke:red;stroke-width:1px;stroke-linecap:butt;stroke-linejoin:miter;stroke-opacity:1" d="M 46.0636,102.148 53.0742,67.0954 z" id="boundary" inkscape:connector-curvature="0" />
	<path style="fill:none;stroke:red;stroke-width:1px;stroke-linecap:butt;stroke-linejoin:miter;stroke-opacity:1" d="M 53.0742,67.0954 67.0954,32.0424 z" id="boundary" inkscape:connector-curvature="0" />
	<path style="fill:none;stroke:red;stroke-width:1px;stroke-linecap:butt;stroke-linejoin:miter;stroke-opacity:1" d="M 67.0954,32.0424 88.1272,4 z" id="boundary" inkscape:connector-curvature="0" />
	<path style="fill:none;stroke:red;stroke-width:1px;stroke-linecap:butt;stroke-linejoin:miter;stroke-opacity:1" d="M 70.6007,196.792 70.6007,231.845 z" id="boundary" inkscape:connector-curvature="0" />
	<path style="fill:none;stroke:red;stroke-width:1px;stroke-linecap:butt;stroke-linejoin:miter;stroke-opacity:1" d="M 70.6007,231.845 70.6007,266.898 z" id="boundary" inkscape:connector-curvature="0" />
	<path style="fill:none;stroke:red;stroke-width:1px;stroke-linecap:butt;stroke-linejoin:miter;stroke-opacity:1" d="M 70.6007,266.898 70.6007,301.951 z" id="boundary" inkscape:connector-curvature="0" />
	<path style="fill:none;stroke:red;stroke-width:1px;stroke-linecap:butt;stroke-linejoin:miter;stroke-opacity:1" d="M 70.6007,301.951 74.106,337.004 z" id="boundary" inkscape:connector-curvature="0" />
	<path style="fill:none;stroke:red;stroke-width:1px;stroke-linecap:butt;stroke-linejoin:miter;stroke-opacity:1" d="M 70.6007,988.989 105.654,996 z" id="boundary" inkscape:connector-curvature="0" />
	<path style="fill:none;stroke:red;stroke-width:1px;stroke-linecap:butt;stroke-linejoin:miter;stroke-opacity:1" d="M 74.106,337.004 77.6113,372.057 z" id="boundary" inkscape:connector-curvature="0" />
	<path style="fill:none;stroke:red;stroke-width:1px;stroke-linecap:butt;stroke-linejoin:miter;stroke-opacity:1" d="M 77.6113,372.057 77.6113,407.11 z" id="boundary" inkscape:connector-curvature="0" />
	<path style="fill:none;stroke:red;stroke-width:1px;stroke-linecap:butt;stroke-linejoin:miter;stroke-opacity:1" d="M 77.6113,407.11 77.6113,442.163 z" id="boundary" inkscape:connector-curvature="0" />
	<path style="fill:none;stroke:red;stroke-width:1px;stroke-linecap:butt;stroke-linejoin:miter;stroke-opacity:1" d="M 77.6113,442.163 95.1378,473.71 z" id="boundary" inkscape:connector-curvature="0" />
	<path style="fill:none;stroke:red;stroke-width:1px;stroke-linecap:butt;stroke-linejoin:miter;stroke-opacity:1" d="M 81.1166,119.675 88.1272,84.6219 z" id="boundary" inkscape:connector-curvature="0" />
	<path style="fill:none;stroke:red;stroke-width:1px;stroke-linecap:butt;stroke-linejoin:miter;stroke-opacity:1" d="M 88.1272,4 102.148,49.5689 z" id="boundary" inkscape:connector-curvature="0" />
	<path style="fill:none;stroke:red;stroke-width:1px;stroke-linecap:butt;stroke-linejoin:miter;stroke-opacity:1" d="M 88.1272,84.6219 102.148,49.5689 z" id="boundary" inkscape:connector-curvature="0" />
	<path style="fill:none;stroke:red;stroke-width:1px;stroke-linecap:butt;stroke-linejoin:miter;stroke-opacity:1" d="M 95.1378,473.71 130.191,480.721 z" id="boundary" inkscape:connector-curvature="0" />
	<path style="fill:none;stroke:red;stroke-width:1px;stroke-linecap:butt;stroke-linejoin:miter;stroke-opacity:1" d="M 105.654,996 140.707,988.989 z" id="boundary" inkscape:connector-curvature="0" />
	<path style="fill:none;stroke:red;stroke-width:1px;stroke-linecap:butt;stroke-linejoin:miter;stroke-opacity:1" d="M 130.191,480.721 154.728,508.763 z" id="boundary" inkscape:connector-curvature="0" />
	<path style="fill:none;stroke:red;stroke-width:1px;stroke-linecap:butt;stroke-linejoin:miter;stroke-opacity:1" d="M 140.707,988.989 175.76,964.452 z" id="boundary" inkscape:connector-curvature="0" />
	<path style="fill:none;stroke:red;stroke-width:1px;stroke-linecap:butt;stroke-linejoin:miter;stroke-opacity:1" d="M 154.728,508.763 165.244,543.816 z" id="boundary" inkscape:connector-curvature="0" />
	<path style="fill:none;stroke:red;stroke-width:1px;stroke-linecap:butt;stroke-linejoin:miter;stroke-opacity:1" d="M 165.244,543.816 189.781,571.859 z" id="boundary" inkscape:connector-curvature="0" />
	<path style="fill:none;stroke:red;stroke-width:1px;stroke-linecap:butt;stroke-linejoin:miter;stroke-opacity:1" d="M 175.76,964.452 189.781,915.378 z" id="boundary" inkscape:connector-curvature="0" />
	<path style="fill:none;stroke:red;stroke-width:1px;stroke-linecap:butt;stroke-linejoin:miter;stroke-opacity:1" d="M 182.77,620.933 182.77,655.986 z" id="boundary" inkscape:connector-curvature="0" />
	<path style="fill:none;stroke:red;stroke-width:1px;stroke-linecap:butt;stroke-linejoin:miter;stroke-opacity:1" d="M 182.77,620.933 189.781,571.859 z" id="boundary" inkscape:connector-curvature="0" />
	<path style="fill:none;stroke:red;stroke-width:1px;stroke-linecap:butt;stroke-linejoin:miter;stroke-opacity:1" d="M 182.77,655.986 182.77,691.039 z" id="boundary" inkscape:connector-curvature="0" />
	<path style="fill:none;stroke:red;stroke-width:1px;stroke-linecap:butt;stroke-linejoin:miter;stroke-opacity:1" d="M 182.77,691.039 189.781,726.092 z" id="boundary" inkscape:connector-curvature="0" />
	<path style="fill:none;stroke:red;stroke-width:1px;stroke-linecap:butt;stroke-linejoin:miter;stroke-opacity:1" d="M 189.781,726.092 193.286,761.145 z" id="boundary" inkscape:connector-curvature="0" />
	<path style="fill:none;stroke:red;stroke-width:1px;stroke-linecap:butt;stroke-linejoin:miter;stroke-opacity:1" d="M 189.781,915.378 196.792,866.304 z" id="boundary" inkscape:connector-curvature="0" />
	<path style="fill:none;stroke:red;stroke-width:1px;stroke-linecap:butt;stroke-linejoin:miter;stroke-opacity:1" d="M 193.286,761.145 196.792,796.198 z" id="boundary" inkscape:connector-curvature="0" />
	<path style="fill:none;stroke:red;stroke-width:1px;stroke-linecap:butt;stroke-linejoin:miter;stroke-opacity:1" d="M 196.792,796.198 196.792,831.251 z" id="boundary" inkscape:connector-curvature="0" />
	<path style="fill:none;stroke:red;stroke-width:1px;stroke-linecap:butt;stroke-linejoin:miter;stroke-opacity:1" d="M 196.792,831.251 196.792,866.304 z" id="boundary" inkscape:connector-curvature="0" />
	<circle cx="4" cy="775.166" r="4" fill="#0" id="circle0"/>
	<circle cx="4" cy="810.219" r="4" fill="#0" id="circle1"/>
	<circle cx="4" cy="845.272" r="4" fill="#0" id="circle2"/>
	<circle cx="4" cy="880.325" r="4" fill="#0" id="circle3"/>
	<circle cx="11.0106" cy="733.102" r="4" fill="#0" id="circle4"/>
	<circle cx="11.0106" cy="915.378" r="4" fill="#0" id="circle5"/>
	<circle cx="18.0212" cy="529.795" r="4" fill="#0" id="circle6"/>
	<circle cx="18.0212" cy="564.848" r="4" fill="#0" id="circle7"/>
	<circle cx="18.0212" cy="599.901" r="4" fill="#0" id="circle8"/>
	<circle cx="18.0212" cy="634.954" r="4" fill="#0" id="circle9"/>
	<circle cx="18.0212" cy="684.028" r="4" fill="#0" id="circle10"/>
	<circle cx="18.0212" cy="950.431" r="4" fill="#0" id="circle11"/>
	<circle cx="35.5477" cy="981.979" r="4" fill="#0" id="circle12"/>
	<circle cx="39.053" cy="179.265" r="4" fill="#0" id="circle13"/>
	<circle cx="39.053" cy="214.318" r="4" fill="#0" id="circle14"/>
	<circle cx="39.053" cy="249.371" r="4" fill="#0" id="circle15"/>
	<circle cx="39.053" cy="284.424" r="4" fill="#0" id="circle16"/>
	<circle cx="39.053" cy="333.498" r="4" fill="#0" id="circle17"/>
	<circle cx="39.053" cy="368.551" r="4" fill="#0" id="circle18"/>
	<circle cx="39.053" cy="403.604" r="4" fill="#0" id="circle19"/>
	<circle cx="39.053" cy="438.657" r="4" fill="#0" id="circle20"/>
	<circle cx="39.053" cy="473.71" r="4" fill="#0" id="circle21"/>
	<circle cx="46.0636" cy="102.148" r="4" fill="#0" id="circle22"/>
	<circle cx="46.0636" cy="137.201" r="4" fill="#0" id="circle23"/>
	<circle cx="53.0742" cy="67.0954" r="4" fill="#0" id="circle24"/>
	<circle cx="67.0954" cy="32.0424" r="4" fill="#0" id="circle25"/>
	<circle cx="70.6007" cy="196.792" r="4" fill="#0" id="circle26"/>
	<circle cx="70.6007" cy="231.845" r="4" fill="#0" id="circle27"/>
	<circle cx="70.6007" cy="266.898" r="4" fill="#0" id="circle28"/>
	<circle cx="70.6007" cy="301.951" r="4" fill="#0" id="circle29"/>
	<circle cx="70.6007" cy="988.989" r="4" fill="#0" id="circle30"/>
	<circle cx="74.106" cy="337.004" r="4" fill="#0" id="circle31"/>
	<circle cx="77.6113" cy="372.057" r="4" fill="#0" id="circle32"/>
	<circle cx="77.6113" cy="407.11" r="4" fill="#0" id="circle33"/>
	<circle cx="77.6113" cy="442.163" r="4" fill="#0" id="circle34"/>
	<circle cx="81.1166" cy="119.675" r="4" fill="#0" id="circle35"/>
	<circle cx="88.1272" cy="4" r="4" fill="#0" id="circle36"/>
	<circle cx="88.1272" cy="84.6219" r="4" fill="#0" id="circle37"/>
	<circle cx="95.1378" cy="473.71" r="4" fill="#0" id="circle38"/>
	<circle cx="102.148" cy="49.5689" r="4" fill="#0" id="circle39"/>
	<circle cx="105.654" cy="996" r="4" fill="#0" id="circle40"/>
	<circle cx="130.191" cy="480.721" r="4" fill="#0" id="circle41"/>
	<circle cx="140.707" cy="988.989" r="4" fill="#0" id="circle42"/>
	<circle cx="154.728" cy="508.763" r="4" fill="#0" id="circle43"/>
	<circle cx="165.244" cy="543.816" r="4" fill="#0" id="circle44"/>
	<circle cx="175.76" cy="964.452" r="4" fill="#0" id="circle45"/>
	<circle cx="182.77" cy="620.933" r="4" fill="#0" id="circle46"/>
	<circle cx="182.77" cy="655.986" r="4" fill="#0" id="circle47"/>
	<circle cx="182.77" cy="691.039" r="4" fill="#0" id="circle48"/>
	<circle cx="189.781" cy="571.859" r="4" fill="#0" id="circle49"/>
	<circle cx="189.781" cy="726.092" r="4" fill="#0" id="circle50"/>
	<circle cx="189.781" cy="915.378" r="4" fill="#0" id="circle51"/>
	<circle cx="193.286" cy="761.145" r="4" fill="#0" id="circle52"/>
	<circle cx="196.792" cy="796.198" r="4" fill="#0" id="circle53"/>
	<circle cx="196.792" cy="831.251" r="4" fill="#0" id="circle54"/>
	<circle cx="196.792" cy="866.304" r="4" fill="#0" id="circle55"/>
	</g>
</svg>