<?xml version="1.0" encoding="UTF-8" standalone="no"?>
<!-- Created with CurveBenchmark -->
<svg
	xmlns:dc="http://purl.org/dc/elements/1.1/"
	xmlns:cc="http://creativecommons.org/ns#"
	xmlns:rdf="http://www.w3.org/1999/02/22-rdf-syntax-ns#"
	xmlns:svg="http://www.w3.org/2000/svg"
	xmlns="http://www.w3.org/2000/svg"
	xmlns:sodipodi="http://sodipodi.sourceforge.net/DTD/sodipodi-0.dtd"
	xmlns:inkscape="http://www.inkscape.org/namespaces/inkscape"
	width="1000"
	height="1000"
	id="svg2"
	version="1.1"
	sodipodi:docname="manifold/vicur-face-3.png.txt">
<defs
	id="defs4" />
<metadata
	id="metadata7">
	<rdf:RDF>
		<cc:Work
			rdf:about="">
			<dc:format>image/svg+xml</dc:format>
			<dc:type
				rdf:resource="http://purl.org/dc/dcmitype/StillImage" />
			<dc:title></dc:title>
		</cc:Work>
	</rdf:RDF>
</metadata>
<g
	inkscape:label="Layer 1"
	inkscape:groupmode="layer"
	id="layer1">
	<path style="fill:none;stroke:red;stroke-width:1px;stroke-linecap:butt;stroke-linejoin:miter;stroke-opacity:1" d="M 4,467.065 4,473.652 z" id="boundary" inkscape:connector-curvature="0" />
	<path style="fill:none;stroke:red;stroke-width:1px;stroke-linecap:butt;stroke-linejoin:miter;stroke-opacity:1" d="M 4,467.065 9.26959,461.795 z" id="boundary" inkscape:connector-curvature="0" />
	<path style="fill:none;stroke:red;stroke-width:1px;stroke-linecap:butt;stroke-linejoin:miter;stroke-opacity:1" d="M 4,486.826 4,493.413 z" id="boundary" inkscape:connector-curvature="0" />
	<path style="fill:none;stroke:red;stroke-width:1px;stroke-linecap:butt;stroke-linejoin:miter;stroke-opacity:1" d="M 4,493.413 7.29349,499.341 z" id="boundary" inkscape:connector-curvature="0" />
	<path style="fill:none;stroke:red;stroke-width:1px;stroke-linecap:butt;stroke-linejoin:miter;stroke-opacity:1" d="M 7.29349,499.341 7.29349,505.928 z" id="boundary" inkscape:connector-curvature="0" />
	<path style="fill:none;stroke:red;stroke-width:1px;stroke-linecap:butt;stroke-linejoin:miter;stroke-opacity:1" d="M 7.29349,505.928 10.587,511.857 z" id="boundary" inkscape:connector-curvature="0" />
	<path style="fill:none;stroke:red;stroke-width:1px;stroke-linecap:butt;stroke-linejoin:miter;stroke-opacity:1" d="M 9.26959,461.795 12.5631,455.208 z" id="boundary" inkscape:connector-curvature="0" />
	<path style="fill:none;stroke:red;stroke-width:1px;stroke-linecap:butt;stroke-linejoin:miter;stroke-opacity:1" d="M 10.587,511.857 14.5392,517.126 z" id="boundary" inkscape:connector-curvature="0" />
	<path style="fill:none;stroke:red;stroke-width:1px;stroke-linecap:butt;stroke-linejoin:miter;stroke-opacity:1" d="M 12.5631,455.208 17.8327,449.939 z" id="boundary" inkscape:connector-curvature="0" />
	<path style="fill:none;stroke:red;stroke-width:1px;stroke-linecap:butt;stroke-linejoin:miter;stroke-opacity:1" d="M 14.5392,517.126 19.8088,521.737 z" id="boundary" inkscape:connector-curvature="0" />
	<path style="fill:none;stroke:red;stroke-width:1px;stroke-linecap:butt;stroke-linejoin:miter;stroke-opacity:1" d="M 17.8327,449.939 23.1023,445.328 z" id="boundary" inkscape:connector-curvature="0" />
	<path style="fill:none;stroke:red;stroke-width:1px;stroke-linecap:butt;stroke-linejoin:miter;stroke-opacity:1" d="M 19.8088,521.737 22.4436,528.324 z" id="boundary" inkscape:connector-curvature="0" />
	<path style="fill:none;stroke:red;stroke-width:1px;stroke-linecap:butt;stroke-linejoin:miter;stroke-opacity:1" d="M 22.4436,528.324 27.7131,532.935 z" id="boundary" inkscape:connector-curvature="0" />
	<path style="fill:none;stroke:red;stroke-width:1px;stroke-linecap:butt;stroke-linejoin:miter;stroke-opacity:1" d="M 27.7131,532.935 30.3479,539.522 z" id="boundary" inkscape:connector-curvature="0" />
	<path style="fill:none;stroke:red;stroke-width:1px;stroke-linecap:butt;stroke-linejoin:miter;stroke-opacity:1" d="M 30.3479,539.522 35.6175,544.133 z" id="boundary" inkscape:connector-curvature="0" />
	<path style="fill:none;stroke:red;stroke-width:1px;stroke-linecap:butt;stroke-linejoin:miter;stroke-opacity:1" d="M 35.6175,544.133 40.2284,549.402 z" id="boundary" inkscape:connector-curvature="0" />
	<path style="fill:none;stroke:red;stroke-width:1px;stroke-linecap:butt;stroke-linejoin:miter;stroke-opacity:1" d="M 40.2284,549.402 43.5219,555.331 z" id="boundary" inkscape:connector-curvature="0" />
	<path style="fill:none;stroke:red;stroke-width:1px;stroke-linecap:butt;stroke-linejoin:miter;stroke-opacity:1" d="M 43.5219,555.331 46.8154,561.259 z" id="boundary" inkscape:connector-curvature="0" />
	<path style="fill:none;stroke:red;stroke-width:1px;stroke-linecap:butt;stroke-linejoin:miter;stroke-opacity:1" d="M 46.8154,561.259 50.1089,567.187 z" id="boundary" inkscape:connector-curvature="0" />
	<path style="fill:none;stroke:red;stroke-width:1px;stroke-linecap:butt;stroke-linejoin:miter;stroke-opacity:1" d="M 50.1089,285.923 50.1089,292.51 z" id="boundary" inkscape:connector-curvature="0" />
	<path style="fill:none;stroke:red;stroke-width:1px;stroke-linecap:butt;stroke-linejoin:miter;stroke-opacity:1" d="M 50.1089,285.923 53.4024,276.042 z" id="boundary" inkscape:connector-curvature="0" />
	<path style="fill:none;stroke:red;stroke-width:1px;stroke-linecap:butt;stroke-linejoin:miter;stroke-opacity:1" d="M 50.1089,292.51 50.1089,305.684 z" id="boundary" inkscape:connector-curvature="0" />
	<path style="fill:none;stroke:red;stroke-width:1px;stroke-linecap:butt;stroke-linejoin:miter;stroke-opacity:1" d="M 50.1089,305.684 50.1089,318.858 z" id="boundary" inkscape:connector-curvature="0" />
	<path style="fill:none;stroke:red;stroke-width:1px;stroke-linecap:butt;stroke-linejoin:miter;stroke-opacity:1" d="M 50.1089,384.728 50.1089,391.315 z" id="boundary" inkscape:connector-curvature="0" />
	<path style="fill:none;stroke:red;stroke-width:1px;stroke-linecap:butt;stroke-linejoin:miter;stroke-opacity:1" d="M 50.1089,391.315 50.1089,397.902 z" id="boundary" inkscape:connector-curvature="0" />
	<path style="fill:none;stroke:red;stroke-width:1px;stroke-linecap:butt;stroke-linejoin:miter;stroke-opacity:1" d="M 53.4024,276.042 56.6959,262.869 z" id="boundary" inkscape:connector-curvature="0" />
	<path style="fill:none;stroke:red;stroke-width:1px;stroke-linecap:butt;stroke-linejoin:miter;stroke-opacity:1" d="M 53.4024,410.417 53.4024,417.004 z" id="boundary" inkscape:connector-curvature="0" />
	<path style="fill:none;stroke:red;stroke-width:1px;stroke-linecap:butt;stroke-linejoin:miter;stroke-opacity:1" d="M 53.4024,417.004 56.6959,422.932 z" id="boundary" inkscape:connector-curvature="0" />
	<path style="fill:none;stroke:red;stroke-width:1px;stroke-linecap:butt;stroke-linejoin:miter;stroke-opacity:1" d="M 56.6959,262.869 63.2829,246.401 z" id="boundary" inkscape:connector-curvature="0" />
	<path style="fill:none;stroke:red;stroke-width:1px;stroke-linecap:butt;stroke-linejoin:miter;stroke-opacity:1" d="M 57.3546,592.876 60.6481,598.805 z" id="boundary" inkscape:connector-curvature="0" />
	<path style="fill:none;stroke:red;stroke-width:1px;stroke-linecap:butt;stroke-linejoin:miter;stroke-opacity:1" d="M 60.6481,598.805 65.259,604.074 z" id="boundary" inkscape:connector-curvature="0" />
	<path style="fill:none;stroke:red;stroke-width:1px;stroke-linecap:butt;stroke-linejoin:miter;stroke-opacity:1" d="M 63.2829,246.401 66.5764,233.227 z" id="boundary" inkscape:connector-curvature="0" />
	<path style="fill:none;stroke:red;stroke-width:1px;stroke-linecap:butt;stroke-linejoin:miter;stroke-opacity:1" d="M 65.259,604.074 69.8699,609.344 z" id="boundary" inkscape:connector-curvature="0" />
	<path style="fill:none;stroke:red;stroke-width:1px;stroke-linecap:butt;stroke-linejoin:miter;stroke-opacity:1" d="M 66.5764,233.227 69.8699,223.347 z" id="boundary" inkscape:connector-curvature="0" />
	<path style="fill:none;stroke:red;stroke-width:1px;stroke-linecap:butt;stroke-linejoin:miter;stroke-opacity:1" d="M 69.8699,216.76 69.8699,223.347 z" id="boundary" inkscape:connector-curvature="0" />
	<path style="fill:none;stroke:red;stroke-width:1px;stroke-linecap:butt;stroke-linejoin:miter;stroke-opacity:1" d="M 69.8699,216.76 73.1633,203.586 z" id="boundary" inkscape:connector-curvature="0" />
	<path style="fill:none;stroke:red;stroke-width:1px;stroke-linecap:butt;stroke-linejoin:miter;stroke-opacity:1" d="M 69.8699,609.344 73.1633,615.272 z" id="boundary" inkscape:connector-curvature="0" />
	<path style="fill:none;stroke:red;stroke-width:1px;stroke-linecap:butt;stroke-linejoin:miter;stroke-opacity:1" d="M 73.1633,196.999 73.1633,203.586 z" id="boundary" inkscape:connector-curvature="0" />
	<path style="fill:none;stroke:red;stroke-width:1px;stroke-linecap:butt;stroke-linejoin:miter;stroke-opacity:1" d="M 73.1633,196.999 76.4568,177.238 z" id="boundary" inkscape:connector-curvature="0" />
	<path style="fill:none;stroke:red;stroke-width:1px;stroke-linecap:butt;stroke-linejoin:miter;stroke-opacity:1" d="M 73.1633,615.272 78.4329,619.883 z" id="boundary" inkscape:connector-curvature="0" />
	<path style="fill:none;stroke:red;stroke-width:1px;stroke-linecap:butt;stroke-linejoin:miter;stroke-opacity:1" d="M 76.4568,177.238 79.7503,167.357 z" id="boundary" inkscape:connector-curvature="0" />
	<path style="fill:none;stroke:red;stroke-width:1px;stroke-linecap:butt;stroke-linejoin:miter;stroke-opacity:1" d="M 78.4329,619.883 81.0677,626.47 z" id="boundary" inkscape:connector-curvature="0" />
	<path style="fill:none;stroke:red;stroke-width:1px;stroke-linecap:butt;stroke-linejoin:miter;stroke-opacity:1" d="M 79.7503,167.357 83.0438,160.77 z" id="boundary" inkscape:connector-curvature="0" />
	<path style="fill:none;stroke:red;stroke-width:1px;stroke-linecap:butt;stroke-linejoin:miter;stroke-opacity:1" d="M 81.0677,626.47 86.3373,630.422 z" id="boundary" inkscape:connector-curvature="0" />
	<path style="fill:none;stroke:red;stroke-width:1px;stroke-linecap:butt;stroke-linejoin:miter;stroke-opacity:1" d="M 83.0438,160.77 89.6308,147.596 z" id="boundary" inkscape:connector-curvature="0" />
	<path style="fill:none;stroke:red;stroke-width:1px;stroke-linecap:butt;stroke-linejoin:miter;stroke-opacity:1" d="M 86.3373,630.422 90.2895,635.692 z" id="boundary" inkscape:connector-curvature="0" />
	<path style="fill:none;stroke:red;stroke-width:1px;stroke-linecap:butt;stroke-linejoin:miter;stroke-opacity:1" d="M 89.6308,147.596 92.9243,141.009 z" id="boundary" inkscape:connector-curvature="0" />
	<path style="fill:none;stroke:red;stroke-width:1px;stroke-linecap:butt;stroke-linejoin:miter;stroke-opacity:1" d="M 90.2895,635.692 96.8765,638.327 z" id="boundary" inkscape:connector-curvature="0" />
	<path style="fill:none;stroke:red;stroke-width:1px;stroke-linecap:butt;stroke-linejoin:miter;stroke-opacity:1" d="M 92.9243,141.009 102.805,127.835 z" id="boundary" inkscape:connector-curvature="0" />
	<path style="fill:none;stroke:red;stroke-width:1px;stroke-linecap:butt;stroke-linejoin:miter;stroke-opacity:1" d="M 96.8765,638.327 101.487,643.596 z" id="boundary" inkscape:connector-curvature="0" />
	<path style="fill:none;stroke:red;stroke-width:1px;stroke-linecap:butt;stroke-linejoin:miter;stroke-opacity:1" d="M 101.487,643.596 108.074,646.231 z" id="boundary" inkscape:connector-curvature="0" />
	<path style="fill:none;stroke:red;stroke-width:1px;stroke-linecap:butt;stroke-linejoin:miter;stroke-opacity:1" d="M 108.074,646.231 109.392,652.818 z" id="boundary" inkscape:connector-curvature="0" />
	<path style="fill:none;stroke:red;stroke-width:1px;stroke-linecap:butt;stroke-linejoin:miter;stroke-opacity:1" d="M 112.685,712.101 116.637,717.371 z" id="boundary" inkscape:connector-curvature="0" />
	<path style="fill:none;stroke:red;stroke-width:1px;stroke-linecap:butt;stroke-linejoin:miter;stroke-opacity:1" d="M 116.637,110.709 119.931,104.122 z" id="boundary" inkscape:connector-curvature="0" />
	<path style="fill:none;stroke:red;stroke-width:1px;stroke-linecap:butt;stroke-linejoin:miter;stroke-opacity:1" d="M 116.637,717.371 119.272,723.958 z" id="boundary" inkscape:connector-curvature="0" />
	<path style="fill:none;stroke:red;stroke-width:1px;stroke-linecap:butt;stroke-linejoin:miter;stroke-opacity:1" d="M 119.272,723.958 122.566,729.886 z" id="boundary" inkscape:connector-curvature="0" />
	<path style="fill:none;stroke:red;stroke-width:1px;stroke-linecap:butt;stroke-linejoin:miter;stroke-opacity:1" d="M 119.931,104.122 125.201,99.5113 z" id="boundary" inkscape:connector-curvature="0" />
	<path style="fill:none;stroke:red;stroke-width:1px;stroke-linecap:butt;stroke-linejoin:miter;stroke-opacity:1" d="M 122.566,729.886 127.177,735.155 z" id="boundary" inkscape:connector-curvature="0" />
	<path style="fill:none;stroke:red;stroke-width:1px;stroke-linecap:butt;stroke-linejoin:miter;stroke-opacity:1" d="M 125.201,99.5113 129.811,94.2417 z" id="boundary" inkscape:connector-curvature="0" />
	<path style="fill:none;stroke:red;stroke-width:1px;stroke-linecap:butt;stroke-linejoin:miter;stroke-opacity:1" d="M 127.177,735.155 130.47,741.084 z" id="boundary" inkscape:connector-curvature="0" />
	<path style="fill:none;stroke:red;stroke-width:1px;stroke-linecap:butt;stroke-linejoin:miter;stroke-opacity:1" d="M 129.811,94.2417 135.081,89.6308 z" id="boundary" inkscape:connector-curvature="0" />
	<path style="fill:none;stroke:red;stroke-width:1px;stroke-linecap:butt;stroke-linejoin:miter;stroke-opacity:1" d="M 130.47,741.084 133.105,747.671 z" id="boundary" inkscape:connector-curvature="0" />
	<path style="fill:none;stroke:red;stroke-width:1px;stroke-linecap:butt;stroke-linejoin:miter;stroke-opacity:1" d="M 133.105,747.671 138.375,752.282 z" id="boundary" inkscape:connector-curvature="0" />
	<path style="fill:none;stroke:red;stroke-width:1px;stroke-linecap:butt;stroke-linejoin:miter;stroke-opacity:1" d="M 135.081,89.6308 139.692,84.3612 z" id="boundary" inkscape:connector-curvature="0" />
	<path style="fill:none;stroke:red;stroke-width:1px;stroke-linecap:butt;stroke-linejoin:miter;stroke-opacity:1" d="M 138.375,752.282 144.303,755.575 z" id="boundary" inkscape:connector-curvature="0" />
	<path style="fill:none;stroke:red;stroke-width:1px;stroke-linecap:butt;stroke-linejoin:miter;stroke-opacity:1" d="M 139.692,84.3612 144.961,79.7503 z" id="boundary" inkscape:connector-curvature="0" />
	<path style="fill:none;stroke:red;stroke-width:1px;stroke-linecap:butt;stroke-linejoin:miter;stroke-opacity:1" d="M 144.303,755.575 147.596,761.503 z" id="boundary" inkscape:connector-curvature="0" />
	<path style="fill:none;stroke:red;stroke-width:1px;stroke-linecap:butt;stroke-linejoin:miter;stroke-opacity:1" d="M 144.961,79.7503 149.572,74.4807 z" id="boundary" inkscape:connector-curvature="0" />
	<path style="fill:none;stroke:red;stroke-width:1px;stroke-linecap:butt;stroke-linejoin:miter;stroke-opacity:1" d="M 147.596,761.503 152.866,765.456 z" id="boundary" inkscape:connector-curvature="0" />
	<path style="fill:none;stroke:red;stroke-width:1px;stroke-linecap:butt;stroke-linejoin:miter;stroke-opacity:1" d="M 149.572,74.4807 154.842,69.8699 z" id="boundary" inkscape:connector-curvature="0" />
	<path style="fill:none;stroke:red;stroke-width:1px;stroke-linecap:butt;stroke-linejoin:miter;stroke-opacity:1" d="M 152.866,765.456 158.794,768.749 z" id="boundary" inkscape:connector-curvature="0" />
	<path style="fill:none;stroke:red;stroke-width:1px;stroke-linecap:butt;stroke-linejoin:miter;stroke-opacity:1" d="M 154.842,69.8699 159.453,64.6003 z" id="boundary" inkscape:connector-curvature="0" />
	<path style="fill:none;stroke:red;stroke-width:1px;stroke-linecap:butt;stroke-linejoin:miter;stroke-opacity:1" d="M 159.453,64.6003 164.722,59.9894 z" id="boundary" inkscape:connector-curvature="0" />
	<path style="fill:none;stroke:red;stroke-width:1px;stroke-linecap:butt;stroke-linejoin:miter;stroke-opacity:1" d="M 164.064,867.554 167.357,873.482 z" id="boundary" inkscape:connector-curvature="0" />
	<path style="fill:none;stroke:red;stroke-width:1px;stroke-linecap:butt;stroke-linejoin:miter;stroke-opacity:1" d="M 164.722,59.9894 169.333,54.7198 z" id="boundary" inkscape:connector-curvature="0" />
	<path style="fill:none;stroke:red;stroke-width:1px;stroke-linecap:butt;stroke-linejoin:miter;stroke-opacity:1" d="M 167.357,873.482 171.968,878.752 z" id="boundary" inkscape:connector-curvature="0" />
	<path style="fill:none;stroke:red;stroke-width:1px;stroke-linecap:butt;stroke-linejoin:miter;stroke-opacity:1" d="M 169.333,54.7198 174.603,50.1089 z" id="boundary" inkscape:connector-curvature="0" />
	<path style="fill:none;stroke:red;stroke-width:1px;stroke-linecap:butt;stroke-linejoin:miter;stroke-opacity:1" d="M 171.968,878.752 177.238,883.363 z" id="boundary" inkscape:connector-curvature="0" />
	<path style="fill:none;stroke:red;stroke-width:1px;stroke-linecap:butt;stroke-linejoin:miter;stroke-opacity:1" d="M 174.603,50.1089 179.214,44.8393 z" id="boundary" inkscape:connector-curvature="0" />
	<path style="fill:none;stroke:red;stroke-width:1px;stroke-linecap:butt;stroke-linejoin:miter;stroke-opacity:1" d="M 177.238,883.363 181.849,888.632 z" id="boundary" inkscape:connector-curvature="0" />
	<path style="fill:none;stroke:red;stroke-width:1px;stroke-linecap:butt;stroke-linejoin:miter;stroke-opacity:1" d="M 179.214,44.8393 184.483,40.2284 z" id="boundary" inkscape:connector-curvature="0" />
	<path style="fill:none;stroke:red;stroke-width:1px;stroke-linecap:butt;stroke-linejoin:miter;stroke-opacity:1" d="M 181.849,888.632 187.118,893.243 z" id="boundary" inkscape:connector-curvature="0" />
	<path style="fill:none;stroke:red;stroke-width:1px;stroke-linecap:butt;stroke-linejoin:miter;stroke-opacity:1" d="M 184.483,40.2284 189.094,34.9588 z" id="boundary" inkscape:connector-curvature="0" />
	<path style="fill:none;stroke:red;stroke-width:1px;stroke-linecap:butt;stroke-linejoin:miter;stroke-opacity:1" d="M 187.118,893.243 191.729,898.513 z" id="boundary" inkscape:connector-curvature="0" />
	<path style="fill:none;stroke:red;stroke-width:1px;stroke-linecap:butt;stroke-linejoin:miter;stroke-opacity:1" d="M 189.094,34.9588 194.364,30.3479 z" id="boundary" inkscape:connector-curvature="0" />
	<path style="fill:none;stroke:red;stroke-width:1px;stroke-linecap:butt;stroke-linejoin:miter;stroke-opacity:1" d="M 191.729,898.513 196.999,903.124 z" id="boundary" inkscape:connector-curvature="0" />
	<path style="fill:none;stroke:red;stroke-width:1px;stroke-linecap:butt;stroke-linejoin:miter;stroke-opacity:1" d="M 194.364,30.3479 200.292,27.0544 z" id="boundary" inkscape:connector-curvature="0" />
	<path style="fill:none;stroke:red;stroke-width:1px;stroke-linecap:butt;stroke-linejoin:miter;stroke-opacity:1" d="M 196.999,903.124 201.61,908.393 z" id="boundary" inkscape:connector-curvature="0" />
	<path style="fill:none;stroke:red;stroke-width:1px;stroke-linecap:butt;stroke-linejoin:miter;stroke-opacity:1" d="M 200.292,27.0544 205.562,21.7849 z" id="boundary" inkscape:connector-curvature="0" />
	<path style="fill:none;stroke:red;stroke-width:1px;stroke-linecap:butt;stroke-linejoin:miter;stroke-opacity:1" d="M 201.61,908.393 206.879,913.004 z" id="boundary" inkscape:connector-curvature="0" />
	<path style="fill:none;stroke:red;stroke-width:1px;stroke-linecap:butt;stroke-linejoin:miter;stroke-opacity:1" d="M 206.879,913.004 211.49,918.274 z" id="boundary" inkscape:connector-curvature="0" />
	<path style="fill:none;stroke:red;stroke-width:1px;stroke-linecap:butt;stroke-linejoin:miter;stroke-opacity:1" d="M 211.49,918.274 216.76,922.884 z" id="boundary" inkscape:connector-curvature="0" />
	<path style="fill:none;stroke:red;stroke-width:1px;stroke-linecap:butt;stroke-linejoin:miter;stroke-opacity:1" d="M 216.76,922.884 222.029,926.837 z" id="boundary" inkscape:connector-curvature="0" />
	<path style="fill:none;stroke:red;stroke-width:1px;stroke-linecap:butt;stroke-linejoin:miter;stroke-opacity:1" d="M 218.736,15.1979 225.323,11.9044 z" id="boundary" inkscape:connector-curvature="0" />
	<path style="fill:none;stroke:red;stroke-width:1px;stroke-linecap:butt;stroke-linejoin:miter;stroke-opacity:1" d="M 222.029,926.837 227.958,930.13 z" id="boundary" inkscape:connector-curvature="0" />
	<path style="fill:none;stroke:red;stroke-width:1px;stroke-linecap:butt;stroke-linejoin:miter;stroke-opacity:1" d="M 225.323,11.9044 231.91,10.587 z" id="boundary" inkscape:connector-curvature="0" />
	<path style="fill:none;stroke:red;stroke-width:1px;stroke-linecap:butt;stroke-linejoin:miter;stroke-opacity:1" d="M 227.958,930.13 231.91,935.4 z" id="boundary" inkscape:connector-curvature="0" />
	<path style="fill:none;stroke:red;stroke-width:1px;stroke-linecap:butt;stroke-linejoin:miter;stroke-opacity:1" d="M 231.91,10.587 237.838,7.29349 z" id="boundary" inkscape:connector-curvature="0" />
	<path style="fill:none;stroke:red;stroke-width:1px;stroke-linecap:butt;stroke-linejoin:miter;stroke-opacity:1" d="M 231.91,935.4 237.179,940.011 z" id="boundary" inkscape:connector-curvature="0" />
	<path style="fill:none;stroke:red;stroke-width:1px;stroke-linecap:butt;stroke-linejoin:miter;stroke-opacity:1" d="M 237.179,940.011 241.79,945.28 z" id="boundary" inkscape:connector-curvature="0" />
	<path style="fill:none;stroke:red;stroke-width:1px;stroke-linecap:butt;stroke-linejoin:miter;stroke-opacity:1" d="M 241.79,945.28 247.06,949.891 z" id="boundary" inkscape:connector-curvature="0" />
	<path style="fill:none;stroke:red;stroke-width:1px;stroke-linecap:butt;stroke-linejoin:miter;stroke-opacity:1" d="M 247.06,949.891 252.988,953.185 z" id="boundary" inkscape:connector-curvature="0" />
	<path style="fill:none;stroke:red;stroke-width:1px;stroke-linecap:butt;stroke-linejoin:miter;stroke-opacity:1" d="M 252.988,953.185 259.575,955.819 z" id="boundary" inkscape:connector-curvature="0" />
	<path style="fill:none;stroke:red;stroke-width:1px;stroke-linecap:butt;stroke-linejoin:miter;stroke-opacity:1" d="M 259.575,955.819 264.186,961.089 z" id="boundary" inkscape:connector-curvature="0" />
	<path style="fill:none;stroke:red;stroke-width:1px;stroke-linecap:butt;stroke-linejoin:miter;stroke-opacity:1" d="M 264.186,961.089 269.456,965.7 z" id="boundary" inkscape:connector-curvature="0" />
	<path style="fill:none;stroke:red;stroke-width:1px;stroke-linecap:butt;stroke-linejoin:miter;stroke-opacity:1" d="M 269.456,965.7 275.384,968.993 z" id="boundary" inkscape:connector-curvature="0" />
	<path style="fill:none;stroke:red;stroke-width:1px;stroke-linecap:butt;stroke-linejoin:miter;stroke-opacity:1" d="M 275.384,968.993 280.653,972.946 z" id="boundary" inkscape:connector-curvature="0" />
	<path style="fill:none;stroke:red;stroke-width:1px;stroke-linecap:butt;stroke-linejoin:miter;stroke-opacity:1" d="M 280.653,972.946 286.582,976.239 z" id="boundary" inkscape:connector-curvature="0" />
	<path style="fill:none;stroke:red;stroke-width:1px;stroke-linecap:butt;stroke-linejoin:miter;stroke-opacity:1" d="M 286.582,976.239 291.193,981.509 z" id="boundary" inkscape:connector-curvature="0" />
	<path style="fill:none;stroke:red;stroke-width:1px;stroke-linecap:butt;stroke-linejoin:miter;stroke-opacity:1" d="M 291.193,981.509 297.78,982.826 z" id="boundary" inkscape:connector-curvature="0" />
	<path style="fill:none;stroke:red;stroke-width:1px;stroke-linecap:butt;stroke-linejoin:miter;stroke-opacity:1" d="M 297.78,982.826 303.708,986.12 z" id="boundary" inkscape:connector-curvature="0" />
	<path style="fill:none;stroke:red;stroke-width:1px;stroke-linecap:butt;stroke-linejoin:miter;stroke-opacity:1" d="M 303.708,986.12 307.66,991.389 z" id="boundary" inkscape:connector-curvature="0" />
	<path style="fill:none;stroke:red;stroke-width:1px;stroke-linecap:butt;stroke-linejoin:miter;stroke-opacity:1" d="M 316.882,7.29349 323.469,8.61089 z" id="boundary" inkscape:connector-curvature="0" />
	<path style="fill:none;stroke:red;stroke-width:1px;stroke-linecap:butt;stroke-linejoin:miter;stroke-opacity:1" d="M 323.469,8.61089 329.397,11.9044 z" id="boundary" inkscape:connector-curvature="0" />
	<path style="fill:none;stroke:red;stroke-width:1px;stroke-linecap:butt;stroke-linejoin:miter;stroke-opacity:1" d="M 329.397,11.9044 335.984,13.8805 z" id="boundary" inkscape:connector-curvature="0" />
	<path style="fill:none;stroke:red;stroke-width:1px;stroke-linecap:butt;stroke-linejoin:miter;stroke-opacity:1" d="M 335.984,13.8805 341.912,17.174 z" id="boundary" inkscape:connector-curvature="0" />
	<path style="fill:none;stroke:red;stroke-width:1px;stroke-linecap:butt;stroke-linejoin:miter;stroke-opacity:1" d="M 341.912,17.174 347.841,20.4675 z" id="boundary" inkscape:connector-curvature="0" />
	<path style="fill:none;stroke:red;stroke-width:1px;stroke-linecap:butt;stroke-linejoin:miter;stroke-opacity:1" d="M 346.523,990.73 353.11,989.413 z" id="boundary" inkscape:connector-curvature="0" />
	<path style="fill:none;stroke:red;stroke-width:1px;stroke-linecap:butt;stroke-linejoin:miter;stroke-opacity:1" d="M 347.841,20.4675 354.428,20.4675 z" id="boundary" inkscape:connector-curvature="0" />
	<path style="fill:none;stroke:red;stroke-width:1px;stroke-linecap:butt;stroke-linejoin:miter;stroke-opacity:1" d="M 353.11,989.413 359.697,987.437 z" id="boundary" inkscape:connector-curvature="0" />
	<path style="fill:none;stroke:red;stroke-width:1px;stroke-linecap:butt;stroke-linejoin:miter;stroke-opacity:1" d="M 359.697,987.437 364.967,982.826 z" id="boundary" inkscape:connector-curvature="0" />
	<path style="fill:none;stroke:red;stroke-width:1px;stroke-linecap:butt;stroke-linejoin:miter;stroke-opacity:1" d="M 364.967,982.826 371.554,982.167 z" id="boundary" inkscape:connector-curvature="0" />
	<path style="fill:none;stroke:red;stroke-width:1px;stroke-linecap:butt;stroke-linejoin:miter;stroke-opacity:1" d="M 366.943,23.761 372.871,27.0544 z" id="boundary" inkscape:connector-curvature="0" />
	<path style="fill:none;stroke:red;stroke-width:1px;stroke-linecap:butt;stroke-linejoin:miter;stroke-opacity:1" d="M 372.871,27.0544 378.799,30.3479 z" id="boundary" inkscape:connector-curvature="0" />
	<path style="fill:none;stroke:red;stroke-width:1px;stroke-linecap:butt;stroke-linejoin:miter;stroke-opacity:1" d="M 378.799,30.3479 384.728,33.6414 z" id="boundary" inkscape:connector-curvature="0" />
	<path style="fill:none;stroke:red;stroke-width:1px;stroke-linecap:butt;stroke-linejoin:miter;stroke-opacity:1" d="M 384.728,33.6414 395.926,41.5458 z" id="boundary" inkscape:connector-curvature="0" />
	<path style="fill:none;stroke:red;stroke-width:1px;stroke-linecap:butt;stroke-linejoin:miter;stroke-opacity:1" d="M 384.728,976.239 390.656,972.946 z" id="boundary" inkscape:connector-curvature="0" />
	<path style="fill:none;stroke:red;stroke-width:1px;stroke-linecap:butt;stroke-linejoin:miter;stroke-opacity:1" d="M 390.656,972.946 396.584,969.652 z" id="boundary" inkscape:connector-curvature="0" />
	<path style="fill:none;stroke:red;stroke-width:1px;stroke-linecap:butt;stroke-linejoin:miter;stroke-opacity:1" d="M 395.926,41.5458 399.878,46.8154 z" id="boundary" inkscape:connector-curvature="0" />
	<path style="fill:none;stroke:red;stroke-width:1px;stroke-linecap:butt;stroke-linejoin:miter;stroke-opacity:1" d="M 396.584,969.652 401.854,965.041 z" id="boundary" inkscape:connector-curvature="0" />
	<path style="fill:none;stroke:red;stroke-width:1px;stroke-linecap:butt;stroke-linejoin:miter;stroke-opacity:1" d="M 399.878,46.8154 407.782,57.3546 z" id="boundary" inkscape:connector-curvature="0" />
	<path style="fill:none;stroke:red;stroke-width:1px;stroke-linecap:butt;stroke-linejoin:miter;stroke-opacity:1" d="M 401.854,965.041 406.465,959.772 z" id="boundary" inkscape:connector-curvature="0" />
	<path style="fill:none;stroke:red;stroke-width:1px;stroke-linecap:butt;stroke-linejoin:miter;stroke-opacity:1" d="M 407.782,57.3546 414.369,59.9894 z" id="boundary" inkscape:connector-curvature="0" />
	<path style="fill:none;stroke:red;stroke-width:1px;stroke-linecap:butt;stroke-linejoin:miter;stroke-opacity:1" d="M 414.369,59.9894 419.639,54.7198 z" id="boundary" inkscape:connector-curvature="0" />
	<path style="fill:none;stroke:red;stroke-width:1px;stroke-linecap:butt;stroke-linejoin:miter;stroke-opacity:1" d="M 419.639,54.7198 424.908,50.1089 z" id="boundary" inkscape:connector-curvature="0" />
	<path style="fill:none;stroke:red;stroke-width:1px;stroke-linecap:butt;stroke-linejoin:miter;stroke-opacity:1" d="M 419.639,953.185 426.226,949.891 z" id="boundary" inkscape:connector-curvature="0" />
	<path style="fill:none;stroke:red;stroke-width:1px;stroke-linecap:butt;stroke-linejoin:miter;stroke-opacity:1" d="M 424.908,50.1089 430.837,46.8154 z" id="boundary" inkscape:connector-curvature="0" />
	<path style="fill:none;stroke:red;stroke-width:1px;stroke-linecap:butt;stroke-linejoin:miter;stroke-opacity:1" d="M 426.226,949.891 431.495,945.28 z" id="boundary" inkscape:connector-curvature="0" />
	<path style="fill:none;stroke:red;stroke-width:1px;stroke-linecap:butt;stroke-linejoin:miter;stroke-opacity:1" d="M 430.837,46.8154 437.424,43.5219 z" id="boundary" inkscape:connector-curvature="0" />
	<path style="fill:none;stroke:red;stroke-width:1px;stroke-linecap:butt;stroke-linejoin:miter;stroke-opacity:1" d="M 431.495,945.28 435.448,940.011 z" id="boundary" inkscape:connector-curvature="0" />
	<path style="fill:none;stroke:red;stroke-width:1px;stroke-linecap:butt;stroke-linejoin:miter;stroke-opacity:1" d="M 435.448,940.011 441.376,936.717 z" id="boundary" inkscape:connector-curvature="0" />
	<path style="fill:none;stroke:red;stroke-width:1px;stroke-linecap:butt;stroke-linejoin:miter;stroke-opacity:1" d="M 437.424,43.5219 444.011,43.5219 z" id="boundary" inkscape:connector-curvature="0" />
	<path style="fill:none;stroke:red;stroke-width:1px;stroke-linecap:butt;stroke-linejoin:miter;stroke-opacity:1" d="M 441.376,936.717 445.987,930.13 z" id="boundary" inkscape:connector-curvature="0" />
	<path style="fill:none;stroke:red;stroke-width:1px;stroke-linecap:butt;stroke-linejoin:miter;stroke-opacity:1" d="M 444.011,43.5219 449.939,40.2284 z" id="boundary" inkscape:connector-curvature="0" />
	<path style="fill:none;stroke:red;stroke-width:1px;stroke-linecap:butt;stroke-linejoin:miter;stroke-opacity:1" d="M 445.987,930.13 451.256,925.519 z" id="boundary" inkscape:connector-curvature="0" />
	<path style="fill:none;stroke:red;stroke-width:1px;stroke-linecap:butt;stroke-linejoin:miter;stroke-opacity:1" d="M 449.939,40.2284 455.867,36.9349 z" id="boundary" inkscape:connector-curvature="0" />
	<path style="fill:none;stroke:red;stroke-width:1px;stroke-linecap:butt;stroke-linejoin:miter;stroke-opacity:1" d="M 451.256,925.519 455.867,920.25 z" id="boundary" inkscape:connector-curvature="0" />
	<path style="fill:none;stroke:red;stroke-width:1px;stroke-linecap:butt;stroke-linejoin:miter;stroke-opacity:1" d="M 455.867,920.25 461.137,915.639 z" id="boundary" inkscape:connector-curvature="0" />
	<path style="fill:none;stroke:red;stroke-width:1px;stroke-linecap:butt;stroke-linejoin:miter;stroke-opacity:1" d="M 461.137,915.639 464.43,909.052 z" id="boundary" inkscape:connector-curvature="0" />
	<path style="fill:none;stroke:red;stroke-width:1px;stroke-linecap:butt;stroke-linejoin:miter;stroke-opacity:1" d="M 464.43,909.052 469.041,903.782 z" id="boundary" inkscape:connector-curvature="0" />
	<path style="fill:none;stroke:red;stroke-width:1px;stroke-linecap:butt;stroke-linejoin:miter;stroke-opacity:1" d="M 469.041,903.782 472.335,897.195 z" id="boundary" inkscape:connector-curvature="0" />
	<path style="fill:none;stroke:red;stroke-width:1px;stroke-linecap:butt;stroke-linejoin:miter;stroke-opacity:1" d="M 482.215,884.021 487.485,879.41 z" id="boundary" inkscape:connector-curvature="0" />
	<path style="fill:none;stroke:red;stroke-width:1px;stroke-linecap:butt;stroke-linejoin:miter;stroke-opacity:1" d="M 487.485,879.41 495.389,864.26 z" id="boundary" inkscape:connector-curvature="0" />
	<path style="fill:none;stroke:red;stroke-width:1px;stroke-linecap:butt;stroke-linejoin:miter;stroke-opacity:1" d="M 495.389,864.26 498.683,857.673 z" id="boundary" inkscape:connector-curvature="0" />
	<path style="fill:none;stroke:red;stroke-width:1px;stroke-linecap:butt;stroke-linejoin:miter;stroke-opacity:1" d="M 498.683,857.673 507.246,846.475 z" id="boundary" inkscape:connector-curvature="0" />
	<path style="fill:none;stroke:red;stroke-width:1px;stroke-linecap:butt;stroke-linejoin:miter;stroke-opacity:1" d="M 507.246,846.475 508.563,834.619 z" id="boundary" inkscape:connector-curvature="0" />
	<path style="fill:none;stroke:red;stroke-width:1px;stroke-linecap:butt;stroke-linejoin:miter;stroke-opacity:1" d="M 508.563,834.619 515.15,821.445 z" id="boundary" inkscape:connector-curvature="0" />
	<path style="fill:none;stroke:red;stroke-width:1px;stroke-linecap:butt;stroke-linejoin:miter;stroke-opacity:1" d="M 514.491,48.1328 518.444,53.4024 z" id="boundary" inkscape:connector-curvature="0" />
	<path style="fill:none;stroke:red;stroke-width:1px;stroke-linecap:butt;stroke-linejoin:miter;stroke-opacity:1" d="M 515.15,821.445 518.444,808.271 z" id="boundary" inkscape:connector-curvature="0" />
	<path style="fill:none;stroke:red;stroke-width:1px;stroke-linecap:butt;stroke-linejoin:miter;stroke-opacity:1" d="M 518.444,53.4024 524.372,56.6959 z" id="boundary" inkscape:connector-curvature="0" />
	<path style="fill:none;stroke:red;stroke-width:1px;stroke-linecap:butt;stroke-linejoin:miter;stroke-opacity:1" d="M 518.444,808.271 521.737,798.39 z" id="boundary" inkscape:connector-curvature="0" />
	<path style="fill:none;stroke:red;stroke-width:1px;stroke-linecap:butt;stroke-linejoin:miter;stroke-opacity:1" d="M 521.737,732.521 521.737,739.108 z" id="boundary" inkscape:connector-curvature="0" />
	<path style="fill:none;stroke:red;stroke-width:1px;stroke-linecap:butt;stroke-linejoin:miter;stroke-opacity:1" d="M 521.737,732.521 525.031,722.64 z" id="boundary" inkscape:connector-curvature="0" />
	<path style="fill:none;stroke:red;stroke-width:1px;stroke-linecap:butt;stroke-linejoin:miter;stroke-opacity:1" d="M 521.737,739.108 521.737,752.282 z" id="boundary" inkscape:connector-curvature="0" />
	<path style="fill:none;stroke:red;stroke-width:1px;stroke-linecap:butt;stroke-linejoin:miter;stroke-opacity:1" d="M 521.737,752.282 521.737,765.456 z" id="boundary" inkscape:connector-curvature="0" />
	<path style="fill:none;stroke:red;stroke-width:1px;stroke-linecap:butt;stroke-linejoin:miter;stroke-opacity:1" d="M 521.737,765.456 521.737,772.042 z" id="boundary" inkscape:connector-curvature="0" />
	<path style="fill:none;stroke:red;stroke-width:1px;stroke-linecap:butt;stroke-linejoin:miter;stroke-opacity:1" d="M 521.737,772.042 521.737,785.216 z" id="boundary" inkscape:connector-curvature="0" />
	<path style="fill:none;stroke:red;stroke-width:1px;stroke-linecap:butt;stroke-linejoin:miter;stroke-opacity:1" d="M 521.737,785.216 521.737,798.39 z" id="boundary" inkscape:connector-curvature="0" />
	<path style="fill:none;stroke:red;stroke-width:1px;stroke-linecap:butt;stroke-linejoin:miter;stroke-opacity:1" d="M 524.372,56.6959 529.641,60.6481 z" id="boundary" inkscape:connector-curvature="0" />
	<path style="fill:none;stroke:red;stroke-width:1px;stroke-linecap:butt;stroke-linejoin:miter;stroke-opacity:1" d="M 525.031,722.64 528.324,716.053 z" id="boundary" inkscape:connector-curvature="0" />
	<path style="fill:none;stroke:red;stroke-width:1px;stroke-linecap:butt;stroke-linejoin:miter;stroke-opacity:1" d="M 528.324,716.053 533.594,711.442 z" id="boundary" inkscape:connector-curvature="0" />
	<path style="fill:none;stroke:red;stroke-width:1px;stroke-linecap:butt;stroke-linejoin:miter;stroke-opacity:1" d="M 529.641,60.6481 534.911,65.259 z" id="boundary" inkscape:connector-curvature="0" />
	<path style="fill:none;stroke:red;stroke-width:1px;stroke-linecap:butt;stroke-linejoin:miter;stroke-opacity:1" d="M 534.911,65.259 538.205,71.1873 z" id="boundary" inkscape:connector-curvature="0" />
	<path style="fill:none;stroke:red;stroke-width:1px;stroke-linecap:butt;stroke-linejoin:miter;stroke-opacity:1" d="M 538.205,71.1873 542.157,76.4568 z" id="boundary" inkscape:connector-curvature="0" />
	<path style="fill:none;stroke:red;stroke-width:1px;stroke-linecap:butt;stroke-linejoin:miter;stroke-opacity:1" d="M 538.205,696.292 546.768,685.094 z" id="boundary" inkscape:connector-curvature="0" />
	<path style="fill:none;stroke:red;stroke-width:1px;stroke-linecap:butt;stroke-linejoin:miter;stroke-opacity:1" d="M 542.157,76.4568 547.426,81.0677 z" id="boundary" inkscape:connector-curvature="0" />
	<path style="fill:none;stroke:red;stroke-width:1px;stroke-linecap:butt;stroke-linejoin:miter;stroke-opacity:1" d="M 546.768,685.094 548.085,676.531 z" id="boundary" inkscape:connector-curvature="0" />
	<path style="fill:none;stroke:red;stroke-width:1px;stroke-linecap:butt;stroke-linejoin:miter;stroke-opacity:1" d="M 547.426,81.0677 550.061,87.6547 z" id="boundary" inkscape:connector-curvature="0" />
	<path style="fill:none;stroke:red;stroke-width:1px;stroke-linecap:butt;stroke-linejoin:miter;stroke-opacity:1" d="M 548.085,676.531 551.378,666.651 z" id="boundary" inkscape:connector-curvature="0" />
	<path style="fill:none;stroke:red;stroke-width:1px;stroke-linecap:butt;stroke-linejoin:miter;stroke-opacity:1" d="M 550.061,87.6547 554.672,92.9243 z" id="boundary" inkscape:connector-curvature="0" />
	<path style="fill:none;stroke:red;stroke-width:1px;stroke-linecap:butt;stroke-linejoin:miter;stroke-opacity:1" d="M 551.378,660.064 551.378,666.651 z" id="boundary" inkscape:connector-curvature="0" />
	<path style="fill:none;stroke:red;stroke-width:1px;stroke-linecap:butt;stroke-linejoin:miter;stroke-opacity:1" d="M 551.378,660.064 554.672,650.183 z" id="boundary" inkscape:connector-curvature="0" />
	<path style="fill:none;stroke:red;stroke-width:1px;stroke-linecap:butt;stroke-linejoin:miter;stroke-opacity:1" d="M 554.672,92.9243 557.965,98.8526 z" id="boundary" inkscape:connector-curvature="0" />
	<path style="fill:none;stroke:red;stroke-width:1px;stroke-linecap:butt;stroke-linejoin:miter;stroke-opacity:1" d="M 554.672,643.596 554.672,650.183 z" id="boundary" inkscape:connector-curvature="0" />
	<path style="fill:none;stroke:red;stroke-width:1px;stroke-linecap:butt;stroke-linejoin:miter;stroke-opacity:1" d="M 554.672,643.596 557.965,633.716 z" id="boundary" inkscape:connector-curvature="0" />
	<path style="fill:none;stroke:red;stroke-width:1px;stroke-linecap:butt;stroke-linejoin:miter;stroke-opacity:1" d="M 557.965,98.8526 561.259,104.781 z" id="boundary" inkscape:connector-curvature="0" />
	<path style="fill:none;stroke:red;stroke-width:1px;stroke-linecap:butt;stroke-linejoin:miter;stroke-opacity:1" d="M 557.965,607.368 557.965,620.542 z" id="boundary" inkscape:connector-curvature="0" />
	<path style="fill:none;stroke:red;stroke-width:1px;stroke-linecap:butt;stroke-linejoin:miter;stroke-opacity:1" d="M 557.965,620.542 557.965,633.716 z" id="boundary" inkscape:connector-curvature="0" />
	<path style="fill:none;stroke:red;stroke-width:1px;stroke-linecap:butt;stroke-linejoin:miter;stroke-opacity:1" d="M 561.259,104.781 564.552,110.709 z" id="boundary" inkscape:connector-curvature="0" />
	<path style="fill:none;stroke:red;stroke-width:1px;stroke-linecap:butt;stroke-linejoin:miter;stroke-opacity:1" d="M 577.726,607.368 587.607,594.194 z" id="boundary" inkscape:connector-curvature="0" />
	<path style="fill:none;stroke:red;stroke-width:1px;stroke-linecap:butt;stroke-linejoin:miter;stroke-opacity:1" d="M 584.313,370.236 584.313,376.823 z" id="boundary" inkscape:connector-curvature="0" />
	<path style="fill:none;stroke:red;stroke-width:1px;stroke-linecap:butt;stroke-linejoin:miter;stroke-opacity:1" d="M 584.313,376.823 584.313,383.41 z" id="boundary" inkscape:connector-curvature="0" />
	<path style="fill:none;stroke:red;stroke-width:1px;stroke-linecap:butt;stroke-linejoin:miter;stroke-opacity:1" d="M 584.313,383.41 587.607,389.339 z" id="boundary" inkscape:connector-curvature="0" />
	<path style="fill:none;stroke:red;stroke-width:1px;stroke-linecap:butt;stroke-linejoin:miter;stroke-opacity:1" d="M 587.607,389.339 587.607,395.926 z" id="boundary" inkscape:connector-curvature="0" />
	<path style="fill:none;stroke:red;stroke-width:1px;stroke-linecap:butt;stroke-linejoin:miter;stroke-opacity:1" d="M 587.607,395.926 590.9,401.854 z" id="boundary" inkscape:connector-curvature="0" />
	<path style="fill:none;stroke:red;stroke-width:1px;stroke-linecap:butt;stroke-linejoin:miter;stroke-opacity:1" d="M 587.607,594.194 594.194,581.02 z" id="boundary" inkscape:connector-curvature="0" />
	<path style="fill:none;stroke:red;stroke-width:1px;stroke-linecap:butt;stroke-linejoin:miter;stroke-opacity:1" d="M 594.194,581.02 600.781,567.846 z" id="boundary" inkscape:connector-curvature="0" />
	<path style="fill:none;stroke:red;stroke-width:1px;stroke-linecap:butt;stroke-linejoin:miter;stroke-opacity:1" d="M 600.781,567.846 604.074,551.378 z" id="boundary" inkscape:connector-curvature="0" />
	<path style="fill:none;stroke:red;stroke-width:1px;stroke-linecap:butt;stroke-linejoin:miter;stroke-opacity:1" d="M 602.757,405.806 609.344,406.465 z" id="boundary" inkscape:connector-curvature="0" />
	<path style="fill:none;stroke:red;stroke-width:1px;stroke-linecap:butt;stroke-linejoin:miter;stroke-opacity:1" d="M 604.074,538.205 604.074,551.378 z" id="boundary" inkscape:connector-curvature="0" />
	<path style="fill:none;stroke:red;stroke-width:1px;stroke-linecap:butt;stroke-linejoin:miter;stroke-opacity:1" d="M 604.074,538.205 607.368,525.031 z" id="boundary" inkscape:connector-curvature="0" />
	<path style="fill:none;stroke:red;stroke-width:1px;stroke-linecap:butt;stroke-linejoin:miter;stroke-opacity:1" d="M 607.368,472.335 607.368,485.509 z" id="boundary" inkscape:connector-curvature="0" />
	<path style="fill:none;stroke:red;stroke-width:1px;stroke-linecap:butt;stroke-linejoin:miter;stroke-opacity:1" d="M 607.368,472.335 610.661,455.867 z" id="boundary" inkscape:connector-curvature="0" />
	<path style="fill:none;stroke:red;stroke-width:1px;stroke-linecap:butt;stroke-linejoin:miter;stroke-opacity:1" d="M 607.368,492.096 607.368,505.27 z" id="boundary" inkscape:connector-curvature="0" />
	<path style="fill:none;stroke:red;stroke-width:1px;stroke-linecap:butt;stroke-linejoin:miter;stroke-opacity:1" d="M 607.368,505.27 607.368,518.444 z" id="boundary" inkscape:connector-curvature="0" />
	<path style="fill:none;stroke:red;stroke-width:1px;stroke-linecap:butt;stroke-linejoin:miter;stroke-opacity:1" d="M 607.368,518.444 607.368,525.031 z" id="boundary" inkscape:connector-curvature="0" />
	<path style="fill:none;stroke:red;stroke-width:1px;stroke-linecap:butt;stroke-linejoin:miter;stroke-opacity:1" d="M 609.344,406.465 611.979,413.052 z" id="boundary" inkscape:connector-curvature="0" />
	<path style="fill:none;stroke:red;stroke-width:1px;stroke-linecap:butt;stroke-linejoin:miter;stroke-opacity:1" d="M 610.661,449.28 610.661,455.867 z" id="boundary" inkscape:connector-curvature="0" />
	<path style="fill:none;stroke:red;stroke-width:1px;stroke-linecap:butt;stroke-linejoin:miter;stroke-opacity:1" d="M 610.661,449.28 613.955,436.106 z" id="boundary" inkscape:connector-curvature="0" />
	<path style="fill:none;stroke:red;stroke-width:1px;stroke-linecap:butt;stroke-linejoin:miter;stroke-opacity:1" d="M 611.979,413.052 613.955,429.519 z" id="boundary" inkscape:connector-curvature="0" />
	<path style="fill:none;stroke:red;stroke-width:1px;stroke-linecap:butt;stroke-linejoin:miter;stroke-opacity:1" d="M 613.955,429.519 613.955,436.106 z" id="boundary" inkscape:connector-curvature="0" />
	<circle cx="4" cy="467.065" r="4" fill="#0" id="circle0"/>
	<circle cx="4" cy="473.652" r="4" fill="#0" id="circle1"/>
	<circle cx="4" cy="480.239" r="4" fill="#0" id="circle2"/>
	<circle cx="4" cy="486.826" r="4" fill="#0" id="circle3"/>
	<circle cx="4" cy="493.413" r="4" fill="#0" id="circle4"/>
	<circle cx="7.29349" cy="499.341" r="4" fill="#0" id="circle5"/>
	<circle cx="7.29349" cy="505.928" r="4" fill="#0" id="circle6"/>
	<circle cx="9.26959" cy="461.795" r="4" fill="#0" id="circle7"/>
	<circle cx="10.587" cy="511.857" r="4" fill="#0" id="circle8"/>
	<circle cx="12.5631" cy="455.208" r="4" fill="#0" id="circle9"/>
	<circle cx="14.5392" cy="517.126" r="4" fill="#0" id="circle10"/>
	<circle cx="17.8327" cy="449.939" r="4" fill="#0" id="circle11"/>
	<circle cx="19.8088" cy="521.737" r="4" fill="#0" id="circle12"/>
	<circle cx="22.4436" cy="528.324" r="4" fill="#0" id="circle13"/>
	<circle cx="23.1023" cy="445.328" r="4" fill="#0" id="circle14"/>
	<circle cx="27.7131" cy="532.935" r="4" fill="#0" id="circle15"/>
	<circle cx="29.0305" cy="442.035" r="4" fill="#0" id="circle16"/>
	<circle cx="30.3479" cy="539.522" r="4" fill="#0" id="circle17"/>
	<circle cx="35.6175" cy="442.035" r="4" fill="#0" id="circle18"/>
	<circle cx="35.6175" cy="544.133" r="4" fill="#0" id="circle19"/>
	<circle cx="40.2284" cy="549.402" r="4" fill="#0" id="circle20"/>
	<circle cx="42.2045" cy="442.035" r="4" fill="#0" id="circle21"/>
	<circle cx="43.5219" cy="555.331" r="4" fill="#0" id="circle22"/>
	<circle cx="46.8154" cy="561.259" r="4" fill="#0" id="circle23"/>
	<circle cx="48.7915" cy="442.035" r="4" fill="#0" id="circle24"/>
	<circle cx="50.1089" cy="285.923" r="4" fill="#0" id="circle25"/>
	<circle cx="50.1089" cy="292.51" r="4" fill="#0" id="circle26"/>
	<circle cx="50.1089" cy="299.097" r="4" fill="#0" id="circle27"/>
	<circle cx="50.1089" cy="305.684" r="4" fill="#0" id="circle28"/>
	<circle cx="50.1089" cy="312.271" r="4" fill="#0" id="circle29"/>
	<circle cx="50.1089" cy="318.858" r="4" fill="#0" id="circle30"/>
	<circle cx="50.1089" cy="325.445" r="4" fill="#0" id="circle31"/>
	<circle cx="50.1089" cy="332.032" r="4" fill="#0" id="circle32"/>
	<circle cx="50.1089" cy="338.619" r="4" fill="#0" id="circle33"/>
	<circle cx="50.1089" cy="345.206" r="4" fill="#0" id="circle34"/>
	<circle cx="50.1089" cy="351.793" r="4" fill="#0" id="circle35"/>
	<circle cx="50.1089" cy="358.38" r="4" fill="#0" id="circle36"/>
	<circle cx="50.1089" cy="364.967" r="4" fill="#0" id="circle37"/>
	<circle cx="50.1089" cy="371.554" r="4" fill="#0" id="circle38"/>
	<circle cx="50.1089" cy="378.141" r="4" fill="#0" id="circle39"/>
	<circle cx="50.1089" cy="384.728" r="4" fill="#0" id="circle40"/>
	<circle cx="50.1089" cy="391.315" r="4" fill="#0" id="circle41"/>
	<circle cx="50.1089" cy="397.902" r="4" fill="#0" id="circle42"/>
	<circle cx="50.1089" cy="567.187" r="4" fill="#0" id="circle43"/>
	<circle cx="51.4263" cy="573.774" r="4" fill="#0" id="circle44"/>
	<circle cx="53.4024" cy="276.042" r="4" fill="#0" id="circle45"/>
	<circle cx="53.4024" cy="403.83" r="4" fill="#0" id="circle46"/>
	<circle cx="53.4024" cy="410.417" r="4" fill="#0" id="circle47"/>
	<circle cx="53.4024" cy="417.004" r="4" fill="#0" id="circle48"/>
	<circle cx="53.4024" cy="580.361" r="4" fill="#0" id="circle49"/>
	<circle cx="55.3785" cy="442.035" r="4" fill="#0" id="circle50"/>
	<circle cx="56.6959" cy="262.869" r="4" fill="#0" id="circle51"/>
	<circle cx="56.6959" cy="269.456" r="4" fill="#0" id="circle52"/>
	<circle cx="56.6959" cy="422.932" r="4" fill="#0" id="circle53"/>
	<circle cx="56.6959" cy="429.519" r="4" fill="#0" id="circle54"/>
	<circle cx="56.6959" cy="586.29" r="4" fill="#0" id="circle55"/>
	<circle cx="57.3546" cy="592.876" r="4" fill="#0" id="circle56"/>
	<circle cx="58.672" cy="436.106" r="4" fill="#0" id="circle57"/>
	<circle cx="59.9894" cy="256.282" r="4" fill="#0" id="circle58"/>
	<circle cx="60.6481" cy="598.805" r="4" fill="#0" id="circle59"/>
	<circle cx="63.2829" cy="246.401" r="4" fill="#0" id="circle60"/>
	<circle cx="65.259" cy="604.074" r="4" fill="#0" id="circle61"/>
	<circle cx="66.5764" cy="233.227" r="4" fill="#0" id="circle62"/>
	<circle cx="66.5764" cy="239.814" r="4" fill="#0" id="circle63"/>
	<circle cx="69.8699" cy="216.76" r="4" fill="#0" id="circle64"/>
	<circle cx="69.8699" cy="223.347" r="4" fill="#0" id="circle65"/>
	<circle cx="69.8699" cy="609.344" r="4" fill="#0" id="circle66"/>
	<circle cx="73.1633" cy="196.999" r="4" fill="#0" id="circle67"/>
	<circle cx="73.1633" cy="203.586" r="4" fill="#0" id="circle68"/>
	<circle cx="73.1633" cy="210.173" r="4" fill="#0" id="circle69"/>
	<circle cx="73.1633" cy="615.272" r="4" fill="#0" id="circle70"/>
	<circle cx="76.4568" cy="177.238" r="4" fill="#0" id="circle71"/>
	<circle cx="76.4568" cy="183.825" r="4" fill="#0" id="circle72"/>
	<circle cx="76.4568" cy="190.412" r="4" fill="#0" id="circle73"/>
	<circle cx="78.4329" cy="619.883" r="4" fill="#0" id="circle74"/>
	<circle cx="79.7503" cy="167.357" r="4" fill="#0" id="circle75"/>
	<circle cx="81.0677" cy="626.47" r="4" fill="#0" id="circle76"/>
	<circle cx="83.0438" cy="160.77" r="4" fill="#0" id="circle77"/>
	<circle cx="86.3373" cy="154.183" r="4" fill="#0" id="circle78"/>
	<circle cx="86.3373" cy="630.422" r="4" fill="#0" id="circle79"/>
	<circle cx="89.6308" cy="147.596" r="4" fill="#0" id="circle80"/>
	<circle cx="90.2895" cy="635.692" r="4" fill="#0" id="circle81"/>
	<circle cx="92.9243" cy="141.009" r="4" fill="#0" id="circle82"/>
	<circle cx="96.8765" cy="638.327" r="4" fill="#0" id="circle83"/>
	<circle cx="98.1939" cy="135.74" r="4" fill="#0" id="circle84"/>
	<circle cx="101.487" cy="643.596" r="4" fill="#0" id="circle85"/>
	<circle cx="102.805" cy="127.835" r="4" fill="#0" id="circle86"/>
	<circle cx="108.074" cy="122.566" r="4" fill="#0" id="circle87"/>
	<circle cx="108.074" cy="646.231" r="4" fill="#0" id="circle88"/>
	<circle cx="109.392" cy="652.818" r="4" fill="#0" id="circle89"/>
	<circle cx="109.392" cy="659.405" r="4" fill="#0" id="circle90"/>
	<circle cx="109.392" cy="665.992" r="4" fill="#0" id="circle91"/>
	<circle cx="109.392" cy="672.579" r="4" fill="#0" id="circle92"/>
	<circle cx="109.392" cy="679.166" r="4" fill="#0" id="circle93"/>
	<circle cx="109.392" cy="685.753" r="4" fill="#0" id="circle94"/>
	<circle cx="109.392" cy="692.34" r="4" fill="#0" id="circle95"/>
	<circle cx="109.392" cy="698.927" r="4" fill="#0" id="circle96"/>
	<circle cx="110.709" cy="705.514" r="4" fill="#0" id="circle97"/>
	<circle cx="112.685" cy="712.101" r="4" fill="#0" id="circle98"/>
	<circle cx="113.344" cy="117.296" r="4" fill="#0" id="circle99"/>
	<circle cx="116.637" cy="110.709" r="4" fill="#0" id="circle100"/>
	<circle cx="116.637" cy="717.371" r="4" fill="#0" id="circle101"/>
	<circle cx="119.272" cy="723.958" r="4" fill="#0" id="circle102"/>
	<circle cx="119.931" cy="104.122" r="4" fill="#0" id="circle103"/>
	<circle cx="122.566" cy="729.886" r="4" fill="#0" id="circle104"/>
	<circle cx="125.201" cy="99.5113" r="4" fill="#0" id="circle105"/>
	<circle cx="127.177" cy="735.155" r="4" fill="#0" id="circle106"/>
	<circle cx="129.811" cy="94.2417" r="4" fill="#0" id="circle107"/>
	<circle cx="130.47" cy="741.084" r="4" fill="#0" id="circle108"/>
	<circle cx="133.105" cy="747.671" r="4" fill="#0" id="circle109"/>
	<circle cx="135.081" cy="89.6308" r="4" fill="#0" id="circle110"/>
	<circle cx="138.375" cy="752.282" r="4" fill="#0" id="circle111"/>
	<circle cx="139.692" cy="84.3612" r="4" fill="#0" id="circle112"/>
	<circle cx="144.303" cy="755.575" r="4" fill="#0" id="circle113"/>
	<circle cx="144.961" cy="79.7503" r="4" fill="#0" id="circle114"/>
	<circle cx="147.596" cy="761.503" r="4" fill="#0" id="circle115"/>
	<circle cx="149.572" cy="74.4807" r="4" fill="#0" id="circle116"/>
	<circle cx="152.866" cy="765.456" r="4" fill="#0" id="circle117"/>
	<circle cx="154.842" cy="69.8699" r="4" fill="#0" id="circle118"/>
	<circle cx="155.501" cy="803.001" r="4" fill="#0" id="circle119"/>
	<circle cx="155.501" cy="809.588" r="4" fill="#0" id="circle120"/>
	<circle cx="155.501" cy="816.175" r="4" fill="#0" id="circle121"/>
	<circle cx="155.501" cy="822.762" r="4" fill="#0" id="circle122"/>
	<circle cx="155.501" cy="829.349" r="4" fill="#0" id="circle123"/>
	<circle cx="155.501" cy="835.936" r="4" fill="#0" id="circle124"/>
	<circle cx="155.501" cy="842.523" r="4" fill="#0" id="circle125"/>
	<circle cx="155.501" cy="849.11" r="4" fill="#0" id="circle126"/>
	<circle cx="158.794" cy="768.749" r="4" fill="#0" id="circle127"/>
	<circle cx="158.794" cy="786.534" r="4" fill="#0" id="circle128"/>
	<circle cx="158.794" cy="793.121" r="4" fill="#0" id="circle129"/>
	<circle cx="158.794" cy="855.039" r="4" fill="#0" id="circle130"/>
	<circle cx="159.453" cy="64.6003" r="4" fill="#0" id="circle131"/>
	<circle cx="162.088" cy="774.677" r="4" fill="#0" id="circle132"/>
	<circle cx="162.088" cy="860.967" r="4" fill="#0" id="circle133"/>
	<circle cx="164.064" cy="867.554" r="4" fill="#0" id="circle134"/>
	<circle cx="164.722" cy="59.9894" r="4" fill="#0" id="circle135"/>
	<circle cx="167.357" cy="873.482" r="4" fill="#0" id="circle136"/>
	<circle cx="169.333" cy="54.7198" r="4" fill="#0" id="circle137"/>
	<circle cx="171.968" cy="878.752" r="4" fill="#0" id="circle138"/>
	<circle cx="174.603" cy="50.1089" r="4" fill="#0" id="circle139"/>
	<circle cx="177.238" cy="883.363" r="4" fill="#0" id="circle140"/>
	<circle cx="179.214" cy="44.8393" r="4" fill="#0" id="circle141"/>
	<circle cx="181.849" cy="888.632" r="4" fill="#0" id="circle142"/>
	<circle cx="184.483" cy="40.2284" r="4" fill="#0" id="circle143"/>
	<circle cx="187.118" cy="893.243" r="4" fill="#0" id="circle144"/>
	<circle cx="189.094" cy="34.9588" r="4" fill="#0" id="circle145"/>
	<circle cx="191.729" cy="898.513" r="4" fill="#0" id="circle146"/>
	<circle cx="194.364" cy="30.3479" r="4" fill="#0" id="circle147"/>
	<circle cx="196.999" cy="903.124" r="4" fill="#0" id="circle148"/>
	<circle cx="200.292" cy="27.0544" r="4" fill="#0" id="circle149"/>
	<circle cx="201.61" cy="908.393" r="4" fill="#0" id="circle150"/>
	<circle cx="205.562" cy="21.7849" r="4" fill="#0" id="circle151"/>
	<circle cx="206.879" cy="913.004" r="4" fill="#0" id="circle152"/>
	<circle cx="211.49" cy="918.274" r="4" fill="#0" id="circle153"/>
	<circle cx="212.149" cy="18.4914" r="4" fill="#0" id="circle154"/>
	<circle cx="216.76" cy="922.884" r="4" fill="#0" id="circle155"/>
	<circle cx="218.736" cy="15.1979" r="4" fill="#0" id="circle156"/>
	<circle cx="222.029" cy="926.837" r="4" fill="#0" id="circle157"/>
	<circle cx="225.323" cy="11.9044" r="4" fill="#0" id="circle158"/>
	<circle cx="227.958" cy="930.13" r="4" fill="#0" id="circle159"/>
	<circle cx="231.91" cy="10.587" r="4" fill="#0" id="circle160"/>
	<circle cx="231.91" cy="935.4" r="4" fill="#0" id="circle161"/>
	<circle cx="237.179" cy="940.011" r="4" fill="#0" id="circle162"/>
	<circle cx="237.838" cy="7.29349" r="4" fill="#0" id="circle163"/>
	<circle cx="241.79" cy="945.28" r="4" fill="#0" id="circle164"/>
	<circle cx="244.425" cy="7.29349" r="4" fill="#0" id="circle165"/>
	<circle cx="247.06" cy="949.891" r="4" fill="#0" id="circle166"/>
	<circle cx="251.012" cy="5.9761" r="4" fill="#0" id="circle167"/>
	<circle cx="252.988" cy="953.185" r="4" fill="#0" id="circle168"/>
	<circle cx="257.599" cy="4" r="4" fill="#0" id="circle169"/>
	<circle cx="259.575" cy="955.819" r="4" fill="#0" id="circle170"/>
	<circle cx="264.186" cy="4" r="4" fill="#0" id="circle171"/>
	<circle cx="264.186" cy="961.089" r="4" fill="#0" id="circle172"/>
	<circle cx="269.456" cy="965.7" r="4" fill="#0" id="circle173"/>
	<circle cx="270.773" cy="4" r="4" fill="#0" id="circle174"/>
	<circle cx="275.384" cy="968.993" r="4" fill="#0" id="circle175"/>
	<circle cx="277.36" cy="4" r="4" fill="#0" id="circle176"/>
	<circle cx="280.653" cy="972.946" r="4" fill="#0" id="circle177"/>
	<circle cx="283.947" cy="4" r="4" fill="#0" id="circle178"/>
	<circle cx="286.582" cy="976.239" r="4" fill="#0" id="circle179"/>
	<circle cx="290.534" cy="4" r="4" fill="#0" id="circle180"/>
	<circle cx="291.193" cy="981.509" r="4" fill="#0" id="circle181"/>
	<circle cx="297.121" cy="4" r="4" fill="#0" id="circle182"/>
	<circle cx="297.78" cy="982.826" r="4" fill="#0" id="circle183"/>
	<circle cx="303.708" cy="4" r="4" fill="#0" id="circle184"/>
	<circle cx="303.708" cy="986.12" r="4" fill="#0" id="circle185"/>
	<circle cx="307.66" cy="991.389" r="4" fill="#0" id="circle186"/>
	<circle cx="310.295" cy="5.3174" r="4" fill="#0" id="circle187"/>
	<circle cx="314.247" cy="994.024" r="4" fill="#0" id="circle188"/>
	<circle cx="316.882" cy="7.29349" r="4" fill="#0" id="circle189"/>
	<circle cx="320.834" cy="996" r="4" fill="#0" id="circle190"/>
	<circle cx="323.469" cy="8.61089" r="4" fill="#0" id="circle191"/>
	<circle cx="327.421" cy="996" r="4" fill="#0" id="circle192"/>
	<circle cx="329.397" cy="11.9044" r="4" fill="#0" id="circle193"/>
	<circle cx="334.008" cy="996" r="4" fill="#0" id="circle194"/>
	<circle cx="335.984" cy="13.8805" r="4" fill="#0" id="circle195"/>
	<circle cx="339.936" cy="992.707" r="4" fill="#0" id="circle196"/>
	<circle cx="341.912" cy="17.174" r="4" fill="#0" id="circle197"/>
	<circle cx="346.523" cy="990.73" r="4" fill="#0" id="circle198"/>
	<circle cx="347.841" cy="20.4675" r="4" fill="#0" id="circle199"/>
	<circle cx="353.11" cy="989.413" r="4" fill="#0" id="circle200"/>
	<circle cx="354.428" cy="20.4675" r="4" fill="#0" id="circle201"/>
	<circle cx="359.697" cy="987.437" r="4" fill="#0" id="circle202"/>
	<circle cx="360.356" cy="23.761" r="4" fill="#0" id="circle203"/>
	<circle cx="364.967" cy="982.826" r="4" fill="#0" id="circle204"/>
	<circle cx="366.943" cy="23.761" r="4" fill="#0" id="circle205"/>
	<circle cx="371.554" cy="982.167" r="4" fill="#0" id="circle206"/>
	<circle cx="372.871" cy="27.0544" r="4" fill="#0" id="circle207"/>
	<circle cx="378.141" cy="978.874" r="4" fill="#0" id="circle208"/>
	<circle cx="378.799" cy="30.3479" r="4" fill="#0" id="circle209"/>
	<circle cx="384.728" cy="33.6414" r="4" fill="#0" id="circle210"/>
	<circle cx="384.728" cy="976.239" r="4" fill="#0" id="circle211"/>
	<circle cx="389.339" cy="38.911" r="4" fill="#0" id="circle212"/>
	<circle cx="390.656" cy="972.946" r="4" fill="#0" id="circle213"/>
	<circle cx="395.926" cy="41.5458" r="4" fill="#0" id="circle214"/>
	<circle cx="396.584" cy="969.652" r="4" fill="#0" id="circle215"/>
	<circle cx="399.878" cy="46.8154" r="4" fill="#0" id="circle216"/>
	<circle cx="401.854" cy="965.041" r="4" fill="#0" id="circle217"/>
	<circle cx="405.147" cy="50.7676" r="4" fill="#0" id="circle218"/>
	<circle cx="406.465" cy="959.772" r="4" fill="#0" id="circle219"/>
	<circle cx="407.782" cy="57.3546" r="4" fill="#0" id="circle220"/>
	<circle cx="413.052" cy="956.478" r="4" fill="#0" id="circle221"/>
	<circle cx="414.369" cy="59.9894" r="4" fill="#0" id="circle222"/>
	<circle cx="419.639" cy="54.7198" r="4" fill="#0" id="circle223"/>
	<circle cx="419.639" cy="953.185" r="4" fill="#0" id="circle224"/>
	<circle cx="424.908" cy="50.1089" r="4" fill="#0" id="circle225"/>
	<circle cx="426.226" cy="949.891" r="4" fill="#0" id="circle226"/>
	<circle cx="430.837" cy="46.8154" r="4" fill="#0" id="circle227"/>
	<circle cx="431.495" cy="945.28" r="4" fill="#0" id="circle228"/>
	<circle cx="435.448" cy="940.011" r="4" fill="#0" id="circle229"/>
	<circle cx="437.424" cy="43.5219" r="4" fill="#0" id="circle230"/>
	<circle cx="441.376" cy="936.717" r="4" fill="#0" id="circle231"/>
	<circle cx="444.011" cy="43.5219" r="4" fill="#0" id="circle232"/>
	<circle cx="445.987" cy="930.13" r="4" fill="#0" id="circle233"/>
	<circle cx="449.939" cy="40.2284" r="4" fill="#0" id="circle234"/>
	<circle cx="451.256" cy="925.519" r="4" fill="#0" id="circle235"/>
	<circle cx="455.867" cy="36.9349" r="4" fill="#0" id="circle236"/>
	<circle cx="455.867" cy="920.25" r="4" fill="#0" id="circle237"/>
	<circle cx="461.137" cy="915.639" r="4" fill="#0" id="circle238"/>
	<circle cx="462.454" cy="36.9349" r="4" fill="#0" id="circle239"/>
	<circle cx="464.43" cy="909.052" r="4" fill="#0" id="circle240"/>
	<circle cx="469.041" cy="36.9349" r="4" fill="#0" id="circle241"/>
	<circle cx="469.041" cy="903.782" r="4" fill="#0" id="circle242"/>
	<circle cx="472.335" cy="897.195" r="4" fill="#0" id="circle243"/>
	<circle cx="475.628" cy="36.9349" r="4" fill="#0" id="circle244"/>
	<circle cx="477.604" cy="892.584" r="4" fill="#0" id="circle245"/>
	<circle cx="482.215" cy="36.9349" r="4" fill="#0" id="circle246"/>
	<circle cx="482.215" cy="884.021" r="4" fill="#0" id="circle247"/>
	<circle cx="487.485" cy="879.41" r="4" fill="#0" id="circle248"/>
	<circle cx="488.802" cy="38.911" r="4" fill="#0" id="circle249"/>
	<circle cx="490.778" cy="872.823" r="4" fill="#0" id="circle250"/>
	<circle cx="495.389" cy="40.2284" r="4" fill="#0" id="circle251"/>
	<circle cx="495.389" cy="864.26" r="4" fill="#0" id="circle252"/>
	<circle cx="498.683" cy="857.673" r="4" fill="#0" id="circle253"/>
	<circle cx="501.976" cy="42.2045" r="4" fill="#0" id="circle254"/>
	<circle cx="503.952" cy="853.062" r="4" fill="#0" id="circle255"/>
	<circle cx="507.246" cy="846.475" r="4" fill="#0" id="circle256"/>
	<circle cx="507.904" cy="45.498" r="4" fill="#0" id="circle257"/>
	<circle cx="508.563" cy="834.619" r="4" fill="#0" id="circle258"/>
	<circle cx="513.833" cy="830.008" r="4" fill="#0" id="circle259"/>
	<circle cx="514.491" cy="48.1328" r="4" fill="#0" id="circle260"/>
	<circle cx="515.15" cy="821.445" r="4" fill="#0" id="circle261"/>
	<circle cx="518.444" cy="53.4024" r="4" fill="#0" id="circle262"/>
	<circle cx="518.444" cy="808.271" r="4" fill="#0" id="circle263"/>
	<circle cx="518.444" cy="814.858" r="4" fill="#0" id="circle264"/>
	<circle cx="521.737" cy="732.521" r="4" fill="#0" id="circle265"/>
	<circle cx="521.737" cy="739.108" r="4" fill="#0" id="circle266"/>
	<circle cx="521.737" cy="745.695" r="4" fill="#0" id="circle267"/>
	<circle cx="521.737" cy="752.282" r="4" fill="#0" id="circle268"/>
	<circle cx="521.737" cy="758.869" r="4" fill="#0" id="circle269"/>
	<circle cx="521.737" cy="765.456" r="4" fill="#0" id="circle270"/>
	<circle cx="521.737" cy="772.042" r="4" fill="#0" id="circle271"/>
	<circle cx="521.737" cy="778.629" r="4" fill="#0" id="circle272"/>
	<circle cx="521.737" cy="785.216" r="4" fill="#0" id="circle273"/>
	<circle cx="521.737" cy="791.803" r="4" fill="#0" id="circle274"/>
	<circle cx="521.737" cy="798.39" r="4" fill="#0" id="circle275"/>
	<circle cx="524.372" cy="56.6959" r="4" fill="#0" id="circle276"/>
	<circle cx="525.031" cy="722.64" r="4" fill="#0" id="circle277"/>
	<circle cx="528.324" cy="716.053" r="4" fill="#0" id="circle278"/>
	<circle cx="529.641" cy="60.6481" r="4" fill="#0" id="circle279"/>
	<circle cx="533.594" cy="711.442" r="4" fill="#0" id="circle280"/>
	<circle cx="534.911" cy="65.259" r="4" fill="#0" id="circle281"/>
	<circle cx="536.887" cy="704.855" r="4" fill="#0" id="circle282"/>
	<circle cx="538.205" cy="71.1873" r="4" fill="#0" id="circle283"/>
	<circle cx="538.205" cy="696.292" r="4" fill="#0" id="circle284"/>
	<circle cx="542.157" cy="76.4568" r="4" fill="#0" id="circle285"/>
	<circle cx="543.474" cy="691.681" r="4" fill="#0" id="circle286"/>
	<circle cx="546.768" cy="685.094" r="4" fill="#0" id="circle287"/>
	<circle cx="547.426" cy="81.0677" r="4" fill="#0" id="circle288"/>
	<circle cx="548.085" cy="676.531" r="4" fill="#0" id="circle289"/>
	<circle cx="550.061" cy="87.6547" r="4" fill="#0" id="circle290"/>
	<circle cx="551.378" cy="660.064" r="4" fill="#0" id="circle291"/>
	<circle cx="551.378" cy="666.651" r="4" fill="#0" id="circle292"/>
	<circle cx="554.672" cy="92.9243" r="4" fill="#0" id="circle293"/>
	<circle cx="554.672" cy="643.596" r="4" fill="#0" id="circle294"/>
	<circle cx="554.672" cy="650.183" r="4" fill="#0" id="circle295"/>
	<circle cx="557.965" cy="98.8526" r="4" fill="#0" id="circle296"/>
	<circle cx="557.965" cy="607.368" r="4" fill="#0" id="circle297"/>
	<circle cx="557.965" cy="613.955" r="4" fill="#0" id="circle298"/>
	<circle cx="557.965" cy="620.542" r="4" fill="#0" id="circle299"/>
	<circle cx="557.965" cy="627.129" r="4" fill="#0" id="circle300"/>
	<circle cx="557.965" cy="633.716" r="4" fill="#0" id="circle301"/>
	<circle cx="561.259" cy="104.781" r="4" fill="#0" id="circle302"/>
	<circle cx="564.552" cy="110.709" r="4" fill="#0" id="circle303"/>
	<circle cx="564.552" cy="607.368" r="4" fill="#0" id="circle304"/>
	<circle cx="568.505" cy="115.979" r="4" fill="#0" id="circle305"/>
	<circle cx="571.139" cy="122.566" r="4" fill="#0" id="circle306"/>
	<circle cx="571.139" cy="607.368" r="4" fill="#0" id="circle307"/>
	<circle cx="574.433" cy="128.494" r="4" fill="#0" id="circle308"/>
	<circle cx="577.726" cy="134.422" r="4" fill="#0" id="circle309"/>
	<circle cx="577.726" cy="141.009" r="4" fill="#0" id="circle310"/>
	<circle cx="577.726" cy="147.596" r="4" fill="#0" id="circle311"/>
	<circle cx="577.726" cy="607.368" r="4" fill="#0" id="circle312"/>
	<circle cx="581.02" cy="153.525" r="4" fill="#0" id="circle313"/>
	<circle cx="581.02" cy="160.112" r="4" fill="#0" id="circle314"/>
	<circle cx="581.02" cy="166.699" r="4" fill="#0" id="circle315"/>
	<circle cx="581.02" cy="173.286" r="4" fill="#0" id="circle316"/>
	<circle cx="581.02" cy="251.671" r="4" fill="#0" id="circle317"/>
	<circle cx="581.02" cy="258.258" r="4" fill="#0" id="circle318"/>
	<circle cx="581.02" cy="264.845" r="4" fill="#0" id="circle319"/>
	<circle cx="581.02" cy="271.432" r="4" fill="#0" id="circle320"/>
	<circle cx="581.02" cy="278.019" r="4" fill="#0" id="circle321"/>
	<circle cx="581.02" cy="284.606" r="4" fill="#0" id="circle322"/>
	<circle cx="581.02" cy="291.193" r="4" fill="#0" id="circle323"/>
	<circle cx="581.02" cy="297.78" r="4" fill="#0" id="circle324"/>
	<circle cx="581.02" cy="304.367" r="4" fill="#0" id="circle325"/>
	<circle cx="581.02" cy="310.954" r="4" fill="#0" id="circle326"/>
	<circle cx="581.02" cy="317.541" r="4" fill="#0" id="circle327"/>
	<circle cx="581.02" cy="600.781" r="4" fill="#0" id="circle328"/>
	<circle cx="582.337" cy="324.127" r="4" fill="#0" id="circle329"/>
	<circle cx="584.313" cy="179.214" r="4" fill="#0" id="circle330"/>
	<circle cx="584.313" cy="185.801" r="4" fill="#0" id="circle331"/>
	<circle cx="584.313" cy="192.388" r="4" fill="#0" id="circle332"/>
	<circle cx="584.313" cy="198.975" r="4" fill="#0" id="circle333"/>
	<circle cx="584.313" cy="205.562" r="4" fill="#0" id="circle334"/>
	<circle cx="584.313" cy="212.149" r="4" fill="#0" id="circle335"/>
	<circle cx="584.313" cy="218.736" r="4" fill="#0" id="circle336"/>
	<circle cx="584.313" cy="225.323" r="4" fill="#0" id="circle337"/>
	<circle cx="584.313" cy="231.91" r="4" fill="#0" id="circle338"/>
	<circle cx="584.313" cy="238.497" r="4" fill="#0" id="circle339"/>
	<circle cx="584.313" cy="245.084" r="4" fill="#0" id="circle340"/>
	<circle cx="584.313" cy="330.714" r="4" fill="#0" id="circle341"/>
	<circle cx="584.313" cy="337.301" r="4" fill="#0" id="circle342"/>
	<circle cx="584.313" cy="343.888" r="4" fill="#0" id="circle343"/>
	<circle cx="584.313" cy="350.475" r="4" fill="#0" id="circle344"/>
	<circle cx="584.313" cy="357.062" r="4" fill="#0" id="circle345"/>
	<circle cx="584.313" cy="363.649" r="4" fill="#0" id="circle346"/>
	<circle cx="584.313" cy="370.236" r="4" fill="#0" id="circle347"/>
	<circle cx="584.313" cy="376.823" r="4" fill="#0" id="circle348"/>
	<circle cx="584.313" cy="383.41" r="4" fill="#0" id="circle349"/>
	<circle cx="587.607" cy="389.339" r="4" fill="#0" id="circle350"/>
	<circle cx="587.607" cy="395.926" r="4" fill="#0" id="circle351"/>
	<circle cx="587.607" cy="594.194" r="4" fill="#0" id="circle352"/>
	<circle cx="590.9" cy="401.854" r="4" fill="#0" id="circle353"/>
	<circle cx="590.9" cy="587.607" r="4" fill="#0" id="circle354"/>
	<circle cx="594.194" cy="581.02" r="4" fill="#0" id="circle355"/>
	<circle cx="596.17" cy="405.806" r="4" fill="#0" id="circle356"/>
	<circle cx="599.463" cy="576.409" r="4" fill="#0" id="circle357"/>
	<circle cx="600.781" cy="561.259" r="4" fill="#0" id="circle358"/>
	<circle cx="600.781" cy="567.846" r="4" fill="#0" id="circle359"/>
	<circle cx="602.757" cy="405.806" r="4" fill="#0" id="circle360"/>
	<circle cx="604.074" cy="538.205" r="4" fill="#0" id="circle361"/>
	<circle cx="604.074" cy="544.792" r="4" fill="#0" id="circle362"/>
	<circle cx="604.074" cy="551.378" r="4" fill="#0" id="circle363"/>
	<circle cx="607.368" cy="472.335" r="4" fill="#0" id="circle364"/>
	<circle cx="607.368" cy="478.922" r="4" fill="#0" id="circle365"/>
	<circle cx="607.368" cy="485.509" r="4" fill="#0" id="circle366"/>
	<circle cx="607.368" cy="492.096" r="4" fill="#0" id="circle367"/>
	<circle cx="607.368" cy="498.683" r="4" fill="#0" id="circle368"/>
	<circle cx="607.368" cy="505.27" r="4" fill="#0" id="circle369"/>
	<circle cx="607.368" cy="511.857" r="4" fill="#0" id="circle370"/>
	<circle cx="607.368" cy="518.444" r="4" fill="#0" id="circle371"/>
	<circle cx="607.368" cy="525.031" r="4" fill="#0" id="circle372"/>
	<circle cx="607.368" cy="531.618" r="4" fill="#0" id="circle373"/>
	<circle cx="609.344" cy="406.465" r="4" fill="#0" id="circle374"/>
	<circle cx="610.661" cy="449.28" r="4" fill="#0" id="circle375"/>
	<circle cx="610.661" cy="455.867" r="4" fill="#0" id="circle376"/>
	<circle cx="610.661" cy="462.454" r="4" fill="#0" id="circle377"/>
	<circle cx="611.979" cy="413.052" r="4" fill="#0" id="circle378"/>
	<circle cx="613.955" cy="429.519" r="4" fill="#0" id="circle379"/>
	<circle cx="613.955" cy="436.106" r="4" fill="#0" id="circle380"/>
	<circle cx="613.955" cy="442.693" r="4" fill="#0" id="circle381"/>
	<circle cx="617.248" cy="417.663" r="4" fill="#0" id="circle382"/>
	</g>
</svg>