<?xml version="1.0" encoding="UTF-8" standalone="no"?>
<!-- Created with CurveBenchmark -->
<svg
	xmlns:dc="http://purl.org/dc/elements/1.1/"
	xmlns:cc="http://creativecommons.org/ns#"
	xmlns:rdf="http://www.w3.org/1999/02/22-rdf-syntax-ns#"
	xmlns:svg="http://www.w3.org/2000/svg"
	xmlns="http://www.w3.org/2000/svg"
	xmlns:sodipodi="http://sodipodi.sourceforge.net/DTD/sodipodi-0.dtd"
	xmlns:inkscape="http://www.inkscape.org/namespaces/inkscape"
	width="1000"
	height="1000"
	id="svg2"
	version="1.1"
	sodipodi:docname="manifold/vicur-hand.png.txt">
<defs
	id="defs4" />
<metadata
	id="metadata7">
	<rdf:RDF>
		<cc:Work
			rdf:about="">
			<dc:format>image/svg+xml</dc:format>
			<dc:type
				rdf:resource="http://purl.org/dc/dcmitype/StillImage" />
			<dc:title></dc:title>
		</cc:Work>
	</rdf:RDF>
</metadata>
<g
	inkscape:label="Layer 1"
	inkscape:groupmode="layer"
	id="layer1">
	<path style="fill:none;stroke:red;stroke-width:1px;stroke-linecap:butt;stroke-linejoin:miter;stroke-opacity:1" d="M 4,225.445 4,243.448 z" id="boundary" inkscape:connector-curvature="0" />
	<path style="fill:none;stroke:red;stroke-width:1px;stroke-linecap:butt;stroke-linejoin:miter;stroke-opacity:1" d="M 4,225.445 18.4029,211.042 z" id="boundary" inkscape:connector-curvature="0" />
	<path style="fill:none;stroke:red;stroke-width:1px;stroke-linecap:butt;stroke-linejoin:miter;stroke-opacity:1" d="M 4,243.448 4,261.452 z" id="boundary" inkscape:connector-curvature="0" />
	<path style="fill:none;stroke:red;stroke-width:1px;stroke-linecap:butt;stroke-linejoin:miter;stroke-opacity:1" d="M 4,261.452 4,279.456 z" id="boundary" inkscape:connector-curvature="0" />
	<path style="fill:none;stroke:red;stroke-width:1px;stroke-linecap:butt;stroke-linejoin:miter;stroke-opacity:1" d="M 4,279.456 4,297.459 z" id="boundary" inkscape:connector-curvature="0" />
	<path style="fill:none;stroke:red;stroke-width:1px;stroke-linecap:butt;stroke-linejoin:miter;stroke-opacity:1" d="M 4,297.459 13.0018,313.662 z" id="boundary" inkscape:connector-curvature="0" />
	<path style="fill:none;stroke:red;stroke-width:1px;stroke-linecap:butt;stroke-linejoin:miter;stroke-opacity:1" d="M 13.0018,313.662 13.0018,331.666 z" id="boundary" inkscape:connector-curvature="0" />
	<path style="fill:none;stroke:red;stroke-width:1px;stroke-linecap:butt;stroke-linejoin:miter;stroke-opacity:1" d="M 13.0018,331.666 22.0036,347.869 z" id="boundary" inkscape:connector-curvature="0" />
	<path style="fill:none;stroke:red;stroke-width:1px;stroke-linecap:butt;stroke-linejoin:miter;stroke-opacity:1" d="M 18.4029,211.042 36.4065,211.042 z" id="boundary" inkscape:connector-curvature="0" />
	<path style="fill:none;stroke:red;stroke-width:1px;stroke-linecap:butt;stroke-linejoin:miter;stroke-opacity:1" d="M 22.0036,347.869 27.4047,365.873 z" id="boundary" inkscape:connector-curvature="0" />
	<path style="fill:none;stroke:red;stroke-width:1px;stroke-linecap:butt;stroke-linejoin:miter;stroke-opacity:1" d="M 27.4047,365.873 31.0054,383.877 z" id="boundary" inkscape:connector-curvature="0" />
	<path style="fill:none;stroke:red;stroke-width:1px;stroke-linecap:butt;stroke-linejoin:miter;stroke-opacity:1" d="M 31.0054,383.877 40.0073,400.08 z" id="boundary" inkscape:connector-curvature="0" />
	<path style="fill:none;stroke:red;stroke-width:1px;stroke-linecap:butt;stroke-linejoin:miter;stroke-opacity:1" d="M 36.4065,211.042 54.4102,211.042 z" id="boundary" inkscape:connector-curvature="0" />
	<path style="fill:none;stroke:red;stroke-width:1px;stroke-linecap:butt;stroke-linejoin:miter;stroke-opacity:1" d="M 40.0073,400.08 40.0073,418.083 z" id="boundary" inkscape:connector-curvature="0" />
	<path style="fill:none;stroke:red;stroke-width:1px;stroke-linecap:butt;stroke-linejoin:miter;stroke-opacity:1" d="M 40.0073,418.083 49.0091,434.287 z" id="boundary" inkscape:connector-curvature="0" />
	<path style="fill:none;stroke:red;stroke-width:1px;stroke-linecap:butt;stroke-linejoin:miter;stroke-opacity:1" d="M 49.0091,434.287 58.0109,450.49 z" id="boundary" inkscape:connector-curvature="0" />
	<path style="fill:none;stroke:red;stroke-width:1px;stroke-linecap:butt;stroke-linejoin:miter;stroke-opacity:1" d="M 54.4102,211.042 70.6134,220.044 z" id="boundary" inkscape:connector-curvature="0" />
	<path style="fill:none;stroke:red;stroke-width:1px;stroke-linecap:butt;stroke-linejoin:miter;stroke-opacity:1" d="M 58.0109,450.49 67.0127,466.693 z" id="boundary" inkscape:connector-curvature="0" />
	<path style="fill:none;stroke:red;stroke-width:1px;stroke-linecap:butt;stroke-linejoin:miter;stroke-opacity:1" d="M 67.0127,466.693 76.0145,482.897 z" id="boundary" inkscape:connector-curvature="0" />
	<path style="fill:none;stroke:red;stroke-width:1px;stroke-linecap:butt;stroke-linejoin:miter;stroke-opacity:1" d="M 70.6134,220.044 85.0163,232.646 z" id="boundary" inkscape:connector-curvature="0" />
	<path style="fill:none;stroke:red;stroke-width:1px;stroke-linecap:butt;stroke-linejoin:miter;stroke-opacity:1" d="M 76.0145,482.897 81.4156,500.9 z" id="boundary" inkscape:connector-curvature="0" />
	<path style="fill:none;stroke:red;stroke-width:1px;stroke-linecap:butt;stroke-linejoin:miter;stroke-opacity:1" d="M 81.4156,500.9 85.0163,518.904 z" id="boundary" inkscape:connector-curvature="0" />
	<path style="fill:none;stroke:red;stroke-width:1px;stroke-linecap:butt;stroke-linejoin:miter;stroke-opacity:1" d="M 85.0163,232.646 92.2178,250.65 z" id="boundary" inkscape:connector-curvature="0" />
	<path style="fill:none;stroke:red;stroke-width:1px;stroke-linecap:butt;stroke-linejoin:miter;stroke-opacity:1" d="M 85.0163,518.904 90.4174,536.907 z" id="boundary" inkscape:connector-curvature="0" />
	<path style="fill:none;stroke:red;stroke-width:1px;stroke-linecap:butt;stroke-linejoin:miter;stroke-opacity:1" d="M 90.4174,536.907 94.0181,554.911 z" id="boundary" inkscape:connector-curvature="0" />
	<path style="fill:none;stroke:red;stroke-width:1px;stroke-linecap:butt;stroke-linejoin:miter;stroke-opacity:1" d="M 92.2178,250.65 95.8185,268.653 z" id="boundary" inkscape:connector-curvature="0" />
	<path style="fill:none;stroke:red;stroke-width:1px;stroke-linecap:butt;stroke-linejoin:miter;stroke-opacity:1" d="M 94.0181,554.911 94.0181,572.915 z" id="boundary" inkscape:connector-curvature="0" />
	<path style="fill:none;stroke:red;stroke-width:1px;stroke-linecap:butt;stroke-linejoin:miter;stroke-opacity:1" d="M 94.0181,572.915 94.0181,590.918 z" id="boundary" inkscape:connector-curvature="0" />
	<path style="fill:none;stroke:red;stroke-width:1px;stroke-linecap:butt;stroke-linejoin:miter;stroke-opacity:1" d="M 94.0181,590.918 94.0181,608.922 z" id="boundary" inkscape:connector-curvature="0" />
	<path style="fill:none;stroke:red;stroke-width:1px;stroke-linecap:butt;stroke-linejoin:miter;stroke-opacity:1" d="M 94.0181,608.922 94.0181,626.926 z" id="boundary" inkscape:connector-curvature="0" />
	<path style="fill:none;stroke:red;stroke-width:1px;stroke-linecap:butt;stroke-linejoin:miter;stroke-opacity:1" d="M 94.0181,626.926 94.0181,644.929 z" id="boundary" inkscape:connector-curvature="0" />
	<path style="fill:none;stroke:red;stroke-width:1px;stroke-linecap:butt;stroke-linejoin:miter;stroke-opacity:1" d="M 94.0181,644.929 94.0181,662.933 z" id="boundary" inkscape:connector-curvature="0" />
	<path style="fill:none;stroke:red;stroke-width:1px;stroke-linecap:butt;stroke-linejoin:miter;stroke-opacity:1" d="M 94.0181,662.933 94.0181,680.936 z" id="boundary" inkscape:connector-curvature="0" />
	<path style="fill:none;stroke:red;stroke-width:1px;stroke-linecap:butt;stroke-linejoin:miter;stroke-opacity:1" d="M 94.0181,680.936 94.0181,698.94 z" id="boundary" inkscape:connector-curvature="0" />
	<path style="fill:none;stroke:red;stroke-width:1px;stroke-linecap:butt;stroke-linejoin:miter;stroke-opacity:1" d="M 94.0181,698.94 103.02,715.143 z" id="boundary" inkscape:connector-curvature="0" />
	<path style="fill:none;stroke:red;stroke-width:1px;stroke-linecap:butt;stroke-linejoin:miter;stroke-opacity:1" d="M 95.8185,268.653 101.22,286.657 z" id="boundary" inkscape:connector-curvature="0" />
	<path style="fill:none;stroke:red;stroke-width:1px;stroke-linecap:butt;stroke-linejoin:miter;stroke-opacity:1" d="M 101.22,286.657 104.82,304.661 z" id="boundary" inkscape:connector-curvature="0" />
	<path style="fill:none;stroke:red;stroke-width:1px;stroke-linecap:butt;stroke-linejoin:miter;stroke-opacity:1" d="M 103.02,715.143 103.02,733.147 z" id="boundary" inkscape:connector-curvature="0" />
	<path style="fill:none;stroke:red;stroke-width:1px;stroke-linecap:butt;stroke-linejoin:miter;stroke-opacity:1" d="M 103.02,733.147 106.621,751.151 z" id="boundary" inkscape:connector-curvature="0" />
	<path style="fill:none;stroke:red;stroke-width:1px;stroke-linecap:butt;stroke-linejoin:miter;stroke-opacity:1" d="M 104.82,304.661 104.82,322.664 z" id="boundary" inkscape:connector-curvature="0" />
	<path style="fill:none;stroke:red;stroke-width:1px;stroke-linecap:butt;stroke-linejoin:miter;stroke-opacity:1" d="M 104.82,322.664 113.822,338.868 z" id="boundary" inkscape:connector-curvature="0" />
	<path style="fill:none;stroke:red;stroke-width:1px;stroke-linecap:butt;stroke-linejoin:miter;stroke-opacity:1" d="M 106.621,751.151 112.022,769.154 z" id="boundary" inkscape:connector-curvature="0" />
	<path style="fill:none;stroke:red;stroke-width:1px;stroke-linecap:butt;stroke-linejoin:miter;stroke-opacity:1" d="M 112.022,769.154 115.623,787.158 z" id="boundary" inkscape:connector-curvature="0" />
	<path style="fill:none;stroke:red;stroke-width:1px;stroke-linecap:butt;stroke-linejoin:miter;stroke-opacity:1" d="M 112.022,972.595 112.022,990.599 z" id="boundary" inkscape:connector-curvature="0" />
	<path style="fill:none;stroke:red;stroke-width:1px;stroke-linecap:butt;stroke-linejoin:miter;stroke-opacity:1" d="M 112.022,972.595 121.024,945.59 z" id="boundary" inkscape:connector-curvature="0" />
	<path style="fill:none;stroke:red;stroke-width:1px;stroke-linecap:butt;stroke-linejoin:miter;stroke-opacity:1" d="M 112.022,990.599 130.025,996 z" id="boundary" inkscape:connector-curvature="0" />
	<path style="fill:none;stroke:red;stroke-width:1px;stroke-linecap:butt;stroke-linejoin:miter;stroke-opacity:1" d="M 113.822,338.868 117.423,356.871 z" id="boundary" inkscape:connector-curvature="0" />
	<path style="fill:none;stroke:red;stroke-width:1px;stroke-linecap:butt;stroke-linejoin:miter;stroke-opacity:1" d="M 115.623,787.158 121.024,805.162 z" id="boundary" inkscape:connector-curvature="0" />
	<path style="fill:none;stroke:red;stroke-width:1px;stroke-linecap:butt;stroke-linejoin:miter;stroke-opacity:1" d="M 117.423,356.871 131.826,369.474 z" id="boundary" inkscape:connector-curvature="0" />
	<path style="fill:none;stroke:red;stroke-width:1px;stroke-linecap:butt;stroke-linejoin:miter;stroke-opacity:1" d="M 121.024,805.162 130.025,821.365 z" id="boundary" inkscape:connector-curvature="0" />
	<path style="fill:none;stroke:red;stroke-width:1px;stroke-linecap:butt;stroke-linejoin:miter;stroke-opacity:1" d="M 121.024,945.59 130.025,927.586 z" id="boundary" inkscape:connector-curvature="0" />
	<path style="fill:none;stroke:red;stroke-width:1px;stroke-linecap:butt;stroke-linejoin:miter;stroke-opacity:1" d="M 130.025,821.365 131.826,839.368 z" id="boundary" inkscape:connector-curvature="0" />
	<path style="fill:none;stroke:red;stroke-width:1px;stroke-linecap:butt;stroke-linejoin:miter;stroke-opacity:1" d="M 130.025,909.583 130.025,927.586 z" id="boundary" inkscape:connector-curvature="0" />
	<path style="fill:none;stroke:red;stroke-width:1px;stroke-linecap:butt;stroke-linejoin:miter;stroke-opacity:1" d="M 130.025,909.583 139.027,893.379 z" id="boundary" inkscape:connector-curvature="0" />
	<path style="fill:none;stroke:red;stroke-width:1px;stroke-linecap:butt;stroke-linejoin:miter;stroke-opacity:1" d="M 130.025,996 148.029,996 z" id="boundary" inkscape:connector-curvature="0" />
	<path style="fill:none;stroke:red;stroke-width:1px;stroke-linecap:butt;stroke-linejoin:miter;stroke-opacity:1" d="M 131.826,369.474 131.826,387.477 z" id="boundary" inkscape:connector-curvature="0" />
	<path style="fill:none;stroke:red;stroke-width:1px;stroke-linecap:butt;stroke-linejoin:miter;stroke-opacity:1" d="M 131.826,387.477 139.027,405.481 z" id="boundary" inkscape:connector-curvature="0" />
	<path style="fill:none;stroke:red;stroke-width:1px;stroke-linecap:butt;stroke-linejoin:miter;stroke-opacity:1" d="M 131.826,839.368 139.027,857.372 z" id="boundary" inkscape:connector-curvature="0" />
	<path style="fill:none;stroke:red;stroke-width:1px;stroke-linecap:butt;stroke-linejoin:miter;stroke-opacity:1" d="M 139.027,405.481 148.029,421.684 z" id="boundary" inkscape:connector-curvature="0" />
	<path style="fill:none;stroke:red;stroke-width:1px;stroke-linecap:butt;stroke-linejoin:miter;stroke-opacity:1" d="M 139.027,857.372 139.027,875.376 z" id="boundary" inkscape:connector-curvature="0" />
	<path style="fill:none;stroke:red;stroke-width:1px;stroke-linecap:butt;stroke-linejoin:miter;stroke-opacity:1" d="M 139.027,875.376 139.027,893.379 z" id="boundary" inkscape:connector-curvature="0" />
	<path style="fill:none;stroke:red;stroke-width:1px;stroke-linecap:butt;stroke-linejoin:miter;stroke-opacity:1" d="M 148.029,81.4156 148.029,99.4192 z" id="boundary" inkscape:connector-curvature="0" />
	<path style="fill:none;stroke:red;stroke-width:1px;stroke-linecap:butt;stroke-linejoin:miter;stroke-opacity:1" d="M 148.029,81.4156 162.432,67.0127 z" id="boundary" inkscape:connector-curvature="0" />
	<path style="fill:none;stroke:red;stroke-width:1px;stroke-linecap:butt;stroke-linejoin:miter;stroke-opacity:1" d="M 148.029,99.4192 148.029,117.423 z" id="boundary" inkscape:connector-curvature="0" />
	<path style="fill:none;stroke:red;stroke-width:1px;stroke-linecap:butt;stroke-linejoin:miter;stroke-opacity:1" d="M 148.029,117.423 148.029,135.426 z" id="boundary" inkscape:connector-curvature="0" />
	<path style="fill:none;stroke:red;stroke-width:1px;stroke-linecap:butt;stroke-linejoin:miter;stroke-opacity:1" d="M 148.029,135.426 148.029,153.43 z" id="boundary" inkscape:connector-curvature="0" />
	<path style="fill:none;stroke:red;stroke-width:1px;stroke-linecap:butt;stroke-linejoin:miter;stroke-opacity:1" d="M 148.029,153.43 148.029,171.434 z" id="boundary" inkscape:connector-curvature="0" />
	<path style="fill:none;stroke:red;stroke-width:1px;stroke-linecap:butt;stroke-linejoin:miter;stroke-opacity:1" d="M 148.029,171.434 148.029,189.437 z" id="boundary" inkscape:connector-curvature="0" />
	<path style="fill:none;stroke:red;stroke-width:1px;stroke-linecap:butt;stroke-linejoin:miter;stroke-opacity:1" d="M 148.029,189.437 148.029,207.441 z" id="boundary" inkscape:connector-curvature="0" />
	<path style="fill:none;stroke:red;stroke-width:1px;stroke-linecap:butt;stroke-linejoin:miter;stroke-opacity:1" d="M 148.029,207.441 157.031,223.644 z" id="boundary" inkscape:connector-curvature="0" />
	<path style="fill:none;stroke:red;stroke-width:1px;stroke-linecap:butt;stroke-linejoin:miter;stroke-opacity:1" d="M 148.029,421.684 155.23,439.688 z" id="boundary" inkscape:connector-curvature="0" />
	<path style="fill:none;stroke:red;stroke-width:1px;stroke-linecap:butt;stroke-linejoin:miter;stroke-opacity:1" d="M 148.029,996 166.033,996 z" id="boundary" inkscape:connector-curvature="0" />
	<path style="fill:none;stroke:red;stroke-width:1px;stroke-linecap:butt;stroke-linejoin:miter;stroke-opacity:1" d="M 155.23,439.688 167.833,454.091 z" id="boundary" inkscape:connector-curvature="0" />
	<path style="fill:none;stroke:red;stroke-width:1px;stroke-linecap:butt;stroke-linejoin:miter;stroke-opacity:1" d="M 157.031,223.644 166.033,239.848 z" id="boundary" inkscape:connector-curvature="0" />
	<path style="fill:none;stroke:red;stroke-width:1px;stroke-linecap:butt;stroke-linejoin:miter;stroke-opacity:1" d="M 162.432,67.0127 178.635,58.0109 z" id="boundary" inkscape:connector-curvature="0" />
	<path style="fill:none;stroke:red;stroke-width:1px;stroke-linecap:butt;stroke-linejoin:miter;stroke-opacity:1" d="M 166.033,239.848 166.033,257.851 z" id="boundary" inkscape:connector-curvature="0" />
	<path style="fill:none;stroke:red;stroke-width:1px;stroke-linecap:butt;stroke-linejoin:miter;stroke-opacity:1" d="M 166.033,257.851 166.033,275.855 z" id="boundary" inkscape:connector-curvature="0" />
	<path style="fill:none;stroke:red;stroke-width:1px;stroke-linecap:butt;stroke-linejoin:miter;stroke-opacity:1" d="M 166.033,275.855 166.033,293.858 z" id="boundary" inkscape:connector-curvature="0" />
	<path style="fill:none;stroke:red;stroke-width:1px;stroke-linecap:butt;stroke-linejoin:miter;stroke-opacity:1" d="M 166.033,293.858 166.033,311.862 z" id="boundary" inkscape:connector-curvature="0" />
	<path style="fill:none;stroke:red;stroke-width:1px;stroke-linecap:butt;stroke-linejoin:miter;stroke-opacity:1" d="M 166.033,311.862 166.033,329.866 z" id="boundary" inkscape:connector-curvature="0" />
	<path style="fill:none;stroke:red;stroke-width:1px;stroke-linecap:butt;stroke-linejoin:miter;stroke-opacity:1" d="M 166.033,329.866 166.033,347.869 z" id="boundary" inkscape:connector-curvature="0" />
	<path style="fill:none;stroke:red;stroke-width:1px;stroke-linecap:butt;stroke-linejoin:miter;stroke-opacity:1" d="M 166.033,347.869 175.034,364.073 z" id="boundary" inkscape:connector-curvature="0" />
	<path style="fill:none;stroke:red;stroke-width:1px;stroke-linecap:butt;stroke-linejoin:miter;stroke-opacity:1" d="M 166.033,996 184.036,996 z" id="boundary" inkscape:connector-curvature="0" />
	<path style="fill:none;stroke:red;stroke-width:1px;stroke-linecap:butt;stroke-linejoin:miter;stroke-opacity:1" d="M 167.833,454.091 184.036,436.087 z" id="boundary" inkscape:connector-curvature="0" />
	<path style="fill:none;stroke:red;stroke-width:1px;stroke-linecap:butt;stroke-linejoin:miter;stroke-opacity:1" d="M 175.034,364.073 175.034,382.076 z" id="boundary" inkscape:connector-curvature="0" />
	<path style="fill:none;stroke:red;stroke-width:1px;stroke-linecap:butt;stroke-linejoin:miter;stroke-opacity:1" d="M 175.034,382.076 178.635,400.08 z" id="boundary" inkscape:connector-curvature="0" />
	<path style="fill:none;stroke:red;stroke-width:1px;stroke-linecap:butt;stroke-linejoin:miter;stroke-opacity:1" d="M 178.635,58.0109 196.639,58.0109 z" id="boundary" inkscape:connector-curvature="0" />
	<path style="fill:none;stroke:red;stroke-width:1px;stroke-linecap:butt;stroke-linejoin:miter;stroke-opacity:1" d="M 178.635,400.08 184.036,418.083 z" id="boundary" inkscape:connector-curvature="0" />
	<path style="fill:none;stroke:red;stroke-width:1px;stroke-linecap:butt;stroke-linejoin:miter;stroke-opacity:1" d="M 184.036,418.083 184.036,436.087 z" id="boundary" inkscape:connector-curvature="0" />
	<path style="fill:none;stroke:red;stroke-width:1px;stroke-linecap:butt;stroke-linejoin:miter;stroke-opacity:1" d="M 184.036,996 202.04,996 z" id="boundary" inkscape:connector-curvature="0" />
	<path style="fill:none;stroke:red;stroke-width:1px;stroke-linecap:butt;stroke-linejoin:miter;stroke-opacity:1" d="M 196.639,58.0109 214.642,58.0109 z" id="boundary" inkscape:connector-curvature="0" />
	<path style="fill:none;stroke:red;stroke-width:1px;stroke-linecap:butt;stroke-linejoin:miter;stroke-opacity:1" d="M 202.04,996 220.044,996 z" id="boundary" inkscape:connector-curvature="0" />
	<path style="fill:none;stroke:red;stroke-width:1px;stroke-linecap:butt;stroke-linejoin:miter;stroke-opacity:1" d="M 214.642,58.0109 229.045,70.6134 z" id="boundary" inkscape:connector-curvature="0" />
	<path style="fill:none;stroke:red;stroke-width:1px;stroke-linecap:butt;stroke-linejoin:miter;stroke-opacity:1" d="M 220.044,996 238.047,996 z" id="boundary" inkscape:connector-curvature="0" />
	<path style="fill:none;stroke:red;stroke-width:1px;stroke-linecap:butt;stroke-linejoin:miter;stroke-opacity:1" d="M 229.045,70.6134 239.848,85.0163 z" id="boundary" inkscape:connector-curvature="0" />
	<path style="fill:none;stroke:red;stroke-width:1px;stroke-linecap:butt;stroke-linejoin:miter;stroke-opacity:1" d="M 238.047,996 256.051,996 z" id="boundary" inkscape:connector-curvature="0" />
	<path style="fill:none;stroke:red;stroke-width:1px;stroke-linecap:butt;stroke-linejoin:miter;stroke-opacity:1" d="M 239.848,85.0163 248.849,101.22 z" id="boundary" inkscape:connector-curvature="0" />
	<path style="fill:none;stroke:red;stroke-width:1px;stroke-linecap:butt;stroke-linejoin:miter;stroke-opacity:1" d="M 248.849,101.22 248.849,119.223 z" id="boundary" inkscape:connector-curvature="0" />
	<path style="fill:none;stroke:red;stroke-width:1px;stroke-linecap:butt;stroke-linejoin:miter;stroke-opacity:1" d="M 248.849,119.223 248.849,137.227 z" id="boundary" inkscape:connector-curvature="0" />
	<path style="fill:none;stroke:red;stroke-width:1px;stroke-linecap:butt;stroke-linejoin:miter;stroke-opacity:1" d="M 248.849,137.227 248.849,155.23 z" id="boundary" inkscape:connector-curvature="0" />
	<path style="fill:none;stroke:red;stroke-width:1px;stroke-linecap:butt;stroke-linejoin:miter;stroke-opacity:1" d="M 248.849,155.23 248.849,173.234 z" id="boundary" inkscape:connector-curvature="0" />
	<path style="fill:none;stroke:red;stroke-width:1px;stroke-linecap:butt;stroke-linejoin:miter;stroke-opacity:1" d="M 248.849,173.234 257.851,189.437 z" id="boundary" inkscape:connector-curvature="0" />
	<path style="fill:none;stroke:red;stroke-width:1px;stroke-linecap:butt;stroke-linejoin:miter;stroke-opacity:1" d="M 256.051,996 274.054,996 z" id="boundary" inkscape:connector-curvature="0" />
	<path style="fill:none;stroke:red;stroke-width:1px;stroke-linecap:butt;stroke-linejoin:miter;stroke-opacity:1" d="M 257.851,189.437 257.851,207.441 z" id="boundary" inkscape:connector-curvature="0" />
	<path style="fill:none;stroke:red;stroke-width:1px;stroke-linecap:butt;stroke-linejoin:miter;stroke-opacity:1" d="M 257.851,207.441 257.851,225.445 z" id="boundary" inkscape:connector-curvature="0" />
	<path style="fill:none;stroke:red;stroke-width:1px;stroke-linecap:butt;stroke-linejoin:miter;stroke-opacity:1" d="M 257.851,225.445 257.851,243.448 z" id="boundary" inkscape:connector-curvature="0" />
	<path style="fill:none;stroke:red;stroke-width:1px;stroke-linecap:butt;stroke-linejoin:miter;stroke-opacity:1" d="M 257.851,243.448 265.053,261.452 z" id="boundary" inkscape:connector-curvature="0" />
	<path style="fill:none;stroke:red;stroke-width:1px;stroke-linecap:butt;stroke-linejoin:miter;stroke-opacity:1" d="M 265.053,261.452 266.853,279.456 z" id="boundary" inkscape:connector-curvature="0" />
	<path style="fill:none;stroke:red;stroke-width:1px;stroke-linecap:butt;stroke-linejoin:miter;stroke-opacity:1" d="M 266.853,279.456 274.054,297.459 z" id="boundary" inkscape:connector-curvature="0" />
	<path style="fill:none;stroke:red;stroke-width:1px;stroke-linecap:butt;stroke-linejoin:miter;stroke-opacity:1" d="M 274.054,297.459 275.855,315.463 z" id="boundary" inkscape:connector-curvature="0" />
	<path style="fill:none;stroke:red;stroke-width:1px;stroke-linecap:butt;stroke-linejoin:miter;stroke-opacity:1" d="M 274.054,996 292.058,996 z" id="boundary" inkscape:connector-curvature="0" />
	<path style="fill:none;stroke:red;stroke-width:1px;stroke-linecap:butt;stroke-linejoin:miter;stroke-opacity:1" d="M 275.855,315.463 275.855,333.466 z" id="boundary" inkscape:connector-curvature="0" />
	<path style="fill:none;stroke:red;stroke-width:1px;stroke-linecap:butt;stroke-linejoin:miter;stroke-opacity:1" d="M 275.855,333.466 284.857,349.67 z" id="boundary" inkscape:connector-curvature="0" />
	<path style="fill:none;stroke:red;stroke-width:1px;stroke-linecap:butt;stroke-linejoin:miter;stroke-opacity:1" d="M 284.857,349.67 284.857,367.673 z" id="boundary" inkscape:connector-curvature="0" />
	<path style="fill:none;stroke:red;stroke-width:1px;stroke-linecap:butt;stroke-linejoin:miter;stroke-opacity:1" d="M 284.857,367.673 301.06,358.672 z" id="boundary" inkscape:connector-curvature="0" />
	<path style="fill:none;stroke:red;stroke-width:1px;stroke-linecap:butt;stroke-linejoin:miter;stroke-opacity:1" d="M 292.058,996 310.062,996 z" id="boundary" inkscape:connector-curvature="0" />
	<path style="fill:none;stroke:red;stroke-width:1px;stroke-linecap:butt;stroke-linejoin:miter;stroke-opacity:1" d="M 301.06,45.4083 301.06,63.412 z" id="boundary" inkscape:connector-curvature="0" />
	<path style="fill:none;stroke:red;stroke-width:1px;stroke-linecap:butt;stroke-linejoin:miter;stroke-opacity:1" d="M 301.06,45.4083 310.062,18.4029 z" id="boundary" inkscape:connector-curvature="0" />
	<path style="fill:none;stroke:red;stroke-width:1px;stroke-linecap:butt;stroke-linejoin:miter;stroke-opacity:1" d="M 301.06,63.412 301.06,81.4156 z" id="boundary" inkscape:connector-curvature="0" />
	<path style="fill:none;stroke:red;stroke-width:1px;stroke-linecap:butt;stroke-linejoin:miter;stroke-opacity:1" d="M 301.06,81.4156 301.06,99.4192 z" id="boundary" inkscape:connector-curvature="0" />
	<path style="fill:none;stroke:red;stroke-width:1px;stroke-linecap:butt;stroke-linejoin:miter;stroke-opacity:1" d="M 301.06,99.4192 301.06,117.423 z" id="boundary" inkscape:connector-curvature="0" />
	<path style="fill:none;stroke:red;stroke-width:1px;stroke-linecap:butt;stroke-linejoin:miter;stroke-opacity:1" d="M 301.06,117.423 301.06,135.426 z" id="boundary" inkscape:connector-curvature="0" />
	<path style="fill:none;stroke:red;stroke-width:1px;stroke-linecap:butt;stroke-linejoin:miter;stroke-opacity:1" d="M 301.06,135.426 301.06,153.43 z" id="boundary" inkscape:connector-curvature="0" />
	<path style="fill:none;stroke:red;stroke-width:1px;stroke-linecap:butt;stroke-linejoin:miter;stroke-opacity:1" d="M 301.06,153.43 301.06,171.434 z" id="boundary" inkscape:connector-curvature="0" />
	<path style="fill:none;stroke:red;stroke-width:1px;stroke-linecap:butt;stroke-linejoin:miter;stroke-opacity:1" d="M 301.06,171.434 301.06,189.437 z" id="boundary" inkscape:connector-curvature="0" />
	<path style="fill:none;stroke:red;stroke-width:1px;stroke-linecap:butt;stroke-linejoin:miter;stroke-opacity:1" d="M 301.06,189.437 301.06,207.441 z" id="boundary" inkscape:connector-curvature="0" />
	<path style="fill:none;stroke:red;stroke-width:1px;stroke-linecap:butt;stroke-linejoin:miter;stroke-opacity:1" d="M 301.06,207.441 301.06,225.445 z" id="boundary" inkscape:connector-curvature="0" />
	<path style="fill:none;stroke:red;stroke-width:1px;stroke-linecap:butt;stroke-linejoin:miter;stroke-opacity:1" d="M 301.06,225.445 301.06,243.448 z" id="boundary" inkscape:connector-curvature="0" />
	<path style="fill:none;stroke:red;stroke-width:1px;stroke-linecap:butt;stroke-linejoin:miter;stroke-opacity:1" d="M 301.06,243.448 301.06,261.452 z" id="boundary" inkscape:connector-curvature="0" />
	<path style="fill:none;stroke:red;stroke-width:1px;stroke-linecap:butt;stroke-linejoin:miter;stroke-opacity:1" d="M 301.06,261.452 301.06,279.456 z" id="boundary" inkscape:connector-curvature="0" />
	<path style="fill:none;stroke:red;stroke-width:1px;stroke-linecap:butt;stroke-linejoin:miter;stroke-opacity:1" d="M 301.06,279.456 301.06,297.459 z" id="boundary" inkscape:connector-curvature="0" />
	<path style="fill:none;stroke:red;stroke-width:1px;stroke-linecap:butt;stroke-linejoin:miter;stroke-opacity:1" d="M 301.06,297.459 301.06,315.463 z" id="boundary" inkscape:connector-curvature="0" />
	<path style="fill:none;stroke:red;stroke-width:1px;stroke-linecap:butt;stroke-linejoin:miter;stroke-opacity:1" d="M 301.06,315.463 301.06,333.466 z" id="boundary" inkscape:connector-curvature="0" />
	<path style="fill:none;stroke:red;stroke-width:1px;stroke-linecap:butt;stroke-linejoin:miter;stroke-opacity:1" d="M 301.06,333.466 301.06,358.672 z" id="boundary" inkscape:connector-curvature="0" />
	<path style="fill:none;stroke:red;stroke-width:1px;stroke-linecap:butt;stroke-linejoin:miter;stroke-opacity:1" d="M 310.062,18.4029 324.465,4 z" id="boundary" inkscape:connector-curvature="0" />
	<path style="fill:none;stroke:red;stroke-width:1px;stroke-linecap:butt;stroke-linejoin:miter;stroke-opacity:1" d="M 310.062,996 328.065,996 z" id="boundary" inkscape:connector-curvature="0" />
	<path style="fill:none;stroke:red;stroke-width:1px;stroke-linecap:butt;stroke-linejoin:miter;stroke-opacity:1" d="M 324.465,4 342.468,4 z" id="boundary" inkscape:connector-curvature="0" />
	<path style="fill:none;stroke:red;stroke-width:1px;stroke-linecap:butt;stroke-linejoin:miter;stroke-opacity:1" d="M 328.065,996 346.069,996 z" id="boundary" inkscape:connector-curvature="0" />
	<path style="fill:none;stroke:red;stroke-width:1px;stroke-linecap:butt;stroke-linejoin:miter;stroke-opacity:1" d="M 342.468,4 360.472,4 z" id="boundary" inkscape:connector-curvature="0" />
	<path style="fill:none;stroke:red;stroke-width:1px;stroke-linecap:butt;stroke-linejoin:miter;stroke-opacity:1" d="M 346.069,996 364.073,996 z" id="boundary" inkscape:connector-curvature="0" />
	<path style="fill:none;stroke:red;stroke-width:1px;stroke-linecap:butt;stroke-linejoin:miter;stroke-opacity:1" d="M 360.472,4 378.475,4 z" id="boundary" inkscape:connector-curvature="0" />
	<path style="fill:none;stroke:red;stroke-width:1px;stroke-linecap:butt;stroke-linejoin:miter;stroke-opacity:1" d="M 364.073,996 382.076,996 z" id="boundary" inkscape:connector-curvature="0" />
	<path style="fill:none;stroke:red;stroke-width:1px;stroke-linecap:butt;stroke-linejoin:miter;stroke-opacity:1" d="M 378.475,4 391.078,18.4029 z" id="boundary" inkscape:connector-curvature="0" />
	<path style="fill:none;stroke:red;stroke-width:1px;stroke-linecap:butt;stroke-linejoin:miter;stroke-opacity:1" d="M 382.076,996 400.08,996 z" id="boundary" inkscape:connector-curvature="0" />
	<path style="fill:none;stroke:red;stroke-width:1px;stroke-linecap:butt;stroke-linejoin:miter;stroke-opacity:1" d="M 391.078,18.4029 401.88,32.8058 z" id="boundary" inkscape:connector-curvature="0" />
	<path style="fill:none;stroke:red;stroke-width:1px;stroke-linecap:butt;stroke-linejoin:miter;stroke-opacity:1" d="M 400.08,996 418.083,996 z" id="boundary" inkscape:connector-curvature="0" />
	<path style="fill:none;stroke:red;stroke-width:1px;stroke-linecap:butt;stroke-linejoin:miter;stroke-opacity:1" d="M 401.88,32.8058 410.882,49.0091 z" id="boundary" inkscape:connector-curvature="0" />
	<path style="fill:none;stroke:red;stroke-width:1px;stroke-linecap:butt;stroke-linejoin:miter;stroke-opacity:1" d="M 401.88,185.837 401.88,203.84 z" id="boundary" inkscape:connector-curvature="0" />
	<path style="fill:none;stroke:red;stroke-width:1px;stroke-linecap:butt;stroke-linejoin:miter;stroke-opacity:1" d="M 401.88,185.837 410.882,157.031 z" id="boundary" inkscape:connector-curvature="0" />
	<path style="fill:none;stroke:red;stroke-width:1px;stroke-linecap:butt;stroke-linejoin:miter;stroke-opacity:1" d="M 401.88,203.84 410.882,220.044 z" id="boundary" inkscape:connector-curvature="0" />
	<path style="fill:none;stroke:red;stroke-width:1px;stroke-linecap:butt;stroke-linejoin:miter;stroke-opacity:1" d="M 410.882,49.0091 410.882,67.0127 z" id="boundary" inkscape:connector-curvature="0" />
	<path style="fill:none;stroke:red;stroke-width:1px;stroke-linecap:butt;stroke-linejoin:miter;stroke-opacity:1" d="M 410.882,67.0127 410.882,85.0163 z" id="boundary" inkscape:connector-curvature="0" />
	<path style="fill:none;stroke:red;stroke-width:1px;stroke-linecap:butt;stroke-linejoin:miter;stroke-opacity:1" d="M 410.882,85.0163 410.882,103.02 z" id="boundary" inkscape:connector-curvature="0" />
	<path style="fill:none;stroke:red;stroke-width:1px;stroke-linecap:butt;stroke-linejoin:miter;stroke-opacity:1" d="M 410.882,103.02 410.882,121.024 z" id="boundary" inkscape:connector-curvature="0" />
	<path style="fill:none;stroke:red;stroke-width:1px;stroke-linecap:butt;stroke-linejoin:miter;stroke-opacity:1" d="M 410.882,121.024 410.882,139.027 z" id="boundary" inkscape:connector-curvature="0" />
	<path style="fill:none;stroke:red;stroke-width:1px;stroke-linecap:butt;stroke-linejoin:miter;stroke-opacity:1" d="M 410.882,139.027 410.882,157.031 z" id="boundary" inkscape:connector-curvature="0" />
	<path style="fill:none;stroke:red;stroke-width:1px;stroke-linecap:butt;stroke-linejoin:miter;stroke-opacity:1" d="M 410.882,220.044 410.882,238.047 z" id="boundary" inkscape:connector-curvature="0" />
	<path style="fill:none;stroke:red;stroke-width:1px;stroke-linecap:butt;stroke-linejoin:miter;stroke-opacity:1" d="M 410.882,238.047 410.882,256.051 z" id="boundary" inkscape:connector-curvature="0" />
	<path style="fill:none;stroke:red;stroke-width:1px;stroke-linecap:butt;stroke-linejoin:miter;stroke-opacity:1" d="M 410.882,256.051 410.882,274.054 z" id="boundary" inkscape:connector-curvature="0" />
	<path style="fill:none;stroke:red;stroke-width:1px;stroke-linecap:butt;stroke-linejoin:miter;stroke-opacity:1" d="M 410.882,274.054 410.882,292.058 z" id="boundary" inkscape:connector-curvature="0" />
	<path style="fill:none;stroke:red;stroke-width:1px;stroke-linecap:butt;stroke-linejoin:miter;stroke-opacity:1" d="M 410.882,292.058 410.882,310.062 z" id="boundary" inkscape:connector-curvature="0" />
	<path style="fill:none;stroke:red;stroke-width:1px;stroke-linecap:butt;stroke-linejoin:miter;stroke-opacity:1" d="M 410.882,310.062 410.882,328.065 z" id="boundary" inkscape:connector-curvature="0" />
	<path style="fill:none;stroke:red;stroke-width:1px;stroke-linecap:butt;stroke-linejoin:miter;stroke-opacity:1" d="M 410.882,328.065 410.882,346.069 z" id="boundary" inkscape:connector-curvature="0" />
	<path style="fill:none;stroke:red;stroke-width:1px;stroke-linecap:butt;stroke-linejoin:miter;stroke-opacity:1" d="M 410.882,346.069 410.882,364.073 z" id="boundary" inkscape:connector-curvature="0" />
	<path style="fill:none;stroke:red;stroke-width:1px;stroke-linecap:butt;stroke-linejoin:miter;stroke-opacity:1" d="M 410.882,364.073 410.882,382.076 z" id="boundary" inkscape:connector-curvature="0" />
	<path style="fill:none;stroke:red;stroke-width:1px;stroke-linecap:butt;stroke-linejoin:miter;stroke-opacity:1" d="M 410.882,382.076 427.085,391.078 z" id="boundary" inkscape:connector-curvature="0" />
	<path style="fill:none;stroke:red;stroke-width:1px;stroke-linecap:butt;stroke-linejoin:miter;stroke-opacity:1" d="M 418.083,996 436.087,990.599 z" id="boundary" inkscape:connector-curvature="0" />
	<path style="fill:none;stroke:red;stroke-width:1px;stroke-linecap:butt;stroke-linejoin:miter;stroke-opacity:1" d="M 427.085,391.078 436.087,360.472 z" id="boundary" inkscape:connector-curvature="0" />
	<path style="fill:none;stroke:red;stroke-width:1px;stroke-linecap:butt;stroke-linejoin:miter;stroke-opacity:1" d="M 436.087,342.468 436.087,360.472 z" id="boundary" inkscape:connector-curvature="0" />
	<path style="fill:none;stroke:red;stroke-width:1px;stroke-linecap:butt;stroke-linejoin:miter;stroke-opacity:1" d="M 436.087,342.468 445.089,324.465 z" id="boundary" inkscape:connector-curvature="0" />
	<path style="fill:none;stroke:red;stroke-width:1px;stroke-linecap:butt;stroke-linejoin:miter;stroke-opacity:1" d="M 436.087,990.599 437.887,968.995 z" id="boundary" inkscape:connector-curvature="0" />
	<path style="fill:none;stroke:red;stroke-width:1px;stroke-linecap:butt;stroke-linejoin:miter;stroke-opacity:1" d="M 437.887,968.995 446.889,950.991 z" id="boundary" inkscape:connector-curvature="0" />
	<path style="fill:none;stroke:red;stroke-width:1px;stroke-linecap:butt;stroke-linejoin:miter;stroke-opacity:1" d="M 445.089,306.461 445.089,324.465 z" id="boundary" inkscape:connector-curvature="0" />
	<path style="fill:none;stroke:red;stroke-width:1px;stroke-linecap:butt;stroke-linejoin:miter;stroke-opacity:1" d="M 445.089,306.461 454.091,288.457 z" id="boundary" inkscape:connector-curvature="0" />
	<path style="fill:none;stroke:red;stroke-width:1px;stroke-linecap:butt;stroke-linejoin:miter;stroke-opacity:1" d="M 446.889,950.991 461.292,938.388 z" id="boundary" inkscape:connector-curvature="0" />
	<path style="fill:none;stroke:red;stroke-width:1px;stroke-linecap:butt;stroke-linejoin:miter;stroke-opacity:1" d="M 454.091,270.454 454.091,288.457 z" id="boundary" inkscape:connector-curvature="0" />
	<path style="fill:none;stroke:red;stroke-width:1px;stroke-linecap:butt;stroke-linejoin:miter;stroke-opacity:1" d="M 454.091,270.454 463.093,243.448 z" id="boundary" inkscape:connector-curvature="0" />
	<path style="fill:none;stroke:red;stroke-width:1px;stroke-linecap:butt;stroke-linejoin:miter;stroke-opacity:1" d="M 461.292,938.388 473.895,923.985 z" id="boundary" inkscape:connector-curvature="0" />
	<path style="fill:none;stroke:red;stroke-width:1px;stroke-linecap:butt;stroke-linejoin:miter;stroke-opacity:1" d="M 463.093,117.423 463.093,135.426 z" id="boundary" inkscape:connector-curvature="0" />
	<path style="fill:none;stroke:red;stroke-width:1px;stroke-linecap:butt;stroke-linejoin:miter;stroke-opacity:1" d="M 463.093,117.423 472.094,90.4174 z" id="boundary" inkscape:connector-curvature="0" />
	<path style="fill:none;stroke:red;stroke-width:1px;stroke-linecap:butt;stroke-linejoin:miter;stroke-opacity:1" d="M 463.093,135.426 463.093,153.43 z" id="boundary" inkscape:connector-curvature="0" />
	<path style="fill:none;stroke:red;stroke-width:1px;stroke-linecap:butt;stroke-linejoin:miter;stroke-opacity:1" d="M 463.093,153.43 463.093,171.434 z" id="boundary" inkscape:connector-curvature="0" />
	<path style="fill:none;stroke:red;stroke-width:1px;stroke-linecap:butt;stroke-linejoin:miter;stroke-opacity:1" d="M 463.093,171.434 463.093,189.437 z" id="boundary" inkscape:connector-curvature="0" />
	<path style="fill:none;stroke:red;stroke-width:1px;stroke-linecap:butt;stroke-linejoin:miter;stroke-opacity:1" d="M 463.093,189.437 463.093,207.441 z" id="boundary" inkscape:connector-curvature="0" />
	<path style="fill:none;stroke:red;stroke-width:1px;stroke-linecap:butt;stroke-linejoin:miter;stroke-opacity:1" d="M 463.093,207.441 463.093,225.445 z" id="boundary" inkscape:connector-curvature="0" />
	<path style="fill:none;stroke:red;stroke-width:1px;stroke-linecap:butt;stroke-linejoin:miter;stroke-opacity:1" d="M 463.093,225.445 463.093,243.448 z" id="boundary" inkscape:connector-curvature="0" />
	<path style="fill:none;stroke:red;stroke-width:1px;stroke-linecap:butt;stroke-linejoin:miter;stroke-opacity:1" d="M 472.094,90.4174 486.497,76.0145 z" id="boundary" inkscape:connector-curvature="0" />
	<path style="fill:none;stroke:red;stroke-width:1px;stroke-linecap:butt;stroke-linejoin:miter;stroke-opacity:1" d="M 473.895,923.985 490.098,914.984 z" id="boundary" inkscape:connector-curvature="0" />
	<path style="fill:none;stroke:red;stroke-width:1px;stroke-linecap:butt;stroke-linejoin:miter;stroke-opacity:1" d="M 486.497,76.0145 502.701,67.0127 z" id="boundary" inkscape:connector-curvature="0" />
	<path style="fill:none;stroke:red;stroke-width:1px;stroke-linecap:butt;stroke-linejoin:miter;stroke-opacity:1" d="M 490.098,914.984 508.102,914.984 z" id="boundary" inkscape:connector-curvature="0" />
	<path style="fill:none;stroke:red;stroke-width:1px;stroke-linecap:butt;stroke-linejoin:miter;stroke-opacity:1" d="M 502.701,67.0127 520.704,67.0127 z" id="boundary" inkscape:connector-curvature="0" />
	<path style="fill:none;stroke:red;stroke-width:1px;stroke-linecap:butt;stroke-linejoin:miter;stroke-opacity:1" d="M 508.102,914.984 522.505,904.181 z" id="boundary" inkscape:connector-curvature="0" />
	<path style="fill:none;stroke:red;stroke-width:1px;stroke-linecap:butt;stroke-linejoin:miter;stroke-opacity:1" d="M 520.704,67.0127 536.907,76.0145 z" id="boundary" inkscape:connector-curvature="0" />
	<path style="fill:none;stroke:red;stroke-width:1px;stroke-linecap:butt;stroke-linejoin:miter;stroke-opacity:1" d="M 522.505,904.181 536.907,887.978 z" id="boundary" inkscape:connector-curvature="0" />
	<path style="fill:none;stroke:red;stroke-width:1px;stroke-linecap:butt;stroke-linejoin:miter;stroke-opacity:1" d="M 527.906,509.902 527.906,527.906 z" id="boundary" inkscape:connector-curvature="0" />
	<path style="fill:none;stroke:red;stroke-width:1px;stroke-linecap:butt;stroke-linejoin:miter;stroke-opacity:1" d="M 527.906,509.902 536.907,482.897 z" id="boundary" inkscape:connector-curvature="0" />
	<path style="fill:none;stroke:red;stroke-width:1px;stroke-linecap:butt;stroke-linejoin:miter;stroke-opacity:1" d="M 527.906,527.906 527.906,545.909 z" id="boundary" inkscape:connector-curvature="0" />
	<path style="fill:none;stroke:red;stroke-width:1px;stroke-linecap:butt;stroke-linejoin:miter;stroke-opacity:1" d="M 527.906,545.909 536.907,562.113 z" id="boundary" inkscape:connector-curvature="0" />
	<path style="fill:none;stroke:red;stroke-width:1px;stroke-linecap:butt;stroke-linejoin:miter;stroke-opacity:1" d="M 536.907,76.0145 551.31,86.8167 z" id="boundary" inkscape:connector-curvature="0" />
	<path style="fill:none;stroke:red;stroke-width:1px;stroke-linecap:butt;stroke-linejoin:miter;stroke-opacity:1" d="M 536.907,374.875 536.907,392.878 z" id="boundary" inkscape:connector-curvature="0" />
	<path style="fill:none;stroke:red;stroke-width:1px;stroke-linecap:butt;stroke-linejoin:miter;stroke-opacity:1" d="M 536.907,374.875 545.909,356.871 z" id="boundary" inkscape:connector-curvature="0" />
	<path style="fill:none;stroke:red;stroke-width:1px;stroke-linecap:butt;stroke-linejoin:miter;stroke-opacity:1" d="M 536.907,392.878 536.907,410.882 z" id="boundary" inkscape:connector-curvature="0" />
	<path style="fill:none;stroke:red;stroke-width:1px;stroke-linecap:butt;stroke-linejoin:miter;stroke-opacity:1" d="M 536.907,410.882 536.907,428.886 z" id="boundary" inkscape:connector-curvature="0" />
	<path style="fill:none;stroke:red;stroke-width:1px;stroke-linecap:butt;stroke-linejoin:miter;stroke-opacity:1" d="M 536.907,428.886 536.907,446.889 z" id="boundary" inkscape:connector-curvature="0" />
	<path style="fill:none;stroke:red;stroke-width:1px;stroke-linecap:butt;stroke-linejoin:miter;stroke-opacity:1" d="M 536.907,446.889 536.907,464.893 z" id="boundary" inkscape:connector-curvature="0" />
	<path style="fill:none;stroke:red;stroke-width:1px;stroke-linecap:butt;stroke-linejoin:miter;stroke-opacity:1" d="M 536.907,464.893 536.907,482.897 z" id="boundary" inkscape:connector-curvature="0" />
	<path style="fill:none;stroke:red;stroke-width:1px;stroke-linecap:butt;stroke-linejoin:miter;stroke-opacity:1" d="M 536.907,562.113 536.907,580.116 z" id="boundary" inkscape:connector-curvature="0" />
	<path style="fill:none;stroke:red;stroke-width:1px;stroke-linecap:butt;stroke-linejoin:miter;stroke-opacity:1" d="M 536.907,580.116 554.911,585.517 z" id="boundary" inkscape:connector-curvature="0" />
	<path style="fill:none;stroke:red;stroke-width:1px;stroke-linecap:butt;stroke-linejoin:miter;stroke-opacity:1" d="M 536.907,887.978 551.31,875.376 z" id="boundary" inkscape:connector-curvature="0" />
	<path style="fill:none;stroke:red;stroke-width:1px;stroke-linecap:butt;stroke-linejoin:miter;stroke-opacity:1" d="M 545.909,338.868 545.909,356.871 z" id="boundary" inkscape:connector-curvature="0" />
	<path style="fill:none;stroke:red;stroke-width:1px;stroke-linecap:butt;stroke-linejoin:miter;stroke-opacity:1" d="M 545.909,338.868 554.911,311.862 z" id="boundary" inkscape:connector-curvature="0" />
	<path style="fill:none;stroke:red;stroke-width:1px;stroke-linecap:butt;stroke-linejoin:miter;stroke-opacity:1" d="M 551.31,86.8167 558.512,104.82 z" id="boundary" inkscape:connector-curvature="0" />
	<path style="fill:none;stroke:red;stroke-width:1px;stroke-linecap:butt;stroke-linejoin:miter;stroke-opacity:1" d="M 551.31,875.376 563.913,860.973 z" id="boundary" inkscape:connector-curvature="0" />
	<path style="fill:none;stroke:red;stroke-width:1px;stroke-linecap:butt;stroke-linejoin:miter;stroke-opacity:1" d="M 554.911,239.848 554.911,257.851 z" id="boundary" inkscape:connector-curvature="0" />
	<path style="fill:none;stroke:red;stroke-width:1px;stroke-linecap:butt;stroke-linejoin:miter;stroke-opacity:1" d="M 554.911,239.848 563.913,212.842 z" id="boundary" inkscape:connector-curvature="0" />
	<path style="fill:none;stroke:red;stroke-width:1px;stroke-linecap:butt;stroke-linejoin:miter;stroke-opacity:1" d="M 554.911,257.851 554.911,275.855 z" id="boundary" inkscape:connector-curvature="0" />
	<path style="fill:none;stroke:red;stroke-width:1px;stroke-linecap:butt;stroke-linejoin:miter;stroke-opacity:1" d="M 554.911,275.855 554.911,293.858 z" id="boundary" inkscape:connector-curvature="0" />
	<path style="fill:none;stroke:red;stroke-width:1px;stroke-linecap:butt;stroke-linejoin:miter;stroke-opacity:1" d="M 554.911,293.858 554.911,311.862 z" id="boundary" inkscape:connector-curvature="0" />
	<path style="fill:none;stroke:red;stroke-width:1px;stroke-linecap:butt;stroke-linejoin:miter;stroke-opacity:1" d="M 554.911,585.517 562.113,603.521 z" id="boundary" inkscape:connector-curvature="0" />
	<path style="fill:none;stroke:red;stroke-width:1px;stroke-linecap:butt;stroke-linejoin:miter;stroke-opacity:1" d="M 558.512,104.82 563.913,122.824 z" id="boundary" inkscape:connector-curvature="0" />
	<path style="fill:none;stroke:red;stroke-width:1px;stroke-linecap:butt;stroke-linejoin:miter;stroke-opacity:1" d="M 562.113,603.521 576.515,616.123 z" id="boundary" inkscape:connector-curvature="0" />
	<path style="fill:none;stroke:red;stroke-width:1px;stroke-linecap:butt;stroke-linejoin:miter;stroke-opacity:1" d="M 563.913,122.824 563.913,140.828 z" id="boundary" inkscape:connector-curvature="0" />
	<path style="fill:none;stroke:red;stroke-width:1px;stroke-linecap:butt;stroke-linejoin:miter;stroke-opacity:1" d="M 563.913,140.828 563.913,158.831 z" id="boundary" inkscape:connector-curvature="0" />
	<path style="fill:none;stroke:red;stroke-width:1px;stroke-linecap:butt;stroke-linejoin:miter;stroke-opacity:1" d="M 563.913,158.831 563.913,176.835 z" id="boundary" inkscape:connector-curvature="0" />
	<path style="fill:none;stroke:red;stroke-width:1px;stroke-linecap:butt;stroke-linejoin:miter;stroke-opacity:1" d="M 563.913,176.835 563.913,194.838 z" id="boundary" inkscape:connector-curvature="0" />
	<path style="fill:none;stroke:red;stroke-width:1px;stroke-linecap:butt;stroke-linejoin:miter;stroke-opacity:1" d="M 563.913,194.838 563.913,212.842 z" id="boundary" inkscape:connector-curvature="0" />
	<path style="fill:none;stroke:red;stroke-width:1px;stroke-linecap:butt;stroke-linejoin:miter;stroke-opacity:1" d="M 563.913,860.973 578.316,848.37 z" id="boundary" inkscape:connector-curvature="0" />
	<path style="fill:none;stroke:red;stroke-width:1px;stroke-linecap:butt;stroke-linejoin:miter;stroke-opacity:1" d="M 576.515,616.123 594.519,616.123 z" id="boundary" inkscape:connector-curvature="0" />
	<path style="fill:none;stroke:red;stroke-width:1px;stroke-linecap:butt;stroke-linejoin:miter;stroke-opacity:1" d="M 578.316,848.37 590.918,833.967 z" id="boundary" inkscape:connector-curvature="0" />
	<path style="fill:none;stroke:red;stroke-width:1px;stroke-linecap:butt;stroke-linejoin:miter;stroke-opacity:1" d="M 590.918,833.967 605.321,821.365 z" id="boundary" inkscape:connector-curvature="0" />
	<path style="fill:none;stroke:red;stroke-width:1px;stroke-linecap:butt;stroke-linejoin:miter;stroke-opacity:1" d="M 594.519,616.123 603.521,598.12 z" id="boundary" inkscape:connector-curvature="0" />
	<path style="fill:none;stroke:red;stroke-width:1px;stroke-linecap:butt;stroke-linejoin:miter;stroke-opacity:1" d="M 603.521,598.12 617.924,583.717 z" id="boundary" inkscape:connector-curvature="0" />
	<path style="fill:none;stroke:red;stroke-width:1px;stroke-linecap:butt;stroke-linejoin:miter;stroke-opacity:1" d="M 605.321,821.365 617.924,797.96 z" id="boundary" inkscape:connector-curvature="0" />
	<path style="fill:none;stroke:red;stroke-width:1px;stroke-linecap:butt;stroke-linejoin:miter;stroke-opacity:1" d="M 617.924,583.717 626.926,565.713 z" id="boundary" inkscape:connector-curvature="0" />
	<path style="fill:none;stroke:red;stroke-width:1px;stroke-linecap:butt;stroke-linejoin:miter;stroke-opacity:1" d="M 617.924,797.96 626.926,779.956 z" id="boundary" inkscape:connector-curvature="0" />
	<path style="fill:none;stroke:red;stroke-width:1px;stroke-linecap:butt;stroke-linejoin:miter;stroke-opacity:1" d="M 626.926,565.713 641.328,553.111 z" id="boundary" inkscape:connector-curvature="0" />
	<path style="fill:none;stroke:red;stroke-width:1px;stroke-linecap:butt;stroke-linejoin:miter;stroke-opacity:1" d="M 626.926,779.956 641.328,767.354 z" id="boundary" inkscape:connector-curvature="0" />
	<path style="fill:none;stroke:red;stroke-width:1px;stroke-linecap:butt;stroke-linejoin:miter;stroke-opacity:1" d="M 641.328,553.111 653.931,538.708 z" id="boundary" inkscape:connector-curvature="0" />
	<path style="fill:none;stroke:red;stroke-width:1px;stroke-linecap:butt;stroke-linejoin:miter;stroke-opacity:1" d="M 641.328,767.354 653.931,743.949 z" id="boundary" inkscape:connector-curvature="0" />
	<path style="fill:none;stroke:red;stroke-width:1px;stroke-linecap:butt;stroke-linejoin:miter;stroke-opacity:1" d="M 653.931,538.708 668.334,526.105 z" id="boundary" inkscape:connector-curvature="0" />
	<path style="fill:none;stroke:red;stroke-width:1px;stroke-linecap:butt;stroke-linejoin:miter;stroke-opacity:1" d="M 653.931,743.949 668.334,731.347 z" id="boundary" inkscape:connector-curvature="0" />
	<path style="fill:none;stroke:red;stroke-width:1px;stroke-linecap:butt;stroke-linejoin:miter;stroke-opacity:1" d="M 668.334,526.105 680.936,511.702 z" id="boundary" inkscape:connector-curvature="0" />
	<path style="fill:none;stroke:red;stroke-width:1px;stroke-linecap:butt;stroke-linejoin:miter;stroke-opacity:1" d="M 668.334,731.347 671.935,707.942 z" id="boundary" inkscape:connector-curvature="0" />
	<path style="fill:none;stroke:red;stroke-width:1px;stroke-linecap:butt;stroke-linejoin:miter;stroke-opacity:1" d="M 671.935,707.942 686.338,695.339 z" id="boundary" inkscape:connector-curvature="0" />
	<path style="fill:none;stroke:red;stroke-width:1px;stroke-linecap:butt;stroke-linejoin:miter;stroke-opacity:1" d="M 680.936,511.702 695.339,499.1 z" id="boundary" inkscape:connector-curvature="0" />
	<path style="fill:none;stroke:red;stroke-width:1px;stroke-linecap:butt;stroke-linejoin:miter;stroke-opacity:1" d="M 686.338,695.339 695.339,677.336 z" id="boundary" inkscape:connector-curvature="0" />
	<path style="fill:none;stroke:red;stroke-width:1px;stroke-linecap:butt;stroke-linejoin:miter;stroke-opacity:1" d="M 695.339,499.1 711.543,490.098 z" id="boundary" inkscape:connector-curvature="0" />
	<path style="fill:none;stroke:red;stroke-width:1px;stroke-linecap:butt;stroke-linejoin:miter;stroke-opacity:1" d="M 695.339,677.336 707.942,653.931 z" id="boundary" inkscape:connector-curvature="0" />
	<path style="fill:none;stroke:red;stroke-width:1px;stroke-linecap:butt;stroke-linejoin:miter;stroke-opacity:1" d="M 707.942,653.931 722.345,641.328 z" id="boundary" inkscape:connector-curvature="0" />
	<path style="fill:none;stroke:red;stroke-width:1px;stroke-linecap:butt;stroke-linejoin:miter;stroke-opacity:1" d="M 711.543,490.098 727.746,481.096 z" id="boundary" inkscape:connector-curvature="0" />
	<path style="fill:none;stroke:red;stroke-width:1px;stroke-linecap:butt;stroke-linejoin:miter;stroke-opacity:1" d="M 722.345,641.328 734.947,617.924 z" id="boundary" inkscape:connector-curvature="0" />
	<path style="fill:none;stroke:red;stroke-width:1px;stroke-linecap:butt;stroke-linejoin:miter;stroke-opacity:1" d="M 727.746,481.096 743.949,472.094 z" id="boundary" inkscape:connector-curvature="0" />
	<path style="fill:none;stroke:red;stroke-width:1px;stroke-linecap:butt;stroke-linejoin:miter;stroke-opacity:1" d="M 734.947,617.924 749.35,605.321 z" id="boundary" inkscape:connector-curvature="0" />
	<path style="fill:none;stroke:red;stroke-width:1px;stroke-linecap:butt;stroke-linejoin:miter;stroke-opacity:1" d="M 743.949,472.094 760.152,463.093 z" id="boundary" inkscape:connector-curvature="0" />
	<path style="fill:none;stroke:red;stroke-width:1px;stroke-linecap:butt;stroke-linejoin:miter;stroke-opacity:1" d="M 749.35,605.321 758.352,587.318 z" id="boundary" inkscape:connector-curvature="0" />
	<path style="fill:none;stroke:red;stroke-width:1px;stroke-linecap:butt;stroke-linejoin:miter;stroke-opacity:1" d="M 758.352,587.318 770.955,572.915 z" id="boundary" inkscape:connector-curvature="0" />
	<path style="fill:none;stroke:red;stroke-width:1px;stroke-linecap:butt;stroke-linejoin:miter;stroke-opacity:1" d="M 760.152,463.093 778.156,463.093 z" id="boundary" inkscape:connector-curvature="0" />
	<path style="fill:none;stroke:red;stroke-width:1px;stroke-linecap:butt;stroke-linejoin:miter;stroke-opacity:1" d="M 770.955,572.915 788.958,554.911 z" id="boundary" inkscape:connector-curvature="0" />
	<path style="fill:none;stroke:red;stroke-width:1px;stroke-linecap:butt;stroke-linejoin:miter;stroke-opacity:1" d="M 778.156,463.093 796.16,463.093 z" id="boundary" inkscape:connector-curvature="0" />
	<path style="fill:none;stroke:red;stroke-width:1px;stroke-linecap:butt;stroke-linejoin:miter;stroke-opacity:1" d="M 788.958,554.911 803.361,542.309 z" id="boundary" inkscape:connector-curvature="0" />
	<path style="fill:none;stroke:red;stroke-width:1px;stroke-linecap:butt;stroke-linejoin:miter;stroke-opacity:1" d="M 796.16,463.093 812.363,472.094 z" id="boundary" inkscape:connector-curvature="0" />
	<path style="fill:none;stroke:red;stroke-width:1px;stroke-linecap:butt;stroke-linejoin:miter;stroke-opacity:1" d="M 803.361,542.309 821.365,533.307 z" id="boundary" inkscape:connector-curvature="0" />
	<path style="fill:none;stroke:red;stroke-width:1px;stroke-linecap:butt;stroke-linejoin:miter;stroke-opacity:1" d="M 812.363,472.094 828.566,481.096 z" id="boundary" inkscape:connector-curvature="0" />
	<path style="fill:none;stroke:red;stroke-width:1px;stroke-linecap:butt;stroke-linejoin:miter;stroke-opacity:1" d="M 821.365,533.307 833.967,517.103 z" id="boundary" inkscape:connector-curvature="0" />
	<path style="fill:none;stroke:red;stroke-width:1px;stroke-linecap:butt;stroke-linejoin:miter;stroke-opacity:1" d="M 828.566,481.096 833.967,499.1 z" id="boundary" inkscape:connector-curvature="0" />
	<path style="fill:none;stroke:red;stroke-width:1px;stroke-linecap:butt;stroke-linejoin:miter;stroke-opacity:1" d="M 833.967,499.1 833.967,517.103 z" id="boundary" inkscape:connector-curvature="0" />
	<circle cx="4" cy="225.445" r="4" fill="#0" id="circle0"/>
	<circle cx="4" cy="243.448" r="4" fill="#0" id="circle1"/>
	<circle cx="4" cy="261.452" r="4" fill="#0" id="circle2"/>
	<circle cx="4" cy="279.456" r="4" fill="#0" id="circle3"/>
	<circle cx="4" cy="297.459" r="4" fill="#0" id="circle4"/>
	<circle cx="13.0018" cy="313.662" r="4" fill="#0" id="circle5"/>
	<circle cx="13.0018" cy="331.666" r="4" fill="#0" id="circle6"/>
	<circle cx="18.4029" cy="211.042" r="4" fill="#0" id="circle7"/>
	<circle cx="22.0036" cy="347.869" r="4" fill="#0" id="circle8"/>
	<circle cx="27.4047" cy="365.873" r="4" fill="#0" id="circle9"/>
	<circle cx="31.0054" cy="383.877" r="4" fill="#0" id="circle10"/>
	<circle cx="36.4065" cy="211.042" r="4" fill="#0" id="circle11"/>
	<circle cx="40.0073" cy="400.08" r="4" fill="#0" id="circle12"/>
	<circle cx="40.0073" cy="418.083" r="4" fill="#0" id="circle13"/>
	<circle cx="49.0091" cy="434.287" r="4" fill="#0" id="circle14"/>
	<circle cx="54.4102" cy="211.042" r="4" fill="#0" id="circle15"/>
	<circle cx="58.0109" cy="450.49" r="4" fill="#0" id="circle16"/>
	<circle cx="67.0127" cy="466.693" r="4" fill="#0" id="circle17"/>
	<circle cx="70.6134" cy="220.044" r="4" fill="#0" id="circle18"/>
	<circle cx="76.0145" cy="482.897" r="4" fill="#0" id="circle19"/>
	<circle cx="81.4156" cy="500.9" r="4" fill="#0" id="circle20"/>
	<circle cx="85.0163" cy="232.646" r="4" fill="#0" id="circle21"/>
	<circle cx="85.0163" cy="518.904" r="4" fill="#0" id="circle22"/>
	<circle cx="90.4174" cy="536.907" r="4" fill="#0" id="circle23"/>
	<circle cx="92.2178" cy="250.65" r="4" fill="#0" id="circle24"/>
	<circle cx="94.0181" cy="554.911" r="4" fill="#0" id="circle25"/>
	<circle cx="94.0181" cy="572.915" r="4" fill="#0" id="circle26"/>
	<circle cx="94.0181" cy="590.918" r="4" fill="#0" id="circle27"/>
	<circle cx="94.0181" cy="608.922" r="4" fill="#0" id="circle28"/>
	<circle cx="94.0181" cy="626.926" r="4" fill="#0" id="circle29"/>
	<circle cx="94.0181" cy="644.929" r="4" fill="#0" id="circle30"/>
	<circle cx="94.0181" cy="662.933" r="4" fill="#0" id="circle31"/>
	<circle cx="94.0181" cy="680.936" r="4" fill="#0" id="circle32"/>
	<circle cx="94.0181" cy="698.94" r="4" fill="#0" id="circle33"/>
	<circle cx="95.8185" cy="268.653" r="4" fill="#0" id="circle34"/>
	<circle cx="101.22" cy="286.657" r="4" fill="#0" id="circle35"/>
	<circle cx="103.02" cy="715.143" r="4" fill="#0" id="circle36"/>
	<circle cx="103.02" cy="733.147" r="4" fill="#0" id="circle37"/>
	<circle cx="104.82" cy="304.661" r="4" fill="#0" id="circle38"/>
	<circle cx="104.82" cy="322.664" r="4" fill="#0" id="circle39"/>
	<circle cx="106.621" cy="751.151" r="4" fill="#0" id="circle40"/>
	<circle cx="112.022" cy="769.154" r="4" fill="#0" id="circle41"/>
	<circle cx="112.022" cy="972.595" r="4" fill="#0" id="circle42"/>
	<circle cx="112.022" cy="990.599" r="4" fill="#0" id="circle43"/>
	<circle cx="113.822" cy="338.868" r="4" fill="#0" id="circle44"/>
	<circle cx="115.623" cy="787.158" r="4" fill="#0" id="circle45"/>
	<circle cx="117.423" cy="356.871" r="4" fill="#0" id="circle46"/>
	<circle cx="121.024" cy="805.162" r="4" fill="#0" id="circle47"/>
	<circle cx="121.024" cy="945.59" r="4" fill="#0" id="circle48"/>
	<circle cx="130.025" cy="821.365" r="4" fill="#0" id="circle49"/>
	<circle cx="130.025" cy="909.583" r="4" fill="#0" id="circle50"/>
	<circle cx="130.025" cy="927.586" r="4" fill="#0" id="circle51"/>
	<circle cx="130.025" cy="996" r="4" fill="#0" id="circle52"/>
	<circle cx="131.826" cy="369.474" r="4" fill="#0" id="circle53"/>
	<circle cx="131.826" cy="387.477" r="4" fill="#0" id="circle54"/>
	<circle cx="131.826" cy="839.368" r="4" fill="#0" id="circle55"/>
	<circle cx="139.027" cy="405.481" r="4" fill="#0" id="circle56"/>
	<circle cx="139.027" cy="857.372" r="4" fill="#0" id="circle57"/>
	<circle cx="139.027" cy="875.376" r="4" fill="#0" id="circle58"/>
	<circle cx="139.027" cy="893.379" r="4" fill="#0" id="circle59"/>
	<circle cx="148.029" cy="81.4156" r="4" fill="#0" id="circle60"/>
	<circle cx="148.029" cy="99.4192" r="4" fill="#0" id="circle61"/>
	<circle cx="148.029" cy="117.423" r="4" fill="#0" id="circle62"/>
	<circle cx="148.029" cy="135.426" r="4" fill="#0" id="circle63"/>
	<circle cx="148.029" cy="153.43" r="4" fill="#0" id="circle64"/>
	<circle cx="148.029" cy="171.434" r="4" fill="#0" id="circle65"/>
	<circle cx="148.029" cy="189.437" r="4" fill="#0" id="circle66"/>
	<circle cx="148.029" cy="207.441" r="4" fill="#0" id="circle67"/>
	<circle cx="148.029" cy="421.684" r="4" fill="#0" id="circle68"/>
	<circle cx="148.029" cy="996" r="4" fill="#0" id="circle69"/>
	<circle cx="155.23" cy="439.688" r="4" fill="#0" id="circle70"/>
	<circle cx="157.031" cy="223.644" r="4" fill="#0" id="circle71"/>
	<circle cx="162.432" cy="67.0127" r="4" fill="#0" id="circle72"/>
	<circle cx="166.033" cy="239.848" r="4" fill="#0" id="circle73"/>
	<circle cx="166.033" cy="257.851" r="4" fill="#0" id="circle74"/>
	<circle cx="166.033" cy="275.855" r="4" fill="#0" id="circle75"/>
	<circle cx="166.033" cy="293.858" r="4" fill="#0" id="circle76"/>
	<circle cx="166.033" cy="311.862" r="4" fill="#0" id="circle77"/>
	<circle cx="166.033" cy="329.866" r="4" fill="#0" id="circle78"/>
	<circle cx="166.033" cy="347.869" r="4" fill="#0" id="circle79"/>
	<circle cx="166.033" cy="996" r="4" fill="#0" id="circle80"/>
	<circle cx="167.833" cy="454.091" r="4" fill="#0" id="circle81"/>
	<circle cx="175.034" cy="364.073" r="4" fill="#0" id="circle82"/>
	<circle cx="175.034" cy="382.076" r="4" fill="#0" id="circle83"/>
	<circle cx="178.635" cy="58.0109" r="4" fill="#0" id="circle84"/>
	<circle cx="178.635" cy="400.08" r="4" fill="#0" id="circle85"/>
	<circle cx="184.036" cy="418.083" r="4" fill="#0" id="circle86"/>
	<circle cx="184.036" cy="436.087" r="4" fill="#0" id="circle87"/>
	<circle cx="184.036" cy="996" r="4" fill="#0" id="circle88"/>
	<circle cx="196.639" cy="58.0109" r="4" fill="#0" id="circle89"/>
	<circle cx="202.04" cy="996" r="4" fill="#0" id="circle90"/>
	<circle cx="214.642" cy="58.0109" r="4" fill="#0" id="circle91"/>
	<circle cx="220.044" cy="996" r="4" fill="#0" id="circle92"/>
	<circle cx="229.045" cy="70.6134" r="4" fill="#0" id="circle93"/>
	<circle cx="238.047" cy="996" r="4" fill="#0" id="circle94"/>
	<circle cx="239.848" cy="85.0163" r="4" fill="#0" id="circle95"/>
	<circle cx="248.849" cy="101.22" r="4" fill="#0" id="circle96"/>
	<circle cx="248.849" cy="119.223" r="4" fill="#0" id="circle97"/>
	<circle cx="248.849" cy="137.227" r="4" fill="#0" id="circle98"/>
	<circle cx="248.849" cy="155.23" r="4" fill="#0" id="circle99"/>
	<circle cx="248.849" cy="173.234" r="4" fill="#0" id="circle100"/>
	<circle cx="256.051" cy="996" r="4" fill="#0" id="circle101"/>
	<circle cx="257.851" cy="189.437" r="4" fill="#0" id="circle102"/>
	<circle cx="257.851" cy="207.441" r="4" fill="#0" id="circle103"/>
	<circle cx="257.851" cy="225.445" r="4" fill="#0" id="circle104"/>
	<circle cx="257.851" cy="243.448" r="4" fill="#0" id="circle105"/>
	<circle cx="265.053" cy="261.452" r="4" fill="#0" id="circle106"/>
	<circle cx="266.853" cy="279.456" r="4" fill="#0" id="circle107"/>
	<circle cx="274.054" cy="297.459" r="4" fill="#0" id="circle108"/>
	<circle cx="274.054" cy="996" r="4" fill="#0" id="circle109"/>
	<circle cx="275.855" cy="315.463" r="4" fill="#0" id="circle110"/>
	<circle cx="275.855" cy="333.466" r="4" fill="#0" id="circle111"/>
	<circle cx="284.857" cy="349.67" r="4" fill="#0" id="circle112"/>
	<circle cx="284.857" cy="367.673" r="4" fill="#0" id="circle113"/>
	<circle cx="292.058" cy="996" r="4" fill="#0" id="circle114"/>
	<circle cx="301.06" cy="45.4083" r="4" fill="#0" id="circle115"/>
	<circle cx="301.06" cy="63.412" r="4" fill="#0" id="circle116"/>
	<circle cx="301.06" cy="81.4156" r="4" fill="#0" id="circle117"/>
	<circle cx="301.06" cy="99.4192" r="4" fill="#0" id="circle118"/>
	<circle cx="301.06" cy="117.423" r="4" fill="#0" id="circle119"/>
	<circle cx="301.06" cy="135.426" r="4" fill="#0" id="circle120"/>
	<circle cx="301.06" cy="153.43" r="4" fill="#0" id="circle121"/>
	<circle cx="301.06" cy="171.434" r="4" fill="#0" id="circle122"/>
	<circle cx="301.06" cy="189.437" r="4" fill="#0" id="circle123"/>
	<circle cx="301.06" cy="207.441" r="4" fill="#0" id="circle124"/>
	<circle cx="301.06" cy="225.445" r="4" fill="#0" id="circle125"/>
	<circle cx="301.06" cy="243.448" r="4" fill="#0" id="circle126"/>
	<circle cx="301.06" cy="261.452" r="4" fill="#0" id="circle127"/>
	<circle cx="301.06" cy="279.456" r="4" fill="#0" id="circle128"/>
	<circle cx="301.06" cy="297.459" r="4" fill="#0" id="circle129"/>
	<circle cx="301.06" cy="315.463" r="4" fill="#0" id="circle130"/>
	<circle cx="301.06" cy="333.466" r="4" fill="#0" id="circle131"/>
	<circle cx="301.06" cy="358.672" r="4" fill="#0" id="circle132"/>
	<circle cx="310.062" cy="18.4029" r="4" fill="#0" id="circle133"/>
	<circle cx="310.062" cy="996" r="4" fill="#0" id="circle134"/>
	<circle cx="324.465" cy="4" r="4" fill="#0" id="circle135"/>
	<circle cx="328.065" cy="996" r="4" fill="#0" id="circle136"/>
	<circle cx="342.468" cy="4" r="4" fill="#0" id="circle137"/>
	<circle cx="346.069" cy="996" r="4" fill="#0" id="circle138"/>
	<circle cx="360.472" cy="4" r="4" fill="#0" id="circle139"/>
	<circle cx="364.073" cy="996" r="4" fill="#0" id="circle140"/>
	<circle cx="378.475" cy="4" r="4" fill="#0" id="circle141"/>
	<circle cx="382.076" cy="996" r="4" fill="#0" id="circle142"/>
	<circle cx="391.078" cy="18.4029" r="4" fill="#0" id="circle143"/>
	<circle cx="400.08" cy="996" r="4" fill="#0" id="circle144"/>
	<circle cx="401.88" cy="32.8058" r="4" fill="#0" id="circle145"/>
	<circle cx="401.88" cy="185.837" r="4" fill="#0" id="circle146"/>
	<circle cx="401.88" cy="203.84" r="4" fill="#0" id="circle147"/>
	<circle cx="410.882" cy="49.0091" r="4" fill="#0" id="circle148"/>
	<circle cx="410.882" cy="67.0127" r="4" fill="#0" id="circle149"/>
	<circle cx="410.882" cy="85.0163" r="4" fill="#0" id="circle150"/>
	<circle cx="410.882" cy="103.02" r="4" fill="#0" id="circle151"/>
	<circle cx="410.882" cy="121.024" r="4" fill="#0" id="circle152"/>
	<circle cx="410.882" cy="139.027" r="4" fill="#0" id="circle153"/>
	<circle cx="410.882" cy="157.031" r="4" fill="#0" id="circle154"/>
	<circle cx="410.882" cy="220.044" r="4" fill="#0" id="circle155"/>
	<circle cx="410.882" cy="238.047" r="4" fill="#0" id="circle156"/>
	<circle cx="410.882" cy="256.051" r="4" fill="#0" id="circle157"/>
	<circle cx="410.882" cy="274.054" r="4" fill="#0" id="circle158"/>
	<circle cx="410.882" cy="292.058" r="4" fill="#0" id="circle159"/>
	<circle cx="410.882" cy="310.062" r="4" fill="#0" id="circle160"/>
	<circle cx="410.882" cy="328.065" r="4" fill="#0" id="circle161"/>
	<circle cx="410.882" cy="346.069" r="4" fill="#0" id="circle162"/>
	<circle cx="410.882" cy="364.073" r="4" fill="#0" id="circle163"/>
	<circle cx="410.882" cy="382.076" r="4" fill="#0" id="circle164"/>
	<circle cx="418.083" cy="996" r="4" fill="#0" id="circle165"/>
	<circle cx="427.085" cy="391.078" r="4" fill="#0" id="circle166"/>
	<circle cx="436.087" cy="342.468" r="4" fill="#0" id="circle167"/>
	<circle cx="436.087" cy="360.472" r="4" fill="#0" id="circle168"/>
	<circle cx="436.087" cy="990.599" r="4" fill="#0" id="circle169"/>
	<circle cx="437.887" cy="968.995" r="4" fill="#0" id="circle170"/>
	<circle cx="445.089" cy="306.461" r="4" fill="#0" id="circle171"/>
	<circle cx="445.089" cy="324.465" r="4" fill="#0" id="circle172"/>
	<circle cx="446.889" cy="950.991" r="4" fill="#0" id="circle173"/>
	<circle cx="454.091" cy="270.454" r="4" fill="#0" id="circle174"/>
	<circle cx="454.091" cy="288.457" r="4" fill="#0" id="circle175"/>
	<circle cx="461.292" cy="938.388" r="4" fill="#0" id="circle176"/>
	<circle cx="463.093" cy="117.423" r="4" fill="#0" id="circle177"/>
	<circle cx="463.093" cy="135.426" r="4" fill="#0" id="circle178"/>
	<circle cx="463.093" cy="153.43" r="4" fill="#0" id="circle179"/>
	<circle cx="463.093" cy="171.434" r="4" fill="#0" id="circle180"/>
	<circle cx="463.093" cy="189.437" r="4" fill="#0" id="circle181"/>
	<circle cx="463.093" cy="207.441" r="4" fill="#0" id="circle182"/>
	<circle cx="463.093" cy="225.445" r="4" fill="#0" id="circle183"/>
	<circle cx="463.093" cy="243.448" r="4" fill="#0" id="circle184"/>
	<circle cx="472.094" cy="90.4174" r="4" fill="#0" id="circle185"/>
	<circle cx="473.895" cy="923.985" r="4" fill="#0" id="circle186"/>
	<circle cx="486.497" cy="76.0145" r="4" fill="#0" id="circle187"/>
	<circle cx="490.098" cy="914.984" r="4" fill="#0" id="circle188"/>
	<circle cx="502.701" cy="67.0127" r="4" fill="#0" id="circle189"/>
	<circle cx="508.102" cy="914.984" r="4" fill="#0" id="circle190"/>
	<circle cx="520.704" cy="67.0127" r="4" fill="#0" id="circle191"/>
	<circle cx="522.505" cy="904.181" r="4" fill="#0" id="circle192"/>
	<circle cx="527.906" cy="509.902" r="4" fill="#0" id="circle193"/>
	<circle cx="527.906" cy="527.906" r="4" fill="#0" id="circle194"/>
	<circle cx="527.906" cy="545.909" r="4" fill="#0" id="circle195"/>
	<circle cx="536.907" cy="76.0145" r="4" fill="#0" id="circle196"/>
	<circle cx="536.907" cy="374.875" r="4" fill="#0" id="circle197"/>
	<circle cx="536.907" cy="392.878" r="4" fill="#0" id="circle198"/>
	<circle cx="536.907" cy="410.882" r="4" fill="#0" id="circle199"/>
	<circle cx="536.907" cy="428.886" r="4" fill="#0" id="circle200"/>
	<circle cx="536.907" cy="446.889" r="4" fill="#0" id="circle201"/>
	<circle cx="536.907" cy="464.893" r="4" fill="#0" id="circle202"/>
	<circle cx="536.907" cy="482.897" r="4" fill="#0" id="circle203"/>
	<circle cx="536.907" cy="562.113" r="4" fill="#0" id="circle204"/>
	<circle cx="536.907" cy="580.116" r="4" fill="#0" id="circle205"/>
	<circle cx="536.907" cy="887.978" r="4" fill="#0" id="circle206"/>
	<circle cx="545.909" cy="338.868" r="4" fill="#0" id="circle207"/>
	<circle cx="545.909" cy="356.871" r="4" fill="#0" id="circle208"/>
	<circle cx="551.31" cy="86.8167" r="4" fill="#0" id="circle209"/>
	<circle cx="551.31" cy="875.376" r="4" fill="#0" id="circle210"/>
	<circle cx="554.911" cy="239.848" r="4" fill="#0" id="circle211"/>
	<circle cx="554.911" cy="257.851" r="4" fill="#0" id="circle212"/>
	<circle cx="554.911" cy="275.855" r="4" fill="#0" id="circle213"/>
	<circle cx="554.911" cy="293.858" r="4" fill="#0" id="circle214"/>
	<circle cx="554.911" cy="311.862" r="4" fill="#0" id="circle215"/>
	<circle cx="554.911" cy="585.517" r="4" fill="#0" id="circle216"/>
	<circle cx="558.512" cy="104.82" r="4" fill="#0" id="circle217"/>
	<circle cx="562.113" cy="603.521" r="4" fill="#0" id="circle218"/>
	<circle cx="563.913" cy="122.824" r="4" fill="#0" id="circle219"/>
	<circle cx="563.913" cy="140.828" r="4" fill="#0" id="circle220"/>
	<circle cx="563.913" cy="158.831" r="4" fill="#0" id="circle221"/>
	<circle cx="563.913" cy="176.835" r="4" fill="#0" id="circle222"/>
	<circle cx="563.913" cy="194.838" r="4" fill="#0" id="circle223"/>
	<circle cx="563.913" cy="212.842" r="4" fill="#0" id="circle224"/>
	<circle cx="563.913" cy="860.973" r="4" fill="#0" id="circle225"/>
	<circle cx="576.515" cy="616.123" r="4" fill="#0" id="circle226"/>
	<circle cx="578.316" cy="848.37" r="4" fill="#0" id="circle227"/>
	<circle cx="590.918" cy="833.967" r="4" fill="#0" id="circle228"/>
	<circle cx="594.519" cy="616.123" r="4" fill="#0" id="circle229"/>
	<circle cx="603.521" cy="598.12" r="4" fill="#0" id="circle230"/>
	<circle cx="605.321" cy="821.365" r="4" fill="#0" id="circle231"/>
	<circle cx="617.924" cy="583.717" r="4" fill="#0" id="circle232"/>
	<circle cx="617.924" cy="797.96" r="4" fill="#0" id="circle233"/>
	<circle cx="626.926" cy="565.713" r="4" fill="#0" id="circle234"/>
	<circle cx="626.926" cy="779.956" r="4" fill="#0" id="circle235"/>
	<circle cx="641.328" cy="553.111" r="4" fill="#0" id="circle236"/>
	<circle cx="641.328" cy="767.354" r="4" fill="#0" id="circle237"/>
	<circle cx="653.931" cy="538.708" r="4" fill="#0" id="circle238"/>
	<circle cx="653.931" cy="743.949" r="4" fill="#0" id="circle239"/>
	<circle cx="668.334" cy="526.105" r="4" fill="#0" id="circle240"/>
	<circle cx="668.334" cy="731.347" r="4" fill="#0" id="circle241"/>
	<circle cx="671.935" cy="707.942" r="4" fill="#0" id="circle242"/>
	<circle cx="680.936" cy="511.702" r="4" fill="#0" id="circle243"/>
	<circle cx="686.338" cy="695.339" r="4" fill="#0" id="circle244"/>
	<circle cx="695.339" cy="499.1" r="4" fill="#0" id="circle245"/>
	<circle cx="695.339" cy="677.336" r="4" fill="#0" id="circle246"/>
	<circle cx="707.942" cy="653.931" r="4" fill="#0" id="circle247"/>
	<circle cx="711.543" cy="490.098" r="4" fill="#0" id="circle248"/>
	<circle cx="722.345" cy="641.328" r="4" fill="#0" id="circle249"/>
	<circle cx="727.746" cy="481.096" r="4" fill="#0" id="circle250"/>
	<circle cx="734.947" cy="617.924" r="4" fill="#0" id="circle251"/>
	<circle cx="743.949" cy="472.094" r="4" fill="#0" id="circle252"/>
	<circle cx="749.35" cy="605.321" r="4" fill="#0" id="circle253"/>
	<circle cx="758.352" cy="587.318" r="4" fill="#0" id="circle254"/>
	<circle cx="760.152" cy="463.093" r="4" fill="#0" id="circle255"/>
	<circle cx="770.955" cy="572.915" r="4" fill="#0" id="circle256"/>
	<circle cx="778.156" cy="463.093" r="4" fill="#0" id="circle257"/>
	<circle cx="788.958" cy="554.911" r="4" fill="#0" id="circle258"/>
	<circle cx="796.16" cy="463.093" r="4" fill="#0" id="circle259"/>
	<circle cx="803.361" cy="542.309" r="4" fill="#0" id="circle260"/>
	<circle cx="812.363" cy="472.094" r="4" fill="#0" id="circle261"/>
	<circle cx="821.365" cy="533.307" r="4" fill="#0" id="circle262"/>
	<circle cx="828.566" cy="481.096" r="4" fill="#0" id="circle263"/>
	<circle cx="833.967" cy="499.1" r="4" fill="#0" id="circle264"/>
	<circle cx="833.967" cy="517.103" r="4" fill="#0" id="circle265"/>
	</g>
</svg>