<?xml version="1.0" encoding="UTF-8" standalone="no"?>
<!-- Created with CurveBenchmark -->
<svg
	xmlns:dc="http://purl.org/dc/elements/1.1/"
	xmlns:cc="http://creativecommons.org/ns#"
	xmlns:rdf="http://www.w3.org/1999/02/22-rdf-syntax-ns#"
	xmlns:svg="http://www.w3.org/2000/svg"
	xmlns="http://www.w3.org/2000/svg"
	xmlns:sodipodi="http://sodipodi.sourceforge.net/DTD/sodipodi-0.dtd"
	xmlns:inkscape="http://www.inkscape.org/namespaces/inkscape"
	width="1000"
	height="1000"
	id="svg2"
	version="1.1"
	sodipodi:docname="manifold/vicur-woodenspoonbinary54.png.txt">
<defs
	id="defs4" />
<metadata
	id="metadata7">
	<rdf:RDF>
		<cc:Work
			rdf:about="">
			<dc:format>image/svg+xml</dc:format>
			<dc:type
				rdf:resource="http://purl.org/dc/dcmitype/StillImage" />
			<dc:title></dc:title>
		</cc:Work>
	</rdf:RDF>
</metadata>
<g
	inkscape:label="Layer 1"
	inkscape:groupmode="layer"
	id="layer1">
	<path style="fill:none;stroke:red;stroke-width:1px;stroke-linecap:butt;stroke-linejoin:miter;stroke-opacity:1" d="M 4,23.796 4,45.7916 z" id="boundary" inkscape:connector-curvature="0" />
	<path style="fill:none;stroke:red;stroke-width:1px;stroke-linecap:butt;stroke-linejoin:miter;stroke-opacity:1" d="M 4,23.796 17.1973,6.19956 z" id="boundary" inkscape:connector-curvature="0" />
	<path style="fill:none;stroke:red;stroke-width:1px;stroke-linecap:butt;stroke-linejoin:miter;stroke-opacity:1" d="M 4,45.7916 10.5987,67.7871 z" id="boundary" inkscape:connector-curvature="0" />
	<path style="fill:none;stroke:red;stroke-width:1px;stroke-linecap:butt;stroke-linejoin:miter;stroke-opacity:1" d="M 10.5987,67.7871 21.5965,87.5831 z" id="boundary" inkscape:connector-curvature="0" />
	<path style="fill:none;stroke:red;stroke-width:1px;stroke-linecap:butt;stroke-linejoin:miter;stroke-opacity:1" d="M 17.1973,6.19956 39.1929,4 z" id="boundary" inkscape:connector-curvature="0" />
	<path style="fill:none;stroke:red;stroke-width:1px;stroke-linecap:butt;stroke-linejoin:miter;stroke-opacity:1" d="M 21.5965,87.5831 32.5942,107.379 z" id="boundary" inkscape:connector-curvature="0" />
	<path style="fill:none;stroke:red;stroke-width:1px;stroke-linecap:butt;stroke-linejoin:miter;stroke-opacity:1" d="M 32.5942,107.379 54.5898,116.177 z" id="boundary" inkscape:connector-curvature="0" />
	<path style="fill:none;stroke:red;stroke-width:1px;stroke-linecap:butt;stroke-linejoin:miter;stroke-opacity:1" d="M 39.1929,4 61.1885,4 z" id="boundary" inkscape:connector-curvature="0" />
	<path style="fill:none;stroke:red;stroke-width:1px;stroke-linecap:butt;stroke-linejoin:miter;stroke-opacity:1" d="M 54.5898,116.177 76.5854,113.978 z" id="boundary" inkscape:connector-curvature="0" />
	<path style="fill:none;stroke:red;stroke-width:1px;stroke-linecap:butt;stroke-linejoin:miter;stroke-opacity:1" d="M 61.1885,4 83.184,12.7982 z" id="boundary" inkscape:connector-curvature="0" />
	<path style="fill:none;stroke:red;stroke-width:1px;stroke-linecap:butt;stroke-linejoin:miter;stroke-opacity:1" d="M 76.5854,113.978 98.5809,116.177 z" id="boundary" inkscape:connector-curvature="0" />
	<path style="fill:none;stroke:red;stroke-width:1px;stroke-linecap:butt;stroke-linejoin:miter;stroke-opacity:1" d="M 83.184,12.7982 105.18,21.5965 z" id="boundary" inkscape:connector-curvature="0" />
	<path style="fill:none;stroke:red;stroke-width:1px;stroke-linecap:butt;stroke-linejoin:miter;stroke-opacity:1" d="M 98.5809,116.177 116.177,129.375 z" id="boundary" inkscape:connector-curvature="0" />
	<path style="fill:none;stroke:red;stroke-width:1px;stroke-linecap:butt;stroke-linejoin:miter;stroke-opacity:1" d="M 105.18,21.5965 124.976,32.5942 z" id="boundary" inkscape:connector-curvature="0" />
	<path style="fill:none;stroke:red;stroke-width:1px;stroke-linecap:butt;stroke-linejoin:miter;stroke-opacity:1" d="M 116.177,129.375 133.774,142.572 z" id="boundary" inkscape:connector-curvature="0" />
	<path style="fill:none;stroke:red;stroke-width:1px;stroke-linecap:butt;stroke-linejoin:miter;stroke-opacity:1" d="M 124.976,32.5942 144.772,43.592 z" id="boundary" inkscape:connector-curvature="0" />
	<path style="fill:none;stroke:red;stroke-width:1px;stroke-linecap:butt;stroke-linejoin:miter;stroke-opacity:1" d="M 133.774,142.572 153.57,153.57 z" id="boundary" inkscape:connector-curvature="0" />
	<path style="fill:none;stroke:red;stroke-width:1px;stroke-linecap:butt;stroke-linejoin:miter;stroke-opacity:1" d="M 144.772,43.592 164.568,54.5898 z" id="boundary" inkscape:connector-curvature="0" />
	<path style="fill:none;stroke:red;stroke-width:1px;stroke-linecap:butt;stroke-linejoin:miter;stroke-opacity:1" d="M 153.57,153.57 171.166,168.967 z" id="boundary" inkscape:connector-curvature="0" />
	<path style="fill:none;stroke:red;stroke-width:1px;stroke-linecap:butt;stroke-linejoin:miter;stroke-opacity:1" d="M 164.568,54.5898 182.164,67.7871 z" id="boundary" inkscape:connector-curvature="0" />
	<path style="fill:none;stroke:red;stroke-width:1px;stroke-linecap:butt;stroke-linejoin:miter;stroke-opacity:1" d="M 171.166,168.967 188.763,182.164 z" id="boundary" inkscape:connector-curvature="0" />
	<path style="fill:none;stroke:red;stroke-width:1px;stroke-linecap:butt;stroke-linejoin:miter;stroke-opacity:1" d="M 182.164,67.7871 199.761,80.9845 z" id="boundary" inkscape:connector-curvature="0" />
	<path style="fill:none;stroke:red;stroke-width:1px;stroke-linecap:butt;stroke-linejoin:miter;stroke-opacity:1" d="M 188.763,182.164 206.359,195.361 z" id="boundary" inkscape:connector-curvature="0" />
	<path style="fill:none;stroke:red;stroke-width:1px;stroke-linecap:butt;stroke-linejoin:miter;stroke-opacity:1" d="M 199.761,80.9845 212.958,98.5809 z" id="boundary" inkscape:connector-curvature="0" />
	<path style="fill:none;stroke:red;stroke-width:1px;stroke-linecap:butt;stroke-linejoin:miter;stroke-opacity:1" d="M 206.359,195.361 221.756,212.958 z" id="boundary" inkscape:connector-curvature="0" />
	<path style="fill:none;stroke:red;stroke-width:1px;stroke-linecap:butt;stroke-linejoin:miter;stroke-opacity:1" d="M 212.958,98.5809 230.554,111.778 z" id="boundary" inkscape:connector-curvature="0" />
	<path style="fill:none;stroke:red;stroke-width:1px;stroke-linecap:butt;stroke-linejoin:miter;stroke-opacity:1" d="M 221.756,212.958 239.353,226.155 z" id="boundary" inkscape:connector-curvature="0" />
	<path style="fill:none;stroke:red;stroke-width:1px;stroke-linecap:butt;stroke-linejoin:miter;stroke-opacity:1" d="M 230.554,111.778 245.951,129.375 z" id="boundary" inkscape:connector-curvature="0" />
	<path style="fill:none;stroke:red;stroke-width:1px;stroke-linecap:butt;stroke-linejoin:miter;stroke-opacity:1" d="M 239.353,226.155 256.949,239.353 z" id="boundary" inkscape:connector-curvature="0" />
	<path style="fill:none;stroke:red;stroke-width:1px;stroke-linecap:butt;stroke-linejoin:miter;stroke-opacity:1" d="M 245.951,129.375 263.548,144.772 z" id="boundary" inkscape:connector-curvature="0" />
	<path style="fill:none;stroke:red;stroke-width:1px;stroke-linecap:butt;stroke-linejoin:miter;stroke-opacity:1" d="M 256.949,239.353 274.545,252.55 z" id="boundary" inkscape:connector-curvature="0" />
	<path style="fill:none;stroke:red;stroke-width:1px;stroke-linecap:butt;stroke-linejoin:miter;stroke-opacity:1" d="M 263.548,144.772 281.144,160.169 z" id="boundary" inkscape:connector-curvature="0" />
	<path style="fill:none;stroke:red;stroke-width:1px;stroke-linecap:butt;stroke-linejoin:miter;stroke-opacity:1" d="M 274.545,252.55 292.142,267.947 z" id="boundary" inkscape:connector-curvature="0" />
	<path style="fill:none;stroke:red;stroke-width:1px;stroke-linecap:butt;stroke-linejoin:miter;stroke-opacity:1" d="M 281.144,160.169 298.741,175.565 z" id="boundary" inkscape:connector-curvature="0" />
	<path style="fill:none;stroke:red;stroke-width:1px;stroke-linecap:butt;stroke-linejoin:miter;stroke-opacity:1" d="M 292.142,267.947 309.738,283.344 z" id="boundary" inkscape:connector-curvature="0" />
	<path style="fill:none;stroke:red;stroke-width:1px;stroke-linecap:butt;stroke-linejoin:miter;stroke-opacity:1" d="M 298.741,175.565 316.337,190.962 z" id="boundary" inkscape:connector-curvature="0" />
	<path style="fill:none;stroke:red;stroke-width:1px;stroke-linecap:butt;stroke-linejoin:miter;stroke-opacity:1" d="M 309.738,283.344 327.335,298.741 z" id="boundary" inkscape:connector-curvature="0" />
	<path style="fill:none;stroke:red;stroke-width:1px;stroke-linecap:butt;stroke-linejoin:miter;stroke-opacity:1" d="M 316.337,190.962 331.734,208.559 z" id="boundary" inkscape:connector-curvature="0" />
	<path style="fill:none;stroke:red;stroke-width:1px;stroke-linecap:butt;stroke-linejoin:miter;stroke-opacity:1" d="M 327.335,298.741 344.931,314.137 z" id="boundary" inkscape:connector-curvature="0" />
	<path style="fill:none;stroke:red;stroke-width:1px;stroke-linecap:butt;stroke-linejoin:miter;stroke-opacity:1" d="M 331.734,208.559 349.33,223.956 z" id="boundary" inkscape:connector-curvature="0" />
	<path style="fill:none;stroke:red;stroke-width:1px;stroke-linecap:butt;stroke-linejoin:miter;stroke-opacity:1" d="M 344.931,314.137 360.328,331.734 z" id="boundary" inkscape:connector-curvature="0" />
	<path style="fill:none;stroke:red;stroke-width:1px;stroke-linecap:butt;stroke-linejoin:miter;stroke-opacity:1" d="M 349.33,223.956 366.927,237.153 z" id="boundary" inkscape:connector-curvature="0" />
	<path style="fill:none;stroke:red;stroke-width:1px;stroke-linecap:butt;stroke-linejoin:miter;stroke-opacity:1" d="M 360.328,331.734 377.925,344.931 z" id="boundary" inkscape:connector-curvature="0" />
	<path style="fill:none;stroke:red;stroke-width:1px;stroke-linecap:butt;stroke-linejoin:miter;stroke-opacity:1" d="M 366.927,237.153 384.523,250.35 z" id="boundary" inkscape:connector-curvature="0" />
	<path style="fill:none;stroke:red;stroke-width:1px;stroke-linecap:butt;stroke-linejoin:miter;stroke-opacity:1" d="M 377.925,344.931 393.322,362.528 z" id="boundary" inkscape:connector-curvature="0" />
	<path style="fill:none;stroke:red;stroke-width:1px;stroke-linecap:butt;stroke-linejoin:miter;stroke-opacity:1" d="M 384.523,250.35 402.12,265.747 z" id="boundary" inkscape:connector-curvature="0" />
	<path style="fill:none;stroke:red;stroke-width:1px;stroke-linecap:butt;stroke-linejoin:miter;stroke-opacity:1" d="M 393.322,362.528 410.918,377.925 z" id="boundary" inkscape:connector-curvature="0" />
	<path style="fill:none;stroke:red;stroke-width:1px;stroke-linecap:butt;stroke-linejoin:miter;stroke-opacity:1" d="M 402.12,265.747 417.517,283.344 z" id="boundary" inkscape:connector-curvature="0" />
	<path style="fill:none;stroke:red;stroke-width:1px;stroke-linecap:butt;stroke-linejoin:miter;stroke-opacity:1" d="M 410.918,377.925 426.315,395.521 z" id="boundary" inkscape:connector-curvature="0" />
	<path style="fill:none;stroke:red;stroke-width:1px;stroke-linecap:butt;stroke-linejoin:miter;stroke-opacity:1" d="M 417.517,283.344 435.113,296.541 z" id="boundary" inkscape:connector-curvature="0" />
	<path style="fill:none;stroke:red;stroke-width:1px;stroke-linecap:butt;stroke-linejoin:miter;stroke-opacity:1" d="M 426.315,395.521 443.911,410.918 z" id="boundary" inkscape:connector-curvature="0" />
	<path style="fill:none;stroke:red;stroke-width:1px;stroke-linecap:butt;stroke-linejoin:miter;stroke-opacity:1" d="M 435.113,296.541 452.71,309.738 z" id="boundary" inkscape:connector-curvature="0" />
	<path style="fill:none;stroke:red;stroke-width:1px;stroke-linecap:butt;stroke-linejoin:miter;stroke-opacity:1" d="M 443.911,410.918 454.909,430.714 z" id="boundary" inkscape:connector-curvature="0" />
	<path style="fill:none;stroke:red;stroke-width:1px;stroke-linecap:butt;stroke-linejoin:miter;stroke-opacity:1" d="M 452.71,309.738 468.106,327.335 z" id="boundary" inkscape:connector-curvature="0" />
	<path style="fill:none;stroke:red;stroke-width:1px;stroke-linecap:butt;stroke-linejoin:miter;stroke-opacity:1" d="M 454.909,430.714 468.106,448.31 z" id="boundary" inkscape:connector-curvature="0" />
	<path style="fill:none;stroke:red;stroke-width:1px;stroke-linecap:butt;stroke-linejoin:miter;stroke-opacity:1" d="M 468.106,327.335 485.703,340.532 z" id="boundary" inkscape:connector-curvature="0" />
	<path style="fill:none;stroke:red;stroke-width:1px;stroke-linecap:butt;stroke-linejoin:miter;stroke-opacity:1" d="M 468.106,448.31 481.304,465.907 z" id="boundary" inkscape:connector-curvature="0" />
	<path style="fill:none;stroke:red;stroke-width:1px;stroke-linecap:butt;stroke-linejoin:miter;stroke-opacity:1" d="M 481.304,465.907 494.501,483.503 z" id="boundary" inkscape:connector-curvature="0" />
	<path style="fill:none;stroke:red;stroke-width:1px;stroke-linecap:butt;stroke-linejoin:miter;stroke-opacity:1" d="M 485.703,340.532 501.1,358.129 z" id="boundary" inkscape:connector-curvature="0" />
	<path style="fill:none;stroke:red;stroke-width:1px;stroke-linecap:butt;stroke-linejoin:miter;stroke-opacity:1" d="M 494.501,483.503 505.499,503.299 z" id="boundary" inkscape:connector-curvature="0" />
	<path style="fill:none;stroke:red;stroke-width:1px;stroke-linecap:butt;stroke-linejoin:miter;stroke-opacity:1" d="M 501.1,358.129 518.696,373.525 z" id="boundary" inkscape:connector-curvature="0" />
	<path style="fill:none;stroke:red;stroke-width:1px;stroke-linecap:butt;stroke-linejoin:miter;stroke-opacity:1" d="M 505.499,503.299 516.497,523.095 z" id="boundary" inkscape:connector-curvature="0" />
	<path style="fill:none;stroke:red;stroke-width:1px;stroke-linecap:butt;stroke-linejoin:miter;stroke-opacity:1" d="M 516.497,523.095 525.295,545.091 z" id="boundary" inkscape:connector-curvature="0" />
	<path style="fill:none;stroke:red;stroke-width:1px;stroke-linecap:butt;stroke-linejoin:miter;stroke-opacity:1" d="M 518.696,373.525 534.093,391.122 z" id="boundary" inkscape:connector-curvature="0" />
	<path style="fill:none;stroke:red;stroke-width:1px;stroke-linecap:butt;stroke-linejoin:miter;stroke-opacity:1" d="M 525.295,545.091 538.492,562.687 z" id="boundary" inkscape:connector-curvature="0" />
	<path style="fill:none;stroke:red;stroke-width:1px;stroke-linecap:butt;stroke-linejoin:miter;stroke-opacity:1" d="M 534.093,391.122 551.69,404.319 z" id="boundary" inkscape:connector-curvature="0" />
	<path style="fill:none;stroke:red;stroke-width:1px;stroke-linecap:butt;stroke-linejoin:miter;stroke-opacity:1" d="M 538.492,562.687 549.49,582.483 z" id="boundary" inkscape:connector-curvature="0" />
	<path style="fill:none;stroke:red;stroke-width:1px;stroke-linecap:butt;stroke-linejoin:miter;stroke-opacity:1" d="M 549.49,582.483 553.889,604.479 z" id="boundary" inkscape:connector-curvature="0" />
	<path style="fill:none;stroke:red;stroke-width:1px;stroke-linecap:butt;stroke-linejoin:miter;stroke-opacity:1" d="M 551.69,404.319 564.887,421.916 z" id="boundary" inkscape:connector-curvature="0" />
	<path style="fill:none;stroke:red;stroke-width:1px;stroke-linecap:butt;stroke-linejoin:miter;stroke-opacity:1" d="M 553.889,604.479 558.288,626.475 z" id="boundary" inkscape:connector-curvature="0" />
	<path style="fill:none;stroke:red;stroke-width:1px;stroke-linecap:butt;stroke-linejoin:miter;stroke-opacity:1" d="M 558.288,626.475 569.286,646.271 z" id="boundary" inkscape:connector-curvature="0" />
	<path style="fill:none;stroke:red;stroke-width:1px;stroke-linecap:butt;stroke-linejoin:miter;stroke-opacity:1" d="M 564.887,421.916 582.483,435.113 z" id="boundary" inkscape:connector-curvature="0" />
	<path style="fill:none;stroke:red;stroke-width:1px;stroke-linecap:butt;stroke-linejoin:miter;stroke-opacity:1" d="M 569.286,646.271 578.084,668.266 z" id="boundary" inkscape:connector-curvature="0" />
	<path style="fill:none;stroke:red;stroke-width:1px;stroke-linecap:butt;stroke-linejoin:miter;stroke-opacity:1" d="M 578.084,668.266 586.882,690.262 z" id="boundary" inkscape:connector-curvature="0" />
	<path style="fill:none;stroke:red;stroke-width:1px;stroke-linecap:butt;stroke-linejoin:miter;stroke-opacity:1" d="M 582.483,435.113 597.88,452.71 z" id="boundary" inkscape:connector-curvature="0" />
	<path style="fill:none;stroke:red;stroke-width:1px;stroke-linecap:butt;stroke-linejoin:miter;stroke-opacity:1" d="M 586.882,690.262 600.08,707.858 z" id="boundary" inkscape:connector-curvature="0" />
	<path style="fill:none;stroke:red;stroke-width:1px;stroke-linecap:butt;stroke-linejoin:miter;stroke-opacity:1" d="M 597.88,452.71 613.277,470.306 z" id="boundary" inkscape:connector-curvature="0" />
	<path style="fill:none;stroke:red;stroke-width:1px;stroke-linecap:butt;stroke-linejoin:miter;stroke-opacity:1" d="M 600.08,707.858 611.078,727.654 z" id="boundary" inkscape:connector-curvature="0" />
	<path style="fill:none;stroke:red;stroke-width:1px;stroke-linecap:butt;stroke-linejoin:miter;stroke-opacity:1" d="M 611.078,727.654 624.275,745.251 z" id="boundary" inkscape:connector-curvature="0" />
	<path style="fill:none;stroke:red;stroke-width:1px;stroke-linecap:butt;stroke-linejoin:miter;stroke-opacity:1" d="M 613.277,470.306 626.475,487.902 z" id="boundary" inkscape:connector-curvature="0" />
	<path style="fill:none;stroke:red;stroke-width:1px;stroke-linecap:butt;stroke-linejoin:miter;stroke-opacity:1" d="M 624.275,745.251 639.672,762.847 z" id="boundary" inkscape:connector-curvature="0" />
	<path style="fill:none;stroke:red;stroke-width:1px;stroke-linecap:butt;stroke-linejoin:miter;stroke-opacity:1" d="M 626.475,487.902 639.672,505.499 z" id="boundary" inkscape:connector-curvature="0" />
	<path style="fill:none;stroke:red;stroke-width:1px;stroke-linecap:butt;stroke-linejoin:miter;stroke-opacity:1" d="M 639.672,505.499 657.268,518.696 z" id="boundary" inkscape:connector-curvature="0" />
	<path style="fill:none;stroke:red;stroke-width:1px;stroke-linecap:butt;stroke-linejoin:miter;stroke-opacity:1" d="M 639.672,762.847 657.268,776.044 z" id="boundary" inkscape:connector-curvature="0" />
	<path style="fill:none;stroke:red;stroke-width:1px;stroke-linecap:butt;stroke-linejoin:miter;stroke-opacity:1" d="M 657.268,518.696 674.865,531.894 z" id="boundary" inkscape:connector-curvature="0" />
	<path style="fill:none;stroke:red;stroke-width:1px;stroke-linecap:butt;stroke-linejoin:miter;stroke-opacity:1" d="M 657.268,776.044 677.064,787.042 z" id="boundary" inkscape:connector-curvature="0" />
	<path style="fill:none;stroke:red;stroke-width:1px;stroke-linecap:butt;stroke-linejoin:miter;stroke-opacity:1" d="M 674.865,531.894 694.661,542.891 z" id="boundary" inkscape:connector-curvature="0" />
	<path style="fill:none;stroke:red;stroke-width:1px;stroke-linecap:butt;stroke-linejoin:miter;stroke-opacity:1" d="M 677.064,787.042 690.262,804.639 z" id="boundary" inkscape:connector-curvature="0" />
	<path style="fill:none;stroke:red;stroke-width:1px;stroke-linecap:butt;stroke-linejoin:miter;stroke-opacity:1" d="M 690.262,804.639 712.257,811.237 z" id="boundary" inkscape:connector-curvature="0" />
	<path style="fill:none;stroke:red;stroke-width:1px;stroke-linecap:butt;stroke-linejoin:miter;stroke-opacity:1" d="M 694.661,542.891 714.457,553.889 z" id="boundary" inkscape:connector-curvature="0" />
	<path style="fill:none;stroke:red;stroke-width:1px;stroke-linecap:butt;stroke-linejoin:miter;stroke-opacity:1" d="M 712.257,811.237 734.253,811.237 z" id="boundary" inkscape:connector-curvature="0" />
	<path style="fill:none;stroke:red;stroke-width:1px;stroke-linecap:butt;stroke-linejoin:miter;stroke-opacity:1" d="M 714.457,553.889 736.452,560.488 z" id="boundary" inkscape:connector-curvature="0" />
	<path style="fill:none;stroke:red;stroke-width:1px;stroke-linecap:butt;stroke-linejoin:miter;stroke-opacity:1" d="M 734.253,811.237 756.248,811.237 z" id="boundary" inkscape:connector-curvature="0" />
	<path style="fill:none;stroke:red;stroke-width:1px;stroke-linecap:butt;stroke-linejoin:miter;stroke-opacity:1" d="M 736.452,560.488 758.448,567.086 z" id="boundary" inkscape:connector-curvature="0" />
	<path style="fill:none;stroke:red;stroke-width:1px;stroke-linecap:butt;stroke-linejoin:miter;stroke-opacity:1" d="M 756.248,811.237 778.244,811.237 z" id="boundary" inkscape:connector-curvature="0" />
	<path style="fill:none;stroke:red;stroke-width:1px;stroke-linecap:butt;stroke-linejoin:miter;stroke-opacity:1" d="M 758.448,567.086 780.443,573.685 z" id="boundary" inkscape:connector-curvature="0" />
	<path style="fill:none;stroke:red;stroke-width:1px;stroke-linecap:butt;stroke-linejoin:miter;stroke-opacity:1" d="M 778.244,811.237 800.239,811.237 z" id="boundary" inkscape:connector-curvature="0" />
	<path style="fill:none;stroke:red;stroke-width:1px;stroke-linecap:butt;stroke-linejoin:miter;stroke-opacity:1" d="M 780.443,573.685 802.439,582.483 z" id="boundary" inkscape:connector-curvature="0" />
	<path style="fill:none;stroke:red;stroke-width:1px;stroke-linecap:butt;stroke-linejoin:miter;stroke-opacity:1" d="M 800.239,811.237 822.235,811.237 z" id="boundary" inkscape:connector-curvature="0" />
	<path style="fill:none;stroke:red;stroke-width:1px;stroke-linecap:butt;stroke-linejoin:miter;stroke-opacity:1" d="M 802.439,582.483 824.435,591.282 z" id="boundary" inkscape:connector-curvature="0" />
	<path style="fill:none;stroke:red;stroke-width:1px;stroke-linecap:butt;stroke-linejoin:miter;stroke-opacity:1" d="M 822.235,811.237 844.231,811.237 z" id="boundary" inkscape:connector-curvature="0" />
	<path style="fill:none;stroke:red;stroke-width:1px;stroke-linecap:butt;stroke-linejoin:miter;stroke-opacity:1" d="M 824.435,591.282 844.231,602.279 z" id="boundary" inkscape:connector-curvature="0" />
	<path style="fill:none;stroke:red;stroke-width:1px;stroke-linecap:butt;stroke-linejoin:miter;stroke-opacity:1" d="M 844.231,602.279 864.027,613.277 z" id="boundary" inkscape:connector-curvature="0" />
	<path style="fill:none;stroke:red;stroke-width:1px;stroke-linecap:butt;stroke-linejoin:miter;stroke-opacity:1" d="M 844.231,811.237 866.226,811.237 z" id="boundary" inkscape:connector-curvature="0" />
	<path style="fill:none;stroke:red;stroke-width:1px;stroke-linecap:butt;stroke-linejoin:miter;stroke-opacity:1" d="M 864.027,613.277 883.823,624.275 z" id="boundary" inkscape:connector-curvature="0" />
	<path style="fill:none;stroke:red;stroke-width:1px;stroke-linecap:butt;stroke-linejoin:miter;stroke-opacity:1" d="M 866.226,811.237 888.222,811.237 z" id="boundary" inkscape:connector-curvature="0" />
	<path style="fill:none;stroke:red;stroke-width:1px;stroke-linecap:butt;stroke-linejoin:miter;stroke-opacity:1" d="M 883.823,624.275 901.419,637.472 z" id="boundary" inkscape:connector-curvature="0" />
	<path style="fill:none;stroke:red;stroke-width:1px;stroke-linecap:butt;stroke-linejoin:miter;stroke-opacity:1" d="M 888.222,811.237 910.217,811.237 z" id="boundary" inkscape:connector-curvature="0" />
	<path style="fill:none;stroke:red;stroke-width:1px;stroke-linecap:butt;stroke-linejoin:miter;stroke-opacity:1" d="M 901.419,637.472 919.016,650.67 z" id="boundary" inkscape:connector-curvature="0" />
	<path style="fill:none;stroke:red;stroke-width:1px;stroke-linecap:butt;stroke-linejoin:miter;stroke-opacity:1" d="M 910.217,811.237 932.213,804.639 z" id="boundary" inkscape:connector-curvature="0" />
	<path style="fill:none;stroke:red;stroke-width:1px;stroke-linecap:butt;stroke-linejoin:miter;stroke-opacity:1" d="M 919.016,650.67 936.612,663.867 z" id="boundary" inkscape:connector-curvature="0" />
	<path style="fill:none;stroke:red;stroke-width:1px;stroke-linecap:butt;stroke-linejoin:miter;stroke-opacity:1" d="M 932.213,804.639 945.41,787.042 z" id="boundary" inkscape:connector-curvature="0" />
	<path style="fill:none;stroke:red;stroke-width:1px;stroke-linecap:butt;stroke-linejoin:miter;stroke-opacity:1" d="M 936.612,663.867 954.208,679.264 z" id="boundary" inkscape:connector-curvature="0" />
	<path style="fill:none;stroke:red;stroke-width:1px;stroke-linecap:butt;stroke-linejoin:miter;stroke-opacity:1" d="M 945.41,787.042 967.406,778.244 z" id="boundary" inkscape:connector-curvature="0" />
	<path style="fill:none;stroke:red;stroke-width:1px;stroke-linecap:butt;stroke-linejoin:miter;stroke-opacity:1" d="M 954.208,679.264 971.805,694.661 z" id="boundary" inkscape:connector-curvature="0" />
	<path style="fill:none;stroke:red;stroke-width:1px;stroke-linecap:butt;stroke-linejoin:miter;stroke-opacity:1" d="M 967.406,778.244 987.202,765.047 z" id="boundary" inkscape:connector-curvature="0" />
	<path style="fill:none;stroke:red;stroke-width:1px;stroke-linecap:butt;stroke-linejoin:miter;stroke-opacity:1" d="M 971.805,694.661 985.002,712.257 z" id="boundary" inkscape:connector-curvature="0" />
	<path style="fill:none;stroke:red;stroke-width:1px;stroke-linecap:butt;stroke-linejoin:miter;stroke-opacity:1" d="M 985.002,712.257 996,732.053 z" id="boundary" inkscape:connector-curvature="0" />
	<path style="fill:none;stroke:red;stroke-width:1px;stroke-linecap:butt;stroke-linejoin:miter;stroke-opacity:1" d="M 987.202,765.047 996,732.053 z" id="boundary" inkscape:connector-curvature="0" />
	<circle cx="4" cy="23.796" r="4" fill="#0" id="circle0"/>
	<circle cx="4" cy="45.7916" r="4" fill="#0" id="circle1"/>
	<circle cx="10.5987" cy="67.7871" r="4" fill="#0" id="circle2"/>
	<circle cx="17.1973" cy="6.19956" r="4" fill="#0" id="circle3"/>
	<circle cx="21.5965" cy="87.5831" r="4" fill="#0" id="circle4"/>
	<circle cx="32.5942" cy="107.379" r="4" fill="#0" id="circle5"/>
	<circle cx="39.1929" cy="4" r="4" fill="#0" id="circle6"/>
	<circle cx="54.5898" cy="116.177" r="4" fill="#0" id="circle7"/>
	<circle cx="61.1885" cy="4" r="4" fill="#0" id="circle8"/>
	<circle cx="76.5854" cy="113.978" r="4" fill="#0" id="circle9"/>
	<circle cx="83.184" cy="12.7982" r="4" fill="#0" id="circle10"/>
	<circle cx="98.5809" cy="116.177" r="4" fill="#0" id="circle11"/>
	<circle cx="105.18" cy="21.5965" r="4" fill="#0" id="circle12"/>
	<circle cx="116.177" cy="129.375" r="4" fill="#0" id="circle13"/>
	<circle cx="124.976" cy="32.5942" r="4" fill="#0" id="circle14"/>
	<circle cx="133.774" cy="142.572" r="4" fill="#0" id="circle15"/>
	<circle cx="144.772" cy="43.592" r="4" fill="#0" id="circle16"/>
	<circle cx="153.57" cy="153.57" r="4" fill="#0" id="circle17"/>
	<circle cx="164.568" cy="54.5898" r="4" fill="#0" id="circle18"/>
	<circle cx="171.166" cy="168.967" r="4" fill="#0" id="circle19"/>
	<circle cx="182.164" cy="67.7871" r="4" fill="#0" id="circle20"/>
	<circle cx="188.763" cy="182.164" r="4" fill="#0" id="circle21"/>
	<circle cx="199.761" cy="80.9845" r="4" fill="#0" id="circle22"/>
	<circle cx="206.359" cy="195.361" r="4" fill="#0" id="circle23"/>
	<circle cx="212.958" cy="98.5809" r="4" fill="#0" id="circle24"/>
	<circle cx="221.756" cy="212.958" r="4" fill="#0" id="circle25"/>
	<circle cx="230.554" cy="111.778" r="4" fill="#0" id="circle26"/>
	<circle cx="239.353" cy="226.155" r="4" fill="#0" id="circle27"/>
	<circle cx="245.951" cy="129.375" r="4" fill="#0" id="circle28"/>
	<circle cx="256.949" cy="239.353" r="4" fill="#0" id="circle29"/>
	<circle cx="263.548" cy="144.772" r="4" fill="#0" id="circle30"/>
	<circle cx="274.545" cy="252.55" r="4" fill="#0" id="circle31"/>
	<circle cx="281.144" cy="160.169" r="4" fill="#0" id="circle32"/>
	<circle cx="292.142" cy="267.947" r="4" fill="#0" id="circle33"/>
	<circle cx="298.741" cy="175.565" r="4" fill="#0" id="circle34"/>
	<circle cx="309.738" cy="283.344" r="4" fill="#0" id="circle35"/>
	<circle cx="316.337" cy="190.962" r="4" fill="#0" id="circle36"/>
	<circle cx="327.335" cy="298.741" r="4" fill="#0" id="circle37"/>
	<circle cx="331.734" cy="208.559" r="4" fill="#0" id="circle38"/>
	<circle cx="344.931" cy="314.137" r="4" fill="#0" id="circle39"/>
	<circle cx="349.33" cy="223.956" r="4" fill="#0" id="circle40"/>
	<circle cx="360.328" cy="331.734" r="4" fill="#0" id="circle41"/>
	<circle cx="366.927" cy="237.153" r="4" fill="#0" id="circle42"/>
	<circle cx="377.925" cy="344.931" r="4" fill="#0" id="circle43"/>
	<circle cx="384.523" cy="250.35" r="4" fill="#0" id="circle44"/>
	<circle cx="393.322" cy="362.528" r="4" fill="#0" id="circle45"/>
	<circle cx="402.12" cy="265.747" r="4" fill="#0" id="circle46"/>
	<circle cx="410.918" cy="377.925" r="4" fill="#0" id="circle47"/>
	<circle cx="417.517" cy="283.344" r="4" fill="#0" id="circle48"/>
	<circle cx="426.315" cy="395.521" r="4" fill="#0" id="circle49"/>
	<circle cx="435.113" cy="296.541" r="4" fill="#0" id="circle50"/>
	<circle cx="443.911" cy="410.918" r="4" fill="#0" id="circle51"/>
	<circle cx="452.71" cy="309.738" r="4" fill="#0" id="circle52"/>
	<circle cx="454.909" cy="430.714" r="4" fill="#0" id="circle53"/>
	<circle cx="468.106" cy="327.335" r="4" fill="#0" id="circle54"/>
	<circle cx="468.106" cy="448.31" r="4" fill="#0" id="circle55"/>
	<circle cx="481.304" cy="465.907" r="4" fill="#0" id="circle56"/>
	<circle cx="485.703" cy="340.532" r="4" fill="#0" id="circle57"/>
	<circle cx="494.501" cy="483.503" r="4" fill="#0" id="circle58"/>
	<circle cx="501.1" cy="358.129" r="4" fill="#0" id="circle59"/>
	<circle cx="505.499" cy="503.299" r="4" fill="#0" id="circle60"/>
	<circle cx="516.497" cy="523.095" r="4" fill="#0" id="circle61"/>
	<circle cx="518.696" cy="373.525" r="4" fill="#0" id="circle62"/>
	<circle cx="525.295" cy="545.091" r="4" fill="#0" id="circle63"/>
	<circle cx="534.093" cy="391.122" r="4" fill="#0" id="circle64"/>
	<circle cx="538.492" cy="562.687" r="4" fill="#0" id="circle65"/>
	<circle cx="549.49" cy="582.483" r="4" fill="#0" id="circle66"/>
	<circle cx="551.69" cy="404.319" r="4" fill="#0" id="circle67"/>
	<circle cx="553.889" cy="604.479" r="4" fill="#0" id="circle68"/>
	<circle cx="558.288" cy="626.475" r="4" fill="#0" id="circle69"/>
	<circle cx="564.887" cy="421.916" r="4" fill="#0" id="circle70"/>
	<circle cx="569.286" cy="646.271" r="4" fill="#0" id="circle71"/>
	<circle cx="578.084" cy="668.266" r="4" fill="#0" id="circle72"/>
	<circle cx="582.483" cy="435.113" r="4" fill="#0" id="circle73"/>
	<circle cx="586.882" cy="690.262" r="4" fill="#0" id="circle74"/>
	<circle cx="597.88" cy="452.71" r="4" fill="#0" id="circle75"/>
	<circle cx="600.08" cy="707.858" r="4" fill="#0" id="circle76"/>
	<circle cx="611.078" cy="727.654" r="4" fill="#0" id="circle77"/>
	<circle cx="613.277" cy="470.306" r="4" fill="#0" id="circle78"/>
	<circle cx="624.275" cy="745.251" r="4" fill="#0" id="circle79"/>
	<circle cx="626.475" cy="487.902" r="4" fill="#0" id="circle80"/>
	<circle cx="639.672" cy="505.499" r="4" fill="#0" id="circle81"/>
	<circle cx="639.672" cy="762.847" r="4" fill="#0" id="circle82"/>
	<circle cx="657.268" cy="518.696" r="4" fill="#0" id="circle83"/>
	<circle cx="657.268" cy="776.044" r="4" fill="#0" id="circle84"/>
	<circle cx="674.865" cy="531.894" r="4" fill="#0" id="circle85"/>
	<circle cx="677.064" cy="787.042" r="4" fill="#0" id="circle86"/>
	<circle cx="690.262" cy="804.639" r="4" fill="#0" id="circle87"/>
	<circle cx="694.661" cy="542.891" r="4" fill="#0" id="circle88"/>
	<circle cx="712.257" cy="811.237" r="4" fill="#0" id="circle89"/>
	<circle cx="714.457" cy="553.889" r="4" fill="#0" id="circle90"/>
	<circle cx="734.253" cy="811.237" r="4" fill="#0" id="circle91"/>
	<circle cx="736.452" cy="560.488" r="4" fill="#0" id="circle92"/>
	<circle cx="756.248" cy="811.237" r="4" fill="#0" id="circle93"/>
	<circle cx="758.448" cy="567.086" r="4" fill="#0" id="circle94"/>
	<circle cx="778.244" cy="811.237" r="4" fill="#0" id="circle95"/>
	<circle cx="780.443" cy="573.685" r="4" fill="#0" id="circle96"/>
	<circle cx="800.239" cy="811.237" r="4" fill="#0" id="circle97"/>
	<circle cx="802.439" cy="582.483" r="4" fill="#0" id="circle98"/>
	<circle cx="822.235" cy="811.237" r="4" fill="#0" id="circle99"/>
	<circle cx="824.435" cy="591.282" r="4" fill="#0" id="circle100"/>
	<circle cx="844.231" cy="602.279" r="4" fill="#0" id="circle101"/>
	<circle cx="844.231" cy="811.237" r="4" fill="#0" id="circle102"/>
	<circle cx="864.027" cy="613.277" r="4" fill="#0" id="circle103"/>
	<circle cx="866.226" cy="811.237" r="4" fill="#0" id="circle104"/>
	<circle cx="883.823" cy="624.275" r="4" fill="#0" id="circle105"/>
	<circle cx="888.222" cy="811.237" r="4" fill="#0" id="circle106"/>
	<circle cx="901.419" cy="637.472" r="4" fill="#0" id="circle107"/>
	<circle cx="910.217" cy="811.237" r="4" fill="#0" id="circle108"/>
	<circle cx="919.016" cy="650.67" r="4" fill="#0" id="circle109"/>
	<circle cx="932.213" cy="804.639" r="4" fill="#0" id="circle110"/>
	<circle cx="936.612" cy="663.867" r="4" fill="#0" id="circle111"/>
	<circle cx="945.41" cy="787.042" r="4" fill="#0" id="circle112"/>
	<circle cx="954.208" cy="679.264" r="4" fill="#0" id="circle113"/>
	<circle cx="967.406" cy="778.244" r="4" fill="#0" id="circle114"/>
	<circle cx="971.805" cy="694.661" r="4" fill="#0" id="circle115"/>
	<circle cx="985.002" cy="712.257" r="4" fill="#0" id="circle116"/>
	<circle cx="987.202" cy="765.047" r="4" fill="#0" id="circle117"/>
	<circle cx="996" cy="732.053" r="4" fill="#0" id="circle118"/>
	</g>
</svg>