<?xml version="1.0" encoding="UTF-8" standalone="no"?>
<!-- Created with CurveBenchmark -->
<svg
	xmlns:dc="http://purl.org/dc/elements/1.1/"
	xmlns:cc="http://creativecommons.org/ns#"
	xmlns:rdf="http://www.w3.org/1999/02/22-rdf-syntax-ns#"
	xmlns:svg="http://www.w3.org/2000/svg"
	xmlns="http://www.w3.org/2000/svg"
	xmlns:sodipodi="http://sodipodi.sourceforge.net/DTD/sodipodi-0.dtd"
	xmlns:inkscape="http://www.inkscape.org/namespaces/inkscape"
	width="1000"
	height="1000"
	id="svg2"
	version="1.1"
	sodipodi:docname="manifold/vicur-fgen1ep.png.txt">
<defs
	id="defs4" />
<metadata
	id="metadata7">
	<rdf:RDF>
		<cc:Work
			rdf:about="">
			<dc:format>image/svg+xml</dc:format>
			<dc:type
				rdf:resource="http://purl.org/dc/dcmitype/StillImage" />
			<dc:title></dc:title>
		</cc:Work>
	</rdf:RDF>
</metadata>
<g
	inkscape:label="Layer 1"
	inkscape:groupmode="layer"
	id="layer1">
	<path style="fill:none;stroke:red;stroke-width:1px;stroke-linecap:butt;stroke-linejoin:miter;stroke-opacity:1" d="M 4,155.421 15.6477,170.951 z" id="boundary" inkscape:connector-curvature="0" />
	<path style="fill:none;stroke:red;stroke-width:1px;stroke-linecap:butt;stroke-linejoin:miter;stroke-opacity:1" d="M 4,155.421 19.5303,139.89 z" id="boundary" inkscape:connector-curvature="0" />
	<path style="fill:none;stroke:red;stroke-width:1px;stroke-linecap:butt;stroke-linejoin:miter;stroke-opacity:1" d="M 15.6477,170.951 35.0607,161.245 z" id="boundary" inkscape:connector-curvature="0" />
	<path style="fill:none;stroke:red;stroke-width:1px;stroke-linecap:butt;stroke-linejoin:miter;stroke-opacity:1" d="M 19.5303,139.89 35.0607,124.36 z" id="boundary" inkscape:connector-curvature="0" />
	<path style="fill:none;stroke:red;stroke-width:1px;stroke-linecap:butt;stroke-linejoin:miter;stroke-opacity:1" d="M 35.0607,124.36 54.4736,114.654 z" id="boundary" inkscape:connector-curvature="0" />
	<path style="fill:none;stroke:red;stroke-width:1px;stroke-linecap:butt;stroke-linejoin:miter;stroke-opacity:1" d="M 35.0607,161.245 54.4736,161.245 z" id="boundary" inkscape:connector-curvature="0" />
	<path style="fill:none;stroke:red;stroke-width:1px;stroke-linecap:butt;stroke-linejoin:miter;stroke-opacity:1" d="M 42.8258,844.579 52.5323,825.166 z" id="boundary" inkscape:connector-curvature="0" />
	<path style="fill:none;stroke:red;stroke-width:1px;stroke-linecap:butt;stroke-linejoin:miter;stroke-opacity:1" d="M 42.8258,844.579 52.5323,862.051 z" id="boundary" inkscape:connector-curvature="0" />
	<path style="fill:none;stroke:red;stroke-width:1px;stroke-linecap:butt;stroke-linejoin:miter;stroke-opacity:1" d="M 52.5323,378.669 52.5323,398.082 z" id="boundary" inkscape:connector-curvature="0" />
	<path style="fill:none;stroke:red;stroke-width:1px;stroke-linecap:butt;stroke-linejoin:miter;stroke-opacity:1" d="M 52.5323,378.669 62.2387,349.55 z" id="boundary" inkscape:connector-curvature="0" />
	<path style="fill:none;stroke:red;stroke-width:1px;stroke-linecap:butt;stroke-linejoin:miter;stroke-opacity:1" d="M 52.5323,398.082 52.5323,417.495 z" id="boundary" inkscape:connector-curvature="0" />
	<path style="fill:none;stroke:red;stroke-width:1px;stroke-linecap:butt;stroke-linejoin:miter;stroke-opacity:1" d="M 52.5323,417.495 52.5323,436.908 z" id="boundary" inkscape:connector-curvature="0" />
	<path style="fill:none;stroke:red;stroke-width:1px;stroke-linecap:butt;stroke-linejoin:miter;stroke-opacity:1" d="M 52.5323,436.908 71.9452,442.732 z" id="boundary" inkscape:connector-curvature="0" />
	<path style="fill:none;stroke:red;stroke-width:1px;stroke-linecap:butt;stroke-linejoin:miter;stroke-opacity:1" d="M 52.5323,786.341 52.5323,805.753 z" id="boundary" inkscape:connector-curvature="0" />
	<path style="fill:none;stroke:red;stroke-width:1px;stroke-linecap:butt;stroke-linejoin:miter;stroke-opacity:1" d="M 52.5323,786.341 62.2387,766.928 z" id="boundary" inkscape:connector-curvature="0" />
	<path style="fill:none;stroke:red;stroke-width:1px;stroke-linecap:butt;stroke-linejoin:miter;stroke-opacity:1" d="M 52.5323,805.753 52.5323,825.166 z" id="boundary" inkscape:connector-curvature="0" />
	<path style="fill:none;stroke:red;stroke-width:1px;stroke-linecap:butt;stroke-linejoin:miter;stroke-opacity:1" d="M 52.5323,862.051 52.5323,881.464 z" id="boundary" inkscape:connector-curvature="0" />
	<path style="fill:none;stroke:red;stroke-width:1px;stroke-linecap:butt;stroke-linejoin:miter;stroke-opacity:1" d="M 52.5323,881.464 62.2387,898.935 z" id="boundary" inkscape:connector-curvature="0" />
	<path style="fill:none;stroke:red;stroke-width:1px;stroke-linecap:butt;stroke-linejoin:miter;stroke-opacity:1" d="M 54.4736,114.654 73.8865,104.947 z" id="boundary" inkscape:connector-curvature="0" />
	<path style="fill:none;stroke:red;stroke-width:1px;stroke-linecap:butt;stroke-linejoin:miter;stroke-opacity:1" d="M 54.4736,161.245 71.9452,170.951 z" id="boundary" inkscape:connector-curvature="0" />
	<path style="fill:none;stroke:red;stroke-width:1px;stroke-linecap:butt;stroke-linejoin:miter;stroke-opacity:1" d="M 62.2387,349.55 71.9452,320.431 z" id="boundary" inkscape:connector-curvature="0" />
	<path style="fill:none;stroke:red;stroke-width:1px;stroke-linecap:butt;stroke-linejoin:miter;stroke-opacity:1" d="M 62.2387,766.928 71.9452,737.808 z" id="boundary" inkscape:connector-curvature="0" />
	<path style="fill:none;stroke:red;stroke-width:1px;stroke-linecap:butt;stroke-linejoin:miter;stroke-opacity:1" d="M 62.2387,898.935 68.0626,918.348 z" id="boundary" inkscape:connector-curvature="0" />
	<path style="fill:none;stroke:red;stroke-width:1px;stroke-linecap:butt;stroke-linejoin:miter;stroke-opacity:1" d="M 68.0626,918.348 83.593,931.937 z" id="boundary" inkscape:connector-curvature="0" />
	<path style="fill:none;stroke:red;stroke-width:1px;stroke-linecap:butt;stroke-linejoin:miter;stroke-opacity:1" d="M 71.9452,170.951 71.9452,190.364 z" id="boundary" inkscape:connector-curvature="0" />
	<path style="fill:none;stroke:red;stroke-width:1px;stroke-linecap:butt;stroke-linejoin:miter;stroke-opacity:1" d="M 71.9452,190.364 71.9452,209.777 z" id="boundary" inkscape:connector-curvature="0" />
	<path style="fill:none;stroke:red;stroke-width:1px;stroke-linecap:butt;stroke-linejoin:miter;stroke-opacity:1" d="M 71.9452,209.777 77.7691,229.19 z" id="boundary" inkscape:connector-curvature="0" />
	<path style="fill:none;stroke:red;stroke-width:1px;stroke-linecap:butt;stroke-linejoin:miter;stroke-opacity:1" d="M 71.9452,320.431 81.6517,301.018 z" id="boundary" inkscape:connector-curvature="0" />
	<path style="fill:none;stroke:red;stroke-width:1px;stroke-linecap:butt;stroke-linejoin:miter;stroke-opacity:1" d="M 71.9452,442.732 87.4755,431.084 z" id="boundary" inkscape:connector-curvature="0" />
	<path style="fill:none;stroke:red;stroke-width:1px;stroke-linecap:butt;stroke-linejoin:miter;stroke-opacity:1" d="M 71.9452,737.808 81.6517,718.395 z" id="boundary" inkscape:connector-curvature="0" />
	<path style="fill:none;stroke:red;stroke-width:1px;stroke-linecap:butt;stroke-linejoin:miter;stroke-opacity:1" d="M 73.8865,104.947 93.2994,101.065 z" id="boundary" inkscape:connector-curvature="0" />
	<path style="fill:none;stroke:red;stroke-width:1px;stroke-linecap:butt;stroke-linejoin:miter;stroke-opacity:1" d="M 77.7691,229.19 81.6517,248.603 z" id="boundary" inkscape:connector-curvature="0" />
	<path style="fill:none;stroke:red;stroke-width:1px;stroke-linecap:butt;stroke-linejoin:miter;stroke-opacity:1" d="M 81.6517,248.603 91.3581,266.074 z" id="boundary" inkscape:connector-curvature="0" />
	<path style="fill:none;stroke:red;stroke-width:1px;stroke-linecap:butt;stroke-linejoin:miter;stroke-opacity:1" d="M 81.6517,301.018 91.3581,266.074 z" id="boundary" inkscape:connector-curvature="0" />
	<path style="fill:none;stroke:red;stroke-width:1px;stroke-linecap:butt;stroke-linejoin:miter;stroke-opacity:1" d="M 81.6517,572.798 81.6517,592.211 z" id="boundary" inkscape:connector-curvature="0" />
	<path style="fill:none;stroke:red;stroke-width:1px;stroke-linecap:butt;stroke-linejoin:miter;stroke-opacity:1" d="M 81.6517,572.798 91.3581,553.386 z" id="boundary" inkscape:connector-curvature="0" />
	<path style="fill:none;stroke:red;stroke-width:1px;stroke-linecap:butt;stroke-linejoin:miter;stroke-opacity:1" d="M 81.6517,592.211 81.6517,611.624 z" id="boundary" inkscape:connector-curvature="0" />
	<path style="fill:none;stroke:red;stroke-width:1px;stroke-linecap:butt;stroke-linejoin:miter;stroke-opacity:1" d="M 81.6517,611.624 91.3581,629.096 z" id="boundary" inkscape:connector-curvature="0" />
	<path style="fill:none;stroke:red;stroke-width:1px;stroke-linecap:butt;stroke-linejoin:miter;stroke-opacity:1" d="M 81.6517,718.395 91.3581,689.276 z" id="boundary" inkscape:connector-curvature="0" />
	<path style="fill:none;stroke:red;stroke-width:1px;stroke-linecap:butt;stroke-linejoin:miter;stroke-opacity:1" d="M 83.593,931.937 103.006,928.055 z" id="boundary" inkscape:connector-curvature="0" />
	<path style="fill:none;stroke:red;stroke-width:1px;stroke-linecap:butt;stroke-linejoin:miter;stroke-opacity:1" d="M 87.4755,431.084 106.888,421.378 z" id="boundary" inkscape:connector-curvature="0" />
	<path style="fill:none;stroke:red;stroke-width:1px;stroke-linecap:butt;stroke-linejoin:miter;stroke-opacity:1" d="M 91.3581,553.386 101.065,533.973 z" id="boundary" inkscape:connector-curvature="0" />
	<path style="fill:none;stroke:red;stroke-width:1px;stroke-linecap:butt;stroke-linejoin:miter;stroke-opacity:1" d="M 91.3581,629.096 91.3581,648.509 z" id="boundary" inkscape:connector-curvature="0" />
	<path style="fill:none;stroke:red;stroke-width:1px;stroke-linecap:butt;stroke-linejoin:miter;stroke-opacity:1" d="M 91.3581,648.509 101.065,665.98 z" id="boundary" inkscape:connector-curvature="0" />
	<path style="fill:none;stroke:red;stroke-width:1px;stroke-linecap:butt;stroke-linejoin:miter;stroke-opacity:1" d="M 91.3581,689.276 101.065,665.98 z" id="boundary" inkscape:connector-curvature="0" />
	<path style="fill:none;stroke:red;stroke-width:1px;stroke-linecap:butt;stroke-linejoin:miter;stroke-opacity:1" d="M 93.2994,101.065 110.771,91.3581 z" id="boundary" inkscape:connector-curvature="0" />
	<path style="fill:none;stroke:red;stroke-width:1px;stroke-linecap:butt;stroke-linejoin:miter;stroke-opacity:1" d="M 101.065,533.973 110.771,504.853 z" id="boundary" inkscape:connector-curvature="0" />
	<path style="fill:none;stroke:red;stroke-width:1px;stroke-linecap:butt;stroke-linejoin:miter;stroke-opacity:1" d="M 103.006,928.055 120.477,918.348 z" id="boundary" inkscape:connector-curvature="0" />
	<path style="fill:none;stroke:red;stroke-width:1px;stroke-linecap:butt;stroke-linejoin:miter;stroke-opacity:1" d="M 106.888,421.378 126.301,411.671 z" id="boundary" inkscape:connector-curvature="0" />
	<path style="fill:none;stroke:red;stroke-width:1px;stroke-linecap:butt;stroke-linejoin:miter;stroke-opacity:1" d="M 110.771,91.3581 128.243,81.6517 z" id="boundary" inkscape:connector-curvature="0" />
	<path style="fill:none;stroke:red;stroke-width:1px;stroke-linecap:butt;stroke-linejoin:miter;stroke-opacity:1" d="M 110.771,504.853 120.477,485.44 z" id="boundary" inkscape:connector-curvature="0" />
	<path style="fill:none;stroke:red;stroke-width:1px;stroke-linecap:butt;stroke-linejoin:miter;stroke-opacity:1" d="M 120.477,485.44 130.184,456.321 z" id="boundary" inkscape:connector-curvature="0" />
	<path style="fill:none;stroke:red;stroke-width:1px;stroke-linecap:butt;stroke-linejoin:miter;stroke-opacity:1" d="M 120.477,918.348 136.008,906.701 z" id="boundary" inkscape:connector-curvature="0" />
	<path style="fill:none;stroke:red;stroke-width:1px;stroke-linecap:butt;stroke-linejoin:miter;stroke-opacity:1" d="M 126.301,411.671 141.832,394.2 z" id="boundary" inkscape:connector-curvature="0" />
	<path style="fill:none;stroke:red;stroke-width:1px;stroke-linecap:butt;stroke-linejoin:miter;stroke-opacity:1" d="M 128.243,81.6517 145.714,71.9452 z" id="boundary" inkscape:connector-curvature="0" />
	<path style="fill:none;stroke:red;stroke-width:1px;stroke-linecap:butt;stroke-linejoin:miter;stroke-opacity:1" d="M 130.184,456.321 139.89,427.202 z" id="boundary" inkscape:connector-curvature="0" />
	<path style="fill:none;stroke:red;stroke-width:1px;stroke-linecap:butt;stroke-linejoin:miter;stroke-opacity:1" d="M 136.008,906.701 151.538,889.229 z" id="boundary" inkscape:connector-curvature="0" />
	<path style="fill:none;stroke:red;stroke-width:1px;stroke-linecap:butt;stroke-linejoin:miter;stroke-opacity:1" d="M 139.89,427.202 141.832,394.2 z" id="boundary" inkscape:connector-curvature="0" />
	<path style="fill:none;stroke:red;stroke-width:1px;stroke-linecap:butt;stroke-linejoin:miter;stroke-opacity:1" d="M 145.714,71.9452 165.127,62.2387 z" id="boundary" inkscape:connector-curvature="0" />
	<path style="fill:none;stroke:red;stroke-width:1px;stroke-linecap:butt;stroke-linejoin:miter;stroke-opacity:1" d="M 151.538,889.229 170.951,879.523 z" id="boundary" inkscape:connector-curvature="0" />
	<path style="fill:none;stroke:red;stroke-width:1px;stroke-linecap:butt;stroke-linejoin:miter;stroke-opacity:1" d="M 165.127,62.2387 184.54,52.5323 z" id="boundary" inkscape:connector-curvature="0" />
	<path style="fill:none;stroke:red;stroke-width:1px;stroke-linecap:butt;stroke-linejoin:miter;stroke-opacity:1" d="M 170.951,879.523 182.599,895.053 z" id="boundary" inkscape:connector-curvature="0" />
	<path style="fill:none;stroke:red;stroke-width:1px;stroke-linecap:butt;stroke-linejoin:miter;stroke-opacity:1" d="M 182.599,895.053 190.364,914.466 z" id="boundary" inkscape:connector-curvature="0" />
	<path style="fill:none;stroke:red;stroke-width:1px;stroke-linecap:butt;stroke-linejoin:miter;stroke-opacity:1" d="M 184.54,52.5323 203.953,42.8258 z" id="boundary" inkscape:connector-curvature="0" />
	<path style="fill:none;stroke:red;stroke-width:1px;stroke-linecap:butt;stroke-linejoin:miter;stroke-opacity:1" d="M 190.364,914.466 200.07,931.937 z" id="boundary" inkscape:connector-curvature="0" />
	<path style="fill:none;stroke:red;stroke-width:1px;stroke-linecap:butt;stroke-linejoin:miter;stroke-opacity:1" d="M 200.07,931.937 213.659,947.468 z" id="boundary" inkscape:connector-curvature="0" />
	<path style="fill:none;stroke:red;stroke-width:1px;stroke-linecap:butt;stroke-linejoin:miter;stroke-opacity:1" d="M 203.953,42.8258 223.366,33.1194 z" id="boundary" inkscape:connector-curvature="0" />
	<path style="fill:none;stroke:red;stroke-width:1px;stroke-linecap:butt;stroke-linejoin:miter;stroke-opacity:1" d="M 213.659,947.468 229.19,961.057 z" id="boundary" inkscape:connector-curvature="0" />
	<path style="fill:none;stroke:red;stroke-width:1px;stroke-linecap:butt;stroke-linejoin:miter;stroke-opacity:1" d="M 223.366,33.1194 242.779,33.1194 z" id="boundary" inkscape:connector-curvature="0" />
	<path style="fill:none;stroke:red;stroke-width:1px;stroke-linecap:butt;stroke-linejoin:miter;stroke-opacity:1" d="M 229.19,961.057 246.661,970.763 z" id="boundary" inkscape:connector-curvature="0" />
	<path style="fill:none;stroke:red;stroke-width:1px;stroke-linecap:butt;stroke-linejoin:miter;stroke-opacity:1" d="M 242.779,33.1194 260.25,23.4129 z" id="boundary" inkscape:connector-curvature="0" />
	<path style="fill:none;stroke:red;stroke-width:1px;stroke-linecap:butt;stroke-linejoin:miter;stroke-opacity:1" d="M 246.661,970.763 262.192,984.352 z" id="boundary" inkscape:connector-curvature="0" />
	<path style="fill:none;stroke:red;stroke-width:1px;stroke-linecap:butt;stroke-linejoin:miter;stroke-opacity:1" d="M 260.25,23.4129 279.663,23.4129 z" id="boundary" inkscape:connector-curvature="0" />
	<path style="fill:none;stroke:red;stroke-width:1px;stroke-linecap:butt;stroke-linejoin:miter;stroke-opacity:1" d="M 262.192,984.352 281.605,986.294 z" id="boundary" inkscape:connector-curvature="0" />
	<path style="fill:none;stroke:red;stroke-width:1px;stroke-linecap:butt;stroke-linejoin:miter;stroke-opacity:1" d="M 279.663,23.4129 297.135,13.7065 z" id="boundary" inkscape:connector-curvature="0" />
	<path style="fill:none;stroke:red;stroke-width:1px;stroke-linecap:butt;stroke-linejoin:miter;stroke-opacity:1" d="M 281.605,986.294 301.018,994.059 z" id="boundary" inkscape:connector-curvature="0" />
	<path style="fill:none;stroke:red;stroke-width:1px;stroke-linecap:butt;stroke-linejoin:miter;stroke-opacity:1" d="M 297.135,13.7065 316.548,13.7065 z" id="boundary" inkscape:connector-curvature="0" />
	<path style="fill:none;stroke:red;stroke-width:1px;stroke-linecap:butt;stroke-linejoin:miter;stroke-opacity:1" d="M 301.018,994.059 320.431,996 z" id="boundary" inkscape:connector-curvature="0" />
	<path style="fill:none;stroke:red;stroke-width:1px;stroke-linecap:butt;stroke-linejoin:miter;stroke-opacity:1" d="M 316.548,13.7065 335.961,7.88258 z" id="boundary" inkscape:connector-curvature="0" />
	<path style="fill:none;stroke:red;stroke-width:1px;stroke-linecap:butt;stroke-linejoin:miter;stroke-opacity:1" d="M 320.431,996 339.843,996 z" id="boundary" inkscape:connector-curvature="0" />
	<path style="fill:none;stroke:red;stroke-width:1px;stroke-linecap:butt;stroke-linejoin:miter;stroke-opacity:1" d="M 335.961,7.88258 355.374,4 z" id="boundary" inkscape:connector-curvature="0" />
	<path style="fill:none;stroke:red;stroke-width:1px;stroke-linecap:butt;stroke-linejoin:miter;stroke-opacity:1" d="M 339.843,996 359.256,996 z" id="boundary" inkscape:connector-curvature="0" />
	<path style="fill:none;stroke:red;stroke-width:1px;stroke-linecap:butt;stroke-linejoin:miter;stroke-opacity:1" d="M 355.374,4 372.845,13.7065 z" id="boundary" inkscape:connector-curvature="0" />
	<path style="fill:none;stroke:red;stroke-width:1px;stroke-linecap:butt;stroke-linejoin:miter;stroke-opacity:1" d="M 359.256,996 378.669,996 z" id="boundary" inkscape:connector-curvature="0" />
	<path style="fill:none;stroke:red;stroke-width:1px;stroke-linecap:butt;stroke-linejoin:miter;stroke-opacity:1" d="M 372.845,13.7065 392.258,13.7065 z" id="boundary" inkscape:connector-curvature="0" />
	<path style="fill:none;stroke:red;stroke-width:1px;stroke-linecap:butt;stroke-linejoin:miter;stroke-opacity:1" d="M 378.669,996 398.082,994.059 z" id="boundary" inkscape:connector-curvature="0" />
	<path style="fill:none;stroke:red;stroke-width:1px;stroke-linecap:butt;stroke-linejoin:miter;stroke-opacity:1" d="M 392.258,13.7065 411.671,17.589 z" id="boundary" inkscape:connector-curvature="0" />
	<path style="fill:none;stroke:red;stroke-width:1px;stroke-linecap:butt;stroke-linejoin:miter;stroke-opacity:1" d="M 398.082,994.059 417.495,986.294 z" id="boundary" inkscape:connector-curvature="0" />
	<path style="fill:none;stroke:red;stroke-width:1px;stroke-linecap:butt;stroke-linejoin:miter;stroke-opacity:1" d="M 411.671,17.589 431.084,23.4129 z" id="boundary" inkscape:connector-curvature="0" />
	<path style="fill:none;stroke:red;stroke-width:1px;stroke-linecap:butt;stroke-linejoin:miter;stroke-opacity:1" d="M 417.495,986.294 434.967,976.587 z" id="boundary" inkscape:connector-curvature="0" />
	<path style="fill:none;stroke:red;stroke-width:1px;stroke-linecap:butt;stroke-linejoin:miter;stroke-opacity:1" d="M 431.084,23.4129 450.497,23.4129 z" id="boundary" inkscape:connector-curvature="0" />
	<path style="fill:none;stroke:red;stroke-width:1px;stroke-linecap:butt;stroke-linejoin:miter;stroke-opacity:1" d="M 434.967,976.587 452.438,966.881 z" id="boundary" inkscape:connector-curvature="0" />
	<path style="fill:none;stroke:red;stroke-width:1px;stroke-linecap:butt;stroke-linejoin:miter;stroke-opacity:1" d="M 450.497,23.4129 467.969,33.1194 z" id="boundary" inkscape:connector-curvature="0" />
	<path style="fill:none;stroke:red;stroke-width:1px;stroke-linecap:butt;stroke-linejoin:miter;stroke-opacity:1" d="M 452.438,966.881 471.851,957.174 z" id="boundary" inkscape:connector-curvature="0" />
	<path style="fill:none;stroke:red;stroke-width:1px;stroke-linecap:butt;stroke-linejoin:miter;stroke-opacity:1" d="M 467.969,33.1194 485.44,42.8258 z" id="boundary" inkscape:connector-curvature="0" />
	<path style="fill:none;stroke:red;stroke-width:1px;stroke-linecap:butt;stroke-linejoin:miter;stroke-opacity:1" d="M 471.851,957.174 487.382,943.585 z" id="boundary" inkscape:connector-curvature="0" />
	<path style="fill:none;stroke:red;stroke-width:1px;stroke-linecap:butt;stroke-linejoin:miter;stroke-opacity:1" d="M 485.44,42.8258 502.912,52.5323 z" id="boundary" inkscape:connector-curvature="0" />
	<path style="fill:none;stroke:red;stroke-width:1px;stroke-linecap:butt;stroke-linejoin:miter;stroke-opacity:1" d="M 487.382,943.585 500.971,918.348 z" id="boundary" inkscape:connector-curvature="0" />
	<path style="fill:none;stroke:red;stroke-width:1px;stroke-linecap:butt;stroke-linejoin:miter;stroke-opacity:1" d="M 500.971,918.348 510.677,898.935 z" id="boundary" inkscape:connector-curvature="0" />
	<path style="fill:none;stroke:red;stroke-width:1px;stroke-linecap:butt;stroke-linejoin:miter;stroke-opacity:1" d="M 502.912,52.5323 520.384,62.2387 z" id="boundary" inkscape:connector-curvature="0" />
	<path style="fill:none;stroke:red;stroke-width:1px;stroke-linecap:butt;stroke-linejoin:miter;stroke-opacity:1" d="M 510.677,898.935 520.384,879.523 z" id="boundary" inkscape:connector-curvature="0" />
	<path style="fill:none;stroke:red;stroke-width:1px;stroke-linecap:butt;stroke-linejoin:miter;stroke-opacity:1" d="M 520.384,62.2387 539.796,68.0626 z" id="boundary" inkscape:connector-curvature="0" />
	<path style="fill:none;stroke:red;stroke-width:1px;stroke-linecap:butt;stroke-linejoin:miter;stroke-opacity:1" d="M 520.384,879.523 530.09,860.11 z" id="boundary" inkscape:connector-curvature="0" />
	<path style="fill:none;stroke:red;stroke-width:1px;stroke-linecap:butt;stroke-linejoin:miter;stroke-opacity:1" d="M 530.09,860.11 539.796,830.99 z" id="boundary" inkscape:connector-curvature="0" />
	<path style="fill:none;stroke:red;stroke-width:1px;stroke-linecap:butt;stroke-linejoin:miter;stroke-opacity:1" d="M 539.796,68.0626 557.268,77.7691 z" id="boundary" inkscape:connector-curvature="0" />
	<path style="fill:none;stroke:red;stroke-width:1px;stroke-linecap:butt;stroke-linejoin:miter;stroke-opacity:1" d="M 539.796,355.374 539.796,374.787 z" id="boundary" inkscape:connector-curvature="0" />
	<path style="fill:none;stroke:red;stroke-width:1px;stroke-linecap:butt;stroke-linejoin:miter;stroke-opacity:1" d="M 539.796,355.374 555.327,341.785 z" id="boundary" inkscape:connector-curvature="0" />
	<path style="fill:none;stroke:red;stroke-width:1px;stroke-linecap:butt;stroke-linejoin:miter;stroke-opacity:1" d="M 539.796,374.787 543.679,394.2 z" id="boundary" inkscape:connector-curvature="0" />
	<path style="fill:none;stroke:red;stroke-width:1px;stroke-linecap:butt;stroke-linejoin:miter;stroke-opacity:1" d="M 539.796,830.99 549.503,811.577 z" id="boundary" inkscape:connector-curvature="0" />
	<path style="fill:none;stroke:red;stroke-width:1px;stroke-linecap:butt;stroke-linejoin:miter;stroke-opacity:1" d="M 543.679,394.2 553.386,411.671 z" id="boundary" inkscape:connector-curvature="0" />
	<path style="fill:none;stroke:red;stroke-width:1px;stroke-linecap:butt;stroke-linejoin:miter;stroke-opacity:1" d="M 549.503,811.577 559.209,792.164 z" id="boundary" inkscape:connector-curvature="0" />
	<path style="fill:none;stroke:red;stroke-width:1px;stroke-linecap:butt;stroke-linejoin:miter;stroke-opacity:1" d="M 553.386,411.671 559.209,431.084 z" id="boundary" inkscape:connector-curvature="0" />
	<path style="fill:none;stroke:red;stroke-width:1px;stroke-linecap:butt;stroke-linejoin:miter;stroke-opacity:1" d="M 555.327,341.785 568.916,326.254 z" id="boundary" inkscape:connector-curvature="0" />
	<path style="fill:none;stroke:red;stroke-width:1px;stroke-linecap:butt;stroke-linejoin:miter;stroke-opacity:1" d="M 557.268,77.7691 572.798,91.3581 z" id="boundary" inkscape:connector-curvature="0" />
	<path style="fill:none;stroke:red;stroke-width:1px;stroke-linecap:butt;stroke-linejoin:miter;stroke-opacity:1" d="M 559.209,431.084 568.916,448.556 z" id="boundary" inkscape:connector-curvature="0" />
	<path style="fill:none;stroke:red;stroke-width:1px;stroke-linecap:butt;stroke-linejoin:miter;stroke-opacity:1" d="M 559.209,792.164 568.916,763.045 z" id="boundary" inkscape:connector-curvature="0" />
	<path style="fill:none;stroke:red;stroke-width:1px;stroke-linecap:butt;stroke-linejoin:miter;stroke-opacity:1" d="M 568.916,326.254 584.446,312.665 z" id="boundary" inkscape:connector-curvature="0" />
	<path style="fill:none;stroke:red;stroke-width:1px;stroke-linecap:butt;stroke-linejoin:miter;stroke-opacity:1" d="M 568.916,448.556 578.622,466.027 z" id="boundary" inkscape:connector-curvature="0" />
	<path style="fill:none;stroke:red;stroke-width:1px;stroke-linecap:butt;stroke-linejoin:miter;stroke-opacity:1" d="M 568.916,763.045 578.622,743.632 z" id="boundary" inkscape:connector-curvature="0" />
	<path style="fill:none;stroke:red;stroke-width:1px;stroke-linecap:butt;stroke-linejoin:miter;stroke-opacity:1" d="M 572.798,91.3581 586.387,106.888 z" id="boundary" inkscape:connector-curvature="0" />
	<path style="fill:none;stroke:red;stroke-width:1px;stroke-linecap:butt;stroke-linejoin:miter;stroke-opacity:1" d="M 578.622,466.027 578.622,485.44 z" id="boundary" inkscape:connector-curvature="0" />
	<path style="fill:none;stroke:red;stroke-width:1px;stroke-linecap:butt;stroke-linejoin:miter;stroke-opacity:1" d="M 578.622,485.44 588.329,502.912 z" id="boundary" inkscape:connector-curvature="0" />
	<path style="fill:none;stroke:red;stroke-width:1px;stroke-linecap:butt;stroke-linejoin:miter;stroke-opacity:1" d="M 578.622,743.632 588.329,714.513 z" id="boundary" inkscape:connector-curvature="0" />
	<path style="fill:none;stroke:red;stroke-width:1px;stroke-linecap:butt;stroke-linejoin:miter;stroke-opacity:1" d="M 584.446,312.665 598.035,287.429 z" id="boundary" inkscape:connector-curvature="0" />
	<path style="fill:none;stroke:red;stroke-width:1px;stroke-linecap:butt;stroke-linejoin:miter;stroke-opacity:1" d="M 586.387,106.888 601.918,120.477 z" id="boundary" inkscape:connector-curvature="0" />
	<path style="fill:none;stroke:red;stroke-width:1px;stroke-linecap:butt;stroke-linejoin:miter;stroke-opacity:1" d="M 588.329,502.912 594.153,522.325 z" id="boundary" inkscape:connector-curvature="0" />
	<path style="fill:none;stroke:red;stroke-width:1px;stroke-linecap:butt;stroke-linejoin:miter;stroke-opacity:1" d="M 588.329,714.513 598.035,695.1 z" id="boundary" inkscape:connector-curvature="0" />
	<path style="fill:none;stroke:red;stroke-width:1px;stroke-linecap:butt;stroke-linejoin:miter;stroke-opacity:1" d="M 594.153,522.325 603.859,539.796 z" id="boundary" inkscape:connector-curvature="0" />
	<path style="fill:none;stroke:red;stroke-width:1px;stroke-linecap:butt;stroke-linejoin:miter;stroke-opacity:1" d="M 598.035,287.429 607.742,268.016 z" id="boundary" inkscape:connector-curvature="0" />
	<path style="fill:none;stroke:red;stroke-width:1px;stroke-linecap:butt;stroke-linejoin:miter;stroke-opacity:1" d="M 598.035,675.687 598.035,695.1 z" id="boundary" inkscape:connector-curvature="0" />
	<path style="fill:none;stroke:red;stroke-width:1px;stroke-linecap:butt;stroke-linejoin:miter;stroke-opacity:1" d="M 598.035,675.687 607.742,656.274 z" id="boundary" inkscape:connector-curvature="0" />
	<path style="fill:none;stroke:red;stroke-width:1px;stroke-linecap:butt;stroke-linejoin:miter;stroke-opacity:1" d="M 601.918,120.477 615.507,136.008 z" id="boundary" inkscape:connector-curvature="0" />
	<path style="fill:none;stroke:red;stroke-width:1px;stroke-linecap:butt;stroke-linejoin:miter;stroke-opacity:1" d="M 603.859,539.796 611.624,559.209 z" id="boundary" inkscape:connector-curvature="0" />
	<path style="fill:none;stroke:red;stroke-width:1px;stroke-linecap:butt;stroke-linejoin:miter;stroke-opacity:1" d="M 607.742,268.016 627.155,268.016 z" id="boundary" inkscape:connector-curvature="0" />
	<path style="fill:none;stroke:red;stroke-width:1px;stroke-linecap:butt;stroke-linejoin:miter;stroke-opacity:1" d="M 607.742,617.448 607.742,636.861 z" id="boundary" inkscape:connector-curvature="0" />
	<path style="fill:none;stroke:red;stroke-width:1px;stroke-linecap:butt;stroke-linejoin:miter;stroke-opacity:1" d="M 607.742,617.448 617.448,598.035 z" id="boundary" inkscape:connector-curvature="0" />
	<path style="fill:none;stroke:red;stroke-width:1px;stroke-linecap:butt;stroke-linejoin:miter;stroke-opacity:1" d="M 607.742,636.861 607.742,656.274 z" id="boundary" inkscape:connector-curvature="0" />
	<path style="fill:none;stroke:red;stroke-width:1px;stroke-linecap:butt;stroke-linejoin:miter;stroke-opacity:1" d="M 611.624,559.209 617.448,578.622 z" id="boundary" inkscape:connector-curvature="0" />
	<path style="fill:none;stroke:red;stroke-width:1px;stroke-linecap:butt;stroke-linejoin:miter;stroke-opacity:1" d="M 615.507,136.008 625.213,153.479 z" id="boundary" inkscape:connector-curvature="0" />
	<path style="fill:none;stroke:red;stroke-width:1px;stroke-linecap:butt;stroke-linejoin:miter;stroke-opacity:1" d="M 617.448,578.622 617.448,598.035 z" id="boundary" inkscape:connector-curvature="0" />
	<path style="fill:none;stroke:red;stroke-width:1px;stroke-linecap:butt;stroke-linejoin:miter;stroke-opacity:1" d="M 625.213,153.479 636.861,169.01 z" id="boundary" inkscape:connector-curvature="0" />
	<path style="fill:none;stroke:red;stroke-width:1px;stroke-linecap:butt;stroke-linejoin:miter;stroke-opacity:1" d="M 627.155,268.016 646.568,271.898 z" id="boundary" inkscape:connector-curvature="0" />
	<path style="fill:none;stroke:red;stroke-width:1px;stroke-linecap:butt;stroke-linejoin:miter;stroke-opacity:1" d="M 636.861,169.01 654.333,178.716 z" id="boundary" inkscape:connector-curvature="0" />
	<path style="fill:none;stroke:red;stroke-width:1px;stroke-linecap:butt;stroke-linejoin:miter;stroke-opacity:1" d="M 646.568,271.898 665.98,277.722 z" id="boundary" inkscape:connector-curvature="0" />
	<path style="fill:none;stroke:red;stroke-width:1px;stroke-linecap:butt;stroke-linejoin:miter;stroke-opacity:1" d="M 654.333,178.716 669.863,190.364 z" id="boundary" inkscape:connector-curvature="0" />
	<path style="fill:none;stroke:red;stroke-width:1px;stroke-linecap:butt;stroke-linejoin:miter;stroke-opacity:1" d="M 665.98,277.722 683.452,287.429 z" id="boundary" inkscape:connector-curvature="0" />
	<path style="fill:none;stroke:red;stroke-width:1px;stroke-linecap:butt;stroke-linejoin:miter;stroke-opacity:1" d="M 669.863,190.364 685.393,203.953 z" id="boundary" inkscape:connector-curvature="0" />
	<path style="fill:none;stroke:red;stroke-width:1px;stroke-linecap:butt;stroke-linejoin:miter;stroke-opacity:1" d="M 683.452,287.429 702.865,287.429 z" id="boundary" inkscape:connector-curvature="0" />
	<path style="fill:none;stroke:red;stroke-width:1px;stroke-linecap:butt;stroke-linejoin:miter;stroke-opacity:1" d="M 685.393,203.953 702.865,213.659 z" id="boundary" inkscape:connector-curvature="0" />
	<path style="fill:none;stroke:red;stroke-width:1px;stroke-linecap:butt;stroke-linejoin:miter;stroke-opacity:1" d="M 702.865,213.659 718.395,227.249 z" id="boundary" inkscape:connector-curvature="0" />
	<path style="fill:none;stroke:red;stroke-width:1px;stroke-linecap:butt;stroke-linejoin:miter;stroke-opacity:1" d="M 702.865,287.429 720.337,297.135 z" id="boundary" inkscape:connector-curvature="0" />
	<path style="fill:none;stroke:red;stroke-width:1px;stroke-linecap:butt;stroke-linejoin:miter;stroke-opacity:1" d="M 718.395,227.249 731.984,242.779 z" id="boundary" inkscape:connector-curvature="0" />
	<path style="fill:none;stroke:red;stroke-width:1px;stroke-linecap:butt;stroke-linejoin:miter;stroke-opacity:1" d="M 720.337,297.135 737.808,306.841 z" id="boundary" inkscape:connector-curvature="0" />
	<path style="fill:none;stroke:red;stroke-width:1px;stroke-linecap:butt;stroke-linejoin:miter;stroke-opacity:1" d="M 731.984,242.779 747.515,256.368 z" id="boundary" inkscape:connector-curvature="0" />
	<path style="fill:none;stroke:red;stroke-width:1px;stroke-linecap:butt;stroke-linejoin:miter;stroke-opacity:1" d="M 737.808,306.841 757.221,304.9 z" id="boundary" inkscape:connector-curvature="0" />
	<path style="fill:none;stroke:red;stroke-width:1px;stroke-linecap:butt;stroke-linejoin:miter;stroke-opacity:1" d="M 747.515,256.368 753.339,275.781 z" id="boundary" inkscape:connector-curvature="0" />
	<path style="fill:none;stroke:red;stroke-width:1px;stroke-linecap:butt;stroke-linejoin:miter;stroke-opacity:1" d="M 753.339,275.781 757.221,304.9 z" id="boundary" inkscape:connector-curvature="0" />
	<circle cx="4" cy="155.421" r="4" fill="#0" id="circle0"/>
	<circle cx="15.6477" cy="170.951" r="4" fill="#0" id="circle1"/>
	<circle cx="19.5303" cy="139.89" r="4" fill="#0" id="circle2"/>
	<circle cx="35.0607" cy="124.36" r="4" fill="#0" id="circle3"/>
	<circle cx="35.0607" cy="161.245" r="4" fill="#0" id="circle4"/>
	<circle cx="42.8258" cy="844.579" r="4" fill="#0" id="circle5"/>
	<circle cx="52.5323" cy="378.669" r="4" fill="#0" id="circle6"/>
	<circle cx="52.5323" cy="398.082" r="4" fill="#0" id="circle7"/>
	<circle cx="52.5323" cy="417.495" r="4" fill="#0" id="circle8"/>
	<circle cx="52.5323" cy="436.908" r="4" fill="#0" id="circle9"/>
	<circle cx="52.5323" cy="786.341" r="4" fill="#0" id="circle10"/>
	<circle cx="52.5323" cy="805.753" r="4" fill="#0" id="circle11"/>
	<circle cx="52.5323" cy="825.166" r="4" fill="#0" id="circle12"/>
	<circle cx="52.5323" cy="862.051" r="4" fill="#0" id="circle13"/>
	<circle cx="52.5323" cy="881.464" r="4" fill="#0" id="circle14"/>
	<circle cx="54.4736" cy="114.654" r="4" fill="#0" id="circle15"/>
	<circle cx="54.4736" cy="161.245" r="4" fill="#0" id="circle16"/>
	<circle cx="62.2387" cy="349.55" r="4" fill="#0" id="circle17"/>
	<circle cx="62.2387" cy="766.928" r="4" fill="#0" id="circle18"/>
	<circle cx="62.2387" cy="898.935" r="4" fill="#0" id="circle19"/>
	<circle cx="68.0626" cy="918.348" r="4" fill="#0" id="circle20"/>
	<circle cx="71.9452" cy="170.951" r="4" fill="#0" id="circle21"/>
	<circle cx="71.9452" cy="190.364" r="4" fill="#0" id="circle22"/>
	<circle cx="71.9452" cy="209.777" r="4" fill="#0" id="circle23"/>
	<circle cx="71.9452" cy="320.431" r="4" fill="#0" id="circle24"/>
	<circle cx="71.9452" cy="442.732" r="4" fill="#0" id="circle25"/>
	<circle cx="71.9452" cy="737.808" r="4" fill="#0" id="circle26"/>
	<circle cx="73.8865" cy="104.947" r="4" fill="#0" id="circle27"/>
	<circle cx="77.7691" cy="229.19" r="4" fill="#0" id="circle28"/>
	<circle cx="81.6517" cy="248.603" r="4" fill="#0" id="circle29"/>
	<circle cx="81.6517" cy="301.018" r="4" fill="#0" id="circle30"/>
	<circle cx="81.6517" cy="572.798" r="4" fill="#0" id="circle31"/>
	<circle cx="81.6517" cy="592.211" r="4" fill="#0" id="circle32"/>
	<circle cx="81.6517" cy="611.624" r="4" fill="#0" id="circle33"/>
	<circle cx="81.6517" cy="718.395" r="4" fill="#0" id="circle34"/>
	<circle cx="83.593" cy="931.937" r="4" fill="#0" id="circle35"/>
	<circle cx="87.4755" cy="431.084" r="4" fill="#0" id="circle36"/>
	<circle cx="91.3581" cy="266.074" r="4" fill="#0" id="circle37"/>
	<circle cx="91.3581" cy="553.386" r="4" fill="#0" id="circle38"/>
	<circle cx="91.3581" cy="629.096" r="4" fill="#0" id="circle39"/>
	<circle cx="91.3581" cy="648.509" r="4" fill="#0" id="circle40"/>
	<circle cx="91.3581" cy="689.276" r="4" fill="#0" id="circle41"/>
	<circle cx="93.2994" cy="101.065" r="4" fill="#0" id="circle42"/>
	<circle cx="101.065" cy="533.973" r="4" fill="#0" id="circle43"/>
	<circle cx="101.065" cy="665.98" r="4" fill="#0" id="circle44"/>
	<circle cx="103.006" cy="928.055" r="4" fill="#0" id="circle45"/>
	<circle cx="106.888" cy="421.378" r="4" fill="#0" id="circle46"/>
	<circle cx="110.771" cy="91.3581" r="4" fill="#0" id="circle47"/>
	<circle cx="110.771" cy="504.853" r="4" fill="#0" id="circle48"/>
	<circle cx="120.477" cy="485.44" r="4" fill="#0" id="circle49"/>
	<circle cx="120.477" cy="918.348" r="4" fill="#0" id="circle50"/>
	<circle cx="126.301" cy="411.671" r="4" fill="#0" id="circle51"/>
	<circle cx="128.243" cy="81.6517" r="4" fill="#0" id="circle52"/>
	<circle cx="130.184" cy="456.321" r="4" fill="#0" id="circle53"/>
	<circle cx="136.008" cy="906.701" r="4" fill="#0" id="circle54"/>
	<circle cx="139.89" cy="427.202" r="4" fill="#0" id="circle55"/>
	<circle cx="141.832" cy="394.2" r="4" fill="#0" id="circle56"/>
	<circle cx="145.714" cy="71.9452" r="4" fill="#0" id="circle57"/>
	<circle cx="151.538" cy="889.229" r="4" fill="#0" id="circle58"/>
	<circle cx="165.127" cy="62.2387" r="4" fill="#0" id="circle59"/>
	<circle cx="170.951" cy="879.523" r="4" fill="#0" id="circle60"/>
	<circle cx="182.599" cy="895.053" r="4" fill="#0" id="circle61"/>
	<circle cx="184.54" cy="52.5323" r="4" fill="#0" id="circle62"/>
	<circle cx="190.364" cy="914.466" r="4" fill="#0" id="circle63"/>
	<circle cx="200.07" cy="931.937" r="4" fill="#0" id="circle64"/>
	<circle cx="203.953" cy="42.8258" r="4" fill="#0" id="circle65"/>
	<circle cx="213.659" cy="947.468" r="4" fill="#0" id="circle66"/>
	<circle cx="223.366" cy="33.1194" r="4" fill="#0" id="circle67"/>
	<circle cx="229.19" cy="961.057" r="4" fill="#0" id="circle68"/>
	<circle cx="242.779" cy="33.1194" r="4" fill="#0" id="circle69"/>
	<circle cx="246.661" cy="970.763" r="4" fill="#0" id="circle70"/>
	<circle cx="260.25" cy="23.4129" r="4" fill="#0" id="circle71"/>
	<circle cx="262.192" cy="984.352" r="4" fill="#0" id="circle72"/>
	<circle cx="279.663" cy="23.4129" r="4" fill="#0" id="circle73"/>
	<circle cx="281.605" cy="986.294" r="4" fill="#0" id="circle74"/>
	<circle cx="297.135" cy="13.7065" r="4" fill="#0" id="circle75"/>
	<circle cx="301.018" cy="994.059" r="4" fill="#0" id="circle76"/>
	<circle cx="316.548" cy="13.7065" r="4" fill="#0" id="circle77"/>
	<circle cx="320.431" cy="996" r="4" fill="#0" id="circle78"/>
	<circle cx="335.961" cy="7.88258" r="4" fill="#0" id="circle79"/>
	<circle cx="339.843" cy="996" r="4" fill="#0" id="circle80"/>
	<circle cx="355.374" cy="4" r="4" fill="#0" id="circle81"/>
	<circle cx="359.256" cy="996" r="4" fill="#0" id="circle82"/>
	<circle cx="372.845" cy="13.7065" r="4" fill="#0" id="circle83"/>
	<circle cx="378.669" cy="996" r="4" fill="#0" id="circle84"/>
	<circle cx="392.258" cy="13.7065" r="4" fill="#0" id="circle85"/>
	<circle cx="398.082" cy="994.059" r="4" fill="#0" id="circle86"/>
	<circle cx="411.671" cy="17.589" r="4" fill="#0" id="circle87"/>
	<circle cx="417.495" cy="986.294" r="4" fill="#0" id="circle88"/>
	<circle cx="431.084" cy="23.4129" r="4" fill="#0" id="circle89"/>
	<circle cx="434.967" cy="976.587" r="4" fill="#0" id="circle90"/>
	<circle cx="450.497" cy="23.4129" r="4" fill="#0" id="circle91"/>
	<circle cx="452.438" cy="966.881" r="4" fill="#0" id="circle92"/>
	<circle cx="467.969" cy="33.1194" r="4" fill="#0" id="circle93"/>
	<circle cx="471.851" cy="957.174" r="4" fill="#0" id="circle94"/>
	<circle cx="485.44" cy="42.8258" r="4" fill="#0" id="circle95"/>
	<circle cx="487.382" cy="943.585" r="4" fill="#0" id="circle96"/>
	<circle cx="500.971" cy="918.348" r="4" fill="#0" id="circle97"/>
	<circle cx="502.912" cy="52.5323" r="4" fill="#0" id="circle98"/>
	<circle cx="510.677" cy="898.935" r="4" fill="#0" id="circle99"/>
	<circle cx="520.384" cy="62.2387" r="4" fill="#0" id="circle100"/>
	<circle cx="520.384" cy="879.523" r="4" fill="#0" id="circle101"/>
	<circle cx="530.09" cy="860.11" r="4" fill="#0" id="circle102"/>
	<circle cx="539.796" cy="68.0626" r="4" fill="#0" id="circle103"/>
	<circle cx="539.796" cy="355.374" r="4" fill="#0" id="circle104"/>
	<circle cx="539.796" cy="374.787" r="4" fill="#0" id="circle105"/>
	<circle cx="539.796" cy="830.99" r="4" fill="#0" id="circle106"/>
	<circle cx="543.679" cy="394.2" r="4" fill="#0" id="circle107"/>
	<circle cx="549.503" cy="811.577" r="4" fill="#0" id="circle108"/>
	<circle cx="553.386" cy="411.671" r="4" fill="#0" id="circle109"/>
	<circle cx="555.327" cy="341.785" r="4" fill="#0" id="circle110"/>
	<circle cx="557.268" cy="77.7691" r="4" fill="#0" id="circle111"/>
	<circle cx="559.209" cy="431.084" r="4" fill="#0" id="circle112"/>
	<circle cx="559.209" cy="792.164" r="4" fill="#0" id="circle113"/>
	<circle cx="568.916" cy="326.254" r="4" fill="#0" id="circle114"/>
	<circle cx="568.916" cy="448.556" r="4" fill="#0" id="circle115"/>
	<circle cx="568.916" cy="763.045" r="4" fill="#0" id="circle116"/>
	<circle cx="572.798" cy="91.3581" r="4" fill="#0" id="circle117"/>
	<circle cx="578.622" cy="466.027" r="4" fill="#0" id="circle118"/>
	<circle cx="578.622" cy="485.44" r="4" fill="#0" id="circle119"/>
	<circle cx="578.622" cy="743.632" r="4" fill="#0" id="circle120"/>
	<circle cx="584.446" cy="312.665" r="4" fill="#0" id="circle121"/>
	<circle cx="586.387" cy="106.888" r="4" fill="#0" id="circle122"/>
	<circle cx="588.329" cy="502.912" r="4" fill="#0" id="circle123"/>
	<circle cx="588.329" cy="714.513" r="4" fill="#0" id="circle124"/>
	<circle cx="594.153" cy="522.325" r="4" fill="#0" id="circle125"/>
	<circle cx="598.035" cy="287.429" r="4" fill="#0" id="circle126"/>
	<circle cx="598.035" cy="675.687" r="4" fill="#0" id="circle127"/>
	<circle cx="598.035" cy="695.1" r="4" fill="#0" id="circle128"/>
	<circle cx="601.918" cy="120.477" r="4" fill="#0" id="circle129"/>
	<circle cx="603.859" cy="539.796" r="4" fill="#0" id="circle130"/>
	<circle cx="607.742" cy="268.016" r="4" fill="#0" id="circle131"/>
	<circle cx="607.742" cy="617.448" r="4" fill="#0" id="circle132"/>
	<circle cx="607.742" cy="636.861" r="4" fill="#0" id="circle133"/>
	<circle cx="607.742" cy="656.274" r="4" fill="#0" id="circle134"/>
	<circle cx="611.624" cy="559.209" r="4" fill="#0" id="circle135"/>
	<circle cx="615.507" cy="136.008" r="4" fill="#0" id="circle136"/>
	<circle cx="617.448" cy="578.622" r="4" fill="#0" id="circle137"/>
	<circle cx="617.448" cy="598.035" r="4" fill="#0" id="circle138"/>
	<circle cx="625.213" cy="153.479" r="4" fill="#0" id="circle139"/>
	<circle cx="627.155" cy="268.016" r="4" fill="#0" id="circle140"/>
	<circle cx="636.861" cy="169.01" r="4" fill="#0" id="circle141"/>
	<circle cx="646.568" cy="271.898" r="4" fill="#0" id="circle142"/>
	<circle cx="654.333" cy="178.716" r="4" fill="#0" id="circle143"/>
	<circle cx="665.98" cy="277.722" r="4" fill="#0" id="circle144"/>
	<circle cx="669.863" cy="190.364" r="4" fill="#0" id="circle145"/>
	<circle cx="683.452" cy="287.429" r="4" fill="#0" id="circle146"/>
	<circle cx="685.393" cy="203.953" r="4" fill="#0" id="circle147"/>
	<circle cx="702.865" cy="213.659" r="4" fill="#0" id="circle148"/>
	<circle cx="702.865" cy="287.429" r="4" fill="#0" id="circle149"/>
	<circle cx="718.395" cy="227.249" r="4" fill="#0" id="circle150"/>
	<circle cx="720.337" cy="297.135" r="4" fill="#0" id="circle151"/>
	<circle cx="731.984" cy="242.779" r="4" fill="#0" id="circle152"/>
	<circle cx="737.808" cy="306.841" r="4" fill="#0" id="circle153"/>
	<circle cx="747.515" cy="256.368" r="4" fill="#0" id="circle154"/>
	<circle cx="753.339" cy="275.781" r="4" fill="#0" id="circle155"/>
	<circle cx="757.221" cy="304.9" r="4" fill="#0" id="circle156"/>
	</g>
</svg>