<?xml version="1.0" encoding="UTF-8" standalone="no"?>
<!-- Created with CurveBenchmark -->
<svg
	xmlns:dc="http://purl.org/dc/elements/1.1/"
	xmlns:cc="http://creativecommons.org/ns#"
	xmlns:rdf="http://www.w3.org/1999/02/22-rdf-syntax-ns#"
	xmlns:svg="http://www.w3.org/2000/svg"
	xmlns="http://www.w3.org/2000/svg"
	xmlns:sodipodi="http://sodipodi.sourceforge.net/DTD/sodipodi-0.dtd"
	xmlns:inkscape="http://www.inkscape.org/namespaces/inkscape"
	width="1000"
	height="1000"
	id="svg2"
	version="1.1"
	sodipodi:docname="manifold/vicur-ray04.png.txt">
<defs
	id="defs4" />
<metadata
	id="metadata7">
	<rdf:RDF>
		<cc:Work
			rdf:about="">
			<dc:format>image/svg+xml</dc:format>
			<dc:type
				rdf:resource="http://purl.org/dc/dcmitype/StillImage" />
			<dc:title></dc:title>
		</cc:Work>
	</rdf:RDF>
</metadata>
<g
	inkscape:label="Layer 1"
	inkscape:groupmode="layer"
	id="layer1">
	<path style="fill:none;stroke:red;stroke-width:1px;stroke-linecap:butt;stroke-linejoin:miter;stroke-opacity:1" d="M 4,370.942 4,384.895 z" id="boundary" inkscape:connector-curvature="0" />
	<path style="fill:none;stroke:red;stroke-width:1px;stroke-linecap:butt;stroke-linejoin:miter;stroke-opacity:1" d="M 4,370.942 10.9761,356.99 z" id="boundary" inkscape:connector-curvature="0" />
	<path style="fill:none;stroke:red;stroke-width:1px;stroke-linecap:butt;stroke-linejoin:miter;stroke-opacity:1" d="M 4,384.895 4,398.847 z" id="boundary" inkscape:connector-curvature="0" />
	<path style="fill:none;stroke:red;stroke-width:1px;stroke-linecap:butt;stroke-linejoin:miter;stroke-opacity:1" d="M 4,398.847 4,412.799 z" id="boundary" inkscape:connector-curvature="0" />
	<path style="fill:none;stroke:red;stroke-width:1px;stroke-linecap:butt;stroke-linejoin:miter;stroke-opacity:1" d="M 4,412.799 10.9761,425.356 z" id="boundary" inkscape:connector-curvature="0" />
	<path style="fill:none;stroke:red;stroke-width:1px;stroke-linecap:butt;stroke-linejoin:miter;stroke-opacity:1" d="M 10.9761,356.99 22.1378,345.828 z" id="boundary" inkscape:connector-curvature="0" />
	<path style="fill:none;stroke:red;stroke-width:1px;stroke-linecap:butt;stroke-linejoin:miter;stroke-opacity:1" d="M 10.9761,425.356 17.9522,437.913 z" id="boundary" inkscape:connector-curvature="0" />
	<path style="fill:none;stroke:red;stroke-width:1px;stroke-linecap:butt;stroke-linejoin:miter;stroke-opacity:1" d="M 17.9522,437.913 22.1378,451.865 z" id="boundary" inkscape:connector-curvature="0" />
	<path style="fill:none;stroke:red;stroke-width:1px;stroke-linecap:butt;stroke-linejoin:miter;stroke-opacity:1" d="M 22.1378,345.828 33.2996,334.667 z" id="boundary" inkscape:connector-curvature="0" />
	<path style="fill:none;stroke:red;stroke-width:1px;stroke-linecap:butt;stroke-linejoin:miter;stroke-opacity:1" d="M 22.1378,451.865 33.2996,461.632 z" id="boundary" inkscape:connector-curvature="0" />
	<path style="fill:none;stroke:red;stroke-width:1px;stroke-linecap:butt;stroke-linejoin:miter;stroke-opacity:1" d="M 33.2996,334.667 47.2518,327.691 z" id="boundary" inkscape:connector-curvature="0" />
	<path style="fill:none;stroke:red;stroke-width:1px;stroke-linecap:butt;stroke-linejoin:miter;stroke-opacity:1" d="M 33.2996,461.632 43.0661,472.793 z" id="boundary" inkscape:connector-curvature="0" />
	<path style="fill:none;stroke:red;stroke-width:1px;stroke-linecap:butt;stroke-linejoin:miter;stroke-opacity:1" d="M 43.0661,472.793 54.2278,482.56 z" id="boundary" inkscape:connector-curvature="0" />
	<path style="fill:none;stroke:red;stroke-width:1px;stroke-linecap:butt;stroke-linejoin:miter;stroke-opacity:1" d="M 47.2518,327.691 58.4135,317.924 z" id="boundary" inkscape:connector-curvature="0" />
	<path style="fill:none;stroke:red;stroke-width:1px;stroke-linecap:butt;stroke-linejoin:miter;stroke-opacity:1" d="M 54.2278,482.56 63.9944,493.722 z" id="boundary" inkscape:connector-curvature="0" />
	<path style="fill:none;stroke:red;stroke-width:1px;stroke-linecap:butt;stroke-linejoin:miter;stroke-opacity:1" d="M 58.4135,317.924 70.9705,310.948 z" id="boundary" inkscape:connector-curvature="0" />
	<path style="fill:none;stroke:red;stroke-width:1px;stroke-linecap:butt;stroke-linejoin:miter;stroke-opacity:1" d="M 63.9944,493.722 75.1561,503.488 z" id="boundary" inkscape:connector-curvature="0" />
	<path style="fill:none;stroke:red;stroke-width:1px;stroke-linecap:butt;stroke-linejoin:miter;stroke-opacity:1" d="M 70.9705,310.948 83.5274,303.972 z" id="boundary" inkscape:connector-curvature="0" />
	<path style="fill:none;stroke:red;stroke-width:1px;stroke-linecap:butt;stroke-linejoin:miter;stroke-opacity:1" d="M 75.1561,503.488 87.7131,510.464 z" id="boundary" inkscape:connector-curvature="0" />
	<path style="fill:none;stroke:red;stroke-width:1px;stroke-linecap:butt;stroke-linejoin:miter;stroke-opacity:1" d="M 83.5274,303.972 94.6892,294.205 z" id="boundary" inkscape:connector-curvature="0" />
	<path style="fill:none;stroke:red;stroke-width:1px;stroke-linecap:butt;stroke-linejoin:miter;stroke-opacity:1" d="M 87.7131,510.464 98.8748,520.231 z" id="boundary" inkscape:connector-curvature="0" />
	<path style="fill:none;stroke:red;stroke-width:1px;stroke-linecap:butt;stroke-linejoin:miter;stroke-opacity:1" d="M 94.6892,294.205 105.851,283.044 z" id="boundary" inkscape:connector-curvature="0" />
	<path style="fill:none;stroke:red;stroke-width:1px;stroke-linecap:butt;stroke-linejoin:miter;stroke-opacity:1" d="M 98.8748,520.231 108.641,531.392 z" id="boundary" inkscape:connector-curvature="0" />
	<path style="fill:none;stroke:red;stroke-width:1px;stroke-linecap:butt;stroke-linejoin:miter;stroke-opacity:1" d="M 105.851,283.044 119.803,276.068 z" id="boundary" inkscape:connector-curvature="0" />
	<path style="fill:none;stroke:red;stroke-width:1px;stroke-linecap:butt;stroke-linejoin:miter;stroke-opacity:1" d="M 108.641,531.392 119.803,541.159 z" id="boundary" inkscape:connector-curvature="0" />
	<path style="fill:none;stroke:red;stroke-width:1px;stroke-linecap:butt;stroke-linejoin:miter;stroke-opacity:1" d="M 119.803,276.068 133.755,269.091 z" id="boundary" inkscape:connector-curvature="0" />
	<path style="fill:none;stroke:red;stroke-width:1px;stroke-linecap:butt;stroke-linejoin:miter;stroke-opacity:1" d="M 119.803,541.159 129.57,552.321 z" id="boundary" inkscape:connector-curvature="0" />
	<path style="fill:none;stroke:red;stroke-width:1px;stroke-linecap:butt;stroke-linejoin:miter;stroke-opacity:1" d="M 129.57,552.321 140.731,562.087 z" id="boundary" inkscape:connector-curvature="0" />
	<path style="fill:none;stroke:red;stroke-width:1px;stroke-linecap:butt;stroke-linejoin:miter;stroke-opacity:1" d="M 133.755,269.091 146.312,262.115 z" id="boundary" inkscape:connector-curvature="0" />
	<path style="fill:none;stroke:red;stroke-width:1px;stroke-linecap:butt;stroke-linejoin:miter;stroke-opacity:1" d="M 140.731,562.087 153.288,569.063 z" id="boundary" inkscape:connector-curvature="0" />
	<path style="fill:none;stroke:red;stroke-width:1px;stroke-linecap:butt;stroke-linejoin:miter;stroke-opacity:1" d="M 143.522,929.03 143.522,942.982 z" id="boundary" inkscape:connector-curvature="0" />
	<path style="fill:none;stroke:red;stroke-width:1px;stroke-linecap:butt;stroke-linejoin:miter;stroke-opacity:1" d="M 143.522,929.03 154.684,917.868 z" id="boundary" inkscape:connector-curvature="0" />
	<path style="fill:none;stroke:red;stroke-width:1px;stroke-linecap:butt;stroke-linejoin:miter;stroke-opacity:1" d="M 143.522,942.982 154.684,952.748 z" id="boundary" inkscape:connector-curvature="0" />
	<path style="fill:none;stroke:red;stroke-width:1px;stroke-linecap:butt;stroke-linejoin:miter;stroke-opacity:1" d="M 146.312,262.115 157.474,252.349 z" id="boundary" inkscape:connector-curvature="0" />
	<path style="fill:none;stroke:red;stroke-width:1px;stroke-linecap:butt;stroke-linejoin:miter;stroke-opacity:1" d="M 153.288,569.063 164.45,577.435 z" id="boundary" inkscape:connector-curvature="0" />
	<path style="fill:none;stroke:red;stroke-width:1px;stroke-linecap:butt;stroke-linejoin:miter;stroke-opacity:1" d="M 154.684,917.868 167.241,924.844 z" id="boundary" inkscape:connector-curvature="0" />
	<path style="fill:none;stroke:red;stroke-width:1px;stroke-linecap:butt;stroke-linejoin:miter;stroke-opacity:1" d="M 154.684,952.748 165.845,961.12 z" id="boundary" inkscape:connector-curvature="0" />
	<path style="fill:none;stroke:red;stroke-width:1px;stroke-linecap:butt;stroke-linejoin:miter;stroke-opacity:1" d="M 157.474,252.349 171.426,245.373 z" id="boundary" inkscape:connector-curvature="0" />
	<path style="fill:none;stroke:red;stroke-width:1px;stroke-linecap:butt;stroke-linejoin:miter;stroke-opacity:1" d="M 164.45,577.435 172.821,588.596 z" id="boundary" inkscape:connector-curvature="0" />
	<path style="fill:none;stroke:red;stroke-width:1px;stroke-linecap:butt;stroke-linejoin:miter;stroke-opacity:1" d="M 165.845,961.12 178.402,968.096 z" id="boundary" inkscape:connector-curvature="0" />
	<path style="fill:none;stroke:red;stroke-width:1px;stroke-linecap:butt;stroke-linejoin:miter;stroke-opacity:1" d="M 167.241,924.844 181.193,924.844 z" id="boundary" inkscape:connector-curvature="0" />
	<path style="fill:none;stroke:red;stroke-width:1px;stroke-linecap:butt;stroke-linejoin:miter;stroke-opacity:1" d="M 171.426,245.373 185.378,238.397 z" id="boundary" inkscape:connector-curvature="0" />
	<path style="fill:none;stroke:red;stroke-width:1px;stroke-linecap:butt;stroke-linejoin:miter;stroke-opacity:1" d="M 172.821,588.596 183.983,598.363 z" id="boundary" inkscape:connector-curvature="0" />
	<path style="fill:none;stroke:red;stroke-width:1px;stroke-linecap:butt;stroke-linejoin:miter;stroke-opacity:1" d="M 178.402,968.096 190.959,975.072 z" id="boundary" inkscape:connector-curvature="0" />
	<path style="fill:none;stroke:red;stroke-width:1px;stroke-linecap:butt;stroke-linejoin:miter;stroke-opacity:1" d="M 181.193,924.844 193.75,931.82 z" id="boundary" inkscape:connector-curvature="0" />
	<path style="fill:none;stroke:red;stroke-width:1px;stroke-linecap:butt;stroke-linejoin:miter;stroke-opacity:1" d="M 183.983,598.363 196.54,605.339 z" id="boundary" inkscape:connector-curvature="0" />
	<path style="fill:none;stroke:red;stroke-width:1px;stroke-linecap:butt;stroke-linejoin:miter;stroke-opacity:1" d="M 185.378,238.397 196.54,227.235 z" id="boundary" inkscape:connector-curvature="0" />
	<path style="fill:none;stroke:red;stroke-width:1px;stroke-linecap:butt;stroke-linejoin:miter;stroke-opacity:1" d="M 190.959,975.072 203.516,982.048 z" id="boundary" inkscape:connector-curvature="0" />
	<path style="fill:none;stroke:red;stroke-width:1px;stroke-linecap:butt;stroke-linejoin:miter;stroke-opacity:1" d="M 193.75,931.82 200.726,944.377 z" id="boundary" inkscape:connector-curvature="0" />
	<path style="fill:none;stroke:red;stroke-width:1px;stroke-linecap:butt;stroke-linejoin:miter;stroke-opacity:1" d="M 196.54,227.235 210.492,220.259 z" id="boundary" inkscape:connector-curvature="0" />
	<path style="fill:none;stroke:red;stroke-width:1px;stroke-linecap:butt;stroke-linejoin:miter;stroke-opacity:1" d="M 196.54,605.339 207.702,615.105 z" id="boundary" inkscape:connector-curvature="0" />
	<path style="fill:none;stroke:red;stroke-width:1px;stroke-linecap:butt;stroke-linejoin:miter;stroke-opacity:1" d="M 200.726,944.377 214.678,949.958 z" id="boundary" inkscape:connector-curvature="0" />
	<path style="fill:none;stroke:red;stroke-width:1px;stroke-linecap:butt;stroke-linejoin:miter;stroke-opacity:1" d="M 203.516,982.048 217.468,982.048 z" id="boundary" inkscape:connector-curvature="0" />
	<path style="fill:none;stroke:red;stroke-width:1px;stroke-linecap:butt;stroke-linejoin:miter;stroke-opacity:1" d="M 207.702,615.105 220.259,622.082 z" id="boundary" inkscape:connector-curvature="0" />
	<path style="fill:none;stroke:red;stroke-width:1px;stroke-linecap:butt;stroke-linejoin:miter;stroke-opacity:1" d="M 210.492,220.259 221.654,209.097 z" id="boundary" inkscape:connector-curvature="0" />
	<path style="fill:none;stroke:red;stroke-width:1px;stroke-linecap:butt;stroke-linejoin:miter;stroke-opacity:1" d="M 214.678,949.958 228.63,948.563 z" id="boundary" inkscape:connector-curvature="0" />
	<path style="fill:none;stroke:red;stroke-width:1px;stroke-linecap:butt;stroke-linejoin:miter;stroke-opacity:1" d="M 217.468,982.048 230.025,989.024 z" id="boundary" inkscape:connector-curvature="0" />
	<path style="fill:none;stroke:red;stroke-width:1px;stroke-linecap:butt;stroke-linejoin:miter;stroke-opacity:1" d="M 220.259,622.082 231.421,631.848 z" id="boundary" inkscape:connector-curvature="0" />
	<path style="fill:none;stroke:red;stroke-width:1px;stroke-linecap:butt;stroke-linejoin:miter;stroke-opacity:1" d="M 221.654,209.097 232.816,199.331 z" id="boundary" inkscape:connector-curvature="0" />
	<path style="fill:none;stroke:red;stroke-width:1px;stroke-linecap:butt;stroke-linejoin:miter;stroke-opacity:1" d="M 228.63,948.563 239.792,938.796 z" id="boundary" inkscape:connector-curvature="0" />
	<path style="fill:none;stroke:red;stroke-width:1px;stroke-linecap:butt;stroke-linejoin:miter;stroke-opacity:1" d="M 230.025,989.024 243.977,993.21 z" id="boundary" inkscape:connector-curvature="0" />
	<path style="fill:none;stroke:red;stroke-width:1px;stroke-linecap:butt;stroke-linejoin:miter;stroke-opacity:1" d="M 231.421,631.848 242.582,640.219 z" id="boundary" inkscape:connector-curvature="0" />
	<path style="fill:none;stroke:red;stroke-width:1px;stroke-linecap:butt;stroke-linejoin:miter;stroke-opacity:1" d="M 232.816,199.331 242.582,188.169 z" id="boundary" inkscape:connector-curvature="0" />
	<path style="fill:none;stroke:red;stroke-width:1px;stroke-linecap:butt;stroke-linejoin:miter;stroke-opacity:1" d="M 239.792,938.796 252.349,945.772 z" id="boundary" inkscape:connector-curvature="0" />
	<path style="fill:none;stroke:red;stroke-width:1px;stroke-linecap:butt;stroke-linejoin:miter;stroke-opacity:1" d="M 242.582,188.169 253.744,178.402 z" id="boundary" inkscape:connector-curvature="0" />
	<path style="fill:none;stroke:red;stroke-width:1px;stroke-linecap:butt;stroke-linejoin:miter;stroke-opacity:1" d="M 242.582,640.219 255.139,647.195 z" id="boundary" inkscape:connector-curvature="0" />
	<path style="fill:none;stroke:red;stroke-width:1px;stroke-linecap:butt;stroke-linejoin:miter;stroke-opacity:1" d="M 243.977,993.21 257.93,996 z" id="boundary" inkscape:connector-curvature="0" />
	<path style="fill:none;stroke:red;stroke-width:1px;stroke-linecap:butt;stroke-linejoin:miter;stroke-opacity:1" d="M 252.349,945.772 264.906,952.748 z" id="boundary" inkscape:connector-curvature="0" />
	<path style="fill:none;stroke:red;stroke-width:1px;stroke-linecap:butt;stroke-linejoin:miter;stroke-opacity:1" d="M 253.744,178.402 259.325,164.45 z" id="boundary" inkscape:connector-curvature="0" />
	<path style="fill:none;stroke:red;stroke-width:1px;stroke-linecap:butt;stroke-linejoin:miter;stroke-opacity:1" d="M 255.139,647.195 269.091,647.195 z" id="boundary" inkscape:connector-curvature="0" />
	<path style="fill:none;stroke:red;stroke-width:1px;stroke-linecap:butt;stroke-linejoin:miter;stroke-opacity:1" d="M 257.93,996 271.882,996 z" id="boundary" inkscape:connector-curvature="0" />
	<path style="fill:none;stroke:red;stroke-width:1px;stroke-linecap:butt;stroke-linejoin:miter;stroke-opacity:1" d="M 259.325,164.45 270.487,153.288 z" id="boundary" inkscape:connector-curvature="0" />
	<path style="fill:none;stroke:red;stroke-width:1px;stroke-linecap:butt;stroke-linejoin:miter;stroke-opacity:1" d="M 264.906,952.748 278.858,952.748 z" id="boundary" inkscape:connector-curvature="0" />
	<path style="fill:none;stroke:red;stroke-width:1px;stroke-linecap:butt;stroke-linejoin:miter;stroke-opacity:1" d="M 269.091,647.195 283.044,647.195 z" id="boundary" inkscape:connector-curvature="0" />
	<path style="fill:none;stroke:red;stroke-width:1px;stroke-linecap:butt;stroke-linejoin:miter;stroke-opacity:1" d="M 270.487,153.288 281.648,143.522 z" id="boundary" inkscape:connector-curvature="0" />
	<path style="fill:none;stroke:red;stroke-width:1px;stroke-linecap:butt;stroke-linejoin:miter;stroke-opacity:1" d="M 271.882,996 284.439,989.024 z" id="boundary" inkscape:connector-curvature="0" />
	<path style="fill:none;stroke:red;stroke-width:1px;stroke-linecap:butt;stroke-linejoin:miter;stroke-opacity:1" d="M 278.858,952.748 292.81,952.748 z" id="boundary" inkscape:connector-curvature="0" />
	<path style="fill:none;stroke:red;stroke-width:1px;stroke-linecap:butt;stroke-linejoin:miter;stroke-opacity:1" d="M 281.648,143.522 291.415,132.36 z" id="boundary" inkscape:connector-curvature="0" />
	<path style="fill:none;stroke:red;stroke-width:1px;stroke-linecap:butt;stroke-linejoin:miter;stroke-opacity:1" d="M 283.044,647.195 295.601,654.172 z" id="boundary" inkscape:connector-curvature="0" />
	<path style="fill:none;stroke:red;stroke-width:1px;stroke-linecap:butt;stroke-linejoin:miter;stroke-opacity:1" d="M 284.439,989.024 298.391,989.024 z" id="boundary" inkscape:connector-curvature="0" />
	<path style="fill:none;stroke:red;stroke-width:1px;stroke-linecap:butt;stroke-linejoin:miter;stroke-opacity:1" d="M 290.02,670.914 290.02,684.866 z" id="boundary" inkscape:connector-curvature="0" />
	<path style="fill:none;stroke:red;stroke-width:1px;stroke-linecap:butt;stroke-linejoin:miter;stroke-opacity:1" d="M 290.02,670.914 295.601,654.172 z" id="boundary" inkscape:connector-curvature="0" />
	<path style="fill:none;stroke:red;stroke-width:1px;stroke-linecap:butt;stroke-linejoin:miter;stroke-opacity:1" d="M 290.02,684.866 296.996,697.423 z" id="boundary" inkscape:connector-curvature="0" />
	<path style="fill:none;stroke:red;stroke-width:1px;stroke-linecap:butt;stroke-linejoin:miter;stroke-opacity:1" d="M 291.415,132.36 298.391,118.408 z" id="boundary" inkscape:connector-curvature="0" />
	<path style="fill:none;stroke:red;stroke-width:1px;stroke-linecap:butt;stroke-linejoin:miter;stroke-opacity:1" d="M 292.81,952.748 305.367,945.772 z" id="boundary" inkscape:connector-curvature="0" />
	<path style="fill:none;stroke:red;stroke-width:1px;stroke-linecap:butt;stroke-linejoin:miter;stroke-opacity:1" d="M 296.996,697.423 306.762,708.585 z" id="boundary" inkscape:connector-curvature="0" />
	<path style="fill:none;stroke:red;stroke-width:1px;stroke-linecap:butt;stroke-linejoin:miter;stroke-opacity:1" d="M 298.391,118.408 309.553,108.641 z" id="boundary" inkscape:connector-curvature="0" />
	<path style="fill:none;stroke:red;stroke-width:1px;stroke-linecap:butt;stroke-linejoin:miter;stroke-opacity:1" d="M 298.391,989.024 312.343,989.024 z" id="boundary" inkscape:connector-curvature="0" />
	<path style="fill:none;stroke:red;stroke-width:1px;stroke-linecap:butt;stroke-linejoin:miter;stroke-opacity:1" d="M 305.367,945.772 317.924,936.006 z" id="boundary" inkscape:connector-curvature="0" />
	<path style="fill:none;stroke:red;stroke-width:1px;stroke-linecap:butt;stroke-linejoin:miter;stroke-opacity:1" d="M 306.762,708.585 317.924,716.956 z" id="boundary" inkscape:connector-curvature="0" />
	<path style="fill:none;stroke:red;stroke-width:1px;stroke-linecap:butt;stroke-linejoin:miter;stroke-opacity:1" d="M 309.553,108.641 319.319,97.4796 z" id="boundary" inkscape:connector-curvature="0" />
	<path style="fill:none;stroke:red;stroke-width:1px;stroke-linecap:butt;stroke-linejoin:miter;stroke-opacity:1" d="M 312.343,989.024 324.9,982.048 z" id="boundary" inkscape:connector-curvature="0" />
	<path style="fill:none;stroke:red;stroke-width:1px;stroke-linecap:butt;stroke-linejoin:miter;stroke-opacity:1" d="M 317.924,716.956 324.9,729.513 z" id="boundary" inkscape:connector-curvature="0" />
	<path style="fill:none;stroke:red;stroke-width:1px;stroke-linecap:butt;stroke-linejoin:miter;stroke-opacity:1" d="M 317.924,936.006 329.086,924.844 z" id="boundary" inkscape:connector-curvature="0" />
	<path style="fill:none;stroke:red;stroke-width:1px;stroke-linecap:butt;stroke-linejoin:miter;stroke-opacity:1" d="M 319.319,97.4796 330.481,87.7131 z" id="boundary" inkscape:connector-curvature="0" />
	<path style="fill:none;stroke:red;stroke-width:1px;stroke-linecap:butt;stroke-linejoin:miter;stroke-opacity:1" d="M 324.9,729.513 333.271,740.675 z" id="boundary" inkscape:connector-curvature="0" />
	<path style="fill:none;stroke:red;stroke-width:1px;stroke-linecap:butt;stroke-linejoin:miter;stroke-opacity:1" d="M 324.9,982.048 336.062,973.677 z" id="boundary" inkscape:connector-curvature="0" />
	<path style="fill:none;stroke:red;stroke-width:1px;stroke-linecap:butt;stroke-linejoin:miter;stroke-opacity:1" d="M 329.086,924.844 336.062,910.892 z" id="boundary" inkscape:connector-curvature="0" />
	<path style="fill:none;stroke:red;stroke-width:1px;stroke-linecap:butt;stroke-linejoin:miter;stroke-opacity:1" d="M 330.481,87.7131 338.852,70.9705 z" id="boundary" inkscape:connector-curvature="0" />
	<path style="fill:none;stroke:red;stroke-width:1px;stroke-linecap:butt;stroke-linejoin:miter;stroke-opacity:1" d="M 333.271,740.675 343.038,751.837 z" id="boundary" inkscape:connector-curvature="0" />
	<path style="fill:none;stroke:red;stroke-width:1px;stroke-linecap:butt;stroke-linejoin:miter;stroke-opacity:1" d="M 336.062,910.892 343.038,896.94 z" id="boundary" inkscape:connector-curvature="0" />
	<path style="fill:none;stroke:red;stroke-width:1px;stroke-linecap:butt;stroke-linejoin:miter;stroke-opacity:1" d="M 336.062,973.677 347.224,961.12 z" id="boundary" inkscape:connector-curvature="0" />
	<path style="fill:none;stroke:red;stroke-width:1px;stroke-linecap:butt;stroke-linejoin:miter;stroke-opacity:1" d="M 338.852,70.9705 345.828,57.0183 z" id="boundary" inkscape:connector-curvature="0" />
	<path style="fill:none;stroke:red;stroke-width:1px;stroke-linecap:butt;stroke-linejoin:miter;stroke-opacity:1" d="M 343.038,751.837 350.014,764.394 z" id="boundary" inkscape:connector-curvature="0" />
	<path style="fill:none;stroke:red;stroke-width:1px;stroke-linecap:butt;stroke-linejoin:miter;stroke-opacity:1" d="M 343.038,896.94 345.828,873.221 z" id="boundary" inkscape:connector-curvature="0" />
	<path style="fill:none;stroke:red;stroke-width:1px;stroke-linecap:butt;stroke-linejoin:miter;stroke-opacity:1" d="M 345.828,57.0183 352.805,43.0661 z" id="boundary" inkscape:connector-curvature="0" />
	<path style="fill:none;stroke:red;stroke-width:1px;stroke-linecap:butt;stroke-linejoin:miter;stroke-opacity:1" d="M 345.828,859.269 345.828,873.221 z" id="boundary" inkscape:connector-curvature="0" />
	<path style="fill:none;stroke:red;stroke-width:1px;stroke-linecap:butt;stroke-linejoin:miter;stroke-opacity:1" d="M 345.828,859.269 352.805,834.155 z" id="boundary" inkscape:connector-curvature="0" />
	<path style="fill:none;stroke:red;stroke-width:1px;stroke-linecap:butt;stroke-linejoin:miter;stroke-opacity:1" d="M 347.224,961.12 358.385,951.353 z" id="boundary" inkscape:connector-curvature="0" />
	<path style="fill:none;stroke:red;stroke-width:1px;stroke-linecap:butt;stroke-linejoin:miter;stroke-opacity:1" d="M 350.014,764.394 352.805,778.346 z" id="boundary" inkscape:connector-curvature="0" />
	<path style="fill:none;stroke:red;stroke-width:1px;stroke-linecap:butt;stroke-linejoin:miter;stroke-opacity:1" d="M 352.805,43.0661 363.966,31.9044 z" id="boundary" inkscape:connector-curvature="0" />
	<path style="fill:none;stroke:red;stroke-width:1px;stroke-linecap:butt;stroke-linejoin:miter;stroke-opacity:1" d="M 352.805,778.346 352.805,792.298 z" id="boundary" inkscape:connector-curvature="0" />
	<path style="fill:none;stroke:red;stroke-width:1px;stroke-linecap:butt;stroke-linejoin:miter;stroke-opacity:1" d="M 352.805,792.298 352.805,806.25 z" id="boundary" inkscape:connector-curvature="0" />
	<path style="fill:none;stroke:red;stroke-width:1px;stroke-linecap:butt;stroke-linejoin:miter;stroke-opacity:1" d="M 352.805,806.25 352.805,820.203 z" id="boundary" inkscape:connector-curvature="0" />
	<path style="fill:none;stroke:red;stroke-width:1px;stroke-linecap:butt;stroke-linejoin:miter;stroke-opacity:1" d="M 352.805,820.203 352.805,834.155 z" id="boundary" inkscape:connector-curvature="0" />
	<path style="fill:none;stroke:red;stroke-width:1px;stroke-linecap:butt;stroke-linejoin:miter;stroke-opacity:1" d="M 358.385,951.353 368.152,940.191 z" id="boundary" inkscape:connector-curvature="0" />
	<path style="fill:none;stroke:red;stroke-width:1px;stroke-linecap:butt;stroke-linejoin:miter;stroke-opacity:1" d="M 363.966,31.9044 373.733,15.1617 z" id="boundary" inkscape:connector-curvature="0" />
	<path style="fill:none;stroke:red;stroke-width:1px;stroke-linecap:butt;stroke-linejoin:miter;stroke-opacity:1" d="M 368.152,940.191 375.128,926.239 z" id="boundary" inkscape:connector-curvature="0" />
	<path style="fill:none;stroke:red;stroke-width:1px;stroke-linecap:butt;stroke-linejoin:miter;stroke-opacity:1" d="M 373.733,15.1617 384.895,4 z" id="boundary" inkscape:connector-curvature="0" />
	<path style="fill:none;stroke:red;stroke-width:1px;stroke-linecap:butt;stroke-linejoin:miter;stroke-opacity:1" d="M 375.128,926.239 382.104,912.287 z" id="boundary" inkscape:connector-curvature="0" />
	<path style="fill:none;stroke:red;stroke-width:1px;stroke-linecap:butt;stroke-linejoin:miter;stroke-opacity:1" d="M 382.104,912.287 389.08,898.335 z" id="boundary" inkscape:connector-curvature="0" />
	<path style="fill:none;stroke:red;stroke-width:1px;stroke-linecap:butt;stroke-linejoin:miter;stroke-opacity:1" d="M 384.895,4 397.451,10.9761 z" id="boundary" inkscape:connector-curvature="0" />
	<path style="fill:none;stroke:red;stroke-width:1px;stroke-linecap:butt;stroke-linejoin:miter;stroke-opacity:1" d="M 389.08,898.335 396.056,877.406 z" id="boundary" inkscape:connector-curvature="0" />
	<path style="fill:none;stroke:red;stroke-width:1px;stroke-linecap:butt;stroke-linejoin:miter;stroke-opacity:1" d="M 396.056,849.502 396.056,863.454 z" id="boundary" inkscape:connector-curvature="0" />
	<path style="fill:none;stroke:red;stroke-width:1px;stroke-linecap:butt;stroke-linejoin:miter;stroke-opacity:1" d="M 396.056,849.502 403.032,835.55 z" id="boundary" inkscape:connector-curvature="0" />
	<path style="fill:none;stroke:red;stroke-width:1px;stroke-linecap:butt;stroke-linejoin:miter;stroke-opacity:1" d="M 396.056,863.454 396.056,877.406 z" id="boundary" inkscape:connector-curvature="0" />
	<path style="fill:none;stroke:red;stroke-width:1px;stroke-linecap:butt;stroke-linejoin:miter;stroke-opacity:1" d="M 397.451,10.9761 408.613,20.7426 z" id="boundary" inkscape:connector-curvature="0" />
	<path style="fill:none;stroke:red;stroke-width:1px;stroke-linecap:butt;stroke-linejoin:miter;stroke-opacity:1" d="M 403.032,751.837 403.032,765.789 z" id="boundary" inkscape:connector-curvature="0" />
	<path style="fill:none;stroke:red;stroke-width:1px;stroke-linecap:butt;stroke-linejoin:miter;stroke-opacity:1" d="M 403.032,751.837 410.008,737.885 z" id="boundary" inkscape:connector-curvature="0" />
	<path style="fill:none;stroke:red;stroke-width:1px;stroke-linecap:butt;stroke-linejoin:miter;stroke-opacity:1" d="M 403.032,765.789 405.823,779.741 z" id="boundary" inkscape:connector-curvature="0" />
	<path style="fill:none;stroke:red;stroke-width:1px;stroke-linecap:butt;stroke-linejoin:miter;stroke-opacity:1" d="M 403.032,807.646 403.032,821.598 z" id="boundary" inkscape:connector-curvature="0" />
	<path style="fill:none;stroke:red;stroke-width:1px;stroke-linecap:butt;stroke-linejoin:miter;stroke-opacity:1" d="M 403.032,807.646 410.008,793.693 z" id="boundary" inkscape:connector-curvature="0" />
	<path style="fill:none;stroke:red;stroke-width:1px;stroke-linecap:butt;stroke-linejoin:miter;stroke-opacity:1" d="M 403.032,821.598 403.032,835.55 z" id="boundary" inkscape:connector-curvature="0" />
	<path style="fill:none;stroke:red;stroke-width:1px;stroke-linecap:butt;stroke-linejoin:miter;stroke-opacity:1" d="M 405.823,779.741 410.008,793.693 z" id="boundary" inkscape:connector-curvature="0" />
	<path style="fill:none;stroke:red;stroke-width:1px;stroke-linecap:butt;stroke-linejoin:miter;stroke-opacity:1" d="M 408.613,20.7426 410.008,34.6948 z" id="boundary" inkscape:connector-curvature="0" />
	<path style="fill:none;stroke:red;stroke-width:1px;stroke-linecap:butt;stroke-linejoin:miter;stroke-opacity:1" d="M 410.008,34.6948 416.985,47.2518 z" id="boundary" inkscape:connector-curvature="0" />
	<path style="fill:none;stroke:red;stroke-width:1px;stroke-linecap:butt;stroke-linejoin:miter;stroke-opacity:1" d="M 410.008,737.885 422.565,730.909 z" id="boundary" inkscape:connector-curvature="0" />
	<path style="fill:none;stroke:red;stroke-width:1px;stroke-linecap:butt;stroke-linejoin:miter;stroke-opacity:1" d="M 416.985,47.2518 423.961,59.8087 z" id="boundary" inkscape:connector-curvature="0" />
	<path style="fill:none;stroke:red;stroke-width:1px;stroke-linecap:butt;stroke-linejoin:miter;stroke-opacity:1" d="M 422.565,730.909 435.122,723.932 z" id="boundary" inkscape:connector-curvature="0" />
	<path style="fill:none;stroke:red;stroke-width:1px;stroke-linecap:butt;stroke-linejoin:miter;stroke-opacity:1" d="M 423.961,59.8087 435.122,68.18 z" id="boundary" inkscape:connector-curvature="0" />
	<path style="fill:none;stroke:red;stroke-width:1px;stroke-linecap:butt;stroke-linejoin:miter;stroke-opacity:1" d="M 435.122,68.18 440.703,82.1322 z" id="boundary" inkscape:connector-curvature="0" />
	<path style="fill:none;stroke:red;stroke-width:1px;stroke-linecap:butt;stroke-linejoin:miter;stroke-opacity:1" d="M 435.122,723.932 447.679,715.561 z" id="boundary" inkscape:connector-curvature="0" />
	<path style="fill:none;stroke:red;stroke-width:1px;stroke-linecap:butt;stroke-linejoin:miter;stroke-opacity:1" d="M 440.703,82.1322 451.865,91.8987 z" id="boundary" inkscape:connector-curvature="0" />
	<path style="fill:none;stroke:red;stroke-width:1px;stroke-linecap:butt;stroke-linejoin:miter;stroke-opacity:1" d="M 447.679,715.561 458.841,696.028 z" id="boundary" inkscape:connector-curvature="0" />
	<path style="fill:none;stroke:red;stroke-width:1px;stroke-linecap:butt;stroke-linejoin:miter;stroke-opacity:1" d="M 451.865,91.8987 457.446,105.851 z" id="boundary" inkscape:connector-curvature="0" />
	<path style="fill:none;stroke:red;stroke-width:1px;stroke-linecap:butt;stroke-linejoin:miter;stroke-opacity:1" d="M 451.865,654.172 451.865,668.124 z" id="boundary" inkscape:connector-curvature="0" />
	<path style="fill:none;stroke:red;stroke-width:1px;stroke-linecap:butt;stroke-linejoin:miter;stroke-opacity:1" d="M 451.865,654.172 465.817,654.172 z" id="boundary" inkscape:connector-curvature="0" />
	<path style="fill:none;stroke:red;stroke-width:1px;stroke-linecap:butt;stroke-linejoin:miter;stroke-opacity:1" d="M 451.865,668.124 454.655,682.076 z" id="boundary" inkscape:connector-curvature="0" />
	<path style="fill:none;stroke:red;stroke-width:1px;stroke-linecap:butt;stroke-linejoin:miter;stroke-opacity:1" d="M 454.655,682.076 458.841,696.028 z" id="boundary" inkscape:connector-curvature="0" />
	<path style="fill:none;stroke:red;stroke-width:1px;stroke-linecap:butt;stroke-linejoin:miter;stroke-opacity:1" d="M 457.446,105.851 464.422,118.408 z" id="boundary" inkscape:connector-curvature="0" />
	<path style="fill:none;stroke:red;stroke-width:1px;stroke-linecap:butt;stroke-linejoin:miter;stroke-opacity:1" d="M 464.422,118.408 472.793,129.57 z" id="boundary" inkscape:connector-curvature="0" />
	<path style="fill:none;stroke:red;stroke-width:1px;stroke-linecap:butt;stroke-linejoin:miter;stroke-opacity:1" d="M 465.817,654.172 478.374,647.195 z" id="boundary" inkscape:connector-curvature="0" />
	<path style="fill:none;stroke:red;stroke-width:1px;stroke-linecap:butt;stroke-linejoin:miter;stroke-opacity:1" d="M 472.793,129.57 483.955,137.941 z" id="boundary" inkscape:connector-curvature="0" />
	<path style="fill:none;stroke:red;stroke-width:1px;stroke-linecap:butt;stroke-linejoin:miter;stroke-opacity:1" d="M 478.374,647.195 492.326,647.195 z" id="boundary" inkscape:connector-curvature="0" />
	<path style="fill:none;stroke:red;stroke-width:1px;stroke-linecap:butt;stroke-linejoin:miter;stroke-opacity:1" d="M 483.955,137.941 493.722,149.103 z" id="boundary" inkscape:connector-curvature="0" />
	<path style="fill:none;stroke:red;stroke-width:1px;stroke-linecap:butt;stroke-linejoin:miter;stroke-opacity:1" d="M 492.326,647.195 504.883,640.219 z" id="boundary" inkscape:connector-curvature="0" />
	<path style="fill:none;stroke:red;stroke-width:1px;stroke-linecap:butt;stroke-linejoin:miter;stroke-opacity:1" d="M 493.722,149.103 500.698,161.66 z" id="boundary" inkscape:connector-curvature="0" />
	<path style="fill:none;stroke:red;stroke-width:1px;stroke-linecap:butt;stroke-linejoin:miter;stroke-opacity:1" d="M 500.698,161.66 510.464,172.821 z" id="boundary" inkscape:connector-curvature="0" />
	<path style="fill:none;stroke:red;stroke-width:1px;stroke-linecap:butt;stroke-linejoin:miter;stroke-opacity:1" d="M 504.883,640.219 517.44,633.243 z" id="boundary" inkscape:connector-curvature="0" />
	<path style="fill:none;stroke:red;stroke-width:1px;stroke-linecap:butt;stroke-linejoin:miter;stroke-opacity:1" d="M 510.464,172.821 521.626,182.588 z" id="boundary" inkscape:connector-curvature="0" />
	<path style="fill:none;stroke:red;stroke-width:1px;stroke-linecap:butt;stroke-linejoin:miter;stroke-opacity:1" d="M 517.44,633.243 529.997,626.267 z" id="boundary" inkscape:connector-curvature="0" />
	<path style="fill:none;stroke:red;stroke-width:1px;stroke-linecap:butt;stroke-linejoin:miter;stroke-opacity:1" d="M 521.626,182.588 531.392,193.75 z" id="boundary" inkscape:connector-curvature="0" />
	<path style="fill:none;stroke:red;stroke-width:1px;stroke-linecap:butt;stroke-linejoin:miter;stroke-opacity:1" d="M 529.997,626.267 542.554,619.291 z" id="boundary" inkscape:connector-curvature="0" />
	<path style="fill:none;stroke:red;stroke-width:1px;stroke-linecap:butt;stroke-linejoin:miter;stroke-opacity:1" d="M 531.392,193.75 542.554,203.516 z" id="boundary" inkscape:connector-curvature="0" />
	<path style="fill:none;stroke:red;stroke-width:1px;stroke-linecap:butt;stroke-linejoin:miter;stroke-opacity:1" d="M 542.554,203.516 552.321,214.678 z" id="boundary" inkscape:connector-curvature="0" />
	<path style="fill:none;stroke:red;stroke-width:1px;stroke-linecap:butt;stroke-linejoin:miter;stroke-opacity:1" d="M 542.554,619.291 555.111,612.315 z" id="boundary" inkscape:connector-curvature="0" />
	<path style="fill:none;stroke:red;stroke-width:1px;stroke-linecap:butt;stroke-linejoin:miter;stroke-opacity:1" d="M 552.321,214.678 563.482,224.444 z" id="boundary" inkscape:connector-curvature="0" />
	<path style="fill:none;stroke:red;stroke-width:1px;stroke-linecap:butt;stroke-linejoin:miter;stroke-opacity:1" d="M 555.111,612.315 567.668,605.339 z" id="boundary" inkscape:connector-curvature="0" />
	<path style="fill:none;stroke:red;stroke-width:1px;stroke-linecap:butt;stroke-linejoin:miter;stroke-opacity:1" d="M 563.482,224.444 570.459,237.001 z" id="boundary" inkscape:connector-curvature="0" />
	<path style="fill:none;stroke:red;stroke-width:1px;stroke-linecap:butt;stroke-linejoin:miter;stroke-opacity:1" d="M 567.668,605.339 580.225,598.363 z" id="boundary" inkscape:connector-curvature="0" />
	<path style="fill:none;stroke:red;stroke-width:1px;stroke-linecap:butt;stroke-linejoin:miter;stroke-opacity:1" d="M 570.459,237.001 578.83,248.163 z" id="boundary" inkscape:connector-curvature="0" />
	<path style="fill:none;stroke:red;stroke-width:1px;stroke-linecap:butt;stroke-linejoin:miter;stroke-opacity:1" d="M 578.83,248.163 591.387,255.139 z" id="boundary" inkscape:connector-curvature="0" />
	<path style="fill:none;stroke:red;stroke-width:1px;stroke-linecap:butt;stroke-linejoin:miter;stroke-opacity:1" d="M 580.225,598.363 592.782,591.387 z" id="boundary" inkscape:connector-curvature="0" />
	<path style="fill:none;stroke:red;stroke-width:1px;stroke-linecap:butt;stroke-linejoin:miter;stroke-opacity:1" d="M 591.387,255.139 602.549,263.511 z" id="boundary" inkscape:connector-curvature="0" />
	<path style="fill:none;stroke:red;stroke-width:1px;stroke-linecap:butt;stroke-linejoin:miter;stroke-opacity:1" d="M 592.782,591.387 603.944,580.225 z" id="boundary" inkscape:connector-curvature="0" />
	<path style="fill:none;stroke:red;stroke-width:1px;stroke-linecap:butt;stroke-linejoin:miter;stroke-opacity:1" d="M 602.549,263.511 612.315,274.672 z" id="boundary" inkscape:connector-curvature="0" />
	<path style="fill:none;stroke:red;stroke-width:1px;stroke-linecap:butt;stroke-linejoin:miter;stroke-opacity:1" d="M 603.944,580.225 617.896,573.249 z" id="boundary" inkscape:connector-curvature="0" />
	<path style="fill:none;stroke:red;stroke-width:1px;stroke-linecap:butt;stroke-linejoin:miter;stroke-opacity:1" d="M 612.315,274.672 623.477,284.439 z" id="boundary" inkscape:connector-curvature="0" />
	<path style="fill:none;stroke:red;stroke-width:1px;stroke-linecap:butt;stroke-linejoin:miter;stroke-opacity:1" d="M 617.896,573.249 631.848,566.273 z" id="boundary" inkscape:connector-curvature="0" />
	<path style="fill:none;stroke:red;stroke-width:1px;stroke-linecap:butt;stroke-linejoin:miter;stroke-opacity:1" d="M 623.477,284.439 636.034,291.415 z" id="boundary" inkscape:connector-curvature="0" />
	<path style="fill:none;stroke:red;stroke-width:1px;stroke-linecap:butt;stroke-linejoin:miter;stroke-opacity:1" d="M 631.848,566.273 643.01,556.506 z" id="boundary" inkscape:connector-curvature="0" />
	<path style="fill:none;stroke:red;stroke-width:1px;stroke-linecap:butt;stroke-linejoin:miter;stroke-opacity:1" d="M 636.034,291.415 649.986,296.996 z" id="boundary" inkscape:connector-curvature="0" />
	<path style="fill:none;stroke:red;stroke-width:1px;stroke-linecap:butt;stroke-linejoin:miter;stroke-opacity:1" d="M 643.01,556.506 655.567,549.53 z" id="boundary" inkscape:connector-curvature="0" />
	<path style="fill:none;stroke:red;stroke-width:1px;stroke-linecap:butt;stroke-linejoin:miter;stroke-opacity:1" d="M 649.986,296.996 659.752,308.158 z" id="boundary" inkscape:connector-curvature="0" />
	<path style="fill:none;stroke:red;stroke-width:1px;stroke-linecap:butt;stroke-linejoin:miter;stroke-opacity:1" d="M 655.567,549.53 668.124,542.554 z" id="boundary" inkscape:connector-curvature="0" />
	<path style="fill:none;stroke:red;stroke-width:1px;stroke-linecap:butt;stroke-linejoin:miter;stroke-opacity:1" d="M 659.752,308.158 670.914,317.924 z" id="boundary" inkscape:connector-curvature="0" />
	<path style="fill:none;stroke:red;stroke-width:1px;stroke-linecap:butt;stroke-linejoin:miter;stroke-opacity:1" d="M 668.124,542.554 679.286,532.788 z" id="boundary" inkscape:connector-curvature="0" />
	<path style="fill:none;stroke:red;stroke-width:1px;stroke-linecap:butt;stroke-linejoin:miter;stroke-opacity:1" d="M 670.914,317.924 683.471,324.9 z" id="boundary" inkscape:connector-curvature="0" />
	<path style="fill:none;stroke:red;stroke-width:1px;stroke-linecap:butt;stroke-linejoin:miter;stroke-opacity:1" d="M 679.286,532.788 686.262,518.835 z" id="boundary" inkscape:connector-curvature="0" />
	<path style="fill:none;stroke:red;stroke-width:1px;stroke-linecap:butt;stroke-linejoin:miter;stroke-opacity:1" d="M 683.471,324.9 689.052,338.852 z" id="boundary" inkscape:connector-curvature="0" />
	<path style="fill:none;stroke:red;stroke-width:1px;stroke-linecap:butt;stroke-linejoin:miter;stroke-opacity:1" d="M 686.262,518.835 700.214,511.859 z" id="boundary" inkscape:connector-curvature="0" />
	<path style="fill:none;stroke:red;stroke-width:1px;stroke-linecap:butt;stroke-linejoin:miter;stroke-opacity:1" d="M 689.052,338.852 700.214,347.224 z" id="boundary" inkscape:connector-curvature="0" />
	<path style="fill:none;stroke:red;stroke-width:1px;stroke-linecap:butt;stroke-linejoin:miter;stroke-opacity:1" d="M 700.214,347.224 709.98,358.385 z" id="boundary" inkscape:connector-curvature="0" />
	<path style="fill:none;stroke:red;stroke-width:1px;stroke-linecap:butt;stroke-linejoin:miter;stroke-opacity:1" d="M 700.214,511.859 714.166,504.883 z" id="boundary" inkscape:connector-curvature="0" />
	<path style="fill:none;stroke:red;stroke-width:1px;stroke-linecap:butt;stroke-linejoin:miter;stroke-opacity:1" d="M 709.98,358.385 721.142,366.757 z" id="boundary" inkscape:connector-curvature="0" />
	<path style="fill:none;stroke:red;stroke-width:1px;stroke-linecap:butt;stroke-linejoin:miter;stroke-opacity:1" d="M 714.166,504.883 721.142,490.931 z" id="boundary" inkscape:connector-curvature="0" />
	<path style="fill:none;stroke:red;stroke-width:1px;stroke-linecap:butt;stroke-linejoin:miter;stroke-opacity:1" d="M 721.142,366.757 733.699,373.733 z" id="boundary" inkscape:connector-curvature="0" />
	<path style="fill:none;stroke:red;stroke-width:1px;stroke-linecap:butt;stroke-linejoin:miter;stroke-opacity:1" d="M 721.142,490.931 730.909,479.769 z" id="boundary" inkscape:connector-curvature="0" />
	<path style="fill:none;stroke:red;stroke-width:1px;stroke-linecap:butt;stroke-linejoin:miter;stroke-opacity:1" d="M 730.909,479.769 737.885,465.817 z" id="boundary" inkscape:connector-curvature="0" />
	<path style="fill:none;stroke:red;stroke-width:1px;stroke-linecap:butt;stroke-linejoin:miter;stroke-opacity:1" d="M 733.699,373.733 743.466,384.895 z" id="boundary" inkscape:connector-curvature="0" />
	<path style="fill:none;stroke:red;stroke-width:1px;stroke-linecap:butt;stroke-linejoin:miter;stroke-opacity:1" d="M 737.885,465.817 744.861,444.889 z" id="boundary" inkscape:connector-curvature="0" />
	<path style="fill:none;stroke:red;stroke-width:1px;stroke-linecap:butt;stroke-linejoin:miter;stroke-opacity:1" d="M 743.466,384.895 750.442,397.451 z" id="boundary" inkscape:connector-curvature="0" />
	<path style="fill:none;stroke:red;stroke-width:1px;stroke-linecap:butt;stroke-linejoin:miter;stroke-opacity:1" d="M 744.861,430.937 744.861,444.889 z" id="boundary" inkscape:connector-curvature="0" />
	<path style="fill:none;stroke:red;stroke-width:1px;stroke-linecap:butt;stroke-linejoin:miter;stroke-opacity:1" d="M 744.861,430.937 751.837,411.404 z" id="boundary" inkscape:connector-curvature="0" />
	<path style="fill:none;stroke:red;stroke-width:1px;stroke-linecap:butt;stroke-linejoin:miter;stroke-opacity:1" d="M 750.442,397.451 751.837,411.404 z" id="boundary" inkscape:connector-curvature="0" />
	<circle cx="4" cy="370.942" r="4" fill="#0" id="circle0"/>
	<circle cx="4" cy="384.895" r="4" fill="#0" id="circle1"/>
	<circle cx="4" cy="398.847" r="4" fill="#0" id="circle2"/>
	<circle cx="4" cy="412.799" r="4" fill="#0" id="circle3"/>
	<circle cx="10.9761" cy="356.99" r="4" fill="#0" id="circle4"/>
	<circle cx="10.9761" cy="425.356" r="4" fill="#0" id="circle5"/>
	<circle cx="17.9522" cy="437.913" r="4" fill="#0" id="circle6"/>
	<circle cx="22.1378" cy="345.828" r="4" fill="#0" id="circle7"/>
	<circle cx="22.1378" cy="451.865" r="4" fill="#0" id="circle8"/>
	<circle cx="33.2996" cy="334.667" r="4" fill="#0" id="circle9"/>
	<circle cx="33.2996" cy="461.632" r="4" fill="#0" id="circle10"/>
	<circle cx="43.0661" cy="472.793" r="4" fill="#0" id="circle11"/>
	<circle cx="47.2518" cy="327.691" r="4" fill="#0" id="circle12"/>
	<circle cx="54.2278" cy="482.56" r="4" fill="#0" id="circle13"/>
	<circle cx="58.4135" cy="317.924" r="4" fill="#0" id="circle14"/>
	<circle cx="63.9944" cy="493.722" r="4" fill="#0" id="circle15"/>
	<circle cx="70.9705" cy="310.948" r="4" fill="#0" id="circle16"/>
	<circle cx="75.1561" cy="503.488" r="4" fill="#0" id="circle17"/>
	<circle cx="83.5274" cy="303.972" r="4" fill="#0" id="circle18"/>
	<circle cx="87.7131" cy="510.464" r="4" fill="#0" id="circle19"/>
	<circle cx="94.6892" cy="294.205" r="4" fill="#0" id="circle20"/>
	<circle cx="98.8748" cy="520.231" r="4" fill="#0" id="circle21"/>
	<circle cx="105.851" cy="283.044" r="4" fill="#0" id="circle22"/>
	<circle cx="108.641" cy="531.392" r="4" fill="#0" id="circle23"/>
	<circle cx="119.803" cy="276.068" r="4" fill="#0" id="circle24"/>
	<circle cx="119.803" cy="541.159" r="4" fill="#0" id="circle25"/>
	<circle cx="129.57" cy="552.321" r="4" fill="#0" id="circle26"/>
	<circle cx="133.755" cy="269.091" r="4" fill="#0" id="circle27"/>
	<circle cx="140.731" cy="562.087" r="4" fill="#0" id="circle28"/>
	<circle cx="143.522" cy="929.03" r="4" fill="#0" id="circle29"/>
	<circle cx="143.522" cy="942.982" r="4" fill="#0" id="circle30"/>
	<circle cx="146.312" cy="262.115" r="4" fill="#0" id="circle31"/>
	<circle cx="153.288" cy="569.063" r="4" fill="#0" id="circle32"/>
	<circle cx="154.684" cy="917.868" r="4" fill="#0" id="circle33"/>
	<circle cx="154.684" cy="952.748" r="4" fill="#0" id="circle34"/>
	<circle cx="157.474" cy="252.349" r="4" fill="#0" id="circle35"/>
	<circle cx="164.45" cy="577.435" r="4" fill="#0" id="circle36"/>
	<circle cx="165.845" cy="961.12" r="4" fill="#0" id="circle37"/>
	<circle cx="167.241" cy="924.844" r="4" fill="#0" id="circle38"/>
	<circle cx="171.426" cy="245.373" r="4" fill="#0" id="circle39"/>
	<circle cx="172.821" cy="588.596" r="4" fill="#0" id="circle40"/>
	<circle cx="178.402" cy="968.096" r="4" fill="#0" id="circle41"/>
	<circle cx="181.193" cy="924.844" r="4" fill="#0" id="circle42"/>
	<circle cx="183.983" cy="598.363" r="4" fill="#0" id="circle43"/>
	<circle cx="185.378" cy="238.397" r="4" fill="#0" id="circle44"/>
	<circle cx="190.959" cy="975.072" r="4" fill="#0" id="circle45"/>
	<circle cx="193.75" cy="931.82" r="4" fill="#0" id="circle46"/>
	<circle cx="196.54" cy="227.235" r="4" fill="#0" id="circle47"/>
	<circle cx="196.54" cy="605.339" r="4" fill="#0" id="circle48"/>
	<circle cx="200.726" cy="944.377" r="4" fill="#0" id="circle49"/>
	<circle cx="203.516" cy="982.048" r="4" fill="#0" id="circle50"/>
	<circle cx="207.702" cy="615.105" r="4" fill="#0" id="circle51"/>
	<circle cx="210.492" cy="220.259" r="4" fill="#0" id="circle52"/>
	<circle cx="214.678" cy="949.958" r="4" fill="#0" id="circle53"/>
	<circle cx="217.468" cy="982.048" r="4" fill="#0" id="circle54"/>
	<circle cx="220.259" cy="622.082" r="4" fill="#0" id="circle55"/>
	<circle cx="221.654" cy="209.097" r="4" fill="#0" id="circle56"/>
	<circle cx="228.63" cy="948.563" r="4" fill="#0" id="circle57"/>
	<circle cx="230.025" cy="989.024" r="4" fill="#0" id="circle58"/>
	<circle cx="231.421" cy="631.848" r="4" fill="#0" id="circle59"/>
	<circle cx="232.816" cy="199.331" r="4" fill="#0" id="circle60"/>
	<circle cx="239.792" cy="938.796" r="4" fill="#0" id="circle61"/>
	<circle cx="242.582" cy="188.169" r="4" fill="#0" id="circle62"/>
	<circle cx="242.582" cy="640.219" r="4" fill="#0" id="circle63"/>
	<circle cx="243.977" cy="993.21" r="4" fill="#0" id="circle64"/>
	<circle cx="252.349" cy="945.772" r="4" fill="#0" id="circle65"/>
	<circle cx="253.744" cy="178.402" r="4" fill="#0" id="circle66"/>
	<circle cx="255.139" cy="647.195" r="4" fill="#0" id="circle67"/>
	<circle cx="257.93" cy="996" r="4" fill="#0" id="circle68"/>
	<circle cx="259.325" cy="164.45" r="4" fill="#0" id="circle69"/>
	<circle cx="264.906" cy="952.748" r="4" fill="#0" id="circle70"/>
	<circle cx="269.091" cy="647.195" r="4" fill="#0" id="circle71"/>
	<circle cx="270.487" cy="153.288" r="4" fill="#0" id="circle72"/>
	<circle cx="271.882" cy="996" r="4" fill="#0" id="circle73"/>
	<circle cx="278.858" cy="952.748" r="4" fill="#0" id="circle74"/>
	<circle cx="281.648" cy="143.522" r="4" fill="#0" id="circle75"/>
	<circle cx="283.044" cy="647.195" r="4" fill="#0" id="circle76"/>
	<circle cx="284.439" cy="989.024" r="4" fill="#0" id="circle77"/>
	<circle cx="290.02" cy="670.914" r="4" fill="#0" id="circle78"/>
	<circle cx="290.02" cy="684.866" r="4" fill="#0" id="circle79"/>
	<circle cx="291.415" cy="132.36" r="4" fill="#0" id="circle80"/>
	<circle cx="292.81" cy="952.748" r="4" fill="#0" id="circle81"/>
	<circle cx="295.601" cy="654.172" r="4" fill="#0" id="circle82"/>
	<circle cx="296.996" cy="697.423" r="4" fill="#0" id="circle83"/>
	<circle cx="298.391" cy="118.408" r="4" fill="#0" id="circle84"/>
	<circle cx="298.391" cy="989.024" r="4" fill="#0" id="circle85"/>
	<circle cx="305.367" cy="945.772" r="4" fill="#0" id="circle86"/>
	<circle cx="306.762" cy="708.585" r="4" fill="#0" id="circle87"/>
	<circle cx="309.553" cy="108.641" r="4" fill="#0" id="circle88"/>
	<circle cx="312.343" cy="989.024" r="4" fill="#0" id="circle89"/>
	<circle cx="317.924" cy="716.956" r="4" fill="#0" id="circle90"/>
	<circle cx="317.924" cy="936.006" r="4" fill="#0" id="circle91"/>
	<circle cx="319.319" cy="97.4796" r="4" fill="#0" id="circle92"/>
	<circle cx="324.9" cy="729.513" r="4" fill="#0" id="circle93"/>
	<circle cx="324.9" cy="982.048" r="4" fill="#0" id="circle94"/>
	<circle cx="329.086" cy="924.844" r="4" fill="#0" id="circle95"/>
	<circle cx="330.481" cy="87.7131" r="4" fill="#0" id="circle96"/>
	<circle cx="333.271" cy="740.675" r="4" fill="#0" id="circle97"/>
	<circle cx="336.062" cy="910.892" r="4" fill="#0" id="circle98"/>
	<circle cx="336.062" cy="973.677" r="4" fill="#0" id="circle99"/>
	<circle cx="338.852" cy="70.9705" r="4" fill="#0" id="circle100"/>
	<circle cx="343.038" cy="751.837" r="4" fill="#0" id="circle101"/>
	<circle cx="343.038" cy="896.94" r="4" fill="#0" id="circle102"/>
	<circle cx="345.828" cy="57.0183" r="4" fill="#0" id="circle103"/>
	<circle cx="345.828" cy="859.269" r="4" fill="#0" id="circle104"/>
	<circle cx="345.828" cy="873.221" r="4" fill="#0" id="circle105"/>
	<circle cx="347.224" cy="961.12" r="4" fill="#0" id="circle106"/>
	<circle cx="350.014" cy="764.394" r="4" fill="#0" id="circle107"/>
	<circle cx="352.805" cy="43.0661" r="4" fill="#0" id="circle108"/>
	<circle cx="352.805" cy="778.346" r="4" fill="#0" id="circle109"/>
	<circle cx="352.805" cy="792.298" r="4" fill="#0" id="circle110"/>
	<circle cx="352.805" cy="806.25" r="4" fill="#0" id="circle111"/>
	<circle cx="352.805" cy="820.203" r="4" fill="#0" id="circle112"/>
	<circle cx="352.805" cy="834.155" r="4" fill="#0" id="circle113"/>
	<circle cx="358.385" cy="951.353" r="4" fill="#0" id="circle114"/>
	<circle cx="363.966" cy="31.9044" r="4" fill="#0" id="circle115"/>
	<circle cx="368.152" cy="940.191" r="4" fill="#0" id="circle116"/>
	<circle cx="373.733" cy="15.1617" r="4" fill="#0" id="circle117"/>
	<circle cx="375.128" cy="926.239" r="4" fill="#0" id="circle118"/>
	<circle cx="382.104" cy="912.287" r="4" fill="#0" id="circle119"/>
	<circle cx="384.895" cy="4" r="4" fill="#0" id="circle120"/>
	<circle cx="389.08" cy="898.335" r="4" fill="#0" id="circle121"/>
	<circle cx="396.056" cy="849.502" r="4" fill="#0" id="circle122"/>
	<circle cx="396.056" cy="863.454" r="4" fill="#0" id="circle123"/>
	<circle cx="396.056" cy="877.406" r="4" fill="#0" id="circle124"/>
	<circle cx="397.451" cy="10.9761" r="4" fill="#0" id="circle125"/>
	<circle cx="403.032" cy="751.837" r="4" fill="#0" id="circle126"/>
	<circle cx="403.032" cy="765.789" r="4" fill="#0" id="circle127"/>
	<circle cx="403.032" cy="807.646" r="4" fill="#0" id="circle128"/>
	<circle cx="403.032" cy="821.598" r="4" fill="#0" id="circle129"/>
	<circle cx="403.032" cy="835.55" r="4" fill="#0" id="circle130"/>
	<circle cx="405.823" cy="779.741" r="4" fill="#0" id="circle131"/>
	<circle cx="408.613" cy="20.7426" r="4" fill="#0" id="circle132"/>
	<circle cx="410.008" cy="34.6948" r="4" fill="#0" id="circle133"/>
	<circle cx="410.008" cy="737.885" r="4" fill="#0" id="circle134"/>
	<circle cx="410.008" cy="793.693" r="4" fill="#0" id="circle135"/>
	<circle cx="416.985" cy="47.2518" r="4" fill="#0" id="circle136"/>
	<circle cx="422.565" cy="730.909" r="4" fill="#0" id="circle137"/>
	<circle cx="423.961" cy="59.8087" r="4" fill="#0" id="circle138"/>
	<circle cx="435.122" cy="68.18" r="4" fill="#0" id="circle139"/>
	<circle cx="435.122" cy="723.932" r="4" fill="#0" id="circle140"/>
	<circle cx="440.703" cy="82.1322" r="4" fill="#0" id="circle141"/>
	<circle cx="447.679" cy="715.561" r="4" fill="#0" id="circle142"/>
	<circle cx="451.865" cy="91.8987" r="4" fill="#0" id="circle143"/>
	<circle cx="451.865" cy="654.172" r="4" fill="#0" id="circle144"/>
	<circle cx="451.865" cy="668.124" r="4" fill="#0" id="circle145"/>
	<circle cx="454.655" cy="682.076" r="4" fill="#0" id="circle146"/>
	<circle cx="457.446" cy="105.851" r="4" fill="#0" id="circle147"/>
	<circle cx="458.841" cy="696.028" r="4" fill="#0" id="circle148"/>
	<circle cx="464.422" cy="118.408" r="4" fill="#0" id="circle149"/>
	<circle cx="465.817" cy="654.172" r="4" fill="#0" id="circle150"/>
	<circle cx="472.793" cy="129.57" r="4" fill="#0" id="circle151"/>
	<circle cx="478.374" cy="647.195" r="4" fill="#0" id="circle152"/>
	<circle cx="483.955" cy="137.941" r="4" fill="#0" id="circle153"/>
	<circle cx="492.326" cy="647.195" r="4" fill="#0" id="circle154"/>
	<circle cx="493.722" cy="149.103" r="4" fill="#0" id="circle155"/>
	<circle cx="500.698" cy="161.66" r="4" fill="#0" id="circle156"/>
	<circle cx="504.883" cy="640.219" r="4" fill="#0" id="circle157"/>
	<circle cx="510.464" cy="172.821" r="4" fill="#0" id="circle158"/>
	<circle cx="517.44" cy="633.243" r="4" fill="#0" id="circle159"/>
	<circle cx="521.626" cy="182.588" r="4" fill="#0" id="circle160"/>
	<circle cx="529.997" cy="626.267" r="4" fill="#0" id="circle161"/>
	<circle cx="531.392" cy="193.75" r="4" fill="#0" id="circle162"/>
	<circle cx="542.554" cy="203.516" r="4" fill="#0" id="circle163"/>
	<circle cx="542.554" cy="619.291" r="4" fill="#0" id="circle164"/>
	<circle cx="552.321" cy="214.678" r="4" fill="#0" id="circle165"/>
	<circle cx="555.111" cy="612.315" r="4" fill="#0" id="circle166"/>
	<circle cx="563.482" cy="224.444" r="4" fill="#0" id="circle167"/>
	<circle cx="567.668" cy="605.339" r="4" fill="#0" id="circle168"/>
	<circle cx="570.459" cy="237.001" r="4" fill="#0" id="circle169"/>
	<circle cx="578.83" cy="248.163" r="4" fill="#0" id="circle170"/>
	<circle cx="580.225" cy="598.363" r="4" fill="#0" id="circle171"/>
	<circle cx="591.387" cy="255.139" r="4" fill="#0" id="circle172"/>
	<circle cx="592.782" cy="591.387" r="4" fill="#0" id="circle173"/>
	<circle cx="602.549" cy="263.511" r="4" fill="#0" id="circle174"/>
	<circle cx="603.944" cy="580.225" r="4" fill="#0" id="circle175"/>
	<circle cx="612.315" cy="274.672" r="4" fill="#0" id="circle176"/>
	<circle cx="617.896" cy="573.249" r="4" fill="#0" id="circle177"/>
	<circle cx="623.477" cy="284.439" r="4" fill="#0" id="circle178"/>
	<circle cx="631.848" cy="566.273" r="4" fill="#0" id="circle179"/>
	<circle cx="636.034" cy="291.415" r="4" fill="#0" id="circle180"/>
	<circle cx="643.01" cy="556.506" r="4" fill="#0" id="circle181"/>
	<circle cx="649.986" cy="296.996" r="4" fill="#0" id="circle182"/>
	<circle cx="655.567" cy="549.53" r="4" fill="#0" id="circle183"/>
	<circle cx="659.752" cy="308.158" r="4" fill="#0" id="circle184"/>
	<circle cx="668.124" cy="542.554" r="4" fill="#0" id="circle185"/>
	<circle cx="670.914" cy="317.924" r="4" fill="#0" id="circle186"/>
	<circle cx="679.286" cy="532.788" r="4" fill="#0" id="circle187"/>
	<circle cx="683.471" cy="324.9" r="4" fill="#0" id="circle188"/>
	<circle cx="686.262" cy="518.835" r="4" fill="#0" id="circle189"/>
	<circle cx="689.052" cy="338.852" r="4" fill="#0" id="circle190"/>
	<circle cx="700.214" cy="347.224" r="4" fill="#0" id="circle191"/>
	<circle cx="700.214" cy="511.859" r="4" fill="#0" id="circle192"/>
	<circle cx="709.98" cy="358.385" r="4" fill="#0" id="circle193"/>
	<circle cx="714.166" cy="504.883" r="4" fill="#0" id="circle194"/>
	<circle cx="721.142" cy="366.757" r="4" fill="#0" id="circle195"/>
	<circle cx="721.142" cy="490.931" r="4" fill="#0" id="circle196"/>
	<circle cx="730.909" cy="479.769" r="4" fill="#0" id="circle197"/>
	<circle cx="733.699" cy="373.733" r="4" fill="#0" id="circle198"/>
	<circle cx="737.885" cy="465.817" r="4" fill="#0" id="circle199"/>
	<circle cx="743.466" cy="384.895" r="4" fill="#0" id="circle200"/>
	<circle cx="744.861" cy="430.937" r="4" fill="#0" id="circle201"/>
	<circle cx="744.861" cy="444.889" r="4" fill="#0" id="circle202"/>
	<circle cx="750.442" cy="397.451" r="4" fill="#0" id="circle203"/>
	<circle cx="751.837" cy="411.404" r="4" fill="#0" id="circle204"/>
	</g>
</svg>