<?xml version="1.0" encoding="UTF-8" standalone="no"?>
<!-- Created with CurveBenchmark -->
<svg
	xmlns:dc="http://purl.org/dc/elements/1.1/"
	xmlns:cc="http://creativecommons.org/ns#"
	xmlns:rdf="http://www.w3.org/1999/02/22-rdf-syntax-ns#"
	xmlns:svg="http://www.w3.org/2000/svg"
	xmlns="http://www.w3.org/2000/svg"
	xmlns:sodipodi="http://sodipodi.sourceforge.net/DTD/sodipodi-0.dtd"
	xmlns:inkscape="http://www.inkscape.org/namespaces/inkscape"
	width="1000"
	height="1000"
	id="svg2"
	version="1.1"
	sodipodi:docname="manifold/vicur-fgen1fp.png.txt">
<defs
	id="defs4" />
<metadata
	id="metadata7">
	<rdf:RDF>
		<cc:Work
			rdf:about="">
			<dc:format>image/svg+xml</dc:format>
			<dc:type
				rdf:resource="http://purl.org/dc/dcmitype/StillImage" />
			<dc:title></dc:title>
		</cc:Work>
	</rdf:RDF>
</metadata>
<g
	inkscape:label="Layer 1"
	inkscape:groupmode="layer"
	id="layer1">
	<path style="fill:none;stroke:red;stroke-width:1px;stroke-linecap:butt;stroke-linejoin:miter;stroke-opacity:1" d="M 4,851.457 4,871.257 z" id="boundary" inkscape:connector-curvature="0" />
	<path style="fill:none;stroke:red;stroke-width:1px;stroke-linecap:butt;stroke-linejoin:miter;stroke-opacity:1" d="M 4,851.457 19.8403,835.617 z" id="boundary" inkscape:connector-curvature="0" />
	<path style="fill:none;stroke:red;stroke-width:1px;stroke-linecap:butt;stroke-linejoin:miter;stroke-opacity:1" d="M 4,871.257 13.9002,889.078 z" id="boundary" inkscape:connector-curvature="0" />
	<path style="fill:none;stroke:red;stroke-width:1px;stroke-linecap:butt;stroke-linejoin:miter;stroke-opacity:1" d="M 13.9002,889.078 23.8004,906.898 z" id="boundary" inkscape:connector-curvature="0" />
	<path style="fill:none;stroke:red;stroke-width:1px;stroke-linecap:butt;stroke-linejoin:miter;stroke-opacity:1" d="M 19.8403,835.617 23.8004,811.856 z" id="boundary" inkscape:connector-curvature="0" />
	<path style="fill:none;stroke:red;stroke-width:1px;stroke-linecap:butt;stroke-linejoin:miter;stroke-opacity:1" d="M 23.8004,811.856 33.7006,792.056 z" id="boundary" inkscape:connector-curvature="0" />
	<path style="fill:none;stroke:red;stroke-width:1px;stroke-linecap:butt;stroke-linejoin:miter;stroke-opacity:1" d="M 23.8004,906.898 43.6008,906.898 z" id="boundary" inkscape:connector-curvature="0" />
	<path style="fill:none;stroke:red;stroke-width:1px;stroke-linecap:butt;stroke-linejoin:miter;stroke-opacity:1" d="M 33.7006,227.745 49.5409,241.605 z" id="boundary" inkscape:connector-curvature="0" />
	<path style="fill:none;stroke:red;stroke-width:1px;stroke-linecap:butt;stroke-linejoin:miter;stroke-opacity:1" d="M 33.7006,405.948 33.7006,425.749 z" id="boundary" inkscape:connector-curvature="0" />
	<path style="fill:none;stroke:red;stroke-width:1px;stroke-linecap:butt;stroke-linejoin:miter;stroke-opacity:1" d="M 33.7006,405.948 49.5409,390.108 z" id="boundary" inkscape:connector-curvature="0" />
	<path style="fill:none;stroke:red;stroke-width:1px;stroke-linecap:butt;stroke-linejoin:miter;stroke-opacity:1" d="M 33.7006,425.749 43.6008,443.569 z" id="boundary" inkscape:connector-curvature="0" />
	<path style="fill:none;stroke:red;stroke-width:1px;stroke-linecap:butt;stroke-linejoin:miter;stroke-opacity:1" d="M 33.7006,792.056 43.6008,772.255 z" id="boundary" inkscape:connector-curvature="0" />
	<path style="fill:none;stroke:red;stroke-width:1px;stroke-linecap:butt;stroke-linejoin:miter;stroke-opacity:1" d="M 43.6008,443.569 53.501,461.389 z" id="boundary" inkscape:connector-curvature="0" />
	<path style="fill:none;stroke:red;stroke-width:1px;stroke-linecap:butt;stroke-linejoin:miter;stroke-opacity:1" d="M 43.6008,772.255 53.501,752.455 z" id="boundary" inkscape:connector-curvature="0" />
	<path style="fill:none;stroke:red;stroke-width:1px;stroke-linecap:butt;stroke-linejoin:miter;stroke-opacity:1" d="M 43.6008,906.898 63.4012,900.958 z" id="boundary" inkscape:connector-curvature="0" />
	<path style="fill:none;stroke:red;stroke-width:1px;stroke-linecap:butt;stroke-linejoin:miter;stroke-opacity:1" d="M 49.5409,211.904 49.5409,241.605 z" id="boundary" inkscape:connector-curvature="0" />
	<path style="fill:none;stroke:red;stroke-width:1px;stroke-linecap:butt;stroke-linejoin:miter;stroke-opacity:1" d="M 49.5409,211.904 59.4411,192.104 z" id="boundary" inkscape:connector-curvature="0" />
	<path style="fill:none;stroke:red;stroke-width:1px;stroke-linecap:butt;stroke-linejoin:miter;stroke-opacity:1" d="M 49.5409,390.108 69.3413,380.208 z" id="boundary" inkscape:connector-curvature="0" />
	<path style="fill:none;stroke:red;stroke-width:1px;stroke-linecap:butt;stroke-linejoin:miter;stroke-opacity:1" d="M 53.501,461.389 73.3014,465.349 z" id="boundary" inkscape:connector-curvature="0" />
	<path style="fill:none;stroke:red;stroke-width:1px;stroke-linecap:butt;stroke-linejoin:miter;stroke-opacity:1" d="M 53.501,752.455 63.4012,732.655 z" id="boundary" inkscape:connector-curvature="0" />
	<path style="fill:none;stroke:red;stroke-width:1px;stroke-linecap:butt;stroke-linejoin:miter;stroke-opacity:1" d="M 59.4411,192.104 77.2615,182.204 z" id="boundary" inkscape:connector-curvature="0" />
	<path style="fill:none;stroke:red;stroke-width:1px;stroke-linecap:butt;stroke-linejoin:miter;stroke-opacity:1" d="M 63.4012,524.75 63.4012,544.551 z" id="boundary" inkscape:connector-curvature="0" />
	<path style="fill:none;stroke:red;stroke-width:1px;stroke-linecap:butt;stroke-linejoin:miter;stroke-opacity:1" d="M 63.4012,524.75 73.3014,495.05 z" id="boundary" inkscape:connector-curvature="0" />
	<path style="fill:none;stroke:red;stroke-width:1px;stroke-linecap:butt;stroke-linejoin:miter;stroke-opacity:1" d="M 63.4012,544.551 63.4012,564.351 z" id="boundary" inkscape:connector-curvature="0" />
	<path style="fill:none;stroke:red;stroke-width:1px;stroke-linecap:butt;stroke-linejoin:miter;stroke-opacity:1" d="M 63.4012,564.351 63.4012,594.052 z" id="boundary" inkscape:connector-curvature="0" />
	<path style="fill:none;stroke:red;stroke-width:1px;stroke-linecap:butt;stroke-linejoin:miter;stroke-opacity:1" d="M 63.4012,594.052 63.4012,613.852 z" id="boundary" inkscape:connector-curvature="0" />
	<path style="fill:none;stroke:red;stroke-width:1px;stroke-linecap:butt;stroke-linejoin:miter;stroke-opacity:1" d="M 63.4012,613.852 63.4012,633.653 z" id="boundary" inkscape:connector-curvature="0" />
	<path style="fill:none;stroke:red;stroke-width:1px;stroke-linecap:butt;stroke-linejoin:miter;stroke-opacity:1" d="M 63.4012,633.653 73.3014,651.473 z" id="boundary" inkscape:connector-curvature="0" />
	<path style="fill:none;stroke:red;stroke-width:1px;stroke-linecap:butt;stroke-linejoin:miter;stroke-opacity:1" d="M 63.4012,732.655 73.3014,702.954 z" id="boundary" inkscape:connector-curvature="0" />
	<path style="fill:none;stroke:red;stroke-width:1px;stroke-linecap:butt;stroke-linejoin:miter;stroke-opacity:1" d="M 63.4012,900.958 83.2016,891.058 z" id="boundary" inkscape:connector-curvature="0" />
	<path style="fill:none;stroke:red;stroke-width:1px;stroke-linecap:butt;stroke-linejoin:miter;stroke-opacity:1" d="M 69.3413,243.585 83.2016,259.425 z" id="boundary" inkscape:connector-curvature="0" />
	<path style="fill:none;stroke:red;stroke-width:1px;stroke-linecap:butt;stroke-linejoin:miter;stroke-opacity:1" d="M 69.3413,380.208 89.1417,370.307 z" id="boundary" inkscape:connector-curvature="0" />
	<path style="fill:none;stroke:red;stroke-width:1px;stroke-linecap:butt;stroke-linejoin:miter;stroke-opacity:1" d="M 73.3014,465.349 93.1018,461.389 z" id="boundary" inkscape:connector-curvature="0" />
	<path style="fill:none;stroke:red;stroke-width:1px;stroke-linecap:butt;stroke-linejoin:miter;stroke-opacity:1" d="M 73.3014,495.05 93.1018,461.389 z" id="boundary" inkscape:connector-curvature="0" />
	<path style="fill:none;stroke:red;stroke-width:1px;stroke-linecap:butt;stroke-linejoin:miter;stroke-opacity:1" d="M 73.3014,651.473 83.2016,669.293 z" id="boundary" inkscape:connector-curvature="0" />
	<path style="fill:none;stroke:red;stroke-width:1px;stroke-linecap:butt;stroke-linejoin:miter;stroke-opacity:1" d="M 73.3014,702.954 83.2016,669.293 z" id="boundary" inkscape:connector-curvature="0" />
	<path style="fill:none;stroke:red;stroke-width:1px;stroke-linecap:butt;stroke-linejoin:miter;stroke-opacity:1" d="M 77.2615,182.204 83.2016,158.443 z" id="boundary" inkscape:connector-curvature="0" />
	<path style="fill:none;stroke:red;stroke-width:1px;stroke-linecap:butt;stroke-linejoin:miter;stroke-opacity:1" d="M 83.2016,158.443 93.1018,138.643 z" id="boundary" inkscape:connector-curvature="0" />
	<path style="fill:none;stroke:red;stroke-width:1px;stroke-linecap:butt;stroke-linejoin:miter;stroke-opacity:1" d="M 83.2016,259.425 93.1018,277.246 z" id="boundary" inkscape:connector-curvature="0" />
	<path style="fill:none;stroke:red;stroke-width:1px;stroke-linecap:butt;stroke-linejoin:miter;stroke-opacity:1" d="M 83.2016,891.058 103.002,887.098 z" id="boundary" inkscape:connector-curvature="0" />
	<path style="fill:none;stroke:red;stroke-width:1px;stroke-linecap:butt;stroke-linejoin:miter;stroke-opacity:1" d="M 89.1417,370.307 104.982,354.467 z" id="boundary" inkscape:connector-curvature="0" />
	<path style="fill:none;stroke:red;stroke-width:1px;stroke-linecap:butt;stroke-linejoin:miter;stroke-opacity:1" d="M 93.1018,138.643 108.942,122.802 z" id="boundary" inkscape:connector-curvature="0" />
	<path style="fill:none;stroke:red;stroke-width:1px;stroke-linecap:butt;stroke-linejoin:miter;stroke-opacity:1" d="M 93.1018,277.246 93.1018,297.046 z" id="boundary" inkscape:connector-curvature="0" />
	<path style="fill:none;stroke:red;stroke-width:1px;stroke-linecap:butt;stroke-linejoin:miter;stroke-opacity:1" d="M 93.1018,297.046 108.942,310.906 z" id="boundary" inkscape:connector-curvature="0" />
	<path style="fill:none;stroke:red;stroke-width:1px;stroke-linecap:butt;stroke-linejoin:miter;stroke-opacity:1" d="M 103.002,887.098 118.842,875.218 z" id="boundary" inkscape:connector-curvature="0" />
	<path style="fill:none;stroke:red;stroke-width:1px;stroke-linecap:butt;stroke-linejoin:miter;stroke-opacity:1" d="M 104.982,354.467 112.902,330.707 z" id="boundary" inkscape:connector-curvature="0" />
	<path style="fill:none;stroke:red;stroke-width:1px;stroke-linecap:butt;stroke-linejoin:miter;stroke-opacity:1" d="M 108.942,122.802 118.842,103.002 z" id="boundary" inkscape:connector-curvature="0" />
	<path style="fill:none;stroke:red;stroke-width:1px;stroke-linecap:butt;stroke-linejoin:miter;stroke-opacity:1" d="M 108.942,310.906 112.902,330.707 z" id="boundary" inkscape:connector-curvature="0" />
	<path style="fill:none;stroke:red;stroke-width:1px;stroke-linecap:butt;stroke-linejoin:miter;stroke-opacity:1" d="M 118.842,103.002 134.683,87.1617 z" id="boundary" inkscape:connector-curvature="0" />
	<path style="fill:none;stroke:red;stroke-width:1px;stroke-linecap:butt;stroke-linejoin:miter;stroke-opacity:1" d="M 118.842,875.218 138.643,865.317 z" id="boundary" inkscape:connector-curvature="0" />
	<path style="fill:none;stroke:red;stroke-width:1px;stroke-linecap:butt;stroke-linejoin:miter;stroke-opacity:1" d="M 134.683,87.1617 150.523,73.3014 z" id="boundary" inkscape:connector-curvature="0" />
	<path style="fill:none;stroke:red;stroke-width:1px;stroke-linecap:butt;stroke-linejoin:miter;stroke-opacity:1" d="M 138.643,865.317 158.443,865.317 z" id="boundary" inkscape:connector-curvature="0" />
	<path style="fill:none;stroke:red;stroke-width:1px;stroke-linecap:butt;stroke-linejoin:miter;stroke-opacity:1" d="M 150.523,73.3014 168.343,63.4012 z" id="boundary" inkscape:connector-curvature="0" />
	<path style="fill:none;stroke:red;stroke-width:1px;stroke-linecap:butt;stroke-linejoin:miter;stroke-opacity:1" d="M 158.443,865.317 162.403,885.118 z" id="boundary" inkscape:connector-curvature="0" />
	<path style="fill:none;stroke:red;stroke-width:1px;stroke-linecap:butt;stroke-linejoin:miter;stroke-opacity:1" d="M 162.403,885.118 172.303,902.938 z" id="boundary" inkscape:connector-curvature="0" />
	<path style="fill:none;stroke:red;stroke-width:1px;stroke-linecap:butt;stroke-linejoin:miter;stroke-opacity:1" d="M 168.343,63.4012 186.164,53.501 z" id="boundary" inkscape:connector-curvature="0" />
	<path style="fill:none;stroke:red;stroke-width:1px;stroke-linecap:butt;stroke-linejoin:miter;stroke-opacity:1" d="M 172.303,902.938 174.283,922.739 z" id="boundary" inkscape:connector-curvature="0" />
	<path style="fill:none;stroke:red;stroke-width:1px;stroke-linecap:butt;stroke-linejoin:miter;stroke-opacity:1" d="M 174.283,922.739 184.184,940.559 z" id="boundary" inkscape:connector-curvature="0" />
	<path style="fill:none;stroke:red;stroke-width:1px;stroke-linecap:butt;stroke-linejoin:miter;stroke-opacity:1" d="M 184.184,940.559 198.044,956.399 z" id="boundary" inkscape:connector-curvature="0" />
	<path style="fill:none;stroke:red;stroke-width:1px;stroke-linecap:butt;stroke-linejoin:miter;stroke-opacity:1" d="M 186.164,53.501 203.984,43.6008 z" id="boundary" inkscape:connector-curvature="0" />
	<path style="fill:none;stroke:red;stroke-width:1px;stroke-linecap:butt;stroke-linejoin:miter;stroke-opacity:1" d="M 198.044,956.399 215.864,966.299 z" id="boundary" inkscape:connector-curvature="0" />
	<path style="fill:none;stroke:red;stroke-width:1px;stroke-linecap:butt;stroke-linejoin:miter;stroke-opacity:1" d="M 203.984,43.6008 221.804,33.7006 z" id="boundary" inkscape:connector-curvature="0" />
	<path style="fill:none;stroke:red;stroke-width:1px;stroke-linecap:butt;stroke-linejoin:miter;stroke-opacity:1" d="M 215.864,966.299 233.685,976.2 z" id="boundary" inkscape:connector-curvature="0" />
	<path style="fill:none;stroke:red;stroke-width:1px;stroke-linecap:butt;stroke-linejoin:miter;stroke-opacity:1" d="M 221.804,33.7006 239.625,23.8004 z" id="boundary" inkscape:connector-curvature="0" />
	<path style="fill:none;stroke:red;stroke-width:1px;stroke-linecap:butt;stroke-linejoin:miter;stroke-opacity:1" d="M 233.685,976.2 253.485,980.16 z" id="boundary" inkscape:connector-curvature="0" />
	<path style="fill:none;stroke:red;stroke-width:1px;stroke-linecap:butt;stroke-linejoin:miter;stroke-opacity:1" d="M 239.625,23.8004 259.425,23.8004 z" id="boundary" inkscape:connector-curvature="0" />
	<path style="fill:none;stroke:red;stroke-width:1px;stroke-linecap:butt;stroke-linejoin:miter;stroke-opacity:1" d="M 253.485,980.16 271.305,990.06 z" id="boundary" inkscape:connector-curvature="0" />
	<path style="fill:none;stroke:red;stroke-width:1px;stroke-linecap:butt;stroke-linejoin:miter;stroke-opacity:1" d="M 259.425,23.8004 277.246,13.9002 z" id="boundary" inkscape:connector-curvature="0" />
	<path style="fill:none;stroke:red;stroke-width:1px;stroke-linecap:butt;stroke-linejoin:miter;stroke-opacity:1" d="M 271.305,990.06 291.106,996 z" id="boundary" inkscape:connector-curvature="0" />
	<path style="fill:none;stroke:red;stroke-width:1px;stroke-linecap:butt;stroke-linejoin:miter;stroke-opacity:1" d="M 277.246,13.9002 297.046,13.9002 z" id="boundary" inkscape:connector-curvature="0" />
	<path style="fill:none;stroke:red;stroke-width:1px;stroke-linecap:butt;stroke-linejoin:miter;stroke-opacity:1" d="M 291.106,996 310.906,996 z" id="boundary" inkscape:connector-curvature="0" />
	<path style="fill:none;stroke:red;stroke-width:1px;stroke-linecap:butt;stroke-linejoin:miter;stroke-opacity:1" d="M 297.046,13.9002 316.846,4 z" id="boundary" inkscape:connector-curvature="0" />
	<path style="fill:none;stroke:red;stroke-width:1px;stroke-linecap:butt;stroke-linejoin:miter;stroke-opacity:1" d="M 310.906,996 330.707,996 z" id="boundary" inkscape:connector-curvature="0" />
	<path style="fill:none;stroke:red;stroke-width:1px;stroke-linecap:butt;stroke-linejoin:miter;stroke-opacity:1" d="M 316.846,4 336.647,4 z" id="boundary" inkscape:connector-curvature="0" />
	<path style="fill:none;stroke:red;stroke-width:1px;stroke-linecap:butt;stroke-linejoin:miter;stroke-opacity:1" d="M 330.707,996 350.507,996 z" id="boundary" inkscape:connector-curvature="0" />
	<path style="fill:none;stroke:red;stroke-width:1px;stroke-linecap:butt;stroke-linejoin:miter;stroke-opacity:1" d="M 336.647,4 356.447,4 z" id="boundary" inkscape:connector-curvature="0" />
	<path style="fill:none;stroke:red;stroke-width:1px;stroke-linecap:butt;stroke-linejoin:miter;stroke-opacity:1" d="M 350.507,996 370.307,996 z" id="boundary" inkscape:connector-curvature="0" />
	<path style="fill:none;stroke:red;stroke-width:1px;stroke-linecap:butt;stroke-linejoin:miter;stroke-opacity:1" d="M 356.447,4 374.267,13.9002 z" id="boundary" inkscape:connector-curvature="0" />
	<path style="fill:none;stroke:red;stroke-width:1px;stroke-linecap:butt;stroke-linejoin:miter;stroke-opacity:1" d="M 370.307,996 390.108,996 z" id="boundary" inkscape:connector-curvature="0" />
	<path style="fill:none;stroke:red;stroke-width:1px;stroke-linecap:butt;stroke-linejoin:miter;stroke-opacity:1" d="M 374.267,13.9002 394.068,13.9002 z" id="boundary" inkscape:connector-curvature="0" />
	<path style="fill:none;stroke:red;stroke-width:1px;stroke-linecap:butt;stroke-linejoin:miter;stroke-opacity:1" d="M 390.108,996 407.928,986.1 z" id="boundary" inkscape:connector-curvature="0" />
	<path style="fill:none;stroke:red;stroke-width:1px;stroke-linecap:butt;stroke-linejoin:miter;stroke-opacity:1" d="M 394.068,13.9002 411.888,23.8004 z" id="boundary" inkscape:connector-curvature="0" />
	<path style="fill:none;stroke:red;stroke-width:1px;stroke-linecap:butt;stroke-linejoin:miter;stroke-opacity:1" d="M 407.928,986.1 427.729,982.14 z" id="boundary" inkscape:connector-curvature="0" />
	<path style="fill:none;stroke:red;stroke-width:1px;stroke-linecap:butt;stroke-linejoin:miter;stroke-opacity:1" d="M 411.888,23.8004 431.689,23.8004 z" id="boundary" inkscape:connector-curvature="0" />
	<path style="fill:none;stroke:red;stroke-width:1px;stroke-linecap:butt;stroke-linejoin:miter;stroke-opacity:1" d="M 427.729,982.14 441.589,966.299 z" id="boundary" inkscape:connector-curvature="0" />
	<path style="fill:none;stroke:red;stroke-width:1px;stroke-linecap:butt;stroke-linejoin:miter;stroke-opacity:1" d="M 431.689,23.8004 449.509,33.7006 z" id="boundary" inkscape:connector-curvature="0" />
	<path style="fill:none;stroke:red;stroke-width:1px;stroke-linecap:butt;stroke-linejoin:miter;stroke-opacity:1" d="M 441.589,966.299 461.389,966.299 z" id="boundary" inkscape:connector-curvature="0" />
	<path style="fill:none;stroke:red;stroke-width:1px;stroke-linecap:butt;stroke-linejoin:miter;stroke-opacity:1" d="M 449.509,33.7006 469.309,37.6607 z" id="boundary" inkscape:connector-curvature="0" />
	<path style="fill:none;stroke:red;stroke-width:1px;stroke-linecap:butt;stroke-linejoin:miter;stroke-opacity:1" d="M 461.389,966.299 477.23,952.439 z" id="boundary" inkscape:connector-curvature="0" />
	<path style="fill:none;stroke:red;stroke-width:1px;stroke-linecap:butt;stroke-linejoin:miter;stroke-opacity:1" d="M 469.309,37.6607 481.19,53.501 z" id="boundary" inkscape:connector-curvature="0" />
	<path style="fill:none;stroke:red;stroke-width:1px;stroke-linecap:butt;stroke-linejoin:miter;stroke-opacity:1" d="M 477.23,952.439 487.13,932.639 z" id="boundary" inkscape:connector-curvature="0" />
	<path style="fill:none;stroke:red;stroke-width:1px;stroke-linecap:butt;stroke-linejoin:miter;stroke-opacity:1" d="M 481.19,53.501 500.99,59.4411 z" id="boundary" inkscape:connector-curvature="0" />
	<path style="fill:none;stroke:red;stroke-width:1px;stroke-linecap:butt;stroke-linejoin:miter;stroke-opacity:1" d="M 487.13,932.639 497.03,912.838 z" id="boundary" inkscape:connector-curvature="0" />
	<path style="fill:none;stroke:red;stroke-width:1px;stroke-linecap:butt;stroke-linejoin:miter;stroke-opacity:1" d="M 497.03,912.838 506.93,893.038 z" id="boundary" inkscape:connector-curvature="0" />
	<path style="fill:none;stroke:red;stroke-width:1px;stroke-linecap:butt;stroke-linejoin:miter;stroke-opacity:1" d="M 500.99,59.4411 518.81,69.3413 z" id="boundary" inkscape:connector-curvature="0" />
	<path style="fill:none;stroke:red;stroke-width:1px;stroke-linecap:butt;stroke-linejoin:miter;stroke-opacity:1" d="M 506.93,893.038 516.83,873.238 z" id="boundary" inkscape:connector-curvature="0" />
	<path style="fill:none;stroke:red;stroke-width:1px;stroke-linecap:butt;stroke-linejoin:miter;stroke-opacity:1" d="M 516.83,873.238 526.731,853.437 z" id="boundary" inkscape:connector-curvature="0" />
	<path style="fill:none;stroke:red;stroke-width:1px;stroke-linecap:butt;stroke-linejoin:miter;stroke-opacity:1" d="M 518.81,69.3413 534.651,83.2016 z" id="boundary" inkscape:connector-curvature="0" />
	<path style="fill:none;stroke:red;stroke-width:1px;stroke-linecap:butt;stroke-linejoin:miter;stroke-opacity:1" d="M 526.731,853.437 536.631,833.637 z" id="boundary" inkscape:connector-curvature="0" />
	<path style="fill:none;stroke:red;stroke-width:1px;stroke-linecap:butt;stroke-linejoin:miter;stroke-opacity:1" d="M 534.651,83.2016 548.511,99.0419 z" id="boundary" inkscape:connector-curvature="0" />
	<path style="fill:none;stroke:red;stroke-width:1px;stroke-linecap:butt;stroke-linejoin:miter;stroke-opacity:1" d="M 536.631,833.637 546.531,813.836 z" id="boundary" inkscape:connector-curvature="0" />
	<path style="fill:none;stroke:red;stroke-width:1px;stroke-linecap:butt;stroke-linejoin:miter;stroke-opacity:1" d="M 540.591,342.587 544.551,362.387 z" id="boundary" inkscape:connector-curvature="0" />
	<path style="fill:none;stroke:red;stroke-width:1px;stroke-linecap:butt;stroke-linejoin:miter;stroke-opacity:1" d="M 540.591,342.587 558.411,332.687 z" id="boundary" inkscape:connector-curvature="0" />
	<path style="fill:none;stroke:red;stroke-width:1px;stroke-linecap:butt;stroke-linejoin:miter;stroke-opacity:1" d="M 544.551,362.387 550.491,382.188 z" id="boundary" inkscape:connector-curvature="0" />
	<path style="fill:none;stroke:red;stroke-width:1px;stroke-linecap:butt;stroke-linejoin:miter;stroke-opacity:1" d="M 546.531,813.836 550.491,788.096 z" id="boundary" inkscape:connector-curvature="0" />
	<path style="fill:none;stroke:red;stroke-width:1px;stroke-linecap:butt;stroke-linejoin:miter;stroke-opacity:1" d="M 548.511,99.0419 564.351,112.902 z" id="boundary" inkscape:connector-curvature="0" />
	<path style="fill:none;stroke:red;stroke-width:1px;stroke-linecap:butt;stroke-linejoin:miter;stroke-opacity:1" d="M 550.491,382.188 560.391,400.008 z" id="boundary" inkscape:connector-curvature="0" />
	<path style="fill:none;stroke:red;stroke-width:1px;stroke-linecap:butt;stroke-linejoin:miter;stroke-opacity:1" d="M 550.491,788.096 560.391,768.295 z" id="boundary" inkscape:connector-curvature="0" />
	<path style="fill:none;stroke:red;stroke-width:1px;stroke-linecap:butt;stroke-linejoin:miter;stroke-opacity:1" d="M 558.411,332.687 578.212,332.687 z" id="boundary" inkscape:connector-curvature="0" />
	<path style="fill:none;stroke:red;stroke-width:1px;stroke-linecap:butt;stroke-linejoin:miter;stroke-opacity:1" d="M 560.391,400.008 570.291,417.828 z" id="boundary" inkscape:connector-curvature="0" />
	<path style="fill:none;stroke:red;stroke-width:1px;stroke-linecap:butt;stroke-linejoin:miter;stroke-opacity:1" d="M 560.391,768.295 570.291,738.595 z" id="boundary" inkscape:connector-curvature="0" />
	<path style="fill:none;stroke:red;stroke-width:1px;stroke-linecap:butt;stroke-linejoin:miter;stroke-opacity:1" d="M 564.351,112.902 578.212,128.743 z" id="boundary" inkscape:connector-curvature="0" />
	<path style="fill:none;stroke:red;stroke-width:1px;stroke-linecap:butt;stroke-linejoin:miter;stroke-opacity:1" d="M 570.291,417.828 580.192,435.649 z" id="boundary" inkscape:connector-curvature="0" />
	<path style="fill:none;stroke:red;stroke-width:1px;stroke-linecap:butt;stroke-linejoin:miter;stroke-opacity:1" d="M 570.291,738.595 580.192,708.894 z" id="boundary" inkscape:connector-curvature="0" />
	<path style="fill:none;stroke:red;stroke-width:1px;stroke-linecap:butt;stroke-linejoin:miter;stroke-opacity:1" d="M 578.212,128.743 588.112,146.563 z" id="boundary" inkscape:connector-curvature="0" />
	<path style="fill:none;stroke:red;stroke-width:1px;stroke-linecap:butt;stroke-linejoin:miter;stroke-opacity:1" d="M 578.212,332.687 596.032,342.587 z" id="boundary" inkscape:connector-curvature="0" />
	<path style="fill:none;stroke:red;stroke-width:1px;stroke-linecap:butt;stroke-linejoin:miter;stroke-opacity:1" d="M 580.192,435.649 588.112,455.449 z" id="boundary" inkscape:connector-curvature="0" />
	<path style="fill:none;stroke:red;stroke-width:1px;stroke-linecap:butt;stroke-linejoin:miter;stroke-opacity:1" d="M 580.192,708.894 590.092,679.194 z" id="boundary" inkscape:connector-curvature="0" />
	<path style="fill:none;stroke:red;stroke-width:1px;stroke-linecap:butt;stroke-linejoin:miter;stroke-opacity:1" d="M 588.112,146.563 590.092,166.363 z" id="boundary" inkscape:connector-curvature="0" />
	<path style="fill:none;stroke:red;stroke-width:1px;stroke-linecap:butt;stroke-linejoin:miter;stroke-opacity:1" d="M 588.112,455.449 590.092,475.25 z" id="boundary" inkscape:connector-curvature="0" />
	<path style="fill:none;stroke:red;stroke-width:1px;stroke-linecap:butt;stroke-linejoin:miter;stroke-opacity:1" d="M 590.092,166.363 596.032,186.164 z" id="boundary" inkscape:connector-curvature="0" />
	<path style="fill:none;stroke:red;stroke-width:1px;stroke-linecap:butt;stroke-linejoin:miter;stroke-opacity:1" d="M 590.092,475.25 599.992,493.07 z" id="boundary" inkscape:connector-curvature="0" />
	<path style="fill:none;stroke:red;stroke-width:1px;stroke-linecap:butt;stroke-linejoin:miter;stroke-opacity:1" d="M 590.092,679.194 599.992,659.393 z" id="boundary" inkscape:connector-curvature="0" />
	<path style="fill:none;stroke:red;stroke-width:1px;stroke-linecap:butt;stroke-linejoin:miter;stroke-opacity:1" d="M 596.032,186.164 599.992,205.964 z" id="boundary" inkscape:connector-curvature="0" />
	<path style="fill:none;stroke:red;stroke-width:1px;stroke-linecap:butt;stroke-linejoin:miter;stroke-opacity:1" d="M 596.032,342.587 615.832,342.587 z" id="boundary" inkscape:connector-curvature="0" />
	<path style="fill:none;stroke:red;stroke-width:1px;stroke-linecap:butt;stroke-linejoin:miter;stroke-opacity:1" d="M 599.992,205.964 599.992,225.764 z" id="boundary" inkscape:connector-curvature="0" />
	<path style="fill:none;stroke:red;stroke-width:1px;stroke-linecap:butt;stroke-linejoin:miter;stroke-opacity:1" d="M 599.992,225.764 605.932,245.565 z" id="boundary" inkscape:connector-curvature="0" />
	<path style="fill:none;stroke:red;stroke-width:1px;stroke-linecap:butt;stroke-linejoin:miter;stroke-opacity:1" d="M 599.992,493.07 599.992,512.87 z" id="boundary" inkscape:connector-curvature="0" />
	<path style="fill:none;stroke:red;stroke-width:1px;stroke-linecap:butt;stroke-linejoin:miter;stroke-opacity:1" d="M 599.992,512.87 599.992,532.671 z" id="boundary" inkscape:connector-curvature="0" />
	<path style="fill:none;stroke:red;stroke-width:1px;stroke-linecap:butt;stroke-linejoin:miter;stroke-opacity:1" d="M 599.992,532.671 609.892,550.491 z" id="boundary" inkscape:connector-curvature="0" />
	<path style="fill:none;stroke:red;stroke-width:1px;stroke-linecap:butt;stroke-linejoin:miter;stroke-opacity:1" d="M 599.992,619.792 599.992,639.593 z" id="boundary" inkscape:connector-curvature="0" />
	<path style="fill:none;stroke:red;stroke-width:1px;stroke-linecap:butt;stroke-linejoin:miter;stroke-opacity:1" d="M 599.992,619.792 609.892,590.092 z" id="boundary" inkscape:connector-curvature="0" />
	<path style="fill:none;stroke:red;stroke-width:1px;stroke-linecap:butt;stroke-linejoin:miter;stroke-opacity:1" d="M 599.992,639.593 599.992,659.393 z" id="boundary" inkscape:connector-curvature="0" />
	<path style="fill:none;stroke:red;stroke-width:1px;stroke-linecap:butt;stroke-linejoin:miter;stroke-opacity:1" d="M 605.932,245.565 619.792,261.405 z" id="boundary" inkscape:connector-curvature="0" />
	<path style="fill:none;stroke:red;stroke-width:1px;stroke-linecap:butt;stroke-linejoin:miter;stroke-opacity:1" d="M 609.892,550.491 609.892,570.291 z" id="boundary" inkscape:connector-curvature="0" />
	<path style="fill:none;stroke:red;stroke-width:1px;stroke-linecap:butt;stroke-linejoin:miter;stroke-opacity:1" d="M 609.892,570.291 609.892,590.092 z" id="boundary" inkscape:connector-curvature="0" />
	<path style="fill:none;stroke:red;stroke-width:1px;stroke-linecap:butt;stroke-linejoin:miter;stroke-opacity:1" d="M 615.832,342.587 633.653,352.487 z" id="boundary" inkscape:connector-curvature="0" />
	<path style="fill:none;stroke:red;stroke-width:1px;stroke-linecap:butt;stroke-linejoin:miter;stroke-opacity:1" d="M 619.792,261.405 629.693,279.226 z" id="boundary" inkscape:connector-curvature="0" />
	<path style="fill:none;stroke:red;stroke-width:1px;stroke-linecap:butt;stroke-linejoin:miter;stroke-opacity:1" d="M 629.693,279.226 645.533,293.086 z" id="boundary" inkscape:connector-curvature="0" />
	<path style="fill:none;stroke:red;stroke-width:1px;stroke-linecap:butt;stroke-linejoin:miter;stroke-opacity:1" d="M 633.653,352.487 649.493,366.347 z" id="boundary" inkscape:connector-curvature="0" />
	<path style="fill:none;stroke:red;stroke-width:1px;stroke-linecap:butt;stroke-linejoin:miter;stroke-opacity:1" d="M 645.533,293.086 659.393,308.926 z" id="boundary" inkscape:connector-curvature="0" />
	<path style="fill:none;stroke:red;stroke-width:1px;stroke-linecap:butt;stroke-linejoin:miter;stroke-opacity:1" d="M 649.493,366.347 669.293,372.287 z" id="boundary" inkscape:connector-curvature="0" />
	<path style="fill:none;stroke:red;stroke-width:1px;stroke-linecap:butt;stroke-linejoin:miter;stroke-opacity:1" d="M 659.393,308.926 669.293,326.747 z" id="boundary" inkscape:connector-curvature="0" />
	<path style="fill:none;stroke:red;stroke-width:1px;stroke-linecap:butt;stroke-linejoin:miter;stroke-opacity:1" d="M 669.293,326.747 679.194,344.567 z" id="boundary" inkscape:connector-curvature="0" />
	<path style="fill:none;stroke:red;stroke-width:1px;stroke-linecap:butt;stroke-linejoin:miter;stroke-opacity:1" d="M 669.293,372.287 689.094,366.347 z" id="boundary" inkscape:connector-curvature="0" />
	<path style="fill:none;stroke:red;stroke-width:1px;stroke-linecap:butt;stroke-linejoin:miter;stroke-opacity:1" d="M 679.194,344.567 689.094,366.347 z" id="boundary" inkscape:connector-curvature="0" />
	<circle cx="4" cy="851.457" r="4" fill="#0" id="circle0"/>
	<circle cx="4" cy="871.257" r="4" fill="#0" id="circle1"/>
	<circle cx="13.9002" cy="889.078" r="4" fill="#0" id="circle2"/>
	<circle cx="19.8403" cy="835.617" r="4" fill="#0" id="circle3"/>
	<circle cx="23.8004" cy="811.856" r="4" fill="#0" id="circle4"/>
	<circle cx="23.8004" cy="906.898" r="4" fill="#0" id="circle5"/>
	<circle cx="33.7006" cy="227.745" r="4" fill="#0" id="circle6"/>
	<circle cx="33.7006" cy="405.948" r="4" fill="#0" id="circle7"/>
	<circle cx="33.7006" cy="425.749" r="4" fill="#0" id="circle8"/>
	<circle cx="33.7006" cy="792.056" r="4" fill="#0" id="circle9"/>
	<circle cx="43.6008" cy="443.569" r="4" fill="#0" id="circle10"/>
	<circle cx="43.6008" cy="772.255" r="4" fill="#0" id="circle11"/>
	<circle cx="43.6008" cy="906.898" r="4" fill="#0" id="circle12"/>
	<circle cx="49.5409" cy="211.904" r="4" fill="#0" id="circle13"/>
	<circle cx="49.5409" cy="241.605" r="4" fill="#0" id="circle14"/>
	<circle cx="49.5409" cy="390.108" r="4" fill="#0" id="circle15"/>
	<circle cx="53.501" cy="461.389" r="4" fill="#0" id="circle16"/>
	<circle cx="53.501" cy="752.455" r="4" fill="#0" id="circle17"/>
	<circle cx="59.4411" cy="192.104" r="4" fill="#0" id="circle18"/>
	<circle cx="63.4012" cy="524.75" r="4" fill="#0" id="circle19"/>
	<circle cx="63.4012" cy="544.551" r="4" fill="#0" id="circle20"/>
	<circle cx="63.4012" cy="564.351" r="4" fill="#0" id="circle21"/>
	<circle cx="63.4012" cy="594.052" r="4" fill="#0" id="circle22"/>
	<circle cx="63.4012" cy="613.852" r="4" fill="#0" id="circle23"/>
	<circle cx="63.4012" cy="633.653" r="4" fill="#0" id="circle24"/>
	<circle cx="63.4012" cy="732.655" r="4" fill="#0" id="circle25"/>
	<circle cx="63.4012" cy="900.958" r="4" fill="#0" id="circle26"/>
	<circle cx="69.3413" cy="243.585" r="4" fill="#0" id="circle27"/>
	<circle cx="69.3413" cy="380.208" r="4" fill="#0" id="circle28"/>
	<circle cx="73.3014" cy="465.349" r="4" fill="#0" id="circle29"/>
	<circle cx="73.3014" cy="495.05" r="4" fill="#0" id="circle30"/>
	<circle cx="73.3014" cy="651.473" r="4" fill="#0" id="circle31"/>
	<circle cx="73.3014" cy="702.954" r="4" fill="#0" id="circle32"/>
	<circle cx="77.2615" cy="182.204" r="4" fill="#0" id="circle33"/>
	<circle cx="83.2016" cy="158.443" r="4" fill="#0" id="circle34"/>
	<circle cx="83.2016" cy="259.425" r="4" fill="#0" id="circle35"/>
	<circle cx="83.2016" cy="669.293" r="4" fill="#0" id="circle36"/>
	<circle cx="83.2016" cy="891.058" r="4" fill="#0" id="circle37"/>
	<circle cx="89.1417" cy="370.307" r="4" fill="#0" id="circle38"/>
	<circle cx="93.1018" cy="138.643" r="4" fill="#0" id="circle39"/>
	<circle cx="93.1018" cy="277.246" r="4" fill="#0" id="circle40"/>
	<circle cx="93.1018" cy="297.046" r="4" fill="#0" id="circle41"/>
	<circle cx="93.1018" cy="461.389" r="4" fill="#0" id="circle42"/>
	<circle cx="103.002" cy="887.098" r="4" fill="#0" id="circle43"/>
	<circle cx="104.982" cy="354.467" r="4" fill="#0" id="circle44"/>
	<circle cx="108.942" cy="122.802" r="4" fill="#0" id="circle45"/>
	<circle cx="108.942" cy="310.906" r="4" fill="#0" id="circle46"/>
	<circle cx="112.902" cy="330.707" r="4" fill="#0" id="circle47"/>
	<circle cx="118.842" cy="103.002" r="4" fill="#0" id="circle48"/>
	<circle cx="118.842" cy="875.218" r="4" fill="#0" id="circle49"/>
	<circle cx="134.683" cy="87.1617" r="4" fill="#0" id="circle50"/>
	<circle cx="138.643" cy="865.317" r="4" fill="#0" id="circle51"/>
	<circle cx="150.523" cy="73.3014" r="4" fill="#0" id="circle52"/>
	<circle cx="158.443" cy="865.317" r="4" fill="#0" id="circle53"/>
	<circle cx="162.403" cy="885.118" r="4" fill="#0" id="circle54"/>
	<circle cx="168.343" cy="63.4012" r="4" fill="#0" id="circle55"/>
	<circle cx="172.303" cy="902.938" r="4" fill="#0" id="circle56"/>
	<circle cx="174.283" cy="922.739" r="4" fill="#0" id="circle57"/>
	<circle cx="184.184" cy="940.559" r="4" fill="#0" id="circle58"/>
	<circle cx="186.164" cy="53.501" r="4" fill="#0" id="circle59"/>
	<circle cx="198.044" cy="956.399" r="4" fill="#0" id="circle60"/>
	<circle cx="203.984" cy="43.6008" r="4" fill="#0" id="circle61"/>
	<circle cx="215.864" cy="966.299" r="4" fill="#0" id="circle62"/>
	<circle cx="221.804" cy="33.7006" r="4" fill="#0" id="circle63"/>
	<circle cx="233.685" cy="976.2" r="4" fill="#0" id="circle64"/>
	<circle cx="239.625" cy="23.8004" r="4" fill="#0" id="circle65"/>
	<circle cx="253.485" cy="980.16" r="4" fill="#0" id="circle66"/>
	<circle cx="259.425" cy="23.8004" r="4" fill="#0" id="circle67"/>
	<circle cx="271.305" cy="990.06" r="4" fill="#0" id="circle68"/>
	<circle cx="277.246" cy="13.9002" r="4" fill="#0" id="circle69"/>
	<circle cx="291.106" cy="996" r="4" fill="#0" id="circle70"/>
	<circle cx="297.046" cy="13.9002" r="4" fill="#0" id="circle71"/>
	<circle cx="310.906" cy="996" r="4" fill="#0" id="circle72"/>
	<circle cx="316.846" cy="4" r="4" fill="#0" id="circle73"/>
	<circle cx="330.707" cy="996" r="4" fill="#0" id="circle74"/>
	<circle cx="336.647" cy="4" r="4" fill="#0" id="circle75"/>
	<circle cx="350.507" cy="996" r="4" fill="#0" id="circle76"/>
	<circle cx="356.447" cy="4" r="4" fill="#0" id="circle77"/>
	<circle cx="370.307" cy="996" r="4" fill="#0" id="circle78"/>
	<circle cx="374.267" cy="13.9002" r="4" fill="#0" id="circle79"/>
	<circle cx="390.108" cy="996" r="4" fill="#0" id="circle80"/>
	<circle cx="394.068" cy="13.9002" r="4" fill="#0" id="circle81"/>
	<circle cx="407.928" cy="986.1" r="4" fill="#0" id="circle82"/>
	<circle cx="411.888" cy="23.8004" r="4" fill="#0" id="circle83"/>
	<circle cx="427.729" cy="982.14" r="4" fill="#0" id="circle84"/>
	<circle cx="431.689" cy="23.8004" r="4" fill="#0" id="circle85"/>
	<circle cx="441.589" cy="966.299" r="4" fill="#0" id="circle86"/>
	<circle cx="449.509" cy="33.7006" r="4" fill="#0" id="circle87"/>
	<circle cx="461.389" cy="966.299" r="4" fill="#0" id="circle88"/>
	<circle cx="469.309" cy="37.6607" r="4" fill="#0" id="circle89"/>
	<circle cx="477.23" cy="952.439" r="4" fill="#0" id="circle90"/>
	<circle cx="481.19" cy="53.501" r="4" fill="#0" id="circle91"/>
	<circle cx="487.13" cy="932.639" r="4" fill="#0" id="circle92"/>
	<circle cx="497.03" cy="912.838" r="4" fill="#0" id="circle93"/>
	<circle cx="500.99" cy="59.4411" r="4" fill="#0" id="circle94"/>
	<circle cx="506.93" cy="893.038" r="4" fill="#0" id="circle95"/>
	<circle cx="516.83" cy="873.238" r="4" fill="#0" id="circle96"/>
	<circle cx="518.81" cy="69.3413" r="4" fill="#0" id="circle97"/>
	<circle cx="526.731" cy="853.437" r="4" fill="#0" id="circle98"/>
	<circle cx="534.651" cy="83.2016" r="4" fill="#0" id="circle99"/>
	<circle cx="536.631" cy="833.637" r="4" fill="#0" id="circle100"/>
	<circle cx="540.591" cy="342.587" r="4" fill="#0" id="circle101"/>
	<circle cx="544.551" cy="362.387" r="4" fill="#0" id="circle102"/>
	<circle cx="546.531" cy="813.836" r="4" fill="#0" id="circle103"/>
	<circle cx="548.511" cy="99.0419" r="4" fill="#0" id="circle104"/>
	<circle cx="550.491" cy="382.188" r="4" fill="#0" id="circle105"/>
	<circle cx="550.491" cy="788.096" r="4" fill="#0" id="circle106"/>
	<circle cx="558.411" cy="332.687" r="4" fill="#0" id="circle107"/>
	<circle cx="560.391" cy="400.008" r="4" fill="#0" id="circle108"/>
	<circle cx="560.391" cy="768.295" r="4" fill="#0" id="circle109"/>
	<circle cx="564.351" cy="112.902" r="4" fill="#0" id="circle110"/>
	<circle cx="570.291" cy="417.828" r="4" fill="#0" id="circle111"/>
	<circle cx="570.291" cy="738.595" r="4" fill="#0" id="circle112"/>
	<circle cx="578.212" cy="128.743" r="4" fill="#0" id="circle113"/>
	<circle cx="578.212" cy="332.687" r="4" fill="#0" id="circle114"/>
	<circle cx="580.192" cy="435.649" r="4" fill="#0" id="circle115"/>
	<circle cx="580.192" cy="708.894" r="4" fill="#0" id="circle116"/>
	<circle cx="588.112" cy="146.563" r="4" fill="#0" id="circle117"/>
	<circle cx="588.112" cy="455.449" r="4" fill="#0" id="circle118"/>
	<circle cx="590.092" cy="166.363" r="4" fill="#0" id="circle119"/>
	<circle cx="590.092" cy="475.25" r="4" fill="#0" id="circle120"/>
	<circle cx="590.092" cy="679.194" r="4" fill="#0" id="circle121"/>
	<circle cx="596.032" cy="186.164" r="4" fill="#0" id="circle122"/>
	<circle cx="596.032" cy="342.587" r="4" fill="#0" id="circle123"/>
	<circle cx="599.992" cy="205.964" r="4" fill="#0" id="circle124"/>
	<circle cx="599.992" cy="225.764" r="4" fill="#0" id="circle125"/>
	<circle cx="599.992" cy="493.07" r="4" fill="#0" id="circle126"/>
	<circle cx="599.992" cy="512.87" r="4" fill="#0" id="circle127"/>
	<circle cx="599.992" cy="532.671" r="4" fill="#0" id="circle128"/>
	<circle cx="599.992" cy="619.792" r="4" fill="#0" id="circle129"/>
	<circle cx="599.992" cy="639.593" r="4" fill="#0" id="circle130"/>
	<circle cx="599.992" cy="659.393" r="4" fill="#0" id="circle131"/>
	<circle cx="605.932" cy="245.565" r="4" fill="#0" id="circle132"/>
	<circle cx="609.892" cy="550.491" r="4" fill="#0" id="circle133"/>
	<circle cx="609.892" cy="570.291" r="4" fill="#0" id="circle134"/>
	<circle cx="609.892" cy="590.092" r="4" fill="#0" id="circle135"/>
	<circle cx="615.832" cy="342.587" r="4" fill="#0" id="circle136"/>
	<circle cx="619.792" cy="261.405" r="4" fill="#0" id="circle137"/>
	<circle cx="629.693" cy="279.226" r="4" fill="#0" id="circle138"/>
	<circle cx="633.653" cy="352.487" r="4" fill="#0" id="circle139"/>
	<circle cx="645.533" cy="293.086" r="4" fill="#0" id="circle140"/>
	<circle cx="649.493" cy="366.347" r="4" fill="#0" id="circle141"/>
	<circle cx="659.393" cy="308.926" r="4" fill="#0" id="circle142"/>
	<circle cx="669.293" cy="326.747" r="4" fill="#0" id="circle143"/>
	<circle cx="669.293" cy="372.287" r="4" fill="#0" id="circle144"/>
	<circle cx="679.194" cy="344.567" r="4" fill="#0" id="circle145"/>
	<circle cx="689.094" cy="366.347" r="4" fill="#0" id="circle146"/>
	</g>
</svg>