<?xml version="1.0" encoding="UTF-8" standalone="no"?>
<!-- Created with CurveBenchmark -->
<svg
	xmlns:dc="http://purl.org/dc/elements/1.1/"
	xmlns:cc="http://creativecommons.org/ns#"
	xmlns:rdf="http://www.w3.org/1999/02/22-rdf-syntax-ns#"
	xmlns:svg="http://www.w3.org/2000/svg"
	xmlns="http://www.w3.org/2000/svg"
	xmlns:sodipodi="http://sodipodi.sourceforge.net/DTD/sodipodi-0.dtd"
	xmlns:inkscape="http://www.inkscape.org/namespaces/inkscape"
	width="1000"
	height="1000"
	id="svg2"
	version="1.1"
	sodipodi:docname="manifold/vicur-carriage-02.png.txt">
<defs
	id="defs4" />
<metadata
	id="metadata7">
	<rdf:RDF>
		<cc:Work
			rdf:about="">
			<dc:format>image/svg+xml</dc:format>
			<dc:type
				rdf:resource="http://purl.org/dc/dcmitype/StillImage" />
			<dc:title></dc:title>
		</cc:Work>
	</rdf:RDF>
</metadata>
<g
	inkscape:label="Layer 1"
	inkscape:groupmode="layer"
	id="layer1">
	<path style="fill:none;stroke:red;stroke-width:1px;stroke-linecap:butt;stroke-linejoin:miter;stroke-opacity:1" d="M 4,103.104 4,112.726 z" id="boundary" inkscape:connector-curvature="0" />
	<path style="fill:none;stroke:red;stroke-width:1px;stroke-linecap:butt;stroke-linejoin:miter;stroke-opacity:1" d="M 4,103.104 8.81086,93.4821 z" id="boundary" inkscape:connector-curvature="0" />
	<path style="fill:none;stroke:red;stroke-width:1px;stroke-linecap:butt;stroke-linejoin:miter;stroke-opacity:1" d="M 4,112.726 4,122.347 z" id="boundary" inkscape:connector-curvature="0" />
	<path style="fill:none;stroke:red;stroke-width:1px;stroke-linecap:butt;stroke-linejoin:miter;stroke-opacity:1" d="M 4,122.347 8.81086,131.007 z" id="boundary" inkscape:connector-curvature="0" />
	<path style="fill:none;stroke:red;stroke-width:1px;stroke-linecap:butt;stroke-linejoin:miter;stroke-opacity:1" d="M 8.81086,93.4821 16.5082,85.7847 z" id="boundary" inkscape:connector-curvature="0" />
	<path style="fill:none;stroke:red;stroke-width:1px;stroke-linecap:butt;stroke-linejoin:miter;stroke-opacity:1" d="M 8.81086,131.007 8.81086,140.629 z" id="boundary" inkscape:connector-curvature="0" />
	<path style="fill:none;stroke:red;stroke-width:1px;stroke-linecap:butt;stroke-linejoin:miter;stroke-opacity:1" d="M 8.81086,140.629 13.6217,149.288 z" id="boundary" inkscape:connector-curvature="0" />
	<path style="fill:none;stroke:red;stroke-width:1px;stroke-linecap:butt;stroke-linejoin:miter;stroke-opacity:1" d="M 13.6217,149.288 19.3948,156.985 z" id="boundary" inkscape:connector-curvature="0" />
	<path style="fill:none;stroke:red;stroke-width:1px;stroke-linecap:butt;stroke-linejoin:miter;stroke-opacity:1" d="M 16.5082,85.7847 24.2056,78.0873 z" id="boundary" inkscape:connector-curvature="0" />
	<path style="fill:none;stroke:red;stroke-width:1px;stroke-linecap:butt;stroke-linejoin:miter;stroke-opacity:1" d="M 19.3948,156.985 29.0165,154.099 z" id="boundary" inkscape:connector-curvature="0" />
	<path style="fill:none;stroke:red;stroke-width:1px;stroke-linecap:butt;stroke-linejoin:miter;stroke-opacity:1" d="M 24.2056,78.0873 29.0165,68.4656 z" id="boundary" inkscape:connector-curvature="0" />
	<path style="fill:none;stroke:red;stroke-width:1px;stroke-linecap:butt;stroke-linejoin:miter;stroke-opacity:1" d="M 29.0165,68.4656 36.7139,61.7304 z" id="boundary" inkscape:connector-curvature="0" />
	<path style="fill:none;stroke:red;stroke-width:1px;stroke-linecap:butt;stroke-linejoin:miter;stroke-opacity:1" d="M 36.7139,61.7304 43.4491,54.033 z" id="boundary" inkscape:connector-curvature="0" />
	<path style="fill:none;stroke:red;stroke-width:1px;stroke-linecap:butt;stroke-linejoin:miter;stroke-opacity:1" d="M 43.4491,54.033 53.0708,49.2221 z" id="boundary" inkscape:connector-curvature="0" />
	<path style="fill:none;stroke:red;stroke-width:1px;stroke-linecap:butt;stroke-linejoin:miter;stroke-opacity:1" d="M 43.4491,120.423 52.1086,125.234 z" id="boundary" inkscape:connector-curvature="0" />
	<path style="fill:none;stroke:red;stroke-width:1px;stroke-linecap:butt;stroke-linejoin:miter;stroke-opacity:1" d="M 52.1086,125.234 54.9952,134.855 z" id="boundary" inkscape:connector-curvature="0" />
	<path style="fill:none;stroke:red;stroke-width:1px;stroke-linecap:butt;stroke-linejoin:miter;stroke-opacity:1" d="M 53.0708,49.2221 62.6925,47.2978 z" id="boundary" inkscape:connector-curvature="0" />
	<path style="fill:none;stroke:red;stroke-width:1px;stroke-linecap:butt;stroke-linejoin:miter;stroke-opacity:1" d="M 54.9952,134.855 56.9195,144.477 z" id="boundary" inkscape:connector-curvature="0" />
	<path style="fill:none;stroke:red;stroke-width:1px;stroke-linecap:butt;stroke-linejoin:miter;stroke-opacity:1" d="M 56.9195,144.477 59.806,154.099 z" id="boundary" inkscape:connector-curvature="0" />
	<path style="fill:none;stroke:red;stroke-width:1px;stroke-linecap:butt;stroke-linejoin:miter;stroke-opacity:1" d="M 59.806,154.099 61.7304,163.721 z" id="boundary" inkscape:connector-curvature="0" />
	<path style="fill:none;stroke:red;stroke-width:1px;stroke-linecap:butt;stroke-linejoin:miter;stroke-opacity:1" d="M 61.7304,163.721 66.5412,172.38 z" id="boundary" inkscape:connector-curvature="0" />
	<path style="fill:none;stroke:red;stroke-width:1px;stroke-linecap:butt;stroke-linejoin:miter;stroke-opacity:1" d="M 62.6925,47.2978 71.3521,42.4869 z" id="boundary" inkscape:connector-curvature="0" />
	<path style="fill:none;stroke:red;stroke-width:1px;stroke-linecap:butt;stroke-linejoin:miter;stroke-opacity:1" d="M 66.5412,172.38 66.5412,182.002 z" id="boundary" inkscape:connector-curvature="0" />
	<path style="fill:none;stroke:red;stroke-width:1px;stroke-linecap:butt;stroke-linejoin:miter;stroke-opacity:1" d="M 66.5412,182.002 71.3521,190.661 z" id="boundary" inkscape:connector-curvature="0" />
	<path style="fill:none;stroke:red;stroke-width:1px;stroke-linecap:butt;stroke-linejoin:miter;stroke-opacity:1" d="M 71.3521,42.4869 80.9738,44.4113 z" id="boundary" inkscape:connector-curvature="0" />
	<path style="fill:none;stroke:red;stroke-width:1px;stroke-linecap:butt;stroke-linejoin:miter;stroke-opacity:1" d="M 71.3521,190.661 72.3143,200.283 z" id="boundary" inkscape:connector-curvature="0" />
	<path style="fill:none;stroke:red;stroke-width:1px;stroke-linecap:butt;stroke-linejoin:miter;stroke-opacity:1" d="M 72.3143,200.283 77.1251,208.943 z" id="boundary" inkscape:connector-curvature="0" />
	<path style="fill:none;stroke:red;stroke-width:1px;stroke-linecap:butt;stroke-linejoin:miter;stroke-opacity:1" d="M 77.1251,208.943 83.8603,216.64 z" id="boundary" inkscape:connector-curvature="0" />
	<path style="fill:none;stroke:red;stroke-width:1px;stroke-linecap:butt;stroke-linejoin:miter;stroke-opacity:1" d="M 80.9738,44.4113 89.6334,49.2221 z" id="boundary" inkscape:connector-curvature="0" />
	<path style="fill:none;stroke:red;stroke-width:1px;stroke-linecap:butt;stroke-linejoin:miter;stroke-opacity:1" d="M 83.8603,216.64 91.5577,223.375 z" id="boundary" inkscape:connector-curvature="0" />
	<path style="fill:none;stroke:red;stroke-width:1px;stroke-linecap:butt;stroke-linejoin:miter;stroke-opacity:1" d="M 89.6334,49.2221 94.4442,57.8817 z" id="boundary" inkscape:connector-curvature="0" />
	<path style="fill:none;stroke:red;stroke-width:1px;stroke-linecap:butt;stroke-linejoin:miter;stroke-opacity:1" d="M 91.5577,223.375 95.4064,232.997 z" id="boundary" inkscape:connector-curvature="0" />
	<path style="fill:none;stroke:red;stroke-width:1px;stroke-linecap:butt;stroke-linejoin:miter;stroke-opacity:1" d="M 94.4442,57.8817 101.179,65.579 z" id="boundary" inkscape:connector-curvature="0" />
	<path style="fill:none;stroke:red;stroke-width:1px;stroke-linecap:butt;stroke-linejoin:miter;stroke-opacity:1" d="M 95.4064,232.997 103.104,239.732 z" id="boundary" inkscape:connector-curvature="0" />
	<path style="fill:none;stroke:red;stroke-width:1px;stroke-linecap:butt;stroke-linejoin:miter;stroke-opacity:1" d="M 100.217,382.134 105.028,390.793 z" id="boundary" inkscape:connector-curvature="0" />
	<path style="fill:none;stroke:red;stroke-width:1px;stroke-linecap:butt;stroke-linejoin:miter;stroke-opacity:1" d="M 101.179,65.579 108.877,72.3143 z" id="boundary" inkscape:connector-curvature="0" />
	<path style="fill:none;stroke:red;stroke-width:1px;stroke-linecap:butt;stroke-linejoin:miter;stroke-opacity:1" d="M 103.104,239.732 105.028,249.354 z" id="boundary" inkscape:connector-curvature="0" />
	<path style="fill:none;stroke:red;stroke-width:1px;stroke-linecap:butt;stroke-linejoin:miter;stroke-opacity:1" d="M 105.028,249.354 105.028,258.976 z" id="boundary" inkscape:connector-curvature="0" />
	<path style="fill:none;stroke:red;stroke-width:1px;stroke-linecap:butt;stroke-linejoin:miter;stroke-opacity:1" d="M 105.028,258.976 105.028,268.597 z" id="boundary" inkscape:connector-curvature="0" />
	<path style="fill:none;stroke:red;stroke-width:1px;stroke-linecap:butt;stroke-linejoin:miter;stroke-opacity:1" d="M 105.028,268.597 105.028,278.219 z" id="boundary" inkscape:connector-curvature="0" />
	<path style="fill:none;stroke:red;stroke-width:1px;stroke-linecap:butt;stroke-linejoin:miter;stroke-opacity:1" d="M 105.028,278.219 105.028,287.841 z" id="boundary" inkscape:connector-curvature="0" />
	<path style="fill:none;stroke:red;stroke-width:1px;stroke-linecap:butt;stroke-linejoin:miter;stroke-opacity:1" d="M 105.028,287.841 105.028,297.463 z" id="boundary" inkscape:connector-curvature="0" />
	<path style="fill:none;stroke:red;stroke-width:1px;stroke-linecap:butt;stroke-linejoin:miter;stroke-opacity:1" d="M 105.028,297.463 105.028,307.084 z" id="boundary" inkscape:connector-curvature="0" />
	<path style="fill:none;stroke:red;stroke-width:1px;stroke-linecap:butt;stroke-linejoin:miter;stroke-opacity:1" d="M 105.028,307.084 105.028,316.706 z" id="boundary" inkscape:connector-curvature="0" />
	<path style="fill:none;stroke:red;stroke-width:1px;stroke-linecap:butt;stroke-linejoin:miter;stroke-opacity:1" d="M 105.028,316.706 105.028,326.328 z" id="boundary" inkscape:connector-curvature="0" />
	<path style="fill:none;stroke:red;stroke-width:1px;stroke-linecap:butt;stroke-linejoin:miter;stroke-opacity:1" d="M 105.028,326.328 105.028,335.95 z" id="boundary" inkscape:connector-curvature="0" />
	<path style="fill:none;stroke:red;stroke-width:1px;stroke-linecap:butt;stroke-linejoin:miter;stroke-opacity:1" d="M 105.028,335.95 105.028,345.571 z" id="boundary" inkscape:connector-curvature="0" />
	<path style="fill:none;stroke:red;stroke-width:1px;stroke-linecap:butt;stroke-linejoin:miter;stroke-opacity:1" d="M 105.028,345.571 105.028,355.193 z" id="boundary" inkscape:connector-curvature="0" />
	<path style="fill:none;stroke:red;stroke-width:1px;stroke-linecap:butt;stroke-linejoin:miter;stroke-opacity:1" d="M 105.028,390.793 114.65,394.642 z" id="boundary" inkscape:connector-curvature="0" />
	<path style="fill:none;stroke:red;stroke-width:1px;stroke-linecap:butt;stroke-linejoin:miter;stroke-opacity:1" d="M 108.877,72.3143 115.612,80.0116 z" id="boundary" inkscape:connector-curvature="0" />
	<path style="fill:none;stroke:red;stroke-width:1px;stroke-linecap:butt;stroke-linejoin:miter;stroke-opacity:1" d="M 114.65,394.642 124.272,391.756 z" id="boundary" inkscape:connector-curvature="0" />
	<path style="fill:none;stroke:red;stroke-width:1px;stroke-linecap:butt;stroke-linejoin:miter;stroke-opacity:1" d="M 115.612,80.0116 123.309,86.7468 z" id="boundary" inkscape:connector-curvature="0" />
	<path style="fill:none;stroke:red;stroke-width:1px;stroke-linecap:butt;stroke-linejoin:miter;stroke-opacity:1" d="M 123.309,86.7468 130.045,94.4442 z" id="boundary" inkscape:connector-curvature="0" />
	<path style="fill:none;stroke:red;stroke-width:1px;stroke-linecap:butt;stroke-linejoin:miter;stroke-opacity:1" d="M 124.272,391.756 133.893,386.945 z" id="boundary" inkscape:connector-curvature="0" />
	<path style="fill:none;stroke:red;stroke-width:1px;stroke-linecap:butt;stroke-linejoin:miter;stroke-opacity:1" d="M 130.045,94.4442 137.742,101.179 z" id="boundary" inkscape:connector-curvature="0" />
	<path style="fill:none;stroke:red;stroke-width:1px;stroke-linecap:butt;stroke-linejoin:miter;stroke-opacity:1" d="M 133.893,386.945 141.591,379.247 z" id="boundary" inkscape:connector-curvature="0" />
	<path style="fill:none;stroke:red;stroke-width:1px;stroke-linecap:butt;stroke-linejoin:miter;stroke-opacity:1" d="M 137.742,101.179 146.402,105.99 z" id="boundary" inkscape:connector-curvature="0" />
	<path style="fill:none;stroke:red;stroke-width:1px;stroke-linecap:butt;stroke-linejoin:miter;stroke-opacity:1" d="M 141.591,379.247 146.402,369.626 z" id="boundary" inkscape:connector-curvature="0" />
	<path style="fill:none;stroke:red;stroke-width:1px;stroke-linecap:butt;stroke-linejoin:miter;stroke-opacity:1" d="M 146.402,105.99 156.023,109.839 z" id="boundary" inkscape:connector-curvature="0" />
	<path style="fill:none;stroke:red;stroke-width:1px;stroke-linecap:butt;stroke-linejoin:miter;stroke-opacity:1" d="M 146.402,369.626 154.099,341.723 z" id="boundary" inkscape:connector-curvature="0" />
	<path style="fill:none;stroke:red;stroke-width:1px;stroke-linecap:butt;stroke-linejoin:miter;stroke-opacity:1" d="M 154.099,341.723 158.91,327.29 z" id="boundary" inkscape:connector-curvature="0" />
	<path style="fill:none;stroke:red;stroke-width:1px;stroke-linecap:butt;stroke-linejoin:miter;stroke-opacity:1" d="M 156.023,109.839 164.683,114.65 z" id="boundary" inkscape:connector-curvature="0" />
	<path style="fill:none;stroke:red;stroke-width:1px;stroke-linecap:butt;stroke-linejoin:miter;stroke-opacity:1" d="M 158.91,327.29 163.721,303.236 z" id="boundary" inkscape:connector-curvature="0" />
	<path style="fill:none;stroke:red;stroke-width:1px;stroke-linecap:butt;stroke-linejoin:miter;stroke-opacity:1" d="M 163.721,303.236 171.418,296.5 z" id="boundary" inkscape:connector-curvature="0" />
	<path style="fill:none;stroke:red;stroke-width:1px;stroke-linecap:butt;stroke-linejoin:miter;stroke-opacity:1" d="M 164.683,114.65 174.305,114.65 z" id="boundary" inkscape:connector-curvature="0" />
	<path style="fill:none;stroke:red;stroke-width:1px;stroke-linecap:butt;stroke-linejoin:miter;stroke-opacity:1" d="M 171.418,296.5 178.153,274.371 z" id="boundary" inkscape:connector-curvature="0" />
	<path style="fill:none;stroke:red;stroke-width:1px;stroke-linecap:butt;stroke-linejoin:miter;stroke-opacity:1" d="M 174.305,114.65 182.964,119.461 z" id="boundary" inkscape:connector-curvature="0" />
	<path style="fill:none;stroke:red;stroke-width:1px;stroke-linecap:butt;stroke-linejoin:miter;stroke-opacity:1" d="M 178.153,274.371 185.851,267.635 z" id="boundary" inkscape:connector-curvature="0" />
	<path style="fill:none;stroke:red;stroke-width:1px;stroke-linecap:butt;stroke-linejoin:miter;stroke-opacity:1" d="M 182.964,119.461 192.586,119.461 z" id="boundary" inkscape:connector-curvature="0" />
	<path style="fill:none;stroke:red;stroke-width:1px;stroke-linecap:butt;stroke-linejoin:miter;stroke-opacity:1" d="M 185.851,267.635 195.472,262.824 z" id="boundary" inkscape:connector-curvature="0" />
	<path style="fill:none;stroke:red;stroke-width:1px;stroke-linecap:butt;stroke-linejoin:miter;stroke-opacity:1" d="M 192.586,119.461 202.208,119.461 z" id="boundary" inkscape:connector-curvature="0" />
	<path style="fill:none;stroke:red;stroke-width:1px;stroke-linecap:butt;stroke-linejoin:miter;stroke-opacity:1" d="M 195.472,262.824 205.094,259.938 z" id="boundary" inkscape:connector-curvature="0" />
	<path style="fill:none;stroke:red;stroke-width:1px;stroke-linecap:butt;stroke-linejoin:miter;stroke-opacity:1" d="M 202.208,119.461 211.829,119.461 z" id="boundary" inkscape:connector-curvature="0" />
	<path style="fill:none;stroke:red;stroke-width:1px;stroke-linecap:butt;stroke-linejoin:miter;stroke-opacity:1" d="M 205.094,259.938 213.754,254.165 z" id="boundary" inkscape:connector-curvature="0" />
	<path style="fill:none;stroke:red;stroke-width:1px;stroke-linecap:butt;stroke-linejoin:miter;stroke-opacity:1" d="M 211.829,119.461 221.451,119.461 z" id="boundary" inkscape:connector-curvature="0" />
	<path style="fill:none;stroke:red;stroke-width:1px;stroke-linecap:butt;stroke-linejoin:miter;stroke-opacity:1" d="M 213.754,254.165 223.375,250.316 z" id="boundary" inkscape:connector-curvature="0" />
	<path style="fill:none;stroke:red;stroke-width:1px;stroke-linecap:butt;stroke-linejoin:miter;stroke-opacity:1" d="M 221.451,119.461 231.073,119.461 z" id="boundary" inkscape:connector-curvature="0" />
	<path style="fill:none;stroke:red;stroke-width:1px;stroke-linecap:butt;stroke-linejoin:miter;stroke-opacity:1" d="M 223.375,250.316 232.997,250.316 z" id="boundary" inkscape:connector-curvature="0" />
	<path style="fill:none;stroke:red;stroke-width:1px;stroke-linecap:butt;stroke-linejoin:miter;stroke-opacity:1" d="M 231.073,119.461 240.694,119.461 z" id="boundary" inkscape:connector-curvature="0" />
	<path style="fill:none;stroke:red;stroke-width:1px;stroke-linecap:butt;stroke-linejoin:miter;stroke-opacity:1" d="M 232.997,250.316 242.619,250.316 z" id="boundary" inkscape:connector-curvature="0" />
	<path style="fill:none;stroke:red;stroke-width:1px;stroke-linecap:butt;stroke-linejoin:miter;stroke-opacity:1" d="M 240.694,119.461 250.316,119.461 z" id="boundary" inkscape:connector-curvature="0" />
	<path style="fill:none;stroke:red;stroke-width:1px;stroke-linecap:butt;stroke-linejoin:miter;stroke-opacity:1" d="M 242.619,250.316 252.241,250.316 z" id="boundary" inkscape:connector-curvature="0" />
	<path style="fill:none;stroke:red;stroke-width:1px;stroke-linecap:butt;stroke-linejoin:miter;stroke-opacity:1" d="M 250.316,119.461 259.938,119.461 z" id="boundary" inkscape:connector-curvature="0" />
	<path style="fill:none;stroke:red;stroke-width:1px;stroke-linecap:butt;stroke-linejoin:miter;stroke-opacity:1" d="M 252.241,250.316 261.862,250.316 z" id="boundary" inkscape:connector-curvature="0" />
	<path style="fill:none;stroke:red;stroke-width:1px;stroke-linecap:butt;stroke-linejoin:miter;stroke-opacity:1" d="M 259.938,119.461 269.56,119.461 z" id="boundary" inkscape:connector-curvature="0" />
	<path style="fill:none;stroke:red;stroke-width:1px;stroke-linecap:butt;stroke-linejoin:miter;stroke-opacity:1" d="M 261.862,250.316 271.484,250.316 z" id="boundary" inkscape:connector-curvature="0" />
	<path style="fill:none;stroke:red;stroke-width:1px;stroke-linecap:butt;stroke-linejoin:miter;stroke-opacity:1" d="M 268.597,372.512 268.597,382.134 z" id="boundary" inkscape:connector-curvature="0" />
	<path style="fill:none;stroke:red;stroke-width:1px;stroke-linecap:butt;stroke-linejoin:miter;stroke-opacity:1" d="M 268.597,372.512 273.408,362.89 z" id="boundary" inkscape:connector-curvature="0" />
	<path style="fill:none;stroke:red;stroke-width:1px;stroke-linecap:butt;stroke-linejoin:miter;stroke-opacity:1" d="M 268.597,382.134 268.597,391.756 z" id="boundary" inkscape:connector-curvature="0" />
	<path style="fill:none;stroke:red;stroke-width:1px;stroke-linecap:butt;stroke-linejoin:miter;stroke-opacity:1" d="M 268.597,391.756 276.295,398.491 z" id="boundary" inkscape:connector-curvature="0" />
	<path style="fill:none;stroke:red;stroke-width:1px;stroke-linecap:butt;stroke-linejoin:miter;stroke-opacity:1" d="M 269.56,119.461 278.219,124.272 z" id="boundary" inkscape:connector-curvature="0" />
	<path style="fill:none;stroke:red;stroke-width:1px;stroke-linecap:butt;stroke-linejoin:miter;stroke-opacity:1" d="M 271.484,250.316 281.106,250.316 z" id="boundary" inkscape:connector-curvature="0" />
	<path style="fill:none;stroke:red;stroke-width:1px;stroke-linecap:butt;stroke-linejoin:miter;stroke-opacity:1" d="M 273.408,362.89 281.106,355.193 z" id="boundary" inkscape:connector-curvature="0" />
	<path style="fill:none;stroke:red;stroke-width:1px;stroke-linecap:butt;stroke-linejoin:miter;stroke-opacity:1" d="M 276.295,398.491 283.992,404.264 z" id="boundary" inkscape:connector-curvature="0" />
	<path style="fill:none;stroke:red;stroke-width:1px;stroke-linecap:butt;stroke-linejoin:miter;stroke-opacity:1" d="M 278.219,124.272 287.841,124.272 z" id="boundary" inkscape:connector-curvature="0" />
	<path style="fill:none;stroke:red;stroke-width:1px;stroke-linecap:butt;stroke-linejoin:miter;stroke-opacity:1" d="M 281.106,250.316 287.841,258.014 z" id="boundary" inkscape:connector-curvature="0" />
	<path style="fill:none;stroke:red;stroke-width:1px;stroke-linecap:butt;stroke-linejoin:miter;stroke-opacity:1" d="M 281.106,355.193 290.727,350.382 z" id="boundary" inkscape:connector-curvature="0" />
	<path style="fill:none;stroke:red;stroke-width:1px;stroke-linecap:butt;stroke-linejoin:miter;stroke-opacity:1" d="M 283.992,404.264 293.614,404.264 z" id="boundary" inkscape:connector-curvature="0" />
	<path style="fill:none;stroke:red;stroke-width:1px;stroke-linecap:butt;stroke-linejoin:miter;stroke-opacity:1" d="M 287.841,124.272 297.463,124.272 z" id="boundary" inkscape:connector-curvature="0" />
	<path style="fill:none;stroke:red;stroke-width:1px;stroke-linecap:butt;stroke-linejoin:miter;stroke-opacity:1" d="M 287.841,258.014 292.652,266.673 z" id="boundary" inkscape:connector-curvature="0" />
	<path style="fill:none;stroke:red;stroke-width:1px;stroke-linecap:butt;stroke-linejoin:miter;stroke-opacity:1" d="M 292.652,266.673 297.463,275.333 z" id="boundary" inkscape:connector-curvature="0" />
	<path style="fill:none;stroke:red;stroke-width:1px;stroke-linecap:butt;stroke-linejoin:miter;stroke-opacity:1" d="M 293.614,404.264 303.236,404.264 z" id="boundary" inkscape:connector-curvature="0" />
	<path style="fill:none;stroke:red;stroke-width:1px;stroke-linecap:butt;stroke-linejoin:miter;stroke-opacity:1" d="M 297.463,124.272 307.084,124.272 z" id="boundary" inkscape:connector-curvature="0" />
	<path style="fill:none;stroke:red;stroke-width:1px;stroke-linecap:butt;stroke-linejoin:miter;stroke-opacity:1" d="M 297.463,275.333 297.463,284.954 z" id="boundary" inkscape:connector-curvature="0" />
	<path style="fill:none;stroke:red;stroke-width:1px;stroke-linecap:butt;stroke-linejoin:miter;stroke-opacity:1" d="M 297.463,284.954 297.463,294.576 z" id="boundary" inkscape:connector-curvature="0" />
	<path style="fill:none;stroke:red;stroke-width:1px;stroke-linecap:butt;stroke-linejoin:miter;stroke-opacity:1" d="M 297.463,294.576 297.463,304.198 z" id="boundary" inkscape:connector-curvature="0" />
	<path style="fill:none;stroke:red;stroke-width:1px;stroke-linecap:butt;stroke-linejoin:miter;stroke-opacity:1" d="M 297.463,304.198 297.463,313.82 z" id="boundary" inkscape:connector-curvature="0" />
	<path style="fill:none;stroke:red;stroke-width:1px;stroke-linecap:butt;stroke-linejoin:miter;stroke-opacity:1" d="M 297.463,313.82 297.463,323.441 z" id="boundary" inkscape:connector-curvature="0" />
	<path style="fill:none;stroke:red;stroke-width:1px;stroke-linecap:butt;stroke-linejoin:miter;stroke-opacity:1" d="M 303.236,404.264 312.857,404.264 z" id="boundary" inkscape:connector-curvature="0" />
	<path style="fill:none;stroke:red;stroke-width:1px;stroke-linecap:butt;stroke-linejoin:miter;stroke-opacity:1" d="M 307.084,124.272 316.706,124.272 z" id="boundary" inkscape:connector-curvature="0" />
	<path style="fill:none;stroke:red;stroke-width:1px;stroke-linecap:butt;stroke-linejoin:miter;stroke-opacity:1" d="M 312.857,404.264 322.479,404.264 z" id="boundary" inkscape:connector-curvature="0" />
	<path style="fill:none;stroke:red;stroke-width:1px;stroke-linecap:butt;stroke-linejoin:miter;stroke-opacity:1" d="M 316.706,124.272 326.328,124.272 z" id="boundary" inkscape:connector-curvature="0" />
	<path style="fill:none;stroke:red;stroke-width:1px;stroke-linecap:butt;stroke-linejoin:miter;stroke-opacity:1" d="M 322.479,404.264 332.101,404.264 z" id="boundary" inkscape:connector-curvature="0" />
	<path style="fill:none;stroke:red;stroke-width:1px;stroke-linecap:butt;stroke-linejoin:miter;stroke-opacity:1" d="M 326.328,124.272 335.95,124.272 z" id="boundary" inkscape:connector-curvature="0" />
	<path style="fill:none;stroke:red;stroke-width:1px;stroke-linecap:butt;stroke-linejoin:miter;stroke-opacity:1" d="M 332.101,404.264 341.723,404.264 z" id="boundary" inkscape:connector-curvature="0" />
	<path style="fill:none;stroke:red;stroke-width:1px;stroke-linecap:butt;stroke-linejoin:miter;stroke-opacity:1" d="M 335.95,124.272 345.571,124.272 z" id="boundary" inkscape:connector-curvature="0" />
	<path style="fill:none;stroke:red;stroke-width:1px;stroke-linecap:butt;stroke-linejoin:miter;stroke-opacity:1" d="M 341.723,404.264 351.344,399.453 z" id="boundary" inkscape:connector-curvature="0" />
	<path style="fill:none;stroke:red;stroke-width:1px;stroke-linecap:butt;stroke-linejoin:miter;stroke-opacity:1" d="M 345.571,124.272 355.193,124.272 z" id="boundary" inkscape:connector-curvature="0" />
	<path style="fill:none;stroke:red;stroke-width:1px;stroke-linecap:butt;stroke-linejoin:miter;stroke-opacity:1" d="M 351.344,399.453 360.966,399.453 z" id="boundary" inkscape:connector-curvature="0" />
	<path style="fill:none;stroke:red;stroke-width:1px;stroke-linecap:butt;stroke-linejoin:miter;stroke-opacity:1" d="M 355.193,124.272 363.853,129.082 z" id="boundary" inkscape:connector-curvature="0" />
	<path style="fill:none;stroke:red;stroke-width:1px;stroke-linecap:butt;stroke-linejoin:miter;stroke-opacity:1" d="M 360.966,399.453 369.626,394.642 z" id="boundary" inkscape:connector-curvature="0" />
	<path style="fill:none;stroke:red;stroke-width:1px;stroke-linecap:butt;stroke-linejoin:miter;stroke-opacity:1" d="M 363.853,129.082 372.512,133.893 z" id="boundary" inkscape:connector-curvature="0" />
	<path style="fill:none;stroke:red;stroke-width:1px;stroke-linecap:butt;stroke-linejoin:miter;stroke-opacity:1" d="M 369.626,394.642 377.323,388.869 z" id="boundary" inkscape:connector-curvature="0" />
	<path style="fill:none;stroke:red;stroke-width:1px;stroke-linecap:butt;stroke-linejoin:miter;stroke-opacity:1" d="M 372.512,133.893 375.399,143.515 z" id="boundary" inkscape:connector-curvature="0" />
	<path style="fill:none;stroke:red;stroke-width:1px;stroke-linecap:butt;stroke-linejoin:miter;stroke-opacity:1" d="M 375.399,143.515 383.096,149.288 z" id="boundary" inkscape:connector-curvature="0" />
	<path style="fill:none;stroke:red;stroke-width:1px;stroke-linecap:butt;stroke-linejoin:miter;stroke-opacity:1" d="M 380.21,283.992 389.831,285.917 z" id="boundary" inkscape:connector-curvature="0" />
	<path style="fill:none;stroke:red;stroke-width:1px;stroke-linecap:butt;stroke-linejoin:miter;stroke-opacity:1" d="M 380.21,293.614 380.21,303.236 z" id="boundary" inkscape:connector-curvature="0" />
	<path style="fill:none;stroke:red;stroke-width:1px;stroke-linecap:butt;stroke-linejoin:miter;stroke-opacity:1" d="M 380.21,303.236 380.21,312.857 z" id="boundary" inkscape:connector-curvature="0" />
	<path style="fill:none;stroke:red;stroke-width:1px;stroke-linecap:butt;stroke-linejoin:miter;stroke-opacity:1" d="M 380.21,312.857 380.21,322.479 z" id="boundary" inkscape:connector-curvature="0" />
	<path style="fill:none;stroke:red;stroke-width:1px;stroke-linecap:butt;stroke-linejoin:miter;stroke-opacity:1" d="M 380.21,322.479 380.21,332.101 z" id="boundary" inkscape:connector-curvature="0" />
	<path style="fill:none;stroke:red;stroke-width:1px;stroke-linecap:butt;stroke-linejoin:miter;stroke-opacity:1" d="M 380.21,332.101 380.21,341.723 z" id="boundary" inkscape:connector-curvature="0" />
	<path style="fill:none;stroke:red;stroke-width:1px;stroke-linecap:butt;stroke-linejoin:miter;stroke-opacity:1" d="M 380.21,341.723 380.21,351.344 z" id="boundary" inkscape:connector-curvature="0" />
	<path style="fill:none;stroke:red;stroke-width:1px;stroke-linecap:butt;stroke-linejoin:miter;stroke-opacity:1" d="M 380.21,351.344 385.02,360.004 z" id="boundary" inkscape:connector-curvature="0" />
	<path style="fill:none;stroke:red;stroke-width:1px;stroke-linecap:butt;stroke-linejoin:miter;stroke-opacity:1" d="M 383.096,149.288 386.945,158.91 z" id="boundary" inkscape:connector-curvature="0" />
	<path style="fill:none;stroke:red;stroke-width:1px;stroke-linecap:butt;stroke-linejoin:miter;stroke-opacity:1" d="M 386.945,158.91 391.756,167.569 z" id="boundary" inkscape:connector-curvature="0" />
	<path style="fill:none;stroke:red;stroke-width:1px;stroke-linecap:butt;stroke-linejoin:miter;stroke-opacity:1" d="M 389.831,285.917 398.491,290.727 z" id="boundary" inkscape:connector-curvature="0" />
	<path style="fill:none;stroke:red;stroke-width:1px;stroke-linecap:butt;stroke-linejoin:miter;stroke-opacity:1" d="M 391.756,167.569 394.642,177.191 z" id="boundary" inkscape:connector-curvature="0" />
	<path style="fill:none;stroke:red;stroke-width:1px;stroke-linecap:butt;stroke-linejoin:miter;stroke-opacity:1" d="M 394.642,177.191 399.453,185.851 z" id="boundary" inkscape:connector-curvature="0" />
	<path style="fill:none;stroke:red;stroke-width:1px;stroke-linecap:butt;stroke-linejoin:miter;stroke-opacity:1" d="M 398.491,290.727 408.113,293.614 z" id="boundary" inkscape:connector-curvature="0" />
	<path style="fill:none;stroke:red;stroke-width:1px;stroke-linecap:butt;stroke-linejoin:miter;stroke-opacity:1" d="M 399.453,185.851 399.453,195.472 z" id="boundary" inkscape:connector-curvature="0" />
	<path style="fill:none;stroke:red;stroke-width:1px;stroke-linecap:butt;stroke-linejoin:miter;stroke-opacity:1" d="M 399.453,195.472 404.264,204.132 z" id="boundary" inkscape:connector-curvature="0" />
	<path style="fill:none;stroke:red;stroke-width:1px;stroke-linecap:butt;stroke-linejoin:miter;stroke-opacity:1" d="M 404.264,204.132 404.264,213.754 z" id="boundary" inkscape:connector-curvature="0" />
	<path style="fill:none;stroke:red;stroke-width:1px;stroke-linecap:butt;stroke-linejoin:miter;stroke-opacity:1" d="M 404.264,213.754 404.264,223.375 z" id="boundary" inkscape:connector-curvature="0" />
	<path style="fill:none;stroke:red;stroke-width:1px;stroke-linecap:butt;stroke-linejoin:miter;stroke-opacity:1" d="M 404.264,223.375 404.264,232.997 z" id="boundary" inkscape:connector-curvature="0" />
	<path style="fill:none;stroke:red;stroke-width:1px;stroke-linecap:butt;stroke-linejoin:miter;stroke-opacity:1" d="M 404.264,232.997 408.113,242.619 z" id="boundary" inkscape:connector-curvature="0" />
	<path style="fill:none;stroke:red;stroke-width:1px;stroke-linecap:butt;stroke-linejoin:miter;stroke-opacity:1" d="M 408.113,242.619 412.923,251.278 z" id="boundary" inkscape:connector-curvature="0" />
	<path style="fill:none;stroke:red;stroke-width:1px;stroke-linecap:butt;stroke-linejoin:miter;stroke-opacity:1" d="M 408.113,293.614 416.772,298.425 z" id="boundary" inkscape:connector-curvature="0" />
	<path style="fill:none;stroke:red;stroke-width:1px;stroke-linecap:butt;stroke-linejoin:miter;stroke-opacity:1" d="M 412.923,251.278 422.545,254.165 z" id="boundary" inkscape:connector-curvature="0" />
	<path style="fill:none;stroke:red;stroke-width:1px;stroke-linecap:butt;stroke-linejoin:miter;stroke-opacity:1" d="M 416.772,298.425 426.394,298.425 z" id="boundary" inkscape:connector-curvature="0" />
	<path style="fill:none;stroke:red;stroke-width:1px;stroke-linecap:butt;stroke-linejoin:miter;stroke-opacity:1" d="M 426.394,298.425 436.016,298.425 z" id="boundary" inkscape:connector-curvature="0" />
	<path style="fill:none;stroke:red;stroke-width:1px;stroke-linecap:butt;stroke-linejoin:miter;stroke-opacity:1" d="M 436.016,298.425 441.789,306.122 z" id="boundary" inkscape:connector-curvature="0" />
	<path style="fill:none;stroke:red;stroke-width:1px;stroke-linecap:butt;stroke-linejoin:miter;stroke-opacity:1" d="M 436.978,204.132 436.978,213.754 z" id="boundary" inkscape:connector-curvature="0" />
	<path style="fill:none;stroke:red;stroke-width:1px;stroke-linecap:butt;stroke-linejoin:miter;stroke-opacity:1" d="M 436.978,204.132 441.789,194.51 z" id="boundary" inkscape:connector-curvature="0" />
	<path style="fill:none;stroke:red;stroke-width:1px;stroke-linecap:butt;stroke-linejoin:miter;stroke-opacity:1" d="M 436.978,213.754 436.978,223.375 z" id="boundary" inkscape:connector-curvature="0" />
	<path style="fill:none;stroke:red;stroke-width:1px;stroke-linecap:butt;stroke-linejoin:miter;stroke-opacity:1" d="M 441.789,194.51 449.486,186.813 z" id="boundary" inkscape:connector-curvature="0" />
	<path style="fill:none;stroke:red;stroke-width:1px;stroke-linecap:butt;stroke-linejoin:miter;stroke-opacity:1" d="M 441.789,306.122 446.599,314.782 z" id="boundary" inkscape:connector-curvature="0" />
	<path style="fill:none;stroke:red;stroke-width:1px;stroke-linecap:butt;stroke-linejoin:miter;stroke-opacity:1" d="M 446.599,314.782 446.599,324.403 z" id="boundary" inkscape:connector-curvature="0" />
	<path style="fill:none;stroke:red;stroke-width:1px;stroke-linecap:butt;stroke-linejoin:miter;stroke-opacity:1" d="M 446.599,324.403 446.599,334.025 z" id="boundary" inkscape:connector-curvature="0" />
	<path style="fill:none;stroke:red;stroke-width:1px;stroke-linecap:butt;stroke-linejoin:miter;stroke-opacity:1" d="M 446.599,334.025 451.41,342.685 z" id="boundary" inkscape:connector-curvature="0" />
	<path style="fill:none;stroke:red;stroke-width:1px;stroke-linecap:butt;stroke-linejoin:miter;stroke-opacity:1" d="M 449.486,186.813 454.297,177.191 z" id="boundary" inkscape:connector-curvature="0" />
	<path style="fill:none;stroke:red;stroke-width:1px;stroke-linecap:butt;stroke-linejoin:miter;stroke-opacity:1" d="M 451.41,342.685 451.41,352.306 z" id="boundary" inkscape:connector-curvature="0" />
	<path style="fill:none;stroke:red;stroke-width:1px;stroke-linecap:butt;stroke-linejoin:miter;stroke-opacity:1" d="M 451.41,352.306 451.41,361.928 z" id="boundary" inkscape:connector-curvature="0" />
	<path style="fill:none;stroke:red;stroke-width:1px;stroke-linecap:butt;stroke-linejoin:miter;stroke-opacity:1" d="M 451.41,361.928 456.221,370.588 z" id="boundary" inkscape:connector-curvature="0" />
	<path style="fill:none;stroke:red;stroke-width:1px;stroke-linecap:butt;stroke-linejoin:miter;stroke-opacity:1" d="M 456.221,370.588 456.221,380.21 z" id="boundary" inkscape:connector-curvature="0" />
	<path style="fill:none;stroke:red;stroke-width:1px;stroke-linecap:butt;stroke-linejoin:miter;stroke-opacity:1" d="M 456.221,380.21 461.032,388.869 z" id="boundary" inkscape:connector-curvature="0" />
	<path style="fill:none;stroke:red;stroke-width:1px;stroke-linecap:butt;stroke-linejoin:miter;stroke-opacity:1" d="M 461.032,388.869 462.956,398.491 z" id="boundary" inkscape:connector-curvature="0" />
	<path style="fill:none;stroke:red;stroke-width:1px;stroke-linecap:butt;stroke-linejoin:miter;stroke-opacity:1" d="M 462.956,398.491 467.767,407.15 z" id="boundary" inkscape:connector-curvature="0" />
	<path style="fill:none;stroke:red;stroke-width:1px;stroke-linecap:butt;stroke-linejoin:miter;stroke-opacity:1" d="M 467.767,407.15 476.427,411.961 z" id="boundary" inkscape:connector-curvature="0" />
	<path style="fill:none;stroke:red;stroke-width:1px;stroke-linecap:butt;stroke-linejoin:miter;stroke-opacity:1" d="M 475.465,131.969 480.275,122.347 z" id="boundary" inkscape:connector-curvature="0" />
	<path style="fill:none;stroke:red;stroke-width:1px;stroke-linecap:butt;stroke-linejoin:miter;stroke-opacity:1" d="M 476.427,411.961 486.048,413.886 z" id="boundary" inkscape:connector-curvature="0" />
	<path style="fill:none;stroke:red;stroke-width:1px;stroke-linecap:butt;stroke-linejoin:miter;stroke-opacity:1" d="M 480.275,122.347 487.973,114.65 z" id="boundary" inkscape:connector-curvature="0" />
	<path style="fill:none;stroke:red;stroke-width:1px;stroke-linecap:butt;stroke-linejoin:miter;stroke-opacity:1" d="M 486.048,413.886 495.67,413.886 z" id="boundary" inkscape:connector-curvature="0" />
	<path style="fill:none;stroke:red;stroke-width:1px;stroke-linecap:butt;stroke-linejoin:miter;stroke-opacity:1" d="M 487.973,114.65 496.632,109.839 z" id="boundary" inkscape:connector-curvature="0" />
	<path style="fill:none;stroke:red;stroke-width:1px;stroke-linecap:butt;stroke-linejoin:miter;stroke-opacity:1" d="M 495.67,413.886 505.292,413.886 z" id="boundary" inkscape:connector-curvature="0" />
	<path style="fill:none;stroke:red;stroke-width:1px;stroke-linecap:butt;stroke-linejoin:miter;stroke-opacity:1" d="M 496.632,109.839 505.292,105.028 z" id="boundary" inkscape:connector-curvature="0" />
	<path style="fill:none;stroke:red;stroke-width:1px;stroke-linecap:butt;stroke-linejoin:miter;stroke-opacity:1" d="M 505.292,105.028 514.914,102.142 z" id="boundary" inkscape:connector-curvature="0" />
	<path style="fill:none;stroke:red;stroke-width:1px;stroke-linecap:butt;stroke-linejoin:miter;stroke-opacity:1" d="M 505.292,413.886 514.914,413.886 z" id="boundary" inkscape:connector-curvature="0" />
	<path style="fill:none;stroke:red;stroke-width:1px;stroke-linecap:butt;stroke-linejoin:miter;stroke-opacity:1" d="M 514.914,102.142 524.535,100.217 z" id="boundary" inkscape:connector-curvature="0" />
	<path style="fill:none;stroke:red;stroke-width:1px;stroke-linecap:butt;stroke-linejoin:miter;stroke-opacity:1" d="M 514.914,413.886 524.535,413.886 z" id="boundary" inkscape:connector-curvature="0" />
	<path style="fill:none;stroke:red;stroke-width:1px;stroke-linecap:butt;stroke-linejoin:miter;stroke-opacity:1" d="M 524.535,100.217 534.157,100.217 z" id="boundary" inkscape:connector-curvature="0" />
	<path style="fill:none;stroke:red;stroke-width:1px;stroke-linecap:butt;stroke-linejoin:miter;stroke-opacity:1" d="M 524.535,413.886 534.157,413.886 z" id="boundary" inkscape:connector-curvature="0" />
	<path style="fill:none;stroke:red;stroke-width:1px;stroke-linecap:butt;stroke-linejoin:miter;stroke-opacity:1" d="M 534.157,413.886 543.779,413.886 z" id="boundary" inkscape:connector-curvature="0" />
	<path style="fill:none;stroke:red;stroke-width:1px;stroke-linecap:butt;stroke-linejoin:miter;stroke-opacity:1" d="M 543.779,413.886 552.438,409.075 z" id="boundary" inkscape:connector-curvature="0" />
	<path style="fill:none;stroke:red;stroke-width:1px;stroke-linecap:butt;stroke-linejoin:miter;stroke-opacity:1" d="M 547.628,11.6974 547.628,21.3191 z" id="boundary" inkscape:connector-curvature="0" />
	<path style="fill:none;stroke:red;stroke-width:1px;stroke-linecap:butt;stroke-linejoin:miter;stroke-opacity:1" d="M 547.628,11.6974 555.325,4 z" id="boundary" inkscape:connector-curvature="0" />
	<path style="fill:none;stroke:red;stroke-width:1px;stroke-linecap:butt;stroke-linejoin:miter;stroke-opacity:1" d="M 547.628,21.3191 547.628,30.9408 z" id="boundary" inkscape:connector-curvature="0" />
	<path style="fill:none;stroke:red;stroke-width:1px;stroke-linecap:butt;stroke-linejoin:miter;stroke-opacity:1" d="M 547.628,30.9408 552.438,39.6004 z" id="boundary" inkscape:connector-curvature="0" />
	<path style="fill:none;stroke:red;stroke-width:1px;stroke-linecap:butt;stroke-linejoin:miter;stroke-opacity:1" d="M 552.438,39.6004 552.438,49.2221 z" id="boundary" inkscape:connector-curvature="0" />
	<path style="fill:none;stroke:red;stroke-width:1px;stroke-linecap:butt;stroke-linejoin:miter;stroke-opacity:1" d="M 552.438,49.2221 552.438,58.8438 z" id="boundary" inkscape:connector-curvature="0" />
	<path style="fill:none;stroke:red;stroke-width:1px;stroke-linecap:butt;stroke-linejoin:miter;stroke-opacity:1" d="M 552.438,58.8438 552.438,68.4656 z" id="boundary" inkscape:connector-curvature="0" />
	<path style="fill:none;stroke:red;stroke-width:1px;stroke-linecap:butt;stroke-linejoin:miter;stroke-opacity:1" d="M 552.438,68.4656 552.438,78.0873 z" id="boundary" inkscape:connector-curvature="0" />
	<path style="fill:none;stroke:red;stroke-width:1px;stroke-linecap:butt;stroke-linejoin:miter;stroke-opacity:1" d="M 552.438,409.075 560.136,403.302 z" id="boundary" inkscape:connector-curvature="0" />
	<path style="fill:none;stroke:red;stroke-width:1px;stroke-linecap:butt;stroke-linejoin:miter;stroke-opacity:1" d="M 555.325,4 564.947,4 z" id="boundary" inkscape:connector-curvature="0" />
	<path style="fill:none;stroke:red;stroke-width:1px;stroke-linecap:butt;stroke-linejoin:miter;stroke-opacity:1" d="M 560.136,403.302 569.758,398.491 z" id="boundary" inkscape:connector-curvature="0" />
	<path style="fill:none;stroke:red;stroke-width:1px;stroke-linecap:butt;stroke-linejoin:miter;stroke-opacity:1" d="M 563.022,245.505 563.022,255.127 z" id="boundary" inkscape:connector-curvature="0" />
	<path style="fill:none;stroke:red;stroke-width:1px;stroke-linecap:butt;stroke-linejoin:miter;stroke-opacity:1" d="M 563.022,245.505 567.833,235.884 z" id="boundary" inkscape:connector-curvature="0" />
	<path style="fill:none;stroke:red;stroke-width:1px;stroke-linecap:butt;stroke-linejoin:miter;stroke-opacity:1" d="M 563.022,255.127 563.022,264.749 z" id="boundary" inkscape:connector-curvature="0" />
	<path style="fill:none;stroke:red;stroke-width:1px;stroke-linecap:butt;stroke-linejoin:miter;stroke-opacity:1" d="M 563.022,264.749 567.833,273.408 z" id="boundary" inkscape:connector-curvature="0" />
	<path style="fill:none;stroke:red;stroke-width:1px;stroke-linecap:butt;stroke-linejoin:miter;stroke-opacity:1" d="M 564.947,4 571.682,11.6974 z" id="boundary" inkscape:connector-curvature="0" />
	<path style="fill:none;stroke:red;stroke-width:1px;stroke-linecap:butt;stroke-linejoin:miter;stroke-opacity:1" d="M 567.833,235.884 577.455,235.884 z" id="boundary" inkscape:connector-curvature="0" />
	<path style="fill:none;stroke:red;stroke-width:1px;stroke-linecap:butt;stroke-linejoin:miter;stroke-opacity:1" d="M 567.833,273.408 575.531,279.181 z" id="boundary" inkscape:connector-curvature="0" />
	<path style="fill:none;stroke:red;stroke-width:1px;stroke-linecap:butt;stroke-linejoin:miter;stroke-opacity:1" d="M 569.758,398.491 577.455,389.831 z" id="boundary" inkscape:connector-curvature="0" />
	<path style="fill:none;stroke:red;stroke-width:1px;stroke-linecap:butt;stroke-linejoin:miter;stroke-opacity:1" d="M 571.682,11.6974 576.493,20.3569 z" id="boundary" inkscape:connector-curvature="0" />
	<path style="fill:none;stroke:red;stroke-width:1px;stroke-linecap:butt;stroke-linejoin:miter;stroke-opacity:1" d="M 575.531,279.181 579.379,288.803 z" id="boundary" inkscape:connector-curvature="0" />
	<path style="fill:none;stroke:red;stroke-width:1px;stroke-linecap:butt;stroke-linejoin:miter;stroke-opacity:1" d="M 576.493,20.3569 580.341,29.9787 z" id="boundary" inkscape:connector-curvature="0" />
	<path style="fill:none;stroke:red;stroke-width:1px;stroke-linecap:butt;stroke-linejoin:miter;stroke-opacity:1" d="M 577.455,235.884 587.077,235.884 z" id="boundary" inkscape:connector-curvature="0" />
	<path style="fill:none;stroke:red;stroke-width:1px;stroke-linecap:butt;stroke-linejoin:miter;stroke-opacity:1" d="M 577.455,389.831 585.152,383.096 z" id="boundary" inkscape:connector-curvature="0" />
	<path style="fill:none;stroke:red;stroke-width:1px;stroke-linecap:butt;stroke-linejoin:miter;stroke-opacity:1" d="M 579.379,288.803 587.077,295.538 z" id="boundary" inkscape:connector-curvature="0" />
	<path style="fill:none;stroke:red;stroke-width:1px;stroke-linecap:butt;stroke-linejoin:miter;stroke-opacity:1" d="M 580.341,29.9787 587.077,37.676 z" id="boundary" inkscape:connector-curvature="0" />
	<path style="fill:none;stroke:red;stroke-width:1px;stroke-linecap:butt;stroke-linejoin:miter;stroke-opacity:1" d="M 587.077,37.676 594.774,43.4491 z" id="boundary" inkscape:connector-curvature="0" />
	<path style="fill:none;stroke:red;stroke-width:1px;stroke-linecap:butt;stroke-linejoin:miter;stroke-opacity:1" d="M 587.077,235.884 596.698,235.884 z" id="boundary" inkscape:connector-curvature="0" />
	<path style="fill:none;stroke:red;stroke-width:1px;stroke-linecap:butt;stroke-linejoin:miter;stroke-opacity:1" d="M 587.077,295.538 591.887,304.198 z" id="boundary" inkscape:connector-curvature="0" />
	<path style="fill:none;stroke:red;stroke-width:1px;stroke-linecap:butt;stroke-linejoin:miter;stroke-opacity:1" d="M 591.887,304.198 596.698,312.857 z" id="boundary" inkscape:connector-curvature="0" />
	<path style="fill:none;stroke:red;stroke-width:1px;stroke-linecap:butt;stroke-linejoin:miter;stroke-opacity:1" d="M 594.774,43.4491 601.509,51.1465 z" id="boundary" inkscape:connector-curvature="0" />
	<path style="fill:none;stroke:red;stroke-width:1px;stroke-linecap:butt;stroke-linejoin:miter;stroke-opacity:1" d="M 596.698,235.884 606.32,235.884 z" id="boundary" inkscape:connector-curvature="0" />
	<path style="fill:none;stroke:red;stroke-width:1px;stroke-linecap:butt;stroke-linejoin:miter;stroke-opacity:1" d="M 596.698,312.857 596.698,322.479 z" id="boundary" inkscape:connector-curvature="0" />
	<path style="fill:none;stroke:red;stroke-width:1px;stroke-linecap:butt;stroke-linejoin:miter;stroke-opacity:1" d="M 596.698,322.479 596.698,332.101 z" id="boundary" inkscape:connector-curvature="0" />
	<path style="fill:none;stroke:red;stroke-width:1px;stroke-linecap:butt;stroke-linejoin:miter;stroke-opacity:1" d="M 596.698,332.101 596.698,341.723 z" id="boundary" inkscape:connector-curvature="0" />
	<path style="fill:none;stroke:red;stroke-width:1px;stroke-linecap:butt;stroke-linejoin:miter;stroke-opacity:1" d="M 596.698,341.723 596.698,351.344 z" id="boundary" inkscape:connector-curvature="0" />
	<path style="fill:none;stroke:red;stroke-width:1px;stroke-linecap:butt;stroke-linejoin:miter;stroke-opacity:1" d="M 601.509,51.1465 606.32,59.806 z" id="boundary" inkscape:connector-curvature="0" />
	<path style="fill:none;stroke:red;stroke-width:1px;stroke-linecap:butt;stroke-linejoin:miter;stroke-opacity:1" d="M 606.32,59.806 611.131,68.4656 z" id="boundary" inkscape:connector-curvature="0" />
	<path style="fill:none;stroke:red;stroke-width:1px;stroke-linecap:butt;stroke-linejoin:miter;stroke-opacity:1" d="M 606.32,235.884 615.942,235.884 z" id="boundary" inkscape:connector-curvature="0" />
	<path style="fill:none;stroke:red;stroke-width:1px;stroke-linecap:butt;stroke-linejoin:miter;stroke-opacity:1" d="M 611.131,68.4656 614.017,78.0873 z" id="boundary" inkscape:connector-curvature="0" />
	<path style="fill:none;stroke:red;stroke-width:1px;stroke-linecap:butt;stroke-linejoin:miter;stroke-opacity:1" d="M 614.017,78.0873 615.942,87.709 z" id="boundary" inkscape:connector-curvature="0" />
	<path style="fill:none;stroke:red;stroke-width:1px;stroke-linecap:butt;stroke-linejoin:miter;stroke-opacity:1" d="M 615.942,87.709 620.753,96.3686 z" id="boundary" inkscape:connector-curvature="0" />
	<path style="fill:none;stroke:red;stroke-width:1px;stroke-linecap:butt;stroke-linejoin:miter;stroke-opacity:1" d="M 615.942,235.884 625.564,237.808 z" id="boundary" inkscape:connector-curvature="0" />
	<path style="fill:none;stroke:red;stroke-width:1px;stroke-linecap:butt;stroke-linejoin:miter;stroke-opacity:1" d="M 620.753,96.3686 625.564,105.028 z" id="boundary" inkscape:connector-curvature="0" />
	<path style="fill:none;stroke:red;stroke-width:1px;stroke-linecap:butt;stroke-linejoin:miter;stroke-opacity:1" d="M 625.564,105.028 625.564,114.65 z" id="boundary" inkscape:connector-curvature="0" />
	<path style="fill:none;stroke:red;stroke-width:1px;stroke-linecap:butt;stroke-linejoin:miter;stroke-opacity:1" d="M 625.564,114.65 630.374,123.309 z" id="boundary" inkscape:connector-curvature="0" />
	<path style="fill:none;stroke:red;stroke-width:1px;stroke-linecap:butt;stroke-linejoin:miter;stroke-opacity:1" d="M 625.564,237.808 629.412,247.43 z" id="boundary" inkscape:connector-curvature="0" />
	<path style="fill:none;stroke:red;stroke-width:1px;stroke-linecap:butt;stroke-linejoin:miter;stroke-opacity:1" d="M 629.412,247.43 634.223,256.089 z" id="boundary" inkscape:connector-curvature="0" />
	<path style="fill:none;stroke:red;stroke-width:1px;stroke-linecap:butt;stroke-linejoin:miter;stroke-opacity:1" d="M 630.374,123.309 630.374,132.931 z" id="boundary" inkscape:connector-curvature="0" />
	<path style="fill:none;stroke:red;stroke-width:1px;stroke-linecap:butt;stroke-linejoin:miter;stroke-opacity:1" d="M 630.374,132.931 630.374,142.553 z" id="boundary" inkscape:connector-curvature="0" />
	<path style="fill:none;stroke:red;stroke-width:1px;stroke-linecap:butt;stroke-linejoin:miter;stroke-opacity:1" d="M 630.374,142.553 635.185,151.212 z" id="boundary" inkscape:connector-curvature="0" />
	<path style="fill:none;stroke:red;stroke-width:1px;stroke-linecap:butt;stroke-linejoin:miter;stroke-opacity:1" d="M 634.223,256.089 634.223,265.711 z" id="boundary" inkscape:connector-curvature="0" />
	<path style="fill:none;stroke:red;stroke-width:1px;stroke-linecap:butt;stroke-linejoin:miter;stroke-opacity:1" d="M 634.223,265.711 634.223,275.333 z" id="boundary" inkscape:connector-curvature="0" />
	<path style="fill:none;stroke:red;stroke-width:1px;stroke-linecap:butt;stroke-linejoin:miter;stroke-opacity:1" d="M 634.223,275.333 634.223,284.954 z" id="boundary" inkscape:connector-curvature="0" />
	<path style="fill:none;stroke:red;stroke-width:1px;stroke-linecap:butt;stroke-linejoin:miter;stroke-opacity:1" d="M 634.223,284.954 639.034,293.614 z" id="boundary" inkscape:connector-curvature="0" />
	<path style="fill:none;stroke:red;stroke-width:1px;stroke-linecap:butt;stroke-linejoin:miter;stroke-opacity:1" d="M 635.185,151.212 639.034,160.834 z" id="boundary" inkscape:connector-curvature="0" />
	<path style="fill:none;stroke:red;stroke-width:1px;stroke-linecap:butt;stroke-linejoin:miter;stroke-opacity:1" d="M 639.034,160.834 643.845,169.494 z" id="boundary" inkscape:connector-curvature="0" />
	<path style="fill:none;stroke:red;stroke-width:1px;stroke-linecap:butt;stroke-linejoin:miter;stroke-opacity:1" d="M 639.034,293.614 639.034,303.236 z" id="boundary" inkscape:connector-curvature="0" />
	<path style="fill:none;stroke:red;stroke-width:1px;stroke-linecap:butt;stroke-linejoin:miter;stroke-opacity:1" d="M 639.034,303.236 643.845,311.895 z" id="boundary" inkscape:connector-curvature="0" />
	<path style="fill:none;stroke:red;stroke-width:1px;stroke-linecap:butt;stroke-linejoin:miter;stroke-opacity:1" d="M 643.845,169.494 647.694,179.115 z" id="boundary" inkscape:connector-curvature="0" />
	<path style="fill:none;stroke:red;stroke-width:1px;stroke-linecap:butt;stroke-linejoin:miter;stroke-opacity:1" d="M 643.845,311.895 649.618,319.593 z" id="boundary" inkscape:connector-curvature="0" />
	<path style="fill:none;stroke:red;stroke-width:1px;stroke-linecap:butt;stroke-linejoin:miter;stroke-opacity:1" d="M 647.694,179.115 652.504,187.775 z" id="boundary" inkscape:connector-curvature="0" />
	<path style="fill:none;stroke:red;stroke-width:1px;stroke-linecap:butt;stroke-linejoin:miter;stroke-opacity:1" d="M 649.618,319.593 656.353,327.29 z" id="boundary" inkscape:connector-curvature="0" />
	<path style="fill:none;stroke:red;stroke-width:1px;stroke-linecap:butt;stroke-linejoin:miter;stroke-opacity:1" d="M 652.504,187.775 654.429,197.397 z" id="boundary" inkscape:connector-curvature="0" />
	<path style="fill:none;stroke:red;stroke-width:1px;stroke-linecap:butt;stroke-linejoin:miter;stroke-opacity:1" d="M 654.429,197.397 659.24,206.056 z" id="boundary" inkscape:connector-curvature="0" />
	<path style="fill:none;stroke:red;stroke-width:1px;stroke-linecap:butt;stroke-linejoin:miter;stroke-opacity:1" d="M 656.353,327.29 665.975,327.29 z" id="boundary" inkscape:connector-curvature="0" />
	<path style="fill:none;stroke:red;stroke-width:1px;stroke-linecap:butt;stroke-linejoin:miter;stroke-opacity:1" d="M 659.24,206.056 668.861,206.056 z" id="boundary" inkscape:connector-curvature="0" />
	<path style="fill:none;stroke:red;stroke-width:1px;stroke-linecap:butt;stroke-linejoin:miter;stroke-opacity:1" d="M 665.975,327.29 675.597,327.29 z" id="boundary" inkscape:connector-curvature="0" />
	<path style="fill:none;stroke:red;stroke-width:1px;stroke-linecap:butt;stroke-linejoin:miter;stroke-opacity:1" d="M 668.861,206.056 678.483,206.056 z" id="boundary" inkscape:connector-curvature="0" />
	<path style="fill:none;stroke:red;stroke-width:1px;stroke-linecap:butt;stroke-linejoin:miter;stroke-opacity:1" d="M 675.597,327.29 685.218,327.29 z" id="boundary" inkscape:connector-curvature="0" />
	<path style="fill:none;stroke:red;stroke-width:1px;stroke-linecap:butt;stroke-linejoin:miter;stroke-opacity:1" d="M 685.218,327.29 694.84,327.29 z" id="boundary" inkscape:connector-curvature="0" />
	<path style="fill:none;stroke:red;stroke-width:1px;stroke-linecap:butt;stroke-linejoin:miter;stroke-opacity:1" d="M 694.84,327.29 704.462,327.29 z" id="boundary" inkscape:connector-curvature="0" />
	<path style="fill:none;stroke:red;stroke-width:1px;stroke-linecap:butt;stroke-linejoin:miter;stroke-opacity:1" d="M 704.462,327.29 714.083,327.29 z" id="boundary" inkscape:connector-curvature="0" />
	<path style="fill:none;stroke:red;stroke-width:1px;stroke-linecap:butt;stroke-linejoin:miter;stroke-opacity:1" d="M 706.386,156.023 711.197,146.402 z" id="boundary" inkscape:connector-curvature="0" />
	<path style="fill:none;stroke:red;stroke-width:1px;stroke-linecap:butt;stroke-linejoin:miter;stroke-opacity:1" d="M 711.197,146.402 718.894,138.704 z" id="boundary" inkscape:connector-curvature="0" />
	<path style="fill:none;stroke:red;stroke-width:1px;stroke-linecap:butt;stroke-linejoin:miter;stroke-opacity:1" d="M 714.083,327.29 723.705,327.29 z" id="boundary" inkscape:connector-curvature="0" />
	<path style="fill:none;stroke:red;stroke-width:1px;stroke-linecap:butt;stroke-linejoin:miter;stroke-opacity:1" d="M 723.705,327.29 733.327,327.29 z" id="boundary" inkscape:connector-curvature="0" />
	<path style="fill:none;stroke:red;stroke-width:1px;stroke-linecap:butt;stroke-linejoin:miter;stroke-opacity:1" d="M 733.327,327.29 741.024,334.025 z" id="boundary" inkscape:connector-curvature="0" />
	<path style="fill:none;stroke:red;stroke-width:1px;stroke-linecap:butt;stroke-linejoin:miter;stroke-opacity:1" d="M 740.062,83.8603 747.759,76.1629 z" id="boundary" inkscape:connector-curvature="0" />
	<path style="fill:none;stroke:red;stroke-width:1px;stroke-linecap:butt;stroke-linejoin:miter;stroke-opacity:1" d="M 741.024,334.025 744.873,343.647 z" id="boundary" inkscape:connector-curvature="0" />
	<path style="fill:none;stroke:red;stroke-width:1px;stroke-linecap:butt;stroke-linejoin:miter;stroke-opacity:1" d="M 744.873,343.647 749.684,352.306 z" id="boundary" inkscape:connector-curvature="0" />
	<path style="fill:none;stroke:red;stroke-width:1px;stroke-linecap:butt;stroke-linejoin:miter;stroke-opacity:1" d="M 747.759,76.1629 756.419,71.3521 z" id="boundary" inkscape:connector-curvature="0" />
	<path style="fill:none;stroke:red;stroke-width:1px;stroke-linecap:butt;stroke-linejoin:miter;stroke-opacity:1" d="M 749.684,352.306 754.495,360.966 z" id="boundary" inkscape:connector-curvature="0" />
	<path style="fill:none;stroke:red;stroke-width:1px;stroke-linecap:butt;stroke-linejoin:miter;stroke-opacity:1" d="M 754.495,360.966 759.306,369.626 z" id="boundary" inkscape:connector-curvature="0" />
	<path style="fill:none;stroke:red;stroke-width:1px;stroke-linecap:butt;stroke-linejoin:miter;stroke-opacity:1" d="M 756.419,71.3521 766.041,71.3521 z" id="boundary" inkscape:connector-curvature="0" />
	<path style="fill:none;stroke:red;stroke-width:1px;stroke-linecap:butt;stroke-linejoin:miter;stroke-opacity:1" d="M 759.306,369.626 765.079,377.323 z" id="boundary" inkscape:connector-curvature="0" />
	<path style="fill:none;stroke:red;stroke-width:1px;stroke-linecap:butt;stroke-linejoin:miter;stroke-opacity:1" d="M 765.079,377.323 771.814,385.02 z" id="boundary" inkscape:connector-curvature="0" />
	<path style="fill:none;stroke:red;stroke-width:1px;stroke-linecap:butt;stroke-linejoin:miter;stroke-opacity:1" d="M 766.041,71.3521 775.662,71.3521 z" id="boundary" inkscape:connector-curvature="0" />
	<path style="fill:none;stroke:red;stroke-width:1px;stroke-linecap:butt;stroke-linejoin:miter;stroke-opacity:1" d="M 771.814,385.02 780.473,389.831 z" id="boundary" inkscape:connector-curvature="0" />
	<path style="fill:none;stroke:red;stroke-width:1px;stroke-linecap:butt;stroke-linejoin:miter;stroke-opacity:1" d="M 775.662,71.3521 784.322,76.1629 z" id="boundary" inkscape:connector-curvature="0" />
	<path style="fill:none;stroke:red;stroke-width:1px;stroke-linecap:butt;stroke-linejoin:miter;stroke-opacity:1" d="M 780.473,389.831 789.133,394.642 z" id="boundary" inkscape:connector-curvature="0" />
	<path style="fill:none;stroke:red;stroke-width:1px;stroke-linecap:butt;stroke-linejoin:miter;stroke-opacity:1" d="M 784.322,76.1629 793.944,79.0495 z" id="boundary" inkscape:connector-curvature="0" />
	<path style="fill:none;stroke:red;stroke-width:1px;stroke-linecap:butt;stroke-linejoin:miter;stroke-opacity:1" d="M 789.133,394.642 797.792,399.453 z" id="boundary" inkscape:connector-curvature="0" />
	<path style="fill:none;stroke:red;stroke-width:1px;stroke-linecap:butt;stroke-linejoin:miter;stroke-opacity:1" d="M 793.944,79.0495 803.565,80.9738 z" id="boundary" inkscape:connector-curvature="0" />
	<path style="fill:none;stroke:red;stroke-width:1px;stroke-linecap:butt;stroke-linejoin:miter;stroke-opacity:1" d="M 797.792,399.453 807.414,399.453 z" id="boundary" inkscape:connector-curvature="0" />
	<path style="fill:none;stroke:red;stroke-width:1px;stroke-linecap:butt;stroke-linejoin:miter;stroke-opacity:1" d="M 803.565,80.9738 812.225,85.7847 z" id="boundary" inkscape:connector-curvature="0" />
	<path style="fill:none;stroke:red;stroke-width:1px;stroke-linecap:butt;stroke-linejoin:miter;stroke-opacity:1" d="M 807.414,399.453 817.036,399.453 z" id="boundary" inkscape:connector-curvature="0" />
	<path style="fill:none;stroke:red;stroke-width:1px;stroke-linecap:butt;stroke-linejoin:miter;stroke-opacity:1" d="M 812.225,85.7847 821.847,85.7847 z" id="boundary" inkscape:connector-curvature="0" />
	<path style="fill:none;stroke:red;stroke-width:1px;stroke-linecap:butt;stroke-linejoin:miter;stroke-opacity:1" d="M 817.036,399.453 826.658,399.453 z" id="boundary" inkscape:connector-curvature="0" />
	<path style="fill:none;stroke:red;stroke-width:1px;stroke-linecap:butt;stroke-linejoin:miter;stroke-opacity:1" d="M 821.847,85.7847 831.468,87.709 z" id="boundary" inkscape:connector-curvature="0" />
	<path style="fill:none;stroke:red;stroke-width:1px;stroke-linecap:butt;stroke-linejoin:miter;stroke-opacity:1" d="M 826.658,399.453 831.468,408.113 z" id="boundary" inkscape:connector-curvature="0" />
	<path style="fill:none;stroke:red;stroke-width:1px;stroke-linecap:butt;stroke-linejoin:miter;stroke-opacity:1" d="M 831.468,87.709 840.128,92.5199 z" id="boundary" inkscape:connector-curvature="0" />
	<path style="fill:none;stroke:red;stroke-width:1px;stroke-linecap:butt;stroke-linejoin:miter;stroke-opacity:1" d="M 831.468,408.113 836.279,416.772 z" id="boundary" inkscape:connector-curvature="0" />
	<path style="fill:none;stroke:red;stroke-width:1px;stroke-linecap:butt;stroke-linejoin:miter;stroke-opacity:1" d="M 836.279,416.772 841.09,425.432 z" id="boundary" inkscape:connector-curvature="0" />
	<path style="fill:none;stroke:red;stroke-width:1px;stroke-linecap:butt;stroke-linejoin:miter;stroke-opacity:1" d="M 840.128,92.5199 849.75,96.3686 z" id="boundary" inkscape:connector-curvature="0" />
	<path style="fill:none;stroke:red;stroke-width:1px;stroke-linecap:butt;stroke-linejoin:miter;stroke-opacity:1" d="M 841.09,425.432 848.788,432.167 z" id="boundary" inkscape:connector-curvature="0" />
	<path style="fill:none;stroke:red;stroke-width:1px;stroke-linecap:butt;stroke-linejoin:miter;stroke-opacity:1" d="M 848.788,432.167 852.636,441.789 z" id="boundary" inkscape:connector-curvature="0" />
	<path style="fill:none;stroke:red;stroke-width:1px;stroke-linecap:butt;stroke-linejoin:miter;stroke-opacity:1" d="M 849.75,96.3686 858.409,101.179 z" id="boundary" inkscape:connector-curvature="0" />
	<path style="fill:none;stroke:red;stroke-width:1px;stroke-linecap:butt;stroke-linejoin:miter;stroke-opacity:1" d="M 852.636,441.789 860.334,447.562 z" id="boundary" inkscape:connector-curvature="0" />
	<path style="fill:none;stroke:red;stroke-width:1px;stroke-linecap:butt;stroke-linejoin:miter;stroke-opacity:1" d="M 858.409,101.179 863.22,109.839 z" id="boundary" inkscape:connector-curvature="0" />
	<path style="fill:none;stroke:red;stroke-width:1px;stroke-linecap:butt;stroke-linejoin:miter;stroke-opacity:1" d="M 860.334,447.562 868.993,452.372 z" id="boundary" inkscape:connector-curvature="0" />
	<path style="fill:none;stroke:red;stroke-width:1px;stroke-linecap:butt;stroke-linejoin:miter;stroke-opacity:1" d="M 863.22,109.839 871.88,114.65 z" id="boundary" inkscape:connector-curvature="0" />
	<path style="fill:none;stroke:red;stroke-width:1px;stroke-linecap:butt;stroke-linejoin:miter;stroke-opacity:1" d="M 868.993,452.372 878.615,452.372 z" id="boundary" inkscape:connector-curvature="0" />
	<path style="fill:none;stroke:red;stroke-width:1px;stroke-linecap:butt;stroke-linejoin:miter;stroke-opacity:1" d="M 871.88,114.65 881.501,114.65 z" id="boundary" inkscape:connector-curvature="0" />
	<path style="fill:none;stroke:red;stroke-width:1px;stroke-linecap:butt;stroke-linejoin:miter;stroke-opacity:1" d="M 878.615,452.372 888.237,452.372 z" id="boundary" inkscape:connector-curvature="0" />
	<path style="fill:none;stroke:red;stroke-width:1px;stroke-linecap:butt;stroke-linejoin:miter;stroke-opacity:1" d="M 881.501,114.65 891.123,114.65 z" id="boundary" inkscape:connector-curvature="0" />
	<path style="fill:none;stroke:red;stroke-width:1px;stroke-linecap:butt;stroke-linejoin:miter;stroke-opacity:1" d="M 888.237,452.372 897.858,452.372 z" id="boundary" inkscape:connector-curvature="0" />
	<path style="fill:none;stroke:red;stroke-width:1px;stroke-linecap:butt;stroke-linejoin:miter;stroke-opacity:1" d="M 891.123,114.65 899.783,119.461 z" id="boundary" inkscape:connector-curvature="0" />
	<path style="fill:none;stroke:red;stroke-width:1px;stroke-linecap:butt;stroke-linejoin:miter;stroke-opacity:1" d="M 897.858,452.372 907.48,450.448 z" id="boundary" inkscape:connector-curvature="0" />
	<path style="fill:none;stroke:red;stroke-width:1px;stroke-linecap:butt;stroke-linejoin:miter;stroke-opacity:1" d="M 899.783,119.461 909.404,122.347 z" id="boundary" inkscape:connector-curvature="0" />
	<path style="fill:none;stroke:red;stroke-width:1px;stroke-linecap:butt;stroke-linejoin:miter;stroke-opacity:1" d="M 907.48,450.448 917.102,445.637 z" id="boundary" inkscape:connector-curvature="0" />
	<path style="fill:none;stroke:red;stroke-width:1px;stroke-linecap:butt;stroke-linejoin:miter;stroke-opacity:1" d="M 909.404,122.347 916.14,130.045 z" id="boundary" inkscape:connector-curvature="0" />
	<path style="fill:none;stroke:red;stroke-width:1px;stroke-linecap:butt;stroke-linejoin:miter;stroke-opacity:1" d="M 916.14,130.045 923.837,136.78 z" id="boundary" inkscape:connector-curvature="0" />
	<path style="fill:none;stroke:red;stroke-width:1px;stroke-linecap:butt;stroke-linejoin:miter;stroke-opacity:1" d="M 917.102,445.637 926.724,440.826 z" id="boundary" inkscape:connector-curvature="0" />
	<path style="fill:none;stroke:red;stroke-width:1px;stroke-linecap:butt;stroke-linejoin:miter;stroke-opacity:1" d="M 923.837,136.78 932.497,141.591 z" id="boundary" inkscape:connector-curvature="0" />
	<path style="fill:none;stroke:red;stroke-width:1px;stroke-linecap:butt;stroke-linejoin:miter;stroke-opacity:1" d="M 926.724,440.826 936.345,436.016 z" id="boundary" inkscape:connector-curvature="0" />
	<path style="fill:none;stroke:red;stroke-width:1px;stroke-linecap:butt;stroke-linejoin:miter;stroke-opacity:1" d="M 932.497,141.591 942.118,143.515 z" id="boundary" inkscape:connector-curvature="0" />
	<path style="fill:none;stroke:red;stroke-width:1px;stroke-linecap:butt;stroke-linejoin:miter;stroke-opacity:1" d="M 936.345,436.016 945.967,433.129 z" id="boundary" inkscape:connector-curvature="0" />
	<path style="fill:none;stroke:red;stroke-width:1px;stroke-linecap:butt;stroke-linejoin:miter;stroke-opacity:1" d="M 942.118,143.515 949.816,149.288 z" id="boundary" inkscape:connector-curvature="0" />
	<path style="fill:none;stroke:red;stroke-width:1px;stroke-linecap:butt;stroke-linejoin:miter;stroke-opacity:1" d="M 945.967,433.129 954.627,428.318 z" id="boundary" inkscape:connector-curvature="0" />
	<path style="fill:none;stroke:red;stroke-width:1px;stroke-linecap:butt;stroke-linejoin:miter;stroke-opacity:1" d="M 949.816,149.288 957.513,156.023 z" id="boundary" inkscape:connector-curvature="0" />
	<path style="fill:none;stroke:red;stroke-width:1px;stroke-linecap:butt;stroke-linejoin:miter;stroke-opacity:1" d="M 954.627,428.318 962.324,418.696 z" id="boundary" inkscape:connector-curvature="0" />
	<path style="fill:none;stroke:red;stroke-width:1px;stroke-linecap:butt;stroke-linejoin:miter;stroke-opacity:1" d="M 957.513,156.023 957.513,165.645 z" id="boundary" inkscape:connector-curvature="0" />
	<path style="fill:none;stroke:red;stroke-width:1px;stroke-linecap:butt;stroke-linejoin:miter;stroke-opacity:1" d="M 957.513,165.645 957.513,175.267 z" id="boundary" inkscape:connector-curvature="0" />
	<path style="fill:none;stroke:red;stroke-width:1px;stroke-linecap:butt;stroke-linejoin:miter;stroke-opacity:1" d="M 957.513,175.267 957.513,184.888 z" id="boundary" inkscape:connector-curvature="0" />
	<path style="fill:none;stroke:red;stroke-width:1px;stroke-linecap:butt;stroke-linejoin:miter;stroke-opacity:1" d="M 957.513,184.888 957.513,194.51 z" id="boundary" inkscape:connector-curvature="0" />
	<path style="fill:none;stroke:red;stroke-width:1px;stroke-linecap:butt;stroke-linejoin:miter;stroke-opacity:1" d="M 957.513,194.51 957.513,204.132 z" id="boundary" inkscape:connector-curvature="0" />
	<path style="fill:none;stroke:red;stroke-width:1px;stroke-linecap:butt;stroke-linejoin:miter;stroke-opacity:1" d="M 957.513,204.132 957.513,213.754 z" id="boundary" inkscape:connector-curvature="0" />
	<path style="fill:none;stroke:red;stroke-width:1px;stroke-linecap:butt;stroke-linejoin:miter;stroke-opacity:1" d="M 957.513,213.754 957.513,223.375 z" id="boundary" inkscape:connector-curvature="0" />
	<path style="fill:none;stroke:red;stroke-width:1px;stroke-linecap:butt;stroke-linejoin:miter;stroke-opacity:1" d="M 957.513,223.375 962.324,232.035 z" id="boundary" inkscape:connector-curvature="0" />
	<path style="fill:none;stroke:red;stroke-width:1px;stroke-linecap:butt;stroke-linejoin:miter;stroke-opacity:1" d="M 962.324,232.035 968.097,239.732 z" id="boundary" inkscape:connector-curvature="0" />
	<path style="fill:none;stroke:red;stroke-width:1px;stroke-linecap:butt;stroke-linejoin:miter;stroke-opacity:1" d="M 962.324,418.696 970.021,411.961 z" id="boundary" inkscape:connector-curvature="0" />
	<path style="fill:none;stroke:red;stroke-width:1px;stroke-linecap:butt;stroke-linejoin:miter;stroke-opacity:1" d="M 968.097,239.732 975.794,246.468 z" id="boundary" inkscape:connector-curvature="0" />
	<path style="fill:none;stroke:red;stroke-width:1px;stroke-linecap:butt;stroke-linejoin:miter;stroke-opacity:1" d="M 970.021,411.961 976.757,404.264 z" id="boundary" inkscape:connector-curvature="0" />
	<path style="fill:none;stroke:red;stroke-width:1px;stroke-linecap:butt;stroke-linejoin:miter;stroke-opacity:1" d="M 975.794,246.468 981.567,254.165 z" id="boundary" inkscape:connector-curvature="0" />
	<path style="fill:none;stroke:red;stroke-width:1px;stroke-linecap:butt;stroke-linejoin:miter;stroke-opacity:1" d="M 976.757,404.264 981.567,394.642 z" id="boundary" inkscape:connector-curvature="0" />
	<path style="fill:none;stroke:red;stroke-width:1px;stroke-linecap:butt;stroke-linejoin:miter;stroke-opacity:1" d="M 981.567,254.165 986.378,262.824 z" id="boundary" inkscape:connector-curvature="0" />
	<path style="fill:none;stroke:red;stroke-width:1px;stroke-linecap:butt;stroke-linejoin:miter;stroke-opacity:1" d="M 986.378,262.824 996,266.673 z" id="boundary" inkscape:connector-curvature="0" />
	<path style="fill:none;stroke:red;stroke-width:1px;stroke-linecap:butt;stroke-linejoin:miter;stroke-opacity:1" d="M 996,266.673 996,276.295 z" id="boundary" inkscape:connector-curvature="0" />
	<path style="fill:none;stroke:red;stroke-width:1px;stroke-linecap:butt;stroke-linejoin:miter;stroke-opacity:1" d="M 996,276.295 996,285.917 z" id="boundary" inkscape:connector-curvature="0" />
	<path style="fill:none;stroke:red;stroke-width:1px;stroke-linecap:butt;stroke-linejoin:miter;stroke-opacity:1" d="M 996,285.917 996,295.538 z" id="boundary" inkscape:connector-curvature="0" />
	<path style="fill:none;stroke:red;stroke-width:1px;stroke-linecap:butt;stroke-linejoin:miter;stroke-opacity:1" d="M 996,295.538 996,305.16 z" id="boundary" inkscape:connector-curvature="0" />
	<path style="fill:none;stroke:red;stroke-width:1px;stroke-linecap:butt;stroke-linejoin:miter;stroke-opacity:1" d="M 996,305.16 996,314.782 z" id="boundary" inkscape:connector-curvature="0" />
	<path style="fill:none;stroke:red;stroke-width:1px;stroke-linecap:butt;stroke-linejoin:miter;stroke-opacity:1" d="M 996,314.782 996,324.403 z" id="boundary" inkscape:connector-curvature="0" />
	<path style="fill:none;stroke:red;stroke-width:1px;stroke-linecap:butt;stroke-linejoin:miter;stroke-opacity:1" d="M 996,324.403 996,334.025 z" id="boundary" inkscape:connector-curvature="0" />
	<path style="fill:none;stroke:red;stroke-width:1px;stroke-linecap:butt;stroke-linejoin:miter;stroke-opacity:1" d="M 996,334.025 996,343.647 z" id="boundary" inkscape:connector-curvature="0" />
	<path style="fill:none;stroke:red;stroke-width:1px;stroke-linecap:butt;stroke-linejoin:miter;stroke-opacity:1" d="M 996,343.647 996,353.269 z" id="boundary" inkscape:connector-curvature="0" />
	<path style="fill:none;stroke:red;stroke-width:1px;stroke-linecap:butt;stroke-linejoin:miter;stroke-opacity:1" d="M 996,353.269 996,362.89 z" id="boundary" inkscape:connector-curvature="0" />
	<circle cx="4" cy="103.104" r="4" fill="#0" id="circle0"/>
	<circle cx="4" cy="112.726" r="4" fill="#0" id="circle1"/>
	<circle cx="4" cy="122.347" r="4" fill="#0" id="circle2"/>
	<circle cx="8.81086" cy="93.4821" r="4" fill="#0" id="circle3"/>
	<circle cx="8.81086" cy="131.007" r="4" fill="#0" id="circle4"/>
	<circle cx="8.81086" cy="140.629" r="4" fill="#0" id="circle5"/>
	<circle cx="13.6217" cy="149.288" r="4" fill="#0" id="circle6"/>
	<circle cx="16.5082" cy="85.7847" r="4" fill="#0" id="circle7"/>
	<circle cx="19.3948" cy="156.985" r="4" fill="#0" id="circle8"/>
	<circle cx="24.2056" cy="78.0873" r="4" fill="#0" id="circle9"/>
	<circle cx="29.0165" cy="68.4656" r="4" fill="#0" id="circle10"/>
	<circle cx="29.0165" cy="154.099" r="4" fill="#0" id="circle11"/>
	<circle cx="33.8274" cy="144.477" r="4" fill="#0" id="circle12"/>
	<circle cx="36.7139" cy="61.7304" r="4" fill="#0" id="circle13"/>
	<circle cx="38.6382" cy="130.045" r="4" fill="#0" id="circle14"/>
	<circle cx="43.4491" cy="54.033" r="4" fill="#0" id="circle15"/>
	<circle cx="43.4491" cy="120.423" r="4" fill="#0" id="circle16"/>
	<circle cx="52.1086" cy="115.612" r="4" fill="#0" id="circle17"/>
	<circle cx="52.1086" cy="125.234" r="4" fill="#0" id="circle18"/>
	<circle cx="53.0708" cy="49.2221" r="4" fill="#0" id="circle19"/>
	<circle cx="54.9952" cy="134.855" r="4" fill="#0" id="circle20"/>
	<circle cx="56.9195" cy="144.477" r="4" fill="#0" id="circle21"/>
	<circle cx="59.806" cy="154.099" r="4" fill="#0" id="circle22"/>
	<circle cx="61.7304" cy="163.721" r="4" fill="#0" id="circle23"/>
	<circle cx="62.6925" cy="47.2978" r="4" fill="#0" id="circle24"/>
	<circle cx="66.5412" cy="172.38" r="4" fill="#0" id="circle25"/>
	<circle cx="66.5412" cy="182.002" r="4" fill="#0" id="circle26"/>
	<circle cx="71.3521" cy="42.4869" r="4" fill="#0" id="circle27"/>
	<circle cx="71.3521" cy="190.661" r="4" fill="#0" id="circle28"/>
	<circle cx="72.3143" cy="200.283" r="4" fill="#0" id="circle29"/>
	<circle cx="77.1251" cy="208.943" r="4" fill="#0" id="circle30"/>
	<circle cx="80.9738" cy="44.4113" r="4" fill="#0" id="circle31"/>
	<circle cx="83.8603" cy="216.64" r="4" fill="#0" id="circle32"/>
	<circle cx="89.6334" cy="49.2221" r="4" fill="#0" id="circle33"/>
	<circle cx="91.5577" cy="223.375" r="4" fill="#0" id="circle34"/>
	<circle cx="94.4442" cy="57.8817" r="4" fill="#0" id="circle35"/>
	<circle cx="95.4064" cy="232.997" r="4" fill="#0" id="circle36"/>
	<circle cx="100.217" cy="382.134" r="4" fill="#0" id="circle37"/>
	<circle cx="101.179" cy="65.579" r="4" fill="#0" id="circle38"/>
	<circle cx="103.104" cy="239.732" r="4" fill="#0" id="circle39"/>
	<circle cx="105.028" cy="249.354" r="4" fill="#0" id="circle40"/>
	<circle cx="105.028" cy="258.976" r="4" fill="#0" id="circle41"/>
	<circle cx="105.028" cy="268.597" r="4" fill="#0" id="circle42"/>
	<circle cx="105.028" cy="278.219" r="4" fill="#0" id="circle43"/>
	<circle cx="105.028" cy="287.841" r="4" fill="#0" id="circle44"/>
	<circle cx="105.028" cy="297.463" r="4" fill="#0" id="circle45"/>
	<circle cx="105.028" cy="307.084" r="4" fill="#0" id="circle46"/>
	<circle cx="105.028" cy="316.706" r="4" fill="#0" id="circle47"/>
	<circle cx="105.028" cy="326.328" r="4" fill="#0" id="circle48"/>
	<circle cx="105.028" cy="335.95" r="4" fill="#0" id="circle49"/>
	<circle cx="105.028" cy="345.571" r="4" fill="#0" id="circle50"/>
	<circle cx="105.028" cy="355.193" r="4" fill="#0" id="circle51"/>
	<circle cx="105.028" cy="364.815" r="4" fill="#0" id="circle52"/>
	<circle cx="105.028" cy="390.793" r="4" fill="#0" id="circle53"/>
	<circle cx="108.877" cy="72.3143" r="4" fill="#0" id="circle54"/>
	<circle cx="114.65" cy="394.642" r="4" fill="#0" id="circle55"/>
	<circle cx="115.612" cy="80.0116" r="4" fill="#0" id="circle56"/>
	<circle cx="123.309" cy="86.7468" r="4" fill="#0" id="circle57"/>
	<circle cx="124.272" cy="391.756" r="4" fill="#0" id="circle58"/>
	<circle cx="130.045" cy="94.4442" r="4" fill="#0" id="circle59"/>
	<circle cx="133.893" cy="386.945" r="4" fill="#0" id="circle60"/>
	<circle cx="137.742" cy="101.179" r="4" fill="#0" id="circle61"/>
	<circle cx="141.591" cy="379.247" r="4" fill="#0" id="circle62"/>
	<circle cx="146.402" cy="105.99" r="4" fill="#0" id="circle63"/>
	<circle cx="146.402" cy="369.626" r="4" fill="#0" id="circle64"/>
	<circle cx="151.212" cy="360.004" r="4" fill="#0" id="circle65"/>
	<circle cx="154.099" cy="341.723" r="4" fill="#0" id="circle66"/>
	<circle cx="156.023" cy="109.839" r="4" fill="#0" id="circle67"/>
	<circle cx="158.91" cy="327.29" r="4" fill="#0" id="circle68"/>
	<circle cx="163.721" cy="303.236" r="4" fill="#0" id="circle69"/>
	<circle cx="163.721" cy="312.857" r="4" fill="#0" id="circle70"/>
	<circle cx="164.683" cy="114.65" r="4" fill="#0" id="circle71"/>
	<circle cx="171.418" cy="296.5" r="4" fill="#0" id="circle72"/>
	<circle cx="174.305" cy="114.65" r="4" fill="#0" id="circle73"/>
	<circle cx="176.229" cy="286.879" r="4" fill="#0" id="circle74"/>
	<circle cx="178.153" cy="274.371" r="4" fill="#0" id="circle75"/>
	<circle cx="182.964" cy="119.461" r="4" fill="#0" id="circle76"/>
	<circle cx="185.851" cy="267.635" r="4" fill="#0" id="circle77"/>
	<circle cx="192.586" cy="119.461" r="4" fill="#0" id="circle78"/>
	<circle cx="195.472" cy="262.824" r="4" fill="#0" id="circle79"/>
	<circle cx="202.208" cy="119.461" r="4" fill="#0" id="circle80"/>
	<circle cx="205.094" cy="259.938" r="4" fill="#0" id="circle81"/>
	<circle cx="211.829" cy="119.461" r="4" fill="#0" id="circle82"/>
	<circle cx="213.754" cy="254.165" r="4" fill="#0" id="circle83"/>
	<circle cx="221.451" cy="119.461" r="4" fill="#0" id="circle84"/>
	<circle cx="223.375" cy="250.316" r="4" fill="#0" id="circle85"/>
	<circle cx="231.073" cy="119.461" r="4" fill="#0" id="circle86"/>
	<circle cx="232.997" cy="250.316" r="4" fill="#0" id="circle87"/>
	<circle cx="240.694" cy="119.461" r="4" fill="#0" id="circle88"/>
	<circle cx="242.619" cy="250.316" r="4" fill="#0" id="circle89"/>
	<circle cx="250.316" cy="119.461" r="4" fill="#0" id="circle90"/>
	<circle cx="252.241" cy="250.316" r="4" fill="#0" id="circle91"/>
	<circle cx="259.938" cy="119.461" r="4" fill="#0" id="circle92"/>
	<circle cx="261.862" cy="250.316" r="4" fill="#0" id="circle93"/>
	<circle cx="268.597" cy="372.512" r="4" fill="#0" id="circle94"/>
	<circle cx="268.597" cy="382.134" r="4" fill="#0" id="circle95"/>
	<circle cx="268.597" cy="391.756" r="4" fill="#0" id="circle96"/>
	<circle cx="269.56" cy="119.461" r="4" fill="#0" id="circle97"/>
	<circle cx="271.484" cy="250.316" r="4" fill="#0" id="circle98"/>
	<circle cx="273.408" cy="362.89" r="4" fill="#0" id="circle99"/>
	<circle cx="276.295" cy="398.491" r="4" fill="#0" id="circle100"/>
	<circle cx="278.219" cy="124.272" r="4" fill="#0" id="circle101"/>
	<circle cx="281.106" cy="250.316" r="4" fill="#0" id="circle102"/>
	<circle cx="281.106" cy="355.193" r="4" fill="#0" id="circle103"/>
	<circle cx="283.992" cy="404.264" r="4" fill="#0" id="circle104"/>
	<circle cx="287.841" cy="124.272" r="4" fill="#0" id="circle105"/>
	<circle cx="287.841" cy="258.014" r="4" fill="#0" id="circle106"/>
	<circle cx="290.727" cy="350.382" r="4" fill="#0" id="circle107"/>
	<circle cx="292.652" cy="266.673" r="4" fill="#0" id="circle108"/>
	<circle cx="293.614" cy="404.264" r="4" fill="#0" id="circle109"/>
	<circle cx="297.463" cy="124.272" r="4" fill="#0" id="circle110"/>
	<circle cx="297.463" cy="275.333" r="4" fill="#0" id="circle111"/>
	<circle cx="297.463" cy="284.954" r="4" fill="#0" id="circle112"/>
	<circle cx="297.463" cy="294.576" r="4" fill="#0" id="circle113"/>
	<circle cx="297.463" cy="304.198" r="4" fill="#0" id="circle114"/>
	<circle cx="297.463" cy="313.82" r="4" fill="#0" id="circle115"/>
	<circle cx="297.463" cy="323.441" r="4" fill="#0" id="circle116"/>
	<circle cx="297.463" cy="333.063" r="4" fill="#0" id="circle117"/>
	<circle cx="297.463" cy="342.685" r="4" fill="#0" id="circle118"/>
	<circle cx="303.236" cy="404.264" r="4" fill="#0" id="circle119"/>
	<circle cx="307.084" cy="124.272" r="4" fill="#0" id="circle120"/>
	<circle cx="312.857" cy="404.264" r="4" fill="#0" id="circle121"/>
	<circle cx="316.706" cy="124.272" r="4" fill="#0" id="circle122"/>
	<circle cx="322.479" cy="404.264" r="4" fill="#0" id="circle123"/>
	<circle cx="326.328" cy="124.272" r="4" fill="#0" id="circle124"/>
	<circle cx="332.101" cy="404.264" r="4" fill="#0" id="circle125"/>
	<circle cx="335.95" cy="124.272" r="4" fill="#0" id="circle126"/>
	<circle cx="341.723" cy="404.264" r="4" fill="#0" id="circle127"/>
	<circle cx="345.571" cy="124.272" r="4" fill="#0" id="circle128"/>
	<circle cx="351.344" cy="399.453" r="4" fill="#0" id="circle129"/>
	<circle cx="355.193" cy="124.272" r="4" fill="#0" id="circle130"/>
	<circle cx="360.966" cy="399.453" r="4" fill="#0" id="circle131"/>
	<circle cx="363.853" cy="129.082" r="4" fill="#0" id="circle132"/>
	<circle cx="369.626" cy="394.642" r="4" fill="#0" id="circle133"/>
	<circle cx="372.512" cy="133.893" r="4" fill="#0" id="circle134"/>
	<circle cx="375.399" cy="143.515" r="4" fill="#0" id="circle135"/>
	<circle cx="377.323" cy="388.869" r="4" fill="#0" id="circle136"/>
	<circle cx="380.21" cy="283.992" r="4" fill="#0" id="circle137"/>
	<circle cx="380.21" cy="293.614" r="4" fill="#0" id="circle138"/>
	<circle cx="380.21" cy="303.236" r="4" fill="#0" id="circle139"/>
	<circle cx="380.21" cy="312.857" r="4" fill="#0" id="circle140"/>
	<circle cx="380.21" cy="322.479" r="4" fill="#0" id="circle141"/>
	<circle cx="380.21" cy="332.101" r="4" fill="#0" id="circle142"/>
	<circle cx="380.21" cy="341.723" r="4" fill="#0" id="circle143"/>
	<circle cx="380.21" cy="351.344" r="4" fill="#0" id="circle144"/>
	<circle cx="383.096" cy="149.288" r="4" fill="#0" id="circle145"/>
	<circle cx="385.02" cy="360.004" r="4" fill="#0" id="circle146"/>
	<circle cx="385.02" cy="369.626" r="4" fill="#0" id="circle147"/>
	<circle cx="385.02" cy="379.247" r="4" fill="#0" id="circle148"/>
	<circle cx="386.945" cy="158.91" r="4" fill="#0" id="circle149"/>
	<circle cx="389.831" cy="285.917" r="4" fill="#0" id="circle150"/>
	<circle cx="391.756" cy="167.569" r="4" fill="#0" id="circle151"/>
	<circle cx="394.642" cy="177.191" r="4" fill="#0" id="circle152"/>
	<circle cx="398.491" cy="290.727" r="4" fill="#0" id="circle153"/>
	<circle cx="399.453" cy="185.851" r="4" fill="#0" id="circle154"/>
	<circle cx="399.453" cy="195.472" r="4" fill="#0" id="circle155"/>
	<circle cx="404.264" cy="204.132" r="4" fill="#0" id="circle156"/>
	<circle cx="404.264" cy="213.754" r="4" fill="#0" id="circle157"/>
	<circle cx="404.264" cy="223.375" r="4" fill="#0" id="circle158"/>
	<circle cx="404.264" cy="232.997" r="4" fill="#0" id="circle159"/>
	<circle cx="408.113" cy="242.619" r="4" fill="#0" id="circle160"/>
	<circle cx="408.113" cy="293.614" r="4" fill="#0" id="circle161"/>
	<circle cx="412.923" cy="251.278" r="4" fill="#0" id="circle162"/>
	<circle cx="416.772" cy="298.425" r="4" fill="#0" id="circle163"/>
	<circle cx="422.545" cy="254.165" r="4" fill="#0" id="circle164"/>
	<circle cx="426.394" cy="298.425" r="4" fill="#0" id="circle165"/>
	<circle cx="432.167" cy="247.43" r="4" fill="#0" id="circle166"/>
	<circle cx="436.016" cy="298.425" r="4" fill="#0" id="circle167"/>
	<circle cx="436.978" cy="204.132" r="4" fill="#0" id="circle168"/>
	<circle cx="436.978" cy="213.754" r="4" fill="#0" id="circle169"/>
	<circle cx="436.978" cy="223.375" r="4" fill="#0" id="circle170"/>
	<circle cx="436.978" cy="232.997" r="4" fill="#0" id="circle171"/>
	<circle cx="441.789" cy="194.51" r="4" fill="#0" id="circle172"/>
	<circle cx="441.789" cy="306.122" r="4" fill="#0" id="circle173"/>
	<circle cx="446.599" cy="314.782" r="4" fill="#0" id="circle174"/>
	<circle cx="446.599" cy="324.403" r="4" fill="#0" id="circle175"/>
	<circle cx="446.599" cy="334.025" r="4" fill="#0" id="circle176"/>
	<circle cx="449.486" cy="186.813" r="4" fill="#0" id="circle177"/>
	<circle cx="451.41" cy="342.685" r="4" fill="#0" id="circle178"/>
	<circle cx="451.41" cy="352.306" r="4" fill="#0" id="circle179"/>
	<circle cx="451.41" cy="361.928" r="4" fill="#0" id="circle180"/>
	<circle cx="454.297" cy="177.191" r="4" fill="#0" id="circle181"/>
	<circle cx="456.221" cy="370.588" r="4" fill="#0" id="circle182"/>
	<circle cx="456.221" cy="380.21" r="4" fill="#0" id="circle183"/>
	<circle cx="459.108" cy="167.569" r="4" fill="#0" id="circle184"/>
	<circle cx="461.032" cy="388.869" r="4" fill="#0" id="circle185"/>
	<circle cx="462.956" cy="398.491" r="4" fill="#0" id="circle186"/>
	<circle cx="465.843" cy="156.023" r="4" fill="#0" id="circle187"/>
	<circle cx="467.767" cy="407.15" r="4" fill="#0" id="circle188"/>
	<circle cx="470.654" cy="146.402" r="4" fill="#0" id="circle189"/>
	<circle cx="475.465" cy="131.969" r="4" fill="#0" id="circle190"/>
	<circle cx="476.427" cy="411.961" r="4" fill="#0" id="circle191"/>
	<circle cx="480.275" cy="122.347" r="4" fill="#0" id="circle192"/>
	<circle cx="486.048" cy="413.886" r="4" fill="#0" id="circle193"/>
	<circle cx="487.973" cy="114.65" r="4" fill="#0" id="circle194"/>
	<circle cx="495.67" cy="413.886" r="4" fill="#0" id="circle195"/>
	<circle cx="496.632" cy="109.839" r="4" fill="#0" id="circle196"/>
	<circle cx="505.292" cy="105.028" r="4" fill="#0" id="circle197"/>
	<circle cx="505.292" cy="413.886" r="4" fill="#0" id="circle198"/>
	<circle cx="514.914" cy="102.142" r="4" fill="#0" id="circle199"/>
	<circle cx="514.914" cy="413.886" r="4" fill="#0" id="circle200"/>
	<circle cx="524.535" cy="100.217" r="4" fill="#0" id="circle201"/>
	<circle cx="524.535" cy="413.886" r="4" fill="#0" id="circle202"/>
	<circle cx="534.157" cy="100.217" r="4" fill="#0" id="circle203"/>
	<circle cx="534.157" cy="413.886" r="4" fill="#0" id="circle204"/>
	<circle cx="543.779" cy="100.217" r="4" fill="#0" id="circle205"/>
	<circle cx="543.779" cy="413.886" r="4" fill="#0" id="circle206"/>
	<circle cx="547.628" cy="11.6974" r="4" fill="#0" id="circle207"/>
	<circle cx="547.628" cy="21.3191" r="4" fill="#0" id="circle208"/>
	<circle cx="547.628" cy="30.9408" r="4" fill="#0" id="circle209"/>
	<circle cx="552.438" cy="39.6004" r="4" fill="#0" id="circle210"/>
	<circle cx="552.438" cy="49.2221" r="4" fill="#0" id="circle211"/>
	<circle cx="552.438" cy="58.8438" r="4" fill="#0" id="circle212"/>
	<circle cx="552.438" cy="68.4656" r="4" fill="#0" id="circle213"/>
	<circle cx="552.438" cy="78.0873" r="4" fill="#0" id="circle214"/>
	<circle cx="552.438" cy="87.709" r="4" fill="#0" id="circle215"/>
	<circle cx="552.438" cy="409.075" r="4" fill="#0" id="circle216"/>
	<circle cx="555.325" cy="4" r="4" fill="#0" id="circle217"/>
	<circle cx="560.136" cy="403.302" r="4" fill="#0" id="circle218"/>
	<circle cx="563.022" cy="245.505" r="4" fill="#0" id="circle219"/>
	<circle cx="563.022" cy="255.127" r="4" fill="#0" id="circle220"/>
	<circle cx="563.022" cy="264.749" r="4" fill="#0" id="circle221"/>
	<circle cx="564.947" cy="4" r="4" fill="#0" id="circle222"/>
	<circle cx="567.833" cy="235.884" r="4" fill="#0" id="circle223"/>
	<circle cx="567.833" cy="273.408" r="4" fill="#0" id="circle224"/>
	<circle cx="569.758" cy="398.491" r="4" fill="#0" id="circle225"/>
	<circle cx="571.682" cy="11.6974" r="4" fill="#0" id="circle226"/>
	<circle cx="575.531" cy="279.181" r="4" fill="#0" id="circle227"/>
	<circle cx="576.493" cy="20.3569" r="4" fill="#0" id="circle228"/>
	<circle cx="577.455" cy="235.884" r="4" fill="#0" id="circle229"/>
	<circle cx="577.455" cy="389.831" r="4" fill="#0" id="circle230"/>
	<circle cx="579.379" cy="288.803" r="4" fill="#0" id="circle231"/>
	<circle cx="580.341" cy="29.9787" r="4" fill="#0" id="circle232"/>
	<circle cx="585.152" cy="383.096" r="4" fill="#0" id="circle233"/>
	<circle cx="587.077" cy="37.676" r="4" fill="#0" id="circle234"/>
	<circle cx="587.077" cy="235.884" r="4" fill="#0" id="circle235"/>
	<circle cx="587.077" cy="295.538" r="4" fill="#0" id="circle236"/>
	<circle cx="591.887" cy="304.198" r="4" fill="#0" id="circle237"/>
	<circle cx="591.887" cy="375.399" r="4" fill="#0" id="circle238"/>
	<circle cx="594.774" cy="43.4491" r="4" fill="#0" id="circle239"/>
	<circle cx="596.698" cy="235.884" r="4" fill="#0" id="circle240"/>
	<circle cx="596.698" cy="312.857" r="4" fill="#0" id="circle241"/>
	<circle cx="596.698" cy="322.479" r="4" fill="#0" id="circle242"/>
	<circle cx="596.698" cy="332.101" r="4" fill="#0" id="circle243"/>
	<circle cx="596.698" cy="341.723" r="4" fill="#0" id="circle244"/>
	<circle cx="596.698" cy="351.344" r="4" fill="#0" id="circle245"/>
	<circle cx="596.698" cy="360.966" r="4" fill="#0" id="circle246"/>
	<circle cx="601.509" cy="51.1465" r="4" fill="#0" id="circle247"/>
	<circle cx="606.32" cy="59.806" r="4" fill="#0" id="circle248"/>
	<circle cx="606.32" cy="235.884" r="4" fill="#0" id="circle249"/>
	<circle cx="611.131" cy="68.4656" r="4" fill="#0" id="circle250"/>
	<circle cx="614.017" cy="78.0873" r="4" fill="#0" id="circle251"/>
	<circle cx="615.942" cy="87.709" r="4" fill="#0" id="circle252"/>
	<circle cx="615.942" cy="235.884" r="4" fill="#0" id="circle253"/>
	<circle cx="620.753" cy="96.3686" r="4" fill="#0" id="circle254"/>
	<circle cx="625.564" cy="105.028" r="4" fill="#0" id="circle255"/>
	<circle cx="625.564" cy="114.65" r="4" fill="#0" id="circle256"/>
	<circle cx="625.564" cy="237.808" r="4" fill="#0" id="circle257"/>
	<circle cx="629.412" cy="247.43" r="4" fill="#0" id="circle258"/>
	<circle cx="630.374" cy="123.309" r="4" fill="#0" id="circle259"/>
	<circle cx="630.374" cy="132.931" r="4" fill="#0" id="circle260"/>
	<circle cx="630.374" cy="142.553" r="4" fill="#0" id="circle261"/>
	<circle cx="634.223" cy="256.089" r="4" fill="#0" id="circle262"/>
	<circle cx="634.223" cy="265.711" r="4" fill="#0" id="circle263"/>
	<circle cx="634.223" cy="275.333" r="4" fill="#0" id="circle264"/>
	<circle cx="634.223" cy="284.954" r="4" fill="#0" id="circle265"/>
	<circle cx="635.185" cy="151.212" r="4" fill="#0" id="circle266"/>
	<circle cx="639.034" cy="160.834" r="4" fill="#0" id="circle267"/>
	<circle cx="639.034" cy="293.614" r="4" fill="#0" id="circle268"/>
	<circle cx="639.034" cy="303.236" r="4" fill="#0" id="circle269"/>
	<circle cx="643.845" cy="169.494" r="4" fill="#0" id="circle270"/>
	<circle cx="643.845" cy="311.895" r="4" fill="#0" id="circle271"/>
	<circle cx="647.694" cy="179.115" r="4" fill="#0" id="circle272"/>
	<circle cx="649.618" cy="319.593" r="4" fill="#0" id="circle273"/>
	<circle cx="652.504" cy="187.775" r="4" fill="#0" id="circle274"/>
	<circle cx="654.429" cy="197.397" r="4" fill="#0" id="circle275"/>
	<circle cx="656.353" cy="327.29" r="4" fill="#0" id="circle276"/>
	<circle cx="659.24" cy="206.056" r="4" fill="#0" id="circle277"/>
	<circle cx="665.975" cy="327.29" r="4" fill="#0" id="circle278"/>
	<circle cx="668.861" cy="206.056" r="4" fill="#0" id="circle279"/>
	<circle cx="675.597" cy="327.29" r="4" fill="#0" id="circle280"/>
	<circle cx="678.483" cy="206.056" r="4" fill="#0" id="circle281"/>
	<circle cx="685.218" cy="327.29" r="4" fill="#0" id="circle282"/>
	<circle cx="688.105" cy="203.17" r="4" fill="#0" id="circle283"/>
	<circle cx="691.953" cy="180.078" r="4" fill="#0" id="circle284"/>
	<circle cx="691.953" cy="189.699" r="4" fill="#0" id="circle285"/>
	<circle cx="694.84" cy="327.29" r="4" fill="#0" id="circle286"/>
	<circle cx="699.651" cy="172.38" r="4" fill="#0" id="circle287"/>
	<circle cx="704.462" cy="327.29" r="4" fill="#0" id="circle288"/>
	<circle cx="706.386" cy="156.023" r="4" fill="#0" id="circle289"/>
	<circle cx="711.197" cy="146.402" r="4" fill="#0" id="circle290"/>
	<circle cx="714.083" cy="327.29" r="4" fill="#0" id="circle291"/>
	<circle cx="718.894" cy="138.704" r="4" fill="#0" id="circle292"/>
	<circle cx="723.705" cy="327.29" r="4" fill="#0" id="circle293"/>
	<circle cx="727.554" cy="133.893" r="4" fill="#0" id="circle294"/>
	<circle cx="733.327" cy="327.29" r="4" fill="#0" id="circle295"/>
	<circle cx="735.251" cy="103.104" r="4" fill="#0" id="circle296"/>
	<circle cx="735.251" cy="112.726" r="4" fill="#0" id="circle297"/>
	<circle cx="735.251" cy="122.347" r="4" fill="#0" id="circle298"/>
	<circle cx="740.062" cy="83.8603" r="4" fill="#0" id="circle299"/>
	<circle cx="740.062" cy="93.4821" r="4" fill="#0" id="circle300"/>
	<circle cx="741.024" cy="334.025" r="4" fill="#0" id="circle301"/>
	<circle cx="744.873" cy="343.647" r="4" fill="#0" id="circle302"/>
	<circle cx="747.759" cy="76.1629" r="4" fill="#0" id="circle303"/>
	<circle cx="749.684" cy="352.306" r="4" fill="#0" id="circle304"/>
	<circle cx="754.495" cy="360.966" r="4" fill="#0" id="circle305"/>
	<circle cx="756.419" cy="71.3521" r="4" fill="#0" id="circle306"/>
	<circle cx="759.306" cy="369.626" r="4" fill="#0" id="circle307"/>
	<circle cx="765.079" cy="377.323" r="4" fill="#0" id="circle308"/>
	<circle cx="766.041" cy="71.3521" r="4" fill="#0" id="circle309"/>
	<circle cx="771.814" cy="385.02" r="4" fill="#0" id="circle310"/>
	<circle cx="775.662" cy="71.3521" r="4" fill="#0" id="circle311"/>
	<circle cx="780.473" cy="389.831" r="4" fill="#0" id="circle312"/>
	<circle cx="784.322" cy="76.1629" r="4" fill="#0" id="circle313"/>
	<circle cx="789.133" cy="394.642" r="4" fill="#0" id="circle314"/>
	<circle cx="793.944" cy="79.0495" r="4" fill="#0" id="circle315"/>
	<circle cx="797.792" cy="399.453" r="4" fill="#0" id="circle316"/>
	<circle cx="803.565" cy="80.9738" r="4" fill="#0" id="circle317"/>
	<circle cx="807.414" cy="399.453" r="4" fill="#0" id="circle318"/>
	<circle cx="812.225" cy="85.7847" r="4" fill="#0" id="circle319"/>
	<circle cx="817.036" cy="399.453" r="4" fill="#0" id="circle320"/>
	<circle cx="821.847" cy="85.7847" r="4" fill="#0" id="circle321"/>
	<circle cx="826.658" cy="399.453" r="4" fill="#0" id="circle322"/>
	<circle cx="831.468" cy="87.709" r="4" fill="#0" id="circle323"/>
	<circle cx="831.468" cy="408.113" r="4" fill="#0" id="circle324"/>
	<circle cx="836.279" cy="416.772" r="4" fill="#0" id="circle325"/>
	<circle cx="840.128" cy="92.5199" r="4" fill="#0" id="circle326"/>
	<circle cx="841.09" cy="425.432" r="4" fill="#0" id="circle327"/>
	<circle cx="848.788" cy="432.167" r="4" fill="#0" id="circle328"/>
	<circle cx="849.75" cy="96.3686" r="4" fill="#0" id="circle329"/>
	<circle cx="852.636" cy="441.789" r="4" fill="#0" id="circle330"/>
	<circle cx="858.409" cy="101.179" r="4" fill="#0" id="circle331"/>
	<circle cx="860.334" cy="447.562" r="4" fill="#0" id="circle332"/>
	<circle cx="863.22" cy="109.839" r="4" fill="#0" id="circle333"/>
	<circle cx="868.993" cy="452.372" r="4" fill="#0" id="circle334"/>
	<circle cx="871.88" cy="114.65" r="4" fill="#0" id="circle335"/>
	<circle cx="878.615" cy="452.372" r="4" fill="#0" id="circle336"/>
	<circle cx="881.501" cy="114.65" r="4" fill="#0" id="circle337"/>
	<circle cx="888.237" cy="452.372" r="4" fill="#0" id="circle338"/>
	<circle cx="891.123" cy="114.65" r="4" fill="#0" id="circle339"/>
	<circle cx="897.858" cy="452.372" r="4" fill="#0" id="circle340"/>
	<circle cx="899.783" cy="119.461" r="4" fill="#0" id="circle341"/>
	<circle cx="907.48" cy="450.448" r="4" fill="#0" id="circle342"/>
	<circle cx="909.404" cy="122.347" r="4" fill="#0" id="circle343"/>
	<circle cx="916.14" cy="130.045" r="4" fill="#0" id="circle344"/>
	<circle cx="917.102" cy="445.637" r="4" fill="#0" id="circle345"/>
	<circle cx="923.837" cy="136.78" r="4" fill="#0" id="circle346"/>
	<circle cx="926.724" cy="440.826" r="4" fill="#0" id="circle347"/>
	<circle cx="932.497" cy="141.591" r="4" fill="#0" id="circle348"/>
	<circle cx="936.345" cy="436.016" r="4" fill="#0" id="circle349"/>
	<circle cx="942.118" cy="143.515" r="4" fill="#0" id="circle350"/>
	<circle cx="945.967" cy="433.129" r="4" fill="#0" id="circle351"/>
	<circle cx="949.816" cy="149.288" r="4" fill="#0" id="circle352"/>
	<circle cx="954.627" cy="428.318" r="4" fill="#0" id="circle353"/>
	<circle cx="957.513" cy="156.023" r="4" fill="#0" id="circle354"/>
	<circle cx="957.513" cy="165.645" r="4" fill="#0" id="circle355"/>
	<circle cx="957.513" cy="175.267" r="4" fill="#0" id="circle356"/>
	<circle cx="957.513" cy="184.888" r="4" fill="#0" id="circle357"/>
	<circle cx="957.513" cy="194.51" r="4" fill="#0" id="circle358"/>
	<circle cx="957.513" cy="204.132" r="4" fill="#0" id="circle359"/>
	<circle cx="957.513" cy="213.754" r="4" fill="#0" id="circle360"/>
	<circle cx="957.513" cy="223.375" r="4" fill="#0" id="circle361"/>
	<circle cx="962.324" cy="232.035" r="4" fill="#0" id="circle362"/>
	<circle cx="962.324" cy="418.696" r="4" fill="#0" id="circle363"/>
	<circle cx="968.097" cy="239.732" r="4" fill="#0" id="circle364"/>
	<circle cx="970.021" cy="411.961" r="4" fill="#0" id="circle365"/>
	<circle cx="975.794" cy="246.468" r="4" fill="#0" id="circle366"/>
	<circle cx="976.757" cy="404.264" r="4" fill="#0" id="circle367"/>
	<circle cx="981.567" cy="254.165" r="4" fill="#0" id="circle368"/>
	<circle cx="981.567" cy="394.642" r="4" fill="#0" id="circle369"/>
	<circle cx="986.378" cy="262.824" r="4" fill="#0" id="circle370"/>
	<circle cx="989.265" cy="387.907" r="4" fill="#0" id="circle371"/>
	<circle cx="996" cy="266.673" r="4" fill="#0" id="circle372"/>
	<circle cx="996" cy="276.295" r="4" fill="#0" id="circle373"/>
	<circle cx="996" cy="285.917" r="4" fill="#0" id="circle374"/>
	<circle cx="996" cy="295.538" r="4" fill="#0" id="circle375"/>
	<circle cx="996" cy="305.16" r="4" fill="#0" id="circle376"/>
	<circle cx="996" cy="314.782" r="4" fill="#0" id="circle377"/>
	<circle cx="996" cy="324.403" r="4" fill="#0" id="circle378"/>
	<circle cx="996" cy="334.025" r="4" fill="#0" id="circle379"/>
	<circle cx="996" cy="343.647" r="4" fill="#0" id="circle380"/>
	<circle cx="996" cy="353.269" r="4" fill="#0" id="circle381"/>
	<circle cx="996" cy="362.89" r="4" fill="#0" id="circle382"/>
	<circle cx="996" cy="372.512" r="4" fill="#0" id="circle383"/>
	</g>
</svg>