<?xml version="1.0" encoding="UTF-8" standalone="no"?>
<!-- Created with CurveBenchmark -->
<svg
	xmlns:dc="http://purl.org/dc/elements/1.1/"
	xmlns:cc="http://creativecommons.org/ns#"
	xmlns:rdf="http://www.w3.org/1999/02/22-rdf-syntax-ns#"
	xmlns:svg="http://www.w3.org/2000/svg"
	xmlns="http://www.w3.org/2000/svg"
	xmlns:sodipodi="http://sodipodi.sourceforge.net/DTD/sodipodi-0.dtd"
	xmlns:inkscape="http://www.inkscape.org/namespaces/inkscape"
	width="1000"
	height="1000"
	id="svg2"
	version="1.1"
	sodipodi:docname="manifold/vicur-hammer38.png.txt">
<defs
	id="defs4" />
<metadata
	id="metadata7">
	<rdf:RDF>
		<cc:Work
			rdf:about="">
			<dc:format>image/svg+xml</dc:format>
			<dc:type
				rdf:resource="http://purl.org/dc/dcmitype/StillImage" />
			<dc:title></dc:title>
		</cc:Work>
	</rdf:RDF>
</metadata>
<g
	inkscape:label="Layer 1"
	inkscape:groupmode="layer"
	id="layer1">
	<path style="fill:none;stroke:red;stroke-width:1px;stroke-linecap:butt;stroke-linejoin:miter;stroke-opacity:1" d="M 4,367.325 14.2058,346.914 z" id="boundary" inkscape:connector-curvature="0" />
	<path style="fill:none;stroke:red;stroke-width:1px;stroke-linecap:butt;stroke-linejoin:miter;stroke-opacity:1" d="M 4,367.325 14.2058,385.695 z" id="boundary" inkscape:connector-curvature="0" />
	<path style="fill:none;stroke:red;stroke-width:1px;stroke-linecap:butt;stroke-linejoin:miter;stroke-opacity:1" d="M 14.2058,346.914 34.6173,340.79 z" id="boundary" inkscape:connector-curvature="0" />
	<path style="fill:none;stroke:red;stroke-width:1px;stroke-linecap:butt;stroke-linejoin:miter;stroke-opacity:1" d="M 14.2058,385.695 24.4115,404.066 z" id="boundary" inkscape:connector-curvature="0" />
	<path style="fill:none;stroke:red;stroke-width:1px;stroke-linecap:butt;stroke-linejoin:miter;stroke-opacity:1" d="M 24.4115,404.066 24.4115,424.477 z" id="boundary" inkscape:connector-curvature="0" />
	<path style="fill:none;stroke:red;stroke-width:1px;stroke-linecap:butt;stroke-linejoin:miter;stroke-opacity:1" d="M 24.4115,424.477 42.7819,434.683 z" id="boundary" inkscape:connector-curvature="0" />
	<path style="fill:none;stroke:red;stroke-width:1px;stroke-linecap:butt;stroke-linejoin:miter;stroke-opacity:1" d="M 34.6173,340.79 55.0288,336.708 z" id="boundary" inkscape:connector-curvature="0" />
	<path style="fill:none;stroke:red;stroke-width:1px;stroke-linecap:butt;stroke-linejoin:miter;stroke-opacity:1" d="M 42.7819,434.683 50.9465,455.095 z" id="boundary" inkscape:connector-curvature="0" />
	<path style="fill:none;stroke:red;stroke-width:1px;stroke-linecap:butt;stroke-linejoin:miter;stroke-opacity:1" d="M 50.9465,455.095 55.0288,475.506 z" id="boundary" inkscape:connector-curvature="0" />
	<path style="fill:none;stroke:red;stroke-width:1px;stroke-linecap:butt;stroke-linejoin:miter;stroke-opacity:1" d="M 55.0288,336.708 71.358,320.379 z" id="boundary" inkscape:connector-curvature="0" />
	<path style="fill:none;stroke:red;stroke-width:1px;stroke-linecap:butt;stroke-linejoin:miter;stroke-opacity:1" d="M 55.0288,475.506 67.2757,491.835 z" id="boundary" inkscape:connector-curvature="0" />
	<path style="fill:none;stroke:red;stroke-width:1px;stroke-linecap:butt;stroke-linejoin:miter;stroke-opacity:1" d="M 67.2757,491.835 77.4815,510.206 z" id="boundary" inkscape:connector-curvature="0" />
	<path style="fill:none;stroke:red;stroke-width:1px;stroke-linecap:butt;stroke-linejoin:miter;stroke-opacity:1" d="M 71.358,320.379 91.7695,310.173 z" id="boundary" inkscape:connector-curvature="0" />
	<path style="fill:none;stroke:red;stroke-width:1px;stroke-linecap:butt;stroke-linejoin:miter;stroke-opacity:1" d="M 77.4815,510.206 91.7695,526.535 z" id="boundary" inkscape:connector-curvature="0" />
	<path style="fill:none;stroke:red;stroke-width:1px;stroke-linecap:butt;stroke-linejoin:miter;stroke-opacity:1" d="M 91.7695,310.173 112.181,310.173 z" id="boundary" inkscape:connector-curvature="0" />
	<path style="fill:none;stroke:red;stroke-width:1px;stroke-linecap:butt;stroke-linejoin:miter;stroke-opacity:1" d="M 91.7695,526.535 95.8519,546.947 z" id="boundary" inkscape:connector-curvature="0" />
	<path style="fill:none;stroke:red;stroke-width:1px;stroke-linecap:butt;stroke-linejoin:miter;stroke-opacity:1" d="M 95.8519,546.947 106.058,565.317 z" id="boundary" inkscape:connector-curvature="0" />
	<path style="fill:none;stroke:red;stroke-width:1px;stroke-linecap:butt;stroke-linejoin:miter;stroke-opacity:1" d="M 106.058,565.317 118.305,581.646 z" id="boundary" inkscape:connector-curvature="0" />
	<path style="fill:none;stroke:red;stroke-width:1px;stroke-linecap:butt;stroke-linejoin:miter;stroke-opacity:1" d="M 112.181,310.173 130.551,320.379 z" id="boundary" inkscape:connector-curvature="0" />
	<path style="fill:none;stroke:red;stroke-width:1px;stroke-linecap:butt;stroke-linejoin:miter;stroke-opacity:1" d="M 118.305,581.646 126.469,602.058 z" id="boundary" inkscape:connector-curvature="0" />
	<path style="fill:none;stroke:red;stroke-width:1px;stroke-linecap:butt;stroke-linejoin:miter;stroke-opacity:1" d="M 126.469,602.058 136.675,620.428 z" id="boundary" inkscape:connector-curvature="0" />
	<path style="fill:none;stroke:red;stroke-width:1px;stroke-linecap:butt;stroke-linejoin:miter;stroke-opacity:1" d="M 130.551,320.379 150.963,320.379 z" id="boundary" inkscape:connector-curvature="0" />
	<path style="fill:none;stroke:red;stroke-width:1px;stroke-linecap:butt;stroke-linejoin:miter;stroke-opacity:1" d="M 136.675,620.428 146.881,638.798 z" id="boundary" inkscape:connector-curvature="0" />
	<path style="fill:none;stroke:red;stroke-width:1px;stroke-linecap:butt;stroke-linejoin:miter;stroke-opacity:1" d="M 146.881,638.798 159.128,655.128 z" id="boundary" inkscape:connector-curvature="0" />
	<path style="fill:none;stroke:red;stroke-width:1px;stroke-linecap:butt;stroke-linejoin:miter;stroke-opacity:1" d="M 150.963,320.379 171.374,312.214 z" id="boundary" inkscape:connector-curvature="0" />
	<path style="fill:none;stroke:red;stroke-width:1px;stroke-linecap:butt;stroke-linejoin:miter;stroke-opacity:1" d="M 159.128,655.128 175.457,667.374 z" id="boundary" inkscape:connector-curvature="0" />
	<path style="fill:none;stroke:red;stroke-width:1px;stroke-linecap:butt;stroke-linejoin:miter;stroke-opacity:1" d="M 171.374,312.214 187.704,324.461 z" id="boundary" inkscape:connector-curvature="0" />
	<path style="fill:none;stroke:red;stroke-width:1px;stroke-linecap:butt;stroke-linejoin:miter;stroke-opacity:1" d="M 175.457,667.374 204.033,679.621 z" id="boundary" inkscape:connector-curvature="0" />
	<path style="fill:none;stroke:red;stroke-width:1px;stroke-linecap:butt;stroke-linejoin:miter;stroke-opacity:1" d="M 187.704,324.461 199.951,340.79 z" id="boundary" inkscape:connector-curvature="0" />
	<path style="fill:none;stroke:red;stroke-width:1px;stroke-linecap:butt;stroke-linejoin:miter;stroke-opacity:1" d="M 195.868,659.21 204.033,679.621 z" id="boundary" inkscape:connector-curvature="0" />
	<path style="fill:none;stroke:red;stroke-width:1px;stroke-linecap:butt;stroke-linejoin:miter;stroke-opacity:1" d="M 195.868,659.21 220.362,659.21 z" id="boundary" inkscape:connector-curvature="0" />
	<path style="fill:none;stroke:red;stroke-width:1px;stroke-linecap:butt;stroke-linejoin:miter;stroke-opacity:1" d="M 199.951,340.79 216.28,353.037 z" id="boundary" inkscape:connector-curvature="0" />
	<path style="fill:none;stroke:red;stroke-width:1px;stroke-linecap:butt;stroke-linejoin:miter;stroke-opacity:1" d="M 216.28,353.037 220.362,373.449 z" id="boundary" inkscape:connector-curvature="0" />
	<path style="fill:none;stroke:red;stroke-width:1px;stroke-linecap:butt;stroke-linejoin:miter;stroke-opacity:1" d="M 220.362,373.449 240.774,381.613 z" id="boundary" inkscape:connector-curvature="0" />
	<path style="fill:none;stroke:red;stroke-width:1px;stroke-linecap:butt;stroke-linejoin:miter;stroke-opacity:1" d="M 220.362,659.21 238.733,649.004 z" id="boundary" inkscape:connector-curvature="0" />
	<path style="fill:none;stroke:red;stroke-width:1px;stroke-linecap:butt;stroke-linejoin:miter;stroke-opacity:1" d="M 238.733,649.004 259.144,642.881 z" id="boundary" inkscape:connector-curvature="0" />
	<path style="fill:none;stroke:red;stroke-width:1px;stroke-linecap:butt;stroke-linejoin:miter;stroke-opacity:1" d="M 240.774,381.613 259.144,367.325 z" id="boundary" inkscape:connector-curvature="0" />
	<path style="fill:none;stroke:red;stroke-width:1px;stroke-linecap:butt;stroke-linejoin:miter;stroke-opacity:1" d="M 259.144,367.325 279.556,357.119 z" id="boundary" inkscape:connector-curvature="0" />
	<path style="fill:none;stroke:red;stroke-width:1px;stroke-linecap:butt;stroke-linejoin:miter;stroke-opacity:1" d="M 259.144,642.881 279.556,638.798 z" id="boundary" inkscape:connector-curvature="0" />
	<path style="fill:none;stroke:red;stroke-width:1px;stroke-linecap:butt;stroke-linejoin:miter;stroke-opacity:1" d="M 279.556,357.119 299.967,346.914 z" id="boundary" inkscape:connector-curvature="0" />
	<path style="fill:none;stroke:red;stroke-width:1px;stroke-linecap:butt;stroke-linejoin:miter;stroke-opacity:1" d="M 279.556,638.798 299.967,632.675 z" id="boundary" inkscape:connector-curvature="0" />
	<path style="fill:none;stroke:red;stroke-width:1px;stroke-linecap:butt;stroke-linejoin:miter;stroke-opacity:1" d="M 299.967,346.914 320.379,340.79 z" id="boundary" inkscape:connector-curvature="0" />
	<path style="fill:none;stroke:red;stroke-width:1px;stroke-linecap:butt;stroke-linejoin:miter;stroke-opacity:1" d="M 299.967,632.675 316.296,616.346 z" id="boundary" inkscape:connector-curvature="0" />
	<path style="fill:none;stroke:red;stroke-width:1px;stroke-linecap:butt;stroke-linejoin:miter;stroke-opacity:1" d="M 316.296,616.346 326.502,597.975 z" id="boundary" inkscape:connector-curvature="0" />
	<path style="fill:none;stroke:red;stroke-width:1px;stroke-linecap:butt;stroke-linejoin:miter;stroke-opacity:1" d="M 320.379,340.79 338.749,330.584 z" id="boundary" inkscape:connector-curvature="0" />
	<path style="fill:none;stroke:red;stroke-width:1px;stroke-linecap:butt;stroke-linejoin:miter;stroke-opacity:1" d="M 322.42,434.683 322.42,455.095 z" id="boundary" inkscape:connector-curvature="0" />
	<path style="fill:none;stroke:red;stroke-width:1px;stroke-linecap:butt;stroke-linejoin:miter;stroke-opacity:1" d="M 322.42,434.683 342.831,434.683 z" id="boundary" inkscape:connector-curvature="0" />
	<path style="fill:none;stroke:red;stroke-width:1px;stroke-linecap:butt;stroke-linejoin:miter;stroke-opacity:1" d="M 322.42,455.095 322.42,475.506 z" id="boundary" inkscape:connector-curvature="0" />
	<path style="fill:none;stroke:red;stroke-width:1px;stroke-linecap:butt;stroke-linejoin:miter;stroke-opacity:1" d="M 322.42,475.506 322.42,495.918 z" id="boundary" inkscape:connector-curvature="0" />
	<path style="fill:none;stroke:red;stroke-width:1px;stroke-linecap:butt;stroke-linejoin:miter;stroke-opacity:1" d="M 322.42,495.918 322.42,516.329 z" id="boundary" inkscape:connector-curvature="0" />
	<path style="fill:none;stroke:red;stroke-width:1px;stroke-linecap:butt;stroke-linejoin:miter;stroke-opacity:1" d="M 322.42,516.329 322.42,536.741 z" id="boundary" inkscape:connector-curvature="0" />
	<path style="fill:none;stroke:red;stroke-width:1px;stroke-linecap:butt;stroke-linejoin:miter;stroke-opacity:1" d="M 322.42,536.741 322.42,557.152 z" id="boundary" inkscape:connector-curvature="0" />
	<path style="fill:none;stroke:red;stroke-width:1px;stroke-linecap:butt;stroke-linejoin:miter;stroke-opacity:1" d="M 322.42,557.152 322.42,577.564 z" id="boundary" inkscape:connector-curvature="0" />
	<path style="fill:none;stroke:red;stroke-width:1px;stroke-linecap:butt;stroke-linejoin:miter;stroke-opacity:1" d="M 322.42,577.564 326.502,597.975 z" id="boundary" inkscape:connector-curvature="0" />
	<path style="fill:none;stroke:red;stroke-width:1px;stroke-linecap:butt;stroke-linejoin:miter;stroke-opacity:1" d="M 338.749,330.584 350.996,306.091 z" id="boundary" inkscape:connector-curvature="0" />
	<path style="fill:none;stroke:red;stroke-width:1px;stroke-linecap:butt;stroke-linejoin:miter;stroke-opacity:1" d="M 342.831,434.683 363.243,434.683 z" id="boundary" inkscape:connector-curvature="0" />
	<path style="fill:none;stroke:red;stroke-width:1px;stroke-linecap:butt;stroke-linejoin:miter;stroke-opacity:1" d="M 350.996,306.091 371.407,295.885 z" id="boundary" inkscape:connector-curvature="0" />
	<path style="fill:none;stroke:red;stroke-width:1px;stroke-linecap:butt;stroke-linejoin:miter;stroke-opacity:1" d="M 363.243,434.683 383.654,424.477 z" id="boundary" inkscape:connector-curvature="0" />
	<path style="fill:none;stroke:red;stroke-width:1px;stroke-linecap:butt;stroke-linejoin:miter;stroke-opacity:1" d="M 371.407,295.885 391.819,275.473 z" id="boundary" inkscape:connector-curvature="0" />
	<path style="fill:none;stroke:red;stroke-width:1px;stroke-linecap:butt;stroke-linejoin:miter;stroke-opacity:1" d="M 383.654,424.477 404.066,414.272 z" id="boundary" inkscape:connector-curvature="0" />
	<path style="fill:none;stroke:red;stroke-width:1px;stroke-linecap:butt;stroke-linejoin:miter;stroke-opacity:1" d="M 391.819,275.473 412.23,265.267 z" id="boundary" inkscape:connector-curvature="0" />
	<path style="fill:none;stroke:red;stroke-width:1px;stroke-linecap:butt;stroke-linejoin:miter;stroke-opacity:1" d="M 404.066,414.272 424.477,404.066 z" id="boundary" inkscape:connector-curvature="0" />
	<path style="fill:none;stroke:red;stroke-width:1px;stroke-linecap:butt;stroke-linejoin:miter;stroke-opacity:1" d="M 412.23,265.267 432.642,259.144 z" id="boundary" inkscape:connector-curvature="0" />
	<path style="fill:none;stroke:red;stroke-width:1px;stroke-linecap:butt;stroke-linejoin:miter;stroke-opacity:1" d="M 424.477,404.066 444.889,404.066 z" id="boundary" inkscape:connector-curvature="0" />
	<path style="fill:none;stroke:red;stroke-width:1px;stroke-linecap:butt;stroke-linejoin:miter;stroke-opacity:1" d="M 432.642,259.144 444.889,242.815 z" id="boundary" inkscape:connector-curvature="0" />
	<path style="fill:none;stroke:red;stroke-width:1px;stroke-linecap:butt;stroke-linejoin:miter;stroke-opacity:1" d="M 444.889,242.815 465.3,232.609 z" id="boundary" inkscape:connector-curvature="0" />
	<path style="fill:none;stroke:red;stroke-width:1px;stroke-linecap:butt;stroke-linejoin:miter;stroke-opacity:1" d="M 444.889,404.066 465.3,404.066 z" id="boundary" inkscape:connector-curvature="0" />
	<path style="fill:none;stroke:red;stroke-width:1px;stroke-linecap:butt;stroke-linejoin:miter;stroke-opacity:1" d="M 465.3,232.609 481.63,218.321 z" id="boundary" inkscape:connector-curvature="0" />
	<path style="fill:none;stroke:red;stroke-width:1px;stroke-linecap:butt;stroke-linejoin:miter;stroke-opacity:1" d="M 465.3,404.066 483.671,393.86 z" id="boundary" inkscape:connector-curvature="0" />
	<path style="fill:none;stroke:red;stroke-width:1px;stroke-linecap:butt;stroke-linejoin:miter;stroke-opacity:1" d="M 481.63,218.321 502.041,218.321 z" id="boundary" inkscape:connector-curvature="0" />
	<path style="fill:none;stroke:red;stroke-width:1px;stroke-linecap:butt;stroke-linejoin:miter;stroke-opacity:1" d="M 483.671,393.86 504.082,393.86 z" id="boundary" inkscape:connector-curvature="0" />
	<path style="fill:none;stroke:red;stroke-width:1px;stroke-linecap:butt;stroke-linejoin:miter;stroke-opacity:1" d="M 502.041,218.321 516.329,201.992 z" id="boundary" inkscape:connector-curvature="0" />
	<path style="fill:none;stroke:red;stroke-width:1px;stroke-linecap:butt;stroke-linejoin:miter;stroke-opacity:1" d="M 504.082,393.86 524.494,387.737 z" id="boundary" inkscape:connector-curvature="0" />
	<path style="fill:none;stroke:red;stroke-width:1px;stroke-linecap:butt;stroke-linejoin:miter;stroke-opacity:1" d="M 516.329,201.992 536.741,191.786 z" id="boundary" inkscape:connector-curvature="0" />
	<path style="fill:none;stroke:red;stroke-width:1px;stroke-linecap:butt;stroke-linejoin:miter;stroke-opacity:1" d="M 524.494,387.737 544.905,383.654 z" id="boundary" inkscape:connector-curvature="0" />
	<path style="fill:none;stroke:red;stroke-width:1px;stroke-linecap:butt;stroke-linejoin:miter;stroke-opacity:1" d="M 536.741,191.786 557.152,181.58 z" id="boundary" inkscape:connector-curvature="0" />
	<path style="fill:none;stroke:red;stroke-width:1px;stroke-linecap:butt;stroke-linejoin:miter;stroke-opacity:1" d="M 544.905,383.654 557.152,363.243 z" id="boundary" inkscape:connector-curvature="0" />
	<path style="fill:none;stroke:red;stroke-width:1px;stroke-linecap:butt;stroke-linejoin:miter;stroke-opacity:1" d="M 557.152,181.58 575.523,153.004 z" id="boundary" inkscape:connector-curvature="0" />
	<path style="fill:none;stroke:red;stroke-width:1px;stroke-linecap:butt;stroke-linejoin:miter;stroke-opacity:1" d="M 557.152,363.243 573.481,348.955 z" id="boundary" inkscape:connector-curvature="0" />
	<path style="fill:none;stroke:red;stroke-width:1px;stroke-linecap:butt;stroke-linejoin:miter;stroke-opacity:1" d="M 573.481,348.955 593.893,338.749 z" id="boundary" inkscape:connector-curvature="0" />
	<path style="fill:none;stroke:red;stroke-width:1px;stroke-linecap:butt;stroke-linejoin:miter;stroke-opacity:1" d="M 575.523,153.004 595.934,157.086 z" id="boundary" inkscape:connector-curvature="0" />
	<path style="fill:none;stroke:red;stroke-width:1px;stroke-linecap:butt;stroke-linejoin:miter;stroke-opacity:1" d="M 593.893,338.749 606.14,322.42 z" id="boundary" inkscape:connector-curvature="0" />
	<path style="fill:none;stroke:red;stroke-width:1px;stroke-linecap:butt;stroke-linejoin:miter;stroke-opacity:1" d="M 595.934,157.086 614.305,146.881 z" id="boundary" inkscape:connector-curvature="0" />
	<path style="fill:none;stroke:red;stroke-width:1px;stroke-linecap:butt;stroke-linejoin:miter;stroke-opacity:1" d="M 606.14,322.42 622.469,310.173 z" id="boundary" inkscape:connector-curvature="0" />
	<path style="fill:none;stroke:red;stroke-width:1px;stroke-linecap:butt;stroke-linejoin:miter;stroke-opacity:1" d="M 614.305,146.881 632.675,136.675 z" id="boundary" inkscape:connector-curvature="0" />
	<path style="fill:none;stroke:red;stroke-width:1px;stroke-linecap:butt;stroke-linejoin:miter;stroke-opacity:1" d="M 622.469,310.173 642.881,299.967 z" id="boundary" inkscape:connector-curvature="0" />
	<path style="fill:none;stroke:red;stroke-width:1px;stroke-linecap:butt;stroke-linejoin:miter;stroke-opacity:1" d="M 632.675,136.675 653.086,136.675 z" id="boundary" inkscape:connector-curvature="0" />
	<path style="fill:none;stroke:red;stroke-width:1px;stroke-linecap:butt;stroke-linejoin:miter;stroke-opacity:1" d="M 642.881,299.967 663.292,291.802 z" id="boundary" inkscape:connector-curvature="0" />
	<path style="fill:none;stroke:red;stroke-width:1px;stroke-linecap:butt;stroke-linejoin:miter;stroke-opacity:1" d="M 653.086,136.675 673.498,126.469 z" id="boundary" inkscape:connector-curvature="0" />
	<path style="fill:none;stroke:red;stroke-width:1px;stroke-linecap:butt;stroke-linejoin:miter;stroke-opacity:1" d="M 663.292,291.802 681.663,281.597 z" id="boundary" inkscape:connector-curvature="0" />
	<path style="fill:none;stroke:red;stroke-width:1px;stroke-linecap:butt;stroke-linejoin:miter;stroke-opacity:1" d="M 673.498,126.469 693.909,126.469 z" id="boundary" inkscape:connector-curvature="0" />
	<path style="fill:none;stroke:red;stroke-width:1px;stroke-linecap:butt;stroke-linejoin:miter;stroke-opacity:1" d="M 681.663,281.597 700.033,271.391 z" id="boundary" inkscape:connector-curvature="0" />
	<path style="fill:none;stroke:red;stroke-width:1px;stroke-linecap:butt;stroke-linejoin:miter;stroke-opacity:1" d="M 693.909,126.469 714.321,126.469 z" id="boundary" inkscape:connector-curvature="0" />
	<path style="fill:none;stroke:red;stroke-width:1px;stroke-linecap:butt;stroke-linejoin:miter;stroke-opacity:1" d="M 700.033,271.391 720.444,271.391 z" id="boundary" inkscape:connector-curvature="0" />
	<path style="fill:none;stroke:red;stroke-width:1px;stroke-linecap:butt;stroke-linejoin:miter;stroke-opacity:1" d="M 714.321,126.469 728.609,101.975 z" id="boundary" inkscape:connector-curvature="0" />
	<path style="fill:none;stroke:red;stroke-width:1px;stroke-linecap:butt;stroke-linejoin:miter;stroke-opacity:1" d="M 720.444,271.391 738.815,261.185 z" id="boundary" inkscape:connector-curvature="0" />
	<path style="fill:none;stroke:red;stroke-width:1px;stroke-linecap:butt;stroke-linejoin:miter;stroke-opacity:1" d="M 728.609,101.975 744.938,85.6461 z" id="boundary" inkscape:connector-curvature="0" />
	<path style="fill:none;stroke:red;stroke-width:1px;stroke-linecap:butt;stroke-linejoin:miter;stroke-opacity:1" d="M 738.815,261.185 759.226,255.062 z" id="boundary" inkscape:connector-curvature="0" />
	<path style="fill:none;stroke:red;stroke-width:1px;stroke-linecap:butt;stroke-linejoin:miter;stroke-opacity:1" d="M 744.938,85.6461 765.35,85.6461 z" id="boundary" inkscape:connector-curvature="0" />
	<path style="fill:none;stroke:red;stroke-width:1px;stroke-linecap:butt;stroke-linejoin:miter;stroke-opacity:1" d="M 759.226,255.062 769.432,234.65 z" id="boundary" inkscape:connector-curvature="0" />
	<path style="fill:none;stroke:red;stroke-width:1px;stroke-linecap:butt;stroke-linejoin:miter;stroke-opacity:1" d="M 765.35,85.6461 785.761,85.6461 z" id="boundary" inkscape:connector-curvature="0" />
	<path style="fill:none;stroke:red;stroke-width:1px;stroke-linecap:butt;stroke-linejoin:miter;stroke-opacity:1" d="M 769.432,234.65 785.761,220.362 z" id="boundary" inkscape:connector-curvature="0" />
	<path style="fill:none;stroke:red;stroke-width:1px;stroke-linecap:butt;stroke-linejoin:miter;stroke-opacity:1" d="M 785.761,85.6461 806.173,75.4403 z" id="boundary" inkscape:connector-curvature="0" />
	<path style="fill:none;stroke:red;stroke-width:1px;stroke-linecap:butt;stroke-linejoin:miter;stroke-opacity:1" d="M 785.761,220.362 806.173,220.362 z" id="boundary" inkscape:connector-curvature="0" />
	<path style="fill:none;stroke:red;stroke-width:1px;stroke-linecap:butt;stroke-linejoin:miter;stroke-opacity:1" d="M 806.173,75.4403 822.502,59.1111 z" id="boundary" inkscape:connector-curvature="0" />
	<path style="fill:none;stroke:red;stroke-width:1px;stroke-linecap:butt;stroke-linejoin:miter;stroke-opacity:1" d="M 806.173,220.362 826.584,218.321 z" id="boundary" inkscape:connector-curvature="0" />
	<path style="fill:none;stroke:red;stroke-width:1px;stroke-linecap:butt;stroke-linejoin:miter;stroke-opacity:1" d="M 822.502,59.1111 838.831,44.823 z" id="boundary" inkscape:connector-curvature="0" />
	<path style="fill:none;stroke:red;stroke-width:1px;stroke-linecap:butt;stroke-linejoin:miter;stroke-opacity:1" d="M 826.584,218.321 842.914,199.951 z" id="boundary" inkscape:connector-curvature="0" />
	<path style="fill:none;stroke:red;stroke-width:1px;stroke-linecap:butt;stroke-linejoin:miter;stroke-opacity:1" d="M 838.831,44.823 857.202,34.6173 z" id="boundary" inkscape:connector-curvature="0" />
	<path style="fill:none;stroke:red;stroke-width:1px;stroke-linecap:butt;stroke-linejoin:miter;stroke-opacity:1" d="M 842.914,199.951 853.119,179.539 z" id="boundary" inkscape:connector-curvature="0" />
	<path style="fill:none;stroke:red;stroke-width:1px;stroke-linecap:butt;stroke-linejoin:miter;stroke-opacity:1" d="M 853.119,179.539 873.531,179.539 z" id="boundary" inkscape:connector-curvature="0" />
	<path style="fill:none;stroke:red;stroke-width:1px;stroke-linecap:butt;stroke-linejoin:miter;stroke-opacity:1" d="M 857.202,34.6173 875.572,24.4115 z" id="boundary" inkscape:connector-curvature="0" />
	<path style="fill:none;stroke:red;stroke-width:1px;stroke-linecap:butt;stroke-linejoin:miter;stroke-opacity:1" d="M 873.531,179.539 893.942,179.539 z" id="boundary" inkscape:connector-curvature="0" />
	<path style="fill:none;stroke:red;stroke-width:1px;stroke-linecap:butt;stroke-linejoin:miter;stroke-opacity:1" d="M 875.572,24.4115 891.901,10.1235 z" id="boundary" inkscape:connector-curvature="0" />
	<path style="fill:none;stroke:red;stroke-width:1px;stroke-linecap:butt;stroke-linejoin:miter;stroke-opacity:1" d="M 891.901,10.1235 912.313,4 z" id="boundary" inkscape:connector-curvature="0" />
	<path style="fill:none;stroke:red;stroke-width:1px;stroke-linecap:butt;stroke-linejoin:miter;stroke-opacity:1" d="M 893.942,179.539 914.354,169.333 z" id="boundary" inkscape:connector-curvature="0" />
	<path style="fill:none;stroke:red;stroke-width:1px;stroke-linecap:butt;stroke-linejoin:miter;stroke-opacity:1" d="M 912.313,4 932.724,4 z" id="boundary" inkscape:connector-curvature="0" />
	<path style="fill:none;stroke:red;stroke-width:1px;stroke-linecap:butt;stroke-linejoin:miter;stroke-opacity:1" d="M 914.354,169.333 934.765,159.128 z" id="boundary" inkscape:connector-curvature="0" />
	<path style="fill:none;stroke:red;stroke-width:1px;stroke-linecap:butt;stroke-linejoin:miter;stroke-opacity:1" d="M 932.724,4 953.136,8.0823 z" id="boundary" inkscape:connector-curvature="0" />
	<path style="fill:none;stroke:red;stroke-width:1px;stroke-linecap:butt;stroke-linejoin:miter;stroke-opacity:1" d="M 934.765,159.128 953.136,148.922 z" id="boundary" inkscape:connector-curvature="0" />
	<path style="fill:none;stroke:red;stroke-width:1px;stroke-linecap:butt;stroke-linejoin:miter;stroke-opacity:1" d="M 953.136,8.0823 965.383,24.4115 z" id="boundary" inkscape:connector-curvature="0" />
	<path style="fill:none;stroke:red;stroke-width:1px;stroke-linecap:butt;stroke-linejoin:miter;stroke-opacity:1" d="M 953.136,148.922 971.506,138.716 z" id="boundary" inkscape:connector-curvature="0" />
	<path style="fill:none;stroke:red;stroke-width:1px;stroke-linecap:butt;stroke-linejoin:miter;stroke-opacity:1" d="M 965.383,24.4115 965.383,44.823 z" id="boundary" inkscape:connector-curvature="0" />
	<path style="fill:none;stroke:red;stroke-width:1px;stroke-linecap:butt;stroke-linejoin:miter;stroke-opacity:1" d="M 965.383,44.823 975.588,63.1934 z" id="boundary" inkscape:connector-curvature="0" />
	<path style="fill:none;stroke:red;stroke-width:1px;stroke-linecap:butt;stroke-linejoin:miter;stroke-opacity:1" d="M 971.506,138.716 989.877,126.469 z" id="boundary" inkscape:connector-curvature="0" />
	<path style="fill:none;stroke:red;stroke-width:1px;stroke-linecap:butt;stroke-linejoin:miter;stroke-opacity:1" d="M 975.588,63.1934 985.794,81.5638 z" id="boundary" inkscape:connector-curvature="0" />
	<path style="fill:none;stroke:red;stroke-width:1px;stroke-linecap:butt;stroke-linejoin:miter;stroke-opacity:1" d="M 985.794,81.5638 996,99.9342 z" id="boundary" inkscape:connector-curvature="0" />
	<path style="fill:none;stroke:red;stroke-width:1px;stroke-linecap:butt;stroke-linejoin:miter;stroke-opacity:1" d="M 989.877,126.469 996,99.9342 z" id="boundary" inkscape:connector-curvature="0" />
	<circle cx="4" cy="367.325" r="4" fill="#0" id="circle0"/>
	<circle cx="14.2058" cy="346.914" r="4" fill="#0" id="circle1"/>
	<circle cx="14.2058" cy="385.695" r="4" fill="#0" id="circle2"/>
	<circle cx="24.4115" cy="404.066" r="4" fill="#0" id="circle3"/>
	<circle cx="24.4115" cy="424.477" r="4" fill="#0" id="circle4"/>
	<circle cx="34.6173" cy="340.79" r="4" fill="#0" id="circle5"/>
	<circle cx="42.7819" cy="434.683" r="4" fill="#0" id="circle6"/>
	<circle cx="50.9465" cy="455.095" r="4" fill="#0" id="circle7"/>
	<circle cx="55.0288" cy="336.708" r="4" fill="#0" id="circle8"/>
	<circle cx="55.0288" cy="475.506" r="4" fill="#0" id="circle9"/>
	<circle cx="67.2757" cy="491.835" r="4" fill="#0" id="circle10"/>
	<circle cx="71.358" cy="320.379" r="4" fill="#0" id="circle11"/>
	<circle cx="77.4815" cy="510.206" r="4" fill="#0" id="circle12"/>
	<circle cx="91.7695" cy="310.173" r="4" fill="#0" id="circle13"/>
	<circle cx="91.7695" cy="526.535" r="4" fill="#0" id="circle14"/>
	<circle cx="95.8519" cy="546.947" r="4" fill="#0" id="circle15"/>
	<circle cx="106.058" cy="565.317" r="4" fill="#0" id="circle16"/>
	<circle cx="112.181" cy="310.173" r="4" fill="#0" id="circle17"/>
	<circle cx="118.305" cy="581.646" r="4" fill="#0" id="circle18"/>
	<circle cx="126.469" cy="602.058" r="4" fill="#0" id="circle19"/>
	<circle cx="130.551" cy="320.379" r="4" fill="#0" id="circle20"/>
	<circle cx="136.675" cy="620.428" r="4" fill="#0" id="circle21"/>
	<circle cx="146.881" cy="638.798" r="4" fill="#0" id="circle22"/>
	<circle cx="150.963" cy="320.379" r="4" fill="#0" id="circle23"/>
	<circle cx="159.128" cy="655.128" r="4" fill="#0" id="circle24"/>
	<circle cx="171.374" cy="312.214" r="4" fill="#0" id="circle25"/>
	<circle cx="175.457" cy="667.374" r="4" fill="#0" id="circle26"/>
	<circle cx="187.704" cy="324.461" r="4" fill="#0" id="circle27"/>
	<circle cx="195.868" cy="659.21" r="4" fill="#0" id="circle28"/>
	<circle cx="199.951" cy="340.79" r="4" fill="#0" id="circle29"/>
	<circle cx="204.033" cy="679.621" r="4" fill="#0" id="circle30"/>
	<circle cx="216.28" cy="353.037" r="4" fill="#0" id="circle31"/>
	<circle cx="220.362" cy="373.449" r="4" fill="#0" id="circle32"/>
	<circle cx="220.362" cy="659.21" r="4" fill="#0" id="circle33"/>
	<circle cx="238.733" cy="649.004" r="4" fill="#0" id="circle34"/>
	<circle cx="240.774" cy="381.613" r="4" fill="#0" id="circle35"/>
	<circle cx="259.144" cy="367.325" r="4" fill="#0" id="circle36"/>
	<circle cx="259.144" cy="642.881" r="4" fill="#0" id="circle37"/>
	<circle cx="279.556" cy="357.119" r="4" fill="#0" id="circle38"/>
	<circle cx="279.556" cy="638.798" r="4" fill="#0" id="circle39"/>
	<circle cx="299.967" cy="346.914" r="4" fill="#0" id="circle40"/>
	<circle cx="299.967" cy="632.675" r="4" fill="#0" id="circle41"/>
	<circle cx="316.296" cy="616.346" r="4" fill="#0" id="circle42"/>
	<circle cx="320.379" cy="340.79" r="4" fill="#0" id="circle43"/>
	<circle cx="322.42" cy="434.683" r="4" fill="#0" id="circle44"/>
	<circle cx="322.42" cy="455.095" r="4" fill="#0" id="circle45"/>
	<circle cx="322.42" cy="475.506" r="4" fill="#0" id="circle46"/>
	<circle cx="322.42" cy="495.918" r="4" fill="#0" id="circle47"/>
	<circle cx="322.42" cy="516.329" r="4" fill="#0" id="circle48"/>
	<circle cx="322.42" cy="536.741" r="4" fill="#0" id="circle49"/>
	<circle cx="322.42" cy="557.152" r="4" fill="#0" id="circle50"/>
	<circle cx="322.42" cy="577.564" r="4" fill="#0" id="circle51"/>
	<circle cx="326.502" cy="597.975" r="4" fill="#0" id="circle52"/>
	<circle cx="338.749" cy="330.584" r="4" fill="#0" id="circle53"/>
	<circle cx="342.831" cy="434.683" r="4" fill="#0" id="circle54"/>
	<circle cx="350.996" cy="306.091" r="4" fill="#0" id="circle55"/>
	<circle cx="363.243" cy="434.683" r="4" fill="#0" id="circle56"/>
	<circle cx="371.407" cy="295.885" r="4" fill="#0" id="circle57"/>
	<circle cx="383.654" cy="424.477" r="4" fill="#0" id="circle58"/>
	<circle cx="391.819" cy="275.473" r="4" fill="#0" id="circle59"/>
	<circle cx="404.066" cy="414.272" r="4" fill="#0" id="circle60"/>
	<circle cx="412.23" cy="265.267" r="4" fill="#0" id="circle61"/>
	<circle cx="424.477" cy="404.066" r="4" fill="#0" id="circle62"/>
	<circle cx="432.642" cy="259.144" r="4" fill="#0" id="circle63"/>
	<circle cx="444.889" cy="242.815" r="4" fill="#0" id="circle64"/>
	<circle cx="444.889" cy="404.066" r="4" fill="#0" id="circle65"/>
	<circle cx="465.3" cy="232.609" r="4" fill="#0" id="circle66"/>
	<circle cx="465.3" cy="404.066" r="4" fill="#0" id="circle67"/>
	<circle cx="481.63" cy="218.321" r="4" fill="#0" id="circle68"/>
	<circle cx="483.671" cy="393.86" r="4" fill="#0" id="circle69"/>
	<circle cx="502.041" cy="218.321" r="4" fill="#0" id="circle70"/>
	<circle cx="504.082" cy="393.86" r="4" fill="#0" id="circle71"/>
	<circle cx="516.329" cy="201.992" r="4" fill="#0" id="circle72"/>
	<circle cx="524.494" cy="387.737" r="4" fill="#0" id="circle73"/>
	<circle cx="536.741" cy="191.786" r="4" fill="#0" id="circle74"/>
	<circle cx="544.905" cy="383.654" r="4" fill="#0" id="circle75"/>
	<circle cx="557.152" cy="181.58" r="4" fill="#0" id="circle76"/>
	<circle cx="557.152" cy="363.243" r="4" fill="#0" id="circle77"/>
	<circle cx="573.481" cy="348.955" r="4" fill="#0" id="circle78"/>
	<circle cx="575.523" cy="153.004" r="4" fill="#0" id="circle79"/>
	<circle cx="593.893" cy="338.749" r="4" fill="#0" id="circle80"/>
	<circle cx="595.934" cy="157.086" r="4" fill="#0" id="circle81"/>
	<circle cx="606.14" cy="322.42" r="4" fill="#0" id="circle82"/>
	<circle cx="614.305" cy="146.881" r="4" fill="#0" id="circle83"/>
	<circle cx="622.469" cy="310.173" r="4" fill="#0" id="circle84"/>
	<circle cx="632.675" cy="136.675" r="4" fill="#0" id="circle85"/>
	<circle cx="642.881" cy="299.967" r="4" fill="#0" id="circle86"/>
	<circle cx="653.086" cy="136.675" r="4" fill="#0" id="circle87"/>
	<circle cx="663.292" cy="291.802" r="4" fill="#0" id="circle88"/>
	<circle cx="673.498" cy="126.469" r="4" fill="#0" id="circle89"/>
	<circle cx="681.663" cy="281.597" r="4" fill="#0" id="circle90"/>
	<circle cx="693.909" cy="126.469" r="4" fill="#0" id="circle91"/>
	<circle cx="700.033" cy="271.391" r="4" fill="#0" id="circle92"/>
	<circle cx="714.321" cy="126.469" r="4" fill="#0" id="circle93"/>
	<circle cx="720.444" cy="271.391" r="4" fill="#0" id="circle94"/>
	<circle cx="728.609" cy="101.975" r="4" fill="#0" id="circle95"/>
	<circle cx="738.815" cy="261.185" r="4" fill="#0" id="circle96"/>
	<circle cx="744.938" cy="85.6461" r="4" fill="#0" id="circle97"/>
	<circle cx="759.226" cy="255.062" r="4" fill="#0" id="circle98"/>
	<circle cx="765.35" cy="85.6461" r="4" fill="#0" id="circle99"/>
	<circle cx="769.432" cy="234.65" r="4" fill="#0" id="circle100"/>
	<circle cx="785.761" cy="85.6461" r="4" fill="#0" id="circle101"/>
	<circle cx="785.761" cy="220.362" r="4" fill="#0" id="circle102"/>
	<circle cx="806.173" cy="75.4403" r="4" fill="#0" id="circle103"/>
	<circle cx="806.173" cy="220.362" r="4" fill="#0" id="circle104"/>
	<circle cx="822.502" cy="59.1111" r="4" fill="#0" id="circle105"/>
	<circle cx="826.584" cy="218.321" r="4" fill="#0" id="circle106"/>
	<circle cx="838.831" cy="44.823" r="4" fill="#0" id="circle107"/>
	<circle cx="842.914" cy="199.951" r="4" fill="#0" id="circle108"/>
	<circle cx="853.119" cy="179.539" r="4" fill="#0" id="circle109"/>
	<circle cx="857.202" cy="34.6173" r="4" fill="#0" id="circle110"/>
	<circle cx="873.531" cy="179.539" r="4" fill="#0" id="circle111"/>
	<circle cx="875.572" cy="24.4115" r="4" fill="#0" id="circle112"/>
	<circle cx="891.901" cy="10.1235" r="4" fill="#0" id="circle113"/>
	<circle cx="893.942" cy="179.539" r="4" fill="#0" id="circle114"/>
	<circle cx="912.313" cy="4" r="4" fill="#0" id="circle115"/>
	<circle cx="914.354" cy="169.333" r="4" fill="#0" id="circle116"/>
	<circle cx="932.724" cy="4" r="4" fill="#0" id="circle117"/>
	<circle cx="934.765" cy="159.128" r="4" fill="#0" id="circle118"/>
	<circle cx="953.136" cy="8.0823" r="4" fill="#0" id="circle119"/>
	<circle cx="953.136" cy="148.922" r="4" fill="#0" id="circle120"/>
	<circle cx="965.383" cy="24.4115" r="4" fill="#0" id="circle121"/>
	<circle cx="965.383" cy="44.823" r="4" fill="#0" id="circle122"/>
	<circle cx="971.506" cy="138.716" r="4" fill="#0" id="circle123"/>
	<circle cx="975.588" cy="63.1934" r="4" fill="#0" id="circle124"/>
	<circle cx="985.794" cy="81.5638" r="4" fill="#0" id="circle125"/>
	<circle cx="989.877" cy="126.469" r="4" fill="#0" id="circle126"/>
	<circle cx="996" cy="99.9342" r="4" fill="#0" id="circle127"/>
	</g>
</svg>