<?xml version="1.0" encoding="UTF-8" standalone="no"?>
<!-- Created with CurveBenchmark -->
<svg
	xmlns:dc="http://purl.org/dc/elements/1.1/"
	xmlns:cc="http://creativecommons.org/ns#"
	xmlns:rdf="http://www.w3.org/1999/02/22-rdf-syntax-ns#"
	xmlns:svg="http://www.w3.org/2000/svg"
	xmlns="http://www.w3.org/2000/svg"
	xmlns:sodipodi="http://sodipodi.sourceforge.net/DTD/sodipodi-0.dtd"
	xmlns:inkscape="http://www.inkscape.org/namespaces/inkscape"
	width="1000"
	height="1000"
	id="svg2"
	version="1.1"
	sodipodi:docname="manifold/vicur-hammer-14.png.txt">
<defs
	id="defs4" />
<metadata
	id="metadata7">
	<rdf:RDF>
		<cc:Work
			rdf:about="">
			<dc:format>image/svg+xml</dc:format>
			<dc:type
				rdf:resource="http://purl.org/dc/dcmitype/StillImage" />
			<dc:title></dc:title>
		</cc:Work>
	</rdf:RDF>
</metadata>
<g
	inkscape:label="Layer 1"
	inkscape:groupmode="layer"
	id="layer1">
	<path style="fill:none;stroke:red;stroke-width:1px;stroke-linecap:butt;stroke-linejoin:miter;stroke-opacity:1" d="M 4,8.07114 4,21.6416 z" id="boundary" inkscape:connector-curvature="0" />
	<path style="fill:none;stroke:red;stroke-width:1px;stroke-linecap:butt;stroke-linejoin:miter;stroke-opacity:1" d="M 4,8.07114 17.5705,4 z" id="boundary" inkscape:connector-curvature="0" />
	<path style="fill:none;stroke:red;stroke-width:1px;stroke-linecap:butt;stroke-linejoin:miter;stroke-opacity:1" d="M 4,21.6416 4,35.212 z" id="boundary" inkscape:connector-curvature="0" />
	<path style="fill:none;stroke:red;stroke-width:1px;stroke-linecap:butt;stroke-linejoin:miter;stroke-opacity:1" d="M 4,35.212 4,48.7825 z" id="boundary" inkscape:connector-curvature="0" />
	<path style="fill:none;stroke:red;stroke-width:1px;stroke-linecap:butt;stroke-linejoin:miter;stroke-opacity:1" d="M 4,48.7825 4,62.3529 z" id="boundary" inkscape:connector-curvature="0" />
	<path style="fill:none;stroke:red;stroke-width:1px;stroke-linecap:butt;stroke-linejoin:miter;stroke-opacity:1" d="M 4,62.3529 4,75.9234 z" id="boundary" inkscape:connector-curvature="0" />
	<path style="fill:none;stroke:red;stroke-width:1px;stroke-linecap:butt;stroke-linejoin:miter;stroke-opacity:1" d="M 4,75.9234 4,89.4938 z" id="boundary" inkscape:connector-curvature="0" />
	<path style="fill:none;stroke:red;stroke-width:1px;stroke-linecap:butt;stroke-linejoin:miter;stroke-opacity:1" d="M 4,89.4938 4,103.064 z" id="boundary" inkscape:connector-curvature="0" />
	<path style="fill:none;stroke:red;stroke-width:1px;stroke-linecap:butt;stroke-linejoin:miter;stroke-opacity:1" d="M 4,103.064 4,116.635 z" id="boundary" inkscape:connector-curvature="0" />
	<path style="fill:none;stroke:red;stroke-width:1px;stroke-linecap:butt;stroke-linejoin:miter;stroke-opacity:1" d="M 4,116.635 4,130.205 z" id="boundary" inkscape:connector-curvature="0" />
	<path style="fill:none;stroke:red;stroke-width:1px;stroke-linecap:butt;stroke-linejoin:miter;stroke-opacity:1" d="M 4,130.205 4,143.776 z" id="boundary" inkscape:connector-curvature="0" />
	<path style="fill:none;stroke:red;stroke-width:1px;stroke-linecap:butt;stroke-linejoin:miter;stroke-opacity:1" d="M 4,143.776 4,157.346 z" id="boundary" inkscape:connector-curvature="0" />
	<path style="fill:none;stroke:red;stroke-width:1px;stroke-linecap:butt;stroke-linejoin:miter;stroke-opacity:1" d="M 4,157.346 4,170.917 z" id="boundary" inkscape:connector-curvature="0" />
	<path style="fill:none;stroke:red;stroke-width:1px;stroke-linecap:butt;stroke-linejoin:miter;stroke-opacity:1" d="M 4,170.917 12.1423,181.773 z" id="boundary" inkscape:connector-curvature="0" />
	<path style="fill:none;stroke:red;stroke-width:1px;stroke-linecap:butt;stroke-linejoin:miter;stroke-opacity:1" d="M 12.1423,181.773 25.7127,181.773 z" id="boundary" inkscape:connector-curvature="0" />
	<path style="fill:none;stroke:red;stroke-width:1px;stroke-linecap:butt;stroke-linejoin:miter;stroke-opacity:1" d="M 17.5705,4 31.1409,4 z" id="boundary" inkscape:connector-curvature="0" />
	<path style="fill:none;stroke:red;stroke-width:1px;stroke-linecap:butt;stroke-linejoin:miter;stroke-opacity:1" d="M 25.7127,181.773 31.1409,195.343 z" id="boundary" inkscape:connector-curvature="0" />
	<path style="fill:none;stroke:red;stroke-width:1px;stroke-linecap:butt;stroke-linejoin:miter;stroke-opacity:1" d="M 31.1409,4 44.7114,4 z" id="boundary" inkscape:connector-curvature="0" />
	<path style="fill:none;stroke:red;stroke-width:1px;stroke-linecap:butt;stroke-linejoin:miter;stroke-opacity:1" d="M 31.1409,195.343 31.1409,208.914 z" id="boundary" inkscape:connector-curvature="0" />
	<path style="fill:none;stroke:red;stroke-width:1px;stroke-linecap:butt;stroke-linejoin:miter;stroke-opacity:1" d="M 31.1409,208.914 31.1409,222.484 z" id="boundary" inkscape:connector-curvature="0" />
	<path style="fill:none;stroke:red;stroke-width:1px;stroke-linecap:butt;stroke-linejoin:miter;stroke-opacity:1" d="M 31.1409,222.484 31.1409,236.055 z" id="boundary" inkscape:connector-curvature="0" />
	<path style="fill:none;stroke:red;stroke-width:1px;stroke-linecap:butt;stroke-linejoin:miter;stroke-opacity:1" d="M 31.1409,236.055 31.1409,249.625 z" id="boundary" inkscape:connector-curvature="0" />
	<path style="fill:none;stroke:red;stroke-width:1px;stroke-linecap:butt;stroke-linejoin:miter;stroke-opacity:1" d="M 31.1409,249.625 31.1409,263.196 z" id="boundary" inkscape:connector-curvature="0" />
	<path style="fill:none;stroke:red;stroke-width:1px;stroke-linecap:butt;stroke-linejoin:miter;stroke-opacity:1" d="M 31.1409,263.196 31.1409,276.766 z" id="boundary" inkscape:connector-curvature="0" />
	<path style="fill:none;stroke:red;stroke-width:1px;stroke-linecap:butt;stroke-linejoin:miter;stroke-opacity:1" d="M 31.1409,276.766 31.1409,290.337 z" id="boundary" inkscape:connector-curvature="0" />
	<path style="fill:none;stroke:red;stroke-width:1px;stroke-linecap:butt;stroke-linejoin:miter;stroke-opacity:1" d="M 31.1409,290.337 31.1409,303.907 z" id="boundary" inkscape:connector-curvature="0" />
	<path style="fill:none;stroke:red;stroke-width:1px;stroke-linecap:butt;stroke-linejoin:miter;stroke-opacity:1" d="M 31.1409,303.907 31.1409,317.477 z" id="boundary" inkscape:connector-curvature="0" />
	<path style="fill:none;stroke:red;stroke-width:1px;stroke-linecap:butt;stroke-linejoin:miter;stroke-opacity:1" d="M 31.1409,317.477 31.1409,331.048 z" id="boundary" inkscape:connector-curvature="0" />
	<path style="fill:none;stroke:red;stroke-width:1px;stroke-linecap:butt;stroke-linejoin:miter;stroke-opacity:1" d="M 31.1409,331.048 31.1409,344.618 z" id="boundary" inkscape:connector-curvature="0" />
	<path style="fill:none;stroke:red;stroke-width:1px;stroke-linecap:butt;stroke-linejoin:miter;stroke-opacity:1" d="M 31.1409,344.618 31.1409,358.189 z" id="boundary" inkscape:connector-curvature="0" />
	<path style="fill:none;stroke:red;stroke-width:1px;stroke-linecap:butt;stroke-linejoin:miter;stroke-opacity:1" d="M 31.1409,358.189 35.212,371.759 z" id="boundary" inkscape:connector-curvature="0" />
	<path style="fill:none;stroke:red;stroke-width:1px;stroke-linecap:butt;stroke-linejoin:miter;stroke-opacity:1" d="M 35.212,371.759 37.9261,385.33 z" id="boundary" inkscape:connector-curvature="0" />
	<path style="fill:none;stroke:red;stroke-width:1px;stroke-linecap:butt;stroke-linejoin:miter;stroke-opacity:1" d="M 37.9261,385.33 37.9261,398.9 z" id="boundary" inkscape:connector-curvature="0" />
	<path style="fill:none;stroke:red;stroke-width:1px;stroke-linecap:butt;stroke-linejoin:miter;stroke-opacity:1" d="M 37.9261,398.9 44.7114,411.114 z" id="boundary" inkscape:connector-curvature="0" />
	<path style="fill:none;stroke:red;stroke-width:1px;stroke-linecap:butt;stroke-linejoin:miter;stroke-opacity:1" d="M 44.7114,4 58.2818,4 z" id="boundary" inkscape:connector-curvature="0" />
	<path style="fill:none;stroke:red;stroke-width:1px;stroke-linecap:butt;stroke-linejoin:miter;stroke-opacity:1" d="M 44.7114,411.114 51.4966,423.327 z" id="boundary" inkscape:connector-curvature="0" />
	<path style="fill:none;stroke:red;stroke-width:1px;stroke-linecap:butt;stroke-linejoin:miter;stroke-opacity:1" d="M 51.4966,423.327 58.2818,435.54 z" id="boundary" inkscape:connector-curvature="0" />
	<path style="fill:none;stroke:red;stroke-width:1px;stroke-linecap:butt;stroke-linejoin:miter;stroke-opacity:1" d="M 58.2818,4 71.8523,4 z" id="boundary" inkscape:connector-curvature="0" />
	<path style="fill:none;stroke:red;stroke-width:1px;stroke-linecap:butt;stroke-linejoin:miter;stroke-opacity:1" d="M 58.2818,435.54 58.2818,449.111 z" id="boundary" inkscape:connector-curvature="0" />
	<path style="fill:none;stroke:red;stroke-width:1px;stroke-linecap:butt;stroke-linejoin:miter;stroke-opacity:1" d="M 58.2818,449.111 65.067,461.324 z" id="boundary" inkscape:connector-curvature="0" />
	<path style="fill:none;stroke:red;stroke-width:1px;stroke-linecap:butt;stroke-linejoin:miter;stroke-opacity:1" d="M 65.067,461.324 71.8523,473.538 z" id="boundary" inkscape:connector-curvature="0" />
	<path style="fill:none;stroke:red;stroke-width:1px;stroke-linecap:butt;stroke-linejoin:miter;stroke-opacity:1" d="M 71.8523,4 85.4227,4 z" id="boundary" inkscape:connector-curvature="0" />
	<path style="fill:none;stroke:red;stroke-width:1px;stroke-linecap:butt;stroke-linejoin:miter;stroke-opacity:1" d="M 71.8523,473.538 79.9945,484.394 z" id="boundary" inkscape:connector-curvature="0" />
	<path style="fill:none;stroke:red;stroke-width:1px;stroke-linecap:butt;stroke-linejoin:miter;stroke-opacity:1" d="M 79.9945,484.394 86.7798,496.607 z" id="boundary" inkscape:connector-curvature="0" />
	<path style="fill:none;stroke:red;stroke-width:1px;stroke-linecap:butt;stroke-linejoin:miter;stroke-opacity:1" d="M 85.4227,4 98.9932,4 z" id="boundary" inkscape:connector-curvature="0" />
	<path style="fill:none;stroke:red;stroke-width:1px;stroke-linecap:butt;stroke-linejoin:miter;stroke-opacity:1" d="M 86.7798,496.607 96.2791,507.464 z" id="boundary" inkscape:connector-curvature="0" />
	<path style="fill:none;stroke:red;stroke-width:1px;stroke-linecap:butt;stroke-linejoin:miter;stroke-opacity:1" d="M 96.2791,507.464 103.064,519.677 z" id="boundary" inkscape:connector-curvature="0" />
	<path style="fill:none;stroke:red;stroke-width:1px;stroke-linecap:butt;stroke-linejoin:miter;stroke-opacity:1" d="M 98.9932,4 112.564,4 z" id="boundary" inkscape:connector-curvature="0" />
	<path style="fill:none;stroke:red;stroke-width:1px;stroke-linecap:butt;stroke-linejoin:miter;stroke-opacity:1" d="M 103.064,519.677 112.564,530.534 z" id="boundary" inkscape:connector-curvature="0" />
	<path style="fill:none;stroke:red;stroke-width:1px;stroke-linecap:butt;stroke-linejoin:miter;stroke-opacity:1" d="M 112.564,4 126.134,4 z" id="boundary" inkscape:connector-curvature="0" />
	<path style="fill:none;stroke:red;stroke-width:1px;stroke-linecap:butt;stroke-linejoin:miter;stroke-opacity:1" d="M 112.564,530.534 119.349,542.747 z" id="boundary" inkscape:connector-curvature="0" />
	<path style="fill:none;stroke:red;stroke-width:1px;stroke-linecap:butt;stroke-linejoin:miter;stroke-opacity:1" d="M 119.349,542.747 126.134,554.96 z" id="boundary" inkscape:connector-curvature="0" />
	<path style="fill:none;stroke:red;stroke-width:1px;stroke-linecap:butt;stroke-linejoin:miter;stroke-opacity:1" d="M 126.134,4 139.705,4 z" id="boundary" inkscape:connector-curvature="0" />
	<path style="fill:none;stroke:red;stroke-width:1px;stroke-linecap:butt;stroke-linejoin:miter;stroke-opacity:1" d="M 126.134,554.96 132.919,567.174 z" id="boundary" inkscape:connector-curvature="0" />
	<path style="fill:none;stroke:red;stroke-width:1px;stroke-linecap:butt;stroke-linejoin:miter;stroke-opacity:1" d="M 132.919,567.174 141.062,578.03 z" id="boundary" inkscape:connector-curvature="0" />
	<path style="fill:none;stroke:red;stroke-width:1px;stroke-linecap:butt;stroke-linejoin:miter;stroke-opacity:1" d="M 139.705,4 153.275,4 z" id="boundary" inkscape:connector-curvature="0" />
	<path style="fill:none;stroke:red;stroke-width:1px;stroke-linecap:butt;stroke-linejoin:miter;stroke-opacity:1" d="M 141.062,578.03 150.561,588.886 z" id="boundary" inkscape:connector-curvature="0" />
	<path style="fill:none;stroke:red;stroke-width:1px;stroke-linecap:butt;stroke-linejoin:miter;stroke-opacity:1" d="M 150.561,588.886 161.417,598.386 z" id="boundary" inkscape:connector-curvature="0" />
	<path style="fill:none;stroke:red;stroke-width:1px;stroke-linecap:butt;stroke-linejoin:miter;stroke-opacity:1" d="M 153.275,4 166.845,4 z" id="boundary" inkscape:connector-curvature="0" />
	<path style="fill:none;stroke:red;stroke-width:1px;stroke-linecap:butt;stroke-linejoin:miter;stroke-opacity:1" d="M 161.417,598.386 170.917,609.242 z" id="boundary" inkscape:connector-curvature="0" />
	<path style="fill:none;stroke:red;stroke-width:1px;stroke-linecap:butt;stroke-linejoin:miter;stroke-opacity:1" d="M 166.845,4 180.416,4 z" id="boundary" inkscape:connector-curvature="0" />
	<path style="fill:none;stroke:red;stroke-width:1px;stroke-linecap:butt;stroke-linejoin:miter;stroke-opacity:1" d="M 170.917,609.242 184.487,614.67 z" id="boundary" inkscape:connector-curvature="0" />
	<path style="fill:none;stroke:red;stroke-width:1px;stroke-linecap:butt;stroke-linejoin:miter;stroke-opacity:1" d="M 180.416,4 193.986,4 z" id="boundary" inkscape:connector-curvature="0" />
	<path style="fill:none;stroke:red;stroke-width:1px;stroke-linecap:butt;stroke-linejoin:miter;stroke-opacity:1" d="M 184.487,614.67 193.986,625.527 z" id="boundary" inkscape:connector-curvature="0" />
	<path style="fill:none;stroke:red;stroke-width:1px;stroke-linecap:butt;stroke-linejoin:miter;stroke-opacity:1" d="M 193.986,4 207.557,4 z" id="boundary" inkscape:connector-curvature="0" />
	<path style="fill:none;stroke:red;stroke-width:1px;stroke-linecap:butt;stroke-linejoin:miter;stroke-opacity:1" d="M 193.986,625.527 207.557,629.598 z" id="boundary" inkscape:connector-curvature="0" />
	<path style="fill:none;stroke:red;stroke-width:1px;stroke-linecap:butt;stroke-linejoin:miter;stroke-opacity:1" d="M 207.557,4 221.127,4 z" id="boundary" inkscape:connector-curvature="0" />
	<path style="fill:none;stroke:red;stroke-width:1px;stroke-linecap:butt;stroke-linejoin:miter;stroke-opacity:1" d="M 207.557,629.598 219.77,636.383 z" id="boundary" inkscape:connector-curvature="0" />
	<path style="fill:none;stroke:red;stroke-width:1px;stroke-linecap:butt;stroke-linejoin:miter;stroke-opacity:1" d="M 219.77,636.383 231.984,643.168 z" id="boundary" inkscape:connector-curvature="0" />
	<path style="fill:none;stroke:red;stroke-width:1px;stroke-linecap:butt;stroke-linejoin:miter;stroke-opacity:1" d="M 221.127,4 234.698,4 z" id="boundary" inkscape:connector-curvature="0" />
	<path style="fill:none;stroke:red;stroke-width:1px;stroke-linecap:butt;stroke-linejoin:miter;stroke-opacity:1" d="M 231.984,643.168 244.197,649.953 z" id="boundary" inkscape:connector-curvature="0" />
	<path style="fill:none;stroke:red;stroke-width:1px;stroke-linecap:butt;stroke-linejoin:miter;stroke-opacity:1" d="M 234.698,4 248.268,4 z" id="boundary" inkscape:connector-curvature="0" />
	<path style="fill:none;stroke:red;stroke-width:1px;stroke-linecap:butt;stroke-linejoin:miter;stroke-opacity:1" d="M 244.197,649.953 255.053,658.096 z" id="boundary" inkscape:connector-curvature="0" />
	<path style="fill:none;stroke:red;stroke-width:1px;stroke-linecap:butt;stroke-linejoin:miter;stroke-opacity:1" d="M 248.268,4 261.839,4 z" id="boundary" inkscape:connector-curvature="0" />
	<path style="fill:none;stroke:red;stroke-width:1px;stroke-linecap:butt;stroke-linejoin:miter;stroke-opacity:1" d="M 255.053,658.096 268.624,663.524 z" id="boundary" inkscape:connector-curvature="0" />
	<path style="fill:none;stroke:red;stroke-width:1px;stroke-linecap:butt;stroke-linejoin:miter;stroke-opacity:1" d="M 261.839,4 275.409,4 z" id="boundary" inkscape:connector-curvature="0" />
	<path style="fill:none;stroke:red;stroke-width:1px;stroke-linecap:butt;stroke-linejoin:miter;stroke-opacity:1" d="M 268.624,663.524 280.837,670.309 z" id="boundary" inkscape:connector-curvature="0" />
	<path style="fill:none;stroke:red;stroke-width:1px;stroke-linecap:butt;stroke-linejoin:miter;stroke-opacity:1" d="M 275.409,4 288.979,4 z" id="boundary" inkscape:connector-curvature="0" />
	<path style="fill:none;stroke:red;stroke-width:1px;stroke-linecap:butt;stroke-linejoin:miter;stroke-opacity:1" d="M 280.837,670.309 293.051,677.094 z" id="boundary" inkscape:connector-curvature="0" />
	<path style="fill:none;stroke:red;stroke-width:1px;stroke-linecap:butt;stroke-linejoin:miter;stroke-opacity:1" d="M 288.979,4 302.55,4 z" id="boundary" inkscape:connector-curvature="0" />
	<path style="fill:none;stroke:red;stroke-width:1px;stroke-linecap:butt;stroke-linejoin:miter;stroke-opacity:1" d="M 293.051,677.094 306.621,677.094 z" id="boundary" inkscape:connector-curvature="0" />
	<path style="fill:none;stroke:red;stroke-width:1px;stroke-linecap:butt;stroke-linejoin:miter;stroke-opacity:1" d="M 297.122,378.544 297.122,392.115 z" id="boundary" inkscape:connector-curvature="0" />
	<path style="fill:none;stroke:red;stroke-width:1px;stroke-linecap:butt;stroke-linejoin:miter;stroke-opacity:1" d="M 297.122,378.544 310.692,378.544 z" id="boundary" inkscape:connector-curvature="0" />
	<path style="fill:none;stroke:red;stroke-width:1px;stroke-linecap:butt;stroke-linejoin:miter;stroke-opacity:1" d="M 297.122,392.115 297.122,405.685 z" id="boundary" inkscape:connector-curvature="0" />
	<path style="fill:none;stroke:red;stroke-width:1px;stroke-linecap:butt;stroke-linejoin:miter;stroke-opacity:1" d="M 297.122,405.685 297.122,419.256 z" id="boundary" inkscape:connector-curvature="0" />
	<path style="fill:none;stroke:red;stroke-width:1px;stroke-linecap:butt;stroke-linejoin:miter;stroke-opacity:1" d="M 297.122,419.256 297.122,432.826 z" id="boundary" inkscape:connector-curvature="0" />
	<path style="fill:none;stroke:red;stroke-width:1px;stroke-linecap:butt;stroke-linejoin:miter;stroke-opacity:1" d="M 297.122,432.826 299.836,446.397 z" id="boundary" inkscape:connector-curvature="0" />
	<path style="fill:none;stroke:red;stroke-width:1px;stroke-linecap:butt;stroke-linejoin:miter;stroke-opacity:1" d="M 299.836,446.397 303.907,459.967 z" id="boundary" inkscape:connector-curvature="0" />
	<path style="fill:none;stroke:red;stroke-width:1px;stroke-linecap:butt;stroke-linejoin:miter;stroke-opacity:1" d="M 302.55,4 316.12,4 z" id="boundary" inkscape:connector-curvature="0" />
	<path style="fill:none;stroke:red;stroke-width:1px;stroke-linecap:butt;stroke-linejoin:miter;stroke-opacity:1" d="M 303.907,181.773 303.907,195.343 z" id="boundary" inkscape:connector-curvature="0" />
	<path style="fill:none;stroke:red;stroke-width:1px;stroke-linecap:butt;stroke-linejoin:miter;stroke-opacity:1" d="M 303.907,181.773 317.477,181.773 z" id="boundary" inkscape:connector-curvature="0" />
	<path style="fill:none;stroke:red;stroke-width:1px;stroke-linecap:butt;stroke-linejoin:miter;stroke-opacity:1" d="M 303.907,195.343 303.907,208.914 z" id="boundary" inkscape:connector-curvature="0" />
	<path style="fill:none;stroke:red;stroke-width:1px;stroke-linecap:butt;stroke-linejoin:miter;stroke-opacity:1" d="M 303.907,208.914 317.477,214.342 z" id="boundary" inkscape:connector-curvature="0" />
	<path style="fill:none;stroke:red;stroke-width:1px;stroke-linecap:butt;stroke-linejoin:miter;stroke-opacity:1" d="M 303.907,459.967 303.907,473.538 z" id="boundary" inkscape:connector-curvature="0" />
	<path style="fill:none;stroke:red;stroke-width:1px;stroke-linecap:butt;stroke-linejoin:miter;stroke-opacity:1" d="M 303.907,473.538 303.907,487.108 z" id="boundary" inkscape:connector-curvature="0" />
	<path style="fill:none;stroke:red;stroke-width:1px;stroke-linecap:butt;stroke-linejoin:miter;stroke-opacity:1" d="M 303.907,487.108 306.621,500.679 z" id="boundary" inkscape:connector-curvature="0" />
	<path style="fill:none;stroke:red;stroke-width:1px;stroke-linecap:butt;stroke-linejoin:miter;stroke-opacity:1" d="M 306.621,500.679 310.692,514.249 z" id="boundary" inkscape:connector-curvature="0" />
	<path style="fill:none;stroke:red;stroke-width:1px;stroke-linecap:butt;stroke-linejoin:miter;stroke-opacity:1" d="M 306.621,677.094 318.834,683.88 z" id="boundary" inkscape:connector-curvature="0" />
	<path style="fill:none;stroke:red;stroke-width:1px;stroke-linecap:butt;stroke-linejoin:miter;stroke-opacity:1" d="M 310.692,378.544 324.263,378.544 z" id="boundary" inkscape:connector-curvature="0" />
	<path style="fill:none;stroke:red;stroke-width:1px;stroke-linecap:butt;stroke-linejoin:miter;stroke-opacity:1" d="M 310.692,514.249 310.692,527.819 z" id="boundary" inkscape:connector-curvature="0" />
	<path style="fill:none;stroke:red;stroke-width:1px;stroke-linecap:butt;stroke-linejoin:miter;stroke-opacity:1" d="M 310.692,527.819 313.406,541.39 z" id="boundary" inkscape:connector-curvature="0" />
	<path style="fill:none;stroke:red;stroke-width:1px;stroke-linecap:butt;stroke-linejoin:miter;stroke-opacity:1" d="M 313.406,541.39 317.477,554.96 z" id="boundary" inkscape:connector-curvature="0" />
	<path style="fill:none;stroke:red;stroke-width:1px;stroke-linecap:butt;stroke-linejoin:miter;stroke-opacity:1" d="M 316.12,4 329.691,6.71409 z" id="boundary" inkscape:connector-curvature="0" />
	<path style="fill:none;stroke:red;stroke-width:1px;stroke-linecap:butt;stroke-linejoin:miter;stroke-opacity:1" d="M 317.477,181.773 331.048,169.56 z" id="boundary" inkscape:connector-curvature="0" />
	<path style="fill:none;stroke:red;stroke-width:1px;stroke-linecap:butt;stroke-linejoin:miter;stroke-opacity:1" d="M 317.477,214.342 331.048,214.342 z" id="boundary" inkscape:connector-curvature="0" />
	<path style="fill:none;stroke:red;stroke-width:1px;stroke-linecap:butt;stroke-linejoin:miter;stroke-opacity:1" d="M 317.477,554.96 320.192,568.531 z" id="boundary" inkscape:connector-curvature="0" />
	<path style="fill:none;stroke:red;stroke-width:1px;stroke-linecap:butt;stroke-linejoin:miter;stroke-opacity:1" d="M 318.834,683.88 332.405,687.951 z" id="boundary" inkscape:connector-curvature="0" />
	<path style="fill:none;stroke:red;stroke-width:1px;stroke-linecap:butt;stroke-linejoin:miter;stroke-opacity:1" d="M 320.192,568.531 324.263,582.101 z" id="boundary" inkscape:connector-curvature="0" />
	<path style="fill:none;stroke:red;stroke-width:1px;stroke-linecap:butt;stroke-linejoin:miter;stroke-opacity:1" d="M 324.263,378.544 337.833,378.544 z" id="boundary" inkscape:connector-curvature="0" />
	<path style="fill:none;stroke:red;stroke-width:1px;stroke-linecap:butt;stroke-linejoin:miter;stroke-opacity:1" d="M 324.263,582.101 324.263,595.672 z" id="boundary" inkscape:connector-curvature="0" />
	<path style="fill:none;stroke:red;stroke-width:1px;stroke-linecap:butt;stroke-linejoin:miter;stroke-opacity:1" d="M 324.263,595.672 326.977,609.242 z" id="boundary" inkscape:connector-curvature="0" />
	<path style="fill:none;stroke:red;stroke-width:1px;stroke-linecap:butt;stroke-linejoin:miter;stroke-opacity:1" d="M 326.977,609.242 331.048,622.813 z" id="boundary" inkscape:connector-curvature="0" />
	<path style="fill:none;stroke:red;stroke-width:1px;stroke-linecap:butt;stroke-linejoin:miter;stroke-opacity:1" d="M 329.691,6.71409 331.048,20.2845 z" id="boundary" inkscape:connector-curvature="0" />
	<path style="fill:none;stroke:red;stroke-width:1px;stroke-linecap:butt;stroke-linejoin:miter;stroke-opacity:1" d="M 331.048,20.2845 331.048,33.855 z" id="boundary" inkscape:connector-curvature="0" />
	<path style="fill:none;stroke:red;stroke-width:1px;stroke-linecap:butt;stroke-linejoin:miter;stroke-opacity:1" d="M 331.048,33.855 331.048,47.4254 z" id="boundary" inkscape:connector-curvature="0" />
	<path style="fill:none;stroke:red;stroke-width:1px;stroke-linecap:butt;stroke-linejoin:miter;stroke-opacity:1" d="M 331.048,47.4254 331.048,60.9959 z" id="boundary" inkscape:connector-curvature="0" />
	<path style="fill:none;stroke:red;stroke-width:1px;stroke-linecap:butt;stroke-linejoin:miter;stroke-opacity:1" d="M 331.048,60.9959 331.048,74.5663 z" id="boundary" inkscape:connector-curvature="0" />
	<path style="fill:none;stroke:red;stroke-width:1px;stroke-linecap:butt;stroke-linejoin:miter;stroke-opacity:1" d="M 331.048,74.5663 331.048,88.1368 z" id="boundary" inkscape:connector-curvature="0" />
	<path style="fill:none;stroke:red;stroke-width:1px;stroke-linecap:butt;stroke-linejoin:miter;stroke-opacity:1" d="M 331.048,88.1368 331.048,101.707 z" id="boundary" inkscape:connector-curvature="0" />
	<path style="fill:none;stroke:red;stroke-width:1px;stroke-linecap:butt;stroke-linejoin:miter;stroke-opacity:1" d="M 331.048,101.707 331.048,115.278 z" id="boundary" inkscape:connector-curvature="0" />
	<path style="fill:none;stroke:red;stroke-width:1px;stroke-linecap:butt;stroke-linejoin:miter;stroke-opacity:1" d="M 331.048,115.278 331.048,128.848 z" id="boundary" inkscape:connector-curvature="0" />
	<path style="fill:none;stroke:red;stroke-width:1px;stroke-linecap:butt;stroke-linejoin:miter;stroke-opacity:1" d="M 331.048,128.848 331.048,142.419 z" id="boundary" inkscape:connector-curvature="0" />
	<path style="fill:none;stroke:red;stroke-width:1px;stroke-linecap:butt;stroke-linejoin:miter;stroke-opacity:1" d="M 331.048,142.419 331.048,155.989 z" id="boundary" inkscape:connector-curvature="0" />
	<path style="fill:none;stroke:red;stroke-width:1px;stroke-linecap:butt;stroke-linejoin:miter;stroke-opacity:1" d="M 331.048,155.989 331.048,169.56 z" id="boundary" inkscape:connector-curvature="0" />
	<path style="fill:none;stroke:red;stroke-width:1px;stroke-linecap:butt;stroke-linejoin:miter;stroke-opacity:1" d="M 331.048,214.342 344.618,214.342 z" id="boundary" inkscape:connector-curvature="0" />
	<path style="fill:none;stroke:red;stroke-width:1px;stroke-linecap:butt;stroke-linejoin:miter;stroke-opacity:1" d="M 331.048,622.813 337.833,635.026 z" id="boundary" inkscape:connector-curvature="0" />
	<path style="fill:none;stroke:red;stroke-width:1px;stroke-linecap:butt;stroke-linejoin:miter;stroke-opacity:1" d="M 332.405,687.951 345.975,690.665 z" id="boundary" inkscape:connector-curvature="0" />
	<path style="fill:none;stroke:red;stroke-width:1px;stroke-linecap:butt;stroke-linejoin:miter;stroke-opacity:1" d="M 337.833,378.544 351.404,378.544 z" id="boundary" inkscape:connector-curvature="0" />
	<path style="fill:none;stroke:red;stroke-width:1px;stroke-linecap:butt;stroke-linejoin:miter;stroke-opacity:1" d="M 337.833,635.026 337.833,648.596 z" id="boundary" inkscape:connector-curvature="0" />
	<path style="fill:none;stroke:red;stroke-width:1px;stroke-linecap:butt;stroke-linejoin:miter;stroke-opacity:1" d="M 337.833,648.596 344.618,660.81 z" id="boundary" inkscape:connector-curvature="0" />
	<path style="fill:none;stroke:red;stroke-width:1px;stroke-linecap:butt;stroke-linejoin:miter;stroke-opacity:1" d="M 344.618,214.342 358.189,214.342 z" id="boundary" inkscape:connector-curvature="0" />
	<path style="fill:none;stroke:red;stroke-width:1px;stroke-linecap:butt;stroke-linejoin:miter;stroke-opacity:1" d="M 344.618,660.81 351.404,673.023 z" id="boundary" inkscape:connector-curvature="0" />
	<path style="fill:none;stroke:red;stroke-width:1px;stroke-linecap:butt;stroke-linejoin:miter;stroke-opacity:1" d="M 345.975,690.665 351.404,673.023 z" id="boundary" inkscape:connector-curvature="0" />
	<path style="fill:none;stroke:red;stroke-width:1px;stroke-linecap:butt;stroke-linejoin:miter;stroke-opacity:1" d="M 351.404,378.544 364.974,378.544 z" id="boundary" inkscape:connector-curvature="0" />
	<path style="fill:none;stroke:red;stroke-width:1px;stroke-linecap:butt;stroke-linejoin:miter;stroke-opacity:1" d="M 358.189,214.342 371.759,214.342 z" id="boundary" inkscape:connector-curvature="0" />
	<path style="fill:none;stroke:red;stroke-width:1px;stroke-linecap:butt;stroke-linejoin:miter;stroke-opacity:1" d="M 364.974,378.544 378.544,378.544 z" id="boundary" inkscape:connector-curvature="0" />
	<path style="fill:none;stroke:red;stroke-width:1px;stroke-linecap:butt;stroke-linejoin:miter;stroke-opacity:1" d="M 371.759,214.342 385.33,214.342 z" id="boundary" inkscape:connector-curvature="0" />
	<path style="fill:none;stroke:red;stroke-width:1px;stroke-linecap:butt;stroke-linejoin:miter;stroke-opacity:1" d="M 378.544,378.544 392.115,378.544 z" id="boundary" inkscape:connector-curvature="0" />
	<path style="fill:none;stroke:red;stroke-width:1px;stroke-linecap:butt;stroke-linejoin:miter;stroke-opacity:1" d="M 385.33,214.342 398.9,214.342 z" id="boundary" inkscape:connector-curvature="0" />
	<path style="fill:none;stroke:red;stroke-width:1px;stroke-linecap:butt;stroke-linejoin:miter;stroke-opacity:1" d="M 392.115,378.544 405.685,378.544 z" id="boundary" inkscape:connector-curvature="0" />
	<path style="fill:none;stroke:red;stroke-width:1px;stroke-linecap:butt;stroke-linejoin:miter;stroke-opacity:1" d="M 398.9,214.342 412.471,214.342 z" id="boundary" inkscape:connector-curvature="0" />
	<path style="fill:none;stroke:red;stroke-width:1px;stroke-linecap:butt;stroke-linejoin:miter;stroke-opacity:1" d="M 405.685,378.544 419.256,378.544 z" id="boundary" inkscape:connector-curvature="0" />
	<path style="fill:none;stroke:red;stroke-width:1px;stroke-linecap:butt;stroke-linejoin:miter;stroke-opacity:1" d="M 412.471,214.342 426.041,214.342 z" id="boundary" inkscape:connector-curvature="0" />
	<path style="fill:none;stroke:red;stroke-width:1px;stroke-linecap:butt;stroke-linejoin:miter;stroke-opacity:1" d="M 419.256,378.544 432.826,378.544 z" id="boundary" inkscape:connector-curvature="0" />
	<path style="fill:none;stroke:red;stroke-width:1px;stroke-linecap:butt;stroke-linejoin:miter;stroke-opacity:1" d="M 426.041,214.342 439.611,214.342 z" id="boundary" inkscape:connector-curvature="0" />
	<path style="fill:none;stroke:red;stroke-width:1px;stroke-linecap:butt;stroke-linejoin:miter;stroke-opacity:1" d="M 432.826,378.544 446.397,378.544 z" id="boundary" inkscape:connector-curvature="0" />
	<path style="fill:none;stroke:red;stroke-width:1px;stroke-linecap:butt;stroke-linejoin:miter;stroke-opacity:1" d="M 439.611,214.342 453.182,214.342 z" id="boundary" inkscape:connector-curvature="0" />
	<path style="fill:none;stroke:red;stroke-width:1px;stroke-linecap:butt;stroke-linejoin:miter;stroke-opacity:1" d="M 446.397,378.544 459.967,378.544 z" id="boundary" inkscape:connector-curvature="0" />
	<path style="fill:none;stroke:red;stroke-width:1px;stroke-linecap:butt;stroke-linejoin:miter;stroke-opacity:1" d="M 453.182,214.342 466.752,214.342 z" id="boundary" inkscape:connector-curvature="0" />
	<path style="fill:none;stroke:red;stroke-width:1px;stroke-linecap:butt;stroke-linejoin:miter;stroke-opacity:1" d="M 459.967,378.544 473.538,378.544 z" id="boundary" inkscape:connector-curvature="0" />
	<path style="fill:none;stroke:red;stroke-width:1px;stroke-linecap:butt;stroke-linejoin:miter;stroke-opacity:1" d="M 466.752,214.342 480.323,214.342 z" id="boundary" inkscape:connector-curvature="0" />
	<path style="fill:none;stroke:red;stroke-width:1px;stroke-linecap:butt;stroke-linejoin:miter;stroke-opacity:1" d="M 473.538,378.544 487.108,378.544 z" id="boundary" inkscape:connector-curvature="0" />
	<path style="fill:none;stroke:red;stroke-width:1px;stroke-linecap:butt;stroke-linejoin:miter;stroke-opacity:1" d="M 480.323,214.342 493.893,214.342 z" id="boundary" inkscape:connector-curvature="0" />
	<path style="fill:none;stroke:red;stroke-width:1px;stroke-linecap:butt;stroke-linejoin:miter;stroke-opacity:1" d="M 487.108,378.544 500.679,378.544 z" id="boundary" inkscape:connector-curvature="0" />
	<path style="fill:none;stroke:red;stroke-width:1px;stroke-linecap:butt;stroke-linejoin:miter;stroke-opacity:1" d="M 493.893,214.342 507.464,214.342 z" id="boundary" inkscape:connector-curvature="0" />
	<path style="fill:none;stroke:red;stroke-width:1px;stroke-linecap:butt;stroke-linejoin:miter;stroke-opacity:1" d="M 500.679,378.544 514.249,378.544 z" id="boundary" inkscape:connector-curvature="0" />
	<path style="fill:none;stroke:red;stroke-width:1px;stroke-linecap:butt;stroke-linejoin:miter;stroke-opacity:1" d="M 507.464,214.342 521.034,214.342 z" id="boundary" inkscape:connector-curvature="0" />
	<path style="fill:none;stroke:red;stroke-width:1px;stroke-linecap:butt;stroke-linejoin:miter;stroke-opacity:1" d="M 514.249,378.544 527.819,378.544 z" id="boundary" inkscape:connector-curvature="0" />
	<path style="fill:none;stroke:red;stroke-width:1px;stroke-linecap:butt;stroke-linejoin:miter;stroke-opacity:1" d="M 521.034,214.342 534.605,214.342 z" id="boundary" inkscape:connector-curvature="0" />
	<path style="fill:none;stroke:red;stroke-width:1px;stroke-linecap:butt;stroke-linejoin:miter;stroke-opacity:1" d="M 527.819,378.544 541.39,378.544 z" id="boundary" inkscape:connector-curvature="0" />
	<path style="fill:none;stroke:red;stroke-width:1px;stroke-linecap:butt;stroke-linejoin:miter;stroke-opacity:1" d="M 534.605,214.342 548.175,214.342 z" id="boundary" inkscape:connector-curvature="0" />
	<path style="fill:none;stroke:red;stroke-width:1px;stroke-linecap:butt;stroke-linejoin:miter;stroke-opacity:1" d="M 541.39,378.544 554.96,378.544 z" id="boundary" inkscape:connector-curvature="0" />
	<path style="fill:none;stroke:red;stroke-width:1px;stroke-linecap:butt;stroke-linejoin:miter;stroke-opacity:1" d="M 548.175,214.342 561.746,214.342 z" id="boundary" inkscape:connector-curvature="0" />
	<path style="fill:none;stroke:red;stroke-width:1px;stroke-linecap:butt;stroke-linejoin:miter;stroke-opacity:1" d="M 554.96,378.544 568.531,378.544 z" id="boundary" inkscape:connector-curvature="0" />
	<path style="fill:none;stroke:red;stroke-width:1px;stroke-linecap:butt;stroke-linejoin:miter;stroke-opacity:1" d="M 561.746,214.342 575.316,214.342 z" id="boundary" inkscape:connector-curvature="0" />
	<path style="fill:none;stroke:red;stroke-width:1px;stroke-linecap:butt;stroke-linejoin:miter;stroke-opacity:1" d="M 568.531,378.544 582.101,378.544 z" id="boundary" inkscape:connector-curvature="0" />
	<path style="fill:none;stroke:red;stroke-width:1px;stroke-linecap:butt;stroke-linejoin:miter;stroke-opacity:1" d="M 575.316,214.342 588.886,214.342 z" id="boundary" inkscape:connector-curvature="0" />
	<path style="fill:none;stroke:red;stroke-width:1px;stroke-linecap:butt;stroke-linejoin:miter;stroke-opacity:1" d="M 582.101,378.544 595.672,378.544 z" id="boundary" inkscape:connector-curvature="0" />
	<path style="fill:none;stroke:red;stroke-width:1px;stroke-linecap:butt;stroke-linejoin:miter;stroke-opacity:1" d="M 588.886,214.342 602.457,214.342 z" id="boundary" inkscape:connector-curvature="0" />
	<path style="fill:none;stroke:red;stroke-width:1px;stroke-linecap:butt;stroke-linejoin:miter;stroke-opacity:1" d="M 595.672,378.544 609.242,378.544 z" id="boundary" inkscape:connector-curvature="0" />
	<path style="fill:none;stroke:red;stroke-width:1px;stroke-linecap:butt;stroke-linejoin:miter;stroke-opacity:1" d="M 602.457,214.342 616.027,214.342 z" id="boundary" inkscape:connector-curvature="0" />
	<path style="fill:none;stroke:red;stroke-width:1px;stroke-linecap:butt;stroke-linejoin:miter;stroke-opacity:1" d="M 609.242,378.544 622.813,378.544 z" id="boundary" inkscape:connector-curvature="0" />
	<path style="fill:none;stroke:red;stroke-width:1px;stroke-linecap:butt;stroke-linejoin:miter;stroke-opacity:1" d="M 616.027,214.342 629.598,214.342 z" id="boundary" inkscape:connector-curvature="0" />
	<path style="fill:none;stroke:red;stroke-width:1px;stroke-linecap:butt;stroke-linejoin:miter;stroke-opacity:1" d="M 622.813,378.544 636.383,378.544 z" id="boundary" inkscape:connector-curvature="0" />
	<path style="fill:none;stroke:red;stroke-width:1px;stroke-linecap:butt;stroke-linejoin:miter;stroke-opacity:1" d="M 629.598,214.342 643.168,214.342 z" id="boundary" inkscape:connector-curvature="0" />
	<path style="fill:none;stroke:red;stroke-width:1px;stroke-linecap:butt;stroke-linejoin:miter;stroke-opacity:1" d="M 636.383,378.544 649.953,378.544 z" id="boundary" inkscape:connector-curvature="0" />
	<path style="fill:none;stroke:red;stroke-width:1px;stroke-linecap:butt;stroke-linejoin:miter;stroke-opacity:1" d="M 643.168,214.342 656.739,214.342 z" id="boundary" inkscape:connector-curvature="0" />
	<path style="fill:none;stroke:red;stroke-width:1px;stroke-linecap:butt;stroke-linejoin:miter;stroke-opacity:1" d="M 649.953,378.544 663.524,378.544 z" id="boundary" inkscape:connector-curvature="0" />
	<path style="fill:none;stroke:red;stroke-width:1px;stroke-linecap:butt;stroke-linejoin:miter;stroke-opacity:1" d="M 656.739,214.342 670.309,214.342 z" id="boundary" inkscape:connector-curvature="0" />
	<path style="fill:none;stroke:red;stroke-width:1px;stroke-linecap:butt;stroke-linejoin:miter;stroke-opacity:1" d="M 663.524,378.544 677.094,378.544 z" id="boundary" inkscape:connector-curvature="0" />
	<path style="fill:none;stroke:red;stroke-width:1px;stroke-linecap:butt;stroke-linejoin:miter;stroke-opacity:1" d="M 670.309,214.342 683.88,214.342 z" id="boundary" inkscape:connector-curvature="0" />
	<path style="fill:none;stroke:red;stroke-width:1px;stroke-linecap:butt;stroke-linejoin:miter;stroke-opacity:1" d="M 677.094,378.544 690.665,378.544 z" id="boundary" inkscape:connector-curvature="0" />
	<path style="fill:none;stroke:red;stroke-width:1px;stroke-linecap:butt;stroke-linejoin:miter;stroke-opacity:1" d="M 683.88,214.342 697.45,214.342 z" id="boundary" inkscape:connector-curvature="0" />
	<path style="fill:none;stroke:red;stroke-width:1px;stroke-linecap:butt;stroke-linejoin:miter;stroke-opacity:1" d="M 690.665,378.544 704.235,378.544 z" id="boundary" inkscape:connector-curvature="0" />
	<path style="fill:none;stroke:red;stroke-width:1px;stroke-linecap:butt;stroke-linejoin:miter;stroke-opacity:1" d="M 697.45,214.342 711.021,214.342 z" id="boundary" inkscape:connector-curvature="0" />
	<path style="fill:none;stroke:red;stroke-width:1px;stroke-linecap:butt;stroke-linejoin:miter;stroke-opacity:1" d="M 704.235,378.544 717.806,378.544 z" id="boundary" inkscape:connector-curvature="0" />
	<path style="fill:none;stroke:red;stroke-width:1px;stroke-linecap:butt;stroke-linejoin:miter;stroke-opacity:1" d="M 711.021,214.342 724.591,214.342 z" id="boundary" inkscape:connector-curvature="0" />
	<path style="fill:none;stroke:red;stroke-width:1px;stroke-linecap:butt;stroke-linejoin:miter;stroke-opacity:1" d="M 717.806,378.544 731.376,378.544 z" id="boundary" inkscape:connector-curvature="0" />
	<path style="fill:none;stroke:red;stroke-width:1px;stroke-linecap:butt;stroke-linejoin:miter;stroke-opacity:1" d="M 724.591,214.342 738.161,214.342 z" id="boundary" inkscape:connector-curvature="0" />
	<path style="fill:none;stroke:red;stroke-width:1px;stroke-linecap:butt;stroke-linejoin:miter;stroke-opacity:1" d="M 731.376,378.544 744.947,378.544 z" id="boundary" inkscape:connector-curvature="0" />
	<path style="fill:none;stroke:red;stroke-width:1px;stroke-linecap:butt;stroke-linejoin:miter;stroke-opacity:1" d="M 738.161,214.342 751.732,214.342 z" id="boundary" inkscape:connector-curvature="0" />
	<path style="fill:none;stroke:red;stroke-width:1px;stroke-linecap:butt;stroke-linejoin:miter;stroke-opacity:1" d="M 744.947,378.544 758.517,378.544 z" id="boundary" inkscape:connector-curvature="0" />
	<path style="fill:none;stroke:red;stroke-width:1px;stroke-linecap:butt;stroke-linejoin:miter;stroke-opacity:1" d="M 751.732,214.342 765.302,214.342 z" id="boundary" inkscape:connector-curvature="0" />
	<path style="fill:none;stroke:red;stroke-width:1px;stroke-linecap:butt;stroke-linejoin:miter;stroke-opacity:1" d="M 758.517,378.544 772.088,378.544 z" id="boundary" inkscape:connector-curvature="0" />
	<path style="fill:none;stroke:red;stroke-width:1px;stroke-linecap:butt;stroke-linejoin:miter;stroke-opacity:1" d="M 765.302,214.342 778.873,214.342 z" id="boundary" inkscape:connector-curvature="0" />
	<path style="fill:none;stroke:red;stroke-width:1px;stroke-linecap:butt;stroke-linejoin:miter;stroke-opacity:1" d="M 772.088,378.544 785.658,378.544 z" id="boundary" inkscape:connector-curvature="0" />
	<path style="fill:none;stroke:red;stroke-width:1px;stroke-linecap:butt;stroke-linejoin:miter;stroke-opacity:1" d="M 778.873,214.342 792.443,214.342 z" id="boundary" inkscape:connector-curvature="0" />
	<path style="fill:none;stroke:red;stroke-width:1px;stroke-linecap:butt;stroke-linejoin:miter;stroke-opacity:1" d="M 785.658,378.544 799.228,378.544 z" id="boundary" inkscape:connector-curvature="0" />
	<path style="fill:none;stroke:red;stroke-width:1px;stroke-linecap:butt;stroke-linejoin:miter;stroke-opacity:1" d="M 792.443,214.342 806.014,214.342 z" id="boundary" inkscape:connector-curvature="0" />
	<path style="fill:none;stroke:red;stroke-width:1px;stroke-linecap:butt;stroke-linejoin:miter;stroke-opacity:1" d="M 799.228,378.544 812.799,378.544 z" id="boundary" inkscape:connector-curvature="0" />
	<path style="fill:none;stroke:red;stroke-width:1px;stroke-linecap:butt;stroke-linejoin:miter;stroke-opacity:1" d="M 806.014,214.342 819.584,214.342 z" id="boundary" inkscape:connector-curvature="0" />
	<path style="fill:none;stroke:red;stroke-width:1px;stroke-linecap:butt;stroke-linejoin:miter;stroke-opacity:1" d="M 812.799,378.544 826.369,378.544 z" id="boundary" inkscape:connector-curvature="0" />
	<path style="fill:none;stroke:red;stroke-width:1px;stroke-linecap:butt;stroke-linejoin:miter;stroke-opacity:1" d="M 819.584,214.342 833.155,214.342 z" id="boundary" inkscape:connector-curvature="0" />
	<path style="fill:none;stroke:red;stroke-width:1px;stroke-linecap:butt;stroke-linejoin:miter;stroke-opacity:1" d="M 826.369,378.544 839.94,378.544 z" id="boundary" inkscape:connector-curvature="0" />
	<path style="fill:none;stroke:red;stroke-width:1px;stroke-linecap:butt;stroke-linejoin:miter;stroke-opacity:1" d="M 833.155,214.342 846.725,214.342 z" id="boundary" inkscape:connector-curvature="0" />
	<path style="fill:none;stroke:red;stroke-width:1px;stroke-linecap:butt;stroke-linejoin:miter;stroke-opacity:1" d="M 839.94,378.544 853.51,378.544 z" id="boundary" inkscape:connector-curvature="0" />
	<path style="fill:none;stroke:red;stroke-width:1px;stroke-linecap:butt;stroke-linejoin:miter;stroke-opacity:1" d="M 846.725,214.342 860.295,214.342 z" id="boundary" inkscape:connector-curvature="0" />
	<path style="fill:none;stroke:red;stroke-width:1px;stroke-linecap:butt;stroke-linejoin:miter;stroke-opacity:1" d="M 853.51,378.544 867.081,378.544 z" id="boundary" inkscape:connector-curvature="0" />
	<path style="fill:none;stroke:red;stroke-width:1px;stroke-linecap:butt;stroke-linejoin:miter;stroke-opacity:1" d="M 860.295,214.342 873.866,214.342 z" id="boundary" inkscape:connector-curvature="0" />
	<path style="fill:none;stroke:red;stroke-width:1px;stroke-linecap:butt;stroke-linejoin:miter;stroke-opacity:1" d="M 867.081,378.544 880.651,378.544 z" id="boundary" inkscape:connector-curvature="0" />
	<path style="fill:none;stroke:red;stroke-width:1px;stroke-linecap:butt;stroke-linejoin:miter;stroke-opacity:1" d="M 873.866,214.342 887.436,214.342 z" id="boundary" inkscape:connector-curvature="0" />
	<path style="fill:none;stroke:red;stroke-width:1px;stroke-linecap:butt;stroke-linejoin:miter;stroke-opacity:1" d="M 880.651,378.544 894.222,378.544 z" id="boundary" inkscape:connector-curvature="0" />
	<path style="fill:none;stroke:red;stroke-width:1px;stroke-linecap:butt;stroke-linejoin:miter;stroke-opacity:1" d="M 887.436,214.342 901.007,214.342 z" id="boundary" inkscape:connector-curvature="0" />
	<path style="fill:none;stroke:red;stroke-width:1px;stroke-linecap:butt;stroke-linejoin:miter;stroke-opacity:1" d="M 894.222,378.544 907.792,378.544 z" id="boundary" inkscape:connector-curvature="0" />
	<path style="fill:none;stroke:red;stroke-width:1px;stroke-linecap:butt;stroke-linejoin:miter;stroke-opacity:1" d="M 901.007,214.342 914.577,214.342 z" id="boundary" inkscape:connector-curvature="0" />
	<path style="fill:none;stroke:red;stroke-width:1px;stroke-linecap:butt;stroke-linejoin:miter;stroke-opacity:1" d="M 907.792,378.544 921.363,378.544 z" id="boundary" inkscape:connector-curvature="0" />
	<path style="fill:none;stroke:red;stroke-width:1px;stroke-linecap:butt;stroke-linejoin:miter;stroke-opacity:1" d="M 914.577,214.342 928.148,214.342 z" id="boundary" inkscape:connector-curvature="0" />
	<path style="fill:none;stroke:red;stroke-width:1px;stroke-linecap:butt;stroke-linejoin:miter;stroke-opacity:1" d="M 921.363,378.544 934.933,378.544 z" id="boundary" inkscape:connector-curvature="0" />
	<path style="fill:none;stroke:red;stroke-width:1px;stroke-linecap:butt;stroke-linejoin:miter;stroke-opacity:1" d="M 928.148,214.342 941.718,214.342 z" id="boundary" inkscape:connector-curvature="0" />
	<path style="fill:none;stroke:red;stroke-width:1px;stroke-linecap:butt;stroke-linejoin:miter;stroke-opacity:1" d="M 934.933,378.544 948.503,378.544 z" id="boundary" inkscape:connector-curvature="0" />
	<path style="fill:none;stroke:red;stroke-width:1px;stroke-linecap:butt;stroke-linejoin:miter;stroke-opacity:1" d="M 941.718,214.342 955.289,214.342 z" id="boundary" inkscape:connector-curvature="0" />
	<path style="fill:none;stroke:red;stroke-width:1px;stroke-linecap:butt;stroke-linejoin:miter;stroke-opacity:1" d="M 948.503,378.544 962.074,378.544 z" id="boundary" inkscape:connector-curvature="0" />
	<path style="fill:none;stroke:red;stroke-width:1px;stroke-linecap:butt;stroke-linejoin:miter;stroke-opacity:1" d="M 955.289,214.342 968.859,214.342 z" id="boundary" inkscape:connector-curvature="0" />
	<path style="fill:none;stroke:red;stroke-width:1px;stroke-linecap:butt;stroke-linejoin:miter;stroke-opacity:1" d="M 962.074,378.544 975.644,378.544 z" id="boundary" inkscape:connector-curvature="0" />
	<path style="fill:none;stroke:red;stroke-width:1px;stroke-linecap:butt;stroke-linejoin:miter;stroke-opacity:1" d="M 968.859,214.342 982.43,214.342 z" id="boundary" inkscape:connector-curvature="0" />
	<path style="fill:none;stroke:red;stroke-width:1px;stroke-linecap:butt;stroke-linejoin:miter;stroke-opacity:1" d="M 975.644,378.544 989.215,378.544 z" id="boundary" inkscape:connector-curvature="0" />
	<path style="fill:none;stroke:red;stroke-width:1px;stroke-linecap:butt;stroke-linejoin:miter;stroke-opacity:1" d="M 982.43,214.342 996,218.413 z" id="boundary" inkscape:connector-curvature="0" />
	<path style="fill:none;stroke:red;stroke-width:1px;stroke-linecap:butt;stroke-linejoin:miter;stroke-opacity:1" d="M 989.215,378.544 996,354.118 z" id="boundary" inkscape:connector-curvature="0" />
	<path style="fill:none;stroke:red;stroke-width:1px;stroke-linecap:butt;stroke-linejoin:miter;stroke-opacity:1" d="M 996,218.413 996,231.984 z" id="boundary" inkscape:connector-curvature="0" />
	<path style="fill:none;stroke:red;stroke-width:1px;stroke-linecap:butt;stroke-linejoin:miter;stroke-opacity:1" d="M 996,231.984 996,245.554 z" id="boundary" inkscape:connector-curvature="0" />
	<path style="fill:none;stroke:red;stroke-width:1px;stroke-linecap:butt;stroke-linejoin:miter;stroke-opacity:1" d="M 996,245.554 996,259.124 z" id="boundary" inkscape:connector-curvature="0" />
	<path style="fill:none;stroke:red;stroke-width:1px;stroke-linecap:butt;stroke-linejoin:miter;stroke-opacity:1" d="M 996,259.124 996,272.695 z" id="boundary" inkscape:connector-curvature="0" />
	<path style="fill:none;stroke:red;stroke-width:1px;stroke-linecap:butt;stroke-linejoin:miter;stroke-opacity:1" d="M 996,272.695 996,286.265 z" id="boundary" inkscape:connector-curvature="0" />
	<path style="fill:none;stroke:red;stroke-width:1px;stroke-linecap:butt;stroke-linejoin:miter;stroke-opacity:1" d="M 996,286.265 996,299.836 z" id="boundary" inkscape:connector-curvature="0" />
	<path style="fill:none;stroke:red;stroke-width:1px;stroke-linecap:butt;stroke-linejoin:miter;stroke-opacity:1" d="M 996,299.836 996,313.406 z" id="boundary" inkscape:connector-curvature="0" />
	<path style="fill:none;stroke:red;stroke-width:1px;stroke-linecap:butt;stroke-linejoin:miter;stroke-opacity:1" d="M 996,313.406 996,326.977 z" id="boundary" inkscape:connector-curvature="0" />
	<path style="fill:none;stroke:red;stroke-width:1px;stroke-linecap:butt;stroke-linejoin:miter;stroke-opacity:1" d="M 996,326.977 996,340.547 z" id="boundary" inkscape:connector-curvature="0" />
	<path style="fill:none;stroke:red;stroke-width:1px;stroke-linecap:butt;stroke-linejoin:miter;stroke-opacity:1" d="M 996,340.547 996,354.118 z" id="boundary" inkscape:connector-curvature="0" />
	<circle cx="4" cy="8.07114" r="4" fill="#0" id="circle0"/>
	<circle cx="4" cy="21.6416" r="4" fill="#0" id="circle1"/>
	<circle cx="4" cy="35.212" r="4" fill="#0" id="circle2"/>
	<circle cx="4" cy="48.7825" r="4" fill="#0" id="circle3"/>
	<circle cx="4" cy="62.3529" r="4" fill="#0" id="circle4"/>
	<circle cx="4" cy="75.9234" r="4" fill="#0" id="circle5"/>
	<circle cx="4" cy="89.4938" r="4" fill="#0" id="circle6"/>
	<circle cx="4" cy="103.064" r="4" fill="#0" id="circle7"/>
	<circle cx="4" cy="116.635" r="4" fill="#0" id="circle8"/>
	<circle cx="4" cy="130.205" r="4" fill="#0" id="circle9"/>
	<circle cx="4" cy="143.776" r="4" fill="#0" id="circle10"/>
	<circle cx="4" cy="157.346" r="4" fill="#0" id="circle11"/>
	<circle cx="4" cy="170.917" r="4" fill="#0" id="circle12"/>
	<circle cx="12.1423" cy="181.773" r="4" fill="#0" id="circle13"/>
	<circle cx="17.5705" cy="4" r="4" fill="#0" id="circle14"/>
	<circle cx="25.7127" cy="181.773" r="4" fill="#0" id="circle15"/>
	<circle cx="31.1409" cy="4" r="4" fill="#0" id="circle16"/>
	<circle cx="31.1409" cy="195.343" r="4" fill="#0" id="circle17"/>
	<circle cx="31.1409" cy="208.914" r="4" fill="#0" id="circle18"/>
	<circle cx="31.1409" cy="222.484" r="4" fill="#0" id="circle19"/>
	<circle cx="31.1409" cy="236.055" r="4" fill="#0" id="circle20"/>
	<circle cx="31.1409" cy="249.625" r="4" fill="#0" id="circle21"/>
	<circle cx="31.1409" cy="263.196" r="4" fill="#0" id="circle22"/>
	<circle cx="31.1409" cy="276.766" r="4" fill="#0" id="circle23"/>
	<circle cx="31.1409" cy="290.337" r="4" fill="#0" id="circle24"/>
	<circle cx="31.1409" cy="303.907" r="4" fill="#0" id="circle25"/>
	<circle cx="31.1409" cy="317.477" r="4" fill="#0" id="circle26"/>
	<circle cx="31.1409" cy="331.048" r="4" fill="#0" id="circle27"/>
	<circle cx="31.1409" cy="344.618" r="4" fill="#0" id="circle28"/>
	<circle cx="31.1409" cy="358.189" r="4" fill="#0" id="circle29"/>
	<circle cx="35.212" cy="371.759" r="4" fill="#0" id="circle30"/>
	<circle cx="37.9261" cy="385.33" r="4" fill="#0" id="circle31"/>
	<circle cx="37.9261" cy="398.9" r="4" fill="#0" id="circle32"/>
	<circle cx="44.7114" cy="4" r="4" fill="#0" id="circle33"/>
	<circle cx="44.7114" cy="411.114" r="4" fill="#0" id="circle34"/>
	<circle cx="51.4966" cy="423.327" r="4" fill="#0" id="circle35"/>
	<circle cx="58.2818" cy="4" r="4" fill="#0" id="circle36"/>
	<circle cx="58.2818" cy="435.54" r="4" fill="#0" id="circle37"/>
	<circle cx="58.2818" cy="449.111" r="4" fill="#0" id="circle38"/>
	<circle cx="65.067" cy="461.324" r="4" fill="#0" id="circle39"/>
	<circle cx="71.8523" cy="4" r="4" fill="#0" id="circle40"/>
	<circle cx="71.8523" cy="473.538" r="4" fill="#0" id="circle41"/>
	<circle cx="79.9945" cy="484.394" r="4" fill="#0" id="circle42"/>
	<circle cx="85.4227" cy="4" r="4" fill="#0" id="circle43"/>
	<circle cx="86.7798" cy="496.607" r="4" fill="#0" id="circle44"/>
	<circle cx="96.2791" cy="507.464" r="4" fill="#0" id="circle45"/>
	<circle cx="98.9932" cy="4" r="4" fill="#0" id="circle46"/>
	<circle cx="103.064" cy="519.677" r="4" fill="#0" id="circle47"/>
	<circle cx="112.564" cy="4" r="4" fill="#0" id="circle48"/>
	<circle cx="112.564" cy="530.534" r="4" fill="#0" id="circle49"/>
	<circle cx="119.349" cy="542.747" r="4" fill="#0" id="circle50"/>
	<circle cx="126.134" cy="4" r="4" fill="#0" id="circle51"/>
	<circle cx="126.134" cy="554.96" r="4" fill="#0" id="circle52"/>
	<circle cx="132.919" cy="567.174" r="4" fill="#0" id="circle53"/>
	<circle cx="139.705" cy="4" r="4" fill="#0" id="circle54"/>
	<circle cx="141.062" cy="578.03" r="4" fill="#0" id="circle55"/>
	<circle cx="150.561" cy="588.886" r="4" fill="#0" id="circle56"/>
	<circle cx="153.275" cy="4" r="4" fill="#0" id="circle57"/>
	<circle cx="161.417" cy="598.386" r="4" fill="#0" id="circle58"/>
	<circle cx="166.845" cy="4" r="4" fill="#0" id="circle59"/>
	<circle cx="170.917" cy="609.242" r="4" fill="#0" id="circle60"/>
	<circle cx="180.416" cy="4" r="4" fill="#0" id="circle61"/>
	<circle cx="184.487" cy="614.67" r="4" fill="#0" id="circle62"/>
	<circle cx="193.986" cy="4" r="4" fill="#0" id="circle63"/>
	<circle cx="193.986" cy="625.527" r="4" fill="#0" id="circle64"/>
	<circle cx="207.557" cy="4" r="4" fill="#0" id="circle65"/>
	<circle cx="207.557" cy="629.598" r="4" fill="#0" id="circle66"/>
	<circle cx="219.77" cy="636.383" r="4" fill="#0" id="circle67"/>
	<circle cx="221.127" cy="4" r="4" fill="#0" id="circle68"/>
	<circle cx="231.984" cy="643.168" r="4" fill="#0" id="circle69"/>
	<circle cx="234.698" cy="4" r="4" fill="#0" id="circle70"/>
	<circle cx="244.197" cy="649.953" r="4" fill="#0" id="circle71"/>
	<circle cx="248.268" cy="4" r="4" fill="#0" id="circle72"/>
	<circle cx="255.053" cy="658.096" r="4" fill="#0" id="circle73"/>
	<circle cx="261.839" cy="4" r="4" fill="#0" id="circle74"/>
	<circle cx="268.624" cy="663.524" r="4" fill="#0" id="circle75"/>
	<circle cx="275.409" cy="4" r="4" fill="#0" id="circle76"/>
	<circle cx="280.837" cy="670.309" r="4" fill="#0" id="circle77"/>
	<circle cx="288.979" cy="4" r="4" fill="#0" id="circle78"/>
	<circle cx="293.051" cy="677.094" r="4" fill="#0" id="circle79"/>
	<circle cx="297.122" cy="378.544" r="4" fill="#0" id="circle80"/>
	<circle cx="297.122" cy="392.115" r="4" fill="#0" id="circle81"/>
	<circle cx="297.122" cy="405.685" r="4" fill="#0" id="circle82"/>
	<circle cx="297.122" cy="419.256" r="4" fill="#0" id="circle83"/>
	<circle cx="297.122" cy="432.826" r="4" fill="#0" id="circle84"/>
	<circle cx="299.836" cy="446.397" r="4" fill="#0" id="circle85"/>
	<circle cx="302.55" cy="4" r="4" fill="#0" id="circle86"/>
	<circle cx="303.907" cy="181.773" r="4" fill="#0" id="circle87"/>
	<circle cx="303.907" cy="195.343" r="4" fill="#0" id="circle88"/>
	<circle cx="303.907" cy="208.914" r="4" fill="#0" id="circle89"/>
	<circle cx="303.907" cy="459.967" r="4" fill="#0" id="circle90"/>
	<circle cx="303.907" cy="473.538" r="4" fill="#0" id="circle91"/>
	<circle cx="303.907" cy="487.108" r="4" fill="#0" id="circle92"/>
	<circle cx="306.621" cy="500.679" r="4" fill="#0" id="circle93"/>
	<circle cx="306.621" cy="677.094" r="4" fill="#0" id="circle94"/>
	<circle cx="310.692" cy="378.544" r="4" fill="#0" id="circle95"/>
	<circle cx="310.692" cy="514.249" r="4" fill="#0" id="circle96"/>
	<circle cx="310.692" cy="527.819" r="4" fill="#0" id="circle97"/>
	<circle cx="313.406" cy="541.39" r="4" fill="#0" id="circle98"/>
	<circle cx="316.12" cy="4" r="4" fill="#0" id="circle99"/>
	<circle cx="317.477" cy="181.773" r="4" fill="#0" id="circle100"/>
	<circle cx="317.477" cy="214.342" r="4" fill="#0" id="circle101"/>
	<circle cx="317.477" cy="554.96" r="4" fill="#0" id="circle102"/>
	<circle cx="318.834" cy="683.88" r="4" fill="#0" id="circle103"/>
	<circle cx="320.192" cy="568.531" r="4" fill="#0" id="circle104"/>
	<circle cx="324.263" cy="378.544" r="4" fill="#0" id="circle105"/>
	<circle cx="324.263" cy="582.101" r="4" fill="#0" id="circle106"/>
	<circle cx="324.263" cy="595.672" r="4" fill="#0" id="circle107"/>
	<circle cx="326.977" cy="609.242" r="4" fill="#0" id="circle108"/>
	<circle cx="329.691" cy="6.71409" r="4" fill="#0" id="circle109"/>
	<circle cx="331.048" cy="20.2845" r="4" fill="#0" id="circle110"/>
	<circle cx="331.048" cy="33.855" r="4" fill="#0" id="circle111"/>
	<circle cx="331.048" cy="47.4254" r="4" fill="#0" id="circle112"/>
	<circle cx="331.048" cy="60.9959" r="4" fill="#0" id="circle113"/>
	<circle cx="331.048" cy="74.5663" r="4" fill="#0" id="circle114"/>
	<circle cx="331.048" cy="88.1368" r="4" fill="#0" id="circle115"/>
	<circle cx="331.048" cy="101.707" r="4" fill="#0" id="circle116"/>
	<circle cx="331.048" cy="115.278" r="4" fill="#0" id="circle117"/>
	<circle cx="331.048" cy="128.848" r="4" fill="#0" id="circle118"/>
	<circle cx="331.048" cy="142.419" r="4" fill="#0" id="circle119"/>
	<circle cx="331.048" cy="155.989" r="4" fill="#0" id="circle120"/>
	<circle cx="331.048" cy="169.56" r="4" fill="#0" id="circle121"/>
	<circle cx="331.048" cy="214.342" r="4" fill="#0" id="circle122"/>
	<circle cx="331.048" cy="622.813" r="4" fill="#0" id="circle123"/>
	<circle cx="332.405" cy="687.951" r="4" fill="#0" id="circle124"/>
	<circle cx="337.833" cy="378.544" r="4" fill="#0" id="circle125"/>
	<circle cx="337.833" cy="635.026" r="4" fill="#0" id="circle126"/>
	<circle cx="337.833" cy="648.596" r="4" fill="#0" id="circle127"/>
	<circle cx="344.618" cy="214.342" r="4" fill="#0" id="circle128"/>
	<circle cx="344.618" cy="660.81" r="4" fill="#0" id="circle129"/>
	<circle cx="345.975" cy="690.665" r="4" fill="#0" id="circle130"/>
	<circle cx="351.404" cy="378.544" r="4" fill="#0" id="circle131"/>
	<circle cx="351.404" cy="673.023" r="4" fill="#0" id="circle132"/>
	<circle cx="358.189" cy="214.342" r="4" fill="#0" id="circle133"/>
	<circle cx="364.974" cy="378.544" r="4" fill="#0" id="circle134"/>
	<circle cx="371.759" cy="214.342" r="4" fill="#0" id="circle135"/>
	<circle cx="378.544" cy="378.544" r="4" fill="#0" id="circle136"/>
	<circle cx="385.33" cy="214.342" r="4" fill="#0" id="circle137"/>
	<circle cx="392.115" cy="378.544" r="4" fill="#0" id="circle138"/>
	<circle cx="398.9" cy="214.342" r="4" fill="#0" id="circle139"/>
	<circle cx="405.685" cy="378.544" r="4" fill="#0" id="circle140"/>
	<circle cx="412.471" cy="214.342" r="4" fill="#0" id="circle141"/>
	<circle cx="419.256" cy="378.544" r="4" fill="#0" id="circle142"/>
	<circle cx="426.041" cy="214.342" r="4" fill="#0" id="circle143"/>
	<circle cx="432.826" cy="378.544" r="4" fill="#0" id="circle144"/>
	<circle cx="439.611" cy="214.342" r="4" fill="#0" id="circle145"/>
	<circle cx="446.397" cy="378.544" r="4" fill="#0" id="circle146"/>
	<circle cx="453.182" cy="214.342" r="4" fill="#0" id="circle147"/>
	<circle cx="459.967" cy="378.544" r="4" fill="#0" id="circle148"/>
	<circle cx="466.752" cy="214.342" r="4" fill="#0" id="circle149"/>
	<circle cx="473.538" cy="378.544" r="4" fill="#0" id="circle150"/>
	<circle cx="480.323" cy="214.342" r="4" fill="#0" id="circle151"/>
	<circle cx="487.108" cy="378.544" r="4" fill="#0" id="circle152"/>
	<circle cx="493.893" cy="214.342" r="4" fill="#0" id="circle153"/>
	<circle cx="500.679" cy="378.544" r="4" fill="#0" id="circle154"/>
	<circle cx="507.464" cy="214.342" r="4" fill="#0" id="circle155"/>
	<circle cx="514.249" cy="378.544" r="4" fill="#0" id="circle156"/>
	<circle cx="521.034" cy="214.342" r="4" fill="#0" id="circle157"/>
	<circle cx="527.819" cy="378.544" r="4" fill="#0" id="circle158"/>
	<circle cx="534.605" cy="214.342" r="4" fill="#0" id="circle159"/>
	<circle cx="541.39" cy="378.544" r="4" fill="#0" id="circle160"/>
	<circle cx="548.175" cy="214.342" r="4" fill="#0" id="circle161"/>
	<circle cx="554.96" cy="378.544" r="4" fill="#0" id="circle162"/>
	<circle cx="561.746" cy="214.342" r="4" fill="#0" id="circle163"/>
	<circle cx="568.531" cy="378.544" r="4" fill="#0" id="circle164"/>
	<circle cx="575.316" cy="214.342" r="4" fill="#0" id="circle165"/>
	<circle cx="582.101" cy="378.544" r="4" fill="#0" id="circle166"/>
	<circle cx="588.886" cy="214.342" r="4" fill="#0" id="circle167"/>
	<circle cx="595.672" cy="378.544" r="4" fill="#0" id="circle168"/>
	<circle cx="602.457" cy="214.342" r="4" fill="#0" id="circle169"/>
	<circle cx="609.242" cy="378.544" r="4" fill="#0" id="circle170"/>
	<circle cx="616.027" cy="214.342" r="4" fill="#0" id="circle171"/>
	<circle cx="622.813" cy="378.544" r="4" fill="#0" id="circle172"/>
	<circle cx="629.598" cy="214.342" r="4" fill="#0" id="circle173"/>
	<circle cx="636.383" cy="378.544" r="4" fill="#0" id="circle174"/>
	<circle cx="643.168" cy="214.342" r="4" fill="#0" id="circle175"/>
	<circle cx="649.953" cy="378.544" r="4" fill="#0" id="circle176"/>
	<circle cx="656.739" cy="214.342" r="4" fill="#0" id="circle177"/>
	<circle cx="663.524" cy="378.544" r="4" fill="#0" id="circle178"/>
	<circle cx="670.309" cy="214.342" r="4" fill="#0" id="circle179"/>
	<circle cx="677.094" cy="378.544" r="4" fill="#0" id="circle180"/>
	<circle cx="683.88" cy="214.342" r="4" fill="#0" id="circle181"/>
	<circle cx="690.665" cy="378.544" r="4" fill="#0" id="circle182"/>
	<circle cx="697.45" cy="214.342" r="4" fill="#0" id="circle183"/>
	<circle cx="704.235" cy="378.544" r="4" fill="#0" id="circle184"/>
	<circle cx="711.021" cy="214.342" r="4" fill="#0" id="circle185"/>
	<circle cx="717.806" cy="378.544" r="4" fill="#0" id="circle186"/>
	<circle cx="724.591" cy="214.342" r="4" fill="#0" id="circle187"/>
	<circle cx="731.376" cy="378.544" r="4" fill="#0" id="circle188"/>
	<circle cx="738.161" cy="214.342" r="4" fill="#0" id="circle189"/>
	<circle cx="744.947" cy="378.544" r="4" fill="#0" id="circle190"/>
	<circle cx="751.732" cy="214.342" r="4" fill="#0" id="circle191"/>
	<circle cx="758.517" cy="378.544" r="4" fill="#0" id="circle192"/>
	<circle cx="765.302" cy="214.342" r="4" fill="#0" id="circle193"/>
	<circle cx="772.088" cy="378.544" r="4" fill="#0" id="circle194"/>
	<circle cx="778.873" cy="214.342" r="4" fill="#0" id="circle195"/>
	<circle cx="785.658" cy="378.544" r="4" fill="#0" id="circle196"/>
	<circle cx="792.443" cy="214.342" r="4" fill="#0" id="circle197"/>
	<circle cx="799.228" cy="378.544" r="4" fill="#0" id="circle198"/>
	<circle cx="806.014" cy="214.342" r="4" fill="#0" id="circle199"/>
	<circle cx="812.799" cy="378.544" r="4" fill="#0" id="circle200"/>
	<circle cx="819.584" cy="214.342" r="4" fill="#0" id="circle201"/>
	<circle cx="826.369" cy="378.544" r="4" fill="#0" id="circle202"/>
	<circle cx="833.155" cy="214.342" r="4" fill="#0" id="circle203"/>
	<circle cx="839.94" cy="378.544" r="4" fill="#0" id="circle204"/>
	<circle cx="846.725" cy="214.342" r="4" fill="#0" id="circle205"/>
	<circle cx="853.51" cy="378.544" r="4" fill="#0" id="circle206"/>
	<circle cx="860.295" cy="214.342" r="4" fill="#0" id="circle207"/>
	<circle cx="867.081" cy="378.544" r="4" fill="#0" id="circle208"/>
	<circle cx="873.866" cy="214.342" r="4" fill="#0" id="circle209"/>
	<circle cx="880.651" cy="378.544" r="4" fill="#0" id="circle210"/>
	<circle cx="887.436" cy="214.342" r="4" fill="#0" id="circle211"/>
	<circle cx="894.222" cy="378.544" r="4" fill="#0" id="circle212"/>
	<circle cx="901.007" cy="214.342" r="4" fill="#0" id="circle213"/>
	<circle cx="907.792" cy="378.544" r="4" fill="#0" id="circle214"/>
	<circle cx="914.577" cy="214.342" r="4" fill="#0" id="circle215"/>
	<circle cx="921.363" cy="378.544" r="4" fill="#0" id="circle216"/>
	<circle cx="928.148" cy="214.342" r="4" fill="#0" id="circle217"/>
	<circle cx="934.933" cy="378.544" r="4" fill="#0" id="circle218"/>
	<circle cx="941.718" cy="214.342" r="4" fill="#0" id="circle219"/>
	<circle cx="948.503" cy="378.544" r="4" fill="#0" id="circle220"/>
	<circle cx="955.289" cy="214.342" r="4" fill="#0" id="circle221"/>
	<circle cx="962.074" cy="378.544" r="4" fill="#0" id="circle222"/>
	<circle cx="968.859" cy="214.342" r="4" fill="#0" id="circle223"/>
	<circle cx="975.644" cy="378.544" r="4" fill="#0" id="circle224"/>
	<circle cx="982.43" cy="214.342" r="4" fill="#0" id="circle225"/>
	<circle cx="989.215" cy="378.544" r="4" fill="#0" id="circle226"/>
	<circle cx="996" cy="218.413" r="4" fill="#0" id="circle227"/>
	<circle cx="996" cy="231.984" r="4" fill="#0" id="circle228"/>
	<circle cx="996" cy="245.554" r="4" fill="#0" id="circle229"/>
	<circle cx="996" cy="259.124" r="4" fill="#0" id="circle230"/>
	<circle cx="996" cy="272.695" r="4" fill="#0" id="circle231"/>
	<circle cx="996" cy="286.265" r="4" fill="#0" id="circle232"/>
	<circle cx="996" cy="299.836" r="4" fill="#0" id="circle233"/>
	<circle cx="996" cy="313.406" r="4" fill="#0" id="circle234"/>
	<circle cx="996" cy="326.977" r="4" fill="#0" id="circle235"/>
	<circle cx="996" cy="340.547" r="4" fill="#0" id="circle236"/>
	<circle cx="996" cy="354.118" r="4" fill="#0" id="circle237"/>
	</g>
</svg>