<?xml version="1.0" encoding="UTF-8" standalone="no"?>
<!-- Created with CurveBenchmark -->
<svg
	xmlns:dc="http://purl.org/dc/elements/1.1/"
	xmlns:cc="http://creativecommons.org/ns#"
	xmlns:rdf="http://www.w3.org/1999/02/22-rdf-syntax-ns#"
	xmlns:svg="http://www.w3.org/2000/svg"
	xmlns="http://www.w3.org/2000/svg"
	xmlns:sodipodi="http://sodipodi.sourceforge.net/DTD/sodipodi-0.dtd"
	xmlns:inkscape="http://www.inkscape.org/namespaces/inkscape"
	width="1000"
	height="1000"
	id="svg2"
	version="1.1"
	sodipodi:docname="manifold/vicur-tool45.png.txt">
<defs
	id="defs4" />
<metadata
	id="metadata7">
	<rdf:RDF>
		<cc:Work
			rdf:about="">
			<dc:format>image/svg+xml</dc:format>
			<dc:type
				rdf:resource="http://purl.org/dc/dcmitype/StillImage" />
			<dc:title></dc:title>
		</cc:Work>
	</rdf:RDF>
</metadata>
<g
	inkscape:label="Layer 1"
	inkscape:groupmode="layer"
	id="layer1">
	<path style="fill:none;stroke:red;stroke-width:1px;stroke-linecap:butt;stroke-linejoin:miter;stroke-opacity:1" d="M 4,130.201 4,159.55 z" id="boundary" inkscape:connector-curvature="0" />
	<path style="fill:none;stroke:red;stroke-width:1px;stroke-linecap:butt;stroke-linejoin:miter;stroke-opacity:1" d="M 4,130.201 27.4793,106.722 z" id="boundary" inkscape:connector-curvature="0" />
	<path style="fill:none;stroke:red;stroke-width:1px;stroke-linecap:butt;stroke-linejoin:miter;stroke-opacity:1" d="M 4,159.55 18.6746,185.964 z" id="boundary" inkscape:connector-curvature="0" />
	<path style="fill:none;stroke:red;stroke-width:1px;stroke-linecap:butt;stroke-linejoin:miter;stroke-opacity:1" d="M 18.6746,185.964 18.6746,215.314 z" id="boundary" inkscape:connector-curvature="0" />
	<path style="fill:none;stroke:red;stroke-width:1px;stroke-linecap:butt;stroke-linejoin:miter;stroke-opacity:1" d="M 18.6746,215.314 39.2189,238.793 z" id="boundary" inkscape:connector-curvature="0" />
	<path style="fill:none;stroke:red;stroke-width:1px;stroke-linecap:butt;stroke-linejoin:miter;stroke-opacity:1" d="M 27.4793,106.722 53.8935,121.396 z" id="boundary" inkscape:connector-curvature="0" />
	<path style="fill:none;stroke:red;stroke-width:1px;stroke-linecap:butt;stroke-linejoin:miter;stroke-opacity:1" d="M 39.2189,238.793 68.568,250.533 z" id="boundary" inkscape:connector-curvature="0" />
	<path style="fill:none;stroke:red;stroke-width:1px;stroke-linecap:butt;stroke-linejoin:miter;stroke-opacity:1" d="M 53.8935,121.396 77.3728,141.941 z" id="boundary" inkscape:connector-curvature="0" />
	<path style="fill:none;stroke:red;stroke-width:1px;stroke-linecap:butt;stroke-linejoin:miter;stroke-opacity:1" d="M 68.568,250.533 94.9822,265.207 z" id="boundary" inkscape:connector-curvature="0" />
	<path style="fill:none;stroke:red;stroke-width:1px;stroke-linecap:butt;stroke-linejoin:miter;stroke-opacity:1" d="M 77.3728,141.941 106.722,150.746 z" id="boundary" inkscape:connector-curvature="0" />
	<path style="fill:none;stroke:red;stroke-width:1px;stroke-linecap:butt;stroke-linejoin:miter;stroke-opacity:1" d="M 94.9822,265.207 124.331,271.077 z" id="boundary" inkscape:connector-curvature="0" />
	<path style="fill:none;stroke:red;stroke-width:1px;stroke-linecap:butt;stroke-linejoin:miter;stroke-opacity:1" d="M 106.722,150.746 136.071,130.201 z" id="boundary" inkscape:connector-curvature="0" />
	<path style="fill:none;stroke:red;stroke-width:1px;stroke-linecap:butt;stroke-linejoin:miter;stroke-opacity:1" d="M 121.396,12.8047 136.071,39.2189 z" id="boundary" inkscape:connector-curvature="0" />
	<path style="fill:none;stroke:red;stroke-width:1px;stroke-linecap:butt;stroke-linejoin:miter;stroke-opacity:1" d="M 121.396,12.8047 150.746,4 z" id="boundary" inkscape:connector-curvature="0" />
	<path style="fill:none;stroke:red;stroke-width:1px;stroke-linecap:butt;stroke-linejoin:miter;stroke-opacity:1" d="M 124.331,271.077 150.746,285.751 z" id="boundary" inkscape:connector-curvature="0" />
	<path style="fill:none;stroke:red;stroke-width:1px;stroke-linecap:butt;stroke-linejoin:miter;stroke-opacity:1" d="M 136.071,39.2189 150.746,65.6331 z" id="boundary" inkscape:connector-curvature="0" />
	<path style="fill:none;stroke:red;stroke-width:1px;stroke-linecap:butt;stroke-linejoin:miter;stroke-opacity:1" d="M 136.071,130.201 159.55,106.722 z" id="boundary" inkscape:connector-curvature="0" />
	<path style="fill:none;stroke:red;stroke-width:1px;stroke-linecap:butt;stroke-linejoin:miter;stroke-opacity:1" d="M 150.746,4 180.095,4 z" id="boundary" inkscape:connector-curvature="0" />
	<path style="fill:none;stroke:red;stroke-width:1px;stroke-linecap:butt;stroke-linejoin:miter;stroke-opacity:1" d="M 150.746,65.6331 159.55,106.722 z" id="boundary" inkscape:connector-curvature="0" />
	<path style="fill:none;stroke:red;stroke-width:1px;stroke-linecap:butt;stroke-linejoin:miter;stroke-opacity:1" d="M 150.746,285.751 180.095,285.751 z" id="boundary" inkscape:connector-curvature="0" />
	<path style="fill:none;stroke:red;stroke-width:1px;stroke-linecap:butt;stroke-linejoin:miter;stroke-opacity:1" d="M 180.095,4 206.509,18.6746 z" id="boundary" inkscape:connector-curvature="0" />
	<path style="fill:none;stroke:red;stroke-width:1px;stroke-linecap:butt;stroke-linejoin:miter;stroke-opacity:1" d="M 180.095,285.751 209.444,285.751 z" id="boundary" inkscape:connector-curvature="0" />
	<path style="fill:none;stroke:red;stroke-width:1px;stroke-linecap:butt;stroke-linejoin:miter;stroke-opacity:1" d="M 206.509,18.6746 235.858,21.6095 z" id="boundary" inkscape:connector-curvature="0" />
	<path style="fill:none;stroke:red;stroke-width:1px;stroke-linecap:butt;stroke-linejoin:miter;stroke-opacity:1" d="M 209.444,285.751 235.858,300.426 z" id="boundary" inkscape:connector-curvature="0" />
	<path style="fill:none;stroke:red;stroke-width:1px;stroke-linecap:butt;stroke-linejoin:miter;stroke-opacity:1" d="M 235.858,21.6095 256.402,45.0888 z" id="boundary" inkscape:connector-curvature="0" />
	<path style="fill:none;stroke:red;stroke-width:1px;stroke-linecap:butt;stroke-linejoin:miter;stroke-opacity:1" d="M 235.858,300.426 262.272,315.101 z" id="boundary" inkscape:connector-curvature="0" />
	<path style="fill:none;stroke:red;stroke-width:1px;stroke-linecap:butt;stroke-linejoin:miter;stroke-opacity:1" d="M 256.402,45.0888 285.751,56.8284 z" id="boundary" inkscape:connector-curvature="0" />
	<path style="fill:none;stroke:red;stroke-width:1px;stroke-linecap:butt;stroke-linejoin:miter;stroke-opacity:1" d="M 262.272,315.101 291.621,326.84 z" id="boundary" inkscape:connector-curvature="0" />
	<path style="fill:none;stroke:red;stroke-width:1px;stroke-linecap:butt;stroke-linejoin:miter;stroke-opacity:1" d="M 285.751,56.8284 300.426,83.2426 z" id="boundary" inkscape:connector-curvature="0" />
	<path style="fill:none;stroke:red;stroke-width:1px;stroke-linecap:butt;stroke-linejoin:miter;stroke-opacity:1" d="M 291.621,326.84 315.101,344.45 z" id="boundary" inkscape:connector-curvature="0" />
	<path style="fill:none;stroke:red;stroke-width:1px;stroke-linecap:butt;stroke-linejoin:miter;stroke-opacity:1" d="M 300.426,83.2426 315.101,109.657 z" id="boundary" inkscape:connector-curvature="0" />
	<path style="fill:none;stroke:red;stroke-width:1px;stroke-linecap:butt;stroke-linejoin:miter;stroke-opacity:1" d="M 315.101,109.657 329.775,136.071 z" id="boundary" inkscape:connector-curvature="0" />
	<path style="fill:none;stroke:red;stroke-width:1px;stroke-linecap:butt;stroke-linejoin:miter;stroke-opacity:1" d="M 315.101,344.45 344.45,350.32 z" id="boundary" inkscape:connector-curvature="0" />
	<path style="fill:none;stroke:red;stroke-width:1px;stroke-linecap:butt;stroke-linejoin:miter;stroke-opacity:1" d="M 329.775,136.071 329.775,165.42 z" id="boundary" inkscape:connector-curvature="0" />
	<path style="fill:none;stroke:red;stroke-width:1px;stroke-linecap:butt;stroke-linejoin:miter;stroke-opacity:1" d="M 329.775,165.42 344.45,191.834 z" id="boundary" inkscape:connector-curvature="0" />
	<path style="fill:none;stroke:red;stroke-width:1px;stroke-linecap:butt;stroke-linejoin:miter;stroke-opacity:1" d="M 344.45,191.834 344.45,221.183 z" id="boundary" inkscape:connector-curvature="0" />
	<path style="fill:none;stroke:red;stroke-width:1px;stroke-linecap:butt;stroke-linejoin:miter;stroke-opacity:1" d="M 344.45,221.183 367.929,238.793 z" id="boundary" inkscape:connector-curvature="0" />
	<path style="fill:none;stroke:red;stroke-width:1px;stroke-linecap:butt;stroke-linejoin:miter;stroke-opacity:1" d="M 344.45,350.32 364.994,373.799 z" id="boundary" inkscape:connector-curvature="0" />
	<path style="fill:none;stroke:red;stroke-width:1px;stroke-linecap:butt;stroke-linejoin:miter;stroke-opacity:1" d="M 364.994,373.799 388.473,394.343 z" id="boundary" inkscape:connector-curvature="0" />
	<path style="fill:none;stroke:red;stroke-width:1px;stroke-linecap:butt;stroke-linejoin:miter;stroke-opacity:1" d="M 367.929,238.793 394.343,253.467 z" id="boundary" inkscape:connector-curvature="0" />
	<path style="fill:none;stroke:red;stroke-width:1px;stroke-linecap:butt;stroke-linejoin:miter;stroke-opacity:1" d="M 388.473,394.343 409.018,417.822 z" id="boundary" inkscape:connector-curvature="0" />
	<path style="fill:none;stroke:red;stroke-width:1px;stroke-linecap:butt;stroke-linejoin:miter;stroke-opacity:1" d="M 394.343,253.467 414.888,276.947 z" id="boundary" inkscape:connector-curvature="0" />
	<path style="fill:none;stroke:red;stroke-width:1px;stroke-linecap:butt;stroke-linejoin:miter;stroke-opacity:1" d="M 409.018,417.822 438.367,429.562 z" id="boundary" inkscape:connector-curvature="0" />
	<path style="fill:none;stroke:red;stroke-width:1px;stroke-linecap:butt;stroke-linejoin:miter;stroke-opacity:1" d="M 414.888,276.947 444.237,288.686 z" id="boundary" inkscape:connector-curvature="0" />
	<path style="fill:none;stroke:red;stroke-width:1px;stroke-linecap:butt;stroke-linejoin:miter;stroke-opacity:1" d="M 438.367,429.562 464.781,444.237 z" id="boundary" inkscape:connector-curvature="0" />
	<path style="fill:none;stroke:red;stroke-width:1px;stroke-linecap:butt;stroke-linejoin:miter;stroke-opacity:1" d="M 444.237,288.686 461.846,312.166 z" id="boundary" inkscape:connector-curvature="0" />
	<path style="fill:none;stroke:red;stroke-width:1px;stroke-linecap:butt;stroke-linejoin:miter;stroke-opacity:1" d="M 461.846,312.166 485.325,329.775 z" id="boundary" inkscape:connector-curvature="0" />
	<path style="fill:none;stroke:red;stroke-width:1px;stroke-linecap:butt;stroke-linejoin:miter;stroke-opacity:1" d="M 464.781,444.237 494.13,455.976 z" id="boundary" inkscape:connector-curvature="0" />
	<path style="fill:none;stroke:red;stroke-width:1px;stroke-linecap:butt;stroke-linejoin:miter;stroke-opacity:1" d="M 485.325,329.775 514.675,341.515 z" id="boundary" inkscape:connector-curvature="0" />
	<path style="fill:none;stroke:red;stroke-width:1px;stroke-linecap:butt;stroke-linejoin:miter;stroke-opacity:1" d="M 494.13,455.976 523.479,461.846 z" id="boundary" inkscape:connector-curvature="0" />
	<path style="fill:none;stroke:red;stroke-width:1px;stroke-linecap:butt;stroke-linejoin:miter;stroke-opacity:1" d="M 514.675,341.515 541.089,356.189 z" id="boundary" inkscape:connector-curvature="0" />
	<path style="fill:none;stroke:red;stroke-width:1px;stroke-linecap:butt;stroke-linejoin:miter;stroke-opacity:1" d="M 523.479,461.846 552.828,461.846 z" id="boundary" inkscape:connector-curvature="0" />
	<path style="fill:none;stroke:red;stroke-width:1px;stroke-linecap:butt;stroke-linejoin:miter;stroke-opacity:1" d="M 541.089,356.189 564.568,373.799 z" id="boundary" inkscape:connector-curvature="0" />
	<path style="fill:none;stroke:red;stroke-width:1px;stroke-linecap:butt;stroke-linejoin:miter;stroke-opacity:1" d="M 552.828,461.846 576.308,479.456 z" id="boundary" inkscape:connector-curvature="0" />
	<path style="fill:none;stroke:red;stroke-width:1px;stroke-linecap:butt;stroke-linejoin:miter;stroke-opacity:1" d="M 564.568,373.799 588.047,391.408 z" id="boundary" inkscape:connector-curvature="0" />
	<path style="fill:none;stroke:red;stroke-width:1px;stroke-linecap:butt;stroke-linejoin:miter;stroke-opacity:1" d="M 576.308,479.456 605.657,491.195 z" id="boundary" inkscape:connector-curvature="0" />
	<path style="fill:none;stroke:red;stroke-width:1px;stroke-linecap:butt;stroke-linejoin:miter;stroke-opacity:1" d="M 588.047,391.408 617.396,403.148 z" id="boundary" inkscape:connector-curvature="0" />
	<path style="fill:none;stroke:red;stroke-width:1px;stroke-linecap:butt;stroke-linejoin:miter;stroke-opacity:1" d="M 605.657,491.195 623.266,514.675 z" id="boundary" inkscape:connector-curvature="0" />
	<path style="fill:none;stroke:red;stroke-width:1px;stroke-linecap:butt;stroke-linejoin:miter;stroke-opacity:1" d="M 617.396,403.148 643.811,417.822 z" id="boundary" inkscape:connector-curvature="0" />
	<path style="fill:none;stroke:red;stroke-width:1px;stroke-linecap:butt;stroke-linejoin:miter;stroke-opacity:1" d="M 623.266,514.675 652.615,526.414 z" id="boundary" inkscape:connector-curvature="0" />
	<path style="fill:none;stroke:red;stroke-width:1px;stroke-linecap:butt;stroke-linejoin:miter;stroke-opacity:1" d="M 643.811,417.822 667.29,438.367 z" id="boundary" inkscape:connector-curvature="0" />
	<path style="fill:none;stroke:red;stroke-width:1px;stroke-linecap:butt;stroke-linejoin:miter;stroke-opacity:1" d="M 652.615,526.414 673.16,549.893 z" id="boundary" inkscape:connector-curvature="0" />
	<path style="fill:none;stroke:red;stroke-width:1px;stroke-linecap:butt;stroke-linejoin:miter;stroke-opacity:1" d="M 667.29,438.367 693.704,453.041 z" id="boundary" inkscape:connector-curvature="0" />
	<path style="fill:none;stroke:red;stroke-width:1px;stroke-linecap:butt;stroke-linejoin:miter;stroke-opacity:1" d="M 673.16,549.893 699.574,564.568 z" id="boundary" inkscape:connector-curvature="0" />
	<path style="fill:none;stroke:red;stroke-width:1px;stroke-linecap:butt;stroke-linejoin:miter;stroke-opacity:1" d="M 693.704,453.041 723.053,458.911 z" id="boundary" inkscape:connector-curvature="0" />
	<path style="fill:none;stroke:red;stroke-width:1px;stroke-linecap:butt;stroke-linejoin:miter;stroke-opacity:1" d="M 699.574,564.568 725.988,579.243 z" id="boundary" inkscape:connector-curvature="0" />
	<path style="fill:none;stroke:red;stroke-width:1px;stroke-linecap:butt;stroke-linejoin:miter;stroke-opacity:1" d="M 723.053,458.911 752.402,464.781 z" id="boundary" inkscape:connector-curvature="0" />
	<path style="fill:none;stroke:red;stroke-width:1px;stroke-linecap:butt;stroke-linejoin:miter;stroke-opacity:1" d="M 725.988,579.243 755.337,585.112 z" id="boundary" inkscape:connector-curvature="0" />
	<path style="fill:none;stroke:red;stroke-width:1px;stroke-linecap:butt;stroke-linejoin:miter;stroke-opacity:1" d="M 752.402,464.781 770.012,488.26 z" id="boundary" inkscape:connector-curvature="0" />
	<path style="fill:none;stroke:red;stroke-width:1px;stroke-linecap:butt;stroke-linejoin:miter;stroke-opacity:1" d="M 755.337,585.112 775.882,608.592 z" id="boundary" inkscape:connector-curvature="0" />
	<path style="fill:none;stroke:red;stroke-width:1px;stroke-linecap:butt;stroke-linejoin:miter;stroke-opacity:1" d="M 770.012,488.26 796.426,502.935 z" id="boundary" inkscape:connector-curvature="0" />
	<path style="fill:none;stroke:red;stroke-width:1px;stroke-linecap:butt;stroke-linejoin:miter;stroke-opacity:1" d="M 775.882,608.592 805.231,620.331 z" id="boundary" inkscape:connector-curvature="0" />
	<path style="fill:none;stroke:red;stroke-width:1px;stroke-linecap:butt;stroke-linejoin:miter;stroke-opacity:1" d="M 796.426,502.935 822.84,517.609 z" id="boundary" inkscape:connector-curvature="0" />
	<path style="fill:none;stroke:red;stroke-width:1px;stroke-linecap:butt;stroke-linejoin:miter;stroke-opacity:1" d="M 805.231,620.331 831.645,635.006 z" id="boundary" inkscape:connector-curvature="0" />
	<path style="fill:none;stroke:red;stroke-width:1px;stroke-linecap:butt;stroke-linejoin:miter;stroke-opacity:1" d="M 822.84,517.609 849.254,532.284 z" id="boundary" inkscape:connector-curvature="0" />
	<path style="fill:none;stroke:red;stroke-width:1px;stroke-linecap:butt;stroke-linejoin:miter;stroke-opacity:1" d="M 831.645,635.006 855.124,652.615 z" id="boundary" inkscape:connector-curvature="0" />
	<path style="fill:none;stroke:red;stroke-width:1px;stroke-linecap:butt;stroke-linejoin:miter;stroke-opacity:1" d="M 849.254,532.284 858.059,561.633 z" id="boundary" inkscape:connector-curvature="0" />
	<path style="fill:none;stroke:red;stroke-width:1px;stroke-linecap:butt;stroke-linejoin:miter;stroke-opacity:1" d="M 855.124,652.615 881.538,667.29 z" id="boundary" inkscape:connector-curvature="0" />
	<path style="fill:none;stroke:red;stroke-width:1px;stroke-linecap:butt;stroke-linejoin:miter;stroke-opacity:1" d="M 858.059,561.633 887.408,570.438 z" id="boundary" inkscape:connector-curvature="0" />
	<path style="fill:none;stroke:red;stroke-width:1px;stroke-linecap:butt;stroke-linejoin:miter;stroke-opacity:1" d="M 881.538,667.29 907.953,681.964 z" id="boundary" inkscape:connector-curvature="0" />
	<path style="fill:none;stroke:red;stroke-width:1px;stroke-linecap:butt;stroke-linejoin:miter;stroke-opacity:1" d="M 887.408,570.438 916.757,576.308 z" id="boundary" inkscape:connector-curvature="0" />
	<path style="fill:none;stroke:red;stroke-width:1px;stroke-linecap:butt;stroke-linejoin:miter;stroke-opacity:1" d="M 907.953,681.964 937.302,679.03 z" id="boundary" inkscape:connector-curvature="0" />
	<path style="fill:none;stroke:red;stroke-width:1px;stroke-linecap:butt;stroke-linejoin:miter;stroke-opacity:1" d="M 916.757,576.308 946.107,585.112 z" id="boundary" inkscape:connector-curvature="0" />
	<path style="fill:none;stroke:red;stroke-width:1px;stroke-linecap:butt;stroke-linejoin:miter;stroke-opacity:1" d="M 937.302,679.03 966.651,667.29 z" id="boundary" inkscape:connector-curvature="0" />
	<path style="fill:none;stroke:red;stroke-width:1px;stroke-linecap:butt;stroke-linejoin:miter;stroke-opacity:1" d="M 946.107,585.112 969.586,605.657 z" id="boundary" inkscape:connector-curvature="0" />
	<path style="fill:none;stroke:red;stroke-width:1px;stroke-linecap:butt;stroke-linejoin:miter;stroke-opacity:1" d="M 966.651,667.29 993.065,652.615 z" id="boundary" inkscape:connector-curvature="0" />
	<path style="fill:none;stroke:red;stroke-width:1px;stroke-linecap:butt;stroke-linejoin:miter;stroke-opacity:1" d="M 969.586,605.657 996,620.331 z" id="boundary" inkscape:connector-curvature="0" />
	<path style="fill:none;stroke:red;stroke-width:1px;stroke-linecap:butt;stroke-linejoin:miter;stroke-opacity:1" d="M 993.065,652.615 996,620.331 z" id="boundary" inkscape:connector-curvature="0" />
	<circle cx="4" cy="130.201" r="4" fill="#0" id="circle0"/>
	<circle cx="4" cy="159.55" r="4" fill="#0" id="circle1"/>
	<circle cx="18.6746" cy="185.964" r="4" fill="#0" id="circle2"/>
	<circle cx="18.6746" cy="215.314" r="4" fill="#0" id="circle3"/>
	<circle cx="27.4793" cy="106.722" r="4" fill="#0" id="circle4"/>
	<circle cx="39.2189" cy="238.793" r="4" fill="#0" id="circle5"/>
	<circle cx="53.8935" cy="121.396" r="4" fill="#0" id="circle6"/>
	<circle cx="68.568" cy="250.533" r="4" fill="#0" id="circle7"/>
	<circle cx="77.3728" cy="141.941" r="4" fill="#0" id="circle8"/>
	<circle cx="94.9822" cy="265.207" r="4" fill="#0" id="circle9"/>
	<circle cx="106.722" cy="150.746" r="4" fill="#0" id="circle10"/>
	<circle cx="121.396" cy="12.8047" r="4" fill="#0" id="circle11"/>
	<circle cx="124.331" cy="271.077" r="4" fill="#0" id="circle12"/>
	<circle cx="136.071" cy="39.2189" r="4" fill="#0" id="circle13"/>
	<circle cx="136.071" cy="130.201" r="4" fill="#0" id="circle14"/>
	<circle cx="150.746" cy="4" r="4" fill="#0" id="circle15"/>
	<circle cx="150.746" cy="65.6331" r="4" fill="#0" id="circle16"/>
	<circle cx="150.746" cy="285.751" r="4" fill="#0" id="circle17"/>
	<circle cx="159.55" cy="106.722" r="4" fill="#0" id="circle18"/>
	<circle cx="180.095" cy="4" r="4" fill="#0" id="circle19"/>
	<circle cx="180.095" cy="285.751" r="4" fill="#0" id="circle20"/>
	<circle cx="206.509" cy="18.6746" r="4" fill="#0" id="circle21"/>
	<circle cx="209.444" cy="285.751" r="4" fill="#0" id="circle22"/>
	<circle cx="235.858" cy="21.6095" r="4" fill="#0" id="circle23"/>
	<circle cx="235.858" cy="300.426" r="4" fill="#0" id="circle24"/>
	<circle cx="256.402" cy="45.0888" r="4" fill="#0" id="circle25"/>
	<circle cx="262.272" cy="315.101" r="4" fill="#0" id="circle26"/>
	<circle cx="285.751" cy="56.8284" r="4" fill="#0" id="circle27"/>
	<circle cx="291.621" cy="326.84" r="4" fill="#0" id="circle28"/>
	<circle cx="300.426" cy="83.2426" r="4" fill="#0" id="circle29"/>
	<circle cx="315.101" cy="109.657" r="4" fill="#0" id="circle30"/>
	<circle cx="315.101" cy="344.45" r="4" fill="#0" id="circle31"/>
	<circle cx="329.775" cy="136.071" r="4" fill="#0" id="circle32"/>
	<circle cx="329.775" cy="165.42" r="4" fill="#0" id="circle33"/>
	<circle cx="344.45" cy="191.834" r="4" fill="#0" id="circle34"/>
	<circle cx="344.45" cy="221.183" r="4" fill="#0" id="circle35"/>
	<circle cx="344.45" cy="350.32" r="4" fill="#0" id="circle36"/>
	<circle cx="364.994" cy="373.799" r="4" fill="#0" id="circle37"/>
	<circle cx="367.929" cy="238.793" r="4" fill="#0" id="circle38"/>
	<circle cx="388.473" cy="394.343" r="4" fill="#0" id="circle39"/>
	<circle cx="394.343" cy="253.467" r="4" fill="#0" id="circle40"/>
	<circle cx="409.018" cy="417.822" r="4" fill="#0" id="circle41"/>
	<circle cx="414.888" cy="276.947" r="4" fill="#0" id="circle42"/>
	<circle cx="438.367" cy="429.562" r="4" fill="#0" id="circle43"/>
	<circle cx="444.237" cy="288.686" r="4" fill="#0" id="circle44"/>
	<circle cx="461.846" cy="312.166" r="4" fill="#0" id="circle45"/>
	<circle cx="464.781" cy="444.237" r="4" fill="#0" id="circle46"/>
	<circle cx="485.325" cy="329.775" r="4" fill="#0" id="circle47"/>
	<circle cx="494.13" cy="455.976" r="4" fill="#0" id="circle48"/>
	<circle cx="514.675" cy="341.515" r="4" fill="#0" id="circle49"/>
	<circle cx="523.479" cy="461.846" r="4" fill="#0" id="circle50"/>
	<circle cx="541.089" cy="356.189" r="4" fill="#0" id="circle51"/>
	<circle cx="552.828" cy="461.846" r="4" fill="#0" id="circle52"/>
	<circle cx="564.568" cy="373.799" r="4" fill="#0" id="circle53"/>
	<circle cx="576.308" cy="479.456" r="4" fill="#0" id="circle54"/>
	<circle cx="588.047" cy="391.408" r="4" fill="#0" id="circle55"/>
	<circle cx="605.657" cy="491.195" r="4" fill="#0" id="circle56"/>
	<circle cx="617.396" cy="403.148" r="4" fill="#0" id="circle57"/>
	<circle cx="623.266" cy="514.675" r="4" fill="#0" id="circle58"/>
	<circle cx="643.811" cy="417.822" r="4" fill="#0" id="circle59"/>
	<circle cx="652.615" cy="526.414" r="4" fill="#0" id="circle60"/>
	<circle cx="667.29" cy="438.367" r="4" fill="#0" id="circle61"/>
	<circle cx="673.16" cy="549.893" r="4" fill="#0" id="circle62"/>
	<circle cx="693.704" cy="453.041" r="4" fill="#0" id="circle63"/>
	<circle cx="699.574" cy="564.568" r="4" fill="#0" id="circle64"/>
	<circle cx="723.053" cy="458.911" r="4" fill="#0" id="circle65"/>
	<circle cx="725.988" cy="579.243" r="4" fill="#0" id="circle66"/>
	<circle cx="752.402" cy="464.781" r="4" fill="#0" id="circle67"/>
	<circle cx="755.337" cy="585.112" r="4" fill="#0" id="circle68"/>
	<circle cx="770.012" cy="488.26" r="4" fill="#0" id="circle69"/>
	<circle cx="775.882" cy="608.592" r="4" fill="#0" id="circle70"/>
	<circle cx="796.426" cy="502.935" r="4" fill="#0" id="circle71"/>
	<circle cx="805.231" cy="620.331" r="4" fill="#0" id="circle72"/>
	<circle cx="822.84" cy="517.609" r="4" fill="#0" id="circle73"/>
	<circle cx="831.645" cy="635.006" r="4" fill="#0" id="circle74"/>
	<circle cx="849.254" cy="532.284" r="4" fill="#0" id="circle75"/>
	<circle cx="855.124" cy="652.615" r="4" fill="#0" id="circle76"/>
	<circle cx="858.059" cy="561.633" r="4" fill="#0" id="circle77"/>
	<circle cx="881.538" cy="667.29" r="4" fill="#0" id="circle78"/>
	<circle cx="887.408" cy="570.438" r="4" fill="#0" id="circle79"/>
	<circle cx="907.953" cy="681.964" r="4" fill="#0" id="circle80"/>
	<circle cx="916.757" cy="576.308" r="4" fill="#0" id="circle81"/>
	<circle cx="937.302" cy="679.03" r="4" fill="#0" id="circle82"/>
	<circle cx="946.107" cy="585.112" r="4" fill="#0" id="circle83"/>
	<circle cx="966.651" cy="667.29" r="4" fill="#0" id="circle84"/>
	<circle cx="969.586" cy="605.657" r="4" fill="#0" id="circle85"/>
	<circle cx="993.065" cy="652.615" r="4" fill="#0" id="circle86"/>
	<circle cx="996" cy="620.331" r="4" fill="#0" id="circle87"/>
	</g>
</svg>