85.00  384.25
102.50  412.00
108.00  455.15
214.50  268.71
243.50  232.94
268.50  184.79
290.00  132.67
298.00  77.60
304.00  23.00
323.00  73.88
340.00  123.15
359.50  169.11
378.00  479.92
380.00  214.06
387.00  439.45
389.00  520.88
401.00  251.05
414.50  545.06
423.00  415.00
435.00  528.00
473.00  403.33
507.50  396.00
544.00  405.00
546.00  496.33
580.50  418.79
587.00  507.50
611.50  216.94
611.50  446.22
618.50  473.61
618.50  507.89
637.00  169.00
662.00  138.88
687.00  112.35
776.00  102.95
776.00  137.00
777.00  67.06
779.50  32.86
823.50  341.50
823.50  371.00
836.50  316.50
843.50  394.22
866.50  307.71
882.50  403.00
893.50  314.14
911.00  341.40
911.00  373.40