<?xml version="1.0" encoding="UTF-8" standalone="no"?>
<!-- Created with CurveBenchmark -->
<svg
	xmlns:dc="http://purl.org/dc/elements/1.1/"
	xmlns:cc="http://creativecommons.org/ns#"
	xmlns:rdf="http://www.w3.org/1999/02/22-rdf-syntax-ns#"
	xmlns:svg="http://www.w3.org/2000/svg"
	xmlns="http://www.w3.org/2000/svg"
	xmlns:sodipodi="http://sodipodi.sourceforge.net/DTD/sodipodi-0.dtd"
	xmlns:inkscape="http://www.inkscape.org/namespaces/inkscape"
	width="1000"
	height="1000"
	id="svg2"
	version="1.1"
	sodipodi:docname="sampling-noise-0.4/crawl-bunny.svg">
<defs
	id="defs4" />
<metadata
	id="metadata7">
	<rdf:RDF>
		<cc:Work
			rdf:about="">
			<dc:format>image/svg+xml</dc:format>
			<dc:type
				rdf:resource="http://purl.org/dc/dcmitype/StillImage" />
			<dc:title></dc:title>
		</cc:Work>
	</rdf:RDF>
</metadata>
<g
	inkscape:label="Layer 1"
	inkscape:groupmode="layer"
	id="layer1">
	<path style="fill:none;stroke:red;stroke-width:1px;stroke-linecap:butt;stroke-linejoin:miter;stroke-opacity:1" d="M 207.524,313.628 202.678,314.009 z" id="boundary" inkscape:connector-curvature="0" />
	<path style="fill:none;stroke:red;stroke-width:1px;stroke-linecap:butt;stroke-linejoin:miter;stroke-opacity:1" d="M 207.524,313.628 210,309.375 z" id="boundary" inkscape:connector-curvature="0" />
	<path style="fill:none;stroke:red;stroke-width:1px;stroke-linecap:butt;stroke-linejoin:miter;stroke-opacity:1" d="M 210,309.375 211.611,303.942 z" id="boundary" inkscape:connector-curvature="0" />
	<path style="fill:none;stroke:red;stroke-width:1px;stroke-linecap:butt;stroke-linejoin:miter;stroke-opacity:1" d="M 202.678,314.009 199.149,309.148 z" id="boundary" inkscape:connector-curvature="0" />
	<path style="fill:none;stroke:red;stroke-width:1px;stroke-linecap:butt;stroke-linejoin:miter;stroke-opacity:1" d="M 199.149,309.148 193.075,304.22 z" id="boundary" inkscape:connector-curvature="0" />
	<path style="fill:none;stroke:red;stroke-width:1px;stroke-linecap:butt;stroke-linejoin:miter;stroke-opacity:1" d="M 193.075,304.22 194.39,294.571 z" id="boundary" inkscape:connector-curvature="0" />
	<path style="fill:none;stroke:red;stroke-width:1px;stroke-linecap:butt;stroke-linejoin:miter;stroke-opacity:1" d="M 194.39,294.571 192.295,283.97 z" id="boundary" inkscape:connector-curvature="0" />
	<path style="fill:none;stroke:red;stroke-width:1px;stroke-linecap:butt;stroke-linejoin:miter;stroke-opacity:1" d="M 211.611,303.942 220.397,296.924 z" id="boundary" inkscape:connector-curvature="0" />
	<path style="fill:none;stroke:red;stroke-width:1px;stroke-linecap:butt;stroke-linejoin:miter;stroke-opacity:1" d="M 192.295,283.97 195.2,272.427 z" id="boundary" inkscape:connector-curvature="0" />
	<path style="fill:none;stroke:red;stroke-width:1px;stroke-linecap:butt;stroke-linejoin:miter;stroke-opacity:1" d="M 220.397,296.924 215.3,284.699 z" id="boundary" inkscape:connector-curvature="0" />
	<path style="fill:none;stroke:red;stroke-width:1px;stroke-linecap:butt;stroke-linejoin:miter;stroke-opacity:1" d="M 215.3,284.699 221.105,273.761 z" id="boundary" inkscape:connector-curvature="0" />
	<path style="fill:none;stroke:red;stroke-width:1px;stroke-linecap:butt;stroke-linejoin:miter;stroke-opacity:1" d="M 221.105,273.761 227.186,262.063 z" id="boundary" inkscape:connector-curvature="0" />
	<path style="fill:none;stroke:red;stroke-width:1px;stroke-linecap:butt;stroke-linejoin:miter;stroke-opacity:1" d="M 227.186,262.063 227.814,249.501 z" id="boundary" inkscape:connector-curvature="0" />
	<path style="fill:none;stroke:red;stroke-width:1px;stroke-linecap:butt;stroke-linejoin:miter;stroke-opacity:1" d="M 195.2,272.427 191.456,259.574 z" id="boundary" inkscape:connector-curvature="0" />
	<path style="fill:none;stroke:red;stroke-width:1px;stroke-linecap:butt;stroke-linejoin:miter;stroke-opacity:1" d="M 227.814,249.501 224.586,236.1 z" id="boundary" inkscape:connector-curvature="0" />
	<path style="fill:none;stroke:red;stroke-width:1px;stroke-linecap:butt;stroke-linejoin:miter;stroke-opacity:1" d="M 224.586,236.1 223.661,222.781 z" id="boundary" inkscape:connector-curvature="0" />
	<path style="fill:none;stroke:red;stroke-width:1px;stroke-linecap:butt;stroke-linejoin:miter;stroke-opacity:1" d="M 191.456,259.574 199.165,247.768 z" id="boundary" inkscape:connector-curvature="0" />
	<path style="fill:none;stroke:red;stroke-width:1px;stroke-linecap:butt;stroke-linejoin:miter;stroke-opacity:1" d="M 199.165,247.768 195.213,234.52 z" id="boundary" inkscape:connector-curvature="0" />
	<path style="fill:none;stroke:red;stroke-width:1px;stroke-linecap:butt;stroke-linejoin:miter;stroke-opacity:1" d="M 195.213,234.52 196.281,221.208 z" id="boundary" inkscape:connector-curvature="0" />
	<path style="fill:none;stroke:red;stroke-width:1px;stroke-linecap:butt;stroke-linejoin:miter;stroke-opacity:1" d="M 196.281,221.208 198.076,207.66 z" id="boundary" inkscape:connector-curvature="0" />
	<path style="fill:none;stroke:red;stroke-width:1px;stroke-linecap:butt;stroke-linejoin:miter;stroke-opacity:1" d="M 198.076,207.66 194.58,193.902 z" id="boundary" inkscape:connector-curvature="0" />
	<path style="fill:none;stroke:red;stroke-width:1px;stroke-linecap:butt;stroke-linejoin:miter;stroke-opacity:1" d="M 223.661,222.781 230.904,210.363 z" id="boundary" inkscape:connector-curvature="0" />
	<path style="fill:none;stroke:red;stroke-width:1px;stroke-linecap:butt;stroke-linejoin:miter;stroke-opacity:1" d="M 230.904,210.363 235.765,196.921 z" id="boundary" inkscape:connector-curvature="0" />
	<path style="fill:none;stroke:red;stroke-width:1px;stroke-linecap:butt;stroke-linejoin:miter;stroke-opacity:1" d="M 235.765,196.921 238.236,182.479 z" id="boundary" inkscape:connector-curvature="0" />
	<path style="fill:none;stroke:red;stroke-width:1px;stroke-linecap:butt;stroke-linejoin:miter;stroke-opacity:1" d="M 194.58,193.902 198.296,179.379 z" id="boundary" inkscape:connector-curvature="0" />
	<path style="fill:none;stroke:red;stroke-width:1px;stroke-linecap:butt;stroke-linejoin:miter;stroke-opacity:1" d="M 198.296,179.379 200.979,163.844 z" id="boundary" inkscape:connector-curvature="0" />
	<path style="fill:none;stroke:red;stroke-width:1px;stroke-linecap:butt;stroke-linejoin:miter;stroke-opacity:1" d="M 238.236,182.479 234.964,166.62 z" id="boundary" inkscape:connector-curvature="0" />
	<path style="fill:none;stroke:red;stroke-width:1px;stroke-linecap:butt;stroke-linejoin:miter;stroke-opacity:1" d="M 200.979,163.844 196.621,147.632 z" id="boundary" inkscape:connector-curvature="0" />
	<path style="fill:none;stroke:red;stroke-width:1px;stroke-linecap:butt;stroke-linejoin:miter;stroke-opacity:1" d="M 234.964,166.62 242.255,151.391 z" id="boundary" inkscape:connector-curvature="0" />
	<path style="fill:none;stroke:red;stroke-width:1px;stroke-linecap:butt;stroke-linejoin:miter;stroke-opacity:1" d="M 242.255,151.391 242.351,133.638 z" id="boundary" inkscape:connector-curvature="0" />
	<path style="fill:none;stroke:red;stroke-width:1px;stroke-linecap:butt;stroke-linejoin:miter;stroke-opacity:1" d="M 196.621,147.632 192.627,129.973 z" id="boundary" inkscape:connector-curvature="0" />
	<path style="fill:none;stroke:red;stroke-width:1px;stroke-linecap:butt;stroke-linejoin:miter;stroke-opacity:1" d="M 242.351,133.638 234.063,114.955 z" id="boundary" inkscape:connector-curvature="0" />
	<path style="fill:none;stroke:red;stroke-width:1px;stroke-linecap:butt;stroke-linejoin:miter;stroke-opacity:1" d="M 234.063,114.955 237.31,96.6291 z" id="boundary" inkscape:connector-curvature="0" />
	<path style="fill:none;stroke:red;stroke-width:1px;stroke-linecap:butt;stroke-linejoin:miter;stroke-opacity:1" d="M 237.31,96.6291 240.919,77.0286 z" id="boundary" inkscape:connector-curvature="0" />
	<path style="fill:none;stroke:red;stroke-width:1px;stroke-linecap:butt;stroke-linejoin:miter;stroke-opacity:1" d="M 192.627,129.973 204.318,112.226 z" id="boundary" inkscape:connector-curvature="0" />
	<path style="fill:none;stroke:red;stroke-width:1px;stroke-linecap:butt;stroke-linejoin:miter;stroke-opacity:1" d="M 240.919,77.0286 254.906,58.6948 z" id="boundary" inkscape:connector-curvature="0" />
	<path style="fill:none;stroke:red;stroke-width:1px;stroke-linecap:butt;stroke-linejoin:miter;stroke-opacity:1" d="M 204.318,112.226 191.45,93.0387 z" id="boundary" inkscape:connector-curvature="0" />
	<path style="fill:none;stroke:red;stroke-width:1px;stroke-linecap:butt;stroke-linejoin:miter;stroke-opacity:1" d="M 191.45,93.0387 191.617,73.2688 z" id="boundary" inkscape:connector-curvature="0" />
	<path style="fill:none;stroke:red;stroke-width:1px;stroke-linecap:butt;stroke-linejoin:miter;stroke-opacity:1" d="M 191.617,73.2688 195.164,52.0461 z" id="boundary" inkscape:connector-curvature="0" />
	<path style="fill:none;stroke:red;stroke-width:1px;stroke-linecap:butt;stroke-linejoin:miter;stroke-opacity:1" d="M 195.164,52.0461 187.231,29.8635 z" id="boundary" inkscape:connector-curvature="0" />
	<path style="fill:none;stroke:red;stroke-width:1px;stroke-linecap:butt;stroke-linejoin:miter;stroke-opacity:1" d="M 187.231,29.8635 187.667,7.00489 z" id="boundary" inkscape:connector-curvature="0" />
	<path style="fill:none;stroke:red;stroke-width:1px;stroke-linecap:butt;stroke-linejoin:miter;stroke-opacity:1" d="M 187.667,7.00489 165.76,7.94994 z" id="boundary" inkscape:connector-curvature="0" />
	<path style="fill:none;stroke:red;stroke-width:1px;stroke-linecap:butt;stroke-linejoin:miter;stroke-opacity:1" d="M 165.76,7.94994 148.682,8.76308 z" id="boundary" inkscape:connector-curvature="0" />
	<path style="fill:none;stroke:red;stroke-width:1px;stroke-linecap:butt;stroke-linejoin:miter;stroke-opacity:1" d="M 148.682,8.76308 140.705,22.7299 z" id="boundary" inkscape:connector-curvature="0" />
	<path style="fill:none;stroke:red;stroke-width:1px;stroke-linecap:butt;stroke-linejoin:miter;stroke-opacity:1" d="M 140.705,22.7299 123.814,40.0654 z" id="boundary" inkscape:connector-curvature="0" />
	<path style="fill:none;stroke:red;stroke-width:1px;stroke-linecap:butt;stroke-linejoin:miter;stroke-opacity:1" d="M 254.906,58.6948 257.483,34.3863 z" id="boundary" inkscape:connector-curvature="0" />
	<path style="fill:none;stroke:red;stroke-width:1px;stroke-linecap:butt;stroke-linejoin:miter;stroke-opacity:1" d="M 257.483,34.3863 271.025,17.9669 z" id="boundary" inkscape:connector-curvature="0" />
	<path style="fill:none;stroke:red;stroke-width:1px;stroke-linecap:butt;stroke-linejoin:miter;stroke-opacity:1" d="M 271.025,17.9669 286.875,4 z" id="boundary" inkscape:connector-curvature="0" />
	<path style="fill:none;stroke:red;stroke-width:1px;stroke-linecap:butt;stroke-linejoin:miter;stroke-opacity:1" d="M 286.875,4 306.745,12.774 z" id="boundary" inkscape:connector-curvature="0" />
	<path style="fill:none;stroke:red;stroke-width:1px;stroke-linecap:butt;stroke-linejoin:miter;stroke-opacity:1" d="M 306.745,12.774 325.914,29.7973 z" id="boundary" inkscape:connector-curvature="0" />
	<path style="fill:none;stroke:red;stroke-width:1px;stroke-linecap:butt;stroke-linejoin:miter;stroke-opacity:1" d="M 325.914,29.7973 330.054,59.9076 z" id="boundary" inkscape:connector-curvature="0" />
	<path style="fill:none;stroke:red;stroke-width:1px;stroke-linecap:butt;stroke-linejoin:miter;stroke-opacity:1" d="M 123.814,40.0654 130.693,71.572 z" id="boundary" inkscape:connector-curvature="0" />
	<path style="fill:none;stroke:red;stroke-width:1px;stroke-linecap:butt;stroke-linejoin:miter;stroke-opacity:1" d="M 330.054,59.9076 316.031,92.1912 z" id="boundary" inkscape:connector-curvature="0" />
	<path style="fill:none;stroke:red;stroke-width:1px;stroke-linecap:butt;stroke-linejoin:miter;stroke-opacity:1" d="M 130.693,71.572 113.801,102.637 z" id="boundary" inkscape:connector-curvature="0" />
	<path style="fill:none;stroke:red;stroke-width:1px;stroke-linecap:butt;stroke-linejoin:miter;stroke-opacity:1" d="M 113.801,102.637 114.913,134.677 z" id="boundary" inkscape:connector-curvature="0" />
	<path style="fill:none;stroke:red;stroke-width:1px;stroke-linecap:butt;stroke-linejoin:miter;stroke-opacity:1" d="M 114.913,134.677 107.222,166.752 z" id="boundary" inkscape:connector-curvature="0" />
	<path style="fill:none;stroke:red;stroke-width:1px;stroke-linecap:butt;stroke-linejoin:miter;stroke-opacity:1" d="M 107.222,166.752 106.239,199.467 z" id="boundary" inkscape:connector-curvature="0" />
	<path style="fill:none;stroke:red;stroke-width:1px;stroke-linecap:butt;stroke-linejoin:miter;stroke-opacity:1" d="M 106.239,199.467 117.623,231.277 z" id="boundary" inkscape:connector-curvature="0" />
	<path style="fill:none;stroke:red;stroke-width:1px;stroke-linecap:butt;stroke-linejoin:miter;stroke-opacity:1" d="M 117.623,231.277 120.768,262.928 z" id="boundary" inkscape:connector-curvature="0" />
	<path style="fill:none;stroke:red;stroke-width:1px;stroke-linecap:butt;stroke-linejoin:miter;stroke-opacity:1" d="M 120.768,262.928 111.781,293.639 z" id="boundary" inkscape:connector-curvature="0" />
	<path style="fill:none;stroke:red;stroke-width:1px;stroke-linecap:butt;stroke-linejoin:miter;stroke-opacity:1" d="M 111.781,293.639 107.053,326.808 z" id="boundary" inkscape:connector-curvature="0" />
	<path style="fill:none;stroke:red;stroke-width:1px;stroke-linecap:butt;stroke-linejoin:miter;stroke-opacity:1" d="M 316.031,92.1912 322.371,127.393 z" id="boundary" inkscape:connector-curvature="0" />
	<path style="fill:none;stroke:red;stroke-width:1px;stroke-linecap:butt;stroke-linejoin:miter;stroke-opacity:1" d="M 322.371,127.393 328.193,164.257 z" id="boundary" inkscape:connector-curvature="0" />
	<path style="fill:none;stroke:red;stroke-width:1px;stroke-linecap:butt;stroke-linejoin:miter;stroke-opacity:1" d="M 328.193,164.257 320.444,196.101 z" id="boundary" inkscape:connector-curvature="0" />
	<path style="fill:none;stroke:red;stroke-width:1px;stroke-linecap:butt;stroke-linejoin:miter;stroke-opacity:1" d="M 320.444,196.101 309.378,225.479 z" id="boundary" inkscape:connector-curvature="0" />
	<path style="fill:none;stroke:red;stroke-width:1px;stroke-linecap:butt;stroke-linejoin:miter;stroke-opacity:1" d="M 309.378,225.479 294.835,254.899 z" id="boundary" inkscape:connector-curvature="0" />
	<path style="fill:none;stroke:red;stroke-width:1px;stroke-linecap:butt;stroke-linejoin:miter;stroke-opacity:1" d="M 294.835,254.899 306.129,287.129 z" id="boundary" inkscape:connector-curvature="0" />
	<path style="fill:none;stroke:red;stroke-width:1px;stroke-linecap:butt;stroke-linejoin:miter;stroke-opacity:1" d="M 306.129,287.129 309.813,320.864 z" id="boundary" inkscape:connector-curvature="0" />
	<path style="fill:none;stroke:red;stroke-width:1px;stroke-linecap:butt;stroke-linejoin:miter;stroke-opacity:1" d="M 309.813,320.864 325.982,367.667 z" id="boundary" inkscape:connector-curvature="0" />
	<path style="fill:none;stroke:red;stroke-width:1px;stroke-linecap:butt;stroke-linejoin:miter;stroke-opacity:1" d="M 107.053,326.808 74.8626,366.449 z" id="boundary" inkscape:connector-curvature="0" />
	<path style="fill:none;stroke:red;stroke-width:1px;stroke-linecap:butt;stroke-linejoin:miter;stroke-opacity:1" d="M 325.982,367.667 377.692,380.792 z" id="boundary" inkscape:connector-curvature="0" />
	<path style="fill:none;stroke:red;stroke-width:1px;stroke-linecap:butt;stroke-linejoin:miter;stroke-opacity:1" d="M 377.692,380.792 440.655,412.302 z" id="boundary" inkscape:connector-curvature="0" />
	<path style="fill:none;stroke:red;stroke-width:1px;stroke-linecap:butt;stroke-linejoin:miter;stroke-opacity:1" d="M 74.8626,366.449 45.4285,455.626 z" id="boundary" inkscape:connector-curvature="0" />
	<path style="fill:none;stroke:red;stroke-width:1px;stroke-linecap:butt;stroke-linejoin:miter;stroke-opacity:1" d="M 45.4285,455.626 4,526.483 z" id="boundary" inkscape:connector-curvature="0" />
	<path style="fill:none;stroke:red;stroke-width:1px;stroke-linecap:butt;stroke-linejoin:miter;stroke-opacity:1" d="M 4,526.483 32.4706,569.286 z" id="boundary" inkscape:connector-curvature="0" />
	<path style="fill:none;stroke:red;stroke-width:1px;stroke-linecap:butt;stroke-linejoin:miter;stroke-opacity:1" d="M 32.4706,569.286 54.9709,597.116 z" id="boundary" inkscape:connector-curvature="0" />
	<path style="fill:none;stroke:red;stroke-width:1px;stroke-linecap:butt;stroke-linejoin:miter;stroke-opacity:1" d="M 54.9709,597.116 75.1743,646.402 z" id="boundary" inkscape:connector-curvature="0" />
	<path style="fill:none;stroke:red;stroke-width:1px;stroke-linecap:butt;stroke-linejoin:miter;stroke-opacity:1" d="M 75.1743,646.402 141.835,685.447 z" id="boundary" inkscape:connector-curvature="0" />
	<path style="fill:none;stroke:red;stroke-width:1px;stroke-linecap:butt;stroke-linejoin:miter;stroke-opacity:1" d="M 141.835,685.447 204.033,716.822 z" id="boundary" inkscape:connector-curvature="0" />
	<path style="fill:none;stroke:red;stroke-width:1px;stroke-linecap:butt;stroke-linejoin:miter;stroke-opacity:1" d="M 204.033,716.822 253.776,741.894 z" id="boundary" inkscape:connector-curvature="0" />
	<path style="fill:none;stroke:red;stroke-width:1px;stroke-linecap:butt;stroke-linejoin:miter;stroke-opacity:1" d="M 253.776,741.894 254.117,782.066 z" id="boundary" inkscape:connector-curvature="0" />
	<path style="fill:none;stroke:red;stroke-width:1px;stroke-linecap:butt;stroke-linejoin:miter;stroke-opacity:1" d="M 254.117,782.066 269.614,781.711 z" id="boundary" inkscape:connector-curvature="0" />
	<path style="fill:none;stroke:red;stroke-width:1px;stroke-linecap:butt;stroke-linejoin:miter;stroke-opacity:1" d="M 269.614,781.711 255.394,812.212 z" id="boundary" inkscape:connector-curvature="0" />
	<path style="fill:none;stroke:red;stroke-width:1px;stroke-linecap:butt;stroke-linejoin:miter;stroke-opacity:1" d="M 255.394,812.212 235.318,835.599 z" id="boundary" inkscape:connector-curvature="0" />
	<path style="fill:none;stroke:red;stroke-width:1px;stroke-linecap:butt;stroke-linejoin:miter;stroke-opacity:1" d="M 235.318,835.599 197.798,842.802 z" id="boundary" inkscape:connector-curvature="0" />
	<path style="fill:none;stroke:red;stroke-width:1px;stroke-linecap:butt;stroke-linejoin:miter;stroke-opacity:1" d="M 197.798,842.802 165.641,854.484 z" id="boundary" inkscape:connector-curvature="0" />
	<path style="fill:none;stroke:red;stroke-width:1px;stroke-linecap:butt;stroke-linejoin:miter;stroke-opacity:1" d="M 165.641,854.484 167.824,889.408 z" id="boundary" inkscape:connector-curvature="0" />
	<path style="fill:none;stroke:red;stroke-width:1px;stroke-linecap:butt;stroke-linejoin:miter;stroke-opacity:1" d="M 167.824,889.408 152.942,918.689 z" id="boundary" inkscape:connector-curvature="0" />
	<path style="fill:none;stroke:red;stroke-width:1px;stroke-linecap:butt;stroke-linejoin:miter;stroke-opacity:1" d="M 152.942,918.689 173.496,943.761 z" id="boundary" inkscape:connector-curvature="0" />
	<path style="fill:none;stroke:red;stroke-width:1px;stroke-linecap:butt;stroke-linejoin:miter;stroke-opacity:1" d="M 173.496,943.761 208.558,937.532 z" id="boundary" inkscape:connector-curvature="0" />
	<path style="fill:none;stroke:red;stroke-width:1px;stroke-linecap:butt;stroke-linejoin:miter;stroke-opacity:1" d="M 208.558,937.532 251.525,951.151 z" id="boundary" inkscape:connector-curvature="0" />
	<path style="fill:none;stroke:red;stroke-width:1px;stroke-linecap:butt;stroke-linejoin:miter;stroke-opacity:1" d="M 251.525,951.151 303.882,975.182 z" id="boundary" inkscape:connector-curvature="0" />
	<path style="fill:none;stroke:red;stroke-width:1px;stroke-linecap:butt;stroke-linejoin:miter;stroke-opacity:1" d="M 303.882,975.182 373.833,969.55 z" id="boundary" inkscape:connector-curvature="0" />
	<path style="fill:none;stroke:red;stroke-width:1px;stroke-linecap:butt;stroke-linejoin:miter;stroke-opacity:1" d="M 440.655,412.302 532.079,367.376 z" id="boundary" inkscape:connector-curvature="0" />
	<path style="fill:none;stroke:red;stroke-width:1px;stroke-linecap:butt;stroke-linejoin:miter;stroke-opacity:1" d="M 373.833,969.55 478.483,992.062 z" id="boundary" inkscape:connector-curvature="0" />
	<path style="fill:none;stroke:red;stroke-width:1px;stroke-linecap:butt;stroke-linejoin:miter;stroke-opacity:1" d="M 532.079,367.376 669.304,269.782 z" id="boundary" inkscape:connector-curvature="0" />
	<path style="fill:none;stroke:red;stroke-width:1px;stroke-linecap:butt;stroke-linejoin:miter;stroke-opacity:1" d="M 478.483,992.062 656.108,946.856 z" id="boundary" inkscape:connector-curvature="0" />
	<path style="fill:none;stroke:red;stroke-width:1px;stroke-linecap:butt;stroke-linejoin:miter;stroke-opacity:1" d="M 656.108,946.856 796.033,996 z" id="boundary" inkscape:connector-curvature="0" />
	<path style="fill:none;stroke:red;stroke-width:1px;stroke-linecap:butt;stroke-linejoin:miter;stroke-opacity:1" d="M 796.033,996 886.362,943.053 z" id="boundary" inkscape:connector-curvature="0" />
	<path style="fill:none;stroke:red;stroke-width:1px;stroke-linecap:butt;stroke-linejoin:miter;stroke-opacity:1" d="M 886.362,943.053 955.817,940.744 z" id="boundary" inkscape:connector-curvature="0" />
	<path style="fill:none;stroke:red;stroke-width:1px;stroke-linecap:butt;stroke-linejoin:miter;stroke-opacity:1" d="M 955.817,940.744 991.981,885.948 z" id="boundary" inkscape:connector-curvature="0" />
	<path style="fill:none;stroke:red;stroke-width:1px;stroke-linecap:butt;stroke-linejoin:miter;stroke-opacity:1" d="M 991.981,885.948 992.767,838.625 z" id="boundary" inkscape:connector-curvature="0" />
	<path style="fill:none;stroke:red;stroke-width:1px;stroke-linecap:butt;stroke-linejoin:miter;stroke-opacity:1" d="M 992.767,838.625 990.623,798.093 z" id="boundary" inkscape:connector-curvature="0" />
	<path style="fill:none;stroke:red;stroke-width:1px;stroke-linecap:butt;stroke-linejoin:miter;stroke-opacity:1" d="M 990.623,798.093 959.232,775.801 z" id="boundary" inkscape:connector-curvature="0" />
	<path style="fill:none;stroke:red;stroke-width:1px;stroke-linecap:butt;stroke-linejoin:miter;stroke-opacity:1" d="M 959.232,775.801 929.945,742.507 z" id="boundary" inkscape:connector-curvature="0" />
	<path style="fill:none;stroke:red;stroke-width:1px;stroke-linecap:butt;stroke-linejoin:miter;stroke-opacity:1" d="M 929.945,742.507 955.505,692.436 z" id="boundary" inkscape:connector-curvature="0" />
	<path style="fill:none;stroke:red;stroke-width:1px;stroke-linecap:butt;stroke-linejoin:miter;stroke-opacity:1" d="M 955.505,692.436 922.878,617.023 z" id="boundary" inkscape:connector-curvature="0" />
	<path style="fill:none;stroke:red;stroke-width:1px;stroke-linecap:butt;stroke-linejoin:miter;stroke-opacity:1" d="M 922.878,617.023 907.148,490.892 z" id="boundary" inkscape:connector-curvature="0" />
	<path style="fill:none;stroke:red;stroke-width:1px;stroke-linecap:butt;stroke-linejoin:miter;stroke-opacity:1" d="M 907.148,490.892 854.875,347.206 z" id="boundary" inkscape:connector-curvature="0" />
	<path style="fill:none;stroke:red;stroke-width:1px;stroke-linecap:butt;stroke-linejoin:miter;stroke-opacity:1" d="M 669.304,269.782 854.875,347.206 z" id="boundary" inkscape:connector-curvature="0" />
	<circle cx="254.117" cy="782.066" r="4" fill="#0" id="circle0"/>
	<circle cx="253.776" cy="741.894" r="4" fill="#0" id="circle1"/>
	<circle cx="204.033" cy="716.822" r="4" fill="#0" id="circle2"/>
	<circle cx="141.835" cy="685.447" r="4" fill="#0" id="circle3"/>
	<circle cx="75.1743" cy="646.402" r="4" fill="#0" id="circle4"/>
	<circle cx="54.9709" cy="597.116" r="4" fill="#0" id="circle5"/>
	<circle cx="32.4706" cy="569.286" r="4" fill="#0" id="circle6"/>
	<circle cx="4" cy="526.483" r="4" fill="#0" id="circle7"/>
	<circle cx="45.4285" cy="455.626" r="4" fill="#0" id="circle8"/>
	<circle cx="74.8626" cy="366.449" r="4" fill="#0" id="circle9"/>
	<circle cx="107.053" cy="326.808" r="4" fill="#0" id="circle10"/>
	<circle cx="111.781" cy="293.639" r="4" fill="#0" id="circle11"/>
	<circle cx="120.768" cy="262.928" r="4" fill="#0" id="circle12"/>
	<circle cx="117.623" cy="231.277" r="4" fill="#0" id="circle13"/>
	<circle cx="106.239" cy="199.467" r="4" fill="#0" id="circle14"/>
	<circle cx="107.222" cy="166.752" r="4" fill="#0" id="circle15"/>
	<circle cx="114.913" cy="134.677" r="4" fill="#0" id="circle16"/>
	<circle cx="113.801" cy="102.637" r="4" fill="#0" id="circle17"/>
	<circle cx="130.693" cy="71.572" r="4" fill="#0" id="circle18"/>
	<circle cx="123.814" cy="40.0654" r="4" fill="#0" id="circle19"/>
	<circle cx="140.705" cy="22.7299" r="4" fill="#0" id="circle20"/>
	<circle cx="148.682" cy="8.76308" r="4" fill="#0" id="circle21"/>
	<circle cx="165.76" cy="7.94994" r="4" fill="#0" id="circle22"/>
	<circle cx="187.667" cy="7.00489" r="4" fill="#0" id="circle23"/>
	<circle cx="187.231" cy="29.8635" r="4" fill="#0" id="circle24"/>
	<circle cx="195.164" cy="52.0461" r="4" fill="#0" id="circle25"/>
	<circle cx="191.617" cy="73.2688" r="4" fill="#0" id="circle26"/>
	<circle cx="191.45" cy="93.0387" r="4" fill="#0" id="circle27"/>
	<circle cx="204.318" cy="112.226" r="4" fill="#0" id="circle28"/>
	<circle cx="192.627" cy="129.973" r="4" fill="#0" id="circle29"/>
	<circle cx="196.621" cy="147.632" r="4" fill="#0" id="circle30"/>
	<circle cx="200.979" cy="163.844" r="4" fill="#0" id="circle31"/>
	<circle cx="198.296" cy="179.379" r="4" fill="#0" id="circle32"/>
	<circle cx="194.58" cy="193.902" r="4" fill="#0" id="circle33"/>
	<circle cx="198.076" cy="207.66" r="4" fill="#0" id="circle34"/>
	<circle cx="196.281" cy="221.208" r="4" fill="#0" id="circle35"/>
	<circle cx="195.213" cy="234.52" r="4" fill="#0" id="circle36"/>
	<circle cx="199.165" cy="247.768" r="4" fill="#0" id="circle37"/>
	<circle cx="191.456" cy="259.574" r="4" fill="#0" id="circle38"/>
	<circle cx="195.2" cy="272.427" r="4" fill="#0" id="circle39"/>
	<circle cx="192.295" cy="283.97" r="4" fill="#0" id="circle40"/>
	<circle cx="194.39" cy="294.571" r="4" fill="#0" id="circle41"/>
	<circle cx="193.075" cy="304.22" r="4" fill="#0" id="circle42"/>
	<circle cx="199.149" cy="309.148" r="4" fill="#0" id="circle43"/>
	<circle cx="202.678" cy="314.009" r="4" fill="#0" id="circle44"/>
	<circle cx="207.524" cy="313.628" r="4" fill="#0" id="circle45"/>
	<circle cx="210" cy="309.375" r="4" fill="#0" id="circle46"/>
	<circle cx="211.611" cy="303.942" r="4" fill="#0" id="circle47"/>
	<circle cx="220.397" cy="296.924" r="4" fill="#0" id="circle48"/>
	<circle cx="215.3" cy="284.699" r="4" fill="#0" id="circle49"/>
	<circle cx="221.105" cy="273.761" r="4" fill="#0" id="circle50"/>
	<circle cx="227.186" cy="262.063" r="4" fill="#0" id="circle51"/>
	<circle cx="227.814" cy="249.501" r="4" fill="#0" id="circle52"/>
	<circle cx="224.586" cy="236.1" r="4" fill="#0" id="circle53"/>
	<circle cx="223.661" cy="222.781" r="4" fill="#0" id="circle54"/>
	<circle cx="230.904" cy="210.363" r="4" fill="#0" id="circle55"/>
	<circle cx="235.765" cy="196.921" r="4" fill="#0" id="circle56"/>
	<circle cx="238.236" cy="182.479" r="4" fill="#0" id="circle57"/>
	<circle cx="234.964" cy="166.62" r="4" fill="#0" id="circle58"/>
	<circle cx="242.255" cy="151.391" r="4" fill="#0" id="circle59"/>
	<circle cx="242.351" cy="133.638" r="4" fill="#0" id="circle60"/>
	<circle cx="234.063" cy="114.955" r="4" fill="#0" id="circle61"/>
	<circle cx="237.31" cy="96.6291" r="4" fill="#0" id="circle62"/>
	<circle cx="240.919" cy="77.0286" r="4" fill="#0" id="circle63"/>
	<circle cx="254.906" cy="58.6948" r="4" fill="#0" id="circle64"/>
	<circle cx="257.483" cy="34.3863" r="4" fill="#0" id="circle65"/>
	<circle cx="271.025" cy="17.9669" r="4" fill="#0" id="circle66"/>
	<circle cx="286.875" cy="4" r="4" fill="#0" id="circle67"/>
	<circle cx="306.745" cy="12.774" r="4" fill="#0" id="circle68"/>
	<circle cx="325.914" cy="29.7973" r="4" fill="#0" id="circle69"/>
	<circle cx="330.054" cy="59.9076" r="4" fill="#0" id="circle70"/>
	<circle cx="316.031" cy="92.1912" r="4" fill="#0" id="circle71"/>
	<circle cx="322.371" cy="127.393" r="4" fill="#0" id="circle72"/>
	<circle cx="328.193" cy="164.257" r="4" fill="#0" id="circle73"/>
	<circle cx="320.444" cy="196.101" r="4" fill="#0" id="circle74"/>
	<circle cx="309.378" cy="225.479" r="4" fill="#0" id="circle75"/>
	<circle cx="294.835" cy="254.899" r="4" fill="#0" id="circle76"/>
	<circle cx="306.129" cy="287.129" r="4" fill="#0" id="circle77"/>
	<circle cx="309.813" cy="320.864" r="4" fill="#0" id="circle78"/>
	<circle cx="325.982" cy="367.667" r="4" fill="#0" id="circle79"/>
	<circle cx="377.692" cy="380.792" r="4" fill="#0" id="circle80"/>
	<circle cx="440.655" cy="412.302" r="4" fill="#0" id="circle81"/>
	<circle cx="532.079" cy="367.376" r="4" fill="#0" id="circle82"/>
	<circle cx="669.304" cy="269.782" r="4" fill="#0" id="circle83"/>
	<circle cx="854.875" cy="347.206" r="4" fill="#0" id="circle84"/>
	<circle cx="907.148" cy="490.892" r="4" fill="#0" id="circle85"/>
	<circle cx="922.878" cy="617.023" r="4" fill="#0" id="circle86"/>
	<circle cx="955.505" cy="692.436" r="4" fill="#0" id="circle87"/>
	<circle cx="929.945" cy="742.507" r="4" fill="#0" id="circle88"/>
	<circle cx="959.232" cy="775.801" r="4" fill="#0" id="circle89"/>
	<circle cx="990.623" cy="798.093" r="4" fill="#0" id="circle90"/>
	<circle cx="992.767" cy="838.625" r="4" fill="#0" id="circle91"/>
	<circle cx="991.981" cy="885.948" r="4" fill="#0" id="circle92"/>
	<circle cx="955.817" cy="940.744" r="4" fill="#0" id="circle93"/>
	<circle cx="886.362" cy="943.053" r="4" fill="#0" id="circle94"/>
	<circle cx="796.033" cy="996" r="4" fill="#0" id="circle95"/>
	<circle cx="656.108" cy="946.856" r="4" fill="#0" id="circle96"/>
	<circle cx="478.483" cy="992.062" r="4" fill="#0" id="circle97"/>
	<circle cx="373.833" cy="969.55" r="4" fill="#0" id="circle98"/>
	<circle cx="303.882" cy="975.182" r="4" fill="#0" id="circle99"/>
	<circle cx="251.525" cy="951.151" r="4" fill="#0" id="circle100"/>
	<circle cx="208.558" cy="937.532" r="4" fill="#0" id="circle101"/>
	<circle cx="173.496" cy="943.761" r="4" fill="#0" id="circle102"/>
	<circle cx="152.942" cy="918.689" r="4" fill="#0" id="circle103"/>
	<circle cx="167.824" cy="889.408" r="4" fill="#0" id="circle104"/>
	<circle cx="165.641" cy="854.484" r="4" fill="#0" id="circle105"/>
	<circle cx="197.798" cy="842.802" r="4" fill="#0" id="circle106"/>
	<circle cx="235.318" cy="835.599" r="4" fill="#0" id="circle107"/>
	<circle cx="255.394" cy="812.212" r="4" fill="#0" id="circle108"/>
	<circle cx="269.614" cy="781.711" r="4" fill="#0" id="circle109"/>
	</g>
</svg>