<?xml version="1.0" encoding="UTF-8" standalone="no"?>
<!-- Created with CurveBenchmark -->
<svg
	xmlns:dc="http://purl.org/dc/elements/1.1/"
	xmlns:cc="http://creativecommons.org/ns#"
	xmlns:rdf="http://www.w3.org/1999/02/22-rdf-syntax-ns#"
	xmlns:svg="http://www.w3.org/2000/svg"
	xmlns="http://www.w3.org/2000/svg"
	xmlns:sodipodi="http://sodipodi.sourceforge.net/DTD/sodipodi-0.dtd"
	xmlns:inkscape="http://www.inkscape.org/namespaces/inkscape"
	width="1000"
	height="1000"
	id="svg2"
	version="1.1"
	sodipodi:docname="sampling-0.75/gathang-bunny.svg">
<defs
	id="defs4" />
<metadata
	id="metadata7">
	<rdf:RDF>
		<cc:Work
			rdf:about="">
			<dc:format>image/svg+xml</dc:format>
			<dc:type
				rdf:resource="http://purl.org/dc/dcmitype/StillImage" />
			<dc:title></dc:title>
		</cc:Work>
	</rdf:RDF>
</metadata>
<g
	inkscape:label="Layer 1"
	inkscape:groupmode="layer"
	id="layer1">
	<path style="fill:none;stroke:red;stroke-width:1px;stroke-linecap:butt;stroke-linejoin:miter;stroke-opacity:1" d="M 110.61,35.1481 131.677,4 z" id="boundary" inkscape:connector-curvature="0" />
	<path style="fill:none;stroke:red;stroke-width:1px;stroke-linecap:butt;stroke-linejoin:miter;stroke-opacity:1" d="M 131.677,4 168.302,9.77765 z" id="boundary" inkscape:connector-curvature="0" />
	<path style="fill:none;stroke:red;stroke-width:1px;stroke-linecap:butt;stroke-linejoin:miter;stroke-opacity:1" d="M 102.835,93.1458 110.61,35.1481 z" id="boundary" inkscape:connector-curvature="0" />
	<path style="fill:none;stroke:red;stroke-width:1px;stroke-linecap:butt;stroke-linejoin:miter;stroke-opacity:1" d="M 99.802,276.114 100.817,215.049 z" id="boundary" inkscape:connector-curvature="0" />
	<path style="fill:none;stroke:red;stroke-width:1px;stroke-linecap:butt;stroke-linejoin:miter;stroke-opacity:1" d="M 100.965,154.298 100.817,215.049 z" id="boundary" inkscape:connector-curvature="0" />
	<path style="fill:none;stroke:red;stroke-width:1px;stroke-linecap:butt;stroke-linejoin:miter;stroke-opacity:1" d="M 100.965,154.298 102.835,93.1458 z" id="boundary" inkscape:connector-curvature="0" />
	<path style="fill:none;stroke:red;stroke-width:1px;stroke-linecap:butt;stroke-linejoin:miter;stroke-opacity:1" d="M 180.218,237.996 178.571,261.807 z" id="boundary" inkscape:connector-curvature="0" />
	<path style="fill:none;stroke:red;stroke-width:1px;stroke-linecap:butt;stroke-linejoin:miter;stroke-opacity:1" d="M 168.302,9.77765 181.553,49.6521 z" id="boundary" inkscape:connector-curvature="0" />
	<path style="fill:none;stroke:red;stroke-width:1px;stroke-linecap:butt;stroke-linejoin:miter;stroke-opacity:1" d="M 182.442,89.0792 181.607,124.026 z" id="boundary" inkscape:connector-curvature="0" />
	<path style="fill:none;stroke:red;stroke-width:1px;stroke-linecap:butt;stroke-linejoin:miter;stroke-opacity:1" d="M 181.815,186.462 181.322,156.783 z" id="boundary" inkscape:connector-curvature="0" />
	<path style="fill:none;stroke:red;stroke-width:1px;stroke-linecap:butt;stroke-linejoin:miter;stroke-opacity:1" d="M 181.607,124.026 181.322,156.783 z" id="boundary" inkscape:connector-curvature="0" />
	<path style="fill:none;stroke:red;stroke-width:1px;stroke-linecap:butt;stroke-linejoin:miter;stroke-opacity:1" d="M 181.815,186.462 181.386,213.418 z" id="boundary" inkscape:connector-curvature="0" />
	<path style="fill:none;stroke:red;stroke-width:1px;stroke-linecap:butt;stroke-linejoin:miter;stroke-opacity:1" d="M 180.218,237.996 181.386,213.418 z" id="boundary" inkscape:connector-curvature="0" />
	<path style="fill:none;stroke:red;stroke-width:1px;stroke-linecap:butt;stroke-linejoin:miter;stroke-opacity:1" d="M 181.553,49.6521 182.442,89.0792 z" id="boundary" inkscape:connector-curvature="0" />
	<path style="fill:none;stroke:red;stroke-width:1px;stroke-linecap:butt;stroke-linejoin:miter;stroke-opacity:1" d="M 177.029,284.484 178.571,261.807 z" id="boundary" inkscape:connector-curvature="0" />
	<path style="fill:none;stroke:red;stroke-width:1px;stroke-linecap:butt;stroke-linejoin:miter;stroke-opacity:1" d="M 99.802,276.114 88.0906,336.213 z" id="boundary" inkscape:connector-curvature="0" />
	<path style="fill:none;stroke:red;stroke-width:1px;stroke-linecap:butt;stroke-linejoin:miter;stroke-opacity:1" d="M 88.0906,336.213 4,474.234 z" id="boundary" inkscape:connector-curvature="0" />
	<path style="fill:none;stroke:red;stroke-width:1px;stroke-linecap:butt;stroke-linejoin:miter;stroke-opacity:1" d="M 8.86984,588.701 60.9518,643.524 z" id="boundary" inkscape:connector-curvature="0" />
	<path style="fill:none;stroke:red;stroke-width:1px;stroke-linecap:butt;stroke-linejoin:miter;stroke-opacity:1" d="M 8.86984,588.701 4,474.234 z" id="boundary" inkscape:connector-curvature="0" />
	<path style="fill:none;stroke:red;stroke-width:1px;stroke-linecap:butt;stroke-linejoin:miter;stroke-opacity:1" d="M 143.326,931.01 162.512,878.785 z" id="boundary" inkscape:connector-curvature="0" />
	<path style="fill:none;stroke:red;stroke-width:1px;stroke-linecap:butt;stroke-linejoin:miter;stroke-opacity:1" d="M 176.943,965.868 143.326,931.01 z" id="boundary" inkscape:connector-curvature="0" />
	<path style="fill:none;stroke:red;stroke-width:1px;stroke-linecap:butt;stroke-linejoin:miter;stroke-opacity:1" d="M 60.9518,643.524 200.606,725.831 z" id="boundary" inkscape:connector-curvature="0" />
	<path style="fill:none;stroke:red;stroke-width:1px;stroke-linecap:butt;stroke-linejoin:miter;stroke-opacity:1" d="M 177.181,305.013 183.486,319.068 z" id="boundary" inkscape:connector-curvature="0" />
	<path style="fill:none;stroke:red;stroke-width:1px;stroke-linecap:butt;stroke-linejoin:miter;stroke-opacity:1" d="M 177.181,305.013 177.029,284.484 z" id="boundary" inkscape:connector-curvature="0" />
	<path style="fill:none;stroke:red;stroke-width:1px;stroke-linecap:butt;stroke-linejoin:miter;stroke-opacity:1" d="M 192.294,320.942 198.649,313.816 z" id="boundary" inkscape:connector-curvature="0" />
	<path style="fill:none;stroke:red;stroke-width:1px;stroke-linecap:butt;stroke-linejoin:miter;stroke-opacity:1" d="M 204.202,295.326 198.649,313.816 z" id="boundary" inkscape:connector-curvature="0" />
	<path style="fill:none;stroke:red;stroke-width:1px;stroke-linecap:butt;stroke-linejoin:miter;stroke-opacity:1" d="M 207.898,273.506 204.202,295.326 z" id="boundary" inkscape:connector-curvature="0" />
	<path style="fill:none;stroke:red;stroke-width:1px;stroke-linecap:butt;stroke-linejoin:miter;stroke-opacity:1" d="M 162.512,878.785 231.702,849.087 z" id="boundary" inkscape:connector-curvature="0" />
	<path style="fill:none;stroke:red;stroke-width:1px;stroke-linecap:butt;stroke-linejoin:miter;stroke-opacity:1" d="M 183.486,319.068 192.294,320.942 z" id="boundary" inkscape:connector-curvature="0" />
	<path style="fill:none;stroke:red;stroke-width:1px;stroke-linecap:butt;stroke-linejoin:miter;stroke-opacity:1" d="M 216.717,200.096 220.036,172.413 z" id="boundary" inkscape:connector-curvature="0" />
	<path style="fill:none;stroke:red;stroke-width:1px;stroke-linecap:butt;stroke-linejoin:miter;stroke-opacity:1" d="M 224.002,141.378 220.036,172.413 z" id="boundary" inkscape:connector-curvature="0" />
	<path style="fill:none;stroke:red;stroke-width:1px;stroke-linecap:butt;stroke-linejoin:miter;stroke-opacity:1" d="M 228.394,107.424 224.002,141.378 z" id="boundary" inkscape:connector-curvature="0" />
	<path style="fill:none;stroke:red;stroke-width:1px;stroke-linecap:butt;stroke-linejoin:miter;stroke-opacity:1" d="M 207.898,273.506 210.922,250.191 z" id="boundary" inkscape:connector-curvature="0" />
	<path style="fill:none;stroke:red;stroke-width:1px;stroke-linecap:butt;stroke-linejoin:miter;stroke-opacity:1" d="M 213.721,226.17 216.717,200.096 z" id="boundary" inkscape:connector-curvature="0" />
	<path style="fill:none;stroke:red;stroke-width:1px;stroke-linecap:butt;stroke-linejoin:miter;stroke-opacity:1" d="M 213.721,226.17 210.922,250.191 z" id="boundary" inkscape:connector-curvature="0" />
	<path style="fill:none;stroke:red;stroke-width:1px;stroke-linecap:butt;stroke-linejoin:miter;stroke-opacity:1" d="M 248.083,27.9663 278.003,7.87174 z" id="boundary" inkscape:connector-curvature="0" />
	<path style="fill:none;stroke:red;stroke-width:1px;stroke-linecap:butt;stroke-linejoin:miter;stroke-opacity:1" d="M 278.003,7.87174 311.319,32.8009 z" id="boundary" inkscape:connector-curvature="0" />
	<path style="fill:none;stroke:red;stroke-width:1px;stroke-linecap:butt;stroke-linejoin:miter;stroke-opacity:1" d="M 234.483,70.4002 248.083,27.9663 z" id="boundary" inkscape:connector-curvature="0" />
	<path style="fill:none;stroke:red;stroke-width:1px;stroke-linecap:butt;stroke-linejoin:miter;stroke-opacity:1" d="M 228.394,107.424 234.483,70.4002 z" id="boundary" inkscape:connector-curvature="0" />
	<path style="fill:none;stroke:red;stroke-width:1px;stroke-linecap:butt;stroke-linejoin:miter;stroke-opacity:1" d="M 306.853,156.943 293.708,217.225 z" id="boundary" inkscape:connector-curvature="0" />
	<path style="fill:none;stroke:red;stroke-width:1px;stroke-linecap:butt;stroke-linejoin:miter;stroke-opacity:1" d="M 306.853,156.943 317.423,92.4551 z" id="boundary" inkscape:connector-curvature="0" />
	<path style="fill:none;stroke:red;stroke-width:1px;stroke-linecap:butt;stroke-linejoin:miter;stroke-opacity:1" d="M 311.319,32.8009 317.423,92.4551 z" id="boundary" inkscape:connector-curvature="0" />
	<path style="fill:none;stroke:red;stroke-width:1px;stroke-linecap:butt;stroke-linejoin:miter;stroke-opacity:1" d="M 293.708,217.225 287.136,275.622 z" id="boundary" inkscape:connector-curvature="0" />
	<path style="fill:none;stroke:red;stroke-width:1px;stroke-linecap:butt;stroke-linejoin:miter;stroke-opacity:1" d="M 368.657,399.603 296.641,339.745 z" id="boundary" inkscape:connector-curvature="0" />
	<path style="fill:none;stroke:red;stroke-width:1px;stroke-linecap:butt;stroke-linejoin:miter;stroke-opacity:1" d="M 296.641,339.745 287.136,275.622 z" id="boundary" inkscape:connector-curvature="0" />
	<path style="fill:none;stroke:red;stroke-width:1px;stroke-linecap:butt;stroke-linejoin:miter;stroke-opacity:1" d="M 520.973,372.304 368.657,399.603 z" id="boundary" inkscape:connector-curvature="0" />
	<path style="fill:none;stroke:red;stroke-width:1px;stroke-linecap:butt;stroke-linejoin:miter;stroke-opacity:1" d="M 250.146,801.561 200.606,725.831 z" id="boundary" inkscape:connector-curvature="0" />
	<path style="fill:none;stroke:red;stroke-width:1px;stroke-linecap:butt;stroke-linejoin:miter;stroke-opacity:1" d="M 231.702,849.087 250.146,801.561 z" id="boundary" inkscape:connector-curvature="0" />
	<path style="fill:none;stroke:red;stroke-width:1px;stroke-linecap:butt;stroke-linejoin:miter;stroke-opacity:1" d="M 398.252,982.807 263.166,978.564 z" id="boundary" inkscape:connector-curvature="0" />
	<path style="fill:none;stroke:red;stroke-width:1px;stroke-linecap:butt;stroke-linejoin:miter;stroke-opacity:1" d="M 263.166,978.564 176.943,965.868 z" id="boundary" inkscape:connector-curvature="0" />
	<path style="fill:none;stroke:red;stroke-width:1px;stroke-linecap:butt;stroke-linejoin:miter;stroke-opacity:1" d="M 520.973,372.304 851.835,402.828 z" id="boundary" inkscape:connector-curvature="0" />
	<path style="fill:none;stroke:red;stroke-width:1px;stroke-linecap:butt;stroke-linejoin:miter;stroke-opacity:1" d="M 851.835,402.828 949.105,634.133 z" id="boundary" inkscape:connector-curvature="0" />
	<path style="fill:none;stroke:red;stroke-width:1px;stroke-linecap:butt;stroke-linejoin:miter;stroke-opacity:1" d="M 938.279,750.229 949.105,634.133 z" id="boundary" inkscape:connector-curvature="0" />
	<path style="fill:none;stroke:red;stroke-width:1px;stroke-linecap:butt;stroke-linejoin:miter;stroke-opacity:1" d="M 980.134,819.659 938.279,750.229 z" id="boundary" inkscape:connector-curvature="0" />
	<path style="fill:none;stroke:red;stroke-width:1px;stroke-linecap:butt;stroke-linejoin:miter;stroke-opacity:1" d="M 924.566,962.145 744.166,985.005 z" id="boundary" inkscape:connector-curvature="0" />
	<path style="fill:none;stroke:red;stroke-width:1px;stroke-linecap:butt;stroke-linejoin:miter;stroke-opacity:1" d="M 980.134,819.659 996,885.53 z" id="boundary" inkscape:connector-curvature="0" />
	<path style="fill:none;stroke:red;stroke-width:1px;stroke-linecap:butt;stroke-linejoin:miter;stroke-opacity:1" d="M 996,885.53 924.566,962.145 z" id="boundary" inkscape:connector-curvature="0" />
	<path style="fill:none;stroke:red;stroke-width:1px;stroke-linecap:butt;stroke-linejoin:miter;stroke-opacity:1" d="M 744.166,985.005 398.252,982.807 z" id="boundary" inkscape:connector-curvature="0" />
	<circle cx="250.146" cy="801.561" r="4" fill="#0" id="circle0"/>
	<circle cx="200.606" cy="725.831" r="4" fill="#0" id="circle1"/>
	<circle cx="60.9518" cy="643.524" r="4" fill="#0" id="circle2"/>
	<circle cx="8.86984" cy="588.701" r="4" fill="#0" id="circle3"/>
	<circle cx="4" cy="474.234" r="4" fill="#0" id="circle4"/>
	<circle cx="88.0906" cy="336.213" r="4" fill="#0" id="circle5"/>
	<circle cx="99.802" cy="276.114" r="4" fill="#0" id="circle6"/>
	<circle cx="100.817" cy="215.049" r="4" fill="#0" id="circle7"/>
	<circle cx="100.965" cy="154.298" r="4" fill="#0" id="circle8"/>
	<circle cx="102.835" cy="93.1458" r="4" fill="#0" id="circle9"/>
	<circle cx="110.61" cy="35.1481" r="4" fill="#0" id="circle10"/>
	<circle cx="131.677" cy="4" r="4" fill="#0" id="circle11"/>
	<circle cx="168.302" cy="9.77765" r="4" fill="#0" id="circle12"/>
	<circle cx="181.553" cy="49.6521" r="4" fill="#0" id="circle13"/>
	<circle cx="182.442" cy="89.0792" r="4" fill="#0" id="circle14"/>
	<circle cx="181.607" cy="124.026" r="4" fill="#0" id="circle15"/>
	<circle cx="181.322" cy="156.783" r="4" fill="#0" id="circle16"/>
	<circle cx="181.815" cy="186.462" r="4" fill="#0" id="circle17"/>
	<circle cx="181.386" cy="213.418" r="4" fill="#0" id="circle18"/>
	<circle cx="180.218" cy="237.996" r="4" fill="#0" id="circle19"/>
	<circle cx="178.571" cy="261.807" r="4" fill="#0" id="circle20"/>
	<circle cx="177.029" cy="284.484" r="4" fill="#0" id="circle21"/>
	<circle cx="177.181" cy="305.013" r="4" fill="#0" id="circle22"/>
	<circle cx="183.486" cy="319.068" r="4" fill="#0" id="circle23"/>
	<circle cx="192.294" cy="320.942" r="4" fill="#0" id="circle24"/>
	<circle cx="198.649" cy="313.816" r="4" fill="#0" id="circle25"/>
	<circle cx="204.202" cy="295.326" r="4" fill="#0" id="circle26"/>
	<circle cx="207.898" cy="273.506" r="4" fill="#0" id="circle27"/>
	<circle cx="210.922" cy="250.191" r="4" fill="#0" id="circle28"/>
	<circle cx="213.721" cy="226.17" r="4" fill="#0" id="circle29"/>
	<circle cx="216.717" cy="200.096" r="4" fill="#0" id="circle30"/>
	<circle cx="220.036" cy="172.413" r="4" fill="#0" id="circle31"/>
	<circle cx="224.002" cy="141.378" r="4" fill="#0" id="circle32"/>
	<circle cx="228.394" cy="107.424" r="4" fill="#0" id="circle33"/>
	<circle cx="234.483" cy="70.4002" r="4" fill="#0" id="circle34"/>
	<circle cx="248.083" cy="27.9663" r="4" fill="#0" id="circle35"/>
	<circle cx="278.003" cy="7.87174" r="4" fill="#0" id="circle36"/>
	<circle cx="311.319" cy="32.8009" r="4" fill="#0" id="circle37"/>
	<circle cx="317.423" cy="92.4551" r="4" fill="#0" id="circle38"/>
	<circle cx="306.853" cy="156.943" r="4" fill="#0" id="circle39"/>
	<circle cx="293.708" cy="217.225" r="4" fill="#0" id="circle40"/>
	<circle cx="287.136" cy="275.622" r="4" fill="#0" id="circle41"/>
	<circle cx="296.641" cy="339.745" r="4" fill="#0" id="circle42"/>
	<circle cx="368.657" cy="399.603" r="4" fill="#0" id="circle43"/>
	<circle cx="520.973" cy="372.304" r="4" fill="#0" id="circle44"/>
	<circle cx="851.835" cy="402.828" r="4" fill="#0" id="circle45"/>
	<circle cx="949.105" cy="634.133" r="4" fill="#0" id="circle46"/>
	<circle cx="938.279" cy="750.229" r="4" fill="#0" id="circle47"/>
	<circle cx="980.134" cy="819.659" r="4" fill="#0" id="circle48"/>
	<circle cx="996" cy="885.53" r="4" fill="#0" id="circle49"/>
	<circle cx="924.566" cy="962.145" r="4" fill="#0" id="circle50"/>
	<circle cx="744.166" cy="985.005" r="4" fill="#0" id="circle51"/>
	<circle cx="398.252" cy="982.807" r="4" fill="#0" id="circle52"/>
	<circle cx="263.166" cy="978.564" r="4" fill="#0" id="circle53"/>
	<circle cx="176.943" cy="965.868" r="4" fill="#0" id="circle54"/>
	<circle cx="143.326" cy="931.01" r="4" fill="#0" id="circle55"/>
	<circle cx="162.512" cy="878.785" r="4" fill="#0" id="circle56"/>
	<circle cx="231.702" cy="849.087" r="4" fill="#0" id="circle57"/>
	</g>
</svg>