194 138
194 128
200 120
209 115
219 111
228 106
238 106
248 102
258 100
268 98
278 96
288 94
298 92
308 90
314 82
324 78
334 74
344 72
349 63
357 55
367 54
374 62
381 70
391 74
401 76
410 81
416 89
426 90
436 92
446 94
456 96
466 98
476 101
486 104
496 106
506 109
516 113
525 118
533 124
535 140
527 150
525 162
525 172
525 182
525 192
525 202
525 212
533 218
543 220
553 222
563 224
573 226
583 230
591 236
599 242
600 253
595 262
589 270
589 280
589 290
589 300
589 310
589 320
591 330
590 349
587 362
579 356
578 346
578 336
573 327
563 327
553 327
543 327
533 330
531 348
528 361
520 355
520 345
517 335
509 329
499 325
489 323
479 325
469 328
459 331
449 335
439 339
429 342
419 344
409 345
399 345
389 345
379 343
369 339
359 335
349 333
339 329
329 325
319 323
309 325
299 328
291 334
281 333
271 329
261 327
251 327
241 327
233 334
233 344
232 355
224 363
216 356
218 329
209 324
209 334
209 344
204 361
196 354
196 344
194 334
196 322
196 312
196 302
196 292
196 282
196 272
196 262
198 252
198 242
200 228
202 210
204 197
204 187
204 177
202 167
202 157
199 147
