96 272
96 262
98 246
98 236
100 222
100 212
102 196
102 186
102 176
100 166
100 156
100 146
98 136
98 126
104 118
112 112
120 106
130 102
139 97
149 93
159 90
165 81
173 75
180 64
186 56
196 54
201 63
207 71
215 78
221 86
228 94
238 96
247 101
256 106
265 111
273 117
279 125
281 135
278 145
273 154
271 164
277 172
287 176
297 176
307 176
317 178
327 180
337 184
347 188
355 194
363 200
370 208
378 215
385 223
393 230
403 230
413 230
423 230
433 230
443 230
453 230
463 230
473 232
483 232
493 232
503 229
512 224
522 220
532 216
542 214
552 212
562 210
568 202
577 197
585 191
594 186
604 189
611 197
619 203
627 210
637 212
647 214
657 216
667 220
677 224
685 230
693 236
697 254
691 264
691 274
689 290
689 300
689 310
690 320
693 330
692 349
692 361
682 360
680 350
680 332
671 327
661 330
651 335
646 326
636 325
627 330
619 336
610 341
600 345
590 345
580 341
572 335
563 330
554 325
544 329
534 332
525 327
515 328
515 338
511 350
508 362
500 356
498 346
498 336
496 326
487 321
477 321
467 321
457 321
447 321
437 321
427 321
417 321
407 321
397 321
387 321
377 321
367 321
357 321
347 321
337 321
327 321
317 321
307 321
297 321
287 321
277 322
279 332
275 348
275 361
265 358
264 348
262 329
255 321
245 321
235 321
225 321
215 321
205 321
195 321
185 321
175 321
165 321
155 321
145 321
135 321
125 321
115 322
115 332
113 346
107 361
102 352
102 342
100 332
98 322
97 312
96 302
96 292
96 282
