174 258
172 248
178 240
186 234
196 230
206 228
216 226
226 224
236 222
246 218
256 218
266 216
276 216
286 214
292 201
292 191
292 181
292 171
292 161
288 151
283 142
280 132
284 122
294 118
303 113
312 108
322 106
332 102
342 100
352 98
362 96
372 94
382 92
392 92
400 84
408 78
418 76
428 74
434 66
442 56
452 54
458 62
466 68
474 74
484 78
494 81
501 89
511 92
521 92
531 94
541 96
551 98
561 100
571 102
581 106
591 108
600 113
609 118
618 123
621 138
615 146
611 158
611 168
611 178
611 188
611 198
611 208
611 218
615 228
615 238
617 248
618 258
619 268
619 278
619 288
619 298
619 308
619 318
619 328
619 338
610 360
610 350
608 340
608 330
603 321
593 321
583 321
573 321
563 321
553 322
555 332
555 342
553 352
552 363
544 357
544 347
542 337
538 327
528 325
518 325
508 327
498 327
489 333
479 333
471 327
461 323
451 323
441 325
431 327
421 330
412 335
402 339
392 341
382 343
372 345
362 345
352 343
342 341
332 339
322 336
312 332
303 327
293 326
293 336
291 348
282 343
282 333
281 323
271 323
261 326
253 334
243 331
233 327
223 327
213 325
203 325
193 328
189 342
190 359
180 358
178 340
182 330
184 320
186 304
184 294
184 284
184 274
182 264
