116 266
116 256
118 242
118 232
118 222
120 208
120 198
120 188
120 178
120 168
119 158
118 148
118 138
118 128
122 118
128 110
134 102
142 96
151 91
156 82
162 74
166 62
172 54
181 59
183 69
189 77
193 87
198 96
206 103
213 111
218 120
221 130
217 148
215 164
225 168
235 168
245 172
255 174
265 176
275 176
285 176
295 178
305 182
314 187
323 192
331 198
338 206
344 214
351 222
358 230
368 230
378 230
388 230
398 230
408 230
418 230
428 230
438 230
448 230
458 230
468 230
478 230
488 232
498 232
508 232
518 232
528 232
538 232
548 233
558 234
568 234
574 226
582 220
591 215
601 212
607 203
613 195
618 186
628 186
633 195
638 204
644 212
654 214
662 220
670 226
676 234
681 243
677 262
677 272
675 282
675 292
675 302
675 312
676 322
679 332
676 349
676 361
666 360
664 350
664 340
661 330
651 333
641 330
635 338
625 345
615 341
609 333
601 326
596 335
587 330
587 340
583 350
580 363
572 357
570 347
570 337
568 327
560 321
550 321
540 321
530 321
520 321
510 321
500 321
490 321
480 321
470 321
460 321
450 321
440 321
430 321
420 321
410 321
400 321
390 321
380 321
370 321
360 321
350 321
340 321
330 321
320 321
310 321
300 321
290 321
280 321
270 321
260 321
250 321
240 321
230 321
220 321
221 331
217 348
223 356
214 361
206 354
206 344
205 330
200 321
190 321
180 321
170 321
160 321
150 321
140 321
135 330
133 348
132 361
123 356
122 346
122 336
120 326
118 316
116 306
116 296
116 286
116 276
