108 258
106 248
112 240
120 234
130 230
140 226
150 224
160 222
170 218
180 218
190 216
200 216
210 214
220 214
228 208
238 205
247 200
255 194
265 189
275 190
285 194
293 200
303 204
311 210
321 214
331 214
341 216
351 216
361 212
368 204
377 199
385 191
394 186
404 182
410 165
410 155
407 145
402 136
402 126
410 118
419 113
428 108
438 106
448 102
458 98
468 96
478 94
488 92
498 82
508 78
518 74
526 66
534 56
544 54
550 62
557 70
566 75
576 78
584 85
592 91
602 92
612 95
622 96
632 100
642 102
652 105
662 109
671 114
680 119
687 127
683 144
681 156
681 166
681 176
681 186
681 196
681 206
681 216
683 226
683 236
685 246
685 256
686 266
687 276
687 286
687 296
687 306
685 318
685 328
685 338
676 349
674 339
674 329
667 321
657 321
647 321
637 321
627 321
617 321
607 321
597 321
587 321
577 321
567 321
557 321
547 321
537 321
527 321
517 321
507 321
497 321
487 321
477 321
467 321
457 321
447 321
437 321
427 322
427 332
425 346
417 362
416 352
412 340
406 350
402 325
392 325
382 327
372 331
362 335
355 327
345 323
335 323
325 326
315 330
306 335
296 339
286 341
276 343
266 345
256 343
246 341
236 338
227 333
217 329
207 325
197 323
187 324
178 329
168 333
158 330
148 326
138 325
128 325
121 339
121 349
120 361
112 344
112 334
118 326
118 316
120 302
118 292
118 282
