142 256
142 246
150 238
159 233
169 229
179 226
189 224
199 222
209 218
219 218
229 216
239 216
249 214
259 214
269 214
279 209
288 204
298 202
307 197
316 192
326 188
336 191
340 175
338 165
338 155
335 145
330 136
330 126
338 118
348 114
358 110
368 106
378 102
388 100
398 98
408 96
418 94
428 92
438 92
442 82
452 78
462 76
472 68
480 62
486 54
496 54
502 62
506 72
516 74
526 78
536 82
542 90
552 92
562 94
572 95
582 96
592 99
602 102
612 104
622 107
631 112
641 116
650 121
655 130
649 146
647 160
647 170
647 180
647 190
647 200
647 210
647 220
649 230
651 240
651 250
653 260
653 270
653 280
653 290
653 300
653 310
653 320
653 330
653 340
644 359
644 349
642 339
642 329
635 321
625 321
615 321
605 321
595 321
585 321
575 321
565 321
555 321
545 321
535 321
525 321
515 321
505 322
507 332
507 342
498 361
498 351
494 341
494 331
486 325
476 325
466 325
456 327
446 331
436 334
428 328
418 324
408 323
398 325
388 327
379 332
369 336
359 339
349 341
339 344
332 358
325 345
315 343
305 341
295 339
285 335
275 333
267 327
257 325
247 323
237 323
227 326
219 332
209 333
199 329
189 325
179 325
169 325
161 331
158 341
158 359
148 344
148 334
153 325
154 313
154 303
154 293
154 283
154 273
149 264
