196 254
196 244
202 236
211 231
221 227
231 224
241 222
251 220
261 218
271 215
272 197
272 187
272 177
272 167
270 157
267 147
262 138
262 128
268 120
276 114
286 110
296 106
306 104
316 100
326 98
336 96
346 94
356 92
366 90
376 88
384 80
394 76
404 72
414 66
422 56
432 54
442 55
449 63
454 72
464 74
474 77
483 82
491 88
501 90
511 92
521 94
531 96
541 98
551 100
561 104
571 106
581 110
591 114
600 119
607 127
607 137
599 148
597 160
597 170
597 180
597 190
597 200
597 210
598 220
599 230
601 240
602 250
605 260
605 270
605 280
605 290
605 300
603 314
603 324
605 334
603 346
603 356
595 362
592 352
590 342
581 324
583 334
579 350
578 363
568 359
566 349
566 339
563 329
553 327
543 327
533 328
523 330
513 333
503 335
495 329
485 325
475 325
465 327
455 329
445 333
435 336
425 339
415 343
405 345
395 345
385 345
375 345
365 341
355 339
345 335
335 333
325 329
315 327
305 325
295 325
285 329
277 336
277 346
272 363
264 357
264 347
264 337
257 329
247 327
237 327
227 327
219 334
219 344
218 357
209 363
204 354
204 344
202 334
206 324
206 314
208 302
206 292
206 282
206 272
201 263
