148 92
146 82
150 68
152 54
157 45
165 38
173 31
182 26
192 22
202 20
212 21
222 25
230 31
236 39
241 48
243 58
246 68
249 78
251 88
251 102
251 112
249 128
239 131
229 124
229 134
227 148
227 158
227 168
227 178
225 196
225 206
225 216
225 226
223 240
223 250
223 260
219 275
209 273
209 262
212 248
212 238
214 223
214 213
214 203
214 193
214 183
214 173
214 163
214 153
212 143
212 133
211 123
201 116
201 126
201 136
201 146
201 156
201 166
201 176
203 186
201 200
201 210
201 220
199 230
199 240
199 250
199 260
199 270
189 275
179 273
170 268
181 263
187 255
188 238
188 228
190 215
190 205
190 195
190 185
190 175
188 165
186 155
184 145
184 135
182 125
179 115
171 108
167 98
163 84
158 93
