162 58
162 48
164 38
170 30
179 25
189 21
199 20
209 22
219 26
227 32
232 41
233 51
235 61
235 71
237 81
237 91
235 108
229 118
223 132
221 144
221 154
219 172
219 182
219 192
219 202
219 212
219 222
219 232
219 242
219 252
219 262
212 275
202 271
206 252
206 242
208 230
208 220
208 210
208 200
208 190
208 180
208 170
208 160
206 150
206 140
203 130
193 124
193 134
193 144
193 154
193 164
193 174
193 184
193 198
193 208
193 218
193 228
191 246
191 256
193 266
186 275
176 274
168 268
177 263
180 244
182 226
182 216
182 206
182 196
182 186
182 176
180 166
180 156
178 146
176 136
176 126
174 116
173 106
172 96
166 88
164 78
162 68
