76 130
81 139
91 139
101 136
111 133
120 127
129 122
138 117
148 117
152 127
154 137
160 145
170 149
180 149
190 147
200 143
210 141
220 143
230 143
240 143
250 145
260 145
270 145
270 155
270 165
272 175
280 182
290 182
300 181
308 175
315 166
321 158
326 149
336 147
346 145
356 143
366 139
376 135
386 131
396 127
404 119
412 111
420 103
426 94
418 88
409 83
400 78
390 75
381 70
371 66
361 64
351 60
341 56
331 56
322 51
323 38
313 34
308 25
298 22
288 22
278 26
268 28
259 33
250 38
241 43
232 48
224 54
214 53
204 49
194 46
184 48
176 54
168 60
160 68
152 76
143 84
133 81
124 76
114 72
104 68
94 64
84 62
77 76
80 86
82 96
82 106
80 116
