81 102
78 92
87 87
96 82
106 78
116 74
125 69
135 66
145 62
155 59
165 56
175 54
180 38
190 32
195 23
205 25
215 24
225 28
235 30
244 35
253 40
262 45
271 50
279 56
289 52
299 48
309 46
319 50
327 56
335 62
342 70
348 78
356 84
366 80
376 76
386 72
396 68
406 64
416 62
421 72
417 86
416 99
417 109
419 119
421 129
416 139
406 139
396 136
386 132
377 127
369 121
359 117
349 118
345 134
340 145
330 149
320 149
310 147
300 144
290 141
280 143
270 143
260 143
250 145
240 145
230 145
233 155
233 165
227 180
217 181
207 183
197 179
189 172
183 164
178 155
172 147
162 147
152 144
142 140
132 136
122 133
112 129
104 123
96 117
89 109
