170 102
170 92
175 83
179 73
188 68
198 64
207 59
217 56
220 40
226 26
236 22
244 28
252 35
259 43
265 51
275 47
285 50
290 59
295 68
298 78
308 74
316 66
326 62
329 78
329 88
329 98
329 108
329 118
330 128
324 139
314 135
307 127
297 128
295 140
286 149
276 145
266 143
256 143
261 152
265 162
268 172
260 180
252 174
246 166
240 158
230 157
225 166
219 176
211 183
206 174
206 164
206 154
198 140
189 135
180 130
174 122
171 112
