78 134
87 139
97 139
107 135
117 131
127 126
135 120
145 117
154 122
156 132
160 142
168 149
178 149
188 147
198 145
208 141
218 143
228 143
238 143
248 145
258 145
268 145
268 155
268 165
270 175
278 181
288 181
298 181
307 176
315 168
321 158
326 149
336 147
346 145
356 141
366 137
376 135
386 131
395 126
403 118
411 110
419 102
415 88
407 82
397 78
387 74
377 70
367 66
357 62
347 58
337 56
327 54
321 46
313 36
309 26
301 20
291 22
281 26
271 30
261 32
253 38
243 40
235 47
226 52
216 53
206 50
196 46
186 48
178 54
170 60
162 68
154 76
146 84
136 82
127 77
118 72
108 68
98 64
88 62
78 66
81 76
84 86
86 96
86 106
82 122
