30 260
30 250
34 238
39 229
44 220
49 211
46 196
42 186
42 176
52 172
58 180
68 180
74 170
76 158
76 148
76 138
76 128
76 118
76 108
76 98
76 88
76 78
76 68
72 46
72 36
72 26
80 20
90 19
95 30
93 40
91 52
91 62
91 72
91 82
91 92
91 102
91 112
91 122
91 132
93 142
93 152
99 160
109 162
119 164
126 172
131 181
127 194
123 204
125 214
130 223
136 231
141 240
143 250
143 260
143 270
137 278
129 286
121 292
112 297
102 299
92 299
82 299
72 298
62 297
53 292
45 286
38 278
32 270
