48 182
48 172
52 156
62 154
72 150
74 134
74 124
74 114
76 97
76 87
76 77
76 67
76 57
71 48
64 26
70 18
76 26
78 36
81 46
83 105
83 119
85 129
85 139
85 149
85 159
85 169
85 179
85 189
85 199
85 209
85 219
85 229
85 239
85 249
85 259
85 269
83 288
78 299
68 301
58 299
50 292
48 282
48 272
48 262
48 252
48 242
48 232
48 222
48 212
48 202
48 192
