40 250
40 240
42 226
44 212
44 202
44 192
44 182
44 172
52 158
62 154
72 150
74 136
76 126
76 116
76 106
76 96
76 86
76 76
76 66
76 56
71 47
64 26
70 18
77 30
81 40
85 61
85 71
85 81
85 91
85 101
85 111
85 121
87 131
87 141
87 151
87 161
91 171
93 181
91 192
91 202
91 212
92 222
94 232
95 242
95 252
95 262
93 280
89 294
80 299
70 299
60 299
50 299
45 290
42 280
40 270
40 260
