52 36
52 26
60 20
70 20
80 24
90 24
100 20
110 20
120 20
130 20
140 20
150 24
158 30
166 37
173 45
179 53
183 63
187 73
179 80
174 71
168 63
161 55
151 51
141 54
141 64
137 74
133 88
133 98
131 108
131 118
131 128
131 138
131 148
131 158
133 168
136 178
141 187
141 197
141 207
143 217
143 227
143 237
143 247
143 257
143 267
143 277
143 287
143 297
143 307
143 317
143 327
143 337
143 347
145 357
139 365
129 365
119 365
109 365
99 365
90 360
92 344
94 332
94 322
94 312
94 302
94 292
94 282
94 272
94 262
94 252
94 242
94 232
94 222
94 212
94 202
96 192
96 182
102 170
104 158
106 147
106 137
106 127
106 117
104 107
104 97
102 87
100 77
96 67
94 57
93 47
83 45
73 47
63 51
54 46
