60 40
60 30
65 21
75 20
85 24
95 20
105 20
115 20
125 20
135 20
145 20
153 26
160 34
166 42
171 51
176 60
179 70
180 81
170 81
160 81
154 73
150 63
141 58
137 74
133 88
131 104
131 114
131 124
131 134
131 144
131 154
131 164
135 174
139 184
139 194
141 204
141 214
141 224
141 234
141 244
141 254
141 264
141 274
141 284
141 294
141 304
141 314
141 324
141 334
141 344
143 354
137 365
127 365
117 365
107 365
97 365
92 356
94 346
94 336
94 326
94 316
96 304
96 294
96 284
96 274
96 264
94 254
94 244
94 234
94 224
96 214
96 204
96 194
96 184
100 174
104 161
104 151
104 141
104 131
104 121
104 111
104 101
102 91
100 81
94 73
94 63
93 53
85 46
76 51
66 48
