72 40
72 30
78 22
88 20
98 20
108 20
118 20
128 20
138 20
146 27
152 35
157 44
161 54
164 64
159 81
149 81
139 81
131 88
129 104
129 114
129 124
129 134
129 144
129 154
129 164
132 174
137 183
137 193
137 203
137 213
137 223
137 233
137 243
137 253
137 263
137 273
137 283
137 293
137 303
137 313
137 323
137 333
139 343
139 353
141 363
131 365
121 365
111 365
101 365
92 360
94 346
94 336
94 326
96 312
96 302
96 292
96 282
96 272
96 262
94 252
94 242
94 232
94 222
94 212
96 202
96 192
96 182
100 172
104 159
104 149
104 139
104 129
104 119
104 109
102 99
102 89
98 79
94 69
94 59
88 51
78 48
