98 30
98 40
102 50
102 60
104 70
105 80
107 90
108 100
108 110
108 120
108 130
108 140
108 150
108 160
106 170
98 186
98 196
98 206
98 216
98 226
98 236
98 246
98 256
98 266
98 276
98 286
98 296
98 306
98 316
98 326
98 336
98 346
96 360
105 365
115 365
125 365
135 365
139 348
139 338
139 328
139 318
139 308
139 298
139 288
139 278
139 268
139 258
139 248
139 238
139 228
139 218
139 208
139 198
139 188
133 180
131 170
129 160
129 150
129 140
129 130
129 120
129 110
129 100
131 84
141 81
143 70
143 60
141 50
139 40
137 30
134 20
124 20
114 20
104 20
