98 52
98 62
96 76
105 81
110 90
110 100
110 110
112 120
112 130
112 140
110 158
108 172
102 182
100 194
100 204
100 214
100 224
100 234
100 244
100 254
100 264
101 274
102 284
102 294
102 304
102 314
102 324
100 334
100 344
100 354
100 364
110 365
120 365
130 365
140 365
143 346
141 336
141 326
141 316
141 306
141 296
141 286
141 276
141 266
141 256
143 246
143 236
143 226
143 216
143 206
141 196
141 186
135 178
133 168
131 158
131 148
131 138
131 128
131 118
131 108
133 96
133 86
135 76
137 58
139 44
141 29
136 20
126 20
116 20
106 20
102 30
100 40
