92 78
92 68
94 54
96 44
100 30
104 20
114 20
124 20
134 20
144 23
147 40
141 48
139 62
137 76
135 86
133 104
133 114
133 124
133 134
133 144
133 154
133 164
136 174
141 183
143 193
143 203
143 213
143 223
143 233
143 243
143 253
143 263
143 273
143 283
143 293
143 303
143 313
143 323
143 333
143 343
143 353
145 363
135 365
125 365
115 365
105 365
100 356
102 344
102 334
102 324
102 314
102 304
102 294
102 284
102 274
102 264
102 254
102 244
102 234
102 224
102 214
102 204
102 194
102 184
108 174
110 164
112 148
112 138
112 128
112 118
111 108
110 98
110 88
102 81
