70 64
68 74
76 81
86 81
96 81
104 74
106 84
108 94
108 104
110 114
110 124
110 134
110 144
108 160
106 172
102 182
100 194
100 204
100 214
100 224
100 234
100 244
100 254
100 264
100 274
100 284
100 294
100 304
100 314
100 324
100 334
98 352
98 362
108 365
118 365
128 365
138 365
145 356
145 346
145 336
145 326
145 316
145 306
145 296
145 286
145 276
145 266
145 256
145 246
145 236
145 226
145 216
145 206
143 196
143 186
139 176
136 166
135 156
135 146
135 136
135 126
135 116
135 106
137 88
141 74
145 64
145 54
155 51
165 48
170 39
168 25
159 20
149 20
139 20
129 20
119 20
109 20
99 20
91 27
85 35
79 43
74 52
