66 38
66 28
74 20
84 20
94 22
104 20
114 20
124 20
134 20
144 21
151 29
159 36
164 45
169 54
172 64
175 74
166 81
156 81
146 79
137 74
133 86
131 98
131 108
131 118
131 128
131 138
131 148
131 158
132 168
135 178
139 188
139 198
139 208
139 218
141 228
141 238
139 252
139 262
139 272
139 282
139 292
139 302
139 312
140 322
141 332
141 342
141 352
141 365
131 365
121 365
111 365
101 365
92 360
94 350
94 340
94 330
96 314
96 304
96 294
96 284
96 274
96 264
96 254
96 244
96 234
96 224
96 214
96 204
96 194
96 184
100 174
104 158
104 148
104 138
104 128
104 118
104 108
103 98
102 88
99 78
95 68
94 58
91 48
81 51
71 47
