144 256
144 246
146 230
148 212
148 202
148 192
150 174
150 164
150 154
148 144
148 134
148 124
148 114
152 102
160 94
165 85
174 80
184 78
194 79
204 74
210 64
214 54
218 44
222 28
230 20
238 26
248 22
256 28
253 38
257 48
255 58
257 68
256 85
246 89
247 99
249 109
249 119
249 129
247 144
245 154
245 164
245 174
243 188
241 198
241 208
241 218
241 228
242 238
244 248
241 259
231 259
224 242
224 232
224 222
226 207
226 197
224 187
224 177
224 167
218 159
213 168
211 180
209 190
207 202
207 212
209 222
211 232
213 242
212 259
202 259
192 256
192 246
192 236
192 226
192 216
192 206
190 196
183 188
174 193
165 198
163 212
163 222
163 232
164 242
164 259
154 259
