42 134
42 124
46 110
51 101
56 92
64 84
74 80
84 80
92 86
102 82
112 80
122 78
132 78
142 80
152 81
162 82
172 82
182 82
192 82
202 80
212 76
222 74
232 70
241 65
250 60
258 54
266 46
274 40
282 34
292 30
302 26
312 24
322 22
331 28
333 38
339 46
345 54
351 62
357 70
355 86
345 89
335 87
325 83
315 83
305 81
295 84
290 93
285 102
280 113
275 122
271 132
265 144
259 152
253 160
253 170
253 180
251 192
249 204
249 214
251 224
251 234
256 243
256 259
246 259
236 259
230 251
226 241
226 231
226 221
224 211
224 201
222 191
222 181
220 171
219 161
209 159
199 161
189 161
179 161
169 161
159 159
149 157
139 156
133 164
127 172
121 180
115 188
109 196
105 208
105 218
105 228
107 238
112 247
108 259
98 259
88 259
82 251
78 241
78 231
78 221
78 211
76 201
84 172
84 161
84 151
80 141
75 122
75 132
73 150
72 163
73 173
75 183
70 193
60 190
52 183
47 174
44 164
42 154
42 144
