162 118
162 128
163 138
165 148
166 158
166 168
166 178
166 188
166 198
166 208
164 224
162 236
160 252
168 259
178 259
188 259
198 259
203 244
201 234
201 224
199 214
199 204
199 194
207 186
209 196
210 206
212 216
212 226
212 236
210 252
218 259
228 259
235 248
235 238
233 228
233 218
233 208
235 194
237 176
237 166
239 154
239 144
241 128
241 118
240 108
236 98
233 88
231 78
231 68
233 54
231 38
228 20
220 26
210 22
200 26
200 36
200 46
198 62
194 74
185 82
177 89
171 97
166 106
