22 70
26 81
36 81
46 81
51 90
59 97
67 103
74 111
74 121
74 131
74 141
74 151
74 161
74 171
74 181
73 193
62 212
67 221
77 221
87 221
97 221
107 221
117 221
116 210
112 200
109 190
109 180
109 170
109 160
109 150
109 140
109 130
109 120
109 110
119 107
129 102
137 96
143 88
151 81
161 81
171 81
181 80
181 68
181 58
175 50
165 50
155 50
145 50
135 50
125 50
117 44
104 16
98 24
99 34
108 26
110 36
102 50
92 50
82 50
72 50
62 50
52 50
42 50
38 62
32 70
