38 62
38 52
48 50
58 50
60 40
60 30
66 22
74 16
90 29
82 23
68 50
78 50
88 50
98 50
103 59
109 67
119 70
129 70
139 70
149 70
159 72
154 81
144 81
139 90
135 100
135 110
135 120
135 130
135 140
135 150
135 160
135 170
135 180
135 190
138 200
143 209
143 221
133 221
123 221
113 221
103 221
93 221
88 212
94 202
98 184
98 174
98 164
98 154
98 144
98 134
98 124
98 114
89 109
79 107
71 100
68 90
63 81
53 81
43 81
38 72
