18 50
18 60
26 81
36 81
46 81
56 81
62 89
67 98
75 105
85 109
95 111
98 121
98 131
98 141
98 151
98 161
98 171
98 181
97 193
92 202
86 212
91 221
101 221
111 221
121 221
131 221
141 221
137 204
133 194
133 184
133 174
133 164
133 154
133 144
133 134
133 124
133 114
133 104
141 96
147 86
156 81
166 81
176 81
179 70
169 70
159 70
149 68
144 59
139 50
129 50
119 50
109 50
99 50
89 50
79 46
93 25
99 33
88 16
78 20
72 28
72 38
68 50
58 50
48 50
38 50
28 50
