42 70
34 76
43 81
53 81
60 89
64 99
66 109
66 119
66 129
66 139
66 149
66 159
66 169
66 179
66 189
62 200
54 212
59 221
69 221
79 221
89 221
99 221
109 221
109 211
104 202
101 192
101 182
101 172
101 162
101 152
101 142
101 132
101 122
101 112
111 109
121 107
129 100
133 84
143 81
153 81
163 81
167 69
167 59
162 50
152 50
142 50
114 16
105 21
122 23
130 29
132 39
132 49
122 50
112 50
102 50
92 50
87 61
82 70
72 70
62 70
52 70
