18 62
18 52
28 50
38 50
48 50
58 52
68 52
78 52
82 42
82 32
86 20
98 35
95 25
89 50
99 52
109 52
119 50
129 50
139 50
149 50
159 50
160 60
164 70
174 70
180 81
170 81
160 81
150 85
144 93
136 101
127 106
127 116
127 126
127 136
127 146
127 156
127 166
127 176
127 186
127 196
131 206
130 221
120 221
110 221
100 221
90 221
80 220
80 210
86 200
90 185
90 175
90 165
90 155
90 145
90 135
90 125
90 115
83 107
73 103
64 98
58 90
53 81
43 81
33 81
23 81
18 72
