30 70
22 76
35 79
45 79
52 87
58 95
66 101
76 105
78 115
78 125
78 135
78 145
78 155
78 165
78 175
77 193
72 202
66 210
67 220
77 221
87 221
97 221
107 221
117 221
119 207
114 198
113 188
113 178
113 168
113 158
113 148
113 138
113 128
113 118
113 108
123 105
132 99
140 93
146 85
154 79
164 79
174 79
177 61
176 51
166 50
156 50
146 50
136 50
126 50
116 50
101 17
96 26
106 28
106 38
106 48
96 50
86 50
76 50
66 50
56 50
46 50
36 50
34 60
