22 50
22 60
20 76
29 81
39 81
49 81
59 81
64 90
69 99
77 105
87 109
97 109
98 119
98 129
98 139
98 149
98 159
98 169
96 188
92 202
86 212
91 221
101 221
111 221
121 221
131 221
141 221
141 209
136 200
133 190
133 180
133 170
133 160
133 150
133 140
133 130
133 120
133 110
133 100
141 90
146 81
156 81
166 81
176 81
173 70
163 70
153 70
143 70
134 65
129 56
121 50
111 50
101 50
91 50
81 50
71 47
88 24
94 32
82 16
72 20
66 28
66 38
62 52
52 50
42 50
32 50
