20 70
24 81
34 81
44 81
52 87
58 95
66 102
70 112
70 122
70 132
70 142
70 152
70 162
70 172
70 182
70 192
66 202
60 212
65 221
75 221
85 221
95 221
105 221
115 221
114 210
110 200
107 190
107 180
107 170
107 160
107 150
107 140
107 130
107 120
107 110
117 108
127 104
135 96
141 88
149 81
159 81
169 81
179 81
183 68
183 58
176 50
166 50
156 50
146 50
136 50
126 50
112 16
102 20
98 30
113 26
116 36
116 46
106 50
96 50
86 50
76 50
66 50
56 50
46 50
45 61
40 70
30 70
