20 50
20 60
18 74
26 81
36 81
46 81
54 87
60 95
68 102
78 106
88 110
88 120
88 130
88 140
88 150
88 160
88 170
88 180
86 196
82 206
76 214
84 221
94 221
104 221
114 221
124 221
134 221
128 206
124 196
123 186
123 176
123 166
123 156
123 146
123 136
123 126
123 116
123 106
133 102
141 96
147 88
155 81
165 81
175 81
174 70
164 70
162 60
161 50
151 50
141 50
131 50
121 50
111 52
101 52
91 48
94 28
88 18
84 30
84 40
80 52
70 52
60 52
50 50
40 50
30 50
