86 110
86 100
88 86
92 74
96 64
104 56
112 48
116 32
122 24
132 22
142 21
151 26
161 22
171 20
181 22
188 30
193 39
197 49
205 56
210 65
215 74
221 82
231 86
241 86
249 92
258 97
263 106
259 116
259 126
256 137
250 145
240 147
232 153
224 159
229 168
239 172
249 172
259 174
269 178
279 182
285 190
287 200
283 214
277 228
269 236
260 241
261 251
261 261
261 271
269 278
279 276
289 276
299 276
309 280
313 290
315 300
315 310
315 320
313 338
310 355
302 363
294 369
284 371
274 371
264 369
254 366
244 369
234 371
224 371
214 371
204 369
194 365
184 367
174 367
164 369
154 369
144 371
134 370
124 367
115 362
112 352
110 342
108 332
108 322
108 312
108 302
102 294
102 284
102 274
104 256
104 246
104 236
104 226
104 216
104 206
102 196
102 186
104 174
106 157
101 148
96 139
91 130
87 120
