52 322
52 312
54 302
56 292
64 284
72 278
82 276
92 276
102 276
112 278
122 280
132 276
142 274
148 261
146 251
136 253
126 250
116 247
106 245
97 240
88 235
80 228
74 220
70 210
70 200
74 188
80 180
90 176
100 174
110 172
120 172
130 170
140 166
146 158
156 156
166 154
162 138
158 128
156 118
158 108
162 96
167 87
166 68
164 58
164 48
164 38
172 30
180 24
190 20
200 20
210 23
219 28
227 34
237 34
247 34
257 34
267 29
276 24
286 22
296 20
306 22
315 27
323 34
325 44
325 54
321 64
317 74
318 84
321 94
321 104
319 114
314 129
310 139
305 148
311 156
320 161
328 167
335 175
341 183
345 193
345 208
344 219
338 227
332 235
324 243
315 248
307 254
307 264
308 274
310 284
305 298
305 308
307 318
305 328
303 340
299 358
291 366
281 371
271 371
261 371
251 371
241 371
231 369
221 369
211 367
201 365
191 365
181 363
171 363
161 363
151 362
141 363
131 367
121 371
111 371
101 371
91 371
81 369
71 365
63 359
55 352
53 342
52 332
