52 206
50 196
55 187
59 177
67 169
75 162
85 157
95 154
93 141
88 132
85 122
83 112
82 102
82 92
83 78
79 68
76 58
74 48
74 38
80 30
89 25
99 21
109 20
119 22
129 26
137 32
147 34
157 34
167 33
177 34
186 28
196 24
206 20
216 20
226 24
235 29
243 36
245 46
243 58
239 70
235 82
238 92
243 101
243 111
245 121
244 133
238 141
232 149
241 154
251 156
261 158
267 166
277 170
287 172
297 172
307 174
317 176
327 180
332 189
335 199
333 216
328 225
320 233
311 239
301 243
291 247
281 249
271 253
261 251
251 252
253 262
256 272
266 274
276 277
286 278
296 276
306 276
316 276
326 276
334 282
342 288
347 297
349 307
351 317
351 327
349 344
344 355
336 361
328 367
318 369
308 371
298 371
288 371
278 369
268 365
258 363
248 361
238 363
228 363
218 365
208 365
198 367
188 369
178 369
168 371
158 371
148 371
138 371
128 371
118 371
108 370
99 365
91 358
90 348
90 338
90 328
90 318
92 306
92 292
92 282
96 266
96 256
87 251
78 246
70 240
64 232
58 224
52 216
