75 210
72 200
76 184
82 176
90 166
91 149
86 140
82 130
78 120
76 110
76 100
76 90
80 76
84 66
88 56
88 46
88 36
94 28
102 22
112 20
122 22
132 26
140 33
150 34
158 26
168 22
178 20
188 22
197 27
203 35
207 45
207 56
207 66
212 75
218 83
227 88
236 93
244 99
245 110
244 121
242 131
237 140
228 145
223 154
231 160
237 168
247 170
257 172
267 172
277 174
287 178
296 183
301 192
301 202
301 212
296 225
290 233
281 238
271 243
261 246
251 250
253 260
254 270
258 280
268 280
278 278
288 276
298 276
308 276
318 280
324 288
327 298
327 308
329 318
327 336
325 350
319 360
309 365
299 369
289 371
279 371
269 369
259 367
249 363
239 361
229 363
219 363
209 364
201 370
191 371
181 371
171 371
161 371
151 370
141 371
131 371
121 369
111 365
102 360
99 350
96 340
94 330
94 320
94 310
94 300
90 290
90 280
92 267
92 257
92 247
89 237
84 228
78 220
