86 94
84 106
86 116
88 126
93 135
98 144
104 152
104 166
102 180
102 190
102 200
102 210
102 226
102 236
102 246
102 256
102 266
102 276
102 286
102 296
106 306
106 316
106 326
108 336
110 346
112 356
118 364
128 368
138 371
148 371
158 369
168 369
178 367
188 367
198 368
208 371
218 371
228 371
238 371
247 366
257 367
267 371
277 371
287 370
297 366
306 361
310 351
313 338
313 328
315 310
313 300
312 290
309 280
299 276
289 276
279 276
269 278
261 272
259 262
261 252
259 242
267 236
275 230
281 218
285 199
283 189
276 181
267 176
257 174
247 172
237 172
227 169
224 159
232 153
240 147
250 143
255 134
257 124
261 114
261 104
255 96
247 90
237 86
227 84
218 79
212 71
207 62
201 54
193 47
192 37
187 28
179 22
169 20
159 22
149 25
140 20
130 22
120 24
114 34
112 48
104 54
96 62
92 72
88 82
