66 206
66 196
70 180
78 174
86 166
92 158
90 148
86 138
80 130
76 120
74 110
74 100
74 90
78 76
82 66
82 56
82 46
82 36
88 28
96 22
106 20
116 22
126 25
134 31
144 34
154 34
162 26
172 22
182 20
192 22
201 27
209 34
213 44
213 54
211 64
211 74
218 82
226 89
234 95
241 103
239 122
236 133
231 142
223 150
230 158
238 165
247 170
257 170
267 172
277 174
287 176
297 180
304 188
307 198
307 208
304 223
298 231
289 236
280 241
270 245
260 247
250 251
251 261
253 271
261 278
271 280
281 277
291 276
301 276
311 276
321 280
327 288
331 298
332 308
333 318
333 328
332 341
330 351
324 359
315 365
305 369
295 371
285 371
275 371
265 369
255 365
245 363
235 361
225 363
215 363
205 364
195 366
186 371
176 371
166 371
156 371
146 371
136 371
126 371
116 367
106 363
98 356
96 346
93 336
92 326
92 316
92 306
89 296
86 286
88 272
90 261
90 251
86 241
80 233
73 225
68 216
