40 210
38 200
42 190
48 182
58 178
68 174
78 172
84 164
94 160
104 156
114 154
124 149
120 139
116 129
114 119
114 109
114 99
114 89
112 79
107 70
104 60
102 50
102 40
108 32
116 26
126 22
136 20
146 22
156 24
165 29
174 34
184 34
194 34
204 34
214 34
224 34
234 30
243 25
253 22
263 20
273 22
283 24
291 30
297 38
297 48
297 58
293 68
289 78
285 88
287 98
287 108
285 120
281 138
275 148
283 154
293 154
303 158
313 162
320 170
330 173
340 176
350 180
356 188
361 197
357 216
352 225
344 233
336 239
327 245
317 249
307 253
297 254
287 255
277 254
279 264
285 272
295 274
305 276
315 276
325 278
334 283
342 289
345 299
347 309
351 319
351 329
349 342
345 357
337 364
328 369
318 371
308 371
298 371
288 371
278 368
269 363
259 365
249 367
239 369
229 369
219 371
209 371
199 371
189 371
179 371
169 369
159 369
149 367
139 365
129 364
120 369
110 371
100 371
90 371
80 371
70 368
62 362
54 356
50 346
50 336
50 326
50 316
54 302
58 290
66 284
74 278
84 276
94 276
104 276
114 272
122 264
117 255
107 255
97 252
87 249
77 245
67 241
59 235
51 228
44 220
