90 108
90 98
92 86
96 74
101 65
107 57
115 49
124 44
126 30
132 22
142 20
152 21
162 22
172 20
181 25
187 33
192 42
200 49
207 57
213 65
218 74
224 82
234 85
244 86
253 91
262 96
267 105
263 118
261 134
255 144
245 148
236 153
228 159
233 168
243 172
253 174
263 178
273 182
278 191
279 204
275 218
271 228
263 236
263 246
263 264
263 274
273 276
283 276
293 276
303 278
307 288
309 298
309 308
309 318
307 336
304 355
298 363
290 369
280 371
270 371
260 369
250 371
240 371
230 371
220 370
211 365
201 365
191 367
181 367
171 369
161 369
151 371
141 371
131 367
121 363
116 354
114 344
112 334
112 324
112 314
112 304
108 294
108 284
108 274
108 264
108 254
108 244
108 234
108 224
110 206
110 196
110 186
110 176
110 166
109 154
104 145
98 137
93 128
90 118
