76 106
76 96
78 82
82 72
87 63
94 54
94 44
94 34
100 26
110 22
120 20
130 23
138 29
147 34
154 26
164 22
174 20
184 23
192 29
198 37
201 47
201 57
203 67
209 75
215 83
225 86
235 90
243 96
247 110
245 122
243 132
238 143
228 147
220 155
226 163
234 170
244 171
254 172
264 174
274 176
283 181
291 187
293 197
293 207
291 218
286 227
278 235
269 240
260 245
250 247
251 257
253 267
255 277
265 280
275 277
285 276
295 276
305 276
314 281
319 290
321 300
321 310
321 322
321 332
321 342
317 352
312 361
302 365
292 369
282 371
272 371
262 369
252 365
242 363
232 361
222 363
214 369
204 371
194 371
184 371
174 371
164 369
154 369
144 371
134 371
124 370
114 367
105 362
101 352
99 342
97 332
96 322
96 312
94 299
92 289
92 279
92 269
92 259
92 249
92 239
88 229
87 219
82 210
78 200
82 186
87 177
92 164
93 154
88 145
84 135
79 126
77 116
