80 104
80 94
82 84
86 74
90 64
96 56
104 46
108 26
118 22
128 20
138 23
145 31
153 25
163 22
173 20
183 24
190 32
195 41
197 51
201 61
207 69
213 77
221 84
231 86
240 91
249 96
255 104
251 116
249 130
245 140
237 146
227 150
220 159
225 168
235 170
245 172
255 172
265 176
275 178
283 184
289 192
287 210
285 220
280 229
272 235
263 240
254 245
255 255
255 265
257 275
267 278
277 276
287 276
297 276
307 278
313 286
316 296
317 306
317 316
317 326
315 342
312 355
304 363
294 367
284 371
274 371
264 369
254 366
244 363
234 363
226 371
216 371
206 371
196 371
186 370
176 367
166 369
156 369
146 371
136 371
126 369
116 365
107 360
104 350
102 340
100 330
100 320
100 310
99 300
96 290
96 280
96 270
96 260
96 250
96 240
96 230
94 220
92 210
90 200
90 190
94 174
98 164
96 152
92 142
86 134
82 124
80 114
