52 260
52 250
62 248
72 248
82 248
92 248
102 248
112 248
122 248
132 248
142 248
152 248
162 248
172 248
182 238
182 228
172 227
162 227
152 227
142 227
132 227
122 227
112 227
102 227
92 227
82 227
72 227
64 220
77 218
87 218
97 218
107 218
117 218
127 218
137 218
147 218
157 218
167 218
177 218
182 206
182 196
172 195
162 195
152 195
142 195
132 195
122 195
112 195
102 195
92 195
82 195
72 195
64 188
77 186
87 186
97 186
107 186
117 186
127 186
137 186
147 186
157 186
167 186
177 186
182 172
182 162
177 153
167 153
157 153
147 153
137 153
127 153
117 153
107 153
97 152
96 142
96 132
96 122
96 112
96 102
96 92
96 82
96 72
96 62
96 52
96 42
96 32
96 22
106 20
116 20
126 20
136 20
146 20
156 20
166 20
176 20
186 20
196 20
206 20
216 20
226 20
236 20
246 20
256 20
266 20
276 20
286 20
296 20
306 22
307 32
307 42
307 52
307 62
307 72
307 82
307 92
307 102
307 112
307 122
307 132
307 142
301 153
291 153
281 153
271 153
261 153
251 153
241 154
241 164
241 174
241 184
251 186
261 186
271 186
281 186
291 186
301 186
311 186
316 195
306 195
296 195
286 195
276 195
266 195
256 195
241 196
241 206
241 216
251 218
261 218
271 218
281 218
291 218
301 218
311 218
321 218
316 227
306 227
296 227
286 227
276 227
266 227
256 227
241 228
241 238
242 248
252 248
262 248
272 248
282 248
292 248
302 248
312 248
322 248
332 248
342 248
349 256
347 269
337 269
327 269
317 269
307 269
297 273
287 269
277 269
267 269
257 269
247 269
237 269
227 269
217 269
207 269
197 269
187 269
177 269
167 269
157 269
147 269
137 269
127 269
117 269
107 272
97 269
87 269
77 269
67 273
57 269
