50 262
50 252
60 248
70 248
80 248
90 248
100 248
110 248
120 248
130 248
140 248
150 248
160 247
160 237
156 227
146 227
136 227
126 227
116 227
106 227
96 227
86 227
78 220
91 218
101 218
111 218
121 218
131 218
141 218
151 218
160 205
157 195
147 195
137 195
127 195
117 195
107 195
97 195
87 195
92 186
102 186
112 186
122 186
132 186
142 186
152 186
160 171
160 161
153 153
143 153
133 153
123 153
113 153
103 153
93 152
92 142
92 132
92 122
92 112
92 102
92 92
92 82
92 72
92 62
92 52
92 42
92 32
92 22
102 20
112 20
122 20
132 20
142 20
152 20
162 20
172 20
182 20
192 20
202 20
212 20
222 20
232 20
242 20
252 20
262 20
272 20
282 20
292 20
302 22
303 32
303 42
303 52
303 62
303 72
303 82
303 92
303 102
303 112
303 122
303 132
303 142
297 153
287 153
277 153
267 153
257 153
247 153
237 153
227 153
217 154
217 164
217 174
217 184
227 186
237 186
247 186
257 186
267 186
277 186
287 186
297 186
307 186
317 186
327 186
332 195
322 195
312 195
302 195
292 195
282 195
272 195
262 195
252 195
242 195
232 195
217 196
217 206
217 216
227 218
237 218
247 218
257 218
267 218
277 218
287 218
297 218
307 218
317 218
327 218
332 227
322 227
312 227
302 227
292 227
282 227
272 227
262 227
252 227
242 227
232 227
217 228
217 238
218 248
228 248
238 248
248 248
258 248
268 248
278 248
288 248
298 248
308 248
318 248
328 248
338 248
348 249
349 259
347 269
337 273
327 269
317 269
307 269
297 269
287 269
277 269
267 269
257 269
247 269
237 269
227 269
217 269
207 269
197 269
187 269
177 269
167 269
157 269
147 269
137 269
127 269
117 269
107 270
97 271
87 269
77 269
67 272
57 270
