50 260
50 250
60 248
70 248
80 248
90 248
100 248
110 248
120 248
130 248
140 248
156 248
172 247
172 237
171 227
161 227
151 227
141 227
131 227
121 227
111 227
101 227
91 227
81 227
71 227
66 218
76 218
86 218
96 218
106 218
116 218
126 218
136 218
146 218
156 218
166 218
172 201
164 195
154 195
144 195
134 195
124 195
114 195
104 195
94 195
84 195
74 195
66 188
79 186
89 186
99 186
109 186
119 186
129 186
139 186
149 186
159 186
169 186
172 173
172 163
171 153
161 153
151 153
141 153
131 153
121 153
111 153
101 153
91 153
81 152
80 142
80 132
80 122
80 112
80 102
80 92
80 82
80 72
80 62
80 52
80 42
80 32
80 22
90 20
100 20
110 20
120 20
130 20
140 20
150 20
160 20
170 20
180 20
190 20
200 20
210 20
220 20
230 20
240 20
250 20
260 20
270 20
280 20
290 20
300 20
310 20
320 22
321 32
321 42
321 52
321 62
321 72
321 82
321 92
321 102
321 112
321 122
321 132
321 142
311 153
301 153
291 153
281 153
271 153
261 153
251 153
241 153
231 154
231 164
231 174
231 184
241 186
251 186
261 186
271 186
281 186
291 186
301 186
311 186
321 186
326 195
316 195
306 195
296 195
286 195
276 195
266 195
256 195
246 195
231 196
231 206
231 216
241 218
251 218
261 218
271 218
281 218
291 218
301 218
311 218
321 218
326 227
316 227
306 227
296 227
286 227
276 227
266 227
256 227
246 227
231 228
231 238
232 248
248 248
258 248
268 248
278 248
288 248
298 248
308 248
318 248
328 248
338 248
348 251
345 269
335 273
325 271
315 269
305 269
295 269
285 269
275 269
265 269
255 269
245 269
235 269
225 269
215 269
205 269
195 269
185 269
175 269
165 269
155 269
145 269
135 269
125 269
115 269
105 269
95 269
85 269
75 269
65 271
55 269
