106 260
106 250
116 248
126 248
136 248
146 248
156 248
166 248
176 248
186 248
196 248
204 235
197 227
187 227
177 227
167 227
157 227
147 227
137 227
127 227
117 227
112 218
122 218
132 218
142 218
152 218
162 218
172 218
182 218
192 218
202 218
204 206
200 196
190 195
180 195
170 195
160 195
150 195
140 195
130 195
120 195
112 188
125 186
135 186
145 186
155 186
165 186
175 186
185 186
195 186
204 173
204 163
200 153
190 153
180 153
170 153
160 150
158 140
158 130
158 120
158 110
158 100
158 90
158 80
158 70
158 60
158 50
158 40
158 30
163 21
173 20
183 20
193 20
203 20
213 20
223 20
233 20
243 20
251 26
251 36
253 46
253 56
253 66
251 80
251 90
251 100
251 110
251 120
251 130
250 149
241 154
241 164
241 174
241 184
251 186
256 195
241 196
241 206
241 216
251 218
261 218
256 227
241 228
241 238
242 248
252 248
262 248
272 248
282 248
292 248
295 258
291 269
281 271
271 269
261 269
251 269
241 269
231 269
221 269
211 273
201 269
191 269
181 269
171 269
161 269
151 269
141 269
131 269
121 273
111 269
