140 260
140 250
150 248
160 248
166 240
166 230
166 220
166 210
166 200
166 190
166 180
166 170
166 160
166 150
166 140
166 130
166 120
166 110
166 100
166 90
166 80
166 70
166 60
166 50
166 40
176 40
180 24
190 20
200 20
210 22
215 31
215 41
215 51
215 61
215 71
215 81
215 91
215 101
215 111
215 121
215 131
211 148
201 153
191 154
191 164
191 174
191 184
201 186
211 186
221 186
231 186
241 186
251 186
256 195
246 195
236 195
226 195
216 195
206 195
191 198
191 208
192 218
206 218
216 218
226 218
236 218
246 218
256 218
251 227
241 227
231 227
221 227
211 227
201 227
191 228
191 238
192 248
208 248
218 248
228 248
238 248
248 248
258 248
261 258
253 270
243 269
233 269
223 273
213 269
203 269
193 269
183 269
173 269
163 269
153 270
143 270
