64 228
64 218
66 208
66 198
66 188
68 170
68 160
70 148
70 138
70 128
68 118
68 108
68 98
70 82
72 72
76 60
81 51
87 43
95 37
104 32
114 28
123 33
132 38
142 38
152 38
162 38
172 38
182 38
192 34
200 28
210 30
219 35
227 41
235 48
241 56
244 66
247 76
249 86
251 96
253 106
253 116
251 132
249 150
247 160
243 176
239 186
235 196
235 206
235 216
237 226
235 242
245 246
255 246
265 246
275 246
285 246
279 257
271 264
268 279
264 289
259 298
253 308
247 316
242 325
236 333
231 342
227 352
223 362
219 374
217 386
219 396
225 404
230 413
236 421
245 426
238 443
228 445
218 447
208 447
198 447
188 449
178 447
168 447
158 447
148 446
138 445
129 440
126 430
132 422
140 416
142 405
138 395
134 385
130 375
126 365
122 355
120 345
118 335
115 325
109 317
101 310
93 304
86 296
78 289
73 280
70 270
68 260
66 250
64 238
