38 234
38 224
40 210
40 200
40 190
42 172
42 162
44 148
44 138
44 128
46 114
46 104
48 92
48 82
50 64
54 54
62 46
72 44
82 40
90 32
100 28
109 33
118 38
128 38
138 38
148 38
158 38
168 30
178 28
188 32
196 38
203 46
209 54
213 64
217 74
219 84
221 94
221 104
223 114
223 124
221 142
219 160
215 178
211 192
207 202
201 214
201 224
201 234
201 244
211 246
221 246
231 246
241 246
251 246
261 246
271 246
281 246
291 246
301 246
312 246
307 255
297 258
292 267
290 277
286 287
281 296
275 306
269 314
263 322
257 330
252 339
247 348
243 358
239 374
239 384
241 394
247 402
253 410
259 418
267 424
269 438
259 443
249 445
239 447
229 447
219 447
209 447
199 449
189 447
179 447
169 447
159 447
149 445
139 443
129 440
126 430
134 422
142 415
140 405
134 397
128 389
122 381
117 372
113 362
109 352
105 342
101 332
96 323
89 315
80 310
72 304
64 298
56 292
50 284
46 274
44 264
40 254
39 244
