50 228
50 218
52 208
52 198
52 188
54 178
54 168
54 158
56 146
56 136
56 126
58 114
58 104
60 92
60 82
62 66
66 54
74 46
84 42
92 34
102 30
112 28
117 37
127 38
137 38
147 38
157 38
167 38
177 38
182 28
192 28
202 32
210 38
218 44
223 53
229 61
231 71
235 81
237 91
237 101
239 111
239 121
237 140
235 156
231 174
227 186
224 197
219 206
219 216
219 226
219 236
220 246
230 246
240 246
250 246
260 246
270 246
280 246
290 246
299 255
289 257
281 264
279 276
275 288
270 297
265 306
259 314
253 322
247 330
242 341
237 350
233 362
229 376
229 386
231 396
237 404
243 412
248 421
257 426
257 438
248 443
238 445
228 447
218 447
208 447
198 449
188 448
178 447
168 447
158 447
148 445
138 443
129 438
128 428
136 422
142 407
137 398
132 389
126 381
122 371
118 361
114 351
112 341
109 331
104 322
96 315
88 309
80 303
72 297
65 289
60 280
56 270
54 260
52 250
50 238
