78 100
78 90
80 78
84 66
88 56
94 48
102 40
110 34
120 30
130 28
136 36
146 38
156 38
166 38
176 38
186 38
196 38
206 34
214 28
224 30
233 35
241 41
249 48
255 56
259 66
262 76
264 86
265 96
267 106
267 116
265 130
263 148
261 158
257 172
253 184
253 194
253 204
253 214
255 224
255 234
255 244
265 246
275 246
271 258
265 266
261 280
257 290
251 300
245 310
239 318
233 328
228 337
223 346
219 356
215 366
211 380
211 390
214 400
219 409
224 418
232 424
233 440
224 445
214 447
204 447
194 447
184 449
174 447
164 447
154 447
144 445
134 443
126 436
126 426
135 421
140 412
145 398
142 388
138 378
136 368
134 358
132 348
130 338
128 328
122 320
117 311
111 303
103 297
97 289
92 280
88 270
86 260
84 250
84 240
84 230
84 220
84 210
84 200
86 190
86 180
86 170
84 160
81 150
80 140
78 130
78 120
78 110
