24.50 134.50
46.50 142.50
70.50 142.50
91.50 139.83
95.00 160.50
87.36 171.06
85.53 179.61
85.50 194.33
85.00 207.38
84.31 217.49
84.31 223.60
72.50 212.50
62.93 208.33
62.32 216.27
57.50 227.33
57.50 239.00
58.50 250.50
63.50 264.83
74.53 263.31
83.70 253.54
88.00 275.50
96.50 287.17
106.50 303.17
127.50 325.67
158.00 346.38
181.50 363.50
198.50 363.33
215.50 351.83
238.50 340.50
261.50 323.33
277.50 305.00
293.86 291.41
301.19 280.42
309.13 269.42
310.35 259.65
319.52 261.48
328.68 255.98
330.51 240.10
332.96 230.93
328.68 219.32
321.96 216.27
309.13 211.99
309.13 221.16
309.50 227.67
310.50 200.33
305.50 183.00
305.50 173.83
295.50 157.00
288.90 153.20
279.81 146.01
273.09 146.62
262.25 144.38
254.15 144.18
244.98 141.74
248.50 131.33
233.38 141.74
223.50 139.00
209.50 137.17
190.50 139.00
171.00 139.38
155.50 138.17
142.00 139.75
130.74 146.01
120.35 147.23
110.00 151.38
118.50 135.50
132.50 127.67
143.50 117.50
151.50 104.83
158.00 88.25
161.50 73.33
165.56 58.04
168.62 47.65
171.67 37.27
180.84 35.43
179.61 31.16
178.39 25.66
180.23 41.54
179.61 47.04
185.50 65.83
191.50 90.33
199.16 101.41
207.72 109.97
223.50 121.67
221.00 155.25
212.60 158.84
201.61 160.68
193.67 160.06
193.67 178.39
205.27 178.39
216.88 180.23
224.21 180.23
236.43 176.56
244.37 176.56
243.76 207.11
237.65 209.55
236.43 215.05
242.54 216.88
241.32 221.77
237.65 222.38
241.32 226.66
245.59 223.60
249.26 230.93
244.37 232.15
235.82 231.54
230.93 229.71
225.43 224.82
231.54 220.55
228.49 208.33
231.54 207.72
218.71 210.16
207.50 209.33
177.78 211.38
168.01 210.16
158.84 210.77
152.12 211.38
143.57 211.38
138.07 211.99
132.57 211.38
127.07 213.83
128.30 220.55
133.18 218.10
139.29 218.10
138.68 224.21
138.07 227.27
135.02 224.21
133.18 229.10
132.57 235.82
127.07 232.77
119.74 232.15
111.80 227.27
115.47 222.38
122.80 222.38
117.91 211.99
111.80 213.22
147.23 219.94
153.34 221.77
157.01 221.77
159.45 226.05
154.57 230.32
148.46 231.54
141.74 233.99
181.00 243.50
179.50 261.67
172.89 273.70
180.84 282.86
188.78 282.25
197.94 278.59
199.77 271.25
217.49 287.14
223.60 284.08
225.43 277.97
223.60 290.80
221.77 296.30
213.22 296.30
219.94 304.86
214.50 311.83
203.50 315.67
191.50 317.33
180.50 317.00
167.40 311.58
162.51 305.47
156.40 299.36
164.95 295.69
158.84 289.58
153.95 290.19
150.90 281.03
174.73 302.41
184.50 303.02
200.50 303.33
245.00 270.00
255.37 229.71
260.26 227.27
265.14 224.21
270.64 221.16
257.81 219.32
251.09 216.88
250.48 208.33
257.20 206.50
266.37 205.88
276.75 204.66
296.50 138.17
320.74 143.57
331.00 138.50
339.50 126.83
270.50 134.50
182.06 177.78
172.28 178.39
160.25 179.38
152.73 180.23
142.96 179.00
132.50 181.33
158.50 155.67
171.50 160.50