24 222
24 232
32 214
34 232
40 206
42 225
48 199
50 215
55 191
58 208
63 184
65 200
72 179
75 195
81 174
83 188
90 169
90 180
99 164
100 175
108 159
110 170
117 154
120 170
127 149
129 165
137 149
139 162
145 141
149 157
155 136
159 155
160 126
164 112
169 102
169 155
177 94
178 160
186 89
187 165
194 197
194 207
194 217
194 227
195 172
196 89
199 182
199 236
199 246
204 255
204 265
206 89
209 274
209 284
215 292
216 89
219 302
224 311
225 94
229 320
234 99
234 329
240 337
242 105
247 345
250 112
250 122
254 132
255 142
256 350
259 152
260 162
260 172
261 359
265 181
265 191
269 365
270 200
275 209
275 373
284 214
284 378
292 385
293 219
300 392
303 220
310 395
313 224
319 400
319 617
323 225
325 408
327 609
327 624
333 229
335 410
337 604
337 625
343 229
344 415
347 599
347 624
353 229
353 420
354 430
355 591
355 615
360 438
363 229
363 584
364 448
364 610
367 574
369 547
369 557
370 600
372 455
373 229
374 522
374 532
375 430
375 580
375 590
377 464
377 569
379 474
379 512
380 439
380 555
381 484
383 229
384 425
384 494
385 448
385 540
390 457
390 530
393 229
394 425
394 467
395 477
395 515
400 486
400 496
400 506
403 229
403 430
412 234
413 430
422 234
423 430
432 234
433 430
442 234
443 430
451 239
452 435
454 612
460 244
462 439
462 604
462 619
469 447
470 247
472 599
472 620
474 456
474 466
474 476
474 486
474 496
474 506
479 515
479 525
479 535
479 545
479 555
479 565
479 575
479 585
480 249
480 425
480 435
482 620
488 255
488 441
490 420
490 451
490 461
490 471
490 481
490 491
490 501
492 619
493 511
495 521
495 531
495 541
495 551
495 561
495 571
495 581
495 591
495 601
497 260
498 611
499 415
507 264
507 409
515 400
516 269
525 274
525 400
534 395
535 277
543 390
545 279
553 285
553 388
562 290
563 383
572 294
573 380
581 299
583 380
590 304
592 375
600 304
602 375
610 304
611 370
619 309
620 365
629 309
630 360
639 309
640 360
649 309
650 355
659 309
660 350
669 309
670 350
679 309
680 350
688 314
688 343
690 325
