24 142
24 152
24 162
24 172
29 181
32 134
34 190
34 200
39 122
39 209
41 219
44 112
49 102
49 225
54 332
54 342
54 352
54 362
57 94
59 227
59 317
59 371
64 77
64 307
64 380
65 175
65 185
65 195
65 205
65 215
69 62
69 297
69 389
70 165
74 52
74 287
75 150
75 397
80 140
82 44
82 279
84 402
89 267
89 411
90 130
92 39
94 257
94 420
99 247
100 130
100 428
102 39
107 239
108 435
110 125
110 340
110 350
112 39
112 229
115 310
115 320
115 330
117 440
118 118
120 221
120 354
122 39
123 303
125 211
127 440
128 113
128 293
130 201
130 354
132 39
133 283
134 187
135 265
136 345
136 445
138 110
139 172
139 327
141 44
143 258
144 118
144 128
144 138
144 148
144 158
144 312
146 445
149 297
150 49
150 240
150 250
154 282
155 230
155 440
160 52
162 274
163 223
164 62
165 440
167 264
168 213
173 203
174 66
175 76
175 440
177 264
178 86
180 96
180 106
180 116
180 175
180 185
180 195
182 254
183 126
184 435
185 136
185 146
185 156
185 166
190 246
193 430
200 241
203 430
210 239
212 435
219 234
222 439
229 234
230 445
239 234
239 450
248 455
249 234
257 460
259 234
264 468
265 478
269 234
273 485
279 234
280 493
284 503
284 513
285 523
289 234
290 532
294 542
294 552
294 562
294 572
294 582
294 647
299 234
299 591
299 601
299 611
299 621
299 631
300 655
309 234
309 660
310 485
310 495
310 505
310 515
310 525
310 535
310 545
310 555
310 565
310 575
310 585
310 595
310 605
310 615
315 624
315 634
319 234
319 657
320 485
323 640
329 234
329 480
338 475
339 234
348 475
349 236
357 470
358 241
366 465
368 244
375 460
377 249
385 460
387 249
395 455
396 254
404 261
405 450
414 264
415 450
424 266
425 450
430 274
435 445
440 277
445 445
447 285
455 292
455 445
462 300
465 445
472 304
475 445
481 309
485 445
489 316
495 324
495 445
501 453
504 329
510 458
512 335
520 462
522 339
529 347
529 467
537 354
537 474
547 354
547 469
552 460
554 362
562 460
564 366
572 460
573 371
577 469
580 379
586 474
590 382
596 478
599 387
604 485
607 394
614 485
616 399
620 493
625 404
625 450
625 460
628 500
630 469
634 445
635 404
635 478
637 494
644 409
644 445
653 440
654 409
662 415
662 445
665 425
670 434
