79 497
79 507
79 517
84 526
87 489
89 535
95 481
95 543
103 474
103 550
110 466
113 550
120 461
123 550
124 577
128 454
129 567
129 586
132 555
135 446
136 594
143 439
146 598
150 431
155 603
158 424
165 416
165 607
173 409
175 610
180 401
184 605
188 394
192 599
197 389
200 590
205 381
210 585
213 374
220 366
220 580
228 359
228 573
233 563
235 351
238 553
243 344
243 543
248 533
250 336
255 515
255 525
258 329
260 505
265 321
265 490
270 475
273 314
275 465
280 450
282 309
285 435
287 299
290 425
294 267
294 277
294 287
295 410
299 257
300 395
304 242
305 385
309 232
310 370
314 217
315 360
319 202
323 353
324 177
324 187
328 343
329 167
333 333
334 152
338 323
339 137
344 127
348 318
349 112
354 102
355 310
362 94
364 305
369 77
372 299
374 67
380 290
382 59
387 49
388 283
392 39
395 275
400 31
404 270
410 26
412 264
420 24
422 259
430 24
430 250
438 243
440 24
445 235
450 24
455 230
460 24
463 223
468 30
470 215
475 38
478 208
480 47
480 57
485 66
485 200
495 69
495 195
505 69
505 190
513 183
515 69
520 175
524 74
528 168
532 80
535 155
540 87
540 97
543 148
545 106
550 115
550 140
552 125
