289 527
289 537
289 547
289 557
289 567
289 577
289 587
289 597
289 607
289 617
289 627
289 637
289 647
289 657
289 667
289 677
289 687
289 697
289 707
289 717
289 727
294 497
294 507
294 517
297 734
299 467
299 477
299 487
304 452
305 740
309 437
314 422
314 745
319 392
319 402
319 412
324 377
324 745
329 362
333 750
334 347
339 332
343 750
344 302
344 312
344 322
349 287
353 750
354 272
359 262
362 755
364 252
369 242
372 759
374 227
379 212
381 764
384 197
389 182
391 768
394 167
399 152
401 770
404 137
409 37
409 47
409 57
409 67
409 77
409 87
409 97
409 107
409 117
409 127
411 770
417 29
421 770
427 24
431 770
437 24
441 770
447 24
451 770
457 24
460 765
466 29
470 760
475 34
475 85
475 95
475 105
475 115
475 125
475 135
475 145
475 155
475 165
475 175
475 185
475 195
475 205
475 215
475 225
475 750
480 43
480 53
480 63
480 73
480 234
480 244
480 254
480 264
480 274
480 284
480 705
480 715
480 725
480 735
485 293
485 303
485 675
485 685
485 695
490 312
490 322
490 332
490 645
490 655
490 665
495 341
495 615
495 625
495 635
498 351
500 361
500 371
500 565
500 575
500 585
500 595
500 605
503 381
505 391
505 401
505 475
505 485
505 495
505 505
505 515
505 525
505 535
505 545
505 555
508 411
510 421
510 431
510 441
510 451
510 461
