264 292
264 302
264 312
264 322
264 342
269 262
269 272
269 282
269 331
269 351
269 361
269 371
269 381
269 391
269 401
269 411
269 421
269 431
269 441
269 451
269 461
269 471
269 481
269 491
269 501
269 511
269 521
269 531
269 541
269 551
269 561
269 571
269 581
269 607
269 617
269 642
274 247
274 590
274 626
274 651
274 661
274 671
274 681
274 691
274 701
274 711
274 721
274 731
274 741
279 750
279 760
282 239
285 768
287 229
294 212
295 770
302 204
305 770
310 196
315 770
319 182
324 775
327 174
334 775
337 169
342 159
344 775
349 62
349 72
349 82
349 92
349 102
349 112
349 122
349 132
349 142
354 775
357 54
364 775
367 54
374 775
377 54
384 775
387 54
394 775
397 54
404 775
407 54
414 775
417 54
424 775
427 54
434 775
437 54
444 775
447 54
454 775
457 54
464 775
466 59
470 69
470 79
470 89
470 99
470 109
470 119
470 129
470 139
470 149
470 160
474 775
478 166
484 174
484 772
490 182
494 770
499 187
503 775
504 196
510 204
512 770
515 213
522 770
523 220
527 230
532 770
535 237
539 247
542 769
544 256
545 266
545 276
545 286
545 296
545 306
545 316
545 326
548 336
550 350
550 760
555 359
555 369
555 380
555 395
555 405
555 415
555 475
555 745
560 424
560 434
560 444
560 454
560 464
560 484
560 494
560 504
560 514
560 524
560 534
560 544
560 554
560 564
560 574
560 584
560 594
560 604
560 614
560 624
560 634
560 644
560 654
560 664
560 674
560 684
560 694
560 704
560 714
560 724
560 734
