24 432
24 442
24 452
24 462
24 472
29 422
29 481
34 490
39 417
44 407
44 490
54 402
54 490
62 394
64 487
69 382
74 327
74 337
74 347
74 357
74 367
74 485
79 317
84 307
84 485
92 299
93 480
102 299
103 480
112 299
113 480
122 299
122 475
130 482
132 299
139 487
142 299
149 490
152 299
158 495
162 299
162 505
171 304
171 510
180 309
181 513
185 318
190 518
193 325
200 333
200 522
210 334
210 525
220 334
220 525
230 334
230 525
240 334
240 525
250 331
250 525
260 329
260 525
269 324
270 520
279 324
280 515
288 319
290 515
297 324
300 515
307 324
309 510
316 319
319 510
326 319
329 507
336 319
339 505
346 319
349 502
356 319
359 500
366 319
369 500
376 319
379 500
386 319
388 505
396 319
397 510
405 324
405 517
412 525
414 329
422 529
423 334
432 339
432 530
439 347
441 535
449 351
451 535
459 354
460 540
469 354
470 540
479 354
480 540
489 354
490 540
499 354
500 540
509 354
510 540
515 455
515 465
515 475
519 354
520 484
520 535
523 448
525 493
525 503
528 528
529 354
530 435
530 512
538 359
540 425
545 367
545 415
550 376
550 386
550 396
550 406
