29 122
34 112
34 131
39 102
44 135
47 94
49 82
54 132
57 74
64 127
64 242
64 252
64 262
67 74
69 232
72 269
74 125
74 217
76 69
79 207
80 133
82 265
84 76
84 143
89 152
89 192
89 202
91 260
93 81
94 161
94 171
94 181
95 250
100 235
103 85
105 225
110 93
113 218
118 99
120 210
128 100
128 203
135 195
137 105
142 114
145 195
151 119
154 190
161 119
163 195
171 119
172 190
181 119
182 190
191 119
192 189
201 119
202 185
211 119
212 185
219 193
221 119
224 202
224 212
224 222
224 232
224 242
224 252
224 262
231 119
234 265
240 255
241 119
245 245
249 126
250 205
250 215
250 225
250 235
258 131
260 205
265 139
265 150
270 159
270 169
270 205
280 166
280 205
289 210
289 232
290 164
294 219
294 241
294 251
294 261
294 271
300 164
304 275
310 164
313 280
319 122
319 132
319 142
319 152
323 280
327 114
333 280
335 106
340 96
343 278
350 94
353 275
354 42
354 52
354 62
354 72
359 32
359 81
363 273
369 31
370 265
375 39
375 175
375 185
375 195
375 205
380 214
380 255
385 42
385 175
385 223
385 233
385 243
389 52
394 61
395 177
398 71
400 81
402 185
405 90
405 100
405 110
405 120
405 130
409 193
410 139
410 149
414 202
415 158
415 168
419 211
423 174
424 220
424 230
427 240
433 174
436 245
443 174
446 245
450 166
454 147
456 245
459 132
466 245
469 129
476 245
478 124
484 82
484 92
484 102
485 116
486 245
489 72
494 251
497 64
504 255
507 64
507 265
514 273
516 69
519 282
525 74
527 289
530 83
530 93
535 102
537 290
542 110
547 294
552 114
557 295
562 114
566 290
572 114
576 290
581 119
585 285
590 124
593 278
595 133
595 143
595 153
595 163
595 173
600 182
600 270
604 192
608 263
614 196
615 245
615 255
618 206
620 235
625 214
625 224
