29 97
34 87
37 104
42 79
47 69
47 105
52 59
57 105
62 59
64 242
67 105
70 250
72 59
72 234
74 117
74 127
74 137
76 258
77 224
82 59
82 214
84 140
84 150
84 160
84 170
84 180
84 190
84 200
86 255
91 64
94 247
95 235
100 69
100 220
108 75
108 213
113 203
115 83
118 193
125 84
125 185
135 84
135 185
145 84
145 185
155 84
155 185
164 180
165 84
174 180
175 84
184 180
185 84
194 180
195 84
204 180
205 84
213 185
215 84
219 193
219 203
224 212
224 222
224 232
224 242
225 84
234 89
234 245
240 220
242 95
244 247
245 185
245 195
245 205
245 229
247 104
250 115
250 125
255 134
255 185
260 143
265 185
269 232
270 144
274 190
274 200
274 210
274 220
274 241
279 250
280 144
284 259
290 144
294 260
300 141
303 265
309 117
309 127
313 265
314 102
319 92
323 265
329 87
333 265
339 57
339 67
339 77
339 87
343 263
344 37
344 47
352 29
353 263
361 34
363 258
370 250
371 34
375 44
375 195
375 205
375 225
375 240
380 53
380 214
385 62
385 72
385 82
385 92
385 102
385 112
385 195
390 121
395 195
396 129
404 136
404 190
408 146
414 190
418 149
424 190
428 150
434 137
434 190
438 149
442 129
444 190
447 119
452 109
453 195
462 104
463 195
469 67
472 99
473 195
474 76
474 86
477 205
479 57
479 215
485 223
489 56
493 230
499 57
502 235
507 244
509 59
516 249
519 61
525 69
526 250
533 75
534 256
537 85
542 94
544 260
552 94
553 265
562 94
563 265
572 94
573 265
582 94
583 265
589 102
593 263
594 111
595 121
595 131
595 141
601 149
603 260
605 159
610 168
610 245
618 175
618 238
620 185
620 195
623 228
625 204
625 214
