24 272
24 282
32 264
32 289
34 252
39 297
42 244
47 304
50 236
57 305
59 207
59 217
59 227
67 305
69 204
77 305
78 209
87 214
87 305
96 219
97 305
106 219
107 305
115 224
117 305
124 313
125 224
129 322
134 331
135 227
139 340
145 229
148 345
154 224
154 447
154 457
155 353
162 439
164 224
164 460
165 352
172 439
174 224
174 357
174 460
182 434
184 224
184 360
184 370
184 460
189 379
189 389
189 399
189 409
189 419
194 224
194 460
204 224
204 460
212 454
214 224
220 445
224 226
230 445
234 229
239 450
244 229
245 410
249 450
250 419
253 403
254 231
258 393
259 424
259 450
264 234
265 370
265 380
267 444
269 424
274 234
275 365
277 439
279 426
284 234
285 365
294 234
295 365
304 234
305 365
314 234
315 365
324 234
325 365
334 232
335 365
344 229
345 365
354 229
355 367
364 229
365 370
374 227
375 370
384 229
385 370
394 229
394 375
403 224
403 380
404 462
410 470
412 385
412 454
413 224
420 392
420 470
421 449
423 224
429 397
430 470
431 449
433 224
434 406
440 470
441 449
443 224
444 410
449 442
450 418
450 470
452 229
457 434
460 470
462 224
468 463
471 229
475 455
480 234
483 448
489 239
490 440
495 375
495 430
497 385
499 241
500 420
502 394
505 375
505 404
509 244
514 380
518 249
524 380
525 300
525 310
527 320
528 249
534 380
535 300
537 254
537 324
544 332
544 380
545 300
547 254
553 385
554 334
555 300
556 259
560 393
564 336
565 300
566 259
568 400
570 344
572 410
575 300
575 353
576 259
580 362
580 417
584 222
585 300
585 371
586 259
587 425
590 230
591 379
594 217
595 300
595 389
595 432
596 259
600 232
600 398
604 214
605 300
605 407
605 435
606 259
609 237
614 216
614 246
614 295
614 412
615 430
620 420
623 221
623 290
632 285
633 225
640 233
641 280
645 242
645 270
650 251
650 261
