24 247
24 257
24 267
29 276
32 239
34 285
39 222
43 290
47 214
52 295
55 206
61 300
65 201
69 306
73 194
74 177
74 315
79 324
79 334
84 181
84 343
85 353
89 363
90 373
93 186
94 552
95 382
99 392
99 561
100 194
102 544
107 399
109 565
110 197
111 409
111 539
114 419
114 527
118 570
119 202
119 428
119 487
119 497
119 512
120 438
124 448
124 458
124 468
124 478
127 209
127 564
134 217
135 555
139 572
142 224
143 548
145 530
145 580
147 564
149 232
150 515
154 552
155 580
157 239
159 532
159 542
160 249
160 517
165 580
168 255
175 263
175 575
180 560
185 264
188 553
190 530
190 540
194 269
195 520
200 455
200 465
200 500
200 510
202 475
204 269
205 445
205 485
213 438
214 269
223 433
224 271
233 430
234 274
243 269
243 430
253 269
253 430
263 269
263 430
273 269
273 430
283 269
283 428
293 269
293 425
302 430
303 269
312 274
312 430
321 435
322 274
331 269
331 435
341 269
341 438
349 547
349 557
350 443
351 269
357 564
358 450
359 542
361 269
365 458
367 565
369 537
371 269
373 465
377 475
377 529
377 565
381 269
384 483
385 521
386 560
389 492
390 274
393 514
394 501
395 555
399 567
400 274
400 545
404 576
407 559
408 538
410 274
414 580
415 530
416 554
420 274
423 523
424 580
426 550
429 279
430 515
434 537
434 580
439 281
439 527
440 515
444 577
448 286
452 569
457 559
458 289
465 550
467 294
470 540
474 302
475 530
480 410
480 420
480 430
480 440
480 450
480 460
482 470
483 523
484 306
485 385
485 395
488 316
490 477
490 510
494 380
494 487
495 324
495 497
503 385
504 329
510 337
512 390
519 342
522 394
527 349
531 399
536 354
541 403
544 361
551 405
553 366
560 374
560 410
569 415
570 374
579 379
579 415
588 384
588 420
597 389
598 420
607 389
607 425
617 389
617 425
627 389
627 425
636 394
637 425
646 394
647 425
655 399
657 425
665 396
667 425
675 394
676 420
685 394
686 420
695 391
695 415
705 389
705 415
714 410
715 386
722 404
725 384
730 393
