24 282
24 292
29 301
34 279
34 310
34 362
39 371
39 381
40 318
42 354
44 279
44 328
44 338
44 390
44 400
49 409
49 419
53 284
55 427
62 289
62 435
64 262
64 272
69 281
71 440
72 254
81 259
81 440
90 264
90 445
99 269
100 445
108 274
109 597
109 607
110 445
117 589
118 275
119 610
120 440
125 581
127 280
128 615
129 445
133 574
135 287
138 615
139 445
143 294
143 574
147 564
148 615
149 445
152 299
157 439
157 559
158 615
162 299
165 430
165 551
167 609
171 304
175 430
175 546
175 595
179 440
180 309
184 449
184 590
185 541
190 309
190 457
192 584
193 534
197 465
198 315
202 529
202 580
205 472
208 319
209 482
210 521
211 575
215 511
217 489
218 319
219 499
220 570
228 319
230 565
238 319
239 560
247 314
247 554
257 309
257 549
267 309
267 544
275 535
276 304
284 530
284 597
284 607
285 309
292 524
292 589
294 610
295 309
300 515
301 584
303 615
305 312
309 510
311 584
312 520
313 615
314 317
314 530
319 539
319 549
321 580
323 615
324 319
324 558
324 568
333 615
334 319
343 615
344 319
353 615
354 319
363 615
364 319
365 505
365 515
370 524
370 534
370 544
370 554
370 564
370 574
370 584
370 594
370 604
374 319
375 505
384 317
385 505
394 312
395 505
404 309
405 500
413 493
414 307
423 488
424 304
430 480
433 299
438 473
442 294
448 468
449 587
449 597
452 294
457 579
457 604
458 463
462 294
465 450
465 610
467 579
472 289
475 452
475 571
475 605
479 462
479 472
480 561
482 289
484 481
485 605
488 554
491 489
492 289
495 605
497 549
499 495
502 289
504 600
505 503
507 549
510 590
512 289
513 510
515 541
519 518
519 585
522 289
523 534
525 575
531 294
535 570
540 299
545 565
550 299
554 182
554 192
554 202
554 212
554 222
555 560
559 172
559 231
559 304
564 162
564 240
564 250
565 485
565 495
565 555
567 505
569 147
569 259
569 269
569 279
569 289
569 299
572 514
574 490
575 550
577 139
579 499
579 522
580 540
585 435
586 134
587 505
590 425
590 444
595 129
595 365
595 375
595 385
595 395
595 405
595 415
596 510
599 449
604 124
605 175
605 185
605 195
605 205
605 360
606 510
607 215
607 455
610 165
610 225
613 353
614 124
615 234
616 510
617 459
618 158
620 243
620 253
620 345
624 124
625 262
625 335
625 505
626 464
628 153
629 272
630 282
630 292
630 315
630 325
634 124
634 510
634 572
635 301
636 464
638 150
639 562
640 580
643 515
644 124
645 469
647 155
647 525
649 559
649 585
652 534
654 124
654 544
655 469
657 159
658 590
664 126
665 469
667 160
668 590
673 131
673 475
676 165
677 485
678 590
682 494
683 135
685 160
685 504
688 590
690 513
692 140
693 153
695 522
698 590
702 530
708 588
710 537
715 546
715 556
715 580
718 566
