24 117
24 127
29 107
32 134
34 97
39 82
42 135
44 47
44 57
44 67
49 37
52 135
59 34
61 130
69 34
71 130
79 32
81 130
87 24
90 125
96 29
99 130
105 34
109 127
115 34
119 125
124 29
128 130
134 27
137 135
144 24
144 143
149 152
154 24
154 161
159 170
159 180
159 190
164 24
164 199
164 209
166 219
169 229
169 239
174 24
174 248
179 257
184 24
187 264
191 274
194 24
201 278
204 24
210 283
214 26
220 285
224 29
229 290
229 357
229 367
232 300
234 29
234 347
239 308
239 318
239 328
239 338
239 370
243 34
249 367
253 34
255 315
259 362
260 290
260 300
260 324
260 334
260 344
263 34
265 280
273 34
274 285
274 342
277 295
279 305
279 315
279 325
280 350
283 34
290 270
290 280
290 350
293 34
295 260
295 289
298 343
300 298
300 308
303 34
304 255
305 317
305 327
313 34
313 250
323 34
323 250
332 245
333 34
342 245
343 34
352 245
353 34
362 245
363 34
371 250
373 34
381 250
383 34
389 256
393 34
396 264
403 34
405 255
413 34
415 255
423 34
425 255
433 34
434 250
443 34
443 245
453 34
453 243
463 34
463 238
473 34
473 235
474 342
474 352
482 240
483 34
484 332
484 355
487 249
489 322
491 259
493 34
494 269
494 279
494 289
494 299
494 309
494 355
502 349
503 34
507 339
510 315
510 325
513 34
515 290
515 300
520 280
523 34
525 270
529 362
533 34
534 275
534 371
537 354
539 284
543 34
544 293
544 337
544 375
545 303
549 313
549 323
553 34
553 370
562 364
563 34
565 250
565 310
565 320
565 330
565 340
565 350
570 225
570 235
570 259
570 285
570 295
573 34
575 215
575 268
583 34
583 208
584 247
584 257
584 273
585 283
589 216
589 226
589 236
590 292
593 35
594 302
600 175
600 185
600 195
600 205
600 215
600 225
600 235
600 290
602 40
602 245
605 50
605 140
605 150
605 160
605 255
605 265
605 275
610 59
610 69
610 79
610 89
610 99
610 109
610 119
610 129
