24 147
24 157
32 139
32 164
39 122
39 172
44 112
49 175
52 104
54 52
59 61
59 87
59 175
62 44
64 70
68 170
71 49
77 175
81 49
87 179
91 49
97 179
100 54
107 175
109 59
117 175
119 57
127 179
129 54
136 184
139 56
146 188
149 59
154 195
159 59
159 204
164 213
169 57
169 222
174 231
179 59
179 240
185 248
189 59
190 257
197 265
199 59
206 270
209 59
209 362
209 372
214 276
214 352
217 379
218 64
219 285
222 344
224 294
224 304
224 314
224 324
224 334
227 380
228 64
236 375
238 64
244 367
248 64
249 357
250 310
250 320
250 330
250 340
255 300
258 64
260 290
265 280
268 64
270 292
274 302
274 352
278 64
279 361
282 309
282 344
284 319
284 329
288 64
289 365
298 65
298 370
300 270
305 260
305 279
305 289
305 299
305 309
307 364
308 69
310 318
310 328
310 338
315 260
315 347
315 357
318 69
325 260
328 69
335 260
338 70
345 260
348 74
355 260
358 74
365 260
368 74
375 260
378 74
379 270
384 279
388 74
392 285
398 74
399 277
404 267
408 74
412 260
417 69
421 255
427 69
430 250
437 69
440 250
447 69
450 250
456 64
459 245
466 64
469 242
476 64
479 240
479 362
479 372
484 249
485 380
486 64
487 354
489 258
494 267
494 277
494 337
495 59
495 380
499 286
499 296
499 306
499 316
499 326
505 59
505 375
510 365
515 59
518 358
520 345
525 59
525 335
529 382
529 392
530 320
535 59
537 374
539 315
539 395
544 324
544 334
544 362
545 59
549 343
549 353
549 395
555 59
559 392
565 59
565 330
565 340
567 384
570 300
570 310
570 320
570 349
570 359
570 369
573 65
579 305
579 315
579 325
579 335
582 70
585 343
590 170
590 180
590 190
590 200
590 210
590 220
590 230
590 330
592 74
595 84
595 130
595 140
595 150
595 160
595 239
595 249
595 259
595 269
595 305
595 315
600 93
600 103
600 113
600 278
600 288
