19 262
24 252
24 271
24 281
24 291
24 301
29 310
32 244
32 320
34 117
34 127
34 137
34 147
34 330
34 340
34 350
37 360
39 107
39 156
39 370
39 380
40 236
42 390
44 165
44 400
44 410
44 420
47 99
48 229
49 429
50 173
51 439
54 449
54 459
55 91
55 221
58 180
59 468
63 214
64 188
64 198
64 477
65 86
69 486
69 562
74 547
74 571
75 81
79 490
79 532
79 580
79 590
79 642
82 500
83 74
84 510
84 520
84 599
84 609
84 619
84 629
84 651
89 660
93 74
98 665
103 74
107 670
113 74
117 670
123 74
127 670
133 75
136 675
142 80
146 675
152 84
156 675
159 92
166 675
169 96
170 595
172 605
175 104
175 195
175 205
175 585
175 670
177 215
177 614
180 113
180 180
180 560
180 570
182 224
184 622
185 122
185 132
185 142
185 152
185 162
185 234
185 535
185 545
185 670
190 243
190 525
192 629
194 665
195 252
195 262
195 272
195 295
195 480
195 490
195 500
195 510
197 305
200 281
200 315
201 634
204 475
204 662
205 324
205 334
210 343
211 634
212 469
214 657
215 352
215 445
215 455
219 362
219 641
220 372
223 438
225 381
228 391
230 401
230 411
230 430
235 420
