24 217
29 192
29 202
29 226
29 236
29 246
29 256
37 184
39 172
39 260
39 297
39 307
44 162
44 316
48 265
49 147
49 294
54 317
57 139
57 270
59 296
64 315
66 134
66 275
69 299
71 125
74 315
76 278
78 304
79 117
84 315
86 280
88 304
89 112
94 315
95 285
97 104
98 304
104 315
105 285
107 99
108 304
114 315
115 285
116 94
117 299
124 315
125 89
125 285
127 299
134 280
134 317
135 89
137 294
144 84
144 315
154 84
154 312
164 84
164 310
174 84
174 310
184 84
184 310
194 84
194 310
204 84
204 310
209 37
214 46
214 84
214 310
217 29
219 62
223 305
224 50
224 84
227 29
229 65
232 310
234 84
237 29
238 70
242 310
247 29
250 39
250 49
252 309
255 58
255 68
260 77
262 304
268 84
272 299
275 265
275 280
278 84
285 265
288 84
294 260
298 84
304 260
308 84
314 260
318 84
324 260
327 79
334 260
336 84
344 260
345 89
345 130
350 139
353 123
354 94
354 262
359 144
360 210
360 220
363 89
363 120
364 260
365 229
368 149
369 205
372 115
373 89
374 260
375 227
377 144
379 205
382 114
383 90
384 260
385 227
387 144
389 205
390 98
393 255
395 227
397 144
398 200
402 235
403 253
407 139
407 195
417 139
417 195
426 190
427 139
436 190
437 139
445 185
447 139
453 178
457 139
463 178
467 139
473 175
477 139
483 173
487 139
493 173
496 134
503 168
506 130
513 168
516 129
520 160
526 125
529 155
536 124
539 155
546 120
548 150
556 119
558 150
566 119
567 144
575 125
575 135
