24 242
29 197
29 207
29 217
29 227
29 251
36 259
37 189
42 179
44 265
50 171
50 273
55 161
60 277
64 152
70 280
72 144
74 332
80 280
82 139
82 324
90 280
90 330
92 134
92 319
100 280
100 330
101 129
108 324
110 124
110 280
116 330
117 319
119 119
120 280
126 330
127 319
129 119
130 280
135 325
137 314
138 114
140 280
145 306
145 325
147 109
149 285
149 295
155 325
157 104
165 325
167 104
175 320
177 99
185 320
186 94
194 315
196 94
199 32
204 317
206 94
209 29
211 39
214 315
215 99
219 29
221 40
224 50
224 315
225 99
229 29
230 58
234 94
234 312
238 65
239 29
239 82
244 315
245 73
248 24
250 50
252 60
254 312
255 70
255 80
255 90
257 29
260 45
260 99
264 310
266 34
270 96
274 307
275 290
280 94
280 280
286 85
290 275
296 80
300 270
306 84
310 270
316 84
320 270
326 80
329 265
331 89
338 270
339 96
348 270
349 99
355 135
357 145
358 270
359 99
365 135
365 235
367 149
367 265
369 99
370 244
374 130
375 230
376 270
377 149
379 101
380 239
384 132
385 225
385 255
385 265
387 149
388 106
388 245
394 130
395 220
397 149
398 110
402 124
405 215
407 149
415 215
417 149
425 210
427 144
435 210
437 144
444 205
446 139
454 205
456 139
464 205
466 139
472 199
476 139
482 194
486 139
492 189
496 135
502 185
506 134
511 180
516 134
520 175
526 134
528 168
536 134
538 163
546 134
548 163
555 155
556 134
565 155
566 134
575 139
575 150
