29 397
29 407
34 387
37 414
42 379
44 252
44 262
44 272
44 282
44 292
44 302
44 312
44 322
44 332
47 415
49 237
52 339
52 379
54 222
56 349
56 410
59 197
59 207
61 374
64 187
65 384
65 394
66 350
66 410
74 177
75 394
76 350
76 410
82 169
85 391
86 350
86 410
91 164
93 384
96 155
96 353
96 410
102 389
106 154
106 353
106 410
111 145
112 384
115 358
115 405
121 140
122 379
124 400
125 362
131 135
134 400
141 135
144 400
151 134
154 400
161 130
164 400
171 129
174 397
180 124
184 395
189 129
194 395
198 124
203 390
208 124
209 47
209 57
209 67
213 390
217 119
219 44
219 70
223 390
227 114
229 44
229 70
229 80
232 90
233 388
237 114
239 44
239 98
243 385
248 39
253 383
257 34
258 373
260 60
260 70
262 80
264 365
267 34
269 55
270 87
273 360
274 97
276 29
278 50
279 106
283 360
284 36
285 114
293 360
295 114
303 360
305 114
313 360
315 114
323 360
325 114
333 360
334 119
337 109
343 360
347 104
353 360
354 112
360 120
363 360
368 126
370 180
373 360
375 189
378 130
380 180
383 139
383 360
385 192
390 175
392 144
392 355
395 165
395 189
400 150
402 355
404 184
405 270
410 279
412 355
413 263
414 184
420 279
422 355
423 263
424 184
430 279
432 354
433 258
434 184
439 284
440 250
442 350
444 184
448 243
449 284
451 345
454 184
455 235
455 292
460 301
460 335
464 181
464 230
465 310
465 320
473 225
474 179
482 220
483 174
492 220
493 174
501 215
503 174
510 210
512 169
520 210
522 169
530 210
531 164
539 205
541 160
549 202
551 160
559 197
561 159
567 189
570 164
575 173
