24 167
24 177
29 157
29 186
37 149
39 190
47 144
49 192
57 139
59 187
67 134
69 190
75 198
76 139
80 207
86 139
87 215
95 144
95 222
102 230
105 144
107 239
114 247
115 144
122 254
124 149
130 260
132 155
136 268
139 278
139 288
140 162
140 298
145 171
145 181
145 307
149 317
149 327
149 337
149 347
150 190
155 199
157 354
159 157
159 167
164 147
165 196
166 359
167 174
169 107
169 117
169 127
169 137
169 387
169 397
171 368
174 92
174 182
174 378
174 406
175 194
179 82
179 415
184 72
184 185
188 420
192 64
197 425
202 59
207 429
212 59
217 430
222 59
226 435
229 67
236 435
239 71
246 435
248 76
255 440
258 80
262 90
265 440
267 99
275 440
276 104
280 175
284 445
285 109
285 165
290 155
290 179
294 445
295 112
298 148
299 174
300 121
300 131
304 445
308 169
310 116
314 126
314 445
315 161
318 109
319 135
322 99
324 87
324 445
325 143
325 162
329 77
330 152
333 169
334 67
334 445
338 160
339 57
343 170
344 47
344 445
348 160
352 39
353 169
354 445
361 34
364 445
370 29
374 445
380 26
384 445
390 24
394 445
400 24
404 445
410 27
414 445
415 165
419 32
420 174
424 445
425 165
427 39
429 179
430 49
434 445
435 58
435 155
439 177
440 67
443 148
444 445
447 75
449 172
450 140
452 84
454 445
455 94
455 104
455 114
455 130
459 167
463 440
465 131
467 159
469 117
469 141
473 440
477 109
483 440
486 104
492 435
494 97
502 89
502 435
510 81
512 435
518 74
521 430
527 69
531 430
537 64
540 425
547 64
550 420
556 59
560 415
565 405
566 55
570 375
570 385
570 395
575 365
576 59
584 360
585 64
590 73
590 350
595 82
595 325
595 335
600 91
600 115
604 320
605 100
605 124
610 133
610 143
610 295
610 305
615 152
615 280
619 162
620 270
629 164
629 265
637 259
639 164
645 250
648 159
654 245
658 159
662 239
667 154
670 225
675 215
677 149
680 205
687 144
688 198
695 190
697 139
705 192
706 144
714 197
715 149
724 154
724 200
732 160
734 197
739 187
740 167
740 177
