24 297
24 307
24 317
24 327
29 282
32 334
37 274
40 340
42 264
50 256
50 340
58 249
60 335
64 357
64 367
68 249
68 328
72 349
74 370
75 320
77 244
77 339
80 310
82 329
83 375
87 244
89 317
90 305
92 380
97 244
101 375
107 244
109 432
109 442
110 370
115 360
117 244
117 449
119 427
124 355
125 455
127 244
129 424
130 445
133 360
137 244
137 370
138 419
139 380
139 390
139 440
144 399
144 409
146 249
148 435
155 254
158 433
159 457
159 467
163 260
164 447
164 476
165 425
169 437
169 485
170 268
178 275
179 487
185 283
187 480
190 450
190 460
193 289
195 469
198 443
203 289
204 435
212 284
214 435
217 445
222 279
225 452
232 274
232 460
239 468
242 274
244 477
244 642
244 652
244 662
249 632
251 269
252 484
252 669
257 624
259 492
261 269
262 665
267 624
269 495
271 265
272 664
275 503
276 619
281 264
282 664
284 508
285 518
286 619
291 264
292 665
293 525
294 535
294 607
299 544
299 587
299 597
301 260
302 665
304 553
304 563
304 573
311 259
312 665
321 259
322 665
331 259
332 664
341 259
342 659
345 620
347 630
350 264
350 610
350 650
352 639
360 264
360 605
365 590
370 267
370 580
380 269
380 575
388 568
390 272
395 560
399 642
400 274
404 651
405 560
407 634
409 279
411 659
415 560
415 626
419 281
421 663
425 289
425 560
425 624
429 570
429 580
429 590
431 665
435 292
435 598
435 621
439 608
440 660
443 299
450 660
452 304
460 510
460 660
461 309
462 520
469 505
470 314
470 527
470 660
475 580
477 535
477 590
478 320
478 510
480 565
480 600
480 655
482 610
485 542
485 552
487 325
487 619
488 510
490 629
490 640
490 650
497 329
498 510
504 337
507 515
514 341
517 515
523 346
527 515
530 354
537 519
540 357
547 365
547 520
557 369
557 520
566 374
567 520
574 381
577 520
583 386
587 524
593 390
597 525
600 398
607 525
610 402
617 525
618 409
627 414
627 525
636 419
637 525
645 424
647 525
654 429
657 525
663 434
667 525
673 435
677 525
682 440
687 524
692 444
697 520
701 449
707 520
711 449
717 520
720 454
726 515
730 454
736 515
739 459
746 515
749 461
756 515
759 464
766 515
768 469
776 515
778 469
785 510
788 469
795 510
798 469
805 510
808 470
815 510
818 474
824 505
828 474
834 505
837 469
843 500
847 469
852 495
857 469
861 490
867 469
870 485
876 464
878 478
885 470
