24 217
24 227
24 237
24 247
24 257
24 267
32 209
32 274
39 297
39 392
39 402
39 412
41 204
42 270
44 306
44 421
47 289
47 384
49 197
51 265
51 314
54 425
56 284
57 384
59 187
59 320
61 265
64 177
64 277
64 425
67 384
68 325
69 167
70 260
72 270
74 157
74 425
77 384
78 325
79 255
81 265
84 154
84 425
86 389
88 323
94 154
94 425
95 394
98 320
103 159
104 389
104 425
107 315
113 159
113 430
114 387
117 314
119 342
119 352
122 154
122 379
123 430
124 327
124 361
127 310
132 154
132 319
133 430
137 310
142 149
143 430
152 149
152 424
160 415
162 149
169 410
171 154
174 419
179 428
180 438
181 154
185 447
189 161
189 457
197 464
198 166
204 472
205 174
210 183
212 479
218 190
221 484
222 200
227 209
229 490
230 219
235 228
238 495
240 237
244 247
244 567
247 500
249 557
249 576
249 586
252 254
254 508
254 537
254 547
254 595
257 605
259 517
259 527
259 747
259 757
259 772
259 782
261 259
262 614
266 624
267 789
269 742
270 264
271 633
275 643
277 790
279 269
279 739
283 650
287 790
288 274
289 739
290 658
297 790
298 275
299 739
300 662
305 283
306 785
307 670
308 734
309 680
309 690
309 700
309 710
309 720
315 287
316 785
325 289
326 785
333 295
336 785
342 300
344 777
349 767
352 304
354 757
355 625
355 635
355 745
357 645
360 730
361 309
362 654
363 618
365 720
370 314
370 710
371 659
373 613
378 703
379 666
380 314
380 605
383 676
385 686
389 319
389 600
398 605
399 321
407 610
409 324
414 618
418 329
419 627
424 636
428 330
431 644
435 338
439 650
445 339
448 655
454 344
454 737
454 747
454 757
457 660
459 766
463 349
464 732
466 774
467 660
472 354
474 729
476 665
476 775
479 362
481 674
483 724
484 684
485 370
486 694
486 775
489 704
490 379
491 714
492 729
496 775
498 385
502 395
506 775
507 404
510 414
515 423
516 775
523 430
526 775
532 435
535 655
535 665
535 675
535 685
535 695
536 775
540 442
540 605
540 645
540 704
540 714
540 724
540 734
540 744
540 754
540 764
545 614
545 624
548 449
548 638
549 600
558 450
558 605
567 455
567 610
577 459
577 610
586 464
586 615
595 469
596 615
605 469
605 620
614 474
615 620
623 479
625 620
633 479
635 620
643 480
645 620
653 484
655 620
662 489
665 620
672 489
675 620
681 494
685 620
691 494
695 620
701 494
705 620
710 499
715 620
720 499
725 615
730 499
735 615
740 499
745 610
750 499
755 610
760 499
764 605
770 499
774 602
780 502
784 597
790 504
794 595
800 504
802 589
809 509
812 584
818 504
820 575
825 565
828 504
833 558
837 499
843 555
847 499
852 550
857 499
862 549
867 499
872 545
877 499
881 540
887 499
891 540
897 494
899 532
907 494
909 530
915 510
915 520
917 494
