24 457
29 427
29 437
30 465
32 449
39 422
39 435
39 460
42 449
44 237
44 247
49 292
49 302
49 419
49 435
49 460
52 229
52 254
54 444
57 284
57 309
58 465
59 419
59 435
60 260
61 224
64 444
67 284
67 310
68 424
68 465
70 262
71 224
77 284
77 310
77 429
77 470
80 265
81 224
84 437
87 284
87 310
87 470
90 265
90 445
91 220
94 577
94 587
94 597
95 454
95 477
97 279
97 310
99 606
100 463
101 219
102 270
102 485
102 569
105 585
107 279
107 310
107 559
108 469
109 610
110 492
110 594
111 219
115 551
117 310
117 474
117 500
118 600
119 610
120 590
121 219
125 507
125 546
125 560
126 479
127 314
129 595
130 569
130 579
131 219
132 515
134 486
134 555
135 541
136 319
137 589
139 362
139 372
139 382
140 214
142 519
143 534
143 550
144 342
144 352
144 391
144 401
144 411
144 487
146 320
149 209
149 330
149 420
149 477
152 430
152 520
152 545
159 209
159 438
159 472
161 540
164 447
167 464
168 214
171 540
177 219
180 535
186 224
190 535
194 231
199 530
200 239
207 524
210 242
214 252
215 330
215 340
215 350
215 360
215 515
219 261
220 271
220 305
220 315
223 281
223 366
224 510
225 291
233 364
234 510
243 364
243 515
253 364
253 515
262 520
263 364
264 657
264 677
264 712
267 529
269 686
270 720
271 539
272 359
272 649
272 704
274 660
274 672
276 548
279 687
280 558
280 720
282 359
282 649
282 704
288 565
289 682
290 720
291 354
292 649
292 704
295 573
297 689
300 720
301 354
301 654
301 699
303 580
309 725
310 588
310 659
311 354
318 595
319 664
319 725
321 354
324 603
324 642
324 652
329 612
329 622
329 632
329 722
330 359
339 720
340 362
349 720
350 364
355 555
355 565
359 717
360 367
360 574
364 550
365 583
365 593
365 660
369 712
370 369
370 602
370 612
370 622
370 632
370 642
370 669
370 679
370 689
370 699
374 550
380 369
384 550
390 369
394 547
400 369
402 540
410 369
411 535
415 525
420 369
423 518
430 369
430 510
438 503
440 369
445 495
450 369
453 488
460 369
460 480
468 473
470 369
475 465
480 369
484 460
490 369
492 454
500 369
502 449
510 366
510 440
520 364
520 435
529 359
529 430
538 425
539 359
547 420
548 354
556 415
557 349
565 410
567 349
574 405
576 344
582 399
585 339
592 394
594 334
602 389
604 332
612 384
614 327
622 379
624 324
632 375
633 319
641 370
642 314
650 365
652 314
659 360
661 309
667 354
670 304
677 349
679 299
685 340
688 294
694 335
697 289
702 329
707 284
712 324
717 279
722 319
727 274
732 314
737 274
740 305
746 269
750 300
755 264
760 295
765 261
770 290
775 256
780 285
785 254
790 280
795 251
800 280
805 249
809 275
815 249
818 270
825 246
827 265
835 244
837 265
845 244
846 260
855 241
856 260
865 239
865 255
874 250
875 236
883 245
885 234
893 240
894 229
903 238
908 229
