24 122
24 132
24 142
24 152
32 114
32 159
34 377
39 367
40 106
42 160
44 177
44 187
44 380
47 359
50 101
52 159
52 194
54 172
54 382
57 354
59 302
59 312
59 322
59 332
60 99
61 199
62 155
62 374
64 167
64 341
64 392
64 402
67 294
69 92
69 382
70 365
71 200
72 154
72 284
74 164
74 405
74 415
79 87
79 272
79 377
80 360
81 200
82 150
83 420
84 257
87 79
87 159
87 369
89 247
90 195
90 410
91 145
94 237
96 74
97 154
98 403
99 190
99 227
102 145
104 217
105 69
105 390
108 195
109 205
115 69
115 390
121 398
124 408
125 69
129 417
134 426
134 436
135 66
139 445
144 454
145 64
146 464
149 712
149 722
154 59
154 470
154 702
155 730
157 480
162 694
164 59
165 487
165 730
169 497
172 694
174 59
175 730
179 500
181 689
183 64
185 508
185 725
191 689
192 69
194 730
195 210
195 220
195 510
199 77
200 229
201 689
203 203
204 515
204 730
207 84
207 525
208 193
209 234
209 535
211 685
213 183
214 92
214 544
214 730
216 554
217 240
219 101
219 564
220 165
220 175
221 680
223 111
224 573
224 730
225 121
225 155
225 247
229 582
229 667
230 130
230 140
232 255
234 591
234 601
234 657
234 730
235 265
239 647
240 274
241 609
244 637
244 730
246 618
249 279
249 628
254 727
259 281
264 722
268 286
270 705
278 289
278 698
284 717
284 727
287 294
288 693
292 709
294 730
297 294
298 688
300 701
303 725
305 680
306 299
310 699
313 673
313 725
315 304
318 663
320 696
322 730
325 304
328 658
328 689
332 730
335 307
337 684
338 655
341 725
345 309
345 676
347 660
350 730
354 314
354 668
360 730
363 319
370 730
373 320
379 725
380 328
387 719
390 332
395 710
397 340
405 347
405 710
410 356
415 660
415 670
415 705
416 364
420 374
420 645
420 679
420 689
428 380
430 645
432 390
435 400
436 653
440 409
444 660
445 418
445 428
450 437
453 665
455 446
458 456
460 466
460 673
463 476
465 486
470 495
470 677
475 504
475 514
479 682
480 523
485 532
489 542
489 685
494 551
498 561
498 690
503 570
507 695
510 578
515 587
517 695
520 596
526 604
526 700
534 706
535 609
541 714
543 615
550 623
551 718
558 630
561 720
567 635
571 723
577 639
581 725
586 644
591 725
595 649
601 725
605 649
611 725
615 649
621 725
624 654
631 725
634 654
640 720
643 649
650 720
653 649
660 715
662 644
670 715
672 644
679 710
681 639
688 705
689 632
697 624
697 700
705 616
706 695
713 609
714 687
717 599
722 679
724 587
730 670
732 579
734 567
735 660
739 542
739 552
743 653
747 534
748 643
753 633
755 620
756 539
760 605
764 546
765 556
765 580
765 590
768 566
