24 162
24 172
30 180
32 154
39 185
41 149
42 195
50 144
50 202
54 132
60 205
62 124
67 114
70 200
75 106
80 200
83 99
84 72
84 82
89 205
92 64
94 214
99 223
99 233
102 64
104 242
104 252
109 261
111 59
114 270
114 280
114 290
117 300
119 66
119 310
122 320
124 527
125 74
127 329
129 536
130 83
131 339
132 519
134 545
136 348
138 89
142 514
143 550
144 355
147 94
147 365
149 375
149 385
149 502
153 550
154 102
154 394
154 404
154 414
154 424
154 434
154 444
154 454
154 464
154 474
154 484
162 109
163 550
169 117
173 550
179 121
183 548
185 129
188 538
190 138
190 525
195 515
198 145
200 490
200 500
205 153
205 460
205 470
205 480
210 440
210 450
213 160
215 410
215 420
215 430
220 400
222 165
225 390
227 174
234 385
236 179
244 186
244 385
254 189
254 385
264 191
264 382
274 194
274 380
283 199
284 380
293 199
293 375
302 370
303 199
311 365
313 199
321 365
323 199
330 360
333 199
340 355
343 199
350 350
353 199
360 350
363 199
370 350
373 199
380 352
383 199
384 362
389 371
393 199
394 380
399 389
401 399
403 199
409 405
412 204
412 415
419 423
422 204
424 432
424 522
429 531
432 204
432 439
432 514
436 449
437 504
439 459
439 532
441 209
444 468
444 478
444 488
449 530
450 214
457 524
460 214
465 515
468 220
470 465
470 475
470 485
470 495
470 505
475 228
478 458
483 235
488 460
489 537
490 243
492 470
494 546
495 252
497 529
499 262
499 478
500 488
504 271
504 498
504 508
504 518
504 550
505 405
505 415
508 281
510 291
510 424
513 398
514 550
515 300
515 433
520 309
520 390
520 442
524 547
525 318
525 451
530 390
530 460
530 470
530 480
530 490
530 500
530 525
530 535
533 325
535 509
540 390
542 330
550 337
550 390
559 342
560 390
569 344
570 385
578 349
578 378
585 357
585 367
