24 142
24 152
32 159
34 137
40 165
44 134
49 170
54 132
59 170
64 127
69 170
74 122
79 170
84 117
89 170
94 114
99 170
104 114
109 170
114 111
114 179
119 188
124 114
124 197
129 206
134 116
134 215
134 225
137 235
143 121
144 243
145 253
150 262
153 125
154 272
154 282
159 291
159 301
159 311
159 321
159 517
160 133
164 330
164 526
165 142
167 340
167 509
169 152
169 350
171 534
174 359
174 369
174 387
175 501
177 159
179 378
179 396
179 406
179 416
179 426
179 436
179 446
179 456
179 466
179 476
179 486
180 169
181 535
185 178
190 530
193 185
198 523
200 193
205 510
210 197
210 500
215 430
215 440
215 450
215 490
219 202
220 410
220 420
220 459
220 469
220 479
225 385
225 395
229 206
230 375
238 211
239 370
248 214
249 370
258 215
259 370
268 219
268 365
278 219
278 365
288 220
288 365
297 360
298 224
307 360
308 224
317 229
317 359
327 229
327 355
337 229
337 354
347 229
347 350
356 345
357 229
365 340
367 229
375 340
377 229
384 335
387 229
393 330
396 234
403 328
406 234
413 323
415 239
423 325
425 239
432 330
435 242
439 338
440 348
444 358
445 244
445 368
450 377
454 249
454 387
459 396
464 251
469 400
472 410
474 254
482 414
484 256
489 422
493 261
497 429
500 269
505 435
510 272
515 435
517 280
525 287
525 437
532 295
534 442
540 302
544 312
544 445
545 322
545 332
545 342
545 352
545 362
549 512
550 371
553 381
553 450
557 504
557 519
558 390
560 458
564 487
565 398
565 467
565 525
569 477
573 405
573 518
580 413
580 505
585 475
585 485
585 495
588 419
589 522
594 470
594 512
595 530
597 424
599 479
599 489
599 499
605 530
606 429
614 436
615 525
620 444
620 454
620 464
620 474
620 515
625 483
625 493
625 503
