39 187
39 197
39 207
44 37
44 47
44 57
44 172
44 216
49 66
49 157
51 224
54 32
54 75
54 85
54 95
54 105
54 115
54 125
54 135
54 145
59 230
64 34
68 235
72 40
78 235
80 47
87 55
87 240
94 248
94 258
94 268
94 278
94 288
94 298
94 308
94 318
94 328
94 338
94 348
94 358
94 368
97 59
99 377
99 387
99 592
99 602
104 67
104 396
104 406
104 416
104 426
104 611
107 584
109 435
109 445
109 455
109 465
112 475
112 574
114 69
114 485
114 495
114 537
114 547
114 557
114 615
119 504
119 514
119 524
123 620
124 69
133 618
134 69
140 610
144 69
145 590
145 600
153 583
154 69
158 573
160 460
160 470
160 480
160 560
162 490
164 62
165 450
165 500
165 510
165 520
165 530
165 540
165 550
172 54
175 450
180 46
185 450
188 39
194 455
195 31
203 24
204 455
205 125
205 135
207 145
212 154
213 24
213 118
214 455
220 100
220 110
221 159
222 29
224 455
225 39
225 49
225 59
225 69
225 79
225 89
225 169
233 460
235 172
242 180
243 460
250 187
252 465
257 195
259 473
259 483
259 493
259 503
259 513
259 617
259 627
264 522
264 532
264 602
265 202
267 634
269 541
269 551
269 561
269 571
269 581
269 591
273 209
275 640
282 214
285 640
291 219
294 635
300 224
303 630
305 485
305 495
305 505
307 515
310 224
310 465
310 475
310 525
310 535
310 545
310 555
310 565
310 575
310 620
312 585
315 595
315 605
318 458
319 229
328 453
329 229
338 450
339 229
347 445
349 229
357 444
359 227
367 440
369 224
377 440
379 222
387 444
389 219
395 450
399 219
401 458
409 219
409 465
415 473
419 219
423 480
429 219
432 485
434 552
434 562
434 572
439 219
439 537
439 581
441 490
444 500
447 529
449 219
449 509
449 519
449 585
459 219
459 585
460 410
462 420
465 430
467 579
469 219
469 405
470 439
470 449
472 569
475 458
477 559
478 214
479 405
480 545
483 465
485 475
485 485
485 495
485 505
485 515
485 525
485 535
488 214
488 410
495 418
497 209
505 422
507 204
512 430
515 250
515 260
517 204
519 438
520 269
524 447
525 245
525 278
527 204
529 456
530 287
534 240
535 296
536 199
536 464
538 306
540 230
541 473
545 314
545 324
545 483
546 199
550 230
550 333
553 490
555 342
555 352
555 362
556 199
557 500
559 225
560 371
560 381
562 509
565 390
565 400
566 199
569 222
569 517
569 527
570 409
570 419
574 536
574 546
574 556
574 566
575 428
575 438
576 199
579 217
579 575
580 447
582 585
585 456
586 199
588 466
589 215
590 592
593 475
596 195
597 485
599 215
600 495
600 595
602 505
605 515
606 194
609 215
610 524
610 590
615 199
615 533
615 543
619 215
619 585
620 552
625 202
625 561
625 571
