159 487
167 494
169 482
176 499
177 474
186 500
187 474
195 505
197 474
205 505
206 469
215 505
216 469
219 277
224 267
224 500
226 465
227 284
229 257
234 500
235 290
236 464
237 249
242 239
243 283
244 500
245 459
250 231
250 275
253 495
254 454
255 221
258 268
263 214
263 495
264 452
267 204
268 263
272 444
272 490
275 196
275 255
280 186
281 485
282 439
283 248
285 176
290 240
291 485
292 434
293 169
298 233
300 426
300 480
302 164
303 223
308 419
308 473
310 156
313 218
315 411
318 149
318 468
320 210
323 404
325 460
328 149
330 210
330 396
334 455
337 144
338 389
339 215
342 449
344 224
344 234
345 381
347 144
349 243
350 253
350 440
353 374
354 263
357 144
357 364
358 433
359 272
359 282
364 291
364 301
365 356
367 139
368 428
369 97
369 107
369 310
369 320
369 330
369 340
374 82
374 116
374 126
375 420
382 74
383 413
390 66
393 408
398 59
400 400
407 54
410 395
417 54
419 400
426 59
428 405
435 64
437 410
440 73
445 417
448 80
450 90
450 120
450 130
452 425
455 99
455 109
455 139
460 310
460 320
460 330
462 340
462 429
464 144
465 290
465 300
467 349
469 437
470 265
470 275
470 359
474 144
475 240
475 250
477 444
478 365
480 220
480 230
484 144
484 452
485 210
485 373
490 382
494 144
494 455
495 210
497 390
500 463
503 149
505 212
505 397
508 470
512 154
512 405
514 217
515 478
520 412
521 159
522 224
523 485
526 234
527 420
527 495
529 166
534 240
534 503
535 174
537 424
539 512
540 183
540 248
540 434
544 521
548 190
548 255
548 440
549 530
552 540
554 263
554 550
555 198
555 448
559 272
559 559
559 569
560 207
560 457
564 578
564 588
565 598
567 215
567 279
567 465
569 608
572 224
572 474
574 287
574 617
575 484
579 232
580 493
584 241
584 290
584 620
588 500
590 249
590 298
590 510
592 614
595 258
595 519
595 529
597 604
600 300
600 538
600 548
600 558
600 568
600 578
600 588
603 265
607 275
610 300
612 284
