104 327
104 337
109 317
109 346
117 309
119 347
122 299
127 339
130 291
135 281
135 330
139 592
139 602
139 612
143 274
144 325
144 582
145 620
147 264
149 572
152 319
154 562
155 256
155 620
160 246
160 310
162 554
165 236
165 615
167 544
168 303
172 534
173 229
173 608
175 295
177 524
180 285
180 600
182 224
184 512
188 593
189 280
190 216
192 504
193 583
197 274
197 494
198 209
200 575
202 484
207 270
208 209
208 568
209 472
213 558
217 204
217 274
217 464
220 550
222 454
224 282
224 292
225 540
227 204
229 301
229 311
229 442
233 533
234 320
234 432
237 204
237 330
239 340
239 417
240 520
242 350
244 360
244 407
247 199
247 370
248 513
249 157
249 167
249 380
249 390
254 142
254 176
254 186
255 505
260 495
262 134
268 488
270 126
274 480
278 119
280 470
287 114
288 463
297 114
298 460
306 119
307 465
312 474
315 124
319 482
320 133
327 489
328 140
330 150
330 180
330 190
334 497
335 159
335 169
335 199
335 209
340 370
340 380
340 390
342 400
342 504
345 209
345 350
345 360
345 410
349 512
350 325
350 335
350 419
350 429
354 521
355 209
355 300
355 310
358 435
360 265
360 275
360 285
361 529
362 445
364 204
367 454
369 535
370 260
374 202
374 462
374 544
379 255
379 471
380 552
384 197
385 479
387 249
387 560
390 488
394 192
394 568
397 245
398 495
399 577
400 235
402 184
402 505
407 584
408 228
410 176
410 512
414 522
414 592
415 220
418 169
422 529
422 599
425 161
425 210
425 539
429 607
430 151
433 545
435 200
437 555
437 614
438 144
443 193
444 132
445 562
445 620
448 183
449 122
449 572
454 107
454 625
455 175
455 580
459 92
460 165
460 589
460 599
464 72
464 82
464 622
465 155
465 608
469 62
470 145
475 130
479 59
480 110
480 120
485 67
485 77
485 87
485 97
