39 147
39 362
44 97
44 107
44 117
44 127
44 137
44 317
44 327
44 337
44 347
45 155
49 365
54 94
54 314
55 155
59 365
64 94
64 314
65 155
69 365
74 94
74 314
75 155
78 370
83 319
84 96
85 157
88 370
93 319
94 99
95 160
98 370
99 237
99 247
103 319
104 99
104 227
105 160
108 370
109 217
109 250
113 319
114 99
115 160
118 370
119 212
119 252
123 319
124 99
124 202
125 160
127 244
128 370
132 194
133 319
134 99
135 160
135 235
137 184
138 370
143 319
144 99
144 172
144 230
144 507
144 517
144 527
144 537
145 160
148 370
149 497
149 546
150 220
152 324
154 99
157 375
157 489
159 545
160 220
162 324
162 479
163 104
165 210
167 375
167 469
167 539
169 457
172 324
173 104
174 447
175 200
175 530
177 375
179 437
182 324
183 104
183 193
183 523
187 375
187 429
188 513
190 185
192 324
192 419
193 104
195 505
197 375
197 409
200 180
202 324
202 399
203 104
203 498
204 387
207 375
208 488
210 180
212 324
213 104
213 478
219 185
220 465
221 329
222 195
223 104
224 205
224 222
228 458
229 231
231 329
232 109
233 448
234 240
234 250
238 438
239 259
239 317
242 109
244 268
244 278
244 297
244 307
245 430
249 62
249 72
249 82
249 92
249 287
253 423
254 52
258 413
259 42
263 403
267 34
268 393
273 383
276 29
283 380
285 24
292 385
295 24
302 385
305 27
312 35
312 389
319 397
320 42
325 51
325 90
329 400
330 60
330 80
330 99
335 69
335 108
335 295
335 305
335 408
340 265
340 275
340 285
340 314
343 415
345 112
345 230
345 240
345 250
345 323
347 425
350 332
353 223
354 433
355 114
355 200
355 210
359 442
360 185
360 334
364 451
365 114
369 180
369 339
371 459
375 117
379 180
379 339
379 465
382 475
385 119
385 390
387 400
388 185
389 339
391 480
395 119
395 390
397 190
397 404
399 339
399 486
404 412
405 119
405 390
406 195
406 494
409 339
409 421
414 500
415 119
415 200
415 390
415 429
417 510
419 339
420 438
422 519
424 205
425 119
425 390
425 447
429 339
429 457
429 527
434 205
435 119
435 392
435 465
437 475
437 534
438 344
443 210
445 122
445 395
445 482
445 540
448 344
450 185
450 195
450 491
454 545
455 124
455 395
456 499
458 344
460 185
460 375
460 385
460 509
460 519
464 542
465 124
465 352
465 362
465 528
470 185
475 124
480 185
485 124
485 160
485 170
490 133
490 143
