154 67
154 77
154 87
154 97
154 107
154 117
154 127
154 137
159 57
159 146
159 156
164 47
164 165
164 207
164 217
169 37
169 174
169 226
171 184
174 204
174 235
176 193
177 29
180 243
184 200
185 21
188 250
190 70
190 80
190 90
190 100
190 110
192 120
194 258
195 19
195 268
199 65
200 127
200 137
203 275
205 19
205 73
207 145
209 83
209 93
209 103
209 113
212 280
213 25
214 122
214 632
214 642
214 652
214 662
217 149
219 622
220 33
222 284
222 669
224 125
227 149
227 614
228 40
229 602
230 675
231 289
232 50
234 127
234 567
234 577
234 587
235 60
235 70
237 149
239 295
239 542
239 552
240 79
240 89
240 99
240 109
240 119
240 675
242 305
244 315
244 522
244 532
247 149
249 324
249 502
249 512
250 675
254 487
255 332
257 144
259 462
259 472
260 675
262 340
264 392
264 402
264 412
264 422
264 432
264 442
264 452
267 144
269 348
269 358
269 368
269 378
270 670
277 144
280 665
285 610
285 620
285 650
286 139
287 630
290 590
290 600
290 640
295 575
296 139
299 667
299 677
299 687
304 570
304 652
306 139
307 580
309 590
309 600
309 642
309 690
312 610
314 620
314 630
315 698
316 139
325 144
325 700
334 149
335 700
342 155
345 700
350 162
354 172
355 700
364 174
365 500
365 510
365 520
365 530
365 540
365 550
365 700
370 559
370 569
370 579
370 605
370 615
370 625
370 635
372 645
373 693
374 174
375 510
375 588
377 654
379 630
380 664
380 674
380 684
381 620
382 640
384 176
384 515
387 649
389 602
389 612
390 184
391 659
394 515
394 567
394 577
394 587
399 547
399 557
399 665
400 187
403 520
404 530
407 195
409 665
415 202
415 230
415 240
419 667
420 211
420 221
423 246
429 665
433 249
439 662
443 249
445 620
445 630
445 640
445 650
450 605
453 249
455 575
455 585
455 595
460 565
463 249
469 560
472 570
473 250
480 577
482 255
487 585
490 262
494 642
494 652
494 662
494 672
497 270
497 589
499 632
504 597
504 622
504 675
505 277
509 606
512 285
513 680
520 292
522 685
525 485
525 495
527 300
530 504
532 309
532 685
535 319
535 475
535 513
540 522
540 532
542 685
543 325
544 470
545 335
545 541
549 479
549 489
549 499
549 509
550 344
550 354
550 522
550 550
552 684
554 532
555 363
555 373
555 383
555 393
555 403
555 413
555 423
555 433
555 443
555 559
560 452
560 462
560 472
560 495
560 505
560 540
560 568
560 675
565 481
565 514
565 524
565 577
565 587
565 597
565 607
565 617
569 627
570 637
570 647
570 657
570 667
