24 307
24 317
24 327
29 292
29 336
34 282
34 345
39 152
39 162
39 172
39 182
39 192
39 202
39 212
39 222
39 354
44 142
44 231
44 241
44 272
44 363
49 127
49 250
49 260
49 372
54 117
54 381
59 107
59 390
65 398
67 99
75 91
75 402
83 84
84 407
87 74
89 416
94 425
95 66
99 434
99 444
101 454
104 464
104 474
104 484
104 494
104 504
105 61
109 513
113 54
114 522
122 49
122 529
129 537
131 44
134 546
140 39
141 554
149 560
150 36
155 568
159 578
160 31
164 587
169 596
170 29
176 604
179 24
181 613
189 24
189 620
198 625
199 24
207 630
209 24
217 630
219 24
226 625
229 24
236 625
239 24
244 617
247 30
252 610
255 37
261 605
264 42
269 597
272 49
279 57
279 592
287 584
289 57
295 575
299 54
303 568
309 54
310 560
315 535
315 545
318 59
320 510
320 520
325 485
325 495
328 59
330 475
335 465
337 64
343 458
346 69
348 448
350 410
350 420
350 430
355 74
355 400
363 393
364 79
368 383
370 87
373 373
375 235
375 245
375 255
375 360
377 95
377 265
380 105
380 205
380 215
380 225
380 350
382 115
385 125
385 135
385 145
385 155
385 165
385 175
385 185
385 195
385 272
385 340
389 282
390 292
390 302
393 333
395 311
395 321
