74 307
74 317
79 326
82 299
84 335
87 345
91 294
95 352
99 362
100 289
104 192
104 202
104 212
104 222
104 232
104 242
104 252
104 262
104 272
104 371
109 167
109 177
109 281
109 380
112 390
114 147
114 157
119 132
120 397
124 122
124 407
129 112
132 414
134 102
139 422
139 432
139 442
139 452
142 94
144 461
149 82
149 470
155 478
157 74
163 485
165 66
169 493
169 503
169 513
169 523
169 533
173 59
174 542
179 551
180 51
184 560
188 44
190 568
197 39
198 575
204 583
206 34
212 590
215 29
221 595
224 24
229 601
234 24
236 609
244 24
246 613
254 24
254 620
263 625
264 24
272 630
274 26
282 630
284 29
292 629
293 34
302 39
302 624
311 44
312 619
320 49
320 610
329 54
330 605
338 49
338 598
345 590
347 44
353 583
357 44
360 575
365 565
367 44
373 558
377 44
380 545
385 530
386 49
390 480
390 490
390 500
390 510
390 520
395 54
395 465
400 455
403 60
405 440
410 68
410 430
415 77
415 395
415 405
415 415
420 86
425 95
425 390
430 104
430 114
430 124
430 134
430 144
430 154
430 164
430 174
430 184
430 194
430 204
430 214
430 224
430 234
430 244
435 253
435 380
440 262
440 365
445 300
445 310
445 320
445 330
445 340
445 350
447 270
450 280
450 290
