154 187
159 177
159 497
159 507
159 517
159 527
159 537
164 190
164 487
164 546
167 169
169 477
169 555
174 190
175 161
177 469
178 560
182 459
183 154
183 185
187 449
188 560
192 149
192 180
194 297
194 437
198 558
199 257
199 272
199 282
201 175
202 149
202 304
202 429
204 232
204 242
207 419
208 553
209 337
209 347
209 362
209 372
209 382
209 397
210 170
211 144
211 309
212 224
212 409
214 327
218 548
219 315
220 170
220 216
221 144
224 540
228 209
229 175
229 185
229 195
231 144
232 534
240 139
242 530
247 539
249 132
251 549
254 122
259 555
262 114
265 563
271 109
273 570
279 102
280 578
289 97
290 582
297 89
299 587
307 84
307 594
317 84
317 594
326 79
327 595
336 75
337 595
346 75
347 595
356 74
357 595
365 79
367 595
375 79
377 595
384 84
386 590
394 86
396 590
403 91
405 585
410 99
413 578
420 102
423 573
427 110
430 565
435 117
438 558
442 125
445 545
450 132
450 535
455 141
455 245
455 255
457 265
458 528
460 150
460 235
460 485
460 495
460 505
460 515
462 274
465 159
465 169
465 225
465 284
465 465
465 475
470 178
470 293
470 455
475 225
475 302
475 435
475 445
480 182
480 311
480 325
480 405
480 415
480 425
485 225
485 334
485 344
485 354
485 364
485 374
485 384
485 394
488 189
495 227
497 194
505 227
506 199
512 235
515 204
520 242
525 204
527 250
533 210
535 257
542 215
542 265
550 222
551 270
554 232
559 276
562 239
569 247
569 280
574 256
579 282
580 264
585 273
