144 177
149 186
152 169
157 159
159 190
165 151
169 190
173 144
178 185
182 139
188 185
190 131
194 252
198 185
199 232
199 242
200 126
200 260
204 222
204 467
208 119
208 185
209 212
209 442
209 452
209 476
210 255
212 195
214 427
216 484
218 119
219 412
220 250
224 337
224 347
224 397
226 480
227 114
229 245
229 297
229 307
229 317
229 327
229 356
229 366
229 376
229 386
234 282
234 472
236 109
237 239
239 272
239 462
244 262
245 104
247 235
247 454
252 254
254 462
255 101
257 239
259 471
259 481
259 491
264 500
264 510
265 99
269 519
271 529
274 94
276 538
280 548
283 89
288 555
293 89
295 563
302 84
305 567
312 84
315 570
322 84
324 575
332 84
334 575
342 84
344 575
352 84
354 575
362 84
364 575
372 84
374 572
382 84
384 570
392 84
393 565
401 89
402 559
410 550
411 89
418 543
420 94
420 530
425 520
430 97
430 500
430 510
435 240
435 470
435 480
435 490
439 102
440 249
440 440
440 450
440 460
445 235
445 415
445 425
448 255
449 104
450 405
452 265
455 235
455 395
457 274
458 109
460 284
460 380
465 235
465 293
465 303
465 313
465 360
465 370
467 114
470 322
470 332
470 342
474 122
474 240
482 129
484 240
489 137
493 245
494 146
500 154
503 245
508 160
512 250
515 168
521 255
523 175
530 183
531 258
538 190
540 263
545 198
550 265
553 205
559 270
560 213
568 220
568 275
575 228
577 280
580 237
585 246
587 284
590 255
595 264
597 279
