24 362
24 372
24 382
32 354
32 389
39 397
42 349
49 400
51 344
55 408
61 344
65 412
70 339
74 417
80 336
84 420
90 334
93 425
100 331
102 430
110 329
112 434
120 329
122 435
130 326
132 435
140 324
141 440
150 324
151 440
160 324
161 443
169 319
171 445
179 319
181 445
189 319
191 445
199 317
201 445
209 314
211 445
219 314
220 450
229 314
230 450
238 309
240 450
248 309
250 450
258 310
260 452
268 314
269 457
278 314
279 460
285 468
288 314
295 472
298 314
302 480
307 309
311 485
315 301
320 490
323 294
330 490
332 289
339 485
341 294
347 479
349 301
355 309
357 474
363 315
365 465
372 320
373 458
382 324
383 453
392 324
393 448
400 440
401 329
410 440
411 329
420 440
421 329
430 435
431 329
440 435
441 329
450 435
451 329
459 430
460 324
469 329
469 427
479 329
479 425
488 334
488 420
497 339
498 420
506 344
507 415
516 344
517 415
525 349
527 414
535 352
537 410
544 357
547 410
554 359
557 410
564 359
567 410
574 359
577 410
584 359
587 410
594 359
597 414
604 359
607 415
613 354
616 420
623 354
625 425
632 349
634 430
641 344
643 435
650 339
653 435
660 336
662 440
670 331
672 444
675 375
675 385
677 395
680 326
682 404
682 445
683 368
690 324
690 360
691 409
692 449
698 353
699 319
699 416
702 450
705 345
705 424
709 319
712 450
713 338
713 430
717 440
719 319
720 330
