14 322
14 332
24 317
24 335
33 340
34 314
37 350
44 314
45 357
52 365
54 312
62 365
64 309
72 369
74 309
82 370
84 309
92 370
93 304
101 375
103 304
111 375
113 304
121 375
123 304
130 380
133 304
140 382
143 304
149 387
153 304
157 394
161 404
163 304
169 410
173 304
175 418
183 304
183 425
192 430
193 304
199 422
203 304
205 410
213 304
213 403
218 393
223 304
228 390
233 304
238 390
243 304
248 390
253 304
258 390
262 309
267 385
272 309
277 385
282 309
287 385
292 309
297 385
302 309
307 385
312 309
317 385
322 309
327 385
331 314
335 392
341 314
345 395
351 314
355 395
361 314
365 390
371 314
375 390
380 319
384 385
390 319
394 382
399 314
402 374
408 309
412 370
417 304
421 375
426 299
430 309
431 378
438 315
441 380
445 323
451 380
453 329
460 375
463 329
469 370
472 334
479 370
482 334
489 370
492 334
498 375
501 329
507 380
511 325
516 385
521 324
525 390
531 320
535 390
541 319
545 385
550 314
553 378
560 314
563 373
569 309
570 365
579 309
580 360
588 304
589 355
598 304
598 350
607 344
608 304
617 299
617 340
626 335
627 299
635 330
637 294
645 325
647 294
655 320
657 294
665 320
667 294
675 320
677 294
685 315
687 294
695 315
697 294
703 308
