19 197
19 207
19 217
19 232
24 187
27 239
34 172
34 182
34 247
42 164
42 254
44 152
49 262
52 144
57 134
59 265
62 275
64 122
72 275
74 117
80 282
82 109
87 290
91 104
96 295
99 97
101 304
107 89
109 310
117 84
118 315
119 57
124 66
124 76
128 315
129 47
137 320
139 42
139 330
145 338
149 37
153 345
154 355
157 365
159 32
162 374
169 29
169 382
174 391
179 27
184 392
187 19
192 385
195 355
196 24
197 365
200 375
200 392
205 357
206 20
212 365
216 19
222 369
226 19
232 370
236 19
242 374
246 19
252 375
256 19
262 379
266 19
272 379
276 19
282 379
286 19
290 385
295 24
300 385
305 24
310 385
315 24
320 385
325 24
330 385
333 30
340 380
343 34
350 380
353 34
359 375
360 42
369 375
370 44
379 372
380 47
387 365
388 54
397 365
398 55
405 63
407 364
413 69
415 355
420 77
424 350
430 79
434 347
438 85
440 265
442 275
443 94
444 345
450 190
450 265
450 282
452 99
452 339
455 199
459 270
459 287
460 105
460 190
460 330
465 114
467 294
468 183
468 196
468 265
470 304
470 330
473 120
475 175
475 273
478 199
478 310
478 323
480 128
483 168
485 277
487 194
488 135
490 160
495 145
495 186
495 280
504 285
505 186
513 179
514 285
522 174
523 290
532 174
532 295
542 169
542 299
550 305
552 164
560 307
561 159
570 230
570 240
570 250
570 307
571 160
575 210
575 220
575 259
575 269
577 315
579 154
580 200
580 278
585 190
585 287
587 315
588 159
592 295
593 183
596 320
597 154
602 299
603 178
606 320
607 154
610 170
611 304
616 320
617 154
620 170
620 309
626 159
626 320
630 170
