39 462
39 472
39 482
44 427
44 437
44 447
49 480
54 407
54 417
59 387
59 397
59 477
67 469
69 377
74 357
74 367
75 460
84 342
84 352
85 460
89 332
90 450
99 317
99 327
100 445
104 302
109 440
114 297
118 435
119 287
128 433
129 277
133 423
134 267
143 418
144 257
150 405
154 254
160 405
164 252
169 400
174 249
177 394
182 385
183 244
191 380
193 244
201 380
203 244
207 234
209 372
217 234
219 370
225 226
229 370
234 167
234 177
234 187
235 224
235 360
239 196
239 206
244 164
245 360
254 164
254 355
264 164
264 352
273 169
274 350
280 340
283 170
288 179
290 340
298 179
299 335
302 169
309 335
312 164
314 152
318 330
324 147
328 328
329 137
334 320
339 122
339 132
344 317
347 114
354 102
354 315
354 325
360 333
362 94
370 337
372 94
374 347
377 84
380 355
387 84
389 360
390 275
392 370
395 284
396 79
400 270
402 374
403 290
406 75
406 384
409 265
412 295
414 390
415 250
416 74
420 302
420 398
424 245
425 69
427 310
430 235
430 402
434 412
435 69
435 225
435 317
444 62
444 322
444 415
445 220
449 331
450 205
453 420
454 59
458 336
460 190
460 200
462 415
464 57
465 180
465 344
472 414
473 350
474 54
475 170
477 404
480 358
484 54
484 165
487 399
490 362
490 372
492 159
493 49
495 381
495 391
497 150
503 49
506 145
513 49
515 140
520 41
523 133
529 125
530 39
537 119
540 39
547 114
550 39
552 104
559 34
562 99
569 34
570 85
579 34
580 80
589 34
589 75
597 69
599 34
602 60
609 34
611 55
619 34
620 50
627 40
