14 122
14 132
14 162
19 112
19 152
22 169
24 77
24 87
24 135
29 42
29 109
29 151
30 95
31 174
32 69
34 32
34 135
35 50
39 22
39 109
39 154
40 95
41 175
42 69
44 135
45 52
47 14
48 114
49 156
50 97
51 175
52 69
53 140
55 55
57 14
58 114
59 156
60 100
61 74
61 175
62 145
65 55
66 19
67 119
69 159
70 100
70 180
71 74
72 145
75 57
76 19
77 119
79 105
79 159
80 180
81 74
82 145
85 57
86 19
86 124
89 105
89 159
89 185
91 74
92 149
95 60
96 19
96 124
98 164
98 190
99 105
100 79
102 149
105 60
106 19
106 124
107 195
108 164
109 105
110 79
112 149
114 65
116 20
116 124
117 194
118 164
119 84
119 105
122 149
124 65
126 24
126 124
127 190
128 110
128 164
129 84
132 150
134 65
135 19
136 125
136 195
138 110
138 164
139 81
142 150
144 65
145 19
145 190
146 129
148 110
149 84
153 70
154 118
155 22
155 180
163 173
164 27
172 34
173 168
175 44
178 158
180 120
180 130
180 140
183 50
185 60
185 70
190 120
195 74
199 125
205 74
209 125
215 71
218 130
225 69
228 130
234 74
238 130
244 76
247 135
254 79
257 135
263 84
266 140
273 85
276 140
282 90
285 145
292 94
295 145
302 94
304 150
311 99
314 150
320 104
324 150
330 104
333 155
339 109
343 155
349 109
352 160
359 109
362 160
369 111
372 164
379 114
382 165
388 119
392 169
398 119
402 170
408 119
411 175
418 120
421 175
428 120
430 180
438 120
440 180
448 120
450 182
458 124
460 185
468 124
470 185
478 124
479 190
488 124
489 190
498 124
499 190
507 129
508 195
517 129
518 195
527 129
528 193
536 134
538 190
544 141
548 188
550 175
553 146
555 156
555 166
