104 282
104 292
109 301
114 279
114 337
114 347
114 357
119 305
119 397
119 407
119 417
120 365
124 279
124 334
124 452
124 462
124 472
129 305
129 392
129 420
130 365
130 480
134 277
134 334
134 449
139 305
139 389
139 420
140 360
140 480
144 274
144 334
144 449
149 305
149 389
149 420
150 360
150 480
154 274
154 334
154 447
159 305
159 389
159 420
160 360
160 480
164 274
164 332
164 444
169 305
169 387
169 420
170 360
170 480
174 274
174 329
174 444
179 305
179 384
179 420
180 360
180 475
184 274
184 329
184 444
189 305
189 384
189 420
190 360
190 475
193 269
194 329
194 444
199 302
199 384
199 420
200 360
200 475
203 269
204 327
204 444
209 300
209 384
209 417
210 360
210 475
213 269
213 439
214 324
219 300
219 382
219 415
220 360
220 475
223 269
223 439
224 324
229 300
229 379
229 415
229 470
230 360
232 264
233 439
234 324
239 300
239 310
239 365
239 379
239 415
239 470
242 264
243 439
249 415
249 425
249 470
252 264
259 470
262 264
269 470
272 264
279 467
282 264
289 465
292 264
299 465
302 264
305 274
305 284
309 465
310 293
310 303
310 313
310 323
310 333
318 339
318 460
320 400
320 410
320 420
322 430
325 440
325 450
328 339
330 400
337 334
340 400
347 334
350 400
357 334
360 400
367 334
370 400
377 334
380 395
387 329
390 395
397 329
400 395
407 329
410 395
417 329
420 395
427 324
430 390
437 324
440 390
447 319
450 390
455 311
459 385
465 306
467 379
473 299
477 374
480 291
485 365
488 284
495 360
497 279
503 353
505 271
513 264
513 348
520 340
522 259
529 335
530 251
537 329
538 244
545 320
547 239
555 231
555 315
563 224
563 308
572 219
573 303
580 211
580 295
588 204
588 288
597 199
598 283
605 275
607 199
614 207
614 270
619 216
622 264
625 224
630 233
630 255
635 242
640 251
