14 227
19 22
19 32
22 219
22 234
24 152
27 39
29 17
29 97
29 107
29 161
30 240
31 214
32 144
34 47
37 89
39 19
39 110
39 165
40 240
41 214
42 144
44 45
47 84
48 24
49 110
49 165
50 240
51 215
52 144
53 50
56 89
57 29
58 170
59 110
60 240
61 149
61 214
63 50
66 89
67 29
68 170
69 110
70 235
71 149
71 214
73 50
76 89
77 29
77 175
78 115
80 154
80 235
81 210
83 50
85 94
86 34
87 179
88 115
90 157
90 235
91 214
92 55
95 92
96 34
97 180
98 115
100 159
100 235
101 210
102 55
105 94
106 34
107 184
108 115
110 162
110 235
111 214
112 55
115 94
116 34
117 120
117 185
120 164
120 237
121 214
122 59
124 99
126 35
127 120
127 185
130 164
130 240
131 215
132 55
133 104
136 39
136 125
137 189
139 169
140 240
141 214
142 55
143 104
146 39
146 125
147 190
149 169
150 240
151 60
151 215
152 109
155 130
156 39
157 190
159 169
160 240
161 63
161 214
162 109
165 130
166 39
167 190
169 169
169 200
170 242
171 63
172 109
174 135
175 44
179 152
179 162
180 242
181 63
181 114
183 140
185 44
187 234
190 68
190 205
190 215
191 114
194 87
194 97
195 47
195 170
195 180
195 190
199 73
205 49
205 170
210 120
210 130
215 49
215 100
215 110
215 172
220 85
220 132
223 55
224 177
225 70
230 134
234 180
240 137
244 180
250 139
254 180
259 144
264 180
269 144
273 185
278 149
283 185
288 149
292 190
297 154
302 190
307 154
312 194
316 159
322 195
326 159
332 195
335 164
341 200
345 164
350 205
354 169
360 207
364 166
370 207
374 169
380 210
384 169
389 215
394 169
399 215
404 169
408 220
414 169
417 225
424 169
427 225
434 169
436 230
443 174
446 233
452 169
456 235
462 169
466 235
472 169
476 235
481 174
486 235
490 179
496 238
500 177
506 240
510 179
516 240
519 184
526 240
529 186
535 194
535 235
545 197
545 230
550 220
552 205
558 213
