29 317
29 327
29 337
34 307
34 346
39 297
39 355
45 363
49 292
54 282
54 368
59 377
64 277
69 380
74 272
78 385
82 264
88 385
91 259
97 390
99 252
107 244
107 390
116 239
117 394
126 239
127 395
131 230
137 395
139 222
147 214
147 399
157 209
157 400
167 204
167 400
176 405
177 204
186 405
187 199
196 408
197 194
206 410
207 194
214 97
216 410
217 189
222 89
224 100
226 410
227 189
232 89
234 100
236 410
237 189
241 84
243 105
246 410
247 189
251 84
252 110
254 177
256 410
259 37
259 118
259 147
259 157
259 167
261 80
264 27
264 46
264 56
264 66
264 127
264 137
266 410
274 24
276 410
284 24
286 410
290 32
290 42
295 51
295 61
296 410
298 71
300 120
300 130
300 140
300 150
300 160
300 170
300 180
302 190
303 80
306 410
310 115
312 194
313 84
316 410
320 110
322 194
323 84
326 410
330 105
332 194
333 85
336 410
340 105
341 199
342 90
346 410
348 98
351 199
356 410
361 199
366 410
370 204
376 410
380 204
386 410
389 209
396 410
399 209
405 405
409 209
414 400
418 214
424 397
427 219
434 227
434 392
439 236
442 385
448 241
451 380
458 245
460 375
465 253
468 368
473 260
478 363
482 265
485 355
492 269
493 348
501 274
503 343
510 279
513 338
515 288
523 295
523 333
530 303
530 313
530 323
