24 27
24 37
24 47
24 57
24 67
24 77
24 87
24 97
29 106
29 116
29 126
29 136
34 24
36 144
44 24
44 150
44 462
50 158
50 470
54 24
54 459
58 165
59 475
64 24
64 459
67 170
69 475
74 24
74 459
75 177
79 475
82 185
84 24
84 459
88 480
92 189
94 24
94 457
98 480
101 194
104 24
104 454
107 485
111 195
114 24
114 454
117 485
120 200
124 24
124 454
127 485
129 205
134 24
134 454
136 490
139 205
144 24
144 452
146 493
149 205
154 24
154 449
156 495
158 210
164 24
164 449
166 495
167 215
174 24
174 449
175 500
177 219
184 24
184 449
185 500
187 220
194 24
194 447
194 505
197 220
204 24
204 444
204 505
206 225
209 235
209 245
209 255
212 265
214 24
214 275
214 285
214 295
214 305
214 315
214 325
214 335
214 345
214 444
214 505
217 355
219 365
219 375
219 385
219 395
219 405
219 415
219 425
219 435
223 510
224 24
232 515
234 24
242 515
244 24
252 515
254 24
262 515
264 24
272 515
274 24
282 514
284 24
292 509
294 24
295 315
295 325
295 335
295 345
295 355
295 365
295 375
295 385
295 395
295 405
295 415
295 425
295 435
300 225
300 235
300 245
300 255
300 265
300 275
300 285
300 295
300 305
300 444
302 505
304 24
308 218
310 444
312 505
314 24
318 213
319 449
321 500
324 24
328 208
329 449
331 500
334 24
338 203
339 449
341 500
344 24
348 198
349 449
350 495
354 24
355 190
359 449
359 490
364 24
365 185
368 454
369 490
374 24
375 185
378 454
379 487
384 24
384 180
388 454
389 485
392 174
394 24
398 455
398 480
400 165
404 24
408 158
408 459
408 480
414 24
415 145
418 459
418 478
423 138
424 24
427 464
428 475
430 120
430 130
434 26
435 36
435 46
435 56
435 66
435 76
435 86
435 96
435 106
437 464
438 474
