119 362
119 372
124 352
124 381
131 389
134 347
139 322
139 332
141 390
144 312
151 390
152 304
159 382
160 296
165 365
168 289
174 277
174 360
182 269
183 355
190 261
190 363
198 254
198 370
207 375
208 254
210 320
215 329
215 382
217 259
218 313
223 303
224 334
224 387
226 264
228 293
232 340
234 271
234 390
235 281
240 347
240 398
247 355
248 405
255 413
257 359
264 367
265 417
272 425
274 371
281 430
283 376
289 436
290 384
296 444
300 387
304 450
309 392
313 455
317 399
322 460
326 404
330 467
335 409
339 472
343 415
349 475
352 420
358 480
360 427
365 488
369 432
375 492
377 439
382 500
386 444
392 504
395 449
400 510
403 455
409 515
412 460
418 520
420 467
427 525
429 472
435 532
437 479
444 537
446 484
454 540
455 489
460 548
464 494
470 552
472 500
477 560
482 504
487 564
489 512
495 570
499 516
505 570
508 521
513 563
515 529
520 538
520 550
