89 282
94 291
97 274
101 299
105 266
109 305
113 259
117 249
118 310
124 237
128 310
132 229
137 219
137 315
144 207
144 307
152 199
152 299
157 289
159 187
167 285
169 186
177 289
178 191
184 297
185 250
187 260
188 195
190 240
192 304
195 267
197 200
198 233
201 309
205 207
205 225
205 269
209 315
210 216
213 275
219 315
222 280
224 324
227 289
230 332
236 294
239 337
244 346
245 299
249 355
254 304
255 363
262 310
263 370
267 380
272 309
275 387
279 317
282 395
289 321
291 400
299 321
300 405
308 326
309 410
315 418
318 330
323 425
325 338
330 433
335 342
338 440
343 349
347 445
352 354
357 449
361 359
367 450
369 366
372 459
378 371
381 464
388 375
389 470
395 383
399 470
403 390
405 478
412 395
415 482
420 402
422 490
430 404
432 494
439 409
442 495
445 417
450 502
453 424
460 505
462 429
469 510
471 434
479 441
479 510
485 449
485 518
490 458
495 520
498 464
504 525
505 472
513 530
514 477
522 535
524 479
530 487
531 540
538 494
541 540
547 499
549 532
554 507
555 517
