159 257
159 267
164 247
167 274
172 239
174 282
180 231
182 289
188 224
191 294
194 212
199 202
201 298
204 192
211 300
212 184
220 305
221 179
228 298
230 174
235 290
240 171
243 283
249 162
250 275
254 152
255 265
259 142
264 260
269 139
270 268
278 134
280 272
287 139
287 280
290 210
290 220
295 200
295 229
296 144
297 284
303 193
304 292
305 149
305 232
310 185
313 239
314 295
315 152
318 178
320 161
320 303
322 244
328 310
329 252
335 318
337 259
343 325
344 267
350 333
352 274
358 340
361 279
367 345
369 286
375 352
378 291
382 360
385 299
391 365
394 304
399 371
402 310
409 375
410 317
417 325
418 380
425 388
427 329
433 395
434 337
442 344
442 400
451 349
452 404
459 356
459 412
467 419
468 361
475 369
475 425
481 433
484 374
490 438
492 380
500 387
500 440
508 394
509 445
512 455
517 399
520 462
524 407
529 472
532 414
539 475
540 420
548 426
548 480
554 488
555 434
562 495
563 440
570 448
571 500
578 454
579 506
584 515
587 459
593 520
594 467
602 474
602 525
610 480
612 525
615 489
622 525
624 494
630 502
632 524
639 507
640 517
