49 172
49 182
55 190
59 167
64 157
64 195
67 205
72 149
76 210
80 141
85 131
86 213
95 126
96 215
103 119
104 221
107 109
111 229
116 104
121 230
124 92
125 220
132 84
133 213
141 79
143 208
145 195
146 70
154 64
155 197
164 61
164 202
170 210
174 64
179 215
184 64
185 223
189 233
194 66
194 242
204 69
204 245
205 140
207 150
210 130
210 253
212 75
212 159
218 260
220 125
221 164
222 79
225 115
225 268
229 87
229 171
230 97
233 275
235 179
243 185
243 275
249 283
250 293
252 190
260 197
260 297
267 305
269 202
277 209
277 309
284 317
286 214
289 326
294 335
295 219
303 225
304 335
310 233
310 343
315 352
320 234
322 360
328 240
330 367
335 248
340 370
343 254
349 375
349 385
352 259
355 269
355 393
363 275
363 400
370 283
373 400
378 290
382 405
387 295
387 414
391 424
395 302
399 430
402 310
405 438
410 317
415 442
418 324
422 450
427 329
430 457
434 337
437 465
439 346
445 354
446 460
450 363
455 372
455 445
455 455
460 381
464 440
469 386
472 434
473 396
480 425
483 400
485 410
