104 202
104 282
109 187
109 211
109 221
109 231
109 252
109 262
109 272
109 291
109 302
114 240
117 179
119 305
122 169
125 313
129 157
133 320
137 149
143 318
145 141
150 310
153 134
160 310
162 129
165 190
170 160
170 175
170 199
170 305
172 129
175 235
177 245
178 153
179 310
180 197
182 129
183 143
185 235
185 252
187 304
189 192
194 257
195 230
195 267
195 295
199 192
199 277
205 230
209 191
215 230
219 187
224 225
229 187
234 225
239 184
244 225
248 189
252 179
253 220
261 184
263 220
271 184
273 220
276 175
282 215
286 179
292 215
295 174
302 215
304 179
307 169
311 210
317 169
321 210
326 174
331 165
331 210
340 205
341 169
350 164
350 205
360 164
360 205
369 159
369 200
378 164
379 200
387 159
389 200
397 154
398 195
406 159
408 195
414 152
418 193
424 151
428 190
434 149
438 190
443 154
447 144
448 188
457 144
458 185
466 149
468 185
475 144
478 183
485 142
488 180
495 141
498 180
505 136
507 175
515 137
517 175
525 134
527 175
535 132
536 170
545 129
546 170
554 134
556 170
560 126
565 165
570 126
575 165
580 124
585 165
590 124
594 160
599 119
604 160
608 124
614 160
615 116
622 154
624 121
630 129
630 140
632 150
