114 197
114 207
114 217
114 227
114 237
114 247
119 256
119 266
122 189
124 275
127 285
129 295
132 189
134 304
134 314
139 323
140 333
142 189
145 342
149 352
151 194
159 355
160 199
162 365
164 375
164 385
165 208
169 394
169 404
169 414
169 424
169 434
169 444
169 454
169 464
169 474
169 484
170 217
170 227
171 494
174 237
174 504
174 514
175 247
175 257
176 524
179 534
179 657
179 667
180 266
180 276
181 544
184 554
184 642
185 675
186 284
189 563
189 573
189 622
189 632
190 294
190 304
194 582
194 592
194 602
194 612
195 313
195 675
205 317
205 327
205 675
209 207
209 217
212 335
214 197
214 226
214 236
214 246
214 256
214 266
214 276
215 675
219 285
219 295
222 189
222 305
222 339
224 315
224 325
225 675
231 184
235 675
236 175
245 675
246 170
255 675
256 169
265 675
266 169
275 215
275 225
275 235
275 675
276 169
280 244
280 254
280 264
283 208
284 176
285 186
285 196
285 273
285 283
285 675
293 289
295 675
299 82
299 92
299 102
299 112
299 122
299 132
299 142
299 152
299 162
299 172
299 182
299 192
299 202
299 212
299 222
299 232
299 242
299 252
299 262
299 272
304 67
305 675
312 59
315 675
322 59
325 675
332 59
335 675
342 59
345 675
351 64
355 675
359 71
360 170
360 180
362 190
363 81
365 91
365 101
365 111
365 121
365 131
365 141
365 151
365 161
365 200
365 210
365 220
365 230
365 240
365 250
365 260
365 270
365 280
365 290
365 675
370 299
375 675
379 197
379 267
379 277
379 287
380 655
380 665
384 177
384 187
384 247
384 257
385 645
387 204
389 222
389 232
394 174
394 640
395 210
402 634
403 169
410 625
413 169
420 625
422 174
430 180
430 620
435 189
435 375
435 385
435 395
439 615
443 401
445 192
445 290
445 300
445 310
445 320
445 330
445 340
445 350
445 360
445 370
445 411
445 605
450 265
450 275
452 200
453 598
454 416
455 210
455 220
455 230
455 240
455 250
455 426
460 435
460 590
468 583
470 439
475 575
479 432
483 568
487 424
489 560
495 416
495 550
500 406
500 540
508 399
508 533
515 391
515 520
520 510
523 384
525 495
530 376
534 490
539 367
540 480
547 359
548 473
550 460
557 354
558 453
565 440
567 349
573 433
577 344
578 423
584 415
587 344
593 410
597 344
600 400
607 344
608 393
616 349
618 388
624 356
625 366
625 376
