34 232
39 241
44 231
44 250
49 259
51 269
53 236
56 278
59 288
63 240
64 157
64 167
64 177
64 187
64 297
69 196
69 206
69 306
72 149
72 245
74 215
74 315
77 225
77 325
82 149
82 234
82 249
87 329
92 149
96 334
101 154
106 335
109 161
115 169
115 179
115 340
120 188
120 198
124 345
124 355
125 207
127 365
129 217
129 375
129 385
129 395
129 405
132 415
134 226
134 425
137 435
138 236
139 72
139 82
139 92
139 102
139 112
139 445
142 455
143 245
144 121
144 131
144 141
147 64
147 255
147 464
149 150
149 474
149 567
152 160
154 170
154 180
154 190
154 483
154 547
154 557
155 262
156 59
157 200
157 574
159 210
159 220
159 272
159 492
159 502
159 512
159 522
159 532
164 229
164 239
165 580
166 59
169 248
169 272
170 258
175 580
176 59
185 64
185 580
190 73
195 82
195 92
195 102
195 112
195 575
200 121
200 131
205 140
205 150
205 160
205 575
210 169
210 179
215 188
215 198
215 575
220 207
224 37
224 47
224 57
224 67
224 77
224 87
224 97
224 107
224 117
225 216
225 575
229 126
229 136
229 146
229 156
229 166
229 176
229 186
231 224
232 29
234 195
234 205
235 575
241 24
245 575
251 24
255 575
261 24
265 575
270 29
275 570
278 35
280 45
285 54
285 64
285 74
285 84
285 94
285 104
285 114
285 124
285 134
285 570
290 143
290 153
290 163
290 173
290 183
290 193
295 202
295 212
295 222
295 570
303 229
305 570
309 192
309 202
309 212
314 82
314 92
314 102
314 112
314 167
314 177
315 570
319 67
319 121
319 131
319 141
319 151
325 565
327 59
330 555
335 545
336 54
343 538
345 49
350 530
354 54
358 523
360 62
365 220
365 230
365 240
365 250
365 260
365 270
365 290
365 300
365 310
367 70
367 280
367 320
368 520
370 80
370 90
370 100
370 110
370 145
370 155
370 165
370 175
370 185
370 195
370 205
372 120
372 329
375 130
377 514
379 337
385 500
387 344
393 493
394 352
400 485
404 352
408 478
409 342
415 470
417 334
420 460
422 324
429 312
430 460
437 304
439 465
445 296
449 465
453 289
455 395
455 405
458 470
460 281
460 385
460 414
465 375
467 475
469 419
470 276
473 368
477 479
478 269
478 424
480 355
485 345
487 264
487 480
488 425
493 338
496 485
497 264
497 430
498 328
505 320
506 488
507 259
507 434
513 313
515 493
516 264
516 439
519 305
520 475
524 446
525 269
525 456
525 466
527 299
530 278
535 287
