24 157
24 167
24 177
24 187
24 197
24 207
24 217
24 227
24 237
29 246
29 256
29 266
29 276
29 286
29 296
29 306
29 316
32 149
34 325
41 154
43 330
51 154
52 335
60 159
62 339
69 347
70 159
77 354
80 159
81 364
86 373
90 159
94 380
99 97
100 159
100 388
104 106
108 395
109 92
109 115
110 156
115 123
115 403
117 84
120 151
123 130
124 92
125 407
127 140
129 101
132 149
132 415
135 109
141 420
143 115
150 123
150 425
155 132
159 430
163 139
168 435
172 134
177 440
182 134
186 445
192 129
195 450
202 129
204 455
212 129
213 460
222 129
222 465
232 129
232 469
239 477
242 124
249 480
250 390
250 400
252 124
255 409
258 383
258 485
262 124
265 412
265 493
268 378
272 124
273 419
275 370
275 497
279 507
281 119
282 424
285 365
289 432
289 510
291 115
295 365
298 515
299 436
301 110
304 370
305 444
305 523
310 378
311 105
313 450
313 530
315 387
320 458
321 100
322 395
322 535
325 467
329 403
330 155
330 165
330 476
331 95
331 530
334 412
335 174
335 485
335 520
340 150
340 494
340 504
341 90
342 419
344 169
346 429
349 145
350 365
351 89
354 167
354 435
355 374
358 140
359 444
360 84
360 365
363 380
364 164
365 452
368 138
369 79
370 295
370 365
370 388
372 460
374 162
375 225
375 304
375 397
377 469
378 74
378 133
380 234
380 295
380 365
382 405
384 159
384 309
384 477
385 225
388 74
388 128
389 290
389 486
390 234
390 367
390 412
394 159
394 220
394 309
395 421
396 494
397 69
398 125
398 295
400 234
400 370
401 429
403 154
403 215
404 309
404 487
407 64
407 120
407 290
409 436
410 231
410 370
412 480
413 154
413 215
414 311
415 444
417 64
417 120
417 290
420 229
420 370
420 453
421 475
423 154
423 213
424 314
426 115
427 64
427 290
428 460
430 229
430 370
433 154
433 210
434 316
435 110
437 64
437 290
440 229
440 370
442 205
443 154
444 319
445 105
447 64
447 290
450 74
450 95
450 229
450 370
452 149
452 205
454 319
455 83
457 290
460 229
460 370
461 144
462 205
464 319
466 285
469 375
470 229
471 144
471 200
474 319
476 285
479 375
480 226
481 140
481 200
483 314
486 285
488 370
490 195
490 224
491 139
493 314
496 285
498 370
500 195
500 224
501 139
503 314
506 285
508 370
510 195
510 224
511 139
513 314
516 285
518 370
520 195
520 224
521 139
523 315
526 285
528 188
528 368
530 224
531 139
533 319
536 285
538 183
538 363
539 146
540 224
542 324
543 156
543 173
545 355
546 285
549 332
550 224
550 342
555 280
560 224
565 280
570 227
573 273
575 236
578 263
580 245
