24 77
24 87
24 97
24 107
24 117
29 67
29 126
34 57
34 135
39 47
39 144
44 153
49 42
49 162
57 169
59 37
64 177
69 32
69 186
74 195
79 27
83 200
87 210
89 24
95 217
99 24
99 307
102 225
104 297
104 316
109 24
109 287
109 325
110 232
114 242
114 277
118 330
119 24
119 251
119 261
127 335
129 24
132 344
139 24
140 350
148 29
149 355
155 363
157 34
163 370
166 39
172 375
175 44
180 382
185 47
189 387
194 52
197 394
200 60
202 70
204 402
205 80
205 90
205 100
205 110
205 120
205 130
205 140
210 149
214 405
215 158
220 167
220 413
227 175
228 420
232 184
237 425
239 192
245 432
247 199
249 442
250 209
257 449
258 215
264 457
265 223
270 232
274 460
280 231
284 462
288 224
292 454
295 216
300 206
302 449
305 196
310 186
310 440
318 179
319 435
325 171
328 430
330 161
335 151
337 424
340 141
345 131
347 419
349 87
349 97
349 107
349 117
354 62
354 72
357 414
359 52
367 44
367 409
377 39
377 404
385 395
387 34
394 390
397 34
402 384
407 34
412 379
417 34
420 370
427 34
429 365
436 39
437 359
445 44
445 350
454 345
455 47
462 339
464 52
467 330
474 56
476 325
480 315
483 61
488 308
493 65
495 300
500 73
500 290
508 79
508 283
515 87
515 270
520 96
520 260
525 105
525 250
530 114
530 230
530 240
535 123
535 133
535 210
535 220
540 142
540 152
540 162
540 172
540 182
540 192
