124 222
124 232
124 242
129 207
129 251
134 260
137 199
139 269
145 191
145 277
153 184
154 282
159 291
159 301
159 311
162 179
164 152
164 162
164 320
167 330
169 137
177 129
177 334
186 124
187 335
195 119
196 340
205 119
206 340
215 116
216 340
225 117
226 340
235 119
236 340
245 119
246 340
255 119
255 345
265 119
265 345
274 340
275 119
284 340
285 122
294 340
295 124
304 340
305 124
314 340
315 124
323 335
325 127
330 325
334 132
335 315
342 139
343 308
345 149
350 158
350 168
350 300
358 174
359 295
368 175
369 295
375 275
375 285
378 179
385 275
388 179
395 275
398 180
402 190
405 200
405 275
410 209
415 275
419 204
425 275
428 209
435 277
437 214
445 280
447 209
455 280
457 209
465 280
467 209
475 280
477 209
485 280
486 214
495 219
495 280
504 224
505 280
514 224
515 280
523 219
525 280
532 214
535 280
542 214
545 280
552 214
555 280
561 219
565 280
571 219
575 280
579 226
585 280
589 227
595 280
599 224
605 280
609 224
615 280
619 224
625 280
629 224
635 280
639 224
645 232
645 280
652 240
655 275
657 249
664 257
664 270
