14 167
14 177
14 187
19 196
22 159
24 205
27 149
27 215
32 224
34 137
34 234
40 242
42 129
47 250
49 117
55 257
57 109
59 267
67 104
67 274
72 94
75 280
81 288
82 89
89 295
90 81
98 74
98 300
105 308
107 69
113 315
115 61
117 325
123 54
127 329
132 49
134 337
140 41
142 344
150 36
151 349
159 355
160 31
168 24
168 360
177 365
178 24
187 19
187 369
197 14
197 370
207 14
207 369
217 14
217 365
226 360
227 14
236 19
236 360
244 352
245 24
254 347
255 27
262 35
264 342
270 42
272 334
279 47
280 325
287 54
288 318
290 64
293 308
298 70
300 275
300 285
300 295
305 78
305 255
305 265
310 87
310 97
310 107
310 117
310 127
313 248
315 136
318 146
323 243
325 154
333 240
335 157
342 165
342 234
350 172
350 225
357 180
358 218
367 184
368 215
377 184
378 215
387 184
388 215
397 184
398 215
407 184
408 213
417 184
418 210
427 184
428 210
437 184
437 205
447 184
447 205
457 184
457 205
466 189
467 205
476 189
477 205
486 189
487 205
496 189
497 205
506 189
507 205
516 189
517 205
526 189
527 205
536 189
537 205
546 189
547 205
556 189
557 205
566 189
567 205
575 194
576 210
585 194
586 210
595 194
596 210
605 194
606 210
615 194
615 205
625 197
