14 247
19 237
24 250
27 229
27 260
36 224
37 264
44 217
45 270
52 209
54 275
60 283
62 204
68 290
70 196
72 300
77 309
78 189
84 317
85 181
92 324
93 174
96 334
100 166
104 340
108 159
110 348
115 151
118 355
123 144
124 363
129 372
132 139
134 381
140 131
141 389
146 398
148 124
154 405
155 116
157 415
163 109
164 423
167 99
169 432
174 441
175 91
179 450
183 84
184 459
189 72
190 467
197 64
197 475
202 54
205 482
209 37
214 487
217 29
224 490
226 24
233 485
235 19
242 479
244 14
250 470
254 14
258 463
262 20
265 455
270 27
273 448
277 35
282 44
283 443
289 52
290 435
295 60
299 430
303 66
307 424
310 74
315 83
315 415
323 90
323 408
330 98
330 400
338 105
338 393
345 113
345 375
345 385
350 122
353 368
355 131
355 355
360 140
363 348
365 149
365 159
365 335
373 165
373 328
375 175
377 185
379 320
382 194
385 204
389 317
393 210
399 315
403 214
407 309
412 219
417 304
419 227
425 235
425 295
430 244
433 288
439 249
440 280
448 254
450 280
458 254
460 280
468 254
470 280
477 259
480 280
487 259
490 280
497 259
500 280
506 264
510 280
516 264
520 280
526 264
530 280
536 264
540 280
546 264
550 280
556 264
560 280
566 260
570 280
576 259
580 280
585 254
590 280
593 260
600 280
603 264
610 280
613 264
620 280
623 264
628 273
