139 407
139 417
139 427
139 437
144 446
149 402
149 455
155 463
157 394
165 465
166 389
174 470
175 384
179 247
179 257
184 132
184 142
184 237
184 266
184 379
184 470
191 274
192 124
192 149
192 229
193 374
193 475
194 332
194 342
194 352
194 362
199 157
201 224
201 278
202 124
202 324
203 475
207 164
207 314
211 220
211 280
212 124
213 475
214 172
214 302
220 285
221 129
221 219
222 295
223 475
224 175
230 183
230 214
230 483
231 129
234 202
234 497
234 507
234 517
234 527
234 537
238 190
239 546
240 134
244 555
247 565
250 134
254 573
259 582
260 137
269 585
270 139
275 593
279 132
285 597
289 127
295 600
299 122
305 602
309 117
315 605
319 112
325 605
329 109
335 605
339 109
345 605
349 109
355 605
359 109
364 600
369 109
374 600
379 109
383 595
388 114
392 590
398 115
401 585
407 120
410 580
415 127
418 573
424 132
425 565
430 140
433 558
435 149
440 545
443 155
445 260
447 165
448 538
450 240
450 250
450 525
453 266
455 172
455 230
455 465
455 475
455 485
455 500
455 510
460 274
460 455
465 174
465 230
468 280
468 448
470 435
474 225
475 174
475 288
475 420
480 297
480 400
480 410
484 225
485 174
485 306
485 375
485 385
490 315
490 340
490 350
490 360
492 325
493 220
495 174
503 218
504 179
513 215
514 179
522 209
524 179
527 199
530 187
