79 137
79 147
84 156
87 129
91 164
96 124
101 168
105 119
109 175
114 114
115 183
123 109
123 190
129 198
130 101
134 207
138 94
142 214
144 224
145 86
149 233
153 79
154 242
154 252
154 262
154 272
154 282
154 292
154 302
154 312
159 321
162 74
166 329
170 66
176 325
178 59
186 325
187 54
196 325
197 49
206 44
206 325
215 39
215 330
219 527
219 537
219 547
219 557
224 34
224 335
224 497
224 507
224 517
224 566
229 472
229 482
229 575
233 29
233 340
234 462
238 580
239 437
239 447
242 24
242 345
244 422
247 585
249 407
251 350
252 24
254 382
254 392
257 585
259 356
259 366
262 24
266 590
272 24
275 595
282 24
284 600
292 24
294 600
302 24
303 605
312 24
312 610
321 29
322 614
330 34
331 619
338 40
341 620
345 48
350 57
351 620
354 67
359 76
360 86
360 96
360 625
365 105
365 115
365 125
365 135
370 144
370 154
370 625
375 163
380 172
380 625
385 480
385 490
387 180
390 465
390 499
390 625
395 187
395 455
400 499
400 625
403 194
405 450
410 502
410 625
413 194
413 443
419 620
420 504
422 189
423 440
429 509
429 620
432 189
433 440
439 509
439 617
440 181
442 435
448 174
449 511
449 612
452 439
457 169
459 514
459 610
462 440
467 169
468 519
468 605
471 445
476 164
477 524
477 600
481 445
484 157
486 529
487 599
491 448
494 152
496 529
497 594
500 453
504 147
505 534
505 585
510 290
510 300
510 310
510 455
514 142
514 539
515 319
515 580
518 283
519 460
520 328
523 544
524 137
525 575
528 278
528 335
528 465
532 345
532 549
533 568
534 134
538 273
538 465
540 170
540 180
540 352
543 129
545 189
545 265
547 360
548 163
548 465
552 134
555 144
555 154
555 192
555 260
555 367
557 459
562 200
562 375
563 253
565 385
565 450
568 243
570 207
570 217
570 227
570 394
570 404
570 414
570 424
570 434
