24 247
24 257
24 267
29 232
29 276
29 286
34 222
34 295
40 303
42 214
45 312
49 322
50 206
57 329
58 199
61 339
65 191
66 348
74 355
75 186
77 365
82 374
85 184
89 382
94 179
94 391
99 400
103 174
105 408
110 417
113 174
114 427
122 169
122 434
126 444
132 164
134 450
142 159
143 455
150 463
152 159
158 470
161 154
165 478
171 150
173 485
180 493
181 149
188 500
190 144
194 527
194 537
197 505
199 139
199 517
199 546
206 554
208 134
216 555
217 129
226 124
226 555
235 119
235 560
241 110
245 560
249 102
255 562
257 94
265 86
265 565
273 79
274 570
279 579
281 589
282 74
286 598
289 608
290 66
294 617
298 59
299 626
304 635
307 54
310 643
316 49
318 650
325 54
325 658
333 60
333 665
340 68
340 673
345 560
345 570
347 580
348 75
348 680
350 590
355 83
355 560
355 599
357 685
360 608
363 90
365 560
365 617
366 690
369 627
370 98
375 560
376 693
377 634
378 105
384 642
385 113
385 560
385 698
392 649
395 117
395 555
395 700
401 654
404 122
405 500
405 510
405 550
405 700
407 520
410 530
410 540
410 659
412 129
415 495
415 702
419 664
421 134
425 495
425 705
428 669
430 139
434 490
435 705
438 669
439 144
442 484
445 705
448 149
448 670
450 475
455 700
458 150
458 674
460 470
465 700
467 155
467 669
470 465
475 700
477 159
477 669
478 458
483 448
484 167
485 700
487 669
488 438
494 169
495 430
495 700
497 664
503 423
503 693
504 169
506 659
510 410
513 174
513 688
514 652
518 403
519 522
522 179
522 644
523 393
523 683
524 531
527 634
529 187
529 540
529 550
530 380
530 675
534 531
534 559
534 569
534 579
534 589
534 599
534 609
534 619
535 370
538 668
539 189
540 539
543 363
545 660
548 194
548 353
548 545
550 650
552 555
553 343
555 202
555 640
557 564
560 335
560 574
560 584
560 594
560 615
560 625
562 210
565 325
565 603
567 219
570 229
570 315
578 235
578 308
580 245
583 298
585 254
588 288
590 263
590 273
