24 332
24 342
29 317
29 351
34 307
34 360
42 299
43 365
50 291
50 373
58 284
58 380
67 279
67 385
75 271
77 389
83 264
85 395
90 256
94 400
100 251
103 405
110 246
112 410
118 239
121 415
125 231
130 420
133 224
139 425
142 219
148 430
150 211
157 435
158 204
165 196
165 442
169 697
169 707
172 450
173 189
177 714
179 692
180 181
182 454
185 171
186 719
189 696
191 459
193 164
195 704
196 723
199 465
200 156
204 709
205 473
205 728
208 149
213 714
214 137
215 477
215 730
219 702
222 129
224 482
224 735
229 701
230 121
232 489
234 735
238 114
238 706
241 494
244 735
245 106
245 714
251 495
253 99
254 735
255 714
259 501
259 511
260 91
264 709
264 735
265 81
266 519
273 74
273 730
274 525
274 707
279 62
279 697
280 533
283 728
284 52
285 542
287 689
290 720
292 44
292 550
294 677
299 558
299 568
299 647
299 657
299 667
300 36
300 578
300 710
304 588
304 598
304 608
304 618
304 628
304 638
305 700
308 29
313 693
318 29
320 680
325 670
327 34
330 44
330 645
330 655
335 53
335 555
335 565
335 575
335 600
335 610
335 620
335 630
340 545
340 584
343 60
348 538
350 68
358 75
358 535
365 83
365 505
367 529
370 514
373 90
373 498
377 100
380 490
385 107
390 485
392 115
398 478
400 122
405 131
408 473
411 139
418 468
419 146
425 154
425 460
430 163
435 455
438 170
445 178
445 450
453 185
453 443
460 193
463 438
468 200
473 433
475 208
480 425
483 215
490 223
490 420
498 229
500 415
507 234
509 410
514 242
518 405
522 249
527 400
529 257
536 395
537 264
544 272
545 390
552 279
554 385
559 287
562 379
569 291
570 370
575 299
580 308
580 360
585 317
585 345
589 327
