144 72
144 82
149 62
152 89
157 54
159 97
166 49
169 100
175 44
178 105
185 44
188 105
189 115
189 132
194 141
195 44
201 149
205 44
211 153
214 49
220 57
221 155
225 66
229 161
230 75
232 85
234 462
234 472
239 165
240 92
242 454
244 302
244 312
244 322
244 332
244 470
248 170
249 292
249 341
250 94
252 449
253 475
254 350
257 175
257 284
259 99
259 359
262 444
263 475
264 272
266 180
267 365
269 96
269 262
269 375
272 444
272 480
274 186
274 384
275 300
275 310
276 394
277 254
279 96
279 404
279 414
279 424
279 434
280 319
280 329
282 244
282 480
284 190
284 295
285 338
285 348
289 99
292 239
292 480
293 195
293 290
293 355
295 365
295 375
299 101
300 384
300 394
300 405
302 200
302 239
302 284
302 479
305 109
305 414
305 424
310 275
310 433
310 443
310 453
310 463
311 205
311 234
314 222
315 112
315 265
323 119
324 260
329 269
329 279
330 127
334 288
339 132
339 297
344 306
344 322
347 139
349 331
350 149
354 340
357 350
358 155
362 359
366 369
367 160
374 375
377 164
383 380
384 172
390 180
392 190
393 380
397 199
400 209
400 219
400 229
400 239
400 249
400 259
400 269
400 279
400 289
400 299
400 309
400 319
400 329
402 374
409 334
412 369
419 332
420 360
429 329
429 355
438 350
439 329
448 348
449 327
458 343
459 324
468 319
468 340
477 335
478 319
485 311
487 335
495 306
497 335
504 297
507 335
514 287
517 335
524 277
527 335
534 272
537 335
544 267
547 335
554 266
557 335
563 271
567 335
570 279
575 288
577 335
583 295
585 305
587 334
590 314
595 323
