39 277
39 287
39 297
45 305
49 274
55 305
59 274
65 305
68 279
75 307
78 279
85 310
88 279
95 312
98 279
105 315
108 279
115 315
118 279
124 267
124 320
129 257
130 328
137 249
140 332
142 239
150 335
152 234
159 340
162 229
168 345
170 221
177 350
178 214
187 209
187 350
189 152
189 162
189 172
189 182
189 192
194 137
194 201
195 357
199 127
202 365
209 122
211 370
219 119
219 376
219 437
225 445
229 119
229 380
229 432
234 450
235 388
239 119
239 429
240 397
244 407
244 450
248 424
249 119
254 447
259 121
260 131
260 141
260 195
264 445
265 150
265 170
265 180
265 204
270 159
273 440
275 204
283 440
285 204
293 440
294 209
302 445
303 204
311 440
313 204
321 440
322 199
330 435
331 194
340 189
340 435
344 457
350 189
350 435
350 465
352 449
359 470
360 189
368 475
370 189
378 475
379 184
388 475
389 184
398 475
399 184
408 475
409 184
417 470
418 189
427 470
428 190
437 470
438 194
447 470
448 194
457 199
457 470
466 204
467 469
475 209
477 465
483 215
487 465
490 223
497 464
500 227
507 235
507 460
515 242
517 460
524 247
527 460
532 254
537 460
539 262
540 272
546 455
550 274
555 450
560 274
563 443
565 315
565 325
565 390
565 400
567 335
567 410
568 433
570 274
570 365
570 375
570 420
575 315
575 342
575 352
580 274
585 315
589 279
595 315
599 279
605 315
609 279
615 315
619 279
624 320
628 284
634 320
638 284
644 320
648 284
654 320
658 284
662 314
665 292
665 302
