159 252
159 262
159 272
164 237
164 281
164 291
174 222
174 232
174 295
174 332
174 342
174 352
174 362
179 322
179 371
179 381
180 303
182 214
184 313
184 390
184 400
191 209
193 405
199 172
199 182
199 192
199 202
202 410
209 152
209 162
212 410
219 137
219 147
222 414
224 122
232 114
232 415
239 423
240 106
240 433
248 440
249 450
250 101
258 455
260 99
267 460
270 99
277 464
279 94
287 465
289 94
297 465
299 94
305 472
308 99
315 475
318 100
325 475
328 104
330 465
337 99
340 465
346 94
349 82
350 460
354 527
354 537
354 547
357 74
359 512
359 556
359 592
359 602
359 612
360 462
364 565
366 69
369 509
369 589
369 615
370 465
374 565
376 69
376 473
378 504
378 584
378 620
379 637
379 647
381 60
382 574
384 480
384 656
387 490
391 59
392 499
394 660
400 64
404 657
409 69
410 630
412 649
415 575
415 620
415 639
417 585
418 74
423 613
424 570
425 592
425 602
427 79
434 570
437 79
440 490
440 500
442 510
442 564
444 62
445 520
445 550
450 480
450 529
450 539
452 54
460 480
462 54
470 480
471 49
480 475
481 49
490 465
491 49
499 460
500 54
505 445
510 57
510 435
515 66
519 440
521 74
529 62
529 440
537 54
538 445
547 54
548 445
557 49
557 440
567 49
567 440
576 54
576 435
586 54
586 435
590 425
595 59
600 68
600 415
605 405
608 74
615 82
615 92
615 385
615 395
620 101
620 360
620 370
630 104
630 360
635 113
635 350
645 117
645 345
655 119
655 345
660 128
660 330
665 137
668 323
670 146
670 210
670 220
670 305
675 229
676 154
680 164
680 174
680 184
680 194
680 204
680 238
680 248
680 285
680 295
685 257
685 267
