59 92
59 102
59 112
59 122
59 132
59 142
59 152
59 162
59 172
59 182
59 192
59 202
59 212
59 222
59 232
59 242
59 252
69 89
69 255
69 265
69 275
69 285
69 295
69 305
69 315
69 325
69 335
69 345
69 355
69 365
69 375
78 380
79 89
88 380
89 89
98 380
99 89
108 380
109 89
118 380
119 89
128 380
129 89
138 380
139 89
148 380
149 89
155 81
158 380
165 79
168 380
175 79
178 380
185 79
188 380
195 79
198 380
205 79
205 370
215 79
215 370
225 79
225 370
235 79
235 370
245 79
245 370
255 79
255 370
265 79
265 370
275 79
275 370
285 79
285 370
295 79
295 370
305 79
305 370
315 79
315 370
325 79
325 370
334 375
334 385
334 395
334 405
334 415
334 425
334 435
335 79
337 445
345 79
347 449
355 76
357 445
365 74
365 430
375 74
375 430
380 420
385 74
389 415
395 74
399 412
405 74
409 410
415 74
415 400
424 395
425 74
430 385
435 74
440 385
445 74
448 378
454 370
455 74
463 365
465 74
473 365
475 74
483 365
485 74
493 365
495 74
503 365
505 74
513 365
515 74
523 365
525 74
530 83
530 93
530 103
530 113
530 123
530 133
530 143
530 153
530 163
530 173
530 183
530 193
533 365
538 200
540 210
540 220
540 230
540 240
540 250
540 260
540 270
540 280
540 290
540 300
540 310
540 320
540 330
540 340
540 350
