179 157
179 167
179 177
184 142
184 186
184 196
184 206
184 216
184 226
184 236
184 246
184 256
184 266
184 276
184 286
184 296
184 306
184 316
184 326
184 336
184 346
189 132
191 354
199 127
199 360
205 368
207 119
215 370
217 119
221 378
222 109
231 380
232 109
236 389
241 104
246 390
251 104
256 390
261 104
266 393
269 403
269 413
271 104
274 422
274 432
274 442
281 104
284 445
289 454
291 104
291 464
294 474
294 484
299 493
299 503
301 104
307 510
309 520
311 104
312 530
314 540
314 550
317 560
319 570
321 104
328 575
331 104
338 573
340 560
341 104
345 530
345 540
345 550
351 104
355 510
355 520
360 460
360 470
360 480
360 490
360 500
361 104
365 440
365 450
371 104
375 415
375 425
375 435
380 390
380 400
381 104
385 380
391 104
395 380
401 104
405 380
410 99
415 380
420 99
425 380
430 99
435 380
440 99
445 380
450 99
455 380
460 99
465 380
470 99
475 380
480 99
485 380
490 99
495 380
500 99
505 380
510 99
515 370
520 99
525 370
530 99
535 370
540 99
545 370
550 99
555 370
560 99
565 370
570 99
575 370
580 99
585 370
589 104
595 370
599 104
605 365
609 104
615 365
619 104
625 355
627 110
632 119
635 350
641 124
645 134
645 345
650 143
650 153
650 163
650 173
650 183
650 193
650 203
650 213
650 223
650 233
650 243
650 253
650 263
650 273
650 335
655 282
655 292
655 302
655 312
655 322
