54 252
54 262
54 272
59 232
59 242
59 281
59 291
64 300
69 217
69 227
69 309
74 202
74 318
75 328
84 192
85 332
89 177
89 342
99 172
99 345
104 162
104 354
112 360
114 159
121 365
123 154
126 374
133 154
136 378
142 149
146 380
150 141
151 389
160 139
161 390
170 136
171 393
180 134
181 395
190 134
191 395
196 125
196 404
206 124
206 405
216 120
216 408
226 119
226 410
236 119
236 410
246 119
246 410
251 110
251 419
261 109
261 420
271 109
271 420
281 109
281 420
291 109
291 420
301 109
301 420
310 104
310 425
320 104
320 425
330 104
330 425
339 430
340 104
342 440
350 104
351 445
354 455
359 109
359 464
367 470
369 109
369 480
375 488
379 109
384 493
385 503
389 109
389 513
394 522
399 109
404 525
404 535
409 111
409 544
415 119
417 550
419 560
425 119
425 568
434 573
435 119
435 583
440 410
440 420
440 430
440 592
445 119
445 439
449 597
450 405
450 448
450 458
450 468
450 478
450 488
450 498
450 508
454 124
454 606
455 517
455 527
455 537
455 547
455 557
455 567
459 615
460 405
460 576
464 124
465 585
465 595
465 605
470 132
470 395
480 134
480 395
490 137
490 395
500 139
500 390
510 139
510 390
515 148
515 380
525 149
525 380
533 373
534 154
539 365
544 156
548 360
554 159
558 358
560 167
563 348
567 175
570 185
570 335
578 191
580 325
583 200
585 210
585 315
593 216
595 226
595 300
595 310
600 235
600 245
600 270
600 280
600 290
608 251
610 261
