79 207
79 217
79 227
84 182
84 192
84 236
84 246
89 167
89 255
89 265
98 270
99 152
99 162
104 278
105 288
107 144
114 132
114 293
119 302
122 124
129 305
130 116
138 310
140 114
145 318
149 109
155 320
159 102
164 325
169 99
174 325
177 335
178 94
179 477
179 487
184 437
184 447
184 457
184 467
185 86
187 339
189 487
194 402
194 412
194 422
194 432
195 84
197 340
197 479
199 367
199 377
199 387
202 349
204 79
207 474
209 357
212 464
214 72
222 459
224 69
227 449
233 64
237 444
242 434
243 64
252 430
253 64
260 420
263 64
270 56
270 415
275 405
280 54
284 400
290 54
292 394
297 385
300 54
306 380
310 54
310 370
320 54
320 370
329 49
330 370
339 49
340 370
349 49
350 370
359 49
360 370
369 49
370 370
378 54
379 365
388 54
389 365
398 54
399 365
408 54
409 365
418 54
419 365
428 54
429 365
435 62
435 355
445 64
445 355
455 64
455 355
465 64
465 355
474 69
474 350
484 71
484 350
490 79
494 347
500 79
502 340
510 82
512 339
520 84
522 335
525 93
532 334
535 97
537 325
545 99
547 324
550 108
557 320
560 109
565 310
569 114
575 310
579 116
584 305
585 124
592 299
593 130
595 140
597 290
603 146
605 275
610 154
610 164
614 270
620 167
620 177
620 255
625 186
625 196
625 230
625 240
628 206
630 216
