69 202
69 212
69 222
74 182
74 192
74 231
74 241
79 250
84 167
84 177
84 259
89 152
89 268
90 278
99 142
100 282
104 127
104 292
114 122
114 295
119 112
119 304
127 310
129 109
136 315
138 104
141 324
148 104
149 517
149 527
149 537
151 325
154 482
154 492
154 502
157 99
159 437
159 447
159 457
159 467
159 537
160 525
161 325
164 397
164 407
164 417
164 427
165 91
168 518
169 331
169 352
169 362
169 372
169 382
173 508
174 340
175 89
175 495
184 490
185 86
190 465
190 475
195 84
200 450
200 460
205 84
208 443
211 75
213 433
218 423
221 74
223 413
225 400
231 70
233 393
235 380
240 370
241 69
249 365
251 69
259 365
261 69
266 60
269 365
276 59
278 370
286 59
288 370
296 59
298 370
306 59
308 370
316 59
318 370
325 54
327 375
335 54
337 375
345 54
347 375
354 383
355 54
359 392
365 54
369 395
369 405
374 59
374 414
382 420
384 59
384 430
390 438
394 59
399 443
400 453
404 59
404 463
409 472
414 59
419 475
419 485
424 61
424 494
430 69
432 500
434 510
440 69
440 518
449 523
450 69
450 533
455 360
455 370
455 380
455 542
460 69
460 389
464 547
465 355
465 398
465 408
465 418
465 428
465 438
465 448
465 458
469 74
469 556
470 467
470 477
470 487
470 497
470 507
470 517
470 527
474 565
475 355
479 74
479 532
480 542
480 552
485 82
485 345
495 84
495 345
505 87
505 345
515 89
515 340
525 89
525 340
530 98
530 330
540 99
540 330
548 323
549 104
554 315
559 106
563 310
569 109
573 308
575 117
578 298
582 125
585 135
585 285
593 141
595 275
598 150
600 160
600 265
608 166
610 176
610 250
610 260
615 185
615 195
615 220
615 230
615 240
623 201
625 211
