79 137
79 147
79 157
79 167
79 177
79 187
79 197
79 207
79 217
79 227
79 237
79 247
79 257
79 267
84 127
84 276
84 286
84 296
84 306
84 316
84 326
84 336
89 345
94 117
95 353
99 107
100 362
107 370
109 104
117 370
119 102
127 370
129 99
136 375
139 99
146 375
148 94
156 375
157 89
166 94
166 375
176 94
176 378
184 384
186 94
189 393
190 403
194 413
196 94
202 420
206 94
209 428
210 438
216 94
218 445
226 94
228 445
236 94
237 439
246 94
247 434
250 420
256 94
258 413
261 85
264 405
271 84
273 400
280 380
280 390
281 84
285 370
291 84
295 370
301 84
305 370
311 84
315 370
321 84
325 370
331 84
335 370
341 84
345 370
351 84
355 370
361 84
365 370
371 84
374 365
381 84
384 365
391 84
394 365
401 84
404 365
411 84
414 365
421 84
424 365
431 84
434 365
441 84
444 365
451 84
454 365
461 84
464 365
471 84
474 365
480 79
484 365
489 84
494 365
499 84
504 365
509 86
514 365
515 94
520 355
525 97
530 350
533 104
540 112
540 122
540 345
545 131
545 141
545 151
545 325
545 335
550 160
550 170
550 180
550 190
550 200
550 210
550 220
550 230
550 240
550 250
550 260
550 270
550 280
550 290
550 300
550 310
