79 217
79 227
79 237
84 192
84 202
84 246
84 256
89 177
89 265
89 275
98 280
99 162
99 172
104 288
105 298
107 154
114 142
114 303
119 312
122 134
129 315
130 126
138 320
140 124
145 328
149 119
155 330
159 112
164 335
169 109
174 335
177 345
178 104
179 487
179 497
184 447
184 457
184 467
184 477
185 96
187 349
189 497
194 412
194 422
194 432
194 442
195 94
197 350
197 489
199 377
199 387
199 397
202 359
204 89
207 484
209 367
212 474
214 82
222 469
224 79
227 459
233 74
237 454
242 444
243 74
252 440
253 74
260 430
263 74
270 66
270 425
275 415
280 64
284 410
290 64
292 404
297 395
300 64
306 390
310 64
310 380
320 64
320 380
329 59
330 380
339 59
340 380
349 59
350 380
359 59
360 380
369 59
370 380
378 64
379 375
388 64
389 375
398 64
399 375
408 64
409 375
418 64
419 375
428 64
429 375
435 72
435 365
445 74
445 365
455 74
455 365
465 74
465 365
474 79
474 360
484 81
484 360
490 89
494 357
500 89
502 350
510 92
512 349
520 94
522 345
525 103
532 344
535 107
537 335
545 109
547 334
550 118
557 330
560 119
565 320
569 124
575 320
579 126
584 315
585 134
592 309
593 140
595 150
597 300
603 156
605 285
610 164
610 174
614 280
620 177
620 187
620 265
625 196
625 206
625 240
625 250
628 216
630 226
