79 342
84 332
84 351
84 362
84 387
84 397
90 370
92 324
92 380
94 400
100 370
102 324
104 400
112 324
114 400
122 324
123 395
130 385
132 319
140 311
140 385
148 304
149 380
157 374
158 304
162 364
164 292
165 350
172 284
175 345
182 279
183 338
190 271
193 333
198 264
203 328
208 264
210 320
215 256
218 313
223 249
228 310
232 244
237 305
242 244
246 300
251 239
254 292
260 234
262 285
269 229
272 285
279 227
281 280
287 219
289 272
297 219
299 267
304 207
309 262
312 199
314 187
319 177
319 257
329 172
329 255
337 164
339 255
347 164
349 255
350 200
350 210
355 219
357 164
358 193
358 260
365 219
367 164
368 190
368 258
375 219
376 169
377 185
378 253
385 174
385 219
385 245
395 219
395 240
400 228
