104 442
109 427
112 449
117 419
120 455
127 419
129 460
136 414
138 455
146 410
148 453
156 409
158 450
165 404
168 450
175 404
178 448
185 404
188 445
194 399
197 440
204 397
207 439
214 392
217 434
224 387
225 425
234 382
235 420
244 377
245 415
249 362
254 371
255 410
259 359
265 410
268 354
274 405
278 354
284 405
288 354
293 400
298 354
303 400
308 354
313 398
317 359
323 395
327 359
332 400
337 359
342 400
346 354
352 400
356 354
361 405
365 349
371 405
374 342
379 411
384 337
389 415
392 329
395 423
402 324
403 430
412 324
412 435
420 360
420 370
421 440
422 324
422 380
430 360
431 440
432 324
432 384
440 360
440 435
441 329
441 389
445 339
445 399
445 425
450 348
450 360
453 418
454 404
