134 307
139 316
144 306
144 325
149 272
153 330
154 309
157 279
159 269
162 335
163 314
164 297
166 284
169 267
172 304
172 335
173 314
179 264
182 335
188 269
191 330
198 269
201 330
207 274
210 325
216 279
220 325
224 286
230 325
234 289
240 325
244 291
250 325
254 294
259 330
264 294
269 330
274 292
279 330
284 289
288 325
294 289
298 323
303 284
308 320
313 284
317 315
322 279
327 315
332 274
337 315
342 274
347 315
351 269
356 310
361 269
366 310
371 265
376 310
381 264
386 310
391 260
395 305
401 259
405 305
411 259
414 310
420 254
423 315
430 254
433 315
440 252
443 315
450 254
450 323
458 330
459 249
467 335
469 249
470 285
470 295
472 305
477 335
478 254
479 290
482 309
487 259
487 335
488 295
491 314
496 264
497 334
498 293
501 314
505 269
505 325
508 288
515 272
