119 227
119 237
124 217
124 246
124 256
124 266
134 221
134 270
134 280
140 288
143 226
145 236
150 292
154 241
160 249
160 295
170 249
170 295
179 197
179 207
179 217
180 246
180 297
184 226
185 236
189 196
189 302
197 309
198 201
205 209
205 315
211 323
213 215
217 225
219 330
220 235
220 245
220 255
220 265
224 339
225 274
225 284
226 349
230 293
231 358
235 302
240 363
242 310
248 370
250 317
252 380
257 325
259 388
262 334
264 397
269 342
269 406
270 352
274 415
278 359
280 423
285 367
285 432
292 375
292 440
297 384
297 449
304 392
304 457
309 401
312 464
314 474
315 409
316 484
319 494
319 504
319 514
319 524
320 418
324 533
328 425
329 542
332 435
337 549
340 442
345 555
348 449
350 515
350 525
355 457
355 534
355 544
359 510
364 462
369 510
374 466
378 515
379 525
383 471
384 534
390 479
392 540
398 485
400 495
400 505
400 515
400 525
