94 502
94 512
99 492
99 521
104 472
104 482
104 530
107 540
114 462
117 544
124 457
127 545
132 449
136 550
140 441
145 545
148 434
155 545
157 429
165 540
167 424
169 407
174 382
174 392
175 540
179 367
184 342
184 352
185 540
189 282
189 292
189 307
189 332
191 548
194 262
194 272
194 316
194 558
199 567
202 254
204 576
209 585
212 249
212 595
220 602
221 244
229 207
229 217
229 227
229 237
229 607
235 615
237 199
244 187
244 620
253 625
254 182
263 625
264 179
270 633
274 181
280 632
284 181
284 642
290 550
294 184
294 645
295 559
299 545
300 176
300 653
304 564
308 540
310 171
310 650
313 569
318 538
320 169
320 650
323 569
325 635
328 535
330 169
333 570
333 628
338 533
338 618
340 169
340 578
345 587
345 597
345 607
348 530
350 169
357 524
359 162
367 520
369 157
376 515
379 156
385 510
389 154
394 505
399 156
402 499
409 159
412 494
419 157
420 485
429 154
430 485
438 478
439 154
445 470
449 154
455 470
459 154
463 463
469 154
470 455
478 159
478 448
484 440
487 164
490 448
497 164
498 455
502 465
506 169
509 473
510 483
515 174
518 490
525 177
527 495
534 182
537 495
540 390
542 189
545 485
548 383
550 394
550 475
552 189
558 380
558 400
558 468
562 189
565 455
567 385
567 405
571 194
573 448
575 412
575 422
575 432
576 380
580 199
584 372
590 202
592 365
598 209
600 225
601 360
605 350
606 215
610 229
615 345
619 234
620 335
625 310
625 320
628 229
635 312
638 229
645 310
648 230
650 300
658 234
658 293
663 283
667 239
668 273
670 249
670 259
