<?xml version="1.0" encoding="UTF-8" standalone="no"?>
<!-- Created with CurveBenchmark -->
<svg
	xmlns:dc="http://purl.org/dc/elements/1.1/"
	xmlns:cc="http://creativecommons.org/ns#"
	xmlns:rdf="http://www.w3.org/1999/02/22-rdf-syntax-ns#"
	xmlns:svg="http://www.w3.org/2000/svg"
	xmlns="http://www.w3.org/2000/svg"
	xmlns:sodipodi="http://sodipodi.sourceforge.net/DTD/sodipodi-0.dtd"
	xmlns:inkscape="http://www.inkscape.org/namespaces/inkscape"
	width="1000"
	height="1000"
	id="svg2"
	version="1.1"
	sodipodi:docname="sharp-corners/discur-sc3.txt">
<defs
	id="defs4" />
<metadata
	id="metadata7">
	<rdf:RDF>
		<cc:Work
			rdf:about="">
			<dc:format>image/svg+xml</dc:format>
			<dc:type
				rdf:resource="http://purl.org/dc/dcmitype/StillImage" />
			<dc:title></dc:title>
		</cc:Work>
	</rdf:RDF>
</metadata>
<g
	inkscape:label="Layer 1"
	inkscape:groupmode="layer"
	id="layer1">
	<path style="fill:none;stroke:red;stroke-width:1px;stroke-linecap:butt;stroke-linejoin:miter;stroke-opacity:1" d="M 126.43,503.139 126.43,525.114 z" id="boundary" inkscape:connector-curvature="0" />
	<path style="fill:none;stroke:red;stroke-width:1px;stroke-linecap:butt;stroke-linejoin:miter;stroke-opacity:1" d="M 220.608,531.392 219.038,498.43 z" id="boundary" inkscape:connector-curvature="0" />
	<path style="fill:none;stroke:red;stroke-width:1px;stroke-linecap:butt;stroke-linejoin:miter;stroke-opacity:1" d="M 335.19,485.873 332.051,540.81 z" id="boundary" inkscape:connector-curvature="0" />
	<path style="fill:none;stroke:red;stroke-width:1px;stroke-linecap:butt;stroke-linejoin:miter;stroke-opacity:1" d="M 335.19,485.873 407.392,481.165 z" id="boundary" inkscape:connector-curvature="0" />
	<path style="fill:none;stroke:red;stroke-width:1px;stroke-linecap:butt;stroke-linejoin:miter;stroke-opacity:1" d="M 332.051,540.81 382.278,545.519 z" id="boundary" inkscape:connector-curvature="0" />
	<path style="fill:none;stroke:red;stroke-width:1px;stroke-linecap:butt;stroke-linejoin:miter;stroke-opacity:1" d="M 382.278,545.519 427.797,550.228 z" id="boundary" inkscape:connector-curvature="0" />
	<path style="fill:none;stroke:red;stroke-width:1px;stroke-linecap:butt;stroke-linejoin:miter;stroke-opacity:1" d="M 427.797,550.228 470.177,554.937 z" id="boundary" inkscape:connector-curvature="0" />
	<path style="fill:none;stroke:red;stroke-width:1px;stroke-linecap:butt;stroke-linejoin:miter;stroke-opacity:1" d="M 407.392,481.165 443.494,478.025 z" id="boundary" inkscape:connector-curvature="0" />
	<path style="fill:none;stroke:red;stroke-width:1px;stroke-linecap:butt;stroke-linejoin:miter;stroke-opacity:1" d="M 443.494,478.025 471.747,435.646 z" id="boundary" inkscape:connector-curvature="0" />
	<path style="fill:none;stroke:red;stroke-width:1px;stroke-linecap:butt;stroke-linejoin:miter;stroke-opacity:1" d="M 471.747,435.646 460.759,393.266 z" id="boundary" inkscape:connector-curvature="0" />
	<path style="fill:none;stroke:red;stroke-width:1px;stroke-linecap:butt;stroke-linejoin:miter;stroke-opacity:1" d="M 460.759,393.266 454.481,368.152 z" id="boundary" inkscape:connector-curvature="0" />
	<path style="fill:none;stroke:red;stroke-width:1px;stroke-linecap:butt;stroke-linejoin:miter;stroke-opacity:1" d="M 454.481,368.152 438.785,302.228 z" id="boundary" inkscape:connector-curvature="0" />
	<path style="fill:none;stroke:red;stroke-width:1px;stroke-linecap:butt;stroke-linejoin:miter;stroke-opacity:1" d="M 438.785,302.228 487.443,281.823 z" id="boundary" inkscape:connector-curvature="0" />
	<path style="fill:none;stroke:red;stroke-width:1px;stroke-linecap:butt;stroke-linejoin:miter;stroke-opacity:1" d="M 416.81,198.633 448.203,189.215 z" id="boundary" inkscape:connector-curvature="0" />
	<path style="fill:none;stroke:red;stroke-width:1px;stroke-linecap:butt;stroke-linejoin:miter;stroke-opacity:1" d="M 393.266,96.6076 407.392,85.6202 z" id="boundary" inkscape:connector-curvature="0" />
	<path style="fill:none;stroke:red;stroke-width:1px;stroke-linecap:butt;stroke-linejoin:miter;stroke-opacity:1" d="M 487.443,281.823 506.278,325.772 z" id="boundary" inkscape:connector-curvature="0" />
	<path style="fill:none;stroke:red;stroke-width:1px;stroke-linecap:butt;stroke-linejoin:miter;stroke-opacity:1" d="M 506.278,325.772 518.835,360.304 z" id="boundary" inkscape:connector-curvature="0" />
	<path style="fill:none;stroke:red;stroke-width:1px;stroke-linecap:butt;stroke-linejoin:miter;stroke-opacity:1" d="M 518.835,360.304 540.81,412.101 z" id="boundary" inkscape:connector-curvature="0" />
	<path style="fill:none;stroke:red;stroke-width:1px;stroke-linecap:butt;stroke-linejoin:miter;stroke-opacity:1" d="M 540.81,412.101 573.772,435.646 z" id="boundary" inkscape:connector-curvature="0" />
	<path style="fill:none;stroke:red;stroke-width:1px;stroke-linecap:butt;stroke-linejoin:miter;stroke-opacity:1" d="M 573.772,435.646 616.152,412.101 z" id="boundary" inkscape:connector-curvature="0" />
	<path style="fill:none;stroke:red;stroke-width:1px;stroke-linecap:butt;stroke-linejoin:miter;stroke-opacity:1" d="M 616.152,412.101 647.544,394.835 z" id="boundary" inkscape:connector-curvature="0" />
	<path style="fill:none;stroke:red;stroke-width:1px;stroke-linecap:butt;stroke-linejoin:miter;stroke-opacity:1" d="M 647.544,394.835 653.823,471.747 z" id="boundary" inkscape:connector-curvature="0" />
	<path style="fill:none;stroke:red;stroke-width:1px;stroke-linecap:butt;stroke-linejoin:miter;stroke-opacity:1" d="M 702.481,360.304 738.582,339.899 z" id="boundary" inkscape:connector-curvature="0" />
	<path style="fill:none;stroke:red;stroke-width:1px;stroke-linecap:butt;stroke-linejoin:miter;stroke-opacity:1" d="M 702.481,360.304 732.304,402.684 z" id="boundary" inkscape:connector-curvature="0" />
	<path style="fill:none;stroke:red;stroke-width:1px;stroke-linecap:butt;stroke-linejoin:miter;stroke-opacity:1" d="M 738.582,339.899 752.709,386.987 z" id="boundary" inkscape:connector-curvature="0" />
	<path style="fill:none;stroke:red;stroke-width:1px;stroke-linecap:butt;stroke-linejoin:miter;stroke-opacity:1" d="M 812.354,292.81 865.722,259.848 z" id="boundary" inkscape:connector-curvature="0" />
	<path style="fill:none;stroke:red;stroke-width:1px;stroke-linecap:butt;stroke-linejoin:miter;stroke-opacity:1" d="M 812.354,292.81 809.215,336.759 z" id="boundary" inkscape:connector-curvature="0" />
	<path style="fill:none;stroke:red;stroke-width:1px;stroke-linecap:butt;stroke-linejoin:miter;stroke-opacity:1" d="M 865.722,259.848 881.418,277.114 z" id="boundary" inkscape:connector-curvature="0" />
	<path style="fill:none;stroke:red;stroke-width:1px;stroke-linecap:butt;stroke-linejoin:miter;stroke-opacity:1" d="M 967.747,197.063 969.316,828.394 z" id="boundary" inkscape:connector-curvature="0" />
	<path style="fill:none;stroke:red;stroke-width:1px;stroke-linecap:butt;stroke-linejoin:miter;stroke-opacity:1" d="M 881.418,277.114 809.215,336.759 z" id="boundary" inkscape:connector-curvature="0" />
	<path style="fill:none;stroke:red;stroke-width:1px;stroke-linecap:butt;stroke-linejoin:miter;stroke-opacity:1" d="M 752.709,386.987 732.304,402.684 z" id="boundary" inkscape:connector-curvature="0" />
	<path style="fill:none;stroke:red;stroke-width:1px;stroke-linecap:butt;stroke-linejoin:miter;stroke-opacity:1" d="M 653.823,471.747 624,495.291 z" id="boundary" inkscape:connector-curvature="0" />
	<path style="fill:none;stroke:red;stroke-width:1px;stroke-linecap:butt;stroke-linejoin:miter;stroke-opacity:1" d="M 624,495.291 633.418,537.671 z" id="boundary" inkscape:connector-curvature="0" />
	<path style="fill:none;stroke:red;stroke-width:1px;stroke-linecap:butt;stroke-linejoin:miter;stroke-opacity:1" d="M 633.418,537.671 669.519,567.494 z" id="boundary" inkscape:connector-curvature="0" />
	<path style="fill:none;stroke:red;stroke-width:1px;stroke-linecap:butt;stroke-linejoin:miter;stroke-opacity:1" d="M 669.519,567.494 696.203,592.608 z" id="boundary" inkscape:connector-curvature="0" />
	<path style="fill:none;stroke:red;stroke-width:1px;stroke-linecap:butt;stroke-linejoin:miter;stroke-opacity:1" d="M 696.203,592.608 655.392,638.127 z" id="boundary" inkscape:connector-curvature="0" />
	<path style="fill:none;stroke:red;stroke-width:1px;stroke-linecap:butt;stroke-linejoin:miter;stroke-opacity:1" d="M 743.291,633.418 758.987,702.481 z" id="boundary" inkscape:connector-curvature="0" />
	<path style="fill:none;stroke:red;stroke-width:1px;stroke-linecap:butt;stroke-linejoin:miter;stroke-opacity:1" d="M 821.772,700.911 878.278,747.657 z" id="boundary" inkscape:connector-curvature="0" />
	<path style="fill:none;stroke:red;stroke-width:1px;stroke-linecap:butt;stroke-linejoin:miter;stroke-opacity:1" d="M 821.772,700.911 758.987,702.481 z" id="boundary" inkscape:connector-curvature="0" />
	<path style="fill:none;stroke:red;stroke-width:1px;stroke-linecap:butt;stroke-linejoin:miter;stroke-opacity:1" d="M 878.278,747.657 865.722,765.266 z" id="boundary" inkscape:connector-curvature="0" />
	<path style="fill:none;stroke:red;stroke-width:1px;stroke-linecap:butt;stroke-linejoin:miter;stroke-opacity:1" d="M 655.392,638.127 628.709,620.861 z" id="boundary" inkscape:connector-curvature="0" />
	<path style="fill:none;stroke:red;stroke-width:1px;stroke-linecap:butt;stroke-linejoin:miter;stroke-opacity:1" d="M 628.709,620.861 581.62,594.177 z" id="boundary" inkscape:connector-curvature="0" />
	<path style="fill:none;stroke:red;stroke-width:1px;stroke-linecap:butt;stroke-linejoin:miter;stroke-opacity:1" d="M 581.62,594.177 545.519,598.886 z" id="boundary" inkscape:connector-curvature="0" />
	<path style="fill:none;stroke:red;stroke-width:1px;stroke-linecap:butt;stroke-linejoin:miter;stroke-opacity:1" d="M 545.519,598.886 521.975,660.101 z" id="boundary" inkscape:connector-curvature="0" />
	<path style="fill:none;stroke:red;stroke-width:1px;stroke-linecap:butt;stroke-linejoin:miter;stroke-opacity:1" d="M 521.975,660.101 514.127,683.646 z" id="boundary" inkscape:connector-curvature="0" />
	<path style="fill:none;stroke:red;stroke-width:1px;stroke-linecap:butt;stroke-linejoin:miter;stroke-opacity:1" d="M 514.127,683.646 484.304,749.57 z" id="boundary" inkscape:connector-curvature="0" />
	<path style="fill:none;stroke:red;stroke-width:1px;stroke-linecap:butt;stroke-linejoin:miter;stroke-opacity:1" d="M 484.304,749.57 441.924,711.899 z" id="boundary" inkscape:connector-curvature="0" />
	<path style="fill:none;stroke:red;stroke-width:1px;stroke-linecap:butt;stroke-linejoin:miter;stroke-opacity:1" d="M 421.519,903.392 399.544,900.253 z" id="boundary" inkscape:connector-curvature="0" />
	<path style="fill:none;stroke:red;stroke-width:1px;stroke-linecap:butt;stroke-linejoin:miter;stroke-opacity:1" d="M 441.924,711.899 460.759,630.278 z" id="boundary" inkscape:connector-curvature="0" />
	<path style="fill:none;stroke:red;stroke-width:1px;stroke-linecap:butt;stroke-linejoin:miter;stroke-opacity:1" d="M 460.759,630.278 471.747,591.038 z" id="boundary" inkscape:connector-curvature="0" />
	<path style="fill:none;stroke:red;stroke-width:1px;stroke-linecap:butt;stroke-linejoin:miter;stroke-opacity:1" d="M 471.747,591.038 470.177,554.937 z" id="boundary" inkscape:connector-curvature="0" />
	<circle cx="4" cy="515.696" r="4" fill="#0" id="circle0"/>
	<circle cx="126.43" cy="503.139" r="4" fill="#0" id="circle1"/>
	<circle cx="126.43" cy="525.114" r="4" fill="#0" id="circle2"/>
	<circle cx="220.608" cy="531.392" r="4" fill="#0" id="circle3"/>
	<circle cx="219.038" cy="498.43" r="4" fill="#0" id="circle4"/>
	<circle cx="335.19" cy="485.873" r="4" fill="#0" id="circle5"/>
	<circle cx="332.051" cy="540.81" r="4" fill="#0" id="circle6"/>
	<circle cx="382.278" cy="545.519" r="4" fill="#0" id="circle7"/>
	<circle cx="427.797" cy="550.228" r="4" fill="#0" id="circle8"/>
	<circle cx="407.392" cy="481.165" r="4" fill="#0" id="circle9"/>
	<circle cx="443.494" cy="478.025" r="4" fill="#0" id="circle10"/>
	<circle cx="471.747" cy="435.646" r="4" fill="#0" id="circle11"/>
	<circle cx="460.759" cy="393.266" r="4" fill="#0" id="circle12"/>
	<circle cx="454.481" cy="368.152" r="4" fill="#0" id="circle13"/>
	<circle cx="438.785" cy="302.228" r="4" fill="#0" id="circle14"/>
	<circle cx="416.81" cy="198.633" r="4" fill="#0" id="circle15"/>
	<circle cx="393.266" cy="96.6076" r="4" fill="#0" id="circle16"/>
	<circle cx="372.861" cy="4" r="4" fill="#0" id="circle17"/>
	<circle cx="407.392" cy="85.6202" r="4" fill="#0" id="circle18"/>
	<circle cx="448.203" cy="189.215" r="4" fill="#0" id="circle19"/>
	<circle cx="487.443" cy="281.823" r="4" fill="#0" id="circle20"/>
	<circle cx="506.278" cy="325.772" r="4" fill="#0" id="circle21"/>
	<circle cx="518.835" cy="360.304" r="4" fill="#0" id="circle22"/>
	<circle cx="540.81" cy="412.101" r="4" fill="#0" id="circle23"/>
	<circle cx="573.772" cy="435.646" r="4" fill="#0" id="circle24"/>
	<circle cx="616.152" cy="412.101" r="4" fill="#0" id="circle25"/>
	<circle cx="647.544" cy="394.835" r="4" fill="#0" id="circle26"/>
	<circle cx="702.481" cy="360.304" r="4" fill="#0" id="circle27"/>
	<circle cx="738.582" cy="339.899" r="4" fill="#0" id="circle28"/>
	<circle cx="812.354" cy="292.81" r="4" fill="#0" id="circle29"/>
	<circle cx="865.722" cy="259.848" r="4" fill="#0" id="circle30"/>
	<circle cx="967.747" cy="197.063" r="4" fill="#0" id="circle31"/>
	<circle cx="881.418" cy="277.114" r="4" fill="#0" id="circle32"/>
	<circle cx="809.215" cy="336.759" r="4" fill="#0" id="circle33"/>
	<circle cx="752.709" cy="386.987" r="4" fill="#0" id="circle34"/>
	<circle cx="732.304" cy="402.684" r="4" fill="#0" id="circle35"/>
	<circle cx="653.823" cy="471.747" r="4" fill="#0" id="circle36"/>
	<circle cx="624" cy="495.291" r="4" fill="#0" id="circle37"/>
	<circle cx="633.418" cy="537.671" r="4" fill="#0" id="circle38"/>
	<circle cx="669.519" cy="567.494" r="4" fill="#0" id="circle39"/>
	<circle cx="696.203" cy="592.608" r="4" fill="#0" id="circle40"/>
	<circle cx="743.291" cy="633.418" r="4" fill="#0" id="circle41"/>
	<circle cx="821.772" cy="700.911" r="4" fill="#0" id="circle42"/>
	<circle cx="878.278" cy="747.657" r="4" fill="#0" id="circle43"/>
	<circle cx="969.316" cy="828.394" r="4" fill="#0" id="circle44"/>
	<circle cx="865.722" cy="765.266" r="4" fill="#0" id="circle45"/>
	<circle cx="758.987" cy="702.481" r="4" fill="#0" id="circle46"/>
	<circle cx="655.392" cy="638.127" r="4" fill="#0" id="circle47"/>
	<circle cx="628.709" cy="620.861" r="4" fill="#0" id="circle48"/>
	<circle cx="581.62" cy="594.177" r="4" fill="#0" id="circle49"/>
	<circle cx="545.519" cy="598.886" r="4" fill="#0" id="circle50"/>
	<circle cx="521.975" cy="660.101" r="4" fill="#0" id="circle51"/>
	<circle cx="514.127" cy="683.646" r="4" fill="#0" id="circle52"/>
	<circle cx="484.304" cy="749.57" r="4" fill="#0" id="circle53"/>
	<circle cx="421.519" cy="903.392" r="4" fill="#0" id="circle54"/>
	<circle cx="376" cy="996" r="4" fill="#0" id="circle55"/>
	<circle cx="399.544" cy="900.253" r="4" fill="#0" id="circle56"/>
	<circle cx="441.924" cy="711.899" r="4" fill="#0" id="circle57"/>
	<circle cx="460.759" cy="630.278" r="4" fill="#0" id="circle58"/>
	<circle cx="471.747" cy="591.038" r="4" fill="#0" id="circle59"/>
	<circle cx="470.177" cy="554.937" r="4" fill="#0" id="circle60"/>
	</g>
</svg>