<?xml version="1.0" encoding="UTF-8" standalone="no"?>
<!-- Created with CurveBenchmark -->
<svg
	xmlns:dc="http://purl.org/dc/elements/1.1/"
	xmlns:cc="http://creativecommons.org/ns#"
	xmlns:rdf="http://www.w3.org/1999/02/22-rdf-syntax-ns#"
	xmlns:svg="http://www.w3.org/2000/svg"
	xmlns="http://www.w3.org/2000/svg"
	xmlns:sodipodi="http://sodipodi.sourceforge.net/DTD/sodipodi-0.dtd"
	xmlns:inkscape="http://www.inkscape.org/namespaces/inkscape"
	width="1000"
	height="1000"
	id="svg2"
	version="1.1"
	sodipodi:docname="sharp-corners/gathan1-sc14.txt">
<defs
	id="defs4" />
<metadata
	id="metadata7">
	<rdf:RDF>
		<cc:Work
			rdf:about="">
			<dc:format>image/svg+xml</dc:format>
			<dc:type
				rdf:resource="http://purl.org/dc/dcmitype/StillImage" />
			<dc:title></dc:title>
		</cc:Work>
	</rdf:RDF>
</metadata>
<g
	inkscape:label="Layer 1"
	inkscape:groupmode="layer"
	id="layer1">
	<path style="fill:none;stroke:red;stroke-width:1px;stroke-linecap:butt;stroke-linejoin:miter;stroke-opacity:1" d="M 259.167,267.037 222.816,308.98 z" id="boundary" inkscape:connector-curvature="0" />
	<path style="fill:none;stroke:red;stroke-width:1px;stroke-linecap:butt;stroke-linejoin:miter;stroke-opacity:1" d="M 222.816,308.98 185.763,339.738 z" id="boundary" inkscape:connector-curvature="0" />
	<path style="fill:none;stroke:red;stroke-width:1px;stroke-linecap:butt;stroke-linejoin:miter;stroke-opacity:1" d="M 164.795,364.903 185.763,339.738 z" id="boundary" inkscape:connector-curvature="0" />
	<path style="fill:none;stroke:red;stroke-width:1px;stroke-linecap:butt;stroke-linejoin:miter;stroke-opacity:1" d="M 122.149,457.185 164.795,364.903 z" id="boundary" inkscape:connector-curvature="0" />
	<path style="fill:none;stroke:red;stroke-width:1px;stroke-linecap:butt;stroke-linejoin:miter;stroke-opacity:1" d="M 123.545,532.687 122.149,457.185 z" id="boundary" inkscape:connector-curvature="0" />
	<path style="fill:none;stroke:red;stroke-width:1px;stroke-linecap:butt;stroke-linejoin:miter;stroke-opacity:1" d="M 385.897,472.248 379.415,513.436 z" id="boundary" inkscape:connector-curvature="0" />
	<path style="fill:none;stroke:red;stroke-width:1px;stroke-linecap:butt;stroke-linejoin:miter;stroke-opacity:1" d="M 350.053,88.0657 368.797,4 z" id="boundary" inkscape:connector-curvature="0" />
	<path style="fill:none;stroke:red;stroke-width:1px;stroke-linecap:butt;stroke-linejoin:miter;stroke-opacity:1" d="M 368.797,4 373.821,41.9247 z" id="boundary" inkscape:connector-curvature="0" />
	<path style="fill:none;stroke:red;stroke-width:1px;stroke-linecap:butt;stroke-linejoin:miter;stroke-opacity:1" d="M 350.053,88.0657 325.582,171.954 z" id="boundary" inkscape:connector-curvature="0" />
	<path style="fill:none;stroke:red;stroke-width:1px;stroke-linecap:butt;stroke-linejoin:miter;stroke-opacity:1" d="M 325.582,171.954 259.167,267.037 z" id="boundary" inkscape:connector-curvature="0" />
	<path style="fill:none;stroke:red;stroke-width:1px;stroke-linecap:butt;stroke-linejoin:miter;stroke-opacity:1" d="M 175.982,607.487 123.545,532.687 z" id="boundary" inkscape:connector-curvature="0" />
	<path style="fill:none;stroke:red;stroke-width:1px;stroke-linecap:butt;stroke-linejoin:miter;stroke-opacity:1" d="M 365.436,598.4 373.821,566.246 z" id="boundary" inkscape:connector-curvature="0" />
	<path style="fill:none;stroke:red;stroke-width:1px;stroke-linecap:butt;stroke-linejoin:miter;stroke-opacity:1" d="M 373.821,41.9247 380.117,82.4726 z" id="boundary" inkscape:connector-curvature="0" />
	<path style="fill:none;stroke:red;stroke-width:1px;stroke-linecap:butt;stroke-linejoin:miter;stroke-opacity:1" d="M 54.338,757.799 4,708.163 z" id="boundary" inkscape:connector-curvature="0" />
	<path style="fill:none;stroke:red;stroke-width:1px;stroke-linecap:butt;stroke-linejoin:miter;stroke-opacity:1" d="M 250.782,642.442 175.982,607.487 z" id="boundary" inkscape:connector-curvature="0" />
	<path style="fill:none;stroke:red;stroke-width:1px;stroke-linecap:butt;stroke-linejoin:miter;stroke-opacity:1" d="M 134.731,798.347 54.338,757.799 z" id="boundary" inkscape:connector-curvature="0" />
	<path style="fill:none;stroke:red;stroke-width:1px;stroke-linecap:butt;stroke-linejoin:miter;stroke-opacity:1" d="M 237.497,838.192 134.731,798.347 z" id="boundary" inkscape:connector-curvature="0" />
	<path style="fill:none;stroke:red;stroke-width:1px;stroke-linecap:butt;stroke-linejoin:miter;stroke-opacity:1" d="M 250.782,642.442 301.813,643.145 z" id="boundary" inkscape:connector-curvature="0" />
	<path style="fill:none;stroke:red;stroke-width:1px;stroke-linecap:butt;stroke-linejoin:miter;stroke-opacity:1" d="M 365.436,598.4 345.856,627.761 z" id="boundary" inkscape:connector-curvature="0" />
	<path style="fill:none;stroke:red;stroke-width:1px;stroke-linecap:butt;stroke-linejoin:miter;stroke-opacity:1" d="M 345.856,627.761 301.813,643.145 z" id="boundary" inkscape:connector-curvature="0" />
	<path style="fill:none;stroke:red;stroke-width:1px;stroke-linecap:butt;stroke-linejoin:miter;stroke-opacity:1" d="M 309.505,843.785 352.845,871.751 z" id="boundary" inkscape:connector-curvature="0" />
	<path style="fill:none;stroke:red;stroke-width:1px;stroke-linecap:butt;stroke-linejoin:miter;stroke-opacity:1" d="M 352.845,871.751 376.302,909.88 z" id="boundary" inkscape:connector-curvature="0" />
	<path style="fill:none;stroke:red;stroke-width:1px;stroke-linecap:butt;stroke-linejoin:miter;stroke-opacity:1" d="M 237.497,838.192 309.505,843.785 z" id="boundary" inkscape:connector-curvature="0" />
	<path style="fill:none;stroke:red;stroke-width:1px;stroke-linecap:butt;stroke-linejoin:miter;stroke-opacity:1" d="M 376.302,909.88 412.591,996 z" id="boundary" inkscape:connector-curvature="0" />
	<path style="fill:none;stroke:red;stroke-width:1px;stroke-linecap:butt;stroke-linejoin:miter;stroke-opacity:1" d="M 379.415,513.436 402.169,523.351 z" id="boundary" inkscape:connector-curvature="0" />
	<path style="fill:none;stroke:red;stroke-width:1px;stroke-linecap:butt;stroke-linejoin:miter;stroke-opacity:1" d="M 464.005,234.874 396.896,157.273 z" id="boundary" inkscape:connector-curvature="0" />
	<path style="fill:none;stroke:red;stroke-width:1px;stroke-linecap:butt;stroke-linejoin:miter;stroke-opacity:1" d="M 396.896,157.273 386.404,127.217 z" id="boundary" inkscape:connector-curvature="0" />
	<path style="fill:none;stroke:red;stroke-width:1px;stroke-linecap:butt;stroke-linejoin:miter;stroke-opacity:1" d="M 386.404,127.217 380.117,82.4726 z" id="boundary" inkscape:connector-curvature="0" />
	<path style="fill:none;stroke:red;stroke-width:1px;stroke-linecap:butt;stroke-linejoin:miter;stroke-opacity:1" d="M 402.169,523.351 410.875,559.257 z" id="boundary" inkscape:connector-curvature="0" />
	<path style="fill:none;stroke:red;stroke-width:1px;stroke-linecap:butt;stroke-linejoin:miter;stroke-opacity:1" d="M 410.875,559.257 414.369,587.916 z" id="boundary" inkscape:connector-curvature="0" />
	<path style="fill:none;stroke:red;stroke-width:1px;stroke-linecap:butt;stroke-linejoin:miter;stroke-opacity:1" d="M 533.212,313.871 464.005,234.874 z" id="boundary" inkscape:connector-curvature="0" />
	<path style="fill:none;stroke:red;stroke-width:1px;stroke-linecap:butt;stroke-linejoin:miter;stroke-opacity:1" d="M 533.212,313.871 633.186,424.328 z" id="boundary" inkscape:connector-curvature="0" />
	<path style="fill:none;stroke:red;stroke-width:1px;stroke-linecap:butt;stroke-linejoin:miter;stroke-opacity:1" d="M 633.186,424.328 660.449,507.523 z" id="boundary" inkscape:connector-curvature="0" />
	<path style="fill:none;stroke:red;stroke-width:1px;stroke-linecap:butt;stroke-linejoin:miter;stroke-opacity:1" d="M 642.976,570.443 660.449,507.523 z" id="boundary" inkscape:connector-curvature="0" />
	<path style="fill:none;stroke:red;stroke-width:1px;stroke-linecap:butt;stroke-linejoin:miter;stroke-opacity:1" d="M 642.976,570.443 604.526,599.805 z" id="boundary" inkscape:connector-curvature="0" />
	<path style="fill:none;stroke:red;stroke-width:1px;stroke-linecap:butt;stroke-linejoin:miter;stroke-opacity:1" d="M 414.369,587.916 424.159,609.586 z" id="boundary" inkscape:connector-curvature="0" />
	<path style="fill:none;stroke:red;stroke-width:1px;stroke-linecap:butt;stroke-linejoin:miter;stroke-opacity:1" d="M 452.116,625.672 424.159,609.586 z" id="boundary" inkscape:connector-curvature="0" />
	<path style="fill:none;stroke:red;stroke-width:1px;stroke-linecap:butt;stroke-linejoin:miter;stroke-opacity:1" d="M 485.675,634.057 452.116,625.672 z" id="boundary" inkscape:connector-curvature="0" />
	<path style="fill:none;stroke:red;stroke-width:1px;stroke-linecap:butt;stroke-linejoin:miter;stroke-opacity:1" d="M 507.345,829.105 469.598,870.346 z" id="boundary" inkscape:connector-curvature="0" />
	<path style="fill:none;stroke:red;stroke-width:1px;stroke-linecap:butt;stroke-linejoin:miter;stroke-opacity:1" d="M 412.591,996 442.335,921.387 z" id="boundary" inkscape:connector-curvature="0" />
	<path style="fill:none;stroke:red;stroke-width:1px;stroke-linecap:butt;stroke-linejoin:miter;stroke-opacity:1" d="M 469.598,870.346 442.335,921.387 z" id="boundary" inkscape:connector-curvature="0" />
	<path style="fill:none;stroke:red;stroke-width:1px;stroke-linecap:butt;stroke-linejoin:miter;stroke-opacity:1" d="M 552.09,629.166 604.526,599.805 z" id="boundary" inkscape:connector-curvature="0" />
	<path style="fill:none;stroke:red;stroke-width:1px;stroke-linecap:butt;stroke-linejoin:miter;stroke-opacity:1" d="M 552.09,629.166 485.675,634.057 z" id="boundary" inkscape:connector-curvature="0" />
	<path style="fill:none;stroke:red;stroke-width:1px;stroke-linecap:butt;stroke-linejoin:miter;stroke-opacity:1" d="M 742.247,682.99 717.776,712.352 z" id="boundary" inkscape:connector-curvature="0" />
	<path style="fill:none;stroke:red;stroke-width:1px;stroke-linecap:butt;stroke-linejoin:miter;stroke-opacity:1" d="M 507.345,829.105 560.484,815.82 z" id="boundary" inkscape:connector-curvature="0" />
	<path style="fill:none;stroke:red;stroke-width:1px;stroke-linecap:butt;stroke-linejoin:miter;stroke-opacity:1" d="M 673.733,743.812 717.776,712.352 z" id="boundary" inkscape:connector-curvature="0" />
	<path style="fill:none;stroke:red;stroke-width:1px;stroke-linecap:butt;stroke-linejoin:miter;stroke-opacity:1" d="M 673.733,743.812 560.484,815.82 z" id="boundary" inkscape:connector-curvature="0" />
	<circle cx="368.797" cy="4" r="4" fill="#0" id="circle0"/>
	<circle cx="373.821" cy="41.9247" r="4" fill="#0" id="circle1"/>
	<circle cx="380.117" cy="82.4726" r="4" fill="#0" id="circle2"/>
	<circle cx="386.404" cy="127.217" r="4" fill="#0" id="circle3"/>
	<circle cx="396.896" cy="157.273" r="4" fill="#0" id="circle4"/>
	<circle cx="464.005" cy="234.874" r="4" fill="#0" id="circle5"/>
	<circle cx="533.212" cy="313.871" r="4" fill="#0" id="circle6"/>
	<circle cx="633.186" cy="424.328" r="4" fill="#0" id="circle7"/>
	<circle cx="660.449" cy="507.523" r="4" fill="#0" id="circle8"/>
	<circle cx="642.976" cy="570.443" r="4" fill="#0" id="circle9"/>
	<circle cx="604.526" cy="599.805" r="4" fill="#0" id="circle10"/>
	<circle cx="552.09" cy="629.166" r="4" fill="#0" id="circle11"/>
	<circle cx="485.675" cy="634.057" r="4" fill="#0" id="circle12"/>
	<circle cx="452.116" cy="625.672" r="4" fill="#0" id="circle13"/>
	<circle cx="424.159" cy="609.586" r="4" fill="#0" id="circle14"/>
	<circle cx="414.369" cy="587.916" r="4" fill="#0" id="circle15"/>
	<circle cx="410.875" cy="559.257" r="4" fill="#0" id="circle16"/>
	<circle cx="402.169" cy="523.351" r="4" fill="#0" id="circle17"/>
	<circle cx="385.897" cy="472.248" r="4" fill="#0" id="circle18"/>
	<circle cx="379.415" cy="513.436" r="4" fill="#0" id="circle19"/>
	<circle cx="373.821" cy="566.246" r="4" fill="#0" id="circle20"/>
	<circle cx="365.436" cy="598.4" r="4" fill="#0" id="circle21"/>
	<circle cx="345.856" cy="627.761" r="4" fill="#0" id="circle22"/>
	<circle cx="301.813" cy="643.145" r="4" fill="#0" id="circle23"/>
	<circle cx="250.782" cy="642.442" r="4" fill="#0" id="circle24"/>
	<circle cx="175.982" cy="607.487" r="4" fill="#0" id="circle25"/>
	<circle cx="123.545" cy="532.687" r="4" fill="#0" id="circle26"/>
	<circle cx="122.149" cy="457.185" r="4" fill="#0" id="circle27"/>
	<circle cx="164.795" cy="364.903" r="4" fill="#0" id="circle28"/>
	<circle cx="185.763" cy="339.738" r="4" fill="#0" id="circle29"/>
	<circle cx="222.816" cy="308.98" r="4" fill="#0" id="circle30"/>
	<circle cx="259.167" cy="267.037" r="4" fill="#0" id="circle31"/>
	<circle cx="325.582" cy="171.954" r="4" fill="#0" id="circle32"/>
	<circle cx="350.053" cy="88.0657" r="4" fill="#0" id="circle33"/>
	<circle cx="4" cy="708.163" r="4" fill="#0" id="circle34"/>
	<circle cx="54.338" cy="757.799" r="4" fill="#0" id="circle35"/>
	<circle cx="134.731" cy="798.347" r="4" fill="#0" id="circle36"/>
	<circle cx="237.497" cy="838.192" r="4" fill="#0" id="circle37"/>
	<circle cx="309.505" cy="843.785" r="4" fill="#0" id="circle38"/>
	<circle cx="352.845" cy="871.751" r="4" fill="#0" id="circle39"/>
	<circle cx="376.302" cy="909.88" r="4" fill="#0" id="circle40"/>
	<circle cx="412.591" cy="996" r="4" fill="#0" id="circle41"/>
	<circle cx="442.335" cy="921.387" r="4" fill="#0" id="circle42"/>
	<circle cx="469.598" cy="870.346" r="4" fill="#0" id="circle43"/>
	<circle cx="507.345" cy="829.105" r="4" fill="#0" id="circle44"/>
	<circle cx="560.484" cy="815.82" r="4" fill="#0" id="circle45"/>
	<circle cx="673.733" cy="743.812" r="4" fill="#0" id="circle46"/>
	<circle cx="717.776" cy="712.352" r="4" fill="#0" id="circle47"/>
	<circle cx="742.247" cy="682.99" r="4" fill="#0" id="circle48"/>
	</g>
</svg>