30 215
24 207
32 199
42 194
52 189
62 184
72 179
82 174
92 169
97 159
99 147
107 139
116 134
125 129
135 126
145 124
155 124
165 124
174 129
183 134
192 139
195 149
200 158
205 167
209 177
217 184
226 189
236 189
246 189
256 189
266 189
276 189
286 189
296 189
305 194
315 194
325 197
335 199
345 202
355 204
364 209
374 211
384 214
393 219
403 220
412 225
422 229
432 229
439 237
449 241
458 246
468 250
477 255
485 262
495 264
505 267
515 269
525 272
535 274
545 274
555 274
565 274
575 274
585 274
595 274
605 274
615 274
625 274
635 274
645 274
638 285
628 285
619 290
609 292
599 295
590 300
598 306
608 310
618 314
628 314
639 319
649 321
640 330
631 325
621 325
611 325
601 325
591 325
581 325
571 325
562 330
552 330
542 334
532 335
522 339
512 340
503 345
493 345
484 350
475 355
465 355
455 360
445 360
436 365
426 365
417 370
407 370
398 375
388 378
380 385
385 394
390 403
398 410
405 418
410 427
417 435
425 442
435 444
445 447
440 465
440 475
442 485
447 494
450 504
455 513
450 530
440 535
434 527
439 518
439 508
434 499
429 490
420 495
413 503
408 513
400 520
391 525
382 530
372 534
372 519
382 514
390 506
398 499
404 487
409 472
414 456
409 447
402 439
394 432
390 422
382 415
378 405
369 400
361 394
352 389
342 385
333 390
323 390
314 395
305 400
305 410
305 420
300 435
300 445
298 463
290 470
285 480
280 490
276 500
270 510
272 520
272 539
262 535
253 540
243 540
233 540
224 545
214 545
204 545
195 540
189 532
199 529
208 524
218 524
228 524
238 524
247 519
255 511
260 501
268 494
272 484
277 474
282 464
287 454
289 437
289 427
294 418
294 408
288 400
280 393
271 388
261 384
252 379
244 372
235 367
225 363
218 355
208 355
199 350
191 344
182 339
172 335
165 327
157 320
153 310
145 303
139 295
139 285
131 279
129 269
124 260
122 250
119 240
119 230
119 220
119 210
118 200
109 195
99 195
89 195
79 197
69 200
59 202
49 207
39 210
