29 231
24 222
32 214
42 214
52 209
62 209
71 204
81 200
89 194
98 189
108 189
117 184
127 184
137 184
147 184
157 184
167 184
176 189
186 189
196 189
205 194
215 197
224 202
232 209
239 217
240 227
245 236
248 246
253 255
257 265
265 272
274 277
284 281
293 286
303 290
310 298
320 299
328 305
337 310
342 319
351 324
360 329
368 335
377 340
385 347
393 354
402 359
409 367
417 374
420 384
428 390
437 395
445 402
452 410
462 414
469 422
479 426
485 434
490 443
495 452
504 457
512 464
521 469
530 474
535 483
540 492
549 497
559 501
568 506
575 514
585 514
593 520
602 525
612 529
621 534
631 534
640 539
649 544
659 546
665 554
675 557
684 562
694 566
703 571
713 574
720 582
729 587
739 591
748 596
755 604
765 607
774 612
784 616
793 621
786 635
776 633
766 630
757 625
747 624
737 620
728 615
719 610
710 605
700 602
690 598
683 590
673 590
665 583
656 578
646 575
637 570
628 565
618 565
610 558
601 553
591 550
582 545
572 545
563 540
554 535
544 535
535 530
525 530
515 530
505 527
495 525
485 525
475 525
466 520
456 520
447 515
437 515
427 515
417 515
408 520
398 523
388 525
379 530
369 532
359 535
349 537
339 542
329 545
319 547
309 550
300 555
295 565
290 575
280 585
270 585
260 585
254 577
264 572
274 567
279 552
289 545
287 535
277 535
269 542
259 545
250 550
242 559
237 569
227 574
217 574
219 562
224 547
232 539
239 529
237 519
227 515
218 510
209 505
201 499
192 494
184 487
175 482
170 473
164 465
156 458
151 449
144 441
139 432
134 423
129 414
126 404
124 394
119 385
117 375
114 365
114 355
114 345
114 335
114 325
109 316
104 307
97 299
92 290
89 280
84 271
79 262
75 252
67 245
57 245
48 240
39 235
