314 562
314 552
324 549
334 549
344 549
354 549
363 554
373 554
383 554
392 549
401 554
411 554
421 554
431 554
440 559
449 554
458 559
467 554
477 554
486 559
496 559
506 555
516 555
526 559
536 559
546 559
556 559
566 555
576 559
586 559
596 559
606 559
616 559
626 559
636 559
646 559
656 559
666 559
676 559
686 559
696 559
706 559
716 559
726 559
736 559
746 555
756 559
766 559
776 559
786 559
796 559
806 555
816 555
826 559
836 559
846 559
856 559
866 559
876 559
886 559
896 559
906 559
916 559
926 559
936 559
946 559
956 559
967 554
977 554
986 549
996 549
1006 545
1016 544
1026 544
1035 539
1045 539
1055 539
1064 534
1074 534
1084 534
1094 534
1103 529
1113 529
1123 529
1133 529
1143 529
1152 524
1162 524
1172 524
1182 519
1192 519
1202 519
1212 519
1222 519
1232 519
1242 519
1252 519
1262 519
1272 519
1282 519
1292 519
1302 514
1311 519
1321 519
1331 519
1341 519
1351 519
1361 519
1371 519
1380 524
1390 522
1400 524
1410 524
1420 524
1430 524
1440 527
1450 527
1460 529
1470 529
1480 532
1490 532
1500 534
1510 534
1520 537
1530 537
1540 539
1550 539
1560 542
1570 542
1580 544
1590 544
1600 544
1609 549
1619 549
1629 549
1639 551
1649 554
1659 556
1669 556
1679 559
1688 564
1698 564
1708 564
1718 564
1727 569
1737 569
1747 569
1756 574
1766 574
1776 574
1786 574
1796 575
1806 579
1816 579
1826 580
1836 584
1846 584
1856 584
1865 589
1875 587
1885 589
1895 589
1905 592
1915 592
1925 594
1935 594
1945 594
1954 599
1964 599
1974 599
1984 599
1993 604
2003 604
2013 604
2022 609
2032 609
2042 609
2052 609
2061 614
2071 614
2081 614
2091 614
2101 614
2111 614
2120 619
2130 619
2140 616
2150 619
2160 619
2170 619
2180 619
2190 616
2200 614
2210 611
2220 609
2230 606
2240 604
2250 601
2260 599
2270 597
2280 594
2290 594
2299 589
2309 587
2319 584
2329 584
2338 579
2348 579
2357 574
2367 574
2377 574
2386 569
2396 569
2406 569
2415 564
2425 561
2435 561
2445 559
2455 559
2465 557
2475 554
2485 554
2495 554
2504 549
2514 549
2524 549
2534 549
2540 557
2544 567
2540 580
2540 595
2545 604
2545 614
2545 624
2545 634
2545 644
2545 654
2545 664
2545 674
2545 684
2545 694
2545 704
2545 714
2540 725
2540 740
2540 750
2540 760
2540 770
2540 780
2540 790
2540 800
2540 810
2535 820
2535 830
2535 840
2535 850
2530 865
2530 875
2530 885
2525 895
2525 905
2520 920
2520 930
2515 945
2515 955
2517 965
2525 972
2529 982
2535 990
2537 1000
2540 1010
2540 1025
2540 1040
2540 1050
2540 1060
2535 1070
2533 1083
2528 1093
2520 1100
2515 1110
2508 1118
2500 1125
2493 1133
2485 1140
2475 1145
2466 1150
2457 1155
2447 1155
2438 1160
2429 1155
2419 1155
2409 1152
2400 1147
2392 1140
2383 1135
2373 1135
2363 1135
2353 1138
2343 1143
2335 1150
2330 1160
2323 1168
2318 1178
2310 1185
2305 1195
2295 1205
2288 1213
2280 1220
2272 1229
2262 1234
2254 1240
2245 1245
2235 1250
2225 1255
2215 1260
2205 1265
2195 1270
2185 1275
2175 1280
2165 1285
2156 1290
2146 1290
2137 1295
2127 1299
2117 1300
2108 1305
2098 1305
2088 1308
2078 1310
2068 1310
2059 1315
2049 1315
2039 1315
2030 1320
2020 1320
2010 1320
2000 1322
1990 1320
1980 1320
1970 1320
1960 1322
1950 1320
1940 1320
1930 1320
1920 1320
1911 1315
1901 1315
1891 1315
1882 1310
1872 1310
1863 1305
1853 1305
1844 1300
1834 1297
1825 1292
1815 1290
1806 1285
1797 1280
1788 1275
1779 1270
1770 1265
1760 1265
1755 1280
1755 1290
1750 1300
1745 1315
1740 1330
1735 1345
1730 1360
1725 1375
1720 1385
1715 1400
1710 1410
1705 1420
1703 1433
1698 1443
1693 1453
1688 1463
1683 1473
1678 1483
1673 1493
1668 1503
1663 1513
1658 1523
1653 1533
1648 1543
1643 1553
1638 1563
1633 1573
1628 1583
1623 1593
1615 1600
1610 1615
1605 1625
1600 1640
1595 1650
1590 1660
1585 1675
1580 1690
1575 1705
1570 1720
1570 1730
1565 1740
1565 1750
1560 1765
1560 1775
1555 1790
1555 1800
1555 1810
1550 1820
1555 1829
1550 1840
1550 1850
1550 1860
1550 1870
1550 1880
1550 1890
1550 1900
1550 1910
1550 1920
1550 1930
1550 1940
1550 1955
1555 1964
1555 1974
1555 1984
1555 1994
1555 2005
1560 2014
1560 2024
1560 2034
1565 2043
1565 2053
1565 2063
1570 2072
1570 2082
1570 2092
1575 2101
1575 2111
1575 2121
1580 2130
1580 2140
1582 2150
1585 2160
1585 2175
1590 2184
1590 2194
1595 2203
1595 2213
1595 2223
1600 2232
1600 2242
1600 2252
1604 2262
1605 2272
1605 2282
1605 2292
1605 2302
1610 2311
1610 2321
1610 2331
1610 2345
1610 2355
1610 2370
1610 2385
1610 2400
1610 2410
1610 2420
1605 2430
1603 2448
1598 2458
1593 2468
1588 2478
1578 2483
1570 2490
1560 2490
1550 2495
1540 2495
1530 2492
1520 2490
1511 2485
1502 2480
1493 2475
1483 2475
1474 2470
1465 2465
1455 2462
1445 2460
1436 2455
1427 2450
1417 2450
1408 2445
1398 2445
1389 2440
1379 2440
1369 2440
1359 2440
1349 2440
1339 2440
1329 2440
1319 2440
1310 2445
1300 2445
1290 2450
1280 2455
1270 2460
1261 2465
1252 2470
1242 2474
1232 2474
1222 2475
1213 2470
1203 2470
1194 2465
1186 2459
1177 2454
1169 2447
1162 2439
1154 2432
1147 2424
1139 2417
1132 2409
1127 2400
1120 2392
1115 2383
1109 2375
1104 2366
1099 2357
1095 2347
1090 2338
1086 2328
1081 2319
1077 2309
1072 2300
1069 2290
1064 2281
1064 2271
1059 2262
1054 2253
1050 2243
1049 2233
1044 2224
1041 2214
1039 2204
1034 2195
1032 2185
1029 2175
1029 2165
1024 2156
1019 2147
1019 2137
1019 2127
1014 2118
1014 2108
1009 2099
1009 2089
1004 2080
1004 2070
1002 2060
999 2050
999 2040
997 2030
994 2020
994 2010
992 2000
989 1990
989 1980
989 1970
989 1960
984 1951
984 1941
984 1931
984 1921
984 1911
979 1887
979 1872
979 1862
979 1852
979 1842
979 1832
979 1822
979 1812
979 1802
979 1792
984 1767
984 1757
984 1747
984 1737
989 1712
989 1702
989 1692
994 1677
994 1667
999 1657
999 1647
999 1637
1004 1627
1004 1617
1009 1602
1014 1582
1019 1572
1019 1562
1024 1547
1029 1532
1034 1517
1039 1502
1044 1492
1049 1477
1057 1469
1059 1457
1067 1449
1069 1437
1074 1427
1079 1417
1084 1407
1092 1399
1097 1389
1102 1379
1109 1367
1117 1359
1122 1349
1127 1339
1135 1331
1140 1321
1148 1314
1154 1302
1162 1294
1167 1284
1175 1276
1183 1269
1189 1257
1197 1249
1204 1237
1212 1229
1220 1221
1228 1214
1232 1204
1240 1196
1248 1189
1254 1177
1262 1169
1267 1159
1275 1151
1280 1141
1285 1131
1293 1124
1299 1112
1304 1102
1309 1092
1317 1084
1322 1074
1327 1064
1332 1054
1325 1042
1315 1040
1305 1040
1296 1035
1286 1035
1276 1035
1267 1030
1257 1030
1247 1030
1238 1025
1228 1025
1218 1025
1209 1020
1199 1020
1189 1020
1179 1020
1169 1017
1159 1015
1149 1015
1139 1015
1129 1015
1120 1010
1110 1010
1100 1010
1090 1010
1080 1010
1070 1010
1061 1005
1051 1005
1041 1005
1031 1005
1021 1005
1011 1005
1001 1005
991 1005
982 1000
972 1004
962 1005
953 1000
944 1005
935 1000
925 1000
915 1000
905 1000
895 1000
885 1000
875 1000
865 1000
855 1000
845 1000
835 1000
825 1000
815 1000
805 1000
795 997
785 995
775 997
765 995
755 995
745 995
735 995
726 990
716 990
706 990
696 990
686 988
676 985
666 985
656 983
650 975
641 970
631 968
621 965
611 963
601 960
591 960
581 960
571 960
561 960
551 960
541 960
531 960
522 965
514 972
504 975
494 977
486 985
477 990
469 997
459 1002
451 1010
441 1010
432 1015
422 1015
412 1015
402 1019
392 1019
382 1015
372 1015
363 1010
355 1003
348 995
339 990
334 981
329 972
329 962
329 952
329 942
329 932
334 922
342 914
347 904
355 896
363 889
372 880
369 870
364 861
359 852
354 843
350 833
349 823
344 814
341 804
339 794
336 784
334 774
329 765
329 755
327 745
324 735
324 725
324 715
319 706
319 696
319 686
314 652
314 642
314 632
314 622
314 612
314 602
314 592
314 582
314 572
