264 1281
259 1272
267 1264
275 1256
283 1249
290 1241
298 1234
307 1229
314 1217
324 1212
332 1204
341 1199
349 1192
357 1184
365 1176
375 1171
383 1164
392 1159
401 1154
409 1147
419 1142
427 1134
437 1129
446 1124
455 1119
464 1114
473 1109
482 1104
492 1099
502 1094
512 1089
522 1084
532 1079
542 1074
552 1074
561 1069
570 1064
580 1061
590 1059
599 1054
609 1052
619 1049
628 1044
638 1044
647 1039
657 1039
667 1034
677 1034
687 1034
684 1023
677 1015
674 1005
666 998
661 989
657 979
652 970
649 960
644 951
639 942
634 933
629 924
624 915
619 906
614 897
614 887
609 878
604 869
601 859
599 849
594 840
594 830
589 821
589 811
584 802
584 792
579 783
579 773
574 764
574 754
571 744
569 734
569 724
564 715
564 705
564 695
564 685
559 676
559 666
559 656
559 646
559 636
554 627
554 617
554 607
554 597
554 587
554 577
554 567
554 557
564 554
574 554
584 554
594 554
604 554
614 554
624 554
633 559
643 559
653 559
663 559
673 559
683 560
693 564
703 564
713 564
722 569
732 569
742 569
751 574
761 574
770 579
780 579
790 582
800 584
810 587
820 589
830 592
840 594
849 599
859 601
869 604
878 609
887 614
897 614
906 619
915 624
924 629
933 634
942 639
951 644
960 649
970 652
979 657
989 661
998 666
1005 674
1015 677
1023 684
1032 689
1034 677
1034 667
1039 657
1039 647
1044 637
1044 627
1049 612
1054 597
1059 582
1064 567
1069 557
1074 542
1079 532
1084 522
1089 512
1094 502
1099 492
1104 477
1112 469
1117 459
1122 449
1127 439
1134 427
1142 419
1147 409
1154 397
1162 389
1167 379
1174 367
1182 359
1190 351
1198 344
1202 334
1210 326
1215 316
1225 311
1230 301
1238 294
1245 286
1253 279
1260 271
1268 264
1277 259
1284 267
1292 274
1299 282
1307 289
1314 297
1320 305
1325 314
1335 317
1339 327
1347 334
1350 344
1358 350
1365 358
1373 365
1377 375
1385 382
1389 392
1395 400
1400 409
1405 418
1413 425
1417 435
1425 442
1429 452
1434 461
1438 471
1445 479
1445 489
1450 498
1455 507
1460 516
1465 525
1470 534
1475 543
1475 553
1480 562
1485 571
1488 581
1490 591
1495 600
1497 610
1500 620
1505 629
1505 639
1510 648
1510 658
1515 667
1515 677
1515 687
1525 684
1534 677
1544 672
1552 664
1562 659
1572 654
1582 649
1592 644
1602 639
1612 634
1622 629
1632 624
1642 619
1652 614
1662 614
1671 609
1680 604
1690 601
1700 599
1709 594
1719 592
1729 589
1739 587
1749 584
1759 582
1769 579
1779 577
1789 574
1799 574
1808 569
1818 569
1828 569
1837 564
1847 564
1857 564
1867 559
1877 559
1887 559
1897 559
1907 559
1917 559
1926 554
1936 554
1946 554
1956 554
1966 554
1976 554
1986 554
1995 559
1995 569
1995 579
1995 589
1995 599
1995 609
1995 619
1990 630
1990 640
1990 650
1990 660
1990 670
1985 685
1985 695
1985 705
1980 720
1980 730
1975 745
1975 755
1970 770
1970 780
1965 790
1965 800
1960 810
1960 820
1955 830
1950 845
1945 860
1940 875
1935 885
1930 900
1925 910
1920 920
1915 930
1910 940
1905 950
1900 960
1895 970
1890 980
1885 990
1878 1003
1873 1013
1865 1020
1860 1030
1870 1034
1880 1034
1889 1039
1899 1039
1908 1044
1918 1044
1927 1049
1937 1049
1946 1054
1955 1059
1965 1059
1974 1064
1984 1066
1993 1071
2003 1074
2012 1079
2021 1084
2030 1089
2040 1092
2049 1097
2059 1101
2069 1104
2077 1110
2087 1114
2096 1119
2105 1124
2113 1130
2122 1135
2130 1142
2139 1147
2147 1154
2156 1159
2165 1164
2173 1170
2182 1175
2190 1182
2197 1190
2205 1197
2214 1202
2222 1209
2231 1214
2235 1224
2244 1229
2252 1235
2260 1242
2267 1250
2275 1257
2282 1265
2290 1272
2283 1283
2275 1290
2268 1298
2260 1305
2252 1314
2244 1320
2235 1325
2229 1335
2220 1340
2213 1348
2203 1353
2195 1360
2187 1369
2179 1375
2170 1380
2160 1385
2152 1394
2142 1399
2134 1405
2125 1410
2115 1415
2108 1423
2098 1428
2088 1433
2078 1438
2070 1445
2060 1445
2050 1450
2041 1455
2032 1460
2023 1465
2014 1470
2005 1475
1995 1475
1985 1480
1975 1485
1966 1490
1956 1490
1947 1495
1937 1499
1927 1500
1918 1505
1908 1505
1899 1510
1889 1510
1880 1515
1870 1515
1860 1515
1865 1524
1870 1533
1875 1542
1882 1550
1887 1559
1890 1569
1895 1578
1900 1587
1905 1596
1910 1605
1915 1614
1920 1623
1925 1632
1929 1642
1934 1651
1935 1661
1940 1670
1945 1679
1945 1689
1950 1698
1955 1707
1955 1717
1960 1726
1960 1736
1965 1745
1965 1755
1970 1764
1970 1774
1975 1783
1975 1793
1975 1803
1980 1812
1980 1822
1984 1832
1985 1842
1985 1852
1985 1862
1990 1871
1990 1881
1990 1891
1990 1901
1990 1911
1993 1921
1995 1931
1995 1941
1995 1951
1995 1961
1995 1971
1995 1981
1991 1995
1981 1995
1971 1995
1961 1995
1951 1995
1941 1995
1931 1995
1921 1993
1911 1990
1901 1990
1891 1990
1881 1990
1871 1990
1862 1985
1852 1985
1842 1985
1832 1984
1822 1980
1812 1980
1803 1975
1793 1975
1783 1975
1774 1970
1764 1970
1755 1965
1745 1965
1736 1960
1726 1960
1717 1955
1707 1955
1698 1950
1689 1945
1679 1945
1670 1940
1661 1935
1651 1934
1642 1929
1632 1925
1623 1920
1614 1915
1605 1910
1596 1905
1587 1900
1578 1895
1569 1890
1559 1887
1550 1882
1542 1875
1533 1870
1524 1865
1515 1860
1515 1870
1510 1885
1510 1895
1505 1905
1505 1915
1500 1925
1495 1940
1490 1955
1485 1970
1480 1985
1475 1995
1470 2010
1465 2020
1460 2030
1455 2040
1450 2050
1445 2060
1443 2073
1435 2080
1430 2090
1425 2100
1418 2113
1413 2123
1405 2130
1398 2143
1393 2153
1385 2160
1378 2173
1373 2183
1365 2190
1358 2198
1350 2205
1343 2218
1335 2225
1329 2235
1320 2240
1313 2253
1305 2260
1297 2269
1289 2277
1281 2285
1272 2290
1265 2282
1257 2275
1250 2267
1242 2260
1235 2252
1229 2244
1224 2235
1214 2231
1209 2222
1202 2214
1197 2205
1190 2197
1182 2190
1175 2182
1170 2173
1164 2165
1159 2156
1154 2147
1147 2139
1142 2130
1135 2122
1130 2113
1124 2105
1119 2096
1114 2087
1110 2077
1104 2069
1101 2059
1097 2049
1092 2040
1089 2030
1084 2021
1079 2012
1074 2003
1071 1993
1066 1984
1064 1974
1059 1965
1059 1955
1054 1946
1049 1937
1049 1927
1044 1918
1044 1908
1039 1899
1039 1889
1034 1880
1034 1870
1033 1860
1024 1865
1015 1870
1005 1875
997 1884
987 1889
977 1894
967 1899
957 1904
947 1909
937 1914
927 1919
917 1924
907 1929
897 1934
887 1935
878 1940
869 1945
859 1947
849 1950
840 1955
830 1955
820 1960
810 1960
800 1965
790 1965
781 1970
771 1970
762 1975
752 1975
742 1979
732 1980
722 1980
713 1985
703 1985
693 1985
683 1988
673 1990
663 1990
653 1990
643 1990
633 1990
624 1995
614 1995
604 1995
594 1995
584 1995
574 1995
564 1995
554 1992
554 1982
554 1972
554 1962
554 1952
554 1942
554 1932
554 1922
559 1907
559 1897
559 1887
559 1877
559 1867
564 1852
564 1842
564 1832
569 1817
569 1807
574 1792
574 1782
579 1772
579 1762
584 1752
584 1742
589 1732
589 1722
594 1707
599 1692
604 1677
609 1667
614 1652
619 1642
624 1632
629 1622
634 1612
639 1602
644 1592
649 1582
654 1572
659 1562
664 1552
672 1544
677 1534
684 1522
676 1515
666 1513
656 1510
646 1508
636 1505
626 1503
616 1500
607 1495
597 1494
587 1490
578 1485
568 1485
559 1480
550 1475
540 1473
531 1468
521 1464
512 1459
502 1455
493 1450
484 1445
474 1441
466 1435
457 1430
448 1425
439 1420
430 1415
422 1409
412 1405
405 1397
395 1393
389 1385
379 1381
371 1375
362 1370
355 1362
347 1355
338 1350
330 1343
324 1335
314 1332
310 1322
300 1318
293 1310
285 1303
279 1295
271 1289
