99 1292
99 1282
104 1272
114 1262
122 1254
130 1246
135 1236
145 1231
150 1221
160 1216
168 1209
177 1204
182 1194
192 1189
202 1184
211 1179
219 1172
227 1164
235 1156
245 1151
253 1144
260 1136
269 1127
279 1122
284 1112
294 1102
302 1094
309 1077
317 1069
322 1059
327 1049
334 1032
342 1024
349 1012
357 1004
365 996
373 989
382 984
391 979
399 972
409 969
419 967
429 962
439 959
449 957
459 952
469 949
479 949
488 944
498 944
508 944
517 939
527 939
537 939
547 939
556 934
564 927
574 924
584 924
594 922
602 914
612 914
614 902
619 890
611 884
607 874
595 852
589 844
587 834
579 817
575 807
569 799
569 789
567 779
564 761
559 752
559 742
559 732
559 722
559 712
564 702
569 687
574 677
579 667
584 657
589 642
594 632
599 622
599 612
604 597
604 587
604 577
604 567
609 551
609 526
604 517
609 506
604 497
609 481
604 472
609 461
609 451
604 442
609 427
609 417
614 407
614 397
614 387
619 377
624 367
629 352
634 342
642 334
649 322
657 314
666 309
674 297
684 294
694 294
704 296
713 301
723 304
733 305
743 305
753 309
762 314
772 309
781 314
791 314
801 314
811 314
821 314
831 314
840 309
850 309
860 309
870 309
880 309
889 304
899 304
909 304
919 304
929 304
938 309
948 309
957 314
966 319
976 319
985 324
994 329
1003 334
1012 339
1021 344
1029 351
1035 360
1045 364
1050 373
1060 377
1069 382
1077 389
1084 397
1094 401
1100 409
1105 418
1115 422
1124 427
1132 434
1141 439
1151 440
1159 446
1168 451
1178 454
1188 454
1197 459
1207 459
1216 464
1226 464
1235 469
1245 472
1253 479
1263 479
1270 471
1278 464
1285 456
1293 449
1302 444
1311 439
1321 435
1331 434
1341 434
1350 429
1360 426
1370 424
1379 419
1389 419
1398 414
1407 409
1417 404
1426 399
1435 394
1444 387
1452 379
1462 374
1470 366
1480 361
1488 354
1497 349
1502 339
1512 334
1521 329
1529 322
1539 317
1547 309
1557 304
1566 299
1576 295
1586 290
1596 289
1605 284
1615 281
1625 281
1635 279
1645 276
1655 279
1665 279
1675 279
1685 279
1694 284
1704 284
1713 289
1723 289
1733 289
1743 289
1753 289
1763 289
1773 289
1782 284
1791 289
1800 284
1810 284
1820 282
1829 287
1834 296
1840 304
1850 307
1857 315
1865 322
1869 332
1877 339
1886 344
1890 354
1895 363
1900 372
1905 381
1910 390
1915 399
1915 409
1915 419
1920 428
1920 438
1920 448
1925 457
1925 467
1925 477
1925 487
1925 497
1925 507
1925 517
1925 527
1925 537
1925 547
1925 557
1925 567
1925 577
1925 587
1925 597
1925 607
1929 617
1930 627
1930 637
1935 646
1938 656
1943 665
1945 675
1950 684
1950 694
1958 700
1960 710
1965 719
1970 728
1970 738
1965 755
1965 765
1965 775
1960 790
1955 800
1953 818
1945 825
1943 838
1938 848
1930 855
1932 865
1935 875
1943 881
1950 889
1959 894
1969 896
1978 901
1985 909
1995 909
2004 914
2014 914
2024 914
2030 922
2040 924
2050 927
2060 929
2070 929
2080 932
2090 934
2100 934
2110 937
2119 942
2129 944
2138 949
2148 950
2158 954
2167 959
2176 964
2185 969
2195 972
2203 979
2210 987
2219 992
2224 1001
2230 1009
2235 1018
2243 1025
2250 1033
2250 1043
2255 1052
2260 1065
2265 1074
2273 1080
2280 1088
2285 1097
2290 1106
2296 1114
2304 1121
2310 1129
2319 1134
2325 1142
2334 1147
2342 1154
2349 1162
2357 1169
2367 1169
2374 1177
2382 1184
2391 1189
2395 1199
2405 1202
2412 1210
2420 1217
2429 1222
2437 1229
2444 1237
2452 1244
2459 1252
2460 1262
2453 1278
2445 1285
2437 1299
2429 1305
2423 1313
2413 1318
2405 1325
2397 1334
2389 1340
2380 1345
2374 1355
2365 1360
2357 1369
2349 1375
2340 1380
2330 1385
2323 1393
2315 1400
2305 1405
2295 1415
2288 1423
2280 1430
2274 1440
2265 1445
2258 1458
2253 1468
2248 1478
2240 1485
2238 1498
2230 1505
2230 1515
2223 1523
2215 1530
2208 1543
2200 1550
2193 1558
2183 1563
2175 1570
2165 1575
2156 1580
2147 1585
2137 1589
2127 1590
2118 1595
2108 1598
2098 1600
2089 1605
2079 1605
2069 1605
2060 1610
2050 1610
2040 1610
2030 1615
2020 1615
2010 1615
2002 1625
1992 1625
1982 1629
1972 1630
1962 1634
1953 1640
1943 1643
1935 1650
1935 1660
1935 1670
1940 1679
1945 1688
1950 1697
1955 1706
1960 1715
1962 1725
1970 1732
1970 1742
1974 1752
1979 1761
1980 1771
1980 1785
1985 1794
1985 1804
1985 1814
1985 1824
1980 1840
1975 1855
1970 1865
1968 1878
1960 1885
1955 1895
1955 1905
1950 1915
1950 1925
1945 1940
1945 1950
1940 1965
1940 1975
1940 1985
1940 1995
1940 2005
1940 2015
1940 2025
1940 2035
1940 2045
1935 2055
1940 2064
1935 2080
1940 2089
1935 2105
1935 2115
1935 2125
1930 2135
1930 2145
1930 2155
1925 2165
1920 2175
1915 2190
1910 2200
1903 2208
1898 2218
1890 2225
1886 2235
1877 2240
1872 2249
1864 2257
1854 2262
1844 2262
1834 2260
1825 2255
1815 2255
1805 2252
1795 2250
1785 2250
1776 2245
1766 2248
1756 2245
1746 2245
1736 2245
1727 2250
1717 2250
1707 2250
1697 2250
1687 2254
1677 2255
1667 2255
1657 2255
1647 2255
1638 2260
1629 2255
1619 2255
1609 2255
1600 2250
1590 2250
1582 2244
1572 2240
1563 2235
1554 2230
1544 2226
1536 2220
1527 2215
1520 2207
1510 2203
1503 2195
1494 2190
1486 2184
1479 2176
1471 2170
1462 2165
1455 2157
1445 2153
1439 2145
1431 2139
1422 2134
1414 2127
1405 2122
1395 2120
1387 2114
1377 2110
1367 2110
1357 2110
1348 2105
1339 2100
1329 2100
1320 2095
1310 2092
1300 2088
1293 2080
1284 2075
1274 2075
1265 2080
1255 2085
1247 2094
1237 2099
1229 2105
1219 2107
1209 2110
1200 2115
1190 2115
1180 2115
1170 2120
1160 2120
1150 2125
1140 2130
1130 2135
1122 2144
1112 2149
1104 2155
1095 2160
1085 2165
1080 2175
1071 2180
1062 2185
1057 2194
1047 2199
1039 2205
1030 2210
1022 2220
1012 2224
1004 2230
995 2235
985 2240
975 2245
965 2250
956 2255
946 2255
937 2260
927 2264
917 2264
907 2265
897 2265
887 2265
877 2264
867 2260
857 2260
847 2260
838 2255
828 2255
818 2255
809 2250
799 2250
790 2255
780 2255
770 2255
760 2255
750 2255
740 2255
731 2260
722 2265
712 2265
704 2259
699 2250
691 2244
682 2239
674 2232
669 2223
662 2215
658 2205
649 2200
644 2191
639 2182
634 2173
634 2163
627 2155
624 2145
624 2135
619 2126
619 2116
619 2106
614 2097
619 2086
619 2076
614 2067
614 2052
614 2042
619 2031
614 2022
614 2007
614 1997
614 1982
614 1972
614 1955
614 1945
614 1935
609 1926
609 1916
604 1907
604 1897
600 1887
594 1879
591 1869
587 1859
582 1850
579 1840
574 1831
569 1822
569 1812
574 1801
569 1792
574 1777
574 1767
579 1752
584 1737
589 1727
597 1709
602 1699
607 1689
612 1679
614 1669
612 1659
604 1652
595 1647
587 1640
577 1639
572 1630
562 1630
552 1630
543 1625
533 1625
524 1620
515 1615
505 1615
495 1612
485 1610
475 1610
465 1607
455 1605
445 1605
437 1599
427 1595
417 1595
407 1595
404 1585
394 1585
385 1580
375 1577
367 1570
358 1565
350 1558
343 1550
335 1543
329 1535
324 1526
319 1517
314 1508
307 1500
304 1490
299 1481
294 1472
287 1464
282 1455
275 1447
267 1440
263 1430
255 1423
248 1415
240 1408
233 1400
224 1395
215 1390
207 1384
197 1380
193 1370
184 1365
176 1359
167 1354
159 1347
152 1339
142 1335
138 1325
129 1320
121 1313
115 1305
107 1299
