524 1512
524 1522
529 1531
534 1540
537 1550
539 1560
544 1569
544 1579
544 1589
546 1599
549 1609
544 1627
539 1637
534 1647
539 1656
544 1665
549 1674
555 1682
565 1680
575 1680
584 1675
594 1675
603 1680
610 1688
620 1690
629 1695
637 1689
645 1680
654 1675
664 1675
673 1680
680 1688
690 1690
698 1683
705 1675
714 1670
723 1665
733 1665
743 1665
752 1670
762 1674
772 1675
782 1679
792 1680
802 1680
812 1680
822 1680
831 1675
841 1678
850 1683
860 1687
869 1692
879 1692
889 1687
895 1675
905 1675
915 1677
922 1685
932 1689
942 1685
951 1680
959 1672
967 1665
977 1665
987 1665
996 1670
1006 1670
1015 1675
1025 1677
1035 1680
1045 1680
1054 1685
1063 1680
1073 1678
1083 1675
1092 1680
1102 1684
1110 1690
1120 1692
1130 1690
1138 1683
1145 1675
1155 1675
1164 1680
1173 1685
1182 1690
1191 1685
1199 1677
1207 1670
1216 1665
1226 1665
1219 1677
1219 1687
1219 1697
1219 1707
1219 1717
1219 1727
1219 1737
1219 1747
1219 1757
1224 1766
1229 1775
1232 1785
1234 1795
1229 1807
1219 1814
1209 1817
1199 1822
1204 1831
1209 1840
1215 1848
1223 1855
1229 1863
1230 1873
1234 1883
1234 1893
1234 1903
1227 1919
1219 1927
1219 1937
1219 1947
1219 1957
1219 1967
1219 1977
1219 1987
1219 1997
1219 2007
1224 2016
1229 2025
1232 2035
1234 2045
1228 2059
1219 2064
1209 2064
1199 2067
1199 2077
1207 2084
1214 2092
1222 2099
1226 2109
1229 2119
1234 2128
1234 2138
1234 2148
1227 2164
1219 2172
1219 2182
1219 2192
1219 2202
1219 2212
1219 2222
1219 2232
1219 2242
1219 2252
1224 2261
1229 2270
1232 2280
1234 2290
1229 2302
1219 2309
1209 2312
1199 2317
1204 2326
1209 2335
1215 2343
1223 2350
1229 2358
1230 2368
1238 2375
1248 2375
1258 2375
1268 2375
1278 2375
1288 2375
1298 2375
1308 2375
1318 2375
1327 2380
1337 2384
1346 2389
1356 2390
1365 2385
1365 2375
1365 2365
1370 2355
1379 2350
1388 2355
1397 2360
1407 2364
1414 2372
1424 2375
1434 2375
1444 2375
1454 2372
1464 2367
1465 2357
1465 2347
1460 2338
1455 2329
1450 2320
1450 2310
1455 2300
1460 2285
1458 2275
1450 2268
1445 2259
1440 2250
1440 2240
1440 2230
1448 2223
1458 2220
1467 2214
1470 2198
1465 2189
1460 2180
1454 2172
1447 2164
1439 2157
1432 2149
1427 2140
1425 2130
1435 2130
1445 2125
1455 2125
1463 2118
1465 2107
1465 2097
1460 2088
1455 2079
1450 2070
1450 2060
1455 2050
1460 2041
1459 2031
1454 2022
1447 2014
1442 2005
1440 1995
1440 1985
1445 1975
1455 1970
1465 1970
1470 1954
1467 1944
1462 1935
1455 1927
1450 1918
1443 1910
1435 1903
1430 1894
1425 1885
1434 1880
1444 1880
1454 1877
1464 1872
1465 1862
1465 1852
1460 1843
1455 1834
1450 1825
1450 1815
1455 1805
1460 1790
1458 1780
1450 1773
1445 1764
1440 1755
1440 1745
1440 1735
1448 1728
1458 1725
1467 1719
1470 1706
1465 1697
1460 1688
1455 1679
1450 1670
1458 1663
1468 1660
1478 1660
1487 1665
1494 1673
1494 1683
1494 1693
1499 1702
1499 1712
1499 1722
1504 1731
1504 1741
1499 1757
1499 1767
1504 1776
1509 1785
1514 1794
1514 1804
1514 1814
1509 1827
1509 1837
1514 1846
1519 1855
1515 1871
1510 1881
1502 1889
1494 1897
1494 1907
1494 1917
1494 1927
1494 1937
1499 1946
1499 1956
1499 1966
1504 1975
1504 1985
1499 2002
1499 2012
1504 2021
1509 2030
1512 2040
1514 2050
1514 2060
1509 2077
1509 2087
1514 2096
1519 2105
1515 2116
1510 2126
1502 2134
1494 2142
1494 2152
1494 2162
1494 2172
1494 2182
1494 2192
1499 2201
1499 2211
1504 2220
1504 2230
1504 2240
1499 2252
1499 2262
1504 2271
1509 2280
1514 2289
1514 2299
1514 2309
1509 2322
1509 2332
1514 2341
1519 2350
1514 2367
1520 2375
1530 2375
1540 2375
1550 2375
1560 2375
1570 2375
1579 2380
1588 2385
1597 2390
1607 2389
1615 2375
1615 2365
1615 2355
1624 2350
1634 2350
1643 2355
1650 2363
1658 2370
1667 2375
1676 2380
1686 2380
1690 2370
1695 2358
1690 2349
1685 2340
1679 2332
1672 2324
1667 2315
1665 2305
1665 2295
1674 2290
1683 2285
1693 2283
1695 2270
1689 2262
1682 2254
1677 2245
1675 2235
1675 2225
1680 2210
1680 2200
1680 2190
1685 2175
1690 2164
1690 2154
1685 2145
1685 2135
1690 2120
1690 2104
1687 2094
1679 2087
1675 2077
1667 2070
1665 2060
1665 2050
1673 2043
1683 2040
1692 2034
1690 2017
1685 2008
1680 1999
1675 1990
1675 1980
1680 1965
1680 1955
1680 1945
1685 1930
1690 1919
1690 1909
1685 1900
1685 1890
1690 1875
1695 1863
1690 1854
1685 1845
1679 1837
1672 1829
1667 1820
1665 1810
1665 1800
1674 1795
1683 1790
1693 1788
1695 1775
1689 1767
1682 1759
1677 1750
1675 1740
1675 1730
1680 1715
1680 1705
1680 1695
1685 1685
1693 1678
1700 1670
1710 1665
1720 1665
1730 1665
1739 1670
1749 1670
1758 1675
1768 1675
1777 1680
1787 1680
1797 1684
1807 1680
1817 1679
1827 1675
1836 1680
1845 1685
1854 1690
1863 1695
1872 1690
1881 1685
1885 1675
1895 1675
1905 1677
1912 1685
1922 1689
1932 1685
1941 1680
1949 1672
1957 1665
1967 1665
1977 1665
1986 1670
1996 1670
2005 1675
2015 1677
2025 1680
2035 1680
2044 1685
2053 1680
2063 1678
2073 1675
2082 1680
2092 1684
2100 1690
2110 1692
2120 1690
2128 1683
2135 1675
2145 1675
2154 1680
2163 1685
2172 1690
2181 1685
2189 1677
2197 1670
2206 1665
2216 1665
2226 1665
2235 1670
2245 1672
2255 1675
2265 1677
2275 1680
2285 1680
2295 1680
2305 1680
2315 1675
2325 1677
2334 1682
2344 1685
2353 1690
2350 1675
2350 1665
2360 1665
2369 1670
2379 1670
2385 1662
2380 1653
2380 1643
2375 1634
2370 1625
2367 1615
2365 1605
2365 1595
2364 1584
2354 1587
2354 1597
2349 1607
2340 1614
2331 1609
2322 1604
2314 1597
2307 1589
2298 1584
2290 1591
2282 1599
2272 1604
2263 1609
2253 1609
2243 1609
2234 1604
2224 1601
2214 1597
2205 1592
2195 1589
2186 1584
2177 1579
2167 1584
2158 1589
2149 1594
2139 1592
2132 1584
2122 1584
2112 1584
2104 1592
2104 1602
2097 1614
2087 1614
2079 1607
2072 1599
2064 1592
2055 1587
2045 1586
2038 1594
2030 1601
2020 1606
2010 1609
2000 1609
1991 1604
1981 1604
1972 1599
1963 1594
1954 1589
1945 1584
1935 1582
1925 1581
1915 1586
1907 1594
1897 1594
1888 1589
1879 1584
1869 1584
1859 1587
1859 1597
1854 1607
1845 1614
1836 1609
1827 1604
1819 1597
1812 1589
1803 1584
1795 1591
1787 1599
1777 1604
1768 1609
1758 1609
1748 1609
1739 1604
1729 1601
1719 1597
1710 1592
1700 1589
1691 1584
1682 1579
1672 1584
1667 1575
1665 1565
1665 1555
1673 1548
1683 1545
1692 1540
1700 1533
1695 1524
1690 1515
1700 1515
1710 1515
1720 1515
1730 1517
1739 1522
1747 1529
1756 1534
1766 1535
1775 1530
1780 1514
1780 1504
1775 1495
1775 1485
1785 1485
1795 1487
1802 1495
1812 1499
1819 1507
1827 1514
1834 1522
1844 1525
1854 1525
1864 1525
1874 1522
1884 1520
1893 1515
1903 1515
1913 1515
1923 1515
1933 1515
1943 1515
1953 1515
1963 1515
1973 1515
1982 1520
1991 1525
2000 1530
2009 1535
2019 1535
2027 1529
2030 1514
2025 1505
2025 1495
2025 1485
2035 1485
2045 1487
2052 1495
2060 1502
2067 1510
2075 1517
2084 1522
2094 1525
2104 1525
2114 1525
2124 1522
2134 1520
2143 1515
2153 1515
2163 1515
2173 1515
2183 1515
2193 1515
2203 1515
2213 1515
2223 1515
2232 1520
2240 1527
2249 1532
2259 1535
2269 1532
2275 1524
2275 1514
2275 1504
2270 1495
2270 1485
2280 1485
2290 1487
2297 1495
2307 1499
2314 1507
2322 1514
2329 1522
2339 1525
2349 1525
2359 1522
2360 1509
2355 1500
2355 1490
2355 1480
2360 1465
2360 1449
2357 1439
2352 1430
2350 1420
2360 1420
2370 1422
2380 1420
2380 1402
2375 1393
2370 1384
2370 1374
2365 1365
2365 1355
2365 1345
2370 1333
2365 1324
2365 1314
2360 1305
2360 1295
2365 1279
2362 1269
2357 1260
2355 1250
2355 1240
2355 1230
2360 1219
2353 1211
2344 1206
2334 1204
2325 1199
2315 1199
2306 1204
2296 1204
2287 1199
2277 1199
2267 1199
2259 1207
2264 1216
2264 1226
2260 1239
2250 1237
2240 1233
2233 1225
2225 1218
2218 1210
2208 1209
2198 1209
2190 1216
2180 1221
2170 1224
2161 1219
2151 1219
2141 1215
2131 1219
2122 1214
2112 1214
2102 1210
2093 1205
2083 1204
2074 1199
2064 1202
2054 1204
2044 1201
2034 1199
2024 1199
2014 1202
2014 1212
2019 1221
2014 1239
2004 1239
1995 1234
1988 1226
1979 1221
1971 1214
1962 1209
1952 1209
1942 1214
1933 1219
1924 1224
1915 1219
1905 1219
1896 1214
1887 1219
1877 1219
1868 1214
1858 1211
1849 1206
1839 1204
1830 1199
1820 1199
1811 1204
1801 1204
1792 1199
1782 1199
1772 1199
1764 1207
1769 1216
1769 1226
1765 1239
1755 1237
1745 1233
1738 1225
1730 1218
1723 1210
1713 1209
1703 1209
1695 1216
1685 1219
1680 1210
1680 1200
1685 1185
1690 1174
1690 1164
1685 1155
1685 1145
1690 1130
1690 1114
1687 1104
1679 1097
1675 1087
1667 1080
1665 1070
1665 1060
1673 1053
1683 1050
1692 1044
1690 1027
1685 1018
1680 1009
1675 1000
1675 990
1680 975
1680 965
1680 955
1685 940
1690 929
1690 919
1685 910
1685 900
1690 885
1695 873
1690 864
1685 855
1679 847
1672 839
1667 830
1665 820
1665 810
1674 805
1683 800
1693 798
1695 785
1689 777
1682 769
1677 760
1675 750
1675 740
1680 725
1680 715
1680 705
1685 690
1690 679
1690 669
1685 660
1685 650
1690 635
1690 619
1687 609
1679 602
1675 592
1667 585
1665 575
1665 565
1673 558
1683 555
1692 549
1695 538
1690 529
1683 521
1674 516
1664 514
1654 514
1644 514
1634 517
1624 519
1615 524
1605 524
1595 524
1585 522
1577 515
1568 510
1560 503
1553 495
1545 489
1536 484
1527 489
1519 497
1524 506
1524 516
1524 532
1515 539
1506 534
1497 529
1487 525
1479 519
1470 514
1460 514
1450 516
1440 519
1431 514
1421 514
1411 514
1401 514
1391 514
1382 519
1372 519
1364 527
1364 537
1364 547
1364 557
1364 567
1369 576
1369 586
1369 596
1369 606
1369 616
1369 626
1374 635
1379 644
1381 654
1379 664
1369 664
1359 664
1349 667
1349 677
1354 686
1359 695
1364 704
1364 714
1364 724
1359 737
1354 752
1359 761
1364 770
1364 780
1364 790
1364 800
1364 810
1369 819
1369 829
1369 839
1369 849
1369 859
1369 869
1374 878
1375 888
1380 897
1384 907
1376 914
1367 909
1357 909
1349 917
1349 927
1354 936
1359 945
1364 954
1364 964
1364 974
1359 987
1354 997
1359 1006
1359 1016
1364 1025
1364 1035
1364 1045
1364 1055
1367 1065
1369 1075
1369 1085
1369 1095
1369 1105
1369 1115
1372 1125
1377 1134
1379 1144
1379 1159
1369 1159
1359 1159
1349 1162
1349 1172
1354 1181
1359 1190
1364 1199
1357 1209
1348 1204
1340 1197
1332 1190
1328 1180
1320 1173
1315 1164
1315 1154
1315 1144
1315 1134
1315 1124
1315 1114
1310 1105
1310 1095
1310 1085
1315 1075
1315 1065
1320 1055
1325 1037
1320 1028
1315 1019
1310 1010
1304 1002
1297 994
1292 985
1290 975
1290 965
1299 960
1309 960
1318 965
1328 965
1337 959
1337 949
1332 940
1325 932
1320 923
1315 914
1315 904
1315 894
1315 884
1315 874
1315 864
1310 855
1310 845
1310 835
1315 820
1320 805
1325 796
1325 786
1320 777
1315 768
1308 760
1300 753
1295 744
1290 735
1290 725
1290 715
1300 715
1310 715
1320 715
1329 720
1337 714
1340 702
1332 695
1328 685
1320 678
1315 669
1315 659
1315 649
1315 639
1315 629
1315 619
1310 610
1310 600
1310 590
1315 580
1315 570
1320 560
1325 550
1325 540
1320 531
1315 522
1310 513
1303 505
1295 499
1291 489
1282 484
1274 492
1274 502
1274 512
1279 521
1277 534
1268 539
1258 536
1249 531
1241 524
1232 519
1219 517
1224 526
1224 536
1229 545
1234 554
1234 564
1228 574
1219 579
1209 579
1199 582
1199 592
1207 599
1214 607
1222 614
1226 624
1229 634
1234 643
1234 653
1234 663
1227 679
1219 687
1219 697
1219 707
1219 717
1219 727
1219 737
1219 747
1219 757
1219 767
1224 776
1229 785
1232 795
1234 805
1229 817
1219 824
1209 827
1199 832
1204 841
1209 850
1215 858
1223 865
1229 873
1230 883
1234 893
1234 903
1234 913
1227 929
1219 937
1219 947
1219 957
1219 967
1219 977
1219 987
1219 997
1219 1007
1219 1017
1224 1026
1229 1035
1232 1045
1234 1055
1228 1069
1219 1074
1209 1074
1199 1077
1199 1087
1207 1094
1214 1102
1222 1109
1226 1119
1229 1129
1234 1138
1234 1148
1234 1158
1227 1174
1219 1182
1219 1192
1217 1204
1208 1209
1200 1216
1190 1221
1180 1224
1171 1219
1161 1219
1151 1215
1141 1219
1132 1214
1122 1214
1112 1210
1103 1205
1093 1204
1084 1199
1074 1202
1064 1204
1054 1201
1044 1199
1034 1199
1024 1202
1024 1212
1029 1221
1024 1239
1014 1239
1005 1234
998 1226
989 1221
981 1214
972 1209
962 1209
952 1214
943 1219
934 1224
925 1219
915 1219
906 1214
897 1219
887 1219
878 1214
868 1211
859 1206
849 1204
840 1199
830 1199
821 1204
811 1204
802 1199
792 1199
782 1199
774 1207
779 1216
779 1226
778 1239
768 1239
759 1234
750 1229
744 1221
736 1214
727 1209
717 1209
708 1214
699 1219
690 1224
680 1222
670 1219
660 1217
650 1219
640 1219
631 1214
621 1214
612 1209
603 1204
593 1200
583 1199
574 1204
564 1207
563 1219
554 1224
544 1221
534 1222
534 1232
529 1242
529 1252
524 1267
529 1276
529 1286
534 1295
537 1305
539 1315
544 1324
544 1334
550 1342
560 1345
570 1345
579 1350
588 1355
598 1355
607 1350
616 1345
625 1340
635 1340
644 1345
653 1350
660 1358
670 1362
679 1367
689 1365
699 1362
709 1357
719 1355
729 1355
735 1345
740 1335
749 1330
759 1330
768 1335
778 1335
787 1340
797 1344
807 1345
817 1345
826 1350
836 1353
846 1355
855 1350
864 1345
873 1340
883 1340
892 1345
900 1352
909 1357
917 1364
927 1365
937 1365
946 1360
955 1355
965 1355
975 1355
985 1350
985 1340
990 1330
1000 1330
1010 1330
1019 1335
1028 1340
1038 1340
1047 1345
1057 1345
1067 1345
1076 1350
1085 1355
1095 1355
1104 1350
1112 1344
1122 1340
1132 1340
1140 1347
1149 1352
1157 1359
1166 1364
1176 1368
1186 1365
1195 1360
1205 1355
1214 1360
1217 1370
1219 1380
1214 1392
1209 1402
1209 1412
1208 1429
1198 1429
1188 1425
1178 1424
1169 1419
1159 1416
1149 1417
1139 1422
1131 1429
1121 1429
1111 1429
1102 1424
1093 1419
1083 1415
1073 1414
1064 1419
1056 1425
1046 1429
1037 1424
1028 1419
1018 1419
1010 1426
1002 1434
993 1439
983 1439
974 1434
964 1431
954 1429
944 1429
935 1424
925 1422
915 1419
906 1414
897 1419
887 1424
878 1429
868 1429
859 1424
849 1422
840 1417
830 1414
820 1416
812 1424
803 1429
794 1424
785 1419
775 1419
765 1421
760 1431
753 1439
743 1439
733 1435
723 1434
714 1429
704 1429
694 1426
684 1424
675 1419
665 1417
655 1416
645 1421
638 1429
628 1429
618 1429
609 1424
600 1419
590 1417
580 1414
571 1419
562 1424
559 1441
564 1450
559 1467
549 1469
539 1469
529 1472
529 1482
529 1492
529 1502
