115 1295
109 1287
117 1279
122 1269
130 1261
138 1254
147 1249
155 1241
163 1234
172 1229
181 1224
190 1219
199 1212
209 1207
217 1199
227 1194
237 1194
246 1189
255 1184
264 1177
274 1172
284 1167
294 1162
304 1157
314 1152
322 1144
332 1139
341 1134
349 1127
359 1122
367 1114
375 1106
383 1099
387 1089
395 1081
400 1071
408 1064
412 1054
420 1046
428 1039
435 1031
445 1026
453 1019
462 1014
472 1009
482 1009
492 1004
502 1004
512 1004
521 999
531 999
541 999
551 995
561 994
571 994
581 994
591 994
601 994
611 994
621 994
631 994
641 994
651 994
661 994
671 994
681 994
690 989
700 989
710 989
720 989
730 986
740 984
744 974
741 964
734 956
729 947
722 939
717 930
710 922
702 915
698 905
690 898
686 888
681 879
674 871
669 862
664 853
660 843
654 835
652 825
649 815
644 806
644 796
644 786
639 777
644 762
644 752
649 737
654 722
659 707
659 697
664 683
664 673
664 663
664 653
660 643
659 633
659 623
659 613
659 603
654 594
654 584
651 574
649 564
649 554
644 545
644 535
644 525
639 516
639 506
639 496
639 486
634 477
634 467
634 457
634 447
634 437
634 427
634 417
634 407
639 397
639 387
644 372
649 362
654 352
659 342
667 334
675 326
683 319
687 309
697 309
706 314
715 319
725 322
734 327
744 329
753 334
762 339
772 339
781 344
790 349
800 349
810 352
820 354
830 354
840 354
850 354
860 354
870 354
880 354
890 354
900 354
910 354
920 354
930 354
939 359
949 359
958 364
967 369
976 374
985 379
994 384
1002 390
1010 397
1019 402
1027 409
1034 417
1042 424
1049 432
1057 439
1060 449
1070 452
1075 461
1081 469
1089 476
1095 484
1100 493
1108 500
1115 508
1120 517
1129 522
1134 531
1140 539
1148 545
1155 553
1163 560
1172 565
1180 572
1188 579
1198 580
1207 585
1217 589
1226 594
1235 599
1244 604
1252 610
1262 614
1272 609
1277 599
1282 589
1290 581
1298 574
1305 566
1315 561
1325 556
1335 554
1344 549
1353 544
1362 539
1372 534
1382 529
1391 524
1399 517
1407 509
1415 501
1423 494
1429 482
1439 472
1447 464
1455 456
1463 449
1467 439
1477 434
1482 424
1490 416
1498 409
1505 401
1513 394
1520 386
1528 379
1537 374
1542 364
1551 359
1559 352
1569 347
1579 342
1587 334
1597 334
1606 329
1615 324
1625 324
1634 319
1644 319
1654 319
1664 319
1674 321
1684 324
1694 324
1704 324
1714 324
1724 324
1734 324
1743 319
1753 319
1763 319
1772 314
1782 314
1791 309
1801 305
1811 304
1819 311
1823 321
1830 329
1838 335
1845 343
1850 352
1857 360
1865 367
1870 376
1875 385
1880 394
1880 404
1885 413
1890 422
1890 432
1890 442
1890 452
1890 462
1890 472
1890 482
1890 492
1890 502
1890 512
1885 525
1885 535
1885 545
1880 555
1880 565
1875 580
1875 590
1870 605
1870 615
1865 630
1865 640
1865 650
1860 660
1860 670
1860 680
1860 690
1860 700
1860 710
1860 720
1862 730
1865 740
1865 750
1870 759
1870 769
1875 778
1875 788
1880 797
1875 815
1870 830
1865 845
1863 858
1855 865
1850 875
1845 885
1838 898
1833 908
1825 915
1818 928
1810 935
1810 945
1815 954
1824 959
1833 964
1843 965
1853 969
1863 970
1873 974
1883 974
1893 974
1903 974
1913 975
1923 979
1933 979
1943 979
1953 979
1963 979
1973 979
1983 979
1993 979
2003 979
2013 979
2022 984
2032 984
2042 984
2052 984
2061 989
2071 989
2081 989
2090 994
2100 997
2110 999
2119 1004
2129 1006
2135 1014
2145 1017
2152 1025
2160 1032
2167 1040
2175 1047
2180 1056
2185 1065
2190 1074
2195 1083
2203 1090
2210 1098
2218 1105
2225 1113
2233 1120
2240 1128
2250 1132
2258 1139
2267 1144
2276 1149
2285 1154
2294 1159
2302 1165
2312 1169
2321 1174
2330 1179
2340 1182
2348 1189
2357 1194
2366 1199
2375 1204
2384 1209
2392 1215
2402 1219
2409 1227
2419 1231
2425 1239
2435 1242
2442 1250
2445 1260
2443 1273
2435 1280
2428 1288
2420 1295
2412 1304
2402 1309
2394 1315
2385 1320
2375 1325
2367 1334
2357 1339
2347 1344
2338 1350
2329 1355
2320 1360
2310 1365
2301 1370
2292 1375
2283 1380
2274 1385
2265 1390
2255 1395
2245 1400
2235 1405
2228 1413
2218 1418
2210 1425
2200 1430
2193 1438
2185 1445
2178 1453
2173 1463
2165 1470
2158 1483
2150 1490
2145 1500
2138 1508
2130 1515
2122 1524
2112 1529
2104 1535
2094 1537
2084 1542
2074 1545
2065 1550
2055 1550
2045 1550
2035 1555
2025 1555
2015 1555
2005 1555
1995 1560
1985 1560
1975 1560
1965 1560
1955 1560
1945 1560
1935 1560
1925 1560
1915 1560
1905 1560
1895 1560
1885 1560
1875 1565
1865 1565
1855 1565
1845 1565
1835 1565
1825 1570
1815 1570
1805 1575
1805 1585
1810 1594
1815 1603
1820 1612
1829 1617
1834 1626
1840 1634
1845 1643
1853 1650
1857 1660
1862 1669
1865 1679
1870 1688
1878 1695
1882 1705
1885 1715
1890 1724
1890 1734
1895 1743
1895 1753
1895 1770
1895 1780
1890 1795
1885 1810
1880 1825
1880 1835
1880 1845
1880 1855
1880 1865
1880 1875
1880 1885
1880 1895
1880 1905
1880 1915
1880 1925
1885 1934
1885 1944
1885 1954
1890 1963
1890 1973
1895 1982
1895 1992
1895 2002
1899 2012
1900 2022
1900 2032
1904 2042
1905 2052
1905 2062
1905 2072
1905 2082
1905 2092
1905 2102
1905 2112
1905 2122
1905 2132
1900 2145
1898 2163
1893 2173
1888 2183
1883 2193
1875 2200
1868 2213
1860 2220
1854 2232
1846 2240
1836 2240
1826 2239
1817 2234
1807 2230
1798 2225
1789 2220
1779 2220
1770 2215
1761 2210
1751 2210
1742 2205
1732 2205
1722 2205
1712 2205
1702 2205
1692 2205
1682 2205
1672 2205
1662 2205
1652 2205
1642 2205
1632 2205
1622 2205
1612 2205
1603 2200
1594 2195
1584 2192
1575 2187
1565 2183
1559 2175
1549 2172
1542 2164
1534 2157
1525 2152
1517 2145
1510 2137
1504 2129
1499 2120
1489 2116
1484 2107
1477 2099
1469 2092
1462 2084
1457 2075
1450 2067
1442 2060
1435 2052
1427 2045
1423 2035
1415 2028
1408 2020
1400 2013
1394 2005
1386 1999
1377 1994
1369 1987
1360 1982
1350 1980
1341 1975
1332 1970
1322 1970
1315 1962
1305 1958
1298 1950
1290 1943
1284 1935
1274 1935
1268 1943
1260 1950
1253 1958
1245 1965
1237 1974
1227 1979
1217 1984
1207 1989
1197 1990
1188 1995
1179 2000
1170 2005
1160 2010
1153 2018
1145 2025
1138 2033
1130 2040
1123 2048
1115 2055
1109 2065
1103 2073
1095 2080
1088 2088
1080 2095
1075 2105
1068 2113
1060 2120
1052 2129
1047 2139
1039 2145
1030 2150
1020 2160
1013 2168
1005 2175
995 2180
987 2189
978 2195
969 2200
960 2205
950 2205
941 2210
932 2215
922 2215
912 2215
903 2220
894 2215
884 2215
874 2215
864 2215
854 2215
844 2215
834 2215
824 2215
814 2215
805 2220
795 2220
785 2220
775 2225
765 2225
755 2230
746 2235
737 2240
727 2244
719 2238
713 2230
705 2223
698 2215
690 2208
684 2200
679 2191
674 2182
669 2173
664 2164
659 2155
654 2146
654 2136
654 2126
649 2117
649 2107
649 2097
649 2087
649 2077
649 2067
649 2057
654 2042
654 2032
654 2022
659 2012
659 2002
659 1992
664 1977
664 1967
669 1952
669 1942
674 1932
674 1922
674 1912
679 1903
679 1893
679 1883
679 1873
679 1863
679 1853
679 1843
679 1833
679 1823
674 1814
674 1804
669 1795
669 1785
664 1776
664 1766
659 1757
659 1747
664 1737
664 1727
669 1712
674 1702
679 1692
684 1682
689 1672
697 1664
702 1654
707 1644
714 1632
724 1622
729 1612
737 1604
739 1593
732 1585
723 1580
714 1575
704 1575
695 1570
685 1570
675 1570
665 1570
655 1570
646 1565
636 1565
626 1565
616 1565
606 1565
596 1565
586 1565
576 1565
566 1565
556 1565
546 1565
537 1560
527 1560
517 1560
507 1560
497 1559
487 1555
477 1555
468 1550
458 1550
449 1545
440 1540
431 1535
422 1530
413 1525
405 1518
399 1510
391 1503
386 1494
379 1486
374 1477
367 1469
362 1460
355 1452
347 1445
340 1437
332 1430
324 1423
315 1418
308 1410
299 1405
290 1400
281 1395
272 1390
263 1385
254 1380
244 1377
235 1372
227 1365
218 1360
209 1355
200 1350
190 1347
180 1343
173 1335
164 1330
155 1325
147 1319
137 1315
133 1305
124 1300
