297 754
297 744
303 736
312 731
322 728
332 724
342 720
352 719
361 724
369 731
379 733
389 733
399 730
409 727
419 725
429 721
439 719
449 714
459 710
469 707
479 705
489 702
499 698
509 698
519 694
529 694
537 688
547 688
557 684
567 682
577 680
587 679
597 678
607 677
617 676
627 676
637 675
647 676
657 674
667 674
677 675
687 674
697 676
707 676
717 673
727 672
737 673
747 671
757 670
767 668
776 663
785 657
791 649
799 643
799 633
802 620
810 614
820 611
830 609
840 607
850 608
855 617
858 627
868 624
878 622
888 619
898 618
908 617
918 620
928 620
938 615
948 615
958 614
968 612
978 613
988 609
998 608
1008 609
1018 606
1028 606
1038 605
1048 602
1058 603
1068 600
1078 599
1088 600
1098 597
1108 597
1118 597
1128 594
1138 595
1148 594
1158 593
1168 594
1178 593
1188 594
1198 595
1208 594
1218 597
1228 596
1238 596
1248 598
1258 599
1268 602
1272 613
1262 618
1252 623
1242 628
1232 633
1223 638
1213 642
1203 647
1193 652
1183 657
1174 662
1164 666
1154 671
1144 676
1134 680
1124 682
1114 683
1104 685
1094 687
1084 688
1074 690
1064 691
1054 693
1044 695
1034 697
1024 698
1014 700
1004 702
994 703
984 705
974 707
964 708
954 710
944 712
934 713
924 715
914 717
904 719
894 720
884 720
878 728
870 734
860 734
850 736
840 735
830 734
820 736
810 737
800 739
790 739
780 741
770 743
760 745
750 747
740 749
730 752
720 755
710 757
700 760
690 763
680 764
670 764
660 767
650 768
640 770
630 774
621 779
611 781
601 782
591 783
581 786
572 791
562 792
552 795
542 796
532 797
522 800
512 804
502 807
492 811
483 816
473 817
463 820
453 819
444 824
434 824
424 825
414 827
404 829
394 829
384 830
374 832
364 833
354 833
344 834
334 834
324 834
314 834
311 824
309 814
307 804
304 794
302 784
302 774
301 764
