19 222
24 235
33 240
42 245
50 252
57 260
65 267
72 275
79 283
84 292
92 299
99 307
107 314
115 320
121 328
130 333
138 340
145 348
153 355
157 365
165 372
172 380
179 388
184 397
189 406
196 414
204 420
213 425
223 423
233 418
240 410
248 403
255 395
263 388
268 378
275 370
283 363
290 355
298 348
303 338
310 325
315 315
320 305
320 295
320 285
320 275
320 265
328 258
335 250
345 245
354 240
364 237
374 235
384 235
394 235
404 235
414 235
424 235
434 235
444 235
453 230
463 230
473 230
483 230
493 230
503 230
513 230
522 235
532 235
542 235
552 235
562 235
572 235
581 230
591 230
601 230
611 230
621 230
620 219
610 219
600 219
590 219
580 217
570 214
560 214
550 214
540 214
530 214
520 214
510 214
500 212
490 214
481 209
471 209
461 209
451 210
441 209
431 209
421 209
412 204
402 204
392 204
382 204
372 204
362 200
353 195
345 188
338 180
328 179
319 174
310 169
305 160
305 150
305 140
310 130
305 121
304 111
299 102
295 92
285 89
281 79
272 74
264 67
255 62
250 53
243 45
235 38
228 30
220 23
213 15
203 14
195 21
188 29
180 36
175 46
167 54
159 62
152 74
147 84
139 92
129 102
124 112
115 121
107 129
103 139
95 146
87 154
82 164
74 172
68 184
60 191
53 199
45 206
38 214
29 219
