89 202
89 192
94 182
94 172
104 167
104 157
109 142
119 137
124 127
134 122
139 112
149 107
154 97
164 94
173 89
183 89
192 84
202 84
207 74
217 74
227 74
236 69
246 69
251 60
261 59
271 59
281 59
290 54
300 54
310 54
320 54
330 54
340 54
346 45
356 44
366 44
376 44
386 44
395 49
404 54
414 54
424 54
434 54
444 56
454 59
464 59
474 59
484 61
490 69
500 69
509 74
519 74
525 82
535 84
545 84
554 89
564 91
574 94
580 102
590 104
598 110
603 119
610 127
614 137
620 145
625 154
630 163
635 172
635 182
642 190
645 200
645 210
635 215
635 225
635 235
630 245
624 255
618 263
610 270
604 280
595 285
589 295
580 300
570 300
564 310
554 312
549 322
539 325
530 330
520 330
510 340
500 340
490 340
480 345
470 345
460 350
455 365
455 375
455 385
455 395
455 405
445 410
445 420
445 430
445 440
440 455
432 470
424 464
422 454
417 445
409 439
406 429
397 424
389 417
389 407
380 402
375 393
374 383
365 378
359 370
359 360
349 360
339 360
329 356
321 350
311 350
301 350
291 350
281 348
271 345
261 345
251 345
242 340
232 340
222 339
217 330
207 329
197 325
187 325
183 315
173 315
164 310
154 306
146 300
137 295
134 285
124 281
119 272
112 264
107 255
104 245
94 241
94 231
94 221
89 212
