274 487
274 477
282 469
292 464
302 459
310 451
318 444
327 439
335 431
345 426
353 419
362 414
370 406
380 401
390 396
400 391
408 384
415 376
425 371
433 364
442 359
451 354
460 349
469 344
478 339
484 325
484 315
479 306
471 300
461 300
451 300
442 295
432 295
422 295
412 295
402 295
392 294
382 290
372 289
362 285
354 279
366 275
376 270
384 257
392 249
401 244
409 237
419 232
427 224
435 216
443 209
447 199
455 191
463 184
467 174
476 169
484 162
489 152
497 144
507 139
515 131
523 124
532 119
539 107
547 99
554 87
559 77
567 69
575 61
583 54
589 42
599 46
605 54
610 63
618 70
625 78
633 85
640 93
648 100
657 105
665 112
673 119
682 124
689 132
697 139
706 144
715 149
725 152
732 160
742 164
749 172
757 179
766 184
775 189
783 195
790 203
798 209
807 214
816 219
825 224
835 227
844 232
854 234
864 234
870 242
873 255
863 258
853 260
843 260
833 260
824 265
814 265
804 265
794 265
785 270
775 270
765 270
755 270
748 278
740 285
740 295
740 305
745 314
753 320
760 328
768 335
775 343
785 347
792 355
800 362
810 364
819 369
827 375
837 379
844 387
852 394
861 399
870 404
878 410
885 418
895 422
904 427
914 431
920 439
929 444
938 449
948 449
957 454
964 462
974 464
982 470
992 474
998 485
988 485
978 488
968 490
958 490
948 490
938 490
928 490
918 490
908 490
898 490
888 490
878 490
868 490
858 490
848 490
838 490
828 490
818 490
808 490
798 490
788 493
780 500
780 510
780 520
782 530
787 539
790 549
798 555
807 560
817 564
824 572
832 579
841 584
850 589
860 592
867 600
875 607
884 612
894 616
900 624
909 629
917 635
925 642
933 649
942 654
949 662
957 669
966 674
975 679
983 685
992 690
1002 694
1011 699
1003 705
994 710
984 710
974 710
964 710
955 715
945 715
935 715
925 715
915 720
905 720
895 720
885 725
875 725
866 730
856 730
846 730
836 730
826 730
817 735
807 735
798 740
788 740
778 740
768 743
758 745
748 748
738 753
730 760
730 770
730 780
725 790
725 800
725 810
725 820
725 830
725 840
727 850
732 859
735 869
735 879
740 888
740 898
745 907
745 920
750 929
750 939
755 948
760 957
764 967
770 975
775 984
775 994
780 1003
788 1010
790 1020
795 1029
800 1038
800 1048
805 1057
810 1066
813 1076
815 1086
818 1096
820 1106
820 1116
823 1126
824 1137
819 1147
811 1155
802 1160
792 1160
782 1160
772 1160
762 1160
752 1160
742 1160
732 1160
723 1155
713 1155
703 1155
693 1155
683 1155
673 1155
664 1150
654 1150
644 1150
634 1150
624 1150
614 1150
604 1150
594 1150
584 1147
577 1139
569 1132
569 1122
569 1112
569 1102
569 1092
569 1082
569 1072
569 1062
569 1052
569 1042
569 1032
574 1017
579 1001
579 991
579 981
579 971
574 962
574 952
574 942
574 932
574 922
574 912
574 902
574 892
574 882
570 872
564 864
564 854
564 844
559 835
554 826
554 816
549 807
544 798
540 788
533 780
525 773
519 765
511 758
501 755
492 750
482 750
472 750
463 745
453 745
444 740
434 740
424 740
414 740
404 740
394 740
384 740
374 740
364 740
354 740
344 740
334 740
324 737
324 727
332 719
339 707
344 697
352 689
359 677
364 667
372 659
380 651
385 641
390 631
398 624
405 616
410 606
418 599
424 587
432 579
441 574
449 567
457 559
464 547
472 539
474 525
473 515
465 508
459 500
449 500
439 500
429 500
419 500
410 495
400 495
390 495
380 495
370 495
360 495
350 495
340 495
330 495
320 495
310 495
300 495
290 495
280 495
