369 623
371 610
374 588
374 598
374 632
376 645
379 577
379 655
382 665
387 571
387 674
389 684
393 694
394 562
400 702
401 712
403 554
407 720
413 555
415 726
418 736
422 548
424 744
432 546
433 749
438 758
442 545
443 767
451 773
452 544
458 781
461 539
466 787
471 540
473 795
480 803
481 539
490 806
491 537
496 814
501 535
506 817
511 536
514 823
521 536
523 828
531 536
531 834
541 535
541 836
550 841
551 536
560 844
561 537
568 850
571 537
577 855
581 540
587 858
591 541
597 862
601 543
607 861
611 547
615 867
620 552
625 865
630 555
633 872
640 558
643 872
650 559
653 872
660 561
663 874
670 563
673 876
679 568
683 877
689 572
693 878
695 580
703 586
703 876
713 588
713 873
719 596
723 876
727 602
733 874
735 608
738 865
745 611
748 863
749 621
757 627
758 863
767 629
768 863
774 637
777 647
778 861
785 654
788 860
792 662
798 854
799 670
804 679
808 689
808 854
812 702
818 853
819 710
819 720
825 728
827 738
828 853
829 748
833 758
835 768
838 853
841 776
846 785
847 858
851 794
857 859
858 802
866 809
867 860
875 814
877 864
884 819
887 868
893 824
896 873
902 829
906 876
911 834
914 883
920 839
924 886
930 843
933 891
939 848
942 896
948 853
952 899
957 858
960 906
965 864
969 911
974 869
979 914
984 873
989 916
993 878
998 921
1002 883
1008 925
1011 888
1016 932
1020 893
1026 936
1029 898
1036 938
1039 901
1044 944
1047 907
1054 946
1056 912
1062 953
1065 917
1070 959
1075 921
1079 964
1084 926
1087 970
1094 930
1097 973
1103 935
1107 972
1113 939
1113 980
1121 987
1122 944
1129 994
1130 950
1139 996
1140 953
1149 999
1150 957
1157 1006
1160 961
1166 1011
1169 966
1176 1014
1179 969
1184 1020
1189 972
1191 1028
1198 977
1199 1034
1208 980
1208 1039
1217 985
1217 1044
1225 1050
1227 988
1233 1056
1237 992
1243 1060
1246 997
1253 1064
1256 1000
1261 1070
1266 1004
1271 1072
1275 1009
1278 1080
1285 1012
1287 1085
1295 1016
1296 1090
1305 1020
1306 1094
1314 1025
1314 1100
1324 1028
1324 1103
1329 1112
1334 1032
1338 1117
1344 1036
1348 1119
1354 1038
1356 1125
1362 1044
1364 1131
1370 1139
1372 1047
1380 1143
1381 1052
1390 1144
1391 1055
1396 1152
1401 1058
1405 1157
1410 1063
1413 1163
1420 1066
1422 1168
1430 1069
1430 1174
1438 1181
1439 1074
1448 1185
1449 1078
1458 1189
1459 1082
1466 1196
1469 1085
1476 1199
1478 1210
1479 1089
1487 1215
1489 1092
1495 1221
1499 1096
1504 1226
1509 1100
1514 1229
1519 1104
1521 1237
1529 1108
1531 1239
1539 1111
1539 1245
1548 1116
1549 1246
1558 1118
1559 1247
1567 1123
1569 1249
1577 1127
1579 1250
1586 1132
1589 1246
1595 1137
1599 1242
1601 1145
1607 1234
1610 1150
1615 1227
1616 1158
1621 1167
1621 1219
1624 1177
1626 1208
1628 1187
1629 1197
