12 269
12 279
15 289
18 260
23 295
24 252
32 245
33 298
40 239
43 297
48 233
53 295
57 228
63 292
66 223
73 288
76 220
82 283
86 216
91 278
96 213
99 271
106 212
107 264
114 256
116 209
121 248
126 204
127 240
135 232
136 200
142 224
146 196
150 218
156 192
158 212
164 186
166 206
173 181
175 200
182 175
183 194
192 170
192 188
201 165
201 183
209 177
210 160
218 154
218 172
227 166
228 150
236 161
237 144
245 156
246 139
254 151
256 135
263 146
265 129
272 141
275 125
282 137
285 122
292 133
294 117
302 132
304 113
308 103
312 131
316 95
322 132
324 89
332 134
333 83
334 94
342 78
342 88
342 136
344 105
350 72
352 90
352 135
353 118
354 107
359 66
360 84
362 130
363 101
363 120
367 59
368 78
371 95
372 114
372 125
375 53
376 72
379 89
380 108
382 118
383 47
384 66
387 83
388 102
391 41
392 60
395 77
396 96
399 33
400 53
403 71
404 90
407 27
408 47
411 64
412 84
415 21
416 39
419 58
420 77
423 14
424 32
427 50
428 70
433 26
435 44
436 64
443 38
444 57
451 32
452 50
461 44
