4 13
9 22
14 9
16 30
23 14
24 36
32 19
33 41
41 24
42 46
50 29
51 51
59 34
61 55
67 40
71 58
75 46
81 62
84 51
91 66
100 61
100 71
108 77
109 66
117 82
119 70
126 87
128 75
134 93
137 80
143 98
146 85
152 103
155 90
161 108
165 94
170 113
174 99
178 119
183 104
187 124
192 109
196 129
202 113
204 135
211 118
214 136
218 126
