202 420
202 434
204 409
205 399
205 444
210 389
210 453
217 461
218 383
224 469
228 379
232 475
238 378
239 483
248 379
248 488
256 494
258 383
264 501
268 385
273 506
277 390
281 512
287 391
289 519
296 396
297 525
305 401
306 530
315 405
316 533
324 410
325 538
332 546
334 413
342 550
343 418
350 556
352 423
359 561
361 428
369 564
371 432
377 570
381 436
386 575
391 440
395 580
399 446
404 585
409 449
413 590
418 454
423 593
428 458
432 598
437 463
440 604
446 468
450 607
456 471
459 612
466 475
469 614
476 478
477 620
484 484
487 624
493 489
495 630
503 492
505 634
512 497
514 639
522 500
524 643
532 504
533 648
541 509
543 651
551 512
553 655
560 517
562 660
570 520
572 660
580 524
581 665
589 671
590 525
598 532
598 676
608 536
608 677
616 683
618 539
625 688
628 543
635 692
638 547
645 694
648 548
654 699
657 553
664 703
667 557
674 707
677 561
684 711
687 565
694 712
697 569
702 719
707 572
712 723
717 575
722 726
727 579
730 732
737 581
740 734
746 586
750 738
756 589
758 744
766 593
768 746
776 597
777 751
786 601
787 754
796 603
796 759
806 606
806 763
816 610
816 767
826 614
826 769
835 774
836 618
844 779
846 621
854 781
856 625
864 785
866 628
873 790
876 631
883 794
886 633
893 798
896 637
902 803
906 641
912 805
916 645
920 811
926 649
930 814
936 653
940 818
946 657
950 820
956 661
959 825
965 666
969 828
975 669
979 830
984 674
987 836
994 676
997 838
1004 680
1007 839
1013 685
1015 832
1023 688
1025 829
1033 691
1035 825
1043 695
1043 819
1051 701
1053 819
1061 702
1063 816
1069 708
1073 718
1073 818
1079 726
1079 736
1079 826
1080 746
1089 735
1089 828
1097 741
1099 825
1102 775
1107 742
1109 828
1115 748
1119 829
1122 845
1125 746
1125 855
1126 758
1127 768
1134 860
1137 767
1143 865
1147 769
1153 869
1156 764
1162 874
1166 761
1172 877
1176 764
1182 880
1186 768
1191 885
1196 771
1201 888
1206 775
1211 892
1216 779
1220 897
1226 782
1230 900
1236 786
1239 905
1246 790
1249 909
1256 794
1259 913
1266 797
1269 916
1275 802
1278 921
1285 806
1288 924
1295 809
1297 929
1305 813
1307 932
1315 816
1316 937
1325 820
1326 940
1335 824
1336 944
1345 828
1346 948
1355 832
1355 953
1365 835
1365 956
1374 840
1374 961
1383 966
1384 843
1393 968
1394 846
1403 972
1404 850
1413 975
1414 853
1421 981
1423 858
1431 984
1433 862
1440 989
1443 865
1450 990
1453 869
1458 996
1463 873
1468 999
1473 876
1477 1004
1483 880
1487 1006
1493 884
1496 1011
1503 886
1506 1015
1512 891
1516 1019
1522 895
1526 1022
1532 897
1536 1026
1541 902
1545 1031
1551 905
1555 1034
1560 910
1563 1040
1570 913
1573 1043
1580 916
1582 1048
1590 919
1592 1050
1599 924
1602 1054
1609 926
1611 1059
1618 931
1621 1061
1628 933
1630 1066
1638 937
1640 1069
1647 942
1650 1072
1657 945
1659 1077
1667 949
1669 1081
1677 952
1679 1085
1687 956
1689 1089
1697 959
1699 1091
1707 962
1709 1090
1716 967
1719 1087
1726 971
1728 1082
1735 976
1736 1074
1741 1065
1743 982
1746 1056
1749 990
1751 1047
1754 999
1754 1036
1757 1009
1757 1019
