679 792
687 762
688 797
693 731
694 701
697 763
698 795
703 731
704 702
706 768
706 802
709 739
712 709
715 807
716 767
716 796
718 734
720 703
724 742
724 774
725 808
728 709
732 735
733 769
733 799
734 745
735 812
738 705
739 777
742 738
743 714
743 803
745 814
747 771
748 746
751 707
752 780
753 717
753 803
754 738
755 815
757 751
757 770
761 708
761 785
763 718
763 807
764 741
765 817
767 752
767 773
771 709
771 785
773 719
773 809
774 743
775 820
777 756
777 777
781 711
781 788
783 722
783 811
784 745
784 825
787 756
787 776
791 712
791 790
793 723
793 813
794 746
794 826
797 758
797 780
801 713
801 792
803 726
803 815
804 747
804 827
807 760
807 782
811 715
811 794
813 727
813 817
814 749
814 830
817 762
817 781
821 716
821 796
823 729
823 819
824 752
824 832
826 786
827 765
831 718
831 799
833 732
833 821
834 751
834 835
836 788
837 767
841 720
841 801
843 734
843 820
844 754
844 837
846 789
847 770
851 721
851 803
853 737
853 823
854 756
854 839
856 791
857 773
859 809
861 723
863 738
863 825
863 844
864 757
866 793
867 775
869 809
871 725
873 740
873 829
873 845
874 759
876 793
877 779
878 814
881 727
882 745
883 823
883 846
884 761
886 792
891 728
892 747
893 850
894 759
901 729
903 852
911 731
913 853
921 734
923 853
931 737
933 852
941 741
943 850
951 745
953 846
959 751
962 841
966 759
971 836
974 766
979 775
981 831
985 783
991 829
993 789
1001 829
1002 794
1010 800
1011 827
1020 803
1021 828
1030 807
1031 827
1040 810
1041 829
1050 813
1051 831
1060 815
1061 833
1070 816
1071 836
1080 818
1081 838
1090 820
1091 842
1100 822
1101 842
1110 824
1111 846
1120 826
1121 848
1130 828
1131 850
1140 830
1141 853
1150 831
1151 854
1160 833
1161 857
1170 835
1171 860
1180 837
1181 863
1190 838
1191 867
1200 840
1201 868
1210 840
1210 873
1220 843
1220 874
1230 844
1230 876
1240 846
1240 879
1250 848
1250 882
1260 849
1260 886
1270 850
1270 888
1280 851
1280 891
1290 853
1290 894
1300 854
1300 897
1310 853
1310 899
1320 857
1320 903
1330 858
1330 906
1340 860
1340 909
1350 859
1350 913
1360 860
1360 916
1370 861
1370 919
1380 862
1380 923
1390 863
1390 926
1400 863
1400 929
1410 864
1410 933
1420 865
1420 936
1429 941
1430 866
1439 941
1440 867
1449 939
1450 867
1459 936
1460 870
1467 929
1468 876
1471 917
1473 905
1474 884
1475 894
