172 734
173 744
177 754
180 726
186 759
188 719
193 767
197 714
199 775
207 715
208 780
216 786
217 715
224 793
227 715
234 796
237 716
242 803
247 717
252 806
257 717
261 811
267 717
271 814
277 719
281 817
287 719
291 820
297 719
301 822
307 719
311 825
317 720
321 829
327 720
331 830
337 721
341 831
347 721
351 833
357 722
361 835
367 722
371 835
377 723
381 837
387 723
391 837
397 724
401 839
407 724
411 839
417 724
421 840
427 725
431 839
437 725
441 840
447 726
451 840
457 727
461 840
467 727
471 840
477 728
481 840
487 729
491 839
497 728
501 839
507 730
511 840
517 731
521 840
527 733
531 838
537 735
541 838
547 737
551 837
557 738
561 836
567 741
571 835
577 743
581 835
587 744
591 835
597 746
601 834
607 748
611 834
617 749
621 833
627 751
631 834
637 752
641 833
647 754
651 833
657 755
661 833
667 756
671 832
677 758
681 833
687 759
691 833
697 761
701 832
707 762
711 833
717 763
721 833
727 764
731 833
737 766
741 833
747 766
751 832
757 767
761 832
767 767
771 833
777 768
781 836
787 768
791 835
797 769
801 835
807 769
811 836
817 770
821 836
827 770
831 837
837 770
841 837
847 770
851 840
857 769
861 839
867 771
871 839
877 771
881 840
887 771
891 841
897 771
901 842
907 772
911 843
917 772
921 843
927 772
931 845
937 773
941 845
947 774
951 846
957 774
961 847
967 774
971 848
977 774
981 848
987 775
991 849
997 775
1001 850
1007 776
1011 851
1017 776
1021 851
1027 775
1031 852
1037 775
1041 852
1047 778
1051 853
1057 778
1061 854
1067 779
1071 854
1077 779
1081 855
1087 779
1091 856
1097 779
1101 858
1107 780
1111 856
1117 780
1121 857
1127 780
1131 859
1137 779
1141 858
1147 780
1151 860
1157 780
1161 861
1167 779
1171 861
1177 780
1181 862
1187 781
1191 863
1197 781
1201 864
1207 782
1211 865
1217 782
1221 865
1227 781
1231 867
1237 780
1241 868
1247 780
1251 868
1257 780
1261 869
1267 782
1271 870
1277 783
1281 870
1287 783
1291 872
1297 783
1301 874
1307 784
1311 874
1317 785
1321 874
1327 784
1331 876
1337 784
1341 877
1347 785
1351 878
1357 786
1361 877
1367 787
1371 878
1377 786
1381 878
1387 788
1391 874
1396 793
1399 865
1403 801
1406 857
1409 809
1410 819
1412 847
1413 829
