812 378
812 388
813 398
815 368
815 408
819 418
821 360
824 427
829 353
829 436
833 446
839 350
839 454
847 461
849 352
853 469
857 358
859 477
865 485
866 363
872 371
873 491
878 379
879 499
886 386
886 507
893 515
895 391
901 399
901 521
907 407
909 527
913 415
917 534
922 420
924 542
927 429
931 550
934 437
939 557
943 442
947 563
949 450
954 571
957 457
962 578
965 464
969 586
973 470
977 592
981 477
985 598
989 484
990 607
996 492
999 612
1002 500
1007 619
1011 505
1014 627
1017 513
1022 634
1025 520
1028 642
1033 526
1037 647
1039 534
1043 655
1047 540
1051 661
1056 545
1059 668
1062 553
1066 676
1070 559
1074 682
1078 565
1081 690
1086 572
1086 699
1094 579
1096 703
1098 713
1102 585
1108 716
1109 593
1114 724
1117 599
1123 729
1124 607
1129 737
1133 612
1137 744
1141 619
1145 751
1149 625
1151 759
1155 633
1159 766
1163 639
1167 773
1171 646
1174 781
1178 654
1180 789
1186 661
1187 797
1192 669
1195 803
1200 676
1203 809
1208 683
1210 817
1216 690
1217 825
1223 698
1225 832
1231 705
1233 839
1238 713
1239 847
1245 855
1246 720
1250 864
1254 726
1260 864
1262 732
1269 740
1270 865
1276 748
1280 867
1282 756
1286 875
1291 761
1294 881
1298 769
1300 889
1306 775
1310 893
1314 782
1316 901
1322 789
1322 909
1327 798
1331 914
1335 804
1338 922
1344 809
1345 930
1353 936
1354 811
1359 944
1362 817
1367 826
1367 951
1373 959
1374 834
1381 966
1382 841
1387 974
1391 846
1397 854
1397 978
1400 988
1405 860
1408 995
1411 868
1415 1003
1419 875
1423 1009
1427 1019
1429 879
1435 887
1435 1025
1443 893
1444 1030
1449 1039
1450 901
1457 1046
1458 907
1463 1054
1466 914
1471 1061
1474 920
1478 1069
1480 928
1484 1077
1487 936
1492 1083
1496 941
1496 1093
1505 946
1506 1097
1510 955
1511 1106
1519 960
1519 1113
1524 969
1525 1121
1532 976
1533 1127
1540 983
1541 1133
1546 991
1549 1140
1552 999
1556 1148
1559 1007
1562 1156
1567 1013
1570 1162
1575 1019
1576 1170
1580 1028
1584 1176
1588 1035
1593 1181
1594 1043
1601 1188
1602 1049
1606 1059
1609 1194
1613 1067
1618 1199
1621 1073
1628 1203
1629 1079
1633 1089
1637 1208
1641 1096
1645 1214
1649 1103
1655 1111
1655 1218
1664 1116
1665 1219
1669 1125
1675 1133
1675 1222
1684 1138
1685 1224
1694 1141
1695 1151
1695 1225
1703 1158
1705 1226
1709 1166
1715 1225
1718 1171
1724 1179
1725 1224
1731 1187
1734 1219
1736 1196
1740 1206
