804 396
804 406
804 416
806 384
806 426
807 436
809 374
809 446
811 456
814 466
815 366
816 476
819 486
822 496
823 358
825 506
830 515
832 525
833 354
837 534
841 544
843 354
846 553
850 563
853 357
856 571
861 363
861 580
865 373
865 590
871 381
871 598
876 390
876 607
881 399
881 616
886 625
887 407
890 417
892 633
898 424
898 434
898 641
903 650
906 441
908 451
909 658
913 460
915 666
918 469
922 674
924 477
928 682
929 486
934 495
935 690
939 504
941 698
945 512
947 706
950 521
954 714
956 529
960 539
960 722
966 547
966 730
970 557
972 738
976 565
980 745
981 574
986 753
987 582
992 591
993 761
997 600
999 769
1002 609
1006 777
1008 617
1013 626
1014 783
1018 635
1020 791
1024 643
1028 653
1028 798
1034 661
1034 806
1039 670
1042 812
1044 679
1049 688
1050 819
1054 697
1055 828
1059 706
1062 836
1065 714
1068 724
1070 843
1073 733
1075 852
1080 741
1083 751
1083 858
1088 867
1089 759
1092 769
1094 875
1097 778
1097 788
1100 883
1105 795
1108 890
1109 805
1112 900
1113 815
1117 909
1119 823
1123 833
1123 917
1127 927
1128 842
1133 935
1134 850
1137 945
1138 860
1143 953
1144 868
1148 962
1149 877
1152 887
1154 970
1158 980
1159 895
1163 989
1165 903
1168 998
1171 911
1172 1008
1177 919
1177 1017
1182 928
1183 1025
1187 1035
1188 936
1193 1043
1195 944
1197 1053
1200 953
1202 1062
1206 961
1207 1071
1211 1081
1213 969
1216 1090
1218 978
1222 1098
1224 986
1226 1108
1231 1117
1232 993
1235 1003
1236 1126
1241 1135
1243 1009
1247 1143
1249 1017
1251 1153
1254 1026
1257 1161
1259 1035
1262 1170
1267 1179
1269 1039
1271 1189
1273 1049
1277 1197
1280 1057
1283 1067
1283 1205
1287 1215
1291 1073
1294 1223
1296 1082
1299 1232
1302 1090
1306 1240
1307 1099
1310 1250
1313 1107
1315 1259
1321 1113
1321 1267
1323 1123
1328 1275
1329 1131
1335 1139
1335 1283
1340 1148
1342 1291
1348 1155
1348 1299
1354 1163
1355 1307
1358 1173
1362 1315
1364 1181
1368 1191
1370 1322
1375 1199
1378 1209
1378 1329
1383 1218
1387 1334
1388 1227
1394 1235
1397 1334
1400 1243
1402 1253
1406 1263
1407 1333
1411 1272
1415 1282
1416 1327
1418 1296
1419 1306
1421 1316
