67 832
73 840
76 827
82 845
86 823
92 846
96 822
100 852
106 820
110 854
116 818
119 859
126 816
129 862
136 814
139 865
146 812
149 865
156 811
159 868
166 810
169 869
176 808
179 873
186 807
189 875
196 805
199 878
206 804
209 879
216 802
219 881
226 801
229 884
236 800
239 884
246 800
249 885
256 798
259 887
266 797
269 889
276 796
279 890
286 796
289 891
296 794
299 893
306 794
309 893
316 794
319 895
326 792
329 896
336 792
339 896
346 791
349 898
356 790
359 899
366 790
369 900
376 789
379 901
386 789
389 901
396 789
399 902
406 788
409 903
416 787
419 902
426 786
429 904
436 786
439 904
446 785
449 905
456 785
459 905
466 785
469 905
476 785
479 906
486 784
489 907
496 782
499 907
506 782
509 908
516 782
519 908
526 782
529 908
536 781
539 908
546 780
549 909
556 779
559 909
566 778
569 906
576 778
579 908
586 778
589 908
596 777
599 908
606 777
609 909
616 777
619 906
626 776
629 909
636 776
639 910
646 774
649 907
656 775
659 908
666 774
669 909
676 774
679 908
686 772
689 907
696 773
699 908
706 773
709 908
716 771
719 908
726 770
729 908
736 769
739 908
746 770
749 907
756 769
759 907
766 768
769 907
776 768
779 907
786 767
789 906
796 767
799 906
806 766
809 906
816 766
819 906
826 764
829 905
836 765
839 905
846 765
849 905
856 763
859 904
866 763
869 905
876 761
879 904
886 761
889 903
896 761
899 903
906 761
909 902
916 761
919 900
926 759
929 898
936 760
939 894
946 759
949 892
956 758
958 885
961 875
965 861
966 758
975 861
976 758
981 848
986 758
991 848
996 758
1001 847
1006 759
1011 846
1016 756
1021 846
1026 755
1029 853
1036 755
1039 853
1046 754
1049 851
1056 754
1058 846
1066 752
1068 847
1076 751
1078 848
1086 750
1088 852
1094 860
1096 749
1103 855
1104 840
1106 747
1113 854
1116 747
1123 853
1126 745
1133 852
1136 744
1143 856
1146 743
1153 860
1156 742
1163 860
1166 741
1173 859
1176 740
1183 858
1186 739
1193 855
1196 739
1203 856
1206 738
1213 857
1216 738
1221 864
1226 737
1229 870
1236 737
1238 865
1246 736
1248 858
1256 735
1257 863
1266 735
1267 861
1276 735
1277 860
1286 734
1287 862
1296 734
1297 865
1306 734
1307 869
1316 734
1317 869
1326 733
1327 869
1336 733
1337 867
1346 733
1347 866
1356 733
1357 865
1366 733
1367 862
1376 733
1377 862
1386 733
1387 864
1396 733
1397 864
1406 733
1407 862
1416 734
1417 861
1421 849
1426 733
1427 859
1436 734
1436 854
1446 735
1446 856
1451 834
1456 735
1456 855
1465 848
1466 736
1473 854
1476 736
1481 847
1486 737
1487 855
1496 738
1496 860
1505 865
1506 738
1515 863
1516 739
1525 863
1526 741
1533 840
1535 861
1536 742
1542 845
1544 866
1546 743
1550 839
1554 869
1556 744
1564 872
1566 746
1574 874
1576 747
1582 880
1586 749
1592 879
1596 753
1600 873
1606 753
1608 867
1616 755
1618 868
1626 757
1627 873
1634 882
1636 760
1640 890
1646 762
1650 888
1656 763
1659 893
1666 766
1669 895
1675 771
1679 895
1685 774
1687 889
1690 879
1695 778
1696 871
1701 860
1703 784
1704 850
1709 841
1711 824
1713 784
1716 813
1718 793
1718 803
