189 772
189 782
189 792
191 761
191 802
193 812
195 748
197 822
199 738
200 832
203 728
205 841
209 720
212 849
215 712
218 857
222 704
226 864
230 696
232 872
237 688
240 878
246 682
249 883
254 676
258 888
263 670
266 894
273 665
274 900
282 659
284 902
292 654
293 907
302 649
303 911
311 644
313 915
321 640
323 917
331 637
333 920
341 635
343 923
351 632
353 925
361 630
363 927
371 628
373 929
381 625
383 931
391 623
393 931
401 622
403 932
411 621
413 932
421 620
423 932
431 620
433 932
441 619
443 932
451 619
453 932
461 619
463 931
471 619
473 930
481 619
483 929
491 620
493 929
501 621
503 927
511 622
513 925
521 623
523 922
531 624
533 920
541 626
543 917
551 629
553 914
561 632
563 910
571 634
573 907
581 638
583 906
591 640
591 900
600 645
600 895
609 890
610 649
619 654
619 885
627 879
628 659
637 875
638 663
645 869
648 667
654 864
658 671
663 859
667 676
672 854
676 681
681 849
686 685
690 844
696 689
700 839
706 693
710 838
716 696
720 833
726 700
730 830
736 702
740 826
746 705
750 825
756 706
760 822
766 708
770 820
776 709
780 818
786 710
790 816
796 711
800 815
806 711
810 815
816 711
820 814
826 711
830 812
836 711
840 812
846 711
850 811
856 711
860 810
866 711
870 810
876 711
880 809
886 711
890 809
896 710
900 808
906 710
910 808
916 709
920 808
926 709
930 807
936 708
940 806
946 708
950 806
956 708
960 807
966 707
970 806
973 816
976 705
977 694
979 678
981 823
982 833
988 673
990 839
998 673
1000 839
1008 673
1010 839
1018 673
1020 838
1028 672
1030 839
1038 672
1040 838
1048 671
1050 837
1058 671
1060 837
1068 671
1070 836
1078 670
1080 836
1088 670
1090 836
1098 670
1100 836
1108 670
1110 836
1118 670
1120 836
1127 665
1130 836
1137 665
1140 835
1147 667
1150 834
1157 668
1160 834
1167 668
1170 833
1177 669
1180 833
1187 668
1190 833
1197 668
1200 833
1207 667
1210 832
1217 668
1220 832
1227 667
1230 831
1237 667
1240 831
1247 667
1250 831
1257 666
1260 831
1267 666
1270 830
1277 666
1280 830
1287 665
1290 829
1297 665
1300 829
1307 665
1310 829
1317 664
1320 829
1327 664
1330 828
1337 664
1340 828
1347 664
1350 828
1357 663
1360 827
1367 663
1370 827
1377 663
1380 827
1387 663
1390 826
1397 662
1400 826
1407 662
1410 826
1417 662
1420 825
1427 662
1430 825
1437 661
1440 825
1447 660
1450 824
1457 660
1460 824
1467 663
1470 822
1473 671
1474 681
1477 691
1478 811
1484 802
1487 692
1491 794
1497 692
1498 786
1507 691
1508 785
1517 691
1518 785
1527 690
1528 784
1537 692
1538 783
1547 696
1548 779
1556 701
1556 773
1563 709
1564 765
1569 717
1570 755
1573 727
1573 745
