123 912
124 922
125 898
126 867
127 877
127 887
127 932
127 960
128 942
128 970
129 857
129 980
129 999
130 1009
132 1019
133 1029
135 848
136 1039
138 1049
139 1059
140 1069
141 840
141 1079
144 1089
146 1099
147 832
149 1109
149 1119
152 1129
153 824
157 1138
160 1148
160 1158
161 1168
163 819
164 1178
170 1186
172 814
172 1201
176 1211
181 809
182 1219
185 1229
188 1239
191 805
193 1248
197 1258
201 800
203 1266
207 1276
211 796
213 1284
219 1292
221 795
225 1300
230 1309
231 794
237 1317
241 794
243 1325
250 1333
251 791
257 1341
261 788
264 1349
271 788
272 1355
278 1363
281 785
286 1370
291 784
294 1377
301 783
302 1384
310 1390
311 782
318 1396
321 781
326 1402
331 780
334 1409
341 780
342 1415
351 779
351 1420
359 1426
361 779
367 1432
371 778
375 1438
381 775
384 1443
391 774
393 1448
401 774
403 1451
411 773
412 1456
420 1463
421 772
429 1468
431 772
439 1472
441 771
449 1476
451 771
459 1479
461 771
468 1484
471 771
477 1489
481 770
487 1492
491 770
497 1495
501 769
506 1500
511 770
516 1501
521 769
526 1504
531 769
534 1510
541 769
544 1513
551 769
554 1517
561 769
564 1520
571 769
574 1524
581 769
584 1528
591 769
594 1529
601 769
604 1531
611 769
614 1533
621 768
624 1535
631 769
634 1536
641 769
644 1538
651 770
654 1541
661 770
664 1541
671 770
674 1540
681 770
684 1542
691 771
694 1546
701 772
704 1546
711 773
714 1547
721 773
724 1548
731 773
734 1549
741 773
744 1548
751 775
754 1549
761 775
764 1547
771 776
774 1548
781 776
784 1549
791 777
794 1547
801 778
804 1546
811 780
814 1543
821 782
824 1541
831 783
834 1543
841 784
844 1543
851 785
854 1542
861 787
864 1541
871 790
874 1540
881 792
883 1535
891 795
893 1533
901 798
903 1535
911 801
913 1531
921 803
923 1528
931 806
933 1527
941 810
943 1525
951 813
953 1523
961 817
963 1520
971 821
973 1516
981 824
983 1513
990 829
993 1511
999 834
1003 1507
1009 838
1012 1470
1012 1502
1013 1438
1017 1479
1018 843
1018 1447
1022 1432
1022 1467
1022 1500
1027 848
1028 1443
1032 1497
1036 853
1041 1492
1045 858
1050 1487
1054 863
1059 1482
1062 869
1068 1476
1070 876
1077 1471
1078 882
1087 887
1087 1467
1095 893
1096 1461
1103 899
1105 1455
1111 905
1114 1449
1119 911
1122 1443
1127 917
1131 1438
1135 924
1139 1431
1143 930
1147 1425
1150 938
1156 1420
1158 944
1165 1415
1166 950
1173 1409
1174 957
1182 964
1183 1404
1190 971
1192 1399
1198 977
1200 1393
1206 984
1209 1388
1214 990
1218 1383
1222 996
1227 1378
1230 1002
1236 1372
1239 1007
1245 1367
1247 1013
1254 1362
1256 1018
1263 1357
1265 1023
1273 1352
1274 1028
1282 1034
1283 1347
1291 1039
1293 1343
1300 1044
1303 1339
1310 1048
1312 1334
1318 1054
1322 1330
1328 1058
1332 1327
1337 1063
1342 1324
1346 1068
1352 1321
1356 1072
1362 1317
1365 1077
1372 1314
1374 1082
1382 1311
1384 1085
1392 1309
1394 1088
1402 1307
1404 1092
1412 1304
1414 1096
1422 1301
1424 1100
1432 1300
1434 1104
1442 1299
1444 1107
1452 1298
1454 1110
1462 1297
1464 1113
1472 1296
1474 1114
1482 1295
1484 1117
1492 1295
1494 1120
1502 1294
1504 1120
1512 1293
1514 1122
1522 1292
1524 1123
1532 1293
1534 1125
1542 1293
1544 1127
1552 1293
1554 1127
1562 1294
1564 1127
1572 1294
1574 1127
1582 1294
1584 1129
1592 1294
1594 1130
1602 1295
1604 1128
1612 1295
1614 1129
1622 1295
1624 1129
1632 1296
1634 1129
1642 1296
1644 1130
1652 1296
1654 1130
1662 1296
1664 1130
1672 1297
1674 1130
1682 1298
1684 1130
1692 1298
1694 1130
1702 1298
1704 1131
1712 1297
1714 1131
1722 1297
1724 1132
1732 1299
1734 1133
1742 1300
1744 1134
1752 1301
1754 1134
1762 1301
1764 1135
1772 1302
1774 1135
1782 1302
1784 1136
1792 1302
1794 1136
1802 1303
1804 1135
1812 1302
1814 1135
1822 1303
1824 1136
1832 1304
1834 1136
1842 1305
1844 1137
1852 1305
1854 1138
1862 1305
1864 1138
1872 1305
1874 1138
1882 1306
1884 1138
1892 1307
1894 1138
1902 1308
1904 1139
1912 1308
1914 1140
1922 1308
1924 1140
1932 1308
1934 1141
1942 1307
1944 1141
1952 1307
1954 1142
1962 1310
1964 1143
1972 1310
1974 1143
1982 1310
1984 1143
1992 1311
1994 1143
2002 1313
2004 1144
2012 1313
2014 1144
2022 1314
2024 1144
2032 1315
2034 1144
2042 1315
2044 1143
2052 1313
2054 1145
2062 1313
2064 1145
2072 1316
2074 1145
2082 1317
2084 1144
2092 1317
2094 1144
2102 1318
2104 1145
2112 1319
2114 1145
2122 1320
2124 1145
2132 1320
2134 1146
2142 1320
2144 1146
2152 1320
2154 1146
2162 1321
2164 1146
2172 1321
2174 1145
2182 1322
2184 1145
2192 1322
2194 1145
2202 1323
2204 1145
2212 1324
2214 1146
2222 1326
2224 1145
2232 1328
2234 1145
2242 1328
2244 1146
2252 1328
2254 1145
2262 1330
2264 1145
2272 1331
2274 1145
2282 1333
2284 1144
2292 1332
2294 1144
2302 1333
2304 1144
2312 1335
2314 1144
2322 1336
2324 1144
2332 1336
2334 1144
2342 1338
2344 1144
2352 1338
2354 1144
2362 1338
2364 1144
2372 1339
2374 1145
2382 1341
2384 1144
2392 1341
2394 1144
2402 1342
2404 1143
2412 1344
2414 1143
2422 1346
2424 1142
2432 1347
2434 1142
2442 1349
2444 1141
2452 1350
2454 1142
2462 1351
2464 1142
2472 1353
2474 1141
2482 1354
2484 1140
2492 1355
2494 1139
2502 1356
2504 1138
2512 1358
2514 1139
2522 1357
2524 1140
2532 1357
2534 1139
2542 1359
2544 1139
2552 1360
2554 1139
2562 1362
2564 1140
2572 1364
2574 1140
2582 1366
2584 1139
2592 1366
2594 1139
2602 1366
2604 1138
2612 1368
2614 1137
2622 1368
2624 1137
2632 1369
2634 1136
2642 1371
2644 1136
2652 1374
2654 1136
2662 1375
2664 1135
2672 1376
2674 1135
2682 1377
2684 1134
2692 1378
2694 1134
2702 1379
2704 1134
2712 1380
2714 1133
2722 1382
2724 1133
2732 1384
2734 1133
2742 1383
2744 1132
2752 1385
2754 1132
2762 1386
2764 1132
2772 1386
2774 1132
2782 1387
2784 1131
2792 1388
2794 1131
2802 1391
2804 1131
2812 1392
2814 1130
2822 1392
2824 1130
2832 1394
2834 1129
2842 1394
2844 1129
2852 1395
2854 1129
2862 1397
2864 1129
2872 1397
2874 1129
2882 1400
2884 1128
2892 1400
2894 1128
2902 1401
2904 1127
2912 1404
2914 1127
2922 1405
2924 1128
2932 1406
2934 1127
2942 1406
2944 1126
2952 1408
2954 1125
2962 1410
2964 1125
2972 1409
2974 1125
2982 1411
2984 1125
2992 1413
2994 1124
3002 1413
3004 1125
3012 1415
3014 1124
3022 1416
3024 1123
3032 1417
3034 1123
3042 1418
3044 1123
3052 1419
3054 1123
3062 1420
3064 1123
3072 1420
3074 1123
3082 1421
3084 1123
3092 1422
3094 1122
3102 1424
3104 1122
3112 1425
3114 1122
3122 1424
3124 1123
3132 1425
3134 1122
3142 1428
3144 1121
3152 1430
3154 1121
3162 1431
3164 1121
3172 1432
3174 1121
3182 1433
3184 1121
3192 1433
3194 1120
3202 1434
3204 1119
3212 1435
3214 1118
3222 1436
3224 1118
3232 1438
3234 1118
3242 1438
3244 1118
3252 1439
3254 1118
3262 1440
3264 1119
3272 1441
3274 1119
3282 1443
3284 1119
3292 1444
3294 1119
3302 1444
3304 1119
3312 1444
3314 1120
3322 1444
3324 1119
3332 1446
3334 1119
3342 1447
3344 1118
3352 1449
3354 1119
3362 1449
3364 1118
3372 1448
3374 1119
3382 1451
3384 1119
3392 1452
3394 1119
3402 1453
3404 1120
3412 1454
3414 1120
3422 1454
3424 1120
3432 1454
3434 1119
3442 1454
3444 1120
3452 1455
3454 1121
3462 1456
3464 1121
3472 1457
3474 1119
3482 1456
3484 1120
3492 1455
3494 1121
3502 1454
3504 1122
3512 1456
3514 1121
3522 1458
3524 1122
3532 1459
3534 1124
3542 1459
3544 1125
3552 1459
3554 1125
3562 1459
3564 1124
3572 1459
3574 1125
3582 1460
3584 1125
3592 1459
3594 1126
3602 1459
3604 1126
3612 1460
3614 1127
3622 1461
3624 1127
3632 1462
3634 1127
3642 1462
3644 1127
3652 1463
3654 1127
3662 1463
3664 1129
3672 1462
3674 1131
3682 1462
3684 1131
3692 1462
3694 1131
3702 1462
3704 1132
3712 1464
3714 1133
3722 1464
3724 1134
3732 1464
3734 1134
3742 1465
3744 1136
3752 1464
3754 1137
3762 1463
3764 1136
3772 1465
3774 1136
3782 1466
3784 1138
3792 1465
3794 1139
3802 1467
3804 1140
3812 1467
3814 1139
3822 1467
3824 1141
3832 1464
3834 1144
3842 1462
3844 1145
3852 1461
3854 1146
3862 1462
3864 1148
3872 1462
3874 1151
3882 1459
3884 1151
3892 1456
3894 1152
3902 1455
3904 1153
3912 1456
3914 1155
3918 1300
3919 1310
3921 1289
3921 1320
3922 1456
3924 1158
3926 1329
3927 1281
3932 1337
3932 1457
3934 1162
3935 1274
3940 1344
3942 1457
3943 1266
3944 1163
3948 1351
3951 1259
3952 1457
3954 1161
3956 1357
3961 1255
3962 1458
3964 1163
3966 1361
3971 1253
3972 1455
3974 1165
3976 1365
3981 1252
3982 1452
3984 1168
3986 1367
3991 1252
3992 1452
3994 1170
3996 1368
4001 1252
4002 1450
4004 1174
4006 1368
4011 1252
4012 1449
4014 1177
4016 1367
4021 1253
4022 1447
4024 1178
4026 1365
4031 1255
4032 1445
4034 1179
4036 1363
4041 1259
4042 1443
4044 1181
4046 1359
4050 1264
4052 1441
4053 1186
4056 1356
4060 1268
4062 1440
4063 1190
4065 1350
4068 1274
4072 1438
4073 1190
4073 1343
4074 1282
4080 1335
4082 1435
4083 1193
4083 1287
4085 1326
4092 1431
4093 1195
4093 1286
4093 1319
4102 1429
4103 1199
4103 1286
4103 1319
4111 1205
4112 1426
4113 1287
4113 1319
4121 1206
4122 1423
4123 1284
4123 1322
4125 1353
4125 1363
4126 1215
4126 1225
4126 1235
4126 1245
4126 1255
4126 1265
4126 1332
4126 1342
4126 1373
4126 1383
4126 1393
4126 1403
4126 1413
