379 336
381 325
384 314
386 347
389 305
391 356
394 366
397 297
402 288
404 370
410 280
410 378
415 387
418 272
421 395
425 264
429 402
433 258
437 409
441 248
445 416
451 244
452 424
459 237
460 431
468 232
468 438
474 446
477 227
482 452
485 220
490 459
495 215
497 467
504 210
504 475
513 480
514 206
518 489
524 203
524 497
533 502
534 200
541 508
543 195
547 516
553 194
553 524
559 532
563 189
568 537
573 187
574 545
582 551
583 184
588 559
593 182
595 567
603 177
603 573
610 581
613 177
618 588
623 176
626 595
631 604
633 175
639 610
643 175
647 617
653 175
655 623
661 631
663 177
668 639
673 180
676 646
682 185
684 653
690 661
692 189
698 667
702 193
706 673
710 200
712 681
719 205
720 687
722 697
727 212
731 702
735 219
739 708
741 227
745 716
751 230
753 722
757 238
759 730
765 244
767 737
771 252
775 743
780 257
783 750
788 264
793 753
794 272
802 278
803 752
810 285
813 747
816 293
822 742
824 300
828 733
831 308
836 725
839 315
844 718
847 321
851 710
853 329
859 703
861 335
865 695
869 342
873 689
877 349
883 688
885 356
893 362
893 691
899 370
901 698
907 376
907 706
913 384
916 711
921 390
924 717
927 398
932 724
935 404
939 732
943 411
947 738
951 418
955 745
957 426
961 605
962 615
962 753
965 432
965 593
968 623
970 760
973 438
973 587
976 630
977 768
980 446
980 579
982 638
985 774
986 454
988 571
990 645
993 562
993 781
994 460
997 653
1000 468
1001 555
1001 787
1005 659
1007 795
1008 474
1009 549
1010 668
1014 482
1015 801
1016 541
1018 675
1020 490
1021 809
1022 533
1025 499
1025 509
1025 519
1026 681
1029 815
1032 689
1037 821
1039 697
1043 829
1047 704
1051 835
1053 712
1057 843
1061 718
1065 850
1067 726
1072 858
1074 734
1080 864
1082 740
1087 872
1088 748
1095 879
1096 754
1102 762
1103 886
1109 894
1111 767
1117 900
1119 773
1123 908
1124 782
1129 916
1132 789
1137 923
1138 797
1145 929
1146 804
1151 937
1154 811
1157 945
1161 819
1165 951
1169 826
1171 959
1177 967
1178 831
1184 839
1185 973
1190 847
1191 981
1198 853
1199 988
1205 996
1206 860
1213 1003
1215 865
1220 874
1220 1011
1227 1019
1228 880
1234 1027
1236 887
1242 1033
1243 895
1249 1041
1251 902
1257 1048
1259 909
1263 1056
1268 914
1271 1062
1274 922
1278 1070
1281 930
1284 1078
1289 937
1292 1084
1296 945
1298 1092
1304 952
1305 1100
1312 958
1313 1107
1320 965
1321 1114
1327 973
1328 1122
1335 979
1336 1129
1341 987
1342 1137
1349 994
1350 1144
1357 1001
1357 1152
1364 1009
1365 1158
1371 1166
1372 1015
1379 1023
1379 1173
1385 1181
1386 1031
1393 1188
1394 1037
1401 1045
1401 1195
1407 1203
1409 1051
1413 1211
1416 1059
1421 1217
1424 1065
1428 1225
1430 1073
1436 1231
1438 1080
1444 1238
1445 1088
1450 1246
1453 1095
1457 1254
1460 1103
1465 1260
1468 1110
1472 1268
1475 1118
1480 1275
1483 1125
1488 1282
1490 1133
1494 1290
1498 1140
1502 1297
1506 1146
1510 1303
1512 1154
1517 1311
1519 1162
1525 1317
1527 1169
1532 1325
1534 1177
1539 1333
1542 1184
1547 1340
1550 1191
1553 1348
1557 1199
1561 1354
1563 1207
1569 1360
1571 1213
1577 1221
1577 1366
1583 1374
1585 1227
1591 1380
1592 1235
1592 1323
1595 1333
1599 1243
1599 1387
1602 1321
1603 1339
1605 1251
1607 1393
1612 1319
1613 1257
1613 1340
1615 1399
1617 1328
1619 1265
1625 1403
1626 1273
1633 1281
1635 1404
1642 1286
1645 1405
1648 1294
1653 1303
1655 1405
1660 1311
1665 1405
1667 1319
1673 1327
1673 1398
1679 1335
1681 1391
1684 1344
1687 1383
1689 1353
1690 1363
1690 1373
