351 798
351 808
352 788
353 818
355 774
355 828
359 764
360 837
362 792
362 802
362 812
364 753
364 782
364 847
365 822
367 772
370 744
370 835
370 855
372 761
375 844
377 736
377 863
378 751
380 853
385 728
385 742
386 868
393 722
393 734
394 875
396 865
401 716
401 728
403 880
405 870
409 722
410 711
413 883
419 718
419 875
420 706
423 887
429 713
429 878
430 703
433 888
439 710
439 879
440 700
443 890
449 708
449 879
450 698
453 890
459 706
459 880
460 696
463 890
469 704
469 879
470 694
473 889
479 702
479 878
480 692
483 888
489 700
489 876
490 689
493 886
499 698
499 875
500 687
504 884
509 695
509 873
510 685
514 882
519 694
519 871
520 682
524 880
529 691
529 869
530 680
534 878
539 689
539 867
540 678
544 876
549 686
549 866
550 675
555 874
559 682
559 863
564 672
565 872
569 682
569 861
574 670
575 870
579 680
579 859
584 667
585 867
589 677
590 857
594 665
595 866
599 675
600 855
604 663
605 864
609 673
610 853
614 661
615 862
619 670
620 851
624 659
625 860
629 668
630 849
634 656
636 857
639 665
640 847
644 654
646 855
649 663
650 845
654 652
656 853
660 660
660 843
664 650
666 851
670 658
670 840
674 647
676 849
680 655
680 838
684 644
686 847
690 654
690 837
694 643
696 845
700 835
702 650
704 640
706 843
710 832
712 648
714 638
716 840
720 830
722 646
724 635
726 839
730 828
732 643
734 633
736 837
740 827
742 641
744 631
748 834
752 638
752 824
754 628
758 833
762 636
762 822
764 626
768 830
772 634
772 820
774 623
778 828
782 632
782 818
784 622
788 827
792 629
792 816
795 619
798 825
802 627
802 814
805 617
808 822
812 625
813 812
815 615
818 821
822 623
823 810
825 612
828 819
832 620
833 808
835 610
838 817
843 617
843 807
846 607
849 815
853 615
853 805
856 605
859 813
863 613
863 803
866 603
869 811
873 611
874 802
876 600
880 810
883 608
884 799
886 598
890 808
893 606
894 798
896 596
900 806
903 604
905 797
906 593
911 805
913 601
916 591
916 796
923 599
924 803
926 589
926 793
933 597
934 801
936 587
939 791
944 594
944 800
947 584
949 790
954 592
954 799
957 582
959 789
965 589
965 797
969 579
971 788
975 588
977 796
979 577
982 787
985 585
989 575
990 794
995 583
995 785
999 572
1001 793
1005 580
1006 783
1010 570
1012 791
1016 578
1018 783
1020 568
1026 576
1026 790
1030 565
1031 781
1036 573
1037 789
1040 563
1042 780
1046 571
1048 788
1050 560
1053 779
1056 568
1059 787
1060 558
1064 778
1066 566
1070 556
1070 786
1075 777
1076 564
1080 553
1083 784
1086 561
1088 775
1089 548
1094 783
1096 559
1099 547
1099 774
1106 556
1107 781
1109 544
1112 772
1116 553
1118 780
1119 542
1123 771
1127 549
1129 539
1129 779
1134 770
1137 547
1139 536
1140 778
1145 769
1147 544
1150 779
1152 535
1155 768
1160 541
1160 778
1162 531
1165 768
1170 538
1171 776
1174 528
1176 767
1180 537
1182 775
1184 526
1187 766
1190 534
1193 774
1194 524
1198 764
1200 532
1204 521
1204 772
1209 763
1210 530
1214 519
1215 771
1220 527
1220 762
1224 517
1226 770
1230 525
1231 761
1234 515
1237 769
1240 523
1242 759
1244 512
1247 768
1250 520
1252 758
1254 510
1257 767
1260 518
1262 757
1264 507
1268 765
1270 516
1272 755
1275 507
1278 764
1282 754
1285 503
1288 763
1292 753
1295 499
1298 762
1302 751
1304 493
1308 761
1312 500
1312 750
1318 760
1322 498
1322 749
1328 759
1330 504
1332 747
1336 496
1338 757
1346 492
1346 751
1356 490
1356 751
1366 486
1366 750
1376 747
1384 741
1393 735
1403 733
1412 738
1420 731
1430 729
1439 734
1447 728
