126 590
127 600
127 611
128 579
129 621
132 569
132 631
134 558
135 641
139 651
142 550
145 659
150 542
151 667
157 533
157 675
162 524
165 682
168 515
171 690
176 508
177 698
184 501
184 706
193 711
194 497
201 718
204 492
209 724
214 489
217 730
224 486
226 735
234 484
234 741
243 746
244 481
251 753
254 479
260 758
264 477
270 762
274 476
279 767
284 476
288 772
294 475
298 776
304 475
308 779
314 474
317 784
324 474
327 787
334 475
337 790
344 475
347 793
354 476
357 795
364 477
367 798
374 478
377 800
384 479
387 802
394 481
397 804
404 483
407 805
414 485
417 805
424 487
427 807
434 490
437 807
444 493
447 807
454 495
457 807
464 499
467 806
474 501
477 806
484 505
487 805
494 509
497 804
504 513
507 802
513 518
517 801
523 522
527 800
532 527
537 798
541 532
547 796
549 538
557 795
558 543
566 549
567 793
574 555
577 790
582 561
587 787
591 566
597 784
599 572
607 578
607 783
615 584
617 780
623 591
627 776
631 598
637 772
639 605
647 612
647 769
654 620
657 766
662 626
667 763
668 634
676 641
677 760
683 649
687 757
691 656
697 756
698 664
706 670
707 756
714 676
717 756
722 682
727 758
732 686
737 760
742 690
747 763
752 693
757 765
762 696
767 767
772 699
777 768
782 702
787 770
792 705
797 773
802 708
807 777
812 710
817 779
822 712
827 781
832 715
837 783
842 717
847 785
852 719
857 788
862 722
867 791
872 724
877 793
882 727
887 795
892 730
897 798
902 731
907 800
912 734
917 803
922 737
927 805
932 739
937 807
942 742
947 809
952 744
957 813
962 747
967 816
972 750
977 819
982 752
987 820
992 754
997 822
1002 756
1007 824
1012 759
1017 828
1022 761
1027 831
1032 763
1037 833
1042 765
1047 835
1052 768
1057 837
1062 771
1067 839
1072 774
1077 843
1082 776
1087 845
1092 779
1097 847
1102 781
1107 850
1112 784
1117 853
1122 786
1127 855
1132 790
1137 858
1142 792
1147 861
1152 795
1157 862
1162 798
1167 865
1172 800
1177 868
1182 802
1187 870
1192 805
1197 872
1202 808
1207 876
1212 810
1217 878
1222 813
1227 880
1232 815
1237 882
1242 818
1247 883
1252 820
1257 887
1262 822
1267 890
1272 825
1277 892
1282 827
1287 895
1292 830
1297 897
1302 833
1307 900
1312 834
1317 902
1322 837
1327 904
1332 840
1337 907
1342 842
1347 909
1352 844
1357 911
1362 847
1367 914
1372 850
1377 918
1382 852
1387 920
1392 854
1397 922
1402 856
1407 924
1412 859
1417 927
1422 862
1427 930
1432 864
1437 932
1442 867
1447 935
1452 869
1457 938
1462 871
1467 940
1472 873
1477 942
1482 876
1487 944
1492 878
1497 946
1502 881
1507 948
1512 884
1517 951
1522 886
1527 954
1532 888
1537 955
1542 890
1547 959
1552 893
1557 961
1562 896
1567 964
1572 899
1577 967
1582 900
1587 969
1592 903
1597 970
1602 906
1607 972
1612 908
1617 975
1622 911
1627 978
1632 912
1637 980
1642 916
1647 984
1652 918
1657 985
1662 920
1667 987
1672 923
1677 989
1682 925
1687 992
1692 928
1697 995
1702 930
1707 998
1712 933
1717 1000
1722 936
1727 1001
1732 938
1737 1004
1742 940
1747 1007
1752 942
1757 1009
1762 945
1767 1011
1772 947
1777 1012
1782 950
1787 1016
1792 952
1797 1018
1802 955
1807 1017
1812 958
1816 1011
1820 964
1824 1004
1826 972
1830 982
1832 996
