159 718
161 728
165 708
167 736
173 701
174 744
181 694
182 750
190 689
191 755
200 689
201 756
210 688
211 757
220 687
221 758
230 687
231 759
240 686
241 759
250 687
251 760
260 687
261 760
270 687
271 760
280 687
281 760
290 687
291 761
300 687
301 762
310 687
311 761
320 688
321 762
330 688
331 762
340 688
341 762
350 689
351 762
360 689
361 762
370 689
371 762
380 689
381 762
390 689
391 763
400 690
401 763
410 690
411 763
420 690
421 764
430 690
431 764
440 690
441 764
450 691
451 764
460 691
461 764
470 691
471 764
480 691
481 764
490 692
491 765
500 692
501 765
510 692
511 765
520 692
521 765
530 692
531 765
540 692
541 763
550 692
551 763
560 693
561 764
570 693
571 765
580 693
581 765
590 693
591 765
600 693
601 765
610 694
611 765
620 694
621 764
630 694
631 764
640 693
641 765
650 693
651 765
660 693
661 765
670 693
671 765
680 693
681 765
690 693
691 765
700 693
701 765
710 693
711 765
720 693
721 765
730 693
731 765
740 693
741 765
750 693
751 765
760 693
761 765
770 693
771 765
780 693
781 765
790 693
791 765
800 693
801 766
810 693
811 765
820 693
821 765
830 692
831 765
840 692
841 765
850 692
851 765
860 692
861 765
870 692
871 765
880 692
881 764
890 692
891 764
900 692
901 764
910 692
911 764
920 692
921 764
930 692
931 763
940 691
941 763
950 691
951 763
960 691
961 762
970 691
971 762
980 690
981 762
990 690
991 762
1000 689
1001 762
1010 689
1011 761
1020 689
1021 761
1030 689
1031 761
1040 689
1041 760
1050 688
1051 760
1060 688
1061 760
1070 687
1071 759
1080 687
1081 759
1090 686
1091 759
1100 686
1101 758
1110 686
1111 758
1120 686
1121 757
1130 685
1131 757
1140 685
1141 757
1150 684
1151 756
1160 684
1161 756
1170 684
1171 756
1180 683
1181 756
1190 683
1191 755
1200 683
1201 754
1210 682
1211 754
1220 682
1221 753
1230 681
1231 753
1240 680
1241 753
1250 679
1251 753
1260 677
1261 753
1270 674
1271 755
1280 671
1281 756
1290 667
1290 761
1299 662
1300 764
1307 656
1309 769
1315 649
1318 774
1323 642
1326 780
1331 636
1335 785
1339 629
1343 791
1347 623
1352 796
1356 617
1361 801
1364 611
1371 804
1373 605
1381 808
1382 600
1390 813
1391 594
1400 589
1400 817
1409 584
1410 820
1419 580
1419 825
1428 575
1429 829
1438 571
1439 832
1448 567
1449 835
1458 563
1459 839
1468 560
1469 841
1478 557
1479 844
1488 554
1489 846
1498 551
1499 847
1508 549
1509 848
1518 547
1519 850
1528 544
1529 852
1538 542
1539 853
1548 541
1549 853
1558 540
1559 853
1568 540
1569 852
1578 539
1579 853
1588 539
1589 851
1598 540
1599 851
1608 540
1609 851
1618 541
1619 850
1628 541
1629 849
1638 542
1639 847
1648 543
1649 846
1658 545
1659 843
1668 546
1669 841
1678 548
1679 838
1688 550
1689 836
1698 552
1699 832
1708 555
1708 827
1717 822
1718 558
1727 818
1728 561
1737 813
1738 565
1747 570
1747 809
1756 804
1757 574
1764 797
1765 580
1771 789
1774 585
1779 782
1782 591
1787 774
1790 598
1795 767
1797 606
1802 759
1804 614
1808 751
1809 623
1813 742
1815 631
1818 641
1818 728
1821 651
1823 718
1824 661
1825 698
1825 708
1827 671
1827 681
