78 346
80 359
81 336
82 369
83 325
84 379
86 311
88 389
88 399
91 300
93 408
96 290
99 416
100 426
104 282
107 434
109 271
113 442
117 264
118 451
123 460
125 256
129 468
133 250
137 475
139 242
143 483
149 239
150 491
158 234
158 497
166 504
168 229
174 510
178 227
181 518
187 222
189 524
197 219
197 531
205 538
207 217
214 543
217 215
222 549
227 215
230 555
237 213
240 559
247 212
250 563
257 213
259 568
267 213
267 575
277 213
277 579
286 584
287 213
296 588
297 215
304 594
307 217
314 596
317 218
324 600
327 218
334 604
337 222
344 607
347 225
353 612
357 225
363 613
366 230
373 616
376 233
383 618
386 235
393 621
396 238
403 624
405 243
413 626
414 248
423 627
424 250
433 627
434 251
442 258
443 626
452 261
453 628
461 266
463 628
470 271
473 628
480 274
483 627
489 279
493 627
495 287
503 626
505 290
513 296
513 625
520 304
523 624
530 307
533 622
536 315
543 621
544 321
552 328
553 622
560 334
563 619
567 342
573 617
574 350
582 357
583 615
589 365
593 613
596 373
602 381
603 613
607 390
613 398
613 613
619 406
623 613
625 414
632 422
633 613
637 431
643 439
643 615
648 448
653 614
655 456
660 465
663 614
668 472
672 619
674 480
679 489
682 618
684 498
692 504
692 619
696 514
702 620
706 516
712 524
712 624
718 532
720 631
728 536
730 632
737 541
740 634
745 547
748 641
751 555
758 644
761 558
768 647
771 562
778 649
780 567
787 654
790 571
796 659
800 573
802 667
808 579
812 668
818 582
822 671
827 587
830 678
836 592
840 678
846 594
848 684
855 599
856 690
863 605
866 693
872 610
874 687
874 699
881 615
882 705
890 620
892 708
900 624
902 711
908 719
910 627
917 724
918 634
927 639
927 725
936 730
937 643
945 735
947 647
953 742
955 654
963 741
965 658
973 745
975 660
981 668
982 750
990 756
991 671
998 762
1000 676
1006 768
1009 681
1016 770
1019 683
1026 773
1027 689
1034 779
1036 694
1044 783
1046 698
1052 789
1056 702
1062 793
1066 705
1072 795
1076 708
1078 803
1085 713
1087 808
1093 719
1096 813
1103 723
1106 810
1111 819
1113 727
1119 735
1120 824
1129 738
1129 829
1137 744
1139 831
1145 839
1147 746
1155 843
1156 751
1164 757
1165 847
1172 763
1175 848
1178 858
1182 766
1188 859
1191 771
1194 867
1199 777
1203 872
1209 779
1212 877
1217 786
1222 879
1226 791
1230 885
1235 796
1240 888
1244 801
1246 896
1253 806
1255 901
1262 811
1265 905
1271 816
1275 906
1280 821
1281 915
1288 827
1290 920
1298 830
1298 926
1305 838
1307 931
1314 843
1315 937
1324 847
1325 940
1332 853
1334 945
1340 953
1341 858
1348 959
1351 862
1357 964
1359 869
1366 969
1367 875
1374 975
1376 880
1384 976
1385 885
1389 985
1390 894
1397 975
1399 986
1400 898
1406 994
1410 902
1413 1002
1416 910
1423 1003
1426 912
1429 1011
1436 915
1436 1019
1442 923
1446 1023
1451 928
1454 1029
1456 1015
1459 934
1462 1035
1465 942
1472 1038
1473 948
1482 1042
1483 950
1483 1052
1492 955
1493 1056
1499 963
1503 1057
1508 968
1513 1060
1515 1070
1516 975
1522 983
1524 1075
1532 987
1534 1078
1538 1089
1540 993
1546 1096
1549 998
1556 1098
1558 1003
1566 1010
1566 1102
1572 1110
1575 1015
1575 1120
1583 1021
1584 1125
1591 1027
1593 1130
1600 1032
1601 1136
1606 1040
1610 1142
1614 1046
1618 1148
1621 1054
1628 1152
1629 1061
1637 1068
1638 1155
1641 1166
1647 1072
1650 1171
1655 1078
1660 1173
1663 1085
1665 1182
1670 1191
1673 1087
1678 1198
1679 1095
1688 1198
1689 1099
1695 1107
1695 1206
1700 1215
1704 1112
1710 1219
1712 1118
1718 1126
1718 1225
1726 1132
1726 1232
1734 1238
1735 1137
1743 1144
1744 1241
1748 1153
1751 1249
1757 1257
1758 1155
1765 1163
1765 1263
1774 1168
1775 1265
1781 1273
1783 1173
1787 1281
1789 1182
1794 1191
1796 1286
1804 1193
1806 1290
1811 1299
1812 1199
1820 1304
1822 1203
1830 1209
1830 1308
1830 1318
1835 1218
1840 1322
1843 1225
1850 1326
1852 1230
1855 1335
1860 1236
1861 1343
1869 1241
1871 1347
1877 1248
1880 1352
1883 1362
1886 1253
1892 1261
1893 1364
1894 1374
1901 1266
1902 1380
1907 1274
1912 1382
1916 1279
1920 1388
1925 1284
1928 1394
1932 1292
1936 1400
1938 1300
1942 1408
1947 1305
1951 1413
1956 1310
1959 1420
1962 1318
1969 1424
1971 1323
1978 1429
1979 1330
1987 1337
1988 1432
1992 1393
1997 1340
1998 1434
2001 1398
2002 1349
2007 1358
2008 1428
2017 1362
2018 1420
2022 1375
2026 1408
2030 1381
2032 1392
