311 1594
311 1604
312 1584
312 1614
312 1624
312 1634
313 1644
314 1567
314 1654
316 1553
316 1664
319 1542
319 1674
321 1684
322 1531
325 1694
326 1521
328 1704
331 1509
332 1714
334 1499
336 1724
339 1488
341 1733
344 1479
346 1742
348 1469
351 1751
353 1459
357 1759
359 1449
363 1767
364 1440
369 1775
370 1432
375 1783
377 1424
381 1791
384 1416
389 1798
391 1408
396 1806
399 1399
404 1812
407 1391
412 1819
415 1383
420 1825
423 1375
428 1832
431 1368
436 1838
439 1361
445 1843
447 1355
454 1848
456 1350
462 1854
465 1344
472 1858
474 1338
481 1863
483 1333
490 1868
493 1329
500 1872
503 1325
510 1876
513 1322
519 1881
523 1317
529 1884
533 1315
539 1887
543 1313
549 1889
553 1309
559 1892
563 1306
569 1895
573 1304
579 1897
583 1302
589 1899
593 1300
599 1901
603 1299
609 1903
613 1297
619 1904
623 1296
629 1906
633 1295
639 1906
643 1295
649 1907
653 1294
659 1908
663 1294
669 1909
673 1293
679 1911
683 1293
689 1911
693 1293
699 1911
703 1293
709 1911
713 1293
719 1911
723 1293
729 1911
733 1293
739 1911
743 1293
749 1911
753 1293
759 1911
763 1294
769 1911
773 1294
779 1910
783 1295
789 1909
793 1295
799 1909
803 1296
809 1909
813 1296
819 1908
823 1297
829 1907
833 1297
839 1906
843 1298
849 1905
853 1299
859 1904
863 1300
869 1903
873 1301
879 1903
883 1302
889 1902
893 1303
899 1901
903 1304
909 1900
913 1306
919 1899
923 1308
929 1898
933 1310
939 1896
943 1313
949 1895
953 1315
959 1893
963 1317
969 1892
973 1320
979 1890
983 1323
989 1888
993 1326
999 1886
1003 1329
1009 1884
1013 1331
1019 1881
1023 1334
1029 1877
1033 1337
1039 1874
1043 1341
1049 1872
1053 1345
1059 1868
1062 1350
1069 1864
1072 1354
1079 1860
1082 1357
1089 1856
1092 1361
1099 1851
1102 1365
1109 1847
1110 1371
1119 1843
1120 1375
1129 1380
1129 1838
1138 1385
1138 1833
1146 1391
1148 1829
1155 1396
1158 1824
1164 1401
1168 1819
1172 1407
1177 1813
1181 1412
1185 1807
1190 1417
1194 1802
1198 1423
1203 1797
1206 1429
1211 1791
1214 1435
1220 1785
1223 1440
1229 1780
1231 1446
1238 1775
1240 1451
1246 1769
1248 1457
1255 1764
1256 1463
1264 1469
1264 1759
1272 1475
1273 1753
1280 1481
1281 1747
1288 1487
1289 1741
1297 1492
1299 1736
1306 1497
1309 1732
1315 1502
1318 1727
1323 1508
1327 1722
1332 1513
1336 1716
1342 1517
1346 1711
1351 1522
1356 1707
1360 1527
1366 1702
1370 1531
1376 1699
1379 1536
1386 1694
1388 1541
1396 1691
1398 1544
1406 1688
1408 1547
1416 1686
1418 1550
1426 1685
1428 1552
1436 1683
1438 1555
1446 1681
1448 1557
1456 1681
1458 1558
1466 1681
1468 1559
1476 1680
1478 1559
1486 1679
1488 1560
1496 1679
1498 1560
1506 1678
1508 1561
1516 1678
1518 1561
1526 1679
1528 1562
1536 1679
1538 1562
1546 1679
1548 1562
1556 1679
1558 1562
1566 1679
1568 1562
1576 1679
1578 1562
1586 1679
1588 1563
1596 1679
1598 1563
1606 1680
1608 1563
1616 1680
1618 1564
1626 1680
1628 1564
1636 1681
1638 1565
1646 1681
1648 1565
1656 1681
1658 1565
1666 1681
1668 1565
1676 1681
1678 1565
1686 1680
1688 1566
1696 1681
1698 1566
1706 1680
1708 1566
1716 1680
1718 1566
1726 1680
1728 1566
1736 1681
1738 1566
1746 1681
1748 1566
1756 1682
1758 1566
1766 1682
1768 1566
1776 1682
1778 1567
1786 1683
1788 1566
1796 1683
1798 1566
1806 1683
1808 1567
1816 1683
1818 1567
1826 1683
1828 1569
1836 1684
1838 1569
1846 1683
1848 1570
1856 1683
1858 1570
1866 1684
1868 1569
1876 1684
1878 1570
1886 1684
1888 1570
1896 1684
1898 1571
1906 1685
1908 1571
1916 1685
1918 1571
1926 1685
1928 1571
1936 1685
1938 1571
1946 1685
1948 1572
1956 1685
1958 1572
1966 1685
1968 1573
1976 1686
1978 1573
1986 1686
1988 1572
1996 1686
1998 1572
2006 1686
2008 1572
2016 1686
2018 1572
2026 1686
2028 1572
2036 1686
2038 1572
2046 1687
2048 1572
2056 1688
2058 1572
2066 1689
2068 1572
2076 1689
2078 1573
2086 1688
2088 1573
2096 1688
2098 1573
2106 1688
2108 1574
2116 1689
2118 1575
2126 1690
2128 1576
2136 1691
2138 1576
2146 1692
2148 1576
2156 1692
2158 1576
2166 1692
2168 1576
2176 1692
2178 1577
2186 1692
2188 1577
2196 1692
2198 1577
2206 1692
2208 1578
2216 1692
2218 1578
2226 1692
2228 1579
2236 1693
2238 1579
2246 1693
2248 1580
2256 1693
2258 1580
2266 1694
2268 1580
2276 1694
2278 1580
2286 1694
2288 1580
2296 1695
2298 1580
2306 1695
2308 1580
2316 1696
2318 1580
2326 1696
2328 1580
2336 1696
2338 1580
2346 1696
2348 1581
2356 1697
2358 1581
2366 1697
2368 1581
2376 1697
2378 1580
2386 1697
2388 1581
2396 1697
2398 1581
2406 1697
2408 1582
2416 1697
2418 1582
2426 1697
2428 1582
2436 1698
2438 1582
2446 1698
2448 1583
2456 1698
2458 1583
2466 1698
2468 1583
2476 1698
2478 1584
2486 1699
2488 1584
2496 1700
2498 1585
2506 1700
2508 1586
2516 1701
2518 1586
2526 1701
2528 1586
2536 1701
2538 1586
2546 1702
2548 1586
2556 1702
2558 1586
2566 1703
2568 1586
2576 1703
2578 1586
2586 1703
2588 1587
2596 1703
2598 1586
2606 1704
2608 1587
2616 1704
2618 1587
2626 1704
2628 1587
2636 1705
2638 1587
2646 1705
2648 1587
2656 1705
2658 1588
2666 1705
2668 1589
2676 1705
2678 1589
2686 1706
2688 1589
2696 1706
2698 1590
2706 1707
2708 1590
2716 1707
2718 1590
2726 1707
2728 1591
2736 1707
2738 1591
2746 1707
2748 1591
2756 1707
2758 1592
2766 1707
2768 1591
2776 1708
2778 1591
2786 1709
2788 1591
2796 1709
2798 1592
2806 1709
2808 1592
2816 1709
2818 1593
2826 1709
2828 1592
2836 1709
2838 1593
2846 1710
2848 1593
2856 1711
2858 1594
2866 1711
2868 1595
2876 1711
2878 1595
2886 1711
2888 1596
2896 1712
2898 1596
2906 1712
2908 1596
2916 1712
2918 1596
2926 1713
2928 1596
2936 1713
2938 1596
2946 1713
2948 1596
2956 1713
2958 1595
2966 1714
2968 1596
2976 1714
2978 1596
2986 1714
2988 1596
2996 1714
2998 1597
3006 1714
3008 1597
3016 1714
3018 1597
3026 1715
3028 1597
3036 1715
3038 1598
3046 1716
3048 1598
3056 1716
3058 1599
3066 1715
3068 1600
3076 1715
3078 1600
3086 1716
3088 1600
3096 1716
3098 1600
3106 1717
3108 1601
3116 1717
3118 1601
3126 1717
3128 1601
3136 1717
3138 1601
3146 1718
3148 1600
3156 1718
3158 1601
3166 1719
3168 1600
3176 1719
3178 1600
3186 1718
3188 1600
3196 1718
3198 1600
3206 1719
3208 1601
3216 1720
3218 1601
3226 1720
3228 1602
3236 1721
3238 1601
3246 1721
3248 1602
3256 1721
3258 1602
3266 1721
3268 1603
3276 1721
3278 1604
3286 1721
3288 1604
3296 1721
3298 1606
3306 1721
3308 1606
3316 1722
3318 1606
3326 1722
3328 1606
3336 1722
3338 1606
3346 1723
3348 1606
3356 1723
3358 1606
3366 1723
3368 1606
3376 1723
3378 1606
3386 1724
3388 1607
3396 1724
3398 1607
3406 1725
3408 1607
3416 1725
3418 1607
3426 1725
3428 1607
3436 1725
3438 1607
3446 1726
3448 1607
3456 1726
3458 1607
3466 1725
3468 1607
3476 1726
3478 1608
3486 1725
3488 1608
3496 1725
3498 1609
3506 1726
3508 1610
3516 1727
3518 1611
3526 1727
3528 1612
3536 1727
3538 1611
3546 1727
3548 1610
3556 1727
3558 1610
3566 1727
3568 1610
3576 1727
3578 1610
3586 1728
3588 1610
3596 1730
3598 1611
3606 1730
3608 1612
3616 1730
3618 1612
3626 1730
3628 1612
3636 1730
3638 1612
3646 1730
3648 1612
3656 1730
3658 1612
3666 1730
3668 1612
3676 1731
3678 1612
3686 1731
3688 1613
3696 1732
3698 1614
3706 1732
3708 1615
3716 1732
3718 1615
3726 1732
3728 1615
3736 1732
3738 1615
3746 1732
3748 1615
3756 1732
3758 1615
3766 1733
3768 1615
3776 1734
3778 1615
3786 1734
3788 1615
3796 1735
3798 1615
3806 1734
3808 1615
3816 1734
3818 1615
3826 1734
3828 1616
3836 1734
3838 1616
3846 1735
3848 1616
3856 1735
3858 1617
3866 1735
3868 1617
3876 1735
3878 1617
3886 1736
3888 1617
3896 1736
3898 1617
3906 1736
3908 1617
3916 1735
3918 1617
3926 1735
3928 1617
3936 1735
3938 1617
3946 1736
3948 1617
3956 1737
3958 1617
3966 1737
3968 1617
3976 1737
3978 1618
3986 1738
3988 1618
3996 1738
3998 1618
4006 1739
4008 1619
4016 1739
4018 1619
4026 1738
4028 1619
4036 1737
4038 1620
4044 1731
4047 1625
4052 1725
4054 1633
4060 1641
4060 1716
4066 1649
4066 1708
4072 1657
4073 1700
4078 1665
4079 1691
4081 1675
