111 771
113 759
113 781
117 791
119 751
125 797
129 749
135 800
139 747
145 801
149 746
155 801
159 744
165 801
169 743
175 801
179 743
185 800
189 742
195 799
199 741
205 798
209 739
215 797
219 739
225 797
229 739
235 796
239 738
245 795
249 737
255 795
259 737
265 794
269 736
275 793
279 735
285 792
289 734
295 791
299 733
305 790
309 733
315 790
319 733
325 789
329 732
335 788
339 731
345 787
349 731
355 787
359 730
365 786
369 730
375 786
379 729
385 785
389 727
395 784
399 727
405 784
409 726
415 783
419 726
425 782
429 725
435 781
439 725
445 780
449 724
455 779
459 723
465 779
469 723
475 778
479 722
485 778
489 721
495 777
499 721
505 776
509 720
515 775
519 720
525 774
529 719
535 774
539 719
545 774
549 718
555 773
559 717
565 772
569 717
575 771
579 716
585 770
589 716
595 768
599 715
605 768
609 715
615 767
619 714
625 766
629 713
635 766
639 713
645 767
649 712
655 766
659 711
665 764
669 710
675 764
679 709
685 764
689 708
695 764
699 708
705 762
709 707
715 762
719 705
725 761
729 705
735 761
739 705
745 761
749 704
755 760
759 703
765 760
769 703
775 760
779 702
785 758
789 702
795 757
799 701
805 756
809 701
815 755
819 701
825 754
829 700
835 754
839 699
845 753
849 698
855 753
859 697
865 752
869 697
875 752
879 696
885 752
889 695
895 752
899 694
905 750
909 693
915 750
919 692
925 749
929 691
935 750
939 690
945 749
949 689
955 749
959 688
965 749
969 687
975 749
979 685
985 749
989 683
995 750
999 680
1005 752
1009 678
1015 753
1019 674
1025 755
1029 671
1035 757
1039 668
1045 758
1049 663
1055 760
1059 659
1065 762
1069 655
1075 765
1079 650
1085 768
1089 646
1095 772
1099 642
1105 774
1108 637
1115 778
1118 633
1125 782
1127 628
1135 785
1137 623
1145 788
1147 619
1155 791
1157 614
1165 794
1167 610
1175 796
1177 606
1185 799
1187 602
1195 802
1197 598
1205 804
1207 595
1215 807
1217 592
1225 809
1227 589
1235 810
1237 586
1245 812
1247 584
1255 814
1257 581
1265 815
1267 579
1275 816
1277 577
1285 816
1287 577
1295 817
1297 575
1305 818
1307 574
1315 817
1317 573
1325 817
1327 573
1335 816
1337 573
1345 815
1347 574
1355 814
1357 575
1365 813
1367 576
1375 810
1377 578
1385 807
1387 580
1395 804
1397 582
1405 800
1407 585
1415 798
1417 589
1425 793
1427 593
1435 789
1436 598
1443 783
1445 603
1453 780
1454 608
1462 614
1463 777
1468 766
1470 620
1476 760
1478 627
1484 635
1484 753
1490 643
1491 744
1495 652
1497 734
1499 662
1502 722
1504 671
1505 711
1506 681
1507 701
1508 691
