18.60638 182.51976
32.78267 180.74772
103.66413 178.97568
184.29179 175.43161
208.21429 103.66413
235.68085 31.01064
240.99696 18.60638
265.80547 171.00152
369.46960 162.14134
462.50152 147.96505
506.80243 139.10486
539.58511 129.35866
560.84954 121.38450
577.68389 115.18237
589.20213 108.09422
601.60638 102.77812
640.59119 76.19757
608.25152 106.32219
598.94833 113.41033
584.77204 127.58663
567.05167 143.53495
538.69909 172.77356
497.94225 219.73252
454.52736 279.09574
496.17021 341.11702
528.95289 348.20517
587.43009 376.55775
616.66869 442.12310
573.25380 515.66261
512.11854 549.33131
436.80699 536.04103
393.39210 477.56383
390.73404 426.17477
397.82219 392.50608
353.52128 335.80091
294.15805 334.91489
228.59271 326.94073
196.69605 312.76444
181.63374 298.58815
173.65957 280.86778
171.00152 249.85714
