530 403
64 126
322 276
108 179
53 125
92 37
67 84
149 132
139 166
139 370
204 480
498 392
262 549
422 516
391 496
563 382
219 335
323 248
357 304
83 123
64 113
106 127
122 111
144 101
138 89
190 1
177 133
188 143
249 184
130 175
125 201
37 201
26 197
48 204
92 205
103 204
59 205
156 337
126 407
134 382
128 486
240 534
246 610
251 543
230 524
199 412
225 346
194 283
236 216
284 557
319 270
295 560
279 619
312 620
301 621
323 619
541 396
395 572
519 410
446 472
421 382
432 376
348 259
359 254
493 202
505 252
359 171
349 180
332 224
347 189
337 213
331 70
256 17
267 22
278 27
352 127
389 159
400 158
433 160
83 48
102 27
76 59
71 71
65 99
89 100
96 88
128 80
113 110
117 76
106 79
113 19
124 13
146 4
135 8
168 1
157 2
179 1
201 2
223 7
212 4
234 10
222 107
245 13
211 104
200 102
189 102
170 108
178 104
147 111
127 123
122 143
127 134
149 123
169 122
244 122
233 113
200 159
253 173
198 167
196 151
191 177
144 156
113 144
147 144
86 148
90 159
98 171
105 136
83 132
108 116
85 114
31 125
42 125
75 130
20 127
10 134
4 146
1 164
6 180
136 199
15 190
119 180
147 197
158 194
180 185
169 191
164 325
189 291
180 302
172 313
150 348
114 203
81 206
70 206
122 433
130 395
124 419
121 446
122 459
124 471
132 498
180 567
191 577
170 556
160 545
152 533
138 510
144 522
144 359
196 424
204 400
195 443
197 456
208 491
200 469
202 586
213 594
235 606
224 600
221 513
214 502
218 377
210 388
245 369
213 324
234 359
226 366
209 311
206 280
205 298
205 287
216 248
204 274
210 259
199 277
222 237
229 226
241 206
246 195
267 386
256 378
278 392
289 396
300 400
377 399
366 402
355 403
370 529
378 518
385 507
344 404
333 404
322 404
311 402
328 559
273 554
317 561
306 561
268 617
257 614
290 620
356 609
334 617
345 614
367 603
378 593
339 555
361 540
350 549
405 473
413 462
398 484
412 538
407 550
402 560
388 583
427 505
417 527
439 483
433 494
454 461
464 451
422 451
475 442
497 425
508 418
486 433
465 415
443 431
432 441
454 423
410 388
399 392
388 396
476 407
487 400
509 385
520 378
552 389
574 366
531 371
571 374
542 364
553 358
573 355
564 353
502 280
504 267
499 293
494 305
489 316
474 338
482 327
465 348
379 298
443 368
454 359
368 303
346 304
335 301
326 294
337 266
322 286
320 257
330 271
381 252
388 290
389 261
392 277
342 202
352 163
351 173
327 236
257 144
257 159
253 132
311 49
289 33
300 40
322 59
338 81
343 92
351 115
348 103
411 158
353 153
354 140
422 158
378 162
367 165
370 251
498 212
504 237
501 224
487 191
477 181
466 173
455 167
444 163
