32 111
166 128
367 140
415 14
440 2
147 28
213 16
121 49
44 108
26 112
68 162
236 162
192 150
156 121
337 158
458 202
266 211
314 108
404 95
288 106
273 29
340 71
419 27
107 65
84 57
96 82
85 35
177 19
183 18
249 20
267 26
260 133
272 129
258 114
253 128
122 134
132 116
83 101
96 101
109 133
1 143
166 141
8 162
74 159
14 166
20 169
26 170
32 171
275 234
251 251
242 231
272 165
217 159
182 150
176 150
206 147
242 138
291 147
295 141
313 155
284 163
278 164
275 200
280 228
286 223
466 193
446 202
465 182
435 191
458 164
425 173
330 143
403 146
448 152
413 127
431 137
419 129
389 120
379 139
373 136
308 112
313 127
378 129
359 28
332 75
309 55
416 83
416 1
428 76
446 72
469 58
434 1
83 42
94 25
88 29
82 51
88 64
93 86
92 70
98 76
112 59
103 71
123 44
117 53
129 41
117 38
100 25
106 28
112 32
195 16
189 17
207 16
201 16
219 16
225 16
231 17
237 17
255 21
261 23
171 20
243 18
159 23
165 21
153 25
141 31
135 36
119 112
117 117
114 110
126 114
138 117
248 117
252 116
264 113
243 118
250 121
240 119
234 120
222 123
228 122
144 119
150 120
162 122
108 107
86 112
98 120
92 116
102 104
90 99
89 91
86 96
80 106
68 106
74 106
62 106
56 107
38 109
50 108
20 114
14 117
8 121
115 123
3 126
104 123
168 123
174 123
180 124
186 125
192 125
134 140
140 142
167 133
128 137
117 132
112 129
107 127
1 135
104 138
62 165
1 149
80 155
3 157
56 167
50 169
44 170
38 171
188 150
86 151
170 149
164 148
158 147
92 147
98 142
146 144
152 146
224 159
211 157
230 160
242 163
237 237
235 244
239 251
245 252
248 225
263 245
257 249
254 220
266 166
260 216
248 164
254 165
260 165
218 144
236 140
230 142
224 144
206 155
202 151
197 150
205 142
211 145
205 138
204 126
198 126
204 133
216 124
210 125
248 137
254 134
266 131
284 124
282 107
276 109
270 111
290 121
294 104
302 116
296 118
318 148
319 125
324 145
325 125
301 135
307 130
278 126
288 151
286 158
281 187
282 180
284 172
278 194
271 205
269 240
291 217
296 211
307 192
304 199
301 205
309 184
310 173
309 178
312 164
319 164
325 162
355 150
409 150
414 154
349 154
343 156
331 160
422 167
419 160
431 186
452 203
463 199
440 197
464 176
428 180
443 147
453 158
461 170
397 144
425 132
437 141
391 142
361 146
336 141
341 138
344 134
385 140
383 123
337 126
342 130
331 125
392 112
395 122
407 125
401 124
396 107
434 75
422 79
440 73
452 71
458 68
464 64
470 54
471 49
417 55
420 48
393 54
397 60
403 64
414 61
410 89
409 65
400 101
324 95
329 92
323 101
320 103
318 96
312 98
306 100
300 102
327 70
303 50
321 65
315 60
337 78
334 85
343 63
346 56
349 48
355 35
392 38
391 47
352 41
297 45
291 41
285 37
279 33
380 8
374 12
368 17
363 23
392 3
386 5
394 30
396 24
398 2
411 11
422 1
404 1
410 1
405 13
400 18
421 42
421 35
418 20
470 36
471 43
467 23
468 29
463 16
458 11
428 1
446 4
452 7
