404.000000 272.656250
416.250305 277.894989
431.065308 283.869354
452.000000 296.828461
467.399994 305.336792
484.000000 318.625000
500.000000 336.531250
511.500000 362.642853
517.000000 388.125000
520.000000 415.500000
519.099976 441.100006
514.000000 466.666656
505.000000 491.250000
491.000000 512.312500
475.000000 526.031250
459.000000 533.812500
443.000000 538.250000
427.000000 540.281250
411.000000 540.468750
395.000000 539.125000
379.000000 536.187500
363.000000 531.718750
347.000000 525.562500
331.000000 517.343750
315.000000 506.187500
299.000000 489.875000
286.700012 462.450012
297.777771 416.508148
313.000000 399.500000
329.000000 386.406250
345.000000 374.906250
361.000000 364.343750
377.000000 354.125000
393.000000 343.906250
409.000000 333.406250
426.406097 322.673004
452.000000 296.828461
467.000000 261.218750
458.500000 237.884613
444.000000 220.562500
428.348206 208.649460
413.118073 201.327393
396.666656 193.492416
384.000000 190.187500
368.000000 186.562500
335.794128 184.919815
320.000000 182.250000
304.000000 182.656250
288.000000 184.062500
272.000000 186.437500
252.071426 191.056168
227.938934 199.180679
206.850006 212.516495
190.000000 221.625000
174.000000 239.937500
163.000000 278.799988
170.500000 317.818176
184.000000 342.218750
200.000000 362.718750
216.000000 379.187500
232.000000 392.781250
248.000000 404.312500
264.000000 414.156250
280.000000 423.720673
313.000000 434.000000
329.000000 436.968750
345.000000 437.906250
361.000000 436.281250
377.000000 431.312500
393.000000 420.531250
408.000000 400.428558
419.000000 374.500000
424.000000 356.000000
426.406097 322.673004
429.751373 302.587372
431.065308 283.869354
426.589325 256.557251
421.558777 229.392365
413.118073 201.327393
402.015259 181.113464
384.000000 159.343750
368.000000 151.250000
344.957245 163.369354
335.794128 184.919815
329.000000 220.500000
324.000000 250.250000
319.000000 278.250000
310.500000 307.227264
297.000000 324.937500
281.000000 325.250000
267.500000 307.409088
262.214294 263.928558
262.700012 215.663330
253.000000 177.171936
238.000000 163.906250
213.448090 184.586746
206.850006 212.516495
208.264114 233.416794
209.699997 255.199997
212.500000 283.250000
217.500000 311.500000
222.500000 335.600006
