<?xml version="1.0" encoding="UTF-8" standalone="no"?>
<!-- Created with CurveBenchmark -->
<svg
	xmlns:dc="http://purl.org/dc/elements/1.1/"
	xmlns:cc="http://creativecommons.org/ns#"
	xmlns:rdf="http://www.w3.org/1999/02/22-rdf-syntax-ns#"
	xmlns:svg="http://www.w3.org/2000/svg"
	xmlns="http://www.w3.org/2000/svg"
	xmlns:sodipodi="http://sodipodi.sourceforge.net/DTD/sodipodi-0.dtd"
	xmlns:inkscape="http://www.inkscape.org/namespaces/inkscape"
	width="1000"
	height="1000"
	id="svg2"
	version="1.1"
	sodipodi:docname="noisy-0/connect2d-mc9.txt">
<defs
	id="defs4" />
<metadata
	id="metadata7">
	<rdf:RDF>
		<cc:Work
			rdf:about="">
			<dc:format>image/svg+xml</dc:format>
			<dc:type
				rdf:resource="http://purl.org/dc/dcmitype/StillImage" />
			<dc:title></dc:title>
		</cc:Work>
	</rdf:RDF>
</metadata>
<g
	inkscape:label="Layer 1"
	inkscape:groupmode="layer"
	id="layer1">
	<path style="fill:none;stroke:red;stroke-width:1px;stroke-linecap:butt;stroke-linejoin:miter;stroke-opacity:1" d="M 526.024,5.53091 541.333,10.1236 z" id="boundary" inkscape:connector-curvature="0" />
	<path style="fill:none;stroke:red;stroke-width:1px;stroke-linecap:butt;stroke-linejoin:miter;stroke-opacity:1" d="M 541.333,10.1236 553.58,23.9018 z" id="boundary" inkscape:connector-curvature="0" />
	<path style="fill:none;stroke:red;stroke-width:1px;stroke-linecap:butt;stroke-linejoin:miter;stroke-opacity:1" d="M 553.58,23.9018 547.457,36.1491 z" id="boundary" inkscape:connector-curvature="0" />
	<path style="fill:none;stroke:red;stroke-width:1px;stroke-linecap:butt;stroke-linejoin:miter;stroke-opacity:1" d="M 547.457,36.1491 532.147,45.3346 z" id="boundary" inkscape:connector-curvature="0" />
	<path style="fill:none;stroke:red;stroke-width:1px;stroke-linecap:butt;stroke-linejoin:miter;stroke-opacity:1" d="M 532.147,45.3346 526.024,59.1111 z" id="boundary" inkscape:connector-curvature="0" />
	<path style="fill:none;stroke:red;stroke-width:1px;stroke-linecap:butt;stroke-linejoin:miter;stroke-opacity:1" d="M 526.024,59.1111 535.209,74.4202 z" id="boundary" inkscape:connector-curvature="0" />
	<path style="fill:none;stroke:red;stroke-width:1px;stroke-linecap:butt;stroke-linejoin:miter;stroke-opacity:1" d="M 535.209,74.4202 556.642,75.9511 z" id="boundary" inkscape:connector-curvature="0" />
	<path style="fill:none;stroke:red;stroke-width:1px;stroke-linecap:butt;stroke-linejoin:miter;stroke-opacity:1" d="M 556.642,75.9511 578.073,75.9511 z" id="boundary" inkscape:connector-curvature="0" />
	<path style="fill:none;stroke:red;stroke-width:1px;stroke-linecap:butt;stroke-linejoin:miter;stroke-opacity:1" d="M 578.073,75.9511 596.444,75.9511 z" id="boundary" inkscape:connector-curvature="0" />
	<path style="fill:none;stroke:red;stroke-width:1px;stroke-linecap:butt;stroke-linejoin:miter;stroke-opacity:1" d="M 596.444,75.9511 614.815,77.482 z" id="boundary" inkscape:connector-curvature="0" />
	<path style="fill:none;stroke:red;stroke-width:1px;stroke-linecap:butt;stroke-linejoin:miter;stroke-opacity:1" d="M 614.815,77.482 630.122,82.0748 z" id="boundary" inkscape:connector-curvature="0" />
	<path style="fill:none;stroke:red;stroke-width:1px;stroke-linecap:butt;stroke-linejoin:miter;stroke-opacity:1" d="M 630.122,82.0748 645.432,83.6057 z" id="boundary" inkscape:connector-curvature="0" />
	<path style="fill:none;stroke:red;stroke-width:1px;stroke-linecap:butt;stroke-linejoin:miter;stroke-opacity:1" d="M 645.432,83.6057 660.741,85.1366 z" id="boundary" inkscape:connector-curvature="0" />
	<path style="fill:none;stroke:red;stroke-width:1px;stroke-linecap:butt;stroke-linejoin:miter;stroke-opacity:1" d="M 660.741,85.1366 674.519,91.2602 z" id="boundary" inkscape:connector-curvature="0" />
	<path style="fill:none;stroke:red;stroke-width:1px;stroke-linecap:butt;stroke-linejoin:miter;stroke-opacity:1" d="M 674.519,91.2602 688.295,94.322 z" id="boundary" inkscape:connector-curvature="0" />
	<path style="fill:none;stroke:red;stroke-width:1px;stroke-linecap:butt;stroke-linejoin:miter;stroke-opacity:1" d="M 688.295,94.322 708.197,101.975 z" id="boundary" inkscape:connector-curvature="0" />
	<path style="fill:none;stroke:red;stroke-width:1px;stroke-linecap:butt;stroke-linejoin:miter;stroke-opacity:1" d="M 708.197,101.975 723.506,109.629 z" id="boundary" inkscape:connector-curvature="0" />
	<path style="fill:none;stroke:red;stroke-width:1px;stroke-linecap:butt;stroke-linejoin:miter;stroke-opacity:1" d="M 723.506,109.629 735.754,121.877 z" id="boundary" inkscape:connector-curvature="0" />
	<path style="fill:none;stroke:red;stroke-width:1px;stroke-linecap:butt;stroke-linejoin:miter;stroke-opacity:1" d="M 735.754,121.877 746.468,138.717 z" id="boundary" inkscape:connector-curvature="0" />
	<path style="fill:none;stroke:red;stroke-width:1px;stroke-linecap:butt;stroke-linejoin:miter;stroke-opacity:1" d="M 746.468,138.717 752.592,152.495 z" id="boundary" inkscape:connector-curvature="0" />
	<path style="fill:none;stroke:red;stroke-width:1px;stroke-linecap:butt;stroke-linejoin:miter;stroke-opacity:1" d="M 752.592,152.495 758.716,167.802 z" id="boundary" inkscape:connector-curvature="0" />
	<path style="fill:none;stroke:red;stroke-width:1px;stroke-linecap:butt;stroke-linejoin:miter;stroke-opacity:1" d="M 758.716,167.802 763.308,184.642 z" id="boundary" inkscape:connector-curvature="0" />
	<path style="fill:none;stroke:red;stroke-width:1px;stroke-linecap:butt;stroke-linejoin:miter;stroke-opacity:1" d="M 763.308,184.642 774.025,196.89 z" id="boundary" inkscape:connector-curvature="0" />
	<path style="fill:none;stroke:red;stroke-width:1px;stroke-linecap:butt;stroke-linejoin:miter;stroke-opacity:1" d="M 774.025,196.89 778.617,213.728 z" id="boundary" inkscape:connector-curvature="0" />
	<path style="fill:none;stroke:red;stroke-width:1px;stroke-linecap:butt;stroke-linejoin:miter;stroke-opacity:1" d="M 778.617,213.728 784.741,232.099 z" id="boundary" inkscape:connector-curvature="0" />
	<path style="fill:none;stroke:red;stroke-width:1px;stroke-linecap:butt;stroke-linejoin:miter;stroke-opacity:1" d="M 784.741,232.099 790.863,247.408 z" id="boundary" inkscape:connector-curvature="0" />
	<path style="fill:none;stroke:red;stroke-width:1px;stroke-linecap:butt;stroke-linejoin:miter;stroke-opacity:1" d="M 790.863,247.408 796.987,262.716 z" id="boundary" inkscape:connector-curvature="0" />
	<path style="fill:none;stroke:red;stroke-width:1px;stroke-linecap:butt;stroke-linejoin:miter;stroke-opacity:1" d="M 796.987,262.716 806.172,278.025 z" id="boundary" inkscape:connector-curvature="0" />
	<path style="fill:none;stroke:red;stroke-width:1px;stroke-linecap:butt;stroke-linejoin:miter;stroke-opacity:1" d="M 806.172,278.025 824.543,271.901 z" id="boundary" inkscape:connector-curvature="0" />
	<path style="fill:none;stroke:red;stroke-width:1px;stroke-linecap:butt;stroke-linejoin:miter;stroke-opacity:1" d="M 824.543,271.901 838.321,261.186 z" id="boundary" inkscape:connector-curvature="0" />
	<path style="fill:none;stroke:red;stroke-width:1px;stroke-linecap:butt;stroke-linejoin:miter;stroke-opacity:1" d="M 838.321,261.186 852.098,244.346 z" id="boundary" inkscape:connector-curvature="0" />
	<path style="fill:none;stroke:red;stroke-width:1px;stroke-linecap:butt;stroke-linejoin:miter;stroke-opacity:1" d="M 852.098,244.346 864.345,222.914 z" id="boundary" inkscape:connector-curvature="0" />
	<path style="fill:none;stroke:red;stroke-width:1px;stroke-linecap:butt;stroke-linejoin:miter;stroke-opacity:1" d="M 864.345,222.914 872,203.013 z" id="boundary" inkscape:connector-curvature="0" />
	<path style="fill:none;stroke:red;stroke-width:1px;stroke-linecap:butt;stroke-linejoin:miter;stroke-opacity:1" d="M 872,203.013 876.592,186.173 z" id="boundary" inkscape:connector-curvature="0" />
	<path style="fill:none;stroke:red;stroke-width:1px;stroke-linecap:butt;stroke-linejoin:miter;stroke-opacity:1" d="M 876.592,186.173 887.309,172.395 z" id="boundary" inkscape:connector-curvature="0" />
	<path style="fill:none;stroke:red;stroke-width:1px;stroke-linecap:butt;stroke-linejoin:miter;stroke-opacity:1" d="M 887.309,172.395 896.494,158.617 z" id="boundary" inkscape:connector-curvature="0" />
	<path style="fill:none;stroke:red;stroke-width:1px;stroke-linecap:butt;stroke-linejoin:miter;stroke-opacity:1" d="M 896.494,158.617 907.209,143.31 z" id="boundary" inkscape:connector-curvature="0" />
	<path style="fill:none;stroke:red;stroke-width:1px;stroke-linecap:butt;stroke-linejoin:miter;stroke-opacity:1" d="M 907.209,143.31 922.518,134.124 z" id="boundary" inkscape:connector-curvature="0" />
	<path style="fill:none;stroke:red;stroke-width:1px;stroke-linecap:butt;stroke-linejoin:miter;stroke-opacity:1" d="M 922.518,134.124 939.358,134.124 z" id="boundary" inkscape:connector-curvature="0" />
	<path style="fill:none;stroke:red;stroke-width:1px;stroke-linecap:butt;stroke-linejoin:miter;stroke-opacity:1" d="M 939.358,134.124 956.196,135.655 z" id="boundary" inkscape:connector-curvature="0" />
	<path style="fill:none;stroke:red;stroke-width:1px;stroke-linecap:butt;stroke-linejoin:miter;stroke-opacity:1" d="M 956.196,135.655 973.036,132.593 z" id="boundary" inkscape:connector-curvature="0" />
	<path style="fill:none;stroke:red;stroke-width:1px;stroke-linecap:butt;stroke-linejoin:miter;stroke-opacity:1" d="M 973.036,132.593 996,138.717 z" id="boundary" inkscape:connector-curvature="0" />
	<path style="fill:none;stroke:red;stroke-width:1px;stroke-linecap:butt;stroke-linejoin:miter;stroke-opacity:1" d="M 996,138.717 983.753,152.495 z" id="boundary" inkscape:connector-curvature="0" />
	<path style="fill:none;stroke:red;stroke-width:1px;stroke-linecap:butt;stroke-linejoin:miter;stroke-opacity:1" d="M 983.753,152.495 973.036,160.148 z" id="boundary" inkscape:connector-curvature="0" />
	<path style="fill:none;stroke:red;stroke-width:1px;stroke-linecap:butt;stroke-linejoin:miter;stroke-opacity:1" d="M 973.036,160.148 960.789,173.926 z" id="boundary" inkscape:connector-curvature="0" />
	<path style="fill:none;stroke:red;stroke-width:1px;stroke-linecap:butt;stroke-linejoin:miter;stroke-opacity:1" d="M 960.789,173.926 948.543,189.235 z" id="boundary" inkscape:connector-curvature="0" />
	<path style="fill:none;stroke:red;stroke-width:1px;stroke-linecap:butt;stroke-linejoin:miter;stroke-opacity:1" d="M 948.543,189.235 940.889,201.482 z" id="boundary" inkscape:connector-curvature="0" />
	<path style="fill:none;stroke:red;stroke-width:1px;stroke-linecap:butt;stroke-linejoin:miter;stroke-opacity:1" d="M 940.889,201.482 934.765,216.79 z" id="boundary" inkscape:connector-curvature="0" />
	<path style="fill:none;stroke:red;stroke-width:1px;stroke-linecap:butt;stroke-linejoin:miter;stroke-opacity:1" d="M 934.765,216.79 931.703,233.63 z" id="boundary" inkscape:connector-curvature="0" />
	<path style="fill:none;stroke:red;stroke-width:1px;stroke-linecap:butt;stroke-linejoin:miter;stroke-opacity:1" d="M 931.703,233.63 928.642,252.001 z" id="boundary" inkscape:connector-curvature="0" />
	<path style="fill:none;stroke:red;stroke-width:1px;stroke-linecap:butt;stroke-linejoin:miter;stroke-opacity:1" d="M 928.642,252.001 924.049,271.901 z" id="boundary" inkscape:connector-curvature="0" />
	<path style="fill:none;stroke:red;stroke-width:1px;stroke-linecap:butt;stroke-linejoin:miter;stroke-opacity:1" d="M 924.049,271.901 919.456,290.272 z" id="boundary" inkscape:connector-curvature="0" />
	<path style="fill:none;stroke:red;stroke-width:1px;stroke-linecap:butt;stroke-linejoin:miter;stroke-opacity:1" d="M 919.456,290.272 913.333,307.112 z" id="boundary" inkscape:connector-curvature="0" />
	<path style="fill:none;stroke:red;stroke-width:1px;stroke-linecap:butt;stroke-linejoin:miter;stroke-opacity:1" d="M 913.333,307.112 907.209,323.95 z" id="boundary" inkscape:connector-curvature="0" />
	<path style="fill:none;stroke:red;stroke-width:1px;stroke-linecap:butt;stroke-linejoin:miter;stroke-opacity:1" d="M 907.209,323.95 899.554,337.728 z" id="boundary" inkscape:connector-curvature="0" />
	<path style="fill:none;stroke:red;stroke-width:1px;stroke-linecap:butt;stroke-linejoin:miter;stroke-opacity:1" d="M 899.554,337.728 890.371,353.038 z" id="boundary" inkscape:connector-curvature="0" />
	<path style="fill:none;stroke:red;stroke-width:1px;stroke-linecap:butt;stroke-linejoin:miter;stroke-opacity:1" d="M 890.371,353.038 875.061,368.347 z" id="boundary" inkscape:connector-curvature="0" />
	<path style="fill:none;stroke:red;stroke-width:1px;stroke-linecap:butt;stroke-linejoin:miter;stroke-opacity:1" d="M 875.061,368.347 862.814,382.123 z" id="boundary" inkscape:connector-curvature="0" />
	<path style="fill:none;stroke:red;stroke-width:1px;stroke-linecap:butt;stroke-linejoin:miter;stroke-opacity:1" d="M 862.814,382.123 847.505,389.778 z" id="boundary" inkscape:connector-curvature="0" />
	<path style="fill:none;stroke:red;stroke-width:1px;stroke-linecap:butt;stroke-linejoin:miter;stroke-opacity:1" d="M 847.505,389.778 830.667,395.901 z" id="boundary" inkscape:connector-curvature="0" />
	<path style="fill:none;stroke:red;stroke-width:1px;stroke-linecap:butt;stroke-linejoin:miter;stroke-opacity:1" d="M 830.667,395.901 819.95,409.68 z" id="boundary" inkscape:connector-curvature="0" />
	<path style="fill:none;stroke:red;stroke-width:1px;stroke-linecap:butt;stroke-linejoin:miter;stroke-opacity:1" d="M 819.95,409.68 813.827,428.049 z" id="boundary" inkscape:connector-curvature="0" />
	<path style="fill:none;stroke:red;stroke-width:1px;stroke-linecap:butt;stroke-linejoin:miter;stroke-opacity:1" d="M 813.827,428.049 804.641,446.42 z" id="boundary" inkscape:connector-curvature="0" />
	<path style="fill:none;stroke:red;stroke-width:1px;stroke-linecap:butt;stroke-linejoin:miter;stroke-opacity:1" d="M 804.641,446.42 793.925,463.26 z" id="boundary" inkscape:connector-curvature="0" />
	<path style="fill:none;stroke:red;stroke-width:1px;stroke-linecap:butt;stroke-linejoin:miter;stroke-opacity:1" d="M 793.925,463.26 780.148,477.038 z" id="boundary" inkscape:connector-curvature="0" />
	<path style="fill:none;stroke:red;stroke-width:1px;stroke-linecap:butt;stroke-linejoin:miter;stroke-opacity:1" d="M 780.148,477.038 766.37,489.284 z" id="boundary" inkscape:connector-curvature="0" />
	<path style="fill:none;stroke:red;stroke-width:1px;stroke-linecap:butt;stroke-linejoin:miter;stroke-opacity:1" d="M 766.37,489.284 751.061,498.469 z" id="boundary" inkscape:connector-curvature="0" />
	<path style="fill:none;stroke:red;stroke-width:1px;stroke-linecap:butt;stroke-linejoin:miter;stroke-opacity:1" d="M 751.061,498.469 734.223,512.247 z" id="boundary" inkscape:connector-curvature="0" />
	<path style="fill:none;stroke:red;stroke-width:1px;stroke-linecap:butt;stroke-linejoin:miter;stroke-opacity:1" d="M 734.223,512.247 720.444,522.964 z" id="boundary" inkscape:connector-curvature="0" />
	<path style="fill:none;stroke:red;stroke-width:1px;stroke-linecap:butt;stroke-linejoin:miter;stroke-opacity:1" d="M 720.444,522.964 705.135,533.678 z" id="boundary" inkscape:connector-curvature="0" />
	<path style="fill:none;stroke:red;stroke-width:1px;stroke-linecap:butt;stroke-linejoin:miter;stroke-opacity:1" d="M 705.135,533.678 689.826,542.864 z" id="boundary" inkscape:connector-curvature="0" />
	<path style="fill:none;stroke:red;stroke-width:1px;stroke-linecap:butt;stroke-linejoin:miter;stroke-opacity:1" d="M 689.826,542.864 676.05,550.518 z" id="boundary" inkscape:connector-curvature="0" />
	<path style="fill:none;stroke:red;stroke-width:1px;stroke-linecap:butt;stroke-linejoin:miter;stroke-opacity:1" d="M 676.05,550.518 662.272,558.173 z" id="boundary" inkscape:connector-curvature="0" />
	<path style="fill:none;stroke:red;stroke-width:1px;stroke-linecap:butt;stroke-linejoin:miter;stroke-opacity:1" d="M 662.272,558.173 639.308,561.235 z" id="boundary" inkscape:connector-curvature="0" />
	<path style="fill:none;stroke:red;stroke-width:1px;stroke-linecap:butt;stroke-linejoin:miter;stroke-opacity:1" d="M 639.308,561.235 622.47,567.358 z" id="boundary" inkscape:connector-curvature="0" />
	<path style="fill:none;stroke:red;stroke-width:1px;stroke-linecap:butt;stroke-linejoin:miter;stroke-opacity:1" d="M 622.47,567.358 605.629,570.42 z" id="boundary" inkscape:connector-curvature="0" />
	<path style="fill:none;stroke:red;stroke-width:1px;stroke-linecap:butt;stroke-linejoin:miter;stroke-opacity:1" d="M 605.629,570.42 587.259,570.42 z" id="boundary" inkscape:connector-curvature="0" />
	<path style="fill:none;stroke:red;stroke-width:1px;stroke-linecap:butt;stroke-linejoin:miter;stroke-opacity:1" d="M 587.259,570.42 568.889,570.42 z" id="boundary" inkscape:connector-curvature="0" />
	<path style="fill:none;stroke:red;stroke-width:1px;stroke-linecap:butt;stroke-linejoin:miter;stroke-opacity:1" d="M 568.889,570.42 547.457,570.42 z" id="boundary" inkscape:connector-curvature="0" />
	<path style="fill:none;stroke:red;stroke-width:1px;stroke-linecap:butt;stroke-linejoin:miter;stroke-opacity:1" d="M 547.457,570.42 529.086,571.951 z" id="boundary" inkscape:connector-curvature="0" />
	<path style="fill:none;stroke:red;stroke-width:1px;stroke-linecap:butt;stroke-linejoin:miter;stroke-opacity:1" d="M 529.086,571.951 509.185,571.951 z" id="boundary" inkscape:connector-curvature="0" />
	<path style="fill:none;stroke:red;stroke-width:1px;stroke-linecap:butt;stroke-linejoin:miter;stroke-opacity:1" d="M 509.185,571.951 490.815,570.42 z" id="boundary" inkscape:connector-curvature="0" />
	<path style="fill:none;stroke:red;stroke-width:1px;stroke-linecap:butt;stroke-linejoin:miter;stroke-opacity:1" d="M 490.815,570.42 472.444,570.42 z" id="boundary" inkscape:connector-curvature="0" />
	<path style="fill:none;stroke:red;stroke-width:1px;stroke-linecap:butt;stroke-linejoin:miter;stroke-opacity:1" d="M 472.444,570.42 449.482,567.358 z" id="boundary" inkscape:connector-curvature="0" />
	<path style="fill:none;stroke:red;stroke-width:1px;stroke-linecap:butt;stroke-linejoin:miter;stroke-opacity:1" d="M 449.482,567.358 431.111,567.358 z" id="boundary" inkscape:connector-curvature="0" />
	<path style="fill:none;stroke:red;stroke-width:1px;stroke-linecap:butt;stroke-linejoin:miter;stroke-opacity:1" d="M 431.111,567.358 414.271,565.827 z" id="boundary" inkscape:connector-curvature="0" />
	<path style="fill:none;stroke:red;stroke-width:1px;stroke-linecap:butt;stroke-linejoin:miter;stroke-opacity:1" d="M 414.271,565.827 394.371,562.766 z" id="boundary" inkscape:connector-curvature="0" />
	<path style="fill:none;stroke:red;stroke-width:1px;stroke-linecap:butt;stroke-linejoin:miter;stroke-opacity:1" d="M 394.371,562.766 377.53,561.235 z" id="boundary" inkscape:connector-curvature="0" />
	<path style="fill:none;stroke:red;stroke-width:1px;stroke-linecap:butt;stroke-linejoin:miter;stroke-opacity:1" d="M 377.53,561.235 359.161,559.704 z" id="boundary" inkscape:connector-curvature="0" />
	<path style="fill:none;stroke:red;stroke-width:1px;stroke-linecap:butt;stroke-linejoin:miter;stroke-opacity:1" d="M 359.161,559.704 336.198,555.111 z" id="boundary" inkscape:connector-curvature="0" />
	<path style="fill:none;stroke:red;stroke-width:1px;stroke-linecap:butt;stroke-linejoin:miter;stroke-opacity:1" d="M 336.198,555.111 317.827,552.049 z" id="boundary" inkscape:connector-curvature="0" />
	<path style="fill:none;stroke:red;stroke-width:1px;stroke-linecap:butt;stroke-linejoin:miter;stroke-opacity:1" d="M 317.827,552.049 300.988,544.395 z" id="boundary" inkscape:connector-curvature="0" />
	<path style="fill:none;stroke:red;stroke-width:1px;stroke-linecap:butt;stroke-linejoin:miter;stroke-opacity:1" d="M 300.988,544.395 282.617,533.678 z" id="boundary" inkscape:connector-curvature="0" />
	<path style="fill:none;stroke:red;stroke-width:1px;stroke-linecap:butt;stroke-linejoin:miter;stroke-opacity:1" d="M 282.617,533.678 262.716,521.433 z" id="boundary" inkscape:connector-curvature="0" />
	<path style="fill:none;stroke:red;stroke-width:1px;stroke-linecap:butt;stroke-linejoin:miter;stroke-opacity:1" d="M 262.716,521.433 245.877,510.716 z" id="boundary" inkscape:connector-curvature="0" />
	<path style="fill:none;stroke:red;stroke-width:1px;stroke-linecap:butt;stroke-linejoin:miter;stroke-opacity:1" d="M 245.877,510.716 229.037,500 z" id="boundary" inkscape:connector-curvature="0" />
	<path style="fill:none;stroke:red;stroke-width:1px;stroke-linecap:butt;stroke-linejoin:miter;stroke-opacity:1" d="M 229.037,500 215.259,489.284 z" id="boundary" inkscape:connector-curvature="0" />
	<path style="fill:none;stroke:red;stroke-width:1px;stroke-linecap:butt;stroke-linejoin:miter;stroke-opacity:1" d="M 215.259,489.284 201.481,478.567 z" id="boundary" inkscape:connector-curvature="0" />
	<path style="fill:none;stroke:red;stroke-width:1px;stroke-linecap:butt;stroke-linejoin:miter;stroke-opacity:1" d="M 201.481,478.567 189.235,469.383 z" id="boundary" inkscape:connector-curvature="0" />
	<path style="fill:none;stroke:red;stroke-width:1px;stroke-linecap:butt;stroke-linejoin:miter;stroke-opacity:1" d="M 189.235,469.383 178.519,458.667 z" id="boundary" inkscape:connector-curvature="0" />
	<path style="fill:none;stroke:red;stroke-width:1px;stroke-linecap:butt;stroke-linejoin:miter;stroke-opacity:1" d="M 178.519,458.667 166.272,446.42 z" id="boundary" inkscape:connector-curvature="0" />
	<path style="fill:none;stroke:red;stroke-width:1px;stroke-linecap:butt;stroke-linejoin:miter;stroke-opacity:1" d="M 166.272,446.42 157.086,432.642 z" id="boundary" inkscape:connector-curvature="0" />
	<path style="fill:none;stroke:red;stroke-width:1px;stroke-linecap:butt;stroke-linejoin:miter;stroke-opacity:1" d="M 157.086,432.642 150.962,418.865 z" id="boundary" inkscape:connector-curvature="0" />
	<path style="fill:none;stroke:red;stroke-width:1px;stroke-linecap:butt;stroke-linejoin:miter;stroke-opacity:1" d="M 150.962,418.865 147.901,402.025 z" id="boundary" inkscape:connector-curvature="0" />
	<path style="fill:none;stroke:red;stroke-width:1px;stroke-linecap:butt;stroke-linejoin:miter;stroke-opacity:1" d="M 147.901,402.025 138.717,389.778 z" id="boundary" inkscape:connector-curvature="0" />
	<path style="fill:none;stroke:red;stroke-width:1px;stroke-linecap:butt;stroke-linejoin:miter;stroke-opacity:1" d="M 138.717,389.778 124.939,380.592 z" id="boundary" inkscape:connector-curvature="0" />
	<path style="fill:none;stroke:red;stroke-width:1px;stroke-linecap:butt;stroke-linejoin:miter;stroke-opacity:1" d="M 124.939,380.592 140.248,343.852 z" id="boundary" inkscape:connector-curvature="0" />
	<path style="fill:none;stroke:red;stroke-width:1px;stroke-linecap:butt;stroke-linejoin:miter;stroke-opacity:1" d="M 140.248,343.852 150.962,331.605 z" id="boundary" inkscape:connector-curvature="0" />
	<path style="fill:none;stroke:red;stroke-width:1px;stroke-linecap:butt;stroke-linejoin:miter;stroke-opacity:1" d="M 150.962,331.605 155.555,314.766 z" id="boundary" inkscape:connector-curvature="0" />
	<path style="fill:none;stroke:red;stroke-width:1px;stroke-linecap:butt;stroke-linejoin:miter;stroke-opacity:1" d="M 155.555,314.766 158.617,296.396 z" id="boundary" inkscape:connector-curvature="0" />
	<path style="fill:none;stroke:red;stroke-width:1px;stroke-linecap:butt;stroke-linejoin:miter;stroke-opacity:1" d="M 158.617,296.396 164.741,279.556 z" id="boundary" inkscape:connector-curvature="0" />
	<path style="fill:none;stroke:red;stroke-width:1px;stroke-linecap:butt;stroke-linejoin:miter;stroke-opacity:1" d="M 164.741,279.556 176.988,241.284 z" id="boundary" inkscape:connector-curvature="0" />
	<path style="fill:none;stroke:red;stroke-width:1px;stroke-linecap:butt;stroke-linejoin:miter;stroke-opacity:1" d="M 176.988,241.284 169.333,261.186 z" id="boundary" inkscape:connector-curvature="0" />
	<path style="fill:none;stroke:red;stroke-width:1px;stroke-linecap:butt;stroke-linejoin:miter;stroke-opacity:1" d="M 169.333,261.186 80.5439,267.308 z" id="boundary" inkscape:connector-curvature="0" />
	<path style="fill:none;stroke:red;stroke-width:1px;stroke-linecap:butt;stroke-linejoin:miter;stroke-opacity:1" d="M 80.5439,267.308 86.6675,281.086 z" id="boundary" inkscape:connector-curvature="0" />
	<path style="fill:none;stroke:red;stroke-width:1px;stroke-linecap:butt;stroke-linejoin:miter;stroke-opacity:1" d="M 86.6675,281.086 95.8513,291.803 z" id="boundary" inkscape:connector-curvature="0" />
	<path style="fill:none;stroke:red;stroke-width:1px;stroke-linecap:butt;stroke-linejoin:miter;stroke-opacity:1" d="M 95.8513,291.803 103.506,305.581 z" id="boundary" inkscape:connector-curvature="0" />
	<path style="fill:none;stroke:red;stroke-width:1px;stroke-linecap:butt;stroke-linejoin:miter;stroke-opacity:1" d="M 103.506,305.581 115.753,317.827 z" id="boundary" inkscape:connector-curvature="0" />
	<path style="fill:none;stroke:red;stroke-width:1px;stroke-linecap:butt;stroke-linejoin:miter;stroke-opacity:1" d="M 115.753,317.827 126.47,331.605 z" id="boundary" inkscape:connector-curvature="0" />
	<path style="fill:none;stroke:red;stroke-width:1px;stroke-linecap:butt;stroke-linejoin:miter;stroke-opacity:1" d="M 126.47,331.605 108.099,369.876 z" id="boundary" inkscape:connector-curvature="0" />
	<path style="fill:none;stroke:red;stroke-width:1px;stroke-linecap:butt;stroke-linejoin:miter;stroke-opacity:1" d="M 108.099,369.876 92.7895,363.754 z" id="boundary" inkscape:connector-curvature="0" />
	<path style="fill:none;stroke:red;stroke-width:1px;stroke-linecap:butt;stroke-linejoin:miter;stroke-opacity:1" d="M 92.7895,363.754 79.0129,356.099 z" id="boundary" inkscape:connector-curvature="0" />
	<path style="fill:none;stroke:red;stroke-width:1px;stroke-linecap:butt;stroke-linejoin:miter;stroke-opacity:1" d="M 79.0129,356.099 69.8275,345.383 z" id="boundary" inkscape:connector-curvature="0" />
	<path style="fill:none;stroke:red;stroke-width:1px;stroke-linecap:butt;stroke-linejoin:miter;stroke-opacity:1" d="M 69.8275,345.383 62.1729,337.728 z" id="boundary" inkscape:connector-curvature="0" />
	<path style="fill:none;stroke:red;stroke-width:1px;stroke-linecap:butt;stroke-linejoin:miter;stroke-opacity:1" d="M 62.1729,337.728 51.4566,327.012 z" id="boundary" inkscape:connector-curvature="0" />
	<path style="fill:none;stroke:red;stroke-width:1px;stroke-linecap:butt;stroke-linejoin:miter;stroke-opacity:1" d="M 51.4566,327.012 40.7402,316.296 z" id="boundary" inkscape:connector-curvature="0" />
	<path style="fill:none;stroke:red;stroke-width:1px;stroke-linecap:butt;stroke-linejoin:miter;stroke-opacity:1" d="M 40.7402,316.296 33.0873,304.05 z" id="boundary" inkscape:connector-curvature="0" />
	<path style="fill:none;stroke:red;stroke-width:1px;stroke-linecap:butt;stroke-linejoin:miter;stroke-opacity:1" d="M 33.0873,304.05 25.4327,293.334 z" id="boundary" inkscape:connector-curvature="0" />
	<path style="fill:none;stroke:red;stroke-width:1px;stroke-linecap:butt;stroke-linejoin:miter;stroke-opacity:1" d="M 25.4327,293.334 19.3091,282.617 z" id="boundary" inkscape:connector-curvature="0" />
	<path style="fill:none;stroke:red;stroke-width:1px;stroke-linecap:butt;stroke-linejoin:miter;stroke-opacity:1" d="M 19.3091,282.617 71.3584,252.001 z" id="boundary" inkscape:connector-curvature="0" />
	<path style="fill:none;stroke:red;stroke-width:1px;stroke-linecap:butt;stroke-linejoin:miter;stroke-opacity:1" d="M 71.3584,252.001 11.6546,267.308 z" id="boundary" inkscape:connector-curvature="0" />
	<path style="fill:none;stroke:red;stroke-width:1px;stroke-linecap:butt;stroke-linejoin:miter;stroke-opacity:1" d="M 11.6546,267.308 8.59273,253.532 z" id="boundary" inkscape:connector-curvature="0" />
	<path style="fill:none;stroke:red;stroke-width:1px;stroke-linecap:butt;stroke-linejoin:miter;stroke-opacity:1" d="M 8.59273,253.532 7.06182,239.754 z" id="boundary" inkscape:connector-curvature="0" />
	<path style="fill:none;stroke:red;stroke-width:1px;stroke-linecap:butt;stroke-linejoin:miter;stroke-opacity:1" d="M 7.06182,239.754 4,224.444 z" id="boundary" inkscape:connector-curvature="0" />
	<path style="fill:none;stroke:red;stroke-width:1px;stroke-linecap:butt;stroke-linejoin:miter;stroke-opacity:1" d="M 4,224.444 5.53091,206.075 z" id="boundary" inkscape:connector-curvature="0" />
	<path style="fill:none;stroke:red;stroke-width:1px;stroke-linecap:butt;stroke-linejoin:miter;stroke-opacity:1" d="M 5.53091,206.075 8.59273,192.297 z" id="boundary" inkscape:connector-curvature="0" />
	<path style="fill:none;stroke:red;stroke-width:1px;stroke-linecap:butt;stroke-linejoin:miter;stroke-opacity:1" d="M 8.59273,192.297 16.2473,181.581 z" id="boundary" inkscape:connector-curvature="0" />
	<path style="fill:none;stroke:red;stroke-width:1px;stroke-linecap:butt;stroke-linejoin:miter;stroke-opacity:1" d="M 16.2473,181.581 25.4327,170.864 z" id="boundary" inkscape:connector-curvature="0" />
	<path style="fill:none;stroke:red;stroke-width:1px;stroke-linecap:butt;stroke-linejoin:miter;stroke-opacity:1" d="M 25.4327,170.864 39.2093,163.21 z" id="boundary" inkscape:connector-curvature="0" />
	<path style="fill:none;stroke:red;stroke-width:1px;stroke-linecap:butt;stroke-linejoin:miter;stroke-opacity:1" d="M 39.2093,163.21 52.9875,158.617 z" id="boundary" inkscape:connector-curvature="0" />
	<path style="fill:none;stroke:red;stroke-width:1px;stroke-linecap:butt;stroke-linejoin:miter;stroke-opacity:1" d="M 52.9875,158.617 69.8275,155.555 z" id="boundary" inkscape:connector-curvature="0" />
	<path style="fill:none;stroke:red;stroke-width:1px;stroke-linecap:butt;stroke-linejoin:miter;stroke-opacity:1" d="M 69.8275,155.555 83.6057,152.495 z" id="boundary" inkscape:connector-curvature="0" />
	<path style="fill:none;stroke:red;stroke-width:1px;stroke-linecap:butt;stroke-linejoin:miter;stroke-opacity:1" d="M 83.6057,152.495 83.6057,198.421 z" id="boundary" inkscape:connector-curvature="0" />
	<path style="fill:none;stroke:red;stroke-width:1px;stroke-linecap:butt;stroke-linejoin:miter;stroke-opacity:1" d="M 83.6057,198.421 72.8893,207.606 z" id="boundary" inkscape:connector-curvature="0" />
	<path style="fill:none;stroke:red;stroke-width:1px;stroke-linecap:butt;stroke-linejoin:miter;stroke-opacity:1" d="M 72.8893,207.606 66.7657,224.444 z" id="boundary" inkscape:connector-curvature="0" />
	<path style="fill:none;stroke:red;stroke-width:1px;stroke-linecap:butt;stroke-linejoin:miter;stroke-opacity:1" d="M 66.7657,224.444 69.8275,239.754 z" id="boundary" inkscape:connector-curvature="0" />
	<path style="fill:none;stroke:red;stroke-width:1px;stroke-linecap:butt;stroke-linejoin:miter;stroke-opacity:1" d="M 69.8275,239.754 100.444,192.297 z" id="boundary" inkscape:connector-curvature="0" />
	<path style="fill:none;stroke:red;stroke-width:1px;stroke-linecap:butt;stroke-linejoin:miter;stroke-opacity:1" d="M 100.444,192.297 98.9131,150.964 z" id="boundary" inkscape:connector-curvature="0" />
	<path style="fill:none;stroke:red;stroke-width:1px;stroke-linecap:butt;stroke-linejoin:miter;stroke-opacity:1" d="M 98.9131,150.964 114.222,150.964 z" id="boundary" inkscape:connector-curvature="0" />
	<path style="fill:none;stroke:red;stroke-width:1px;stroke-linecap:butt;stroke-linejoin:miter;stroke-opacity:1" d="M 114.222,150.964 129.531,150.964 z" id="boundary" inkscape:connector-curvature="0" />
	<path style="fill:none;stroke:red;stroke-width:1px;stroke-linecap:butt;stroke-linejoin:miter;stroke-opacity:1" d="M 129.531,150.964 117.284,189.235 z" id="boundary" inkscape:connector-curvature="0" />
	<path style="fill:none;stroke:red;stroke-width:1px;stroke-linecap:butt;stroke-linejoin:miter;stroke-opacity:1" d="M 117.284,189.235 134.124,186.173 z" id="boundary" inkscape:connector-curvature="0" />
	<path style="fill:none;stroke:red;stroke-width:1px;stroke-linecap:butt;stroke-linejoin:miter;stroke-opacity:1" d="M 134.124,186.173 150.962,186.173 z" id="boundary" inkscape:connector-curvature="0" />
	<path style="fill:none;stroke:red;stroke-width:1px;stroke-linecap:butt;stroke-linejoin:miter;stroke-opacity:1" d="M 150.962,186.173 143.31,149.433 z" id="boundary" inkscape:connector-curvature="0" />
	<path style="fill:none;stroke:red;stroke-width:1px;stroke-linecap:butt;stroke-linejoin:miter;stroke-opacity:1" d="M 143.31,149.433 158.617,149.433 z" id="boundary" inkscape:connector-curvature="0" />
	<path style="fill:none;stroke:red;stroke-width:1px;stroke-linecap:butt;stroke-linejoin:miter;stroke-opacity:1" d="M 158.617,149.433 173.926,150.964 z" id="boundary" inkscape:connector-curvature="0" />
	<path style="fill:none;stroke:red;stroke-width:1px;stroke-linecap:butt;stroke-linejoin:miter;stroke-opacity:1" d="M 173.926,150.964 166.272,183.112 z" id="boundary" inkscape:connector-curvature="0" />
	<path style="fill:none;stroke:red;stroke-width:1px;stroke-linecap:butt;stroke-linejoin:miter;stroke-opacity:1" d="M 166.272,183.112 186.173,183.112 z" id="boundary" inkscape:connector-curvature="0" />
	<path style="fill:none;stroke:red;stroke-width:1px;stroke-linecap:butt;stroke-linejoin:miter;stroke-opacity:1" d="M 186.173,183.112 195.359,209.135 z" id="boundary" inkscape:connector-curvature="0" />
	<path style="fill:none;stroke:red;stroke-width:1px;stroke-linecap:butt;stroke-linejoin:miter;stroke-opacity:1" d="M 195.359,209.135 204.543,195.359 z" id="boundary" inkscape:connector-curvature="0" />
	<path style="fill:none;stroke:red;stroke-width:1px;stroke-linecap:butt;stroke-linejoin:miter;stroke-opacity:1" d="M 204.543,195.359 203.012,184.642 z" id="boundary" inkscape:connector-curvature="0" />
	<path style="fill:none;stroke:red;stroke-width:1px;stroke-linecap:butt;stroke-linejoin:miter;stroke-opacity:1" d="M 203.012,184.642 189.235,150.964 z" id="boundary" inkscape:connector-curvature="0" />
	<path style="fill:none;stroke:red;stroke-width:1px;stroke-linecap:butt;stroke-linejoin:miter;stroke-opacity:1" d="M 189.235,150.964 206.074,150.964 z" id="boundary" inkscape:connector-curvature="0" />
	<path style="fill:none;stroke:red;stroke-width:1px;stroke-linecap:butt;stroke-linejoin:miter;stroke-opacity:1" d="M 206.074,150.964 221.383,150.964 z" id="boundary" inkscape:connector-curvature="0" />
	<path style="fill:none;stroke:red;stroke-width:1px;stroke-linecap:butt;stroke-linejoin:miter;stroke-opacity:1" d="M 221.383,150.964 230.568,141.779 z" id="boundary" inkscape:connector-curvature="0" />
	<path style="fill:none;stroke:red;stroke-width:1px;stroke-linecap:butt;stroke-linejoin:miter;stroke-opacity:1" d="M 230.568,141.779 239.754,124.939 z" id="boundary" inkscape:connector-curvature="0" />
	<path style="fill:none;stroke:red;stroke-width:1px;stroke-linecap:butt;stroke-linejoin:miter;stroke-opacity:1" d="M 239.754,124.939 253.53,112.691 z" id="boundary" inkscape:connector-curvature="0" />
	<path style="fill:none;stroke:red;stroke-width:1px;stroke-linecap:butt;stroke-linejoin:miter;stroke-opacity:1" d="M 253.53,112.691 270.37,101.975 z" id="boundary" inkscape:connector-curvature="0" />
	<path style="fill:none;stroke:red;stroke-width:1px;stroke-linecap:butt;stroke-linejoin:miter;stroke-opacity:1" d="M 270.37,101.975 287.21,92.7911 z" id="boundary" inkscape:connector-curvature="0" />
	<path style="fill:none;stroke:red;stroke-width:1px;stroke-linecap:butt;stroke-linejoin:miter;stroke-opacity:1" d="M 287.21,92.7911 304.05,88.1984 z" id="boundary" inkscape:connector-curvature="0" />
	<path style="fill:none;stroke:red;stroke-width:1px;stroke-linecap:butt;stroke-linejoin:miter;stroke-opacity:1" d="M 304.05,88.1984 319.358,83.6057 z" id="boundary" inkscape:connector-curvature="0" />
	<path style="fill:none;stroke:red;stroke-width:1px;stroke-linecap:butt;stroke-linejoin:miter;stroke-opacity:1" d="M 319.358,83.6057 340.79,82.0748 z" id="boundary" inkscape:connector-curvature="0" />
	<path style="fill:none;stroke:red;stroke-width:1px;stroke-linecap:butt;stroke-linejoin:miter;stroke-opacity:1" d="M 340.79,82.0748 359.161,79.0129 z" id="boundary" inkscape:connector-curvature="0" />
	<path style="fill:none;stroke:red;stroke-width:1px;stroke-linecap:butt;stroke-linejoin:miter;stroke-opacity:1" d="M 359.161,79.0129 379.061,77.482 z" id="boundary" inkscape:connector-curvature="0" />
	<path style="fill:none;stroke:red;stroke-width:1px;stroke-linecap:butt;stroke-linejoin:miter;stroke-opacity:1" d="M 379.061,77.482 395.901,74.4202 z" id="boundary" inkscape:connector-curvature="0" />
	<path style="fill:none;stroke:red;stroke-width:1px;stroke-linecap:butt;stroke-linejoin:miter;stroke-opacity:1" d="M 395.901,74.4202 414.271,74.4202 z" id="boundary" inkscape:connector-curvature="0" />
	<path style="fill:none;stroke:red;stroke-width:1px;stroke-linecap:butt;stroke-linejoin:miter;stroke-opacity:1" d="M 414.271,74.4202 434.173,71.3584 z" id="boundary" inkscape:connector-curvature="0" />
	<path style="fill:none;stroke:red;stroke-width:1px;stroke-linecap:butt;stroke-linejoin:miter;stroke-opacity:1" d="M 434.173,71.3584 452.543,69.8275 z" id="boundary" inkscape:connector-curvature="0" />
	<path style="fill:none;stroke:red;stroke-width:1px;stroke-linecap:butt;stroke-linejoin:miter;stroke-opacity:1" d="M 452.543,69.8275 452.543,54.5184 z" id="boundary" inkscape:connector-curvature="0" />
	<path style="fill:none;stroke:red;stroke-width:1px;stroke-linecap:butt;stroke-linejoin:miter;stroke-opacity:1" d="M 452.543,54.5184 440.296,42.2728 z" id="boundary" inkscape:connector-curvature="0" />
	<path style="fill:none;stroke:red;stroke-width:1px;stroke-linecap:butt;stroke-linejoin:miter;stroke-opacity:1" d="M 440.296,42.2728 429.58,30.0255 z" id="boundary" inkscape:connector-curvature="0" />
	<path style="fill:none;stroke:red;stroke-width:1px;stroke-linecap:butt;stroke-linejoin:miter;stroke-opacity:1" d="M 429.58,30.0255 435.703,13.1855 z" id="boundary" inkscape:connector-curvature="0" />
	<path style="fill:none;stroke:red;stroke-width:1px;stroke-linecap:butt;stroke-linejoin:miter;stroke-opacity:1" d="M 435.703,13.1855 451.013,7.06182 z" id="boundary" inkscape:connector-curvature="0" />
	<path style="fill:none;stroke:red;stroke-width:1px;stroke-linecap:butt;stroke-linejoin:miter;stroke-opacity:1" d="M 451.013,7.06182 467.851,4 z" id="boundary" inkscape:connector-curvature="0" />
	<path style="fill:none;stroke:red;stroke-width:1px;stroke-linecap:butt;stroke-linejoin:miter;stroke-opacity:1" d="M 467.851,4 484.691,4 z" id="boundary" inkscape:connector-curvature="0" />
	<path style="fill:none;stroke:red;stroke-width:1px;stroke-linecap:butt;stroke-linejoin:miter;stroke-opacity:1" d="M 484.691,4 500,4 z" id="boundary" inkscape:connector-curvature="0" />
	<path style="fill:none;stroke:red;stroke-width:1px;stroke-linecap:butt;stroke-linejoin:miter;stroke-opacity:1" d="M 500,4 513.778,4 z" id="boundary" inkscape:connector-curvature="0" />
	<path style="fill:none;stroke:red;stroke-width:1px;stroke-linecap:butt;stroke-linejoin:miter;stroke-opacity:1" d="M 513.778,4 526.024,5.53091 z" id="boundary" inkscape:connector-curvature="0" />
	<circle cx="221.383" cy="150.964" r="4" fill="#0" id="circle0"/>
	<circle cx="206.074" cy="150.964" r="4" fill="#0" id="circle1"/>
	<circle cx="189.235" cy="150.964" r="4" fill="#0" id="circle2"/>
	<circle cx="173.926" cy="150.964" r="4" fill="#0" id="circle3"/>
	<circle cx="158.617" cy="149.433" r="4" fill="#0" id="circle4"/>
	<circle cx="143.31" cy="149.433" r="4" fill="#0" id="circle5"/>
	<circle cx="129.531" cy="150.964" r="4" fill="#0" id="circle6"/>
	<circle cx="114.222" cy="150.964" r="4" fill="#0" id="circle7"/>
	<circle cx="98.9131" cy="150.964" r="4" fill="#0" id="circle8"/>
	<circle cx="83.6057" cy="152.495" r="4" fill="#0" id="circle9"/>
	<circle cx="69.8275" cy="155.555" r="4" fill="#0" id="circle10"/>
	<circle cx="52.9875" cy="158.617" r="4" fill="#0" id="circle11"/>
	<circle cx="39.2093" cy="163.21" r="4" fill="#0" id="circle12"/>
	<circle cx="25.4327" cy="170.864" r="4" fill="#0" id="circle13"/>
	<circle cx="16.2473" cy="181.581" r="4" fill="#0" id="circle14"/>
	<circle cx="8.59273" cy="192.297" r="4" fill="#0" id="circle15"/>
	<circle cx="5.53091" cy="206.075" r="4" fill="#0" id="circle16"/>
	<circle cx="4" cy="224.444" r="4" fill="#0" id="circle17"/>
	<circle cx="7.06182" cy="239.754" r="4" fill="#0" id="circle18"/>
	<circle cx="8.59273" cy="253.532" r="4" fill="#0" id="circle19"/>
	<circle cx="11.6546" cy="267.308" r="4" fill="#0" id="circle20"/>
	<circle cx="19.3091" cy="282.617" r="4" fill="#0" id="circle21"/>
	<circle cx="25.4327" cy="293.334" r="4" fill="#0" id="circle22"/>
	<circle cx="33.0873" cy="304.05" r="4" fill="#0" id="circle23"/>
	<circle cx="40.7402" cy="316.296" r="4" fill="#0" id="circle24"/>
	<circle cx="51.4566" cy="327.012" r="4" fill="#0" id="circle25"/>
	<circle cx="62.1729" cy="337.728" r="4" fill="#0" id="circle26"/>
	<circle cx="69.8275" cy="345.383" r="4" fill="#0" id="circle27"/>
	<circle cx="79.0129" cy="356.099" r="4" fill="#0" id="circle28"/>
	<circle cx="92.7895" cy="363.754" r="4" fill="#0" id="circle29"/>
	<circle cx="108.099" cy="369.876" r="4" fill="#0" id="circle30"/>
	<circle cx="124.939" cy="380.592" r="4" fill="#0" id="circle31"/>
	<circle cx="138.717" cy="389.778" r="4" fill="#0" id="circle32"/>
	<circle cx="147.901" cy="402.025" r="4" fill="#0" id="circle33"/>
	<circle cx="150.962" cy="418.865" r="4" fill="#0" id="circle34"/>
	<circle cx="157.086" cy="432.642" r="4" fill="#0" id="circle35"/>
	<circle cx="166.272" cy="446.42" r="4" fill="#0" id="circle36"/>
	<circle cx="178.519" cy="458.667" r="4" fill="#0" id="circle37"/>
	<circle cx="189.235" cy="469.383" r="4" fill="#0" id="circle38"/>
	<circle cx="201.481" cy="478.567" r="4" fill="#0" id="circle39"/>
	<circle cx="215.259" cy="489.284" r="4" fill="#0" id="circle40"/>
	<circle cx="229.037" cy="500" r="4" fill="#0" id="circle41"/>
	<circle cx="245.877" cy="510.716" r="4" fill="#0" id="circle42"/>
	<circle cx="262.716" cy="521.433" r="4" fill="#0" id="circle43"/>
	<circle cx="282.617" cy="533.678" r="4" fill="#0" id="circle44"/>
	<circle cx="300.988" cy="544.395" r="4" fill="#0" id="circle45"/>
	<circle cx="317.827" cy="552.049" r="4" fill="#0" id="circle46"/>
	<circle cx="336.198" cy="555.111" r="4" fill="#0" id="circle47"/>
	<circle cx="359.161" cy="559.704" r="4" fill="#0" id="circle48"/>
	<circle cx="377.53" cy="561.235" r="4" fill="#0" id="circle49"/>
	<circle cx="394.371" cy="562.766" r="4" fill="#0" id="circle50"/>
	<circle cx="414.271" cy="565.827" r="4" fill="#0" id="circle51"/>
	<circle cx="431.111" cy="567.358" r="4" fill="#0" id="circle52"/>
	<circle cx="449.482" cy="567.358" r="4" fill="#0" id="circle53"/>
	<circle cx="472.444" cy="570.42" r="4" fill="#0" id="circle54"/>
	<circle cx="490.815" cy="570.42" r="4" fill="#0" id="circle55"/>
	<circle cx="509.185" cy="571.951" r="4" fill="#0" id="circle56"/>
	<circle cx="529.086" cy="571.951" r="4" fill="#0" id="circle57"/>
	<circle cx="547.457" cy="570.42" r="4" fill="#0" id="circle58"/>
	<circle cx="568.889" cy="570.42" r="4" fill="#0" id="circle59"/>
	<circle cx="587.259" cy="570.42" r="4" fill="#0" id="circle60"/>
	<circle cx="605.629" cy="570.42" r="4" fill="#0" id="circle61"/>
	<circle cx="622.47" cy="567.358" r="4" fill="#0" id="circle62"/>
	<circle cx="639.308" cy="561.235" r="4" fill="#0" id="circle63"/>
	<circle cx="662.272" cy="558.173" r="4" fill="#0" id="circle64"/>
	<circle cx="676.05" cy="550.518" r="4" fill="#0" id="circle65"/>
	<circle cx="689.826" cy="542.864" r="4" fill="#0" id="circle66"/>
	<circle cx="705.135" cy="533.678" r="4" fill="#0" id="circle67"/>
	<circle cx="720.444" cy="522.964" r="4" fill="#0" id="circle68"/>
	<circle cx="734.223" cy="512.247" r="4" fill="#0" id="circle69"/>
	<circle cx="751.061" cy="498.469" r="4" fill="#0" id="circle70"/>
	<circle cx="766.37" cy="489.284" r="4" fill="#0" id="circle71"/>
	<circle cx="780.148" cy="477.038" r="4" fill="#0" id="circle72"/>
	<circle cx="793.925" cy="463.26" r="4" fill="#0" id="circle73"/>
	<circle cx="804.641" cy="446.42" r="4" fill="#0" id="circle74"/>
	<circle cx="813.827" cy="428.049" r="4" fill="#0" id="circle75"/>
	<circle cx="819.95" cy="409.68" r="4" fill="#0" id="circle76"/>
	<circle cx="830.667" cy="395.901" r="4" fill="#0" id="circle77"/>
	<circle cx="847.505" cy="389.778" r="4" fill="#0" id="circle78"/>
	<circle cx="862.814" cy="382.123" r="4" fill="#0" id="circle79"/>
	<circle cx="875.061" cy="368.347" r="4" fill="#0" id="circle80"/>
	<circle cx="890.371" cy="353.038" r="4" fill="#0" id="circle81"/>
	<circle cx="899.554" cy="337.728" r="4" fill="#0" id="circle82"/>
	<circle cx="907.209" cy="323.95" r="4" fill="#0" id="circle83"/>
	<circle cx="913.333" cy="307.112" r="4" fill="#0" id="circle84"/>
	<circle cx="919.456" cy="290.272" r="4" fill="#0" id="circle85"/>
	<circle cx="924.049" cy="271.901" r="4" fill="#0" id="circle86"/>
	<circle cx="928.642" cy="252.001" r="4" fill="#0" id="circle87"/>
	<circle cx="931.703" cy="233.63" r="4" fill="#0" id="circle88"/>
	<circle cx="934.765" cy="216.79" r="4" fill="#0" id="circle89"/>
	<circle cx="940.889" cy="201.482" r="4" fill="#0" id="circle90"/>
	<circle cx="948.543" cy="189.235" r="4" fill="#0" id="circle91"/>
	<circle cx="960.789" cy="173.926" r="4" fill="#0" id="circle92"/>
	<circle cx="973.036" cy="160.148" r="4" fill="#0" id="circle93"/>
	<circle cx="983.753" cy="152.495" r="4" fill="#0" id="circle94"/>
	<circle cx="996" cy="138.717" r="4" fill="#0" id="circle95"/>
	<circle cx="922.518" cy="134.124" r="4" fill="#0" id="circle96"/>
	<circle cx="939.358" cy="134.124" r="4" fill="#0" id="circle97"/>
	<circle cx="956.196" cy="135.655" r="4" fill="#0" id="circle98"/>
	<circle cx="973.036" cy="132.593" r="4" fill="#0" id="circle99"/>
	<circle cx="806.172" cy="278.025" r="4" fill="#0" id="circle100"/>
	<circle cx="824.543" cy="271.901" r="4" fill="#0" id="circle101"/>
	<circle cx="838.321" cy="261.186" r="4" fill="#0" id="circle102"/>
	<circle cx="852.098" cy="244.346" r="4" fill="#0" id="circle103"/>
	<circle cx="864.345" cy="222.914" r="4" fill="#0" id="circle104"/>
	<circle cx="872" cy="203.013" r="4" fill="#0" id="circle105"/>
	<circle cx="876.592" cy="186.173" r="4" fill="#0" id="circle106"/>
	<circle cx="887.309" cy="172.395" r="4" fill="#0" id="circle107"/>
	<circle cx="896.494" cy="158.617" r="4" fill="#0" id="circle108"/>
	<circle cx="907.209" cy="143.31" r="4" fill="#0" id="circle109"/>
	<circle cx="774.025" cy="196.89" r="4" fill="#0" id="circle110"/>
	<circle cx="778.617" cy="213.728" r="4" fill="#0" id="circle111"/>
	<circle cx="784.741" cy="232.099" r="4" fill="#0" id="circle112"/>
	<circle cx="790.863" cy="247.408" r="4" fill="#0" id="circle113"/>
	<circle cx="796.987" cy="262.716" r="4" fill="#0" id="circle114"/>
	<circle cx="708.197" cy="101.975" r="4" fill="#0" id="circle115"/>
	<circle cx="723.506" cy="109.629" r="4" fill="#0" id="circle116"/>
	<circle cx="735.754" cy="121.877" r="4" fill="#0" id="circle117"/>
	<circle cx="746.468" cy="138.717" r="4" fill="#0" id="circle118"/>
	<circle cx="752.592" cy="152.495" r="4" fill="#0" id="circle119"/>
	<circle cx="758.716" cy="167.802" r="4" fill="#0" id="circle120"/>
	<circle cx="763.308" cy="184.642" r="4" fill="#0" id="circle121"/>
	<circle cx="535.209" cy="74.4202" r="4" fill="#0" id="circle122"/>
	<circle cx="556.642" cy="75.9511" r="4" fill="#0" id="circle123"/>
	<circle cx="578.073" cy="75.9511" r="4" fill="#0" id="circle124"/>
	<circle cx="596.444" cy="75.9511" r="4" fill="#0" id="circle125"/>
	<circle cx="614.815" cy="77.482" r="4" fill="#0" id="circle126"/>
	<circle cx="630.122" cy="82.0748" r="4" fill="#0" id="circle127"/>
	<circle cx="645.432" cy="83.6057" r="4" fill="#0" id="circle128"/>
	<circle cx="660.741" cy="85.1366" r="4" fill="#0" id="circle129"/>
	<circle cx="674.519" cy="91.2602" r="4" fill="#0" id="circle130"/>
	<circle cx="688.295" cy="94.322" r="4" fill="#0" id="circle131"/>
	<circle cx="230.568" cy="141.779" r="4" fill="#0" id="circle132"/>
	<circle cx="239.754" cy="124.939" r="4" fill="#0" id="circle133"/>
	<circle cx="253.53" cy="112.691" r="4" fill="#0" id="circle134"/>
	<circle cx="270.37" cy="101.975" r="4" fill="#0" id="circle135"/>
	<circle cx="287.21" cy="92.7911" r="4" fill="#0" id="circle136"/>
	<circle cx="304.05" cy="88.1984" r="4" fill="#0" id="circle137"/>
	<circle cx="319.358" cy="83.6057" r="4" fill="#0" id="circle138"/>
	<circle cx="340.79" cy="82.0748" r="4" fill="#0" id="circle139"/>
	<circle cx="359.161" cy="79.0129" r="4" fill="#0" id="circle140"/>
	<circle cx="379.061" cy="77.482" r="4" fill="#0" id="circle141"/>
	<circle cx="395.901" cy="74.4202" r="4" fill="#0" id="circle142"/>
	<circle cx="414.271" cy="74.4202" r="4" fill="#0" id="circle143"/>
	<circle cx="434.173" cy="71.3584" r="4" fill="#0" id="circle144"/>
	<circle cx="452.543" cy="69.8275" r="4" fill="#0" id="circle145"/>
	<circle cx="452.543" cy="54.5184" r="4" fill="#0" id="circle146"/>
	<circle cx="440.296" cy="42.2728" r="4" fill="#0" id="circle147"/>
	<circle cx="429.58" cy="30.0255" r="4" fill="#0" id="circle148"/>
	<circle cx="435.703" cy="13.1855" r="4" fill="#0" id="circle149"/>
	<circle cx="451.013" cy="7.06182" r="4" fill="#0" id="circle150"/>
	<circle cx="467.851" cy="4" r="4" fill="#0" id="circle151"/>
	<circle cx="484.691" cy="4" r="4" fill="#0" id="circle152"/>
	<circle cx="500" cy="4" r="4" fill="#0" id="circle153"/>
	<circle cx="513.778" cy="4" r="4" fill="#0" id="circle154"/>
	<circle cx="526.024" cy="5.53091" r="4" fill="#0" id="circle155"/>
	<circle cx="541.333" cy="10.1236" r="4" fill="#0" id="circle156"/>
	<circle cx="553.58" cy="23.9018" r="4" fill="#0" id="circle157"/>
	<circle cx="547.457" cy="36.1491" r="4" fill="#0" id="circle158"/>
	<circle cx="532.147" cy="45.3346" r="4" fill="#0" id="circle159"/>
	<circle cx="526.024" cy="59.1111" r="4" fill="#0" id="circle160"/>
	<circle cx="66.7657" cy="224.444" r="4" fill="#0" id="circle161"/>
	<circle cx="72.8893" cy="207.606" r="4" fill="#0" id="circle162"/>
	<circle cx="83.6057" cy="198.421" r="4" fill="#0" id="circle163"/>
	<circle cx="100.444" cy="192.297" r="4" fill="#0" id="circle164"/>
	<circle cx="117.284" cy="189.235" r="4" fill="#0" id="circle165"/>
	<circle cx="134.124" cy="186.173" r="4" fill="#0" id="circle166"/>
	<circle cx="150.962" cy="186.173" r="4" fill="#0" id="circle167"/>
	<circle cx="166.272" cy="183.112" r="4" fill="#0" id="circle168"/>
	<circle cx="186.173" cy="183.112" r="4" fill="#0" id="circle169"/>
	<circle cx="203.012" cy="184.642" r="4" fill="#0" id="circle170"/>
	<circle cx="69.8275" cy="239.754" r="4" fill="#0" id="circle171"/>
	<circle cx="71.3584" cy="252.001" r="4" fill="#0" id="circle172"/>
	<circle cx="80.5439" cy="267.308" r="4" fill="#0" id="circle173"/>
	<circle cx="86.6675" cy="281.086" r="4" fill="#0" id="circle174"/>
	<circle cx="95.8513" cy="291.803" r="4" fill="#0" id="circle175"/>
	<circle cx="103.506" cy="305.581" r="4" fill="#0" id="circle176"/>
	<circle cx="115.753" cy="317.827" r="4" fill="#0" id="circle177"/>
	<circle cx="126.47" cy="331.605" r="4" fill="#0" id="circle178"/>
	<circle cx="140.248" cy="343.852" r="4" fill="#0" id="circle179"/>
	<circle cx="150.962" cy="331.605" r="4" fill="#0" id="circle180"/>
	<circle cx="155.555" cy="314.766" r="4" fill="#0" id="circle181"/>
	<circle cx="158.617" cy="296.396" r="4" fill="#0" id="circle182"/>
	<circle cx="164.741" cy="279.556" r="4" fill="#0" id="circle183"/>
	<circle cx="169.333" cy="261.186" r="4" fill="#0" id="circle184"/>
	<circle cx="176.988" cy="241.284" r="4" fill="#0" id="circle185"/>
	<circle cx="184.642" cy="221.383" r="4" fill="#0" id="circle186"/>
	<circle cx="195.359" cy="209.135" r="4" fill="#0" id="circle187"/>
	<circle cx="204.543" cy="195.359" r="4" fill="#0" id="circle188"/>
	</g>
</svg>