<?xml version="1.0" encoding="UTF-8" standalone="no"?>
<!-- Created with CurveBenchmark -->
<svg
	xmlns:dc="http://purl.org/dc/elements/1.1/"
	xmlns:cc="http://creativecommons.org/ns#"
	xmlns:rdf="http://www.w3.org/1999/02/22-rdf-syntax-ns#"
	xmlns:svg="http://www.w3.org/2000/svg"
	xmlns="http://www.w3.org/2000/svg"
	xmlns:sodipodi="http://sodipodi.sourceforge.net/DTD/sodipodi-0.dtd"
	xmlns:inkscape="http://www.inkscape.org/namespaces/inkscape"
	width="1000"
	height="1000"
	id="svg2"
	version="1.1"
	sodipodi:docname="noisy-0/gathang-mc21.txt">
<defs
	id="defs4" />
<metadata
	id="metadata7">
	<rdf:RDF>
		<cc:Work
			rdf:about="">
			<dc:format>image/svg+xml</dc:format>
			<dc:type
				rdf:resource="http://purl.org/dc/dcmitype/StillImage" />
			<dc:title></dc:title>
		</cc:Work>
	</rdf:RDF>
</metadata>
<g
	inkscape:label="Layer 1"
	inkscape:groupmode="layer"
	id="layer1">
	<path style="fill:none;stroke:red;stroke-width:1px;stroke-linecap:butt;stroke-linejoin:miter;stroke-opacity:1" d="M 23.4132,331.405 50.376,314.457 z" id="boundary" inkscape:connector-curvature="0" />
	<path style="fill:none;stroke:red;stroke-width:1px;stroke-linecap:butt;stroke-linejoin:miter;stroke-opacity:1" d="M 118.746,295.487 81.1906,306.561 z" id="boundary" inkscape:connector-curvature="0" />
	<path style="fill:none;stroke:red;stroke-width:1px;stroke-linecap:butt;stroke-linejoin:miter;stroke-opacity:1" d="M 50.376,314.457 81.1906,306.561 z" id="boundary" inkscape:connector-curvature="0" />
	<path style="fill:none;stroke:red;stroke-width:1px;stroke-linecap:butt;stroke-linejoin:miter;stroke-opacity:1" d="M 13.3022,343.885 23.4132,331.405 z" id="boundary" inkscape:connector-curvature="0" />
	<path style="fill:none;stroke:red;stroke-width:1px;stroke-linecap:butt;stroke-linejoin:miter;stroke-opacity:1" d="M 11.434,358.773 13.3022,343.885 z" id="boundary" inkscape:connector-curvature="0" />
	<path style="fill:none;stroke:red;stroke-width:1px;stroke-linecap:butt;stroke-linejoin:miter;stroke-opacity:1" d="M 11.434,358.773 4,375.509 z" id="boundary" inkscape:connector-curvature="0" />
	<path style="fill:none;stroke:red;stroke-width:1px;stroke-linecap:butt;stroke-linejoin:miter;stroke-opacity:1" d="M 91.7832,370.116 63.8574,378.013 z" id="boundary" inkscape:connector-curvature="0" />
	<path style="fill:none;stroke:red;stroke-width:1px;stroke-linecap:butt;stroke-linejoin:miter;stroke-opacity:1" d="M 135.116,364.146 91.7832,370.116 z" id="boundary" inkscape:connector-curvature="0" />
	<path style="fill:none;stroke:red;stroke-width:1px;stroke-linecap:butt;stroke-linejoin:miter;stroke-opacity:1" d="M 254.523,213.347 189.042,267.85 z" id="boundary" inkscape:connector-curvature="0" />
	<path style="fill:none;stroke:red;stroke-width:1px;stroke-linecap:butt;stroke-linejoin:miter;stroke-opacity:1" d="M 189.042,267.85 152.449,284.798 z" id="boundary" inkscape:connector-curvature="0" />
	<path style="fill:none;stroke:red;stroke-width:1px;stroke-linecap:butt;stroke-linejoin:miter;stroke-opacity:1" d="M 152.449,284.798 118.746,295.487 z" id="boundary" inkscape:connector-curvature="0" />
	<path style="fill:none;stroke:red;stroke-width:1px;stroke-linecap:butt;stroke-linejoin:miter;stroke-opacity:1" d="M 181.338,367.613 135.116,364.146 z" id="boundary" inkscape:connector-curvature="0" />
	<path style="fill:none;stroke:red;stroke-width:1px;stroke-linecap:butt;stroke-linejoin:miter;stroke-opacity:1" d="M 225.634,362.027 181.338,367.613 z" id="boundary" inkscape:connector-curvature="0" />
	<path style="fill:none;stroke:red;stroke-width:1px;stroke-linecap:butt;stroke-linejoin:miter;stroke-opacity:1" d="M 279.56,370.116 225.634,362.027 z" id="boundary" inkscape:connector-curvature="0" />
	<path style="fill:none;stroke:red;stroke-width:1px;stroke-linecap:butt;stroke-linejoin:miter;stroke-opacity:1" d="M 15.151,384.811 4,375.509 z" id="boundary" inkscape:connector-curvature="0" />
	<path style="fill:none;stroke:red;stroke-width:1px;stroke-linecap:butt;stroke-linejoin:miter;stroke-opacity:1" d="M 63.8574,378.013 26.3213,384.811 z" id="boundary" inkscape:connector-curvature="0" />
	<path style="fill:none;stroke:red;stroke-width:1px;stroke-linecap:butt;stroke-linejoin:miter;stroke-opacity:1" d="M 26.3213,384.811 15.151,384.811 z" id="boundary" inkscape:connector-curvature="0" />
	<path style="fill:none;stroke:red;stroke-width:1px;stroke-linecap:butt;stroke-linejoin:miter;stroke-opacity:1" d="M 67.7092,864.884 59.0426,900.552 z" id="boundary" inkscape:connector-curvature="0" />
	<path style="fill:none;stroke:red;stroke-width:1px;stroke-linecap:butt;stroke-linejoin:miter;stroke-opacity:1" d="M 63.8574,941.92 59.0426,900.552 z" id="boundary" inkscape:connector-curvature="0" />
	<path style="fill:none;stroke:red;stroke-width:1px;stroke-linecap:butt;stroke-linejoin:miter;stroke-opacity:1" d="M 118.746,853.521 67.7092,864.884 z" id="boundary" inkscape:connector-curvature="0" />
	<path style="fill:none;stroke:red;stroke-width:1px;stroke-linecap:butt;stroke-linejoin:miter;stroke-opacity:1" d="M 118.746,853.521 152.449,864.499 z" id="boundary" inkscape:connector-curvature="0" />
	<path style="fill:none;stroke:red;stroke-width:1px;stroke-linecap:butt;stroke-linejoin:miter;stroke-opacity:1" d="M 152.449,864.499 175.56,911.491 z" id="boundary" inkscape:connector-curvature="0" />
	<path style="fill:none;stroke:red;stroke-width:1px;stroke-linecap:butt;stroke-linejoin:miter;stroke-opacity:1" d="M 127.413,991.224 78.3018,991.07 z" id="boundary" inkscape:connector-curvature="0" />
	<path style="fill:none;stroke:red;stroke-width:1px;stroke-linecap:butt;stroke-linejoin:miter;stroke-opacity:1" d="M 78.3018,991.07 63.8574,941.92 z" id="boundary" inkscape:connector-curvature="0" />
	<path style="fill:none;stroke:red;stroke-width:1px;stroke-linecap:butt;stroke-linejoin:miter;stroke-opacity:1" d="M 167.857,955.594 175.56,911.491 z" id="boundary" inkscape:connector-curvature="0" />
	<path style="fill:none;stroke:red;stroke-width:1px;stroke-linecap:butt;stroke-linejoin:miter;stroke-opacity:1" d="M 167.857,955.594 127.413,991.224 z" id="boundary" inkscape:connector-curvature="0" />
	<path style="fill:none;stroke:red;stroke-width:1px;stroke-linecap:butt;stroke-linejoin:miter;stroke-opacity:1" d="M 391.263,64.8589 464.448,15.7481 z" id="boundary" inkscape:connector-curvature="0" />
	<path style="fill:none;stroke:red;stroke-width:1px;stroke-linecap:butt;stroke-linejoin:miter;stroke-opacity:1" d="M 346.967,97.792 391.263,64.8589 z" id="boundary" inkscape:connector-curvature="0" />
	<path style="fill:none;stroke:red;stroke-width:1px;stroke-linecap:butt;stroke-linejoin:miter;stroke-opacity:1" d="M 314.226,144.592 254.523,213.347 z" id="boundary" inkscape:connector-curvature="0" />
	<path style="fill:none;stroke:red;stroke-width:1px;stroke-linecap:butt;stroke-linejoin:miter;stroke-opacity:1" d="M 346.967,97.792 314.226,144.592 z" id="boundary" inkscape:connector-curvature="0" />
	<path style="fill:none;stroke:red;stroke-width:1px;stroke-linecap:butt;stroke-linejoin:miter;stroke-opacity:1" d="M 464.448,15.7481 547.262,4 z" id="boundary" inkscape:connector-curvature="0" />
	<path style="fill:none;stroke:red;stroke-width:1px;stroke-linecap:butt;stroke-linejoin:miter;stroke-opacity:1" d="M 666.669,26.3406 797.631,56.3849 z" id="boundary" inkscape:connector-curvature="0" />
	<path style="fill:none;stroke:red;stroke-width:1px;stroke-linecap:butt;stroke-linejoin:miter;stroke-opacity:1" d="M 699.409,278.828 674.372,251.865 z" id="boundary" inkscape:connector-curvature="0" />
	<path style="fill:none;stroke:red;stroke-width:1px;stroke-linecap:butt;stroke-linejoin:miter;stroke-opacity:1" d="M 589.632,265.347 628.15,240.31 z" id="boundary" inkscape:connector-curvature="0" />
	<path style="fill:none;stroke:red;stroke-width:1px;stroke-linecap:butt;stroke-linejoin:miter;stroke-opacity:1" d="M 628.15,240.31 674.372,251.865 z" id="boundary" inkscape:connector-curvature="0" />
	<path style="fill:none;stroke:red;stroke-width:1px;stroke-linecap:butt;stroke-linejoin:miter;stroke-opacity:1" d="M 797.631,56.3849 921.852,147.038 z" id="boundary" inkscape:connector-curvature="0" />
	<path style="fill:none;stroke:red;stroke-width:1px;stroke-linecap:butt;stroke-linejoin:miter;stroke-opacity:1" d="M 921.852,147.038 973.852,246.049 z" id="boundary" inkscape:connector-curvature="0" />
	<path style="fill:none;stroke:red;stroke-width:1px;stroke-linecap:butt;stroke-linejoin:miter;stroke-opacity:1" d="M 547.262,4 666.669,26.3406 z" id="boundary" inkscape:connector-curvature="0" />
	<path style="fill:none;stroke:red;stroke-width:1px;stroke-linecap:butt;stroke-linejoin:miter;stroke-opacity:1" d="M 589.632,265.347 564.595,331.598 z" id="boundary" inkscape:connector-curvature="0" />
	<path style="fill:none;stroke:red;stroke-width:1px;stroke-linecap:butt;stroke-linejoin:miter;stroke-opacity:1" d="M 352.745,411.138 279.56,370.116 z" id="boundary" inkscape:connector-curvature="0" />
	<path style="fill:none;stroke:red;stroke-width:1px;stroke-linecap:butt;stroke-linejoin:miter;stroke-opacity:1" d="M 431.707,540.175 352.745,411.138 z" id="boundary" inkscape:connector-curvature="0" />
	<path style="fill:none;stroke:red;stroke-width:1px;stroke-linecap:butt;stroke-linejoin:miter;stroke-opacity:1" d="M 462.522,619.907 431.707,540.175 z" id="boundary" inkscape:connector-curvature="0" />
	<path style="fill:none;stroke:red;stroke-width:1px;stroke-linecap:butt;stroke-linejoin:miter;stroke-opacity:1" d="M 568.447,732.573 462.522,619.907 z" id="boundary" inkscape:connector-curvature="0" />
	<path style="fill:none;stroke:red;stroke-width:1px;stroke-linecap:butt;stroke-linejoin:miter;stroke-opacity:1" d="M 564.595,331.598 608.891,370.116 z" id="boundary" inkscape:connector-curvature="0" />
	<path style="fill:none;stroke:red;stroke-width:1px;stroke-linecap:butt;stroke-linejoin:miter;stroke-opacity:1" d="M 695.557,325.628 699.409,278.828 z" id="boundary" inkscape:connector-curvature="0" />
	<path style="fill:none;stroke:red;stroke-width:1px;stroke-linecap:butt;stroke-linejoin:miter;stroke-opacity:1" d="M 649.335,369.924 608.891,370.116 z" id="boundary" inkscape:connector-curvature="0" />
	<path style="fill:none;stroke:red;stroke-width:1px;stroke-linecap:butt;stroke-linejoin:miter;stroke-opacity:1" d="M 973.852,246.049 996,367.805 z" id="boundary" inkscape:connector-curvature="0" />
	<path style="fill:none;stroke:red;stroke-width:1px;stroke-linecap:butt;stroke-linejoin:miter;stroke-opacity:1" d="M 996,367.805 949.778,608.93 z" id="boundary" inkscape:connector-curvature="0" />
	<path style="fill:none;stroke:red;stroke-width:1px;stroke-linecap:butt;stroke-linejoin:miter;stroke-opacity:1" d="M 761.038,749.329 568.447,732.573 z" id="boundary" inkscape:connector-curvature="0" />
	<path style="fill:none;stroke:red;stroke-width:1px;stroke-linecap:butt;stroke-linejoin:miter;stroke-opacity:1" d="M 949.778,608.93 761.038,749.329 z" id="boundary" inkscape:connector-curvature="0" />
	<path style="fill:none;stroke:red;stroke-width:1px;stroke-linecap:butt;stroke-linejoin:miter;stroke-opacity:1" d="M 649.335,369.924 695.557,325.628 z" id="boundary" inkscape:connector-curvature="0" />
	<circle cx="23.4132" cy="331.405" r="4" fill="#0" id="circle0"/>
	<circle cx="50.376" cy="314.457" r="4" fill="#0" id="circle1"/>
	<circle cx="59.0426" cy="900.552" r="4" fill="#0" id="circle2"/>
	<circle cx="63.8574" cy="378.013" r="4" fill="#0" id="circle3"/>
	<circle cx="63.8574" cy="941.92" r="4" fill="#0" id="circle4"/>
	<circle cx="67.7092" cy="864.884" r="4" fill="#0" id="circle5"/>
	<circle cx="78.3018" cy="991.07" r="4" fill="#0" id="circle6"/>
	<circle cx="81.1906" cy="306.561" r="4" fill="#0" id="circle7"/>
	<circle cx="91.7832" cy="370.116" r="4" fill="#0" id="circle8"/>
	<circle cx="118.746" cy="295.487" r="4" fill="#0" id="circle9"/>
	<circle cx="118.746" cy="853.521" r="4" fill="#0" id="circle10"/>
	<circle cx="127.413" cy="991.224" r="4" fill="#0" id="circle11"/>
	<circle cx="135.116" cy="364.146" r="4" fill="#0" id="circle12"/>
	<circle cx="152.449" cy="284.798" r="4" fill="#0" id="circle13"/>
	<circle cx="152.449" cy="864.499" r="4" fill="#0" id="circle14"/>
	<circle cx="167.857" cy="955.594" r="4" fill="#0" id="circle15"/>
	<circle cx="175.56" cy="911.491" r="4" fill="#0" id="circle16"/>
	<circle cx="181.338" cy="367.613" r="4" fill="#0" id="circle17"/>
	<circle cx="189.042" cy="267.85" r="4" fill="#0" id="circle18"/>
	<circle cx="225.634" cy="362.027" r="4" fill="#0" id="circle19"/>
	<circle cx="254.523" cy="213.347" r="4" fill="#0" id="circle20"/>
	<circle cx="279.56" cy="370.116" r="4" fill="#0" id="circle21"/>
	<circle cx="314.226" cy="144.592" r="4" fill="#0" id="circle22"/>
	<circle cx="346.967" cy="97.792" r="4" fill="#0" id="circle23"/>
	<circle cx="352.745" cy="411.138" r="4" fill="#0" id="circle24"/>
	<circle cx="391.263" cy="64.8589" r="4" fill="#0" id="circle25"/>
	<circle cx="431.707" cy="540.175" r="4" fill="#0" id="circle26"/>
	<circle cx="462.522" cy="619.907" r="4" fill="#0" id="circle27"/>
	<circle cx="464.448" cy="15.7481" r="4" fill="#0" id="circle28"/>
	<circle cx="547.262" cy="4" r="4" fill="#0" id="circle29"/>
	<circle cx="564.595" cy="331.598" r="4" fill="#0" id="circle30"/>
	<circle cx="568.447" cy="732.573" r="4" fill="#0" id="circle31"/>
	<circle cx="589.632" cy="265.347" r="4" fill="#0" id="circle32"/>
	<circle cx="608.891" cy="370.116" r="4" fill="#0" id="circle33"/>
	<circle cx="628.15" cy="240.31" r="4" fill="#0" id="circle34"/>
	<circle cx="649.335" cy="369.924" r="4" fill="#0" id="circle35"/>
	<circle cx="666.669" cy="26.3406" r="4" fill="#0" id="circle36"/>
	<circle cx="674.372" cy="251.865" r="4" fill="#0" id="circle37"/>
	<circle cx="695.557" cy="325.628" r="4" fill="#0" id="circle38"/>
	<circle cx="699.409" cy="278.828" r="4" fill="#0" id="circle39"/>
	<circle cx="761.038" cy="749.329" r="4" fill="#0" id="circle40"/>
	<circle cx="797.631" cy="56.3849" r="4" fill="#0" id="circle41"/>
	<circle cx="921.852" cy="147.038" r="4" fill="#0" id="circle42"/>
	<circle cx="949.778" cy="608.93" r="4" fill="#0" id="circle43"/>
	<circle cx="973.852" cy="246.049" r="4" fill="#0" id="circle44"/>
	<circle cx="996" cy="367.805" r="4" fill="#0" id="circle45"/>
	<circle cx="13.3022" cy="343.885" r="4" fill="#0" id="circle46"/>
	<circle cx="11.434" cy="358.773" r="4" fill="#0" id="circle47"/>
	<circle cx="4" cy="375.509" r="4" fill="#0" id="circle48"/>
	<circle cx="15.151" cy="384.811" r="4" fill="#0" id="circle49"/>
	<circle cx="26.3213" cy="384.811" r="4" fill="#0" id="circle50"/>
	</g>
</svg>