845 627
847 652
852 602
864 579
865 670
878 692
886 566
901 703
911 569
922 717
934 580
943 731
956 592
965 744
979 602
988 755
1002 613
1011 766
1025 623
1030 783
1048 633
1051 797
1069 647
1073 809
1092 657
1095 821
1115 667
1118 831
1137 679
1137 812
1154 831
1160 690
1169 810
1183 700
1193 817
1208 706
1212 834
1224 856
1233 710
1236 813
1249 855
1257 719
1274 857
1281 728
1283 881
1298 848
1303 740
1308 883
1325 753
1332 876
1338 901
1348 763
1355 920
1356 883
1371 774
1378 910
1381 878
1394 785
1397 927
1415 799
1415 945
1420 916
1438 809
1439 936
1444 908
1461 820
1463 927
1478 947
1482 834
1503 848
1503 951
1525 860
1525 939
1541 919
1543 878
