126 93
129 118
143 139
150 84
151 322
154 287
156 252
158 213
159 188
161 157
161 345
163 124
172 97
175 313
176 237
186 344
187 146
189 171
191 196
194 84
195 254
197 279
199 124
199 304
219 84
220 109
