56 176
64 271
81 170
88 263
106 167
108 243
120 265
131 164
131 233
144 257
155 226
156 161
168 249
179 217
181 158
192 240
203 207
205 165
216 232
223 192
227 152
240 223
246 181
251 145
263 212
276 147
287 204
301 144
312 198
325 153
331 180
