385 720
389 745
391 693
399 768
414 658
414 683
420 782
434 642
438 800
455 627
461 810
480 628
484 820
503 617
504 835
523 602
528 843
548 596
552 850
569 581
576 857
593 589
597 871
614 573
622 872
639 573
647 874
664 570
672 873
689 566
697 869
713 574
718 855
738 580
742 847
761 590
767 842
782 604
787 825
804 617
804 805
824 790
826 630
846 646
847 780
865 663
868 765
885 678
890 752
908 688
915 747
933 690
940 743
958 693
965 744
983 694
990 742
1008 694
1015 744
1033 696
1040 744
1058 696
1065 744
1083 698
1090 746
1108 697
1115 744
1133 700
1140 745
1158 698
1165 749
1183 699
1190 753
1208 697
1214 746
1233 699
1239 748
1258 699
1264 750
1283 697
1289 749
1308 697
1314 753
1333 696
1339 755
1358 695
1364 758
1383 694
1389 755
1408 691
1413 762
1433 691
1438 761
1458 688
1463 764
1483 687
1488 764
1508 686
1513 765
1533 684
1538 765
1558 681
1563 768
1583 680
1588 773
1608 681
1613 777
1633 676
1638 777
1658 675
1663 778
1683 671
1688 780
1708 673
1713 780
1730 686
1734 766
1743 731
