519 2228
587 1286
594 1203
599 1308
602 1124
604 1038
606 1269
612 1185
613 1220
617 1104
618 1017
623 1316
624 1136
626 1050
631 1271
637 1185
638 1223
642 1010
642 1104
648 1322
649 1140
651 1053
656 1274
662 1188
663 1225
667 1009
667 1105
672 1329
674 1142
676 1058
681 1274
687 1190
688 1226
692 1007
692 1106
697 1335
699 1144
701 1058
706 1277
712 1190
713 1229
717 1007
717 1107
722 1341
724 1145
726 1059
731 1280
737 1191
738 1232
742 1004
742 1107
746 1348
749 1147
751 1063
756 1281
762 1194
763 1234
767 1002
767 1111
771 1352
774 1151
776 1064
781 1282
787 1194
788 1236
792 1002
792 1112
796 1357
799 1153
801 1065
806 1283
812 1196
813 1242
817 1000
817 1113
821 1362
824 1154
826 1067
831 1285
837 1198
838 1242
842 1000
842 1114
846 1366
849 1155
851 1070
856 1286
862 1199
863 1245
867 999
867 1116
871 1370
874 1160
876 1072
881 1289
887 1201
888 1248
892 998
892 1116
896 1374
899 1161
901 1075
906 1290
912 1203
913 1251
917 997
917 1118
921 1379
924 1162
926 1077
931 1292
937 1204
938 1253
942 997
942 1119
946 1382
949 1166
951 1080
956 1293
962 1205
963 1256
967 995
967 1119
971 1386
974 1169
976 1082
981 1294
987 1206
988 1257
992 995
992 1121
996 1390
999 1171
1001 1083
1006 1297
1012 1208
1013 1262
1017 995
1017 1122
1021 1393
1024 1173
1026 1085
1031 1299
1037 1210
1038 1265
1041 2300
1042 995
1042 1122
1046 1396
1049 1176
1051 1087
1056 1300
1062 1210
1063 1265
1067 996
1067 1124
1071 1399
1074 1177
1076 1089
1081 1302
1087 1212
1088 1269
1092 996
1092 1125
1096 1401
1099 1179
1101 1090
1106 1303
1112 1212
1113 1272
1117 997
1117 1124
1121 1402
1124 1181
1126 1092
1131 1304
1137 1213
1138 1274
1142 998
1142 1125
1146 1404
1149 1185
1151 1094
1156 1306
1162 1215
1163 1276
1167 999
1167 1126
1171 1406
1174 1187
1176 1097
1181 1307
1187 1216
1188 1278
1192 1002
1192 1127
1196 1406
1199 1189
1201 1099
1206 1309
1212 1217
1213 1282
1217 1005
1217 1127
1221 1405
1224 1192
1226 1102
1231 1310
1237 1219
1238 1285
1242 1008
1242 1129
1246 1406
1249 1195
1251 1105
1256 1311
1262 1219
1263 1287
1267 1011
1267 1129
1271 1407
1276 1198
1279 1107
1281 1309
1292 1015
1296 1407
1317 1018
1321 1405
1342 1023
1346 1403
1367 1028
1371 1401
1392 1033
1396 1399
1417 1039
1421 1396
1441 1046
1446 1389
1465 1054
1471 1383
1489 1061
1496 1376
1513 1070
1520 1368
1536 1080
1544 1361
1559 1090
1568 1353
1582 1101
1592 1345
1604 1113
1615 1334
1626 1125
1638 1323
1648 1137
1662 1314
1671 1148
1686 1307
1694 1159
1710 1298
1718 1167
1734 1291
1742 1174
1759 1288
1767 1180
1784 1285
1792 1184
1809 1285
1817 1187
1834 1284
1842 1188
1859 1285
1867 1188
1884 1289
1892 1187
1909 1291
1917 1187
1934 1294
1942 1187
1959 1298
1967 1187
1984 1301
1992 1187
2009 1303
2017 1186
2034 1306
2042 1187
2059 1307
2067 1187
2084 1310
2092 1186
2109 1312
2117 1186
2134 1315
2142 1187
2159 1317
2167 1187
2184 1320
2192 1187
2209 1323
2217 1186
2234 1325
2242 1187
2259 1328
2267 1186
2284 1330
2292 1186
2309 1333
2317 1187
2334 1336
2342 1187
2359 1338
2367 1186
2384 1340
2392 1187
2409 1343
2417 1187
2434 1345
2442 1187
2459 1349
2467 1187
2484 1350
2492 1187
2509 1352
2517 1187
2534 1355
2542 1187
2559 1358
2567 1187
2584 1360
2592 1187
2609 1362
2617 1187
2634 1365
2642 1187
2659 1367
2667 1188
2684 1368
2692 1188
2709 1370
2717 1189
2734 1372
2742 1190
2759 1375
2767 1190
2784 1376
2792 1190
2809 1378
2817 1191
2834 1380
2842 1192
2859 1382
2867 1192
2884 1383
2892 1194
2909 1386
2917 1194
2934 1387
2942 1195
2959 1388
2967 1196
2984 1390
2992 1197
3009 1391
3017 1198
3034 1392
3042 1199
3059 1394
3067 1200
3084 1395
3092 1202
3109 1396
3117 1204
3134 1396
3142 1205
3159 1398
3167 1206
3184 1398
3192 1208
3209 1399
3217 1210
3234 1399
3242 1212
3259 1401
3267 1213
3284 1401
3292 1215
3309 1401
3317 1216
3330 1327
3334 1402
3342 1218
3359 1403
3367 1220
3384 1403
3392 1222
3409 1404
3417 1225
3434 1403
3442 1227
3459 1404
3467 1229
3484 1405
3492 1231
3509 1405
3517 1232
3534 1407
3542 1232
3559 1406
3567 1236
3584 1405
3592 1237
3609 1406
3617 1241
3634 1407
3642 1243
3659 1403
3667 1246
3684 1402
3692 1248
3709 1403
3717 1250
3734 1405
3742 1253
3759 1403
3767 1255
3784 1402
3792 1258
3809 1403
3817 1261
3834 1403
3842 1262
3859 1404
3867 1265
3884 1404
3886 1379
3892 1267
3909 1401
3917 1270
3931 1388
3941 1277
3953 1375
3960 1294
3968 1318
3968 1353
