355 544
368 566
381 504
384 586
398 523
402 604
406 574
412 468
418 539
420 622
427 488
427 588
436 557
438 640
439 435
446 505
447 603
456 572
457 453
457 657
466 520
468 617
475 589
475 675
477 468
486 535
487 634
493 607
493 693
497 484
497 577
500 458
506 551
507 649
512 710
513 623
516 501
517 592
522 470
525 568
526 666
529 541
530 728
532 640
536 516
537 608
544 483
545 584
545 683
550 555
550 744
551 657
557 530
557 624
565 599
566 495
570 570
570 687
570 760
577 545
577 639
588 507
590 585
591 774
597 560
597 654
599 627
609 521
610 600
614 785
618 574
618 668
619 642
631 533
634 608
638 794
653 546
663 797
675 558
688 797
696 572
713 798
717 586
736 603
738 798
753 622
763 803
764 645
774 668
780 693
786 813
787 717
795 741
807 763
808 825
824 782
829 839
844 797
850 853
863 814
871 867
883 829
891 882
903 844
911 897
923 859
930 914
943 874
949 931
964 888
969 946
985 902
990 960
1007 914
1009 977
1027 929
1029 992
1048 943
1048 1009
1068 958
1070 1021
1087 1040
1090 971
1107 1055
1110 987
1126 1072
1131 1001
1145 1089
1151 1016
1165 1104
1173 1029
1185 1119
1194 1043
1204 1136
1216 1056
1224 1152
1237 1070
1242 1170
1258 1084
1263 1184
1279 1098
1283 1199
1299 1113
1302 1216
1319 1128
1323 1230
1340 1142
1343 1246
1361 1156
1363 1261
1381 1171
1385 1273
1401 1186
1405 1288
1421 1201
1425 1303
1441 1216
1445 1318
1461 1231
1465 1334
1481 1247
1484 1351
1500 1264
1506 1363
1520 1279
1527 1377
1539 1296
1548 1391
1558 1313
1569 1405
1576 1331
1591 1418
1595 1348
1613 1430
1615 1364
1632 1411
1633 1382
