284 661
293 685
307 651
313 701
332 648
336 711
356 726
357 645
380 735
382 645
404 743
407 642
429 743
432 641
449 758
457 641
472 768
482 641
497 767
507 639
522 770
532 637
546 777
557 638
571 782
582 639
596 784
607 638
621 787
632 639
646 788
657 638
671 792
682 639
688 712
696 791
707 640
721 791
732 641
746 791
757 642
760 744
771 785
782 642
796 779
807 645
821 774
832 648
845 767
857 651
870 761
882 655
891 747
907 659
911 704
915 738
932 662
940 734
957 665
965 733
982 668
990 732
1007 668
1015 732
1032 669
1037 720
1057 668
1062 725
1082 669
1086 732
1107 667
1111 727
1132 667
1136 732
1157 665
1161 733
1182 663
1186 733
1207 661
1211 731
1232 662
1236 731
1257 660
1261 731
1282 661
1286 732
1307 659
1311 735
1332 658
1336 735
1357 659
1361 734
1382 659
1386 733
1407 657
1411 735
1432 656
1436 735
1457 658
1461 737
1482 654
1486 735
1507 656
1511 740
1532 654
1536 738
1557 654
1561 739
1582 653
1586 739
1607 653
1611 736
1632 652
1636 741
1657 653
1661 741
1682 652
1686 741
1707 652
1711 743
1732 650
1736 742
1757 651
1761 743
1782 650
1786 743
1807 652
1811 741
1832 654
1836 737
1854 666
1856 722
1866 688
