701 311
702 336
704 282
705 361
711 386
719 261
720 410
729 434
742 251
743 455
753 478
764 263
766 500
780 283
781 520
795 303
796 540
808 325
811 560
820 347
825 581
831 370
840 601
844 392
858 413
858 619
870 435
875 638
884 456
890 658
896 478
906 678
909 500
920 523
924 696
932 545
941 715
947 565
957 735
959 587
972 609
975 753
987 629
994 770
999 651
1011 673
1011 789
1023 811
1024 695
1037 717
1039 831
1040 742
1050 854
1053 764
1064 875
1070 783
1078 896
1085 803
1091 918
1096 826
1103 940
1112 846
1115 962
1128 984
1130 864
1137 1008
1144 885
1155 1026
1161 904
1169 1047
1173 926
1181 1069
1191 944
1198 1088
1202 967
1213 1108
1216 988
1228 1128
1231 1008
1240 1150
1243 1030
1254 1171
1257 1051
1269 1191
1270 1073
1283 1095
1284 1211
1295 1234
1299 1115
1311 1137
1313 1252
1325 1158
1325 1274
1340 1178
1340 1294
1354 1199
1356 1314
1365 1222
1372 1334
1378 1244
1388 1267
1392 1350
1406 1285
1414 1337
1418 1307
