478 393
491 415
503 392
507 435
522 455
528 395
540 473
553 399
558 491
574 511
578 404
594 527
603 410
611 546
627 417
629 564
649 579
651 424
667 597
675 432
689 610
699 440
707 628
722 451
727 643
746 460
746 660
768 672
769 470
786 690
792 480
809 701
815 491
827 719
838 501
847 735
861 511
867 750
876 774
883 523
897 788
905 535
918 802
928 546
939 816
951 556
959 831
975 565
979 846
998 575
1000 860
1020 875
1022 583
1039 602
1039 627
1039 892
1044 652
1056 674
1059 907
1074 692
1078 924
1094 707
1098 939
1116 720
1118 954
1137 971
1139 730
1159 984
1161 742
1179 1000
1183 754
1198 1017
1205 766
1219 1031
1228 777
1241 1043
1250 790
1261 1058
1272 802
1282 1072
1294 815
1305 1082
1315 829
1328 1092
1337 842
1348 1107
1358 856
1371 1118
1380 868
1395 1126
1402 880
1419 1135
1426 889
1441 1147
1450 897
1463 1159
1474 904
1487 1166
1499 908
1511 1175
1524 912
1526 1153
1548 1141
1549 913
1571 925
1571 1128
1578 949
1579 1101
1583 974
1583 1072
1585 999
1586 1024
