247 441
258 464
272 443
275 483
291 503
297 447
311 518
321 454
329 536
345 461
348 553
367 570
370 467
387 585
393 477
408 599
417 484
428 614
440 494
448 629
465 500
470 641
488 511
490 656
510 672
511 521
531 686
534 531
553 698
557 541
576 709
580 551
596 725
603 562
617 739
627 570
639 751
650 581
661 764
672 593
682 778
695 603
705 788
718 613
727 801
741 623
748 815
763 635
769 829
785 647
793 838
808 658
815 850
831 668
834 867
854 679
857 877
877 690
880 888
900 701
902 900
922 713
924 912
945 723
946 925
967 735
969 935
990 745
991 947
1012 757
1014 958
1035 767
1039 957
1053 936
1058 778
1065 913
1077 890
1082 786
1100 836
1100 880
1104 799
1124 815
1124 889
1146 901
1147 825
1168 839
1170 908
1186 928
1189 853
1206 943
1213 861
1227 957
1235 873
1247 972
1257 885
1267 987
1279 897
1288 1001
1303 906
1310 1014
1325 919
1331 1028
1348 929
1353 1040
1370 942
1374 1054
1393 953
1397 1064
1416 963
1419 1076
1436 1095
1438 975
1460 1102
1461 985
1483 1112
1484 996
1504 1011
1507 1121
1527 1021
1530 1132
1549 1034
1552 1144
1571 1161
1572 1045
1580 1185
1591 1139
1595 1056
1598 1203
1618 1067
1623 1204
1630 1129
1641 1078
1648 1197
1662 1092
1669 1182
1684 1105
1688 1165
1694 1128
