1 375
16 395
19 357
40 387
44 351
60 403
69 347
85 405
94 346
110 405
119 345
135 404
144 345
160 403
169 346
185 401
194 346
210 399
219 348
235 397
244 349
260 395
269 350
285 393
294 351
310 391
319 352
335 389
344 352
360 388
369 353
385 387
394 353
410 386
419 352
435 386
444 351
460 387
469 350
485 387
494 349
510 388
519 348
535 389
544 344
560 395
568 337
583 406
589 322
601 424
606 302
615 445
620 280
630 465
639 262
651 479
662 251
676 483
687 253
698 469
706 270
713 449
720 291
724 426
728 315
731 399
733 340
734 365
