90 514
92 462
92 487
94 539
98 436
99 564
103 410
103 589
110 613
112 384
120 360
120 636
130 659
131 336
142 681
143 312
156 702
157 290
173 269
173 721
190 249
190 740
209 231
209 757
228 214
231 769
248 195
256 773
270 183
281 775
292 169
306 775
315 159
331 773
339 149
356 768
363 142
380 759
388 135
403 749
413 131
425 737
438 133
447 725
463 136
469 713
487 143
491 701
511 151
514 690
533 163
537 678
551 181
561 669
566 201
581 221
585 662
592 244
604 266
609 291
610 657
617 315
622 340
625 365
629 390
633 415
635 657
637 440
639 465
646 489
656 512
660 661
664 536
679 556
684 670
699 572
707 681
721 584
730 691
743 597
753 702
766 607
776 712
789 618
799 723
812 629
822 734
835 639
845 744
858 650
868 755
882 658
891 766
905 668
914 777
927 680
937 787
949 692
960 798
972 702
983 809
995 713
1006 820
1018 724
1029 831
1041 735
1052 842
1064 746
1075 853
1087 757
1098 864
1110 767
1120 876
1133 778
1143 887
1156 789
1165 899
1179 799
1187 911
1202 809
1209 923
1225 819
1231 936
1248 829
1253 949
1271 839
1275 961
1294 849
1297 974
1317 859
1318 988
1340 869
1341 999
1362 1013
1364 877
1383 1027
1387 888
1405 1039
1411 896
1426 1053
1434 907
1448 1066
1458 915
1469 1080
1480 927
1490 1094
1504 934
1512 1107
1527 945
1533 1121
1551 954
1554 1135
1574 964
1575 1149
1596 1163
1598 972
1618 1176
1620 985
1640 1189
1644 993
1662 1202
1666 1005
1684 1214
1690 1014
1706 1226
1712 1026
1729 1237
1734 1038
1752 1248
1757 1049
1775 1258
1779 1062
1799 1267
1801 1075
1822 1089
1823 1276
1843 1103
1847 1284
1864 1117
1871 1291
1884 1132
1893 1304
1903 1149
1915 1317
1922 1166
1936 1331
1941 1183
1957 1345
1959 1201
1977 1219
1979 1358
1999 1373
2000 1230
2021 1386
2022 1242
2040 1403
2044 1255
2046 1280
2046 1305
2046 1330
2046 1355
