206 172
206 197
208 222
211 146
216 246
221 121
225 270
234 99
235 293
247 315
252 79
261 337
273 64
280 354
294 50
298 372
317 389
318 41
337 404
342 34
358 418
367 30
380 430
392 29
402 442
417 29
425 452
442 31
448 462
467 36
472 469
492 42
496 477
516 49
521 480
539 59
546 485
562 69
571 487
584 82
596 486
606 94
621 484
626 109
646 481
647 123
666 140
671 478
685 157
696 473
702 176
717 196
721 470
731 217
743 239
746 471
754 262
765 285
770 480
775 308
783 332
795 354
795 483
811 374
819 491
831 390
841 504
851 405
863 516
873 418
885 528
895 430
907 541
917 442
929 553
939 454
951 565
961 467
973 577
983 480
995 589
1005 493
1018 599
1026 507
1040 611
1049 518
1062 624
1071 530
1085 635
1092 544
1107 647
1114 557
1129 659
1136 570
1151 671
1158 582
1173 683
1181 593
1194 697
1203 606
1216 709
1225 619
1238 722
1247 631
1260 734
1270 642
1282 747
1292 655
1304 760
1314 668
1326 772
1336 680
1348 785
1359 690
1369 799
1381 703
1391 812
1404 714
1413 824
1426 726
1435 836
1448 738
1457 849
1470 750
1479 861
1493 761
1500 875
1516 772
1522 887
1537 786
1544 900
1560 797
1565 914
1582 810
1588 925
1605 821
1610 938
1627 834
1631 952
1649 846
1653 965
1672 857
1675 978
1695 868
1696 992
1715 883
1718 1004
1739 892
1740 1016
1761 905
1762 1028
1783 1042
1784 916
1806 929
1806 1052
1828 941
1828 1064
1849 1078
1850 953
1872 966
1872 1089
1893 980
1895 1099
1915 1082
1916 990
1919 1107
1930 1060
1937 1004
1940 1037
1942 1117
1954 1069
1965 1036
1967 1111
1978 1061
1989 1027
1989 1124
1993 1081
2003 1055
2011 1111
2017 1034
2018 1086
2040 1098
2041 1041
