419 1169
421 1200
422 1225
424 1250
424 1275
425 1121
428 1300
433 1325
437 1350
440 1101
444 1374
447 1403
450 1428
457 1452
461 1477
462 1088
465 1502
472 1526
477 1551
485 1077
485 1575
494 1599
509 1070
510 1619
532 1060
533 1630
556 1053
557 1637
581 1051
582 1642
606 1048
607 1646
631 1043
632 1649
656 1043
657 1652
681 1040
682 1656
706 1036
707 1658
731 1037
732 1658
756 1037
757 1657
781 1036
782 1656
806 1038
807 1656
831 1039
832 1653
856 1039
857 1653
881 1045
882 1650
906 1050
907 1645
931 1053
931 1638
956 1058
956 1638
981 1063
981 1636
1005 1628
1006 1068
1030 1627
1031 1070
1055 1621
1056 1076
1080 1616
1081 1082
1104 1608
1106 1087
1129 1603
1131 1091
1154 1598
1156 1097
1178 1591
1180 1104
1203 1588
1204 1112
1227 1579
1229 1116
1252 1575
1254 1121
1276 1566
1278 1129
1301 1561
1303 1132
1326 1556
1328 1137
1350 1548
1353 1143
1375 1545
1378 1148
1399 1537
1403 1154
1424 1532
1428 1158
1449 1526
1453 1164
1474 1521
1477 1171
1499 1516
1502 1173
1524 1510
1526 1180
1549 1504
1551 1184
1574 1500
1576 1188
1599 1494
1601 1192
1624 1487
1626 1194
1648 1479
1651 1200
1673 1475
1676 1204
1698 1470
1701 1205
1723 1466
1726 1210
1748 1463
1750 1217
1772 1456
1775 1214
1781 1424
1797 1453
1800 1217
1822 1449
1825 1215
1847 1446
1850 1216
1872 1445
1875 1222
1897 1442
1900 1220
1922 1440
1925 1219
1947 1438
1950 1218
1972 1437
1975 1218
1997 1434
2000 1217
2022 1434
2025 1219
2047 1432
2050 1219
2072 1430
2075 1216
2097 1427
2100 1216
2122 1428
2125 1215
2147 1429
2150 1214
2172 1429
2175 1213
2197 1430
2200 1212
2222 1427
2225 1212
2247 1428
2250 1210
2272 1432
2275 1210
2297 1433
2300 1208
2322 1433
2325 1206
2347 1434
2350 1209
2372 1434
2375 1203
2397 1434
2400 1199
2422 1435
2425 1198
2447 1436
2450 1196
2472 1436
2475 1193
2497 1437
2500 1193
2522 1438
2525 1192
2547 1442
2550 1188
2572 1441
2575 1184
2597 1442
2600 1182
2622 1444
2625 1179
2647 1445
2650 1178
2672 1449
2675 1174
2697 1448
2700 1173
2722 1450
2725 1171
2747 1451
2750 1166
2772 1451
2775 1164
2797 1453
2800 1161
2822 1453
2825 1159
2847 1455
2850 1157
2872 1457
2875 1155
2897 1458
2900 1151
2922 1460
2925 1150
2947 1460
2950 1147
2972 1461
2975 1145
2997 1464
3000 1141
3022 1467
3025 1138
3047 1468
3050 1136
3072 1467
3075 1133
3097 1472
3100 1130
3122 1472
3125 1129
3147 1474
3150 1126
3172 1473
3175 1123
3197 1476
3200 1121
3222 1474
3225 1119
3247 1475
3250 1116
3272 1478
3275 1113
3297 1478
3300 1110
3322 1480
3325 1109
3347 1480
3350 1107
3372 1481
3375 1104
3397 1483
3400 1103
3422 1482
3425 1101
3447 1481
3450 1101
3472 1480
3475 1100
3497 1479
3500 1101
3522 1476
3525 1101
3547 1475
3550 1103
3572 1473
3575 1105
3597 1467
3600 1111
3621 1460
3625 1117
3645 1450
3649 1124
3669 1440
3671 1137
3691 1152
3691 1428
3711 1168
3711 1413
3728 1187
3730 1396
3743 1207
3745 1376
3754 1230
3755 1352
3761 1254
3761 1323
3764 1279
