434 865
434 890
438 838
443 812
450 788
451 909
459 764
472 742
476 914
488 722
501 916
508 706
526 919
530 693
551 922
553 683
576 923
577 676
601 925
602 671
626 925
627 668
651 926
652 666
676 927
677 664
701 927
702 663
726 927
727 663
751 927
752 663
776 928
777 663
801 928
802 663
826 928
827 664
851 671
851 922
872 907
873 683
889 887
896 693
902 718
902 865
915 740
922 849
938 751
942 833
962 758
967 833
987 758
992 833
1012 755
1016 841
1037 755
1041 841
1062 755
1066 842
1087 755
1091 843
1112 754
1116 844
1137 754
1141 845
1162 753
1166 846
1187 752
1191 847
1212 751
1216 848
1237 751
1241 850
1262 749
1266 851
1287 748
1291 853
1312 747
1316 854
1337 746
1341 856
1362 744
1366 857
1387 743
1391 860
1412 743
1416 858
1437 744
1441 858
1462 743
1466 862
1487 744
1491 867
1512 744
1516 868
1537 742
1541 870
1562 740
1566 872
1587 740
1591 874
1612 737
1616 874
1637 734
1641 870
1662 734
1664 880
1684 747
1689 881
1705 733
1714 884
1730 733
1739 886
1754 742
1764 884
1779 735
1789 881
1804 733
1814 883
1829 733
1839 883
1854 733
1864 882
1879 733
1889 882
1904 732
1914 877
1929 732
1939 875
1953 740
1964 878
1975 799
1978 738
1979 828
1989 877
2003 743
2003 835
2014 876
2028 743
2038 869
2046 761
2046 786
2046 811
2046 836
