215 110
216 135
219 160
220 83
225 185
233 209
235 63
240 233
246 258
252 283
256 308
257 50
258 626
260 333
260 586
262 551
263 358
264 518
265 383
266 488
267 408
268 433
268 458
271 648
281 42
282 574
283 537
296 647
299 421
299 446
300 391
300 471
301 496
302 359
303 521
305 329
305 549
306 38
306 581
307 606
309 302
314 274
320 246
327 218
331 42
334 189
339 163
341 65
342 137
343 90
