315 827
318 852
322 877
328 902
330 807
333 927
339 952
346 976
353 1000
354 798
360 1024
368 1048
376 1072
378 791
383 1096
392 1120
401 1144
403 786
411 1167
420 1191
428 779
430 1214
440 1237
450 1260
453 776
461 1283
472 1306
478 771
484 1328
496 1350
503 766
510 1371
528 763
530 1386
553 760
554 1395
578 758
578 1402
603 756
603 1405
628 754
628 1410
653 753
653 1412
678 752
678 1418
703 752
703 1421
728 752
728 1423
753 752
753 1423
778 752
778 1427
803 753
803 1429
828 755
828 1435
853 756
853 1434
877 1442
878 757
902 1443
903 761
927 1445
928 762
952 1438
953 766
977 1442
978 769
1002 1441
1003 772
1027 1442
1028 776
1052 1444
1053 781
1077 1446
1078 785
1102 1446
1103 790
1127 1444
1128 794
1152 1444
1153 796
1177 1443
1178 800
1202 1445
1203 806
1227 1438
1228 811
1252 1440
1253 816
1277 1438
1278 820
1302 1434
1303 825
1327 1430
1328 827
1352 1424
1353 831
1377 1420
1378 834
1402 1423
1403 839
1427 1423
1428 843
1452 1418
1453 847
1477 1419
1478 850
1502 1418
1503 853
1527 1413
1528 857
1551 1405
1553 860
1576 1401
1578 864
1601 1402
1603 866
1626 1400
1628 870
1651 1399
1653 874
1676 1404
1678 876
1701 1399
1703 879
1726 1397
1728 881
1751 1400
1753 886
1775 1392
1778 890
1800 1390
1803 896
1825 1385
1828 897
1850 1385
1853 898
1874 1378
1878 899
1899 1376
1903 899
1924 1374
1928 900
1949 1374
1953 901
1974 1379
1978 902
1999 1381
2003 903
2024 1377
2028 904
2049 1378
2053 906
2074 1378
2078 905
2099 1382
2103 905
2124 1379
2128 906
2149 1374
2153 909
2174 1378
2178 909
2199 1379
2203 908
2224 1376
2228 908
2249 1374
2253 909
2274 1377
2278 911
2299 1382
2303 913
2324 1380
2328 914
2349 1386
2353 911
2374 1386
2378 913
2399 1386
2403 915
2424 1385
2428 914
2449 1387
2453 916
2474 1391
2478 920
2499 1392
2503 917
2524 1388
2528 918
2549 1386
2553 919
2574 1389
2578 919
2599 1389
2603 920
2624 1394
2628 922
2649 1390
2653 925
2674 1388
2678 926
2699 1391
2703 927
2724 1389
2728 928
2748 1396
2753 927
2773 1390
2778 927
2786 1048
2786 1073
2790 1098
2791 1019
2797 1122
2798 1388
2799 995
2803 928
2805 1146
2815 975
2823 1387
2827 935
2827 1158
2839 967
2848 1385
2852 938
2852 1157
2864 964
2873 1387
2876 1166
2877 939
2898 1386
2901 1167
2918 940
2923 1387
2925 1174
2939 954
2946 930
2948 1390
2950 1167
2964 959
2971 933
2973 1388
2975 1172
2993 945
2996 1378
3000 1171
3015 957
3018 1390
3022 933
3025 1176
3040 962
3041 1401
3045 1161
3047 930
3059 979
3060 1140
3064 1103
3066 1003
3066 1056
3066 1400
3067 1028
3072 928
3090 1409
3097 923
3115 1412
3122 920
3140 1413
3147 918
3165 1415
3172 916
3190 1420
3197 914
3215 1423
3222 911
3240 1424
3247 909
3265 1427
3272 907
3290 1427
3297 905
3315 1425
3322 902
3340 1427
3347 900
3365 1431
3372 897
3390 1431
3397 894
3415 1436
3422 891
3440 1438
3447 889
3465 1439
3472 887
3490 1442
3497 885
3515 1442
3522 884
3540 1443
3546 891
3565 1445
3570 900
3590 1448
3593 910
3615 1447
3616 921
3639 932
3640 1448
3660 946
3665 1446
3681 960
3690 1447
3702 974
3715 1450
3722 990
3740 1454
3741 1007
3760 1024
3765 1453
3778 1042
3789 1445
3795 1061
3811 1081
3814 1445
3826 1101
3839 1440
3840 1122
3852 1144
3862 1429
3864 1166
3875 1189
3880 1409
3885 1212
3892 1236
3894 1385
3900 1260
3903 1360
3906 1285
3908 1333
