15 135
17 102
37 147
40 91
44 123
62 146
64 98
80 128
83 160
103 145
106 170
126 135
129 180
139 157
152 190
163 166
175 201
187 175
197 213
210 185
220 224
233 195
242 236
256 205
265 247
279 215
287 259
302 225
310 270
325 235
332 282
348 245
354 294
371 255
377 305
394 265
400 316
417 275
422 328
440 285
445 339
463 295
467 351
487 304
490 362
510 314
512 374
531 391
533 325
553 340
556 387
568 320
573 355
588 335
