42 622
60 604
62 952
70 627
82 968
85 598
86 943
95 627
107 971
110 597
111 937
120 627
132 968
135 596
136 931
145 627
157 964
160 595
161 926
170 627
182 961
185 595
186 920
195 627
207 958
210 595
211 914
220 627
232 955
235 594
236 910
245 627
257 951
260 593
261 905
270 626
282 948
285 593
286 900
295 626
307 945
310 593
311 899
320 626
332 941
335 592
336 895
345 625
357 938
360 592
361 892
370 625
382 934
385 591
386 889
395 624
407 931
410 591
411 885
420 624
432 928
435 590
436 882
445 623
457 925
460 590
461 879
470 623
482 921
485 589
486 875
495 623
507 918
510 589
511 872
520 623
532 914
535 589
536 868
545 622
557 910
560 589
561 866
570 622
582 908
585 589
586 862
595 621
607 903
610 590
611 858
620 621
632 899
635 590
636 855
645 620
657 894
660 591
661 852
670 621
682 890
685 590
686 849
695 620
707 886
710 590
711 846
720 620
732 882
735 589
736 842
745 620
757 878
760 590
761 839
770 620
782 874
785 590
786 836
795 619
807 872
810 589
811 832
820 619
832 868
835 589
836 829
845 619
857 864
860 589
861 826
870 619
882 860
885 589
886 822
895 619
907 857
910 588
911 819
920 618
932 853
935 589
936 815
945 618
957 850
960 589
961 811
970 618
982 846
985 587
986 808
995 618
1007 843
1010 588
1011 804
1020 618
1032 840
1035 587
1036 801
1045 618
1057 835
1060 588
1061 798
1070 618
1082 831
1085 587
1086 794
1095 618
1107 828
1110 588
1111 791
1120 618
1132 825
1135 588
1136 788
1145 618
1157 822
1160 588
1161 784
1170 617
1182 818
1185 588
1186 781
1195 618
1207 814
1210 588
1211 777
1220 617
1232 810
1235 588
1236 774
1245 617
1257 807
1260 588
1261 770
1270 618
1282 803
1285 588
1286 768
1295 617
1307 800
1310 588
1311 764
1320 617
1332 796
1335 588
1336 761
1345 617
1357 793
1360 588
1361 757
1370 617
1382 789
1385 588
1386 754
1395 617
1407 786
1410 588
1411 749
1420 617
1432 782
1435 588
1436 747
1445 617
1457 778
1460 588
1461 743
1470 617
1482 774
1485 589
1486 738
1495 617
1507 771
1510 589
1511 736
1520 617
1532 767
1535 588
1536 733
1545 614
1557 763
1560 588
1561 732
1570 613
1582 759
1585 588
1586 728
1595 611
1607 755
1610 588
1611 726
1620 615
1632 752
1635 589
1635 719
1645 617
1657 748
1660 590
1660 714
1670 618
1682 749
1685 590
1685 708
1692 655
1695 619
1696 680
1707 750
1710 590
1732 749
1735 590
1751 732
1760 591
1776 729
1785 591
1801 731
1810 593
1824 720
1835 592
1849 716
1860 594
1874 712
1885 593
1899 707
1910 594
1924 705
1935 594
1949 700
1960 595
1974 695
1985 595
1999 691
2010 596
2024 686
2035 597
2041 659
2042 621
