280 1212
282 1185
283 1237
287 1262
288 1157
293 1287
296 1133
301 1311
308 1108
309 1335
317 1083
321 1357
331 1061
335 1378
347 1040
352 1397
362 1020
367 1417
379 1001
385 1435
399 985
404 1452
419 969
424 1467
440 955
446 1480
463 944
468 1493
485 932
490 1505
509 923
513 1516
533 913
536 1526
558 908
560 1535
583 903
584 1544
608 899
608 1551
632 1558
633 896
657 1563
658 893
682 1568
683 892
707 1572
708 892
732 1575
733 893
757 1577
758 894
782 1580
783 897
807 1581
808 899
832 1582
833 903
857 1581
858 907
882 1581
883 911
907 1580
908 916
932 1578
933 922
957 1576
958 928
982 935
982 1573
1006 942
1007 1570
1030 950
1032 1566
1054 959
1057 1560
1078 968
1082 1555
1102 977
1107 1549
1125 988
1131 1541
1148 998
1156 1536
1170 1010
1180 1528
1193 1021
1204 1521
1215 1033
1228 1514
1237 1045
1252 1507
1259 1057
1276 1500
1281 1069
1300 1493
1304 1080
1324 1486
1326 1093
1348 1105
1349 1480
1370 1117
1374 1474
1392 1129
1399 1468
1414 1141
1424 1462
1437 1152
1449 1458
1459 1164
1474 1453
1482 1175
1499 1450
1505 1185
1524 1446
1528 1195
1549 1444
1552 1204
1574 1442
1576 1212
1599 1441
1600 1220
1624 1227
1624 1441
1649 1233
1649 1441
1674 1238
1674 1442
1699 1242
1699 1443
1724 1247
1724 1445
1749 1251
1749 1446
1774 1255
1774 1449
1799 1259
1799 1452
1824 1263
1824 1454
1849 1266
1849 1457
1874 1270
1874 1460
1899 1274
1899 1464
1924 1276
1924 1467
1949 1279
1949 1470
1974 1282
1974 1474
1999 1285
1999 1478
2024 1287
2024 1483
2049 1289
2049 1487
2074 1291
2074 1492
2099 1293
2099 1497
2124 1295
2124 1503
2149 1297
2149 1508
2174 1299
2174 1513
2199 1300
2199 1519
2224 1302
2224 1524
2249 1303
2249 1529
2274 1304
2274 1534
2299 1304
2299 1539
2324 1307
2324 1544
2349 1307
2349 1549
2374 1308
2374 1554
2399 1310
2399 1559
2424 1310
2424 1563
2449 1312
2449 1569
2474 1313
2474 1574
2499 1314
2499 1579
2524 1315
2524 1584
2549 1316
2549 1589
2574 1318
2574 1594
2599 1319
2599 1599
2624 1321
2624 1605
2649 1321
2649 1610
2674 1322
2674 1615
2699 1324
2699 1620
2724 1324
2724 1626
2749 1326
2749 1631
2774 1327
2774 1635
2799 1329
2799 1640
2824 1330
2824 1645
2849 1331
2849 1650
2874 1331
2874 1654
2899 1334
2899 1659
2924 1334
2924 1663
2949 1336
2949 1667
2974 1337
2974 1673
2999 1338
2999 1678
3024 1339
3024 1682
3049 1341
3049 1686
3074 1342
3074 1691
3099 1343
3099 1696
3124 1346
3124 1699
3149 1346
3149 1704
3174 1347
3174 1709
3199 1350
3199 1712
3224 1353
3224 1717
3249 1353
3249 1721
3274 1355
3274 1726
3299 1358
3299 1729
3324 1360
3324 1733
3349 1362
3349 1738
3374 1364
3374 1741
3399 1367
3399 1744
3424 1369
3424 1748
3449 1372
3449 1753
3474 1375
3474 1756
3499 1377
3499 1760
3524 1380
3524 1764
3549 1382
3549 1767
3574 1385
3574 1769
3599 1388
3599 1775
3624 1390
3624 1776
3649 1394
3649 1781
3674 1397
3674 1784
3699 1400
3699 1786
3724 1403
3724 1790
3749 1406
3749 1794
3774 1409
3774 1795
3799 1411
3799 1799
3824 1415
3824 1801
3849 1417
3849 1802
3874 1421
3874 1802
3899 1426
3899 1803
3924 1429
3924 1803
3949 1433
3949 1803
3974 1437
3974 1802
3999 1443
3999 1800
4024 1447
4024 1797
4048 1455
4049 1795
4072 1462
4074 1791
4096 1471
4099 1786
4120 1480
4124 1779
4126 1505
4126 1530
4126 1555
4126 1580
4126 1605
4126 1630
4126 1655
4126 1680
4126 1705
4126 1730
