56 711
66 734
68 689
91 732
93 686
116 733
118 685
141 733
143 685
166 736
168 685
191 731
193 684
216 727
218 683
241 729
243 687
266 731
268 682
291 729
293 683
316 735
318 684
341 737
343 686
366 738
368 691
391 737
393 687
416 732
418 688
440 741
443 689
465 743
468 689
490 745
493 690
515 749
518 691
540 751
543 692
565 754
568 693
590 754
593 694
615 754
618 694
640 756
643 695
665 757
668 696
690 757
693 697
715 759
718 698
740 760
743 699
765 760
768 699
790 762
793 700
815 762
818 700
840 763
843 701
865 763
868 702
890 764
893 702
915 765
918 702
940 767
943 702
965 771
968 699
990 776
993 694
1014 783
1018 688
1038 791
1042 681
1061 801
1065 670
1082 815
1088 659
1105 825
1111 648
1127 838
1133 636
1149 851
1155 624
1172 862
1179 614
1196 870
1203 605
1220 879
1228 600
1245 883
1253 596
1270 886
1278 595
1295 890
1303 596
1320 889
1328 599
1345 885
1353 604
1370 880
1377 612
1393 870
1400 622
1416 859
1422 634
1438 845
1439 653
1453 674
1458 830
1465 696
1472 720
1472 807
1475 745
1477 770
