251 166
252 191
253 140
256 216
262 112
263 240
271 264
274 89
282 287
289 66
294 309
307 331
309 50
322 351
332 38
337 371
354 390
356 30
373 407
381 28
392 424
406 30
409 443
429 458
431 34
449 473
456 40
469 488
480 49
492 498
503 59
515 508
526 70
539 517
547 84
563 524
569 96
588 530
589 112
609 128
613 536
628 145
637 543
645 164
662 548
663 182
679 202
686 556
696 221
710 242
710 564
724 263
733 575
734 286
741 310
748 334
755 587
758 357
763 382
767 407
773 432
777 599
781 456
787 481
794 618
802 501
813 635
815 523
832 542
832 652
849 561
849 671
867 689
868 578
886 596
888 703
904 614
907 720
923 631
924 739
942 648
945 753
960 666
963 773
979 683
983 789
998 700
1003 805
1017 717
1018 825
1033 845
1035 735
1053 860
1054 752
1072 877
1074 768
1091 787
1091 894
1109 805
1109 912
1129 820
1131 924
1149 836
1149 942
1166 855
1170 956
1186 870
1189 973
1206 886
1207 991
1221 906
1225 1009
1241 921
1245 1024
1262 935
1267 1036
1282 951
1283 1056
1301 970
1303 1071
1319 993
1326 1082
1342 1004
1344 1100
1364 1018
1365 1114
1386 1031
1388 1125
1403 1050
1406 1143
1424 1064
1429 1153
1447 1171
1448 1071
1465 1090
1467 1186
1487 1102
1489 1198
1507 1118
1512 1209
1529 1228
1530 1129
1550 1144
1553 1235
1573 1154
1573 1251
1591 1172
1595 1263
1614 1183
1614 1280
1634 1198
1637 1290
1655 1212
1657 1305
1675 1227
1679 1317
1699 1236
1700 1331
1721 1249
1723 1342
1743 1262
1744 1356
1763 1277
1766 1368
1784 1291
1788 1381
1808 1299
1811 1392
1829 1313
1833 1404
1849 1337
1855 1417
1873 1435
1874 1338
1894 1354
1895 1448
1917 1364
1919 1457
1937 1380
1940 1471
1961 1389
1963 1482
1984 1400
1985 1494
2005 1414
2010 1488
2026 1428
2026 1468
