46 196
48 221
53 170
53 246
69 150
69 266
91 137
91 278
115 127
115 285
140 122
140 289
165 119
165 293
190 118
190 293
215 118
215 292
240 119
240 288
265 122
265 282
289 273
290 127
311 260
312 139
329 241
331 156
348 224
351 172
373 223
376 175
398 227
401 175
423 230
426 173
448 234
451 172
473 237
476 171
498 240
501 168
523 244
526 165
548 246
551 162
573 249
576 159
598 251
601 156
623 252
626 154
648 253
651 152
673 253
676 151
698 252
701 149
723 251
726 148
748 250
751 147
773 248
776 148
798 245
801 149
823 244
826 149
848 241
851 149
873 238
876 151
898 237
901 153
923 235
926 154
948 232
951 155
972 223
976 160
997 226
1001 160
1013 206
