255 486
255 496
259 506
266 514
263 524
255 531
255 541
255 551
255 561
261 569
269 575
270 585
263 599
255 606
261 614
269 620
275 628
283 634
285 644
286 654
290 664
295 673
300 682
300 692
300 702
300 712
308 719
315 727
323 734
325 744
330 753
330 763
335 772
340 781
345 790
345 800
345 810
348 820
355 828
363 834
370 842
375 851
375 861
380 870
383 884
375 891
381 899
389 905
390 915
393 925
400 933
405 942
405 952
413 959
420 967
420 977
420 987
420 997
420 1007
420 1017
420 1027
420 1037
415 1051
415 1061
415 1071
415 1081
413 1094
405 1101
405 1111
409 1121
410 1136
405 1146
405 1156
405 1166
405 1176
405 1186
410 1195
416 1203
424 1210
433 1215
443 1215
452 1210
462 1209
470 1200
480 1200
490 1195
498 1188
508 1185
517 1180
527 1180
537 1179
545 1170
555 1170
565 1165
573 1158
583 1155
593 1153
600 1145
609 1140
615 1148
623 1154
630 1145
639 1140
649 1140
657 1134
665 1125
673 1118
680 1110
690 1110
700 1105
708 1098
718 1095
728 1093
735 1085
744 1080
750 1088
758 1094
767 1099
777 1100
787 1104
797 1105
807 1105
817 1105
826 1100
836 1100
845 1095
854 1090
862 1084
870 1070
875 1060
883 1053
888 1043
890 1025
890 1015
886 1005
885 995
894 990
904 990
912 984
920 975
928 968
935 960
945 955
953 948
960 940
968 933
978 930
987 924
995 915
1005 915
1015 910
1023 903
1030 895
1038 888
1048 885
1058 883
1065 870
1065 860
1074 855
1084 855
1092 849
1095 835
1103 828
1110 820
1115 810
1125 810
1135 805
1140 795
1140 785
1148 778
1155 770
1163 763
1170 751
1168 741
1160 735
1150 735
1141 730
1140 720
1136 710
1127 705
1117 705
1109 698
1102 690
1092 690
1083 685
1075 678
1065 675
1055 676
1047 685
1037 685
1029 678
1023 670
1015 663
1005 660
995 659
989 651
981 645
971 644
965 636
959 628
952 620
944 613
937 605
929 598
922 590
913 585
903 585
893 585
885 579
879 571
871 565
870 555
867 545
858 540
848 540
840 533
840 523
835 514
828 506
825 496
824 486
814 483
804 488
800 478
795 469
795 459
789 451
781 444
775 436
770 427
765 418
760 409
754 401
746 395
737 390
728 385
720 379
720 369
714 361
704 360
694 358
687 350
679 343
673 335
665 329
659 321
649 318
641 325
631 325
630 315
628 305
619 300
609 300
599 300
589 300
579 300
569 300
559 296
549 295
539 291
529 288
520 293
510 290
500 290
490 291
480 290
471 285
461 284
455 276
453 266
449 256
441 249
435 241
434 231
425 226
415 228
405 225
395 225
385 225
375 225
365 225
356 230
346 230
336 235
326 240
316 245
307 250
298 255
290 261
283 269
275 276
270 286
265 301
260 311
260 321
255 336
260 345
260 355
260 365
263 375
268 384
275 392
285 396
291 404
301 408
313 410
308 419
300 426
293 434
285 441
278 449
270 456
270 466
263 479
