154 317
154 307
159 292
164 282
172 274
180 266
188 259
197 254
206 249
215 244
224 232
229 222
237 214
245 206
255 201
265 196
273 189
282 184
291 179
301 175
311 174
321 170
331 169
341 169
351 169
361 169
371 169
381 169
390 174
400 174
409 179
419 181
425 189
435 189
444 194
452 200
460 207
467 215
472 224
479 232
485 240
487 250
495 257
495 267
500 276
503 286
505 296
505 306
510 315
510 325
510 335
510 345
515 354
515 364
515 374
515 384
520 393
520 403
525 412
529 422
534 431
538 441
540 451
546 459
550 469
558 475
565 483
570 492
577 500
585 507
592 515
602 519
609 527
617 534
624 542
632 549
641 554
650 559
658 565
667 570
677 574
686 579
695 584
704 589
714 591
723 596
733 600
742 605
752 609
761 614
770 619
780 622
790 624
799 629
808 634
818 635
827 640
837 644
846 649
855 654
864 659
874 661
883 666
893 670
903 674
912 679
921 684
930 689
940 692
949 697
959 699
968 704
978 705
987 710
997 714
1006 719
1015 724
1025 727
1034 732
1044 736
1054 739
1064 739
1074 741
1084 744
1093 749
1103 749
1112 754
1122 754
1132 754
1142 754
1152 754
1162 754
1172 754
1181 759
1191 759
1200 764
1210 764
1220 764
1230 767
1240 764
1250 764
1260 764
1270 764
1280 764
1290 764
1300 764
1310 764
1320 764
1330 767
1340 769
1350 769
1360 766
1370 764
1379 769
1389 769
1399 769
1409 771
1419 774
1429 774
1439 774
1448 779
1457 784
1457 799
1449 805
1440 810
1454 814
1464 816
1470 824
1478 830
1482 840
1483 858
1475 865
1465 865
1455 870
1460 879
1470 882
1477 890
1485 897
1492 905
1500 912
1500 922
1505 931
1503 948
1495 955
1485 955
1475 955
1465 955
1470 964
1475 973
1475 983
1475 993
1472 1004
1464 1012
1454 1017
1444 1022
1434 1025
1425 1030
1415 1030
1405 1035
1395 1035
1385 1035
1375 1032
1365 1030
1355 1030
1346 1025
1336 1025
1326 1025
1317 1020
1307 1020
1297 1020
1288 1015
1279 1010
1269 1010
1260 1005
1250 1002
1240 1000
1231 995
1221 995
1212 990
1202 989
1192 985
1183 980
1174 975
1164 975
1154 972
1145 967
1135 965
1126 960
1116 960
1107 955
1097 955
1087 955
1077 959
1067 960
1057 960
1047 960
1037 960
1027 960
1018 965
1008 965
999 970
990 975
983 983
973 988
963 993
953 998
943 1003
935 1010
925 1010
918 1018
910 1025
900 1025
890 1030
880 1040
870 1045
860 1050
851 1055
842 1060
832 1064
822 1065
812 1069
802 1070
793 1075
784 1070
774 1070
764 1070
754 1070
745 1065
735 1065
725 1065
715 1065
705 1070
698 1078
690 1085
685 1095
680 1105
675 1115
677 1125
675 1140
677 1150
682 1159
689 1167
697 1174
704 1182
709 1191
710 1201
703 1210
695 1203
689 1195
680 1190
672 1184
662 1184
652 1185
642 1185
632 1185
622 1184
612 1180
602 1180
592 1180
583 1175
573 1175
563 1175
554 1170
544 1170
535 1175
530 1190
529 1202
519 1211
519 1201
514 1192
514 1182
519 1167
524 1157
532 1149
540 1141
548 1135
558 1139
568 1139
578 1139
588 1139
598 1139
608 1139
617 1134
625 1126
633 1119
637 1109
639 1099
639 1089
639 1079
634 1070
625 1065
616 1060
606 1060
597 1055
588 1050
579 1045
569 1045
559 1042
550 1037
540 1033
531 1028
521 1024
512 1019
502 1015
493 1010
485 1003
479 995
474 986
466 980
457 975
448 970
440 963
433 955
424 950
415 945
407 939
399 932
394 923
388 915
380 908
373 900
365 893
359 885
351 879
344 871
339 862
332 854
324 847
320 837
315 828
309 820
304 811
299 802
295 792
290 783
289 773
282 765
279 755
279 745
274 736
274 726
274 716
274 706
269 697
269 687
269 677
269 667
269 657
269 647
269 637
269 627
274 617
274 607
274 597
274 587
274 577
279 562
279 552
279 542
284 532
284 522
289 512
289 502
294 487
294 477
299 467
299 457
304 442
304 432
309 423
309 413
309 403
309 393
309 383
309 373
309 363
304 354
299 345
294 336
286 330
276 330
266 330
257 335
247 335
238 340
228 343
218 345
209 350
200 355
190 360
185 370
185 388
179 380
171 373
166 364
159 356
154 347
154 337
154 327
