354 1217
354 1207
359 1197
364 1187
372 1179
381 1174
389 1162
397 1154
405 1146
410 1136
418 1129
422 1119
431 1114
439 1102
444 1092
444 1076
439 1067
439 1057
444 1047
444 1037
449 1022
454 1007
459 992
459 982
464 967
464 957
464 947
472 939
481 934
490 929
500 929
510 926
520 924
529 919
539 919
549 919
559 919
569 919
579 919
588 924
597 929
604 937
612 944
621 949
630 954
638 960
645 968
655 972
664 977
672 984
682 984
692 984
702 984
712 984
722 984
732 984
742 984
752 984
762 979
772 979
782 979
792 974
802 974
812 974
822 974
832 974
842 974
852 974
861 969
871 969
881 969
890 964
900 964
910 964
920 964
930 964
940 961
950 959
960 959
970 959
980 959
990 959
1000 959
1010 959
1020 959
1030 959
1040 959
1050 959
1060 959
1070 959
1080 959
1090 959
1100 959
1109 964
1119 966
1128 971
1135 979
1140 988
1148 994
1157 999
1167 999
1176 1004
1185 1009
1193 1015
1202 1020
1212 1024
1221 1029
1230 1034
1239 1039
1248 1044
1257 1049
1267 1049
1277 1049
1287 1049
1297 1049
1307 1049
1317 1049
1327 1049
1337 1049
1347 1049
1356 1044
1366 1040
1376 1039
1386 1035
1396 1034
1406 1034
1416 1030
1426 1029
1436 1029
1446 1029
1454 1036
1460 1044
1460 1054
1465 1063
1470 1072
1475 1081
1475 1091
1480 1100
1480 1110
1480 1120
1480 1130
1480 1140
1475 1155
1470 1165
1468 1183
1463 1193
1455 1200
1448 1208
1440 1215
1433 1223
1425 1230
1418 1238
1410 1245
1405 1255
1405 1265
1405 1275
1405 1285
1410 1294
1410 1304
1415 1313
1415 1323
1420 1332
1420 1342
1420 1352
1420 1362
1424 1372
1425 1382
1426 1400
1417 1405
1407 1405
1397 1405
1387 1409
1377 1410
1367 1410
1358 1415
1349 1420
1339 1422
1329 1425
1320 1430
1310 1430
1300 1430
1290 1430
1280 1430
1270 1430
1261 1425
1251 1423
1241 1420
1231 1420
1222 1415
1213 1410
1203 1410
1194 1405
1185 1400
1175 1397
1165 1393
1156 1388
1146 1384
1137 1379
1127 1375
1117 1375
1107 1375
1097 1375
1087 1375
1077 1375
1067 1375
1058 1380
1048 1380
1038 1380
1028 1380
1018 1380
1008 1380
998 1380
988 1380
978 1380
968 1380
958 1380
948 1380
938 1380
928 1380
918 1380
908 1380
898 1380
888 1380
878 1380
868 1380
859 1385
849 1385
839 1385
829 1385
819 1385
809 1387
799 1390
789 1390
780 1395
770 1395
760 1400
750 1405
740 1410
731 1415
722 1420
713 1415
704 1410
695 1405
686 1400
677 1395
670 1387
660 1383
654 1375
644 1372
635 1367
625 1365
615 1363
606 1358
596 1354
587 1349
579 1342
570 1337
560 1333
553 1325
545 1318
538 1310
530 1303
524 1295
514 1295
504 1297
494 1300
485 1305
475 1305
465 1310
455 1310
445 1315
435 1315
425 1320
415 1320
405 1325
396 1330
386 1328
376 1324
372 1314
367 1305
364 1295
364 1285
359 1276
359 1266
354 1257
354 1247
354 1237
354 1227
