354 1162
354 1152
362 1144
370 1136
378 1129
385 1121
393 1114
400 1106
410 1101
418 1094
427 1089
436 1084
444 1077
452 1069
460 1061
468 1054
477 1049
482 1039
487 1029
489 1014
489 1004
489 994
489 984
486 974
484 964
479 955
477 945
474 935
472 925
469 915
469 905
469 895
464 886
464 876
464 866
459 857
467 849
476 844
486 844
496 844
505 849
515 849
525 849
535 849
545 849
554 854
564 854
574 854
584 854
594 856
604 859
614 859
624 859
634 859
644 861
650 869
655 878
663 885
670 893
678 900
685 908
690 917
697 925
702 934
712 934
722 934
732 934
742 934
752 934
762 929
772 929
782 929
792 929
802 929
812 929
822 929
831 924
841 924
851 924
861 924
871 924
881 924
891 924
901 924
910 919
920 919
930 919
940 919
950 919
960 919
970 919
980 919
990 919
1000 919
1010 919
1020 919
1030 919
1040 919
1049 914
1059 914
1069 914
1079 914
1089 914
1099 914
1109 914
1119 914
1129 914
1139 914
1149 914
1159 914
1168 919
1177 924
1186 929
1195 934
1203 940
1210 948
1218 954
1227 959
1234 967
1242 974
1249 982
1257 989
1264 997
1269 1006
1275 1014
1284 1019
1292 1025
1302 1029
1312 1024
1322 1024
1332 1024
1341 1019
1351 1019
1361 1019
1371 1015
1381 1014
1391 1014
1401 1010
1411 1005
1421 1004
1431 1000
1441 999
1451 999
1461 995
1471 994
1481 994
1485 1004
1490 1013
1495 1022
1495 1032
1495 1042
1500 1051
1500 1061
1503 1071
1505 1081
1510 1090
1510 1100
1510 1110
1510 1120
1510 1130
1505 1145
1498 1158
1490 1165
1485 1175
1478 1183
1470 1190
1463 1198
1455 1205
1448 1218
1440 1225
1433 1233
1428 1243
1420 1250
1420 1260
1420 1270
1425 1279
1425 1289
1425 1299
1425 1309
1425 1319
1425 1329
1425 1339
1425 1349
1430 1358
1429 1377
1421 1385
1412 1390
1403 1395
1393 1395
1383 1395
1374 1400
1364 1400
1355 1405
1345 1405
1335 1405
1326 1410
1316 1410
1306 1410
1296 1410
1286 1410
1276 1408
1266 1405
1257 1400
1247 1399
1237 1395
1228 1390
1219 1385
1210 1380
1201 1375
1191 1374
1182 1369
1174 1362
1165 1357
1157 1350
1147 1349
1137 1345
1128 1340
1120 1333
1111 1328
1101 1325
1092 1320
1082 1320
1072 1320
1062 1320
1052 1320
1042 1320
1033 1325
1023 1325
1013 1328
1003 1330
994 1335
985 1340
975 1340
965 1345
956 1350
946 1350
936 1350
926 1350
917 1355
907 1355
898 1360
888 1360
878 1363
868 1365
858 1365
848 1368
838 1370
828 1370
818 1370
809 1375
799 1375
790 1380
780 1380
770 1380
760 1380
750 1380
740 1380
731 1375
721 1373
711 1370
702 1365
693 1360
684 1355
675 1350
666 1345
657 1340
648 1335
639 1330
629 1330
620 1325
612 1319
602 1315
593 1310
585 1303
578 1295
569 1290
559 1290
549 1290
539 1290
530 1295
520 1295
510 1295
500 1295
490 1295
480 1300
470 1300
460 1305
450 1305
440 1310
430 1310
420 1315
410 1315
400 1315
390 1320
380 1325
370 1325
362 1319
354 1312
354 1302
354 1292
354 1282
354 1272
354 1262
354 1252
354 1242
354 1232
354 1222
354 1212
354 1202
354 1192
354 1182
354 1172
