269 442
269 432
277 424
282 414
290 406
295 396
299 382
304 372
304 362
309 347
309 337
317 329
326 324
334 317
344 312
352 304
362 299
372 299
381 294
391 294
401 294
410 289
420 289
430 289
440 289
449 282
457 274
462 264
470 256
474 237
474 227
474 217
482 209
490 201
498 194
504 182
512 174
522 169
532 164
542 164
551 169
560 174
569 167
579 162
589 157
597 149
607 149
616 154
624 161
630 169
635 178
643 185
653 189
662 184
672 184
681 189
690 194
698 200
705 208
710 217
714 227
715 237
715 247
719 257
729 259
737 265
742 274
740 285
740 295
740 305
745 314
750 323
755 332
755 342
753 353
745 360
740 370
742 380
750 387
755 396
760 405
760 415
760 425
757 439
752 449
744 455
735 460
735 470
740 479
740 489
745 498
745 508
745 518
745 528
740 540
737 554
728 560
719 565
710 570
712 580
720 587
724 597
729 606
730 616
730 626
735 635
730 645
725 655
725 665
727 675
735 682
740 691
743 701
753 704
762 699
772 699
782 699
791 704
799 711
809 714
818 709
827 704
835 696
845 691
853 684
860 676
868 669
872 659
877 649
882 639
890 631
898 624
907 619
916 614
924 607
932 599
937 589
942 579
950 571
958 564
964 552
972 544
982 539
990 531
1000 526
1008 519
1017 514
1026 509
1034 502
1042 494
1052 494
1061 499
1071 499
1079 506
1083 516
1085 526
1085 536
1095 536
1103 529
1112 524
1121 519
1131 519
1141 519
1151 519
1161 519
1170 524
1180 524
1190 527
1199 532
1209 536
1215 544
1225 547
1233 554
1242 559
1249 567
1259 571
1265 579
1273 585
1280 593
1280 603
1285 612
1285 622
1290 631
1290 641
1293 651
1295 661
1301 669
1305 679
1305 689
1310 698
1315 707
1319 717
1324 726
1325 736
1331 744
1339 751
1343 761
1348 770
1352 780
1357 789
1360 799
1368 805
1370 815
1375 824
1380 833
1385 842
1392 850
1400 857
1404 867
1410 875
1415 884
1420 893
1420 903
1425 912
1425 922
1429 932
1430 942
1430 952
1434 962
1435 972
1435 982
1435 992
1435 1002
1435 1020
1430 1035
1425 1045
1420 1055
1420 1065
1422 1075
1430 1082
1434 1092
1435 1102
1435 1112
1440 1121
1440 1131
1440 1141
1440 1155
1440 1165
1435 1175
1433 1188
1425 1195
1420 1210
1413 1223
1405 1230
1398 1238
1388 1240
1378 1243
1373 1253
1365 1260
1355 1257
1347 1250
1340 1242
1330 1238
1323 1230
1315 1223
1309 1215
1304 1206
1299 1197
1294 1188
1294 1178
1294 1168
1294 1157
1294 1147
1294 1137
1294 1127
1294 1117
1294 1107
1299 1097
1307 1089
1315 1081
1323 1074
1330 1066
1340 1061
1350 1056
1360 1051
1364 1037
1364 1027
1364 1017
1369 1000
1359 1000
1350 1005
1345 1015
1338 1023
1330 1030
1323 1038
1318 1048
1310 1055
1303 1063
1295 1070
1288 1078
1280 1085
1275 1095
1275 1105
1275 1115
1275 1125
1275 1135
1280 1144
1280 1154
1285 1163
1285 1173
1285 1183
1285 1193
1285 1203
1285 1213
1285 1223
1285 1233
1290 1242
1297 1250
1305 1257
1309 1267
1314 1276
1320 1284
1325 1293
1330 1302
1335 1311
1340 1320
1335 1330
1337 1340
1342 1349
1340 1360
1335 1370
1335 1380
1335 1390
1335 1400
1340 1409
1340 1419
1345 1428
1350 1437
1350 1447
1354 1457
1355 1467
1355 1477
1360 1486
1363 1496
1365 1506
1365 1516
1368 1526
1370 1536
1375 1545
1375 1555
1380 1564
1380 1574
1380 1584
1385 1593
1385 1603
1385 1613
1382 1629
1374 1637
1364 1642
1354 1647
1344 1650
1335 1655
1325 1655
1316 1660
1306 1660
1296 1660
1286 1660
1276 1660
1267 1665
1257 1665
1247 1665
1237 1664
1227 1660
1218 1655
1210 1648
1204 1640
1196 1634
1189 1626
1184 1617
1184 1607
1192 1599
1200 1591
1208 1584
1215 1576
1223 1569
1232 1564
1242 1559
1252 1554
1262 1554
1272 1549
1282 1549
1290 1541
1294 1525
1294 1515
1289 1506
1289 1496
1284 1487
1284 1477
1284 1467
1279 1458
1275 1448
1274 1438
1269 1429
1267 1419
1262 1410
1259 1400
1259 1390
1254 1381
1249 1372
1242 1364
1232 1360
1225 1352
1220 1343
1214 1335
1209 1326
1209 1316
1204 1307
1204 1297
1204 1287
1209 1277
1204 1268
1199 1259
1194 1250
1189 1241
1189 1231
1184 1222
1179 1213
1174 1204
1171 1194
1167 1184
1162 1175
1158 1165
1148 1163
1140 1170
1135 1180
1130 1190
1125 1200
1120 1210
1115 1220
1110 1230
1110 1240
1105 1250
1107 1260
1110 1270
1105 1280
1103 1293
1098 1303
1093 1313
1088 1323
1083 1333
1075 1340
1068 1353
1060 1360
1055 1370
1050 1385
1045 1400
1040 1415
1035 1430
1030 1445
1025 1455
1020 1465
1015 1475
1010 1490
1005 1500
1000 1510
1000 1520
995 1535
985 1540
975 1540
965 1540
957 1534
949 1527
949 1517
949 1507
949 1497
954 1487
954 1477
954 1467
954 1457
954 1447
954 1437
954 1427
954 1417
959 1402
959 1392
959 1382
964 1372
972 1364
977 1354
982 1344
984 1330
979 1321
974 1312
974 1302
979 1292
987 1284
992 1274
997 1264
1002 1254
1010 1246
1018 1239
1024 1227
1029 1212
1034 1202
1039 1187
1044 1172
1052 1164
1054 1152
1055 1137
1047 1130
1037 1130
1027 1130
1017 1130
1007 1130
998 1125
988 1125
978 1125
968 1125
958 1128
948 1130
939 1125
929 1125
919 1125
909 1125
899 1125
890 1130
890 1140
890 1150
892 1160
890 1175
890 1185
890 1195
892 1205
895 1215
897 1225
905 1232
914 1237
924 1241
930 1249
935 1258
940 1267
940 1277
935 1290
935 1300
935 1310
935 1320
935 1330
935 1340
930 1355
930 1365
930 1375
930 1385
930 1395
925 1405
925 1415
925 1425
925 1435
925 1445
925 1455
925 1465
925 1475
920 1490
920 1500
920 1510
920 1520
920 1530
914 1542
904 1545
895 1550
885 1548
879 1540
874 1531
869 1522
874 1512
874 1502
874 1492
869 1483
869 1473
864 1464
864 1454
859 1445
859 1435
859 1425
854 1416
849 1407
849 1397
844 1388
844 1378
844 1368
844 1358
840 1348
833 1340
824 1335
814 1332
807 1324
802 1315
799 1305
794 1296
789 1287
789 1277
789 1267
797 1259
804 1242
809 1233
809 1223
803 1215
793 1218
788 1228
780 1235
778 1248
773 1258
765 1265
760 1275
753 1288
745 1295
740 1305
740 1315
735 1330
735 1340
733 1353
725 1360
718 1368
710 1375
703 1383
695 1390
688 1403
680 1410
673 1418
665 1425
665 1435
660 1445
660 1455
655 1465
650 1480
645 1495
640 1505
640 1515
635 1525
630 1540
625 1555
620 1570
615 1580
610 1595
605 1605
605 1615
605 1625
600 1640
592 1649
584 1655
574 1655
564 1655
554 1655
544 1655
535 1660
525 1660
515 1665
505 1665
496 1670
487 1675
477 1675
468 1680
458 1680
448 1680
438 1680
430 1673
424 1665
416 1659
412 1649
404 1642
397 1634
389 1627
389 1617
397 1609
402 1599
410 1591
418 1584
427 1579
437 1574
447 1569
457 1564
467 1559
477 1554
485 1546
493 1539
500 1531
508 1524
515 1516
523 1509
530 1501
538 1494
539 1477
544 1467
552 1459
557 1449
565 1441
573 1434
580 1426
588 1419
594 1407
594 1397
599 1387
604 1372
604 1362
604 1352
604 1342
609 1332
614 1322
619 1307
627 1299
632 1289
639 1277
639 1267
639 1257
644 1242
649 1232
657 1224
662 1214
667 1204
672 1194
680 1186
688 1179
692 1169
699 1157
707 1149
712 1139
717 1129
722 1119
724 1107
724 1097
724 1080
715 1075
705 1075
695 1075
685 1072
675 1068
669 1060
660 1055
650 1055
640 1055
630 1055
620 1060
610 1058
601 1053
591 1049
584 1041
579 1032
579 1022
574 1013
568 1005
558 1005
548 1005
538 1005
528 1005
519 1000
509 997
500 992
494 984
489 975
487 965
484 955
484 945
484 935
476 929
469 921
464 912
464 902
464 892
469 880
469 870
460 865
452 859
444 852
444 842
444 832
444 822
449 812
454 800
446 794
439 786
439 776
439 766
439 756
439 746
439 736
439 726
434 717
434 707
439 695
439 685
434 676
429 667
429 657
429 647
434 632
427 624
419 617
419 607
424 592
432 584
437 574
444 562
452 554
459 542
467 534
475 526
479 513
473 505
463 505
454 510
445 515
435 515
425 520
415 525
405 525
395 525
385 525
375 525
365 525
356 520
346 519
339 511
334 502
327 494
319 487
310 482
300 478
294 470
285 465
277 459
269 452
