289 562
289 552
294 537
294 527
294 517
294 507
299 497
304 482
309 472
314 462
319 452
327 444
335 436
345 431
353 424
360 416
368 409
375 401
380 391
388 384
392 374
400 366
408 359
415 351
423 344
430 336
438 329
447 324
455 316
463 309
472 304
482 299
490 291
500 286
510 281
518 274
527 269
537 269
546 264
555 259
565 256
575 254
585 251
593 244
599 232
607 224
615 216
623 209
630 201
640 196
650 191
660 186
670 184
679 179
689 179
698 174
708 174
717 169
727 169
737 169
746 174
756 174
764 181
768 191
760 205
760 215
755 225
755 235
755 245
755 255
750 265
748 283
740 290
735 300
730 310
730 320
723 328
715 335
715 345
715 360
715 370
710 380
705 395
705 405
705 415
705 425
705 435
705 445
700 460
700 470
700 480
700 490
700 500
695 510
695 520
695 530
695 540
695 550
695 560
700 569
700 579
700 589
705 598
705 608
705 618
705 628
710 637
715 646
720 655
722 665
727 674
734 682
742 689
751 694
761 694
771 690
779 682
787 674
795 666
803 659
807 649
814 637
822 629
827 619
832 609
839 597
847 589
857 584
867 579
877 574
882 564
887 554
892 544
900 536
908 529
915 521
923 514
930 506
938 499
945 491
953 484
960 476
968 469
975 461
983 454
992 449
1000 441
1010 439
1019 434
1028 429
1038 429
1048 429
1058 429
1068 429
1078 429
1088 429
1097 434
1106 439
1110 449
1118 455
1125 463
1130 472
1130 482
1134 492
1135 502
1139 512
1140 522
1144 532
1145 542
1145 552
1150 561
1150 571
1153 581
1163 584
1172 579
1182 574
1190 566
1195 556
1203 549
1207 539
1212 529
1219 517
1224 507
1232 499
1240 491
1250 486
1260 484
1269 479
1279 479
1289 479
1299 479
1307 485
1315 492
1324 497
1332 504
1339 512
1345 520
1350 529
1355 538
1355 548
1360 557
1360 567
1365 576
1365 586
1370 595
1375 604
1375 614
1380 623
1380 633
1385 642
1389 652
1390 662
1394 672
1400 680
1405 689
1405 699
1410 708
1415 717
1419 727
1424 736
1430 744
1439 749
1447 755
1455 762
1462 770
1467 779
1470 789
1478 795
1482 805
1490 812
1494 822
1495 832
1500 841
1503 851
1505 861
1510 870
1512 880
1515 890
1515 900
1517 910
1520 920
1520 930
1520 940
1520 950
1522 960
1525 970
1525 980
1527 990
1530 1000
1530 1010
1530 1020
1530 1030
1532 1040
1535 1050
1535 1060
1535 1070
1535 1080
1540 1089
1545 1098
1550 1107
1557 1115
1565 1122
1574 1127
1582 1134
1589 1142
1594 1151
1595 1161
1600 1170
1602 1180
1607 1189
1610 1199
1605 1215
1602 1229
1594 1237
1586 1245
1577 1250
1568 1245
1558 1245
1549 1240
1539 1237
1530 1232
1522 1225
1515 1217
1507 1210
1504 1200
1499 1191
1494 1182
1494 1172
1494 1162
1494 1152
1494 1142
1499 1132
1494 1123
1494 1113
1494 1103
1490 1093
1484 1085
1479 1076
1479 1066
1474 1057
1474 1047
1474 1037
1474 1027
1474 1017
1479 1005
1479 995
1479 985
1479 975
1479 965
1479 955
1479 945
1479 935
1479 925
1474 916
1474 906
1474 896
1469 887
1469 877
1465 867
1460 858
1454 850
1445 855
1445 865
1445 875
1445 885
1440 900
1440 910
1440 920
1435 930
1430 945
1430 955
1425 970
1425 980
1420 990
1420 1000
1420 1010
1415 1020
1410 1030
1405 1040
1400 1055
1400 1065
1405 1074
1405 1085
1405 1095
1400 1105
1400 1115
1400 1125
1395 1135
1390 1145
1385 1160
1385 1170
1380 1180
1382 1190
1385 1200
1390 1209
1385 1220
1383 1233
1375 1240
1370 1250
1365 1260
1360 1275
1355 1285
1355 1295
1350 1310
1350 1320
1352 1330
1357 1339
1360 1349
1365 1358
1370 1367
1374 1377
1373 1393
1365 1400
1358 1408
1350 1415
1340 1415
1331 1420
1321 1420
1312 1425
1302 1425
1292 1425
1282 1425
1273 1420
1263 1420
1254 1415
1244 1415
1234 1415
1225 1410
1215 1407
1205 1405
1195 1405
1187 1399
1179 1392
1179 1382
1179 1372
1187 1364
1195 1356
1205 1351
1215 1346
1223 1339
1230 1331
1234 1317
1239 1299
1239 1289
1239 1279
1239 1269
1239 1259
1239 1249
1239 1239
1239 1229
1237 1219
1232 1210
1229 1200
1221 1194
1214 1186
1209 1177
1214 1167
1222 1159
1227 1145
1223 1135
1215 1128
1209 1120
1201 1114
1194 1106
1189 1097
1184 1088
1179 1079
1176 1069
1174 1059
1169 1050
1159 1050
1149 1050
1140 1055
1130 1055
1120 1060
1110 1065
1103 1073
1095 1080
1085 1080
1075 1085
1067 1094
1059 1100
1050 1105
1040 1110
1032 1119
1024 1127
1014 1132
1004 1137
994 1142
984 1145
975 1150
965 1150
956 1155
947 1160
937 1160
928 1165
918 1165
908 1165
898 1168
890 1175
890 1185
892 1195
895 1205
895 1215
895 1230
890 1240
885 1255
885 1265
885 1275
880 1285
875 1295
875 1305
870 1315
870 1325
870 1335
870 1345
870 1355
875 1364
880 1373
880 1383
875 1395
870 1410
870 1420
862 1429
853 1435
843 1435
833 1435
823 1435
813 1435
803 1435
794 1430
784 1430
775 1425
765 1422
755 1420
745 1420
735 1418
729 1410
721 1404
714 1396
709 1387
709 1377
717 1369
725 1361
733 1354
739 1337
747 1329
754 1312
759 1302
759 1292
764 1279
762 1269
754 1262
747 1254
739 1247
739 1237
739 1227
739 1217
739 1207
739 1197
739 1187
744 1178
744 1168
744 1158
739 1149
739 1139
734 1130
732 1120
729 1110
721 1104
712 1099
704 1092
699 1083
693 1075
684 1070
676 1064
669 1056
664 1047
659 1038
654 1029
649 1020
639 1017
634 1008
627 1000
618 995
609 990
601 983
591 979
582 974
574 967
565 962
557 955
554 945
546 938
541 929
537 919
532 910
525 902
519 894
519 884
516 874
514 864
514 854
509 845
509 835
504 826
499 817
499 807
507 799
514 782
514 772
514 762
519 747
519 737
519 727
524 712
529 702
529 692
534 677
534 667
539 650
539 640
539 630
539 620
537 610
528 605
519 600
509 600
499 600
490 605
480 605
473 613
465 620
460 630
453 638
445 645
438 653
428 655
418 655
408 655
399 650
390 645
381 650
371 650
361 648
351 645
341 645
332 640
322 640
313 635
305 628
299 620
299 610
294 601
289 592
289 582
289 572
