304 427
304 417
309 407
309 397
309 387
314 377
322 369
330 361
338 354
347 349
356 344
366 344
375 339
384 334
394 332
399 321
394 312
394 302
394 292
394 282
394 272
399 257
404 247
409 237
414 227
422 219
424 207
429 197
437 189
445 181
453 174
462 169
472 164
482 164
491 159
501 155
509 149
518 144
528 144
538 144
548 144
558 144
568 144
578 144
588 144
598 144
608 145
618 149
628 150
638 154
647 159
656 164
664 171
670 179
678 185
685 193
693 200
703 199
713 199
723 200
730 208
740 212
747 220
755 227
764 232
770 240
770 250
775 259
775 269
770 280
765 290
765 300
760 310
755 320
757 330
760 340
760 350
765 359
760 375
760 385
765 394
765 404
763 418
755 425
755 435
755 445
760 454
760 464
760 474
760 484
755 500
755 510
755 520
750 530
750 540
745 555
747 565
740 580
740 590
735 600
735 610
740 619
735 635
730 645
730 655
730 665
730 675
725 685
725 695
720 705
720 715
722 725
732 724
740 716
748 709
755 701
763 694
767 684
772 674
781 669
791 669
801 665
809 657
819 652
827 644
829 627
834 612
834 602
839 592
839 582
844 572
849 557
854 547
862 539
867 529
875 521
883 514
890 506
898 499
907 494
917 494
927 494
937 489
947 489
957 489
967 489
976 494
985 499
995 502
1004 507
1012 514
1015 524
1023 530
1027 540
1035 547
1040 556
1045 565
1050 574
1050 584
1050 594
1055 603
1050 615
1050 625
1052 635
1062 639
1072 634
1082 634
1090 626
1094 607
1094 597
1094 587
1102 579
1104 567
1104 557
1109 542
1109 532
1114 517
1119 502
1127 494
1132 484
1140 476
1148 469
1157 464
1166 459
1176 459
1185 454
1195 454
1205 454
1215 454
1224 459
1233 464
1242 469
1251 474
1259 481
1265 489
1273 495
1275 505
1280 514
1285 523
1285 533
1290 542
1294 552
1295 562
1302 570
1305 580
1310 589
1315 598
1315 608
1315 618
1315 628
1320 637
1327 645
1335 652
1344 657
1354 661
1363 666
1370 674
1380 677
1387 685
1395 692
1402 700
1410 707
1417 715
1425 722
1429 732
1434 741
1440 749
1445 758
1450 767
1450 777
1454 787
1462 794
1469 802
1474 811
1480 819
1488 825
1492 835
1500 842
1505 851
1508 861
1513 870
1517 880
1525 887
1529 897
1534 906
1538 916
1540 926
1545 935
1545 945
1545 955
1545 965
1545 975
1543 988
1535 995
1530 1005
1525 1015
1523 1028
1515 1035
1505 1035
1497 1029
1489 1022
1489 1012
1497 1004
1502 994
1504 982
1509 964
1509 954
1504 945
1504 935
1499 926
1494 917
1490 907
1484 899
1479 890
1469 890
1460 895
1460 905
1460 915
1460 925
1460 935
1455 950
1455 960
1455 970
1455 980
1455 990
1455 1000
1448 1008
1443 1018
1438 1028
1433 1038
1428 1048
1420 1055
1420 1065
1415 1080
1413 1093
1405 1100
1405 1110
1405 1120
1405 1130
1398 1138
1390 1145
1383 1153
1375 1160
1375 1170
1370 1180
1370 1190
1365 1205
1365 1215
1360 1230
1360 1240
1355 1250
1355 1260
1350 1270
1350 1280
1345 1290
1345 1300
1340 1310
1340 1320
1340 1330
1340 1340
1340 1350
1342 1360
1340 1370
1342 1380
1350 1387
1359 1392
1367 1399
1376 1404
1384 1411
1390 1419
1390 1429
1390 1439
1390 1449
1390 1459
1383 1468
1375 1475
1365 1475
1355 1480
1345 1480
1335 1480
1325 1480
1315 1485
1305 1490
1295 1490
1285 1490
1275 1490
1265 1490
1255 1490
1245 1490
1235 1490
1225 1490
1216 1495
1206 1495
1196 1495
1186 1495
1176 1495
1167 1500
1158 1495
1149 1490
1139 1486
1134 1477
1134 1467
1134 1457
1142 1449
1152 1444
1161 1439
1169 1432
1179 1429
1188 1424
1195 1416
1205 1411
1215 1409
1224 1404
1234 1402
1244 1399
1253 1394
1263 1394
1272 1389
1282 1384
1289 1372
1289 1362
1289 1352
1289 1342
1289 1332
1289 1322
1294 1305
1294 1295
1294 1285
1294 1275
1294 1265
1294 1255
1293 1245
1285 1238
1278 1230
1270 1223
1263 1215
1254 1210
1244 1210
1234 1210
1224 1212
1214 1215
1204 1215
1195 1220
1188 1228
1180 1235
1175 1250
1175 1260
1170 1275
1170 1285
1165 1295
1165 1305
1165 1315
1160 1330
1160 1340
1160 1350
1160 1360
1155 1370
1155 1380
1155 1390
1155 1400
1158 1418
1150 1425
1143 1433
1135 1440
1128 1448
1118 1453
1110 1460
1103 1468
1095 1475
1095 1485
1088 1493
1078 1495
1068 1498
1058 1500
1048 1500
1038 1500
1028 1503
1018 1505
1008 1505
998 1505
989 1500
979 1500
969 1500
960 1495
950 1492
940 1490
932 1484
924 1477
924 1467
924 1457
932 1449
942 1444
952 1439
962 1434
971 1429
979 1422
989 1417
999 1414
1008 1409
1017 1404
1027 1399
1037 1399
1047 1394
1057 1389
1066 1384
1074 1377
1084 1372
1094 1369
1103 1364
1104 1352
1104 1342
1112 1334
1114 1317
1119 1302
1124 1287
1124 1277
1129 1262
1129 1252
1134 1237
1134 1227
1137 1215
1128 1210
1120 1203
1114 1195
1105 1190
1095 1190
1085 1190
1077 1184
1072 1175
1069 1165
1069 1155
1064 1146
1059 1137
1059 1127
1054 1118
1049 1109
1049 1099
1044 1090
1034 1090
1024 1090
1014 1090
1004 1090
994 1090
984 1092
974 1095
964 1095
954 1095
944 1095
934 1095
924 1095
914 1095
904 1095
895 1100
895 1110
895 1120
900 1129
900 1139
900 1149
900 1159
897 1169
889 1177
879 1180
870 1185
863 1198
853 1203
845 1210
838 1223
830 1230
825 1240
825 1250
830 1259
835 1268
840 1277
835 1290
835 1300
837 1310
840 1320
842 1330
845 1340
850 1349
850 1359
855 1368
860 1377
860 1387
860 1397
860 1407
865 1416
868 1426
875 1434
883 1440
887 1450
895 1457
902 1465
910 1472
912 1489
904 1497
894 1502
884 1505
875 1510
865 1515
857 1524
848 1530
838 1530
828 1530
818 1530
808 1530
799 1535
789 1535
779 1535
769 1535
760 1540
750 1540
740 1540
730 1537
720 1535
711 1530
701 1530
691 1529
684 1521
679 1512
684 1497
692 1489
701 1484
709 1477
717 1469
727 1464
735 1456
743 1449
750 1441
758 1434
767 1429
776 1424
786 1424
796 1420
799 1402
799 1392
794 1383
790 1373
789 1363
785 1353
784 1343
780 1333
779 1323
774 1314
769 1305
760 1300
751 1295
742 1290
732 1289
722 1285
713 1280
704 1275
695 1280
695 1290
690 1305
690 1315
690 1325
685 1335
685 1345
680 1355
680 1365
675 1380
677 1390
685 1397
690 1406
690 1416
690 1426
685 1440
678 1448
673 1458
665 1465
660 1475
653 1483
645 1490
635 1495
625 1500
615 1505
607 1514
599 1520
589 1520
579 1522
569 1525
560 1520
550 1520
540 1518
531 1513
521 1510
512 1505
502 1505
493 1500
484 1495
479 1486
474 1477
474 1467
482 1459
492 1454
500 1446
508 1439
515 1431
523 1424
530 1416
538 1409
547 1404
557 1404
567 1399
577 1394
587 1394
595 1386
603 1379
612 1374
620 1366
625 1356
633 1349
637 1339
639 1327
644 1312
644 1302
649 1292
649 1282
654 1272
654 1262
659 1248
659 1238
659 1228
655 1218
649 1210
648 1200
639 1195
630 1200
635 1209
626 1214
619 1206
614 1197
609 1188
602 1180
592 1179
582 1175
575 1167
569 1159
564 1150
555 1145
545 1145
536 1140
527 1135
517 1135
510 1127
505 1118
499 1110
491 1104
489 1094
484 1085
483 1075
474 1070
466 1064
464 1054
459 1045
450 1040
440 1040
430 1040
422 1034
414 1027
414 1017
414 1007
414 997
414 987
414 977
414 967
414 957
409 948
409 938
402 930
399 920
397 910
394 900
394 890
394 880
394 870
394 860
394 850
394 840
394 830
389 821
389 811
384 802
389 787
389 777
389 767
394 751
394 741
389 732
389 722
389 712
394 702
399 686
399 676
399 666
399 656
394 647
402 639
404 627
409 611
409 601
404 592
404 582
412 574
420 566
425 556
430 546
438 539
442 529
447 519
452 509
460 501
465 491
473 484
472 469
462 465
452 465
442 469
432 470
422 470
413 465
403 465
393 465
384 460
375 455
366 450
356 450
346 450
336 450
326 448
316 444
309 436
