549 722
549 712
557 704
565 696
573 689
582 684
591 679
600 674
609 669
619 667
629 662
639 659
649 659
659 659
669 659
679 659
689 659
698 654
708 654
718 654
728 654
737 649
747 649
757 649
767 649
777 644
787 644
797 639
807 639
809 622
814 612
824 607
834 604
844 602
854 599
864 599
874 592
879 582
884 572
892 564
902 559
912 554
922 554
932 554
942 554
951 559
960 564
968 570
975 578
980 587
984 597
994 599
1000 591
1005 581
1009 567
1014 557
1022 549
1027 539
1032 529
1037 519
1042 509
1047 499
1056 494
1065 489
1074 484
1084 484
1093 479
1103 479
1113 479
1123 479
1133 479
1143 479
1153 479
1163 479
1173 479
1183 479
1193 480
1203 484
1213 484
1223 484
1232 489
1242 489
1252 489
1262 489
1271 494
1281 494
1290 499
1300 499
1310 499
1320 499
1328 505
1335 513
1340 522
1344 532
1345 542
1349 552
1350 562
1350 572
1355 581
1358 591
1368 595
1375 603
1383 610
1390 618
1398 625
1405 633
1415 634
1424 639
1434 639
1444 639
1453 644
1463 644
1473 644
1483 644
1493 644
1503 644
1513 644
1523 644
1533 644
1543 644
1553 644
1562 649
1571 654
1580 659
1585 668
1585 678
1585 688
1585 698
1585 708
1588 718
1583 728
1575 735
1575 745
1570 755
1565 770
1560 780
1555 790
1550 800
1542 814
1534 820
1525 825
1518 833
1508 838
1500 845
1498 863
1493 873
1488 883
1483 893
1475 900
1465 905
1455 910
1446 915
1437 920
1428 925
1418 925
1409 920
1399 917
1395 907
1387 900
1384 890
1375 885
1365 885
1355 885
1345 885
1335 885
1325 885
1315 885
1305 885
1295 885
1285 885
1275 885
1265 885
1255 885
1245 885
1235 885
1225 885
1215 885
1205 885
1195 885
1185 885
1175 890
1165 890
1155 895
1150 910
1145 925
1140 935
1135 945
1128 953
1120 960
1111 965
1101 965
1091 965
1081 965
1071 965
1061 965
1051 965
1041 965
1031 965
1022 960
1014 954
1009 945
1007 935
1004 925
1004 915
1004 905
1004 895
994 895
985 900
978 913
970 920
960 925
950 930
940 930
931 935
921 935
911 935
901 935
891 935
881 935
871 935
861 935
851 935
841 935
831 935
821 935
811 935
801 935
791 933
781 930
771 930
762 925
752 925
742 925
732 925
722 925
712 925
704 932
699 942
691 950
682 955
673 960
663 960
653 960
643 960
633 960
624 955
614 952
605 947
599 939
594 930
586 924
579 916
579 906
579 896
579 886
579 876
579 866
579 856
574 847
574 837
574 827
574 817
574 807
574 797
574 787
569 778
564 769
559 760
554 751
549 742
549 732
