444 752
444 742
449 727
454 717
462 709
467 699
472 689
480 681
490 679
500 676
510 674
519 669
529 667
539 664
548 659
557 654
567 649
577 644
587 639
597 639
606 634
616 634
626 634
636 634
646 634
656 634
665 639
675 636
685 634
689 617
694 607
704 602
714 604
724 604
734 604
740 596
745 586
750 576
760 571
770 569
780 569
790 569
800 569
810 569
818 575
825 583
830 592
838 599
848 599
857 594
859 582
859 572
859 562
859 552
859 542
859 532
864 517
869 507
874 497
879 487
887 479
897 474
907 474
917 474
927 474
937 474
947 474
957 474
967 474
977 474
987 474
997 474
1006 479
1016 479
1025 484
1035 484
1045 484
1055 487
1065 489
1075 489
1084 494
1094 496
1104 499
1114 499
1124 501
1134 504
1144 504
1153 509
1163 510
1173 514
1182 519
1189 527
1190 537
1190 547
1190 557
1190 567
1190 577
1194 587
1195 597
1200 606
1206 614
1216 614
1226 614
1236 614
1246 614
1256 614
1266 614
1276 614
1286 614
1296 614
1306 614
1316 614
1326 614
1336 614
1346 614
1355 619
1365 622
1370 631
1375 640
1380 649
1389 654
1395 662
1400 671
1398 683
1393 693
1388 703
1380 710
1373 718
1365 725
1360 735
1355 750
1355 760
1353 778
1348 788
1343 798
1335 805
1325 810
1315 810
1315 820
1315 830
1310 840
1308 853
1303 863
1295 870
1287 879
1277 884
1267 889
1257 894
1247 895
1237 895
1228 890
1218 890
1210 883
1204 875
1204 865
1204 855
1195 860
1185 860
1175 860
1165 860
1155 860
1145 860
1136 865
1126 865
1117 870
1107 870
1098 875
1088 875
1078 878
1068 880
1059 885
1049 887
1039 890
1029 892
1019 895
1009 895
999 895
989 895
983 903
978 913
973 923
968 933
960 940
950 945
941 950
931 950
922 945
912 945
903 940
894 935
886 928
881 919
879 909
874 900
865 895
858 903
848 905
838 905
828 905
818 905
808 905
799 900
789 900
779 900
769 900
759 900
749 900
739 900
729 900
719 900
709 900
699 900
689 900
679 900
669 900
659 900
649 900
639 900
629 900
619 900
609 900
599 900
589 902
584 912
574 917
564 920
554 920
544 920
534 920
524 920
515 915
507 909
499 902
495 892
487 885
478 880
470 873
464 865
464 855
464 845
464 835
464 825
464 815
464 805
464 795
464 785
464 775
460 765
452 759
