384 1002
384 992
389 982
397 974
406 969
414 962
422 954
430 946
438 939
444 927
454 924
464 924
474 926
483 931
493 935
502 940
512 944
521 949
529 956
538 961
545 969
555 972
563 979
572 984
581 989
591 989
601 989
610 994
620 994
629 999
639 999
649 999
659 999
668 1004
678 1004
687 1009
697 1009
707 1009
717 1009
727 1009
737 1009
747 1009
757 1009
766 1014
774 1021
778 1031
780 1041
785 1050
785 1060
785 1070
785 1080
785 1090
790 1099
800 1099
810 1099
820 1099
830 1099
839 1094
849 1094
859 1094
869 1094
879 1094
889 1094
899 1092
909 1082
914 1072
914 1062
914 1052
914 1042
914 1032
914 1022
914 1012
919 1002
927 994
932 984
942 979
952 979
959 967
959 957
959 947
959 937
959 927
959 917
959 907
964 897
964 887
969 877
979 872
989 871
998 876
1003 885
1007 895
1010 905
1015 914
1015 924
1020 933
1025 942
1029 952
1034 961
1038 971
1040 981
1040 991
1040 1001
1040 1011
1040 1021
1043 1031
1045 1041
1048 1051
1053 1060
1057 1070
1065 1077
1069 1087
1077 1094
1084 1102
1094 1104
1104 1104
1114 1104
1123 1099
1133 1099
1142 1094
1151 1089
1154 1072
1154 1062
1154 1052
1159 1037
1164 1027
1174 1022
1184 1019
1194 1012
1194 1002
1194 992
1194 982
1194 972
1199 962
1204 952
1212 944
1222 939
1231 944
1240 949
1250 952
1254 962
1255 972
1264 977
1272 984
1281 989
1290 994
1300 994
1310 994
1319 999
1329 1001
1338 1006
1348 1010
1358 1014
1367 1019
1374 1027
1375 1037
1375 1047
1375 1057
1375 1067
1375 1077
1375 1087
1375 1097
1375 1107
1380 1116
1390 1119
1399 1124
1409 1126
1418 1131
1425 1139
1430 1148
1430 1158
1430 1168
1430 1178
1430 1188
1430 1198
1430 1208
1430 1218
1430 1228
1430 1238
1430 1248
1425 1265
1423 1283
1418 1293
1413 1303
1408 1313
1403 1323
1395 1330
1385 1335
1376 1340
1366 1340
1356 1340
1346 1339
1337 1334
1327 1330
1318 1325
1308 1325
1299 1320
1290 1315
1281 1310
1272 1305
1263 1300
1255 1293
1249 1285
1240 1280
1232 1274
1224 1267
1217 1259
1209 1252
1205 1242
1200 1233
1194 1225
1189 1216
1181 1210
1171 1210
1161 1210
1151 1210
1141 1210
1131 1210
1121 1210
1111 1208
1101 1204
1092 1199
1082 1195
1073 1190
1065 1183
1064 1173
1064 1163
1059 1154
1054 1145
1049 1136
1044 1127
1039 1118
1033 1110
1024 1105
1014 1105
1004 1105
994 1105
985 1110
985 1120
990 1129
995 1138
1003 1145
1007 1155
1010 1165
1010 1175
1010 1185
1010 1195
1010 1205
1008 1223
1003 1233
998 1243
993 1253
985 1260
979 1270
970 1275
961 1280
952 1285
943 1290
933 1290
923 1290
913 1290
904 1285
894 1285
884 1282
875 1277
865 1273
859 1265
854 1256
849 1247
844 1238
844 1228
844 1218
844 1208
840 1198
839 1188
839 1178
833 1170
824 1165
814 1165
805 1160
795 1160
785 1160
775 1160
765 1160
755 1160
755 1170
755 1180
755 1190
755 1200
755 1210
750 1225
745 1240
739 1250
730 1255
720 1253
711 1248
706 1239
704 1229
704 1219
704 1209
704 1199
704 1189
704 1179
704 1169
704 1159
704 1149
704 1139
699 1130
690 1125
680 1125
670 1125
660 1125
650 1125
640 1125
630 1125
620 1125
610 1125
600 1125
590 1125
580 1125
570 1125
560 1125
550 1125
545 1135
540 1145
540 1155
535 1165
535 1175
535 1185
530 1200
530 1210
525 1225
520 1240
517 1254
509 1262
499 1260
489 1257
489 1247
489 1237
494 1227
502 1219
504 1209
504 1199
504 1189
504 1179
504 1169
504 1159
504 1149
504 1139
504 1129
504 1119
504 1109
504 1099
504 1089
504 1079
504 1069
504 1059
504 1049
504 1039
504 1029
499 1020
497 1010
488 1005
478 1005
468 1005
458 1005
448 1005
438 1005
428 1008
423 1018
413 1023
403 1025
394 1020
389 1011
