659 1002
659 1021
669 1025
678 1030
688 1030
697 1025
706 1020
715 1015
725 1010
735 1010
745 1012
749 1022
754 1031
759 1040
764 1049
769 1058
769 1068
769 1078
769 1088
769 1098
769 1108
769 1118
769 1128
769 1138
769 1148
769 1158
769 1168
769 1178
769 1188
769 1198
769 1208
769 1218
769 1228
769 1238
769 1248
769 1258
769 1268
769 1278
770 1288
778 1295
787 1300
796 1305
806 1305
816 1305
825 1300
830 1290
835 1280
840 1265
845 1255
845 1245
845 1235
845 1225
845 1215
845 1205
845 1195
845 1185
845 1175
845 1165
855 1165
865 1165
875 1165
885 1165
895 1165
905 1165
915 1165
925 1165
935 1165
945 1165
955 1165
965 1165
975 1165
985 1165
994 1170
999 1179
999 1189
999 1199
999 1209
999 1219
999 1229
999 1239
999 1249
999 1259
999 1269
999 1279
999 1289
1001 1299
1006 1308
1015 1313
1025 1317
1035 1320
1045 1320
1055 1320
1065 1315
1073 1308
1075 1290
1080 1280
1080 1270
1080 1260
1080 1250
1080 1240
1080 1230
1080 1220
1080 1210
1090 1210
1100 1210
1110 1210
1120 1210
1130 1210
1134 1220
1134 1230
1134 1240
1134 1250
1139 1259
1145 1267
1152 1275
1160 1282
1167 1290
1177 1294
1186 1299
1196 1303
1205 1308
1215 1310
1225 1310
1235 1310
1245 1310
1255 1310
1265 1305
1273 1298
1278 1288
1280 1270
1285 1260
1285 1250
1285 1240
1285 1230
1290 1220
1295 1210
1305 1210
1315 1210
1325 1210
1335 1210
1345 1210
1355 1210
1365 1210
1375 1210
1384 1205
1394 1205
1404 1205
1414 1205
1423 1200
1433 1200
1443 1200
1453 1200
1459 1208
1464 1217
1469 1226
1469 1236
1474 1245
1479 1254
1481 1264
1486 1273
1490 1283
1495 1292
1502 1300
1507 1309
1514 1317
1524 1320
1530 1328
1540 1332
1549 1337
1559 1340
1568 1345
1578 1345
1587 1350
1597 1350
1607 1350
1617 1350
1627 1350
1637 1350
1647 1350
1656 1345
1665 1340
1675 1335
1685 1330
1690 1320
1698 1313
1703 1303
1705 1290
1710 1280
1710 1270
1710 1260
1715 1248
1715 1238
1715 1228
1715 1218
1715 1208
1715 1198
1715 1188
1715 1178
1715 1168
1710 1159
1705 1150
1699 1142
1692 1134
1687 1125
1680 1117
1680 1107
1680 1097
1680 1087
1680 1077
1680 1067
1680 1057
1680 1047
1680 1037
1675 1028
1670 1019
1667 1009
1659 1002
1650 997
1640 994
1630 994
1620 994
1610 994
1600 994
1590 994
1580 994
1570 993
1563 985
1555 978
1548 970
1540 963
1533 955
1523 951
1514 946
1504 944
1494 942
1485 937
1475 934
1466 939
1457 944
1449 952
1444 967
1444 977
1444 987
1442 999
1432 999
1422 1004
1414 1012
1409 1022
1409 1032
1409 1042
1403 1059
1395 1066
1388 1074
1380 1081
1370 1084
1360 1086
1350 1089
1340 1087
1340 1077
1340 1067
1340 1057
1340 1047
1340 1037
1335 1028
1335 1018
1330 1009
1330 999
1325 990
1319 982
1315 972
1315 962
1315 952
1315 942
1315 932
1310 923
1305 914
1302 904
1297 895
1290 887
1284 879
1275 874
1266 879
1257 884
1252 894
1244 902
1239 912
1239 922
1239 932
1244 941
1244 951
1244 961
1240 979
1231 984
1222 989
1212 989
1202 989
1192 994
1182 999
1174 1007
1169 1017
1169 1027
1169 1037
1169 1047
1169 1057
1169 1067
1169 1077
1169 1087
1169 1097
1167 1109
1162 1119
1158 1129
1148 1129
1139 1134
1129 1134
1119 1134
1109 1134
1099 1132
1095 1122
1090 1113
1090 1103
1090 1093
1090 1083
1090 1073
1085 1064
1085 1054
1080 1045
1080 1035
1077 1025
1073 1015
1065 1009
1056 1004
1046 1004
1036 1004
1026 1004
1016 1004
1006 1004
996 1004
986 1004
976 1004
966 1004
956 1004
946 1004
936 1004
926 1004
916 1004
906 1004
896 1004
886 1004
876 1004
867 999
857 995
850 987
842 980
835 972
827 965
819 959
810 954
801 949
792 944
783 939
773 939
763 939
753 939
743 939
733 939
723 939
713 939
703 939
695 946
687 954
682 964
674 972
669 982
664 992
