369 1017
372 1034
380 1040
390 1035
400 1035
409 1030
417 1024
425 1015
434 1010
444 1010
453 1005
454 1015
457 1025
459 1035
464 1044
470 1052
477 1060
487 1064
494 1072
499 1081
499 1091
499 1101
499 1111
499 1121
499 1131
499 1141
499 1151
499 1161
499 1171
494 1187
494 1197
489 1212
489 1222
489 1232
484 1242
484 1252
492 1259
500 1265
510 1260
520 1250
525 1235
525 1225
525 1215
525 1205
525 1195
533 1188
540 1175
545 1165
550 1155
555 1145
564 1140
574 1137
584 1135
594 1135
604 1135
614 1135
624 1135
634 1135
644 1135
654 1135
664 1135
674 1135
679 1144
684 1153
685 1163
689 1173
694 1182
694 1192
694 1202
694 1212
694 1222
694 1232
694 1242
699 1251
709 1255
718 1260
728 1258
738 1253
745 1245
750 1235
750 1225
750 1215
750 1205
750 1195
750 1185
750 1175
750 1165
750 1155
760 1155
770 1155
780 1155
790 1155
800 1155
809 1160
809 1170
809 1180
809 1190
809 1200
812 1210
814 1220
814 1230
814 1240
817 1250
822 1259
831 1264
839 1270
848 1275
855 1283
865 1287
874 1292
884 1295
893 1300
903 1300
912 1305
922 1305
932 1305
942 1304
952 1299
962 1294
970 1285
978 1278
983 1268
988 1258
990 1240
995 1228
995 1218
995 1208
995 1198
995 1188
995 1178
995 1168
995 1158
990 1149
985 1140
985 1130
985 1120
993 1113
1003 1110
1013 1110
1017 1120
1022 1129
1029 1137
1034 1146
1039 1155
1042 1165
1044 1175
1047 1185
1049 1195
1054 1204
1060 1212
1064 1222
1074 1225
1083 1230
1093 1230
1103 1230
1113 1230
1122 1225
1132 1225
1142 1225
1152 1225
1160 1232
1164 1242
1169 1251
1176 1259
1181 1268
1185 1278
1190 1287
1197 1295
1205 1302
1214 1307
1224 1310
1233 1315
1242 1320
1252 1324
1261 1329
1271 1330
1281 1330
1291 1330
1301 1330
1311 1330
1321 1330
1330 1325
1340 1320
1350 1315
1358 1308
1365 1295
1370 1285
1378 1278
1385 1265
1390 1250
1395 1241
1395 1231
1395 1221
1395 1211
1395 1201
1395 1191
1395 1181
1395 1171
1393 1161
1389 1151
1384 1142
1377 1134
1369 1127
1365 1117
1365 1107
1360 1098
1360 1088
1360 1078
1360 1068
1360 1058
1360 1048
1360 1038
1355 1029
1352 1019
1343 1014
1334 1009
1324 1009
1314 1009
1304 1009
1294 1009
1284 1007
1275 1002
1267 995
1260 987
1250 984
1245 975
1240 966
1235 957
1235 947
1230 938
1225 929
1220 920
1214 912
1207 904
1197 904
1189 912
1182 924
1174 932
1169 942
1164 952
1159 962
1159 972
1156 985
1146 989
1137 994
1127 994
1117 999
1107 1004
1099 1012
1094 1022
1089 1032
1088 1049
1079 1054
1069 1054
1060 1059
1050 1059
1040 1059
1030 1059
1020 1056
1020 1046
1020 1036
1015 1027
1015 1017
1014 1007
1010 997
1010 987
1010 977
1010 967
1005 958
1005 948
1000 939
997 929
992 920
990 910
990 900
988 890
983 881
974 876
964 874
954 877
944 882
934 887
929 897
924 907
924 917
929 926
934 935
934 945
930 956
920 961
910 966
900 971
892 979
882 984
872 989
864 997
854 1002
849 1012
849 1022
849 1032
844 1042
844 1052
842 1064
832 1069
824 1077
815 1084
805 1084
795 1084
785 1082
785 1072
780 1063
780 1053
775 1044
770 1035
764 1027
755 1022
745 1019
736 1014
726 1014
716 1014
706 1014
697 1009
687 1009
678 1004
668 1004
659 999
649 999
639 999
629 999
619 999
609 999
599 999
589 999
579 999
569 999
559 997
550 992
542 985
533 980
525 973
518 965
510 959
503 951
499 941
491 934
482 929
472 925
463 920
453 919
444 914
434 917
424 922
414 927
409 937
404 947
402 959
397 969
392 979
387 989
382 999
377 1009
