114 232
114 222
119 207
124 197
132 189
141 184
150 179
160 179
170 179
180 179
190 179
200 179
210 179
220 179
230 179
240 179
250 179
260 179
270 179
280 179
290 179
300 179
310 179
320 179
330 179
340 179
350 179
360 179
370 179
380 179
390 179
400 179
410 179
420 179
430 179
439 174
448 169
457 164
467 164
477 164
487 164
497 164
507 164
517 164
527 164
537 164
547 164
557 164
567 164
577 164
587 164
596 169
606 169
616 169
626 169
636 169
646 169
656 169
666 169
675 174
685 174
695 174
705 174
714 169
724 169
734 169
744 169
754 169
764 169
774 169
784 169
794 169
804 169
814 169
824 169
834 169
844 169
854 169
864 169
874 169
884 169
894 167
904 164
914 164
924 164
934 164
944 164
954 164
964 164
974 164
984 164
994 164
1004 164
1014 164
1024 164
1034 164
1044 162
1054 159
1064 159
1074 159
1084 159
1094 159
1104 159
1114 159
1124 159
1134 159
1144 159
1154 159
1164 159
1174 159
1184 159
1194 159
1204 159
1214 159
1224 159
1234 159
1244 159
1254 159
1264 159
1274 159
1284 159
1294 159
1304 159
1314 159
1324 159
1334 159
1344 159
1354 159
1364 159
1374 159
1384 159
1394 159
1404 157
1414 154
1423 149
1433 149
1443 149
1453 149
1462 144
1471 149
1480 154
1490 154
1500 154
1510 157
1520 159
1530 159
1540 159
1550 159
1560 159
1570 159
1580 159
1590 159
1600 159
1610 159
1620 159
1630 159
1640 159
1650 159
1660 159
1670 159
1680 159
1690 159
1700 159
1710 159
1720 162
1730 164
1740 164
1750 164
1760 164
1770 164
1780 164
1790 164
1800 164
1810 164
1820 164
1830 164
1840 164
1850 164
1860 164
1870 167
1880 169
1890 169
1900 169
1910 169
1920 169
1930 169
1940 169
1950 169
1960 169
1970 169
1980 169
1989 174
1999 174
2009 174
2019 174
2029 174
2039 174
2049 174
2059 174
2069 176
2079 179
2088 184
2097 189
2104 197
2112 204
2119 212
2124 221
2125 231
2130 240
2130 250
2130 260
2130 270
2130 280
2130 290
2130 300
2130 310
2130 320
2130 330
2130 340
2132 350
2135 360
2135 370
2135 380
2135 390
2135 400
2135 410
2135 420
2135 430
2135 440
2135 450
2135 460
2135 470
2135 480
2135 490
2135 500
2135 510
2135 520
2140 529
2140 539
2140 549
2140 559
2140 569
2140 579
2140 589
2140 599
2140 609
2140 619
2140 629
2140 639
2140 649
2140 659
2140 669
2140 679
2140 689
2140 699
2140 709
2135 725
2133 738
2128 748
2123 758
2115 765
2108 773
2100 780
2090 785
2081 790
2071 790
2061 790
2051 790
2042 795
2032 795
2022 795
2012 795
2002 795
1992 795
1982 795
1972 795
1962 795
1953 800
1943 800
1933 800
1923 800
1913 800
1903 800
1894 805
1884 805
1874 805
1864 805
1854 805
1844 802
1834 805
1824 807
1814 810
1804 810
1794 810
1784 810
1774 810
1764 810
1754 810
1744 810
1734 810
1724 810
1714 810
1704 810
1694 810
1684 810
1674 810
1664 810
1654 810
1644 810
1634 810
1624 810
1614 812
1604 815
1594 815
1584 815
1574 815
1564 815
1554 815
1544 815
1534 815
1524 815
1514 815
1504 815
1494 815
1485 810
1475 810
1466 815
1456 815
1446 815
1436 815
1426 815
1417 810
1407 810
1397 810
1387 810
1377 810
1367 810
1357 810
1347 810
1337 810
1327 810
1317 810
1307 810
1297 810
1287 810
1278 805
1268 805
1258 805
1248 805
1238 805
1228 805
1218 805
1208 805
1198 805
1188 805
1178 805
1168 805
1158 805
1148 805
1138 805
1128 805
1118 805
1108 805
1098 805
1088 805
1078 805
1069 810
1060 815
1051 820
1041 820
1031 820
1021 820
1011 820
1001 820
991 820
982 825
972 824
964 817
957 809
947 805
937 805
927 805
919 812
909 817
899 820
889 820
879 820
869 820
859 820
849 820
839 820
830 815
820 815
812 809
802 805
793 800
783 800
773 800
763 800
753 800
743 800
734 795
724 795
714 795
704 795
694 795
684 795
675 790
665 790
655 790
645 790
635 787
625 785
615 785
605 785
596 780
586 780
576 780
566 780
556 779
547 774
537 770
527 769
517 765
510 757
500 753
494 745
484 742
480 732
474 724
469 715
464 706
459 697
452 689
447 680
444 670
444 660
439 651
439 641
439 631
439 621
434 612
434 602
434 592
434 582
434 572
434 562
434 552
434 542
434 532
434 522
434 512
434 502
434 492
434 482
434 472
434 462
434 452
434 442
439 427
439 417
439 407
439 397
439 387
439 377
444 367
444 357
444 347
444 337
449 320
449 310
449 300
444 291
436 285
426 285
416 285
406 285
397 280
387 280
377 280
367 280
357 280
347 280
337 280
327 280
317 280
307 280
297 280
287 280
277 280
267 280
257 280
247 280
237 280
227 280
217 280
207 280
197 280
187 280
177 280
167 280
157 280
147 280
138 275
130 268
124 260
119 251
114 242
