124 187
124 177
132 169
141 164
151 164
161 164
171 164
181 164
191 164
201 164
211 160
221 159
231 159
241 159
251 159
261 159
271 159
281 159
291 159
301 159
311 159
321 159
331 159
341 159
349 152
359 149
369 149
379 149
389 149
399 149
409 149
419 149
428 154
438 154
448 154
458 154
468 154
478 154
488 154
498 154
508 154
518 154
528 154
538 154
548 154
558 154
568 154
578 154
588 154
598 154
608 154
618 154
628 154
638 154
648 154
658 154
668 154
678 154
688 154
698 154
708 154
718 154
728 154
738 154
748 154
758 154
768 154
778 154
788 154
798 154
808 154
818 154
828 154
838 154
848 154
858 154
868 154
878 154
888 154
898 154
908 154
918 154
928 154
938 154
948 154
958 154
968 154
978 154
988 154
998 154
1008 154
1018 154
1028 154
1038 154
1048 154
1058 154
1068 154
1078 154
1088 154
1098 154
1108 154
1118 154
1128 154
1138 154
1148 154
1158 154
1168 154
1178 154
1188 154
1198 154
1208 154
1218 154
1228 154
1238 154
1248 154
1258 154
1268 154
1278 154
1288 154
1298 154
1308 154
1318 154
1328 154
1338 154
1348 154
1358 154
1368 154
1378 155
1388 159
1398 159
1408 159
1417 154
1427 154
1437 154
1447 154
1457 154
1467 154
1477 154
1487 154
1496 159
1506 159
1516 159
1526 159
1536 159
1546 159
1556 159
1566 159
1576 159
1586 159
1596 159
1606 159
1616 159
1626 159
1636 159
1646 159
1656 159
1666 159
1676 159
1686 159
1696 159
1706 159
1716 159
1726 159
1736 159
1746 159
1756 159
1765 164
1775 164
1785 164
1795 164
1805 164
1815 164
1825 164
1834 169
1844 171
1853 176
1860 184
1868 190
1875 198
1883 205
1887 215
1895 222
1895 232
1900 241
1903 251
1908 260
1910 270
1910 280
1915 289
1915 299
1915 309
1915 319
1915 329
1915 339
1920 348
1920 358
1920 368
1920 378
1920 388
1920 398
1920 408
1920 418
1920 428
1925 437
1925 447
1925 457
1925 467
1925 477
1925 487
1925 497
1925 507
1920 520
1920 530
1920 540
1920 550
1920 560
1920 570
1920 580
1915 595
1915 605
1915 615
1910 625
1910 635
1905 650
1905 660
1900 670
1895 680
1888 693
1880 700
1872 709
1864 715
1855 720
1845 725
1835 730
1826 735
1817 740
1807 740
1797 740
1787 740
1777 740
1767 740
1757 740
1747 740
1737 740
1727 740
1717 740
1707 740
1697 740
1687 740
1677 740
1667 740
1657 740
1647 740
1637 740
1627 740
1617 740
1607 740
1597 740
1587 740
1577 740
1567 740
1557 740
1547 740
1537 740
1527 740
1517 740
1507 740
1497 740
1487 740
1477 740
1467 740
1457 740
1447 740
1437 740
1427 740
1417 740
1407 740
1397 740
1387 740
1377 740
1367 740
1357 740
1347 740
1337 740
1327 740
1317 740
1307 740
1297 740
1287 740
1277 740
1267 740
1257 740
1247 740
1237 740
1227 740
1217 740
1207 740
1197 740
1187 740
1177 740
1167 740
1157 740
1147 740
1137 740
1127 740
1117 740
1107 740
1097 740
1087 740
1077 740
1067 740
1057 740
1047 740
1037 740
1027 740
1017 740
1007 740
997 740
987 740
977 740
967 740
957 740
947 740
937 740
927 740
917 740
907 740
897 740
887 740
877 740
867 740
857 740
847 740
837 740
827 740
817 740
807 740
797 740
787 740
777 740
767 740
757 740
747 740
737 740
727 740
717 740
707 740
697 740
687 740
677 740
667 740
657 740
647 740
637 740
627 740
617 740
607 740
597 740
587 740
577 740
567 740
557 740
547 740
537 740
527 740
517 740
507 740
497 740
487 740
477 740
467 740
457 740
447 740
437 739
427 735
418 730
409 725
399 722
392 714
387 705
380 697
375 688
369 680
367 670
364 660
362 650
359 640
359 630
354 621
354 602
354 592
354 582
354 572
359 555
359 545
359 535
359 525
359 515
359 505
359 495
359 485
359 475
359 465
359 455
359 445
359 435
359 425
359 415
359 405
359 395
359 385
359 375
359 365
359 355
359 345
359 335
359 325
359 315
359 305
359 295
359 285
359 275
359 265
351 259
342 254
332 254
322 255
312 255
302 255
292 255
282 255
272 255
263 250
253 250
243 250
233 250
223 250
213 250
203 250
193 250
184 245
175 250
166 245
156 245
146 245
136 244
129 236
124 227
124 217
124 207
124 197
