184 527
184 517
189 507
194 497
199 487
207 479
216 474
224 467
232 459
240 451
244 434
241 424
237 414
229 407
222 399
217 390
214 380
209 371
204 362
204 352
204 342
204 332
204 322
209 312
214 302
222 294
230 286
238 279
247 274
256 269
265 264
275 264
285 264
295 264
305 264
315 264
325 264
335 267
345 269
354 274
364 276
373 281
383 285
390 293
395 302
402 310
407 319
410 329
415 338
415 348
410 365
410 375
410 385
410 395
410 405
405 420
400 430
395 445
395 455
397 465
405 472
409 482
417 489
420 499
420 509
420 519
425 528
430 537
430 547
430 557
425 575
425 585
430 594
435 603
440 612
440 622
445 631
445 641
450 650
452 660
455 670
460 679
460 689
465 698
465 708
470 717
474 727
475 737
470 755
464 765
455 770
450 780
452 790
453 803
445 810
438 818
430 825
430 835
430 845
430 855
435 864
430 875
425 885
420 895
415 905
415 915
415 925
410 940
405 955
400 970
395 985
390 995
392 1005
400 1012
409 1017
417 1024
426 1029
436 1029
445 1034
454 1039
462 1045
465 1055
461 1065
452 1070
443 1075
434 1080
425 1085
416 1090
407 1095
397 1095
387 1095
377 1095
367 1095
357 1095
347 1095
337 1095
328 1090
318 1090
309 1085
299 1085
289 1085
281 1079
274 1071
269 1062
269 1052
269 1042
269 1032
274 1018
274 1008
274 998
269 989
264 980
264 970
259 961
254 952
254 942
254 932
259 917
264 907
269 897
274 885
274 875
274 865
272 855
265 847
257 840
248 835
240 828
234 820
232 810
229 800
224 791
219 782
214 773
214 763
214 753
214 743
214 733
210 723
209 713
205 703
204 693
199 684
199 674
194 665
194 655
194 645
194 635
194 625
194 615
194 605
194 595
194 585
189 576
184 567
184 557
184 547
184 537
