184 532
184 522
189 512
194 502
199 492
207 484
215 476
223 469
232 464
240 456
245 446
249 431
244 422
237 414
232 405
225 397
217 390
214 380
209 371
204 362
204 352
204 342
204 332
204 322
209 312
214 302
222 294
230 286
238 279
247 274
256 269
265 264
275 264
285 264
295 264
305 264
315 264
325 264
335 267
345 269
355 272
364 277
374 281
380 289
388 295
395 303
403 310
410 318
415 327
415 337
415 347
410 365
410 375
410 385
410 395
410 405
405 420
400 435
400 445
395 455
397 465
405 472
409 482
417 489
420 499
420 509
425 518
425 528
430 537
430 547
435 556
430 565
425 575
425 585
430 594
435 603
440 612
444 622
445 632
449 642
450 652
455 661
458 671
460 681
465 690
465 700
470 709
470 719
475 728
475 738
477 749
472 759
464 765
455 770
450 780
452 790
453 803
445 810
438 818
430 825
430 835
430 845
430 855
435 864
430 875
425 885
420 895
420 905
415 915
415 925
415 935
410 945
405 960
400 975
395 985
390 1000
395 1009
404 1014
414 1016
423 1021
430 1029
439 1034
448 1039
458 1040
465 1048
465 1060
458 1068
448 1073
438 1075
429 1080
420 1085
412 1094
402 1095
392 1095
382 1095
372 1095
362 1095
352 1095
342 1095
332 1095
323 1090
313 1090
304 1085
294 1085
285 1080
277 1074
269 1067
269 1057
269 1047
269 1037
274 1022
276 1008
271 999
269 989
264 980
264 970
259 961
254 952
254 942
254 932
259 917
264 907
269 897
274 881
274 871
274 861
269 852
262 844
252 840
245 832
239 824
234 815
234 805
232 795
228 785
220 778
219 768
219 758
219 748
219 738
215 728
214 718
210 708
209 698
204 689
204 679
199 670
199 660
197 650
194 640
194 630
194 620
194 610
194 600
194 590
189 581
189 571
184 562
184 552
184 542
