184 532
184 522
189 512
194 502
202 494
207 484
215 476
225 471
233 464
240 456
248 449
249 435
247 425
243 415
235 408
228 400
220 393
214 385
209 376
209 366
204 357
204 347
204 337
204 327
209 317
214 307
222 299
230 291
238 284
245 276
255 271
265 266
275 264
285 264
295 264
305 264
315 264
325 264
335 267
345 269
354 274
363 279
373 280
380 288
390 292
397 300
405 307
409 317
414 326
415 336
415 346
415 356
410 370
410 380
410 390
415 399
410 410
405 425
400 440
395 455
400 464
405 473
413 480
417 490
422 499
425 509
425 519
425 529
430 538
435 547
435 557
430 570
430 580
430 590
435 599
440 608
445 617
445 627
449 637
450 647
455 656
455 666
460 675
465 684
465 694
470 703
470 713
475 722
480 731
480 741
475 755
465 765
458 773
450 780
452 790
455 800
448 808
440 815
430 820
425 830
427 840
430 850
432 860
430 875
425 885
420 895
415 905
415 915
415 925
410 940
405 955
405 965
400 975
395 985
395 995
390 1005
395 1014
404 1019
413 1024
422 1029
431 1034
440 1039
450 1039
459 1044
465 1052
468 1068
460 1075
450 1080
440 1080
430 1080
420 1085
410 1090
401 1095
391 1095
381 1095
371 1095
361 1095
351 1095
341 1095
331 1093
321 1090
311 1088
301 1085
291 1083
281 1079
274 1071
269 1062
269 1052
269 1042
274 1027
276 1009
274 999
269 990
267 980
264 970
259 961
259 951
254 942
254 932
259 922
264 912
269 897
274 883
274 873
274 863
270 853
263 845
254 840
246 834
242 824
237 815
234 805
234 795
229 786
224 777
224 767
224 757
219 748
219 738
219 728
219 718
216 708
211 699
209 689
206 679
204 669
201 659
199 649
199 639
199 629
199 619
199 609
199 599
194 590
194 580
189 571
189 561
189 551
189 541
