484 892
484 882
489 872
489 862
489 852
489 842
494 832
494 822
494 812
499 797
499 787
504 772
509 762
514 747
519 737
527 729
532 719
537 709
544 697
552 689
560 681
568 674
575 666
583 659
590 651
600 646
608 639
617 634
626 629
635 624
644 619
653 614
663 614
672 609
681 604
690 599
699 594
709 592
719 587
729 584
739 582
749 577
759 574
769 574
779 574
789 574
799 574
809 574
818 569
828 569
838 569
848 569
858 569
868 569
878 569
887 564
889 545
889 535
885 525
875 525
867 519
859 512
859 502
864 492
861 480
851 480
841 480
831 480
821 480
811 479
804 471
799 462
807 454
815 446
823 439
832 434
840 426
850 421
860 419
869 414
879 414
889 414
899 412
909 409
919 409
929 409
939 409
949 409
959 411
965 419
970 428
965 440
960 450
952 459
942 464
934 470
925 475
930 484
935 493
933 503
925 510
925 520
930 529
935 538
935 548
945 549
955 549
965 549
975 549
985 549
994 554
1004 554
1014 554
1024 554
1034 554
1044 554
1054 554
1064 554
1074 552
1084 549
1093 544
1103 545
1112 550
1117 559
1120 569
1120 579
1130 579
1140 579
1150 579
1160 579
1170 579
1180 582
1187 590
1190 600
1190 610
1190 620
1185 635
1178 643
1168 645
1159 650
1149 650
1139 650
1130 655
1120 655
1122 665
1130 672
1140 674
1150 674
1160 674
1170 671
1180 669
1190 669
1200 669
1210 669
1220 669
1230 669
1240 669
1250 669
1260 669
1270 669
1280 669
1290 669
1300 669
1310 669
1320 669
1330 669
1340 669
1350 669
1360 669
1370 669
1380 669
1390 669
1400 669
1409 664
1419 664
1429 664
1439 662
1449 657
1459 652
1467 644
1477 639
1487 639
1496 634
1505 639
1515 639
1524 644
1530 652
1528 663
1520 670
1513 683
1503 688
1495 695
1485 700
1475 705
1466 710
1457 715
1447 719
1437 720
1427 720
1418 725
1408 728
1398 733
1388 738
1378 740
1369 745
1360 750
1350 750
1341 755
1331 755
1322 760
1312 764
1302 765
1293 770
1284 775
1275 780
1268 788
1258 793
1250 800
1241 805
1232 810
1223 815
1214 820
1204 822
1194 825
1185 830
1185 840
1185 850
1195 854
1205 854
1215 857
1222 865
1225 875
1225 885
1227 895
1235 902
1235 915
1230 925
1220 935
1210 940
1200 945
1190 945
1180 945
1170 945
1161 950
1151 950
1141 950
1132 955
1122 955
1112 955
1102 959
1092 960
1082 960
1073 965
1063 965
1054 970
1044 970
1034 972
1024 975
1014 975
1004 975
995 980
985 980
975 980
965 985
955 985
945 985
945 995
945 1005
945 1015
940 1025
932 1039
923 1045
913 1045
904 1050
894 1050
884 1050
874 1050
864 1050
854 1050
844 1050
834 1050
824 1050
814 1050
804 1050
794 1050
784 1050
774 1050
764 1050
754 1050
744 1050
734 1050
724 1050
714 1050
705 1055
695 1055
685 1055
675 1055
665 1060
655 1060
645 1060
635 1060
625 1060
616 1065
606 1065
588 1070
572 1070
562 1070
552 1070
542 1070
532 1070
523 1065
514 1060
509 1051
504 1042
509 1027
514 1017
522 1009
532 1009
540 1015
545 1024
545 1034
550 1043
558 1050
565 1058
580 1064
596 1064
601 1055
609 1049
618 1044
628 1044
637 1039
646 1034
655 1029
664 1024
673 1019
683 1019
692 1014
694 1000
694 990
694 980
694 970
694 960
684 960
674 960
664 960
654 960
644 960
634 960
624 960
614 960
604 960
594 960
584 960
574 960
564 960
554 960
545 955
536 950
526 949
517 944
512 935
505 927
497 920
494 910
489 901
