494 1017
494 1007
499 997
509 992
519 987
529 984
539 982
549 981
555 989
560 998
560 1008
570 1009
580 1009
590 1006
600 1001
610 999
620 999
630 996
640 994
650 994
659 989
668 984
669 972
665 962
657 955
653 945
643 945
633 945
624 940
615 935
605 932
595 930
585 930
575 930
565 930
555 930
545 927
535 923
529 915
524 906
524 896
519 887
519 877
519 867
519 857
519 847
519 837
519 827
519 817
519 807
519 797
519 787
524 777
524 767
524 757
529 747
529 737
534 722
539 712
539 702
544 692
544 682
544 672
549 662
554 652
559 642
567 634
572 624
580 616
588 609
597 604
605 596
613 589
622 584
631 579
639 572
647 564
657 559
667 559
676 554
686 550
696 549
706 545
716 544
726 540
736 539
746 539
756 535
766 534
776 534
786 534
795 529
805 529
815 526
825 524
835 521
845 519
855 519
865 516
869 500
869 490
867 480
858 475
850 468
844 460
844 450
844 440
835 435
825 435
817 429
809 422
809 412
809 402
817 394
826 389
835 384
845 384
855 384
865 384
875 381
885 379
894 374
904 374
913 369
923 369
932 364
939 372
945 380
943 393
935 400
925 405
915 410
905 415
905 425
905 435
905 445
910 454
915 463
920 472
920 482
925 491
930 500
935 509
943 515
953 519
963 519
973 519
983 519
993 519
1003 519
1013 519
1023 519
1032 514
1040 506
1050 501
1060 504
1068 510
1072 520
1077 529
1086 534
1095 539
1104 544
1112 550
1122 554
1131 559
1139 566
1143 576
1145 586
1145 596
1140 610
1134 620
1125 625
1115 625
1105 625
1095 625
1095 635
1100 644
1110 647
1118 654
1128 654
1137 649
1147 644
1157 644
1167 639
1177 639
1187 639
1197 639
1207 639
1217 639
1227 639
1237 639
1247 639
1256 634
1266 634
1275 629
1285 629
1294 624
1303 619
1313 619
1323 619
1333 619
1342 614
1352 614
1362 614
1371 609
1380 604
1390 604
1399 599
1409 597
1419 594
1429 594
1439 594
1447 600
1455 607
1455 617
1453 628
1448 638
1443 648
1435 655
1428 663
1420 670
1411 675
1401 675
1392 680
1382 680
1373 685
1363 685
1353 685
1344 690
1334 690
1324 692
1314 695
1304 695
1294 695
1285 700
1277 709
1269 715
1260 720
1252 729
1244 735
1235 740
1227 754
1217 759
1208 765
1199 770
1190 775
1180 775
1170 780
1160 785
1155 795
1155 805
1165 809
1175 809
1185 809
1195 809
1205 809
1215 812
1225 814
1234 819
1242 825
1247 834
1254 842
1260 850
1260 860
1260 870
1260 880
1260 890
1258 908
1250 915
1240 920
1231 925
1222 930
1212 930
1203 935
1193 935
1183 935
1174 940
1164 940
1154 940
1144 942
1134 945
1124 945
1114 945
1104 945
1094 945
1084 945
1074 945
1064 945
1054 945
1044 945
1034 945
1024 945
1014 945
1004 945
994 945
984 945
974 945
965 950
955 950
945 950
935 950
925 955
915 955
905 960
900 970
895 980
891 990
882 995
873 1000
863 1000
853 1003
843 1005
833 1005
823 1005
813 1005
803 1005
794 1010
784 1010
774 1010
764 1010
754 1010
745 1015
735 1015
725 1015
715 1015
705 1015
695 1020
685 1020
675 1020
665 1020
655 1020
645 1020
635 1020
625 1025
615 1025
605 1025
595 1030
585 1030
575 1035
565 1035
555 1040
545 1040
535 1045
525 1050
516 1055
506 1054
499 1046
494 1037
494 1027
