259 962
259 952
264 942
264 932
264 922
264 912
264 902
264 892
269 877
269 867
269 857
274 847
279 837
279 827
284 817
284 807
284 797
289 787
297 779
304 767
309 757
317 749
325 741
335 736
345 731
355 732
365 734
374 739
383 744
390 752
397 760
402 769
411 774
421 774
431 775
441 770
451 765
461 760
469 754
478 749
485 741
495 736
505 731
515 726
525 721
535 716
545 711
555 706
565 701
575 696
585 694
594 689
603 684
612 679
621 674
631 670
634 656
634 646
629 637
629 627
629 617
629 607
629 597
629 587
629 577
629 567
629 557
629 547
634 532
634 522
634 512
642 504
647 494
655 486
663 479
670 471
680 466
690 464
700 461
710 459
720 459
729 454
739 454
749 452
759 449
769 449
779 449
789 449
799 449
809 449
818 444
828 444
838 444
848 444
858 444
868 444
878 444
888 444
898 444
908 444
917 439
927 439
937 439
947 439
957 439
967 439
977 439
987 439
997 439
1007 439
1017 439
1027 439
1037 439
1047 439
1057 439
1067 439
1077 439
1087 439
1097 439
1107 439
1117 439
1127 439
1137 439
1147 439
1157 439
1167 439
1177 439
1187 439
1197 439
1207 439
1217 439
1227 439
1237 439
1247 439
1257 439
1267 439
1277 439
1287 439
1297 439
1307 439
1317 439
1327 439
1337 439
1347 439
1357 439
1367 439
1377 439
1387 439
1397 439
1407 439
1416 444
1426 444
1435 449
1445 449
1445 460
1435 460
1435 470
1435 480
1435 490
1435 500
1435 510
1435 520
1435 530
1435 540
1435 550
1435 560
1435 570
1435 580
1435 590
1435 600
1437 610
1440 620
1440 630
1440 640
1450 644
1460 644
1470 641
1480 639
1490 639
1500 639
1510 639
1520 639
1530 639
1540 639
1550 639
1560 639
1570 639
1580 639
1590 639
1600 639
1610 639
1619 644
1629 644
1639 644
1649 644
1659 644
1669 644
1679 644
1689 644
1699 644
1709 644
1719 644
1729 644
1739 644
1749 644
1759 644
1769 644
1779 644
1789 644
1799 644
1808 639
1817 634
1826 629
1836 629
1846 629
1855 634
1865 637
1872 645
1880 652
1888 659
1897 664
1904 672
1910 680
1918 686
1925 694
1933 700
1940 708
1948 715
1958 719
1967 724
1976 729
1985 734
1993 740
2000 748
2005 757
2010 766
2010 776
2016 784
2025 789
2035 792
2042 800
2050 807
2060 809
2070 812
2077 820
2082 829
2085 839
2090 848
2095 857
2095 867
2095 877
2095 887
2095 897
2095 907
2103 914
2113 914
2123 915
2132 920
2140 927
2147 935
2152 944
2155 954
2155 964
2155 974
2150 985
2145 995
2137 1004
2128 1010
2119 1015
2109 1015
2099 1015
2089 1015
2080 1020
2075 1030
2068 1043
2060 1050
2053 1058
2045 1065
2035 1070
2027 1080
2018 1085
2008 1088
1998 1093
1988 1095
1978 1095
1969 1100
1960 1105
1950 1105
1940 1105
1930 1110
1920 1110
1910 1110
1900 1115
1893 1123
1885 1130
1875 1135
1867 1144
1857 1149
1847 1150
1838 1155
1829 1160
1819 1160
1809 1160
1799 1160
1789 1162
1779 1165
1770 1160
1760 1160
1750 1160
1741 1155
1731 1154
1722 1149
1712 1145
1705 1137
1695 1133
1689 1125
1679 1122
1675 1112
1667 1105
1660 1097
1654 1089
1649 1080
1644 1071
1639 1062
1639 1052
1634 1043
1627 1035
1617 1035
1607 1035
1597 1035
1587 1035
1577 1035
1567 1035
1557 1035
1547 1035
1537 1039
1527 1040
1517 1040
1507 1040
1497 1040
1487 1040
1477 1040
1467 1040
1457 1040
1447 1040
1437 1040
1427 1040
1417 1040
1408 1035
1398 1035
1388 1035
1378 1035
1368 1035
1358 1035
1348 1035
1338 1035
1328 1035
1318 1035
1308 1035
1298 1035
1288 1035
1278 1035
1268 1035
1258 1035
1248 1035
1238 1035
1228 1035
1218 1035
1208 1035
1198 1035
1188 1035
1178 1035
1168 1035
1158 1035
1148 1035
1138 1035
1128 1035
1118 1035
1108 1038
1098 1040
1088 1040
1078 1040
1068 1040
1058 1040
1048 1040
1038 1040
1028 1040
1018 1040
1008 1040
998 1040
988 1040
978 1040
968 1040
958 1040
948 1040
938 1040
928 1040
918 1040
908 1040
898 1040
888 1040
878 1040
868 1040
858 1043
850 1050
840 1055
832 1064
823 1070
814 1075
804 1077
794 1082
784 1085
774 1085
764 1085
754 1085
744 1085
734 1085
724 1085
714 1085
705 1080
695 1080
686 1075
676 1075
667 1070
658 1065
650 1058
644 1050
635 1055
630 1070
623 1083
615 1090
610 1100
600 1105
590 1115
582 1124
572 1129
564 1135
554 1137
544 1140
535 1145
525 1145
515 1145
505 1150
495 1150
485 1147
475 1145
465 1145
456 1140
446 1139
437 1134
429 1127
420 1122
412 1115
403 1110
395 1103
389 1095
384 1086
379 1077
372 1069
367 1060
364 1050
359 1041
354 1032
354 1022
347 1014
337 1015
327 1015
317 1015
307 1015
297 1015
288 1010
279 1005
271 999
264 991
264 981
259 972
