4 947
4 937
9 922
14 912
19 902
24 887
24 877
32 869
40 861
49 847
57 839
62 829
70 821
78 814
87 809
95 801
105 796
113 789
123 789
127 779
137 774
147 774
157 769
166 764
176 760
184 754
194 754
203 749
212 744
222 739
232 739
242 734
244 717
244 707
244 697
244 687
249 677
249 667
254 652
259 637
267 629
269 617
277 609
282 599
292 594
302 594
311 589
321 589
330 594
340 594
350 597
360 599
370 599
380 599
390 599
399 604
409 604
418 609
427 614
434 622
440 630
445 639
450 626
449 612
449 602
454 587
454 577
454 567
462 559
469 547
474 537
484 532
484 522
494 512
502 504
510 496
520 491
528 484
537 479
545 471
554 461
549 452
549 442
549 432
557 424
567 424
577 419
587 414
597 414
606 419
616 419
626 419
636 419
640 429
645 438
640 450
645 459
655 459
665 456
675 454
685 454
695 454
705 454
715 454
725 454
735 451
745 449
755 449
765 449
775 449
785 449
795 449
805 449
815 449
825 449
835 449
845 449
855 449
865 449
875 449
885 449
895 449
905 449
915 449
925 449
935 449
945 449
955 449
965 449
975 449
985 449
995 449
1005 449
1015 449
1025 452
1035 449
1045 449
1055 449
1065 449
1075 449
1085 449
1095 449
1105 449
1115 449
1125 449
1135 449
1145 449
1155 449
1165 449
1175 449
1185 449
1195 449
1205 449
1215 449
1225 449
1235 449
1245 449
1255 446
1265 444
1275 444
1284 449
1293 444
1303 444
1313 444
1323 444
1334 444
1344 444
1339 435
1329 435
1319 432
1319 422
1319 412
1329 409
1339 409
1349 409
1357 415
1365 422
1365 432
1365 442
1375 444
1385 444
1395 444
1399 427
1399 417
1399 407
1399 397
1399 387
1399 377
1399 367
1399 357
1399 347
1399 337
1399 327
1399 317
1399 306
1394 297
1394 287
1399 273
1399 263
1399 253
1399 243
1399 233
1394 224
1389 215
1381 209
1372 204
1362 200
1352 200
1342 200
1332 200
1322 200
1312 200
1302 200
1292 200
1282 200
1272 200
1262 200
1252 200
1242 200
1232 200
1222 199
1214 192
1214 182
1214 172
1222 164
1231 159
1239 152
1249 147
1259 142
1269 139
1279 137
1289 134
1298 129
1308 129
1317 124
1327 119
1337 119
1347 119
1356 114
1366 114
1375 109
1385 106
1395 104
1405 101
1415 99
1425 96
1435 94
1445 94
1454 89
1464 89
1473 84
1483 84
1493 84
1502 79
1512 79
1522 74
1532 74
1542 74
1551 69
1561 69
1571 69
1580 64
1590 64
1600 64
1610 64
1619 59
1629 59
1638 54
1648 54
1658 54
1668 54
1677 49
1687 49
1697 49
1707 49
1717 49
1727 49
1737 44
1747 44
1757 44
1767 44
1777 44
1786 39
1796 39
1806 39
1816 39
1826 35
1836 34
1846 34
1856 34
1866 34
1876 34
1885 29
1895 29
1905 29
1915 29
1925 29
1935 29
1945 26
1955 24
1965 24
1975 24
1985 24
1994 19
2004 19
2014 19
2024 21
2034 22
2044 19
2054 19
2064 19
2074 19
2084 19
2094 19
2104 19
2114 19
2123 14
2133 14
2143 14
2153 14
2163 14
2173 14
2183 14
2193 14
2203 14
2213 14
2223 14
2233 14
2243 14
2252 9
2262 9
2272 9
2282 9
2292 9
2302 9
2312 9
2322 9
2332 9
2342 9
2352 9
2362 9
2372 9
2382 9
2392 9
2402 9
2412 9
2422 9
2432 9
2442 9
2452 9
2462 9
2472 9
2482 9
2492 9
2502 9
2512 9
2522 9
2532 4
2542 4
2552 4
2562 4
2572 4
2582 4
2592 4
2602 4
2612 4
2622 4
2632 4
2642 4
2652 4
2662 4
2672 4
2682 4
2692 4
2702 4
2712 4
2722 4
2732 4
2742 4
2752 4
2762 4
2772 4
2782 4
2792 4
2802 4
2811 9
2821 9
2830 4
2840 4
2850 4
2860 4
2869 9
2879 9
2889 9
2899 9
2909 9
2919 9
2929 9
2939 9
2949 9
2959 7
2969 4
2979 4
2989 6
2999 9
3009 9
3019 9
3029 9
3039 9
3049 9
3059 9
3069 9
3079 9
3089 9
3099 9
3109 9
3119 9
3129 9
3139 9
3149 9
3159 9
3168 14
3177 9
3187 9
3196 14
3206 14
3216 14
3226 14
3236 14
3246 14
3256 14
3266 14
3276 14
3286 14
3296 14
3306 14
3315 19
3325 19
3335 19
3345 19
3355 19
3365 19
3375 19
3385 19
3394 24
3404 22
3414 19
3424 19
3434 21
3444 24
3454 24
3464 24
3474 24
3484 24
3494 24
3504 26
3514 29
3524 29
3534 29
3544 31
3554 34
3563 39
3573 40
3580 48
3590 52
3597 60
3607 64
3610 74
3610 84
3615 93
3620 102
3620 112
3620 122
3625 131
3625 141
3625 151
3625 161
3625 171
3630 180
3625 195
3620 210
3620 220
3620 230
3620 240
3615 255
3615 265
3615 275
3610 290
3615 299
3615 309
3615 319
3610 335
3612 345
3615 355
3615 365
3610 375
3610 385
3615 394
3615 404
3615 414
3610 430
3610 440
3610 450
3610 460
3610 470
3610 480
3612 490
3615 500
3610 510
3610 520
3610 530
3610 540
3610 550
3610 560
3610 570
3610 580
3610 590
3610 600
3610 610
3605 625
3605 635
3605 645
3610 654
3610 664
3615 673
3615 683
3620 692
3620 702
3624 712
3625 722
3625 732
3630 741
3630 751
3633 761
3638 770
3640 780
3635 790
3635 800
3635 810
3635 820
3635 830
3635 840
3635 850
3635 860
3635 870
3635 880
3635 890
3635 900
3635 910
3635 920
3635 930
3635 940
3640 949
3645 958
3650 967
3650 977
3650 987
3655 996
3655 1006
3655 1016
3658 1026
3660 1036
3663 1046
3665 1056
3670 1065
3675 1074
3675 1084
3680 1093
3680 1103
3680 1113
3680 1123
3680 1133
3680 1143
3680 1153
3680 1163
3680 1173
3685 1182
3685 1192
3690 1201
3690 1211
3695 1220
3690 1230
3680 1235
3670 1240
3661 1245
3652 1250
3642 1250
3633 1255
3623 1255
3613 1255
3603 1255
3593 1255
3583 1255
3574 1260
3564 1260
3555 1265
3545 1265
3543 1278
3535 1285
3535 1295
3535 1305
3533 1318
3528 1328
3520 1335
3520 1345
3520 1355
3513 1363
3508 1373
3500 1380
3498 1393
3490 1400
3485 1410
3480 1420
3473 1433
3465 1440
3458 1448
3453 1458
3445 1465
3435 1470
3427 1479
3419 1485
3410 1490
3403 1500
3393 1503
3385 1510
3376 1515
3367 1520
3357 1524
3349 1530
3339 1532
3329 1535
3320 1540
3310 1540
3301 1545
3291 1545
3281 1545
3271 1545
3261 1545
3251 1545
3241 1545
3231 1545
3221 1545
3211 1545
3201 1545
3192 1540
3182 1539
3172 1535
3162 1535
3153 1530
3143 1530
3133 1530
3124 1525
3122 1515
3112 1514
3107 1505
3097 1505
3093 1495
3084 1490
3074 1487
3067 1479
3057 1475
3050 1467
3045 1458
3038 1450
3030 1443
3024 1435
3019 1426
3014 1417
3009 1408
3004 1399
2999 1390
2994 1381
2989 1372
2985 1362
2980 1353
2979 1343
2974 1334
2972 1324
2967 1315
2964 1305
2961 1295
2951 1295
2941 1295
2931 1295
2921 1295
2911 1295
2901 1295
2892 1300
2882 1300
2873 1295
2863 1295
2853 1295
2844 1290
2835 1285
2833 1298
2828 1308
2823 1318
2815 1325
2810 1335
2805 1350
2798 1358
2790 1365
2785 1375
2775 1380
2769 1390
2760 1395
2752 1404
2742 1409
2734 1415
2725 1420
2717 1429
2707 1434
2698 1440
2688 1443
2678 1445
2669 1450
2659 1452
2649 1455
2639 1455
2629 1457
2619 1460
2609 1460
2599 1460
2589 1460
2579 1460
2569 1460
2559 1460
2549 1460
2540 1455
2530 1455
2520 1455
2510 1453
2501 1448
2491 1445
2481 1445
2472 1440
2463 1435
2454 1430
2444 1426
2436 1420
2427 1415
2419 1409
2411 1403
2405 1395
2395 1393
2389 1385
2379 1382
2379 1372
2372 1364
2367 1355
2360 1347
2352 1340
2348 1330
2340 1323
2334 1315
2334 1305
2324 1305
2314 1305
2309 1296
2301 1290
2291 1290
2281 1290
2271 1290
2261 1290
2251 1290
2242 1295
2232 1295
2222 1295
2213 1290
2204 1295
2194 1295
2184 1295
2174 1295
2164 1295
2154 1295
2144 1295
2134 1295
2124 1295
2115 1300
2105 1300
2095 1300
2085 1300
2075 1300
2065 1300
2055 1300
2045 1300
2035 1300
2025 1300
2015 1300
2005 1300
1995 1300
1985 1300
1975 1300
1971 1315
1961 1315
1951 1313
1945 1305
1935 1305
1925 1305
1915 1305
1905 1305
1895 1305
1885 1305
1875 1305
1865 1305
1855 1305
1845 1305
1835 1305
1825 1305
1816 1310
1806 1310
1796 1310
1786 1310
1776 1310
1766 1310
1756 1310
1747 1315
1737 1315
1727 1315
1717 1315
1707 1315
1698 1310
1688 1310
1678 1310
1668 1310
1658 1310
1648 1310
1638 1310
1628 1310
1618 1310
1608 1310
1598 1310
1588 1310
1578 1310
1568 1310
1558 1310
1549 1305
1539 1305
1529 1305
1519 1305
1509 1305
1499 1305
1490 1300
1480 1300
1470 1300
1460 1300
1450 1298
1443 1290
1433 1290
1424 1285
1414 1285
1405 1280
1395 1277
1385 1275
1375 1272
1360 1265
1365 1274
1370 1283
1370 1293
1365 1305
1357 1315
1347 1319
1337 1320
1327 1320
1318 1325
1308 1325
1298 1325
1288 1325
1278 1325
1268 1325
1259 1330
1250 1335
1250 1345
1245 1360
1245 1370
1243 1383
1235 1390
1230 1400
1225 1410
1223 1423
1215 1430
1213 1448
1208 1458
1200 1465
1195 1475
1190 1485
1180 1495
1172 1509
1167 1519
1159 1525
1153 1533
1145 1540
1138 1548
1130 1555
1120 1565
1112 1574
1104 1580
1095 1585
1085 1590
1077 1599
1067 1604
1058 1610
1048 1613
1038 1618
1028 1623
1020 1630
1010 1630
1003 1638
993 1643
985 1650
975 1650
965 1650
955 1650
945 1655
935 1655
926 1660
916 1660
906 1660
896 1660
886 1660
876 1660
866 1660
856 1660
846 1660
837 1655
827 1655
817 1654
807 1650
797 1650
788 1645
780 1638
773 1630
763 1630
754 1625
745 1620
736 1615
727 1610
718 1605
709 1600
699 1597
690 1592
682 1585
675 1577
667 1570
664 1560
654 1556
649 1547
642 1539
634 1532
629 1523
624 1514
619 1505
614 1496
609 1487
604 1478
599 1469
594 1460
593 1450
584 1445
575 1450
565 1460
559 1470
550 1475
543 1483
535 1490
525 1495
518 1503
510 1510
500 1515
490 1520
481 1525
472 1530
463 1535
454 1540
444 1540
435 1545
426 1550
416 1550
406 1550
397 1555
387 1555
378 1560
368 1560
358 1560
348 1560
338 1563
328 1565
318 1565
309 1560
299 1560
289 1560
279 1560
269 1560
259 1556
251 1550
242 1545
232 1545
222 1544
212 1540
208 1530
199 1525
191 1519
182 1514
174 1507
165 1502
155 1500
147 1494
137 1490
130 1482
122 1475
115 1467
109 1459
104 1450
96 1444
92 1434
84 1427
77 1419
72 1410
65 1402
60 1393
59 1383
54 1374
49 1365
48 1355
40 1348
39 1338
39 1328
34 1319
34 1309
29 1300
29 1290
24 1281
24 1271
24 1261
24 1251
24 1241
19 1232
19 1222
19 1207
19 1197
19 1187
24 1177
24 1167
29 1152
29 1142
29 1132
34 1122
34 1112
39 1102
39 1092
44 1082
49 1072
54 1062
59 1052
59 1042
67 1034
72 1024
77 1014
85 1006
90 996
92 980
82 984
74 990
65 995
55 1000
45 1000
36 1005
26 1005
16 1004
9 996
4 987
4 977
4 967
9 956
