269 357
269 347
274 332
282 324
290 316
298 309
307 304
317 299
327 299
337 299
347 299
357 299
367 299
377 299
387 299
397 299
407 299
417 299
427 299
437 299
447 299
457 299
467 299
477 299
487 294
497 294
507 294
517 294
527 294
537 294
547 294
557 294
567 294
576 289
586 289
596 289
606 289
616 289
626 289
636 289
646 289
656 289
666 289
676 289
686 289
696 289
706 289
716 289
726 289
736 289
746 289
756 289
766 289
776 289
786 289
796 289
806 289
816 289
826 289
836 289
846 289
856 289
866 289
876 285
886 284
896 284
906 284
916 284
926 284
936 284
946 284
955 279
965 279
975 279
985 279
995 279
1005 279
1015 279
1025 279
1035 279
1045 279
1055 279
1065 279
1075 279
1085 279
1095 279
1104 284
1114 284
1124 284
1134 284
1144 284
1154 284
1164 284
1174 284
1184 284
1194 284
1204 284
1213 289
1223 289
1233 289
1243 289
1253 289
1262 294
1272 294
1281 299
1290 304
1300 307
1307 315
1312 324
1315 334
1315 344
1315 354
1315 364
1315 374
1315 384
1315 394
1315 404
1315 414
1315 424
1310 440
1310 450
1310 460
1305 475
1305 485
1305 495
1305 505
1305 515
1305 525
1305 535
1310 544
1315 553
1320 562
1327 570
1337 574
1344 582
1354 584
1364 586
1374 589
1384 587
1394 584
1404 584
1413 579
1422 574
1432 574
1441 569
1450 564
1459 559
1468 554
1477 549
1487 549
1496 544
1505 539
1515 536
1525 531
1535 526
1545 521
1555 516
1565 511
1575 509
1585 509
1595 509
1605 509
1614 514
1622 520
1630 527
1634 537
1639 546
1643 556
1645 566
1645 576
1648 586
1650 596
1650 606
1650 616
1650 626
1650 636
1650 646
1650 656
1650 666
1650 676
1655 685
1655 695
1655 705
1655 715
1655 725
1655 735
1655 745
1655 755
1655 765
1655 775
1655 785
1655 795
1655 805
1655 815
1655 825
1655 835
1657 845
1660 855
1660 865
1665 874
1665 884
1670 893
1670 903
1675 912
1675 922
1679 932
1680 942
1684 952
1685 962
1689 972
1690 982
1694 992
1695 1002
1699 1012
1700 1022
1705 1031
1705 1041
1710 1050
1712 1060
1715 1070
1720 1079
1720 1089
1725 1098
1730 1107
1730 1117
1730 1127
1725 1140
1723 1153
1718 1163
1710 1170
1703 1178
1695 1185
1688 1193
1680 1200
1670 1205
1662 1214
1652 1219
1644 1225
1635 1230
1625 1235
1618 1243
1608 1248
1600 1255
1590 1260
1582 1269
1574 1275
1565 1280
1555 1285
1547 1294
1537 1299
1529 1305
1520 1310
1513 1318
1505 1325
1495 1330
1488 1338
1480 1345
1473 1353
1465 1360
1458 1368
1450 1375
1443 1383
1435 1390
1427 1399
1417 1404
1408 1410
1399 1415
1390 1420
1380 1425
1373 1433
1365 1440
1358 1453
1350 1460
1342 1474
1337 1484
1329 1492
1319 1496
1319 1486
1319 1476
1319 1466
1319 1456
1319 1446
1319 1436
1319 1426
1319 1416
1319 1406
1319 1396
1319 1386
1319 1376
1319 1366
1319 1356
1319 1346
1319 1336
1319 1326
1319 1316
1319 1306
1314 1297
1314 1287
1314 1277
1314 1267
1324 1269
1333 1274
1342 1279
1352 1279
1362 1274
1372 1274
1381 1269
1389 1262
1399 1257
1407 1249
1417 1244
1426 1239
1435 1234
1444 1227
1454 1222
1462 1214
1472 1209
1480 1201
1488 1194
1495 1186
1503 1179
1510 1171
1518 1164
1525 1156
1535 1151
1540 1141
1548 1134
1555 1126
1560 1116
1568 1109
1572 1099
1574 1087
1579 1075
1579 1065
1579 1055
1579 1045
1577 1035
1574 1025
1574 1015
1572 1005
1569 995
1569 985
1569 975
1564 966
1564 956
1564 946
1564 936
1559 927
1559 917
1559 907
1554 898
1554 888
1550 878
1549 868
1545 858
1544 848
1544 838
1539 829
1539 819
1536 809
1534 799
1534 789
1534 779
1531 769
1529 759
1529 749
1529 739
1526 729
1524 719
1519 710
1518 700
1510 693
1503 685
1495 678
1488 670
1478 670
1469 665
1459 665
1449 665
1439 667
1429 670
1420 675
1410 675
1401 680
1392 685
1383 690
1373 693
1363 698
1353 703
1343 708
1333 713
1325 720
1318 728
1310 735
1303 743
1298 753
1290 760
1285 775
1285 785
1285 795
1280 805
1280 815
1280 825
1280 835
1280 845
1280 855
1275 870
1275 880
1275 890
1275 900
1275 910
1275 920
1275 930
1275 940
1275 950
1270 960
1272 970
1275 980
1275 990
1275 1000
1275 1010
1275 1020
1277 1030
1280 1040
1280 1050
1280 1060
1280 1070
1285 1079
1285 1089
1285 1099
1285 1109
1285 1119
1285 1129
1290 1138
1290 1148
1290 1158
1290 1168
1290 1178
1285 1190
1290 1199
1290 1215
1290 1225
1290 1235
1290 1245
1290 1255
1290 1265
1290 1275
1290 1285
1290 1295
1290 1305
1290 1315
1292 1325
1295 1335
1295 1345
1295 1355
1295 1365
1295 1375
1295 1385
1295 1395
1295 1405
1295 1415
1295 1425
1295 1435
1295 1445
1295 1455
1295 1465
1295 1475
1295 1485
1295 1495
1295 1505
1295 1515
1297 1525
1300 1535
1300 1545
1300 1555
1295 1565
1295 1575
1295 1585
1295 1595
1297 1605
1300 1615
1300 1625
1295 1640
1295 1650
1292 1664
1287 1674
1279 1682
1274 1692
1264 1697
1256 1705
1247 1710
1238 1715
1229 1720
1220 1725
1210 1725
1201 1730
1191 1730
1182 1735
1172 1739
1162 1740
1152 1744
1142 1745
1133 1750
1123 1753
1113 1758
1103 1760
1094 1765
1084 1767
1074 1770
1065 1775
1055 1775
1045 1780
1035 1780
1025 1785
1015 1785
1005 1785
996 1790
986 1790
976 1790
966 1790
957 1795
947 1795
937 1795
927 1795
917 1795
907 1795
897 1799
887 1800
877 1800
867 1800
857 1800
847 1800
837 1800
827 1800
817 1804
807 1805
797 1805
787 1805
777 1805
767 1805
757 1805
747 1805
737 1805
728 1800
718 1800
708 1800
699 1795
689 1795
680 1790
670 1790
660 1790
650 1787
640 1785
630 1785
620 1785
610 1785
600 1785
590 1785
580 1785
570 1782
560 1780
550 1780
541 1775
531 1775
522 1770
512 1769
502 1765
493 1760
484 1755
474 1755
465 1750
455 1747
445 1745
436 1740
426 1740
417 1735
408 1730
398 1730
389 1725
380 1720
372 1714
362 1710
355 1702
345 1698
339 1690
329 1687
322 1679
314 1672
307 1664
299 1657
294 1648
289 1639
284 1630
284 1620
279 1611
279 1601
279 1591
279 1581
274 1572
274 1562
279 1552
279 1542
279 1532
279 1522
279 1512
279 1502
279 1492
279 1482
284 1472
284 1462
284 1452
284 1442
289 1427
289 1417
294 1402
294 1392
299 1382
299 1372
299 1362
304 1352
304 1342
309 1327
314 1312
319 1297
324 1282
329 1272
334 1257
339 1247
344 1237
349 1222
354 1212
354 1202
359 1187
364 1172
369 1157
374 1147
374 1137
379 1120
379 1110
379 1100
379 1090
379 1080
379 1070
379 1060
379 1050
379 1040
379 1030
379 1020
379 1010
379 1000
379 990
379 980
377 970
374 960
374 950
374 940
369 931
369 921
369 911
364 902
364 892
359 883
359 873
354 864
351 854
349 844
344 835
344 825
339 816
334 807
334 797
329 788
325 778
324 768
319 759
319 749
314 740
314 730
314 720
314 710
314 700
314 690
314 680
314 670
314 660
314 650
314 640
314 630
314 620
314 610
312 600
309 590
309 580
309 570
304 561
304 551
299 542
299 532
299 522
294 513
290 503
289 493
284 484
284 474
279 465
279 455
274 446
274 436
274 426
274 416
269 407
269 397
269 387
269 377
269 367
