394 1291
389 1282
397 1274
405 1266
415 1261
423 1254
430 1246
440 1241
448 1234
455 1226
465 1221
473 1214
482 1209
491 1204
499 1197
509 1192
517 1184
527 1179
537 1174
547 1169
556 1164
565 1159
574 1154
583 1149
592 1144
602 1139
612 1139
621 1134
630 1129
640 1126
650 1124
659 1119
668 1114
678 1114
687 1109
697 1109
706 1104
716 1104
725 1099
735 1099
745 1096
755 1094
765 1094
775 1091
785 1089
795 1089
805 1089
815 1089
824 1084
834 1084
844 1084
854 1084
864 1084
874 1084
884 1084
894 1084
904 1086
914 1089
924 1089
934 1089
944 1085
934 1077
927 1069
922 1060
915 1052
910 1043
904 1035
899 1026
894 1017
889 1008
884 999
879 990
874 981
869 972
864 963
860 953
854 945
852 935
849 925
844 916
839 907
839 897
834 888
830 878
829 868
825 858
824 848
819 839
819 829
816 819
814 809
814 799
809 790
809 780
809 770
809 760
804 751
804 741
804 731
804 721
804 711
804 701
799 692
799 682
799 672
799 662
799 652
799 642
804 627
804 617
804 607
804 597
804 587
804 577
809 562
809 552
809 542
814 527
814 517
824 514
834 516
844 519
853 524
862 529
872 529
881 534
890 539
900 542
910 544
919 549
928 554
937 559
946 564
955 569
964 574
974 576
983 581
990 589
1000 592
1008 599
1017 604
1026 609
1035 614
1043 620
1050 628
1060 632
1067 640
1075 647
1083 654
1092 659
1099 667
1109 671
1115 679
1123 685
1130 693
1138 700
1145 708
1150 717
1157 725
1165 732
1172 740
1180 747
1185 756
1191 764
1199 771
1203 781
1210 789
1215 798
1220 807
1227 815
1232 824
1235 834
1240 843
1245 852
1250 861
1255 870
1260 879
1265 888
1274 877
1279 867
1284 852
1292 844
1294 832
1299 822
1307 814
1312 804
1317 794
1322 784
1329 772
1337 764
1344 752
1352 744
1359 732
1367 724
1375 716
1380 706
1388 699
1395 691
1403 684
1410 676
1418 669
1425 661
1433 654
1440 646
1448 639
1457 634
1465 626
1473 619
1482 614
1490 606
1498 599
1507 594
1516 589
1524 582
1534 577
1542 569
1552 564
1561 559
1571 555
1579 549
1588 544
1597 539
1607 534
1617 529
1627 524
1637 519
1647 514
1657 514
1666 509
1676 505
1686 500
1696 499
1705 504
1705 514
1710 523
1710 533
1715 542
1715 552
1715 562
1719 572
1720 582
1720 592
1720 602
1720 612
1725 621
1725 631
1725 641
1725 651
1725 661
1725 671
1725 681
1725 691
1725 701
1725 711
1725 721
1725 731
1720 745
1720 755
1720 765
1720 775
1715 790
1715 800
1715 810
1710 820
1710 830
1705 840
1705 850
1700 860
1700 870
1695 880
1690 895
1685 910
1680 920
1675 935
1670 950
1665 960
1660 970
1658 983
1650 990
1645 1000
1640 1010
1633 1023
1628 1033
1620 1040
1615 1050
1608 1063
1600 1070
1605 1079
1614 1074
1624 1074
1634 1074
1644 1074
1653 1069
1663 1069
1673 1069
1683 1069
1693 1069
1703 1069
1713 1069
1723 1069
1733 1069
1743 1069
1753 1069
1762 1074
1772 1074
1782 1074
1792 1074
1801 1079
1811 1079
1821 1079
1830 1084
1840 1084
1850 1087
1860 1089
1869 1094
1879 1094
1888 1099
1898 1100
1908 1104
1917 1109
1927 1109
1936 1114
1945 1119
1955 1122
1965 1124
1974 1129
1983 1134
1992 1139
2001 1144
2010 1149
2020 1152
2028 1159
2037 1164
2046 1169
2055 1174
2064 1179
2072 1185
2082 1189
2089 1197
2099 1201
2105 1209
2115 1212
2122 1220
2132 1224
2139 1232
2147 1239
2156 1244
2164 1251
2165 1261
2163 1273
2155 1280
2147 1289
2139 1295
2130 1300
2122 1309
2114 1315
2105 1320
2098 1328
2088 1333
2080 1340
2072 1349
2062 1354
2052 1359
2044 1365
2035 1370
2025 1375
2015 1380
2005 1385
1995 1390
1985 1395
1976 1400
1967 1405
1958 1410
1949 1415
1939 1417
1929 1422
1919 1425
1910 1430
1900 1430
1891 1435
1882 1440
1872 1440
1863 1445
1853 1448
1843 1450
1833 1453
1823 1455
1813 1455
1804 1460
1794 1460
1784 1462
1774 1465
1764 1465
1754 1465
1744 1465
1735 1470
1725 1470
1715 1470
1705 1470
1695 1470
1685 1470
1675 1470
1665 1470
1655 1470
1645 1467
1635 1465
1625 1465
1615 1465
1605 1465
1610 1474
1615 1483
1623 1490
1630 1498
1635 1507
1639 1517
1645 1525
1650 1534
1655 1543
1660 1552
1665 1561
1670 1570
1675 1579
1680 1588
1685 1597
1685 1607
1690 1616
1695 1625
1700 1634
1700 1644
1705 1653
1710 1662
1710 1672
1714 1682
1715 1692
1720 1701
1720 1711
1725 1720
1725 1730
1727 1740
1730 1750
1730 1760
1735 1769
1735 1779
1735 1789
1735 1799
1735 1809
1740 1818
1740 1828
1740 1838
1740 1848
1740 1858
1740 1868
1740 1878
1740 1888
1740 1898
1740 1908
1740 1918
1740 1928
1735 1945
1735 1955
1735 1965
1735 1975
1730 1985
1730 1995
1730 2005
1725 2020
1725 2030
1717 2040
1707 2039
1697 2035
1688 2030
1679 2025
1669 2025
1660 2020
1651 2015
1642 2010
1632 2010
1623 2005
1614 2000
1605 1995
1596 1990
1587 1985
1578 1980
1569 1975
1559 1971
1551 1965
1542 1960
1533 1955
1525 1948
1516 1943
1506 1939
1499 1931
1491 1925
1482 1920
1475 1912
1467 1905
1458 1900
1450 1893
1444 1885
1435 1880
1427 1874
1419 1867
1414 1858
1408 1850
1400 1843
1394 1835
1386 1829
1379 1821
1374 1812
1367 1804
1359 1797
1352 1789
1347 1780
1340 1772
1335 1763
1329 1755
1324 1746
1319 1737
1314 1728
1309 1719
1304 1710
1299 1701
1294 1692
1290 1682
1285 1673
1281 1663
1275 1655
1270 1665
1265 1675
1260 1685
1258 1698
1250 1705
1245 1715
1243 1728
1235 1735
1228 1748
1223 1758
1218 1768
1210 1775
1203 1788
1195 1795
1188 1808
1180 1815
1173 1823
1168 1833
1160 1840
1153 1848
1145 1855
1138 1863
1130 1870
1123 1878
1115 1885
1108 1893
1100 1900
1093 1908
1083 1913
1075 1920
1068 1928
1058 1933
1050 1940
1040 1945
1033 1953
1023 1958
1013 1963
1005 1970
996 1975
987 1980
978 1985
969 1990
960 1995
950 2000
941 2005
932 2010
923 2015
913 2018
903 2023
893 2028
883 2030
874 2035
865 2040
855 2040
846 2045
836 2049
834 2039
834 2029
829 2020
829 2010
827 2000
824 1990
824 1980
824 1970
819 1961
819 1951
819 1941
819 1931
819 1921
819 1911
819 1901
814 1892
814 1882
814 1872
814 1862
814 1852
819 1837
819 1827
819 1817
819 1807
819 1797
819 1787
824 1772
824 1762
824 1752
829 1742
829 1732
829 1722
834 1712
834 1702
839 1687
844 1677
844 1667
849 1652
854 1637
859 1622
864 1612
869 1597
874 1587
882 1579
884 1567
889 1557
897 1549
902 1539
907 1529
912 1519
919 1507
927 1499
932 1489
939 1477
930 1470
920 1470
910 1470
901 1475
891 1475
881 1475
871 1475
861 1475
851 1475
841 1475
831 1475
821 1475
811 1475
802 1470
792 1470
782 1470
772 1470
762 1470
753 1465
743 1465
733 1465
724 1460
714 1460
705 1455
695 1455
686 1450
676 1450
667 1445
657 1445
648 1440
639 1435
629 1435
620 1430
611 1425
601 1423
591 1419
582 1414
572 1410
563 1405
554 1400
545 1395
536 1390
527 1385
518 1380
509 1375
499 1372
492 1364
482 1360
473 1355
465 1348
459 1340
449 1337
440 1332
432 1325
425 1317
415 1313
409 1305
401 1299
