434 1162
429 1172
434 1181
439 1190
439 1200
439 1210
439 1220
434 1237
434 1247
439 1256
444 1265
450 1273
458 1280
462 1290
469 1298
469 1308
469 1318
469 1328
470 1338
478 1345
482 1355
489 1363
489 1373
489 1383
484 1392
479 1402
479 1412
484 1421
489 1430
495 1438
500 1447
504 1457
509 1466
514 1475
514 1485
514 1495
514 1505
514 1515
519 1524
524 1533
529 1542
537 1549
541 1559
546 1568
549 1578
554 1587
559 1596
566 1604
574 1610
580 1618
585 1627
582 1639
572 1639
562 1639
554 1647
554 1657
559 1666
566 1674
571 1683
579 1689
587 1695
592 1704
599 1712
599 1722
599 1732
599 1742
599 1752
604 1761
609 1770
609 1780
614 1789
616 1799
619 1809
625 1817
632 1830
622 1834
619 1851
624 1860
630 1868
635 1877
639 1887
644 1896
639 1907
639 1917
639 1927
644 1936
651 1944
656 1953
660 1963
664 1973
669 1982
669 1992
677 1999
681 2009
689 2015
694 2024
691 2034
682 2039
674 2047
674 2057
679 2066
686 2074
694 2080
700 2088
708 2095
715 2103
723 2110
729 2118
730 2128
734 2138
735 2148
739 2158
739 2172
729 2177
729 2187
729 2197
734 2206
741 2214
746 2223
754 2230
763 2235
770 2243
778 2250
788 2248
793 2239
790 2229
785 2220
782 2210
780 2200
785 2190
795 2190
805 2190
815 2190
825 2190
835 2185
840 2175
840 2160
840 2150
850 2145
859 2150
869 2150
878 2145
887 2139
892 2129
895 2115
903 2108
913 2105
923 2103
930 2095
930 2085
938 2078
948 2075
958 2075
967 2070
977 2069
982 2059
985 2045
990 2035
1000 2035
1010 2035
1020 2030
1025 2020
1030 2005
1030 1995
1030 1985
1030 1975
1039 1970
1048 1975
1057 1980
1067 1984
1076 1989
1086 1985
1095 1980
1100 1970
1105 1959
1105 1949
1100 1940
1109 1935
1119 1932
1127 1924
1135 1915
1140 1905
1145 1890
1155 1890
1164 1895
1173 1900
1183 1898
1190 1890
1198 1883
1205 1875
1215 1870
1223 1863
1230 1854
1230 1844
1225 1835
1230 1825
1240 1820
1249 1815
1259 1812
1269 1815
1278 1810
1288 1810
1297 1804
1305 1795
1313 1788
1320 1780
1329 1775
1337 1769
1340 1759
1340 1749
1335 1740
1340 1730
1350 1725
1360 1720
1370 1720
1380 1720
1390 1715
1400 1715
1410 1715
1419 1710
1427 1704
1435 1695
1440 1680
1440 1670
1445 1655
1450 1645
1458 1638
1465 1630
1475 1630
1485 1630
1495 1630
1505 1630
1515 1625
1524 1620
1530 1610
1538 1603
1540 1590
1545 1575
1545 1565
1550 1555
1560 1550
1570 1552
1580 1552
1590 1550
1599 1545
1607 1539
1617 1534
1627 1529
1635 1520
1643 1513
1648 1503
1653 1493
1658 1483
1668 1480
1677 1475
1685 1465
1690 1455
1699 1450
1708 1445
1718 1445
1728 1445
1738 1443
1748 1438
1753 1428
1755 1415
1755 1405
1760 1395
1770 1390
1780 1390
1789 1385
1799 1382
1804 1372
1809 1362
1817 1355
1827 1355
1836 1350
1844 1342
1852 1334
1860 1325
1868 1318
1875 1310
1880 1300
1888 1293
1895 1285
1905 1285
1915 1287
1925 1290
1934 1295
1934 1305
1929 1317
1929 1327
1937 1334
1944 1342
1949 1351
1954 1360
1955 1376
1949 1384
1939 1384
1929 1387
1929 1397
1937 1404
1944 1412
1954 1415
1946 1429
1937 1434
1928 1439
1920 1446
1912 1454
1902 1459
1893 1464
1883 1464
1875 1471
1868 1479
1860 1486
1855 1496
1848 1504
1839 1509
1829 1507
1820 1502
1812 1495
1804 1489
1794 1487
1794 1497
1799 1506
1804 1515
1805 1531
1798 1539
1789 1544
1780 1549
1771 1554
1762 1559
1754 1567
1753 1579
1745 1586
1738 1594
1728 1594
1718 1594
1709 1589
1699 1586
1689 1587
1684 1597
1689 1606
1689 1616
1686 1630
1681 1640
1676 1649
1666 1649
1656 1649
1647 1644
1637 1644
1629 1652
1624 1662
1619 1672
1612 1689
1602 1690
1593 1685
1583 1684
1575 1691
1570 1701
1565 1711
1560 1721
1555 1731
1547 1739
1538 1744
1529 1749
1519 1752
1509 1754
1499 1751
1489 1749
1479 1749
1469 1752
1469 1762
1474 1771
1474 1781
1474 1791
1468 1799
1458 1799
1449 1804
1439 1804
1429 1804
1419 1807
1419 1817
1424 1826
1429 1835
1421 1849
1411 1849
1402 1844
1392 1844
1382 1844
1372 1844
1364 1852
1364 1862
1359 1877
1354 1887
1344 1889
1334 1889
1324 1892
1316 1899
1307 1904
1299 1912
1296 1929
1286 1929
1277 1934
1268 1939
1260 1946
1252 1954
1242 1959
1232 1959
1222 1959
1214 1967
1212 1979
1207 1989
1198 1994
1189 1999
1179 2002
1169 2007
1164 2017
1157 2029
1147 2034
1138 2039
1129 2044
1120 2049
1111 2054
1102 2059
1093 2064
1084 2069
1074 2072
1064 2077
1062 2089
1058 2099
1050 2106
1042 2114
1034 2122
1026 2135
1016 2139
1006 2139
996 2139
986 2139
976 2139
967 2144
959 2152
954 2167
954 2177
949 2192
944 2202
934 2207
925 2214
915 2216
905 2216
895 2219
885 2219
875 2219
865 2221
857 2229
854 2246
851 2260
846 2269
837 2274
828 2279
820 2286
812 2294
804 2302
794 2307
784 2309
774 2309
764 2309
762 2319
771 2324
781 2325
790 2330
800 2330
810 2330
819 2335
829 2335
838 2340
848 2340
857 2334
867 2330
876 2325
885 2330
894 2335
903 2340
910 2348
920 2352
930 2355
940 2350
948 2343
958 2340
968 2338
978 2333
983 2323
993 2318
1003 2315
1012 2320
1022 2324
1031 2329
1041 2330
1051 2330
1061 2333
1071 2335
1080 2340
1090 2340
1100 2340
1108 2333
1118 2328
1128 2330
1137 2335
1147 2339
1155 2345
1164 2350
1173 2355
1183 2353
1193 2348
1200 2340
1210 2340
1220 2335
1228 2328
1235 2320
1244 2315
1254 2315
1263 2320
1272 2325
1282 2329
1292 2330
1302 2330
1311 2335
1321 2335
1330 2340
1340 2340
1350 2335
1359 2330
1369 2327
1379 2330
1388 2335
1397 2340
1405 2347
1414 2352
1424 2355
1434 2352
1442 2344
1452 2340
1462 2339
1472 2334
1477 2324
1487 2319
1497 2315
1506 2320
1516 2323
1525 2328
1535 2330
1545 2330
1555 2332
1565 2335
1574 2340
1584 2340
1594 2340
1602 2334
1612 2329
1622 2329
1631 2334
1641 2338
1649 2345
1658 2350
1667 2355
1677 2354
1687 2349
1695 2340
1705 2340
1715 2335
1723 2328
1730 2320
1739 2315
1749 2315
1758 2320
1767 2325
1777 2329
1787 2330
1797 2330
1806 2335
1816 2335
1825 2340
1835 2340
1845 2335
1854 2330
1864 2327
1874 2330
1883 2335
1892 2340
1900 2347
1909 2352
1919 2355
1929 2352
1937 2344
1947 2340
1957 2339
1967 2334
1972 2324
1982 2319
1992 2315
2002 2315
2011 2310
2015 2294
2010 2285
2007 2275
2005 2265
2005 2255
2013 2248
2018 2238
2023 2228
2029 2220
2038 2215
2048 2213
2053 2203
2055 2187
2050 2178
2045 2169
2040 2160
2040 2150
2040 2140
2048 2133
2058 2130
2068 2130
2078 2128
2085 2117
2080 2108
2075 2099
2070 2090
2067 2080
2065 2070
2065 2060
2073 2053
2083 2048
2090 2035
2095 2020
2100 2010
2100 2000
2105 1990
2113 1983
2120 1970
2120 1960
2120 1950
2117 1940
2115 1930
2115 1920
2120 1910
2125 1899
2125 1889
2125 1879
2120 1870
2120 1860
2130 1862
2140 1865
2149 1870
2159 1870
2167 1864
2170 1850
2168 1840
2160 1834
2157 1824
2152 1815
2150 1805
2150 1795
2159 1790
2168 1785
2178 1785
2187 1780
2190 1763
2185 1754
2180 1745
2185 1730
2190 1715
2195 1705
2195 1695
2195 1685
2200 1675
2200 1665
2205 1655
2214 1650
2220 1635
2220 1625
2225 1610
2225 1600
2225 1590
2230 1580
2235 1570
2240 1560
2240 1550
2240 1540
2240 1530
2249 1525
2258 1530
2268 1530
2277 1524
2280 1512
2275 1503
2270 1494
2267 1484
2262 1475
2260 1465
2260 1455
2268 1448
2275 1440
2285 1440
2295 1430
2287 1424
2282 1415
2280 1405
2289 1400
2297 1394
2302 1384
2305 1374
2300 1365
2300 1355
2305 1340
2313 1333
2320 1320
2325 1310
2330 1295
2335 1277
2335 1267
2327 1260
2320 1252
2312 1245
2310 1235
2320 1235
2330 1235
2340 1230
2348 1223
2355 1207
2355 1197
2354 1187
2347 1179
2342 1170
2335 1162
2335 1152
2327 1145
2323 1135
2315 1129
2309 1121
2301 1114
2292 1109
2283 1114
2273 1114
2263 1114
2254 1109
2245 1104
2236 1099
2227 1094
2218 1089
2210 1082
2200 1078
2195 1069
2190 1060
2205 1065
2215 1065
2225 1060
2224 1047
2217 1039
2208 1034
2198 1030
2188 1029
2178 1026
2169 1021
2161 1014
2152 1009
2143 1004
2135 998
2128 990
2120 984
2111 979
2102 984
2092 989
2082 990
2075 982
2067 975
2063 965
2055 959
2052 949
2047 940
2040 932
2032 925
2025 917
2017 910
2008 905
1998 901
1989 896
1979 892
1972 884
1962 884
1953 889
1943 889
1934 894
1924 894
1914 894
1904 897
1904 907
1904 917
1899 932
1890 939
1881 944
1871 944
1862 949
1854 957
1852 974
1847 984
1838 989
1828 989
1818 985
1808 981
1799 976
1789 974
1779 977
1779 987
1779 997
1784 1006
1789 1015
1789 1025
1785 1036
1775 1039
1766 1044
1757 1039
1747 1039
1737 1039
1729 1047
1729 1057
1729 1067
1723 1079
1713 1079
1703 1079
1694 1074
1684 1074
1674 1077
1674 1096
1674 1106
1674 1116
1670 1131
1660 1134
1651 1129
1642 1124
1632 1124
1624 1132
1619 1147
1612 1159
1603 1164
1593 1164
1584 1159
1574 1156
1564 1157
1559 1167
1559 1177
1559 1187
1557 1199
1552 1209
1542 1209
1532 1209
1524 1217
1524 1227
1519 1237
1510 1244
1500 1244
1490 1244
1481 1239
1471 1239
1462 1244
1454 1252
1454 1262
1459 1271
1459 1281
1459 1291
1449 1297
1439 1299
1429 1296
1419 1294
1409 1297
1399 1302
1392 1329
1383 1334
1373 1334
1365 1341
1357 1349
1349 1357
1341 1365
1331 1369
1322 1374
1318 1384
1309 1389
1300 1394
1290 1394
1281 1399
1272 1404
1264 1412
1264 1422
1264 1432
1256 1440
1246 1445
1236 1449
1226 1449
1216 1449
1207 1454
1199 1462
1195 1476
1187 1484
1178 1489
1168 1489
1160 1496
1155 1506
1150 1516
1142 1524
1132 1529
1122 1534
1114 1542
1106 1549
1096 1550
1086 1554
1076 1554
1066 1554
1057 1559
1049 1567
1049 1577
1049 1587
1044 1597
1039 1607
1031 1619
1022 1624
1013 1629
1003 1625
995 1618
988 1610
980 1604
974 1596
966 1589
957 1584
949 1577
942 1569
932 1565
924 1559
910 1555
919 1550
929 1550
939 1550
947 1544
950 1530
950 1520
950 1510
958 1503
968 1500
978 1500
987 1505
997 1505
1006 1500
1010 1485
1010 1475
1010 1465
1018 1458
1028 1455
1037 1460
1047 1464
1056 1469
1066 1470
1075 1465
1074 1447
1070 1437
1062 1430
1060 1420
1060 1410
1070 1410
1080 1410
1090 1410
1099 1415
1109 1415
1119 1412
1124 1402
1125 1384
1120 1375
1120 1365
1129 1360
1139 1360
1148 1365
1157 1370
1167 1374
1177 1375
1186 1370
1194 1362
1195 1352
1190 1343
1185 1334
1180 1325
1180 1315
1190 1315
1200 1315
1210 1315
1220 1315
1230 1310
1238 1303
1245 1295
1242 1285
1240 1275
1240 1265
1249 1270
1258 1275
1267 1280
1276 1285
1286 1285
1295 1280
1303 1273
1310 1259
1307 1249
1302 1240
1300 1230
1300 1220
1310 1220
1320 1220
1330 1220
1340 1220
1349 1215
1359 1215
1368 1210
1378 1208
1388 1205
1397 1199
1405 1190
1413 1183
1420 1175
1420 1165
1428 1158
1433 1148
1440 1140
1448 1133
1455 1125
1464 1120
1474 1120
1484 1120
1494 1120
1504 1120
1513 1115
1522 1109
1530 1100
1530 1090
1535 1075
1535 1065
1540 1055
1548 1048
1558 1045
1568 1045
1578 1045
1588 1045
1597 1039
1605 1030
1614 1025
1622 1019
1632 1014
1640 1000
1645 990
1650 980
1658 973
1664 965
1674 965
1682 959
1692 954
1700 945
1710 945
1720 945
1730 945
1740 940
1748 933
1750 920
1750 910
1755 900
1764 895
1773 890
1783 890
1792 885
1800 870
1808 863
1818 860
1828 858
1838 853
1845 845
1853 838
1860 830
1870 820
1870 810
1864 802
1857 794
1847 790
1838 785
1828 781
1819 776
1811 769
1802 764
1793 759
1785 752
1775 749
1766 744
1757 739
1747 735
1740 727
1732 720
1730 710
1730 700
1728 690
1723 681
1714 676
1704 676
1694 674
1684 671
1674 667
1667 659
1657 655
1650 647
1640 644
1631 639
1622 634
1612 634
1603 629
1595 622
1587 615
1583 605
1575 598
1570 589
1567 579
1559 572
1550 567
1540 564
1531 559
1522 554
1512 550
1505 542
1495 538
1488 530
1480 524
1471 519
1462 514
1452 514
1443 509
1435 502
1434 492
1430 482
1430 472
1425 463
1418 455
1410 449
1401 454
1391 455
1381 459
1372 464
1364 472
1363 484
1355 491
1347 499
1338 504
1329 499
1320 494
1311 489
1302 484
1292 484
1284 492
1289 501
1289 511
1294 520
1294 537
1287 549
1277 549
1267 549
1257 549
1247 549
1239 557
1239 567
1237 584
1228 589
1218 589
1209 584
1199 584
1189 584
1179 587
1179 597
1179 607
1179 617
1180 631
1175 641
1165 644
1156 639
1147 634
1137 634
1129 642
1127 654
1119 662
1110 671
1100 674
1091 669
1082 664
1072 664
1064 672
1064 682
1064 692
1062 704
1057 714
1047 714
1037 714
1029 722
1029 732
1025 746
1015 749
1005 749
995 749
986 744
976 744
967 749
959 757
959 767
964 776
964 786
959 797
949 799
939 799
929 799
919 799
909 802
899 807
897 824
892 834
882 834
873 839
865 846
858 854
850 861
840 864
830 866
822 874
818 884
809 889
800 894
790 894
781 899
772 904
764 912
764 922
758 939
750 946
740 949
730 949
720 949
710 951
702 959
694 967
685 974
676 979
667 984
659 992
654 1002
648 1014
640 1021
630 1026
622 1034
613 1039
604 1044
595 1049
585 1049
575 1047
565 1046
557 1054
549 1062
544 1072
544 1082
543 1099
535 1106
527 1114
518 1119
509 1124
499 1124
490 1119
480 1119
470 1121
463 1129
455 1136
450 1146
442 1154
