19 557
19 547
29 544
39 544
48 549
58 550
67 555
75 562
82 570
92 574
99 582
107 589
116 594
124 601
130 609
138 615
145 623
150 632
158 639
167 644
170 654
178 660
182 670
190 677
197 685
205 692
213 699
214 682
219 672
219 662
219 652
219 642
219 630
215 620
205 620
195 620
185 620
179 612
179 602
187 594
196 589
206 585
214 579
219 567
219 557
229 559
239 559
248 554
249 535
249 525
244 516
239 507
232 499
227 490
220 482
215 473
209 465
204 456
204 446
199 437
194 428
188 420
179 415
174 406
169 397
164 388
155 383
149 375
139 371
131 365
122 360
112 360
103 355
94 350
89 341
89 331
84 322
94 319
103 314
109 302
117 294
126 289
135 294
144 299
152 305
162 309
171 314
179 321
188 326
195 334
203 340
212 345
220 352
224 362
230 370
238 376
245 384
250 393
255 402
264 407
269 416
275 424
275 434
280 443
288 450
292 460
297 469
300 479
305 488
315 492
320 501
325 510
325 520
327 530
332 539
340 545
342 555
345 565
345 575
350 584
350 594
359 599
368 604
377 609
387 609
396 614
405 619
415 622
420 631
429 636
438 641
445 649
450 658
455 667
462 675
467 684
474 692
475 702
480 711
480 721
489 726
493 736
495 746
504 732
504 722
504 712
504 702
504 692
504 682
504 672
504 662
514 657
514 647
514 637
514 627
514 617
514 607
514 597
514 587
514 577
519 567
519 557
524 547
524 537
524 527
529 517
529 507
539 502
539 492
544 482
552 474
554 462
564 457
569 447
569 437
577 429
582 419
590 411
594 392
599 377
604 362
614 352
614 342
619 330
619 320
619 310
619 300
617 290
608 285
600 278
594 270
585 265
579 257
579 247
579 237
579 227
589 222
597 214
607 209
617 209
627 209
637 209
647 209
657 209
666 214
676 214
686 214
695 219
705 219
715 219
725 219
735 219
745 219
755 219
765 219
774 224
784 224
794 226
803 231
805 241
803 258
795 265
795 275
795 285
795 295
795 305
795 315
790 330
790 340
790 350
780 355
775 370
775 380
775 390
775 400
775 410
780 419
780 429
780 439
780 449
775 460
770 470
770 480
770 490
770 500
772 510
782 514
792 514
799 497
799 487
804 472
814 467
819 457
824 447
824 437
829 422
839 414
839 404
839 394
839 384
839 374
839 364
839 354
837 344
829 337
822 329
814 322
814 312
814 302
814 292
819 282
819 272
819 262
819 252
824 242
829 232
839 227
844 217
852 209
861 214
871 214
881 214
891 214
901 214
911 214
920 209
925 218
931 210
941 209
951 209
961 209
970 214
980 214
990 214
1000 214
1009 219
1017 225
1020 235
1020 245
1020 255
1015 270
1015 280
1005 290
1000 305
1000 315
1000 325
1000 335
995 345
990 360
990 370
980 375
980 385
975 395
975 405
975 415
975 425
975 435
975 445
975 455
975 465
975 475
975 485
975 495
980 504
990 507
997 515
1007 519
1017 519
1020 529
1030 529
1040 529
1050 529
1060 529
1070 529
1080 529
1090 529
1100 529
1110 529
1120 529
1130 529
1140 529
1150 529
1160 529
1170 529
1179 517
1189 514
1198 509
1204 497
1209 487
1209 477
1219 467
1219 457
1224 442
1229 427
1234 417
1244 412
1244 402
1244 392
1249 382
1249 372
1249 362
1249 352
1249 342
1249 332
1249 322
1249 312
1254 300
1254 290
1246 283
1236 280
1227 275
1218 270
1209 265
1204 256
1207 239
1212 229
1219 212
1227 204
1237 204
1247 204
1257 204
1267 204
1277 204
1287 204
1297 199
1306 194
1316 194
1326 194
1336 190
1346 189
1349 177
1357 169
1367 169
1377 169
1387 169
1397 169
1407 164
1417 164
1427 164
1437 164
1447 164
1457 164
1467 164
1477 164
1487 164
1497 164
1506 169
1516 169
1526 169
1535 174
1545 174
1554 179
1564 179
1574 181
1583 186
1593 190
1600 198
1605 207
1605 217
1603 228
1595 235
1600 244
1595 260
1595 270
1595 280
1585 290
1585 300
1580 310
1580 320
1575 335
1575 345
1575 355
1570 365
1570 375
1560 380
1555 390
1555 400
1550 415
1550 425
1550 435
1545 450
1545 460
1535 470
1530 485
1525 500
1525 510
1525 520
1525 530
1525 540
1525 550
1525 560
1525 570
1525 580
1525 590
1525 600
1525 610
1525 620
1525 630
1525 640
1525 650
1525 660
1525 670
1525 680
1525 690
1530 699
1530 709
1535 718
1543 725
1545 735
1547 745
1552 754
1555 764
1555 774
1560 783
1560 793
1568 800
1570 810
1570 820
1575 829
1575 839
1580 848
1585 857
1595 859
1599 847
1604 832
1609 817
1609 807
1617 799
1619 788
1619 778
1619 768
1619 758
1619 748
1619 738
1619 728
1619 718
1619 708
1612 700
1609 690
1604 681
1599 672
1595 662
1587 655
1584 645
1579 636
1579 626
1574 617
1574 607
1574 597
1574 587
1574 577
1574 567
1574 557
1579 542
1587 534
1597 529
1606 524
1615 519
1625 519
1635 519
1645 519
1653 525
1650 540
1640 545
1630 545
1620 550
1610 555
1610 565
1610 575
1610 585
1610 595
1610 605
1618 611
1623 620
1627 630
1632 639
1641 644
1645 654
1650 663
1655 672
1660 681
1660 691
1669 696
1670 706
1670 716
1670 726
1670 736
1670 746
1670 756
1670 766
1670 776
1670 786
1660 795
1655 805
1655 815
1655 825
1655 835
1655 845
1653 863
1645 870
1639 880
1633 888
1628 898
1620 905
1610 915
1605 930
1600 940
1595 955
1589 970
1580 975
1580 985
1575 995
1570 1010
1560 1015
1557 1029
1552 1039
1547 1049
1542 1059
1532 1064
1527 1074
1522 1084
1514 1090
1505 1095
1500 1105
1495 1120
1485 1125
1478 1133
1470 1140
1460 1145
1453 1158
1445 1165
1435 1170
1428 1178
1420 1185
1410 1190
1403 1198
1395 1205
1385 1210
1378 1218
1370 1225
1360 1230
1353 1238
1345 1245
1335 1245
1328 1253
1320 1260
1310 1260
1302 1269
1292 1274
1282 1275
1272 1279
1264 1285
1254 1285
1245 1290
1235 1290
1226 1295
1216 1295
1206 1295
1197 1290
1187 1290
1177 1290
1167 1290
1157 1290
1147 1290
1137 1290
1127 1290
1117 1290
1107 1290
1097 1290
1087 1290
1077 1290
1067 1290
1057 1289
1047 1285
1037 1285
1027 1285
1017 1285
1007 1285
997 1285
987 1285
977 1285
967 1285
957 1285
948 1280
938 1280
928 1280
918 1280
908 1280
898 1280
888 1280
878 1280
868 1280
858 1280
848 1280
838 1283
830 1290
830 1300
828 1313
820 1320
813 1328
805 1335
800 1350
795 1360
790 1370
783 1378
775 1385
770 1400
761 1405
751 1405
742 1410
732 1410
722 1410
712 1410
702 1410
692 1409
682 1405
672 1405
663 1400
653 1400
644 1395
634 1395
624 1395
614 1395
604 1395
595 1390
585 1387
575 1385
565 1385
556 1380
546 1380
536 1380
526 1380
516 1380
506 1380
496 1380
486 1380
477 1375
468 1370
458 1370
449 1365
439 1362
430 1357
422 1350
413 1345
404 1340
396 1334
391 1325
381 1323
371 1319
364 1311
356 1305
347 1300
340 1292
330 1288
323 1280
314 1275
306 1269
297 1264
289 1257
282 1249
274 1242
270 1232
262 1225
258 1215
250 1208
244 1200
244 1190
239 1181
234 1172
234 1162
234 1152
234 1142
234 1132
234 1122
234 1112
234 1102
239 1093
239 1083
239 1073
239 1063
239 1053
239 1043
239 1033
236 1023
231 1014
229 1004
229 994
229 984
226 974
224 964
224 954
224 944
224 934
219 925
219 915
217 905
214 895
214 885
214 875
212 865
204 858
199 849
199 839
196 829
194 819
189 810
184 801
179 792
174 783
170 773
164 765
164 755
149 740
144 731
139 722
132 714
124 707
120 697
115 688
108 680
99 675
96 665
86 664
77 659
69 652
69 642
69 632
65 622
57 615
49 608
45 598
36 593
31 584
24 576
19 567
