249 782
249 772
257 764
265 756
275 751
285 749
294 744
304 740
304 730
299 721
299 711
299 701
294 692
294 682
294 672
294 662
294 652
294 642
294 632
294 622
294 612
294 602
294 592
294 582
294 572
294 562
294 552
294 542
294 532
294 522
299 507
304 497
304 487
304 477
309 462
309 452
314 442
314 432
314 422
319 412
319 402
324 392
324 382
324 372
329 362
334 347
339 332
347 324
349 312
357 304
362 294
367 284
375 276
383 269
387 259
395 251
400 241
405 231
413 224
419 212
427 204
437 199
445 191
453 184
462 179
470 171
478 164
487 159
496 154
504 147
514 144
523 139
532 134
542 129
551 124
560 119
570 119
579 114
589 114
599 114
609 114
619 114
629 114
639 114
649 114
659 112
669 109
679 109
689 109
699 109
709 111
719 114
729 114
739 116
749 119
759 121
769 124
779 126
788 131
795 139
805 142
813 149
822 154
829 162
835 170
840 179
850 176
858 169
867 164
877 164
886 159
895 154
905 154
915 154
925 154
935 154
944 159
954 161
963 166
973 169
982 174
991 179
999 186
1005 194
1015 197
1024 202
1034 206
1040 214
1045 223
1053 229
1062 234
1069 242
1074 251
1080 259
1085 268
1085 278
1090 287
1094 297
1100 305
1105 314
1105 324
1110 333
1115 342
1119 352
1124 361
1125 371
1125 381
1125 391
1125 401
1125 411
1130 420
1130 430
1130 440
1130 450
1130 460
1130 470
1130 480
1130 490
1130 500
1130 510
1130 520
1125 530
1125 540
1125 550
1125 560
1125 570
1125 580
1125 590
1125 600
1120 610
1120 620
1120 630
1115 640
1115 650
1115 660
1110 675
1110 685
1115 694
1125 694
1135 694
1145 694
1155 697
1162 705
1165 715
1165 725
1170 734
1170 744
1170 754
1170 764
1165 780
1165 790
1160 800
1155 815
1155 825
1155 835
1150 845
1150 855
1150 865
1150 875
1150 885
1150 895
1150 905
1150 915
1145 925
1140 940
1135 950
1130 960
1125 970
1120 980
1118 993
1110 1000
1103 1008
1095 1015
1085 1015
1075 1020
1065 1020
1065 1030
1065 1040
1065 1050
1060 1065
1060 1075
1055 1090
1055 1100
1050 1115
1048 1128
1043 1138
1035 1145
1033 1158
1028 1168
1020 1175
1015 1185
1010 1200
1010 1210
1010 1220
1010 1230
1010 1240
1010 1250
1010 1260
1010 1270
1010 1280
1010 1290
1010 1300
1005 1315
1005 1325
1000 1335
998 1348
990 1355
988 1373
983 1383
975 1390
970 1400
963 1413
958 1423
950 1430
943 1443
935 1450
930 1460
923 1468
918 1478
910 1485
903 1493
895 1500
888 1510
879 1515
873 1523
865 1530
855 1535
845 1540
835 1545
828 1553
820 1560
811 1565
802 1570
792 1574
782 1579
772 1580
764 1587
754 1590
744 1592
734 1595
725 1600
715 1600
705 1600
695 1597
685 1593
679 1585
670 1580
660 1578
653 1570
644 1565
636 1559
627 1554
619 1547
612 1539
602 1535
593 1530
585 1523
578 1515
570 1508
564 1500
555 1495
547 1489
539 1482
532 1474
524 1467
517 1459
509 1452
502 1444
494 1437
487 1429
479 1422
472 1414
467 1405
464 1395
459 1386
454 1377
454 1367
454 1357
454 1347
454 1337
454 1327
454 1317
454 1307
459 1292
459 1282
464 1265
459 1256
451 1250
442 1245
438 1235
429 1230
421 1223
416 1214
412 1204
404 1197
400 1187
395 1178
389 1170
387 1160
384 1150
384 1140
384 1130
384 1120
384 1110
384 1100
384 1090
384 1080
384 1070
375 1065
367 1059
357 1055
350 1047
342 1040
338 1030
330 1023
324 1015
320 1005
314 997
309 988
304 979
301 969
299 959
296 949
294 939
289 930
284 921
284 911
279 902
274 893
270 883
269 873
264 864
261 854
254 846
254 836
249 827
249 817
249 807
249 792
