249 782
249 772
257 764
265 756
275 751
285 749
294 744
304 740
304 730
299 721
299 711
299 701
294 692
294 682
294 672
294 662
294 652
294 642
294 632
294 622
294 612
294 602
294 592
294 582
294 572
294 562
294 552
294 542
294 532
294 522
299 507
304 497
304 487
304 477
309 462
309 452
314 442
314 432
314 422
319 412
319 402
324 392
324 382
324 372
329 362
334 347
339 332
347 324
349 312
357 304
362 294
367 284
375 276
383 269
387 259
395 251
400 241
405 231
413 224
419 212
427 204
437 199
445 191
453 184
462 179
470 171
478 164
487 159
496 154
504 147
514 144
523 139
532 134
542 129
551 124
560 119
570 119
579 114
589 114
599 114
609 114
619 114
629 114
639 114
649 114
659 112
669 109
679 109
689 109
699 109
709 111
719 114
729 114
739 116
749 119
759 121
769 124
779 126
788 131
795 139
805 142
813 149
822 154
829 162
835 170
840 179
850 179
859 174
868 169
878 169
888 169
898 169
908 169
917 174
927 174
936 179
945 184
953 190
960 198
970 199
979 204
987 210
995 217
1002 225
1012 229
1019 237
1024 246
1030 254
1035 263
1040 272
1045 281
1051 289
1055 299
1060 308
1060 318
1065 327
1072 335
1077 344
1080 354
1085 363
1090 372
1094 382
1100 390
1100 400
1100 410
1100 420
1100 430
1100 440
1100 450
1100 460
1100 470
1100 480
1100 490
1100 500
1100 510
1100 520
1100 530
1100 540
1100 550
1100 560
1100 570
1102 580
1105 590
1105 600
1105 610
1105 620
1105 630
1105 640
1105 650
1105 660
1105 670
1110 679
1110 689
1115 698
1123 704
1133 704
1143 705
1147 715
1155 722
1150 740
1150 750
1150 760
1145 770
1145 780
1145 790
1140 805
1140 815
1140 825
1140 835
1140 845
1140 855
1140 865
1140 875
1140 885
1140 895
1135 905
1135 915
1135 925
1130 940
1130 950
1128 963
1120 970
1115 980
1110 990
1100 1000
1095 1010
1085 1010
1075 1010
1065 1010
1065 1020
1065 1030
1065 1040
1065 1050
1060 1065
1060 1075
1055 1090
1055 1100
1050 1115
1048 1128
1043 1138
1035 1145
1033 1158
1028 1168
1020 1175
1015 1185
1010 1200
1010 1210
1010 1220
1010 1230
1010 1240
1010 1250
1010 1260
1010 1270
1010 1280
1010 1290
1010 1300
1005 1315
1005 1325
1000 1335
998 1348
990 1355
988 1373
983 1383
975 1390
970 1400
963 1413
958 1423
950 1430
943 1443
935 1450
930 1460
923 1468
918 1478
910 1485
903 1493
895 1500
888 1510
879 1515
873 1523
865 1530
855 1535
845 1540
835 1545
828 1553
820 1560
811 1565
802 1570
792 1574
782 1579
772 1580
764 1587
754 1590
744 1592
734 1595
725 1600
715 1600
705 1600
695 1597
685 1593
679 1585
670 1580
660 1578
653 1570
644 1565
636 1559
627 1554
619 1547
612 1539
602 1535
593 1530
585 1523
578 1515
570 1508
564 1500
555 1495
547 1489
539 1482
532 1474
524 1467
517 1459
509 1452
502 1444
494 1437
487 1429
479 1422
472 1414
467 1405
464 1395
459 1386
454 1377
454 1367
454 1357
454 1347
454 1337
454 1327
454 1317
454 1307
459 1292
459 1282
464 1265
459 1256
451 1250
442 1245
438 1235
429 1230
421 1223
416 1214
412 1204
404 1197
400 1187
395 1178
389 1170
387 1160
384 1150
384 1140
384 1130
384 1120
384 1110
384 1100
384 1090
384 1080
384 1070
375 1065
367 1059
357 1055
350 1047
342 1040
338 1030
330 1023
324 1015
320 1005
314 997
309 988
304 979
301 969
299 959
296 949
294 939
289 930
284 921
284 911
279 902
274 893
270 883
269 873
264 864
261 854
254 846
254 836
249 827
249 817
249 807
249 792
