320 1626
320 1616
325 1606
330 1596
335 1586
343 1579
350 1571
355 1561
360 1546
360 1536
368 1529
378 1524
388 1519
398 1515
408 1515
417 1510
426 1505
436 1505
446 1505
456 1500
465 1495
474 1490
484 1488
494 1483
504 1478
514 1475
524 1473
534 1470
544 1470
553 1465
562 1460
571 1465
580 1470
590 1470
600 1470
610 1470
620 1470
630 1466
640 1461
650 1460
655 1450
650 1441
650 1431
650 1421
655 1411
660 1401
665 1386
665 1376
665 1366
665 1356
665 1346
670 1336
670 1326
670 1316
670 1306
670 1296
675 1281
680 1271
685 1261
693 1254
700 1246
708 1239
713 1229
715 1216
715 1206
715 1196
720 1186
728 1179
735 1171
743 1164
750 1156
758 1149
768 1144
773 1134
780 1126
790 1116
790 1106
798 1099
805 1091
810 1081
818 1074
828 1069
835 1061
843 1054
850 1046
858 1039
863 1029
870 1021
878 1014
885 1006
893 999
903 994
910 986
918 979
928 974
935 966
943 959
953 954
963 949
970 936
980 935
990 931
1000 926
1008 919
1018 914
1028 909
1038 904
1048 899
1058 894
1068 890
1078 889
1085 881
1093 875
1102 870
1112 870
1122 870
1132 870
1140 861
1148 855
1158 855
1167 850
1175 841
1185 840
1195 843
1204 848
1214 850
1224 850
1234 851
1243 856
1253 860
1263 860
1273 860
1283 860
1292 865
1301 870
1310 865
1319 860
1329 860
1338 855
1347 850
1350 831
1358 825
1367 820
1376 815
1386 810
1394 803
1399 793
1406 785
1416 789
1426 790
1436 785
1440 771
1440 761
1448 755
1458 755
1467 750
1475 741
1483 734
1485 721
1493 714
1503 710
1512 705
1516 695
1521 685
1529 678
1539 673
1546 665
1554 658
1564 653
1574 648
1580 636
1588 629
1598 624
1605 616
1615 611
1620 601
1620 591
1628 585
1637 590
1647 590
1656 585
1664 578
1670 566
1678 559
1685 551
1693 544
1700 536
1708 529
1710 511
1718 504
1725 496
1735 491
1745 486
1755 481
1763 474
1773 469
1780 461
1788 454
1795 446
1803 439
1810 431
1820 426
1828 419
1830 406
1838 399
1840 381
1840 371
1850 370
1860 373
1870 375
1880 375
1889 370
1898 365
1907 360
1915 351
1923 345
1932 350
1939 358
1947 365
1954 373
1964 376
1970 384
1978 390
1984 398
1990 406
1990 416
1996 424
2004 431
2010 439
2010 449
2010 459
2018 465
2024 473
2030 481
2035 490
2040 499
2040 509
2045 518
2055 520
2063 514
2068 504
2073 494
2080 481
2088 474
2095 466
2103 459
2108 449
2113 440
2123 439
2130 426
2135 416
2143 409
2150 396
2150 386
2158 380
2167 375
2175 361
2183 354
2193 349
2200 341
2208 334
2218 330
2228 330
2238 330
2248 330
2258 330
2268 330
2277 325
2286 320
2296 320
2305 315
2315 315
2325 315
2335 318
2345 320
2355 320
2364 325
2373 330
2383 330
2393 330
2399 338
2407 345
2416 350
2424 356
2434 360
2444 360
2454 361
2460 369
2460 379
2465 388
2475 390
2485 390
2494 395
2503 400
2509 408
2514 417
2515 427
2521 435
2531 439
2535 449
2535 459
2530 475
2523 488
2515 495
2510 505
2505 515
2505 525
2505 535
2500 550
2495 565
2488 578
2483 588
2475 595
2475 605
2475 615
2468 628
2460 635
2460 645
2455 655
2450 665
2443 673
2433 678
2425 685
2422 699
2413 705
2403 708
2398 718
2393 728
2388 738
2380 745
2375 760
2370 770
2365 780
2358 788
2350 795
2345 805
2335 815
2325 820
2318 828
2310 835
2310 845
2310 855
2308 868
2300 875
2290 880
2283 888
2275 895
2270 905
2265 915
2265 925
2265 935
2270 944
2278 950
2275 960
2270 970
2265 980
2270 989
2270 1000
2265 1010
2265 1020
2265 1030
2270 1039
2270 1055
2265 1065
2260 1075
2253 1083
2245 1090
2245 1100
2245 1110
2250 1119
2245 1135
2240 1145
2235 1155
2228 1163
2220 1170
2218 1188
2210 1195
2200 1191
2200 1181
2205 1170
2205 1160
2204 1150
2195 1145
2188 1153
2180 1160
2175 1170
2170 1180
2163 1188
2158 1198
2153 1208
2148 1218
2140 1225
2140 1240
2130 1240
2125 1255
2120 1270
2114 1282
2109 1292
2099 1305
2090 1300
2080 1301
2080 1291
2080 1281
2080 1271
2080 1261
2080 1251
2085 1241
2093 1234
2100 1226
2108 1219
2115 1211
2115 1201
2120 1190
2115 1181
2125 1176
2133 1169
2140 1156
2145 1141
2153 1134
2154 1116
2150 1106
2158 1099
2165 1091
2170 1081
2175 1071
2175 1061
2175 1051
2175 1041
2180 1026
2180 1016
2180 1006
2170 1005
2165 1015
2160 1025
2160 1035
2160 1045
2155 1060
2150 1070
2142 1079
2132 1080
2123 1085
2114 1090
2105 1095
2098 1103
2090 1110
2083 1118
2075 1125
2067 1134
2058 1140
2049 1145
2040 1150
2033 1158
2025 1165
2017 1174
2009 1182
1999 1185
1990 1190
1983 1198
1973 1200
1963 1200
1953 1200
1944 1205
1935 1210
1925 1210
1915 1206
1905 1205
1895 1205
1888 1213
1878 1218
1870 1225
1865 1235
1855 1240
1845 1240
1835 1245
1828 1253
1820 1260
1811 1265
1802 1270
1792 1270
1782 1270
1773 1275
1764 1280
1755 1285
1745 1290
1738 1298
1730 1305
1720 1305
1710 1305
1700 1310
1693 1318
1683 1323
1675 1330
1670 1340
1665 1350
1660 1360
1661 1370
1665 1380
1665 1390
1665 1400
1663 1418
1658 1428
1650 1435
1643 1443
1635 1450
1633 1468
1628 1478
1623 1488
1615 1495
1608 1508
1600 1515
1595 1525
1588 1533
1580 1540
1575 1550
1567 1559
1557 1564
1547 1569
1538 1575
1528 1575
1518 1575
1509 1580
1500 1585
1490 1585
1480 1585
1472 1594
1464 1602
1454 1605
1444 1605
1434 1605
1424 1607
1414 1612
1404 1615
1394 1615
1385 1620
1377 1629
1372 1639
1363 1644
1353 1640
1343 1643
1335 1650
1325 1650
1315 1655
1305 1660
1297 1669
1288 1675
1279 1680
1270 1675
1260 1675
1252 1684
1244 1690
1234 1690
1225 1695
1215 1695
1207 1704
1199 1710
1189 1710
1180 1705
1170 1705
1160 1706
1150 1705
1140 1705
1133 1713
1128 1723
1118 1724
1108 1720
1099 1725
1090 1730
1083 1738
1073 1740
1063 1740
1053 1740
1044 1745
1035 1750
1025 1751
1015 1750
1005 1750
995 1755
985 1755
975 1755
965 1755
957 1764
948 1770
938 1770
929 1765
920 1770
912 1779
903 1785
893 1784
883 1780
873 1780
863 1784
853 1780
844 1775
834 1775
824 1775
815 1770
805 1770
795 1770
785 1775
780 1766
780 1756
780 1746
785 1731
784 1721
780 1711
773 1703
763 1708
753 1713
745 1720
738 1733
728 1735
718 1738
710 1745
703 1753
695 1760
685 1765
675 1765
665 1770
657 1779
648 1785
639 1790
630 1795
620 1795
612 1804
604 1810
595 1815
585 1815
577 1824
568 1830
558 1833
548 1838
538 1840
529 1845
520 1850
511 1855
501 1855
491 1855
482 1860
472 1859
463 1854
453 1850
443 1849
435 1842
428 1834
420 1827
415 1818
408 1810
398 1809
388 1805
379 1800
371 1793
365 1785
365 1775
365 1765
364 1755
359 1746
355 1736
350 1727
343 1719
335 1713
335 1703
335 1693
335 1683
335 1673
335 1663
335 1653
331 1643
325 1635
