4 197
4 187
9 177
9 167
14 157
19 142
27 134
36 129
44 122
54 117
64 114
73 119
82 124
91 129
101 129
110 134
120 134
129 139
139 139
148 144
157 149
166 154
176 154
184 147
184 132
184 122
184 112
189 97
197 89
205 81
215 76
223 69
232 64
241 59
251 55
261 54
271 50
279 44
289 42
299 39
309 39
319 39
328 34
338 34
348 34
358 34
367 29
377 29
387 29
397 29
407 29
417 29
427 29
437 29
447 24
456 29
466 29
476 29
486 29
496 29
506 29
516 29
525 34
535 34
545 34
555 34
565 34
575 34
585 34
595 34
605 34
615 34
625 34
635 34
645 34
655 34
665 34
675 34
685 34
695 34
705 34
715 34
725 34
735 34
745 34
755 31
765 34
774 29
784 29
794 29
804 29
813 24
823 24
832 19
842 19
851 14
861 14
871 14
881 10
891 14
901 14
910 19
915 28
923 35
932 40
937 49
944 57
954 61
964 64
974 62
984 59
994 59
1003 54
1013 54
1023 54
1033 54
1043 54
1053 54
1063 54
1073 54
1079 37
1089 41
1094 32
1104 31
1109 17
1114 7
1124 6
1125 16
1120 34
1118 53
1110 60
1112 70
1117 79
1120 89
1125 98
1130 107
1135 116
1140 125
1142 135
1150 142
1150 152
1157 160
1162 169
1165 179
1170 188
1175 197
1170 210
1165 220
1157 234
1147 239
1137 244
1129 252
1119 257
1109 262
1099 267
1091 275
1082 280
1074 287
1064 285
1055 290
1045 290
1035 290
1025 295
1015 300
1015 310
1013 328
1005 335
1005 345
1005 355
1000 365
997 384
989 378
989 368
974 382
969 372
974 357
982 349
984 337
992 329
994 313
987 305
977 305
967 305
957 305
947 309
937 310
927 310
917 310
907 310
897 310
887 310
877 310
867 310
857 314
847 315
837 315
827 315
817 315
808 310
798 310
788 310
778 310
768 310
758 310
748 310
738 310
728 310
718 310
708 313
703 323
695 330
685 335
677 349
668 355
659 360
650 365
640 370
630 375
620 375
611 380
602 375
592 375
582 375
573 370
563 370
553 370
544 365
534 365
524 367
514 365
505 370
496 365
486 365
476 365
466 365
456 365
446 365
436 365
426 365
416 365
406 365
396 365
387 360
377 360
367 360
357 360
347 360
337 359
327 355
317 355
308 350
298 350
288 350
279 345
270 340
261 335
251 335
242 330
233 325
224 320
214 320
206 313
196 309
189 301
189 291
184 282
184 272
189 262
194 246
186 240
176 240
166 240
156 240
146 240
137 245
128 250
118 253
108 255
99 260
89 262
79 265
69 267
59 272
49 275
39 275
29 272
25 262
19 254
19 244
14 235
9 226
9 216
4 207
