414 967
414 957
419 947
419 937
424 927
432 919
441 914
449 907
457 899
467 894
475 886
485 881
493 874
502 869
512 864
522 864
531 859
541 859
551 859
561 859
570 854
580 854
589 847
597 839
604 827
609 817
617 809
622 799
630 791
640 786
650 784
659 779
668 774
678 774
687 769
697 764
707 759
717 754
727 749
737 744
747 744
757 744
766 739
776 739
786 739
796 739
806 739
816 739
826 739
836 739
846 739
856 739
866 739
874 727
874 717
874 707
874 697
874 687
874 677
874 667
874 657
874 647
879 637
884 627
889 610
887 600
877 600
867 600
857 600
847 600
837 600
828 595
818 595
809 590
800 585
792 579
782 575
779 565
774 556
769 547
769 537
777 529
785 521
795 516
805 514
815 514
825 514
834 509
844 509
854 509
864 509
874 509
883 504
884 487
884 477
884 467
884 457
884 447
884 437
884 427
884 417
889 407
899 402
909 399
919 399
929 399
939 399
949 399
957 405
965 412
965 422
965 432
965 442
965 452
965 462
965 472
965 482
965 492
965 502
973 509
983 509
993 509
1003 509
1013 509
1023 510
1033 514
1043 514
1053 515
1062 520
1070 527
1077 535
1075 550
1071 560
1062 565
1053 570
1043 573
1033 575
1023 578
1013 580
1003 583
993 588
985 595
980 610
980 620
980 630
980 640
980 650
980 660
980 670
980 680
980 690
980 700
980 710
980 720
980 730
985 739
995 739
1005 739
1015 739
1025 739
1035 736
1045 734
1055 734
1065 734
1075 734
1085 734
1095 734
1104 739
1113 744
1123 744
1133 744
1142 749
1151 754
1160 759
1170 762
1179 767
1187 774
1196 779
1205 784
1213 790
1220 798
1230 802
1237 810
1245 817
1252 825
1257 834
1260 844
1260 854
1269 859
1279 859
1288 864
1297 869
1306 874
1315 879
1324 884
1333 889
1342 894
1351 899
1360 904
1369 909
1378 914
1387 919
1396 924
1404 931
1410 939
1415 948
1420 957
1425 966
1430 975
1435 984
1440 993
1440 1003
1435 1015
1430 1030
1425 1040
1420 1050
1413 1058
1405 1065
1398 1073
1390 1080
1383 1088
1373 1093
1365 1100
1355 1105
1347 1114
1337 1119
1327 1124
1319 1130
1310 1135
1300 1135
1290 1140
1280 1140
1270 1145
1260 1145
1250 1150
1240 1150
1230 1150
1220 1150
1210 1155
1200 1155
1190 1155
1180 1155
1170 1160
1160 1160
1150 1160
1140 1160
1130 1165
1120 1165
1111 1170
1101 1170
1091 1170
1082 1175
1072 1179
1062 1180
1052 1180
1043 1185
1033 1185
1023 1185
1014 1190
1004 1190
994 1190
984 1190
974 1190
964 1190
954 1190
944 1190
934 1190
924 1190
914 1190
904 1190
894 1190
884 1190
874 1190
864 1190
854 1190
845 1195
835 1195
825 1195
815 1195
805 1195
796 1200
786 1200
776 1200
766 1200
756 1200
746 1200
736 1200
726 1200
716 1200
706 1200
697 1195
687 1194
677 1190
668 1185
659 1180
649 1177
640 1172
630 1170
621 1165
611 1165
601 1164
592 1159
582 1155
573 1150
563 1150
554 1145
545 1140
535 1138
526 1133
516 1130
507 1125
497 1124
487 1120
477 1119
467 1115
458 1110
449 1105
439 1102
434 1093
429 1084
424 1075
424 1065
424 1055
424 1045
424 1035
424 1025
424 1015
424 1005
419 996
419 986
414 977
