600 226
600 216
605 206
605 196
605 186
610 176
618 169
625 161
635 156
645 151
655 146
665 145
674 140
683 134
693 129
703 125
712 120
722 120
732 120
742 120
752 120
762 120
772 120
781 125
790 130
799 135
808 140
811 150
819 156
825 164
830 173
835 182
840 191
845 200
846 210
855 215
863 221
870 229
878 235
884 243
889 252
896 260
901 269
905 279
910 288
910 298
915 307
915 317
920 326
920 336
920 346
925 355
926 365
930 375
931 385
935 395
940 404
940 414
945 423
945 433
949 443
950 453
954 463
955 473
959 483
960 493
960 503
965 512
965 522
971 530
975 540
975 550
975 560
975 570
975 580
976 590
980 600
980 610
985 619
990 628
990 638
990 648
990 658
990 668
994 678
995 688
1003 695
1005 705
1005 715
1005 725
1006 735
1010 745
1010 755
1015 764
1020 773
1020 783
1020 793
1020 803
1025 812
1025 822
1029 832
1030 842
1030 852
1035 861
1035 871
1040 880
1040 890
1041 900
1045 910
1045 920
1050 929
1050 939
1050 949
1055 958
1055 968
1063 975
1066 985
1071 994
1075 1004
1080 1013
1085 1022
1089 1032
1094 1041
1095 1051
1095 1061
1095 1071
1100 1080
1101 1090
1110 1095
1120 1095
1129 1100
1138 1105
1147 1110
1156 1115
1166 1119
1174 1125
1183 1130
1192 1135
1199 1143
1209 1146
1215 1154
1223 1160
1229 1168
1237 1175
1244 1183
1252 1190
1256 1200
1264 1206
1270 1214
1275 1223
1279 1233
1284 1242
1289 1251
1290 1261
1295 1270
1296 1280
1301 1289
1305 1299
1310 1308
1310 1318
1314 1328
1315 1338
1315 1348
1320 1357
1320 1367
1320 1377
1320 1387
1325 1396
1325 1406
1325 1416
1325 1426
1325 1436
1325 1446
1325 1456
1325 1466
1325 1476
1320 1485
1320 1495
1320 1505
1320 1515
1320 1525
1320 1535
1321 1545
1325 1555
1325 1565
1325 1575
1325 1585
1325 1595
1325 1605
1320 1620
1320 1630
1320 1640
1320 1650
1321 1660
1329 1666
1335 1674
1343 1680
1349 1688
1354 1697
1361 1705
1370 1710
1378 1716
1388 1720
1394 1728
1400 1736
1406 1744
1414 1751
1420 1759
1425 1768
1433 1775
1436 1785
1444 1791
1448 1801
1453 1810
1459 1818
1464 1827
1465 1837
1470 1846
1473 1856
1475 1866
1480 1875
1481 1885
1485 1895
1486 1905
1490 1915
1495 1924
1495 1934
1495 1944
1495 1954
1495 1964
1495 1974
1495 1984
1495 1994
1495 2004
1495 2014
1495 2024
1495 2034
1495 2044
1490 2060
1490 2070
1485 2085
1485 2095
1480 2105
1475 2120
1470 2130
1465 2140
1460 2150
1455 2160
1450 2170
1445 2180
1438 2193
1433 2203
1425 2210
1418 2223
1410 2230
1405 2245
1395 2250
1388 2258
1380 2265
1370 2270
1361 2275
1352 2280
1344 2287
1334 2292
1324 2297
1314 2302
1304 2307
1294 2312
1284 2315
1275 2320
1265 2320
1256 2325
1246 2325
1237 2330
1227 2334
1217 2335
1207 2335
1198 2340
1188 2340
1178 2340
1168 2340
1158 2340
1148 2340
1138 2340
1128 2340
1118 2340
1108 2340
1098 2340
1088 2339
1078 2335
1068 2335
1058 2335
1048 2334
1038 2330
1028 2330
1018 2330
1009 2325
1000 2320
990 2316
980 2313
971 2308
961 2305
952 2300
943 2295
934 2290
924 2286
916 2280
908 2274
900 2268
894 2260
886 2254
880 2246
875 2237
868 2229
860 2223
856 2213
851 2204
845 2196
840 2187
835 2178
830 2169
825 2160
820 2151
815 2142
810 2133
806 2123
801 2114
798 2104
793 2095
790 2085
785 2076
785 2066
785 2056
785 2046
785 2036
785 2026
785 2016
784 2006
780 1996
780 1986
785 1971
790 1961
790 1951
790 1941
795 1931
795 1921
800 1911
805 1901
805 1891
810 1876
810 1866
818 1859
820 1846
820 1836
825 1821
830 1806
835 1796
840 1786
840 1776
845 1761
845 1751
850 1739
845 1730
844 1720
839 1711
835 1701
830 1692
825 1683
825 1673
820 1664
815 1655
810 1646
805 1637
800 1628
796 1618
791 1609
788 1599
783 1590
779 1580
774 1571
770 1561
765 1552
760 1543
755 1534
751 1524
750 1514
745 1505
743 1495
740 1485
738 1475
735 1465
730 1456
730 1446
729 1436
725 1426
725 1416
725 1406
725 1396
725 1386
725 1376
725 1366
725 1356
725 1346
730 1331
730 1321
735 1306
740 1296
740 1286
745 1271
750 1261
755 1251
760 1241
765 1231
770 1221
775 1211
780 1201
788 1194
795 1186
803 1179
808 1169
815 1161
820 1151
828 1144
833 1134
840 1126
840 1116
848 1110
857 1105
865 1096
870 1086
878 1079
880 1063
880 1053
880 1043
876 1033
870 1025
870 1015
870 1005
868 995
864 985
859 976
855 966
850 957
845 948
845 938
845 928
840 919
840 909
840 899
840 889
835 880
835 870
830 861
830 851
825 842
825 832
820 823
820 813
815 804
815 794
810 785
810 775
810 765
808 755
805 745
805 735
805 725
800 716
800 706
800 696
799 686
795 676
795 666
795 656
790 647
790 637
785 628
780 619
780 609
780 599
775 590
770 581
770 571
770 561
770 551
765 542
765 532
760 523
755 514
755 504
751 494
750 484
746 474
745 464
741 454
740 444
736 434
733 424
728 415
724 405
716 399
709 391
701 385
692 380
683 375
674 370
666 364
660 356
655 347
650 338
644 330
636 324
633 314
625 308
619 300
611 293
606 284
600 276
600 266
600 256
600 246
600 236
