79 312
79 302
89 299
99 299
109 299
119 299
129 299
139 299
149 299
159 299
169 299
179 299
189 299
199 299
209 299
219 299
229 299
239 299
249 299
259 299
269 299
279 299
289 299
299 299
309 299
319 299
329 299
339 299
349 299
359 299
369 299
379 299
389 299
399 299
409 299
419 299
429 299
439 299
449 299
459 299
469 299
479 299
489 299
499 299
509 299
519 299
529 299
539 299
549 299
559 299
569 299
579 299
589 299
599 299
609 299
619 299
629 299
639 299
649 299
659 299
669 299
679 299
689 299
699 299
709 299
719 299
729 299
739 299
749 299
759 299
769 299
779 299
789 299
799 299
809 299
819 299
829 299
839 299
849 299
859 299
869 299
879 299
889 299
899 299
909 299
919 299
929 299
939 295
939 285
935 275
925 275
919 267
919 257
919 247
919 237
919 227
919 217
919 207
919 197
919 187
919 177
919 167
919 157
919 147
929 144
939 144
949 144
959 144
969 144
979 144
989 144
999 144
1009 144
1019 144
1029 144
1039 144
1049 144
1059 144
1069 144
1079 144
1089 144
1099 144
1109 144
1119 144
1129 144
1139 144
1149 144
1159 146
1160 156
1160 166
1160 176
1160 186
1160 196
1160 206
1160 216
1160 226
1160 236
1160 246
1160 256
1160 266
1150 275
1140 275
1140 285
1140 295
1140 305
1140 315
1140 325
1140 335
1140 345
1140 355
1140 365
1140 375
1140 385
1140 395
1140 405
1135 415
1135 425
1130 440
1125 450
1120 460
1120 470
1113 483
1108 493
1100 500
1093 513
1088 523
1080 530
1075 540
1068 553
1063 563
1055 570
1048 578
1040 585
1030 590
1023 598
1015 605
1005 605
995 610
987 619
977 624
968 630
958 633
948 638
938 640
929 645
919 647
909 650
904 637
909 627
914 617
914 607
919 592
924 582
924 572
924 562
929 552
929 542
934 532
934 522
934 512
939 502
939 492
939 482
939 472
944 455
944 445
944 435
944 425
935 420
925 420
915 420
905 420
895 420
885 420
875 420
865 420
855 420
845 420
835 420
825 420
815 420
805 420
795 420
785 420
775 420
765 420
755 420
745 420
735 420
725 420
715 420
705 420
695 420
685 420
675 420
665 420
655 420
645 420
635 420
625 420
615 420
605 420
595 420
585 420
575 420
565 420
555 420
545 420
535 420
525 420
515 420
505 420
495 420
485 420
475 420
465 420
455 420
445 420
435 420
425 420
415 420
405 420
395 420
385 420
375 420
365 420
355 420
345 420
335 420
325 420
315 420
305 420
295 420
285 420
275 420
265 420
255 420
245 420
235 420
225 420
215 420
205 420
195 420
185 420
175 420
165 420
155 420
145 420
135 420
125 420
115 420
105 420
95 420
85 420
79 412
79 402
79 392
79 382
79 372
79 362
79 352
79 342
79 332
79 322
