639 1122
639 1112
644 1102
644 1092
644 1082
649 1067
649 1057
649 1047
654 1032
659 1017
664 1007
669 997
674 987
679 977
684 967
692 959
694 947
699 937
704 927
709 912
714 902
722 894
727 884
729 872
734 862
742 854
750 846
758 839
764 827
772 819
779 807
784 797
792 789
800 781
808 774
815 766
823 759
832 754
840 746
848 739
857 734
865 726
873 719
882 714
892 709
901 704
911 700
921 695
929 689
938 684
947 679
957 674
967 674
977 669
987 669
996 664
1004 657
1012 649
1022 644
1024 633
1020 623
1019 613
1015 603
1014 593
1009 584
1009 574
1009 564
1006 554
1001 545
992 540
985 532
977 525
974 515
966 509
962 499
957 490
954 480
949 471
949 461
944 452
944 442
944 432
944 422
944 412
944 402
944 392
949 382
949 372
954 362
959 347
964 337
972 329
980 321
988 314
997 309
1006 304
1014 297
1022 289
1032 284
1041 279
1049 272
1057 264
1067 259
1077 259
1087 254
1097 249
1107 249
1117 249
1127 249
1137 244
1147 239
1157 234
1167 234
1177 234
1187 234
1197 234
1207 234
1217 234
1227 234
1237 234
1247 234
1257 234
1267 229
1277 229
1287 229
1297 229
1307 229
1317 229
1327 229
1337 229
1347 229
1357 229
1367 229
1376 234
1385 239
1394 244
1404 244
1414 244
1424 244
1434 246
1444 249
1454 249
1463 254
1473 255
1482 260
1492 264
1501 269
1510 274
1518 280
1525 288
1533 295
1540 303
1550 307
1558 314
1567 319
1576 324
1584 331
1590 339
1595 348
1603 355
1607 365
1612 374
1615 384
1620 393
1625 402
1630 411
1635 420
1635 430
1640 439
1640 449
1640 459
1635 470
1635 480
1635 490
1635 500
1630 510
1623 523
1615 530
1608 538
1600 545
1592 554
1584 560
1575 565
1570 575
1565 585
1565 595
1565 605
1565 615
1560 625
1560 635
1555 650
1555 660
1560 669
1570 669
1579 674
1587 680
1597 684
1606 689
1615 694
1625 694
1634 699
1642 705
1650 712
1660 714
1669 719
1677 725
1687 729
1696 734
1704 741
1710 749
1718 755
1725 763
1733 770
1740 778
1750 782
1757 790
1765 797
1769 807
1774 816
1778 826
1780 836
1786 844
1790 854
1798 860
1802 870
1810 877
1815 886
1820 895
1825 904
1830 913
1838 920
1842 930
1845 940
1850 949
1855 958
1855 968
1860 977
1860 987
1860 997
1865 1006
1870 1015
1875 1024
1875 1034
1875 1044
1880 1053
1880 1063
1885 1072
1885 1082
1889 1092
1890 1102
1890 1112
1895 1121
1895 1131
1895 1141
1895 1151
1895 1161
1895 1171
1895 1181
1895 1191
1895 1201
1895 1211
1895 1221
1895 1231
1895 1241
1895 1251
1895 1261
1895 1271
1895 1281
1895 1291
1895 1301
1895 1311
1895 1321
1895 1331
1890 1340
1890 1350
1885 1360
1885 1370
1880 1385
1880 1395
1880 1405
1880 1415
1878 1428
1873 1438
1865 1445
1860 1455
1860 1465
1855 1475
1850 1485
1845 1495
1838 1508
1830 1515
1825 1525
1820 1540
1820 1550
1815 1560
1808 1573
1800 1580
1795 1590
1790 1600
1785 1610
1780 1625
1773 1638
1765 1645
1765 1655
1760 1665
1753 1678
1745 1685
1738 1698
1730 1705
1723 1718
1715 1725
1708 1733
1700 1740
1693 1753
1685 1760
1678 1768
1670 1775
1665 1785
1660 1795
1655 1805
1648 1813
1640 1820
1633 1828
1625 1835
1618 1848
1610 1855
1603 1863
1595 1870
1588 1878
1580 1885
1570 1890
1563 1898
1558 1908
1550 1915
1543 1923
1533 1928
1525 1935
1518 1943
1510 1950
1500 1955
1493 1963
1485 1970
1490 1979
1498 1985
1505 1993
1510 2002
1515 2011
1515 2021
1518 2031
1520 2041
1520 2051
1520 2061
1520 2071
1518 2083
1513 2093
1508 2103
1503 2113
1495 2120
1488 2133
1480 2140
1473 2148
1465 2155
1456 2160
1447 2165
1437 2169
1427 2174
1417 2179
1407 2184
1399 2190
1390 2195
1382 2204
1372 2209
1363 2215
1354 2220
1344 2222
1334 2225
1325 2230
1315 2230
1305 2230
1295 2230
1285 2230
1275 2230
1265 2230
1255 2230
1245 2230
1235 2230
1225 2230
1215 2230
1206 2225
1196 2225
1186 2225
1176 2223
1166 2220
1156 2220
1147 2215
1137 2214
1127 2210
1117 2210
1108 2205
1098 2205
1089 2200
1079 2200
1069 2200
1060 2195
1050 2195
1041 2190
1032 2185
1023 2180
1014 2175
1004 2171
996 2165
987 2160
980 2152
972 2145
963 2140
955 2133
949 2125
941 2119
934 2111
929 2102
929 2092
929 2082
929 2072
929 2062
929 2052
929 2042
934 2032
939 2022
947 2014
955 2006
963 1999
967 1989
975 1981
973 1970
965 1963
958 1955
950 1948
943 1940
935 1933
931 1923
926 1914
919 1906
914 1897
907 1889
899 1882
895 1872
890 1863
884 1855
876 1848
871 1839
869 1829
864 1820
859 1811
854 1802
850 1792
844 1784
839 1775
837 1765
830 1757
825 1748
819 1740
814 1731
809 1722
804 1713
799 1704
794 1695
789 1686
784 1677
779 1668
772 1660
769 1650
764 1641
759 1632
754 1623
749 1614
747 1604
742 1595
739 1585
734 1576
729 1567
724 1558
720 1548
719 1538
714 1529
714 1519
709 1510
709 1500
707 1490
704 1480
696 1473
691 1464
687 1454
682 1445
679 1435
674 1426
669 1417
665 1407
660 1398
659 1388
659 1378
654 1369
654 1359
649 1350
649 1340
649 1330
644 1321
639 1312
639 1302
639 1292
639 1282
639 1272
639 1262
639 1252
639 1242
639 1232
639 1222
639 1212
639 1202
639 1192
639 1182
639 1172
639 1162
639 1152
639 1142
639 1132
