24 202
24 192
32 184
40 176
50 171
58 164
65 156
73 149
82 144
92 139
102 139
111 134
121 130
131 129
141 129
151 129
161 129
171 129
181 125
191 129
201 129
211 129
221 129
231 129
241 129
251 129
261 129
271 129
280 134
290 134
300 134
309 129
318 124
325 116
333 109
342 104
352 99
359 87
367 79
377 79
385 71
395 69
405 66
415 64
425 67
435 69
445 69
455 72
465 74
473 80
480 88
480 98
485 107
478 118
473 128
465 135
465 145
470 154
480 154
490 151
498 144
507 139
517 134
525 126
533 119
543 119
550 111
560 106
570 107
580 109
589 104
599 106
609 109
619 111
628 116
638 119
647 124
656 129
665 134
675 137
680 146
686 154
696 154
704 161
713 166
720 174
730 177
739 182
747 189
756 194
765 199
764 212
754 215
744 215
735 220
725 220
715 220
705 220
695 225
697 235
707 239
716 244
725 249
735 249
745 249
755 252
763 259
772 254
782 254
791 259
801 259
810 254
820 254
830 254
839 249
848 254
858 254
868 255
878 259
888 259
897 254
906 259
916 259
926 259
935 264
945 264
955 267
963 274
973 274
983 275
990 283
990 293
998 300
1005 308
1010 317
1014 327
1010 345
1010 355
1008 373
1003 383
995 390
987 399
978 405
968 405
959 410
949 412
939 417
929 420
919 420
909 420
899 420
889 420
880 415
870 415
860 412
852 405
842 404
834 397
825 392
815 388
806 383
796 380
786 380
776 378
766 375
757 380
747 380
738 375
728 375
718 375
709 370
700 375
690 372
680 370
670 370
660 367
650 365
640 365
642 375
652 379
659 387
667 394
677 394
686 399
694 406
700 414
699 427
689 430
679 430
669 430
659 430
649 430
639 430
629 430
619 430
609 430
599 430
590 425
580 425
570 422
560 420
550 420
540 418
533 410
524 405
514 402
507 394
497 390
490 382
485 373
479 365
474 356
466 350
457 345
447 345
437 345
427 345
417 345
407 345
398 340
388 340
379 345
370 340
360 340
350 337
340 335
330 335
320 335
325 344
335 344
343 350
347 360
357 364
366 369
375 374
384 379
394 381
400 389
410 389
412 404
402 405
393 400
384 395
374 392
365 387
355 385
347 379
337 375
328 370
318 370
309 365
299 365
289 365
280 360
270 358
264 350
256 344
249 336
241 330
232 325
223 320
213 320
204 315
194 315
185 310
175 307
165 305
155 305
147 299
137 295
127 295
120 287
110 285
100 285
92 279
82 275
72 275
65 267
57 260
50 252
40 248
34 240
34 230
29 221
29 211
