239 1726
234 1717
242 1709
244 1697
244 1687
244 1677
252 1669
259 1657
264 1647
269 1637
269 1627
277 1619
284 1606
279 1597
279 1587
279 1577
287 1569
289 1557
297 1549
305 1541
313 1534
323 1534
332 1529
341 1524
350 1519
354 1502
362 1494
372 1489
380 1481
385 1471
393 1464
397 1454
402 1444
411 1439
419 1432
427 1424
434 1412
442 1404
450 1396
458 1389
465 1381
469 1362
477 1354
487 1349
495 1341
503 1334
510 1326
518 1319
525 1311
533 1304
540 1296
548 1289
555 1281
563 1274
569 1266
564 1257
560 1247
552 1240
545 1232
540 1223
534 1215
526 1209
522 1199
517 1190
514 1180
509 1171
504 1162
499 1153
494 1144
494 1134
491 1124
487 1114
482 1105
479 1095
479 1085
474 1076
474 1066
474 1056
469 1047
477 1039
479 1027
487 1019
495 1011
503 1004
510 996
518 989
527 984
536 979
545 974
555 974
565 971
575 969
585 966
593 959
602 964
612 964
621 969
631 969
641 969
650 974
660 974
670 977
680 979
689 984
699 984
707 990
715 997
722 1005
727 1014
730 1024
730 1034
735 1043
740 1052
745 1061
751 1069
760 1074
769 1067
777 1059
785 1051
793 1044
800 1036
808 1029
804 1019
799 1010
799 1000
798 990
790 983
784 975
784 965
784 955
784 945
779 936
774 927
774 917
779 907
772 899
764 892
764 882
764 872
764 862
764 852
764 842
764 832
769 821
764 812
769 802
769 792
777 784
779 772
784 762
792 754
802 749
811 744
820 739
829 732
837 724
845 716
855 711
865 706
875 704
884 697
892 689
902 684
912 679
922 679
930 671
938 664
947 659
957 659
965 651
970 641
980 639
989 634
998 629
1005 621
1013 614
1023 614
1030 606
1038 599
1048 599
1055 591
1063 584
1067 574
1076 569
1086 569
1094 562
1102 554
1112 554
1122 549
1130 541
1140 536
1150 531
1160 532
1170 529
1179 524
1188 519
1197 514
1206 509
1215 514
1223 520
1225 530
1223 543
1215 550
1215 560
1208 568
1200 575
1200 585
1195 595
1190 605
1183 613
1175 620
1170 630
1170 640
1170 650
1163 658
1155 665
1150 680
1145 690
1140 705
1140 715
1150 716
1158 709
1165 701
1175 696
1183 689
1187 679
1196 674
1204 667
1212 659
1220 651
1225 641
1233 634
1240 626
1248 619
1257 614
1267 614
1275 606
1280 596
1288 589
1295 581
1303 574
1312 569
1320 561
1328 554
1335 546
1343 539
1349 527
1354 517
1359 507
1367 499
1375 491
1383 484
1390 476
1395 466
1400 456
1408 449
1417 444
1419 427
1427 419
1435 411
1443 404
1447 394
1452 384
1459 367
1467 359
1474 342
1482 334
1490 326
1494 307
1502 299
1507 289
1512 279
1520 271
1528 264
1529 247
1534 232
1539 222
1547 214
1555 206
1565 201
1575 196
1585 194
1595 194
1604 189
1613 184
1622 179
1631 184
1640 189
1650 189
1660 189
1669 194
1677 200
1685 207
1694 212
1704 216
1710 224
1715 233
1725 237
1732 245
1740 252
1747 260
1750 270
1755 279
1760 288
1760 305
1760 315
1760 325
1760 335
1760 345
1753 358
1748 368
1740 375
1738 388
1730 395
1723 403
1715 410
1710 420
1702 434
1693 440
1684 445
1675 450
1668 458
1660 465
1652 474
1643 480
1634 485
1625 490
1617 499
1609 505
1600 510
1593 518
1583 523
1575 530
1568 538
1558 543
1548 548
1540 555
1533 563
1525 570
1518 578
1510 585
1503 593
1495 600
1487 609
1479 615
1469 615
1463 623
1455 630
1448 638
1440 645
1433 653
1425 660
1415 665
1410 675
1405 690
1397 699
1389 705
1380 710
1375 720
1368 728
1360 735
1353 743
1345 750
1345 760
1338 773
1330 780
1323 788
1313 793
1305 800
1298 808
1290 815
1290 825
1283 833
1275 840
1275 850
1285 854
1294 849
1303 844
1312 839
1322 839
1331 834
1341 834
1350 829
1360 829
1370 826
1378 819
1387 814
1397 809
1407 809
1416 804
1425 809
1430 818
1433 828
1428 838
1420 845
1415 855
1408 868
1400 875
1395 885
1388 898
1380 905
1373 913
1365 920
1365 930
1358 938
1350 945
1345 955
1338 963
1330 970
1320 975
1315 990
1310 1000
1303 1008
1293 1013
1285 1020
1278 1028
1270 1035
1263 1043
1255 1050
1248 1058
1240 1065
1233 1073
1225 1080
1220 1090
1213 1098
1203 1103
1195 1110
1188 1118
1180 1125
1172 1134
1163 1140
1153 1143
1145 1150
1136 1155
1126 1155
1117 1160
1108 1165
1098 1165
1088 1165
1079 1160
1070 1155
1060 1160
1050 1160
1040 1160
1030 1165
1020 1170
1013 1178
1008 1188
998 1193
990 1200
985 1210
980 1220
973 1228
968 1238
963 1248
955 1255
948 1263
940 1270
933 1278
925 1285
920 1295
913 1303
905 1310
915 1314
924 1307
930 1296
938 1289
945 1281
953 1274
962 1269
970 1261
980 1259
989 1254
998 1249
1007 1244
1017 1244
1026 1239
1034 1232
1044 1231
1050 1239
1048 1258
1043 1268
1035 1275
1025 1280
1018 1288
1010 1295
1005 1305
998 1313
988 1318
980 1325
973 1333
965 1340
960 1350
955 1360
948 1373
940 1380
933 1388
925 1395
920 1405
913 1418
905 1425
898 1433
890 1440
883 1448
875 1455
868 1463
860 1470
853 1478
848 1488
840 1495
832 1504
824 1510
815 1515
808 1523
800 1530
790 1530
780 1530
770 1530
760 1530
750 1530
740 1530
731 1525
722 1520
713 1515
703 1515
693 1518
685 1525
678 1533
670 1540
665 1550
658 1558
650 1565
643 1573
638 1583
630 1590
623 1598
618 1608
610 1615
603 1623
593 1628
585 1635
578 1648
570 1655
563 1663
553 1668
545 1675
537 1685
528 1690
519 1695
510 1700
503 1708
493 1713
483 1718
475 1725
468 1733
460 1740
450 1740
445 1750
435 1755
425 1755
415 1760
406 1765
397 1770
388 1775
379 1780
369 1782
359 1785
349 1785
339 1785
330 1790
320 1790
310 1790
300 1788
294 1780
284 1780
275 1775
265 1775
257 1769
249 1762
249 1752
244 1735
