34 437
42 429
39 416
34 407
42 399
50 391
58 384
67 379
76 374
86 370
94 364
103 359
113 359
122 354
132 354
142 349
151 344
161 344
170 339
180 339
190 339
199 334
208 329
218 329
227 324
237 324
247 324
256 319
266 319
276 319
285 314
295 314
305 314
314 309
324 309
334 307
342 299
352 299
362 299
371 294
381 294
389 282
397 274
399 257
404 247
409 237
409 227
414 217
419 207
427 199
435 191
443 184
452 179
462 179
472 174
482 174
491 179
501 175
511 179
520 184
528 190
535 198
543 205
547 215
552 224
560 230
565 239
565 249
573 255
583 254
589 242
597 234
599 222
607 214
612 204
620 196
628 189
637 184
645 176
653 169
662 164
671 159
680 154
690 151
700 146
710 144
720 141
728 134
738 134
748 134
757 129
767 129
777 129
787 124
797 124
807 119
817 119
827 119
837 119
846 114
855 109
865 109
875 109
885 109
895 106
905 104
915 104
924 99
934 99
944 99
954 99
964 99
974 99
984 99
994 99
1003 104
1013 104
1022 109
1031 114
1041 114
1049 121
1053 131
1047 144
1037 149
1028 155
1019 160
1010 165
1000 170
993 178
985 185
975 190
980 199
990 196
1000 194
1010 194
1020 191
1030 189
1039 184
1048 179
1055 171
1065 166
1075 161
1083 154
1093 154
1100 146
1108 139
1118 139
1127 134
1135 126
1145 124
1154 119
1163 114
1173 114
1180 106
1190 104
1200 104
1210 101
1218 94
1228 94
1238 94
1247 89
1257 89
1267 84
1277 84
1287 84
1297 84
1307 84
1317 84
1327 79
1337 79
1347 79
1356 84
1366 84
1376 84
1385 89
1395 92
1404 97
1414 99
1423 104
1432 109
1441 114
1451 114
1460 119
1465 128
1470 137
1470 147
1465 160
1465 170
1458 178
1450 185
1445 195
1437 204
1427 209
1418 215
1409 220
1400 225
1391 230
1382 235
1372 239
1363 245
1353 248
1343 253
1333 258
1323 260
1313 260
1304 265
1294 265
1284 265
1275 270
1265 270
1255 270
1246 275
1236 275
1226 275
1217 280
1207 280
1197 280
1188 285
1179 280
1169 280
1160 285
1150 285
1140 285
1130 285
1120 285
1110 285
1100 285
1090 282
1080 280
1070 282
1060 280
1050 280
1040 285
1030 285
1020 285
1010 285
1000 285
990 290
995 299
1005 299
1015 299
1025 299
1034 304
1044 304
1054 306
1055 320
1047 334
1037 335
1029 342
1019 347
1009 350
1000 355
990 360
980 360
971 365
962 370
952 370
942 374
934 380
924 380
915 385
905 385
895 385
888 393
878 395
868 395
858 398
848 400
838 400
829 405
820 410
810 410
801 415
791 415
781 415
771 415
761 415
751 415
741 414
732 409
722 405
712 405
703 400
693 400
684 395
675 390
665 390
656 395
647 400
637 400
627 404
617 405
607 405
598 410
588 410
578 413
570 420
560 420
550 420
540 425
530 425
520 425
510 430
500 430
505 439
513 445
515 455
507 464
497 465
488 470
478 470
468 470
459 475
449 475
439 477
429 480
419 480
409 482
399 485
389 485
379 487
369 490
360 485
350 485
340 490
331 485
322 480
315 472
305 470
295 470
285 470
275 470
265 470
255 475
245 475
235 475
225 480
215 480
205 480
195 480
185 480
175 480
165 477
155 475
145 475
135 475
126 470
116 470
107 465
97 465
87 465
78 460
68 460
59 455
51 449
42 444
