84 737
84 727
92 719
97 709
102 699
107 689
115 681
123 674
130 666
138 659
142 649
150 641
158 634
165 626
173 619
180 611
188 604
195 596
205 591
213 584
220 576
228 569
237 564
245 556
253 549
260 541
268 534
275 526
280 516
290 511
298 504
305 496
309 477
314 462
319 452
319 442
324 432
324 422
332 414
340 406
350 401
360 399
370 399
380 399
390 399
400 402
410 404
420 404
429 409
439 409
449 411
459 414
468 409
477 404
487 399
497 394
507 389
517 384
524 372
532 364
539 352
547 344
555 336
560 326
568 319
577 314
586 309
595 304
604 297
614 292
624 287
634 282
642 274
652 269
662 264
672 264
681 259
690 254
699 249
709 249
718 244
727 239
736 234
746 234
755 229
764 222
774 219
784 217
794 214
804 212
812 204
822 204
832 204
841 209
845 219
838 228
833 238
825 245
830 254
839 249
848 244
857 239
865 231
873 224
882 219
891 214
899 207
909 202
919 197
929 192
937 184
947 179
957 174
967 169
976 164
985 159
994 154
1004 154
1013 149
1023 149
1033 149
1042 144
1052 144
1061 139
1071 139
1081 139
1091 139
1099 146
1108 151
1115 159
1120 168
1120 180
1122 190
1120 200
1115 210
1110 220
1103 233
1095 240
1087 249
1078 255
1069 260
1060 265
1050 270
1040 275
1033 283
1023 288
1013 293
1003 298
993 303
983 305
974 310
965 315
955 315
946 320
936 320
927 325
918 330
908 330
899 335
890 340
880 345
871 350
862 355
853 360
843 363
833 368
823 373
815 380
820 389
830 387
840 389
850 392
857 400
860 410
853 418
845 425
836 430
827 435
818 440
809 445
800 450
790 455
780 455
770 460
760 465
752 474
742 475
732 479
722 484
712 485
703 490
694 495
684 495
674 495
664 495
654 495
644 495
634 495
624 495
615 500
607 509
598 515
589 520
580 525
570 530
560 535
550 540
543 548
533 553
523 558
515 565
520 574
530 577
523 588
515 595
507 604
499 610
490 615
483 623
473 628
463 633
455 640
445 640
436 645
426 645
416 645
406 645
397 650
387 654
377 655
367 655
357 655
348 660
338 660
329 665
320 670
311 675
302 680
293 685
284 690
275 695
265 700
255 705
248 713
238 718
228 720
218 723
208 728
198 730
189 735
179 737
169 740
160 745
150 745
140 745
131 750
121 750
112 755
102 755
92 754
84 747
