124 957
124 947
129 937
137 929
146 924
154 917
164 912
172 904
182 899
187 889
194 877
194 867
194 857
194 847
199 831
199 821
199 811
199 801
194 792
194 782
194 772
194 762
194 752
194 742
194 732
194 722
194 712
194 702
199 692
199 682
204 672
204 662
209 652
217 644
219 627
224 612
229 602
237 594
242 584
249 572
257 564
265 556
273 549
282 544
290 536
300 531
308 524
317 519
327 519
336 514
346 514
356 514
366 514
376 514
386 514
395 519
399 501
399 491
399 481
394 472
394 462
394 452
394 442
394 432
394 422
394 412
394 402
394 392
394 382
394 372
399 362
399 352
399 342
399 332
404 317
404 307
409 297
409 287
414 277
414 267
419 252
424 237
429 227
434 217
439 202
444 192
452 184
457 174
462 164
469 152
477 144
482 134
490 126
498 119
505 111
513 104
520 96
528 89
537 84
545 76
555 71
563 64
572 59
582 59
591 54
600 49
610 49
620 46
630 44
640 44
650 44
660 44
670 44
679 49
689 49
699 51
708 56
718 59
727 64
736 69
745 74
753 80
762 85
770 92
777 100
785 107
792 115
800 122
807 130
815 137
819 147
825 155
830 164
835 173
840 182
847 190
852 199
855 209
860 218
865 227
869 237
870 247
875 256
878 266
880 276
883 286
885 296
888 306
890 316
890 326
895 335
895 345
895 355
895 365
900 374
900 384
900 394
900 404
900 414
900 424
900 434
900 444
900 454
900 464
895 475
895 485
895 495
895 505
890 515
890 525
885 540
895 544
905 544
915 544
925 544
935 544
945 547
954 552
964 556
973 561
980 569
990 572
997 580
1005 587
1012 595
1020 602
1025 611
1030 620
1035 629
1040 638
1040 648
1045 657
1045 667
1050 676
1050 686
1050 696
1053 706
1055 716
1055 726
1055 736
1055 746
1055 756
1055 766
1055 776
1060 785
1060 795
1060 805
1062 815
1065 825
1070 834
1075 843
1080 852
1080 862
1087 870
1092 879
1099 887
1104 896
1110 904
1115 913
1120 922
1125 931
1123 948
1118 958
1110 965
1100 970
1090 975
1080 975
1071 970
1062 965
1055 957
1050 948
1044 940
1039 931
1034 922
1027 914
1022 905
1015 897
1010 888
1009 878
1004 869
999 860
994 851
994 841
989 822
984 803
981 784
979 774
979 764
979 748
979 738
979 728
979 718
975 708
974 698
974 688
974 678
969 669
966 659
962 649
954 642
947 634
939 627
930 622
920 620
910 620
900 620
890 620
880 620
870 620
860 620
865 629
875 632
885 634
894 639
902 645
910 652
917 660
925 667
929 677
935 685
940 694
945 703
953 710
957 720
960 730
962 740
965 750
970 759
970 769
970 779
970 789
975 798
975 808
980 817
980 827
985 836
985 846
985 856
985 866
985 876
985 886
985 896
985 906
985 916
985 926
985 936
985 946
985 956
985 966
985 976
985 986
985 996
985 1006
985 1016
985 1026
988 1036
995 1044
1000 1053
1000 1063
1005 1072
1000 1090
995 1100
987 1109
977 1114
967 1115
957 1114
947 1110
940 1102
934 1094
929 1085
927 1075
920 1067
915 1058
914 1048
910 1038
909 1028
909 1018
909 1008
909 998
909 988
909 978
909 968
909 958
909 948
909 938
909 928
909 918
909 908
909 898
909 888
909 878
909 868
909 858
909 848
909 838
899 800
894 776
894 766
889 757
889 747
882 739
877 730
870 722
865 713
858 705
849 700
839 700
830 695
820 695
825 704
834 709
842 715
850 722
854 732
860 740
865 749
870 758
878 765
882 775
885 785
887 795
890 805
895 814
895 824
900 833
900 843
900 853
900 863
900 873
900 883
900 893
895 910
895 920
895 930
895 940
890 950
890 960
890 970
885 985
885 995
880 1005
880 1015
880 1025
880 1035
880 1045
880 1055
880 1065
882 1075
887 1084
894 1092
899 1101
903 1111
908 1120
910 1130
905 1145
900 1155
892 1164
882 1169
872 1170
862 1170
853 1165
845 1158
839 1150
834 1141
829 1132
825 1122
819 1114
814 1105
809 1096
804 1087
804 1077
804 1067
804 1057
804 1047
804 1037
804 1027
804 1017
804 1007
804 997
809 982
814 972
814 962
814 952
814 942
819 927
819 917
819 907
824 894
824 884
824 874
824 864
824 854
824 844
821 834
819 824
814 815
814 805
809 796
804 787
797 779
792 770
783 765
773 765
763 765
754 770
744 770
735 775
737 785
747 789
754 797
760 805
765 814
765 824
770 833
775 842
780 851
780 861
780 871
783 881
785 891
785 901
785 911
785 921
785 931
785 941
785 951
785 961
785 971
780 980
780 990
775 1000
773 1013
768 1023
763 1033
758 1043
750 1050
750 1060
750 1070
750 1080
750 1090
750 1100
750 1110
755 1119
755 1129
760 1138
765 1147
772 1155
777 1164
780 1174
780 1184
785 1193
780 1210
775 1220
767 1229
757 1234
747 1235
737 1234
727 1230
720 1222
714 1214
709 1205
709 1195
704 1186
699 1177
692 1169
687 1160
684 1150
684 1140
679 1131
674 1122
674 1112
674 1102
674 1092
674 1082
674 1072
674 1062
674 1052
674 1042
679 1027
684 1017
692 1009
697 999
702 989
704 977
709 964
709 954
709 944
709 934
709 924
709 914
709 904
709 894
704 885
704 875
704 865
699 856
694 847
687 839
679 832
675 822
665 818
658 810
648 810
639 805
630 800
620 797
610 795
600 795
593 803
585 810
585 820
585 830
585 840
585 850
585 860
585 870
585 880
585 890
585 900
585 910
590 919
590 929
595 938
595 948
600 957
604 967
609 976
613 986
615 996
620 1005
620 1015
620 1025
620 1035
620 1045
622 1055
625 1065
625 1075
625 1085
625 1095
625 1105
620 1120
615 1135
610 1145
605 1155
600 1165
600 1175
598 1193
593 1203
585 1210
575 1215
568 1223
558 1228
548 1230
538 1230
529 1225
521 1219
514 1211
509 1202
509 1192
509 1182
514 1172
522 1164
524 1147
529 1137
537 1129
542 1119
547 1109
549 1091
549 1081
549 1071
544 1062
544 1052
544 1042
544 1032
544 1022
544 1012
539 1003
534 994
529 985
527 975
524 965
522 955
519 945
514 936
514 926
509 917
509 907
509 897
509 887
509 877
509 867
509 857
509 847
509 837
509 827
509 817
509 807
514 797
514 787
519 777
527 769
529 755
519 755
509 757
499 760
490 765
483 773
475 780
475 790
470 800
465 815
465 825
465 835
465 845
465 855
467 865
470 875
470 885
470 895
475 904
475 914
480 923
485 932
490 941
490 951
495 960
497 970
500 980
500 990
500 1000
502 1010
505 1020
505 1030
505 1040
505 1050
505 1060
500 1070
500 1080
500 1090
498 1103
493 1113
488 1123
483 1133
475 1140
468 1153
463 1163
455 1170
448 1178
440 1185
433 1193
423 1198
413 1200
403 1200
394 1195
386 1189
379 1181
374 1172
374 1162
374 1152
379 1142
387 1134
395 1126
403 1119
409 1107
417 1099
422 1089
424 1077
424 1067
429 1055
429 1045
429 1035
429 1025
427 1015
424 1005
424 995
424 985
419 976
419 966
414 957
409 948
404 939
404 929
399 920
399 910
394 901
394 891
394 881
389 872
389 862
389 852
389 842
389 832
389 822
389 812
394 802
394 792
399 777
404 767
404 757
409 747
417 739
422 729
430 721
438 714
445 706
453 699
462 694
455 685
445 685
435 685
425 685
415 690
405 695
397 704
389 710
380 715
375 725
370 735
365 750
365 760
360 770
360 780
360 790
360 800
360 810
360 820
360 830
360 840
362 850
365 860
367 870
370 880
372 890
375 900
380 909
380 919
380 929
380 939
380 949
380 959
380 969
380 979
380 989
375 1005
375 1015
370 1025
365 1040
363 1058
358 1068
350 1075
342 1089
334 1095
325 1100
315 1105
308 1113
298 1118
288 1120
278 1120
269 1115
261 1109
254 1101
249 1092
249 1082
249 1072
254 1062
262 1054
271 1049
279 1042
289 1037
294 1027
294 1017
299 1002
304 986
304 976
304 966
304 956
304 946
304 936
304 926
304 916
299 907
299 897
294 888
294 878
289 869
286 859
284 849
284 839
284 829
284 819
284 809
284 799
284 782
284 772
284 762
289 747
294 737
294 727
299 712
304 702
309 692
314 682
322 674
327 664
335 656
345 651
350 641
358 634
367 629
376 624
386 624
394 617
404 612
414 609
424 609
419 600
410 595
400 595
390 592
380 590
370 590
360 590
350 590
340 590
333 598
323 603
315 610
308 618
303 628
295 635
290 650
288 668
283 678
275 685
275 695
270 705
270 715
270 725
270 735
270 745
270 755
270 765
270 775
270 785
275 794
275 804
275 814
275 824
275 834
275 844
270 855
270 865
270 875
265 890
265 900
260 910
253 923
248 933
240 940
235 950
227 959
217 964
209 970
200 975
190 980
183 988
173 993
163 995
153 995
144 990
136 984
129 976
124 967
