349 412
349 402
354 387
359 377
364 367
369 357
377 349
384 337
392 329
400 321
408 314
417 309
427 304
437 304
446 299
456 295
466 294
476 294
485 289
495 289
505 289
515 289
524 284
534 284
544 284
554 284
564 284
574 284
584 284
594 284
604 284
614 284
624 284
634 284
644 284
654 284
664 284
674 284
684 284
694 284
704 284
714 284
724 284
733 289
743 289
753 289
763 289
773 289
783 289
793 289
803 289
813 289
823 290
833 294
843 294
853 294
863 294
873 294
883 294
893 294
903 294
913 294
923 294
933 294
943 294
953 294
963 294
973 294
983 294
993 294
1003 294
1012 299
1022 299
1032 299
1041 304
1050 309
1058 315
1067 320
1077 324
1086 329
1096 329
1106 329
1116 329
1126 329
1136 329
1146 329
1156 329
1165 334
1175 334
1185 334
1195 334
1205 334
1215 334
1225 334
1235 334
1245 334
1254 339
1264 339
1273 334
1283 335
1293 339
1303 339
1313 339
1323 339
1333 339
1343 339
1353 339
1363 339
1373 339
1383 339
1392 344
1402 344
1412 344
1421 339
1431 339
1440 344
1450 344
1460 344
1470 344
1480 344
1490 344
1500 344
1510 344
1520 344
1530 344
1540 344
1550 344
1560 344
1570 344
1580 344
1590 347
1599 352
1609 356
1619 359
1629 359
1639 359
1648 364
1658 364
1668 365
1678 369
1688 369
1697 374
1707 374
1717 374
1727 374
1736 379
1746 379
1756 379
1765 384
1775 384
1785 384
1794 389
1804 389
1814 389
1824 389
1834 389
1844 389
1854 389
1864 389
1874 389
1884 389
1893 384
1902 379
1912 379
1922 379
1929 387
1937 394
1946 399
1956 399
1966 399
1976 395
1986 394
1996 394
2005 389
2015 389
2025 389
2035 386
2045 384
2055 384
2065 384
2075 384
2084 379
2094 379
2104 381
2113 386
2120 394
2130 397
2137 405
2145 412
2154 417
2162 424
2171 429
2180 434
2185 443
2185 453
2177 469
2169 475
2160 480
2150 480
2140 485
2130 490
2120 495
2112 504
2102 509
2094 515
2085 520
2076 525
2066 523
2056 520
2046 518
2036 515
2026 515
2017 510
2007 510
1998 505
1988 505
1978 505
1968 505
1958 505
1949 500
1939 500
1930 505
1923 513
1915 520
1906 525
1897 520
1887 520
1878 515
1869 510
1859 510
1850 505
1840 505
1830 505
1820 505
1810 505
1800 505
1790 505
1780 505
1770 505
1760 510
1750 510
1740 510
1730 510
1720 510
1710 515
1700 515
1690 515
1680 515
1670 515
1660 520
1650 520
1640 520
1630 520
1620 520
1610 520
1600 525
1590 530
1580 535
1571 540
1561 540
1551 540
1541 540
1531 540
1521 540
1511 540
1501 540
1491 540
1481 540
1471 540
1461 540
1451 540
1441 540
1431 540
1421 540
1411 540
1401 540
1391 540
1381 540
1371 540
1361 540
1351 540
1342 535
1332 535
1322 535
1312 535
1302 535
1292 535
1282 535
1272 535
1262 535
1252 535
1242 535
1232 535
1222 535
1213 530
1203 530
1193 530
1183 530
1173 530
1163 530
1153 530
1143 530
1133 530
1123 530
1113 530
1103 530
1093 530
1083 530
1073 530
1063 530
1054 535
1045 540
1038 548
1030 555
1021 560
1011 560
1001 560
991 560
981 560
971 560
961 560
951 560
941 560
931 560
921 560
911 560
901 560
891 560
881 560
871 560
861 560
851 560
841 560
831 560
821 560
811 560
801 560
791 560
781 560
771 560
761 560
751 560
741 560
731 560
721 560
711 560
701 560
691 560
681 560
671 560
661 560
651 560
641 560
631 560
621 560
611 560
601 560
591 560
581 560
571 560
561 558
551 555
541 555
531 555
521 555
511 555
501 555
491 555
481 553
471 550
461 550
452 545
442 544
432 540
423 535
414 530
405 525
397 519
389 512
382 504
374 497
369 488
362 480
359 470
354 461
349 452
349 442
349 432
349 422
