289 737
289 727
294 717
294 707
302 699
310 691
318 684
324 667
324 657
324 647
324 637
324 627
329 617
334 607
339 597
344 587
352 579
362 574
367 564
372 554
381 549
391 549
400 544
410 544
419 539
429 537
439 534
449 534
459 534
469 532
479 529
489 527
499 524
509 524
519 524
528 519
538 519
548 519
558 519
567 514
577 509
585 501
590 491
598 484
602 474
604 462
604 452
604 442
612 434
620 426
630 421
640 419
650 419
660 419
670 419
678 425
685 433
690 442
685 460
680 470
675 480
665 485
655 490
645 495
634 490
624 490
615 495
620 504
630 504
640 504
650 504
660 504
670 501
680 499
690 499
700 496
710 494
720 494
730 494
740 491
750 489
760 489
770 489
780 489
790 489
799 484
809 484
819 482
829 479
839 479
849 479
858 474
867 469
877 464
885 456
893 449
900 441
908 434
915 426
923 419
930 411
939 402
949 397
957 389
965 381
973 374
980 366
990 361
1000 356
1008 349
1017 344
1025 336
1035 331
1045 326
1055 321
1065 316
1073 309
1080 301
1090 296
1100 291
1110 289
1119 284
1129 284
1138 279
1148 279
1158 279
1168 279
1177 274
1187 274
1197 274
1207 274
1217 274
1227 269
1237 269
1247 269
1257 269
1267 269
1277 269
1287 269
1297 269
1307 269
1317 269
1327 269
1337 269
1347 269
1357 269
1367 269
1377 269
1387 269
1397 269
1407 269
1417 269
1427 269
1437 269
1447 269
1457 269
1467 269
1477 269
1487 269
1497 269
1506 274
1516 274
1526 274
1536 274
1545 279
1555 279
1565 279
1575 279
1585 279
1595 282
1605 284
1615 284
1625 284
1635 284
1645 284
1654 289
1664 289
1673 294
1683 294
1693 294
1703 294
1713 294
1723 295
1733 299
1743 300
1753 304
1763 304
1772 309
1782 309
1792 309
1801 314
1810 319
1820 319
1829 324
1839 326
1845 334
1855 337
1862 345
1870 352
1879 357
1887 364
1894 372
1902 379
1909 387
1919 391
1925 399
1933 405
1940 413
1945 422
1954 427
1962 434
1969 442
1977 449
1984 457
1990 465
1995 474
2003 480
2010 488
2018 494
2027 499
2034 507
2042 514
2051 519
2060 524
2069 529
2079 531
2089 534
2098 539
2107 544
2116 549
2124 556
2130 564
2138 570
2145 578
2150 587
2155 596
2155 606
2158 616
2160 626
2160 636
2160 646
2160 656
2160 666
2160 676
2160 686
2160 696
2165 705
2170 714
2175 723
2180 732
2180 742
2175 755
2175 765
2168 773
2160 780
2153 788
2143 793
2135 800
2126 805
2117 810
2107 810
2098 815
2088 815
2078 818
2070 825
2070 835
2065 850
2063 863
2055 870
2050 880
2045 890
2040 900
2033 908
2025 915
2018 923
2010 930
2000 935
1990 940
1980 945
1970 950
1960 950
1950 950
1940 950
1930 950
1920 950
1911 945
1901 943
1891 939
1882 934
1872 930
1865 922
1857 915
1850 907
1842 900
1838 890
1830 883
1826 873
1821 864
1819 854
1814 845
1809 836
1801 830
1791 830
1781 830
1771 830
1761 830
1751 830
1741 830
1731 830
1722 825
1712 825
1703 830
1693 833
1683 835
1673 835
1663 835
1653 835
1643 835
1633 835
1623 835
1613 835
1604 840
1594 840
1585 845
1578 853
1570 860
1563 868
1553 873
1543 878
1533 883
1523 885
1514 890
1504 890
1494 890
1484 890
1475 885
1465 882
1455 880
1445 878
1439 870
1430 865
1421 860
1412 855
1402 855
1393 850
1383 850
1373 850
1363 850
1353 850
1343 853
1335 860
1328 868
1323 878
1318 888
1313 898
1305 905
1300 915
1295 925
1288 933
1280 940
1273 948
1265 955
1257 964
1249 970
1240 975
1230 980
1223 988
1213 990
1204 995
1194 995
1185 1000
1175 1000
1165 1000
1155 1000
1145 1000
1135 1000
1125 1000
1115 1000
1105 997
1095 995
1086 990
1076 988
1066 984
1057 979
1047 975
1038 970
1029 965
1021 959
1017 949
1009 942
1002 934
997 925
994 915
986 908
976 905
966 905
956 905
946 905
936 905
926 905
916 905
906 905
896 905
886 905
876 905
866 905
856 905
846 905
836 905
826 905
816 905
807 900
797 900
787 900
777 900
767 900
757 900
747 900
738 895
728 895
718 895
708 895
698 895
688 898
678 903
670 910
662 919
654 925
645 930
636 935
626 935
617 940
607 940
597 940
587 940
577 940
567 940
557 940
547 940
538 935
529 930
519 927
512 919
502 915
495 907
487 900
483 890
475 883
469 875
461 869
452 864
442 860
432 859
422 855
412 854
402 850
393 845
384 840
376 834
367 829
359 822
355 812
345 810
336 805
327 800
318 795
309 790
301 784
294 776
294 766
289 757
289 747
