634 1137
634 1127
642 1119
651 1114
660 1109
669 1104
679 1104
689 1104
699 1104
709 1104
719 1104
729 1104
739 1104
749 1104
758 1109
768 1109
777 1114
787 1114
796 1119
806 1119
815 1124
825 1127
834 1132
844 1134
854 1134
849 1125
847 1115
840 1107
835 1098
829 1090
824 1081
819 1072
819 1062
819 1052
819 1042
824 1032
824 1022
824 1012
824 1002
829 992
829 982
829 972
829 962
829 952
829 942
829 932
829 922
834 907
839 897
844 882
849 872
849 862
854 852
859 842
864 832
869 822
874 812
879 802
884 792
889 777
889 767
894 758
900 750
888 750
878 750
868 750
858 750
848 750
838 750
828 750
819 755
809 755
800 760
790 760
780 760
772 769
762 774
752 775
742 779
732 784
722 789
712 789
704 782
704 772
709 762
714 747
719 737
724 722
729 712
729 702
729 692
734 682
739 667
744 652
749 642
754 632
759 622
764 612
769 602
774 592
779 582
784 567
789 557
789 547
794 537
802 529
807 519
812 509
820 501
828 495
838 494
831 479
827 469
822 460
815 452
810 443
804 435
799 426
799 416
794 407
794 397
794 387
794 377
794 367
794 357
794 347
794 337
794 327
794 317
794 307
799 297
799 287
804 277
812 269
819 257
824 247
832 239
840 231
848 224
857 219
866 214
874 207
884 202
892 194
902 189
912 189
922 184
932 184
941 179
951 179
961 179
970 184
979 189
987 195
995 202
1002 210
1010 217
1015 226
1020 235
1022 245
1027 254
1034 262
1040 270
1045 279
1050 288
1050 300
1045 310
1040 325
1035 335
1030 345
1025 360
1020 375
1020 385
1015 395
1020 404
1030 404
1040 404
1050 404
1060 404
1070 404
1080 404
1090 404
1096 395
1099 382
1099 372
1099 362
1104 347
1104 337
1109 322
1114 307
1119 297
1127 289
1136 284
1145 279
1154 274
1164 274
1174 274
1184 274
1194 274
1204 274
1214 274
1224 274
1234 274
1244 274
1254 276
1264 279
1274 279
1284 281
1294 284
1303 289
1312 294
1321 299
1330 304
1338 310
1342 320
1347 329
1350 339
1350 349
1350 359
1355 368
1355 378
1355 388
1355 398
1350 415
1350 425
1345 440
1345 450
1340 460
1340 470
1335 480
1330 490
1325 500
1320 510
1313 523
1308 533
1300 540
1293 548
1285 555
1277 564
1267 569
1257 570
1247 570
1238 575
1228 578
1218 583
1208 585
1198 585
1188 585
1178 585
1168 585
1158 585
1148 585
1138 588
1128 593
1120 600
1115 610
1107 619
1099 625
1090 630
1080 630
1073 638
1063 643
1053 648
1045 655
1038 663
1028 668
1020 675
1028 681
1038 684
1047 689
1057 689
1066 694
1075 699
1084 704
1093 709
1102 714
1111 719
1120 724
1128 730
1132 740
1137 749
1140 759
1148 765
1158 769
1168 769
1178 769
1188 769
1198 769
1208 770
1215 778
1225 779
1233 785
1240 793
1240 803
1237 814
1228 820
1219 825
1210 830
1200 830
1190 830
1180 830
1180 840
1172 849
1162 854
1152 850
1143 845
1135 838
1126 833
1121 824
1114 816
1109 807
1105 797
1100 788
1099 778
1092 770
1085 762
1075 760
1065 760
1055 760
1045 760
1045 770
1045 780
1045 790
1045 800
1045 810
1045 820
1045 830
1045 840
1045 850
1045 860
1047 870
1050 880
1050 890
1052 900
1055 910
1055 920
1060 929
1060 939
1065 948
1070 957
1078 964
1088 964
1098 964
1108 964
1118 964
1128 964
1138 964
1147 969
1157 969
1167 969
1177 969
1187 969
1197 969
1207 969
1217 969
1222 959
1232 954
1237 944
1245 936
1250 926
1255 916
1260 906
1265 896
1270 886
1274 872
1279 862
1287 854
1294 842
1299 832
1304 822
1309 812
1314 802
1314 792
1319 782
1319 772
1324 757
1329 747
1334 737
1339 727
1347 719
1356 714
1365 709
1374 704
1384 704
1394 704
1404 704
1414 704
1422 710
1421 720
1412 725
1402 725
1393 730
1383 733
1373 735
1364 740
1355 745
1350 755
1345 765
1340 780
1335 790
1335 800
1330 815
1325 830
1320 845
1315 860
1310 875
1305 885
1300 900
1295 910
1295 920
1295 930
1295 940
1290 955
1290 965
1285 980
1280 990
1275 1000
1270 1010
1264 1020
1255 1025
1245 1030
1236 1035
1226 1035
1216 1035
1206 1035
1197 1030
1187 1030
1177 1030
1167 1030
1157 1029
1147 1025
1137 1025
1127 1025
1118 1020
1108 1020
1098 1020
1088 1020
1078 1020
1068 1020
1058 1020
1048 1023
1040 1030
1040 1040
1040 1050
1040 1060
1040 1070
1040 1080
1040 1090
1040 1100
1042 1110
1052 1114
1062 1114
1072 1114
1082 1114
1092 1114
1102 1114
1112 1114
1122 1114
1132 1114
1142 1114
1152 1114
1162 1114
1172 1114
1182 1114
1191 1119
1201 1119
1209 1126
1215 1134
1215 1144
1214 1157
1206 1165
1197 1170
1187 1170
1177 1170
1167 1169
1157 1165
1147 1165
1137 1165
1127 1165
1118 1160
1108 1160
1098 1160
1088 1160
1078 1160
1068 1160
1058 1160
1048 1160
1039 1155
1029 1155
1019 1155
1009 1155
999 1155
989 1155
979 1151
979 1132
987 1124
992 1114
994 1098
994 1088
994 1078
994 1068
994 1058
991 1048
985 1040
975 1040
965 1040
955 1040
945 1040
935 1040
925 1040
915 1040
905 1040
895 1040
895 1050
895 1060
895 1070
895 1080
895 1090
895 1100
895 1110
890 1125
890 1135
888 1148
880 1155
871 1160
861 1160
851 1160
841 1160
831 1160
821 1160
811 1160
801 1160
791 1158
781 1155
771 1155
761 1155
752 1150
742 1150
732 1150
722 1149
712 1145
702 1145
692 1145
682 1145
672 1145
662 1145
652 1145
642 1144
