184 157
184 147
194 144
203 149
213 149
223 149
218 140
209 135
201 129
194 121
189 112
197 104
207 99
217 99
227 99
237 99
247 99
257 99
266 104
275 99
285 99
295 99
304 94
314 94
324 94
333 99
343 99
353 100
362 105
372 109
381 114
391 114
400 119
410 119
420 122
430 124
439 129
449 131
458 136
465 144
475 147
484 152
494 156
500 164
510 164
519 169
528 174
537 179
546 184
555 189
565 192
573 199
582 204
591 209
600 214
610 217
618 224
627 229
636 234
645 239
654 244
663 249
673 250
682 255
692 259
701 264
709 271
718 276
728 279
738 280
745 288
753 295
762 300
770 307
779 312
789 316
795 324
803 330
812 335
822 339
831 344
841 344
849 351
855 359
863 365
872 370
882 374
889 382
899 386
908 391
918 395
925 403
933 410
942 415
952 419
961 424
970 429
975 438
983 444
992 449
1001 454
1009 461
1015 469
1023 475
1030 483
1038 490
1045 498
1053 505
1060 513
1065 522
1072 530
1080 537
1085 546
1091 554
1095 564
1100 573
1105 582
1110 591
1115 600
1117 610
1120 620
1122 630
1125 640
1127 650
1125 665
1127 675
1125 685
1125 695
1125 705
1125 715
1120 725
1120 735
1120 745
1115 760
1108 773
1103 783
1098 793
1090 800
1083 813
1075 820
1068 828
1060 835
1053 843
1045 850
1038 858
1030 865
1022 874
1012 879
1002 884
992 885
983 890
973 893
963 895
953 895
943 895
934 900
925 905
915 905
905 905
895 905
885 905
875 905
865 905
855 905
846 900
836 900
826 900
817 895
808 890
799 885
790 880
781 875
771 875
762 870
753 865
744 860
735 855
727 849
717 845
707 845
700 837
692 830
683 825
674 820
666 814
657 809
647 805
638 800
629 795
620 790
610 788
603 780
595 773
589 765
581 759
574 751
566 745
557 740
548 735
539 730
530 725
521 720
512 715
503 710
494 705
485 700
476 695
467 690
460 682
452 675
443 670
434 665
424 665
416 659
409 651
401 645
392 640
383 635
375 628
368 620
359 615
350 610
341 605
332 600
323 595
315 588
308 580
299 575
291 569
284 561
284 542
292 534
302 534
312 534
321 539
331 539
339 546
348 551
358 555
367 560
377 564
386 569
395 574
404 579
413 584
422 589
432 589
439 597
447 604
456 609
465 614
474 619
483 624
492 629
501 634
510 639
520 639
530 642
539 647
549 651
558 656
568 660
578 664
588 665
598 669
607 674
616 679
625 684
634 689
642 695
652 699
661 704
669 711
678 716
688 720
697 725
705 732
714 737
724 741
733 746
740 754
750 754
760 757
769 762
777 769
786 774
796 774
805 779
814 784
823 789
833 789
842 794
852 794
861 799
871 799
881 799
891 799
901 799
911 795
921 794
931 794
940 789
949 784
958 779
967 774
977 769
985 761
995 756
1000 746
1008 739
1012 729
1014 717
1014 707
1019 692
1019 682
1019 672
1019 662
1015 652
1010 643
1009 633
1003 625
995 618
988 610
980 603
974 595
964 592
955 587
945 583
939 575
929 572
920 567
912 560
905 552
895 548
888 540
879 535
869 532
860 527
852 520
843 515
834 510
824 506
816 500
807 495
797 495
788 490
779 485
770 480
762 474
752 470
743 465
735 458
728 450
719 445
710 440
701 435
692 430
683 425
674 420
665 415
655 413
649 405
640 400
632 394
622 390
613 385
605 378
596 373
586 369
577 364
567 360
558 355
549 350
540 345
531 340
522 335
513 330
505 323
499 315
489 312
482 304
472 300
465 292
455 288
446 283
436 280
426 280
416 280
406 278
396 275
386 275
377 270
367 269
359 262
350 257
340 255
331 250
322 245
315 237
305 233
299 225
289 222
280 217
270 213
263 205
254 200
244 196
236 190
227 185
218 180
209 175
200 170
192 164
