104 752
104 742
109 727
109 717
109 707
114 697
114 687
119 677
119 667
124 657
129 647
134 637
139 627
147 619
154 607
162 599
170 591
178 584
185 576
193 569
202 564
211 559
219 552
229 547
239 542
249 539
258 534
268 534
277 529
287 524
297 524
306 519
316 519
326 519
335 514
345 514
355 514
364 509
374 509
384 509
393 504
403 504
413 504
422 499
432 499
442 499
451 494
461 494
471 494
481 490
491 489
501 489
511 485
521 484
531 484
541 484
550 479
560 479
570 479
580 479
590 476
600 474
610 474
620 474
630 474
640 474
650 474
660 474
669 469
679 469
689 469
699 469
709 469
719 469
729 469
739 469
749 467
759 464
769 464
778 459
788 459
797 454
807 454
816 449
826 449
835 444
845 444
855 444
865 444
874 439
884 439
893 434
903 434
913 434
922 429
932 429
942 429
952 429
961 424
971 424
981 424
991 424
1001 424
1011 424
1021 424
1031 424
1041 424
1051 424
1061 420
1071 419
1081 419
1091 419
1101 419
1111 419
1121 419
1131 419
1141 419
1151 419
1161 419
1170 414
1180 414
1190 414
1200 414
1210 414
1220 414
1230 414
1239 409
1248 404
1252 394
1254 382
1254 372
1254 362
1259 352
1267 344
1275 336
1285 331
1295 326
1305 321
1315 316
1325 311
1335 306
1343 299
1352 294
1361 289
1371 289
1380 284
1390 281
1400 276
1410 271
1420 269
1429 264
1438 259
1448 259
1457 254
1467 254
1476 249
1486 249
1496 249
1505 244
1515 244
1525 244
1534 249
1544 249
1554 249
1563 254
1573 254
1583 254
1593 254
1603 254
1613 254
1623 254
1633 254
1643 254
1653 254
1663 254
1673 254
1683 255
1693 259
1703 259
1713 259
1723 259
1732 264
1742 264
1751 269
1761 269
1771 269
1780 274
1790 274
1800 274
1810 277
1820 279
1830 279
1839 284
1849 284
1859 284
1868 289
1878 289
1888 289
1898 289
1908 290
1918 294
1928 294
1938 294
1948 294
1957 299
1966 304
1976 304
1986 304
1995 299
2005 299
2015 299
2025 302
2035 304
2045 304
2054 309
2064 309
2074 309
2084 309
2094 311
2104 314
2114 314
2124 314
2134 314
2144 316
2154 319
2164 319
2174 319
2184 319
2193 324
2203 324
2213 324
2223 325
2233 329
2243 330
2253 334
2262 339
2272 339
2281 344
2290 349
2300 352
2309 357
2319 361
2328 366
2338 370
2347 375
2357 379
2366 384
2374 391
2380 399
2388 405
2397 410
2405 417
2409 427
2417 434
2424 442
2430 450
2435 459
2440 468
2445 477
2449 487
2454 496
2455 506
2460 515
2460 525
2465 534
2465 544
2470 553
2470 563
2475 572
2475 582
2479 592
2480 602
2480 612
2484 622
2485 632
2485 642
2485 652
2485 662
2485 672
2485 682
2480 695
2475 710
2475 720
2475 730
2475 740
2470 755
2465 765
2465 775
2460 785
2462 795
2465 805
2465 815
2460 825
2460 835
2460 845
2465 854
2460 865
2455 875
2450 890
2445 905
2445 915
2445 925
2443 938
2438 948
2430 955
2425 965
2420 975
2415 985
2410 1000
2405 1015
2403 1028
2398 1038
2393 1048
2388 1058
2383 1068
2375 1075
2368 1088
2363 1098
2355 1105
2348 1113
2340 1120
2330 1125
2322 1134
2314 1140
2305 1145
2296 1150
2287 1155
2278 1160
2269 1165
2259 1167
2249 1170
2239 1172
2229 1175
2219 1175
2210 1180
2200 1180
2190 1180
2180 1180
2170 1185
2160 1185
2150 1185
2140 1185
2130 1185
2120 1185
2110 1185
2100 1185
2090 1185
2080 1185
2070 1185
2060 1182
2050 1180
2040 1180
2030 1180
2020 1180
2010 1180
2000 1177
1990 1175
1980 1175
1970 1175
1961 1170
1951 1170
1941 1170
1931 1168
1921 1165
1911 1165
1901 1163
1891 1160
1881 1160
1871 1158
1861 1155
1851 1155
1842 1150
1832 1150
1822 1149
1812 1145
1802 1145
1792 1145
1783 1140
1773 1140
1764 1135
1754 1132
1745 1127
1735 1123
1729 1115
1721 1108
1716 1099
1712 1089
1707 1080
1704 1070
1703 1060
1695 1053
1688 1045
1679 1040
1669 1040
1659 1040
1649 1040
1640 1035
1630 1035
1620 1035
1610 1035
1600 1035
1590 1035
1580 1035
1570 1035
1560 1035
1550 1035
1540 1035
1530 1035
1520 1035
1510 1035
1500 1035
1490 1035
1480 1040
1470 1040
1460 1040
1450 1040
1441 1045
1431 1045
1421 1045
1412 1050
1402 1050
1392 1050
1383 1055
1373 1055
1364 1060
1354 1062
1344 1065
1334 1067
1324 1070
1315 1075
1305 1075
1295 1080
1285 1080
1275 1085
1266 1090
1256 1090
1247 1095
1238 1100
1228 1103
1218 1105
1209 1110
1200 1115
1190 1115
1180 1120
1170 1125
1160 1130
1150 1135
1141 1140
1131 1140
1122 1145
1112 1149
1102 1150
1093 1155
1083 1158
1073 1160
1063 1163
1053 1165
1043 1165
1034 1170
1024 1170
1014 1172
1004 1175
994 1175
984 1175
974 1175
964 1175
954 1175
945 1180
935 1180
926 1175
916 1175
906 1175
896 1175
886 1175
876 1175
866 1175
856 1173
846 1170
836 1170
826 1170
816 1170
807 1165
797 1165
787 1165
778 1160
768 1160
758 1160
749 1155
739 1155
730 1150
720 1150
710 1147
700 1145
690 1145
680 1145
671 1140
661 1140
652 1135
642 1135
632 1134
622 1130
612 1129
602 1125
593 1120
583 1120
574 1115
564 1115
555 1110
545 1107
535 1105
525 1103
516 1098
506 1095
497 1090
487 1090
478 1085
469 1080
459 1080
450 1075
441 1070
431 1068
421 1065
412 1060
402 1059
392 1055
383 1050
374 1045
364 1042
355 1037
345 1035
335 1033
329 1025
320 1020
312 1014
302 1010
293 1005
284 1000
274 997
265 992
255 988
248 980
239 975
229 972
222 964
212 960
205 952
197 945
188 940
180 933
173 925
165 918
159 910
151 903
146 894
139 886
134 877
129 868
124 859
122 849
117 840
114 830
114 820
109 811
109 801
104 792
104 782
104 772
104 762
