1264 861
1259 852
1267 844
1277 844
1287 844
1297 844
1307 839
1317 834
1319 822
1324 812
1329 797
1334 787
1339 772
1344 762
1344 752
1344 742
1349 732
1357 724
1362 714
1370 706
1380 701
1388 694
1397 689
1406 684
1415 679
1419 668
1419 658
1419 648
1413 640
1405 633
1398 625
1389 620
1380 615
1370 612
1360 610
1352 604
1344 597
1344 587
1344 577
1335 572
1325 568
1318 560
1310 553
1304 545
1294 541
1289 532
1289 522
1297 514
1306 509
1316 509
1326 509
1336 509
1345 514
1353 520
1360 528
1365 537
1375 539
1385 539
1395 539
1405 539
1414 544
1424 546
1434 549
1443 554
1452 559
1461 564
1470 569
1480 572
1484 582
1492 589
1499 597
1504 606
1508 616
1510 626
1516 634
1525 639
1534 644
1540 652
1545 661
1545 671
1545 681
1545 691
1545 701
1545 711
1545 721
1545 731
1545 741
1545 751
1545 761
1555 764
1565 767
1574 772
1584 776
1593 781
1603 784
1613 784
1623 784
1633 785
1642 790
1652 794
1659 802
1667 809
1674 817
1679 826
1683 836
1685 846
1685 856
1680 870
1671 875
1662 870
1653 865
1644 860
1634 857
1627 849
1617 845
1610 837
1602 830
1595 822
1585 818
1578 810
1569 805
1561 799
1552 794
1542 790
1533 785
1523 785
1514 780
1506 774
1499 766
1494 757
1494 747
1489 738
1484 729
1484 719
1489 710
1479 710
1469 712
1459 715
1449 715
1439 715
1429 717
1419 722
1409 727
1399 732
1389 735
1380 740
1380 750
1380 760
1375 775
1375 785
1370 795
1370 805
1365 815
1360 825
1355 840
1350 850
1343 858
1335 865
1333 883
1325 890
1316 895
1307 890
1298 885
1290 878
1283 870
1274 865
