314 1007
314 997
322 989
327 979
329 967
337 959
345 951
350 941
355 931
363 924
370 916
374 902
382 895
380 885
370 885
362 879
354 872
354 862
359 847
364 837
372 829
374 817
379 802
384 792
389 777
394 762
394 752
399 742
399 732
401 720
391 719
384 711
379 702
379 692
384 682
389 667
397 659
402 649
407 639
412 629
417 619
419 607
424 592
429 582
434 565
430 555
422 549
414 542
414 532
419 522
419 512
424 497
429 482
434 472
434 462
439 447
444 437
449 422
454 407
459 397
459 387
452 379
444 372
444 362
449 347
454 337
459 322
467 314
472 304
479 292
484 277
489 262
494 252
499 239
497 229
489 222
489 212
494 202
499 187
507 179
514 167
519 152
524 142
532 134
537 124
539 112
544 102
549 87
557 79
559 67
564 57
569 42
577 34
586 29
595 34
605 37
612 45
617 54
620 64
625 73
633 80
637 90
645 97
645 107
649 117
655 125
657 135
660 145
662 155
670 162
674 172
680 180
685 189
690 198
695 207
699 217
705 225
710 234
703 248
695 255
685 260
687 270
692 279
699 287
704 296
705 306
711 314
715 324
720 333
725 342
725 352
725 362
723 373
715 380
705 385
705 395
710 404
710 414
715 423
720 432
720 442
725 451
725 461
730 470
732 480
740 487
740 497
745 506
751 514
759 521
763 531
768 540
770 550
768 568
763 578
755 585
755 595
760 604
765 613
765 623
773 630
775 640
780 649
785 658
790 667
790 677
795 686
798 696
803 705
805 715
808 733
800 740
790 745
790 755
795 764
795 774
800 783
800 793
805 802
810 811
810 821
815 830
817 840
822 849
825 859
825 869
830 878
830 888
835 897
835 907
828 918
820 925
820 935
825 944
825 954
830 963
830 973
830 983
838 990
840 1000
845 1009
853 1015
860 1023
860 1033
854 1042
846 1050
837 1055
827 1055
817 1055
807 1055
797 1055
787 1055
778 1050
768 1050
758 1050
748 1053
740 1060
730 1060
720 1060
710 1060
701 1055
691 1055
682 1050
672 1050
663 1045
654 1040
644 1040
635 1045
625 1045
615 1050
605 1055
607 1065
610 1075
610 1085
610 1095
610 1105
610 1115
610 1125
610 1135
610 1145
610 1155
610 1165
607 1184
599 1192
589 1195
580 1200
570 1200
562 1194
554 1187
554 1177
559 1167
559 1157
559 1147
559 1137
559 1127
559 1117
559 1107
559 1097
559 1087
554 1078
554 1068
554 1058
554 1048
547 1040
537 1040
527 1044
517 1045
507 1045
497 1045
488 1040
480 1033
473 1025
464 1030
454 1030
444 1030
435 1035
425 1035
415 1032
407 1025
398 1030
388 1030
378 1030
368 1030
359 1025
350 1020
340 1020
330 1020
322 1014
