434 962
434 952
439 942
439 932
444 922
449 907
449 897
454 887
454 877
459 867
459 857
464 842
464 832
469 822
469 812
474 802
479 792
484 782
484 772
480 760
472 754
464 747
464 737
464 727
469 717
474 707
474 697
482 689
484 677
489 667
489 657
494 642
494 632
499 622
499 612
504 602
504 592
509 577
514 567
514 557
519 547
519 537
519 527
524 512
524 502
529 492
529 482
530 465
522 459
514 452
514 442
514 432
514 422
514 412
519 402
519 392
524 377
529 367
529 357
534 347
534 337
539 322
539 312
544 302
544 292
549 277
549 267
549 257
554 247
554 237
559 227
559 217
564 202
564 192
564 182
569 172
569 162
574 147
574 137
574 127
574 117
574 107
579 92
579 82
579 72
584 62
584 52
592 44
600 50
600 60
600 70
600 80
600 90
602 100
605 110
605 120
605 130
605 140
605 150
610 159
610 169
615 178
615 188
615 198
620 207
620 217
620 227
625 236
625 246
628 256
630 266
630 276
630 286
633 296
635 306
635 316
635 326
635 336
635 346
640 355
642 365
645 375
650 384
650 394
650 404
650 414
655 423
655 433
655 443
655 453
655 463
648 478
640 485
630 485
630 495
635 504
635 514
640 523
640 533
645 542
645 552
645 562
645 572
650 581
650 591
655 600
655 610
657 620
660 630
662 640
665 650
667 660
670 670
675 679
675 689
675 699
680 708
680 718
685 727
689 737
694 746
695 756
698 766
700 776
693 793
685 800
675 800
675 810
680 819
685 828
685 838
690 847
694 857
695 867
695 877
700 886
700 896
705 905
705 915
710 924
710 934
710 944
718 950
725 958
725 968
723 978
715 985
706 990
697 995
688 1000
678 1000
669 1005
659 1005
650 1010
640 1010
630 1010
620 1010
610 1010
610 1020
610 1030
610 1040
610 1050
610 1060
610 1070
610 1080
610 1090
610 1100
610 1110
610 1120
610 1130
602 1139
593 1145
583 1145
574 1140
566 1134
564 1124
564 1114
564 1104
564 1094
564 1084
564 1074
564 1064
564 1054
564 1044
564 1034
564 1024
559 1015
559 1005
549 1005
539 1002
530 997
520 995
510 995
500 995
490 995
480 995
470 995
460 995
450 995
442 989
434 982
434 972
