949 882
949 872
957 864
965 856
973 849
982 844
992 839
1002 839
1012 839
1022 839
1032 839
1042 839
1052 839
1062 839
1072 839
1082 839
1092 839
1102 839
1112 839
1122 839
1132 839
1141 834
1151 834
1161 830
1166 820
1169 802
1169 792
1174 782
1184 777
1194 772
1204 769
1214 769
1224 769
1233 764
1243 764
1253 764
1263 764
1273 764
1283 764
1293 764
1303 764
1312 769
1319 777
1320 787
1320 797
1320 807
1320 817
1320 827
1329 832
1334 841
1340 849
1350 852
1354 862
1362 869
1365 879
1374 884
1382 890
1390 897
1390 907
1398 914
1408 914
1418 915
1425 923
1430 932
1430 942
1430 952
1428 968
1420 975
1410 980
1410 990
1407 1004
1402 1014
1394 1022
1384 1027
1374 1032
1364 1030
1354 1026
1349 1017
1345 1007
1337 1000
1327 1000
1317 1000
1307 1000
1297 1000
1287 1000
1278 1005
1268 1008
1260 1015
1252 1024
1242 1029
1232 1030
1222 1030
1212 1030
1202 1030
1192 1030
1183 1025
1175 1018
1168 1010
1159 1005
1149 1005
1139 1005
1129 1005
1119 1005
1109 1005
1099 1005
1089 1005
1083 1013
1075 1020
1065 1025
1055 1025
1046 1030
1036 1030
1026 1028
1016 1025
1006 1025
996 1025
986 1029
979 1021
974 1012
974 1002
974 992
974 982
974 972
979 962
989 957
999 954
1008 949
1018 949
1024 938
1024 928
1017 920
1007 920
997 920
987 920
977 920
968 915
959 910
954 901
949 892
