84 807
84 797
89 782
94 772
99 762
107 754
115 746
123 739
132 734
140 726
150 724
159 719
168 714
178 714
187 709
196 704
205 699
215 696
225 691
235 689
244 684
253 679
263 679
272 674
281 669
291 665
301 660
311 659
320 654
330 651
340 649
349 644
358 639
367 634
377 634
386 629
396 625
406 620
416 619
425 614
435 611
445 609
455 606
465 601
475 599
485 596
495 594
505 591
515 586
525 584
535 584
544 579
554 579
563 574
572 569
582 569
592 564
602 564
611 559
621 555
631 554
641 550
651 549
660 544
670 541
680 539
689 534
699 532
709 529
718 524
728 524
737 519
747 519
756 514
766 510
776 509
785 504
795 501
805 499
815 496
825 494
834 489
844 487
854 484
864 482
874 479
884 477
894 474
903 469
913 469
923 469
932 464
942 464
951 459
961 459
970 454
980 454
989 449
999 449
1008 444
1018 444
1028 444
1037 439
1047 434
1057 434
1067 434
1077 429
1087 429
1095 421
1100 411
1104 397
1109 387
1117 379
1125 371
1133 364
1142 359
1152 354
1160 346
1168 339
1175 331
1183 324
1190 316
1200 311
1205 301
1215 296
1225 291
1235 286
1245 281
1255 276
1265 274
1274 269
1284 269
1294 269
1304 269
1314 269
1324 269
1334 269
1344 269
1354 271
1364 274
1373 279
1383 280
1393 284
1403 284
1413 284
1423 284
1433 285
1442 290
1450 297
1458 304
1465 312
1475 314
1485 314
1495 314
1504 309
1514 307
1524 302
1534 299
1543 294
1553 294
1562 289
1572 289
1582 284
1592 284
1601 279
1611 279
1620 274
1630 271
1640 269
1649 264
1659 264
1668 259
1678 259
1687 254
1697 254
1707 249
1717 249
1727 244
1737 244
1746 239
1756 239
1765 234
1775 234
1785 231
1795 229
1804 224
1814 224
1824 222
1834 219
1843 214
1853 214
1862 209
1872 209
1882 204
1892 204
1902 199
1912 194
1920 186
1930 181
1940 176
1950 174
1960 174
1970 174
1980 174
1990 174
2000 174
2010 174
2019 169
2028 164
2037 159
2046 154
2056 150
2066 149
2075 144
2085 147
2095 144
2105 141
2113 134
2122 129
2132 129
2141 124
2151 124
2160 119
2169 114
2179 112
2189 109
2199 109
2209 109
2219 109
2229 111
2238 116
2245 124
2253 130
2260 138
2265 147
2270 156
2275 165
2280 174
2285 183
2290 192
2295 201
2295 211
2295 225
2295 235
2295 245
2295 255
2295 265
2290 280
2285 295
2280 305
2272 314
2264 322
2256 330
2246 330
2237 335
2227 335
2218 340
2208 340
2199 345
2189 345
2179 345
2170 350
2160 348
2154 340
2144 340
2134 340
2125 345
2117 354
2107 359
2097 364
2087 365
2077 365
2067 365
2058 360
2049 365
2039 367
2029 370
2020 375
2013 383
2005 390
1996 395
1987 400
1977 400
1967 400
1957 400
1947 400
1937 400
1927 400
1918 405
1908 405
1899 410
1890 415
1880 415
1870 420
1860 420
1851 425
1841 425
1832 430
1823 435
1813 435
1804 440
1794 442
1784 445
1775 450
1765 450
1756 455
1746 455
1737 460
1727 464
1717 465
1707 469
1697 470
1687 474
1677 475
1668 480
1658 483
1648 485
1639 490
1629 490
1620 495
1610 495
1601 500
1591 500
1581 500
1572 505
1562 505
1553 510
1543 513
1533 518
1525 525
1520 535
1520 545
1518 558
1513 568
1505 575
1498 583
1488 585
1479 590
1469 590
1460 595
1453 603
1445 610
1438 618
1430 625
1423 633
1415 640
1405 650
1395 655
1385 660
1377 669
1372 679
1364 687
1354 690
1344 686
1336 680
1326 680
1316 680
1306 680
1296 680
1287 675
1277 675
1267 675
1258 670
1248 670
1239 665
1229 665
1219 665
1209 665
1199 667
1189 670
1180 665
1171 660
1162 655
1155 647
1149 639
1144 630
1134 630
1124 630
1114 632
1104 635
1094 637
1084 640
1075 645
1065 645
1055 645
1046 650
1036 650
1027 655
1017 655
1007 659
997 660
987 664
977 665
967 669
957 670
947 670
938 675
928 678
918 680
908 683
898 685
888 685
879 690
869 692
859 695
849 697
839 700
829 702
819 705
810 710
800 710
790 710
781 715
771 715
762 720
752 724
742 725
732 729
722 730
713 735
703 738
693 740
683 743
673 745
663 748
653 753
643 755
633 758
623 760
613 763
603 765
593 768
583 770
574 775
564 775
555 780
545 780
536 785
526 785
517 790
507 794
497 795
487 799
477 800
467 804
457 805
447 809
438 815
428 815
419 820
410 825
400 825
391 830
381 830
372 835
362 835
353 840
343 843
333 845
324 850
314 852
304 855
294 857
284 862
274 865
264 867
254 870
245 875
236 880
226 880
217 885
207 889
197 890
188 895
178 898
168 900
159 905
149 905
139 905
129 902
120 897
112 890
105 882
97 875
94 865
89 856
89 846
84 837
84 827
84 817
