24 204
24 229
25 254
26 156
28 110
30 76
33 278
37 51
47 299
61 44
67 314
86 43
86 331
98 353
110 375
111 40
124 432
127 394
131 320
134 50
135 345
139 75
139 238
143 100
145 125
145 198
145 368
146 445
147 150
158 390
160 348
163 246
171 447
188 246
196 447
213 246
221 447
238 246
246 447
259 370
263 246
263 395
266 345
271 445
280 323
280 414
288 246
295 438
297 304
312 283
313 246
