<?xml version="1.0" encoding="UTF-8" standalone="no"?>
<!-- Created with CurveBenchmark -->
<svg
	xmlns:dc="http://purl.org/dc/elements/1.1/"
	xmlns:cc="http://creativecommons.org/ns#"
	xmlns:rdf="http://www.w3.org/1999/02/22-rdf-syntax-ns#"
	xmlns:svg="http://www.w3.org/2000/svg"
	xmlns="http://www.w3.org/2000/svg"
	xmlns:sodipodi="http://sodipodi.sourceforge.net/DTD/sodipodi-0.dtd"
	xmlns:inkscape="http://www.inkscape.org/namespaces/inkscape"
	width="1000"
	height="1000"
	id="svg2"
	version="1.1"
	sodipodi:docname="lfsnoise-0.1/hnncrust-bunny.svg">
<defs
	id="defs4" />
<metadata
	id="metadata7">
	<rdf:RDF>
		<cc:Work
			rdf:about="">
			<dc:format>image/svg+xml</dc:format>
			<dc:type
				rdf:resource="http://purl.org/dc/dcmitype/StillImage" />
			<dc:title></dc:title>
		</cc:Work>
	</rdf:RDF>
</metadata>
<g
	inkscape:label="Layer 1"
	inkscape:groupmode="layer"
	id="layer1">
	<path style="fill:none;stroke:red;stroke-width:1px;stroke-linecap:butt;stroke-linejoin:miter;stroke-opacity:1" d="M 253.075,802.361 249.311,773.781 z" id="boundary" inkscape:connector-curvature="0" />
	<path style="fill:none;stroke:red;stroke-width:1px;stroke-linecap:butt;stroke-linejoin:miter;stroke-opacity:1" d="M 253.075,802.361 258.776,813.458 z" id="boundary" inkscape:connector-curvature="0" />
	<path style="fill:none;stroke:red;stroke-width:1px;stroke-linecap:butt;stroke-linejoin:miter;stroke-opacity:1" d="M 249.311,773.781 223.68,746.787 z" id="boundary" inkscape:connector-curvature="0" />
	<path style="fill:none;stroke:red;stroke-width:1px;stroke-linecap:butt;stroke-linejoin:miter;stroke-opacity:1" d="M 223.68,746.787 187.822,719.153 z" id="boundary" inkscape:connector-curvature="0" />
	<path style="fill:none;stroke:red;stroke-width:1px;stroke-linecap:butt;stroke-linejoin:miter;stroke-opacity:1" d="M 187.822,719.153 137.298,693.294 z" id="boundary" inkscape:connector-curvature="0" />
	<path style="fill:none;stroke:red;stroke-width:1px;stroke-linecap:butt;stroke-linejoin:miter;stroke-opacity:1" d="M 137.298,693.294 87.7877,651.193 z" id="boundary" inkscape:connector-curvature="0" />
	<path style="fill:none;stroke:red;stroke-width:1px;stroke-linecap:butt;stroke-linejoin:miter;stroke-opacity:1" d="M 87.7877,651.193 52.2713,632.283 z" id="boundary" inkscape:connector-curvature="0" />
	<path style="fill:none;stroke:red;stroke-width:1px;stroke-linecap:butt;stroke-linejoin:miter;stroke-opacity:1" d="M 52.2713,632.283 25.6974,614.1 z" id="boundary" inkscape:connector-curvature="0" />
	<path style="fill:none;stroke:red;stroke-width:1px;stroke-linecap:butt;stroke-linejoin:miter;stroke-opacity:1" d="M 25.6974,614.1 15.7508,584.496 z" id="boundary" inkscape:connector-curvature="0" />
	<path style="fill:none;stroke:red;stroke-width:1px;stroke-linecap:butt;stroke-linejoin:miter;stroke-opacity:1" d="M 15.7508,584.496 4,551.806 z" id="boundary" inkscape:connector-curvature="0" />
	<path style="fill:none;stroke:red;stroke-width:1px;stroke-linecap:butt;stroke-linejoin:miter;stroke-opacity:1" d="M 4,551.806 4.91871,503.014 z" id="boundary" inkscape:connector-curvature="0" />
	<path style="fill:none;stroke:red;stroke-width:1px;stroke-linecap:butt;stroke-linejoin:miter;stroke-opacity:1" d="M 4.91871,503.014 26.0457,431.075 z" id="boundary" inkscape:connector-curvature="0" />
	<path style="fill:none;stroke:red;stroke-width:1px;stroke-linecap:butt;stroke-linejoin:miter;stroke-opacity:1" d="M 26.0457,431.075 67.8578,379.795 z" id="boundary" inkscape:connector-curvature="0" />
	<path style="fill:none;stroke:red;stroke-width:1px;stroke-linecap:butt;stroke-linejoin:miter;stroke-opacity:1" d="M 67.8578,379.795 90.5855,345.133 z" id="boundary" inkscape:connector-curvature="0" />
	<path style="fill:none;stroke:red;stroke-width:1px;stroke-linecap:butt;stroke-linejoin:miter;stroke-opacity:1" d="M 90.5855,345.133 97.5711,317.934 z" id="boundary" inkscape:connector-curvature="0" />
	<path style="fill:none;stroke:red;stroke-width:1px;stroke-linecap:butt;stroke-linejoin:miter;stroke-opacity:1" d="M 97.5711,317.934 101.781,294.316 z" id="boundary" inkscape:connector-curvature="0" />
	<path style="fill:none;stroke:red;stroke-width:1px;stroke-linecap:butt;stroke-linejoin:miter;stroke-opacity:1" d="M 101.781,294.316 105.356,270.659 z" id="boundary" inkscape:connector-curvature="0" />
	<path style="fill:none;stroke:red;stroke-width:1px;stroke-linecap:butt;stroke-linejoin:miter;stroke-opacity:1" d="M 105.356,270.659 105.22,246.131 z" id="boundary" inkscape:connector-curvature="0" />
	<path style="fill:none;stroke:red;stroke-width:1px;stroke-linecap:butt;stroke-linejoin:miter;stroke-opacity:1" d="M 105.22,246.131 109.964,222.068 z" id="boundary" inkscape:connector-curvature="0" />
	<path style="fill:none;stroke:red;stroke-width:1px;stroke-linecap:butt;stroke-linejoin:miter;stroke-opacity:1" d="M 109.964,222.068 106.273,196.529 z" id="boundary" inkscape:connector-curvature="0" />
	<path style="fill:none;stroke:red;stroke-width:1px;stroke-linecap:butt;stroke-linejoin:miter;stroke-opacity:1" d="M 106.273,196.529 111.057,170.433 z" id="boundary" inkscape:connector-curvature="0" />
	<path style="fill:none;stroke:red;stroke-width:1px;stroke-linecap:butt;stroke-linejoin:miter;stroke-opacity:1" d="M 111.057,170.433 109.456,145.399 z" id="boundary" inkscape:connector-curvature="0" />
	<path style="fill:none;stroke:red;stroke-width:1px;stroke-linecap:butt;stroke-linejoin:miter;stroke-opacity:1" d="M 109.456,145.399 110.882,120.728 z" id="boundary" inkscape:connector-curvature="0" />
	<path style="fill:none;stroke:red;stroke-width:1px;stroke-linecap:butt;stroke-linejoin:miter;stroke-opacity:1" d="M 110.882,120.728 106.773,94.8516 z" id="boundary" inkscape:connector-curvature="0" />
	<path style="fill:none;stroke:red;stroke-width:1px;stroke-linecap:butt;stroke-linejoin:miter;stroke-opacity:1" d="M 106.773,94.8516 113.831,71.1722 z" id="boundary" inkscape:connector-curvature="0" />
	<path style="fill:none;stroke:red;stroke-width:1px;stroke-linecap:butt;stroke-linejoin:miter;stroke-opacity:1" d="M 113.831,71.1722 115.377,47.6997 z" id="boundary" inkscape:connector-curvature="0" />
	<path style="fill:none;stroke:red;stroke-width:1px;stroke-linecap:butt;stroke-linejoin:miter;stroke-opacity:1" d="M 115.377,47.6997 121.773,29.5336 z" id="boundary" inkscape:connector-curvature="0" />
	<path style="fill:none;stroke:red;stroke-width:1px;stroke-linecap:butt;stroke-linejoin:miter;stroke-opacity:1" d="M 121.773,29.5336 129.021,16.2419 z" id="boundary" inkscape:connector-curvature="0" />
	<path style="fill:none;stroke:red;stroke-width:1px;stroke-linecap:butt;stroke-linejoin:miter;stroke-opacity:1" d="M 129.021,16.2419 138.978,4 z" id="boundary" inkscape:connector-curvature="0" />
	<path style="fill:none;stroke:red;stroke-width:1px;stroke-linecap:butt;stroke-linejoin:miter;stroke-opacity:1" d="M 138.978,4 154.997,5.90592 z" id="boundary" inkscape:connector-curvature="0" />
	<path style="fill:none;stroke:red;stroke-width:1px;stroke-linecap:butt;stroke-linejoin:miter;stroke-opacity:1" d="M 154.997,5.90592 169.577,8.80731 z" id="boundary" inkscape:connector-curvature="0" />
	<path style="fill:none;stroke:red;stroke-width:1px;stroke-linecap:butt;stroke-linejoin:miter;stroke-opacity:1" d="M 169.577,8.80731 181.361,19.7576 z" id="boundary" inkscape:connector-curvature="0" />
	<path style="fill:none;stroke:red;stroke-width:1px;stroke-linecap:butt;stroke-linejoin:miter;stroke-opacity:1" d="M 181.361,19.7576 185.898,36.1913 z" id="boundary" inkscape:connector-curvature="0" />
	<path style="fill:none;stroke:red;stroke-width:1px;stroke-linecap:butt;stroke-linejoin:miter;stroke-opacity:1" d="M 185.898,36.1913 186.603,54.5115 z" id="boundary" inkscape:connector-curvature="0" />
	<path style="fill:none;stroke:red;stroke-width:1px;stroke-linecap:butt;stroke-linejoin:miter;stroke-opacity:1" d="M 186.603,54.5115 189.218,71.2521 z" id="boundary" inkscape:connector-curvature="0" />
	<path style="fill:none;stroke:red;stroke-width:1px;stroke-linecap:butt;stroke-linejoin:miter;stroke-opacity:1" d="M 189.218,71.2521 188.664,86.7623 z" id="boundary" inkscape:connector-curvature="0" />
	<path style="fill:none;stroke:red;stroke-width:1px;stroke-linecap:butt;stroke-linejoin:miter;stroke-opacity:1" d="M 188.664,86.7623 188.246,101.66 z" id="boundary" inkscape:connector-curvature="0" />
	<path style="fill:none;stroke:red;stroke-width:1px;stroke-linecap:butt;stroke-linejoin:miter;stroke-opacity:1" d="M 188.246,101.66 190.061,115.663 z" id="boundary" inkscape:connector-curvature="0" />
	<path style="fill:none;stroke:red;stroke-width:1px;stroke-linecap:butt;stroke-linejoin:miter;stroke-opacity:1" d="M 190.061,115.663 186.664,129.929 z" id="boundary" inkscape:connector-curvature="0" />
	<path style="fill:none;stroke:red;stroke-width:1px;stroke-linecap:butt;stroke-linejoin:miter;stroke-opacity:1" d="M 186.664,129.929 188.515,142.952 z" id="boundary" inkscape:connector-curvature="0" />
	<path style="fill:none;stroke:red;stroke-width:1px;stroke-linecap:butt;stroke-linejoin:miter;stroke-opacity:1" d="M 188.515,142.952 187.44,156.084 z" id="boundary" inkscape:connector-curvature="0" />
	<path style="fill:none;stroke:red;stroke-width:1px;stroke-linecap:butt;stroke-linejoin:miter;stroke-opacity:1" d="M 187.44,156.084 188.604,169.276 z" id="boundary" inkscape:connector-curvature="0" />
	<path style="fill:none;stroke:red;stroke-width:1px;stroke-linecap:butt;stroke-linejoin:miter;stroke-opacity:1" d="M 188.604,169.276 187.426,181.278 z" id="boundary" inkscape:connector-curvature="0" />
	<path style="fill:none;stroke:red;stroke-width:1px;stroke-linecap:butt;stroke-linejoin:miter;stroke-opacity:1" d="M 187.426,181.278 189.248,192.739 z" id="boundary" inkscape:connector-curvature="0" />
	<path style="fill:none;stroke:red;stroke-width:1px;stroke-linecap:butt;stroke-linejoin:miter;stroke-opacity:1" d="M 189.248,192.739 186.983,203.679 z" id="boundary" inkscape:connector-curvature="0" />
	<path style="fill:none;stroke:red;stroke-width:1px;stroke-linecap:butt;stroke-linejoin:miter;stroke-opacity:1" d="M 186.983,203.679 186.98,214.133 z" id="boundary" inkscape:connector-curvature="0" />
	<path style="fill:none;stroke:red;stroke-width:1px;stroke-linecap:butt;stroke-linejoin:miter;stroke-opacity:1" d="M 186.98,214.133 188.08,224.958 z" id="boundary" inkscape:connector-curvature="0" />
	<path style="fill:none;stroke:red;stroke-width:1px;stroke-linecap:butt;stroke-linejoin:miter;stroke-opacity:1" d="M 188.08,224.958 187.864,235.933 z" id="boundary" inkscape:connector-curvature="0" />
	<path style="fill:none;stroke:red;stroke-width:1px;stroke-linecap:butt;stroke-linejoin:miter;stroke-opacity:1" d="M 187.864,235.933 184.54,246.044 z" id="boundary" inkscape:connector-curvature="0" />
	<path style="fill:none;stroke:red;stroke-width:1px;stroke-linecap:butt;stroke-linejoin:miter;stroke-opacity:1" d="M 184.54,246.044 186.62,255.844 z" id="boundary" inkscape:connector-curvature="0" />
	<path style="fill:none;stroke:red;stroke-width:1px;stroke-linecap:butt;stroke-linejoin:miter;stroke-opacity:1" d="M 186.62,255.844 184.558,265.927 z" id="boundary" inkscape:connector-curvature="0" />
	<path style="fill:none;stroke:red;stroke-width:1px;stroke-linecap:butt;stroke-linejoin:miter;stroke-opacity:1" d="M 184.558,265.927 182.565,275.157 z" id="boundary" inkscape:connector-curvature="0" />
	<path style="fill:none;stroke:red;stroke-width:1px;stroke-linecap:butt;stroke-linejoin:miter;stroke-opacity:1" d="M 182.565,275.157 182.295,284.672 z" id="boundary" inkscape:connector-curvature="0" />
	<path style="fill:none;stroke:red;stroke-width:1px;stroke-linecap:butt;stroke-linejoin:miter;stroke-opacity:1" d="M 182.295,284.672 183.264,293.585 z" id="boundary" inkscape:connector-curvature="0" />
	<path style="fill:none;stroke:red;stroke-width:1px;stroke-linecap:butt;stroke-linejoin:miter;stroke-opacity:1" d="M 183.264,293.585 183.851,301.957 z" id="boundary" inkscape:connector-curvature="0" />
	<path style="fill:none;stroke:red;stroke-width:1px;stroke-linecap:butt;stroke-linejoin:miter;stroke-opacity:1" d="M 183.851,301.957 183.238,309.661 z" id="boundary" inkscape:connector-curvature="0" />
	<path style="fill:none;stroke:red;stroke-width:1px;stroke-linecap:butt;stroke-linejoin:miter;stroke-opacity:1" d="M 183.238,309.661 184.614,316.331 z" id="boundary" inkscape:connector-curvature="0" />
	<path style="fill:none;stroke:red;stroke-width:1px;stroke-linecap:butt;stroke-linejoin:miter;stroke-opacity:1" d="M 184.614,316.331 188.366,321.251 z" id="boundary" inkscape:connector-curvature="0" />
	<path style="fill:none;stroke:red;stroke-width:1px;stroke-linecap:butt;stroke-linejoin:miter;stroke-opacity:1" d="M 188.366,321.251 192.762,322.8 z" id="boundary" inkscape:connector-curvature="0" />
	<path style="fill:none;stroke:red;stroke-width:1px;stroke-linecap:butt;stroke-linejoin:miter;stroke-opacity:1" d="M 192.762,322.8 196.352,323.879 z" id="boundary" inkscape:connector-curvature="0" />
	<path style="fill:none;stroke:red;stroke-width:1px;stroke-linecap:butt;stroke-linejoin:miter;stroke-opacity:1" d="M 196.352,323.879 199.99,322.503 z" id="boundary" inkscape:connector-curvature="0" />
	<path style="fill:none;stroke:red;stroke-width:1px;stroke-linecap:butt;stroke-linejoin:miter;stroke-opacity:1" d="M 199.99,322.503 201.991,319.23 z" id="boundary" inkscape:connector-curvature="0" />
	<path style="fill:none;stroke:red;stroke-width:1px;stroke-linecap:butt;stroke-linejoin:miter;stroke-opacity:1" d="M 201.991,319.23 204.228,315.117 z" id="boundary" inkscape:connector-curvature="0" />
	<path style="fill:none;stroke:red;stroke-width:1px;stroke-linecap:butt;stroke-linejoin:miter;stroke-opacity:1" d="M 204.228,315.117 206.437,308.831 z" id="boundary" inkscape:connector-curvature="0" />
	<path style="fill:none;stroke:red;stroke-width:1px;stroke-linecap:butt;stroke-linejoin:miter;stroke-opacity:1" d="M 206.437,308.831 210.005,301.152 z" id="boundary" inkscape:connector-curvature="0" />
	<path style="fill:none;stroke:red;stroke-width:1px;stroke-linecap:butt;stroke-linejoin:miter;stroke-opacity:1" d="M 210.005,301.152 211.082,292.238 z" id="boundary" inkscape:connector-curvature="0" />
	<path style="fill:none;stroke:red;stroke-width:1px;stroke-linecap:butt;stroke-linejoin:miter;stroke-opacity:1" d="M 211.082,292.238 213.082,283.352 z" id="boundary" inkscape:connector-curvature="0" />
	<path style="fill:none;stroke:red;stroke-width:1px;stroke-linecap:butt;stroke-linejoin:miter;stroke-opacity:1" d="M 213.082,283.352 213.333,273.803 z" id="boundary" inkscape:connector-curvature="0" />
	<path style="fill:none;stroke:red;stroke-width:1px;stroke-linecap:butt;stroke-linejoin:miter;stroke-opacity:1" d="M 213.333,273.803 215.36,264.301 z" id="boundary" inkscape:connector-curvature="0" />
	<path style="fill:none;stroke:red;stroke-width:1px;stroke-linecap:butt;stroke-linejoin:miter;stroke-opacity:1" d="M 215.36,264.301 216.085,254.589 z" id="boundary" inkscape:connector-curvature="0" />
	<path style="fill:none;stroke:red;stroke-width:1px;stroke-linecap:butt;stroke-linejoin:miter;stroke-opacity:1" d="M 216.085,254.589 217.733,244.341 z" id="boundary" inkscape:connector-curvature="0" />
	<path style="fill:none;stroke:red;stroke-width:1px;stroke-linecap:butt;stroke-linejoin:miter;stroke-opacity:1" d="M 217.733,244.341 220.582,233.595 z" id="boundary" inkscape:connector-curvature="0" />
	<path style="fill:none;stroke:red;stroke-width:1px;stroke-linecap:butt;stroke-linejoin:miter;stroke-opacity:1" d="M 220.582,233.595 220.527,222.754 z" id="boundary" inkscape:connector-curvature="0" />
	<path style="fill:none;stroke:red;stroke-width:1px;stroke-linecap:butt;stroke-linejoin:miter;stroke-opacity:1" d="M 220.527,222.754 220.046,212.235 z" id="boundary" inkscape:connector-curvature="0" />
	<path style="fill:none;stroke:red;stroke-width:1px;stroke-linecap:butt;stroke-linejoin:miter;stroke-opacity:1" d="M 220.046,212.235 221.25,201.475 z" id="boundary" inkscape:connector-curvature="0" />
	<path style="fill:none;stroke:red;stroke-width:1px;stroke-linecap:butt;stroke-linejoin:miter;stroke-opacity:1" d="M 221.25,201.475 223.269,190.387 z" id="boundary" inkscape:connector-curvature="0" />
	<path style="fill:none;stroke:red;stroke-width:1px;stroke-linecap:butt;stroke-linejoin:miter;stroke-opacity:1" d="M 223.269,190.387 226.273,179.01 z" id="boundary" inkscape:connector-curvature="0" />
	<path style="fill:none;stroke:red;stroke-width:1px;stroke-linecap:butt;stroke-linejoin:miter;stroke-opacity:1" d="M 226.273,179.01 226.021,166.828 z" id="boundary" inkscape:connector-curvature="0" />
	<path style="fill:none;stroke:red;stroke-width:1px;stroke-linecap:butt;stroke-linejoin:miter;stroke-opacity:1" d="M 226.021,166.828 227.996,154.38 z" id="boundary" inkscape:connector-curvature="0" />
	<path style="fill:none;stroke:red;stroke-width:1px;stroke-linecap:butt;stroke-linejoin:miter;stroke-opacity:1" d="M 227.996,154.38 230.903,141.13 z" id="boundary" inkscape:connector-curvature="0" />
	<path style="fill:none;stroke:red;stroke-width:1px;stroke-linecap:butt;stroke-linejoin:miter;stroke-opacity:1" d="M 230.903,141.13 231.143,127.596 z" id="boundary" inkscape:connector-curvature="0" />
	<path style="fill:none;stroke:red;stroke-width:1px;stroke-linecap:butt;stroke-linejoin:miter;stroke-opacity:1" d="M 231.143,127.596 235.409,113.277 z" id="boundary" inkscape:connector-curvature="0" />
	<path style="fill:none;stroke:red;stroke-width:1px;stroke-linecap:butt;stroke-linejoin:miter;stroke-opacity:1" d="M 235.409,113.277 236.201,98.848 z" id="boundary" inkscape:connector-curvature="0" />
	<path style="fill:none;stroke:red;stroke-width:1px;stroke-linecap:butt;stroke-linejoin:miter;stroke-opacity:1" d="M 236.201,98.848 236.5,83.3945 z" id="boundary" inkscape:connector-curvature="0" />
	<path style="fill:none;stroke:red;stroke-width:1px;stroke-linecap:butt;stroke-linejoin:miter;stroke-opacity:1" d="M 236.5,83.3945 239.703,67.8665 z" id="boundary" inkscape:connector-curvature="0" />
	<path style="fill:none;stroke:red;stroke-width:1px;stroke-linecap:butt;stroke-linejoin:miter;stroke-opacity:1" d="M 239.703,67.8665 246.753,51.5607 z" id="boundary" inkscape:connector-curvature="0" />
	<path style="fill:none;stroke:red;stroke-width:1px;stroke-linecap:butt;stroke-linejoin:miter;stroke-opacity:1" d="M 246.753,51.5607 254.198,33.7777 z" id="boundary" inkscape:connector-curvature="0" />
	<path style="fill:none;stroke:red;stroke-width:1px;stroke-linecap:butt;stroke-linejoin:miter;stroke-opacity:1" d="M 254.198,33.7777 260.45,18.3497 z" id="boundary" inkscape:connector-curvature="0" />
	<path style="fill:none;stroke:red;stroke-width:1px;stroke-linecap:butt;stroke-linejoin:miter;stroke-opacity:1" d="M 260.45,18.3497 275.057,12.4889 z" id="boundary" inkscape:connector-curvature="0" />
	<path style="fill:none;stroke:red;stroke-width:1px;stroke-linecap:butt;stroke-linejoin:miter;stroke-opacity:1" d="M 275.057,12.4889 290.348,11.0049 z" id="boundary" inkscape:connector-curvature="0" />
	<path style="fill:none;stroke:red;stroke-width:1px;stroke-linecap:butt;stroke-linejoin:miter;stroke-opacity:1" d="M 290.348,11.0049 306.648,17.0976 z" id="boundary" inkscape:connector-curvature="0" />
	<path style="fill:none;stroke:red;stroke-width:1px;stroke-linecap:butt;stroke-linejoin:miter;stroke-opacity:1" d="M 306.648,17.0976 316.946,34.3258 z" id="boundary" inkscape:connector-curvature="0" />
	<path style="fill:none;stroke:red;stroke-width:1px;stroke-linecap:butt;stroke-linejoin:miter;stroke-opacity:1" d="M 316.946,34.3258 323.47,55.4749 z" id="boundary" inkscape:connector-curvature="0" />
	<path style="fill:none;stroke:red;stroke-width:1px;stroke-linecap:butt;stroke-linejoin:miter;stroke-opacity:1" d="M 323.47,55.4749 326.725,80.1777 z" id="boundary" inkscape:connector-curvature="0" />
	<path style="fill:none;stroke:red;stroke-width:1px;stroke-linecap:butt;stroke-linejoin:miter;stroke-opacity:1" d="M 326.725,80.1777 321.444,106.36 z" id="boundary" inkscape:connector-curvature="0" />
	<path style="fill:none;stroke:red;stroke-width:1px;stroke-linecap:butt;stroke-linejoin:miter;stroke-opacity:1" d="M 321.444,106.36 321.681,133.091 z" id="boundary" inkscape:connector-curvature="0" />
	<path style="fill:none;stroke:red;stroke-width:1px;stroke-linecap:butt;stroke-linejoin:miter;stroke-opacity:1" d="M 321.681,133.091 311.85,158.535 z" id="boundary" inkscape:connector-curvature="0" />
	<path style="fill:none;stroke:red;stroke-width:1px;stroke-linecap:butt;stroke-linejoin:miter;stroke-opacity:1" d="M 311.85,158.535 309.086,185.096 z" id="boundary" inkscape:connector-curvature="0" />
	<path style="fill:none;stroke:red;stroke-width:1px;stroke-linecap:butt;stroke-linejoin:miter;stroke-opacity:1" d="M 309.086,185.096 302.736,209.676 z" id="boundary" inkscape:connector-curvature="0" />
	<path style="fill:none;stroke:red;stroke-width:1px;stroke-linecap:butt;stroke-linejoin:miter;stroke-opacity:1" d="M 302.736,209.676 300.267,233.793 z" id="boundary" inkscape:connector-curvature="0" />
	<path style="fill:none;stroke:red;stroke-width:1px;stroke-linecap:butt;stroke-linejoin:miter;stroke-opacity:1" d="M 300.267,233.793 294.009,257.008 z" id="boundary" inkscape:connector-curvature="0" />
	<path style="fill:none;stroke:red;stroke-width:1px;stroke-linecap:butt;stroke-linejoin:miter;stroke-opacity:1" d="M 294.009,257.008 290.526,281.043 z" id="boundary" inkscape:connector-curvature="0" />
	<path style="fill:none;stroke:red;stroke-width:1px;stroke-linecap:butt;stroke-linejoin:miter;stroke-opacity:1" d="M 290.526,281.043 297.659,306.072 z" id="boundary" inkscape:connector-curvature="0" />
	<path style="fill:none;stroke:red;stroke-width:1px;stroke-linecap:butt;stroke-linejoin:miter;stroke-opacity:1" d="M 297.659,306.072 303.337,332.277 z" id="boundary" inkscape:connector-curvature="0" />
	<path style="fill:none;stroke:red;stroke-width:1px;stroke-linecap:butt;stroke-linejoin:miter;stroke-opacity:1" d="M 303.337,332.277 311.639,367.354 z" id="boundary" inkscape:connector-curvature="0" />
	<path style="fill:none;stroke:red;stroke-width:1px;stroke-linecap:butt;stroke-linejoin:miter;stroke-opacity:1" d="M 311.639,367.354 346.997,384.899 z" id="boundary" inkscape:connector-curvature="0" />
	<path style="fill:none;stroke:red;stroke-width:1px;stroke-linecap:butt;stroke-linejoin:miter;stroke-opacity:1" d="M 346.997,384.899 382.163,401.352 z" id="boundary" inkscape:connector-curvature="0" />
	<path style="fill:none;stroke:red;stroke-width:1px;stroke-linecap:butt;stroke-linejoin:miter;stroke-opacity:1" d="M 382.163,401.352 430.291,405.747 z" id="boundary" inkscape:connector-curvature="0" />
	<path style="fill:none;stroke:red;stroke-width:1px;stroke-linecap:butt;stroke-linejoin:miter;stroke-opacity:1" d="M 430.291,405.747 495.234,382.954 z" id="boundary" inkscape:connector-curvature="0" />
	<path style="fill:none;stroke:red;stroke-width:1px;stroke-linecap:butt;stroke-linejoin:miter;stroke-opacity:1" d="M 495.234,382.954 583.203,360.887 z" id="boundary" inkscape:connector-curvature="0" />
	<path style="fill:none;stroke:red;stroke-width:1px;stroke-linecap:butt;stroke-linejoin:miter;stroke-opacity:1" d="M 583.203,360.887 709.414,325.971 z" id="boundary" inkscape:connector-curvature="0" />
	<path style="fill:none;stroke:red;stroke-width:1px;stroke-linecap:butt;stroke-linejoin:miter;stroke-opacity:1" d="M 709.414,325.971 824.542,392.375 z" id="boundary" inkscape:connector-curvature="0" />
	<path style="fill:none;stroke:red;stroke-width:1px;stroke-linecap:butt;stroke-linejoin:miter;stroke-opacity:1" d="M 824.542,392.375 908.687,459.94 z" id="boundary" inkscape:connector-curvature="0" />
	<path style="fill:none;stroke:red;stroke-width:1px;stroke-linecap:butt;stroke-linejoin:miter;stroke-opacity:1" d="M 908.687,459.94 939.374,556.108 z" id="boundary" inkscape:connector-curvature="0" />
	<path style="fill:none;stroke:red;stroke-width:1px;stroke-linecap:butt;stroke-linejoin:miter;stroke-opacity:1" d="M 939.374,556.108 945.552,646.756 z" id="boundary" inkscape:connector-curvature="0" />
	<path style="fill:none;stroke:red;stroke-width:1px;stroke-linecap:butt;stroke-linejoin:miter;stroke-opacity:1" d="M 945.552,646.756 943.868,700.591 z" id="boundary" inkscape:connector-curvature="0" />
	<path style="fill:none;stroke:red;stroke-width:1px;stroke-linecap:butt;stroke-linejoin:miter;stroke-opacity:1" d="M 943.868,700.591 942.177,741.934 z" id="boundary" inkscape:connector-curvature="0" />
	<path style="fill:none;stroke:red;stroke-width:1px;stroke-linecap:butt;stroke-linejoin:miter;stroke-opacity:1" d="M 942.177,741.934 947.647,777.257 z" id="boundary" inkscape:connector-curvature="0" />
	<path style="fill:none;stroke:red;stroke-width:1px;stroke-linecap:butt;stroke-linejoin:miter;stroke-opacity:1" d="M 947.647,777.257 964.673,807.064 z" id="boundary" inkscape:connector-curvature="0" />
	<path style="fill:none;stroke:red;stroke-width:1px;stroke-linecap:butt;stroke-linejoin:miter;stroke-opacity:1" d="M 964.673,807.064 989.528,821.483 z" id="boundary" inkscape:connector-curvature="0" />
	<path style="fill:none;stroke:red;stroke-width:1px;stroke-linecap:butt;stroke-linejoin:miter;stroke-opacity:1" d="M 989.528,821.483 994.134,848.73 z" id="boundary" inkscape:connector-curvature="0" />
	<path style="fill:none;stroke:red;stroke-width:1px;stroke-linecap:butt;stroke-linejoin:miter;stroke-opacity:1" d="M 994.134,848.73 996,877.33 z" id="boundary" inkscape:connector-curvature="0" />
	<path style="fill:none;stroke:red;stroke-width:1px;stroke-linecap:butt;stroke-linejoin:miter;stroke-opacity:1" d="M 996,877.33 990.922,915.175 z" id="boundary" inkscape:connector-curvature="0" />
	<path style="fill:none;stroke:red;stroke-width:1px;stroke-linecap:butt;stroke-linejoin:miter;stroke-opacity:1" d="M 990.922,915.175 963.232,949.938 z" id="boundary" inkscape:connector-curvature="0" />
	<path style="fill:none;stroke:red;stroke-width:1px;stroke-linecap:butt;stroke-linejoin:miter;stroke-opacity:1" d="M 963.232,949.938 920.774,973.109 z" id="boundary" inkscape:connector-curvature="0" />
	<path style="fill:none;stroke:red;stroke-width:1px;stroke-linecap:butt;stroke-linejoin:miter;stroke-opacity:1" d="M 920.774,973.109 861.537,986.797 z" id="boundary" inkscape:connector-curvature="0" />
	<path style="fill:none;stroke:red;stroke-width:1px;stroke-linecap:butt;stroke-linejoin:miter;stroke-opacity:1" d="M 861.537,986.797 782.751,989.107 z" id="boundary" inkscape:connector-curvature="0" />
	<path style="fill:none;stroke:red;stroke-width:1px;stroke-linecap:butt;stroke-linejoin:miter;stroke-opacity:1" d="M 782.751,989.107 677.941,981.236 z" id="boundary" inkscape:connector-curvature="0" />
	<path style="fill:none;stroke:red;stroke-width:1px;stroke-linecap:butt;stroke-linejoin:miter;stroke-opacity:1" d="M 677.941,981.236 530.407,994.404 z" id="boundary" inkscape:connector-curvature="0" />
	<path style="fill:none;stroke:red;stroke-width:1px;stroke-linecap:butt;stroke-linejoin:miter;stroke-opacity:1" d="M 530.407,994.404 430.278,979.679 z" id="boundary" inkscape:connector-curvature="0" />
	<path style="fill:none;stroke:red;stroke-width:1px;stroke-linecap:butt;stroke-linejoin:miter;stroke-opacity:1" d="M 430.278,979.679 357.665,977.894 z" id="boundary" inkscape:connector-curvature="0" />
	<path style="fill:none;stroke:red;stroke-width:1px;stroke-linecap:butt;stroke-linejoin:miter;stroke-opacity:1" d="M 357.665,977.894 303.871,976.193 z" id="boundary" inkscape:connector-curvature="0" />
	<path style="fill:none;stroke:red;stroke-width:1px;stroke-linecap:butt;stroke-linejoin:miter;stroke-opacity:1" d="M 303.871,976.193 261.03,979.148 z" id="boundary" inkscape:connector-curvature="0" />
	<path style="fill:none;stroke:red;stroke-width:1px;stroke-linecap:butt;stroke-linejoin:miter;stroke-opacity:1" d="M 261.03,979.148 223.482,971.533 z" id="boundary" inkscape:connector-curvature="0" />
	<path style="fill:none;stroke:red;stroke-width:1px;stroke-linecap:butt;stroke-linejoin:miter;stroke-opacity:1" d="M 223.482,971.533 193.276,966.024 z" id="boundary" inkscape:connector-curvature="0" />
	<path style="fill:none;stroke:red;stroke-width:1px;stroke-linecap:butt;stroke-linejoin:miter;stroke-opacity:1" d="M 193.276,966.024 170.465,962.287 z" id="boundary" inkscape:connector-curvature="0" />
	<path style="fill:none;stroke:red;stroke-width:1px;stroke-linecap:butt;stroke-linejoin:miter;stroke-opacity:1" d="M 170.465,962.287 157.858,946.392 z" id="boundary" inkscape:connector-curvature="0" />
	<path style="fill:none;stroke:red;stroke-width:1px;stroke-linecap:butt;stroke-linejoin:miter;stroke-opacity:1" d="M 157.858,946.392 147.114,928.543 z" id="boundary" inkscape:connector-curvature="0" />
	<path style="fill:none;stroke:red;stroke-width:1px;stroke-linecap:butt;stroke-linejoin:miter;stroke-opacity:1" d="M 147.114,928.543 152.654,906.374 z" id="boundary" inkscape:connector-curvature="0" />
	<path style="fill:none;stroke:red;stroke-width:1px;stroke-linecap:butt;stroke-linejoin:miter;stroke-opacity:1" d="M 152.654,906.374 159.942,883.844 z" id="boundary" inkscape:connector-curvature="0" />
	<path style="fill:none;stroke:red;stroke-width:1px;stroke-linecap:butt;stroke-linejoin:miter;stroke-opacity:1" d="M 159.942,883.844 182.462,875.567 z" id="boundary" inkscape:connector-curvature="0" />
	<path style="fill:none;stroke:red;stroke-width:1px;stroke-linecap:butt;stroke-linejoin:miter;stroke-opacity:1" d="M 182.462,875.567 205.8,859.193 z" id="boundary" inkscape:connector-curvature="0" />
	<path style="fill:none;stroke:red;stroke-width:1px;stroke-linecap:butt;stroke-linejoin:miter;stroke-opacity:1" d="M 205.8,859.193 233.448,856.389 z" id="boundary" inkscape:connector-curvature="0" />
	<path style="fill:none;stroke:red;stroke-width:1px;stroke-linecap:butt;stroke-linejoin:miter;stroke-opacity:1" d="M 233.448,856.389 249.422,836.628 z" id="boundary" inkscape:connector-curvature="0" />
	<path style="fill:none;stroke:red;stroke-width:1px;stroke-linecap:butt;stroke-linejoin:miter;stroke-opacity:1" d="M 249.422,836.628 258.776,813.458 z" id="boundary" inkscape:connector-curvature="0" />
	<circle cx="253.075" cy="802.361" r="4" fill="#0" id="circle0"/>
	<circle cx="249.311" cy="773.781" r="4" fill="#0" id="circle1"/>
	<circle cx="223.68" cy="746.787" r="4" fill="#0" id="circle2"/>
	<circle cx="187.822" cy="719.153" r="4" fill="#0" id="circle3"/>
	<circle cx="137.298" cy="693.294" r="4" fill="#0" id="circle4"/>
	<circle cx="87.7877" cy="651.193" r="4" fill="#0" id="circle5"/>
	<circle cx="52.2713" cy="632.283" r="4" fill="#0" id="circle6"/>
	<circle cx="25.6974" cy="614.1" r="4" fill="#0" id="circle7"/>
	<circle cx="15.7508" cy="584.496" r="4" fill="#0" id="circle8"/>
	<circle cx="4" cy="551.806" r="4" fill="#0" id="circle9"/>
	<circle cx="4.91871" cy="503.014" r="4" fill="#0" id="circle10"/>
	<circle cx="26.0457" cy="431.075" r="4" fill="#0" id="circle11"/>
	<circle cx="67.8578" cy="379.795" r="4" fill="#0" id="circle12"/>
	<circle cx="90.5855" cy="345.133" r="4" fill="#0" id="circle13"/>
	<circle cx="97.5711" cy="317.934" r="4" fill="#0" id="circle14"/>
	<circle cx="101.781" cy="294.316" r="4" fill="#0" id="circle15"/>
	<circle cx="105.356" cy="270.659" r="4" fill="#0" id="circle16"/>
	<circle cx="105.22" cy="246.131" r="4" fill="#0" id="circle17"/>
	<circle cx="109.964" cy="222.068" r="4" fill="#0" id="circle18"/>
	<circle cx="106.273" cy="196.529" r="4" fill="#0" id="circle19"/>
	<circle cx="111.057" cy="170.433" r="4" fill="#0" id="circle20"/>
	<circle cx="109.456" cy="145.399" r="4" fill="#0" id="circle21"/>
	<circle cx="110.882" cy="120.728" r="4" fill="#0" id="circle22"/>
	<circle cx="106.773" cy="94.8516" r="4" fill="#0" id="circle23"/>
	<circle cx="113.831" cy="71.1722" r="4" fill="#0" id="circle24"/>
	<circle cx="115.377" cy="47.6997" r="4" fill="#0" id="circle25"/>
	<circle cx="121.773" cy="29.5336" r="4" fill="#0" id="circle26"/>
	<circle cx="129.021" cy="16.2419" r="4" fill="#0" id="circle27"/>
	<circle cx="138.978" cy="4" r="4" fill="#0" id="circle28"/>
	<circle cx="154.997" cy="5.90592" r="4" fill="#0" id="circle29"/>
	<circle cx="169.577" cy="8.80731" r="4" fill="#0" id="circle30"/>
	<circle cx="181.361" cy="19.7576" r="4" fill="#0" id="circle31"/>
	<circle cx="185.898" cy="36.1913" r="4" fill="#0" id="circle32"/>
	<circle cx="186.603" cy="54.5115" r="4" fill="#0" id="circle33"/>
	<circle cx="189.218" cy="71.2521" r="4" fill="#0" id="circle34"/>
	<circle cx="188.664" cy="86.7623" r="4" fill="#0" id="circle35"/>
	<circle cx="188.246" cy="101.66" r="4" fill="#0" id="circle36"/>
	<circle cx="190.061" cy="115.663" r="4" fill="#0" id="circle37"/>
	<circle cx="186.664" cy="129.929" r="4" fill="#0" id="circle38"/>
	<circle cx="188.515" cy="142.952" r="4" fill="#0" id="circle39"/>
	<circle cx="187.44" cy="156.084" r="4" fill="#0" id="circle40"/>
	<circle cx="188.604" cy="169.276" r="4" fill="#0" id="circle41"/>
	<circle cx="187.426" cy="181.278" r="4" fill="#0" id="circle42"/>
	<circle cx="189.248" cy="192.739" r="4" fill="#0" id="circle43"/>
	<circle cx="186.983" cy="203.679" r="4" fill="#0" id="circle44"/>
	<circle cx="186.98" cy="214.133" r="4" fill="#0" id="circle45"/>
	<circle cx="188.08" cy="224.958" r="4" fill="#0" id="circle46"/>
	<circle cx="187.864" cy="235.933" r="4" fill="#0" id="circle47"/>
	<circle cx="184.54" cy="246.044" r="4" fill="#0" id="circle48"/>
	<circle cx="186.62" cy="255.844" r="4" fill="#0" id="circle49"/>
	<circle cx="184.558" cy="265.927" r="4" fill="#0" id="circle50"/>
	<circle cx="182.565" cy="275.157" r="4" fill="#0" id="circle51"/>
	<circle cx="182.295" cy="284.672" r="4" fill="#0" id="circle52"/>
	<circle cx="183.264" cy="293.585" r="4" fill="#0" id="circle53"/>
	<circle cx="183.851" cy="301.957" r="4" fill="#0" id="circle54"/>
	<circle cx="183.238" cy="309.661" r="4" fill="#0" id="circle55"/>
	<circle cx="184.614" cy="316.331" r="4" fill="#0" id="circle56"/>
	<circle cx="188.366" cy="321.251" r="4" fill="#0" id="circle57"/>
	<circle cx="192.762" cy="322.8" r="4" fill="#0" id="circle58"/>
	<circle cx="196.352" cy="323.879" r="4" fill="#0" id="circle59"/>
	<circle cx="199.99" cy="322.503" r="4" fill="#0" id="circle60"/>
	<circle cx="201.991" cy="319.23" r="4" fill="#0" id="circle61"/>
	<circle cx="204.228" cy="315.117" r="4" fill="#0" id="circle62"/>
	<circle cx="206.437" cy="308.831" r="4" fill="#0" id="circle63"/>
	<circle cx="210.005" cy="301.152" r="4" fill="#0" id="circle64"/>
	<circle cx="211.082" cy="292.238" r="4" fill="#0" id="circle65"/>
	<circle cx="213.082" cy="283.352" r="4" fill="#0" id="circle66"/>
	<circle cx="213.333" cy="273.803" r="4" fill="#0" id="circle67"/>
	<circle cx="215.36" cy="264.301" r="4" fill="#0" id="circle68"/>
	<circle cx="216.085" cy="254.589" r="4" fill="#0" id="circle69"/>
	<circle cx="217.733" cy="244.341" r="4" fill="#0" id="circle70"/>
	<circle cx="220.582" cy="233.595" r="4" fill="#0" id="circle71"/>
	<circle cx="220.527" cy="222.754" r="4" fill="#0" id="circle72"/>
	<circle cx="220.046" cy="212.235" r="4" fill="#0" id="circle73"/>
	<circle cx="221.25" cy="201.475" r="4" fill="#0" id="circle74"/>
	<circle cx="223.269" cy="190.387" r="4" fill="#0" id="circle75"/>
	<circle cx="226.273" cy="179.01" r="4" fill="#0" id="circle76"/>
	<circle cx="226.021" cy="166.828" r="4" fill="#0" id="circle77"/>
	<circle cx="227.996" cy="154.38" r="4" fill="#0" id="circle78"/>
	<circle cx="230.903" cy="141.13" r="4" fill="#0" id="circle79"/>
	<circle cx="231.143" cy="127.596" r="4" fill="#0" id="circle80"/>
	<circle cx="235.409" cy="113.277" r="4" fill="#0" id="circle81"/>
	<circle cx="236.201" cy="98.848" r="4" fill="#0" id="circle82"/>
	<circle cx="236.5" cy="83.3945" r="4" fill="#0" id="circle83"/>
	<circle cx="239.703" cy="67.8665" r="4" fill="#0" id="circle84"/>
	<circle cx="246.753" cy="51.5607" r="4" fill="#0" id="circle85"/>
	<circle cx="254.198" cy="33.7777" r="4" fill="#0" id="circle86"/>
	<circle cx="260.45" cy="18.3497" r="4" fill="#0" id="circle87"/>
	<circle cx="275.057" cy="12.4889" r="4" fill="#0" id="circle88"/>
	<circle cx="290.348" cy="11.0049" r="4" fill="#0" id="circle89"/>
	<circle cx="306.648" cy="17.0976" r="4" fill="#0" id="circle90"/>
	<circle cx="316.946" cy="34.3258" r="4" fill="#0" id="circle91"/>
	<circle cx="323.47" cy="55.4749" r="4" fill="#0" id="circle92"/>
	<circle cx="326.725" cy="80.1777" r="4" fill="#0" id="circle93"/>
	<circle cx="321.444" cy="106.36" r="4" fill="#0" id="circle94"/>
	<circle cx="321.681" cy="133.091" r="4" fill="#0" id="circle95"/>
	<circle cx="311.85" cy="158.535" r="4" fill="#0" id="circle96"/>
	<circle cx="309.086" cy="185.096" r="4" fill="#0" id="circle97"/>
	<circle cx="302.736" cy="209.676" r="4" fill="#0" id="circle98"/>
	<circle cx="300.267" cy="233.793" r="4" fill="#0" id="circle99"/>
	<circle cx="294.009" cy="257.008" r="4" fill="#0" id="circle100"/>
	<circle cx="290.526" cy="281.043" r="4" fill="#0" id="circle101"/>
	<circle cx="297.659" cy="306.072" r="4" fill="#0" id="circle102"/>
	<circle cx="303.337" cy="332.277" r="4" fill="#0" id="circle103"/>
	<circle cx="311.639" cy="367.354" r="4" fill="#0" id="circle104"/>
	<circle cx="346.997" cy="384.899" r="4" fill="#0" id="circle105"/>
	<circle cx="382.163" cy="401.352" r="4" fill="#0" id="circle106"/>
	<circle cx="430.291" cy="405.747" r="4" fill="#0" id="circle107"/>
	<circle cx="495.234" cy="382.954" r="4" fill="#0" id="circle108"/>
	<circle cx="583.203" cy="360.887" r="4" fill="#0" id="circle109"/>
	<circle cx="709.414" cy="325.971" r="4" fill="#0" id="circle110"/>
	<circle cx="824.542" cy="392.375" r="4" fill="#0" id="circle111"/>
	<circle cx="908.687" cy="459.94" r="4" fill="#0" id="circle112"/>
	<circle cx="939.374" cy="556.108" r="4" fill="#0" id="circle113"/>
	<circle cx="945.552" cy="646.756" r="4" fill="#0" id="circle114"/>
	<circle cx="943.868" cy="700.591" r="4" fill="#0" id="circle115"/>
	<circle cx="942.177" cy="741.934" r="4" fill="#0" id="circle116"/>
	<circle cx="947.647" cy="777.257" r="4" fill="#0" id="circle117"/>
	<circle cx="964.673" cy="807.064" r="4" fill="#0" id="circle118"/>
	<circle cx="989.528" cy="821.483" r="4" fill="#0" id="circle119"/>
	<circle cx="994.134" cy="848.73" r="4" fill="#0" id="circle120"/>
	<circle cx="996" cy="877.33" r="4" fill="#0" id="circle121"/>
	<circle cx="990.922" cy="915.175" r="4" fill="#0" id="circle122"/>
	<circle cx="963.232" cy="949.938" r="4" fill="#0" id="circle123"/>
	<circle cx="920.774" cy="973.109" r="4" fill="#0" id="circle124"/>
	<circle cx="861.537" cy="986.797" r="4" fill="#0" id="circle125"/>
	<circle cx="782.751" cy="989.107" r="4" fill="#0" id="circle126"/>
	<circle cx="677.941" cy="981.236" r="4" fill="#0" id="circle127"/>
	<circle cx="530.407" cy="994.404" r="4" fill="#0" id="circle128"/>
	<circle cx="430.278" cy="979.679" r="4" fill="#0" id="circle129"/>
	<circle cx="357.665" cy="977.894" r="4" fill="#0" id="circle130"/>
	<circle cx="303.871" cy="976.193" r="4" fill="#0" id="circle131"/>
	<circle cx="261.03" cy="979.148" r="4" fill="#0" id="circle132"/>
	<circle cx="223.482" cy="971.533" r="4" fill="#0" id="circle133"/>
	<circle cx="193.276" cy="966.024" r="4" fill="#0" id="circle134"/>
	<circle cx="170.465" cy="962.287" r="4" fill="#0" id="circle135"/>
	<circle cx="157.858" cy="946.392" r="4" fill="#0" id="circle136"/>
	<circle cx="147.114" cy="928.543" r="4" fill="#0" id="circle137"/>
	<circle cx="152.654" cy="906.374" r="4" fill="#0" id="circle138"/>
	<circle cx="159.942" cy="883.844" r="4" fill="#0" id="circle139"/>
	<circle cx="182.462" cy="875.567" r="4" fill="#0" id="circle140"/>
	<circle cx="205.8" cy="859.193" r="4" fill="#0" id="circle141"/>
	<circle cx="233.448" cy="856.389" r="4" fill="#0" id="circle142"/>
	<circle cx="249.422" cy="836.628" r="4" fill="#0" id="circle143"/>
	<circle cx="258.776" cy="813.458" r="4" fill="#0" id="circle144"/>
	</g>
</svg>