205.15502 557.22188
204.28571 462.46809
201.67781 415.52584
202.54711 389.44681
199.06991 365.10638
168.64438 350.32827
133.87234 338.15805
105.18541 314.68693
59.98176 287.73860
42.59574 243.40426
40.85714 186.03040
50.41945 136.48024
57.37386 156.47416
64.32827 170.38298
69.54407 182.55319
92.14590 196.46201
113.87842 194.72340
126.04863 176.46809
132.13374 148.65046
137.34954 124.31003
142.56535 97.36170
148.65046 70.41337
152.12766 51.28875
160.82067 22.60182
165.16717 37.37994
168.64438 53.02736
172.99088 72.15198
174.72948 89.53799
178.20669 106.05471
185.16109 126.04863
192.11550 156.47416
197.33131 180.81459
209.50152 190.37690
228.62614 199.93921
244.27356 190.37690
258.18237 184.29179
260.79027 166.90578
262.52888 152.99696
266.00608 123.44073
267.74468 103.44681
269.48328 80.84498
272.09119 59.11246
271.22188 43.46505
273.75265 28.92639
276.68721 12.15747
280.87944 48.21065
285.07167 72.94481
287.16779 95.58285
288.00623 113.60945
293.03691 126.60536
294.71380 147.98574
298.48681 163.07777
303.93671 179.84669
329.92854 187.81193
353.82425 184.87736
376.88152 172.71990
384.42753 157.20864
390.29666 136.24749
394.06966 190.32726
384.00831 230.57268
365.56250 278.36410
346.69746 308.54816
285.49090 337.89378
264.94897 349.63202
244.82626 379.81608
239.79558 406.64636
239.37636 459.88768
241.47248 539.12084
241.47248 556.72821
163.49699 269.14120
175.23523 259.07984
184.03892 272.07576
186.97348 252.79150
203.32318 248.18004
203.74240 272.49498
227.21889 272.07576
246.50315 267.04508
259.91829 259.07984
249.43771 252.79150
234.34568 249.01849
219.25365 248.59927
