126.76356 226.51193
120.52928 198.45770
122.60738 136.11497
139.23210 98.70933
150.66161 55.06941
182.87202 101.82646
178.71584 139.23210
170.40347 191.18438
177.67679 226.51193
396.91540 470.68764
393.79826 447.82863
392.75922 430.16486
396.91540 377.17354
393.79826 308.59653
401.07158 246.25380
401.07158 190.14534
398.99349 127.80260
424.96963 78.96746
441.59436 117.41215
464.45336 168.32538
468.60954 231.70716
466.53145 299.24512
458.21909 356.39262
456.14100 419.77440
457.18004 453.02386
439.51627 468.60954
733.56616 381.32972
752.26898 347.04121
774.08894 342.88503
799.02603 348.08026
812.53362 332.49458
820.84599 317.94794
816.68980 289.89371
796.94794 281.58134
776.16703 277.42516
743.95662 259.76139
735.64425 246.25380
796.94794 235.86334
833.31453 242.09761
866.56399 270.15184
886.30586 311.71367
895.65727 356.39262
849.93926 385.48590
791.75271 415.61822
