<?xml version="1.0" encoding="UTF-8" standalone="no"?>
<!-- Created with CurveBenchmark -->
<svg
	xmlns:dc="http://purl.org/dc/elements/1.1/"
	xmlns:cc="http://creativecommons.org/ns#"
	xmlns:rdf="http://www.w3.org/1999/02/22-rdf-syntax-ns#"
	xmlns:svg="http://www.w3.org/2000/svg"
	xmlns="http://www.w3.org/2000/svg"
	xmlns:sodipodi="http://sodipodi.sourceforge.net/DTD/sodipodi-0.dtd"
	xmlns:inkscape="http://www.inkscape.org/namespaces/inkscape"
	width="1000"
	height="1000"
	id="svg2"
	version="1.1"
	sodipodi:docname="lfsnoise-0.3333/fitconnect-bunny.svg">
<defs
	id="defs4" />
<metadata
	id="metadata7">
	<rdf:RDF>
		<cc:Work
			rdf:about="">
			<dc:format>image/svg+xml</dc:format>
			<dc:type
				rdf:resource="http://purl.org/dc/dcmitype/StillImage" />
			<dc:title></dc:title>
		</cc:Work>
	</rdf:RDF>
</metadata>
<g
	inkscape:label="Layer 1"
	inkscape:groupmode="layer"
	id="layer1">
	<path style="fill:none;stroke:red;stroke-width:1px;stroke-linecap:butt;stroke-linejoin:miter;stroke-opacity:1" d="M 241.557,787.202 246.754,757.736 z" id="boundary" inkscape:connector-curvature="0" />
	<path style="fill:none;stroke:red;stroke-width:1px;stroke-linecap:butt;stroke-linejoin:miter;stroke-opacity:1" d="M 241.557,787.202 259.622,797.789 z" id="boundary" inkscape:connector-curvature="0" />
	<path style="fill:none;stroke:red;stroke-width:1px;stroke-linecap:butt;stroke-linejoin:miter;stroke-opacity:1" d="M 246.754,757.736 213.335,738.607 z" id="boundary" inkscape:connector-curvature="0" />
	<path style="fill:none;stroke:red;stroke-width:1px;stroke-linecap:butt;stroke-linejoin:miter;stroke-opacity:1" d="M 213.335,738.607 178.282,714.95 z" id="boundary" inkscape:connector-curvature="0" />
	<path style="fill:none;stroke:red;stroke-width:1px;stroke-linecap:butt;stroke-linejoin:miter;stroke-opacity:1" d="M 178.282,714.95 125.962,697.708 z" id="boundary" inkscape:connector-curvature="0" />
	<path style="fill:none;stroke:red;stroke-width:1px;stroke-linecap:butt;stroke-linejoin:miter;stroke-opacity:1" d="M 125.962,697.708 92.4866,630.131 z" id="boundary" inkscape:connector-curvature="0" />
	<path style="fill:none;stroke:red;stroke-width:1px;stroke-linecap:butt;stroke-linejoin:miter;stroke-opacity:1" d="M 92.4866,630.131 55.0352,617.715 z" id="boundary" inkscape:connector-curvature="0" />
	<path style="fill:none;stroke:red;stroke-width:1px;stroke-linecap:butt;stroke-linejoin:miter;stroke-opacity:1" d="M 55.0352,617.715 22.0958,607.103 z" id="boundary" inkscape:connector-curvature="0" />
	<path style="fill:none;stroke:red;stroke-width:1px;stroke-linecap:butt;stroke-linejoin:miter;stroke-opacity:1" d="M 22.0958,607.103 21.8522,572.723 z" id="boundary" inkscape:connector-curvature="0" />
	<path style="fill:none;stroke:red;stroke-width:1px;stroke-linecap:butt;stroke-linejoin:miter;stroke-opacity:1" d="M 21.8522,572.723 4,542.953 z" id="boundary" inkscape:connector-curvature="0" />
	<path style="fill:none;stroke:red;stroke-width:1px;stroke-linecap:butt;stroke-linejoin:miter;stroke-opacity:1" d="M 4,542.953 7.484,495.338 z" id="boundary" inkscape:connector-curvature="0" />
	<path style="fill:none;stroke:red;stroke-width:1px;stroke-linecap:butt;stroke-linejoin:miter;stroke-opacity:1" d="M 7.484,495.338 20.2918,421.445 z" id="boundary" inkscape:connector-curvature="0" />
	<path style="fill:none;stroke:red;stroke-width:1px;stroke-linecap:butt;stroke-linejoin:miter;stroke-opacity:1" d="M 20.2918,421.445 71.758,378.42 z" id="boundary" inkscape:connector-curvature="0" />
	<path style="fill:none;stroke:red;stroke-width:1px;stroke-linecap:butt;stroke-linejoin:miter;stroke-opacity:1" d="M 71.758,378.42 89.6223,341.299 z" id="boundary" inkscape:connector-curvature="0" />
	<path style="fill:none;stroke:red;stroke-width:1px;stroke-linecap:butt;stroke-linejoin:miter;stroke-opacity:1" d="M 89.6223,341.299 88.2991,312.957 z" id="boundary" inkscape:connector-curvature="0" />
	<path style="fill:none;stroke:red;stroke-width:1px;stroke-linecap:butt;stroke-linejoin:miter;stroke-opacity:1" d="M 88.2991,312.957 93.4793,291.316 z" id="boundary" inkscape:connector-curvature="0" />
	<path style="fill:none;stroke:red;stroke-width:1px;stroke-linecap:butt;stroke-linejoin:miter;stroke-opacity:1" d="M 93.4793,291.316 101.9,268.867 z" id="boundary" inkscape:connector-curvature="0" />
	<path style="fill:none;stroke:red;stroke-width:1px;stroke-linecap:butt;stroke-linejoin:miter;stroke-opacity:1" d="M 101.9,268.867 100.266,245.02 z" id="boundary" inkscape:connector-curvature="0" />
	<path style="fill:none;stroke:red;stroke-width:1px;stroke-linecap:butt;stroke-linejoin:miter;stroke-opacity:1" d="M 100.266,245.02 115.292,221.657 z" id="boundary" inkscape:connector-curvature="0" />
	<path style="fill:none;stroke:red;stroke-width:1px;stroke-linecap:butt;stroke-linejoin:miter;stroke-opacity:1" d="M 115.292,221.657 103.221,196.766 z" id="boundary" inkscape:connector-curvature="0" />
	<path style="fill:none;stroke:red;stroke-width:1px;stroke-linecap:butt;stroke-linejoin:miter;stroke-opacity:1" d="M 103.221,196.766 118.674,171.39 z" id="boundary" inkscape:connector-curvature="0" />
	<path style="fill:none;stroke:red;stroke-width:1px;stroke-linecap:butt;stroke-linejoin:miter;stroke-opacity:1" d="M 118.674,171.39 112.949,147.056 z" id="boundary" inkscape:connector-curvature="0" />
	<path style="fill:none;stroke:red;stroke-width:1px;stroke-linecap:butt;stroke-linejoin:miter;stroke-opacity:1" d="M 112.949,147.056 116.24,123.178 z" id="boundary" inkscape:connector-curvature="0" />
	<path style="fill:none;stroke:red;stroke-width:1px;stroke-linecap:butt;stroke-linejoin:miter;stroke-opacity:1" d="M 116.24,123.178 100.203,97.4256 z" id="boundary" inkscape:connector-curvature="0" />
	<path style="fill:none;stroke:red;stroke-width:1px;stroke-linecap:butt;stroke-linejoin:miter;stroke-opacity:1" d="M 100.203,97.4256 118.547,75.3639 z" id="boundary" inkscape:connector-curvature="0" />
	<path style="fill:none;stroke:red;stroke-width:1px;stroke-linecap:butt;stroke-linejoin:miter;stroke-opacity:1" d="M 118.547,75.3639 115.655,52.1771 z" id="boundary" inkscape:connector-curvature="0" />
	<path style="fill:none;stroke:red;stroke-width:1px;stroke-linecap:butt;stroke-linejoin:miter;stroke-opacity:1" d="M 115.655,52.1771 124.587,35.8202 z" id="boundary" inkscape:connector-curvature="0" />
	<path style="fill:none;stroke:red;stroke-width:1px;stroke-linecap:butt;stroke-linejoin:miter;stroke-opacity:1" d="M 124.587,35.8202 130.728,24.0293 z" id="boundary" inkscape:connector-curvature="0" />
	<path style="fill:none;stroke:red;stroke-width:1px;stroke-linecap:butt;stroke-linejoin:miter;stroke-opacity:1" d="M 130.728,24.0293 135.173,4 z" id="boundary" inkscape:connector-curvature="0" />
	<path style="fill:none;stroke:red;stroke-width:1px;stroke-linecap:butt;stroke-linejoin:miter;stroke-opacity:1" d="M 135.173,4 152.435,14.4006 z" id="boundary" inkscape:connector-curvature="0" />
	<path style="fill:none;stroke:red;stroke-width:1px;stroke-linecap:butt;stroke-linejoin:miter;stroke-opacity:1" d="M 152.435,14.4006 166.9,13.86 z" id="boundary" inkscape:connector-curvature="0" />
	<path style="fill:none;stroke:red;stroke-width:1px;stroke-linecap:butt;stroke-linejoin:miter;stroke-opacity:1" d="M 166.9,13.86 181.755,22.8247 z" id="boundary" inkscape:connector-curvature="0" />
	<path style="fill:none;stroke:red;stroke-width:1px;stroke-linecap:butt;stroke-linejoin:miter;stroke-opacity:1" d="M 181.755,22.8247 184.201,40.3259 z" id="boundary" inkscape:connector-curvature="0" />
	<path style="fill:none;stroke:red;stroke-width:1px;stroke-linecap:butt;stroke-linejoin:miter;stroke-opacity:1" d="M 184.201,40.3259 180.812,58.6905 z" id="boundary" inkscape:connector-curvature="0" />
	<path style="fill:none;stroke:red;stroke-width:1px;stroke-linecap:butt;stroke-linejoin:miter;stroke-opacity:1" d="M 180.812,58.6905 187.556,74.7559 z" id="boundary" inkscape:connector-curvature="0" />
	<path style="fill:none;stroke:red;stroke-width:1px;stroke-linecap:butt;stroke-linejoin:miter;stroke-opacity:1" d="M 187.556,74.7559 185.675,89.8909 z" id="boundary" inkscape:connector-curvature="0" />
	<path style="fill:none;stroke:red;stroke-width:1px;stroke-linecap:butt;stroke-linejoin:miter;stroke-opacity:1" d="M 185.675,89.8909 184.931,104.393 z" id="boundary" inkscape:connector-curvature="0" />
	<path style="fill:none;stroke:red;stroke-width:1px;stroke-linecap:butt;stroke-linejoin:miter;stroke-opacity:1" d="M 184.931,104.393 191.629,118.156 z" id="boundary" inkscape:connector-curvature="0" />
	<path style="fill:none;stroke:red;stroke-width:1px;stroke-linecap:butt;stroke-linejoin:miter;stroke-opacity:1" d="M 191.629,118.156 181.394,131.876 z" id="boundary" inkscape:connector-curvature="0" />
	<path style="fill:none;stroke:red;stroke-width:1px;stroke-linecap:butt;stroke-linejoin:miter;stroke-opacity:1" d="M 181.394,131.876 187.875,144.627 z" id="boundary" inkscape:connector-curvature="0" />
	<path style="fill:none;stroke:red;stroke-width:1px;stroke-linecap:butt;stroke-linejoin:miter;stroke-opacity:1" d="M 187.875,144.627 184.462,157.385 z" id="boundary" inkscape:connector-curvature="0" />
	<path style="fill:none;stroke:red;stroke-width:1px;stroke-linecap:butt;stroke-linejoin:miter;stroke-opacity:1" d="M 184.462,157.385 187.732,170.166 z" id="boundary" inkscape:connector-curvature="0" />
	<path style="fill:none;stroke:red;stroke-width:1px;stroke-linecap:butt;stroke-linejoin:miter;stroke-opacity:1" d="M 187.732,170.166 183.358,181.928 z" id="boundary" inkscape:connector-curvature="0" />
	<path style="fill:none;stroke:red;stroke-width:1px;stroke-linecap:butt;stroke-linejoin:miter;stroke-opacity:1" d="M 183.358,181.928 189.155,193.089 z" id="boundary" inkscape:connector-curvature="0" />
	<path style="fill:none;stroke:red;stroke-width:1px;stroke-linecap:butt;stroke-linejoin:miter;stroke-opacity:1" d="M 189.155,193.089 182.067,203.7 z" id="boundary" inkscape:connector-curvature="0" />
	<path style="fill:none;stroke:red;stroke-width:1px;stroke-linecap:butt;stroke-linejoin:miter;stroke-opacity:1" d="M 182.067,203.7 182.64,213.874 z" id="boundary" inkscape:connector-curvature="0" />
	<path style="fill:none;stroke:red;stroke-width:1px;stroke-linecap:butt;stroke-linejoin:miter;stroke-opacity:1" d="M 182.64,213.874 187.128,224.551 z" id="boundary" inkscape:connector-curvature="0" />
	<path style="fill:none;stroke:red;stroke-width:1px;stroke-linecap:butt;stroke-linejoin:miter;stroke-opacity:1" d="M 187.128,224.551 187.677,235.307 z" id="boundary" inkscape:connector-curvature="0" />
	<path style="fill:none;stroke:red;stroke-width:1px;stroke-linecap:butt;stroke-linejoin:miter;stroke-opacity:1" d="M 187.677,235.307 178.317,244.78 z" id="boundary" inkscape:connector-curvature="0" />
	<path style="fill:none;stroke:red;stroke-width:1px;stroke-linecap:butt;stroke-linejoin:miter;stroke-opacity:1" d="M 178.317,244.78 186.574,254.75 z" id="boundary" inkscape:connector-curvature="0" />
	<path style="fill:none;stroke:red;stroke-width:1px;stroke-linecap:butt;stroke-linejoin:miter;stroke-opacity:1" d="M 186.574,254.75 181.588,264.354 z" id="boundary" inkscape:connector-curvature="0" />
	<path style="fill:none;stroke:red;stroke-width:1px;stroke-linecap:butt;stroke-linejoin:miter;stroke-opacity:1" d="M 181.588,264.354 176.669,273.132 z" id="boundary" inkscape:connector-curvature="0" />
	<path style="fill:none;stroke:red;stroke-width:1px;stroke-linecap:butt;stroke-linejoin:miter;stroke-opacity:1" d="M 176.669,273.132 177.184,282.48 z" id="boundary" inkscape:connector-curvature="0" />
	<path style="fill:none;stroke:red;stroke-width:1px;stroke-linecap:butt;stroke-linejoin:miter;stroke-opacity:1" d="M 177.184,282.48 181.174,291.297 z" id="boundary" inkscape:connector-curvature="0" />
	<path style="fill:none;stroke:red;stroke-width:1px;stroke-linecap:butt;stroke-linejoin:miter;stroke-opacity:1" d="M 181.174,291.297 183.004,299.33 z" id="boundary" inkscape:connector-curvature="0" />
	<path style="fill:none;stroke:red;stroke-width:1px;stroke-linecap:butt;stroke-linejoin:miter;stroke-opacity:1" d="M 183.004,299.33 179.344,307.058 z" id="boundary" inkscape:connector-curvature="0" />
	<path style="fill:none;stroke:red;stroke-width:1px;stroke-linecap:butt;stroke-linejoin:miter;stroke-opacity:1" d="M 179.344,307.058 179.65,314.242 z" id="boundary" inkscape:connector-curvature="0" />
	<path style="fill:none;stroke:red;stroke-width:1px;stroke-linecap:butt;stroke-linejoin:miter;stroke-opacity:1" d="M 179.65,314.242 183.997,319.562 z" id="boundary" inkscape:connector-curvature="0" />
	<path style="fill:none;stroke:red;stroke-width:1px;stroke-linecap:butt;stroke-linejoin:miter;stroke-opacity:1" d="M 183.997,319.562 189.36,319.833 z" id="boundary" inkscape:connector-curvature="0" />
	<path style="fill:none;stroke:red;stroke-width:1px;stroke-linecap:butt;stroke-linejoin:miter;stroke-opacity:1" d="M 189.36,319.833 192.909,321.911 z" id="boundary" inkscape:connector-curvature="0" />
	<path style="fill:none;stroke:red;stroke-width:1px;stroke-linecap:butt;stroke-linejoin:miter;stroke-opacity:1" d="M 192.909,321.911 196.819,320.003 z" id="boundary" inkscape:connector-curvature="0" />
	<path style="fill:none;stroke:red;stroke-width:1px;stroke-linecap:butt;stroke-linejoin:miter;stroke-opacity:1" d="M 196.819,320.003 197.267,315.422 z" id="boundary" inkscape:connector-curvature="0" />
	<path style="fill:none;stroke:red;stroke-width:1px;stroke-linecap:butt;stroke-linejoin:miter;stroke-opacity:1" d="M 197.267,315.422 199.098,311.564 z" id="boundary" inkscape:connector-curvature="0" />
	<path style="fill:none;stroke:red;stroke-width:1px;stroke-linecap:butt;stroke-linejoin:miter;stroke-opacity:1" d="M 199.098,311.564 200.875,305.543 z" id="boundary" inkscape:connector-curvature="0" />
	<path style="fill:none;stroke:red;stroke-width:1px;stroke-linecap:butt;stroke-linejoin:miter;stroke-opacity:1" d="M 200.875,305.543 207.57,298.959 z" id="boundary" inkscape:connector-curvature="0" />
	<path style="fill:none;stroke:red;stroke-width:1px;stroke-linecap:butt;stroke-linejoin:miter;stroke-opacity:1" d="M 207.57,298.959 206.983,289.913 z" id="boundary" inkscape:connector-curvature="0" />
	<path style="fill:none;stroke:red;stroke-width:1px;stroke-linecap:butt;stroke-linejoin:miter;stroke-opacity:1" d="M 206.983,289.913 210.006,281.438 z" id="boundary" inkscape:connector-curvature="0" />
	<path style="fill:none;stroke:red;stroke-width:1px;stroke-linecap:butt;stroke-linejoin:miter;stroke-opacity:1" d="M 210.006,281.438 207.66,271.762 z" id="boundary" inkscape:connector-curvature="0" />
	<path style="fill:none;stroke:red;stroke-width:1px;stroke-linecap:butt;stroke-linejoin:miter;stroke-opacity:1" d="M 207.66,271.762 211.313,262.747 z" id="boundary" inkscape:connector-curvature="0" />
	<path style="fill:none;stroke:red;stroke-width:1px;stroke-linecap:butt;stroke-linejoin:miter;stroke-opacity:1" d="M 211.313,262.747 210.924,253.158 z" id="boundary" inkscape:connector-curvature="0" />
	<path style="fill:none;stroke:red;stroke-width:1px;stroke-linecap:butt;stroke-linejoin:miter;stroke-opacity:1" d="M 210.924,253.158 213.484,243.297 z" id="boundary" inkscape:connector-curvature="0" />
	<path style="fill:none;stroke:red;stroke-width:1px;stroke-linecap:butt;stroke-linejoin:miter;stroke-opacity:1" d="M 213.484,243.297 219.854,233.246 z" id="boundary" inkscape:connector-curvature="0" />
	<path style="fill:none;stroke:red;stroke-width:1px;stroke-linecap:butt;stroke-linejoin:miter;stroke-opacity:1" d="M 219.854,233.246 216.898,222.357 z" id="boundary" inkscape:connector-curvature="0" />
	<path style="fill:none;stroke:red;stroke-width:1px;stroke-linecap:butt;stroke-linejoin:miter;stroke-opacity:1" d="M 216.898,222.357 212.65,211.681 z" id="boundary" inkscape:connector-curvature="0" />
	<path style="fill:none;stroke:red;stroke-width:1px;stroke-linecap:butt;stroke-linejoin:miter;stroke-opacity:1" d="M 212.65,211.681 213.73,201.187 z" id="boundary" inkscape:connector-curvature="0" />
	<path style="fill:none;stroke:red;stroke-width:1px;stroke-linecap:butt;stroke-linejoin:miter;stroke-opacity:1" d="M 213.73,201.187 217.293,190.572 z" id="boundary" inkscape:connector-curvature="0" />
	<path style="fill:none;stroke:red;stroke-width:1px;stroke-linecap:butt;stroke-linejoin:miter;stroke-opacity:1" d="M 217.293,190.572 223.864,179.936 z" id="boundary" inkscape:connector-curvature="0" />
	<path style="fill:none;stroke:red;stroke-width:1px;stroke-linecap:butt;stroke-linejoin:miter;stroke-opacity:1" d="M 223.864,179.936 219.653,167.578 z" id="boundary" inkscape:connector-curvature="0" />
	<path style="fill:none;stroke:red;stroke-width:1px;stroke-linecap:butt;stroke-linejoin:miter;stroke-opacity:1" d="M 219.653,167.578 222.4,155.558 z" id="boundary" inkscape:connector-curvature="0" />
	<path style="fill:none;stroke:red;stroke-width:1px;stroke-linecap:butt;stroke-linejoin:miter;stroke-opacity:1" d="M 222.4,155.558 227.947,143.004 z" id="boundary" inkscape:connector-curvature="0" />
	<path style="fill:none;stroke:red;stroke-width:1px;stroke-linecap:butt;stroke-linejoin:miter;stroke-opacity:1" d="M 227.947,143.004 224.888,129.408 z" id="boundary" inkscape:connector-curvature="0" />
	<path style="fill:none;stroke:red;stroke-width:1px;stroke-linecap:butt;stroke-linejoin:miter;stroke-opacity:1" d="M 224.888,129.408 234.377,116.173 z" id="boundary" inkscape:connector-curvature="0" />
	<path style="fill:none;stroke:red;stroke-width:1px;stroke-linecap:butt;stroke-linejoin:miter;stroke-opacity:1" d="M 234.377,116.173 232.334,101.752 z" id="boundary" inkscape:connector-curvature="0" />
	<path style="fill:none;stroke:red;stroke-width:1px;stroke-linecap:butt;stroke-linejoin:miter;stroke-opacity:1" d="M 232.334,101.752 227.735,85.8579 z" id="boundary" inkscape:connector-curvature="0" />
	<path style="fill:none;stroke:red;stroke-width:1px;stroke-linecap:butt;stroke-linejoin:miter;stroke-opacity:1" d="M 227.735,85.8579 231.207,70.6304 z" id="boundary" inkscape:connector-curvature="0" />
	<path style="fill:none;stroke:red;stroke-width:1px;stroke-linecap:butt;stroke-linejoin:miter;stroke-opacity:1" d="M 231.207,70.6304 244.147,56.2738 z" id="boundary" inkscape:connector-curvature="0" />
	<path style="fill:none;stroke:red;stroke-width:1px;stroke-linecap:butt;stroke-linejoin:miter;stroke-opacity:1" d="M 244.147,56.2738 252.362,39.8686 z" id="boundary" inkscape:connector-curvature="0" />
	<path style="fill:none;stroke:red;stroke-width:1px;stroke-linecap:butt;stroke-linejoin:miter;stroke-opacity:1" d="M 252.362,39.8686 252.064,20.1477 z" id="boundary" inkscape:connector-curvature="0" />
	<path style="fill:none;stroke:red;stroke-width:1px;stroke-linecap:butt;stroke-linejoin:miter;stroke-opacity:1" d="M 252.064,20.1477 269.963,19.2046 z" id="boundary" inkscape:connector-curvature="0" />
	<path style="fill:none;stroke:red;stroke-width:1px;stroke-linecap:butt;stroke-linejoin:miter;stroke-opacity:1" d="M 269.963,19.2046 284.914,14.016 z" id="boundary" inkscape:connector-curvature="0" />
	<path style="fill:none;stroke:red;stroke-width:1px;stroke-linecap:butt;stroke-linejoin:miter;stroke-opacity:1" d="M 284.914,14.016 304.105,17.4 z" id="boundary" inkscape:connector-curvature="0" />
	<path style="fill:none;stroke:red;stroke-width:1px;stroke-linecap:butt;stroke-linejoin:miter;stroke-opacity:1" d="M 304.105,17.4 311.546,38.2697 z" id="boundary" inkscape:connector-curvature="0" />
	<path style="fill:none;stroke:red;stroke-width:1px;stroke-linecap:butt;stroke-linejoin:miter;stroke-opacity:1" d="M 311.546,38.2697 319.369,59.0207 z" id="boundary" inkscape:connector-curvature="0" />
	<path style="fill:none;stroke:red;stroke-width:1px;stroke-linecap:butt;stroke-linejoin:miter;stroke-opacity:1" d="M 319.369,59.0207 326.633,83.5661 z" id="boundary" inkscape:connector-curvature="0" />
	<path style="fill:none;stroke:red;stroke-width:1px;stroke-linecap:butt;stroke-linejoin:miter;stroke-opacity:1" d="M 326.633,83.5661 313.518,108.837 z" id="boundary" inkscape:connector-curvature="0" />
	<path style="fill:none;stroke:red;stroke-width:1px;stroke-linecap:butt;stroke-linejoin:miter;stroke-opacity:1" d="M 313.518,108.837 323.081,136.467 z" id="boundary" inkscape:connector-curvature="0" />
	<path style="fill:none;stroke:red;stroke-width:1px;stroke-linecap:butt;stroke-linejoin:miter;stroke-opacity:1" d="M 323.081,136.467 303.462,159.34 z" id="boundary" inkscape:connector-curvature="0" />
	<path style="fill:none;stroke:red;stroke-width:1px;stroke-linecap:butt;stroke-linejoin:miter;stroke-opacity:1" d="M 303.462,159.34 308.33,186.926 z" id="boundary" inkscape:connector-curvature="0" />
	<path style="fill:none;stroke:red;stroke-width:1px;stroke-linecap:butt;stroke-linejoin:miter;stroke-opacity:1" d="M 308.33,186.926 299.723,210.204 z" id="boundary" inkscape:connector-curvature="0" />
	<path style="fill:none;stroke:red;stroke-width:1px;stroke-linecap:butt;stroke-linejoin:miter;stroke-opacity:1" d="M 299.723,210.204 301.228,234.145 z" id="boundary" inkscape:connector-curvature="0" />
	<path style="fill:none;stroke:red;stroke-width:1px;stroke-linecap:butt;stroke-linejoin:miter;stroke-opacity:1" d="M 301.228,234.145 287.674,255.628 z" id="boundary" inkscape:connector-curvature="0" />
	<path style="fill:none;stroke:red;stroke-width:1px;stroke-linecap:butt;stroke-linejoin:miter;stroke-opacity:1" d="M 287.674,255.628 279.487,278.986 z" id="boundary" inkscape:connector-curvature="0" />
	<path style="fill:none;stroke:red;stroke-width:1px;stroke-linecap:butt;stroke-linejoin:miter;stroke-opacity:1" d="M 279.487,278.986 300.148,302.494 z" id="boundary" inkscape:connector-curvature="0" />
	<path style="fill:none;stroke:red;stroke-width:1px;stroke-linecap:butt;stroke-linejoin:miter;stroke-opacity:1" d="M 300.148,302.494 306.098,326.098 z" id="boundary" inkscape:connector-curvature="0" />
	<path style="fill:none;stroke:red;stroke-width:1px;stroke-linecap:butt;stroke-linejoin:miter;stroke-opacity:1" d="M 306.098,326.098 296.805,369.61 z" id="boundary" inkscape:connector-curvature="0" />
	<path style="fill:none;stroke:red;stroke-width:1px;stroke-linecap:butt;stroke-linejoin:miter;stroke-opacity:1" d="M 296.805,369.61 344.956,370.657 z" id="boundary" inkscape:connector-curvature="0" />
	<path style="fill:none;stroke:red;stroke-width:1px;stroke-linecap:butt;stroke-linejoin:miter;stroke-opacity:1" d="M 344.956,370.657 374.76,391.75 z" id="boundary" inkscape:connector-curvature="0" />
	<path style="fill:none;stroke:red;stroke-width:1px;stroke-linecap:butt;stroke-linejoin:miter;stroke-opacity:1" d="M 374.76,391.75 421.068,403.288 z" id="boundary" inkscape:connector-curvature="0" />
	<path style="fill:none;stroke:red;stroke-width:1px;stroke-linecap:butt;stroke-linejoin:miter;stroke-opacity:1" d="M 421.068,403.288 481.425,371.706 z" id="boundary" inkscape:connector-curvature="0" />
	<path style="fill:none;stroke:red;stroke-width:1px;stroke-linecap:butt;stroke-linejoin:miter;stroke-opacity:1" d="M 481.425,371.706 574.921,373.134 z" id="boundary" inkscape:connector-curvature="0" />
	<path style="fill:none;stroke:red;stroke-width:1px;stroke-linecap:butt;stroke-linejoin:miter;stroke-opacity:1" d="M 574.921,373.134 696.537,293.198 z" id="boundary" inkscape:connector-curvature="0" />
	<path style="fill:none;stroke:red;stroke-width:1px;stroke-linecap:butt;stroke-linejoin:miter;stroke-opacity:1" d="M 696.537,293.198 795.781,401.768 z" id="boundary" inkscape:connector-curvature="0" />
	<path style="fill:none;stroke:red;stroke-width:1px;stroke-linecap:butt;stroke-linejoin:miter;stroke-opacity:1" d="M 795.781,401.768 883.108,455.735 z" id="boundary" inkscape:connector-curvature="0" />
	<path style="fill:none;stroke:red;stroke-width:1px;stroke-linecap:butt;stroke-linejoin:miter;stroke-opacity:1" d="M 883.108,455.735 894.99,549.644 z" id="boundary" inkscape:connector-curvature="0" />
	<path style="fill:none;stroke:red;stroke-width:1px;stroke-linecap:butt;stroke-linejoin:miter;stroke-opacity:1" d="M 894.99,549.644 906.709,634.624 z" id="boundary" inkscape:connector-curvature="0" />
	<path style="fill:none;stroke:red;stroke-width:1px;stroke-linecap:butt;stroke-linejoin:miter;stroke-opacity:1" d="M 906.709,634.624 913.4,686.349 z" id="boundary" inkscape:connector-curvature="0" />
	<path style="fill:none;stroke:red;stroke-width:1px;stroke-linecap:butt;stroke-linejoin:miter;stroke-opacity:1" d="M 913.4,686.349 920.735,727.839 z" id="boundary" inkscape:connector-curvature="0" />
	<path style="fill:none;stroke:red;stroke-width:1px;stroke-linecap:butt;stroke-linejoin:miter;stroke-opacity:1" d="M 920.735,727.839 922.467,762.993 z" id="boundary" inkscape:connector-curvature="0" />
	<path style="fill:none;stroke:red;stroke-width:1px;stroke-linecap:butt;stroke-linejoin:miter;stroke-opacity:1" d="M 922.467,762.993 935.857,796.568 z" id="boundary" inkscape:connector-curvature="0" />
	<path style="fill:none;stroke:red;stroke-width:1px;stroke-linecap:butt;stroke-linejoin:miter;stroke-opacity:1" d="M 935.857,796.568 971.591,800.21 z" id="boundary" inkscape:connector-curvature="0" />
	<path style="fill:none;stroke:red;stroke-width:1px;stroke-linecap:butt;stroke-linejoin:miter;stroke-opacity:1" d="M 971.591,800.21 961.767,833.509 z" id="boundary" inkscape:connector-curvature="0" />
	<path style="fill:none;stroke:red;stroke-width:1px;stroke-linecap:butt;stroke-linejoin:miter;stroke-opacity:1" d="M 961.767,833.509 962.412,859.426 z" id="boundary" inkscape:connector-curvature="0" />
	<path style="fill:none;stroke:red;stroke-width:1px;stroke-linecap:butt;stroke-linejoin:miter;stroke-opacity:1" d="M 962.412,859.426 966.435,896.448 z" id="boundary" inkscape:connector-curvature="0" />
	<path style="fill:none;stroke:red;stroke-width:1px;stroke-linecap:butt;stroke-linejoin:miter;stroke-opacity:1" d="M 966.435,896.448 944.278,937.635 z" id="boundary" inkscape:connector-curvature="0" />
	<path style="fill:none;stroke:red;stroke-width:1px;stroke-linecap:butt;stroke-linejoin:miter;stroke-opacity:1" d="M 944.278,937.635 903.502,970.583 z" id="boundary" inkscape:connector-curvature="0" />
	<path style="fill:none;stroke:red;stroke-width:1px;stroke-linecap:butt;stroke-linejoin:miter;stroke-opacity:1" d="M 903.502,970.583 843.533,988.172 z" id="boundary" inkscape:connector-curvature="0" />
	<path style="fill:none;stroke:red;stroke-width:1px;stroke-linecap:butt;stroke-linejoin:miter;stroke-opacity:1" d="M 843.533,988.172 764.452,980.716 z" id="boundary" inkscape:connector-curvature="0" />
	<path style="fill:none;stroke:red;stroke-width:1px;stroke-linecap:butt;stroke-linejoin:miter;stroke-opacity:1" d="M 764.452,980.716 661.796,950.187 z" id="boundary" inkscape:connector-curvature="0" />
	<path style="fill:none;stroke:red;stroke-width:1px;stroke-linecap:butt;stroke-linejoin:miter;stroke-opacity:1" d="M 661.796,950.187 517.862,996 z" id="boundary" inkscape:connector-curvature="0" />
	<path style="fill:none;stroke:red;stroke-width:1px;stroke-linecap:butt;stroke-linejoin:miter;stroke-opacity:1" d="M 517.862,996 420.784,951.29 z" id="boundary" inkscape:connector-curvature="0" />
	<path style="fill:none;stroke:red;stroke-width:1px;stroke-linecap:butt;stroke-linejoin:miter;stroke-opacity:1" d="M 420.784,951.29 350.172,948.461 z" id="boundary" inkscape:connector-curvature="0" />
	<path style="fill:none;stroke:red;stroke-width:1px;stroke-linecap:butt;stroke-linejoin:miter;stroke-opacity:1" d="M 350.172,948.461 297.952,946.611 z" id="boundary" inkscape:connector-curvature="0" />
	<path style="fill:none;stroke:red;stroke-width:1px;stroke-linecap:butt;stroke-linejoin:miter;stroke-opacity:1" d="M 297.952,946.611 255.696,961.289 z" id="boundary" inkscape:connector-curvature="0" />
	<path style="fill:none;stroke:red;stroke-width:1px;stroke-linecap:butt;stroke-linejoin:miter;stroke-opacity:1" d="M 255.696,961.289 220.168,944.848 z" id="boundary" inkscape:connector-curvature="0" />
	<path style="fill:none;stroke:red;stroke-width:1px;stroke-linecap:butt;stroke-linejoin:miter;stroke-opacity:1" d="M 220.168,944.848 191.521,939.779 z" id="boundary" inkscape:connector-curvature="0" />
	<path style="fill:none;stroke:red;stroke-width:1px;stroke-linecap:butt;stroke-linejoin:miter;stroke-opacity:1" d="M 191.521,939.779 165.994,945.568 z" id="boundary" inkscape:connector-curvature="0" />
	<path style="fill:none;stroke:red;stroke-width:1px;stroke-linecap:butt;stroke-linejoin:miter;stroke-opacity:1" d="M 165.994,945.568 160.079,923.69 z" id="boundary" inkscape:connector-curvature="0" />
	<path style="fill:none;stroke:red;stroke-width:1px;stroke-linecap:butt;stroke-linejoin:miter;stroke-opacity:1" d="M 160.079,923.69 140.426,910.026 z" id="boundary" inkscape:connector-curvature="0" />
	<path style="fill:none;stroke:red;stroke-width:1px;stroke-linecap:butt;stroke-linejoin:miter;stroke-opacity:1" d="M 140.426,910.026 156.035,889.244 z" id="boundary" inkscape:connector-curvature="0" />
	<path style="fill:none;stroke:red;stroke-width:1px;stroke-linecap:butt;stroke-linejoin:miter;stroke-opacity:1" d="M 156.035,889.244 154.434,863.034 z" id="boundary" inkscape:connector-curvature="0" />
	<path style="fill:none;stroke:red;stroke-width:1px;stroke-linecap:butt;stroke-linejoin:miter;stroke-opacity:1" d="M 154.434,863.034 182.474,865.122 z" id="boundary" inkscape:connector-curvature="0" />
	<path style="fill:none;stroke:red;stroke-width:1px;stroke-linecap:butt;stroke-linejoin:miter;stroke-opacity:1" d="M 182.474,865.122 199.062,832.742 z" id="boundary" inkscape:connector-curvature="0" />
	<path style="fill:none;stroke:red;stroke-width:1px;stroke-linecap:butt;stroke-linejoin:miter;stroke-opacity:1" d="M 199.062,832.742 233.015,846.388 z" id="boundary" inkscape:connector-curvature="0" />
	<path style="fill:none;stroke:red;stroke-width:1px;stroke-linecap:butt;stroke-linejoin:miter;stroke-opacity:1" d="M 233.015,846.388 244.235,819.835 z" id="boundary" inkscape:connector-curvature="0" />
	<path style="fill:none;stroke:red;stroke-width:1px;stroke-linecap:butt;stroke-linejoin:miter;stroke-opacity:1" d="M 244.235,819.835 259.622,797.789 z" id="boundary" inkscape:connector-curvature="0" />
	<circle cx="241.557" cy="787.202" r="4" fill="#0" id="circle0"/>
	<circle cx="246.754" cy="757.736" r="4" fill="#0" id="circle1"/>
	<circle cx="213.335" cy="738.607" r="4" fill="#0" id="circle2"/>
	<circle cx="178.282" cy="714.95" r="4" fill="#0" id="circle3"/>
	<circle cx="125.962" cy="697.708" r="4" fill="#0" id="circle4"/>
	<circle cx="92.4866" cy="630.131" r="4" fill="#0" id="circle5"/>
	<circle cx="55.0352" cy="617.715" r="4" fill="#0" id="circle6"/>
	<circle cx="22.0958" cy="607.103" r="4" fill="#0" id="circle7"/>
	<circle cx="21.8522" cy="572.723" r="4" fill="#0" id="circle8"/>
	<circle cx="4" cy="542.953" r="4" fill="#0" id="circle9"/>
	<circle cx="7.484" cy="495.338" r="4" fill="#0" id="circle10"/>
	<circle cx="20.2918" cy="421.445" r="4" fill="#0" id="circle11"/>
	<circle cx="71.758" cy="378.42" r="4" fill="#0" id="circle12"/>
	<circle cx="89.6223" cy="341.299" r="4" fill="#0" id="circle13"/>
	<circle cx="88.2991" cy="312.957" r="4" fill="#0" id="circle14"/>
	<circle cx="93.4793" cy="291.316" r="4" fill="#0" id="circle15"/>
	<circle cx="101.9" cy="268.867" r="4" fill="#0" id="circle16"/>
	<circle cx="100.266" cy="245.02" r="4" fill="#0" id="circle17"/>
	<circle cx="115.292" cy="221.657" r="4" fill="#0" id="circle18"/>
	<circle cx="103.221" cy="196.766" r="4" fill="#0" id="circle19"/>
	<circle cx="118.674" cy="171.39" r="4" fill="#0" id="circle20"/>
	<circle cx="112.949" cy="147.056" r="4" fill="#0" id="circle21"/>
	<circle cx="116.24" cy="123.178" r="4" fill="#0" id="circle22"/>
	<circle cx="100.203" cy="97.4256" r="4" fill="#0" id="circle23"/>
	<circle cx="118.547" cy="75.3639" r="4" fill="#0" id="circle24"/>
	<circle cx="115.655" cy="52.1771" r="4" fill="#0" id="circle25"/>
	<circle cx="124.587" cy="35.8202" r="4" fill="#0" id="circle26"/>
	<circle cx="130.728" cy="24.0293" r="4" fill="#0" id="circle27"/>
	<circle cx="135.173" cy="4" r="4" fill="#0" id="circle28"/>
	<circle cx="152.435" cy="14.4006" r="4" fill="#0" id="circle29"/>
	<circle cx="166.9" cy="13.86" r="4" fill="#0" id="circle30"/>
	<circle cx="181.755" cy="22.8247" r="4" fill="#0" id="circle31"/>
	<circle cx="184.201" cy="40.3259" r="4" fill="#0" id="circle32"/>
	<circle cx="180.812" cy="58.6905" r="4" fill="#0" id="circle33"/>
	<circle cx="187.556" cy="74.7559" r="4" fill="#0" id="circle34"/>
	<circle cx="185.675" cy="89.8909" r="4" fill="#0" id="circle35"/>
	<circle cx="184.931" cy="104.393" r="4" fill="#0" id="circle36"/>
	<circle cx="191.629" cy="118.156" r="4" fill="#0" id="circle37"/>
	<circle cx="181.394" cy="131.876" r="4" fill="#0" id="circle38"/>
	<circle cx="187.875" cy="144.627" r="4" fill="#0" id="circle39"/>
	<circle cx="184.462" cy="157.385" r="4" fill="#0" id="circle40"/>
	<circle cx="187.732" cy="170.166" r="4" fill="#0" id="circle41"/>
	<circle cx="183.358" cy="181.928" r="4" fill="#0" id="circle42"/>
	<circle cx="189.155" cy="193.089" r="4" fill="#0" id="circle43"/>
	<circle cx="182.067" cy="203.7" r="4" fill="#0" id="circle44"/>
	<circle cx="182.64" cy="213.874" r="4" fill="#0" id="circle45"/>
	<circle cx="187.128" cy="224.551" r="4" fill="#0" id="circle46"/>
	<circle cx="187.677" cy="235.307" r="4" fill="#0" id="circle47"/>
	<circle cx="178.317" cy="244.78" r="4" fill="#0" id="circle48"/>
	<circle cx="186.574" cy="254.75" r="4" fill="#0" id="circle49"/>
	<circle cx="181.588" cy="264.354" r="4" fill="#0" id="circle50"/>
	<circle cx="176.669" cy="273.132" r="4" fill="#0" id="circle51"/>
	<circle cx="177.184" cy="282.48" r="4" fill="#0" id="circle52"/>
	<circle cx="181.174" cy="291.297" r="4" fill="#0" id="circle53"/>
	<circle cx="183.004" cy="299.33" r="4" fill="#0" id="circle54"/>
	<circle cx="179.344" cy="307.058" r="4" fill="#0" id="circle55"/>
	<circle cx="179.65" cy="314.242" r="4" fill="#0" id="circle56"/>
	<circle cx="183.997" cy="319.562" r="4" fill="#0" id="circle57"/>
	<circle cx="189.36" cy="319.833" r="4" fill="#0" id="circle58"/>
	<circle cx="192.909" cy="321.911" r="4" fill="#0" id="circle59"/>
	<circle cx="196.819" cy="320.003" r="4" fill="#0" id="circle60"/>
	<circle cx="197.267" cy="315.422" r="4" fill="#0" id="circle61"/>
	<circle cx="199.098" cy="311.564" r="4" fill="#0" id="circle62"/>
	<circle cx="200.875" cy="305.543" r="4" fill="#0" id="circle63"/>
	<circle cx="207.57" cy="298.959" r="4" fill="#0" id="circle64"/>
	<circle cx="206.983" cy="289.913" r="4" fill="#0" id="circle65"/>
	<circle cx="210.006" cy="281.438" r="4" fill="#0" id="circle66"/>
	<circle cx="207.66" cy="271.762" r="4" fill="#0" id="circle67"/>
	<circle cx="211.313" cy="262.747" r="4" fill="#0" id="circle68"/>
	<circle cx="210.924" cy="253.158" r="4" fill="#0" id="circle69"/>
	<circle cx="213.484" cy="243.297" r="4" fill="#0" id="circle70"/>
	<circle cx="219.854" cy="233.246" r="4" fill="#0" id="circle71"/>
	<circle cx="216.898" cy="222.357" r="4" fill="#0" id="circle72"/>
	<circle cx="212.65" cy="211.681" r="4" fill="#0" id="circle73"/>
	<circle cx="213.73" cy="201.187" r="4" fill="#0" id="circle74"/>
	<circle cx="217.293" cy="190.572" r="4" fill="#0" id="circle75"/>
	<circle cx="223.864" cy="179.936" r="4" fill="#0" id="circle76"/>
	<circle cx="219.653" cy="167.578" r="4" fill="#0" id="circle77"/>
	<circle cx="222.4" cy="155.558" r="4" fill="#0" id="circle78"/>
	<circle cx="227.947" cy="143.004" r="4" fill="#0" id="circle79"/>
	<circle cx="224.888" cy="129.408" r="4" fill="#0" id="circle80"/>
	<circle cx="234.377" cy="116.173" r="4" fill="#0" id="circle81"/>
	<circle cx="232.334" cy="101.752" r="4" fill="#0" id="circle82"/>
	<circle cx="227.735" cy="85.8579" r="4" fill="#0" id="circle83"/>
	<circle cx="231.207" cy="70.6304" r="4" fill="#0" id="circle84"/>
	<circle cx="244.147" cy="56.2738" r="4" fill="#0" id="circle85"/>
	<circle cx="252.362" cy="39.8686" r="4" fill="#0" id="circle86"/>
	<circle cx="252.064" cy="20.1477" r="4" fill="#0" id="circle87"/>
	<circle cx="269.963" cy="19.2046" r="4" fill="#0" id="circle88"/>
	<circle cx="284.914" cy="14.016" r="4" fill="#0" id="circle89"/>
	<circle cx="304.105" cy="17.4" r="4" fill="#0" id="circle90"/>
	<circle cx="311.546" cy="38.2697" r="4" fill="#0" id="circle91"/>
	<circle cx="319.369" cy="59.0207" r="4" fill="#0" id="circle92"/>
	<circle cx="326.633" cy="83.5661" r="4" fill="#0" id="circle93"/>
	<circle cx="313.518" cy="108.837" r="4" fill="#0" id="circle94"/>
	<circle cx="323.081" cy="136.467" r="4" fill="#0" id="circle95"/>
	<circle cx="303.462" cy="159.34" r="4" fill="#0" id="circle96"/>
	<circle cx="308.33" cy="186.926" r="4" fill="#0" id="circle97"/>
	<circle cx="299.723" cy="210.204" r="4" fill="#0" id="circle98"/>
	<circle cx="301.228" cy="234.145" r="4" fill="#0" id="circle99"/>
	<circle cx="287.674" cy="255.628" r="4" fill="#0" id="circle100"/>
	<circle cx="279.487" cy="278.986" r="4" fill="#0" id="circle101"/>
	<circle cx="300.148" cy="302.494" r="4" fill="#0" id="circle102"/>
	<circle cx="306.098" cy="326.098" r="4" fill="#0" id="circle103"/>
	<circle cx="296.805" cy="369.61" r="4" fill="#0" id="circle104"/>
	<circle cx="344.956" cy="370.657" r="4" fill="#0" id="circle105"/>
	<circle cx="374.76" cy="391.75" r="4" fill="#0" id="circle106"/>
	<circle cx="421.068" cy="403.288" r="4" fill="#0" id="circle107"/>
	<circle cx="481.425" cy="371.706" r="4" fill="#0" id="circle108"/>
	<circle cx="574.921" cy="373.134" r="4" fill="#0" id="circle109"/>
	<circle cx="696.537" cy="293.198" r="4" fill="#0" id="circle110"/>
	<circle cx="795.781" cy="401.768" r="4" fill="#0" id="circle111"/>
	<circle cx="883.108" cy="455.735" r="4" fill="#0" id="circle112"/>
	<circle cx="894.99" cy="549.644" r="4" fill="#0" id="circle113"/>
	<circle cx="906.709" cy="634.624" r="4" fill="#0" id="circle114"/>
	<circle cx="913.4" cy="686.349" r="4" fill="#0" id="circle115"/>
	<circle cx="920.735" cy="727.839" r="4" fill="#0" id="circle116"/>
	<circle cx="922.467" cy="762.993" r="4" fill="#0" id="circle117"/>
	<circle cx="935.857" cy="796.568" r="4" fill="#0" id="circle118"/>
	<circle cx="971.591" cy="800.21" r="4" fill="#0" id="circle119"/>
	<circle cx="961.767" cy="833.509" r="4" fill="#0" id="circle120"/>
	<circle cx="962.412" cy="859.426" r="4" fill="#0" id="circle121"/>
	<circle cx="966.435" cy="896.448" r="4" fill="#0" id="circle122"/>
	<circle cx="944.278" cy="937.635" r="4" fill="#0" id="circle123"/>
	<circle cx="903.502" cy="970.583" r="4" fill="#0" id="circle124"/>
	<circle cx="843.533" cy="988.172" r="4" fill="#0" id="circle125"/>
	<circle cx="764.452" cy="980.716" r="4" fill="#0" id="circle126"/>
	<circle cx="661.796" cy="950.187" r="4" fill="#0" id="circle127"/>
	<circle cx="517.862" cy="996" r="4" fill="#0" id="circle128"/>
	<circle cx="420.784" cy="951.29" r="4" fill="#0" id="circle129"/>
	<circle cx="350.172" cy="948.461" r="4" fill="#0" id="circle130"/>
	<circle cx="297.952" cy="946.611" r="4" fill="#0" id="circle131"/>
	<circle cx="255.696" cy="961.289" r="4" fill="#0" id="circle132"/>
	<circle cx="220.168" cy="944.848" r="4" fill="#0" id="circle133"/>
	<circle cx="191.521" cy="939.779" r="4" fill="#0" id="circle134"/>
	<circle cx="165.994" cy="945.568" r="4" fill="#0" id="circle135"/>
	<circle cx="160.079" cy="923.69" r="4" fill="#0" id="circle136"/>
	<circle cx="140.426" cy="910.026" r="4" fill="#0" id="circle137"/>
	<circle cx="156.035" cy="889.244" r="4" fill="#0" id="circle138"/>
	<circle cx="154.434" cy="863.034" r="4" fill="#0" id="circle139"/>
	<circle cx="182.474" cy="865.122" r="4" fill="#0" id="circle140"/>
	<circle cx="199.062" cy="832.742" r="4" fill="#0" id="circle141"/>
	<circle cx="233.015" cy="846.388" r="4" fill="#0" id="circle142"/>
	<circle cx="244.235" cy="819.835" r="4" fill="#0" id="circle143"/>
	<circle cx="259.622" cy="797.789" r="4" fill="#0" id="circle144"/>
	</g>
</svg>