92 128
92 262
92 287
93 312
94 236
96 153
96 337
98 178
98 203
101 362
110 110
117 321
132 98
142 323
156 90
167 323
177 76
192 56
192 323
215 66
217 323
235 82
242 323
256 96
267 323
279 106
286 342
293 156
298 123
303 323
311 174
328 323
336 175
353 323
359 185
378 323
380 199
400 214
403 323
420 230
428 323
445 230
453 323
470 230
474 337
479 362
495 223
497 327
519 216
521 335
544 212
545 327
565 197
567 339
588 186
592 345
609 200
616 335
631 212
639 325
656 216
664 331
680 224
684 346
693 296
695 266
695 321
700 239
