148 212
148 252
150 277
150 302
150 334
152 359
155 188
167 229
172 321
190 240
197 321
215 238
222 321
240 236
247 321
265 234
272 321
290 234
297 321
315 234
322 321
340 234
347 321
365 234
372 321
390 234
397 321
415 234
422 321
440 234
447 321
463 223
472 321
477 201
497 321
498 186
522 178
522 321
547 180
547 321
571 173
572 321
595 164
597 321
618 174
622 321
626 60
628 85
628 110
628 135
630 345
645 154
645 179
645 204
645 229
645 254
645 306
647 279
