74 86
90 64
104 42
114 73
129 38
130 93
145 113
149 53
168 34
169 106
174 266
175 80
191 23
196 94
198 275
200 119
205 144
208 240
212 168
212 214
216 20
223 275
231 250
235 224
237 174
237 199
239 114
239 139
241 26
263 38
263 123
281 56
287 130
299 74
312 131
313 95
