108 82
120 54
133 76
140 38
148 96
162 50
165 115
170 266
177 30
181 94
189 122
194 147
194 256
198 172
198 222
200 20
202 197
211 275
214 132
216 242
218 157
225 24
231 204
233 177
238 124
246 38
260 59
263 127
274 80
285 103
288 129
