80 86
95 65
107 43
119 72
132 38
134 92
148 113
152 53
170 34
172 103
174 266
179 78
192 22
196 110
198 275
202 135
206 240
208 160
210 214
212 185
217 20
223 275
231 242
235 212
237 168
239 114
239 139
241 27
262 124
263 40
280 59
287 129
298 77
311 99
312 129
