118 82
128 54
143 76
148 38
154 99
172 266
173 37
174 114
190 134
193 22
194 159
194 246
196 275
198 184
198 209
211 112
216 137
216 258
218 21
218 224
219 165
220 196
239 127
240 34
255 54
264 131
267 76
277 99
