92 84
106 62
120 40
130 71
140 94
145 40
154 115
170 36
170 268
176 101
192 22
194 119
194 275
198 144
200 246
204 169
204 216
217 20
219 189
219 275
229 244
233 210
235 160
237 116
240 30
259 128
260 45
275 65
284 131
291 85
302 108
