70 120
81 97
95 126
96 76
114 58
120 127
132 40
144 117
154 28
162 135
162 160
162 185
164 210
168 235
170 260
178 20
185 172
190 275
191 245
192 147
197 120
201 94
203 22
213 264
219 76
227 30
229 99
241 51
249 115
264 40
269 70
269 100
289 38
294 75
309 53
315 89
