86 124
94 100
108 78
111 129
125 59
136 127
142 40
158 115
163 26
164 140
164 165
164 190
166 215
170 240
172 265
188 20
191 180
191 205
195 230
195 275
197 154
203 126
209 94
213 24
218 264
230 108
233 39
255 112
258 40
263 68
283 40
287 77
307 93
