86 122
96 96
110 129
111 75
128 56
135 128
145 37
157 116
164 140
164 165
164 190
166 215
167 24
170 240
172 265
191 180
191 205
192 20
195 230
195 275
197 152
203 124
209 94
217 26
218 264
230 108
236 43
255 111
261 39
263 68
286 41
287 77
306 94
