78 88
93 67
104 44
118 73
129 38
134 93
149 113
150 52
169 35
172 103
172 266
177 78
191 23
196 110
196 275
200 135
204 250
206 160
208 222
212 185
216 20
221 275
230 251
233 222
237 114
237 139
237 164
237 189
241 26
261 123
262 40
279 59
286 129
296 78
311 98
311 130
