90 96
104 117
111 82
124 133
134 70
147 143
158 62
171 151
183 56
184 173
195 33
205 187
220 28
230 187
236 149
244 35
261 147
265 49
286 145
290 52
310 152
315 52
333 70
334 145
339 120
354 84
363 129
376 72
386 140
400 64
402 103
