52 78
62 54
78 34
96 352
98 50
98 292
98 317
99 20
100 186
100 211
100 236
100 261
104 75
108 100
110 125
110 150
118 365
124 20
137 96
137 121
137 146
139 171
143 365
145 68
147 195
147 220
147 245
147 270
147 295
147 320
149 24
163 45
174 20
188 43
