56 28
66 51
81 24
90 352
91 51
92 212
92 237
92 262
92 287
92 312
94 184
96 76
102 101
102 126
102 151
106 20
112 365
129 110
129 135
129 160
131 20
133 82
137 184
137 365
139 209
139 234
139 259
139 284
139 309
139 334
141 54
154 30
158 73
171 49
182 81
