86 76
90 50
100 24
100 348
102 182
102 207
102 232
102 257
102 282
102 307
108 88
110 113
110 150
119 365
125 20
133 123
134 157
135 90
140 182
141 54
143 207
143 232
143 257
143 282
143 307
143 332
144 365
150 25
