72 72
80 46
94 24
96 81
98 356
100 196
100 221
100 246
100 271
100 296
100 321
106 170
108 103
110 128
119 20
122 365
135 98
135 123
135 148
137 173
142 73
143 198
143 223
143 248
143 273
143 298
143 323
144 20
145 348
154 51
