52 76
62 52
79 33
94 360
97 51
97 335
98 194
98 219
98 244
98 269
98 294
101 20
102 76
106 168
108 101
108 126
119 365
126 20
135 108
135 133
135 158
139 82
142 182
144 365
145 207
145 232
145 257
145 282
145 307
146 57
147 332
151 24
171 51
176 20
