52 30
66 51
77 24
90 362
91 45
94 226
94 251
94 276
94 301
94 326
96 186
98 69
102 20
106 93
106 158
108 118
115 365
127 20
131 128
131 153
133 90
136 178
140 65
140 365
143 202
143 227
145 252
145 277
145 302
145 327
152 25
162 53
180 71
