56 76
66 50
81 72
83 31
96 360
98 334
100 190
100 215
100 240
100 265
100 290
105 81
106 20
108 106
108 160
110 131
121 365
131 20
137 96
137 121
137 146
139 171
145 72
145 196
146 365
147 221
147 246
147 271
147 296
147 321
149 46
159 23
174 51
