78 30
92 51
94 362
96 196
96 221
96 246
96 271
96 318
100 75
101 20
103 171
104 100
106 125
119 365
126 20
131 94
131 119
131 144
133 169
139 194
139 219
139 244
139 269
139 294
139 319
139 344
148 32
153 81
159 55
