78 28
88 51
94 358
96 190
96 215
96 240
96 265
96 290
96 315
99 74
102 20
104 99
104 158
106 124
118 365
127 20
129 134
131 92
131 159
137 184
139 209
139 234
139 259
139 284
139 309
139 334
149 32
154 81
159 55
