44 74
60 54
64 89
70 22
89 83
95 26
112 93
119 34
123 116
133 139
138 254
139 49
146 161
148 186
149 231
159 64
163 259
177 218
181 176
182 74
201 161
207 80
226 161
232 82
251 157
257 80
271 173
280 254
282 78
286 193
291 231
305 259
306 86
315 166
320 141
323 202
323 227
331 80
343 186
347 100
355 124
355 149
