58 74
72 52
78 24
80 87
103 24
105 81
122 100
126 34
128 125
138 252
139 148
146 49
146 172
148 197
148 222
162 259
166 65
181 242
184 217
187 176
189 76
207 161
214 82
232 159
239 82
254 171
262 254
264 78
268 192
273 231
287 257
289 84
293 202
298 227
312 259
314 80
317 194
330 100
336 177
339 124
339 149
