40 124
40 150
46 175
50 98
64 193
68 80
71 150
73 124
78 214
78 239
84 174
92 87
93 259
101 224
105 198
116 78
120 177
136 157
141 80
161 159
166 82
186 161
191 82
211 159
216 76
224 181
226 206
228 231
233 256
240 66
249 194
251 162
252 239
261 51
267 140
278 117
281 35
289 94
305 26
311 81
330 20
336 86
338 44
353 64
