42 124
42 150
48 175
52 98
66 193
70 80
72 163
75 122
78 215
78 240
94 87
95 259
105 208
107 233
117 186
118 78
132 165
143 80
156 158
168 82
181 161
193 81
206 161
218 74
222 181
224 206
226 231
231 256
242 64
249 204
251 229
253 160
256 259
263 49
269 138
279 114
283 34
291 90
307 26
315 83
331 33
340 88
345 54
