48 74
63 53
68 89
72 22
93 83
97 26
116 94
121 34
125 118
135 141
138 254
141 49
146 164
148 189
148 230
161 64
163 259
179 220
182 195
184 75
185 166
208 82
210 161
233 82
235 159
258 80
260 162
274 183
276 252
283 80
286 205
300 259
308 82
315 154
317 179
321 210
321 242
333 86
341 186
346 108
351 144
