102 96
102 121
110 70
114 143
120 244
120 269
120 294
124 166
124 208
125 49
126 319
129 344
143 365
149 39
166 20
168 369
188 32
193 367
210 45
218 363
225 65
240 159
242 84
243 365
255 179
262 147
266 91
268 371
269 208
271 272
275 118
275 233
293 362
295 279
297 336
299 304
