48 196
52 221
60 174
68 241
74 38
76 63
80 158
80 322
82 347
86 90
86 115
88 294
90 254
94 369
95 23
119 371
120 22
142 34
144 371
167 34
169 371
192 28
194 369
216 20
219 365
236 149
240 27
243 78
244 363
247 103
251 50
255 256
260 156
269 365
273 274
281 170
283 251
294 371
298 276
306 172
307 243
319 370
323 276
329 230
330 179
339 203
341 358
345 288
351 313
