80 312
82 337
84 286
89 361
107 276
108 200
112 371
114 225
123 179
132 278
134 240
137 369
144 102
147 172
148 127
162 363
163 147
165 87
186 371
187 75
202 40
211 370
220 22
236 369
245 24
261 371
270 20
285 364
293 30
295 338
297 300
299 55
299 156
301 234
303 259
305 181
306 209
311 134
313 76
319 101
