96 288
96 313
97 338
104 362
118 276
124 196
126 102
128 371
130 127
130 221
130 250
142 178
145 147
147 87
153 371
164 164
171 79
177 363
186 56
202 366
205 39
224 22
227 369
249 22
252 371
264 42
275 354
279 300
281 160
281 185
281 325
283 210
283 235
285 260
286 55
295 138
298 77
303 102
