40 196
46 221
46 318
48 343
54 292
58 178
62 364
64 239
74 276
83 171
86 371
87 249
99 276
105 157
110 36
110 61
111 371
115 256
120 84
120 109
122 134
131 22
135 363
156 22
160 367
179 32
185 371
204 32
210 371
229 34
235 369
252 24
260 365
277 20
280 149
280 253
285 371
291 88
291 113
294 274
298 34
301 64
304 156
306 252
310 371
319 276
325 170
330 243
334 363
339 291
345 316
346 341
348 180
350 227
361 202
