46 316
48 341
53 291
56 196
60 221
62 362
73 177
73 276
79 238
86 371
98 172
98 276
103 247
111 371
122 162
123 275
130 251
135 363
142 38
144 63
146 154
148 96
148 121
160 363
163 23
185 367
188 22
210 34
210 369
235 34
235 371
260 30
260 371
284 22
285 371
296 151
299 256
305 281
309 26
309 102
309 127
310 371
316 77
320 158
321 301
323 247
325 46
327 326
327 351
340 173
343 230
351 196
