42 204
52 227
54 182
64 318
64 343
72 164
72 243
72 292
76 365
84 40
88 65
92 276
95 154
98 88
100 113
101 371
104 24
106 255
126 371
129 22
151 369
152 32
176 371
177 34
201 371
202 34
225 24
226 367
250 21
251 363
256 149
263 254
265 86
267 120
272 33
273 62
276 366
280 156
281 272
297 252
301 371
302 169
306 276
321 244
326 371
327 174
331 276
343 230
348 357
350 185
350 293
357 317
