42 318
44 194
44 343
48 219
50 290
59 363
63 177
66 237
71 276
83 371
88 172
89 247
96 276
108 371
110 160
114 251
122 40
126 65
128 272
130 112
132 363
135 154
142 24
157 365
167 22
182 369
190 32
207 371
215 32
232 371
240 34
257 369
263 24
282 371
287 254
288 22
288 151
298 127
299 276
301 86
307 371
310 35
312 63
312 158
312 251
322 286
330 361
332 309
333 172
334 239
335 334
351 190
352 221
