48 252
62 273
73 248
76 188
76 218
87 269
88 22
88 47
88 72
88 97
88 122
88 147
100 195
100 227
112 269
113 20
113 153
124 186
124 218
126 248
138 20
138 153
140 269
148 195
148 227
162 160
163 20
165 269
188 20
190 269
213 20
215 269
221 154
221 179
221 204
221 229
238 20
238 248
244 218
245 186
246 153
252 269
263 20
266 248
269 195
271 153
279 218
280 269
288 20
293 186
294 248
296 153
304 218
307 98
307 123
308 269
309 34
309 59
317 195
322 248
329 218
334 270
347 248
