94 250
100 190
100 220
106 272
119 248
125 186
125 218
133 269
147 248
148 22
148 47
148 72
148 97
148 122
148 147
149 195
159 218
161 269
173 20
173 153
173 186
175 248
184 218
189 269
197 195
198 20
198 154
214 269
223 20
239 154
239 179
239 204
239 229
239 269
248 20
256 248
257 80
257 105
257 130
259 43
262 218
263 186
270 269
284 248
298 269
