48 250
60 272
62 188
62 218
73 248
86 195
87 227
87 269
90 22
90 47
90 72
90 97
90 122
90 147
101 248
110 186
111 218
115 20
115 153
115 269
129 248
134 195
140 20
140 153
143 227
143 269
157 248
158 186
165 20
165 153
167 218
171 269
180 173
190 20
196 269
215 20
221 269
239 154
239 179
239 204
239 229
240 20
246 269
260 248
262 218
263 186
264 153
265 20
274 269
286 227
287 195
289 153
290 20
299 269
310 218
311 34
311 59
311 84
311 109
311 134
311 186
313 248
327 269
341 248
