48 250
58 273
62 190
62 220
73 248
87 186
87 218
87 269
90 22
90 47
90 72
90 97
90 122
90 147
101 248
111 195
115 20
115 153
115 227
115 269
129 248
135 186
139 218
140 20
140 153
143 269
157 248
159 195
165 20
165 153
169 218
171 269
178 175
190 20
196 269
215 20
221 269
239 154
239 179
239 204
239 229
240 20
241 254
261 269
262 218
263 186
264 153
265 20
275 248
287 195
289 153
289 227
289 269
290 20
303 248
311 186
313 218
314 153
314 273
315 22
317 47
317 72
317 97
317 122
328 248
339 273
353 250
