48 252
62 273
64 188
64 218
73 248
82 24
82 49
82 74
82 99
82 124
82 149
87 269
88 195
88 227
102 248
107 20
107 153
112 186
112 218
116 269
130 248
132 20
132 153
136 195
144 227
144 269
157 20
157 153
158 248
160 186
168 218
172 269
182 20
197 269
207 20
222 269
232 20
233 154
233 179
233 204
233 229
242 254
256 218
257 20
257 186
258 153
262 269
276 248
281 195
282 20
283 153
290 227
290 269
304 248
305 186
307 20
308 153
314 218
318 269
321 41
321 66
321 91
321 116
329 194
332 248
343 271
