116 252
130 273
141 248
150 188
150 218
155 269
156 42
156 67
162 92
162 117
162 142
168 20
180 269
193 20
197 154
197 179
197 204
197 229
205 272
214 248
218 20
220 218
221 186
222 153
230 269
233 40
233 65
233 90
233 115
244 227
245 195
255 269
268 218
269 186
269 248
283 269
