64 250
74 190
74 220
76 272
89 248
99 186
99 218
103 269
114 24
114 49
114 74
114 99
114 124
114 149
117 248
123 195
128 271
131 227
139 20
139 153
145 248
147 186
155 218
159 269
164 20
164 153
171 195
173 248
181 218
187 269
189 20
189 153
190 178
212 269
214 20
237 269
239 20
243 154
243 179
243 204
243 229
260 248
264 20
266 218
266 273
267 186
268 153
285 248
289 22
289 47
289 72
289 97
289 122
291 195
299 227
299 269
313 248
327 269
