106 250
123 269
137 248
140 188
140 218
148 42
148 67
151 269
152 92
152 117
152 142
160 20
162 165
162 200
162 230
176 269
185 20
199 154
199 179
199 204
199 229
201 269
210 20
216 248
222 218
223 186
224 153
230 269
235 20
243 44
243 69
243 94
243 119
244 248
247 195
257 218
258 269
271 186
272 248
282 218
283 273
