48 250
58 273
62 190
62 220
73 248
80 22
80 47
80 72
80 97
80 122
80 147
87 186
87 218
87 269
101 248
105 20
105 153
111 195
115 227
115 269
129 248
130 20
130 153
135 186
139 218
143 269
155 20
155 153
157 248
159 195
169 218
171 269
172 172
180 20
196 269
205 20
221 269
230 20
233 154
233 179
233 204
233 229
246 269
255 20
256 218
257 186
258 153
260 248
274 269
280 20
280 227
281 195
283 153
294 248
304 218
305 20
305 186
308 153
308 269
317 42
317 67
317 92
317 117
322 248
329 193
329 218
336 269
