116 250
120 188
120 218
128 272
141 248
144 195
154 218
155 269
168 26
168 51
168 76
168 101
168 126
168 186
169 248
170 151
179 218
183 269
192 195
193 20
195 153
197 248
204 218
211 269
218 20
236 269
239 128
239 153
239 178
239 203
239 228
241 30
241 80
245 55
254 248
267 270
279 248
