126 252
145 269
159 248
160 188
160 218
164 40
164 65
164 90
164 115
164 140
173 269
179 20
193 154
193 179
193 204
193 229
194 254
204 20
211 273
216 218
217 186
218 153
219 248
223 37
223 62
223 87
223 112
236 269
240 227
241 195
254 248
261 273
264 218
265 186
