58 252
77 269
90 188
90 218
91 248
104 22
104 47
104 72
104 97
104 122
104 147
105 269
114 195
114 227
128 248
129 20
129 153
138 186
138 218
142 269
154 20
154 153
156 248
158 201
170 269
179 20
195 269
204 20
213 154
213 179
213 204
213 229
220 269
229 20
234 248
236 218
237 186
238 153
248 269
254 20
260 227
261 195
263 153
273 271
279 20
283 248
284 218
285 186
288 153
293 41
293 66
293 91
293 116
298 269
308 227
309 195
316 251
328 273
341 250
