50 220
50 245
52 188
54 160
56 128
56 270
59 103
62 66
69 292
77 45
88 309
99 31
106 327
116 350
123 38
124 374
128 426
136 396
145 445
148 38
170 447
173 38
195 449
197 30
218 44
219 208
219 233
220 447
229 184
229 384
231 66
235 358
236 159
237 91
239 116
239 407
241 246
245 445
246 335
260 313
266 246
274 291
281 266
296 246
