26 248
40 269
50 292
51 246
58 432
65 312
76 246
76 412
80 445
82 331
93 354
93 393
101 246
105 447
126 246
130 447
151 246
155 447
176 246
180 447
189 372
197 346
201 246
205 445
214 327
214 370
217 408
218 160
218 185
218 210
220 126
223 101
226 68
230 430
232 40
234 389
250 369
254 28
262 347
276 40
276 325
296 309
301 42
314 291
321 57
325 82
325 264
327 107
327 132
329 157
329 182
329 207
331 232
