50 218
50 243
52 188
54 158
56 126
56 268
60 82
65 57
66 291
85 41
86 307
105 324
107 28
114 348
122 372
128 428
130 38
135 394
147 445
155 38
172 447
180 34
197 449
205 34
219 206
219 231
222 447
223 52
229 180
229 376
233 75
235 401
236 155
237 100
237 350
239 125
239 246
247 444
249 328
264 246
264 307
277 282
287 258
