22 226
24 180
24 251
26 132
28 98
30 70
31 275
42 48
44 297
64 312
67 44
84 328
90 34
96 350
108 372
115 40
123 392
124 430
134 325
140 43
140 350
143 238
144 445
147 67
150 373
151 92
151 212
153 117
155 142
155 167
167 246
169 447
192 246
194 447
217 246
219 447
242 246
244 447
259 364
259 389
267 246
267 340
269 445
275 409
282 319
292 246
293 427
299 300
313 274
317 246
