22 232
24 184
26 142
26 257
28 106
30 78
34 281
35 53
50 301
58 42
71 315
83 40
89 333
100 356
108 38
113 378
124 432
130 397
131 28
141 328
146 445
147 353
149 236
151 44
157 376
158 68
159 212
163 93
164 187
165 118
165 143
171 447
172 246
196 447
197 246
221 447
222 246
246 447
247 246
257 378
263 350
267 401
271 445
272 246
275 328
283 421
292 309
297 246
307 286
317 261
