78 248
90 90
90 115
90 140
90 270
94 165
97 65
100 210
100 235
100 293
112 44
112 315
118 428
126 336
133 30
135 409
135 447
136 359
142 384
156 40
160 449
181 40
185 449
206 40
209 398
210 447
217 370
219 421
222 345
228 28
231 320
247 300
250 40
262 279
265 174
266 60
269 199
269 246
273 144
274 84
277 109
