24 202
46 189
69 179
83 200
84 157
99 137
99 220
99 245
99 270
102 295
111 319
121 125
126 339
144 357
146 124
162 375
171 129
184 387
190 146
199 557
200 169
209 390
210 192
221 545
232 204
234 395
244 532
256 510
257 209
257 405
259 477
259 567
264 447
277 420
279 547
282 214
283 575
289 497
289 522
299 432
299 457
300 405
305 224
320 390
328 235
345 395
352 244
370 390
375 254
393 380
399 261
418 373
423 269
442 365
448 274
467 360
473 279
490 350
498 284
515 345
523 284
540 340
548 289
565 335
573 289
588 309
590 335
613 309
615 335
638 309
652 330
666 309
