14 72
32 54
38 80
47 34
59 187
59 212
59 237
63 85
64 162
64 262
67 19
69 137
74 108
74 285
89 305
92 19
106 324
117 19
124 342
139 31
144 357
150 54
160 77
160 102
164 427
166 370
168 126
183 146
188 419
189 380
201 164
208 435
210 406
219 182
230 421
235 395
237 445
243 190
258 385
265 202
283 390
289 211
306 380
313 220
328 368
335 232
350 355
359 241
373 345
381 254
398 340
406 259
423 345
431 259
446 355
456 264
471 360
481 264
494 370
506 264
519 372
526 279
530 304
541 360
553 315
