54 72
74 57
79 82
94 42
104 85
104 237
104 262
104 287
104 312
109 207
109 337
114 27
114 172
119 147
119 360
121 104
130 383
138 19
145 403
163 24
164 420
169 602
181 439
185 37
191 589
194 617
199 457
200 57
208 81
211 479
214 577
215 105
219 617
220 130
225 160
226 499
232 559
235 183
239 521
243 610
245 206
255 229
268 251
268 605
270 580
286 269
289 562
292 614
301 289
305 510
307 544
319 307
330 515
334 327
349 347
354 522
364 367
378 530
382 385
400 403
403 533
418 421
427 540
438 436
451 548
456 454
473 560
476 469
496 484
496 570
516 499
519 580
538 511
540 550
542 590
560 523
561 564
567 594
578 541
587 579
