79 507
84 532
94 487
102 550
109 467
124 587
127 550
134 471
146 599
156 484
171 605
179 467
194 447
195 595
209 427
210 505
215 530
218 583
220 555
221 405
225 485
236 385
240 460
249 362
255 440
264 337
270 420
279 312
285 395
289 287
299 262
300 375
309 232
313 353
314 207
324 182
328 333
334 157
344 132
348 318
354 107
364 82
368 303
379 62
386 285
394 37
406 270
416 24
426 255
441 24
444 237
464 222
466 29
480 50
482 204
497 69
504 192
522 74
522 174
537 154
540 92
550 115
