79 502
84 527
94 482
102 545
114 467
124 587
127 550
138 474
146 599
161 484
170 607
182 469
194 447
194 600
209 427
210 510
213 583
215 535
221 405
223 488
234 382
240 465
249 362
255 440
264 337
270 420
279 312
285 395
294 292
300 370
309 267
319 352
324 247
331 330
339 222
346 310
354 197
358 288
369 172
373 268
384 147
385 245
399 67
399 92
399 117
400 225
404 27
415 205
429 24
430 185
445 165
454 24
470 165
475 38
484 62
495 170
508 69
520 175
531 79
535 155
543 101
552 125
