319 347
319 372
319 397
319 422
319 447
319 472
319 497
319 522
319 547
319 572
319 597
319 622
319 647
319 672
319 697
319 722
319 747
324 322
331 769
334 297
349 272
356 775
369 247
374 72
374 187
374 212
379 102
379 127
379 152
381 780
392 54
406 780
417 54
431 780
440 110
442 59
445 85
445 135
450 160
450 185
450 210
450 235
456 775
460 258
478 276
481 775
490 298
502 320
503 763
505 345
505 370
505 395
505 420
505 445
505 470
505 495
505 520
505 545
505 570
505 595
505 620
505 645
505 685
510 710
510 735
