274 562
274 587
274 612
274 637
274 662
274 687
274 712
279 527
279 737
289 462
289 487
297 755
299 397
299 422
304 362
314 337
322 760
329 317
344 297
347 765
359 267
369 237
372 765
374 207
379 177
389 132
394 97
397 765
399 62
409 37
422 765
431 24
447 765
456 24
469 752
480 200
480 225
480 250
480 275
480 720
481 29
485 170
485 675
487 299
490 640
495 140
495 323
500 348
500 580
500 605
505 37
505 373
505 398
505 423
505 448
505 473
505 498
505 523
505 548
508 118
510 62
510 87
