314 342
314 367
314 392
314 417
314 442
314 467
314 492
314 532
319 317
319 557
319 582
319 607
319 632
319 657
319 682
319 707
319 732
319 757
324 782
329 292
344 272
348 790
359 252
369 182
369 207
373 795
374 42
374 67
374 92
374 117
374 142
398 795
399 39
423 795
424 39
445 75
445 100
447 49
448 795
450 125
450 150
450 190
450 215
455 240
469 261
473 795
484 281
498 790
499 301
505 326
510 351
510 376
510 401
510 426
510 451
510 476
510 501
510 526
510 551
510 576
510 601
510 626
510 651
510 676
510 701
510 726
510 751
