24 162
34 185
37 210
39 142
49 232
57 124
64 252
81 115
86 265
106 114
111 260
131 114
134 250
155 106
157 260
170 86
181 253
194 94
206 258
217 84
231 260
242 84
256 263
267 84
271 283
274 57
289 32
296 280
314 29
318 268
330 245
339 29
355 245
364 24
380 240
389 29
405 245
414 31
430 242
436 44
450 65
450 90
454 257
471 104
478 265
496 104
503 263
520 240
521 100
533 218
545 92
557 210
560 160
560 185
565 107
575 130
