24 167
29 192
34 142
39 215
39 240
42 265
58 134
60 283
78 119
84 290
103 114
105 270
128 114
130 267
153 114
155 265
173 99
180 265
198 104
205 265
216 85
230 267
241 84
252 255
259 279
264 94
274 32
274 57
279 295
298 24
304 300
323 24
329 300
340 270
348 29
365 265
373 29
390 265
398 34
415 267
423 30
440 265
445 42
455 65
457 90
465 260
477 105
484 277
502 109
508 270
520 220
522 249
527 109
543 208
552 109
561 190
570 165
577 114
585 138
