29 107
44 82
47 125
62 64
67 109
77 44
79 217
79 242
89 122
94 197
99 56
99 145
99 170
104 237
115 76
115 211
129 97
137 199
154 99
162 195
179 99
187 195
204 99
212 200
214 227
229 101
232 245
250 200
252 225
253 110
265 132
273 156
275 200
284 224
286 249
298 159
306 265
320 146
324 102
330 272
342 84
349 52
355 275
361 30
370 255
380 47
380 165
380 190
380 215
390 70
390 95
404 116
405 165
422 134
424 182
429 207
447 139
453 215
467 124
478 215
484 97
494 247
496 75
512 265
521 69
536 89
537 270
551 109
561 278
576 109
586 280
595 126
595 151
598 176
608 268
616 194
625 218
625 243
