24 232
29 257
44 217
47 275
64 202
71 283
86 189
91 298
104 547
107 174
109 316
124 336
126 534
126 560
132 169
132 360
144 382
145 516
150 187
151 555
157 494
159 402
162 209
164 462
165 531
169 425
177 229
183 513
197 244
198 493
213 473
220 254
225 450
240 430
245 249
263 440
264 547
270 246
275 462
282 529
284 486
286 560
294 239
308 548
317 524
319 234
320 485
325 430
325 455
344 234
350 425
369 234
375 425
394 239
400 425
404 482
419 239
422 500
423 435
428 474
444 239
444 449
448 489
468 473
469 239
470 502
492 229
495 505
507 209
510 375
510 470
517 399
519 172
520 335
520 424
525 255
525 280
525 305
529 132
535 230
539 87
545 205
549 57
555 180
565 135
570 110
571 44
575 70
