54 247
54 272
64 295
74 318
79 251
84 341
94 364
101 264
108 385
124 405
126 269
139 425
150 448
151 264
169 637
172 460
175 256
187 619
190 236
193 645
194 472
204 495
209 219
211 519
211 610
214 544
214 569
215 657
220 242
220 267
220 292
223 633
239 309
239 665
240 605
250 535
250 560
255 490
259 584
260 650
264 309
269 511
273 628
285 600
287 299
298 578
307 284
307 554
320 530
332 279
333 508
342 484
357 279
357 464
382 274
382 460
400 478
407 274
412 500
419 657
427 520
432 279
434 637
443 665
445 538
457 279
458 629
464 555
468 658
469 580
469 605
482 279
486 640
495 515
495 610
505 538
505 580
507 274
525 256
530 542
540 305
540 330
544 237
545 355
550 557
555 378
555 403
559 287
560 428
562 219
565 453
565 577
569 27
569 667
570 478
574 267
575 503
577 199
580 528
580 597
584 622
584 647
587 45
589 247
591 680
592 179
595 548
601 225
605 63
605 571
607 159
610 596
615 621
616 135
616 205
616 680
617 85
618 646
624 109
630 62
630 180
640 155
642 84
650 108
