24 242
24 267
24 292
29 142
29 167
29 192
29 317
34 217
34 342
44 365
53 135
59 385
74 405
75 147
84 552
89 425
94 457
94 575
99 482
99 507
99 532
100 149
119 575
125 149
140 550
145 510
150 149
150 480
159 577
160 455
173 139
174 487
174 557
175 175
177 595
179 512
182 199
202 590
205 209
215 555
225 515
230 214
230 490
240 455
255 214
260 440
280 214
285 440
294 542
305 217
305 455
314 527
316 555
324 472
330 219
332 509
341 550
355 219
363 538
364 563
377 585
380 224
381 520
388 544
401 505
402 584
404 231
420 565
426 244
439 547
446 259
454 527
465 445
465 500
468 271
470 470
483 291
485 430
495 313
499 451
507 335
515 359
517 469
525 382
533 406
537 485
545 428
557 500
560 448
578 466
579 512
600 478
603 520
624 486
628 520
649 489
653 520
674 484
678 520
699 479
701 510
