24 242
34 265
48 234
49 107
52 209
54 132
59 162
59 265
74 104
84 265
99 109
109 270
124 114
126 289
134 313
144 336
149 116
159 356
171 129
177 374
186 149
189 517
192 394
199 492
201 539
204 167
204 416
209 441
209 466
226 179
226 540
251 184
251 540
269 522
275 192
280 490
285 465
290 420
295 385
300 189
320 380
325 189
345 382
350 192
354 467
364 490
367 394
369 447
374 184
385 412
387 500
399 184
412 495
424 184
432 479
444 457
447 194
454 491
462 515
470 204
485 525
493 215
508 513
513 230
525 252
525 490
530 465
535 275
542 299
550 323
553 455
555 348
560 373
569 397
573 470
589 412
598 475
608 429
620 455
