24 277
24 302
34 325
39 252
44 227
54 340
69 229
79 345
94 234
104 345
119 239
121 364
134 507
139 382
144 244
152 525
156 495
157 400
169 244
169 462
172 420
177 519
192 499
194 244
207 479
219 244
224 460
244 244
245 430
246 473
262 449
265 490
268 420
269 242
289 477
293 234
293 420
304 497
313 469
318 229
318 420
328 489
333 454
343 229
343 425
352 479
368 234
374 467
389 447
393 239
411 435
418 244
434 425
441 254
457 435
464 264
469 502
481 443
485 278
487 484
491 514
499 461
507 290
514 502
520 355
520 380
525 475
530 403
531 299
535 428
545 355
554 309
570 355
579 314
595 350
604 314
620 345
629 309
645 345
654 304
670 340
679 309
693 350
702 319
716 360
