24 262
24 287
29 232
34 187
44 210
46 300
59 186
71 305
84 189
96 305
109 189
112 325
130 343
132 199
145 363
154 211
154 517
160 383
166 539
174 492
176 224
179 400
179 425
179 462
191 535
200 232
204 557
205 510
215 470
216 535
225 226
228 499
228 564
250 224
250 545
260 515
265 490
270 455
275 219
280 420
300 214
300 405
325 209
325 405
350 209
350 400
375 209
375 395
399 402
399 517
400 209
417 499
419 417
421 530
425 209
434 472
437 435
445 520
450 212
464 502
464 537
474 221
475 475
489 496
489 540
496 234
510 325
510 350
510 375
510 520
515 400
520 290
521 239
523 498
525 423
532 474
534 447
545 285
546 244
569 292
571 249
591 304
595 257
614 315
617 269
634 330
637 284
659 296
659 335
683 304
684 340
708 309
709 345
