24 272
24 297
29 322
39 252
44 227
49 337
69 229
74 340
94 234
99 340
119 234
119 355
134 375
134 507
143 241
154 390
154 492
164 515
168 244
169 410
169 452
185 500
193 239
200 480
215 460
218 239
240 460
243 234
245 425
254 481
262 444
268 234
268 415
284 467
293 229
293 413
302 485
308 459
318 224
318 410
327 480
330 446
342 419
343 224
350 470
368 229
370 455
385 435
393 234
408 425
418 239
431 415
441 249
454 425
465 257
469 482
477 435
485 272
487 500
489 467
507 284
510 490
515 345
515 370
520 465
522 394
530 294
530 418
540 342
555 299
565 340
580 299
590 340
605 299
614 332
630 294
639 330
655 294
664 330
680 299
687 340
700 314
710 350
