24 177
24 202
29 117
29 227
39 140
51 240
54 119
74 250
77 129
79 275
79 300
84 492
89 323
97 114
99 346
102 510
106 480
114 366
114 391
114 416
114 441
122 109
127 504
135 131
142 484
150 151
150 460
160 174
160 435
164 507
170 405
179 191
179 487
184 426
184 451
186 520
201 204
210 510
219 222
223 488
230 460
240 420
241 234
265 420
266 239
290 420
291 244
313 430
316 249
324 467
338 430
341 254
342 485
348 459
363 435
366 259
367 484
389 472
391 264
411 460
416 264
436 455
441 269
461 455
465 261
484 87
485 246
486 450
490 330
490 355
497 224
500 305
502 69
502 105
504 376
509 197
511 445
513 283
514 487
519 167
525 260
526 389
527 69
527 104
529 129
529 463
536 500
540 235
546 404
550 79
550 205
560 102
560 127
560 152
560 177
560 425
561 495
562 450
