24 137
36 115
42 155
49 92
54 67
59 37
65 145
83 44
90 140
106 54
115 135
131 59
136 149
151 169
156 59
166 189
181 59
181 209
201 224
206 54
216 244
231 49
240 252
249 327
252 274
256 49
259 298
271 340
275 245
280 270
281 49
285 295
286 320
298 235
306 49
321 245
331 49
346 250
356 44
371 255
381 44
396 260
406 44
421 255
431 39
446 255
456 35
471 250
481 30
496 255
499 312
506 29
511 290
521 325
531 24
535 297
540 270
554 327
556 24
563 280
569 305
576 340
580 32
595 52
595 85
595 110
596 325
600 135
600 160
600 185
600 210
600 235
605 260
605 285
