24 262
24 287
24 342
29 312
29 367
34 132
39 157
39 242
39 390
44 107
44 415
44 440
54 177
54 463
57 224
64 92
64 200
64 486
74 562
79 587
84 501
84 526
84 632
86 80
89 657
111 79
111 670
136 84
136 675
160 92
161 675
170 595
175 210
178 110
180 618
185 134
185 159
185 184
185 233
185 550
185 575
186 675
195 256
198 528
200 281
200 306
200 475
200 500
204 626
205 331
208 663
210 450
212 355
220 379
225 404
229 432
