24 202
24 227
29 252
34 177
47 270
52 159
54 312
70 141
72 275
76 325
89 124
96 309
97 280
112 114
119 299
134 102
136 280
139 315
156 89
164 310
181 89
189 312
194 32
206 89
212 50
213 305
218 24
231 85
238 305
243 24
250 48
255 73
263 300
267 95
280 270
290 84
305 265
315 84
330 260
340 89
350 125
355 260
360 215
365 92
367 144
375 120
379 232
388 208
390 94
392 144
412 199
417 139
436 190
442 134
459 180
467 134
484 175
492 129
507 165
517 124
530 155
542 119
555 150
567 124
