14 182
32 164
38 190
44 132
46 214
64 232
66 119
85 101
89 235
107 89
112 224
132 84
132 239
157 84
157 245
182 84
182 244
200 225
207 84
215 205
224 37
227 69
240 200
249 32
265 200
274 27
290 197
299 24
315 195
324 24
340 197
349 19
355 217
374 19
377 229
399 16
402 224
422 209
424 17
442 224
449 16
462 239
474 17
487 239
499 19
509 227
520 200
524 24
525 80
530 55
542 99
543 188
550 123
550 148
