14 147
24 172
29 197
32 129
47 215
56 120
72 215
79 97
92 230
97 79
117 235
122 74
142 229
147 74
160 200
172 74
185 200
197 74
210 200
222 79
224 32
235 202
248 24
260 205
273 24
285 205
298 19
310 205
323 19
335 205
348 15
360 205
373 19
385 205
398 15
410 210
423 19
434 202
448 15
458 210
473 19
478 225
498 25
503 225
505 49
505 74
505 99
523 208
530 104
535 185
545 124
555 147
558 173
