24 172
29 197
34 222
49 169
54 237
74 127
74 162
79 240
96 114
99 255
114 275
119 124
131 294
134 319
144 129
148 340
149 422
154 372
159 445
160 149
160 174
164 395
173 196
179 460
191 214
204 465
206 234
219 122
224 87
226 249
229 470
234 62
234 142
249 259
252 44
254 475
258 150
269 173
269 237
270 198
274 56
279 475
290 145
298 65
300 168
304 475
305 193
309 127
310 87
317 215
329 475
330 102
334 72
335 233
345 122
349 52
354 480
360 226
363 140
364 32
364 165
364 190
379 477
388 25
395 140
395 165
397 190
400 215
403 45
404 480
414 236
415 125
418 65
425 89
429 475
439 227
446 103
449 72
449 202
454 475
458 125
459 162
471 59
479 472
480 200
482 225
485 165
487 39
494 247
500 145
504 470
512 39
519 251
520 63
523 133
529 467
532 109
535 83
543 244
554 465
563 229
577 455
579 207
590 350
590 400
594 182
599 147
599 442
603 378
613 338
617 129
620 310
635 290
640 119
654 272
664 111
672 254
675 134
680 159
693 240
705 164
718 238
730 164
735 190
736 220
