24 162
24 187
29 212
41 234
42 144
64 245
67 149
84 260
92 154
101 279
112 169
120 193
121 294
132 215
140 239
145 302
159 323
163 249
164 348
174 222
174 371
174 396
189 127
192 414
194 152
199 219
204 107
204 175
215 425
219 195
229 111
240 427
251 124
260 170
265 145
265 430
267 194
282 214
290 435
302 199
315 435
327 194
334 87
339 112
339 137
340 435
344 62
344 162
349 206
359 42
359 182
365 435
379 27
390 435
404 31
410 185
415 435
422 49
424 206
425 165
430 130
435 71
440 96
440 435
448 199
465 435
471 189
490 430
491 204
504 152
509 177
515 430
519 132
537 114
540 425
550 200
560 223
562 109
565 420
569 182
570 133
584 402
585 219
585 350
585 375
595 325
609 226
610 305
633 219
633 295
639 192
651 170
656 285
674 159
676 270
691 250
699 152
714 240
723 144
730 220
740 163
740 188
