24 222
29 247
47 265
48 214
62 285
71 309
73 214
89 327
96 224
107 345
114 377
116 239
129 397
139 420
140 247
149 443
155 468
162 234
177 214
177 480
200 490
201 205
225 495
226 204
250 495
251 204
265 265
270 221
275 500
289 272
299 222
300 500
309 197
309 257
324 172
325 505
336 150
350 505
356 135
375 500
376 120
400 500
401 124
421 139
425 500
430 265
436 159
450 500
451 179
453 253
463 201
468 233
475 495
482 254
500 272
500 495
504 232
516 210
525 490
539 199
550 485
564 204
575 480
589 206
598 470
613 215
618 453
620 425
625 237
625 395
638 373
650 236
650 350
669 332
670 221
681 310
689 204
699 292
711 270
714 204
726 250
737 214
