214 212
214 237
224 260
226 190
231 284
239 308
249 201
249 331
259 354
260 224
264 379
265 249
271 403
275 272
275 428
279 453
279 478
279 503
279 528
284 553
287 294
289 578
289 652
294 603
299 117
299 628
300 316
304 142
304 167
309 192
309 217
309 242
311 665
314 267
317 99
318 334
319 292
336 665
342 99
350 123
355 148
360 173
361 670
365 198
365 223
374 247
383 271
386 670
395 293
411 670
412 274
419 237
424 212
434 182
436 670
444 142
449 97
461 675
467 79
470 270
470 295
480 235
486 675
487 64
490 195
493 284
495 150
499 252
502 84
505 109
506 660
509 212
514 167
521 640
524 127
540 620
542 109
545 325
545 350
550 375
550 400
555 260
555 285
555 425
555 600
560 230
562 449
565 119
565 200
570 170
574 582
575 142
586 440
592 564
599 407
609 382
610 545
619 347
623 523
631 325
632 499
640 475
655 450
656 319
665 343
665 368
665 393
665 418
