24 137
24 162
39 182
46 124
61 194
65 106
84 89
84 205
99 225
106 249
109 82
119 271
124 296
132 320
134 81
147 340
149 532
156 94
159 362
159 555
169 385
169 410
169 435
169 517
174 112
174 460
174 485
184 560
194 127
206 149
207 570
218 171
230 560
240 184
243 538
250 465
250 490
259 201
260 415
260 440
280 400
283 210
305 222
305 400
329 229
330 400
354 229
355 395
369 67
379 229
379 387
387 85
393 59
403 395
404 224
409 97
418 55
428 400
429 112
429 224
442 64
444 132
448 415
454 219
459 152
462 79
463 435
469 175
474 200
478 455
479 537
480 97
492 119
494 475
497 519
500 143
501 550
505 168
510 193
510 225
512 250
515 435
523 538
525 458
530 268
532 514
535 481
540 291
540 316
543 341
545 366
550 391
554 542
557 469
564 412
565 493
566 520
572 560
579 432
595 452
595 477
597 554
600 502
605 527
