24 202
29 227
36 180
44 247
51 160
54 270
59 127
74 107
79 272
90 245
92 89
105 225
115 79
130 222
139 246
139 271
140 79
144 296
149 321
149 346
157 370
159 617
163 90
169 392
174 597
177 635
178 110
179 415
184 440
184 465
184 490
184 515
184 540
184 565
193 130
200 645
208 150
223 170
225 645
235 192
248 633
253 210
263 613
275 222
275 590
280 450
280 475
280 500
285 525
285 550
295 237
300 435
319 246
323 425
343 254
348 420
368 254
373 413
393 254
398 410
418 254
421 420
443 254
444 132
446 415
454 155
466 430
468 125
468 254
469 175
480 198
481 450
485 144
492 220
493 249
497 470
500 164
513 186
515 488
525 208
534 505
535 231
540 256
547 280
549 525
549 592
559 302
559 548
567 610
570 325
577 349
589 371
592 604
600 394
605 580
610 417
610 550
622 439
634 461
635 552
644 576
645 484
654 599
654 624
664 501
668 645
679 521
690 544
693 638
695 569
700 594
