69 117
81 139
94 116
96 159
109 181
116 129
127 199
129 267
129 292
139 242
141 134
145 217
154 292
164 144
174 277
187 154
194 262
209 166
216 274
231 179
236 289
254 189
256 304
265 328
277 179
284 345
300 240
302 179
305 210
309 345
317 259
334 345
335 277
353 295
354 360
370 314
374 375
395 314
397 385
415 340
415 403
419 428
420 365
429 451
439 382
453 458
463 389
471 440
488 389
496 440
511 399
521 435
535 407
546 440
