99 277
111 255
123 284
126 235
140 265
141 215
144 527
154 502
156 195
160 250
162 545
169 172
169 477
179 232
181 455
182 529
189 157
196 435
197 214
200 510
209 412
211 145
215 490
221 223
224 387
229 247
230 470
236 144
239 270
239 357
244 295
249 92
249 320
249 452
254 117
264 72
264 432
279 412
282 54
301 400
307 59
317 420
325 77
330 120
332 440
335 145
340 310
340 335
347 460
350 265
350 358
355 240
359 382
359 482
360 149
360 205
370 405
374 502
384 426
385 154
385 205
389 522
395 449
404 171
404 222
407 540
410 469
419 242
420 492
422 189
430 515
430 550
435 211
437 260
450 231
452 280
464 252
470 298
479 272
489 315
511 328
