39 147
39 362
44 97
44 122
44 317
63 155
64 365
69 94
69 314
88 160
89 370
94 99
94 319
99 237
111 215
113 160
114 370
117 255
119 99
119 319
129 197
135 235
138 160
139 370
144 99
144 319
144 507
144 532
155 220
159 482
164 375
168 539
169 104
169 324
169 457
175 200
181 435
185 515
189 375
194 104
194 324
194 412
195 185
204 497
216 475
219 104
219 192
219 326
224 222
230 450
234 245
242 314
244 109
244 268
245 430
249 62
260 405
261 40
273 383
281 25
298 385
306 29
320 397
324 47
325 90
335 295
340 265
340 412
342 109
342 319
345 230
354 433
355 200
362 334
367 114
367 455
374 182
382 475
385 390
387 339
392 119
398 190
402 409
402 490
412 339
417 119
417 429
417 510
419 390
420 202
425 453
432 530
437 344
437 475
442 119
444 210
444 395
450 185
452 495
452 545
460 375
460 519
462 344
467 124
475 185
485 160
490 134
