94 327
99 282
99 352
99 377
99 402
104 257
109 232
109 425
116 449
119 207
131 185
131 469
140 365
140 390
145 415
145 440
146 165
149 487
155 345
169 154
169 449
174 327
174 487
188 466
194 159
194 312
219 162
219 310
239 325
244 159
249 348
254 373
260 398
269 154
269 422
274 447
274 542
284 470
287 495
289 522
294 149
299 545
319 144
324 545
335 465
340 490
344 139
347 514
369 139
370 375
371 505
380 398
384 527
385 423
385 448
394 134
397 379
397 470
406 515
418 493
419 134
422 380
439 507
444 137
444 477
447 375
449 442
454 412
461 520
468 144
486 520
493 150
500 480
505 445
510 511
518 154
531 525
540 167
556 525
560 182
570 390
570 415
572 440
575 475
576 510
580 197
580 355
590 330
592 219
595 244
599 372
600 269
605 294
609 395
616 419
