39 517
51 495
64 472
64 517
74 427
76 495
79 342
79 367
79 392
89 307
89 472
98 448
99 267
100 420
105 380
109 227
110 340
119 202
120 315
131 180
140 300
149 162
165 295
173 154
188 305
198 149
208 320
218 134
229 334
229 359
229 482
236 310
239 382
239 407
239 432
239 457
239 505
240 121
264 114
264 505
280 445
280 470
285 405
289 114
290 380
304 497
309 412
314 119
316 475
319 435
329 500
339 124
350 395
354 500
355 420
355 445
362 469
363 373
364 124
370 345
389 124
393 355
404 497
414 124
418 355
424 477
434 500
437 114
439 377
442 459
444 402
444 427
459 497
460 104
475 465
480 425
484 492
485 107
490 395
499 472
505 370
508 500
509 116
509 447
514 402
529 131
533 500
547 149
550 425
550 450
553 483
560 375
560 400
565 167
565 330
570 305
575 280
577 189
584 347
589 211
599 327
600 234
600 259
600 285
