14 147
19 227
24 202
29 172
29 250
36 135
45 216
49 157
49 265
50 190
55 239
72 275
80 239
90 216
94 182
97 279
106 160
112 259
119 122
127 239
129 92
141 70
144 220
159 377
161 55
167 209
177 359
183 385
184 44
192 204
194 307
194 332
199 267
208 390
209 49
209 223
230 370
234 52
240 340
250 315
258 44
260 285
274 392
279 302
280 31
284 327
289 352
292 410
304 22
317 410
328 15
340 310
340 335
340 360
340 385
345 280
353 19
363 370
364 302
364 327
378 20
388 370
402 29
408 353
410 310
422 44
429 367
435 307
444 56
444 331
447 385
462 74
472 384
480 92
485 275
490 115
490 300
494 372
495 240
495 325
504 136
512 160
518 250
520 184
520 209
536 268
551 288
