34 147
34 172
46 194
49 127
49 222
67 240
71 114
80 145
87 169
89 252
96 109
105 140
107 184
111 264
119 472
120 160
121 114
129 495
132 189
136 265
139 457
141 129
149 422
154 500
155 179
155 282
164 397
175 297
179 372
179 500
180 176
184 332
204 169
204 495
210 460
225 440
229 164
229 492
244 457
247 510
254 162
272 515
279 159
295 179
297 515
305 202
315 395
320 420
322 514
325 445
325 470
329 209
340 405
346 484
354 204
356 460
365 405
365 436
369 495
379 199
394 495
404 199
419 490
425 465
429 201
440 440
454 204
465 437
474 492
477 459
479 209
496 505
500 223
518 241
521 510
530 380
532 405
535 430
536 259
540 455
545 480
546 510
548 281
555 305
555 330
556 413
560 355
560 380
