59 157
59 422
69 180
69 445
71 400
76 204
79 267
83 149
84 307
84 372
89 226
89 332
94 445
99 249
108 150
115 430
125 169
134 412
144 186
154 397
162 204
172 379
182 219
197 374
205 229
221 365
230 234
244 152
244 177
244 202
244 375
244 400
244 425
249 107
249 450
249 475
254 37
254 62
254 500
254 525
257 550
269 17
277 565
291 29
302 565
316 29
327 565
330 50
330 540
340 73
343 518
344 29
352 95
352 565
355 485
360 119
364 45
368 463
372 549
373 141
380 435
385 163
387 34
393 413
394 187
402 389
405 210
414 367
415 233
438 360
440 239
463 358
465 239
488 355
490 244
513 350
515 249
538 345
539 256
563 340
564 259
588 340
589 264
613 333
614 269
635 320
637 279
660 320
662 284
685 320
687 284
710 320
712 284
735 320
737 284
760 294
783 304
