24 307
24 332
34 282
36 354
39 152
39 177
39 202
44 227
49 127
49 252
49 376
61 105
64 396
76 85
84 411
94 67
96 433
99 458
99 483
99 508
100 533
109 557
114 52
124 577
136 39
142 595
160 31
160 613
184 24
184 620
207 630
209 24
232 624
234 24
252 609
255 38
272 594
275 53
292 579
300 54
307 559
315 535
320 510
325 59
325 480
338 458
347 434
349 66
352 409
364 86
364 387
375 225
375 250
379 106
380 195
380 365
382 274
385 131
385 156
390 298
390 323
