89 317
99 340
109 197
109 222
109 247
109 363
111 304
114 172
114 272
119 386
124 137
131 408
136 115
144 430
149 455
151 95
164 475
166 75
174 498
174 523
175 548
186 59
194 565
205 41
211 584
227 29
231 600
251 615
252 24
272 629
277 24
297 625
300 34
319 51
320 615
343 59
343 603
358 583
368 65
375 555
390 77
390 535
395 470
395 495
408 95
408 448
415 119
415 405
425 142
430 167
430 192
430 217
435 242
435 390
439 267
445 320
445 345
450 295
