154 207
169 187
169 447
172 225
174 472
181 425
186 494
187 169
194 302
195 235
199 407
201 514
204 272
204 325
209 362
210 159
214 387
216 250
218 223
225 505
234 152
239 526
249 132
251 548
267 114
269 566
285 96
289 581
307 84
313 590
332 79
337 599
357 74
362 595
382 79
387 590
404 91
410 580
424 106
430 565
442 124
445 250
445 545
455 146
455 273
458 523
460 485
465 169
470 293
470 450
475 192
479 265
480 316
480 405
485 341
485 366
495 207
496 284
514 302
515 222
535 237
536 315
550 257
561 315
568 275
580 297
