14 257
19 212
19 282
34 187
41 294
49 167
61 309
64 147
82 129
84 320
99 107
104 335
109 82
127 64
127 345
147 49
151 353
166 373
167 34
178 395
192 29
196 413
215 430
217 24
225 395
242 24
250 390
267 24
275 390
292 19
300 390
317 24
325 385
342 29
349 377
367 34
371 365
390 44
395 355
409 61
418 343
427 79
436 325
447 94
450 160
456 310
460 116
475 161
476 295
488 273
497 149
511 283
515 131
531 298
539 122
553 310
560 155
560 180
560 205
560 230
560 255
561 109
567 279
575 135
578 315
586 109
592 294
606 125
606 315
