19 197
19 222
31 244
34 172
46 150
49 262
61 130
71 275
79 112
90 292
99 97
108 310
119 57
119 82
133 315
139 42
145 337
154 361
161 30
169 381
185 21
194 385
195 355
210 19
218 365
235 19
242 374
260 19
267 380
285 19
292 385
310 24
317 385
334 31
342 380
359 36
367 375
381 49
390 365
403 61
414 357
421 79
436 345
440 265
441 94
450 190
457 284
458 333
461 109
472 304
473 178
479 127
481 275
491 160
497 185
504 285
521 175
527 295
546 169
550 305
570 161
570 230
572 255
574 312
580 200
580 279
594 154
595 180
596 299
610 320
618 170
