39 162
51 140
57 180
74 127
77 195
96 114
99 207
120 106
121 220
140 91
142 234
162 79
164 246
182 64
188 255
205 54
213 260
228 44
233 275
252 34
253 290
276 300
277 29
299 310
302 24
324 315
327 24
347 325
352 24
372 324
377 24
396 315
400 34
419 305
424 41
440 290
444 56
460 275
466 69
475 255
484 87
498 243
504 102
520 230
526 114
535 210
544 132
558 200
568 139
583 200
593 134
608 200
618 134
633 205
641 124
658 205
666 119
683 205
691 119
705 140
708 203
710 165
