29 487
29 517
39 447
44 537
49 417
64 392
64 522
79 372
85 505
91 350
100 485
104 327
120 470
126 314
140 450
151 309
160 435
174 299
183 425
184 212
194 235
197 289
205 258
206 415
209 209
225 395
230 223
248 383
255 219
270 370
278 209
290 355
296 190
309 162
311 369
324 127
326 389
330 315
339 107
339 411
345 295
347 334
361 94
363 420
365 352
369 287
380 372
381 265
382 79
385 405
399 247
405 69
411 225
423 203
426 55
435 180
450 155
451 49
470 140
474 39
485 120
499 32
505 105
515 52
525 90
537 64
