29 437
39 397
47 455
57 379
62 435
75 361
84 447
87 339
107 324
109 442
125 306
131 430
147 294
149 412
165 276
168 395
187 264
191 385
210 254
216 380
231 240
239 370
254 162
254 187
254 217
262 359
278 169
282 344
301 179
302 329
320 310
325 171
329 334
334 359
347 159
354 375
367 144
375 265
379 372
382 124
392 284
398 255
400 106
401 360
412 299
419 342
421 245
422 94
432 314
441 230
442 79
459 212
460 61
471 190
482 49
491 175
506 155
507 44
525 135
530 34
548 123
555 39
566 105
570 60
580 84
