14 32
24 252
29 107
29 187
36 19
44 267
49 202
50 40
51 120
54 244
61 180
64 17
65 99
69 265
74 205
75 40
79 120
83 244
86 179
89 16
97 265
99 102
100 42
100 200
109 125
109 242
111 175
114 21
125 47
125 200
127 260
129 109
133 234
136 133
136 170
145 62
147 34
150 195
153 249
154 114
155 221
161 169
164 137
165 77
175 206
182 119
182 230
184 157
184 182
190 72
200 205
208 90
215 175
220 112
220 137
235 160
249 139
263 160
277 139
288 165
302 144
316 165
330 144
341 170
355 149
366 173
387 159
401 180
419 162
429 185
444 164
458 185
472 164
486 185
497 159
511 180
525 159
536 183
550 159
