29 217
49 62
51 230
59 172
65 209
71 75
74 112
76 235
81 185
85 54
90 214
95 164
96 80
96 125
104 235
106 190
110 54
110 104
118 214
120 169
121 80
121 130
132 235
135 54
135 195
141 114
144 140
145 169
146 80
152 214
160 59
166 119
166 235
167 194
169 145
171 85
185 64
191 124
191 235
196 90
210 69
216 235
235 69
241 235
250 195
260 72
260 135
265 110
275 195
281 149
300 195
306 149
325 190
331 149
350 185
356 149
375 185
381 144
400 185
406 149
425 187
431 149
450 190
456 154
475 195
481 154
500 200
506 159
525 200
531 159
550 200
556 159
574 177
