104 282
109 307
114 337
114 362
119 397
124 452
124 477
129 279
129 420
134 305
139 334
139 362
143 389
149 449
149 480
154 274
154 420
159 305
164 332
164 360
168 389
174 444
174 480
179 274
181 420
184 305
189 360
191 329
196 384
199 444
199 475
204 269
206 420
209 300
214 360
216 324
224 439
224 472
229 267
231 379
231 415
234 300
249 433
249 470
254 264
274 470
279 264
299 465
304 266
308 291
310 316
320 339
320 400
320 425
323 458
345 334
345 400
370 334
370 400
395 329
395 395
420 329
420 395
445 324
445 390
462 409
470 324
480 427
490 339
498 445
505 359
516 463
524 376
534 481
544 391
552 499
562 409
570 517
580 427
588 535
598 445
610 520
618 460
629 502
