24 27
24 52
24 77
24 102
29 127
39 482
47 145
49 24
61 470
67 160
74 24
81 485
86 460
87 175
99 24
106 485
107 190
111 454
124 24
129 202
131 485
135 446
149 24
151 214
156 485
159 437
164 236
169 261
174 24
174 286
181 485
183 429
184 309
189 334
194 359
199 24
204 382
206 419
206 485
224 24
230 220
231 485
235 245
240 270
249 24
250 293
254 212
255 318
256 485
260 343
265 368
274 24
274 392
276 200
281 485
283 416
299 24
300 190
305 428
306 485
324 24
325 185
328 439
331 485
348 175
349 24
351 449
356 485
370 160
374 24
375 457
381 485
389 142
399 24
401 469
404 122
410 47
410 72
410 97
421 485
