104 202
104 282
109 227
109 252
114 305
116 180
129 157
134 320
147 139
158 313
165 190
170 129
170 160
175 235
183 308
190 191
192 254
200 230
200 278
215 191
225 225
239 184
250 220
264 182
275 220
289 177
300 215
313 169
325 210
338 165
350 205
363 164
375 200
388 159
400 195
413 154
425 190
438 150
450 185
463 145
475 185
488 144
500 180
511 134
525 175
536 134
550 170
560 126
575 165
585 124
600 160
610 121
624 152
