99 297
114 277
114 317
119 237
134 217
136 329
146 195
161 175
161 330
175 305
186 169
195 290
209 179
210 245
218 300
223 223
227 264
230 193
238 315
250 274
263 320
273 284
285 332
298 290
307 345
322 299
327 360
345 309
349 372
369 316
369 387
391 329
391 400
412 414
414 339
432 429
437 349
447 449
460 359
472 450
483 369
497 450
506 379
522 449
529 389
547 450
552 399
572 444
577 404
