14 102
19 127
36 89
44 125
61 89
69 130
86 89
94 125
111 89
119 125
136 89
144 125
161 89
169 125
186 89
194 125
211 89
219 127
236 89
244 125
261 89
269 127
286 89
294 127
311 89
319 127
336 89
344 127
361 89
369 127
386 89
394 130
411 89
419 127
436 89
444 130
454 187
461 89
464 42
469 125
469 167
478 195
479 22
501 185
504 17
519 167
529 16
537 149
545 75
545 100
545 125
551 29
