29 337
34 302
44 197
47 355
59 217
59 304
66 184
71 239
72 360
79 102
84 127
84 267
84 304
90 192
94 82
96 149
97 360
105 212
109 171
109 300
117 234
119 86
122 360
132 254
134 106
138 131
144 276
144 372
150 153
154 37
154 395
159 62
159 420
165 173
169 85
169 443
176 24
176 109
179 134
179 466
180 193
189 217
194 486
198 36
210 58
211 505
220 81
230 104
235 130
236 505
245 153
249 37
249 62
250 178
255 203
259 85
260 131
261 505
269 160
271 24
274 185
286 510
291 39
305 60
310 85
311 505
320 108
320 133
325 158
335 181
335 206
336 508
345 229
350 254
360 277
361 510
375 297
386 505
397 309
406 490
415 291
424 262
424 472
429 217
435 440
447 199
448 418
455 385
462 179
475 305
480 280
480 385
482 329
485 169
490 210
490 235
505 390
507 334
520 356
