24 317
29 342
42 299
49 437
53 349
59 460
64 287
67 419
77 340
84 465
86 275
87 404
100 330
105 450
107 389
111 269
119 492
124 517
125 325
128 440
129 377
134 259
137 474
149 520
150 320
151 364
151 430
159 254
159 462
172 510
174 312
174 354
175 420
181 449
184 249
189 42
197 344
197 504
199 65
199 310
199 412
209 244
211 29
216 84
218 490
221 335
221 400
224 305
234 237
236 34
236 99
241 480
244 390
245 326
258 229
260 107
261 39
261 465
267 380
281 219
283 453
284 115
286 44
300 201
305 440
306 128
309 54
319 150
319 175
319 557
325 425
331 535
333 61
334 577
344 512
349 417
357 69
358 568
359 492
369 467
374 420
376 550
382 74
391 530
404 86
405 505
420 485
428 95
435 460
450 435
452 104
470 420
475 114
489 402
500 117
511 390
525 116
534 380
550 111
553 363
568 343
570 126
570 151
575 176
575 201
575 226
580 251
580 276
580 301
