89 297
94 322
106 344
114 294
119 217
121 364
129 240
134 192
134 386
135 308
139 263
146 408
150 328
152 285
158 200
159 430
160 351
173 220
174 450
175 371
180 244
181 474
190 391
190 498
193 266
194 147
199 172
204 519
205 288
208 409
209 195
209 544
216 134
216 219
216 568
220 308
224 243
224 268
229 590
232 330
238 146
246 609
250 168
260 191
269 620
270 214
280 237
285 262
289 147
293 286
294 172
294 620
299 197
300 310
304 222
311 134
319 620
331 149
343 171
344 620
355 193
360 218
365 243
369 620
370 268
375 293
380 318
389 342
394 620
398 366
407 390
419 620
422 410
434 252
443 424
444 227
444 275
444 620
451 299
454 597
456 205
459 323
459 402
465 181
469 346
469 371
469 577
474 157
480 550
486 135
490 520
495 111
500 495
504 87
510 470
516 65
525 41
525 492
534 516
548 51
559 515
568 66
582 505
586 84
605 495
606 99
626 114
628 485
644 132
651 475
664 147
670 450
680 410
682 165
690 375
700 340
702 180
710 305
720 198
720 265
730 221
