69 172
69 197
74 222
79 247
89 270
93 164
96 294
109 316
114 341
115 177
119 366
119 391
119 416
120 202
124 441
125 227
129 466
129 587
134 491
137 249
139 552
142 515
145 273
149 92
149 117
149 142
151 600
154 167
157 295
159 192
159 217
162 244
171 79
176 600
195 87
201 600
205 110
205 135
210 160
210 185
217 209
220 234
226 600
235 254
251 600
260 259
276 600
285 264
301 600
309 237
315 575
319 197
324 112
324 137
324 162
334 557
336 90
358 548
360 330
361 84
362 355
365 255
365 280
365 305
375 180
375 205
375 230
375 377
376 104
376 530
380 129
380 154
394 512
397 389
410 490
412 369
425 470
427 349
440 440
445 331
455 420
465 316
470 400
485 375
487 304
505 355
512 304
525 340
