39 122
39 147
54 102
61 159
74 87
82 145
92 69
107 139
112 54
121 30
132 135
145 39
157 139
159 527
164 247
164 272
169 161
169 186
169 217
169 297
170 39
174 322
177 545
179 512
186 344
193 49
194 477
199 366
199 391
199 416
199 441
200 535
213 513
216 59
225 445
225 470
225 537
235 420
236 74
238 509
249 452
249 477
250 540
256 89
265 510
270 360
270 385
270 410
270 435
274 107
274 476
286 129
295 355
298 151
313 171
320 357
335 183
345 360
358 194
370 360
383 194
395 355
408 194
419 347
431 184
443 340
444 537
456 180
462 519
462 555
466 350
476 373
477 499
479 398
481 179
484 423
484 472
485 529
502 509
506 179
510 470
520 440
525 395
531 184
539 416
554 436
554 557
555 192
564 459
569 484
569 532
570 355
572 575
575 380
579 199
580 325
582 404
590 555
595 426
595 451
595 476
595 501
595 526
604 199
605 325
627 209
630 325
642 229
645 254
650 279
650 304
