24 47
24 72
24 97
24 122
24 147
24 177
24 202
24 227
24 252
42 270
44 32
66 278
69 32
91 280
93 24
116 275
118 24
141 280
143 24
166 280
168 24
191 34
191 275
200 58
205 83
205 250
218 228
225 99
230 205
250 102
255 210
272 114
275 195
297 109
300 190
322 109
325 190
347 109
350 195
372 114
373 185
397 114
397 194
422 114
422 194
447 114
447 190
472 109
472 190
497 114
497 190
522 114
522 190
542 174
545 124
560 144
