24 142
24 167
36 120
39 187
56 105
61 200
79 94
84 210
90 71
95 233
99 47
109 254
121 35
130 268
144 24
154 275
163 41
178 61
178 268
196 250
201 71
214 232
225 78
238 225
249 86
261 215
269 101
285 205
293 109
305 190
316 99
328 180
341 99
353 180
366 99
378 180
391 95
403 180
416 99
428 175
441 94
448 160
466 94
473 160
491 94
498 160
516 90
523 165
541 94
546 155
559 112
