14 217
26 195
26 239
39 167
39 261
51 145
51 283
66 303
71 130
86 318
91 115
104 336
111 100
122 354
131 85
140 372
151 70
155 392
169 52
175 407
187 34
195 422
207 19
220 425
232 14
243 415
252 29
265 400
274 41
285 385
292 59
300 365
310 77
319 347
325 97
337 119
339 332
351 310
355 137
367 159
371 295
390 169
396 290
410 184
415 245
416 275
430 199
440 245
455 204
465 240
480 204
490 245
505 209
515 240
530 209
540 240
555 209
565 235
580 209
590 235
605 209
619 230
