14 207
26 185
26 229
39 157
41 249
54 271
59 137
71 290
79 122
90 307
97 104
110 322
115 86
125 342
127 64
140 362
145 46
158 380
160 26
176 398
182 14
200 405
207 19
224 397
230 29
246 385
250 44
266 370
269 61
284 352
287 79
299 332
302 99
314 312
315 121
323 288
337 134
341 270
362 139
363 258
365 225
377 159
388 215
397 174
413 210
422 174
438 210
447 174
463 205
472 179
488 205
497 179
513 200
527 179
541 200
554 177
572 195
586 174
600 195
623 184
