129 427
144 407
149 442
162 389
169 142
173 450
184 162
184 227
185 379
194 139
194 250
194 342
197 459
199 182
206 320
209 224
209 270
213 156
219 197
219 297
221 468
231 174
234 217
234 497
234 522
239 547
251 569
254 162
269 142
269 587
291 129
291 600
314 117
316 605
338 109
341 608
363 109
366 605
388 114
389 595
410 580
411 124
430 565
431 139
445 160
445 545
450 255
455 183
455 470
455 500
460 208
464 276
468 448
475 250
477 424
480 224
480 296
485 375
485 400
490 319
490 344
500 250
503 214
523 238
526 204
545 225
551 200
