154 137
164 160
166 115
169 237
181 179
182 135
184 217
184 442
187 255
194 465
199 197
199 387
199 412
203 149
209 267
209 357
214 480
219 332
227 285
228 154
229 500
231 310
240 523
252 545
253 159
264 567
276 149
282 585
299 139
305 595
324 134
330 600
349 134
355 600
374 131
379 592
399 134
401 580
420 560
422 144
433 538
445 154
445 515
455 280
455 490
465 169
465 303
470 460
474 262
480 323
480 435
484 186
489 347
490 375
490 400
499 257
502 204
524 255
525 214
547 245
550 209
569 187
570 235
585 207
