144 487
159 262
159 467
166 499
179 157
179 277
179 452
189 180
189 252
191 500
199 392
199 437
204 207
204 232
204 277
209 357
212 169
216 495
221 335
228 285
234 312
237 169
237 509
249 531
259 157
261 553
273 575
283 149
293 590
305 136
317 599
330 134
342 600
355 131
367 595
380 129
390 585
404 136
413 573
428 144
428 553
440 525
451 154
453 503
460 275
465 475
467 299
471 169
475 450
480 321
484 267
485 425
486 189
490 215
490 344
490 390
508 258
511 229
530 246
542 224
