139 267
139 292
139 317
154 337
161 255
176 349
185 246
201 355
209 239
226 360
234 234
251 365
259 229
276 370
282 219
295 387
297 199
310 407
312 179
327 159
328 425
342 139
343 445
357 119
358 465
374 97
374 485
389 77
391 504
406 524
407 59
426 540
430 49
445 185
445 210
445 375
450 140
450 400
451 545
455 49
455 95
455 425
460 450
465 475
469 219
470 370
470 500
472 525
492 209
493 380
510 191
511 398
529 172
531 413
540 295
545 235
549 157
549 431
550 350
560 280
561 309
567 139
568 245
569 446
570 333
571 364
575 215
589 382
590 175
592 144
594 445
595 407
