79 142
91 164
97 124
111 179
119 112
129 197
137 94
144 217
154 240
154 272
154 297
157 79
159 322
177 64
184 320
197 49
209 322
219 507
219 532
219 557
220 39
229 467
231 334
239 427
239 572
243 29
249 387
254 345
263 580
268 24
286 590
293 24
309 600
318 25
332 610
343 30
357 615
365 42
375 475
382 619
387 54
390 450
394 492
407 69
407 614
410 435
418 499
427 84
431 605
435 432
443 504
445 102
455 595
460 435
466 514
467 114
478 585
483 445
490 522
492 114
495 285
501 575
502 309
508 450
514 531
517 109
517 329
519 277
521 560
530 175
532 349
532 459
539 262
542 109
543 153
547 194
550 367
554 447
557 244
560 390
560 415
562 214
