54 147
69 127
72 165
74 432
74 457
84 407
84 480
90 183
91 115
99 382
101 499
109 97
109 200
111 360
120 336
124 220
126 498
127 79
127 245
129 270
129 295
144 516
149 67
159 536
169 52
174 556
191 39
192 574
214 29
216 583
239 24
241 585
250 525
250 550
264 24
270 510
289 24
295 515
314 26
318 525
339 31
342 534
360 480
361 44
366 543
373 458
377 499
381 59
386 558
395 445
399 77
402 504
410 567
419 92
420 440
425 514
435 572
441 104
445 440
450 519
459 580
464 114
468 450
473 529
484 580
485 290
489 109
490 315
491 460
496 539
504 336
508 278
508 573
514 104
516 465
520 165
522 354
527 189
530 265
535 140
537 374
538 111
540 450
545 207
545 240
550 396
550 421
