64 137
74 160
79 442
84 122
84 417
89 465
94 175
94 392
104 107
104 485
109 367
111 194
121 345
122 89
126 214
129 480
130 321
135 238
139 263
139 288
142 74
149 495
160 518
162 59
174 539
184 47
191 558
206 35
215 565
230 27
240 570
255 24
264 577
280 24
289 580
305 27
314 582
330 32
339 580
352 44
355 470
363 573
365 445
374 56
378 423
379 477
387 565
392 74
396 405
404 474
412 89
412 559
419 395
429 474
432 104
434 547
435 375
445 345
454 469
455 114
456 535
458 323
475 285
478 523
479 469
480 111
480 310
498 273
500 510
504 104
504 469
510 170
520 260
523 148
523 498
524 191
528 111
530 474
535 240
539 211
