134 672
149 647
154 432
159 670
166 410
174 644
179 432
181 390
184 670
194 362
199 644
201 420
206 340
209 675
211 315
224 277
224 644
226 415
229 142
229 167
229 577
234 102
234 252
234 532
234 602
234 680
241 189
244 72
244 502
249 227
249 622
251 415
259 52
259 477
259 680
269 452
275 605
275 630
275 655
276 410
284 49
300 600
309 49
325 600
329 647
333 56
341 669
355 68
365 345
366 670
370 400
370 425
370 625
372 369
373 86
375 155
375 450
375 480
380 110
382 179
382 504
387 644
389 607
390 340
390 530
391 670
394 407
395 379
395 555
401 585
406 170
412 425
412 644
413 328
415 146
419 386
420 559
420 668
424 447
425 295
426 585
434 127
435 634
437 404
439 467
445 559
445 670
450 295
451 585
452 424
458 119
458 644
461 480
465 450
470 556
470 672
475 290
477 580
483 119
484 432
484 467
492 544
500 285
502 574
503 449
508 124
509 522
519 497
524 467
525 275
526 565
528 140
529 437
539 412
543 160
544 257
544 547
547 185
555 209
555 234
555 445
557 394
560 470
560 495
560 520
565 418
580 384
