169 247
169 272
179 295
181 225
189 318
199 202
199 341
199 832
209 364
214 812
219 182
219 387
231 409
234 792
241 169
244 431
254 772
259 451
262 154
274 471
274 752
284 142
289 772
291 490
294 732
294 797
304 820
306 129
311 760
312 504
312 714
319 532
319 840
329 117
329 555
329 742
330 696
339 855
347 724
349 677
351 105
352 565
354 875
364 622
364 705
367 659
374 92
374 890
377 565
382 604
383 639
383 688
394 77
397 580
397 900
403 673
414 62
420 910
421 655
434 47
439 637
443 920
449 672
454 32
458 620
466 909
470 655
476 19
480 590
480 632
489 920
498 31
505 587
509 902
516 49
530 590
531 890
536 64
545 525
555 590
555 881
556 79
559 546
574 97
579 530
579 872
592 115
601 860
602 519
610 133
624 507
626 854
632 145
643 490
653 159
663 473
675 172
681 455
694 189
699 437
713 206
714 417
726 395
728 226
740 365
746 244
759 347
760 265
768 323
770 288
