99 537
99 562
104 512
104 587
109 127
114 152
114 177
119 202
119 492
119 607
121 105
129 225
130 550
132 575
134 82
134 467
134 627
136 249
140 525
143 599
144 273
149 447
153 503
154 296
154 392
156 640
158 74
162 320
164 415
166 370
168 604
170 480
174 342
179 650
183 69
185 623
189 462
204 655
208 69
210 627
213 455
228 648
233 69
238 450
258 69
261 440
283 69
284 430
306 443
308 69
331 445
333 69
356 445
358 69
381 445
382 59
406 450
407 59
431 445
432 54
455 44
456 445
479 37
481 445
503 29
506 445
515 75
515 100
515 125
515 150
515 175
517 200
520 48
520 225
525 250
528 433
532 274
540 298
550 321
550 420
557 345
560 370
560 395
