134 77
144 52
152 95
166 39
177 100
189 122
189 147
189 307
191 44
199 282
204 327
206 64
207 165
216 349
217 264
221 84
230 175
234 367
235 300
239 447
240 254
241 99
245 323
251 189
252 385
259 237
259 432
260 295
260 343
261 460
263 111
264 407
266 209
280 358
283 126
284 450
285 290
298 376
305 138
308 443
310 290
310 398
325 153
325 418
334 297
340 173
350 196
352 315
364 217
370 333
373 241
382 265
390 289
390 348
409 365
410 304
429 380
430 319
452 390
453 330
474 402
475 342
496 414
499 351
509 477
514 432
517 369
532 389
534 477
550 455
552 404
560 428
