89 232
89 257
101 210
101 279
114 182
114 301
129 157
129 321
149 336
151 144
164 502
167 354
172 129
174 479
184 442
189 500
192 360
195 119
196 420
208 483
209 387
220 114
228 468
243 104
246 450
266 435
268 99
286 420
292 89
306 405
317 89
331 403
342 84
356 405
367 84
381 405
392 89
406 400
417 89
431 400
442 89
454 390
465 99
479 390
490 104
503 383
513 114
527 374
538 119
550 360
561 129
570 345
581 144
594 337
604 154
612 319
615 177
625 295
630 197
640 220
640 260
