79 207
79 232
89 255
91 185
96 279
104 157
116 295
122 139
136 310
140 121
156 325
162 109
179 335
182 94
202 345
207 89
222 360
230 79
247 360
255 74
272 365
278 64
296 373
303 64
314 391
324 414
328 64
339 434
344 459
351 483
353 59
375 470
378 60
380 445
395 420
403 64
405 395
420 375
428 64
443 365
451 74
468 360
476 79
491 350
500 86
516 345
524 94
538 333
547 104
562 325
567 119
582 310
587 134
602 295
607 149
619 171
620 265
630 194
630 219
