159 252
159 277
174 222
174 297
174 332
174 357
179 382
189 405
196 209
199 172
211 150
214 410
224 122
239 415
242 104
246 439
264 457
267 99
288 465
292 94
311 475
317 99
334 465
342 94
354 527
357 74
359 460
359 552
359 592
369 615
372 509
377 570
379 62
379 475
379 638
391 660
394 495
403 69
410 630
415 575
425 598
426 79
439 567
440 490
445 61
445 515
450 540
463 480
467 49
488 473
492 49
505 445
514 61
530 440
538 54
555 440
563 49
580 435
588 55
600 415
605 74
615 385
618 96
620 360
636 114
643 348
660 122
661 330
670 145
670 210
670 305
680 168
680 233
683 283
685 258
