84 132
84 157
84 182
84 207
89 232
89 257
89 282
89 307
89 332
96 110
109 347
116 94
131 360
141 89
156 365
166 84
179 375
184 400
191 84
195 423
207 445
216 84
232 445
241 84
245 420
264 402
265 76
280 375
290 74
300 360
315 74
325 360
340 74
350 360
365 74
375 355
390 74
400 355
415 74
425 355
440 74
450 355
465 74
475 355
490 69
500 355
514 76
523 345
534 91
545 114
545 325
560 134
560 159
560 184
560 209
560 234
560 259
560 284
