174 147
174 192
184 215
196 134
196 159
198 184
209 220
221 139
233 213
244 149
251 195
269 152
271 180
293 144
296 180
318 144
321 175
343 149
345 182
368 149
370 187
393 154
394 195
416 164
419 200
439 174
439 215
449 238
464 179
465 258
470 220
485 240
489 184
505 204
509 232
