114 217
119 242
139 172
139 214
141 255
154 192
164 169
164 265
185 183
186 278
200 203
204 296
205 228
220 248
222 314
230 271
234 336
247 290
254 351
265 308
269 371
277 330
289 386
295 348
309 401
313 366
317 425
329 386
340 435
349 401
