169 202
174 237
189 187
192 255
198 229
212 270
214 186
237 269
238 195
258 255
259 209
283 250
284 214
308 255
309 219
333 255
334 224
356 265
359 229
379 275
384 234
404 280
407 244
427 290
430 254
452 295
454 261
474 307
476 274
498 286
