184 117
184 142
194 165
204 102
209 185
209 210
209 235
209 260
209 285
209 310
209 417
210 127
216 334
219 392
219 440
221 359
229 144
239 425
244 462
245 200
245 225
245 250
245 275
245 300
249 127
250 325
250 350
252 375
255 175
260 399
267 109
269 457
270 150
270 422
