19 127
24 152
31 105
42 170
44 237
44 262
44 287
49 317
54 94
54 342
56 215
62 185
69 362
79 89
94 365
104 94
118 358
125 285
129 99
132 309
136 340
150 290
154 102
171 304
176 90
194 315
199 79
217 325
219 64
241 333
244 57
259 37
265 342
281 25
289 350
306 24
314 355
324 402
324 427
329 34
334 370
348 435
349 17
373 430
374 14
397 24
398 428
410 365
412 44
416 410
431 379
435 54
451 394
454 71
476 84
476 395
494 102
501 400
506 124
523 388
526 139
544 157
546 398
555 180
560 205
570 228
571 395
575 310
579 252
585 277
589 331
596 390
605 351
