<?xml version="1.0" encoding="UTF-8" standalone="no"?>
<!-- Created with CurveBenchmark -->
<svg
	xmlns:dc="http://purl.org/dc/elements/1.1/"
	xmlns:cc="http://creativecommons.org/ns#"
	xmlns:rdf="http://www.w3.org/1999/02/22-rdf-syntax-ns#"
	xmlns:svg="http://www.w3.org/2000/svg"
	xmlns="http://www.w3.org/2000/svg"
	xmlns:sodipodi="http://sodipodi.sourceforge.net/DTD/sodipodi-0.dtd"
	xmlns:inkscape="http://www.inkscape.org/namespaces/inkscape"
	width="1000"
	height="1000"
	id="svg2"
	version="1.1"
	sodipodi:docname="noisy-0.003/ccrust-mc16.txt">
<defs
	id="defs4" />
<metadata
	id="metadata7">
	<rdf:RDF>
		<cc:Work
			rdf:about="">
			<dc:format>image/svg+xml</dc:format>
			<dc:type
				rdf:resource="http://purl.org/dc/dcmitype/StillImage" />
			<dc:title></dc:title>
		</cc:Work>
	</rdf:RDF>
</metadata>
<g
	inkscape:label="Layer 1"
	inkscape:groupmode="layer"
	id="layer1">
	<path style="fill:none;stroke:red;stroke-width:1px;stroke-linecap:butt;stroke-linejoin:miter;stroke-opacity:1" d="M 68.7282,178.109 57.7706,176.967 z" id="boundary" inkscape:connector-curvature="0" />
	<path style="fill:none;stroke:red;stroke-width:1px;stroke-linecap:butt;stroke-linejoin:miter;stroke-opacity:1" d="M 71.5291,217.871 64.4033,201.191 z" id="boundary" inkscape:connector-curvature="0" />
	<path style="fill:none;stroke:red;stroke-width:1px;stroke-linecap:butt;stroke-linejoin:miter;stroke-opacity:1" d="M 61.8258,149.371 78.1797,135.099 z" id="boundary" inkscape:connector-curvature="0" />
	<path style="fill:none;stroke:red;stroke-width:1px;stroke-linecap:butt;stroke-linejoin:miter;stroke-opacity:1" d="M 65.2059,263.901 67.6111,277.441 z" id="boundary" inkscape:connector-curvature="0" />
	<path style="fill:none;stroke:red;stroke-width:1px;stroke-linecap:butt;stroke-linejoin:miter;stroke-opacity:1" d="M 65.2059,263.901 67.728,242.228 z" id="boundary" inkscape:connector-curvature="0" />
	<path style="fill:none;stroke:red;stroke-width:1px;stroke-linecap:butt;stroke-linejoin:miter;stroke-opacity:1" d="M 71.5291,217.871 67.728,242.228 z" id="boundary" inkscape:connector-curvature="0" />
	<path style="fill:none;stroke:red;stroke-width:1px;stroke-linecap:butt;stroke-linejoin:miter;stroke-opacity:1" d="M 66.1858,302.478 67.6111,277.441 z" id="boundary" inkscape:connector-curvature="0" />
	<path style="fill:none;stroke:red;stroke-width:1px;stroke-linecap:butt;stroke-linejoin:miter;stroke-opacity:1" d="M 78.1797,135.099 90.0555,120.958 z" id="boundary" inkscape:connector-curvature="0" />
	<path style="fill:none;stroke:red;stroke-width:1px;stroke-linecap:butt;stroke-linejoin:miter;stroke-opacity:1" d="M 156.19,151.755 133.303,170.615 z" id="boundary" inkscape:connector-curvature="0" />
	<path style="fill:none;stroke:red;stroke-width:1px;stroke-linecap:butt;stroke-linejoin:miter;stroke-opacity:1" d="M 143.579,95.8905 115.704,108.598 z" id="boundary" inkscape:connector-curvature="0" />
	<path style="fill:none;stroke:red;stroke-width:1px;stroke-linecap:butt;stroke-linejoin:miter;stroke-opacity:1" d="M 165.897,82.4733 143.579,95.8905 z" id="boundary" inkscape:connector-curvature="0" />
	<path style="fill:none;stroke:red;stroke-width:1px;stroke-linecap:butt;stroke-linejoin:miter;stroke-opacity:1" d="M 135.684,189.25 133.303,170.615 z" id="boundary" inkscape:connector-curvature="0" />
	<path style="fill:none;stroke:red;stroke-width:1px;stroke-linecap:butt;stroke-linejoin:miter;stroke-opacity:1" d="M 90.0555,120.958 115.704,108.598 z" id="boundary" inkscape:connector-curvature="0" />
	<path style="fill:none;stroke:red;stroke-width:1px;stroke-linecap:butt;stroke-linejoin:miter;stroke-opacity:1" d="M 126.286,242.535 127.196,263.471 z" id="boundary" inkscape:connector-curvature="0" />
	<path style="fill:none;stroke:red;stroke-width:1px;stroke-linecap:butt;stroke-linejoin:miter;stroke-opacity:1" d="M 127.196,263.471 126.304,286.731 z" id="boundary" inkscape:connector-curvature="0" />
	<path style="fill:none;stroke:red;stroke-width:1px;stroke-linecap:butt;stroke-linejoin:miter;stroke-opacity:1" d="M 126.286,242.535 136.515,215.477 z" id="boundary" inkscape:connector-curvature="0" />
	<path style="fill:none;stroke:red;stroke-width:1px;stroke-linecap:butt;stroke-linejoin:miter;stroke-opacity:1" d="M 136.515,215.477 135.684,189.25 z" id="boundary" inkscape:connector-curvature="0" />
	<path style="fill:none;stroke:red;stroke-width:1px;stroke-linecap:butt;stroke-linejoin:miter;stroke-opacity:1" d="M 127.357,316.409 126.304,286.731 z" id="boundary" inkscape:connector-curvature="0" />
	<path style="fill:none;stroke:red;stroke-width:1px;stroke-linecap:butt;stroke-linejoin:miter;stroke-opacity:1" d="M 16.0312,368.555 26.2383,357.102 z" id="boundary" inkscape:connector-curvature="0" />
	<path style="fill:none;stroke:red;stroke-width:1px;stroke-linecap:butt;stroke-linejoin:miter;stroke-opacity:1" d="M 26.2383,357.102 34.8471,353.694 z" id="boundary" inkscape:connector-curvature="0" />
	<path style="fill:none;stroke:red;stroke-width:1px;stroke-linecap:butt;stroke-linejoin:miter;stroke-opacity:1" d="M 50.5765,344.867 34.8471,353.694 z" id="boundary" inkscape:connector-curvature="0" />
	<path style="fill:none;stroke:red;stroke-width:1px;stroke-linecap:butt;stroke-linejoin:miter;stroke-opacity:1" d="M 9.11493,384.381 10.026,395.461 z" id="boundary" inkscape:connector-curvature="0" />
	<path style="fill:none;stroke:red;stroke-width:1px;stroke-linecap:butt;stroke-linejoin:miter;stroke-opacity:1" d="M 33.8749,407.988 40.1403,394.082 z" id="boundary" inkscape:connector-curvature="0" />
	<path style="fill:none;stroke:red;stroke-width:1px;stroke-linecap:butt;stroke-linejoin:miter;stroke-opacity:1" d="M 9.11493,384.381 16.0312,368.555 z" id="boundary" inkscape:connector-curvature="0" />
	<path style="fill:none;stroke:red;stroke-width:1px;stroke-linecap:butt;stroke-linejoin:miter;stroke-opacity:1" d="M 40.1403,394.082 47.3795,378.721 z" id="boundary" inkscape:connector-curvature="0" />
	<path style="fill:none;stroke:red;stroke-width:1px;stroke-linecap:butt;stroke-linejoin:miter;stroke-opacity:1" d="M 10.7563,408.072 10.026,395.461 z" id="boundary" inkscape:connector-curvature="0" />
	<path style="fill:none;stroke:red;stroke-width:1px;stroke-linecap:butt;stroke-linejoin:miter;stroke-opacity:1" d="M 65.0084,338.325 67.4708,315.044 z" id="boundary" inkscape:connector-curvature="0" />
	<path style="fill:none;stroke:red;stroke-width:1px;stroke-linecap:butt;stroke-linejoin:miter;stroke-opacity:1" d="M 65.0084,338.325 50.5765,344.867 z" id="boundary" inkscape:connector-curvature="0" />
	<path style="fill:none;stroke:red;stroke-width:1px;stroke-linecap:butt;stroke-linejoin:miter;stroke-opacity:1" d="M 134.524,333.234 129.645,364.434 z" id="boundary" inkscape:connector-curvature="0" />
	<path style="fill:none;stroke:red;stroke-width:1px;stroke-linecap:butt;stroke-linejoin:miter;stroke-opacity:1" d="M 134.524,333.234 127.357,316.409 z" id="boundary" inkscape:connector-curvature="0" />
	<path style="fill:none;stroke:red;stroke-width:1px;stroke-linecap:butt;stroke-linejoin:miter;stroke-opacity:1" d="M 67.4708,315.044 66.1858,302.478 z" id="boundary" inkscape:connector-curvature="0" />
	<path style="fill:none;stroke:red;stroke-width:1px;stroke-linecap:butt;stroke-linejoin:miter;stroke-opacity:1" d="M 65.0896,376.249 66.0973,388.597 z" id="boundary" inkscape:connector-curvature="0" />
	<path style="fill:none;stroke:red;stroke-width:1px;stroke-linecap:butt;stroke-linejoin:miter;stroke-opacity:1" d="M 69.7876,407.31 66.0973,388.597 z" id="boundary" inkscape:connector-curvature="0" />
	<path style="fill:none;stroke:red;stroke-width:1px;stroke-linecap:butt;stroke-linejoin:miter;stroke-opacity:1" d="M 133.209,385.356 149.675,374.656 z" id="boundary" inkscape:connector-curvature="0" />
	<path style="fill:none;stroke:red;stroke-width:1px;stroke-linecap:butt;stroke-linejoin:miter;stroke-opacity:1" d="M 64.3718,427.94 69.7876,407.31 z" id="boundary" inkscape:connector-curvature="0" />
	<path style="fill:none;stroke:red;stroke-width:1px;stroke-linecap:butt;stroke-linejoin:miter;stroke-opacity:1" d="M 172.155,368.515 149.675,374.656 z" id="boundary" inkscape:connector-curvature="0" />
	<path style="fill:none;stroke:red;stroke-width:1px;stroke-linecap:butt;stroke-linejoin:miter;stroke-opacity:1" d="M 165.897,82.4733 193.951,71.4637 z" id="boundary" inkscape:connector-curvature="0" />
	<path style="fill:none;stroke:red;stroke-width:1px;stroke-linecap:butt;stroke-linejoin:miter;stroke-opacity:1" d="M 193.951,71.4637 231.145,57.4944 z" id="boundary" inkscape:connector-curvature="0" />
	<path style="fill:none;stroke:red;stroke-width:1px;stroke-linecap:butt;stroke-linejoin:miter;stroke-opacity:1" d="M 231.145,57.4944 263.719,40.8093 z" id="boundary" inkscape:connector-curvature="0" />
	<path style="fill:none;stroke:red;stroke-width:1px;stroke-linecap:butt;stroke-linejoin:miter;stroke-opacity:1" d="M 178.54,141.417 156.19,151.755 z" id="boundary" inkscape:connector-curvature="0" />
	<path style="fill:none;stroke:red;stroke-width:1px;stroke-linecap:butt;stroke-linejoin:miter;stroke-opacity:1" d="M 201.951,125.403 225.996,119.403 z" id="boundary" inkscape:connector-curvature="0" />
	<path style="fill:none;stroke:red;stroke-width:1px;stroke-linecap:butt;stroke-linejoin:miter;stroke-opacity:1" d="M 254.801,110.993 256.818,129.588 z" id="boundary" inkscape:connector-curvature="0" />
	<path style="fill:none;stroke:red;stroke-width:1px;stroke-linecap:butt;stroke-linejoin:miter;stroke-opacity:1" d="M 178.54,141.417 201.951,125.403 z" id="boundary" inkscape:connector-curvature="0" />
	<path style="fill:none;stroke:red;stroke-width:1px;stroke-linecap:butt;stroke-linejoin:miter;stroke-opacity:1" d="M 256.818,129.588 257.987,152.703 z" id="boundary" inkscape:connector-curvature="0" />
	<path style="fill:none;stroke:red;stroke-width:1px;stroke-linecap:butt;stroke-linejoin:miter;stroke-opacity:1" d="M 331.072,26.3187 367.266,13.3768 z" id="boundary" inkscape:connector-curvature="0" />
	<path style="fill:none;stroke:red;stroke-width:1px;stroke-linecap:butt;stroke-linejoin:miter;stroke-opacity:1" d="M 367.266,13.3768 410.12,14.1385 z" id="boundary" inkscape:connector-curvature="0" />
	<path style="fill:none;stroke:red;stroke-width:1px;stroke-linecap:butt;stroke-linejoin:miter;stroke-opacity:1" d="M 410.12,14.1385 448.872,7.64667 z" id="boundary" inkscape:connector-curvature="0" />
	<path style="fill:none;stroke:red;stroke-width:1px;stroke-linecap:butt;stroke-linejoin:miter;stroke-opacity:1" d="M 480.118,10.2608 448.872,7.64667 z" id="boundary" inkscape:connector-curvature="0" />
	<path style="fill:none;stroke:red;stroke-width:1px;stroke-linecap:butt;stroke-linejoin:miter;stroke-opacity:1" d="M 506.674,4 480.118,10.2608 z" id="boundary" inkscape:connector-curvature="0" />
	<path style="fill:none;stroke:red;stroke-width:1px;stroke-linecap:butt;stroke-linejoin:miter;stroke-opacity:1" d="M 257.987,152.703 258.128,175.897 z" id="boundary" inkscape:connector-curvature="0" />
	<path style="fill:none;stroke:red;stroke-width:1px;stroke-linecap:butt;stroke-linejoin:miter;stroke-opacity:1" d="M 266.224,210.894 258.128,175.897 z" id="boundary" inkscape:connector-curvature="0" />
	<path style="fill:none;stroke:red;stroke-width:1px;stroke-linecap:butt;stroke-linejoin:miter;stroke-opacity:1" d="M 293.818,36.6196 263.719,40.8093 z" id="boundary" inkscape:connector-curvature="0" />
	<path style="fill:none;stroke:red;stroke-width:1px;stroke-linecap:butt;stroke-linejoin:miter;stroke-opacity:1" d="M 331.072,26.3187 293.818,36.6196 z" id="boundary" inkscape:connector-curvature="0" />
	<path style="fill:none;stroke:red;stroke-width:1px;stroke-linecap:butt;stroke-linejoin:miter;stroke-opacity:1" d="M 266.224,210.894 259.115,243.578 z" id="boundary" inkscape:connector-curvature="0" />
	<path style="fill:none;stroke:red;stroke-width:1px;stroke-linecap:butt;stroke-linejoin:miter;stroke-opacity:1" d="M 228.005,340.571 248.969,335.049 z" id="boundary" inkscape:connector-curvature="0" />
	<path style="fill:none;stroke:red;stroke-width:1px;stroke-linecap:butt;stroke-linejoin:miter;stroke-opacity:1" d="M 256.289,322.688 248.969,335.049 z" id="boundary" inkscape:connector-curvature="0" />
	<path style="fill:none;stroke:red;stroke-width:1px;stroke-linecap:butt;stroke-linejoin:miter;stroke-opacity:1" d="M 260.794,297.102 256.289,322.688 z" id="boundary" inkscape:connector-curvature="0" />
	<path style="fill:none;stroke:red;stroke-width:1px;stroke-linecap:butt;stroke-linejoin:miter;stroke-opacity:1" d="M 283.315,350.026 259.456,377.417 z" id="boundary" inkscape:connector-curvature="0" />
	<path style="fill:none;stroke:red;stroke-width:1px;stroke-linecap:butt;stroke-linejoin:miter;stroke-opacity:1" d="M 172.155,368.515 191.809,362.182 z" id="boundary" inkscape:connector-curvature="0" />
	<path style="fill:none;stroke:red;stroke-width:1px;stroke-linecap:butt;stroke-linejoin:miter;stroke-opacity:1" d="M 259.456,377.417 242.622,401.082 z" id="boundary" inkscape:connector-curvature="0" />
	<path style="fill:none;stroke:red;stroke-width:1px;stroke-linecap:butt;stroke-linejoin:miter;stroke-opacity:1" d="M 208.813,357.943 228.005,340.571 z" id="boundary" inkscape:connector-curvature="0" />
	<path style="fill:none;stroke:red;stroke-width:1px;stroke-linecap:butt;stroke-linejoin:miter;stroke-opacity:1" d="M 191.809,362.182 208.813,357.943 z" id="boundary" inkscape:connector-curvature="0" />
	<path style="fill:none;stroke:red;stroke-width:1px;stroke-linecap:butt;stroke-linejoin:miter;stroke-opacity:1" d="M 264.033,274.747 260.794,297.102 z" id="boundary" inkscape:connector-curvature="0" />
	<path style="fill:none;stroke:red;stroke-width:1px;stroke-linecap:butt;stroke-linejoin:miter;stroke-opacity:1" d="M 259.115,243.578 264.033,274.747 z" id="boundary" inkscape:connector-curvature="0" />
	<path style="fill:none;stroke:red;stroke-width:1px;stroke-linecap:butt;stroke-linejoin:miter;stroke-opacity:1" d="M 357.045,290.091 329.864,305.839 z" id="boundary" inkscape:connector-curvature="0" />
	<path style="fill:none;stroke:red;stroke-width:1px;stroke-linecap:butt;stroke-linejoin:miter;stroke-opacity:1" d="M 445.991,261.874 416.848,265.734 z" id="boundary" inkscape:connector-curvature="0" />
	<path style="fill:none;stroke:red;stroke-width:1px;stroke-linecap:butt;stroke-linejoin:miter;stroke-opacity:1" d="M 384.401,273.634 357.045,290.091 z" id="boundary" inkscape:connector-curvature="0" />
	<path style="fill:none;stroke:red;stroke-width:1px;stroke-linecap:butt;stroke-linejoin:miter;stroke-opacity:1" d="M 384.401,273.634 416.848,265.734 z" id="boundary" inkscape:connector-curvature="0" />
	<path style="fill:none;stroke:red;stroke-width:1px;stroke-linecap:butt;stroke-linejoin:miter;stroke-opacity:1" d="M 304.073,324.356 283.315,350.026 z" id="boundary" inkscape:connector-curvature="0" />
	<path style="fill:none;stroke:red;stroke-width:1px;stroke-linecap:butt;stroke-linejoin:miter;stroke-opacity:1" d="M 329.864,305.839 304.073,324.356 z" id="boundary" inkscape:connector-curvature="0" />
	<path style="fill:none;stroke:red;stroke-width:1px;stroke-linecap:butt;stroke-linejoin:miter;stroke-opacity:1" d="M 469.311,254.421 445.991,261.874 z" id="boundary" inkscape:connector-curvature="0" />
	<path style="fill:none;stroke:red;stroke-width:1px;stroke-linecap:butt;stroke-linejoin:miter;stroke-opacity:1" d="M 469.311,254.421 503.516,253.591 z" id="boundary" inkscape:connector-curvature="0" />
	<path style="fill:none;stroke:red;stroke-width:1px;stroke-linecap:butt;stroke-linejoin:miter;stroke-opacity:1" d="M 242.622,401.082 227.832,434.253 z" id="boundary" inkscape:connector-curvature="0" />
	<path style="fill:none;stroke:red;stroke-width:1px;stroke-linecap:butt;stroke-linejoin:miter;stroke-opacity:1" d="M 4,422.018 8.81353,440.162 z" id="boundary" inkscape:connector-curvature="0" />
	<path style="fill:none;stroke:red;stroke-width:1px;stroke-linecap:butt;stroke-linejoin:miter;stroke-opacity:1" d="M 8.81353,440.162 7.85973,454.208 z" id="boundary" inkscape:connector-curvature="0" />
	<path style="fill:none;stroke:red;stroke-width:1px;stroke-linecap:butt;stroke-linejoin:miter;stroke-opacity:1" d="M 10.7563,408.072 4,422.018 z" id="boundary" inkscape:connector-curvature="0" />
	<path style="fill:none;stroke:red;stroke-width:1px;stroke-linecap:butt;stroke-linejoin:miter;stroke-opacity:1" d="M 8.56005,468.925 7.85973,454.208 z" id="boundary" inkscape:connector-curvature="0" />
	<path style="fill:none;stroke:red;stroke-width:1px;stroke-linecap:butt;stroke-linejoin:miter;stroke-opacity:1" d="M 7.32572,509.522 5.87661,501.824 z" id="boundary" inkscape:connector-curvature="0" />
	<path style="fill:none;stroke:red;stroke-width:1px;stroke-linecap:butt;stroke-linejoin:miter;stroke-opacity:1" d="M 6.06316,481.575 5.87661,501.824 z" id="boundary" inkscape:connector-curvature="0" />
	<path style="fill:none;stroke:red;stroke-width:1px;stroke-linecap:butt;stroke-linejoin:miter;stroke-opacity:1" d="M 9.13766,523.287 7.32572,509.522 z" id="boundary" inkscape:connector-curvature="0" />
	<path style="fill:none;stroke:red;stroke-width:1px;stroke-linecap:butt;stroke-linejoin:miter;stroke-opacity:1" d="M 6.06316,481.575 8.56005,468.925 z" id="boundary" inkscape:connector-curvature="0" />
	<path style="fill:none;stroke:red;stroke-width:1px;stroke-linecap:butt;stroke-linejoin:miter;stroke-opacity:1" d="M 37.0883,454.687 38.1447,462.472 z" id="boundary" inkscape:connector-curvature="0" />
	<path style="fill:none;stroke:red;stroke-width:1px;stroke-linecap:butt;stroke-linejoin:miter;stroke-opacity:1" d="M 32.2376,484.465 36.9927,501.34 z" id="boundary" inkscape:connector-curvature="0" />
	<path style="fill:none;stroke:red;stroke-width:1px;stroke-linecap:butt;stroke-linejoin:miter;stroke-opacity:1" d="M 68.5713,461.347 62.1983,470.48 z" id="boundary" inkscape:connector-curvature="0" />
	<path style="fill:none;stroke:red;stroke-width:1px;stroke-linecap:butt;stroke-linejoin:miter;stroke-opacity:1" d="M 62.1983,470.48 38.1447,462.472 z" id="boundary" inkscape:connector-curvature="0" />
	<path style="fill:none;stroke:red;stroke-width:1px;stroke-linecap:butt;stroke-linejoin:miter;stroke-opacity:1" d="M 32.2376,484.465 38.1447,462.472 z" id="boundary" inkscape:connector-curvature="0" />
	<path style="fill:none;stroke:red;stroke-width:1px;stroke-linecap:butt;stroke-linejoin:miter;stroke-opacity:1" d="M 37.0883,454.687 36.09,435.387 z" id="boundary" inkscape:connector-curvature="0" />
	<path style="fill:none;stroke:red;stroke-width:1px;stroke-linecap:butt;stroke-linejoin:miter;stroke-opacity:1" d="M 62.1983,470.48 61.4149,489.003 z" id="boundary" inkscape:connector-curvature="0" />
	<path style="fill:none;stroke:red;stroke-width:1px;stroke-linecap:butt;stroke-linejoin:miter;stroke-opacity:1" d="M 23.8273,534.751 9.13766,523.287 z" id="boundary" inkscape:connector-curvature="0" />
	<path style="fill:none;stroke:red;stroke-width:1px;stroke-linecap:butt;stroke-linejoin:miter;stroke-opacity:1" d="M 36.9927,501.34 43.8811,512.549 z" id="boundary" inkscape:connector-curvature="0" />
	<path style="fill:none;stroke:red;stroke-width:1px;stroke-linecap:butt;stroke-linejoin:miter;stroke-opacity:1" d="M 57.4555,517.453 43.8811,512.549 z" id="boundary" inkscape:connector-curvature="0" />
	<path style="fill:none;stroke:red;stroke-width:1px;stroke-linecap:butt;stroke-linejoin:miter;stroke-opacity:1" d="M 66.442,555.051 57.1967,542.318 z" id="boundary" inkscape:connector-curvature="0" />
	<path style="fill:none;stroke:red;stroke-width:1px;stroke-linecap:butt;stroke-linejoin:miter;stroke-opacity:1" d="M 33.3445,534.905 23.8273,534.751 z" id="boundary" inkscape:connector-curvature="0" />
	<path style="fill:none;stroke:red;stroke-width:1px;stroke-linecap:butt;stroke-linejoin:miter;stroke-opacity:1" d="M 33.8749,407.988 36.09,435.387 z" id="boundary" inkscape:connector-curvature="0" />
	<path style="fill:none;stroke:red;stroke-width:1px;stroke-linecap:butt;stroke-linejoin:miter;stroke-opacity:1" d="M 45.3633,538.199 33.3445,534.905 z" id="boundary" inkscape:connector-curvature="0" />
	<path style="fill:none;stroke:red;stroke-width:1px;stroke-linecap:butt;stroke-linejoin:miter;stroke-opacity:1" d="M 56.2347,770.257 55.2008,745.891 z" id="boundary" inkscape:connector-curvature="0" />
	<path style="fill:none;stroke:red;stroke-width:1px;stroke-linecap:butt;stroke-linejoin:miter;stroke-opacity:1" d="M 55.2008,745.891 58.8795,726.458 z" id="boundary" inkscape:connector-curvature="0" />
	<path style="fill:none;stroke:red;stroke-width:1px;stroke-linecap:butt;stroke-linejoin:miter;stroke-opacity:1" d="M 57.1967,542.318 45.3633,538.199 z" id="boundary" inkscape:connector-curvature="0" />
	<path style="fill:none;stroke:red;stroke-width:1px;stroke-linecap:butt;stroke-linejoin:miter;stroke-opacity:1" d="M 55.737,829.959 55.2279,814.251 z" id="boundary" inkscape:connector-curvature="0" />
	<path style="fill:none;stroke:red;stroke-width:1px;stroke-linecap:butt;stroke-linejoin:miter;stroke-opacity:1" d="M 55.737,829.959 57.6936,853.607 z" id="boundary" inkscape:connector-curvature="0" />
	<path style="fill:none;stroke:red;stroke-width:1px;stroke-linecap:butt;stroke-linejoin:miter;stroke-opacity:1" d="M 57.6936,853.607 56.555,874.79 z" id="boundary" inkscape:connector-curvature="0" />
	<path style="fill:none;stroke:red;stroke-width:1px;stroke-linecap:butt;stroke-linejoin:miter;stroke-opacity:1" d="M 57.5329,787.226 56.2347,770.257 z" id="boundary" inkscape:connector-curvature="0" />
	<path style="fill:none;stroke:red;stroke-width:1px;stroke-linecap:butt;stroke-linejoin:miter;stroke-opacity:1" d="M 57.5329,787.226 55.2279,814.251 z" id="boundary" inkscape:connector-curvature="0" />
	<path style="fill:none;stroke:red;stroke-width:1px;stroke-linecap:butt;stroke-linejoin:miter;stroke-opacity:1" d="M 58.4984,569.138 60.2626,592.236 z" id="boundary" inkscape:connector-curvature="0" />
	<path style="fill:none;stroke:red;stroke-width:1px;stroke-linecap:butt;stroke-linejoin:miter;stroke-opacity:1" d="M 59.2429,648.147 58.1678,629.856 z" id="boundary" inkscape:connector-curvature="0" />
	<path style="fill:none;stroke:red;stroke-width:1px;stroke-linecap:butt;stroke-linejoin:miter;stroke-opacity:1" d="M 62.0921,608.26 58.1678,629.856 z" id="boundary" inkscape:connector-curvature="0" />
	<path style="fill:none;stroke:red;stroke-width:1px;stroke-linecap:butt;stroke-linejoin:miter;stroke-opacity:1" d="M 60.2626,592.236 62.0921,608.26 z" id="boundary" inkscape:connector-curvature="0" />
	<path style="fill:none;stroke:red;stroke-width:1px;stroke-linecap:butt;stroke-linejoin:miter;stroke-opacity:1" d="M 58.4984,569.138 66.442,555.051 z" id="boundary" inkscape:connector-curvature="0" />
	<path style="fill:none;stroke:red;stroke-width:1px;stroke-linecap:butt;stroke-linejoin:miter;stroke-opacity:1" d="M 61.0409,673.252 59.2429,648.147 z" id="boundary" inkscape:connector-curvature="0" />
	<path style="fill:none;stroke:red;stroke-width:1px;stroke-linecap:butt;stroke-linejoin:miter;stroke-opacity:1" d="M 58.4077,695.865 58.8795,726.458 z" id="boundary" inkscape:connector-curvature="0" />
	<path style="fill:none;stroke:red;stroke-width:1px;stroke-linecap:butt;stroke-linejoin:miter;stroke-opacity:1" d="M 58.4077,695.865 61.0409,673.252 z" id="boundary" inkscape:connector-curvature="0" />
	<path style="fill:none;stroke:red;stroke-width:1px;stroke-linecap:butt;stroke-linejoin:miter;stroke-opacity:1" d="M 63.1818,899.035 56.555,874.79 z" id="boundary" inkscape:connector-curvature="0" />
	<path style="fill:none;stroke:red;stroke-width:1px;stroke-linecap:butt;stroke-linejoin:miter;stroke-opacity:1" d="M 63.1818,899.035 63.8494,920.551 z" id="boundary" inkscape:connector-curvature="0" />
	<path style="fill:none;stroke:red;stroke-width:1px;stroke-linecap:butt;stroke-linejoin:miter;stroke-opacity:1" d="M 63.284,438.352 64.3718,427.94 z" id="boundary" inkscape:connector-curvature="0" />
	<path style="fill:none;stroke:red;stroke-width:1px;stroke-linecap:butt;stroke-linejoin:miter;stroke-opacity:1" d="M 68.5713,461.347 63.284,438.352 z" id="boundary" inkscape:connector-curvature="0" />
	<path style="fill:none;stroke:red;stroke-width:1px;stroke-linecap:butt;stroke-linejoin:miter;stroke-opacity:1" d="M 208.591,490.52 201.271,526.07 z" id="boundary" inkscape:connector-curvature="0" />
	<path style="fill:none;stroke:red;stroke-width:1px;stroke-linecap:butt;stroke-linejoin:miter;stroke-opacity:1" d="M 194.304,589.625 205.483,616.704 z" id="boundary" inkscape:connector-curvature="0" />
	<path style="fill:none;stroke:red;stroke-width:1px;stroke-linecap:butt;stroke-linejoin:miter;stroke-opacity:1" d="M 201.494,558.316 194.304,589.625 z" id="boundary" inkscape:connector-curvature="0" />
	<path style="fill:none;stroke:red;stroke-width:1px;stroke-linecap:butt;stroke-linejoin:miter;stroke-opacity:1" d="M 201.494,558.316 201.271,526.07 z" id="boundary" inkscape:connector-curvature="0" />
	<path style="fill:none;stroke:red;stroke-width:1px;stroke-linecap:butt;stroke-linejoin:miter;stroke-opacity:1" d="M 205.483,616.704 211.817,651.025 z" id="boundary" inkscape:connector-curvature="0" />
	<path style="fill:none;stroke:red;stroke-width:1px;stroke-linecap:butt;stroke-linejoin:miter;stroke-opacity:1" d="M 208.591,490.52 223.909,462.948 z" id="boundary" inkscape:connector-curvature="0" />
	<path style="fill:none;stroke:red;stroke-width:1px;stroke-linecap:butt;stroke-linejoin:miter;stroke-opacity:1" d="M 227.122,676.58 211.817,651.025 z" id="boundary" inkscape:connector-curvature="0" />
	<path style="fill:none;stroke:red;stroke-width:1px;stroke-linecap:butt;stroke-linejoin:miter;stroke-opacity:1" d="M 240.245,697.926 227.122,676.58 z" id="boundary" inkscape:connector-curvature="0" />
	<path style="fill:none;stroke:red;stroke-width:1px;stroke-linecap:butt;stroke-linejoin:miter;stroke-opacity:1" d="M 256.225,718.682 240.245,697.926 z" id="boundary" inkscape:connector-curvature="0" />
	<path style="fill:none;stroke:red;stroke-width:1px;stroke-linecap:butt;stroke-linejoin:miter;stroke-opacity:1" d="M 256.225,718.682 272.185,743.75 z" id="boundary" inkscape:connector-curvature="0" />
	<path style="fill:none;stroke:red;stroke-width:1px;stroke-linecap:butt;stroke-linejoin:miter;stroke-opacity:1" d="M 292.322,758.255 272.185,743.75 z" id="boundary" inkscape:connector-curvature="0" />
	<path style="fill:none;stroke:red;stroke-width:1px;stroke-linecap:butt;stroke-linejoin:miter;stroke-opacity:1" d="M 327.132,792.629 311.186,781.805 z" id="boundary" inkscape:connector-curvature="0" />
	<path style="fill:none;stroke:red;stroke-width:1px;stroke-linecap:butt;stroke-linejoin:miter;stroke-opacity:1" d="M 311.186,781.805 292.322,758.255 z" id="boundary" inkscape:connector-curvature="0" />
	<path style="fill:none;stroke:red;stroke-width:1px;stroke-linecap:butt;stroke-linejoin:miter;stroke-opacity:1" d="M 354.713,806.696 327.132,792.629 z" id="boundary" inkscape:connector-curvature="0" />
	<path style="fill:none;stroke:red;stroke-width:1px;stroke-linecap:butt;stroke-linejoin:miter;stroke-opacity:1" d="M 223.909,462.948 227.832,434.253 z" id="boundary" inkscape:connector-curvature="0" />
	<path style="fill:none;stroke:red;stroke-width:1px;stroke-linecap:butt;stroke-linejoin:miter;stroke-opacity:1" d="M 71.8999,938.639 63.8494,920.551 z" id="boundary" inkscape:connector-curvature="0" />
	<path style="fill:none;stroke:red;stroke-width:1px;stroke-linecap:butt;stroke-linejoin:miter;stroke-opacity:1" d="M 85.5763,958.196 114.442,958.63 z" id="boundary" inkscape:connector-curvature="0" />
	<path style="fill:none;stroke:red;stroke-width:1px;stroke-linecap:butt;stroke-linejoin:miter;stroke-opacity:1" d="M 85.5763,958.196 71.8999,938.639 z" id="boundary" inkscape:connector-curvature="0" />
	<path style="fill:none;stroke:red;stroke-width:1px;stroke-linecap:butt;stroke-linejoin:miter;stroke-opacity:1" d="M 114.442,958.63 145.131,960.738 z" id="boundary" inkscape:connector-curvature="0" />
	<path style="fill:none;stroke:red;stroke-width:1px;stroke-linecap:butt;stroke-linejoin:miter;stroke-opacity:1" d="M 145.131,960.738 175.443,967.238 z" id="boundary" inkscape:connector-curvature="0" />
	<path style="fill:none;stroke:red;stroke-width:1px;stroke-linecap:butt;stroke-linejoin:miter;stroke-opacity:1" d="M 209.709,968.192 175.443,967.238 z" id="boundary" inkscape:connector-curvature="0" />
	<path style="fill:none;stroke:red;stroke-width:1px;stroke-linecap:butt;stroke-linejoin:miter;stroke-opacity:1" d="M 283.973,966.591 243.302,966.565 z" id="boundary" inkscape:connector-curvature="0" />
	<path style="fill:none;stroke:red;stroke-width:1px;stroke-linecap:butt;stroke-linejoin:miter;stroke-opacity:1" d="M 330.495,966.799 283.973,966.591 z" id="boundary" inkscape:connector-curvature="0" />
	<path style="fill:none;stroke:red;stroke-width:1px;stroke-linecap:butt;stroke-linejoin:miter;stroke-opacity:1" d="M 209.709,968.192 243.302,966.565 z" id="boundary" inkscape:connector-curvature="0" />
	<path style="fill:none;stroke:red;stroke-width:1px;stroke-linecap:butt;stroke-linejoin:miter;stroke-opacity:1" d="M 330.495,966.799 368.966,970.45 z" id="boundary" inkscape:connector-curvature="0" />
	<path style="fill:none;stroke:red;stroke-width:1px;stroke-linecap:butt;stroke-linejoin:miter;stroke-opacity:1" d="M 378.381,829.348 354.713,806.696 z" id="boundary" inkscape:connector-curvature="0" />
	<path style="fill:none;stroke:red;stroke-width:1px;stroke-linecap:butt;stroke-linejoin:miter;stroke-opacity:1" d="M 406.198,836.505 378.381,829.348 z" id="boundary" inkscape:connector-curvature="0" />
	<path style="fill:none;stroke:red;stroke-width:1px;stroke-linecap:butt;stroke-linejoin:miter;stroke-opacity:1" d="M 469.301,854.95 430.253,846.264 z" id="boundary" inkscape:connector-curvature="0" />
	<path style="fill:none;stroke:red;stroke-width:1px;stroke-linecap:butt;stroke-linejoin:miter;stroke-opacity:1" d="M 517.973,849.473 495.875,856.98 z" id="boundary" inkscape:connector-curvature="0" />
	<path style="fill:none;stroke:red;stroke-width:1px;stroke-linecap:butt;stroke-linejoin:miter;stroke-opacity:1" d="M 495.875,856.98 469.301,854.95 z" id="boundary" inkscape:connector-curvature="0" />
	<path style="fill:none;stroke:red;stroke-width:1px;stroke-linecap:butt;stroke-linejoin:miter;stroke-opacity:1" d="M 430.253,846.264 406.198,836.505 z" id="boundary" inkscape:connector-curvature="0" />
	<path style="fill:none;stroke:red;stroke-width:1px;stroke-linecap:butt;stroke-linejoin:miter;stroke-opacity:1" d="M 368.966,970.45 401.052,967.669 z" id="boundary" inkscape:connector-curvature="0" />
	<path style="fill:none;stroke:red;stroke-width:1px;stroke-linecap:butt;stroke-linejoin:miter;stroke-opacity:1" d="M 486.538,965.048 444.274,964.725 z" id="boundary" inkscape:connector-curvature="0" />
	<path style="fill:none;stroke:red;stroke-width:1px;stroke-linecap:butt;stroke-linejoin:miter;stroke-opacity:1" d="M 444.274,964.725 401.052,967.669 z" id="boundary" inkscape:connector-curvature="0" />
	<path style="fill:none;stroke:red;stroke-width:1px;stroke-linecap:butt;stroke-linejoin:miter;stroke-opacity:1" d="M 532.218,967.486 486.538,965.048 z" id="boundary" inkscape:connector-curvature="0" />
	<path style="fill:none;stroke:red;stroke-width:1px;stroke-linecap:butt;stroke-linejoin:miter;stroke-opacity:1" d="M 544.297,7.4562 579.762,12.8088 z" id="boundary" inkscape:connector-curvature="0" />
	<path style="fill:none;stroke:red;stroke-width:1px;stroke-linecap:butt;stroke-linejoin:miter;stroke-opacity:1" d="M 621.655,20.2309 579.762,12.8088 z" id="boundary" inkscape:connector-curvature="0" />
	<path style="fill:none;stroke:red;stroke-width:1px;stroke-linecap:butt;stroke-linejoin:miter;stroke-opacity:1" d="M 663.487,26.7622 621.655,20.2309 z" id="boundary" inkscape:connector-curvature="0" />
	<path style="fill:none;stroke:red;stroke-width:1px;stroke-linecap:butt;stroke-linejoin:miter;stroke-opacity:1" d="M 750.488,182.879 747.77,207.522 z" id="boundary" inkscape:connector-curvature="0" />
	<path style="fill:none;stroke:red;stroke-width:1px;stroke-linecap:butt;stroke-linejoin:miter;stroke-opacity:1" d="M 747.77,207.522 746.892,226.141 z" id="boundary" inkscape:connector-curvature="0" />
	<path style="fill:none;stroke:red;stroke-width:1px;stroke-linecap:butt;stroke-linejoin:miter;stroke-opacity:1" d="M 689.303,31.3349 721.791,40.9788 z" id="boundary" inkscape:connector-curvature="0" />
	<path style="fill:none;stroke:red;stroke-width:1px;stroke-linecap:butt;stroke-linejoin:miter;stroke-opacity:1" d="M 747.091,272.327 745.135,246.827 z" id="boundary" inkscape:connector-curvature="0" />
	<path style="fill:none;stroke:red;stroke-width:1px;stroke-linecap:butt;stroke-linejoin:miter;stroke-opacity:1" d="M 663.487,26.7622 689.303,31.3349 z" id="boundary" inkscape:connector-curvature="0" />
	<path style="fill:none;stroke:red;stroke-width:1px;stroke-linecap:butt;stroke-linejoin:miter;stroke-opacity:1" d="M 746.892,226.141 745.135,246.827 z" id="boundary" inkscape:connector-curvature="0" />
	<path style="fill:none;stroke:red;stroke-width:1px;stroke-linecap:butt;stroke-linejoin:miter;stroke-opacity:1" d="M 747.569,54.5826 786.197,66.4017 z" id="boundary" inkscape:connector-curvature="0" />
	<path style="fill:none;stroke:red;stroke-width:1px;stroke-linecap:butt;stroke-linejoin:miter;stroke-opacity:1" d="M 786.838,132.925 771.773,122.207 z" id="boundary" inkscape:connector-curvature="0" />
	<path style="fill:none;stroke:red;stroke-width:1px;stroke-linecap:butt;stroke-linejoin:miter;stroke-opacity:1" d="M 771.773,122.207 750.221,108.106 z" id="boundary" inkscape:connector-curvature="0" />
	<path style="fill:none;stroke:red;stroke-width:1px;stroke-linecap:butt;stroke-linejoin:miter;stroke-opacity:1" d="M 808.84,137.051 786.838,132.925 z" id="boundary" inkscape:connector-curvature="0" />
	<path style="fill:none;stroke:red;stroke-width:1px;stroke-linecap:butt;stroke-linejoin:miter;stroke-opacity:1" d="M 747.569,54.5826 721.791,40.9788 z" id="boundary" inkscape:connector-curvature="0" />
	<path style="fill:none;stroke:red;stroke-width:1px;stroke-linecap:butt;stroke-linejoin:miter;stroke-opacity:1" d="M 750.488,182.879 754.701,161.678 z" id="boundary" inkscape:connector-curvature="0" />
	<path style="fill:none;stroke:red;stroke-width:1px;stroke-linecap:butt;stroke-linejoin:miter;stroke-opacity:1" d="M 748.808,139.992 754.701,161.678 z" id="boundary" inkscape:connector-curvature="0" />
	<path style="fill:none;stroke:red;stroke-width:1px;stroke-linecap:butt;stroke-linejoin:miter;stroke-opacity:1" d="M 786.197,66.4017 812.944,74.3585 z" id="boundary" inkscape:connector-curvature="0" />
	<path style="fill:none;stroke:red;stroke-width:1px;stroke-linecap:butt;stroke-linejoin:miter;stroke-opacity:1" d="M 503.516,253.591 535.394,250.07 z" id="boundary" inkscape:connector-curvature="0" />
	<path style="fill:none;stroke:red;stroke-width:1px;stroke-linecap:butt;stroke-linejoin:miter;stroke-opacity:1" d="M 535.394,250.07 559.618,259.39 z" id="boundary" inkscape:connector-curvature="0" />
	<path style="fill:none;stroke:red;stroke-width:1px;stroke-linecap:butt;stroke-linejoin:miter;stroke-opacity:1" d="M 594.411,264.278 559.618,259.39 z" id="boundary" inkscape:connector-curvature="0" />
	<path style="fill:none;stroke:red;stroke-width:1px;stroke-linecap:butt;stroke-linejoin:miter;stroke-opacity:1" d="M 594.411,264.278 620.85,279.112 z" id="boundary" inkscape:connector-curvature="0" />
	<path style="fill:none;stroke:red;stroke-width:1px;stroke-linecap:butt;stroke-linejoin:miter;stroke-opacity:1" d="M 620.85,279.112 640.892,287.082 z" id="boundary" inkscape:connector-curvature="0" />
	<path style="fill:none;stroke:red;stroke-width:1px;stroke-linecap:butt;stroke-linejoin:miter;stroke-opacity:1" d="M 664.843,299.166 682.155,309.364 z" id="boundary" inkscape:connector-curvature="0" />
	<path style="fill:none;stroke:red;stroke-width:1px;stroke-linecap:butt;stroke-linejoin:miter;stroke-opacity:1" d="M 682.155,309.364 692.063,319.017 z" id="boundary" inkscape:connector-curvature="0" />
	<path style="fill:none;stroke:red;stroke-width:1px;stroke-linecap:butt;stroke-linejoin:miter;stroke-opacity:1" d="M 640.892,287.082 664.843,299.166 z" id="boundary" inkscape:connector-curvature="0" />
	<path style="fill:none;stroke:red;stroke-width:1px;stroke-linecap:butt;stroke-linejoin:miter;stroke-opacity:1" d="M 712.324,336.517 692.063,319.017 z" id="boundary" inkscape:connector-curvature="0" />
	<path style="fill:none;stroke:red;stroke-width:1px;stroke-linecap:butt;stroke-linejoin:miter;stroke-opacity:1" d="M 747.091,272.327 753.638,289.858 z" id="boundary" inkscape:connector-curvature="0" />
	<path style="fill:none;stroke:red;stroke-width:1px;stroke-linecap:butt;stroke-linejoin:miter;stroke-opacity:1" d="M 764.105,344.94 747.233,338.818 z" id="boundary" inkscape:connector-curvature="0" />
	<path style="fill:none;stroke:red;stroke-width:1px;stroke-linecap:butt;stroke-linejoin:miter;stroke-opacity:1" d="M 747.233,338.818 747.641,316.37 z" id="boundary" inkscape:connector-curvature="0" />
	<path style="fill:none;stroke:red;stroke-width:1px;stroke-linecap:butt;stroke-linejoin:miter;stroke-opacity:1" d="M 753.638,289.858 747.641,316.37 z" id="boundary" inkscape:connector-curvature="0" />
	<path style="fill:none;stroke:red;stroke-width:1px;stroke-linecap:butt;stroke-linejoin:miter;stroke-opacity:1" d="M 747.233,338.818 728.333,354.596 z" id="boundary" inkscape:connector-curvature="0" />
	<path style="fill:none;stroke:red;stroke-width:1px;stroke-linecap:butt;stroke-linejoin:miter;stroke-opacity:1" d="M 728.333,354.596 712.324,336.517 z" id="boundary" inkscape:connector-curvature="0" />
	<path style="fill:none;stroke:red;stroke-width:1px;stroke-linecap:butt;stroke-linejoin:miter;stroke-opacity:1" d="M 728.333,354.596 735.202,367.86 z" id="boundary" inkscape:connector-curvature="0" />
	<path style="fill:none;stroke:red;stroke-width:1px;stroke-linecap:butt;stroke-linejoin:miter;stroke-opacity:1" d="M 764.105,344.94 783.8,356.146 z" id="boundary" inkscape:connector-curvature="0" />
	<path style="fill:none;stroke:red;stroke-width:1px;stroke-linecap:butt;stroke-linejoin:miter;stroke-opacity:1" d="M 753.772,388.467 735.202,367.86 z" id="boundary" inkscape:connector-curvature="0" />
	<path style="fill:none;stroke:red;stroke-width:1px;stroke-linecap:butt;stroke-linejoin:miter;stroke-opacity:1" d="M 783.8,356.146 809.545,368.784 z" id="boundary" inkscape:connector-curvature="0" />
	<path style="fill:none;stroke:red;stroke-width:1px;stroke-linecap:butt;stroke-linejoin:miter;stroke-opacity:1" d="M 753.772,388.467 764.009,417.238 z" id="boundary" inkscape:connector-curvature="0" />
	<path style="fill:none;stroke:red;stroke-width:1px;stroke-linecap:butt;stroke-linejoin:miter;stroke-opacity:1" d="M 808.84,137.051 830.553,149.465 z" id="boundary" inkscape:connector-curvature="0" />
	<path style="fill:none;stroke:red;stroke-width:1px;stroke-linecap:butt;stroke-linejoin:miter;stroke-opacity:1" d="M 506.674,4 544.297,7.4562 z" id="boundary" inkscape:connector-curvature="0" />
	<path style="fill:none;stroke:red;stroke-width:1px;stroke-linecap:butt;stroke-linejoin:miter;stroke-opacity:1" d="M 842.05,90.554 861.183,102.242 z" id="boundary" inkscape:connector-curvature="0" />
	<path style="fill:none;stroke:red;stroke-width:1px;stroke-linecap:butt;stroke-linejoin:miter;stroke-opacity:1" d="M 895.378,118.809 861.183,102.242 z" id="boundary" inkscape:connector-curvature="0" />
	<path style="fill:none;stroke:red;stroke-width:1px;stroke-linecap:butt;stroke-linejoin:miter;stroke-opacity:1" d="M 842.05,90.554 812.944,74.3585 z" id="boundary" inkscape:connector-curvature="0" />
	<path style="fill:none;stroke:red;stroke-width:1px;stroke-linecap:butt;stroke-linejoin:miter;stroke-opacity:1" d="M 863.085,168.723 830.553,149.465 z" id="boundary" inkscape:connector-curvature="0" />
	<path style="fill:none;stroke:red;stroke-width:1px;stroke-linecap:butt;stroke-linejoin:miter;stroke-opacity:1" d="M 877.567,229.779 876.042,248.847 z" id="boundary" inkscape:connector-curvature="0" />
	<path style="fill:none;stroke:red;stroke-width:1px;stroke-linecap:butt;stroke-linejoin:miter;stroke-opacity:1" d="M 877.904,211.073 877.567,229.779 z" id="boundary" inkscape:connector-curvature="0" />
	<path style="fill:none;stroke:red;stroke-width:1px;stroke-linecap:butt;stroke-linejoin:miter;stroke-opacity:1" d="M 881.071,267.042 876.042,248.847 z" id="boundary" inkscape:connector-curvature="0" />
	<path style="fill:none;stroke:red;stroke-width:1px;stroke-linecap:butt;stroke-linejoin:miter;stroke-opacity:1" d="M 863.085,168.723 886.31,180.051 z" id="boundary" inkscape:connector-curvature="0" />
	<path style="fill:none;stroke:red;stroke-width:1px;stroke-linecap:butt;stroke-linejoin:miter;stroke-opacity:1" d="M 886.31,180.051 877.904,211.073 z" id="boundary" inkscape:connector-curvature="0" />
	<path style="fill:none;stroke:red;stroke-width:1px;stroke-linecap:butt;stroke-linejoin:miter;stroke-opacity:1" d="M 881.071,267.042 880.259,294.311 z" id="boundary" inkscape:connector-curvature="0" />
	<path style="fill:none;stroke:red;stroke-width:1px;stroke-linecap:butt;stroke-linejoin:miter;stroke-opacity:1" d="M 895.378,118.809 910.295,132.179 z" id="boundary" inkscape:connector-curvature="0" />
	<path style="fill:none;stroke:red;stroke-width:1px;stroke-linecap:butt;stroke-linejoin:miter;stroke-opacity:1" d="M 936.994,148.433 910.295,132.179 z" id="boundary" inkscape:connector-curvature="0" />
	<path style="fill:none;stroke:red;stroke-width:1px;stroke-linecap:butt;stroke-linejoin:miter;stroke-opacity:1" d="M 936.994,148.433 953.058,164.701 z" id="boundary" inkscape:connector-curvature="0" />
	<path style="fill:none;stroke:red;stroke-width:1px;stroke-linecap:butt;stroke-linejoin:miter;stroke-opacity:1" d="M 939.204,206.148 943.401,185.098 z" id="boundary" inkscape:connector-curvature="0" />
	<path style="fill:none;stroke:red;stroke-width:1px;stroke-linecap:butt;stroke-linejoin:miter;stroke-opacity:1" d="M 943.401,185.098 959.391,183.787 z" id="boundary" inkscape:connector-curvature="0" />
	<path style="fill:none;stroke:red;stroke-width:1px;stroke-linecap:butt;stroke-linejoin:miter;stroke-opacity:1" d="M 945.317,261.305 943.964,225.43 z" id="boundary" inkscape:connector-curvature="0" />
	<path style="fill:none;stroke:red;stroke-width:1px;stroke-linecap:butt;stroke-linejoin:miter;stroke-opacity:1" d="M 943.964,225.43 939.204,206.148 z" id="boundary" inkscape:connector-curvature="0" />
	<path style="fill:none;stroke:red;stroke-width:1px;stroke-linecap:butt;stroke-linejoin:miter;stroke-opacity:1" d="M 945.317,261.305 933.484,285.775 z" id="boundary" inkscape:connector-curvature="0" />
	<path style="fill:none;stroke:red;stroke-width:1px;stroke-linecap:butt;stroke-linejoin:miter;stroke-opacity:1" d="M 881,312.056 876.961,334.163 z" id="boundary" inkscape:connector-curvature="0" />
	<path style="fill:none;stroke:red;stroke-width:1px;stroke-linecap:butt;stroke-linejoin:miter;stroke-opacity:1" d="M 881,312.056 880.259,294.311 z" id="boundary" inkscape:connector-curvature="0" />
	<path style="fill:none;stroke:red;stroke-width:1px;stroke-linecap:butt;stroke-linejoin:miter;stroke-opacity:1" d="M 875.88,352.386 876.961,334.163 z" id="boundary" inkscape:connector-curvature="0" />
	<path style="fill:none;stroke:red;stroke-width:1px;stroke-linecap:butt;stroke-linejoin:miter;stroke-opacity:1" d="M 809.545,368.784 828.355,373.814 z" id="boundary" inkscape:connector-curvature="0" />
	<path style="fill:none;stroke:red;stroke-width:1px;stroke-linecap:butt;stroke-linejoin:miter;stroke-opacity:1" d="M 875.88,352.386 877.481,375.335 z" id="boundary" inkscape:connector-curvature="0" />
	<path style="fill:none;stroke:red;stroke-width:1px;stroke-linecap:butt;stroke-linejoin:miter;stroke-opacity:1" d="M 852.175,387.982 828.355,373.814 z" id="boundary" inkscape:connector-curvature="0" />
	<path style="fill:none;stroke:red;stroke-width:1px;stroke-linecap:butt;stroke-linejoin:miter;stroke-opacity:1" d="M 933.484,285.775 939.526,309.176 z" id="boundary" inkscape:connector-curvature="0" />
	<path style="fill:none;stroke:red;stroke-width:1px;stroke-linecap:butt;stroke-linejoin:miter;stroke-opacity:1" d="M 936.672,331.305 939.526,309.176 z" id="boundary" inkscape:connector-curvature="0" />
	<path style="fill:none;stroke:red;stroke-width:1px;stroke-linecap:butt;stroke-linejoin:miter;stroke-opacity:1" d="M 967.935,368.108 952.894,361.999 z" id="boundary" inkscape:connector-curvature="0" />
	<path style="fill:none;stroke:red;stroke-width:1px;stroke-linecap:butt;stroke-linejoin:miter;stroke-opacity:1" d="M 952.894,361.999 940.556,346.73 z" id="boundary" inkscape:connector-curvature="0" />
	<path style="fill:none;stroke:red;stroke-width:1px;stroke-linecap:butt;stroke-linejoin:miter;stroke-opacity:1" d="M 940.556,346.73 936.672,331.305 z" id="boundary" inkscape:connector-curvature="0" />
	<path style="fill:none;stroke:red;stroke-width:1px;stroke-linecap:butt;stroke-linejoin:miter;stroke-opacity:1" d="M 979.751,370.586 967.935,368.108 z" id="boundary" inkscape:connector-curvature="0" />
	<path style="fill:none;stroke:red;stroke-width:1px;stroke-linecap:butt;stroke-linejoin:miter;stroke-opacity:1" d="M 940.336,412.02 942.509,390.082 z" id="boundary" inkscape:connector-curvature="0" />
	<path style="fill:none;stroke:red;stroke-width:1px;stroke-linecap:butt;stroke-linejoin:miter;stroke-opacity:1" d="M 942.509,390.082 952.84,386.909 z" id="boundary" inkscape:connector-curvature="0" />
	<path style="fill:none;stroke:red;stroke-width:1px;stroke-linecap:butt;stroke-linejoin:miter;stroke-opacity:1" d="M 979.751,370.586 990.931,388.158 z" id="boundary" inkscape:connector-curvature="0" />
	<path style="fill:none;stroke:red;stroke-width:1px;stroke-linecap:butt;stroke-linejoin:miter;stroke-opacity:1" d="M 961.634,387.377 952.84,386.909 z" id="boundary" inkscape:connector-curvature="0" />
	<path style="fill:none;stroke:red;stroke-width:1px;stroke-linecap:butt;stroke-linejoin:miter;stroke-opacity:1" d="M 967.935,368.108 961.634,387.377 z" id="boundary" inkscape:connector-curvature="0" />
	<path style="fill:none;stroke:red;stroke-width:1px;stroke-linecap:butt;stroke-linejoin:miter;stroke-opacity:1" d="M 974.252,401.078 961.634,387.377 z" id="boundary" inkscape:connector-curvature="0" />
	<path style="fill:none;stroke:red;stroke-width:1px;stroke-linecap:butt;stroke-linejoin:miter;stroke-opacity:1" d="M 767.095,689.403 758.215,713.233 z" id="boundary" inkscape:connector-curvature="0" />
	<path style="fill:none;stroke:red;stroke-width:1px;stroke-linecap:butt;stroke-linejoin:miter;stroke-opacity:1" d="M 764.009,417.238 777.311,438.769 z" id="boundary" inkscape:connector-curvature="0" />
	<path style="fill:none;stroke:red;stroke-width:1px;stroke-linecap:butt;stroke-linejoin:miter;stroke-opacity:1" d="M 777.311,438.769 787.866,469.573 z" id="boundary" inkscape:connector-curvature="0" />
	<path style="fill:none;stroke:red;stroke-width:1px;stroke-linecap:butt;stroke-linejoin:miter;stroke-opacity:1" d="M 929.898,750.938 926.481,782.59 z" id="boundary" inkscape:connector-curvature="0" />
	<path style="fill:none;stroke:red;stroke-width:1px;stroke-linecap:butt;stroke-linejoin:miter;stroke-opacity:1" d="M 653.952,818.997 682.171,790.137 z" id="boundary" inkscape:connector-curvature="0" />
	<path style="fill:none;stroke:red;stroke-width:1px;stroke-linecap:butt;stroke-linejoin:miter;stroke-opacity:1" d="M 699.568,773.984 682.171,790.137 z" id="boundary" inkscape:connector-curvature="0" />
	<path style="fill:none;stroke:red;stroke-width:1px;stroke-linecap:butt;stroke-linejoin:miter;stroke-opacity:1" d="M 744.137,736.317 727.586,757.135 z" id="boundary" inkscape:connector-curvature="0" />
	<path style="fill:none;stroke:red;stroke-width:1px;stroke-linecap:butt;stroke-linejoin:miter;stroke-opacity:1" d="M 727.586,757.135 699.568,773.984 z" id="boundary" inkscape:connector-curvature="0" />
	<path style="fill:none;stroke:red;stroke-width:1px;stroke-linecap:butt;stroke-linejoin:miter;stroke-opacity:1" d="M 758.215,713.233 744.137,736.317 z" id="boundary" inkscape:connector-curvature="0" />
	<path style="fill:none;stroke:red;stroke-width:1px;stroke-linecap:butt;stroke-linejoin:miter;stroke-opacity:1" d="M 653.952,818.997 626.667,824.536 z" id="boundary" inkscape:connector-curvature="0" />
	<path style="fill:none;stroke:red;stroke-width:1px;stroke-linecap:butt;stroke-linejoin:miter;stroke-opacity:1" d="M 787.866,469.573 796.707,488.092 z" id="boundary" inkscape:connector-curvature="0" />
	<path style="fill:none;stroke:red;stroke-width:1px;stroke-linecap:butt;stroke-linejoin:miter;stroke-opacity:1" d="M 796.707,488.092 801.29,519.179 z" id="boundary" inkscape:connector-curvature="0" />
	<path style="fill:none;stroke:red;stroke-width:1px;stroke-linecap:butt;stroke-linejoin:miter;stroke-opacity:1" d="M 799.444,553.66 801.29,519.179 z" id="boundary" inkscape:connector-curvature="0" />
	<path style="fill:none;stroke:red;stroke-width:1px;stroke-linecap:butt;stroke-linejoin:miter;stroke-opacity:1" d="M 796.96,583.696 799.444,553.66 z" id="boundary" inkscape:connector-curvature="0" />
	<path style="fill:none;stroke:red;stroke-width:1px;stroke-linecap:butt;stroke-linejoin:miter;stroke-opacity:1" d="M 767.095,689.403 785.806,661.484 z" id="boundary" inkscape:connector-curvature="0" />
	<path style="fill:none;stroke:red;stroke-width:1px;stroke-linecap:butt;stroke-linejoin:miter;stroke-opacity:1" d="M 791.128,638.114 785.806,661.484 z" id="boundary" inkscape:connector-curvature="0" />
	<path style="fill:none;stroke:red;stroke-width:1px;stroke-linecap:butt;stroke-linejoin:miter;stroke-opacity:1" d="M 791.128,638.114 795.042,610.196 z" id="boundary" inkscape:connector-curvature="0" />
	<path style="fill:none;stroke:red;stroke-width:1px;stroke-linecap:butt;stroke-linejoin:miter;stroke-opacity:1" d="M 795.042,610.196 796.96,583.696 z" id="boundary" inkscape:connector-curvature="0" />
	<path style="fill:none;stroke:red;stroke-width:1px;stroke-linecap:butt;stroke-linejoin:miter;stroke-opacity:1" d="M 538.73,848.077 573.816,844.685 z" id="boundary" inkscape:connector-curvature="0" />
	<path style="fill:none;stroke:red;stroke-width:1px;stroke-linecap:butt;stroke-linejoin:miter;stroke-opacity:1" d="M 602.747,833.316 573.816,844.685 z" id="boundary" inkscape:connector-curvature="0" />
	<path style="fill:none;stroke:red;stroke-width:1px;stroke-linecap:butt;stroke-linejoin:miter;stroke-opacity:1" d="M 538.73,848.077 517.973,849.473 z" id="boundary" inkscape:connector-curvature="0" />
	<path style="fill:none;stroke:red;stroke-width:1px;stroke-linecap:butt;stroke-linejoin:miter;stroke-opacity:1" d="M 602.747,833.316 626.667,824.536 z" id="boundary" inkscape:connector-curvature="0" />
	<path style="fill:none;stroke:red;stroke-width:1px;stroke-linecap:butt;stroke-linejoin:miter;stroke-opacity:1" d="M 619.002,961.74 660.688,964.769 z" id="boundary" inkscape:connector-curvature="0" />
	<path style="fill:none;stroke:red;stroke-width:1px;stroke-linecap:butt;stroke-linejoin:miter;stroke-opacity:1" d="M 575.878,962.529 532.218,967.486 z" id="boundary" inkscape:connector-curvature="0" />
	<path style="fill:none;stroke:red;stroke-width:1px;stroke-linecap:butt;stroke-linejoin:miter;stroke-opacity:1" d="M 619.002,961.74 575.878,962.529 z" id="boundary" inkscape:connector-curvature="0" />
	<path style="fill:none;stroke:red;stroke-width:1px;stroke-linecap:butt;stroke-linejoin:miter;stroke-opacity:1" d="M 696.16,962.619 660.688,964.769 z" id="boundary" inkscape:connector-curvature="0" />
	<path style="fill:none;stroke:red;stroke-width:1px;stroke-linecap:butt;stroke-linejoin:miter;stroke-opacity:1" d="M 925.24,892.91 924.046,921.34 z" id="boundary" inkscape:connector-curvature="0" />
	<path style="fill:none;stroke:red;stroke-width:1px;stroke-linecap:butt;stroke-linejoin:miter;stroke-opacity:1" d="M 868.204,967.022 836.88,963.212 z" id="boundary" inkscape:connector-curvature="0" />
	<path style="fill:none;stroke:red;stroke-width:1px;stroke-linecap:butt;stroke-linejoin:miter;stroke-opacity:1" d="M 925.24,892.91 928.134,867.234 z" id="boundary" inkscape:connector-curvature="0" />
	<path style="fill:none;stroke:red;stroke-width:1px;stroke-linecap:butt;stroke-linejoin:miter;stroke-opacity:1" d="M 924.046,921.34 915.432,946.566 z" id="boundary" inkscape:connector-curvature="0" />
	<path style="fill:none;stroke:red;stroke-width:1px;stroke-linecap:butt;stroke-linejoin:miter;stroke-opacity:1" d="M 734.225,972.623 767.591,968.297 z" id="boundary" inkscape:connector-curvature="0" />
	<path style="fill:none;stroke:red;stroke-width:1px;stroke-linecap:butt;stroke-linejoin:miter;stroke-opacity:1" d="M 767.591,968.297 802.071,971.419 z" id="boundary" inkscape:connector-curvature="0" />
	<path style="fill:none;stroke:red;stroke-width:1px;stroke-linecap:butt;stroke-linejoin:miter;stroke-opacity:1" d="M 734.225,972.623 696.16,962.619 z" id="boundary" inkscape:connector-curvature="0" />
	<path style="fill:none;stroke:red;stroke-width:1px;stroke-linecap:butt;stroke-linejoin:miter;stroke-opacity:1" d="M 868.204,967.022 900.509,966.201 z" id="boundary" inkscape:connector-curvature="0" />
	<path style="fill:none;stroke:red;stroke-width:1px;stroke-linecap:butt;stroke-linejoin:miter;stroke-opacity:1" d="M 836.88,963.212 802.071,971.419 z" id="boundary" inkscape:connector-curvature="0" />
	<path style="fill:none;stroke:red;stroke-width:1px;stroke-linecap:butt;stroke-linejoin:miter;stroke-opacity:1" d="M 915.432,946.566 900.509,966.201 z" id="boundary" inkscape:connector-curvature="0" />
	<path style="fill:none;stroke:red;stroke-width:1px;stroke-linecap:butt;stroke-linejoin:miter;stroke-opacity:1" d="M 926.481,782.59 927.666,808.965 z" id="boundary" inkscape:connector-curvature="0" />
	<path style="fill:none;stroke:red;stroke-width:1px;stroke-linecap:butt;stroke-linejoin:miter;stroke-opacity:1" d="M 933.995,456.115 935.71,427.549 z" id="boundary" inkscape:connector-curvature="0" />
	<path style="fill:none;stroke:red;stroke-width:1px;stroke-linecap:butt;stroke-linejoin:miter;stroke-opacity:1" d="M 935.71,427.549 940.336,412.02 z" id="boundary" inkscape:connector-curvature="0" />
	<path style="fill:none;stroke:red;stroke-width:1px;stroke-linecap:butt;stroke-linejoin:miter;stroke-opacity:1" d="M 971.602,412.649 969.708,436.365 z" id="boundary" inkscape:connector-curvature="0" />
	<path style="fill:none;stroke:red;stroke-width:1px;stroke-linecap:butt;stroke-linejoin:miter;stroke-opacity:1" d="M 971.847,449.753 969.237,467.322 z" id="boundary" inkscape:connector-curvature="0" />
	<path style="fill:none;stroke:red;stroke-width:1px;stroke-linecap:butt;stroke-linejoin:miter;stroke-opacity:1" d="M 934.56,473.548 938.665,494.459 z" id="boundary" inkscape:connector-curvature="0" />
	<path style="fill:none;stroke:red;stroke-width:1px;stroke-linecap:butt;stroke-linejoin:miter;stroke-opacity:1" d="M 938.665,494.459 933.6,522.158 z" id="boundary" inkscape:connector-curvature="0" />
	<path style="fill:none;stroke:red;stroke-width:1px;stroke-linecap:butt;stroke-linejoin:miter;stroke-opacity:1" d="M 969.504,480.605 963.801,501.451 z" id="boundary" inkscape:connector-curvature="0" />
	<path style="fill:none;stroke:red;stroke-width:1px;stroke-linecap:butt;stroke-linejoin:miter;stroke-opacity:1" d="M 963.801,501.451 938.665,494.459 z" id="boundary" inkscape:connector-curvature="0" />
	<path style="fill:none;stroke:red;stroke-width:1px;stroke-linecap:butt;stroke-linejoin:miter;stroke-opacity:1" d="M 969.237,467.322 969.504,480.605 z" id="boundary" inkscape:connector-curvature="0" />
	<path style="fill:none;stroke:red;stroke-width:1px;stroke-linecap:butt;stroke-linejoin:miter;stroke-opacity:1" d="M 934.56,473.548 933.995,456.115 z" id="boundary" inkscape:connector-curvature="0" />
	<path style="fill:none;stroke:red;stroke-width:1px;stroke-linecap:butt;stroke-linejoin:miter;stroke-opacity:1" d="M 969.708,436.365 971.847,449.753 z" id="boundary" inkscape:connector-curvature="0" />
	<path style="fill:none;stroke:red;stroke-width:1px;stroke-linecap:butt;stroke-linejoin:miter;stroke-opacity:1" d="M 971.602,412.649 974.252,401.078 z" id="boundary" inkscape:connector-curvature="0" />
	<path style="fill:none;stroke:red;stroke-width:1px;stroke-linecap:butt;stroke-linejoin:miter;stroke-opacity:1" d="M 974.252,401.078 990.588,401.786 z" id="boundary" inkscape:connector-curvature="0" />
	<path style="fill:none;stroke:red;stroke-width:1px;stroke-linecap:butt;stroke-linejoin:miter;stroke-opacity:1" d="M 993.484,423.42 990.588,401.786 z" id="boundary" inkscape:connector-curvature="0" />
	<path style="fill:none;stroke:red;stroke-width:1px;stroke-linecap:butt;stroke-linejoin:miter;stroke-opacity:1" d="M 990.588,401.786 990.931,388.158 z" id="boundary" inkscape:connector-curvature="0" />
	<path style="fill:none;stroke:red;stroke-width:1px;stroke-linecap:butt;stroke-linejoin:miter;stroke-opacity:1" d="M 996,441.047 993.484,423.42 z" id="boundary" inkscape:connector-curvature="0" />
	<path style="fill:none;stroke:red;stroke-width:1px;stroke-linecap:butt;stroke-linejoin:miter;stroke-opacity:1" d="M 990.216,455.488 994.457,472.962 z" id="boundary" inkscape:connector-curvature="0" />
	<path style="fill:none;stroke:red;stroke-width:1px;stroke-linecap:butt;stroke-linejoin:miter;stroke-opacity:1" d="M 990.216,455.488 971.847,449.753 z" id="boundary" inkscape:connector-curvature="0" />
	<path style="fill:none;stroke:red;stroke-width:1px;stroke-linecap:butt;stroke-linejoin:miter;stroke-opacity:1" d="M 996,441.047 990.216,455.488 z" id="boundary" inkscape:connector-curvature="0" />
	<path style="fill:none;stroke:red;stroke-width:1px;stroke-linecap:butt;stroke-linejoin:miter;stroke-opacity:1" d="M 995.484,486.727 994.745,510.025 z" id="boundary" inkscape:connector-curvature="0" />
	<path style="fill:none;stroke:red;stroke-width:1px;stroke-linecap:butt;stroke-linejoin:miter;stroke-opacity:1" d="M 995.484,486.727 994.457,472.962 z" id="boundary" inkscape:connector-curvature="0" />
	<path style="fill:none;stroke:red;stroke-width:1px;stroke-linecap:butt;stroke-linejoin:miter;stroke-opacity:1" d="M 994.745,510.025 985.797,521.394 z" id="boundary" inkscape:connector-curvature="0" />
	<path style="fill:none;stroke:red;stroke-width:1px;stroke-linecap:butt;stroke-linejoin:miter;stroke-opacity:1" d="M 931.423,688.426 934.832,721.274 z" id="boundary" inkscape:connector-curvature="0" />
	<path style="fill:none;stroke:red;stroke-width:1px;stroke-linecap:butt;stroke-linejoin:miter;stroke-opacity:1" d="M 935.631,564.491 933.687,582.7 z" id="boundary" inkscape:connector-curvature="0" />
	<path style="fill:none;stroke:red;stroke-width:1px;stroke-linecap:butt;stroke-linejoin:miter;stroke-opacity:1" d="M 938.168,556.78 935.631,564.491 z" id="boundary" inkscape:connector-curvature="0" />
	<path style="fill:none;stroke:red;stroke-width:1px;stroke-linecap:butt;stroke-linejoin:miter;stroke-opacity:1" d="M 931.423,688.426 930.881,662.743 z" id="boundary" inkscape:connector-curvature="0" />
	<path style="fill:none;stroke:red;stroke-width:1px;stroke-linecap:butt;stroke-linejoin:miter;stroke-opacity:1" d="M 930.881,662.743 939.312,635.206 z" id="boundary" inkscape:connector-curvature="0" />
	<path style="fill:none;stroke:red;stroke-width:1px;stroke-linecap:butt;stroke-linejoin:miter;stroke-opacity:1" d="M 933.687,582.7 935.979,609.661 z" id="boundary" inkscape:connector-curvature="0" />
	<path style="fill:none;stroke:red;stroke-width:1px;stroke-linecap:butt;stroke-linejoin:miter;stroke-opacity:1" d="M 927.666,808.965 931.221,841.049 z" id="boundary" inkscape:connector-curvature="0" />
	<path style="fill:none;stroke:red;stroke-width:1px;stroke-linecap:butt;stroke-linejoin:miter;stroke-opacity:1" d="M 931.221,841.049 928.134,867.234 z" id="boundary" inkscape:connector-curvature="0" />
	<path style="fill:none;stroke:red;stroke-width:1px;stroke-linecap:butt;stroke-linejoin:miter;stroke-opacity:1" d="M 929.898,750.938 934.832,721.274 z" id="boundary" inkscape:connector-curvature="0" />
	<path style="fill:none;stroke:red;stroke-width:1px;stroke-linecap:butt;stroke-linejoin:miter;stroke-opacity:1" d="M 963.451,558.672 951.034,552.235 z" id="boundary" inkscape:connector-curvature="0" />
	<path style="fill:none;stroke:red;stroke-width:1px;stroke-linecap:butt;stroke-linejoin:miter;stroke-opacity:1" d="M 951.034,552.235 953.708,529.393 z" id="boundary" inkscape:connector-curvature="0" />
	<path style="fill:none;stroke:red;stroke-width:1px;stroke-linecap:butt;stroke-linejoin:miter;stroke-opacity:1" d="M 951.034,552.235 938.168,556.78 z" id="boundary" inkscape:connector-curvature="0" />
	<path style="fill:none;stroke:red;stroke-width:1px;stroke-linecap:butt;stroke-linejoin:miter;stroke-opacity:1" d="M 969.607,524.735 985.797,521.394 z" id="boundary" inkscape:connector-curvature="0" />
	<path style="fill:none;stroke:red;stroke-width:1px;stroke-linecap:butt;stroke-linejoin:miter;stroke-opacity:1" d="M 985.797,521.394 987.048,538.952 z" id="boundary" inkscape:connector-curvature="0" />
	<path style="fill:none;stroke:red;stroke-width:1px;stroke-linecap:butt;stroke-linejoin:miter;stroke-opacity:1" d="M 963.801,501.451 969.607,524.735 z" id="boundary" inkscape:connector-curvature="0" />
	<path style="fill:none;stroke:red;stroke-width:1px;stroke-linecap:butt;stroke-linejoin:miter;stroke-opacity:1" d="M 969.607,524.735 953.708,529.393 z" id="boundary" inkscape:connector-curvature="0" />
	<path style="fill:none;stroke:red;stroke-width:1px;stroke-linecap:butt;stroke-linejoin:miter;stroke-opacity:1" d="M 953.708,529.393 933.6,522.158 z" id="boundary" inkscape:connector-curvature="0" />
	<path style="fill:none;stroke:red;stroke-width:1px;stroke-linecap:butt;stroke-linejoin:miter;stroke-opacity:1" d="M 987.048,538.952 978.596,555.901 z" id="boundary" inkscape:connector-curvature="0" />
	<path style="fill:none;stroke:red;stroke-width:1px;stroke-linecap:butt;stroke-linejoin:miter;stroke-opacity:1" d="M 939.312,635.206 935.979,609.661 z" id="boundary" inkscape:connector-curvature="0" />
	<path style="fill:none;stroke:red;stroke-width:1px;stroke-linecap:butt;stroke-linejoin:miter;stroke-opacity:1" d="M 963.451,558.672 978.596,555.901 z" id="boundary" inkscape:connector-curvature="0" />
	<circle cx="227.832" cy="434.253" r="4" fill="#0" id="circle0"/>
	<circle cx="242.622" cy="401.082" r="4" fill="#0" id="circle1"/>
	<circle cx="259.456" cy="377.417" r="4" fill="#0" id="circle2"/>
	<circle cx="283.315" cy="350.026" r="4" fill="#0" id="circle3"/>
	<circle cx="304.073" cy="324.356" r="4" fill="#0" id="circle4"/>
	<circle cx="329.864" cy="305.839" r="4" fill="#0" id="circle5"/>
	<circle cx="357.045" cy="290.091" r="4" fill="#0" id="circle6"/>
	<circle cx="384.401" cy="273.634" r="4" fill="#0" id="circle7"/>
	<circle cx="416.848" cy="265.734" r="4" fill="#0" id="circle8"/>
	<circle cx="445.991" cy="261.874" r="4" fill="#0" id="circle9"/>
	<circle cx="223.909" cy="462.948" r="4" fill="#0" id="circle10"/>
	<circle cx="208.591" cy="490.52" r="4" fill="#0" id="circle11"/>
	<circle cx="201.271" cy="526.07" r="4" fill="#0" id="circle12"/>
	<circle cx="201.494" cy="558.316" r="4" fill="#0" id="circle13"/>
	<circle cx="194.304" cy="589.625" r="4" fill="#0" id="circle14"/>
	<circle cx="205.483" cy="616.704" r="4" fill="#0" id="circle15"/>
	<circle cx="211.817" cy="651.025" r="4" fill="#0" id="circle16"/>
	<circle cx="227.122" cy="676.58" r="4" fill="#0" id="circle17"/>
	<circle cx="240.245" cy="697.926" r="4" fill="#0" id="circle18"/>
	<circle cx="256.225" cy="718.682" r="4" fill="#0" id="circle19"/>
	<circle cx="272.185" cy="743.75" r="4" fill="#0" id="circle20"/>
	<circle cx="292.322" cy="758.255" r="4" fill="#0" id="circle21"/>
	<circle cx="311.186" cy="781.805" r="4" fill="#0" id="circle22"/>
	<circle cx="327.132" cy="792.629" r="4" fill="#0" id="circle23"/>
	<circle cx="354.713" cy="806.696" r="4" fill="#0" id="circle24"/>
	<circle cx="378.381" cy="829.348" r="4" fill="#0" id="circle25"/>
	<circle cx="406.198" cy="836.505" r="4" fill="#0" id="circle26"/>
	<circle cx="430.253" cy="846.264" r="4" fill="#0" id="circle27"/>
	<circle cx="469.301" cy="854.95" r="4" fill="#0" id="circle28"/>
	<circle cx="495.875" cy="856.98" r="4" fill="#0" id="circle29"/>
	<circle cx="517.973" cy="849.473" r="4" fill="#0" id="circle30"/>
	<circle cx="538.73" cy="848.077" r="4" fill="#0" id="circle31"/>
	<circle cx="573.816" cy="844.685" r="4" fill="#0" id="circle32"/>
	<circle cx="602.747" cy="833.316" r="4" fill="#0" id="circle33"/>
	<circle cx="626.667" cy="824.536" r="4" fill="#0" id="circle34"/>
	<circle cx="653.952" cy="818.997" r="4" fill="#0" id="circle35"/>
	<circle cx="682.171" cy="790.137" r="4" fill="#0" id="circle36"/>
	<circle cx="699.568" cy="773.984" r="4" fill="#0" id="circle37"/>
	<circle cx="727.586" cy="757.135" r="4" fill="#0" id="circle38"/>
	<circle cx="469.311" cy="254.421" r="4" fill="#0" id="circle39"/>
	<circle cx="503.516" cy="253.591" r="4" fill="#0" id="circle40"/>
	<circle cx="535.394" cy="250.07" r="4" fill="#0" id="circle41"/>
	<circle cx="559.618" cy="259.39" r="4" fill="#0" id="circle42"/>
	<circle cx="594.411" cy="264.278" r="4" fill="#0" id="circle43"/>
	<circle cx="620.85" cy="279.112" r="4" fill="#0" id="circle44"/>
	<circle cx="640.892" cy="287.082" r="4" fill="#0" id="circle45"/>
	<circle cx="664.843" cy="299.166" r="4" fill="#0" id="circle46"/>
	<circle cx="682.155" cy="309.364" r="4" fill="#0" id="circle47"/>
	<circle cx="712.324" cy="336.517" r="4" fill="#0" id="circle48"/>
	<circle cx="692.063" cy="319.017" r="4" fill="#0" id="circle49"/>
	<circle cx="728.333" cy="354.596" r="4" fill="#0" id="circle50"/>
	<circle cx="735.202" cy="367.86" r="4" fill="#0" id="circle51"/>
	<circle cx="753.772" cy="388.467" r="4" fill="#0" id="circle52"/>
	<circle cx="764.009" cy="417.238" r="4" fill="#0" id="circle53"/>
	<circle cx="777.311" cy="438.769" r="4" fill="#0" id="circle54"/>
	<circle cx="787.866" cy="469.573" r="4" fill="#0" id="circle55"/>
	<circle cx="744.137" cy="736.317" r="4" fill="#0" id="circle56"/>
	<circle cx="758.215" cy="713.233" r="4" fill="#0" id="circle57"/>
	<circle cx="767.095" cy="689.403" r="4" fill="#0" id="circle58"/>
	<circle cx="785.806" cy="661.484" r="4" fill="#0" id="circle59"/>
	<circle cx="791.128" cy="638.114" r="4" fill="#0" id="circle60"/>
	<circle cx="795.042" cy="610.196" r="4" fill="#0" id="circle61"/>
	<circle cx="796.96" cy="583.696" r="4" fill="#0" id="circle62"/>
	<circle cx="799.444" cy="553.66" r="4" fill="#0" id="circle63"/>
	<circle cx="801.29" cy="519.179" r="4" fill="#0" id="circle64"/>
	<circle cx="796.707" cy="488.092" r="4" fill="#0" id="circle65"/>
	<circle cx="133.303" cy="170.615" r="4" fill="#0" id="circle66"/>
	<circle cx="135.684" cy="189.25" r="4" fill="#0" id="circle67"/>
	<circle cx="156.19" cy="151.755" r="4" fill="#0" id="circle68"/>
	<circle cx="178.54" cy="141.417" r="4" fill="#0" id="circle69"/>
	<circle cx="201.951" cy="125.403" r="4" fill="#0" id="circle70"/>
	<circle cx="225.996" cy="119.403" r="4" fill="#0" id="circle71"/>
	<circle cx="254.801" cy="110.993" r="4" fill="#0" id="circle72"/>
	<circle cx="256.818" cy="129.588" r="4" fill="#0" id="circle73"/>
	<circle cx="257.987" cy="152.703" r="4" fill="#0" id="circle74"/>
	<circle cx="258.128" cy="175.897" r="4" fill="#0" id="circle75"/>
	<circle cx="266.224" cy="210.894" r="4" fill="#0" id="circle76"/>
	<circle cx="259.115" cy="243.578" r="4" fill="#0" id="circle77"/>
	<circle cx="264.033" cy="274.747" r="4" fill="#0" id="circle78"/>
	<circle cx="260.794" cy="297.102" r="4" fill="#0" id="circle79"/>
	<circle cx="256.289" cy="322.688" r="4" fill="#0" id="circle80"/>
	<circle cx="136.515" cy="215.477" r="4" fill="#0" id="circle81"/>
	<circle cx="126.286" cy="242.535" r="4" fill="#0" id="circle82"/>
	<circle cx="127.196" cy="263.471" r="4" fill="#0" id="circle83"/>
	<circle cx="126.304" cy="286.731" r="4" fill="#0" id="circle84"/>
	<circle cx="127.357" cy="316.409" r="4" fill="#0" id="circle85"/>
	<circle cx="134.524" cy="333.234" r="4" fill="#0" id="circle86"/>
	<circle cx="129.645" cy="364.434" r="4" fill="#0" id="circle87"/>
	<circle cx="133.209" cy="385.356" r="4" fill="#0" id="circle88"/>
	<circle cx="149.675" cy="374.656" r="4" fill="#0" id="circle89"/>
	<circle cx="172.155" cy="368.515" r="4" fill="#0" id="circle90"/>
	<circle cx="191.809" cy="362.182" r="4" fill="#0" id="circle91"/>
	<circle cx="208.813" cy="357.943" r="4" fill="#0" id="circle92"/>
	<circle cx="228.005" cy="340.571" r="4" fill="#0" id="circle93"/>
	<circle cx="248.969" cy="335.049" r="4" fill="#0" id="circle94"/>
	<circle cx="750.221" cy="108.106" r="4" fill="#0" id="circle95"/>
	<circle cx="748.808" cy="139.992" r="4" fill="#0" id="circle96"/>
	<circle cx="754.701" cy="161.678" r="4" fill="#0" id="circle97"/>
	<circle cx="750.488" cy="182.879" r="4" fill="#0" id="circle98"/>
	<circle cx="747.77" cy="207.522" r="4" fill="#0" id="circle99"/>
	<circle cx="746.892" cy="226.141" r="4" fill="#0" id="circle100"/>
	<circle cx="745.135" cy="246.827" r="4" fill="#0" id="circle101"/>
	<circle cx="747.091" cy="272.327" r="4" fill="#0" id="circle102"/>
	<circle cx="753.638" cy="289.858" r="4" fill="#0" id="circle103"/>
	<circle cx="747.641" cy="316.37" r="4" fill="#0" id="circle104"/>
	<circle cx="747.233" cy="338.818" r="4" fill="#0" id="circle105"/>
	<circle cx="764.105" cy="344.94" r="4" fill="#0" id="circle106"/>
	<circle cx="783.8" cy="356.146" r="4" fill="#0" id="circle107"/>
	<circle cx="809.545" cy="368.784" r="4" fill="#0" id="circle108"/>
	<circle cx="828.355" cy="373.814" r="4" fill="#0" id="circle109"/>
	<circle cx="852.175" cy="387.982" r="4" fill="#0" id="circle110"/>
	<circle cx="874.857" cy="403.23" r="4" fill="#0" id="circle111"/>
	<circle cx="886.31" cy="180.051" r="4" fill="#0" id="circle112"/>
	<circle cx="877.904" cy="211.073" r="4" fill="#0" id="circle113"/>
	<circle cx="877.567" cy="229.779" r="4" fill="#0" id="circle114"/>
	<circle cx="876.042" cy="248.847" r="4" fill="#0" id="circle115"/>
	<circle cx="881.071" cy="267.042" r="4" fill="#0" id="circle116"/>
	<circle cx="880.259" cy="294.311" r="4" fill="#0" id="circle117"/>
	<circle cx="881" cy="312.056" r="4" fill="#0" id="circle118"/>
	<circle cx="876.961" cy="334.163" r="4" fill="#0" id="circle119"/>
	<circle cx="875.88" cy="352.386" r="4" fill="#0" id="circle120"/>
	<circle cx="877.481" cy="375.335" r="4" fill="#0" id="circle121"/>
	<circle cx="771.773" cy="122.207" r="4" fill="#0" id="circle122"/>
	<circle cx="786.838" cy="132.925" r="4" fill="#0" id="circle123"/>
	<circle cx="808.84" cy="137.051" r="4" fill="#0" id="circle124"/>
	<circle cx="830.553" cy="149.465" r="4" fill="#0" id="circle125"/>
	<circle cx="863.085" cy="168.723" r="4" fill="#0" id="circle126"/>
	<circle cx="65.0896" cy="376.249" r="4" fill="#0" id="circle127"/>
	<circle cx="47.3795" cy="378.721" r="4" fill="#0" id="circle128"/>
	<circle cx="40.1403" cy="394.082" r="4" fill="#0" id="circle129"/>
	<circle cx="33.8749" cy="407.988" r="4" fill="#0" id="circle130"/>
	<circle cx="36.09" cy="435.387" r="4" fill="#0" id="circle131"/>
	<circle cx="37.0883" cy="454.687" r="4" fill="#0" id="circle132"/>
	<circle cx="38.1447" cy="462.472" r="4" fill="#0" id="circle133"/>
	<circle cx="32.2376" cy="484.465" r="4" fill="#0" id="circle134"/>
	<circle cx="36.9927" cy="501.34" r="4" fill="#0" id="circle135"/>
	<circle cx="43.8811" cy="512.549" r="4" fill="#0" id="circle136"/>
	<circle cx="57.4555" cy="517.453" r="4" fill="#0" id="circle137"/>
	<circle cx="66.0973" cy="388.597" r="4" fill="#0" id="circle138"/>
	<circle cx="69.7876" cy="407.31" r="4" fill="#0" id="circle139"/>
	<circle cx="64.3718" cy="427.94" r="4" fill="#0" id="circle140"/>
	<circle cx="63.284" cy="438.352" r="4" fill="#0" id="circle141"/>
	<circle cx="68.5713" cy="461.347" r="4" fill="#0" id="circle142"/>
	<circle cx="62.1983" cy="470.48" r="4" fill="#0" id="circle143"/>
	<circle cx="61.4149" cy="489.003" r="4" fill="#0" id="circle144"/>
	<circle cx="942.509" cy="390.082" r="4" fill="#0" id="circle145"/>
	<circle cx="940.336" cy="412.02" r="4" fill="#0" id="circle146"/>
	<circle cx="935.71" cy="427.549" r="4" fill="#0" id="circle147"/>
	<circle cx="933.995" cy="456.115" r="4" fill="#0" id="circle148"/>
	<circle cx="934.56" cy="473.548" r="4" fill="#0" id="circle149"/>
	<circle cx="938.665" cy="494.459" r="4" fill="#0" id="circle150"/>
	<circle cx="933.6" cy="522.158" r="4" fill="#0" id="circle151"/>
	<circle cx="953.708" cy="529.393" r="4" fill="#0" id="circle152"/>
	<circle cx="969.607" cy="524.735" r="4" fill="#0" id="circle153"/>
	<circle cx="963.801" cy="501.451" r="4" fill="#0" id="circle154"/>
	<circle cx="969.504" cy="480.605" r="4" fill="#0" id="circle155"/>
	<circle cx="969.237" cy="467.322" r="4" fill="#0" id="circle156"/>
	<circle cx="971.847" cy="449.753" r="4" fill="#0" id="circle157"/>
	<circle cx="969.708" cy="436.365" r="4" fill="#0" id="circle158"/>
	<circle cx="952.84" cy="386.909" r="4" fill="#0" id="circle159"/>
	<circle cx="961.634" cy="387.377" r="4" fill="#0" id="circle160"/>
	<circle cx="974.252" cy="401.078" r="4" fill="#0" id="circle161"/>
	<circle cx="971.602" cy="412.649" r="4" fill="#0" id="circle162"/>
	<circle cx="61.8258" cy="149.371" r="4" fill="#0" id="circle163"/>
	<circle cx="78.1797" cy="135.099" r="4" fill="#0" id="circle164"/>
	<circle cx="90.0555" cy="120.958" r="4" fill="#0" id="circle165"/>
	<circle cx="115.704" cy="108.598" r="4" fill="#0" id="circle166"/>
	<circle cx="143.579" cy="95.8905" r="4" fill="#0" id="circle167"/>
	<circle cx="165.897" cy="82.4733" r="4" fill="#0" id="circle168"/>
	<circle cx="193.951" cy="71.4637" r="4" fill="#0" id="circle169"/>
	<circle cx="231.145" cy="57.4944" r="4" fill="#0" id="circle170"/>
	<circle cx="263.719" cy="40.8093" r="4" fill="#0" id="circle171"/>
	<circle cx="293.818" cy="36.6196" r="4" fill="#0" id="circle172"/>
	<circle cx="331.072" cy="26.3187" r="4" fill="#0" id="circle173"/>
	<circle cx="367.266" cy="13.3768" r="4" fill="#0" id="circle174"/>
	<circle cx="410.12" cy="14.1385" r="4" fill="#0" id="circle175"/>
	<circle cx="448.872" cy="7.64667" r="4" fill="#0" id="circle176"/>
	<circle cx="480.118" cy="10.2608" r="4" fill="#0" id="circle177"/>
	<circle cx="506.674" cy="4" r="4" fill="#0" id="circle178"/>
	<circle cx="544.297" cy="7.4562" r="4" fill="#0" id="circle179"/>
	<circle cx="579.762" cy="12.8088" r="4" fill="#0" id="circle180"/>
	<circle cx="621.655" cy="20.2309" r="4" fill="#0" id="circle181"/>
	<circle cx="663.487" cy="26.7622" r="4" fill="#0" id="circle182"/>
	<circle cx="689.303" cy="31.3349" r="4" fill="#0" id="circle183"/>
	<circle cx="721.791" cy="40.9788" r="4" fill="#0" id="circle184"/>
	<circle cx="747.569" cy="54.5826" r="4" fill="#0" id="circle185"/>
	<circle cx="786.197" cy="66.4017" r="4" fill="#0" id="circle186"/>
	<circle cx="812.944" cy="74.3585" r="4" fill="#0" id="circle187"/>
	<circle cx="842.05" cy="90.554" r="4" fill="#0" id="circle188"/>
	<circle cx="861.183" cy="102.242" r="4" fill="#0" id="circle189"/>
	<circle cx="895.378" cy="118.809" r="4" fill="#0" id="circle190"/>
	<circle cx="910.295" cy="132.179" r="4" fill="#0" id="circle191"/>
	<circle cx="936.994" cy="148.433" r="4" fill="#0" id="circle192"/>
	<circle cx="953.058" cy="164.701" r="4" fill="#0" id="circle193"/>
	<circle cx="959.391" cy="183.787" r="4" fill="#0" id="circle194"/>
	<circle cx="943.401" cy="185.098" r="4" fill="#0" id="circle195"/>
	<circle cx="939.204" cy="206.148" r="4" fill="#0" id="circle196"/>
	<circle cx="57.7706" cy="176.967" r="4" fill="#0" id="circle197"/>
	<circle cx="68.7282" cy="178.109" r="4" fill="#0" id="circle198"/>
	<circle cx="64.4033" cy="201.191" r="4" fill="#0" id="circle199"/>
	<circle cx="71.5291" cy="217.871" r="4" fill="#0" id="circle200"/>
	<circle cx="67.728" cy="242.228" r="4" fill="#0" id="circle201"/>
	<circle cx="65.2059" cy="263.901" r="4" fill="#0" id="circle202"/>
	<circle cx="67.6111" cy="277.441" r="4" fill="#0" id="circle203"/>
	<circle cx="66.1858" cy="302.478" r="4" fill="#0" id="circle204"/>
	<circle cx="67.4708" cy="315.044" r="4" fill="#0" id="circle205"/>
	<circle cx="65.0084" cy="338.325" r="4" fill="#0" id="circle206"/>
	<circle cx="943.964" cy="225.43" r="4" fill="#0" id="circle207"/>
	<circle cx="945.317" cy="261.305" r="4" fill="#0" id="circle208"/>
	<circle cx="933.484" cy="285.775" r="4" fill="#0" id="circle209"/>
	<circle cx="939.526" cy="309.176" r="4" fill="#0" id="circle210"/>
	<circle cx="936.672" cy="331.305" r="4" fill="#0" id="circle211"/>
	<circle cx="940.556" cy="346.73" r="4" fill="#0" id="circle212"/>
	<circle cx="50.5765" cy="344.867" r="4" fill="#0" id="circle213"/>
	<circle cx="34.8471" cy="353.694" r="4" fill="#0" id="circle214"/>
	<circle cx="26.2383" cy="357.102" r="4" fill="#0" id="circle215"/>
	<circle cx="16.0312" cy="368.555" r="4" fill="#0" id="circle216"/>
	<circle cx="9.11493" cy="384.381" r="4" fill="#0" id="circle217"/>
	<circle cx="10.026" cy="395.461" r="4" fill="#0" id="circle218"/>
	<circle cx="10.7563" cy="408.072" r="4" fill="#0" id="circle219"/>
	<circle cx="4" cy="422.018" r="4" fill="#0" id="circle220"/>
	<circle cx="8.81353" cy="440.162" r="4" fill="#0" id="circle221"/>
	<circle cx="7.85973" cy="454.208" r="4" fill="#0" id="circle222"/>
	<circle cx="8.56005" cy="468.925" r="4" fill="#0" id="circle223"/>
	<circle cx="6.06316" cy="481.575" r="4" fill="#0" id="circle224"/>
	<circle cx="5.87661" cy="501.824" r="4" fill="#0" id="circle225"/>
	<circle cx="7.32572" cy="509.522" r="4" fill="#0" id="circle226"/>
	<circle cx="9.13766" cy="523.287" r="4" fill="#0" id="circle227"/>
	<circle cx="23.8273" cy="534.751" r="4" fill="#0" id="circle228"/>
	<circle cx="33.3445" cy="534.905" r="4" fill="#0" id="circle229"/>
	<circle cx="45.3633" cy="538.199" r="4" fill="#0" id="circle230"/>
	<circle cx="57.1967" cy="542.318" r="4" fill="#0" id="circle231"/>
	<circle cx="938.168" cy="556.78" r="4" fill="#0" id="circle232"/>
	<circle cx="951.034" cy="552.235" r="4" fill="#0" id="circle233"/>
	<circle cx="963.451" cy="558.672" r="4" fill="#0" id="circle234"/>
	<circle cx="978.596" cy="555.901" r="4" fill="#0" id="circle235"/>
	<circle cx="987.048" cy="538.952" r="4" fill="#0" id="circle236"/>
	<circle cx="985.797" cy="521.394" r="4" fill="#0" id="circle237"/>
	<circle cx="994.745" cy="510.025" r="4" fill="#0" id="circle238"/>
	<circle cx="995.484" cy="486.727" r="4" fill="#0" id="circle239"/>
	<circle cx="994.457" cy="472.962" r="4" fill="#0" id="circle240"/>
	<circle cx="990.216" cy="455.488" r="4" fill="#0" id="circle241"/>
	<circle cx="996" cy="441.047" r="4" fill="#0" id="circle242"/>
	<circle cx="993.484" cy="423.42" r="4" fill="#0" id="circle243"/>
	<circle cx="990.588" cy="401.786" r="4" fill="#0" id="circle244"/>
	<circle cx="990.931" cy="388.158" r="4" fill="#0" id="circle245"/>
	<circle cx="979.751" cy="370.586" r="4" fill="#0" id="circle246"/>
	<circle cx="967.935" cy="368.108" r="4" fill="#0" id="circle247"/>
	<circle cx="952.894" cy="361.999" r="4" fill="#0" id="circle248"/>
	<circle cx="66.442" cy="555.051" r="4" fill="#0" id="circle249"/>
	<circle cx="58.4984" cy="569.138" r="4" fill="#0" id="circle250"/>
	<circle cx="60.2626" cy="592.236" r="4" fill="#0" id="circle251"/>
	<circle cx="62.0921" cy="608.26" r="4" fill="#0" id="circle252"/>
	<circle cx="58.1678" cy="629.856" r="4" fill="#0" id="circle253"/>
	<circle cx="59.2429" cy="648.147" r="4" fill="#0" id="circle254"/>
	<circle cx="61.0409" cy="673.252" r="4" fill="#0" id="circle255"/>
	<circle cx="58.4077" cy="695.865" r="4" fill="#0" id="circle256"/>
	<circle cx="58.8795" cy="726.458" r="4" fill="#0" id="circle257"/>
	<circle cx="55.2008" cy="745.891" r="4" fill="#0" id="circle258"/>
	<circle cx="56.2347" cy="770.257" r="4" fill="#0" id="circle259"/>
	<circle cx="57.5329" cy="787.226" r="4" fill="#0" id="circle260"/>
	<circle cx="55.2279" cy="814.251" r="4" fill="#0" id="circle261"/>
	<circle cx="55.737" cy="829.959" r="4" fill="#0" id="circle262"/>
	<circle cx="57.6936" cy="853.607" r="4" fill="#0" id="circle263"/>
	<circle cx="56.555" cy="874.79" r="4" fill="#0" id="circle264"/>
	<circle cx="63.1818" cy="899.035" r="4" fill="#0" id="circle265"/>
	<circle cx="63.8494" cy="920.551" r="4" fill="#0" id="circle266"/>
	<circle cx="71.8999" cy="938.639" r="4" fill="#0" id="circle267"/>
	<circle cx="85.5763" cy="958.196" r="4" fill="#0" id="circle268"/>
	<circle cx="114.442" cy="958.63" r="4" fill="#0" id="circle269"/>
	<circle cx="145.131" cy="960.738" r="4" fill="#0" id="circle270"/>
	<circle cx="175.443" cy="967.238" r="4" fill="#0" id="circle271"/>
	<circle cx="209.709" cy="968.192" r="4" fill="#0" id="circle272"/>
	<circle cx="243.302" cy="966.565" r="4" fill="#0" id="circle273"/>
	<circle cx="283.973" cy="966.591" r="4" fill="#0" id="circle274"/>
	<circle cx="330.495" cy="966.799" r="4" fill="#0" id="circle275"/>
	<circle cx="368.966" cy="970.45" r="4" fill="#0" id="circle276"/>
	<circle cx="401.052" cy="967.669" r="4" fill="#0" id="circle277"/>
	<circle cx="444.274" cy="964.725" r="4" fill="#0" id="circle278"/>
	<circle cx="486.538" cy="965.048" r="4" fill="#0" id="circle279"/>
	<circle cx="532.218" cy="967.486" r="4" fill="#0" id="circle280"/>
	<circle cx="575.878" cy="962.529" r="4" fill="#0" id="circle281"/>
	<circle cx="619.002" cy="961.74" r="4" fill="#0" id="circle282"/>
	<circle cx="660.688" cy="964.769" r="4" fill="#0" id="circle283"/>
	<circle cx="696.16" cy="962.619" r="4" fill="#0" id="circle284"/>
	<circle cx="734.225" cy="972.623" r="4" fill="#0" id="circle285"/>
	<circle cx="767.591" cy="968.297" r="4" fill="#0" id="circle286"/>
	<circle cx="802.071" cy="971.419" r="4" fill="#0" id="circle287"/>
	<circle cx="836.88" cy="963.212" r="4" fill="#0" id="circle288"/>
	<circle cx="868.204" cy="967.022" r="4" fill="#0" id="circle289"/>
	<circle cx="900.509" cy="966.201" r="4" fill="#0" id="circle290"/>
	<circle cx="935.631" cy="564.491" r="4" fill="#0" id="circle291"/>
	<circle cx="933.687" cy="582.7" r="4" fill="#0" id="circle292"/>
	<circle cx="935.979" cy="609.661" r="4" fill="#0" id="circle293"/>
	<circle cx="939.312" cy="635.206" r="4" fill="#0" id="circle294"/>
	<circle cx="930.881" cy="662.743" r="4" fill="#0" id="circle295"/>
	<circle cx="931.423" cy="688.426" r="4" fill="#0" id="circle296"/>
	<circle cx="934.832" cy="721.274" r="4" fill="#0" id="circle297"/>
	<circle cx="929.898" cy="750.938" r="4" fill="#0" id="circle298"/>
	<circle cx="926.481" cy="782.59" r="4" fill="#0" id="circle299"/>
	<circle cx="927.666" cy="808.965" r="4" fill="#0" id="circle300"/>
	<circle cx="931.221" cy="841.049" r="4" fill="#0" id="circle301"/>
	<circle cx="928.134" cy="867.234" r="4" fill="#0" id="circle302"/>
	<circle cx="925.24" cy="892.91" r="4" fill="#0" id="circle303"/>
	<circle cx="924.046" cy="921.34" r="4" fill="#0" id="circle304"/>
	<circle cx="915.432" cy="946.566" r="4" fill="#0" id="circle305"/>
	</g>
</svg>