<?xml version="1.0" encoding="UTF-8" standalone="no"?>
<!-- Created with CurveBenchmark -->
<svg
	xmlns:dc="http://purl.org/dc/elements/1.1/"
	xmlns:cc="http://creativecommons.org/ns#"
	xmlns:rdf="http://www.w3.org/1999/02/22-rdf-syntax-ns#"
	xmlns:svg="http://www.w3.org/2000/svg"
	xmlns="http://www.w3.org/2000/svg"
	xmlns:sodipodi="http://sodipodi.sourceforge.net/DTD/sodipodi-0.dtd"
	xmlns:inkscape="http://www.inkscape.org/namespaces/inkscape"
	width="1000"
	height="1000"
	id="svg2"
	version="1.1"
	sodipodi:docname="noisy-0.003/connect2d-mc14.txt">
<defs
	id="defs4" />
<metadata
	id="metadata7">
	<rdf:RDF>
		<cc:Work
			rdf:about="">
			<dc:format>image/svg+xml</dc:format>
			<dc:type
				rdf:resource="http://purl.org/dc/dcmitype/StillImage" />
			<dc:title></dc:title>
		</cc:Work>
	</rdf:RDF>
</metadata>
<g
	inkscape:label="Layer 1"
	inkscape:groupmode="layer"
	id="layer1">
	<path style="fill:none;stroke:red;stroke-width:1px;stroke-linecap:butt;stroke-linejoin:miter;stroke-opacity:1" d="M 168.307,6.82207 205.805,11.9032 z" id="boundary" inkscape:connector-curvature="0" />
	<path style="fill:none;stroke:red;stroke-width:1px;stroke-linecap:butt;stroke-linejoin:miter;stroke-opacity:1" d="M 205.805,11.9032 247.079,23.8448 z" id="boundary" inkscape:connector-curvature="0" />
	<path style="fill:none;stroke:red;stroke-width:1px;stroke-linecap:butt;stroke-linejoin:miter;stroke-opacity:1" d="M 247.079,23.8448 264.341,41.1089 z" id="boundary" inkscape:connector-curvature="0" />
	<path style="fill:none;stroke:red;stroke-width:1px;stroke-linecap:butt;stroke-linejoin:miter;stroke-opacity:1" d="M 264.341,41.1089 278.555,60.0428 z" id="boundary" inkscape:connector-curvature="0" />
	<path style="fill:none;stroke:red;stroke-width:1px;stroke-linecap:butt;stroke-linejoin:miter;stroke-opacity:1" d="M 278.555,60.0428 287.419,80.5496 z" id="boundary" inkscape:connector-curvature="0" />
	<path style="fill:none;stroke:red;stroke-width:1px;stroke-linecap:butt;stroke-linejoin:miter;stroke-opacity:1" d="M 287.419,80.5496 290.395,104.02 z" id="boundary" inkscape:connector-curvature="0" />
	<path style="fill:none;stroke:red;stroke-width:1px;stroke-linecap:butt;stroke-linejoin:miter;stroke-opacity:1" d="M 290.395,104.02 267.441,104.27 z" id="boundary" inkscape:connector-curvature="0" />
	<path style="fill:none;stroke:red;stroke-width:1px;stroke-linecap:butt;stroke-linejoin:miter;stroke-opacity:1" d="M 267.441,104.27 253.164,106.803 z" id="boundary" inkscape:connector-curvature="0" />
	<path style="fill:none;stroke:red;stroke-width:1px;stroke-linecap:butt;stroke-linejoin:miter;stroke-opacity:1" d="M 253.164,106.803 231.489,106.077 z" id="boundary" inkscape:connector-curvature="0" />
	<path style="fill:none;stroke:red;stroke-width:1px;stroke-linecap:butt;stroke-linejoin:miter;stroke-opacity:1" d="M 231.489,106.077 213.277,108.044 z" id="boundary" inkscape:connector-curvature="0" />
	<path style="fill:none;stroke:red;stroke-width:1px;stroke-linecap:butt;stroke-linejoin:miter;stroke-opacity:1" d="M 213.277,108.044 199.437,106.697 z" id="boundary" inkscape:connector-curvature="0" />
	<path style="fill:none;stroke:red;stroke-width:1px;stroke-linecap:butt;stroke-linejoin:miter;stroke-opacity:1" d="M 199.437,106.697 189.819,95.307 z" id="boundary" inkscape:connector-curvature="0" />
	<path style="fill:none;stroke:red;stroke-width:1px;stroke-linecap:butt;stroke-linejoin:miter;stroke-opacity:1" d="M 189.819,95.307 178.65,76.5537 z" id="boundary" inkscape:connector-curvature="0" />
	<path style="fill:none;stroke:red;stroke-width:1px;stroke-linecap:butt;stroke-linejoin:miter;stroke-opacity:1" d="M 178.65,76.5537 164.813,70.1092 z" id="boundary" inkscape:connector-curvature="0" />
	<path style="fill:none;stroke:red;stroke-width:1px;stroke-linecap:butt;stroke-linejoin:miter;stroke-opacity:1" d="M 164.813,70.1092 148.48,70.3002 z" id="boundary" inkscape:connector-curvature="0" />
	<path style="fill:none;stroke:red;stroke-width:1px;stroke-linecap:butt;stroke-linejoin:miter;stroke-opacity:1" d="M 148.48,70.3002 124.102,66.8867 z" id="boundary" inkscape:connector-curvature="0" />
	<path style="fill:none;stroke:red;stroke-width:1px;stroke-linecap:butt;stroke-linejoin:miter;stroke-opacity:1" d="M 124.102,66.8867 109.687,89.4373 z" id="boundary" inkscape:connector-curvature="0" />
	<path style="fill:none;stroke:red;stroke-width:1px;stroke-linecap:butt;stroke-linejoin:miter;stroke-opacity:1" d="M 109.687,89.4373 122.489,114.283 z" id="boundary" inkscape:connector-curvature="0" />
	<path style="fill:none;stroke:red;stroke-width:1px;stroke-linecap:butt;stroke-linejoin:miter;stroke-opacity:1" d="M 122.489,114.283 152.306,120.588 z" id="boundary" inkscape:connector-curvature="0" />
	<path style="fill:none;stroke:red;stroke-width:1px;stroke-linecap:butt;stroke-linejoin:miter;stroke-opacity:1" d="M 152.306,120.588 172.639,126.069 z" id="boundary" inkscape:connector-curvature="0" />
	<path style="fill:none;stroke:red;stroke-width:1px;stroke-linecap:butt;stroke-linejoin:miter;stroke-opacity:1" d="M 172.639,126.069 190.16,130.728 z" id="boundary" inkscape:connector-curvature="0" />
	<path style="fill:none;stroke:red;stroke-width:1px;stroke-linecap:butt;stroke-linejoin:miter;stroke-opacity:1" d="M 190.16,130.728 206.499,135.768 z" id="boundary" inkscape:connector-curvature="0" />
	<path style="fill:none;stroke:red;stroke-width:1px;stroke-linecap:butt;stroke-linejoin:miter;stroke-opacity:1" d="M 206.499,135.768 224.577,137.436 z" id="boundary" inkscape:connector-curvature="0" />
	<path style="fill:none;stroke:red;stroke-width:1px;stroke-linecap:butt;stroke-linejoin:miter;stroke-opacity:1" d="M 224.577,137.436 236.004,144.68 z" id="boundary" inkscape:connector-curvature="0" />
	<path style="fill:none;stroke:red;stroke-width:1px;stroke-linecap:butt;stroke-linejoin:miter;stroke-opacity:1" d="M 236.004,144.68 261.41,161.087 z" id="boundary" inkscape:connector-curvature="0" />
	<path style="fill:none;stroke:red;stroke-width:1px;stroke-linecap:butt;stroke-linejoin:miter;stroke-opacity:1" d="M 261.41,161.087 282.605,179.179 z" id="boundary" inkscape:connector-curvature="0" />
	<path style="fill:none;stroke:red;stroke-width:1px;stroke-linecap:butt;stroke-linejoin:miter;stroke-opacity:1" d="M 282.605,179.179 294.884,211.233 z" id="boundary" inkscape:connector-curvature="0" />
	<path style="fill:none;stroke:red;stroke-width:1px;stroke-linecap:butt;stroke-linejoin:miter;stroke-opacity:1" d="M 294.884,211.233 330.647,204.183 z" id="boundary" inkscape:connector-curvature="0" />
	<path style="fill:none;stroke:red;stroke-width:1px;stroke-linecap:butt;stroke-linejoin:miter;stroke-opacity:1" d="M 330.647,204.183 330.634,175.792 z" id="boundary" inkscape:connector-curvature="0" />
	<path style="fill:none;stroke:red;stroke-width:1px;stroke-linecap:butt;stroke-linejoin:miter;stroke-opacity:1" d="M 330.634,175.792 333.797,139.254 z" id="boundary" inkscape:connector-curvature="0" />
	<path style="fill:none;stroke:red;stroke-width:1px;stroke-linecap:butt;stroke-linejoin:miter;stroke-opacity:1" d="M 333.797,139.254 335.23,115.536 z" id="boundary" inkscape:connector-curvature="0" />
	<path style="fill:none;stroke:red;stroke-width:1px;stroke-linecap:butt;stroke-linejoin:miter;stroke-opacity:1" d="M 335.23,115.536 348.713,83.0115 z" id="boundary" inkscape:connector-curvature="0" />
	<path style="fill:none;stroke:red;stroke-width:1px;stroke-linecap:butt;stroke-linejoin:miter;stroke-opacity:1" d="M 348.713,83.0115 369.808,56.1739 z" id="boundary" inkscape:connector-curvature="0" />
	<path style="fill:none;stroke:red;stroke-width:1px;stroke-linecap:butt;stroke-linejoin:miter;stroke-opacity:1" d="M 369.808,56.1739 405.302,30.1619 z" id="boundary" inkscape:connector-curvature="0" />
	<path style="fill:none;stroke:red;stroke-width:1px;stroke-linecap:butt;stroke-linejoin:miter;stroke-opacity:1" d="M 405.302,30.1619 460.057,14.2245 z" id="boundary" inkscape:connector-curvature="0" />
	<path style="fill:none;stroke:red;stroke-width:1px;stroke-linecap:butt;stroke-linejoin:miter;stroke-opacity:1" d="M 460.057,14.2245 515.571,5.70965 z" id="boundary" inkscape:connector-curvature="0" />
	<path style="fill:none;stroke:red;stroke-width:1px;stroke-linecap:butt;stroke-linejoin:miter;stroke-opacity:1" d="M 515.571,5.70965 564.052,5.59608 z" id="boundary" inkscape:connector-curvature="0" />
	<path style="fill:none;stroke:red;stroke-width:1px;stroke-linecap:butt;stroke-linejoin:miter;stroke-opacity:1" d="M 564.052,5.59608 604.177,18.5561 z" id="boundary" inkscape:connector-curvature="0" />
	<path style="fill:none;stroke:red;stroke-width:1px;stroke-linecap:butt;stroke-linejoin:miter;stroke-opacity:1" d="M 604.177,18.5561 634.081,45.195 z" id="boundary" inkscape:connector-curvature="0" />
	<path style="fill:none;stroke:red;stroke-width:1px;stroke-linecap:butt;stroke-linejoin:miter;stroke-opacity:1" d="M 634.081,45.195 647.793,74.8735 z" id="boundary" inkscape:connector-curvature="0" />
	<path style="fill:none;stroke:red;stroke-width:1px;stroke-linecap:butt;stroke-linejoin:miter;stroke-opacity:1" d="M 647.793,74.8735 659.833,97.3157 z" id="boundary" inkscape:connector-curvature="0" />
	<path style="fill:none;stroke:red;stroke-width:1px;stroke-linecap:butt;stroke-linejoin:miter;stroke-opacity:1" d="M 659.833,97.3157 648.651,97.2784 z" id="boundary" inkscape:connector-curvature="0" />
	<path style="fill:none;stroke:red;stroke-width:1px;stroke-linecap:butt;stroke-linejoin:miter;stroke-opacity:1" d="M 648.651,97.2784 630.117,107.015 z" id="boundary" inkscape:connector-curvature="0" />
	<path style="fill:none;stroke:red;stroke-width:1px;stroke-linecap:butt;stroke-linejoin:miter;stroke-opacity:1" d="M 630.117,107.015 608.27,106.197 z" id="boundary" inkscape:connector-curvature="0" />
	<path style="fill:none;stroke:red;stroke-width:1px;stroke-linecap:butt;stroke-linejoin:miter;stroke-opacity:1" d="M 608.27,106.197 583.479,111.689 z" id="boundary" inkscape:connector-curvature="0" />
	<path style="fill:none;stroke:red;stroke-width:1px;stroke-linecap:butt;stroke-linejoin:miter;stroke-opacity:1" d="M 583.479,111.689 566.732,113.702 z" id="boundary" inkscape:connector-curvature="0" />
	<path style="fill:none;stroke:red;stroke-width:1px;stroke-linecap:butt;stroke-linejoin:miter;stroke-opacity:1" d="M 566.732,113.702 546.175,89.6468 z" id="boundary" inkscape:connector-curvature="0" />
	<path style="fill:none;stroke:red;stroke-width:1px;stroke-linecap:butt;stroke-linejoin:miter;stroke-opacity:1" d="M 546.175,89.6468 509.845,75.6949 z" id="boundary" inkscape:connector-curvature="0" />
	<path style="fill:none;stroke:red;stroke-width:1px;stroke-linecap:butt;stroke-linejoin:miter;stroke-opacity:1" d="M 509.845,75.6949 469.491,87.2741 z" id="boundary" inkscape:connector-curvature="0" />
	<path style="fill:none;stroke:red;stroke-width:1px;stroke-linecap:butt;stroke-linejoin:miter;stroke-opacity:1" d="M 469.491,87.2741 443.8,119.053 z" id="boundary" inkscape:connector-curvature="0" />
	<path style="fill:none;stroke:red;stroke-width:1px;stroke-linecap:butt;stroke-linejoin:miter;stroke-opacity:1" d="M 443.8,119.053 434.485,162.408 z" id="boundary" inkscape:connector-curvature="0" />
	<path style="fill:none;stroke:red;stroke-width:1px;stroke-linecap:butt;stroke-linejoin:miter;stroke-opacity:1" d="M 434.485,162.408 434.21,205.764 z" id="boundary" inkscape:connector-curvature="0" />
	<path style="fill:none;stroke:red;stroke-width:1px;stroke-linecap:butt;stroke-linejoin:miter;stroke-opacity:1" d="M 434.21,205.764 453.847,248.81 z" id="boundary" inkscape:connector-curvature="0" />
	<path style="fill:none;stroke:red;stroke-width:1px;stroke-linecap:butt;stroke-linejoin:miter;stroke-opacity:1" d="M 453.847,248.81 489.546,270.077 z" id="boundary" inkscape:connector-curvature="0" />
	<path style="fill:none;stroke:red;stroke-width:1px;stroke-linecap:butt;stroke-linejoin:miter;stroke-opacity:1" d="M 489.546,270.077 517.065,271.785 z" id="boundary" inkscape:connector-curvature="0" />
	<path style="fill:none;stroke:red;stroke-width:1px;stroke-linecap:butt;stroke-linejoin:miter;stroke-opacity:1" d="M 517.065,271.785 539.667,271.483 z" id="boundary" inkscape:connector-curvature="0" />
	<path style="fill:none;stroke:red;stroke-width:1px;stroke-linecap:butt;stroke-linejoin:miter;stroke-opacity:1" d="M 539.667,271.483 567.342,262.772 z" id="boundary" inkscape:connector-curvature="0" />
	<path style="fill:none;stroke:red;stroke-width:1px;stroke-linecap:butt;stroke-linejoin:miter;stroke-opacity:1" d="M 567.342,262.772 570.923,241.703 z" id="boundary" inkscape:connector-curvature="0" />
	<path style="fill:none;stroke:red;stroke-width:1px;stroke-linecap:butt;stroke-linejoin:miter;stroke-opacity:1" d="M 570.923,241.703 573.307,216.267 z" id="boundary" inkscape:connector-curvature="0" />
	<path style="fill:none;stroke:red;stroke-width:1px;stroke-linecap:butt;stroke-linejoin:miter;stroke-opacity:1" d="M 573.307,216.267 556.944,220.565 z" id="boundary" inkscape:connector-curvature="0" />
	<path style="fill:none;stroke:red;stroke-width:1px;stroke-linecap:butt;stroke-linejoin:miter;stroke-opacity:1" d="M 556.944,220.565 540.906,222.998 z" id="boundary" inkscape:connector-curvature="0" />
	<path style="fill:none;stroke:red;stroke-width:1px;stroke-linecap:butt;stroke-linejoin:miter;stroke-opacity:1" d="M 540.906,222.998 509.77,223.355 z" id="boundary" inkscape:connector-curvature="0" />
	<path style="fill:none;stroke:red;stroke-width:1px;stroke-linecap:butt;stroke-linejoin:miter;stroke-opacity:1" d="M 509.77,223.355 506.613,188.114 z" id="boundary" inkscape:connector-curvature="0" />
	<path style="fill:none;stroke:red;stroke-width:1px;stroke-linecap:butt;stroke-linejoin:miter;stroke-opacity:1" d="M 506.613,188.114 501.154,152.797 z" id="boundary" inkscape:connector-curvature="0" />
	<path style="fill:none;stroke:red;stroke-width:1px;stroke-linecap:butt;stroke-linejoin:miter;stroke-opacity:1" d="M 501.154,152.797 533.396,150.207 z" id="boundary" inkscape:connector-curvature="0" />
	<path style="fill:none;stroke:red;stroke-width:1px;stroke-linecap:butt;stroke-linejoin:miter;stroke-opacity:1" d="M 533.396,150.207 560.639,153.967 z" id="boundary" inkscape:connector-curvature="0" />
	<path style="fill:none;stroke:red;stroke-width:1px;stroke-linecap:butt;stroke-linejoin:miter;stroke-opacity:1" d="M 560.639,153.967 578.637,153.674 z" id="boundary" inkscape:connector-curvature="0" />
	<path style="fill:none;stroke:red;stroke-width:1px;stroke-linecap:butt;stroke-linejoin:miter;stroke-opacity:1" d="M 578.637,153.674 607.781,154.17 z" id="boundary" inkscape:connector-curvature="0" />
	<path style="fill:none;stroke:red;stroke-width:1px;stroke-linecap:butt;stroke-linejoin:miter;stroke-opacity:1" d="M 607.781,154.17 638.552,154.619 z" id="boundary" inkscape:connector-curvature="0" />
	<path style="fill:none;stroke:red;stroke-width:1px;stroke-linecap:butt;stroke-linejoin:miter;stroke-opacity:1" d="M 638.552,154.619 666.309,154.504 z" id="boundary" inkscape:connector-curvature="0" />
	<path style="fill:none;stroke:red;stroke-width:1px;stroke-linecap:butt;stroke-linejoin:miter;stroke-opacity:1" d="M 666.309,154.504 670.261,177.607 z" id="boundary" inkscape:connector-curvature="0" />
	<path style="fill:none;stroke:red;stroke-width:1px;stroke-linecap:butt;stroke-linejoin:miter;stroke-opacity:1" d="M 670.261,177.607 665.056,209.234 z" id="boundary" inkscape:connector-curvature="0" />
	<path style="fill:none;stroke:red;stroke-width:1px;stroke-linecap:butt;stroke-linejoin:miter;stroke-opacity:1" d="M 665.056,209.234 670.758,237.858 z" id="boundary" inkscape:connector-curvature="0" />
	<path style="fill:none;stroke:red;stroke-width:1px;stroke-linecap:butt;stroke-linejoin:miter;stroke-opacity:1" d="M 670.758,237.858 709.481,224.329 z" id="boundary" inkscape:connector-curvature="0" />
	<path style="fill:none;stroke:red;stroke-width:1px;stroke-linecap:butt;stroke-linejoin:miter;stroke-opacity:1" d="M 709.481,224.329 712.612,192.513 z" id="boundary" inkscape:connector-curvature="0" />
	<path style="fill:none;stroke:red;stroke-width:1px;stroke-linecap:butt;stroke-linejoin:miter;stroke-opacity:1" d="M 712.612,192.513 712.801,162.187 z" id="boundary" inkscape:connector-curvature="0" />
	<path style="fill:none;stroke:red;stroke-width:1px;stroke-linecap:butt;stroke-linejoin:miter;stroke-opacity:1" d="M 712.801,162.187 712.233,125.354 z" id="boundary" inkscape:connector-curvature="0" />
	<path style="fill:none;stroke:red;stroke-width:1px;stroke-linecap:butt;stroke-linejoin:miter;stroke-opacity:1" d="M 712.233,125.354 713.68,90.1388 z" id="boundary" inkscape:connector-curvature="0" />
	<path style="fill:none;stroke:red;stroke-width:1px;stroke-linecap:butt;stroke-linejoin:miter;stroke-opacity:1" d="M 713.68,90.1388 707.971,56.0739 z" id="boundary" inkscape:connector-curvature="0" />
	<path style="fill:none;stroke:red;stroke-width:1px;stroke-linecap:butt;stroke-linejoin:miter;stroke-opacity:1" d="M 707.971,56.0739 706.978,11.2165 z" id="boundary" inkscape:connector-curvature="0" />
	<path style="fill:none;stroke:red;stroke-width:1px;stroke-linecap:butt;stroke-linejoin:miter;stroke-opacity:1" d="M 706.978,11.2165 769.396,5.69089 z" id="boundary" inkscape:connector-curvature="0" />
	<path style="fill:none;stroke:red;stroke-width:1px;stroke-linecap:butt;stroke-linejoin:miter;stroke-opacity:1" d="M 769.396,5.69089 824.168,4 z" id="boundary" inkscape:connector-curvature="0" />
	<path style="fill:none;stroke:red;stroke-width:1px;stroke-linecap:butt;stroke-linejoin:miter;stroke-opacity:1" d="M 824.168,4 813.919,76.455 z" id="boundary" inkscape:connector-curvature="0" />
	<path style="fill:none;stroke:red;stroke-width:1px;stroke-linecap:butt;stroke-linejoin:miter;stroke-opacity:1" d="M 813.919,76.455 814.528,96.327 z" id="boundary" inkscape:connector-curvature="0" />
	<path style="fill:none;stroke:red;stroke-width:1px;stroke-linecap:butt;stroke-linejoin:miter;stroke-opacity:1" d="M 814.528,96.327 840.143,73.3191 z" id="boundary" inkscape:connector-curvature="0" />
	<path style="fill:none;stroke:red;stroke-width:1px;stroke-linecap:butt;stroke-linejoin:miter;stroke-opacity:1" d="M 840.143,73.3191 864.833,77.8157 z" id="boundary" inkscape:connector-curvature="0" />
	<path style="fill:none;stroke:red;stroke-width:1px;stroke-linecap:butt;stroke-linejoin:miter;stroke-opacity:1" d="M 864.833,77.8157 848.863,138.674 z" id="boundary" inkscape:connector-curvature="0" />
	<path style="fill:none;stroke:red;stroke-width:1px;stroke-linecap:butt;stroke-linejoin:miter;stroke-opacity:1" d="M 848.863,138.674 863.393,137.61 z" id="boundary" inkscape:connector-curvature="0" />
	<path style="fill:none;stroke:red;stroke-width:1px;stroke-linecap:butt;stroke-linejoin:miter;stroke-opacity:1" d="M 863.393,137.61 879.15,126.402 z" id="boundary" inkscape:connector-curvature="0" />
	<path style="fill:none;stroke:red;stroke-width:1px;stroke-linecap:butt;stroke-linejoin:miter;stroke-opacity:1" d="M 879.15,126.402 888.158,106.973 z" id="boundary" inkscape:connector-curvature="0" />
	<path style="fill:none;stroke:red;stroke-width:1px;stroke-linecap:butt;stroke-linejoin:miter;stroke-opacity:1" d="M 888.158,106.973 889.311,81.6752 z" id="boundary" inkscape:connector-curvature="0" />
	<path style="fill:none;stroke:red;stroke-width:1px;stroke-linecap:butt;stroke-linejoin:miter;stroke-opacity:1" d="M 889.311,81.6752 876.456,6.24438 z" id="boundary" inkscape:connector-curvature="0" />
	<path style="fill:none;stroke:red;stroke-width:1px;stroke-linecap:butt;stroke-linejoin:miter;stroke-opacity:1" d="M 876.456,6.24438 932.936,12.9036 z" id="boundary" inkscape:connector-curvature="0" />
	<path style="fill:none;stroke:red;stroke-width:1px;stroke-linecap:butt;stroke-linejoin:miter;stroke-opacity:1" d="M 932.936,12.9036 971.36,39.8707 z" id="boundary" inkscape:connector-curvature="0" />
	<path style="fill:none;stroke:red;stroke-width:1px;stroke-linecap:butt;stroke-linejoin:miter;stroke-opacity:1" d="M 971.36,39.8707 991.352,82.6946 z" id="boundary" inkscape:connector-curvature="0" />
	<path style="fill:none;stroke:red;stroke-width:1px;stroke-linecap:butt;stroke-linejoin:miter;stroke-opacity:1" d="M 991.352,82.6946 996,116.201 z" id="boundary" inkscape:connector-curvature="0" />
	<path style="fill:none;stroke:red;stroke-width:1px;stroke-linecap:butt;stroke-linejoin:miter;stroke-opacity:1" d="M 996,116.201 987.459,152.059 z" id="boundary" inkscape:connector-curvature="0" />
	<path style="fill:none;stroke:red;stroke-width:1px;stroke-linecap:butt;stroke-linejoin:miter;stroke-opacity:1" d="M 987.459,152.059 963.777,183.622 z" id="boundary" inkscape:connector-curvature="0" />
	<path style="fill:none;stroke:red;stroke-width:1px;stroke-linecap:butt;stroke-linejoin:miter;stroke-opacity:1" d="M 963.777,183.622 937.173,204.627 z" id="boundary" inkscape:connector-curvature="0" />
	<path style="fill:none;stroke:red;stroke-width:1px;stroke-linecap:butt;stroke-linejoin:miter;stroke-opacity:1" d="M 937.173,204.627 901.704,211.28 z" id="boundary" inkscape:connector-curvature="0" />
	<path style="fill:none;stroke:red;stroke-width:1px;stroke-linecap:butt;stroke-linejoin:miter;stroke-opacity:1" d="M 901.704,211.28 867.767,213.342 z" id="boundary" inkscape:connector-curvature="0" />
	<path style="fill:none;stroke:red;stroke-width:1px;stroke-linecap:butt;stroke-linejoin:miter;stroke-opacity:1" d="M 867.767,213.342 841.935,213.668 z" id="boundary" inkscape:connector-curvature="0" />
	<path style="fill:none;stroke:red;stroke-width:1px;stroke-linecap:butt;stroke-linejoin:miter;stroke-opacity:1" d="M 841.935,213.668 828.907,139.65 z" id="boundary" inkscape:connector-curvature="0" />
	<path style="fill:none;stroke:red;stroke-width:1px;stroke-linecap:butt;stroke-linejoin:miter;stroke-opacity:1" d="M 828.907,139.65 808.618,115.921 z" id="boundary" inkscape:connector-curvature="0" />
	<path style="fill:none;stroke:red;stroke-width:1px;stroke-linecap:butt;stroke-linejoin:miter;stroke-opacity:1" d="M 808.618,115.921 812.636,136.142 z" id="boundary" inkscape:connector-curvature="0" />
	<path style="fill:none;stroke:red;stroke-width:1px;stroke-linecap:butt;stroke-linejoin:miter;stroke-opacity:1" d="M 812.636,136.142 815.166,211.551 z" id="boundary" inkscape:connector-curvature="0" />
	<path style="fill:none;stroke:red;stroke-width:1px;stroke-linecap:butt;stroke-linejoin:miter;stroke-opacity:1" d="M 815.166,211.551 814.356,244.494 z" id="boundary" inkscape:connector-curvature="0" />
	<path style="fill:none;stroke:red;stroke-width:1px;stroke-linecap:butt;stroke-linejoin:miter;stroke-opacity:1" d="M 814.356,244.494 811.925,284.511 z" id="boundary" inkscape:connector-curvature="0" />
	<path style="fill:none;stroke:red;stroke-width:1px;stroke-linecap:butt;stroke-linejoin:miter;stroke-opacity:1" d="M 811.925,284.511 816.352,323.409 z" id="boundary" inkscape:connector-curvature="0" />
	<path style="fill:none;stroke:red;stroke-width:1px;stroke-linecap:butt;stroke-linejoin:miter;stroke-opacity:1" d="M 816.352,323.409 812.737,350.55 z" id="boundary" inkscape:connector-curvature="0" />
	<path style="fill:none;stroke:red;stroke-width:1px;stroke-linecap:butt;stroke-linejoin:miter;stroke-opacity:1" d="M 812.737,350.55 797.443,345.622 z" id="boundary" inkscape:connector-curvature="0" />
	<path style="fill:none;stroke:red;stroke-width:1px;stroke-linecap:butt;stroke-linejoin:miter;stroke-opacity:1" d="M 797.443,345.622 773.269,350.589 z" id="boundary" inkscape:connector-curvature="0" />
	<path style="fill:none;stroke:red;stroke-width:1px;stroke-linecap:butt;stroke-linejoin:miter;stroke-opacity:1" d="M 773.269,350.589 744.053,351.022 z" id="boundary" inkscape:connector-curvature="0" />
	<path style="fill:none;stroke:red;stroke-width:1px;stroke-linecap:butt;stroke-linejoin:miter;stroke-opacity:1" d="M 744.053,351.022 706.427,348.334 z" id="boundary" inkscape:connector-curvature="0" />
	<path style="fill:none;stroke:red;stroke-width:1px;stroke-linecap:butt;stroke-linejoin:miter;stroke-opacity:1" d="M 706.427,348.334 709.062,330.401 z" id="boundary" inkscape:connector-curvature="0" />
	<path style="fill:none;stroke:red;stroke-width:1px;stroke-linecap:butt;stroke-linejoin:miter;stroke-opacity:1" d="M 709.062,330.401 709.123,305.647 z" id="boundary" inkscape:connector-curvature="0" />
	<path style="fill:none;stroke:red;stroke-width:1px;stroke-linecap:butt;stroke-linejoin:miter;stroke-opacity:1" d="M 709.123,305.647 711.384,278.308 z" id="boundary" inkscape:connector-curvature="0" />
	<path style="fill:none;stroke:red;stroke-width:1px;stroke-linecap:butt;stroke-linejoin:miter;stroke-opacity:1" d="M 711.384,278.308 713.032,257.131 z" id="boundary" inkscape:connector-curvature="0" />
	<path style="fill:none;stroke:red;stroke-width:1px;stroke-linecap:butt;stroke-linejoin:miter;stroke-opacity:1" d="M 713.032,257.131 666.042,265.115 z" id="boundary" inkscape:connector-curvature="0" />
	<path style="fill:none;stroke:red;stroke-width:1px;stroke-linecap:butt;stroke-linejoin:miter;stroke-opacity:1" d="M 666.042,265.115 669.525,289.26 z" id="boundary" inkscape:connector-curvature="0" />
	<path style="fill:none;stroke:red;stroke-width:1px;stroke-linecap:butt;stroke-linejoin:miter;stroke-opacity:1" d="M 669.525,289.26 641.183,309.359 z" id="boundary" inkscape:connector-curvature="0" />
	<path style="fill:none;stroke:red;stroke-width:1px;stroke-linecap:butt;stroke-linejoin:miter;stroke-opacity:1" d="M 641.183,309.359 604.562,329.55 z" id="boundary" inkscape:connector-curvature="0" />
	<path style="fill:none;stroke:red;stroke-width:1px;stroke-linecap:butt;stroke-linejoin:miter;stroke-opacity:1" d="M 604.562,329.55 571.105,338.892 z" id="boundary" inkscape:connector-curvature="0" />
	<path style="fill:none;stroke:red;stroke-width:1px;stroke-linecap:butt;stroke-linejoin:miter;stroke-opacity:1" d="M 571.105,338.892 538.084,340.407 z" id="boundary" inkscape:connector-curvature="0" />
	<path style="fill:none;stroke:red;stroke-width:1px;stroke-linecap:butt;stroke-linejoin:miter;stroke-opacity:1" d="M 538.084,340.407 492.938,338.135 z" id="boundary" inkscape:connector-curvature="0" />
	<path style="fill:none;stroke:red;stroke-width:1px;stroke-linecap:butt;stroke-linejoin:miter;stroke-opacity:1" d="M 492.938,338.135 451.429,333.706 z" id="boundary" inkscape:connector-curvature="0" />
	<path style="fill:none;stroke:red;stroke-width:1px;stroke-linecap:butt;stroke-linejoin:miter;stroke-opacity:1" d="M 451.429,333.706 413.978,319.48 z" id="boundary" inkscape:connector-curvature="0" />
	<path style="fill:none;stroke:red;stroke-width:1px;stroke-linecap:butt;stroke-linejoin:miter;stroke-opacity:1" d="M 413.978,319.48 379.008,300.393 z" id="boundary" inkscape:connector-curvature="0" />
	<path style="fill:none;stroke:red;stroke-width:1px;stroke-linecap:butt;stroke-linejoin:miter;stroke-opacity:1" d="M 379.008,300.393 351.8,268.041 z" id="boundary" inkscape:connector-curvature="0" />
	<path style="fill:none;stroke:red;stroke-width:1px;stroke-linecap:butt;stroke-linejoin:miter;stroke-opacity:1" d="M 351.8,268.041 339.154,235.644 z" id="boundary" inkscape:connector-curvature="0" />
	<path style="fill:none;stroke:red;stroke-width:1px;stroke-linecap:butt;stroke-linejoin:miter;stroke-opacity:1" d="M 339.154,235.644 296.121,240.5 z" id="boundary" inkscape:connector-curvature="0" />
	<path style="fill:none;stroke:red;stroke-width:1px;stroke-linecap:butt;stroke-linejoin:miter;stroke-opacity:1" d="M 296.121,240.5 293.256,264.87 z" id="boundary" inkscape:connector-curvature="0" />
	<path style="fill:none;stroke:red;stroke-width:1px;stroke-linecap:butt;stroke-linejoin:miter;stroke-opacity:1" d="M 293.256,264.87 285.386,286.04 z" id="boundary" inkscape:connector-curvature="0" />
	<path style="fill:none;stroke:red;stroke-width:1px;stroke-linecap:butt;stroke-linejoin:miter;stroke-opacity:1" d="M 285.386,286.04 275.719,310.879 z" id="boundary" inkscape:connector-curvature="0" />
	<path style="fill:none;stroke:red;stroke-width:1px;stroke-linecap:butt;stroke-linejoin:miter;stroke-opacity:1" d="M 275.719,310.879 240.54,333.544 z" id="boundary" inkscape:connector-curvature="0" />
	<path style="fill:none;stroke:red;stroke-width:1px;stroke-linecap:butt;stroke-linejoin:miter;stroke-opacity:1" d="M 240.54,333.544 191.838,349.062 z" id="boundary" inkscape:connector-curvature="0" />
	<path style="fill:none;stroke:red;stroke-width:1px;stroke-linecap:butt;stroke-linejoin:miter;stroke-opacity:1" d="M 191.838,349.062 146.361,345.605 z" id="boundary" inkscape:connector-curvature="0" />
	<path style="fill:none;stroke:red;stroke-width:1px;stroke-linecap:butt;stroke-linejoin:miter;stroke-opacity:1" d="M 146.361,345.605 90.89,344.107 z" id="boundary" inkscape:connector-curvature="0" />
	<path style="fill:none;stroke:red;stroke-width:1px;stroke-linecap:butt;stroke-linejoin:miter;stroke-opacity:1" d="M 90.89,344.107 53.7529,324.953 z" id="boundary" inkscape:connector-curvature="0" />
	<path style="fill:none;stroke:red;stroke-width:1px;stroke-linecap:butt;stroke-linejoin:miter;stroke-opacity:1" d="M 53.7529,324.953 26.0367,297.075 z" id="boundary" inkscape:connector-curvature="0" />
	<path style="fill:none;stroke:red;stroke-width:1px;stroke-linecap:butt;stroke-linejoin:miter;stroke-opacity:1" d="M 26.0367,297.075 4,261.244 z" id="boundary" inkscape:connector-curvature="0" />
	<path style="fill:none;stroke:red;stroke-width:1px;stroke-linecap:butt;stroke-linejoin:miter;stroke-opacity:1" d="M 4,261.244 4.10491,228.468 z" id="boundary" inkscape:connector-curvature="0" />
	<path style="fill:none;stroke:red;stroke-width:1px;stroke-linecap:butt;stroke-linejoin:miter;stroke-opacity:1" d="M 4.10491,228.468 49.9417,232.585 z" id="boundary" inkscape:connector-curvature="0" />
	<path style="fill:none;stroke:red;stroke-width:1px;stroke-linecap:butt;stroke-linejoin:miter;stroke-opacity:1" d="M 49.9417,232.585 78.5144,228.633 z" id="boundary" inkscape:connector-curvature="0" />
	<path style="fill:none;stroke:red;stroke-width:1px;stroke-linecap:butt;stroke-linejoin:miter;stroke-opacity:1" d="M 78.5144,228.633 100.345,229.547 z" id="boundary" inkscape:connector-curvature="0" />
	<path style="fill:none;stroke:red;stroke-width:1px;stroke-linecap:butt;stroke-linejoin:miter;stroke-opacity:1" d="M 100.345,229.547 107.017,251.901 z" id="boundary" inkscape:connector-curvature="0" />
	<path style="fill:none;stroke:red;stroke-width:1px;stroke-linecap:butt;stroke-linejoin:miter;stroke-opacity:1" d="M 107.017,251.901 125.484,272.408 z" id="boundary" inkscape:connector-curvature="0" />
	<path style="fill:none;stroke:red;stroke-width:1px;stroke-linecap:butt;stroke-linejoin:miter;stroke-opacity:1" d="M 125.484,272.408 164.105,277.644 z" id="boundary" inkscape:connector-curvature="0" />
	<path style="fill:none;stroke:red;stroke-width:1px;stroke-linecap:butt;stroke-linejoin:miter;stroke-opacity:1" d="M 164.105,277.644 192.674,272.87 z" id="boundary" inkscape:connector-curvature="0" />
	<path style="fill:none;stroke:red;stroke-width:1px;stroke-linecap:butt;stroke-linejoin:miter;stroke-opacity:1" d="M 192.674,272.87 201.142,237.199 z" id="boundary" inkscape:connector-curvature="0" />
	<path style="fill:none;stroke:red;stroke-width:1px;stroke-linecap:butt;stroke-linejoin:miter;stroke-opacity:1" d="M 201.142,237.199 165.994,212.667 z" id="boundary" inkscape:connector-curvature="0" />
	<path style="fill:none;stroke:red;stroke-width:1px;stroke-linecap:butt;stroke-linejoin:miter;stroke-opacity:1" d="M 165.994,212.667 135.938,203.201 z" id="boundary" inkscape:connector-curvature="0" />
	<path style="fill:none;stroke:red;stroke-width:1px;stroke-linecap:butt;stroke-linejoin:miter;stroke-opacity:1" d="M 135.938,203.201 111.375,199.345 z" id="boundary" inkscape:connector-curvature="0" />
	<path style="fill:none;stroke:red;stroke-width:1px;stroke-linecap:butt;stroke-linejoin:miter;stroke-opacity:1" d="M 111.375,199.345 94.7771,187.923 z" id="boundary" inkscape:connector-curvature="0" />
	<path style="fill:none;stroke:red;stroke-width:1px;stroke-linecap:butt;stroke-linejoin:miter;stroke-opacity:1" d="M 94.7771,187.923 70.669,179.129 z" id="boundary" inkscape:connector-curvature="0" />
	<path style="fill:none;stroke:red;stroke-width:1px;stroke-linecap:butt;stroke-linejoin:miter;stroke-opacity:1" d="M 70.669,179.129 42.5177,160.228 z" id="boundary" inkscape:connector-curvature="0" />
	<path style="fill:none;stroke:red;stroke-width:1px;stroke-linecap:butt;stroke-linejoin:miter;stroke-opacity:1" d="M 42.5177,160.228 19.3187,125.388 z" id="boundary" inkscape:connector-curvature="0" />
	<path style="fill:none;stroke:red;stroke-width:1px;stroke-linecap:butt;stroke-linejoin:miter;stroke-opacity:1" d="M 19.3187,125.388 17.0228,84.2223 z" id="boundary" inkscape:connector-curvature="0" />
	<path style="fill:none;stroke:red;stroke-width:1px;stroke-linecap:butt;stroke-linejoin:miter;stroke-opacity:1" d="M 17.0228,84.2223 36.4668,45.2747 z" id="boundary" inkscape:connector-curvature="0" />
	<path style="fill:none;stroke:red;stroke-width:1px;stroke-linecap:butt;stroke-linejoin:miter;stroke-opacity:1" d="M 36.4668,45.2747 51.6771,32.0261 z" id="boundary" inkscape:connector-curvature="0" />
	<path style="fill:none;stroke:red;stroke-width:1px;stroke-linecap:butt;stroke-linejoin:miter;stroke-opacity:1" d="M 51.6771,32.0261 73.2354,16.8755 z" id="boundary" inkscape:connector-curvature="0" />
	<path style="fill:none;stroke:red;stroke-width:1px;stroke-linecap:butt;stroke-linejoin:miter;stroke-opacity:1" d="M 73.2354,16.8755 103.345,9.32544 z" id="boundary" inkscape:connector-curvature="0" />
	<path style="fill:none;stroke:red;stroke-width:1px;stroke-linecap:butt;stroke-linejoin:miter;stroke-opacity:1" d="M 103.345,9.32544 140.823,7.51036 z" id="boundary" inkscape:connector-curvature="0" />
	<path style="fill:none;stroke:red;stroke-width:1px;stroke-linecap:butt;stroke-linejoin:miter;stroke-opacity:1" d="M 140.823,7.51036 168.307,6.82207 z" id="boundary" inkscape:connector-curvature="0" />
	<circle cx="164.813" cy="70.1092" r="4" fill="#0" id="circle0"/>
	<circle cx="178.65" cy="76.5537" r="4" fill="#0" id="circle1"/>
	<circle cx="189.819" cy="95.307" r="4" fill="#0" id="circle2"/>
	<circle cx="199.437" cy="106.697" r="4" fill="#0" id="circle3"/>
	<circle cx="213.277" cy="108.044" r="4" fill="#0" id="circle4"/>
	<circle cx="231.489" cy="106.077" r="4" fill="#0" id="circle5"/>
	<circle cx="253.164" cy="106.803" r="4" fill="#0" id="circle6"/>
	<circle cx="267.441" cy="104.27" r="4" fill="#0" id="circle7"/>
	<circle cx="290.395" cy="104.02" r="4" fill="#0" id="circle8"/>
	<circle cx="247.079" cy="23.8448" r="4" fill="#0" id="circle9"/>
	<circle cx="264.341" cy="41.1089" r="4" fill="#0" id="circle10"/>
	<circle cx="278.555" cy="60.0428" r="4" fill="#0" id="circle11"/>
	<circle cx="287.419" cy="80.5496" r="4" fill="#0" id="circle12"/>
	<circle cx="140.823" cy="7.51036" r="4" fill="#0" id="circle13"/>
	<circle cx="168.307" cy="6.82207" r="4" fill="#0" id="circle14"/>
	<circle cx="205.805" cy="11.9032" r="4" fill="#0" id="circle15"/>
	<circle cx="103.345" cy="9.32544" r="4" fill="#0" id="circle16"/>
	<circle cx="73.2354" cy="16.8755" r="4" fill="#0" id="circle17"/>
	<circle cx="51.6771" cy="32.0261" r="4" fill="#0" id="circle18"/>
	<circle cx="36.4668" cy="45.2747" r="4" fill="#0" id="circle19"/>
	<circle cx="17.0228" cy="84.2223" r="4" fill="#0" id="circle20"/>
	<circle cx="19.3187" cy="125.388" r="4" fill="#0" id="circle21"/>
	<circle cx="42.5177" cy="160.228" r="4" fill="#0" id="circle22"/>
	<circle cx="70.669" cy="179.129" r="4" fill="#0" id="circle23"/>
	<circle cx="94.7771" cy="187.923" r="4" fill="#0" id="circle24"/>
	<circle cx="111.375" cy="199.345" r="4" fill="#0" id="circle25"/>
	<circle cx="135.938" cy="203.201" r="4" fill="#0" id="circle26"/>
	<circle cx="165.994" cy="212.667" r="4" fill="#0" id="circle27"/>
	<circle cx="201.142" cy="237.199" r="4" fill="#0" id="circle28"/>
	<circle cx="192.674" cy="272.87" r="4" fill="#0" id="circle29"/>
	<circle cx="164.105" cy="277.644" r="4" fill="#0" id="circle30"/>
	<circle cx="125.484" cy="272.408" r="4" fill="#0" id="circle31"/>
	<circle cx="107.017" cy="251.901" r="4" fill="#0" id="circle32"/>
	<circle cx="100.345" cy="229.547" r="4" fill="#0" id="circle33"/>
	<circle cx="78.5144" cy="228.633" r="4" fill="#0" id="circle34"/>
	<circle cx="49.9417" cy="232.585" r="4" fill="#0" id="circle35"/>
	<circle cx="4.10491" cy="228.468" r="4" fill="#0" id="circle36"/>
	<circle cx="4" cy="261.244" r="4" fill="#0" id="circle37"/>
	<circle cx="26.0367" cy="297.075" r="4" fill="#0" id="circle38"/>
	<circle cx="53.7529" cy="324.953" r="4" fill="#0" id="circle39"/>
	<circle cx="90.89" cy="344.107" r="4" fill="#0" id="circle40"/>
	<circle cx="146.361" cy="345.605" r="4" fill="#0" id="circle41"/>
	<circle cx="191.838" cy="349.062" r="4" fill="#0" id="circle42"/>
	<circle cx="240.54" cy="333.544" r="4" fill="#0" id="circle43"/>
	<circle cx="275.719" cy="310.879" r="4" fill="#0" id="circle44"/>
	<circle cx="285.386" cy="286.04" r="4" fill="#0" id="circle45"/>
	<circle cx="293.256" cy="264.87" r="4" fill="#0" id="circle46"/>
	<circle cx="296.121" cy="240.5" r="4" fill="#0" id="circle47"/>
	<circle cx="294.884" cy="211.233" r="4" fill="#0" id="circle48"/>
	<circle cx="282.605" cy="179.179" r="4" fill="#0" id="circle49"/>
	<circle cx="261.41" cy="161.087" r="4" fill="#0" id="circle50"/>
	<circle cx="236.004" cy="144.68" r="4" fill="#0" id="circle51"/>
	<circle cx="224.577" cy="137.436" r="4" fill="#0" id="circle52"/>
	<circle cx="206.499" cy="135.768" r="4" fill="#0" id="circle53"/>
	<circle cx="190.16" cy="130.728" r="4" fill="#0" id="circle54"/>
	<circle cx="172.639" cy="126.069" r="4" fill="#0" id="circle55"/>
	<circle cx="152.306" cy="120.588" r="4" fill="#0" id="circle56"/>
	<circle cx="122.489" cy="114.283" r="4" fill="#0" id="circle57"/>
	<circle cx="109.687" cy="89.4373" r="4" fill="#0" id="circle58"/>
	<circle cx="124.102" cy="66.8867" r="4" fill="#0" id="circle59"/>
	<circle cx="148.48" cy="70.3002" r="4" fill="#0" id="circle60"/>
	<circle cx="469.491" cy="87.2741" r="4" fill="#0" id="circle61"/>
	<circle cx="509.845" cy="75.6949" r="4" fill="#0" id="circle62"/>
	<circle cx="546.175" cy="89.6468" r="4" fill="#0" id="circle63"/>
	<circle cx="566.732" cy="113.702" r="4" fill="#0" id="circle64"/>
	<circle cx="443.8" cy="119.053" r="4" fill="#0" id="circle65"/>
	<circle cx="434.485" cy="162.408" r="4" fill="#0" id="circle66"/>
	<circle cx="434.21" cy="205.764" r="4" fill="#0" id="circle67"/>
	<circle cx="453.847" cy="248.81" r="4" fill="#0" id="circle68"/>
	<circle cx="489.546" cy="270.077" r="4" fill="#0" id="circle69"/>
	<circle cx="517.065" cy="271.785" r="4" fill="#0" id="circle70"/>
	<circle cx="539.667" cy="271.483" r="4" fill="#0" id="circle71"/>
	<circle cx="567.342" cy="262.772" r="4" fill="#0" id="circle72"/>
	<circle cx="570.923" cy="241.703" r="4" fill="#0" id="circle73"/>
	<circle cx="573.307" cy="216.267" r="4" fill="#0" id="circle74"/>
	<circle cx="556.944" cy="220.565" r="4" fill="#0" id="circle75"/>
	<circle cx="540.906" cy="222.998" r="4" fill="#0" id="circle76"/>
	<circle cx="509.77" cy="223.355" r="4" fill="#0" id="circle77"/>
	<circle cx="506.613" cy="188.114" r="4" fill="#0" id="circle78"/>
	<circle cx="501.154" cy="152.797" r="4" fill="#0" id="circle79"/>
	<circle cx="533.396" cy="150.207" r="4" fill="#0" id="circle80"/>
	<circle cx="560.639" cy="153.967" r="4" fill="#0" id="circle81"/>
	<circle cx="578.637" cy="153.674" r="4" fill="#0" id="circle82"/>
	<circle cx="607.781" cy="154.17" r="4" fill="#0" id="circle83"/>
	<circle cx="638.552" cy="154.619" r="4" fill="#0" id="circle84"/>
	<circle cx="666.309" cy="154.504" r="4" fill="#0" id="circle85"/>
	<circle cx="670.261" cy="177.607" r="4" fill="#0" id="circle86"/>
	<circle cx="665.056" cy="209.234" r="4" fill="#0" id="circle87"/>
	<circle cx="670.758" cy="237.858" r="4" fill="#0" id="circle88"/>
	<circle cx="666.042" cy="265.115" r="4" fill="#0" id="circle89"/>
	<circle cx="669.525" cy="289.26" r="4" fill="#0" id="circle90"/>
	<circle cx="641.183" cy="309.359" r="4" fill="#0" id="circle91"/>
	<circle cx="604.562" cy="329.55" r="4" fill="#0" id="circle92"/>
	<circle cx="571.105" cy="338.892" r="4" fill="#0" id="circle93"/>
	<circle cx="538.084" cy="340.407" r="4" fill="#0" id="circle94"/>
	<circle cx="492.938" cy="338.135" r="4" fill="#0" id="circle95"/>
	<circle cx="451.429" cy="333.706" r="4" fill="#0" id="circle96"/>
	<circle cx="413.978" cy="319.48" r="4" fill="#0" id="circle97"/>
	<circle cx="379.008" cy="300.393" r="4" fill="#0" id="circle98"/>
	<circle cx="351.8" cy="268.041" r="4" fill="#0" id="circle99"/>
	<circle cx="339.154" cy="235.644" r="4" fill="#0" id="circle100"/>
	<circle cx="330.647" cy="204.183" r="4" fill="#0" id="circle101"/>
	<circle cx="330.634" cy="175.792" r="4" fill="#0" id="circle102"/>
	<circle cx="333.797" cy="139.254" r="4" fill="#0" id="circle103"/>
	<circle cx="335.23" cy="115.536" r="4" fill="#0" id="circle104"/>
	<circle cx="348.713" cy="83.0115" r="4" fill="#0" id="circle105"/>
	<circle cx="369.808" cy="56.1739" r="4" fill="#0" id="circle106"/>
	<circle cx="405.302" cy="30.1619" r="4" fill="#0" id="circle107"/>
	<circle cx="460.057" cy="14.2245" r="4" fill="#0" id="circle108"/>
	<circle cx="515.571" cy="5.70965" r="4" fill="#0" id="circle109"/>
	<circle cx="564.052" cy="5.59608" r="4" fill="#0" id="circle110"/>
	<circle cx="604.177" cy="18.5561" r="4" fill="#0" id="circle111"/>
	<circle cx="634.081" cy="45.195" r="4" fill="#0" id="circle112"/>
	<circle cx="647.793" cy="74.8735" r="4" fill="#0" id="circle113"/>
	<circle cx="659.833" cy="97.3157" r="4" fill="#0" id="circle114"/>
	<circle cx="583.479" cy="111.689" r="4" fill="#0" id="circle115"/>
	<circle cx="608.27" cy="106.197" r="4" fill="#0" id="circle116"/>
	<circle cx="630.117" cy="107.015" r="4" fill="#0" id="circle117"/>
	<circle cx="648.651" cy="97.2784" r="4" fill="#0" id="circle118"/>
	<circle cx="706.978" cy="11.2165" r="4" fill="#0" id="circle119"/>
	<circle cx="707.971" cy="56.0739" r="4" fill="#0" id="circle120"/>
	<circle cx="713.68" cy="90.1388" r="4" fill="#0" id="circle121"/>
	<circle cx="712.233" cy="125.354" r="4" fill="#0" id="circle122"/>
	<circle cx="712.801" cy="162.187" r="4" fill="#0" id="circle123"/>
	<circle cx="712.612" cy="192.513" r="4" fill="#0" id="circle124"/>
	<circle cx="709.481" cy="224.329" r="4" fill="#0" id="circle125"/>
	<circle cx="713.032" cy="257.131" r="4" fill="#0" id="circle126"/>
	<circle cx="711.384" cy="278.308" r="4" fill="#0" id="circle127"/>
	<circle cx="709.123" cy="305.647" r="4" fill="#0" id="circle128"/>
	<circle cx="709.062" cy="330.401" r="4" fill="#0" id="circle129"/>
	<circle cx="706.427" cy="348.334" r="4" fill="#0" id="circle130"/>
	<circle cx="744.053" cy="351.022" r="4" fill="#0" id="circle131"/>
	<circle cx="773.269" cy="350.589" r="4" fill="#0" id="circle132"/>
	<circle cx="797.443" cy="345.622" r="4" fill="#0" id="circle133"/>
	<circle cx="812.737" cy="350.55" r="4" fill="#0" id="circle134"/>
	<circle cx="816.352" cy="323.409" r="4" fill="#0" id="circle135"/>
	<circle cx="811.925" cy="284.511" r="4" fill="#0" id="circle136"/>
	<circle cx="814.356" cy="244.494" r="4" fill="#0" id="circle137"/>
	<circle cx="815.166" cy="211.551" r="4" fill="#0" id="circle138"/>
	<circle cx="841.935" cy="213.668" r="4" fill="#0" id="circle139"/>
	<circle cx="867.767" cy="213.342" r="4" fill="#0" id="circle140"/>
	<circle cx="901.704" cy="211.28" r="4" fill="#0" id="circle141"/>
	<circle cx="937.173" cy="204.627" r="4" fill="#0" id="circle142"/>
	<circle cx="963.777" cy="183.622" r="4" fill="#0" id="circle143"/>
	<circle cx="987.459" cy="152.059" r="4" fill="#0" id="circle144"/>
	<circle cx="996" cy="116.201" r="4" fill="#0" id="circle145"/>
	<circle cx="991.352" cy="82.6946" r="4" fill="#0" id="circle146"/>
	<circle cx="971.36" cy="39.8707" r="4" fill="#0" id="circle147"/>
	<circle cx="932.936" cy="12.9036" r="4" fill="#0" id="circle148"/>
	<circle cx="876.456" cy="6.24438" r="4" fill="#0" id="circle149"/>
	<circle cx="824.168" cy="4" r="4" fill="#0" id="circle150"/>
	<circle cx="769.396" cy="5.69089" r="4" fill="#0" id="circle151"/>
	<circle cx="813.919" cy="76.455" r="4" fill="#0" id="circle152"/>
	<circle cx="814.528" cy="96.327" r="4" fill="#0" id="circle153"/>
	<circle cx="808.618" cy="115.921" r="4" fill="#0" id="circle154"/>
	<circle cx="812.636" cy="136.142" r="4" fill="#0" id="circle155"/>
	<circle cx="828.907" cy="139.65" r="4" fill="#0" id="circle156"/>
	<circle cx="848.863" cy="138.674" r="4" fill="#0" id="circle157"/>
	<circle cx="863.393" cy="137.61" r="4" fill="#0" id="circle158"/>
	<circle cx="879.15" cy="126.402" r="4" fill="#0" id="circle159"/>
	<circle cx="888.158" cy="106.973" r="4" fill="#0" id="circle160"/>
	<circle cx="889.311" cy="81.6752" r="4" fill="#0" id="circle161"/>
	<circle cx="864.833" cy="77.8157" r="4" fill="#0" id="circle162"/>
	<circle cx="840.143" cy="73.3191" r="4" fill="#0" id="circle163"/>
	</g>
</svg>