<?xml version="1.0" encoding="UTF-8" standalone="no"?>
<!-- Created with CurveBenchmark -->
<svg
	xmlns:dc="http://purl.org/dc/elements/1.1/"
	xmlns:cc="http://creativecommons.org/ns#"
	xmlns:rdf="http://www.w3.org/1999/02/22-rdf-syntax-ns#"
	xmlns:svg="http://www.w3.org/2000/svg"
	xmlns="http://www.w3.org/2000/svg"
	xmlns:sodipodi="http://sodipodi.sourceforge.net/DTD/sodipodi-0.dtd"
	xmlns:inkscape="http://www.inkscape.org/namespaces/inkscape"
	width="1000"
	height="1000"
	id="svg2"
	version="1.1"
	sodipodi:docname="noisy-0.003/discur-mc3.txt">
<defs
	id="defs4" />
<metadata
	id="metadata7">
	<rdf:RDF>
		<cc:Work
			rdf:about="">
			<dc:format>image/svg+xml</dc:format>
			<dc:type
				rdf:resource="http://purl.org/dc/dcmitype/StillImage" />
			<dc:title></dc:title>
		</cc:Work>
	</rdf:RDF>
</metadata>
<g
	inkscape:label="Layer 1"
	inkscape:groupmode="layer"
	id="layer1">
	<path style="fill:none;stroke:red;stroke-width:1px;stroke-linecap:butt;stroke-linejoin:miter;stroke-opacity:1" d="M 425.251,422.102 432.76,362.466 z" id="boundary" inkscape:connector-curvature="0" />
	<path style="fill:none;stroke:red;stroke-width:1px;stroke-linecap:butt;stroke-linejoin:miter;stroke-opacity:1" d="M 425.251,422.102 414.509,452.878 z" id="boundary" inkscape:connector-curvature="0" />
	<path style="fill:none;stroke:red;stroke-width:1px;stroke-linecap:butt;stroke-linejoin:miter;stroke-opacity:1" d="M 432.76,362.466 424.658,309.419 z" id="boundary" inkscape:connector-curvature="0" />
	<path style="fill:none;stroke:red;stroke-width:1px;stroke-linecap:butt;stroke-linejoin:miter;stroke-opacity:1" d="M 424.658,309.419 417.134,269.504 z" id="boundary" inkscape:connector-curvature="0" />
	<path style="fill:none;stroke:red;stroke-width:1px;stroke-linecap:butt;stroke-linejoin:miter;stroke-opacity:1" d="M 417.134,269.504 392.989,232.592 z" id="boundary" inkscape:connector-curvature="0" />
	<path style="fill:none;stroke:red;stroke-width:1px;stroke-linecap:butt;stroke-linejoin:miter;stroke-opacity:1" d="M 392.989,232.592 357.915,210.865 z" id="boundary" inkscape:connector-curvature="0" />
	<path style="fill:none;stroke:red;stroke-width:1px;stroke-linecap:butt;stroke-linejoin:miter;stroke-opacity:1" d="M 357.915,210.865 323.676,197.754 z" id="boundary" inkscape:connector-curvature="0" />
	<path style="fill:none;stroke:red;stroke-width:1px;stroke-linecap:butt;stroke-linejoin:miter;stroke-opacity:1" d="M 323.676,197.754 285.381,197.926 z" id="boundary" inkscape:connector-curvature="0" />
	<path style="fill:none;stroke:red;stroke-width:1px;stroke-linecap:butt;stroke-linejoin:miter;stroke-opacity:1" d="M 285.381,197.926 256.353,210.13 z" id="boundary" inkscape:connector-curvature="0" />
	<path style="fill:none;stroke:red;stroke-width:1px;stroke-linecap:butt;stroke-linejoin:miter;stroke-opacity:1" d="M 256.353,210.13 225.282,225.117 z" id="boundary" inkscape:connector-curvature="0" />
	<path style="fill:none;stroke:red;stroke-width:1px;stroke-linecap:butt;stroke-linejoin:miter;stroke-opacity:1" d="M 225.282,225.117 192.907,247.487 z" id="boundary" inkscape:connector-curvature="0" />
	<path style="fill:none;stroke:red;stroke-width:1px;stroke-linecap:butt;stroke-linejoin:miter;stroke-opacity:1" d="M 192.907,247.487 160.245,270.964 z" id="boundary" inkscape:connector-curvature="0" />
	<path style="fill:none;stroke:red;stroke-width:1px;stroke-linecap:butt;stroke-linejoin:miter;stroke-opacity:1" d="M 160.245,270.964 126.667,305.971 z" id="boundary" inkscape:connector-curvature="0" />
	<path style="fill:none;stroke:red;stroke-width:1px;stroke-linecap:butt;stroke-linejoin:miter;stroke-opacity:1" d="M 126.667,305.971 95.2336,341.813 z" id="boundary" inkscape:connector-curvature="0" />
	<path style="fill:none;stroke:red;stroke-width:1px;stroke-linecap:butt;stroke-linejoin:miter;stroke-opacity:1" d="M 95.2336,341.813 61.6339,377.837 z" id="boundary" inkscape:connector-curvature="0" />
	<path style="fill:none;stroke:red;stroke-width:1px;stroke-linecap:butt;stroke-linejoin:miter;stroke-opacity:1" d="M 61.6339,377.837 46.3243,407.856 z" id="boundary" inkscape:connector-curvature="0" />
	<path style="fill:none;stroke:red;stroke-width:1px;stroke-linecap:butt;stroke-linejoin:miter;stroke-opacity:1" d="M 46.3243,407.856 31.4263,447.541 z" id="boundary" inkscape:connector-curvature="0" />
	<path style="fill:none;stroke:red;stroke-width:1px;stroke-linecap:butt;stroke-linejoin:miter;stroke-opacity:1" d="M 31.4263,447.541 18.9083,486.096 z" id="boundary" inkscape:connector-curvature="0" />
	<path style="fill:none;stroke:red;stroke-width:1px;stroke-linecap:butt;stroke-linejoin:miter;stroke-opacity:1" d="M 18.9083,486.096 14.8278,521.063 z" id="boundary" inkscape:connector-curvature="0" />
	<path style="fill:none;stroke:red;stroke-width:1px;stroke-linecap:butt;stroke-linejoin:miter;stroke-opacity:1" d="M 14.8278,521.063 9.46287,563.187 z" id="boundary" inkscape:connector-curvature="0" />
	<path style="fill:none;stroke:red;stroke-width:1px;stroke-linecap:butt;stroke-linejoin:miter;stroke-opacity:1" d="M 9.46287,563.187 4,601.891 z" id="boundary" inkscape:connector-curvature="0" />
	<path style="fill:none;stroke:red;stroke-width:1px;stroke-linecap:butt;stroke-linejoin:miter;stroke-opacity:1" d="M 4,601.891 5.05079,648.367 z" id="boundary" inkscape:connector-curvature="0" />
	<path style="fill:none;stroke:red;stroke-width:1px;stroke-linecap:butt;stroke-linejoin:miter;stroke-opacity:1" d="M 5.05079,648.367 7.78057,695.054 z" id="boundary" inkscape:connector-curvature="0" />
	<path style="fill:none;stroke:red;stroke-width:1px;stroke-linecap:butt;stroke-linejoin:miter;stroke-opacity:1" d="M 7.78057,695.054 6.9425,729.04 z" id="boundary" inkscape:connector-curvature="0" />
	<path style="fill:none;stroke:red;stroke-width:1px;stroke-linecap:butt;stroke-linejoin:miter;stroke-opacity:1" d="M 6.9425,729.04 18.348,770.998 z" id="boundary" inkscape:connector-curvature="0" />
	<path style="fill:none;stroke:red;stroke-width:1px;stroke-linecap:butt;stroke-linejoin:miter;stroke-opacity:1" d="M 18.348,770.998 21.5936,818.619 z" id="boundary" inkscape:connector-curvature="0" />
	<path style="fill:none;stroke:red;stroke-width:1px;stroke-linecap:butt;stroke-linejoin:miter;stroke-opacity:1" d="M 21.5936,818.619 34.9182,850.758 z" id="boundary" inkscape:connector-curvature="0" />
	<path style="fill:none;stroke:red;stroke-width:1px;stroke-linecap:butt;stroke-linejoin:miter;stroke-opacity:1" d="M 34.9182,850.758 44.9494,890.303 z" id="boundary" inkscape:connector-curvature="0" />
	<path style="fill:none;stroke:red;stroke-width:1px;stroke-linecap:butt;stroke-linejoin:miter;stroke-opacity:1" d="M 44.9494,890.303 74.6738,926.45 z" id="boundary" inkscape:connector-curvature="0" />
	<path style="fill:none;stroke:red;stroke-width:1px;stroke-linecap:butt;stroke-linejoin:miter;stroke-opacity:1" d="M 74.6738,926.45 101.304,964.784 z" id="boundary" inkscape:connector-curvature="0" />
	<path style="fill:none;stroke:red;stroke-width:1px;stroke-linecap:butt;stroke-linejoin:miter;stroke-opacity:1" d="M 101.304,964.784 134.783,978.351 z" id="boundary" inkscape:connector-curvature="0" />
	<path style="fill:none;stroke:red;stroke-width:1px;stroke-linecap:butt;stroke-linejoin:miter;stroke-opacity:1" d="M 134.783,978.351 162.685,993.416 z" id="boundary" inkscape:connector-curvature="0" />
	<path style="fill:none;stroke:red;stroke-width:1px;stroke-linecap:butt;stroke-linejoin:miter;stroke-opacity:1" d="M 162.685,993.416 201.38,996 z" id="boundary" inkscape:connector-curvature="0" />
	<path style="fill:none;stroke:red;stroke-width:1px;stroke-linecap:butt;stroke-linejoin:miter;stroke-opacity:1" d="M 201.38,996 232.135,987.134 z" id="boundary" inkscape:connector-curvature="0" />
	<path style="fill:none;stroke:red;stroke-width:1px;stroke-linecap:butt;stroke-linejoin:miter;stroke-opacity:1" d="M 232.135,987.134 262.652,959.763 z" id="boundary" inkscape:connector-curvature="0" />
	<path style="fill:none;stroke:red;stroke-width:1px;stroke-linecap:butt;stroke-linejoin:miter;stroke-opacity:1" d="M 262.652,959.763 283.598,928.049 z" id="boundary" inkscape:connector-curvature="0" />
	<path style="fill:none;stroke:red;stroke-width:1px;stroke-linecap:butt;stroke-linejoin:miter;stroke-opacity:1" d="M 283.598,928.049 291.414,880.185 z" id="boundary" inkscape:connector-curvature="0" />
	<path style="fill:none;stroke:red;stroke-width:1px;stroke-linecap:butt;stroke-linejoin:miter;stroke-opacity:1" d="M 291.414,880.185 289.076,836.209 z" id="boundary" inkscape:connector-curvature="0" />
	<path style="fill:none;stroke:red;stroke-width:1px;stroke-linecap:butt;stroke-linejoin:miter;stroke-opacity:1" d="M 289.076,836.209 296.205,797.371 z" id="boundary" inkscape:connector-curvature="0" />
	<path style="fill:none;stroke:red;stroke-width:1px;stroke-linecap:butt;stroke-linejoin:miter;stroke-opacity:1" d="M 296.205,797.371 300.285,754.837 z" id="boundary" inkscape:connector-curvature="0" />
	<path style="fill:none;stroke:red;stroke-width:1px;stroke-linecap:butt;stroke-linejoin:miter;stroke-opacity:1" d="M 300.285,754.837 305.164,714.19 z" id="boundary" inkscape:connector-curvature="0" />
	<path style="fill:none;stroke:red;stroke-width:1px;stroke-linecap:butt;stroke-linejoin:miter;stroke-opacity:1" d="M 305.164,714.19 314.257,674.843 z" id="boundary" inkscape:connector-curvature="0" />
	<path style="fill:none;stroke:red;stroke-width:1px;stroke-linecap:butt;stroke-linejoin:miter;stroke-opacity:1" d="M 314.257,674.843 319.819,637.199 z" id="boundary" inkscape:connector-curvature="0" />
	<path style="fill:none;stroke:red;stroke-width:1px;stroke-linecap:butt;stroke-linejoin:miter;stroke-opacity:1" d="M 319.819,637.199 338.874,597.348 z" id="boundary" inkscape:connector-curvature="0" />
	<path style="fill:none;stroke:red;stroke-width:1px;stroke-linecap:butt;stroke-linejoin:miter;stroke-opacity:1" d="M 338.874,597.348 351.935,565.649 z" id="boundary" inkscape:connector-curvature="0" />
	<path style="fill:none;stroke:red;stroke-width:1px;stroke-linecap:butt;stroke-linejoin:miter;stroke-opacity:1" d="M 351.935,565.649 368.006,527.771 z" id="boundary" inkscape:connector-curvature="0" />
	<path style="fill:none;stroke:red;stroke-width:1px;stroke-linecap:butt;stroke-linejoin:miter;stroke-opacity:1" d="M 368.006,527.771 393.354,490.353 z" id="boundary" inkscape:connector-curvature="0" />
	<path style="fill:none;stroke:red;stroke-width:1px;stroke-linecap:butt;stroke-linejoin:miter;stroke-opacity:1" d="M 393.354,490.353 414.509,452.878 z" id="boundary" inkscape:connector-curvature="0" />
	<path style="fill:none;stroke:red;stroke-width:1px;stroke-linecap:butt;stroke-linejoin:miter;stroke-opacity:1" d="M 638.21,448.509 641.112,387.913 z" id="boundary" inkscape:connector-curvature="0" />
	<path style="fill:none;stroke:red;stroke-width:1px;stroke-linecap:butt;stroke-linejoin:miter;stroke-opacity:1" d="M 638.21,448.509 627.933,493.714 z" id="boundary" inkscape:connector-curvature="0" />
	<path style="fill:none;stroke:red;stroke-width:1px;stroke-linecap:butt;stroke-linejoin:miter;stroke-opacity:1" d="M 641.112,387.913 639.27,339.166 z" id="boundary" inkscape:connector-curvature="0" />
	<path style="fill:none;stroke:red;stroke-width:1px;stroke-linecap:butt;stroke-linejoin:miter;stroke-opacity:1" d="M 639.27,339.166 631.868,287.589 z" id="boundary" inkscape:connector-curvature="0" />
	<path style="fill:none;stroke:red;stroke-width:1px;stroke-linecap:butt;stroke-linejoin:miter;stroke-opacity:1" d="M 631.868,287.589 633.258,249.221 z" id="boundary" inkscape:connector-curvature="0" />
	<path style="fill:none;stroke:red;stroke-width:1px;stroke-linecap:butt;stroke-linejoin:miter;stroke-opacity:1" d="M 633.258,249.221 622.124,210.742 z" id="boundary" inkscape:connector-curvature="0" />
	<path style="fill:none;stroke:red;stroke-width:1px;stroke-linecap:butt;stroke-linejoin:miter;stroke-opacity:1" d="M 622.124,210.742 615.268,178.579 z" id="boundary" inkscape:connector-curvature="0" />
	<path style="fill:none;stroke:red;stroke-width:1px;stroke-linecap:butt;stroke-linejoin:miter;stroke-opacity:1" d="M 615.268,178.579 606.851,144.944 z" id="boundary" inkscape:connector-curvature="0" />
	<path style="fill:none;stroke:red;stroke-width:1px;stroke-linecap:butt;stroke-linejoin:miter;stroke-opacity:1" d="M 606.851,144.944 607.908,105.169 z" id="boundary" inkscape:connector-curvature="0" />
	<path style="fill:none;stroke:red;stroke-width:1px;stroke-linecap:butt;stroke-linejoin:miter;stroke-opacity:1" d="M 607.908,105.169 620.615,64.3014 z" id="boundary" inkscape:connector-curvature="0" />
	<path style="fill:none;stroke:red;stroke-width:1px;stroke-linecap:butt;stroke-linejoin:miter;stroke-opacity:1" d="M 620.615,64.3014 642.174,27.9617 z" id="boundary" inkscape:connector-curvature="0" />
	<path style="fill:none;stroke:red;stroke-width:1px;stroke-linecap:butt;stroke-linejoin:miter;stroke-opacity:1" d="M 642.174,27.9617 678.802,8.06085 z" id="boundary" inkscape:connector-curvature="0" />
	<path style="fill:none;stroke:red;stroke-width:1px;stroke-linecap:butt;stroke-linejoin:miter;stroke-opacity:1" d="M 678.802,8.06085 711.011,7.51034 z" id="boundary" inkscape:connector-curvature="0" />
	<path style="fill:none;stroke:red;stroke-width:1px;stroke-linecap:butt;stroke-linejoin:miter;stroke-opacity:1" d="M 711.011,7.51034 741.169,4 z" id="boundary" inkscape:connector-curvature="0" />
	<path style="fill:none;stroke:red;stroke-width:1px;stroke-linecap:butt;stroke-linejoin:miter;stroke-opacity:1" d="M 741.169,4 770.521,16.6203 z" id="boundary" inkscape:connector-curvature="0" />
	<path style="fill:none;stroke:red;stroke-width:1px;stroke-linecap:butt;stroke-linejoin:miter;stroke-opacity:1" d="M 770.521,16.6203 802.914,40.5495 z" id="boundary" inkscape:connector-curvature="0" />
	<path style="fill:none;stroke:red;stroke-width:1px;stroke-linecap:butt;stroke-linejoin:miter;stroke-opacity:1" d="M 802.914,40.5495 834.028,70.5686 z" id="boundary" inkscape:connector-curvature="0" />
	<path style="fill:none;stroke:red;stroke-width:1px;stroke-linecap:butt;stroke-linejoin:miter;stroke-opacity:1" d="M 834.028,70.5686 869.47,108.635 z" id="boundary" inkscape:connector-curvature="0" />
	<path style="fill:none;stroke:red;stroke-width:1px;stroke-linecap:butt;stroke-linejoin:miter;stroke-opacity:1" d="M 869.47,108.635 886.405,143.709 z" id="boundary" inkscape:connector-curvature="0" />
	<path style="fill:none;stroke:red;stroke-width:1px;stroke-linecap:butt;stroke-linejoin:miter;stroke-opacity:1" d="M 886.405,143.709 905.822,180.109 z" id="boundary" inkscape:connector-curvature="0" />
	<path style="fill:none;stroke:red;stroke-width:1px;stroke-linecap:butt;stroke-linejoin:miter;stroke-opacity:1" d="M 905.822,180.109 920.115,214.774 z" id="boundary" inkscape:connector-curvature="0" />
	<path style="fill:none;stroke:red;stroke-width:1px;stroke-linecap:butt;stroke-linejoin:miter;stroke-opacity:1" d="M 920.115,214.774 932.106,250.351 z" id="boundary" inkscape:connector-curvature="0" />
	<path style="fill:none;stroke:red;stroke-width:1px;stroke-linecap:butt;stroke-linejoin:miter;stroke-opacity:1" d="M 932.106,250.351 943.402,290.857 z" id="boundary" inkscape:connector-curvature="0" />
	<path style="fill:none;stroke:red;stroke-width:1px;stroke-linecap:butt;stroke-linejoin:miter;stroke-opacity:1" d="M 943.402,290.857 955.896,327.832 z" id="boundary" inkscape:connector-curvature="0" />
	<path style="fill:none;stroke:red;stroke-width:1px;stroke-linecap:butt;stroke-linejoin:miter;stroke-opacity:1" d="M 955.896,327.832 960.145,370.621 z" id="boundary" inkscape:connector-curvature="0" />
	<path style="fill:none;stroke:red;stroke-width:1px;stroke-linecap:butt;stroke-linejoin:miter;stroke-opacity:1" d="M 960.145,370.621 963.776,399.946 z" id="boundary" inkscape:connector-curvature="0" />
	<path style="fill:none;stroke:red;stroke-width:1px;stroke-linecap:butt;stroke-linejoin:miter;stroke-opacity:1" d="M 963.776,399.946 968.466,457.793 z" id="boundary" inkscape:connector-curvature="0" />
	<path style="fill:none;stroke:red;stroke-width:1px;stroke-linecap:butt;stroke-linejoin:miter;stroke-opacity:1" d="M 968.466,457.793 961.573,519.315 z" id="boundary" inkscape:connector-curvature="0" />
	<path style="fill:none;stroke:red;stroke-width:1px;stroke-linecap:butt;stroke-linejoin:miter;stroke-opacity:1" d="M 961.573,519.315 960.832,559.679 z" id="boundary" inkscape:connector-curvature="0" />
	<path style="fill:none;stroke:red;stroke-width:1px;stroke-linecap:butt;stroke-linejoin:miter;stroke-opacity:1" d="M 960.832,559.679 941.459,598.842 z" id="boundary" inkscape:connector-curvature="0" />
	<path style="fill:none;stroke:red;stroke-width:1px;stroke-linecap:butt;stroke-linejoin:miter;stroke-opacity:1" d="M 941.459,598.842 931.129,634.725 z" id="boundary" inkscape:connector-curvature="0" />
	<path style="fill:none;stroke:red;stroke-width:1px;stroke-linecap:butt;stroke-linejoin:miter;stroke-opacity:1" d="M 931.129,634.725 906.773,664.792 z" id="boundary" inkscape:connector-curvature="0" />
	<path style="fill:none;stroke:red;stroke-width:1px;stroke-linecap:butt;stroke-linejoin:miter;stroke-opacity:1" d="M 906.773,664.792 882.98,702.258 z" id="boundary" inkscape:connector-curvature="0" />
	<path style="fill:none;stroke:red;stroke-width:1px;stroke-linecap:butt;stroke-linejoin:miter;stroke-opacity:1" d="M 882.98,702.258 859.17,738.88 z" id="boundary" inkscape:connector-curvature="0" />
	<path style="fill:none;stroke:red;stroke-width:1px;stroke-linecap:butt;stroke-linejoin:miter;stroke-opacity:1" d="M 859.17,738.88 821.398,773.668 z" id="boundary" inkscape:connector-curvature="0" />
	<path style="fill:none;stroke:red;stroke-width:1px;stroke-linecap:butt;stroke-linejoin:miter;stroke-opacity:1" d="M 821.398,773.668 788.896,802.463 z" id="boundary" inkscape:connector-curvature="0" />
	<path style="fill:none;stroke:red;stroke-width:1px;stroke-linecap:butt;stroke-linejoin:miter;stroke-opacity:1" d="M 788.896,802.463 758.102,817.126 z" id="boundary" inkscape:connector-curvature="0" />
	<path style="fill:none;stroke:red;stroke-width:1px;stroke-linecap:butt;stroke-linejoin:miter;stroke-opacity:1" d="M 758.102,817.126 722.225,820.492 z" id="boundary" inkscape:connector-curvature="0" />
	<path style="fill:none;stroke:red;stroke-width:1px;stroke-linecap:butt;stroke-linejoin:miter;stroke-opacity:1" d="M 722.225,820.492 699.523,808.149 z" id="boundary" inkscape:connector-curvature="0" />
	<path style="fill:none;stroke:red;stroke-width:1px;stroke-linecap:butt;stroke-linejoin:miter;stroke-opacity:1" d="M 699.523,808.149 662.967,796.731 z" id="boundary" inkscape:connector-curvature="0" />
	<path style="fill:none;stroke:red;stroke-width:1px;stroke-linecap:butt;stroke-linejoin:miter;stroke-opacity:1" d="M 662.967,796.731 633.129,758.042 z" id="boundary" inkscape:connector-curvature="0" />
	<path style="fill:none;stroke:red;stroke-width:1px;stroke-linecap:butt;stroke-linejoin:miter;stroke-opacity:1" d="M 633.129,758.042 611.072,721.071 z" id="boundary" inkscape:connector-curvature="0" />
	<path style="fill:none;stroke:red;stroke-width:1px;stroke-linecap:butt;stroke-linejoin:miter;stroke-opacity:1" d="M 611.072,721.071 601.603,688.116 z" id="boundary" inkscape:connector-curvature="0" />
	<path style="fill:none;stroke:red;stroke-width:1px;stroke-linecap:butt;stroke-linejoin:miter;stroke-opacity:1" d="M 601.603,688.116 594.497,648.495 z" id="boundary" inkscape:connector-curvature="0" />
	<path style="fill:none;stroke:red;stroke-width:1px;stroke-linecap:butt;stroke-linejoin:miter;stroke-opacity:1" d="M 594.497,648.495 597.118,607.458 z" id="boundary" inkscape:connector-curvature="0" />
	<path style="fill:none;stroke:red;stroke-width:1px;stroke-linecap:butt;stroke-linejoin:miter;stroke-opacity:1" d="M 597.118,607.458 605.453,566.821 z" id="boundary" inkscape:connector-curvature="0" />
	<path style="fill:none;stroke:red;stroke-width:1px;stroke-linecap:butt;stroke-linejoin:miter;stroke-opacity:1" d="M 605.453,566.821 616.128,526.178 z" id="boundary" inkscape:connector-curvature="0" />
	<path style="fill:none;stroke:red;stroke-width:1px;stroke-linecap:butt;stroke-linejoin:miter;stroke-opacity:1" d="M 616.128,526.178 627.933,493.714 z" id="boundary" inkscape:connector-curvature="0" />
	<circle cx="425.251" cy="422.102" r="4" fill="#0" id="circle0"/>
	<circle cx="432.76" cy="362.466" r="4" fill="#0" id="circle1"/>
	<circle cx="424.658" cy="309.419" r="4" fill="#0" id="circle2"/>
	<circle cx="417.134" cy="269.504" r="4" fill="#0" id="circle3"/>
	<circle cx="392.989" cy="232.592" r="4" fill="#0" id="circle4"/>
	<circle cx="357.915" cy="210.865" r="4" fill="#0" id="circle5"/>
	<circle cx="323.676" cy="197.754" r="4" fill="#0" id="circle6"/>
	<circle cx="285.381" cy="197.926" r="4" fill="#0" id="circle7"/>
	<circle cx="256.353" cy="210.13" r="4" fill="#0" id="circle8"/>
	<circle cx="225.282" cy="225.117" r="4" fill="#0" id="circle9"/>
	<circle cx="192.907" cy="247.487" r="4" fill="#0" id="circle10"/>
	<circle cx="160.245" cy="270.964" r="4" fill="#0" id="circle11"/>
	<circle cx="126.667" cy="305.971" r="4" fill="#0" id="circle12"/>
	<circle cx="95.2336" cy="341.813" r="4" fill="#0" id="circle13"/>
	<circle cx="61.6339" cy="377.837" r="4" fill="#0" id="circle14"/>
	<circle cx="46.3243" cy="407.856" r="4" fill="#0" id="circle15"/>
	<circle cx="31.4263" cy="447.541" r="4" fill="#0" id="circle16"/>
	<circle cx="18.9083" cy="486.096" r="4" fill="#0" id="circle17"/>
	<circle cx="14.8278" cy="521.063" r="4" fill="#0" id="circle18"/>
	<circle cx="9.46287" cy="563.187" r="4" fill="#0" id="circle19"/>
	<circle cx="4" cy="601.891" r="4" fill="#0" id="circle20"/>
	<circle cx="5.05079" cy="648.367" r="4" fill="#0" id="circle21"/>
	<circle cx="7.78057" cy="695.054" r="4" fill="#0" id="circle22"/>
	<circle cx="6.9425" cy="729.04" r="4" fill="#0" id="circle23"/>
	<circle cx="18.348" cy="770.998" r="4" fill="#0" id="circle24"/>
	<circle cx="21.5936" cy="818.619" r="4" fill="#0" id="circle25"/>
	<circle cx="34.9182" cy="850.758" r="4" fill="#0" id="circle26"/>
	<circle cx="44.9494" cy="890.303" r="4" fill="#0" id="circle27"/>
	<circle cx="74.6738" cy="926.45" r="4" fill="#0" id="circle28"/>
	<circle cx="101.304" cy="964.784" r="4" fill="#0" id="circle29"/>
	<circle cx="134.783" cy="978.351" r="4" fill="#0" id="circle30"/>
	<circle cx="162.685" cy="993.416" r="4" fill="#0" id="circle31"/>
	<circle cx="201.38" cy="996" r="4" fill="#0" id="circle32"/>
	<circle cx="232.135" cy="987.134" r="4" fill="#0" id="circle33"/>
	<circle cx="262.652" cy="959.763" r="4" fill="#0" id="circle34"/>
	<circle cx="283.598" cy="928.049" r="4" fill="#0" id="circle35"/>
	<circle cx="291.414" cy="880.185" r="4" fill="#0" id="circle36"/>
	<circle cx="289.076" cy="836.209" r="4" fill="#0" id="circle37"/>
	<circle cx="296.205" cy="797.371" r="4" fill="#0" id="circle38"/>
	<circle cx="300.285" cy="754.837" r="4" fill="#0" id="circle39"/>
	<circle cx="305.164" cy="714.19" r="4" fill="#0" id="circle40"/>
	<circle cx="314.257" cy="674.843" r="4" fill="#0" id="circle41"/>
	<circle cx="319.819" cy="637.199" r="4" fill="#0" id="circle42"/>
	<circle cx="338.874" cy="597.348" r="4" fill="#0" id="circle43"/>
	<circle cx="351.935" cy="565.649" r="4" fill="#0" id="circle44"/>
	<circle cx="368.006" cy="527.771" r="4" fill="#0" id="circle45"/>
	<circle cx="393.354" cy="490.353" r="4" fill="#0" id="circle46"/>
	<circle cx="414.509" cy="452.878" r="4" fill="#0" id="circle47"/>
	<circle cx="638.21" cy="448.509" r="4" fill="#0" id="circle48"/>
	<circle cx="641.112" cy="387.913" r="4" fill="#0" id="circle49"/>
	<circle cx="639.27" cy="339.166" r="4" fill="#0" id="circle50"/>
	<circle cx="631.868" cy="287.589" r="4" fill="#0" id="circle51"/>
	<circle cx="633.258" cy="249.221" r="4" fill="#0" id="circle52"/>
	<circle cx="622.124" cy="210.742" r="4" fill="#0" id="circle53"/>
	<circle cx="615.268" cy="178.579" r="4" fill="#0" id="circle54"/>
	<circle cx="606.851" cy="144.944" r="4" fill="#0" id="circle55"/>
	<circle cx="607.908" cy="105.169" r="4" fill="#0" id="circle56"/>
	<circle cx="620.615" cy="64.3014" r="4" fill="#0" id="circle57"/>
	<circle cx="642.174" cy="27.9617" r="4" fill="#0" id="circle58"/>
	<circle cx="678.802" cy="8.06085" r="4" fill="#0" id="circle59"/>
	<circle cx="711.011" cy="7.51034" r="4" fill="#0" id="circle60"/>
	<circle cx="741.169" cy="4" r="4" fill="#0" id="circle61"/>
	<circle cx="770.521" cy="16.6203" r="4" fill="#0" id="circle62"/>
	<circle cx="802.914" cy="40.5495" r="4" fill="#0" id="circle63"/>
	<circle cx="834.028" cy="70.5686" r="4" fill="#0" id="circle64"/>
	<circle cx="869.47" cy="108.635" r="4" fill="#0" id="circle65"/>
	<circle cx="886.405" cy="143.709" r="4" fill="#0" id="circle66"/>
	<circle cx="905.822" cy="180.109" r="4" fill="#0" id="circle67"/>
	<circle cx="920.115" cy="214.774" r="4" fill="#0" id="circle68"/>
	<circle cx="932.106" cy="250.351" r="4" fill="#0" id="circle69"/>
	<circle cx="943.402" cy="290.857" r="4" fill="#0" id="circle70"/>
	<circle cx="955.896" cy="327.832" r="4" fill="#0" id="circle71"/>
	<circle cx="960.145" cy="370.621" r="4" fill="#0" id="circle72"/>
	<circle cx="963.776" cy="399.946" r="4" fill="#0" id="circle73"/>
	<circle cx="968.466" cy="457.793" r="4" fill="#0" id="circle74"/>
	<circle cx="961.573" cy="519.315" r="4" fill="#0" id="circle75"/>
	<circle cx="960.832" cy="559.679" r="4" fill="#0" id="circle76"/>
	<circle cx="941.459" cy="598.842" r="4" fill="#0" id="circle77"/>
	<circle cx="931.129" cy="634.725" r="4" fill="#0" id="circle78"/>
	<circle cx="906.773" cy="664.792" r="4" fill="#0" id="circle79"/>
	<circle cx="882.98" cy="702.258" r="4" fill="#0" id="circle80"/>
	<circle cx="859.17" cy="738.88" r="4" fill="#0" id="circle81"/>
	<circle cx="821.398" cy="773.668" r="4" fill="#0" id="circle82"/>
	<circle cx="788.896" cy="802.463" r="4" fill="#0" id="circle83"/>
	<circle cx="758.102" cy="817.126" r="4" fill="#0" id="circle84"/>
	<circle cx="722.225" cy="820.492" r="4" fill="#0" id="circle85"/>
	<circle cx="699.523" cy="808.149" r="4" fill="#0" id="circle86"/>
	<circle cx="662.967" cy="796.731" r="4" fill="#0" id="circle87"/>
	<circle cx="633.129" cy="758.042" r="4" fill="#0" id="circle88"/>
	<circle cx="611.072" cy="721.071" r="4" fill="#0" id="circle89"/>
	<circle cx="601.603" cy="688.116" r="4" fill="#0" id="circle90"/>
	<circle cx="594.497" cy="648.495" r="4" fill="#0" id="circle91"/>
	<circle cx="597.118" cy="607.458" r="4" fill="#0" id="circle92"/>
	<circle cx="605.453" cy="566.821" r="4" fill="#0" id="circle93"/>
	<circle cx="616.128" cy="526.178" r="4" fill="#0" id="circle94"/>
	<circle cx="627.933" cy="493.714" r="4" fill="#0" id="circle95"/>
	</g>
</svg>