<?xml version="1.0" encoding="UTF-8" standalone="no"?>
<!-- Created with CurveBenchmark -->
<svg
	xmlns:dc="http://purl.org/dc/elements/1.1/"
	xmlns:cc="http://creativecommons.org/ns#"
	xmlns:rdf="http://www.w3.org/1999/02/22-rdf-syntax-ns#"
	xmlns:svg="http://www.w3.org/2000/svg"
	xmlns="http://www.w3.org/2000/svg"
	xmlns:sodipodi="http://sodipodi.sourceforge.net/DTD/sodipodi-0.dtd"
	xmlns:inkscape="http://www.inkscape.org/namespaces/inkscape"
	width="1000"
	height="1000"
	id="svg2"
	version="1.1"
	sodipodi:docname="noisy-0.003/gathang-mc7.txt">
<defs
	id="defs4" />
<metadata
	id="metadata7">
	<rdf:RDF>
		<cc:Work
			rdf:about="">
			<dc:format>image/svg+xml</dc:format>
			<dc:type
				rdf:resource="http://purl.org/dc/dcmitype/StillImage" />
			<dc:title></dc:title>
		</cc:Work>
	</rdf:RDF>
</metadata>
<g
	inkscape:label="Layer 1"
	inkscape:groupmode="layer"
	id="layer1">
	<path style="fill:none;stroke:red;stroke-width:1px;stroke-linecap:butt;stroke-linejoin:miter;stroke-opacity:1" d="M 98.9641,202.584 97.6469,172.49 z" id="boundary" inkscape:connector-curvature="0" />
	<path style="fill:none;stroke:red;stroke-width:1px;stroke-linecap:butt;stroke-linejoin:miter;stroke-opacity:1" d="M 100.667,145.927 97.6469,172.49 z" id="boundary" inkscape:connector-curvature="0" />
	<path style="fill:none;stroke:red;stroke-width:1px;stroke-linecap:butt;stroke-linejoin:miter;stroke-opacity:1" d="M 98.9641,202.584 100.862,228.495 z" id="boundary" inkscape:connector-curvature="0" />
	<path style="fill:none;stroke:red;stroke-width:1px;stroke-linecap:butt;stroke-linejoin:miter;stroke-opacity:1" d="M 100.862,228.495 94.7814,264.137 z" id="boundary" inkscape:connector-curvature="0" />
	<path style="fill:none;stroke:red;stroke-width:1px;stroke-linecap:butt;stroke-linejoin:miter;stroke-opacity:1" d="M 139.313,175.892 133.428,197.167 z" id="boundary" inkscape:connector-curvature="0" />
	<path style="fill:none;stroke:red;stroke-width:1px;stroke-linecap:butt;stroke-linejoin:miter;stroke-opacity:1" d="M 126.202,103.595 108.176,118.222 z" id="boundary" inkscape:connector-curvature="0" />
	<path style="fill:none;stroke:red;stroke-width:1px;stroke-linecap:butt;stroke-linejoin:miter;stroke-opacity:1" d="M 133.714,258.034 130.641,227.312 z" id="boundary" inkscape:connector-curvature="0" />
	<path style="fill:none;stroke:red;stroke-width:1px;stroke-linecap:butt;stroke-linejoin:miter;stroke-opacity:1" d="M 133.428,197.167 130.641,227.312 z" id="boundary" inkscape:connector-curvature="0" />
	<path style="fill:none;stroke:red;stroke-width:1px;stroke-linecap:butt;stroke-linejoin:miter;stroke-opacity:1" d="M 100.667,145.927 108.176,118.222 z" id="boundary" inkscape:connector-curvature="0" />
	<path style="fill:none;stroke:red;stroke-width:1px;stroke-linecap:butt;stroke-linejoin:miter;stroke-opacity:1" d="M 84.8728,346.317 86.5076,366.653 z" id="boundary" inkscape:connector-curvature="0" />
	<path style="fill:none;stroke:red;stroke-width:1px;stroke-linecap:butt;stroke-linejoin:miter;stroke-opacity:1" d="M 86.5076,366.653 81.6631,395.328 z" id="boundary" inkscape:connector-curvature="0" />
	<path style="fill:none;stroke:red;stroke-width:1px;stroke-linecap:butt;stroke-linejoin:miter;stroke-opacity:1" d="M 81.6631,395.328 83.3467,412.106 z" id="boundary" inkscape:connector-curvature="0" />
	<path style="fill:none;stroke:red;stroke-width:1px;stroke-linecap:butt;stroke-linejoin:miter;stroke-opacity:1" d="M 95.6297,287.497 94.7814,264.137 z" id="boundary" inkscape:connector-curvature="0" />
	<path style="fill:none;stroke:red;stroke-width:1px;stroke-linecap:butt;stroke-linejoin:miter;stroke-opacity:1" d="M 92.9759,317.488 95.6297,287.497 z" id="boundary" inkscape:connector-curvature="0" />
	<path style="fill:none;stroke:red;stroke-width:1px;stroke-linecap:butt;stroke-linejoin:miter;stroke-opacity:1" d="M 92.9759,317.488 84.8728,346.317 z" id="boundary" inkscape:connector-curvature="0" />
	<path style="fill:none;stroke:red;stroke-width:1px;stroke-linecap:butt;stroke-linejoin:miter;stroke-opacity:1" d="M 133.714,258.034 137.786,277.868 z" id="boundary" inkscape:connector-curvature="0" />
	<path style="fill:none;stroke:red;stroke-width:1px;stroke-linecap:butt;stroke-linejoin:miter;stroke-opacity:1" d="M 156.687,60.1434 168.201,77.9762 z" id="boundary" inkscape:connector-curvature="0" />
	<path style="fill:none;stroke:red;stroke-width:1px;stroke-linecap:butt;stroke-linejoin:miter;stroke-opacity:1" d="M 163.696,37.0234 156.687,60.1434 z" id="boundary" inkscape:connector-curvature="0" />
	<path style="fill:none;stroke:red;stroke-width:1px;stroke-linecap:butt;stroke-linejoin:miter;stroke-opacity:1" d="M 153.264,155.237 139.313,175.892 z" id="boundary" inkscape:connector-curvature="0" />
	<path style="fill:none;stroke:red;stroke-width:1px;stroke-linecap:butt;stroke-linejoin:miter;stroke-opacity:1" d="M 149.956,97.4916 171.276,99.894 z" id="boundary" inkscape:connector-curvature="0" />
	<path style="fill:none;stroke:red;stroke-width:1px;stroke-linecap:butt;stroke-linejoin:miter;stroke-opacity:1" d="M 149.956,97.4916 126.202,103.595 z" id="boundary" inkscape:connector-curvature="0" />
	<path style="fill:none;stroke:red;stroke-width:1px;stroke-linecap:butt;stroke-linejoin:miter;stroke-opacity:1" d="M 171.276,99.894 168.201,77.9762 z" id="boundary" inkscape:connector-curvature="0" />
	<path style="fill:none;stroke:red;stroke-width:1px;stroke-linecap:butt;stroke-linejoin:miter;stroke-opacity:1" d="M 163.696,37.0234 178.454,20.3617 z" id="boundary" inkscape:connector-curvature="0" />
	<path style="fill:none;stroke:red;stroke-width:1px;stroke-linecap:butt;stroke-linejoin:miter;stroke-opacity:1" d="M 177.312,158.688 153.264,155.237 z" id="boundary" inkscape:connector-curvature="0" />
	<path style="fill:none;stroke:red;stroke-width:1px;stroke-linecap:butt;stroke-linejoin:miter;stroke-opacity:1" d="M 182.624,184.541 177.312,158.688 z" id="boundary" inkscape:connector-curvature="0" />
	<path style="fill:none;stroke:red;stroke-width:1px;stroke-linecap:butt;stroke-linejoin:miter;stroke-opacity:1" d="M 187.858,295.458 164.285,306.538 z" id="boundary" inkscape:connector-curvature="0" />
	<path style="fill:none;stroke:red;stroke-width:1px;stroke-linecap:butt;stroke-linejoin:miter;stroke-opacity:1" d="M 137.786,277.868 136.896,311.925 z" id="boundary" inkscape:connector-curvature="0" />
	<path style="fill:none;stroke:red;stroke-width:1px;stroke-linecap:butt;stroke-linejoin:miter;stroke-opacity:1" d="M 136.896,311.925 164.285,306.538 z" id="boundary" inkscape:connector-curvature="0" />
	<path style="fill:none;stroke:red;stroke-width:1px;stroke-linecap:butt;stroke-linejoin:miter;stroke-opacity:1" d="M 185.497,208.247 191.423,224.417 z" id="boundary" inkscape:connector-curvature="0" />
	<path style="fill:none;stroke:red;stroke-width:1px;stroke-linecap:butt;stroke-linejoin:miter;stroke-opacity:1" d="M 191.423,224.417 189.707,247.573 z" id="boundary" inkscape:connector-curvature="0" />
	<path style="fill:none;stroke:red;stroke-width:1px;stroke-linecap:butt;stroke-linejoin:miter;stroke-opacity:1" d="M 198.693,280.162 187.858,295.458 z" id="boundary" inkscape:connector-curvature="0" />
	<path style="fill:none;stroke:red;stroke-width:1px;stroke-linecap:butt;stroke-linejoin:miter;stroke-opacity:1" d="M 189.707,247.573 198.693,280.162 z" id="boundary" inkscape:connector-curvature="0" />
	<path style="fill:none;stroke:red;stroke-width:1px;stroke-linecap:butt;stroke-linejoin:miter;stroke-opacity:1" d="M 185.497,208.247 182.624,184.541 z" id="boundary" inkscape:connector-curvature="0" />
	<path style="fill:none;stroke:red;stroke-width:1px;stroke-linecap:butt;stroke-linejoin:miter;stroke-opacity:1" d="M 82.5457,436.239 83.3467,412.106 z" id="boundary" inkscape:connector-curvature="0" />
	<path style="fill:none;stroke:red;stroke-width:1px;stroke-linecap:butt;stroke-linejoin:miter;stroke-opacity:1" d="M 178.454,20.3617 204.43,9.43613 z" id="boundary" inkscape:connector-curvature="0" />
	<path style="fill:none;stroke:red;stroke-width:1px;stroke-linecap:butt;stroke-linejoin:miter;stroke-opacity:1" d="M 78.5462,457.379 82.5457,436.239 z" id="boundary" inkscape:connector-curvature="0" />
	<path style="fill:none;stroke:red;stroke-width:1px;stroke-linecap:butt;stroke-linejoin:miter;stroke-opacity:1" d="M 80.5203,480.645 78.5462,457.379 z" id="boundary" inkscape:connector-curvature="0" />
	<path style="fill:none;stroke:red;stroke-width:1px;stroke-linecap:butt;stroke-linejoin:miter;stroke-opacity:1" d="M 84.2342,502.982 80.5203,480.645 z" id="boundary" inkscape:connector-curvature="0" />
	<path style="fill:none;stroke:red;stroke-width:1px;stroke-linecap:butt;stroke-linejoin:miter;stroke-opacity:1" d="M 84.2342,502.982 84.5055,528.751 z" id="boundary" inkscape:connector-curvature="0" />
	<path style="fill:none;stroke:red;stroke-width:1px;stroke-linecap:butt;stroke-linejoin:miter;stroke-opacity:1" d="M 94.4315,605.136 88.505,578.242 z" id="boundary" inkscape:connector-curvature="0" />
	<path style="fill:none;stroke:red;stroke-width:1px;stroke-linecap:butt;stroke-linejoin:miter;stroke-opacity:1" d="M 84.8968,548.609 88.505,578.242 z" id="boundary" inkscape:connector-curvature="0" />
	<path style="fill:none;stroke:red;stroke-width:1px;stroke-linecap:butt;stroke-linejoin:miter;stroke-opacity:1" d="M 84.5055,528.751 84.8968,548.609 z" id="boundary" inkscape:connector-curvature="0" />
	<path style="fill:none;stroke:red;stroke-width:1px;stroke-linecap:butt;stroke-linejoin:miter;stroke-opacity:1" d="M 7.0932,956.484 6.94802,924.055 z" id="boundary" inkscape:connector-curvature="0" />
	<path style="fill:none;stroke:red;stroke-width:1px;stroke-linecap:butt;stroke-linejoin:miter;stroke-opacity:1" d="M 20.0194,902.637 6.94802,924.055 z" id="boundary" inkscape:connector-curvature="0" />
	<path style="fill:none;stroke:red;stroke-width:1px;stroke-linecap:butt;stroke-linejoin:miter;stroke-opacity:1" d="M 20.3919,984.691 4,981.11 z" id="boundary" inkscape:connector-curvature="0" />
	<path style="fill:none;stroke:red;stroke-width:1px;stroke-linecap:butt;stroke-linejoin:miter;stroke-opacity:1" d="M 4,981.11 7.0932,956.484 z" id="boundary" inkscape:connector-curvature="0" />
	<path style="fill:none;stroke:red;stroke-width:1px;stroke-linecap:butt;stroke-linejoin:miter;stroke-opacity:1" d="M 43.0425,886.381 63.3584,875.4 z" id="boundary" inkscape:connector-curvature="0" />
	<path style="fill:none;stroke:red;stroke-width:1px;stroke-linecap:butt;stroke-linejoin:miter;stroke-opacity:1" d="M 78.5872,860.497 63.3584,875.4 z" id="boundary" inkscape:connector-curvature="0" />
	<path style="fill:none;stroke:red;stroke-width:1px;stroke-linecap:butt;stroke-linejoin:miter;stroke-opacity:1" d="M 20.3919,984.691 46.3692,983.142 z" id="boundary" inkscape:connector-curvature="0" />
	<path style="fill:none;stroke:red;stroke-width:1px;stroke-linecap:butt;stroke-linejoin:miter;stroke-opacity:1" d="M 46.3692,983.142 73.8068,984.512 z" id="boundary" inkscape:connector-curvature="0" />
	<path style="fill:none;stroke:red;stroke-width:1px;stroke-linecap:butt;stroke-linejoin:miter;stroke-opacity:1" d="M 73.8068,984.512 102.457,986.358 z" id="boundary" inkscape:connector-curvature="0" />
	<path style="fill:none;stroke:red;stroke-width:1px;stroke-linecap:butt;stroke-linejoin:miter;stroke-opacity:1" d="M 20.0194,902.637 43.0425,886.381 z" id="boundary" inkscape:connector-curvature="0" />
	<path style="fill:none;stroke:red;stroke-width:1px;stroke-linecap:butt;stroke-linejoin:miter;stroke-opacity:1" d="M 78.5872,860.497 103.771,851.294 z" id="boundary" inkscape:connector-curvature="0" />
	<path style="fill:none;stroke:red;stroke-width:1px;stroke-linecap:butt;stroke-linejoin:miter;stroke-opacity:1" d="M 98.8439,626.911 94.4315,605.136 z" id="boundary" inkscape:connector-curvature="0" />
	<path style="fill:none;stroke:red;stroke-width:1px;stroke-linecap:butt;stroke-linejoin:miter;stroke-opacity:1" d="M 108.931,648.995 98.8439,626.911 z" id="boundary" inkscape:connector-curvature="0" />
	<path style="fill:none;stroke:red;stroke-width:1px;stroke-linecap:butt;stroke-linejoin:miter;stroke-opacity:1" d="M 108.931,648.995 116.102,682.38 z" id="boundary" inkscape:connector-curvature="0" />
	<path style="fill:none;stroke:red;stroke-width:1px;stroke-linecap:butt;stroke-linejoin:miter;stroke-opacity:1" d="M 116.102,682.38 127.447,710.241 z" id="boundary" inkscape:connector-curvature="0" />
	<path style="fill:none;stroke:red;stroke-width:1px;stroke-linecap:butt;stroke-linejoin:miter;stroke-opacity:1" d="M 127.447,710.241 142.821,728.127 z" id="boundary" inkscape:connector-curvature="0" />
	<path style="fill:none;stroke:red;stroke-width:1px;stroke-linecap:butt;stroke-linejoin:miter;stroke-opacity:1" d="M 156.327,749.97 174.819,767.228 z" id="boundary" inkscape:connector-curvature="0" />
	<path style="fill:none;stroke:red;stroke-width:1px;stroke-linecap:butt;stroke-linejoin:miter;stroke-opacity:1" d="M 156.327,749.97 142.821,728.127 z" id="boundary" inkscape:connector-curvature="0" />
	<path style="fill:none;stroke:red;stroke-width:1px;stroke-linecap:butt;stroke-linejoin:miter;stroke-opacity:1" d="M 103.771,851.294 128.455,846.82 z" id="boundary" inkscape:connector-curvature="0" />
	<path style="fill:none;stroke:red;stroke-width:1px;stroke-linecap:butt;stroke-linejoin:miter;stroke-opacity:1" d="M 143.666,834.534 128.455,846.82 z" id="boundary" inkscape:connector-curvature="0" />
	<path style="fill:none;stroke:red;stroke-width:1px;stroke-linecap:butt;stroke-linejoin:miter;stroke-opacity:1" d="M 102.457,986.358 124.687,986.732 z" id="boundary" inkscape:connector-curvature="0" />
	<path style="fill:none;stroke:red;stroke-width:1px;stroke-linecap:butt;stroke-linejoin:miter;stroke-opacity:1" d="M 154.983,985.898 124.687,986.732 z" id="boundary" inkscape:connector-curvature="0" />
	<path style="fill:none;stroke:red;stroke-width:1px;stroke-linecap:butt;stroke-linejoin:miter;stroke-opacity:1" d="M 143.666,834.534 162.313,825.33 z" id="boundary" inkscape:connector-curvature="0" />
	<path style="fill:none;stroke:red;stroke-width:1px;stroke-linecap:butt;stroke-linejoin:miter;stroke-opacity:1" d="M 175.17,981.84 154.983,985.898 z" id="boundary" inkscape:connector-curvature="0" />
	<path style="fill:none;stroke:red;stroke-width:1px;stroke-linecap:butt;stroke-linejoin:miter;stroke-opacity:1" d="M 199.477,979.986 175.17,981.84 z" id="boundary" inkscape:connector-curvature="0" />
	<path style="fill:none;stroke:red;stroke-width:1px;stroke-linecap:butt;stroke-linejoin:miter;stroke-opacity:1" d="M 162.313,825.33 189.933,812.583 z" id="boundary" inkscape:connector-curvature="0" />
	<path style="fill:none;stroke:red;stroke-width:1px;stroke-linecap:butt;stroke-linejoin:miter;stroke-opacity:1" d="M 174.819,767.228 195.751,786.042 z" id="boundary" inkscape:connector-curvature="0" />
	<path style="fill:none;stroke:red;stroke-width:1px;stroke-linecap:butt;stroke-linejoin:miter;stroke-opacity:1" d="M 275.146,4 246.872,9.23649 z" id="boundary" inkscape:connector-curvature="0" />
	<path style="fill:none;stroke:red;stroke-width:1px;stroke-linecap:butt;stroke-linejoin:miter;stroke-opacity:1" d="M 246.872,9.23649 226.542,8.46561 z" id="boundary" inkscape:connector-curvature="0" />
	<path style="fill:none;stroke:red;stroke-width:1px;stroke-linecap:butt;stroke-linejoin:miter;stroke-opacity:1" d="M 226.542,8.46561 204.43,9.43613 z" id="boundary" inkscape:connector-curvature="0" />
	<path style="fill:none;stroke:red;stroke-width:1px;stroke-linecap:butt;stroke-linejoin:miter;stroke-opacity:1" d="M 275.146,4 299.241,12.1603 z" id="boundary" inkscape:connector-curvature="0" />
	<path style="fill:none;stroke:red;stroke-width:1px;stroke-linecap:butt;stroke-linejoin:miter;stroke-opacity:1" d="M 329.998,84.0495 321.205,99.7866 z" id="boundary" inkscape:connector-curvature="0" />
	<path style="fill:none;stroke:red;stroke-width:1px;stroke-linecap:butt;stroke-linejoin:miter;stroke-opacity:1" d="M 321.205,99.7866 309.086,123.7 z" id="boundary" inkscape:connector-curvature="0" />
	<path style="fill:none;stroke:red;stroke-width:1px;stroke-linecap:butt;stroke-linejoin:miter;stroke-opacity:1" d="M 299.241,12.1603 322.743,23.5527 z" id="boundary" inkscape:connector-curvature="0" />
	<path style="fill:none;stroke:red;stroke-width:1px;stroke-linecap:butt;stroke-linejoin:miter;stroke-opacity:1" d="M 309.086,123.7 297.626,147.216 z" id="boundary" inkscape:connector-curvature="0" />
	<path style="fill:none;stroke:red;stroke-width:1px;stroke-linecap:butt;stroke-linejoin:miter;stroke-opacity:1" d="M 291.64,196.999 289.043,214.931 z" id="boundary" inkscape:connector-curvature="0" />
	<path style="fill:none;stroke:red;stroke-width:1px;stroke-linecap:butt;stroke-linejoin:miter;stroke-opacity:1" d="M 291.64,196.999 288.466,174.338 z" id="boundary" inkscape:connector-curvature="0" />
	<path style="fill:none;stroke:red;stroke-width:1px;stroke-linecap:butt;stroke-linejoin:miter;stroke-opacity:1" d="M 288.466,174.338 297.626,147.216 z" id="boundary" inkscape:connector-curvature="0" />
	<path style="fill:none;stroke:red;stroke-width:1px;stroke-linecap:butt;stroke-linejoin:miter;stroke-opacity:1" d="M 289.043,214.931 295.045,238.545 z" id="boundary" inkscape:connector-curvature="0" />
	<path style="fill:none;stroke:red;stroke-width:1px;stroke-linecap:butt;stroke-linejoin:miter;stroke-opacity:1" d="M 297.495,264.38 310.797,289.204 z" id="boundary" inkscape:connector-curvature="0" />
	<path style="fill:none;stroke:red;stroke-width:1px;stroke-linecap:butt;stroke-linejoin:miter;stroke-opacity:1" d="M 328.298,299.134 310.797,289.204 z" id="boundary" inkscape:connector-curvature="0" />
	<path style="fill:none;stroke:red;stroke-width:1px;stroke-linecap:butt;stroke-linejoin:miter;stroke-opacity:1" d="M 297.495,264.38 295.045,238.545 z" id="boundary" inkscape:connector-curvature="0" />
	<path style="fill:none;stroke:red;stroke-width:1px;stroke-linecap:butt;stroke-linejoin:miter;stroke-opacity:1" d="M 339.518,43.2438 340.289,71.8487 z" id="boundary" inkscape:connector-curvature="0" />
	<path style="fill:none;stroke:red;stroke-width:1px;stroke-linecap:butt;stroke-linejoin:miter;stroke-opacity:1" d="M 340.289,71.8487 329.998,84.0495 z" id="boundary" inkscape:connector-curvature="0" />
	<path style="fill:none;stroke:red;stroke-width:1px;stroke-linecap:butt;stroke-linejoin:miter;stroke-opacity:1" d="M 350.162,306.576 328.298,299.134 z" id="boundary" inkscape:connector-curvature="0" />
	<path style="fill:none;stroke:red;stroke-width:1px;stroke-linecap:butt;stroke-linejoin:miter;stroke-opacity:1" d="M 322.743,23.5527 339.518,43.2438 z" id="boundary" inkscape:connector-curvature="0" />
	<path style="fill:none;stroke:red;stroke-width:1px;stroke-linecap:butt;stroke-linejoin:miter;stroke-opacity:1" d="M 350.162,306.576 372.804,313 z" id="boundary" inkscape:connector-curvature="0" />
	<path style="fill:none;stroke:red;stroke-width:1px;stroke-linecap:butt;stroke-linejoin:miter;stroke-opacity:1" d="M 372.804,313 393.918,313.941 z" id="boundary" inkscape:connector-curvature="0" />
	<path style="fill:none;stroke:red;stroke-width:1px;stroke-linecap:butt;stroke-linejoin:miter;stroke-opacity:1" d="M 415.711,322.164 393.918,313.941 z" id="boundary" inkscape:connector-curvature="0" />
	<path style="fill:none;stroke:red;stroke-width:1px;stroke-linecap:butt;stroke-linejoin:miter;stroke-opacity:1" d="M 415.711,322.164 429.086,344.816 z" id="boundary" inkscape:connector-curvature="0" />
	<path style="fill:none;stroke:red;stroke-width:1px;stroke-linecap:butt;stroke-linejoin:miter;stroke-opacity:1" d="M 413.93,520.885 418.101,491.123 z" id="boundary" inkscape:connector-curvature="0" />
	<path style="fill:none;stroke:red;stroke-width:1px;stroke-linecap:butt;stroke-linejoin:miter;stroke-opacity:1" d="M 421.364,468.471 418.101,491.123 z" id="boundary" inkscape:connector-curvature="0" />
	<path style="fill:none;stroke:red;stroke-width:1px;stroke-linecap:butt;stroke-linejoin:miter;stroke-opacity:1" d="M 410.897,551.017 413.93,520.885 z" id="boundary" inkscape:connector-curvature="0" />
	<path style="fill:none;stroke:red;stroke-width:1px;stroke-linecap:butt;stroke-linejoin:miter;stroke-opacity:1" d="M 426.739,370.124 429.086,344.816 z" id="boundary" inkscape:connector-curvature="0" />
	<path style="fill:none;stroke:red;stroke-width:1px;stroke-linecap:butt;stroke-linejoin:miter;stroke-opacity:1" d="M 429.085,393.719 426.739,370.124 z" id="boundary" inkscape:connector-curvature="0" />
	<path style="fill:none;stroke:red;stroke-width:1px;stroke-linecap:butt;stroke-linejoin:miter;stroke-opacity:1" d="M 428.616,420.462 424.238,446.074 z" id="boundary" inkscape:connector-curvature="0" />
	<path style="fill:none;stroke:red;stroke-width:1px;stroke-linecap:butt;stroke-linejoin:miter;stroke-opacity:1" d="M 429.085,393.719 428.616,420.462 z" id="boundary" inkscape:connector-curvature="0" />
	<path style="fill:none;stroke:red;stroke-width:1px;stroke-linecap:butt;stroke-linejoin:miter;stroke-opacity:1" d="M 421.364,468.471 424.238,446.074 z" id="boundary" inkscape:connector-curvature="0" />
	<path style="fill:none;stroke:red;stroke-width:1px;stroke-linecap:butt;stroke-linejoin:miter;stroke-opacity:1" d="M 410.897,551.017 402.803,582.587 z" id="boundary" inkscape:connector-curvature="0" />
	<path style="fill:none;stroke:red;stroke-width:1px;stroke-linecap:butt;stroke-linejoin:miter;stroke-opacity:1" d="M 209.099,800.072 195.751,786.042 z" id="boundary" inkscape:connector-curvature="0" />
	<path style="fill:none;stroke:red;stroke-width:1px;stroke-linecap:butt;stroke-linejoin:miter;stroke-opacity:1" d="M 328.65,779.039 324.812,800.877 z" id="boundary" inkscape:connector-curvature="0" />
	<path style="fill:none;stroke:red;stroke-width:1px;stroke-linecap:butt;stroke-linejoin:miter;stroke-opacity:1" d="M 349.358,807.014 324.812,800.877 z" id="boundary" inkscape:connector-curvature="0" />
	<path style="fill:none;stroke:red;stroke-width:1px;stroke-linecap:butt;stroke-linejoin:miter;stroke-opacity:1" d="M 189.933,812.583 209.099,800.072 z" id="boundary" inkscape:connector-curvature="0" />
	<path style="fill:none;stroke:red;stroke-width:1px;stroke-linecap:butt;stroke-linejoin:miter;stroke-opacity:1" d="M 354.739,763.18 363.615,749.933 z" id="boundary" inkscape:connector-curvature="0" />
	<path style="fill:none;stroke:red;stroke-width:1px;stroke-linecap:butt;stroke-linejoin:miter;stroke-opacity:1" d="M 354.739,763.18 328.65,779.039 z" id="boundary" inkscape:connector-curvature="0" />
	<path style="fill:none;stroke:red;stroke-width:1px;stroke-linecap:butt;stroke-linejoin:miter;stroke-opacity:1" d="M 370.55,815.544 349.358,807.014 z" id="boundary" inkscape:connector-curvature="0" />
	<path style="fill:none;stroke:red;stroke-width:1px;stroke-linecap:butt;stroke-linejoin:miter;stroke-opacity:1" d="M 395.862,828.584 370.55,815.544 z" id="boundary" inkscape:connector-curvature="0" />
	<path style="fill:none;stroke:red;stroke-width:1px;stroke-linecap:butt;stroke-linejoin:miter;stroke-opacity:1" d="M 378.856,723.759 363.615,749.933 z" id="boundary" inkscape:connector-curvature="0" />
	<path style="fill:none;stroke:red;stroke-width:1px;stroke-linecap:butt;stroke-linejoin:miter;stroke-opacity:1" d="M 384.476,698.805 378.856,723.759 z" id="boundary" inkscape:connector-curvature="0" />
	<path style="fill:none;stroke:red;stroke-width:1px;stroke-linecap:butt;stroke-linejoin:miter;stroke-opacity:1" d="M 225.688,983.93 199.477,979.986 z" id="boundary" inkscape:connector-curvature="0" />
	<path style="fill:none;stroke:red;stroke-width:1px;stroke-linecap:butt;stroke-linejoin:miter;stroke-opacity:1" d="M 242.203,983.623 225.688,983.93 z" id="boundary" inkscape:connector-curvature="0" />
	<path style="fill:none;stroke:red;stroke-width:1px;stroke-linecap:butt;stroke-linejoin:miter;stroke-opacity:1" d="M 270.254,988.698 299.142,996 z" id="boundary" inkscape:connector-curvature="0" />
	<path style="fill:none;stroke:red;stroke-width:1px;stroke-linecap:butt;stroke-linejoin:miter;stroke-opacity:1" d="M 242.203,983.623 270.254,988.698 z" id="boundary" inkscape:connector-curvature="0" />
	<path style="fill:none;stroke:red;stroke-width:1px;stroke-linecap:butt;stroke-linejoin:miter;stroke-opacity:1" d="M 379.225,990.612 355.794,981.157 z" id="boundary" inkscape:connector-curvature="0" />
	<path style="fill:none;stroke:red;stroke-width:1px;stroke-linecap:butt;stroke-linejoin:miter;stroke-opacity:1" d="M 409.392,991.495 379.225,990.612 z" id="boundary" inkscape:connector-curvature="0" />
	<path style="fill:none;stroke:red;stroke-width:1px;stroke-linecap:butt;stroke-linejoin:miter;stroke-opacity:1" d="M 355.794,981.157 325.029,989.048 z" id="boundary" inkscape:connector-curvature="0" />
	<path style="fill:none;stroke:red;stroke-width:1px;stroke-linecap:butt;stroke-linejoin:miter;stroke-opacity:1" d="M 299.142,996 325.029,989.048 z" id="boundary" inkscape:connector-curvature="0" />
	<path style="fill:none;stroke:red;stroke-width:1px;stroke-linecap:butt;stroke-linejoin:miter;stroke-opacity:1" d="M 392.253,673.628 391.662,654.788 z" id="boundary" inkscape:connector-curvature="0" />
	<path style="fill:none;stroke:red;stroke-width:1px;stroke-linecap:butt;stroke-linejoin:miter;stroke-opacity:1" d="M 391.662,654.788 396.863,628.722 z" id="boundary" inkscape:connector-curvature="0" />
	<path style="fill:none;stroke:red;stroke-width:1px;stroke-linecap:butt;stroke-linejoin:miter;stroke-opacity:1" d="M 453.35,851.034 428.451,838.864 z" id="boundary" inkscape:connector-curvature="0" />
	<path style="fill:none;stroke:red;stroke-width:1px;stroke-linecap:butt;stroke-linejoin:miter;stroke-opacity:1" d="M 392.253,673.628 384.476,698.805 z" id="boundary" inkscape:connector-curvature="0" />
	<path style="fill:none;stroke:red;stroke-width:1px;stroke-linecap:butt;stroke-linejoin:miter;stroke-opacity:1" d="M 395.129,610.846 396.863,628.722 z" id="boundary" inkscape:connector-curvature="0" />
	<path style="fill:none;stroke:red;stroke-width:1px;stroke-linecap:butt;stroke-linejoin:miter;stroke-opacity:1" d="M 395.129,610.846 402.803,582.587 z" id="boundary" inkscape:connector-curvature="0" />
	<path style="fill:none;stroke:red;stroke-width:1px;stroke-linecap:butt;stroke-linejoin:miter;stroke-opacity:1" d="M 428.451,838.864 395.862,828.584 z" id="boundary" inkscape:connector-curvature="0" />
	<path style="fill:none;stroke:red;stroke-width:1px;stroke-linecap:butt;stroke-linejoin:miter;stroke-opacity:1" d="M 474.131,988.157 436.32,986.394 z" id="boundary" inkscape:connector-curvature="0" />
	<path style="fill:none;stroke:red;stroke-width:1px;stroke-linecap:butt;stroke-linejoin:miter;stroke-opacity:1" d="M 436.32,986.394 409.392,991.495 z" id="boundary" inkscape:connector-curvature="0" />
	<path style="fill:none;stroke:red;stroke-width:1px;stroke-linecap:butt;stroke-linejoin:miter;stroke-opacity:1" d="M 481.324,885.069 482.106,918.496 z" id="boundary" inkscape:connector-curvature="0" />
	<path style="fill:none;stroke:red;stroke-width:1px;stroke-linecap:butt;stroke-linejoin:miter;stroke-opacity:1" d="M 481.324,885.069 477.248,863.055 z" id="boundary" inkscape:connector-curvature="0" />
	<path style="fill:none;stroke:red;stroke-width:1px;stroke-linecap:butt;stroke-linejoin:miter;stroke-opacity:1" d="M 481.073,950.16 482.106,918.496 z" id="boundary" inkscape:connector-curvature="0" />
	<path style="fill:none;stroke:red;stroke-width:1px;stroke-linecap:butt;stroke-linejoin:miter;stroke-opacity:1" d="M 488.617,981.985 481.073,950.16 z" id="boundary" inkscape:connector-curvature="0" />
	<path style="fill:none;stroke:red;stroke-width:1px;stroke-linecap:butt;stroke-linejoin:miter;stroke-opacity:1" d="M 488.617,981.985 474.131,988.157 z" id="boundary" inkscape:connector-curvature="0" />
	<path style="fill:none;stroke:red;stroke-width:1px;stroke-linecap:butt;stroke-linejoin:miter;stroke-opacity:1" d="M 453.35,851.034 477.248,863.055 z" id="boundary" inkscape:connector-curvature="0" />
	<circle cx="92.9759" cy="317.488" r="4" fill="#0" id="circle0"/>
	<circle cx="95.6297" cy="287.497" r="4" fill="#0" id="circle1"/>
	<circle cx="94.7814" cy="264.137" r="4" fill="#0" id="circle2"/>
	<circle cx="100.862" cy="228.495" r="4" fill="#0" id="circle3"/>
	<circle cx="98.9641" cy="202.584" r="4" fill="#0" id="circle4"/>
	<circle cx="97.6469" cy="172.49" r="4" fill="#0" id="circle5"/>
	<circle cx="100.667" cy="145.927" r="4" fill="#0" id="circle6"/>
	<circle cx="108.176" cy="118.222" r="4" fill="#0" id="circle7"/>
	<circle cx="126.202" cy="103.595" r="4" fill="#0" id="circle8"/>
	<circle cx="149.956" cy="97.4916" r="4" fill="#0" id="circle9"/>
	<circle cx="171.276" cy="99.894" r="4" fill="#0" id="circle10"/>
	<circle cx="168.201" cy="77.9762" r="4" fill="#0" id="circle11"/>
	<circle cx="156.687" cy="60.1434" r="4" fill="#0" id="circle12"/>
	<circle cx="163.696" cy="37.0234" r="4" fill="#0" id="circle13"/>
	<circle cx="178.454" cy="20.3617" r="4" fill="#0" id="circle14"/>
	<circle cx="204.43" cy="9.43613" r="4" fill="#0" id="circle15"/>
	<circle cx="226.542" cy="8.46561" r="4" fill="#0" id="circle16"/>
	<circle cx="246.872" cy="9.23649" r="4" fill="#0" id="circle17"/>
	<circle cx="275.146" cy="4" r="4" fill="#0" id="circle18"/>
	<circle cx="299.241" cy="12.1603" r="4" fill="#0" id="circle19"/>
	<circle cx="322.743" cy="23.5527" r="4" fill="#0" id="circle20"/>
	<circle cx="339.518" cy="43.2438" r="4" fill="#0" id="circle21"/>
	<circle cx="340.289" cy="71.8487" r="4" fill="#0" id="circle22"/>
	<circle cx="329.998" cy="84.0495" r="4" fill="#0" id="circle23"/>
	<circle cx="321.205" cy="99.7866" r="4" fill="#0" id="circle24"/>
	<circle cx="309.086" cy="123.7" r="4" fill="#0" id="circle25"/>
	<circle cx="297.626" cy="147.216" r="4" fill="#0" id="circle26"/>
	<circle cx="288.466" cy="174.338" r="4" fill="#0" id="circle27"/>
	<circle cx="291.64" cy="196.999" r="4" fill="#0" id="circle28"/>
	<circle cx="289.043" cy="214.931" r="4" fill="#0" id="circle29"/>
	<circle cx="295.045" cy="238.545" r="4" fill="#0" id="circle30"/>
	<circle cx="297.495" cy="264.38" r="4" fill="#0" id="circle31"/>
	<circle cx="310.797" cy="289.204" r="4" fill="#0" id="circle32"/>
	<circle cx="328.298" cy="299.134" r="4" fill="#0" id="circle33"/>
	<circle cx="350.162" cy="306.576" r="4" fill="#0" id="circle34"/>
	<circle cx="372.804" cy="313" r="4" fill="#0" id="circle35"/>
	<circle cx="393.918" cy="313.941" r="4" fill="#0" id="circle36"/>
	<circle cx="415.711" cy="322.164" r="4" fill="#0" id="circle37"/>
	<circle cx="429.086" cy="344.816" r="4" fill="#0" id="circle38"/>
	<circle cx="426.739" cy="370.124" r="4" fill="#0" id="circle39"/>
	<circle cx="84.8728" cy="346.317" r="4" fill="#0" id="circle40"/>
	<circle cx="86.5076" cy="366.653" r="4" fill="#0" id="circle41"/>
	<circle cx="81.6631" cy="395.328" r="4" fill="#0" id="circle42"/>
	<circle cx="83.3467" cy="412.106" r="4" fill="#0" id="circle43"/>
	<circle cx="82.5457" cy="436.239" r="4" fill="#0" id="circle44"/>
	<circle cx="78.5462" cy="457.379" r="4" fill="#0" id="circle45"/>
	<circle cx="80.5203" cy="480.645" r="4" fill="#0" id="circle46"/>
	<circle cx="84.2342" cy="502.982" r="4" fill="#0" id="circle47"/>
	<circle cx="84.5055" cy="528.751" r="4" fill="#0" id="circle48"/>
	<circle cx="84.8968" cy="548.609" r="4" fill="#0" id="circle49"/>
	<circle cx="88.505" cy="578.242" r="4" fill="#0" id="circle50"/>
	<circle cx="78.5872" cy="860.497" r="4" fill="#0" id="circle51"/>
	<circle cx="108.931" cy="648.995" r="4" fill="#0" id="circle52"/>
	<circle cx="98.8439" cy="626.911" r="4" fill="#0" id="circle53"/>
	<circle cx="94.4315" cy="605.136" r="4" fill="#0" id="circle54"/>
	<circle cx="116.102" cy="682.38" r="4" fill="#0" id="circle55"/>
	<circle cx="127.447" cy="710.241" r="4" fill="#0" id="circle56"/>
	<circle cx="142.821" cy="728.127" r="4" fill="#0" id="circle57"/>
	<circle cx="156.327" cy="749.97" r="4" fill="#0" id="circle58"/>
	<circle cx="174.819" cy="767.228" r="4" fill="#0" id="circle59"/>
	<circle cx="195.751" cy="786.042" r="4" fill="#0" id="circle60"/>
	<circle cx="209.099" cy="800.072" r="4" fill="#0" id="circle61"/>
	<circle cx="189.933" cy="812.583" r="4" fill="#0" id="circle62"/>
	<circle cx="162.313" cy="825.33" r="4" fill="#0" id="circle63"/>
	<circle cx="143.666" cy="834.534" r="4" fill="#0" id="circle64"/>
	<circle cx="128.455" cy="846.82" r="4" fill="#0" id="circle65"/>
	<circle cx="103.771" cy="851.294" r="4" fill="#0" id="circle66"/>
	<circle cx="63.3584" cy="875.4" r="4" fill="#0" id="circle67"/>
	<circle cx="43.0425" cy="886.381" r="4" fill="#0" id="circle68"/>
	<circle cx="20.0194" cy="902.637" r="4" fill="#0" id="circle69"/>
	<circle cx="6.94802" cy="924.055" r="4" fill="#0" id="circle70"/>
	<circle cx="7.0932" cy="956.484" r="4" fill="#0" id="circle71"/>
	<circle cx="4" cy="981.11" r="4" fill="#0" id="circle72"/>
	<circle cx="20.3919" cy="984.691" r="4" fill="#0" id="circle73"/>
	<circle cx="46.3692" cy="983.142" r="4" fill="#0" id="circle74"/>
	<circle cx="73.8068" cy="984.512" r="4" fill="#0" id="circle75"/>
	<circle cx="102.457" cy="986.358" r="4" fill="#0" id="circle76"/>
	<circle cx="124.687" cy="986.732" r="4" fill="#0" id="circle77"/>
	<circle cx="154.983" cy="985.898" r="4" fill="#0" id="circle78"/>
	<circle cx="175.17" cy="981.84" r="4" fill="#0" id="circle79"/>
	<circle cx="199.477" cy="979.986" r="4" fill="#0" id="circle80"/>
	<circle cx="225.688" cy="983.93" r="4" fill="#0" id="circle81"/>
	<circle cx="242.203" cy="983.623" r="4" fill="#0" id="circle82"/>
	<circle cx="270.254" cy="988.698" r="4" fill="#0" id="circle83"/>
	<circle cx="299.142" cy="996" r="4" fill="#0" id="circle84"/>
	<circle cx="325.029" cy="989.048" r="4" fill="#0" id="circle85"/>
	<circle cx="355.794" cy="981.157" r="4" fill="#0" id="circle86"/>
	<circle cx="379.225" cy="990.612" r="4" fill="#0" id="circle87"/>
	<circle cx="409.392" cy="991.495" r="4" fill="#0" id="circle88"/>
	<circle cx="436.32" cy="986.394" r="4" fill="#0" id="circle89"/>
	<circle cx="474.131" cy="988.157" r="4" fill="#0" id="circle90"/>
	<circle cx="488.617" cy="981.985" r="4" fill="#0" id="circle91"/>
	<circle cx="481.073" cy="950.16" r="4" fill="#0" id="circle92"/>
	<circle cx="482.106" cy="918.496" r="4" fill="#0" id="circle93"/>
	<circle cx="481.324" cy="885.069" r="4" fill="#0" id="circle94"/>
	<circle cx="477.248" cy="863.055" r="4" fill="#0" id="circle95"/>
	<circle cx="453.35" cy="851.034" r="4" fill="#0" id="circle96"/>
	<circle cx="428.451" cy="838.864" r="4" fill="#0" id="circle97"/>
	<circle cx="395.862" cy="828.584" r="4" fill="#0" id="circle98"/>
	<circle cx="370.55" cy="815.544" r="4" fill="#0" id="circle99"/>
	<circle cx="349.358" cy="807.014" r="4" fill="#0" id="circle100"/>
	<circle cx="324.812" cy="800.877" r="4" fill="#0" id="circle101"/>
	<circle cx="328.65" cy="779.039" r="4" fill="#0" id="circle102"/>
	<circle cx="354.739" cy="763.18" r="4" fill="#0" id="circle103"/>
	<circle cx="363.615" cy="749.933" r="4" fill="#0" id="circle104"/>
	<circle cx="378.856" cy="723.759" r="4" fill="#0" id="circle105"/>
	<circle cx="429.085" cy="393.719" r="4" fill="#0" id="circle106"/>
	<circle cx="428.616" cy="420.462" r="4" fill="#0" id="circle107"/>
	<circle cx="424.238" cy="446.074" r="4" fill="#0" id="circle108"/>
	<circle cx="421.364" cy="468.471" r="4" fill="#0" id="circle109"/>
	<circle cx="418.101" cy="491.123" r="4" fill="#0" id="circle110"/>
	<circle cx="413.93" cy="520.885" r="4" fill="#0" id="circle111"/>
	<circle cx="410.897" cy="551.017" r="4" fill="#0" id="circle112"/>
	<circle cx="139.313" cy="175.892" r="4" fill="#0" id="circle113"/>
	<circle cx="402.803" cy="582.587" r="4" fill="#0" id="circle114"/>
	<circle cx="395.129" cy="610.846" r="4" fill="#0" id="circle115"/>
	<circle cx="396.863" cy="628.722" r="4" fill="#0" id="circle116"/>
	<circle cx="391.662" cy="654.788" r="4" fill="#0" id="circle117"/>
	<circle cx="392.253" cy="673.628" r="4" fill="#0" id="circle118"/>
	<circle cx="384.476" cy="698.805" r="4" fill="#0" id="circle119"/>
	<circle cx="153.264" cy="155.237" r="4" fill="#0" id="circle120"/>
	<circle cx="177.312" cy="158.688" r="4" fill="#0" id="circle121"/>
	<circle cx="182.624" cy="184.541" r="4" fill="#0" id="circle122"/>
	<circle cx="185.497" cy="208.247" r="4" fill="#0" id="circle123"/>
	<circle cx="191.423" cy="224.417" r="4" fill="#0" id="circle124"/>
	<circle cx="189.707" cy="247.573" r="4" fill="#0" id="circle125"/>
	<circle cx="198.693" cy="280.162" r="4" fill="#0" id="circle126"/>
	<circle cx="187.858" cy="295.458" r="4" fill="#0" id="circle127"/>
	<circle cx="164.285" cy="306.538" r="4" fill="#0" id="circle128"/>
	<circle cx="136.896" cy="311.925" r="4" fill="#0" id="circle129"/>
	<circle cx="133.428" cy="197.167" r="4" fill="#0" id="circle130"/>
	<circle cx="130.641" cy="227.312" r="4" fill="#0" id="circle131"/>
	<circle cx="133.714" cy="258.034" r="4" fill="#0" id="circle132"/>
	<circle cx="137.786" cy="277.868" r="4" fill="#0" id="circle133"/>
	</g>
</svg>