<?xml version="1.0" encoding="UTF-8" standalone="no"?>
<!-- Created with CurveBenchmark -->
<svg
	xmlns:dc="http://purl.org/dc/elements/1.1/"
	xmlns:cc="http://creativecommons.org/ns#"
	xmlns:rdf="http://www.w3.org/1999/02/22-rdf-syntax-ns#"
	xmlns:svg="http://www.w3.org/2000/svg"
	xmlns="http://www.w3.org/2000/svg"
	xmlns:sodipodi="http://sodipodi.sourceforge.net/DTD/sodipodi-0.dtd"
	xmlns:inkscape="http://www.inkscape.org/namespaces/inkscape"
	width="1000"
	height="1000"
	id="svg2"
	version="1.1"
	sodipodi:docname="noisy-0.003/gathang-mc47.txt">
<defs
	id="defs4" />
<metadata
	id="metadata7">
	<rdf:RDF>
		<cc:Work
			rdf:about="">
			<dc:format>image/svg+xml</dc:format>
			<dc:type
				rdf:resource="http://purl.org/dc/dcmitype/StillImage" />
			<dc:title></dc:title>
		</cc:Work>
	</rdf:RDF>
</metadata>
<g
	inkscape:label="Layer 1"
	inkscape:groupmode="layer"
	id="layer1">
	<path style="fill:none;stroke:red;stroke-width:1px;stroke-linecap:butt;stroke-linejoin:miter;stroke-opacity:1" d="M 4,133.921 12.8555,90.6296 z" id="boundary" inkscape:connector-curvature="0" />
	<path style="fill:none;stroke:red;stroke-width:1px;stroke-linecap:butt;stroke-linejoin:miter;stroke-opacity:1" d="M 12.8555,90.6296 36.2879,73.4542 z" id="boundary" inkscape:connector-curvature="0" />
	<path style="fill:none;stroke:red;stroke-width:1px;stroke-linecap:butt;stroke-linejoin:miter;stroke-opacity:1" d="M 73.6096,73.8641 36.2879,73.4542 z" id="boundary" inkscape:connector-curvature="0" />
	<path style="fill:none;stroke:red;stroke-width:1px;stroke-linecap:butt;stroke-linejoin:miter;stroke-opacity:1" d="M 141.411,120.15 105.714,78.9095 z" id="boundary" inkscape:connector-curvature="0" />
	<path style="fill:none;stroke:red;stroke-width:1px;stroke-linecap:butt;stroke-linejoin:miter;stroke-opacity:1" d="M 167.941,139.832 141.411,120.15 z" id="boundary" inkscape:connector-curvature="0" />
	<path style="fill:none;stroke:red;stroke-width:1px;stroke-linecap:butt;stroke-linejoin:miter;stroke-opacity:1" d="M 73.6096,73.8641 105.714,78.9095 z" id="boundary" inkscape:connector-curvature="0" />
	<path style="fill:none;stroke:red;stroke-width:1px;stroke-linecap:butt;stroke-linejoin:miter;stroke-opacity:1" d="M 49.2133,230.873 22.86,190.171 z" id="boundary" inkscape:connector-curvature="0" />
	<path style="fill:none;stroke:red;stroke-width:1px;stroke-linecap:butt;stroke-linejoin:miter;stroke-opacity:1" d="M 22.86,190.171 4,133.921 z" id="boundary" inkscape:connector-curvature="0" />
	<path style="fill:none;stroke:red;stroke-width:1px;stroke-linecap:butt;stroke-linejoin:miter;stroke-opacity:1" d="M 211.483,143.912 183.946,164.436 z" id="boundary" inkscape:connector-curvature="0" />
	<path style="fill:none;stroke:red;stroke-width:1px;stroke-linecap:butt;stroke-linejoin:miter;stroke-opacity:1" d="M 183.946,164.436 167.941,139.832 z" id="boundary" inkscape:connector-curvature="0" />
	<path style="fill:none;stroke:red;stroke-width:1px;stroke-linecap:butt;stroke-linejoin:miter;stroke-opacity:1" d="M 242.207,114.233 211.483,143.912 z" id="boundary" inkscape:connector-curvature="0" />
	<path style="fill:none;stroke:red;stroke-width:1px;stroke-linecap:butt;stroke-linejoin:miter;stroke-opacity:1" d="M 120.906,300.178 87.3352,252.883 z" id="boundary" inkscape:connector-curvature="0" />
	<path style="fill:none;stroke:red;stroke-width:1px;stroke-linecap:butt;stroke-linejoin:miter;stroke-opacity:1" d="M 87.3352,252.883 49.2133,230.873 z" id="boundary" inkscape:connector-curvature="0" />
	<path style="fill:none;stroke:red;stroke-width:1px;stroke-linecap:butt;stroke-linejoin:miter;stroke-opacity:1" d="M 268.743,101.299 292.023,74.3075 z" id="boundary" inkscape:connector-curvature="0" />
	<path style="fill:none;stroke:red;stroke-width:1px;stroke-linecap:butt;stroke-linejoin:miter;stroke-opacity:1" d="M 268.743,101.299 242.207,114.233 z" id="boundary" inkscape:connector-curvature="0" />
	<path style="fill:none;stroke:red;stroke-width:1px;stroke-linecap:butt;stroke-linejoin:miter;stroke-opacity:1" d="M 322.382,66.1311 292.023,74.3075 z" id="boundary" inkscape:connector-curvature="0" />
	<path style="fill:none;stroke:red;stroke-width:1px;stroke-linecap:butt;stroke-linejoin:miter;stroke-opacity:1" d="M 363.157,44.5625 322.382,66.1311 z" id="boundary" inkscape:connector-curvature="0" />
	<path style="fill:none;stroke:red;stroke-width:1px;stroke-linecap:butt;stroke-linejoin:miter;stroke-opacity:1" d="M 402.602,30.5578 436.167,11.1756 z" id="boundary" inkscape:connector-curvature="0" />
	<path style="fill:none;stroke:red;stroke-width:1px;stroke-linecap:butt;stroke-linejoin:miter;stroke-opacity:1" d="M 470.601,4 436.167,11.1756 z" id="boundary" inkscape:connector-curvature="0" />
	<path style="fill:none;stroke:red;stroke-width:1px;stroke-linecap:butt;stroke-linejoin:miter;stroke-opacity:1" d="M 402.602,30.5578 363.157,44.5625 z" id="boundary" inkscape:connector-curvature="0" />
	<path style="fill:none;stroke:red;stroke-width:1px;stroke-linecap:butt;stroke-linejoin:miter;stroke-opacity:1" d="M 294.423,224.571 267.095,253.143 z" id="boundary" inkscape:connector-curvature="0" />
	<path style="fill:none;stroke:red;stroke-width:1px;stroke-linecap:butt;stroke-linejoin:miter;stroke-opacity:1" d="M 329.679,173.173 294.423,224.571 z" id="boundary" inkscape:connector-curvature="0" />
	<path style="fill:none;stroke:red;stroke-width:1px;stroke-linecap:butt;stroke-linejoin:miter;stroke-opacity:1" d="M 329.679,173.173 363.827,182.949 z" id="boundary" inkscape:connector-curvature="0" />
	<path style="fill:none;stroke:red;stroke-width:1px;stroke-linecap:butt;stroke-linejoin:miter;stroke-opacity:1" d="M 258.92,292.304 267.095,253.143 z" id="boundary" inkscape:connector-curvature="0" />
	<path style="fill:none;stroke:red;stroke-width:1px;stroke-linecap:butt;stroke-linejoin:miter;stroke-opacity:1" d="M 363.827,182.949 402.233,189.498 z" id="boundary" inkscape:connector-curvature="0" />
	<path style="fill:none;stroke:red;stroke-width:1px;stroke-linecap:butt;stroke-linejoin:miter;stroke-opacity:1" d="M 402.233,189.498 419.873,210.528 z" id="boundary" inkscape:connector-curvature="0" />
	<path style="fill:none;stroke:red;stroke-width:1px;stroke-linecap:butt;stroke-linejoin:miter;stroke-opacity:1" d="M 442.707,231.729 419.873,210.528 z" id="boundary" inkscape:connector-curvature="0" />
	<path style="fill:none;stroke:red;stroke-width:1px;stroke-linecap:butt;stroke-linejoin:miter;stroke-opacity:1" d="M 442.707,231.729 454.9,264.827 z" id="boundary" inkscape:connector-curvature="0" />
	<path style="fill:none;stroke:red;stroke-width:1px;stroke-linecap:butt;stroke-linejoin:miter;stroke-opacity:1" d="M 120.906,300.178 149.577,341.626 z" id="boundary" inkscape:connector-curvature="0" />
	<path style="fill:none;stroke:red;stroke-width:1px;stroke-linecap:butt;stroke-linejoin:miter;stroke-opacity:1" d="M 149.577,341.626 165.659,392.329 z" id="boundary" inkscape:connector-curvature="0" />
	<path style="fill:none;stroke:red;stroke-width:1px;stroke-linecap:butt;stroke-linejoin:miter;stroke-opacity:1" d="M 165.659,392.329 168.135,434.327 z" id="boundary" inkscape:connector-curvature="0" />
	<path style="fill:none;stroke:red;stroke-width:1px;stroke-linecap:butt;stroke-linejoin:miter;stroke-opacity:1" d="M 327.592,398.881 302.692,387.248 z" id="boundary" inkscape:connector-curvature="0" />
	<path style="fill:none;stroke:red;stroke-width:1px;stroke-linecap:butt;stroke-linejoin:miter;stroke-opacity:1" d="M 302.692,387.248 276.274,352.659 z" id="boundary" inkscape:connector-curvature="0" />
	<path style="fill:none;stroke:red;stroke-width:1px;stroke-linecap:butt;stroke-linejoin:miter;stroke-opacity:1" d="M 258.92,292.304 276.274,352.659 z" id="boundary" inkscape:connector-curvature="0" />
	<path style="fill:none;stroke:red;stroke-width:1px;stroke-linecap:butt;stroke-linejoin:miter;stroke-opacity:1" d="M 211.304,522.078 176.415,476.593 z" id="boundary" inkscape:connector-curvature="0" />
	<path style="fill:none;stroke:red;stroke-width:1px;stroke-linecap:butt;stroke-linejoin:miter;stroke-opacity:1" d="M 176.415,476.593 168.135,434.327 z" id="boundary" inkscape:connector-curvature="0" />
	<path style="fill:none;stroke:red;stroke-width:1px;stroke-linecap:butt;stroke-linejoin:miter;stroke-opacity:1" d="M 286.423,563.996 248.496,552.591 z" id="boundary" inkscape:connector-curvature="0" />
	<path style="fill:none;stroke:red;stroke-width:1px;stroke-linecap:butt;stroke-linejoin:miter;stroke-opacity:1" d="M 248.496,552.591 211.304,522.078 z" id="boundary" inkscape:connector-curvature="0" />
	<path style="fill:none;stroke:red;stroke-width:1px;stroke-linecap:butt;stroke-linejoin:miter;stroke-opacity:1" d="M 286.423,563.996 317.946,579.769 z" id="boundary" inkscape:connector-curvature="0" />
	<path style="fill:none;stroke:red;stroke-width:1px;stroke-linecap:butt;stroke-linejoin:miter;stroke-opacity:1" d="M 351.228,568.104 317.946,579.769 z" id="boundary" inkscape:connector-curvature="0" />
	<path style="fill:none;stroke:red;stroke-width:1px;stroke-linecap:butt;stroke-linejoin:miter;stroke-opacity:1" d="M 327.592,398.881 345.551,431.363 z" id="boundary" inkscape:connector-curvature="0" />
	<path style="fill:none;stroke:red;stroke-width:1px;stroke-linecap:butt;stroke-linejoin:miter;stroke-opacity:1" d="M 457.177,398.288 433.811,448.752 z" id="boundary" inkscape:connector-curvature="0" />
	<path style="fill:none;stroke:red;stroke-width:1px;stroke-linecap:butt;stroke-linejoin:miter;stroke-opacity:1" d="M 369.346,444.304 345.551,431.363 z" id="boundary" inkscape:connector-curvature="0" />
	<path style="fill:none;stroke:red;stroke-width:1px;stroke-linecap:butt;stroke-linejoin:miter;stroke-opacity:1" d="M 433.811,448.752 405.487,467.955 z" id="boundary" inkscape:connector-curvature="0" />
	<path style="fill:none;stroke:red;stroke-width:1px;stroke-linecap:butt;stroke-linejoin:miter;stroke-opacity:1" d="M 405.487,467.955 369.346,444.304 z" id="boundary" inkscape:connector-curvature="0" />
	<path style="fill:none;stroke:red;stroke-width:1px;stroke-linecap:butt;stroke-linejoin:miter;stroke-opacity:1" d="M 455.195,363.788 452.93,309.209 z" id="boundary" inkscape:connector-curvature="0" />
	<path style="fill:none;stroke:red;stroke-width:1px;stroke-linecap:butt;stroke-linejoin:miter;stroke-opacity:1" d="M 455.195,363.788 457.177,398.288 z" id="boundary" inkscape:connector-curvature="0" />
	<path style="fill:none;stroke:red;stroke-width:1px;stroke-linecap:butt;stroke-linejoin:miter;stroke-opacity:1" d="M 380.33,578.439 351.228,568.104 z" id="boundary" inkscape:connector-curvature="0" />
	<path style="fill:none;stroke:red;stroke-width:1px;stroke-linecap:butt;stroke-linejoin:miter;stroke-opacity:1" d="M 410.497,592.748 380.33,578.439 z" id="boundary" inkscape:connector-curvature="0" />
	<path style="fill:none;stroke:red;stroke-width:1px;stroke-linecap:butt;stroke-linejoin:miter;stroke-opacity:1" d="M 410.497,592.748 425.459,623.109 z" id="boundary" inkscape:connector-curvature="0" />
	<path style="fill:none;stroke:red;stroke-width:1px;stroke-linecap:butt;stroke-linejoin:miter;stroke-opacity:1" d="M 459.434,662.391 425.459,623.109 z" id="boundary" inkscape:connector-curvature="0" />
	<path style="fill:none;stroke:red;stroke-width:1px;stroke-linecap:butt;stroke-linejoin:miter;stroke-opacity:1" d="M 525.449,664.863 496.553,675.54 z" id="boundary" inkscape:connector-curvature="0" />
	<path style="fill:none;stroke:red;stroke-width:1px;stroke-linecap:butt;stroke-linejoin:miter;stroke-opacity:1" d="M 496.553,675.54 459.434,662.391 z" id="boundary" inkscape:connector-curvature="0" />
	<path style="fill:none;stroke:red;stroke-width:1px;stroke-linecap:butt;stroke-linejoin:miter;stroke-opacity:1" d="M 452.93,309.209 454.9,264.827 z" id="boundary" inkscape:connector-curvature="0" />
	<path style="fill:none;stroke:red;stroke-width:1px;stroke-linecap:butt;stroke-linejoin:miter;stroke-opacity:1" d="M 470.601,4 505.921,4.16587 z" id="boundary" inkscape:connector-curvature="0" />
	<path style="fill:none;stroke:red;stroke-width:1px;stroke-linecap:butt;stroke-linejoin:miter;stroke-opacity:1" d="M 579.876,15.5488 554.136,23.3669 z" id="boundary" inkscape:connector-curvature="0" />
	<path style="fill:none;stroke:red;stroke-width:1px;stroke-linecap:butt;stroke-linejoin:miter;stroke-opacity:1" d="M 554.136,23.3669 505.921,4.16587 z" id="boundary" inkscape:connector-curvature="0" />
	<path style="fill:none;stroke:red;stroke-width:1px;stroke-linecap:butt;stroke-linejoin:miter;stroke-opacity:1" d="M 579.876,15.5488 616.992,24.7266 z" id="boundary" inkscape:connector-curvature="0" />
	<path style="fill:none;stroke:red;stroke-width:1px;stroke-linecap:butt;stroke-linejoin:miter;stroke-opacity:1" d="M 673.716,58.5717 645.366,50.1231 z" id="boundary" inkscape:connector-curvature="0" />
	<path style="fill:none;stroke:red;stroke-width:1px;stroke-linecap:butt;stroke-linejoin:miter;stroke-opacity:1" d="M 645.366,50.1231 616.992,24.7266 z" id="boundary" inkscape:connector-curvature="0" />
	<path style="fill:none;stroke:red;stroke-width:1px;stroke-linecap:butt;stroke-linejoin:miter;stroke-opacity:1" d="M 713.453,76.0687 673.716,58.5717 z" id="boundary" inkscape:connector-curvature="0" />
	<path style="fill:none;stroke:red;stroke-width:1px;stroke-linecap:butt;stroke-linejoin:miter;stroke-opacity:1" d="M 573.969,245.552 586.671,214.83 z" id="boundary" inkscape:connector-curvature="0" />
	<path style="fill:none;stroke:red;stroke-width:1px;stroke-linecap:butt;stroke-linejoin:miter;stroke-opacity:1" d="M 608.444,190.98 586.671,214.83 z" id="boundary" inkscape:connector-curvature="0" />
	<path style="fill:none;stroke:red;stroke-width:1px;stroke-linecap:butt;stroke-linejoin:miter;stroke-opacity:1" d="M 608.444,190.98 652.145,180.928 z" id="boundary" inkscape:connector-curvature="0" />
	<path style="fill:none;stroke:red;stroke-width:1px;stroke-linecap:butt;stroke-linejoin:miter;stroke-opacity:1" d="M 697.946,193.966 652.145,180.928 z" id="boundary" inkscape:connector-curvature="0" />
	<path style="fill:none;stroke:red;stroke-width:1px;stroke-linecap:butt;stroke-linejoin:miter;stroke-opacity:1" d="M 571.469,282.075 573.969,245.552 z" id="boundary" inkscape:connector-curvature="0" />
	<path style="fill:none;stroke:red;stroke-width:1px;stroke-linecap:butt;stroke-linejoin:miter;stroke-opacity:1" d="M 724.364,203.322 697.946,193.966 z" id="boundary" inkscape:connector-curvature="0" />
	<path style="fill:none;stroke:red;stroke-width:1px;stroke-linecap:butt;stroke-linejoin:miter;stroke-opacity:1" d="M 713.453,76.0687 742.397,111.012 z" id="boundary" inkscape:connector-curvature="0" />
	<path style="fill:none;stroke:red;stroke-width:1px;stroke-linecap:butt;stroke-linejoin:miter;stroke-opacity:1" d="M 724.364,203.322 742.268,250.24 z" id="boundary" inkscape:connector-curvature="0" />
	<path style="fill:none;stroke:red;stroke-width:1px;stroke-linecap:butt;stroke-linejoin:miter;stroke-opacity:1" d="M 765.589,122.694 742.397,111.012 z" id="boundary" inkscape:connector-curvature="0" />
	<path style="fill:none;stroke:red;stroke-width:1px;stroke-linecap:butt;stroke-linejoin:miter;stroke-opacity:1" d="M 868.412,93.6989 838.979,142.057 z" id="boundary" inkscape:connector-curvature="0" />
	<path style="fill:none;stroke:red;stroke-width:1px;stroke-linecap:butt;stroke-linejoin:miter;stroke-opacity:1" d="M 765.589,122.694 791.085,146.914 z" id="boundary" inkscape:connector-curvature="0" />
	<path style="fill:none;stroke:red;stroke-width:1px;stroke-linecap:butt;stroke-linejoin:miter;stroke-opacity:1" d="M 935.102,61.6073 967.461,73.3884 z" id="boundary" inkscape:connector-curvature="0" />
	<path style="fill:none;stroke:red;stroke-width:1px;stroke-linecap:butt;stroke-linejoin:miter;stroke-opacity:1" d="M 967.461,73.3884 980.517,108.373 z" id="boundary" inkscape:connector-curvature="0" />
	<path style="fill:none;stroke:red;stroke-width:1px;stroke-linecap:butt;stroke-linejoin:miter;stroke-opacity:1" d="M 868.412,93.6989 900.895,80.5541 z" id="boundary" inkscape:connector-curvature="0" />
	<path style="fill:none;stroke:red;stroke-width:1px;stroke-linecap:butt;stroke-linejoin:miter;stroke-opacity:1" d="M 900.895,80.5541 935.102,61.6073 z" id="boundary" inkscape:connector-curvature="0" />
	<path style="fill:none;stroke:red;stroke-width:1px;stroke-linecap:butt;stroke-linejoin:miter;stroke-opacity:1" d="M 838.979,142.057 816.315,161 z" id="boundary" inkscape:connector-curvature="0" />
	<path style="fill:none;stroke:red;stroke-width:1px;stroke-linecap:butt;stroke-linejoin:miter;stroke-opacity:1" d="M 816.315,161 791.085,146.914 z" id="boundary" inkscape:connector-curvature="0" />
	<path style="fill:none;stroke:red;stroke-width:1px;stroke-linecap:butt;stroke-linejoin:miter;stroke-opacity:1" d="M 978.393,187.909 954.562,215.789 z" id="boundary" inkscape:connector-curvature="0" />
	<path style="fill:none;stroke:red;stroke-width:1px;stroke-linecap:butt;stroke-linejoin:miter;stroke-opacity:1" d="M 924.061,234.025 954.562,215.789 z" id="boundary" inkscape:connector-curvature="0" />
	<path style="fill:none;stroke:red;stroke-width:1px;stroke-linecap:butt;stroke-linejoin:miter;stroke-opacity:1" d="M 903.836,260.824 924.061,234.025 z" id="boundary" inkscape:connector-curvature="0" />
	<path style="fill:none;stroke:red;stroke-width:1px;stroke-linecap:butt;stroke-linejoin:miter;stroke-opacity:1" d="M 980.517,108.373 996,156.655 z" id="boundary" inkscape:connector-curvature="0" />
	<path style="fill:none;stroke:red;stroke-width:1px;stroke-linecap:butt;stroke-linejoin:miter;stroke-opacity:1" d="M 996,156.655 978.393,187.909 z" id="boundary" inkscape:connector-curvature="0" />
	<path style="fill:none;stroke:red;stroke-width:1px;stroke-linecap:butt;stroke-linejoin:miter;stroke-opacity:1" d="M 721.132,391.16 676.261,430.416 z" id="boundary" inkscape:connector-curvature="0" />
	<path style="fill:none;stroke:red;stroke-width:1px;stroke-linecap:butt;stroke-linejoin:miter;stroke-opacity:1" d="M 571.469,282.075 561.653,329.085 z" id="boundary" inkscape:connector-curvature="0" />
	<path style="fill:none;stroke:red;stroke-width:1px;stroke-linecap:butt;stroke-linejoin:miter;stroke-opacity:1" d="M 567.073,370.707 561.653,329.085 z" id="boundary" inkscape:connector-curvature="0" />
	<path style="fill:none;stroke:red;stroke-width:1px;stroke-linecap:butt;stroke-linejoin:miter;stroke-opacity:1" d="M 567.073,370.707 573.561,423.94 z" id="boundary" inkscape:connector-curvature="0" />
	<path style="fill:none;stroke:red;stroke-width:1px;stroke-linecap:butt;stroke-linejoin:miter;stroke-opacity:1" d="M 676.261,430.416 639.317,459.351 z" id="boundary" inkscape:connector-curvature="0" />
	<path style="fill:none;stroke:red;stroke-width:1px;stroke-linecap:butt;stroke-linejoin:miter;stroke-opacity:1" d="M 591.562,460.271 639.317,459.351 z" id="boundary" inkscape:connector-curvature="0" />
	<path style="fill:none;stroke:red;stroke-width:1px;stroke-linecap:butt;stroke-linejoin:miter;stroke-opacity:1" d="M 591.562,460.271 573.561,423.94 z" id="boundary" inkscape:connector-curvature="0" />
	<path style="fill:none;stroke:red;stroke-width:1px;stroke-linecap:butt;stroke-linejoin:miter;stroke-opacity:1" d="M 739.459,561.553 702.95,575.334 z" id="boundary" inkscape:connector-curvature="0" />
	<path style="fill:none;stroke:red;stroke-width:1px;stroke-linecap:butt;stroke-linejoin:miter;stroke-opacity:1" d="M 525.449,664.863 543.627,638.572 z" id="boundary" inkscape:connector-curvature="0" />
	<path style="fill:none;stroke:red;stroke-width:1px;stroke-linecap:butt;stroke-linejoin:miter;stroke-opacity:1" d="M 570.451,610.592 543.627,638.572 z" id="boundary" inkscape:connector-curvature="0" />
	<path style="fill:none;stroke:red;stroke-width:1px;stroke-linecap:butt;stroke-linejoin:miter;stroke-opacity:1" d="M 663.821,577.24 641.575,568.969 z" id="boundary" inkscape:connector-curvature="0" />
	<path style="fill:none;stroke:red;stroke-width:1px;stroke-linecap:butt;stroke-linejoin:miter;stroke-opacity:1" d="M 702.95,575.334 663.821,577.24 z" id="boundary" inkscape:connector-curvature="0" />
	<path style="fill:none;stroke:red;stroke-width:1px;stroke-linecap:butt;stroke-linejoin:miter;stroke-opacity:1" d="M 611.551,581.627 641.575,568.969 z" id="boundary" inkscape:connector-curvature="0" />
	<path style="fill:none;stroke:red;stroke-width:1px;stroke-linecap:butt;stroke-linejoin:miter;stroke-opacity:1" d="M 570.451,610.592 611.551,581.627 z" id="boundary" inkscape:connector-curvature="0" />
	<path style="fill:none;stroke:red;stroke-width:1px;stroke-linecap:butt;stroke-linejoin:miter;stroke-opacity:1" d="M 748.758,282.96 742.268,250.24 z" id="boundary" inkscape:connector-curvature="0" />
	<path style="fill:none;stroke:red;stroke-width:1px;stroke-linecap:butt;stroke-linejoin:miter;stroke-opacity:1" d="M 755.323,345.452 748.758,282.96 z" id="boundary" inkscape:connector-curvature="0" />
	<path style="fill:none;stroke:red;stroke-width:1px;stroke-linecap:butt;stroke-linejoin:miter;stroke-opacity:1" d="M 755.323,345.452 736.335,365.43 z" id="boundary" inkscape:connector-curvature="0" />
	<path style="fill:none;stroke:red;stroke-width:1px;stroke-linecap:butt;stroke-linejoin:miter;stroke-opacity:1" d="M 883.168,306.129 903.836,260.824 z" id="boundary" inkscape:connector-curvature="0" />
	<path style="fill:none;stroke:red;stroke-width:1px;stroke-linecap:butt;stroke-linejoin:miter;stroke-opacity:1" d="M 883.168,306.129 860.522,324.21 z" id="boundary" inkscape:connector-curvature="0" />
	<path style="fill:none;stroke:red;stroke-width:1px;stroke-linecap:butt;stroke-linejoin:miter;stroke-opacity:1" d="M 850.613,362.99 860.522,324.21 z" id="boundary" inkscape:connector-curvature="0" />
	<path style="fill:none;stroke:red;stroke-width:1px;stroke-linecap:butt;stroke-linejoin:miter;stroke-opacity:1" d="M 840.105,396.471 850.613,362.99 z" id="boundary" inkscape:connector-curvature="0" />
	<path style="fill:none;stroke:red;stroke-width:1px;stroke-linecap:butt;stroke-linejoin:miter;stroke-opacity:1" d="M 780.722,526.223 739.459,561.553 z" id="boundary" inkscape:connector-curvature="0" />
	<path style="fill:none;stroke:red;stroke-width:1px;stroke-linecap:butt;stroke-linejoin:miter;stroke-opacity:1" d="M 736.335,365.43 721.132,391.16 z" id="boundary" inkscape:connector-curvature="0" />
	<path style="fill:none;stroke:red;stroke-width:1px;stroke-linecap:butt;stroke-linejoin:miter;stroke-opacity:1" d="M 823.207,437.526 804.26,480.821 z" id="boundary" inkscape:connector-curvature="0" />
	<path style="fill:none;stroke:red;stroke-width:1px;stroke-linecap:butt;stroke-linejoin:miter;stroke-opacity:1" d="M 780.722,526.223 804.26,480.821 z" id="boundary" inkscape:connector-curvature="0" />
	<path style="fill:none;stroke:red;stroke-width:1px;stroke-linecap:butt;stroke-linejoin:miter;stroke-opacity:1" d="M 823.207,437.526 840.105,396.471 z" id="boundary" inkscape:connector-curvature="0" />
	<circle cx="4" cy="133.921" r="4" fill="#0" id="circle0"/>
	<circle cx="12.8555" cy="90.6296" r="4" fill="#0" id="circle1"/>
	<circle cx="22.86" cy="190.171" r="4" fill="#0" id="circle2"/>
	<circle cx="36.2879" cy="73.4542" r="4" fill="#0" id="circle3"/>
	<circle cx="49.2133" cy="230.873" r="4" fill="#0" id="circle4"/>
	<circle cx="73.6096" cy="73.8641" r="4" fill="#0" id="circle5"/>
	<circle cx="87.3352" cy="252.883" r="4" fill="#0" id="circle6"/>
	<circle cx="105.714" cy="78.9095" r="4" fill="#0" id="circle7"/>
	<circle cx="120.906" cy="300.178" r="4" fill="#0" id="circle8"/>
	<circle cx="141.411" cy="120.15" r="4" fill="#0" id="circle9"/>
	<circle cx="149.577" cy="341.626" r="4" fill="#0" id="circle10"/>
	<circle cx="165.659" cy="392.329" r="4" fill="#0" id="circle11"/>
	<circle cx="167.941" cy="139.832" r="4" fill="#0" id="circle12"/>
	<circle cx="168.135" cy="434.327" r="4" fill="#0" id="circle13"/>
	<circle cx="176.415" cy="476.593" r="4" fill="#0" id="circle14"/>
	<circle cx="183.946" cy="164.436" r="4" fill="#0" id="circle15"/>
	<circle cx="211.483" cy="143.912" r="4" fill="#0" id="circle16"/>
	<circle cx="211.304" cy="522.078" r="4" fill="#0" id="circle17"/>
	<circle cx="242.207" cy="114.233" r="4" fill="#0" id="circle18"/>
	<circle cx="248.496" cy="552.591" r="4" fill="#0" id="circle19"/>
	<circle cx="258.92" cy="292.304" r="4" fill="#0" id="circle20"/>
	<circle cx="267.095" cy="253.143" r="4" fill="#0" id="circle21"/>
	<circle cx="268.743" cy="101.299" r="4" fill="#0" id="circle22"/>
	<circle cx="276.274" cy="352.659" r="4" fill="#0" id="circle23"/>
	<circle cx="286.423" cy="563.996" r="4" fill="#0" id="circle24"/>
	<circle cx="292.023" cy="74.3075" r="4" fill="#0" id="circle25"/>
	<circle cx="294.423" cy="224.571" r="4" fill="#0" id="circle26"/>
	<circle cx="302.692" cy="387.248" r="4" fill="#0" id="circle27"/>
	<circle cx="317.946" cy="579.769" r="4" fill="#0" id="circle28"/>
	<circle cx="322.382" cy="66.1311" r="4" fill="#0" id="circle29"/>
	<circle cx="327.592" cy="398.881" r="4" fill="#0" id="circle30"/>
	<circle cx="329.679" cy="173.173" r="4" fill="#0" id="circle31"/>
	<circle cx="345.551" cy="431.363" r="4" fill="#0" id="circle32"/>
	<circle cx="351.228" cy="568.104" r="4" fill="#0" id="circle33"/>
	<circle cx="363.157" cy="44.5625" r="4" fill="#0" id="circle34"/>
	<circle cx="363.827" cy="182.949" r="4" fill="#0" id="circle35"/>
	<circle cx="369.346" cy="444.304" r="4" fill="#0" id="circle36"/>
	<circle cx="380.33" cy="578.439" r="4" fill="#0" id="circle37"/>
	<circle cx="402.233" cy="189.498" r="4" fill="#0" id="circle38"/>
	<circle cx="402.602" cy="30.5578" r="4" fill="#0" id="circle39"/>
	<circle cx="405.487" cy="467.955" r="4" fill="#0" id="circle40"/>
	<circle cx="410.497" cy="592.748" r="4" fill="#0" id="circle41"/>
	<circle cx="425.459" cy="623.109" r="4" fill="#0" id="circle42"/>
	<circle cx="433.811" cy="448.752" r="4" fill="#0" id="circle43"/>
	<circle cx="436.167" cy="11.1756" r="4" fill="#0" id="circle44"/>
	<circle cx="442.707" cy="231.729" r="4" fill="#0" id="circle45"/>
	<circle cx="452.93" cy="309.209" r="4" fill="#0" id="circle46"/>
	<circle cx="454.9" cy="264.827" r="4" fill="#0" id="circle47"/>
	<circle cx="455.195" cy="363.788" r="4" fill="#0" id="circle48"/>
	<circle cx="457.177" cy="398.288" r="4" fill="#0" id="circle49"/>
	<circle cx="459.434" cy="662.391" r="4" fill="#0" id="circle50"/>
	<circle cx="470.601" cy="4" r="4" fill="#0" id="circle51"/>
	<circle cx="496.553" cy="675.54" r="4" fill="#0" id="circle52"/>
	<circle cx="505.921" cy="4.16587" r="4" fill="#0" id="circle53"/>
	<circle cx="525.449" cy="664.863" r="4" fill="#0" id="circle54"/>
	<circle cx="543.627" cy="638.572" r="4" fill="#0" id="circle55"/>
	<circle cx="554.136" cy="23.3669" r="4" fill="#0" id="circle56"/>
	<circle cx="561.653" cy="329.085" r="4" fill="#0" id="circle57"/>
	<circle cx="567.073" cy="370.707" r="4" fill="#0" id="circle58"/>
	<circle cx="571.469" cy="282.075" r="4" fill="#0" id="circle59"/>
	<circle cx="573.561" cy="423.94" r="4" fill="#0" id="circle60"/>
	<circle cx="573.969" cy="245.552" r="4" fill="#0" id="circle61"/>
	<circle cx="570.451" cy="610.592" r="4" fill="#0" id="circle62"/>
	<circle cx="579.876" cy="15.5488" r="4" fill="#0" id="circle63"/>
	<circle cx="586.671" cy="214.83" r="4" fill="#0" id="circle64"/>
	<circle cx="591.562" cy="460.271" r="4" fill="#0" id="circle65"/>
	<circle cx="608.444" cy="190.98" r="4" fill="#0" id="circle66"/>
	<circle cx="611.551" cy="581.627" r="4" fill="#0" id="circle67"/>
	<circle cx="616.992" cy="24.7266" r="4" fill="#0" id="circle68"/>
	<circle cx="639.317" cy="459.351" r="4" fill="#0" id="circle69"/>
	<circle cx="641.575" cy="568.969" r="4" fill="#0" id="circle70"/>
	<circle cx="645.366" cy="50.1231" r="4" fill="#0" id="circle71"/>
	<circle cx="652.145" cy="180.928" r="4" fill="#0" id="circle72"/>
	<circle cx="663.821" cy="577.24" r="4" fill="#0" id="circle73"/>
	<circle cx="673.716" cy="58.5717" r="4" fill="#0" id="circle74"/>
	<circle cx="676.261" cy="430.416" r="4" fill="#0" id="circle75"/>
	<circle cx="697.946" cy="193.966" r="4" fill="#0" id="circle76"/>
	<circle cx="702.95" cy="575.334" r="4" fill="#0" id="circle77"/>
	<circle cx="713.453" cy="76.0687" r="4" fill="#0" id="circle78"/>
	<circle cx="721.132" cy="391.16" r="4" fill="#0" id="circle79"/>
	<circle cx="724.364" cy="203.322" r="4" fill="#0" id="circle80"/>
	<circle cx="742.397" cy="111.012" r="4" fill="#0" id="circle81"/>
	<circle cx="739.459" cy="561.553" r="4" fill="#0" id="circle82"/>
	<circle cx="742.268" cy="250.24" r="4" fill="#0" id="circle83"/>
	<circle cx="748.758" cy="282.96" r="4" fill="#0" id="circle84"/>
	<circle cx="755.323" cy="345.452" r="4" fill="#0" id="circle85"/>
	<circle cx="765.589" cy="122.694" r="4" fill="#0" id="circle86"/>
	<circle cx="780.722" cy="526.223" r="4" fill="#0" id="circle87"/>
	<circle cx="791.085" cy="146.914" r="4" fill="#0" id="circle88"/>
	<circle cx="804.26" cy="480.821" r="4" fill="#0" id="circle89"/>
	<circle cx="816.315" cy="161" r="4" fill="#0" id="circle90"/>
	<circle cx="823.207" cy="437.526" r="4" fill="#0" id="circle91"/>
	<circle cx="838.979" cy="142.057" r="4" fill="#0" id="circle92"/>
	<circle cx="840.105" cy="396.471" r="4" fill="#0" id="circle93"/>
	<circle cx="850.613" cy="362.99" r="4" fill="#0" id="circle94"/>
	<circle cx="860.522" cy="324.21" r="4" fill="#0" id="circle95"/>
	<circle cx="868.412" cy="93.6989" r="4" fill="#0" id="circle96"/>
	<circle cx="883.168" cy="306.129" r="4" fill="#0" id="circle97"/>
	<circle cx="900.895" cy="80.5541" r="4" fill="#0" id="circle98"/>
	<circle cx="903.836" cy="260.824" r="4" fill="#0" id="circle99"/>
	<circle cx="924.061" cy="234.025" r="4" fill="#0" id="circle100"/>
	<circle cx="935.102" cy="61.6073" r="4" fill="#0" id="circle101"/>
	<circle cx="954.562" cy="215.789" r="4" fill="#0" id="circle102"/>
	<circle cx="967.461" cy="73.3884" r="4" fill="#0" id="circle103"/>
	<circle cx="978.393" cy="187.909" r="4" fill="#0" id="circle104"/>
	<circle cx="980.517" cy="108.373" r="4" fill="#0" id="circle105"/>
	<circle cx="996" cy="156.655" r="4" fill="#0" id="circle106"/>
	<circle cx="419.873" cy="210.528" r="4" fill="#0" id="circle107"/>
	<circle cx="736.335" cy="365.43" r="4" fill="#0" id="circle108"/>
	</g>
</svg>