<?xml version="1.0" encoding="UTF-8" standalone="no"?>
<!-- Created with CurveBenchmark -->
<svg
	xmlns:dc="http://purl.org/dc/elements/1.1/"
	xmlns:cc="http://creativecommons.org/ns#"
	xmlns:rdf="http://www.w3.org/1999/02/22-rdf-syntax-ns#"
	xmlns:svg="http://www.w3.org/2000/svg"
	xmlns="http://www.w3.org/2000/svg"
	xmlns:sodipodi="http://sodipodi.sourceforge.net/DTD/sodipodi-0.dtd"
	xmlns:inkscape="http://www.inkscape.org/namespaces/inkscape"
	width="1000"
	height="1000"
	id="svg2"
	version="1.1"
	sodipodi:docname="noisy-0.003/gathan1-mc26.txt">
<defs
	id="defs4" />
<metadata
	id="metadata7">
	<rdf:RDF>
		<cc:Work
			rdf:about="">
			<dc:format>image/svg+xml</dc:format>
			<dc:type
				rdf:resource="http://purl.org/dc/dcmitype/StillImage" />
			<dc:title></dc:title>
		</cc:Work>
	</rdf:RDF>
</metadata>
<g
	inkscape:label="Layer 1"
	inkscape:groupmode="layer"
	id="layer1">
	<path style="fill:none;stroke:red;stroke-width:1px;stroke-linecap:butt;stroke-linejoin:miter;stroke-opacity:1" d="M 4,348.797 186.163,98.3256 z" id="boundary" inkscape:connector-curvature="0" />
	<path style="fill:none;stroke:red;stroke-width:1px;stroke-linecap:butt;stroke-linejoin:miter;stroke-opacity:1" d="M 382.575,351.179 303.705,446.801 z" id="boundary" inkscape:connector-curvature="0" />
	<path style="fill:none;stroke:red;stroke-width:1px;stroke-linecap:butt;stroke-linejoin:miter;stroke-opacity:1" d="M 186.163,98.3256 485.845,4 z" id="boundary" inkscape:connector-curvature="0" />
	<path style="fill:none;stroke:red;stroke-width:1px;stroke-linecap:butt;stroke-linejoin:miter;stroke-opacity:1" d="M 490.201,684.588 377.902,653.465 z" id="boundary" inkscape:connector-curvature="0" />
	<path style="fill:none;stroke:red;stroke-width:1px;stroke-linecap:butt;stroke-linejoin:miter;stroke-opacity:1" d="M 303.705,446.801 292.962,561.843 z" id="boundary" inkscape:connector-curvature="0" />
	<path style="fill:none;stroke:red;stroke-width:1px;stroke-linecap:butt;stroke-linejoin:miter;stroke-opacity:1" d="M 190.932,904.121 4.47225,651.771 z" id="boundary" inkscape:connector-curvature="0" />
	<path style="fill:none;stroke:red;stroke-width:1px;stroke-linecap:butt;stroke-linejoin:miter;stroke-opacity:1" d="M 480.265,996 190.932,904.121 z" id="boundary" inkscape:connector-curvature="0" />
	<path style="fill:none;stroke:red;stroke-width:1px;stroke-linecap:butt;stroke-linejoin:miter;stroke-opacity:1" d="M 377.902,653.465 292.962,561.843 z" id="boundary" inkscape:connector-curvature="0" />
	<path style="fill:none;stroke:red;stroke-width:1px;stroke-linecap:butt;stroke-linejoin:miter;stroke-opacity:1" d="M 4.47225,651.771 4,348.797 z" id="boundary" inkscape:connector-curvature="0" />
	<path style="fill:none;stroke:red;stroke-width:1px;stroke-linecap:butt;stroke-linejoin:miter;stroke-opacity:1" d="M 489.27,315.586 382.575,351.179 z" id="boundary" inkscape:connector-curvature="0" />
	<path style="fill:none;stroke:red;stroke-width:1px;stroke-linecap:butt;stroke-linejoin:miter;stroke-opacity:1" d="M 489.27,315.586 599.437,349.841 z" id="boundary" inkscape:connector-curvature="0" />
	<path style="fill:none;stroke:red;stroke-width:1px;stroke-linecap:butt;stroke-linejoin:miter;stroke-opacity:1" d="M 777.321,95.7521 965.2,350.05 z" id="boundary" inkscape:connector-curvature="0" />
	<path style="fill:none;stroke:red;stroke-width:1px;stroke-linecap:butt;stroke-linejoin:miter;stroke-opacity:1" d="M 668.134,441.38 599.437,349.841 z" id="boundary" inkscape:connector-curvature="0" />
	<path style="fill:none;stroke:red;stroke-width:1px;stroke-linecap:butt;stroke-linejoin:miter;stroke-opacity:1" d="M 965.2,350.05 964.199,653.45 z" id="boundary" inkscape:connector-curvature="0" />
	<path style="fill:none;stroke:red;stroke-width:1px;stroke-linecap:butt;stroke-linejoin:miter;stroke-opacity:1" d="M 485.845,4 777.321,95.7521 z" id="boundary" inkscape:connector-curvature="0" />
	<path style="fill:none;stroke:red;stroke-width:1px;stroke-linecap:butt;stroke-linejoin:miter;stroke-opacity:1" d="M 668.134,441.38 665.115,557.585 z" id="boundary" inkscape:connector-curvature="0" />
	<path style="fill:none;stroke:red;stroke-width:1px;stroke-linecap:butt;stroke-linejoin:miter;stroke-opacity:1" d="M 781.409,903.83 480.265,996 z" id="boundary" inkscape:connector-curvature="0" />
	<path style="fill:none;stroke:red;stroke-width:1px;stroke-linecap:butt;stroke-linejoin:miter;stroke-opacity:1" d="M 598.514,654.404 490.201,684.588 z" id="boundary" inkscape:connector-curvature="0" />
	<path style="fill:none;stroke:red;stroke-width:1px;stroke-linecap:butt;stroke-linejoin:miter;stroke-opacity:1" d="M 665.115,557.585 598.514,654.404 z" id="boundary" inkscape:connector-curvature="0" />
	<path style="fill:none;stroke:red;stroke-width:1px;stroke-linecap:butt;stroke-linejoin:miter;stroke-opacity:1" d="M 964.199,653.45 781.409,903.83 z" id="boundary" inkscape:connector-curvature="0" />
	<circle cx="4" cy="348.797" r="4" fill="#0" id="circle0"/>
	<circle cx="4.47225" cy="651.771" r="4" fill="#0" id="circle1"/>
	<circle cx="186.163" cy="98.3256" r="4" fill="#0" id="circle2"/>
	<circle cx="190.932" cy="904.121" r="4" fill="#0" id="circle3"/>
	<circle cx="485.845" cy="4" r="4" fill="#0" id="circle4"/>
	<circle cx="489.27" cy="315.586" r="4" fill="#0" id="circle5"/>
	<circle cx="490.201" cy="684.588" r="4" fill="#0" id="circle6"/>
	<circle cx="480.265" cy="996" r="4" fill="#0" id="circle7"/>
	<circle cx="777.321" cy="95.7521" r="4" fill="#0" id="circle8"/>
	<circle cx="781.409" cy="903.83" r="4" fill="#0" id="circle9"/>
	<circle cx="965.2" cy="350.05" r="4" fill="#0" id="circle10"/>
	<circle cx="964.199" cy="653.45" r="4" fill="#0" id="circle11"/>
	<circle cx="382.575" cy="351.179" r="4" fill="#0" id="circle12"/>
	<circle cx="303.705" cy="446.801" r="4" fill="#0" id="circle13"/>
	<circle cx="292.962" cy="561.843" r="4" fill="#0" id="circle14"/>
	<circle cx="377.902" cy="653.465" r="4" fill="#0" id="circle15"/>
	<circle cx="598.514" cy="654.404" r="4" fill="#0" id="circle16"/>
	<circle cx="665.115" cy="557.585" r="4" fill="#0" id="circle17"/>
	<circle cx="668.134" cy="441.38" r="4" fill="#0" id="circle18"/>
	<circle cx="599.437" cy="349.841" r="4" fill="#0" id="circle19"/>
	</g>
</svg>