<?xml version="1.0" encoding="UTF-8" standalone="no"?>
<!-- Created with CurveBenchmark -->
<svg
	xmlns:dc="http://purl.org/dc/elements/1.1/"
	xmlns:cc="http://creativecommons.org/ns#"
	xmlns:rdf="http://www.w3.org/1999/02/22-rdf-syntax-ns#"
	xmlns:svg="http://www.w3.org/2000/svg"
	xmlns="http://www.w3.org/2000/svg"
	xmlns:sodipodi="http://sodipodi.sourceforge.net/DTD/sodipodi-0.dtd"
	xmlns:inkscape="http://www.inkscape.org/namespaces/inkscape"
	width="1000"
	height="1000"
	id="svg2"
	version="1.1"
	sodipodi:docname="noisy-0.003/hnncrust-mc12.txt">
<defs
	id="defs4" />
<metadata
	id="metadata7">
	<rdf:RDF>
		<cc:Work
			rdf:about="">
			<dc:format>image/svg+xml</dc:format>
			<dc:type
				rdf:resource="http://purl.org/dc/dcmitype/StillImage" />
			<dc:title></dc:title>
		</cc:Work>
	</rdf:RDF>
</metadata>
<g
	inkscape:label="Layer 1"
	inkscape:groupmode="layer"
	id="layer1">
	<path style="fill:none;stroke:red;stroke-width:1px;stroke-linecap:butt;stroke-linejoin:miter;stroke-opacity:1" d="M 237.522,153.873 261.99,147.28 z" id="boundary" inkscape:connector-curvature="0" />
	<path style="fill:none;stroke:red;stroke-width:1px;stroke-linecap:butt;stroke-linejoin:miter;stroke-opacity:1" d="M 237.522,153.873 242.406,173.552 z" id="boundary" inkscape:connector-curvature="0" />
	<path style="fill:none;stroke:red;stroke-width:1px;stroke-linecap:butt;stroke-linejoin:miter;stroke-opacity:1" d="M 261.99,147.28 287.294,149.693 z" id="boundary" inkscape:connector-curvature="0" />
	<path style="fill:none;stroke:red;stroke-width:1px;stroke-linecap:butt;stroke-linejoin:miter;stroke-opacity:1" d="M 287.294,149.693 314.681,145.228 z" id="boundary" inkscape:connector-curvature="0" />
	<path style="fill:none;stroke:red;stroke-width:1px;stroke-linecap:butt;stroke-linejoin:miter;stroke-opacity:1" d="M 314.681,145.228 315.131,173.214 z" id="boundary" inkscape:connector-curvature="0" />
	<path style="fill:none;stroke:red;stroke-width:1px;stroke-linecap:butt;stroke-linejoin:miter;stroke-opacity:1" d="M 315.131,173.214 313.569,202.369 z" id="boundary" inkscape:connector-curvature="0" />
	<path style="fill:none;stroke:red;stroke-width:1px;stroke-linecap:butt;stroke-linejoin:miter;stroke-opacity:1" d="M 313.569,202.369 336.184,206.704 z" id="boundary" inkscape:connector-curvature="0" />
	<path style="fill:none;stroke:red;stroke-width:1px;stroke-linecap:butt;stroke-linejoin:miter;stroke-opacity:1" d="M 336.184,206.704 355.609,201.265 z" id="boundary" inkscape:connector-curvature="0" />
	<path style="fill:none;stroke:red;stroke-width:1px;stroke-linecap:butt;stroke-linejoin:miter;stroke-opacity:1" d="M 355.609,201.265 361.517,178.8 z" id="boundary" inkscape:connector-curvature="0" />
	<path style="fill:none;stroke:red;stroke-width:1px;stroke-linecap:butt;stroke-linejoin:miter;stroke-opacity:1" d="M 361.517,178.8 389.404,176.231 z" id="boundary" inkscape:connector-curvature="0" />
	<path style="fill:none;stroke:red;stroke-width:1px;stroke-linecap:butt;stroke-linejoin:miter;stroke-opacity:1" d="M 389.404,176.231 418.982,179.08 z" id="boundary" inkscape:connector-curvature="0" />
	<path style="fill:none;stroke:red;stroke-width:1px;stroke-linecap:butt;stroke-linejoin:miter;stroke-opacity:1" d="M 418.982,179.08 452.352,174.688 z" id="boundary" inkscape:connector-curvature="0" />
	<path style="fill:none;stroke:red;stroke-width:1px;stroke-linecap:butt;stroke-linejoin:miter;stroke-opacity:1" d="M 452.352,174.688 475.078,177.843 z" id="boundary" inkscape:connector-curvature="0" />
	<path style="fill:none;stroke:red;stroke-width:1px;stroke-linecap:butt;stroke-linejoin:miter;stroke-opacity:1" d="M 475.078,177.843 497.022,177.841 z" id="boundary" inkscape:connector-curvature="0" />
	<path style="fill:none;stroke:red;stroke-width:1px;stroke-linecap:butt;stroke-linejoin:miter;stroke-opacity:1" d="M 497.022,177.841 495.941,199.862 z" id="boundary" inkscape:connector-curvature="0" />
	<path style="fill:none;stroke:red;stroke-width:1px;stroke-linecap:butt;stroke-linejoin:miter;stroke-opacity:1" d="M 495.941,199.862 522.621,198.436 z" id="boundary" inkscape:connector-curvature="0" />
	<path style="fill:none;stroke:red;stroke-width:1px;stroke-linecap:butt;stroke-linejoin:miter;stroke-opacity:1" d="M 522.621,198.436 545.862,202.685 z" id="boundary" inkscape:connector-curvature="0" />
	<path style="fill:none;stroke:red;stroke-width:1px;stroke-linecap:butt;stroke-linejoin:miter;stroke-opacity:1" d="M 545.862,202.685 546.811,176.878 z" id="boundary" inkscape:connector-curvature="0" />
	<path style="fill:none;stroke:red;stroke-width:1px;stroke-linecap:butt;stroke-linejoin:miter;stroke-opacity:1" d="M 546.811,176.878 546.794,145.916 z" id="boundary" inkscape:connector-curvature="0" />
	<path style="fill:none;stroke:red;stroke-width:1px;stroke-linecap:butt;stroke-linejoin:miter;stroke-opacity:1" d="M 546.794,145.916 573.532,145.204 z" id="boundary" inkscape:connector-curvature="0" />
	<path style="fill:none;stroke:red;stroke-width:1px;stroke-linecap:butt;stroke-linejoin:miter;stroke-opacity:1" d="M 573.532,145.204 594.578,145.215 z" id="boundary" inkscape:connector-curvature="0" />
	<path style="fill:none;stroke:red;stroke-width:1px;stroke-linecap:butt;stroke-linejoin:miter;stroke-opacity:1" d="M 594.578,145.215 621.877,143.12 z" id="boundary" inkscape:connector-curvature="0" />
	<path style="fill:none;stroke:red;stroke-width:1px;stroke-linecap:butt;stroke-linejoin:miter;stroke-opacity:1" d="M 621.877,143.12 622.791,169.071 z" id="boundary" inkscape:connector-curvature="0" />
	<path style="fill:none;stroke:red;stroke-width:1px;stroke-linecap:butt;stroke-linejoin:miter;stroke-opacity:1" d="M 622.791,169.071 616.401,190.948 z" id="boundary" inkscape:connector-curvature="0" />
	<path style="fill:none;stroke:red;stroke-width:1px;stroke-linecap:butt;stroke-linejoin:miter;stroke-opacity:1" d="M 616.401,190.948 621.579,216.816 z" id="boundary" inkscape:connector-curvature="0" />
	<path style="fill:none;stroke:red;stroke-width:1px;stroke-linecap:butt;stroke-linejoin:miter;stroke-opacity:1" d="M 242.406,173.552 238.836,206.616 z" id="boundary" inkscape:connector-curvature="0" />
	<path style="fill:none;stroke:red;stroke-width:1px;stroke-linecap:butt;stroke-linejoin:miter;stroke-opacity:1" d="M 238.836,206.616 236.872,228.409 z" id="boundary" inkscape:connector-curvature="0" />
	<path style="fill:none;stroke:red;stroke-width:1px;stroke-linecap:butt;stroke-linejoin:miter;stroke-opacity:1" d="M 236.872,228.409 224.548,259.466 z" id="boundary" inkscape:connector-curvature="0" />
	<path style="fill:none;stroke:red;stroke-width:1px;stroke-linecap:butt;stroke-linejoin:miter;stroke-opacity:1" d="M 224.548,259.466 227.579,287.204 z" id="boundary" inkscape:connector-curvature="0" />
	<path style="fill:none;stroke:red;stroke-width:1px;stroke-linecap:butt;stroke-linejoin:miter;stroke-opacity:1" d="M 227.579,287.204 219.925,312.033 z" id="boundary" inkscape:connector-curvature="0" />
	<path style="fill:none;stroke:red;stroke-width:1px;stroke-linecap:butt;stroke-linejoin:miter;stroke-opacity:1" d="M 219.925,312.033 218.21,328.954 z" id="boundary" inkscape:connector-curvature="0" />
	<path style="fill:none;stroke:red;stroke-width:1px;stroke-linecap:butt;stroke-linejoin:miter;stroke-opacity:1" d="M 218.21,328.954 209.583,353.912 z" id="boundary" inkscape:connector-curvature="0" />
	<path style="fill:none;stroke:red;stroke-width:1px;stroke-linecap:butt;stroke-linejoin:miter;stroke-opacity:1" d="M 209.583,353.912 211.124,376.936 z" id="boundary" inkscape:connector-curvature="0" />
	<path style="fill:none;stroke:red;stroke-width:1px;stroke-linecap:butt;stroke-linejoin:miter;stroke-opacity:1" d="M 211.124,376.936 206.843,398.089 z" id="boundary" inkscape:connector-curvature="0" />
	<path style="fill:none;stroke:red;stroke-width:1px;stroke-linecap:butt;stroke-linejoin:miter;stroke-opacity:1" d="M 206.843,398.089 206.913,420.546 z" id="boundary" inkscape:connector-curvature="0" />
	<path style="fill:none;stroke:red;stroke-width:1px;stroke-linecap:butt;stroke-linejoin:miter;stroke-opacity:1" d="M 206.913,420.546 206.764,449.485 z" id="boundary" inkscape:connector-curvature="0" />
	<path style="fill:none;stroke:red;stroke-width:1px;stroke-linecap:butt;stroke-linejoin:miter;stroke-opacity:1" d="M 206.764,449.485 206.355,466.523 z" id="boundary" inkscape:connector-curvature="0" />
	<path style="fill:none;stroke:red;stroke-width:1px;stroke-linecap:butt;stroke-linejoin:miter;stroke-opacity:1" d="M 206.355,466.523 202.496,496.77 z" id="boundary" inkscape:connector-curvature="0" />
	<path style="fill:none;stroke:red;stroke-width:1px;stroke-linecap:butt;stroke-linejoin:miter;stroke-opacity:1" d="M 202.496,496.77 208.699,524.086 z" id="boundary" inkscape:connector-curvature="0" />
	<path style="fill:none;stroke:red;stroke-width:1px;stroke-linecap:butt;stroke-linejoin:miter;stroke-opacity:1" d="M 208.699,524.086 205.916,553.403 z" id="boundary" inkscape:connector-curvature="0" />
	<path style="fill:none;stroke:red;stroke-width:1px;stroke-linecap:butt;stroke-linejoin:miter;stroke-opacity:1" d="M 205.916,553.403 205.541,582.328 z" id="boundary" inkscape:connector-curvature="0" />
	<path style="fill:none;stroke:red;stroke-width:1px;stroke-linecap:butt;stroke-linejoin:miter;stroke-opacity:1" d="M 205.541,582.328 222.35,597.33 z" id="boundary" inkscape:connector-curvature="0" />
	<path style="fill:none;stroke:red;stroke-width:1px;stroke-linecap:butt;stroke-linejoin:miter;stroke-opacity:1" d="M 222.35,597.33 242.183,607.351 z" id="boundary" inkscape:connector-curvature="0" />
	<path style="fill:none;stroke:red;stroke-width:1px;stroke-linecap:butt;stroke-linejoin:miter;stroke-opacity:1" d="M 242.183,607.351 268.613,602.946 z" id="boundary" inkscape:connector-curvature="0" />
	<path style="fill:none;stroke:red;stroke-width:1px;stroke-linecap:butt;stroke-linejoin:miter;stroke-opacity:1" d="M 268.613,602.946 295.117,604.563 z" id="boundary" inkscape:connector-curvature="0" />
	<path style="fill:none;stroke:red;stroke-width:1px;stroke-linecap:butt;stroke-linejoin:miter;stroke-opacity:1" d="M 295.117,604.563 314.396,603.042 z" id="boundary" inkscape:connector-curvature="0" />
	<path style="fill:none;stroke:red;stroke-width:1px;stroke-linecap:butt;stroke-linejoin:miter;stroke-opacity:1" d="M 314.396,603.042 346.478,600.93 z" id="boundary" inkscape:connector-curvature="0" />
	<path style="fill:none;stroke:red;stroke-width:1px;stroke-linecap:butt;stroke-linejoin:miter;stroke-opacity:1" d="M 346.478,600.93 372.203,600.419 z" id="boundary" inkscape:connector-curvature="0" />
	<path style="fill:none;stroke:red;stroke-width:1px;stroke-linecap:butt;stroke-linejoin:miter;stroke-opacity:1" d="M 372.203,600.419 401.122,598.985 z" id="boundary" inkscape:connector-curvature="0" />
	<path style="fill:none;stroke:red;stroke-width:1px;stroke-linecap:butt;stroke-linejoin:miter;stroke-opacity:1" d="M 401.122,598.985 428.626,598.233 z" id="boundary" inkscape:connector-curvature="0" />
	<path style="fill:none;stroke:red;stroke-width:1px;stroke-linecap:butt;stroke-linejoin:miter;stroke-opacity:1" d="M 428.626,598.233 457.658,605.959 z" id="boundary" inkscape:connector-curvature="0" />
	<path style="fill:none;stroke:red;stroke-width:1px;stroke-linecap:butt;stroke-linejoin:miter;stroke-opacity:1" d="M 457.658,605.959 480.307,598.161 z" id="boundary" inkscape:connector-curvature="0" />
	<path style="fill:none;stroke:red;stroke-width:1px;stroke-linecap:butt;stroke-linejoin:miter;stroke-opacity:1" d="M 480.307,598.161 510.608,600.754 z" id="boundary" inkscape:connector-curvature="0" />
	<path style="fill:none;stroke:red;stroke-width:1px;stroke-linecap:butt;stroke-linejoin:miter;stroke-opacity:1" d="M 510.608,600.754 531.913,604.268 z" id="boundary" inkscape:connector-curvature="0" />
	<path style="fill:none;stroke:red;stroke-width:1px;stroke-linecap:butt;stroke-linejoin:miter;stroke-opacity:1" d="M 531.913,604.268 560.678,603.161 z" id="boundary" inkscape:connector-curvature="0" />
	<path style="fill:none;stroke:red;stroke-width:1px;stroke-linecap:butt;stroke-linejoin:miter;stroke-opacity:1" d="M 560.678,603.161 590.261,602.955 z" id="boundary" inkscape:connector-curvature="0" />
	<path style="fill:none;stroke:red;stroke-width:1px;stroke-linecap:butt;stroke-linejoin:miter;stroke-opacity:1" d="M 590.261,602.955 619.223,603.591 z" id="boundary" inkscape:connector-curvature="0" />
	<path style="fill:none;stroke:red;stroke-width:1px;stroke-linecap:butt;stroke-linejoin:miter;stroke-opacity:1" d="M 619.223,603.591 642.987,599.767 z" id="boundary" inkscape:connector-curvature="0" />
	<path style="fill:none;stroke:red;stroke-width:1px;stroke-linecap:butt;stroke-linejoin:miter;stroke-opacity:1" d="M 642.987,599.767 659.546,583.799 z" id="boundary" inkscape:connector-curvature="0" />
	<path style="fill:none;stroke:red;stroke-width:1px;stroke-linecap:butt;stroke-linejoin:miter;stroke-opacity:1" d="M 659.546,583.799 662.573,553.654 z" id="boundary" inkscape:connector-curvature="0" />
	<path style="fill:none;stroke:red;stroke-width:1px;stroke-linecap:butt;stroke-linejoin:miter;stroke-opacity:1" d="M 662.573,553.654 663.093,534.597 z" id="boundary" inkscape:connector-curvature="0" />
	<path style="fill:none;stroke:red;stroke-width:1px;stroke-linecap:butt;stroke-linejoin:miter;stroke-opacity:1" d="M 663.093,534.597 660.024,505.612 z" id="boundary" inkscape:connector-curvature="0" />
	<path style="fill:none;stroke:red;stroke-width:1px;stroke-linecap:butt;stroke-linejoin:miter;stroke-opacity:1" d="M 660.024,505.612 653.908,477.937 z" id="boundary" inkscape:connector-curvature="0" />
	<path style="fill:none;stroke:red;stroke-width:1px;stroke-linecap:butt;stroke-linejoin:miter;stroke-opacity:1" d="M 653.908,477.937 656.257,460.521 z" id="boundary" inkscape:connector-curvature="0" />
	<path style="fill:none;stroke:red;stroke-width:1px;stroke-linecap:butt;stroke-linejoin:miter;stroke-opacity:1" d="M 656.257,460.521 659.178,428.606 z" id="boundary" inkscape:connector-curvature="0" />
	<path style="fill:none;stroke:red;stroke-width:1px;stroke-linecap:butt;stroke-linejoin:miter;stroke-opacity:1" d="M 659.178,428.606 657.023,399.932 z" id="boundary" inkscape:connector-curvature="0" />
	<path style="fill:none;stroke:red;stroke-width:1px;stroke-linecap:butt;stroke-linejoin:miter;stroke-opacity:1" d="M 657.023,399.932 653.37,366.698 z" id="boundary" inkscape:connector-curvature="0" />
	<path style="fill:none;stroke:red;stroke-width:1px;stroke-linecap:butt;stroke-linejoin:miter;stroke-opacity:1" d="M 621.579,216.816 632.967,240.453 z" id="boundary" inkscape:connector-curvature="0" />
	<path style="fill:none;stroke:red;stroke-width:1px;stroke-linecap:butt;stroke-linejoin:miter;stroke-opacity:1" d="M 632.967,240.453 636.609,263.995 z" id="boundary" inkscape:connector-curvature="0" />
	<path style="fill:none;stroke:red;stroke-width:1px;stroke-linecap:butt;stroke-linejoin:miter;stroke-opacity:1" d="M 636.609,263.995 642.026,291.827 z" id="boundary" inkscape:connector-curvature="0" />
	<path style="fill:none;stroke:red;stroke-width:1px;stroke-linecap:butt;stroke-linejoin:miter;stroke-opacity:1" d="M 642.026,291.827 646.159,314.244 z" id="boundary" inkscape:connector-curvature="0" />
	<path style="fill:none;stroke:red;stroke-width:1px;stroke-linecap:butt;stroke-linejoin:miter;stroke-opacity:1" d="M 646.159,314.244 649.762,341.618 z" id="boundary" inkscape:connector-curvature="0" />
	<path style="fill:none;stroke:red;stroke-width:1px;stroke-linecap:butt;stroke-linejoin:miter;stroke-opacity:1" d="M 649.762,341.618 653.37,366.698 z" id="boundary" inkscape:connector-curvature="0" />
	<path style="fill:none;stroke:red;stroke-width:1px;stroke-linecap:butt;stroke-linejoin:miter;stroke-opacity:1" d="M 234.422,90.6005 261.836,88.7638 z" id="boundary" inkscape:connector-curvature="0" />
	<path style="fill:none;stroke:red;stroke-width:1px;stroke-linecap:butt;stroke-linejoin:miter;stroke-opacity:1" d="M 234.422,90.6005 231.308,58.8962 z" id="boundary" inkscape:connector-curvature="0" />
	<path style="fill:none;stroke:red;stroke-width:1px;stroke-linecap:butt;stroke-linejoin:miter;stroke-opacity:1" d="M 261.836,88.7638 285.992,88.1009 z" id="boundary" inkscape:connector-curvature="0" />
	<path style="fill:none;stroke:red;stroke-width:1px;stroke-linecap:butt;stroke-linejoin:miter;stroke-opacity:1" d="M 285.992,88.1009 314.285,95.2773 z" id="boundary" inkscape:connector-curvature="0" />
	<path style="fill:none;stroke:red;stroke-width:1px;stroke-linecap:butt;stroke-linejoin:miter;stroke-opacity:1" d="M 314.285,95.2773 310.946,70.5553 z" id="boundary" inkscape:connector-curvature="0" />
	<path style="fill:none;stroke:red;stroke-width:1px;stroke-linecap:butt;stroke-linejoin:miter;stroke-opacity:1" d="M 310.946,70.5553 314.469,44.4008 z" id="boundary" inkscape:connector-curvature="0" />
	<path style="fill:none;stroke:red;stroke-width:1px;stroke-linecap:butt;stroke-linejoin:miter;stroke-opacity:1" d="M 314.469,44.4008 335.428,36.1572 z" id="boundary" inkscape:connector-curvature="0" />
	<path style="fill:none;stroke:red;stroke-width:1px;stroke-linecap:butt;stroke-linejoin:miter;stroke-opacity:1" d="M 335.428,36.1572 358.574,36.6587 z" id="boundary" inkscape:connector-curvature="0" />
	<path style="fill:none;stroke:red;stroke-width:1px;stroke-linecap:butt;stroke-linejoin:miter;stroke-opacity:1" d="M 358.574,36.6587 364.941,66.5011 z" id="boundary" inkscape:connector-curvature="0" />
	<path style="fill:none;stroke:red;stroke-width:1px;stroke-linecap:butt;stroke-linejoin:miter;stroke-opacity:1" d="M 364.941,66.5011 382.688,66.1371 z" id="boundary" inkscape:connector-curvature="0" />
	<path style="fill:none;stroke:red;stroke-width:1px;stroke-linecap:butt;stroke-linejoin:miter;stroke-opacity:1" d="M 382.688,66.1371 407.571,66.7541 z" id="boundary" inkscape:connector-curvature="0" />
	<path style="fill:none;stroke:red;stroke-width:1px;stroke-linecap:butt;stroke-linejoin:miter;stroke-opacity:1" d="M 407.571,66.7541 435.324,66.1689 z" id="boundary" inkscape:connector-curvature="0" />
	<path style="fill:none;stroke:red;stroke-width:1px;stroke-linecap:butt;stroke-linejoin:miter;stroke-opacity:1" d="M 435.324,66.1689 466.061,67.1699 z" id="boundary" inkscape:connector-curvature="0" />
	<path style="fill:none;stroke:red;stroke-width:1px;stroke-linecap:butt;stroke-linejoin:miter;stroke-opacity:1" d="M 466.061,67.1699 500.292,59.3698 z" id="boundary" inkscape:connector-curvature="0" />
	<path style="fill:none;stroke:red;stroke-width:1px;stroke-linecap:butt;stroke-linejoin:miter;stroke-opacity:1" d="M 500.292,59.3698 495.678,38.8714 z" id="boundary" inkscape:connector-curvature="0" />
	<path style="fill:none;stroke:red;stroke-width:1px;stroke-linecap:butt;stroke-linejoin:miter;stroke-opacity:1" d="M 495.678,38.8714 519.638,37.218 z" id="boundary" inkscape:connector-curvature="0" />
	<path style="fill:none;stroke:red;stroke-width:1px;stroke-linecap:butt;stroke-linejoin:miter;stroke-opacity:1" d="M 519.638,37.218 540.081,33.8693 z" id="boundary" inkscape:connector-curvature="0" />
	<path style="fill:none;stroke:red;stroke-width:1px;stroke-linecap:butt;stroke-linejoin:miter;stroke-opacity:1" d="M 540.081,33.8693 547.846,56.5498 z" id="boundary" inkscape:connector-curvature="0" />
	<path style="fill:none;stroke:red;stroke-width:1px;stroke-linecap:butt;stroke-linejoin:miter;stroke-opacity:1" d="M 547.846,56.5498 546.122,75.6336 z" id="boundary" inkscape:connector-curvature="0" />
	<path style="fill:none;stroke:red;stroke-width:1px;stroke-linecap:butt;stroke-linejoin:miter;stroke-opacity:1" d="M 546.122,75.6336 546.421,95.5532 z" id="boundary" inkscape:connector-curvature="0" />
	<path style="fill:none;stroke:red;stroke-width:1px;stroke-linecap:butt;stroke-linejoin:miter;stroke-opacity:1" d="M 546.421,95.5532 568.236,90.4077 z" id="boundary" inkscape:connector-curvature="0" />
	<path style="fill:none;stroke:red;stroke-width:1px;stroke-linecap:butt;stroke-linejoin:miter;stroke-opacity:1" d="M 568.236,90.4077 590.599,89.7135 z" id="boundary" inkscape:connector-curvature="0" />
	<path style="fill:none;stroke:red;stroke-width:1px;stroke-linecap:butt;stroke-linejoin:miter;stroke-opacity:1" d="M 590.599,89.7135 609.055,89.4663 z" id="boundary" inkscape:connector-curvature="0" />
	<path style="fill:none;stroke:red;stroke-width:1px;stroke-linecap:butt;stroke-linejoin:miter;stroke-opacity:1" d="M 609.055,89.4663 620.301,91.4122 z" id="boundary" inkscape:connector-curvature="0" />
	<path style="fill:none;stroke:red;stroke-width:1px;stroke-linecap:butt;stroke-linejoin:miter;stroke-opacity:1" d="M 624.731,34.4318 616.201,50.2007 z" id="boundary" inkscape:connector-curvature="0" />
	<path style="fill:none;stroke:red;stroke-width:1px;stroke-linecap:butt;stroke-linejoin:miter;stroke-opacity:1" d="M 624.731,34.4318 637.864,19.3231 z" id="boundary" inkscape:connector-curvature="0" />
	<path style="fill:none;stroke:red;stroke-width:1px;stroke-linecap:butt;stroke-linejoin:miter;stroke-opacity:1" d="M 616.201,50.2007 615.888,66.9531 z" id="boundary" inkscape:connector-curvature="0" />
	<path style="fill:none;stroke:red;stroke-width:1px;stroke-linecap:butt;stroke-linejoin:miter;stroke-opacity:1" d="M 233.001,36.7508 231.308,58.8962 z" id="boundary" inkscape:connector-curvature="0" />
	<path style="fill:none;stroke:red;stroke-width:1px;stroke-linecap:butt;stroke-linejoin:miter;stroke-opacity:1" d="M 233.001,36.7508 226.798,22.3498 z" id="boundary" inkscape:connector-curvature="0" />
	<path style="fill:none;stroke:red;stroke-width:1px;stroke-linecap:butt;stroke-linejoin:miter;stroke-opacity:1" d="M 207.993,12.3705 226.798,22.3498 z" id="boundary" inkscape:connector-curvature="0" />
	<path style="fill:none;stroke:red;stroke-width:1px;stroke-linecap:butt;stroke-linejoin:miter;stroke-opacity:1" d="M 207.993,12.3705 176.515,12.2271 z" id="boundary" inkscape:connector-curvature="0" />
	<path style="fill:none;stroke:red;stroke-width:1px;stroke-linecap:butt;stroke-linejoin:miter;stroke-opacity:1" d="M 176.515,12.2271 161.228,26.9031 z" id="boundary" inkscape:connector-curvature="0" />
	<path style="fill:none;stroke:red;stroke-width:1px;stroke-linecap:butt;stroke-linejoin:miter;stroke-opacity:1" d="M 161.228,26.9031 148.804,47.6409 z" id="boundary" inkscape:connector-curvature="0" />
	<path style="fill:none;stroke:red;stroke-width:1px;stroke-linecap:butt;stroke-linejoin:miter;stroke-opacity:1" d="M 148.804,47.6409 135.664,67.5444 z" id="boundary" inkscape:connector-curvature="0" />
	<path style="fill:none;stroke:red;stroke-width:1px;stroke-linecap:butt;stroke-linejoin:miter;stroke-opacity:1" d="M 135.664,67.5444 124.847,89.9466 z" id="boundary" inkscape:connector-curvature="0" />
	<path style="fill:none;stroke:red;stroke-width:1px;stroke-linecap:butt;stroke-linejoin:miter;stroke-opacity:1" d="M 124.847,89.9466 115.401,107.394 z" id="boundary" inkscape:connector-curvature="0" />
	<path style="fill:none;stroke:red;stroke-width:1px;stroke-linecap:butt;stroke-linejoin:miter;stroke-opacity:1" d="M 115.401,107.394 103.936,122.123 z" id="boundary" inkscape:connector-curvature="0" />
	<path style="fill:none;stroke:red;stroke-width:1px;stroke-linecap:butt;stroke-linejoin:miter;stroke-opacity:1" d="M 103.936,122.123 102.834,137.919 z" id="boundary" inkscape:connector-curvature="0" />
	<path style="fill:none;stroke:red;stroke-width:1px;stroke-linecap:butt;stroke-linejoin:miter;stroke-opacity:1" d="M 102.834,137.919 104.639,161.837 z" id="boundary" inkscape:connector-curvature="0" />
	<path style="fill:none;stroke:red;stroke-width:1px;stroke-linecap:butt;stroke-linejoin:miter;stroke-opacity:1" d="M 104.639,161.837 101.202,182.382 z" id="boundary" inkscape:connector-curvature="0" />
	<path style="fill:none;stroke:red;stroke-width:1px;stroke-linecap:butt;stroke-linejoin:miter;stroke-opacity:1" d="M 101.202,182.382 103.141,202.653 z" id="boundary" inkscape:connector-curvature="0" />
	<path style="fill:none;stroke:red;stroke-width:1px;stroke-linecap:butt;stroke-linejoin:miter;stroke-opacity:1" d="M 103.141,202.653 99.4413,224.351 z" id="boundary" inkscape:connector-curvature="0" />
	<path style="fill:none;stroke:red;stroke-width:1px;stroke-linecap:butt;stroke-linejoin:miter;stroke-opacity:1" d="M 99.4413,224.351 106.486,240.693 z" id="boundary" inkscape:connector-curvature="0" />
	<path style="fill:none;stroke:red;stroke-width:1px;stroke-linecap:butt;stroke-linejoin:miter;stroke-opacity:1" d="M 106.486,240.693 117.157,262.17 z" id="boundary" inkscape:connector-curvature="0" />
	<path style="fill:none;stroke:red;stroke-width:1px;stroke-linecap:butt;stroke-linejoin:miter;stroke-opacity:1" d="M 117.157,262.17 127.009,271.24 z" id="boundary" inkscape:connector-curvature="0" />
	<path style="fill:none;stroke:red;stroke-width:1px;stroke-linecap:butt;stroke-linejoin:miter;stroke-opacity:1" d="M 127.009,271.24 119.756,292.394 z" id="boundary" inkscape:connector-curvature="0" />
	<path style="fill:none;stroke:red;stroke-width:1px;stroke-linecap:butt;stroke-linejoin:miter;stroke-opacity:1" d="M 119.756,292.394 115.271,312.179 z" id="boundary" inkscape:connector-curvature="0" />
	<path style="fill:none;stroke:red;stroke-width:1px;stroke-linecap:butt;stroke-linejoin:miter;stroke-opacity:1" d="M 115.271,312.179 111.066,338.737 z" id="boundary" inkscape:connector-curvature="0" />
	<path style="fill:none;stroke:red;stroke-width:1px;stroke-linecap:butt;stroke-linejoin:miter;stroke-opacity:1" d="M 111.066,338.737 105.834,370.58 z" id="boundary" inkscape:connector-curvature="0" />
	<path style="fill:none;stroke:red;stroke-width:1px;stroke-linecap:butt;stroke-linejoin:miter;stroke-opacity:1" d="M 105.834,370.58 106.54,403.717 z" id="boundary" inkscape:connector-curvature="0" />
	<path style="fill:none;stroke:red;stroke-width:1px;stroke-linecap:butt;stroke-linejoin:miter;stroke-opacity:1" d="M 106.54,403.717 108.166,422.613 z" id="boundary" inkscape:connector-curvature="0" />
	<path style="fill:none;stroke:red;stroke-width:1px;stroke-linecap:butt;stroke-linejoin:miter;stroke-opacity:1" d="M 108.166,422.613 103.845,447.091 z" id="boundary" inkscape:connector-curvature="0" />
	<path style="fill:none;stroke:red;stroke-width:1px;stroke-linecap:butt;stroke-linejoin:miter;stroke-opacity:1" d="M 103.845,447.091 108.689,472.369 z" id="boundary" inkscape:connector-curvature="0" />
	<path style="fill:none;stroke:red;stroke-width:1px;stroke-linecap:butt;stroke-linejoin:miter;stroke-opacity:1" d="M 108.689,472.369 106.64,497.504 z" id="boundary" inkscape:connector-curvature="0" />
	<path style="fill:none;stroke:red;stroke-width:1px;stroke-linecap:butt;stroke-linejoin:miter;stroke-opacity:1" d="M 106.64,497.504 103.4,527.295 z" id="boundary" inkscape:connector-curvature="0" />
	<path style="fill:none;stroke:red;stroke-width:1px;stroke-linecap:butt;stroke-linejoin:miter;stroke-opacity:1" d="M 103.4,527.295 105.612,554.591 z" id="boundary" inkscape:connector-curvature="0" />
	<path style="fill:none;stroke:red;stroke-width:1px;stroke-linecap:butt;stroke-linejoin:miter;stroke-opacity:1" d="M 105.612,554.591 105.344,578.269 z" id="boundary" inkscape:connector-curvature="0" />
	<path style="fill:none;stroke:red;stroke-width:1px;stroke-linecap:butt;stroke-linejoin:miter;stroke-opacity:1" d="M 105.344,578.269 106.295,605.635 z" id="boundary" inkscape:connector-curvature="0" />
	<path style="fill:none;stroke:red;stroke-width:1px;stroke-linecap:butt;stroke-linejoin:miter;stroke-opacity:1" d="M 106.295,605.635 107.239,636.703 z" id="boundary" inkscape:connector-curvature="0" />
	<path style="fill:none;stroke:red;stroke-width:1px;stroke-linecap:butt;stroke-linejoin:miter;stroke-opacity:1" d="M 107.239,636.703 110.511,656.833 z" id="boundary" inkscape:connector-curvature="0" />
	<path style="fill:none;stroke:red;stroke-width:1px;stroke-linecap:butt;stroke-linejoin:miter;stroke-opacity:1" d="M 110.511,656.833 83.1593,662.965 z" id="boundary" inkscape:connector-curvature="0" />
	<path style="fill:none;stroke:red;stroke-width:1px;stroke-linecap:butt;stroke-linejoin:miter;stroke-opacity:1" d="M 83.1593,662.965 63.6355,662.013 z" id="boundary" inkscape:connector-curvature="0" />
	<path style="fill:none;stroke:red;stroke-width:1px;stroke-linecap:butt;stroke-linejoin:miter;stroke-opacity:1" d="M 63.6355,662.013 45.1236,668.208 z" id="boundary" inkscape:connector-curvature="0" />
	<path style="fill:none;stroke:red;stroke-width:1px;stroke-linecap:butt;stroke-linejoin:miter;stroke-opacity:1" d="M 45.1236,668.208 29.55,683.172 z" id="boundary" inkscape:connector-curvature="0" />
	<path style="fill:none;stroke:red;stroke-width:1px;stroke-linecap:butt;stroke-linejoin:miter;stroke-opacity:1" d="M 29.55,683.172 13.8251,700.334 z" id="boundary" inkscape:connector-curvature="0" />
	<path style="fill:none;stroke:red;stroke-width:1px;stroke-linecap:butt;stroke-linejoin:miter;stroke-opacity:1" d="M 13.8251,700.334 10.4523,725.127 z" id="boundary" inkscape:connector-curvature="0" />
	<path style="fill:none;stroke:red;stroke-width:1px;stroke-linecap:butt;stroke-linejoin:miter;stroke-opacity:1" d="M 10.4523,725.127 6.47362,750.605 z" id="boundary" inkscape:connector-curvature="0" />
	<path style="fill:none;stroke:red;stroke-width:1px;stroke-linecap:butt;stroke-linejoin:miter;stroke-opacity:1" d="M 6.47362,750.605 7.70178,773.205 z" id="boundary" inkscape:connector-curvature="0" />
	<path style="fill:none;stroke:red;stroke-width:1px;stroke-linecap:butt;stroke-linejoin:miter;stroke-opacity:1" d="M 7.70178,773.205 12.7028,795.261 z" id="boundary" inkscape:connector-curvature="0" />
	<path style="fill:none;stroke:red;stroke-width:1px;stroke-linecap:butt;stroke-linejoin:miter;stroke-opacity:1" d="M 12.7028,795.261 5.53102,809.788 z" id="boundary" inkscape:connector-curvature="0" />
	<path style="fill:none;stroke:red;stroke-width:1px;stroke-linecap:butt;stroke-linejoin:miter;stroke-opacity:1" d="M 5.53102,809.788 7.04705,834.386 z" id="boundary" inkscape:connector-curvature="0" />
	<path style="fill:none;stroke:red;stroke-width:1px;stroke-linecap:butt;stroke-linejoin:miter;stroke-opacity:1" d="M 7.04705,834.386 12.0836,858.512 z" id="boundary" inkscape:connector-curvature="0" />
	<path style="fill:none;stroke:red;stroke-width:1px;stroke-linecap:butt;stroke-linejoin:miter;stroke-opacity:1" d="M 12.0836,858.512 10.0283,879.553 z" id="boundary" inkscape:connector-curvature="0" />
	<path style="fill:none;stroke:red;stroke-width:1px;stroke-linecap:butt;stroke-linejoin:miter;stroke-opacity:1" d="M 10.0283,879.553 6.79685,899.032 z" id="boundary" inkscape:connector-curvature="0" />
	<path style="fill:none;stroke:red;stroke-width:1px;stroke-linecap:butt;stroke-linejoin:miter;stroke-opacity:1" d="M 6.79685,899.032 4,926.342 z" id="boundary" inkscape:connector-curvature="0" />
	<path style="fill:none;stroke:red;stroke-width:1px;stroke-linecap:butt;stroke-linejoin:miter;stroke-opacity:1" d="M 4,926.342 4.53407,947.668 z" id="boundary" inkscape:connector-curvature="0" />
	<path style="fill:none;stroke:red;stroke-width:1px;stroke-linecap:butt;stroke-linejoin:miter;stroke-opacity:1" d="M 4.53407,947.668 16.4248,970.041 z" id="boundary" inkscape:connector-curvature="0" />
	<path style="fill:none;stroke:red;stroke-width:1px;stroke-linecap:butt;stroke-linejoin:miter;stroke-opacity:1" d="M 16.4248,970.041 24.2165,989.73 z" id="boundary" inkscape:connector-curvature="0" />
	<path style="fill:none;stroke:red;stroke-width:1px;stroke-linecap:butt;stroke-linejoin:miter;stroke-opacity:1" d="M 24.2165,989.73 48.0259,992.059 z" id="boundary" inkscape:connector-curvature="0" />
	<path style="fill:none;stroke:red;stroke-width:1px;stroke-linecap:butt;stroke-linejoin:miter;stroke-opacity:1" d="M 48.0259,992.059 78.1031,994.425 z" id="boundary" inkscape:connector-curvature="0" />
	<path style="fill:none;stroke:red;stroke-width:1px;stroke-linecap:butt;stroke-linejoin:miter;stroke-opacity:1" d="M 78.1031,994.425 96.6336,992.715 z" id="boundary" inkscape:connector-curvature="0" />
	<path style="fill:none;stroke:red;stroke-width:1px;stroke-linecap:butt;stroke-linejoin:miter;stroke-opacity:1" d="M 96.6336,992.715 126.08,988.782 z" id="boundary" inkscape:connector-curvature="0" />
	<path style="fill:none;stroke:red;stroke-width:1px;stroke-linecap:butt;stroke-linejoin:miter;stroke-opacity:1" d="M 126.08,988.782 150.992,993.147 z" id="boundary" inkscape:connector-curvature="0" />
	<path style="fill:none;stroke:red;stroke-width:1px;stroke-linecap:butt;stroke-linejoin:miter;stroke-opacity:1" d="M 150.992,993.147 182.058,990.071 z" id="boundary" inkscape:connector-curvature="0" />
	<path style="fill:none;stroke:red;stroke-width:1px;stroke-linecap:butt;stroke-linejoin:miter;stroke-opacity:1" d="M 182.058,990.071 201.799,994.336 z" id="boundary" inkscape:connector-curvature="0" />
	<path style="fill:none;stroke:red;stroke-width:1px;stroke-linecap:butt;stroke-linejoin:miter;stroke-opacity:1" d="M 201.799,994.336 226.794,991.571 z" id="boundary" inkscape:connector-curvature="0" />
	<path style="fill:none;stroke:red;stroke-width:1px;stroke-linecap:butt;stroke-linejoin:miter;stroke-opacity:1" d="M 226.794,991.571 251.264,987.469 z" id="boundary" inkscape:connector-curvature="0" />
	<path style="fill:none;stroke:red;stroke-width:1px;stroke-linecap:butt;stroke-linejoin:miter;stroke-opacity:1" d="M 251.264,987.469 280.449,991.399 z" id="boundary" inkscape:connector-curvature="0" />
	<path style="fill:none;stroke:red;stroke-width:1px;stroke-linecap:butt;stroke-linejoin:miter;stroke-opacity:1" d="M 280.449,991.399 301.965,992.187 z" id="boundary" inkscape:connector-curvature="0" />
	<path style="fill:none;stroke:red;stroke-width:1px;stroke-linecap:butt;stroke-linejoin:miter;stroke-opacity:1" d="M 301.965,992.187 326.517,990.316 z" id="boundary" inkscape:connector-curvature="0" />
	<path style="fill:none;stroke:red;stroke-width:1px;stroke-linecap:butt;stroke-linejoin:miter;stroke-opacity:1" d="M 326.517,990.316 351.367,985.845 z" id="boundary" inkscape:connector-curvature="0" />
	<path style="fill:none;stroke:red;stroke-width:1px;stroke-linecap:butt;stroke-linejoin:miter;stroke-opacity:1" d="M 351.367,985.845 373.109,990.556 z" id="boundary" inkscape:connector-curvature="0" />
	<path style="fill:none;stroke:red;stroke-width:1px;stroke-linecap:butt;stroke-linejoin:miter;stroke-opacity:1" d="M 373.109,990.556 403.411,990.167 z" id="boundary" inkscape:connector-curvature="0" />
	<path style="fill:none;stroke:red;stroke-width:1px;stroke-linecap:butt;stroke-linejoin:miter;stroke-opacity:1" d="M 403.411,990.167 430.099,992.803 z" id="boundary" inkscape:connector-curvature="0" />
	<path style="fill:none;stroke:red;stroke-width:1px;stroke-linecap:butt;stroke-linejoin:miter;stroke-opacity:1" d="M 430.099,992.803 454.916,990.269 z" id="boundary" inkscape:connector-curvature="0" />
	<path style="fill:none;stroke:red;stroke-width:1px;stroke-linecap:butt;stroke-linejoin:miter;stroke-opacity:1" d="M 454.916,990.269 478.403,991.11 z" id="boundary" inkscape:connector-curvature="0" />
	<path style="fill:none;stroke:red;stroke-width:1px;stroke-linecap:butt;stroke-linejoin:miter;stroke-opacity:1" d="M 478.403,991.11 510.581,996 z" id="boundary" inkscape:connector-curvature="0" />
	<path style="fill:none;stroke:red;stroke-width:1px;stroke-linecap:butt;stroke-linejoin:miter;stroke-opacity:1" d="M 510.581,996 538.373,990.36 z" id="boundary" inkscape:connector-curvature="0" />
	<path style="fill:none;stroke:red;stroke-width:1px;stroke-linecap:butt;stroke-linejoin:miter;stroke-opacity:1" d="M 538.373,990.36 566.113,990.881 z" id="boundary" inkscape:connector-curvature="0" />
	<path style="fill:none;stroke:red;stroke-width:1px;stroke-linecap:butt;stroke-linejoin:miter;stroke-opacity:1" d="M 566.113,990.881 593.818,992.423 z" id="boundary" inkscape:connector-curvature="0" />
	<path style="fill:none;stroke:red;stroke-width:1px;stroke-linecap:butt;stroke-linejoin:miter;stroke-opacity:1" d="M 593.818,992.423 622.809,984.681 z" id="boundary" inkscape:connector-curvature="0" />
	<path style="fill:none;stroke:red;stroke-width:1px;stroke-linecap:butt;stroke-linejoin:miter;stroke-opacity:1" d="M 622.809,984.681 645.608,989.915 z" id="boundary" inkscape:connector-curvature="0" />
	<path style="fill:none;stroke:red;stroke-width:1px;stroke-linecap:butt;stroke-linejoin:miter;stroke-opacity:1" d="M 645.608,989.915 673.616,986.032 z" id="boundary" inkscape:connector-curvature="0" />
	<path style="fill:none;stroke:red;stroke-width:1px;stroke-linecap:butt;stroke-linejoin:miter;stroke-opacity:1" d="M 673.616,986.032 700.122,990.762 z" id="boundary" inkscape:connector-curvature="0" />
	<path style="fill:none;stroke:red;stroke-width:1px;stroke-linecap:butt;stroke-linejoin:miter;stroke-opacity:1" d="M 700.122,990.762 723.336,987.097 z" id="boundary" inkscape:connector-curvature="0" />
	<path style="fill:none;stroke:red;stroke-width:1px;stroke-linecap:butt;stroke-linejoin:miter;stroke-opacity:1" d="M 723.336,987.097 753.648,990.366 z" id="boundary" inkscape:connector-curvature="0" />
	<path style="fill:none;stroke:red;stroke-width:1px;stroke-linecap:butt;stroke-linejoin:miter;stroke-opacity:1" d="M 753.648,990.366 776.214,988.657 z" id="boundary" inkscape:connector-curvature="0" />
	<path style="fill:none;stroke:red;stroke-width:1px;stroke-linecap:butt;stroke-linejoin:miter;stroke-opacity:1" d="M 776.214,988.657 795.816,988.906 z" id="boundary" inkscape:connector-curvature="0" />
	<path style="fill:none;stroke:red;stroke-width:1px;stroke-linecap:butt;stroke-linejoin:miter;stroke-opacity:1" d="M 795.816,988.906 826.707,989.441 z" id="boundary" inkscape:connector-curvature="0" />
	<path style="fill:none;stroke:red;stroke-width:1px;stroke-linecap:butt;stroke-linejoin:miter;stroke-opacity:1" d="M 826.707,989.441 844.646,981.276 z" id="boundary" inkscape:connector-curvature="0" />
	<path style="fill:none;stroke:red;stroke-width:1px;stroke-linecap:butt;stroke-linejoin:miter;stroke-opacity:1" d="M 844.646,981.276 851.798,957.317 z" id="boundary" inkscape:connector-curvature="0" />
	<path style="fill:none;stroke:red;stroke-width:1px;stroke-linecap:butt;stroke-linejoin:miter;stroke-opacity:1" d="M 851.798,957.317 860.498,920.681 z" id="boundary" inkscape:connector-curvature="0" />
	<path style="fill:none;stroke:red;stroke-width:1px;stroke-linecap:butt;stroke-linejoin:miter;stroke-opacity:1" d="M 756.395,660.346 783.081,661.368 z" id="boundary" inkscape:connector-curvature="0" />
	<path style="fill:none;stroke:red;stroke-width:1px;stroke-linecap:butt;stroke-linejoin:miter;stroke-opacity:1" d="M 756.395,660.346 754.829,637.105 z" id="boundary" inkscape:connector-curvature="0" />
	<path style="fill:none;stroke:red;stroke-width:1px;stroke-linecap:butt;stroke-linejoin:miter;stroke-opacity:1" d="M 783.081,661.368 807.62,657.639 z" id="boundary" inkscape:connector-curvature="0" />
	<path style="fill:none;stroke:red;stroke-width:1px;stroke-linecap:butt;stroke-linejoin:miter;stroke-opacity:1" d="M 807.62,657.639 832.041,673.096 z" id="boundary" inkscape:connector-curvature="0" />
	<path style="fill:none;stroke:red;stroke-width:1px;stroke-linecap:butt;stroke-linejoin:miter;stroke-opacity:1" d="M 832.041,673.096 845.869,687.798 z" id="boundary" inkscape:connector-curvature="0" />
	<path style="fill:none;stroke:red;stroke-width:1px;stroke-linecap:butt;stroke-linejoin:miter;stroke-opacity:1" d="M 845.869,687.798 859.119,715.091 z" id="boundary" inkscape:connector-curvature="0" />
	<path style="fill:none;stroke:red;stroke-width:1px;stroke-linecap:butt;stroke-linejoin:miter;stroke-opacity:1" d="M 859.119,715.091 851.786,742.807 z" id="boundary" inkscape:connector-curvature="0" />
	<path style="fill:none;stroke:red;stroke-width:1px;stroke-linecap:butt;stroke-linejoin:miter;stroke-opacity:1" d="M 851.786,742.807 857.854,770.947 z" id="boundary" inkscape:connector-curvature="0" />
	<path style="fill:none;stroke:red;stroke-width:1px;stroke-linecap:butt;stroke-linejoin:miter;stroke-opacity:1" d="M 857.854,770.947 852.735,794.51 z" id="boundary" inkscape:connector-curvature="0" />
	<path style="fill:none;stroke:red;stroke-width:1px;stroke-linecap:butt;stroke-linejoin:miter;stroke-opacity:1" d="M 852.735,794.51 861.013,817.414 z" id="boundary" inkscape:connector-curvature="0" />
	<path style="fill:none;stroke:red;stroke-width:1px;stroke-linecap:butt;stroke-linejoin:miter;stroke-opacity:1" d="M 861.013,817.414 857.143,838.146 z" id="boundary" inkscape:connector-curvature="0" />
	<path style="fill:none;stroke:red;stroke-width:1px;stroke-linecap:butt;stroke-linejoin:miter;stroke-opacity:1" d="M 857.143,838.146 855.461,863.991 z" id="boundary" inkscape:connector-curvature="0" />
	<path style="fill:none;stroke:red;stroke-width:1px;stroke-linecap:butt;stroke-linejoin:miter;stroke-opacity:1" d="M 855.461,863.991 859.101,893.2 z" id="boundary" inkscape:connector-curvature="0" />
	<path style="fill:none;stroke:red;stroke-width:1px;stroke-linecap:butt;stroke-linejoin:miter;stroke-opacity:1" d="M 859.101,893.2 860.498,920.681 z" id="boundary" inkscape:connector-curvature="0" />
	<path style="fill:none;stroke:red;stroke-width:1px;stroke-linecap:butt;stroke-linejoin:miter;stroke-opacity:1" d="M 731.694,269.028 741.896,289.611 z" id="boundary" inkscape:connector-curvature="0" />
	<path style="fill:none;stroke:red;stroke-width:1px;stroke-linecap:butt;stroke-linejoin:miter;stroke-opacity:1" d="M 731.694,269.028 755.661,238.811 z" id="boundary" inkscape:connector-curvature="0" />
	<path style="fill:none;stroke:red;stroke-width:1px;stroke-linecap:butt;stroke-linejoin:miter;stroke-opacity:1" d="M 741.896,289.611 744.02,310.668 z" id="boundary" inkscape:connector-curvature="0" />
	<path style="fill:none;stroke:red;stroke-width:1px;stroke-linecap:butt;stroke-linejoin:miter;stroke-opacity:1" d="M 744.02,310.668 743.892,332.572 z" id="boundary" inkscape:connector-curvature="0" />
	<path style="fill:none;stroke:red;stroke-width:1px;stroke-linecap:butt;stroke-linejoin:miter;stroke-opacity:1" d="M 743.892,332.572 749.598,352.472 z" id="boundary" inkscape:connector-curvature="0" />
	<path style="fill:none;stroke:red;stroke-width:1px;stroke-linecap:butt;stroke-linejoin:miter;stroke-opacity:1" d="M 749.598,352.472 753.97,383.262 z" id="boundary" inkscape:connector-curvature="0" />
	<path style="fill:none;stroke:red;stroke-width:1px;stroke-linecap:butt;stroke-linejoin:miter;stroke-opacity:1" d="M 753.97,383.262 755.216,403.355 z" id="boundary" inkscape:connector-curvature="0" />
	<path style="fill:none;stroke:red;stroke-width:1px;stroke-linecap:butt;stroke-linejoin:miter;stroke-opacity:1" d="M 755.216,403.355 755.144,426.825 z" id="boundary" inkscape:connector-curvature="0" />
	<path style="fill:none;stroke:red;stroke-width:1px;stroke-linecap:butt;stroke-linejoin:miter;stroke-opacity:1" d="M 755.144,426.825 758.158,457.026 z" id="boundary" inkscape:connector-curvature="0" />
	<path style="fill:none;stroke:red;stroke-width:1px;stroke-linecap:butt;stroke-linejoin:miter;stroke-opacity:1" d="M 758.158,457.026 759.438,487.911 z" id="boundary" inkscape:connector-curvature="0" />
	<path style="fill:none;stroke:red;stroke-width:1px;stroke-linecap:butt;stroke-linejoin:miter;stroke-opacity:1" d="M 759.438,487.911 752.759,515.954 z" id="boundary" inkscape:connector-curvature="0" />
	<path style="fill:none;stroke:red;stroke-width:1px;stroke-linecap:butt;stroke-linejoin:miter;stroke-opacity:1" d="M 752.759,515.954 756.217,540.682 z" id="boundary" inkscape:connector-curvature="0" />
	<path style="fill:none;stroke:red;stroke-width:1px;stroke-linecap:butt;stroke-linejoin:miter;stroke-opacity:1" d="M 756.217,540.682 755.805,568.768 z" id="boundary" inkscape:connector-curvature="0" />
	<path style="fill:none;stroke:red;stroke-width:1px;stroke-linecap:butt;stroke-linejoin:miter;stroke-opacity:1" d="M 755.805,568.768 760.623,589.337 z" id="boundary" inkscape:connector-curvature="0" />
	<path style="fill:none;stroke:red;stroke-width:1px;stroke-linecap:butt;stroke-linejoin:miter;stroke-opacity:1" d="M 760.623,589.337 759.58,610.423 z" id="boundary" inkscape:connector-curvature="0" />
	<path style="fill:none;stroke:red;stroke-width:1px;stroke-linecap:butt;stroke-linejoin:miter;stroke-opacity:1" d="M 759.58,610.423 754.829,637.105 z" id="boundary" inkscape:connector-curvature="0" />
	<path style="fill:none;stroke:red;stroke-width:1px;stroke-linecap:butt;stroke-linejoin:miter;stroke-opacity:1" d="M 637.864,19.3231 653.283,4 z" id="boundary" inkscape:connector-curvature="0" />
	<path style="fill:none;stroke:red;stroke-width:1px;stroke-linecap:butt;stroke-linejoin:miter;stroke-opacity:1" d="M 653.283,4 677.503,11.1003 z" id="boundary" inkscape:connector-curvature="0" />
	<path style="fill:none;stroke:red;stroke-width:1px;stroke-linecap:butt;stroke-linejoin:miter;stroke-opacity:1" d="M 677.503,11.1003 698.955,18.3326 z" id="boundary" inkscape:connector-curvature="0" />
	<path style="fill:none;stroke:red;stroke-width:1px;stroke-linecap:butt;stroke-linejoin:miter;stroke-opacity:1" d="M 698.955,18.3326 711.085,40.7239 z" id="boundary" inkscape:connector-curvature="0" />
	<path style="fill:none;stroke:red;stroke-width:1px;stroke-linecap:butt;stroke-linejoin:miter;stroke-opacity:1" d="M 711.085,40.7239 718.405,62.1067 z" id="boundary" inkscape:connector-curvature="0" />
	<path style="fill:none;stroke:red;stroke-width:1px;stroke-linecap:butt;stroke-linejoin:miter;stroke-opacity:1" d="M 718.405,62.1067 735.541,88.6184 z" id="boundary" inkscape:connector-curvature="0" />
	<path style="fill:none;stroke:red;stroke-width:1px;stroke-linecap:butt;stroke-linejoin:miter;stroke-opacity:1" d="M 735.541,88.6184 754.085,116.959 z" id="boundary" inkscape:connector-curvature="0" />
	<path style="fill:none;stroke:red;stroke-width:1px;stroke-linecap:butt;stroke-linejoin:miter;stroke-opacity:1" d="M 754.085,116.959 758.179,136.782 z" id="boundary" inkscape:connector-curvature="0" />
	<path style="fill:none;stroke:red;stroke-width:1px;stroke-linecap:butt;stroke-linejoin:miter;stroke-opacity:1" d="M 758.179,136.782 753.529,159.18 z" id="boundary" inkscape:connector-curvature="0" />
	<path style="fill:none;stroke:red;stroke-width:1px;stroke-linecap:butt;stroke-linejoin:miter;stroke-opacity:1" d="M 753.529,159.18 753.353,183.154 z" id="boundary" inkscape:connector-curvature="0" />
	<path style="fill:none;stroke:red;stroke-width:1px;stroke-linecap:butt;stroke-linejoin:miter;stroke-opacity:1" d="M 753.353,183.154 754.724,202.011 z" id="boundary" inkscape:connector-curvature="0" />
	<path style="fill:none;stroke:red;stroke-width:1px;stroke-linecap:butt;stroke-linejoin:miter;stroke-opacity:1" d="M 754.724,202.011 759.884,219.822 z" id="boundary" inkscape:connector-curvature="0" />
	<path style="fill:none;stroke:red;stroke-width:1px;stroke-linecap:butt;stroke-linejoin:miter;stroke-opacity:1" d="M 759.884,219.822 755.661,238.811 z" id="boundary" inkscape:connector-curvature="0" />
	<path style="fill:none;stroke:red;stroke-width:1px;stroke-linecap:butt;stroke-linejoin:miter;stroke-opacity:1" d="M 93.3573,764.028 110.614,756.88 z" id="boundary" inkscape:connector-curvature="0" />
	<path style="fill:none;stroke:red;stroke-width:1px;stroke-linecap:butt;stroke-linejoin:miter;stroke-opacity:1" d="M 93.3573,764.028 77.9591,778.847 z" id="boundary" inkscape:connector-curvature="0" />
	<path style="fill:none;stroke:red;stroke-width:1px;stroke-linecap:butt;stroke-linejoin:miter;stroke-opacity:1" d="M 110.614,756.88 131.111,757.343 z" id="boundary" inkscape:connector-curvature="0" />
	<path style="fill:none;stroke:red;stroke-width:1px;stroke-linecap:butt;stroke-linejoin:miter;stroke-opacity:1" d="M 131.111,757.343 157.826,762.025 z" id="boundary" inkscape:connector-curvature="0" />
	<path style="fill:none;stroke:red;stroke-width:1px;stroke-linecap:butt;stroke-linejoin:miter;stroke-opacity:1" d="M 157.826,762.025 188.451,768.052 z" id="boundary" inkscape:connector-curvature="0" />
	<path style="fill:none;stroke:red;stroke-width:1px;stroke-linecap:butt;stroke-linejoin:miter;stroke-opacity:1" d="M 188.451,768.052 204.94,787.928 z" id="boundary" inkscape:connector-curvature="0" />
	<path style="fill:none;stroke:red;stroke-width:1px;stroke-linecap:butt;stroke-linejoin:miter;stroke-opacity:1" d="M 204.94,787.928 210.298,817.275 z" id="boundary" inkscape:connector-curvature="0" />
	<path style="fill:none;stroke:red;stroke-width:1px;stroke-linecap:butt;stroke-linejoin:miter;stroke-opacity:1" d="M 210.298,817.275 202.37,838.807 z" id="boundary" inkscape:connector-curvature="0" />
	<path style="fill:none;stroke:red;stroke-width:1px;stroke-linecap:butt;stroke-linejoin:miter;stroke-opacity:1" d="M 202.37,838.807 188.635,859.718 z" id="boundary" inkscape:connector-curvature="0" />
	<path style="fill:none;stroke:red;stroke-width:1px;stroke-linecap:butt;stroke-linejoin:miter;stroke-opacity:1" d="M 188.635,859.718 173.123,878.49 z" id="boundary" inkscape:connector-curvature="0" />
	<path style="fill:none;stroke:red;stroke-width:1px;stroke-linecap:butt;stroke-linejoin:miter;stroke-opacity:1" d="M 173.123,878.49 150.944,876.814 z" id="boundary" inkscape:connector-curvature="0" />
	<path style="fill:none;stroke:red;stroke-width:1px;stroke-linecap:butt;stroke-linejoin:miter;stroke-opacity:1" d="M 150.944,876.814 122.52,877.337 z" id="boundary" inkscape:connector-curvature="0" />
	<path style="fill:none;stroke:red;stroke-width:1px;stroke-linecap:butt;stroke-linejoin:miter;stroke-opacity:1" d="M 122.52,877.337 92.1995,869.73 z" id="boundary" inkscape:connector-curvature="0" />
	<path style="fill:none;stroke:red;stroke-width:1px;stroke-linecap:butt;stroke-linejoin:miter;stroke-opacity:1" d="M 92.1995,869.73 79.3678,861.545 z" id="boundary" inkscape:connector-curvature="0" />
	<path style="fill:none;stroke:red;stroke-width:1px;stroke-linecap:butt;stroke-linejoin:miter;stroke-opacity:1" d="M 79.3678,861.545 65.5495,835.522 z" id="boundary" inkscape:connector-curvature="0" />
	<path style="fill:none;stroke:red;stroke-width:1px;stroke-linecap:butt;stroke-linejoin:miter;stroke-opacity:1" d="M 65.5495,835.522 62.8101,798.83 z" id="boundary" inkscape:connector-curvature="0" />
	<path style="fill:none;stroke:red;stroke-width:1px;stroke-linecap:butt;stroke-linejoin:miter;stroke-opacity:1" d="M 62.8101,798.83 77.9591,778.847 z" id="boundary" inkscape:connector-curvature="0" />
	<path style="fill:none;stroke:red;stroke-width:1px;stroke-linecap:butt;stroke-linejoin:miter;stroke-opacity:1" d="M 658.679,797.518 669.083,775.636 z" id="boundary" inkscape:connector-curvature="0" />
	<path style="fill:none;stroke:red;stroke-width:1px;stroke-linecap:butt;stroke-linejoin:miter;stroke-opacity:1" d="M 658.679,797.518 662.671,830.197 z" id="boundary" inkscape:connector-curvature="0" />
	<path style="fill:none;stroke:red;stroke-width:1px;stroke-linecap:butt;stroke-linejoin:miter;stroke-opacity:1" d="M 669.083,775.636 690.148,761.758 z" id="boundary" inkscape:connector-curvature="0" />
	<path style="fill:none;stroke:red;stroke-width:1px;stroke-linecap:butt;stroke-linejoin:miter;stroke-opacity:1" d="M 690.148,761.758 721.672,748.565 z" id="boundary" inkscape:connector-curvature="0" />
	<path style="fill:none;stroke:red;stroke-width:1px;stroke-linecap:butt;stroke-linejoin:miter;stroke-opacity:1" d="M 662.671,830.197 667.709,850.584 z" id="boundary" inkscape:connector-curvature="0" />
	<path style="fill:none;stroke:red;stroke-width:1px;stroke-linecap:butt;stroke-linejoin:miter;stroke-opacity:1" d="M 667.709,850.584 687.711,869.245 z" id="boundary" inkscape:connector-curvature="0" />
	<path style="fill:none;stroke:red;stroke-width:1px;stroke-linecap:butt;stroke-linejoin:miter;stroke-opacity:1" d="M 687.711,869.245 721.439,874.367 z" id="boundary" inkscape:connector-curvature="0" />
	<path style="fill:none;stroke:red;stroke-width:1px;stroke-linecap:butt;stroke-linejoin:miter;stroke-opacity:1" d="M 721.439,874.367 741.749,872.177 z" id="boundary" inkscape:connector-curvature="0" />
	<path style="fill:none;stroke:red;stroke-width:1px;stroke-linecap:butt;stroke-linejoin:miter;stroke-opacity:1" d="M 741.749,872.177 769.075,865.733 z" id="boundary" inkscape:connector-curvature="0" />
	<path style="fill:none;stroke:red;stroke-width:1px;stroke-linecap:butt;stroke-linejoin:miter;stroke-opacity:1" d="M 769.075,865.733 794.766,847.477 z" id="boundary" inkscape:connector-curvature="0" />
	<path style="fill:none;stroke:red;stroke-width:1px;stroke-linecap:butt;stroke-linejoin:miter;stroke-opacity:1" d="M 794.766,847.477 806.002,817.682 z" id="boundary" inkscape:connector-curvature="0" />
	<path style="fill:none;stroke:red;stroke-width:1px;stroke-linecap:butt;stroke-linejoin:miter;stroke-opacity:1" d="M 806.002,817.682 801.873,792.065 z" id="boundary" inkscape:connector-curvature="0" />
	<path style="fill:none;stroke:red;stroke-width:1px;stroke-linecap:butt;stroke-linejoin:miter;stroke-opacity:1" d="M 801.873,792.065 780.091,766.11 z" id="boundary" inkscape:connector-curvature="0" />
	<path style="fill:none;stroke:red;stroke-width:1px;stroke-linecap:butt;stroke-linejoin:miter;stroke-opacity:1" d="M 780.091,766.11 757.048,755.133 z" id="boundary" inkscape:connector-curvature="0" />
	<path style="fill:none;stroke:red;stroke-width:1px;stroke-linecap:butt;stroke-linejoin:miter;stroke-opacity:1" d="M 757.048,755.133 721.672,748.565 z" id="boundary" inkscape:connector-curvature="0" />
	<circle cx="237.522" cy="153.873" r="4" fill="#0" id="circle0"/>
	<circle cx="261.99" cy="147.28" r="4" fill="#0" id="circle1"/>
	<circle cx="287.294" cy="149.693" r="4" fill="#0" id="circle2"/>
	<circle cx="314.681" cy="145.228" r="4" fill="#0" id="circle3"/>
	<circle cx="315.131" cy="173.214" r="4" fill="#0" id="circle4"/>
	<circle cx="313.569" cy="202.369" r="4" fill="#0" id="circle5"/>
	<circle cx="336.184" cy="206.704" r="4" fill="#0" id="circle6"/>
	<circle cx="355.609" cy="201.265" r="4" fill="#0" id="circle7"/>
	<circle cx="361.517" cy="178.8" r="4" fill="#0" id="circle8"/>
	<circle cx="389.404" cy="176.231" r="4" fill="#0" id="circle9"/>
	<circle cx="418.982" cy="179.08" r="4" fill="#0" id="circle10"/>
	<circle cx="452.352" cy="174.688" r="4" fill="#0" id="circle11"/>
	<circle cx="475.078" cy="177.843" r="4" fill="#0" id="circle12"/>
	<circle cx="497.022" cy="177.841" r="4" fill="#0" id="circle13"/>
	<circle cx="495.941" cy="199.862" r="4" fill="#0" id="circle14"/>
	<circle cx="522.621" cy="198.436" r="4" fill="#0" id="circle15"/>
	<circle cx="545.862" cy="202.685" r="4" fill="#0" id="circle16"/>
	<circle cx="546.811" cy="176.878" r="4" fill="#0" id="circle17"/>
	<circle cx="546.794" cy="145.916" r="4" fill="#0" id="circle18"/>
	<circle cx="573.532" cy="145.204" r="4" fill="#0" id="circle19"/>
	<circle cx="594.578" cy="145.215" r="4" fill="#0" id="circle20"/>
	<circle cx="621.877" cy="143.12" r="4" fill="#0" id="circle21"/>
	<circle cx="622.791" cy="169.071" r="4" fill="#0" id="circle22"/>
	<circle cx="616.401" cy="190.948" r="4" fill="#0" id="circle23"/>
	<circle cx="242.406" cy="173.552" r="4" fill="#0" id="circle24"/>
	<circle cx="238.836" cy="206.616" r="4" fill="#0" id="circle25"/>
	<circle cx="236.872" cy="228.409" r="4" fill="#0" id="circle26"/>
	<circle cx="224.548" cy="259.466" r="4" fill="#0" id="circle27"/>
	<circle cx="227.579" cy="287.204" r="4" fill="#0" id="circle28"/>
	<circle cx="219.925" cy="312.033" r="4" fill="#0" id="circle29"/>
	<circle cx="218.21" cy="328.954" r="4" fill="#0" id="circle30"/>
	<circle cx="209.583" cy="353.912" r="4" fill="#0" id="circle31"/>
	<circle cx="211.124" cy="376.936" r="4" fill="#0" id="circle32"/>
	<circle cx="206.843" cy="398.089" r="4" fill="#0" id="circle33"/>
	<circle cx="206.913" cy="420.546" r="4" fill="#0" id="circle34"/>
	<circle cx="206.764" cy="449.485" r="4" fill="#0" id="circle35"/>
	<circle cx="206.355" cy="466.523" r="4" fill="#0" id="circle36"/>
	<circle cx="202.496" cy="496.77" r="4" fill="#0" id="circle37"/>
	<circle cx="208.699" cy="524.086" r="4" fill="#0" id="circle38"/>
	<circle cx="205.916" cy="553.403" r="4" fill="#0" id="circle39"/>
	<circle cx="205.541" cy="582.328" r="4" fill="#0" id="circle40"/>
	<circle cx="222.35" cy="597.33" r="4" fill="#0" id="circle41"/>
	<circle cx="242.183" cy="607.351" r="4" fill="#0" id="circle42"/>
	<circle cx="268.613" cy="602.946" r="4" fill="#0" id="circle43"/>
	<circle cx="295.117" cy="604.563" r="4" fill="#0" id="circle44"/>
	<circle cx="314.396" cy="603.042" r="4" fill="#0" id="circle45"/>
	<circle cx="346.478" cy="600.93" r="4" fill="#0" id="circle46"/>
	<circle cx="372.203" cy="600.419" r="4" fill="#0" id="circle47"/>
	<circle cx="401.122" cy="598.985" r="4" fill="#0" id="circle48"/>
	<circle cx="428.626" cy="598.233" r="4" fill="#0" id="circle49"/>
	<circle cx="457.658" cy="605.959" r="4" fill="#0" id="circle50"/>
	<circle cx="480.307" cy="598.161" r="4" fill="#0" id="circle51"/>
	<circle cx="510.608" cy="600.754" r="4" fill="#0" id="circle52"/>
	<circle cx="531.913" cy="604.268" r="4" fill="#0" id="circle53"/>
	<circle cx="560.678" cy="603.161" r="4" fill="#0" id="circle54"/>
	<circle cx="590.261" cy="602.955" r="4" fill="#0" id="circle55"/>
	<circle cx="619.223" cy="603.591" r="4" fill="#0" id="circle56"/>
	<circle cx="642.987" cy="599.767" r="4" fill="#0" id="circle57"/>
	<circle cx="659.546" cy="583.799" r="4" fill="#0" id="circle58"/>
	<circle cx="662.573" cy="553.654" r="4" fill="#0" id="circle59"/>
	<circle cx="663.093" cy="534.597" r="4" fill="#0" id="circle60"/>
	<circle cx="660.024" cy="505.612" r="4" fill="#0" id="circle61"/>
	<circle cx="653.908" cy="477.937" r="4" fill="#0" id="circle62"/>
	<circle cx="656.257" cy="460.521" r="4" fill="#0" id="circle63"/>
	<circle cx="659.178" cy="428.606" r="4" fill="#0" id="circle64"/>
	<circle cx="657.023" cy="399.932" r="4" fill="#0" id="circle65"/>
	<circle cx="621.579" cy="216.816" r="4" fill="#0" id="circle66"/>
	<circle cx="632.967" cy="240.453" r="4" fill="#0" id="circle67"/>
	<circle cx="636.609" cy="263.995" r="4" fill="#0" id="circle68"/>
	<circle cx="642.026" cy="291.827" r="4" fill="#0" id="circle69"/>
	<circle cx="646.159" cy="314.244" r="4" fill="#0" id="circle70"/>
	<circle cx="649.762" cy="341.618" r="4" fill="#0" id="circle71"/>
	<circle cx="653.37" cy="366.698" r="4" fill="#0" id="circle72"/>
	<circle cx="234.422" cy="90.6005" r="4" fill="#0" id="circle73"/>
	<circle cx="261.836" cy="88.7638" r="4" fill="#0" id="circle74"/>
	<circle cx="285.992" cy="88.1009" r="4" fill="#0" id="circle75"/>
	<circle cx="314.285" cy="95.2773" r="4" fill="#0" id="circle76"/>
	<circle cx="310.946" cy="70.5553" r="4" fill="#0" id="circle77"/>
	<circle cx="314.469" cy="44.4008" r="4" fill="#0" id="circle78"/>
	<circle cx="335.428" cy="36.1572" r="4" fill="#0" id="circle79"/>
	<circle cx="358.574" cy="36.6587" r="4" fill="#0" id="circle80"/>
	<circle cx="364.941" cy="66.5011" r="4" fill="#0" id="circle81"/>
	<circle cx="382.688" cy="66.1371" r="4" fill="#0" id="circle82"/>
	<circle cx="407.571" cy="66.7541" r="4" fill="#0" id="circle83"/>
	<circle cx="435.324" cy="66.1689" r="4" fill="#0" id="circle84"/>
	<circle cx="466.061" cy="67.1699" r="4" fill="#0" id="circle85"/>
	<circle cx="500.292" cy="59.3698" r="4" fill="#0" id="circle86"/>
	<circle cx="495.678" cy="38.8714" r="4" fill="#0" id="circle87"/>
	<circle cx="519.638" cy="37.218" r="4" fill="#0" id="circle88"/>
	<circle cx="540.081" cy="33.8693" r="4" fill="#0" id="circle89"/>
	<circle cx="547.846" cy="56.5498" r="4" fill="#0" id="circle90"/>
	<circle cx="546.122" cy="75.6336" r="4" fill="#0" id="circle91"/>
	<circle cx="546.421" cy="95.5532" r="4" fill="#0" id="circle92"/>
	<circle cx="568.236" cy="90.4077" r="4" fill="#0" id="circle93"/>
	<circle cx="590.599" cy="89.7135" r="4" fill="#0" id="circle94"/>
	<circle cx="609.055" cy="89.4663" r="4" fill="#0" id="circle95"/>
	<circle cx="620.301" cy="91.4122" r="4" fill="#0" id="circle96"/>
	<circle cx="624.731" cy="34.4318" r="4" fill="#0" id="circle97"/>
	<circle cx="616.201" cy="50.2007" r="4" fill="#0" id="circle98"/>
	<circle cx="615.888" cy="66.9531" r="4" fill="#0" id="circle99"/>
	<circle cx="233.001" cy="36.7508" r="4" fill="#0" id="circle100"/>
	<circle cx="231.308" cy="58.8962" r="4" fill="#0" id="circle101"/>
	<circle cx="207.993" cy="12.3705" r="4" fill="#0" id="circle102"/>
	<circle cx="226.798" cy="22.3498" r="4" fill="#0" id="circle103"/>
	<circle cx="176.515" cy="12.2271" r="4" fill="#0" id="circle104"/>
	<circle cx="161.228" cy="26.9031" r="4" fill="#0" id="circle105"/>
	<circle cx="148.804" cy="47.6409" r="4" fill="#0" id="circle106"/>
	<circle cx="135.664" cy="67.5444" r="4" fill="#0" id="circle107"/>
	<circle cx="124.847" cy="89.9466" r="4" fill="#0" id="circle108"/>
	<circle cx="115.401" cy="107.394" r="4" fill="#0" id="circle109"/>
	<circle cx="103.936" cy="122.123" r="4" fill="#0" id="circle110"/>
	<circle cx="102.834" cy="137.919" r="4" fill="#0" id="circle111"/>
	<circle cx="104.639" cy="161.837" r="4" fill="#0" id="circle112"/>
	<circle cx="101.202" cy="182.382" r="4" fill="#0" id="circle113"/>
	<circle cx="103.141" cy="202.653" r="4" fill="#0" id="circle114"/>
	<circle cx="99.4413" cy="224.351" r="4" fill="#0" id="circle115"/>
	<circle cx="106.486" cy="240.693" r="4" fill="#0" id="circle116"/>
	<circle cx="117.157" cy="262.17" r="4" fill="#0" id="circle117"/>
	<circle cx="127.009" cy="271.24" r="4" fill="#0" id="circle118"/>
	<circle cx="119.756" cy="292.394" r="4" fill="#0" id="circle119"/>
	<circle cx="115.271" cy="312.179" r="4" fill="#0" id="circle120"/>
	<circle cx="111.066" cy="338.737" r="4" fill="#0" id="circle121"/>
	<circle cx="105.834" cy="370.58" r="4" fill="#0" id="circle122"/>
	<circle cx="106.54" cy="403.717" r="4" fill="#0" id="circle123"/>
	<circle cx="108.166" cy="422.613" r="4" fill="#0" id="circle124"/>
	<circle cx="103.845" cy="447.091" r="4" fill="#0" id="circle125"/>
	<circle cx="108.689" cy="472.369" r="4" fill="#0" id="circle126"/>
	<circle cx="106.64" cy="497.504" r="4" fill="#0" id="circle127"/>
	<circle cx="103.4" cy="527.295" r="4" fill="#0" id="circle128"/>
	<circle cx="105.612" cy="554.591" r="4" fill="#0" id="circle129"/>
	<circle cx="105.344" cy="578.269" r="4" fill="#0" id="circle130"/>
	<circle cx="106.295" cy="605.635" r="4" fill="#0" id="circle131"/>
	<circle cx="107.239" cy="636.703" r="4" fill="#0" id="circle132"/>
	<circle cx="110.511" cy="656.833" r="4" fill="#0" id="circle133"/>
	<circle cx="83.1593" cy="662.965" r="4" fill="#0" id="circle134"/>
	<circle cx="63.6355" cy="662.013" r="4" fill="#0" id="circle135"/>
	<circle cx="45.1236" cy="668.208" r="4" fill="#0" id="circle136"/>
	<circle cx="29.55" cy="683.172" r="4" fill="#0" id="circle137"/>
	<circle cx="13.8251" cy="700.334" r="4" fill="#0" id="circle138"/>
	<circle cx="10.4523" cy="725.127" r="4" fill="#0" id="circle139"/>
	<circle cx="6.47362" cy="750.605" r="4" fill="#0" id="circle140"/>
	<circle cx="7.70178" cy="773.205" r="4" fill="#0" id="circle141"/>
	<circle cx="12.7028" cy="795.261" r="4" fill="#0" id="circle142"/>
	<circle cx="5.53102" cy="809.788" r="4" fill="#0" id="circle143"/>
	<circle cx="7.04705" cy="834.386" r="4" fill="#0" id="circle144"/>
	<circle cx="12.0836" cy="858.512" r="4" fill="#0" id="circle145"/>
	<circle cx="10.0283" cy="879.553" r="4" fill="#0" id="circle146"/>
	<circle cx="6.79685" cy="899.032" r="4" fill="#0" id="circle147"/>
	<circle cx="4" cy="926.342" r="4" fill="#0" id="circle148"/>
	<circle cx="4.53407" cy="947.668" r="4" fill="#0" id="circle149"/>
	<circle cx="16.4248" cy="970.041" r="4" fill="#0" id="circle150"/>
	<circle cx="24.2165" cy="989.73" r="4" fill="#0" id="circle151"/>
	<circle cx="48.0259" cy="992.059" r="4" fill="#0" id="circle152"/>
	<circle cx="78.1031" cy="994.425" r="4" fill="#0" id="circle153"/>
	<circle cx="96.6336" cy="992.715" r="4" fill="#0" id="circle154"/>
	<circle cx="126.08" cy="988.782" r="4" fill="#0" id="circle155"/>
	<circle cx="150.992" cy="993.147" r="4" fill="#0" id="circle156"/>
	<circle cx="182.058" cy="990.071" r="4" fill="#0" id="circle157"/>
	<circle cx="201.799" cy="994.336" r="4" fill="#0" id="circle158"/>
	<circle cx="226.794" cy="991.571" r="4" fill="#0" id="circle159"/>
	<circle cx="251.264" cy="987.469" r="4" fill="#0" id="circle160"/>
	<circle cx="280.449" cy="991.399" r="4" fill="#0" id="circle161"/>
	<circle cx="301.965" cy="992.187" r="4" fill="#0" id="circle162"/>
	<circle cx="326.517" cy="990.316" r="4" fill="#0" id="circle163"/>
	<circle cx="351.367" cy="985.845" r="4" fill="#0" id="circle164"/>
	<circle cx="373.109" cy="990.556" r="4" fill="#0" id="circle165"/>
	<circle cx="403.411" cy="990.167" r="4" fill="#0" id="circle166"/>
	<circle cx="430.099" cy="992.803" r="4" fill="#0" id="circle167"/>
	<circle cx="454.916" cy="990.269" r="4" fill="#0" id="circle168"/>
	<circle cx="478.403" cy="991.11" r="4" fill="#0" id="circle169"/>
	<circle cx="510.581" cy="996" r="4" fill="#0" id="circle170"/>
	<circle cx="538.373" cy="990.36" r="4" fill="#0" id="circle171"/>
	<circle cx="566.113" cy="990.881" r="4" fill="#0" id="circle172"/>
	<circle cx="593.818" cy="992.423" r="4" fill="#0" id="circle173"/>
	<circle cx="622.809" cy="984.681" r="4" fill="#0" id="circle174"/>
	<circle cx="645.608" cy="989.915" r="4" fill="#0" id="circle175"/>
	<circle cx="673.616" cy="986.032" r="4" fill="#0" id="circle176"/>
	<circle cx="700.122" cy="990.762" r="4" fill="#0" id="circle177"/>
	<circle cx="723.336" cy="987.097" r="4" fill="#0" id="circle178"/>
	<circle cx="753.648" cy="990.366" r="4" fill="#0" id="circle179"/>
	<circle cx="776.214" cy="988.657" r="4" fill="#0" id="circle180"/>
	<circle cx="795.816" cy="988.906" r="4" fill="#0" id="circle181"/>
	<circle cx="826.707" cy="989.441" r="4" fill="#0" id="circle182"/>
	<circle cx="844.646" cy="981.276" r="4" fill="#0" id="circle183"/>
	<circle cx="851.798" cy="957.317" r="4" fill="#0" id="circle184"/>
	<circle cx="756.395" cy="660.346" r="4" fill="#0" id="circle185"/>
	<circle cx="783.081" cy="661.368" r="4" fill="#0" id="circle186"/>
	<circle cx="807.62" cy="657.639" r="4" fill="#0" id="circle187"/>
	<circle cx="832.041" cy="673.096" r="4" fill="#0" id="circle188"/>
	<circle cx="845.869" cy="687.798" r="4" fill="#0" id="circle189"/>
	<circle cx="859.119" cy="715.091" r="4" fill="#0" id="circle190"/>
	<circle cx="851.786" cy="742.807" r="4" fill="#0" id="circle191"/>
	<circle cx="857.854" cy="770.947" r="4" fill="#0" id="circle192"/>
	<circle cx="852.735" cy="794.51" r="4" fill="#0" id="circle193"/>
	<circle cx="861.013" cy="817.414" r="4" fill="#0" id="circle194"/>
	<circle cx="857.143" cy="838.146" r="4" fill="#0" id="circle195"/>
	<circle cx="855.461" cy="863.991" r="4" fill="#0" id="circle196"/>
	<circle cx="859.101" cy="893.2" r="4" fill="#0" id="circle197"/>
	<circle cx="860.498" cy="920.681" r="4" fill="#0" id="circle198"/>
	<circle cx="731.694" cy="269.028" r="4" fill="#0" id="circle199"/>
	<circle cx="741.896" cy="289.611" r="4" fill="#0" id="circle200"/>
	<circle cx="744.02" cy="310.668" r="4" fill="#0" id="circle201"/>
	<circle cx="743.892" cy="332.572" r="4" fill="#0" id="circle202"/>
	<circle cx="749.598" cy="352.472" r="4" fill="#0" id="circle203"/>
	<circle cx="753.97" cy="383.262" r="4" fill="#0" id="circle204"/>
	<circle cx="755.216" cy="403.355" r="4" fill="#0" id="circle205"/>
	<circle cx="755.144" cy="426.825" r="4" fill="#0" id="circle206"/>
	<circle cx="758.158" cy="457.026" r="4" fill="#0" id="circle207"/>
	<circle cx="759.438" cy="487.911" r="4" fill="#0" id="circle208"/>
	<circle cx="752.759" cy="515.954" r="4" fill="#0" id="circle209"/>
	<circle cx="756.217" cy="540.682" r="4" fill="#0" id="circle210"/>
	<circle cx="755.805" cy="568.768" r="4" fill="#0" id="circle211"/>
	<circle cx="760.623" cy="589.337" r="4" fill="#0" id="circle212"/>
	<circle cx="759.58" cy="610.423" r="4" fill="#0" id="circle213"/>
	<circle cx="754.829" cy="637.105" r="4" fill="#0" id="circle214"/>
	<circle cx="637.864" cy="19.3231" r="4" fill="#0" id="circle215"/>
	<circle cx="653.283" cy="4" r="4" fill="#0" id="circle216"/>
	<circle cx="677.503" cy="11.1003" r="4" fill="#0" id="circle217"/>
	<circle cx="698.955" cy="18.3326" r="4" fill="#0" id="circle218"/>
	<circle cx="711.085" cy="40.7239" r="4" fill="#0" id="circle219"/>
	<circle cx="718.405" cy="62.1067" r="4" fill="#0" id="circle220"/>
	<circle cx="735.541" cy="88.6184" r="4" fill="#0" id="circle221"/>
	<circle cx="754.085" cy="116.959" r="4" fill="#0" id="circle222"/>
	<circle cx="758.179" cy="136.782" r="4" fill="#0" id="circle223"/>
	<circle cx="753.529" cy="159.18" r="4" fill="#0" id="circle224"/>
	<circle cx="753.353" cy="183.154" r="4" fill="#0" id="circle225"/>
	<circle cx="754.724" cy="202.011" r="4" fill="#0" id="circle226"/>
	<circle cx="759.884" cy="219.822" r="4" fill="#0" id="circle227"/>
	<circle cx="755.661" cy="238.811" r="4" fill="#0" id="circle228"/>
	<circle cx="93.3573" cy="764.028" r="4" fill="#0" id="circle229"/>
	<circle cx="110.614" cy="756.88" r="4" fill="#0" id="circle230"/>
	<circle cx="131.111" cy="757.343" r="4" fill="#0" id="circle231"/>
	<circle cx="157.826" cy="762.025" r="4" fill="#0" id="circle232"/>
	<circle cx="188.451" cy="768.052" r="4" fill="#0" id="circle233"/>
	<circle cx="204.94" cy="787.928" r="4" fill="#0" id="circle234"/>
	<circle cx="210.298" cy="817.275" r="4" fill="#0" id="circle235"/>
	<circle cx="202.37" cy="838.807" r="4" fill="#0" id="circle236"/>
	<circle cx="188.635" cy="859.718" r="4" fill="#0" id="circle237"/>
	<circle cx="173.123" cy="878.49" r="4" fill="#0" id="circle238"/>
	<circle cx="150.944" cy="876.814" r="4" fill="#0" id="circle239"/>
	<circle cx="122.52" cy="877.337" r="4" fill="#0" id="circle240"/>
	<circle cx="92.1995" cy="869.73" r="4" fill="#0" id="circle241"/>
	<circle cx="79.3678" cy="861.545" r="4" fill="#0" id="circle242"/>
	<circle cx="65.5495" cy="835.522" r="4" fill="#0" id="circle243"/>
	<circle cx="62.8101" cy="798.83" r="4" fill="#0" id="circle244"/>
	<circle cx="77.9591" cy="778.847" r="4" fill="#0" id="circle245"/>
	<circle cx="658.679" cy="797.518" r="4" fill="#0" id="circle246"/>
	<circle cx="669.083" cy="775.636" r="4" fill="#0" id="circle247"/>
	<circle cx="690.148" cy="761.758" r="4" fill="#0" id="circle248"/>
	<circle cx="662.671" cy="830.197" r="4" fill="#0" id="circle249"/>
	<circle cx="667.709" cy="850.584" r="4" fill="#0" id="circle250"/>
	<circle cx="687.711" cy="869.245" r="4" fill="#0" id="circle251"/>
	<circle cx="721.439" cy="874.367" r="4" fill="#0" id="circle252"/>
	<circle cx="741.749" cy="872.177" r="4" fill="#0" id="circle253"/>
	<circle cx="769.075" cy="865.733" r="4" fill="#0" id="circle254"/>
	<circle cx="794.766" cy="847.477" r="4" fill="#0" id="circle255"/>
	<circle cx="806.002" cy="817.682" r="4" fill="#0" id="circle256"/>
	<circle cx="801.873" cy="792.065" r="4" fill="#0" id="circle257"/>
	<circle cx="780.091" cy="766.11" r="4" fill="#0" id="circle258"/>
	<circle cx="757.048" cy="755.133" r="4" fill="#0" id="circle259"/>
	<circle cx="721.672" cy="748.565" r="4" fill="#0" id="circle260"/>
	</g>
</svg>