<?xml version="1.0" encoding="UTF-8" standalone="no"?>
<!-- Created with CurveBenchmark -->
<svg
	xmlns:dc="http://purl.org/dc/elements/1.1/"
	xmlns:cc="http://creativecommons.org/ns#"
	xmlns:rdf="http://www.w3.org/1999/02/22-rdf-syntax-ns#"
	xmlns:svg="http://www.w3.org/2000/svg"
	xmlns="http://www.w3.org/2000/svg"
	xmlns:sodipodi="http://sodipodi.sourceforge.net/DTD/sodipodi-0.dtd"
	xmlns:inkscape="http://www.inkscape.org/namespaces/inkscape"
	width="1000"
	height="1000"
	id="svg2"
	version="1.1"
	sodipodi:docname="noisy-0.003/vicur-mc21.txt">
<defs
	id="defs4" />
<metadata
	id="metadata7">
	<rdf:RDF>
		<cc:Work
			rdf:about="">
			<dc:format>image/svg+xml</dc:format>
			<dc:type
				rdf:resource="http://purl.org/dc/dcmitype/StillImage" />
			<dc:title></dc:title>
		</cc:Work>
	</rdf:RDF>
</metadata>
<g
	inkscape:label="Layer 1"
	inkscape:groupmode="layer"
	id="layer1">
	<path style="fill:none;stroke:red;stroke-width:1px;stroke-linecap:butt;stroke-linejoin:miter;stroke-opacity:1" d="M 19.7783,330.164 47.3507,309.727 z" id="boundary" inkscape:connector-curvature="0" />
	<path style="fill:none;stroke:red;stroke-width:1px;stroke-linecap:butt;stroke-linejoin:miter;stroke-opacity:1" d="M 19.7783,330.164 11.1622,338.786 z" id="boundary" inkscape:connector-curvature="0" />
	<path style="fill:none;stroke:red;stroke-width:1px;stroke-linecap:butt;stroke-linejoin:miter;stroke-opacity:1" d="M 47.3507,309.727 76.8846,300.8 z" id="boundary" inkscape:connector-curvature="0" />
	<path style="fill:none;stroke:red;stroke-width:1px;stroke-linecap:butt;stroke-linejoin:miter;stroke-opacity:1" d="M 54.9739,903.672 65.1595,942.23 z" id="boundary" inkscape:connector-curvature="0" />
	<path style="fill:none;stroke:red;stroke-width:1px;stroke-linecap:butt;stroke-linejoin:miter;stroke-opacity:1" d="M 54.9739,903.672 67.3454,864.196 z" id="boundary" inkscape:connector-curvature="0" />
	<path style="fill:none;stroke:red;stroke-width:1px;stroke-linecap:butt;stroke-linejoin:miter;stroke-opacity:1" d="M 64.6748,373.838 90.1979,366.334 z" id="boundary" inkscape:connector-curvature="0" />
	<path style="fill:none;stroke:red;stroke-width:1px;stroke-linecap:butt;stroke-linejoin:miter;stroke-opacity:1" d="M 64.6748,373.838 25.7181,385.33 z" id="boundary" inkscape:connector-curvature="0" />
	<path style="fill:none;stroke:red;stroke-width:1px;stroke-linecap:butt;stroke-linejoin:miter;stroke-opacity:1" d="M 65.1595,942.23 78.9383,991.955 z" id="boundary" inkscape:connector-curvature="0" />
	<path style="fill:none;stroke:red;stroke-width:1px;stroke-linecap:butt;stroke-linejoin:miter;stroke-opacity:1" d="M 67.3454,864.196 122.515,856.036 z" id="boundary" inkscape:connector-curvature="0" />
	<path style="fill:none;stroke:red;stroke-width:1px;stroke-linecap:butt;stroke-linejoin:miter;stroke-opacity:1" d="M 78.9383,991.955 130.202,989.657 z" id="boundary" inkscape:connector-curvature="0" />
	<path style="fill:none;stroke:red;stroke-width:1px;stroke-linecap:butt;stroke-linejoin:miter;stroke-opacity:1" d="M 76.8846,300.8 121.457,292.282 z" id="boundary" inkscape:connector-curvature="0" />
	<path style="fill:none;stroke:red;stroke-width:1px;stroke-linecap:butt;stroke-linejoin:miter;stroke-opacity:1" d="M 90.1979,366.334 137.778,363.005 z" id="boundary" inkscape:connector-curvature="0" />
	<path style="fill:none;stroke:red;stroke-width:1px;stroke-linecap:butt;stroke-linejoin:miter;stroke-opacity:1" d="M 121.457,292.282 155.421,285.745 z" id="boundary" inkscape:connector-curvature="0" />
	<path style="fill:none;stroke:red;stroke-width:1px;stroke-linecap:butt;stroke-linejoin:miter;stroke-opacity:1" d="M 122.515,856.036 148.088,867.273 z" id="boundary" inkscape:connector-curvature="0" />
	<path style="fill:none;stroke:red;stroke-width:1px;stroke-linecap:butt;stroke-linejoin:miter;stroke-opacity:1" d="M 130.202,989.657 167.668,953.563 z" id="boundary" inkscape:connector-curvature="0" />
	<path style="fill:none;stroke:red;stroke-width:1px;stroke-linecap:butt;stroke-linejoin:miter;stroke-opacity:1" d="M 137.778,363.005 180.162,365.447 z" id="boundary" inkscape:connector-curvature="0" />
	<path style="fill:none;stroke:red;stroke-width:1px;stroke-linecap:butt;stroke-linejoin:miter;stroke-opacity:1" d="M 155.421,285.745 189.117,261.428 z" id="boundary" inkscape:connector-curvature="0" />
	<path style="fill:none;stroke:red;stroke-width:1px;stroke-linecap:butt;stroke-linejoin:miter;stroke-opacity:1" d="M 148.088,867.273 174.567,913.833 z" id="boundary" inkscape:connector-curvature="0" />
	<path style="fill:none;stroke:red;stroke-width:1px;stroke-linecap:butt;stroke-linejoin:miter;stroke-opacity:1" d="M 167.668,953.563 174.567,913.833 z" id="boundary" inkscape:connector-curvature="0" />
	<path style="fill:none;stroke:red;stroke-width:1px;stroke-linecap:butt;stroke-linejoin:miter;stroke-opacity:1" d="M 180.162,365.447 227.58,357.751 z" id="boundary" inkscape:connector-curvature="0" />
	<path style="fill:none;stroke:red;stroke-width:1px;stroke-linecap:butt;stroke-linejoin:miter;stroke-opacity:1" d="M 189.117,261.428 254.629,208.377 z" id="boundary" inkscape:connector-curvature="0" />
	<path style="fill:none;stroke:red;stroke-width:1px;stroke-linecap:butt;stroke-linejoin:miter;stroke-opacity:1" d="M 227.58,357.751 280.853,364.864 z" id="boundary" inkscape:connector-curvature="0" />
	<path style="fill:none;stroke:red;stroke-width:1px;stroke-linecap:butt;stroke-linejoin:miter;stroke-opacity:1" d="M 254.629,208.377 316.67,142.818 z" id="boundary" inkscape:connector-curvature="0" />
	<path style="fill:none;stroke:red;stroke-width:1px;stroke-linecap:butt;stroke-linejoin:miter;stroke-opacity:1" d="M 280.853,364.864 357.173,405.593 z" id="boundary" inkscape:connector-curvature="0" />
	<path style="fill:none;stroke:red;stroke-width:1px;stroke-linecap:butt;stroke-linejoin:miter;stroke-opacity:1" d="M 316.67,142.818 345.141,91.0157 z" id="boundary" inkscape:connector-curvature="0" />
	<path style="fill:none;stroke:red;stroke-width:1px;stroke-linecap:butt;stroke-linejoin:miter;stroke-opacity:1" d="M 345.141,91.0157 392.025,64.954 z" id="boundary" inkscape:connector-curvature="0" />
	<path style="fill:none;stroke:red;stroke-width:1px;stroke-linecap:butt;stroke-linejoin:miter;stroke-opacity:1" d="M 357.173,405.593 435.477,537.656 z" id="boundary" inkscape:connector-curvature="0" />
	<path style="fill:none;stroke:red;stroke-width:1px;stroke-linecap:butt;stroke-linejoin:miter;stroke-opacity:1" d="M 392.025,64.954 469.453,16.1672 z" id="boundary" inkscape:connector-curvature="0" />
	<path style="fill:none;stroke:red;stroke-width:1px;stroke-linecap:butt;stroke-linejoin:miter;stroke-opacity:1" d="M 435.477,537.656 460.549,620.419 z" id="boundary" inkscape:connector-curvature="0" />
	<path style="fill:none;stroke:red;stroke-width:1px;stroke-linecap:butt;stroke-linejoin:miter;stroke-opacity:1" d="M 460.549,620.419 566.876,729.384 z" id="boundary" inkscape:connector-curvature="0" />
	<path style="fill:none;stroke:red;stroke-width:1px;stroke-linecap:butt;stroke-linejoin:miter;stroke-opacity:1" d="M 469.453,16.1672 549.34,4 z" id="boundary" inkscape:connector-curvature="0" />
	<path style="fill:none;stroke:red;stroke-width:1px;stroke-linecap:butt;stroke-linejoin:miter;stroke-opacity:1" d="M 549.34,4 669.483,19.1171 z" id="boundary" inkscape:connector-curvature="0" />
	<path style="fill:none;stroke:red;stroke-width:1px;stroke-linecap:butt;stroke-linejoin:miter;stroke-opacity:1" d="M 568.607,325.496 593.523,262.565 z" id="boundary" inkscape:connector-curvature="0" />
	<path style="fill:none;stroke:red;stroke-width:1px;stroke-linecap:butt;stroke-linejoin:miter;stroke-opacity:1" d="M 568.607,325.496 611.958,365.972 z" id="boundary" inkscape:connector-curvature="0" />
	<path style="fill:none;stroke:red;stroke-width:1px;stroke-linecap:butt;stroke-linejoin:miter;stroke-opacity:1" d="M 566.876,729.384 762.19,751.998 z" id="boundary" inkscape:connector-curvature="0" />
	<path style="fill:none;stroke:red;stroke-width:1px;stroke-linecap:butt;stroke-linejoin:miter;stroke-opacity:1" d="M 593.523,262.565 630.15,236.33 z" id="boundary" inkscape:connector-curvature="0" />
	<path style="fill:none;stroke:red;stroke-width:1px;stroke-linecap:butt;stroke-linejoin:miter;stroke-opacity:1" d="M 611.958,365.972 651.275,371.861 z" id="boundary" inkscape:connector-curvature="0" />
	<path style="fill:none;stroke:red;stroke-width:1px;stroke-linecap:butt;stroke-linejoin:miter;stroke-opacity:1" d="M 630.15,236.33 673.062,247.491 z" id="boundary" inkscape:connector-curvature="0" />
	<path style="fill:none;stroke:red;stroke-width:1px;stroke-linecap:butt;stroke-linejoin:miter;stroke-opacity:1" d="M 651.275,371.861 699.803,321.455 z" id="boundary" inkscape:connector-curvature="0" />
	<path style="fill:none;stroke:red;stroke-width:1px;stroke-linecap:butt;stroke-linejoin:miter;stroke-opacity:1" d="M 669.483,19.1171 801.046,49.7406 z" id="boundary" inkscape:connector-curvature="0" />
	<path style="fill:none;stroke:red;stroke-width:1px;stroke-linecap:butt;stroke-linejoin:miter;stroke-opacity:1" d="M 673.062,247.491 700.672,277.678 z" id="boundary" inkscape:connector-curvature="0" />
	<path style="fill:none;stroke:red;stroke-width:1px;stroke-linecap:butt;stroke-linejoin:miter;stroke-opacity:1" d="M 699.803,321.455 700.672,277.678 z" id="boundary" inkscape:connector-curvature="0" />
	<path style="fill:none;stroke:red;stroke-width:1px;stroke-linecap:butt;stroke-linejoin:miter;stroke-opacity:1" d="M 762.19,751.998 955.697,604.796 z" id="boundary" inkscape:connector-curvature="0" />
	<path style="fill:none;stroke:red;stroke-width:1px;stroke-linecap:butt;stroke-linejoin:miter;stroke-opacity:1" d="M 801.046,49.7406 922.574,145.462 z" id="boundary" inkscape:connector-curvature="0" />
	<path style="fill:none;stroke:red;stroke-width:1px;stroke-linecap:butt;stroke-linejoin:miter;stroke-opacity:1" d="M 922.574,145.462 978.861,241.937 z" id="boundary" inkscape:connector-curvature="0" />
	<path style="fill:none;stroke:red;stroke-width:1px;stroke-linecap:butt;stroke-linejoin:miter;stroke-opacity:1" d="M 955.697,604.796 996,365.098 z" id="boundary" inkscape:connector-curvature="0" />
	<path style="fill:none;stroke:red;stroke-width:1px;stroke-linecap:butt;stroke-linejoin:miter;stroke-opacity:1" d="M 978.861,241.937 996,365.098 z" id="boundary" inkscape:connector-curvature="0" />
	<path style="fill:none;stroke:red;stroke-width:1px;stroke-linecap:butt;stroke-linejoin:miter;stroke-opacity:1" d="M 11.1622,338.786 11.1224,353.193 z" id="boundary" inkscape:connector-curvature="0" />
	<path style="fill:none;stroke:red;stroke-width:1px;stroke-linecap:butt;stroke-linejoin:miter;stroke-opacity:1" d="M 11.1224,353.193 4,370.93 z" id="boundary" inkscape:connector-curvature="0" />
	<path style="fill:none;stroke:red;stroke-width:1px;stroke-linecap:butt;stroke-linejoin:miter;stroke-opacity:1" d="M 4,370.93 12.7928,379.465 z" id="boundary" inkscape:connector-curvature="0" />
	<path style="fill:none;stroke:red;stroke-width:1px;stroke-linecap:butt;stroke-linejoin:miter;stroke-opacity:1" d="M 12.7928,379.465 25.7181,385.33 z" id="boundary" inkscape:connector-curvature="0" />
	<circle cx="19.7783" cy="330.164" r="4" fill="#0" id="circle0"/>
	<circle cx="47.3507" cy="309.727" r="4" fill="#0" id="circle1"/>
	<circle cx="54.9739" cy="903.672" r="4" fill="#0" id="circle2"/>
	<circle cx="64.6748" cy="373.838" r="4" fill="#0" id="circle3"/>
	<circle cx="65.1595" cy="942.23" r="4" fill="#0" id="circle4"/>
	<circle cx="67.3454" cy="864.196" r="4" fill="#0" id="circle5"/>
	<circle cx="78.9383" cy="991.955" r="4" fill="#0" id="circle6"/>
	<circle cx="76.8846" cy="300.8" r="4" fill="#0" id="circle7"/>
	<circle cx="90.1979" cy="366.334" r="4" fill="#0" id="circle8"/>
	<circle cx="121.457" cy="292.282" r="4" fill="#0" id="circle9"/>
	<circle cx="122.515" cy="856.036" r="4" fill="#0" id="circle10"/>
	<circle cx="130.202" cy="989.657" r="4" fill="#0" id="circle11"/>
	<circle cx="137.778" cy="363.005" r="4" fill="#0" id="circle12"/>
	<circle cx="155.421" cy="285.745" r="4" fill="#0" id="circle13"/>
	<circle cx="148.088" cy="867.273" r="4" fill="#0" id="circle14"/>
	<circle cx="167.668" cy="953.563" r="4" fill="#0" id="circle15"/>
	<circle cx="174.567" cy="913.833" r="4" fill="#0" id="circle16"/>
	<circle cx="180.162" cy="365.447" r="4" fill="#0" id="circle17"/>
	<circle cx="189.117" cy="261.428" r="4" fill="#0" id="circle18"/>
	<circle cx="227.58" cy="357.751" r="4" fill="#0" id="circle19"/>
	<circle cx="254.629" cy="208.377" r="4" fill="#0" id="circle20"/>
	<circle cx="280.853" cy="364.864" r="4" fill="#0" id="circle21"/>
	<circle cx="316.67" cy="142.818" r="4" fill="#0" id="circle22"/>
	<circle cx="345.141" cy="91.0157" r="4" fill="#0" id="circle23"/>
	<circle cx="357.173" cy="405.593" r="4" fill="#0" id="circle24"/>
	<circle cx="392.025" cy="64.954" r="4" fill="#0" id="circle25"/>
	<circle cx="435.477" cy="537.656" r="4" fill="#0" id="circle26"/>
	<circle cx="460.549" cy="620.419" r="4" fill="#0" id="circle27"/>
	<circle cx="469.453" cy="16.1672" r="4" fill="#0" id="circle28"/>
	<circle cx="549.34" cy="4" r="4" fill="#0" id="circle29"/>
	<circle cx="568.607" cy="325.496" r="4" fill="#0" id="circle30"/>
	<circle cx="566.876" cy="729.384" r="4" fill="#0" id="circle31"/>
	<circle cx="593.523" cy="262.565" r="4" fill="#0" id="circle32"/>
	<circle cx="611.958" cy="365.972" r="4" fill="#0" id="circle33"/>
	<circle cx="630.15" cy="236.33" r="4" fill="#0" id="circle34"/>
	<circle cx="651.275" cy="371.861" r="4" fill="#0" id="circle35"/>
	<circle cx="669.483" cy="19.1171" r="4" fill="#0" id="circle36"/>
	<circle cx="673.062" cy="247.491" r="4" fill="#0" id="circle37"/>
	<circle cx="699.803" cy="321.455" r="4" fill="#0" id="circle38"/>
	<circle cx="700.672" cy="277.678" r="4" fill="#0" id="circle39"/>
	<circle cx="762.19" cy="751.998" r="4" fill="#0" id="circle40"/>
	<circle cx="801.046" cy="49.7406" r="4" fill="#0" id="circle41"/>
	<circle cx="922.574" cy="145.462" r="4" fill="#0" id="circle42"/>
	<circle cx="955.697" cy="604.796" r="4" fill="#0" id="circle43"/>
	<circle cx="978.861" cy="241.937" r="4" fill="#0" id="circle44"/>
	<circle cx="996" cy="365.098" r="4" fill="#0" id="circle45"/>
	<circle cx="11.1622" cy="338.786" r="4" fill="#0" id="circle46"/>
	<circle cx="11.1224" cy="353.193" r="4" fill="#0" id="circle47"/>
	<circle cx="4" cy="370.93" r="4" fill="#0" id="circle48"/>
	<circle cx="12.7928" cy="379.465" r="4" fill="#0" id="circle49"/>
	<circle cx="25.7181" cy="385.33" r="4" fill="#0" id="circle50"/>
	</g>
</svg>