<?xml version="1.0" encoding="UTF-8" standalone="no"?>
<!-- Created with CurveBenchmark -->
<svg
	xmlns:dc="http://purl.org/dc/elements/1.1/"
	xmlns:cc="http://creativecommons.org/ns#"
	xmlns:rdf="http://www.w3.org/1999/02/22-rdf-syntax-ns#"
	xmlns:svg="http://www.w3.org/2000/svg"
	xmlns="http://www.w3.org/2000/svg"
	xmlns:sodipodi="http://sodipodi.sourceforge.net/DTD/sodipodi-0.dtd"
	xmlns:inkscape="http://www.inkscape.org/namespaces/inkscape"
	width="1000"
	height="1000"
	id="svg2"
	version="1.1"
	sodipodi:docname="noisy-0.003/vicur-mc20.txt">
<defs
	id="defs4" />
<metadata
	id="metadata7">
	<rdf:RDF>
		<cc:Work
			rdf:about="">
			<dc:format>image/svg+xml</dc:format>
			<dc:type
				rdf:resource="http://purl.org/dc/dcmitype/StillImage" />
			<dc:title></dc:title>
		</cc:Work>
	</rdf:RDF>
</metadata>
<g
	inkscape:label="Layer 1"
	inkscape:groupmode="layer"
	id="layer1">
	<path style="fill:none;stroke:red;stroke-width:1px;stroke-linecap:butt;stroke-linejoin:miter;stroke-opacity:1" d="M 4,963.549 15.4151,860.376 z" id="boundary" inkscape:connector-curvature="0" />
	<path style="fill:none;stroke:red;stroke-width:1px;stroke-linecap:butt;stroke-linejoin:miter;stroke-opacity:1" d="M 4,963.549 51.3007,996 z" id="boundary" inkscape:connector-curvature="0" />
	<path style="fill:none;stroke:red;stroke-width:1px;stroke-linecap:butt;stroke-linejoin:miter;stroke-opacity:1" d="M 15.4151,860.376 66.7829,791.814 z" id="boundary" inkscape:connector-curvature="0" />
	<path style="fill:none;stroke:red;stroke-width:1px;stroke-linecap:butt;stroke-linejoin:miter;stroke-opacity:1" d="M 51.3007,996 126.061,953.325 z" id="boundary" inkscape:connector-curvature="0" />
	<path style="fill:none;stroke:red;stroke-width:1px;stroke-linecap:butt;stroke-linejoin:miter;stroke-opacity:1" d="M 66.7829,791.814 134.469,716.628 z" id="boundary" inkscape:connector-curvature="0" />
	<path style="fill:none;stroke:red;stroke-width:1px;stroke-linecap:butt;stroke-linejoin:miter;stroke-opacity:1" d="M 126.061,953.325 195.911,865.026 z" id="boundary" inkscape:connector-curvature="0" />
	<path style="fill:none;stroke:red;stroke-width:1px;stroke-linecap:butt;stroke-linejoin:miter;stroke-opacity:1" d="M 134.469,716.628 152.686,654.552 z" id="boundary" inkscape:connector-curvature="0" />
	<path style="fill:none;stroke:red;stroke-width:1px;stroke-linecap:butt;stroke-linejoin:miter;stroke-opacity:1" d="M 143.327,484.213 152.686,654.552 z" id="boundary" inkscape:connector-curvature="0" />
	<path style="fill:none;stroke:red;stroke-width:1px;stroke-linecap:butt;stroke-linejoin:miter;stroke-opacity:1" d="M 143.327,484.213 169.124,356.983 z" id="boundary" inkscape:connector-curvature="0" />
	<path style="fill:none;stroke:red;stroke-width:1px;stroke-linecap:butt;stroke-linejoin:miter;stroke-opacity:1" d="M 169.124,356.983 194.93,215.463 z" id="boundary" inkscape:connector-curvature="0" />
	<path style="fill:none;stroke:red;stroke-width:1px;stroke-linecap:butt;stroke-linejoin:miter;stroke-opacity:1" d="M 194.93,215.463 248.807,97.0593 z" id="boundary" inkscape:connector-curvature="0" />
	<path style="fill:none;stroke:red;stroke-width:1px;stroke-linecap:butt;stroke-linejoin:miter;stroke-opacity:1" d="M 195.911,865.026 252.643,783.622 z" id="boundary" inkscape:connector-curvature="0" />
	<path style="fill:none;stroke:red;stroke-width:1px;stroke-linecap:butt;stroke-linejoin:miter;stroke-opacity:1" d="M 248.807,97.0593 357.721,19.8865 z" id="boundary" inkscape:connector-curvature="0" />
	<path style="fill:none;stroke:red;stroke-width:1px;stroke-linecap:butt;stroke-linejoin:miter;stroke-opacity:1" d="M 252.643,783.622 310.685,749.217 z" id="boundary" inkscape:connector-curvature="0" />
	<path style="fill:none;stroke:red;stroke-width:1px;stroke-linecap:butt;stroke-linejoin:miter;stroke-opacity:1" d="M 310.685,749.217 387.451,734.923 z" id="boundary" inkscape:connector-curvature="0" />
	<path style="fill:none;stroke:red;stroke-width:1px;stroke-linecap:butt;stroke-linejoin:miter;stroke-opacity:1" d="M 357.721,19.8865 526.935,4 z" id="boundary" inkscape:connector-curvature="0" />
	<path style="fill:none;stroke:red;stroke-width:1px;stroke-linecap:butt;stroke-linejoin:miter;stroke-opacity:1" d="M 387.451,734.923 560.749,727.168 z" id="boundary" inkscape:connector-curvature="0" />
	<path style="fill:none;stroke:red;stroke-width:1px;stroke-linecap:butt;stroke-linejoin:miter;stroke-opacity:1" d="M 394.647,334.358 394.452,429.687 z" id="boundary" inkscape:connector-curvature="0" />
	<path style="fill:none;stroke:red;stroke-width:1px;stroke-linecap:butt;stroke-linejoin:miter;stroke-opacity:1" d="M 394.647,334.358 457.399,215.39 z" id="boundary" inkscape:connector-curvature="0" />
	<path style="fill:none;stroke:red;stroke-width:1px;stroke-linecap:butt;stroke-linejoin:miter;stroke-opacity:1" d="M 394.452,429.687 506.834,467.635 z" id="boundary" inkscape:connector-curvature="0" />
	<path style="fill:none;stroke:red;stroke-width:1px;stroke-linecap:butt;stroke-linejoin:miter;stroke-opacity:1" d="M 457.399,215.39 533.909,199.075 z" id="boundary" inkscape:connector-curvature="0" />
	<path style="fill:none;stroke:red;stroke-width:1px;stroke-linecap:butt;stroke-linejoin:miter;stroke-opacity:1" d="M 506.834,467.635 638.2,403.226 z" id="boundary" inkscape:connector-curvature="0" />
	<path style="fill:none;stroke:red;stroke-width:1px;stroke-linecap:butt;stroke-linejoin:miter;stroke-opacity:1" d="M 526.935,4 659.177,23.9796 z" id="boundary" inkscape:connector-curvature="0" />
	<path style="fill:none;stroke:red;stroke-width:1px;stroke-linecap:butt;stroke-linejoin:miter;stroke-opacity:1" d="M 533.909,199.075 624.444,221.793 z" id="boundary" inkscape:connector-curvature="0" />
	<path style="fill:none;stroke:red;stroke-width:1px;stroke-linecap:butt;stroke-linejoin:miter;stroke-opacity:1" d="M 560.749,727.168 654.569,678.802 z" id="boundary" inkscape:connector-curvature="0" />
	<path style="fill:none;stroke:red;stroke-width:1px;stroke-linecap:butt;stroke-linejoin:miter;stroke-opacity:1" d="M 624.444,221.793 653.711,283.092 z" id="boundary" inkscape:connector-curvature="0" />
	<path style="fill:none;stroke:red;stroke-width:1px;stroke-linecap:butt;stroke-linejoin:miter;stroke-opacity:1" d="M 638.2,403.226 653.711,283.092 z" id="boundary" inkscape:connector-curvature="0" />
	<path style="fill:none;stroke:red;stroke-width:1px;stroke-linecap:butt;stroke-linejoin:miter;stroke-opacity:1" d="M 654.569,678.802 768.772,559.131 z" id="boundary" inkscape:connector-curvature="0" />
	<path style="fill:none;stroke:red;stroke-width:1px;stroke-linecap:butt;stroke-linejoin:miter;stroke-opacity:1" d="M 659.177,23.9796 771.854,86.0504 z" id="boundary" inkscape:connector-curvature="0" />
	<path style="fill:none;stroke:red;stroke-width:1px;stroke-linecap:butt;stroke-linejoin:miter;stroke-opacity:1" d="M 771.854,86.0504 848.263,249.507 z" id="boundary" inkscape:connector-curvature="0" />
	<path style="fill:none;stroke:red;stroke-width:1px;stroke-linecap:butt;stroke-linejoin:miter;stroke-opacity:1" d="M 768.772,559.131 857.023,407.187 z" id="boundary" inkscape:connector-curvature="0" />
	<path style="fill:none;stroke:red;stroke-width:1px;stroke-linecap:butt;stroke-linejoin:miter;stroke-opacity:1" d="M 848.263,249.507 857.023,407.187 z" id="boundary" inkscape:connector-curvature="0" />
	<circle cx="4" cy="963.549" r="4" fill="#0" id="circle0"/>
	<circle cx="15.4151" cy="860.376" r="4" fill="#0" id="circle1"/>
	<circle cx="51.3007" cy="996" r="4" fill="#0" id="circle2"/>
	<circle cx="66.7829" cy="791.814" r="4" fill="#0" id="circle3"/>
	<circle cx="126.061" cy="953.325" r="4" fill="#0" id="circle4"/>
	<circle cx="134.469" cy="716.628" r="4" fill="#0" id="circle5"/>
	<circle cx="143.327" cy="484.213" r="4" fill="#0" id="circle6"/>
	<circle cx="152.686" cy="654.552" r="4" fill="#0" id="circle7"/>
	<circle cx="169.124" cy="356.983" r="4" fill="#0" id="circle8"/>
	<circle cx="194.93" cy="215.463" r="4" fill="#0" id="circle9"/>
	<circle cx="195.911" cy="865.026" r="4" fill="#0" id="circle10"/>
	<circle cx="248.807" cy="97.0593" r="4" fill="#0" id="circle11"/>
	<circle cx="252.643" cy="783.622" r="4" fill="#0" id="circle12"/>
	<circle cx="310.685" cy="749.217" r="4" fill="#0" id="circle13"/>
	<circle cx="357.721" cy="19.8865" r="4" fill="#0" id="circle14"/>
	<circle cx="387.451" cy="734.923" r="4" fill="#0" id="circle15"/>
	<circle cx="394.647" cy="334.358" r="4" fill="#0" id="circle16"/>
	<circle cx="394.452" cy="429.687" r="4" fill="#0" id="circle17"/>
	<circle cx="457.399" cy="215.39" r="4" fill="#0" id="circle18"/>
	<circle cx="506.834" cy="467.635" r="4" fill="#0" id="circle19"/>
	<circle cx="526.935" cy="4" r="4" fill="#0" id="circle20"/>
	<circle cx="533.909" cy="199.075" r="4" fill="#0" id="circle21"/>
	<circle cx="560.749" cy="727.168" r="4" fill="#0" id="circle22"/>
	<circle cx="624.444" cy="221.793" r="4" fill="#0" id="circle23"/>
	<circle cx="638.2" cy="403.226" r="4" fill="#0" id="circle24"/>
	<circle cx="654.569" cy="678.802" r="4" fill="#0" id="circle25"/>
	<circle cx="659.177" cy="23.9796" r="4" fill="#0" id="circle26"/>
	<circle cx="653.711" cy="283.092" r="4" fill="#0" id="circle27"/>
	<circle cx="771.854" cy="86.0504" r="4" fill="#0" id="circle28"/>
	<circle cx="768.772" cy="559.131" r="4" fill="#0" id="circle29"/>
	<circle cx="848.263" cy="249.507" r="4" fill="#0" id="circle30"/>
	<circle cx="857.023" cy="407.187" r="4" fill="#0" id="circle31"/>
	</g>
</svg>