106 126
108 151
108 176
108 201
106 236
106 261
104 288
106 313
110 344
130 321
155 323
180 323
205 323
222 350
237 324
262 323
287 323
312 323
337 323
362 323
387 323
412 323
437 323
462 323
487 323
512 323
537 323
550 345
568 327
593 327
613 343
637 336
662 333
674 355
685 313
685 288
688 263
683 230
662 216
640 204
622 186
601 200
580 214
557 225
532 232
507 232
482 230
457 230
432 230
407 230
382 229
364 211
346 193
324 181
300 174
275 176
253 164
233 148
227 110
207 94
192 74
177 54
162 74
143 92
122 106
