102 298
104 323
106 348
129 321
154 321
179 321
204 321
229 321
254 321
279 321
304 321
329 321
354 324
356 352
379 321
392 343
413 328
438 329
463 326
488 328
511 339
536 345
561 341
584 331
608 324
631 334
655 327
674 344
683 319
681 294
683 266
680 232
657 222
632 216
607 212
582 209
560 196
537 186
515 198
493 210
468 212
443 216
419 208
399 192
377 179
363 158
368 121
346 108
322 100
298 93
276 80
255 66
232 56
213 76
192 90
167 96
143 104
119 113
102 132
108 157
110 182
108 218
104 250
