96 287
96 262
98 236
101 211
102 176
100 151
98 126
116 108
139 97
162 84
180 64
205 66
221 86
243 98
265 110
281 130
271 164
293 176
318 178
342 186
363 200
382 217
404 230
429 230
454 230
479 232
504 228
527 218
552 212
574 200
595 186
615 201
638 212
663 218
685 230
691 264
689 290
689 315
680 350
665 328
640 324
618 337
594 345
571 335
547 326
522 327
501 360
498 335
477 321
452 321
427 321
402 321
377 321
352 321
327 321
302 321
277 322
264 348
247 321
222 321
197 321
172 321
147 321
122 321
109 361
102 337
97 312
