72 100
62 124
87 126
112 127
137 120
161 110
164 135
164 160
162 188
166 213
170 238
174 263
196 275
219 264
187 145
193 110
204 87
229 89
239 112
264 111
273 70
298 74
320 87
312 50
290 38
265 43
249 63
239 40
218 26
193 20
168 20
145 30
124 44
106 62
87 79
