75 95
64 118
88 125
113 128
137 120
161 111
162 136
162 161
162 186
164 211
168 236
172 261
193 275
216 264
186 151
193 114
201 90
222 76
230 100
250 115
271 100
271 70
296 74
317 88
311 53
291 38
266 40
241 46
223 28
199 20
174 20
150 28
128 40
109 57
91 75
