100 64
86 86
124 71
136 93
151 113
174 103
179 78
196 115
200 140
206 165
210 190
206 226
203 251
172 266
196 275
221 275
231 240
235 208
237 173
237 148
239 116
262 126
287 131
312 129
308 104
295 82
279 62
262 43
242 28
218 20
193 22
171 35
156 55
137 38
112 42
