78 68
62 88
103 72
124 90
138 111
163 106
173 78
197 87
208 110
212 135
218 160
224 185
221 219
216 244
182 266
206 273
233 108
257 115
280 125
305 126
330 129
329 103
315 82
297 64
278 47
258 32
235 22
210 20
185 26
163 39
149 71
139 48
115 40
90 46
