94 100
86 124
111 129
136 127
158 115
164 140
164 165
164 190
166 215
170 240
172 265
195 275
218 264
195 230
191 205
191 180
197 154
203 126
209 94
230 108
255 112
263 68
287 77
307 93
283 40
258 40
233 39
213 24
188 20
163 26
142 40
125 59
108 78
