122 128
147 133
167 118
180 140
204 147
229 143
248 160
267 177
292 181
309 162
326 143
349 133
368 115
370 85
350 70
326 61
302 54
293 30
268 26
246 38
227 55
203 47
184 64
168 84
147 70
122 64
126 89
