98 117
84 96
106 82
129 71
153 62
178 56
192 34
214 22
237 32
260 43
280 58
303 48
326 59
343 78
368 80
390 68
415 64
409 94
411 119
391 139
368 128
344 119
334 151
309 151
284 145
259 147
234 149
226 186
201 187
183 169
166 150
142 141
118 133
