88 132
113 136
135 124
160 130
177 149
202 145
227 143
252 145
262 168
286 177
311 172
323 148
348 141
372 133
394 119
401 84
378 73
354 64
330 56
312 38
291 24
266 28
244 40
224 56
201 46
178 56
160 74
135 78
113 66
88 64
94 89
