94 132
119 136
141 124
164 134
184 149
208 141
233 143
258 145
258 170
283 175
308 175
319 152
343 142
367 133
388 119
389 82
367 70
343 62
319 54
304 34
280 27
256 34
233 48
208 49
183 53
166 72
141 78
119 66
94 66
100 91
