58 51
52 26
77 24
102 20
127 20
152 25
184 81
165 64
145 49
138 73
131 98
131 123
131 148
133 173
141 197
141 222
141 247
141 272
141 297
141 322
138 365
113 365
90 354
92 316
94 288
94 263
94 238
94 213
94 188
104 145
104 120
102 95
94 71
89 46
