76 50
68 76
93 81
108 101
110 126
106 172
100 200
100 225
100 250
100 275
100 300
100 325
98 356
122 365
147 359
145 334
145 309
145 284
145 259
145 234
145 209
143 184
135 160
135 135
135 110
139 82
145 54
164 21
139 20
114 20
90 28
