98 28
102 53
104 78
108 103
108 128
108 153
98 182
98 207
98 232
98 257
98 282
98 307
96 350
116 365
141 365
139 340
139 315
139 290
139 265
139 240
139 215
139 190
129 167
130 89
141 64
139 39
122 20
