66 51
56 28
81 24
106 20
131 20
154 30
171 49
182 81
158 73
141 54
133 82
129 110
129 135
129 160
137 184
139 209
139 234
139 259
139 284
139 309
139 334
137 365
112 365
90 352
92 312
92 287
92 262
92 237
92 212
94 184
102 151
102 126
102 101
96 76
91 51
