62 54
99 48
102 73
110 97
110 122
110 147
100 186
98 224
98 249
98 274
98 299
98 324
94 362
119 365
144 365
149 340
147 315
147 290
147 265
147 240
147 215
145 190
137 166
135 141
135 116
137 90
145 58
167 45
174 20
149 22
124 20
99 20
78 34
