62 52
52 76
97 51
102 76
108 101
108 126
106 168
98 194
98 219
98 244
98 269
98 294
97 335
94 360
119 365
144 365
147 332
145 307
145 282
145 257
145 232
145 207
142 182
135 158
135 133
135 108
139 82
146 57
171 51
176 20
151 24
126 20
101 20
79 33
