86 42
78 70
101 81
110 105
110 148
102 186
102 211
102 236
102 261
102 286
102 311
100 352
122 365
147 360
145 334
145 309
145 284
145 259
145 234
145 209
143 184
135 160
135 135
135 110
139 82
145 52
151 20
126 20
101 21
