112 157
112 132
118 104
130 82
155 79
180 82
205 77
223 59
236 36
256 20
276 37
283 61
279 89
255 96
255 121
250 149
245 174
241 259
226 239
226 214
224 189
213 166
199 258
198 233
196 208
185 166
175 194
172 259
158 238
157 213
157 154
145 176
135 200
116 255
116 230
116 182
