40 152
46 177
66 193
71 152
73 126
86 172
78 236
88 259
113 252
103 229
103 204
117 182
133 160
158 159
183 161
208 159
224 179
226 204
228 229
234 254
258 247
249 214
251 172
262 149
274 127
285 104
299 82
324 83
349 89
354 64
338 44
330 20
305 26
281 35
261 51
240 66
216 76
191 82
166 82
141 80
116 78
92 86
67 81
50 100
40 126
