102 161
102 136
107 111
117 87
142 82
167 78
192 82
214 68
232 50
250 32
275 26
291 46
290 89
265 84
261 110
257 140
249 168
243 259
218 259
204 238
202 213
198 188
177 174
167 198
170 259
150 243
150 218
140 181
129 204
112 259
110 234
109 185
