42 150
48 175
66 193
72 163
75 122
78 215
78 240
95 259
107 233
105 208
117 186
132 165
156 158
181 161
206 161
222 181
224 206
226 231
231 256
256 259
251 229
249 204
253 160
269 138
279 114
291 90
315 83
340 88
345 54
331 33
307 26
283 34
263 49
242 64
218 74
193 81
168 82
143 80
118 78
94 87
70 80
52 98
42 124
