92 46
82 70
99 89
123 81
132 105
136 130
145 154
148 179
150 228
142 252
166 259
189 248
193 200
197 166
222 161
240 179
251 202
250 228
240 254
265 256
267 178
282 198
284 223
290 259
306 189
316 145
313 112
303 89
279 82
254 78
229 82
204 80
180 71
160 56
145 36
122 25
97 21
