64 339
62 314
67 289
89 276
114 276
139 278
129 247
106 237
88 219
86 194
104 176
129 172
154 168
175 154
164 129
162 104
179 85
180 42
198 24
223 22
245 34
270 30
293 20
317 28
319 64
325 89
319 130
309 154
327 172
339 194
327 232
311 252
313 277
309 302
307 336
297 362
273 371
248 371
223 371
198 365
173 363
148 363
124 371
99 369
75 362
