44 320
46 345
62 365
87 371
112 371
136 363
161 367
186 369
211 371
236 371
261 367
286 371
311 371
334 361
341 327
336 302
322 281
297 275
283 254
309 253
332 241
351 224
351 185
330 171
309 157
285 150
295 118
297 86
308 63
305 34
283 22
258 24
235 34
210 32
185 32
162 22
137 23
116 38
120 63
126 94
126 119
123 154
99 162
76 172
52 180
40 202
49 226
70 240
93 251
118 256
98 276
73 276
52 290
