100 190
149 195
197 195
184 218
159 218
125 218
100 220
175 248
147 248
119 248
94 250
106 272
133 269
161 269
189 269
214 269
239 269
270 269
298 269
284 248
256 248
239 229
262 218
239 204
263 186
239 179
239 154
257 130
257 105
257 80
259 43
248 20
223 20
198 20
173 20
148 22
148 47
148 72
148 97
148 122
148 147
173 153
198 154
173 186
125 186
