94 188
118 195
166 195
176 218
149 218
94 220
125 227
195 248
167 248
139 248
111 248
86 252
100 273
125 269
153 269
181 269
209 269
234 272
259 269
287 269
301 248
273 248
243 229
266 218
243 204
267 186
243 179
243 154
268 149
269 122
269 97
269 72
269 47
267 22
242 20
217 20
192 20
167 20
142 22
142 47
142 72
142 97
142 122
142 147
167 153
192 153
190 186
142 186
