95 269
78 250
109 248
136 227
112 218
158 207
136 195
112 188
158 177
151 153
126 147
126 122
126 97
126 72
126 47
126 22
151 20
176 20
201 20
226 20
251 20
269 38
269 63
269 88
269 113
257 153
232 153
207 154
207 179
231 186
279 186
303 195
255 195
207 204
230 218
265 218
290 218
315 220
207 229
224 248
252 248
280 248
308 248
322 269
294 269
266 269
238 269
205 269
180 269
155 273
123 269
