94 188
118 195
166 195
176 218
149 218
94 218
125 227
195 248
167 248
139 248
111 248
86 252
100 273
125 269
153 269
181 269
209 269
234 272
259 269
287 269
301 248
273 248
243 229
266 218
243 204
267 186
243 179
243 154
267 147
267 122
267 97
267 72
267 47
265 22
240 20
215 20
190 20
165 20
140 22
140 47
140 72
140 97
140 122
140 147
165 153
190 153
190 186
142 186
