60 273
50 250
75 248
103 248
131 248
159 248
117 227
62 220
87 218
141 218
169 218
159 195
111 195
62 190
87 186
135 186
182 176
171 153
146 153
121 153
96 147
96 122
96 97
96 72
96 47
96 22
121 20
146 20
171 20
196 20
221 20
246 20
271 20
296 20
307 43
307 68
307 93
307 118
289 153
264 153
239 154
239 179
263 186
311 186
287 195
239 204
262 218
315 218
291 227
239 229
277 248
305 248
333 248
347 269
319 269
291 269
263 269
223 269
198 269
173 269
145 269
117 269
89 269
