86 188
110 195
158 195
193 217
168 218
141 218
86 220
117 227
187 248
159 248
131 248
103 248
78 250
90 272
117 269
145 269
173 269
201 269
226 269
251 272
276 269
304 269
318 248
290 248
260 248
243 229
266 218
243 204
267 186
243 179
243 154
268 153
275 110
275 85
275 60
275 35
255 20
230 20
205 20
180 20
155 20
130 24
130 49
130 74
130 99
130 124
130 149
155 153
180 153
182 186
134 186
