62 273
48 252
73 248
102 248
130 248
158 248
144 227
88 227
64 218
112 218
168 218
136 195
88 195
64 188
112 186
160 186
157 153
132 153
107 153
82 149
82 124
82 99
82 74
82 49
82 24
107 20
132 20
157 20
182 20
207 20
232 20
257 20
282 20
307 20
321 41
321 66
321 91
321 116
308 153
283 153
258 153
233 154
233 179
257 186
305 186
329 194
281 195
233 204
256 218
314 218
290 227
233 229
276 248
304 248
332 248
343 271
318 269
290 269
262 269
222 269
197 269
172 269
144 269
116 269
87 269
