74 273
64 250
89 248
117 248
142 248
96 218
130 218
155 218
120 195
96 188
144 186
158 154
133 153
108 149
108 124
108 99
108 74
108 49
108 24
133 20
158 20
183 20
208 20
233 20
258 20
283 22
283 47
283 72
283 97
283 122
261 153
236 153
211 154
211 179
235 186
283 186
307 195
259 195
211 204
234 218
269 218
294 218
319 218
211 229
228 248
256 248
284 248
312 248
323 273
298 269
270 269
242 269
206 269
181 269
156 269
128 272
103 269
