80 188
104 195
152 195
187 218
162 218
133 218
80 220
109 227
179 248
151 248
123 248
95 248
70 252
84 273
109 269
137 269
165 269
193 269
218 269
243 269
274 269
302 269
316 248
288 248
260 248
243 229
297 220
266 218
243 204
291 195
267 186
243 179
243 154
268 153
283 132
285 93
285 68
285 43
274 20
249 20
224 20
199 20
174 20
149 20
124 22
124 47
124 72
124 97
124 122
124 147
149 153
174 153
176 186
128 186
