65 269
48 250
79 248
107 248
135 248
163 248
149 227
93 227
68 218
117 218
140 195
92 195
68 188
116 186
164 186
155 153
130 153
105 153
80 149
80 124
80 99
80 74
80 49
80 24
105 20
130 20
155 20
180 20
205 20
230 20
255 20
280 20
305 20
319 41
319 66
319 91
319 116
300 153
275 153
250 153
225 154
225 179
249 186
297 186
321 195
273 195
225 204
248 218
298 218
330 227
274 227
225 229
260 248
288 248
316 248
327 272
302 269
274 269
246 269
202 269
177 269
149 269
121 269
93 269
