58 245
58 220
60 188
62 160
64 128
68 84
72 58
90 40
112 28
135 38
160 38
185 38
210 32
230 47
241 70
247 95
249 120
245 150
239 176
229 202
229 227
246 246
271 246
294 257
270 291
256 313
242 335
232 359
225 384
235 407
250 441
225 447
200 447
175 447
150 445
128 432
140 398
128 376
120 352
113 328
96 309
77 292
64 270
