88 268
72 248
100 246
112 222
112 197
104 173
98 148
96 123
96 98
102 70
114 48
135 33
159 40
184 40
209 40
232 30
256 39
273 58
280 82
283 107
279 148
279 173
281 198
280 247
272 283
255 302
237 320
230 347
223 372
213 398
220 422
210 445
185 447
160 447
135 445
116 428
133 409
140 382
134 357
124 334
110 313
96 292
