42 264
48 289
64 309
81 328
92 351
94 394
78 414
60 432
82 445
107 447
132 449
157 449
182 447
207 447
230 430
217 408
234 389
249 368
261 344
276 323
297 308
316 291
328 269
333 231
333 206
331 181
331 156
329 131
329 106
327 81
321 56
299 44
274 41
249 40
226 29
206 44
198 70
193 97
190 122
190 147
190 172
192 197
199 221
185 246
160 246
135 246
110 246
85 246
60 246
22 248
