71 262
50 248
91 246
116 246
136 227
134 202
124 179
118 154
116 129
116 104
120 78
130 54
147 35
171 28
194 38
219 38
242 28
266 37
287 51
295 75
297 100
299 125
301 150
301 175
303 200
303 246
297 276
281 298
260 313
245 334
238 359
227 382
213 406
218 443
193 447
168 447
143 447
118 445
96 432
113 413
124 375
118 350
106 328
91 308
79 286
