50 243
50 218
52 188
54 158
56 126
60 82
65 57
85 41
107 28
130 38
155 38
180 34
205 34
223 52
233 75
237 100
239 125
236 155
229 180
219 206
219 231
239 246
264 246
287 258
277 282
264 307
249 328
237 350
229 376
235 401
247 444
222 447
197 449
172 447
147 445
128 428
135 394
122 372
114 348
105 324
86 307
66 291
56 268
