37.75076 279.84802
101.76292 273.28267
101.76292 284.77204
151.00304 288.05471
150.18237 270.82067
210.91185 264.25532
209.27052 292.97872
235.53191 295.44073
259.33131 297.90274
248.66261 261.79331
267.53799 260.15198
282.31003 237.99392
276.56535 215.83587
273.28267 202.70517
265.07599 168.23708
253.58663 114.07295
241.27660 60.72948
230.60790 12.31003
248.66261 54.98480
270.00000 109.14894
290.51672 157.56839
300.36474 180.54711
306.93009 198.60182
318.41945 225.68389
335.65350 237.99392
357.81155 225.68389
374.22492 216.65653
402.94833 198.60182
421.82371 187.93313
460.39514 163.31307
488.29787 146.07903
541.64134 113.25228
496.50456 155.10638
458.75380 186.29179
429.20973 212.55319
418.54103 220.75988
377.50760 256.86930
361.91489 269.17933
366.83891 291.33739
385.71429 306.93009
399.66565 320.06079
424.28571 341.39818
465.31915 376.68693
494.86322 402.12766
542.46201 442.34043
488.29787 410.33435
432.49240 377.50760
378.32827 343.86018
364.37690 334.83283
339.75684 320.88146
320.88146 323.34347
308.57143 355.34954
304.46809 367.65957
288.87538 402.12766
256.04863 482.55319
232.24924 530.97264
244.55927 480.91185
266.71733 382.43161
276.56535 339.75684
282.31003 319.24012
281.48936 300.36474
