46 245
61 265
86 265
111 265
136 270
161 275
184 285
199 305
194 372
204 395
214 418
224 441
239 461
254 481
262 505
282 520
299 539
309 562
304 597
314 620
337 630
342 655
350 590
373 580
393 565
418 560
443 555
468 555
493 555
518 555
543 555
568 555
593 555
618 560
643 560
668 555
693 555
718 550
735 529
712 519
687 519
662 519
639 509
614 509
591 499
566 494
541 489
521 474
503 456
491 434
471 419
456 399
436 384
418 366
400 348
380 333
362 315
340 303
340 278
340 253
340 228
335 203
327 179
309 161
290 144
265 144
240 144
215 140
213 115
189 107
174 132
164 157
154 192
144 217
121 229
96 234
71 239
