32 54
38 80
63 85
74 108
69 137
64 162
59 187
59 212
59 237
64 262
74 285
89 305
106 324
124 342
144 357
166 370
189 380
210 406
188 419
208 435
237 445
230 421
235 395
258 385
283 390
306 380
328 368
350 355
373 345
398 340
423 345
446 355
471 360
494 370
519 372
541 360
553 315
530 304
526 279
506 264
481 264
456 264
431 259
406 259
381 254
359 241
335 232
313 220
289 211
265 202
243 190
219 182
201 164
183 146
168 126
160 102
160 77
150 54
139 31
117 19
92 19
67 19
47 34
