29 72
44 52
59 32
81 19
101 34
120 51
134 72
135 97
140 122
152 144
170 162
190 177
212 189
232 204
254 216
276 229
298 241
320 254
340 269
363 279
385 292
409 299
434 302
459 297
484 297
508 289
533 284
555 296
550 335
532 359
509 370
484 375
459 380
434 385
409 387
391 405
368 415
347 429
329 447
309 462
290 480
267 490
252 510
219 512
224 467
202 480
183 499
159 492
177 474
194 450
189 425
169 410
149 395
133 375
118 355
106 333
94 311
81 289
66 269
54 127
38 105
