46 175
24 187
66 190
90 197
108 215
131 225
151 240
172 254
187 274
199 296
211 318
229 336
247 354
267 369
289 381
304 401
294 442
274 457
262 484
244 502
221 515
201 530
181 545
159 557
139 572
119 587
276 505
295 485
310 465
330 450
354 442
365 410
390 407
414 415
439 420
464 425
487 435
502 455
517 475
535 493
550 513
569 530
586 549
599 571
617 589
632 609
650 627
668 645
693 650
715 635
740 630
748 585
733 565
715 547
700 527
682 509
664 491
645 474
628 455
613 435
593 420
575 402
557 384
542 364
527 344
510 325
505 300
549 237
531 255
509 269
485 277
470 257
452 239
432 224
412 209
394 191
374 176
354 161
330 152
305 149
280 149
255 152
231 144
211 129
188 119
163 119
139 127
117 139
95 151
75 166
