84 527
79 502
94 482
114 467
138 474
161 484
174 462
179 432
189 407
194 382
204 352
209 327
219 287
234 267
252 249
272 234
292 219
310 201
330 186
349 169
371 155
389 115
379 92
374 67
389 47
407 29
432 24
457 24
475 42
485 65
510 69
533 80
545 102
548 143
533 163
510 175
487 165
462 164
437 169
417 184
397 199
379 217
361 235
341 250
321 265
301 280
283 298
270 320
260 350
250 375
240 415
230 440
220 465
210 505
215 530
220 555
213 583
194 600
170 607
146 599
127 550
102 545
