29 482
24 457
44 442
64 427
89 431
113 440
138 444
150 421
169 402
187 384
205 366
220 346
239 322
259 307
274 287
289 267
307 249
325 231
344 207
362 189
379 167
386 124
386 80
404 62
428 54
453 54
478 54
495 73
509 94
534 94
559 99
575 119
583 153
563 168
543 185
518 180
493 175
468 170
447 184
429 202
410 220
390 240
372 259
354 277
339 297
320 315
302 334
284 352
269 372
250 390
232 409
214 427
199 447
180 465
180 490
190 513
171 535
148 545
123 545
98 540
72 500
47 500
