274 87
274 62
289 42
311 30
336 24
360 32
365 57
373 81
375 106
380 131
390 154
390 179
400 202
400 227
415 247
427 269
442 289
455 311
462 335
474 357
480 382
480 407
485 432
490 457
495 482
495 507
500 532
505 557
510 582
510 607
515 632
515 657
509 697
491 715
471 730
451 745
429 757
407 769
382 770
357 770
334 760
319 740
314 715
314 690
314 665
309 640
299 617
299 592
294 567
289 542
284 517
279 492
279 467
279 442
279 417
279 392
279 367
289 337
289 312
289 287
289 262
284 237
284 212
279 187
279 162
274 137
274 112
