39 177
39 152
49 127
71 115
84 92
99 72
109 47
127 29
152 24
177 29
190 51
190 76
180 100
182 125
190 149
200 172
215 192
237 204
262 209
284 197
302 179
309 142
294 122
304 97
319 77
341 65
366 59
391 64
406 84
431 85
451 70
476 65
501 64
520 81
530 105
535 130
525 165
500 165
505 190
522 209
537 229
550 251
560 274
565 299
570 335
568 373
560 402
555 447
533 435
544 382
540 320
530 355
520 400
510 425
510 465
510 490
510 515
507 554
487 570
462 574
437 570
437 534
444 498
439 473
429 450
419 427
414 402
390 395
365 395
340 395
315 400
305 430
305 455
300 490
300 520
300 565
278 590
254 582
249 547
259 520
254 495
254 470
249 445
226 435
201 430
181 414
166 394
154 372
136 354
129 330
124 305
114 282
109 257
109 232
107 189
84 200
61 190
