29 192
24 167
34 142
58 134
78 119
103 114
128 114
153 114
173 99
198 104
216 85
241 84
264 94
274 57
274 32
298 24
323 24
348 29
373 29
398 34
423 30
445 42
455 65
457 90
477 105
502 109
527 109
552 109
577 114
585 138
570 165
561 190
543 208
520 220
522 249
508 270
484 277
465 260
440 265
415 267
390 265
365 265
340 270
329 300
304 300
279 295
259 279
252 255
230 267
205 265
180 265
155 265
130 267
105 270
84 290
60 283
42 265
39 240
39 215
