39 82
51 120
73 108
87 129
94 153
89 187
74 207
64 247
74 270
95 255
100 215
115 195
139 187
164 185
189 185
199 227
209 250
230 235
235 205
260 200
284 250
306 263
330 270
355 270
374 252
380 225
405 225
430 225
455 225
480 227
494 248
507 270
527 285
550 295
575 300
598 288
607 264
620 230
618 201
600 183
590 160
583 119
558 114
543 94
528 74
504 82
484 109
461 120
439 132
430 156
405 154
405 129
400 104
390 81
380 58
372 34
354 52
347 99
329 142
314 162
290 169
270 154
265 129
242 119
217 114
192 114
167 114
142 109
122 94
104 76
82 64
57 64
