46 85
34 107
56 120
79 110
90 133
109 150
109 175
99 222
99 247
123 213
135 190
155 175
180 175
205 177
214 201
219 226
227 250
250 240
250 215
250 190
275 190
289 211
289 236
306 255
326 270
351 275
376 270
388 248
395 219
392 194
385 170
410 175
424 196
431 220
451 235
476 230
497 244
505 268
529 275
551 288
576 290
600 275
619 257
625 214
622 189
605 170
605 140
603 115
578 109
554 101
535 84
524 61
499 57
487 79
471 99
449 112
429 134
405 125
400 100
400 67
390 44
367 34
349 82
327 94
309 112
295 146
270 144
265 119
242 109
217 109
192 104
167 104
142 99
122 84
107 64
83 55
59 62
