44 72
53 100
77 109
89 131
86 165
74 187
79 212
99 227
114 247
138 238
130 200
130 175
153 165
178 160
203 160
224 174
219 207
219 232
244 227
250 180
275 180
284 204
291 228
311 243
333 255
358 253
373 233
383 210
408 210
433 210
458 210
483 210
503 225
521 243
543 255
568 260
593 255
613 238
620 205
622 170
604 152
585 135
585 110
575 87
550 84
525 83
516 59
493 49
457 79
439 97
427 129
402 130
397 105
380 86
380 61
374 36
349 37
347 69
322 74
304 92
309 117
288 154
265 144
250 124
246 99
221 94
196 94
171 94
146 89
126 74
108 56
84 49
59 52
