54 272
54 247
79 251
101 264
126 269
151 264
175 256
190 236
209 219
220 242
220 267
220 292
239 309
264 309
287 299
307 284
332 279
357 279
382 274
407 274
432 279
457 279
482 279
507 274
525 256
544 237
562 219
577 199
592 179
607 159
616 135
624 109
617 85
605 63
587 45
569 27
630 62
642 84
650 108
640 155
630 180
616 205
601 225
589 247
574 267
559 287
540 305
540 330
545 355
555 378
555 403
560 428
565 453
570 478
575 503
580 528
595 548
605 571
610 596
615 621
618 646
616 680
591 680
569 667
584 647
584 622
580 597
565 577
550 557
530 542
495 515
505 538
505 580
495 610
486 640
468 658
443 665
434 637
458 629
469 605
469 580
464 555
445 538
427 520
412 500
400 478
382 460
357 464
342 484
333 508
320 530
307 554
298 578
285 600
273 628
260 650
239 665
215 657
259 584
269 511
255 490
250 535
250 560
240 605
223 633
193 645
187 619
211 610
214 569
214 544
211 519
204 495
194 472
172 460
150 448
139 425
124 405
108 385
94 364
84 341
74 318
64 295
