24 292
24 267
39 247
39 222
64 224
89 229
114 232
139 236
164 239
189 234
214 234
239 234
264 234
289 229
314 224
339 224
364 226
388 234
413 235
437 244
459 256
479 271
501 284
524 294
549 299
574 299
599 299
624 294
649 294
673 301
693 316
709 336
684 340
660 332
635 330
610 335
585 335
560 340
535 345
510 340
510 365
515 390
523 433
518 458
505 480
483 495
477 469
489 445
469 430
446 420
421 415
397 424
377 439
359 457
337 469
314 480
289 485
279 462
303 454
325 441
313 410
288 410
263 410
240 420
257 439
249 477
234 457
210 450
195 475
180 495
159 510
129 502
149 487
164 457
168 410
153 390
135 372
117 354
97 339
72 335
47 335
29 317
