24 287
24 262
29 232
44 210
34 187
59 186
84 189
109 189
132 199
154 211
176 224
200 232
225 226
250 224
275 219
300 214
325 209
350 209
375 209
400 209
425 209
450 212
474 221
496 234
521 239
546 244
571 249
595 257
617 269
637 284
659 296
683 304
708 309
709 345
684 340
659 335
634 330
614 315
591 304
569 292
545 285
520 290
510 325
510 350
510 375
515 400
525 423
534 447
532 474
523 498
510 520
489 540
464 537
489 496
475 475
464 502
445 520
421 530
417 499
434 472
437 435
419 417
399 402
375 395
350 400
325 405
300 405
280 420
270 455
265 490
260 515
250 545
228 564
204 557
216 535
228 499
215 470
205 510
191 535
166 539
154 517
174 492
179 462
179 425
179 400
160 383
145 363
130 343
112 325
96 305
71 305
46 300
