67 305
49 287
71 275
94 262
114 247
134 220
111 209
99 187
94 162
94 137
89 112
114 114
139 109
164 102
189 99
211 85
236 79
261 79
286 75
311 69
335 61
359 54
384 49
409 49
434 49
458 56
482 64
505 74
530 71
550 86
533 110
510 120
505 145
495 180
495 205
500 250
490 275
474 297
450 305
429 291
448 274
464 253
457 229
440 210
432 249
417 269
397 285
372 290
354 272
376 259
395 227
380 207
355 205
330 210
305 210
285 225
275 265
260 295
245 315
221 325
199 312
221 299
234 277
234 252
221 230
196 230
176 245
158 263
135 275
115 290
92 300
