162 375
144 357
166 345
186 330
201 310
199 277
194 252
199 227
209 202
214 172
214 147
201 113
179 100
169 77
191 64
214 32
238 25
262 34
285 44
295 70
312 89
320 113
338 131
360 143
380 158
395 178
415 193
433 211
453 226
471 244
491 259
513 271
535 283
557 295
577 310
595 328
607 350
604 387
589 407
570 425
555 445
540 465
525 485
514 512
499 532
484 552
464 567
449 587
426 599
426 574
442 554
454 532
459 492
440 510
419 525
396 535
375 550
351 560
351 534
374 522
394 507
410 473
404 448
389 428
378 405
356 393
338 375
323 355
303 340
283 325
259 332
241 350
226 370
214 392
196 410
174 397
209 340
185 365
