24 287
24 262
36 240
56 225
66 199
54 177
39 157
34 132
44 107
64 92
86 80
111 79
136 84
160 92
178 110
185 134
185 159
185 184
175 215
185 238
195 261
195 305
205 328
210 353
220 376
225 401
220 440
210 465
195 490
190 535
185 560
175 595
182 619
205 629
207 664
184 675
159 675
134 675
109 672
89 657
84 632
79 592
84 524
82 499
64 481
51 459
39 437
34 392
29 367
29 312
