24 282
24 257
39 237
57 219
61 184
44 165
34 142
34 117
49 97
71 84
94 74
119 76
143 84
166 94
180 115
180 155
175 200
180 225
190 248
195 273
195 298
204 322
210 347
220 370
230 393
223 438
210 460
195 485
195 510
185 540
180 565
170 595
180 618
200 633
219 657
195 665
171 675
146 675
121 673
97 665
84 620
84 595
74 572
74 547
84 522
79 497
64 477
52 455
49 430
44 405
44 380
34 357
29 332
29 307
