29 112
34 137
46 159
61 179
54 212
36 230
24 252
29 277
39 300
44 325
49 350
39 387
44 412
49 437
54 462
72 480
74 522
64 552
69 577
69 622
74 647
98 655
123 660
148 660
173 660
198 653
195 619
172 609
155 590
165 545
170 520
180 475
199 457
218 440
240 425
245 400
235 369
220 349
212 325
200 303
195 278
190 253
185 228
175 205
170 180
180 147
180 122
175 97
157 79
134 69
109 64
84 62
61 75
41 90
