29 277
39 212
49 187
67 169
79 147
99 132
117 114
142 109
167 104
192 104
217 99
231 75
219 53
211 29
236 29
255 46
255 82
279 89
302 79
320 97
342 109
367 109
369 137
345 145
362 164
387 164
412 164
437 164
462 164
487 159
512 154
537 154
557 170
533 180
509 187
487 199
467 214
443 223
418 225
390 235
411 249
415 274
390 295
365 295
340 300
315 305
290 310
265 315
256 345
231 350
206 350
181 350
156 355
131 360
88 365
64 357
108 349
121 305
96 305
71 305
49 292
