39 302
39 327
51 349
75 357
99 365
124 365
122 409
99 419
53 419
76 430
142 424
167 419
191 410
216 405
241 405
265 395
280 375
305 370
330 370
355 365
380 360
405 355
430 350
450 325
435 305
415 285
438 275
460 255
483 243
506 233
529 222
553 215
561 189
536 184
511 189
486 194
461 194
436 194
411 194
386 194
365 180
395 149
379 129
354 124
329 124
304 119
279 114
265 93
255 70
275 50
261 29
238 40
213 44
189 52
207 70
224 97
237 129
212 129
187 129
162 129
137 129
121 149
101 165
81 180
69 202
59 232
49 267
