24 172
29 197
47 215
72 215
92 230
117 235
142 229
160 200
185 200
210 200
235 202
260 205
285 205
310 205
335 205
360 205
385 205
410 210
434 202
458 210
478 225
503 225
523 208
535 185
558 173
555 147
545 124
530 104
505 99
505 74
505 49
498 25
473 19
448 15
423 19
398 15
373 19
348 15
323 19
298 19
273 24
248 24
222 79
197 74
172 74
147 74
122 74
97 79
79 97
56 120
32 129
