29 197
24 172
39 152
59 137
83 129
108 135
132 144
154 132
164 97
174 72
192 54
215 64
238 75
258 90
278 105
303 99
318 79
330 56
349 39
372 29
397 24
417 39
432 59
452 74
465 96
483 114
505 101
525 86
547 74
570 64
593 75
605 97
617 119
632 139
657 134
680 124
705 127
729 136
738 173
723 193
700 205
682 224
664 242
649 262
630 280
615 305
605 330
599 372
577 385
552 390
527 395
502 400
477 400
452 400
427 400
402 400
377 400
352 400
327 400
302 400
277 400
252 400
227 400
204 390
179 387
159 372
154 347
149 322
139 299
125 278
107 260
89 242
70 225
47 215
