119 297
114 322
119 347
129 370
140 393
152 415
167 435
176 459
189 481
194 506
202 530
209 554
214 579
214 604
221 628
229 652
239 675
250 698
269 745
294 745
319 745
344 745
369 745
394 745
419 745
444 745
458 723
470 700
490 685
500 660
510 635
520 610
535 575
545 535
545 510
550 480
555 437
555 412
555 387
550 362
531 345
511 360
499 382
494 407
494 442
480 483
470 460
470 435
465 410
460 385
460 360
460 335
455 310
455 285
460 241
460 216
459 191
447 169
427 154
409 172
404 202
404 227
404 252
404 277
399 309
399 334
385 374
377 350
375 325
380 292
375 267
375 242
375 217
375 192
370 167
360 144
337 134
319 152
319 177
319 222
319 277
319 317
310 358
300 335
295 310
295 285
300 260
295 235
300 199
289 176
264 177
249 197
244 227
244 252
244 277
244 302
244 327
249 352
254 377
252 409
231 424
213 406
195 388
183 366
170 344
159 321
144 301
