44 160
49 185
49 212
49 252
44 292
54 315
77 305
95 285
115 270
134 252
153 235
176 245
192 265
217 270
241 278
249 302
244 327
239 352
229 407
229 432
253 440
278 435
301 425
319 407
341 395
353 373
373 358
393 343
411 325
431 310
449 292
471 280
496 280
521 275
540 255
565 255
590 255
615 250
640 245
663 235
617 224
592 219
567 214
543 206
523 191
499 184
474 184
449 181
429 166
410 149
390 134
370 119
350 104
335 84
315 69
298 50
278 35
258 20
233 14
209 22
214 47
219 72
224 97
234 120
239 145
233 179
210 189
187 199
162 204
137 199
117 184
99 166
79 151
59 136
34 137
