19 277
19 252
44 249
69 251
94 254
109 232
124 212
144 197
154 160
144 137
144 112
156 90
176 74
201 74
225 82
230 107
230 145
237 169
262 164
284 152
308 144
333 139
358 139
383 144
408 145
432 154
455 164
475 179
494 196
509 216
520 239
543 249
568 249
593 254
615 266
615 291
595 310
570 307
545 310
555 333
547 359
527 375
502 380
479 390
456 400
432 409
407 414
382 415
357 415
332 410
317 390
292 395
268 403
245 415
222 425
204 407
226 394
230 365
207 354
183 345
159 337
134 335
114 320
94 305
69 310
44 305
19 302
