34 195
54 210
79 205
104 205
121 224
129 248
134 273
134 298
144 321
152 345
159 369
161 394
164 419
164 444
174 467
169 492
172 535
197 540
222 539
235 515
245 480
245 450
245 425
245 400
260 380
285 375
310 370
333 360
356 350
381 350
406 355
431 358
446 378
461 398
476 418
491 438
506 458
514 482
526 530
540 505
545 480
564 497
559 522
569 545
593 538
600 495
600 470
590 447
577 425
560 406
550 383
550 358
545 333
540 308
535 283
525 260
540 240
559 222
575 200
585 170
585 136
575 113
567 89
544 79
534 102
539 127
539 152
539 177
524 202
511 224
486 224
461 219
436 219
411 219
386 219
361 219
336 219
311 219
286 214
261 209
239 196
220 179
200 163
188 141
170 123
148 111
124 104
99 107
77 119
62 139
46 159
24 172
