59 180
82 190
107 195
132 199
144 221
159 241
164 266
169 291
181 313
193 335
208 355
214 380
217 405
219 430
222 455
209 492
189 507
211 520
231 505
245 480
250 445
255 420
241 528
266 530
281 510
285 485
295 460
290 435
290 410
295 370
320 365
345 360
369 352
394 350
411 369
434 380
457 390
459 415
459 440
439 457
461 470
483 458
485 430
487 405
485 380
511 413
509 447
502 475
527 475
540 452
540 427
540 402
540 377
522 359
515 335
505 312
500 287
482 269
464 251
445 234
420 229
395 224
370 224
347 214
322 209
298 201
274 194
251 184
236 164
221 144
203 126
195 102
183 80
168 60
144 52
138 95
109 77
114 102
94 134
71 145
49 157
