59 147
79 132
103 124
121 105
144 92
168 84
193 84
215 97
230 117
245 137
257 159
280 169
305 174
328 184
353 189
378 189
403 189
427 179
452 174
477 174
502 174
514 152
519 106
501 88
476 85
456 100
434 112
434 87
449 62
471 49
496 49
519 59
535 79
550 99
550 124
550 149
539 182
520 200
520 225
520 250
510 295
515 320
525 343
530 368
539 392
540 435
522 465
504 447
512 410
504 386
490 365
480 400
475 425
465 465
445 495
426 515
401 520
391 485
415 476
429 452
439 407
439 363
428 340
413 320
388 315
363 320
340 330
315 335
290 340
270 355
272 380
275 405
280 430
282 455
275 485
258 508
234 515
224 492
242 474
239 430
229 407
224 382
209 362
191 380
179 402
159 417
140 435
130 460
116 485
98 503
83 523
59 530
49 507
69 492
79 467
94 442
109 417
121 395
134 372
146 350
159 317
154 292
154 267
159 235
149 212
136 190
111 190
86 189
71 169
