109 287
104 262
119 242
134 222
149 202
164 177
184 162
206 149
231 144
249 112
249 87
267 69
287 54
312 59
327 79
330 125
347 144
372 144
394 156
414 171
429 191
444 211
459 231
470 254
485 274
478 305
458 290
440 272
425 252
407 234
390 215
365 210
355 240
350 265
340 310
335 340
345 363
355 386
365 409
378 431
393 451
405 473
417 495
427 519
407 534
392 514
374 496
361 474
346 454
331 434
319 412
299 397
279 412
264 432
249 452
230 470
215 490
200 510
182 529
162 545
144 527
154 502
169 477
181 455
196 435
209 412
224 387
239 357
249 327
244 302
239 277
230 253
224 228
206 210
184 222
169 242
151 260
131 275
