106 225
94 247
112 265
130 245
149 227
165 205
185 190
209 197
219 220
229 243
239 266
244 291
234 327
227 359
215 381
206 405
194 427
185 451
176 475
164 497
154 522
154 547
179 547
197 529
210 505
223 483
235 460
248 438
260 415
273 393
288 373
312 380
332 395
349 414
366 433
384 451
401 470
420 487
435 507
455 522
480 516
470 493
458 471
443 451
428 431
413 411
395 393
380 373
365 353
350 333
340 310
335 285
335 260
340 225
345 195
360 175
380 160
400 145
420 130
427 94
402 94
377 99
352 104
327 104
310 85
306 49
291 29
266 24
244 37
229 57
234 82
229 112
204 114
181 125
161 140
146 160
134 182
121 205
