111 255
123 284
140 265
160 250
179 232
197 214
221 223
229 247
239 270
244 295
249 320
244 347
234 372
221 395
209 417
194 437
181 460
169 482
154 502
144 527
144 552
169 550
188 533
203 513
218 493
233 473
248 453
263 433
278 413
300 400
314 421
326 443
339 465
354 485
364 508
377 530
397 545
415 522
405 499
397 475
388 451
375 429
365 406
355 383
350 358
340 335
340 310
350 265
355 240
360 205
384 197
406 185
430 175
455 170
479 162
503 155
528 148
552 139
535 119
510 124
485 129
460 134
435 139
410 144
385 144
360 149
335 145
330 120
322 74
304 56
279 57
261 75
249 97
254 122
236 144
211 145
189 157
169 172
156 195
141 215
126 235
