19 417
37 435
62 434
77 414
92 394
104 372
110 345
123 323
132 299
147 279
168 265
185 240
195 215
174 297
169 327
169 352
151 390
149 435
149 467
169 482
194 477
209 457
225 430
245 415
264 397
286 385
308 373
332 380
357 385
350 411
338 434
323 454
311 484
329 502
351 515
369 497
384 477
399 457
421 445
419 492
411 520
421 554
446 555
468 543
470 515
475 490
470 465
480 420
493 398
505 375
519 396
529 419
544 396
540 360
540 335
555 302
555 277
554 252
545 228
533 206
520 184
505 164
485 149
468 130
445 119
422 109
397 105
375 93
354 79
333 65
309 56
285 49
262 39
247 19
222 24
197 29
177 44
159 62
149 87
139 117
121 135
109 157
97 184
82 204
64 222
41 235
19 247
86 235
74 257
84 287
66 360
57 384
37 399
