19 227
24 202
36 135
49 157
50 190
45 216
55 239
80 239
90 216
94 182
106 160
141 70
161 55
184 44
209 49
234 52
258 44
280 31
304 22
328 15
353 19
378 20
402 29
422 44
444 56
462 74
480 92
490 115
504 136
512 160
520 184
520 209
551 288
536 268
518 250
495 240
485 275
490 300
495 325
494 372
472 384
447 385
429 367
444 331
435 307
410 310
408 353
388 370
363 370
364 327
364 302
345 280
340 310
340 335
340 360
340 385
317 410
292 410
289 352
279 302
260 285
250 315
240 340
230 370
208 390
183 385
177 359
194 332
199 267
209 223
192 204
167 209
144 220
127 239
112 259
97 279
72 275
49 265
29 250
