189 142
174 162
199 165
210 188
214 213
204 272
204 297
228 305
219 377
214 402
224 455
245 440
255 463
269 515
292 560
315 570
340 575
365 575
390 570
410 555
423 533
430 500
435 470
440 445
445 420
458 398
465 360
470 335
465 310
462 285
450 263
440 240
460 225
480 210
503 220
523 235
545 247
548 215
533 195
515 177
495 162
490 137
472 119
450 107
426 99
403 89
378 85
353 84
328 84
303 89
278 94
255 104
232 114
211 129
