169 187
172 225
195 235
218 223
216 250
204 272
204 325
214 387
199 407
181 425
169 447
174 472
186 494
201 514
225 505
239 526
251 548
269 566
289 581
313 590
337 599
362 595
387 590
410 580
430 565
445 545
458 523
460 485
470 450
480 405
485 366
485 341
480 316
470 293
455 273
445 250
479 265
496 284
514 302
536 315
561 315
580 297
568 275
550 257
535 237
515 222
495 207
475 192
465 169
455 146
442 124
424 106
404 91
382 79
357 74
332 79
307 84
285 96
267 114
249 132
234 152
210 159
187 169
