179 187
199 172
219 157
241 145
254 122
272 104
294 92
318 84
343 79
368 79
391 89
414 99
433 116
451 134
460 158
469 182
491 194
509 212
525 232
536 265
511 270
488 260
468 245
445 255
459 276
470 299
480 322
485 347
485 372
485 397
475 435
465 465
465 490
455 525
440 550
425 570
404 585
381 595
356 600
331 595
306 594
284 582
264 567
249 547
239 524
218 510
199 527
184 497
196 475
209 452
214 412
209 387
209 362
209 337
219 307
231 285
214 262
229 242
226 200
201 200
