34 407
39 372
61 360
84 347
106 335
131 329
154 319
179 314
202 304
227 304
252 299
277 294
302 294
327 289
344 262
369 261
380 284
395 304
419 311
443 319
466 329
489 339
514 332
539 336
555 356
577 369
595 387
619 394
642 384
665 374
688 364
712 354
735 344
758 334
740 370
720 395
700 410
707 434
720 456
734 477
744 502
719 501
697 489
676 475
653 465
633 450
608 450
583 450
558 450
533 455
510 465
485 465
460 470
435 475
410 475
406 500
384 512
369 532
347 545
329 527
314 507
295 490
272 480
247 479
222 475
197 470
172 465
147 459
123 450
100 440
75 435
52 425
