109 102
114 150
124 173
134 196
149 216
161 238
176 258
194 276
209 296
219 319
233 340
255 352
280 352
300 367
322 380
339 399
349 422
367 440
392 445
417 444
432 464
447 484
459 506
471 528
486 548
495 510
490 485
515 490
535 464
512 454
488 445
465 434
445 419
430 399
415 379
404 356
390 335
400 301
395 276
379 256
355 249
330 249
313 230
295 212
277 194
257 179
239 161
219 146
199 131
177 119
155 107
133 95
