24 57
24 32
49 34
70 48
90 63
110 78
128 96
148 111
165 130
182 149
200 167
218 185
233 205
254 219
277 229
297 244
310 266
310 305
320 328
335 348
350 368
365 388
383 406
405 419
425 434
453 450
430 460
405 455
389 477
374 457
362 435
347 415
332 395
309 385
286 374
266 359
254 337
241 315
221 299
201 284
184 265
159 267
144 247
134 224
119 204
104 184
87 165
72 145
59 123
44 103
34 80
