29 72
24 47
49 49
72 59
92 74
114 86
134 101
152 119
172 134
187 154
202 174
220 192
235 212
255 227
277 239
297 254
310 276
295 300
309 321
325 341
345 357
355 380
365 403
383 421
403 436
421 454
425 480
400 475
388 505
373 485
359 464
349 441
339 418
321 400
296 395
279 376
266 354
246 339
224 327
209 307
201 283
183 265
168 245
148 230
133 210
111 198
99 176
84 156
72 134
54 116
41 94
