114 135
124 158
137 180
149 202
161 224
174 246
174 271
181 295
205 302
227 315
247 330
269 342
274 367
286 389
307 375
327 390
349 402
371 415
392 429
412 444
432 459
434 484
441 508
449 532
461 554
475 520
470 495
483 473
508 470
533 465
540 439
515 439
490 434
465 439
443 426
430 404
419 381
407 359
395 337
390 312
412 299
372 294
355 275
338 256
320 238
305 218
287 200
269 182
255 161
241 140
217 149
197 134
174 124
153 110
128 104
104 112
