99 137
99 112
124 109
149 114
172 124
195 134
215 149
235 164
255 179
270 199
289 216
304 236
326 249
349 259
372 269
385 305
370 325
384 346
399 366
417 384
430 410
440 433
458 451
480 464
500 479
523 490
500 510
475 510
475 535
472 560
450 548
439 525
433 500
421 478
406 458
381 460
359 447
349 424
332 405
307 405
289 387
284 362
269 342
251 324
231 309
214 290
189 286
176 264
169 240
150 223
135 203
124 180
109 160
