24 182
24 157
29 132
47 114
72 119
95 129
118 139
143 134
161 115
179 97
201 84
224 74
247 64
269 52
293 44
316 34
341 29
366 24
391 24
416 24
441 24
465 32
489 39
514 44
535 58
559 66
581 79
603 91
623 106
645 119
668 129
685 148
682 179
662 194
644 212
625 230
603 243
581 255
558 265
537 279
512 284
488 293
464 300
441 310
416 315
392 324
367 325
344 315
319 310
295 302
271 293
249 280
226 270
203 260
181 248
161 233
137 225
112 225
89 235
64 237
42 250
24 232
24 207
