114 232
134 192
152 174
175 164
196 150
219 137
243 130
268 129
293 124
317 114
340 104
365 107
389 116
413 125
436 115
449 87
464 67
488 75
509 89
530 103
548 128
535 150
523 173
510 195
520 218
535 238
550 258
560 285
565 310
560 335
545 360
530 380
553 390
577 399
602 404
627 404
647 419
669 431
681 453
644 450
621 460
601 475
589 497
574 517
555 535
554 581
539 561
526 539
519 515
506 493
493 460
483 483
460 495
435 500
410 500
385 500
360 495
335 495
323 518
310 540
291 563
269 551
247 539
226 525
219 487
234 462
246 440
249 412
225 405
209 427
189 362
181 338
166 318
151 298
139 276
126 254
