39 442
64 460
57 484
61 514
86 518
110 510
135 510
158 500
180 485
205 480
230 475
255 470
275 455
295 440
315 425
335 405
354 387
359 412
359 437
364 462
386 475
411 475
436 470
456 455
474 437
492 419
505 395
510 370
497 334
472 329
447 329
410 325
430 310
453 300
470 280
485 260
505 240
515 195
530 170
545 150
558 128
570 100
555 80
553 44
530 54
507 44
482 49
464 67
444 87
424 107
409 127
399 152
384 172
364 197
352 219
330 231
312 249
289 239
264 242
264 267
254 302
234 317
211 335
189 347
166 364
141 370
121 385
99 397
81 415
59 427
