109 307
104 282
129 279
154 274
179 274
204 269
229 267
254 264
279 264
304 266
308 291
310 316
320 339
345 334
370 334
395 329
420 329
445 324
470 324
490 339
505 359
524 376
544 391
562 409
580 427
598 445
618 460
629 502
610 520
588 535
570 517
552 499
534 481
516 463
498 445
480 427
462 409
445 390
420 395
395 395
370 400
345 400
320 400
320 425
323 458
299 465
274 470
249 470
224 472
199 475
174 480
149 480
124 477
124 452
149 449
174 444
199 444
224 439
249 433
231 415
206 420
181 420
154 420
129 420
119 397
143 389
168 389
196 384
231 379
214 360
189 360
164 360
139 362
114 362
114 337
139 334
164 332
191 329
216 324
234 300
209 300
184 305
159 305
134 305
