34 287
24 317
36 339
59 350
81 363
105 372
129 380
154 380
179 385
204 385
229 385
254 385
279 385
304 385
329 385
354 385
379 380
404 375
428 368
450 355
475 350
498 338
516 320
510 279
487 269
463 260
440 249
420 234
417 209
392 209
367 204
342 199
318 190
295 180
290 155
290 130
290 105
313 95
338 89
322 69
297 69
280 50
278 25
254 32
241 69
216 70
194 82
212 100
236 108
244 132
244 157
219 174
195 181
171 189
146 195
124 207
112 229
89 239
66 249
46 265
