29 317
24 292
42 274
65 264
85 249
108 239
116 215
139 204
164 197
186 184
211 179
236 179
254 144
246 120
224 107
219 82
244 79
254 52
266 30
285 47
289 72
313 79
338 80
315 105
290 105
290 130
290 155
290 180
314 189
339 189
364 189
388 196
412 204
427 224
450 234
473 245
490 264
509 281
520 304
519 332
501 350
476 355
453 365
430 375
405 380
380 385
355 390
330 390
305 390
280 395
255 395
230 395
205 395
180 392
156 385
131 380
106 375
81 369
59 357
41 339
