34 340
24 317
36 295
49 267
71 255
94 244
117 234
137 219
160 209
184 202
208 194
233 189
253 174
254 133
246 109
224 97
204 82
242 79
259 57
254 32
278 24
289 47
301 69
326 69
340 100
315 105
290 110
295 135
305 158
319 179
344 184
369 189
394 194
417 204
437 219
445 243
469 251
491 264
513 276
520 300
511 340
488 350
463 355
439 362
417 375
393 383
369 390
346 400
322 409
297 410
272 405
247 400
222 399
197 395
172 390
149 380
124 375
99 370
74 365
49 360
