24 52
24 27
49 24
74 24
99 24
124 24
149 24
174 24
199 24
224 24
249 24
274 24
299 24
324 24
349 24
374 24
399 24
424 24
435 47
435 72
434 117
422 139
407 159
389 177
365 185
343 200
320 210
300 225
300 250
300 275
295 315
295 340
295 365
295 390
295 415
297 440
321 449
346 449
371 454
396 454
443 465
420 475
395 480
371 490
346 495
321 500
296 505
273 515
248 515
223 510
198 505
173 500
148 495
125 485
100 480
66 475
44 462
86 459
111 454
136 454
161 449
186 449
211 444
219 396
219 371
214 346
214 321
214 296
214 271
209 246
200 222
175 217
151 208
126 203
102 194
80 182
61 165
41 149
29 127
24 102
24 77
