24 52
24 27
49 24
74 24
99 24
124 24
149 24
174 24
199 24
224 24
249 24
274 24
299 24
324 24
349 24
374 24
399 24
410 47
410 72
410 97
400 125
388 148
368 163
345 175
323 188
300 200
280 215
280 240
280 265
280 290
280 315
280 340
280 365
280 390
280 415
301 429
324 439
349 449
383 464
403 480
359 472
329 465
304 465
279 460
254 455
229 455
204 460
179 465
154 467
129 470
63 474
86 464
109 454
139 447
163 439
186 429
209 400
209 375
204 350
204 325
204 300
199 275
199 250
199 225
179 210
155 202
131 193
106 189
84 177
64 162
44 147
29 127
24 102
24 77
