89 462
84 437
104 422
129 419
154 419
179 414
204 414
229 414
254 409
279 409
304 411
329 414
353 421
377 429
402 434
427 439
452 444
469 422
481 400
506 399
520 435
515 460
510 495
495 515
479 550
455 543
449 518
439 495
414 490
389 485
364 480
339 480
314 475
289 475
264 470
239 470
214 465
189 465
164 465
139 465
114 465
