179 177
174 152
192 134
217 139
237 154
252 174
270 192
288 210
305 229
320 249
339 266
355 286
372 305
387 325
402 345
420 363
438 381
456 399
474 417
498 409
499 362
524 366
540 386
540 411
540 436
529 462
511 480
489 492
465 500
450 520
427 530
409 512
404 487
426 475
425 433
407 415
392 395
374 377
356 359
339 340
320 323
302 305
284 287
266 269
249 250
230 233
215 213
197 195
