34 332
24 362
46 375
69 385
92 395
117 400
140 410
165 415
175 390
185 365
180 335
205 330
228 340
252 349
277 355
300 365
323 375
347 384
372 390
395 400
418 410
443 415
466 425
489 435
514 440
536 453
560 460
570 435
580 405
563 379
539 371
515 364
492 354
468 345
444 336
420 329
397 319
373 310
348 304
325 294
302 284
277 279
255 267
231 259
210 245
223 223
232 199
247 179
259 157
269 124
244 126
219 129
194 134
171 144
151 160
129 172
112 194
94 212
84 237
74 262
64 287
44 307
