71 419
59 397
84 394
109 399
134 404
159 404
176 385
191 365
206 345
219 302
200 285
176 299
164 277
183 260
164 242
144 227
124 212
122 179
145 169
170 169
189 147
193 179
217 169
237 184
262 184
277 164
295 146
315 131
339 124
364 124
389 124
410 138
434 127
452 109
470 91
489 72
511 59
515 90
505 115
487 134
469 152
450 170
465 190
447 219
429 237
414 257
395 275
451 249
452 274
437 294
419 312
400 330
405 355
428 345
410 380
434 387
452 369
415 420
420 445
408 473
384 481
369 461
354 441
339 421
317 409
295 422
280 402
268 380
244 387
224 402
204 417
185 435
190 460
190 485
195 510
174 531
161 509
146 489
124 477
99 482
111 449
91 434
