24 157
24 132
34 92
46 70
59 47
79 32
103 24
128 24
151 34
175 42
194 59
213 76
225 98
235 121
242 145
250 169
274 162
286 140
294 112
306 90
321 70
339 52
359 37
384 34
408 41
430 53
450 68
465 88
480 108
489 132
495 157
495 182
495 207
495 232
485 270
475 300
463 328
450 350
432 374
417 394
399 412
381 430
361 445
341 460
323 478
303 493
283 508
263 525
248 505
230 487
215 467
197 449
179 431
164 411
144 396
126 378
111 358
94 339
77 320
62 300
49 278
39 255
29 232
24 207
24 182
