24 142
24 117
34 87
49 67
61 45
81 30
106 24
131 24
156 24
179 34
202 44
222 59
240 77
252 99
264 121
275 144
285 167
303 149
315 126
327 104
339 82
357 64
375 46
397 34
422 34
447 34
469 46
491 59
513 71
528 91
540 113
545 138
550 163
550 188
545 215
536 250
524 272
509 292
487 305
464 295
441 285
418 275
395 285
400 310
410 333
415 358
398 390
375 400
355 415
333 430
312 444
289 455
274 435
254 420
234 405
215 388
195 373
175 358
155 343
135 328
117 310
97 295
82 275
62 260
49 238
39 215
29 192
24 167
