24 147
24 117
34 92
49 72
67 54
87 39
112 34
137 29
162 24
187 24
210 34
229 51
240 74
245 99
268 110
293 104
318 104
343 104
368 105
393 109
418 110
443 114
468 114
493 119
518 114
543 120
559 142
537 154
512 155
487 155
462 159
437 164
412 165
388 173
363 170
338 170
313 175
288 170
265 180
240 180
230 225
214 247
192 260
167 260
142 260
119 250
94 245
71 234
54 215
39 195
34 170
