24 77
44 37
69 32
94 34
119 32
143 24
168 29
193 24
218 24
240 36
245 61
250 86
274 94
299 94
322 104
347 104
372 99
397 99
422 94
447 94
472 94
497 94
522 94
547 99
560 121
549 162
525 170
500 170
475 170
450 170
425 175
400 175
375 175
350 180
325 175
305 190
280 190
260 205
255 245
234 265
209 265
184 265
159 265
134 265
109 265
84 260
59 260
39 245
24 102
