24 157
14 182
24 205
35 228
50 248
69 265
86 284
104 302
116 324
134 342
154 357
179 360
203 353
225 340
248 328
266 310
278 288
290 265
313 255
335 240
355 225
380 220
405 220
430 220
455 220
493 220
518 225
546 225
574 225
620 225
597 214
560 204
532 204
507 199
479 199
454 194
429 189
404 189
379 184
354 179
344 156
325 139
300 134
295 109
288 85
273 65
253 50
233 35
210 24
187 14
162 14
140 26
122 44
107 64
95 86
77 104
57 119
39 137
