34 177
19 202
34 222
49 242
67 260
85 278
104 295
119 315
134 335
151 354
166 374
189 385
214 380
235 365
255 345
275 330
294 312
306 290
315 265
330 245
353 235
373 220
396 210
421 210
446 210
471 210
496 210
521 210
546 205
586 205
609 194
566 189
530 184
505 184
480 184
455 184
430 184
405 179
380 174
358 161
334 154
317 135
310 111
294 91
275 74
258 55
238 40
220 22
196 14
174 27
155 46
137 64
122 84
104 102
85 121
67 139
52 159
