26 195
14 217
26 239
39 261
51 283
66 303
86 318
104 336
122 354
140 372
155 392
175 407
195 422
220 425
243 415
265 400
285 385
300 365
319 347
339 332
351 310
371 295
396 290
416 275
415 245
440 245
465 240
490 245
515 240
540 240
565 235
590 235
619 230
605 209
580 209
555 209
530 209
505 209
480 204
455 204
430 199
410 184
390 169
367 159
355 137
337 119
325 97
310 77
292 59
274 41
252 29
232 14
207 19
187 34
169 52
151 70
131 85
111 100
91 115
71 130
51 145
39 167
