34 217
36 244
56 259
74 277
89 297
107 315
127 330
145 348
160 368
179 385
190 408
209 425
233 418
251 400
266 380
284 362
300 340
315 315
320 290
320 265
340 250
363 238
388 235
413 235
438 235
467 230
495 230
529 235
557 235
591 230
614 219
571 214
543 214
515 214
481 209
449 212
420 207
395 204
370 204
348 191
326 179
305 165
305 140
305 115
295 92
277 74
255 62
237 44
222 24
197 19
179 37
164 57
149 77
132 99
117 119
102 139
84 157
70 181
52 199
