84 462
79 437
89 412
101 390
114 362
124 337
134 307
139 282
139 257
139 232
134 207
158 214
182 204
207 199
219 177
219 152
229 57
239 32
257 14
282 14
307 14
331 21
355 29
375 44
398 55
415 74
434 91
456 104
481 109
506 104
531 99
550 120
543 148
530 170
544 191
560 211
556 245
538 263
518 278
495 290
500 315
514 336
532 354
547 374
559 396
560 421
558 453
535 465
510 462
486 455
463 445
438 440
413 440
390 450
375 470
365 495
389 504
414 509
438 516
462 524
485 534
508 544
528 560
508 583
486 595
463 605
440 615
417 625
392 630
367 630
342 629
317 624
293 615
271 603
247 595
222 590
199 580
179 564
165 543
154 520
139 500
114 500
94 485
