59 212
49 242
59 265
62 290
87 290
107 305
132 309
152 325
171 343
172 380
197 380
222 380
247 375
272 375
287 395
310 405
335 405
360 405
385 405
408 395
433 390
458 390
481 380
501 365
510 327
510 302
510 277
505 252
499 227
484 207
470 186
448 174
430 156
408 144
384 136
362 124
337 124
312 124
287 124
264 134
240 141
215 140
220 106
220 81
207 59
184 49
159 52
144 77
139 107
126 149
104 162
79 159
69 182
