144 685
134 662
154 642
179 639
204 639
227 649
244 630
234 607
234 582
234 557
244 527
254 490
254 465
238 445
219 462
196 474
189 407
199 332
204 307
214 277
239 227
234 202
214 187
189 142
189 117
201 95
215 74
232 54
257 49
282 49
307 54
325 72
340 92
345 117
350 142
372 154
384 127
402 109
420 91
445 89
470 89
495 89
518 100
533 120
535 145
545 168
545 193
540 220
519 235
496 245
474 257
450 265
425 260
420 285
404 307
385 325
365 345
389 354
410 368
430 384
455 419
484 419
509 421
495 445
470 440
462 470
432 430
414 412
399 392
375 385
375 410
385 433
385 460
390 485
400 508
412 530
430 548
455 549
480 549
504 542
519 522
529 497
534 472
534 447
549 389
569 372
594 376
578 396
565 420
565 445
565 470
560 500
548 533
528 550
482 574
458 583
433 585
408 588
395 610
375 625
382 649
407 649
431 640
456 639
481 639
495 660
478 685
453 685
428 680
403 675
378 675
353 675
339 632
349 602
325 595
300 595
275 595
275 620
277 645
269 680
244 680
219 680
194 680
169 680
