149 637
134 657
158 665
183 665
208 665
233 665
258 665
281 655
285 625
285 600
310 600
335 600
341 630
329 652
347 670
372 670
397 670
422 669
447 675
472 669
465 639
440 639
415 639
390 639
366 630
384 612
396 590
421 585
446 585
471 585
495 575
515 560
535 545
548 523
555 485
555 460
593 389
569 397
557 419
526 465
504 522
485 541
464 556
439 559
414 557
405 533
390 513
380 490
380 465
380 440
375 415
400 420
419 437
429 460
444 480
460 460
483 470
491 444
468 434
444 426
430 405
409 391
387 379
360 370
380 355
395 335
408 313
430 300
455 302
480 305
505 305
528 293
540 250
550 215
555 168
538 149
514 141
490 134
465 129
440 129
417 139
399 157
377 190
375 165
375 140
375 103
360 83
348 61
324 54
299 54
274 57
250 66
232 84
214 102
219 187
241 200
249 224
236 250
221 270
209 292
199 327
184 347
175 376
166 400
154 422
166 444
191 445
214 435
237 424
259 412
278 395
249 462
239 492
229 532
229 557
229 582
229 607
249 635
224 639
199 634
174 634
