156 614
134 627
156 640
181 643
206 648
243 650
268 650
285 630
285 605
285 580
310 580
335 580
349 601
339 627
349 650
374 650
399 650
424 652
449 655
469 629
444 624
419 624
394 624
370 615
370 575
393 565
418 565
443 570
468 575
493 578
510 555
520 517
528 493
580 384
557 394
539 412
529 447
514 472
501 500
492 524
470 537
445 536
420 539
395 536
382 514
375 490
375 465
375 440
375 415
400 420
410 443
429 460
454 462
478 453
470 419
445 419
425 403
404 389
381 379
360 365
380 350
403 338
421 320
446 315
471 315
494 305
517 295
537 279
549 257
550 230
560 185
550 162
532 144
507 139
482 134
457 134
432 134
404 187
380 209
355 205
365 175
375 150
368 126
360 102
342 84
317 79
292 84
270 96
252 114
234 132
224 157
224 182
224 207
234 230
249 250
234 272
224 297
211 325
199 347
189 372
184 397
174 427
199 425
224 420
248 413
273 410
281 440
269 462
259 487
249 512
249 537
249 562
239 587
251 609
229 629
206 619
181 614
