42 449
24 467
42 485
67 479
91 470
114 460
138 453
162 444
186 435
211 435
235 425
260 427
282 439
289 467
311 480
335 470
360 470
383 480
406 490
429 500
454 505
477 494
475 458
465 435
460 410
485 410
479 377
445 383
435 360
460 360
501 365
526 365
550 334
527 324
502 324
477 319
440 310
463 298
485 285
508 275
532 284
557 290
582 295
593 266
581 244
569 222
560 198
550 175
536 154
516 170
504 192
491 225
474 244
451 254
426 260
402 269
380 256
370 233
360 210
385 205
390 177
365 176
340 173
328 151
315 129
292 119
274 137
259 157
249 182
244 207
232 239
209 249
190 266
200 289
171 284
146 279
126 295
114 317
136 329
161 330
186 333
172 374
152 389
129 399
106 410
86 425
65 439
