156 104
159 57
183 49
208 54
225 73
250 69
275 74
295 89
315 104
334 121
349 141
364 161
382 179
400 197
415 217
425 240
439 261
454 281
469 301
491 314
514 324
535 338
553 356
571 374
591 389
616 389
640 397
632 444
624 475
609 455
594 435
579 415
559 400
539 385
514 380
494 365
469 360
449 345
425 337
405 322
390 302
370 287
355 267
330 267
305 265
280 270
255 275
235 290
235 330
242 354
250 380
255 410
257 444
232 450
209 440
199 417
221 405
219 375
214 350
204 327
204 302
199 277
217 259
239 247
261 234
284 222
282 185
262 170
240 157
216 149
199 130
179 115
