159 87
164 112
186 125
210 132
219 156
236 175
259 185
279 200
301 213
324 223
301 240
281 255
266 275
244 287
219 347
204 372
194 397
172 449
186 470
211 465
220 425
220 400
239 382
254 362
265 335
270 305
295 305
319 297
341 285
365 275
388 265
394 290
409 310
426 329
446 344
466 360
489 370
512 380
535 370
555 350
574 332
594 317
619 312
643 305
668 305
693 308
703 281
684 264
665 247
647 229
622 229
604 247
587 269
565 281
541 290
520 304
495 300
492 275
477 255
469 231
457 209
439 191
420 174
405 154
388 135
370 117
350 102
326 94
304 81
279 82
256 94
238 76
219 59
194 54
171 65
