149 317
172 269
184 247
202 229
224 217
242 199
262 184
284 167
308 159
330 146
354 137
379 134
402 124
426 115
451 119
476 114
501 115
526 110
551 114
576 119
601 124
621 139
640 156
657 175
670 197
670 230
668 263
655 285
645 310
625 330
607 349
587 364
569 382
545 390
527 410
504 420
481 430
458 440
435 450
410 450
395 475
383 498
368 518
355 540
343 568
331 590
309 602
304 577
304 537
309 497
306 463
282 455
257 459
235 447
211 440
189 427
171 409
154 390
144 367
149 342
