94 137
94 112
119 109
144 109
167 99
192 99
217 99
242 99
267 99
292 99
317 99
342 99
367 94
392 94
417 94
442 94
467 94
492 94
517 94
542 94
567 94
570 119
570 144
570 169
570 194
570 219
575 244
575 269
575 294
575 319
575 344
575 369
550 385
525 385
500 385
475 385
450 385
425 385
400 395
375 395
350 395
325 395
300 395
300 420
315 440
301 478
281 463
259 450
239 435
219 420
199 405
174 400
149 400
124 400
104 385
104 360
104 335
104 310
104 285
94 262
94 237
94 212
94 187
94 162
