109 137
109 112
129 87
151 75
175 66
200 64
225 64
250 59
275 59
300 59
325 59
350 59
375 59
400 59
425 59
450 54
475 54
500 54
525 59
550 64
570 79
583 101
585 126
585 151
585 176
585 201
585 226
585 251
585 276
578 313
556 325
532 334
507 335
482 335
457 335
432 335
407 335
382 335
357 335
334 345
309 347
290 365
270 380
248 398
224 407
206 389
201 364
184 345
159 345
139 330
129 307
124 282
124 257
124 232
124 207
109 187
109 162
