134 272
129 247
139 207
161 194
174 167
179 142
194 117
206 95
231 89
256 84
281 84
306 85
324 67
346 54
370 61
394 69
416 55
436 40
461 39
481 54
506 54
527 39
552 44
574 56
580 81
600 97
620 112
635 132
639 157
640 182
640 207
645 232
650 257
643 303
631 325
613 343
590 355
575 375
560 410
541 430
518 440
495 430
470 425
460 450
484 457
506 469
510 510
514 547
496 565
471 565
451 549
436 529
421 509
412 485
387 490
362 485
342 470
323 453
300 465
275 470
250 465
229 451
217 429
200 410
176 403
154 390
149 365
139 342
139 317
