159 182
164 132
186 120
211 119
236 114
259 104
284 104
309 104
334 104
359 104
384 104
409 104
434 104
459 104
484 99
509 99
534 99
559 99
584 104
607 114
622 134
625 159
625 184
625 209
625 234
625 259
630 284
630 309
623 348
601 360
579 372
555 380
555 405
555 430
555 455
560 480
565 505
565 530
565 555
546 574
539 550
520 533
509 510
499 487
486 465
469 446
456 424
447 400
432 380
407 380
382 380
357 385
332 385
307 385
282 385
257 385
232 385
207 380
182 375
164 357
159 332
159 307
159 282
159 257
159 232
159 207
