149 235
169 250
194 255
217 265
237 280
254 299
274 315
289 335
309 350
329 365
349 380
366 399
386 414
399 436
414 456
438 465
446 439
425 425
469 427
465 392
441 384
416 379
396 364
376 349
356 334
338 316
318 301
300 283
282 265
262 250
244 232
235 208
230 183
218 161
194 154
169 157
184 177
188 219
164 211
