69 372
84 392
108 400
133 395
155 380
180 380
205 382
230 385
255 385
280 385
305 390
330 390
355 390
380 395
405 395
430 390
427 354
402 349
377 344
352 344
327 344
302 344
277 344
252 339
227 339
202 334
177 334
153 326
131 314
108 304
84 312
64 327
94 335
93 364
