19 107
26 60
51 64
76 64
101 69
125 77
137 99
152 79
172 64
195 54
220 49
243 39
265 26
290 24
315 24
340 19
365 21
390 22
414 29
439 31
464 36
486 49
504 67
515 90
536 104
559 114
598 129
578 145
553 140
528 143
503 148
490 170
470 185
465 240
448 263
429 280
404 285
402 260
381 274
374 250
369 225
344 227
320 235
295 237
270 240
245 240
220 235
195 235
185 260
169 297
144 302
119 300
109 277
127 259
141 200
118 190
93 190
77 155
57 140
39 122
