19 442
19 417
31 395
40 371
59 347
79 332
94 302
104 272
114 237
136 150
151 130
169 112
187 94
205 76
224 59
244 44
267 34
291 25
316 25
341 20
366 24
391 24
416 29
439 39
462 49
480 67
502 79
520 97
545 99
530 135
525 170
510 190
524 211
533 238
518 258
498 273
474 280
449 277
463 235
442 249
422 264
402 279
384 297
365 315
345 335
325 350
305 365
280 370
294 391
310 411
300 440
280 460
256 469
237 415
219 397
195 390
170 390
154 417
134 432
115 450
97 469
77 484
52 480
34 462
