94 130
94 264
94 274
94 284
94 294
94 304
95 140
96 234
96 244
96 254
96 314
97 324
98 150
98 160
98 170
98 210
98 220
98 334
99 121
100 180
100 190
100 200
100 344
100 354
105 113
105 363
111 350
114 108
114 321
115 331
122 102
124 321
132 98
134 323
142 94
144 323
152 90
154 323
162 82
164 323
170 76
174 323
178 66
182 56
184 323
192 54
194 323
201 59
204 323
206 68
212 76
214 323
220 82
224 323
225 91
234 323
235 94
244 323
245 98
254 103
254 323
262 109
262 329
264 344
264 354
270 115
270 362
272 161
273 148
275 348
277 123
277 324
277 334
279 133
281 166
287 323
290 171
297 323
300 174
307 323
310 174
317 323
320 174
327 323
330 176
337 323
340 180
347 323
350 184
357 323
358 190
366 196
367 323
374 202
377 323
380 210
387 323
388 216
393 225
397 323
403 228
407 323
413 230
417 323
423 230
427 323
433 230
437 323
443 230
447 323
453 230
457 323
463 230
467 323
473 230
477 323
483 230
487 323
493 230
497 323
498 333
500 343
502 353
503 230
506 363
513 225
515 348
515 358
517 328
517 338
522 220
527 327
532 216
536 332
542 214
546 333
552 212
554 325
562 212
564 328
570 204
573 333
579 199
581 339
587 192
591 343
595 186
601 345
605 186
611 343
612 194
620 200
621 338
628 207
629 332
637 212
638 327
647 214
648 326
654 334
657 216
664 331
667 218
674 327
677 222
682 333
682 354
684 343
686 227
688 362
693 290
693 300
693 310
694 233
694 320
695 264
695 274
695 348
696 330
698 361
700 241
701 251
