136 242
136 252
136 262
136 272
136 282
136 292
136 302
137 312
138 122
138 132
138 142
138 152
138 162
138 172
138 182
138 192
138 202
138 212
138 222
138 232
138 322
140 112
141 332
142 344
142 354
144 100
148 362
149 91
155 346
156 82
156 321
157 331
158 356
160 54
160 64
166 321
170 54
170 331
170 350
173 360
175 63
175 73
177 83
177 93
181 103
181 164
183 113
183 148
183 348
183 362
185 123
185 324
185 334
187 133
191 166
195 323
201 162
205 323
211 162
215 323
221 164
225 323
231 168
235 323
239 174
245 323
249 176
255 323
259 176
265 323
269 174
275 323
279 174
285 323
289 176
295 323
299 180
305 323
309 184
315 323
318 189
325 323
326 195
333 203
335 323
338 212
343 221
345 323
351 228
355 323
361 230
365 323
371 230
375 323
381 230
385 323
391 230
395 323
401 230
405 323
411 230
415 323
421 230
425 323
431 230
435 323
441 230
445 323
451 230
455 323
461 230
465 323
471 230
475 323
481 230
485 323
491 230
495 323
501 230
505 323
511 230
515 323
521 232
525 323
531 232
535 323
541 232
545 323
551 232
555 323
561 232
565 323
571 234
575 323
581 234
585 323
591 236
595 323
601 236
605 323
610 228
610 332
612 342
612 352
615 219
617 361
623 211
625 201
625 350
627 360
628 188
631 342
638 186
641 342
643 195
644 352
645 205
649 215
649 361
655 223
657 233
657 314
657 324
657 348
659 243
659 256
659 266
659 276
659 286
659 296
659 360
661 334
