98 128
98 138
98 248
98 258
98 268
98 278
98 288
98 298
98 308
98 318
100 232
100 328
100 338
101 148
102 158
102 214
102 348
102 358
103 168
104 120
104 178
104 188
104 198
112 114
112 361
113 350
115 322
115 332
121 109
125 321
131 106
135 321
141 102
145 321
151 98
155 321
161 95
165 321
171 92
175 321
181 90
185 321
188 82
195 321
197 77
205 321
206 72
212 64
215 321
218 56
225 321
228 54
235 62
235 321
241 70
245 321
250 75
255 321
260 79
265 88
265 321
275 92
275 321
285 94
285 321
295 98
295 321
305 102
305 321
315 104
315 321
325 108
325 321
331 329
334 113
334 339
334 349
334 359
337 168
341 121
341 150
343 176
344 321
344 347
344 361
345 331
347 129
347 140
353 176
354 321
363 178
364 321
373 182
374 321
381 188
384 321
389 194
394 321
397 200
404 321
405 206
411 214
414 321
418 222
418 331
418 341
420 351
422 361
424 230
432 361
434 226
435 346
437 328
444 222
447 327
454 220
457 329
464 216
467 331
474 214
477 334
484 214
485 327
494 212
495 325
504 212
505 327
514 208
515 331
522 202
524 336
532 198
533 341
540 192
543 343
549 187
553 345
559 186
563 345
567 192
573 342
576 197
583 338
585 202
592 333
593 208
602 329
603 212
612 325
613 212
622 325
623 214
631 330
633 214
641 333
643 216
651 329
653 218
661 327
663 222
671 327
673 224
678 350
680 332
680 360
681 230
687 282
687 292
687 302
687 312
688 322
689 266
690 235
690 349
690 361
692 332
695 258
697 243
