200 246
201 256
206 238
207 264
208 334
208 356
209 344
210 324
212 273
212 283
212 293
212 303
212 313
214 232
216 363
223 336
223 346
224 228
226 128
226 138
228 355
231 147
232 120
234 157
234 167
234 212
234 222
236 177
236 187
236 197
236 361
241 115
241 338
241 348
243 328
251 111
253 327
261 107
263 329
271 106
273 333
281 102
283 335
291 100
291 328
301 98
301 325
311 96
311 323
321 94
321 325
331 92
331 329
341 90
341 333
347 82
351 335
357 78
361 339
367 75
371 341
377 71
381 345
383 63
391 55
391 345
401 54
401 345
407 62
411 345
415 68
421 343
423 74
431 339
433 76
441 335
442 81
449 89
451 332
459 90
461 329
469 92
471 326
479 94
481 323
489 96
491 325
499 98
501 327
508 335
509 100
518 333
519 104
528 329
529 106
538 327
539 108
548 327
549 112
554 335
554 345
556 355
559 116
559 182
559 192
559 202
561 156
561 166
561 212
561 222
564 361
566 147
567 122
567 344
569 228
569 334
571 132
572 353
577 362
579 232
583 270
583 280
583 290
583 300
583 310
583 320
583 350
585 330
587 340
588 237
589 262
593 246
