39 82
44 72
47 89
49 257
49 272
49 287
49 297
49 312
49 322
54 69
54 237
54 247
54 331
54 341
57 90
59 227
59 350
60 61
64 217
65 358
66 95
68 54
69 202
71 104
73 365
74 192
77 49
77 375
79 110
79 177
82 39
84 119
84 162
85 382
89 128
89 138
89 148
92 34
95 385
101 29
101 393
111 30
111 395
119 401
121 34
126 409
130 29
136 408
140 32
144 415
144 567
149 37
149 576
153 420
154 564
157 44
159 547
159 580
162 425
164 52
169 544
169 580
170 60
172 429
175 69
179 542
179 580
180 80
181 434
182 90
185 100
185 110
185 120
185 130
189 440
189 522
189 532
189 577
190 139
190 149
190 159
190 169
190 179
190 189
190 200
190 210
194 512
195 219
195 448
199 580
200 228
200 457
204 502
207 465
208 235
209 482
209 492
209 582
210 560
210 570
213 244
214 473
215 530
215 540
215 550
219 575
221 565
222 249
224 545
224 555
225 525
229 577
230 515
230 536
231 254
237 570
240 259
247 574
249 264
250 535
255 544
255 580
257 270
260 525
265 510
265 547
265 580
267 274
270 500
272 555
275 575
276 279
277 564
278 493
280 465
282 475
285 284
285 485
289 460
294 289
299 460
302 295
308 465
312 299
318 465
321 304
328 465
331 305
338 465
341 309
348 465
350 314
358 465
359 319
368 465
369 321
378 465
379 324
388 329
388 465
397 334
398 465
406 339
408 465
416 339
418 465
425 344
428 465
435 347
438 463
445 349
448 460
455 352
458 460
465 354
468 460
474 359
478 460
483 364
488 460
493 364
498 460
502 369
508 460
512 369
518 460
521 374
528 460
530 379
538 460
539 384
547 390
548 460
557 394
558 458
565 450
566 399
570 435
575 404
575 414
575 424
