14 72
22 64
22 79
30 56
32 80
38 49
42 39
42 80
50 31
52 80
59 187
59 197
59 207
59 217
59 227
59 237
59 247
60 26
62 84
64 162
64 172
64 256
64 272
68 19
69 137
69 147
71 89
72 279
74 99
74 109
74 119
76 289
78 19
84 295
87 305
88 19
95 312
97 14
102 320
107 14
110 327
116 19
117 335
125 24
125 342
134 29
134 347
142 35
142 354
147 44
149 362
150 54
155 63
159 365
160 72
160 82
160 92
160 102
164 427
165 111
165 121
168 370
170 130
172 419
174 430
175 139
177 375
182 419
183 145
184 430
186 380
187 155
192 414
194 430
195 162
196 383
202 414
204 167
204 430
206 385
210 406
211 394
212 174
213 435
219 182
223 435
225 410
229 184
230 400
230 419
232 440
235 428
238 189
238 393
245 385
247 194
255 385
257 194
264 202
264 390
274 204
274 390
283 209
284 390
292 214
293 385
302 214
303 383
311 219
313 378
320 224
320 370
329 229
330 365
338 234
340 360
348 235
350 355
357 240
360 350
367 244
369 345
376 249
379 342
385 254
389 345
395 254
398 340
404 259
408 340
414 259
417 345
424 259
427 349
434 259
437 350
444 261
446 355
454 264
456 358
464 262
466 360
474 264
476 363
484 264
485 368
494 264
495 370
504 264
505 372
514 264
515 372
522 270
525 370
527 279
530 300
534 287
534 365
538 306
540 295
542 359
547 349
548 310
552 339
555 318
557 329
