99 72
105 80
109 67
115 80
119 64
125 80
129 64
135 80
138 59
145 80
148 59
155 80
157 54
165 80
167 54
175 46
175 80
183 39
185 80
190 31
194 85
200 26
203 90
210 24
213 90
220 24
222 95
229 212
229 222
229 232
229 242
229 252
230 24
232 95
234 202
234 261
234 271
234 281
234 291
239 192
239 300
240 24
240 102
244 112
244 177
244 309
246 319
249 121
249 131
249 141
249 151
249 161
250 27
251 328
258 34
259 335
259 345
264 354
265 42
269 363
270 51
270 210
270 220
270 373
274 383
275 60
275 70
275 195
275 229
275 239
279 392
280 79
280 89
280 180
280 248
280 258
284 401
285 98
285 108
285 118
285 128
285 138
285 148
285 158
285 168
285 267
289 410
290 276
292 420
295 285
300 294
300 427
307 435
309 299
317 439
318 304
327 440
328 304
335 447
337 299
345 450
347 294
354 455
357 294
363 460
366 289
373 460
376 289
382 465
385 284
389 802
392 469
395 284
397 794
399 805
402 470
404 279
406 789
409 805
411 475
414 279
414 822
416 785
419 805
420 480
420 830
422 815
424 279
426 784
429 485
429 805
429 825
434 279
435 779
439 485
439 825
444 281
445 779
448 490
449 822
451 770
454 284
454 752
457 495
459 737
459 820
464 284
464 717
464 727
465 502
465 765
465 775
467 814
469 512
469 522
469 702
470 750
470 784
473 289
474 531
474 687
475 793
477 809
478 743
479 540
479 550
479 560
479 570
479 637
479 647
479 657
479 667
479 677
480 720
480 730
482 580
483 289
484 590
484 627
485 710
487 600
489 610
490 690
490 700
493 290
495 505
495 515
495 525
495 535
495 545
495 555
495 565
495 645
495 655
495 665
495 675
497 575
500 495
500 585
500 635
503 294
505 594
505 604
505 614
505 624
510 495
513 294
520 495
522 299
529 500
531 304
532 510
534 802
540 309
540 517
540 810
544 799
547 525
550 309
550 810
553 794
554 533
555 490
555 500
559 314
559 542
560 509
560 519
560 812
563 794
564 485
564 551
568 319
568 525
569 560
570 815
572 535
573 794
574 485
574 569
577 324
577 544
580 554
580 577
580 815
582 789
584 485
584 587
586 329
588 560
589 596
590 570
590 781
590 810
594 485
594 605
594 615
594 625
594 635
594 645
594 655
594 767
595 334
595 579
597 665
599 675
599 685
599 695
599 705
599 722
599 732
599 742
599 752
600 588
600 810
604 485
605 334
608 595
610 605
610 625
610 635
610 645
610 805
612 655
614 339
614 485
615 614
615 665
615 675
615 685
615 735
615 745
615 755
615 765
615 775
617 695
620 705
620 715
620 725
620 784
620 805
622 345
624 485
629 789
630 352
630 800
633 490
639 357
639 791
643 490
649 361
652 495
655 369
662 495
663 375
670 383
672 495
678 390
682 499
685 398
690 505
693 405
699 510
700 413
705 422
708 515
712 430
717 439
717 520
720 449
726 525
730 452
736 528
737 460
742 469
745 533
749 477
750 487
754 497
754 527
755 507
755 517
