164 42
164 52
164 62
164 72
166 82
168 92
169 33
170 268
172 102
174 112
176 122
176 132
177 27
178 142
178 152
178 274
179 263
180 162
180 172
180 236
180 246
182 182
182 192
182 202
182 212
182 222
186 22
188 275
191 238
191 248
191 258
193 132
193 142
193 152
193 162
193 172
193 182
193 192
193 202
193 212
193 222
196 20
203 129
204 266
206 21
206 139
206 149
206 159
206 184
206 194
206 254
208 169
208 204
208 214
208 224
208 234
208 244
209 275
216 25
219 168
219 178
219 188
219 198
219 208
219 218
219 228
219 238
219 248
219 258
219 274
221 142
221 152
223 118
223 128
225 30
229 110
231 38
233 48
233 98
235 58
235 68
235 78
235 88
