86 124
90 110
94 100
95 129
100 92
105 83
105 129
111 75
115 131
119 67
125 59
125 131
132 50
135 128
140 42
145 124
148 36
153 118
156 30
163 115
164 125
164 135
164 145
164 155
164 165
164 175
164 185
164 195
165 25
166 205
166 215
168 225
168 235
170 245
172 255
172 265
175 21
176 275
177 174
177 200
177 210
179 220
180 230
181 240
183 250
184 260
185 20
186 275
191 180
191 190
191 200
193 210
193 220
195 20
195 162
195 230
196 275
197 240
198 250
199 146
199 260
201 136
203 126
205 22
205 116
206 275
207 104
209 94
209 262
214 85
215 24
216 273
220 77
221 264
224 29
224 87
226 97
226 273
230 107
231 37
237 45
238 114
241 55
248 115
249 49
257 41
257 110
263 68
263 78
263 96
267 38
273 69
277 38
282 74
287 42
291 79
295 48
298 87
299 58
303 68
306 93
309 76
315 84
