24 137
24 147
24 157
24 167
29 176
29 186
32 129
34 195
37 119
39 204
44 107
44 213
49 97
52 220
54 312
54 322
54 332
54 342
54 352
57 89
59 302
59 361
60 180
60 190
60 200
60 210
62 79
64 67
64 292
64 370
65 165
69 282
70 155
70 378
72 59
74 272
75 145
77 49
78 385
80 135
82 264
84 393
85 403
86 44
87 254
88 128
92 244
93 410
95 39
98 125
99 232
102 415
105 39
107 120
107 224
110 305
110 315
110 325
110 335
111 420
112 214
115 39
115 344
116 115
118 298
120 206
120 285
120 425
125 39
125 110
125 344
128 199
128 278
129 182
130 255
130 265
130 425
131 335
134 172
134 322
135 42
135 110
139 120
139 130
139 140
139 150
139 160
139 302
139 312
140 245
140 425
144 287
145 44
145 230
149 272
150 425
153 50
153 223
157 264
158 59
158 213
160 425
162 254
165 200
167 64
170 74
170 84
170 180
170 190
170 246
170 420
175 93
175 103
175 113
175 170
180 122
180 132
180 142
180 152
180 244
180 420
189 239
190 420
195 231
199 415
205 229
208 420
215 229
217 425
225 229
226 430
234 436
235 229
244 440
245 229
253 445
254 455
254 465
255 229
260 473
265 229
269 632
270 477
274 487
275 229
277 624
279 496
279 506
279 635
284 515
284 525
284 535
284 545
285 229
287 619
288 640
289 554
289 564
289 574
289 584
289 594
289 604
295 229
298 640
300 470
300 480
300 490
300 500
300 510
300 520
300 530
300 540
300 550
300 560
300 570
300 580
300 590
305 229
305 599
305 609
307 634
310 465
310 618
315 229
320 460
325 229
330 460
335 229
339 455
345 232
348 450
354 237
358 448
364 239
368 445
373 244
378 443
383 245
388 438
390 253
398 435
400 254
408 260
408 435
417 265
418 433
425 272
428 430
433 279
438 428
442 284
448 425
449 292
458 425
459 296
468 301
468 425
475 309
477 430
483 315
485 437
490 323
492 445
500 327
502 445
507 335
510 452
517 339
517 460
526 344
526 455
534 447
535 349
544 354
544 445
552 360
554 445
557 455
562 364
566 460
571 369
574 466
580 374
584 470
589 379
593 475
597 385
600 440
600 483
605 430
605 449
607 389
610 458
610 480
614 425
615 467
616 394
624 425
626 394
634 425
635 399
640 408
644 422
