79 502
79 512
84 492
84 521
84 531
89 540
92 484
98 545
100 476
107 550
108 469
117 464
117 550
124 587
126 469
127 550
129 572
132 594
134 558
135 474
142 595
145 474
151 600
154 479
160 605
162 485
170 607
172 484
180 605
182 479
190 600
192 474
200 466
200 595
208 588
210 461
210 510
210 520
215 529
215 539
215 549
215 580
218 503
220 459
220 558
220 568
228 498
229 452
235 490
237 444
245 485
247 439
255 480
256 434
263 473
264 427
269 352
269 362
269 372
269 382
269 392
269 402
269 412
270 465
274 232
274 242
274 252
274 262
274 272
274 282
274 292
274 302
274 312
274 322
274 332
274 342
279 167
279 177
279 187
279 197
279 207
279 217
279 460
284 157
287 454
294 152
297 449
304 149
307 444
312 434
314 149
315 275
315 285
315 295
315 305
315 315
315 325
315 335
315 345
315 355
315 365
315 375
315 385
315 395
315 405
315 415
320 195
320 205
320 215
320 225
320 235
320 245
320 255
320 265
323 144
330 190
333 144
340 190
343 144
350 190
352 139
359 185
362 134
369 182
372 134
374 67
374 77
379 86
379 177
382 59
382 134
384 95
384 105
387 49
389 114
389 124
389 175
392 39
398 170
400 31
408 170
410 26
418 168
420 24
428 165
430 24
437 160
440 24
447 160
450 24
457 160
460 24
466 165
468 30
475 38
476 165
480 47
480 57
485 66
486 165
495 69
495 170
504 175
505 69
514 175
515 69
524 74
524 172
532 80
532 164
537 154
540 87
540 97
545 106
545 145
550 115
552 125
553 138
