99 492
104 501
104 511
107 484
109 520
112 530
115 476
120 537
123 469
130 461
130 540
138 454
140 540
148 454
150 540
154 562
154 572
158 455
159 545
159 581
164 590
167 460
173 595
177 464
182 600
186 469
192 600
195 474
201 605
204 467
209 457
210 600
214 447
220 600
222 439
228 593
229 427
234 417
235 585
240 505
242 409
242 515
244 580
245 495
247 399
247 524
250 485
250 534
250 544
250 554
252 574
254 387
255 563
258 478
259 377
263 468
267 369
268 458
274 357
275 450
280 440
282 349
285 430
287 339
292 329
293 423
300 321
300 415
304 307
305 405
309 297
313 398
317 289
318 388
323 378
324 277
330 370
332 269
335 360
337 259
340 350
342 249
348 343
350 241
353 333
355 231
360 221
360 320
365 310
368 214
372 204
373 303
380 196
380 295
385 186
388 288
390 176
393 278
398 169
398 268
402 159
405 255
407 149
412 139
413 248
418 238
419 127
423 228
427 119
430 220
434 102
435 210
439 87
443 203
444 77
448 193
449 62
453 183
454 52
460 175
464 47
465 165
472 39
473 158
480 145
481 34
488 138
490 29
490 125
495 115
499 22
503 108
508 98
509 26
513 88
515 34
518 78
520 43
520 53
520 63
