1 135
2 145
10 130
10 152
19 125
19 146
27 140
28 120
36 134
37 114
45 128
46 109
54 122
55 103
62 116
65 99
70 109
74 93
80 107
83 88
89 102
92 82
97 96
101 76
105 90
110 71
114 85
119 65
123 80
128 59
131 73
137 54
139 67
147 52
148 62
157 52
