552 179
552 189
558 197
562 183
562 207
568 215
572 187
574 223
580 193
580 231
585 240
588 200
589 153
593 163
593 246
595 208
598 255
599 153
599 171
599 181
600 191
605 212
606 262
608 222
609 156
610 189
610 272
614 165
616 197
618 225
620 276
621 206
622 172
625 216
626 231
629 281
632 176
633 222
634 290
641 181
642 297
645 307
648 189
655 307
658 192
662 315
666 198
670 322
675 203
675 331
683 338
684 208
686 348
694 212
696 350
704 216
704 356
709 365
713 221
715 373
723 224
725 374
730 383
731 230
735 240
738 390
743 399
745 241
750 250
750 407
760 253
760 411
765 262
766 419
772 427
773 269
777 436
781 276
785 442
788 284
795 444
796 291
800 453
802 299
806 461
810 305
811 470
818 312
821 473
825 320
829 480
833 327
835 488
840 335
840 497
848 342
848 503
856 348
856 510
864 516
865 353
871 524
872 361
874 371
877 532
884 372
885 539
889 381
893 545
897 388
899 553
904 396
907 559
912 403
912 568
920 410
920 574
929 415
929 579
935 587
936 423
941 595
942 431
945 441
946 604
955 444
956 607
961 452
962 615
968 623
969 459
972 633
977 465
982 637
984 473
990 644
991 481
997 489
999 649
1004 658
1005 495
1012 665
1013 501
1020 672
1021 508
1028 516
1028 678
1036 522
1036 684
1040 532
1041 693
1044 703
1049 537
1054 706
1055 545
1062 553
1062 713
1068 721
1069 731
1071 558
1078 566
1079 734
1084 574
1085 742
1093 579
1093 748
1099 587
1103 750
1107 760
1109 591
1111 601
1112 769
1118 777
1121 605
1128 614
1128 777
1132 787
1136 620
1141 629
1142 789
1142 799
1148 807
1149 635
1156 643
1158 807
1161 652
1166 813
1170 657
1171 822
1178 664
1178 830
1184 672
1186 837
1192 679
1195 842
1196 689
1197 852
1206 693
1207 854
1213 862
1214 699
1218 871
1221 707
1227 876
1228 715
1236 722
1236 881
1241 731
1243 897
1244 887
1250 736
1251 903
1258 742
1260 908
1267 747
1269 757
1269 913
1275 765
1275 921
1276 931
1285 768
1285 936
1288 973
1288 983
1290 777
1290 993
1292 944
1292 962
1295 1002
1297 785
1299 1012
1307 789
1307 1018
1312 798
1315 1025
1322 802
1324 1030
1328 810
1329 1039
1334 818
1335 1031
1340 1040
1342 824
1350 1043
1351 829
1359 836
1360 1045
1365 844
1369 1050
1370 853
1378 859
1379 1050
1388 863
1388 1055
1397 858
1397 1060
1406 1065
1407 856
1414 1072
1417 854
1421 1080
1426 1089
1427 855
1434 1096
1435 862
1440 1104
1443 868
1446 1112
1451 875
1452 1120
1458 1128
1459 882
1463 1137
1464 893
1466 903
1468 913
1469 923
1470 1145
1473 933
1475 1154
1478 942
1483 951
1483 1161
1487 961
1488 1170
1493 1179
1495 968
1499 1187
1501 976
1505 1195
1510 981
1511 1203
1518 987
1519 1210
1521 997
1524 1219
1530 1002
1532 1226
1538 1234
1539 1007
1544 1242
1548 1012
1554 1243
1556 1019
1558 1253
1563 1027
1564 1261
1572 1032
1572 1268
1580 1039
1582 1271
1587 1280
1588 1045
1593 1288
1597 1050
1599 1296
1605 1057
1609 1299
1613 1063
1613 1309
1620 1071
1621 1315
1629 1076
1629 1322
1632 1332
1638 1081
1638 1340
1646 1088
1648 1341
1654 1095
1658 1343
1661 1103
1662 1353
1669 1110
1670 1359
1677 1116
1678 1365
1683 1124
1685 1373
1688 1133
1693 1380
1695 1141
1696 1390
1703 1147
1706 1394
1711 1154
1713 1402
1718 1162
1721 1408
1723 1171
1729 1414
1731 1177
1737 1185
1738 1419
1744 1427
1745 1191
1749 1201
1752 1434
1757 1207
1757 1443
1764 1215
1765 1449
1772 1222
1774 1454
1779 1230
1782 1461
1787 1237
1792 1463
1795 1244
1802 1463
1803 1251
1806 1261
1812 1464
1814 1267
1820 1275
1820 1458
1825 1467
1827 1283
1834 1291
1835 1468
1842 1297
1845 1464
1852 1301
1853 1457
1857 1310
1862 1319
1863 1455
1868 1327
1870 1447
1873 1336
1879 1344
1879 1438
1881 1354
1882 1422
1885 1364
1888 1406
1889 1374
1889 1384
1890 1394
