364 1157
364 1167
364 1177
364 1187
364 1197
369 1206
372 1149
374 1215
374 1225
377 1235
379 1245
381 1144
382 1255
384 1265
390 1273
391 1140
398 1280
399 1134
408 1129
408 1280
417 1124
418 1278
422 1114
428 1275
430 1106
438 1099
438 1273
442 1089
447 1079
448 1270
455 1071
458 1270
463 1064
467 1054
468 1270
474 1027
474 1037
478 1270
479 947
479 957
479 967
479 977
479 987
479 997
479 1007
479 1017
484 932
488 1270
489 922
497 914
498 1270
502 904
508 1270
512 899
518 1270
522 899
528 1270
532 899
538 1270
542 899
548 1270
552 899
558 1270
562 899
568 1270
572 899
578 1270
582 894
587 1275
592 894
597 1275
602 894
607 1275
612 894
617 1275
622 894
625 1282
632 894
632 1290
642 894
642 1294
649 1302
652 894
657 1309
662 894
666 1314
672 894
674 1320
680 1328
682 894
690 1332
692 894
697 1340
701 899
707 1344
710 904
715 1350
718 910
724 1355
725 918
733 1360
735 922
742 930
743 1360
750 937
753 1360
757 945
763 1360
765 952
772 960
773 1360
780 967
783 1358
789 972
793 1355
799 974
803 1355
809 974
812 1350
819 974
822 1350
829 974
832 1350
839 974
842 1349
849 974
852 1345
859 974
862 1345
869 974
872 1344
879 974
882 1340
889 974
892 1340
899 972
902 1339
909 969
912 1335
918 964
922 1335
928 964
931 1330
938 964
941 1330
947 959
951 1330
956 954
960 1325
966 954
970 1325
975 949
980 1325
985 949
990 1325
995 946
1000 1325
1005 944
1010 1325
1015 944
1020 1325
1025 944
1030 1325
1035 944
1040 1325
1045 944
1050 1325
1055 944
1060 1325
1065 944
1070 1325
1075 944
1080 1325
1085 944
1090 1325
1095 944
1100 1325
1105 944
1110 1325
1115 944
1120 1325
1125 944
1130 1325
1135 944
1140 1325
1145 944
1150 1327
1155 944
1159 1332
1165 944
1169 1335
1175 944
1175 1343
1185 944
1185 1347
1192 1355
1194 949
1202 1359
1203 954
1209 1367
1212 959
1217 1374
1221 964
1225 1380
1229 971
1234 1385
1238 976
1240 1393
1245 984
1250 1397
1255 984
1259 1402
1264 989
1269 1405
1273 994
1279 1402
1283 994
1289 1400
1293 994
1299 1400
1302 999
1309 1400
1312 999
1318 1395
1322 999
1328 1395
1332 999
1338 1393
1341 1004
1348 1390
1351 1004
1357 1385
1360 1009
1367 1384
1370 1009
1377 1380
1380 1009
1386 1375
1390 1009
1395 1370
1400 1009
1405 1365
1410 1009
1415 1365
1420 1009
1420 1270
1420 1280
1420 1290
1420 1300
1420 1310
1422 1320
1424 1360
1425 1260
1430 1009
1430 1327
1432 1354
1433 1253
1435 1336
1438 1346
1440 1009
1440 1245
1448 1238
1450 1009
1458 1233
1460 1009
1463 1223
1470 1009
1470 1210
1475 1195
1480 1012
1480 1185
1487 1020
1488 1178
1492 1029
1493 1168
1495 1039
1495 1150
1500 1048
1500 1058
1500 1068
1504 1145
1505 1077
1510 1086
1513 1140
1515 1095
1517 1105
1520 1115
1520 1125
