474 492
474 502
474 512
474 522
474 532
474 542
474 552
474 562
474 572
479 482
482 579
487 474
490 585
495 466
500 456
500 585
508 449
510 585
515 441
520 585
523 434
530 580
532 429
537 419
540 580
547 414
550 580
554 302
555 406
559 311
559 321
559 331
560 580
562 294
563 399
564 340
564 350
569 359
569 369
569 379
569 389
570 575
571 289
580 575
581 285
590 570
591 284
600 570
601 280
610 565
611 279
620 565
621 279
630 274
630 560
640 274
640 560
649 269
650 560
659 269
659 565
665 573
669 267
675 577
679 264
682 585
689 262
690 592
699 259
699 597
709 259
709 600
718 605
719 261
727 610
728 266
735 274
737 610
745 277
747 610
752 285
756 615
762 289
766 615
769 297
776 615
777 304
784 312
785 620
789 321
795 329
795 620
804 334
805 622
813 339
815 625
822 344
825 625
832 344
835 625
842 344
845 625
852 344
855 625
862 344
865 625
872 344
875 625
882 344
885 625
892 344
895 625
902 344
905 625
912 344
915 625
922 344
925 625
931 339
935 625
941 339
945 625
951 339
954 620
961 335
964 620
971 334
974 617
981 334
984 615
990 329
994 615
1000 329
1003 610
1009 324
1013 608
1019 324
1023 605
1028 319
1033 603
1038 319
1043 600
1047 314
1053 598
1057 314
1063 595
1066 309
1073 595
1076 309
1083 595
1086 309
1092 590
1096 305
1102 590
1106 304
1112 590
1116 304
1122 590
1126 304
1132 590
1136 304
1142 590
1146 304
1151 595
1156 304
1161 595
1166 304
1170 600
1175 309
1179 605
1185 312
1185 613
1193 620
1194 317
1202 625
1204 321
1211 630
1213 326
1219 636
1220 334
1229 640
1230 334
1238 645
1239 339
1247 650
1248 344
1257 349
1257 654
1266 354
1267 655
1274 361
1276 660
1280 369
1286 660
1290 369
1296 660
1300 369
1306 660
1310 369
1316 660
1320 369
1325 665
1330 369
1335 665
1340 366
1345 665
1350 361
1355 665
1360 359
1365 665
1370 356
1375 665
1380 354
1385 665
1390 354
1395 665
1400 354
1405 545
1405 555
1405 565
1405 575
1405 665
1409 359
1410 584
1413 538
1415 593
1415 665
1418 528
1419 359
1420 602
1423 518
1425 611
1425 665
1429 361
1430 510
1431 619
1434 660
1435 629
1438 503
1439 364
1440 638
1442 654
1448 369
1448 498
1455 490
1457 374
1460 480
1464 382
1468 473
1469 391
1473 463
1475 399
1478 453
1480 408
1483 443
1485 417
1485 427
