24 402
24 412
24 422
24 432
24 442
24 452
29 461
32 394
34 470
41 389
44 470
49 382
53 465
57 374
63 465
65 366
69 292
69 302
73 359
73 465
74 311
74 321
77 284
79 330
79 340
79 350
83 465
87 279
93 463
97 279
103 458
107 279
113 455
116 274
120 463
126 274
128 470
136 274
137 475
145 279
146 480
154 284
156 483
163 289
165 488
172 294
173 495
181 299
183 495
190 304
193 495
198 310
203 495
208 314
213 495
218 314
223 493
228 314
233 490
238 314
243 488
248 314
253 485
258 314
263 485
268 314
272 480
278 314
282 480
288 314
292 480
297 309
301 475
307 309
311 475
317 304
321 475
327 304
330 470
337 304
340 470
346 299
350 470
356 299
359 475
366 299
368 480
376 299
378 480
386 299
387 485
392 494
395 304
400 500
404 309
409 505
410 317
417 325
419 505
425 332
429 505
432 340
439 505
442 344
449 505
452 344
459 505
462 344
469 505
472 344
479 505
482 344
489 502
492 339
499 497
502 339
505 440
505 450
505 460
505 470
505 480
510 430
512 339
520 425
521 334
528 418
530 329
535 405
540 329
543 398
545 338
545 348
545 358
550 367
550 377
550 387
