309 452
309 462
309 472
309 482
314 407
314 417
314 427
314 437
317 489
319 392
324 497
327 384
329 372
332 504
337 364
339 647
339 657
339 667
339 677
339 687
339 697
339 707
339 717
339 727
339 787
339 797
339 807
339 817
339 827
340 510
344 736
344 746
344 756
344 766
344 776
344 836
344 846
344 877
344 887
344 897
344 907
344 917
344 927
345 356
347 639
349 515
349 855
349 865
349 936
349 946
353 349
354 955
354 965
355 631
358 520
359 974
362 344
363 624
364 983
367 525
367 614
369 992
371 339
372 604
374 1001
374 1011
374 1021
377 525
377 594
379 332
379 1030
379 1040
384 582
384 1049
387 525
389 327
389 572
389 1058
390 1068
394 552
394 562
395 1077
397 319
397 529
399 539
402 1085
407 314
411 1090
417 309
421 1090
427 309
431 1093
436 304
440 1098
445 299
448 1105
452 1115
454 292
457 1124
464 289
464 1132
473 284
474 1135
479 227
479 237
479 247
479 257
479 267
483 1140
487 219
492 1145
495 211
500 1152
503 204
509 1372
509 1382
509 1392
510 1155
512 199
514 1401
517 1364
519 1160
520 191
521 1409
525 1356
528 1165
530 189
531 1413
535 1354
537 1170
540 189
540 1418
545 1354
547 1170
550 189
550 1422
554 1349
556 1175
557 1430
560 189
564 1349
566 1175
567 1430
570 192
573 1344
575 1180
577 200
577 1430
582 1339
584 1185
585 207
587 1430
592 1339
594 1185
595 209
597 1430
602 1339
603 1190
605 209
606 1435
612 1195
612 1339
615 209
616 1435
620 1331
621 1200
624 214
625 1321
626 1435
630 1205
630 1311
634 214
634 1292
636 1435
639 1282
640 1205
643 209
644 1262
644 1272
646 1435
649 1210
649 1247
653 209
654 1219
654 1229
656 1438
663 209
666 1440
670 495
670 505
670 515
670 525
670 535
670 545
670 555
670 565
670 575
670 585
670 595
670 605
672 214
672 615
675 480
675 625
676 1440
680 455
680 465
680 634
682 214
685 440
686 1440
690 345
690 355
690 365
690 375
690 385
690 410
690 420
690 430
690 634
691 219
695 394
695 1435
698 338
699 622
700 224
703 328
705 1435
707 614
708 230
710 320
712 240
712 604
714 592
714 1430
715 310
717 249
720 259
720 300
722 584
724 1430
725 268
725 278
725 290
727 574
733 1425
735 566
740 556
742 1420
748 549
752 539
752 1419
757 529
760 1410
762 519
770 511
770 1410
774 497
779 482
780 1410
784 462
784 472
789 432
789 442
789 452
790 1410
794 412
794 422
800 1405
802 404
804 392
809 367
809 377
810 1400
814 347
814 357
815 1280
815 1290
817 1300
818 1393
819 332
820 1265
820 1310
820 1320
823 1383
824 322
825 1235
825 1245
825 1255
825 1329
829 312
830 1185
830 1195
830 1205
830 1215
830 1225
830 1338
830 1360
830 1370
834 297
835 1347
838 1178
839 287
843 1168
844 277
850 1160
852 269
857 259
858 1153
865 251
865 1145
873 244
874 1140
880 236
882 1134
888 229
890 1125
897 224
898 1118
905 1110
907 219
914 1105
917 214
924 1105
926 209
934 1105
936 209
943 1100
945 204
952 1095
955 204
962 1095
965 204
972 1095
975 204
981 1100
984 209
990 1105
994 209
1000 1105
1004 209
1009 1100
1014 209
1018 1095
1023 214
1028 1093
1033 215
1038 1090
1042 220
1047 1085
1050 227
1057 235
1057 1085
1065 242
1067 1084
1070 251
1075 260
1077 1080
1080 269
1085 278
1087 1080
1090 287
1094 297
1095 307
1095 317
1096 1075
1099 327
1100 337
1100 347
1105 356
1106 1075
1108 366
1110 376
1113 386
1115 396
1115 1070
1118 406
1120 416
1125 1070
1126 424
1134 1075
1136 424
1143 1070
1144 407
1144 417
1149 387
1149 397
1153 1070
1154 367
1154 377
1159 347
1159 357
1162 1065
1164 332
1169 292
1169 302
1169 312
1169 322
1169 1382
1169 1392
1169 1402
1171 1060
1174 1411
1177 284
1177 1374
1180 1055
1181 1419
1185 276
1187 1369
1188 1048
1189 1425
1190 266
1195 256
1195 1040
1195 1361
1198 1430
1203 249
1205 1035
1205 1356
1207 1435
1209 237
1214 1030
1215 1351
1217 229
1217 1439
1224 1027
1225 221
1225 1349
1227 1440
1234 1025
1235 216
1235 1352
1236 1435
1240 1033
1245 211
1245 1042
1245 1351
1246 1435
1252 1050
1255 206
1255 1349
1256 1435
1257 1059
1264 1067
1264 1344
1265 201
1266 1435
1269 1076
1274 1344
1275 199
1276 1084
1276 1435
1284 1090
1284 1346
1285 196
1286 1435
1290 1098
1294 1347
1295 194
1296 1435
1298 1105
1304 189
1304 1342
1305 1113
1306 1435
1313 1120
1314 189
1314 1339
1316 1435
1322 1125
1324 189
1324 1339
1325 1440
1329 1133
1334 189
1334 1142
1334 1337
1334 1435
1339 1151
1339 1257
1339 1267
1342 1329
1344 189
1344 1160
1344 1170
1344 1180
1344 1190
1344 1200
1344 1210
1344 1220
1344 1230
1344 1240
1344 1276
1344 1286
1344 1296
1344 1306
1344 1316
1344 1435
1353 1430
1354 191
1362 1435
1363 196
1372 1439
1373 200
1382 205
1382 1440
1390 212
1392 1439
1397 220
1402 1434
1405 227
1410 1425
1412 235
1420 242
1420 1420
1424 252
1425 262
1430 271
1430 1420
1433 281
1435 291
1439 1415
1440 300
1442 310
1445 320
1445 330
1445 1325
1445 1335
1445 1345
1445 1355
1447 1365
1447 1409
1450 339
1450 349
1450 1315
1452 1374
1452 1399
1455 358
1455 368
1455 378
1455 388
1455 398
1455 408
1455 1305
1455 1384
1460 417
1460 427
1460 437
1460 1290
1465 446
1465 1275
1468 456
1470 1260
1475 464
1475 1250
1480 1230
1480 1240
1483 470
1485 1205
1485 1215
1490 478
1490 1185
1490 1195
1498 485
1498 1178
1503 1168
1505 493
1510 1155
1513 500
1515 1140
1520 508
1520 1125
1525 517
1525 1025
1525 1035
1525 1045
1525 1055
1525 1065
1525 1100
1525 1110
1529 527
1530 1015
1530 1074
1530 1084
1535 535
1538 1008
1540 544
1540 995
1545 553
1545 980
1550 562
1550 965
1555 955
1557 570
1560 930
1560 940
1562 579
1565 589
1565 905
1565 915
1570 598
1570 895
1575 607
1579 617
1579 890
1580 627
1585 636
1588 895
1589 905
1589 915
1591 644
1592 925
1594 935
1594 945
1595 654
1597 955
1600 663
1602 964
1605 672
1606 974
1609 682
1614 691
1614 980
1617 990
1618 701
1622 999
1625 709
1625 719
1629 1007
1630 728
1630 738
1635 747
1635 757
1635 767
1635 777
1639 1010
1640 786
1640 796
1640 806
1645 815
1645 825
1645 835
1645 845
1647 855
1649 1007
1650 865
1650 875
1652 885
1655 895
1655 905
1655 915
1655 925
1655 935
1655 945
1655 955
1657 965
1657 999
1660 975
1660 985
