419 772
419 782
424 762
424 791
424 801
424 811
429 820
429 830
429 840
432 754
432 850
434 860
434 870
437 880
439 890
439 900
439 910
442 749
444 919
449 928
450 938
452 749
454 948
459 957
462 749
467 964
472 744
476 969
481 739
486 970
490 734
496 970
499 729
506 970
509 729
515 965
518 724
525 965
528 724
534 960
538 724
543 955
548 724
550 945
558 724
558 938
565 930
568 724
574 925
578 724
584 925
588 724
594 922
598 724
604 920
608 724
614 920
618 724
624 920
628 724
634 920
638 724
644 920
648 724
654 920
658 724
664 712
664 920
669 702
674 920
677 694
684 920
687 689
694 920
697 684
704 920
706 679
714 920
715 674
724 920
725 671
734 920
735 666
744 920
745 661
749 929
751 939
755 659
759 945
765 662
768 950
773 669
778 950
783 669
788 950
793 669
798 950
800 661
804 637
804 647
808 950
809 627
814 617
818 950
822 609
827 945
830 601
837 944
838 594
847 589
847 939
855 930
856 584
864 925
866 584
874 925
876 584
883 920
886 584
893 920
896 584
903 920
906 584
913 920
916 584
923 920
926 584
933 918
936 584
943 915
946 584
953 915
956 584
963 915
966 584
972 910
976 584
982 910
986 584
992 910
996 584
1001 905
1006 584
1011 905
1016 584
1021 905
1026 584
1031 905
1036 584
1041 905
1045 589
1051 905
1055 592
1061 905
1062 600
1070 607
1070 617
1070 627
1070 637
1070 647
1071 905
1074 657
1075 667
1075 677
1079 911
1080 686
1084 920
1086 694
1093 925
1094 701
1102 930
1103 706
1112 930
1113 710
1122 930
1123 714
1132 930
1133 714
1142 719
1142 930
1152 719
1152 930
1161 724
1161 925
1170 920
1171 724
1175 910
1180 900
1181 724
1185 890
1190 875
1191 724
1200 870
1201 724
1210 870
1211 724
1218 863
1220 729
1225 850
1228 735
1230 745
1233 843
1238 751
1238 833
1240 820
1245 810
1248 755
1254 805
1257 760
1262 769
1262 799
1265 779
1267 789
