464 702
464 712
469 692
469 721
469 731
469 741
474 750
477 684
479 759
479 769
479 779
479 789
479 799
479 809
479 819
481 829
484 839
487 679
489 848
494 857
497 674
499 866
504 875
504 885
504 895
507 674
509 904
511 914
516 669
516 923
525 928
526 669
535 930
536 669
545 930
546 669
555 664
555 930
565 661
565 925
573 918
575 659
575 905
585 656
585 905
595 654
595 905
605 654
605 905
615 651
615 905
625 649
625 905
635 649
635 905
645 649
645 905
655 646
655 905
665 644
665 905
675 644
675 905
685 644
685 905
694 639
695 905
704 639
705 905
714 639
715 905
719 622
725 900
727 614
735 900
736 609
745 900
746 609
754 895
756 609
764 895
766 605
773 890
776 600
781 590
782 885
789 584
792 884
798 579
802 879
807 574
812 874
817 574
820 865
827 574
829 860
837 574
839 860
846 579
849 860
855 584
859 860
860 593
860 603
869 860
870 601
875 591
879 542
879 552
879 562
879 572
879 860
884 527
884 869
884 879
889 517
889 888
894 897
897 509
899 906
902 499
904 915
907 489
909 924
911 934
916 484
919 940
925 479
928 945
935 479
938 945
945 479
948 943
955 479
958 940
965 479
967 935
975 479
976 930
984 922
985 479
992 914
995 479
1000 905
1005 479
1005 895
1010 885
1015 479
1015 870
1025 479
1025 870
1035 479
1035 870
1045 479
1045 870
1055 479
1055 870
1065 479
1065 870
1075 479
1075 870
1085 479
1085 870
1095 479
1095 870
1105 479
1105 870
1115 482
1115 870
1125 484
1125 870
1135 484
1135 870
1144 489
1145 870
1154 489
1155 870
1163 494
1165 870
1172 499
1175 870
1179 507
1185 515
1185 870
1190 524
1194 875
1195 533
1195 543
1195 553
1195 563
1195 573
1195 583
1200 592
1204 875
1207 600
1214 875
1215 607
1219 884
1224 612
1224 893
1229 902
1234 616
1237 909
1240 624
1246 914
1250 624
1256 910
1260 624
1266 910
1270 624
1275 905
1280 624
1284 900
1290 624
1292 894
1300 624
1300 885
1310 624
1310 880
1318 873
1320 624
1320 840
1320 850
1320 860
1329 835
1330 624
1338 830
1340 627
1347 825
1349 632
1356 820
1359 634
1365 815
1368 639
1373 808
1377 644
1378 798
1383 788
1384 652
1385 775
1389 661
1390 755
1390 765
1393 671
1395 740
1400 679
1400 690
1400 700
1400 710
1400 720
1400 730
