24 162
24 172
32 154
32 179
34 197
34 207
37 144
37 170
39 216
44 132
44 225
49 234
49 244
52 124
57 250
62 119
65 257
72 114
72 265
82 114
82 265
92 114
92 265
102 114
102 265
111 260
112 114
120 250
122 114
130 250
132 114
140 250
141 109
150 250
151 109
156 258
160 104
162 250
169 87
169 97
170 257
178 250
179 84
185 258
187 90
191 250
196 259
197 94
205 86
206 258
215 84
216 260
225 84
226 260
235 84
236 260
245 84
246 260
250 93
256 85
256 263
264 270
266 84
269 72
269 279
274 57
277 285
282 49
286 280
287 39
292 29
296 280
302 24
305 275
311 29
315 270
321 25
324 265
330 245
330 255
331 29
340 245
341 29
350 245
351 29
360 245
361 25
370 245
371 24
380 29
380 240
390 29
390 240
400 29
400 242
410 29
410 245
419 34
420 240
428 39
430 242
437 44
440 242
444 52
450 65
450 75
450 85
450 240
452 95
454 257
460 102
464 260
470 104
473 265
480 104
483 265
490 104
493 265
500 104
503 263
510 104
510 255
518 248
520 101
523 238
525 225
530 99
533 218
539 92
543 215
549 92
553 213
559 96
560 160
560 170
560 185
560 195
563 106
563 208
568 153
570 114
573 143
575 123
575 133
