324 1017
329 1002
329 1026
334 992
336 1034
342 984
346 1035
349 972
354 962
356 1035
364 957
365 1030
372 949
375 1025
380 941
383 1018
388 934
390 1010
394 922
400 1010
404 919
410 1010
412 925
419 1015
419 1025
422 929
422 1035
424 1045
427 1055
429 1065
429 1247
429 1257
431 934
434 1074
434 1227
434 1237
434 1266
439 1217
440 939
440 1082
441 1274
444 1092
444 1102
444 1112
444 1122
444 1132
444 1142
444 1152
444 1162
444 1172
444 1182
444 1192
444 1202
449 944
451 1275
458 949
461 1275
468 950
471 1275
477 955
479 1267
485 962
485 1255
490 1170
490 1180
490 1190
490 1200
490 1210
490 1220
490 1230
490 1240
492 970
495 1155
500 977
500 1145
507 985
508 1138
517 989
518 1135
524 997
527 1130
529 1006
536 1125
539 1009
546 1125
549 1009
556 1125
559 1009
566 1125
569 1009
576 1125
579 1009
586 1125
589 1009
596 1125
599 1009
606 1125
609 1009
616 1125
619 1009
626 1125
629 1009
636 1125
639 1009
646 1125
649 1009
656 1128
659 1009
660 1138
665 1147
669 1009
669 1157
674 1166
679 1009
679 1175
679 1185
679 1195
679 1205
679 1215
679 1225
679 1235
679 1245
679 1255
682 1265
689 1009
690 1272
699 1009
700 1275
709 1009
710 1275
719 1009
719 1270
725 1260
727 1015
730 1195
730 1205
730 1215
730 1225
730 1235
730 1245
735 1022
735 1185
739 1032
744 1041
745 1185
750 1049
754 1180
755 1058
763 1064
764 1180
773 1064
773 1185
774 1195
774 1205
779 1214
779 1224
779 1234
781 1244
783 1064
786 1253
790 1263
793 1064
795 1272
802 1280
803 1064
810 1287
813 1064
820 1290
823 1064
829 1022
829 1032
829 1042
829 1052
830 1292
834 1007
839 997
840 1295
844 987
850 1297
852 979
860 971
860 1300
869 1305
870 966
878 959
879 877
879 887
879 897
879 1305
884 867
884 906
885 951
889 1305
891 914
893 944
894 862
894 924
894 934
899 1305
904 859
909 1305
914 859
919 1305
924 861
929 1302
933 866
939 1297
943 870
945 1285
950 878
950 1115
950 1125
950 1135
950 1145
950 1275
955 887
955 1154
955 1164
955 1174
955 1184
955 1194
955 1204
955 1214
955 1224
955 1234
955 1244
955 1254
955 1264
959 897
960 1115
964 906
968 916
970 926
970 1115
975 935
975 945
979 1120
980 954
985 963
988 1125
990 972
990 982
995 991
995 1001
995 1011
995 1021
995 1031
995 1041
995 1051
995 1133
998 1061
1003 1140
1008 1064
1010 1148
1018 1064
1018 1155
1025 1163
1028 1065
1030 1172
1034 1182
1038 1069
1042 1189
1044 1199
1044 1209
1044 1219
1048 1069
1050 1227
1057 1235
1058 1069
1067 1064
1067 1235
1069 1052
1074 1042
1077 1239
1079 1032
1087 1024
1087 1240
1096 1245
1097 1019
1105 1011
1106 1245
1115 1006
1116 1245
1124 967
1124 977
1124 987
1124 997
1126 1245
1129 952
1136 1245
1137 944
1146 939
1146 1245
1151 1254
1155 934
1156 1263
1164 929
1164 1270
1167 1280
1174 929
1174 1288
1182 1295
1184 929
1190 1302
1194 929
1199 1307
1204 931
1209 1310
1210 939
1215 948
1218 1315
1220 957
1220 967
1220 977
1220 987
1227 1320
1229 992
1237 999
1237 1320
1246 1325
1247 999
1256 1325
1257 999
1266 1325
1267 999
1276 1325
1277 999
1286 1325
1287 999
1296 1004
1296 1325
1300 1014
1305 1023
1305 1033
1305 1043
1305 1053
1305 1063
1305 1073
1305 1083
1306 1325
1310 1092
1316 1325
1318 1099
1326 1325
1327 1104
1335 1320
1337 1104
1343 1313
1346 1109
1350 1305
1354 1116
1358 1298
1360 1124
1365 1290
1368 1130
1372 1140
1373 1283
1375 1150
1378 1273
1380 1159
1380 1169
1383 1263
1385 1178
1385 1250
1390 1187
1390 1197
1390 1207
1390 1217
1390 1227
1390 1237
