624 1007
624 1017
624 1027
629 992
629 1036
634 982
636 1044
639 972
644 962
646 1045
649 952
656 1045
657 944
662 934
664 1037
670 1025
672 929
675 1005
675 1015
682 929
685 1000
692 929
695 995
702 929
705 995
709 1222
709 1232
709 1242
709 1252
709 1262
709 1272
712 929
714 1207
714 1281
715 995
719 1192
721 1289
722 929
724 1000
724 1010
724 1177
727 1020
729 1162
731 934
731 1293
732 1029
734 1152
736 1039
739 1142
741 934
741 1048
741 1295
744 1132
745 1058
750 939
751 1295
752 1124
753 1065
754 1075
757 1085
757 1114
759 944
759 1095
761 1295
768 949
771 1295
777 954
781 1295
784 962
791 1295
792 969
801 974
801 1295
809 981
811 1295
815 989
820 1290
823 995
825 1140
825 1150
825 1160
825 1170
827 1005
828 1283
830 1179
830 1189
834 1135
835 1198
835 1265
835 1275
837 1009
840 1207
840 1217
840 1227
840 1237
840 1247
843 1130
847 1009
852 1125
857 1009
862 1125
867 1009
872 1125
877 1009
882 1125
887 1009
892 1125
897 1009
902 1125
907 1009
912 1129
917 1009
921 1134
927 1009
931 1138
937 1009
939 1145
947 1009
948 1150
957 1009
957 1155
965 1162
967 1009
972 1170
977 1009
979 1262
979 1272
980 1177
984 1187
984 1197
984 1207
984 1217
984 1227
984 1237
984 1247
987 1009
987 1279
995 1285
996 1014
1005 1019
1005 1287
1015 1022
1015 1290
1019 1032
1024 1041
1025 1051
1025 1290
1030 1060
1032 1070
1034 1295
1037 1079
1040 1089
1044 1295
1045 1098
1045 1160
1045 1170
1045 1180
1045 1190
1045 1200
1050 1209
1050 1219
1052 1289
1053 1104
1054 1155
1058 1225
1060 1280
1062 1109
1064 1155
1065 1233
1065 1270
1070 1242
1070 1252
1072 1109
1074 1155
1080 1163
1082 1109
1089 1168
1090 1178
1092 1109
1094 1188
1094 1198
1094 1208
1094 1218
1095 1228
1100 1237
1102 1109
1104 1247
1109 1256
1112 1109
1114 1265
1119 1274
1121 1104
1124 1283
1129 1292
1131 1104
1137 1299
1139 1017
1141 1104
1144 1026
1145 1305
1147 1009
1149 1035
1149 1045
1149 1055
1149 1065
1149 1075
1149 1085
1149 1095
1154 1310
1156 1004
1163 1315
1165 999
1173 1315
1175 999
1183 1315
1184 994
1192 1320
1194 994
1199 877
1199 887
1199 897
1199 907
1199 917
1199 927
1199 937
1199 947
1202 1320
1204 956
1204 966
1204 976
1204 986
1209 872
1212 1319
1219 871
1222 1314
1225 879
1232 1309
1233 885
1240 893
1240 1295
1245 902
1245 1285
1249 912
1250 1250
1250 1260
1250 1270
1254 921
1255 931
1255 1215
1255 1225
1255 1235
1260 940
1262 950
1265 960
1265 970
1265 980
1265 990
1265 1000
1265 1010
1265 1020
1265 1030
1265 1215
1270 1039
1275 1048
1275 1215
1283 1055
1285 1215
1290 1063
1295 1072
1295 1215
1302 1080
1305 1215
1312 1084
1315 1215
1322 1084
1325 1215
1332 1084
1335 1215
1342 1084
1345 1215
1349 1042
1349 1052
1349 1062
1349 1072
1354 1027
1355 1215
1359 1017
1365 1215
1369 1012
1375 1215
1379 1009
1385 1215
1389 1009
1395 1215
1399 1009
1405 1215
1408 1004
1415 1215
1417 999
1419 957
1419 967
1419 977
1419 987
1424 947
1425 1217
1429 937
1429 1227
1437 1234
1439 932
1444 1242
1449 929
1452 1249
1454 1259
1459 929
1459 1268
1464 1277
1468 924
1470 1285
1478 924
1479 1290
1487 929
1488 1295
1494 937
1498 1295
1502 944
1505 954
1507 1300
1513 960
1517 1304
1520 968
1525 977
1527 1305
1533 984
1537 1309
1543 984
1545 1315
1553 984
1554 1320
1563 984
1564 1320
1573 984
1573 1325
1583 984
1583 1325
1592 1330
1593 984
1602 1330
1603 985
1612 990
1612 1330
1620 997
1620 1035
1620 1045
1620 1055
1620 1065
1620 1075
1622 1085
1622 1330
1624 1007
1625 1017
1625 1095
1627 1105
1631 1325
1637 1109
1640 1320
1646 1114
1648 1313
1655 1119
1655 1305
1660 1128
1660 1295
1665 1137
1665 1285
1672 1145
1673 1278
1677 1154
1678 1268
1680 1164
1680 1240
1680 1250
1685 1173
1685 1183
1685 1193
1685 1203
1685 1213
1685 1223
