319 1007
324 997
327 1014
332 989
334 1022
339 977
344 967
344 1025
349 957
353 1030
357 949
362 939
363 1028
367 929
373 1023
375 921
380 911
380 1010
385 1000
388 904
395 1000
397 899
404 1207
404 1217
404 1227
404 1237
405 1000
406 904
409 1197
409 1246
414 1182
415 1000
416 904
416 1254
419 1172
424 1005
424 1015
424 1025
424 1162
425 909
426 1255
429 1034
429 1044
431 1054
432 1154
433 915
434 1064
434 1074
434 1084
434 1094
434 1104
434 1114
434 1124
434 1134
434 1144
435 1250
440 923
443 1243
448 930
448 1233
453 1223
455 938
455 1200
455 1210
460 947
460 1190
465 956
465 1180
470 1170
471 964
479 971
479 1165
485 979
489 1165
494 984
499 1165
504 984
509 1165
513 989
518 1160
523 989
528 1160
533 989
538 1160
543 989
548 1160
553 989
558 1160
563 989
568 1160
573 989
578 1160
583 989
588 1160
593 989
598 1160
603 989
608 1160
613 989
618 1160
623 989
628 1160
633 989
634 1217
634 1227
634 1237
637 1165
639 1207
642 1244
643 989
644 1173
644 1183
644 1193
650 1250
653 989
660 1250
663 990
670 1250
673 994
680 1250
682 999
690 1245
692 999
698 1238
701 1004
703 1228
705 1165
705 1175
705 1185
705 1195
705 1205
707 1215
710 1009
715 1018
715 1165
720 1027
724 1037
725 1047
725 1057
725 1165
730 1066
730 1076
735 1085
735 1165
745 1089
745 1165
755 1089
755 1165
759 1175
759 1185
759 1195
759 1205
759 1215
759 1225
759 1235
764 1244
765 1089
769 1253
774 1262
775 1089
779 1271
785 1089
786 1279
795 1086
796 1283
805 1081
805 1288
815 1079
815 1292
824 1074
825 1295
834 997
834 1007
834 1017
834 1027
834 1037
834 1047
834 1057
834 1067
835 1295
839 987
844 977
844 1300
852 969
853 1305
861 964
863 1305
870 959
873 1305
874 902
874 912
874 922
874 932
874 942
879 892
882 1300
884 882
889 872
891 1295
899 869
899 1287
904 1277
909 871
909 1267
915 879
915 1255
920 888
920 1100
920 1110
920 1120
920 1130
920 1140
920 1150
920 1160
920 1170
920 1180
920 1190
920 1200
920 1210
920 1220
920 1230
920 1240
928 895
930 1100
935 903
940 912
940 922
940 932
940 1100
945 941
945 951
945 961
945 971
945 981
950 990
950 1100
955 999
960 1008
960 1100
965 1017
970 1026
970 1100
976 1034
980 1100
984 1041
989 1105
993 1046
994 1114
999 1123
1000 1054
1004 1132
1009 1059
1009 1141
1009 1151
1009 1161
1014 1170
1014 1180
1019 1059
1020 1188
1028 1195
1029 1059
1038 1195
1039 1059
1048 1195
1049 1059
1055 1051
1058 1195
1060 1041
1068 1034
1068 1195
1077 1029
1078 1195
1086 1024
1088 1195
1095 1019
1098 1195
1105 1019
1107 1200
1114 982
1114 992
1114 1002
1114 1012
1115 1207
1119 972
1122 1215
1124 962
1124 1225
1129 952
1129 1234
1129 1244
1134 942
1134 1253
1139 1262
1144 937
1145 1270
1154 936
1154 1275
1163 1280
1164 939
1173 1280
1174 939
1183 944
1183 1280
1190 952
1192 1285
1195 961
1198 971
1202 1289
1205 979
1210 988
1211 1294
1215 997
1221 1295
1222 1005
1231 1298
1232 1009
1241 1300
1242 1009
1250 1305
1252 1009
1260 1305
1262 1009
1270 1305
1272 1009
1280 1305
1282 1009
1290 1305
1292 1009
1299 1017
1300 1305
1305 1025
1305 1035
1305 1045
1305 1055
1305 1065
1305 1075
1305 1085
1305 1095
1305 1105
1305 1115
1309 1300
1310 1124
1317 1294
1318 1130
1325 1138
1327 1289
1330 1147
1335 1156
1335 1280
1340 1165
1343 1273
1345 1174
1345 1184
1348 1263
1350 1193
1350 1203
1350 1213
1350 1223
1350 1233
1350 1243
1350 1253
