29 107
37 99
37 114
42 89
44 122
47 79
54 122
55 71
62 114
63 64
64 52
70 105
74 47
79 217
79 227
79 237
80 105
84 51
84 246
87 209
89 122
90 105
92 199
94 54
94 131
94 250
99 140
99 150
99 160
99 170
99 180
99 190
100 240
102 60
105 230
110 67
110 220
115 76
115 200
115 210
121 84
125 94
125 200
134 99
135 200
144 99
144 195
154 99
154 197
164 99
164 195
174 99
174 195
184 99
184 195
194 99
194 195
204 99
204 195
213 200
214 99
214 210
214 227
214 237
220 245
224 99
230 245
233 104
240 247
243 105
247 239
250 200
250 210
250 220
252 110
252 230
260 117
260 200
265 126
265 136
270 145
270 200
272 155
280 200
282 154
284 210
284 220
284 230
284 240
287 250
291 159
292 259
300 265
301 155
309 149
310 267
319 147
320 270
324 102
324 112
324 127
327 139
329 92
330 272
337 84
339 277
347 84
349 52
349 62
349 72
349 277
354 42
359 32
359 275
365 260
369 31
373 253
375 39
380 48
380 165
380 175
380 185
380 195
380 205
380 215
380 225
380 235
380 245
385 57
389 67
390 77
390 87
390 97
390 165
395 106
400 165
401 114
409 121
410 165
415 129
419 170
422 180
423 135
424 190
427 200
432 209
433 139
439 217
443 139
449 215
452 134
457 124
459 215
467 124
469 215
475 116
479 215
484 97
484 107
485 223
489 87
493 230
494 77
494 247
499 238
499 256
502 69
509 260
512 69
518 265
522 69
528 265
531 74
535 84
537 270
540 93
545 102
547 270
553 109
557 274
563 109
565 280
573 109
575 280
583 109
585 280
593 110
595 120
595 130
595 140
595 150
595 160
595 170
595 275
600 179
605 270
609 184
613 263
615 192
620 201
623 211
623 258
625 221
625 231
625 241
