29 117
35 125
39 102
39 112
44 92
45 125
52 84
55 120
57 74
64 115
67 69
69 127
77 69
79 130
79 140
79 150
79 160
84 77
85 168
89 252
89 262
93 175
94 79
94 185
94 195
94 205
94 215
94 225
94 235
97 269
100 87
107 269
109 92
115 100
115 260
120 190
120 200
120 210
120 220
120 230
120 240
120 250
123 106
129 185
130 114
138 190
140 114
148 188
150 114
158 190
160 114
168 190
169 119
178 190
179 119
188 190
189 119
198 190
199 119
207 195
209 119
209 205
209 215
209 225
209 235
209 245
209 255
212 265
219 119
221 270
228 124
231 270
238 125
241 270
248 129
249 262
250 195
250 205
250 215
250 225
250 235
250 245
255 137
260 146
260 156
260 195
263 166
270 195
273 169
280 195
283 169
289 200
289 210
289 220
292 230
293 169
294 240
297 250
299 260
303 169
305 268
312 174
313 275
320 166
320 283
328 159
329 127
329 137
329 147
330 287
334 112
340 290
344 102
348 283
349 47
349 57
349 67
354 99
355 275
357 74
359 37
359 84
363 268
365 250
369 32
370 205
370 215
370 225
370 235
379 36
379 200
380 46
383 56
385 66
388 76
388 195
393 85
395 95
397 105
398 195
402 114
405 124
405 134
405 203
410 143
413 210
415 152
419 162
419 218
420 228
429 164
430 232
438 159
440 235
444 142
449 132
450 235
457 124
459 112
460 235
467 104
470 235
476 99
480 235
486 99
486 243
494 87
494 250
499 77
500 258
509 74
509 263
514 272
519 76
519 281
525 84
529 285
533 90
539 285
540 98
548 104
549 285
558 104
558 290
568 104
568 290
578 104
578 290
587 109
588 288
595 115
595 125
595 135
595 150
595 160
597 170
598 283
600 180
605 189
605 270
610 260
613 195
615 250
620 235
622 200
625 210
625 220
