29 102
34 92
34 111
39 82
41 119
49 72
51 115
59 67
60 110
69 69
69 105
79 69
79 105
84 114
86 124
89 69
94 130
94 140
94 150
94 160
94 170
94 180
94 190
94 200
94 210
94 220
94 230
94 240
94 250
94 260
99 67
100 268
109 66
110 270
115 74
120 265
124 79
130 260
132 85
135 245
140 92
140 195
140 205
140 215
140 225
140 235
147 100
150 195
157 99
160 195
167 99
170 195
177 99
180 195
187 99
190 195
197 99
200 195
207 99
210 195
217 99
220 197
224 207
224 217
224 227
224 237
224 247
224 257
224 267
227 99
230 275
237 99
240 275
247 99
250 275
256 104
260 275
265 109
265 265
270 118
270 128
270 138
270 220
270 230
270 240
270 250
275 147
275 157
275 170
280 220
285 174
290 220
295 174
299 225
299 235
299 247
305 171
307 254
315 166
315 260
319 102
319 112
319 122
319 132
319 142
319 152
325 262
329 99
334 267
338 94
344 270
348 94
353 275
354 52
357 89
359 61
359 71
362 44
363 273
369 32
373 268
378 258
379 29
380 230
380 240
385 220
387 35
390 45
395 54
395 220
400 63
400 73
400 83
405 92
405 220
409 102
414 111
415 121
415 131
415 141
415 220
421 149
425 220
431 149
435 215
439 142
445 215
447 134
449 117
455 210
457 109
465 101
465 210
469 82
475 210
477 74
484 215
484 232
485 66
489 241
493 60
496 249
501 258
502 65
504 268
509 277
512 69
519 280
521 74
528 285
529 81
535 89
537 290
543 95
546 295
553 99
556 295
563 99
566 295
573 99
576 295
583 99
586 295
593 100
595 290
600 108
605 117
605 127
605 137
605 147
605 157
605 285
609 167
613 278
614 176
618 186
618 268
623 195
623 258
625 205
625 215
625 225
625 235
625 245
