24 252
24 262
24 272
24 282
29 291
32 244
36 299
41 239
44 305
44 315
44 325
44 335
44 387
47 345
49 372
49 396
49 406
51 235
54 362
54 415
57 349
59 227
60 423
67 219
68 430
75 211
75 438
79 577
79 587
83 445
85 209
87 569
89 453
89 590
94 202
94 462
94 472
96 564
99 187
99 517
99 527
99 537
99 547
99 590
102 479
104 177
104 489
104 507
109 498
109 590
114 174
119 590
120 182
124 192
129 590
130 200
132 210
135 575
142 214
145 555
145 570
149 582
150 520
150 530
150 540
152 214
155 224
155 505
155 590
157 574
163 230
165 505
165 590
166 569
170 238
174 510
174 532
174 542
174 552
174 562
175 247
175 257
175 267
175 590
179 277
179 519
180 287
184 297
185 590
189 306
195 590
199 309
205 592
209 311
212 584
215 555
215 565
218 316
220 545
225 525
225 535
228 319
230 515
237 314
238 508
244 500
247 314
253 505
256 309
263 505
266 309
272 500
276 309
281 495
285 304
290 490
294 299
300 485
304 299
310 485
314 299
318 478
323 294
328 473
329 577
329 587
333 294
334 481
334 491
334 596
339 500
339 572
342 289
344 600
345 508
349 569
352 289
353 515
354 600
358 564
362 289
362 520
364 600
367 559
371 284
372 524
374 600
375 551
380 289
381 529
383 544
384 597
389 284
390 585
398 289
399 580
408 289
408 585
417 294
418 585
427 294
427 590
436 299
436 585
444 577
445 304
450 450
450 465
450 560
452 475
455 307
455 425
455 435
455 550
460 535
462 479
463 314
463 418
465 405
468 528
470 390
471 484
473 315
473 518
478 508
479 491
480 323
480 385
490 324
490 385
499 329
500 380
508 324
509 375
518 324
519 372
527 319
529 370
537 319
538 365
546 314
547 360
556 314
557 360
565 309
567 359
575 309
577 355
585 306
586 350
595 301
596 350
605 296
605 345
614 340
615 294
624 289
624 337
633 284
634 335
640 276
642 329
648 269
652 324
657 264
662 254
662 319
670 246
670 310
675 236
675 300
683 229
685 295
687 219
690 285
694 207
698 278
700 265
704 202
708 258
712 194
715 240
715 250
722 194
723 233
730 225
731 189
735 215
741 189
743 208
749 196
