64 197
64 207
64 217
69 226
72 189
76 234
77 179
79 147
79 157
79 167
84 240
87 139
94 87
94 97
94 107
94 240
97 134
97 250
102 114
104 86
104 124
107 250
110 94
117 250
119 99
127 105
127 250
134 82
134 92
137 254
139 62
139 72
145 260
149 66
153 76
155 262
160 84
164 267
168 90
169 276
173 99
179 280
179 290
182 104
182 300
184 310
185 114
187 320
189 527
192 329
194 339
194 512
195 117
195 127
195 535
199 348
200 358
203 134
204 509
205 535
209 363
209 373
212 139
214 382
214 509
214 540
219 391
219 401
221 144
224 410
224 507
224 540
227 420
229 151
229 430
229 440
229 450
229 487
229 497
230 161
234 459
234 469
234 540
239 166
244 537
245 174
252 529
253 180
257 519
258 189
259 552
259 562
260 500
265 490
268 190
269 547
269 565
270 475
274 532
275 465
277 195
278 570
279 522
280 450
284 502
284 512
285 440
287 199
288 570
289 455
289 465
289 475
289 485
296 204
298 568
305 209
308 563
313 553
315 209
315 535
325 209
325 525
330 495
330 505
330 515
335 212
335 470
335 480
340 460
343 219
345 445
353 219
355 430
355 440
360 405
360 415
363 219
365 385
365 395
373 219
375 385
383 219
385 385
393 219
395 385
403 219
405 387
413 219
415 390
423 219
425 390
432 224
434 507
435 390
442 224
442 499
442 514
445 385
450 520
451 494
452 219
455 387
459 397
460 520
461 494
462 219
469 400
470 520
471 490
472 219
472 410
477 419
479 429
479 482
480 510
482 219
484 438
484 472
488 503
489 447
489 457
492 219
498 498
502 219
505 490
510 480
511 224
514 512
514 522
518 473
520 530
521 224
524 509
528 468
529 535
530 229
530 435
530 445
530 455
530 501
538 494
539 440
539 450
539 460
539 470
539 480
539 535
540 229
547 529
549 234
552 520
559 234
560 510
568 239
568 503
573 493
575 247
575 415
575 425
575 480
577 435
580 400
580 445
580 455
580 465
583 254
590 380
590 390
592 259
595 355
595 365
599 267
600 277
604 360
604 370
605 286
607 380
614 291
614 388
615 301
615 398
618 311
620 321
620 407
623 331
625 341
625 351
627 415
630 360
630 370
634 423
635 379
635 389
642 430
645 392
645 402
650 411
651 435
659 416
661 435
665 424
