24 317
24 327
29 336
34 312
34 345
42 304
43 350
49 292
52 355
57 284
62 355
65 276
72 355
73 269
81 360
83 269
84 242
84 252
90 365
94 239
99 370
102 245
108 375
110 252
115 261
115 383
118 271
123 390
124 279
130 398
134 281
138 405
140 289
147 410
150 292
155 417
159 297
159 427
159 437
159 447
164 456
167 304
169 465
169 475
172 485
177 304
180 492
184 502
186 309
194 505
195 460
195 470
196 310
200 479
203 510
204 455
205 488
206 309
212 515
213 460
215 492
216 309
217 470
222 515
225 494
226 309
226 475
232 515
235 314
235 497
236 478
239 507
244 307
244 485
250 493
254 304
258 500
260 445
260 455
262 465
264 302
265 508
267 474
269 440
270 484
273 515
274 299
278 435
280 487
283 294
283 515
287 430
288 494
292 289
293 515
294 462
294 472
296 425
298 495
302 284
302 454
303 513
304 475
305 420
305 503
310 446
311 279
314 472
315 415
320 274
320 441
324 470
324 487
325 417
329 427
329 496
330 274
332 479
333 465
334 505
339 269
342 459
342 474
344 505
348 264
350 450
352 469
354 502
355 430
355 440
358 264
360 415
360 461
362 495
365 451
368 264
369 410
369 427
369 437
371 490
377 259
380 485
385 475
387 254
390 465
395 455
397 254
400 445
405 435
406 259
410 425
415 264
420 415
425 262
430 410
435 264
439 405
444 269
447 399
452 275
455 390
462 279
465 385
469 287
474 380
479 291
483 301
484 377
490 309
492 370
499 314
502 370
505 322
512 330
512 374
520 337
520 380
529 342
529 385
537 349
539 385
546 354
548 390
555 359
557 395
564 364
567 395
573 359
577 395
583 359
587 395
593 360
597 394
603 359
607 390
612 354
616 385
621 349
625 380
630 344
634 375
639 337
643 370
649 334
652 365
658 329
661 360
668 329
671 360
678 329
681 363
688 329
691 365
697 334
700 370
706 339
709 375
715 344
718 380
723 350
727 375
730 358
735 367
