24 272
24 282
24 292
24 302
29 311
29 321
32 264
36 329
37 254
44 227
44 237
44 335
53 340
54 224
63 340
64 226
73 340
74 229
83 340
84 229
93 234
93 340
102 345
103 234
111 350
113 234
119 356
123 235
124 365
130 373
133 239
134 507
139 497
140 377
140 515
143 240
147 385
149 494
150 517
153 244
155 392
158 489
160 515
162 400
163 244
164 477
169 408
169 452
169 462
170 515
173 244
174 417
174 427
174 437
180 505
182 239
188 498
192 239
195 490
200 480
202 239
208 473
212 239
213 463
220 455
222 239
230 455
232 239
239 460
242 234
245 425
247 435
248 465
249 475
252 234
253 418
255 483
257 439
262 234
263 415
264 447
265 480
270 455
270 465
272 234
273 415
282 229
283 415
284 467
284 477
292 229
293 413
294 462
294 480
302 224
303 410
303 485
304 459
312 224
313 410
313 485
314 457
322 224
322 449
323 410
323 483
332 224
332 444
333 410
333 478
340 418
340 436
342 224
343 473
352 224
353 468
360 460
361 229
370 455
371 229
380 445
381 229
385 435
390 234
395 430
400 234
405 425
410 237
415 420
420 239
425 415
429 244
435 415
439 246
444 420
449 249
453 425
458 254
463 425
467 259
469 482
469 492
472 430
476 264
479 477
479 495
481 435
484 271
487 469
488 500
491 438
493 276
494 448
494 458
498 500
503 280
507 494
512 285
515 345
515 355
515 365
515 480
517 375
520 385
520 465
522 289
522 395
524 340
525 455
530 402
530 412
530 422
530 432
530 442
531 294
534 340
541 294
543 345
550 299
553 345
560 302
562 340
570 299
572 340
580 299
582 340
590 299
592 340
600 299
601 335
610 299
611 335
620 299
620 330
629 294
630 330
639 294
640 330
649 294
650 330
659 294
660 330
669 294
670 330
678 299
679 335
687 304
688 340
696 309
697 345
704 316
707 349
710 324
715 333
715 343
