19 527
24 517
27 534
29 47
29 57
32 509
34 66
34 76
37 39
37 535
39 85
39 95
39 105
41 504
42 115
44 125
44 135
47 39
47 535
49 144
49 252
49 262
49 272
49 282
51 154
51 500
54 164
54 237
54 291
54 301
56 44
57 534
59 187
59 202
59 222
59 310
59 322
59 482
59 492
60 172
64 51
64 211
64 331
64 341
64 447
64 457
64 467
65 525
69 350
69 360
69 370
69 380
69 390
69 400
69 410
69 420
69 430
70 59
73 518
78 65
80 500
80 510
85 485
88 69
90 470
95 460
98 69
100 445
105 435
107 64
110 425
115 415
116 69
119 532
119 542
120 395
120 405
126 69
127 524
129 390
129 400
129 410
129 545
132 420
134 62
134 430
134 440
134 450
137 460
137 519
139 470
139 480
139 490
139 500
139 545
142 54
148 550
150 46
155 125
155 135
155 145
155 155
155 165
158 39
158 548
160 110
160 174
165 85
165 95
165 183
167 34
168 543
170 70
170 192
170 515
170 525
174 42
175 52
175 440
175 450
175 460
175 470
175 480
175 490
175 500
177 200
180 385
180 420
180 430
182 209
182 395
185 405
190 387
191 214
197 395
200 219
207 399
210 222
217 400
219 227
227 404
229 231
237 405
239 234
247 405
249 236
256 410
259 239
266 410
269 241
276 413
279 244
285 418
289 244
295 422
299 244
305 425
309 244
314 517
314 527
315 425
319 244
322 509
324 430
324 530
329 244
330 438
331 504
333 535
338 445
339 244
341 504
343 535
347 450
349 244
351 500
353 535
355 457
358 249
359 492
362 530
364 462
364 482
368 249
369 471
371 525
374 537
378 249
379 517
379 546
382 529
387 509
388 250
389 550
391 524
395 495
398 254
399 517
399 550
400 485
407 509
408 254
409 480
409 550
414 497
417 259
419 480
419 547
424 537
426 264
430 525
435 269
438 518
443 508
445 272
450 500
454 277
455 415
455 425
455 490
460 400
460 434
463 483
464 281
465 390
465 443
468 473
470 289
470 380
470 452
470 462
478 373
480 292
484 302
488 370
492 309
497 375
499 317
504 307
507 379
509 277
509 287
509 297
514 387
519 276
519 396
524 405
524 415
525 284
529 424
530 293
530 303
535 312
535 322
535 432
540 331
540 341
540 351
540 361
545 370
545 435
547 380
555 387
555 430
559 397
560 407
560 417
