24 227
24 237
32 219
32 244
36 254
42 214
46 258
47 204
52 194
56 260
60 186
66 263
68 179
74 152
74 162
76 265
84 149
86 265
92 155
95 270
100 162
104 275
107 285
109 167
112 294
116 304
119 171
119 314
125 179
125 322
129 332
133 185
134 341
140 193
141 349
148 200
149 355
155 208
155 363
163 370
165 212
169 527
172 375
173 219
174 517
177 534
181 380
182 224
184 512
185 540
189 386
192 224
192 504
194 395
194 492
195 535
199 404
199 417
199 427
199 437
199 447
199 457
199 467
199 477
201 229
204 530
210 520
211 229
218 513
220 480
220 490
220 500
221 229
225 470
229 495
230 460
231 229
231 485
232 505
236 475
239 455
239 465
241 229
241 510
250 505
251 229
255 495
261 229
263 488
265 410
265 420
265 430
265 440
265 450
265 460
265 470
270 400
271 229
278 393
281 229
288 390
291 229
298 390
301 229
308 390
310 224
317 385
320 224
327 385
330 224
337 384
340 221
347 380
350 219
356 375
360 219
366 375
370 216
376 375
380 214
386 375
390 214
396 375
400 214
401 384
406 393
409 209
414 400
419 209
420 408
428 415
429 209
437 420
439 209
439 527
444 536
445 427
447 519
449 209
449 487
449 497
454 432
454 540
457 479
457 504
457 514
459 209
459 441
464 540
466 449
467 479
468 214
472 469
473 535
474 455
478 214
482 529
487 219
487 519
490 345
490 355
490 365
490 375
492 385
495 335
495 505
496 224
497 394
500 325
500 485
500 495
504 402
505 229
508 478
510 320
510 410
510 420
510 460
514 234
515 305
515 429
515 439
515 449
520 295
522 240
529 300
529 310
530 247
535 256
535 318
543 325
544 261
547 335
548 271
550 281
555 342
556 289
560 299
562 350
565 308
567 359
570 317
575 326
576 364
581 334
584 370
589 341
593 375
595 349
600 358
602 380
610 359
611 385
618 365
619 391
626 399
627 370
635 377
636 403
643 384
644 410
650 418
652 389
659 397
660 422
665 405
670 414
