104 232
109 241
112 224
114 250
121 219
123 255
131 215
133 255
140 263
141 214
148 270
151 214
154 278
159 221
159 287
164 296
165 229
169 305
172 315
173 235
177 324
180 243
186 329
188 249
196 333
197 254
199 432
199 442
204 262
204 451
206 335
209 422
209 460
212 254
214 207
214 217
214 227
214 237
216 338
217 414
218 465
219 57
219 67
219 77
219 87
219 97
219 107
219 117
219 127
219 137
222 199
224 37
224 47
224 146
224 344
224 402
226 354
227 189
228 463
229 155
229 165
229 364
229 392
232 29
232 179
234 373
234 383
238 458
241 24
245 445
249 667
249 677
249 687
250 29
254 440
257 659
259 34
259 542
259 552
259 562
259 690
264 440
264 450
264 532
264 571
264 647
265 42
268 695
269 522
269 580
270 458
272 639
274 468
274 478
274 488
274 498
274 508
274 589
274 627
275 44
278 693
279 598
279 608
279 618
285 44
285 685
290 670
295 44
298 663
303 653
305 44
310 645
315 44
315 610
317 620
320 630
320 640
324 39
324 605
333 600
334 39
342 595
344 39
351 590
353 34
360 585
362 29
370 580
372 24
379 575
380 65
380 75
380 85
380 190
380 200
380 210
380 220
382 24
382 95
385 45
385 55
385 105
385 175
385 229
385 239
385 249
385 259
385 269
385 279
385 289
385 583
387 115
389 32
390 125
390 135
390 145
390 155
390 165
390 298
390 308
390 592
395 317
395 327
397 600
399 337
404 346
405 607
408 356
410 366
412 615
416 374
420 384
421 620
425 393
430 402
431 620
435 411
440 420
441 620
445 429
450 438
450 625
455 447
456 633
459 643
463 454
464 652
464 677
464 687
464 697
465 520
465 530
465 540
465 550
465 560
467 570
469 661
470 510
472 449
472 579
472 704
478 503
479 437
479 587
482 705
485 490
487 429
487 594
489 417
490 604
490 614
490 624
492 705
493 483
495 633
497 409
498 473
500 642
502 705
504 652
505 401
505 460
510 450
511 700
512 659
513 394
515 440
515 669
519 692
520 678
522 389
523 433
530 420
532 384
540 415
542 384
550 410
552 379
560 410
562 379
570 410
572 379
580 410
582 374
589 405
591 379
599 402
601 379
609 397
610 384
619 392
