24 647
24 657
24 667
29 676
32 639
34 685
39 447
41 634
43 690
47 439
49 450
49 627
50 698
52 429
58 455
59 624
60 700
62 429
68 455
69 624
70 421
70 700
77 460
79 624
80 419
80 700
87 460
89 470
89 480
89 624
90 416
90 700
92 490
97 499
99 624
100 411
100 700
101 509
109 515
109 624
110 406
110 700
112 525
119 624
120 404
120 700
121 530
129 399
129 536
129 624
129 695
134 545
138 394
139 624
139 692
140 553
147 389
147 685
148 560
149 622
156 384
157 565
157 685
159 617
165 379
167 565
167 684
169 612
174 374
177 564
177 679
179 607
184 374
187 559
187 599
187 674
192 550
194 374
196 594
197 669
199 577
202 550
204 376
204 560
207 665
214 379
216 660
224 379
226 660
232 385
235 655
242 389
245 650
252 389
254 645
262 389
263 640
270 630
271 394
280 620
281 394
290 399
290 615
300 399
300 610
310 399
310 595
310 605
315 585
319 394
325 585
328 389
335 381
335 585
343 374
345 585
350 366
355 585
358 359
359 712
359 722
362 349
365 585
367 704
367 729
370 341
375 580
375 696
375 735
378 334
385 326
385 580
385 694
385 735
393 319
394 575
394 687
395 735
400 311
402 679
404 572
405 735
408 304
410 671
414 570
414 730
417 299
417 580
418 664
422 589
424 727
425 656
427 294
429 597
433 649
434 606
434 722
437 294
437 639
439 615
439 625
442 714
447 289
450 705
457 284
458 698
465 690
467 284
473 683
477 284
480 675
487 284
488 668
495 655
497 284
500 635
500 645
505 570
505 580
505 590
505 600
505 610
505 620
507 284
510 555
515 545
517 284
525 545
526 289
531 553
534 296
534 692
534 702
535 563
539 711
540 572
544 299
544 582
544 592
544 687
549 601
549 715
554 299
554 610
554 682
558 720
559 619
559 629
559 639
559 649
559 659
559 669
564 297
568 720
572 289
578 718
580 281
588 274
588 715
592 264
597 254
597 710
602 244
607 709
609 232
610 535
610 545
610 555
610 565
612 699
615 520
615 574
617 224
620 345
620 355
620 365
620 485
620 495
620 505
620 583
620 670
620 680
620 690
622 375
625 216
625 592
625 602
625 612
625 622
625 632
625 642
625 652
627 384
628 478
630 315
630 325
630 335
630 394
630 404
630 414
630 424
630 434
630 444
630 454
630 464
633 209
635 305
637 199
640 275
640 285
640 295
645 191
648 268
653 184
655 255
660 245
662 179
670 171
670 235
678 164
680 225
688 164
690 215
695 156
700 205
705 151
710 195
715 149
720 190
724 144
730 190
733 139
738 183
742 134
745 175
752 129
755 170
762 129
765 170
772 129
773 163
780 121
780 155
790 116
790 150
798 109
800 140
807 104
810 130
817 104
818 123
