134 222
134 232
134 242
139 212
139 251
144 260
147 204
153 265
156 199
163 265
166 199
172 270
176 195
182 270
186 194
191 275
196 194
201 275
206 194
211 275
216 194
221 275
226 194
231 275
236 194
241 275
246 194
251 275
256 194
261 275
266 194
271 275
276 194
281 275
286 194
291 275
295 189
301 275
305 189
310 280
315 189
320 280
325 189
330 280
335 189
340 280
345 189
350 280
355 189
360 280
365 189
370 280
375 189
380 280
385 189
390 280
395 189
400 280
405 189
410 280
415 189
420 280
425 189
430 280
434 184
439 422
439 432
439 442
439 452
439 462
439 472
439 482
439 492
439 502
439 512
439 522
439 532
439 542
439 552
440 282
444 182
444 357
444 367
444 377
444 387
444 397
444 407
444 561
444 571
444 581
444 591
449 287
449 297
449 307
449 317
449 327
449 337
449 347
449 600
449 610
454 179
454 619
456 629
461 638
464 179
465 648
470 657
474 179
477 665
484 179
485 672
492 680
494 179
502 684
504 179
510 690
514 179
519 695
524 177
528 700
534 174
538 700
544 174
548 700
553 169
558 700
563 169
568 700
573 169
578 700
583 169
588 700
593 169
598 700
603 169
607 705
613 169
617 709
623 169
627 710
633 169
637 714
643 169
647 715
653 169
657 715
663 169
667 715
673 169
677 715
683 169
687 715
693 169
697 715
703 169
707 714
712 174
717 710
721 169
727 710
731 169
737 710
741 169
747 714
750 174
757 710
759 169
766 705
769 171
776 705
779 174
786 705
789 174
796 705
799 174
806 705
809 174
816 708
819 174
825 713
829 174
835 717
839 174
845 720
849 174
855 720
859 174
865 720
869 174
875 720
879 174
885 720
889 174
895 720
899 174
905 720
909 174
915 715
919 174
925 710
929 174
935 710
939 174
945 710
948 179
954 715
958 179
963 720
968 179
973 720
978 179
983 720
987 174
992 725
996 179
1002 725
1006 179
1012 725
1015 174
1022 725
1025 177
1031 720
1035 179
1041 720
1045 179
1050 715
1055 179
1060 710
1064 174
1070 710
1074 174
1080 710
1084 174
1090 710
1094 174
1100 710
1103 179
1110 710
1113 179
1120 710
1123 179
1130 710
1133 179
1140 710
1143 179
1150 710
1153 179
1160 710
1163 179
1170 710
1173 179
1180 710
1183 179
1190 710
1192 174
1200 710
1202 174
1210 710
1212 174
1220 712
1222 174
1230 715
1232 169
1240 715
1242 169
1250 717
1252 169
1260 720
1262 169
1270 720
1272 169
1280 720
1282 169
1290 720
1292 169
1300 720
1302 169
1310 720
1312 169
1320 720
1322 169
1330 720
1332 169
1340 715
1342 169
1350 715
1352 169
1359 720
1362 169
1369 720
1372 169
1379 720
1382 169
1389 720
1392 169
1399 720
1402 169
1409 720
1412 169
1419 720
1422 169
1429 720
1432 169
1439 720
1442 169
1449 720
1452 169
1459 720
1462 169
1469 720
1472 169
1479 720
1482 169
1489 720
1492 169
1499 720
1502 169
1509 720
1512 169
1519 720
1522 169
1529 720
1532 169
1539 720
1542 169
1549 720
1552 169
1559 720
1562 169
1569 720
1572 169
1579 720
1582 169
1589 720
1592 169
1599 720
1602 169
1609 720
1612 169
1619 720
1622 169
1629 720
1632 169
1639 720
1642 169
1649 720
1652 169
1659 720
1662 169
1669 720
1672 169
1679 720
1681 174
1689 720
1691 174
1699 720
1701 174
1709 720
1711 174
1719 720
1721 174
1729 720
1731 174
1739 720
1740 179
1748 715
1750 179
1758 715
1760 179
1768 715
1769 184
1778 715
1779 184
1788 715
1789 184
1798 715
1799 184
1808 715
1809 184
1818 715
1819 184
1828 715
1829 184
1838 715
1839 184
1848 715
1849 184
1858 715
1859 184
1868 715
1869 184
1878 715
1879 184
1888 189
1888 715
1895 197
1897 710
1900 206
1905 215
1905 225
1905 235
1905 245
1905 255
1905 700
1910 264
1910 274
1910 284
1910 294
1910 304
1910 314
1910 324
1910 334
1910 344
1910 354
1910 364
1910 685
1915 373
1915 383
1915 393
1915 403
1915 413
1915 423
1915 433
1915 443
1915 453
1915 463
1915 473
1915 550
1915 560
1915 570
1915 580
1915 590
1915 600
1915 610
1915 620
1915 630
1915 640
1915 650
1915 660
1915 670
1920 482
1920 492
1920 502
1920 512
1920 522
1920 532
