124 177
124 187
124 197
124 207
124 217
124 227
129 236
132 169
136 244
141 164
146 245
151 164
156 245
161 164
166 245
171 164
175 250
181 164
184 245
191 164
193 250
201 164
203 250
211 160
213 250
221 159
223 250
231 159
233 250
241 159
243 250
251 159
253 250
261 159
263 250
271 159
272 255
281 159
282 255
291 159
292 255
301 159
302 255
311 159
312 255
321 159
322 255
331 159
332 254
341 159
342 254
349 152
349 612
351 259
354 572
354 582
354 592
354 602
354 621
359 149
359 265
359 275
359 285
359 295
359 305
359 315
359 325
359 335
359 345
359 355
359 365
359 375
359 385
359 395
359 405
359 415
359 425
359 435
359 445
359 455
359 465
359 475
359 485
359 495
359 505
359 515
359 525
359 535
359 545
359 555
359 630
359 640
362 650
364 660
367 670
369 149
369 680
375 688
379 149
380 697
387 705
389 149
392 714
399 149
399 722
409 149
409 725
418 730
419 149
427 735
428 154
437 739
438 154
447 740
448 154
457 740
458 154
467 740
468 154
477 740
478 154
487 740
488 154
497 740
498 154
507 740
508 154
517 740
518 154
527 740
528 154
537 740
538 154
547 740
548 154
557 740
558 154
567 740
568 154
577 740
578 154
587 740
588 154
597 740
598 154
607 740
608 154
617 740
618 154
627 740
628 154
637 740
638 154
647 740
648 154
657 740
658 154
667 740
668 154
677 740
678 154
687 740
688 154
697 740
698 154
707 740
708 154
717 740
718 154
727 740
728 154
737 740
738 154
747 740
748 154
757 740
758 154
767 740
768 154
777 740
778 154
787 740
788 154
797 740
798 154
807 740
808 154
817 740
818 154
827 740
828 154
837 740
838 154
847 740
848 154
857 740
858 154
867 740
868 154
877 740
878 154
887 740
888 154
897 740
898 154
907 740
908 154
917 740
918 154
927 740
928 154
937 740
938 154
947 740
948 154
957 740
958 154
967 740
968 154
977 740
978 154
987 740
988 154
997 740
998 154
1007 740
1008 154
1017 740
1018 154
1027 740
1028 154
1037 740
1038 154
1047 740
1048 154
1057 740
1058 154
1067 740
1068 154
1077 740
1078 154
1087 740
1088 154
1097 740
1098 154
1107 740
1108 154
1117 740
1118 154
1127 740
1128 154
1137 740
1138 154
1147 740
1148 154
1157 740
1158 154
1167 740
1168 154
1177 740
1178 154
1187 740
1188 154
1197 740
1198 154
1207 740
1208 154
1217 740
1218 154
1227 740
1228 154
1237 740
1238 154
1247 740
1248 154
1257 740
1258 154
1267 740
1268 154
1277 740
1278 154
1287 740
1288 154
1297 740
1298 154
1307 740
1308 154
1317 740
1318 154
1327 740
1328 154
1337 740
1338 154
1347 740
1348 154
1357 740
1358 154
1367 740
1368 154
1377 740
1378 155
1387 740
1388 159
1397 740
1398 159
1407 740
1408 159
1417 154
1417 740
1427 154
1427 740
1437 154
1437 740
1447 154
1447 740
1457 154
1457 740
1467 154
1467 740
1477 154
1477 740
1487 154
1487 740
1496 159
1497 740
1506 159
1507 740
1516 159
1517 740
1526 159
1527 740
1536 159
1537 740
1546 159
1547 740
1556 159
1557 740
1566 159
1567 740
1576 159
1577 740
1586 159
1587 740
1596 159
1597 740
1606 159
1607 740
1616 159
1617 740
1626 159
1627 740
1636 159
1637 740
1646 159
1647 740
1656 159
1657 740
1666 159
1667 740
1676 159
1677 740
1686 159
1687 740
1696 159
1697 740
1706 159
1707 740
1716 159
1717 740
1726 159
1727 740
1736 159
1737 740
1746 159
1747 740
1756 159
1757 740
1765 164
1767 740
1775 164
1777 740
1785 164
1787 740
1795 164
1797 740
1805 164
1807 740
1815 164
1817 740
1825 164
1826 735
1834 169
1835 730
1844 171
1845 725
1853 176
1855 720
1860 184
1864 715
1868 190
1872 709
1875 198
1880 700
1883 205
1887 215
1888 693
1895 222
1895 232
1895 680
1900 241
1900 670
1903 251
1905 650
1905 660
1908 260
1910 270
1910 280
1910 625
1910 635
1915 289
1915 299
1915 309
1915 319
1915 329
1915 339
1915 595
1915 605
1915 615
1920 348
1920 358
1920 368
1920 378
1920 388
1920 398
1920 408
1920 418
1920 428
1920 520
1920 530
1920 540
1920 550
1920 560
1920 570
1920 580
1925 437
1925 447
1925 457
1925 467
1925 477
1925 487
1925 497
1925 507
