94 392
99 401
99 507
99 517
99 527
102 384
107 499
109 317
109 327
109 372
109 405
109 487
109 527
114 336
114 346
114 356
114 467
114 477
117 399
117 519
119 321
122 459
122 509
124 432
124 442
125 329
125 380
125 390
127 499
130 338
130 348
134 429
135 370
135 485
140 349
142 435
143 478
145 370
150 346
150 442
153 473
155 370
159 447
160 341
163 475
165 372
168 334
169 447
172 480
174 287
174 297
174 307
174 317
174 377
174 387
174 412
177 439
179 257
179 267
179 277
179 396
179 421
182 480
189 254
191 485
198 249
200 490
204 232
206 498
214 229
215 503
223 224
223 510
224 132
224 142
224 152
224 162
229 122
229 171
229 181
229 202
229 212
232 515
233 224
234 190
237 114
240 522
245 106
247 530
253 99
257 534
260 91
266 539
270 86
276 540
280 81
286 540
290 76
295 545
300 71
305 547
310 66
315 550
320 64
325 552
330 64
332 560
340 64
342 564
350 64
352 565
360 64
362 565
370 67
372 569
379 72
380 295
380 305
380 315
382 570
387 79
388 321
389 290
392 570
396 84
398 285
398 325
402 570
404 91
405 333
407 280
410 99
412 569
413 340
415 108
415 118
416 275
420 348
422 564
423 125
424 267
428 355
430 133
432 560
434 262
435 142
435 363
439 152
440 250
440 372
441 555
444 161
445 235
447 380
450 169
450 179
450 189
450 550
453 228
455 198
455 208
455 218
455 387
459 545
465 389
469 542
475 389
479 540
484 394
485 530
493 399
495 525
502 404
504 530
509 412
514 530
519 416
524 530
528 421
529 539
531 549
538 424
539 555
548 424
549 555
557 429
559 552
565 535
566 434
575 535
576 430
585 530
586 429
595 434
595 525
603 518
605 437
605 447
605 457
605 485
605 495
605 505
610 466
610 476
