189 522
189 532
189 542
194 512
194 551
194 561
194 571
199 502
199 580
199 590
204 492
204 599
204 609
204 619
204 629
204 639
204 649
209 317
209 327
209 337
209 347
209 357
209 367
209 658
209 668
212 484
214 307
214 376
214 677
214 687
219 385
219 696
219 706
219 716
219 726
219 736
219 746
220 476
222 299
222 395
224 755
224 765
228 469
229 774
230 291
230 402
231 784
234 794
234 804
237 410
237 464
238 284
239 813
244 418
244 452
244 822
247 279
249 427
249 437
249 831
255 271
256 839
259 922
259 932
259 942
259 952
259 962
264 845
264 912
264 971
265 266
269 897
269 980
269 1047
269 1057
269 1067
270 853
272 990
274 887
274 1000
274 1027
274 1037
275 264
275 862
277 1010
277 1074
279 872
284 1082
285 264
294 1085
295 264
304 1085
305 264
313 1090
315 264
323 1090
325 264
332 1095
335 264
342 1095
344 269
352 1095
354 271
362 1095
363 276
372 1095
373 280
380 288
382 1095
390 292
392 1095
395 990
395 1000
397 300
397 1010
400 445
400 455
400 975
402 465
402 1095
405 307
405 425
405 435
405 960
405 1017
407 474
410 316
410 415
410 940
410 950
412 1094
413 1024
414 482
415 325
415 350
415 360
415 370
415 380
415 390
415 400
415 905
415 915
415 925
417 335
420 490
420 895
422 1029
422 1089
425 499
425 509
425 519
425 885
429 1037
430 528
430 538
430 575
430 585
430 825
430 835
430 845
430 855
430 865
430 875
432 1085
435 547
435 557
435 594
438 818
439 1041
440 603
441 1080
445 612
448 813
449 622
449 1044
450 632
451 1080
454 642
455 652
455 780
455 790
455 800
459 1046
460 661
460 770
460 1075
463 671
465 1054
468 680
468 1068
469 765
470 690
470 700
475 709
477 759
480 718
480 728
482 749
485 737
