199 527
204 517
204 536
204 546
204 556
209 507
209 565
212 575
214 327
214 337
214 347
214 357
214 497
217 584
219 312
219 366
219 376
219 487
221 594
224 302
224 385
224 604
224 614
224 624
224 634
224 644
226 654
227 479
229 664
229 702
229 712
229 722
229 732
229 742
230 393
231 674
232 294
234 684
234 751
234 761
234 771
236 474
238 400
239 780
240 286
244 467
244 789
244 799
244 809
245 408
249 818
250 281
252 459
253 415
254 827
258 274
259 423
259 447
262 834
264 432
264 927
264 937
264 947
264 957
267 269
269 842
269 912
269 966
269 976
269 986
269 1047
269 1057
269 1067
274 902
274 995
274 1022
274 1032
277 264
277 849
277 1074
279 892
279 1004
284 857
284 867
284 877
285 1080
287 259
294 1085
297 259
304 1085
307 259
313 1090
317 259
323 1090
326 264
332 1095
336 264
342 1095
346 264
352 1095
355 269
362 1095
365 269
372 1095
373 275
382 280
382 1095
390 287
390 1000
392 1010
392 1095
395 985
399 292
400 970
400 1017
402 1095
405 940
405 950
405 960
407 299
409 1022
410 440
410 450
410 460
410 900
410 910
410 920
410 930
411 1090
414 307
415 425
415 469
415 890
419 316
419 1026
420 370
420 380
420 390
420 410
420 478
420 875
421 1090
423 326
425 336
425 346
425 356
425 399
425 830
425 840
425 850
425 860
425 1034
428 485
430 820
430 1085
432 495
435 505
435 515
435 525
435 1037
440 534
440 544
440 565
440 575
440 585
440 815
440 1080
442 595
445 553
445 1039
447 604
450 614
450 815
450 1080
455 623
455 1042
458 808
460 632
460 642
460 785
460 1075
462 1050
465 651
465 775
465 794
468 1068
470 660
470 1057
472 670
474 770
477 679
484 687
484 770
492 694
493 765
499 702
503 763
507 709
510 730
510 740
510 755
514 717
