24 257
24 267
24 277
24 287
24 297
29 242
29 306
29 316
29 326
29 336
29 346
34 112
34 122
34 132
34 142
34 232
34 355
39 102
39 151
39 364
41 374
42 224
44 160
44 384
44 394
44 404
44 414
44 424
46 434
47 94
47 170
49 444
51 219
54 453
55 86
55 177
55 463
59 212
60 472
62 185
63 79
64 195
64 482
69 547
69 557
69 567
69 577
72 74
72 489
74 537
74 586
74 642
79 497
79 522
79 595
79 605
79 615
79 625
79 651
82 74
84 506
89 655
91 69
98 660
101 69
107 665
111 69
117 665
120 74
127 665
130 74
136 670
140 77
146 670
149 82
156 670
159 86
165 94
166 670
170 580
170 590
170 600
173 100
175 195
175 205
175 215
175 550
175 560
175 570
175 609
175 665
180 108
180 140
180 150
180 180
180 224
180 535
182 160
183 615
185 117
185 127
185 170
185 233
185 525
185 665
190 242
190 485
190 495
190 505
190 515
190 623
194 252
194 660
195 262
195 272
195 282
195 292
195 302
195 475
198 629
200 311
203 321
203 468
204 657
205 331
208 458
208 630
210 340
212 350
213 448
214 652
215 638
217 359
218 438
220 369
225 378
225 388
225 425
230 397
230 407
