189 517
189 527
189 537
189 547
189 557
189 567
189 577
194 507
194 586
194 596
194 606
194 616
194 626
194 636
194 646
199 497
199 655
199 665
199 675
204 317
204 327
204 337
204 347
204 357
204 367
204 487
204 684
206 694
209 307
209 376
209 704
212 479
214 385
214 713
214 723
217 299
219 394
219 732
219 742
219 752
219 762
219 772
221 474
224 781
224 791
225 291
225 402
229 467
229 800
229 810
232 410
233 284
234 819
237 459
240 417
240 827
242 279
245 451
247 425
247 835
249 435
251 274
256 840
259 917
259 927
259 937
259 947
259 957
260 269
264 846
264 907
264 966
264 976
269 264
269 897
269 985
269 1042
269 1052
269 1062
271 854
272 995
274 864
274 874
274 884
274 1032
274 1071
277 1004
279 264
279 1014
281 1079
289 264
289 1085
299 264
299 1085
309 264
309 1085
318 1090
319 264
328 1090
329 264
337 1095
338 269
347 1095
348 270
357 1095
358 274
367 279
367 1095
376 284
377 1095
384 291
385 995
387 1005
387 1095
390 299
390 980
395 970
395 1012
397 1095
398 305
400 435
400 445
400 455
400 955
402 465
403 1019
405 313
405 420
405 945
407 474
407 1094
410 322
410 332
410 342
410 352
410 362
410 372
410 382
410 392
410 410
410 920
410 930
412 1024
414 482
415 401
415 905
417 1089
420 490
420 895
421 1029
425 499
425 509
425 519
425 885
427 1084
430 528
430 538
430 570
430 580
430 590
430 825
430 835
430 845
430 875
431 1029
435 547
435 557
435 599
435 815
435 854
435 864
437 1079
440 608
440 618
441 1029
444 810
445 627
445 637
447 1074
450 646
450 656
450 775
450 785
450 800
450 1034
455 665
457 675
457 1069
458 768
458 1040
460 685
465 694
465 704
465 714
465 760
465 1048
465 1058
470 723
473 753
475 732
475 742
