184 522
184 532
184 542
184 552
184 562
189 512
189 571
189 581
194 502
194 590
194 600
194 610
194 620
194 630
194 640
197 650
199 492
199 660
199 670
204 322
204 332
204 342
204 352
204 362
204 679
204 689
207 484
209 312
209 371
209 698
210 708
214 302
214 380
214 718
215 476
215 728
217 390
219 738
219 748
219 758
219 768
220 778
222 294
223 469
225 397
228 785
230 286
232 405
232 464
232 795
234 805
234 815
237 414
238 279
239 824
240 456
244 422
245 446
245 832
247 274
249 431
252 840
254 932
254 942
254 952
256 269
259 917
259 961
262 844
264 907
264 970
264 980
265 264
269 852
269 897
269 989
269 1037
269 1047
269 1057
269 1067
271 999
274 861
274 871
274 881
274 1022
275 264
276 1008
277 1074
285 264
285 1080
294 1085
295 264
304 1085
305 264
313 1090
315 264
323 1090
325 264
332 1095
335 267
342 1095
345 269
352 1095
355 272
362 1095
364 277
372 1095
374 281
380 289
382 1095
388 295
390 1000
392 1095
395 303
395 455
395 985
395 1009
397 465
400 435
400 445
400 975
402 1095
403 310
404 1014
405 420
405 472
405 960
409 482
410 318
410 365
410 375
410 385
410 395
410 405
410 945
412 1094
414 1016
415 327
415 337
415 347
415 915
415 925
415 935
417 489
420 499
420 509
420 895
420 905
420 1085
423 1021
425 518
425 528
425 575
425 585
425 885
429 1080
430 537
430 547
430 565
430 594
430 825
430 835
430 845
430 855
430 875
430 1029
435 556
435 603
435 864
438 818
438 1075
439 1034
440 612
444 622
445 632
445 810
448 1039
448 1073
449 642
450 652
450 780
452 790
453 803
455 661
455 770
458 671
458 1040
458 1068
460 681
464 765
465 690
465 700
465 1048
465 1060
470 709
470 719
472 759
475 728
475 738
477 749
