29 382
29 392
37 374
39 277
39 287
39 297
39 307
39 317
39 327
39 395
44 247
44 257
44 267
44 336
46 379
48 400
52 239
54 217
54 227
54 340
55 384
57 405
59 207
63 345
64 197
64 389
67 405
72 189
73 345
74 177
74 389
77 405
82 169
82 350
84 389
87 405
90 161
92 350
94 389
97 405
98 154
102 144
102 350
104 389
107 405
112 139
112 350
113 384
116 400
122 139
122 350
123 384
125 395
129 358
129 368
132 134
135 395
142 134
145 395
152 134
155 390
161 129
165 392
171 129
175 390
181 129
184 385
190 124
193 390
194 47
194 57
200 121
202 64
203 390
204 42
210 116
212 65
213 390
214 39
220 117
221 70
223 390
224 39
229 77
229 87
230 116
233 34
233 390
238 110
239 90
242 385
243 34
244 99
252 29
252 385
260 80
260 90
261 380
262 29
265 60
265 70
265 99
265 355
265 365
272 29
274 104
274 350
275 60
282 29
283 345
284 55
284 102
289 37
290 47
293 345
294 104
303 345
304 104
313 345
314 104
323 345
324 104
333 343
334 104
343 340
344 104
353 338
354 106
360 114
363 335
365 170
369 119
370 179
373 163
373 333
379 119
379 174
383 160
383 330
389 119
389 174
393 158
393 330
398 148
399 121
399 176
400 131
403 330
405 250
405 260
405 270
409 174
410 279
412 335
414 245
419 174
420 279
421 330
424 245
429 174
430 282
431 330
433 240
439 174
439 287
440 297
440 307
440 325
442 234
449 174
452 229
459 174
462 225
469 174
471 220
479 174
481 220
489 174
491 218
499 174
501 215
509 174
510 210
518 203
519 174
528 200
529 174
535 190
538 169
545 185
547 164
555 180
557 164
565 180
566 159
573 173
