24 227
24 272
29 207
29 217
29 236
29 246
29 256
29 281
34 290
37 199
42 189
43 295
44 332
44 342
47 179
49 167
52 324
52 349
53 295
59 162
62 300
62 324
62 350
67 154
69 332
72 300
72 354
74 142
77 339
82 134
82 300
82 350
87 334
91 129
92 300
92 350
96 339
100 124
102 300
102 354
106 339
109 119
112 300
112 350
116 339
119 117
122 300
122 350
126 335
129 114
132 300
132 349
134 329
139 111
140 321
142 300
142 344
148 314
149 114
152 344
159 114
162 340
169 114
172 340
179 114
182 339
189 114
192 339
199 114
202 335
204 37
204 47
209 114
212 335
214 32
214 50
219 114
222 334
224 27
224 50
229 59
229 69
229 114
231 79
232 330
234 29
238 109
241 83
242 330
244 29
244 93
252 330
254 29
255 70
257 80
260 45
260 55
260 90
260 100
262 330
264 29
265 109
270 40
272 329
275 106
280 300
280 310
282 320
285 101
289 295
293 94
298 290
303 94
308 290
313 94
318 290
323 94
328 290
333 94
338 290
342 99
348 290
351 104
358 290
360 109
368 290
370 109
370 140
370 150
370 235
370 245
378 290
379 230
380 109
380 140
380 154
380 249
387 285
388 225
390 109
390 135
390 154
390 249
396 280
398 223
400 112
400 135
400 154
400 252
405 121
405 261
405 275
408 220
410 154
417 215
420 154
426 210
430 154
435 205
440 154
445 200
449 149
455 200
459 149
463 193
469 149
473 188
479 149
483 183
489 149
493 178
499 147
503 175
509 149
512 170
518 144
522 169
528 144
532 169
538 144
540 160
547 139
550 160
557 139
560 160
567 139
569 155
576 144
