509 1027
514 1017
514 1036
519 1007
521 1044
527 999
529 782
529 792
529 802
529 812
529 822
529 832
529 842
529 852
529 862
529 872
529 882
531 1048
534 757
534 767
534 891
537 999
539 732
539 742
539 900
541 1050
542 910
544 717
544 1007
549 707
549 1016
551 1050
552 914
554 692
555 1024
559 682
561 1050
562 915
564 672
564 1029
569 662
571 920
571 1053
574 652
574 1029
581 923
581 1055
582 644
584 1029
590 636
591 925
591 1055
594 1029
598 629
600 930
601 1055
604 1029
605 621
610 930
611 1055
614 1029
615 616
619 935
621 1055
623 609
624 1027
628 940
630 601
631 1055
634 1024
638 940
640 596
641 1055
643 1019
647 945
648 589
651 1055
653 1019
657 584
657 945
660 1050
662 1014
665 576
666 950
670 1006
670 1050
673 569
676 950
678 999
679 960
679 970
679 980
679 1045
682 564
689 1042
690 556
699 1040
700 551
708 1035
710 549
718 1035
719 544
728 1035
729 544
738 1035
739 544
748 1035
749 544
758 1035
759 544
768 1035
769 544
778 1035
779 544
788 1035
789 544
798 1035
799 544
804 422
808 1035
809 412
809 544
812 429
817 404
818 539
818 1033
820 435
827 399
828 539
828 1030
830 435
837 399
837 534
838 1030
840 435
846 394
847 534
848 1030
849 477
850 435
855 389
857 469
857 484
857 529
858 1028
859 440
859 450
864 384
865 490
867 529
868 1025
874 382
874 495
874 505
874 515
878 1023
884 379
888 1020
894 379
897 1015
900 440
900 450
904 379
905 459
906 1010
909 445
910 495
912 505
914 379
914 454
914 1002
915 960
915 970
915 980
915 990
917 514
918 440
920 490
920 524
924 381
924 456
925 955
927 434
929 529
930 389
930 464
930 480
935 398
935 408
935 418
935 955
939 529
945 955
948 524
955 955
958 524
965 955
968 524
975 955
978 524
985 955
988 524
995 955
998 524
1004 950
1008 524
1014 950
1018 524
1024 950
1028 524
1034 950
1038 524
1043 945
1048 524
1053 943
1057 519
1063 940
1066 524
1073 940
1076 524
1083 940
1084 531
1090 539
1090 549
1090 559
1092 935
1099 564
1100 630
1102 640
1102 935
1109 564
1109 625
1111 930
1112 644
1119 564
1119 625
1119 652
1121 930
1129 564
1129 625
1129 654
1131 930
1138 569
1138 620
1139 654
1141 930
1145 577
1145 610
1148 649
1150 586
1150 596
1151 930
1158 649
1161 930
1168 649
1170 925
1178 649
1180 790
1180 800
1180 810
1180 820
1180 830
1180 925
1188 649
1190 785
1190 834
1190 925
1198 649
1199 780
1199 829
1199 920
1207 774
1207 835
1208 649
1209 920
1215 765
1215 842
1215 852
1217 914
1218 649
1220 861
1220 871
1225 760
1225 900
1226 879
1228 649
1230 889
1234 755
1238 649
1244 752
1248 649
1252 744
1258 649
1262 739
1268 649
1272 735
1278 649
1281 730
1288 649
1290 725
1298 649
1299 720
1308 649
1308 715
1318 649
1318 713
1328 649
1328 708
1338 649
1338 703
1348 649
1348 700
1357 695
1358 649
1366 690
1367 644
1375 685
1377 644
1384 680
1386 639
1394 677
1395 634
1404 675
1405 631
1413 670
1415 629
1422 665
1424 634
1431 660
1432 640
1439 652
