404 862
404 872
404 882
404 892
404 902
404 912
404 922
404 932
404 942
409 847
409 951
414 827
414 837
414 960
419 817
423 965
424 802
429 792
432 970
437 784
442 774
442 970
449 762
452 974
454 752
454 1067
459 742
459 1057
459 1076
462 975
464 1047
466 1084
467 734
472 724
472 975
474 1042
476 1085
480 716
482 975
484 1041
486 1085
488 709
492 975
493 1046
495 701
496 1085
500 691
500 1054
501 980
505 1063
506 1085
508 684
511 980
513 1070
515 676
516 1085
521 980
523 669
524 1072
526 1085
531 980
532 664
532 1064
536 1085
540 656
541 983
542 1064
546 1085
548 649
551 985
552 1059
556 1085
557 644
561 985
562 1059
566 639
566 1085
571 985
572 1059
575 634
576 1085
581 985
582 1059
584 627
586 1085
591 985
591 1054
594 622
596 1085
600 990
601 1054
604 617
606 1085
610 990
611 1054
614 614
615 1080
620 990
620 1049
623 609
625 1080
629 1042
630 990
633 609
635 1080
639 1037
640 990
643 609
645 1080
649 1034
650 990
653 609
655 1080
659 995
659 1005
659 1015
659 1025
663 609
665 1075
673 609
675 1075
683 609
685 1075
693 609
694 1070
703 609
704 1070
713 609
714 1070
723 609
724 1067
733 609
734 1065
743 609
744 1065
753 609
754 1065
763 609
764 1065
773 609
774 477
774 487
774 497
774 1065
779 467
779 506
783 609
784 515
784 1065
789 462
790 523
793 609
794 1065
799 459
800 525
803 609
804 1062
809 459
810 525
813 609
814 1060
819 459
819 547
819 557
820 525
823 609
824 1060
827 539
829 459
829 560
833 609
834 1057
838 565
839 459
839 575
839 585
839 595
844 1055
849 459
854 1055
859 459
863 1050
869 459
873 1050
875 500
877 510
879 459
880 520
880 530
880 540
880 550
883 1050
884 495
885 559
889 459
890 568
892 1045
894 495
899 459
900 569
902 1044
903 490
909 461
910 480
910 569
912 1040
915 469
920 569
921 1035
930 569
931 1035
939 1027
940 569
945 975
945 985
945 995
945 1005
945 1015
950 569
955 970
960 569
965 970
970 569
975 970
980 569
985 970
990 569
995 970
999 574
1005 970
1009 576
1015 970
1018 581
1024 965
1028 585
1034 965
1035 593
1044 965
1045 597
1054 962
1055 599
1064 960
1065 599
1074 960
1075 599
1084 957
1085 599
1094 955
1095 599
1095 660
1095 670
1095 680
1095 690
1104 955
1105 602
1105 660
1105 694
1114 952
1115 604
1115 660
1115 694
1115 850
1115 860
1115 870
1115 880
1124 655
1124 950
1125 604
1125 694
1125 850
1125 884
1134 655
1134 845
1134 879
1134 950
1135 604
1135 694
1143 840
1144 655
1144 879
1144 950
1145 604
1145 694
1153 840
1153 945
1154 655
1154 689
1154 881
1155 607
1160 889
1160 935
1162 835
1163 650
1164 689
1165 609
1165 898
1165 908
1165 918
1172 645
1172 835
1174 614
1174 689
1181 640
1181 830
1182 620
1184 687
1185 630
1191 830
1194 682
1201 830
1204 679
1211 830
1214 679
1220 825
1224 679
1230 825
1234 677
1240 825
1244 674
1250 825
1254 674
1260 820
1264 674
1270 820
1274 674
1279 815
1283 669
1289 815
1293 669
1298 810
1303 669
1307 805
1313 669
1317 805
1323 669
1326 800
1333 669
1335 795
1342 664
1345 790
1352 664
1355 785
1362 664
1365 785
1372 664
1374 780
1382 664
1382 774
1392 664
1392 769
1402 664
1402 764
1412 664
1412 759
1422 664
1422 754
1432 664
1432 749
1440 740
1442 664
1450 735
1452 664
1460 735
1462 659
1469 730
1472 659
1477 724
1481 654
1487 719
1491 654
1497 714
1500 649
1507 710
1510 646
1516 705
1520 644
1526 705
1530 644
1535 700
1540 644
1544 695
1550 644
1554 695
1560 644
1563 690
1570 644
1573 690
1580 647
1582 684
1587 655
1590 665
1590 675
