14 162
14 182
19 171
24 159
24 185
33 164
34 185
39 132
39 142
39 194
40 156
41 204
46 213
47 124
48 149
54 219
57 119
62 225
67 119
71 230
74 107
81 230
82 99
90 225
92 99
100 91
100 225
108 84
109 72
109 220
118 215
119 71
122 225
125 79
130 232
135 79
137 240
144 84
147 244
154 81
157 244
164 79
167 244
173 84
177 240
182 79
186 235
190 225
192 79
200 215
202 79
205 205
212 79
214 200
219 37
219 67
224 52
224 200
229 34
234 200
239 32
243 195
249 31
253 195
259 29
263 195
269 29
273 195
279 26
283 195
289 27
293 195
299 24
303 195
309 24
313 195
319 24
323 195
328 19
332 190
338 19
339 198
344 207
348 19
350 215
358 19
359 220
368 19
368 225
378 19
378 225
387 220
388 19
396 215
398 19
405 210
408 19
410 200
418 19
420 200
424 210
428 19
430 218
438 19
438 225
447 230
448 19
456 235
458 19
466 235
468 19
476 235
478 19
485 230
488 19
493 223
498 20
500 215
508 24
508 208
510 190
515 70
515 85
518 25
520 35
520 45
520 55
520 94
520 190
525 180
530 94
534 175
535 150
540 94
540 104
540 114
540 124
540 134
543 180
545 154
553 178
555 157
555 167
