24 1217
24 1227
29 1197
29 1207
32 1234
34 1177
34 1187
39 1092
39 1102
39 1112
39 1122
39 1132
39 1142
39 1152
39 1162
41 1239
44 1072
44 1082
49 1062
51 1243
54 1047
59 1027
59 1037
60 1248
64 992
64 1002
64 1012
69 967
69 977
70 1250
74 952
79 772
79 782
79 917
80 1252
82 944
84 762
84 791
84 801
84 811
84 821
84 831
84 841
84 851
84 861
84 871
84 881
84 891
84 901
84 926
89 177
89 187
89 737
89 747
90 1255
94 127
94 137
94 147
94 157
94 167
94 196
94 206
94 712
94 722
99 102
99 112
99 215
99 225
99 235
99 245
99 687
99 697
100 1255
102 255
104 92
104 265
104 275
104 285
104 297
104 307
104 317
104 327
104 347
104 357
104 367
104 392
104 402
104 412
104 422
104 492
104 502
104 672
109 67
109 77
109 336
109 376
109 431
109 441
109 451
109 461
109 471
109 481
109 511
109 521
109 531
109 541
109 551
109 561
109 571
109 581
109 591
109 601
109 611
109 621
109 652
109 662
110 1255
114 630
114 640
119 62
120 1255
127 54
130 1255
136 49
140 1257
144 42
150 1260
154 39
160 1262
163 34
170 1265
173 34
174 1275
180 1283
182 29
184 1293
184 1303
184 1313
189 1322
192 29
194 1331
199 1340
199 1350
202 29
202 1360
209 1368
212 29
214 1377
219 1386
221 24
224 1395
229 1404
231 24
234 1413
239 1422
241 24
244 1431
251 24
251 1439
259 1445
261 24
264 1454
270 1462
271 24
277 1470
281 24
287 1474
290 19
294 1482
300 19
304 1485
309 1494
310 19
317 1500
319 24
327 1504
329 22
334 1512
339 19
344 1515
349 19
353 1520
359 19
362 1525
369 19
371 1530
379 19
381 1533
389 19
391 1535
399 19
400 1540
408 14
410 1540
418 14
419 1545
428 14
429 1545
438 14
439 1545
448 14
449 1545
458 14
459 1545
468 14
469 1545
478 14
479 1545
488 14
489 1545
498 14
499 1545
508 14
509 1545
518 14
519 1545
528 14
528 1540
537 9
538 1538
547 9
548 1535
557 9
558 1533
567 9
568 1530
577 9
578 1530
587 9
588 1530
595 1515
597 9
605 1515
607 9
610 1505
617 9
620 1505
625 1495
627 9
635 1490
637 9
645 1485
647 9
653 1478
657 9
663 1473
667 9
670 1460
677 9
678 1453
685 1445
687 9
693 1438
697 9
698 1428
705 1415
707 9
710 1405
715 1395
717 9
723 1388
725 1375
727 9
730 1365
735 1355
736 4
740 1340
745 1325
746 4
750 1315
755 1295
755 1305
756 4
765 9
765 1295
775 9
775 1295
785 9
785 1295
795 9
795 1295
805 9
805 1295
815 9
815 1295
824 1300
825 9
834 1300
835 9
844 1297
845 9
854 1295
855 6
864 1295
865 4
873 1290
875 4
882 1285
884 1295
885 4
889 1304
894 1313
895 7
899 1322
904 1331
905 9
909 1340
912 1350
914 4
920 1357
924 4
927 1365
932 1374
934 4
940 1380
944 4
946 1388
954 4
955 1393
963 1400
964 4
972 1405
974 4
980 1412
984 4
989 1417
994 4
997 1424
1004 4
1005 1430
1014 4
1014 1435
1023 1440
1024 4
1032 1445
1034 4
1042 1445
1044 4
1051 1450
1054 4
1061 1453
1064 4
1071 1455
1074 4
1081 1455
1084 4
1091 1458
1094 4
1101 1460
1104 4
1111 1460
1114 4
1121 1460
1124 4
1131 1460
1134 4
1141 1460
1144 4
1151 1460
1154 4
1161 1460
1164 4
1171 1460
1174 4
1180 1455
1184 4
1190 1455
1193 9
1200 1455
1203 9
1210 1450
1213 9
1220 1445
1223 9
1230 1445
1233 9
1240 1445
1243 9
1248 1438
1253 9
1258 1435
1263 9
1267 1430
1273 9
1276 1425
1283 9
1285 1420
1293 9
1294 1415
1300 1405
1303 9
1310 1395
1313 9
1320 1395
1323 9
1325 1385
1333 9
1335 1385
1340 1370
1343 9
1348 1363
1353 9
1353 1353
1360 1345
1363 9
1368 1338
1373 9
1373 1328
1380 1320
1383 9
1385 1305
1393 9
1395 1305
1403 9
1405 1305
1410 1290
1413 9
1420 1290
1423 9
1430 1290
1433 9
1440 1290
1443 9
1450 1290
1453 9
1460 1290
1463 9
1470 1292
1473 10
1480 1295
1483 14
1490 1295
1493 14
1500 1295
1503 14
1509 1290
1513 14
1518 1295
1523 14
1528 1295
1533 14
1538 1295
1543 14
1548 1295
1553 14
1558 1295
1563 14
1568 1295
1573 14
1578 1295
1583 14
1588 1295
1593 14
1598 1295
1602 19
1607 1300
1612 19
1617 1300
1622 19
1627 1300
1632 19
1637 1300
1642 19
1647 1300
1652 19
1657 1300
1662 19
1667 1300
1672 19
1677 1300
1682 19
1687 1300
1691 24
1697 1300
1700 19
1707 1300
1710 19
1717 1300
1720 19
1727 1300
1730 22
1737 1300
1740 24
1744 1308
1750 24
1752 1315
1760 24
1762 1315
1770 24
1770 1305
1779 29
1780 1305
1789 29
1790 1305
1799 29
1800 1305
1809 29
1810 1305
1819 29
1820 1305
1829 29
1830 1305
1839 31
1840 1305
1849 34
1850 1305
1859 34
1860 1305
1869 34
1870 1305
1879 34
1880 1305
1889 34
1890 1305
1898 39
1899 1310
1908 39
1909 1310
1918 39
1919 1310
1928 39
1929 1310
1938 40
1939 1310
1948 44
1949 1310
1958 44
1959 1310
1968 44
1968 1315
1978 44
1978 1315
1987 49
1988 1315
1997 49
1998 1315
2007 49
2008 1315
2017 49
2018 1313
2027 49
2028 1310
2037 49
2038 1310
2046 54
2048 1310
2056 54
2058 1310
2066 54
2068 1310
2076 54
2078 1310
2085 59
2088 1310
2095 59
2098 1310
2105 62
2108 1310
2115 64
2118 1310
2125 64
2128 1310
2135 64
2138 1310
2145 67
2148 1310
2155 69
2158 1310
2165 69
2167 1305
2175 72
2177 1305
2185 74
2187 1305
2195 74
2197 1305
2204 79
2207 1305
2214 79
2217 1305
2224 81
2226 1300
2234 84
2236 1300
2244 84
2246 1300
2253 89
2256 1300
2263 89
2266 1300
2270 1290
2272 94
2280 1290
2282 94
2290 1285
2292 94
2300 1285
2301 99
2310 1280
2311 99
2315 310
2320 104
2320 230
2320 240
2320 250
2320 260
2320 270
2320 280
2320 319
2320 329
2320 339
2320 349
2320 359
2320 369
2320 379
2320 389
2320 399
2320 409
2320 419
2320 429
2320 439
2320 1280
2323 303
2325 215
2325 289
2329 444
2329 1275
2330 104
2335 210
2339 109
2339 444
2339 1275
2344 205
2347 1269
2349 111
2349 444
2349 1279
2349 1289
2349 1299
2353 200
2354 422
2354 432
2354 1308
2357 1265
2359 114
2362 414
2362 1315
2363 200
2369 116
2371 409
2372 1319
2373 200
2375 435
2379 119
2380 444
2381 409
2382 1320
2383 200
2385 435
2389 119
2390 444
2391 409
2392 1320
2393 200
2395 435
2398 124
2400 414
2400 424
2400 444
2401 1325
2403 200
2408 125
2410 444
2411 1325
2413 200
2418 129
2420 444
2421 1325
2423 200
2427 134
2430 444
2431 1325
2433 200
2437 134
2439 449
2441 1325
2443 200
2446 139
2448 444
2451 1325
2453 200
2456 139
2458 444
2460 1330
2463 200
2465 144
2467 449
2469 1335
2469 1345
2469 1355
2473 200
2474 149
2474 1364
2474 1374
2476 1384
2477 449
2482 155
2483 200
2484 1390
2487 449
2487 1400
2492 159
2492 1409
2493 200
2494 1419
2497 449
2499 167
2500 1427
2502 194
2504 1437
2504 1447
2505 175
2507 449
2509 1456
2516 1464
2517 449
2521 1473
2525 1483
2527 449
2530 1492
2537 449
2539 1497
2544 1506
2547 449
2549 1515
2555 1523
2557 449
2564 1528
2567 449
2569 1537
2577 449
2577 1544
2584 1552
2587 449
2589 1561
2597 449
2599 1565
2605 1573
2607 449
2613 1580
2617 449
2622 1585
2627 449
2631 1590
2637 449
2639 1596
2647 449
2649 1600
2655 1608
2657 449
2665 1610
2667 449
2674 1615
2677 449
2683 1620
2687 449
2692 1625
2697 449
2701 1630
2707 449
2711 1633
2717 449
2719 1640
2727 449
2728 1645
2737 449
2737 1650
2747 449
2747 1650
2757 449
2757 1650
2767 449
2767 1654
2777 449
2777 1655
2787 449
2787 1659
2797 449
2797 1660
2807 449
2807 1660
2817 449
2817 1660
2827 449
2827 1660
2837 449
2837 1660
2847 449
2847 1660
2857 449
2857 1660
2867 449
2867 1660
2877 449
2877 1659
2887 449
2887 1655
2897 449
2897 1655
2906 1650
2907 449
2916 1650
2917 449
2925 1645
2927 449
2935 1640
2937 449
2943 1633
2947 449
2953 1630
2957 449
2962 1625
2967 449
2971 1620
2977 449
2980 1615
2986 454
2990 1610
2996 454
3000 1605
3006 454
3010 1600
3016 454
3020 1595
3026 454
3030 1585
3036 454
3040 1580
3046 454
3048 1573
3055 459
3055 1560
3065 459
3065 1555
3070 1545
3074 432
3074 442
3075 459
3078 1538
3079 422
3085 1530
3089 419
3090 1520
3095 1510
3099 419
3100 1500
3108 1493
3109 419
3113 1483
3118 414
3118 1473
3123 1463
3125 1450
3128 414
3134 1445
3137 419
3143 1450
3146 424
3147 1460
3155 1467
3156 424
3160 465
3164 1472
3165 429
3168 458
3170 438
3170 448
3170 469
3172 1479
3178 475
3179 1487
3187 480
3187 1494
3195 487
3196 1499
3203 494
3204 1505
3210 1513
3212 499
3219 507
3220 1517
3225 515
3229 1522
3233 521
3235 531
3239 1525
3244 536
3248 546
3248 1530
3253 555
3257 1535
3260 563
3265 572
3265 582
3265 592
3265 620
3266 1540
3269 602
3270 629
3270 639
3276 1540
3279 634
3282 624
3285 1545
3290 616
3294 1550
3298 609
3304 1550
3307 604
3314 1550
3317 604
3323 1555
3327 599
3333 1555
3337 599
3342 1560
3347 599
3352 1560
3357 599
3362 1560
3367 599
3372 1560
3376 594
3382 1564
3386 594
3392 1565
3396 590
3402 1564
3406 589
3412 1560
3415 594
3422 1560
3425 594
3432 1560
3434 599
3440 607
3442 1560
3447 615
3450 625
3452 1560
3455 634
3460 643
3461 1555
3465 652
3465 662
3470 671
3470 681
3470 1550
3475 690
3475 700
3475 710
3475 720
3475 730
3479 1545
3480 739
3489 1545
3490 739
3499 1542
3500 742
3509 747
3509 1537
3517 1529
3519 751
3522 1520
3529 754
3531 1515
3539 756
3540 1510
3545 764
3549 1505
3555 764
3558 1500
3563 770
3568 1498
3573 774
3575 1490
3583 775
3585 1485
3592 780
3593 1478
3597 789
3600 1470
3605 965
3607 789
3608 1463
3613 1453
3614 797
3615 970
3620 980
3620 1445
3624 801
3625 989
3625 1435
3630 809
3630 980
3630 998
3633 1428
3635 1007
3639 985
3640 812
3640 1420
3642 1015
3645 1410
3647 820
3647 1024
3648 990
3650 1034
3653 1403
3655 827
3655 998
3658 1040
3658 1393
3660 836
3660 1050
3660 1380
3662 1060
3665 1000
3665 1370
3666 844
3667 1069
3670 854
3670 1079
3670 1355
3675 1002
3675 1088
3678 860
3678 1348
3680 1097
3680 1107
3680 1325
3680 1335
3685 868
3685 1005
3685 1116
3685 1126
3685 1305
3685 1315
3690 1135
3690 1145
3690 1155
3690 1285
3690 1295
3692 1165
3693 875
3695 885
3695 895
3695 1005
3695 1175
3695 1215
3695 1240
3695 1250
3695 1260
3695 1270
3697 1185
3700 904
3700 1195
3700 1205
3700 1224
3705 913
3705 1000
3710 922
3710 932
3710 955
3710 990
3712 965
3715 941
3715 975
