224 202
224 212
229 221
229 231
229 241
229 251
229 261
232 194
234 182
234 270
234 280
234 290
234 300
234 310
237 320
239 330
242 174
244 339
244 349
244 359
244 369
244 379
244 389
244 399
244 409
249 418
249 428
249 438
249 448
249 458
250 166
254 467
254 477
254 487
254 497
254 507
259 171
259 516
259 526
259 536
259 546
259 556
259 667
259 677
264 565
264 575
264 657
265 179
269 584
269 594
269 642
269 680
270 188
271 604
274 614
274 624
275 197
275 207
275 217
275 227
275 237
275 247
275 257
275 267
279 680
280 276
280 286
283 296
285 306
285 316
289 227
289 237
289 680
291 324
294 177
294 187
294 197
294 207
294 217
294 246
294 256
294 266
294 276
295 334
299 107
299 117
299 127
299 137
299 147
299 157
299 167
299 285
299 295
299 305
299 315
299 680
307 99
309 680
315 91
319 680
320 81
328 74
329 680
337 79
339 680
344 87
345 160
345 170
345 180
345 190
345 200
345 210
345 220
345 230
349 96
349 680
350 106
350 116
350 126
350 136
350 146
350 239
350 249
350 259
358 265
359 680
363 274
368 675
369 192
369 202
369 212
369 222
369 232
369 242
369 252
369 262
374 172
374 182
378 675
379 137
379 147
379 157
384 67
384 77
384 87
384 97
384 107
384 117
384 127
388 675
392 59
398 675
400 51
408 44
408 675
415 36
418 675
424 41
428 675
430 49
430 190
430 200
430 210
430 220
430 230
430 240
430 250
430 260
430 270
430 280
435 58
435 95
435 105
435 115
435 125
435 135
435 145
435 155
435 165
435 175
435 289
438 675
440 67
440 77
440 276
448 675
449 212
449 222
449 232
449 242
449 252
449 262
454 107
454 117
454 127
454 137
454 147
454 157
454 167
454 177
454 187
454 197
458 675
459 82
459 92
468 673
469 72
474 665
477 64
480 74
480 655
485 83
488 648
493 90
495 100
495 640
497 110
505 117
505 127
505 137
505 147
505 220
505 230
505 635
510 156
510 166
510 176
510 186
510 196
510 206
510 239
510 249
510 259
510 269
510 279
510 289
510 299
510 309
510 319
510 329
513 628
515 338
515 348
515 358
515 368
515 378
519 620
520 387
525 396
527 614
531 404
535 414
535 424
535 600
543 430
545 590
547 440
552 449
553 583
560 575
562 449
565 565
572 449
573 558
580 550
582 444
590 436
590 545
598 429
598 538
604 417
605 525
609 407
610 515
617 399
618 508
619 387
620 495
627 379
630 485
634 367
638 478
642 359
644 470
652 354
652 464
657 454
660 346
665 440
670 344
670 430
675 420
680 344
680 410
685 395
690 344
690 385
695 353
695 363
695 373
