369 2242
369 2252
374 2217
374 2227
375 2260
379 2192
379 2202
384 2172
384 2182
385 2260
389 2142
389 2152
389 2162
394 2112
394 2122
394 2132
394 2265
399 2092
399 2102
404 2062
404 2072
404 2082
404 2265
409 2037
409 2047
414 2017
414 2027
414 2265
419 1992
419 2002
424 1967
424 1977
424 2267
429 1947
429 1957
434 1927
434 1937
434 2270
439 1902
439 1912
444 1882
444 1892
444 2270
449 1862
449 1872
454 1842
454 1852
454 2270
459 1827
463 2275
464 1807
464 1817
469 1792
473 2275
474 1772
474 1782
479 1752
479 1762
483 2275
484 1737
489 1722
492 2280
494 1707
499 1692
502 2279
504 1677
509 1662
512 2280
514 1647
519 1632
522 2280
524 1622
529 1607
532 2284
534 1597
539 1582
542 2284
544 1572
549 1557
552 2285
554 1547
559 1532
562 2285
564 1522
569 1512
572 2289
574 1502
579 1492
582 2289
584 1482
589 1467
592 2290
594 1457
602 1449
602 2290
607 1439
609 1427
612 2290
617 1419
622 1409
622 2290
627 1399
632 1389
632 2290
639 1377
641 2295
644 1367
649 1357
651 2295
657 1349
661 2295
662 1339
669 1327
671 2298
674 1317
681 2298
682 1309
687 1299
691 2298
695 1291
700 1281
701 2300
708 1274
711 2300
712 1264
719 1252
721 2300
727 1244
731 2303
734 1232
741 2303
742 1224
750 1216
751 2305
755 1206
761 2305
763 1199
769 1187
771 2305
777 1179
781 2305
785 1171
790 1161
791 2305
799 1152
800 2310
807 1144
810 2310
815 1136
820 1126
820 2310
830 1121
830 2310
835 1111
840 2310
843 1104
850 1096
850 2310
858 1089
859 2315
865 1081
869 2315
873 1074
879 2315
880 1066
888 1059
889 2315
895 1051
899 2317
903 1044
909 2320
910 1036
918 1029
919 2320
925 1021
929 2320
933 1014
939 2320
942 1009
947 999
949 2322
956 994
959 2325
964 987
969 2325
972 979
979 2325
980 971
988 964
989 2325
997 959
999 2325
1005 951
1008 2330
1013 944
1018 2330
1022 939
1028 2330
1030 931
1038 924
1038 2330
1045 916
1047 2335
1055 911
1057 2335
1063 904
1067 2335
1070 896
1077 2335
1080 891
1087 2335
1088 884
1095 876
1097 2339
1105 871
1107 2339
1113 864
1117 2340
1120 856
1127 2340
1128 849
1137 844
1137 2340
1145 836
1147 2344
1153 829
1157 2340
1162 824
1166 2345
1170 816
1176 2345
1178 809
1185 801
1186 2345
1195 796
1196 2345
1203 789
1205 2350
1210 781
1215 2350
1218 774
1225 766
1225 2350
1234 757
1235 2350
1244 752
1245 2350
1252 744
1255 2350
1260 736
1265 2350
1268 729
1274 2355
1275 721
1283 714
1284 2355
1290 706
1294 2355
1298 699
1304 2355
1305 691
1313 684
1314 2355
1320 676
1324 2355
1328 669
1334 2355
1335 661
1343 654
1343 2360
1350 646
1353 2360
1358 639
1363 2360
1365 631
1373 624
1373 2360
1380 616
1383 2360
1388 609
1392 2365
1394 597
1402 589
1402 2364
1410 581
1412 2365
1418 574
1422 2365
1425 566
1432 2365
1433 559
1440 551
1442 2365
1448 545
1452 2365
1455 553
1462 2365
1463 560
1470 568
1472 2365
1478 575
1482 2365
1485 583
1492 2365
1493 590
1500 598
1502 2365
1508 605
1512 2365
1515 613
1522 2365
1523 620
1530 628
1532 2369
1538 635
1542 2369
1543 644
1550 652
1552 2369
1557 660
1562 2365
1565 667
1572 675
1572 2365
1580 682
1582 2365
1584 692
1592 699
1592 2365
1599 707
1602 2365
1604 716
1610 724
1612 2365
1618 730
1622 740
1622 2369
1630 747
1632 2365
1635 756
1641 764
1642 2365
1645 774
1652 2365
1653 780
1660 788
1662 2365
1665 797
1670 806
1672 2365
1676 814
1680 824
1682 2365
1685 833
1692 2365
1693 840
1697 850
1702 859
1702 2365
1709 867
1712 2365
1714 876
1718 886
1722 2364
1725 894
1730 903
1732 2364
1735 912
1739 922
1742 2364
1744 931
1748 941
1752 2360
1753 950
1757 960
1762 969
1762 2360
1765 979
1770 988
1772 2360
1775 997
1779 1007
1780 1017
1782 2360
1785 1026
1790 1035
1792 2359
1795 1044
1795 1054
1800 1063
1802 2359
1805 1072
1805 1082
1810 1091
1812 2359
1813 1101
1815 1111
1820 1120
1822 1130
1822 2355
1825 1140
1830 1149
1830 1159
1832 2355
1835 1168
1835 1178
1840 1187
1840 1197
1842 2355
1845 1206
1845 1216
1850 1225
1850 1235
1851 2350
1855 1244
1855 1254
1860 1263
1860 1273
1860 1283
1861 2350
1865 1292
1865 1302
1870 1311
1870 1321
1871 2350
1873 1331
1875 1341
1878 1351
1880 1361
1880 1371
1881 2350
1885 1380
1885 1390
1890 1399
1890 1409
1890 1419
1891 2350
1895 1428
1895 1438
1900 1447
1900 1457
1900 2345
1905 1466
1905 1476
1910 1485
1910 1495
1910 2345
1915 1504
1915 1514
1920 1523
1920 1533
1920 2345
1925 1542
1925 1555
1930 1564
1930 2345
1935 1573
1935 1583
1939 2340
1940 1592
1944 1602
1949 1611
1949 2340
1950 1621
1955 1630
1959 2340
1960 1639
1960 1649
1965 1658
1969 2337
1970 1667
1974 1677
1979 1686
1979 2335
1983 1696
1988 1705
1989 2335
1990 1715
1995 1724
1999 2335
2000 1733
2005 1742
2008 2330
2010 1751
2015 1760
2018 2330
2020 1769
2025 1778
2028 2330
2030 1787
2035 1796
2038 2328
2040 1805
2045 1814
2048 2325
2050 1823
2055 1832
2058 2325
2060 1841
2066 1849
2067 2320
2070 1859
2075 1868
2077 2320
2083 1875
2087 1885
2087 2319
2092 1894
2097 2315
2099 1902
2105 1910
2107 2315
2110 1919
2115 1928
2116 2310
2120 1937
2125 1946
2126 2310
2131 1954
2136 2310
2139 1961
2143 1971
2145 2305
2148 1980
2155 1988
2155 2305
2160 1997
2165 2006
2165 2300
2170 2015
2175 2024
2175 2300
2180 2033
2185 2295
2188 2040
2192 2050
2195 2295
2197 2059
2204 2067
2205 2295
2209 2076
2214 2290
2215 2084
2220 2093
2224 2290
2225 2102
2230 2111
2233 2285
2235 2120
2240 2129
2243 2285
2245 2138
2250 2147
2252 2280
2255 2156
2261 2164
2262 2280
2265 2174
2270 2183
2271 2275
2275 2192
2280 2201
2281 2275
2285 2210
2290 2219
2290 2270
2295 2228
2300 2237
2300 2270
2304 2247
2309 2256
2310 2266
