99 1282
99 1292
104 1272
107 1299
114 1262
115 1305
121 1313
122 1254
129 1320
130 1246
135 1236
138 1325
142 1335
145 1231
150 1221
152 1339
159 1347
160 1216
167 1354
168 1209
176 1359
177 1204
182 1194
184 1365
192 1189
193 1370
197 1380
202 1184
207 1384
211 1179
215 1390
219 1172
224 1395
227 1164
233 1400
235 1156
240 1408
245 1151
248 1415
253 1144
255 1423
260 1136
263 1430
267 1440
269 1127
275 1447
279 1122
282 1455
284 1112
287 1464
294 1102
294 1472
299 1481
302 1094
304 1490
307 1500
309 1077
314 1508
317 1069
319 1517
322 1059
324 1526
327 1049
329 1535
334 1032
335 1543
342 1024
343 1550
349 1012
350 1558
357 1004
358 1565
365 996
367 1570
373 989
375 1577
382 984
385 1580
391 979
394 1585
399 972
404 1585
407 1595
409 969
417 1595
419 967
427 1595
429 962
437 1599
439 959
445 1605
449 957
455 1605
459 952
465 1607
469 949
475 1610
479 949
485 1610
488 944
495 1612
498 944
505 1615
508 944
515 1615
517 939
524 1620
527 939
533 1625
537 939
543 1625
547 939
552 1630
556 934
559 712
559 722
559 732
559 742
559 752
559 772
562 1630
564 702
564 761
564 927
567 779
569 687
569 789
569 799
569 1792
569 1812
569 1822
572 1630
574 677
574 924
574 1767
574 1777
574 1801
574 1831
575 807
577 1639
579 667
579 817
579 827
579 1752
579 1840
582 1850
584 657
584 924
584 1737
587 834
587 1640
587 1859
589 642
589 844
589 1717
589 1727
591 1869
594 632
594 922
594 1879
595 852
595 1647
597 1709
599 612
599 622
599 867
600 1887
602 914
602 1699
604 442
604 472
604 497
604 517
604 542
604 567
604 577
604 587
604 597
604 1652
604 1897
604 1907
607 874
607 1689
609 417
609 427
609 451
609 461
609 481
609 506
609 526
609 551
609 1916
609 1926
611 884
612 914
612 1659
612 1679
614 387
614 397
614 407
614 902
614 1669
614 1935
614 1945
614 1955
614 1972
614 1982
614 1997
614 2007
614 2022
614 2042
614 2052
614 2067
614 2097
619 377
619 890
619 2031
619 2076
619 2086
619 2106
619 2116
619 2126
624 367
624 2135
624 2145
627 2155
629 352
634 342
634 2163
634 2173
639 2182
642 334
644 2191
649 322
649 2200
657 314
658 2205
662 2215
666 309
669 2223
674 297
674 2232
682 2239
684 294
691 2244
694 294
699 2250
704 296
704 2259
712 2265
713 301
722 2265
723 304
731 2260
733 305
740 2255
743 305
750 2255
753 309
760 2255
762 314
770 2255
772 309
780 2255
781 314
790 2255
791 314
799 2250
801 314
809 2250
811 314
818 2255
821 314
828 2255
831 314
838 2255
840 309
847 2260
850 309
857 2260
860 309
867 2260
870 309
877 2264
880 309
887 2265
889 304
897 2265
899 304
907 2265
909 304
917 2264
919 304
927 2264
929 304
937 2260
938 309
946 2255
948 309
956 2255
957 314
965 2250
966 319
975 2245
976 319
985 324
985 2240
994 329
995 2235
1003 334
1004 2230
1012 339
1012 2224
1021 344
1022 2220
1029 351
1030 2210
1035 360
1039 2205
1045 364
1047 2199
1050 373
1057 2194
1060 377
1062 2185
1069 382
1071 2180
1077 389
1080 2175
1084 397
1085 2165
1094 401
1095 2160
1100 409
1104 2155
1105 418
1112 2149
1115 422
1122 2144
1124 427
1130 2135
1132 434
1140 2130
1141 439
1150 2125
1151 440
1159 446
1160 2120
1168 451
1170 2120
1178 454
1180 2115
1188 454
1190 2115
1197 459
1200 2115
1207 459
1209 2110
1216 464
1219 2107
1226 464
1229 2105
1235 469
1237 2099
1245 472
1247 2094
1253 479
1255 2085
1263 479
1265 2080
1270 471
1274 2075
1278 464
1284 2075
1285 456
1293 449
1293 2080
1300 2088
1302 444
1310 2092
1311 439
1320 2095
1321 435
1329 2100
1331 434
1339 2100
1341 434
1348 2105
1350 429
1357 2110
1360 426
1367 2110
1370 424
1377 2110
1379 419
1387 2114
1389 419
1395 2120
1398 414
1405 2122
1407 409
1414 2127
1417 404
1422 2134
1426 399
1431 2139
1435 394
1439 2145
1444 387
1445 2153
1452 379
1455 2157
1462 374
1462 2165
1470 366
1471 2170
1479 2176
1480 361
1486 2184
1488 354
1494 2190
1497 349
1502 339
1503 2195
1510 2203
1512 334
1520 2207
1521 329
1527 2215
1529 322
1536 2220
1539 317
1544 2226
1547 309
1554 2230
1557 304
1563 2235
1566 299
1572 2240
1576 295
1582 2244
1586 290
1590 2250
1596 289
1600 2250
1605 284
1609 2255
1615 281
1619 2255
1625 281
1629 2255
1635 279
1638 2260
1645 276
1647 2255
1655 279
1657 2255
1665 279
1667 2255
1675 279
1677 2255
1685 279
1687 2254
1694 284
1697 2250
1704 284
1707 2250
1713 289
1717 2250
1723 289
1727 2250
1733 289
1736 2245
1743 289
1746 2245
1753 289
1756 2245
1763 289
1766 2248
1773 289
1776 2245
1782 284
1785 2250
1791 289
1795 2250
1800 284
1805 2252
1810 284
1815 2255
1820 282
1825 2255
1829 287
1834 296
1834 2260
1840 304
1844 2262
1850 307
1854 2262
1857 315
1864 2257
1865 322
1869 332
1872 2249
1877 339
1877 2240
1886 344
1886 2235
1890 354
1890 2225
1895 363
1898 2218
1900 372
1903 2208
1905 381
1910 390
1910 2200
1915 399
1915 409
1915 419
1915 2190
1920 428
1920 438
1920 448
1920 2175
1925 457
1925 467
1925 477
1925 487
1925 497
1925 507
1925 517
1925 527
1925 537
1925 547
1925 557
1925 567
1925 577
1925 587
1925 597
1925 607
1925 2165
1929 617
1930 627
1930 637
1930 855
1930 2135
1930 2145
1930 2155
1932 865
1935 646
1935 875
1935 1650
1935 1660
1935 1670
1935 2055
1935 2080
1935 2105
1935 2115
1935 2125
1938 656
1938 848
1940 1679
1940 1965
1940 1975
1940 1985
1940 1995
1940 2005
1940 2015
1940 2025
1940 2035
1940 2045
1940 2064
1940 2089
1943 665
1943 838
1943 881
1943 1643
1945 675
1945 825
1945 1688
1945 1940
1945 1950
1950 684
1950 694
1950 889
1950 1697
1950 1915
1950 1925
1953 818
1953 1640
1955 800
1955 1706
1955 1895
1955 1905
1958 700
1959 894
1960 710
1960 790
1960 1715
1960 1885
1962 1634
1962 1725
1965 719
1965 755
1965 765
1965 775
1968 1878
1969 896
1970 728
1970 738
1970 1732
1970 1742
1970 1865
1972 1630
1974 1752
1975 1855
1978 901
1979 1761
1980 1771
1980 1785
1980 1840
1982 1629
1985 909
1985 1794
1985 1804
1985 1814
1985 1824
1992 1625
1995 909
2002 1625
2004 914
2010 1615
2014 914
2020 1615
2024 914
2030 922
2030 1615
2040 924
2040 1610
2050 927
2050 1610
2060 929
2060 1610
2069 1605
2070 929
2079 1605
2080 932
2089 1605
2090 934
2098 1600
2100 934
2108 1598
2110 937
2118 1595
2119 942
2127 1590
2129 944
2137 1589
2138 949
2147 1585
2148 950
2156 1580
2158 954
2165 1575
2167 959
2175 1570
2176 964
2183 1563
2185 969
2193 1558
2195 972
2200 1550
2203 979
2208 1543
2210 987
2215 1530
2219 992
2223 1523
2224 1001
2230 1009
2230 1505
2230 1515
2235 1018
2238 1498
2240 1485
2243 1025
2248 1478
2250 1033
2250 1043
2253 1468
2255 1052
2258 1458
2260 1065
2265 1074
2265 1445
2273 1080
2274 1440
2280 1088
2280 1430
2285 1097
2288 1423
2290 1106
2295 1415
2296 1114
2304 1121
2305 1405
2310 1129
2315 1400
2319 1134
2323 1393
2325 1142
2330 1385
2334 1147
2340 1380
2342 1154
2349 1162
2349 1375
2357 1169
2357 1369
2365 1360
2367 1169
2374 1177
2374 1355
2380 1345
2382 1184
2389 1340
2391 1189
2395 1199
2397 1334
2405 1202
2405 1325
2412 1210
2413 1318
2420 1217
2423 1313
2429 1222
2429 1305
2437 1229
2437 1299
2444 1237
2445 1285
2452 1244
2453 1278
2459 1252
2460 1262
