394 2407
394 2417
394 2427
399 2397
404 2377
404 2387
404 2425
409 2367
414 2347
414 2357
414 2422
419 2332
424 2317
424 2420
429 2302
433 2415
434 2292
439 2272
439 2282
442 2410
444 2262
449 2247
452 2409
454 2232
459 2222
462 2404
464 2207
469 2192
472 2400
474 2182
479 2167
481 2395
484 2157
489 2147
490 2390
494 2132
499 2117
500 2385
504 2107
509 2097
510 2380
514 2082
519 2072
520 2380
524 2062
529 2047
529 2375
534 2037
538 2370
539 2027
544 2017
547 2365
549 2007
554 1992
556 2360
559 1982
564 1972
565 2355
569 1962
574 1952
575 2350
579 1942
584 1932
585 2345
589 1922
594 1912
595 2340
599 1902
604 1887
605 2335
612 1879
615 2330
617 1869
622 1859
625 2325
627 1849
632 1839
635 2320
637 1829
642 1819
645 2315
647 1809
652 1799
655 2310
657 1789
662 1779
665 2305
667 1769
672 1759
675 2300
677 1749
682 1739
685 2295
687 1729
692 1719
695 2290
699 1707
704 1697
705 2285
709 1687
714 1677
715 2280
722 1669
724 1657
725 2275
729 1647
735 2270
737 1639
742 1629
745 2265
747 1619
752 1609
755 2260
757 1599
764 1587
765 2255
769 1577
774 1567
775 2255
779 1557
784 1547
784 2250
792 1539
793 2245
797 1529
802 1519
802 2240
807 1509
811 2235
812 1499
817 1489
821 2235
824 1477
829 1467
830 2230
834 1457
839 1447
839 2225
847 1439
849 2222
852 1429
859 1412
859 2217
867 1404
869 2215
872 1394
877 1384
878 2210
884 1372
888 2208
889 1362
894 1352
898 2205
902 1344
907 1334
907 2200
912 1324
917 1314
917 2199
924 1302
927 2195
929 1292
937 1284
937 2194
942 1274
947 2190
949 1262
954 1252
956 2185
959 1242
966 2185
967 1234
974 1222
976 2185
979 1212
984 1202
985 2180
992 1194
995 2180
997 1184
1004 1172
1004 2175
1012 1164
1014 2175
1017 1154
1024 1142
1024 2175
1029 1132
1033 2170
1037 1124
1043 2170
1044 1112
1049 1102
1053 2170
1057 1094
1063 2170
1065 1086
1072 2165
1075 1086
1082 2165
1085 1086
1092 2165
1095 1086
1100 2172
1105 1084
1107 2180
1115 1084
1117 2184
1125 1084
1126 2189
1134 2195
1135 1081
1143 2200
1145 1079
1152 2205
1154 1074
1161 2210
1163 1069
1170 2215
1172 1064
1179 2220
1182 1059
1188 2225
1191 1054
1197 2230
1199 1047
1207 2234
1209 1042
1216 2239
1217 1034
1225 1026
1226 2240
1233 1019
1235 2245
1240 1011
1244 2250
1245 1001
1250 991
1253 2255
1258 984
1263 2255
1264 967
1269 957
1272 2260
1274 947
1279 782
1279 792
1279 922
1279 932
1281 2265
1284 772
1284 801
1284 811
1284 902
1284 912
1289 762
1289 820
1289 830
1289 840
1289 850
1289 860
1289 870
1289 880
1289 890
1291 2268
1294 752
1299 742
1301 2270
1304 732
1309 717
1310 2275
1314 707
1319 697
1320 2277
1324 687
1329 677
1330 2280
1334 662
1339 652
1339 2285
1344 637
1348 2290
1349 627
1354 612
1358 2290
1359 602
1364 587
1367 2295
1369 577
1374 562
1377 2295
1379 547
1384 537
1387 2299
1389 517
1389 527
1394 507
1397 2300
1399 492
1404 472
1404 482
1406 2305
1409 452
1409 462
1414 437
1416 2305
1419 412
1419 422
1424 397
1425 2310
1429 372
1429 382
1434 342
1434 352
1434 362
1435 2310
1439 312
1439 322
1439 332
1444 272
1444 287
1444 297
1444 2315
1449 217
1449 227
1449 237
1449 247
1449 257
1454 207
1454 2315
1464 211
1464 2315
1468 221
1470 231
1473 2320
1476 239
1480 249
1483 2320
1485 258
1490 267
1492 2325
1494 277
1499 286
1500 296
1502 2324
1505 305
1510 314
1512 2325
1515 323
1515 333
1520 342
1522 2325
1525 351
1528 361
1530 371
1532 2325
1535 380
1540 389
1540 399
1542 2325
1545 408
1550 417
1550 427
1552 2325
1555 436
1555 810
1555 820
1555 830
1555 840
1555 850
1555 860
1555 870
1555 885
1558 446
1560 456
1560 775
1560 785
1560 795
1560 894
1560 904
1560 914
1562 2325
1565 465
1565 760
1565 923
1565 933
1567 475
1570 485
1570 745
1570 942
1572 495
1572 2325
1574 952
1575 505
1575 730
1575 962
1577 515
1580 525
1580 535
1580 720
1580 971
1582 2325
1585 544
1585 710
1585 980
1587 990
1590 553
1590 563
1590 573
1592 2324
1593 703
1595 582
1595 592
1595 602
1595 997
1595 1007
1598 693
1600 611
1600 625
1602 1015
1602 2324
1605 634
1605 644
1605 655
1605 680
1607 1024
1610 664
1612 2320
1614 1032
1619 1041
1622 2319
1625 1049
1630 1058
1632 2315
1638 1065
1642 2314
1645 1073
1652 2309
1653 1080
1660 1088
1662 2304
1668 1095
1672 2300
1675 1103
1681 2295
1683 1110
1691 2293
1692 1115
1700 1122
1701 2293
1709 1127
1711 2295
1717 1134
1720 2300
1727 1134
1730 2300
1734 1142
1739 2305
1744 1144
1749 2305
1753 1149
1758 2310
1762 1154
1768 2310
1772 1154
1778 2310
1781 1159
1787 2315
1791 1159
1797 2315
1800 1164
1805 1173
1807 2319
1810 1182
1810 1192
1815 1201
1817 2320
1820 1210
1822 1220
1827 1229
1827 2320
1830 1239
1835 1248
1837 2320
1840 1257
1840 1267
1845 1276
1846 2325
1850 1285
1852 1295
1856 2325
1857 1304
1860 1314
1865 1323
1866 2328
1870 1332
1870 1342
1875 1351
1876 2330
1880 1360
1882 1370
1886 2330
1887 1379
1890 1389
1895 1398
1896 2330
1900 1407
1900 1417
1905 1426
1906 2330
1910 1435
1915 1444
1915 1454
1915 2335
1920 1463
1925 1472
1925 2335
1930 1481
1933 1491
1935 2335
1938 1500
1940 1510
1945 1519
1945 2335
1950 1528
1955 1537
1955 1547
1955 2335
1960 1556
1964 2340
1965 1565
1967 1575
1972 1584
1974 2340
1975 1594
1980 1603
1984 2340
1985 1612
1989 1622
1994 1631
1994 2340
1998 1641
2000 1651
2004 2340
2005 1660
2010 1669
2014 2340
2015 1678
2015 1688
2020 1697
2024 2340
2025 1706
2030 1715
2034 2340
2035 1724
2040 1733
2040 1743
2044 2340
2045 1752
2050 1761
2054 2340
2055 1770
2060 1779
2064 2340
2065 1788
2065 1798
2073 1805
2074 2340
2075 1815
2080 1824
2084 2340
2085 1833
2090 1842
2094 1852
2094 2340
2099 1861
2103 1871
2104 2340
2108 1880
2112 1890
2114 2340
2117 1899
2120 1909
2124 2340
2125 1918
2130 1927
2134 2340
2135 1936
2141 1944
2144 2340
2145 1954
2150 1963
2154 2340
2155 1972
2160 1981
2164 2340
2165 1990
2170 1999
2174 2340
2175 2008
2180 2017
2183 2335
2185 2026
2191 2034
2193 2335
2195 2044
2200 2053
2203 2335
2205 2062
2212 2070
2213 2335
2217 2079
2223 2335
2224 2087
2229 2096
2233 2106
2233 2335
2240 2114
2243 2335
2245 2123
2250 2132
2252 2330
2257 2140
2262 2149
2262 2330
2265 2159
2272 2330
2273 2165
2277 2175
2282 2330
2285 2182
2290 2191
2292 2330
2296 2199
2300 2209
2302 2330
2308 2215
2311 2325
2312 2225
2320 2232
2321 2325
2325 2241
2331 2249
2331 2325
2335 2259
2341 2325
2343 2265
2350 2273
2351 2325
2355 2282
2360 2320
2362 2290
2367 2299
2370 2320
2374 2307
2380 2315
