369 2257
374 2247
379 2260
382 2239
387 2229
389 2260
392 2219
397 2209
399 2260
402 2199
409 2187
409 2260
414 2177
419 2167
419 2260
427 2159
429 2260
432 2149
437 2139
439 2260
442 2129
449 2117
449 2260
454 2107
459 2097
459 2260
467 2089
469 2260
472 2079
477 2069
479 2260
482 2059
487 2049
489 2260
494 2037
499 2027
499 2260
504 2017
509 2260
512 2009
517 1999
519 2260
522 1989
527 1979
529 2260
534 1967
539 1957
539 2260
544 1947
549 1937
549 2260
557 1929
559 2260
562 1919
567 1909
569 2260
572 1899
579 1887
579 2260
584 1877
589 1867
589 2260
597 1859
599 2260
602 1849
607 1839
609 2260
612 1829
619 1817
619 2260
624 1807
629 1797
629 2260
634 1787
639 2260
642 1779
647 1769
649 2260
652 1759
657 1749
659 2260
664 1737
669 1727
669 2260
674 1717
679 2260
682 1709
687 1699
689 2260
692 1689
697 1679
699 2260
704 1667
709 1657
709 2260
714 1647
719 1637
719 2260
727 1629
729 2260
732 1619
737 1609
739 2260
742 1599
749 1587
749 2260
754 1577
759 1567
759 2260
767 1559
769 2260
772 1549
777 1539
779 2260
782 1529
787 1519
789 2260
794 1507
799 1497
799 2260
804 1487
809 2260
812 1479
817 1469
819 2260
822 1459
827 1449
829 2260
834 1437
839 1427
839 2260
844 1417
849 2260
852 1409
857 1399
859 2260
862 1389
867 1379
869 2260
872 1369
879 1357
879 2260
884 1347
889 1337
889 2260
897 1329
899 2260
902 1319
907 1309
909 2260
912 1299
919 1287
919 2260
924 1277
929 1267
929 2260
934 1257
939 2260
942 1249
947 1239
949 2260
952 1229
957 1219
959 2260
964 1207
969 1197
969 2260
974 1187
979 2260
982 1179
987 1169
989 2260
992 1159
997 1149
999 2260
1004 1137
1009 1127
1009 2260
1014 1117
1019 2260
1022 1109
1027 1099
1029 2260
1032 1089
1037 1079
1039 2260
1044 1067
1049 1057
1049 2260
1054 1047
1059 2260
1062 1039
1067 1029
1069 2260
1072 1019
1077 1009
1079 2260
1082 999
1089 987
1089 2260
1094 977
1099 967
1099 2260
1107 959
1109 2260
1112 949
1117 939
1119 2260
1122 929
1129 917
1129 2260
1134 907
1139 897
1139 2260
1147 889
1149 2260
1152 879
1157 869
1159 2260
1162 859
1167 849
1169 2260
1174 837
1179 827
1179 2260
1184 817
1189 2260
1192 809
1197 799
1199 2260
1202 789
1207 779
1209 2260
1214 767
1219 757
1219 2260
1224 747
1229 2260
1232 739
1237 729
1239 2260
1242 719
1247 709
1249 2260
1252 699
1259 687
1259 2260
1264 677
1269 667
1269 2260
1277 659
1279 2260
1282 649
1287 639
1289 2260
1292 629
1299 617
1299 2260
1304 607
1309 597
1309 2260
1317 589
1319 2260
1322 579
1327 569
1329 2260
1332 559
1339 547
1339 2260
1349 551
1349 2260
1355 559
1359 2260
1360 568
1365 577
1369 587
1369 2260
1375 595
1379 2260
1380 604
1385 613
1389 2260
1390 622
1395 631
1399 2260
1400 640
1405 649
1409 2260
1410 658
1415 667
1419 2260
1420 676
1425 685
1429 2260
1430 694
1435 703
1439 2260
1440 712
1445 721
1449 2260
1450 730
1455 739
1459 2260
1460 748
1465 757
1469 2260
1470 766
1476 774
1479 2260
1480 784
1485 793
1489 2260
1490 802
1497 810
1499 2260
1502 819
1505 829
1509 2260
1510 838
1518 845
1519 2260
1522 855
1527 864
1529 2260
1530 874
1538 880
1539 2260
1542 890
1547 899
1549 2260
1550 909
1555 918
1559 2260
1563 925
1567 935
1569 2260
1572 944
1575 954
1579 2260
1583 960
1587 970
1589 2260
1592 979
1595 989
1599 2260
1603 995
1607 1005
1609 2260
1612 1014
1615 1024
1619 2260
1623 1030
1627 1040
1629 2260
1632 1049
1635 1059
1639 2260
1643 1065
1647 1075
1649 2260
1652 1084
1655 1094
1659 2260
1660 1103
1668 1110
1669 2260
1672 1120
1677 1129
1679 2260
1680 1139
1688 1145
1689 2260
1692 1155
1697 1164
1699 2260
1700 1174
1708 1180
1709 2260
1712 1190
1717 1199
1719 2260
1720 1209
1728 1215
1729 2260
1732 1225
1737 1234
1739 2260
1740 1244
1748 1250
1749 2260
1752 1260
1757 1269
1759 2260
1760 1279
1765 1288
1769 2260
1773 1295
1777 1305
1779 2260
1782 1314
1785 1324
1789 2260
1793 1330
1797 1340
1799 2260
1802 1349
1805 1359
1809 2260
1813 1365
1817 1375
1819 2260
1822 1384
1825 1394
1829 2260
1833 1400
1837 1410
1839 2260
1842 1419
1845 1429
1849 2260
1853 1435
1857 1445
1859 2260
1862 1454
1865 1464
1869 2260
1870 1473
1878 1480
1879 2260
1882 1490
1887 1499
1889 2260
1890 1509
1898 1515
1899 2260
1902 1525
1907 1534
1909 2260
1910 1544
1918 1550
1919 2260
1922 1560
1927 1569
1929 2260
1930 1579
1938 1585
1939 2260
1942 1595
1947 1604
1949 2260
1950 1614
1958 1620
1959 2260
1962 1630
1967 1639
1969 2260
1970 1649
1975 1658
1979 2260
1983 1665
1987 1675
1989 2260
1992 1684
1995 1694
1999 2260
2003 1700
2007 1710
2009 2260
2012 1719
2015 1729
2019 2260
2023 1735
2027 1745
2029 2260
2032 1754
2035 1764
2039 2260
2043 1770
2047 1780
2049 2260
2052 1789
2055 1799
2059 2260
2063 1805
2067 1815
2069 2260
2072 1824
2075 1834
2079 2260
2080 1843
2088 1850
2089 2260
2092 1860
2097 1869
2099 2260
2100 1879
2108 1885
2109 2260
2112 1895
2117 1904
2119 2260
2120 1914
2128 1920
2129 2260
2132 1930
2137 1939
2139 2260
2140 1949
2148 1955
2149 2260
2152 1965
2157 1974
2159 2260
2160 1984
2168 1990
2169 2260
2172 2000
2177 2009
2179 2260
2180 2019
2185 2028
2189 2260
2193 2035
2197 2045
2199 2260
2202 2054
2205 2064
2209 2260
2213 2070
2217 2080
2219 2260
2222 2089
2225 2099
2229 2260
2233 2105
2237 2115
2239 2260
2242 2124
2245 2134
2249 2260
2253 2140
2257 2150
2259 2260
2262 2159
2265 2169
2269 2260
2273 2175
2277 2185
2279 2260
2282 2194
2285 2204
2289 2260
2290 2213
2298 2220
2299 2260
2302 2230
2307 2239
2309 2260
2310 2249
