314 552
314 562
314 572
314 582
314 592
314 602
314 612
314 622
314 632
314 642
314 652
314 667
314 677
319 686
319 696
319 706
324 549
324 715
324 725
324 735
327 745
329 755
329 765
329 932
329 942
329 952
329 962
329 972
334 549
334 774
334 922
334 981
336 784
339 794
339 990
341 804
342 914
344 549
344 814
347 904
348 995
349 823
350 833
354 549
354 843
355 896
355 1003
359 852
363 554
363 889
363 1010
364 861
369 870
372 880
372 1015
373 554
382 1015
383 554
392 549
392 1019
401 554
402 1019
411 554
412 1015
421 554
422 1015
431 554
432 1015
440 559
441 1010
449 554
451 1010
458 559
459 1002
467 554
469 997
477 554
477 990
486 559
486 985
494 977
496 559
504 975
506 555
514 972
516 555
522 965
526 559
531 960
536 559
541 960
546 559
551 960
556 559
561 960
566 555
571 960
576 559
581 960
586 559
591 960
596 559
601 960
606 559
611 963
616 559
621 965
626 559
631 968
636 559
641 970
646 559
650 975
656 559
656 983
666 559
666 985
676 559
676 985
686 559
686 988
696 559
696 990
706 559
706 990
716 559
716 990
726 559
726 990
735 995
736 559
745 995
746 555
755 995
756 559
765 995
766 559
775 997
776 559
785 995
786 559
795 997
796 559
805 1000
806 555
815 1000
816 555
825 1000
826 559
835 1000
836 559
845 1000
846 559
855 1000
856 559
865 1000
866 559
875 1000
876 559
885 1000
886 559
895 1000
896 559
905 1000
906 559
915 1000
916 559
925 1000
926 559
935 1000
936 559
944 1005
946 559
953 1000
956 559
962 1005
965 564
967 554
972 1004
977 554
979 1782
979 1792
979 1802
979 1812
979 1822
979 1832
979 1842
979 1852
979 1862
979 1872
979 1887
979 1902
982 1000
984 1727
984 1737
984 1747
984 1757
984 1767
984 1911
984 1921
984 1931
984 1941
984 1951
986 549
989 1692
989 1702
989 1712
989 1960
989 1970
989 1980
989 1990
991 1005
992 2000
994 1667
994 1677
994 2010
994 2020
996 549
997 2030
999 1637
999 1647
999 1657
999 2040
999 2050
1001 1005
1002 2060
1004 1617
1004 1627
1004 2070
1004 2080
1006 545
1009 1592
1009 1602
1009 2089
1009 2099
1011 1005
1014 1582
1014 2108
1014 2118
1016 544
1019 1562
1019 1572
1019 2127
1019 2137
1019 2147
1021 1005
1024 1547
1024 2156
1026 544
1029 1532
1029 2165
1029 2175
1031 1005
1032 2185
1034 1517
1034 2195
1035 539
1039 1502
1039 2204
1041 1005
1041 2214
1044 1492
1044 2224
1045 539
1049 1477
1049 2233
1050 2243
1051 1005
1054 2253
1055 539
1057 1469
1059 1457
1059 2262
1061 1005
1064 534
1064 2271
1064 2281
1067 1449
1069 1437
1069 2290
1070 1010
1072 2300
1074 534
1074 1427
1077 2309
1079 1417
1080 1010
1081 2319
1084 534
1084 1407
1086 2328
1090 1010
1090 2338
1092 1399
1094 534
1095 2347
1097 1389
1099 2357
1100 1010
1102 1379
1103 529
1104 2366
1109 1367
1109 2375
1110 1010
1113 529
1115 2383
1117 1359
1120 1010
1120 2392
1122 1349
1123 529
1127 1339
1127 2400
1129 1015
1132 2409
1133 529
1135 1331
1139 1015
1139 2417
1140 1321
1143 529
1147 2424
1148 1314
1149 1015
1152 524
1154 1302
1154 2432
1159 1015
1162 524
1162 1294
1162 2439
1167 1284
1169 1017
1169 2447
1172 524
1175 1276
1177 2454
1179 1020
1182 519
1183 1269
1186 2459
1189 1020
1189 1257
1192 519
1194 2465
1197 1249
1199 1020
1202 519
1203 2470
1204 1237
1209 1020
1212 519
1212 1229
1213 2470
1214 1239
1218 1025
1220 1221
1222 519
1222 2475
1228 1025
1228 1214
1232 519
1232 1204
1232 2474
1238 1025
1240 1196
1242 519
1242 2474
1247 1030
1248 1189
1252 519
1252 2470
1254 1177
1257 1030
1261 2465
1262 519
1262 1169
1267 1030
1267 1159
1270 2460
1272 519
1275 1151
1276 1035
1280 1141
1280 2455
1282 519
1285 1131
1286 1035
1290 2450
1292 519
1293 1124
1296 1035
1299 1112
1300 2445
1302 514
1304 1102
1305 1040
1309 1092
1310 2445
1311 519
1315 1040
1317 1084
1319 2440
1321 519
1322 1074
1325 1042
1327 1064
1329 2440
1331 519
1332 1054
1339 2440
1341 519
1349 2440
1351 519
1359 2440
1361 519
1369 2440
1371 519
1379 2440
1380 524
1389 2440
1390 522
1398 2445
1400 524
1408 2445
1410 524
1417 2450
1420 524
1427 2450
1430 524
1436 2455
1440 527
1445 2460
1450 527
1455 2462
1460 529
1465 2465
1470 529
1474 2470
1480 532
1483 2475
1490 532
1493 2475
1500 534
1502 2480
1510 534
1511 2485
1520 537
1520 2490
1530 537
1530 2492
1540 539
1540 2495
1550 539
1550 1820
1550 1840
1550 1850
1550 1860
1550 1870
1550 1880
1550 1890
1550 1900
1550 1910
1550 1920
1550 1930
1550 1940
1550 1955
1550 2495
1555 1790
1555 1800
1555 1810
1555 1829
1555 1964
1555 1974
1555 1984
1555 1994
1555 2005
1560 542
1560 1765
1560 1775
1560 2014
1560 2024
1560 2034
1560 2490
1565 1740
1565 1750
1565 2043
1565 2053
1565 2063
1570 542
1570 1720
1570 1730
1570 2072
1570 2082
1570 2092
1570 2490
1575 1705
1575 2101
1575 2111
1575 2121
1578 2483
1580 544
1580 1690
1580 2130
1580 2140
1582 2150
1585 1675
1585 2160
1585 2175
1588 2478
1590 544
1590 1660
1590 2184
1590 2194
1593 2468
1595 1650
1595 2203
1595 2213
1595 2223
1598 2458
1600 544
1600 1640
1600 2232
1600 2242
1600 2252
1603 2448
1604 2262
1605 1625
1605 2272
1605 2282
1605 2292
1605 2302
1605 2430
1609 549
1610 1615
1610 2311
1610 2321
1610 2331
1610 2345
1610 2355
1610 2370
1610 2385
1610 2400
1610 2410
1610 2420
1615 1600
1619 549
1623 1593
1628 1583
1629 549
1633 1573
1638 1563
1639 551
1643 1553
1648 1543
1649 554
1653 1533
1658 1523
1659 556
1663 1513
1668 1503
1669 556
1673 1493
1678 1483
1679 559
1683 1473
1688 564
1688 1463
1693 1453
1698 564
1698 1443
1703 1433
1705 1420
1708 564
1710 1410
1715 1400
1718 564
1720 1385
1725 1375
1727 569
1730 1360
1735 1345
1737 569
1740 1330
1745 1315
1747 569
1750 1300
1755 1280
1755 1290
1756 574
1760 1265
1766 574
1770 1265
1776 574
1779 1270
1786 574
1788 1275
1796 575
1797 1280
1806 579
1806 1285
1815 1290
1816 579
1825 1292
1826 580
1834 1297
1836 584
1844 1300
1846 584
1853 1305
1856 584
1863 1305
1865 589
1872 1310
1875 587
1882 1310
1885 589
1891 1315
1895 589
1901 1315
1905 592
1911 1315
1915 592
1920 1320
1925 594
1930 1320
1935 594
1940 1320
1945 594
1950 1320
1954 599
1960 1322
1964 599
1970 1320
1974 599
1980 1320
1984 599
1990 1320
1993 604
2000 1322
2003 604
2010 1320
2013 604
2020 1320
2022 609
2030 1320
2032 609
2039 1315
2042 609
2049 1315
2052 609
2059 1315
2061 614
2068 1310
2071 614
2078 1310
2081 614
2088 1308
2091 614
2098 1305
2101 614
2108 1305
2111 614
2117 1300
2120 619
2127 1299
2130 619
2137 1295
2140 616
2146 1290
2150 619
2156 1290
2160 619
2165 1285
2170 619
2175 1280
2180 619
2185 1275
2190 616
2195 1270
2200 614
2205 1265
2210 611
2215 1260
2220 609
2225 1255
2230 606
2235 1250
2240 604
2245 1245
2250 601
2254 1240
2260 599
2262 1234
2270 597
2272 1229
2280 594
2280 1220
2288 1213
2290 594
2295 1205
2299 589
2305 1195
2309 587
2310 1185
2318 1178
2319 584
2323 1168
2329 584
2330 1160
2335 1150
2338 579
2343 1143
2348 579
2353 1138
2357 574
2363 1135
2367 574
2373 1135
2377 574
2383 1135
2386 569
2392 1140
2396 569
2400 1147
2406 569
2409 1152
2415 564
2419 1155
2425 561
2429 1155
2435 561
2438 1160
2445 559
2447 1155
2455 559
2457 1155
2465 557
2466 1150
2475 554
2475 1145
2485 554
2485 1140
2493 1133
2495 554
2500 1125
2504 549
2508 1118
2514 549
2515 945
2515 955
2515 1110
2517 965
2520 920
2520 930
2520 1100
2524 549
2525 895
2525 905
2525 972
2528 1093
2529 982
2530 865
2530 875
2530 885
2533 1083
2534 549
2535 820
2535 830
2535 840
2535 850
2535 990
2535 1070
2537 1000
2540 557
2540 580
2540 595
2540 725
2540 740
2540 750
2540 760
2540 770
2540 780
2540 790
2540 800
2540 810
2540 1010
2540 1025
2540 1040
2540 1050
2540 1060
2544 567
2545 604
2545 614
2545 624
2545 634
2545 644
2545 654
2545 664
2545 674
2545 684
2545 694
2545 704
2545 714
