24 97
24 107
24 117
29 126
32 89
39 130
41 84
48 135
50 79
58 135
59 74
68 69
68 135
77 64
78 135
85 56
87 140
89 522
93 49
94 507
94 531
97 140
99 492
101 539
103 49
107 140
107 484
110 530
112 44
115 476
116 145
119 535
122 44
123 469
125 150
125 520
128 540
130 529
132 44
132 464
135 152
138 535
140 456
140 505
141 39
142 160
142 515
144 170
144 562
144 572
144 582
147 530
148 498
149 179
149 189
149 552
149 591
150 44
150 451
151 199
152 519
154 209
154 600
155 490
156 219
157 544
158 444
159 229
159 239
160 47
160 570
160 580
160 590
161 249
163 483
164 259
164 269
164 279
164 289
164 299
164 309
164 319
164 329
165 436
165 536
169 52
169 338
169 348
169 358
169 368
169 475
169 585
173 429
173 529
174 377
174 387
175 593
178 470
179 56
179 396
179 406
179 416
180 521
185 64
185 585
187 465
188 514
190 73
192 504
195 82
195 555
195 565
195 585
196 460
199 92
200 102
200 574
201 499
205 111
205 550
205 585
206 460
209 492
210 120
210 130
213 543
214 466
215 139
215 149
215 530
219 475
219 489
220 158
220 168
220 178
223 523
225 187
230 196
233 206
233 520
235 216
235 226
238 236
242 515
245 244
245 254
250 263
252 519
258 270
259 527
259 777
264 536
264 767
265 278
265 785
269 545
272 555
272 759
275 282
275 780
277 564
281 574
281 754
284 287
285 775
286 745
289 580
289 785
292 294
294 589
294 732
295 793
299 722
302 294
302 595
304 787
307 714
309 603
309 613
309 623
309 633
309 682
309 692
309 702
312 294
314 642
314 652
314 662
314 672
314 785
320 793
321 299
330 790
331 299
338 783
339 807
339 817
340 765
341 299
344 797
349 817
350 760
351 299
354 792
355 700
355 710
359 820
360 304
360 690
360 719
360 729
360 739
360 760
362 784
362 830
365 675
365 748
369 822
370 307
370 776
374 670
375 766
379 679
379 820
380 309
380 756
385 687
385 746
388 825
389 314
389 697
389 707
389 722
389 732
392 835
399 316
401 830
405 820
408 321
414 815
418 325
420 790
420 800
425 333
430 790
433 340
436 798
440 730
440 740
442 345
445 700
445 710
445 720
445 749
445 759
445 769
445 785
450 352
455 700
459 357
464 366
464 705
470 374
473 710
478 380
480 718
487 385
490 722
492 394
497 730
499 402
507 409
507 734
515 415
515 740
520 424
524 745
525 433
530 442
534 745
539 447
543 750
545 455
550 464
550 474
550 758
558 480
560 760
562 490
567 499
570 509
570 762
575 518
577 770
580 527
584 537
585 547
585 557
587 770
590 566
595 575
597 774
600 584
600 594
605 603
606 779
610 612
614 622
616 783
620 630
625 639
625 788
633 645
635 790
637 655
642 664
644 795
649 672
653 800
657 679
663 800
664 687
670 695
672 805
675 704
682 805
685 704
692 805
695 707
702 809
705 709
712 810
713 715
722 810
723 719
732 810
733 719
742 810
743 719
751 805
753 719
761 805
763 719
770 800
773 719
780 795
783 719
790 795
792 714
799 790
802 709
807 699
807 784
812 689
817 679
817 779
822 669
825 765
827 659
835 651
835 760
840 745
845 654
845 715
845 725
845 735
850 663
850 673
850 683
850 693
850 703
