59 647
59 657
59 667
59 677
64 592
64 602
64 612
64 622
64 632
67 684
69 572
69 582
74 552
74 562
77 684
79 512
79 522
79 532
79 542
84 427
84 437
84 447
84 457
84 467
84 477
84 487
84 497
84 877
84 887
85 655
85 665
85 675
89 412
89 862
90 600
90 610
90 620
90 630
90 640
92 894
94 392
94 402
95 580
95 590
99 382
99 827
99 837
99 847
99 857
100 560
100 570
100 900
104 372
104 812
109 575
109 585
109 782
109 792
109 802
110 895
112 364
112 595
114 752
114 762
114 772
117 354
119 732
119 742
119 890
121 600
122 344
124 687
124 697
124 707
124 717
129 606
129 672
129 890
130 336
134 615
134 625
134 635
134 645
134 655
135 898
138 329
142 319
145 900
152 314
155 900
159 302
165 900
167 294
175 286
175 895
180 276
184 890
188 269
194 890
195 261
203 254
203 885
210 246
212 890
220 241
222 890
228 234
231 885
237 229
240 880
245 840
245 850
247 229
250 785
250 795
250 805
250 815
250 825
250 859
250 875
255 775
257 229
260 755
260 765
265 745
267 224
275 745
277 224
280 735
287 224
290 735
295 725
297 219
304 720
307 214
314 720
317 214
317 730
327 214
327 734
331 744
337 214
339 750
339 760
342 770
344 780
347 214
353 785
354 795
357 214
360 803
367 209
369 808
369 818
369 828
369 838
374 847
377 209
380 855
387 209
389 860
397 209
398 865
407 209
408 865
417 209
418 865
427 209
428 865
437 209
438 865
447 209
447 870
457 209
457 870
467 209
467 870
476 865
477 209
486 865
487 209
490 670
490 680
492 690
495 700
496 865
497 209
500 670
500 709
500 719
500 729
505 738
505 748
506 865
507 209
510 665
510 757
514 767
515 777
516 214
516 865
520 665
520 786
525 219
525 795
526 865
530 665
530 804
535 219
536 865
540 665
540 807
544 817
544 857
545 219
550 660
550 845
552 824
555 219
555 834
560 660
564 857
564 867
565 219
569 842
569 876
569 886
570 655
574 224
574 832
574 895
579 782
579 792
579 802
579 812
579 822
580 655
583 900
584 224
584 752
584 762
584 772
590 655
592 905
594 224
594 732
594 742
598 648
599 717
602 909
604 224
608 645
609 687
609 697
609 707
612 910
614 224
614 653
614 663
614 673
622 910
624 224
632 910
633 219
639 202
642 910
644 182
644 192
649 172
652 910
657 164
662 910
664 142
664 152
669 132
672 910
677 124
682 910
686 119
692 910
696 115
702 910
706 114
712 910
716 114
722 910
726 114
732 910
736 114
742 910
745 119
752 910
755 122
760 810
761 905
762 820
765 124
765 790
765 800
767 829
771 905
775 124
775 785
777 829
780 750
780 760
780 770
780 839
780 900
784 129
788 845
790 715
790 725
790 735
790 745
790 900
794 129
795 853
799 895
800 725
804 129
805 857
805 867
805 877
805 887
806 733
810 743
814 129
819 748
824 129
824 757
830 765
833 134
836 773
839 783
839 817
839 827
839 837
839 847
839 857
843 134
847 790
849 800
849 810
849 860
853 134
858 865
863 135
867 870
873 139
877 870
883 140
887 870
893 144
895 445
895 455
895 465
897 475
897 874
900 435
900 485
903 144
905 494
907 875
910 430
910 503
910 513
910 523
910 533
910 543
910 553
910 563
912 149
915 572
915 582
917 875
920 430
921 154
922 590
925 600
927 875
928 423
930 609
930 619
931 154
937 875
938 418
940 622
940 632
941 154
945 641
947 879
948 415
951 154
954 646
955 656
957 409
957 880
960 665
961 154
962 400
967 880
968 671
970 681
971 154
971 395
975 380
975 690
977 880
980 699
981 154
985 375
985 708
987 880
990 365
990 717
990 727
991 154
997 879
999 57
999 67
999 77
999 732
1000 365
1000 742
1001 154
1004 47
1004 86
1005 751
1005 761
1005 771
1007 875
1009 360
1010 159
1011 779
1014 42
1014 90
1015 789
1017 875
1018 165
1018 355
1019 32
1019 99
1021 109
1022 175
1024 794
1027 875
1028 355
1029 27
1030 182
1030 802
1031 113
1036 870
1037 19
1038 355
1040 184
1040 804
1041 115
1045 813
1045 865
1047 14
1048 353
1049 179
1051 115
1053 819
1055 865
1057 14
1058 350
1059 179
1060 827
1060 837
1060 847
1061 115
1067 9
1068 174
1068 350
1071 115
1075 85
1075 95
1075 105
1077 9
1077 169
1077 345
1080 75
1086 4
1087 169
1087 345
1090 75
1095 161
1096 4
1096 340
1099 70
1105 156
1106 4
1106 340
1109 67
1110 146
1115 335
1116 4
1119 65
1120 141
1125 310
1125 320
1125 330
1126 4
1128 70
1128 134
1134 78
1134 122
1135 310
1136 4
1139 87
1139 97
1139 107
1140 255
1145 310
1146 4
1150 250
1154 305
1155 9
1159 245
1164 302
1165 9
1169 242
1172 295
1174 14
1177 234
1177 249
1182 20
1182 294
1185 220
1187 249
1192 24
1192 289
1195 215
1197 249
1200 30
1200 205
1200 275
1207 249
1208 36
1210 195
1210 259
1210 269
1215 44
1219 190
1223 50
1225 175
1230 58
1230 165
1238 65
1240 75
1240 145
1240 155
1242 85
1245 95
1245 105
1245 115
1245 125
1245 135
