79 307
79 317
84 326
87 299
89 335
92 345
97 299
97 354
99 187
99 197
99 207
99 217
99 227
99 237
99 247
99 257
99 267
99 364
104 152
104 162
104 172
104 276
104 286
104 373
109 137
109 382
114 127
114 391
119 112
119 400
124 102
125 408
129 92
133 415
134 425
134 435
137 84
137 445
139 455
144 72
144 464
149 473
152 64
154 482
160 56
164 485
164 495
164 505
164 515
164 525
164 535
168 49
169 544
174 553
177 44
179 562
187 39
187 569
194 577
195 31
202 584
205 26
209 592
215 24
219 595
225 24
225 603
233 610
235 24
240 618
245 24
250 622
255 24
259 627
265 24
269 630
275 24
279 630
285 24
289 627
295 27
299 622
304 32
309 620
312 39
318 615
319 47
327 609
329 49
335 600
339 47
343 593
349 46
350 585
358 578
359 49
363 568
368 54
370 560
375 545
377 59
380 535
385 520
386 64
390 475
390 485
390 495
390 505
394 71
395 460
400 79
400 450
405 88
405 440
410 97
410 415
410 425
414 107
415 390
415 400
419 116
420 126
425 135
425 145
425 155
425 165
425 175
425 185
425 195
425 390
430 204
430 214
430 224
430 234
430 244
430 254
433 383
438 260
438 373
440 350
440 360
445 268
445 290
445 300
445 310
445 320
445 330
445 340
450 277
