144 142
149 151
149 161
152 134
156 169
160 126
161 160
169 152
170 124
179 119
179 150
189 117
189 150
198 155
199 114
199 172
204 163
204 227
204 237
204 247
204 257
204 272
204 432
204 442
204 452
207 179
209 114
209 202
209 212
209 412
209 422
209 461
209 471
209 481
211 189
212 279
214 397
217 269
219 112
219 387
219 477
224 342
224 372
225 465
227 264
229 109
229 307
229 317
229 327
229 351
229 361
232 255
233 458
234 292
239 109
239 272
239 282
241 250
243 453
247 264
249 107
249 242
250 445
252 254
254 462
259 102
259 240
259 450
259 471
259 481
259 497
264 506
269 99
269 515
272 525
274 535
278 94
279 544
285 552
288 94
292 560
297 89
301 565
307 89
310 570
317 84
320 572
327 84
330 575
337 84
340 577
347 84
350 575
357 84
360 575
367 84
370 575
377 84
380 570
387 84
390 565
396 89
400 560
406 89
410 555
415 94
415 545
420 535
425 97
425 520
430 500
432 510
434 102
435 470
435 485
440 240
440 440
440 455
442 250
444 104
445 420
445 430
447 259
449 235
450 410
453 109
454 267
455 400
457 229
459 276
460 385
462 114
463 286
465 220
465 296
465 310
465 360
465 370
470 319
470 329
470 339
470 349
471 119
475 210
479 126
485 134
485 205
490 143
495 205
500 147
505 205
508 154
515 205
518 155
524 210
527 160
534 210
537 164
544 210
546 169
553 215
555 174
562 220
564 179
572 220
573 184
577 229
582 189
584 237
584 247
589 197
594 242
595 205
599 232
600 214
