19 412
19 422
27 429
29 409
37 430
38 404
46 435
48 404
55 440
58 404
65 442
67 399
74 447
76 394
84 450
86 394
94 450
96 390
104 450
106 389
113 455
115 384
123 455
125 384
132 460
135 384
142 460
144 379
152 460
154 379
161 465
163 374
169 471
173 374
174 480
180 488
183 374
185 497
192 505
193 374
200 512
203 374
207 520
210 366
217 519
218 359
219 347
220 475
220 485
220 495
220 505
227 339
228 468
229 322
238 463
239 307
239 317
248 460
249 297
254 287
258 460
264 286
268 460
270 294
270 304
270 314
275 323
275 333
278 460
280 342
288 349
288 460
297 354
298 460
306 359
308 460
315 364
318 458
325 364
328 455
335 364
337 450
345 364
347 450
355 364
356 445
365 364
366 445
375 364
376 445
385 364
386 448
395 364
396 450
405 364
406 450
415 367
415 445
424 440
425 369
434 374
434 437
444 374
444 435
454 374
454 435
464 374
464 435
473 440
474 374
483 440
484 374
492 445
494 374
502 445
504 374
511 440
513 369
521 440
522 374
529 432
532 374
539 427
541 379
549 422
550 384
559 420
560 384
565 428
570 384
575 432
580 384
582 440
589 377
591 445
599 372
599 451
606 459
607 364
616 359
616 460
625 354
625 420
625 430
625 465
627 440
630 450
633 413
634 349
640 405
644 349
650 400
653 344
660 395
662 339
668 388
672 334
678 385
681 329
685 375
691 329
695 375
699 322
703 368
709 319
713 363
719 319
720 355
729 317
730 350
739 312
740 350
749 309
749 345
758 340
759 309
767 335
769 309
775 325
779 309
783 319
