4 197
4 207
4 217
4 227
4 237
4 247
4 257
9 187
9 266
9 276
9 286
9 296
9 306
14 177
14 315
14 325
17 335
22 344
24 172
29 162
29 352
34 361
39 157
41 369
47 149
51 373
57 144
59 380
65 388
66 139
75 390
76 139
85 134
85 392
95 134
95 395
105 134
105 395
115 137
115 397
125 139
125 400
135 139
135 400
145 139
145 400
155 142
155 395
165 144
165 395
174 149
175 395
184 151
185 390
190 159
195 390
200 159
205 390
209 164
215 390
218 169
225 390
227 174
234 147
234 157
235 390
242 139
245 390
251 134
255 385
260 129
265 387
269 124
275 385
279 124
285 385
288 119
295 385
298 119
305 385
307 114
315 387
317 114
319 417
319 427
324 436
325 390
326 109
327 409
329 445
332 399
335 453
336 109
337 390
345 457
346 109
355 460
356 105
364 465
366 104
373 470
375 99
382 475
385 99
392 479
394 94
402 480
404 94
412 480
413 89
421 485
423 89
431 485
433 89
441 485
442 84
450 490
452 84
460 490
462 79
470 490
472 79
480 490
482 79
490 490
492 74
500 490
502 74
510 490
511 69
520 490
521 65
530 490
531 64
540 59
540 490
550 56
550 490
560 54
560 490
569 485
570 54
579 485
580 54
589 49
589 485
599 49
599 485
609 49
609 485
619 49
619 485
629 49
629 482
639 49
639 480
648 475
649 49
658 473
659 49
665 465
669 49
670 455
679 49
680 450
688 54
688 443
695 430
697 59
703 423
706 64
708 413
715 69
718 410
725 72
727 415
734 77
737 415
744 81
747 415
750 89
756 420
760 89
764 426
768 95
772 105
774 82
774 430
779 91
782 74
782 109
784 430
789 62
794 47
794 430
802 39
804 430
811 34
813 435
819 27
823 435
827 19
833 435
837 14
843 435
847 9
853 435
857 9
863 433
866 4
873 430
876 4
883 430
886 4
893 430
896 4
902 425
906 4
912 425
916 4
919 442
919 452
922 425
925 9
927 434
929 455
932 425
935 9
938 460
942 425
945 12
948 460
955 14
958 460
964 19
968 458
972 25
978 455
980 32
988 455
989 37
995 45
998 455
1000 54
1008 455
1009 59
1015 67
1018 455
1022 75
1028 455
1030 82
1037 90
1038 453
1042 99
1048 450
1051 104
1058 450
1061 104
1068 450
1071 104
1077 455
1081 104
1087 455
1091 104
1096 450
1101 104
1105 445
1110 109
1113 438
1120 109
1120 425
1128 418
1130 109
1138 413
1140 109
1144 405
1150 109
1152 399
1160 109
1162 395
1170 109
1171 390
1179 114
1181 390
1189 114
1191 390
1199 114
1201 390
1209 116
1211 390
1219 119
1220 385
1229 119
1230 385
1239 119
1240 385
1248 124
1250 385
1258 124
1259 380
1268 125
1269 380
1277 130
1279 380
1287 134
1289 380
1297 134
1299 380
1306 139
1308 375
1316 139
1318 375
1325 144
1328 375
1335 147
1338 375
1345 149
1347 370
1355 149
1357 370
1365 149
1367 370
1375 152
1377 370
1384 157
1387 370
1394 161
1396 365
1400 169
1405 360
1409 174
1415 360
1419 176
1425 184
1425 355
1433 190
1433 348
1440 198
1443 343
1448 205
1448 333
1452 215
1453 323
1457 224
1458 313
1464 232
1465 305
1470 240
1470 250
1470 290
1472 260
1475 270
1475 280
