78 94
79 104
87 89
87 111
94 119
96 84
102 126
106 80
110 132
115 75
120 136
124 70
130 139
134 68
140 143
144 64
150 147
154 60
160 150
164 58
170 151
174 56
176 159
178 40
180 169
186 177
188 34
193 25
194 183
203 24
204 187
213 24
214 183
223 26
224 187
229 148
232 179
233 30
233 158
235 168
239 149
242 35
249 147
251 40
259 147
260 45
269 50
269 147
277 56
279 146
287 53
289 145
297 50
299 147
307 48
309 151
317 52
319 153
325 58
329 153
333 64
338 147
340 72
343 136
345 81
345 120
354 86
355 119
364 82
365 123
373 129
374 78
382 134
383 73
391 139
393 69
401 141
403 66
411 143
413 64
413 96
413 106
414 116
415 86
417 126
419 72
420 136
