4 197
4 207
4 217
4 227
4 237
4 247
4 257
4 267
4 277
4 287
9 172
9 182
9 296
9 306
14 152
14 162
14 315
19 137
19 324
21 334
24 127
26 343
32 119
36 345
41 114
46 345
51 114
55 340
60 119
65 340
69 124
75 335
79 126
84 330
85 134
93 325
95 137
103 323
105 139
113 320
114 144
122 315
124 146
132 314
134 149
140 305
143 154
150 300
152 159
160 300
161 164
169 295
171 164
179 292
180 169
189 290
190 172
199 290
200 174
209 290
210 174
219 290
220 174
229 290
230 177
239 290
239 302
239 312
240 179
245 320
249 290
250 179
255 320
260 179
265 320
269 172
275 322
279 167
285 325
289 157
294 330
299 152
303 335
309 147
312 340
319 142
322 344
329 139
332 345
338 134
341 350
347 129
351 353
356 124
360 358
366 120
370 362
376 119
380 365
385 114
389 370
395 111
399 370
405 106
409 370
415 101
418 375
425 99
428 375
434 94
438 375
444 94
447 380
453 89
457 380
463 89
467 380
472 84
476 385
482 84
486 385
491 79
496 388
501 75
506 390
511 74
516 390
520 69
526 390
530 69
536 390
539 64
546 390
548 59
556 390
558 59
566 390
567 54
576 59
576 390
585 64
586 390
595 67
595 385
604 72
605 385
614 76
615 385
623 81
625 385
630 89
634 380
640 92
644 380
648 99
654 377
658 99
664 375
665 91
673 370
675 86
682 364
685 81
687 354
692 344
695 76
695 325
705 74
705 325
714 69
715 327
724 67
725 330
732 59
735 332
742 54
745 335
752 49
754 340
762 49
764 340
771 44
774 340
781 40
784 340
789 32
794 340
799 29
803 345
808 24
813 345
817 19
823 345
827 19
833 345
835 11
842 340
845 6
852 340
855 4
862 340
865 4
872 340
875 4
881 335
885 4
891 335
893 10
900 18
900 330
909 325
910 22
917 30
919 322
925 37
929 320
929 352
932 45
934 392
937 344
937 359
938 315
939 382
940 52
944 395
945 350
946 339
947 60
947 374
948 315
949 384
951 330
952 69
954 362
955 345
957 310
957 375
959 77
959 322
964 340
964 360
965 350
966 370
967 84
967 310
974 357
975 345
976 89
980 330
985 300
985 310
985 320
986 89
993 293
996 89
1003 290
1006 89
1011 80
1013 290
1021 84
1023 290
1030 79
1033 290
1040 82
1043 290
1050 79
1053 290
1059 84
1062 74
1063 288
1070 280
1071 79
1079 86
1080 280
1085 94
1089 275
1094 99
1099 275
1102 105
1109 275
1110 112
1117 120
1119 272
1125 127
1129 270
1130 136
1136 144
1139 270
1140 154
1145 163
1149 267
1153 170
1159 265
1160 178
1165 187
1169 197
1169 262
1175 205
1177 254
1180 214
1185 223
1185 233
1185 243
