4 167
4 177
4 187
9 137
9 147
9 157
9 196
9 206
14 107
14 117
14 127
14 215
19 97
20 223
24 87
28 230
29 77
35 238
37 69
45 235
47 69
55 235
57 69
65 235
67 69
75 235
76 74
85 235
86 74
94 81
95 235
103 86
105 235
113 89
115 230
122 94
125 230
132 94
135 230
141 99
144 225
150 104
154 225
160 107
164 225
168 114
174 225
178 115
184 222
188 119
194 220
197 124
203 225
207 124
212 230
217 124
222 234
224 247
224 257
227 124
232 240
232 264
237 119
240 270
242 240
244 77
244 87
244 97
247 119
249 106
249 275
254 72
256 114
258 280
264 69
267 285
273 64
277 289
283 64
286 294
292 59
296 298
302 54
304 305
312 49
313 310
322 49
322 315
332 49
332 315
342 49
342 319
351 44
352 320
361 44
362 320
371 44
372 324
381 44
382 325
391 44
391 330
401 44
401 330
411 44
411 328
421 44
421 325
431 44
431 325
441 44
441 325
451 44
451 325
460 39
461 328
470 39
471 325
480 36
481 325
490 34
490 320
499 29
500 320
509 27
510 320
519 24
519 315
529 24
529 315
538 310
539 22
548 308
549 19
555 300
558 24
565 295
568 24
569 305
578 25
579 307
585 33
589 305
590 42
597 50
599 307
600 60
600 285
600 295
610 64
610 285
616 55
620 285
624 47
630 285
634 42
640 285
644 39
650 285
654 37
660 287
664 34
670 290
674 34
680 290
683 29
690 290
693 29
700 290
702 24
710 290
712 24
720 290
722 24
730 290
732 24
740 290
742 24
750 290
752 19
760 290
762 19
770 290
772 19
780 290
782 19
790 290
792 14
800 290
802 14
810 290
812 14
820 290
822 14
830 290
832 9
839 285
842 9
848 290
851 4
858 290
861 4
867 285
871 4
877 285
881 4
886 280
890 9
896 280
898 15
906 280
907 20
915 27
915 275
919 37
924 46
925 275
930 54
934 270
935 63
939 307
944 270
945 64
945 315
947 299
953 265
954 310
954 320
955 64
955 291
957 330
963 265
963 315
965 64
965 286
969 297
969 307
970 276
972 260
974 59
976 284
984 57
985 270
990 250
990 260
994 54
1000 250
1003 49
1010 250
1013 49
1020 250
1023 49
1030 245
1033 49
1040 245
1043 49
1050 245
1052 44
1060 240
1062 44
1070 240
1071 49
1080 235
1081 49
1088 228
1089 56
1095 64
1098 223
1103 70
1108 220
1110 78
1115 87
1117 215
1122 95
1126 210
1130 102
1134 112
1134 202
1139 121
1142 194
1143 131
1145 141
1150 150
1150 160
1150 175
1150 185
