74 98
80 90
80 106
87 114
90 86
95 121
100 82
103 127
110 78
111 133
119 73
121 137
129 69
131 139
139 66
141 143
149 62
151 147
159 59
161 151
169 57
171 151
178 40
178 159
179 50
182 169
188 36
188 177
193 27
196 183
201 20
206 187
211 22
216 185
219 28
226 185
229 31
230 149
232 177
233 159
239 34
240 149
248 39
250 147
258 42
260 147
267 47
270 147
275 54
280 146
285 56
290 145
295 52
300 146
305 48
310 149
315 48
320 152
324 53
330 153
332 60
340 67
340 151
345 142
347 75
349 132
351 120
353 83
361 119
363 86
371 123
373 81
379 129
382 76
388 134
392 72
397 139
402 68
407 141
412 66
417 143
421 88
421 98
421 108
421 118
422 64
423 128
425 74
427 138
