198 102
198 112
200 122
203 132
204 84
204 94
208 74
209 140
214 174
216 68
218 160
219 141
219 183
224 60
225 174
231 164
234 56
236 155
238 38
240 22
242 147
249 27
252 150
254 36
257 46
257 159
262 168
267 48
268 149
268 176
270 58
271 159
272 68
273 140
276 169
277 181
281 63
283 141
285 90
285 100
286 79
293 137
295 100
300 129
301 108
303 118
