4 187
4 197
4 207
9 167
9 177
9 216
9 226
14 157
14 235
19 142
19 244
19 254
25 262
27 134
29 272
36 129
39 275
44 122
49 275
54 117
59 272
64 114
69 267
73 119
79 265
82 124
89 262
91 129
99 260
101 129
108 255
110 134
118 253
120 134
128 250
129 139
137 245
139 139
146 240
148 144
156 240
157 149
166 154
166 240
176 154
176 240
184 112
184 122
184 132
184 147
184 272
184 282
186 240
189 97
189 262
189 291
189 301
194 246
196 309
197 89
205 81
206 313
214 320
215 76
223 69
224 320
232 64
233 325
241 59
242 330
251 55
251 335
261 54
261 335
270 340
271 50
279 44
279 345
288 350
289 42
298 350
299 39
308 350
309 39
317 355
319 39
327 355
328 34
337 359
338 34
347 360
348 34
357 360
358 34
367 29
367 360
377 29
377 360
387 29
387 360
396 365
397 29
406 365
407 29
416 365
417 29
426 365
427 29
436 365
437 29
446 365
447 24
456 29
456 365
466 29
466 365
476 29
476 365
486 29
486 365
496 29
496 365
505 370
506 29
514 365
516 29
524 367
525 34
534 365
535 34
544 365
545 34
553 370
555 34
563 370
565 34
573 370
575 34
582 375
585 34
592 375
595 34
602 375
605 34
611 380
615 34
620 375
625 34
630 375
635 34
640 370
645 34
650 365
655 34
659 360
665 34
668 355
675 34
677 349
685 34
685 335
695 34
695 330
703 323
705 34
708 313
715 34
718 310
725 34
728 310
735 34
738 310
745 34
748 310
755 31
758 310
765 34
768 310
774 29
778 310
784 29
788 310
794 29
798 310
804 29
808 310
813 24
817 315
823 24
827 315
832 19
837 315
842 19
847 315
851 14
857 314
861 14
867 310
871 14
877 310
881 10
887 310
891 14
897 310
901 14
907 310
910 19
915 28
917 310
923 35
927 310
932 40
937 49
937 310
944 57
947 309
954 61
957 305
964 64
964 382
967 305
969 372
974 62
974 357
974 382
977 305
979 370
982 349
984 59
984 337
984 359
987 305
989 368
989 378
992 329
994 59
994 313
997 384
1000 365
1003 54
1005 335
1005 345
1005 355
1013 54
1013 328
1015 300
1015 310
1023 54
1025 295
1033 54
1035 290
1043 54
1045 290
1053 54
1055 290
1063 54
1064 285
1073 54
1074 287
1079 37
1082 280
1089 41
1091 275
1094 32
1099 267
1104 31
1109 17
1109 262
1110 60
1112 70
1114 7
1115 25
1117 79
1118 53
1119 257
1120 34
1120 89
1124 6
1125 16
1125 98
1129 252
1130 107
1135 116
1137 244
1140 125
1142 135
1147 239
1150 142
1150 152
1157 160
1157 234
1162 169
1165 179
1165 220
1170 188
1170 210
1175 197
