19 112
19 122
24 131
27 104
31 139
37 99
39 145
45 153
47 94
55 155
57 94
64 160
67 89
73 165
77 89
82 170
86 84
92 170
96 84
102 170
105 79
110 177
115 79
120 180
125 79
130 182
134 74
140 185
143 79
149 190
150 71
159 190
160 69
169 190
170 69
178 195
180 69
187 200
190 69
197 204
199 74
204 212
204 222
208 69
212 229
218 69
219 237
224 246
228 69
234 250
238 69
242 244
248 69
250 235
258 69
258 228
260 210
265 61
269 205
274 52
279 205
282 44
287 34
289 205
295 26
299 205
303 19
309 205
312 24
315 34
319 205
320 43
325 52
325 62
329 205
333 69
338 200
343 70
348 198
353 69
358 195
363 69
368 195
373 69
377 190
382 199
383 69
389 207
393 69
397 214
402 64
404 222
410 56
412 229
418 49
420 235
425 41
429 240
435 39
435 205
435 215
435 225
443 198
445 37
445 47
445 57
445 67
445 185
449 77
453 178
455 85
459 170
463 91
465 160
470 99
475 160
480 99
485 160
490 102
495 162
500 101
505 162
510 99
512 170
519 94
521 175
529 92
531 175
539 89
540 180
548 84
550 182
557 79
557 190
566 195
567 74
574 201
576 69
584 205
585 125
585 135
585 145
586 69
587 155
590 115
593 210
594 62
595 105
595 162
595 172
600 95
602 180
602 215
604 57
607 189
608 88
612 219
613 78
614 57
614 197
620 70
620 205
624 54
628 64
