132 64
132 74
132 128
132 138
134 84
134 118
136 94
136 104
142 63
142 139
152 67
152 135
160 73
161 130
169 78
169 122
177 84
178 117
182 127
183 75
184 137
188 66
188 147
194 58
198 149
200 50
208 147
210 46
217 142
219 51
227 143
228 56
234 48
237 143
242 40
242 172
244 162
247 145
247 181
251 35
257 179
259 28
265 172
269 25
273 164
279 21
281 171
287 27
287 179
289 37
295 45
297 181
299 55
303 172
305 162
307 148
309 58
317 144
319 62
326 139
329 66
336 135
339 70
345 130
349 74
353 124
355 82
358 115
363 88
363 106
