14 322
14 332
22 339
24 317
29 347
34 312
39 350
44 309
48 355
54 307
57 360
64 304
67 364
73 299
76 369
83 299
86 370
92 294
95 375
102 289
105 377
112 289
114 382
122 284
124 385
132 284
133 390
141 279
142 395
151 279
152 399
161 279
162 400
171 275
172 404
179 412
179 422
181 274
184 431
184 441
189 450
189 460
189 470
191 274
194 479
196 489
201 274
201 498
205 508
211 274
213 515
220 495
220 505
221 270
225 465
225 475
225 485
230 440
230 450
231 265
235 430
239 252
244 425
247 244
252 234
254 425
260 226
264 425
268 219
274 425
277 214
284 422
286 209
294 420
295 204
300 213
300 223
304 420
305 232
305 242
309 252
314 420
315 260
323 266
324 420
330 274
330 284
334 417
340 287
344 415
350 289
354 412
360 289
364 410
369 294
374 410
379 294
384 410
388 299
394 410
397 304
403 415
407 304
413 413
416 309
420 405
426 309
429 400
435 314
438 395
445 317
448 393
454 322
458 390
464 324
468 390
473 329
477 395
482 324
487 395
492 324
496 390
501 329
505 385
509 336
514 380
515 344
524 349
524 380
534 349
534 380
544 349
544 380
550 388
553 344
558 395
562 339
562 405
569 413
570 331
574 422
578 324
579 431
586 439
587 319
594 445
595 311
597 455
605 306
607 459
615 301
615 370
615 380
615 390
615 400
615 410
615 465
620 360
620 419
620 429
620 439
625 296
625 448
625 458
628 353
635 291
635 340
643 333
645 286
650 325
655 281
658 318
665 279
665 310
675 276
675 305
685 274
685 300
693 293
695 274
700 285
