99 112
99 122
99 132
99 142
104 151
109 109
109 160
114 169
119 109
120 177
124 187
129 109
129 196
136 204
139 111
144 210
149 114
149 219
155 227
158 119
162 235
168 120
169 243
174 252
174 262
178 124
179 271
184 280
187 129
190 288
196 134
200 285
205 139
210 287
213 145
217 295
222 150
225 302
230 157
232 310
238 164
241 315
247 169
249 321
254 177
256 329
262 184
264 335
269 192
270 343
274 201
278 350
280 209
284 358
284 368
288 215
289 377
289 387
294 396
295 223
300 232
301 404
307 240
311 405
317 244
320 400
326 249
329 405
335 254
338 410
345 257
345 418
349 428
354 437
355 259
359 446
364 264
364 455
370 325
373 269
373 460
375 334
378 318
380 343
382 274
383 458
385 305
388 350
389 282
390 292
390 450
392 360
400 367
400 452
404 377
407 460
414 381
414 468
419 477
423 386
424 486
429 495
430 394
430 410
430 420
434 504
435 429
436 514
439 524
440 438
444 533
448 444
449 542
454 551
457 449
459 560
464 457
469 562
474 461
475 510
475 520
475 530
475 540
475 550
483 466
484 505
493 470
493 510
500 478
503 508
510 482
513 505
519 487
523 503
