39 187
39 197
44 206
47 179
49 215
55 223
56 174
63 230
65 169
72 235
74 162
82 154
82 239
89 142
91 244
97 134
99 250
102 124
108 255
110 116
117 260
118 109
125 101
127 260
133 94
136 265
142 89
144 271
152 84
154 275
161 79
163 280
170 74
170 288
178 295
180 71
185 303
190 66
195 307
200 64
205 310
209 59
215 310
218 54
225 312
227 49
234 317
237 44
242 324
247 39
252 325
257 39
261 330
267 39
271 333
276 34
280 338
286 30
290 340
296 29
299 345
306 29
308 350
316 29
317 355
326 29
327 359
335 24
336 364
345 24
346 368
355 24
356 370
365 24
366 370
375 24
376 370
385 27
386 370
395 29
395 365
405 29
405 360
415 32
415 355
424 350
425 34
433 345
435 34
442 339
443 40
450 48
450 330
458 55
458 323
465 315
467 60
473 308
475 67
482 75
483 303
487 84
490 295
496 89
498 288
505 94
505 275
510 265
513 100
518 258
520 108
525 250
528 115
533 243
535 123
538 233
540 132
544 142
545 220
549 151
555 215
559 152
565 215
569 149
575 215
579 149
585 215
589 147
595 217
597 139
605 220
606 134
615 129
615 220
625 126
625 222
633 119
635 225
642 114
645 225
652 109
654 230
661 104
664 230
670 99
674 230
680 99
683 235
689 104
693 233
695 112
700 121
703 131
703 228
705 141
705 210
710 150
710 160
710 170
710 180
710 190
710 200
