34 302
34 317
39 342
42 294
42 310
44 320
44 332
49 282
49 342
59 262
59 272
59 337
59 347
67 254
69 242
69 350
72 360
77 234
81 355
87 229
90 350
95 221
100 211
100 350
105 201
109 345
115 196
119 342
123 189
125 330
127 179
135 330
136 174
145 169
145 325
154 164
154 320
164 164
164 320
172 314
174 164
182 310
184 164
192 310
194 164
202 310
203 159
212 310
213 159
222 310
223 159
230 151
232 310
240 149
242 310
249 112
249 122
249 132
249 142
250 300
257 104
260 300
267 104
270 295
274 112
280 290
284 116
290 290
293 121
298 283
299 129
303 119
308 280
310 111
314 288
318 104
322 295
324 305
327 99
329 314
332 89
334 323
339 332
339 342
340 81
349 345
350 76
352 355
354 62
354 365
359 374
362 54
364 383
365 250
371 49
372 390
373 256
374 400
375 240
378 265
379 409
381 49
384 418
385 235
385 273
385 283
385 428
390 292
390 437
391 45
395 235
399 297
399 442
400 307
401 44
404 230
405 316
409 445
411 44
411 324
412 224
415 334
417 439
420 210
420 343
421 44
427 435
428 350
430 210
431 44
432 360
436 430
437 369
438 203
440 379
441 44
445 190
445 388
445 420
451 44
455 180
455 392
455 402
455 420
460 39
460 170
460 411
468 163
469 32
470 150
479 29
479 155
487 149
489 29
495 40
497 145
499 29
505 37
506 140
513 44
515 135
523 44
525 130
533 44
535 130
540 120
543 45
550 55
550 65
550 115
560 52
560 69
560 105
565 78
565 90
570 69
570 102
575 87
