114 272
119 281
122 264
126 289
130 256
134 295
140 257
140 303
147 265
148 310
149 227
157 219
157 234
157 269
158 310
164 242
164 277
165 211
165 318
172 249
172 284
173 325
175 214
179 257
179 292
180 333
185 217
187 264
187 299
188 340
189 182
192 225
194 191
194 272
194 307
197 174
197 345
200 232
201 199
202 279
204 309
205 166
205 352
208 239
209 287
211 203
212 315
212 360
214 171
217 244
219 210
219 290
220 179
220 322
220 367
224 132
224 142
224 252
225 218
227 375
228 185
228 295
228 329
232 124
232 259
233 225
234 145
235 193
235 303
237 324
237 375
239 267
240 153
240 233
241 119
243 199
243 310
245 382
247 274
248 160
248 240
249 126
252 390
253 200
255 134
255 168
255 248
257 274
260 208
261 395
263 175
263 255
264 139
264 282
268 215
270 183
270 263
271 395
272 145
274 273
274 283
277 220
278 190
279 387
280 152
285 198
285 227
285 375
287 160
292 235
293 368
295 167
295 202
300 242
300 360
302 210
303 174
309 237
309 355
310 217
313 175
315 363
317 225
320 183
323 370
328 190
330 378
337 195
338 385
345 202
345 300
345 393
347 310
352 210
353 293
355 317
355 397
360 217
360 285
362 405
364 322
367 225
368 278
370 412
372 329
375 232
375 265
377 420
379 337
382 240
383 258
386 425
387 344
390 247
394 352
396 428
404 354
404 435
410 443
412 360
418 450
420 367
427 375
427 455
435 462
437 379
442 470
444 387
450 477
452 394
457 485
459 402
467 409
467 485
474 417
475 492
482 424
482 500
489 432
490 507
497 439
497 515
505 522
507 439
512 530
514 447
520 537
522 454
527 545
529 462
537 469
537 549
544 557
546 474
552 564
554 481
559 572
560 489
568 495
569 567
577 500
577 559
585 507
585 550
592 515
593 543
600 522
600 535
