84 152
84 162
90 170
94 149
99 207
99 217
100 165
103 144
107 199
109 220
109 267
109 277
110 165
113 144
117 199
119 220
119 262
119 280
119 352
120 165
123 144
124 361
127 199
127 344
129 220
129 259
129 280
130 160
132 139
134 365
136 194
137 344
138 215
138 254
139 277
140 160
142 139
144 362
146 194
147 339
148 215
148 254
149 275
150 160
152 139
154 360
156 194
157 339
158 213
158 254
159 155
159 275
161 134
164 360
165 189
167 249
167 339
168 210
168 270
169 155
171 134
174 357
175 189
176 334
177 249
178 210
178 270
179 155
181 134
184 355
185 189
186 334
187 249
188 150
188 208
188 270
190 129
194 184
194 355
196 334
197 244
197 265
198 150
198 205
200 129
203 350
204 184
205 329
207 244
207 265
208 150
208 205
210 126
213 350
214 182
215 329
217 145
217 244
217 265
218 203
220 124
223 350
224 153
224 179
225 329
226 239
226 260
228 200
229 162
230 127
232 345
234 171
234 324
236 239
236 260
238 200
240 129
240 316
242 345
245 138
246 239
246 260
247 195
249 205
249 287
249 297
249 307
250 147
252 344
254 214
254 227
254 266
254 276
255 156
255 255
257 334
260 315
261 164
265 174
268 308
270 290
274 179
275 270
275 280
280 250
280 260
283 184
289 245
293 184
299 242
303 184
309 237
312 179
319 235
322 179
329 235
332 174
338 230
342 174
348 230
352 174
358 230
362 169
367 225
372 169
377 225
382 169
387 225
392 164
396 220
402 164
406 220
412 164
416 220
421 159
425 215
431 159
435 215
441 159
445 215
450 154
454 210
460 154
464 210
470 154
474 210
479 149
483 205
489 149
493 205
499 147
503 203
509 144
513 200
519 144
523 200
529 142
533 198
539 139
543 195
549 139
553 195
559 137
563 193
569 134
573 190
579 134
583 190
588 129
592 119
592 185
602 119
602 185
607 194
612 119
617 194
621 124
625 134
625 144
625 154
627 190
630 163
630 173
