14 92
19 32
19 42
19 137
22 84
22 99
24 51
24 146
24 177
27 24
27 129
29 60
29 186
30 105
32 84
32 169
34 145
34 195
35 16
37 129
38 65
39 100
42 84
42 164
44 145
44 195
45 16
47 129
48 65
48 105
52 84
52 164
54 145
54 195
55 16
57 129
58 65
58 105
61 89
62 164
63 150
64 195
65 16
67 110
67 129
68 65
70 94
72 164
73 150
74 195
75 16
76 134
77 114
78 65
80 92
82 164
83 150
84 197
85 19
86 134
87 114
88 65
90 94
92 155
92 165
94 195
95 19
96 134
97 114
98 65
100 94
102 155
102 169
104 24
104 195
105 139
107 70
107 115
110 97
112 159
112 169
114 24
114 195
115 137
117 69
117 115
120 99
122 160
123 29
124 195
125 139
126 120
127 70
130 102
130 167
132 34
134 195
135 139
136 75
136 123
138 160
140 102
142 34
143 169
144 195
145 142
146 78
146 125
149 42
150 88
150 104
154 192
155 120
155 141
159 46
160 92
160 104
164 125
164 187
165 54
165 144
169 97
171 135
172 179
174 125
175 57
180 170
182 65
190 72
190 170
197 80
199 165
207 84
209 162
216 89
219 162
224 96
229 160
233 101
239 157
243 104
249 155
252 109
258 160
262 109
268 160
272 109
278 160
282 109
288 160
291 114
298 160
300 119
308 160
310 119
318 160
320 122
328 160
330 124
338 160
340 124
347 165
350 127
357 164
360 127
367 165
370 127
377 165
380 129
387 165
390 129
397 165
400 129
407 165
410 129
417 165
420 129
427 165
430 129
437 165
440 129
447 165
449 134
457 165
459 134
467 165
469 134
477 165
479 134
487 165
489 134
497 165
499 134
507 165
508 139
517 165
518 139
527 165
528 139
537 165
538 139
547 144
547 164
555 155
