525 571
529 581
530 551
530 561
534 590
538 544
540 598
548 544
548 604
555 612
555 622
558 545
559 556
560 631
565 564
566 639
573 570
575 644
579 578
583 650
584 587
590 658
591 595
594 606
595 667
600 614
605 671
608 620
609 681
610 691
614 628
615 700
619 637
621 708
625 466
626 645
629 714
631 474
631 654
633 459
635 446
635 722
636 483
639 661
643 440
643 729
644 490
644 670
646 680
650 737
652 445
653 495
654 686
655 746
656 455
659 695
660 503
661 464
661 754
665 703
665 766
668 509
669 471
671 774
673 710
674 720
675 479
675 517
676 783
680 728
680 796
683 485
683 524
685 805
685 816
686 534
688 735
689 493
691 543
691 824
694 743
697 500
699 550
699 752
699 830
703 840
704 508
705 558
705 568
706 760
710 577
710 848
711 769
712 515
718 584
718 854
719 523
719 533
719 776
721 864
725 592
725 784
727 540
729 794
729 870
730 601
734 548
734 611
734 803
735 878
740 887
741 619
742 555
742 810
745 896
746 820
749 563
749 625
751 904
754 826
755 633
757 570
759 910
760 642
760 834
764 578
765 918
768 649
768 840
769 851
770 927
772 585
775 657
775 859
778 934
779 593
780 666
783 865
785 942
786 674
787 600
789 873
790 951
791 610
794 680
794 961
795 691
797 880
799 616
801 699
804 888
804 964
805 624
809 705
812 895
813 630
813 969
815 713
819 638
819 903
820 321
820 977
823 719
824 331
827 645
827 910
828 314
829 656
830 727
830 981
831 339
834 918
835 306
835 664
835 736
836 989
839 345
841 744
842 925
843 670
845 301
845 353
846 988
849 678
849 750
852 925
853 294
853 359
854 687
855 758
856 989
860 367
860 767
861 695
861 930
863 295
865 776
866 305
866 989
868 374
869 701
870 384
871 784
871 930
874 311
874 710
875 393
875 994
876 720
879 790
880 319
881 934
883 399
884 726
885 328
885 798
885 994
888 736
890 407
891 935
893 335
893 804
895 744
895 990
898 414
899 343
899 353
900 812
901 424
901 930
903 750
905 821
905 994
906 760
907 360
909 430
911 829
911 930
914 368
914 766
914 776
915 438
915 994
919 377
919 387
919 835
920 784
920 925
923 444
925 843
925 994
926 395
928 790
928 919
930 452
933 849
934 401
934 798
935 861
935 896
935 906
935 990
938 459
939 410
940 870
940 886
941 469
942 805
945 418
945 989
949 475
949 813
953 425
955 483
955 493
955 986
956 435
957 820
963 499
964 441
964 828
965 984
970 449
970 507
972 835
975 984
978 455
978 514
979 843
984 463
984 979
985 522
987 850
989 476
990 531
993 973
995 206
995 484
996 539
997 850
1001 214
1003 200
1003 490
1003 969
1004 545
1004 858
1009 220
1009 498
1010 553
1013 199
1013 968
1014 507
1014 861
1015 228
1015 562
1020 571
1020 960
1021 515
1023 194
1023 234
1024 863
1026 579
1029 521
1030 242
1030 955
1033 194
1034 536
1034 585
1034 865
1038 249
1038 595
1038 948
1040 544
1043 190
1043 860
1045 257
1045 603
1045 940
1048 550
1050 612
1052 195
1053 264
1053 860
1054 558
1055 939
1058 619
1059 203
1059 567
1060 272
1062 855
1063 933
1064 581
1065 627
1067 210
1068 279
1070 589
1070 846
1070 925
1073 634
1074 218
1075 287
1075 646
1078 595
1078 839
1080 920
1081 654
1082 225
1083 294
1084 603
1085 826
1088 913
1089 233
1089 612
1089 660
1090 302
1090 811
1094 242
1095 311
1095 668
1095 801
1096 620
1098 908
1101 250
1101 319
1103 674
1103 794
1104 626
1105 781
1105 900
1108 636
1109 256
1109 325
1110 682
1110 756
1110 766
1113 894
1114 265
1115 333
1115 644
1115 691
1118 749
1120 273
1120 706
1123 339
1123 650
1123 739
1123 894
1125 715
1125 725
1128 280
1129 658
1130 347
1132 889
1134 288
1137 665
1138 354
1139 301
1139 675
1140 364
1142 889
1145 309
1145 373
1145 683
1151 894
1153 315
1153 379
1153 690
1156 389
1159 323
1161 893
1163 690
1164 332
1164 395
1168 405
1170 898
1171 340
1172 695
1174 350
1175 413
1175 423
1178 904
1180 358
1180 432
1181 700
1184 368
1185 912
1188 439
1190 451
1190 695
1190 921
1192 375
1196 385
1196 459
1196 929
1199 700
1204 391
1204 465
1204 935
1209 400
1209 701
1210 473
1210 943
1211 410
1215 482
1218 949
1219 416
1219 705
1220 491
1223 426
1225 500
1225 957
1228 510
1229 703
1230 434
1230 971
1233 519
1234 444
1235 531
1236 979
1239 453
1239 698
1241 539
1244 985
1246 690
1247 460
1249 545
1250 561
1250 993
1251 470
1255 1002
1256 569
1256 689
1259 476
1261 578
1263 1009
1264 491
1265 588
1265 1021
1266 685
1270 499
1270 597
1271 1029
1274 678
1275 606
1275 621
1278 505
1279 766
1279 776
1279 1035
1281 629
1281 670
1283 786
1284 513
1284 751
1285 651
1285 1043
1286 638
1286 661
1288 795
1289 522
1289 731
1289 741
1290 1052
1294 531
1294 803
1295 1061
1297 724
1299 546
1301 714
1301 1069
1302 810
1304 701
1305 554
1305 1079
1309 818
1310 1088
1312 694
1313 560
1314 570
1315 1097
1316 580
1316 684
1317 825
1319 666
1320 1106
1321 589
1324 606
1324 646
1324 656
1324 833
1324 1116
1328 616
1329 626
1329 636
1329 1125
1332 840
1335 1133
1339 848
1340 1142
1345 1156
1347 855
1351 1164
1354 863
1356 1173
1359 876
1360 1186
1365 884
1366 1194
1373 890
1374 1200
1378 1210
1379 898
1380 1220
1384 907
1385 1229
1389 916
1390 1238
1394 931
1395 1247
1395 1257
1400 939
1403 1264
1408 945
1410 1272
1411 955
1414 966
1415 1281
1420 974
1421 1289
1425 983
1425 1299
1430 1308
1433 990
1436 1000
1438 1314
1444 1006
1444 1016
1445 1322
1450 1024
1450 1331
1455 1033
1456 1339
1459 1043
1461 1348
1464 1052
1469 1061
1469 1355
1470 1365
1474 1070
1475 1374
1480 1078
1480 1383
1480 1393
1484 1091
1488 1399
1489 1100
1491 1409
1494 1116
1499 1125
1499 1415
1500 1426
1504 1141
1506 1434
1510 1149
1511 1443
1515 1158
1515 1453
1515 1463
1520 1472
1523 1165
1526 1175
1530 1476
1534 1181
1534 1191
1536 1484
1539 1200
1544 1490
1545 1208
1548 1500
1549 1218
1550 1511
1554 1227
1556 1519
1559 1236
1564 1525
1565 1244
1568 1535
1570 1253
1573 1544
1578 1260
1579 1271
1580 1552
1585 1279
1585 1561
1589 1571
1590 1288
1594 1580
1598 1295
1599 1306
1600 1588
1600 1598
1605 1314
1608 1604
1613 1320
1615 1612
1616 1330
1619 1340
1620 1621
1625 1348
1625 1636
1631 1644
1633 1355
1636 1365
1639 1650
1641 1374
1645 1658
1649 1381
1649 1391
1650 1667
1655 1399
1655 1676
1660 1685
1663 1405
1663 1695
1666 1415
1669 1426
1670 1703
1675 1434
1675 1712
1680 1721
1683 1440
1684 1731
1686 1450
1690 1739
1694 1456
1695 1748
1700 1464
1700 1757
1705 1473
1708 1764
1713 1480
1715 1772
1719 1488
1719 1498
1720 1786
1726 1794
1727 1505
1734 1513
1734 1800
1739 1522
1740 1808
1746 1530
1748 1814
1751 1824
1754 1536
1754 1546
1755 1836
1760 1554
1761 1844
1768 1560
1769 1850
1771 1570
1773 1860
1779 1576
1780 1868
1784 1585
1785 1877
1790 1593
1793 1884
1798 1600
1800 1892
1800 1902
1804 1608
1808 1909
1809 1621
1811 1919
1814 1630
1819 1925
1820 1638
1820 1936
1826 1944
1828 1645
1831 1953
1834 1653
1839 1662
1839 1960
1844 1671
1845 1968
1845 1978
1850 1679
1853 1984
1858 1685
1860 1992
1864 1693
1865 2001
1871 2009
1872 1700
1879 1708
1879 2015
1885 2023
1887 1715
1893 2029
1894 1723
1900 2037
1902 1730
1908 2044
1909 1738
1915 2052
1917 1745
1923 2059
1924 1753
1930 2067
1932 1760
1938 2074
1939 1768
1945 2082
1947 1775
1953 2089
1954 1783
1959 1792
1962 2094
1966 1800
1971 2099
1974 1806
1979 1815
1981 1825
1981 2103
1989 1831
1989 2109
1995 1839
1998 2114
2000 1848
2008 1855
2008 2114
2014 1863
2017 2119
2022 1870
2027 2119
2029 1878
2034 1887
2036 2124
2041 1895
2044 1906
2046 2124
2050 1914
2056 2124
2058 1920
2061 1930
2066 2119
2069 1936
2069 1946
2074 2111
2075 1954
2080 1963
2082 2104
2088 1970
2089 2096
2091 1980
2097 2089
2099 1986
2099 1996
2104 2005
2104 2066
2104 2076
2109 2021
2109 2036
2109 2046
2109 2056
