995 496
995 506
995 516
995 526
995 536
995 546
995 556
995 566
995 576
995 586
995 596
995 606
995 616
995 626
995 636
995 646
995 656
999 666
1000 436
1000 446
1000 456
1000 466
1000 476
1000 486
1000 676
1000 686
1005 321
1005 331
1005 341
1005 351
1005 361
1005 371
1005 381
1005 391
1005 401
1005 411
1005 421
1005 695
1008 705
1010 276
1010 286
1010 296
1010 306
1010 715
1015 266
1015 724
1020 733
1023 259
1025 742
1030 751
1033 254
1036 759
1043 249
1044 765
1048 775
1053 244
1055 783
1060 792
1063 240
1068 799
1073 240
1075 807
1082 245
1083 814
1091 250
1092 819
1095 829
1095 839
1099 256
1100 848
1105 264
1105 857
1110 273
1110 283
1110 340
1110 350
1110 480
1110 490
1110 500
1110 510
1110 520
1110 530
1110 540
1110 550
1110 560
1110 570
1110 580
1110 590
1110 600
1110 610
1110 620
1110 630
1110 640
1110 650
1110 866
1111 360
1111 660
1114 293
1114 876
1115 303
1115 313
1115 330
1115 375
1115 385
1115 395
1115 405
1115 415
1115 425
1115 435
1115 445
1115 455
1115 465
1115 670
1115 886
1120 679
1120 895
1120 905
1120 1541
1120 1551
1120 1561
1120 1571
1120 1581
1120 1591
1120 1601
1120 1611
1120 1621
1120 1631
1120 1641
1120 1651
1120 1661
1120 1671
1120 1681
1120 1691
1120 1701
1120 1711
1120 1721
1120 1876
1120 1886
1120 1896
1120 1906
1120 1916
1120 1926
1120 1936
1120 1946
1120 1956
1120 1966
1120 1976
1120 1986
1120 2101
1120 2111
1120 2121
1120 2131
1120 2141
1120 2151
1120 2161
1120 2171
1120 2181
1120 2191
1120 2201
1124 1996
1125 688
1125 914
1125 1501
1125 1511
1125 1521
1125 1531
1125 1730
1125 1740
1125 1750
1125 1760
1125 1770
1125 1780
1125 1790
1125 1800
1125 1810
1125 1820
1125 1830
1125 1840
1125 1850
1125 1860
1125 2006
1125 2016
1125 2026
1125 2036
1125 2046
1125 2056
1125 2066
1125 2076
1125 2086
1125 2210
1125 2220
1126 924
1130 697
1130 1476
1130 1486
1130 2229
1131 933
1135 666
1135 676
1135 686
1135 943
1135 953
1135 1446
1135 1456
1135 1466
1135 2238
1140 621
1140 631
1140 641
1140 651
1140 962
1140 972
1140 1426
1140 1436
1143 2244
1145 591
1145 601
1145 611
1145 981
1145 991
1145 1001
1145 1146
1145 1156
1145 1166
1145 1176
1145 1186
1145 1196
1145 1206
1145 1216
1145 1226
1145 1236
1145 1246
1145 1256
1145 1391
1145 1401
1145 1411
1150 561
1150 571
1150 581
1150 1010
1150 1020
1150 1030
1150 1040
1150 1101
1150 1111
1150 1121
1150 1131
1150 1265
1150 1275
1150 1285
1150 1295
1150 1305
1150 1315
1150 1325
1150 1335
1150 1345
1150 1355
1150 1365
1150 1375
1151 2250
1153 1050
1155 536
1155 546
1155 1060
1155 1070
1155 1080
1155 1090
1160 511
1160 521
1160 2255
1165 466
1165 476
1165 486
1165 496
1170 431
1170 441
1170 451
1170 2255
1175 386
1175 396
1175 406
1175 416
1179 2250
1180 351
1180 361
1180 371
1185 236
1185 246
1185 256
1185 266
1185 276
1185 286
1185 296
1185 306
1185 316
1185 326
1185 336
1187 2244
1190 226
1195 2230
1198 219
1200 750
1200 760
1200 770
1200 2220
1205 685
1205 695
1205 705
1205 715
1205 725
1205 735
1205 779
1208 214
1208 2213
1210 635
1210 645
1210 655
1210 665
1210 675
1213 785
1213 2203
1215 605
1215 615
1215 625
1215 2190
1218 210
1220 575
1220 585
1220 595
1220 2180
1222 790
1225 545
1225 555
1225 565
1225 2150
1225 2160
1225 2170
1228 210
1230 520
1230 530
1230 2060
1230 2070
1230 2080
1230 2090
1230 2100
1230 2110
1230 2120
1230 2130
1230 2140
1231 795
1235 480
1235 490
1235 500
1235 510
1235 2000
1235 2010
1235 2020
1235 2030
1235 2040
1235 2050
1237 215
1240 445
1240 455
1240 465
1240 1955
1240 1965
1240 1975
1240 1985
1241 795
1244 223
1245 400
1245 410
1245 420
1245 430
1245 1845
1245 1855
1245 1865
1245 1875
1245 1885
1245 1895
1245 1905
1245 1915
1245 1925
1245 1935
1245 1945
1250 231
1250 365
1250 375
1250 385
1250 800
1250 1795
1250 1805
1250 1815
1250 1825
1250 1835
1251 810
1255 240
1255 250
1255 260
1255 270
1255 280
1255 290
1255 300
1255 310
1255 320
1255 330
1255 340
1255 350
1255 1765
1255 1775
1255 1785
1260 1565
1260 1575
1260 1585
1260 1595
1260 1605
1260 1615
1260 1625
1260 1635
1260 1645
1260 1655
1260 1665
1260 1675
1260 1685
1260 1695
1260 1705
1260 1715
1260 1725
1260 1735
1260 1745
1260 1755
1261 810
1265 1505
1265 1515
1265 1525
1265 1535
1265 1545
1265 1555
1270 1470
1270 1480
1270 1490
1271 810
1275 1395
1275 1405
1275 1415
1275 1425
1275 1435
1275 1445
1275 1455
1280 696
1280 706
1280 716
1280 726
1280 736
1280 746
1280 756
1280 766
1280 776
1280 1385
1281 805
1284 786
1285 666
1285 676
1285 686
1285 1365
1285 1375
1290 646
1290 656
1290 1315
1290 1325
1290 1335
1290 1345
1290 1355
1295 626
1295 636
1295 1300
1300 606
1300 616
1300 1290
1305 586
1305 596
1305 1270
1305 1280
1310 561
1310 571
1310 1260
1315 516
1315 526
1315 536
1315 546
1315 1240
1315 1250
1320 481
1320 491
1320 501
1320 1200
1320 1210
1320 1220
1320 1230
1325 431
1325 441
1325 451
1325 461
1325 471
1325 1125
1325 1135
1325 1145
1325 1155
1325 1165
1325 1175
1325 1185
1330 396
1330 406
1330 416
1330 1110
1335 386
1335 1095
1340 376
1340 1085
1345 346
1345 356
1345 366
1345 1070
1350 336
1350 705
1350 715
1350 725
1350 735
1350 745
1350 755
1350 765
1350 1060
1355 316
1355 326
1355 675
1355 685
1355 695
1355 774
1355 784
1355 794
1355 804
1358 1053
1360 306
1360 655
1360 665
1363 1043
1365 231
1365 241
1365 251
1365 261
1365 271
1365 281
1365 291
1365 635
1365 645
1365 800
1368 1033
1370 221
1370 615
1370 625
1373 1023
1374 795
1375 595
1375 605
1378 214
1378 1013
1380 570
1380 580
1383 789
1383 1003
1385 525
1385 535
1385 545
1385 555
1388 209
1388 993
1390 490
1390 500
1390 510
1390 776
1390 980
1395 440
1395 450
1395 460
1395 470
1395 480
1395 751
1395 761
1395 970
1398 205
1400 405
1400 415
1400 425
1400 960
1403 744
1405 385
1405 395
1405 950
1408 205
1410 375
1410 731
1413 943
1415 345
1415 355
1415 365
1417 210
1418 724
1418 933
1420 335
1423 923
1424 218
1425 315
1425 325
1425 716
1430 226
1430 305
1430 910
1433 709
1435 235
1435 245
1435 255
1435 265
1435 275
1435 285
1435 295
1438 903
1440 701
1445 890
1448 695
1453 883
1457 690
1461 680
1463 878
1466 670
1470 656
1470 870
1475 646
1480 636
1480 865
1485 621
1488 858
1490 601
1490 611
1493 848
1495 581
1495 591
1498 838
1500 556
1500 566
1505 526
1505 536
1505 546
1508 833
1510 391
1510 401
1510 411
1510 421
1510 431
1510 441
1510 451
1510 461
1510 471
1510 481
1510 491
1510 501
1510 511
1515 331
1515 341
1515 351
1515 361
1515 371
1515 381
1515 825
1520 266
1520 276
1520 286
1520 296
1520 306
1520 316
1523 818
1525 256
1528 808
1530 246
1535 800
1538 239
1540 790
1548 234
1548 783
1555 226
1555 775
1560 765
1563 220
1568 758
1572 215
1575 750
1580 740
1582 215
1588 733
1592 215
1593 723
1598 713
1602 215
1603 703
1610 690
1612 215
1615 680
1620 670
1622 215
1625 655
1632 215
1633 648
1638 638
1641 220
1643 628
1645 615
1650 605
1651 224
1655 590
1659 231
1660 575
1665 239
1665 560
1670 540
1670 550
1673 245
1675 505
1675 515
1675 525
1679 253
1680 480
1680 490
1684 262
1685 272
1685 445
1685 455
1685 465
1690 281
1690 291
1690 405
1690 415
1690 425
1690 435
1695 300
1695 310
1695 320
1695 330
1695 340
1695 350
1695 360
1695 370
1695 380
1695 390
