29 322
34 302
34 312
34 331
39 340
42 294
48 345
50 286
52 355
55 276
61 360
65 271
70 365
75 266
80 365
85 261
89 370
95 256
98 375
105 251
108 375
115 246
118 375
120 236
128 375
130 231
135 221
138 375
145 216
147 380
150 206
157 380
160 201
167 380
168 194
177 189
177 384
187 189
187 385
197 189
197 385
204 92
204 102
207 189
207 385
212 84
212 109
217 189
217 385
222 84
222 110
227 189
227 389
232 84
232 110
237 189
237 390
241 79
242 110
247 189
247 390
251 79
252 110
254 120
254 130
254 140
254 150
254 160
254 170
254 180
257 390
259 47
259 57
259 67
264 37
267 390
269 27
276 395
279 24
286 395
289 26
290 36
290 46
290 56
290 120
290 130
290 140
290 150
290 160
292 170
295 65
295 110
296 395
297 75
297 179
304 187
305 110
306 395
307 79
314 189
315 105
316 395
317 79
324 189
325 105
326 395
327 79
334 189
335 105
336 395
337 79
343 98
344 189
345 85
346 395
354 189
356 395
364 189
366 395
374 189
375 390
384 189
385 390
394 189
394 385
403 194
403 380
412 375
413 194
421 370
422 199
430 205
430 365
432 215
437 224
440 234
440 244
440 360
449 249
450 360
458 254
460 355
468 254
470 350
477 259
480 345
486 264
490 340
495 269
500 335
504 274
508 328
513 279
518 323
522 284
525 294
525 304
525 314
