424 1002
424 1012
424 1022
424 1032
424 1042
429 987
429 1051
434 977
434 1060
440 1068
442 969
448 1075
449 957
452 1085
457 949
462 1089
465 941
470 1095
473 934
479 1100
482 929
489 1100
490 921
498 914
498 1105
505 1113
507 909
515 901
515 1117
523 894
524 1122
532 889
534 1125
541 884
543 1130
549 877
552 1135
559 872
560 1142
569 867
569 1147
579 864
579 1150
588 859
588 1155
597 1160
598 859
606 1165
607 854
615 1170
617 854
619 832
619 842
624 822
625 1170
629 812
634 1175
637 804
643 1180
647 799
652 1185
656 794
662 1185
665 789
671 1190
675 789
681 1190
684 784
690 1195
694 782
700 1195
704 779
710 1197
714 777
720 1200
724 774
730 1200
734 772
740 1200
744 769
750 1202
754 767
760 1205
764 764
770 1207
774 762
780 1210
784 557
784 567
784 759
790 575
790 1210
792 549
794 759
800 575
800 1210
801 544
804 759
810 539
810 575
810 1210
813 754
820 536
820 575
820 1210
823 754
830 534
830 575
830 1210
833 754
839 529
840 575
840 1210
843 754
847 744
849 529
849 732
850 575
850 1210
854 722
859 529
860 575
860 1210
862 714
867 704
868 524
870 575
870 1210
874 687
878 524
879 667
879 677
880 575
880 1210
884 585
884 595
884 605
884 615
884 625
884 635
884 645
884 655
888 524
890 1210
894 407
894 417
894 427
894 437
894 447
894 457
894 467
894 477
894 487
894 497
894 507
900 1210
902 399
910 1210
912 399
920 405
920 1210
925 414
925 424
930 433
930 1210
935 442
940 451
940 1210
945 460
947 470
950 1210
952 479
955 489
960 498
960 508
960 1210
965 517
965 527
965 600
965 610
965 620
965 630
965 640
965 650
965 660
965 670
970 679
970 689
970 699
970 1210
975 529
975 595
975 708
980 717
980 1210
984 727
985 529
985 595
990 1210
994 729
995 532
995 595
1000 1210
1004 590
1004 729
1005 534
1010 1210
1014 590
1014 731
1015 534
1020 1210
1024 587
1024 734
1025 534
1030 1210
1034 585
1034 736
1035 534
1040 1210
1043 580
1044 739
1045 534
1050 1210
1052 574
1053 744
1055 534
1060 565
1060 1210
1063 745
1065 534
1070 560
1070 1210
1073 749
1075 537
1080 550
1080 1210
1083 750
1090 1210
1093 754
1100 1210
1103 754
1110 1210
1112 759
1120 1210
1122 759
1130 1210
1131 764
1140 1210
1141 764
1149 1205
1150 769
1159 1205
1160 769
1168 1200
1169 774
1178 1200
1179 776
1188 1200
1189 779
1197 1195
1199 779
1207 1195
1209 781
1216 1190
1219 784
1225 1185
1229 784
1235 1180
1239 786
1245 794
1245 1180
1250 803
1250 813
1250 823
1250 833
1254 1175
1258 839
1263 1170
1268 839
1272 1164
1277 844
1280 1155
1286 849
1290 1150
1295 854
1300 1145
1305 857
1310 1140
1314 862
1320 1135
1322 869
1329 877
1329 1130
1337 884
1338 1125
1344 892
1347 1119
1352 899
1357 1114
1359 907
1365 1105
1367 914
1374 922
1375 1100
1384 926
1385 1095
1390 934
1395 1090
1400 937
1403 1083
1407 945
1413 1078
1417 949
1420 1065
1426 954
1428 1058
1433 1048
1435 959
1435 1035
1440 968
1440 978
1440 988
1440 998
1440 1008
1440 1018
