409 987
409 997
409 1007
409 1017
409 1027
409 1037
414 962
414 972
414 1046
419 952
419 1055
422 1065
427 944
427 1074
435 936
435 1080
443 929
444 1085
452 924
453 1090
460 916
462 1095
470 911
472 1099
480 909
481 1104
489 902
491 1108
497 894
500 1113
507 889
510 1115
517 884
520 1117
527 879
527 1125
537 874
537 1129
547 869
547 1130
557 864
557 1130
566 1135
567 864
575 1140
577 864
579 832
579 842
579 852
584 822
584 1145
589 812
594 1145
597 804
603 1150
606 799
613 1150
615 794
622 1155
624 789
632 1155
634 787
641 1160
644 782
651 1163
654 777
661 1165
664 772
671 1165
674 767
680 1170
684 762
690 1172
694 757
700 1175
704 754
710 1177
713 749
720 1180
723 749
730 1180
732 744
740 1180
742 744
750 1180
752 744
760 1180
762 744
769 1185
772 744
779 1185
782 744
789 1185
792 744
794 552
799 542
799 561
799 1185
801 739
807 534
809 565
809 1185
811 739
815 573
817 529
819 1185
821 739
825 577
827 524
829 1185
831 739
835 580
837 524
839 1185
841 735
845 582
846 519
849 1185
851 734
855 585
856 515
859 1185
861 730
864 590
864 692
864 702
864 712
866 514
869 682
869 1185
873 595
874 667
876 514
877 605
879 615
879 625
879 635
879 645
879 655
879 1185
886 514
889 1185
896 514
899 417
899 427
899 437
899 447
899 1185
904 456
906 514
907 409
909 465
909 1185
912 475
914 485
914 495
914 505
916 404
919 1185
926 404
929 1185
936 404
939 1185
946 404
949 1185
955 409
955 419
955 429
955 439
955 449
959 1185
960 458
960 468
960 478
960 488
965 497
965 507
965 517
969 1185
970 590
970 600
970 610
970 620
970 630
970 640
970 650
970 660
970 670
970 680
970 690
970 700
970 710
970 720
970 730
972 525
975 739
979 1185
980 585
982 529
984 744
989 1185
990 585
992 529
994 744
999 580
999 1185
1002 529
1004 744
1009 577
1009 1185
1012 529
1014 744
1019 575
1019 1185
1022 529
1024 744
1029 572
1029 1185
1032 529
1033 749
1039 570
1039 1185
1042 529
1043 749
1049 570
1049 1185
1052 529
1053 750
1058 565
1059 1185
1062 529
1063 754
1067 559
1069 1185
1071 534
1073 754
1075 545
1079 1185
1083 754
1089 1185
1092 759
1099 1185
1102 759
1109 1185
1112 759
1119 1185
1121 764
1129 1185
1131 764
1139 1185
1141 764
1148 1180
1150 769
1158 1180
1160 769
1168 1178
1170 769
1178 1175
1179 774
1187 1170
1189 774
1197 1170
1199 776
1206 1165
1209 779
1216 1165
1219 779
1226 1165
1228 784
1235 1160
1238 785
1245 793
1245 1160
1250 802
1250 812
1250 822
1250 832
1250 842
1254 1155
1259 847
1263 1150
1269 851
1273 1148
1279 854
1283 1143
1288 859
1293 1138
1297 864
1303 1133
1306 869
1313 1128
1315 874
1323 1123
1324 879
1330 1115
1333 884
1340 1110
1342 889
1350 1105
1351 894
1358 1098
1359 901
1365 1090
1368 906
1373 1083
1375 914
1380 1075
1385 917
1390 1065
1395 919
1398 1058
1404 924
1405 1045
1410 1035
1413 929
1415 1025
1423 930
1423 1018
1428 1008
1430 995
1432 935
1435 985
1437 944
1440 954
1440 964
1440 974
