28 250
28 260
30 270
32 238
36 278
37 229
40 178
40 188
43 221
43 286
45 197
47 211
48 172
51 292
54 180
60 297
64 182
70 26
70 36
70 46
70 298
72 172
74 92
74 102
74 112
74 122
74 132
74 142
74 152
74 162
76 54
76 64
76 74
78 20
80 300
88 19
89 54
89 64
89 74
89 84
90 299
91 40
91 94
91 104
91 114
91 124
91 134
91 144
92 154
93 30
97 48
100 160
100 299
110 162
110 295
119 167
119 290
121 200
121 210
124 220
125 175
125 190
128 285
130 228
134 277
135 237
139 247
139 266
