66 234
66 244
66 254
66 264
66 274
68 174
68 184
68 222
68 284
69 194
70 204
72 294
74 138
74 148
74 158
76 54
76 64
76 74
76 84
76 94
76 104
76 114
76 124
80 36
81 299
82 26
85 79
85 89
85 99
85 109
85 119
85 129
85 139
85 149
86 51
88 18
90 41
91 301
93 30
95 152
101 299
105 156
111 298
113 162
116 205
116 289
117 172
117 182
117 192
117 215
117 225
119 235
119 276
121 245
121 255
121 265
