58 240
58 250
58 260
58 270
61 280
62 226
64 172
64 182
64 192
66 202
66 212
66 289
69 163
72 297
76 68
76 78
76 88
76 98
76 112
76 122
76 132
76 142
76 152
78 46
78 56
80 36
82 299
84 24
87 61
87 71
87 81
87 91
87 101
87 111
87 121
87 131
89 141
90 51
91 151
92 18
92 41
92 300
95 30
101 154
102 299
111 158
111 168
112 299
120 291
121 172
121 202
121 212
123 192
124 222
125 182
125 280
127 232
129 242
129 252
129 262
