38 248
38 258
39 268
42 236
43 278
47 227
48 176
48 186
49 286
50 196
52 214
57 292
58 172
66 297
68 172
74 46
74 138
74 148
74 158
76 36
76 56
76 66
76 76
76 86
76 96
76 106
76 116
76 126
76 299
78 26
86 18
86 299
89 56
89 66
89 76
89 86
91 96
91 106
91 116
91 126
91 136
91 146
93 40
95 30
96 20
96 299
97 154
106 159
106 299
116 161
116 297
125 292
126 165
127 204
129 214
131 174
131 192
133 224
133 286
139 232
139 276
142 242
143 266
144 252
