30 250
30 260
32 270
34 238
38 278
39 229
42 176
42 186
44 220
45 286
46 196
49 211
52 172
53 292
58 180
62 297
68 180
72 26
72 36
72 46
72 298
74 170
76 58
76 68
76 78
76 88
76 98
76 108
76 118
76 128
76 138
76 148
76 158
80 20
82 299
90 19
91 52
91 62
91 72
91 82
91 92
91 102
91 112
91 122
91 132
92 299
93 40
93 142
93 152
95 30
99 160
102 299
109 162
112 297
119 164
121 292
123 204
125 214
126 172
127 194
129 286
130 223
131 181
136 231
137 278
141 240
143 250
143 260
143 270
