28 254
30 244
30 264
33 274
34 234
39 282
40 182
40 226
42 192
44 172
45 217
47 201
47 289
52 179
56 294
62 182
66 297
70 26
70 36
70 46
71 177
74 136
74 146
74 156
74 166
76 54
76 64
76 74
76 84
76 94
76 104
76 114
76 124
76 299
78 20
86 299
88 19
89 56
89 66
91 76
91 86
91 96
91 106
91 116
91 126
91 136
91 146
91 156
92 33
93 43
96 299
101 160
106 297
111 162
116 293
119 168
119 200
119 210
123 220
124 191
124 287
125 176
129 228
132 279
135 236
137 246
137 270
139 256
