34 256
36 242
36 266
39 276
41 233
45 284
46 178
46 224
47 188
51 169
51 198
51 215
53 291
59 162
62 296
69 160
72 299
74 44
76 26
76 58
76 68
76 78
76 88
76 98
76 108
76 118
76 128
76 138
76 148
82 299
84 20
89 56
89 66
91 76
91 86
91 96
91 106
91 116
91 126
92 136
92 301
93 146
94 20
95 30
95 40
98 155
102 299
105 163
105 173
112 297
115 173
122 293
125 172
127 204
129 214
130 287
131 194
133 178
133 224
136 279
138 233
142 271
143 242
143 252
