66 238
66 248
66 258
66 268
68 226
68 278
70 168
70 178
70 188
70 198
70 212
70 288
75 297
76 68
76 78
76 88
76 98
76 112
76 122
76 132
76 142
76 152
78 46
78 56
80 36
84 26
85 73
85 83
85 93
85 103
85 299
86 113
87 123
87 133
87 143
88 51
90 18
90 41
92 152
94 31
95 301
102 154
105 299
109 162
112 172
115 292
117 194
117 204
117 214
119 180
119 224
119 278
120 234
121 244
121 254
121 264
