62 238
62 248
62 258
62 268
64 278
66 174
66 184
66 222
67 194
67 288
68 204
70 164
72 297
76 68
76 78
76 88
76 98
76 108
76 118
76 128
76 138
76 148
78 46
78 56
80 36
82 299
84 26
85 73
85 83
87 93
87 103
87 113
87 123
87 133
87 143
88 51
90 18
92 33
92 152
92 300
102 154
102 299
110 160
111 170
112 297
119 200
119 210
120 289
121 172
121 182
121 220
123 230
123 276
125 240
125 250
125 260
