59 347
64 337
64 356
69 365
69 375
74 334
78 380
82 390
84 332
84 400
90 408
92 324
95 417
102 319
102 425
104 435
109 444
112 319
115 452
119 462
121 324
124 471
129 480
131 324
135 488
141 320
143 494
149 326
153 490
155 334
157 500
163 340
165 350
165 490
174 485
175 354
184 347
184 482
194 342
194 480
204 337
204 477
212 469
214 334
215 380
215 390
215 400
215 410
215 420
215 430
215 440
215 450
217 460
223 329
225 380
229 317
235 380
239 312
245 375
249 302
255 370
259 297
265 365
269 294
275 286
275 365
285 281
285 365
293 274
294 360
303 274
304 360
310 266
314 357
320 261
324 355
330 256
330 345
338 338
339 242
348 333
349 244
354 325
358 239
362 319
367 234
372 314
377 234
382 310
387 229
391 305
397 229
400 300
407 229
410 300
414 217
419 295
422 209
429 292
432 209
434 282
442 209
442 275
452 204
452 275
460 196
462 274
468 189
470 265
475 255
477 184
485 255
486 179
494 172
495 255
504 169
505 250
514 169
515 245
524 171
524 240
530 179
530 189
533 235
535 198
540 207
542 229
545 216
