52 78
56 64
61 55
62 75
67 47
67 66
73 39
75 58
81 32
84 53
89 26
94 49
94 362
96 348
98 20
98 224
98 234
98 244
98 254
98 264
98 274
98 284
98 294
98 304
98 314
98 324
98 334
100 57
100 186
100 196
100 206
102 67
104 77
104 365
106 176
108 20
108 87
110 97
110 107
110 117
110 127
110 137
110 147
110 157
114 365
118 20
124 365
128 20
134 365
135 116
135 126
135 136
135 146
136 156
137 90
137 100
137 166
138 20
139 176
141 74
144 365
145 58
145 184
147 48
147 194
147 204
147 214
147 224
147 234
147 244
147 254
147 264
147 274
147 284
147 294
147 304
147 314
147 324
148 21
149 334
149 344
149 354
157 45
158 24
167 45
168 24
175 51
178 20
185 50
188 23
189 33
