52 32
54 42
56 22
60 50
66 20
70 51
76 24
78 45
86 24
88 45
90 362
92 350
94 53
94 214
94 224
94 234
94 244
94 254
94 264
94 274
94 284
94 294
94 304
94 314
94 324
94 334
96 20
96 63
96 73
96 184
96 194
96 204
100 365
101 82
102 172
104 92
104 102
106 20
106 112
106 122
106 132
106 142
106 152
106 162
110 365
116 20
120 365
126 20
130 365
131 124
131 134
131 144
133 92
133 102
133 112
133 154
133 164
135 174
136 20
137 76
140 365
141 62
141 182
141 192
143 50
143 202
143 212
143 222
143 232
143 242
143 252
143 262
143 272
143 282
143 292
143 302
143 312
143 322
143 332
145 342
145 352
146 21
153 53
155 26
162 34
162 58
168 66
170 41
174 74
177 49
182 58
182 81
186 68
