52 26
52 36
54 46
60 20
63 51
70 20
73 47
80 24
83 45
90 24
90 354
90 364
92 50
92 316
92 326
92 336
94 60
94 70
94 188
94 198
94 208
94 218
94 228
94 238
94 248
94 258
94 268
94 278
94 288
94 298
99 79
99 179
100 20
100 365
102 89
102 99
102 166
104 109
104 119
104 129
104 139
104 149
110 20
110 365
120 20
120 365
130 20
130 365
131 98
131 108
131 118
131 128
131 138
131 148
131 158
132 168
133 86
135 178
137 74
139 188
140 20
140 365
141 52
141 62
141 198
141 208
141 218
141 228
141 238
141 248
141 258
141 268
141 278
141 288
141 298
141 308
141 318
141 328
143 338
143 348
150 24
151 51
158 30
159 57
166 37
166 65
171 74
172 45
178 53
179 81
183 62
185 72
