64 78
66 68
70 56
74 81
75 47
80 38
84 81
88 28
94 79
96 22
97 68
98 354
98 364
100 196
100 206
100 216
100 226
100 236
100 246
100 256
100 266
100 276
100 286
100 296
100 306
100 316
100 326
100 336
102 182
104 76
106 20
106 86
106 172
108 96
108 365
109 106
110 116
110 126
110 136
110 146
110 156
116 20
118 365
126 20
128 365
135 122
135 132
135 142
136 20
136 152
137 92
137 102
137 112
137 162
138 365
139 172
141 76
142 182
145 62
145 192
145 202
145 212
145 222
145 232
145 242
145 252
145 262
145 272
145 282
145 292
145 302
145 312
145 322
145 332
145 342
146 23
147 48
147 352
148 362
156 20
157 51
166 20
167 49
173 28
174 41
