50 78
54 64
59 55
60 81
65 47
65 72
71 39
71 64
79 31
79 56
87 25
88 51
94 356
96 20
96 322
96 332
96 342
98 48
98 58
98 190
98 200
98 210
98 220
98 230
98 240
98 250
98 260
98 270
98 280
98 290
98 300
98 310
99 365
100 68
103 78
103 181
106 20
106 88
106 168
107 98
108 108
108 118
108 128
108 138
108 148
108 158
109 365
116 20
119 365
126 20
129 365
135 96
135 106
135 116
135 126
135 136
135 146
135 156
135 166
136 20
137 86
138 176
139 365
141 74
143 185
145 48
145 58
145 195
145 205
145 215
145 225
145 235
145 245
145 255
145 265
145 275
145 285
145 295
145 305
145 315
145 325
146 21
147 335
147 345
147 355
149 365
155 45
156 24
165 45
166 24
173 51
176 20
183 50
186 23
187 38
