62 28
62 38
67 47
68 20
77 51
78 20
87 46
88 23
92 55
92 348
92 358
94 65
94 190
94 200
94 210
94 220
94 230
94 240
94 250
94 260
94 270
94 280
94 290
94 300
94 310
94 320
94 330
98 20
98 75
98 178
100 85
100 365
102 95
102 105
102 162
104 115
104 125
104 135
104 145
108 20
110 365
118 20
120 365
128 20
129 116
129 126
129 136
129 146
130 156
130 365
131 90
131 100
131 166
133 176
135 76
137 186
138 20
139 62
139 196
139 206
139 216
139 226
139 236
139 246
139 256
139 266
139 276
139 286
139 296
139 306
139 316
139 326
139 336
140 365
141 346
147 25
147 69
150 79
155 31
160 81
161 39
167 47
170 81
171 57
175 67
