62 70
62 80
66 58
71 49
72 81
76 40
82 81
84 32
90 73
92 24
95 62
96 362
98 344
100 71
100 188
100 198
100 208
100 218
100 228
100 238
100 248
100 258
100 268
100 278
100 288
100 298
100 308
100 318
100 328
102 20
104 81
104 178
106 365
108 91
108 101
108 111
108 158
108 168
110 121
110 131
110 141
112 20
116 365
122 20
126 365
132 20
135 110
135 120
135 130
135 140
135 150
135 160
136 365
137 90
137 100
137 170
141 74
141 180
142 20
144 190
145 62
145 200
145 210
145 220
145 230
145 240
145 250
145 260
145 270
145 280
145 290
145 300
145 310
145 320
145 330
145 340
146 365
147 46
147 350
152 22
156 51
162 20
166 51
172 21
174 45
177 30
