169 257
169 267
174 276
177 249
179 285
185 241
185 293
190 302
195 239
197 310
202 319
205 237
209 327
212 245
214 336
219 345
220 252
224 262
225 353
230 270
230 362
235 279
237 370
240 288
242 379
245 297
249 387
252 305
254 396
257 314
260 324
261 404
266 413
268 330
274 420
275 338
279 429
280 347
284 357
285 437
289 447
290 365
295 374
297 454
300 383
304 462
308 390
309 471
312 400
314 480
320 407
320 488
324 417
325 497
330 425
332 505
335 434
337 514
340 443
344 522
344 597
344 607
344 617
345 452
349 531
349 626
350 461
352 589
354 540
355 470
359 549
359 630
360 479
362 584
365 488
365 557
369 632
370 497
372 565
372 584
377 505
377 574
379 627
382 514
387 619
389 522
395 530
397 615
400 539
407 615
409 544
417 615
418 549
426 610
427 544
434 602
435 536
442 595
445 534
451 590
454 529
460 585
464 531
468 578
470 539
475 548
478 573
480 557
