254 342
259 332
259 351
264 322
264 360
267 370
272 314
275 377
277 304
279 387
284 312
284 396
289 282
289 321
291 404
294 291
295 329
296 413
297 274
299 300
300 338
300 423
302 264
302 310
304 433
307 254
307 319
308 345
309 442
314 242
314 327
314 451
314 461
315 353
319 336
319 470
320 362
324 241
324 345
325 478
327 370
329 354
329 488
330 249
330 498
334 508
335 258
335 518
339 528
340 267
344 192
344 537
347 275
349 201
349 211
349 221
349 231
349 546
352 184
352 284
354 240
354 250
354 555
355 294
357 174
359 259
360 563
362 164
363 300
364 268
365 278
368 309
368 570
369 152
369 288
374 142
374 297
374 578
382 585
384 146
385 156
390 165
392 175
392 585
397 184
400 194
402 585
405 203
405 213
410 222
410 232
412 585
414 117
414 127
415 241
418 251
419 136
419 146
420 261
422 109
422 585
423 271
424 155
424 165
425 281
428 291
429 174
429 184
429 194
429 204
429 214
431 104
431 224
432 585
434 234
438 294
439 243
439 253
440 109
442 585
444 262
444 272
444 282
449 114
452 585
459 116
462 585
463 126
468 135
472 585
475 143
475 153
480 162
480 172
482 585
484 182
489 191
490 201
490 211
492 585
495 220
495 230
495 240
500 249
500 259
500 269
502 585
505 278
505 288
510 297
512 585
514 307
515 317
519 327
522 585
525 335
527 345
532 354
532 585
535 364
542 585
543 370
550 378
552 585
558 385
562 585
568 389
572 584
575 565
577 384
580 550
582 374
587 364
589 347
590 545
594 322
594 332
598 538
599 292
599 302
599 312
603 528
604 282
605 515
612 274
613 508
615 485
615 495
619 262
620 470
625 460
627 254
630 450
635 435
636 249
640 410
640 420
645 244
645 380
645 390
645 400
650 345
650 355
650 365
655 244
658 338
660 280
660 290
660 300
660 310
660 320
663 250
668 273
670 258
