59 397
59 407
67 414
69 394
75 420
79 394
84 425
89 394
90 433
98 440
99 396
99 482
104 491
107 445
107 474
109 399
114 487
115 452
115 466
119 399
122 479
129 401
130 470
139 217
139 404
139 475
142 485
144 226
149 207
149 404
149 493
151 234
154 502
157 199
159 240
159 404
162 509
164 277
164 287
165 191
166 519
168 245
168 399
172 294
174 272
174 387
174 525
175 189
175 253
177 535
179 302
182 379
183 260
184 184
185 435
187 534
189 305
189 367
190 425
190 444
190 454
190 464
190 474
190 484
190 494
194 184
195 503
195 513
195 523
197 299
197 359
199 420
200 285
202 349
203 179
207 414
209 290
210 341
212 174
215 298
215 331
217 409
220 166
220 180
223 305
223 324
225 400
228 159
228 173
230 184
233 393
240 187
243 388
250 189
250 380
259 184
260 380
268 179
270 380
272 169
279 397
280 161
280 380
284 406
287 389
288 154
289 415
295 146
295 190
295 423
300 199
303 139
303 183
305 425
310 175
310 199
312 134
313 418
315 165
318 408
320 196
321 129
323 158
328 148
328 189
328 410
330 124
335 133
335 181
335 418
343 425
345 176
349 433
353 169
354 442
360 161
362 449
366 459
368 154
372 144
374 465
377 475
380 136
385 482
388 129
395 275
395 485
397 124
400 330
403 268
403 478
405 339
405 349
405 359
406 129
408 323
410 139
410 260
410 375
410 385
410 395
410 470
411 274
414 354
415 250
415 315
415 404
415 420
415 430
415 455
418 368
419 144
419 267
420 439
423 243
423 308
423 349
423 413
424 397
425 136
425 360
427 259
430 235
430 300
430 405
432 389
433 129
434 377
437 254
438 228
438 293
440 121
442 390
444 372
445 220
445 280
447 249
448 114
450 170
450 380
452 180
453 213
453 273
455 106
457 249
458 163
460 205
460 260
462 184
463 99
465 155
465 194
470 91
473 148
478 84
480 140
485 76
488 133
493 69
495 125
502 64
503 118
510 100
510 110
511 59
515 90
520 54
520 80
528 73
530 57
