24 112
24 122
24 132
24 142
24 152
24 162
24 172
29 92
29 102
29 181
29 191
34 82
34 200
37 210
39 72
42 219
44 62
46 229
49 52
54 42
54 235
60 243
64 37
65 252
72 29
72 260
80 267
81 24
87 275
91 24
95 282
101 24
104 287
109 296
110 29
119 300
120 32
125 308
127 40
133 315
135 47
140 323
142 55
148 330
152 59
155 69
157 335
164 74
165 342
172 350
173 79
182 84
182 354
189 362
191 89
199 365
200 94
205 373
210 97
213 380
219 102
222 385
229 106
230 392
235 114
237 400
243 120
245 407
252 125
252 415
260 132
260 422
267 430
268 139
275 147
277 434
283 154
284 442
290 162
294 445
297 154
302 144
304 442
312 139
314 437
317 129
322 429
327 124
330 420
337 119
340 415
345 111
350 410
353 104
360 405
362 99
370 400
372 94
378 393
382 89
388 388
392 84
398 383
402 79
405 375
412 74
415 370
422 69
425 365
432 64
433 358
440 56
443 353
450 51
450 345
458 338
460 49
468 333
470 46
475 320
480 44
485 315
489 49
490 305
498 54
498 298
505 285
507 59
515 280
516 64
520 270
524 71
525 260
528 81
530 250
533 90
535 240
537 100
540 220
540 230
542 109
545 119
545 129
545 205
550 138
550 148
550 158
550 168
550 178
550 188
