24 132
24 142
24 152
24 162
24 172
24 182
24 192
24 202
24 212
29 112
29 122
29 221
29 231
34 92
34 102
34 240
34 250
39 82
39 259
44 72
44 268
49 62
49 277
54 52
54 286
59 295
62 44
68 300
70 36
72 310
77 319
80 31
85 325
90 26
91 333
95 343
100 24
103 350
110 24
110 358
118 365
120 24
124 373
129 382
130 24
139 385
140 27
142 395
149 32
151 400
159 34
159 406
164 415
168 39
170 423
177 44
179 428
184 52
184 437
192 59
194 440
197 450
200 65
205 74
205 457
212 465
215 77
219 87
220 472
224 96
224 482
228 106
232 489
233 115
237 125
239 497
240 135
242 145
247 154
247 504
250 164
254 512
255 173
255 183
259 521
263 189
267 179
269 522
272 169
277 159
277 514
282 149
285 505
287 139
289 122
293 498
294 112
299 102
303 493
304 92
310 485
312 84
319 72
319 480
327 64
327 474
332 465
335 56
341 460
343 49
350 41
350 455
358 448
360 36
368 443
370 34
375 430
380 34
385 425
390 34
393 418
400 37
400 410
408 403
409 42
415 395
419 46
423 388
428 51
430 375
438 55
438 368
445 63
445 360
450 350
453 70
455 340
460 78
460 330
465 87
465 320
470 310
473 94
475 300
480 102
480 290
484 112
485 122
485 270
485 280
489 132
490 142
490 250
490 260
494 152
495 162
495 172
495 182
495 192
495 202
495 212
495 222
495 232
