249 762
249 772
249 782
249 792
249 802
249 812
249 822
249 832
249 842
249 852
249 862
249 872
249 882
249 892
254 697
254 707
254 717
254 727
254 737
254 747
254 901
254 911
254 921
259 632
259 642
259 652
259 662
259 672
259 682
259 930
259 940
259 950
262 960
264 582
264 592
264 602
264 612
264 622
264 970
264 980
264 990
269 557
269 567
269 999
269 1009
269 1019
274 537
274 547
274 1028
275 1038
279 512
279 522
280 1047
284 487
284 497
289 467
289 477
289 1052
294 452
297 1059
299 437
304 422
306 1064
309 412
316 1068
317 404
322 394
325 1073
330 386
335 1075
338 379
344 1080
345 371
354 1080
355 369
364 1080
365 369
373 1085
374 364
383 1085
384 364
393 1085
394 364
402 1090
404 364
412 1090
414 362
422 1090
424 359
431 1095
434 359
441 1095
444 359
451 1095
453 354
460 1100
463 354
470 1100
473 354
480 1102
482 349
490 1105
492 349
500 1105
502 349
510 1107
512 349
520 1110
522 349
530 1110
532 349
540 1112
542 349
550 1115
552 344
560 1115
562 344
570 1117
572 344
580 1120
582 344
590 1120
592 344
600 1122
602 344
610 1125
611 339
620 1125
621 339
630 1125
631 339
639 1130
641 339
649 1130
651 339
659 1130
660 334
668 1135
670 334
678 1135
680 334
688 1135
690 334
697 1140
700 331
707 1140
710 329
717 1140
720 329
727 1144
730 329
737 1145
740 329
747 1145
750 329
757 1145
760 329
766 1150
770 329
775 1145
780 329
785 1145
790 329
795 1145
800 329
805 1140
810 329
815 1140
820 332
825 1135
830 334
835 1135
840 337
843 1128
850 339
850 1120
855 1110
859 344
863 1103
867 350
870 1090
872 359
878 1083
879 367
884 376
885 1070
890 384
890 1060
895 393
895 1040
895 1050
900 402
900 1025
905 1010
907 410
910 990
910 1000
912 419
915 429
915 975
920 438
920 448
920 960
925 457
925 467
925 477
925 950
930 486
933 496
933 943
935 506
940 515
940 935
942 525
947 534
948 928
950 544
955 553
955 563
955 920
960 572
960 582
965 915
967 590
975 597
975 915
985 599
985 915
995 599
995 915
1004 604
1005 915
1014 604
1015 915
1024 606
1025 915
1034 609
1035 915
1044 609
1045 915
1053 614
1055 910
1062 619
1063 903
1068 893
1071 624
1075 885
1080 629
1085 885
1090 632
1095 885
1099 637
1105 885
1109 639
1115 885
1119 639
1125 885
1129 639
1135 885
1139 639
1145 885
1149 639
1155 885
1159 639
1165 885
1169 639
1175 885
1179 639
1185 885
1189 639
1195 885
1199 639
1205 885
1209 639
1215 885
1219 639
1225 885
1229 639
1235 885
1239 639
1245 885
1249 639
1255 885
1259 639
1265 885
1269 639
1275 885
1279 639
1285 885
1289 639
1295 885
1299 639
1305 885
1309 639
1315 885
1319 639
1325 885
1329 639
1335 885
1339 639
1345 885
1349 639
1355 885
1359 639
1365 885
1369 639
1375 885
1379 639
1385 885
1389 639
1395 885
1399 639
1405 885
1409 639
1415 885
1419 639
1425 885
1428 644
1435 885
1438 644
1445 885
1448 644
1455 885
1458 644
1465 885
1468 644
1475 885
1477 649
1484 890
1487 649
1494 890
1497 649
1504 890
1507 649
1514 890
1517 649
1524 890
1527 649
1534 890
1537 649
1544 890
1547 649
1554 890
1557 649
1564 890
1567 649
1574 890
1577 649
1584 890
1587 649
1593 895
1597 649
1603 895
1607 649
1613 895
1617 649
1623 895
1627 649
1633 893
1637 649
1643 888
1647 649
1653 885
1657 649
1662 880
1667 649
1672 880
1677 649
1682 880
1687 649
1692 884
1696 654
1702 885
1706 654
1712 885
1715 659
1722 885
1725 659
1732 885
1735 662
1741 890
1745 664
1751 890
1755 664
1760 885
1764 669
1770 885
1774 669
1779 880
1783 674
1789 880
1793 675
1798 875
1802 680
1808 873
1810 687
1818 868
1819 692
1825 700
1825 860
1830 709
1830 845
1835 718
1835 728
1835 738
1835 835
1840 747
1840 757
1840 820
1844 767
1845 777
1845 787
1845 797
1845 807
