74 127
74 137
79 117
79 146
79 156
79 166
79 176
84 107
84 185
84 195
84 205
84 215
84 225
84 242
89 251
89 261
94 102
96 269
104 99
106 270
114 97
116 270
124 94
126 273
134 94
136 275
144 94
146 275
154 94
156 275
164 94
166 275
174 94
176 275
184 94
186 275
194 92
196 275
204 89
206 275
214 89
216 275
224 89
226 275
234 89
236 275
244 89
246 275
254 87
256 275
264 84
266 275
274 84
276 275
284 84
286 275
294 84
296 275
304 84
305 270
310 255
314 84
315 245
320 235
324 84
325 225
330 210
334 84
335 185
335 195
340 175
344 84
350 175
354 82
360 175
364 79
370 175
374 79
379 180
384 79
389 180
394 79
399 177
404 77
405 165
413 158
414 74
419 150
424 74
427 144
434 74
435 135
444 74
445 135
454 74
455 135
464 74
464 140
474 74
474 137
484 74
484 135
493 69
494 135
503 69
503 140
513 69
513 140
523 69
523 140
533 69
533 140
542 135
543 69
551 130
552 64
561 130
562 64
571 130
572 64
580 125
581 69
588 118
589 76
593 86
595 110
598 95
