24 107
24 117
24 127
24 142
24 152
24 162
29 171
34 102
36 179
42 94
44 185
50 86
53 190
60 84
60 198
66 75
70 200
74 69
79 205
82 215
84 67
92 59
92 215
100 51
100 222
104 232
108 44
114 235
115 36
120 243
123 29
127 19
128 250
134 267
137 19
142 274
147 19
152 275
157 19
160 29
162 274
168 35
170 255
170 265
177 40
178 248
182 49
188 245
190 235
191 54
195 225
200 59
205 220
210 59
213 213
220 62
223 208
230 62
233 208
238 69
240 200
248 69
250 200
258 70
260 200
265 78
265 190
270 87
275 190
280 84
280 180
285 170
290 84
294 175
300 84
304 177
310 84
310 160
319 155
320 84
329 157
330 84
339 152
340 84
349 150
350 84
358 155
360 82
367 150
370 82
377 150
380 81
387 150
390 84
396 155
400 84
405 160
410 84
415 160
420 84
425 160
430 84
435 160
440 81
445 160
448 75
453 153
458 79
463 150
467 74
470 158
476 79
480 155
485 74
490 155
495 74
498 148
505 74
508 143
514 79
518 145
524 77
528 143
534 77
535 135
542 84
543 128
549 92
550 120
554 101
558 113
