14 232
19 222
24 235
29 219
33 240
38 214
42 245
45 206
50 252
53 199
57 260
60 191
65 267
68 184
72 275
74 172
79 283
82 164
84 292
87 154
92 299
95 146
99 307
103 139
107 129
107 314
115 121
115 320
121 328
124 112
129 102
130 333
138 340
139 92
145 348
147 84
152 74
153 355
157 365
159 62
165 372
167 54
172 380
175 46
179 388
180 36
184 397
188 29
189 406
195 21
196 414
203 14
204 420
213 15
213 425
220 23
223 423
228 30
233 418
235 38
240 410
243 45
248 403
250 53
255 62
255 395
263 388
264 67
268 378
272 74
275 370
281 79
283 363
285 89
290 355
295 92
298 348
299 102
303 338
304 111
305 121
305 140
305 150
305 160
310 130
310 169
310 325
315 315
319 174
320 265
320 275
320 285
320 295
320 305
328 179
328 258
335 250
338 180
345 188
345 245
353 195
354 240
362 200
364 237
372 204
374 235
382 204
384 235
392 204
394 235
402 204
404 235
412 204
414 235
421 209
424 235
431 209
434 235
441 209
444 235
451 210
453 230
461 209
463 230
471 209
473 230
481 209
483 230
490 214
493 230
500 212
503 230
510 214
513 230
520 214
522 235
530 214
532 235
540 214
542 235
550 214
552 235
560 214
562 235
570 214
572 235
580 217
581 230
590 219
591 230
600 219
601 230
610 219
611 230
620 219
621 230
