99 987
99 997
99 1007
107 979
107 1014
109 957
109 967
111 1024
114 947
116 1033
119 937
124 1040
127 929
133 1045
135 921
140 911
140 1053
148 904
150 1055
155 896
160 1057
163 889
170 881
170 1060
178 874
180 1060
187 869
190 1062
197 864
200 1065
207 859
210 1065
216 854
220 1065
225 849
230 1065
234 842
240 1060
242 834
250 1060
251 829
259 822
260 1060
269 817
270 1060
277 809
280 1060
285 801
290 1055
295 796
300 1055
305 791
310 1055
315 786
319 1050
323 779
329 1047
332 774
339 1042
342 769
349 1040
351 764
359 1037
360 759
369 754
369 1032
377 1025
378 749
386 1020
387 744
395 1015
396 739
405 734
405 1010
414 727
414 1005
423 1000
424 722
429 702
429 712
432 995
434 682
434 692
439 667
441 990
444 647
444 657
449 637
450 985
454 627
459 612
459 980
464 602
467 974
469 592
474 582
477 970
479 572
487 970
489 562
496 975
497 554
505 980
506 549
514 542
515 982
524 537
525 980
534 532
535 975
544 529
545 970
554 527
555 965
562 519
564 960
570 511
572 954
580 506
582 949
590 504
592 944
599 509
602 939
609 507
610 930
619 506
620 925
625 514
630 920
634 519
640 915
642 525
649 910
650 532
654 542
659 910
662 549
668 905
670 580
671 554
675 564
675 589
677 899
685 589
687 894
691 580
696 570
697 889
699 552
704 532
704 542
707 884
709 522
715 875
717 514
719 497
724 482
725 870
730 840
732 474
735 865
737 464
738 833
740 844
745 456
745 825
745 860
750 446
750 847
754 820
758 439
763 815
765 431
772 810
773 424
781 805
782 419
790 411
790 800
800 406
800 800
809 795
810 401
817 789
820 396
825 780
830 391
834 775
840 389
844 775
849 384
853 780
859 384
862 785
868 379
872 785
877 374
882 785
887 374
891 790
896 369
901 790
906 369
911 790
915 364
921 790
924 359
931 790
934 357
941 790
944 352
949 782
954 347
959 777
964 344
969 772
973 339
979 770
982 334
988 765
992 334
997 760
1002 329
1006 755
1012 324
1015 750
1022 324
1023 743
1032 319
1033 738
1040 730
1041 314
1049 725
1051 314
1058 720
1060 309
1067 714
1070 306
1075 705
1080 304
1084 700
1089 299
1092 694
1099 299
1102 689
1108 294
1110 680
1115 390
1118 294
1118 673
1123 383
1128 294
1128 668
1130 375
1131 389
1137 289
1138 368
1138 663
1140 384
1145 360
1145 655
1147 289
1149 379
1153 353
1153 648
1157 289
1158 374
1163 348
1163 643
1167 284
1167 369
1170 340
1173 638
1175 330
1176 364
1177 284
1180 630
1184 292
1184 357
1185 320
1185 535
1188 623
1189 301
1190 311
1190 544
1192 349
1195 530
1195 615
1199 337
1200 539
1205 525
1205 610
1207 329
1210 534
1213 518
1215 321
1215 605
1219 529
1220 311
1220 510
1225 600
1228 503
1228 524
1229 302
1233 593
1235 495
1237 294
1237 519
1240 585
1245 286
1245 490
1247 514
1248 578
1253 279
1254 485
1254 570
1257 514
1260 271
1260 560
1263 480
1267 514
1268 264
1268 553
1272 254
1272 475
1275 520
1275 540
1280 246
1280 529
1281 470
1288 239
1290 465
1295 231
1300 460
1305 226
1310 460
1313 219
1319 455
1320 211
1328 204
1329 455
1337 199
1337 449
1345 191
1347 445
1353 184
1356 440
1362 179
1366 440
1372 174
1375 435
1382 169
1384 430
1391 164
1393 425
1400 159
1403 423
1409 154
1413 418
1418 149
1423 413
1427 144
1433 408
1436 139
1440 400
1446 135
1450 395
1456 134
1459 390
1466 134
1468 385
1476 134
1477 380
1486 134
1486 375
1495 370
1496 134
1503 363
1504 141
1510 355
1513 146
1518 348
1520 154
1525 340
1528 160
1534 335
1535 168
1535 178
1540 187
1542 329
1549 192
1550 315
1554 201
1558 211
1558 308
1565 219
1565 229
1565 239
1565 290
1565 300
1570 248
1570 280
1575 257
1575 267
