64 192
64 202
64 212
64 222
64 232
69 177
69 241
74 167
74 250
79 157
79 259
85 267
87 149
92 275
95 141
102 279
103 134
111 284
112 129
120 121
121 285
124 452
130 116
130 460
131 285
132 444
140 111
140 460
141 285
141 439
150 109
150 462
151 285
151 439
159 467
160 109
161 285
161 439
169 114
169 470
171 288
171 439
172 480
175 298
177 489
179 114
179 308
181 439
184 317
184 497
184 507
189 116
189 326
189 516
191 439
194 525
196 334
198 121
199 534
201 343
201 439
201 544
206 553
208 124
209 350
211 435
214 560
215 358
217 129
220 568
221 434
223 365
226 134
227 375
228 575
230 429
234 383
235 139
236 420
237 580
239 392
239 402
245 139
246 585
254 144
256 585
264 144
266 588
274 146
276 590
283 151
285 595
293 154
294 600
303 154
304 600
313 154
313 605
322 149
322 610
331 615
332 144
340 136
341 618
348 129
349 32
349 42
349 52
349 112
350 623
354 61
354 71
354 81
354 91
354 101
359 27
360 625
369 24
370 625
378 29
379 630
387 34
389 630
395 485
397 34
399 630
400 475
400 494
406 39
408 468
408 500
409 630
415 44
415 460
418 504
419 630
423 453
425 44
428 504
429 445
429 627
435 44
438 440
438 505
439 625
445 47
447 510
448 440
448 620
454 52
457 514
458 440
458 618
464 54
466 519
468 440
468 615
474 54
476 519
477 445
477 610
483 59
486 519
486 605
487 449
493 60
495 524
495 600
497 450
502 65
504 529
505 595
507 450
512 69
514 531
515 595
516 455
520 295
521 74
523 536
524 590
525 304
526 458
530 79
530 290
530 313
530 323
532 584
533 540
535 332
535 463
539 285
540 82
540 548
542 340
542 579
545 465
547 90
548 280
548 555
550 347
552 574
554 470
555 97
555 180
555 563
557 275
557 355
560 106
560 170
560 189
564 467
565 115
565 145
565 155
565 362
566 270
567 125
570 135
570 192
572 370
574 262
574 462
577 200
577 379
580 245
580 389
580 450
582 209
585 219
585 235
585 398
585 408
585 430
585 440
590 417
