119 562
119 572
119 582
119 592
119 602
124 611
124 621
124 631
129 557
129 640
129 650
129 660
134 669
139 552
140 677
147 685
149 549
157 685
159 549
167 689
169 549
177 690
178 544
187 690
188 544
197 694
198 544
207 539
207 695
217 539
217 694
227 539
227 690
237 534
237 690
247 534
247 689
257 534
257 685
267 529
267 685
277 529
277 685
286 680
287 529
296 680
297 524
306 680
307 524
315 675
317 524
325 675
326 519
335 675
336 519
345 670
346 519
355 514
355 670
365 514
365 670
375 514
375 670
384 509
384 665
394 509
394 665
404 509
404 665
413 504
413 660
423 504
423 660
433 504
433 660
442 499
442 655
452 499
452 655
462 499
462 655
472 494
472 654
482 494
482 650
492 494
492 650
502 489
502 649
512 489
512 645
522 489
522 645
532 484
532 644
542 484
542 640
552 484
552 640
562 479
562 640
571 635
572 479
581 635
582 479
591 635
592 474
600 630
602 474
610 630
612 474
620 630
622 469
630 625
632 469
640 625
642 469
650 625
652 464
660 625
662 464
669 620
672 464
679 620
682 459
689 620
692 459
698 615
702 459
708 615
712 454
718 615
722 454
728 613
732 454
738 610
742 449
748 610
752 449
758 608
762 449
768 605
772 444
778 605
782 444
788 603
792 444
798 600
801 439
808 600
811 439
818 600
821 439
827 595
830 434
837 595
840 434
847 595
850 434
856 590
859 429
866 590
869 429
876 590
879 429
885 585
888 424
895 585
898 424
905 585
908 424
915 585
917 419
924 580
927 419
934 580
937 419
944 580
947 414
953 575
957 414
963 575
967 414
973 575
977 409
982 570
987 409
992 570
997 409
1002 570
1007 404
1012 569
1017 404
1022 565
1027 404
1032 565
1037 399
1042 564
1047 399
1052 560
1057 399
1062 560
1067 394
1072 559
1077 394
1082 555
1087 394
1092 555
1097 389
1102 555
1107 389
1111 550
1117 389
1121 550
1127 384
1131 550
1137 384
1140 545
1147 384
1150 545
1157 379
1160 545
1167 379
1170 540
1177 379
1180 540
1187 374
1190 540
1197 374
1200 540
1207 374
1209 535
1216 369
1219 535
1226 369
1229 535
1236 369
1238 530
1246 365
1248 530
1256 364
1258 530
1266 364
1268 528
1275 359
1278 525
1285 359
1288 525
1295 359
1298 523
1304 354
1308 520
1314 354
1318 520
1324 354
1328 518
1333 349
1338 515
1343 349
1348 515
1353 349
1358 513
1362 344
1368 510
1372 344
1378 510
1382 344
1388 510
1392 339
1397 505
1402 339
1407 505
1412 339
1417 505
1422 334
1426 500
1432 334
1436 500
1442 334
1446 500
1452 329
1455 495
1462 329
1465 495
1472 329
1475 495
1482 324
1485 495
1492 324
1494 490
1502 324
1504 490
1512 319
1514 490
1522 319
1523 485
1532 319
1533 485
1542 314
1542 490
1552 314
1552 494
1562 309
1562 495
1572 309
1572 495
1582 304
1582 495
1592 304
1592 494
1601 299
1602 490
1611 299
1612 490
1620 294
1621 485
1629 287
1631 485
1637 279
1641 485
1647 274
1650 480
1657 274
1660 480
1666 269
1670 480
1676 269
1679 475
1686 265
1689 475
1696 264
1699 472
1706 264
1709 470
1716 260
1719 470
1726 259
1728 465
1736 259
1738 465
1746 255
1748 465
1756 254
1757 460
1766 254
1767 460
1775 249
1777 459
1785 249
1787 455
1795 249
1797 455
1804 244
1806 450
1814 244
1816 450
1824 244
1826 450
1833 239
1835 445
1843 239
1845 445
1853 239
1855 445
1862 234
1864 440
1872 234
1874 440
1882 234
1884 437
1891 229
1894 435
1901 229
1904 435
1911 229
1914 432
1920 224
1924 430
1930 224
1934 430
1940 221
1943 425
1950 219
1953 425
1960 219
1963 423
1970 216
1973 420
1980 214
1983 420
1990 214
1993 418
2000 211
2003 415
2010 209
2013 415
2020 209
2022 410
2029 204
2032 410
2039 204
2042 409
2049 204
2052 405
2058 199
2062 405
2068 199
2072 404
2078 199
2082 400
2087 194
2092 400
2097 194
2101 395
2107 194
2111 395
2116 189
2121 395
2126 189
2130 390
2136 189
2140 390
2146 189
2150 385
2155 194
2160 203
2160 385
2168 210
2170 385
2172 220
2180 227
2180 380
2187 235
2190 380
2195 242
2200 380
2204 247
2209 375
2210 255
2215 264
2215 274
2215 284
2217 369
2220 293
2220 303
2220 313
2220 323
2225 332
2225 342
2225 355
