664 1152
669 1142
669 1161
674 1170
677 1134
683 1175
686 1129
692 1170
694 1122
702 1170
704 1117
711 1165
714 1112
720 1160
724 1107
730 1155
734 1104
739 832
740 1155
744 807
744 817
744 841
744 1104
749 337
749 347
749 357
749 367
749 377
749 387
749 767
749 777
749 787
749 797
750 1155
751 849
753 1109
754 307
754 317
754 327
754 396
754 727
754 737
754 747
754 757
759 297
759 702
759 712
760 1155
761 404
761 850
763 1109
764 287
764 677
764 687
766 413
769 272
769 662
770 1155
771 850
772 1114
774 262
774 420
774 642
774 652
777 430
779 627
780 1155
781 850
781 1119
782 254
784 438
784 602
784 612
787 244
789 537
789 547
789 557
789 567
789 577
789 587
790 1124
790 1155
791 850
792 234
792 445
794 527
798 1130
799 222
800 845
800 1155
801 450
802 519
807 214
807 509
808 838
808 1134
809 456
810 1155
812 499
815 206
818 835
818 1134
819 460
819 972
819 982
819 992
819 1002
819 1012
819 1022
819 1032
819 1042
819 1052
819 1062
820 491
820 1155
824 469
824 479
824 957
824 1071
825 201
827 830
828 1134
829 942
829 1080
830 1155
834 932
834 1089
835 199
836 825
838 1134
839 917
839 1098
839 1108
839 1118
840 1155
844 892
844 902
845 199
845 820
849 872
849 882
850 1155
854 857
855 199
855 815
859 847
860 1155
864 837
865 199
865 815
869 827
869 1150
875 199
879 1147
885 199
885 1050
885 1060
885 1070
885 1080
885 1090
889 1142
890 1099
893 1043
894 1132
895 199
895 1108
895 1118
900 1035
905 199
910 1035
914 204
920 1035
924 204
930 1035
933 209
940 1035
943 210
950 1035
952 215
960 222
960 1035
969 227
969 1137
969 1147
969 1157
970 1035
974 1122
977 234
977 1164
980 1035
982 1114
984 242
985 1170
990 1037
990 1106
992 249
994 1047
994 1057
995 259
995 1170
998 1099
999 1066
999 1076
999 1086
1000 268
1005 277
1005 1170
1010 286
1013 296
1015 306
1015 316
1015 326
1015 336
1015 346
1015 356
1015 1170
1018 366
1025 374
1025 730
1025 740
1025 750
1025 1170
1030 759
1030 769
1033 723
1034 379
1035 778
1035 1080
1035 1090
1035 1100
1035 1110
1035 1120
1035 1130
1035 1170
1040 787
1040 1139
1043 374
1043 720
1044 1075
1044 1165
1045 670
1045 796
1047 364
1049 352
1050 805
1050 1139
1052 815
1053 663
1053 720
1053 1070
1054 337
1054 1165
1055 674
1055 825
1059 327
1060 834
1060 844
1060 1139
1062 1064
1063 658
1063 720
1064 317
1064 1165
1065 674
1065 853
1069 307
1070 650
1070 862
1070 872
1070 882
1070 892
1070 1055
1070 1139
1072 725
1074 297
1074 679
1074 1165
1075 901
1075 911
1075 921
1075 931
1078 643
1078 1048
1080 732
1080 1139
1081 939
1082 289
1082 685
1084 742
1084 1165
1085 635
1085 1035
1089 751
1089 946
1089 1134
1090 281
1090 625
1090 692
1090 1020
1094 760
1094 1165
1095 615
1095 954
1097 700
1097 770
1099 1132
1100 276
1100 605
1100 1020
1104 1165
1105 525
1105 535
1105 545
1105 555
1105 565
1105 575
1105 585
1105 595
1105 707
1105 777
1105 957
1109 267
1109 787
1109 1129
1110 1020
1112 715
1113 964
1114 1165
1115 535
1117 794
1119 262
1119 1127
1120 722
1120 1020
1121 804
1123 965
1124 540
1124 1165
1127 254
1127 730
1129 810
1129 1122
1130 1020
1132 739
1133 969
1134 540
1134 1165
1135 749
1135 818
1137 249
1139 1119
1140 758
1140 1020
1142 974
1143 545
1143 825
1144 1165
1147 244
1148 764
1148 1114
1150 833
1150 1020
1152 974
1153 545
1154 1165
1157 244
1158 764
1158 840
1158 1114
1160 1020
1162 539
1162 974
1164 1165
1167 244
1167 845
1167 1109
1168 764
1170 530
1170 1020
1172 974
1174 837
1174 1165
1176 1104
1177 244
1178 764
1180 525
1180 810
1180 820
1180 1015
1182 974
1184 1165
1186 1104
1187 244
1188 764
1189 520
1190 810
1190 1015
1192 974
1194 1165
1196 249
1196 1104
1197 769
1199 520
1199 1010
1200 810
1202 974
1204 1165
1205 254
1205 1109
1207 769
1208 515
1208 1005
1210 810
1211 969
1214 1162
1215 257
1215 1109
1217 510
1217 769
1217 1000
1220 810
1221 969
1224 262
1224 1157
1225 1112
1226 505
1226 774
1226 995
1229 962
1229 1147
1230 805
1232 1120
1234 266
1234 952
1234 1137
1235 500
1235 779
1236 995
1238 798
1240 274
1242 944
1243 785
1245 495
1245 990
1247 934
1250 277
1252 924
1253 488
1255 990
1259 282
1259 912
1260 480
1264 877
1264 887
1264 897
1265 290
1265 985
1268 473
1269 837
1269 847
1269 857
1269 867
1270 299
1270 309
1273 463
1274 827
1275 318
1275 328
1275 338
1275 348
1275 358
1275 368
1275 378
1275 388
1275 398
1275 408
1275 418
1275 428
1275 438
1275 448
1275 980
1279 807
1279 817
1284 797
1285 975
1289 777
1289 787
1294 767
1295 970
1299 757
1300 960
1304 747
1305 945
1310 935
1312 739
1315 925
1317 729
1320 910
1325 875
1325 885
1325 895
1326 724
1330 785
1330 795
1330 805
1330 815
1330 825
1330 835
1330 845
1330 855
1330 865
1334 712
1335 760
1335 770
1340 750
1344 707
1349 745
1352 699
1358 740
1362 694
1368 738
1372 694
1378 733
1382 694
1385 725
1390 715
1391 699
