24 602
29 277
29 287
29 592
32 609
34 267
34 296
39 589
41 304
42 610
44 262
49 310
49 589
52 254
52 610
55 318
59 587
62 249
62 610
65 322
67 579
70 241
72 330
72 610
77 574
80 236
81 335
82 614
87 574
88 229
89 341
89 622
96 349
97 224
97 574
99 625
104 355
104 582
107 219
108 630
109 364
114 586
115 211
115 372
117 635
122 380
124 589
125 206
127 635
130 387
134 589
135 201
137 395
137 635
143 194
143 594
145 402
146 640
152 189
152 410
152 599
156 643
160 417
161 604
162 184
166 645
167 425
170 609
171 179
175 640
177 429
179 172
179 614
184 645
187 164
187 430
189 612
194 645
195 156
197 434
199 609
200 146
204 645
207 435
208 139
209 609
213 640
215 131
217 435
218 604
223 124
223 638
226 430
227 114
227 599
232 104
233 633
234 452
235 425
235 591
239 435
240 96
242 459
243 584
243 628
248 89
249 572
250 620
252 459
254 562
255 81
257 449
260 615
262 554
263 74
264 457
264 467
264 477
267 544
269 486
269 496
269 532
270 610
272 69
274 505
274 515
278 603
282 64
285 595
290 585
291 59
298 578
299 52
304 42
305 570
309 32
310 560
315 550
317 24
323 543
325 525
327 24
333 518
335 30
335 495
335 505
340 39
344 490
345 48
347 500
353 55
355 507
360 63
362 499
370 64
370 480
370 490
375 455
375 465
379 69
380 445
387 75
389 450
395 82
395 458
402 90
403 465
410 97
410 455
415 106
415 445
420 435
421 114
425 124
430 133
430 435
438 140
440 435
445 148
450 435
453 155
460 163
460 430
468 170
470 425
475 178
480 420
483 185
488 413
490 193
495 405
498 199
503 398
507 204
510 385
515 375
516 209
523 368
525 214
530 360
535 217
535 350
544 222
544 345
552 339
554 226
560 330
563 231
568 323
570 239
578 318
580 242
585 310
587 250
595 305
597 254
603 298
604 262
605 272
610 281
