24 227
24 237
24 247
29 212
29 256
34 202
34 265
39 274
42 194
44 283
49 292
50 186
54 301
58 179
59 310
64 319
65 171
70 327
73 164
74 337
79 346
82 159
86 354
90 151
91 363
95 373
100 146
103 380
107 390
110 141
115 397
118 134
122 405
127 129
130 412
137 124
137 420
145 427
146 119
152 435
154 112
160 442
162 104
167 450
172 99
176 455
179 482
179 492
181 94
184 461
184 471
185 500
190 89
194 505
199 82
204 505
209 77
214 505
219 72
223 510
227 64
232 515
237 59
242 515
247 54
251 520
254 530
255 46
259 539
261 549
263 39
266 558
270 31
270 568
275 577
278 24
282 585
287 29
290 592
296 34
297 600
304 41
305 607
310 49
312 615
315 510
315 520
319 54
320 529
320 539
321 620
325 510
325 548
327 60
330 557
331 623
334 567
335 510
337 64
341 625
342 574
344 72
345 510
349 582
350 630
354 76
354 505
357 589
359 635
363 81
364 502
366 594
369 635
370 89
370 460
370 470
370 490
375 479
375 599
378 95
378 640
379 455
384 604
385 103
387 449
388 640
393 110
394 606
397 444
398 640
402 115
404 609
407 439
407 645
410 122
414 609
415 430
416 650
419 127
423 423
424 609
426 653
429 131
430 415
434 607
435 139
435 658
438 408
444 604
445 139
445 400
445 660
453 393
453 599
454 144
454 665
455 630
457 640
458 383
463 149
463 373
463 599
464 427
464 437
464 447
464 457
464 625
464 665
465 647
469 417
469 466
470 360
470 591
472 154
474 407
474 475
474 485
474 622
474 652
474 667
475 350
475 581
479 397
479 494
479 567
480 420
480 430
480 440
480 450
481 159
481 504
482 614
483 343
484 514
484 524
484 534
484 544
484 554
485 410
485 459
487 389
489 166
490 330
490 468
490 478
490 605
493 403
495 174
495 487
495 595
497 384
498 323
500 395
500 496
500 580
503 180
503 313
503 506
505 516
505 570
506 379
509 390
510 188
510 300
510 525
510 535
510 545
510 555
515 197
515 290
515 374
518 385
519 207
523 283
525 215
525 374
527 390
528 273
529 417
530 224
533 263
534 379
534 398
534 408
534 426
535 233
535 243
535 253
540 416
542 385
545 395
545 405
