199 212
199 222
199 232
199 242
204 197
204 251
204 261
209 187
209 270
212 280
219 182
220 287
224 167
224 297
229 306
234 162
236 314
241 323
244 157
249 147
249 330
252 340
259 144
260 347
267 355
268 139
269 365
275 131
278 370
283 124
284 378
289 387
292 119
297 394
302 114
304 402
309 411
310 106
316 419
320 104
324 425
329 97
329 434
335 442
337 89
344 447
347 84
354 450
357 79
363 455
367 74
369 463
369 473
374 482
375 66
380 490
385 64
389 495
391 55
398 500
399 49
407 505
408 44
417 39
417 505
425 31
426 510
433 24
434 516
439 525
439 535
439 682
439 692
442 545
443 24
444 555
444 565
444 575
447 585
447 674
449 595
449 605
449 615
449 625
449 635
449 645
449 655
449 695
453 24
458 700
459 710
459 720
462 29
464 729
464 739
464 749
464 759
469 768
469 778
469 788
470 798
471 34
475 44
480 655
480 665
480 675
480 685
480 695
480 705
480 770
480 780
480 790
485 44
485 520
485 530
485 540
485 550
485 560
485 570
485 580
485 590
485 600
485 610
485 620
485 630
485 640
485 714
485 724
485 734
485 744
485 754
493 50
493 513
495 500
500 58
504 495
508 64
514 495
517 69
522 489
526 74
530 480
535 79
535 460
535 470
543 453
544 84
553 448
554 86
558 96
559 440
567 434
568 100
575 108
575 425
583 418
585 112
590 410
592 120
595 400
600 390
602 124
609 132
610 385
615 370
617 139
623 363
626 144
630 350
635 149
635 340
640 330
643 155
648 323
650 163
655 305
655 315
660 167
660 295
668 288
669 172
675 180
675 270
675 280
683 186
683 263
688 253
690 194
693 243
695 203
695 230
700 212
