339 207
339 217
339 227
339 237
339 247
339 257
344 197
344 266
344 276
349 187
349 285
354 294
357 179
360 302
364 167
364 312
372 159
372 319
379 327
382 154
387 334
391 149
394 342
400 144
402 349
409 139
409 357
414 366
418 134
421 374
426 383
427 129
434 390
436 124
437 400
445 119
445 407
449 417
454 112
457 424
464 107
464 432
472 439
474 102
480 445
482 94
489 450
492 89
495 458
502 84
503 465
511 79
512 470
519 72
522 474
529 67
530 480
539 62
539 485
545 493
549 57
549 1027
549 1037
549 1047
549 1057
549 1067
549 1077
554 1017
554 1086
555 497
557 49
559 1007
559 1095
564 997
564 1104
565 500
565 1040
565 1050
565 1060
565 1070
567 44
570 1025
570 1079
570 1089
572 989
572 1110
574 505
575 1015
575 1098
577 39
579 977
580 1005
583 510
585 995
587 34
587 969
593 510
593 988
594 957
597 29
599 518
599 528
599 538
599 548
600 558
600 980
604 568
604 578
604 952
607 29
608 973
609 587
609 597
612 944
613 963
614 606
616 24
617 934
619 615
620 955
624 624
625 926
626 24
628 948
630 632
634 642
635 29
635 921
635 940
639 727
640 911
642 649
643 933
644 717
645 32
646 659
648 904
649 702
649 727
650 515
650 525
650 535
650 545
650 925
652 555
654 37
654 665
654 675
654 685
655 565
657 575
657 719
657 899
658 508
658 918
662 584
662 709
664 41
665 594
665 891
665 910
668 503
670 603
670 881
672 705
673 46
674 905
675 612
678 500
680 621
680 876
682 705
682 899
683 49
685 630
687 495
687 889
688 869
690 639
692 54
692 709
695 648
695 861
695 880
696 490
696 719
700 657
700 851
701 59
704 725
704 875
705 485
707 665
707 735
708 844
710 64
712 744
712 869
713 478
714 832
715 672
716 754
719 682
720 67
720 860
721 763
722 824
723 473
724 773
724 812
725 690
728 74
728 853
729 782
729 792
729 802
730 699
733 468
735 708
735 840
737 79
740 460
740 717
740 830
744 727
745 737
745 820
746 84
749 747
750 455
750 757
750 767
750 777
750 787
750 797
750 807
755 89
758 448
765 92
765 440
774 97
775 430
782 104
783 423
790 415
791 109
798 408
800 114
805 400
810 117
810 390
818 124
818 383
823 373
827 129
828 363
835 350
836 134
840 340
845 139
848 333
853 323
854 144
860 315
862 150
865 305
870 157
873 298
878 164
880 285
887 169
888 278
893 268
894 177
898 258
899 186
900 196
903 248
905 205
905 215
905 225
905 235
