24 297
24 307
24 317
24 327
24 337
24 347
24 357
24 367
24 377
29 386
29 396
32 289
34 405
39 414
40 281
44 423
44 433
45 271
45 443
50 452
53 264
54 462
59 471
63 264
64 480
64 490
64 500
64 510
64 520
67 254
67 530
69 540
74 549
76 249
79 558
80 568
84 578
85 244
85 588
93 595
95 244
97 605
102 614
104 237
104 624
104 682
104 692
104 702
106 634
109 644
109 654
109 664
112 709
114 232
122 704
124 227
130 695
134 224
140 695
144 222
148 688
154 219
158 683
164 217
168 680
174 214
177 675
184 214
187 675
193 209
197 675
203 209
207 675
213 209
217 675
223 209
227 675
232 214
237 675
242 214
247 675
251 219
257 675
260 224
266 670
270 227
276 670
280 229
285 665
289 222
294 212
295 665
304 207
305 660
312 199
315 660
321 194
325 655
330 189
335 655
339 184
345 655
349 184
355 655
359 184
364 650
369 186
370 196
374 650
376 204
384 650
386 204
391 195
393 645
399 187
403 645
409 182
412 640
417 174
422 640
425 166
431 635
435 161
441 635
443 154
450 146
450 230
450 240
450 250
450 305
450 315
451 635
452 260
452 325
455 270
455 280
455 290
458 223
460 144
461 635
462 329
465 215
469 137
469 337
469 627
473 208
477 344
479 132
479 622
480 200
484 352
487 615
488 193
489 127
490 360
492 370
494 185
497 379
497 614
499 124
500 389
504 182
505 398
505 605
508 119
509 172
510 407
510 417
513 598
514 427
517 114
517 165
520 435
520 590
522 445
525 580
526 160
527 109
527 454
530 464
530 474
530 484
530 555
530 565
534 152
535 493
535 503
535 513
535 523
535 533
535 543
536 104
544 147
546 104
554 145
556 104
563 140
566 104
572 135
576 104
581 130
586 104
591 130
596 104
600 125
606 104
610 125
616 104
620 125
626 104
630 125
636 104
640 125
646 104
650 125
656 104
660 125
666 104
670 125
676 104
679 130
686 104
688 135
695 109
695 143
700 152
705 112
707 160
714 117
715 167
722 124
725 150
725 160
731 129
734 155
739 136
740 163
744 173
744 183
744 193
744 203
748 141
749 212
755 149
759 207
760 158
768 165
769 205
774 214
774 224
774 234
775 173
775 183
776 244
780 192
780 202
785 211
785 221
785 231
