24 507
24 517
29 526
29 536
34 504
34 545
40 553
42 510
45 520
47 530
48 560
52 539
55 568
62 539
63 575
70 583
71 544
75 554
80 563
80 587
87 595
88 569
97 595
98 570
107 595
108 574
117 595
118 574
127 569
127 595
137 564
137 595
139 142
139 152
144 161
144 171
144 181
146 590
147 134
147 559
149 190
152 200
155 126
156 590
157 554
159 208
159 218
160 228
164 238
165 121
165 546
165 585
169 247
169 257
173 539
174 266
175 119
175 580
179 275
180 570
182 285
182 534
184 295
185 116
188 563
189 304
189 522
191 314
194 324
194 334
194 512
195 114
195 555
196 344
199 354
202 504
204 363
204 550
205 114
205 373
209 432
209 492
210 382
212 544
214 392
214 422
214 441
214 451
214 461
214 471
214 481
215 114
219 401
220 535
222 414
225 114
228 528
235 114
235 515
240 505
245 114
249 500
255 114
258 495
265 114
268 493
275 114
278 490
282 500
285 114
292 499
295 114
300 485
305 114
309 480
315 114
319 480
325 114
329 480
335 114
339 480
345 114
349 480
355 114
359 480
365 114
368 485
374 109
378 485
384 109
388 485
394 109
397 490
403 104
407 490
413 104
417 490
423 104
426 495
433 104
436 495
442 99
446 495
452 99
455 500
462 99
465 500
471 94
475 500
481 94
485 500
491 94
495 500
500 89
504 505
510 86
514 505
520 84
523 510
530 84
533 510
540 81
543 510
550 79
553 510
559 74
562 505
569 76
570 100
570 110
570 120
570 130
570 140
570 150
570 160
570 170
570 180
570 190
570 225
570 235
570 245
570 255
570 265
570 275
570 285
572 200
572 295
572 504
575 84
575 210
575 305
575 315
575 325
575 335
580 344
580 354
580 364
582 499
585 373
585 383
585 393
585 403
585 413
587 489
590 422
590 432
590 442
590 465
590 475
595 451
