24 442
24 452
34 437
34 455
43 460
44 436
50 468
53 441
58 475
59 485
60 449
64 494
69 503
70 449
70 513
75 522
80 452
82 530
89 457
90 537
94 547
95 465
95 475
100 484
102 554
108 490
109 562
115 498
119 565
122 575
123 505
125 515
125 525
125 535
130 544
131 580
139 549
140 585
148 554
149 590
157 559
158 595
166 564
167 600
176 564
176 595
186 564
186 598
196 564
196 600
206 564
206 600
216 560
216 603
226 559
226 605
229 207
229 217
229 227
234 236
234 246
234 256
234 266
235 600
236 559
237 199
239 275
239 312
239 322
239 332
239 342
239 352
244 284
244 294
244 361
244 371
244 381
244 595
245 554
246 194
249 390
252 400
254 597
255 189
255 551
257 409
263 544
264 417
264 595
265 189
270 536
272 424
274 592
275 189
279 527
281 429
282 584
284 462
284 517
285 189
289 435
289 471
289 502
292 454
292 580
294 194
294 492
295 443
299 475
301 575
302 485
304 194
310 570
314 194
320 570
324 194
328 563
333 199
334 571
338 560
339 580
343 199
349 577
353 199
359 572
362 204
369 570
372 204
377 564
382 204
385 555
392 204
394 550
399 559
399 569
401 209
407 575
411 209
416 580
421 209
424 572
429 562
431 209
439 565
441 205
445 573
451 204
453 580
461 204
462 585
471 204
472 589
481 200
482 590
491 199
492 590
500 194
502 590
510 191
512 590
520 189
522 589
530 189
532 585
540 189
542 585
550 189
552 584
560 192
562 579
570 194
572 575
580 194
582 575
590 194
592 575
600 191
602 575
608 184
612 575
618 184
622 575
625 205
625 215
625 225
627 189
627 235
630 245
632 575
635 254
635 350
635 360
635 370
635 380
640 263
640 273
640 283
640 293
640 303
640 313
640 323
640 333
640 389
640 399
640 409
641 580
645 418
650 427
650 437
651 580
655 446
658 456
661 580
663 465
665 475
670 484
670 494
670 575
675 503
680 512
680 570
684 522
685 532
685 542
685 552
