24 412
24 422
24 432
29 402
29 441
34 252
34 262
35 425
36 449
39 242
39 271
39 397
40 415
40 434
44 232
44 280
47 290
49 394
49 410
52 224
54 298
57 214
59 307
59 394
59 410
59 577
62 204
64 316
64 547
64 557
64 567
64 586
64 596
64 606
68 415
69 396
69 532
69 615
70 196
71 324
74 522
75 623
76 333
77 420
78 189
78 401
79 507
80 343
80 632
84 492
85 181
85 352
85 427
85 550
85 560
85 570
87 640
88 405
89 437
89 477
90 535
90 579
90 589
90 599
92 360
93 174
94 446
94 456
94 466
95 413
95 520
95 608
97 644
99 368
100 166
100 422
100 505
103 615
104 377
104 652
104 692
104 702
105 431
105 490
108 159
108 441
109 386
110 451
110 461
110 471
110 481
110 623
112 659
114 395
114 687
114 705
117 154
118 630
120 403
121 664
122 679
124 702
127 149
127 635
128 410
134 418
134 697
137 144
137 639
139 427
144 436
144 692
146 644
147 139
154 440
154 687
156 644
157 134
160 448
164 685
166 129
166 644
168 455
173 680
175 124
176 644
177 460
183 678
184 117
186 465
186 644
192 109
193 675
194 471
195 639
202 104
203 675
204 475
205 636
209 512
210 96
210 483
213 673
214 493
214 503
214 521
215 631
218 89
221 529
223 624
223 670
225 81
231 533
232 619
233 670
235 76
240 611
241 535
242 665
245 71
248 604
251 538
251 660
253 64
254 592
259 582
260 655
261 540
262 59
264 567
269 546
269 556
270 51
270 650
280 46
280 645
288 39
288 638
292 29
295 630
302 24
303 623
310 610
311 29
318 603
320 34
323 593
330 37
330 575
330 585
335 560
337 45
340 550
345 52
348 543
353 59
358 538
362 64
368 535
371 69
378 535
380 74
388 535
389 79
398 84
398 535
405 485
407 89
407 529
410 494
410 504
414 97
415 480
415 513
424 101
425 475
433 106
433 468
440 114
443 463
449 119
450 455
457 125
458 448
465 132
465 440
473 433
474 137
480 420
484 141
488 413
493 146
495 405
500 154
503 398
508 388
510 157
510 375
515 365
519 162
523 358
527 169
530 345
536 174
538 338
543 328
544 181
548 318
550 189
555 305
558 195
563 298
565 203
565 285
570 212
570 275
575 265
577 220
580 230
580 240
580 250
