279 1387
279 1397
279 1407
279 1417
284 1302
284 1312
284 1357
284 1367
284 1377
284 1426
284 1457
284 1467
284 1487
284 1497
284 1527
284 1537
284 1547
284 1557
289 1321
289 1331
289 1341
289 1435
289 1445
289 1476
289 1506
289 1516
294 1272
294 1282
294 1297
294 1560
299 1247
299 1569
299 1579
299 1589
304 1237
304 1256
304 1266
304 1598
304 1608
305 1618
314 1207
314 1217
314 1227
315 1622
319 1177
319 1187
319 1197
319 1632
319 1642
319 1652
319 1662
324 1167
324 1671
329 1157
329 1680
334 1147
334 1689
342 1695
344 1112
344 1122
344 1137
344 1705
344 1715
347 1725
354 1107
354 1733
354 1743
355 1753
359 1097
364 1087
365 1757
369 1077
374 1067
374 1762
374 1772
380 1780
384 1057
389 1037
389 1047
389 1785
392 1795
394 1027
397 1804
399 1017
401 1814
406 1823
407 1009
415 1828
417 1004
419 987
425 1832
427 979
434 1837
437 974
439 957
439 1846
444 1855
447 949
453 1860
457 944
459 927
459 1868
464 917
464 1877
469 897
469 907
474 887
474 1880
475 1460
475 1470
480 1395
480 1479
480 1489
480 1499
482 1405
483 1885
484 877
485 1385
485 1415
485 1425
485 1455
485 1508
485 1518
485 1528
487 1435
490 1375
490 1445
490 1537
490 1547
490 1557
490 1567
490 1577
492 1890
494 867
494 1587
495 1365
500 1345
500 1355
501 1895
502 1594
504 857
505 1335
505 1604
505 1614
505 1624
506 1904
514 852
514 1910
515 1305
515 1315
515 1325
515 1627
522 1635
523 1915
524 847
525 1295
527 1644
529 837
530 1654
530 1664
532 1920
534 827
535 1285
539 1669
540 1275
541 1925
544 817
545 1245
545 1255
545 1265
545 1677
545 1687
549 797
549 807
550 1235
550 1930
552 1695
555 1225
557 789
557 1704
559 1935
565 1215
565 1710
567 784
568 1940
570 1205
570 1719
572 774
575 1728
577 764
577 1945
579 1200
580 1737
584 1747
585 756
587 1194
587 1949
590 746
590 1175
592 1754
595 736
597 1950
599 1170
601 1759
604 727
607 1164
607 1950
609 1766
612 1154
613 1776
614 717
617 1145
617 1954
619 707
621 1964
623 1780
624 697
625 1135
631 1965
632 1785
634 687
635 1125
639 667
639 677
640 1115
641 1965
642 1789
645 1105
647 659
650 1095
651 1794
651 1965
655 1085
657 654
660 1075
661 1794
661 1965
662 644
667 634
669 1070
670 1799
671 1965
675 626
675 1808
678 1065
680 616
681 1965
685 606
685 1055
685 1809
686 1974
694 597
695 1045
695 1809
696 1975
704 587
705 1035
705 1812
706 1975
710 1025
714 577
715 1015
715 1814
716 1975
720 995
720 1005
724 572
725 985
725 1811
726 1975
734 567
735 975
735 1812
736 1975
739 557
744 547
744 1817
745 965
746 1975
750 955
754 537
754 1819
755 945
756 1978
759 507
759 517
759 527
764 497
764 1817
765 935
766 1975
769 487
770 925
774 477
774 1812
775 915
776 1975
784 467
784 1809
785 905
786 1975
790 895
794 457
794 1809
795 885
796 1975
799 447
804 437
804 1811
805 875
806 1975
810 865
814 427
814 1814
815 855
815 1970
819 417
824 1812
825 845
825 1970
827 409
834 1809
835 835
835 1970
837 404
839 387
840 825
844 1809
845 1970
847 379
849 820
854 1807
855 1965
857 374
858 815
859 357
864 1797
865 805
865 1960
869 354
870 795
874 1794
875 1960
879 354
879 790
884 1796
885 346
885 1955
887 784
890 336
890 765
894 1797
895 326
895 1950
899 760
899 1787
900 316
904 1777
905 1950
907 754
908 309
912 744
914 1767
915 1945
917 735
918 309
919 1757
924 1747
925 725
925 1935
927 304
932 294
934 1737
935 720
935 1930
937 284
939 1727
944 1717
945 276
945 715
945 1925
950 266
950 705
954 1707
955 1920
958 259
959 700
964 1697
965 1915
967 254
968 695
969 1687
970 1905
974 1677
975 660
975 670
975 685
977 249
979 1900
984 1667
985 655
987 244
988 1895
989 1657
990 645
995 236
995 635
997 1649
997 1890
1000 226
1005 625
1006 1885
1007 1644
1008 219
1010 1875
1012 1634
1015 620
1015 1865
1017 1624
1018 219
1022 1614
1025 615
1025 1865
1027 214
1027 1604
1030 605
1032 204
1032 1594
1035 595
1035 1865
1037 1584
1040 1845
1040 1855
1041 199
1045 585
1045 1576
1045 1835
1050 194
1050 575
1054 1567
1055 1830
1056 185
1059 570
1059 1557
1064 1547
1065 1825
1066 184
1067 564
1070 1815
1072 554
1074 1537
1075 1805
1076 184
1077 545
1079 1527
1081 175
1085 535
1085 1795
1087 1519
1089 169
1090 505
1090 515
1090 525
1095 495
1095 1785
1097 1514
1099 169
1099 1497
1100 485
1100 1775
1105 475
1107 1489
1109 169
1109 1770
1115 465
1117 1484
1117 1764
1118 164
1119 1427
1119 1467
1120 445
1120 455
1120 1745
1124 1436
1124 1457
1125 385
1125 395
1125 435
1127 159
1127 405
1127 1419
1129 1397
1129 1445
1129 1740
1130 415
1130 425
1130 1715
1132 1725
1134 1406
1135 375
1137 154
1137 1389
1139 1367
1139 1710
1140 365
1142 144
1144 1376
1145 355
1145 1675
1145 1685
1147 1359
1147 1695
1151 139
1155 345
1155 1665
1156 1364
1159 127
1160 335
1160 1655
1164 117
1165 325
1165 1369
1165 1645
1170 315
1170 1615
1170 1625
1170 1635
1174 112
1175 305
1175 1372
1175 1605
1180 1585
1180 1595
1184 109
1184 1377
1185 295
1185 1575
1190 285
1190 1555
1190 1565
1194 109
1194 1381
1195 1545
1199 280
1200 1525
1200 1535
1203 1386
1204 109
1205 1415
1205 1425
1205 1455
1205 1465
1205 1485
1205 1495
1205 1515
1207 274
1207 1435
1207 1475
1207 1505
1208 1395
1210 255
1210 1405
1210 1445
1214 107
1219 250
1224 104
1227 244
1230 225
1234 106
1235 215
1240 205
1243 111
1245 195
1250 165
1252 175
1253 115
1255 185
1257 125
1259 160
1262 134
1265 144
1267 154
