70 781
75 761
75 771
75 790
80 726
81 798
83 755
85 716
86 734
89 805
90 706
93 755
94 740
98 810
99 711
103 745
103 755
107 815
109 715
112 760
113 749
115 821
119 715
121 829
129 715
129 835
135 843
139 715
143 849
149 715
152 854
159 715
160 861
166 869
169 715
174 875
179 715
184 875
189 716
190 883
199 720
200 886
206 894
209 720
216 898
218 725
226 900
227 730
234 906
237 730
244 910
247 730
250 918
257 730
260 921
266 929
267 730
274 935
277 730
284 935
286 735
293 940
296 739
302 945
306 740
312 949
316 740
320 955
325 745
330 956
335 745
339 961
344 750
346 969
353 755
356 970
363 755
365 975
372 760
374 980
382 760
383 985
391 765
393 985
401 765
402 990
410 770
411 995
420 770
420 1000
429 775
429 1005
438 780
438 1010
448 780
448 1014
458 780
458 1015
467 785
467 1020
475 1026
477 785
485 1030
487 785
494 1035
496 780
503 1040
505 775
513 1044
514 770
523 1045
524 768
532 1050
534 763
542 1054
544 758
550 1060
554 755
559 1065
560 795
564 753
565 804
569 790
569 1065
574 748
575 808
575 1073
579 787
584 746
585 808
585 1075
589 782
594 748
594 1080
595 810
597 775
600 1088
604 745
605 813
605 1097
606 770
613 1104
614 745
615 815
616 770
620 1112
624 745
625 765
625 815
625 1121
630 1130
633 750
635 765
635 818
635 1139
640 1148
643 750
645 765
645 820
645 1157
650 1166
652 755
654 1176
655 820
655 1186
661 1194
664 825
669 1200
673 1210
674 825
678 1219
684 825
685 1227
693 1234
694 826
702 1239
704 830
710 1246
713 835
720 1250
723 835
729 1255
732 840
738 1260
742 840
748 1260
751 845
758 1260
760 850
768 1260
769 855
777 1265
779 855
786 1260
788 860
794 1252
797 865
802 1244
806 870
810 1230
816 870
818 1223
820 1205
825 875
825 1195
834 880
835 1195
843 885
845 1196
851 1204
852 890
856 1213
862 890
864 1220
868 1230
871 895
873 1239
879 901
880 1247
885 909
886 1255
891 1264
895 910
899 1270
903 916
903 1280
910 924
910 1288
918 1294
920 925
925 1302
929 930
935 1306
938 935
941 1314
947 940
951 1318
954 948
960 1323
964 951
968 1329
970 959
977 1334
978 965
985 1340
987 970
994 978
995 1341
1004 981
1005 1345
1013 986
1014 1350
1023 990
1024 1350
1033 990
1033 1355
1042 995
1043 1355
1046 1005
1052 1360
1055 1010
1062 1360
1064 1005
1071 1365
1073 1010
1076 1020
1081 1368
1085 1025
1091 1370
1094 1030
1100 1375
1103 1035
1109 1380
1113 1035
1118 1385
1123 1035
1128 1389
1132 1030
1137 1394
1142 1030
1146 1399
1151 1035
1156 1403
1160 1030
1164 1410
1170 1030
1174 1410
1175 686
1175 696
1175 706
1178 1036
1180 715
1180 725
1183 679
1183 1415
1185 651
1185 661
1186 733
1188 1040
1190 641
1190 743
1190 1423
1195 752
1197 1045
1200 636
1200 1425
1203 759
1204 1053
1209 1430
1210 601
1210 611
1210 621
1210 631
1210 767
1212 1060
1218 594
1218 774
1219 1430
1221 1065
1225 782
1228 590
1228 1435
1229 1071
1233 789
1237 585
1238 1076
1238 1435
1242 794
1247 585
1248 1080
1248 1439
1251 799
1251 1090
1256 580
1256 1099
1257 1444
1259 805
1266 575
1266 1100
1267 1445
1268 810
1275 818
1275 1105
1276 575
1277 1445
1284 1110
1285 821
1286 575
1286 1450
1291 829
1293 1115
1295 570
1295 1445
1301 833
1302 1120
1305 570
1305 1445
1309 840
1311 1125
1314 1450
1315 568
1318 845
1320 1130
1324 1450
1325 570
1325 853
1328 1136
1334 575
1334 1450
1335 855
1338 1140
1343 580
1344 860
1344 1450
1347 1145
1353 580
1353 865
1353 1455
1355 901
1355 911
1357 1145
1359 588
1359 921
1360 873
1360 883
1362 1450
1364 930
1367 595
1367 1145
1368 940
1372 1450
1373 949
1374 603
1376 959
1376 1140
1380 611
1382 1450
1384 965
1384 1146
1385 620
1390 629
1390 973
1392 1450
1394 1150
1395 638
1395 648
1398 979
1401 1445
1403 655
1404 1150
1405 665
1405 987
1410 674
1410 1440
1413 994
1413 1155
1415 683
1415 693
1419 703
1420 1002
1420 1440
1423 1155
1425 711
1428 721
1428 1009
1430 1440
1433 730
1433 1155
1435 740
1435 750
1435 1017
1436 760
1439 1435
1441 769
1443 1024
1443 1155
1445 779
1448 1430
1450 1032
1452 1160
1453 785
1457 1424
1458 1039
1462 780
1462 1160
1465 1047
1467 1419
1470 771
1472 1160
1473 1054
1476 1064
1477 1414
1480 766
1481 1165
1484 1070
1485 1405
1490 770
1490 1078
1491 1169
1495 1087
1495 1400
1500 771
1501 1170
1503 1094
1503 1393
1505 1111
1509 776
1510 1102
1510 1120
1511 1170
1513 1130
1513 1388
1515 784
1520 1138
1520 1148
1520 1158
1520 1380
1523 790
1529 798
1529 1375
1539 801
1539 1372
1545 809
1549 1367
1553 815
1556 825
1559 1362
1564 831
1568 841
1569 1357
1573 850
1576 860
1579 1352
1584 866
1587 1345
1588 876
1595 884
1595 1335
1600 893
1605 902
1605 1330
1611 910
1613 1323
1616 919
1618 1313
1620 929
1625 1300
1628 935
1630 945
1633 1293
1635 954
1640 963
1640 1285
1645 972
1645 1275
1651 980
1653 1268
1655 1250
1656 989
1660 999
1660 1009
1660 1240
1665 1018
1665 1028
1665 1225
1670 1037
1670 1215
1675 1046
1675 1056
1675 1066
1675 1200
1680 1075
1680 1185
1685 1084
1685 1094
1685 1104
1685 1114
1685 1135
1685 1145
1685 1155
1685 1165
1685 1175
1690 1123
