69 842
69 852
69 862
69 872
69 882
69 892
69 902
69 912
69 922
74 822
74 832
74 931
74 941
74 951
79 802
79 812
79 960
82 970
84 787
87 979
89 777
91 989
94 767
99 757
99 995
102 1005
104 747
107 1014
112 739
114 1022
117 729
122 1029
125 721
129 1037
135 716
137 1044
143 709
146 1049
150 701
154 1055
158 694
160 1063
167 689
170 1067
175 681
179 1072
183 674
187 1079
192 669
196 1084
200 661
206 1085
210 656
214 1091
220 651
221 1099
230 646
231 1100
240 641
240 1105
250 636
250 1107
259 1112
260 631
269 1115
270 629
278 1120
279 624
288 1120
289 622
297 1125
299 619
307 1129
308 614
317 1130
318 614
326 1135
327 609
336 1135
337 609
345 1140
346 604
355 1140
356 604
364 1145
365 599
374 1145
375 596
383 1150
385 594
393 1150
395 594
402 1155
404 589
412 1155
414 587
421 1160
424 584
431 1160
434 582
441 1163
444 579
450 1168
453 574
458 1175
463 574
468 1175
473 574
477 1180
482 569
487 1180
492 569
497 1180
502 564
507 1184
512 564
517 1184
522 564
527 1180
532 559
537 1180
542 559
547 1184
551 554
557 1185
560 549
567 1185
570 546
577 1189
580 541
587 1190
590 539
597 1190
599 534
607 1190
608 529
617 1194
618 529
627 524
627 1195
637 519
637 1195
647 514
647 1195
657 509
657 1195
667 509
667 1195
676 504
676 1200
686 500
686 1200
696 499
696 1200
705 494
706 1200
715 494
716 1200
724 489
726 1200
734 489
736 1200
744 487
746 1200
754 484
756 1200
764 484
766 1200
774 484
776 1200
784 482
786 1200
794 479
795 1195
804 479
805 1195
814 479
815 1195
824 479
824 1190
834 479
834 1190
843 474
844 1187
853 474
854 1185
863 474
864 1182
873 474
874 1180
883 474
884 1177
893 474
894 1175
903 474
903 1170
913 474
913 1168
922 469
923 1163
932 469
933 1160
942 469
942 1155
951 1150
952 469
960 1145
962 469
970 1145
972 464
979 1140
982 464
988 1135
992 464
997 1130
1002 464
1007 1129
1012 464
1017 1124
1022 464
1027 1120
1032 459
1036 1115
1042 454
1045 1110
1050 446
1055 1105
1058 439
1065 431
1065 1105
1074 1100
1075 426
1083 419
1084 407
1084 1097
1089 397
1094 387
1094 1095
1099 377
1103 1090
1107 369
1113 1088
1115 361
1123 1085
1125 356
1133 349
1133 1083
1137 339
1142 329
1143 1080
1147 319
1153 1078
1155 311
1163 1075
1165 309
1173 1073
1175 309
1183 1070
1184 302
1192 294
1193 1070
1199 282
1203 1070
1207 274
1212 1065
1215 266
1222 1065
1223 259
1232 254
1232 1064
1240 246
1242 1060
1250 241
1252 1060
1260 236
1262 1060
1268 229
1272 1060
1277 224
1282 1060
1287 219
1291 1055
1295 211
1301 1055
1303 204
1310 196
1311 1055
1318 189
1321 1055
1327 184
1331 1055
1335 176
1341 1055
1345 171
1351 1055
1353 164
1361 1055
1362 159
1371 1055
1372 154
1381 1055
1382 149
1391 1055
1392 144
1401 1055
1402 144
1411 139
1411 1055
1421 135
1421 1055
1431 130
1431 1055
1441 129
1441 1055
1451 125
1451 1055
1461 124
1461 1055
1471 120
1471 1055
1481 119
1481 1055
1490 1060
1491 119
1496 1068
1499 1078
1499 1088
1500 114
1504 1097
1510 114
1512 1104
1520 114
1521 1109
1530 114
1531 1113
1539 109
1541 1115
1549 109
1550 1120
1559 109
1560 1120
1569 109
1570 1122
1579 109
1580 1125
1589 109
1590 1125
1599 109
1599 1130
1609 109
1609 1130
1619 109
1619 1130
1628 1135
1629 109
1638 1135
1639 109
1648 1135
1649 109
1658 1135
1659 109
1667 1140
1669 109
1677 1140
1678 114
1687 1140
1688 114
1697 1144
1698 114
1707 1145
1708 115
1717 1145
1718 119
1727 1145
1728 119
1737 1145
1738 119
1746 1150
1747 124
1756 1150
1757 124
1766 129
1766 1150
1776 129
1776 1150
1786 129
1786 1150
1795 134
1796 1150
1805 137
1806 1150
1815 139
1816 1150
1824 144
1826 1150
1834 146
1836 1150
1844 149
1846 1150
1854 151
1856 1150
1864 154
1866 1150
1873 159
1876 1150
1883 159
1884 1392
1886 1150
1892 164
1894 1389
1896 1150
1901 169
1904 1391
1906 1150
1911 169
1915 1145
1920 174
1925 1145
1929 179
1935 1145
1939 181
1945 1140
1949 184
1955 1140
1958 189
1965 1135
1968 190
1975 1135
1977 195
1984 1130
1987 199
1994 1127
1996 204
2004 1122
2005 209
2014 1117
2015 212
2022 1110
2024 217
2031 1105
2032 224
2039 1097
2041 229
2047 1089
2050 234
2055 1080
2059 239
2063 1073
2067 245
2068 1063
2075 252
2075 1050
2080 1040
2084 257
2085 1030
2090 1020
2092 264
2095 1005
2099 272
2100 990
2104 281
2105 980
2110 289
2110 965
2115 950
2118 295
2120 935
2122 305
2125 915
2125 925
2130 312
2130 900
2135 870
2135 880
2135 890
2137 320
2140 855
2145 835
2145 845
2147 324
2150 820
2155 795
2155 805
2157 324
2160 780
2165 760
2165 770
2167 324
2170 740
2170 750
2175 710
2175 720
2175 730
2176 329
2180 560
2180 570
2180 580
2180 635
2180 645
2180 655
2180 665
2180 675
2180 685
2180 695
2185 334
2185 589
2185 599
2185 609
2185 619
2189 555
2195 337
2199 555
2202 345
2207 354
2208 550
2210 364
2215 373
2215 495
2215 505
2215 515
2215 525
2215 535
2220 382
2220 392
2224 490
2225 401
2228 411
2230 421
2232 484
2235 430
2237 440
2240 450
2240 460
2240 470
