16 78
22 70
26 81
32 70
36 81
38 62
42 50
46 81
51 90
52 50
59 97
62 50
62 212
67 103
67 221
68 202
72 50
73 193
74 111
74 121
74 131
74 141
74 151
74 161
74 171
74 181
77 221
82 50
87 221
92 50
97 221
98 24
99 34
102 50
104 16
107 221
108 26
109 110
109 120
109 130
109 140
109 150
109 160
109 170
109 180
109 190
110 36
112 200
116 210
117 44
117 221
119 107
125 50
129 102
135 50
137 96
143 88
145 50
151 81
155 50
161 81
165 50
171 81
175 50
181 58
181 68
181 80
