20 76
22 50
22 60
29 81
32 50
39 81
42 50
49 81
52 50
59 81
62 52
64 90
66 28
66 38
69 99
71 47
72 20
77 105
81 50
82 16
86 212
87 109
88 24
91 50
91 221
92 202
94 32
96 188
97 109
98 119
98 129
98 139
98 149
98 159
98 169
101 50
101 221
111 50
111 221
121 50
121 221
129 56
131 221
133 100
133 110
133 120
133 130
133 140
133 150
133 160
133 170
133 180
133 190
134 65
136 200
141 90
141 209
141 221
143 70
146 81
153 70
156 81
163 70
166 81
173 70
176 81
