16 76
24 70
25 81
34 70
35 81
44 70
45 81
54 70
54 86
56 212
59 61
59 95
61 221
62 50
62 200
66 103
66 113
66 123
66 133
66 143
66 153
66 163
66 173
66 183
71 221
72 50
81 221
82 50
91 221
92 50
98 30
101 221
102 50
103 21
103 110
103 120
103 130
103 140
103 150
103 160
103 170
103 180
103 190
106 200
110 210
111 221
112 16
112 50
113 109
119 24
122 52
123 105
124 33
131 41
131 98
132 51
137 86
142 52
146 81
152 50
156 81
162 50
166 81
172 50
176 81
181 55
181 65
