20 60
20 70
20 80
22 50
30 81
32 50
40 81
42 50
50 82
52 50
55 91
62 50
62 99
70 105
72 50
76 212
80 107
81 221
82 50
82 202
86 34
87 193
88 22
88 113
88 123
88 133
88 143
88 153
88 163
88 173
88 183
91 221
93 42
96 16
96 30
99 50
101 221
109 50
111 221
119 50
121 221
123 108
123 118
123 128
123 138
123 148
123 158
123 168
123 178
123 188
124 198
128 208
129 50
131 221
132 103
139 50
140 97
147 88
149 50
155 81
159 50
163 60
164 70
165 81
174 70
175 81
