99 117
99 127
99 137
99 147
99 157
99 167
104 107
104 176
104 186
109 195
109 205
112 99
112 215
114 225
117 235
120 91
122 244
124 254
129 263
130 86
134 272
139 281
140 84
144 290
147 300
150 84
152 309
159 317
160 84
164 326
169 89
169 335
174 344
177 95
179 353
184 362
185 102
189 371
190 111
195 120
195 130
195 140
195 150
196 379
197 160
200 170
202 180
204 385
204 395
205 190
207 200
209 404
210 210
214 413
215 219
219 422
220 228
224 431
225 237
229 247
229 440
234 256
235 448
238 266
243 455
245 274
247 465
250 283
255 292
255 472
259 482
260 301
265 310
267 489
270 319
274 497
278 325
282 504
285 333
289 512
290 342
290 352
294 521
295 361
299 530
300 370
302 540
305 379
310 388
310 547
314 557
315 397
319 566
322 405
324 575
330 412
330 583
334 422
338 590
342 429
345 598
349 437
353 605
357 444
357 615
360 454
365 622
368 460
369 632
375 468
377 639
380 477
384 487
384 647
389 496
394 650
395 504
400 513
400 658
405 522
408 665
412 530
415 673
420 537
423 680
425 546
430 688
431 554
438 695
439 561
443 571
445 703
450 579
453 710
460 582
460 718
467 590
468 725
475 597
475 733
482 605
483 740
490 612
492 745
497 620
500 752
504 762
505 627
512 635
512 769
519 777
520 642
527 650
527 784
534 792
535 657
542 665
544 795
550 672
553 800
554 810
559 677
559 819
565 827
567 684
572 835
574 692
579 701
581 840
585 709
589 846
594 714
596 854
603 719
604 860
609 869
612 724
615 877
619 732
622 885
627 739
630 892
634 747
637 900
640 755
642 909
645 764
649 917
653 770
657 924
660 778
666 929
668 784
674 935
678 784
680 943
688 785
688 950
692 960
698 789
700 967
707 975
708 790
715 982
718 794
722 990
728 794
732 994
738 794
739 1002
744 1011
748 794
751 1019
757 799
759 1025
764 1034
767 799
770 1042
777 799
777 1050
785 1057
786 804
792 1065
796 804
800 1072
805 809
807 1080
812 1089
815 809
819 1097
824 1106
825 812
831 1114
835 814
839 1120
845 814
845 1128
853 1135
854 819
862 1140
863 824
870 1147
872 829
877 1155
881 834
887 1159
889 841
895 1165
898 846
904 1170
905 854
913 860
914 1170
920 868
920 1178
928 875
928 1185
933 884
937 1190
942 889
945 1197
949 897
954 1202
959 901
964 1205
965 909
973 915
973 1210
977 925
980 1218
985 932
988 1225
989 942
995 950
997 1230
1000 959
1007 1234
1008 965
1012 975
1014 1242
1017 984
1020 994
1024 1245
1028 1000
1033 1250
1035 1008
1040 1017
1040 1258
1044 1027
1050 1262
1052 1034
1059 1042
1060 1265
1064 1051
1068 1061
1070 1265
1073 1070
1080 1078
1080 1265
1085 1087
1089 1260
1090 1096
1090 1106
1095 1115
1098 1255
1100 1124
1105 1133
1107 1249
1110 1142
1114 1152
1115 1162
1115 1240
1119 1172
1120 1182
1120 1192
1120 1230
1125 1201
1125 1211
1125 1221
