139 62
144 52
147 69
152 44
155 75
162 39
164 80
164 442
164 452
169 432
172 39
173 85
174 455
179 429
181 44
182 90
183 460
188 424
189 98
189 108
189 118
189 128
190 49
190 468
194 137
194 407
198 475
199 146
199 382
199 397
200 52
204 317
204 327
204 337
204 347
204 357
204 367
207 480
209 57
209 150
209 297
209 307
214 66
214 287
215 158
217 480
220 74
222 279
225 157
226 475
230 77
230 450
230 460
232 165
232 274
235 425
235 435
240 79
240 385
240 395
240 405
240 415
242 169
242 269
245 355
245 365
245 375
250 79
250 261
250 315
250 325
250 335
250 345
251 174
255 300
258 254
259 84
261 178
265 300
267 249
269 84
269 185
275 295
276 244
277 90
278 190
281 235
282 200
284 290
285 97
287 209
289 229
290 280
292 105
294 217
300 282
302 109
309 117
310 280
317 124
320 280
324 132
330 282
334 136
339 287
340 144
340 154
344 296
345 163
350 172
351 304
355 181
359 310
361 189
365 318
369 196
373 325
375 204
377 335
380 213
386 340
390 217
394 227
394 346
399 236
401 354
405 244
410 253
411 358
415 262
420 271
420 363
426 279
430 289
430 362
438 295
440 362
442 305
450 312
450 360
455 321
459 365
465 324
468 360
475 324
478 360
484 329
487 365
494 331
497 369
504 334
507 369
514 336
517 370
524 339
527 370
534 341
536 375
544 344
546 375
553 349
555 380
563 349
565 380
573 349
574 385
583 349
584 385
593 349
593 390
603 349
603 390
613 349
613 390
620 398
623 349
630 402
633 349
637 410
642 354
647 414
650 360
655 369
655 379
655 389
655 399
656 409
