1199 897
1204 547
1204 557
1204 567
1204 887
1209 537
1209 900
1212 574
1212 879
1214 527
1219 900
1220 580
1222 874
1224 522
1227 864
1229 585
1229 852
1229 900
1234 519
1234 837
1238 590
1239 822
1239 900
1244 519
1244 812
1248 590
1249 897
1252 804
1254 521
1254 598
1255 608
1257 794
1257 889
1260 617
1260 835
1260 845
1260 855
1260 865
1260 875
1262 784
1263 526
1264 772
1267 625
1268 828
1269 752
1269 762
1270 534
1274 742
1275 820
1276 630
1278 540
1282 734
1283 813
1285 548
1285 635
1288 803
1291 729
1293 554
1293 793
1294 640
1298 783
1299 722
1302 549
1303 645
1303 773
1305 750
1305 760
1307 714
1312 544
1312 650
1315 706
1315 750
1320 657
1322 544
1323 699
1325 750
1329 662
1330 691
1332 544
1335 750
1339 665
1340 686
1342 544
1344 745
1348 670
1350 684
1351 549
1353 740
1360 554
1362 735
1369 559
1371 730
1377 565
1380 725
1387 569
1390 720
1394 577
1400 715
1402 584
1409 592
1410 715
1416 723
1417 599
1419 733
1424 607
1424 742
1429 751
1430 615
1435 624
1436 759
1443 630
1444 765
1450 638
1450 773
1458 645
1460 777
1465 653
1467 785
1473 660
1475 792
1480 668
1482 800
1485 677
1489 687
1490 697
1492 804
1497 705
1501 809
1505 712
1509 722
1510 732
1510 742
1510 752
1511 813
1520 754
1521 815
1530 751
1531 815
1538 744
1540 810
1547 739
1550 805
1556 734
1560 800
1565 729
1565 790
1573 783
1575 726
1580 770
1585 721
1588 763
1595 716
1598 760
1603 709
1608 758
1609 697
1614 687
1618 755
1622 679
1628 755
1632 674
1638 753
1641 679
1648 750
1650 684
1658 690
1658 750
1665 698
1668 750
1673 705
1678 750
1682 710
1688 750
1690 717
1697 725
1698 750
1707 729
1708 748
1714 737
