154 422
154 432
162 414
162 439
171 419
171 444
180 414
181 448
184 67
184 77
189 86
189 454
190 417
192 59
197 460
199 90
200 414
201 54
205 98
206 465
209 409
211 54
213 105
215 470
218 404
219 392
220 113
221 54
224 382
225 465
228 120
229 367
231 54
233 458
234 352
235 440
237 125
239 342
241 54
243 433
244 142
244 307
244 317
244 327
245 132
249 151
249 297
250 59
250 425
255 415
256 159
257 289
258 65
259 277
260 400
263 74
265 390
266 160
269 272
270 82
273 383
274 166
275 360
275 370
277 264
279 87
280 340
280 350
284 165
285 305
285 315
285 325
287 259
289 84
290 173
293 298
295 251
299 84
300 177
303 298
305 246
309 86
309 182
310 290
315 190
315 241
319 89
320 285
321 198
323 234
324 217
329 91
329 204
329 226
330 280
335 99
340 275
345 97
350 275
354 102
360 277
364 106
370 275
373 111
380 275
383 115
389 270
392 120
394 282
397 129
399 270
399 291
404 137
404 300
407 310
409 320
412 144
414 329
415 154
420 163
420 337
425 172
425 182
427 345
433 189
435 352
442 194
445 350
451 199
454 355
455 209
463 215
464 355
465 225
465 235
465 245
465 255
465 265
465 275
465 285
465 295
465 305
465 315
465 325
470 363
475 329
480 367
485 332
487 375
494 337
497 375
502 384
504 341
511 389
513 346
519 395
523 349
528 400
532 354
535 408
541 349
543 415
550 354
552 420
559 428
560 352
569 357
569 430
575 438
577 364
585 442
586 369
594 376
594 447
600 384
604 450
605 393
610 402
612 444
615 411
615 421
615 431
