144 82
149 72
149 97
157 64
157 104
162 54
166 109
171 49
176 113
181 49
184 437
185 118
189 422
191 45
194 123
194 440
199 132
199 277
199 287
199 417
201 49
204 141
204 267
204 296
204 306
204 316
204 326
204 440
209 335
209 345
209 412
211 50
214 145
214 262
214 354
214 440
216 59
219 363
219 373
219 407
222 254
223 445
224 66
224 145
224 382
224 392
225 76
232 249
232 450
233 150
235 76
235 290
235 310
235 330
240 158
240 280
240 299
240 319
240 339
240 350
242 244
242 450
245 71
245 359
250 162
250 275
250 368
250 380
251 239
252 449
255 72
255 389
255 399
255 410
257 170
257 420
260 234
260 275
260 430
260 440
265 74
267 174
269 229
270 270
275 74
275 180
278 224
280 270
284 79
284 185
287 219
290 193
290 272
292 85
297 214
298 200
300 92
300 270
309 97
309 265
317 104
319 265
324 112
329 265
332 119
339 127
339 265
344 136
349 265
350 144
358 150
358 270
362 160
364 278
369 287
370 167
377 175
377 294
385 182
385 300
392 190
394 305
399 314
400 197
404 207
405 322
412 214
412 330
415 224
420 233
421 335
425 242
430 251
430 340
436 259
439 345
440 269
448 275
449 345
455 283
455 353
460 292
465 357
467 300
474 362
475 307
484 312
484 365
494 316
494 365
497 375
504 319
507 374
513 324
515 380
522 329
525 382
531 334
535 344
535 385
544 349
544 390
552 355
553 395
557 364
560 403
566 369
568 410
574 376
577 415
580 384
585 422
589 389
592 430
597 439
599 389
604 447
609 389
609 456
614 465
617 475
619 389
627 474
629 389
630 445
635 425
635 435
635 454
635 464
637 395
640 415
645 405
