139 67
139 82
144 52
147 89
151 99
152 44
154 452
159 461
161 98
162 44
162 444
164 470
170 436
171 100
172 44
173 475
176 109
180 434
182 44
182 480
184 115
189 124
189 417
189 427
191 49
191 134
192 484
194 407
195 59
196 143
199 392
200 465
200 475
204 64
204 150
204 377
205 455
209 362
210 158
210 435
210 445
212 70
214 322
214 332
214 342
214 352
215 395
215 405
215 415
215 425
218 165
219 297
219 307
220 77
220 87
220 380
224 287
225 370
227 170
229 92
230 360
232 279
235 177
235 345
237 269
239 91
240 325
240 335
242 185
245 305
245 315
247 264
249 94
251 190
255 300
256 259
258 99
260 195
264 252
264 295
267 104
269 200
272 244
273 290
276 109
278 205
282 239
283 288
284 116
285 213
287 229
290 124
293 220
293 283
300 127
300 275
307 135
309 280
312 144
315 288
319 152
320 297
324 307
329 156
332 314
333 166
339 322
340 174
347 329
348 180
350 190
351 339
355 199
359 345
360 208
365 217
368 350
370 226
373 236
375 246
375 256
377 355
380 265
382 275
385 285
385 362
390 294
390 304
395 365
398 310
403 319
405 367
410 327
415 370
420 329
425 370
430 329
435 370
440 329
445 370
450 329
455 370
460 329
465 370
470 329
475 370
480 329
485 370
490 329
495 365
499 324
505 365
509 322
515 360
519 319
525 360
528 314
535 360
537 309
545 355
547 309
555 355
556 304
565 309
565 355
575 312
575 355
584 317
585 355
589 326
593 336
595 346
