444 842
444 852
444 862
444 872
444 882
444 892
444 902
449 832
449 911
454 822
454 920
457 930
459 532
459 542
459 552
459 562
459 572
459 582
459 592
459 602
459 612
462 814
462 939
464 512
464 522
464 621
464 631
466 949
469 502
469 640
471 809
471 958
474 649
475 968
477 494
479 658
480 804
480 977
484 667
485 486
487 985
489 676
490 801
495 481
495 992
496 684
500 796
502 1000
504 1010
504 1020
505 476
506 688
507 1030
509 1040
509 1050
509 1060
510 794
512 1070
514 1080
515 474
515 693
519 1089
520 794
524 469
524 1098
525 695
529 1107
530 797
533 464
535 695
537 1114
539 802
541 1124
543 464
544 700
545 810
549 1130
550 819
553 464
554 700
555 1138
558 825
562 459
563 1145
564 700
565 833
572 459
572 1150
573 705
573 840
577 850
581 464
582 710
582 1150
585 857
589 471
592 710
592 865
592 1150
595 479
600 717
600 872
602 1150
603 485
607 495
607 880
609 722
612 1149
615 502
615 887
619 725
620 511
622 895
622 1145
625 520
627 530
628 730
630 540
632 899
632 1145
634 287
634 297
634 307
634 317
634 327
634 337
634 347
634 357
634 367
637 735
638 546
639 277
639 376
639 386
639 907
642 1145
644 267
644 395
644 743
647 405
647 914
648 549
649 257
649 752
652 1144
654 761
656 919
657 249
657 409
658 549
659 770
659 780
659 790
662 800
662 1140
664 926
665 241
667 410
667 809
668 549
670 934
671 819
672 1140
675 236
676 828
677 410
678 549
678 940
682 1139
683 949
684 835
684 932
685 234
686 415
688 549
689 844
689 917
692 1135
694 853
694 863
694 873
694 883
694 893
694 903
695 234
695 420
698 549
702 1134
704 425
705 234
708 549
712 1130
714 425
715 234
718 549
722 1130
723 430
725 234
727 544
730 438
731 1125
734 448
735 234
737 539
739 457
740 1120
744 137
744 147
744 466
745 234
747 539
749 127
749 156
749 475
750 1115
754 165
755 237
755 483
757 119
757 534
759 493
759 503
759 513
759 523
760 173
760 1110
765 239
767 114
768 180
770 1110
775 188
775 239
777 109
779 1105
783 195
784 205
784 215
784 225
787 109
788 1100
796 104
797 1094
802 1084
805 99
807 1074
812 1065
814 94
822 1065
824 96
827 1074
831 1084
834 99
836 1093
844 99
845 1098
854 99
855 1100
862 105
865 1100
867 114
874 122
874 1105
884 126
884 1105
890 134
893 1110
898 140
903 1110
908 139
913 1110
918 139
923 1110
928 139
933 1110
938 140
943 1110
948 144
953 1110
958 144
963 1110
968 144
973 1110
978 144
983 1108
988 144
993 1105
998 144
1003 1105
1008 144
1013 1103
1018 144
1023 1100
1027 139
1032 1095
1037 134
1040 1085
1045 1065
1045 1075
1047 134
1054 1080
1056 129
1060 1088
1065 124
1070 1092
1074 119
1077 1100
1083 114
1087 1104
1092 109
1094 1112
1102 104
1102 1119
1111 1124
1112 104
1115 470
1115 480
1119 1130
1120 460
1121 99
1122 1140
1123 486
1125 450
1130 104
1130 435
1130 494
1132 1144
1135 113
1135 503
1139 1152
1140 122
1140 435
1140 512
1145 131
1147 520
1149 1155
1150 140
1150 430
1155 149
1155 159
1155 169
1155 1163
1157 524
1160 178
1160 430
1165 187
1165 1167
1167 524
1169 425
1170 196
1174 1172
1175 205
1175 215
1175 225
1177 524
1178 420
1183 231
1184 1175
1187 415
1187 524
1193 234
1193 1180
1196 410
1197 524
1202 239
1203 1180
1205 405
1207 524
1212 239
1213 398
1213 1180
1217 524
1221 244
1223 393
1223 1180
1225 275
1225 285
1225 295
1225 305
1225 315
1227 325
1227 524
1230 249
1230 335
1230 380
1232 345
1232 1175
1233 268
1235 258
1235 355
1235 365
1236 529
1242 1175
1245 534
1245 544
1250 553
1251 1170
1255 562
1259 572
1260 1165
1264 581
1268 591
1270 1160
1275 599
1280 608
1280 1155
1288 615
1290 1150
1292 625
1298 1143
1300 632
1307 640
1308 1138
1313 1128
1315 647
1318 1118
1322 655
1323 1108
1330 662
1330 1095
1335 1075
1335 1085
1337 670
1340 1060
1345 677
1345 845
1348 1053
1350 854
1352 685
1353 1043
1354 840
1355 1030
1358 860
1360 692
1363 835
1363 1023
1365 868
1367 700
1368 1013
1372 829
1373 875
1375 707
1375 1005
1380 820
1380 883
1382 715
1383 998
1385 892
1387 724
1388 813
1388 988
1389 902
1390 734
1393 978
1395 743
1395 800
1395 910
1398 968
1400 752
1400 762
1400 772
1400 782
1400 919
1400 955
1405 928
1405 938
