44 316
44 326
44 336
46 346
48 300
50 194
50 204
51 214
51 355
52 290
55 185
55 224
59 361
60 284
63 178
63 231
67 367
68 278
71 237
73 176
77 371
78 276
80 242
83 172
87 371
88 276
90 246
93 172
97 371
98 276
100 249
103 170
107 371
108 278
110 253
111 163
117 370
118 274
120 251
121 159
126 365
128 272
130 255
131 155
132 38
132 48
134 58
136 68
136 363
138 264
140 30
140 78
140 96
140 106
140 116
141 126
141 154
144 136
146 361
148 24
148 146
156 363
158 22
166 365
168 20
176 366
178 22
186 367
188 26
196 369
197 31
206 370
207 34
216 371
217 33
226 371
227 34
236 371
237 34
246 371
247 34
256 369
257 29
266 24
266 370
276 22
276 371
286 20
286 371
293 150
293 256
295 266
296 22
296 371
298 276
299 140
303 122
303 154
303 257
305 98
305 108
306 26
306 371
307 86
308 279
312 77
313 156
313 252
314 32
316 67
316 285
316 369
319 54
320 40
322 247
323 160
323 293
324 363
325 303
329 313
330 241
331 166
331 323
331 333
331 343
331 353
338 174
338 235
344 182
346 227
351 190
353 212
354 200
