484 837
484 847
484 857
484 867
484 877
484 887
484 897
484 907
484 917
484 927
489 936
489 946
489 956
492 829
494 965
499 974
500 821
504 983
508 814
509 572
509 582
509 592
509 602
509 612
509 622
509 632
509 992
514 547
514 557
514 641
514 1001
517 809
519 532
519 650
519 1010
522 1020
524 522
524 659
527 804
527 1029
529 512
529 1039
529 1049
530 667
534 502
534 677
534 1058
537 804
539 1067
542 494
542 684
544 1076
547 484
547 804
549 692
549 1085
552 1095
554 701
555 476
557 804
557 1104
561 709
561 1114
565 471
566 809
566 1123
569 715
574 816
574 1130
575 466
575 723
578 826
580 1138
583 730
585 464
585 834
588 1145
592 735
593 840
594 459
597 1150
600 742
600 848
604 459
606 1155
608 855
609 747
614 459
615 863
615 1160
619 750
622 465
624 1165
625 867
628 755
630 472
634 872
634 1165
637 760
638 479
642 879
643 1170
645 487
647 760
649 307
649 317
649 327
649 337
649 347
650 496
650 506
650 516
650 526
651 884
653 536
653 1170
654 297
654 356
654 366
657 760
659 375
659 544
660 889
662 289
663 1170
665 383
667 279
667 760
668 895
669 544
670 392
672 269
673 1170
675 903
677 400
677 760
679 544
679 770
679 780
679 790
682 264
682 800
683 1168
684 810
684 820
684 830
684 840
684 850
685 407
685 907
689 544
689 859
689 869
689 879
689 889
692 264
693 1165
694 412
699 544
702 264
702 419
702 1160
709 544
711 424
712 259
712 1160
719 544
721 428
722 259
722 1160
729 542
731 254
731 430
732 1159
739 539
740 249
741 430
742 1154
748 534
750 246
750 435
752 1149
758 239
758 534
759 187
759 197
759 207
759 217
759 227
759 440
762 1144
764 147
764 157
764 167
764 177
765 448
768 534
769 137
769 458
769 468
769 478
769 488
769 498
769 508
769 518
772 1139
774 127
780 1130
782 119
790 1125
792 114
800 1120
801 109
808 1113
810 104
815 1105
820 104
824 1100
830 104
830 1080
830 1090
840 107
840 1080
849 1085
850 109
858 1090
859 114
867 1095
868 119
877 1095
878 120
886 1100
887 125
896 1103
897 129
906 1105
907 129
916 134
916 1105
925 139
926 1105
935 139
936 1105
945 139
946 1105
955 139
956 1105
965 139
966 1105
974 144
976 1105
984 144
986 1105
994 144
996 1105
1004 144
1006 1105
1014 144
1015 1100
1023 139
1025 1095
1033 139
1035 1085
1043 139
1043 1078
1050 1070
1053 139
1060 1070
1063 139
1070 1072
1072 134
1077 1080
1080 126
1085 1087
1088 119
1092 1095
1097 114
1102 1099
1106 119
1106 1109
1110 129
1110 455
1110 465
1110 475
1114 1115
1115 138
1118 481
1119 450
1123 145
1123 490
1123 1120
1127 500
1129 447
1130 153
1130 510
1132 1125
1138 160
1139 445
1140 514
1142 1129
1145 168
1149 445
1150 514
1152 1130
1153 175
1158 440
1160 183
1160 514
1162 1134
1165 192
1168 438
1170 514
1170 1140
1172 200
1178 433
1179 1145
1180 207
1180 514
1187 215
1188 428
1188 1150
1190 514
1195 222
1195 420
1197 1155
1200 514
1202 230
1205 415
1205 1162
1210 514
1212 234
1212 1170
1213 408
1218 398
1219 242
1219 519
1220 285
1222 1174
1225 294
1225 390
1228 524
1229 246
1230 280
1230 303
1232 1175
1233 256
1233 383
1237 529
1238 265
1238 310
1238 373
1241 1180
1242 320
1244 537
1245 365
1250 327
1250 1175
1252 544
1253 358
1254 337
1258 348
1259 552
1259 1170
1264 561
1267 1164
1270 569
1275 578
1275 1155
1280 587
1285 1150
1287 595
1294 1145
1295 602
1300 611
1302 1139
1306 619
1310 1130
1314 626
1320 634
1320 1125
1325 643
1328 1118
1330 652
1333 1108
1337 660
1340 1100
1345 667
1345 1090
1350 1080
1353 674
1355 1070
1362 679
1363 1063
1369 687
1370 1050
1378 1043
1379 691
1385 699
1385 1030
1390 1020
1393 705
1395 810
1395 820
1395 830
1395 1010
1400 713
1400 839
1400 1000
1403 803
1405 848
1405 990
1410 717
1410 795
1410 857
1410 867
1410 980
1414 727
1414 877
1415 887
1415 897
1415 907
1415 917
1415 927
1415 937
1415 947
1415 957
1415 967
1418 788
1419 736
1423 746
1425 775
1428 755
1430 765
