40 196
40 206
44 216
45 187
46 318
46 328
48 338
48 348
49 225
50 304
53 179
53 357
54 292
56 233
61 363
62 284
63 176
64 239
69 369
70 278
73 172
73 244
79 371
80 276
83 171
83 247
89 163
89 371
90 276
93 251
99 159
99 371
100 276
103 251
109 156
109 371
110 36
110 46
110 56
110 274
112 256
113 66
117 76
118 28
119 154
119 369
120 86
120 96
120 106
120 116
120 272
121 126
122 255
123 136
128 24
128 145
128 363
138 20
138 363
148 20
148 365
158 22
158 367
168 26
168 369
176 32
178 369
186 34
188 371
196 34
198 371
206 32
208 371
216 34
218 371
226 34
228 371
236 32
238 369
244 26
248 369
254 22
258 365
264 20
268 365
274 20
277 370
280 149
280 253
281 263
284 23
285 140
286 272
287 371
289 128
289 154
290 255
291 88
291 98
291 108
291 118
293 28
295 78
296 275
297 371
299 154
300 36
300 69
300 255
303 56
305 45
306 276
307 371
309 158
310 253
316 276
317 371
319 162
319 248
325 170
325 281
327 369
329 244
334 286
335 174
335 362
337 238
339 295
343 305
343 356
345 178
345 232
345 315
345 342
347 325
353 184
353 224
358 215
359 192
361 202
