40 200
41 210
44 190
45 220
51 228
52 180
58 318
58 328
58 338
59 235
59 348
61 358
62 176
62 304
66 290
67 241
69 364
70 170
74 284
76 162
76 246
77 370
82 278
85 251
86 158
87 371
88 42
90 52
91 62
92 276
94 34
95 72
95 253
96 154
97 371
100 81
102 26
102 91
102 276
104 101
104 111
104 121
105 255
106 131
106 154
107 371
110 141
111 271
112 22
115 253
117 371
122 20
127 369
132 22
137 367
142 24
147 369
152 28
157 369
161 33
167 371
171 34
177 371
181 34
187 371
191 32
197 371
201 34
207 371
211 34
217 369
221 29
227 368
230 24
237 367
240 22
247 365
250 20
257 363
260 22
262 149
267 140
267 254
267 363
269 264
270 25
271 154
272 131
273 80
273 90
273 100
273 118
275 272
277 70
277 255
277 367
278 31
281 60
281 154
283 40
283 50
285 272
287 252
287 371
291 158
295 276
297 253
297 371
301 162
305 276
307 250
307 371
308 170
315 276
317 246
317 371
318 172
325 276
327 242
327 370
328 174
335 280
336 237
336 365
338 177
343 286
344 231
344 359
348 180
348 295
351 305
352 223
352 353
353 315
353 340
354 188
355 212
355 325
357 198
