80 102
81 112
82 86
82 122
86 76
86 132
90 66
90 196
91 206
92 140
92 184
96 58
96 170
96 215
96 225
96 262
96 272
96 282
96 292
97 149
98 235
98 245
100 159
102 300
102 310
102 320
102 330
104 32
104 42
104 340
106 350
108 360
112 24
117 365
122 22
127 369
132 21
137 371
142 25
147 371
150 31
157 369
158 24
167 369
168 22
177 367
178 21
187 26
187 369
193 34
197 44
197 54
197 371
203 62
207 371
209 70
215 78
217 371
221 160
223 84
227 152
227 168
227 370
233 86
235 364
236 147
237 170
242 91
245 142
245 363
247 172
250 133
251 96
252 123
254 113
255 246
255 256
255 367
257 172
257 266
258 276
264 241
265 369
267 176
268 278
273 236
275 371
277 180
278 276
281 228
285 186
285 371
287 216
288 276
289 196
289 206
295 368
298 276
304 363
308 278
312 357
314 286
316 347
317 296
317 306
317 330
319 316
