66 304
66 314
66 324
66 334
66 344
68 292
71 353
74 284
77 361
82 278
86 366
90 198
92 188
92 208
92 218
92 276
96 369
98 226
100 180
102 276
104 234
106 371
110 176
112 276
113 239
116 371
120 174
122 279
123 243
126 371
130 172
132 280
133 247
136 367
140 172
142 278
143 249
146 264
146 363
150 170
156 112
156 363
158 100
158 122
160 166
161 132
166 94
166 141
166 158
166 361
174 88
174 148
176 363
182 80
186 38
186 48
186 58
186 363
187 68
194 28
196 365
204 24
206 368
214 20
216 371
224 22
226 371
234 25
236 371
241 33
246 371
251 34
256 371
261 33
266 371
269 27
276 371
278 22
285 366
288 20
295 362
298 22
301 350
305 334
306 159
307 296
307 306
307 316
308 25
309 146
309 248
309 258
309 268
311 278
313 167
313 288
314 137
314 239
315 33
315 58
316 68
317 43
319 126
320 78
320 231
321 174
323 88
323 112
325 98
326 223
328 182
331 192
331 208
