454 627
454 637
454 647
454 882
454 892
454 902
459 592
459 602
459 612
459 656
459 857
459 867
459 911
464 577
464 847
464 920
467 930
469 562
469 660
469 837
474 552
474 938
475 668
477 829
479 542
479 947
483 675
484 532
484 956
487 824
489 522
489 965
489 975
489 985
492 680
494 512
494 994
496 1004
497 819
501 1013
502 504
502 684
504 1023
505 811
507 494
509 1032
510 690
514 1041
514 1051
515 486
515 806
519 695
519 1060
519 1070
519 1080
524 1089
525 481
525 801
529 695
529 1098
534 1107
535 479
535 799
538 700
542 1114
545 479
545 799
548 700
549 1122
555 479
555 799
557 1129
558 700
561 1139
565 479
565 802
568 700
571 1143
574 807
575 479
577 705
581 1145
582 814
583 485
587 705
590 493
591 819
591 1145
595 502
597 705
599 826
600 511
601 1145
605 520
605 834
607 705
610 529
610 843
611 1145
615 538
617 705
618 850
621 1145
623 544
625 858
627 705
629 302
629 312
629 322
629 332
629 342
629 352
629 362
630 867
631 1145
633 544
634 292
634 371
634 381
637 705
638 874
639 282
639 390
641 1145
642 549
645 398
645 882
647 274
647 709
649 719
649 729
651 1145
652 264
652 549
652 890
653 405
654 738
657 899
659 747
659 757
659 767
659 777
659 787
659 797
659 807
659 817
659 827
659 837
659 847
659 857
659 867
659 877
660 256
661 1145
662 410
662 549
665 915
670 251
670 924
670 1140
672 414
672 549
678 244
679 929
680 420
680 1140
682 549
687 239
689 425
689 1135
692 549
697 234
698 430
699 1135
702 549
704 438
707 234
708 1130
709 447
712 549
717 234
717 454
717 1125
722 549
726 459
727 234
727 1124
732 549
734 465
737 234
737 1119
742 544
743 470
747 234
747 1114
752 475
752 539
754 127
754 137
754 527
757 234
757 1109
759 117
759 146
759 156
759 517
760 482
764 165
764 507
767 175
767 234
767 490
767 1105
769 112
769 185
769 195
769 205
769 215
776 1100
779 109
785 1095
788 104
795 1090
798 104
805 1085
808 104
815 1080
818 104
825 1075
828 104
835 1075
838 104
845 1075
847 109
851 1083
856 114
859 1090
866 114
868 1095
875 119
878 1095
883 125
888 1095
890 133
898 140
898 1095
907 145
908 1095
917 149
918 1095
927 149
928 1095
937 149
938 1095
947 149
948 1095
957 149
958 1095
967 149
968 1095
977 149
978 1093
987 149
988 1090
997 149
998 1090
1007 144
1008 1090
1017 144
1018 1088
1025 1080
1027 144
1034 1075
1036 139
1043 1080
1046 135
1047 1090
1052 1099
1054 127
1056 1109
1062 119
1064 1115
1069 1124
1071 114
1077 1130
1079 107
1086 1135
1089 102
1095 1140
1099 99
1104 1145
1108 94
1113 1150
1115 435
1115 445
1115 455
1115 465
1117 99
1117 475
1122 1155
1124 107
1125 435
1127 479
1130 115
1131 1160
1135 124
1135 435
1136 484
1140 133
1140 1165
1145 142
1145 435
1145 489
1149 1170
1150 151
1150 161
1153 495
1155 435
1156 169
1158 1175
1160 503
1164 430
1165 174
1167 1180
1168 510
1174 430
1175 177
1175 518
1177 1180
1180 186
1183 425
1185 195
1185 522
1187 205
1187 1180
1192 420
1195 524
1197 209
1197 1180
1201 415
1205 524
1206 214
1207 1180
1209 407
1214 221
1215 270
1215 280
1215 524
1217 399
1217 1179
1220 229
1220 289
1225 270
1225 298
1225 385
1225 524
1227 1175
1228 235
1230 307
1230 375
1234 317
1234 519
1235 243
1235 260
1235 365
1236 1170
1240 325
1240 355
1244 521
1245 334
1245 344
1245 1165
1250 529
1250 539
1255 548
1255 1165
1260 557
1264 567
1264 1160
1273 1155
1274 571
1280 579
1282 1149
1290 582
1290 1140
1297 590
1298 1133
1305 597
1305 1125
1310 606
1313 1118
1315 615
1320 624
1320 1110
1325 633
1325 643
1325 653
1325 1100
1330 662
1330 1090
1335 671
1335 1080
1340 680
1343 1073
1345 689
1348 1063
1353 695
1353 1053
1358 1043
1360 703
1360 1030
1365 825
1365 835
1365 845
1365 1015
1367 855
1368 710
1370 995
1370 1005
1372 720
1372 864
1373 818
1375 975
1375 985
1379 872
1380 727
1380 810
1380 955
1380 965
1384 737
1384 881
1385 891
1385 935
1385 945
1388 803
1390 745
1390 900
1390 910
1390 920
1395 754
1395 764
1395 790
1400 773
