50 252
50 262
57 270
60 248
67 272
70 248
77 269
78 190
78 220
80 248
86 227
87 195
87 269
90 248
91 218
92 22
92 32
92 42
92 52
92 62
92 72
92 82
92 92
92 102
92 112
92 122
92 132
92 142
92 186
93 152
96 227
97 195
97 271
100 248
101 218
102 20
102 186
103 153
106 227
107 195
107 270
110 248
111 218
112 20
112 186
113 153
116 227
117 195
117 269
120 248
121 218
122 20
122 186
123 153
126 227
127 195
127 269
130 248
131 218
132 20
132 186
133 153
136 227
137 195
137 269
140 248
141 218
142 20
142 186
143 153
146 227
147 195
147 269
150 248
151 218
152 20
152 186
153 153
156 227
157 195
157 269
160 161
160 171
160 205
160 237
160 247
162 20
167 269
172 20
177 269
182 20
187 269
192 20
197 269
202 20
207 269
212 20
217 154
217 164
217 174
217 184
217 196
217 206
217 216
217 228
217 238
217 269
218 248
222 20
227 153
227 186
227 218
227 269
228 248
232 20
232 195
232 227
237 153
237 186
237 218
237 269
238 248
242 20
242 195
242 227
247 153
247 186
247 218
247 269
248 248
252 20
252 195
252 227
257 153
257 186
257 218
257 269
258 248
262 20
262 195
262 227
267 153
267 186
267 218
267 269
268 248
272 20
272 195
272 227
277 153
277 186
277 218
277 269
278 248
282 20
282 195
282 227
287 153
287 186
287 218
287 269
288 248
292 20
292 195
292 227
297 153
297 186
297 218
297 269
298 248
302 22
302 195
302 227
303 32
303 42
303 52
303 62
303 72
303 82
303 92
303 102
303 112
303 122
303 132
303 142
307 186
307 218
307 269
308 248
312 195
312 227
317 186
317 218
317 269
318 248
322 195
322 227
327 186
327 218
327 269
328 248
332 195
332 227
337 273
338 248
347 269
348 249
349 259
