128 250
128 260
130 188
130 218
133 269
135 227
138 195
138 248
140 218
143 186
143 272
145 227
148 195
148 248
150 218
153 186
153 269
155 227
158 195
158 248
160 218
163 186
163 269
165 227
168 195
168 248
170 218
173 186
173 269
175 227
178 26
178 36
178 46
178 56
178 66
178 76
178 86
178 96
178 106
178 116
178 126
178 136
178 146
178 195
178 248
180 218
183 186
183 271
185 227
186 20
186 153
188 195
188 248
190 218
193 186
193 270
195 227
196 20
196 153
198 195
198 248
200 218
203 186
203 269
205 227
206 20
206 153
208 163
208 173
208 198
208 208
208 237
208 247
213 269
216 20
223 269
226 20
231 29
231 39
233 269
237 47
237 57
237 67
237 77
237 87
237 97
237 107
237 117
237 127
237 137
237 147
237 157
237 167
237 177
237 196
237 206
237 216
237 226
237 236
237 246
243 269
247 248
253 269
257 248
263 273
267 248
273 256
273 266
