54 250
54 260
59 269
64 248
69 269
72 254
79 269
80 248
84 188
84 218
88 254
89 227
89 269
92 195
94 218
96 248
97 186
98 22
98 32
98 42
98 52
98 62
98 72
98 82
98 92
98 102
98 112
98 122
98 132
98 142
99 227
99 269
101 152
102 195
104 218
104 254
107 186
108 20
109 227
109 273
111 153
112 195
112 248
114 218
117 186
118 20
119 227
119 269
121 153
122 195
122 248
124 218
127 186
128 20
129 227
129 269
131 153
132 195
132 248
134 218
137 186
138 20
139 227
139 269
141 153
142 195
142 248
144 218
147 186
148 20
149 227
149 269
151 153
152 195
152 248
154 218
157 185
158 20
158 161
158 171
158 203
158 232
159 269
168 20
169 269
178 20
179 269
188 20
189 269
198 20
199 269
208 20
209 269
215 154
215 164
215 174
215 184
215 196
215 206
215 216
215 228
215 238
216 248
218 20
219 269
225 153
225 186
225 218
226 248
228 20
229 269
230 195
230 227
235 153
235 186
235 218
236 248
238 20
239 269
240 195
240 227
245 153
245 186
245 218
246 248
248 20
249 269
250 195
250 227
255 153
255 186
255 218
256 248
258 20
259 269
260 195
260 227
265 153
265 186
265 218
266 248
268 20
269 269
270 195
270 227
275 153
275 186
275 218
276 248
278 20
279 269
280 195
280 227
285 153
285 186
285 218
286 248
288 20
289 272
290 195
290 227
294 254
295 153
295 186
295 218
298 23
299 33
299 43
299 53
299 63
299 73
299 83
299 93
299 103
299 113
299 123
299 133
299 143
299 269
300 195
300 227
302 248
305 186
305 218
309 269
310 195
310 227
310 254
315 186
315 218
318 248
319 269
320 195
320 227
325 186
325 218
328 248
329 273
330 195
333 224
338 248
339 269
345 256
