116 250
116 260
121 269
126 248
131 269
134 254
141 269
142 248
150 188
150 218
150 254
151 269
155 227
156 40
156 50
156 60
156 70
158 195
158 248
160 218
161 79
161 185
161 269
162 22
162 32
162 89
162 99
162 109
162 119
162 129
162 139
162 149
162 159
162 169
162 205
162 235
171 269
172 20
181 269
182 20
191 269
192 20
195 154
195 164
195 174
195 184
195 198
195 208
195 228
195 238
196 218
196 248
201 273
202 20
205 153
205 186
205 227
206 248
210 195
210 218
211 269
212 20
215 153
215 186
215 227
216 248
220 195
220 218
221 269
222 20
225 153
225 186
225 227
226 248
230 195
230 218
231 269
232 23
233 33
233 43
233 53
233 63
233 73
233 83
233 93
233 103
233 113
233 123
233 133
233 143
234 254
235 186
235 227
240 195
240 218
241 269
242 248
245 186
245 227
250 195
250 218
250 254
251 269
255 186
255 227
258 248
260 195
260 218
261 269
265 186
265 227
268 248
270 195
270 218
271 273
275 186
275 227
278 248
280 218
281 269
285 256
