64 250
64 260
69 269
74 248
79 269
82 254
89 269
90 248
96 188
96 218
98 254
99 269
101 227
104 195
106 218
106 248
109 186
109 269
110 22
110 32
110 42
110 52
110 62
110 72
110 82
110 92
110 102
110 112
110 122
110 132
110 142
111 227
113 152
114 195
114 254
116 218
119 186
119 269
120 20
121 227
122 248
123 153
124 195
126 218
129 186
129 273
130 20
131 227
132 248
133 153
134 195
136 218
139 186
139 269
140 20
141 227
142 248
143 153
144 195
146 218
149 186
149 269
150 20
151 227
152 248
153 153
154 195
156 218
158 162
158 172
158 205
158 235
159 269
160 20
169 269
170 20
179 269
180 20
189 269
190 20
199 269
200 20
209 269
210 20
211 154
211 164
211 174
211 184
211 196
211 206
211 216
211 228
211 238
212 248
219 269
220 20
221 153
221 186
221 218
222 248
226 195
226 227
229 269
230 20
231 153
231 186
231 218
232 248
236 195
236 227
239 269
240 20
241 153
241 186
241 218
242 248
246 195
246 227
249 269
250 20
251 153
251 186
251 218
252 248
256 195
256 227
259 269
260 20
261 153
261 186
261 218
262 248
266 195
266 227
269 272
270 20
271 153
271 186
271 218
272 248
276 195
276 227
279 269
280 20
280 254
281 153
281 186
281 218
285 29
285 39
285 49
285 59
285 69
285 79
285 89
285 99
285 109
285 119
285 129
285 139
286 195
286 227
288 248
289 269
291 186
291 218
296 195
296 227
296 254
299 269
301 186
301 218
304 248
306 195
306 227
309 269
311 186
311 218
314 248
316 195
316 227
319 273
321 186
321 218
324 248
329 269
334 249
335 259
