86 252
86 262
94 269
96 248
104 254
104 269
112 248
114 269
120 190
120 220
120 254
124 269
128 227
128 248
129 195
133 218
134 22
134 32
134 42
134 52
134 62
134 72
134 82
134 92
134 102
134 112
134 122
134 132
134 142
134 186
134 269
136 254
137 152
138 227
139 195
143 218
144 20
144 186
144 248
144 269
147 153
148 227
149 195
152 254
153 218
154 20
154 186
154 269
157 153
158 163
158 173
158 200
158 228
158 238
164 20
164 273
174 20
174 269
184 20
184 269
194 20
194 269
203 154
203 164
203 174
203 184
203 196
203 206
203 216
203 228
203 238
204 20
204 248
204 269
213 153
213 186
213 218
214 20
214 248
214 269
218 195
218 227
223 153
223 186
223 218
224 20
224 248
224 269
228 195
228 227
233 153
233 186
233 218
234 20
234 248
234 273
238 195
238 227
242 254
243 153
243 186
243 218
244 20
244 269
248 195
248 227
250 248
253 153
253 186
253 218
254 20
254 269
258 195
258 227
258 254
261 28
261 38
261 48
261 58
261 68
261 78
261 88
261 98
261 108
261 118
261 128
261 138
263 186
263 218
264 269
266 248
268 195
268 227
273 186
273 218
274 254
274 269
278 195
278 227
282 248
283 186
283 218
284 269
288 195
288 227
292 248
293 186
293 218
294 270
298 195
298 227
302 248
303 186
303 218
304 271
312 249
314 267
