48 250
48 260
53 269
58 248
63 269
68 188
68 218
68 248
73 227
73 273
76 195
78 218
78 248
80 24
80 34
80 44
80 54
80 64
80 74
80 84
80 94
80 104
80 114
80 124
80 134
80 144
81 186
83 227
83 269
85 153
86 195
88 218
88 248
90 20
91 186
93 227
93 269
95 153
96 195
98 218
98 248
100 20
101 186
103 227
103 269
105 153
106 195
108 218
108 248
110 20
111 186
113 227
113 269
115 153
116 195
118 218
118 248
120 20
121 186
123 227
123 269
125 153
126 195
128 218
128 248
130 20
131 186
133 227
133 269
135 153
136 195
138 218
138 248
140 20
141 186
143 227
143 269
145 153
146 195
148 218
148 248
150 20
151 186
153 227
153 269
155 153
156 195
156 254
158 218
160 20
161 186
163 227
163 269
164 248
165 153
166 163
166 173
166 196
166 206
166 237
170 20
173 269
180 20
183 269
190 20
193 269
200 20
203 269
210 20
213 269
220 20
223 269
225 154
225 164
225 174
225 184
225 196
225 206
225 216
225 228
225 238
226 248
230 20
233 269
234 254
235 153
235 186
235 218
240 20
240 195
240 227
242 248
243 269
245 153
245 186
245 218
250 20
250 195
250 227
252 248
253 269
255 153
255 186
255 218
260 20
260 195
260 227
262 248
263 269
265 153
265 186
265 218
270 20
270 195
270 227
272 248
273 269
275 153
275 186
275 218
280 20
280 195
280 227
282 248
283 269
285 153
285 186
285 218
290 20
290 195
290 227
292 248
293 269
295 153
295 186
295 218
300 20
300 195
300 227
302 248
303 269
305 153
305 186
305 218
310 20
310 195
310 227
312 248
313 269
315 153
315 186
315 218
319 25
319 35
319 45
319 55
319 65
319 75
319 85
319 95
319 105
319 115
319 125
319 135
320 195
320 227
322 248
323 273
325 186
325 218
330 195
330 227
332 248
333 271
335 218
340 254
343 270
348 248
351 258
