70 252
70 262
78 269
80 188
80 220
80 248
88 195
88 227
88 271
90 248
93 186
93 218
98 195
98 227
98 269
100 248
103 186
103 218
108 195
108 227
108 269
110 248
113 186
113 218
118 195
118 227
118 269
120 248
123 186
123 218
124 22
124 32
124 42
124 52
124 62
124 72
124 82
124 92
124 102
124 112
124 122
124 132
124 142
125 152
128 195
128 227
128 269
130 248
133 186
133 218
134 20
135 153
138 195
138 227
138 269
140 248
143 186
143 218
144 20
145 153
148 195
148 227
148 254
148 269
153 186
153 218
154 20
155 153
156 248
158 195
158 227
158 269
163 186
163 218
164 20
164 254
165 153
168 195
168 227
168 269
172 248
173 186
173 218
174 20
175 153
178 195
178 227
178 269
180 254
183 186
183 218
184 20
185 153
188 195
188 227
188 248
188 269
192 161
192 171
192 181
192 205
192 237
194 20
198 269
204 20
208 269
214 20
218 269
224 20
228 269
234 20
238 269
243 154
243 164
243 174
243 184
243 196
243 206
243 216
243 228
243 238
244 20
244 248
248 269
252 254
253 153
253 186
253 218
254 20
258 195
258 227
258 273
260 248
263 153
263 186
263 218
264 20
268 195
268 227
268 269
270 248
273 153
273 186
273 218
274 20
278 195
278 227
278 269
280 248
283 132
283 142
283 186
283 218
284 23
285 33
285 43
285 53
285 63
285 73
285 83
285 93
285 103
285 113
288 195
288 227
288 269
290 248
293 186
293 218
298 269
300 248
308 269
310 248
318 273
320 248
328 269
330 251
