96 250
96 260
101 269
106 248
111 271
116 248
121 269
126 248
130 188
130 218
131 269
135 227
136 248
138 195
140 42
140 52
140 62
140 72
140 218
141 269
142 22
142 32
142 82
142 92
142 102
142 112
142 122
142 132
142 142
143 152
143 186
145 227
146 248
148 195
150 218
151 269
152 20
153 153
153 186
155 227
156 248
158 195
160 161
160 171
160 205
160 215
160 236
161 269
162 20
171 269
172 20
181 270
182 20
191 269
192 20
201 154
201 164
201 174
201 184
201 196
201 206
201 216
201 228
201 238
201 269
202 20
202 248
211 153
211 186
211 218
211 269
212 20
212 248
216 195
216 227
221 153
221 186
221 218
221 269
222 20
222 248
226 195
226 227
231 153
231 186
231 218
231 269
232 20
232 248
236 195
236 227
241 153
241 186
241 218
241 269
242 20
242 248
246 195
246 227
251 25
251 35
251 45
251 55
251 65
251 75
251 85
251 95
251 105
251 115
251 125
251 135
251 145
251 186
251 218
251 269
252 248
256 195
256 227
261 186
261 218
261 269
262 248
266 195
266 227
271 186
271 218
271 269
272 248
276 195
276 227
281 186
281 218
281 269
282 248
286 195
286 227
291 186
291 218
291 273
292 248
296 195
301 269
302 248
305 258
