119 122
119 132
119 142
119 152
119 162
119 172
119 182
119 192
119 202
119 212
119 222
119 232
119 242
119 252
119 262
119 272
119 282
119 292
119 302
119 312
119 322
119 332
129 119
129 335
129 345
129 355
129 365
129 375
129 385
129 395
129 405
132 415
139 119
142 415
149 119
152 415
159 119
162 415
169 119
172 415
178 114
182 415
188 114
192 415
198 114
202 415
208 114
212 415
218 114
222 414
227 405
228 114
237 405
238 114
247 405
248 114
257 405
258 114
267 405
268 114
277 405
278 114
287 405
288 114
297 405
298 114
307 405
308 114
317 405
318 114
327 405
328 114
337 405
338 114
347 405
348 114
357 405
358 114
367 405
368 114
375 106
377 405
385 104
387 405
395 104
397 405
405 104
405 412
414 417
414 427
414 437
415 104
419 446
424 455
425 104
429 464
429 474
431 484
435 104
436 493
445 104
446 495
455 104
456 495
465 104
466 495
475 104
476 495
485 104
486 495
495 104
496 495
505 104
506 495
515 104
516 495
525 104
525 420
525 430
525 440
525 450
525 460
525 470
525 480
525 490
530 400
530 410
535 104
540 400
545 104
550 400
555 104
560 400
565 104
570 400
575 104
580 400
585 104
590 400
595 102
600 400
604 107
605 117
605 127
605 137
605 147
605 157
605 167
605 177
605 187
605 197
605 207
605 217
605 227
605 237
605 247
605 257
609 267
610 277
610 287
610 297
610 307
610 317
610 327
610 337
610 347
610 357
610 367
610 377
610 387
610 397
