109 112
109 122
109 132
109 142
109 152
109 162
109 172
109 182
109 192
119 109
119 195
124 204
124 214
124 224
124 234
124 244
124 254
124 264
124 274
124 284
124 294
125 101
126 304
129 87
129 314
131 324
137 79
139 330
147 79
148 335
155 343
156 74
165 345
166 74
174 67
175 345
184 64
185 345
194 64
195 347
199 357
204 64
204 366
204 376
204 386
214 64
214 390
220 398
224 64
224 408
232 415
234 64
241 410
243 59
245 400
253 59
254 395
263 59
264 392
270 380
273 59
280 375
283 59
290 365
293 59
295 355
303 59
305 350
313 59
314 345
323 59
324 345
333 59
334 345
343 59
344 345
350 335
353 59
360 335
363 59
370 335
373 59
380 335
383 59
390 335
393 59
400 335
403 59
410 335
413 59
420 335
423 59
430 335
433 59
440 335
442 54
450 335
452 54
460 335
462 54
470 335
472 54
480 335
482 54
490 335
492 54
500 335
502 54
510 335
512 54
520 335
521 59
530 335
531 59
539 330
540 64
549 330
550 64
555 73
558 325
563 79
568 325
573 80
575 315
580 88
580 98
580 305
585 107
585 117
585 127
585 137
585 147
585 157
585 167
585 177
585 187
585 197
585 207
585 217
585 227
585 237
585 247
585 257
585 267
585 277
585 287
