99 187
99 197
99 207
104 167
104 177
104 216
104 226
109 235
114 152
114 162
114 244
119 137
119 253
127 260
129 127
129 270
135 278
137 119
144 283
147 114
152 104
152 290
162 99
162 294
167 89
170 300
177 89
179 305
186 84
188 310
194 77
197 315
204 74
207 315
214 72
215 322
224 69
225 325
234 69
234 330
240 61
244 330
250 59
254 330
260 56
260 338
270 54
270 340
280 54
280 340
290 54
290 342
296 45
300 345
306 44
310 345
316 44
319 350
326 44
328 355
334 363
336 44
339 372
339 382
339 392
344 401
344 411
344 421
346 44
354 425
354 435
354 445
356 40
357 455
359 465
359 475
362 485
366 39
369 493
369 503
370 513
374 523
374 533
375 543
376 39
384 548
384 558
385 568
386 39
389 578
396 39
397 584
400 565
405 44
405 530
405 540
405 550
415 44
415 485
415 495
415 505
415 515
415 525
420 450
420 460
420 470
425 44
425 410
425 420
425 430
425 440
435 44
435 370
435 380
435 390
435 400
440 355
445 44
450 345
455 44
460 345
465 47
470 345
473 54
480 340
483 54
490 340
493 54
500 340
502 59
510 330
512 59
520 65
520 330
530 69
530 330
539 74
539 325
549 74
549 322
557 315
559 76
565 84
566 310
575 87
576 310
580 300
585 89
590 98
590 300
598 293
600 102
608 288
609 107
613 278
614 116
615 265
620 124
625 133
625 260
630 142
630 250
637 150
640 160
640 235
640 245
645 169
645 179
645 215
645 225
653 185
655 195
655 205
