174 237
174 247
179 256
179 266
182 229
186 274
191 234
196 278
199 241
205 283
209 244
214 197
215 285
219 206
219 237
224 194
224 215
224 290
227 229
234 194
234 290
243 199
244 290
253 200
253 295
260 208
262 300
270 212
272 304
275 221
280 230
280 310
285 239
285 249
290 258
290 268
290 312
297 320
298 274
305 327
307 279
312 335
314 287
322 339
324 291
330 299
331 344
338 305
341 348
348 309
351 350
357 314
361 350
365 320
369 356
373 326
379 360
383 330
385 368
392 335
395 372
400 342
402 380
409 347
411 385
419 349
420 390
429 351
430 392
435 359
437 400
444 364
447 404
453 369
456 409
462 374
464 415
465 384
473 420
475 387
482 425
485 389
492 424
495 392
502 420
503 399
511 415
512 404
