169 297
169 307
175 315
177 289
179 277
185 315
189 274
195 305
199 274
199 342
205 307
207 334
209 274
209 345
214 312
216 329
218 269
218 350
228 269
228 350
237 264
238 348
246 259
248 343
255 254
255 335
260 305
260 315
260 325
265 254
265 295
271 245
273 288
279 239
280 280
289 237
289 275
297 229
299 272
307 224
307 264
315 255
316 219
325 214
325 250
334 207
335 245
344 202
344 240
353 235
354 197
359 187
360 220
369 184
370 220
378 179
379 215
387 174
387 209
396 169
397 204
404 162
405 195
414 159
414 190
423 154
423 185
432 179
433 155
437 169
