339 247
339 257
339 267
344 237
344 276
349 285
354 236
355 293
358 246
359 303
359 467
359 477
359 487
360 313
364 323
364 333
364 343
364 457
364 496
365 353
368 244
369 363
369 373
369 383
369 393
369 403
369 505
370 255
370 413
372 449
374 423
374 433
375 264
377 499
380 480
384 247
384 257
389 475
390 295
390 305
390 315
390 335
392 325
394 244
395 285
395 344
395 354
395 364
395 374
395 384
395 394
398 480
399 490
399 500
400 403
400 413
400 423
400 433
400 443
402 250
403 278
405 260
405 508
408 450
415 458
415 505
420 467
423 498
425 476
425 486
