284 382
284 392
284 417
289 426
292 374
294 395
294 414
299 430
302 374
304 397
304 414
309 430
311 369
313 409
319 427
320 374
329 422
330 374
337 415
340 374
347 414
350 371
355 405
359 362
364 400
369 359
374 397
379 359
384 395
389 359
393 390
399 357
403 388
409 354
413 385
419 354
423 383
428 349
433 380
438 349
442 375
447 344
452 375
457 344
461 370
467 339
471 370
477 339
480 365
487 334
490 365
494 322
500 365
502 314
510 367
511 309
519 372
520 304
520 335
522 345
525 325
529 375
530 304
532 349
535 325
538 370
540 307
542 349
545 325
548 368
549 312
552 349
555 320
555 360
