139 167
139 177
144 186
149 164
149 195
152 205
158 159
160 212
164 222
167 164
169 231
169 241
174 172
176 249
180 180
181 258
185 189
189 265
190 198
194 274
198 205
199 283
204 292
204 302
205 213
205 223
209 311
213 230
214 320
215 240
219 329
220 249
224 338
225 258
229 347
233 265
234 356
237 275
241 364
242 284
244 374
245 294
250 382
253 300
254 392
257 310
262 319
262 399
269 327
269 407
269 427
269 437
274 416
274 446
275 335
279 455
280 344
285 353
285 463
293 360
293 470
302 365
302 475
310 372
310 445
312 475
315 454
317 380
320 440
320 463
325 387
330 440
334 392
340 440
344 394
349 445
353 399
355 453
360 407
364 447
365 416
365 426
369 437
