189 387
189 397
194 377
194 406
194 416
194 426
194 436
204 377
204 440
209 367
214 440
217 359
217 450
225 440
227 359
230 420
230 430
237 359
239 457
240 420
247 359
247 449
249 460
250 420
252 439
256 354
257 429
258 465
265 473
266 350
274 344
275 470
284 342
285 465
290 455
292 334
300 326
300 455
308 448
309 317
314 440
317 309
324 297
324 437
325 365
325 375
325 385
325 395
325 405
325 415
325 425
332 289
334 360
340 281
342 354
345 271
347 345
355 266
355 335
359 252
360 325
369 247
370 320
377 239
378 313
382 229
388 308
392 224
395 295
399 212
400 285
407 204
408 278
415 196
415 270
423 189
425 265
427 179
433 258
437 179
440 250
442 169
445 235
447 159
453 228
455 151
460 220
463 144
468 213
470 136
475 200
480 134
484 195
490 131
490 180
500 134
500 180
508 173
510 137
513 163
515 146
