84 417
84 427
92 409
92 434
100 440
102 404
110 440
111 399
119 435
121 395
127 429
129 389
137 424
138 384
147 379
147 420
156 415
157 379
165 371
165 410
174 405
175 366
183 400
185 361
193 398
195 356
203 393
205 351
210 385
213 344
220 380
222 339
230 375
232 334
240 370
242 329
250 321
250 360
260 316
260 360
270 314
270 350
279 307
280 345
289 302
290 340
297 294
299 335
307 294
309 332
315 286
319 327
323 279
329 322
330 271
338 264
339 320
342 254
349 242
349 320
357 234
359 320
367 234
368 325
376 229
378 325
380 260
380 270
386 229
387 330
388 276
389 255
390 320
395 234
398 280
399 255
400 320
405 234
408 284
409 252
409 315
415 305
417 279
420 295
425 285
