324 332
324 342
324 372
324 382
332 389
334 329
334 345
334 369
342 390
343 350
344 329
344 369
349 358
352 390
354 329
362 389
364 331
370 380
374 334
380 370
384 334
390 365
394 334
400 365
404 334
409 360
414 332
419 360
424 329
428 355
434 329
438 355
443 324
447 350
453 324
457 350
463 324
467 349
472 319
477 345
482 319
487 344
491 314
497 340
501 314
507 340
511 310
516 335
521 309
526 335
529 302
536 335
537 294
542 284
546 335
551 279
555 340
560 274
564 345
565 300
565 310
570 274
570 319
574 345
575 300
579 324
580 277
584 342
585 300
589 282
589 324
594 337
595 295
599 326
