284 222
289 231
289 241
292 214
294 250
294 260
299 269
301 209
301 279
304 289
309 298
310 214
310 308
314 318
315 328
318 220
319 338
324 347
324 357
325 228
325 238
329 366
329 376
329 437
329 447
329 457
329 467
330 247
334 257
334 385
334 395
334 427
334 476
335 267
339 404
339 414
339 485
340 276
340 286
345 295
345 305
348 490
350 314
350 324
350 334
355 343
355 353
357 495
360 362
360 372
364 382
365 392
365 465
366 490
367 475
370 401
374 460
376 409
379 469
379 479
384 416
389 480
393 421
399 477
400 429
400 465
408 435
409 460
415 443
419 462
420 452
