204 852
204 862
212 844
212 869
219 877
220 836
229 880
230 831
238 824
239 880
245 816
249 880
255 811
259 602
259 612
259 880
263 804
267 594
267 619
269 880
272 799
275 625
276 589
277 789
279 877
284 582
285 625
285 781
289 875
292 574
295 625
295 776
299 875
302 569
303 769
304 630
309 875
311 564
312 764
314 367
314 377
314 630
319 557
319 875
320 756
322 359
322 384
324 630
328 749
329 552
329 872
330 351
330 390
334 630
335 741
337 544
338 344
339 727
339 870
340 390
344 630
346 539
347 719
348 344
349 870
350 390
351 530
352 709
354 630
357 339
358 865
359 522
360 390
360 701
364 630
366 334
367 514
368 694
368 865
369 395
373 625
375 506
375 686
376 330
377 860
379 395
383 499
383 625
383 679
386 325
387 860
389 395
389 487
390 671
393 623
394 319
395 661
397 479
397 859
399 392
403 314
403 620
403 654
404 467
407 644
407 855
409 390
412 459
413 314
413 620
414 632
416 850
417 449
419 390
419 437
422 309
424 427
426 850
429 390
430 301
432 419
435 845
437 409
438 385
440 299
444 393
445 845
449 294
450 380
453 838
458 289
463 835
467 284
472 830
475 276
481 825
483 269
490 820
492 264
499 815
499 947
499 957
499 967
499 977
499 987
499 997
499 1007
499 1017
499 1027
499 1037
499 1047
501 259
504 824
504 834
504 844
504 854
504 864
504 874
504 884
504 894
504 904
504 914
504 924
504 934
504 1056
504 1066
504 1076
504 1086
504 1096
504 1106
504 1116
504 1126
506 250
509 1135
509 1145
512 1155
514 242
520 1162
522 234
529 217
530 1165
537 209
540 1165
542 199
549 187
550 1165
554 172
560 1165
562 164
564 147
569 137
570 1165
574 122
579 107
580 1165
584 67
584 77
584 87
584 97
590 1165
592 59
600 1165
601 54
610 59
610 1167
618 65
620 75
620 1170
622 85
630 92
630 1170
634 102
640 110
640 1165
642 120
647 129
650 1160
654 137
655 840
655 850
655 860
655 870
655 880
655 890
658 1153
660 145
660 899
660 909
660 919
660 929
660 939
660 949
660 959
660 969
660 979
660 989
660 999
660 1009
660 1019
660 1029
660 1039
660 1049
660 1059
660 1069
665 154
665 842
665 1078
665 1088
665 1098
665 1108
665 1145
670 1117
670 1127
673 160
674 847
677 170
684 850
685 177
689 187
693 855
695 195
700 204
703 855
705 213
710 222
712 860
714 232
720 240
722 860
725 249
730 258
731 865
738 265
741 865
742 275
745 285
750 294
751 868
755 303
761 870
763 310
770 318
770 875
775 650
777 660
778 325
780 670
780 875
785 333
785 415
785 679
785 689
785 699
786 655
789 880
790 424
790 708
790 718
793 339
795 433
795 727
796 658
799 737
799 880
800 420
800 442
802 344
804 746
805 451
806 660
808 461
809 425
809 880
810 754
811 349
815 469
815 763
816 660
818 885
819 356
819 425
820 478
820 488
820 772
825 364
825 497
826 663
827 780
828 885
829 425
830 790
832 505
835 367
835 515
835 799
836 665
838 885
839 425
840 524
840 534
840 808
843 374
845 543
846 665
848 885
849 425
850 552
850 812
852 379
854 562
856 665
857 820
858 885
859 425
860 570
862 379
865 579
866 665
867 824
868 885
869 422
871 384
873 585
876 665
876 829
877 595
878 885
879 417
880 389
884 836
885 602
885 670
887 409
888 395
888 885
894 607
894 839
895 670
898 885
902 614
903 844
905 670
908 885
911 619
913 844
915 670
918 883
919 626
923 844
925 670
928 880
929 629
933 663
933 845
937 635
937 874
940 655
940 853
945 642
945 862
