219 987
219 997
224 1006
227 979
234 1010
237 979
243 1005
246 974
253 1005
254 967
262 959
263 1005
270 951
273 1003
275 941
283 934
283 998
290 926
293 995
298 919
299 737
299 747
302 990
304 727
307 754
307 914
312 719
312 990
315 906
317 755
319 892
320 711
322 990
324 882
325 701
327 755
332 874
332 989
333 694
337 755
340 686
340 866
342 985
345 676
345 856
347 755
351 980
353 669
353 849
357 659
357 754
357 839
359 647
361 980
364 457
364 467
364 637
364 827
367 750
369 476
371 980
372 449
372 629
372 819
377 439
377 619
377 749
379 480
379 807
381 980
382 609
384 427
384 597
387 745
387 799
388 485
391 980
392 419
392 589
392 789
394 767
394 777
396 740
397 579
398 485
400 411
401 980
402 759
405 571
406 740
407 750
408 404
408 485
411 980
413 564
415 396
415 735
418 485
420 556
420 975
423 389
424 542
427 379
428 485
429 532
430 975
434 517
435 371
437 480
439 502
440 975
443 364
444 492
446 475
447 354
450 975
455 346
459 332
460 975
467 324
470 975
475 316
480 306
480 975
485 296
490 975
493 289
497 279
500 975
505 271
510 261
510 975
515 251
520 975
523 244
524 232
529 222
530 975
537 214
540 975
544 202
549 192
550 975
554 182
559 172
560 975
564 162
569 152
569 1077
569 1087
569 1097
569 1107
569 1117
569 1127
569 1137
569 1147
569 1157
569 1167
569 1177
570 975
574 137
574 1032
574 1042
574 1052
574 1062
577 1184
579 1002
579 1012
579 1022
580 975
582 129
584 117
584 985
585 1190
592 109
595 1190
597 99
599 87
604 77
605 1190
612 69
615 1190
621 64
625 1190
630 69
635 78
635 1190
643 84
645 1190
652 89
655 99
655 1190
660 108
665 1190
668 115
672 125
675 135
675 1190
680 144
685 153
685 1190
690 162
694 1195
697 170
702 179
704 1195
705 189
710 198
713 1200
715 207
722 215
723 1200
725 225
730 234
730 985
733 1200
735 994
738 240
740 985
740 1003
742 250
743 1200
745 1012
745 1022
745 1032
745 1042
747 259
749 1052
750 985
750 1062
750 1072
752 1194
754 267
754 1082
755 1092
755 1102
755 1112
755 1122
755 1132
755 1142
760 985
760 1151
760 1161
760 1171
760 1181
762 274
765 284
770 985
773 290
779 990
780 298
785 307
789 990
790 316
796 324
799 990
804 331
805 495
807 505
808 341
809 990
812 514
815 349
815 524
816 500
819 990
820 533
820 543
823 355
825 505
825 552
828 995
830 363
830 561
830 571
835 372
835 507
836 579
838 995
839 382
844 586
845 390
845 510
848 995
850 399
850 594
854 515
855 408
855 603
857 1000
863 415
863 610
864 515
867 620
867 1000
870 423
874 515
875 432
875 442
877 624
877 1000
882 450
884 512
884 632
887 459
887 1000
890 469
892 504
892 639
895 478
895 488
897 1000
899 647
907 654
907 1000
910 765
912 775
914 662
917 1000
920 670
920 782
921 770
924 792
925 679
927 1000
929 801
930 688
930 775
935 745
935 809
937 1000
938 695
940 777
940 818
945 703
945 827
947 1000
949 782
950 712
950 836
953 846
954 722
957 1000
958 855
959 731
959 785
962 865
965 739
967 1004
969 785
970 872
973 745
975 881
977 755
977 779
977 1005
980 765
981 889
987 1005
989 896
993 906
997 1005
1000 914
1005 923
1007 1005
1010 932
1017 940
1017 1005
1025 947
1027 1005
1032 955
1037 1005
1040 962
1047 1005
1049 967
1056 1000
1057 974
1064 982
1064 992
