979 877
979 887
979 897
984 867
984 972
984 982
984 992
987 904
989 962
989 1001
989 1011
992 859
995 910
996 1019
997 954
1002 854
1004 1025
1005 910
1006 949
1012 854
1013 1020
1015 910
1015 944
1021 849
1023 1020
1024 915
1024 925
1024 935
1031 849
1033 1020
1041 849
1042 1025
1051 849
1051 1030
1061 849
1061 1030
1070 1025
1071 849
1080 1020
1081 849
1090 1015
1091 849
1100 1010
1101 845
1110 1010
1111 844
1120 1010
1121 844
1130 1010
1131 844
1140 1010
1141 844
1150 1010
1151 844
1160 1010
1161 844
1170 1010
1171 844
1176 1018
1181 844
1184 1025
1189 792
1189 802
1189 812
1189 822
1189 832
1193 1030
1197 784
1203 1030
1206 779
1213 1030
1216 779
1223 1030
1226 779
1233 1030
1236 779
1243 1030
1246 779
1253 1028
1256 779
1263 1023
1266 779
1270 1015
1276 779
1279 1010
1286 779
1289 1010
1296 779
1299 1010
1305 784
1309 1010
1315 784
1319 1010
1325 784
1329 1010
1335 784
1339 1010
1343 790
1345 810
1345 820
1345 830
1349 1010
1350 798
1350 839
1359 1010
1360 842
1365 851
1368 1015
1370 860
1372 870
1372 1025
1375 880
1375 890
1382 1029
1385 894
1392 1025
1395 894
1402 1025
1403 900
1410 908
1410 918
1412 1024
1418 925
1422 1019
1427 930
1432 1014
1437 934
1437 1004
1440 944
1440 980
1440 990
1445 953
1445 963
