1029 877
1029 887
1029 897
1034 906
1037 869
1041 914
1045 861
1049 920
1049 967
1049 977
1049 987
1049 997
1050 851
1054 957
1054 1006
1055 841
1059 917
1059 1015
1062 949
1065 836
1068 1020
1069 915
1071 944
1075 834
1078 1020
1079 915
1081 940
1084 829
1088 1020
1089 915
1091 939
1094 827
1098 1020
1099 915
1101 939
1104 824
1104 924
1108 1020
1114 824
1118 1020
1124 824
1128 1020
1134 824
1138 1020
1144 824
1148 1020
1154 824
1158 1020
1164 824
1167 1015
1174 824
1176 1010
1184 824
1186 1010
1194 822
1196 1010
1204 819
1206 1010
1214 819
1215 1015
1224 819
1225 1015
1234 819
1235 1017
1244 819
1245 1020
1253 814
1255 1020
1263 814
1265 1020
1272 809
1274 792
1275 1020
1279 782
1284 772
1285 1020
1292 764
1295 1020
1301 759
1305 1020
1311 759
1315 1020
1321 759
1325 1020
1331 759
1335 1020
1341 759
1345 1015
1351 759
1355 1005
1361 759
1365 1005
1371 759
1375 1005
1381 759
1384 1000
1391 759
1394 1000
1400 764
1404 1000
1408 770
1412 780
1414 1000
1415 790
1420 799
1420 809
1424 1000
1430 812
1434 1000
1434 1010
1439 817
1439 1019
1444 826
1445 836
1447 1025
1448 846
1457 1025
1458 850
1465 858
1467 1025
1470 867
1477 1025
1478 874
1487 1025
1488 875
1497 1024
1498 879
1505 1015
1508 880
1510 970
1510 980
1510 990
1510 1000
1515 888
1519 965
1520 897
1520 907
1520 917
1524 927
1529 962
1534 931
1537 954
1538 941
