1064 872
1064 882
1064 892
1069 862
1069 901
1076 909
1079 857
1079 952
1079 962
1079 972
1079 982
1084 942
1084 991
1086 905
1089 854
1089 1000
1094 937
1095 1008
1096 905
1098 849
1099 1018
1104 934
1104 1027
1106 905
1108 849
1112 1034
1114 932
1116 905
1118 849
1122 1034
1124 929
1125 841
1126 905
1132 1030
1133 834
1134 929
1136 905
1142 829
1142 1029
1144 929
1146 908
1149 918
1152 824
1152 1025
1162 824
1162 1025
1171 819
1172 1025
1181 819
1182 1025
1191 819
1192 1025
1201 815
1202 1024
1211 814
1212 1019
1221 814
1222 1015
1231 814
1232 1015
1241 814
1242 1015
1251 814
1252 1015
1261 814
1262 1015
1271 814
1272 1015
1281 814
1282 1015
1291 814
1292 1015
1301 814
1302 1015
1309 797
1309 807
1312 1015
1314 767
1314 777
1314 787
1319 757
1322 1019
1327 749
1331 1024
1336 744
1341 1028
1346 744
1351 1030
1356 744
1361 1030
1366 744
1371 1030
1376 744
1381 1030
1385 739
1391 1030
1395 739
1400 1025
1405 739
1409 1020
1415 739
1418 1015
1425 739
1428 1013
1435 739
1438 1008
1445 739
1448 1003
1455 739
1455 990
1465 742
1465 990
1472 750
1475 760
1475 770
1475 780
1475 990
1480 789
1480 799
1485 808
1485 990
1490 817
1490 827
1494 837
1495 990
1499 846
1499 1000
1505 854
1505 1008
1510 863
1513 1015
1518 869
1523 1015
1528 869
1533 1015
1538 869
1543 1015
1547 874
1553 1015
1554 882
1555 892
1562 1010
1564 897
1570 905
1570 1000
1575 914
1575 980
1575 990
1585 914
1585 980
1595 914
1595 980
1604 919
1605 975
1610 927
1613 968
1615 936
1615 946
1615 956
