999 887
999 897
1004 877
1009 900
1009 952
1009 962
1009 972
1009 982
1009 992
1012 869
1014 1001
1017 944
1019 900
1021 864
1021 1009
1026 939
1029 900
1029 1015
1030 859
1035 1023
1036 935
1039 900
1040 856
1045 1025
1046 934
1049 900
1050 854
1055 1025
1056 934
1059 900
1060 851
1065 929
1065 1025
1069 900
1070 846
1075 929
1075 1025
1078 905
1079 915
1080 844
1085 1025
1090 844
1095 1025
1099 839
1105 1025
1109 837
1115 1025
1119 834
1125 1025
1129 834
1133 1018
1139 834
1140 1005
1149 834
1150 1005
1159 834
1160 1005
1169 834
1170 1005
1178 829
1180 1005
1188 829
1190 1007
1198 829
1200 1010
1208 829
1210 1010
1217 824
1220 1010
1224 797
1224 807
1229 787
1230 1010
1234 777
1240 1010
1242 769
1249 1015
1252 764
1252 1025
1261 1030
1262 764
1271 1030
1272 764
1281 1030
1282 764
1290 1025
1292 764
1300 1025
1302 764
1310 1020
1312 764
1318 1013
1320 1000
1322 764
1325 990
1332 764
1335 990
1342 764
1345 985
1352 764
1355 985
1362 764
1365 985
1369 772
1375 780
1375 985
1377 790
1380 800
1382 810
1385 820
1385 985
1390 829
1395 985
1400 832
1405 985
1409 837
1414 846
1415 987
1418 856
1419 997
1423 865
1424 1006
1430 873
1431 1014
1440 877
1441 1010
1445 886
1450 1005
1455 889
1460 1000
1465 892
1468 993
1470 975
1472 900
1480 907
1480 975
1484 917
1485 927
1488 968
1490 936
1490 946
1490 956
