49 377
49 387
49 397
49 407
54 362
54 416
54 426
59 352
59 435
62 445
67 344
67 454
72 334
74 462
80 326
82 469
86 479
88 319
94 485
97 314
103 490
107 314
113 490
117 314
122 495
127 314
132 495
137 314
142 495
147 314
152 495
157 314
162 495
167 314
172 495
177 314
182 495
187 314
191 500
196 319
201 500
206 319
211 500
216 319
221 500
226 319
231 500
236 319
241 500
246 319
251 500
256 319
261 500
266 319
271 500
276 319
281 503
286 319
291 505
295 324
301 505
305 324
311 505
315 324
321 505
325 324
331 505
335 324
341 505
345 324
351 505
355 324
361 508
365 324
371 510
375 324
381 510
385 324
391 510
395 324
401 510
405 327
411 510
415 329
421 510
425 329
431 510
435 329
441 510
445 329
451 510
455 329
461 510
465 329
471 510
475 329
481 510
485 329
491 510
495 329
501 510
505 329
511 510
514 334
521 510
524 334
531 510
534 334
540 505
544 334
550 507
554 334
560 510
564 332
570 510
574 329
580 510
584 329
590 510
594 329
600 510
604 329
610 510
614 329
620 510
624 329
630 510
634 329
640 510
644 329
650 510
654 329
660 510
664 329
670 510
674 329
680 510
684 329
690 510
694 329
700 510
703 324
710 512
713 324
720 515
723 324
730 515
733 324
740 515
743 324
750 515
753 324
760 515
763 324
770 515
773 324
780 515
782 319
790 515
792 319
800 515
802 319
810 515
812 319
820 517
822 319
830 520
832 319
840 520
842 319
850 520
852 319
860 520
862 319
870 520
872 319
880 520
881 314
890 520
891 314
900 520
901 314
910 520
911 314
920 520
921 314
930 520
931 314
940 520
941 314
949 525
951 314
959 525
961 314
969 525
971 314
979 525
981 314
989 525
991 314
999 525
1001 314
1009 525
1011 310
1019 525
1021 309
1029 525
1031 309
1039 525
1041 309
1049 525
1051 309
1058 530
1061 309
1068 530
1071 309
1078 530
1081 309
1088 530
1091 309
1098 530
1101 309
1108 530
1111 309
1118 530
1121 309
1128 530
1131 309
1137 535
1141 309
1147 535
1151 305
1157 535
1161 304
1167 535
1171 304
1177 535
1181 304
1187 535
1191 304
1197 535
1201 304
1207 535
1211 304
1216 540
1221 304
1226 540
1231 304
1236 540
1241 304
1246 540
1251 304
1256 540
1261 304
1266 543
1271 300
1275 548
1276 290
1283 555
1286 285
1292 560
1294 279
1302 560
1304 279
1312 560
1314 279
1321 555
1324 279
1331 555
1334 279
1341 555
1344 279
1350 560
1354 277
1359 565
1364 272
1365 573
1372 264
1373 580
1379 252
1380 588
1387 244
1388 595
1397 239
1397 600
1406 605
1407 234
1415 610
1417 229
1424 615
1427 224
1434 615
1437 224
1443 620
1446 219
1452 625
1455 214
1462 625
1465 214
1471 630
1475 214
1480 635
1485 214
1490 637
1495 214
1500 635
1505 214
1510 630
1515 214
1520 625
1525 214
1530 625
1535 217
1540 620
1545 219
1550 620
1554 224
1559 615
1564 226
1569 612
1574 229
1579 607
1582 235
1589 602
1592 239
1597 594
1599 247
1605 585
1607 254
1614 580
1616 259
1622 574
1624 266
1630 274
1632 569
1639 279
1642 565
1648 284
1652 565
1658 284
1662 565
1668 284
1672 565
1678 284
1682 565
1688 285
1691 560
1697 290
1699 552
1705 297
1707 544
1714 302
1717 540
1724 304
1727 540
1734 304
1737 540
1744 304
1747 540
1754 304
1757 540
1764 304
1767 540
1773 309
1777 540
1783 309
1787 540
1793 309
1797 540
1803 309
1807 540
1813 309
1817 540
1823 309
1827 539
1833 309
1837 535
1843 309
1847 535
1852 314
1857 535
1862 314
1867 535
1872 314
1877 535
1882 314
1887 535
1892 314
1897 535
1902 314
1907 535
1912 314
1917 535
1922 314
1927 535
1931 319
1937 535
1941 319
1947 535
1951 319
1957 535
1961 319
1967 534
1971 319
1977 530
1981 319
1987 530
1991 319
1997 530
2001 319
2007 530
2011 319
2017 530
2021 319
2027 530
2031 319
2037 530
2040 324
2047 530
2050 324
2057 530
2060 324
2067 530
2070 324
2077 530
2080 324
2087 530
2090 324
2097 530
2100 324
2106 525
2110 324
2116 525
2120 324
2126 525
2130 324
2136 525
2140 324
2146 525
2150 324
2156 525
2160 327
2166 525
2170 329
2176 525
2180 329
2186 525
2190 329
2196 525
2200 329
2205 520
2210 329
2215 520
2220 329
2225 520
2230 329
2235 520
2240 329
2245 520
2250 329
2255 520
2260 329
2265 520
2270 332
2275 520
2280 334
2284 515
2290 334
2294 515
2300 334
2304 515
2310 334
2314 515
2320 334
2324 515
2330 334
2334 515
2340 334
2344 515
2350 334
2354 515
2360 334
2364 515
2370 334
2374 515
2380 334
2384 515
2389 339
2394 512
2397 345
2404 507
2405 352
2405 495
2409 362
2410 475
2410 485
2414 371
2415 381
2415 391
2415 401
2415 411
2415 421
2415 431
2415 441
2415 451
2415 461
