134 327
134 337
134 347
134 357
134 367
134 377
139 317
139 386
139 396
139 406
139 416
144 425
144 435
144 445
144 455
147 309
149 464
149 474
149 484
151 494
154 504
155 301
156 514
163 294
164 520
169 529
171 539
173 294
179 545
182 289
185 553
191 284
195 557
199 277
202 565
209 274
212 569
219 274
222 570
229 272
232 570
239 267
242 570
247 259
252 570
257 254
262 569
267 254
272 565
277 254
282 565
287 254
292 565
297 254
302 565
307 254
312 565
317 254
322 565
327 254
332 565
337 254
342 565
346 249
352 565
355 244
362 565
364 239
372 565
374 239
382 565
384 239
392 565
394 239
402 565
404 239
412 565
414 241
422 565
424 244
432 565
434 244
442 565
444 244
452 565
454 244
462 565
464 244
472 565
474 244
482 565
484 244
492 565
494 244
502 565
504 244
512 565
514 244
522 565
524 244
532 565
534 244
542 565
544 244
552 565
554 244
562 565
564 244
572 569
574 244
582 570
584 244
592 570
594 244
602 570
604 244
612 570
614 244
622 570
624 244
632 570
634 244
642 570
644 244
652 570
654 244
662 570
664 244
672 570
674 244
682 570
684 244
692 570
694 244
702 570
704 244
712 570
714 244
722 570
724 244
732 570
734 244
742 570
744 244
752 570
754 244
762 570
764 244
772 570
774 244
782 570
784 244
792 570
793 249
802 570
803 249
812 570
813 249
822 570
823 249
832 570
833 249
842 570
843 249
852 570
853 249
862 570
863 249
872 570
873 249
882 570
883 249
892 570
893 249
902 570
903 249
912 570
913 249
922 570
923 249
932 570
933 249
942 570
943 249
952 570
953 249
962 569
963 249
972 565
973 249
982 565
983 249
992 565
993 249
1002 565
1003 249
1012 565
1013 249
1022 565
1023 249
1032 565
1033 249
1042 565
1043 249
1052 565
1053 249
1062 565
1063 249
1072 565
1073 249
1082 565
1083 249
1092 565
1093 249
1102 565
1103 249
1112 244
1112 565
1122 244
1122 565
1132 244
1132 565
1142 244
1142 565
1152 244
1152 565
1162 244
1162 565
1171 560
1172 244
1181 560
1182 244
1191 560
1192 244
1201 560
1202 244
1211 560
1212 244
1221 560
1222 239
1231 563
1232 239
1240 568
1242 239
1248 575
1251 234
1255 583
1261 234
1263 590
1270 229
1270 598
1278 605
1279 224
1284 613
1288 219
1289 622
1297 214
1297 629
1305 206
1305 635
1313 199
1314 640
1322 194
1323 645
1332 189
1332 650
1340 181
1341 655
1350 176
1350 660
1359 665
1360 171
1368 670
1370 169
1377 675
1380 169
1386 680
1389 164
1395 685
1399 164
1405 685
1408 159
1415 685
1418 159
1424 690
1428 159
1434 690
1437 154
1444 690
1447 154
1454 690
1457 154
1463 695
1466 149
1473 695
1476 149
1483 695
1486 145
1493 695
1496 144
1502 700
1506 144
1512 700
1515 149
1522 700
1525 149
1531 695
1535 149
1541 695
1545 149
1551 695
1555 149
1561 695
1565 149
1570 690
1575 149
1580 690
1584 154
1590 690
1594 154
1600 685
1604 154
1610 685
1614 154
1619 680
1624 156
1628 675
1633 161
1638 673
1643 164
1648 670
1652 169
1657 665
1661 174
1666 660
1670 179
1676 660
1680 179
1685 655
1689 184
1695 655
1697 190
1704 650
1705 197
1712 205
1714 647
1717 214
1724 222
1724 642
1730 230
1730 630
1735 239
1735 620
1740 610
1743 245
1748 603
1752 250
1758 598
1762 254
1768 593
1772 254
1778 588
1782 249
1788 583
1792 249
1795 575
1802 249
1805 570
1811 254
1815 570
1821 254
1825 570
1830 259
1835 570
1840 259
1845 570
1850 259
1855 570
1860 259
1865 570
1870 259
1875 570
1880 259
1885 570
1890 259
1895 570
1900 259
1905 570
1910 259
1915 570
1920 259
1925 570
1930 259
1935 570
1939 254
1945 570
1949 254
1955 570
1959 254
1965 570
1969 254
1975 570
1979 254
1985 570
1989 254
1995 570
1999 254
2005 570
2009 254
2015 570
2019 254
2025 570
2029 254
2035 570
2039 254
2045 570
2049 254
2055 570
2059 254
2065 570
2069 254
2075 570
2079 254
2085 570
2089 254
2095 570
2099 254
2105 570
2109 254
2115 570
2119 254
2125 570
2129 254
2135 570
2139 254
2145 570
2149 256
2155 570
2159 259
2165 570
2169 259
2175 570
2179 259
2185 570
2189 259
2195 570
2199 259
2205 570
2209 259
2215 570
2219 259
2225 570
2229 259
2235 570
2239 259
2245 570
2249 259
2255 570
2259 259
2265 565
2269 261
2275 565
2279 264
2285 565
2289 266
2295 565
2298 271
2305 565
2308 275
2315 283
2315 565
2323 290
2325 565
2330 298
2330 308
2330 318
2330 328
2330 338
2330 348
2330 358
2330 368
2330 378
2330 388
2330 398
2330 555
2335 407
2335 417
2335 427
2335 437
2335 447
2335 457
2335 467
2335 477
2335 487
2335 497
2335 507
2335 517
2335 527
2335 537
