1133 1999
1133 2009
1133 2019
1134 1984
1134 2029
1135 2039
1136 1972
1137 2049
1138 1959
1138 2059
1140 1948
1141 2069
1143 1937
1145 2079
1147 1926
1148 2089
1152 1916
1152 2099
1157 1905
1157 2108
1162 1896
1163 2116
1168 1887
1168 2125
1174 1879
1175 2133
1180 1871
1181 2141
1188 1863
1189 2148
1196 1855
1197 2155
1204 1848
1204 2163
1212 1840
1212 2169
1220 1833
1220 2175
1228 1826
1229 2180
1236 1819
1238 2185
1244 1813
1247 2190
1252 1807
1257 2194
1260 1801
1267 2197
1269 1795
1277 2200
1278 1789
1287 1783
1287 2202
1296 1777
1297 2203
1305 1772
1307 2205
1314 1766
1317 2205
1323 1761
1327 2204
1332 1756
1337 2203
1341 1751
1347 2201
1350 1745
1357 2199
1360 1741
1367 2196
1369 1736
1377 2193
1379 1732
1387 2189
1389 1729
1396 2184
1399 1724
1406 2180
1409 1721
1415 2175
1419 1718
1424 2170
1429 1714
1433 2165
1439 1712
1442 2160
1449 1709
1451 2154
1459 1707
1460 2149
1468 2143
1469 1705
1476 2137
1479 1703
1485 2131
1489 1700
1494 2125
1499 1698
1502 2119
1509 1696
1510 2113
1518 2107
1519 1695
1526 2101
1529 1694
1534 2095
1539 1692
1542 2088
1549 1691
1550 2081
1558 2074
1559 1690
1566 2067
1569 1688
1574 2060
1579 1688
1582 2052
1589 1687
1590 2044
1597 2036
1599 1686
1604 2028
1609 1684
1610 2020
1617 2012
1619 1683
1623 2003
1629 1683
1630 1994
1636 1985
1639 1681
1642 1976
1648 1966
1649 1680
1653 1957
1658 1947
1659 1677
1663 1938
1668 1927
1669 1676
1673 1917
1677 1906
1679 1674
1682 1897
1687 1888
1689 1670
1691 1877
1695 1867
1699 1667
1699 1856
1703 1846
1708 1662
1708 1837
1714 1827
1717 1656
1717 1817
1722 1805
1726 1651
1727 1795
1733 1786
1735 1646
1738 1777
1744 1640
1744 1769
1749 1758
1752 1634
1755 1750
1761 1628
1763 1742
1769 1622
1769 1733
1776 1725
1777 1615
1784 1717
1785 1609
1792 1711
1793 1603
1800 1703
1801 1597
1808 1696
1809 1591
1816 1690
1817 1585
1824 1684
1825 1579
1832 1677
1833 1572
1840 1671
1841 1566
1849 1559
1849 1666
1857 1553
1857 1660
1865 1547
1865 1653
1873 1541
1873 1646
1881 1535
1881 1640
1889 1528
1889 1633
1897 1522
1897 1626
1905 1515
1905 1620
1913 1509
1913 1614
1921 1503
1921 1608
1929 1497
1929 1601
1937 1595
1938 1491
1945 1589
1946 1485
1953 1583
1954 1478
1961 1576
1962 1471
1969 1570
1971 1465
1977 1564
1979 1458
1985 1556
1987 1452
1993 1550
1995 1446
2002 1544
2003 1440
2010 1538
2011 1434
2019 1427
2019 1532
2027 1526
2028 1421
2035 1520
2036 1415
2043 1514
2044 1409
2051 1508
2052 1403
2059 1501
2060 1397
2067 1495
2068 1391
2075 1489
2076 1385
2083 1481
2084 1378
2091 1475
2092 1372
2100 1366
2100 1469
2108 1360
2108 1463
2116 1354
2116 1456
2124 1348
2124 1450
2132 1342
2132 1444
2140 1336
2141 1438
2148 1330
2149 1432
2156 1324
2157 1426
2164 1317
2165 1419
2172 1311
2173 1413
2181 1305
2181 1406
2189 1298
2189 1399
2198 1292
2198 1393
2207 1286
2207 1387
2215 1280
2215 1381
2223 1274
2223 1375
2231 1268
2231 1369
2239 1262
2239 1363
2247 1256
2247 1357
2255 1250
2255 1350
2263 1244
2263 1344
2271 1238
2272 1338
2279 1232
2280 1331
2287 1226
2288 1325
2295 1220
2296 1319
2303 1214
2304 1313
2311 1208
2312 1307
2319 1202
2321 1301
2327 1195
2329 1295
2335 1189
2337 1289
2344 1183
2345 1283
2352 1177
2353 1277
2360 1171
2361 1271
2368 1165
2370 1265
2376 1159
2378 1258
2384 1153
2386 1252
2392 1146
2395 1246
2400 1140
2403 1240
2408 1134
2411 1234
2416 1128
2420 1228
2425 1122
2428 1222
2433 1116
2436 1216
2441 1110
2444 1210
2449 1104
2452 1203
2458 1098
2461 1197
2466 1091
2469 1191
2474 1085
2477 1185
2482 1079
2485 1178
2490 1073
2493 1172
2498 1067
2502 1166
2507 1061
2510 1160
2515 1055
2518 1154
2523 1048
2526 1148
2531 1042
2535 1143
2540 1036
2543 1137
2548 1030
2551 1131
2556 1024
2559 1125
2564 1018
2567 1119
2572 1012
2575 1113
2581 1007
2584 1107
2589 1000
2593 1101
2597 994
2601 1095
2605 988
2609 1089
2613 982
2617 1083
2622 976
2625 1076
2630 970
2633 1070
2638 964
2642 1065
2646 957
2650 1059
2654 951
2658 1053
2663 945
2667 1047
2671 939
2675 1040
2679 933
2684 1034
2687 927
2692 1028
2695 921
2701 1022
2704 915
2709 1015
2712 909
2717 1008
2721 903
2725 1002
2729 897
2734 996
2737 891
2742 990
2745 885
2751 984
2753 879
2759 978
2761 873
2767 972
2770 867
2775 965
2778 861
2783 959
2787 855
2793 954
2795 849
2802 948
2804 843
2810 942
2812 837
2818 936
2820 831
2826 929
2829 825
2834 923
2838 819
2843 918
2846 813
2851 912
2854 807
2860 907
2862 801
2868 900
2870 795
2876 893
2878 789
2884 887
2886 783
2892 881
2894 777
2901 875
2902 771
2909 869
2910 765
2918 759
2918 863
2926 856
2927 753
2935 747
2935 850
2943 740
2943 843
2951 734
2951 837
2959 728
2959 831
2967 722
2967 825
2975 716
2975 819
2984 710
2984 814
2992 704
2992 808
3000 698
3000 802
3008 692
3009 796
3016 686
3018 790
3024 680
3026 784
3032 674
3035 779
3040 668
3043 773
3048 662
3051 766
3057 656
3059 759
3065 650
3067 752
3073 644
3075 746
3081 638
3084 740
3089 632
3093 735
3097 626
3101 728
3105 620
3110 722
3114 614
3118 716
3122 608
3127 710
3130 602
3136 705
3138 596
3144 699
3147 590
3152 692
3155 584
3161 687
3163 578
3169 681
3171 572
3178 675
3179 566
3186 669
3187 559
3194 663
3196 553
3203 657
3204 547
3211 651
3212 541
3219 645
3220 535
3227 639
3228 529
3236 633
3237 523
3245 517
3245 627
3253 511
3253 620
3261 505
3262 614
3269 499
3271 608
3277 493
3279 602
3286 487
3288 596
3294 481
3296 590
3302 475
3304 584
3310 469
3312 578
3318 462
3320 572
3326 456
3329 567
3335 450
3338 561
3344 444
3346 555
3352 438
3354 549
3360 432
3362 543
3369 426
3370 537
3378 420
3378 531
3386 414
3386 525
3395 408
3395 520
3403 402
3404 514
3411 395
3412 507
3420 390
3420 500
3428 383
3429 494
3436 377
3438 488
3445 372
3446 482
3453 365
3454 476
3461 359
3462 470
3469 353
3471 465
3478 347
3479 459
3486 341
3487 452
3494 335
3496 447
3502 329
3505 441
3510 323
3513 433
3519 317
3521 426
3527 311
3530 420
3536 305
3539 414
3544 299
3547 408
3552 293
3555 402
3560 287
3564 397
3570 283
3572 390
3580 283
3580 383
3589 377
3590 285
3598 371
3599 290
3607 365
3609 294
3615 358
3619 296
3623 350
3625 304
3625 314
3626 324
3627 334
