593 530
594 515
595 540
595 550
596 560
597 495
599 506
601 482
601 569
602 579
604 471
609 488
609 589
611 463
613 450
613 599
616 440
620 607
621 430
628 421
628 614
633 623
634 412
639 631
642 405
646 639
649 397
655 644
659 392
660 653
667 385
668 659
674 667
677 385
682 674
687 385
690 681
697 383
699 686
707 382
708 691
715 699
717 385
723 705
727 387
733 707
737 388
740 715
747 388
749 720
757 392
758 725
766 731
767 394
775 736
777 394
785 400
785 740
794 745
795 400
802 751
804 405
812 755
814 408
822 759
824 410
830 765
833 415
840 764
843 417
848 770
852 422
858 773
862 426
866 779
871 431
876 778
880 436
886 782
890 439
896 784
898 445
906 786
908 449
916 789
917 454
925 461
926 789
933 467
936 789
942 472
946 788
950 479
956 787
959 484
966 787
968 489
976 495
976 784
984 501
986 785
994 504
996 785
1000 512
1006 784
1008 519
1014 527
1016 784
1022 533
1026 783
1028 541
1034 549
1036 787
1042 556
1046 786
1048 564
1053 573
1056 787
1058 582
1061 592
1066 601
1066 790
1070 611
1075 620
1076 794
1079 630
1084 639
1086 794
1088 649
1093 658
1096 797
1101 664
1104 674
1106 800
1109 683
1114 806
1115 691
1122 699
1124 807
1130 706
1134 811
1139 711
1143 816
1144 720
1153 725
1153 820
1161 731
1161 826
1169 737
1171 829
1178 742
1181 833
1188 744
1191 837
1195 752
1199 843
1204 757
1205 851
1214 761
1215 849
1221 857
1224 765
1229 863
1234 768
1237 869
1240 776
1245 876
1250 777
1254 881
1258 783
1263 886
1267 788
1273 890
1277 792
1281 896
1287 794
1289 903
1296 799
1299 906
1304 805
1305 914
1314 808
1315 918
1323 813
1323 924
1331 930
1332 818
1340 935
1342 822
1348 941
1352 825
1358 945
1362 828
1364 953
1368 836
1373 958
1378 839
1383 960
1387 844
1391 966
1396 849
1397 974
1406 853
1406 979
1414 859
1416 983
1424 863
1424 989
1432 995
1433 868
1441 874
1441 1000
1449 1006
1451 878
1457 1012
1460 883
1465 1018
1469 888
1475 1022
1479 889
1483 1028
1486 897
1491 1035
1495 902
1500 1040
1505 906
1508 1046
1514 911
1516 1052
1522 917
1524 1059
1532 918
1533 1064
1540 924
1542 1069
1549 929
1550 1076
1557 935
1560 1079
1567 938
1569 1084
1576 943
1576 1092
1584 950
1584 1098
1593 1103
1594 954
1602 1108
1604 958
1610 1115
1613 963
1620 1119
1623 966
1628 1125
1631 973
1638 1127
1641 975
1645 1135
1649 981
1654 1140
1658 986
1662 1147
1668 990
1671 1152
1678 991
1680 1157
1685 999
1690 1160
1694 1004
1697 1168
1704 1007
1707 1172
1712 1013
1713 1180
1721 1186
1722 1017
1729 1192
1730 1023
1738 1197
1740 1027
1748 1033
1748 1201
1757 1206
1758 1036
1766 1042
1766 1211
1774 1217
1775 1047
1784 1221
1785 1051
1791 1229
1794 1056
1799 1235
1804 1059
1808 1240
1812 1065
1816 1246
1821 1070
1826 1250
1829 1077
1835 1255
1839 1076
1845 1256
1846 1084
1851 1264
1856 1085
1861 1266
1864 1091
1871 1269
1872 1097
1880 1103
1880 1274
1890 1106
1890 1275
1900 1108
1900 1277
1903 1259
1908 1115
1908 1270
1917 1120
1917 1262
1925 1126
1925 1254
1933 1245
1935 1126
1937 1235
1938 1136
1944 1227
1946 1143
1948 1216
1951 1204
1952 1151
1955 1194
1960 1158
1960 1171
1961 1183
