147 105
147 115
147 125
147 135
148 145
150 94
150 155
153 165
154 83
155 179
158 189
159 74
163 198
165 66
168 207
172 58
172 217
179 225
180 51
182 235
186 245
188 45
192 253
197 40
198 261
203 270
207 37
210 278
217 34
218 284
225 292
227 32
232 300
237 30
237 309
245 315
247 30
251 323
257 30
260 328
267 31
267 336
275 343
277 32
282 351
287 33
289 359
296 367
297 35
305 372
307 38
313 378
317 41
321 385
327 44
329 391
337 47
337 397
346 402
347 51
355 407
357 54
364 412
367 58
372 418
376 63
381 423
386 67
390 428
396 71
399 433
405 76
408 438
414 81
417 443
423 86
426 448
432 91
435 453
441 96
444 458
449 102
454 462
458 107
464 466
467 112
474 469
475 118
483 124
483 474
491 130
492 479
500 135
501 484
508 141
511 485
516 148
521 487
524 154
530 492
532 160
539 168
540 495
547 174
550 496
555 180
560 498
562 188
570 194
570 501
577 202
580 503
584 210
590 507
592 216
598 224
600 509
604 232
610 513
612 239
618 247
620 516
624 255
630 519
631 263
638 271
640 523
644 279
650 287
650 526
656 295
660 527
662 303
668 311
670 530
673 320
679 328
680 533
685 336
689 538
691 344
696 353
699 541
701 362
707 370
709 544
712 379
718 387
719 545
723 396
727 551
729 404
735 412
735 558
741 420
745 562
747 428
753 436
753 568
760 444
762 573
767 452
770 579
774 460
780 583
782 467
788 475
788 589
796 482
797 594
804 489
806 599
811 497
814 605
819 503
824 607
827 510
832 613
835 516
839 621
843 523
847 628
851 530
855 634
859 536
864 639
867 542
873 644
875 548
881 650
883 554
889 656
891 560
898 661
899 566
906 668
907 572
912 676
915 579
920 682
923 585
928 689
931 591
936 695
939 597
944 702
947 603
952 708
955 609
960 714
963 615
968 720
971 621
977 725
979 627
986 730
987 633
994 736
995 639
1002 742
1003 645
1008 750
1011 651
1017 755
1019 657
1025 761
1027 663
1033 767
1035 669
1041 773
1043 675
1049 779
1051 681
1057 785
1059 687
1066 790
1067 693
1075 699
1075 795
1083 705
1083 801
1089 809
1091 711
1097 816
1099 718
1105 822
1107 724
1113 828
1115 730
1121 834
1123 736
1130 839
1131 742
1138 846
1139 748
1147 755
1147 851
1155 761
1156 856
1163 767
1164 863
1171 773
1172 869
1179 779
1179 877
1187 785
1187 884
1194 892
1195 791
1203 797
1203 897
1211 803
1213 900
1219 809
1221 906
1227 815
1227 914
1235 821
1235 921
1243 827
1243 927
1251 834
1251 933
1259 840
1259 939
1266 947
1267 846
1274 953
1275 852
1283 858
1284 953
1291 864
1293 958
1299 870
1300 966
1307 876
1309 971
1314 884
1317 977
1323 889
1325 984
1331 896
1331 992
1339 902
1339 999
1347 908
1348 1004
1355 914
1355 1012
1363 920
1363 1018
1371 926
1371 1025
1379 932
1379 1031
1387 939
1387 1037
1395 946
1395 1044
1403 952
1404 1049
1411 958
1412 1056
1419 964
1421 1061
1427 970
1429 1068
1435 976
1437 1074
1443 982
1445 1081
1451 988
1452 1089
1459 994
1461 1094
1467 1001
1469 1100
1475 1007
1477 1106
1483 1014
1485 1113
1491 1020
1492 1121
1499 1026
1500 1127
1507 1032
1509 1132
1515 1038
1516 1140
1523 1044
1525 1145
1531 1051
1534 1150
1539 1057
1542 1156
1547 1064
1550 1162
1555 1070
1559 1167
1563 1076
1566 1175
1571 1082
1575 1180
1579 1089
1583 1186
1587 1095
1591 1192
1595 1101
1599 1198
1603 1108
1607 1205
1611 1114
1615 1211
1619 1120
1623 1218
1627 1126
1631 1224
1635 1133
1638 1232
1643 1140
1646 1238
1651 1146
1654 1244
1659 1152
1662 1250
1667 1158
1670 1256
1675 1164
1678 1262
1683 1170
1686 1269
1691 1176
1694 1275
1699 1183
1702 1281
1707 1189
1710 1287
1715 1195
1718 1293
1723 1202
1726 1299
1731 1209
1733 1307
1739 1215
1741 1313
1747 1221
1749 1319
1755 1227
1757 1325
1763 1233
1765 1331
1771 1239
1774 1336
1779 1246
1782 1342
1787 1252
1790 1348
1795 1258
1798 1354
1803 1265
1805 1362
1811 1272
1814 1367
1819 1278
1822 1373
1827 1284
1831 1378
1835 1290
1841 1380
1843 1296
1851 1303
1851 1378
1859 1310
1861 1376
1867 1316
1871 1371
1875 1322
1879 1364
1881 1330
1884 1355
1885 1340
