294 723
296 733
298 711
301 742
304 703
309 749
314 700
319 751
324 699
329 751
334 697
339 752
344 697
349 751
354 697
359 750
364 696
369 749
374 695
379 748
384 694
389 748
394 694
399 747
404 692
409 745
414 692
419 744
424 690
429 743
434 689
439 742
444 689
449 742
454 688
459 741
464 687
469 740
474 686
479 738
484 685
489 735
494 684
499 735
504 683
509 734
514 683
519 734
524 683
529 733
534 682
539 731
544 682
549 731
554 681
559 731
564 680
569 730
574 680
579 728
584 679
589 725
594 678
599 724
604 677
609 724
614 676
619 724
624 675
629 724
634 674
639 724
644 673
649 723
654 673
659 722
664 671
669 720
674 670
679 720
684 669
689 719
694 668
699 718
704 667
709 716
714 667
719 716
724 666
729 717
734 664
739 716
744 663
749 714
754 663
759 714
764 662
769 713
774 661
779 712
784 659
789 712
794 659
799 712
804 658
809 711
814 657
819 710
824 656
829 710
834 655
839 709
844 653
849 709
854 652
859 709
864 650
869 710
874 648
879 710
884 646
889 710
894 643
899 711
904 640
909 712
914 637
919 713
924 634
929 715
934 631
939 716
944 628
949 717
954 624
959 721
964 620
969 723
974 616
979 726
983 611
989 729
993 608
999 733
1003 603
1009 734
1013 599
1019 737
1023 596
1029 740
1033 592
1039 743
1043 588
1049 745
1053 584
1059 749
1063 580
1069 751
1073 577
1079 753
1083 574
1089 755
1093 570
1099 758
1103 566
1109 760
1113 563
1119 761
1123 560
1129 762
1133 558
1139 764
1143 556
1149 765
1153 555
1159 766
1163 552
1169 767
1173 551
1179 767
1183 550
1189 767
1193 549
1199 767
1203 548
1209 766
1213 547
1219 765
1223 547
1229 763
1233 547
1239 762
1243 548
1249 760
1253 548
1259 759
1263 549
1269 756
1273 551
1279 755
1283 553
1289 752
1293 556
1299 749
1303 559
1309 746
1313 562
1318 741
1323 566
1328 738
1332 571
1337 733
1342 575
1345 726
1350 581
1352 717
1358 587
1358 707
1362 696
1363 596
1365 606
1366 683
1368 616
1369 626
1369 671
1370 659
1371 636
1371 646
