638 494
640 475
642 464
642 504
646 454
646 514
648 444
652 524
657 432
658 442
660 531
664 541
665 424
672 548
672 558
673 416
677 567
682 410
684 575
688 399
691 583
698 394
700 588
701 598
707 384
710 603
713 613
717 385
721 620
725 377
727 628
734 372
736 633
744 373
744 639
749 615
750 647
752 367
758 641
762 365
762 651
772 364
772 652
777 666
782 362
783 674
792 362
793 677
801 684
802 365
809 690
812 365
815 698
821 706
822 368
830 711
832 371
840 715
842 374
848 721
852 376
856 727
860 382
865 732
870 384
875 735
880 386
885 738
890 390
895 740
897 398
905 741
907 402
915 745
917 405
924 750
927 408
932 756
935 415
935 425
942 756
945 422
952 757
954 427
962 433
962 760
965 443
972 759
975 445
982 759
985 449
992 763
993 455
1001 461
1002 761
1009 468
1012 761
1013 478
1021 484
1022 760
1029 491
1032 762
1039 493
1042 762
1047 500
1052 756
1053 766
1055 506
1060 515
1063 768
1065 524
1073 769
1074 529
1078 539
1083 771
1086 546
1090 556
1091 777
1095 565
1100 574
1101 778
1105 583
1108 593
1110 603
1111 778
1114 613
1118 623
1120 783
1121 633
1124 643
1125 792
1130 651
1134 661
1135 795
1140 669
1142 803
1144 679
1150 809
1151 687
1156 696
1158 816
1162 704
1166 822
1168 712
1173 721
1174 828
1181 728
1184 831
1191 731
1191 839
1195 849
1196 740
1203 748
1205 853
1211 755
1212 861
1220 760
1220 867
1226 768
1228 873
1235 773
1237 878
1243 779
1243 886
1248 895
1251 786
1256 901
1259 792
1265 906
1267 798
1274 911
1277 802
1279 920
1283 810
1287 926
1293 814
1294 934
1301 820
1303 939
1309 827
1311 945
1318 832
1319 951
1326 838
1328 956
1335 843
1335 964
1343 849
1343 970
1351 855
1352 975
1358 983
1360 860
1366 989
1369 865
1374 995
1376 873
1382 1002
1385 878
1388 1010
1393 884
1397 1015
1402 889
1404 1023
1410 895
1413 1028
1418 901
1421 1034
1426 907
1427 1042
1434 914
1435 1048
1443 919
1444 1053
1452 1059
1453 922
1460 1065
1461 928
1468 1072
1469 934
1477 1077
1478 939
1483 1085
1486 945
1488 1094
1494 951
1496 1100
1504 955
1506 1102
1509 1112
1512 961
1518 1117
1521 966
1526 1123
1529 972
1536 1126
1538 977
1544 1133
1546 984
1549 1142
1554 990
1556 1150
1563 995
1564 1156
1570 1003
1572 1163
1580 1007
1582 1166
1587 1175
1588 1014
1595 1181
1598 1016
1602 1189
1604 1024
1611 1194
1613 1029
1620 1037
1621 1197
1626 1206
1629 1042
1634 1213
1637 1048
1642 1220
1646 1053
1651 1225
1654 1060
1660 1230
1662 1066
1665 1239
1671 1071
1674 1244
1681 1074
1682 1250
1688 1258
1689 1081
1696 1264
1697 1088
1704 1271
1706 1093
1712 1277
1714 1099
1720 1283
1723 1104
1728 1290
1731 1110
1736 1296
1741 1114
1743 1304
1748 1122
1751 1310
1757 1127
1759 1316
1765 1133
1767 1322
1773 1139
1775 1329
1780 1338
1782 1144
1790 1341
1791 1149
1798 1157
1798 1348
1805 1356
1808 1161
1814 1361
1817 1166
1824 1365
1825 1172
1830 1373
1833 1178
1840 1373
1842 1183
1850 1189
1850 1376
1857 1197
1860 1377
1867 1201
1868 1383
1875 1207
1878 1382
1883 1214
1888 1378
1891 1220
1898 1376
1900 1225
1906 1369
1908 1232
1911 1360
1916 1238
1919 1353
1924 1244
1925 1344
1932 1251
1932 1332
1939 1259
1940 1325
1945 1267
1946 1313
1948 1278
1949 1288
1950 1298
