92 30
92 40
95 50
98 22
100 59
105 68
108 21
115 72
118 21
125 71
128 25
135 72
138 29
143 78
147 34
151 84
156 39
160 89
165 44
168 96
173 50
176 102
181 56
184 108
187 64
191 116
195 70
199 122
202 78
207 128
210 85
215 134
218 92
223 141
226 99
231 148
234 106
239 155
241 114
247 162
249 121
254 170
257 127
262 176
265 133
269 184
273 140
277 191
280 148
284 199
288 154
292 206
296 160
297 215
303 168
303 223
309 231
311 174
315 239
318 182
320 248
325 257
326 189
329 267
333 197
335 275
340 284
341 203
342 294
344 304
347 211
349 313
353 323
355 217
357 333
362 225
363 341
368 350
369 233
374 358
375 241
381 249
381 366
389 255
389 372
397 261
398 377
404 385
406 266
414 388
415 271
424 388
425 274
434 388
435 277
444 388
445 280
454 388
455 284
464 388
465 288
474 293
474 388
483 298
484 388
492 303
494 388
500 309
504 388
508 315
514 385
516 321
520 377
524 328
530 373
532 335
538 343
539 367
543 352
