89 582
89 592
89 602
89 612
89 622
89 632
89 642
89 652
89 662
89 672
89 682
94 547
94 557
94 567
94 691
94 701
94 711
99 522
99 532
99 720
99 730
99 740
104 502
104 512
104 749
104 759
109 487
109 768
110 778
114 472
114 788
119 457
119 797
119 807
124 442
124 816
129 432
129 825
132 835
134 422
137 844
139 412
141 854
144 402
146 863
149 392
150 873
154 382
155 882
162 374
162 890
167 364
167 899
174 352
174 907
179 916
182 344
184 925
187 334
190 933
195 326
198 940
203 319
205 948
209 307
210 957
217 299
217 965
225 291
225 972
232 980
233 284
240 276
240 987
249 992
250 271
257 999
258 264
264 1007
265 256
274 1010
275 251
280 1018
283 244
288 1025
292 239
297 1030
300 231
306 1035
310 226
315 1040
320 221
324 62
324 72
324 1045
329 81
330 216
332 54
333 1050
336 89
340 211
341 49
342 1055
344 95
349 42
350 206
352 1059
353 100
357 34
360 201
361 1064
363 100
367 29
370 199
371 1065
372 105
377 24
379 194
380 1070
381 110
387 24
389 192
390 1072
391 113
397 24
399 189
400 1075
401 115
407 24
408 184
409 1080
410 120
417 24
418 184
419 1080
420 122
427 24
428 184
429 1080
430 125
437 24
437 179
438 1085
440 125
447 24
447 179
448 1085
449 130
456 29
457 179
458 1085
459 130
465 34
465 138
466 174
467 1090
475 34
475 140
476 174
477 1090
484 39
484 145
486 174
487 1090
493 150
494 41
496 174
497 1090
500 49
502 155
506 174
507 1090
509 54
512 155
516 174
517 60
517 1090
519 163
525 67
527 1090
532 75
537 1090
540 82
540 92
545 101
546 1085
553 94
555 160
555 170
556 1085
560 86
560 120
560 130
560 140
560 150
565 110
565 174
565 1090
568 79
570 100
575 71
575 174
575 1090
580 90
583 64
585 174
585 1090
589 85
592 59
594 169
594 1095
598 80
602 54
604 169
604 1095
607 74
612 49
614 169
614 1095
617 70
622 49
624 169
624 1095
627 69
632 49
634 169
634 1095
637 65
641 44
644 169
644 1095
647 65
651 44
654 169
654 1095
657 64
661 44
664 169
664 1095
667 60
671 44
674 171
674 1092
677 60
681 44
684 174
684 1090
687 60
691 44
694 174
694 1090
697 60
701 44
704 176
704 1087
707 60
711 44
714 179
714 1085
717 60
721 44
724 181
724 1082
726 65
729 51
734 184
734 1080
744 186
744 1077
754 189
754 1075
763 194
763 1070
772 199
772 1065
782 199
782 1064
791 204
792 1059
800 209
802 1054
808 215
810 1045
817 220
820 1040
827 224
830 1035
834 232
839 1030
844 236
847 1024
850 244
857 1019
860 247
865 1010
867 255
873 1003
875 262
883 998
884 267
890 990
892 274
898 983
899 282
905 975
907 289
913 968
914 297
920 305
920 955
925 314
928 948
933 320
935 940
940 328
943 933
945 337
948 923
952 345
955 910
957 354
963 903
964 362
968 893
969 371
973 381
973 883
980 389
980 870
985 398
985 860
990 407
990 850
994 417
995 840
999 426
1000 436
1000 825
1005 445
1005 815
1010 454
1010 464
1010 800
1015 473
1015 785
1020 482
1020 492
1020 765
1020 775
1024 502
1025 512
1025 745
1025 755
1029 522
1030 532
1030 542
1030 720
1030 730
1035 551
1035 561
1035 571
1035 685
1035 695
1035 705
1038 581
1040 591
1040 601
1040 611
1040 621
1040 631
1040 641
1040 651
1040 661
1040 671
