19 717
19 727
19 737
19 747
19 757
19 767
19 777
19 787
19 797
24 687
24 697
24 707
24 806
24 816
24 826
29 662
29 672
29 835
29 845
32 855
34 647
34 865
39 632
39 874
41 884
44 617
44 894
49 607
49 903
54 597
54 912
59 587
59 921
64 577
64 930
67 940
69 567
72 949
74 557
76 959
82 549
84 965
87 539
87 975
94 527
94 983
99 992
102 519
107 999
109 507
111 1009
117 499
119 1015
125 491
125 1023
133 484
133 1030
140 476
140 1038
148 469
148 1045
155 461
155 1053
163 454
163 1060
170 446
170 1068
180 441
180 1072
187 1080
188 434
196 1085
197 429
204 1091
205 421
211 1099
213 414
221 1103
222 409
230 1108
232 404
238 1115
241 399
247 1120
250 394
257 1124
259 389
266 1129
268 384
276 1133
277 379
285 1138
287 374
295 1142
297 369
305 1145
307 369
314 1150
316 364
323 1155
325 359
333 1155
335 356
342 1160
345 354
352 1164
354 349
362 1165
364 349
369 202
369 212
369 222
372 1169
373 344
374 231
377 194
379 240
382 250
382 1170
383 344
386 189
387 259
391 269
392 339
392 1174
396 185
399 275
402 339
402 1175
405 283
406 184
412 339
412 1175
413 290
416 184
421 334
421 1180
422 295
426 184
431 300
431 334
431 1180
436 184
439 306
441 334
441 1180
445 189
449 310
451 334
451 1180
455 192
458 315
460 329
460 1185
465 194
467 320
470 1185
472 329
474 199
477 320
480 1185
482 205
482 329
487 320
490 212
490 1185
492 329
497 220
500 1185
502 325
505 227
510 1185
512 235
512 325
520 242
520 1185
524 252
529 261
530 1185
535 269
540 278
540 1185
544 197
544 207
544 217
545 287
549 226
549 236
549 246
549 297
550 307
550 1185
554 194
554 255
554 265
554 275
560 202
560 1180
565 211
565 221
570 230
570 240
570 250
570 1180
575 259
575 269
575 279
575 289
575 299
575 309
575 319
575 329
579 1185
585 329
589 1185
595 329
599 1185
605 329
609 1185
615 329
619 1185
625 329
629 1185
635 329
639 1185
645 329
649 1185
655 329
659 1185
665 329
669 1185
675 329
679 1182
684 334
689 1180
694 334
699 1180
704 334
709 1180
714 334
719 1177
723 339
729 1175
733 339
739 1175
743 340
748 1170
753 344
758 1170
763 345
767 1165
773 349
777 1165
783 350
786 1160
793 354
796 1160
802 359
805 1155
812 359
815 1150
821 364
825 1145
830 369
835 1145
840 372
844 1140
849 377
853 1135
859 381
862 1130
868 386
871 1125
878 390
880 1120
887 395
890 1115
897 399
900 1110
904 407
909 1105
914 411
918 1100
923 416
927 1094
930 424
935 1085
939 429
945 1080
947 435
953 1073
955 442
963 1068
964 447
970 1060
972 454
978 1053
979 462
985 1045
987 469
993 1038
994 477
1000 1030
1002 484
1008 1023
1009 492
1015 1015
1017 499
1023 1008
1024 507
1028 998
1029 516
1035 524
1035 990
1040 533
1040 980
1048 540
1048 973
1052 550
1053 963
1060 557
1060 950
1064 567
1065 940
1069 576
1070 930
1073 586
1075 920
1078 595
1080 910
1082 605
1085 900
1087 614
1090 624
1090 885
1095 633
1095 643
1095 870
1100 652
1100 855
1104 662
1105 672
1105 682
1105 830
1105 840
1110 691
1110 701
1110 711
1110 800
1110 810
1110 820
1115 720
1115 730
1115 740
1115 750
1115 760
1115 770
1115 780
1115 790
