64 702
64 712
64 722
64 732
64 742
64 752
64 762
64 772
64 782
64 792
69 672
69 682
69 692
69 801
69 811
69 821
74 647
74 657
74 830
74 840
77 850
79 632
79 860
84 612
84 622
84 869
84 879
89 602
89 888
94 587
94 897
94 907
99 577
99 916
104 567
104 925
109 557
109 934
114 547
114 943
119 537
119 952
124 527
124 961
129 970
132 519
134 979
137 509
140 987
145 501
147 995
150 491
152 1004
158 484
159 1012
165 476
167 1019
170 466
171 1029
178 459
179 1035
185 451
185 1043
193 444
193 1050
200 436
200 1058
208 429
208 1065
217 424
217 1070
225 416
225 1077
232 1085
233 409
241 1090
242 404
249 1096
250 396
259 1100
260 391
265 1108
268 384
275 1112
277 379
284 1117
287 374
292 1124
296 369
301 1129
305 364
311 1133
314 359
321 1135
324 357
330 1140
334 352
339 1145
344 349
349 1145
353 344
358 1150
362 339
367 1155
372 339
377 1155
382 334
386 1160
392 334
396 1163
401 329
406 1165
411 329
416 1165
421 325
425 1170
431 324
435 1170
441 324
445 1170
451 324
455 1172
460 319
465 1175
470 319
475 1175
480 319
485 1175
490 319
495 1175
500 319
505 1175
510 319
515 1175
520 319
525 1175
530 319
535 1175
539 232
539 242
539 252
540 319
544 261
544 271
545 1175
547 224
549 280
549 290
549 300
549 310
554 232
555 1175
560 240
565 249
565 259
565 1175
570 268
570 278
574 1180
576 260
579 247
580 320
584 237
584 1180
589 227
590 320
594 1180
597 219
600 320
604 207
604 1180
609 315
612 199
614 324
614 1180
617 189
619 315
624 324
624 1180
625 181
629 315
633 174
634 324
634 1180
639 315
642 169
644 324
644 1180
648 310
650 161
654 324
654 1180
658 154
658 310
664 326
664 1177
667 149
668 310
674 329
674 1175
676 144
678 310
684 329
684 1175
685 139
687 305
694 132
694 331
694 1172
697 305
704 127
704 334
704 1170
706 300
714 124
714 334
714 1170
716 300
723 119
723 339
723 1165
725 295
732 114
733 288
733 340
733 1163
742 114
743 283
743 344
743 1160
751 109
752 349
752 1155
753 278
760 270
761 109
762 349
762 1154
770 265
771 109
771 354
772 1149
780 255
780 359
781 109
782 1145
790 255
790 362
791 109
791 1140
798 248
799 367
800 1135
801 109
805 240
809 371
810 230
810 1130
811 109
818 223
818 376
820 114
820 210
820 1125
825 195
825 384
829 1120
830 114
830 175
830 185
835 123
835 133
835 143
835 153
835 163
835 387
838 1115
844 392
847 1109
852 399
855 1100
861 404
865 1095
869 411
873 1088
875 419
883 1083
885 422
890 1075
892 430
898 1068
900 437
905 1060
907 445
913 1053
915 452
920 1045
922 460
928 1038
930 467
935 476
935 1025
941 484
943 1018
949 491
950 1010
955 499
955 1000
960 508
963 993
965 517
968 983
970 526
973 973
976 534
980 544
980 960
985 553
985 950
990 562
990 940
995 571
995 930
1000 580
1000 920
1005 589
1005 599
1005 905
1010 608
1010 890
1015 617
1015 627
1015 875
1020 636
1020 646
1020 855
1020 865
1025 655
1025 665
1025 835
1025 845
1030 674
1030 684
1030 694
1030 704
1030 800
1030 810
1030 820
1035 713
1035 723
1035 733
1035 743
1035 753
1035 763
1035 773
1035 783
