924 532
924 542
924 552
924 562
924 572
924 582
924 592
929 507
929 517
929 601
929 611
929 621
929 631
934 477
934 487
934 497
934 640
934 650
934 660
939 462
939 669
939 679
944 377
944 387
944 397
944 407
944 417
944 427
944 437
944 447
944 688
944 698
945 708
949 222
949 232
949 242
949 252
949 262
949 272
949 282
949 292
949 302
949 312
949 322
949 332
949 342
949 352
949 362
949 718
949 728
949 738
949 748
949 758
949 768
949 778
949 788
949 798
949 808
949 818
949 828
949 838
949 848
949 858
949 868
949 878
949 888
949 898
949 908
949 918
950 928
955 937
957 214
959 947
959 957
964 966
964 976
966 209
969 985
974 994
975 204
976 1004
979 1014
984 1023
985 201
989 1032
995 199
997 1039
1005 199
1007 1040
1015 197
1017 1039
1022 205
1027 214
1027 1035
1030 224
1030 234
1035 243
1035 253
1035 263
1035 273
1035 283
1035 293
1037 1035
1040 302
1044 312
1045 322
1047 1034
1050 331
1055 340
1057 1030
1060 349
1065 358
1065 368
1067 1030
1070 377
1075 386
1077 1029
1080 395
1082 405
1085 415
1087 1025
1090 424
1090 434
1095 443
1097 1025
1100 452
1105 461
1107 1025
1108 471
1113 480
1116 1020
1117 490
1120 500
1125 509
1125 519
1126 1020
1130 528
1135 537
1136 1020
1139 547
1140 557
1140 567
1140 577
1140 587
1140 597
1140 607
1140 617
1140 627
1140 637
1140 647
1140 657
1144 667
1145 677
1145 687
1145 697
1145 1015
1149 707
1150 717
1150 727
1155 736
1155 746
1155 756
1155 1015
1158 766
1160 776
1160 786
1163 796
1164 1010
1165 806
1165 816
1165 826
1165 836
1168 846
1170 856
1170 866
1174 1007
1175 875
1175 885
1177 895
1180 905
1182 999
1185 914
1185 924
1185 934
1185 944
1185 954
1185 964
1185 974
1185 984
