549 952
549 962
549 972
549 982
549 992
549 1002
549 1012
549 1022
549 1032
549 1042
554 932
554 942
557 1049
559 897
559 907
559 917
564 847
564 857
564 867
564 877
564 887
565 1055
569 772
569 782
569 792
569 802
569 812
569 822
569 832
574 732
574 742
574 752
574 762
575 1055
579 717
584 692
584 702
585 1055
589 672
589 682
594 647
594 657
594 1060
602 639
604 1060
610 631
613 1065
620 626
623 1065
628 619
632 1070
635 611
640 601
642 1070
648 594
652 1070
655 586
662 1070
663 579
664 557
664 567
669 537
669 547
672 1070
674 517
674 527
679 482
679 492
679 502
682 1070
684 427
684 437
684 447
684 457
684 467
689 397
689 407
689 417
692 1070
694 372
694 382
699 362
702 1070
707 354
711 1065
716 349
721 1065
726 349
731 1065
736 345
741 1065
746 344
749 1057
755 995
755 1005
755 1015
755 1025
755 1035
755 1045
756 344
760 525
760 535
760 545
760 555
760 565
760 575
760 585
760 595
760 605
760 615
760 895
760 905
760 915
760 925
760 935
760 945
760 955
760 965
760 975
760 985
764 351
765 490
765 500
765 510
765 624
765 634
765 644
765 860
765 870
765 880
770 359
770 369
770 379
770 389
770 399
770 409
770 419
770 429
770 439
770 449
770 459
770 469
770 479
770 653
770 663
770 673
770 805
770 815
770 825
770 835
770 845
775 682
775 692
775 702
775 712
775 722
775 732
775 742
775 752
775 762
775 772
775 782
775 792
