189 632
189 642
189 652
197 624
197 659
202 614
204 602
204 667
209 562
209 572
209 582
209 592
214 552
214 670
219 542
224 670
227 534
234 670
237 529
244 670
245 521
249 1602
253 514
254 670
254 1562
254 1572
254 1582
254 1592
254 1611
260 678
261 1619
262 509
262 1554
268 685
269 1625
270 501
272 1554
277 690
279 1625
280 496
280 1546
287 690
288 489
288 1539
288 1620
295 481
296 685
297 1534
298 1620
303 474
305 680
307 1529
308 1620
310 466
313 673
316 1524
318 459
318 1620
319 417
319 427
320 665
324 436
324 446
326 1524
327 409
328 1620
330 665
332 399
335 1519
337 389
338 658
338 1620
344 1514
345 381
348 653
348 1620
349 352
349 362
353 1509
354 777
354 787
354 797
354 817
354 827
354 837
354 867
354 877
354 887
355 645
357 344
358 1618
359 806
359 846
359 856
359 896
362 769
362 1504
364 737
364 747
364 757
364 905
365 336
365 647
367 915
368 1615
369 657
369 667
369 677
369 727
372 1499
373 329
374 686
374 696
374 923
377 719
378 1615
379 705
379 932
380 321
380 1491
384 941
388 1484
388 1615
389 950
390 319
392 1474
394 959
398 1615
399 314
399 968
399 1462
404 977
407 1454
408 1613
409 312
412 984
412 1444
414 1427
418 1610
419 309
421 989
422 1419
424 1397
424 1407
425 1595
429 309
429 995
429 1382
430 1580
434 1004
434 1372
435 1570
439 309
439 1352
439 1362
440 1012
443 1563
444 1152
444 1342
445 1540
445 1550
449 309
449 1161
449 1332
450 1015
452 1144
453 1533
454 1170
454 1302
454 1312
454 1322
455 1480
455 1490
455 1500
455 1510
459 309
459 1127
459 1262
459 1272
459 1282
459 1292
460 1017
460 1178
460 1519
463 1473
464 1027
464 1037
464 1232
464 1242
464 1252
467 1119
468 1185
469 307
469 1046
469 1056
469 1107
469 1195
469 1222
470 1460
474 1065
474 1075
474 1204
475 1450
477 1099
479 304
479 1084
480 1435
485 1425
489 304
490 1415
495 1400
499 306
500 1380
500 1390
505 1370
508 311
510 1355
515 319
515 1345
520 1335
524 324
525 1315
525 1325
530 1300
534 324
535 635
535 655
535 665
535 675
535 1285
537 645
540 684
540 1265
540 1275
544 322
544 630
545 1255
548 690
552 624
553 1248
554 321
555 698
560 610
560 1235
563 326
565 595
565 696
568 1228
570 334
573 588
573 689
575 343
575 1220
580 352
580 580
582 684
584 1215
588 573
589 672
590 354
592 1209
594 662
595 565
598 360
599 652
600 370
600 555
600 1190
600 1200
602 380
604 642
605 520
605 530
605 540
608 1183
610 387
610 397
610 407
610 510
612 634
615 490
615 500
615 1175
617 415
620 465
620 475
622 629
623 1168
624 617
625 422
625 432
625 442
625 452
625 1150
629 607
630 1135
635 1125
637 599
643 1118
647 599
650 1110
654 577
654 587
659 377
660 1105
662 569
664 322
664 332
664 342
664 352
664 362
664 386
664 396
664 406
669 312
669 415
669 1100
670 561
672 425
674 297
678 554
678 1105
679 287
681 430
682 1115
687 279
687 549
687 1124
691 433
691 1134
694 267
694 443
694 537
694 1144
699 257
699 452
699 1153
702 529
704 1162
707 249
707 459
709 1171
712 524
714 467
714 1597
715 241
719 1175
719 1557
719 1567
719 1577
719 1587
719 1606
722 519
724 470
724 1184
724 1547
724 1615
725 239
727 509
730 478
730 1192
732 1539
733 1620
734 232
735 501
737 1200
738 485
740 1628
742 224
742 1539
747 1204
748 1635
752 219
752 1539
755 1210
757 1640
762 214
762 1539
764 1215
765 1647
769 1224
769 1234
769 1244
769 1254
769 1264
770 1531
772 209
774 1273
774 1652
778 1524
779 1282
779 1292
779 1302
782 209
784 1311
784 1321
784 1655
785 1516
789 1330
789 1340
789 1350
791 204
793 1509
794 1359
794 1369
794 1379
794 1655
799 1388
799 1398
800 199
800 1501
804 1407
804 1417
804 1427
804 1487
804 1655
809 1436
809 1446
809 1472
810 199
814 1455
814 1655
820 196
824 1655
825 1045
825 1055
825 1065
825 1145
825 1155
825 1165
825 1205
825 1215
827 1225
830 197
830 1074
830 1084
830 1094
830 1104
830 1120
830 1130
830 1174
830 1184
830 1194
830 1235
832 1245
834 1655
835 1040
835 1255
837 1265
839 202
840 1275
842 1285
844 1655
845 1040
845 1295
847 1305
849 204
850 1315
854 1655
855 1040
855 1324
855 1334
855 1344
859 204
860 1353
860 1363
860 1373
863 1650
865 1040
865 1382
865 1392
869 204
870 1401
870 1411
873 1650
875 1040
875 1420
877 1430
879 204
880 1440
883 1650
885 1040
885 1449
885 1459
889 204
890 1468
890 1478
890 1488
893 1648
894 1045
894 1055
895 1497
895 1507
897 1065
899 206
899 1075
899 1517
900 1527
902 1085
903 1645
904 1095
905 1536
907 1105
909 209
910 1545
912 1114
912 1640
914 1124
915 1554
915 1564
918 214
919 1133
919 1447
920 1573
920 1583
921 1635
924 1142
924 1437
924 1456
925 1592
927 219
929 1422
929 1465
929 1602
929 1627
930 1612
932 1149
934 1407
935 1473
936 224
936 1159
939 1392
944 1165
944 1372
944 1382
945 1475
946 224
949 1174
949 1357
954 1232
954 1242
954 1342
955 1182
955 1475
956 220
959 1212
959 1222
959 1251
959 1327
962 1190
963 1468
964 214
964 1200
964 1312
966 1259
969 1302
970 1445
970 1455
973 209
974 1287
975 1435
976 1263
979 1273
980 1425
982 204
985 1415
990 1405
992 204
998 1398
1002 199
1003 1388
1008 1378
1012 199
1013 1368
1018 1358
1022 199
1025 1345
1030 1335
1032 199
1035 1325
1040 1310
1042 199
1045 1300
1050 1285
1052 199
1058 1278
1061 204
1065 1265
1071 204
1073 1258
1080 1250
1081 204
1088 1243
1091 204
1095 1235
1100 1225
1101 204
1105 1215
1110 209
1110 1060
1110 1070
1110 1080
1110 1090
1110 1100
1110 1110
1110 1120
1110 1130
1110 1140
1112 1150
1113 1208
1115 1050
1115 1160
1115 1170
1120 212
1120 1179
1120 1189
1120 1199
1123 1043
1130 214
1130 1035
1138 1028
1139 219
1148 224
1148 1030
1152 1040
1154 1050
1158 225
1160 1058
1167 230
1168 1065
1172 1075
1177 234
1180 460
1180 470
1180 1082
1185 450
1185 479
1186 239
1187 1090
1193 443
1194 246
1194 484
1195 1097
1200 254
1202 1105
1203 440
1204 486
1208 260
1211 1110
1212 270
1212 434
1213 491
1215 280
1217 424
1219 1116
1220 289
1223 495
1225 298
1225 410
1229 1120
1230 307
1230 317
1230 400
1233 499
1235 326
1235 1128
1238 336
1238 393
1242 504
1245 344
1245 354
1245 385
1245 1132
1249 512
1250 363
1250 373
1252 1140
1254 1150
1254 1160
1257 519
1259 1169
1259 1542
1259 1552
1261 1179
1264 1532
1264 1561
1266 524
1266 1188
1269 1522
1271 1569
1274 1195
1274 1512
1275 529
1279 1575
1282 1504
1283 1200
1285 532
1287 1494
1288 1580
1292 540
1292 1205
1295 1486
1298 1580
1300 547
1300 1212
1305 1481
1307 555
1307 1220
1307 1585
1312 1229
1313 1474
1315 562
1316 1239
1317 1585
1319 1249
1320 910
1320 920
1320 930
1320 940
1320 1466
1321 1259
1322 570
1322 950
1324 1269
1324 1279
1325 895
1327 959
1327 1585
1328 1459
1329 1288
1330 880
1330 1298
1332 574
1334 967
1334 1308
1334 1318
1334 1447
1335 870
1337 1585
1339 1327
1339 1337
1339 1437
1340 860
1341 579
1342 974
1344 1346
1344 1356
1344 1366
1344 1376
1344 1422
1347 1584
1349 586
1349 1385
1349 1395
1349 1405
1350 862
1351 979
1355 594
1357 870
1357 1580
1359 986
1362 879
1363 600
1365 994
1366 889
1366 1575
1367 610
1371 898
1372 619
1373 1000
1375 1570
1379 627
1379 905
1380 637
1380 647
1380 1008
1382 915
1385 656
1385 1570
1388 666
1388 1015
1390 676
1390 686
1390 745
1390 775
1390 785
1390 795
1390 805
1390 922
1392 755
1392 815
1392 1025
1394 1565
1395 695
1395 705
1395 715
1395 725
1395 735
1395 765
1395 825
1397 835
1397 930
1400 845
1400 1032
1404 1565
1405 854
1405 937
1407 1040
1410 1160
1410 1170
1410 1200
1410 1210
1412 1180
1413 860
1413 1560
1414 942
1415 1047
1415 1190
1415 1219
1415 1229
1418 1153
1419 1057
1420 868
1420 1238
1420 1248
1420 1258
1420 1268
1422 1555
1424 945
1425 1065
1425 1145
1425 1277
1425 1287
1425 1297
1425 1307
1425 1317
1425 1327
1425 1337
1425 1347
1425 1357
1430 869
1430 1074
1430 1084
1430 1115
1430 1125
1430 1135
1430 1366
1430 1376
1431 1550
1433 950
1433 1386
1435 1093
1435 1103
1438 1395
1439 862
1440 1405
1440 1545
1443 950
1444 852
1445 1414
1450 1423
1450 1540
1452 844
1452 955
1458 1430
1460 836
1460 1440
1460 1540
1462 959
1465 1449
1465 1459
1468 829
1470 965
1470 1540
1473 1465
1475 1475
1477 824
1477 1485
1478 1533
1479 970
1480 1495
1480 1505
1480 1515
1487 819
1489 970
1497 819
1498 975
1507 819
1508 975
1516 824
1518 975
1526 824
1527 970
1536 824
1536 965
1545 829
1545 960
1554 834
1554 955
1562 840
1562 949
1570 847
1570 930
1570 940
1574 857
1578 923
1582 864
1585 874
1585 884
1585 915
1590 893
1590 903
