154 1182
154 1192
154 1202
159 1167
159 1211
167 1159
169 1132
169 1142
169 1215
174 1112
174 1122
175 1223
179 1097
183 1230
184 1072
184 1082
184 1240
189 1062
189 1249
194 962
194 972
194 982
194 992
194 1002
194 1012
194 1022
194 1032
194 1042
194 1052
195 1257
199 917
199 927
199 937
199 947
202 1265
207 909
207 1274
211 1284
217 909
219 1290
224 1299
226 904
229 1308
230 1318
235 899
235 1155
235 1165
235 1175
235 1185
235 1195
235 1205
235 1327
239 1337
239 1347
240 1140
240 1214
240 1224
244 894
244 1356
244 1366
245 1110
245 1120
245 1130
245 1233
250 1090
250 1100
250 1242
251 1374
253 889
255 1065
255 1075
255 1251
260 881
260 1055
261 1259
261 1378
265 871
265 1040
269 1266
270 1030
271 1380
273 864
273 1276
274 847
279 777
279 787
279 797
279 807
279 817
279 827
279 837
279 1025
281 1380
283 1280
284 752
284 762
288 1020
289 702
289 712
289 722
289 732
289 742
291 1380
293 1284
294 687
298 1020
299 677
301 1380
303 1285
304 662
308 1020
309 652
311 1380
313 1289
314 642
318 1018
319 627
321 1380
322 1284
324 612
324 1042
328 1013
329 602
329 1027
329 1051
331 1380
332 1284
334 587
334 1060
339 572
340 1068
341 1380
342 1284
344 547
344 557
345 1077
349 532
349 1087
351 1289
351 1380
354 522
354 1096
354 1106
359 1115
361 1289
361 1380
362 514
364 502
365 1123
369 492
369 1296
371 1380
373 1130
374 482
375 1304
377 1140
379 467
381 1380
382 1149
383 1310
384 452
389 437
389 1157
389 1372
390 1318
390 1328
390 1360
394 422
394 1166
395 1337
395 1347
399 412
399 1175
404 397
404 1184
406 1194
409 387
414 372
414 1200
417 1210
419 362
422 1219
424 347
424 1229
429 337
429 1238
434 1247
437 329
439 1256
444 1265
445 321
449 1274
451 1284
453 314
455 1085
455 1095
455 1105
456 1293
457 1115
459 1303
459 1313
459 1323
459 1333
459 1343
459 1353
460 1125
460 1135
460 1363
462 309
463 1078
465 1144
465 1154
465 1372
470 301
470 1070
470 1163
470 1173
470 1183
472 1380
475 1060
475 1192
479 1202
480 299
480 1040
480 1050
480 1212
480 1222
481 1385
485 1025
485 1231
488 1241
489 294
490 1015
491 1385
493 1250
498 289
498 1008
500 1258
501 1385
505 1000
505 1267
508 289
509 1277
510 990
511 1385
515 980
517 284
517 1284
520 970
521 1385
527 284
527 1284
528 963
531 1385
535 955
537 284
537 1284
541 1385
543 948
547 284
547 1284
551 1385
553 950
556 289
557 1284
561 1385
563 950
565 294
567 1279
571 1385
572 955
575 297
577 1279
581 960
581 1385
585 299
587 1279
591 963
591 1385
594 304
597 1279
601 965
601 1385
604 306
607 1279
610 314
611 968
611 1385
615 323
617 1279
620 332
621 970
621 1388
624 342
626 1284
630 350
631 973
631 1390
635 359
636 1284
640 368
641 975
641 1390
645 377
646 1284
649 387
651 978
651 1390
654 396
654 1291
660 404
660 414
660 1299
661 980
661 1390
668 420
668 1305
671 983
671 1390
675 428
675 1313
679 1382
680 1322
680 1332
680 1342
680 1352
680 1362
680 1372
681 985
685 429
691 985
695 429
701 985
705 426
711 985
715 421
721 985
725 416
731 985
733 409
737 399
739 372
739 382
741 985
744 337
744 347
744 357
749 322
751 985
754 312
759 297
761 985
767 289
771 985
775 281
781 985
783 274
790 266
791 985
798 259
801 985
807 254
811 985
817 249
821 985
827 249
831 985
837 249
839 1372
839 1382
839 1392
839 1402
839 1412
841 985
844 1352
844 1362
844 1421
846 244
849 1342
851 985
851 1429
854 1332
855 249
859 1317
859 1435
860 980
864 1297
864 1307
865 249
868 1440
869 1257
869 1267
869 1277
869 1287
870 982
874 1187
874 1197
874 1227
874 1237
874 1247
875 249
878 1440
879 1162
879 1172
879 1206
879 1216
880 985
884 1112
884 1122
884 1132
884 1142
884 1152
885 249
887 1445
889 980
889 1097
894 1087
895 249
897 1445
899 980
899 1067
899 1077
904 254
904 1042
904 1052
907 1445
908 985
909 1012
909 1022
909 1032
914 254
914 993
914 1003
917 1445
924 256
927 1445
930 264
930 1320
930 1330
932 1340
935 1300
935 1310
937 1445
938 270
940 1280
940 1290
942 1344
945 278
945 1260
945 1270
947 1445
950 1240
950 1250
952 1344
953 285
955 295
955 1225
957 1445
960 304
960 314
960 1210
962 1344
965 1190
965 1200
967 1445
968 320
970 330
970 340
970 1165
970 1175
971 1349
972 350
975 360
975 370
975 395
975 405
975 1140
975 1150
976 1440
977 380
977 415
979 1342
980 425
980 435
980 445
980 455
980 465
980 475
980 485
980 1125
982 495
985 505
985 1110
986 1440
989 1341
990 514
990 524
990 534
990 1090
990 1100
995 543
995 1075
996 1440
999 1344
1000 552
1000 562
1000 1055
1000 1065
1005 571
1005 1040
1006 1440
1009 1346
1010 580
1010 1025
1015 589
1015 1015
1016 1440
1019 1349
1024 1432
1025 592
1025 1017
1027 1355
1029 1027
1032 1424
1034 597
1034 1036
1035 1362
1035 1400
1035 1410
1039 1045
1040 1385
1042 1370
1044 599
1045 1053
1053 1060
1054 601
1060 609
1062 1065
1070 609
1071 1070
1079 1076
1080 609
1086 1084
1090 609
1096 1085
1100 609
1104 1091
1110 609
1111 1099
1116 1108
1119 1118
1119 1128
1119 1138
1120 606
1124 1147
1124 1157
1124 1167
1124 1177
1124 1187
1124 1197
1128 599
1129 1206
1129 1216
1129 1226
1129 1236
1134 1245
1137 1255
1138 599
1144 1263
1144 1273
1145 1283
1147 594
1149 1293
1149 1303
1154 1312
1154 1322
1154 1332
1154 1342
1154 1352
1156 589
1159 1361
1159 1371
1159 1381
1164 582
1164 1390
1164 1400
1164 1410
1170 1418
1172 574
1178 1425
1180 566
1180 1055
1180 1065
1180 1075
1180 1085
1180 1095
1184 292
1184 302
1184 312
1185 1045
1185 1104
1185 1114
1185 1124
1187 1430
1188 559
1189 321
1190 1010
1190 1020
1190 1030
1190 1133
1190 1143
1192 284
1195 551
1195 995
1195 1152
1195 1162
1196 329
1197 1430
1199 1172
1200 980
1200 1182
1200 1192
1200 1202
1200 1212
1200 1222
1200 1232
1201 279
1203 544
1204 1242
1205 965
1205 1252
1206 333
1206 1425
1209 1262
1210 536
1210 1272
1211 275
1214 1282
1215 338
1215 526
1215 965
1215 1292
1215 1302
1216 1428
1220 516
1220 1311
1220 1321
1221 270
1223 345
1224 502
1225 960
1225 1330
1226 1430
1229 262
1229 487
1230 353
1230 1339
1233 953
1234 462
1234 472
1235 1435
1237 254
1238 360
1239 370
1239 442
1239 452
1240 945
1240 1339
1244 379
1244 389
1244 399
1244 409
1244 419
1244 429
1245 1435
1247 249
1249 237
1250 940
1250 1339
1254 212
1254 222
1255 1435
1260 935
1260 1339
1262 204
1265 1435
1270 930
1270 1339
1272 199
1275 920
1275 1435
1280 1339
1282 194
1283 913
1285 1435
1288 903
1289 182
1290 1339
1295 890
1295 1435
1297 174
1300 1342
1303 883
1305 1437
1306 169
1308 873
1309 1347
1315 164
1315 865
1315 1440
1317 1354
1323 858
1325 161
1325 1435
1326 1359
1330 845
1330 1425
1334 1366
1335 159
1335 835
1338 1418
1340 820
1340 1374
1345 159
1345 810
1345 1383
1345 1393
1345 1403
1350 795
1355 162
1355 780
1360 770
1365 164
1365 760
1370 725
1370 735
1370 745
1374 169
1378 718
1383 708
1384 171
1388 698
1390 655
1390 665
1390 675
1390 685
1394 174
1395 640
1400 590
1400 600
1400 610
1400 620
1400 630
1402 180
1405 570
1405 580
1410 187
1410 475
1410 485
1410 495
1410 555
1412 505
1415 515
1415 525
1415 535
1415 545
1418 468
1419 192
1425 455
1427 199
1434 207
1434 450
1435 217
1440 226
1442 444
1443 236
1450 244
1450 435
1460 241
1460 435
1470 239
1470 435
1479 234
1480 435
1489 232
1490 430
1499 229
1500 425
1505 415
1508 224
1510 405
1517 229
1518 398
1527 229
1528 393
1537 229
1538 390
1544 237
1548 388
1550 245
1555 254
1558 385
1564 259
1567 380
1573 264
1576 375
1582 269
1584 367
1585 355
1589 277
1593 348
1595 285
1598 338
1600 294
1600 304
1603 328
1605 313
