389 342
389 352
394 361
397 334
401 369
405 326
409 375
409 385
409 395
409 405
409 415
409 425
412 435
414 445
415 321
420 453
425 316
428 460
435 311
437 465
445 306
446 470
453 299
454 1172
454 1182
455 475
457 289
459 1191
462 1164
465 281
465 475
466 1199
467 1154
472 1144
473 274
475 475
476 1203
477 264
477 1134
479 802
479 812
479 822
479 832
484 787
484 841
484 851
484 861
484 871
485 256
485 475
485 1126
486 1205
489 777
489 880
493 249
493 1119
494 480
494 737
494 747
494 757
494 767
495 1200
497 1109
498 885
499 677
499 687
499 697
499 707
499 717
499 727
500 241
504 480
504 637
504 647
504 657
504 667
505 1101
505 1202
507 890
508 234
509 592
509 602
509 612
509 622
509 900
509 910
509 920
509 930
512 1210
513 475
513 1094
514 562
514 572
514 582
515 938
517 229
519 522
519 532
519 542
519 552
520 1086
520 1217
523 475
523 945
524 502
524 512
524 1072
524 1227
525 221
529 192
529 202
529 483
529 493
529 1062
529 1236
532 950
534 182
534 1052
534 1245
539 1042
540 1253
542 174
542 950
544 162
544 1032
545 1262
549 137
549 147
549 958
552 1024
552 1270
554 127
554 967
554 977
555 1160
555 1170
559 986
559 1007
560 1150
560 1179
560 1277
562 119
564 995
567 1285
568 1143
568 1185
570 111
575 1135
575 1193
575 1292
579 1302
580 106
583 1200
584 1130
587 1309
590 104
590 1208
594 1130
594 1317
595 1217
600 104
602 1225
602 1324
604 1130
610 104
610 1232
610 1330
614 1130
617 1240
619 1335
620 104
624 1130
625 1247
625 1343
630 107
632 1124
632 1255
635 1347
639 112
639 1567
639 1577
640 1262
642 1120
642 1355
644 1586
647 119
647 1559
648 1269
651 1115
651 1594
652 1359
654 127
655 1551
657 1264
659 136
661 1115
661 1598
662 1360
663 146
663 1544
665 450
665 460
665 470
665 480
665 490
665 500
665 510
667 1259
669 1605
670 430
670 440
670 519
670 529
670 539
670 549
670 559
670 1110
671 1365
672 1539
673 149
675 420
675 568
677 1254
678 1610
680 577
680 1105
680 1531
681 1365
682 144
683 413
684 587
685 597
687 1254
688 1610
690 405
690 606
690 1100
690 1360
690 1526
692 139
696 614
697 1254
697 1615
698 398
698 1093
698 1519
700 1360
702 139
704 621
705 1085
706 1249
707 1514
707 1615
708 393
710 629
710 1355
712 139
713 1078
714 1242
717 1509
717 1615
718 388
720 632
720 1070
720 1355
721 144
724 1239
725 370
725 380
727 1504
727 1615
728 1063
729 1350
730 149
730 360
730 634
734 1239
735 350
736 1499
737 1615
738 155
738 1060
739 629
739 1350
742 1245
743 343
745 163
745 220
745 230
746 1495
747 240
747 1344
747 1614
748 624
748 1060
750 172
750 182
750 192
750 210
750 310
750 320
750 330
750 1252
754 1068
754 1078
754 1088
755 201
755 247
755 257
755 295
755 1261
755 1271
755 1335
756 1494
757 619
757 1610
758 1281
759 1097
759 1107
760 266
760 276
760 286
760 1291
760 1301
760 1311
760 1321
764 1116
764 1472
764 1482
765 611
767 1609
769 1125
769 1442
769 1452
769 1462
773 604
774 592
774 1134
774 1407
774 1417
774 1427
777 1605
779 582
779 1143
779 1362
779 1372
779 1382
779 1392
784 572
784 1152
784 1182
784 1192
784 1202
784 1212
784 1312
784 1322
784 1332
784 1342
784 1352
786 1600
789 542
789 552
789 562
789 1161
789 1171
789 1221
789 1262
789 1272
789 1282
789 1292
789 1302
794 502
794 512
794 522
794 532
794 1230
794 1240
794 1250
795 1595
799 482
799 492
804 442
804 452
804 462
804 472
805 1590
809 427
810 1490
810 1500
810 1510
810 1520
812 1530
814 417
815 1455
815 1465
815 1475
815 1585
817 1539
819 402
820 1415
820 1425
820 1435
820 1445
820 1549
820 1559
820 1569
824 392
825 1400
829 382
830 1380
830 1390
835 1360
835 1370
837 374
840 1335
840 1345
842 364
845 1285
845 1295
845 1305
845 1315
845 1325
850 356
850 1240
850 1250
850 1260
850 1270
855 1220
855 1230
858 349
860 1190
860 1200
860 1210
865 341
865 1175
873 334
873 1168
880 1160
882 329
888 1153
892 329
895 1140
902 329
903 1133
910 1120
911 324
915 1105
920 1090
921 324
928 1083
931 324
938 1080
941 324
948 1080
951 324
954 1377
954 1387
958 1080
959 1367
961 324
962 1394
964 1342
964 1352
968 1080
969 1322
969 1332
970 1400
971 324
974 1307
978 1080
979 1297
979 1405
980 329
984 1282
985 1088
985 1413
988 335
989 1272
990 1097
993 1420
994 1262
994 1552
994 1562
994 1572
997 340
997 1105
999 1247
1000 1428
1002 1114
1002 1544
1002 1579
1004 1124
1005 347
1006 1134
1007 1239
1008 1435
1009 1587
1011 1143
1011 1539
1012 355
1012 1229
1014 1443
1014 1453
1014 1463
1014 1473
1014 1483
1015 1153
1017 1219
1017 1594
1019 1492
1020 362
1020 1534
1022 1209
1023 1160
1025 371
1026 1599
1027 1199
1027 1499
1030 1168
1030 1534
1031 379
1032 1189
1034 1178
1035 389
1035 399
1036 1600
1037 1500
1040 408
1040 1534
1045 417
1045 427
1045 437
1045 447
1045 465
1045 475
1045 485
1045 495
1045 505
1045 515
1045 525
1045 535
1045 1345
1046 1600
1047 1355
1047 1499
1049 1529
1050 456
1050 544
1050 1325
1050 1335
1055 553
1055 563
1055 1305
1055 1315
1055 1362
1055 1490
1056 1600
1058 1524
1060 1290
1063 569
1063 1483
1064 1367
1065 1275
1065 1516
1066 1600
1070 1260
1070 1475
1072 564
1074 1369
1075 1250
1075 1511
1075 1595
1079 542
1079 552
1080 1235
1080 1470
1083 1504
1084 452
1084 462
1084 472
1084 482
1084 492
1084 502
1084 512
1084 522
1084 532
1084 1371
1085 1595
1088 1228
1088 1463
1089 427
1089 437
1090 1379
1092 1499
1093 1218
1094 412
1095 1455
1095 1595
1098 1208
1098 1385
1099 402
1102 1395
1102 1494
1103 1198
1103 1448
1104 387
1105 1590
1108 1188
1109 377
1109 1477
1110 1402
1110 1412
1110 1422
1110 1432
1113 1178
1114 357
1114 367
1115 1590
1117 1469
1119 1457
1120 1170
1122 349
1124 1447
1125 1585
1128 1163
1129 1422
1129 1432
1132 344
1134 1407
1135 1585
1138 1160
1139 1397
1142 344
1144 1377
1144 1387
1145 1585
1147 1165
1149 1175
1149 1367
1152 344
1154 1184
1154 1342
1154 1352
1154 1580
1159 1193
1159 1203
1159 1322
1159 1332
1161 339
1164 1212
1164 1222
1164 1302
1164 1312
1164 1577
1169 1231
1169 1247
1169 1277
1169 1287
1170 1555
1170 1565
1171 339
1174 1256
1174 1266
1175 1520
1175 1530
1175 1540
1181 339
1183 1513
1190 334
1190 1505
1195 1420
1195 1430
1197 1440
1198 1498
1200 337
1200 1410
1200 1450
1200 1460
1200 1470
1200 1480
1205 1400
1210 339
1210 1390
1215 1375
1220 339
1220 1360
1225 1345
1229 344
1230 1335
1235 1325
1239 346
1240 1315
1248 1308
1249 349
1253 1298
1257 355
1260 1290
1265 362
1268 1283
1270 371
1270 1270
1275 380
1275 1260
1280 389
1283 1253
1285 398
1285 408
1285 1105
1285 1115
1285 1125
1287 1135
1290 575
1290 585
1290 595
1290 1145
1290 1240
1293 415
1294 1100
1295 425
1295 435
1295 445
1295 465
1295 475
1295 485
1295 495
1295 505
1295 515
1295 525
1295 535
1295 545
1295 555
1295 565
1295 604
1295 1154
1295 1164
1295 1230
1297 455
1300 613
1300 1005
1300 1015
1300 1025
1300 1035
1300 1045
1300 1055
1300 1065
1300 1075
1300 1173
1300 1215
1302 1094
1305 980
1305 990
1305 1084
1305 1182
1305 1192
1305 1202
1308 620
1310 645
1310 960
1310 970
1312 655
1315 628
1315 950
1317 664
1320 674
1320 930
1320 940
1325 683
1325 915
1330 692
1334 702
1334 910
1335 712
1339 722
1339 1107
1339 1117
1340 732
1343 915
1344 742
1344 1057
1344 1067
1344 1077
1344 1087
1344 1097
1344 1126
1344 1136
1344 1146
1345 752
1349 762
1349 923
1349 933
1349 943
1349 953
1349 963
1349 973
1349 983
1349 993
1349 1003
1349 1013
1349 1023
1349 1033
1349 1043
1349 1155
1349 1165
1349 1175
1350 772
1350 782
1354 1184
1355 791
1355 801
1355 811
1360 820
1360 1192
1362 830
1365 840
1365 850
1367 1200
1370 859
1375 868
1376 1205
1380 877
1380 887
1385 896
1385 906
1386 1208
1390 915
1390 925
1392 935
1395 945
1395 955
1395 965
1395 980
1395 990
1396 1210
1397 1000
1400 1010
1400 1020
1402 1030
1406 1213
1407 1039
1410 1049
1416 1215
1418 1055
1422 1065
1426 1215
1430 1072
1436 1218
1438 1079
1446 1220
1448 1080
1456 1220
1457 1085
1465 1092
1465 1215
1472 1100
1475 1210
1480 1107
1484 1117
1485 1127
1485 1210
1489 1137
1490 1147
1490 1157
1490 1167
1490 1177
1495 1186
1495 1205
1500 1195
