449 702
449 712
449 722
449 732
449 742
454 692
454 751
454 822
454 832
454 842
459 760
459 770
459 780
459 790
459 800
459 810
459 851
462 684
464 860
464 870
470 878
471 679
478 885
480 674
487 890
489 669
495 897
499 667
502 905
509 662
510 912
517 920
519 659
525 927
528 654
534 932
537 649
544 935
547 644
554 935
557 639
564 935
567 634
574 935
577 629
584 935
587 629
594 935
596 624
604 935
605 619
613 930
614 614
620 920
624 614
629 915
630 905
634 614
639 900
644 614
649 900
654 614
658 905
664 614
668 905
674 614
678 905
684 614
688 905
694 614
698 905
699 602
707 594
708 905
716 589
718 905
725 594
728 905
735 594
738 905
744 587
748 905
752 579
758 905
760 571
768 905
770 566
778 905
780 561
788 905
790 559
798 905
800 559
808 905
810 559
818 905
820 559
828 905
829 564
835 572
838 905
840 581
846 589
848 905
854 577
857 900
859 517
859 527
859 537
859 547
859 557
859 567
864 507
867 899
872 499
875 890
880 491
880 875
885 481
886 883
889 893
889 903
890 913
893 474
894 923
899 932
902 469
905 940
911 464
914 945
919 457
924 945
929 452
933 950
939 449
943 950
949 449
953 950
959 449
963 948
969 449
973 945
979 449
982 940
989 449
991 935
999 449
1000 930
1008 923
1009 449
1015 910
1019 449
1023 903
1028 893
1029 449
1033 883
1039 449
1039 875
1049 449
1049 875
1059 449
1059 875
1069 449
1069 875
1079 449
1079 875
1089 449
1089 875
1099 449
1099 875
1109 449
1109 875
1119 449
1119 875
1129 449
1129 875
1139 449
1139 875
1149 451
1149 875
1158 456
1159 875
1165 464
1169 875
1170 473
1175 482
1179 875
1182 490
1189 875
1190 497
1195 506
1199 875
1200 515
1200 525
1200 535
1200 545
1200 555
1200 565
1205 574
1209 875
1210 583
1218 590
1219 875
1227 595
1228 880
1235 602
1237 885
1243 609
1247 889
1252 614
1257 890
1261 619
1267 890
1270 624
1277 890
1280 624
1287 890
1290 624
1297 890
1300 624
1307 890
1310 624
1317 889
1320 624
1327 884
1330 624
1335 870
1340 624
1343 863
1348 853
1350 624
1350 840
1355 805
1355 815
1355 825
1360 624
1364 800
1370 624
1374 797
1380 624
1384 792
1389 782
1390 624
1394 772
1395 760
1400 624
1400 735
1400 745
1405 700
1405 710
1405 720
1408 630
1410 680
1410 690
1415 638
1415 648
1415 658
1415 668
