499 752
499 762
504 771
507 744
509 780
514 789
515 736
520 797
523 729
524 807
524 817
524 827
524 837
524 847
524 857
524 867
524 877
527 719
529 707
529 886
534 697
539 890
539 900
539 910
542 689
544 919
550 927
552 684
557 935
562 679
567 935
572 674
576 940
582 674
586 940
592 669
596 940
602 669
606 940
612 669
616 940
622 669
625 935
632 669
635 925
642 669
643 918
652 669
653 915
662 669
663 915
672 669
673 915
682 669
683 915
692 669
693 915
702 669
703 915
712 669
713 915
722 669
723 915
732 664
733 915
742 664
743 915
747 654
753 915
756 649
763 915
765 644
773 915
775 644
783 915
785 644
791 635
793 915
799 622
803 915
807 614
813 915
816 609
823 915
826 609
833 915
836 609
843 915
846 609
853 915
856 609
863 915
864 616
870 624
870 634
872 920
874 930
879 939
879 949
880 634
884 958
890 634
892 965
900 631
901 970
909 557
909 567
909 577
909 587
909 597
909 607
909 617
911 970
914 547
921 973
922 539
930 531
931 975
940 526
941 975
950 521
951 975
960 519
961 975
970 519
971 975
980 519
980 970
989 965
990 519
997 959
1000 522
1002 949
1010 524
1010 940
1015 930
1020 527
1023 923
1030 529
1033 918
1040 529
1043 915
1050 532
1053 915
1060 534
1062 910
1070 534
1072 910
1080 534
1082 910
1090 534
1092 910
1100 534
1102 910
1110 534
1112 910
1120 534
1122 910
1130 534
1132 910
1140 534
1142 910
1150 534
1152 910
1160 534
1162 910
1170 534
1172 910
1180 534
1182 910
1188 540
1192 910
1195 548
1195 558
1200 567
1200 577
1200 587
1202 910
1205 596
1205 606
1210 615
1210 625
1212 910
1215 634
1215 644
1222 914
1225 644
1232 915
1235 644
1242 915
1245 641
1251 920
1255 639
1261 920
1265 639
1270 925
1275 639
1280 925
1285 639
1290 925
1295 639
1300 925
1305 639
1309 920
1315 639
1317 914
1325 639
1325 905
1333 898
1335 639
1338 888
1340 875
1344 644
1345 860
1350 850
1354 646
1359 845
1363 651
1368 840
1373 655
1377 834
1380 663
1385 825
1388 669
1390 815
1395 805
1398 670
1400 795
1405 785
1407 675
1410 775
1415 765
1417 679
1420 689
1420 740
1420 750
1425 698
1425 708
1425 718
1425 728
