389 1012
394 992
394 1002
394 1021
399 977
404 967
404 1025
412 959
413 1030
417 949
422 939
423 1030
427 929
432 919
432 1024
440 1015
442 919
445 1005
450 995
452 919
455 985
461 924
464 980
471 924
473 975
479 1257
479 1267
480 929
483 975
484 1247
484 1276
489 934
489 983
489 993
489 1003
489 1232
490 1013
491 1284
494 1222
495 1022
498 939
499 1212
501 1280
502 1030
504 1040
504 1050
504 1060
504 1070
504 1080
504 1090
504 1100
504 1110
504 1120
504 1130
504 1140
504 1150
504 1160
504 1170
504 1180
504 1190
504 1200
507 944
510 1275
515 1265
517 944
520 1200
520 1210
520 1220
520 1230
520 1240
520 1250
525 1190
526 949
530 1180
535 954
538 1173
544 959
545 1165
552 965
553 1158
560 972
563 1153
568 1143
569 977
575 1130
579 981
585 989
585 1130
594 994
595 1130
603 999
605 1130
613 999
615 1125
623 999
625 1125
633 999
634 1120
643 999
644 1120
653 999
653 1115
663 999
663 1115
673 999
673 1115
683 999
683 1115
692 994
693 1115
702 994
703 1115
712 989
713 1115
722 989
723 1115
727 1125
729 1135
729 1145
729 1155
729 1165
731 984
734 1174
734 1184
734 1194
734 1204
734 1214
734 1224
734 1234
734 1244
734 1254
739 1263
741 980
747 1270
751 979
756 1275
760 984
765 1270
770 987
773 1263
775 996
778 1253
780 1005
780 1240
785 1014
785 1145
785 1155
785 1165
785 1175
785 1185
785 1225
787 1195
790 1023
790 1205
790 1215
794 1140
798 1030
802 1040
803 1135
807 1049
810 1059
813 1135
815 1068
820 1077
823 1135
825 1086
830 1095
833 1135
835 1104
843 1135
845 1104
852 1140
855 1104
860 1147
865 1101
869 1152
869 1162
869 1172
869 1182
869 1192
869 1202
869 1212
869 1222
869 1232
874 1241
875 1099
879 1250
884 1259
885 1096
889 1268
894 1277
895 1094
902 1284
905 1094
911 1289
914 1082
919 1057
919 1067
921 1290
924 1007
924 1017
924 1027
924 1037
924 1047
929 997
931 1290
934 987
941 1290
942 979
950 971
951 1290
958 964
961 1290
962 954
964 912
964 922
964 932
964 942
969 897
971 1290
974 877
974 887
979 867
980 1285
987 859
990 1280
997 854
1000 1275
1007 854
1010 1270
1014 862
1018 1263
1022 869
1025 879
1025 1250
1030 1240
1033 885
1035 1225
1037 895
1040 1115
1040 1125
1040 1135
1040 1145
1040 1155
1040 1165
1040 1175
1040 1185
1040 1195
1040 1205
1040 1215
1042 904
1049 912
1050 1115
1054 921
1058 931
1059 1120
1063 940
1065 950
1065 1128
1070 959
1070 995
1070 1005
1070 1015
1070 1025
1070 1035
1070 1045
1070 1055
1070 1065
1070 1075
1073 1135
1075 968
1075 978
1075 1084
1080 1143
1084 1153
1085 1084
1089 1162
1089 1172
1089 1182
1094 1191
1095 1081
1099 1200
1102 1210
1105 1079
1110 1217
1114 1074
1120 1220
1124 1072
1130 1220
1134 1052
1134 1062
1139 1042
1140 1220
1147 1034
1150 1220
1154 1022
1160 1220
1162 1014
1170 1006
1170 1220
1178 999
1180 1220
1187 994
1190 1220
1196 989
1200 1220
1206 985
1210 1220
1216 984
1220 1220
1225 979
1226 1228
1230 1238
1234 932
1234 942
1234 952
1234 962
1234 972
1235 1247
1239 1257
1242 924
1244 1266
1249 1275
1251 919
1252 1285
1260 1292
1261 919
1269 1297
1270 924
1278 930
1279 1300
1282 940
1287 949
1288 1305
1290 959
1290 969
1295 978
1297 1310
1305 979
1307 1314
1314 984
1317 1315
1324 984
1327 1315
1334 984
1337 1315
1344 984
1347 1315
1354 984
1357 1315
1364 984
1367 1314
1374 986
1377 1309
1383 991
1387 1304
1388 1000
1390 1010
1395 1019
1395 1029
1395 1295
1400 1038
1405 1047
1405 1290
1409 1057
1410 1067
1413 1283
1414 1077
1415 1087
1415 1097
1415 1107
1420 1275
1422 1115
1428 1268
1430 1122
1433 1258
1435 1131
1440 1250
1441 1139
1445 1240
1449 1146
1450 1230
1455 1154
1455 1220
1460 1163
1460 1195
1460 1205
1465 1172
1465 1182
