494 1007
494 1017
499 997
504 987
504 1020
509 972
513 1025
514 962
522 954
523 1023
530 946
533 1018
540 944
540 1010
550 944
550 1010
559 949
559 1172
559 1182
559 1192
559 1202
559 1212
559 1222
559 1232
559 1242
560 1010
564 1157
564 1251
566 1018
568 954
569 1147
569 1260
570 1028
574 1137
575 1037
575 1268
577 959
579 1127
583 1275
584 1042
584 1052
584 1062
584 1072
584 1082
584 1092
584 1102
584 1112
587 959
593 1273
596 964
600 1265
605 969
605 1255
610 1175
610 1185
610 1195
610 1205
610 1215
610 1225
610 1235
610 1245
614 974
618 1168
624 976
625 1160
633 981
635 1155
643 985
645 1150
652 990
655 1150
662 994
665 1150
669 1002
674 1145
679 1004
684 1145
688 1009
694 1142
697 1014
704 1140
707 1014
714 1140
717 1014
724 1137
727 1014
734 1135
737 1014
744 1135
747 1014
754 1135
757 1014
764 1132
767 1014
774 1130
777 1014
784 1130
787 1014
794 1130
797 1014
803 1135
807 1014
807 1145
812 1154
817 1014
819 1162
826 1019
827 1169
831 1179
835 1024
839 1185
839 1195
839 1205
839 1215
839 1225
839 1235
839 1245
839 1255
839 1265
844 1274
845 1027
852 1280
854 1032
862 1279
864 1036
870 1150
870 1160
870 1170
870 1180
870 1190
870 1200
870 1210
870 1220
870 1230
870 1240
870 1250
870 1260
870 1270
873 1041
880 1049
880 1145
885 1058
885 1068
885 1078
885 1088
890 1145
893 1094
900 1145
903 1094
910 1145
913 1094
919 1140
923 1094
929 1140
933 1094
939 1140
939 1150
939 1160
939 1170
939 1180
939 1190
939 1200
939 1210
939 1220
942 1230
943 1094
944 1240
947 1250
952 1259
953 1094
956 1269
961 1278
963 1094
970 1283
972 1089
975 1292
982 1089
982 1300
992 1089
992 1304
999 1002
999 1012
999 1022
999 1032
1001 1084
1002 1305
1004 992
1004 1041
1004 1051
1004 1061
1004 1071
1011 1310
1012 984
1021 1310
1022 979
1031 1310
1032 979
1041 1310
1042 974
1049 887
1049 897
1049 907
1050 1305
1052 969
1054 877
1054 916
1058 1298
1059 925
1059 935
1059 945
1059 955
1062 869
1068 1293
1071 864
1075 1280
1080 869
1080 1270
1085 1115
1087 1125
1088 1263
1090 872
1093 1253
1095 881
1095 1115
1095 1132
1098 1243
1099 1142
1100 890
1100 1152
1100 1162
1100 1172
1100 1182
1100 1192
1100 1202
1100 1212
1100 1222
1100 1232
1102 900
1105 910
1105 920
1105 930
1105 940
1105 950
1105 960
1105 1115
1110 969
1115 978
1115 1115
1120 987
1120 997
1125 1006
1125 1115
1128 1016
1130 1026
1133 1036
1135 1046
1135 1115
1138 1056
1140 1066
1143 1076
1145 1117
1149 1127
1150 1084
1157 1134
1160 1084
1161 1144
1166 1153
1170 1084
1174 1160
1174 1170
1179 1179
1180 1084
1181 1189
1186 1198
1190 1084
1190 1208
1194 1218
1199 1227
1200 1084
1204 1236
1210 1084
1211 1244
1220 1084
1221 1248
1224 1042
1224 1052
1224 1062
1224 1072
1229 1032
1231 1250
1234 1022
1240 1255
1244 1017
1250 1255
1254 1014
1260 1255
1263 1009
1270 1255
1273 1009
1279 952
1279 962
1280 1255
1282 1004
1284 942
1284 971
1289 932
1289 980
1289 990
1290 1255
1297 924
1300 1255
1307 919
1310 1255
1317 919
1319 1260
1325 1268
1327 919
1330 1277
1334 1287
1337 919
1342 1294
1346 924
1350 1300
1354 931
1359 1305
1360 939
1365 948
1368 1310
1373 955
1377 1315
1380 963
1385 972
1387 1315
1394 977
1396 1320
1399 986
1405 994
1406 1320
1413 1000
1416 1320
1423 1004
1425 1325
1432 1009
1435 1325
1441 1014
1445 1325
1449 1021
1455 1029
1455 1039
1455 1049
1455 1059
1455 1069
1455 1079
1455 1089
1455 1099
1455 1109
1455 1119
1455 1325
1463 1125
1465 1325
1470 1133
1474 1320
1478 1140
1483 1315
1487 1145
1492 1309
1495 1152
1500 1295
1502 1160
1508 1288
1510 1167
1515 1176
1515 1275
1520 1260
1521 1184
1525 1194
1525 1245
1530 1203
1530 1213
1530 1223
1530 1233
