139 232
139 242
139 252
139 262
144 217
144 271
144 281
151 289
152 209
159 295
161 204
169 295
171 204
178 290
181 204
187 295
191 200
197 299
201 199
207 300
211 199
217 300
221 199
227 300
231 199
237 300
241 199
247 300
251 199
257 300
261 199
267 300
271 199
277 300
281 195
287 300
291 194
297 300
301 194
307 300
311 194
317 300
321 194
327 300
331 194
337 300
341 194
347 300
351 194
357 300
361 194
367 300
371 194
377 304
381 194
387 305
390 189
397 305
400 189
407 305
409 402
409 412
409 422
409 432
409 442
409 452
409 462
409 472
409 482
409 492
409 502
409 512
409 522
409 532
409 542
409 552
409 562
409 572
409 582
409 592
410 192
414 367
414 377
414 387
414 601
414 611
414 621
417 305
419 337
419 347
419 357
419 630
419 640
419 650
420 194
422 660
424 313
424 323
424 670
427 680
429 187
429 690
429 700
434 709
436 719
439 184
439 729
444 738
445 748
449 184
453 755
457 765
459 184
465 772
469 184
474 777
479 184
482 784
489 184
491 789
499 184
501 793
509 184
511 795
519 184
520 800
529 184
530 800
539 184
540 800
549 184
550 802
559 184
560 805
569 184
570 805
579 184
580 805
589 184
590 805
599 184
600 805
609 184
610 805
619 182
620 805
629 179
630 807
639 179
640 810
649 179
650 810
659 179
660 810
669 179
670 810
679 179
680 810
689 179
690 810
699 179
700 810
708 174
710 810
718 174
720 810
728 174
730 810
738 174
740 810
748 174
750 810
758 174
760 810
768 174
770 812
778 174
780 815
788 174
790 815
798 174
800 815
808 174
810 815
818 174
820 815
828 174
830 815
838 174
840 817
848 174
849 822
858 174
859 825
868 174
869 825
878 174
879 825
888 174
889 825
898 174
899 825
908 174
909 825
918 174
919 825
928 174
929 825
938 174
939 825
948 174
948 820
958 174
958 820
968 174
968 820
978 174
978 820
987 825
988 174
997 825
998 174
1007 825
1008 174
1017 825
1018 174
1027 825
1028 174
1037 825
1038 174
1047 825
1048 174
1057 825
1058 174
1067 825
1068 174
1077 825
1078 174
1086 820
1088 174
1095 815
1098 174
1105 815
1108 174
1115 815
1118 174
1125 815
1128 174
1135 815
1138 174
1145 815
1148 174
1155 815
1158 174
1165 815
1168 174
1175 815
1178 174
1184 810
1188 174
1193 815
1198 174
1202 810
1208 174
1212 810
1218 175
1222 810
1228 179
1232 810
1237 174
1241 815
1247 174
1251 815
1257 174
1261 815
1267 174
1271 815
1277 174
1281 815
1287 174
1291 815
1297 174
1301 815
1307 174
1311 815
1317 174
1320 810
1327 174
1330 810
1337 174
1340 810
1347 174
1350 810
1357 174
1360 810
1367 174
1370 810
1377 174
1380 810
1387 174
1390 810
1397 174
1400 810
1407 174
1410 810
1417 174
1420 810
1427 174
1430 810
1437 174
1440 810
1447 174
1450 810
1457 174
1460 810
1467 174
1470 810
1477 174
1480 810
1487 174
1490 810
1497 174
1500 810
1507 174
1510 810
1517 174
1520 810
1527 174
1530 810
1537 174
1540 810
1547 174
1550 812
1557 174
1560 815
1566 169
1570 815
1576 169
1580 815
1586 169
1590 815
1596 169
1600 815
1606 169
1610 815
1616 169
1620 815
1626 169
1629 820
1635 164
1639 820
1645 164
1649 820
1655 164
1659 820
1665 164
1669 820
1675 164
1679 820
1685 164
1689 820
1695 164
1699 820
1705 164
1709 820
1715 164
1719 820
1725 164
1729 820
1735 164
1739 820
1745 164
1749 820
1755 164
1759 817
1765 164
1769 815
1775 164
1779 815
1785 164
1789 815
1794 169
1799 815
1804 169
1809 815
1814 169
1819 815
1824 169
1829 815
1834 169
1839 815
1844 169
1849 815
1854 169
1859 815
1864 169
1869 815
1874 169
1879 815
1884 169
1888 810
1894 169
1898 810
1904 171
1908 810
1914 174
1918 810
1924 176
1928 808
1934 179
1938 805
1944 179
1948 805
1954 179
1957 800
1963 184
1967 800
1973 184
1977 800
1983 184
1987 800
1993 184
1997 800
2003 184
2007 800
2013 184
2016 795
2023 184
2026 795
2032 189
2036 795
2042 189
2046 795
2052 189
2056 795
2062 189
2066 795
2072 189
2075 790
2081 194
2085 790
2091 194
2095 790
2101 194
2105 790
2111 194
2115 785
2120 199
2125 785
2130 202
2135 780
2137 210
2142 219
2143 773
2145 229
2148 763
2150 238
2150 248
2150 258
2150 268
2150 278
2150 750
2155 287
2155 297
2155 307
2155 317
2155 327
2155 337
2155 347
2155 357
2155 367
2155 377
2155 387
2155 397
2155 407
2155 417
2155 440
2155 645
2155 655
2155 665
2155 675
2155 685
2155 695
2155 705
2155 715
2155 725
2155 735
2157 450
2159 427
2160 460
2160 470
2160 480
2160 490
2160 500
2160 510
2160 520
2160 530
2160 540
2160 550
2160 560
2160 570
2160 580
2160 590
2160 600
2160 610
2160 620
2160 630
