494 1037
499 1027
499 1046
504 1017
504 1055
510 1063
512 1009
514 827
514 837
514 847
514 857
514 867
514 877
514 887
514 897
514 907
514 917
514 927
519 807
519 817
519 936
520 1067
522 1004
524 792
526 944
529 782
530 1070
532 1004
534 762
534 772
536 945
539 752
540 1070
541 1009
544 732
544 742
545 950
549 722
549 1016
550 1026
550 1036
550 1070
554 707
554 955
555 1045
559 697
560 1070
564 687
564 955
565 1049
569 677
570 1070
573 960
574 667
575 1049
579 657
580 1070
582 965
585 1046
587 649
590 1070
591 970
595 641
595 1044
600 631
600 1070
601 970
604 1039
610 626
610 1070
611 970
614 1039
618 619
620 1065
621 970
624 1037
625 611
630 1065
631 970
634 1034
635 606
640 1065
641 970
643 599
643 1029
649 1060
651 970
652 594
652 1024
659 1060
661 589
661 970
662 1019
669 1060
670 584
671 970
672 1014
678 1055
679 579
680 1006
681 970
688 1055
689 577
689 976
689 986
689 996
698 1055
699 574
707 1050
708 569
717 1050
718 569
727 564
727 1050
736 1045
737 564
746 559
746 1045
756 559
756 1045
765 1040
766 559
775 1040
776 555
785 1040
786 554
795 1035
796 554
799 437
804 446
804 456
805 1035
806 554
807 429
811 464
815 1030
816 424
816 554
819 470
825 419
825 1030
826 550
828 475
834 414
835 1025
836 549
838 475
844 412
845 544
845 1025
848 475
854 409
854 539
855 1025
858 475
859 485
862 495
864 409
864 522
864 532
864 1020
872 499
872 514
873 404
874 1020
883 404
884 1020
893 404
894 1020
903 404
904 1020
905 450
905 460
905 505
905 515
905 525
910 534
913 404
914 445
914 1017
915 464
915 505
918 540
923 404
923 440
923 470
923 498
924 1012
928 544
930 478
930 488
932 409
932 434
932 1004
935 965
935 975
935 985
937 424
938 544
944 960
948 544
954 960
958 544
964 960
968 544
974 960
978 544
984 960
988 544
994 960
998 544
1004 960
1008 544
1014 960
1018 544
1024 960
1028 544
1034 960
1038 544
1044 960
1048 544
1054 960
1058 544
1064 960
1067 539
1074 960
1077 539
1084 960
1087 539
1094 960
1095 630
1097 539
1097 640
1104 957
1105 630
1105 647
1107 539
1110 656
1114 955
1115 630
1116 664
1117 539
1124 671
1124 955
1125 630
1127 539
1133 950
1134 674
1135 630
1136 544
1143 950
1144 551
1144 625
1144 674
1150 559
1152 945
1154 622
1154 674
1155 568
1160 577
1162 944
1164 587
1164 617
1164 674
1165 597
1169 607
1172 940
1174 674
1175 825
1175 835
1175 845
1181 935
1184 674
1184 820
1185 849
1191 935
1192 814
1194 674
1194 844
1200 930
1202 809
1203 839
1204 674
1210 930
1212 804
1213 839
1214 674
1219 925
1222 799
1222 844
1224 674
1228 920
1229 852
1230 862
1230 872
1230 882
1230 892
1232 794
1234 674
1234 902
1235 912
1242 789
1244 674
1252 784
1254 674
1262 779
1264 674
1270 770
1274 674
1279 765
1284 674
1287 759
1294 672
1297 754
1304 669
1307 749
1314 669
1317 744
1324 667
1325 735
1334 664
1335 735
1344 664
1344 730
1352 724
1353 659
1362 719
1363 659
1370 710
1372 654
1380 705
1382 649
1390 700
1392 649
1400 695
1402 644
1410 695
1412 644
1419 690
1422 644
1429 690
1432 644
1438 685
1442 644
1447 679
1452 644
1455 670
1459 652
