314 397
314 407
314 417
314 427
314 437
314 447
314 457
319 466
322 389
324 475
327 485
329 532
329 542
329 552
329 562
329 572
329 582
329 592
329 602
329 612
329 622
329 632
329 642
331 384
334 522
334 651
335 492
339 502
339 512
339 660
339 670
339 680
339 807
339 817
339 827
339 837
339 847
339 857
341 384
342 690
344 700
344 710
344 797
344 866
344 876
347 720
349 730
349 740
349 750
349 760
349 770
349 780
349 885
349 895
349 905
349 915
351 384
354 924
354 934
354 944
354 954
359 963
359 973
361 384
364 982
364 992
369 1001
369 1011
369 1021
369 1031
369 1041
369 1051
369 1061
371 384
374 1070
377 1080
379 1090
379 1100
380 379
382 1110
384 1120
384 1130
387 1140
389 374
389 1150
389 1160
389 1170
389 1180
389 1190
392 1200
394 1210
394 1220
394 1230
397 1240
399 372
399 1250
399 1260
402 1270
404 1280
407 1290
409 369
409 1300
409 1310
414 1319
414 1329
414 1339
416 1349
419 367
421 1358
425 1368
429 364
429 1378
430 1388
434 1398
435 1408
439 364
439 1418
439 1428
440 1438
444 1448
449 364
449 1457
449 1467
454 1476
459 362
459 1485
464 1494
469 359
469 1503
474 1512
479 359
479 1521
486 1529
489 359
494 1535
499 359
503 1540
509 359
513 1540
519 359
522 1545
529 357
532 1549
539 354
542 1550
549 354
551 1555
559 354
561 1558
569 354
571 1560
579 354
580 1565
589 354
590 1567
599 354
600 1570
609 354
610 1570
619 354
619 1575
629 354
629 1575
639 352
639 1575
648 1580
649 349
658 1580
659 349
668 1580
669 349
677 1585
679 349
687 1585
689 349
697 1585
699 349
707 1589
709 349
717 1590
719 349
727 1590
729 349
737 1590
739 349
747 1590
749 349
757 1590
759 349
767 1590
769 349
777 1590
778 344
787 1590
788 344
797 1590
798 344
807 1590
808 344
817 1590
818 344
827 1590
828 344
837 1590
838 344
847 1590
848 344
857 1590
858 344
866 1585
868 344
876 1585
878 344
886 1585
888 344
896 1585
898 345
905 1580
908 349
915 1580
918 349
925 1580
928 349
935 1580
938 349
944 1575
948 349
954 1575
958 349
964 1575
968 349
973 1580
978 349
982 1575
988 349
991 1570
998 349
999 1562
1008 349
1009 1560
1018 349
1019 1557
1027 344
1029 1555
1037 344
1039 1552
1047 344
1049 1550
1057 344
1059 1547
1067 344
1069 1545
1077 344
1078 1540
1087 344
1087 1534
1095 1525
1097 344
1104 1520
1107 344
1112 1514
1117 344
1120 1505
1127 344
1128 1498
1130 980
1130 990
1130 1000
1130 1010
1130 1020
1130 1030
1130 1040
1130 1050
1132 1060
1135 970
1135 1070
1135 1080
1135 1090
1135 1100
1135 1110
1135 1490
1137 344
1140 940
1140 950
1140 960
1140 1119
1143 1483
1145 915
1145 925
1145 1128
1147 344
1150 900
1150 1137
1150 1470
1154 1147
1155 885
1155 1460
1157 344
1159 1156
1160 825
1160 835
1160 845
1160 855
1160 865
1160 875
1160 1166
1160 1430
1160 1440
1160 1450
1165 810
1165 1175
1165 1185
1165 1420
1166 349
1170 790
1170 800
1170 1194
1170 1204
1173 1413
1175 775
1175 1213
1175 1223
1176 349
1178 1403
1180 740
1180 750
1180 760
1180 1232
1180 1242
1180 1385
1184 1152
1184 1162
1184 1252
1185 730
1185 1262
1185 1272
1185 1375
1186 349
1189 1171
1189 1181
1190 1281
1190 1291
1190 1330
1190 1340
1190 1350
1190 1360
1192 1144
1193 723
1194 1190
1194 1200
1195 344
1195 1300
1195 1310
1195 1320
1197 1210
1199 1220
1200 715
1201 1139
1202 1230
1204 1240
1205 344
1207 1250
1209 1260
1210 710
1211 1139
1212 1270
1214 349
1217 1279
1220 705
1221 1139
1223 354
1226 1284
1230 700
1231 1139
1233 355
1236 1285
1238 693
1241 1139
1243 359
1246 1285
1248 688
1251 1139
1253 360
1256 1285
1258 683
1261 1139
1262 365
1266 1285
1268 678
1270 372
1270 495
1270 505
1271 1139
1275 381
1275 391
1275 480
1275 514
1276 1285
1278 673
1280 400
1280 410
1280 420
1280 460
1280 470
1281 1139
1284 519
1285 429
1285 439
1285 449
1286 1285
1288 668
1291 1139
1293 514
1296 1285
1298 663
1301 1139
1303 514
1305 655
1306 1285
1311 1139
1313 514
1315 650
1316 1285
1320 1134
1323 514
1325 645
1325 1280
1330 1134
1333 514
1334 640
1334 1275
1339 1129
1342 509
1343 635
1344 1275
1349 1129
1352 509
1352 630
1354 1275
1358 1124
1361 625
1362 509
1364 1275
1367 1119
1371 504
1371 625
1374 1275
1376 1114
1380 620
1381 504
1383 1270
1386 1114
1390 620
1391 504
1393 1270
1396 1114
1400 509
1400 620
1402 1265
1405 1109
1410 509
1410 620
1412 1264
1414 1104
1420 509
1420 620
1422 1259
1423 1099
1430 509
1430 620
1432 1094
1432 1254
1439 514
1440 620
1440 1086
1442 1250
1448 1079
1449 514
1450 622
1452 1250
1455 1071
1459 514
1460 625
1460 1061
1462 1249
1468 1054
1469 514
1469 630
1472 1244
1475 1046
1479 514
1479 630
1480 1235
1483 1039
1488 635
1488 1228
1489 516
1490 1031
1495 1220
1497 640
1499 519
1500 1026
1503 1213
1506 645
1508 1019
1509 521
1510 1205
1514 651
1515 1011
1518 1198
1519 524
1520 1001
1521 659
1525 991
1528 529
1528 1193
1529 665
1530 981
1535 673
1535 971
1535 1185
1537 534
1540 961
1543 680
1545 951
1545 1180
1547 534
1549 927
1549 937
1550 688
1554 917
1555 697
1555 1175
1556 539
1559 707
1559 902
1563 1168
1564 716
1564 726
1564 877
1564 887
1565 544
1569 735
1569 745
1569 857
1569 867
1570 1155
1572 755
1574 765
1574 847
1575 544
1575 1145
1577 775
1579 785
1579 795
1579 827
1579 837
1582 805
1583 1138
1584 549
1584 815
1588 1128
1593 554
1593 1118
1595 1105
1600 1095
1602 559
1608 1088
1609 567
1613 1078
1617 574
1618 1068
1620 1055
1624 582
1625 1045
1630 590
1630 1035
1635 599
1638 1028
1640 608
1643 1018
1645 617
1648 1008
1649 627
1650 995
1654 636
1655 985
1658 646
1660 975
1665 654
1665 965
1670 663
1670 955
1675 672
1675 682
1675 925
1675 935
1675 945
1680 691
1680 915
1685 700
1685 900
1690 709
1690 719
1690 729
1690 890
1695 738
1695 875
1700 747
1700 757
1700 767
1700 777
1700 787
1700 797
1700 807
1700 817
1700 827
1700 837
1700 847
1700 857
