364 442
369 432
369 451
369 461
369 471
374 480
374 490
377 424
377 500
379 510
379 520
382 530
384 540
384 550
385 416
387 560
389 570
389 580
389 590
389 600
389 610
389 620
389 630
389 640
389 650
389 660
392 670
393 409
394 680
394 690
394 700
394 710
394 720
394 730
394 740
394 750
394 760
394 770
397 780
399 790
399 800
399 810
399 820
399 830
399 840
399 850
399 860
399 870
399 880
402 404
402 890
404 900
404 910
404 920
404 930
404 940
404 950
404 960
404 970
404 980
404 990
407 1000
409 1010
409 1020
409 1030
409 1040
409 1050
409 1060
409 1070
409 1080
409 1090
409 1100
411 399
412 1110
414 1120
414 1130
414 1140
414 1150
414 1160
414 1170
414 1180
414 1190
414 1200
419 1209
420 394
424 1218
429 389
429 1227
434 1236
439 387
439 1245
442 1255
447 1264
449 384
454 1272
459 382
459 1281
469 379
469 1285
478 1290
479 377
487 1295
489 374
497 1295
499 372
506 1300
509 369
516 1300
518 364
525 1305
528 364
535 1305
537 359
544 1310
547 359
554 1310
557 354
564 1310
567 354
573 1315
577 349
583 1315
587 349
592 1320
597 349
602 1320
607 349
612 1324
617 349
622 1325
627 349
632 1329
637 349
642 1330
647 349
652 1330
657 349
661 1335
667 349
671 1335
677 349
681 1335
687 349
691 1335
697 344
701 1335
707 344
711 1335
717 344
721 1335
727 344
731 1335
737 344
741 1335
747 344
751 1335
757 344
761 1335
767 344
771 1335
777 344
781 1335
787 344
791 1335
796 339
801 1335
806 339
811 1335
816 339
821 1335
826 339
831 1335
836 339
841 1335
846 339
851 1335
856 339
861 1338
866 339
871 1340
876 339
881 1340
886 339
891 1340
896 339
900 1335
906 339
910 1335
916 339
920 1330
926 339
930 1330
936 339
940 1325
946 339
950 1325
956 339
960 1325
965 344
969 1320
975 344
979 1320
985 344
988 1315
995 344
998 1315
1005 344
1007 1310
1014 349
1017 1310
1024 349
1027 1309
1034 349
1037 1305
1044 349
1047 1304
1054 349
1057 1300
1063 354
1067 1300
1073 354
1076 1295
1083 354
1086 1295
1093 354
1095 1290
1103 354
1105 1290
1113 355
1113 1283
1120 1275
1123 359
1130 1270
1133 359
1138 1263
1143 359
1145 1255
1153 359
1153 1248
1160 1240
1162 364
1168 1233
1171 369
1175 1225
1180 374
1180 955
1180 965
1180 975
1180 985
1180 995
1180 1005
1180 1015
1180 1025
1180 1035
1180 1045
1180 1055
1180 1065
1183 1218
1185 845
1185 855
1185 865
1185 915
1185 925
1185 935
1185 945
1185 1074
1185 1084
1185 1094
1185 1104
1185 1114
1185 1124
1185 1134
1185 1144
1185 1154
1185 1164
1185 1174
1185 1184
1185 1194
1185 1204
1188 380
1190 770
1190 780
1190 790
1190 800
1190 810
1190 820
1190 830
1190 874
1190 884
1190 894
1190 904
1195 388
1195 685
1195 695
1195 705
1195 715
1195 725
1195 735
1195 745
1195 755
1200 635
1200 645
1200 655
1200 665
1200 675
1203 395
1204 882
1204 892
1204 902
1204 912
1204 922
1205 405
1205 625
1209 872
1209 931
1210 414
1210 424
1210 434
1210 444
1210 454
1210 464
1210 474
1210 484
1210 494
1210 504
1210 514
1210 524
1213 618
1215 533
1217 864
1219 935
1223 540
1223 613
1227 859
1228 940
1233 544
1233 610
1237 859
1237 935
1243 544
1243 610
1246 854
1247 934
1252 605
1253 544
1256 854
1257 930
1262 605
1263 544
1266 850
1266 925
1272 605
1273 544
1276 849
1276 925
1281 600
1282 539
1285 920
1286 845
1291 600
1292 539
1295 915
1296 840
1301 600
1302 539
1305 915
1306 839
1310 595
1312 534
1314 910
1315 834
1320 595
1322 534
1324 829
1324 907
1330 595
1332 534
1333 824
1334 905
1340 595
1342 534
1343 824
1343 900
1350 595
1352 534
1352 819
1353 898
1360 595
1361 814
1362 534
1363 895
1370 597
1370 809
1372 534
1372 890
1379 804
1380 600
1382 534
1382 889
1389 802
1390 602
1391 539
1392 885
1399 797
1400 605
1401 539
1401 880
1407 789
1409 610
1411 539
1411 880
1417 784
1418 615
1420 544
1420 875
1422 774
1424 623
1427 764
1429 632
1430 544
1430 875
1432 754
1434 641
1434 651
1437 744
1439 549
1439 660
1439 732
1439 870
1442 670
1444 680
1444 717
1447 690
1447 864
1448 554
1449 700
1455 562
1457 859
1462 570
1462 849
1467 579
1467 839
1470 589
1472 829
1475 598
1477 819
1480 607
1482 809
1484 617
1485 795
1489 626
1490 785
1493 636
1495 646
1495 770
1500 655
1500 760
1505 664
1505 750
1510 673
1510 683
1510 735
1515 692
1515 720
1519 702
