309 1282
309 1292
314 1272
317 1299
319 1262
321 1309
329 1252
329 1315
335 1323
337 1244
343 1330
345 1236
347 1340
353 1229
355 1347
357 1219
364 1352
365 1211
369 1361
373 1204
376 1369
380 1196
384 1375
388 1189
390 1383
395 1181
398 1390
403 1174
407 1395
410 1166
415 1402
419 1157
422 1410
429 1147
431 1415
439 1142
439 1421
446 1429
447 1134
454 1435
455 1126
463 1440
465 1121
470 1448
473 1114
480 1452
482 1109
487 1460
491 1104
497 1464
499 1097
504 1472
507 1089
514 1475
517 1089
523 1480
525 1081
532 1485
533 1074
541 1490
543 1074
550 1066
551 1493
559 1500
560 1061
568 1505
570 1059
576 1050
578 1505
585 1513
586 1049
595 1515
596 1045
604 1039
605 1515
611 1523
614 1039
621 1525
624 1037
631 1525
632 1029
641 1525
642 1029
650 1530
652 1029
659 1535
662 1029
668 1540
670 1021
678 1540
680 1016
688 1540
690 1014
698 1540
700 1014
707 1545
710 1011
714 697
714 717
714 737
717 1545
719 647
719 657
719 672
719 682
719 706
719 726
719 746
719 756
719 766
719 776
719 786
720 1009
724 602
724 627
724 637
724 795
724 805
724 815
724 832
724 1802
724 1822
724 1852
727 1549
729 577
729 587
729 611
729 841
729 851
729 1752
729 1767
729 1777
729 1787
729 1811
729 1831
729 1841
729 1861
729 1871
729 1882
729 1892
730 1009
734 562
734 867
734 1722
734 1737
734 1901
734 1911
737 1550
739 552
739 876
739 886
739 1692
739 1702
739 1712
739 1920
739 1930
739 1940
739 1950
739 1960
740 1006
742 1970
744 532
744 542
744 895
744 1682
744 1980
747 1550
749 507
749 517
749 904
749 917
749 1662
749 1672
750 1004
750 1988
754 926
754 1647
754 1998
754 2008
756 1545
757 499
759 482
759 935
759 1009
759 1637
759 2017
759 2027
759 2037
764 472
764 944
764 1622
764 2046
766 1548
769 457
769 953
769 1009
769 1607
769 2055
770 963
772 2065
774 447
774 1597
774 2075
776 1550
778 970
779 980
779 1007
779 1587
779 2084
784 444
784 1577
784 2093
785 988
786 1550
789 1007
789 2102
789 2112
792 1569
793 995
794 444
794 1556
797 2119
803 449
807 2115
813 449
817 2115
823 449
827 2115
832 454
837 2114
842 454
847 2114
852 454
857 2110
862 454
867 2109
871 459
877 2105
881 459
887 2105
890 464
896 2100
900 467
906 2100
910 469
915 2095
919 474
924 2090
929 471
934 2090
938 476
943 2085
948 479
953 2085
957 484
962 2080
967 484
971 2075
974 492
981 2075
984 494
990 2070
994 496
999 2065
1003 501
1009 2062
1013 504
1019 2057
1022 509
1029 2052
1031 514
1039 2047
1040 519
1049 524
1049 2045
1057 530
1057 2039
1067 529
1067 2034
1074 537
1075 2025
1084 541
1085 2020
1090 549
1094 2015
1100 552
1102 2009
1108 559
1112 2004
1115 567
1120 1995
1123 574
1130 1990
1132 579
1138 1983
1141 584
1145 1975
1149 591
1154 1970
1155 599
1162 1964
1164 604
1170 1955
1172 610
1177 619
1178 1948
1185 625
1185 1940
1190 634
1194 1935
1198 640
1200 1925
1205 648
1205 1915
1213 655
1214 1910
1220 663
1220 1900
1225 672
1230 681
1230 1885
1230 1895
1236 689
1238 1878
1244 696
1245 1870
1248 706
1250 1855
1254 714
1255 724
1258 1848
1265 721
1265 1835
1269 707
1270 1825
1276 1833
1277 699
1284 682
1284 1839
1292 674
1292 1845
1297 1854
1299 662
1301 1864
1307 654
1309 1870
1314 1879
1315 646
1319 1888
1323 639
1324 1897
1327 629
1332 619
1332 1904
1339 1912
1342 614
1344 1921
1350 606
1354 1925
1358 599
1359 1934
1365 591
1367 1940
1372 1949
1373 584
1380 576
1380 1955
1388 569
1389 1960
1397 564
1398 1965
1402 1975
1405 556
1411 1980
1413 549
1419 1986
1422 544
1429 1990
1431 539
1435 1998
1439 532
1445 2002
1449 527
1452 2010
1457 519
1460 2017
1467 514
1469 2022
1476 509
1479 2025
1485 504
1488 2030
1495 501
1497 2035
1503 494
1506 2040
1513 494
1515 2045
1522 489
1524 2050
1530 481
1533 2055
1540 476
1542 2060
1550 474
1551 2065
1560 471
1561 2065
1568 465
1571 2068
1578 464
1581 2070
1587 459
1589 2076
1597 454
1599 2080
1607 454
1608 2085
1617 449
1618 2085
1627 444
1627 2090
1637 444
1637 2094
1647 439
1647 2094
1656 2099
1657 439
1666 2098
1667 434
1675 2103
1677 434
1685 2100
1687 429
1694 2105
1697 429
1704 2105
1707 429
1713 2110
1717 429
1723 2110
1727 424
1733 2110
1737 424
1740 980
1742 2115
1745 430
1745 970
1745 989
1747 440
1750 1550
1752 2115
1753 963
1754 984
1755 447
1755 457
1755 1559
1758 953
1760 466
1760 940
1760 1545
1760 1568
1762 2114
1763 476
1764 984
1765 486
1765 925
1765 1577
1770 1545
1770 2095
1770 2105
1771 494
1772 1585
1773 918
1774 986
1775 504
1775 514
1775 1600
1778 908
1778 2088
1780 523
1780 890
1780 1545
1780 1609
1780 2065
1780 2075
1784 989
1785 532
1785 542
1785 880
1785 1618
1790 551
1790 561
1790 855
1790 865
1790 1540
1790 1627
1790 2040
1790 2050
1790 2060
1793 571
1794 987
1795 581
1795 591
1795 830
1795 845
1795 1636
1795 1646
1795 2030
1796 1548
1800 600
1800 610
1800 805
1800 815
1800 1655
1800 2015
1802 620
1802 1665
1804 984
1805 630
1805 645
1805 655
1805 755
1805 775
1805 785
1805 795
1805 1675
1805 1990
1805 2000
1806 1545
1807 1685
1810 664
1810 674
1810 684
1810 694
1810 704
1810 715
1810 725
1810 735
1810 745
1810 764
1810 1705
1810 1965
1810 1975
1812 1694
1813 989
1815 1714
1815 1945
1815 1955
1816 1545
1820 1723
1820 1733
1820 1743
1820 1755
1820 1900
1820 1920
1820 1930
1822 1910
1823 989
1825 1764
1825 1774
1825 1784
1825 1794
1825 1805
1825 1830
1825 1855
1825 1875
1825 1885
1826 1545
1827 1815
1827 1840
1827 1865
1833 989
1835 1540
1842 994
1845 1540
1852 994
1855 1540
1862 994
1864 1535
1871 999
1874 1535
1881 999
1884 1535
1891 999
1892 1529
1900 1004
1902 1525
1910 1007
1912 1524
1920 1009
1922 1524
1929 1014
1932 1519
1939 1016
1942 1514
1948 1021
1952 1510
1958 1024
1961 1505
1968 1025
1970 1500
1975 1033
1980 1495
1985 1034
1990 1495
1994 1039
1998 1488
2002 1045
2008 1483
2012 1049
2018 1478
2021 1054
2028 1478
2030 1059
2034 1470
2039 1064
2042 1464
2049 1066
2052 1459
2055 1074
2062 1454
2064 1079
2070 1445
2074 1081
2079 1440
2080 1089
2088 1435
2089 1094
2097 1100
2097 1429
2105 1107
2105 1420
2113 1114
2114 1415
2122 1119
2122 1409
2129 1127
2130 1400
2137 1134
2138 1393
2146 1139
2148 1388
2154 1146
2155 1380
2160 1154
2163 1373
2168 1160
2169 1365
2175 1168
2177 1359
2183 1175
2185 1345
2190 1183
2193 1338
2198 1190
2200 1330
2205 1198
2205 1320
2213 1205
2215 1315
2217 1215
2220 1305
2225 1222
2225 1295
2232 1230
2235 1285
2237 1239
2243 1278
2245 1245
2248 1268
2250 1254
