399 1412
399 1482
404 1307
404 1317
404 1327
404 1337
404 1347
404 1357
404 1367
404 1377
404 1387
404 1397
404 1421
404 1491
404 1501
404 1511
409 1262
409 1272
409 1282
409 1292
409 1481
409 1520
409 1530
409 1540
414 1232
414 1242
414 1252
414 1422
414 1549
414 1559
416 1569
418 1486
419 1197
419 1207
419 1217
419 1579
419 1589
421 1599
424 1177
424 1187
424 1417
424 1609
426 1619
428 1490
429 1157
429 1167
429 1629
431 1639
432 1410
434 1137
434 1147
434 1649
436 1659
437 1495
439 1122
439 1669
441 1405
441 1679
444 1102
444 1112
444 1689
447 1499
449 1087
449 1698
450 1400
450 1708
454 1072
454 1718
456 1504
459 1057
459 1727
459 1737
460 1395
464 1047
464 1746
465 1509
469 1032
469 1755
470 1395
472 1765
474 1017
474 1775
475 1509
479 1007
479 1390
479 1784
484 997
484 1793
485 1512
489 987
489 1390
489 1802
489 1812
494 972
494 1821
495 1514
498 1385
499 962
499 1830
504 952
504 1839
505 1514
508 1385
509 942
509 1848
514 932
514 1857
515 1514
518 1385
519 922
519 1866
524 912
524 1875
525 1514
527 1885
528 1385
529 902
532 1894
534 892
535 1514
536 1904
538 1385
542 884
544 1910
545 1512
547 874
547 1920
548 1385
552 864
552 1929
555 1509
558 1385
559 852
559 1937
564 1946
565 1506
567 844
568 1385
569 1955
572 834
575 1504
575 1963
577 1390
579 822
580 1972
584 1499
587 814
587 1390
587 1980
592 804
592 1989
593 1494
597 1394
599 792
599 1997
602 1489
604 2006
607 784
607 1395
609 2015
612 1484
614 772
615 2023
616 1400
622 764
622 1479
623 2030
625 1405
630 756
630 2038
632 1474
635 1407
635 2047
638 749
640 1466
642 739
642 2055
644 1412
650 731
650 1461
650 2062
652 1419
657 2070
658 724
658 1454
661 1424
665 716
665 1446
665 2077
669 1430
672 2085
673 709
674 1439
680 701
680 2092
684 2102
685 691
694 682
694 2105
697 2115
704 672
705 2122
714 667
714 2127
722 659
722 2134
729 2142
730 651
737 2149
738 644
744 2157
745 636
752 2164
753 629
759 2172
760 621
769 2175
770 616
775 2183
778 609
783 2190
785 601
790 2198
793 594
800 2202
802 589
807 2210
811 584
816 2215
819 577
824 2221
827 569
834 2225
837 564
840 2233
846 559
848 2240
854 552
857 2245
864 547
867 2249
872 539
875 2255
882 534
884 2260
892 529
893 2265
901 524
902 2270
910 519
911 2275
919 514
920 2280
928 509
929 2285
937 504
938 2290
946 499
947 2295
955 494
956 2300
964 489
965 2305
973 484
974 2310
982 479
983 2315
992 479
993 2315
1000 2323
1001 474
1010 469
1010 2325
1019 464
1019 2330
1028 459
1028 2335
1038 459
1038 2335
1047 454
1047 2340
1057 449
1057 2344
1066 2349
1067 444
1076 2350
1077 444
1085 2355
1086 439
1095 2357
1096 435
1105 2360
1106 434
1114 2365
1115 429
1124 2365
1125 429
1133 2370
1134 424
1143 2370
1144 422
1152 2375
1154 419
1162 2375
1164 419
1172 2379
1173 414
1182 2380
1183 414
1192 409
1192 2384
1202 409
1202 2385
1212 409
1212 2385
1221 404
1221 2390
1231 404
1231 2390
1241 404
1241 2390
1251 404
1251 2390
1260 399
1260 2395
1270 399
1270 2395
1280 399
1280 2395
1285 540
1285 550
1285 560
1285 570
1285 585
1290 396
1290 505
1290 515
1290 525
1290 594
1290 604
1290 614
1290 2395
1295 480
1295 490
1295 623
1295 633
1300 394
1300 465
1300 642
1300 2395
1304 652
1305 445
1305 455
1305 662
1309 2400
1310 394
1310 430
1310 671
1310 2240
1310 2250
1310 2260
1310 2270
1310 2280
1312 2290
1315 420
1315 680
1315 2220
1315 2230
1315 2300
1315 2310
1319 2400
1320 394
1320 405
1320 689
1320 2205
1320 2319
1320 2329
1325 698
1325 2190
1325 2338
1329 2400
1330 707
1330 2180
1330 2347
1335 2170
1335 2356
1337 715
1339 2400
1340 2365
1343 2163
1345 722
1345 2374
1348 2153
1349 732
1349 2400
1350 2383
1355 2145
1357 739
1358 2390
1359 2400
1360 2135
1364 747
1368 2128
1372 754
1375 2120
1379 392
1379 762
1383 2113
1387 399
1389 389
1389 757
1391 409
1393 2115
1396 418
1397 749
1399 389
1400 428
1402 739
1402 2120
1405 437
1407 2129
1409 389
1409 447
1409 727
1414 456
1414 717
1414 2137
1414 2387
1419 389
1419 465
1419 707
1419 2377
1420 2395
1422 475
1422 2144
1424 485
1424 692
1424 2367
1429 391
1429 494
1429 677
1429 2152
1429 2357
1430 2395
1431 504
1434 514
1434 662
1434 2161
1434 2347
1439 391
1439 523
1439 533
1439 543
1439 637
1439 647
1439 2170
1439 2332
1440 2395
1444 552
1444 562
1444 572
1444 582
1444 592
1444 602
1444 612
1444 622
1444 2179
1444 2317
1449 394
1449 2188
1449 2297
1449 2307
1450 2198
1450 2395
1454 2208
1454 2218
1454 2247
1454 2267
1454 2277
1454 2287
1459 394
1459 2227
1459 2237
1459 2256
1460 2395
1469 394
1470 2395
1479 394
1480 2395
1488 399
1490 2395
1498 399
1500 2395
1508 399
1510 2395
1518 399
1520 2395
1528 399
1530 2395
1537 404
1539 2390
1547 404
1549 2390
1557 404
1559 2390
1567 404
1568 2385
1576 409
1578 2385
1586 409
1588 2385
1595 414
1597 2380
1605 414
1607 2380
1615 417
1616 2375
1625 419
1626 2375
1635 422
1635 2370
1645 424
1645 2370
1655 427
1655 2365
1665 429
1665 2365
1674 434
1674 2360
1684 434
1684 2360
1693 439
1693 2355
1703 440
1703 2353
1713 444
1713 2350
1722 449
1722 2345
1731 454
1731 2340
1741 454
1741 2340
1750 459
1750 2335
1759 2330
1760 462
1769 467
1769 2327
1779 471
1779 2322
1788 476
1789 2317
1798 479
1799 2312
1807 484
1809 2307
1816 489
1819 2305
1825 494
1828 2300
1835 497
1837 2294
1844 502
1847 2289
1852 509
1857 2284
1861 514
1867 2279
1870 519
1877 2274
1880 522
1887 2269
1889 527
1895 2260
1897 534
1905 2255
1906 539
1915 544
1915 2250
1924 549
1924 2245
1932 555
1932 2239
1942 559
1942 2234
1949 567
1950 2225
1957 574
1960 2220
1966 579
1968 2213
1975 584
1978 2208
1983 590
1985 2200
1990 598
1994 2195
2000 602
2002 2189
2007 610
2010 2180
2015 617
2018 2173
2023 624
2025 2165
2032 629
2035 2160
2039 637
2043 2153
2047 644
2050 2145
2054 652
2058 2138
2062 659
2065 2130
2069 667
2073 2123
2077 674
2080 2115
2084 682
2088 2108
2092 689
2095 2100
2099 697
2100 1345
2103 2093
2107 704
2108 1338
2108 1351
2110 2085
2114 712
2115 1330
2115 1359
2118 2078
2122 719
2123 1323
2124 1364
2125 2070
2129 727
2130 1315
2132 1370
2133 2063
2137 734
2140 744
2140 1310
2140 2050
2142 1374
2148 750
2148 2043
2149 1305
2149 1382
2155 758
2155 2035
2157 1299
2159 1386
2163 765
2163 2028
2167 775
2167 1294
2168 1391
2168 2018
2175 782
2175 2010
2177 1290
2178 1394
2180 2000
2182 790
2186 1285
2187 799
2187 1399
2188 1993
2194 807
2195 1980
2196 1285
2196 1404
2199 816
2203 1973
2205 824
2205 1280
2206 1404
2208 1963
2210 833
2215 842
2215 1280
2215 1409
2215 1950
2222 850
2223 1943
2225 1275
2225 1409
2227 859
2228 1933
2230 869
2233 1923
2235 1275
2235 1409
2238 875
2240 1910
2242 885
2245 1275
2245 1409
2245 1900
2247 894
2250 1890
2254 902
2255 1275
2255 1409
2258 1883
2259 911
2263 921
2263 1873
2265 1275
2265 1409
2268 930
2268 1863
2272 940
2273 1853
2274 1280
2275 1406
2277 949
2278 1843
2280 959
2283 1833
2284 1280
2285 968
2285 1404
2288 1823
2290 977
2290 1810
2294 987
2294 1280
2295 1401
2295 1800
2299 996
2300 1790
2303 1006
2303 1285
2305 1016
2305 1396
2305 1775
2310 1025
2310 1765
2313 1285
2315 1034
2315 1044
2315 1391
2315 1750
2320 1053
2320 1735
2322 1290
2325 1062
2325 1072
2325 1386
2325 1720
2330 1081
2330 1705
2332 1294
2333 1091
2333 1379
2335 1101
2335 1690
2340 1110
2340 1120
2340 1670
2340 1680
2342 1295
2342 1374
2345 1129
2345 1139
2345 1655
2350 1148
2350 1158
2350 1366
2350 1635
2350 1645
2351 1300
2355 1167
2355 1177
2355 1610
2355 1620
2358 1359
2359 1187
2360 1197
2360 1305
2360 1590
2360 1600
2364 1207
2365 1217
2365 1227
2365 1237
2365 1351
2365 1555
2365 1565
2365 1575
2369 1310
2370 1246
2370 1256
2370 1266
2370 1520
2370 1530
2370 1540
2373 1276
2373 1345
2375 1286
2375 1296
2375 1355
2375 1365
2375 1375
2375 1385
2375 1395
2375 1410
2375 1425
2375 1475
2375 1485
2375 1495
2375 1505
2379 1311
2380 1434
2380 1444
2380 1454
2380 1464
