384 957
389 966
394 954
394 975
403 949
403 980
407 990
412 954
417 994
422 954
425 1000
432 954
434 1005
442 954
443 1010
452 954
452 1015
459 1097
459 1107
461 1020
462 954
467 1114
469 1026
469 1092
471 959
477 1084
477 1115
479 1030
481 959
485 1038
485 1122
487 1084
490 964
492 1130
493 1045
495 1076
499 1053
499 1063
500 964
502 1134
510 964
512 1135
519 969
522 1139
529 969
529 1242
531 1144
539 971
539 1237
539 1247
541 1148
549 974
549 1234
549 1250
550 1153
558 1255
559 974
559 1232
560 1155
567 1260
569 974
569 1229
570 1157
577 1260
578 979
578 1224
579 1162
587 1264
588 980
588 1224
589 1165
597 1265
598 984
598 1170
598 1224
604 907
607 1175
607 1219
607 1269
608 984
612 899
612 914
617 1175
617 1219
617 1270
618 984
619 922
621 904
624 931
625 1182
627 1214
627 1270
628 984
631 904
631 939
634 1187
636 948
637 1209
637 1274
638 984
639 1196
641 904
644 954
647 979
647 1275
649 963
650 909
657 1275
660 912
667 1279
670 914
677 1280
680 917
687 1280
690 919
694 2012
696 1285
699 924
699 1332
699 1997
699 2021
704 1977
704 1987
706 1285
707 1339
709 926
709 1327
709 1657
709 1967
709 2022
714 1787
714 1957
715 1290
715 1665
717 1319
717 1340
717 1649
719 929
719 1947
719 2020
720 1795
722 1779
724 1637
724 1660
724 1767
724 1937
725 1292
725 1311
727 1340
728 2015
729 857
729 931
729 1927
730 1795
732 1629
732 1759
734 866
734 1660
737 1340
737 1749
737 2009
739 856
739 875
739 934
739 1790
739 1917
740 1621
742 2000
744 884
744 1657
744 1902
745 1741
747 1340
748 861
748 1614
749 934
749 1787
749 1892
750 892
750 1731
751 1995
754 1655
754 1882
755 1606
757 900
757 1340
758 865
758 1724
759 932
759 1782
760 1990
762 909
762 1714
763 1650
764 919
764 1872
765 1601
765 1980
767 870
767 1340
769 1780
769 1862
770 1706
773 1650
774 1592
774 1692
774 1852
775 1975
776 1345
777 874
778 1775
779 1842
782 1684
783 1650
783 1968
784 1582
784 1832
785 1340
786 879
788 1775
789 1658
789 1668
789 1822
793 1963
794 1577
794 1812
795 884
795 1340
798 1775
799 1785
799 1795
800 1955
804 889
804 1567
805 1340
809 1402
809 1950
813 894
814 1487
814 1562
815 1340
819 1397
819 1552
819 1947
820 902
824 1482
825 1340
825 1405
829 907
829 1394
829 1547
829 1945
832 1474
834 1485
835 1340
835 1402
838 1389
839 911
839 1537
839 1945
840 1466
844 1485
844 1954
845 1340
845 1400
847 1384
848 916
849 1532
849 1963
849 1973
849 1983
850 1461
850 1993
853 1480
854 924
855 1340
855 1400
857 1379
857 1524
858 2000
860 1459
863 1480
864 926
865 1340
865 1400
867 1379
867 1519
867 1994
869 1452
873 931
873 1480
875 1340
875 1371
875 1395
875 1511
875 1985
879 1447
880 939
883 1480
883 1504
883 1978
885 1340
885 1369
885 1395
887 1439
888 945
889 1488
893 1973
894 1345
894 1362
895 1395
896 1434
897 950
900 1960
905 957
905 1395
905 1429
909 1955
914 962
914 1422
915 1395
915 1945
920 1935
924 966
924 1417
925 1395
929 907
930 1930
932 1409
933 971
934 916
935 1920
939 925
940 1910
943 974
944 914
944 934
950 942
950 1905
953 919
953 974
954 952
954 962
955 1895
962 924
963 1888
968 1878
969 932
975 1870
977 939
983 1863
984 947
992 954
993 1858
1001 959
1003 1855
1009 877
1009 966
1009 1947
1009 1957
1013 1855
1014 886
1014 1897
1014 1907
1014 1917
1014 1927
1014 1937
1014 1966
1015 974
1017 1865
1019 895
1019 1875
1019 1885
1022 905
1023 980
1024 886
1024 1962
1027 914
1030 894
1031 924
1032 985
1032 1954
1037 1944
1038 900
1039 752
1039 762
1039 772
1039 930
1039 940
1042 910
1042 989
1044 781
1044 949
1045 1930
1049 751
1049 790
1049 800
1049 958
1050 917
1050 968
1050 1920
1052 810
1052 989
1054 978
1055 759
1057 819
1057 925
1058 1913
1059 829
1061 839
1063 1903
1064 764
1065 932
1066 848
1068 1893
1069 567
1069 577
1069 587
1069 597
1069 607
1069 858
1070 868
1073 939
1073 1883
1074 616
1074 626
1074 636
1074 646
1074 764
1075 877
1077 559
1078 1873
1079 655
1079 665
1079 675
1079 685
1079 887
1082 695
1083 939
1083 1863
1084 567
1084 705
1084 715
1084 725
1084 735
1084 745
1084 755
1084 896
1084 906
1089 915
1089 925
1090 575
1090 1850
1095 584
1095 1840
1100 593
1103 1833
1105 1820
1108 600
1110 610
1113 1813
1115 619
1120 628
1120 1805
1128 635
1130 1805
1132 645
1140 1807
1142 649
1144 1817
1149 1826
1149 1836
1152 649
1159 627
1159 637
1159 1837
1164 562
1164 572
1164 582
1164 592
1164 602
1164 612
1164 1827
1165 1815
1169 497
1169 507
1169 517
1169 527
1169 537
1169 547
1170 1805
1174 467
1174 477
1174 487
1175 1790
1179 452
1180 1780
1184 442
1185 1760
1185 1770
1190 1750
1194 446
1195 1730
1195 1740
1200 454
1200 1710
1200 1720
1205 1695
1208 460
1210 1680
1215 468
1215 1665
1220 1655
1223 474
1230 1655
1233 474
1239 1660
1242 469
1242 1670
1244 1680
1244 1690
1244 1700
1244 1710
1247 1720
1249 457
1249 1730
1249 1740
1249 1750
1254 447
1259 432
1259 1742
1260 1720
1260 1730
1264 412
1264 422
1265 1690
1265 1700
1265 1710
1269 392
1269 402
1270 1660
1270 1670
1270 1680
1274 372
1274 382
1275 1645
1279 357
1284 1640
1287 349
1292 339
1294 1640
1297 329
1299 1649
1304 1658
1304 1668
1305 335
1309 1677
1309 1687
1310 344
1314 1696
1314 1706
1315 353
1315 363
1319 1715
1319 1725
1320 372
1320 382
1322 1735
1324 1745
1325 391
1325 401
1325 411
1328 421
1329 1754
1330 431
1330 441
1331 1764
1335 450
1335 460
1335 470
1335 480
1335 490
1336 1773
1340 499
1340 509
1340 519
1340 529
1340 1740
1340 1750
1345 538
1345 548
1345 558
1345 1715
1345 1725
1350 567
1350 577
1354 1710
1358 584
1364 1710
1368 584
1370 1718
1377 579
1378 1725
1379 1735
1384 1744
1384 1754
1385 571
1389 1763
1393 564
1394 1772
1397 554
1399 1781
1404 542
1404 1790
1404 1800
1404 1810
1409 1819
1412 534
1414 1828
1417 524
1419 1837
1419 1847
1424 1856
1425 530
1425 540
1429 1865
1430 549
1430 559
1430 569
1430 579
1430 589
1430 599
1430 609
1430 619
1430 629
1430 639
1430 649
1434 1874
1435 658
1435 668
1439 1883
1440 677
1444 1892
1449 1901
1450 679
1454 1910
1459 1919
1460 676
1460 835
1460 845
1460 855
1460 865
1460 875
1465 815
1465 825
1465 1927
1468 669
1470 795
1470 805
1470 879
1474 1922
1475 661
1475 785
1475 945
1475 955
1475 965
1475 1865
1475 1875
1475 1885
1475 1895
1475 1905
1479 874
1480 651
1480 760
1480 770
1480 930
1480 974
1480 1855
1485 735
1485 745
1488 644
1488 869
1488 923
1490 725
1490 910
1490 974
1490 1855
1492 859
1495 636
1495 700
1495 710
1495 895
1499 967
1500 680
1500 690
1500 851
1500 885
1500 1857
1503 630
1505 640
1505 650
1505 660
1505 670
1505 870
1507 959
1507 1865
1508 844
1513 863
1515 836
1515 852
1515 1872
1517 954
1522 944
1522 1880
1527 1889
1530 975
1530 985
1531 939
1534 1897
1535 965
1535 994
1536 930
1539 1906
1543 958
1544 922
1545 945
1545 994
1546 1914
1553 938
1554 912
1554 989
1554 1920
1557 1930
1558 928
1562 904
1563 918
1563 984
1565 1937
1569 1947
1570 910
1571 899
1572 979
1577 1954
1580 971
1585 1960
1590 966
1594 1965
1595 956
1600 1890
1600 1900
1600 1910
1600 1920
1600 1930
1600 1940
1600 1950
1605 951
1609 1885
1613 944
1619 1885
1622 939
1625 1370
1625 1380
1625 1430
1625 1440
1627 1450
1629 1885
1630 931
1630 1389
1635 1365
1635 1430
1635 1457
1635 1893
1639 1394
1640 926
1643 1900
1644 1462
1645 1365
1645 1430
1647 1400
1648 919
1652 1905
1654 1466
1655 1367
1655 1407
1655 1430
1657 914
1657 1914
1660 1474
1664 1922
1665 1370
1665 1409
1665 1432
1667 909
1670 1477
1670 1930
1674 1414
1675 1370
1675 1435
1675 1486
1676 904
1676 1938
1683 1419
1684 897
1684 1491
1684 1945
1685 1370
1685 1437
1690 1953
1692 889
1692 1424
1693 1496
1695 1370
1695 1440
1699 1958
1700 900
1700 910
1700 920
1700 930
1700 1504
1701 1429
1702 889
1704 1967
1705 1370
1705 1440
1710 934
1710 1325
1710 1335
1710 1507
1710 1975
1711 1429
1714 1445
1715 1344
1715 1370
1716 1983
1719 1436
1719 1512
1720 934
1720 1320
1724 1349
1724 1989
1725 1372
1727 1519
1729 929
1730 1320
1732 1995
1733 1354
1734 1527
1735 1375
1735 1570
1735 1580
1735 1590
1739 927
1739 2003
1740 1320
1740 1599
1740 1710
1740 1720
1743 1355
1744 1531
1744 1565
1745 1375
1745 1729
1747 2010
1748 1605
1749 922
1749 1705
1750 1320
1750 1539
1750 1738
1752 1360
1752 2019
1754 1565
1755 1375
1755 1613
1755 1747
1758 1545
1759 917
1759 1705
1760 1315
1760 1622
1760 1756
1761 2024
1762 1364
1763 1554
1764 1565
1766 1764
1768 1629
1769 912
1769 1705
1769 2030
1770 1315
1770 1774
1772 1559
1775 1637
1775 1783
1775 1900
1775 1910
1775 1920
1775 1930
1775 2038
1777 904
1778 1710
1780 1315
1780 1939
1780 1949
1782 1645
1783 1790
1783 2045
1784 1895
1785 1958
1787 904
1787 1800
1788 1710
1790 1315
1790 1967
1790 1977
1792 1649
1792 1809
1792 2050
1794 1895
1795 1659
1795 1986
1797 899
1797 1715
1800 1315
1800 1668
1800 1815
1800 1995
1802 2054
1804 1895
1805 1824
1805 2004
1805 2014
1806 1720
1807 894
1810 1315
1810 1672
1810 1833
1810 2023
1810 2033
1810 2045
1814 1895
1815 1681
1815 1725
1815 1842
1817 889
1820 1315
1820 1851
1823 1900
1824 1686
1825 1727
1825 1860
1827 884
1827 1870
1830 940
1830 950
1830 960
1830 1315
1830 1694
1830 1880
1833 1898
1834 1732
1835 969
1835 1703
1837 879
1838 933
1840 1315
1840 1712
1844 1735
1845 925
1845 969
1847 874
1847 1720
1850 1310
1853 918
1853 1740
1855 969
1855 1727
1857 874
1858 908
1860 1310
1864 964
1865 900
1866 869
1870 1310
1873 893
1874 964
1875 864
1880 885
1880 1310
1883 959
1885 864
1888 878
1890 1310
1893 959
1895 862
1895 1240
1895 1250
1895 1260
1900 1269
1900 1305
1903 959
1905 1235
1910 1269
1910 1305
1912 954
1915 1230
1919 1274
1920 1305
1921 949
1925 1225
1928 1279
1930 1305
1931 949
1935 1225
1937 1284
1940 944
1940 1300
1944 1220
1947 1284
1950 944
1950 1300
1954 1220
1956 1289
1959 939
1960 1135
1960 1145
1962 1155
1962 1214
1965 1125
1969 939
1972 1159
1972 1210
1975 1120
1978 934
1981 1164
1982 1209
1985 1115
1988 934
1990 1169
1992 1205
1995 1115
1998 934
2000 1169
2001 1200
2004 1110
2007 929
2010 1169
2010 1195
2013 1105
2017 929
2019 1174
2020 1190
2022 1100
2025 960
2025 970
2025 980
2025 990
2027 929
2029 1176
2030 1186
2031 1095
2033 953
2033 996
2036 934
2038 944
2040 1090
2043 999
2050 1085
2053 999
2060 1080
2063 999
2070 1080
2073 999
2079 1075
2083 999
2088 1070
2093 999
2097 1065
2103 999
2105 1055
2113 999
2115 1055
2123 999
2124 1050
2133 999
2133 1045
2142 994
2142 1039
2152 994
2152 1034
2160 1025
2161 999
2170 1020
2171 999
2175 1010
