269 1272
274 1281
277 1264
281 1289
285 1256
289 1295
293 1249
295 1303
300 1241
303 1310
308 1234
312 1315
317 1229
319 1323
322 1219
327 1330
332 1214
335 1337
340 1206
342 1345
350 1201
352 1349
358 1194
359 1357
365 1186
367 1364
373 1179
375 1370
382 1174
384 387
384 397
384 407
384 1375
384 2137
384 2147
384 2157
389 416
389 426
389 436
389 446
389 2102
389 2112
389 2122
390 2165
391 1169
393 1380
394 384
394 455
394 465
394 2077
394 2087
397 475
399 485
399 1162
399 2062
400 1388
400 2165
404 384
404 494
404 504
404 2037
404 2047
406 514
409 524
409 1157
409 2017
409 2027
410 1392
410 2165
411 534
414 386
414 544
414 2002
417 1149
417 1400
419 553
419 563
419 1982
419 1992
419 2160
424 389
424 572
424 582
424 1962
424 1972
427 1144
427 1404
429 591
429 601
429 1947
429 2160
434 389
434 610
434 1937
435 1410
436 1139
439 619
439 629
439 1917
439 1927
439 2160
444 389
444 638
444 1132
444 1415
444 1907
449 647
449 1897
449 2157
453 394
453 1420
454 656
454 666
454 1127
454 1877
454 1887
459 675
459 1867
459 2155
462 685
462 1425
463 394
464 1122
464 1857
467 694
469 1847
469 2155
471 704
471 1430
473 395
474 1117
474 1837
476 713
478 2150
479 723
479 1436
479 1822
482 1109
483 399
484 732
484 1812
488 2148
489 741
489 1440
489 1802
492 404
492 1109
494 750
494 1792
497 760
498 1445
498 2145
499 1782
501 1104
502 404
502 769
504 1772
506 779
507 1450
508 2145
510 1099
512 404
512 1764
514 785
517 795
517 1454
517 1754
517 2140
519 1094
521 409
522 804
522 1744
526 814
526 1459
527 1734
527 2140
528 1089
531 409
534 820
534 1722
536 1463
536 2135
537 830
537 1084
539 1712
540 414
542 839
545 1468
546 2135
547 1079
547 1704
549 847
550 417
552 1694
554 856
555 1470
555 2130
557 1079
559 865
559 1682
560 419
564 874
564 1475
564 1672
565 2130
566 1074
570 422
570 882
572 1664
573 1480
574 892
574 2125
575 1069
577 1654
580 424
582 899
583 1480
584 2125
585 1066
585 1646
589 907
590 427
592 1485
593 1639
593 2120
594 916
595 1064
597 1629
600 429
601 924
602 1489
603 2118
604 1059
605 1621
609 434
609 930
610 1611
612 940
612 1490
613 2113
614 1057
618 439
619 1602
620 947
621 1495
623 2110
624 1054
627 955
627 1594
628 439
631 1498
633 1049
633 2108
634 963
634 1582
637 444
641 1500
642 970
643 1049
643 2103
644 1577
646 449
649 978
649 1567
651 1503
652 1044
653 2098
654 987
655 454
657 1559
661 1505
662 1044
663 2095
664 990
665 454
665 1551
667 1000
671 1508
672 1039
673 1544
673 2093
675 457
675 1007
680 1536
681 1510
682 1015
682 1039
683 2088
684 462
688 1529
690 1022
691 1510
692 1039
693 2083
694 466
694 1520
703 471
703 2078
713 475
713 2073
723 479
723 2070
732 484
732 2065
741 489
741 2060
750 494
750 2055
760 497
760 2050
769 502
770 2045
779 506
780 2040
785 514
789 2035
795 517
798 2030
804 522
807 2025
814 526
816 2020
820 534
825 2015
830 537
834 2010
839 542
842 2004
847 549
852 1999
856 554
860 1990
865 559
870 1985
874 564
880 1980
882 570
889 1975
892 574
897 1969
899 582
905 1960
907 589
914 1955
916 594
922 1949
924 601
930 609
930 1940
940 612
940 1930
947 620
950 1925
955 627
958 1918
963 634
968 1913
970 642
973 1903
978 649
983 1898
987 654
990 664
990 1885
1000 667
1000 1880
1007 675
1008 1873
1015 682
1015 1865
1022 690
1023 1858
1032 694
1033 1855
1039 672
1039 682
1039 1863
1039 1873
1044 652
1044 662
1044 1882
1044 1892
1049 632
1049 642
1049 1901
1049 1911
1054 617
1054 1920
1054 1930
1059 602
1059 1939
1061 1949
1064 587
1064 1959
1069 572
1069 1968
1070 1978
1074 562
1075 1987
1079 547
1079 1997
1084 537
1084 2006
1089 527
1089 2015
1092 2025
1094 517
1097 2034
1099 507
1101 2044
1104 497
1106 2053
1109 482
1109 2063
1114 2072
1117 474
1119 2081
1122 464
1124 2090
1127 454
1129 2099
1132 444
1135 2107
1139 432
1139 2117
1147 424
1147 2124
1151 2134
1152 414
1159 402
1159 2140
1162 2150
1167 394
1169 2158
1172 384
1174 2167
1179 372
1179 2176
1186 2184
1187 364
1194 2190
1195 356
1200 2198
1203 349
1205 2207
1207 339
1212 2215
1215 331
1219 2223
1220 321
1227 2230
1230 316
1234 2238
1235 306
1239 2247
1243 299
1247 2254
1250 291
1254 2262
1258 284
1262 2269
1265 276
1269 2277
1273 269
1279 2277
1282 274
1287 2269
1289 282
1295 2260
1297 289
1303 2253
1304 297
1310 2245
1312 304
1315 314
1315 2235
1324 319
1324 2230
1330 327
1330 2220
1337 335
1338 2213
1345 342
1345 2200
1349 352
1353 2193
1357 359
1360 2185
1364 367
1368 2178
1370 375
1373 2168
1375 384
1380 393
1380 2155
1388 400
1388 2148
1392 410
1393 2138
1400 417
1400 2125
1404 427
1408 2118
1410 435
1413 2108
1415 444
1420 453
1420 2095
1425 462
1425 2085
1430 471
1430 2075
1436 479
1438 2068
1440 489
1440 2055
1445 498
1445 2045
1450 507
1450 2035
1454 517
1455 2025
1459 526
1460 2015
1463 536
1465 2005
1468 545
1470 555
1470 1990
1475 564
1475 1980
1480 573
1480 583
1480 1965
1485 592
1485 1950
1489 602
1490 612
1490 1935
1495 621
1495 1920
1498 631
1500 641
1500 1900
1500 1910
1503 651
1505 661
1505 1880
1505 1890
1508 671
1510 681
1510 691
1510 1855
1510 1865
1520 694
1520 1855
1529 687
1529 1860
1535 1868
1537 679
1543 1875
1545 671
1550 1883
1553 664
1559 1888
1560 656
1564 1897
1568 649
1574 1900
1577 644
1579 1909
1582 634
1587 1915
1592 629
1595 1922
1600 621
1602 1930
1609 612
1610 1937
1619 607
1619 1942
1627 599
1627 1949
1635 1955
1636 594
1644 587
1644 1960
1650 1968
1652 579
1658 1975
1661 574
1667 1980
1669 567
1676 1985
1679 562
1685 1990
1689 557
1694 1995
1697 549
1703 2000
1707 544
1710 2008
1716 539
1720 2012
1725 534
1729 2017
1734 527
1737 2024
1744 522
1746 2029
1754 517
1756 2033
1764 512
1765 2038
1772 504
1773 2045
1782 499
1782 2050
1792 494
1792 2054
1801 2059
1802 489
1811 2063
1812 484
1820 2068
1822 479
1830 2070
1832 479
1839 2075
1841 474
1848 2080
1850 469
1855 1025
1855 1035
1855 1510
1855 1520
1857 2085
1859 464
1860 1529
1863 1018
1865 1039
1865 1510
1867 2089
1868 459
1868 1535
1870 1010
1875 1039
1875 1510
1875 1543
1876 2094
1877 454
1878 1003
1883 1550
1884 1044
1884 1505
1885 990
1886 2095
1887 454
1888 1559
1894 1044
1894 1505
1895 985
1896 2098
1897 449
1897 1564
1900 975
1900 1574
1903 1049
1903 1500
1905 2103
1907 444
1909 970
1909 1579
1913 1049
1913 1500
1915 960
1915 1587
1915 2107
1917 439
1922 1054
1922 1495
1922 1595
1923 953
1925 2110
1927 439
1930 940
1930 1602
1932 1054
1932 1494
1935 2112
1937 434
1937 1610
1940 930
1941 1059
1942 1490
1942 1619
1944 2117
1947 429
1948 923
1949 1627
1950 1064
1951 1485
1954 2120
1955 910
1955 1635
1957 429
1960 1064
1960 1644
1961 1485
1963 903
1963 2125
1966 424
1968 1650
1969 1069
1970 895
1970 1480
1973 2125
1975 885
1975 1658
1976 424
1979 1071
1980 1475
1980 1667
1982 2130
1983 878
1985 419
1985 1676
1988 868
1988 1076
1990 1470
1990 1685
1992 2130
1993 858
1995 419
1995 1694
1998 1079
2000 845
2000 1470
2000 1703
2002 2134
2004 414
2007 1084
2008 838
2008 1710
2009 1465
2012 1720
2012 2135
2013 828
2014 412
2016 1089
2017 1729
2018 818
2018 1460
2021 2140
2024 409
2024 1737
2025 805
2025 1094
2027 1455
2029 1746
2030 795
2031 2140
2033 1756
2034 407
2035 785
2035 1097
2036 1450
2038 1765
2040 2145
2043 778
2044 404
2044 1102
2045 1445
2045 1773
2048 768
2050 1782
2050 2145
2053 758
2054 404
2054 1106
2054 1792
2055 1440
2058 748
2059 1801
2060 2147
2063 399
2063 738
2063 1811
2064 1109
2065 1440
2068 728
2068 1820
2070 715
2070 1830
2070 2150
2072 1115
2073 399
2073 1433
2075 705
2075 1839
2079 2155
2080 695
2080 1848
2082 394
2082 1119
2083 1428
2085 685
2085 1857
2089 1867
2089 2155
2090 675
2091 1124
2092 394
2093 1423
2094 1876
2095 655
2095 665
2095 1886
2098 1896
2099 2155
2100 645
2100 1129
2102 389
2103 1418
2103 1905
2105 635
2107 1915
2108 1135
2108 2160
2110 615
2110 625
2110 1410
2110 1925
2112 389
2112 1935
2115 605
2117 1140
2117 1944
2118 2160
2120 590
2120 1405
2120 1954
2122 389
2125 570
2125 580
2125 1147
2125 1963
2125 1973
2128 2160
2129 1400
2130 550
2130 560
2130 1982
2130 1992
2132 389
2134 1152
2134 2002
2135 535
2135 2012
2137 1394
2137 2165
2140 515
2140 525
2140 2021
2140 2031
2141 384
2142 1159
2145 490
2145 500
2145 2040
2145 2050
2147 1389
2147 2060
2147 2165
2150 475
2150 2070
2151 384
2151 1164
2155 450
2155 460
2155 1380
2155 2079
2155 2089
2155 2099
2157 2165
2160 415
2160 425
2160 435
2160 1169
2160 2108
2160 2118
2160 2128
2161 384
2165 394
2165 404
2165 1375
2165 2137
2165 2147
2165 2157
2168 1175
2174 1370
2177 1180
2182 1364
2185 1187
2190 1355
2192 1195
2198 1348
2200 1202
2208 1343
2209 1207
2215 1335
2217 1214
2224 1330
2226 1219
2230 1229
2230 1320
2239 1234
2239 1315
2247 1240
2247 1309
2255 1247
2255 1300
2262 1255
2263 1293
2270 1262
2270 1285
2277 1270
