314 552
314 562
314 572
314 582
314 592
314 602
314 612
314 622
314 632
314 642
314 652
314 662
314 672
314 682
314 692
314 702
319 711
319 721
319 731
319 741
319 751
324 549
324 760
324 770
324 780
327 790
329 800
329 810
334 549
334 819
334 829
339 838
339 848
344 549
344 857
344 867
349 876
349 886
354 549
354 895
357 905
362 914
363 554
364 924
369 933
373 554
374 942
379 951
383 554
384 960
387 970
393 555
394 978
399 987
403 559
404 996
411 1004
413 559
419 1010
422 1020
423 559
430 1027
432 564
437 1035
442 564
445 1042
452 564
452 1050
462 564
462 1054
469 1062
471 569
479 1065
481 569
488 1070
491 569
497 1075
501 569
506 1080
510 574
515 1085
520 574
524 1090
530 574
534 1090
540 574
543 1095
550 574
553 1095
559 579
562 1100
569 579
572 1100
579 579
581 1105
589 579
591 1105
599 579
600 1110
608 584
610 1112
618 584
620 1115
628 584
630 1117
638 584
640 1120
648 585
650 1122
658 589
660 1122
668 589
670 1125
678 589
679 1130
688 589
689 1130
698 589
699 1130
707 594
708 1135
717 594
718 1135
727 594
728 1135
737 594
737 1140
747 594
747 1140
757 594
757 1140
767 594
767 1144
776 599
777 1144
786 599
787 1145
796 599
797 1145
806 599
807 1145
816 599
817 1145
826 599
826 1150
835 604
836 1148
845 601
846 1150
855 604
856 1150
865 604
866 1150
875 604
876 1150
885 604
886 1150
895 604
896 1150
905 607
906 1150
915 609
916 1150
925 609
926 1150
935 609
936 1150
945 609
946 1150
955 609
956 1150
965 609
965 1145
974 1150
975 609
983 1145
985 612
993 1145
995 614
1003 1145
1005 614
1013 1145
1015 614
1023 1145
1025 614
1032 1140
1035 614
1042 1140
1045 614
1052 1140
1055 614
1062 1139
1065 614
1072 1135
1075 614
1082 1135
1085 617
1092 1134
1095 619
1102 1130
1105 617
1112 1130
1115 619
1122 1129
1124 1747
1124 1762
1124 1777
1124 1787
1124 1797
1124 1807
1124 1817
1124 1827
1124 1837
1124 1847
1124 1857
1124 1867
1124 1877
1124 1887
1124 1897
1124 1907
1124 1917
1124 1927
1124 1937
1124 1947
1124 1957
1124 1967
1124 1977
1124 1987
1124 1997
1124 2007
1124 2017
1124 2027
1124 2037
1124 2047
1124 2057
1124 2067
1124 2077
1124 2087
1124 2107
1125 619
1129 1642
1129 1657
1129 1667
1129 1677
1129 1687
1129 1697
1129 1707
1129 1717
1129 1727
1129 1737
1129 2096
1129 2116
1129 2126
1129 2136
1129 2146
1129 2156
1132 1125
1134 1562
1134 1577
1134 1587
1134 1597
1134 1607
1134 1617
1134 1627
1134 2165
1134 2175
1134 2185
1134 2195
1135 619
1137 2205
1139 1487
1139 1502
1139 1512
1139 1522
1139 1532
1139 1542
1139 1552
1139 2215
1139 2225
1139 2235
1142 1124
1142 2245
1144 1427
1144 1437
1144 1447
1144 1457
1144 1467
1144 1477
1144 2255
1144 2265
1145 619
1147 2275
1149 1367
1149 1377
1149 1387
1149 1397
1149 1407
1149 1417
1149 2285
1149 2295
1152 1120
1154 1317
1154 1327
1154 1337
1154 1347
1154 1357
1154 2304
1154 2314
1155 619
1156 2324
1159 1272
1159 1282
1159 1292
1159 1302
1159 2334
1162 1119
1164 1222
1164 1232
1164 1242
1164 1252
1164 1262
1164 2343
1164 2353
1165 619
1169 1177
1169 1187
1169 1197
1169 1207
1169 2362
1169 2372
1172 1115
1174 1132
1174 1142
1174 1152
1174 1162
1174 2381
1175 619
1179 1123
1179 2390
1182 2400
1185 619
1187 2409
1194 2417
1195 619
1199 2426
1204 2435
1205 619
1210 2443
1215 619
1218 2450
1225 619
1225 2458
1233 2465
1235 619
1242 2470
1245 622
1252 2474
1255 621
1262 2475
1265 624
1272 2475
1275 622
1282 2475
1285 621
1292 2475
1295 624
1302 2475
1305 622
1311 2470
1315 621
1320 2465
1325 624
1330 2460
1335 622
1340 2455
1345 621
1350 2450
1355 624
1360 2450
1365 622
1369 2445
1375 621
1379 2445
1385 624
1388 2440
1395 622
1398 2440
1405 621
1408 2440
1415 624
1418 2440
1425 622
1428 2440
1435 621
1438 2440
1445 624
1448 2440
1455 622
1457 2445
1465 621
1467 2445
1475 624
1477 2445
1485 622
1486 2450
1495 621
1496 2453
1505 624
1506 2455
1515 622
1515 2460
1524 2465
1525 621
1533 2470
1535 624
1542 2475
1545 622
1552 2479
1555 621
1561 2484
1565 624
1571 2485
1574 619
1580 2490
1584 619
1589 2485
1594 619
1599 2485
1604 619
1609 2482
1614 619
1619 2477
1624 619
1629 2472
1634 619
1634 2462
1642 2454
1644 619
1647 2444
1654 619
1655 2430
1660 2415
1664 619
1665 1115
1665 1125
1665 1145
1665 2405
1667 1135
1670 1154
1670 1164
1670 1174
1670 1184
1670 1194
1670 1204
1670 2390
1674 619
1675 1115
1675 1213
1675 1223
1675 1233
1675 1243
1675 1253
1675 1265
1675 2370
1675 2380
1680 1274
1680 1284
1680 1294
1680 1304
1680 1314
1680 1324
1680 1335
1680 2350
1680 2360
1684 619
1684 1120
1685 1344
1685 1354
1685 1364
1685 1374
1685 1384
1685 1395
1685 2325
1685 2335
1690 1404
1690 1414
1690 1424
1690 1434
1690 1444
1690 1454
1690 1470
1690 2300
1690 2310
1694 619
1694 1120
1695 1479
1695 1489
1695 1499
1695 1509
1695 1519
1695 1529
1695 1545
1695 2260
1695 2270
1695 2280
1695 2290
1700 1554
1700 1564
1700 1574
1700 1584
1700 1594
1700 1604
1700 1614
1700 1630
1700 2215
1700 2225
1700 2235
1700 2245
1704 619
1704 1120
1705 1639
1705 1649
1705 1659
1705 1669
1705 1679
1705 1689
1705 1699
1705 1709
1705 1719
1705 1729
1705 1745
1705 2140
1705 2155
1705 2165
1705 2175
1705 2185
1705 2195
1705 2205
1710 1754
1710 1764
1710 1774
1710 1784
1710 1794
1710 1804
1710 1814
1710 1824
1710 1834
1710 1844
1710 1854
1710 1864
1710 1874
1710 1884
1710 1894
1710 1904
1710 1914
1710 1924
1710 1934
1710 1944
1710 1954
1710 1964
1710 1974
1710 1984
1710 1994
1710 2004
1710 2014
1710 2024
1710 2034
1710 2044
1710 2054
1710 2064
1710 2074
1710 2084
1710 2094
1710 2104
1710 2114
1710 2124
1713 1125
1714 616
1723 1125
1724 619
1732 1130
1734 616
1742 1130
1744 614
1752 1130
1754 614
1761 1135
1764 614
1771 1135
1774 614
1781 1135
1784 614
1790 1140
1794 614
1800 1140
1804 614
1810 1140
1814 614
1820 1142
1824 614
1830 1145
1834 612
1840 1145
1844 609
1850 1145
1854 609
1859 1150
1864 609
1869 1150
1874 609
1879 1150
1884 609
1889 1150
1894 609
1898 1155
1904 609
1907 1150
1914 607
1916 1155
1924 607
1926 1155
1934 604
1936 1155
1944 604
1946 1155
1954 604
1956 1158
1964 604
1966 1155
1974 604
1975 1160
1984 604
1985 1160
1994 601
1995 1160
2004 599
2005 1160
2014 599
2015 1160
2024 599
2025 1160
2034 599
2035 1160
2044 599
2045 1160
2054 599
2055 1160
2063 594
2065 1160
2073 594
2075 1160
2083 594
2085 1160
2093 594
2095 1160
2103 594
2104 1155
2113 594
2114 1155
2123 594
2124 1155
2132 589
2134 1155
2142 589
2144 1155
2152 589
2153 1150
2162 589
2163 1150
2172 589
2173 1150
2182 584
2182 1145
2192 584
2192 1145
2201 1140
2202 584
2211 1140
2212 584
2220 1135
2222 584
2230 1135
2232 579
2239 1130
2242 579
2249 1127
2252 579
2259 1122
2262 579
2269 1117
2272 579
2279 1115
2282 579
2289 1115
2291 574
2299 1115
2301 574
2309 1115
2311 574
2319 1115
2321 574
2328 1110
2331 570
2338 1110
2341 569
2348 1108
2351 569
2358 1105
2361 569
2367 1100
2371 565
2376 1095
2381 564
2385 1090
2391 564
2395 1085
2401 564
2405 1080
2411 564
2413 1073
2420 559
2423 1068
2430 559
2430 1060
2438 1053
2440 559
2445 1045
2450 559
2450 1035
2458 1028
2459 554
2465 1015
2469 554
2473 1008
2478 998
2479 554
2483 988
2488 978
2489 552
2493 968
2495 955
2499 549
2500 945
2505 930
2509 549
2510 915
2515 895
2515 905
2519 549
2520 870
2520 880
2525 845
2525 855
2529 549
2530 810
2530 820
2530 830
2535 765
2535 775
2535 785
2535 795
2539 551
2540 561
2540 575
2540 590
2540 610
2540 660
2540 675
2540 695
2540 705
2540 715
2540 725
2540 735
2540 745
2540 755
2545 599
2545 619
2545 629
2545 639
2545 649
2545 684
