384 387
384 397
384 407
384 2137
384 2147
384 2157
389 416
389 426
389 437
389 2102
389 2117
389 2127
390 2165
394 384
394 446
394 456
397 2094
399 465
399 475
399 2077
400 2165
404 384
404 1272
404 2062
405 483
409 493
409 2052
410 2160
412 1279
414 386
414 502
414 517
414 1267
417 2044
419 526
419 2032
420 1285
420 2160
424 389
424 1262
424 2017
429 530
429 540
429 1290
429 2007
429 2155
432 550
433 394
434 1257
434 1992
437 559
438 1295
439 2155
442 389
442 1984
444 567
444 1252
447 1300
447 1974
449 576
449 2155
451 394
454 585
454 1247
454 1962
456 1305
457 595
458 2150
459 1952
460 399
462 1239
464 603
464 1942
465 1310
468 2148
469 612
470 399
472 1239
474 621
474 1932
475 1312
478 2145
479 630
479 1917
480 402
480 1231
482 1320
484 639
487 1909
487 2140
488 409
489 648
490 1226
491 1325
494 1897
496 2135
497 655
498 410
500 1221
501 1328
502 664
502 1889
505 2130
507 415
507 1879
509 672
509 1335
510 1216
514 681
515 1871
515 2125
517 414
518 1340
519 690
520 1211
520 1861
524 699
525 1851
525 2125
526 419
528 1340
530 429
530 707
530 1206
530 1841
532 1350
534 2120
537 715
538 1199
539 1832
540 429
542 1354
543 2115
544 723
547 1824
548 1199
549 732
550 432
552 1355
553 2113
554 741
554 1812
555 1191
559 437
559 750
559 1802
560 2105
561 1360
565 758
565 1186
567 444
567 1794
569 1366
570 2100
573 765
574 1782
575 1181
576 449
579 773
579 1370
580 2095
582 1774
583 1174
584 787
585 454
588 1375
588 2088
589 1762
593 1174
594 790
595 457
597 800
597 1380
597 1754
598 2088
602 1169
604 462
604 1742
605 807
605 2080
606 1385
609 817
611 1164
612 469
612 1734
614 826
615 1390
615 2075
617 1724
619 1157
621 474
621 834
624 1395
624 1712
624 2070
629 840
629 1152
630 479
632 850
632 1704
633 1400
633 2065
639 484
639 858
639 1147
639 1692
642 1405
642 2059
644 867
644 1682
648 489
649 1144
652 874
652 1409
652 1674
652 2054
655 497
659 882
659 1142
660 1666
662 1410
662 2049
664 502
664 891
665 1656
667 2040
669 900
669 1137
671 1415
672 509
673 1649
675 908
676 2035
679 1132
679 1637
680 1420
681 514
683 915
684 1627
685 2030
687 925
689 1127
689 1425
690 519
692 1619
694 933
694 2025
698 1430
699 942
699 1122
699 1607
700 522
702 2019
707 530
707 949
708 1430
709 1119
709 1592
709 1602
710 2010
711 959
715 537
717 1435
717 1584
718 1114
719 965
720 2005
722 975
724 542
725 1576
726 1440
728 1114
728 1998
730 982
730 1566
732 549
735 1445
737 990
737 1109
738 1993
739 1557
741 554
742 999
745 1445
745 1985
746 1104
747 1549
749 1007
750 559
752 1539
754 1450
755 1980
756 1100
757 1014
758 565
760 1531
764 1022
764 1450
765 573
765 1975
766 1095
768 1524
769 1031
772 1514
773 579
773 1455
773 1968
776 1095
779 1035
780 587
780 1506
782 1045
782 1460
783 1963
786 1090
788 1499
790 587
790 1052
790 1955
792 1460
794 1062
795 1491
796 1090
797 595
799 1950
801 1465
803 1484
804 1065
805 602
806 1089
807 1075
807 1944
809 1471
814 607
814 1083
817 1939
822 614
825 1930
831 619
835 1925
839 626
844 1920
848 631
852 1914
855 639
862 1909
865 642
870 1900
872 650
878 1893
880 657
888 1888
889 662
898 1883
899 666
905 674
905 1875
913 680
914 1870
922 685
922 1864
930 692
932 1859
939 697
940 1850
947 704
949 1845
956 709
958 1840
964 716
967 1834
973 721
977 1829
980 729
985 1815
988 735
995 1810
997 740
1003 1803
1005 747
1012 755
1013 1798
1020 1790
1022 759
1029 767
1029 1785
1035 1775
1037 774
1044 782
1045 1770
1052 789
1053 1763
1060 1755
1061 794
1068 1748
1069 801
1075 809
1075 1740
1084 814
1085 1740
1089 787
1089 797
1089 1750
1089 1760
1094 772
1094 1769
1094 1779
1099 757
1099 1788
1100 1798
1104 742
1105 1807
1109 732
1109 1817
1114 717
1114 1826
1114 1836
1119 702
1119 1845
1124 692
1124 1854
1129 682
1129 1863
1134 672
1134 1872
1139 657
1139 1881
1139 1891
1144 647
1144 1900
1149 632
1150 1908
1154 622
1154 1918
1159 612
1159 1927
1159 1937
1167 604
1167 1944
1171 1954
1172 594
1174 582
1176 1963
1182 574
1184 1970
1187 564
1187 1980
1189 1990
1192 554
1195 1998
1199 537
1200 2007
1204 2017
1207 529
1212 519
1212 2024
1216 2034
1217 509
1221 2043
1222 499
1225 2053
1227 489
1230 2062
1232 479
1239 467
1239 2067
1239 2077
1244 457
1244 2086
1249 447
1249 2095
1254 437
1255 2103
1259 427
1260 2112
1264 2122
1267 419
1272 409
1272 2129
1281 414
1282 2124
1285 424
1290 433
1290 2110
1295 2100
1298 440
1302 450
1303 2093
1307 459
1308 2083
1310 469
1310 2070
1315 478
1318 2063
1323 485
1325 495
1325 2050
1330 504
1330 2040
1335 513
1335 2030
1340 522
1340 2020
1347 530
1348 2013
1352 539
1353 2003
1355 549
1358 1993
1360 558
1363 1983
1365 567
1370 576
1370 1970
1375 585
1375 1955
1380 594
1383 1948
1385 603
1388 1938
1390 612
1393 1928
1394 622
1398 1918
1399 631
1403 641
1403 1908
1405 1895
1408 650
1410 660
1413 1888
1415 669
1418 1878
1420 678
1423 1868
1425 687
1425 1855
1429 697
1430 707
1430 1845
1435 716
1435 1835
1440 725
1440 1820
1445 734
1445 744
1445 1805
1450 753
1450 763
1450 1790
1455 772
1455 1775
1459 782
1460 792
1460 1760
1465 801
1465 1740
1465 1750
1471 809
1475 1742
1481 805
1482 1750
1489 797
1490 1757
1497 789
1499 1762
1505 781
1507 1769
1514 772
1514 1777
1522 1784
1524 767
1529 1792
1532 759
1539 1795
1540 751
1545 1803
1550 746
1554 1808
1558 739
1562 1815
1565 731
1570 1822
1575 726
1577 1830
1583 719
1587 1834
1590 711
1595 1840
1600 706
1604 1845
1610 701
1610 1853
1618 694
1620 1857
1625 686
1627 1865
1635 681
1637 1869
1643 674
1644 1877
1652 669
1654 1880
1661 664
1663 1885
1670 659
1670 1893
1676 650
1678 1900
1684 644
1687 1905
1693 639
1695 1912
1702 634
1704 1917
1710 626
1714 1920
1720 621
1720 1928
1728 614
1728 1935
1737 609
1738 1935
1740 1075
1740 1465
1742 1475
1745 1084
1745 1943
1747 604
1748 1068
1750 1465
1750 1482
1753 1950
1754 1089
1755 596
1755 1060
1757 1490
1760 1460
1762 1499
1762 1955
1763 589
1763 1053
1764 1091
1769 1507
1770 1045
1770 1460
1770 1962
1772 584
1774 1094
1775 1035
1777 1514
1779 1455
1779 1967
1780 576
1784 1096
1784 1522
1785 1025
1785 1975
1789 1452
1790 571
1792 1529
1793 1018
1794 1099
1794 1980
1795 1539
1798 564
1799 1450
1800 1010
1803 1104
1803 1545
1803 1985
1805 1000
1808 564
1808 1445
1808 1554
1812 1109
1812 1990
1813 993
1815 556
1815 1562
1818 983
1818 1443
1822 1109
1822 1570
1822 1994
1823 549
1828 978
1828 1440
1829 2002
1830 1577
1831 1114
1832 544
1833 968
1834 1587
1837 1435
1837 2009
1840 536
1840 955
1840 1119
1840 1595
1845 945
1845 1604
1845 2015
1846 1430
1848 529
1850 1122
1853 938
1853 1610
1854 2020
1855 1425
1857 524
1857 1620
1859 1127
1860 925
1863 2025
1865 1420
1865 1627
1866 519
1868 918
1869 1131
1869 1637
1872 2030
1873 908
1874 512
1875 1420
1877 1644
1878 1136
1880 900
1880 1654
1880 2037
1884 507
1884 1415
1885 890
1885 1663
1888 1139
1889 2042
1890 880
1892 499
1892 1409
1893 1670
1897 1144
1897 2049
1898 873
1900 1678
1901 494
1902 1409
1904 2057
1905 865
1905 1687
1907 1144
1909 487
1910 855
1910 1154
1910 1400
1912 1695
1914 2060
1917 1704
1918 848
1919 482
1920 1154
1920 1395
1920 1714
1923 2065
1925 835
1928 1720
1929 477
1929 1159
1930 825
1930 1390
1932 2070
1935 1728
1935 1738
1938 818
1939 467
1939 1161
1940 1385
1941 2075
1943 808
1943 1745
1945 1169
1949 462
1949 2081
1950 795
1950 1380
1950 1753
1955 1172
1955 1762
1958 788
1959 457
1959 1375
1959 2085
1962 1770
1964 1177
1965 775
1967 1779
1968 1370
1968 2090
1969 452
1972 1184
1973 768
1975 1785
1975 2098
1978 1368
1979 447
1980 755
1980 1794
1981 1189
1985 745
1985 1360
1985 1803
1985 2102
1989 442
1990 1812
1991 1189
1992 2110
1993 738
1995 1355
1995 1821
1997 434
1998 728
1999 1196
2001 1829
2002 2109
2005 720
2005 1350
2007 429
2009 1199
2009 1836
2009 2117
2010 710
2015 1345
2015 1844
2017 424
2017 1205
2018 703
2019 2120
2020 1853
2024 1340
2025 690
2025 1212
2025 1862
2027 424
2028 2125
2030 680
2032 1870
2033 1335
2034 1217
2036 419
2037 1879
2038 673
2038 2125
2040 1889
2042 1330
2044 665
2044 1221
2045 2133
2046 415
2048 1895
2050 655
2051 1325
2053 1226
2053 1904
2054 409
2055 645
2055 2135
2060 1320
2060 1912
2063 638
2063 1229
2064 407
2064 2140
2065 625
2065 1239
2065 1921
2068 1313
2068 1931
2073 618
2073 2145
2074 402
2075 1239
2075 1939
2078 1310
2080 610
2080 1948
2083 2145
2084 402
2084 1244
2085 595
2085 1957
2087 1305
2090 585
2092 1965
2092 2150
2093 1249
2094 397
2095 1975
2096 1300
2098 578
2100 1984
2101 2155
2102 1254
2103 568
2104 392
2105 1295
2108 558
2108 1990
2110 2000
2111 1259
2111 2155
2114 392
2114 1290
2115 540
2115 550
2115 2009
2120 1264
2120 2018
2121 2158
2122 1284
2123 533
2124 389
2125 515
2125 2027
2125 2037
2128 1270
2130 505
2131 2158
2132 1280
2132 2045
2134 387
2135 495
2135 2055
2139 2165
2140 485
2140 2064
2144 384
2145 470
2145 2073
2145 2083
2148 2160
2150 455
2150 2092
2154 384
2155 425
2155 435
2155 445
2155 2101
2155 2111
2155 2121
2157 2165
2160 405
2160 415
2160 2130
2160 2145
2164 386
2164 2157
2165 396
