4 102
12 94
12 109
22 94
22 110
32 94
32 110
41 115
42 94
51 115
52 94
61 115
62 94
71 115
72 94
76 124
82 94
84 130
92 94
94 130
102 94
104 127
112 94
114 125
122 89
124 125
132 89
134 125
142 89
144 125
152 89
154 125
162 89
164 125
171 94
174 125
180 89
184 125
190 89
194 125
200 89
203 130
210 89
213 130
220 89
223 130
230 89
233 130
240 89
243 130
250 89
253 130
260 89
263 130
269 84
273 130
279 84
282 135
289 84
292 135
299 82
302 135
309 79
312 135
319 79
322 135
329 79
331 140
338 74
341 140
348 74
351 140
358 74
361 143
368 74
371 145
378 74
381 145
388 74
391 148
398 74
401 150
407 69
411 150
417 69
421 150
427 69
431 150
437 69
441 150
447 69
451 150
457 69
460 155
467 69
470 155
477 69
480 155
487 69
490 155
496 74
500 155
506 74
510 155
516 74
519 160
526 74
529 160
536 74
539 160
546 74
549 160
556 74
559 160
566 74
569 160
576 74
579 160
586 74
588 165
595 79
598 165
605 79
608 165
615 79
618 165
625 79
628 165
635 79
638 165
645 79
648 165
655 79
658 165
664 74
668 165
674 74
678 165
684 74
688 165
694 74
698 165
704 74
708 165
714 74
718 165
724 74
728 165
734 74
738 163
744 74
748 160
754 72
758 160
764 69
768 160
774 69
778 160
783 74
788 160
793 74
798 160
803 74
808 160
813 74
818 160
822 69
827 155
832 69
837 155
842 69
847 155
852 69
857 155
862 69
867 155
872 69
877 155
882 69
887 155
892 69
897 155
902 69
907 154
912 69
917 150
922 69
927 150
932 69
937 150
942 69
947 150
952 69
957 150
962 64
967 150
972 64
977 150
982 64
987 150
992 64
996 145
1002 64
1006 145
1012 64
1016 145
1022 64
1026 145
1032 64
1036 145
1042 64
1046 145
1051 59
1056 145
1061 59
1066 145
1071 55
1076 145
1081 50
1085 140
1089 44
1095 140
1097 50
1100 60
1105 69
1105 140
1115 69
1115 140
1125 66
1125 140
1135 64
1135 140
1145 64
1145 140
1155 67
1155 140
1165 69
1165 140
1174 145
1175 66
1184 145
1185 64
1194 59
1194 142
1204 59
1204 145
1214 61
1214 145
1220 69
1224 142
1230 69
1234 140
1239 64
1244 140
1245 56
1253 49
1254 140
1262 44
1264 140
1267 150
1270 36
1274 158
1278 29
1279 167
1287 24
1287 174
1295 180
1296 19
1304 185
1306 15
1313 190
1314 9
1322 195
1324 9
1332 195
1333 4
1340 30
1340 40
1340 50
1340 60
1340 70
1340 170
1340 180
1343 5
1345 15
1348 76
1348 163
1350 150
1355 140
1358 79
1365 140
1368 80
1375 140
1378 79
1385 135
1387 74
1395 135
1397 74
1400 84
1405 135
1410 84
1415 135
1420 84
1425 135
1430 84
1434 130
1440 84
1444 130
1449 89
1453 135
1459 89
1463 133
1469 89
1469 125
1479 89
1479 125
1489 89
1489 125
1498 120
1499 89
1507 125
1509 87
1517 125
1519 84
1527 125
1529 84
1536 130
1538 79
1546 133
1547 74
1554 140
1555 66
1563 59
1563 145
1572 54
1572 150
1580 46
1581 155
1590 41
1591 155
1600 39
1600 160
1609 34
1610 160
1615 85
1615 95
1615 105
1619 32
1620 160
1623 78
1623 111
1628 68
1629 29
1630 119
1630 160
1634 60
1635 128
1639 29
1640 160
1642 54
1643 135
1645 37
1645 145
