4 187
4 197
4 207
4 217
9 226
9 236
9 246
12 179
14 255
14 265
17 169
19 274
22 159
24 283
29 292
31 154
39 295
41 154
45 303
51 154
55 305
61 154
65 305
70 159
75 305
80 159
84 300
90 162
94 300
99 167
103 295
109 171
113 293
119 174
120 285
129 176
129 280
139 179
139 277
149 181
149 275
158 270
159 184
168 189
168 268
178 189
178 265
182 179
184 162
188 265
192 154
194 282
197 270
199 291
202 149
204 278
206 299
210 270
212 144
214 305
220 313
221 139
228 320
230 134
237 325
240 131
247 329
250 129
256 334
259 124
264 340
269 124
273 345
278 119
282 350
287 114
292 350
297 109
301 355
307 109
311 358
317 104
320 363
327 104
330 367
336 99
340 370
346 99
350 370
356 95
359 375
366 90
369 375
376 85
379 375
386 84
389 375
395 79
399 375
405 76
408 380
415 71
418 380
425 66
428 380
433 59
438 380
443 59
448 380
452 54
458 380
462 54
468 380
472 54
478 380
481 59
488 380
491 59
498 380
499 66
505 74
508 380
515 77
518 380
524 82
528 380
534 86
538 380
540 94
548 100
548 380
555 108
558 378
561 100
568 375
569 92
577 84
578 375
587 79
587 370
596 365
597 79
604 357
606 74
614 352
616 70
622 344
626 65
627 334
632 324
636 60
640 310
646 59
649 305
656 55
659 305
666 54
669 305
676 50
679 305
686 49
688 310
696 49
698 310
705 44
707 315
715 44
716 310
725 41
726 310
733 34
736 310
743 34
746 310
752 29
756 310
762 29
766 310
771 24
776 310
780 19
785 305
789 12
795 305
797 4
805 305
807 4
815 305
817 4
825 305
826 9
830 19
834 300
838 25
844 300
847 30
852 39
854 297
859 47
864 295
867 54
874 62
874 292
874 337
880 70
880 345
882 329
884 287
884 357
888 76
890 321
890 335
892 280
892 349
892 364
894 84
898 314
899 330
899 340
900 355
902 279
902 304
904 84
908 348
912 275
912 299
914 82
914 287
915 330
915 340
923 323
924 79
928 313
930 300
934 79
935 275
935 285
944 79
944 270
954 77
954 270
963 275
964 74
973 275
974 74
983 275
984 74
993 273
994 74
1003 270
1004 74
1013 270
1014 74
1023 270
1024 74
1033 270
1034 74
1042 265
1044 72
1051 260
1054 69
1061 260
1063 74
1070 255
1073 75
1080 83
1080 255
1085 92
1085 102
1090 255
1092 110
1099 250
1100 117
1107 125
1109 250
1115 132
1119 247
1120 141
1123 151
1129 245
1130 159
1138 165
1139 242
1142 175
1149 237
1150 182
1155 191
1157 229
1160 200
1162 219
1165 209
