4 167
4 177
4 187
4 197
9 206
12 159
14 215
17 149
23 220
27 144
30 228
36 139
40 232
45 134
49 237
55 131
59 240
65 129
68 245
75 126
78 245
85 121
88 245
95 119
98 245
105 116
108 245
115 114
118 245
125 114
128 245
135 114
138 245
145 114
148 245
155 114
158 245
165 114
168 245
175 114
178 243
185 114
188 240
195 114
198 240
205 114
208 240
215 114
217 235
225 114
227 235
235 114
236 230
245 114
246 230
255 117
256 230
264 82
264 92
265 119
265 225
272 74
272 99
275 119
275 225
281 104
282 69
285 119
285 225
291 108
292 69
295 119
295 225
302 69
305 115
305 225
312 64
315 225
322 64
325 220
332 59
335 220
342 59
344 262
345 220
349 247
349 271
352 59
355 220
357 239
359 275
362 59
365 220
366 234
369 275
371 54
375 220
379 275
381 54
389 275
391 54
399 275
401 54
409 275
410 49
419 275
420 49
429 275
430 49
438 270
440 49
448 270
449 44
458 270
459 44
468 270
469 44
478 270
479 44
487 265
489 44
497 265
499 44
507 265
509 44
516 260
519 44
526 260
529 44
536 260
539 44
545 255
549 44
553 248
559 44
563 243
568 49
573 238
577 54
583 233
587 54
590 225
596 59
600 225
605 64
610 225
615 67
620 227
624 72
630 230
634 74
640 230
644 76
650 230
654 74
660 230
664 74
670 230
674 74
680 230
684 74
690 230
694 74
700 230
703 69
710 61
710 230
718 54
719 242
720 230
724 251
727 49
729 237
731 259
735 41
737 230
741 260
743 34
747 230
750 26
751 260
758 19
761 263
767 14
771 265
777 9
781 265
787 9
791 265
796 4
801 265
805 9
811 265
815 9
820 260
823 15
830 23
830 260
838 30
840 255
843 39
850 47
850 255
859 52
859 250
864 61
868 245
873 66
878 245
883 69
887 240
893 69
896 235
902 74
905 230
912 74
915 230
921 79
925 225
930 84
935 225
940 84
945 225
950 84
955 225
959 89
965 225
969 89
975 225
979 91
985 225
989 94
995 225
999 94
1005 225
1008 99
1015 225
1018 99
1025 225
1028 100
1035 225
1038 104
1045 225
1048 105
1054 220
1058 109
1064 220
1068 110
1074 220
1078 114
1083 215
1088 115
1093 215
1097 120
1103 213
1107 124
1113 210
1116 129
1123 208
1126 129
1133 205
1135 134
1142 200
1145 137
1152 199
1153 144
1162 149
1162 195
1171 154
1172 194
1180 159
1182 189
1185 168
1190 177
