434 987
434 997
434 1007
434 1017
434 1027
439 977
439 1036
444 967
444 1045
447 1055
452 959
456 1060
460 951
465 1065
468 944
474 1070
477 939
483 1075
485 931
492 1080
493 924
502 919
502 1084
510 911
512 1085
518 904
521 1090
525 896
530 1095
533 889
539 1100
540 881
548 874
548 1105
557 869
558 1105
566 864
567 1110
575 859
575 1117
582 1125
585 856
592 1129
595 854
599 832
599 842
601 1134
604 822
609 812
611 1135
617 804
620 1140
625 796
630 1142
633 789
640 1145
642 784
650 1147
651 779
659 772
660 1150
669 767
670 1150
679 764
680 1150
688 759
690 1152
697 754
700 1155
707 754
710 1155
716 749
720 1157
726 749
730 1160
735 744
740 1162
745 744
750 1165
755 744
760 1165
765 744
769 1170
774 562
774 572
775 744
779 552
779 1170
782 579
784 542
785 744
789 1170
790 585
794 537
795 744
799 1170
800 585
804 532
805 744
808 1175
810 585
814 527
815 744
818 1175
820 585
824 524
825 744
828 1175
830 585
833 519
835 744
838 1175
840 585
843 519
845 744
848 1175
850 585
853 519
855 744
858 1175
860 585
863 519
864 727
864 737
868 1175
869 452
869 462
869 717
870 585
873 519
874 432
874 442
874 471
874 707
876 593
877 1180
879 422
879 480
879 490
879 500
879 510
879 603
879 687
879 697
884 412
884 612
884 622
884 632
884 642
884 652
884 662
884 672
887 1180
894 407
897 1180
902 399
907 1180
912 394
917 1180
922 394
927 1180
932 394
937 1180
939 402
940 412
945 421
947 1180
948 431
950 441
955 450
955 460
955 605
955 615
955 625
955 635
955 645
955 655
955 665
955 675
955 685
957 695
957 1180
960 469
960 479
960 489
960 499
960 509
960 519
960 529
960 705
960 715
962 725
964 600
967 734
967 1180
970 529
970 744
973 595
977 1180
979 749
980 529
983 595
987 1180
989 749
990 529
992 590
997 1180
998 754
1000 529
1002 589
1007 1180
1008 754
1010 529
1012 585
1017 1180
1018 754
1020 529
1021 580
1027 1180
1028 754
1030 529
1031 580
1037 1180
1038 754
1040 529
1040 575
1047 1180
1048 754
1050 529
1050 575
1057 1180
1058 754
1059 570
1060 529
1067 1180
1068 565
1068 755
1070 532
1075 555
1077 540
1077 1180
1078 759
1087 1180
1088 759
1097 1180
1098 760
1107 1180
1108 764
1117 769
1117 1180
1127 769
1127 1180
1136 1175
1137 769
1146 774
1146 1175
1155 1170
1156 774
1165 1165
1166 774
1175 779
1175 1160
1185 779
1185 1160
1194 784
1194 1155
1203 1150
1204 784
1213 1148
1214 786
1223 791
1223 1143
1230 799
1233 1138
1238 805
1242 815
1243 1133
1245 825
1245 835
1247 845
1250 855
1253 1128
1258 861
1263 1123
1268 864
1273 1118
1278 865
1283 1115
1288 869
1292 1110
1297 874
1301 1105
1307 874
1310 1100
1316 879
1318 1093
1325 884
1325 1085
1334 1080
1335 887
1343 1075
1345 889
1352 1069
1355 892
1362 1065
1364 897
1371 1060
1374 901
1380 1055
1383 906
1390 1050
1393 910
1398 1043
1402 915
1408 1038
1410 922
1415 1030
1417 930
1420 1020
1425 937
1425 1010
1430 946
1430 1000
1435 955
1435 965
1435 975
1435 985
