154 157
154 167
154 177
154 187
154 197
154 207
154 217
154 227
154 237
154 247
154 257
154 267
154 277
154 287
154 297
154 307
154 317
154 327
154 337
154 347
154 357
154 367
164 154
164 370
174 154
174 370
184 154
184 370
194 154
194 370
204 154
204 370
214 154
214 370
224 154
224 370
234 154
234 370
244 154
244 370
254 154
254 370
264 154
264 370
274 154
274 370
284 154
284 370
294 154
294 370
304 156
304 367
305 166
305 176
305 340
305 350
314 345
315 179
323 350
324 174
332 355
333 169
339 363
339 373
339 383
339 393
339 403
339 413
339 423
339 433
339 443
339 453
339 463
339 473
339 483
339 493
339 503
339 513
339 523
339 533
339 543
339 553
339 563
339 573
339 583
339 593
339 603
339 613
339 623
339 633
339 643
339 653
339 663
339 673
339 683
339 693
339 703
339 713
339 723
339 733
339 743
339 753
339 763
339 773
339 783
339 793
339 803
339 813
339 823
339 833
339 843
339 853
339 863
339 873
339 883
339 893
339 903
339 913
339 923
339 933
339 943
339 953
339 963
339 973
339 983
339 993
339 1003
339 1013
339 1023
339 1033
339 1043
339 1053
339 1063
339 1073
339 1083
339 1093
339 1103
339 1113
339 1123
339 1133
340 1143
343 169
350 1145
352 164
360 1145
362 164
370 1145
371 159
380 1145
381 159
390 1145
391 159
400 1145
401 159
410 1145
411 159
420 1145
421 159
430 1145
431 159
440 1145
441 159
445 355
445 365
445 375
445 385
445 395
445 405
445 415
445 425
445 435
445 445
445 455
445 465
445 475
445 485
445 495
445 505
445 515
445 525
445 535
445 545
445 555
445 565
445 575
445 585
445 595
445 605
445 615
445 625
445 635
445 645
445 655
445 665
445 675
445 685
445 695
445 705
445 715
445 725
445 735
445 745
445 755
445 765
445 775
445 785
445 795
445 805
445 815
445 825
445 835
445 845
445 855
445 865
445 875
445 885
445 895
445 905
445 915
445 925
445 935
445 945
445 955
445 965
445 975
445 985
445 995
445 1005
445 1015
445 1025
445 1035
445 1045
445 1055
445 1065
445 1075
445 1085
445 1095
445 1105
445 1115
445 1125
445 1135
450 164
455 350
460 164
465 345
470 164
475 340
480 164
485 335
489 169
493 328
499 169
500 320
508 174
510 315
517 179
520 310
527 179
530 310
536 184
540 310
545 189
550 310
555 189
559 305
565 192
569 305
575 194
579 305
584 199
589 305
593 204
599 305
602 209
609 305
611 214
618 310
620 219
628 310
629 224
637 230
637 315
642 239
646 320
649 247
655 325
657 254
664 262
665 325
669 271
674 330
675 279
680 288
683 335
685 297
690 306
692 340
695 315
700 324
700 347
705 333
710 342
