134 837
134 847
134 857
134 867
134 877
134 887
134 897
134 907
134 917
134 927
134 937
144 834
144 940
154 834
154 940
164 834
164 940
174 834
174 940
184 834
184 940
194 834
194 940
204 834
204 940
214 834
214 940
224 834
224 940
234 834
234 940
244 834
244 940
254 834
254 940
264 834
264 940
274 834
274 940
284 834
284 940
294 834
294 940
304 834
304 940
314 834
314 940
324 834
324 940
334 834
334 940
344 834
344 940
354 834
354 940
364 834
364 940
374 834
374 940
384 834
384 940
394 834
394 940
404 834
404 940
414 834
414 940
424 834
424 940
434 834
434 940
444 834
444 940
454 834
454 940
464 834
464 940
474 834
474 940
484 834
484 940
494 834
494 940
504 834
504 940
514 834
514 940
524 834
524 940
534 834
534 940
544 834
544 940
554 834
554 940
564 834
564 940
574 834
574 940
584 834
584 940
594 834
594 940
604 834
604 940
614 834
614 940
624 834
624 940
634 834
634 940
644 834
644 940
654 834
654 940
664 834
664 940
674 834
674 940
684 834
684 940
694 834
694 940
704 834
704 940
714 834
714 940
724 834
724 940
734 834
734 940
744 834
744 940
754 834
754 940
764 834
764 940
774 834
774 940
784 834
784 940
794 834
794 940
804 834
804 940
814 834
814 940
824 834
824 940
834 834
834 940
844 834
844 940
854 834
854 940
864 834
864 940
874 834
874 940
884 834
884 940
894 834
894 940
904 834
904 940
909 977
909 987
909 997
909 1007
909 1017
909 1027
909 1037
909 1047
909 1057
909 1067
909 1077
909 1087
909 1097
909 1107
909 1117
914 834
914 940
915 1125
919 974
924 827
924 940
925 1125
927 950
929 572
929 817
929 974
932 959
934 581
934 807
935 1125
939 571
939 590
939 797
939 970
944 599
945 1125
947 789
948 576
950 607
954 617
954 627
955 781
955 1125
958 580
959 636
960 771
964 645
965 761
965 1125
967 585
969 654
969 664
969 727
969 737
969 747
974 673
974 683
974 693
974 703
974 713
975 1125
977 589
984 597
985 1125
994 601
995 1125
1003 606
1005 1125
1010 614
1015 1125
1020 617
1025 1125
1027 625
1035 632
1035 1125
1043 639
1045 1125
1052 644
1055 654
1055 1125
1063 660
1065 1125
1067 670
1072 679
1075 689
1075 1125
1080 698
1085 707
1085 1125
1089 717
1090 727
1094 737
1095 970
1095 1125
1099 746
1100 756
1100 960
1103 766
1105 950
1105 974
1105 1125
1108 775
1110 785
1110 935
1112 795
1115 805
1115 815
1115 825
1115 915
1115 925
1115 974
1115 1125
1120 834
1120 844
1120 854
1120 864
1120 874
1120 884
1120 894
1120 904
1125 977
1125 987
1125 997
1125 1007
1125 1017
1125 1027
1125 1037
1125 1047
1125 1057
1125 1067
1125 1077
1125 1087
1125 1097
1125 1107
1125 1117
