629 362
629 372
634 347
639 332
639 375
644 322
648 370
649 307
657 299
657 365
662 289
667 365
669 277
674 262
676 360
682 254
686 360
689 242
695 355
697 234
705 226
705 355
713 219
715 355
722 214
724 350
730 206
734 350
740 201
743 345
750 196
753 345
758 189
763 345
767 184
772 340
776 179
782 340
784 172
792 340
794 167
802 159
802 340
811 335
812 159
821 335
822 154
831 335
832 149
841 335
842 144
851 335
852 144
859 341
859 351
859 361
859 371
859 381
859 391
859 401
859 411
859 421
859 431
859 441
859 451
859 461
859 471
859 481
859 491
859 501
859 511
859 521
859 531
859 541
859 551
859 561
859 571
859 581
859 591
859 601
859 611
859 621
859 631
859 641
859 651
859 661
859 671
859 681
859 691
859 701
859 711
859 721
859 731
859 741
859 751
859 761
859 771
859 781
859 791
859 801
859 811
859 821
859 831
859 841
859 851
859 861
859 871
859 881
859 891
859 901
859 911
859 921
859 931
859 941
859 951
859 961
859 971
859 981
859 991
859 1001
859 1011
859 1021
859 1031
859 1041
859 1051
859 1061
859 1071
859 1081
859 1091
859 1101
859 1111
859 1121
859 1131
859 1141
859 1151
859 1161
859 1171
859 1181
859 1191
862 144
864 1200
871 139
874 1200
881 139
884 1200
891 139
894 1200
901 139
904 1200
911 139
914 1200
921 139
924 1200
931 139
934 1200
941 139
944 1200
951 139
954 1200
961 139
964 1200
971 139
974 1200
980 340
980 350
980 360
980 370
980 380
980 390
980 400
980 410
980 420
980 430
980 440
980 450
980 460
980 470
980 480
980 490
980 500
980 510
980 520
980 530
980 540
980 550
980 560
980 570
980 580
980 590
980 600
980 610
980 620
980 630
980 640
980 650
980 660
980 670
980 680
980 690
980 700
980 710
980 720
980 730
980 740
980 750
980 760
980 770
980 780
980 790
980 800
980 810
980 820
980 830
980 840
980 850
980 860
980 870
980 880
980 890
980 900
980 910
980 920
980 930
980 940
980 950
980 960
980 970
980 980
980 990
980 1000
980 1010
980 1020
980 1030
980 1040
980 1050
980 1060
980 1070
980 1080
980 1090
980 1100
980 1110
980 1120
980 1130
980 1140
980 1150
980 1160
980 1170
980 1180
980 1190
981 139
990 340
991 139
1000 340
1001 139
1004 122
1004 350
1007 360
1014 119
1017 360
1024 119
1027 360
1034 119
1037 360
1044 119
1047 360
1054 119
1057 360
1064 119
1067 360
1074 119
1077 360
1084 119
1087 360
1094 119
1097 360
1104 119
1107 360
1114 119
1117 360
1124 119
1127 360
1134 121
1135 131
1135 141
1135 151
1135 161
1135 171
1135 181
1135 191
1135 201
1135 211
1135 221
1135 231
1135 241
1135 251
1135 261
1135 271
1135 281
1135 291
1135 301
1135 311
1135 321
1135 331
1135 341
1135 351
