664 1117
664 1127
664 1137
664 1147
664 1157
664 1167
664 1177
664 1187
664 1197
664 1207
664 1217
664 1227
664 1237
664 1247
664 1257
664 1267
664 1277
664 1287
664 1297
664 1307
664 1317
664 1327
664 1337
669 1092
669 1102
669 1346
669 1356
674 1072
674 1082
674 1365
674 1375
677 1385
679 1047
679 1057
679 1395
679 1405
679 1415
679 1425
684 1022
684 1032
684 1434
689 1012
690 1442
694 1002
694 1452
699 977
699 987
699 1461
699 1471
704 957
704 967
704 1480
709 947
709 1489
714 932
714 1498
719 922
719 1507
727 914
727 1514
731 1524
734 902
734 1534
739 892
739 1543
739 1553
744 882
744 1562
749 1571
752 874
756 1579
759 862
761 1588
765 1598
767 854
770 1607
772 844
774 1617
779 827
779 1626
784 817
784 1635
789 807
790 1643
794 797
794 1653
795 1663
800 1672
802 789
807 1680
810 781
814 1688
819 1697
820 776
827 1704
828 769
831 1714
835 761
839 1720
843 754
845 1728
850 746
853 1735
858 739
859 1743
864 1752
867 734
872 1759
876 729
879 1767
884 722
887 1774
891 1784
894 717
896 1793
900 1803
904 714
908 1810
913 709
915 1818
919 437
919 447
919 457
919 467
920 701
923 1825
924 417
924 427
924 476
924 486
924 496
924 506
929 407
929 515
930 696
930 1833
935 523
935 1842
937 399
939 387
940 694
942 1850
943 530
944 377
949 367
950 538
950 691
950 1857
954 357
957 1865
958 545
960 686
962 349
965 553
965 1872
969 337
970 681
972 1880
973 560
977 329
978 674
980 1887
982 565
985 321
987 574
987 669
989 1892
991 584
994 594
994 604
994 614
995 316
996 624
997 669
997 1899
999 634
999 644
1001 1909
1004 653
1005 311
1009 1915
1013 304
1015 1923
1022 299
1025 1927
1030 291
1032 1935
1038 284
1039 2032
1039 2042
1039 2052
1039 2062
1039 2072
1039 2082
1040 1942
1044 2007
1044 2017
1044 2091
1045 276
1047 1950
1049 1997
1049 2100
1054 2109
1055 271
1056 1955
1057 1989
1060 2117
1064 1961
1064 2127
1065 266
1065 1981
1071 1969
1072 2134
1075 261
1079 2142
1085 256
1087 2149
1094 2157
1095 254
1104 249
1104 2160
1113 2165
1114 249
1122 2170
1124 247
1132 2174
1134 244
1141 2179
1144 244
1151 2183
1154 244
1159 2190
1164 244
1168 2195
1173 239
1175 2203
1182 234
1185 2207
1192 229
1192 2215
1202 229
1202 2219
1212 229
1212 2220
1221 2225
1222 229
1231 2228
1232 229
1241 2230
1242 229
1251 2230
1252 229
1261 2230
1262 229
1271 2230
1272 229
1281 2230
1282 229
1291 2230
1292 229
1301 234
1301 2230
1311 234
1311 2230
1321 234
1321 2230
1331 234
1331 2230
1341 234
1341 2230
1350 2225
1351 234
1360 2225
1361 234
1370 2225
1371 234
1380 2225
1381 234
1389 2220
1391 234
1399 2220
1401 234
1409 2217
1410 239
1419 244
1419 2215
1428 249
1428 2210
1438 249
1438 2210
1447 2205
1448 249
1457 2205
1458 249
1467 254
1467 2204
1476 259
1477 2200
1486 259
1487 2200
1495 264
1496 2195
1505 267
1506 2195
1512 275
1515 2190
1522 279
1525 2185
1529 287
1530 640
1535 625
1535 2180
1538 646
1539 291
1540 605
1540 615
1545 299
1545 590
1545 2175
1548 650
1550 555
1550 565
1550 575
1554 304
1555 545
1555 658
1555 2170
1562 310
1563 664
1564 2165
1565 540
1572 314
1572 669
1572 2159
1573 533
1579 322
1580 525
1580 1975
1580 2150
1582 669
1585 515
1585 1984
1587 329
1588 1968
1588 2143
1591 674
1593 508
1593 1990
1594 337
1595 1960
1597 2000
1598 498
1598 2138
1599 346
1600 356
1601 674
1603 488
1603 1953
1605 365
1605 2007
1605 2130
1608 478
1610 374
1610 384
1610 455
1610 465
1610 679
1610 1945
1612 2015
1613 2123
1615 393
1615 403
1615 413
1615 423
1615 433
1615 443
1618 1938
1620 682
1620 2022
1620 2115
1624 2032
1625 1925
1625 2105
1628 689
1629 2041
1630 1915
1630 2051
1630 2061
1630 2071
1630 2081
1630 2091
1637 694
1638 1908
1645 1895
1646 699
1653 1888
1655 704
1660 1875
1665 707
1665 1865
1673 714
1673 1858
1680 1850
1682 719
1685 1840
1690 1825
1691 724
1695 1815
1699 731
1700 1805
1705 1795
1708 736
1713 1788
1715 744
1718 1778
1720 1765
1723 750
1728 1758
1732 755
1733 1748
1740 762
1740 1735
1747 770
1748 1728
1753 1718
1755 777
1758 1708
1762 785
1763 1698
1768 1688
1770 792
1775 801
1775 1675
1780 810
1780 1665
1785 819
1788 1658
1793 825
1793 1648
1797 835
1798 1638
1803 1628
1805 842
1808 1618
1810 1605
1812 850
1815 1595
1820 857
1820 1585
1825 866
1825 1575
1830 875
1830 1565
1832 885
1835 1550
1837 894
1840 1535
1844 902
1845 1515
1845 1525
1849 911
1850 921
1850 1490
1850 1500
1855 930
1855 1480
1860 939
1863 1473
1865 948
1865 958
1868 1463
1873 965
1873 1453
1877 975
1878 1443
1882 984
1883 1433
1885 994
1888 1423
1890 1003
1890 1410
1895 1012
1895 1400
1900 1021
1900 1375
1900 1385
1903 1031
1905 1041
1905 1355
1905 1365
1910 1050
1910 1060
1910 1070
1910 1330
1910 1340
1912 1080
1915 1090
1915 1100
1915 1315
1917 1110
1920 1120
1920 1130
1920 1140
1920 1150
1920 1160
1920 1170
1920 1180
1920 1190
1920 1200
1920 1210
1920 1220
1920 1230
1920 1240
1920 1250
1920 1260
1920 1270
1920 1280
1920 1290
1920 1300
