789 1037
789 1047
789 1057
789 1067
789 1077
789 1087
789 1097
789 1107
789 1117
789 1127
794 1007
794 1017
794 1027
794 1136
794 1146
794 1156
799 982
799 992
799 1165
799 1175
802 1185
804 962
804 972
804 1195
807 1205
809 947
809 1215
814 932
814 1224
816 1234
819 922
821 1243
824 907
824 1253
829 897
829 1262
834 887
834 1271
839 877
839 1280
839 1290
839 1300
839 1310
839 1320
839 1330
842 1340
844 1350
844 1360
844 1370
844 1380
844 1390
847 869
847 1400
849 1410
849 1420
849 1430
852 859
852 1440
854 1450
854 1460
857 849
857 1470
859 1480
859 1490
864 837
864 1499
864 1509
866 1519
869 1529
871 1539
872 829
874 622
874 632
874 642
874 1549
876 1559
877 819
879 612
879 651
879 1569
881 1579
884 602
884 660
884 1589
885 811
887 670
889 1598
889 1608
892 594
893 804
894 1617
894 1627
895 677
897 794
899 1636
900 586
902 685
904 1645
905 786
907 1655
908 579
909 1665
911 690
913 779
914 1674
917 574
919 696
919 1683
920 771
920 1693
925 1702
926 569
928 764
929 700
929 1712
934 1721
935 564
935 756
938 705
939 1730
942 1740
943 749
944 559
947 710
947 1749
952 744
953 554
954 1757
956 715
959 1766
960 736
962 549
964 1775
965 720
967 1785
972 549
974 1793
979 1802
981 544
984 1811
989 1820
990 539
995 1828
1000 536
1003 1835
1007 1845
1009 1927
1009 1937
1009 1947
1010 534
1015 1852
1017 1919
1017 1954
1019 1862
1020 531
1024 1962
1025 1911
1027 1869
1030 529
1032 1969
1033 1904
1034 1877
1040 526
1040 1975
1042 1884
1042 1899
1049 1980
1050 524
1058 1985
1060 521
1067 1990
1070 519
1077 1990
1080 519
1086 1995
1089 514
1096 1998
1099 514
1106 2000
1109 514
1116 2003
1118 509
1126 2005
1128 509
1136 2005
1138 509
1145 2010
1148 509
1155 2010
1157 504
1165 2010
1167 504
1174 2015
1177 504
1184 2015
1187 504
1194 2015
1197 504
1204 2015
1207 504
1214 2015
1216 499
1223 2020
1226 499
1233 2020
1236 499
1243 2020
1246 499
1253 2020
1256 499
1263 2020
1266 499
1273 2020
1276 499
1283 2020
1286 499
1293 2020
1296 499
1303 2020
1306 499
1313 2020
1316 499
1323 2020
1326 499
1333 2020
1336 499
1343 2020
1346 499
1353 2018
1356 499
1363 2015
1365 504
1373 2015
1375 504
1383 2015
1385 504
1393 2015
1395 504
1403 2013
1405 504
1413 2010
1415 504
1423 2010
1425 507
1433 2008
1435 509
1443 2005
1445 509
1453 2005
1455 509
1462 2000
1464 514
1472 2000
1474 514
1481 1995
1484 514
1491 1995
1493 519
1500 1990
1503 519
1510 1985
1513 520
1520 1885
1520 1980
1523 524
1525 1894
1528 1878
1530 1975
1533 525
1534 1899
1535 1870
1540 1970
1542 1905
1543 529
1543 1863
1548 1853
1548 1963
1550 1912
1553 530
1555 1845
1555 1955
1557 1920
1560 1835
1563 534
1563 1948
1565 1927
1565 1937
1568 1828
1573 535
1575 1815
1583 539
1583 1808
1588 1798
1592 544
1593 1788
1595 725
1600 734
1600 1775
1601 549
1604 720
1605 1765
1608 740
1610 1755
1611 549
1614 717
1617 745
1618 1748
1620 554
1623 1738
1624 712
1625 752
1625 1725
1629 559
1630 1715
1632 760
1634 707
1635 1705
1638 564
1640 767
1640 1695
1644 702
1645 1680
1647 569
1647 775
1650 1670
1654 697
1655 782
1655 1655
1656 574
1660 1645
1662 690
1662 790
1665 579
1665 1630
1670 797
1670 1615
1671 685
1673 585
1674 807
1675 1595
1675 1605
1679 677
1680 593
1680 1580
1682 814
1685 1560
1685 1570
1687 669
1688 600
1689 822
1690 1540
1690 1550
1692 610
1692 659
1694 831
1695 1520
1695 1530
1697 619
1697 649
1700 629
1700 639
1700 839
1700 1495
1700 1505
1705 848
1705 1470
1705 1480
1710 857
1710 1440
1710 1450
1710 1460
1715 866
1715 1400
1715 1410
1715 1420
1715 1430
1720 1340
1720 1350
1720 1360
1720 1370
1720 1380
1720 1390
1721 874
1725 884
1725 1280
1725 1290
1725 1300
1725 1310
1725 1320
1725 1330
1730 893
1730 1270
1735 902
1735 1260
1740 911
1740 1245
1743 921
1745 1235
1748 930
1750 940
1750 1220
1755 949
1755 959
1755 1205
1760 968
1760 978
1760 1185
1760 1195
1765 987
1765 997
1765 1160
1765 1170
1769 1007
1770 1017
1770 1027
1770 1130
1770 1140
1770 1150
1774 1037
1775 1047
1775 1057
1775 1067
1775 1077
1775 1087
1775 1097
1775 1107
1775 1117
