124 577
124 587
129 547
129 557
129 567
129 596
129 606
129 616
129 626
129 636
129 646
129 656
129 666
134 537
134 675
137 685
139 527
142 694
147 519
149 702
155 511
157 709
164 717
165 506
173 499
174 720
180 728
182 494
190 732
191 489
199 737
200 484
209 477
209 740
217 469
218 745
227 464
227 750
237 459
237 754
246 454
246 759
254 447
256 763
264 442
266 765
274 437
275 770
284 432
284 775
292 424
294 775
300 416
303 780
304 377
304 387
304 397
309 367
312 785
317 359
320 792
324 802
325 351
329 811
329 821
334 830
334 840
335 346
340 848
343 339
347 329
348 855
349 302
349 312
357 294
357 860
365 286
366 865
373 279
374 871
379 880
379 890
382 274
384 899
386 909
391 269
391 918
399 262
399 925
408 930
409 257
417 249
417 935
425 942
426 244
429 952
434 237
437 959
442 229
445 965
452 224
454 970
462 219
464 970
472 219
474 970
482 219
484 970
492 219
493 975
501 224
503 975
509 231
513 975
515 239
515 249
523 255
523 975
530 263
533 975
538 269
543 975
547 274
553 975
555 280
560 289
560 299
563 975
565 308
570 317
572 970
574 327
581 965
582 334
589 957
591 339
597 949
601 339
605 940
609 346
615 354
615 935
620 925
623 360
628 918
632 365
638 913
642 369
645 900
652 369
653 893
660 885
662 369
668 878
672 369
675 870
682 369
685 865
692 369
693 858
700 850
702 369
710 845
712 369
719 377
720 845
725 385
730 394
730 840
738 400
740 840
748 404
750 840
757 409
760 835
767 409
770 835
776 414
780 830
786 414
789 825
796 414
797 819
806 414
807 814
815 419
817 809
823 425
827 804
830 433
837 799
840 437
845 790
847 445
855 452
855 785
863 459
865 785
872 464
875 785
882 464
885 780
892 464
895 780
902 464
905 775
912 464
915 775
922 464
925 770
932 464
935 765
941 459
943 758
948 748
951 459
955 740
961 459
963 733
968 723
970 454
975 715
980 454
985 710
989 449
994 705
999 449
1003 700
1009 449
1012 695
1019 449
1022 695
1029 449
1032 695
1039 449
1042 695
1049 449
1052 695
1059 449
1062 694
1069 449
1072 690
1079 449
1081 685
1089 449
1091 685
1099 449
1101 688
1109 449
1111 690
1118 444
1121 690
1128 444
1131 690
1138 444
1141 690
1148 444
1151 690
1158 444
1161 690
1168 444
1171 690
1178 444
1181 690
1188 444
1191 690
1198 444
1201 690
1208 444
1210 685
1218 444
1220 685
1228 444
1230 685
1237 439
1239 690
1247 439
1249 690
1257 439
1259 690
1267 439
1268 685
1277 439
1278 685
1287 439
1287 680
1297 439
1297 679
1307 439
1307 675
1317 439
1317 674
1327 439
1327 670
1337 439
1337 669
1347 439
1347 665
1356 660
1357 439
1365 655
1367 434
1375 650
1377 434
1385 645
1387 434
1393 638
1397 434
1403 633
1407 434
1413 630
1417 434
1423 630
1427 434
1433 628
1437 434
1443 625
1447 434
1452 630
1457 434
1462 630
1467 434
1472 630
1477 434
1482 630
1487 434
1492 634
1497 429
1502 635
1507 429
1512 634
1517 429
1522 630
1527 429
1532 630
1537 429
1542 630
1547 429
1551 635
1557 429
1561 635
1567 429
1571 638
1577 429
1580 643
1587 429
1590 645
1597 429
1599 650
1607 429
1609 650
1617 429
1619 650
1627 429
1629 650
1637 429
1639 650
1647 429
1649 647
1657 429
1659 645
1667 429
1668 640
1677 429
1677 635
1686 434
1686 630
1695 625
1696 434
1703 618
1705 439
1710 610
1713 445
1718 603
1720 453
1725 595
1728 460
1733 588
1735 468
1738 578
1740 477
1740 487
1740 497
1740 507
1740 517
1740 527
1740 537
1740 547
1740 557
1740 567
