194 567
194 577
194 587
194 597
194 607
194 617
194 627
194 637
194 647
194 657
194 667
194 677
194 687
194 697
194 707
194 717
194 727
194 737
194 747
199 492
199 502
199 512
199 522
199 532
199 542
199 552
199 756
199 766
199 776
199 786
199 796
199 806
204 447
204 457
204 467
204 477
204 815
204 825
204 835
204 845
204 855
207 865
212 439
215 872
219 427
222 880
227 419
231 885
235 411
240 890
245 406
249 895
255 401
258 900
265 396
267 905
275 391
276 910
285 386
286 913
295 381
296 915
305 376
305 920
314 925
315 371
324 925
325 369
333 930
334 364
342 935
343 359
352 354
352 939
361 944
362 349
371 945
372 344
380 950
382 339
389 955
392 339
399 955
401 334
408 960
410 329
417 965
420 326
427 965
430 324
437 969
439 319
447 970
448 314
456 975
458 314
466 978
467 309
476 980
477 304
486 983
487 299
496 985
497 299
505 990
506 294
515 990
516 290
524 995
526 289
534 995
536 285
544 995
546 284
554 995
556 280
563 1000
566 279
573 1000
576 275
583 1000
586 274
593 1000
596 270
602 1005
606 269
612 1005
616 265
622 1005
626 264
632 1005
636 264
641 1010
645 259
651 1010
655 259
661 1010
665 256
671 1010
675 254
681 1013
685 254
691 1015
695 254
700 1010
705 254
710 1010
715 254
719 1005
725 254
729 1002
735 254
739 1000
745 254
748 995
754 259
758 993
763 264
768 990
773 265
777 984
782 270
785 970
790 950
790 960
792 274
795 284
795 930
795 940
800 845
800 855
800 865
800 875
800 885
800 895
800 905
800 915
803 290
805 835
807 300
812 309
813 828
815 319
820 328
820 820
825 337
825 347
825 357
825 367
825 377
825 387
825 397
825 407
825 417
825 427
830 815
833 434
840 810
842 439
850 810
852 439
860 810
861 444
870 805
871 444
880 805
881 444
890 449
890 805
900 449
900 805
910 452
910 805
920 454
920 805
930 454
930 805
939 459
940 805
949 459
950 805
958 464
959 800
968 465
969 800
975 473
979 800
980 482
980 492
984 502
989 800
992 509
999 800
1002 509
1009 800
1012 504
1019 797
1022 499
1029 795
1032 499
1038 790
1041 494
1048 790
1051 490
1057 785
1061 489
1067 784
1071 489
1077 780
1081 489
1087 780
1091 489
1097 780
1101 489
1107 779
1110 494
1117 775
1120 494
1127 775
1130 494
1137 775
1140 494
1147 775
1150 497
1157 775
1160 499
1167 775
1170 499
1177 775
1180 499
1187 775
1190 499
1197 775
1199 504
1206 770
1209 504
1216 770
1219 504
1226 770
1229 504
1236 770
1239 504
1246 770
1249 504
1256 770
1259 504
1266 770
1269 504
1275 765
1279 504
1285 765
1289 504
1295 760
1298 499
1305 760
1308 499
1315 755
1318 499
1325 755
1328 499
1335 755
1338 499
1344 750
1348 499
1354 750
1358 499
1364 750
1368 499
1374 750
1378 499
1384 750
1388 499
1393 755
1397 494
1403 755
1407 494
1413 753
1417 494
1423 750
1427 494
1433 750
1437 494
1443 750
1447 494
1453 748
1456 499
1463 743
1466 499
1473 740
1476 499
1482 735
1486 499
1492 735
1496 499
1501 740
1506 499
1511 740
1516 499
1521 740
1526 499
1530 745
1535 504
1540 745
1545 504
1550 745
1555 504
1560 745
1565 504
1570 745
1575 504
1580 745
1585 504
1590 745
1595 504
1600 745
1605 504
1610 745
1615 504
1619 740
1625 504
1628 735
1635 504
1637 740
1645 504
1647 744
1655 504
1657 745
1665 504
1667 749
1675 504
1677 750
1685 504
1687 750
1695 504
1697 750
1705 504
1706 745
1715 504
1716 745
1725 504
1726 745
1735 504
1736 745
1745 504
1745 740
1755 504
1755 735
1763 728
1765 504
1770 720
1775 504
1778 713
1785 504
1785 705
1790 695
1795 507
1798 688
1804 512
1805 680
1813 673
1814 516
1820 524
1820 665
1828 658
1829 529
1835 650
1837 535
1842 544
1843 643
1845 554
1850 563
1850 635
1855 572
1858 628
1860 581
1863 591
1865 620
1868 600
1870 610
