344 682
349 662
349 672
349 691
349 701
349 711
349 721
354 647
354 730
354 740
359 632
359 749
364 617
365 757
369 607
369 767
374 597
377 774
381 784
382 589
389 790
390 581
394 799
400 576
400 807
404 817
408 569
412 824
417 564
419 832
425 556
429 835
433 549
435 843
442 544
445 847
452 539
452 855
459 863
459 927
459 937
459 947
460 531
464 872
464 882
464 892
464 902
464 912
464 956
465 521
469 492
469 502
469 965
472 975
474 462
474 472
474 482
479 442
479 452
479 983
484 422
484 432
484 992
489 402
489 412
492 999
494 387
501 1004
502 379
507 369
511 1005
515 361
520 1010
523 354
530 1012
532 349
540 1015
542 349
549 1020
552 344
559 1020
562 344
568 1025
571 339
578 1025
581 339
588 1025
590 334
598 1025
600 334
608 1025
610 334
618 1025
620 334
627 1030
630 331
637 1030
640 329
647 1030
650 329
657 1030
660 332
667 1030
670 334
677 1030
680 334
687 1030
690 334
697 1030
700 334
707 1030
710 334
717 1030
720 334
727 1030
730 337
737 1030
740 339
746 1035
750 339
756 1035
760 339
766 1035
770 339
776 1035
780 339
786 1035
790 342
796 1035
800 344
805 1030
810 344
815 1030
820 344
825 1030
830 344
835 1030
840 347
845 1030
850 349
855 1030
860 349
864 1025
870 349
874 1025
880 349
884 1025
890 352
894 1025
900 354
904 1025
910 354
914 1025
920 354
923 1020
930 354
933 1020
939 359
943 1020
949 359
953 1018
959 359
963 1013
969 361
973 1008
975 369
980 995
985 372
985 985
990 970
992 380
995 955
1000 387
1000 945
1005 935
1007 395
1012 404
1013 928
1019 412
1020 920
1024 421
1028 913
1030 429
1035 438
1035 905
1040 447
1040 457
1040 467
1040 477
1040 487
1044 497
1045 900
1052 504
1055 895
1062 504
1065 890
1071 509
1075 890
1081 509
1084 885
1090 514
1094 885
1100 514
1103 880
1110 517
1113 878
1115 830
1115 840
1115 850
1120 519
1120 859
1120 869
1124 825
1130 519
1134 825
1139 524
1144 825
1149 524
1154 825
1159 524
1164 825
1168 529
1174 825
1178 529
1184 825
1187 534
1194 825
1195 540
1200 549
1200 559
1204 825
1205 568
1210 577
1210 587
1210 597
1213 830
1215 606
1221 614
1223 830
1231 614
1233 830
1241 610
1243 830
1251 605
1253 830
1261 604
1263 830
1270 609
1273 830
1279 614
1283 830
1287 620
1293 830
1297 624
1302 835
1306 629
1312 835
1315 634
1322 835
1325 631
1332 835
1335 629
1342 835
1344 622
1352 835
1354 617
1362 835
1364 614
1372 835
1374 614
1382 835
1384 614
1392 839
1394 614
1402 840
1404 616
1412 840
1414 619
1422 840
1424 619
1432 840
1433 624
1442 840
1443 624
1452 840
1453 624
1462 629
1462 840
1472 629
1472 840
1481 634
1482 840
1489 641
1492 840
1498 646
1502 840
1505 654
1510 663
1512 840
1520 667
1522 840
1530 669
1532 840
1540 666
1542 840
1550 661
1552 840
1560 656
1562 840
1568 649
1572 840
1577 644
1582 840
1587 639
1592 840
1597 639
1602 840
1606 634
1612 840
1616 634
1622 840
1626 634
1632 840
1636 634
1642 840
1646 634
1652 840
1655 639
1662 840
1665 639
1672 840
1675 639
1682 844
1685 642
1692 845
1695 644
1702 845
1705 644
1712 845
1715 647
1722 845
1725 649
1732 845
1733 655
1740 663
1742 845
1748 670
1752 845
1755 678
1762 845
1765 679
1772 845
1775 679
1782 845
1785 676
1792 845
1795 671
1802 845
1805 666
1812 845
1815 664
1822 845
1825 664
1832 845
1835 664
1842 845
1845 661
1852 845
1855 659
1862 845
1865 659
1872 845
1875 659
1882 845
1885 659
1892 845
1895 659
1902 845
1905 659
1912 845
1915 656
1922 845
1925 657
1932 845
1934 662
1942 669
1942 845
1945 679
1950 688
1952 845
1955 697
1960 706
1962 844
1966 714
1972 839
1974 721
1978 731
1980 825
1985 739
1988 818
1990 748
1998 755
1998 813
2005 763
2005 805
2010 772
2015 800
2017 780
2020 790
