234 402
234 412
234 422
234 432
234 442
234 452
234 462
234 472
239 392
239 481
239 491
239 501
239 511
244 377
244 520
244 530
244 540
244 550
244 560
249 367
249 569
249 579
249 589
249 599
254 357
254 608
254 618
254 628
254 638
255 648
259 347
259 658
259 668
259 678
259 688
259 698
264 707
264 717
264 727
264 737
264 747
264 757
264 802
264 812
267 339
269 766
269 776
269 786
269 821
269 831
269 841
269 851
274 860
275 331
277 870
282 879
285 326
289 887
295 321
297 894
305 319
305 900
314 314
314 905
324 314
324 905
333 910
334 312
343 910
344 309
353 910
354 309
363 910
364 307
373 910
374 304
383 910
384 304
393 910
394 304
402 915
404 302
412 915
414 299
422 915
424 299
432 915
434 299
442 915
444 301
452 915
454 304
462 915
464 304
472 915
473 299
482 919
483 299
492 920
493 299
502 920
503 299
512 294
512 920
522 294
522 920
531 299
532 920
541 295
542 920
551 294
552 920
561 294
562 920
570 289
572 920
580 289
582 920
590 289
592 924
600 289
602 925
610 289
612 925
620 289
622 925
630 289
632 925
640 286
642 925
650 284
652 925
660 284
662 925
670 284
672 925
680 284
682 925
690 284
692 925
699 279
701 930
709 279
711 930
719 279
721 930
729 279
731 930
739 279
741 930
749 279
751 930
759 279
761 930
769 279
771 930
779 279
781 930
788 274
791 930
798 274
801 930
808 274
811 930
818 274
821 930
828 274
831 930
838 274
841 930
848 274
851 930
857 269
861 930
867 269
871 930
877 269
881 930
887 269
891 930
897 269
901 930
907 269
911 930
917 269
921 930
927 269
931 930
937 264
941 930
947 264
951 930
957 264
961 930
967 264
971 930
977 264
980 925
987 264
990 925
997 264
1000 920
1007 264
1010 915
1017 264
1019 910
1027 264
1027 904
1035 895
1037 264
1040 885
1045 870
1047 264
1050 860
1055 845
1057 264
1060 830
1065 820
1067 259
1070 810
1075 800
1077 259
1080 790
1085 780
1087 259
1090 765
1095 755
1097 259
1100 745
1105 735
1107 259
1110 720
1115 700
1115 710
1117 259
1120 675
1120 685
1125 655
1125 665
1127 254
1130 635
1130 645
1135 615
1135 625
1137 254
1140 590
1140 600
1145 580
1147 254
1153 573
1157 254
1163 570
1167 254
1173 570
1177 254
1183 570
1187 254
1193 570
1197 254
1203 570
1207 249
1213 570
1217 249
1223 570
1227 249
1233 570
1237 249
1242 575
1247 249
1252 575
1257 249
1261 580
1267 244
1270 585
1277 244
1280 585
1287 244
1290 585
1297 244
1299 590
1307 244
1309 590
1317 244
1319 590
1327 239
1329 590
1337 239
1338 585
1347 239
1348 585
1357 239
1358 583
1365 575
1367 239
1373 568
1377 239
1378 558
1380 545
1385 535
1386 234
1393 528
1396 234
1398 518
1400 495
1400 505
1406 234
1409 490
1416 234
1419 487
1426 234
1429 482
1436 234
1437 474
1445 465
1446 234
1453 458
1455 229
1463 453
1465 229
1470 445
1475 229
1478 438
1485 229
1488 433
1495 229
1498 430
1505 229
1508 430
1515 229
1518 430
1524 224
1528 430
1534 224
1537 435
1544 224
1547 439
1554 224
1556 444
1564 224
1566 445
1574 224
1575 450
1584 222
1585 445
1594 219
1595 445
1604 219
1605 445
1614 219
1615 440
1624 219
1625 440
1634 219
1635 435
1644 219
1645 435
1654 219
1655 430
1664 217
1665 430
1674 214
1674 435
1684 214
1684 435
1693 440
1694 214
1702 445
1704 214
1712 449
1714 214
1722 450
1723 209
1732 450
1733 209
1742 450
1743 209
1752 450
1753 209
1762 454
1763 209
1772 455
1773 209
1782 454
1783 209
1792 450
1793 209
1802 450
1803 209
1812 204
1812 450
1822 204
1822 450
1831 445
1832 204
1840 440
1842 204
1850 435
1852 204
1860 430
1862 204
1870 425
1872 199
1879 420
1882 199
1889 417
1892 199
1899 415
1902 199
1908 410
1912 199
1918 410
1922 199
1927 415
1932 199
1937 415
1941 194
1947 415
1951 194
1957 415
1961 194
1966 410
1970 199
1975 405
1980 202
1983 398
1989 207
1990 385
1997 214
2000 380
2004 222
2008 373
2010 230
2015 239
2015 249
2015 365
2020 258
2024 360
2025 267
2029 277
2030 287
2032 354
2035 296
2038 306
2040 345
2043 315
2045 325
2045 335
