104 1507
104 1517
104 1527
104 1537
112 1499
112 1544
120 1491
122 1545
128 1484
132 1549
134 1432
134 1442
134 1559
136 1569
138 1484
139 1451
142 1424
144 1575
147 1479
149 1402
149 1412
149 1447
150 1583
155 1471
157 1394
157 1440
158 1590
163 1464
164 1448
165 1386
165 1598
173 1379
173 1605
183 1379
183 1605
192 1374
192 1610
200 1366
200 1617
207 1625
208 1359
209 1327
209 1337
209 1347
215 1632
217 1319
225 1635
227 1319
235 1635
237 1319
245 1635
247 1319
254 1640
257 1319
260 1648
267 1319
270 1650
277 1319
280 1652
287 1319
287 1660
296 1665
297 1314
299 1297
306 1665
307 1289
316 1665
317 1289
326 1665
327 1284
335 1276
336 1665
344 1281
344 1671
350 1289
351 1679
360 1289
361 1680
370 1286
371 1683
378 1279
379 1690
385 1271
388 1695
389 1252
397 1244
398 1695
407 1244
408 1695
417 1239
418 1695
425 1231
428 1695
433 1224
435 1703
440 1216
443 1710
448 1209
453 1710
455 1201
463 1194
463 1710
470 1186
473 1710
480 1184
480 1718
488 1725
490 1184
498 1725
500 1184
508 1725
510 1184
518 1725
520 1184
528 1725
530 1184
538 1725
539 1177
547 1169
548 1725
557 1169
558 1725
566 1174
568 1725
574 1181
578 1725
584 1184
585 1733
593 1739
594 1184
600 1730
604 1184
609 1725
614 1184
619 1725
624 1182
629 1725
632 1174
639 1725
641 1169
645 1733
651 1169
653 1740
661 1169
663 1740
671 1169
673 1740
681 1169
683 1738
690 1730
691 1169
699 1725
701 1169
709 1725
711 1169
719 1162
719 1725
727 1154
729 1725
735 1733
737 1154
743 1740
747 1149
753 1740
755 1141
763 1740
765 1139
773 1738
775 1139
780 1730
785 1139
789 1725
795 1139
799 1725
805 1136
809 1725
813 1129
819 1725
822 1124
825 1733
832 1124
833 1740
842 1124
843 1740
852 1124
853 1740
862 1124
863 1738
870 1730
872 1124
879 1725
882 1124
889 1725
892 1124
899 1725
900 1116
908 1109
909 1725
918 1109
919 1725
928 1109
929 1725
938 1109
939 1722
947 1714
948 1109
957 1710
958 1109
967 1710
968 1109
974 1087
974 1097
977 1710
982 1079
987 1710
992 1079
997 1710
1002 1079
1007 1710
1012 1079
1016 1705
1022 1079
1024 1697
1032 1079
1034 1695
1042 1079
1044 1695
1052 1079
1054 1695
1062 1074
1064 1695
1070 1066
1074 1695
1080 1064
1084 1695
1090 1064
1094 1695
1100 1064
1104 1692
1110 1064
1112 1684
1120 1064
1122 1680
1130 1064
1132 1680
1140 1064
1142 1680
1150 1061
1152 1680
1154 1042
1162 1034
1162 1680
1172 1034
1172 1680
1182 1034
1182 1680
1192 1034
1192 1679
1200 1670
1202 1034
1208 1663
1212 1034
1215 1655
1222 1034
1224 1650
1230 1026
1234 1650
1238 1019
1244 1650
1248 1019
1254 1650
1258 1019
1264 1650
1268 1020
1274 1650
1275 1028
1283 1034
1284 1647
1290 1026
1292 1639
1298 1019
1302 1635
1305 1011
1312 1635
1313 1004
1322 1635
1323 1004
1332 1635
1333 1004
1342 1635
1343 1004
1350 1642
1353 1004
1357 1650
1363 1004
1367 1650
1373 1004
1377 1654
1383 1004
1384 1662
1392 999
1392 1669
1399 1677
1400 991
1407 1684
1410 989
1414 1692
1420 989
1422 1699
1429 1707
1430 989
1437 1714
1440 989
1444 1722
1450 989
1452 1729
1459 1737
1460 989
1469 1732
1470 989
1477 1725
1480 986
1485 1732
1488 979
1492 1740
1497 974
1502 1740
1507 974
1512 1744
1517 974
1519 1752
1527 974
1527 1759
1534 1767
1537 974
1544 1770
1547 974
1554 1770
1557 974
1564 1770
1567 974
1574 1770
1575 966
1583 959
1584 1770
1593 959
1594 1770
1603 959
1604 1770
1613 959
1614 1770
1620 951
1624 1770
1628 944
1634 1770
1635 936
1643 929
1644 1767
1649 907
1649 917
1652 1759
1657 899
1662 1755
1664 862
1664 872
1664 882
1672 854
1672 1755
1679 817
1679 827
1679 837
1682 1755
1687 809
1692 1755
1695 801
1702 1755
1703 794
1710 786
1712 1755
1718 779
1721 1750
1724 742
1724 752
1724 762
1729 1742
1732 734
1739 1740
1740 726
1748 719
1749 1740
1758 719
1759 1740
1767 714
1767 1734
1775 706
1775 1725
1783 699
1784 682
1785 1725
1792 674
1795 1720
1800 666
1800 1550
1803 1713
1805 1559
1808 659
1809 1545
1813 1710
1815 1559
1818 659
1819 1545
1823 1710
1825 1559
1827 654
1829 1545
1833 1710
1835 646
1835 1559
1839 1545
1843 1710
1845 644
1845 1559
1849 1545
1853 1710
1855 644
1855 1562
1859 1545
1862 1570
1863 1710
1865 644
1869 1542
1872 1574
1873 1710
1874 637
1877 1534
1882 629
1882 1574
1883 1708
1887 1530
1890 621
1890 1700
1892 1574
1897 1530
1898 614
1899 1695
1902 1574
1907 1530
1908 614
1909 1695
1912 1574
1917 1530
1918 614
1919 1695
1922 1574
1927 1530
1928 614
1929 1695
1931 1579
1937 1530
1938 614
1939 1586
1939 1695
1947 1530
1948 614
1949 1589
1949 1695
1957 1529
1958 614
1959 1589
1959 1695
1965 606
1965 1520
1969 1589
1969 1695
1973 599
1974 1515
1977 1689
1979 1589
1983 599
1984 1515
1985 1680
1989 1589
1993 599
1994 1515
1995 1680
1999 1589
2003 600
2004 1515
2005 1680
2007 1595
2010 608
2014 1515
2015 1602
2015 1680
2018 614
2022 1610
2023 1673
2024 1515
2028 614
2030 1617
2030 1665
2034 1512
2037 1625
2038 614
2040 1665
2042 1504
2045 1632
2048 614
2050 1660
2052 1500
2052 1640
2055 606
2055 1650
2062 1500
2063 600
2070 608
2072 1500
2078 614
2082 1500
2088 614
2092 1500
2097 619
2100 629
2100 639
2102 1500
2109 644
2112 1500
2119 644
2122 1499
2127 650
2130 1490
2135 657
2139 1485
2145 659
2149 1485
2155 662
2159 1485
2162 670
2169 1485
2170 677
2177 685
2179 1485
2187 689
2189 1485
2197 689
2199 1485
2204 697
2209 1485
2212 704
2217 1479
2219 712
2225 1470
2227 719
2234 727
2235 1470
2242 734
2245 1470
2250 726
2255 1470
2258 720
2265 728
2265 738
2265 748
2265 758
2265 1470
2273 765
2275 1470
2280 773
2280 783
2280 793
2280 803
2285 1470
2288 810
2295 818
2295 828
2295 838
2295 848
2295 1470
2303 855
2305 1465
2310 863
2313 1458
2318 869
2323 1455
2325 861
2333 854
2333 1453
2340 1445
2343 854
2349 1440
2353 854
2359 1440
2363 854
2369 1440
2370 846
2378 839
2379 1437
2385 831
2387 1429
2393 824
2397 1425
2403 824
2407 1425
2412 819
2414 787
2414 797
2414 807
2417 1425
2422 779
2427 1425
2430 771
2437 1425
2438 764
2444 742
2444 752
2447 1425
2452 734
2457 1425
2462 734
2467 1424
2472 729
2474 682
2475 1415
2480 721
2482 674
2482 689
2484 1410
2488 714
2489 652
2489 662
2492 690
2494 1410
2495 706
2497 644
2502 694
2504 1410
2505 636
2513 629
2514 1410
2523 629
2524 1410
2533 629
2534 1410
2543 629
2544 1410
2550 621
2550 1418
2558 614
2558 1424
2565 606
2565 1400
2565 1410
2573 599
2574 1395
2579 577
2579 587
2584 1395
2587 569
2594 1395
2597 569
2604 1395
2607 564
2614 1395
2615 556
2624 1395
2625 554
2634 1395
2635 551
2640 1370
2643 544
2644 1395
2645 1379
2649 1365
2650 536
2652 1389
2654 1374
2658 529
2662 1380
2665 521
2672 1380
2673 514
2682 509
2682 1380
2692 509
2692 1380
2700 1387
2702 509
2707 1395
2712 509
2715 1402
2722 509
2722 1410
2729 1402
2730 501
2737 1395
2738 494
2747 1395
2748 494
2757 1399
2758 494
2764 1407
2768 494
2772 1414
2778 494
2779 1422
2788 494
2789 1425
2798 494
2799 1425
2805 1433
2808 494
2813 1439
2817 489
2819 472
2820 1430
2827 464
2829 1425
2835 1433
2837 464
2843 1440
2847 464
2853 1440
2857 464
2862 1445
2867 464
2870 1452
2877 464
2880 1455
2887 464
2890 1457
2897 464
2897 1465
2907 459
2907 1464
2915 451
2915 1455
2924 1460
2925 449
2930 1468
2935 449
2940 1470
2945 449
2950 1472
2955 449
2957 1480
2965 449
2966 1485
2975 449
2976 1485
2984 442
2986 1485
2992 434
2996 1485
2999 442
3006 1485
3007 449
3015 441
3016 1485
3023 435
3026 1488
3030 443
3034 1495
3038 449
3043 1500
3048 449
3053 1500
3058 449
3060 1508
3068 449
3068 1514
3075 441
3075 1505
3083 434
3084 1500
3093 434
3094 1500
3103 434
3103 1505
3110 1513
3113 434
3120 1515
3123 434
3130 1515
3133 434
3140 1515
3143 434
3150 1515
3153 434
3160 1510
3162 429
3168 1503
3170 421
3178 1500
3179 426
3185 434
3188 1500
3195 434
3198 1500
3205 434
3208 1500
3215 434
3218 1500
3225 434
3225 1508
3233 1515
3235 434
3243 1515
3245 434
3252 1509
3254 427
3260 1500
3262 419
3270 1500
3272 419
3280 1500
3282 419
3290 1500
3292 419
3298 1493
3302 419
3305 1485
3312 419
3315 1485
3322 419
3325 1485
3332 419
3335 1485
3342 414
3343 1478
3350 406
3350 1470
3360 404
3360 1470
3370 404
3370 1470
3380 404
3380 1470
3390 404
3390 1470
3400 404
3400 1465
3408 1458
3410 404
3418 1455
3419 397
3427 389
3428 1453
3435 1445
3437 389
3444 1440
3447 389
3454 1440
3457 389
3464 1440
3467 389
3474 1440
3477 389
3484 1440
3487 389
3494 397
3494 1440
3502 404
3504 1437
3510 396
3512 1429
3518 389
3522 1425
3528 389
3532 1425
3538 389
3542 1425
3548 389
3551 1420
3558 389
3559 1412
3568 389
3569 1410
3578 389
3579 1410
3588 389
3589 1410
3597 384
3597 1404
3605 376
3605 1395
3615 374
3615 1395
3625 374
3625 1395
3635 374
3635 1395
3645 374
3645 1395
3655 374
3655 1395
3660 650
3665 374
3665 659
3665 1395
3668 643
3673 380
3675 635
3675 659
3675 1395
3680 388
3683 628
3685 659
3685 1390
3689 382
3690 620
3693 1383
3695 659
3697 374
3698 613
3703 1380
3704 652
3705 590
3705 600
3707 374
3712 644
3713 1380
3714 585
3717 374
3722 644
3723 1380
3724 585
3727 374
3732 579
3732 644
3733 1380
3737 374
3740 570
3742 644
3743 1380
3747 374
3750 570
3750 636
3753 1380
3757 374
3758 629
3760 565
3762 1374
3765 366
3765 1355
3768 558
3768 629
3773 359
3774 1350
3775 550
3778 629
3780 530
3780 540
3780 1145
3783 359
3784 1350
3785 1154
3788 523
3788 629
3789 1140
3793 359
3794 1350
3795 515
3795 1154
3798 629
3799 1140
3803 359
3804 510
3804 1350
3805 1154
3808 629
3809 1140
3813 359
3814 510
3814 1350
3815 1154
3818 629
3819 1137
3822 364
3824 510
3824 1350
3825 1154
3827 1129
3828 629
3829 372
3834 507
3834 1347
3835 1154
3837 1125
3838 629
3839 374
3842 499
3842 1339
3845 1154
3847 1125
3848 629
3849 372
3850 490
3852 1335
3855 1154
3857 364
3857 1125
3858 483
3858 629
3862 1335
3865 1157
3866 359
3867 624
3867 1125
3868 480
3872 1165
3872 1335
3875 616
3876 359
3877 1125
3878 478
3882 1169
3882 1335
3885 470
3885 614
3886 359
3887 1125
3892 1169
3892 1335
3894 465
3895 614
3896 359
3897 1125
3899 1177
3902 1335
3904 465
3905 614
3906 359
3907 1124
3907 1184
3912 459
3912 1335
3914 366
3915 614
3915 1115
3915 1176
3920 374
3920 450
3922 1334
3923 1169
3924 1110
3925 614
3930 374
3930 450
3930 1310
3930 1320
3933 1169
3934 1110
3935 614
3939 1305
3940 374
3940 445
3942 1174
3944 1110
3945 614
3948 438
3949 1182
3949 1305
3950 374
3954 1110
3955 430
3955 611
3958 380
3959 1184
3959 1305
3960 390
3960 400
3960 410
3960 420
3963 604
3964 1110
3969 1184
3969 1305
3972 599
3974 1110
3979 1184
3979 1305
3982 599
3984 1110
3987 1190
3987 1299
3992 599
3994 1110
3995 1197
3995 1290
4002 599
4002 1104
4004 1192
4005 1290
4010 1095
4012 599
4012 1184
4015 1285
4019 1192
4020 1095
4022 599
4023 1278
4027 1199
4030 1095
4030 1270
4032 599
4037 1199
4038 1263
4040 1095
4042 599
4046 1204
4048 1260
4049 577
4049 587
4050 1095
4054 1211
4057 569
4058 1258
4060 1095
4064 577
4064 1214
4065 1235
4065 1245
4070 1095
4072 584
4073 1228
4074 1216
4079 1100
4080 576
4085 1108
4088 569
4094 1102
4095 1085
4098 569
4104 1080
4108 569
4114 1080
4118 569
4124 1080
4125 561
4133 554
4134 1080
4143 554
4144 1080
4153 554
4154 1080
4163 554
4164 1077
4172 1069
4173 554
4182 1065
4183 554
4192 1065
4193 554
4202 1065
4203 554
4212 549
4212 1065
4220 541
4222 1065
4230 539
4232 1065
4240 539
4242 1065
4250 539
4252 1064
4260 539
4260 1055
4269 1050
4270 539
4279 1050
4280 539
4289 517
4289 1050
4290 539
4297 509
4297 524
4299 1050
4300 536
4307 509
4309 1050
4317 509
4319 1050
4327 509
4329 1050
4337 509
4339 1050
4347 509
4347 1044
4355 1035
4357 509
4365 1035
4367 509
4375 1035
4377 504
4385 496
4385 1035
4393 489
4395 1035
4400 481
4405 1035
4410 479
4415 1035
4420 479
4423 1028
4430 479
4430 1020
4440 479
4440 1020
4450 476
4450 1020
4454 457
4460 1020
4462 449
4470 1020
4472 449
4480 1020
4482 449
4490 1020
4492 449
4498 1013
4502 449
4505 1005
4512 444
4514 1010
4520 436
4520 1018
4530 434
4530 1020
4540 431
4540 1020
4548 424
4550 1020
4557 419
4560 1020
4567 419
4570 1020
4575 411
4580 1020
4583 404
4588 1013
4593 404
4595 1005
4603 404
4605 1005
4613 404
4615 1005
4620 396
4625 1005
4628 389
4634 1010
4635 381
4640 1018
4643 374
4650 1020
4653 374
4660 1020
4663 374
4670 1020
4673 374
4678 1013
4683 374
4685 1005
4692 369
4695 1005
4700 361
4705 1005
4710 359
4715 1005
4720 356
4725 1005
4728 349
4735 1007
4737 344
4742 1015
4747 344
4751 1020
4757 344
4761 1020
4767 339
4769 1012
4775 331
4777 1005
4783 324
4787 1005
4790 316
4797 1005
4800 314
4807 1005
4810 314
4817 1005
4820 314
4827 1005
4830 314
4837 1004
4840 314
4845 995
4850 314
4854 990
4860 314
4860 998
4868 1005
4870 311
4878 304
4878 1005
4887 299
4888 1005
4897 299
4898 1005
4907 299
4908 1005
4917 299
4918 1005
4927 299
4928 1003
4935 995
4937 299
4944 990
4947 299
4954 990
4957 299
4964 990
4965 291
4973 284
4974 990
4983 284
4984 990
4993 284
4993 995
5000 1003
5003 284
5010 1005
5013 284
5020 1000
5023 284
5028 993
5033 284
5038 990
5043 284
5048 990
5053 284
5058 990
5063 284
5068 990
5073 284
5078 990
5083 284
5088 990
5093 285
5098 990
5100 293
5108 299
5108 988
5115 980
5118 299
5124 975
5128 299
5134 975
5138 299
5142 969
5148 299
5150 960
5157 304
5160 960
5164 312
5170 955
5174 314
5178 948
5184 316
5185 940
5190 324
5193 933
5198 330
5200 925
5205 338
5208 918
5213 344
5218 915
5223 344
5228 913
5233 344
5235 905
5243 344
5244 900
5253 344
5254 900
5262 349
5262 894
5265 860
5269 357
5270 869
5270 885
5274 855
5278 875
5279 359
5284 855
5289 361
5292 849
5295 369
5300 840
5303 375
5308 833
5310 383
5315 825
5318 389
5323 818
5328 389
5330 810
5337 394
5338 803
5344 402
5345 795
5352 409
5353 788
5355 770
5359 417
5363 763
5367 424
5370 434
5370 444
5370 755
5378 450
5378 748
5385 458
5385 468
5385 478
5385 488
5385 498
5385 508
5385 518
5385 740
5393 524
5393 733
5400 650
5400 660
5400 670
5400 680
5400 725
5403 524
5405 689
5408 643
5408 718
5412 529
5413 695
5415 539
5415 549
5415 559
5415 569
5415 579
5415 589
5415 599
5415 609
5415 635
5415 705
5423 615
5423 628
