159 682
159 692
159 702
164 672
164 711
169 662
169 720
174 652
175 728
180 737
182 644
187 745
190 636
195 752
198 629
202 760
204 617
210 767
212 609
219 772
222 604
227 779
230 596
235 785
238 589
244 790
245 581
253 574
253 795
262 569
263 795
272 564
272 800
280 556
282 804
290 551
291 809
300 546
301 813
309 820
310 541
318 534
318 825
325 833
327 529
333 840
337 529
340 848
347 524
350 852
357 519
357 860
366 865
367 514
374 871
377 509
384 875
387 509
389 884
395 892
396 504
399 902
404 911
405 499
409 920
414 494
414 929
420 937
424 492
427 945
434 489
437 949
444 487
445 955
454 484
454 960
463 965
464 482
472 970
474 479
482 970
483 474
491 975
493 474
501 978
503 474
511 980
512 469
521 980
522 464
531 980
532 464
541 980
542 464
551 980
552 459
561 980
562 459
570 975
572 459
580 975
581 454
589 970
591 454
599 967
601 454
609 965
611 450
614 402
614 412
618 970
619 421
621 449
622 394
626 429
628 970
629 439
630 386
638 379
638 970
645 371
647 975
655 366
657 975
663 359
667 975
672 354
677 975
682 349
686 980
692 349
696 980
701 344
706 980
710 339
715 985
720 339
725 985
730 339
735 985
740 339
745 985
750 339
755 985
760 339
764 990
769 344
774 990
777 350
782 359
784 990
789 367
790 377
790 387
790 397
790 407
794 990
800 409
804 990
810 406
814 990
820 401
824 990
828 394
834 990
835 386
843 379
844 990
852 374
854 990
860 366
864 990
870 361
874 990
880 356
884 990
888 349
894 990
897 344
904 990
905 336
914 990
915 331
923 324
924 990
932 319
933 995
941 314
943 995
949 307
953 995
959 302
963 995
967 294
972 1000
977 289
982 1004
987 289
991 1009
995 281
1001 1013
1003 274
1011 1015
1012 269
1020 1020
1022 264
1030 1020
1031 259
1040 1022
1041 255
1050 1025
1051 250
1060 1027
1061 245
1070 1030
1071 240
1080 1030
1081 235
1089 1035
1091 234
1099 1035
1100 229
1109 224
1109 1035
1119 222
1119 1035
1129 219
1129 1035
1138 214
1139 1035
1148 214
1149 1035
1157 209
1159 1035
1166 204
1169 1035
1176 204
1179 1035
1186 204
1189 1032
1195 199
1199 1030
1205 199
1209 1030
1214 204
1219 1030
1224 202
1229 1027
1234 199
1239 1025
1244 199
1249 1025
1254 199
1259 1025
1264 199
1269 1025
1274 199
1278 1020
1284 199
1288 1020
1294 199
1298 1020
1304 199
1308 1018
1314 199
1318 1015
1324 199
1328 1015
1334 201
1338 1013
1344 204
1348 1010
1354 202
1358 1010
1364 199
1367 1005
1374 201
1377 1005
1384 204
1387 1005
1394 204
1397 1009
1404 204
1407 1010
1414 204
1414 1018
1415 1028
1419 1038
1419 1048
1424 204
1424 1057
1429 1066
1434 204
1436 1074
1443 209
1444 1080
1450 1088
1453 209
1458 1095
1463 209
1465 1103
1473 209
1475 1107
1483 209
1484 1112
1492 1119
1493 209
1501 1124
1503 209
1511 1125
1513 210
1520 1130
1523 214
1530 1130
1532 219
1539 1135
1542 219
1549 1135
1552 219
1559 1135
1562 219
1569 1135
1572 219
1579 1135
1582 219
1589 1135
1592 219
1599 1132
1602 219
1609 1130
1611 224
1619 1127
1621 224
1629 1122
1630 229
1639 1117
1640 229
1649 1112
1650 229
1659 1107
1660 229
1669 1102
1670 229
1677 1094
1680 232
1687 1089
1690 234
1695 1080
1700 234
1703 1073
1709 239
1710 1065
1718 1058
1719 239
1725 1050
1729 239
1733 1043
1738 1033
1739 239
1745 1020
1749 239
1750 1010
1755 1000
1758 244
1763 993
1768 244
1770 980
1778 244
1778 973
1780 960
1788 245
1788 953
1793 943
1798 249
1800 935
1808 249
1810 930
1818 249
1820 930
1828 249
1830 925
1837 254
1840 925
1847 254
1850 920
1857 254
1860 920
1867 254
1870 915
1877 254
1880 915
1887 254
1890 910
1896 259
1900 910
1906 259
1910 910
1916 259
1920 910
1925 264
1929 915
1934 924
1935 264
1940 932
1944 942
1945 267
1949 951
1955 269
1956 959
1964 965
1965 269
1970 973
1974 274
1978 980
1984 274
1987 985
1994 276
1996 990
2004 279
2005 995
2014 281
2015 997
2024 284
2025 1000
2034 284
2035 1002
2044 286
2045 1005
2054 289
2055 1005
2064 289
2065 1005
2073 294
2075 1005
2083 294
2085 1005
2093 295
2095 1005
2103 299
2105 1005
2113 299
2114 1000
2123 300
2124 997
2133 304
2134 992
2143 304
2144 987
2153 304
2154 982
2162 309
2162 974
2170 965
2172 309
2178 958
2181 314
2185 950
2190 940
2191 314
2195 930
2200 319
2203 923
2208 913
2210 322
2213 903
2215 890
2220 324
2220 880
2225 870
2230 327
2230 860
2235 840
2235 850
2240 329
2240 830
2248 823
2249 334
2255 815
2258 339
2263 808
2267 344
2273 803
2276 349
2280 795
2284 356
2288 788
2290 364
2295 775
2298 370
2300 380
2303 768
2305 389
2305 399
2305 755
2310 408
2310 740
2315 417
2318 733
2319 427
2320 715
2325 435
2325 445
2325 705
2330 454
2330 464
2330 685
2330 695
2335 473
2335 483
2335 670
2340 492
2340 650
2340 660
2344 502
2345 512
2345 522
2345 640
2349 532
2350 542
2350 620
2350 630
2355 551
2355 561
2355 571
2355 581
2355 591
2355 601
2355 611
