69 657
69 667
69 677
74 627
74 637
74 647
74 686
79 695
79 705
82 619
84 714
84 724
89 733
90 743
92 614
95 752
99 762
102 609
107 769
112 609
117 770
120 601
124 552
124 562
124 572
124 582
127 770
129 542
137 534
137 770
146 529
147 770
154 522
157 770
162 514
166 775
170 506
171 784
176 793
178 499
184 800
185 491
190 481
193 805
198 474
200 813
202 464
210 817
212 459
217 825
222 459
227 829
232 459
235 835
241 454
244 840
251 454
253 845
261 454
262 850
271 454
272 850
281 454
281 855
290 449
291 855
300 449
300 860
310 449
310 860
320 449
320 860
329 444
330 860
339 444
340 860
349 444
350 860
359 444
360 860
368 439
370 860
378 439
380 860
388 439
390 855
398 439
400 850
407 434
410 845
417 434
418 838
425 825
427 434
433 818
437 434
440 805
447 434
449 800
457 434
458 795
467 434
468 795
477 434
478 795
487 434
488 795
494 392
494 402
494 412
497 429
497 800
502 384
507 800
511 379
517 800
520 374
527 800
530 371
537 800
540 366
547 800
550 364
557 800
559 359
567 800
569 359
577 800
579 359
587 800
589 359
597 800
599 359
607 800
609 359
617 800
618 354
625 346
627 800
633 339
637 800
640 331
647 800
648 324
655 316
657 800
663 309
667 800
672 304
677 800
680 296
687 800
688 289
695 281
697 800
703 274
707 800
710 266
716 795
718 259
725 251
726 795
733 244
736 795
742 239
746 795
750 231
756 795
760 226
765 790
770 221
775 790
780 219
785 792
789 214
792 800
797 809
798 209
799 819
801 829
804 839
808 209
810 847
817 204
817 855
827 204
827 855
836 199
837 855
846 199
847 859
856 199
857 860
866 199
867 860
875 204
877 860
885 204
887 860
895 204
897 860
904 199
907 860
914 199
917 860
924 199
927 860
934 199
937 860
944 199
947 860
953 194
957 860
963 194
967 860
973 194
977 860
983 194
986 855
993 194
996 855
1002 189
1006 855
1012 189
1015 850
1022 189
1025 845
1032 189
1033 838
1038 828
1042 189
1045 820
1052 189
1053 813
1062 189
1063 808
1072 189
1073 805
1082 189
1082 800
1091 795
1092 189
1101 795
1102 189
1110 790
1112 189
1120 785
1122 189
1130 785
1132 189
1140 785
1142 189
1150 785
1152 189
1160 785
1162 189
1170 785
1172 189
1179 780
1182 189
1189 780
1192 189
1199 780
1202 189
1209 780
1212 189
1219 780
1222 189
1229 780
1232 189
1239 780
1242 189
1249 780
1251 194
1259 780
1261 194
1269 780
1271 194
1278 775
1281 194
1288 775
1291 194
1298 775
1301 194
1308 775
1310 199
1318 775
1320 199
1328 773
1330 199
1338 770
1340 199
1348 770
1350 199
1358 770
1360 202
1368 770
1370 204
1378 768
1380 204
1388 765
1390 204
1398 765
1400 204
1408 765
1410 204
1418 765
1419 209
1428 765
1429 209
1438 765
1439 209
1448 765
1449 211
1458 216
1458 765
1468 220
1468 765
1475 228
1478 765
1485 232
1488 765
1493 239
1498 765
1502 244
1507 770
1509 252
1514 778
1519 256
1519 787
1525 264
1527 794
1533 270
1536 799
1540 278
1545 287
1546 800
1552 295
1555 805
1560 302
1565 807
1567 310
1572 319
1575 810
1579 327
1585 810
1587 334
1594 342
1595 810
1599 351
1605 359
1605 810
1613 365
1615 810
1620 373
1625 382
1625 810
1634 387
1635 810
1642 394
1644 805
1649 402
1654 805
1657 409
1664 802
1666 414
1674 797
1675 419
1684 792
1685 419
1689 782
1695 419
1695 770
1700 760
1705 419
1705 740
1705 750
1714 735
1715 419
1724 735
1725 419
1734 735
1735 419
1743 730
1745 419
1753 730
1755 419
1762 725
1765 419
1772 724
1775 422
1782 720
1784 427
1791 715
1792 434
1799 442
1800 710
1807 449
1808 703
1810 459
1815 468
1815 695
1820 477
1823 688
1825 486
1830 495
1830 675
1835 504
1838 668
1840 513
1840 523
1840 575
1840 585
1840 595
1840 605
1840 615
1840 625
1840 635
1840 645
1840 655
1845 532
1845 542
1845 552
1845 562
