289 727
289 737
289 747
289 757
294 707
294 717
294 766
294 776
301 784
302 699
309 790
310 691
318 684
318 795
324 627
324 637
324 647
324 657
324 667
327 800
329 617
334 607
336 805
339 597
344 587
345 810
352 579
355 812
359 822
362 574
367 564
367 829
372 554
376 834
381 549
384 840
391 549
393 845
400 544
402 850
410 544
412 854
419 539
422 855
429 537
432 859
439 534
442 860
449 534
452 864
459 534
461 869
469 532
469 875
475 883
479 529
483 890
487 900
489 527
495 907
499 524
502 915
509 524
512 919
519 524
519 927
528 519
529 930
538 519
538 935
547 940
548 519
557 940
558 519
567 514
567 940
577 509
577 940
585 501
587 940
590 491
597 940
598 484
602 474
604 442
604 452
604 462
607 940
612 434
615 495
617 940
620 426
620 504
624 490
626 935
630 421
630 504
634 490
636 935
640 419
640 504
645 495
645 930
650 419
650 504
654 925
655 490
660 419
660 504
662 919
665 485
670 419
670 501
670 910
675 480
678 425
678 903
680 470
680 499
685 433
685 460
688 898
690 442
690 499
698 895
700 496
708 895
710 494
718 895
720 494
728 895
730 494
738 895
740 491
747 900
750 489
757 900
760 489
767 900
770 489
777 900
780 489
787 900
790 489
797 900
799 484
807 900
809 484
816 905
819 482
826 905
829 479
836 905
839 479
846 905
849 479
856 905
858 474
866 905
867 469
876 905
877 464
885 456
886 905
893 449
896 905
900 441
906 905
908 434
915 426
916 905
923 419
926 905
930 411
936 905
939 402
946 905
949 397
956 905
957 389
965 381
966 905
973 374
976 905
980 366
986 908
990 361
994 915
997 925
1000 356
1002 934
1008 349
1009 942
1017 344
1017 949
1021 959
1025 336
1029 965
1035 331
1038 970
1045 326
1047 975
1055 321
1057 979
1065 316
1066 984
1073 309
1076 988
1080 301
1086 990
1090 296
1095 995
1100 291
1105 997
1110 289
1115 1000
1119 284
1125 1000
1129 284
1135 1000
1138 279
1145 1000
1148 279
1155 1000
1158 279
1165 1000
1168 279
1175 1000
1177 274
1185 1000
1187 274
1194 995
1197 274
1204 995
1207 274
1213 990
1217 274
1223 988
1227 269
1230 980
1237 269
1240 975
1247 269
1249 970
1257 269
1257 964
1265 955
1267 269
1273 948
1277 269
1280 940
1287 269
1288 933
1295 925
1297 269
1300 915
1305 905
1307 269
1313 898
1317 269
1318 888
1323 878
1327 269
1328 868
1335 860
1337 269
1343 853
1347 269
1353 850
1357 269
1363 850
1367 269
1373 850
1377 269
1383 850
1387 269
1393 850
1397 269
1402 855
1407 269
1412 855
1417 269
1421 860
1427 269
1430 865
1437 269
1439 870
1445 878
1447 269
1455 880
1457 269
1465 882
1467 269
1475 885
1477 269
1484 890
1487 269
1494 890
1497 269
1504 890
1506 274
1514 890
1516 274
1523 885
1526 274
1533 883
1536 274
1543 878
1545 279
1553 873
1555 279
1563 868
1565 279
1570 860
1575 279
1578 853
1585 279
1585 845
1594 840
1595 282
1604 840
1605 284
1613 835
1615 284
1623 835
1625 284
1633 835
1635 284
1643 835
1645 284
1653 835
1654 289
1663 835
1664 289
1673 294
1673 835
1683 294
1683 835
1693 294
1693 833
1703 294
1703 830
1712 825
1713 294
1722 825
1723 295
1731 830
1733 299
1741 830
1743 300
1751 830
1753 304
1761 830
1763 304
1771 830
1772 309
1781 830
1782 309
1791 830
1792 309
1801 314
1801 830
1809 836
1810 319
1814 845
1819 854
1820 319
1821 864
1826 873
1829 324
1830 883
1838 890
1839 326
1842 900
1845 334
1850 907
1855 337
1857 915
1862 345
1865 922
1870 352
1872 930
1879 357
1882 934
1887 364
1891 939
1894 372
1901 943
1902 379
1909 387
1911 945
1919 391
1920 950
1925 399
1930 950
1933 405
1940 413
1940 950
1945 422
1950 950
1954 427
1960 950
1962 434
1969 442
1970 950
1977 449
1980 945
1984 457
1990 465
1990 940
1995 474
2000 935
2003 480
2010 488
2010 930
2018 494
2018 923
2025 915
2027 499
2033 908
2034 507
2040 900
2042 514
2045 890
2050 880
2051 519
2055 870
2060 524
2063 863
2065 850
2069 529
2070 825
2070 835
2078 818
2079 531
2088 815
2089 534
2098 539
2098 815
2107 544
2107 810
2116 549
2117 810
2124 556
2126 805
2130 564
2135 800
2138 570
2143 793
2145 578
2150 587
2153 788
2155 596
2155 606
2158 616
2160 626
2160 636
2160 646
2160 656
2160 666
2160 676
2160 686
2160 696
2160 780
2165 705
2168 773
2170 714
2175 723
2175 755
2175 765
2180 732
2180 742
