194 747
194 757
199 722
199 732
199 766
199 776
204 712
204 785
209 794
212 704
215 802
220 696
222 810
224 587
224 597
224 607
224 617
224 627
224 637
224 647
224 657
224 667
224 677
229 567
229 577
230 817
234 557
239 822
242 549
249 825
250 541
258 534
258 830
265 838
267 529
273 845
277 529
277 855
285 862
287 529
292 870
296 524
300 877
306 524
309 882
316 524
319 885
325 519
328 890
335 519
337 895
345 519
347 895
355 519
356 900
364 514
366 900
374 514
376 903
384 514
386 905
393 509
395 910
403 509
404 915
409 924
413 509
415 932
419 942
423 509
427 949
433 509
434 957
442 504
442 964
451 969
452 504
461 973
462 504
469 980
472 499
479 980
482 499
488 985
492 499
498 985
501 494
507 990
511 494
517 990
521 494
527 990
531 494
537 990
541 494
547 990
551 490
556 985
561 489
566 985
571 489
575 980
581 489
585 980
590 484
593 973
600 484
603 968
610 484
610 960
619 955
620 484
627 949
629 479
635 940
639 479
644 935
649 479
654 935
659 477
664 935
669 474
674 935
679 474
684 935
689 474
694 935
698 469
704 935
708 469
714 935
718 469
724 935
728 469
734 935
738 469
743 940
747 464
753 940
757 464
763 940
767 459
773 940
777 459
782 945
787 459
792 945
796 454
802 945
805 449
812 945
814 442
822 434
822 945
830 426
831 950
838 419
841 950
842 409
850 401
851 950
858 394
861 950
865 386
871 950
873 379
880 371
881 950
888 364
891 950
895 356
900 955
903 349
910 341
910 955
915 331
920 955
923 324
930 316
930 955
940 311
940 957
948 304
950 960
952 294
960 286
960 960
968 279
970 960
977 274
980 960
985 266
989 965
993 259
998 970
1002 254
1004 978
1009 987
1009 997
1010 246
1014 1006
1014 1016
1018 239
1019 1025
1019 1035
1024 1044
1028 239
1029 1053
1034 1062
1037 234
1039 1071
1046 1079
1047 234
1051 1088
1056 229
1059 1095
1065 1103
1066 229
1073 1110
1076 225
1082 1115
1086 224
1090 1122
1096 224
1097 1130
1106 224
1106 1135
1115 1140
1116 224
1124 1145
1125 219
1134 1145
1135 219
1143 1150
1145 219
1152 1155
1155 219
1162 1155
1165 219
1172 1159
1175 219
1182 1160
1185 219
1192 1160
1194 214
1201 1165
1204 214
1211 1165
1214 214
1221 1165
1224 214
1231 1165
1233 219
1240 1160
1243 219
1250 1160
1253 219
1260 1160
1263 219
1269 1155
1273 219
1279 1152
1283 219
1289 1147
1292 224
1299 1142
1302 224
1309 1137
1312 224
1317 1129
1322 224
1327 1124
1332 224
1335 1115
1342 224
1344 1110
1352 224
1352 1104
1360 1090
1361 229
1368 1083
1371 229
1373 1073
1380 1065
1381 229
1385 1055
1391 229
1393 1048
1395 1035
1400 1025
1401 229
1405 1015
1410 1000
1411 229
1415 985
1421 229
1423 978
1430 234
1430 970
1440 234
1440 970
1450 234
1450 972
1459 977
1460 234
1467 984
1470 234
1475 990
1480 234
1484 995
1490 234
1490 1003
1500 234
1500 1005
1509 239
1509 1010
1519 239
1519 1010
1528 1015
1529 239
1538 1015
1539 239
1547 1020
1549 239
1556 1015
1559 239
1566 1015
1569 239
1576 1015
1579 239
1585 1010
1588 244
1595 1005
1598 244
1605 1000
1608 244
1615 995
1618 244
1624 990
1628 244
1634 987
1638 244
1642 980
1648 245
1651 975
1658 249
1660 970
1668 249
1670 970
1678 249
1679 965
1688 249
1689 965
1698 249
1699 965
1708 249
1709 965
1718 249
1719 965
1728 249
1729 965
1737 254
1739 965
1747 254
1749 965
1757 254
1759 965
1767 254
1769 965
1777 254
1779 965
1786 259
1789 965
1796 259
1799 965
1806 259
1809 965
1816 259
1818 970
1826 259
1828 970
1836 259
1837 965
1845 264
1847 965
1855 264
1857 969
1865 264
1867 970
1874 978
1875 264
1875 988
1880 997
1884 1007
1884 1017
1885 264
1889 1026
1894 269
1894 1035
1899 1044
1904 269
1905 1052
1909 1062
1914 269
1917 1069
1924 269
1924 1077
1934 269
1934 1080
1940 1088
1944 271
1948 1095
1954 274
1957 1100
1964 274
1967 1104
1974 276
1977 1105
1984 279
1986 1110
1994 281
1995 1115
2003 286
2005 1115
2010 294
2015 1117
2019 299
2025 1120
2027 305
2035 312
2035 1120
2042 320
2045 1115
2050 327
2055 1115
2057 335
2065 342
2065 1115
2072 350
2075 1115
2080 357
2084 367
2085 1110
2090 375
2095 384
2095 1105
2100 393
2104 1100
2108 400
2112 410
2113 1095
2117 419
2122 1089
2124 427
2129 436
2130 1080
2135 444
2138 1073
2140 453
2145 1065
2148 460
2153 1058
2155 468
2160 477
2160 1045
2165 1035
2167 485
2170 1020
2172 494
2175 504
2175 1010
2180 990
2180 1000
2183 510
2188 983
2190 518
2195 527
2195 975
2200 536
2204 970
2205 545
2210 554
2214 970
2215 563
2223 570
2224 970
2230 578
2234 970
2235 587
2240 596
2244 970
2245 605
2250 614
2254 970
2255 623
2263 630
2264 967
2267 640
2272 649
2274 962
2275 659
2280 668
2280 678
2284 957
2285 687
2285 825
2287 835
2289 697
2290 707
2290 717
2290 727
2290 737
2290 747
2290 757
2290 767
2290 777
2290 787
2290 797
2290 807
2290 845
2292 949
2295 854
2300 863
2300 873
2300 930
2300 940
2305 882
2305 905
2305 915
2309 892
