4 572
4 582
4 592
4 602
9 611
9 621
9 631
12 564
14 640
19 552
19 649
19 659
24 668
27 544
29 677
29 687
34 696
35 536
39 705
43 529
45 713
52 524
53 720
57 514
62 725
67 509
69 733
75 501
77 740
84 748
85 496
92 755
93 489
100 762
102 484
107 770
110 476
115 777
120 471
124 782
128 464
132 789
137 459
139 797
146 454
147 804
154 447
154 812
162 819
164 442
170 825
174 437
179 830
182 429
185 838
190 847
192 424
199 852
201 419
205 860
209 1407
209 1417
210 414
214 865
214 1426
217 1399
219 409
219 1435
220 873
222 1445
227 1399
228 404
230 877
230 1452
235 396
237 885
237 1399
237 1460
244 1407
245 391
246 890
247 1464
254 896
254 1407
255 386
255 1470
261 904
264 1404
264 1475
265 381
269 910
273 374
273 1480
274 1404
275 918
282 369
282 1485
284 1406
285 922
290 361
290 1414
291 1490
292 930
295 1423
300 356
300 937
300 1432
300 1495
307 1440
308 349
309 942
309 1500
315 341
315 1447
317 949
319 1500
324 1452
325 336
326 954
328 1505
332 1459
333 329
334 960
334 1437
334 1447
338 1505
339 317
342 1429
343 965
347 1510
349 312
350 973
352 1429
357 304
357 1510
360 977
362 1429
365 296
367 1510
370 980
372 1429
374 287
376 1515
379 985
379 1437
384 277
386 1515
387 1444
389 985
392 269
396 1449
396 1515
398 990
399 257
405 1454
406 1515
407 249
407 995
415 241
415 1457
416 1515
417 995
420 231
425 1459
425 1510
427 995
428 224
434 212
435 1456
435 1510
437 994
439 1042
439 1052
439 1062
439 1072
442 204
444 1022
444 1032
444 1081
445 1451
445 1510
447 990
449 1000
449 1010
450 196
454 1085
454 1505
455 186
455 1446
463 179
463 1439
464 1082
464 1505
470 171
472 1434
473 1500
474 1080
477 1090
478 164
480 1426
482 1099
482 1495
485 156
486 1109
488 1419
491 1490
492 1409
493 149
494 1115
499 137
499 1397
500 1485
503 1120
504 1387
507 129
509 1128
509 1480
510 1138
512 119
512 1379
514 1362
517 1474
518 1145
519 107
519 1352
524 1332
524 1342
525 1153
525 1465
527 99
529 1163
529 1302
529 1312
529 1322
532 89
534 1172
534 1182
534 1192
534 1202
534 1212
534 1232
534 1242
534 1252
534 1262
534 1272
534 1282
534 1292
535 1455
539 77
539 1221
545 1445
547 69
552 59
553 1438
557 49
558 1428
559 37
560 1015
564 27
565 1024
565 1420
568 1008
570 1410
574 22
574 1029
575 1400
578 1005
579 1015
580 1390
584 19
585 1380
593 1373
594 19
600 1325
600 1335
600 1365
602 1345
604 21
605 1295
605 1305
605 1315
605 1355
610 29
610 1155
610 1165
610 1245
610 1255
610 1265
610 1275
610 1285
615 38
615 1140
615 1174
615 1184
615 1194
615 1230
620 47
623 1133
624 57
625 67
625 1115
625 1197
625 1207
625 1217
625 1227
629 77
635 85
635 1115
637 95
642 104
643 1108
649 112
650 1095
654 121
658 131
659 1100
665 139
668 1105
670 148
675 157
678 1105
680 995
682 165
682 1005
685 1015
685 1025
687 1099
690 172
690 997
690 1034
690 1044
690 1054
690 1064
690 1074
690 1084
697 180
700 1000
705 187
709 197
710 995
715 205
720 214
720 995
728 220
730 995
735 228
740 237
740 990
745 246
750 985
751 254
759 261
760 980
765 269
770 980
773 275
778 284
779 975
785 292
788 970
790 301
798 968
799 306
803 958
805 314
810 323
813 953
815 332
823 948
824 337
832 344
833 943
841 349
843 940
845 359
852 935
855 362
860 925
862 370
870 377
870 920
877 385
880 915
885 392
889 910
892 400
897 904
902 404
905 414
905 895
915 417
915 890
922 425
924 885
930 432
934 882
939 437
942 875
947 444
951 870
954 452
960 865
964 456
968 858
970 464
978 853
980 467
985 845
987 475
994 840
995 482
1003 835
1004 487
1010 825
1012 494
1019 502
1020 820
1028 813
1029 506
1035 514
1035 805
1040 523
1043 798
1050 527
1050 790
1057 535
1060 785
1062 544
1068 778
1071 549
1075 559
1075 770
1080 760
1085 562
1090 571
1090 750
1098 743
1099 576
1105 584
1108 738
1110 593
1113 728
1118 600
1118 718
1120 705
1125 608
1125 685
1125 695
1130 617
1130 645
1130 655
1130 665
1130 675
1135 626
1135 636
