184 467
184 477
184 487
189 452
189 496
189 506
189 516
189 537
189 547
194 422
194 432
194 442
194 525
194 556
194 566
199 392
199 402
199 412
199 575
202 585
204 382
207 594
209 372
211 604
214 357
214 614
219 337
219 347
219 623
224 312
224 327
224 632
229 641
232 304
234 650
239 659
240 296
244 668
248 289
249 677
254 277
257 684
261 694
262 269
269 700
270 261
275 708
278 254
280 717
284 242
287 725
292 234
295 732
301 229
302 740
307 749
309 222
314 757
317 214
322 764
325 206
326 774
333 199
334 780
339 789
340 191
345 797
349 807
350 186
357 814
360 181
364 822
369 831
370 176
374 840
378 169
380 480
380 490
380 500
380 848
382 510
387 164
387 519
388 473
388 855
390 529
390 539
395 460
395 548
397 164
398 855
400 450
400 557
404 567
405 156
405 863
408 443
409 576
413 870
415 154
415 430
415 584
420 593
420 878
423 423
424 149
425 602
428 413
428 885
432 610
434 147
435 400
435 893
440 617
443 393
443 900
444 142
445 626
450 380
451 634
452 905
454 139
457 914
458 373
459 641
463 363
464 139
465 649
465 920
470 350
473 655
474 137
474 925
477 665
478 343
480 933
484 134
485 330
485 672
488 940
492 680
493 323
494 134
495 948
500 305
500 315
500 687
504 134
504 697
505 952
508 298
512 960
514 131
514 701
515 290
520 709
521 965
524 129
524 285
525 718
531 965
533 280
533 724
534 131
539 971
542 285
542 729
544 134
544 980
551 734
552 285
553 985
554 134
559 741
560 993
562 289
564 136
565 749
568 1000
572 289
573 755
574 139
577 1005
580 763
581 294
584 139
586 1010
588 770
589 300
593 144
594 1016
595 778
598 305
601 1024
603 144
603 784
607 310
609 1030
612 789
613 144
615 317
615 1038
619 797
623 145
623 1045
624 322
629 801
632 329
632 1050
633 149
635 809
641 334
642 154
642 1054
645 812
649 340
649 1062
651 159
652 820
658 345
659 1065
661 159
662 824
665 353
668 1070
669 166
669 832
675 357
677 1075
678 171
679 836
682 365
685 844
686 1080
688 175
692 369
694 1086
695 844
697 180
699 377
704 849
704 1090
707 184
707 1100
709 380
713 854
714 192
715 388
715 1107
722 859
724 196
724 1112
725 392
730 204
731 864
732 400
732 1119
739 1127
740 207
740 869
741 405
747 215
747 1134
749 411
749 874
755 1140
757 219
757 880
759 415
764 1145
765 423
766 224
767 884
770 1153
774 231
775 427
776 889
780 239
780 1157
782 435
785 894
787 1165
790 242
791 440
794 899
795 1172
797 250
799 446
802 1180
804 901
805 257
809 450
811 1185
812 265
813 906
815 458
819 1191
820 272
820 914
824 282
825 462
826 1199
830 917
832 289
832 470
835 299
836 1203
837 925
841 475
843 305
844 1210
847 315
847 929
849 481
853 1215
855 322
856 934
859 485
860 1223
862 330
865 493
865 939
870 337
870 1227
874 944
875 497
877 1235
879 342
882 505
882 950
887 349
887 1239
890 512
892 954
894 357
894 522
896 1244
900 365
901 959
902 529
905 374
906 1248
910 383
910 964
911 534
916 1250
918 390
919 969
921 538
922 400
925 1255
927 409
927 975
931 540
934 417
934 1260
937 979
939 426
940 535
944 987
944 1260
945 434
945 444
948 528
950 453
950 463
950 473
950 483
950 493
950 503
950 513
952 994
953 1265
961 999
963 1265
970 1004
972 1270
980 1007
982 1270
989 1012
992 1274
997 1019
1001 1279
1006 1024
1011 1280
1015 1029
1021 1283
1025 1032
1029 1290
1032 1040
1038 1295
1042 1044
1048 1295
1051 1049
1055 1303
1060 1054
1063 1310
1068 1060
1072 1315
1077 1065
1081 1320
1085 1072
1090 1325
1095 1074
1100 1327
1103 1080
1109 1332
1110 1088
1117 1339
1118 1094
1126 1344
1127 1099
1136 1104
1136 1348
1145 1109
1145 1353
1153 1115
1153 1360
1162 1120
1162 1365
1172 1124
1172 1365
1181 1129
1182 1365
1190 1134
1192 1365
1199 1139
1201 1370
1208 1144
1211 1373
1218 1145
1221 1375
1225 1153
1231 1375
1233 1160
1240 1168
1241 1375
1248 1175
1250 1370
1252 1185
1260 1192
1260 1370
1267 1200
1270 1370
1275 1207
1280 1216
1280 1370
1283 1226
1288 1235
1289 1375
1295 1243
1299 1375
1300 1252
1305 1261
1309 1377
1311 1269
1319 1380
1320 1274
1325 1283
1329 1380
1330 1292
1334 1302
1337 1374
1340 1310
1345 1319
1345 1329
1345 1355
1345 1365
1350 1338
