104 742
104 752
104 762
104 772
104 782
104 792
109 707
109 717
109 727
109 801
109 811
114 687
114 697
114 820
114 830
117 840
119 667
119 677
122 849
124 657
124 859
129 647
129 868
134 637
134 877
139 627
139 886
146 894
147 619
151 903
154 607
159 910
162 599
165 918
170 591
173 925
178 584
180 933
185 576
188 940
193 569
197 945
202 564
205 952
211 559
212 960
219 552
222 964
229 547
229 972
239 542
239 975
248 980
249 539
255 988
258 534
265 992
268 534
274 997
277 529
284 1000
287 524
293 1005
297 524
302 1010
306 519
312 1014
316 519
320 1020
326 519
329 1025
335 514
335 1033
345 514
345 1035
355 514
355 1037
364 509
364 1042
374 509
374 1045
383 1050
384 509
392 1055
393 504
402 1059
403 504
412 1060
413 504
421 1065
422 499
431 1068
432 499
441 1070
442 499
450 1075
451 494
459 1080
461 494
469 1080
471 494
478 1085
481 490
487 1090
491 489
497 1090
501 489
506 1095
511 485
516 1098
521 484
525 1103
531 484
535 1105
541 484
545 1107
550 479
555 1110
560 479
564 1115
570 479
574 1115
580 479
583 1120
590 476
593 1120
600 474
602 1125
610 474
612 1129
620 474
622 1130
630 474
632 1134
640 474
642 1135
650 474
652 1135
660 474
661 1140
669 469
671 1140
679 469
680 1145
689 469
690 1145
699 469
700 1145
709 469
710 1147
719 469
720 1150
729 469
730 1150
739 469
739 1155
749 467
749 1155
758 1160
759 464
768 1160
769 464
778 459
778 1160
787 1165
788 459
797 454
797 1165
807 454
807 1165
816 449
816 1170
826 449
826 1170
835 444
836 1170
845 444
846 1170
855 444
856 1173
865 444
866 1175
874 439
876 1175
884 439
886 1175
893 434
896 1175
903 434
906 1175
913 434
916 1175
922 429
926 1175
932 429
935 1180
942 429
945 1180
952 429
954 1175
961 424
964 1175
971 424
974 1175
981 424
984 1175
991 424
994 1175
1001 424
1004 1175
1011 424
1014 1172
1021 424
1024 1170
1031 424
1034 1170
1041 424
1043 1165
1051 424
1053 1165
1061 420
1063 1163
1071 419
1073 1160
1081 419
1083 1158
1091 419
1093 1155
1101 419
1102 1150
1111 419
1112 1149
1121 419
1122 1145
1131 419
1131 1140
1141 419
1141 1140
1150 1135
1151 419
1160 1130
1161 419
1170 414
1170 1125
1180 414
1180 1120
1190 414
1190 1115
1200 414
1200 1115
1209 1110
1210 414
1218 1105
1220 414
1228 1103
1230 414
1238 1100
1239 409
1247 1095
1248 404
1252 394
1254 362
1254 372
1254 382
1256 1090
1259 352
1266 1090
1267 344
1275 336
1275 1085
1285 331
1285 1080
1295 326
1295 1080
1305 321
1305 1075
1315 316
1315 1075
1324 1070
1325 311
1334 1067
1335 306
1343 299
1344 1065
1352 294
1354 1062
1361 289
1364 1060
1371 289
1373 1055
1380 284
1383 1055
1390 281
1392 1050
1400 276
1402 1050
1410 271
1412 1050
1420 269
1421 1045
1429 264
1431 1045
1438 259
1441 1045
1448 259
1450 1040
1457 254
1460 1040
1467 254
1470 1040
1476 249
1480 1040
1486 249
1490 1035
1496 249
1500 1035
1505 244
1510 1035
1515 244
1520 1035
1525 244
1530 1035
1534 249
1540 1035
1544 249
1550 1035
1554 249
1560 1035
1563 254
1570 1035
1573 254
1580 1035
1583 254
1590 1035
1593 254
1600 1035
1603 254
1610 1035
1613 254
1620 1035
1623 254
1630 1035
1633 254
1640 1035
1643 254
1649 1040
1653 254
1659 1040
1663 254
1669 1040
1673 254
1679 1040
1683 255
1688 1045
1693 259
1695 1053
1703 259
1703 1060
1704 1070
1707 1080
1712 1089
1713 259
1716 1099
1721 1108
1723 259
1729 1115
1732 264
1735 1123
1742 264
1745 1127
1751 269
1754 1132
1761 269
1764 1135
1771 269
1773 1140
1780 274
1783 1140
1790 274
1792 1145
1800 274
1802 1145
1810 277
1812 1145
1820 279
1822 1149
1830 279
1832 1150
1839 284
1842 1150
1849 284
1851 1155
1859 284
1861 1155
1868 289
1871 1158
1878 289
1881 1160
1888 289
1891 1160
1898 289
1901 1163
1908 290
1911 1165
1918 294
1921 1165
1928 294
1931 1168
1938 294
1941 1170
1948 294
1951 1170
1957 299
1961 1170
1966 304
1970 1175
1976 304
1980 1175
1986 304
1990 1175
1995 299
2000 1177
2005 299
2010 1180
2015 299
2020 1180
2025 302
2030 1180
2035 304
2040 1180
2045 304
2050 1180
2054 309
2060 1182
2064 309
2070 1185
2074 309
2080 1185
2084 309
2090 1185
2094 311
2100 1185
2104 314
2110 1185
2114 314
2120 1185
2124 314
2130 1185
2134 314
2140 1185
2144 316
2150 1185
2154 319
2160 1185
2164 319
2170 1185
2174 319
2180 1180
2184 319
2190 1180
2193 324
2200 1180
2203 324
2210 1180
2213 324
2219 1175
2223 325
2229 1175
2233 329
2239 1172
2243 330
2249 1170
2253 334
2259 1167
2262 339
2269 1165
2272 339
2278 1160
2281 344
2287 1155
2290 349
2296 1150
2300 352
2305 1145
2309 357
2314 1140
2319 361
2322 1134
2328 366
2330 1125
2338 370
2340 1120
2347 375
2348 1113
2355 1105
2357 379
2363 1098
2366 384
2368 1088
2374 391
2375 1075
2380 399
2383 1068
2388 405
2388 1058
2393 1048
2397 410
2398 1038
2403 1028
2405 417
2405 1015
2409 427
2410 1000
2415 985
2417 434
2420 975
2424 442
2425 965
2430 450
2430 955
2435 459
2438 948
2440 468
2443 938
2445 477
2445 905
2445 915
2445 925
2449 487
2450 890
2454 496
2455 506
2455 875
2460 515
2460 525
2460 785
2460 825
2460 835
2460 845
2460 865
2462 795
2465 534
2465 544
2465 765
2465 775
2465 805
2465 815
2465 854
2470 553
2470 563
2470 755
2475 572
2475 582
2475 710
2475 720
2475 730
2475 740
2479 592
2480 602
2480 612
2480 695
2484 622
2485 632
2485 642
2485 652
2485 662
2485 672
2485 682
