109 662
109 672
109 682
109 692
109 702
109 712
109 722
109 732
109 742
109 752
109 762
114 642
114 652
114 771
119 627
119 780
122 790
124 617
127 799
131 809
132 609
137 599
139 815
142 589
145 823
150 581
153 830
155 571
160 838
163 564
168 845
172 559
175 853
180 551
183 860
188 544
190 868
195 536
200 872
203 529
207 880
210 521
216 885
218 514
224 891
227 509
234 895
237 504
240 903
246 499
248 910
255 494
257 915
264 489
267 919
273 484
275 925
283 484
284 930
292 479
293 935
302 474
302 940
311 945
312 474
320 950
321 469
329 955
331 465
338 960
341 464
347 965
351 460
356 970
361 459
365 975
371 455
374 980
381 454
384 980
391 450
393 985
401 449
402 990
411 449
411 995
420 444
421 998
430 444
430 1003
440 441
440 1005
449 1010
450 439
459 1010
460 439
468 1015
470 436
477 1020
480 434
487 1024
490 434
497 1025
500 431
506 1030
510 429
516 1030
520 429
525 1035
530 426
535 1037
540 424
545 1040
550 424
554 1045
560 421
564 1045
570 419
573 1050
580 419
583 1050
590 419
592 1055
599 414
602 1055
609 414
612 1059
619 414
622 1060
628 409
632 1060
638 409
641 1065
648 409
651 1065
658 409
661 1068
667 404
671 1070
677 404
681 1070
687 404
691 1073
697 404
701 1075
707 404
711 1075
716 399
721 1078
726 399
731 1080
736 395
741 1080
746 394
751 1080
756 394
761 1080
765 389
771 1083
775 389
781 1085
785 389
791 1085
794 384
801 1085
804 384
811 1085
814 384
821 1085
823 379
831 1085
833 379
841 1085
843 379
850 1080
853 379
860 1080
863 379
870 1080
872 374
880 1080
882 374
890 1080
892 374
900 1080
902 369
909 1075
912 369
919 1075
922 369
929 1075
932 369
938 1070
942 369
948 1070
952 369
958 1068
962 369
968 1065
972 369
978 1063
982 369
988 1060
992 369
998 1058
1002 369
1008 1055
1011 364
1017 1050
1021 364
1027 1049
1031 364
1037 1045
1039 322
1039 332
1039 357
1044 312
1044 341
1047 1044
1052 304
1057 1040
1060 296
1066 1035
1068 289
1076 1035
1077 284
1085 276
1085 1030
1095 271
1095 1025
1103 264
1105 1025
1112 259
1114 1020
1120 251
1124 1017
1128 244
1134 1015
1137 239
1143 1010
1145 231
1153 1008
1155 226
1163 1005
1165 224
1172 1000
1174 219
1182 999
1183 224
1190 232
1192 995
1195 241
1195 251
1201 259
1201 990
1211 255
1211 993
1221 250
1221 995
1229 242
1229 1001
1236 1009
1237 234
1244 1015
1246 229
1253 1020
1254 222
1260 1028
1264 219
1268 1035
1274 217
1278 1035
1284 219
1287 1029
1294 221
1297 1024
1304 224
1307 1019
1314 224
1317 1014
1324 222
1325 1005
1334 219
1335 1000
1343 214
1343 993
1353 214
1353 988
1360 980
1362 209
1370 975
1372 204
1380 970
1382 204
1390 970
1392 204
1400 970
1401 199
1410 970
1411 195
1420 970
1421 194
1430 970
1431 194
1440 970
1441 194
1450 970
1451 194
1460 199
1460 970
1470 202
1470 970
1480 204
1480 970
1489 209
1490 970
1499 211
1500 970
1509 214
1510 970
1519 214
1520 970
1528 219
1529 975
1538 219
1539 975
1548 220
1549 975
1558 224
1559 975
1568 224
1569 975
1577 229
1578 980
1587 229
1588 980
1597 229
1598 980
1606 234
1607 985
1616 234
1617 985
1625 239
1627 985
1635 239
1637 985
1644 244
1646 990
1654 244
1656 990
1664 244
1666 993
1673 249
1676 995
1683 249
1686 998
1692 254
1695 1003
1702 254
1704 1008
1709 1017
1709 1027
1712 254
1714 1036
1719 1045
1721 259
1725 1053
1730 264
1733 1060
1740 264
1740 1068
1750 264
1750 1072
1760 264
1760 1075
1769 269
1769 1080
1779 269
1779 1080
1789 269
1789 1080
1798 1085
1799 269
1808 1085
1809 267
1818 1085
1819 264
1827 1090
1829 266
1837 1090
1839 269
1846 1095
1848 274
1856 1095
1858 274
1866 1098
1868 274
1876 1100
1878 274
1886 1100
1888 274
1895 1105
1898 274
1905 1105
1907 279
1915 1107
1916 284
1925 1110
1926 284
1935 1110
1936 284
1945 1112
1946 284
1955 289
1955 1115
1965 289
1965 1115
1975 289
1975 1115
1984 1120
1985 289
1994 1120
1995 289
2004 1120
2005 289
2014 1120
2015 289
2024 1120
2025 289
2033 1125
2035 289
2043 1125
2045 289
2053 1125
2055 289
2063 1125
2065 289
2073 1125
2075 289
2083 1125
2085 289
2093 1125
2095 289
2103 1125
2105 289
2112 1130
2115 289
2122 1130
2125 289
2132 1130
2135 289
2142 1130
2144 294
2152 1129
2154 296
2162 1125
2163 301
2172 1125
2173 304
2182 1125
2183 304
2192 1125
2193 304
2201 1120
2203 304
2211 1120
2213 304
2220 1115
2223 304
2230 1115
2233 304
2240 1115
2243 304
2249 1110
2253 305
2259 1107
2262 310
2269 1105
2272 314
2278 1100
2279 322
2287 1095
2289 326
2295 334
2296 1090
2303 340
2305 1085
2310 348
2314 1080
2318 355
2322 1074
2327 360
2330 1065
2335 367
2340 1060
2343 374
2348 1053
2352 379
2355 1040
2361 384
2363 1033
2369 391
2370 1025
2375 399
2378 1018
2380 408
2385 417
2385 427
2385 1005
2390 436
2390 446
2390 995
2395 455
2395 955
2395 965
2395 975
2395 985
2397 465
2400 940
2402 474
2405 484
2405 920
2405 930
2410 493
2410 900
2410 910
2415 502
2415 875
2415 885
2420 511
2420 521
2420 790
2420 800
2420 865
2425 530
2425 765
2425 775
2425 809
2425 819
2425 829
2425 839
2425 849
2427 540
2430 550
2430 560
2430 745
2430 755
2432 570
2435 580
2435 590
2435 600
2435 715
2435 725
2435 735
2440 609
2440 619
2440 629
2440 639
2440 649
2440 659
2440 669
2440 679
2440 689
2440 699
