284 122
284 132
284 142
284 152
289 102
289 112
289 161
289 171
294 92
294 180
299 189
302 84
304 198
309 207
310 76
314 216
318 69
319 225
322 235
325 61
327 244
334 252
335 56
339 261
344 270
345 54
349 279
355 54
355 287
362 295
365 54
370 302
374 59
377 310
382 65
382 319
386 329
390 72
391 338
397 80
399 345
404 354
405 87
410 96
410 362
416 104
417 370
424 111
424 378
428 121
429 387
433 130
434 396
437 140
441 404
442 149
445 159
449 410
450 168
455 177
455 418
460 427
462 185
467 435
470 192
474 202
475 442
482 209
482 450
485 219
489 458
490 228
494 467
498 235
502 474
505 243
509 482
510 252
515 261
517 489
520 270
521 499
525 279
529 505
533 285
534 514
537 295
540 522
542 304
545 314
547 530
552 539
553 320
556 549
560 328
561 558
565 337
569 565
572 345
574 574
577 354
580 364
580 582
585 373
587 590
593 380
595 597
600 388
602 605
605 397
610 612
612 405
617 620
620 412
622 629
627 420
629 637
632 429
635 439
637 644
643 445
644 652
650 453
652 659
655 462
659 667
662 470
667 674
670 477
674 487
674 682
682 494
682 689
685 504
686 699
693 510
694 705
700 518
700 713
705 527
709 537
710 717
714 546
714 817
714 827
714 837
714 847
714 857
714 867
714 877
714 887
718 556
719 722
719 767
719 777
719 787
719 797
719 807
719 896
719 906
719 916
723 565
724 757
724 925
727 575
727 729
729 747
729 934
732 584
734 943
739 592
739 952
744 961
747 599
749 970
752 980
754 607
757 989
760 615
764 997
765 624
769 1006
770 633
775 642
776 1014
782 650
784 1020
787 1030
790 657
795 1037
797 665
802 1045
805 672
810 1052
812 680
814 1062
822 679
822 1069
829 1077
832 679
837 1084
842 674
844 1092
852 674
852 1099
859 1107
862 674
867 1114
872 674
874 1122
882 674
882 1129
891 1134
892 674
901 679
901 1138
910 1143
911 679
918 1150
921 679
927 1155
930 684
937 1159
940 684
946 1164
949 689
956 1165
958 694
966 1165
967 699
975 1170
976 704
984 711
984 1175
993 716
993 1180
1000 724
1003 1180
1009 729
1013 1180
1017 735
1023 1180
1025 742
1032 750
1033 1180
1040 757
1043 1180
1047 765
1053 1180
1055 772
1060 781
1063 1180
1066 789
1072 1175
1074 796
1078 806
1081 1170
1083 815
1087 825
1090 1165
1092 834
1095 844
1100 853
1100 1160
1105 862
1108 1153
1110 871
1115 880
1115 890
1115 1145
1120 899
1123 1138
1125 908
1130 917
1130 927
1130 1125
1134 937
1135 947
1138 1118
1140 956
1145 965
1145 975
1145 1105
1150 984
1150 994
1150 1004
1150 1085
1150 1095
1155 1013
1155 1023
1155 1033
1155 1043
1155 1053
1155 1063
1155 1073
