599 1187
599 1197
599 1207
599 1217
604 1162
604 1172
604 1226
609 467
609 477
609 487
609 497
609 507
609 517
609 527
609 537
609 547
609 557
609 567
609 577
609 587
609 597
609 607
609 617
609 627
609 637
609 647
609 657
609 1142
609 1152
611 1234
614 422
614 432
614 442
614 452
614 666
614 676
614 686
614 696
614 706
614 1122
614 1132
619 377
619 387
619 397
619 407
619 715
619 725
619 735
619 745
619 755
619 1097
619 1107
619 1240
624 327
624 337
624 347
624 357
624 367
624 764
624 774
624 784
624 794
624 1077
624 1087
626 804
628 1245
629 282
629 292
629 302
629 312
629 814
629 824
629 834
629 844
629 1032
629 1042
629 1052
629 1062
634 262
634 272
634 853
634 863
634 873
634 883
634 893
634 903
634 913
634 923
634 933
634 943
634 953
634 963
634 973
634 983
634 993
634 1003
634 1013
634 1023
637 1250
639 237
639 247
644 212
644 222
647 1250
649 192
649 202
654 167
654 177
657 1250
659 147
659 157
664 122
664 132
666 1245
669 102
669 112
674 82
674 92
676 1245
679 72
685 1240
687 64
694 1235
695 56
703 49
703 1230
705 480
705 490
705 500
705 510
705 520
705 530
705 540
705 550
705 560
705 570
705 580
705 590
705 600
705 610
705 620
705 630
705 640
705 650
710 41
710 435
710 445
710 455
710 465
710 659
710 669
710 679
710 689
710 699
712 1225
715 385
715 395
715 405
715 415
715 425
715 708
715 718
715 728
715 738
720 36
720 340
720 350
720 360
720 370
721 1220
723 745
725 295
725 305
725 315
725 325
730 34
730 270
730 280
730 753
730 1215
735 245
735 255
738 760
738 1208
740 34
740 225
740 235
745 200
745 210
745 768
748 1203
750 34
750 180
750 190
753 775
755 155
755 165
755 1195
757 785
759 39
760 135
760 145
763 1188
765 120
765 792
767 45
770 1180
772 800
773 113
775 52
778 1173
780 61
780 100
780 807
783 1163
785 70
785 80
785 90
785 816
790 825
790 1155
795 834
795 1145
800 843
800 853
803 1138
805 862
810 871
810 881
810 1125
815 890
815 900
815 1105
815 1115
817 910
820 920
820 1080
820 1090
822 930
825 940
825 950
825 1060
825 1070
830 959
830 969
830 979
830 989
830 999
830 1009
830 1019
830 1029
830 1039
830 1049
