100 946
100 956
100 966
100 976
100 1001
100 1011
100 1041
100 1051
104 1021
104 1061
105 936
105 985
105 1031
109 1070
110 866
110 876
110 906
110 916
110 1080
110 1111
110 1121
113 929
113 1090
114 886
114 1131
115 856
115 896
115 1100
119 1140
120 796
120 806
120 836
120 846
120 1150
120 1160
120 1170
124 816
125 786
125 826
125 1179
130 766
130 776
130 1188
130 1198
135 756
135 1207
140 726
140 736
140 1216
140 1226
143 749
144 1236
145 716
149 1245
153 709
155 1253
160 696
160 1262
165 686
165 940
165 980
165 990
165 1020
165 1030
165 1271
166 1000
166 1040
170 656
170 666
170 949
170 959
170 969
170 1010
170 1050
170 1280
170 1290
171 1060
173 679
173 933
175 646
175 885
175 895
175 1090
175 1100
175 1299
176 905
176 1069
176 1110
178 923
180 865
180 875
180 1079
180 1120
180 1308
181 1130
183 639
185 815
185 825
185 855
185 1317
186 835
186 1139
190 626
190 795
190 805
190 845
190 1149
190 1159
190 1169
193 1324
195 616
195 760
195 785
195 1178
196 1334
199 1188
200 769
200 1198
201 1343
203 609
203 753
204 1208
208 743
209 1217
209 1350
210 586
210 596
213 733
214 1226
215 576
215 1358
220 725
220 1234
220 1367
223 569
225 690
225 715
225 1243
225 1376
230 546
230 556
230 699
230 1252
230 1262
231 1384
233 683
235 536
235 1271
238 673
240 1280
240 1389
243 529
243 663
245 1289
245 1398
245 1408
250 516
250 655
250 1298
250 1417
255 506
255 645
255 1426
258 1305
260 625
260 635
261 1315
261 1434
263 499
266 1324
268 618
270 486
270 1439
274 1331
275 476
275 605
275 1448
280 585
280 595
280 831
280 841
280 851
280 861
280 871
280 881
280 891
280 901
280 1339
283 469
283 1454
284 911
285 811
285 821
288 578
288 1345
289 920
290 801
290 1462
293 464
294 1353
295 565
295 928
295 1471
295 1481
298 454
298 794
300 436
300 555
300 937
300 1361
300 1490
303 784
305 426
305 946
305 1370
305 1380
306 1498
308 548
308 774
310 1389
311 954
313 419
314 1505
315 535
315 761
316 963
318 1395
320 525
320 1513
323 414
323 754
324 970
324 1403
328 404
328 518
328 1519
330 1411
333 749
333 975
335 396
335 505
336 1525
338 739
339 1416
340 983
341 1534
345 386
345 500
345 731
345 1424
348 989
349 1540
350 721
350 840
350 850
350 860
350 870
350 880
350 890
350 1433
353 379
353 493
355 825
355 899
355 997
355 1442
355 1452
358 483
358 714
358 1545
360 465
360 815
360 908
360 1461
363 374
363 1004
363 1554
365 455
365 706
366 1564
368 808
368 915
369 1466
372 1009
373 369
373 700
374 923
374 1570
375 450
375 800
375 1474
378 359
380 1483
382 695
382 930
382 1010
383 443
383 793
383 1575
385 351
388 1584
389 435
389 938
389 1488
390 780
391 690
391 1594
392 1010
395 346
397 1495
398 430
398 773
399 940
399 1600
401 690
401 1505
402 1010
405 341
405 765
407 424
408 1605
409 940
411 690
411 1509
412 1010
413 1614
414 760
415 336
415 410
415 770
418 780
419 938
419 1516
420 1622
421 690
422 1010
423 789
423 1526
425 331
425 405
425 1631
428 1535
429 935
430 797
431 694
431 1639
432 1009
435 330
435 400
437 1540
438 930
439 1645
440 699
440 801
442 1005
444 1548
445 326
445 395
445 1653
448 929
449 1557
450 703
450 805
451 1000
455 321
455 390
455 1565
455 1656
458 710
458 925
460 800
461 1000
463 1571
464 1661
465 320
465 390
467 715
467 920
470 795
470 995
470 1579
474 723
474 1665
475 320
475 390
476 915
478 788
478 1585
479 990
480 731
480 1673
481 1595
483 778
485 320
485 390
485 740
485 750
485 760
486 910
488 985
490 1676
491 1599
494 903
495 320
495 390
498 983
500 1604
500 1680
501 895
505 316
505 385
508 978
509 888
509 1685
510 1608
515 311
515 380
518 973
519 883
519 1613
519 1685
524 873
525 310
525 380
528 968
529 863
529 1615
529 1685
534 853
535 310
535 380
535 960
538 1609
539 1685
541 845
543 953
545 310
545 380
545 1601
549 1685
550 836
550 945
550 1591
555 310
555 380
555 816
555 826
555 935
555 1581
558 1680
560 806
560 925
563 1574
565 310
565 380
565 786
565 796
567 1674
570 766
570 776
570 920
573 1569
575 310
575 380
575 746
575 756
575 1665
578 913
578 1559
580 736
580 1541
583 903
584 1660
585 310
585 380
585 706
585 716
585 726
585 1531
588 893
590 696
590 1521
592 1654
594 885
595 310
595 380
595 666
595 676
595 686
595 1501
595 1511
600 656
600 1491
600 1640
602 879
604 385
605 310
605 626
605 636
605 646
605 1481
605 1630
610 393
610 616
610 865
610 1461
610 1471
610 1620
615 313
615 402
615 412
615 422
615 581
615 591
615 601
615 855
615 1451
615 1610
620 431
620 551
620 561
620 571
620 845
623 1444
624 318
624 441
625 451
625 481
625 491
625 501
625 511
625 521
625 531
625 541
625 815
625 825
625 835
625 1605
629 461
630 471
630 805
630 1431
632 325
633 1598
635 795
635 1421
638 1588
639 333
640 775
640 785
640 1411
640 1570
645 745
645 755
645 765
645 1391
645 1401
645 1560
649 336
650 735
650 1381
650 1550
655 344
655 705
655 715
655 725
655 1371
655 1530
655 1540
660 695
660 1351
660 1361
660 1520
663 350
665 665
665 675
665 685
665 1341
665 1510
666 360
670 655
670 1490
670 1500
671 369
673 1334
675 379
675 389
675 625
675 635
675 645
675 1480
680 398
680 615
680 1470
683 1329
685 407
685 417
685 427
685 590
685 600
688 1319
688 1463
690 436
690 460
690 470
690 560
690 570
690 580
690 1301
691 480
695 445
695 490
695 500
695 510
695 520
695 530
695 540
695 550
695 1291
695 1450
700 1271
700 1281
700 1440
705 1261
705 1420
705 1430
710 1410
713 1254
715 1400
720 1241
720 1380
720 1390
725 1231
725 1370
730 1211
730 1221
735 1201
735 1365
743 1194
743 1358
748 1348
750 1330
753 1189
755 1320
758 1179
760 1161
760 1300
760 1310
765 1151
765 1290
770 1280
773 1144
778 1273
780 1131
785 1121
785 1260
790 1240
790 1250
793 1114
795 1230
800 1101
805 1091
805 1225
810 1081
813 1218
818 1074
818 1208
820 1190
825 1061
825 1180
830 1051
830 1170
835 1041
838 1163
843 1034
845 1150
850 1021
850 1140
855 1011
858 1133
860 1001
865 1120
868 994
870 1110
875 1100
878 989
883 979
883 1093
885 961
890 951
890 1080
895 941
895 1070
900 1060
903 934
908 1053
913 929
915 1040
918 919
920 1030
923 909
930 901
930 1025
938 1018
940 891
943 1008
945 881
945 990
950 980
953 874
955 970
963 869
965 965
968 859
973 849
973 958
978 948
980 841
984 940
990 831
992 934
998 824
1000 920
1005 910
1008 819
1013 809
1015 905
1018 799
1023 898
1025 791
1028 888
1034 880
1035 786
1042 874
1045 776
1050 860
1053 769
1060 855
1063 764
1068 754
1068 848
1075 746
1075 840
1083 740
1083 833
1089 825
1090 731
1097 819
1098 724
1105 716
1105 805
1113 709
1115 800
1123 704
1123 793
1130 780
1133 699
1140 775
1143 695
1150 770
1153 694
1158 763
1163 689
1165 755
1168 679
1175 671
1175 755
1185 666
1185 750
1195 665
1195 745
1203 738
1205 661
1209 730
1215 656
1218 725
1225 651
1228 725
1235 650
1237 720
1245 646
1246 715
1255 641
1255 710
1265 640
1265 710
1275 636
1275 705
1285 631
1285 700
1295 630
1295 700
1305 626
1305 695
1315 621
1315 690
1325 620
1325 690
1335 616
1335 685
1345 611
1345 680
1355 610
1355 680
1365 610
1365 680
1375 610
1375 680
1384 605
1384 675
1393 600
1393 670
1403 600
1403 670
1412 605
1412 665
1422 605
1422 665
1431 600
1432 669
1441 600
1442 670
1451 604
1451 665
1459 598
1460 660
1469 593
1469 655
1478 660
1479 590
1488 658
1489 591
1498 655
1499 595
1508 655
1509 593
1517 660
1519 590
1527 659
1529 591
1537 655
1539 595
1547 655
1549 593
1556 660
1559 590
1566 660
1569 591
1575 655
1579 595
1585 655
1589 593
1594 660
1599 590
1604 660
1609 591
1613 655
1618 596
1622 650
1628 599
1632 654
1638 594
1641 659
1648 590
1651 660
1658 590
1660 655
1667 595
1670 655
1677 595
1680 656
1686 590
1690 660
1696 590
1700 655
1705 595
1710 650
1710 1166
1710 1176
1710 1186
1710 1196
1714 600
1714 1206
1715 1131
1715 1141
1715 1151
1715 1216
1720 651
1720 1121
1720 1225
1720 1235
1723 595
1725 1106
1725 1244
1729 656
1730 1096
1730 1253
1732 590
1735 1262
1738 1089
1739 660
1740 1271
1742 590
1743 1079
1744 1281
1748 1069
1749 657
1751 595
1751 1289
1755 1056
1759 652
1760 1294
1761 599
1763 1049
1765 1303
1769 650
1770 1312
1771 595
1773 1044
1775 1321
1778 655
1778 1034
1780 1175
1780 1185
1781 590
1781 1195
1781 1329
1785 1026
1785 1145
1785 1155
1785 1165
1785 1205
1787 660
1790 1135
1790 1214
1790 1224
1790 1334
1791 590
1793 1020
1795 1120
1795 1233
1795 1343
1797 659
1799 1243
1800 1110
1800 1352
1801 594
1802 1015
1807 655
1807 1250
1808 1103
1808 1359
1810 1006
1811 595
1813 1093
1814 1258
1815 1367
1817 655
1818 999
1819 1085
1820 1266
1820 1376
1821 590
1825 1275
1826 660
1826 1384
1827 1079
1828 994
1830 1284
1831 590
1834 1390
1836 660
1837 1074
1838 989
1838 1290
1840 1398
1841 594
1844 1298
1845 655
1845 1065
1848 985
1848 1404
1850 599
1850 1055
1850 1306
1854 650
1855 1315
1856 1410
1858 984
1860 596
1860 1050
1863 655
1863 1321
1865 1415
1868 979
1870 591
1870 1045
1870 1329
1871 1423
1873 659
1875 1338
1878 974
1879 1430
1880 590
1880 1045
1880 1347
1883 660
1888 970
1888 1435
1889 1352
1890 593
1890 1040
1892 655
1893 1444
1898 969
1899 598
1899 1356
1900 1035
1900 1452
1901 650
1905 1364
1908 964
1909 598
1910 1030
1910 1373
1910 1456
1911 653
1913 954
1916 1464
1919 593
1919 1378
1920 658
1920 946
1920 1030
1921 1473
1927 1385
1929 590
1929 1480
1930 660
1930 941
1930 1025
1931 1395
1938 1485
1939 591
1940 655
1940 940
1940 1020
1941 1399
1947 1490
1948 596
1948 1013
1949 1406
1950 650
1950 936
1953 1416
1954 1005
1957 1490
1958 599
1960 651
1960 931
1960 1424
1963 1000
1965 1496
1968 594
1969 656
1970 930
1970 1428
1971 1504
1973 1000
1978 590
1978 1435
1979 660
1980 926
1981 1508
1982 995
1987 1440
1988 590
1989 657
1990 921
1990 1513
1991 990
1997 595
1997 1440
1998 1519
1999 652
2000 920
2001 990
2006 600
2006 1445
2006 1525
2009 650
2010 916
2010 985
2014 1451
2015 595
2015 1530
2018 655
2020 911
2020 980
2020 1459
2024 590
2024 1535
2027 660
2030 906
2030 980
2030 1463
2030 1543
2034 590
2037 659
2039 1468
2040 905
2040 975
2040 1546
2043 595
2047 654
2047 1475
2050 901
2050 970
2050 1550
2052 600
2056 1480
2057 650
2060 896
2060 965
2060 1551
2061 595
2065 1485
2066 655
2066 1559
2070 895
2070 965
2070 1156
2070 1166
2070 1176
2070 1186
2070 1196
2071 590
2073 1491
2074 1206
2074 1565
2075 660
2075 1141
2079 1215
2080 891
2080 960
2080 1131
2080 1499
2081 590
2083 1225
2083 1570
2085 660
2088 1124
2090 886
2090 955
2090 1233
2090 1500
2091 594
2093 1574
2094 655
2095 1116
2095 1242
2100 599
2100 885
2100 955
2100 1503
2100 1582
2103 1249
2104 655
2105 1106
2108 605
2109 1508
2110 663
2110 881
2110 950
2110 1257
2110 1586
2113 1099
2117 1515
2118 604
2118 1264
2120 666
2120 876
2120 945
2120 1091
2120 1590
2126 1270
2126 1520
2128 600
2130 670
2130 875
2130 945
2130 1086
2130 1591
2135 1275
2135 1525
2138 600
2139 1596
2140 665
2140 875
2140 945
2140 1081
2140 1165
2140 1175
2140 1185
2144 1280
2144 1530
2145 1155
2145 1194
2147 605
2149 1600
2150 665
2150 871
2150 940
2150 1080
2150 1203
2150 1288
2154 1530
2155 1150
2157 605
2158 1210
2158 1294
2159 1597
2160 666
2160 866
2160 935
2160 1076
2163 1535
2164 1145
2166 600
2166 1300
2167 1215
2169 1600
2170 670
2170 865
2170 935
2170 1071
2172 1540
2173 1140
2175 1305
2176 600
2176 1220
2178 1605
2180 665
2180 865
2180 935
2180 1066
2182 1540
2183 1140
2184 1226
2184 1310
2185 605
2187 1610
2189 670
2190 865
2190 935
2190 1061
2190 1234
2190 1318
2192 1135
2192 1540
2193 611
2197 1610
2198 675
2198 1240
2198 1324
2200 865
2200 935
2200 1060
2201 1130
2201 1545
2203 610
2206 1330
2206 1615
2207 680
2207 1245
2209 1055
2210 865
2210 935
2211 1130
2211 1549
2213 610
2215 1335
2215 1620
2216 1250
2217 679
2218 1050
2220 865
2220 935
2220 1125
2221 1550
2222 615
2224 1256
2224 1340
2224 1625
2227 675
2228 1050
2230 865
2230 935
2230 1120
2230 1264
2230 1633
2231 1554
2232 615
2233 1345
2237 675
2238 1050
2238 1270
2239 940
2240 865
2240 1115
2240 1559
2240 1636
2241 610
2243 1349
2246 680
2247 1055
2247 1275
2248 1565
2249 870
2249 940
2250 1110
2250 1640
2251 610
2253 1350
2254 1063
2256 680
2256 1280
2257 1570
2258 945
2258 1103
2259 870
2260 1071
2260 1635
2261 614
2263 1093
2263 1350
2265 1080
2266 678
2266 1280
2266 1575
2268 875
2268 949
2269 1640
2270 619
2272 1355
2274 685
2274 1581
2276 1284
2277 954
2278 625
2278 875
2278 1645
2282 1355
2283 690
2284 1580
2285 960
2286 1285
2287 620
2287 880
2287 1650
2291 968
2292 1355
2293 690
2294 1580
2296 885
2296 1285
2297 620
2297 1649
2299 975
2302 685
2302 1355
2303 1585
2304 891
2305 983
2306 625
2306 1285
2307 1645
2310 691
2312 1355
2313 896
2313 1585
2314 631
2315 986
2316 1280
2317 1645
2319 696
2320 904
2322 1354
2322 1580
2324 630
2324 991
2326 1280
2326 1650
2328 910
2329 700
2329 1000
2331 920
2332 1350
2332 1580
2333 1010
2334 630
2336 1275
2336 1650
2339 697
2340 1018
2341 924
2341 1585
2342 1349
2343 635
2345 1655
2346 1275
2349 700
2349 930
2350 1021
2351 1589
2352 640
2352 1345
2354 1031
2354 1660
2356 1270
2358 705
2358 935
2361 1039
2361 1590
2362 640
2362 1344
2364 943
2364 1660
2366 1265
2367 710
2370 1044
2371 1594
2372 640
2372 950
2372 1339
2373 1655
2375 1053
2375 1063
2375 1260
2377 710
2379 958
2380 1072
2380 1251
2380 1599
2381 645
2382 1334
2382 1650
2385 966
2385 1081
2386 715
2388 1244
2390 975
2390 1596
2391 649
2391 1089
2392 1329
2392 1654
2395 720
2395 1236
2398 981
2400 1094
2400 1591
2401 650
2401 1659
2402 1324
2403 1229
2404 725
2405 989
2405 1103
2408 1219
2410 733
2410 998
2410 1112
2410 1122
2410 1315
2410 1590
2411 654
2411 1660
2413 1209
2415 1131
2415 1186
2415 1196
2418 1308
2419 1003
2419 1141
2420 659
2420 736
2420 1151
2420 1161
2420 1171
2420 1593
2420 1655
2424 1300
2427 1010
2428 665
2429 741
2430 1595
2430 1655
2431 1020
2432 1294
2435 1030
2436 1040
2437 670
2439 745
2440 1285
2440 1591
2440 1656
2441 1049
2445 753
2446 675
2450 1054
2450 1280
2450 1590
2450 1660
2453 759
2455 680
2458 1060
2458 1273
2460 1593
2460 1655
2461 1070
2462 764
2463 686
2465 1260
2466 1079
2470 694
2470 1089
2470 1099
2470 1245
2470 1595
2470 1655
2472 765
2475 1108
2475 1235
2480 698
2480 1117
2480 1220
2480 1591
2480 1656
2482 769
2485 1126
2485 1195
2485 1205
2489 703
2490 1135
2490 1145
2490 1155
2490 1165
2490 1175
2490 1185
2490 1590
2490 1660
2491 774
2499 705
2500 1593
2500 1655
2501 778
2509 706
2509 785
2510 1595
2510 1650
2518 711
2518 790
2518 1589
2519 1645
2525 719
2525 798
2528 1584
2529 1645
2530 807
2533 725
2538 814
2538 1580
2538 1650
2542 730
2546 820
2548 1580
2548 1648
2551 735
2551 829
2558 1579
2558 1643
2559 741
2559 835
2563 751
2565 1635
2568 840
2568 1574
2570 759
2574 1640
2577 845
2578 1570
2580 763
2584 1640
2585 851
2588 770
2588 1570
2591 780
2591 859
2593 1635
2596 868
2598 1569
2600 878
2601 784
2602 1629
2608 884
2608 1564
2609 791
2612 1629
2616 890
2618 796
2618 1560
2622 1630
2624 896
2628 800
2628 1560
2630 904
2631 1625
2634 808
2635 913
2638 1559
2640 816
2640 1620
2643 919
2645 825
2648 1554
2649 1615
2650 834
2650 927
2658 840
2658 934
2658 1550
2658 1620
2661 850
2665 942
2668 1549
2668 1618
2669 856
2670 951
2674 961
2675 1541
2678 861
2678 1613
2681 969
2683 1535
2685 869
2685 1605
2690 878
2690 974
2692 1530
2694 1600
2695 983
2699 883
2702 1530
2703 989
2704 1600
2706 999
2707 890
2711 900
2711 1008
2711 1525
2713 1595
2716 909
2719 1015
2719 1518
2722 1589
2724 916
2725 1023
2729 1513
2730 924
2730 1032
2730 1580
2735 1041
2736 1505
2738 930
2740 1580
2741 1049
2741 1495
2744 938
2746 1058
2749 1488
2750 946
2750 1068
2750 1575
2755 955
2755 1077
2755 1087
2759 1483
2760 964
2760 1096
2760 1570
2766 1104
2766 1475
2768 970
2768 1563
2771 980
2771 1465
2773 1553
2774 1110
2776 989
2778 1120
2779 1458
2780 1545
2783 1129
2784 996
2785 1141
2785 1151
2785 1446
2789 1161
2790 1004
2790 1436
2790 1540
2794 1170
2795 1013
2798 1429
2798 1533
2799 1023
2800 1178
2803 1523
2805 1187
2805 1416
2807 1030
2810 1196
2810 1406
2810 1515
2811 1040
2815 1050
2815 1205
2815 1215
2815 1386
2815 1396
2816 1060
2820 1224
2820 1376
2820 1510
2821 1069
2825 1079
2825 1233
2825 1243
2825 1253
2825 1263
2825 1273
2825 1356
2825 1366
2828 1503
2830 1282
2830 1346
2833 1085
2833 1493
2835 1291
2835 1301
2835 1311
2835 1321
2835 1331
2838 1483
2839 1093
2840 1120
2844 1102
2845 1129
2845 1475
2850 1138
2850 1465
2855 1147
2855 1455
2861 1155
2863 1448
2869 1161
2870 1435
2873 1171
2875 1181
2875 1415
2875 1425
2878 1191
2880 1220
2880 1405
2883 1200
2885 1210
2885 1229
2885 1385
2885 1395
2890 1238
2890 1350
2890 1375
2895 1247
2895 1257
2895 1267
2895 1359
2898 1343
2899 1277
2903 1333
2904 1286
2905 1296
2905 1306
2905 1316
