1289 542
1289 552
1289 562
1294 532
1294 571
1301 579
1302 524
1311 519
1311 583
1321 519
1321 585
1329 591
1331 519
1334 600
1334 872
1339 526
1339 862
1340 608
1344 875
1345 534
1347 854
1348 615
1350 543
1352 625
1353 880
1357 849
1359 732
1359 742
1360 547
1360 632
1362 885
1364 722
1364 751
1364 761
1364 771
1364 781
1364 791
1364 801
1364 811
1364 821
1364 831
1364 841
1369 637
1370 549
1372 714
1372 885
1379 640
1379 702
1380 549
1381 890
1387 694
1389 554
1389 640
1389 882
1392 684
1395 870
1398 645
1399 554
1400 676
1400 850
1400 860
1405 653
1405 715
1405 725
1405 735
1405 745
1405 755
1405 835
1409 554
1410 671
1410 764
1410 774
1410 784
1410 794
1410 804
1410 814
1410 824
1415 657
1415 715
1418 559
1420 666
1425 715
1428 559
1435 715
1437 564
1444 710
1447 564
1454 710
1457 564
1463 705
1467 564
1473 705
1476 569
1482 700
1484 717
1484 727
1485 574
1489 708
1489 736
1494 745
1495 577
1497 755
1502 585
1502 764
1509 772
1510 592
1517 600
1517 779
1524 787
1525 607
1532 794
1534 612
1539 621
1539 802
1543 631
1545 641
1545 651
1545 661
1545 671
1545 681
1545 691
1545 701
1545 711
1545 721
1545 731
1545 741
1547 809
1548 751
1555 815
1558 755
1564 820
1567 760
1570 828
1575 767
1580 832
1582 775
1589 837
1590 782
1594 792
1597 844
1602 799
1604 852
1609 807
1612 859
1617 814
1621 864
1626 819
1629 870
1629 880
1632 890
1635 824
1640 897
1645 824
1650 900
1653 830
1660 838
1660 848
1660 895
1665 857
1665 867
1665 885
1670 876
