1109 867
1109 877
1109 887
1114 857
1114 896
1121 904
1122 849
1131 844
1131 905
1134 962
1134 972
1134 982
1134 992
1139 947
1139 1001
1139 1011
1140 839
1141 905
1144 937
1144 1020
1147 1030
1150 836
1151 905
1154 932
1157 1034
1160 834
1161 905
1164 929
1167 1034
1170 831
1171 905
1174 922
1177 1029
1179 911
1180 826
1182 1020
1190 821
1192 1020
1200 816
1201 1025
1210 811
1210 1030
1220 809
1220 1025
1229 804
1230 1020
1239 804
1240 1015
1249 804
1250 1010
1258 1003
1259 804
1268 1000
1269 804
1278 1000
1279 804
1288 1000
1289 804
1298 1000
1299 804
1308 1000
1309 804
1314 1008
1319 804
1319 1017
1327 1024
1329 804
1335 1030
1339 804
1345 1030
1349 804
1355 1030
1358 799
1365 791
1365 1030
1370 781
1375 1030
1380 776
1385 1030
1388 769
1389 757
1395 1030
1397 749
1405 1030
1406 744
1414 1025
1416 744
1424 1022
1426 744
1434 1017
1436 744
1442 1009
1446 744
1447 999
1450 985
1456 744
1460 985
1466 744
1470 987
1476 744
1477 995
1486 744
1487 999
1496 744
1497 1000
1506 744
1507 1000
1515 749
1517 999
1525 752
1527 994
1529 762
1530 772
1530 782
1530 792
1530 802
1530 812
1535 985
1540 814
1545 985
1549 819
1555 985
1557 825
1565 832
1565 985
1569 995
1570 841
1573 851
1574 1004
1580 1012
1583 855
1587 865
1587 1020
1592 874
1595 884
1597 1020
1603 890
1607 1020
1613 894
1616 1015
1623 894
1625 1010
1630 1000
1633 894
1635 985
1640 945
1640 955
1640 965
1640 975
1643 894
1650 945
1653 894
1658 938
1662 899
1665 925
1669 907
