969 882
969 892
969 902
969 912
974 872
977 919
984 867
985 925
994 862
994 972
995 925
999 981
999 991
999 1001
1002 964
1004 857
1004 1010
1005 920
1007 1020
1011 959
1012 849
1015 920
1015 1027
1020 954
1021 844
1025 920
1025 1030
1030 839
1030 954
1035 920
1035 1030
1040 836
1040 951
1045 920
1045 1030
1050 834
1050 949
1054 925
1054 935
1055 1030
1060 834
1065 1030
1069 829
1075 1030
1079 829
1085 1025
1089 829
1095 1025
1098 824
1104 1020
1108 824
1113 1015
1118 824
1123 1015
1128 824
1133 1015
1138 824
1143 1015
1148 824
1153 1015
1158 824
1163 1015
1168 824
1173 1015
1178 824
1183 1015
1185 816
1189 792
1189 802
1193 1015
1197 784
1202 1020
1206 779
1211 1025
1215 774
1221 1025
1224 769
1231 1025
1234 769
1240 1020
1243 764
1250 1020
1253 764
1260 1020
1263 764
1270 1020
1273 764
1279 1015
1282 759
1289 1015
1292 759
1299 1015
1302 759
1309 1015
1312 759
1319 1015
1322 759
1329 1015
1330 765
1335 774
1335 784
1335 794
1338 1020
1340 803
1340 813
1340 823
1348 829
1348 1020
1357 834
1358 1020
1364 842
1365 852
1368 1020
1369 862
1378 1020
1379 866
1388 1018
1389 869
1398 1013
1399 869
1408 874
1408 1008
1415 882
1415 1000
1420 891
1420 970
1420 980
1420 990
1423 901
1430 909
1430 965
1438 915
1440 960
1445 923
1448 953
1450 932
1450 942
