89 382
89 392
89 402
89 412
94 327
94 337
94 347
94 367
94 421
99 356
101 429
102 319
111 433
112 319
120 438
121 314
130 309
130 440
139 304
139 445
149 304
149 445
158 450
159 304
164 458
164 468
169 304
172 475
179 304
182 475
189 304
192 475
197 484
199 306
204 492
209 309
212 499
219 309
221 504
229 309
229 512
237 519
239 309
247 520
249 309
255 527
259 309
262 535
269 309
270 542
277 550
279 311
287 550
288 316
295 324
295 557
303 330
304 562
310 338
312 569
319 577
320 342
329 347
329 580
329 917
329 927
329 937
332 590
334 887
334 907
337 354
337 944
339 872
339 896
342 594
344 362
345 950
349 862
351 599
354 364
354 955
357 854
360 963
361 603
362 370
365 846
369 610
370 377
370 965
373 839
374 619
376 629
377 385
379 639
380 965
382 394
382 834
384 648
384 658
384 668
389 677
389 687
389 960
391 839
392 394
398 955
399 690
400 844
402 389
402 700
404 822
404 832
407 950
409 377
409 708
409 807
414 777
417 715
417 799
417 950
419 372
419 725
419 786
422 769
424 734
425 395
427 364
427 759
427 949
429 747
437 364
437 949
444 957
446 359
454 957
456 359
462 950
466 359
472 950
476 355
482 954
484 361
487 945
494 361
496 940
500 930
504 359
508 923
510 910
513 364
515 900
520 885
522 369
525 870
532 369
534 875
542 369
543 880
550 888
551 364
558 895
561 360
568 895
571 355
578 895
581 354
587 900
589 347
596 905
599 344
601 914
609 344
611 918
618 339
619 925
625 933
628 339
635 935
637 334
645 937
647 334
655 326
655 935
661 943
665 321
671 943
675 319
679 950
685 316
689 950
695 319
698 955
705 322
707 960
715 322
717 960
725 324
726 965
734 329
736 968
743 334
746 968
753 334
754 975
763 334
764 977
773 334
774 980
783 334
783 985
793 334
793 985
802 990
803 334
812 990
813 334
822 990
823 335
832 990
833 339
841 995
843 339
851 993
853 339
860 998
862 344
870 995
872 344
879 1000
882 344
889 1000
891 349
898 995
901 349
905 1003
910 354
915 1002
919 359
925 1005
928 364
935 1007
937 369
945 1005
946 374
955 379
955 1005
964 384
965 1005
972 390
974 1010
982 394
983 1015
992 394
992 1010
1001 399
1001 1015
1011 399
1011 1015
1020 1010
1021 399
1025 409
1029 1015
1035 407
1038 1020
1045 409
1048 1020
1054 414
1054 1147
1054 1162
1058 1020
1059 1132
1060 422
1064 1117
1064 1165
1065 1028
1069 1107
1070 424
1070 1173
1074 1183
1075 1030
1078 430
1079 1102
1081 1038
1082 1190
1084 1092
1085 438
1089 1045
1091 1195
1092 1055
1092 1084
1095 442
1099 1063
1100 1076
1101 1193
1102 450
1109 1199
1110 457
1114 467
1119 1200
1124 471
1125 1185
1128 481
1133 490
1135 1180
1139 1190
1140 498
1144 1175
1145 1198
1148 505
1153 1204
1155 513
1162 1199
1163 520
1165 1185
1172 525
1175 1185
1177 534
1184 1180
1185 540
1190 549
1194 1182
1198 555
1204 1180
1205 563
1212 1174
1215 567
1220 1025
1222 575
1222 1174
1227 1164
1228 1031
1229 1020
1230 582
1235 1039
1235 1155
1237 590
1239 1020
1240 1145
1244 1044
1247 594
1249 1017
1250 1052
1250 1135
1254 602
1255 1085
1255 1105
1255 1120
1257 1010
1257 1095
1259 1057
1260 610
1260 1067
1267 1009
1268 616
1275 624
1275 995
1280 633
1285 995
1288 640
1292 650
1295 995
1300 657
1305 995
1307 665
1314 1000
1315 672
1319 682
1324 691
1324 1000
1328 701
1330 711
1333 1005
1336 719
1340 729
1342 1010
1345 738
1345 748
1350 757
1352 1014
1354 767
1355 777
1355 787
1360 796
1360 806
1360 816
1361 1019
1363 826
1365 836
1365 846
1370 855
1370 865
1370 875
1370 885
1370 925
1370 935
1371 1023
1372 945
1375 894
1375 955
1380 920
1380 964
1381 1025
1383 900
1385 910
1388 970
1391 1025
1392 980
1400 987
1401 1025
1404 997
1410 1005
1410 1015
