189 417
189 427
189 437
189 447
189 457
189 467
189 477
189 487
189 497
189 507
189 517
189 542
189 552
189 562
189 572
189 582
189 592
189 602
194 407
194 526
194 611
199 397
199 620
207 389
208 625
216 384
217 630
225 379
227 630
235 379
237 630
245 379
247 630
255 379
257 630
265 379
267 630
275 376
277 630
285 374
287 630
294 369
297 630
304 369
307 630
313 364
317 630
323 364
327 630
332 359
337 630
341 354
346 635
350 349
356 635
359 344
365 630
369 344
375 630
379 344
385 630
389 342
395 630
399 339
405 625
409 339
415 625
419 339
423 618
429 337
433 615
439 334
443 615
449 334
453 615
459 334
463 615
469 334
473 615
479 332
483 615
489 329
493 615
499 329
503 615
509 329
513 615
519 329
522 620
529 329
532 620
539 329
542 620
548 324
552 620
558 324
562 624
568 324
572 625
578 324
582 625
588 324
592 625
598 324
602 629
608 324
612 630
618 324
622 630
628 324
632 630
637 319
642 634
647 319
652 635
656 324
662 635
666 324
671 640
675 329
681 640
685 332
691 640
695 334
701 640
704 339
710 645
713 344
720 645
722 349
730 645
731 354
740 359
740 645
748 365
750 647
757 370
760 650
767 374
770 652
776 379
780 655
785 384
789 660
795 384
799 660
805 384
809 660
814 389
819 660
824 389
829 660
834 391
838 665
844 394
848 665
854 394
858 665
864 394
868 665
874 394
878 665
884 394
888 665
894 394
897 670
904 396
906 675
914 399
916 675
924 399
926 675
934 399
935 680
944 399
945 682
954 399
954 687
964 399
964 690
973 394
973 695
982 389
983 695
990 381
993 695
1000 376
1002 700
1008 369
1011 705
1017 364
1021 708
1026 359
1030 713
1036 355
1040 717
1046 354
1050 720
1056 350
1060 722
1066 349
1070 725
1075 344
1080 725
1085 344
1090 725
1094 339
1100 725
1104 339
1110 725
1114 337
1120 725
1124 334
1130 725
1134 334
1140 725
1144 334
1150 725
1154 334
1160 725
1164 334
1170 725
1174 334
1180 725
1184 334
1190 725
1194 334
1200 725
1204 334
1210 725
1214 334
1220 725
1224 334
1230 725
1234 334
1240 725
1244 334
1250 725
1253 329
1260 725
1263 329
1270 727
1273 329
1280 730
1283 329
1290 730
1293 329
1300 730
1303 330
1310 730
1313 334
1320 730
1323 334
1330 730
1333 335
1340 730
1343 339
1350 730
1353 339
1360 730
1363 339
1370 730
1373 340
1380 730
1383 344
1390 730
1393 344
1400 730
1403 344
1410 730
1413 344
1420 730
1423 344
1430 730
1433 345
1440 730
1443 349
1449 725
1453 349
1459 725
1463 349
1469 725
1473 350
1479 722
1483 354
1487 715
1492 359
1496 710
1499 367
1505 705
1507 374
1514 382
1515 705
1524 386
1525 705
1533 391
1534 700
1543 395
1543 695
1550 403
1553 693
1560 407
1563 690
1570 409
1573 688
1579 414
1583 685
1589 414
1593 685
1599 414
1603 685
1609 414
1613 685
1619 414
1623 685
1629 414
1633 683
1639 414
1643 680
1649 414
1653 680
1659 414
1663 680
1669 414
1672 675
1679 414
1682 675
1689 414
1692 675
1698 419
1702 675
1708 419
1712 675
1718 419
1722 675
1727 414
1732 675
1737 414
1742 675
1747 414
1752 675
1757 414
1762 675
1767 414
1772 675
1777 414
1782 675
1787 414
1791 670
1797 414
1801 670
1807 414
1811 670
1817 414
1821 670
1827 414
1830 665
1837 414
1840 665
1847 414
1850 665
1857 414
1860 665
1866 409
1870 665
1876 409
1880 665
1886 405
1890 665
1896 404
1900 665
1906 404
1910 665
1916 400
1920 665
1926 399
1930 665
1936 399
1940 660
1946 395
1950 660
1956 394
1960 660
1966 394
1970 655
1976 394
1980 655
1986 394
1990 655
1995 389
2000 655
2005 389
2010 655
2014 384
2020 655
2024 382
2030 655
2034 379
2040 655
2044 379
2050 655
2053 374
2060 655
2063 374
2070 655
2073 374
2079 650
2082 369
2088 645
2092 369
2097 640
2101 364
2107 640
2111 364
2117 640
2121 364
2127 640
2130 359
2137 640
2140 359
2147 640
2149 354
2157 640
2159 354
2167 639
2168 349
2177 635
2178 349
2187 344
2187 635
2197 344
2197 635
2207 339
2207 635
2216 630
2217 339
2226 344
2226 630
2236 344
2236 630
2246 344
2246 630
2255 625
2256 344
2265 625
2266 340
2275 625
2276 339
2285 625
2286 339
2295 620
2296 339
2305 344
2305 620
2315 347
2315 620
2325 349
2325 620
2335 349
2335 620
2345 352
2345 620
2354 357
2355 620
2364 359
2365 620
2374 361
2375 615
2384 362
2385 610
2394 359
2395 605
2404 359
2405 605
2414 361
2414 600
2423 595
2424 364
2432 590
2434 364
2442 590
2443 369
2450 377
2452 589
2455 386
2461 394
2462 584
2465 404
2470 413
2470 423
2470 575
2475 432
2475 442
2475 452
2475 462
2478 568
2479 472
2480 482
2480 492
2484 502
2485 512
2485 560
2489 522
2490 532
2490 545
