364 527
364 537
364 547
364 557
364 567
364 577
364 587
364 597
374 522
374 600
374 610
374 620
374 630
374 640
374 650
379 659
379 669
379 679
379 689
382 514
384 698
384 708
385 718
390 727
392 514
397 735
402 514
407 735
412 514
417 735
422 514
427 735
431 509
437 735
441 509
447 735
451 505
457 735
461 504
467 735
471 504
477 735
481 504
487 735
491 504
497 734
501 504
507 730
511 504
517 730
521 504
527 730
531 500
536 725
541 495
546 725
551 494
556 725
561 494
566 725
571 494
575 720
581 494
585 720
591 494
595 720
601 494
605 720
611 494
615 720
620 489
625 720
629 484
635 720
639 484
645 720
649 484
655 720
659 484
665 715
669 484
675 715
679 484
685 715
689 484
695 715
699 484
705 715
709 482
715 715
719 479
725 715
729 479
735 715
739 479
745 715
749 479
755 715
759 479
765 715
769 479
775 717
779 479
785 720
789 479
795 720
799 479
805 715
808 474
815 715
818 474
825 715
828 474
835 715
838 474
845 715
848 474
855 715
857 469
865 715
867 469
875 715
876 474
885 715
886 474
894 710
896 470
904 710
906 469
914 710
916 469
924 710
926 469
934 710
936 469
944 710
945 474
953 705
954 479
963 484
963 703
973 484
973 700
980 476
983 700
988 469
992 705
997 464
1002 709
1005 456
1009 717
1013 449
1017 439
1017 724
1025 730
1026 434
1034 427
1035 732
1042 740
1044 422
1050 747
1052 414
1059 752
1062 409
1069 755
1071 404
1078 760
1079 397
1087 765
1089 394
1096 770
1099 392
1106 773
1109 387
1116 775
1119 384
1125 780
1129 382
1135 780
1139 379
1144 785
1149 377
1154 785
1159 372
1164 785
1167 364
1174 785
1176 359
1184 785
1186 359
1193 790
1196 359
1203 790
1205 364
1212 785
1213 370
1222 785
1223 374
1232 785
1233 374
1242 785
1243 375
1251 780
1253 379
1261 780
1263 379
1270 775
1272 384
1280 775
1282 384
1289 770
1291 389
1299 770
1301 389
1307 764
1310 394
1317 759
1319 399
1327 755
1329 401
1335 409
1336 750
1344 414
1344 742
1353 419
1354 740
1362 424
1362 734
1369 432
1370 725
1377 439
1378 718
1384 710
1386 444
1392 704
1395 449
1397 694
1404 454
1405 685
1414 454
1415 685
1424 454
1424 680
1433 675
1434 454
1443 675
1444 454
1453 675
1454 454
1463 675
1464 454
1473 675
1474 454
1483 675
1484 454
1493 675
1494 456
1502 670
1504 459
1512 670
1514 457
1522 670
1524 454
1531 675
1534 452
1541 675
1544 449
1551 675
1554 451
1561 675
1564 454
1571 675
1574 454
1581 675
1584 454
1591 675
1594 454
1601 675
1603 449
1611 675
1613 449
1621 675
1623 449
1631 675
1633 449
1641 675
1643 449
1651 675
1653 449
1661 675
1663 450
1670 670
1673 454
1680 670
1683 454
1689 675
1692 449
1699 675
1702 449
1709 675
1712 449
1719 675
1722 449
1729 675
1732 449
1739 675
1742 449
1749 672
1752 449
1759 670
1761 454
1768 675
1771 454
1778 675
1780 449
1788 675
1790 449
1798 675
1800 449
1808 675
1810 452
1818 675
1820 454
1828 675
1830 454
1837 670
1840 454
1847 670
1850 454
1856 675
1860 454
1866 675
1870 454
1875 680
1880 454
1885 680
1890 454
1895 675
1900 454
1905 675
1910 454
1915 675
1920 454
1925 675
1930 454
1935 675
1940 454
1945 677
1950 454
1955 680
1960 454
1965 680
1970 454
1975 680
1980 454
1985 680
1990 454
1995 680
2000 454
2005 680
2009 459
2015 680
2019 459
2025 680
2028 454
2034 685
2038 454
2044 685
2048 454
2054 685
2058 454
2064 685
2068 454
2074 685
2078 454
2084 682
2087 459
2094 680
2097 459
2104 680
2107 459
2114 680
2117 459
2123 685
2126 454
2133 685
2136 454
2143 683
2145 459
2150 675
2155 462
2159 670
2164 467
2165 485
2165 495
2165 505
2165 515
2165 525
2165 535
2165 545
2165 555
2165 565
2165 575
2165 585
2165 595
2165 605
2165 615
2165 625
2165 635
2165 645
2165 655
2170 475
