434 392
434 402
434 412
444 382
444 415
444 425
444 497
449 434
449 444
449 454
449 464
449 474
449 484
449 506
449 516
454 377
454 525
454 535
454 545
454 572
454 582
454 592
454 602
457 555
464 374
464 563
464 605
470 613
474 376
480 615
484 379
489 610
494 379
499 610
504 377
509 607
514 374
519 605
523 369
529 605
533 369
539 605
543 369
548 610
553 369
558 608
563 369
568 605
573 369
578 605
583 369
588 605
593 369
598 605
602 364
608 605
612 364
618 603
621 369
628 600
631 369
638 600
641 365
648 598
651 364
658 595
661 364
668 595
671 360
677 600
681 359
687 600
691 359
697 600
701 359
707 599
711 359
717 595
721 359
727 595
731 359
737 595
741 359
747 595
751 355
757 595
761 354
767 595
771 350
777 595
781 349
787 599
791 345
797 600
801 340
807 600
809 332
817 600
819 322
825 607
827 314
835 610
836 309
844 615
846 305
850 623
854 299
860 627
863 294
870 630
872 289
879 635
881 284
888 640
890 279
897 645
899 272
906 650
909 269
916 653
918 264
926 655
927 259
936 658
937 259
946 254
946 660
955 665
956 254
965 665
966 254
975 249
975 667
985 249
985 670
995 249
995 670
1005 249
1005 670
1014 244
1015 670
1024 244
1025 670
1034 244
1034 675
1044 244
1044 675
1053 680
1054 246
1063 680
1064 249
1072 675
1074 249
1082 674
1084 249
1090 665
1094 249
1100 665
1103 254
1110 665
1113 254
1120 660
1123 255
1130 655
1133 259
1140 655
1142 264
1150 650
1152 264
1160 650
1161 269
1169 645
1171 269
1179 642
1180 274
1187 635
1189 279
1197 285
1197 634
1205 625
1207 289
1215 620
1216 294
1223 613
1224 301
1233 306
1233 608
1240 314
1240 600
1250 314
1250 595
1258 588
1259 319
1268 583
1269 319
1273 573
1279 319
1283 570
1289 321
1293 568
1299 324
1303 565
1309 322
1313 563
1319 319
1323 560
1329 319
1333 560
1339 319
1343 560
1349 319
1353 560
1359 319
1363 560
1369 319
1372 555
1379 319
1382 555
1389 319
1392 555
1399 319
1402 555
1409 319
1412 555
1419 319
1421 550
1428 314
1431 550
1438 314
1441 550
1448 314
1451 550
1458 314
1461 550
1468 314
1471 550
1478 314
1481 550
1488 314
1491 550
1498 314
1501 550
1508 314
1511 550
1518 314
1520 545
1528 314
1530 545
1537 309
1540 545
1547 309
1550 545
1557 309
1559 540
1567 309
1569 540
1577 309
1579 540
1587 309
1588 545
1597 309
1598 545
1607 309
1608 545
1617 309
1618 545
1627 309
1628 543
1636 304
1638 540
1646 304
1648 540
1656 304
1658 540
1666 304
1668 540
1676 304
1678 540
1686 304
1687 535
1696 304
1697 535
1706 304
1707 539
1716 304
1717 540
1725 299
1727 540
1735 299
1737 540
1745 299
1747 540
1755 299
1757 540
1765 299
1767 540
1775 299
1777 540
1785 299
1787 540
1795 299
1797 540
1804 294
1807 540
1814 294
1817 540
1824 294
1827 540
1834 294
1837 540
1843 289
1847 540
1853 289
1857 540
1863 289
1867 540
1873 289
1877 540
1883 289
1887 540
1893 289
1897 540
1903 289
1907 539
1912 294
1915 530
1922 294
1925 530
1932 294
1935 530
1942 294
1945 530
1952 294
1954 535
1962 294
1964 535
1970 330
1970 340
1971 299
1972 529
1975 309
1975 319
1975 349
1975 359
1975 369
1975 379
1975 389
1975 415
1975 425
1975 435
1982 524
1983 395
1983 441
1985 405
1985 451
1985 461
1985 471
1985 481
1985 491
1987 514
1990 500
