<?xml version="1.0" encoding="UTF-8" standalone="no"?>
<!-- Created with CurveBenchmark -->
<svg
	xmlns:dc="http://purl.org/dc/elements/1.1/"
	xmlns:cc="http://creativecommons.org/ns#"
	xmlns:rdf="http://www.w3.org/1999/02/22-rdf-syntax-ns#"
	xmlns:svg="http://www.w3.org/2000/svg"
	xmlns="http://www.w3.org/2000/svg"
	xmlns:sodipodi="http://sodipodi.sourceforge.net/DTD/sodipodi-0.dtd"
	xmlns:inkscape="http://www.inkscape.org/namespaces/inkscape"
	width="1000"
	height="1000"
	id="svg2"
	version="1.1"
	sodipodi:docname="outliers-20/fitconnect-mc15.txt">
<defs
	id="defs4" />
<metadata
	id="metadata7">
	<rdf:RDF>
		<cc:Work
			rdf:about="">
			<dc:format>image/svg+xml</dc:format>
			<dc:type
				rdf:resource="http://purl.org/dc/dcmitype/StillImage" />
			<dc:title></dc:title>
		</cc:Work>
	</rdf:RDF>
</metadata>
<g
	inkscape:label="Layer 1"
	inkscape:groupmode="layer"
	id="layer1">
	<path style="fill:none;stroke:red;stroke-width:1px;stroke-linecap:butt;stroke-linejoin:miter;stroke-opacity:1" d="M 23.135,90.6112 50.3269,89.6041 z" id="boundary" inkscape:connector-curvature="0" />
	<path style="fill:none;stroke:red;stroke-width:1px;stroke-linecap:butt;stroke-linejoin:miter;stroke-opacity:1" d="M 23.135,90.6112 11.0497,67.4477 z" id="boundary" inkscape:connector-curvature="0" />
	<path style="fill:none;stroke:red;stroke-width:1px;stroke-linecap:butt;stroke-linejoin:miter;stroke-opacity:1" d="M 50.3269,89.6041 79.533,87.5898 z" id="boundary" inkscape:connector-curvature="0" />
	<path style="fill:none;stroke:red;stroke-width:1px;stroke-linecap:butt;stroke-linejoin:miter;stroke-opacity:1" d="M 79.533,87.5898 108.739,87.5898 z" id="boundary" inkscape:connector-curvature="0" />
	<path style="fill:none;stroke:red;stroke-width:1px;stroke-linecap:butt;stroke-linejoin:miter;stroke-opacity:1" d="M 108.739,87.5898 114.06,111.938 z" id="boundary" inkscape:connector-curvature="0" />
	<path style="fill:none;stroke:red;stroke-width:1px;stroke-linecap:butt;stroke-linejoin:miter;stroke-opacity:1" d="M 125.86,142.981 141.974,197.364 z" id="boundary" inkscape:connector-curvature="0" />
	<path style="fill:none;stroke:red;stroke-width:1px;stroke-linecap:butt;stroke-linejoin:miter;stroke-opacity:1" d="M 125.86,142.981 114.06,111.938 z" id="boundary" inkscape:connector-curvature="0" />
	<path style="fill:none;stroke:red;stroke-width:1px;stroke-linecap:butt;stroke-linejoin:miter;stroke-opacity:1" d="M 141.974,197.364 146.002,217.507 z" id="boundary" inkscape:connector-curvature="0" />
	<path style="fill:none;stroke:red;stroke-width:1px;stroke-linecap:butt;stroke-linejoin:miter;stroke-opacity:1" d="M 146.002,217.507 190.315,253.762 z" id="boundary" inkscape:connector-curvature="0" />
	<path style="fill:none;stroke:red;stroke-width:1px;stroke-linecap:butt;stroke-linejoin:miter;stroke-opacity:1" d="M 171.18,303.111 190.315,253.762 z" id="boundary" inkscape:connector-curvature="0" />
	<path style="fill:none;stroke:red;stroke-width:1px;stroke-linecap:butt;stroke-linejoin:miter;stroke-opacity:1" d="M 184.272,364.544 192.329,384.686 z" id="boundary" inkscape:connector-curvature="0" />
	<path style="fill:none;stroke:red;stroke-width:1px;stroke-linecap:butt;stroke-linejoin:miter;stroke-opacity:1" d="M 184.272,364.544 221.535,333.324 z" id="boundary" inkscape:connector-curvature="0" />
	<path style="fill:none;stroke:red;stroke-width:1px;stroke-linecap:butt;stroke-linejoin:miter;stroke-opacity:1" d="M 192.329,384.686 194.343,405.836 z" id="boundary" inkscape:connector-curvature="0" />
	<path style="fill:none;stroke:red;stroke-width:1px;stroke-linecap:butt;stroke-linejoin:miter;stroke-opacity:1" d="M 194.343,405.836 205.421,444.106 z" id="boundary" inkscape:connector-curvature="0" />
	<path style="fill:none;stroke:red;stroke-width:1px;stroke-linecap:butt;stroke-linejoin:miter;stroke-opacity:1" d="M 205.421,444.106 215.492,487.411 z" id="boundary" inkscape:connector-curvature="0" />
	<path style="fill:none;stroke:red;stroke-width:1px;stroke-linecap:butt;stroke-linejoin:miter;stroke-opacity:1" d="M 215.492,487.411 221.535,510.575 z" id="boundary" inkscape:connector-curvature="0" />
	<path style="fill:none;stroke:red;stroke-width:1px;stroke-linecap:butt;stroke-linejoin:miter;stroke-opacity:1" d="M 221.535,510.575 226.571,531.724 z" id="boundary" inkscape:connector-curvature="0" />
	<path style="fill:none;stroke:red;stroke-width:1px;stroke-linecap:butt;stroke-linejoin:miter;stroke-opacity:1" d="M 226.571,531.724 230.128,539.442 z" id="boundary" inkscape:connector-curvature="0" />
	<path style="fill:none;stroke:red;stroke-width:1px;stroke-linecap:butt;stroke-linejoin:miter;stroke-opacity:1" d="M 246.713,607.257 261.819,669.697 z" id="boundary" inkscape:connector-curvature="0" />
	<path style="fill:none;stroke:red;stroke-width:1px;stroke-linecap:butt;stroke-linejoin:miter;stroke-opacity:1" d="M 246.713,607.257 239.548,553.538 z" id="boundary" inkscape:connector-curvature="0" />
	<path style="fill:none;stroke:red;stroke-width:1px;stroke-linecap:butt;stroke-linejoin:miter;stroke-opacity:1" d="M 261.819,669.697 280.954,669.697 z" id="boundary" inkscape:connector-curvature="0" />
	<path style="fill:none;stroke:red;stroke-width:1px;stroke-linecap:butt;stroke-linejoin:miter;stroke-opacity:1" d="M 280.954,669.697 301.096,667.683 z" id="boundary" inkscape:connector-curvature="0" />
	<path style="fill:none;stroke:red;stroke-width:1px;stroke-linecap:butt;stroke-linejoin:miter;stroke-opacity:1" d="M 299.082,787.529 310.16,797.6 z" id="boundary" inkscape:connector-curvature="0" />
	<path style="fill:none;stroke:red;stroke-width:1px;stroke-linecap:butt;stroke-linejoin:miter;stroke-opacity:1" d="M 299.082,787.529 252.049,769.187 z" id="boundary" inkscape:connector-curvature="0" />
	<path style="fill:none;stroke:red;stroke-width:1px;stroke-linecap:butt;stroke-linejoin:miter;stroke-opacity:1" d="M 310.16,797.6 324.26,811.699 z" id="boundary" inkscape:connector-curvature="0" />
	<path style="fill:none;stroke:red;stroke-width:1px;stroke-linecap:butt;stroke-linejoin:miter;stroke-opacity:1" d="M 324.26,811.699 341.868,812.249 z" id="boundary" inkscape:connector-curvature="0" />
	<path style="fill:none;stroke:red;stroke-width:1px;stroke-linecap:butt;stroke-linejoin:miter;stroke-opacity:1" d="M 341.381,820.763 357.494,838.891 z" id="boundary" inkscape:connector-curvature="0" />
	<path style="fill:none;stroke:red;stroke-width:1px;stroke-linecap:butt;stroke-linejoin:miter;stroke-opacity:1" d="M 341.381,820.763 341.868,812.249 z" id="boundary" inkscape:connector-curvature="0" />
	<path style="fill:none;stroke:red;stroke-width:1px;stroke-linecap:butt;stroke-linejoin:miter;stroke-opacity:1" d="M 357.494,838.891 376.629,853.998 z" id="boundary" inkscape:connector-curvature="0" />
	<path style="fill:none;stroke:red;stroke-width:1px;stroke-linecap:butt;stroke-linejoin:miter;stroke-opacity:1" d="M 376.629,853.998 377.201,877.035 z" id="boundary" inkscape:connector-curvature="0" />
	<path style="fill:none;stroke:red;stroke-width:1px;stroke-linecap:butt;stroke-linejoin:miter;stroke-opacity:1" d="M 395.764,869.105 411.878,885.218 z" id="boundary" inkscape:connector-curvature="0" />
	<path style="fill:none;stroke:red;stroke-width:1px;stroke-linecap:butt;stroke-linejoin:miter;stroke-opacity:1" d="M 395.764,869.105 377.201,877.035 z" id="boundary" inkscape:connector-curvature="0" />
	<path style="fill:none;stroke:red;stroke-width:1px;stroke-linecap:butt;stroke-linejoin:miter;stroke-opacity:1" d="M 411.878,885.218 431.013,902.339 z" id="boundary" inkscape:connector-curvature="0" />
	<path style="fill:none;stroke:red;stroke-width:1px;stroke-linecap:butt;stroke-linejoin:miter;stroke-opacity:1" d="M 450.148,916.439 431.013,902.339 z" id="boundary" inkscape:connector-curvature="0" />
	<path style="fill:none;stroke:red;stroke-width:1px;stroke-linecap:butt;stroke-linejoin:miter;stroke-opacity:1" d="M 450.148,916.439 487.411,947.659 z" id="boundary" inkscape:connector-curvature="0" />
	<path style="fill:none;stroke:red;stroke-width:1px;stroke-linecap:butt;stroke-linejoin:miter;stroke-opacity:1" d="M 487.411,947.659 533.738,945.645 z" id="boundary" inkscape:connector-curvature="0" />
	<path style="fill:none;stroke:red;stroke-width:1px;stroke-linecap:butt;stroke-linejoin:miter;stroke-opacity:1" d="M 602.221,972.837 580.065,862.055 z" id="boundary" inkscape:connector-curvature="0" />
	<path style="fill:none;stroke:red;stroke-width:1px;stroke-linecap:butt;stroke-linejoin:miter;stroke-opacity:1" d="M 602.221,972.837 533.738,945.645 z" id="boundary" inkscape:connector-curvature="0" />
	<path style="fill:none;stroke:red;stroke-width:1px;stroke-linecap:butt;stroke-linejoin:miter;stroke-opacity:1" d="M 580.065,862.055 561.383,855.807 z" id="boundary" inkscape:connector-curvature="0" />
	<path style="fill:none;stroke:red;stroke-width:1px;stroke-linecap:butt;stroke-linejoin:miter;stroke-opacity:1" d="M 571.001,832.849 564.958,807.671 z" id="boundary" inkscape:connector-curvature="0" />
	<path style="fill:none;stroke:red;stroke-width:1px;stroke-linecap:butt;stroke-linejoin:miter;stroke-opacity:1" d="M 571.001,832.849 561.383,855.807 z" id="boundary" inkscape:connector-curvature="0" />
	<path style="fill:none;stroke:red;stroke-width:1px;stroke-linecap:butt;stroke-linejoin:miter;stroke-opacity:1" d="M 564.958,807.671 539.781,774.437 z" id="boundary" inkscape:connector-curvature="0" />
	<path style="fill:none;stroke:red;stroke-width:1px;stroke-linecap:butt;stroke-linejoin:miter;stroke-opacity:1" d="M 539.781,774.437 514.603,774.437 z" id="boundary" inkscape:connector-curvature="0" />
	<path style="fill:none;stroke:red;stroke-width:1px;stroke-linecap:butt;stroke-linejoin:miter;stroke-opacity:1" d="M 514.603,774.437 496.475,772.422 z" id="boundary" inkscape:connector-curvature="0" />
	<path style="fill:none;stroke:red;stroke-width:1px;stroke-linecap:butt;stroke-linejoin:miter;stroke-opacity:1" d="M 496.475,772.422 450.671,767.755 z" id="boundary" inkscape:connector-curvature="0" />
	<path style="fill:none;stroke:red;stroke-width:1px;stroke-linecap:butt;stroke-linejoin:miter;stroke-opacity:1" d="M 659.626,357.494 648.548,399.793 z" id="boundary" inkscape:connector-curvature="0" />
	<path style="fill:none;stroke:red;stroke-width:1px;stroke-linecap:butt;stroke-linejoin:miter;stroke-opacity:1" d="M 659.626,357.494 541.795,385.693 z" id="boundary" inkscape:connector-curvature="0" />
	<path style="fill:none;stroke:red;stroke-width:1px;stroke-linecap:butt;stroke-linejoin:miter;stroke-opacity:1" d="M 648.548,399.793 644.52,418.928 z" id="boundary" inkscape:connector-curvature="0" />
	<path style="fill:none;stroke:red;stroke-width:1px;stroke-linecap:butt;stroke-linejoin:miter;stroke-opacity:1" d="M 644.52,418.928 638.477,440.077 z" id="boundary" inkscape:connector-curvature="0" />
	<path style="fill:none;stroke:red;stroke-width:1px;stroke-linecap:butt;stroke-linejoin:miter;stroke-opacity:1" d="M 638.477,440.077 632.435,460.219 z" id="boundary" inkscape:connector-curvature="0" />
	<path style="fill:none;stroke:red;stroke-width:1px;stroke-linecap:butt;stroke-linejoin:miter;stroke-opacity:1" d="M 632.435,460.219 621.356,504.532 z" id="boundary" inkscape:connector-curvature="0" />
	<path style="fill:none;stroke:red;stroke-width:1px;stroke-linecap:butt;stroke-linejoin:miter;stroke-opacity:1" d="M 621.356,504.532 605.243,568.987 z" id="boundary" inkscape:connector-curvature="0" />
	<path style="fill:none;stroke:red;stroke-width:1px;stroke-linecap:butt;stroke-linejoin:miter;stroke-opacity:1" d="M 605.243,568.987 446.12,529.71 z" id="boundary" inkscape:connector-curvature="0" />
	<path style="fill:none;stroke:red;stroke-width:1px;stroke-linecap:butt;stroke-linejoin:miter;stroke-opacity:1" d="M 786.522,65.4335 815.728,62.4122 z" id="boundary" inkscape:connector-curvature="0" />
	<path style="fill:none;stroke:red;stroke-width:1px;stroke-linecap:butt;stroke-linejoin:miter;stroke-opacity:1" d="M 815.728,62.4122 838.891,60.398 z" id="boundary" inkscape:connector-curvature="0" />
	<path style="fill:none;stroke:red;stroke-width:1px;stroke-linecap:butt;stroke-linejoin:miter;stroke-opacity:1" d="M 838.891,60.398 851.984,27.1635 z" id="boundary" inkscape:connector-curvature="0" />
	<path style="fill:none;stroke:red;stroke-width:1px;stroke-linecap:butt;stroke-linejoin:miter;stroke-opacity:1" d="M 8.02843,27.1635 4,46.2985 z" id="boundary" inkscape:connector-curvature="0" />
	<path style="fill:none;stroke:red;stroke-width:1px;stroke-linecap:butt;stroke-linejoin:miter;stroke-opacity:1" d="M 8.02843,27.1635 29.1777,25.1492 z" id="boundary" inkscape:connector-curvature="0" />
	<path style="fill:none;stroke:red;stroke-width:1px;stroke-linecap:butt;stroke-linejoin:miter;stroke-opacity:1" d="M 4,46.2985 11.0497,67.4477 z" id="boundary" inkscape:connector-curvature="0" />
	<path style="fill:none;stroke:red;stroke-width:1px;stroke-linecap:butt;stroke-linejoin:miter;stroke-opacity:1" d="M 849.97,4 851.984,27.1635 z" id="boundary" inkscape:connector-curvature="0" />
	<path style="fill:none;stroke:red;stroke-width:1px;stroke-linecap:butt;stroke-linejoin:miter;stroke-opacity:1" d="M 849.97,4 815.728,8.02843 z" id="boundary" inkscape:connector-curvature="0" />
	<path style="fill:none;stroke:red;stroke-width:1px;stroke-linecap:butt;stroke-linejoin:miter;stroke-opacity:1" d="M 29.1777,25.1492 58.3838,23.135 z" id="boundary" inkscape:connector-curvature="0" />
	<path style="fill:none;stroke:red;stroke-width:1px;stroke-linecap:butt;stroke-linejoin:miter;stroke-opacity:1" d="M 58.3838,23.135 89.6041,23.135 z" id="boundary" inkscape:connector-curvature="0" />
	<path style="fill:none;stroke:red;stroke-width:1px;stroke-linecap:butt;stroke-linejoin:miter;stroke-opacity:1" d="M 89.6041,23.135 114.782,23.135 z" id="boundary" inkscape:connector-curvature="0" />
	<path style="fill:none;stroke:red;stroke-width:1px;stroke-linecap:butt;stroke-linejoin:miter;stroke-opacity:1" d="M 114.782,23.135 135.931,23.135 z" id="boundary" inkscape:connector-curvature="0" />
	<path style="fill:none;stroke:red;stroke-width:1px;stroke-linecap:butt;stroke-linejoin:miter;stroke-opacity:1" d="M 135.931,23.135 172.187,23.135 z" id="boundary" inkscape:connector-curvature="0" />
	<path style="fill:none;stroke:red;stroke-width:1px;stroke-linecap:butt;stroke-linejoin:miter;stroke-opacity:1" d="M 172.187,23.135 198.372,23.135 z" id="boundary" inkscape:connector-curvature="0" />
	<path style="fill:none;stroke:red;stroke-width:1px;stroke-linecap:butt;stroke-linejoin:miter;stroke-opacity:1" d="M 198.372,23.135 217.507,21.1208 z" id="boundary" inkscape:connector-curvature="0" />
	<path style="fill:none;stroke:red;stroke-width:1px;stroke-linecap:butt;stroke-linejoin:miter;stroke-opacity:1" d="M 217.507,21.1208 242.684,21.1208 z" id="boundary" inkscape:connector-curvature="0" />
	<path style="fill:none;stroke:red;stroke-width:1px;stroke-linecap:butt;stroke-linejoin:miter;stroke-opacity:1" d="M 242.684,21.1208 269.876,19.1066 z" id="boundary" inkscape:connector-curvature="0" />
	<path style="fill:none;stroke:red;stroke-width:1px;stroke-linecap:butt;stroke-linejoin:miter;stroke-opacity:1" d="M 269.876,19.1066 293.04,19.1066 z" id="boundary" inkscape:connector-curvature="0" />
	<path style="fill:none;stroke:red;stroke-width:1px;stroke-linecap:butt;stroke-linejoin:miter;stroke-opacity:1" d="M 293.04,19.1066 322.246,19.1066 z" id="boundary" inkscape:connector-curvature="0" />
	<path style="fill:none;stroke:red;stroke-width:1px;stroke-linecap:butt;stroke-linejoin:miter;stroke-opacity:1" d="M 322.246,19.1066 347.423,19.1066 z" id="boundary" inkscape:connector-curvature="0" />
	<path style="fill:none;stroke:red;stroke-width:1px;stroke-linecap:butt;stroke-linejoin:miter;stroke-opacity:1" d="M 347.423,19.1066 378.644,17.0924 z" id="boundary" inkscape:connector-curvature="0" />
	<path style="fill:none;stroke:red;stroke-width:1px;stroke-linecap:butt;stroke-linejoin:miter;stroke-opacity:1" d="M 378.644,17.0924 411.878,17.0924 z" id="boundary" inkscape:connector-curvature="0" />
	<path style="fill:none;stroke:red;stroke-width:1px;stroke-linecap:butt;stroke-linejoin:miter;stroke-opacity:1" d="M 411.878,17.0924 441.084,17.0924 z" id="boundary" inkscape:connector-curvature="0" />
	<path style="fill:none;stroke:red;stroke-width:1px;stroke-linecap:butt;stroke-linejoin:miter;stroke-opacity:1" d="M 441.084,17.0924 454.794,42.9661 z" id="boundary" inkscape:connector-curvature="0" />
	<path style="fill:none;stroke:red;stroke-width:1px;stroke-linecap:butt;stroke-linejoin:miter;stroke-opacity:1" d="M 475.326,17.0924 502.518,17.0924 z" id="boundary" inkscape:connector-curvature="0" />
	<path style="fill:none;stroke:red;stroke-width:1px;stroke-linecap:butt;stroke-linejoin:miter;stroke-opacity:1" d="M 475.326,17.0924 454.794,42.9661 z" id="boundary" inkscape:connector-curvature="0" />
	<path style="fill:none;stroke:red;stroke-width:1px;stroke-linecap:butt;stroke-linejoin:miter;stroke-opacity:1" d="M 502.518,17.0924 531.724,17.0924 z" id="boundary" inkscape:connector-curvature="0" />
	<path style="fill:none;stroke:red;stroke-width:1px;stroke-linecap:butt;stroke-linejoin:miter;stroke-opacity:1" d="M 531.724,17.0924 564.958,15.0782 z" id="boundary" inkscape:connector-curvature="0" />
	<path style="fill:none;stroke:red;stroke-width:1px;stroke-linecap:butt;stroke-linejoin:miter;stroke-opacity:1" d="M 564.958,15.0782 600.207,13.064 z" id="boundary" inkscape:connector-curvature="0" />
	<path style="fill:none;stroke:red;stroke-width:1px;stroke-linecap:butt;stroke-linejoin:miter;stroke-opacity:1" d="M 600.207,13.064 652.577,13.064 z" id="boundary" inkscape:connector-curvature="0" />
	<path style="fill:none;stroke:red;stroke-width:1px;stroke-linecap:butt;stroke-linejoin:miter;stroke-opacity:1" d="M 652.577,13.064 686.818,11.0497 z" id="boundary" inkscape:connector-curvature="0" />
	<path style="fill:none;stroke:red;stroke-width:1px;stroke-linecap:butt;stroke-linejoin:miter;stroke-opacity:1" d="M 686.818,11.0497 747.245,9.03553 z" id="boundary" inkscape:connector-curvature="0" />
	<path style="fill:none;stroke:red;stroke-width:1px;stroke-linecap:butt;stroke-linejoin:miter;stroke-opacity:1" d="M 747.245,9.03553 403.821,407.85 z" id="boundary" inkscape:connector-curvature="0" />
	<path style="fill:none;stroke:red;stroke-width:1px;stroke-linecap:butt;stroke-linejoin:miter;stroke-opacity:1" d="M 211.464,114.782 198.372,129.888 z" id="boundary" inkscape:connector-curvature="0" />
	<path style="fill:none;stroke:red;stroke-width:1px;stroke-linecap:butt;stroke-linejoin:miter;stroke-opacity:1" d="M 211.464,114.782 228.951,114.551 z" id="boundary" inkscape:connector-curvature="0" />
	<path style="fill:none;stroke:red;stroke-width:1px;stroke-linecap:butt;stroke-linejoin:miter;stroke-opacity:1" d="M 244.698,114.782 271.89,115.789 z" id="boundary" inkscape:connector-curvature="0" />
	<path style="fill:none;stroke:red;stroke-width:1px;stroke-linecap:butt;stroke-linejoin:miter;stroke-opacity:1" d="M 244.698,114.782 228.951,114.551 z" id="boundary" inkscape:connector-curvature="0" />
	<path style="fill:none;stroke:red;stroke-width:1px;stroke-linecap:butt;stroke-linejoin:miter;stroke-opacity:1" d="M 271.89,115.789 305.125,115.789 z" id="boundary" inkscape:connector-curvature="0" />
	<path style="fill:none;stroke:red;stroke-width:1px;stroke-linecap:butt;stroke-linejoin:miter;stroke-opacity:1" d="M 305.125,115.789 330.303,114.782 z" id="boundary" inkscape:connector-curvature="0" />
	<path style="fill:none;stroke:red;stroke-width:1px;stroke-linecap:butt;stroke-linejoin:miter;stroke-opacity:1" d="M 330.303,114.782 357.494,112.768 z" id="boundary" inkscape:connector-curvature="0" />
	<path style="fill:none;stroke:red;stroke-width:1px;stroke-linecap:butt;stroke-linejoin:miter;stroke-opacity:1" d="M 357.494,112.768 374.615,112.768 z" id="boundary" inkscape:connector-curvature="0" />
	<path style="fill:none;stroke:red;stroke-width:1px;stroke-linecap:butt;stroke-linejoin:miter;stroke-opacity:1" d="M 374.615,112.768 399.793,112.768 z" id="boundary" inkscape:connector-curvature="0" />
	<path style="fill:none;stroke:red;stroke-width:1px;stroke-linecap:butt;stroke-linejoin:miter;stroke-opacity:1" d="M 399.793,112.768 424.971,110.753 z" id="boundary" inkscape:connector-curvature="0" />
	<path style="fill:none;stroke:red;stroke-width:1px;stroke-linecap:butt;stroke-linejoin:miter;stroke-opacity:1" d="M 424.971,110.753 450.036,89.3674 z" id="boundary" inkscape:connector-curvature="0" />
	<path style="fill:none;stroke:red;stroke-width:1px;stroke-linecap:butt;stroke-linejoin:miter;stroke-opacity:1" d="M 460.219,110.753 483.383,110.753 z" id="boundary" inkscape:connector-curvature="0" />
	<path style="fill:none;stroke:red;stroke-width:1px;stroke-linecap:butt;stroke-linejoin:miter;stroke-opacity:1" d="M 460.219,110.753 450.036,89.3674 z" id="boundary" inkscape:connector-curvature="0" />
	<path style="fill:none;stroke:red;stroke-width:1px;stroke-linecap:butt;stroke-linejoin:miter;stroke-opacity:1" d="M 483.383,110.753 508.56,110.753 z" id="boundary" inkscape:connector-curvature="0" />
	<path style="fill:none;stroke:red;stroke-width:1px;stroke-linecap:butt;stroke-linejoin:miter;stroke-opacity:1" d="M 508.56,110.753 535.752,110.753 z" id="boundary" inkscape:connector-curvature="0" />
	<path style="fill:none;stroke:red;stroke-width:1px;stroke-linecap:butt;stroke-linejoin:miter;stroke-opacity:1" d="M 535.752,110.753 564.958,110.753 z" id="boundary" inkscape:connector-curvature="0" />
	<path style="fill:none;stroke:red;stroke-width:1px;stroke-linecap:butt;stroke-linejoin:miter;stroke-opacity:1" d="M 564.958,110.753 640.491,163.123 z" id="boundary" inkscape:connector-curvature="0" />
	<path style="fill:none;stroke:red;stroke-width:1px;stroke-linecap:butt;stroke-linejoin:miter;stroke-opacity:1" d="M 310.16,184.272 330.303,194.343 z" id="boundary" inkscape:connector-curvature="0" />
	<path style="fill:none;stroke:red;stroke-width:1px;stroke-linecap:butt;stroke-linejoin:miter;stroke-opacity:1" d="M 310.16,184.272 316.203,226.571 z" id="boundary" inkscape:connector-curvature="0" />
	<path style="fill:none;stroke:red;stroke-width:1px;stroke-linecap:butt;stroke-linejoin:miter;stroke-opacity:1" d="M 330.303,194.343 353.466,207.436 z" id="boundary" inkscape:connector-curvature="0" />
	<path style="fill:none;stroke:red;stroke-width:1px;stroke-linecap:butt;stroke-linejoin:miter;stroke-opacity:1" d="M 353.466,207.436 383.077,228.298 z" id="boundary" inkscape:connector-curvature="0" />
	<path style="fill:none;stroke:red;stroke-width:1px;stroke-linecap:butt;stroke-linejoin:miter;stroke-opacity:1" d="M 401.807,228.585 433.027,226.571 z" id="boundary" inkscape:connector-curvature="0" />
	<path style="fill:none;stroke:red;stroke-width:1px;stroke-linecap:butt;stroke-linejoin:miter;stroke-opacity:1" d="M 401.807,228.585 383.077,228.298 z" id="boundary" inkscape:connector-curvature="0" />
	<path style="fill:none;stroke:red;stroke-width:1px;stroke-linecap:butt;stroke-linejoin:miter;stroke-opacity:1" d="M 433.027,226.571 450.148,217.507 z" id="boundary" inkscape:connector-curvature="0" />
	<path style="fill:none;stroke:red;stroke-width:1px;stroke-linecap:butt;stroke-linejoin:miter;stroke-opacity:1" d="M 450.148,217.507 499.637,246.457 z" id="boundary" inkscape:connector-curvature="0" />
	<path style="fill:none;stroke:red;stroke-width:1px;stroke-linecap:butt;stroke-linejoin:miter;stroke-opacity:1" d="M 252.755,393.75 277.933,391.736 z" id="boundary" inkscape:connector-curvature="0" />
	<path style="fill:none;stroke:red;stroke-width:1px;stroke-linecap:butt;stroke-linejoin:miter;stroke-opacity:1" d="M 277.933,391.736 303.111,393.75 z" id="boundary" inkscape:connector-curvature="0" />
	<path style="fill:none;stroke:red;stroke-width:1px;stroke-linecap:butt;stroke-linejoin:miter;stroke-opacity:1" d="M 303.111,393.75 351.452,387.708 z" id="boundary" inkscape:connector-curvature="0" />
	<path style="fill:none;stroke:red;stroke-width:1px;stroke-linecap:butt;stroke-linejoin:miter;stroke-opacity:1" d="M 351.452,387.708 378.644,389.722 z" id="boundary" inkscape:connector-curvature="0" />
	<path style="fill:none;stroke:red;stroke-width:1px;stroke-linecap:butt;stroke-linejoin:miter;stroke-opacity:1" d="M 378.644,389.722 403.821,407.85 z" id="boundary" inkscape:connector-curvature="0" />
	<path style="fill:none;stroke:red;stroke-width:1px;stroke-linecap:butt;stroke-linejoin:miter;stroke-opacity:1" d="M 508.56,498.489 541.795,385.693 z" id="boundary" inkscape:connector-curvature="0" />
	<path style="fill:none;stroke:red;stroke-width:1px;stroke-linecap:butt;stroke-linejoin:miter;stroke-opacity:1" d="M 508.56,498.489 487.411,527.695 z" id="boundary" inkscape:connector-curvature="0" />
	<path style="fill:none;stroke:red;stroke-width:1px;stroke-linecap:butt;stroke-linejoin:miter;stroke-opacity:1" d="M 529.71,217.507 576.037,196.357 z" id="boundary" inkscape:connector-curvature="0" />
	<path style="fill:none;stroke:red;stroke-width:1px;stroke-linecap:butt;stroke-linejoin:miter;stroke-opacity:1" d="M 529.71,217.507 499.637,246.457 z" id="boundary" inkscape:connector-curvature="0" />
	<path style="fill:none;stroke:red;stroke-width:1px;stroke-linecap:butt;stroke-linejoin:miter;stroke-opacity:1" d="M 576.037,196.357 594.164,180.244 z" id="boundary" inkscape:connector-curvature="0" />
	<path style="fill:none;stroke:red;stroke-width:1px;stroke-linecap:butt;stroke-linejoin:miter;stroke-opacity:1" d="M 594.164,180.244 640.491,163.123 z" id="boundary" inkscape:connector-curvature="0" />
	<path style="fill:none;stroke:red;stroke-width:1px;stroke-linecap:butt;stroke-linejoin:miter;stroke-opacity:1" d="M 322.246,625.385 360.516,625.385 z" id="boundary" inkscape:connector-curvature="0" />
	<path style="fill:none;stroke:red;stroke-width:1px;stroke-linecap:butt;stroke-linejoin:miter;stroke-opacity:1" d="M 360.516,625.385 382.672,626.392 z" id="boundary" inkscape:connector-curvature="0" />
	<path style="fill:none;stroke:red;stroke-width:1px;stroke-linecap:butt;stroke-linejoin:miter;stroke-opacity:1" d="M 382.672,626.392 384.686,644.52 z" id="boundary" inkscape:connector-curvature="0" />
	<path style="fill:none;stroke:red;stroke-width:1px;stroke-linecap:butt;stroke-linejoin:miter;stroke-opacity:1" d="M 384.686,644.52 382.672,663.655 z" id="boundary" inkscape:connector-curvature="0" />
	<path style="fill:none;stroke:red;stroke-width:1px;stroke-linecap:butt;stroke-linejoin:miter;stroke-opacity:1" d="M 382.672,663.655 382.672,680.776 z" id="boundary" inkscape:connector-curvature="0" />
	<path style="fill:none;stroke:red;stroke-width:1px;stroke-linecap:butt;stroke-linejoin:miter;stroke-opacity:1" d="M 378.644,764.365 399.793,768.394 z" id="boundary" inkscape:connector-curvature="0" />
	<path style="fill:none;stroke:red;stroke-width:1px;stroke-linecap:butt;stroke-linejoin:miter;stroke-opacity:1" d="M 399.793,768.394 424.971,768.394 z" id="boundary" inkscape:connector-curvature="0" />
	<path style="fill:none;stroke:red;stroke-width:1px;stroke-linecap:butt;stroke-linejoin:miter;stroke-opacity:1" d="M 424.971,768.394 450.671,767.755 z" id="boundary" inkscape:connector-curvature="0" />
	<path style="fill:none;stroke:red;stroke-width:1px;stroke-linecap:butt;stroke-linejoin:miter;stroke-opacity:1" d="M 456.191,686.818 438.622,666.382 z" id="boundary" inkscape:connector-curvature="0" />
	<path style="fill:none;stroke:red;stroke-width:1px;stroke-linecap:butt;stroke-linejoin:miter;stroke-opacity:1" d="M 458.205,626.392 491.44,621.356 z" id="boundary" inkscape:connector-curvature="0" />
	<path style="fill:none;stroke:red;stroke-width:1px;stroke-linecap:butt;stroke-linejoin:miter;stroke-opacity:1" d="M 458.205,626.392 438.622,666.382 z" id="boundary" inkscape:connector-curvature="0" />
	<path style="fill:none;stroke:red;stroke-width:1px;stroke-linecap:butt;stroke-linejoin:miter;stroke-opacity:1" d="M 491.44,621.356 539.781,626.392 z" id="boundary" inkscape:connector-curvature="0" />
	<path style="fill:none;stroke:red;stroke-width:1px;stroke-linecap:butt;stroke-linejoin:miter;stroke-opacity:1" d="M 446.12,529.71 487.411,527.695 z" id="boundary" inkscape:connector-curvature="0" />
	<path style="fill:none;stroke:red;stroke-width:1px;stroke-linecap:butt;stroke-linejoin:miter;stroke-opacity:1" d="M 239.548,553.538 230.128,539.442 z" id="boundary" inkscape:connector-curvature="0" />
	<path style="fill:none;stroke:red;stroke-width:1px;stroke-linecap:butt;stroke-linejoin:miter;stroke-opacity:1" d="M 120.37,801.743 198.161,890.225 z" id="boundary" inkscape:connector-curvature="0" />
	<path style="fill:none;stroke:red;stroke-width:1px;stroke-linecap:butt;stroke-linejoin:miter;stroke-opacity:1" d="M 120.37,801.743 110.401,791.123 z" id="boundary" inkscape:connector-curvature="0" />
	<path style="fill:none;stroke:red;stroke-width:1px;stroke-linecap:butt;stroke-linejoin:miter;stroke-opacity:1" d="M 63.1513,945.732 206.058,966.869 z" id="boundary" inkscape:connector-curvature="0" />
	<path style="fill:none;stroke:red;stroke-width:1px;stroke-linecap:butt;stroke-linejoin:miter;stroke-opacity:1" d="M 166.994,661.921 143.156,743.111 z" id="boundary" inkscape:connector-curvature="0" />
	<path style="fill:none;stroke:red;stroke-width:1px;stroke-linecap:butt;stroke-linejoin:miter;stroke-opacity:1" d="M 206.058,966.869 198.161,890.225 z" id="boundary" inkscape:connector-curvature="0" />
	<path style="fill:none;stroke:red;stroke-width:1px;stroke-linecap:butt;stroke-linejoin:miter;stroke-opacity:1" d="M 110.401,791.123 143.156,743.111 z" id="boundary" inkscape:connector-curvature="0" />
	<circle cx="23.135" cy="90.6112" r="4" fill="#0" id="circle0"/>
	<circle cx="50.3269" cy="89.6041" r="4" fill="#0" id="circle1"/>
	<circle cx="79.533" cy="87.5898" r="4" fill="#0" id="circle2"/>
	<circle cx="108.739" cy="87.5898" r="4" fill="#0" id="circle3"/>
	<circle cx="121.831" cy="112.768" r="4" fill="#0" id="circle4"/>
	<circle cx="125.86" cy="142.981" r="4" fill="#0" id="circle5"/>
	<circle cx="135.931" cy="174.201" r="4" fill="#0" id="circle6"/>
	<circle cx="141.974" cy="197.364" r="4" fill="#0" id="circle7"/>
	<circle cx="146.002" cy="217.507" r="4" fill="#0" id="circle8"/>
	<circle cx="149.023" cy="236.642" r="4" fill="#0" id="circle9"/>
	<circle cx="157.08" cy="257.791" r="4" fill="#0" id="circle10"/>
	<circle cx="163.123" cy="278.94" r="4" fill="#0" id="circle11"/>
	<circle cx="171.18" cy="303.111" r="4" fill="#0" id="circle12"/>
	<circle cx="176.215" cy="324.26" r="4" fill="#0" id="circle13"/>
	<circle cx="182.258" cy="345.409" r="4" fill="#0" id="circle14"/>
	<circle cx="184.272" cy="364.544" r="4" fill="#0" id="circle15"/>
	<circle cx="192.329" cy="384.686" r="4" fill="#0" id="circle16"/>
	<circle cx="194.343" cy="405.836" r="4" fill="#0" id="circle17"/>
	<circle cx="199.379" cy="424.971" r="4" fill="#0" id="circle18"/>
	<circle cx="205.421" cy="444.106" r="4" fill="#0" id="circle19"/>
	<circle cx="211.464" cy="465.255" r="4" fill="#0" id="circle20"/>
	<circle cx="215.492" cy="487.411" r="4" fill="#0" id="circle21"/>
	<circle cx="221.535" cy="510.575" r="4" fill="#0" id="circle22"/>
	<circle cx="226.571" cy="531.724" r="4" fill="#0" id="circle23"/>
	<circle cx="232.613" cy="552.873" r="4" fill="#0" id="circle24"/>
	<circle cx="238.656" cy="576.037" r="4" fill="#0" id="circle25"/>
	<circle cx="246.713" cy="607.257" r="4" fill="#0" id="circle26"/>
	<circle cx="250.741" cy="626.392" r="4" fill="#0" id="circle27"/>
	<circle cx="255.777" cy="648.548" r="4" fill="#0" id="circle28"/>
	<circle cx="261.819" cy="669.697" r="4" fill="#0" id="circle29"/>
	<circle cx="280.954" cy="669.697" r="4" fill="#0" id="circle30"/>
	<circle cx="301.096" cy="667.683" r="4" fill="#0" id="circle31"/>
	<circle cx="320.231" cy="665.669" r="4" fill="#0" id="circle32"/>
	<circle cx="343.395" cy="665.669" r="4" fill="#0" id="circle33"/>
	<circle cx="351.452" cy="684.804" r="4" fill="#0" id="circle34"/>
	<circle cx="349.438" cy="706.96" r="4" fill="#0" id="circle35"/>
	<circle cx="347.423" cy="730.124" r="4" fill="#0" id="circle36"/>
	<circle cx="349.438" cy="751.273" r="4" fill="#0" id="circle37"/>
	<circle cx="349.438" cy="770.408" r="4" fill="#0" id="circle38"/>
	<circle cx="328.288" cy="770.408" r="4" fill="#0" id="circle39"/>
	<circle cx="310.16" cy="772.422" r="4" fill="#0" id="circle40"/>
	<circle cx="289.011" cy="774.437" r="4" fill="#0" id="circle41"/>
	<circle cx="299.082" cy="787.529" r="4" fill="#0" id="circle42"/>
	<circle cx="310.16" cy="797.6" r="4" fill="#0" id="circle43"/>
	<circle cx="324.26" cy="811.699" r="4" fill="#0" id="circle44"/>
	<circle cx="341.381" cy="820.763" r="4" fill="#0" id="circle45"/>
	<circle cx="357.494" cy="838.891" r="4" fill="#0" id="circle46"/>
	<circle cx="376.629" cy="853.998" r="4" fill="#0" id="circle47"/>
	<circle cx="395.764" cy="869.105" r="4" fill="#0" id="circle48"/>
	<circle cx="411.878" cy="885.218" r="4" fill="#0" id="circle49"/>
	<circle cx="450.148" cy="916.439" r="4" fill="#0" id="circle50"/>
	<circle cx="431.013" cy="902.339" r="4" fill="#0" id="circle51"/>
	<circle cx="469.283" cy="931.545" r="4" fill="#0" id="circle52"/>
	<circle cx="487.411" cy="947.659" r="4" fill="#0" id="circle53"/>
	<circle cx="504.532" cy="964.78" r="4" fill="#0" id="circle54"/>
	<circle cx="523.667" cy="977.872" r="4" fill="#0" id="circle55"/>
	<circle cx="543.809" cy="991.972" r="4" fill="#0" id="circle56"/>
	<circle cx="566.973" cy="996" r="4" fill="#0" id="circle57"/>
	<circle cx="590.136" cy="987.943" r="4" fill="#0" id="circle58"/>
	<circle cx="602.221" cy="972.837" r="4" fill="#0" id="circle59"/>
	<circle cx="605.243" cy="948.666" r="4" fill="#0" id="circle60"/>
	<circle cx="600.207" cy="929.531" r="4" fill="#0" id="circle61"/>
	<circle cx="592.15" cy="906.368" r="4" fill="#0" id="circle62"/>
	<circle cx="586.108" cy="883.204" r="4" fill="#0" id="circle63"/>
	<circle cx="580.065" cy="862.055" r="4" fill="#0" id="circle64"/>
	<circle cx="571.001" cy="832.849" r="4" fill="#0" id="circle65"/>
	<circle cx="564.958" cy="807.671" r="4" fill="#0" id="circle66"/>
	<circle cx="558.916" cy="780.479" r="4" fill="#0" id="circle67"/>
	<circle cx="539.781" cy="774.437" r="4" fill="#0" id="circle68"/>
	<circle cx="514.603" cy="774.437" r="4" fill="#0" id="circle69"/>
	<circle cx="496.475" cy="772.422" r="4" fill="#0" id="circle70"/>
	<circle cx="491.44" cy="667.683" r="4" fill="#0" id="circle71"/>
	<circle cx="491.44" cy="690.847" r="4" fill="#0" id="circle72"/>
	<circle cx="489.425" cy="714.01" r="4" fill="#0" id="circle73"/>
	<circle cx="489.425" cy="737.174" r="4" fill="#0" id="circle74"/>
	<circle cx="489.425" cy="753.287" r="4" fill="#0" id="circle75"/>
	<circle cx="514.603" cy="661.641" r="4" fill="#0" id="circle76"/>
	<circle cx="531.724" cy="661.641" r="4" fill="#0" id="circle77"/>
	<circle cx="545.823" cy="659.626" r="4" fill="#0" id="circle78"/>
	<circle cx="558.916" cy="659.626" r="4" fill="#0" id="circle79"/>
	<circle cx="576.037" cy="659.626" r="4" fill="#0" id="circle80"/>
	<circle cx="737.174" cy="69.4619" r="4" fill="#0" id="circle81"/>
	<circle cx="728.11" cy="89.6041" r="4" fill="#0" id="circle82"/>
	<circle cx="722.067" cy="114.782" r="4" fill="#0" id="circle83"/>
	<circle cx="716.024" cy="139.959" r="4" fill="#0" id="circle84"/>
	<circle cx="711.996" cy="161.109" r="4" fill="#0" id="circle85"/>
	<circle cx="704.946" cy="182.258" r="4" fill="#0" id="circle86"/>
	<circle cx="698.904" cy="201.393" r="4" fill="#0" id="circle87"/>
	<circle cx="692.861" cy="228.585" r="4" fill="#0" id="circle88"/>
	<circle cx="690.847" cy="248.727" r="4" fill="#0" id="circle89"/>
	<circle cx="682.79" cy="267.862" r="4" fill="#0" id="circle90"/>
	<circle cx="677.754" cy="295.054" r="4" fill="#0" id="circle91"/>
	<circle cx="669.697" cy="316.203" r="4" fill="#0" id="circle92"/>
	<circle cx="663.655" cy="339.366" r="4" fill="#0" id="circle93"/>
	<circle cx="659.626" cy="357.494" r="4" fill="#0" id="circle94"/>
	<circle cx="652.577" cy="378.644" r="4" fill="#0" id="circle95"/>
	<circle cx="648.548" cy="399.793" r="4" fill="#0" id="circle96"/>
	<circle cx="644.52" cy="418.928" r="4" fill="#0" id="circle97"/>
	<circle cx="638.477" cy="440.077" r="4" fill="#0" id="circle98"/>
	<circle cx="632.435" cy="460.219" r="4" fill="#0" id="circle99"/>
	<circle cx="627.399" cy="481.369" r="4" fill="#0" id="circle100"/>
	<circle cx="621.356" cy="504.532" r="4" fill="#0" id="circle101"/>
	<circle cx="617.328" cy="523.667" r="4" fill="#0" id="circle102"/>
	<circle cx="611.285" cy="550.859" r="4" fill="#0" id="circle103"/>
	<circle cx="605.243" cy="568.987" r="4" fill="#0" id="circle104"/>
	<circle cx="602.221" cy="592.15" r="4" fill="#0" id="circle105"/>
	<circle cx="592.15" cy="615.314" r="4" fill="#0" id="circle106"/>
	<circle cx="584.093" cy="640.491" r="4" fill="#0" id="circle107"/>
	<circle cx="763.358" cy="67.4477" r="4" fill="#0" id="circle108"/>
	<circle cx="786.522" cy="65.4335" r="4" fill="#0" id="circle109"/>
	<circle cx="815.728" cy="62.4122" r="4" fill="#0" id="circle110"/>
	<circle cx="838.891" cy="60.398" r="4" fill="#0" id="circle111"/>
	<circle cx="8.02843" cy="27.1635" r="4" fill="#0" id="circle112"/>
	<circle cx="4" cy="46.2985" r="4" fill="#0" id="circle113"/>
	<circle cx="11.0497" cy="67.4477" r="4" fill="#0" id="circle114"/>
	<circle cx="849.97" cy="4" r="4" fill="#0" id="circle115"/>
	<circle cx="851.984" cy="27.1635" r="4" fill="#0" id="circle116"/>
	<circle cx="29.1777" cy="25.1492" r="4" fill="#0" id="circle117"/>
	<circle cx="58.3838" cy="23.135" r="4" fill="#0" id="circle118"/>
	<circle cx="89.6041" cy="23.135" r="4" fill="#0" id="circle119"/>
	<circle cx="114.782" cy="23.135" r="4" fill="#0" id="circle120"/>
	<circle cx="135.931" cy="23.135" r="4" fill="#0" id="circle121"/>
	<circle cx="172.187" cy="23.135" r="4" fill="#0" id="circle122"/>
	<circle cx="198.372" cy="23.135" r="4" fill="#0" id="circle123"/>
	<circle cx="217.507" cy="21.1208" r="4" fill="#0" id="circle124"/>
	<circle cx="242.684" cy="21.1208" r="4" fill="#0" id="circle125"/>
	<circle cx="269.876" cy="19.1066" r="4" fill="#0" id="circle126"/>
	<circle cx="293.04" cy="19.1066" r="4" fill="#0" id="circle127"/>
	<circle cx="322.246" cy="19.1066" r="4" fill="#0" id="circle128"/>
	<circle cx="347.423" cy="19.1066" r="4" fill="#0" id="circle129"/>
	<circle cx="378.644" cy="17.0924" r="4" fill="#0" id="circle130"/>
	<circle cx="411.878" cy="17.0924" r="4" fill="#0" id="circle131"/>
	<circle cx="441.084" cy="17.0924" r="4" fill="#0" id="circle132"/>
	<circle cx="475.326" cy="17.0924" r="4" fill="#0" id="circle133"/>
	<circle cx="502.518" cy="17.0924" r="4" fill="#0" id="circle134"/>
	<circle cx="531.724" cy="17.0924" r="4" fill="#0" id="circle135"/>
	<circle cx="564.958" cy="15.0782" r="4" fill="#0" id="circle136"/>
	<circle cx="600.207" cy="13.064" r="4" fill="#0" id="circle137"/>
	<circle cx="621.356" cy="13.064" r="4" fill="#0" id="circle138"/>
	<circle cx="652.577" cy="13.064" r="4" fill="#0" id="circle139"/>
	<circle cx="686.818" cy="11.0497" r="4" fill="#0" id="circle140"/>
	<circle cx="716.024" cy="9.03553" r="4" fill="#0" id="circle141"/>
	<circle cx="747.245" cy="9.03553" r="4" fill="#0" id="circle142"/>
	<circle cx="784.508" cy="8.02843" r="4" fill="#0" id="circle143"/>
	<circle cx="815.728" cy="8.02843" r="4" fill="#0" id="circle144"/>
	<circle cx="186.286" cy="119.817" r="4" fill="#0" id="circle145"/>
	<circle cx="211.464" cy="114.782" r="4" fill="#0" id="circle146"/>
	<circle cx="244.698" cy="114.782" r="4" fill="#0" id="circle147"/>
	<circle cx="271.89" cy="115.789" r="4" fill="#0" id="circle148"/>
	<circle cx="305.125" cy="115.789" r="4" fill="#0" id="circle149"/>
	<circle cx="330.303" cy="114.782" r="4" fill="#0" id="circle150"/>
	<circle cx="357.494" cy="112.768" r="4" fill="#0" id="circle151"/>
	<circle cx="374.615" cy="112.768" r="4" fill="#0" id="circle152"/>
	<circle cx="399.793" cy="112.768" r="4" fill="#0" id="circle153"/>
	<circle cx="424.971" cy="110.753" r="4" fill="#0" id="circle154"/>
	<circle cx="460.219" cy="110.753" r="4" fill="#0" id="circle155"/>
	<circle cx="483.383" cy="110.753" r="4" fill="#0" id="circle156"/>
	<circle cx="508.56" cy="110.753" r="4" fill="#0" id="circle157"/>
	<circle cx="535.752" cy="110.753" r="4" fill="#0" id="circle158"/>
	<circle cx="564.958" cy="110.753" r="4" fill="#0" id="circle159"/>
	<circle cx="586.108" cy="108.739" r="4" fill="#0" id="circle160"/>
	<circle cx="611.285" cy="108.739" r="4" fill="#0" id="circle161"/>
	<circle cx="630.42" cy="106.725" r="4" fill="#0" id="circle162"/>
	<circle cx="652.577" cy="108.739" r="4" fill="#0" id="circle163"/>
	<circle cx="644.52" cy="119.817" r="4" fill="#0" id="circle164"/>
	<circle cx="625.385" cy="129.888" r="4" fill="#0" id="circle165"/>
	<circle cx="607.257" cy="139.959" r="4" fill="#0" id="circle166"/>
	<circle cx="588.122" cy="149.023" r="4" fill="#0" id="circle167"/>
	<circle cx="566.973" cy="159.094" r="4" fill="#0" id="circle168"/>
	<circle cx="198.372" cy="129.888" r="4" fill="#0" id="circle169"/>
	<circle cx="217.507" cy="139.959" r="4" fill="#0" id="circle170"/>
	<circle cx="238.656" cy="147.009" r="4" fill="#0" id="circle171"/>
	<circle cx="261.819" cy="157.08" r="4" fill="#0" id="circle172"/>
	<circle cx="286.997" cy="172.187" r="4" fill="#0" id="circle173"/>
	<circle cx="310.16" cy="184.272" r="4" fill="#0" id="circle174"/>
	<circle cx="330.303" cy="194.343" r="4" fill="#0" id="circle175"/>
	<circle cx="353.466" cy="207.436" r="4" fill="#0" id="circle176"/>
	<circle cx="378.644" cy="219.521" r="4" fill="#0" id="circle177"/>
	<circle cx="401.807" cy="228.585" r="4" fill="#0" id="circle178"/>
	<circle cx="416.914" cy="234.627" r="4" fill="#0" id="circle179"/>
	<circle cx="433.027" cy="226.571" r="4" fill="#0" id="circle180"/>
	<circle cx="450.148" cy="217.507" r="4" fill="#0" id="circle181"/>
	<circle cx="467.269" cy="209.45" r="4" fill="#0" id="circle182"/>
	<circle cx="489.425" cy="196.357" r="4" fill="#0" id="circle183"/>
	<circle cx="508.56" cy="186.286" r="4" fill="#0" id="circle184"/>
	<circle cx="529.71" cy="174.201" r="4" fill="#0" id="circle185"/>
	<circle cx="547.838" cy="167.151" r="4" fill="#0" id="circle186"/>
	<circle cx="163.123" cy="153.052" r="4" fill="#0" id="circle187"/>
	<circle cx="163.123" cy="172.187" r="4" fill="#0" id="circle188"/>
	<circle cx="184.272" cy="161.109" r="4" fill="#0" id="circle189"/>
	<circle cx="209.45" cy="170.173" r="4" fill="#0" id="circle190"/>
	<circle cx="228.585" cy="180.244" r="4" fill="#0" id="circle191"/>
	<circle cx="246.713" cy="192.329" r="4" fill="#0" id="circle192"/>
	<circle cx="269.876" cy="203.407" r="4" fill="#0" id="circle193"/>
	<circle cx="295.054" cy="215.492" r="4" fill="#0" id="circle194"/>
	<circle cx="316.203" cy="226.571" r="4" fill="#0" id="circle195"/>
	<circle cx="339.366" cy="238.656" r="4" fill="#0" id="circle196"/>
	<circle cx="366.558" cy="255.777" r="4" fill="#0" id="circle197"/>
	<circle cx="339.366" cy="271.89" r="4" fill="#0" id="circle198"/>
	<circle cx="314.189" cy="284.983" r="4" fill="#0" id="circle199"/>
	<circle cx="293.04" cy="297.068" r="4" fill="#0" id="circle200"/>
	<circle cx="271.89" cy="310.16" r="4" fill="#0" id="circle201"/>
	<circle cx="248.727" cy="318.217" r="4" fill="#0" id="circle202"/>
	<circle cx="221.535" cy="333.324" r="4" fill="#0" id="circle203"/>
	<circle cx="207.436" cy="310.16" r="4" fill="#0" id="circle204"/>
	<circle cx="169.165" cy="192.329" r="4" fill="#0" id="circle205"/>
	<circle cx="178.229" cy="213.478" r="4" fill="#0" id="circle206"/>
	<circle cx="184.272" cy="230.599" r="4" fill="#0" id="circle207"/>
	<circle cx="190.315" cy="253.762" r="4" fill="#0" id="circle208"/>
	<circle cx="196.357" cy="278.94" r="4" fill="#0" id="circle209"/>
	<circle cx="263.834" cy="357.494" r="4" fill="#0" id="circle210"/>
	<circle cx="286.997" cy="337.352" r="4" fill="#0" id="circle211"/>
	<circle cx="297.068" cy="364.544" r="4" fill="#0" id="circle212"/>
	<circle cx="310.16" cy="328.288" r="4" fill="#0" id="circle213"/>
	<circle cx="335.338" cy="318.217" r="4" fill="#0" id="circle214"/>
	<circle cx="359.509" cy="306.132" r="4" fill="#0" id="circle215"/>
	<circle cx="386.701" cy="289.011" r="4" fill="#0" id="circle216"/>
	<circle cx="414.899" cy="271.89" r="4" fill="#0" id="circle217"/>
	<circle cx="439.07" cy="282.969" r="4" fill="#0" id="circle218"/>
	<circle cx="466.262" cy="293.04" r="4" fill="#0" id="circle219"/>
	<circle cx="485.397" cy="304.118" r="4" fill="#0" id="circle220"/>
	<circle cx="514.603" cy="318.217" r="4" fill="#0" id="circle221"/>
	<circle cx="535.752" cy="330.303" r="4" fill="#0" id="circle222"/>
	<circle cx="552.873" cy="335.338" r="4" fill="#0" id="circle223"/>
	<circle cx="578.051" cy="353.466" r="4" fill="#0" id="circle224"/>
	<circle cx="541.795" cy="362.53" r="4" fill="#0" id="circle225"/>
	<circle cx="332.317" cy="360.516" r="4" fill="#0" id="circle226"/>
	<circle cx="357.494" cy="360.516" r="4" fill="#0" id="circle227"/>
	<circle cx="386.701" cy="362.53" r="4" fill="#0" id="circle228"/>
	<circle cx="409.864" cy="362.53" r="4" fill="#0" id="circle229"/>
	<circle cx="439.07" cy="364.544" r="4" fill="#0" id="circle230"/>
	<circle cx="460.219" cy="362.53" r="4" fill="#0" id="circle231"/>
	<circle cx="483.383" cy="362.53" r="4" fill="#0" id="circle232"/>
	<circle cx="500.504" cy="362.53" r="4" fill="#0" id="circle233"/>
	<circle cx="520.646" cy="362.53" r="4" fill="#0" id="circle234"/>
	<circle cx="226.571" cy="395.764" r="4" fill="#0" id="circle235"/>
	<circle cx="252.755" cy="393.75" r="4" fill="#0" id="circle236"/>
	<circle cx="277.933" cy="391.736" r="4" fill="#0" id="circle237"/>
	<circle cx="303.111" cy="393.75" r="4" fill="#0" id="circle238"/>
	<circle cx="326.274" cy="389.722" r="4" fill="#0" id="circle239"/>
	<circle cx="351.452" cy="387.708" r="4" fill="#0" id="circle240"/>
	<circle cx="378.644" cy="389.722" r="4" fill="#0" id="circle241"/>
	<circle cx="405.836" cy="391.736" r="4" fill="#0" id="circle242"/>
	<circle cx="403.821" cy="407.85" r="4" fill="#0" id="circle243"/>
	<circle cx="403.821" cy="426.985" r="4" fill="#0" id="circle244"/>
	<circle cx="403.821" cy="448.134" r="4" fill="#0" id="circle245"/>
	<circle cx="403.821" cy="469.283" r="4" fill="#0" id="circle246"/>
	<circle cx="403.821" cy="491.44" r="4" fill="#0" id="circle247"/>
	<circle cx="257.791" cy="500.504" r="4" fill="#0" id="circle248"/>
	<circle cx="282.969" cy="500.504" r="4" fill="#0" id="circle249"/>
	<circle cx="310.16" cy="500.504" r="4" fill="#0" id="circle250"/>
	<circle cx="335.338" cy="500.504" r="4" fill="#0" id="circle251"/>
	<circle cx="360.516" cy="498.489" r="4" fill="#0" id="circle252"/>
	<circle cx="386.701" cy="498.489" r="4" fill="#0" id="circle253"/>
	<circle cx="230.599" cy="414.899" r="4" fill="#0" id="circle254"/>
	<circle cx="242.684" cy="458.205" r="4" fill="#0" id="circle255"/>
	<circle cx="236.642" cy="435.042" r="4" fill="#0" id="circle256"/>
	<circle cx="248.727" cy="479.354" r="4" fill="#0" id="circle257"/>
	<circle cx="437.056" cy="391.736" r="4" fill="#0" id="circle258"/>
	<circle cx="437.056" cy="411.878" r="4" fill="#0" id="circle259"/>
	<circle cx="437.056" cy="431.013" r="4" fill="#0" id="circle260"/>
	<circle cx="439.07" cy="452.162" r="4" fill="#0" id="circle261"/>
	<circle cx="439.07" cy="469.283" r="4" fill="#0" id="circle262"/>
	<circle cx="437.056" cy="491.44" r="4" fill="#0" id="circle263"/>
	<circle cx="452.162" cy="498.489" r="4" fill="#0" id="circle264"/>
	<circle cx="467.269" cy="498.489" r="4" fill="#0" id="circle265"/>
	<circle cx="508.56" cy="498.489" r="4" fill="#0" id="circle266"/>
	<circle cx="487.411" cy="498.489" r="4" fill="#0" id="circle267"/>
	<circle cx="545.823" cy="498.489" r="4" fill="#0" id="circle268"/>
	<circle cx="562.944" cy="500.504" r="4" fill="#0" id="circle269"/>
	<circle cx="586.108" cy="504.532" r="4" fill="#0" id="circle270"/>
	<circle cx="456.191" cy="393.75" r="4" fill="#0" id="circle271"/>
	<circle cx="479.354" cy="393.75" r="4" fill="#0" id="circle272"/>
	<circle cx="498.489" cy="391.736" r="4" fill="#0" id="circle273"/>
	<circle cx="520.646" cy="389.722" r="4" fill="#0" id="circle274"/>
	<circle cx="541.795" cy="385.693" r="4" fill="#0" id="circle275"/>
	<circle cx="560.93" cy="387.708" r="4" fill="#0" id="circle276"/>
	<circle cx="586.108" cy="385.693" r="4" fill="#0" id="circle277"/>
	<circle cx="611.285" cy="384.686" r="4" fill="#0" id="circle278"/>
	<circle cx="613.299" cy="405.836" r="4" fill="#0" id="circle279"/>
	<circle cx="605.243" cy="426.985" r="4" fill="#0" id="circle280"/>
	<circle cx="600.207" cy="450.148" r="4" fill="#0" id="circle281"/>
	<circle cx="594.164" cy="471.297" r="4" fill="#0" id="circle282"/>
	<circle cx="592.15" cy="491.44" r="4" fill="#0" id="circle283"/>
	<circle cx="475.326" cy="251.748" r="4" fill="#0" id="circle284"/>
	<circle cx="491.44" cy="265.848" r="4" fill="#0" id="circle285"/>
	<circle cx="493.454" cy="240.67" r="4" fill="#0" id="circle286"/>
	<circle cx="512.589" cy="226.571" r="4" fill="#0" id="circle287"/>
	<circle cx="529.71" cy="217.507" r="4" fill="#0" id="circle288"/>
	<circle cx="552.873" cy="211.464" r="4" fill="#0" id="circle289"/>
	<circle cx="576.037" cy="196.357" r="4" fill="#0" id="circle290"/>
	<circle cx="594.164" cy="180.244" r="4" fill="#0" id="circle291"/>
	<circle cx="613.299" cy="170.173" r="4" fill="#0" id="circle292"/>
	<circle cx="640.491" cy="163.123" r="4" fill="#0" id="circle293"/>
	<circle cx="659.626" cy="151.038" r="4" fill="#0" id="circle294"/>
	<circle cx="679.769" cy="137.945" r="4" fill="#0" id="circle295"/>
	<circle cx="682.79" cy="157.08" r="4" fill="#0" id="circle296"/>
	<circle cx="677.754" cy="180.244" r="4" fill="#0" id="circle297"/>
	<circle cx="669.697" cy="205.421" r="4" fill="#0" id="circle298"/>
	<circle cx="661.641" cy="230.599" r="4" fill="#0" id="circle299"/>
	<circle cx="655.598" cy="251.748" r="4" fill="#0" id="circle300"/>
	<circle cx="650.562" cy="269.876" r="4" fill="#0" id="circle301"/>
	<circle cx="646.534" cy="289.011" r="4" fill="#0" id="circle302"/>
	<circle cx="644.52" cy="308.146" r="4" fill="#0" id="circle303"/>
	<circle cx="636.463" cy="331.31" r="4" fill="#0" id="circle304"/>
	<circle cx="512.589" cy="273.905" r="4" fill="#0" id="circle305"/>
	<circle cx="537.766" cy="284.983" r="4" fill="#0" id="circle306"/>
	<circle cx="552.873" cy="297.068" r="4" fill="#0" id="circle307"/>
	<circle cx="576.037" cy="304.118" r="4" fill="#0" id="circle308"/>
	<circle cx="598.193" cy="314.189" r="4" fill="#0" id="circle309"/>
	<circle cx="613.299" cy="322.246" r="4" fill="#0" id="circle310"/>
	<circle cx="265.848" cy="533.738" r="4" fill="#0" id="circle311"/>
	<circle cx="293.04" cy="529.71" r="4" fill="#0" id="circle312"/>
	<circle cx="267.862" cy="562.944" r="4" fill="#0" id="circle313"/>
	<circle cx="277.933" cy="580.065" r="4" fill="#0" id="circle314"/>
	<circle cx="280.954" cy="598.193" r="4" fill="#0" id="circle315"/>
	<circle cx="286.997" cy="619.342" r="4" fill="#0" id="circle316"/>
	<circle cx="305.125" cy="625.385" r="4" fill="#0" id="circle317"/>
	<circle cx="322.246" cy="625.385" r="4" fill="#0" id="circle318"/>
	<circle cx="341.381" cy="625.385" r="4" fill="#0" id="circle319"/>
	<circle cx="360.516" cy="625.385" r="4" fill="#0" id="circle320"/>
	<circle cx="382.672" cy="626.392" r="4" fill="#0" id="circle321"/>
	<circle cx="384.686" cy="644.52" r="4" fill="#0" id="circle322"/>
	<circle cx="382.672" cy="663.655" r="4" fill="#0" id="circle323"/>
	<circle cx="382.672" cy="680.776" r="4" fill="#0" id="circle324"/>
	<circle cx="380.658" cy="700.918" r="4" fill="#0" id="circle325"/>
	<circle cx="380.658" cy="720.053" r="4" fill="#0" id="circle326"/>
	<circle cx="378.644" cy="741.202" r="4" fill="#0" id="circle327"/>
	<circle cx="378.644" cy="764.365" r="4" fill="#0" id="circle328"/>
	<circle cx="399.793" cy="768.394" r="4" fill="#0" id="circle329"/>
	<circle cx="424.971" cy="768.394" r="4" fill="#0" id="circle330"/>
	<circle cx="462.234" cy="766.38" r="4" fill="#0" id="circle331"/>
	<circle cx="456.191" cy="739.188" r="4" fill="#0" id="circle332"/>
	<circle cx="456.191" cy="711.996" r="4" fill="#0" id="circle333"/>
	<circle cx="456.191" cy="686.818" r="4" fill="#0" id="circle334"/>
	<circle cx="460.219" cy="653.584" r="4" fill="#0" id="circle335"/>
	<circle cx="458.205" cy="626.392" r="4" fill="#0" id="circle336"/>
	<circle cx="473.312" cy="623.371" r="4" fill="#0" id="circle337"/>
	<circle cx="491.44" cy="621.356" r="4" fill="#0" id="circle338"/>
	<circle cx="510.575" cy="625.385" r="4" fill="#0" id="circle339"/>
	<circle cx="539.781" cy="626.392" r="4" fill="#0" id="circle340"/>
	<circle cx="576.037" cy="535.752" r="4" fill="#0" id="circle341"/>
	<circle cx="571.001" cy="560.93" r="4" fill="#0" id="circle342"/>
	<circle cx="562.944" cy="580.065" r="4" fill="#0" id="circle343"/>
	<circle cx="558.916" cy="605.243" r="4" fill="#0" id="circle344"/>
	<circle cx="312.175" cy="531.724" r="4" fill="#0" id="circle345"/>
	<circle cx="332.317" cy="531.724" r="4" fill="#0" id="circle346"/>
	<circle cx="357.494" cy="527.695" r="4" fill="#0" id="circle347"/>
	<circle cx="378.644" cy="529.71" r="4" fill="#0" id="circle348"/>
	<circle cx="399.793" cy="529.71" r="4" fill="#0" id="circle349"/>
	<circle cx="422.956" cy="529.71" r="4" fill="#0" id="circle350"/>
	<circle cx="446.12" cy="529.71" r="4" fill="#0" id="circle351"/>
	<circle cx="471.297" cy="525.681" r="4" fill="#0" id="circle352"/>
	<circle cx="487.411" cy="527.695" r="4" fill="#0" id="circle353"/>
	<circle cx="508.56" cy="527.695" r="4" fill="#0" id="circle354"/>
	<circle cx="533.738" cy="527.695" r="4" fill="#0" id="circle355"/>
	<circle cx="573.015" cy="531.724" r="4" fill="#0" id="circle356"/>
	<circle cx="554.887" cy="529.71" r="4" fill="#0" id="circle357"/>
	<circle cx="523.667" cy="496.475" r="4" fill="#0" id="circle358"/>
	<circle cx="314.189" cy="362.53" r="4" fill="#0" id="circle359"/>
	<circle cx="277.933" cy="362.53" r="4" fill="#0" id="circle360"/>
	<circle cx="558.916" cy="360.516" r="4" fill="#0" id="circle361"/>
	<circle cx="548.845" cy="925.503" r="4" fill="#0" id="circle362"/>
	<circle cx="562.944" cy="923.488" r="4" fill="#0" id="circle363"/>
	<circle cx="576.037" cy="931.545" r="4" fill="#0" id="circle364"/>
	<circle cx="582.079" cy="943.63" r="4" fill="#0" id="circle365"/>
	<circle cx="582.079" cy="956.723" r="4" fill="#0" id="circle366"/>
	<circle cx="576.037" cy="968.808" r="4" fill="#0" id="circle367"/>
	<circle cx="564.958" cy="972.837" r="4" fill="#0" id="circle368"/>
	<circle cx="548.845" cy="966.794" r="4" fill="#0" id="circle369"/>
	<circle cx="541.795" cy="960.751" r="4" fill="#0" id="circle370"/>
	<circle cx="533.738" cy="945.645" r="4" fill="#0" id="circle371"/>
	<circle cx="539.781" cy="931.545" r="4" fill="#0" id="circle372"/>
	<circle cx="130.626" cy="157.568" r="4" fill="#0" id="circle373"/>
	<circle cx="228.951" cy="114.551" r="4" fill="#0" id="circle374"/>
	<circle cx="642.737" cy="107.04" r="4" fill="#0" id="circle375"/>
	<circle cx="373.708" cy="361.73" r="4" fill="#0" id="circle376"/>
	<circle cx="716.466" cy="395.228" r="4" fill="#0" id="circle377"/>
	<circle cx="668.055" cy="796.053" r="4" fill="#0" id="circle378"/>
	<circle cx="777.062" cy="199.971" r="4" fill="#0" id="circle379"/>
	<circle cx="288.263" cy="766.084" r="4" fill="#0" id="circle380"/>
	<circle cx="239.548" cy="553.538" r="4" fill="#0" id="circle381"/>
	<circle cx="408.825" cy="627.84" r="4" fill="#0" id="circle382"/>
	<circle cx="313.331" cy="513.294" r="4" fill="#0" id="circle383"/>
	<circle cx="811.475" cy="912.866" r="4" fill="#0" id="circle384"/>
	<circle cx="543.073" cy="715.559" r="4" fill="#0" id="circle385"/>
	<circle cx="124.077" cy="606.113" r="4" fill="#0" id="circle386"/>
	<circle cx="17.8226" cy="244.944" r="4" fill="#0" id="circle387"/>
	<circle cx="120.37" cy="801.743" r="4" fill="#0" id="circle388"/>
	<circle cx="136.861" cy="401.737" r="4" fill="#0" id="circle389"/>
	<circle cx="114.06" cy="111.938" r="4" fill="#0" id="circle390"/>
	<circle cx="851.072" cy="220.511" r="4" fill="#0" id="circle391"/>
	<circle cx="438.958" cy="836.399" r="4" fill="#0" id="circle392"/>
	<circle cx="523.509" cy="297.663" r="4" fill="#0" id="circle393"/>
	<circle cx="544.634" cy="524.093" r="4" fill="#0" id="circle394"/>
	<circle cx="422.55" cy="968.993" r="4" fill="#0" id="circle395"/>
	<circle cx="252.049" cy="769.187" r="4" fill="#0" id="circle396"/>
	<circle cx="450.671" cy="767.755" r="4" fill="#0" id="circle397"/>
	<circle cx="343.387" cy="888.397" r="4" fill="#0" id="circle398"/>
	<circle cx="244.246" cy="353.639" r="4" fill="#0" id="circle399"/>
	<circle cx="688.937" cy="915.674" r="4" fill="#0" id="circle400"/>
	<circle cx="63.1513" cy="945.732" r="4" fill="#0" id="circle401"/>
	<circle cx="450.036" cy="89.3674" r="4" fill="#0" id="circle402"/>
	<circle cx="166.994" cy="661.921" r="4" fill="#0" id="circle403"/>
	<circle cx="758.903" cy="350.102" r="4" fill="#0" id="circle404"/>
	<circle cx="58.4162" cy="23.8629" r="4" fill="#0" id="circle405"/>
	<circle cx="392.124" cy="66.5911" r="4" fill="#0" id="circle406"/>
	<circle cx="206.058" cy="966.869" r="4" fill="#0" id="circle407"/>
	<circle cx="769.058" cy="848.112" r="4" fill="#0" id="circle408"/>
	<circle cx="230.128" cy="539.442" r="4" fill="#0" id="circle409"/>
	<circle cx="322.169" cy="758.167" r="4" fill="#0" id="circle410"/>
	<circle cx="438.622" cy="666.382" r="4" fill="#0" id="circle411"/>
	<circle cx="454.794" cy="42.9661" r="4" fill="#0" id="circle412"/>
	<circle cx="375.11" cy="928.38" r="4" fill="#0" id="circle413"/>
	<circle cx="793.312" cy="719.185" r="4" fill="#0" id="circle414"/>
	<circle cx="245.076" cy="736.626" r="4" fill="#0" id="circle415"/>
	<circle cx="546.692" cy="355.216" r="4" fill="#0" id="circle416"/>
	<circle cx="587.295" cy="168.646" r="4" fill="#0" id="circle417"/>
	<circle cx="377.201" cy="877.035" r="4" fill="#0" id="circle418"/>
	<circle cx="707.149" cy="331.694" r="4" fill="#0" id="circle419"/>
	<circle cx="198.161" cy="890.225" r="4" fill="#0" id="circle420"/>
	<circle cx="301.1" cy="685.177" r="4" fill="#0" id="circle421"/>
	<circle cx="815.07" cy="587.931" r="4" fill="#0" id="circle422"/>
	<circle cx="561.383" cy="855.807" r="4" fill="#0" id="circle423"/>
	<circle cx="376.74" cy="920.578" r="4" fill="#0" id="circle424"/>
	<circle cx="341.868" cy="812.249" r="4" fill="#0" id="circle425"/>
	<circle cx="584.206" cy="907.684" r="4" fill="#0" id="circle426"/>
	<circle cx="413.144" cy="218.098" r="4" fill="#0" id="circle427"/>
	<circle cx="809.799" cy="916.767" r="4" fill="#0" id="circle428"/>
	<circle cx="129.213" cy="878.014" r="4" fill="#0" id="circle429"/>
	<circle cx="547.626" cy="432.498" r="4" fill="#0" id="circle430"/>
	<circle cx="529.408" cy="282.811" r="4" fill="#0" id="circle431"/>
	<circle cx="670.517" cy="308.998" r="4" fill="#0" id="circle432"/>
	<circle cx="383.077" cy="228.298" r="4" fill="#0" id="circle433"/>
	<circle cx="163.025" cy="278.025" r="4" fill="#0" id="circle434"/>
	<circle cx="475.855" cy="417.169" r="4" fill="#0" id="circle435"/>
	<circle cx="147.824" cy="903.55" r="4" fill="#0" id="circle436"/>
	<circle cx="91.4875" cy="129.067" r="4" fill="#0" id="circle437"/>
	<circle cx="424.129" cy="758.391" r="4" fill="#0" id="circle438"/>
	<circle cx="839.053" cy="931.524" r="4" fill="#0" id="circle439"/>
	<circle cx="584.398" cy="384.123" r="4" fill="#0" id="circle440"/>
	<circle cx="639.794" cy="369.714" r="4" fill="#0" id="circle441"/>
	<circle cx="253.443" cy="234.403" r="4" fill="#0" id="circle442"/>
	<circle cx="499.637" cy="246.457" r="4" fill="#0" id="circle443"/>
	<circle cx="133.224" cy="730.291" r="4" fill="#0" id="circle444"/>
	<circle cx="110.401" cy="791.123" r="4" fill="#0" id="circle445"/>
	<circle cx="143.156" cy="743.111" r="4" fill="#0" id="circle446"/>
	<circle cx="67.2001" cy="946.503" r="4" fill="#0" id="circle447"/>
	<circle cx="48.544" cy="521.391" r="4" fill="#0" id="circle448"/>
	<circle cx="153.424" cy="242.142" r="4" fill="#0" id="circle449"/>
	<circle cx="680.52" cy="730.793" r="4" fill="#0" id="circle450"/>
	<circle cx="560.755" cy="963.666" r="4" fill="#0" id="circle451"/>
	</g>
</svg>