<?xml version="1.0" encoding="UTF-8" standalone="no"?>
<!-- Created with CurveBenchmark -->
<svg
	xmlns:dc="http://purl.org/dc/elements/1.1/"
	xmlns:cc="http://creativecommons.org/ns#"
	xmlns:rdf="http://www.w3.org/1999/02/22-rdf-syntax-ns#"
	xmlns:svg="http://www.w3.org/2000/svg"
	xmlns="http://www.w3.org/2000/svg"
	xmlns:sodipodi="http://sodipodi.sourceforge.net/DTD/sodipodi-0.dtd"
	xmlns:inkscape="http://www.inkscape.org/namespaces/inkscape"
	width="1000"
	height="1000"
	id="svg2"
	version="1.1"
	sodipodi:docname="outliers-20/fitconnect-mc13.txt">
<defs
	id="defs4" />
<metadata
	id="metadata7">
	<rdf:RDF>
		<cc:Work
			rdf:about="">
			<dc:format>image/svg+xml</dc:format>
			<dc:type
				rdf:resource="http://purl.org/dc/dcmitype/StillImage" />
			<dc:title></dc:title>
		</cc:Work>
	</rdf:RDF>
</metadata>
<g
	inkscape:label="Layer 1"
	inkscape:groupmode="layer"
	id="layer1">
	<path style="fill:none;stroke:red;stroke-width:1px;stroke-linecap:butt;stroke-linejoin:miter;stroke-opacity:1" d="M 662.631,48.5843 423.497,6.02656 z" id="boundary" inkscape:connector-curvature="0" />
	<path style="fill:none;stroke:red;stroke-width:1px;stroke-linecap:butt;stroke-linejoin:miter;stroke-opacity:1" d="M 662.631,48.5843 947.363,21.2257 z" id="boundary" inkscape:connector-curvature="0" />
	<path style="fill:none;stroke:red;stroke-width:1px;stroke-linecap:butt;stroke-linejoin:miter;stroke-opacity:1" d="M 159.032,10.0797 250.227,10.0797 z" id="boundary" inkscape:connector-curvature="0" />
	<path style="fill:none;stroke:red;stroke-width:1px;stroke-linecap:butt;stroke-linejoin:miter;stroke-opacity:1" d="M 159.032,10.0797 79.9959,69.8631 z" id="boundary" inkscape:connector-curvature="0" />
	<path style="fill:none;stroke:red;stroke-width:1px;stroke-linecap:butt;stroke-linejoin:miter;stroke-opacity:1" d="M 250.227,10.0797 312.037,8.05312 z" id="boundary" inkscape:connector-curvature="0" />
	<path style="fill:none;stroke:red;stroke-width:1px;stroke-linecap:butt;stroke-linejoin:miter;stroke-opacity:1" d="M 312.037,8.05312 423.497,6.02656 z" id="boundary" inkscape:connector-curvature="0" />
	<path style="fill:none;stroke:red;stroke-width:1px;stroke-linecap:butt;stroke-linejoin:miter;stroke-opacity:1" d="M 947.363,21.2257 979.788,65.81 z" id="boundary" inkscape:connector-curvature="0" />
	<path style="fill:none;stroke:red;stroke-width:1px;stroke-linecap:butt;stroke-linejoin:miter;stroke-opacity:1" d="M 979.788,65.81 980.801,124.58 z" id="boundary" inkscape:connector-curvature="0" />
	<path style="fill:none;stroke:red;stroke-width:1px;stroke-linecap:butt;stroke-linejoin:miter;stroke-opacity:1" d="M 980.801,124.58 987.894,168.151 z" id="boundary" inkscape:connector-curvature="0" />
	<path style="fill:none;stroke:red;stroke-width:1px;stroke-linecap:butt;stroke-linejoin:miter;stroke-opacity:1" d="M 987.894,168.151 983.841,228.948 z" id="boundary" inkscape:connector-curvature="0" />
	<path style="fill:none;stroke:red;stroke-width:1px;stroke-linecap:butt;stroke-linejoin:miter;stroke-opacity:1" d="M 983.841,228.948 984.854,277.585 z" id="boundary" inkscape:connector-curvature="0" />
	<path style="fill:none;stroke:red;stroke-width:1px;stroke-linecap:butt;stroke-linejoin:miter;stroke-opacity:1" d="M 984.854,277.585 996,296.838 z" id="boundary" inkscape:connector-curvature="0" />
	<path style="fill:none;stroke:red;stroke-width:1px;stroke-linecap:butt;stroke-linejoin:miter;stroke-opacity:1" d="M 996,296.838 996,321.156 z" id="boundary" inkscape:connector-curvature="0" />
	<path style="fill:none;stroke:red;stroke-width:1px;stroke-linecap:butt;stroke-linejoin:miter;stroke-opacity:1" d="M 996,321.156 994.987,333.316 z" id="boundary" inkscape:connector-curvature="0" />
	<path style="fill:none;stroke:red;stroke-width:1px;stroke-linecap:butt;stroke-linejoin:miter;stroke-opacity:1" d="M 994.987,333.316 985.867,339.395 z" id="boundary" inkscape:connector-curvature="0" />
	<path style="fill:none;stroke:red;stroke-width:1px;stroke-linecap:butt;stroke-linejoin:miter;stroke-opacity:1" d="M 985.867,339.395 983.841,351.555 z" id="boundary" inkscape:connector-curvature="0" />
	<path style="fill:none;stroke:red;stroke-width:1px;stroke-linecap:butt;stroke-linejoin:miter;stroke-opacity:1" d="M 983.841,351.555 983.841,364.727 z" id="boundary" inkscape:connector-curvature="0" />
	<path style="fill:none;stroke:red;stroke-width:1px;stroke-linecap:butt;stroke-linejoin:miter;stroke-opacity:1" d="M 983.841,364.727 984.854,379.926 z" id="boundary" inkscape:connector-curvature="0" />
	<path style="fill:none;stroke:red;stroke-width:1px;stroke-linecap:butt;stroke-linejoin:miter;stroke-opacity:1" d="M 984.854,379.926 980.874,393.39 z" id="boundary" inkscape:connector-curvature="0" />
	<path style="fill:none;stroke:red;stroke-width:1px;stroke-linecap:butt;stroke-linejoin:miter;stroke-opacity:1" d="M 981.814,396.139 976.748,409.312 z" id="boundary" inkscape:connector-curvature="0" />
	<path style="fill:none;stroke:red;stroke-width:1px;stroke-linecap:butt;stroke-linejoin:miter;stroke-opacity:1" d="M 981.814,396.139 980.874,393.39 z" id="boundary" inkscape:connector-curvature="0" />
	<path style="fill:none;stroke:red;stroke-width:1px;stroke-linecap:butt;stroke-linejoin:miter;stroke-opacity:1" d="M 976.748,409.312 962.562,416.404 z" id="boundary" inkscape:connector-curvature="0" />
	<path style="fill:none;stroke:red;stroke-width:1px;stroke-linecap:butt;stroke-linejoin:miter;stroke-opacity:1" d="M 79.9959,69.8631 21.2257,159.032 z" id="boundary" inkscape:connector-curvature="0" />
	<path style="fill:none;stroke:red;stroke-width:1px;stroke-linecap:butt;stroke-linejoin:miter;stroke-opacity:1" d="M 21.2257,159.032 12.1062,216.789 z" id="boundary" inkscape:connector-curvature="0" />
	<path style="fill:none;stroke:red;stroke-width:1px;stroke-linecap:butt;stroke-linejoin:miter;stroke-opacity:1" d="M 12.1062,216.789 10.0797,287.718 z" id="boundary" inkscape:connector-curvature="0" />
	<path style="fill:none;stroke:red;stroke-width:1px;stroke-linecap:butt;stroke-linejoin:miter;stroke-opacity:1" d="M 10.0797,287.718 8.05312,319.13 z" id="boundary" inkscape:connector-curvature="0" />
	<path style="fill:none;stroke:red;stroke-width:1px;stroke-linecap:butt;stroke-linejoin:miter;stroke-opacity:1" d="M 8.05312,319.13 8.05312,334.329 z" id="boundary" inkscape:connector-curvature="0" />
	<path style="fill:none;stroke:red;stroke-width:1px;stroke-linecap:butt;stroke-linejoin:miter;stroke-opacity:1" d="M 8.05312,334.329 8.05312,353.581 z" id="boundary" inkscape:connector-curvature="0" />
	<path style="fill:none;stroke:red;stroke-width:1px;stroke-linecap:butt;stroke-linejoin:miter;stroke-opacity:1" d="M 8.05312,353.581 8.05312,367.767 z" id="boundary" inkscape:connector-curvature="0" />
	<path style="fill:none;stroke:red;stroke-width:1px;stroke-linecap:butt;stroke-linejoin:miter;stroke-opacity:1" d="M 8.05312,367.767 6.02656,379.926 z" id="boundary" inkscape:connector-curvature="0" />
	<path style="fill:none;stroke:red;stroke-width:1px;stroke-linecap:butt;stroke-linejoin:miter;stroke-opacity:1" d="M 6.02656,379.926 5.01328,396.139 z" id="boundary" inkscape:connector-curvature="0" />
	<path style="fill:none;stroke:red;stroke-width:1px;stroke-linecap:butt;stroke-linejoin:miter;stroke-opacity:1" d="M 5.01328,396.139 8.05312,413.365 z" id="boundary" inkscape:connector-curvature="0" />
	<path style="fill:none;stroke:red;stroke-width:1px;stroke-linecap:butt;stroke-linejoin:miter;stroke-opacity:1" d="M 8.05312,413.365 23.2523,420.458 z" id="boundary" inkscape:connector-curvature="0" />
	<path style="fill:none;stroke:red;stroke-width:1px;stroke-linecap:butt;stroke-linejoin:miter;stroke-opacity:1" d="M 23.2523,420.458 34.3984,420.458 z" id="boundary" inkscape:connector-curvature="0" />
	<path style="fill:none;stroke:red;stroke-width:1px;stroke-linecap:butt;stroke-linejoin:miter;stroke-opacity:1" d="M 34.3984,420.458 48.5843,420.458 z" id="boundary" inkscape:connector-curvature="0" />
	<path style="fill:none;stroke:red;stroke-width:1px;stroke-linecap:butt;stroke-linejoin:miter;stroke-opacity:1" d="M 48.5843,420.458 66.8233,420.458 z" id="boundary" inkscape:connector-curvature="0" />
	<path style="fill:none;stroke:red;stroke-width:1px;stroke-linecap:butt;stroke-linejoin:miter;stroke-opacity:1" d="M 66.8233,420.458 86.0756,420.458 z" id="boundary" inkscape:connector-curvature="0" />
	<path style="fill:none;stroke:red;stroke-width:1px;stroke-linecap:butt;stroke-linejoin:miter;stroke-opacity:1" d="M 86.0756,420.458 103.301,417.418 z" id="boundary" inkscape:connector-curvature="0" />
	<path style="fill:none;stroke:red;stroke-width:1px;stroke-linecap:butt;stroke-linejoin:miter;stroke-opacity:1" d="M 103.301,417.418 121.54,387.019 z" id="boundary" inkscape:connector-curvature="0" />
	<path style="fill:none;stroke:red;stroke-width:1px;stroke-linecap:butt;stroke-linejoin:miter;stroke-opacity:1" d="M 121.54,387.019 150.479,370.925 z" id="boundary" inkscape:connector-curvature="0" />
	<path style="fill:none;stroke:red;stroke-width:1px;stroke-linecap:butt;stroke-linejoin:miter;stroke-opacity:1" d="M 248.2,332.302 307.984,356.621 z" id="boundary" inkscape:connector-curvature="0" />
	<path style="fill:none;stroke:red;stroke-width:1px;stroke-linecap:butt;stroke-linejoin:miter;stroke-opacity:1" d="M 248.2,332.302 231.136,376.052 z" id="boundary" inkscape:connector-curvature="0" />
	<path style="fill:none;stroke:red;stroke-width:1px;stroke-linecap:butt;stroke-linejoin:miter;stroke-opacity:1" d="M 307.984,356.621 319.13,369.794 z" id="boundary" inkscape:connector-curvature="0" />
	<path style="fill:none;stroke:red;stroke-width:1px;stroke-linecap:butt;stroke-linejoin:miter;stroke-opacity:1" d="M 319.13,369.794 329.263,400.192 z" id="boundary" inkscape:connector-curvature="0" />
	<path style="fill:none;stroke:red;stroke-width:1px;stroke-linecap:butt;stroke-linejoin:miter;stroke-opacity:1" d="M 329.263,400.192 336.355,409.312 z" id="boundary" inkscape:connector-curvature="0" />
	<path style="fill:none;stroke:red;stroke-width:1px;stroke-linecap:butt;stroke-linejoin:miter;stroke-opacity:1" d="M 336.355,409.312 348.515,418.431 z" id="boundary" inkscape:connector-curvature="0" />
	<path style="fill:none;stroke:red;stroke-width:1px;stroke-linecap:butt;stroke-linejoin:miter;stroke-opacity:1" d="M 348.515,418.431 365.741,418.431 z" id="boundary" inkscape:connector-curvature="0" />
	<path style="fill:none;stroke:red;stroke-width:1px;stroke-linecap:butt;stroke-linejoin:miter;stroke-opacity:1" d="M 365.741,418.431 378.913,417.418 z" id="boundary" inkscape:connector-curvature="0" />
	<path style="fill:none;stroke:red;stroke-width:1px;stroke-linecap:butt;stroke-linejoin:miter;stroke-opacity:1" d="M 378.913,417.418 394.112,417.418 z" id="boundary" inkscape:connector-curvature="0" />
	<path style="fill:none;stroke:red;stroke-width:1px;stroke-linecap:butt;stroke-linejoin:miter;stroke-opacity:1" d="M 394.112,417.418 411.338,417.418 z" id="boundary" inkscape:connector-curvature="0" />
	<path style="fill:none;stroke:red;stroke-width:1px;stroke-linecap:butt;stroke-linejoin:miter;stroke-opacity:1" d="M 411.338,417.418 426.537,417.418 z" id="boundary" inkscape:connector-curvature="0" />
	<path style="fill:none;stroke:red;stroke-width:1px;stroke-linecap:butt;stroke-linejoin:miter;stroke-opacity:1" d="M 426.537,417.418 465.042,416.404 z" id="boundary" inkscape:connector-curvature="0" />
	<path style="fill:none;stroke:red;stroke-width:1px;stroke-linecap:butt;stroke-linejoin:miter;stroke-opacity:1" d="M 465.042,416.404 484.294,414.378 z" id="boundary" inkscape:connector-curvature="0" />
	<path style="fill:none;stroke:red;stroke-width:1px;stroke-linecap:butt;stroke-linejoin:miter;stroke-opacity:1" d="M 484.294,414.378 507.6,415.391 z" id="boundary" inkscape:connector-curvature="0" />
	<path style="fill:none;stroke:red;stroke-width:1px;stroke-linecap:butt;stroke-linejoin:miter;stroke-opacity:1" d="M 507.6,415.391 526.852,415.391 z" id="boundary" inkscape:connector-curvature="0" />
	<path style="fill:none;stroke:red;stroke-width:1px;stroke-linecap:butt;stroke-linejoin:miter;stroke-opacity:1" d="M 526.852,415.391 552.184,417.418 z" id="boundary" inkscape:connector-curvature="0" />
	<path style="fill:none;stroke:red;stroke-width:1px;stroke-linecap:butt;stroke-linejoin:miter;stroke-opacity:1" d="M 552.184,417.418 574.476,417.418 z" id="boundary" inkscape:connector-curvature="0" />
	<path style="fill:none;stroke:red;stroke-width:1px;stroke-linecap:butt;stroke-linejoin:miter;stroke-opacity:1" d="M 574.476,417.418 595.755,417.418 z" id="boundary" inkscape:connector-curvature="0" />
	<path style="fill:none;stroke:red;stroke-width:1px;stroke-linecap:butt;stroke-linejoin:miter;stroke-opacity:1" d="M 595.755,417.418 615.007,417.418 z" id="boundary" inkscape:connector-curvature="0" />
	<path style="fill:none;stroke:red;stroke-width:1px;stroke-linecap:butt;stroke-linejoin:miter;stroke-opacity:1" d="M 615.007,417.418 660.605,420.458 z" id="boundary" inkscape:connector-curvature="0" />
	<path style="fill:none;stroke:red;stroke-width:1px;stroke-linecap:butt;stroke-linejoin:miter;stroke-opacity:1" d="M 660.605,420.458 681.884,417.418 z" id="boundary" inkscape:connector-curvature="0" />
	<path style="fill:none;stroke:red;stroke-width:1px;stroke-linecap:butt;stroke-linejoin:miter;stroke-opacity:1" d="M 681.884,417.418 699.109,417.418 z" id="boundary" inkscape:connector-curvature="0" />
	<path style="fill:none;stroke:red;stroke-width:1px;stroke-linecap:butt;stroke-linejoin:miter;stroke-opacity:1" d="M 699.109,417.418 713.295,416.404 z" id="boundary" inkscape:connector-curvature="0" />
	<path style="fill:none;stroke:red;stroke-width:1px;stroke-linecap:butt;stroke-linejoin:miter;stroke-opacity:1" d="M 713.295,416.404 719.375,406.272 z" id="boundary" inkscape:connector-curvature="0" />
	<path style="fill:none;stroke:red;stroke-width:1px;stroke-linecap:butt;stroke-linejoin:miter;stroke-opacity:1" d="M 719.375,406.272 730.521,394.112 z" id="boundary" inkscape:connector-curvature="0" />
	<path style="fill:none;stroke:red;stroke-width:1px;stroke-linecap:butt;stroke-linejoin:miter;stroke-opacity:1" d="M 730.521,394.112 736.601,383.98 z" id="boundary" inkscape:connector-curvature="0" />
	<path style="fill:none;stroke:red;stroke-width:1px;stroke-linecap:butt;stroke-linejoin:miter;stroke-opacity:1" d="M 736.601,383.98 750.787,374.86 z" id="boundary" inkscape:connector-curvature="0" />
	<path style="fill:none;stroke:red;stroke-width:1px;stroke-linecap:butt;stroke-linejoin:miter;stroke-opacity:1" d="M 750.787,374.86 771.052,368.78 z" id="boundary" inkscape:connector-curvature="0" />
	<path style="fill:none;stroke:red;stroke-width:1px;stroke-linecap:butt;stroke-linejoin:miter;stroke-opacity:1" d="M 771.052,368.78 796.384,368.78 z" id="boundary" inkscape:connector-curvature="0" />
	<path style="fill:none;stroke:red;stroke-width:1px;stroke-linecap:butt;stroke-linejoin:miter;stroke-opacity:1" d="M 796.384,368.78 805.263,386.736 z" id="boundary" inkscape:connector-curvature="0" />
	<path style="fill:none;stroke:red;stroke-width:1px;stroke-linecap:butt;stroke-linejoin:miter;stroke-opacity:1" d="M 829.822,369.794 853.128,369.794 z" id="boundary" inkscape:connector-curvature="0" />
	<path style="fill:none;stroke:red;stroke-width:1px;stroke-linecap:butt;stroke-linejoin:miter;stroke-opacity:1" d="M 829.822,369.794 805.263,386.736 z" id="boundary" inkscape:connector-curvature="0" />
	<path style="fill:none;stroke:red;stroke-width:1px;stroke-linecap:butt;stroke-linejoin:miter;stroke-opacity:1" d="M 853.128,369.794 873.393,369.794 z" id="boundary" inkscape:connector-curvature="0" />
	<path style="fill:none;stroke:red;stroke-width:1px;stroke-linecap:butt;stroke-linejoin:miter;stroke-opacity:1" d="M 873.393,369.794 889.606,368.78 z" id="boundary" inkscape:connector-curvature="0" />
	<path style="fill:none;stroke:red;stroke-width:1px;stroke-linecap:butt;stroke-linejoin:miter;stroke-opacity:1" d="M 889.606,368.78 898.99,358.372 z" id="boundary" inkscape:connector-curvature="0" />
	<path style="fill:none;stroke:red;stroke-width:1px;stroke-linecap:butt;stroke-linejoin:miter;stroke-opacity:1" d="M 908.858,373.847 917.978,387.019 z" id="boundary" inkscape:connector-curvature="0" />
	<path style="fill:none;stroke:red;stroke-width:1px;stroke-linecap:butt;stroke-linejoin:miter;stroke-opacity:1" d="M 908.858,373.847 898.99,358.372 z" id="boundary" inkscape:connector-curvature="0" />
	<path style="fill:none;stroke:red;stroke-width:1px;stroke-linecap:butt;stroke-linejoin:miter;stroke-opacity:1" d="M 917.978,387.019 927.097,398.165 z" id="boundary" inkscape:connector-curvature="0" />
	<path style="fill:none;stroke:red;stroke-width:1px;stroke-linecap:butt;stroke-linejoin:miter;stroke-opacity:1" d="M 927.097,398.165 937.23,411.338 z" id="boundary" inkscape:connector-curvature="0" />
	<path style="fill:none;stroke:red;stroke-width:1px;stroke-linecap:butt;stroke-linejoin:miter;stroke-opacity:1" d="M 937.23,411.338 949.389,416.404 z" id="boundary" inkscape:connector-curvature="0" />
	<path style="fill:none;stroke:red;stroke-width:1px;stroke-linecap:butt;stroke-linejoin:miter;stroke-opacity:1" d="M 949.389,416.404 962.562,416.404 z" id="boundary" inkscape:connector-curvature="0" />
	<path style="fill:none;stroke:red;stroke-width:1px;stroke-linecap:butt;stroke-linejoin:miter;stroke-opacity:1" d="M 231.136,376.052 150.479,370.925 z" id="boundary" inkscape:connector-curvature="0" />
	<circle cx="148.899" cy="144.846" r="4" fill="#0" id="circle0"/>
	<circle cx="132.686" cy="143.832" r="4" fill="#0" id="circle1"/>
	<circle cx="133.7" cy="135.726" r="4" fill="#0" id="circle2"/>
	<circle cx="139.779" cy="128.633" r="4" fill="#0" id="circle3"/>
	<circle cx="143.832" cy="120.527" r="4" fill="#0" id="circle4"/>
	<circle cx="145.859" cy="112.421" r="4" fill="#0" id="circle5"/>
	<circle cx="150.925" cy="106.341" r="4" fill="#0" id="circle6"/>
	<circle cx="154.979" cy="98.2349" r="4" fill="#0" id="circle7"/>
	<circle cx="159.032" cy="91.142" r="4" fill="#0" id="circle8"/>
	<circle cx="162.072" cy="84.049" r="4" fill="#0" id="circle9"/>
	<circle cx="165.111" cy="76.9561" r="4" fill="#0" id="circle10"/>
	<circle cx="170.178" cy="68.8498" r="4" fill="#0" id="circle11"/>
	<circle cx="173.218" cy="61.7569" r="4" fill="#0" id="circle12"/>
	<circle cx="177.271" cy="55.6772" r="4" fill="#0" id="circle13"/>
	<circle cx="180.311" cy="47.571" r="4" fill="#0" id="circle14"/>
	<circle cx="150.925" cy="136.74" r="4" fill="#0" id="circle15"/>
	<circle cx="154.979" cy="126.607" r="4" fill="#0" id="circle16"/>
	<circle cx="160.045" cy="118.501" r="4" fill="#0" id="circle17"/>
	<circle cx="163.085" cy="111.408" r="4" fill="#0" id="circle18"/>
	<circle cx="166.125" cy="103.301" r="4" fill="#0" id="circle19"/>
	<circle cx="170.178" cy="97.2217" r="4" fill="#0" id="circle20"/>
	<circle cx="173.218" cy="88.1021" r="4" fill="#0" id="circle21"/>
	<circle cx="178.284" cy="79.9959" r="4" fill="#0" id="circle22"/>
	<circle cx="180.311" cy="75.9428" r="4" fill="#0" id="circle23"/>
	<circle cx="184.364" cy="69.8631" r="4" fill="#0" id="circle24"/>
	<circle cx="188.417" cy="61.7569" r="4" fill="#0" id="circle25"/>
	<circle cx="191.457" cy="52.6374" r="4" fill="#0" id="circle26"/>
	<circle cx="196.523" cy="45.5444" r="4" fill="#0" id="circle27"/>
	<circle cx="207.669" cy="45.5444" r="4" fill="#0" id="circle28"/>
	<circle cx="216.789" cy="45.5444" r="4" fill="#0" id="circle29"/>
	<circle cx="224.895" cy="45.5444" r="4" fill="#0" id="circle30"/>
	<circle cx="233.001" cy="45.5444" r="4" fill="#0" id="circle31"/>
	<circle cx="244.147" cy="45.5444" r="4" fill="#0" id="circle32"/>
	<circle cx="255.293" cy="45.5444" r="4" fill="#0" id="circle33"/>
	<circle cx="266.439" cy="46.5577" r="4" fill="#0" id="circle34"/>
	<circle cx="276.572" cy="46.5577" r="4" fill="#0" id="circle35"/>
	<circle cx="291.771" cy="46.5577" r="4" fill="#0" id="circle36"/>
	<circle cx="301.904" cy="46.5577" r="4" fill="#0" id="circle37"/>
	<circle cx="315.077" cy="46.5577" r="4" fill="#0" id="circle38"/>
	<circle cx="324.196" cy="46.5577" r="4" fill="#0" id="circle39"/>
	<circle cx="334.329" cy="46.5577" r="4" fill="#0" id="circle40"/>
	<circle cx="346.488" cy="46.5577" r="4" fill="#0" id="circle41"/>
	<circle cx="357.634" cy="49.5975" r="4" fill="#0" id="circle42"/>
	<circle cx="362.701" cy="57.7038" r="4" fill="#0" id="circle43"/>
	<circle cx="364.727" cy="65.81" r="4" fill="#0" id="circle44"/>
	<circle cx="362.701" cy="77.9694" r="4" fill="#0" id="circle45"/>
	<circle cx="362.701" cy="89.1154" r="4" fill="#0" id="circle46"/>
	<circle cx="362.701" cy="98.2349" r="4" fill="#0" id="circle47"/>
	<circle cx="362.701" cy="106.341" r="4" fill="#0" id="circle48"/>
	<circle cx="364.727" cy="116.474" r="4" fill="#0" id="circle49"/>
	<circle cx="362.701" cy="126.607" r="4" fill="#0" id="circle50"/>
	<circle cx="362.701" cy="139.779" r="4" fill="#0" id="circle51"/>
	<circle cx="155.992" cy="144.846" r="4" fill="#0" id="circle52"/>
	<circle cx="169.164" cy="144.846" r="4" fill="#0" id="circle53"/>
	<circle cx="181.324" cy="145.859" r="4" fill="#0" id="circle54"/>
	<circle cx="196.523" cy="145.859" r="4" fill="#0" id="circle55"/>
	<circle cx="211.722" cy="144.846" r="4" fill="#0" id="circle56"/>
	<circle cx="227.935" cy="144.846" r="4" fill="#0" id="circle57"/>
	<circle cx="240.094" cy="144.846" r="4" fill="#0" id="circle58"/>
	<circle cx="255.293" cy="145.859" r="4" fill="#0" id="circle59"/>
	<circle cx="268.466" cy="143.832" r="4" fill="#0" id="circle60"/>
	<circle cx="282.652" cy="143.832" r="4" fill="#0" id="circle61"/>
	<circle cx="299.877" cy="143.832" r="4" fill="#0" id="circle62"/>
	<circle cx="314.063" cy="143.832" r="4" fill="#0" id="circle63"/>
	<circle cx="327.236" cy="143.832" r="4" fill="#0" id="circle64"/>
	<circle cx="337.369" cy="143.832" r="4" fill="#0" id="circle65"/>
	<circle cx="352.568" cy="144.846" r="4" fill="#0" id="circle66"/>
	<circle cx="62.7702" cy="143.832" r="4" fill="#0" id="circle67"/>
	<circle cx="70.8764" cy="145.859" r="4" fill="#0" id="circle68"/>
	<circle cx="78.9826" cy="145.859" r="4" fill="#0" id="circle69"/>
	<circle cx="91.142" cy="144.846" r="4" fill="#0" id="circle70"/>
	<circle cx="102.288" cy="144.846" r="4" fill="#0" id="circle71"/>
	<circle cx="113.434" cy="143.832" r="4" fill="#0" id="circle72"/>
	<circle cx="123.567" cy="143.832" r="4" fill="#0" id="circle73"/>
	<circle cx="66.8233" cy="135.726" r="4" fill="#0" id="circle74"/>
	<circle cx="73.9162" cy="128.633" r="4" fill="#0" id="circle75"/>
	<circle cx="78.9826" cy="120.527" r="4" fill="#0" id="circle76"/>
	<circle cx="83.0358" cy="111.408" r="4" fill="#0" id="circle77"/>
	<circle cx="89.1154" cy="102.288" r="4" fill="#0" id="circle78"/>
	<circle cx="97.2217" cy="94.1818" r="4" fill="#0" id="circle79"/>
	<circle cx="104.315" cy="84.049" r="4" fill="#0" id="circle80"/>
	<circle cx="111.408" cy="70.8764" r="4" fill="#0" id="circle81"/>
	<circle cx="116.474" cy="60.7436" r="4" fill="#0" id="circle82"/>
	<circle cx="123.567" cy="52.6374" r="4" fill="#0" id="circle83"/>
	<circle cx="131.673" cy="48.5843" r="4" fill="#0" id="circle84"/>
	<circle cx="140.793" cy="47.571" r="4" fill="#0" id="circle85"/>
	<circle cx="148.899" cy="45.5444" r="4" fill="#0" id="circle86"/>
	<circle cx="160.045" cy="45.5444" r="4" fill="#0" id="circle87"/>
	<circle cx="170.178" cy="43.5179" r="4" fill="#0" id="circle88"/>
	<circle cx="411.338" cy="47.571" r="4" fill="#0" id="circle89"/>
	<circle cx="402.219" cy="56.6905" r="4" fill="#0" id="circle90"/>
	<circle cx="398.165" cy="68.8498" r="4" fill="#0" id="circle91"/>
	<circle cx="398.165" cy="84.049" r="4" fill="#0" id="circle92"/>
	<circle cx="397.152" cy="100.261" r="4" fill="#0" id="circle93"/>
	<circle cx="396.139" cy="120.527" r="4" fill="#0" id="circle94"/>
	<circle cx="398.165" cy="133.7" r="4" fill="#0" id="circle95"/>
	<circle cx="407.285" cy="143.832" r="4" fill="#0" id="circle96"/>
	<circle cx="417.418" cy="144.846" r="4" fill="#0" id="circle97"/>
	<circle cx="432.617" cy="144.846" r="4" fill="#0" id="circle98"/>
	<circle cx="448.829" cy="146.872" r="4" fill="#0" id="circle99"/>
	<circle cx="464.029" cy="146.872" r="4" fill="#0" id="circle100"/>
	<circle cx="480.241" cy="146.872" r="4" fill="#0" id="circle101"/>
	<circle cx="497.467" cy="146.872" r="4" fill="#0" id="circle102"/>
	<circle cx="510.639" cy="146.872" r="4" fill="#0" id="circle103"/>
	<circle cx="523.812" cy="146.872" r="4" fill="#0" id="circle104"/>
	<circle cx="537.998" cy="136.74" r="4" fill="#0" id="circle105"/>
	<circle cx="536.985" cy="58.7171" r="4" fill="#0" id="circle106"/>
	<circle cx="537.998" cy="74.9295" r="4" fill="#0" id="circle107"/>
	<circle cx="537.998" cy="89.1154" r="4" fill="#0" id="circle108"/>
	<circle cx="537.998" cy="102.288" r="4" fill="#0" id="circle109"/>
	<circle cx="539.011" cy="117.487" r="4" fill="#0" id="circle110"/>
	<circle cx="428.564" cy="45.5444" r="4" fill="#0" id="circle111"/>
	<circle cx="441.736" cy="46.5577" r="4" fill="#0" id="circle112"/>
	<circle cx="451.869" cy="46.5577" r="4" fill="#0" id="circle113"/>
	<circle cx="470.108" cy="46.5577" r="4" fill="#0" id="circle114"/>
	<circle cx="483.281" cy="46.5577" r="4" fill="#0" id="circle115"/>
	<circle cx="497.467" cy="48.5843" r="4" fill="#0" id="circle116"/>
	<circle cx="512.666" cy="47.571" r="4" fill="#0" id="circle117"/>
	<circle cx="525.839" cy="48.5843" r="4" fill="#0" id="circle118"/>
	<circle cx="573.463" cy="51.6241" r="4" fill="#0" id="circle119"/>
	<circle cx="585.622" cy="47.571" r="4" fill="#0" id="circle120"/>
	<circle cx="595.755" cy="47.571" r="4" fill="#0" id="circle121"/>
	<circle cx="605.888" cy="47.571" r="4" fill="#0" id="circle122"/>
	<circle cx="620.074" cy="48.5843" r="4" fill="#0" id="circle123"/>
	<circle cx="633.246" cy="48.5843" r="4" fill="#0" id="circle124"/>
	<circle cx="647.432" cy="48.5843" r="4" fill="#0" id="circle125"/>
	<circle cx="662.631" cy="48.5843" r="4" fill="#0" id="circle126"/>
	<circle cx="680.87" cy="46.5577" r="4" fill="#0" id="circle127"/>
	<circle cx="691.003" cy="50.6108" r="4" fill="#0" id="circle128"/>
	<circle cx="697.083" cy="62.7702" r="4" fill="#0" id="circle129"/>
	<circle cx="698.096" cy="74.9295" r="4" fill="#0" id="circle130"/>
	<circle cx="698.096" cy="86.0756" r="4" fill="#0" id="circle131"/>
	<circle cx="698.096" cy="97.2217" r="4" fill="#0" id="circle132"/>
	<circle cx="700.123" cy="112.421" r="4" fill="#0" id="circle133"/>
	<circle cx="699.109" cy="122.554" r="4" fill="#0" id="circle134"/>
	<circle cx="697.083" cy="134.713" r="4" fill="#0" id="circle135"/>
	<circle cx="684.923" cy="142.819" r="4" fill="#0" id="circle136"/>
	<circle cx="581.569" cy="144.846" r="4" fill="#0" id="circle137"/>
	<circle cx="596.768" cy="144.846" r="4" fill="#0" id="circle138"/>
	<circle cx="609.941" cy="144.846" r="4" fill="#0" id="circle139"/>
	<circle cx="623.113" cy="144.846" r="4" fill="#0" id="circle140"/>
	<circle cx="636.286" cy="143.832" r="4" fill="#0" id="circle141"/>
	<circle cx="648.445" cy="143.832" r="4" fill="#0" id="circle142"/>
	<circle cx="662.631" cy="143.832" r="4" fill="#0" id="circle143"/>
	<circle cx="675.804" cy="144.846" r="4" fill="#0" id="circle144"/>
	<circle cx="567.383" cy="61.7569" r="4" fill="#0" id="circle145"/>
	<circle cx="565.356" cy="73.9162" r="4" fill="#0" id="circle146"/>
	<circle cx="564.343" cy="86.0756" r="4" fill="#0" id="circle147"/>
	<circle cx="565.356" cy="102.288" r="4" fill="#0" id="circle148"/>
	<circle cx="565.356" cy="114.447" r="4" fill="#0" id="circle149"/>
	<circle cx="565.356" cy="126.607" r="4" fill="#0" id="circle150"/>
	<circle cx="568.396" cy="136.74" r="4" fill="#0" id="circle151"/>
	<circle cx="725.455" cy="52.6374" r="4" fill="#0" id="circle152"/>
	<circle cx="725.455" cy="67.8366" r="4" fill="#0" id="circle153"/>
	<circle cx="724.441" cy="79.9959" r="4" fill="#0" id="circle154"/>
	<circle cx="725.455" cy="94.1818" r="4" fill="#0" id="circle155"/>
	<circle cx="726.468" cy="104.315" r="4" fill="#0" id="circle156"/>
	<circle cx="726.468" cy="114.447" r="4" fill="#0" id="circle157"/>
	<circle cx="726.468" cy="126.607" r="4" fill="#0" id="circle158"/>
	<circle cx="732.547" cy="137.753" r="4" fill="#0" id="circle159"/>
	<circle cx="744.707" cy="143.832" r="4" fill="#0" id="circle160"/>
	<circle cx="759.906" cy="146.872" r="4" fill="#0" id="circle161"/>
	<circle cx="772.065" cy="146.872" r="4" fill="#0" id="circle162"/>
	<circle cx="783.211" cy="145.859" r="4" fill="#0" id="circle163"/>
	<circle cx="793.344" cy="145.859" r="4" fill="#0" id="circle164"/>
	<circle cx="806.517" cy="145.859" r="4" fill="#0" id="circle165"/>
	<circle cx="819.689" cy="145.859" r="4" fill="#0" id="circle166"/>
	<circle cx="831.849" cy="143.832" r="4" fill="#0" id="circle167"/>
	<circle cx="842.995" cy="142.819" r="4" fill="#0" id="circle168"/>
	<circle cx="741.667" cy="48.5843" r="4" fill="#0" id="circle169"/>
	<circle cx="753.826" cy="46.5577" r="4" fill="#0" id="circle170"/>
	<circle cx="768.012" cy="45.5444" r="4" fill="#0" id="circle171"/>
	<circle cx="782.198" cy="45.5444" r="4" fill="#0" id="circle172"/>
	<circle cx="799.424" cy="46.5577" r="4" fill="#0" id="circle173"/>
	<circle cx="810.57" cy="46.5577" r="4" fill="#0" id="circle174"/>
	<circle cx="821.716" cy="47.571" r="4" fill="#0" id="circle175"/>
	<circle cx="834.889" cy="47.571" r="4" fill="#0" id="circle176"/>
	<circle cx="846.035" cy="55.6772" r="4" fill="#0" id="circle177"/>
	<circle cx="848.061" cy="66.8233" r="4" fill="#0" id="circle178"/>
	<circle cx="848.061" cy="77.9694" r="4" fill="#0" id="circle179"/>
	<circle cx="848.061" cy="90.1287" r="4" fill="#0" id="circle180"/>
	<circle cx="848.061" cy="103.301" r="4" fill="#0" id="circle181"/>
	<circle cx="848.061" cy="121.54" r="4" fill="#0" id="circle182"/>
	<circle cx="850.088" cy="134.713" r="4" fill="#0" id="circle183"/>
	<circle cx="95.1951" cy="48.5843" r="4" fill="#0" id="circle184"/>
	<circle cx="87.0889" cy="41.4913" r="4" fill="#0" id="circle185"/>
	<circle cx="93.1685" cy="32.3718" r="4" fill="#0" id="circle186"/>
	<circle cx="104.315" cy="24.2656" r="4" fill="#0" id="circle187"/>
	<circle cx="120.527" cy="19.1992" r="4" fill="#0" id="circle188"/>
	<circle cx="139.779" cy="12.1062" r="4" fill="#0" id="circle189"/>
	<circle cx="159.032" cy="10.0797" r="4" fill="#0" id="circle190"/>
	<circle cx="178.284" cy="9.06639" r="4" fill="#0" id="circle191"/>
	<circle cx="201.589" cy="10.0797" r="4" fill="#0" id="circle192"/>
	<circle cx="223.882" cy="10.0797" r="4" fill="#0" id="circle193"/>
	<circle cx="250.227" cy="10.0797" r="4" fill="#0" id="circle194"/>
	<circle cx="271.506" cy="9.06639" r="4" fill="#0" id="circle195"/>
	<circle cx="293.798" cy="8.05312" r="4" fill="#0" id="circle196"/>
	<circle cx="312.037" cy="8.05312" r="4" fill="#0" id="circle197"/>
	<circle cx="337.369" cy="9.06639" r="4" fill="#0" id="circle198"/>
	<circle cx="357.634" cy="9.06639" r="4" fill="#0" id="circle199"/>
	<circle cx="380.94" cy="9.06639" r="4" fill="#0" id="circle200"/>
	<circle cx="400.192" cy="9.06639" r="4" fill="#0" id="circle201"/>
	<circle cx="423.497" cy="6.02656" r="4" fill="#0" id="circle202"/>
	<circle cx="445.79" cy="6.02656" r="4" fill="#0" id="circle203"/>
	<circle cx="471.122" cy="6.02656" r="4" fill="#0" id="circle204"/>
	<circle cx="499.493" cy="6.02656" r="4" fill="#0" id="circle205"/>
	<circle cx="521.785" cy="6.02656" r="4" fill="#0" id="circle206"/>
	<circle cx="541.038" cy="6.02656" r="4" fill="#0" id="circle207"/>
	<circle cx="565.356" cy="6.02656" r="4" fill="#0" id="circle208"/>
	<circle cx="591.702" cy="6.02656" r="4" fill="#0" id="circle209"/>
	<circle cx="621.087" cy="8.05312" r="4" fill="#0" id="circle210"/>
	<circle cx="647.432" cy="6.02656" r="4" fill="#0" id="circle211"/>
	<circle cx="670.737" cy="5.01328" r="4" fill="#0" id="circle212"/>
	<circle cx="691.003" cy="5.01328" r="4" fill="#0" id="circle213"/>
	<circle cx="715.322" cy="5.01328" r="4" fill="#0" id="circle214"/>
	<circle cx="741.667" cy="6.02656" r="4" fill="#0" id="circle215"/>
	<circle cx="764.972" cy="5.01328" r="4" fill="#0" id="circle216"/>
	<circle cx="791.318" cy="5.01328" r="4" fill="#0" id="circle217"/>
	<circle cx="810.57" cy="5.01328" r="4" fill="#0" id="circle218"/>
	<circle cx="828.809" cy="4" r="4" fill="#0" id="circle219"/>
	<circle cx="848.061" cy="4" r="4" fill="#0" id="circle220"/>
	<circle cx="865.287" cy="6.02656" r="4" fill="#0" id="circle221"/>
	<circle cx="885.553" cy="10.0797" r="4" fill="#0" id="circle222"/>
	<circle cx="908.858" cy="14.1328" r="4" fill="#0" id="circle223"/>
	<circle cx="928.11" cy="16.1593" r="4" fill="#0" id="circle224"/>
	<circle cx="947.363" cy="21.2257" r="4" fill="#0" id="circle225"/>
	<circle cx="964.588" cy="28.3187" r="4" fill="#0" id="circle226"/>
	<circle cx="977.761" cy="36.4249" r="4" fill="#0" id="circle227"/>
	<circle cx="969.655" cy="43.5179" r="4" fill="#0" id="circle228"/>
	<circle cx="975.734" cy="51.6241" r="4" fill="#0" id="circle229"/>
	<circle cx="979.788" cy="65.81" r="4" fill="#0" id="circle230"/>
	<circle cx="979.788" cy="77.9694" r="4" fill="#0" id="circle231"/>
	<circle cx="981.814" cy="88.1021" r="4" fill="#0" id="circle232"/>
	<circle cx="981.814" cy="97.2217" r="4" fill="#0" id="circle233"/>
	<circle cx="980.801" cy="109.381" r="4" fill="#0" id="circle234"/>
	<circle cx="980.801" cy="124.58" r="4" fill="#0" id="circle235"/>
	<circle cx="981.814" cy="136.74" r="4" fill="#0" id="circle236"/>
	<circle cx="981.814" cy="148.899" r="4" fill="#0" id="circle237"/>
	<circle cx="983.841" cy="158.018" r="4" fill="#0" id="circle238"/>
	<circle cx="987.894" cy="168.151" r="4" fill="#0" id="circle239"/>
	<circle cx="984.854" cy="179.297" r="4" fill="#0" id="circle240"/>
	<circle cx="984.854" cy="189.43" r="4" fill="#0" id="circle241"/>
	<circle cx="985.867" cy="200.576" r="4" fill="#0" id="circle242"/>
	<circle cx="983.841" cy="215.775" r="4" fill="#0" id="circle243"/>
	<circle cx="983.841" cy="228.948" r="4" fill="#0" id="circle244"/>
	<circle cx="983.841" cy="247.187" r="4" fill="#0" id="circle245"/>
	<circle cx="984.854" cy="261.373" r="4" fill="#0" id="circle246"/>
	<circle cx="984.854" cy="277.585" r="4" fill="#0" id="circle247"/>
	<circle cx="992.96" cy="284.678" r="4" fill="#0" id="circle248"/>
	<circle cx="996" cy="296.838" r="4" fill="#0" id="circle249"/>
	<circle cx="994.987" cy="308.997" r="4" fill="#0" id="circle250"/>
	<circle cx="996" cy="321.156" r="4" fill="#0" id="circle251"/>
	<circle cx="994.987" cy="333.316" r="4" fill="#0" id="circle252"/>
	<circle cx="985.867" cy="339.395" r="4" fill="#0" id="circle253"/>
	<circle cx="983.841" cy="351.555" r="4" fill="#0" id="circle254"/>
	<circle cx="983.841" cy="364.727" r="4" fill="#0" id="circle255"/>
	<circle cx="984.854" cy="379.926" r="4" fill="#0" id="circle256"/>
	<circle cx="981.814" cy="396.139" r="4" fill="#0" id="circle257"/>
	<circle cx="976.748" cy="409.312" r="4" fill="#0" id="circle258"/>
	<circle cx="87.0889" cy="58.7171" r="4" fill="#0" id="circle259"/>
	<circle cx="79.9959" cy="69.8631" r="4" fill="#0" id="circle260"/>
	<circle cx="70.8764" cy="81.0092" r="4" fill="#0" id="circle261"/>
	<circle cx="62.7702" cy="91.142" r="4" fill="#0" id="circle262"/>
	<circle cx="55.6772" cy="102.288" r="4" fill="#0" id="circle263"/>
	<circle cx="47.571" cy="116.474" r="4" fill="#0" id="circle264"/>
	<circle cx="41.4913" cy="127.62" r="4" fill="#0" id="circle265"/>
	<circle cx="34.3984" cy="137.753" r="4" fill="#0" id="circle266"/>
	<circle cx="27.3054" cy="148.899" r="4" fill="#0" id="circle267"/>
	<circle cx="21.2257" cy="159.032" r="4" fill="#0" id="circle268"/>
	<circle cx="10.0797" cy="166.125" r="4" fill="#0" id="circle269"/>
	<circle cx="4" cy="179.297" r="4" fill="#0" id="circle270"/>
	<circle cx="5.01328" cy="192.47" r="4" fill="#0" id="circle271"/>
	<circle cx="9.06639" cy="203.616" r="4" fill="#0" id="circle272"/>
	<circle cx="12.1062" cy="216.789" r="4" fill="#0" id="circle273"/>
	<circle cx="12.1062" cy="229.961" r="4" fill="#0" id="circle274"/>
	<circle cx="12.1062" cy="245.16" r="4" fill="#0" id="circle275"/>
	<circle cx="11.093" cy="257.32" r="4" fill="#0" id="circle276"/>
	<circle cx="10.0797" cy="274.545" r="4" fill="#0" id="circle277"/>
	<circle cx="10.0797" cy="287.718" r="4" fill="#0" id="circle278"/>
	<circle cx="9.06639" cy="302.917" r="4" fill="#0" id="circle279"/>
	<circle cx="8.05312" cy="319.13" r="4" fill="#0" id="circle280"/>
	<circle cx="8.05312" cy="334.329" r="4" fill="#0" id="circle281"/>
	<circle cx="8.05312" cy="353.581" r="4" fill="#0" id="circle282"/>
	<circle cx="8.05312" cy="367.767" r="4" fill="#0" id="circle283"/>
	<circle cx="6.02656" cy="379.926" r="4" fill="#0" id="circle284"/>
	<circle cx="5.01328" cy="396.139" r="4" fill="#0" id="circle285"/>
	<circle cx="8.05312" cy="413.365" r="4" fill="#0" id="circle286"/>
	<circle cx="23.2523" cy="420.458" r="4" fill="#0" id="circle287"/>
	<circle cx="34.3984" cy="420.458" r="4" fill="#0" id="circle288"/>
	<circle cx="48.5843" cy="420.458" r="4" fill="#0" id="circle289"/>
	<circle cx="66.8233" cy="420.458" r="4" fill="#0" id="circle290"/>
	<circle cx="86.0756" cy="420.458" r="4" fill="#0" id="circle291"/>
	<circle cx="103.301" cy="417.418" r="4" fill="#0" id="circle292"/>
	<circle cx="112.421" cy="405.258" r="4" fill="#0" id="circle293"/>
	<circle cx="121.54" cy="387.019" r="4" fill="#0" id="circle294"/>
	<circle cx="126.607" cy="370.807" r="4" fill="#0" id="circle295"/>
	<circle cx="135.726" cy="357.634" r="4" fill="#0" id="circle296"/>
	<circle cx="152.952" cy="347.502" r="4" fill="#0" id="circle297"/>
	<circle cx="172.204" cy="338.382" r="4" fill="#0" id="circle298"/>
	<circle cx="184.364" cy="332.302" r="4" fill="#0" id="circle299"/>
	<circle cx="201.589" cy="330.276" r="4" fill="#0" id="circle300"/>
	<circle cx="216.789" cy="330.276" r="4" fill="#0" id="circle301"/>
	<circle cx="233.001" cy="331.289" r="4" fill="#0" id="circle302"/>
	<circle cx="248.2" cy="332.302" r="4" fill="#0" id="circle303"/>
	<circle cx="264.413" cy="333.316" r="4" fill="#0" id="circle304"/>
	<circle cx="282.652" cy="337.369" r="4" fill="#0" id="circle305"/>
	<circle cx="293.798" cy="345.475" r="4" fill="#0" id="circle306"/>
	<circle cx="307.984" cy="356.621" r="4" fill="#0" id="circle307"/>
	<circle cx="319.13" cy="369.794" r="4" fill="#0" id="circle308"/>
	<circle cx="323.183" cy="384.993" r="4" fill="#0" id="circle309"/>
	<circle cx="329.263" cy="400.192" r="4" fill="#0" id="circle310"/>
	<circle cx="336.355" cy="409.312" r="4" fill="#0" id="circle311"/>
	<circle cx="348.515" cy="418.431" r="4" fill="#0" id="circle312"/>
	<circle cx="365.741" cy="418.431" r="4" fill="#0" id="circle313"/>
	<circle cx="378.913" cy="417.418" r="4" fill="#0" id="circle314"/>
	<circle cx="394.112" cy="417.418" r="4" fill="#0" id="circle315"/>
	<circle cx="411.338" cy="417.418" r="4" fill="#0" id="circle316"/>
	<circle cx="426.537" cy="417.418" r="4" fill="#0" id="circle317"/>
	<circle cx="445.79" cy="416.404" r="4" fill="#0" id="circle318"/>
	<circle cx="465.042" cy="416.404" r="4" fill="#0" id="circle319"/>
	<circle cx="484.294" cy="414.378" r="4" fill="#0" id="circle320"/>
	<circle cx="507.6" cy="415.391" r="4" fill="#0" id="circle321"/>
	<circle cx="526.852" cy="415.391" r="4" fill="#0" id="circle322"/>
	<circle cx="552.184" cy="417.418" r="4" fill="#0" id="circle323"/>
	<circle cx="574.476" cy="417.418" r="4" fill="#0" id="circle324"/>
	<circle cx="595.755" cy="417.418" r="4" fill="#0" id="circle325"/>
	<circle cx="615.007" cy="417.418" r="4" fill="#0" id="circle326"/>
	<circle cx="639.326" cy="418.431" r="4" fill="#0" id="circle327"/>
	<circle cx="660.605" cy="420.458" r="4" fill="#0" id="circle328"/>
	<circle cx="681.884" cy="417.418" r="4" fill="#0" id="circle329"/>
	<circle cx="699.109" cy="417.418" r="4" fill="#0" id="circle330"/>
	<circle cx="713.295" cy="416.404" r="4" fill="#0" id="circle331"/>
	<circle cx="719.375" cy="406.272" r="4" fill="#0" id="circle332"/>
	<circle cx="730.521" cy="394.112" r="4" fill="#0" id="circle333"/>
	<circle cx="736.601" cy="383.98" r="4" fill="#0" id="circle334"/>
	<circle cx="750.787" cy="374.86" r="4" fill="#0" id="circle335"/>
	<circle cx="771.052" cy="368.78" r="4" fill="#0" id="circle336"/>
	<circle cx="796.384" cy="368.78" r="4" fill="#0" id="circle337"/>
	<circle cx="829.822" cy="369.794" r="4" fill="#0" id="circle338"/>
	<circle cx="853.128" cy="369.794" r="4" fill="#0" id="circle339"/>
	<circle cx="873.393" cy="369.794" r="4" fill="#0" id="circle340"/>
	<circle cx="889.606" cy="368.78" r="4" fill="#0" id="circle341"/>
	<circle cx="908.858" cy="373.847" r="4" fill="#0" id="circle342"/>
	<circle cx="917.978" cy="387.019" r="4" fill="#0" id="circle343"/>
	<circle cx="927.097" cy="398.165" r="4" fill="#0" id="circle344"/>
	<circle cx="937.23" cy="411.338" r="4" fill="#0" id="circle345"/>
	<circle cx="949.389" cy="416.404" r="4" fill="#0" id="circle346"/>
	<circle cx="962.562" cy="416.404" r="4" fill="#0" id="circle347"/>
	<circle cx="837.466" cy="168.244" r="4" fill="#0" id="circle348"/>
	<circle cx="780.834" cy="336.516" r="4" fill="#0" id="circle349"/>
	<circle cx="908.354" cy="86.2718" r="4" fill="#0" id="circle350"/>
	<circle cx="336.541" cy="323.935" r="4" fill="#0" id="circle351"/>
	<circle cx="279.553" cy="234.705" r="4" fill="#0" id="circle352"/>
	<circle cx="477.578" cy="265.898" r="4" fill="#0" id="circle353"/>
	<circle cx="365.866" cy="217.81" r="4" fill="#0" id="circle354"/>
	<circle cx="948.612" cy="385.556" r="4" fill="#0" id="circle355"/>
	<circle cx="634.626" cy="302.724" r="4" fill="#0" id="circle356"/>
	<circle cx="144.47" cy="256.777" r="4" fill="#0" id="circle357"/>
	<circle cx="20.1702" cy="105.152" r="4" fill="#0" id="circle358"/>
	<circle cx="140.134" cy="338.906" r="4" fill="#0" id="circle359"/>
	<circle cx="159.426" cy="170.976" r="4" fill="#0" id="circle360"/>
	<circle cx="132.752" cy="49.3142" r="4" fill="#0" id="circle361"/>
	<circle cx="994.933" cy="94.8948" r="4" fill="#0" id="circle362"/>
	<circle cx="512.829" cy="353.455" r="4" fill="#0" id="circle363"/>
	<circle cx="611.739" cy="127.285" r="4" fill="#0" id="circle364"/>
	<circle cx="636.452" cy="222.343" r="4" fill="#0" id="circle365"/>
	<circle cx="493.634" cy="409.12" r="4" fill="#0" id="circle366"/>
	<circle cx="294.177" cy="325.238" r="4" fill="#0" id="circle367"/>
	<circle cx="526.531" cy="324.636" r="4" fill="#0" id="circle368"/>
	<circle cx="401.027" cy="375.284" r="4" fill="#0" id="circle369"/>
	<circle cx="285.048" cy="150.784" r="4" fill="#0" id="circle370"/>
	<circle cx="805.263" cy="386.736" r="4" fill="#0" id="circle371"/>
	<circle cx="73.1972" cy="399.354" r="4" fill="#0" id="circle372"/>
	<circle cx="525.787" cy="39.8386" r="4" fill="#0" id="circle373"/>
	<circle cx="194.676" cy="280.206" r="4" fill="#0" id="circle374"/>
	<circle cx="887.111" cy="149.299" r="4" fill="#0" id="circle375"/>
	<circle cx="67.658" cy="12.3388" r="4" fill="#0" id="circle376"/>
	<circle cx="458.04" cy="30.2767" r="4" fill="#0" id="circle377"/>
	<circle cx="240.374" cy="408.228" r="4" fill="#0" id="circle378"/>
	<circle cx="898.99" cy="358.372" r="4" fill="#0" id="circle379"/>
	<circle cx="268.532" cy="228.787" r="4" fill="#0" id="circle380"/>
	<circle cx="376.205" cy="320.611" r="4" fill="#0" id="circle381"/>
	<circle cx="512.435" cy="282.079" r="4" fill="#0" id="circle382"/>
	<circle cx="531.354" cy="20.3586" r="4" fill="#0" id="circle383"/>
	<circle cx="438.136" cy="392.07" r="4" fill="#0" id="circle384"/>
	<circle cx="927.363" cy="304.246" r="4" fill="#0" id="circle385"/>
	<circle cx="286.019" cy="311.568" r="4" fill="#0" id="circle386"/>
	<circle cx="638.859" cy="151.446" r="4" fill="#0" id="circle387"/>
	<circle cx="686.359" cy="73.1212" r="4" fill="#0" id="circle388"/>
	<circle cx="440.584" cy="370.514" r="4" fill="#0" id="circle389"/>
	<circle cx="826.567" cy="141.571" r="4" fill="#0" id="circle390"/>
	<circle cx="231.136" cy="376.052" r="4" fill="#0" id="circle391"/>
	<circle cx="351.557" cy="289.969" r="4" fill="#0" id="circle392"/>
	<circle cx="952.817" cy="249.144" r="4" fill="#0" id="circle393"/>
	<circle cx="656.046" cy="361.602" r="4" fill="#0" id="circle394"/>
	<circle cx="440.043" cy="388.794" r="4" fill="#0" id="circle395"/>
	<circle cx="399.249" cy="343.316" r="4" fill="#0" id="circle396"/>
	<circle cx="682.745" cy="383.381" r="4" fill="#0" id="circle397"/>
	<circle cx="482.631" cy="93.8819" r="4" fill="#0" id="circle398"/>
	<circle cx="946.65" cy="387.194" r="4" fill="#0" id="circle399"/>
	<circle cx="150.479" cy="370.925" r="4" fill="#0" id="circle400"/>
	<circle cx="639.952" cy="183.89" r="4" fill="#0" id="circle401"/>
	<circle cx="618.64" cy="121.049" r="4" fill="#0" id="circle402"/>
	<circle cx="783.714" cy="132.043" r="4" fill="#0" id="circle403"/>
	<circle cx="447.457" cy="98.1638" r="4" fill="#0" id="circle404"/>
	<circle cx="190.033" cy="119.04" r="4" fill="#0" id="circle405"/>
	<circle cx="555.992" cy="177.455" r="4" fill="#0" id="circle406"/>
	<circle cx="172.25" cy="381.645" r="4" fill="#0" id="circle407"/>
	<circle cx="106.346" cy="56.505" r="4" fill="#0" id="circle408"/>
	<circle cx="495.481" cy="320.706" r="4" fill="#0" id="circle409"/>
	<circle cx="980.874" cy="393.39" r="4" fill="#0" id="circle410"/>
	<circle cx="682.969" cy="163.582" r="4" fill="#0" id="circle411"/>
	<circle cx="747.773" cy="157.533" r="4" fill="#0" id="circle412"/>
	<circle cx="295.807" cy="100.727" r="4" fill="#0" id="circle413"/>
	<circle cx="583.813" cy="105.788" r="4" fill="#0" id="circle414"/>
	<circle cx="155.171" cy="308.909" r="4" fill="#0" id="circle415"/>
	<circle cx="128.471" cy="334.447" r="4" fill="#0" id="circle416"/>
	</g>
</svg>