<?xml version="1.0" encoding="UTF-8" standalone="no"?>
<!-- Created with CurveBenchmark -->
<svg
	xmlns:dc="http://purl.org/dc/elements/1.1/"
	xmlns:cc="http://creativecommons.org/ns#"
	xmlns:rdf="http://www.w3.org/1999/02/22-rdf-syntax-ns#"
	xmlns:svg="http://www.w3.org/2000/svg"
	xmlns="http://www.w3.org/2000/svg"
	xmlns:sodipodi="http://sodipodi.sourceforge.net/DTD/sodipodi-0.dtd"
	xmlns:inkscape="http://www.inkscape.org/namespaces/inkscape"
	width="1000"
	height="1000"
	id="svg2"
	version="1.1"
	sodipodi:docname="outliers-20/stretchdenoise-mc15.txt">
<defs
	id="defs4" />
<metadata
	id="metadata7">
	<rdf:RDF>
		<cc:Work
			rdf:about="">
			<dc:format>image/svg+xml</dc:format>
			<dc:type
				rdf:resource="http://purl.org/dc/dcmitype/StillImage" />
			<dc:title></dc:title>
		</cc:Work>
	</rdf:RDF>
</metadata>
<g
	inkscape:label="Layer 1"
	inkscape:groupmode="layer"
	id="layer1">
	<path style="fill:none;stroke:red;stroke-width:1px;stroke-linecap:butt;stroke-linejoin:miter;stroke-opacity:1" d="M 23.1266,91.0099 50.3065,90.0032 z" id="boundary" inkscape:connector-curvature="0" />
	<path style="fill:none;stroke:red;stroke-width:1px;stroke-linecap:butt;stroke-linejoin:miter;stroke-opacity:1" d="M 23.1266,91.0099 11.0466,67.8566 z" id="boundary" inkscape:connector-curvature="0" />
	<path style="fill:none;stroke:red;stroke-width:1px;stroke-linecap:butt;stroke-linejoin:miter;stroke-opacity:1" d="M 50.3065,90.0032 79.4997,87.9899 z" id="boundary" inkscape:connector-curvature="0" />
	<path style="fill:none;stroke:red;stroke-width:1px;stroke-linecap:butt;stroke-linejoin:miter;stroke-opacity:1" d="M 79.4997,87.9899 108.693,87.9899 z" id="boundary" inkscape:connector-curvature="0" />
	<path style="fill:none;stroke:red;stroke-width:1px;stroke-linecap:butt;stroke-linejoin:miter;stroke-opacity:1" d="M 108.693,87.9899 114.012,112.328 z" id="boundary" inkscape:connector-curvature="0" />
	<path style="fill:none;stroke:red;stroke-width:1px;stroke-linecap:butt;stroke-linejoin:miter;stroke-opacity:1" d="M 125.806,143.356 141.913,197.716 z" id="boundary" inkscape:connector-curvature="0" />
	<path style="fill:none;stroke:red;stroke-width:1px;stroke-linecap:butt;stroke-linejoin:miter;stroke-opacity:1" d="M 125.806,143.356 114.012,112.328 z" id="boundary" inkscape:connector-curvature="0" />
	<path style="fill:none;stroke:red;stroke-width:1px;stroke-linecap:butt;stroke-linejoin:miter;stroke-opacity:1" d="M 141.913,197.716 145.939,217.849 z" id="boundary" inkscape:connector-curvature="0" />
	<path style="fill:none;stroke:red;stroke-width:1px;stroke-linecap:butt;stroke-linejoin:miter;stroke-opacity:1" d="M 145.939,217.849 190.233,254.089 z" id="boundary" inkscape:connector-curvature="0" />
	<path style="fill:none;stroke:red;stroke-width:1px;stroke-linecap:butt;stroke-linejoin:miter;stroke-opacity:1" d="M 171.106,303.416 190.233,254.089 z" id="boundary" inkscape:connector-curvature="0" />
	<path style="fill:none;stroke:red;stroke-width:1px;stroke-linecap:butt;stroke-linejoin:miter;stroke-opacity:1" d="M 184.193,364.822 192.246,384.956 z" id="boundary" inkscape:connector-curvature="0" />
	<path style="fill:none;stroke:red;stroke-width:1px;stroke-linecap:butt;stroke-linejoin:miter;stroke-opacity:1" d="M 184.193,364.822 221.439,333.616 z" id="boundary" inkscape:connector-curvature="0" />
	<path style="fill:none;stroke:red;stroke-width:1px;stroke-linecap:butt;stroke-linejoin:miter;stroke-opacity:1" d="M 192.246,384.956 194.259,406.095 z" id="boundary" inkscape:connector-curvature="0" />
	<path style="fill:none;stroke:red;stroke-width:1px;stroke-linecap:butt;stroke-linejoin:miter;stroke-opacity:1" d="M 194.259,406.095 205.333,444.349 z" id="boundary" inkscape:connector-curvature="0" />
	<path style="fill:none;stroke:red;stroke-width:1px;stroke-linecap:butt;stroke-linejoin:miter;stroke-opacity:1" d="M 205.333,444.349 215.399,487.635 z" id="boundary" inkscape:connector-curvature="0" />
	<path style="fill:none;stroke:red;stroke-width:1px;stroke-linecap:butt;stroke-linejoin:miter;stroke-opacity:1" d="M 215.399,487.635 221.439,510.788 z" id="boundary" inkscape:connector-curvature="0" />
	<path style="fill:none;stroke:red;stroke-width:1px;stroke-linecap:butt;stroke-linejoin:miter;stroke-opacity:1" d="M 221.439,510.788 226.473,531.928 z" id="boundary" inkscape:connector-curvature="0" />
	<path style="fill:none;stroke:red;stroke-width:1px;stroke-linecap:butt;stroke-linejoin:miter;stroke-opacity:1" d="M 226.473,531.928 230.029,539.643 z" id="boundary" inkscape:connector-curvature="0" />
	<path style="fill:none;stroke:red;stroke-width:1px;stroke-linecap:butt;stroke-linejoin:miter;stroke-opacity:1" d="M 246.606,607.428 261.706,669.841 z" id="boundary" inkscape:connector-curvature="0" />
	<path style="fill:none;stroke:red;stroke-width:1px;stroke-linecap:butt;stroke-linejoin:miter;stroke-opacity:1" d="M 246.606,607.428 239.445,553.733 z" id="boundary" inkscape:connector-curvature="0" />
	<path style="fill:none;stroke:red;stroke-width:1px;stroke-linecap:butt;stroke-linejoin:miter;stroke-opacity:1" d="M 261.706,669.841 280.832,669.841 z" id="boundary" inkscape:connector-curvature="0" />
	<path style="fill:none;stroke:red;stroke-width:1px;stroke-linecap:butt;stroke-linejoin:miter;stroke-opacity:1" d="M 280.832,669.841 300.966,667.828 z" id="boundary" inkscape:connector-curvature="0" />
	<path style="fill:none;stroke:red;stroke-width:1px;stroke-linecap:butt;stroke-linejoin:miter;stroke-opacity:1" d="M 298.952,787.621 310.026,797.687 z" id="boundary" inkscape:connector-curvature="0" />
	<path style="fill:none;stroke:red;stroke-width:1px;stroke-linecap:butt;stroke-linejoin:miter;stroke-opacity:1" d="M 298.952,787.621 251.94,769.287 z" id="boundary" inkscape:connector-curvature="0" />
	<path style="fill:none;stroke:red;stroke-width:1px;stroke-linecap:butt;stroke-linejoin:miter;stroke-opacity:1" d="M 310.026,797.687 324.119,811.781 z" id="boundary" inkscape:connector-curvature="0" />
	<path style="fill:none;stroke:red;stroke-width:1px;stroke-linecap:butt;stroke-linejoin:miter;stroke-opacity:1" d="M 324.119,811.781 341.719,812.33 z" id="boundary" inkscape:connector-curvature="0" />
	<path style="fill:none;stroke:red;stroke-width:1px;stroke-linecap:butt;stroke-linejoin:miter;stroke-opacity:1" d="M 341.232,820.841 357.339,838.961 z" id="boundary" inkscape:connector-curvature="0" />
	<path style="fill:none;stroke:red;stroke-width:1px;stroke-linecap:butt;stroke-linejoin:miter;stroke-opacity:1" d="M 341.232,820.841 341.719,812.33 z" id="boundary" inkscape:connector-curvature="0" />
	<path style="fill:none;stroke:red;stroke-width:1px;stroke-linecap:butt;stroke-linejoin:miter;stroke-opacity:1" d="M 357.339,838.961 376.465,854.061 z" id="boundary" inkscape:connector-curvature="0" />
	<path style="fill:none;stroke:red;stroke-width:1px;stroke-linecap:butt;stroke-linejoin:miter;stroke-opacity:1" d="M 376.465,854.061 377.037,877.087 z" id="boundary" inkscape:connector-curvature="0" />
	<path style="fill:none;stroke:red;stroke-width:1px;stroke-linecap:butt;stroke-linejoin:miter;stroke-opacity:1" d="M 395.592,869.16 411.699,885.267 z" id="boundary" inkscape:connector-curvature="0" />
	<path style="fill:none;stroke:red;stroke-width:1px;stroke-linecap:butt;stroke-linejoin:miter;stroke-opacity:1" d="M 395.592,869.16 377.037,877.087 z" id="boundary" inkscape:connector-curvature="0" />
	<path style="fill:none;stroke:red;stroke-width:1px;stroke-linecap:butt;stroke-linejoin:miter;stroke-opacity:1" d="M 411.699,885.267 430.825,902.38 z" id="boundary" inkscape:connector-curvature="0" />
	<path style="fill:none;stroke:red;stroke-width:1px;stroke-linecap:butt;stroke-linejoin:miter;stroke-opacity:1" d="M 449.952,916.474 430.825,902.38 z" id="boundary" inkscape:connector-curvature="0" />
	<path style="fill:none;stroke:red;stroke-width:1px;stroke-linecap:butt;stroke-linejoin:miter;stroke-opacity:1" d="M 449.952,916.474 487.198,947.68 z" id="boundary" inkscape:connector-curvature="0" />
	<path style="fill:none;stroke:red;stroke-width:1px;stroke-linecap:butt;stroke-linejoin:miter;stroke-opacity:1" d="M 487.198,947.68 533.505,945.667 z" id="boundary" inkscape:connector-curvature="0" />
	<path style="fill:none;stroke:red;stroke-width:1px;stroke-linecap:butt;stroke-linejoin:miter;stroke-opacity:1" d="M 601.958,972.847 579.811,862.114 z" id="boundary" inkscape:connector-curvature="0" />
	<path style="fill:none;stroke:red;stroke-width:1px;stroke-linecap:butt;stroke-linejoin:miter;stroke-opacity:1" d="M 601.958,972.847 533.505,945.667 z" id="boundary" inkscape:connector-curvature="0" />
	<path style="fill:none;stroke:red;stroke-width:1px;stroke-linecap:butt;stroke-linejoin:miter;stroke-opacity:1" d="M 579.811,862.114 561.138,855.869 z" id="boundary" inkscape:connector-curvature="0" />
	<path style="fill:none;stroke:red;stroke-width:1px;stroke-linecap:butt;stroke-linejoin:miter;stroke-opacity:1" d="M 570.751,832.921 564.711,807.754 z" id="boundary" inkscape:connector-curvature="0" />
	<path style="fill:none;stroke:red;stroke-width:1px;stroke-linecap:butt;stroke-linejoin:miter;stroke-opacity:1" d="M 570.751,832.921 561.138,855.869 z" id="boundary" inkscape:connector-curvature="0" />
	<path style="fill:none;stroke:red;stroke-width:1px;stroke-linecap:butt;stroke-linejoin:miter;stroke-opacity:1" d="M 564.711,807.754 539.545,774.534 z" id="boundary" inkscape:connector-curvature="0" />
	<path style="fill:none;stroke:red;stroke-width:1px;stroke-linecap:butt;stroke-linejoin:miter;stroke-opacity:1" d="M 539.545,774.534 514.378,774.534 z" id="boundary" inkscape:connector-curvature="0" />
	<path style="fill:none;stroke:red;stroke-width:1px;stroke-linecap:butt;stroke-linejoin:miter;stroke-opacity:1" d="M 514.378,774.534 496.258,772.521 z" id="boundary" inkscape:connector-curvature="0" />
	<path style="fill:none;stroke:red;stroke-width:1px;stroke-linecap:butt;stroke-linejoin:miter;stroke-opacity:1" d="M 496.258,772.521 450.474,767.855 z" id="boundary" inkscape:connector-curvature="0" />
	<path style="fill:none;stroke:red;stroke-width:1px;stroke-linecap:butt;stroke-linejoin:miter;stroke-opacity:1" d="M 659.338,357.776 648.264,400.055 z" id="boundary" inkscape:connector-curvature="0" />
	<path style="fill:none;stroke:red;stroke-width:1px;stroke-linecap:butt;stroke-linejoin:miter;stroke-opacity:1" d="M 659.338,357.776 541.558,385.962 z" id="boundary" inkscape:connector-curvature="0" />
	<path style="fill:none;stroke:red;stroke-width:1px;stroke-linecap:butt;stroke-linejoin:miter;stroke-opacity:1" d="M 648.264,400.055 644.238,419.182 z" id="boundary" inkscape:connector-curvature="0" />
	<path style="fill:none;stroke:red;stroke-width:1px;stroke-linecap:butt;stroke-linejoin:miter;stroke-opacity:1" d="M 644.238,419.182 638.198,440.322 z" id="boundary" inkscape:connector-curvature="0" />
	<path style="fill:none;stroke:red;stroke-width:1px;stroke-linecap:butt;stroke-linejoin:miter;stroke-opacity:1" d="M 638.198,440.322 632.158,460.455 z" id="boundary" inkscape:connector-curvature="0" />
	<path style="fill:none;stroke:red;stroke-width:1px;stroke-linecap:butt;stroke-linejoin:miter;stroke-opacity:1" d="M 632.158,460.455 621.084,504.748 z" id="boundary" inkscape:connector-curvature="0" />
	<path style="fill:none;stroke:red;stroke-width:1px;stroke-linecap:butt;stroke-linejoin:miter;stroke-opacity:1" d="M 621.084,504.748 604.978,569.175 z" id="boundary" inkscape:connector-curvature="0" />
	<path style="fill:none;stroke:red;stroke-width:1px;stroke-linecap:butt;stroke-linejoin:miter;stroke-opacity:1" d="M 604.978,569.175 445.925,529.915 z" id="boundary" inkscape:connector-curvature="0" />
	<path style="fill:none;stroke:red;stroke-width:1px;stroke-linecap:butt;stroke-linejoin:miter;stroke-opacity:1" d="M 786.177,65.8433 815.37,62.8233 z" id="boundary" inkscape:connector-curvature="0" />
	<path style="fill:none;stroke:red;stroke-width:1px;stroke-linecap:butt;stroke-linejoin:miter;stroke-opacity:1" d="M 815.37,62.8233 838.524,60.81 z" id="boundary" inkscape:connector-curvature="0" />
	<path style="fill:none;stroke:red;stroke-width:1px;stroke-linecap:butt;stroke-linejoin:miter;stroke-opacity:1" d="M 838.524,60.81 851.61,27.5901 z" id="boundary" inkscape:connector-curvature="0" />
	<path style="fill:none;stroke:red;stroke-width:1px;stroke-linecap:butt;stroke-linejoin:miter;stroke-opacity:1" d="M 8.02665,27.5901 4,46.7167 z" id="boundary" inkscape:connector-curvature="0" />
	<path style="fill:none;stroke:red;stroke-width:1px;stroke-linecap:butt;stroke-linejoin:miter;stroke-opacity:1" d="M 8.02665,27.5901 29.1379,25.2137 z" id="boundary" inkscape:connector-curvature="0" />
	<path style="fill:none;stroke:red;stroke-width:1px;stroke-linecap:butt;stroke-linejoin:miter;stroke-opacity:1" d="M 4,46.7167 11.0466,67.8566 z" id="boundary" inkscape:connector-curvature="0" />
	<path style="fill:none;stroke:red;stroke-width:1px;stroke-linecap:butt;stroke-linejoin:miter;stroke-opacity:1" d="M 849.597,4.43685 851.61,27.5901 z" id="boundary" inkscape:connector-curvature="0" />
	<path style="fill:none;stroke:red;stroke-width:1px;stroke-linecap:butt;stroke-linejoin:miter;stroke-opacity:1" d="M 849.597,4.43685 815.37,8.4635 z" id="boundary" inkscape:connector-curvature="0" />
	<path style="fill:none;stroke:red;stroke-width:1px;stroke-linecap:butt;stroke-linejoin:miter;stroke-opacity:1" d="M 29.1379,25.2137 58.3721,23.9163 z" id="boundary" inkscape:connector-curvature="0" />
	<path style="fill:none;stroke:red;stroke-width:1px;stroke-linecap:butt;stroke-linejoin:miter;stroke-opacity:1" d="M 58.3721,23.9163 89.5664,23.5643 z" id="boundary" inkscape:connector-curvature="0" />
	<path style="fill:none;stroke:red;stroke-width:1px;stroke-linecap:butt;stroke-linejoin:miter;stroke-opacity:1" d="M 89.5664,23.5643 114.688,23.5335 z" id="boundary" inkscape:connector-curvature="0" />
	<path style="fill:none;stroke:red;stroke-width:1px;stroke-linecap:butt;stroke-linejoin:miter;stroke-opacity:1" d="M 114.688,23.5335 134.169,23.3326 z" id="boundary" inkscape:connector-curvature="0" />
	<path style="fill:none;stroke:red;stroke-width:1px;stroke-linecap:butt;stroke-linejoin:miter;stroke-opacity:1" d="M 134.169,23.3326 173.691,23.9402 z" id="boundary" inkscape:connector-curvature="0" />
	<path style="fill:none;stroke:red;stroke-width:1px;stroke-linecap:butt;stroke-linejoin:miter;stroke-opacity:1" d="M 173.691,23.9402 198.286,23.5635 z" id="boundary" inkscape:connector-curvature="0" />
	<path style="fill:none;stroke:red;stroke-width:1px;stroke-linecap:butt;stroke-linejoin:miter;stroke-opacity:1" d="M 198.286,23.5635 217.413,21.5501 z" id="boundary" inkscape:connector-curvature="0" />
	<path style="fill:none;stroke:red;stroke-width:1px;stroke-linecap:butt;stroke-linejoin:miter;stroke-opacity:1" d="M 217.413,21.5501 242.579,21.5501 z" id="boundary" inkscape:connector-curvature="0" />
	<path style="fill:none;stroke:red;stroke-width:1px;stroke-linecap:butt;stroke-linejoin:miter;stroke-opacity:1" d="M 242.579,21.5501 269.759,19.5368 z" id="boundary" inkscape:connector-curvature="0" />
	<path style="fill:none;stroke:red;stroke-width:1px;stroke-linecap:butt;stroke-linejoin:miter;stroke-opacity:1" d="M 269.759,19.5368 290.081,18.3308 z" id="boundary" inkscape:connector-curvature="0" />
	<path style="fill:none;stroke:red;stroke-width:1px;stroke-linecap:butt;stroke-linejoin:miter;stroke-opacity:1" d="M 290.081,18.3308 323.514,20.4912 z" id="boundary" inkscape:connector-curvature="0" />
	<path style="fill:none;stroke:red;stroke-width:1px;stroke-linecap:butt;stroke-linejoin:miter;stroke-opacity:1" d="M 323.514,20.4912 347.272,19.5368 z" id="boundary" inkscape:connector-curvature="0" />
	<path style="fill:none;stroke:red;stroke-width:1px;stroke-linecap:butt;stroke-linejoin:miter;stroke-opacity:1" d="M 347.272,19.5368 378.479,17.5235 z" id="boundary" inkscape:connector-curvature="0" />
	<path style="fill:none;stroke:red;stroke-width:1px;stroke-linecap:butt;stroke-linejoin:miter;stroke-opacity:1" d="M 378.479,17.5235 392.009,4 z" id="boundary" inkscape:connector-curvature="0" />
	<path style="fill:none;stroke:red;stroke-width:1px;stroke-linecap:butt;stroke-linejoin:miter;stroke-opacity:1" d="M 392.009,4 440.892,17.5235 z" id="boundary" inkscape:connector-curvature="0" />
	<path style="fill:none;stroke:red;stroke-width:1px;stroke-linecap:butt;stroke-linejoin:miter;stroke-opacity:1" d="M 440.892,17.5235 454.595,43.3858 z" id="boundary" inkscape:connector-curvature="0" />
	<path style="fill:none;stroke:red;stroke-width:1px;stroke-linecap:butt;stroke-linejoin:miter;stroke-opacity:1" d="M 475.118,17.5235 502.146,17.3062 z" id="boundary" inkscape:connector-curvature="0" />
	<path style="fill:none;stroke:red;stroke-width:1px;stroke-linecap:butt;stroke-linejoin:miter;stroke-opacity:1" d="M 475.118,17.5235 454.595,43.3858 z" id="boundary" inkscape:connector-curvature="0" />
	<path style="fill:none;stroke:red;stroke-width:1px;stroke-linecap:butt;stroke-linejoin:miter;stroke-opacity:1" d="M 502.146,17.3062 531.485,17.3417 z" id="boundary" inkscape:connector-curvature="0" />
	<path style="fill:none;stroke:red;stroke-width:1px;stroke-linecap:butt;stroke-linejoin:miter;stroke-opacity:1" d="M 531.485,17.3417 564.702,15.3479 z" id="boundary" inkscape:connector-curvature="0" />
	<path style="fill:none;stroke:red;stroke-width:1px;stroke-linecap:butt;stroke-linejoin:miter;stroke-opacity:1" d="M 564.702,15.3479 599.951,13.7093 z" id="boundary" inkscape:connector-curvature="0" />
	<path style="fill:none;stroke:red;stroke-width:1px;stroke-linecap:butt;stroke-linejoin:miter;stroke-opacity:1" d="M 599.951,13.7093 652.324,14.3526 z" id="boundary" inkscape:connector-curvature="0" />
	<path style="fill:none;stroke:red;stroke-width:1px;stroke-linecap:butt;stroke-linejoin:miter;stroke-opacity:1" d="M 652.324,14.3526 682.944,22.6 z" id="boundary" inkscape:connector-curvature="0" />
	<path style="fill:none;stroke:red;stroke-width:1px;stroke-linecap:butt;stroke-linejoin:miter;stroke-opacity:1" d="M 682.944,22.6 720.041,34.251 z" id="boundary" inkscape:connector-curvature="0" />
	<path style="fill:none;stroke:red;stroke-width:1px;stroke-linecap:butt;stroke-linejoin:miter;stroke-opacity:1" d="M 720.041,34.251 410.713,398.639 z" id="boundary" inkscape:connector-curvature="0" />
	<path style="fill:none;stroke:red;stroke-width:1px;stroke-linecap:butt;stroke-linejoin:miter;stroke-opacity:1" d="M 211.373,115.17 198.286,130.27 z" id="boundary" inkscape:connector-curvature="0" />
	<path style="fill:none;stroke:red;stroke-width:1px;stroke-linecap:butt;stroke-linejoin:miter;stroke-opacity:1" d="M 211.373,115.17 228.852,114.939 z" id="boundary" inkscape:connector-curvature="0" />
	<path style="fill:none;stroke:red;stroke-width:1px;stroke-linecap:butt;stroke-linejoin:miter;stroke-opacity:1" d="M 244.592,115.17 271.772,116.176 z" id="boundary" inkscape:connector-curvature="0" />
	<path style="fill:none;stroke:red;stroke-width:1px;stroke-linecap:butt;stroke-linejoin:miter;stroke-opacity:1" d="M 244.592,115.17 228.852,114.939 z" id="boundary" inkscape:connector-curvature="0" />
	<path style="fill:none;stroke:red;stroke-width:1px;stroke-linecap:butt;stroke-linejoin:miter;stroke-opacity:1" d="M 271.772,116.176 304.992,116.176 z" id="boundary" inkscape:connector-curvature="0" />
	<path style="fill:none;stroke:red;stroke-width:1px;stroke-linecap:butt;stroke-linejoin:miter;stroke-opacity:1" d="M 304.992,116.176 330.159,115.17 z" id="boundary" inkscape:connector-curvature="0" />
	<path style="fill:none;stroke:red;stroke-width:1px;stroke-linecap:butt;stroke-linejoin:miter;stroke-opacity:1" d="M 330.159,115.17 357.339,113.156 z" id="boundary" inkscape:connector-curvature="0" />
	<path style="fill:none;stroke:red;stroke-width:1px;stroke-linecap:butt;stroke-linejoin:miter;stroke-opacity:1" d="M 357.339,113.156 374.452,113.156 z" id="boundary" inkscape:connector-curvature="0" />
	<path style="fill:none;stroke:red;stroke-width:1px;stroke-linecap:butt;stroke-linejoin:miter;stroke-opacity:1" d="M 374.452,113.156 399.619,113.156 z" id="boundary" inkscape:connector-curvature="0" />
	<path style="fill:none;stroke:red;stroke-width:1px;stroke-linecap:butt;stroke-linejoin:miter;stroke-opacity:1" d="M 399.619,113.156 424.785,111.143 z" id="boundary" inkscape:connector-curvature="0" />
	<path style="fill:none;stroke:red;stroke-width:1px;stroke-linecap:butt;stroke-linejoin:miter;stroke-opacity:1" d="M 424.785,111.143 449.839,89.7667 z" id="boundary" inkscape:connector-curvature="0" />
	<path style="fill:none;stroke:red;stroke-width:1px;stroke-linecap:butt;stroke-linejoin:miter;stroke-opacity:1" d="M 460.018,111.143 483.172,111.143 z" id="boundary" inkscape:connector-curvature="0" />
	<path style="fill:none;stroke:red;stroke-width:1px;stroke-linecap:butt;stroke-linejoin:miter;stroke-opacity:1" d="M 460.018,111.143 449.839,89.7667 z" id="boundary" inkscape:connector-curvature="0" />
	<path style="fill:none;stroke:red;stroke-width:1px;stroke-linecap:butt;stroke-linejoin:miter;stroke-opacity:1" d="M 483.172,111.143 508.338,111.143 z" id="boundary" inkscape:connector-curvature="0" />
	<path style="fill:none;stroke:red;stroke-width:1px;stroke-linecap:butt;stroke-linejoin:miter;stroke-opacity:1" d="M 508.338,111.143 535.518,111.143 z" id="boundary" inkscape:connector-curvature="0" />
	<path style="fill:none;stroke:red;stroke-width:1px;stroke-linecap:butt;stroke-linejoin:miter;stroke-opacity:1" d="M 535.518,111.143 564.711,111.143 z" id="boundary" inkscape:connector-curvature="0" />
	<path style="fill:none;stroke:red;stroke-width:1px;stroke-linecap:butt;stroke-linejoin:miter;stroke-opacity:1" d="M 564.711,111.143 640.211,163.49 z" id="boundary" inkscape:connector-curvature="0" />
	<path style="fill:none;stroke:red;stroke-width:1px;stroke-linecap:butt;stroke-linejoin:miter;stroke-opacity:1" d="M 310.026,184.63 330.159,194.696 z" id="boundary" inkscape:connector-curvature="0" />
	<path style="fill:none;stroke:red;stroke-width:1px;stroke-linecap:butt;stroke-linejoin:miter;stroke-opacity:1" d="M 310.026,184.63 316.066,226.909 z" id="boundary" inkscape:connector-curvature="0" />
	<path style="fill:none;stroke:red;stroke-width:1px;stroke-linecap:butt;stroke-linejoin:miter;stroke-opacity:1" d="M 330.159,194.696 353.312,207.783 z" id="boundary" inkscape:connector-curvature="0" />
	<path style="fill:none;stroke:red;stroke-width:1px;stroke-linecap:butt;stroke-linejoin:miter;stroke-opacity:1" d="M 353.312,207.783 382.91,228.636 z" id="boundary" inkscape:connector-curvature="0" />
	<path style="fill:none;stroke:red;stroke-width:1px;stroke-linecap:butt;stroke-linejoin:miter;stroke-opacity:1" d="M 401.632,228.923 432.838,226.909 z" id="boundary" inkscape:connector-curvature="0" />
	<path style="fill:none;stroke:red;stroke-width:1px;stroke-linecap:butt;stroke-linejoin:miter;stroke-opacity:1" d="M 401.632,228.923 382.91,228.636 z" id="boundary" inkscape:connector-curvature="0" />
	<path style="fill:none;stroke:red;stroke-width:1px;stroke-linecap:butt;stroke-linejoin:miter;stroke-opacity:1" d="M 432.838,226.909 449.952,217.849 z" id="boundary" inkscape:connector-curvature="0" />
	<path style="fill:none;stroke:red;stroke-width:1px;stroke-linecap:butt;stroke-linejoin:miter;stroke-opacity:1" d="M 449.952,217.849 499.418,246.788 z" id="boundary" inkscape:connector-curvature="0" />
	<path style="fill:none;stroke:red;stroke-width:1px;stroke-linecap:butt;stroke-linejoin:miter;stroke-opacity:1" d="M 247.583,379.544 277.812,392.002 z" id="boundary" inkscape:connector-curvature="0" />
	<path style="fill:none;stroke:red;stroke-width:1px;stroke-linecap:butt;stroke-linejoin:miter;stroke-opacity:1" d="M 277.812,392.002 302.126,384.387 z" id="boundary" inkscape:connector-curvature="0" />
	<path style="fill:none;stroke:red;stroke-width:1px;stroke-linecap:butt;stroke-linejoin:miter;stroke-opacity:1" d="M 302.126,384.387 354.221,368.798 z" id="boundary" inkscape:connector-curvature="0" />
	<path style="fill:none;stroke:red;stroke-width:1px;stroke-linecap:butt;stroke-linejoin:miter;stroke-opacity:1" d="M 354.221,368.798 385.387,381.414 z" id="boundary" inkscape:connector-curvature="0" />
	<path style="fill:none;stroke:red;stroke-width:1px;stroke-linecap:butt;stroke-linejoin:miter;stroke-opacity:1" d="M 385.387,381.414 410.713,398.639 z" id="boundary" inkscape:connector-curvature="0" />
	<path style="fill:none;stroke:red;stroke-width:1px;stroke-linecap:butt;stroke-linejoin:miter;stroke-opacity:1" d="M 508.338,498.708 541.558,385.962 z" id="boundary" inkscape:connector-curvature="0" />
	<path style="fill:none;stroke:red;stroke-width:1px;stroke-linecap:butt;stroke-linejoin:miter;stroke-opacity:1" d="M 508.338,498.708 487.198,527.902 z" id="boundary" inkscape:connector-curvature="0" />
	<path style="fill:none;stroke:red;stroke-width:1px;stroke-linecap:butt;stroke-linejoin:miter;stroke-opacity:1" d="M 529.478,217.849 575.785,196.71 z" id="boundary" inkscape:connector-curvature="0" />
	<path style="fill:none;stroke:red;stroke-width:1px;stroke-linecap:butt;stroke-linejoin:miter;stroke-opacity:1" d="M 529.478,217.849 499.418,246.788 z" id="boundary" inkscape:connector-curvature="0" />
	<path style="fill:none;stroke:red;stroke-width:1px;stroke-linecap:butt;stroke-linejoin:miter;stroke-opacity:1" d="M 575.785,196.71 593.905,180.603 z" id="boundary" inkscape:connector-curvature="0" />
	<path style="fill:none;stroke:red;stroke-width:1px;stroke-linecap:butt;stroke-linejoin:miter;stroke-opacity:1" d="M 593.905,180.603 640.211,163.49 z" id="boundary" inkscape:connector-curvature="0" />
	<path style="fill:none;stroke:red;stroke-width:1px;stroke-linecap:butt;stroke-linejoin:miter;stroke-opacity:1" d="M 322.106,625.548 360.359,625.548 z" id="boundary" inkscape:connector-curvature="0" />
	<path style="fill:none;stroke:red;stroke-width:1px;stroke-linecap:butt;stroke-linejoin:miter;stroke-opacity:1" d="M 360.359,625.548 382.505,626.555 z" id="boundary" inkscape:connector-curvature="0" />
	<path style="fill:none;stroke:red;stroke-width:1px;stroke-linecap:butt;stroke-linejoin:miter;stroke-opacity:1" d="M 382.505,626.555 384.519,644.675 z" id="boundary" inkscape:connector-curvature="0" />
	<path style="fill:none;stroke:red;stroke-width:1px;stroke-linecap:butt;stroke-linejoin:miter;stroke-opacity:1" d="M 384.519,644.675 382.505,663.801 z" id="boundary" inkscape:connector-curvature="0" />
	<path style="fill:none;stroke:red;stroke-width:1px;stroke-linecap:butt;stroke-linejoin:miter;stroke-opacity:1" d="M 382.505,663.801 382.505,680.914 z" id="boundary" inkscape:connector-curvature="0" />
	<path style="fill:none;stroke:red;stroke-width:1px;stroke-linecap:butt;stroke-linejoin:miter;stroke-opacity:1" d="M 378.479,764.467 399.619,768.494 z" id="boundary" inkscape:connector-curvature="0" />
	<path style="fill:none;stroke:red;stroke-width:1px;stroke-linecap:butt;stroke-linejoin:miter;stroke-opacity:1" d="M 399.619,768.494 424.785,768.494 z" id="boundary" inkscape:connector-curvature="0" />
	<path style="fill:none;stroke:red;stroke-width:1px;stroke-linecap:butt;stroke-linejoin:miter;stroke-opacity:1" d="M 424.785,768.494 450.474,767.855 z" id="boundary" inkscape:connector-curvature="0" />
	<path style="fill:none;stroke:red;stroke-width:1px;stroke-linecap:butt;stroke-linejoin:miter;stroke-opacity:1" d="M 455.992,686.954 438.43,666.527 z" id="boundary" inkscape:connector-curvature="0" />
	<path style="fill:none;stroke:red;stroke-width:1px;stroke-linecap:butt;stroke-linejoin:miter;stroke-opacity:1" d="M 458.005,626.555 491.225,621.521 z" id="boundary" inkscape:connector-curvature="0" />
	<path style="fill:none;stroke:red;stroke-width:1px;stroke-linecap:butt;stroke-linejoin:miter;stroke-opacity:1" d="M 458.005,626.555 438.43,666.527 z" id="boundary" inkscape:connector-curvature="0" />
	<path style="fill:none;stroke:red;stroke-width:1px;stroke-linecap:butt;stroke-linejoin:miter;stroke-opacity:1" d="M 491.225,621.521 539.545,626.555 z" id="boundary" inkscape:connector-curvature="0" />
	<path style="fill:none;stroke:red;stroke-width:1px;stroke-linecap:butt;stroke-linejoin:miter;stroke-opacity:1" d="M 445.925,529.915 487.198,527.902 z" id="boundary" inkscape:connector-curvature="0" />
	<path style="fill:none;stroke:red;stroke-width:1px;stroke-linecap:butt;stroke-linejoin:miter;stroke-opacity:1" d="M 239.445,553.733 230.029,539.643 z" id="boundary" inkscape:connector-curvature="0" />
	<path style="fill:none;stroke:red;stroke-width:1px;stroke-linecap:butt;stroke-linejoin:miter;stroke-opacity:1" d="M 120.319,801.829 198.076,890.272 z" id="boundary" inkscape:connector-curvature="0" />
	<path style="fill:none;stroke:red;stroke-width:1px;stroke-linecap:butt;stroke-linejoin:miter;stroke-opacity:1" d="M 120.319,801.829 110.354,791.213 z" id="boundary" inkscape:connector-curvature="0" />
	<path style="fill:none;stroke:red;stroke-width:1px;stroke-linecap:butt;stroke-linejoin:miter;stroke-opacity:1" d="M 63.1253,945.755 205.969,966.882 z" id="boundary" inkscape:connector-curvature="0" />
	<path style="fill:none;stroke:red;stroke-width:1px;stroke-linecap:butt;stroke-linejoin:miter;stroke-opacity:1" d="M 166.922,662.068 143.094,743.222 z" id="boundary" inkscape:connector-curvature="0" />
	<path style="fill:none;stroke:red;stroke-width:1px;stroke-linecap:butt;stroke-linejoin:miter;stroke-opacity:1" d="M 205.969,966.882 198.076,890.272 z" id="boundary" inkscape:connector-curvature="0" />
	<path style="fill:none;stroke:red;stroke-width:1px;stroke-linecap:butt;stroke-linejoin:miter;stroke-opacity:1" d="M 110.354,791.213 143.094,743.222 z" id="boundary" inkscape:connector-curvature="0" />
	<circle cx="23.1266" cy="91.0099" r="4" fill="#0" id="circle0"/>
	<circle cx="50.3065" cy="90.0032" r="4" fill="#0" id="circle1"/>
	<circle cx="79.4997" cy="87.9899" r="4" fill="#0" id="circle2"/>
	<circle cx="108.693" cy="87.9899" r="4" fill="#0" id="circle3"/>
	<circle cx="121.78" cy="113.156" r="4" fill="#0" id="circle4"/>
	<circle cx="125.806" cy="143.356" r="4" fill="#0" id="circle5"/>
	<circle cx="135.873" cy="174.563" r="4" fill="#0" id="circle6"/>
	<circle cx="141.913" cy="197.716" r="4" fill="#0" id="circle7"/>
	<circle cx="145.939" cy="217.849" r="4" fill="#0" id="circle8"/>
	<circle cx="148.959" cy="236.976" r="4" fill="#0" id="circle9"/>
	<circle cx="157.013" cy="258.116" r="4" fill="#0" id="circle10"/>
	<circle cx="163.053" cy="279.256" r="4" fill="#0" id="circle11"/>
	<circle cx="171.106" cy="303.416" r="4" fill="#0" id="circle12"/>
	<circle cx="176.139" cy="324.556" r="4" fill="#0" id="circle13"/>
	<circle cx="182.179" cy="345.696" r="4" fill="#0" id="circle14"/>
	<circle cx="184.193" cy="364.822" r="4" fill="#0" id="circle15"/>
	<circle cx="192.246" cy="384.956" r="4" fill="#0" id="circle16"/>
	<circle cx="194.259" cy="406.095" r="4" fill="#0" id="circle17"/>
	<circle cx="199.293" cy="425.222" r="4" fill="#0" id="circle18"/>
	<circle cx="205.333" cy="444.349" r="4" fill="#0" id="circle19"/>
	<circle cx="211.373" cy="465.489" r="4" fill="#0" id="circle20"/>
	<circle cx="215.399" cy="487.635" r="4" fill="#0" id="circle21"/>
	<circle cx="221.439" cy="510.788" r="4" fill="#0" id="circle22"/>
	<circle cx="226.473" cy="531.928" r="4" fill="#0" id="circle23"/>
	<circle cx="232.513" cy="553.068" r="4" fill="#0" id="circle24"/>
	<circle cx="238.553" cy="576.221" r="4" fill="#0" id="circle25"/>
	<circle cx="246.606" cy="607.428" r="4" fill="#0" id="circle26"/>
	<circle cx="250.632" cy="626.555" r="4" fill="#0" id="circle27"/>
	<circle cx="255.666" cy="648.701" r="4" fill="#0" id="circle28"/>
	<circle cx="261.706" cy="669.841" r="4" fill="#0" id="circle29"/>
	<circle cx="280.832" cy="669.841" r="4" fill="#0" id="circle30"/>
	<circle cx="300.966" cy="667.828" r="4" fill="#0" id="circle31"/>
	<circle cx="320.092" cy="665.815" r="4" fill="#0" id="circle32"/>
	<circle cx="343.245" cy="665.815" r="4" fill="#0" id="circle33"/>
	<circle cx="351.299" cy="684.941" r="4" fill="#0" id="circle34"/>
	<circle cx="349.285" cy="707.088" r="4" fill="#0" id="circle35"/>
	<circle cx="347.272" cy="730.241" r="4" fill="#0" id="circle36"/>
	<circle cx="349.285" cy="751.381" r="4" fill="#0" id="circle37"/>
	<circle cx="349.285" cy="770.507" r="4" fill="#0" id="circle38"/>
	<circle cx="328.146" cy="770.507" r="4" fill="#0" id="circle39"/>
	<circle cx="310.026" cy="772.521" r="4" fill="#0" id="circle40"/>
	<circle cx="288.886" cy="774.534" r="4" fill="#0" id="circle41"/>
	<circle cx="298.952" cy="787.621" r="4" fill="#0" id="circle42"/>
	<circle cx="310.026" cy="797.687" r="4" fill="#0" id="circle43"/>
	<circle cx="324.119" cy="811.781" r="4" fill="#0" id="circle44"/>
	<circle cx="341.232" cy="820.841" r="4" fill="#0" id="circle45"/>
	<circle cx="357.339" cy="838.961" r="4" fill="#0" id="circle46"/>
	<circle cx="376.465" cy="854.061" r="4" fill="#0" id="circle47"/>
	<circle cx="395.592" cy="869.16" r="4" fill="#0" id="circle48"/>
	<circle cx="411.699" cy="885.267" r="4" fill="#0" id="circle49"/>
	<circle cx="449.952" cy="916.474" r="4" fill="#0" id="circle50"/>
	<circle cx="430.825" cy="902.38" r="4" fill="#0" id="circle51"/>
	<circle cx="469.078" cy="931.574" r="4" fill="#0" id="circle52"/>
	<circle cx="487.198" cy="947.68" r="4" fill="#0" id="circle53"/>
	<circle cx="504.312" cy="964.793" r="4" fill="#0" id="circle54"/>
	<circle cx="523.438" cy="977.88" r="4" fill="#0" id="circle55"/>
	<circle cx="543.571" cy="991.973" r="4" fill="#0" id="circle56"/>
	<circle cx="566.725" cy="996" r="4" fill="#0" id="circle57"/>
	<circle cx="589.878" cy="987.947" r="4" fill="#0" id="circle58"/>
	<circle cx="601.958" cy="972.847" r="4" fill="#0" id="circle59"/>
	<circle cx="604.978" cy="948.687" r="4" fill="#0" id="circle60"/>
	<circle cx="599.945" cy="929.56" r="4" fill="#0" id="circle61"/>
	<circle cx="591.891" cy="906.407" r="4" fill="#0" id="circle62"/>
	<circle cx="585.851" cy="883.254" r="4" fill="#0" id="circle63"/>
	<circle cx="579.811" cy="862.114" r="4" fill="#0" id="circle64"/>
	<circle cx="570.751" cy="832.921" r="4" fill="#0" id="circle65"/>
	<circle cx="564.711" cy="807.754" r="4" fill="#0" id="circle66"/>
	<circle cx="558.671" cy="780.574" r="4" fill="#0" id="circle67"/>
	<circle cx="539.545" cy="774.534" r="4" fill="#0" id="circle68"/>
	<circle cx="514.378" cy="774.534" r="4" fill="#0" id="circle69"/>
	<circle cx="496.258" cy="772.521" r="4" fill="#0" id="circle70"/>
	<circle cx="491.225" cy="667.828" r="4" fill="#0" id="circle71"/>
	<circle cx="491.225" cy="690.981" r="4" fill="#0" id="circle72"/>
	<circle cx="489.212" cy="714.134" r="4" fill="#0" id="circle73"/>
	<circle cx="489.212" cy="737.288" r="4" fill="#0" id="circle74"/>
	<circle cx="489.212" cy="753.394" r="4" fill="#0" id="circle75"/>
	<circle cx="514.378" cy="661.788" r="4" fill="#0" id="circle76"/>
	<circle cx="531.491" cy="661.788" r="4" fill="#0" id="circle77"/>
	<circle cx="545.585" cy="659.775" r="4" fill="#0" id="circle78"/>
	<circle cx="558.671" cy="659.775" r="4" fill="#0" id="circle79"/>
	<circle cx="575.785" cy="659.775" r="4" fill="#0" id="circle80"/>
	<circle cx="736.851" cy="69.87" r="4" fill="#0" id="circle81"/>
	<circle cx="727.791" cy="90.0032" r="4" fill="#0" id="circle82"/>
	<circle cx="721.751" cy="115.17" r="4" fill="#0" id="circle83"/>
	<circle cx="715.711" cy="140.336" r="4" fill="#0" id="circle84"/>
	<circle cx="711.684" cy="161.476" r="4" fill="#0" id="circle85"/>
	<circle cx="704.638" cy="182.616" r="4" fill="#0" id="circle86"/>
	<circle cx="698.598" cy="201.743" r="4" fill="#0" id="circle87"/>
	<circle cx="692.558" cy="228.923" r="4" fill="#0" id="circle88"/>
	<circle cx="690.544" cy="249.056" r="4" fill="#0" id="circle89"/>
	<circle cx="682.491" cy="268.183" r="4" fill="#0" id="circle90"/>
	<circle cx="677.458" cy="295.362" r="4" fill="#0" id="circle91"/>
	<circle cx="669.404" cy="316.502" r="4" fill="#0" id="circle92"/>
	<circle cx="663.364" cy="339.656" r="4" fill="#0" id="circle93"/>
	<circle cx="659.338" cy="357.776" r="4" fill="#0" id="circle94"/>
	<circle cx="652.291" cy="378.916" r="4" fill="#0" id="circle95"/>
	<circle cx="648.264" cy="400.055" r="4" fill="#0" id="circle96"/>
	<circle cx="644.238" cy="419.182" r="4" fill="#0" id="circle97"/>
	<circle cx="638.198" cy="440.322" r="4" fill="#0" id="circle98"/>
	<circle cx="632.158" cy="460.455" r="4" fill="#0" id="circle99"/>
	<circle cx="627.124" cy="481.595" r="4" fill="#0" id="circle100"/>
	<circle cx="621.084" cy="504.748" r="4" fill="#0" id="circle101"/>
	<circle cx="617.058" cy="523.875" r="4" fill="#0" id="circle102"/>
	<circle cx="611.018" cy="551.055" r="4" fill="#0" id="circle103"/>
	<circle cx="604.978" cy="569.175" r="4" fill="#0" id="circle104"/>
	<circle cx="601.958" cy="592.328" r="4" fill="#0" id="circle105"/>
	<circle cx="591.891" cy="615.481" r="4" fill="#0" id="circle106"/>
	<circle cx="583.838" cy="640.648" r="4" fill="#0" id="circle107"/>
	<circle cx="763.024" cy="67.8566" r="4" fill="#0" id="circle108"/>
	<circle cx="786.177" cy="65.8433" r="4" fill="#0" id="circle109"/>
	<circle cx="815.37" cy="62.8233" r="4" fill="#0" id="circle110"/>
	<circle cx="838.524" cy="60.81" r="4" fill="#0" id="circle111"/>
	<circle cx="8.02665" cy="27.5901" r="4" fill="#0" id="circle112"/>
	<circle cx="4" cy="46.7167" r="4" fill="#0" id="circle113"/>
	<circle cx="11.0466" cy="67.8566" r="4" fill="#0" id="circle114"/>
	<circle cx="849.597" cy="4.43685" r="4" fill="#0" id="circle115"/>
	<circle cx="851.61" cy="27.5901" r="4" fill="#0" id="circle116"/>
	<circle cx="29.1379" cy="25.2137" r="4" fill="#0" id="circle117"/>
	<circle cx="58.3721" cy="23.9163" r="4" fill="#0" id="circle118"/>
	<circle cx="89.5664" cy="23.5643" r="4" fill="#0" id="circle119"/>
	<circle cx="114.688" cy="23.5335" r="4" fill="#0" id="circle120"/>
	<circle cx="134.169" cy="23.3326" r="4" fill="#0" id="circle121"/>
	<circle cx="173.691" cy="23.9402" r="4" fill="#0" id="circle122"/>
	<circle cx="198.286" cy="23.5635" r="4" fill="#0" id="circle123"/>
	<circle cx="217.413" cy="21.5501" r="4" fill="#0" id="circle124"/>
	<circle cx="242.579" cy="21.5501" r="4" fill="#0" id="circle125"/>
	<circle cx="269.759" cy="19.5368" r="4" fill="#0" id="circle126"/>
	<circle cx="290.081" cy="18.3308" r="4" fill="#0" id="circle127"/>
	<circle cx="323.514" cy="20.4912" r="4" fill="#0" id="circle128"/>
	<circle cx="347.272" cy="19.5368" r="4" fill="#0" id="circle129"/>
	<circle cx="378.479" cy="17.5235" r="4" fill="#0" id="circle130"/>
	<circle cx="392.009" cy="4" r="4" fill="#0" id="circle131"/>
	<circle cx="440.892" cy="17.5235" r="4" fill="#0" id="circle132"/>
	<circle cx="475.118" cy="17.5235" r="4" fill="#0" id="circle133"/>
	<circle cx="502.146" cy="17.3062" r="4" fill="#0" id="circle134"/>
	<circle cx="531.485" cy="17.3417" r="4" fill="#0" id="circle135"/>
	<circle cx="564.702" cy="15.3479" r="4" fill="#0" id="circle136"/>
	<circle cx="599.951" cy="13.7093" r="4" fill="#0" id="circle137"/>
	<circle cx="621.084" cy="13.4968" r="4" fill="#0" id="circle138"/>
	<circle cx="652.324" cy="14.3526" r="4" fill="#0" id="circle139"/>
	<circle cx="682.944" cy="22.6" r="4" fill="#0" id="circle140"/>
	<circle cx="715.711" cy="9.47017" r="4" fill="#0" id="circle141"/>
	<circle cx="720.041" cy="34.251" r="4" fill="#0" id="circle142"/>
	<circle cx="784.164" cy="8.4635" r="4" fill="#0" id="circle143"/>
	<circle cx="815.37" cy="8.4635" r="4" fill="#0" id="circle144"/>
	<circle cx="186.206" cy="120.203" r="4" fill="#0" id="circle145"/>
	<circle cx="211.373" cy="115.17" r="4" fill="#0" id="circle146"/>
	<circle cx="244.592" cy="115.17" r="4" fill="#0" id="circle147"/>
	<circle cx="271.772" cy="116.176" r="4" fill="#0" id="circle148"/>
	<circle cx="304.992" cy="116.176" r="4" fill="#0" id="circle149"/>
	<circle cx="330.159" cy="115.17" r="4" fill="#0" id="circle150"/>
	<circle cx="357.339" cy="113.156" r="4" fill="#0" id="circle151"/>
	<circle cx="374.452" cy="113.156" r="4" fill="#0" id="circle152"/>
	<circle cx="399.619" cy="113.156" r="4" fill="#0" id="circle153"/>
	<circle cx="424.785" cy="111.143" r="4" fill="#0" id="circle154"/>
	<circle cx="460.018" cy="111.143" r="4" fill="#0" id="circle155"/>
	<circle cx="483.172" cy="111.143" r="4" fill="#0" id="circle156"/>
	<circle cx="508.338" cy="111.143" r="4" fill="#0" id="circle157"/>
	<circle cx="535.518" cy="111.143" r="4" fill="#0" id="circle158"/>
	<circle cx="564.711" cy="111.143" r="4" fill="#0" id="circle159"/>
	<circle cx="585.851" cy="109.13" r="4" fill="#0" id="circle160"/>
	<circle cx="611.018" cy="109.13" r="4" fill="#0" id="circle161"/>
	<circle cx="630.144" cy="107.116" r="4" fill="#0" id="circle162"/>
	<circle cx="652.291" cy="109.13" r="4" fill="#0" id="circle163"/>
	<circle cx="644.238" cy="120.203" r="4" fill="#0" id="circle164"/>
	<circle cx="625.111" cy="130.27" r="4" fill="#0" id="circle165"/>
	<circle cx="606.991" cy="140.336" r="4" fill="#0" id="circle166"/>
	<circle cx="587.865" cy="149.396" r="4" fill="#0" id="circle167"/>
	<circle cx="566.725" cy="159.463" r="4" fill="#0" id="circle168"/>
	<circle cx="198.286" cy="130.27" r="4" fill="#0" id="circle169"/>
	<circle cx="217.413" cy="140.336" r="4" fill="#0" id="circle170"/>
	<circle cx="238.553" cy="147.383" r="4" fill="#0" id="circle171"/>
	<circle cx="261.706" cy="157.45" r="4" fill="#0" id="circle172"/>
	<circle cx="286.872" cy="172.55" r="4" fill="#0" id="circle173"/>
	<circle cx="310.026" cy="184.63" r="4" fill="#0" id="circle174"/>
	<circle cx="330.159" cy="194.696" r="4" fill="#0" id="circle175"/>
	<circle cx="353.312" cy="207.783" r="4" fill="#0" id="circle176"/>
	<circle cx="378.479" cy="219.863" r="4" fill="#0" id="circle177"/>
	<circle cx="401.632" cy="228.923" r="4" fill="#0" id="circle178"/>
	<circle cx="416.732" cy="234.963" r="4" fill="#0" id="circle179"/>
	<circle cx="432.838" cy="226.909" r="4" fill="#0" id="circle180"/>
	<circle cx="449.952" cy="217.849" r="4" fill="#0" id="circle181"/>
	<circle cx="467.065" cy="209.796" r="4" fill="#0" id="circle182"/>
	<circle cx="489.212" cy="196.71" r="4" fill="#0" id="circle183"/>
	<circle cx="508.338" cy="186.643" r="4" fill="#0" id="circle184"/>
	<circle cx="529.478" cy="174.563" r="4" fill="#0" id="circle185"/>
	<circle cx="547.598" cy="167.516" r="4" fill="#0" id="circle186"/>
	<circle cx="163.053" cy="153.423" r="4" fill="#0" id="circle187"/>
	<circle cx="163.053" cy="172.55" r="4" fill="#0" id="circle188"/>
	<circle cx="184.193" cy="161.476" r="4" fill="#0" id="circle189"/>
	<circle cx="209.359" cy="170.536" r="4" fill="#0" id="circle190"/>
	<circle cx="228.486" cy="180.603" r="4" fill="#0" id="circle191"/>
	<circle cx="246.606" cy="192.683" r="4" fill="#0" id="circle192"/>
	<circle cx="269.759" cy="203.756" r="4" fill="#0" id="circle193"/>
	<circle cx="294.926" cy="215.836" r="4" fill="#0" id="circle194"/>
	<circle cx="316.066" cy="226.909" r="4" fill="#0" id="circle195"/>
	<circle cx="339.219" cy="238.989" r="4" fill="#0" id="circle196"/>
	<circle cx="366.399" cy="256.103" r="4" fill="#0" id="circle197"/>
	<circle cx="339.219" cy="272.209" r="4" fill="#0" id="circle198"/>
	<circle cx="314.052" cy="285.296" r="4" fill="#0" id="circle199"/>
	<circle cx="292.912" cy="297.376" r="4" fill="#0" id="circle200"/>
	<circle cx="271.772" cy="310.462" r="4" fill="#0" id="circle201"/>
	<circle cx="248.619" cy="318.516" r="4" fill="#0" id="circle202"/>
	<circle cx="221.439" cy="333.616" r="4" fill="#0" id="circle203"/>
	<circle cx="207.346" cy="310.462" r="4" fill="#0" id="circle204"/>
	<circle cx="169.093" cy="192.683" r="4" fill="#0" id="circle205"/>
	<circle cx="178.153" cy="213.823" r="4" fill="#0" id="circle206"/>
	<circle cx="184.193" cy="230.936" r="4" fill="#0" id="circle207"/>
	<circle cx="190.233" cy="254.089" r="4" fill="#0" id="circle208"/>
	<circle cx="196.273" cy="279.256" r="4" fill="#0" id="circle209"/>
	<circle cx="263.719" cy="357.776" r="4" fill="#0" id="circle210"/>
	<circle cx="286.872" cy="337.642" r="4" fill="#0" id="circle211"/>
	<circle cx="296.939" cy="364.822" r="4" fill="#0" id="circle212"/>
	<circle cx="310.026" cy="328.582" r="4" fill="#0" id="circle213"/>
	<circle cx="335.192" cy="318.516" r="4" fill="#0" id="circle214"/>
	<circle cx="359.352" cy="306.436" r="4" fill="#0" id="circle215"/>
	<circle cx="386.532" cy="289.323" r="4" fill="#0" id="circle216"/>
	<circle cx="414.719" cy="272.209" r="4" fill="#0" id="circle217"/>
	<circle cx="438.878" cy="283.283" r="4" fill="#0" id="circle218"/>
	<circle cx="466.058" cy="293.349" r="4" fill="#0" id="circle219"/>
	<circle cx="485.185" cy="304.422" r="4" fill="#0" id="circle220"/>
	<circle cx="514.378" cy="318.516" r="4" fill="#0" id="circle221"/>
	<circle cx="535.518" cy="330.596" r="4" fill="#0" id="circle222"/>
	<circle cx="552.631" cy="335.629" r="4" fill="#0" id="circle223"/>
	<circle cx="577.798" cy="353.749" r="4" fill="#0" id="circle224"/>
	<circle cx="541.558" cy="362.809" r="4" fill="#0" id="circle225"/>
	<circle cx="332.172" cy="360.796" r="4" fill="#0" id="circle226"/>
	<circle cx="357.339" cy="360.796" r="4" fill="#0" id="circle227"/>
	<circle cx="386.532" cy="362.809" r="4" fill="#0" id="circle228"/>
	<circle cx="409.685" cy="362.809" r="4" fill="#0" id="circle229"/>
	<circle cx="438.878" cy="364.822" r="4" fill="#0" id="circle230"/>
	<circle cx="460.018" cy="362.809" r="4" fill="#0" id="circle231"/>
	<circle cx="483.172" cy="362.809" r="4" fill="#0" id="circle232"/>
	<circle cx="500.285" cy="362.809" r="4" fill="#0" id="circle233"/>
	<circle cx="520.418" cy="362.809" r="4" fill="#0" id="circle234"/>
	<circle cx="226.473" cy="396.029" r="4" fill="#0" id="circle235"/>
	<circle cx="247.583" cy="379.544" r="4" fill="#0" id="circle236"/>
	<circle cx="277.812" cy="392.002" r="4" fill="#0" id="circle237"/>
	<circle cx="302.126" cy="384.387" r="4" fill="#0" id="circle238"/>
	<circle cx="326.132" cy="389.989" r="4" fill="#0" id="circle239"/>
	<circle cx="354.221" cy="368.798" r="4" fill="#0" id="circle240"/>
	<circle cx="385.387" cy="381.414" r="4" fill="#0" id="circle241"/>
	<circle cx="405.659" cy="392.002" r="4" fill="#0" id="circle242"/>
	<circle cx="410.713" cy="398.639" r="4" fill="#0" id="circle243"/>
	<circle cx="403.645" cy="427.235" r="4" fill="#0" id="circle244"/>
	<circle cx="403.645" cy="448.375" r="4" fill="#0" id="circle245"/>
	<circle cx="403.645" cy="469.515" r="4" fill="#0" id="circle246"/>
	<circle cx="403.645" cy="491.662" r="4" fill="#0" id="circle247"/>
	<circle cx="257.679" cy="500.722" r="4" fill="#0" id="circle248"/>
	<circle cx="282.846" cy="500.722" r="4" fill="#0" id="circle249"/>
	<circle cx="310.026" cy="500.722" r="4" fill="#0" id="circle250"/>
	<circle cx="335.192" cy="500.722" r="4" fill="#0" id="circle251"/>
	<circle cx="360.359" cy="498.708" r="4" fill="#0" id="circle252"/>
	<circle cx="386.532" cy="498.708" r="4" fill="#0" id="circle253"/>
	<circle cx="230.499" cy="415.155" r="4" fill="#0" id="circle254"/>
	<circle cx="242.579" cy="458.442" r="4" fill="#0" id="circle255"/>
	<circle cx="236.539" cy="435.289" r="4" fill="#0" id="circle256"/>
	<circle cx="248.619" cy="479.582" r="4" fill="#0" id="circle257"/>
	<circle cx="436.865" cy="392.002" r="4" fill="#0" id="circle258"/>
	<circle cx="436.865" cy="412.135" r="4" fill="#0" id="circle259"/>
	<circle cx="436.865" cy="431.262" r="4" fill="#0" id="circle260"/>
	<circle cx="438.878" cy="452.402" r="4" fill="#0" id="circle261"/>
	<circle cx="438.878" cy="469.515" r="4" fill="#0" id="circle262"/>
	<circle cx="436.865" cy="491.662" r="4" fill="#0" id="circle263"/>
	<circle cx="451.965" cy="498.708" r="4" fill="#0" id="circle264"/>
	<circle cx="467.065" cy="498.708" r="4" fill="#0" id="circle265"/>
	<circle cx="508.338" cy="498.708" r="4" fill="#0" id="circle266"/>
	<circle cx="487.198" cy="498.708" r="4" fill="#0" id="circle267"/>
	<circle cx="545.585" cy="498.708" r="4" fill="#0" id="circle268"/>
	<circle cx="562.698" cy="500.722" r="4" fill="#0" id="circle269"/>
	<circle cx="585.851" cy="504.748" r="4" fill="#0" id="circle270"/>
	<circle cx="455.992" cy="394.015" r="4" fill="#0" id="circle271"/>
	<circle cx="479.145" cy="394.015" r="4" fill="#0" id="circle272"/>
	<circle cx="498.272" cy="392.002" r="4" fill="#0" id="circle273"/>
	<circle cx="520.418" cy="389.989" r="4" fill="#0" id="circle274"/>
	<circle cx="541.558" cy="385.962" r="4" fill="#0" id="circle275"/>
	<circle cx="560.685" cy="387.975" r="4" fill="#0" id="circle276"/>
	<circle cx="585.851" cy="385.962" r="4" fill="#0" id="circle277"/>
	<circle cx="611.018" cy="384.956" r="4" fill="#0" id="circle278"/>
	<circle cx="613.031" cy="406.095" r="4" fill="#0" id="circle279"/>
	<circle cx="604.978" cy="427.235" r="4" fill="#0" id="circle280"/>
	<circle cx="599.945" cy="450.389" r="4" fill="#0" id="circle281"/>
	<circle cx="593.905" cy="471.529" r="4" fill="#0" id="circle282"/>
	<circle cx="591.891" cy="491.662" r="4" fill="#0" id="circle283"/>
	<circle cx="475.118" cy="252.076" r="4" fill="#0" id="circle284"/>
	<circle cx="491.225" cy="266.169" r="4" fill="#0" id="circle285"/>
	<circle cx="493.238" cy="241.003" r="4" fill="#0" id="circle286"/>
	<circle cx="512.365" cy="226.909" r="4" fill="#0" id="circle287"/>
	<circle cx="529.478" cy="217.849" r="4" fill="#0" id="circle288"/>
	<circle cx="552.631" cy="211.809" r="4" fill="#0" id="circle289"/>
	<circle cx="575.785" cy="196.71" r="4" fill="#0" id="circle290"/>
	<circle cx="593.905" cy="180.603" r="4" fill="#0" id="circle291"/>
	<circle cx="613.031" cy="170.536" r="4" fill="#0" id="circle292"/>
	<circle cx="640.211" cy="163.49" r="4" fill="#0" id="circle293"/>
	<circle cx="659.338" cy="151.41" r="4" fill="#0" id="circle294"/>
	<circle cx="679.471" cy="138.323" r="4" fill="#0" id="circle295"/>
	<circle cx="682.491" cy="157.45" r="4" fill="#0" id="circle296"/>
	<circle cx="677.458" cy="180.603" r="4" fill="#0" id="circle297"/>
	<circle cx="669.404" cy="205.769" r="4" fill="#0" id="circle298"/>
	<circle cx="661.351" cy="230.936" r="4" fill="#0" id="circle299"/>
	<circle cx="655.311" cy="252.076" r="4" fill="#0" id="circle300"/>
	<circle cx="650.278" cy="270.196" r="4" fill="#0" id="circle301"/>
	<circle cx="646.251" cy="289.323" r="4" fill="#0" id="circle302"/>
	<circle cx="644.238" cy="308.449" r="4" fill="#0" id="circle303"/>
	<circle cx="636.184" cy="331.602" r="4" fill="#0" id="circle304"/>
	<circle cx="512.365" cy="274.223" r="4" fill="#0" id="circle305"/>
	<circle cx="537.531" cy="285.296" r="4" fill="#0" id="circle306"/>
	<circle cx="552.631" cy="297.376" r="4" fill="#0" id="circle307"/>
	<circle cx="575.785" cy="304.422" r="4" fill="#0" id="circle308"/>
	<circle cx="597.931" cy="314.489" r="4" fill="#0" id="circle309"/>
	<circle cx="613.031" cy="322.542" r="4" fill="#0" id="circle310"/>
	<circle cx="265.732" cy="533.942" r="4" fill="#0" id="circle311"/>
	<circle cx="292.912" cy="529.915" r="4" fill="#0" id="circle312"/>
	<circle cx="267.746" cy="563.135" r="4" fill="#0" id="circle313"/>
	<circle cx="277.812" cy="580.248" r="4" fill="#0" id="circle314"/>
	<circle cx="280.832" cy="598.368" r="4" fill="#0" id="circle315"/>
	<circle cx="286.872" cy="619.508" r="4" fill="#0" id="circle316"/>
	<circle cx="304.992" cy="625.548" r="4" fill="#0" id="circle317"/>
	<circle cx="322.106" cy="625.548" r="4" fill="#0" id="circle318"/>
	<circle cx="341.232" cy="625.548" r="4" fill="#0" id="circle319"/>
	<circle cx="360.359" cy="625.548" r="4" fill="#0" id="circle320"/>
	<circle cx="382.505" cy="626.555" r="4" fill="#0" id="circle321"/>
	<circle cx="384.519" cy="644.675" r="4" fill="#0" id="circle322"/>
	<circle cx="382.505" cy="663.801" r="4" fill="#0" id="circle323"/>
	<circle cx="382.505" cy="680.914" r="4" fill="#0" id="circle324"/>
	<circle cx="380.492" cy="701.048" r="4" fill="#0" id="circle325"/>
	<circle cx="380.492" cy="720.174" r="4" fill="#0" id="circle326"/>
	<circle cx="378.479" cy="741.314" r="4" fill="#0" id="circle327"/>
	<circle cx="378.479" cy="764.467" r="4" fill="#0" id="circle328"/>
	<circle cx="399.619" cy="768.494" r="4" fill="#0" id="circle329"/>
	<circle cx="424.785" cy="768.494" r="4" fill="#0" id="circle330"/>
	<circle cx="462.032" cy="766.481" r="4" fill="#0" id="circle331"/>
	<circle cx="455.992" cy="739.301" r="4" fill="#0" id="circle332"/>
	<circle cx="455.992" cy="712.121" r="4" fill="#0" id="circle333"/>
	<circle cx="455.992" cy="686.954" r="4" fill="#0" id="circle334"/>
	<circle cx="460.018" cy="653.735" r="4" fill="#0" id="circle335"/>
	<circle cx="458.005" cy="626.555" r="4" fill="#0" id="circle336"/>
	<circle cx="473.105" cy="623.535" r="4" fill="#0" id="circle337"/>
	<circle cx="491.225" cy="621.521" r="4" fill="#0" id="circle338"/>
	<circle cx="510.352" cy="625.548" r="4" fill="#0" id="circle339"/>
	<circle cx="539.545" cy="626.555" r="4" fill="#0" id="circle340"/>
	<circle cx="575.785" cy="535.955" r="4" fill="#0" id="circle341"/>
	<circle cx="570.751" cy="561.122" r="4" fill="#0" id="circle342"/>
	<circle cx="562.698" cy="580.248" r="4" fill="#0" id="circle343"/>
	<circle cx="558.671" cy="605.415" r="4" fill="#0" id="circle344"/>
	<circle cx="312.039" cy="531.928" r="4" fill="#0" id="circle345"/>
	<circle cx="332.172" cy="531.928" r="4" fill="#0" id="circle346"/>
	<circle cx="357.339" cy="527.902" r="4" fill="#0" id="circle347"/>
	<circle cx="378.479" cy="529.915" r="4" fill="#0" id="circle348"/>
	<circle cx="399.619" cy="529.915" r="4" fill="#0" id="circle349"/>
	<circle cx="422.772" cy="529.915" r="4" fill="#0" id="circle350"/>
	<circle cx="445.925" cy="529.915" r="4" fill="#0" id="circle351"/>
	<circle cx="471.092" cy="525.888" r="4" fill="#0" id="circle352"/>
	<circle cx="487.198" cy="527.902" r="4" fill="#0" id="circle353"/>
	<circle cx="508.338" cy="527.902" r="4" fill="#0" id="circle354"/>
	<circle cx="533.505" cy="527.902" r="4" fill="#0" id="circle355"/>
	<circle cx="572.765" cy="531.928" r="4" fill="#0" id="circle356"/>
	<circle cx="554.645" cy="529.915" r="4" fill="#0" id="circle357"/>
	<circle cx="523.438" cy="496.695" r="4" fill="#0" id="circle358"/>
	<circle cx="314.052" cy="362.809" r="4" fill="#0" id="circle359"/>
	<circle cx="277.812" cy="362.809" r="4" fill="#0" id="circle360"/>
	<circle cx="558.671" cy="360.796" r="4" fill="#0" id="circle361"/>
	<circle cx="548.605" cy="925.534" r="4" fill="#0" id="circle362"/>
	<circle cx="562.698" cy="923.52" r="4" fill="#0" id="circle363"/>
	<circle cx="575.785" cy="931.574" r="4" fill="#0" id="circle364"/>
	<circle cx="581.825" cy="943.654" r="4" fill="#0" id="circle365"/>
	<circle cx="581.825" cy="956.74" r="4" fill="#0" id="circle366"/>
	<circle cx="575.785" cy="968.82" r="4" fill="#0" id="circle367"/>
	<circle cx="564.711" cy="972.847" r="4" fill="#0" id="circle368"/>
	<circle cx="548.605" cy="966.807" r="4" fill="#0" id="circle369"/>
	<circle cx="541.558" cy="960.767" r="4" fill="#0" id="circle370"/>
	<circle cx="533.505" cy="945.667" r="4" fill="#0" id="circle371"/>
	<circle cx="539.545" cy="931.574" r="4" fill="#0" id="circle372"/>
	<circle cx="130.57" cy="157.937" r="4" fill="#0" id="circle373"/>
	<circle cx="228.852" cy="114.939" r="4" fill="#0" id="circle374"/>
	<circle cx="642.456" cy="107.432" r="4" fill="#0" id="circle375"/>
	<circle cx="373.545" cy="362.01" r="4" fill="#0" id="circle376"/>
	<circle cx="716.152" cy="395.492" r="4" fill="#0" id="circle377"/>
	<circle cx="667.763" cy="796.141" r="4" fill="#0" id="circle378"/>
	<circle cx="776.722" cy="200.322" r="4" fill="#0" id="circle379"/>
	<circle cx="288.138" cy="766.185" r="4" fill="#0" id="circle380"/>
	<circle cx="239.445" cy="553.733" r="4" fill="#0" id="circle381"/>
	<circle cx="408.647" cy="628.002" r="4" fill="#0" id="circle382"/>
	<circle cx="313.195" cy="513.506" r="4" fill="#0" id="circle383"/>
	<circle cx="811.12" cy="912.902" r="4" fill="#0" id="circle384"/>
	<circle cx="542.836" cy="715.682" r="4" fill="#0" id="circle385"/>
	<circle cx="124.024" cy="606.285" r="4" fill="#0" id="circle386"/>
	<circle cx="17.8165" cy="245.274" r="4" fill="#0" id="circle387"/>
	<circle cx="120.319" cy="801.829" r="4" fill="#0" id="circle388"/>
	<circle cx="136.803" cy="401.999" r="4" fill="#0" id="circle389"/>
	<circle cx="114.012" cy="112.328" r="4" fill="#0" id="circle390"/>
	<circle cx="850.699" cy="220.852" r="4" fill="#0" id="circle391"/>
	<circle cx="438.767" cy="836.47" r="4" fill="#0" id="circle392"/>
	<circle cx="523.28" cy="297.971" r="4" fill="#0" id="circle393"/>
	<circle cx="544.396" cy="524.301" r="4" fill="#0" id="circle394"/>
	<circle cx="422.366" cy="969.005" r="4" fill="#0" id="circle395"/>
	<circle cx="251.94" cy="769.287" r="4" fill="#0" id="circle396"/>
	<circle cx="450.474" cy="767.855" r="4" fill="#0" id="circle397"/>
	<circle cx="343.238" cy="888.445" r="4" fill="#0" id="circle398"/>
	<circle cx="244.14" cy="353.922" r="4" fill="#0" id="circle399"/>
	<circle cx="688.636" cy="915.71" r="4" fill="#0" id="circle400"/>
	<circle cx="63.1253" cy="945.755" r="4" fill="#0" id="circle401"/>
	<circle cx="449.839" cy="89.7667" r="4" fill="#0" id="circle402"/>
	<circle cx="166.922" cy="662.068" r="4" fill="#0" id="circle403"/>
	<circle cx="758.57" cy="350.386" r="4" fill="#0" id="circle404"/>
	<circle cx="58.3923" cy="24.291" r="4" fill="#0" id="circle405"/>
	<circle cx="391.953" cy="67.0004" r="4" fill="#0" id="circle406"/>
	<circle cx="205.969" cy="966.882" r="4" fill="#0" id="circle407"/>
	<circle cx="768.721" cy="848.178" r="4" fill="#0" id="circle408"/>
	<circle cx="230.029" cy="539.643" r="4" fill="#0" id="circle409"/>
	<circle cx="322.029" cy="758.271" r="4" fill="#0" id="circle410"/>
	<circle cx="438.43" cy="666.527" r="4" fill="#0" id="circle411"/>
	<circle cx="454.595" cy="43.3858" r="4" fill="#0" id="circle412"/>
	<circle cx="374.946" cy="928.41" r="4" fill="#0" id="circle413"/>
	<circle cx="792.964" cy="719.307" r="4" fill="#0" id="circle414"/>
	<circle cx="244.97" cy="736.74" r="4" fill="#0" id="circle415"/>
	<circle cx="546.453" cy="355.498" r="4" fill="#0" id="circle416"/>
	<circle cx="587.038" cy="169.011" r="4" fill="#0" id="circle417"/>
	<circle cx="377.037" cy="877.087" r="4" fill="#0" id="circle418"/>
	<circle cx="706.839" cy="331.987" r="4" fill="#0" id="circle419"/>
	<circle cx="198.076" cy="890.272" r="4" fill="#0" id="circle420"/>
	<circle cx="300.969" cy="685.313" r="4" fill="#0" id="circle421"/>
	<circle cx="814.712" cy="588.111" r="4" fill="#0" id="circle422"/>
	<circle cx="561.138" cy="855.869" r="4" fill="#0" id="circle423"/>
	<circle cx="376.576" cy="920.611" r="4" fill="#0" id="circle424"/>
	<circle cx="341.719" cy="812.33" r="4" fill="#0" id="circle425"/>
	<circle cx="583.951" cy="907.723" r="4" fill="#0" id="circle426"/>
	<circle cx="412.964" cy="218.441" r="4" fill="#0" id="circle427"/>
	<circle cx="809.444" cy="916.802" r="4" fill="#0" id="circle428"/>
	<circle cx="129.158" cy="878.066" r="4" fill="#0" id="circle429"/>
	<circle cx="547.387" cy="432.746" r="4" fill="#0" id="circle430"/>
	<circle cx="529.176" cy="283.125" r="4" fill="#0" id="circle431"/>
	<circle cx="670.224" cy="309.301" r="4" fill="#0" id="circle432"/>
	<circle cx="382.91" cy="228.636" r="4" fill="#0" id="circle433"/>
	<circle cx="162.955" cy="278.341" r="4" fill="#0" id="circle434"/>
	<circle cx="475.647" cy="417.424" r="4" fill="#0" id="circle435"/>
	<circle cx="147.761" cy="903.59" r="4" fill="#0" id="circle436"/>
	<circle cx="91.449" cy="129.449" r="4" fill="#0" id="circle437"/>
	<circle cx="423.944" cy="758.496" r="4" fill="#0" id="circle438"/>
	<circle cx="838.686" cy="931.552" r="4" fill="#0" id="circle439"/>
	<circle cx="584.143" cy="384.392" r="4" fill="#0" id="circle440"/>
	<circle cx="639.514" cy="369.99" r="4" fill="#0" id="circle441"/>
	<circle cx="253.333" cy="234.739" r="4" fill="#0" id="circle442"/>
	<circle cx="499.418" cy="246.788" r="4" fill="#0" id="circle443"/>
	<circle cx="133.167" cy="730.408" r="4" fill="#0" id="circle444"/>
	<circle cx="110.354" cy="791.213" r="4" fill="#0" id="circle445"/>
	<circle cx="143.094" cy="743.222" r="4" fill="#0" id="circle446"/>
	<circle cx="67.1722" cy="946.525" r="4" fill="#0" id="circle447"/>
	<circle cx="48.5244" cy="521.6" r="4" fill="#0" id="circle448"/>
	<circle cx="153.358" cy="242.474" r="4" fill="#0" id="circle449"/>
	<circle cx="680.222" cy="730.91" r="4" fill="#0" id="circle450"/>
	<circle cx="560.51" cy="963.68" r="4" fill="#0" id="circle451"/>
	</g>
</svg>