<?xml version="1.0" encoding="UTF-8" standalone="no"?>
<!-- Created with CurveBenchmark -->
<svg
	xmlns:dc="http://purl.org/dc/elements/1.1/"
	xmlns:cc="http://creativecommons.org/ns#"
	xmlns:rdf="http://www.w3.org/1999/02/22-rdf-syntax-ns#"
	xmlns:svg="http://www.w3.org/2000/svg"
	xmlns="http://www.w3.org/2000/svg"
	xmlns:sodipodi="http://sodipodi.sourceforge.net/DTD/sodipodi-0.dtd"
	xmlns:inkscape="http://www.inkscape.org/namespaces/inkscape"
	width="1000"
	height="1000"
	id="svg2"
	version="1.1"
	sodipodi:docname="outliers-20/stretchdenoise-mc8.txt">
<defs
	id="defs4" />
<metadata
	id="metadata7">
	<rdf:RDF>
		<cc:Work
			rdf:about="">
			<dc:format>image/svg+xml</dc:format>
			<dc:type
				rdf:resource="http://purl.org/dc/dcmitype/StillImage" />
			<dc:title></dc:title>
		</cc:Work>
	</rdf:RDF>
</metadata>
<g
	inkscape:label="Layer 1"
	inkscape:groupmode="layer"
	id="layer1">
	<path style="fill:none;stroke:red;stroke-width:1px;stroke-linecap:butt;stroke-linejoin:miter;stroke-opacity:1" d="M 339.697,692.501 462.923,777.69 z" id="boundary" inkscape:connector-curvature="0" />
	<path style="fill:none;stroke:red;stroke-width:1px;stroke-linecap:butt;stroke-linejoin:miter;stroke-opacity:1" d="M 339.697,692.501 590.362,595.084 z" id="boundary" inkscape:connector-curvature="0" />
	<path style="fill:none;stroke:red;stroke-width:1px;stroke-linecap:butt;stroke-linejoin:miter;stroke-opacity:1" d="M 462.923,777.69 585.223,822.739 z" id="boundary" inkscape:connector-curvature="0" />
	<path style="fill:none;stroke:red;stroke-width:1px;stroke-linecap:butt;stroke-linejoin:miter;stroke-opacity:1" d="M 585.223,822.739 620.838,779.299 z" id="boundary" inkscape:connector-curvature="0" />
	<path style="fill:none;stroke:red;stroke-width:1px;stroke-linecap:butt;stroke-linejoin:miter;stroke-opacity:1" d="M 620.838,779.299 641.696,770.499 z" id="boundary" inkscape:connector-curvature="0" />
	<path style="fill:none;stroke:red;stroke-width:1px;stroke-linecap:butt;stroke-linejoin:miter;stroke-opacity:1" d="M 641.696,770.499 664.481,762.457 z" id="boundary" inkscape:connector-curvature="0" />
	<path style="fill:none;stroke:red;stroke-width:1px;stroke-linecap:butt;stroke-linejoin:miter;stroke-opacity:1" d="M 664.481,762.457 672.518,738.075 z" id="boundary" inkscape:connector-curvature="0" />
	<path style="fill:none;stroke:red;stroke-width:1px;stroke-linecap:butt;stroke-linejoin:miter;stroke-opacity:1" d="M 672.518,738.075 676.97,725.013 z" id="boundary" inkscape:connector-curvature="0" />
	<path style="fill:none;stroke:red;stroke-width:1px;stroke-linecap:butt;stroke-linejoin:miter;stroke-opacity:1" d="M 665.241,718.438 656.867,687.051 z" id="boundary" inkscape:connector-curvature="0" />
	<path style="fill:none;stroke:red;stroke-width:1px;stroke-linecap:butt;stroke-linejoin:miter;stroke-opacity:1" d="M 665.241,718.438 676.97,725.013 z" id="boundary" inkscape:connector-curvature="0" />
	<path style="fill:none;stroke:red;stroke-width:1px;stroke-linecap:butt;stroke-linejoin:miter;stroke-opacity:1" d="M 656.867,687.051 644.261,653.409 z" id="boundary" inkscape:connector-curvature="0" />
	<path style="fill:none;stroke:red;stroke-width:1px;stroke-linecap:butt;stroke-linejoin:miter;stroke-opacity:1" d="M 644.261,653.409 799.14,608.357 z" id="boundary" inkscape:connector-curvature="0" />
	<path style="fill:none;stroke:red;stroke-width:1px;stroke-linecap:butt;stroke-linejoin:miter;stroke-opacity:1" d="M 590.362,595.084 617.425,584.455 z" id="boundary" inkscape:connector-curvature="0" />
	<path style="fill:none;stroke:red;stroke-width:1px;stroke-linecap:butt;stroke-linejoin:miter;stroke-opacity:1" d="M 617.425,584.455 672.983,561.284 z" id="boundary" inkscape:connector-curvature="0" />
	<path style="fill:none;stroke:red;stroke-width:1px;stroke-linecap:butt;stroke-linejoin:miter;stroke-opacity:1" d="M 672.983,561.284 801.736,587.649 z" id="boundary" inkscape:connector-curvature="0" />
	<path style="fill:none;stroke:red;stroke-width:1px;stroke-linecap:butt;stroke-linejoin:miter;stroke-opacity:1" d="M 801.736,587.649 840.773,526.636 z" id="boundary" inkscape:connector-curvature="0" />
	<path style="fill:none;stroke:red;stroke-width:1px;stroke-linecap:butt;stroke-linejoin:miter;stroke-opacity:1" d="M 840.773,526.636 799.14,608.357 z" id="boundary" inkscape:connector-curvature="0" />
	<path style="fill:none;stroke:red;stroke-width:1px;stroke-linecap:butt;stroke-linejoin:miter;stroke-opacity:1" d="M 972.738,226.66 982.708,203.396 z" id="boundary" inkscape:connector-curvature="0" />
	<path style="fill:none;stroke:red;stroke-width:1px;stroke-linecap:butt;stroke-linejoin:miter;stroke-opacity:1" d="M 972.738,226.66 458.04,53.9051 z" id="boundary" inkscape:connector-curvature="0" />
	<path style="fill:none;stroke:red;stroke-width:1px;stroke-linecap:butt;stroke-linejoin:miter;stroke-opacity:1" d="M 982.708,203.396 986.032,180.134 z" id="boundary" inkscape:connector-curvature="0" />
	<path style="fill:none;stroke:red;stroke-width:1px;stroke-linecap:butt;stroke-linejoin:miter;stroke-opacity:1" d="M 986.032,180.134 994.933,176.628 z" id="boundary" inkscape:connector-curvature="0" />
	<path style="fill:none;stroke:red;stroke-width:1px;stroke-linecap:butt;stroke-linejoin:miter;stroke-opacity:1" d="M 989.355,158.532 992.678,135.268 z" id="boundary" inkscape:connector-curvature="0" />
	<path style="fill:none;stroke:red;stroke-width:1px;stroke-linecap:butt;stroke-linejoin:miter;stroke-opacity:1" d="M 989.355,158.532 994.933,176.628 z" id="boundary" inkscape:connector-curvature="0" />
	<path style="fill:none;stroke:red;stroke-width:1px;stroke-linecap:butt;stroke-linejoin:miter;stroke-opacity:1" d="M 992.678,135.268 996,110.345 z" id="boundary" inkscape:connector-curvature="0" />
	<path style="fill:none;stroke:red;stroke-width:1px;stroke-linecap:butt;stroke-linejoin:miter;stroke-opacity:1" d="M 996,110.345 996,90.4044 z" id="boundary" inkscape:connector-curvature="0" />
	<path style="fill:none;stroke:red;stroke-width:1px;stroke-linecap:butt;stroke-linejoin:miter;stroke-opacity:1" d="M 996,90.4044 992.678,60.4957 z" id="boundary" inkscape:connector-curvature="0" />
	<path style="fill:none;stroke:red;stroke-width:1px;stroke-linecap:butt;stroke-linejoin:miter;stroke-opacity:1" d="M 992.678,60.4957 986.032,37.2321 z" id="boundary" inkscape:connector-curvature="0" />
	<path style="fill:none;stroke:red;stroke-width:1px;stroke-linecap:butt;stroke-linejoin:miter;stroke-opacity:1" d="M 986.032,37.2321 976.061,22.2768 z" id="boundary" inkscape:connector-curvature="0" />
	<path style="fill:none;stroke:red;stroke-width:1px;stroke-linecap:butt;stroke-linejoin:miter;stroke-opacity:1" d="M 976.061,22.2768 959.445,7.32159 z" id="boundary" inkscape:connector-curvature="0" />
	<path style="fill:none;stroke:red;stroke-width:1px;stroke-linecap:butt;stroke-linejoin:miter;stroke-opacity:1" d="M 959.445,7.32159 937.843,4 z" id="boundary" inkscape:connector-curvature="0" />
	<path style="fill:none;stroke:red;stroke-width:1px;stroke-linecap:butt;stroke-linejoin:miter;stroke-opacity:1" d="M 937.843,4 458.04,53.9051 z" id="boundary" inkscape:connector-curvature="0" />
	<circle cx="43.8807" cy="22.2768" r="4" fill="#0" id="circle0"/>
	<circle cx="28.9254" cy="30.5853" r="4" fill="#0" id="circle1"/>
	<circle cx="17.2936" cy="47.2022" r="4" fill="#0" id="circle2"/>
	<circle cx="12.3085" cy="67.1407" r="4" fill="#0" id="circle3"/>
	<circle cx="7.32342" cy="87.081" r="4" fill="#0" id="circle4"/>
	<circle cx="4" cy="105.36" r="4" fill="#0" id="circle5"/>
	<circle cx="4" cy="125.298" r="4" fill="#0" id="circle6"/>
	<circle cx="5.66171" cy="141.915" r="4" fill="#0" id="circle7"/>
	<circle cx="13.9702" cy="161.855" r="4" fill="#0" id="circle8"/>
	<circle cx="18.9553" cy="180.134" r="4" fill="#0" id="circle9"/>
	<circle cx="25.602" cy="196.749" r="4" fill="#0" id="circle10"/>
	<circle cx="33.9105" cy="215.028" r="4" fill="#0" id="circle11"/>
	<circle cx="42.2189" cy="231.645" r="4" fill="#0" id="circle12"/>
	<circle cx="50.5274" cy="249.922" r="4" fill="#0" id="circle13"/>
	<circle cx="58.8359" cy="268.2" r="4" fill="#0" id="circle14"/>
	<circle cx="67.1426" cy="283.155" r="4" fill="#0" id="circle15"/>
	<circle cx="77.1127" cy="298.111" r="4" fill="#0" id="circle16"/>
	<circle cx="82.0978" cy="313.064" r="4" fill="#0" id="circle17"/>
	<circle cx="90.4062" cy="326.358" r="4" fill="#0" id="circle18"/>
	<circle cx="98.7147" cy="342.975" r="4" fill="#0" id="circle19"/>
	<circle cx="110.347" cy="359.59" r="4" fill="#0" id="circle20"/>
	<circle cx="123.638" cy="376.207" r="4" fill="#0" id="circle21"/>
	<circle cx="133.608" cy="391.162" r="4" fill="#0" id="circle22"/>
	<circle cx="145.24" cy="407.779" r="4" fill="#0" id="circle23"/>
	<circle cx="153.549" cy="422.732" r="4" fill="#0" id="circle24"/>
	<circle cx="165.181" cy="437.687" r="4" fill="#0" id="circle25"/>
	<circle cx="175.151" cy="457.628" r="4" fill="#0" id="circle26"/>
	<circle cx="185.119" cy="470.921" r="4" fill="#0" id="circle27"/>
	<circle cx="195.089" cy="482.551" r="4" fill="#0" id="circle28"/>
	<circle cx="206.721" cy="500.83" r="4" fill="#0" id="circle29"/>
	<circle cx="220.015" cy="514.123" r="4" fill="#0" id="circle30"/>
	<circle cx="233.308" cy="527.417" r="4" fill="#0" id="circle31"/>
	<circle cx="248.262" cy="530.74" r="4" fill="#0" id="circle32"/>
	<circle cx="258.232" cy="544.032" r="4" fill="#0" id="circle33"/>
	<circle cx="269.864" cy="552.341" r="4" fill="#0" id="circle34"/>
	<circle cx="288.142" cy="560.649" r="4" fill="#0" id="circle35"/>
	<circle cx="311.404" cy="570.619" r="4" fill="#0" id="circle36"/>
	<circle cx="333.006" cy="578.928" r="4" fill="#0" id="circle37"/>
	<circle cx="352.945" cy="585.574" r="4" fill="#0" id="circle38"/>
	<circle cx="369.562" cy="592.219" r="4" fill="#0" id="circle39"/>
	<circle cx="389.502" cy="598.866" r="4" fill="#0" id="circle40"/>
	<circle cx="404.457" cy="600.528" r="4" fill="#0" id="circle41"/>
	<circle cx="421.072" cy="605.513" r="4" fill="#0" id="circle42"/>
	<circle cx="437.689" cy="610.498" r="4" fill="#0" id="circle43"/>
	<circle cx="339.697" cy="692.501" r="4" fill="#0" id="circle44"/>
	<circle cx="427.719" cy="638.747" r="4" fill="#0" id="circle45"/>
	<circle cx="417.749" cy="653.7" r="4" fill="#0" id="circle46"/>
	<circle cx="407.781" cy="663.67" r="4" fill="#0" id="circle47"/>
	<circle cx="394.487" cy="675.302" r="4" fill="#0" id="circle48"/>
	<circle cx="381.193" cy="683.611" r="4" fill="#0" id="circle49"/>
	<circle cx="366.238" cy="690.257" r="4" fill="#0" id="circle50"/>
	<circle cx="349.623" cy="698.566" r="4" fill="#0" id="circle51"/>
	<circle cx="337.991" cy="713.519" r="4" fill="#0" id="circle52"/>
	<circle cx="333.006" cy="731.798" r="4" fill="#0" id="circle53"/>
	<circle cx="336.33" cy="748.415" r="4" fill="#0" id="circle54"/>
	<circle cx="351.283" cy="763.37" r="4" fill="#0" id="circle55"/>
	<circle cx="371.223" cy="771.677" r="4" fill="#0" id="circle56"/>
	<circle cx="391.164" cy="779.985" r="4" fill="#0" id="circle57"/>
	<circle cx="416.087" cy="784.97" r="4" fill="#0" id="circle58"/>
	<circle cx="439.351" cy="788.294" r="4" fill="#0" id="circle59"/>
	<circle cx="462.923" cy="777.69" r="4" fill="#0" id="circle60"/>
	<circle cx="484.215" cy="794.941" r="4" fill="#0" id="circle61"/>
	<circle cx="510.802" cy="793.279" r="4" fill="#0" id="circle62"/>
	<circle cx="532.402" cy="789.955" r="4" fill="#0" id="circle63"/>
	<circle cx="557.327" cy="789.955" r="4" fill="#0" id="circle64"/>
	<circle cx="585.223" cy="822.739" r="4" fill="#0" id="circle65"/>
	<circle cx="600.53" cy="784.97" r="4" fill="#0" id="circle66"/>
	<circle cx="620.838" cy="779.299" r="4" fill="#0" id="circle67"/>
	<circle cx="641.696" cy="770.499" r="4" fill="#0" id="circle68"/>
	<circle cx="664.481" cy="762.457" r="4" fill="#0" id="circle69"/>
	<circle cx="672.518" cy="738.075" r="4" fill="#0" id="circle70"/>
	<circle cx="665.241" cy="718.438" r="4" fill="#0" id="circle71"/>
	<circle cx="663.672" cy="703.551" r="4" fill="#0" id="circle72"/>
	<circle cx="656.867" cy="687.051" r="4" fill="#0" id="circle73"/>
	<circle cx="637.087" cy="680.287" r="4" fill="#0" id="circle74"/>
	<circle cx="644.261" cy="653.409" r="4" fill="#0" id="circle75"/>
	<circle cx="597.206" cy="662.009" r="4" fill="#0" id="circle76"/>
	<circle cx="580.591" cy="650.377" r="4" fill="#0" id="circle77"/>
	<circle cx="572.283" cy="637.085" r="4" fill="#0" id="circle78"/>
	<circle cx="567.298" cy="615.483" r="4" fill="#0" id="circle79"/>
	<circle cx="587.236" cy="612.16" r="4" fill="#0" id="circle80"/>
	<circle cx="590.362" cy="595.084" r="4" fill="#0" id="circle81"/>
	<circle cx="617.425" cy="584.455" r="4" fill="#0" id="circle82"/>
	<circle cx="645.394" cy="592.219" r="4" fill="#0" id="circle83"/>
	<circle cx="666.996" cy="588.898" r="4" fill="#0" id="circle84"/>
	<circle cx="672.983" cy="561.284" r="4" fill="#0" id="circle85"/>
	<circle cx="700.229" cy="577.266" r="4" fill="#0" id="circle86"/>
	<circle cx="715.183" cy="568.958" r="4" fill="#0" id="circle87"/>
	<circle cx="730.138" cy="562.311" r="4" fill="#0" id="circle88"/>
	<circle cx="748.417" cy="554.002" r="4" fill="#0" id="circle89"/>
	<circle cx="801.736" cy="587.649" r="4" fill="#0" id="circle90"/>
	<circle cx="781.649" cy="530.74" r="4" fill="#0" id="circle91"/>
	<circle cx="799.927" cy="515.785" r="4" fill="#0" id="circle92"/>
	<circle cx="840.773" cy="526.636" r="4" fill="#0" id="circle93"/>
	<circle cx="824.851" cy="485.875" r="4" fill="#0" id="circle94"/>
	<circle cx="838.145" cy="474.243" r="4" fill="#0" id="circle95"/>
	<circle cx="848.115" cy="457.628" r="4" fill="#0" id="circle96"/>
	<circle cx="858.085" cy="441.011" r="4" fill="#0" id="circle97"/>
	<circle cx="873.04" cy="426.056" r="4" fill="#0" id="circle98"/>
	<circle cx="884.67" cy="411.102" r="4" fill="#0" id="circle99"/>
	<circle cx="894.64" cy="392.823" r="4" fill="#0" id="circle100"/>
	<circle cx="902.949" cy="374.545" r="4" fill="#0" id="circle101"/>
	<circle cx="916.242" cy="356.268" r="4" fill="#0" id="circle102"/>
	<circle cx="924.551" cy="339.651" r="4" fill="#0" id="circle103"/>
	<circle cx="932.859" cy="323.034" r="4" fill="#0" id="circle104"/>
	<circle cx="941.166" cy="304.756" r="4" fill="#0" id="circle105"/>
	<circle cx="951.136" cy="288.14" r="4" fill="#0" id="circle106"/>
	<circle cx="961.106" cy="269.862" r="4" fill="#0" id="circle107"/>
	<circle cx="969.415" cy="249.922" r="4" fill="#0" id="circle108"/>
	<circle cx="972.738" cy="226.66" r="4" fill="#0" id="circle109"/>
	<circle cx="982.708" cy="203.396" r="4" fill="#0" id="circle110"/>
	<circle cx="986.032" cy="180.134" r="4" fill="#0" id="circle111"/>
	<circle cx="989.355" cy="158.532" r="4" fill="#0" id="circle112"/>
	<circle cx="992.678" cy="135.268" r="4" fill="#0" id="circle113"/>
	<circle cx="996" cy="110.345" r="4" fill="#0" id="circle114"/>
	<circle cx="996" cy="90.4044" r="4" fill="#0" id="circle115"/>
	<circle cx="992.678" cy="60.4957" r="4" fill="#0" id="circle116"/>
	<circle cx="986.032" cy="37.2321" r="4" fill="#0" id="circle117"/>
	<circle cx="976.061" cy="22.2768" r="4" fill="#0" id="circle118"/>
	<circle cx="959.445" cy="7.32159" r="4" fill="#0" id="circle119"/>
	<circle cx="937.843" cy="4" r="4" fill="#0" id="circle120"/>
	<circle cx="917.904" cy="4" r="4" fill="#0" id="circle121"/>
	<circle cx="901.287" cy="7.32159" r="4" fill="#0" id="circle122"/>
	<circle cx="887.994" cy="13.9684" r="4" fill="#0" id="circle123"/>
	<circle cx="878.023" cy="22.2768" r="4" fill="#0" id="circle124"/>
	<circle cx="868.055" cy="37.2321" r="4" fill="#0" id="circle125"/>
	<circle cx="858.085" cy="48.8639" r="4" fill="#0" id="circle126"/>
	<circle cx="844.791" cy="58.8341" r="4" fill="#0" id="circle127"/>
	<circle cx="834.821" cy="77.1109" r="4" fill="#0" id="circle128"/>
	<circle cx="829.836" cy="92.0661" r="4" fill="#0" id="circle129"/>
	<circle cx="821.528" cy="107.021" r="4" fill="#0" id="circle130"/>
	<circle cx="816.544" cy="121.977" r="4" fill="#0" id="circle131"/>
	<circle cx="809.898" cy="140.253" r="4" fill="#0" id="circle132"/>
	<circle cx="801.589" cy="160.194" r="4" fill="#0" id="circle133"/>
	<circle cx="798.266" cy="175.149" r="4" fill="#0" id="circle134"/>
	<circle cx="791.619" cy="196.749" r="4" fill="#0" id="circle135"/>
	<circle cx="784.972" cy="218.351" r="4" fill="#0" id="circle136"/>
	<circle cx="783.311" cy="239.953" r="4" fill="#0" id="circle137"/>
	<circle cx="776.664" cy="258.23" r="4" fill="#0" id="circle138"/>
	<circle cx="58.8359" cy="17.2918" r="4" fill="#0" id="circle139"/>
	<circle cx="75.451" cy="17.2918" r="4" fill="#0" id="circle140"/>
	<circle cx="93.7296" cy="20.6151" r="4" fill="#0" id="circle141"/>
	<circle cx="108.685" cy="27.2619" r="4" fill="#0" id="circle142"/>
	<circle cx="123.638" cy="37.2321" r="4" fill="#0" id="circle143"/>
	<circle cx="135.27" cy="48.8639" r="4" fill="#0" id="circle144"/>
	<circle cx="145.24" cy="62.1575" r="4" fill="#0" id="circle145"/>
	<circle cx="156.872" cy="75.4492" r="4" fill="#0" id="circle146"/>
	<circle cx="166.842" cy="87.081" r="4" fill="#0" id="circle147"/>
	<circle cx="176.811" cy="100.375" r="4" fill="#0" id="circle148"/>
	<circle cx="183.457" cy="115.33" r="4" fill="#0" id="circle149"/>
	<circle cx="190.104" cy="130.283" r="4" fill="#0" id="circle150"/>
	<circle cx="195.089" cy="143.577" r="4" fill="#0" id="circle151"/>
	<circle cx="201.736" cy="158.532" r="4" fill="#0" id="circle152"/>
	<circle cx="208.383" cy="175.149" r="4" fill="#0" id="circle153"/>
	<circle cx="213.368" cy="193.426" r="4" fill="#0" id="circle154"/>
	<circle cx="218.353" cy="211.704" r="4" fill="#0" id="circle155"/>
	<circle cx="226.661" cy="229.983" r="4" fill="#0" id="circle156"/>
	<circle cx="231.647" cy="246.598" r="4" fill="#0" id="circle157"/>
	<circle cx="236.63" cy="259.892" r="4" fill="#0" id="circle158"/>
	<circle cx="249.923" cy="259.892" r="4" fill="#0" id="circle159"/>
	<circle cx="266.54" cy="259.892" r="4" fill="#0" id="circle160"/>
	<circle cx="284.819" cy="259.892" r="4" fill="#0" id="circle161"/>
	<circle cx="303.096" cy="258.23" r="4" fill="#0" id="circle162"/>
	<circle cx="323.036" cy="258.23" r="4" fill="#0" id="circle163"/>
	<circle cx="341.315" cy="254.907" r="4" fill="#0" id="circle164"/>
	<circle cx="362.915" cy="254.907" r="4" fill="#0" id="circle165"/>
	<circle cx="386.179" cy="256.568" r="4" fill="#0" id="circle166"/>
	<circle cx="407.781" cy="253.245" r="4" fill="#0" id="circle167"/>
	<circle cx="424.396" cy="253.245" r="4" fill="#0" id="circle168"/>
	<circle cx="441.013" cy="253.245" r="4" fill="#0" id="circle169"/>
	<circle cx="455.968" cy="254.907" r="4" fill="#0" id="circle170"/>
	<circle cx="474.245" cy="253.245" r="4" fill="#0" id="circle171"/>
	<circle cx="490.862" cy="253.245" r="4" fill="#0" id="circle172"/>
	<circle cx="507.479" cy="254.907" r="4" fill="#0" id="circle173"/>
	<circle cx="525.757" cy="254.907" r="4" fill="#0" id="circle174"/>
	<circle cx="545.696" cy="254.907" r="4" fill="#0" id="circle175"/>
	<circle cx="567.298" cy="253.245" r="4" fill="#0" id="circle176"/>
	<circle cx="585.574" cy="251.583" r="4" fill="#0" id="circle177"/>
	<circle cx="602.191" cy="254.907" r="4" fill="#0" id="circle178"/>
	<circle cx="618.808" cy="254.907" r="4" fill="#0" id="circle179"/>
	<circle cx="635.425" cy="253.245" r="4" fill="#0" id="circle180"/>
	<circle cx="653.702" cy="253.245" r="4" fill="#0" id="circle181"/>
	<circle cx="671.981" cy="254.907" r="4" fill="#0" id="circle182"/>
	<circle cx="686.936" cy="254.907" r="4" fill="#0" id="circle183"/>
	<circle cx="703.551" cy="254.907" r="4" fill="#0" id="circle184"/>
	<circle cx="721.83" cy="254.907" r="4" fill="#0" id="circle185"/>
	<circle cx="740.108" cy="254.907" r="4" fill="#0" id="circle186"/>
	<circle cx="756.725" cy="256.568" r="4" fill="#0" id="circle187"/>
	<circle cx="85.4212" cy="85.4194" r="4" fill="#0" id="circle188"/>
	<circle cx="78.7744" cy="100.375" r="4" fill="#0" id="circle189"/>
	<circle cx="75.451" cy="113.668" r="4" fill="#0" id="circle190"/>
	<circle cx="73.7893" cy="128.622" r="4" fill="#0" id="circle191"/>
	<circle cx="73.7893" cy="143.577" r="4" fill="#0" id="circle192"/>
	<circle cx="77.1127" cy="156.87" r="4" fill="#0" id="circle193"/>
	<circle cx="78.7744" cy="170.164" r="4" fill="#0" id="circle194"/>
	<circle cx="82.0978" cy="183.456" r="4" fill="#0" id="circle195"/>
	<circle cx="87.0829" cy="196.749" r="4" fill="#0" id="circle196"/>
	<circle cx="93.7296" cy="210.043" r="4" fill="#0" id="circle197"/>
	<circle cx="97.053" cy="224.998" r="4" fill="#0" id="circle198"/>
	<circle cx="105.361" cy="238.291" r="4" fill="#0" id="circle199"/>
	<circle cx="113.67" cy="253.245" r="4" fill="#0" id="circle200"/>
	<circle cx="121.977" cy="268.2" r="4" fill="#0" id="circle201"/>
	<circle cx="128.623" cy="281.494" r="4" fill="#0" id="circle202"/>
	<circle cx="135.27" cy="293.126" r="4" fill="#0" id="circle203"/>
	<circle cx="143.579" cy="308.079" r="4" fill="#0" id="circle204"/>
	<circle cx="151.887" cy="321.373" r="4" fill="#0" id="circle205"/>
	<circle cx="160.196" cy="334.666" r="4" fill="#0" id="circle206"/>
	<circle cx="170.166" cy="347.96" r="4" fill="#0" id="circle207"/>
	<circle cx="178.472" cy="361.251" r="4" fill="#0" id="circle208"/>
	<circle cx="186.781" cy="372.883" r="4" fill="#0" id="circle209"/>
	<circle cx="195.089" cy="382.853" r="4" fill="#0" id="circle210"/>
	<circle cx="206.721" cy="396.147" r="4" fill="#0" id="circle211"/>
	<circle cx="216.691" cy="397.809" r="4" fill="#0" id="circle212"/>
	<circle cx="215.03" cy="382.853" r="4" fill="#0" id="circle213"/>
	<circle cx="195.089" cy="324.696" r="4" fill="#0" id="circle214"/>
	<circle cx="200.074" cy="339.651" r="4" fill="#0" id="circle215"/>
	<circle cx="205.059" cy="351.283" r="4" fill="#0" id="circle216"/>
	<circle cx="98.7147" cy="78.7726" r="4" fill="#0" id="circle217"/>
	<circle cx="112.008" cy="78.7726" r="4" fill="#0" id="circle218"/>
	<circle cx="123.638" cy="87.081" r="4" fill="#0" id="circle219"/>
	<circle cx="133.608" cy="97.0512" r="4" fill="#0" id="circle220"/>
	<circle cx="138.594" cy="110.345" r="4" fill="#0" id="circle221"/>
	<circle cx="141.917" cy="125.298" r="4" fill="#0" id="circle222"/>
	<circle cx="145.24" cy="136.93" r="4" fill="#0" id="circle223"/>
	<circle cx="150.225" cy="150.224" r="4" fill="#0" id="circle224"/>
	<circle cx="153.549" cy="163.517" r="4" fill="#0" id="circle225"/>
	<circle cx="156.872" cy="178.472" r="4" fill="#0" id="circle226"/>
	<circle cx="161.857" cy="191.764" r="4" fill="#0" id="circle227"/>
	<circle cx="165.181" cy="206.719" r="4" fill="#0" id="circle228"/>
	<circle cx="170.166" cy="221.675" r="4" fill="#0" id="circle229"/>
	<circle cx="173.489" cy="236.63" r="4" fill="#0" id="circle230"/>
	<circle cx="176.811" cy="253.245" r="4" fill="#0" id="circle231"/>
	<circle cx="181.796" cy="264.877" r="4" fill="#0" id="circle232"/>
	<circle cx="183.457" cy="281.494" r="4" fill="#0" id="circle233"/>
	<circle cx="186.781" cy="296.449" r="4" fill="#0" id="circle234"/>
	<circle cx="188.442" cy="311.402" r="4" fill="#0" id="circle235"/>
	<circle cx="211.706" cy="366.236" r="4" fill="#0" id="circle236"/>
	<circle cx="793.281" cy="419.409" r="4" fill="#0" id="circle237"/>
	<circle cx="789.957" cy="402.794" r="4" fill="#0" id="circle238"/>
	<circle cx="811.559" cy="411.102" r="4" fill="#0" id="circle239"/>
	<circle cx="799.927" cy="386.177" r="4" fill="#0" id="circle240"/>
	<circle cx="808.236" cy="371.221" r="4" fill="#0" id="circle241"/>
	<circle cx="814.883" cy="352.945" r="4" fill="#0" id="circle242"/>
	<circle cx="819.866" cy="337.989" r="4" fill="#0" id="circle243"/>
	<circle cx="826.513" cy="319.711" r="4" fill="#0" id="circle244"/>
	<circle cx="831.498" cy="303.094" r="4" fill="#0" id="circle245"/>
	<circle cx="836.483" cy="283.155" r="4" fill="#0" id="circle246"/>
	<circle cx="841.468" cy="264.877" r="4" fill="#0" id="circle247"/>
	<circle cx="823.189" cy="397.809" r="4" fill="#0" id="circle248"/>
	<circle cx="831.498" cy="379.53" r="4" fill="#0" id="circle249"/>
	<circle cx="843.13" cy="362.913" r="4" fill="#0" id="circle250"/>
	<circle cx="854.761" cy="346.298" r="4" fill="#0" id="circle251"/>
	<circle cx="861.408" cy="331.343" r="4" fill="#0" id="circle252"/>
	<circle cx="871.378" cy="318.049" r="4" fill="#0" id="circle253"/>
	<circle cx="881.347" cy="301.432" r="4" fill="#0" id="circle254"/>
	<circle cx="887.994" cy="286.479" r="4" fill="#0" id="circle255"/>
	<circle cx="896.302" cy="268.2" r="4" fill="#0" id="circle256"/>
	<circle cx="904.61" cy="251.583" r="4" fill="#0" id="circle257"/>
	<circle cx="843.13" cy="246.598" r="4" fill="#0" id="circle258"/>
	<circle cx="844.791" cy="226.66" r="4" fill="#0" id="circle259"/>
	<circle cx="846.453" cy="206.719" r="4" fill="#0" id="circle260"/>
	<circle cx="848.115" cy="183.456" r="4" fill="#0" id="circle261"/>
	<circle cx="853.1" cy="163.517" r="4" fill="#0" id="circle262"/>
	<circle cx="858.085" cy="146.9" r="4" fill="#0" id="circle263"/>
	<circle cx="863.07" cy="128.622" r="4" fill="#0" id="circle264"/>
	<circle cx="871.378" cy="112.006" r="4" fill="#0" id="circle265"/>
	<circle cx="878.023" cy="97.0512" r="4" fill="#0" id="circle266"/>
	<circle cx="883.008" cy="82.096" r="4" fill="#0" id="circle267"/>
	<circle cx="887.994" cy="67.1407" r="4" fill="#0" id="circle268"/>
	<circle cx="897.964" cy="58.8341" r="4" fill="#0" id="circle269"/>
	<circle cx="907.934" cy="63.8191" r="4" fill="#0" id="circle270"/>
	<circle cx="919.566" cy="77.1109" r="4" fill="#0" id="circle271"/>
	<circle cx="924.551" cy="88.7427" r="4" fill="#0" id="circle272"/>
	<circle cx="929.536" cy="102.036" r="4" fill="#0" id="circle273"/>
	<circle cx="929.536" cy="115.33" r="4" fill="#0" id="circle274"/>
	<circle cx="927.874" cy="131.945" r="4" fill="#0" id="circle275"/>
	<circle cx="926.212" cy="146.9" r="4" fill="#0" id="circle276"/>
	<circle cx="922.889" cy="165.179" r="4" fill="#0" id="circle277"/>
	<circle cx="922.889" cy="180.134" r="4" fill="#0" id="circle278"/>
	<circle cx="919.566" cy="193.426" r="4" fill="#0" id="circle279"/>
	<circle cx="914.581" cy="208.381" r="4" fill="#0" id="circle280"/>
	<circle cx="909.596" cy="221.675" r="4" fill="#0" id="circle281"/>
	<circle cx="904.61" cy="236.63" r="4" fill="#0" id="circle282"/>
	<circle cx="837.466" cy="315.933" r="4" fill="#0" id="circle283"/>
	<circle cx="780.834" cy="635.519" r="4" fill="#0" id="circle284"/>
	<circle cx="908.354" cy="160.251" r="4" fill="#0" id="circle285"/>
	<circle cx="336.541" cy="611.624" r="4" fill="#0" id="circle286"/>
	<circle cx="279.553" cy="442.157" r="4" fill="#0" id="circle287"/>
	<circle cx="477.578" cy="501.4" r="4" fill="#0" id="circle288"/>
	<circle cx="365.866" cy="410.07" r="4" fill="#0" id="circle289"/>
	<circle cx="948.612" cy="728.656" r="4" fill="#0" id="circle290"/>
	<circle cx="634.626" cy="571.339" r="4" fill="#0" id="circle291"/>
	<circle cx="144.47" cy="484.076" r="4" fill="#0" id="circle292"/>
	<circle cx="20.1702" cy="196.109" r="4" fill="#0" id="circle293"/>
	<circle cx="140.134" cy="640.056" r="4" fill="#0" id="circle294"/>
	<circle cx="159.426" cy="321.123" r="4" fill="#0" id="circle295"/>
	<circle cx="132.752" cy="90.0613" r="4" fill="#0" id="circle296"/>
	<circle cx="994.933" cy="176.628" r="4" fill="#0" id="circle297"/>
	<circle cx="512.829" cy="667.688" r="4" fill="#0" id="circle298"/>
	<circle cx="611.739" cy="238.143" r="4" fill="#0" id="circle299"/>
	<circle cx="636.452" cy="418.68" r="4" fill="#0" id="circle300"/>
	<circle cx="493.634" cy="773.407" r="4" fill="#0" id="circle301"/>
	<circle cx="294.177" cy="614.098" r="4" fill="#0" id="circle302"/>
	<circle cx="526.531" cy="612.956" r="4" fill="#0" id="circle303"/>
	<circle cx="401.027" cy="709.147" r="4" fill="#0" id="circle304"/>
	<circle cx="285.048" cy="282.774" r="4" fill="#0" id="circle305"/>
	<circle cx="805.263" cy="730.895" r="4" fill="#0" id="circle306"/>
	<circle cx="73.1972" cy="754.861" r="4" fill="#0" id="circle307"/>
	<circle cx="525.787" cy="72.0651" r="4" fill="#0" id="circle308"/>
	<circle cx="194.676" cy="528.573" r="4" fill="#0" id="circle309"/>
	<circle cx="887.111" cy="279.954" r="4" fill="#0" id="circle310"/>
	<circle cx="67.658" cy="19.8371" r="4" fill="#0" id="circle311"/>
	<circle cx="458.04" cy="53.9051" r="4" fill="#0" id="circle312"/>
	<circle cx="240.374" cy="771.714" r="4" fill="#0" id="circle313"/>
	<circle cx="799.14" cy="608.357" r="4" fill="#0" id="circle314"/>
	<circle cx="268.532" cy="430.918" r="4" fill="#0" id="circle315"/>
	<circle cx="376.205" cy="605.312" r="4" fill="#0" id="circle316"/>
	<circle cx="512.435" cy="532.13" r="4" fill="#0" id="circle317"/>
	<circle cx="531.354" cy="35.0684" r="4" fill="#0" id="circle318"/>
	<circle cx="438.136" cy="741.026" r="4" fill="#0" id="circle319"/>
	<circle cx="927.363" cy="574.23" r="4" fill="#0" id="circle320"/>
	<circle cx="286.019" cy="588.137" r="4" fill="#0" id="circle321"/>
	<circle cx="638.859" cy="284.031" r="4" fill="#0" id="circle322"/>
	<circle cx="686.358" cy="135.276" r="4" fill="#0" id="circle323"/>
	<circle cx="440.584" cy="700.087" r="4" fill="#0" id="circle324"/>
	<circle cx="826.567" cy="265.277" r="4" fill="#0" id="circle325"/>
	<circle cx="231.136" cy="710.604" r="4" fill="#0" id="circle326"/>
	<circle cx="351.557" cy="547.115" r="4" fill="#0" id="circle327"/>
	<circle cx="952.816" cy="469.579" r="4" fill="#0" id="circle328"/>
	<circle cx="656.046" cy="683.162" r="4" fill="#0" id="circle329"/>
	<circle cx="440.043" cy="734.805" r="4" fill="#0" id="circle330"/>
	<circle cx="399.249" cy="648.432" r="4" fill="#0" id="circle331"/>
	<circle cx="676.97" cy="725.013" r="4" fill="#0" id="circle332"/>
	<circle cx="482.631" cy="174.705" r="4" fill="#0" id="circle333"/>
	<circle cx="946.65" cy="731.767" r="4" fill="#0" id="circle334"/>
	<circle cx="150.479" cy="700.868" r="4" fill="#0" id="circle335"/>
	<circle cx="639.952" cy="345.649" r="4" fill="#0" id="circle336"/>
	<circle cx="618.64" cy="226.301" r="4" fill="#0" id="circle337"/>
	<circle cx="783.714" cy="247.181" r="4" fill="#0" id="circle338"/>
	</g>
</svg>