747 610
736 587
761 587
785 595
791 570
805 549
807 517
831 510
856 516
880 525
903 535
927 543
944 504
923 490
944 476
969 475
994 478
1014 493
1033 510
1039 540
1041 566
1059 584
1084 586
1109 583
1134 580
1158 571
1181 581
1197 601
1220 611
1239 628
1264 634
1283 651
1308 657
1333 655
1357 647
1382 652
1405 663
1428 673
1452 682
1475 692
1499 700
1523 707
1548 713
1570 725
1590 741
1610 757
1635 753
1660 749
1678 767
1691 794
1695 819
1692 855
1681 879
1664 898
1642 910
1617 917
1592 915
1570 903
1547 893
1554 869
1526 879
1501 879
1476 878
1461 858
1438 848
1413 847
1396 828
1371 823
1346 823
1321 817
1299 805
1279 790
1264 770
1249 750
1224 748
1200 740
1175 736
1150 735
1125 736
1100 733
1088 711
1067 697
1055 675
1032 665
1007 660
987 677
967 693
942 699
917 703
892 700
867 698
843 689
820 679
801 662
781 647
762 630
