847 652
845 627
852 602
864 579
886 566
911 569
934 580
956 592
979 602
1002 613
1025 623
1048 633
1069 647
1092 657
1115 667
1137 679
1160 690
1183 700
1208 706
1233 710
1257 719
1281 728
1303 740
1325 753
1348 763
1371 774
1394 785
1415 799
1438 809
1461 820
1482 834
1503 848
1525 860
1543 878
1541 919
1525 939
1503 951
1478 947
1463 927
1439 936
1415 945
1397 927
1378 910
1355 920
1338 901
1332 876
1308 883
1283 881
1274 857
1249 855
1224 856
1212 834
1193 817
1169 810
1154 831
1118 831
1095 821
1073 809
1051 797
1030 783
1011 766
988 755
965 744
943 731
922 717
901 703
878 692
865 670
