19 39
40 53
62 65
84 78
105 92
129 100
151 112
173 124
196 135
218 147
240 160
262 172
284 185
306 197
331 210
328 185
305 171
282 157
260 144
238 132
214 117
183 100
161 88
139 75
118 61
96 48
74 35
53 21
31 9
7 17
