218 304
217 279
220 254
220 229
220 204
220 179
220 154
220 129
220 104
221 69
221 44
233 22
244 54
246 79
247 105
249 131
250 157
251 184
252 211
252 239
255 264
256 289
245 313
249 338
252 363
253 392
253 417
250 443
227 453
220 429
219 404
219 379
218 354
218 329
