130 179
120 156
140 141
164 133
189 129
214 127
239 126
264 130
288 137
310 149
330 164
350 180
369 197
388 214
408 230
427 247
446 264
465 281
485 297
504 314
524 330
543 347
563 362
582 379
602 395
622 410
642 426
662 442
682 457
702 473
722 488
742 504
762 520
782 535
802 550
822 565
842 580
862 595
882 610
903 624
923 640
943 655
964 669
985 683
1005 698
1025 713
1046 727
1066 742
1087 756
1107 771
1128 785
1150 798
1170 813
1191 827
1211 842
1232 856
1253 870
1273 885
1294 899
1315 913
1335 929
1348 954
1365 973
1380 993
1402 1005
1427 1004
1448 1018
1469 1032
1491 1045
1511 1060
1531 1075
1552 1089
1573 1103
1593 1118
1615 1131
1635 1147
1657 1160
1677 1175
1698 1189
1718 1205
1740 1218
1760 1234
1781 1248
1802 1262
1823 1276
1843 1291
1864 1305
1885 1319
1905 1334
1927 1346
1945 1364
1955 1387
1954 1429
1941 1451
1919 1463
1894 1467
1869 1463
1846 1452
1826 1437
1805 1423
1784 1409
1764 1394
1744 1379
1723 1365
1704 1348
1684 1333
1663 1319
1643 1303
1623 1287
1603 1271
1581 1258
1561 1242
1542 1225
1522 1210
1501 1196
1483 1178
1462 1164
1442 1148
1422 1133
1402 1117
1381 1103
1363 1085
1359 1060
1336 1050
1313 1040
1288 1041
1263 1046
1238 1053
1214 1044
1192 1031
1171 1017
1151 1002
1131 987
1111 971
1091 956
1070 942
1050 927
1028 914
1008 899
988 884
968 869
945 858
926 841
906 826
886 811
866 796
846 781
826 766
806 751
786 736
765 722
746 705
723 694
706 675
686 660
666 645
647 628
627 613
607 597
587 582
567 567
547 551
527 536
507 521
488 504
469 487
451 469
431 454
412 437
392 421
373 404
354 387
334 371
315 354
296 337
277 320
259 302
240 285
222 267
203 250
185 232
165 216
149 196
