64 271
120 265
144 257
168 249
192 240
216 232
240 223
263 212
287 204
312 198
331 180
325 153
301 144
276 147
251 145
227 152
181 158
156 161
131 164
106 167
81 170
56 176
205 165
246 181
223 192
203 207
179 217
155 226
131 233
108 243
88 263
