2 309
1 284
18 265
48 261
76 263
101 264
126 265
151 265
176 266
201 267
226 268
251 270
276 270
301 271
326 272
351 274
376 270
393 251
414 237
439 231
464 229
489 230
514 234
538 241
562 250
583 264
596 286
595 320
581 341
559 354
535 363
510 369
485 372
460 373
435 371
411 362
391 347
374 328
349 324
324 324
299 325
274 325
249 326
224 326
199 327
174 328
149 328
124 329
99 329
74 329
49 330
20 327
