392 703
387 730
393 755
407 776
421 797
441 812
459 830
482 840
506 847
526 862
550 869
575 875
599 882
624 888
649 891
674 892
699 891
724 887
749 885
772 874
796 864
818 852
837 834
857 819
877 804
898 789
920 777
944 770
969 767
994 768
1019 767
1044 767
1069 768
1094 767
1119 770
1144 766
1169 766
1194 769
1219 770
1244 768
1269 772
1294 770
1319 773
1344 774
1369 775
1394 777
1419 782
1444 782
1469 785
1494 787
1519 790
1544 796
1569 795
1594 799
1618 806
1643 808
1668 810
1693 811
1718 812
1743 816
1761 798
1772 754
1769 729
1752 710
1727 704
1702 704
1677 707
1652 707
1627 708
1602 708
1577 713
1552 714
1527 715
1502 715
1477 717
1452 719
1427 719
1402 721
1377 721
1352 721
1327 723
1302 722
1277 723
1252 723
1227 723
1202 721
1177 724
1152 721
1127 721
1102 721
1077 719
1052 718
1027 716
1002 710
977 713
952 712
927 708
905 695
883 682
864 665
844 650
825 633
804 619
781 608
760 594
735 589
710 586
685 582
660 581
635 580
610 586
585 586
555 593
531 601
508 613
484 620
464 636
441 647
421 662
404 681
