687 762
711 770
758 782
803 792
847 803
882 817
858 826
816 817
773 809
727 800
679 792
702 802
748 814
792 826
834 835
875 845
900 851
925 853
950 847
973 835
997 828
1022 828
1051 831
1083 838
1110 846
1136 852
1161 857
1185 865
1209 873
1234 878
1258 885
1282 892
1306 899
1330 906
1354 914
1378 921
1402 930
1426 939
1451 937
1471 917
1473 883
1453 868
1428 866
1403 864
1378 862
1353 860
1328 858
1303 855
1278 851
1253 848
1228 844
1203 841
1178 837
1153 832
1128 828
1103 822
1071 816
1039 809
1013 801
991 788
974 769
957 750
935 738
911 731
877 726
834 719
790 712
743 706
694 701
718 708
765 718
810 727
854 737
897 752
873 759
833 751
790 746
742 738
693 731
717 739
765 749
810 761
850 770
871 794
828 786
783 777
736 770
