49 263
29 248
52 237
77 230
101 223
125 216
149 207
173 199
197 190
221 183
245 175
270 169
295 163
320 157
344 150
368 143
392 135
416 127
440 119
462 107
486 100
511 99
506 131
482 141
457 143
432 149
408 156
384 163
360 170
336 177
312 186
293 203
269 210
245 217
221 224
197 231
173 239
148 245
124 252
99 258
74 263
