651 260
643 236
700 307
714 328
725 351
739 372
760 386
725 305
712 281
699 259
748 316
762 337
776 358
790 379
744 273
732 251
722 228
708 207
767 283
784 306
800 326
815 346
833 364
794 282
782 260
767 240
756 217
743 195
729 174
808 261
823 281
835 303
855 318
870 338
885 358
899 379
906 403
910 428
910 456
910 481
910 506
924 527
938 548
953 568
967 589
982 609
994 631
1009 651
1024 671
1038 692
1052 713
1069 732
1084 752
1098 773
1113 793
1130 812
1146 832
1160 853
1177 872
1193 892
1209 912
1223 933
1238 953
1254 973
1268 994
1282 1015
1296 1036
1309 1058
1319 1081
1329 1104
1333 1129
1311 1156
1289 1144
1269 1128
1252 1109
1235 1090
1220 1070
1206 1049
1192 1028
1178 1007
1166 985
1152 964
1137 944
1126 921
1113 899
1103 876
1091 854
1078 832
1066 810
1054 788
1040 767
1027 745
1013 724
1000 702
987 680
972 660
958 639
943 619
931 597
915 577
900 557
885 537
865 522
841 515
819 502
795 495
776 478
758 460
746 438
732 417
721 394
708 372
697 349
685 327
675 304
663 282
