31 412
56 410
77 396
96 378
113 358
129 337
146 317
163 298
180 278
197 259
215 239
238 228
257 211
276 193
295 176
314 158
333 140
351 122
369 102
386 83
404 65
424 48
442 30
429 7
406 17
385 31
365 46
345 63
325 80
306 97
288 115
270 133
252 152
235 171
218 190
203 210
191 232
172 250
152 266
132 283
113 300
93 317
73 333
53 350
34 367
21 389
