403 600
427 590
452 583
477 578
502 574
527 568
552 569
577 568
602 567
627 566
652 567
677 568
702 567
727 568
752 567
777 569
802 569
827 569
852 569
877 570
902 572
927 570
952 571
977 570
1002 572
1027 571
1052 573
1077 573
1102 573
1127 574
1152 576
1177 578
1202 579
1227 583
1252 585
1277 581
1302 582
1327 582
1352 583
1377 583
1402 584
1427 584
1452 584
1477 584
1502 586
1527 586
1552 587
1577 587
1602 587
1627 587
1652 588
1677 590
1702 589
1727 590
1752 592
1777 594
1798 608
1808 631
1806 663
1791 684
1772 701
1747 701
1722 701
1697 700
1672 697
1647 694
1622 695
1597 697
1572 692
1547 694
1522 689
1497 687
1472 685
1447 684
1422 683
1397 681
1372 680
1340 677
1315 683
1290 683
1265 682
1240 679
1217 668
1195 683
1172 694
1147 697
1122 695
1097 696
1072 694
1047 695
1022 689
997 692
972 691
947 691
923 684
898 683
873 685
848 682
823 684
798 678
773 683
748 681
723 676
698 680
673 680
648 678
623 677
598 675
573 672
548 672
523 668
498 665
473 660
448 654
424 646
403 632
383 616
