236 697
229 673
252 663
274 651
298 643
323 646
346 657
371 663
396 661
421 658
446 657
471 654
496 650
521 648
546 643
571 645
596 645
621 646
646 641
693 653
718 649
743 655
767 648
789 635
813 626
833 641
848 621
873 620
898 621
923 620
948 619
973 619
998 622
1023 626
1048 629
1073 630
1098 631
1123 633
1148 634
1173 634
1198 635
1223 636
1248 637
1273 638
1298 638
1323 639
1348 640
1373 641
1398 642
1423 643
1448 645
1473 646
1498 649
1523 652
1548 658
1572 666
1595 677
1625 693
1603 705
1578 705
1553 707
1528 707
1503 708
1478 709
1453 710
1428 711
1403 712
1378 713
1353 714
1328 715
1303 716
1278 717
1253 718
1228 719
1203 720
1178 721
1153 722
1128 723
1103 724
1078 725
1053 726
1028 727
1003 728
978 729
953 730
928 731
903 732
878 733
853 733
811 735
767 735
831 720
789 723
745 722
728 754
700 755
672 741
695 730
649 730
624 730
599 733
574 733
549 735
524 735
499 737
474 740
449 740
424 742
399 742
374 743
349 745
324 740
299 737
275 729
254 715
