416 94
412 69
436 76
454 94
474 109
494 125
514 141
532 159
552 174
572 189
591 206
610 223
630 238
650 254
670 269
690 285
709 302
730 316
750 331
772 344
790 362
810 377
831 391
851 406
872 420
893 434
913 450
934 464
954 479
974 494
994 509
1015 523
1035 538
1056 552
1076 567
1096 582
1117 596
1135 614
1153 632
1172 649
1191 666
1210 683
1230 699
1249 716
1269 732
1288 749
1309 763
1328 780
1344 800
1367 811
1387 826
1407 842
1429 854
1447 872
1467 887
1487 903
1507 918
1527 933
1546 950
1567 964
1587 979
1606 996
1627 1010
1646 1027
1666 1042
1686 1057
1706 1072
1727 1086
1745 1104
1766 1118
1786 1134
1804 1152
1823 1169
1843 1184
1860 1203
1877 1222
1896 1239
1913 1258
1925 1280
1924 1315
1913 1339
1889 1348
1866 1359
1841 1362
1816 1358
1796 1343
1782 1322
1765 1303
1749 1283
1734 1263
1719 1243
1699 1228
1682 1209
1662 1193
1644 1175
1623 1161
1603 1146
1583 1130
1564 1113
1542 1100
1524 1082
1505 1065
1486 1048
1467 1031
1448 1014
1429 997
1409 982
1391 964
1371 948
1353 930
1333 914
1314 897
1296 879
1272 870
1254 852
1234 837
1214 821
1196 803
1176 788
1157 771
1137 756
1117 740
1096 726
1076 711
1056 695
1036 679
1015 665
994 651
977 632
957 617
935 604
915 589
896 572
875 558
856 541
836 526
814 513
795 496
775 480
755 464
735 449
715 433
695 417
675 402
655 387
634 373
616 355
596 340
578 322
559 305
542 286
524 268
506 250
490 230
476 209
462 188
449 166
437 144
425 118
