259 691
251 667
260 641
278 622
300 608
320 592
335 571
344 546
347 502
348 466
348 441
348 406
348 381
347 356
346 331
343 306
342 281
340 256
337 231
336 206
333 181
331 156
330 118
329 92
331 65
334 37
341 13
364 2
379 22
385 47
388 72
389 97
390 122
389 162
388 192
386 232
386 257
384 282
382 318
382 344
382 369
382 394
383 419
384 444
385 469
386 494
387 519
391 544
398 568
412 589
431 606
453 618
471 636
483 658
469 702
448 717
424 727
399 732
374 734
349 733
324 729
300 721
278 708
