67 1700
65 1675
72 1649
87 1628
105 1609
125 1593
147 1581
170 1571
193 1561
217 1553
241 1546
265 1537
290 1531
315 1526
340 1520
365 1515
390 1512
415 1507
440 1504
465 1502
490 1499
515 1497
540 1494
565 1491
590 1491
615 1489
640 1487
665 1486
690 1486
715 1486
740 1486
765 1487
790 1487
815 1487
840 1489
865 1489
890 1489
915 1489
940 1489
965 1488
990 1487
1015 1486
1040 1484
1065 1482
1090 1479
1115 1477
1140 1471
1165 1468
1190 1463
1215 1458
1239 1450
1264 1444
1285 1458
1292 1482
1313 1496
1338 1494
1363 1492
1388 1489
1413 1487
1438 1485
1463 1482
1488 1479
1513 1477
1538 1474
1563 1471
1588 1469
1613 1466
1638 1464
1663 1461
1688 1459
1713 1456
1738 1454
1763 1451
1788 1449
1813 1446
1838 1443
1863 1441
1888 1438
1913 1436
1938 1433
1963 1431
1988 1428
2013 1425
2038 1423
2063 1421
2088 1419
2113 1416
2138 1414
2163 1412
2188 1409
2213 1407
2238 1405
2263 1403
2288 1401
2313 1399
2338 1396
2363 1394
2388 1392
2413 1390
2438 1387
2463 1384
2488 1382
2504 1362
2507 1331
2512 1304
2518 1277
2525 1253
2533 1229
2542 1205
2553 1180
2564 1156
2576 1134
2589 1111
2603 1088
2618 1066
2633 1046
2648 1026
2665 1005
2683 986
2701 967
2719 949
2738 932
2757 915
2777 900
2798 885
2819 870
2841 857
2863 845
2885 833
2908 822
2932 813
2956 804
2980 796
3005 790
3030 784
3055 780
3080 777
3105 776
3130 777
3155 778
3180 782
3205 786
3230 792
3254 799
3278 807
3301 817
3324 827
3346 839
3368 852
3389 866
3409 881
3429 897
3448 914
3466 932
3483 951
3499 971
3515 991
3530 1011
3543 1033
3556 1055
3569 1077
3580 1100
3590 1123
3600 1146
3609 1170
3618 1194
3625 1218
3631 1243
3637 1268
3643 1293
3646 1318
3650 1343
3652 1368
3654 1393
3654 1418
3653 1466
3649 1511
3645 1539
3641 1565
3635 1592
3628 1619
3620 1645
3611 1669
3601 1694
3590 1717
3578 1740
3565 1762
3551 1784
3535 1804
3518 1824
3500 1842
3482 1860
3462 1877
3442 1893
3421 1907
3399 1921
3376 1932
3353 1943
3330 1953
3306 1961
3281 1967
3256 1973
3231 1977
3206 1979
3181 1980
3156 1980
3131 1979
3106 1976
3081 1972
3056 1968
3031 1963
3006 1957
2982 1950
2958 1941
2934 1932
2911 1922
2888 1912
2865 1901
2843 1889
2821 1876
2799 1863
2778 1849
2758 1834
2738 1818
2718 1803
2699 1786
2681 1768
2663 1750
2645 1732
2628 1713
2613 1693
2598 1673
2583 1653
2570 1631
2558 1609
2546 1587
2536 1564
2521 1544
2496 1546
2471 1549
2446 1552
2421 1554
2396 1557
2371 1559
2346 1561
2321 1563
2296 1566
2271 1568
2246 1570
2221 1573
2196 1575
2171 1577
2146 1580
2121 1582
2096 1585
2071 1587
2046 1590
2021 1592
1996 1595
1971 1597
1946 1599
1921 1602
1896 1604
1871 1607
1846 1609
1821 1612
1796 1614
1771 1617
1746 1619
1721 1621
1696 1624
1671 1626
1646 1629
1621 1631
1596 1634
1571 1636
1546 1639
1521 1641
1496 1643
1471 1646
1446 1649
1421 1651
1396 1654
1371 1656
1346 1659
1321 1661
1300 1675
1300 1700
1285 1720
1260 1721
1235 1718
1210 1717
1185 1717
1160 1716
1135 1717
1110 1719
1085 1720
1060 1722
1035 1725
1010 1727
985 1731
960 1735
935 1739
910 1743
885 1748
860 1751
835 1757
810 1762
785 1767
760 1772
735 1776
710 1780
685 1785
660 1788
635 1791
610 1793
585 1795
560 1798
535 1800
510 1802
485 1803
460 1804
435 1806
410 1807
385 1807
360 1806
335 1806
310 1804
285 1802
260 1798
235 1795
210 1790
185 1785
160 1779
137 1769
115 1757
95 1742
78 1723
