98 967
82 991
106 998
131 998
156 997
183 994
212 992
238 989
263 991
293 987
324 985
352 985
377 985
403 983
428 981
453 980
478 980
503 978
528 977
553 981
578 975
603 971
626 961
654 949
676 937
698 925
723 914
748 900
771 890
793 878
816 866
839 855
862 843
886 833
911 830
936 835
961 838
986 844
1011 849
1036 852
1061 857
1086 862
1111 866
1134 876
1159 879
1184 880
1206 893
1229 903
1252 913
1277 917
1300 927
1325 926
1348 937
1373 936
1397 943
1422 947
1447 953
1471 960
1495 967
1520 972
1545 976
1570 978
1595 981
1619 988
1643 995
1668 1001
1693 1005
1718 1009
1742 1016
1767 1021
1792 1026
1817 1030
1842 1032
1867 1038
1892 1042
1914 1054
1937 1043
1974 964
1979 924
1972 900
1955 881
1936 864
1912 857
1887 853
1862 848
1837 846
1813 839
1788 838
1763 835
1738 831
1713 828
1688 825
1663 821
1638 816
1613 812
1588 810
1563 807
1538 802
1513 800
1488 798
1463 792
1438 791
1413 787
1388 784
1363 780
1338 775
1313 773
1288 773
1263 772
1238 772
1214 780
1189 776
1165 768
1140 767
1115 761
1090 757
1065 752
1036 746
1011 742
986 737
959 732
930 721
906 712
887 695
869 673
784 584
766 566
748 545
730 527
691 489
666 475
642 466
617 452
590 444
568 432
540 422
491 399
467 390
437 373
414 362
393 347
368 343
333 330
310 320
286 311
263 300
234 283
216 265
196 281
186 305
193 329
205 351
217 304
241 312
262 326
284 338
307 348
331 355
354 365
377 376
401 385
424 395
447 405
471 415
495 424
518 434
547 446
569 458
597 468
620 478
646 491
669 501
689 516
706 535
724 553
741 572
758 591
776 609
794 627
811 646
829 664
846 683
863 702
881 720
899 738
922 748
947 754
972 758
997 764
1022 768
1047 773
1072 778
1097 782
1122 786
1146 793
1171 796
1196 801
1214 819
1200 850
1175 854
1150 850
1125 845
1098 840
1074 831
1050 823
1025 823
1000 821
975 817
946 809
918 806
891 807
867 815
842 820
819 839
796 850
773 861
750 873
728 885
705 896
681 904
659 917
637 930
612 934
589 949
564 952
539 950
514 955
489 956
464 956
439 957
414 960
389 962
364 963
338 964
307 966
277 967
252 968
223 969
198 971
173 971
148 973
123 968
125 936
100 930
