77 434
60 454
98 448
119 434
243 352
261 333
281 317
301 300
319 282
339 266
361 253
388 233
544 140
558 176
522 189
476 184
498 197
546 198
568 147
524 125
500 135
479 150
459 165
439 180
418 195
397 209
365 223
443 50
420 61
410 85
411 110
466 60
480 81
463 111
443 128
423 143
404 160
384 177
364 194
344 209
325 227
308 246
287 260
265 273
245 288
225 303
202 314
178 323
155 334
137 352
124 374
111 396
95 416
