133 477
137 447
162 443
187 443
212 441
237 440
262 438
287 436
312 435
337 433
362 432
387 430
412 427
437 426
462 423
487 421
512 419
537 416
562 416
587 415
612 414
637 411
662 410
687 408
712 406
737 406
762 405
787 403
812 402
837 401
862 400
887 399
912 399
937 397
962 395
987 395
1012 393
1037 392
1062 387
1087 383
1120 371
1121 344
1099 331
1078 317
1054 310
1030 303
1005 299
980 294
955 291
930 285
905 282
880 276
855 272
830 267
805 262
780 258
755 252
730 250
705 245
680 239
655 235
630 231
605 225
580 221
555 216
530 213
505 208
481 201
456 197
431 191
406 186
382 178
357 173
332 167
308 160
283 154
259 146
241 128
234 104
246 82
269 71
294 72
319 77
343 84
368 90
392 97
417 103
442 109
466 116
491 121
516 127
540 134
565 139
590 145
615 150
640 155
665 161
690 167
715 171
740 177
765 182
790 187
815 191
840 196
865 201
890 207
915 211
940 217
965 222
990 228
1014 235
1039 241
1064 247
1088 255
1112 262
1136 271
1160 278
1185 283
1206 297
1210 322
1213 347
1216 383
1197 402
1175 414
1151 421
1127 429
1102 433
1077 436
1052 441
1027 444
1002 448
977 450
952 453
927 454
902 457
877 459
852 460
827 462
802 464
777 465
752 467
727 466
702 467
677 468
652 469
627 470
602 473
577 474
552 478
527 480
502 484
477 488
452 491
427 495
402 498
377 501
352 504
327 506
302 509
277 511
252 512
227 513
202 508
178 500
155 490
