138 895
126 873
140 852
164 843
189 839
214 837
239 834
264 833
289 830
314 828
339 826
364 824
389 822
414 820
439 818
464 816
489 814
514 812
539 811
564 809
589 807
614 805
639 804
664 802
689 800
714 799
739 798
764 796
789 795
814 794
839 792
864 791
889 791
914 790
939 789
964 788
989 788
1014 786
1039 786
1064 786
1089 785
1114 784
1139 783
1164 782
1189 782
1214 781
1239 776
1263 767
1285 753
1306 738
1328 724
1351 712
1374 701
1397 691
1421 681
1445 674
1470 668
1495 663
1520 660
1545 658
1570 658
1595 659
1620 662
1645 666
1670 672
1694 680
1716 692
1738 704
1757 721
1772 741
1783 764
1792 788
1794 829
1794 858
1785 883
1770 905
1749 920
1729 935
1708 949
1685 960
1661 969
1636 975
1611 978
1586 980
1561 981
1536 979
1511 976
1486 971
1461 965
1437 957
1413 949
1390 939
1367 928
1345 916
1323 903
1302 889
1282 874
1259 863
1234 857
1209 855
1184 854
1159 855
1134 856
1109 857
1084 857
1059 858
1034 859
1009 859
984 860
959 861
934 861
909 862
884 863
859 864
834 865
809 866
784 868
759 868
734 871
709 872
684 873
659 874
634 875
609 877
584 879
559 881
534 882
509 884
484 887
459 890
434 891
409 893
384 895
359 897
334 899
309 901
284 904
259 906
234 907
209 911
184 911
159 909
