<?xml version="1.0" encoding="UTF-8" standalone="no"?>
<!-- Created with CurveBenchmark -->
<svg
	xmlns:dc="http://purl.org/dc/elements/1.1/"
	xmlns:cc="http://creativecommons.org/ns#"
	xmlns:rdf="http://www.w3.org/1999/02/22-rdf-syntax-ns#"
	xmlns:svg="http://www.w3.org/2000/svg"
	xmlns="http://www.w3.org/2000/svg"
	xmlns:sodipodi="http://sodipodi.sourceforge.net/DTD/sodipodi-0.dtd"
	xmlns:inkscape="http://www.inkscape.org/namespaces/inkscape"
	width="1000"
	height="1000"
	id="svg2"
	version="1.1"
	sodipodi:docname="/tmp/goose">
<defs
	id="defs4" />
<metadata
	id="metadata7">
	<rdf:RDF>
		<cc:Work
			rdf:about="">
			<dc:format>image/svg+xml</dc:format>
			<dc:type
				rdf:resource="http://purl.org/dc/dcmitype/StillImage" />
			<dc:title></dc:title>
		</cc:Work>
	</rdf:RDF>
</metadata>
<g
	inkscape:label="Layer 1"
	inkscape:groupmode="layer"
	id="layer1">
	<path style="fill:none;stroke:#000000;stroke-width:1px;stroke-linecap:butt;stroke-linejoin:miter;stroke-opacity:1" d="M 586.018,11.8198 609.477,5.11712 z" id="boundary" inkscape:connector-curvature="0" />
	<path style="fill:none;stroke:#000000;stroke-width:1px;stroke-linecap:butt;stroke-linejoin:miter;stroke-opacity:1" d="M 609.477,5.11712 630.703,4 z" id="boundary" inkscape:connector-curvature="0" />
	<path style="fill:none;stroke:#000000;stroke-width:1px;stroke-linecap:butt;stroke-linejoin:miter;stroke-opacity:1" d="M 630.703,4 610.595,35.2793 z" id="boundary" inkscape:connector-curvature="0" />
	<path style="fill:none;stroke:#000000;stroke-width:1px;stroke-linecap:butt;stroke-linejoin:miter;stroke-opacity:1" d="M 610.595,35.2793 600.541,33.045 z" id="boundary" inkscape:connector-curvature="0" />
	<path style="fill:none;stroke:#000000;stroke-width:1px;stroke-linecap:butt;stroke-linejoin:miter;stroke-opacity:1" d="M 600.541,33.045 590.486,45.3333 z" id="boundary" inkscape:connector-curvature="0" />
	<path style="fill:none;stroke:#000000;stroke-width:1px;stroke-linecap:butt;stroke-linejoin:miter;stroke-opacity:1" d="M 590.486,45.3333 599.423,53.1532 z" id="boundary" inkscape:connector-curvature="0" />
	<path style="fill:none;stroke:#000000;stroke-width:1px;stroke-linecap:butt;stroke-linejoin:miter;stroke-opacity:1" d="M 599.423,53.1532 609.477,48.6847 z" id="boundary" inkscape:connector-curvature="0" />
	<path style="fill:none;stroke:#000000;stroke-width:1px;stroke-linecap:butt;stroke-linejoin:miter;stroke-opacity:1" d="M 609.477,48.6847 634.054,76.6126 z" id="boundary" inkscape:connector-curvature="0" />
	<path style="fill:none;stroke:#000000;stroke-width:1px;stroke-linecap:butt;stroke-linejoin:miter;stroke-opacity:1" d="M 634.054,76.6126 702.198,88.9009 z" id="boundary" inkscape:connector-curvature="0" />
	<path style="fill:none;stroke:#000000;stroke-width:1px;stroke-linecap:butt;stroke-linejoin:miter;stroke-opacity:1" d="M 702.198,88.9009 686.559,75.4955 z" id="boundary" inkscape:connector-curvature="0" />
	<path style="fill:none;stroke:#000000;stroke-width:1px;stroke-linecap:butt;stroke-linejoin:miter;stroke-opacity:1" d="M 686.559,75.4955 702.198,7.35135 z" id="boundary" inkscape:connector-curvature="0" />
	<path style="fill:none;stroke:#000000;stroke-width:1px;stroke-linecap:butt;stroke-linejoin:miter;stroke-opacity:1" d="M 702.198,7.35135 729.009,18.5225 z" id="boundary" inkscape:connector-curvature="0" />
	<path style="fill:none;stroke:#000000;stroke-width:1px;stroke-linecap:butt;stroke-linejoin:miter;stroke-opacity:1" d="M 729.009,18.5225 789.333,79.964 z" id="boundary" inkscape:connector-curvature="0" />
	<path style="fill:none;stroke:#000000;stroke-width:1px;stroke-linecap:butt;stroke-linejoin:miter;stroke-opacity:1" d="M 789.333,79.964 796.036,105.658 z" id="boundary" inkscape:connector-curvature="0" />
	<path style="fill:none;stroke:#000000;stroke-width:1px;stroke-linecap:butt;stroke-linejoin:miter;stroke-opacity:1" d="M 796.036,105.658 809.441,181.622 z" id="boundary" inkscape:connector-curvature="0" />
	<path style="fill:none;stroke:#000000;stroke-width:1px;stroke-linecap:butt;stroke-linejoin:miter;stroke-opacity:1" d="M 809.441,181.622 810.559,210.667 z" id="boundary" inkscape:connector-curvature="0" />
	<path style="fill:none;stroke:#000000;stroke-width:1px;stroke-linecap:butt;stroke-linejoin:miter;stroke-opacity:1" d="M 810.559,210.667 806.09,255.351 z" id="boundary" inkscape:connector-curvature="0" />
	<path style="fill:none;stroke:#000000;stroke-width:1px;stroke-linecap:butt;stroke-linejoin:miter;stroke-opacity:1" d="M 806.09,255.351 796.036,312.324 z" id="boundary" inkscape:connector-curvature="0" />
	<path style="fill:none;stroke:#000000;stroke-width:1px;stroke-linecap:butt;stroke-linejoin:miter;stroke-opacity:1" d="M 796.036,312.324 784.865,371.532 z" id="boundary" inkscape:connector-curvature="0" />
	<path style="fill:none;stroke:#000000;stroke-width:1px;stroke-linecap:butt;stroke-linejoin:miter;stroke-opacity:1" d="M 784.865,371.532 782.631,435.207 z" id="boundary" inkscape:connector-curvature="0" />
	<path style="fill:none;stroke:#000000;stroke-width:1px;stroke-linecap:butt;stroke-linejoin:miter;stroke-opacity:1" d="M 782.631,435.207 772.577,502.234 z" id="boundary" inkscape:connector-curvature="0" />
	<path style="fill:none;stroke:#000000;stroke-width:1px;stroke-linecap:butt;stroke-linejoin:miter;stroke-opacity:1" d="M 772.577,502.234 759.171,550.27 z" id="boundary" inkscape:connector-curvature="0" />
	<path style="fill:none;stroke:#000000;stroke-width:1px;stroke-linecap:butt;stroke-linejoin:miter;stroke-opacity:1" d="M 759.171,550.27 737.946,617.297 z" id="boundary" inkscape:connector-curvature="0" />
	<path style="fill:none;stroke:#000000;stroke-width:1px;stroke-linecap:butt;stroke-linejoin:miter;stroke-opacity:1" d="M 737.946,617.297 670.919,708.901 z" id="boundary" inkscape:connector-curvature="0" />
	<path style="fill:none;stroke:#000000;stroke-width:1px;stroke-linecap:butt;stroke-linejoin:miter;stroke-opacity:1" d="M 670.919,708.901 579.315,749.117 z" id="boundary" inkscape:connector-curvature="0" />
	<path style="fill:none;stroke:#000000;stroke-width:1px;stroke-linecap:butt;stroke-linejoin:miter;stroke-opacity:1" d="M 579.315,749.117 432.973,775.928 z" id="boundary" inkscape:connector-curvature="0" />
	<path style="fill:none;stroke:#000000;stroke-width:1px;stroke-linecap:butt;stroke-linejoin:miter;stroke-opacity:1" d="M 432.973,775.928 362.595,857.477 z" id="boundary" inkscape:connector-curvature="0" />
	<path style="fill:none;stroke:#000000;stroke-width:1px;stroke-linecap:butt;stroke-linejoin:miter;stroke-opacity:1" d="M 362.595,857.477 362.595,880.937 z" id="boundary" inkscape:connector-curvature="0" />
	<path style="fill:none;stroke:#000000;stroke-width:1px;stroke-linecap:butt;stroke-linejoin:miter;stroke-opacity:1" d="M 362.595,880.937 352.541,907.748 z" id="boundary" inkscape:connector-curvature="0" />
	<path style="fill:none;stroke:#000000;stroke-width:1px;stroke-linecap:butt;stroke-linejoin:miter;stroke-opacity:1" d="M 352.541,907.748 351.423,930.09 z" id="boundary" inkscape:connector-curvature="0" />
	<path style="fill:none;stroke:#000000;stroke-width:1px;stroke-linecap:butt;stroke-linejoin:miter;stroke-opacity:1" d="M 351.423,930.09 348.072,950.198 z" id="boundary" inkscape:connector-curvature="0" />
	<path style="fill:none;stroke:#000000;stroke-width:1px;stroke-linecap:butt;stroke-linejoin:miter;stroke-opacity:1" d="M 348.072,950.198 351.423,963.604 z" id="boundary" inkscape:connector-curvature="0" />
	<path style="fill:none;stroke:#000000;stroke-width:1px;stroke-linecap:butt;stroke-linejoin:miter;stroke-opacity:1" d="M 351.423,963.604 369.297,970.306 z" id="boundary" inkscape:connector-curvature="0" />
	<path style="fill:none;stroke:#000000;stroke-width:1px;stroke-linecap:butt;stroke-linejoin:miter;stroke-opacity:1" d="M 369.297,970.306 389.405,973.658 z" id="boundary" inkscape:connector-curvature="0" />
	<path style="fill:none;stroke:#000000;stroke-width:1px;stroke-linecap:butt;stroke-linejoin:miter;stroke-opacity:1" d="M 389.405,973.658 393.874,993.766 z" id="boundary" inkscape:connector-curvature="0" />
	<path style="fill:none;stroke:#000000;stroke-width:1px;stroke-linecap:butt;stroke-linejoin:miter;stroke-opacity:1" d="M 393.874,993.766 370.414,990.414 z" id="boundary" inkscape:connector-curvature="0" />
	<path style="fill:none;stroke:#000000;stroke-width:1px;stroke-linecap:butt;stroke-linejoin:miter;stroke-opacity:1" d="M 370.414,990.414 349.189,983.712 z" id="boundary" inkscape:connector-curvature="0" />
	<path style="fill:none;stroke:#000000;stroke-width:1px;stroke-linecap:butt;stroke-linejoin:miter;stroke-opacity:1" d="M 349.189,983.712 327.964,980.36 z" id="boundary" inkscape:connector-curvature="0" />
	<path style="fill:none;stroke:#000000;stroke-width:1px;stroke-linecap:butt;stroke-linejoin:miter;stroke-opacity:1" d="M 327.964,980.36 298.919,982.595 z" id="boundary" inkscape:connector-curvature="0" />
	<path style="fill:none;stroke:#000000;stroke-width:1px;stroke-linecap:butt;stroke-linejoin:miter;stroke-opacity:1" d="M 298.919,982.595 277.694,987.063 z" id="boundary" inkscape:connector-curvature="0" />
	<path style="fill:none;stroke:#000000;stroke-width:1px;stroke-linecap:butt;stroke-linejoin:miter;stroke-opacity:1" d="M 277.694,987.063 255.351,996 z" id="boundary" inkscape:connector-curvature="0" />
	<path style="fill:none;stroke:#000000;stroke-width:1px;stroke-linecap:butt;stroke-linejoin:miter;stroke-opacity:1" d="M 255.351,996 237.477,989.297 z" id="boundary" inkscape:connector-curvature="0" />
	<path style="fill:none;stroke:#000000;stroke-width:1px;stroke-linecap:butt;stroke-linejoin:miter;stroke-opacity:1" d="M 237.477,989.297 248.649,975.892 z" id="boundary" inkscape:connector-curvature="0" />
	<path style="fill:none;stroke:#000000;stroke-width:1px;stroke-linecap:butt;stroke-linejoin:miter;stroke-opacity:1" d="M 248.649,975.892 265.405,969.189 z" id="boundary" inkscape:connector-curvature="0" />
	<path style="fill:none;stroke:#000000;stroke-width:1px;stroke-linecap:butt;stroke-linejoin:miter;stroke-opacity:1" d="M 265.405,969.189 287.748,963.604 z" id="boundary" inkscape:connector-curvature="0" />
	<path style="fill:none;stroke:#000000;stroke-width:1px;stroke-linecap:butt;stroke-linejoin:miter;stroke-opacity:1" d="M 287.748,963.604 308.973,960.252 z" id="boundary" inkscape:connector-curvature="0" />
	<path style="fill:none;stroke:#000000;stroke-width:1px;stroke-linecap:butt;stroke-linejoin:miter;stroke-opacity:1" d="M 308.973,960.252 319.027,943.495 z" id="boundary" inkscape:connector-curvature="0" />
	<path style="fill:none;stroke:#000000;stroke-width:1px;stroke-linecap:butt;stroke-linejoin:miter;stroke-opacity:1" d="M 319.027,943.495 325.73,908.865 z" id="boundary" inkscape:connector-curvature="0" />
	<path style="fill:none;stroke:#000000;stroke-width:1px;stroke-linecap:butt;stroke-linejoin:miter;stroke-opacity:1" d="M 325.73,908.865 325.73,888.757 z" id="boundary" inkscape:connector-curvature="0" />
	<path style="fill:none;stroke:#000000;stroke-width:1px;stroke-linecap:butt;stroke-linejoin:miter;stroke-opacity:1" d="M 325.73,888.757 324.613,850.775 z" id="boundary" inkscape:connector-curvature="0" />
	<path style="fill:none;stroke:#000000;stroke-width:1px;stroke-linecap:butt;stroke-linejoin:miter;stroke-opacity:1" d="M 324.613,850.775 344.721,844.072 z" id="boundary" inkscape:connector-curvature="0" />
	<path style="fill:none;stroke:#000000;stroke-width:1px;stroke-linecap:butt;stroke-linejoin:miter;stroke-opacity:1" d="M 344.721,844.072 351.423,789.333 z" id="boundary" inkscape:connector-curvature="0" />
	<path style="fill:none;stroke:#000000;stroke-width:1px;stroke-linecap:butt;stroke-linejoin:miter;stroke-opacity:1" d="M 351.423,789.333 317.91,793.802 z" id="boundary" inkscape:connector-curvature="0" />
	<path style="fill:none;stroke:#000000;stroke-width:1px;stroke-linecap:butt;stroke-linejoin:miter;stroke-opacity:1" d="M 317.91,793.802 281.045,793.802 z" id="boundary" inkscape:connector-curvature="0" />
	<path style="fill:none;stroke:#000000;stroke-width:1px;stroke-linecap:butt;stroke-linejoin:miter;stroke-opacity:1" d="M 281.045,793.802 169.333,777.045 z" id="boundary" inkscape:connector-curvature="0" />
	<path style="fill:none;stroke:#000000;stroke-width:1px;stroke-linecap:butt;stroke-linejoin:miter;stroke-opacity:1" d="M 169.333,777.045 65.4414,732.36 z" id="boundary" inkscape:connector-curvature="0" />
	<path style="fill:none;stroke:#000000;stroke-width:1px;stroke-linecap:butt;stroke-linejoin:miter;stroke-opacity:1" d="M 65.4414,732.36 4,668.685 z" id="boundary" inkscape:connector-curvature="0" />
	<path style="fill:none;stroke:#000000;stroke-width:1px;stroke-linecap:butt;stroke-linejoin:miter;stroke-opacity:1" d="M 4,668.685 88.9009,560.324 z" id="boundary" inkscape:connector-curvature="0" />
	<path style="fill:none;stroke:#000000;stroke-width:1px;stroke-linecap:butt;stroke-linejoin:miter;stroke-opacity:1" d="M 88.9009,560.324 230.775,447.495 z" id="boundary" inkscape:connector-curvature="0" />
	<path style="fill:none;stroke:#000000;stroke-width:1px;stroke-linecap:butt;stroke-linejoin:miter;stroke-opacity:1" d="M 230.775,447.495 349.189,417.333 z" id="boundary" inkscape:connector-curvature="0" />
	<path style="fill:none;stroke:#000000;stroke-width:1px;stroke-linecap:butt;stroke-linejoin:miter;stroke-opacity:1" d="M 349.189,417.333 464.252,427.387 z" id="boundary" inkscape:connector-curvature="0" />
	<path style="fill:none;stroke:#000000;stroke-width:1px;stroke-linecap:butt;stroke-linejoin:miter;stroke-opacity:1" d="M 464.252,427.387 568.144,427.387 z" id="boundary" inkscape:connector-curvature="0" />
	<path style="fill:none;stroke:#000000;stroke-width:1px;stroke-linecap:butt;stroke-linejoin:miter;stroke-opacity:1" d="M 568.144,427.387 669.802,308.973 z" id="boundary" inkscape:connector-curvature="0" />
	<path style="fill:none;stroke:#000000;stroke-width:1px;stroke-linecap:butt;stroke-linejoin:miter;stroke-opacity:1" d="M 669.802,308.973 708.901,238.595 z" id="boundary" inkscape:connector-curvature="0" />
	<path style="fill:none;stroke:#000000;stroke-width:1px;stroke-linecap:butt;stroke-linejoin:miter;stroke-opacity:1" d="M 708.901,238.595 731.243,157.045 z" id="boundary" inkscape:connector-curvature="0" />
	<path style="fill:none;stroke:#000000;stroke-width:1px;stroke-linecap:butt;stroke-linejoin:miter;stroke-opacity:1" d="M 731.243,157.045 596.072,100.072 z" id="boundary" inkscape:connector-curvature="0" />
	<path style="fill:none;stroke:#000000;stroke-width:1px;stroke-linecap:butt;stroke-linejoin:miter;stroke-opacity:1" d="M 596.072,100.072 552.505,96.7207 z" id="boundary" inkscape:connector-curvature="0" />
	<path style="fill:none;stroke:#000000;stroke-width:1px;stroke-linecap:butt;stroke-linejoin:miter;stroke-opacity:1" d="M 552.505,96.7207 527.928,93.3694 z" id="boundary" inkscape:connector-curvature="0" />
	<path style="fill:none;stroke:#000000;stroke-width:1px;stroke-linecap:butt;stroke-linejoin:miter;stroke-opacity:1" d="M 527.928,93.3694 501.117,93.3694 z" id="boundary" inkscape:connector-curvature="0" />
	<path style="fill:none;stroke:#000000;stroke-width:1px;stroke-linecap:butt;stroke-linejoin:miter;stroke-opacity:1" d="M 501.117,93.3694 470.955,98.955 z" id="boundary" inkscape:connector-curvature="0" />
	<path style="fill:none;stroke:#000000;stroke-width:1px;stroke-linecap:butt;stroke-linejoin:miter;stroke-opacity:1" d="M 470.955,98.955 478.775,75.4955 z" id="boundary" inkscape:connector-curvature="0" />
	<path style="fill:none;stroke:#000000;stroke-width:1px;stroke-linecap:butt;stroke-linejoin:miter;stroke-opacity:1" d="M 478.775,75.4955 504.468,56.5045 z" id="boundary" inkscape:connector-curvature="0" />
	<path style="fill:none;stroke:#000000;stroke-width:1px;stroke-linecap:butt;stroke-linejoin:miter;stroke-opacity:1" d="M 504.468,56.5045 558.09,33.045 z" id="boundary" inkscape:connector-curvature="0" />
	<path style="fill:none;stroke:#000000;stroke-width:1px;stroke-linecap:butt;stroke-linejoin:miter;stroke-opacity:1" d="M 558.09,33.045 586.018,11.8198 z" id="boundary" inkscape:connector-curvature="0" />
	<circle cx="630.703" cy="4" r="4" fill="#0" id="circle0"/>
	<circle cx="702.198" cy="7.35135" r="4" fill="#0" id="circle1"/>
	<circle cx="729.009" cy="18.5225" r="4" fill="#0" id="circle2"/>
	<circle cx="789.333" cy="79.964" r="4" fill="#0" id="circle3"/>
	<circle cx="796.036" cy="105.658" r="4" fill="#0" id="circle4"/>
	<circle cx="809.441" cy="181.622" r="4" fill="#0" id="circle5"/>
	<circle cx="810.559" cy="210.667" r="4" fill="#0" id="circle6"/>
	<circle cx="806.09" cy="255.351" r="4" fill="#0" id="circle7"/>
	<circle cx="796.036" cy="312.324" r="4" fill="#0" id="circle8"/>
	<circle cx="784.865" cy="371.532" r="4" fill="#0" id="circle9"/>
	<circle cx="782.631" cy="435.207" r="4" fill="#0" id="circle10"/>
	<circle cx="772.577" cy="502.234" r="4" fill="#0" id="circle11"/>
	<circle cx="759.171" cy="550.27" r="4" fill="#0" id="circle12"/>
	<circle cx="737.946" cy="617.297" r="4" fill="#0" id="circle13"/>
	<circle cx="670.919" cy="708.901" r="4" fill="#0" id="circle14"/>
	<circle cx="579.315" cy="749.117" r="4" fill="#0" id="circle15"/>
	<circle cx="432.973" cy="775.928" r="4" fill="#0" id="circle16"/>
	<circle cx="351.423" cy="789.333" r="4" fill="#0" id="circle17"/>
	<circle cx="344.721" cy="844.072" r="4" fill="#0" id="circle18"/>
	<circle cx="362.595" cy="857.477" r="4" fill="#0" id="circle19"/>
	<circle cx="362.595" cy="880.937" r="4" fill="#0" id="circle20"/>
	<circle cx="352.541" cy="907.748" r="4" fill="#0" id="circle21"/>
	<circle cx="351.423" cy="930.09" r="4" fill="#0" id="circle22"/>
	<circle cx="348.072" cy="950.198" r="4" fill="#0" id="circle23"/>
	<circle cx="351.423" cy="963.604" r="4" fill="#0" id="circle24"/>
	<circle cx="369.297" cy="970.306" r="4" fill="#0" id="circle25"/>
	<circle cx="389.405" cy="973.658" r="4" fill="#0" id="circle26"/>
	<circle cx="393.874" cy="993.766" r="4" fill="#0" id="circle27"/>
	<circle cx="370.414" cy="990.414" r="4" fill="#0" id="circle28"/>
	<circle cx="349.189" cy="983.712" r="4" fill="#0" id="circle29"/>
	<circle cx="327.964" cy="980.36" r="4" fill="#0" id="circle30"/>
	<circle cx="298.919" cy="982.595" r="4" fill="#0" id="circle31"/>
	<circle cx="277.694" cy="987.063" r="4" fill="#0" id="circle32"/>
	<circle cx="255.351" cy="996" r="4" fill="#0" id="circle33"/>
	<circle cx="237.477" cy="989.297" r="4" fill="#0" id="circle34"/>
	<circle cx="248.649" cy="975.892" r="4" fill="#0" id="circle35"/>
	<circle cx="265.405" cy="969.189" r="4" fill="#0" id="circle36"/>
	<circle cx="287.748" cy="963.604" r="4" fill="#0" id="circle37"/>
	<circle cx="308.973" cy="960.252" r="4" fill="#0" id="circle38"/>
	<circle cx="319.027" cy="943.495" r="4" fill="#0" id="circle39"/>
	<circle cx="325.73" cy="908.865" r="4" fill="#0" id="circle40"/>
	<circle cx="325.73" cy="888.757" r="4" fill="#0" id="circle41"/>
	<circle cx="324.613" cy="850.775" r="4" fill="#0" id="circle42"/>
	<circle cx="317.91" cy="793.802" r="4" fill="#0" id="circle43"/>
	<circle cx="281.045" cy="793.802" r="4" fill="#0" id="circle44"/>
	<circle cx="169.333" cy="777.045" r="4" fill="#0" id="circle45"/>
	<circle cx="65.4414" cy="732.36" r="4" fill="#0" id="circle46"/>
	<circle cx="4" cy="668.685" r="4" fill="#0" id="circle47"/>
	<circle cx="88.9009" cy="560.324" r="4" fill="#0" id="circle48"/>
	<circle cx="230.775" cy="447.495" r="4" fill="#0" id="circle49"/>
	<circle cx="349.189" cy="417.333" r="4" fill="#0" id="circle50"/>
	<circle cx="464.252" cy="427.387" r="4" fill="#0" id="circle51"/>
	<circle cx="568.144" cy="427.387" r="4" fill="#0" id="circle52"/>
	<circle cx="669.802" cy="308.973" r="4" fill="#0" id="circle53"/>
	<circle cx="708.901" cy="238.595" r="4" fill="#0" id="circle54"/>
	<circle cx="731.243" cy="157.045" r="4" fill="#0" id="circle55"/>
	<circle cx="702.198" cy="88.9009" r="4" fill="#0" id="circle56"/>
	<circle cx="686.559" cy="75.4955" r="4" fill="#0" id="circle57"/>
	<circle cx="634.054" cy="76.6126" r="4" fill="#0" id="circle58"/>
	<circle cx="596.072" cy="100.072" r="4" fill="#0" id="circle59"/>
	<circle cx="552.505" cy="96.7207" r="4" fill="#0" id="circle60"/>
	<circle cx="527.928" cy="93.3694" r="4" fill="#0" id="circle61"/>
	<circle cx="501.117" cy="93.3694" r="4" fill="#0" id="circle62"/>
	<circle cx="470.955" cy="98.955" r="4" fill="#0" id="circle63"/>
	<circle cx="478.775" cy="75.4955" r="4" fill="#0" id="circle64"/>
	<circle cx="504.468" cy="56.5045" r="4" fill="#0" id="circle65"/>
	<circle cx="558.09" cy="33.045" r="4" fill="#0" id="circle66"/>
	<circle cx="586.018" cy="11.8198" r="4" fill="#0" id="circle67"/>
	<circle cx="600.541" cy="33.045" r="4" fill="#0" id="circle68"/>
	<circle cx="590.486" cy="45.3333" r="4" fill="#0" id="circle69"/>
	<circle cx="599.423" cy="53.1532" r="4" fill="#0" id="circle70"/>
	<circle cx="609.477" cy="48.6847" r="4" fill="#0" id="circle71"/>
	<circle cx="610.595" cy="35.2793" r="4" fill="#0" id="circle72"/>
	<circle cx="609.477" cy="5.11712" r="4" fill="#0" id="circle73"/>
	</g>
</svg>