108 126
108 136
108 280
108 290
108 300
110 246
110 256
110 266
110 310
110 320
110 330
111 146
112 230
112 340
112 350
113 360
114 118
114 156
114 166
114 212
116 176
116 186
116 196
123 113
123 361
124 351
126 321
127 331
127 341
132 108
136 321
142 104
146 322
152 102
156 323
162 98
166 323
172 96
176 323
182 92
186 323
192 90
196 323
202 88
206 323
211 83
216 323
220 78
226 323
229 73
236 323
238 66
246 54
246 323
256 54
256 323
265 59
266 323
273 66
276 323
281 72
286 323
291 76
296 323
299 82
305 90
306 323
315 92
316 323
325 94
326 323
335 96
336 323
345 100
346 323
355 102
356 323
365 106
366 324
366 334
366 344
368 354
373 363
375 110
383 361
384 115
387 152
387 162
387 172
391 350
392 121
393 144
393 330
393 361
394 180
395 131
395 340
403 327
404 184
412 190
413 329
420 196
423 331
429 201
433 335
435 209
441 329
444 214
451 325
454 212
461 325
464 212
471 329
474 212
481 333
482 206
490 200
491 337
500 196
501 341
510 192
511 343
519 187
521 345
529 186
531 345
538 191
541 344
547 196
551 341
557 200
561 337
567 204
571 333
575 210
581 329
585 212
591 326
595 212
601 325
605 214
611 327
615 214
618 335
625 216
628 333
635 218
638 329
645 220
648 327
655 222
658 327
665 226
667 332
668 344
668 354
673 363
675 230
677 290
677 300
677 310
678 320
679 266
679 276
679 350
682 330
683 236
683 340
683 360
687 258
689 244
