138 258
138 268
138 278
138 288
138 298
139 308
140 130
140 140
140 150
140 160
140 170
140 180
140 190
140 200
140 210
140 220
140 230
140 240
140 318
142 118
142 328
144 346
144 356
146 104
151 95
152 363
157 87
157 348
159 322
159 332
160 76
161 358
162 58
169 321
172 55
172 331
174 341
174 351
176 361
177 64
178 74
179 84
179 94
183 104
185 150
185 160
185 348
186 114
186 361
188 124
188 323
188 333
189 134
193 166
198 323
203 164
208 323
213 166
218 323
223 170
228 323
232 175
238 323
240 181
248 323
250 178
258 323
260 176
268 323
270 176
278 323
280 179
288 323
290 182
298 323
299 187
308 192
308 323
316 198
318 323
322 206
328 214
328 323
332 224
338 323
340 230
348 323
350 230
358 323
360 230
368 323
370 230
378 323
380 230
388 323
390 230
398 323
400 230
408 323
410 230
418 323
420 230
428 323
430 230
438 323
440 230
448 323
450 230
458 323
460 230
468 323
470 230
478 323
480 230
488 323
490 230
498 323
500 230
508 323
510 230
518 323
520 232
528 323
530 232
538 323
540 232
548 323
550 232
558 323
560 233
568 323
570 236
578 323
580 236
588 323
590 236
598 323
600 236
608 230
608 324
610 334
610 344
612 354
613 221
617 363
621 213
623 350
624 198
628 188
629 342
638 188
639 342
642 352
643 197
643 207
647 361
648 216
653 225
655 316
655 350
657 235
657 258
657 268
657 278
657 288
657 298
657 326
657 360
659 245
659 336
