110 132
112 142
112 254
112 264
112 274
112 284
112 294
112 304
112 314
113 324
114 236
114 334
114 344
115 123
116 152
116 222
116 354
118 162
118 172
118 182
118 192
118 202
118 212
123 116
124 361
127 324
127 334
127 344
133 111
137 321
142 106
147 321
152 104
157 321
162 100
167 321
172 98
177 321
182 96
187 321
192 94
197 321
202 90
207 321
211 85
217 321
219 78
227 321
229 75
237 321
238 68
246 56
247 321
256 54
257 321
266 57
267 321
271 66
277 321
279 72
287 321
289 76
297 82
297 321
303 90
307 321
313 92
317 321
323 94
327 321
333 96
337 321
343 100
347 321
353 102
357 321
363 106
366 332
367 321
368 342
368 356
373 110
376 362
383 114
386 361
387 154
387 164
387 174
391 120
393 146
393 348
395 180
395 328
395 338
396 358
397 128
399 138
405 184
405 327
413 190
415 329
420 198
425 333
428 204
434 212
435 330
444 214
444 325
454 212
454 324
464 212
464 327
474 210
474 331
482 202
484 335
492 202
494 339
500 196
504 343
510 192
514 345
518 186
524 345
528 188
534 345
537 193
544 343
546 198
554 339
556 202
563 334
565 207
573 330
575 210
583 326
585 212
593 324
595 212
603 325
605 214
611 331
615 216
621 333
625 216
631 330
635 218
641 327
645 222
651 327
655 224
661 327
665 228
666 348
667 335
667 358
673 302
674 233
675 280
675 290
675 312
676 322
677 266
677 348
677 361
680 332
682 239
685 254
