158 128
158 138
160 252
160 262
160 272
160 282
160 292
160 302
160 312
160 322
160 332
160 342
160 356
162 236
163 147
164 120
164 224
166 157
166 167
166 177
166 187
166 197
166 207
169 361
173 115
173 344
175 322
175 332
183 111
185 321
192 106
195 321
202 104
205 321
212 102
215 321
222 100
225 321
232 98
235 321
242 96
245 321
252 92
255 321
262 92
262 329
262 339
262 356
270 363
272 88
277 354
279 338
280 80
281 328
290 76
291 327
300 72
301 327
308 66
311 327
316 56
321 331
326 54
331 335
334 61
341 330
342 67
350 73
350 325
360 76
360 323
369 81
370 325
377 88
380 328
387 90
390 331
397 92
400 335
407 94
410 339
417 96
420 342
427 100
430 345
437 102
440 345
447 104
450 345
457 108
460 343
467 110
470 341
476 115
476 349
478 359
480 193
481 156
481 166
481 176
485 120
485 202
486 147
487 348
488 359
489 336
491 128
491 138
494 207
499 332
504 210
509 328
514 212
519 325
524 212
529 323
534 213
539 325
544 216
548 330
554 216
557 335
564 216
567 331
574 218
577 329
584 220
587 327
594 222
597 327
604 225
607 327
614 228
614 335
616 345
616 355
622 234
622 363
623 300
623 310
625 270
625 280
625 290
625 320
626 349
628 330
631 239
631 262
637 247
