194 128
194 138
194 334
196 262
196 272
196 282
196 292
196 302
196 312
196 322
196 344
196 354
198 242
198 252
199 147
200 120
200 228
202 157
202 167
202 210
204 177
204 187
204 197
204 361
209 115
209 324
209 334
209 344
216 356
218 329
219 111
224 363
228 106
232 355
233 334
233 344
238 106
241 327
248 102
251 327
258 100
261 327
268 98
271 329
278 96
281 333
288 94
291 334
298 92
299 328
308 90
309 325
314 82
319 323
324 78
329 325
334 74
339 329
344 72
349 63
349 333
357 55
359 335
367 54
369 339
374 62
379 343
381 70
389 345
391 74
399 345
401 76
409 345
410 81
416 89
419 344
426 90
429 342
436 92
439 339
446 94
449 335
456 96
459 331
466 98
469 328
476 101
479 325
486 104
489 323
496 106
499 325
506 109
509 329
516 113
517 335
520 345
520 355
525 118
525 162
525 172
525 182
525 192
525 202
525 212
527 150
528 361
531 348
533 124
533 218
533 330
535 140
543 220
543 327
553 222
553 327
563 224
563 327
573 226
573 327
578 336
578 346
579 356
583 230
587 362
589 270
589 280
589 290
589 300
589 310
589 320
590 349
591 236
591 330
595 262
599 242
600 253
