94 244
94 254
96 336
96 360
97 346
99 263
100 236
100 273
100 283
100 293
100 320
102 303
106 341
106 361
107 351
108 230
108 331
116 325
118 226
126 328
128 222
134 334
138 218
141 326
148 216
151 323
158 214
161 327
167 209
169 333
176 204
177 339
184 194
187 343
192 188
197 345
202 191
207 341
209 199
217 336
218 204
223 213
225 328
233 214
235 324
243 216
245 325
250 334
253 218
259 329
263 222
269 325
273 226
279 327
280 337
282 347
282 360
283 230
291 352
293 234
293 322
293 332
293 342
303 234
303 321
313 234
313 321
323 234
323 321
333 234
333 321
343 234
343 321
353 234
353 321
363 234
363 321
373 234
373 321
383 234
383 321
393 233
393 321
402 228
403 321
407 219
413 321
415 213
423 205
423 321
431 197
433 321
439 191
443 321
448 186
453 321
458 182
463 321
468 180
473 321
478 178
483 321
488 178
493 321
498 178
503 321
507 173
513 321
516 168
520 128
520 138
520 360
522 328
522 338
523 348
525 119
526 146
526 156
526 166
531 333
533 113
533 322
541 107
543 321
550 102
553 321
559 97
563 321
569 94
573 321
578 84
583 321
586 76
593 321
594 68
598 56
603 321
608 54
613 321
614 62
616 72
623 321
624 78
633 83
633 321
639 91
643 321
649 94
653 321
659 96
663 321
668 101
673 321
678 105
683 321
685 113
686 331
686 341
686 358
694 118
696 359
697 152
697 162
697 172
697 182
697 192
697 202
697 212
697 222
697 330
697 340
699 127
699 140
699 232
699 242
699 318
700 252
701 262
701 272
701 282
701 292
701 302
