104 246
104 256
104 340
106 360
108 266
108 276
108 326
108 350
109 237
111 286
112 296
112 306
112 316
115 338
116 228
119 328
126 224
129 331
134 218
139 328
144 216
149 325
154 214
156 333
158 204
164 340
166 196
173 345
174 190
183 343
184 194
189 203
191 336
197 210
199 328
205 216
209 327
215 218
215 335
223 329
225 222
232 334
232 344
232 360
234 227
241 235
242 355
243 336
247 322
251 236
257 321
261 236
267 321
271 236
277 321
281 236
287 321
291 236
297 321
301 235
307 321
311 234
317 321
321 234
327 321
331 234
337 321
341 234
347 321
351 234
357 321
361 234
367 321
371 234
377 321
381 234
387 321
391 234
397 321
401 234
407 321
411 234
417 321
421 234
427 321
431 232
437 321
438 224
444 216
447 321
450 208
457 321
458 202
466 196
467 321
474 190
477 321
484 186
487 321
494 182
497 321
504 180
507 321
514 180
517 321
524 180
527 321
534 180
537 321
543 175
547 321
553 172
557 321
560 128
560 138
560 360
563 170
564 329
564 339
564 349
566 118
566 146
568 156
570 361
573 334
574 110
575 324
582 104
585 321
590 98
595 321
600 86
605 321
606 78
612 66
615 321
618 56
625 321
627 61
631 71
635 321
639 78
643 88
645 321
651 94
655 321
661 98
665 321
669 104
674 330
676 340
676 360
677 110
679 321
679 350
684 118
685 334
689 127
689 148
689 158
689 168
689 178
689 188
689 198
689 208
689 218
689 228
689 324
691 137
691 238
691 248
691 258
691 268
691 278
691 288
691 304
691 314
