70 86
75 95
76 78
84 68
85 90
90 60
93 82
94 48
102 42
102 77
112 38
112 73
120 67
122 38
128 90
130 66
130 76
130 100
132 40
136 108
141 45
145 113
147 53
152 62
155 115
158 50
163 41
165 110
169 33
171 98
173 84
176 266
178 28
179 76
184 273
188 24
188 81
189 264
194 275
196 88
198 22
199 262
200 98
201 108
202 118
204 128
204 275
206 138
208 20
208 256
209 148
210 242
212 158
212 230
214 168
214 218
214 275
216 178
216 188
216 204
218 20
224 275
228 20
229 258
231 244
233 230
235 216
237 202
238 24
239 114
239 124
239 134
239 144
239 154
239 164
239 174
239 184
248 28
249 115
257 33
258 120
266 38
268 123
274 45
278 127
281 53
288 131
289 60
296 68
298 131
304 75
307 126
310 83
316 91
316 131
321 100
326 109
326 129
329 119
