156 86
156 96
156 106
158 72
160 60
160 116
160 126
162 50
166 40
169 131
172 32
174 140
176 150
176 160
176 170
178 180
178 190
178 200
178 210
178 220
178 230
178 240
178 268
180 26
180 250
186 275
189 150
189 160
189 170
189 180
189 190
189 200
189 210
189 220
189 230
190 22
191 130
191 140
191 240
191 250
191 260
196 273
199 122
200 20
202 132
202 142
202 152
202 162
202 172
202 182
202 192
202 202
202 212
204 222
204 232
204 242
204 264
205 252
206 274
210 22
213 182
213 192
213 202
213 212
215 166
215 222
215 232
215 242
216 275
217 152
217 252
218 262
219 136
220 25
221 120
225 108
226 273
229 30
229 92
234 39
239 48
239 95
241 58
241 68
243 78
