130 94
130 104
135 113
138 88
140 122
146 78
146 130
154 72
155 135
164 70
165 139
174 66
175 143
183 61
183 149
191 155
192 165
193 58
194 175
198 185
202 40
202 50
208 185
210 30
215 21
216 177
221 166
225 22
229 173
234 27
237 179
243 32
245 185
247 148
251 38
251 158
255 168
255 178
257 147
259 44
266 52
267 147
276 54
277 145
285 49
287 149
295 50
297 153
303 56
307 153
309 64
315 72
315 142
319 82
319 120
319 130
329 83
329 123
336 131
337 77
344 137
345 71
354 66
354 141
364 64
364 143
365 90
365 100
365 110
366 120
367 80
368 130
