182 64
182 132
184 74
184 84
184 94
184 104
184 114
190 139
192 64
198 133
200 71
206 79
208 135
212 66
212 145
216 56
222 48
222 149
228 170
228 180
230 143
232 49
232 160
237 151
238 179
240 42
244 171
246 34
251 162
254 26
257 154
262 20
265 147
268 157
269 28
272 38
272 167
273 48
278 175
279 56
284 183
287 144
288 61
288 154
290 164
291 174
296 139
297 66
304 133
307 70
312 127
313 78
315 88
317 112
318 98
