166 100
168 110
170 90
170 120
174 78
175 129
182 72
183 135
192 68
192 140
201 63
201 145
204 160
204 170
204 180
210 58
212 186
219 178
220 40
220 50
225 31
225 168
229 21
229 158
238 163
239 24
244 171
247 30
252 178
253 38
255 148
260 46
260 185
261 156
264 167
265 55
266 147
267 177
273 49
276 149
283 48
286 153
289 56
293 66
295 144
297 76
297 134
299 122
302 85
307 129
309 77
314 137
317 69
322 143
326 64
329 88
329 98
329 108
329 118
331 73
331 128
332 138
