194 102
194 112
196 122
198 80
198 90
201 131
206 72
208 139
214 176
215 67
216 145
216 166
217 186
220 155
223 61
225 180
231 170
232 56
236 40
236 161
238 30
240 151
242 20
250 26
250 154
255 163
256 34
261 43
261 171
266 147
267 51
267 179
271 156
274 166
274 187
277 50
279 175
281 60
281 152
284 70
287 144
289 79
294 70
297 141
302 64
305 82
305 92
305 102
305 112
305 122
307 132
