142 96
142 106
148 88
148 114
151 124
154 80
157 132
162 72
166 137
172 70
176 139
182 66
184 145
190 60
194 149
196 159
196 169
198 179
200 58
204 187
208 40
208 50
213 182
214 32
218 22
219 174
224 165
228 22
232 171
237 27
240 178
245 33
248 184
250 147
253 39
255 156
258 166
258 185
260 147
261 46
268 54
270 147
278 52
280 146
288 48
289 151
296 54
299 153
302 62
307 71
308 147
311 134
313 79
313 120
322 125
323 81
330 132
331 75
338 138
339 69
347 143
348 64
355 84
355 94
355 104
355 114
355 124
357 72
357 134
