112 92
113 102
119 110
120 86
125 118
128 80
131 126
136 74
140 131
146 70
150 135
156 66
160 138
166 62
169 143
176 58
179 147
186 56
186 155
188 165
192 175
194 38
194 48
200 181
202 32
207 23
210 179
217 23
217 170
226 175
227 26
234 181
237 28
242 145
244 181
245 34
245 155
249 165
252 145
254 39
262 143
263 44
270 52
272 143
280 52
282 141
290 48
292 145
300 47
302 148
309 52
312 149
316 60
322 68
322 147
326 137
328 76
329 118
334 84
339 117
344 80
347 123
352 74
355 129
362 70
363 135
371 65
373 139
381 63
383 88
383 98
383 108
383 139
385 78
385 118
387 128
