74 66
76 130
77 76
80 86
80 116
81 139
82 96
82 106
84 62
91 139
94 64
101 136
104 68
111 133
114 72
120 127
124 76
129 122
133 81
138 117
143 84
148 117
152 76
152 127
154 137
160 68
160 145
168 60
170 149
176 54
180 149
184 48
190 147
194 46
200 143
204 49
210 141
214 53
220 143
224 54
230 143
232 48
240 143
241 43
250 38
250 145
259 33
260 145
268 28
270 145
270 155
270 165
272 175
278 26
280 182
288 22
290 182
298 22
300 181
308 25
308 175
313 34
315 166
321 158
322 51
323 38
326 149
331 56
336 147
341 56
346 145
351 60
356 143
361 64
366 139
371 66
376 135
381 70
386 131
390 75
396 127
400 78
404 119
409 83
412 111
418 88
420 103
426 94
