112 64
112 132
114 74
116 84
116 114
118 94
118 104
120 139
122 62
130 137
132 66
140 133
141 71
149 128
150 76
157 121
159 81
167 117
169 83
172 126
174 74
174 136
178 146
180 66
186 58
188 149
194 50
198 149
204 46
208 145
214 49
218 141
223 54
228 143
233 49
238 143
241 43
248 145
249 36
252 164
252 176
254 154
259 33
259 145
260 182
269 29
270 177
278 24
279 172
288 20
288 177
296 27
297 182
299 37
306 51
306 177
311 168
315 56
315 150
324 145
325 58
334 143
335 62
342 137
345 66
352 135
355 70
362 131
365 74
370 125
372 82
376 117
381 87
382 109
388 101
