108 96
111 106
116 88
117 114
123 122
125 83
129 130
133 76
138 135
143 72
148 139
153 68
158 142
163 64
167 147
173 60
177 149
183 58
184 157
186 167
190 177
192 40
193 50
196 185
201 35
205 25
206 185
214 177
215 25
224 178
225 27
233 183
235 30
242 149
243 186
245 34
245 159
247 169
252 147
253 40
261 46
262 147
269 52
272 147
279 55
282 145
288 50
292 148
298 48
302 151
307 53
312 153
315 60
322 68
322 151
327 140
328 76
331 120
331 130
333 85
341 121
343 83
349 127
352 78
357 133
361 73
366 138
370 68
376 141
380 64
385 96
385 106
386 116
386 143
387 84
388 126
390 65
