72 66
74 130
75 76
78 86
78 116
79 139
80 96
80 106
82 62
89 139
92 64
99 137
102 68
109 133
112 72
119 128
122 76
127 122
131 81
136 117
141 84
146 117
150 78
150 127
154 137
156 70
159 146
164 62
169 149
172 56
179 149
180 50
189 147
190 46
199 144
200 48
209 141
210 51
219 56
219 143
229 51
229 143
237 44
239 143
247 41
249 145
257 37
259 145
266 32
269 145
272 155
272 165
274 175
276 31
282 181
286 29
292 182
294 22
302 177
304 20
310 28
310 171
315 37
317 162
323 44
323 152
324 54
332 147
334 56
342 147
344 58
352 145
354 60
362 141
364 64
372 137
374 68
382 133
384 71
392 129
393 76
401 124
403 78
409 116
412 83
417 108
421 88
425 100
