100 94
102 104
108 112
109 89
115 120
117 83
121 128
126 78
130 133
134 72
139 138
144 70
149 139
154 66
158 144
164 62
167 149
174 58
177 151
182 160
184 56
186 170
190 38
190 48
191 179
199 33
199 185
203 23
209 184
213 25
215 176
223 28
224 181
233 30
233 186
239 150
243 34
243 160
243 182
245 170
249 147
253 38
259 147
261 44
269 50
269 147
276 58
279 146
285 53
289 145
294 48
299 149
304 48
309 153
313 53
319 153
321 60
327 68
329 148
333 76
333 138
336 119
339 84
346 120
349 84
355 125
358 78
363 131
368 74
371 137
377 69
381 141
387 66
391 143
395 90
395 100
395 110
397 64
397 120
399 74
399 130
401 140
