44 232
44 242
44 252
44 262
44 272
46 172
46 182
46 192
46 202
46 212
46 222
46 282
48 292
52 156
56 299
62 154
64 26
66 301
68 36
70 18
70 46
72 150
74 136
76 26
76 54
76 64
76 74
76 84
76 94
76 104
76 114
76 124
76 299
78 36
82 46
85 129
85 139
85 149
85 159
85 294
87 169
87 194
87 204
87 214
89 179
89 224
89 234
89 274
89 284
91 244
91 254
91 264
