22 246
22 256
22 266
26 236
26 276
31 227
32 178
32 188
32 284
36 198
36 216
40 172
40 290
49 295
50 172
59 299
60 170
62 158
64 26
66 36
68 46
69 299
71 153
72 20
74 114
74 124
74 134
75 54
76 64
76 74
76 84
76 94
76 104
79 299
82 19
87 30
89 40
89 50
89 60
89 70
89 80
89 90
89 100
89 110
89 299
91 120
91 130
91 140
91 150
92 160
99 297
102 162
109 293
112 165
113 204
115 214
117 192
118 173
118 287
119 224
125 232
125 278
129 242
129 268
131 252
