22 252
22 262
24 242
25 272
29 233
30 281
34 224
36 174
36 184
38 194
38 288
40 214
42 166
42 204
47 293
52 162
57 297
62 160
67 299
68 26
68 36
70 46
72 156
76 20
76 92
76 102
76 112
76 122
76 132
76 142
77 54
77 299
78 64
78 74
86 19
87 299
91 30
91 40
91 52
91 62
91 72
91 82
91 92
91 102
92 112
93 122
93 132
93 142
93 152
93 162
93 172
97 298
99 180
107 295
108 174
117 204
117 290
118 172
119 214
121 194
124 180
124 223
125 282
129 232
131 274
133 242
135 252
135 262
