56 28
56 38
61 47
62 20
71 51
72 20
80 45
82 24
90 46
90 352
90 362
92 20
92 56
92 66
92 212
92 222
92 232
92 242
92 252
92 262
92 272
92 282
92 292
92 302
92 312
92 322
92 332
92 342
94 184
94 194
96 76
98 174
99 86
100 96
100 365
102 20
102 106
102 116
102 126
102 136
102 146
102 156
110 365
112 20
120 365
122 20
129 110
129 120
129 130
129 140
129 150
129 160
130 365
131 90
131 100
131 170
132 20
135 74
135 180
137 190
139 60
139 200
139 210
139 220
139 230
139 240
139 250
139 260
139 270
139 280
139 290
139 300
139 310
139 320
139 330
140 365
141 340
141 350
142 20
149 59
150 26
155 67
158 33
160 76
165 41
169 81
171 49
176 58
179 68
179 81
