72 30
73 40
78 22
79 48
88 20
89 51
94 346
94 356
95 59
96 69
96 184
96 194
96 204
96 214
96 224
96 234
96 244
96 254
96 264
96 274
96 284
96 294
96 304
96 314
96 324
96 334
98 20
99 365
100 79
100 174
102 89
104 99
104 109
104 119
104 129
104 139
104 149
104 159
108 20
109 365
118 20
119 365
128 20
129 116
129 126
129 136
129 146
129 156
129 365
131 90
131 100
131 166
133 176
136 81
137 186
138 20
139 196
139 206
139 216
139 226
139 236
139 246
139 256
139 266
139 276
139 286
139 296
139 306
139 316
139 326
139 336
139 346
139 365
146 26
146 81
151 35
156 81
157 43
161 53
165 63
166 81
