52 30
53 40
56 20
57 50
66 20
67 50
76 24
76 45
86 24
86 45
90 362
92 348
94 226
94 236
94 246
94 256
94 266
94 276
94 286
94 296
94 306
94 316
94 326
94 336
96 20
96 48
96 186
96 196
96 206
96 216
98 58
98 68
100 365
102 78
102 178
104 88
106 20
106 98
106 108
106 158
106 168
108 118
108 128
108 138
108 148
110 365
116 20
120 365
126 20
130 365
131 112
131 122
131 132
131 142
131 152
133 90
133 100
133 162
134 172
136 20
137 74
138 182
140 365
141 50
141 60
143 191
143 201
143 211
143 221
143 231
145 241
145 251
145 261
145 271
145 281
145 291
145 301
145 311
145 321
145 331
145 341
146 21
147 351
151 49
154 27
161 53
162 33
169 41
170 58
175 49
176 66
181 57
182 74
