98 362
100 190
100 200
100 210
100 220
100 230
100 240
100 250
100 260
100 270
100 280
100 290
100 300
100 310
100 320
100 330
100 340
100 350
102 62
102 72
104 36
104 46
106 22
106 182
107 81
108 365
110 91
110 101
110 166
112 111
112 121
112 131
112 141
112 151
116 20
118 365
126 20
128 365
131 92
131 102
131 112
131 122
131 132
131 142
131 152
131 162
133 82
133 172
135 25
136 182
137 35
138 365
139 45
139 55
139 65
141 191
141 201
141 248
141 258
141 268
141 278
141 288
141 298
141 308
141 318
141 328
141 338
143 211
143 221
143 231
143 348
