50 32
52 42
54 22
57 51
64 20
67 51
74 24
75 45
84 24
85 45
90 356
92 328
92 338
94 20
94 50
94 60
94 190
94 200
94 210
94 220
94 230
94 240
94 250
94 260
94 270
94 280
94 290
94 300
94 310
95 365
96 70
99 181
100 80
102 90
102 168
104 20
104 100
104 110
104 120
104 130
104 140
104 150
105 365
114 20
115 365
124 20
125 365
131 98
131 108
131 118
131 128
131 138
131 148
131 158
132 168
133 86
134 20
135 178
135 365
137 74
139 64
139 188
141 48
141 198
141 208
141 218
141 228
141 238
141 248
141 258
141 268
141 278
141 288
141 298
141 308
141 318
143 328
143 338
143 348
144 21
145 358
151 51
153 26
160 56
161 32
167 64
168 40
173 72
174 48
178 81
180 56
185 65
187 75
