68 30
69 40
74 22
75 48
84 20
85 51
92 358
94 22
94 56
94 66
94 206
94 216
94 226
94 236
94 246
94 256
94 266
94 276
94 286
94 296
94 306
94 316
94 326
94 336
94 346
96 182
96 192
98 76
100 86
100 172
100 365
102 96
104 20
104 106
104 116
104 126
104 136
104 146
104 156
110 365
114 20
120 365
124 20
129 114
129 124
129 134
129 144
129 154
130 365
131 90
131 100
131 164
133 174
134 20
135 74
137 184
139 194
139 204
139 214
139 224
139 234
139 244
139 254
139 264
139 274
139 284
139 294
139 304
139 314
139 324
139 334
139 344
140 365
141 354
143 81
144 23
151 31
153 81
157 39
162 48
163 81
166 58
169 68
