74 68
74 78
78 54
82 44
84 81
88 34
94 26
94 81
100 350
100 360
102 20
102 186
102 196
102 206
102 216
102 226
102 236
102 246
102 256
102 266
102 276
102 286
102 296
102 306
102 316
102 326
102 336
104 81
106 176
108 91
109 365
110 101
110 111
110 121
110 131
110 141
110 151
110 161
112 20
119 365
122 20
129 365
132 20
135 122
135 132
135 142
136 152
137 92
137 102
137 112
137 162
139 172
139 365
141 76
142 20
142 182
144 192
145 56
145 66
145 202
145 212
145 222
145 232
145 242
145 252
145 262
145 272
145 282
145 292
145 302
145 312
145 322
145 332
145 342
145 352
152 20
154 51
162 22
163 46
167 31
