86 74
88 58
92 42
94 81
96 32
100 344
100 354
100 364
101 23
102 182
102 192
102 202
102 212
102 222
102 232
102 242
102 252
102 262
102 272
102 282
102 292
102 302
102 312
102 322
102 332
104 81
108 91
108 170
110 101
110 111
110 121
110 131
110 141
110 151
110 365
111 20
120 365
121 20
130 365
131 20
133 108
133 118
133 128
133 138
133 148
133 158
135 88
135 98
135 168
137 178
139 70
140 365
141 20
141 52
143 186
143 196
143 206
143 216
143 226
143 236
143 246
143 256
143 266
143 276
143 286
143 296
143 306
143 316
143 326
143 336
143 346
145 356
149 44
150 25
