74 130
74 140
74 150
74 160
76 120
76 170
79 180
80 108
84 98
85 188
89 89
92 196
92 206
92 232
92 242
92 252
94 216
97 81
100 259
107 80
110 259
111 206
111 216
111 226
111 236
115 196
115 246
117 84
120 187
122 204
122 214
124 224
124 234
125 244
126 254
127 81
135 259
137 78
141 202
141 212
141 222
142 232
145 192
145 242
145 259
147 78
150 183
155 174
157 80
160 165
167 82
168 159
177 82
178 161
187 82
188 161
197 80
198 161
206 167
206 177
206 187
207 78
208 197
210 207
210 217
212 227
212 237
214 247
214 257
217 74
224 259
227 69
227 194
227 204
227 214
229 224
234 259
235 63
243 55
244 259
249 206
249 216
250 46
251 192
251 226
252 236
253 162
253 172
253 182
254 259
255 246
257 152
258 38
262 143
265 132
266 32
269 114
273 98
276 28
277 86
286 24
286 81
296 21
296 83
306 20
306 87
308 35
313 44
316 89
317 54
322 63
325 84
327 72
