144 244
144 254
146 232
148 116
148 128
148 138
148 194
148 206
148 216
150 148
150 158
150 168
150 178
152 104
153 259
158 96
163 87
163 259
165 200
165 210
165 220
165 230
165 240
171 80
173 193
181 79
183 188
185 178
190 196
191 78
192 206
192 216
192 226
192 236
192 246
192 256
200 70
202 259
206 60
207 202
207 212
209 192
209 222
211 180
211 232
212 50
212 259
213 170
213 242
215 160
217 41
222 28
224 165
224 175
224 185
224 226
224 236
224 246
224 256
226 195
226 205
226 215
230 20
234 259
239 25
241 198
241 208
241 218
241 228
243 238
244 259
245 154
245 164
245 174
245 184
245 248
247 90
248 20
248 100
249 110
249 120
249 130
249 140
253 36
255 54
256 64
256 85
257 74
