112 136
112 148
112 158
114 120
114 168
115 178
116 110
116 236
116 246
116 256
118 192
118 202
118 212
118 222
120 100
124 90
126 259
130 82
135 204
135 214
135 224
135 234
136 259
137 244
139 192
140 80
145 178
150 80
150 169
154 159
156 192
157 202
158 175
158 212
158 222
158 232
159 242
160 78
160 252
168 259
170 78
175 198
175 208
175 218
175 228
178 238
178 259
179 186
180 81
181 248
183 174
187 162
190 82
194 170
194 180
194 190
196 200
196 210
198 220
198 230
198 240
199 77
199 250
204 259
207 71
213 192
213 202
213 212
214 259
215 63
215 160
215 170
215 180
215 222
215 232
218 242
221 55
222 252
224 165
226 175
226 185
226 228
227 47
228 195
228 205
228 215
230 259
233 39
240 259
241 33
243 198
243 208
243 218
243 228
245 238
247 160
247 170
247 180
249 27
249 248
250 259
251 146
255 120
255 130
257 20
257 86
257 96
257 106
265 26
267 87
274 20
276 37
277 89
281 46
282 56
285 66
287 76
