74 72
74 82
79 63
82 89
84 54
88 44
90 22
92 32
92 89
100 23
102 85
110 21
112 83
119 26
122 82
125 92
128 102
129 30
130 112
132 122
135 132
139 34
139 142
140 254
144 151
146 42
146 161
146 242
148 171
148 181
148 191
149 259
150 201
150 224
152 211
154 49
159 259
161 57
169 63
169 190
169 200
169 210
169 220
169 230
169 259
178 68
179 259
186 74
187 244
189 222
189 232
191 200
191 210
193 190
195 164
195 174
196 78
205 161
206 80
215 161
216 82
225 161
226 82
235 159
236 82
242 167
246 80
246 177
250 252
252 185
255 243
256 78
257 194
258 232
258 259
260 204
260 214
266 79
268 259
275 244
276 82
277 222
277 232
278 186
279 202
279 212
282 254
286 82
286 244
289 205
290 215
290 225
291 259
296 80
301 259
306 83
307 210
307 220
307 244
308 230
309 192
313 91
317 101
318 187
322 110
323 174
325 120
326 145
327 130
327 155
