112 132
112 142
112 152
112 162
114 116
114 172
116 182
116 230
116 240
116 250
118 104
118 192
118 202
118 212
121 259
122 94
127 85
131 259
133 214
133 224
134 234
135 200
136 80
136 244
140 191
145 176
146 82
150 167
154 157
156 78
156 190
156 200
156 210
158 173
158 220
158 230
158 240
160 250
165 259
166 78
173 202
173 212
175 222
175 232
175 259
176 80
177 188
179 242
181 178
183 252
185 166
186 82
192 174
192 184
194 194
196 80
196 204
196 214
198 224
198 234
198 244
198 254
206 76
207 259
211 196
212 206
213 166
213 176
213 216
214 70
214 186
214 226
215 236
217 259
219 246
220 62
221 159
224 169
224 179
224 189
226 54
226 199
226 209
226 219
226 229
226 254
231 45
235 259
236 36
243 196
243 206
243 216
243 226
244 30
244 236
245 174
245 184
245 259
247 156
247 246
251 144
252 22
255 96
255 112
255 122
255 132
257 84
262 25
267 87
272 22
276 37
277 89
281 46
282 56
285 66
287 76
