58 128
58 138
58 152
58 162
60 118
61 172
64 108
65 182
69 99
73 189
74 88
82 82
82 194
82 204
82 234
83 244
84 214
84 224
84 254
92 80
93 259
101 212
101 222
102 83
103 202
103 232
103 259
104 242
112 82
113 257
122 80
123 259
125 204
125 214
125 224
127 234
129 194
131 244
132 78
133 259
135 184
141 174
142 78
147 166
152 80
153 158
162 82
163 159
172 82
173 161
182 82
183 161
192 82
193 161
202 78
203 161
210 169
212 76
212 179
212 189
214 199
214 209
216 219
216 229
216 239
218 252
221 71
226 259
230 66
236 259
239 61
246 259
247 55
249 206
249 216
251 192
251 226
253 162
253 172
253 182
253 236
255 47
256 259
257 150
257 246
263 39
263 142
267 132
271 118
272 34
275 106
279 96
282 30
284 87
292 26
292 81
302 22
302 83
312 22
312 84
318 33
321 43
322 88
327 51
332 60
332 89
337 69
340 81
