14 76
22 70
23 81
32 70
33 81
42 70
43 81
48 62
52 50
52 86
58 94
58 212
62 50
63 221
64 200
65 102
68 112
68 122
68 132
68 142
68 152
68 162
68 172
68 182
72 50
73 221
82 50
83 221
92 50
93 221
98 28
102 50
103 19
103 221
105 110
105 120
105 130
105 140
105 150
105 160
105 170
105 180
105 190
108 200
112 52
112 210
113 16
113 221
115 108
117 26
120 36
120 46
125 104
128 52
133 98
138 52
139 88
147 81
148 52
157 81
158 50
167 81
168 50
177 81
178 50
183 59
183 69
