28 74
36 81
38 70
46 81
48 70
54 212
56 82
58 70
59 221
60 92
62 200
65 101
66 111
66 121
66 131
66 141
66 151
66 161
66 171
66 181
68 70
69 221
77 65
79 221
82 56
89 221
90 50
99 116
99 126
99 136
99 146
99 156
99 166
99 176
99 221
100 26
100 50
101 186
101 196
105 206
108 18
108 111
109 221
110 50
117 23
118 109
120 50
125 16
126 103
127 26
130 36
130 46
131 94
135 82
140 50
145 81
150 50
155 81
160 50
165 81
170 50
171 60
171 70
