20 78
26 70
30 81
36 70
40 81
46 70
50 81
56 70
56 89
56 212
61 221
62 97
62 202
66 64
66 107
66 186
68 117
68 127
68 137
68 147
68 157
68 167
71 221
72 50
81 221
82 50
91 221
92 50
100 26
101 112
101 122
101 132
101 142
101 152
101 162
101 172
101 182
101 192
101 221
102 50
105 202
106 18
111 109
111 210
111 221
112 50
115 23
121 107
122 50
123 16
125 27
128 37
129 100
135 45
135 90
140 81
144 50
150 81
154 50
160 81
164 50
170 81
174 50
179 59
179 69
