40 76
42 50
42 60
49 81
52 50
59 81
60 28
60 38
65 47
66 20
68 86
70 96
75 50
75 105
76 16
84 23
85 50
85 109
88 212
92 30
93 221
94 202
95 50
95 109
98 119
98 129
98 139
98 149
98 159
98 169
98 179
98 189
101 58
103 221
107 66
113 221
117 70
123 221
127 70
133 221
135 100
135 110
135 120
135 130
135 140
135 150
135 160
135 170
135 180
135 190
137 70
138 200
139 90
143 209
143 221
144 81
147 70
154 81
