16 78
18 50
18 60
26 81
28 50
36 81
38 50
46 81
48 50
54 87
58 50
60 95
68 50
68 101
76 107
78 50
80 212
82 26
82 36
85 221
86 109
86 202
88 18
89 44
90 119
90 129
90 139
90 149
90 159
90 169
90 179
90 189
95 26
95 221
97 50
105 221
107 50
115 221
117 50
125 221
127 50
127 106
127 116
127 126
127 136
127 146
127 156
127 166
127 176
127 186
127 196
131 206
135 221
136 101
137 50
144 93
147 50
150 85
157 50
158 60
160 81
162 70
170 81
172 70
180 81
