34 76
42 70
43 81
52 70
53 81
54 212
59 221
60 89
62 70
62 200
64 99
66 109
66 119
66 129
66 139
66 149
66 159
66 169
66 179
66 189
69 221
72 70
79 221
82 70
87 61
89 221
92 50
99 221
100 30
101 112
101 122
101 132
101 142
101 152
101 162
101 172
101 182
101 192
102 50
104 202
105 21
109 211
109 221
111 109
112 50
114 16
121 107
122 23
122 50
129 100
130 29
132 39
132 49
133 84
142 50
143 81
152 50
153 81
162 50
163 81
167 59
167 69
