22 76
30 70
34 60
35 79
36 50
45 79
46 50
52 87
56 50
58 95
66 50
66 101
66 210
67 220
72 202
76 50
76 105
77 193
77 221
78 115
78 125
78 135
78 145
78 155
78 165
78 175
86 50
87 221
96 26
96 50
97 221
101 17
106 28
106 38
106 48
107 221
113 108
113 118
113 128
113 138
113 148
113 158
113 168
113 178
113 188
114 198
116 50
117 221
119 207
123 105
126 50
132 99
136 50
140 93
146 50
146 85
154 79
156 50
164 79
166 50
174 79
176 51
177 61
