26 54
26 64
26 74
34 81
36 50
44 81
46 50
54 81
56 50
64 30
64 40
64 82
66 92
69 21
71 48
72 100
78 16
80 106
81 50
86 23
88 212
90 109
91 50
93 221
94 30
94 202
98 186
100 112
100 122
100 132
100 142
100 152
100 162
100 172
101 50
103 221
111 50
113 221
121 50
123 221
124 60
129 69
133 221
135 100
135 110
135 120
135 130
135 140
135 150
135 160
135 170
135 180
135 190
138 200
139 70
141 90
143 209
143 221
146 81
149 70
156 81
159 70
166 81
169 70
