30 78
36 70
40 81
46 70
50 81
54 212
56 70
58 87
59 221
60 202
62 97
64 107
64 117
64 127
64 137
64 147
64 157
64 167
64 177
64 187
66 70
69 221
76 70
79 221
84 62
88 50
89 221
98 50
99 112
99 122
99 132
99 142
99 152
99 162
99 172
99 182
99 192
99 221
100 26
103 202
108 18
108 50
108 211
109 109
109 221
117 23
118 50
119 107
125 16
127 26
127 100
128 50
131 88
132 35
137 44
139 81
145 50
149 81
155 50
159 81
165 50
167 60
167 70
169 80
