100 292
100 302
100 312
102 282
102 322
102 332
102 342
104 352
106 362
110 276
114 369
120 102
120 112
120 276
124 124
124 371
125 134
126 230
126 240
126 250
126 260
128 96
128 220
128 270
130 143
130 194
130 204
134 371
136 90
136 184
140 147
144 371
145 179
146 86
150 150
152 170
154 367
156 84
157 158
164 363
166 78
174 68
174 363
179 59
184 365
185 51
193 43
194 365
202 38
204 367
211 33
214 367
219 27
224 369
227 20
234 369
237 22
244 371
247 24
251 34
254 367
257 42
264 363
267 44
269 350
271 340
273 300
273 310
273 320
273 330
274 161
275 171
275 181
275 191
275 201
275 211
276 49
277 221
279 152
279 231
279 241
279 280
279 290
281 251
281 261
283 57
285 144
288 66
291 136
292 76
295 86
296 127
297 96
299 106
299 116
