40 202
44 190
44 212
44 320
46 330
46 340
46 350
47 222
48 304
50 182
52 290
53 358
55 229
60 178
60 284
61 364
63 235
68 278
70 174
70 369
71 241
78 276
80 172
80 371
81 245
88 276
90 170
90 371
91 249
96 162
98 276
100 371
101 253
106 158
108 276
110 371
111 251
116 38
116 48
116 156
118 58
118 272
119 257
120 367
121 68
124 30
125 78
126 94
126 104
126 114
126 124
126 154
128 270
129 134
129 254
130 363
132 24
134 143
140 363
142 22
150 365
152 20
160 366
162 22
170 367
172 25
180 369
181 30
190 370
191 34
200 371
201 34
210 371
211 32
220 371
221 34
230 371
231 34
240 369
241 32
250 26
250 369
260 22
260 367
270 20
270 368
280 20
280 371
283 254
285 150
285 264
290 24
290 141
290 371
291 272
293 255
294 131
295 118
295 154
297 86
297 96
297 106
299 29
300 371
301 276
302 77
303 254
305 156
306 67
307 36
309 54
310 371
311 276
313 251
315 160
320 371
321 280
323 246
325 164
328 365
329 286
331 172
332 241
334 295
336 359
337 305
340 235
341 176
341 315
341 325
341 335
341 345
348 227
349 182
354 219
355 190
359 200
359 210
