48 316
48 326
50 336
50 346
52 300
56 290
56 354
60 208
62 196
63 362
64 218
64 282
66 184
70 226
72 367
73 277
74 178
77 234
82 370
83 276
84 176
86 239
92 371
93 276
94 172
95 244
102 371
103 276
104 172
105 247
112 371
113 278
114 170
115 249
122 369
123 276
124 168
125 253
132 160
132 365
133 274
135 251
142 156
142 363
143 271
145 255
150 38
150 48
151 58
152 120
152 154
152 361
154 68
154 104
154 130
156 94
158 30
158 78
159 139
162 152
162 363
166 24
172 363
176 22
182 365
186 20
192 367
196 22
202 367
205 27
212 369
214 32
222 370
224 34
232 371
234 34
242 371
244 34
252 371
254 34
262 371
264 30
272 371
274 26
282 371
284 22
292 371
294 20
300 151
302 371
303 258
303 268
304 22
305 278
306 143
308 288
310 133
310 154
310 365
312 253
313 122
313 297
314 26
315 84
315 94
315 104
315 307
318 359
319 317
319 348
320 75
320 157
321 248
321 327
321 337
322 32
324 65
327 41
327 51
329 162
330 243
336 170
337 234
344 177
345 226
349 186
350 217
351 202
