44 202
46 212
48 190
48 222
54 182
55 230
60 174
63 237
68 166
68 320
68 330
68 340
69 350
71 243
71 360
72 306
76 160
76 292
78 42
79 366
80 52
80 248
81 62
84 34
84 284
85 72
86 156
88 371
89 253
90 81
92 26
92 278
94 91
94 101
94 111
96 121
96 131
96 154
98 371
99 255
100 141
102 22
102 272
106 150
108 371
112 20
118 371
122 22
128 371
132 24
138 369
141 29
148 371
150 34
158 371
160 34
168 371
170 34
178 371
180 32
188 371
190 34
198 369
200 32
208 369
209 27
218 22
218 367
228 20
228 365
238 20
238 363
248 24
248 149
248 363
253 140
257 29
257 82
257 154
258 92
258 131
258 361
259 102
259 118
259 256
261 70
261 266
265 36
265 60
267 46
267 154
268 363
269 256
269 272
277 158
277 368
278 251
279 274
287 162
287 371
288 253
289 278
293 170
297 371
298 249
299 276
303 170
307 371
308 247
309 276
313 172
317 371
318 243
319 276
323 174
327 238
327 369
329 276
333 178
336 233
337 282
337 365
342 225
343 182
345 288
345 358
347 216
349 190
350 200
350 297
353 307
353 348
355 317
355 327
355 337
