52 194
52 204
53 214
57 185
57 224
62 176
63 232
70 168
70 240
72 40
74 50
75 60
78 30
78 70
78 90
78 100
78 110
78 162
79 245
80 120
82 80
84 130
86 156
86 290
87 25
87 251
88 280
89 139
92 260
92 270
92 298
92 308
92 318
92 328
94 150
94 338
96 348
97 21
99 358
107 20
107 365
115 371
117 22
125 371
127 26
135 32
135 371
145 34
145 371
155 34
155 371
165 32
165 370
175 31
175 369
183 25
185 367
193 22
195 367
203 20
205 365
213 22
215 363
223 26
225 363
227 78
227 150
230 34
231 68
231 88
233 142
235 43
235 53
235 363
237 96
237 154
239 106
239 132
241 116
245 361
247 156
249 252
251 262
252 272
255 363
256 161
259 253
262 274
264 168
265 365
269 251
272 278
274 170
275 369
279 248
282 278
284 172
285 371
289 245
292 276
294 172
295 371
299 241
302 276
304 175
305 371
309 236
312 276
314 178
315 369
318 231
322 184
322 276
323 222
325 366
326 194
328 204
331 281
334 361
339 288
340 353
343 298
345 308
345 334
345 344
347 318
