86 100
86 110
87 120
88 86
91 130
92 74
96 64
96 139
101 148
102 186
102 196
102 274
102 284
102 294
104 56
104 174
104 206
104 216
104 226
104 236
104 246
104 256
106 157
108 302
108 312
108 322
108 332
110 342
112 48
112 352
115 362
116 32
122 24
124 367
132 22
134 370
142 21
144 371
151 26
154 369
161 22
164 369
171 20
174 367
181 22
184 367
188 30
193 39
194 365
197 49
204 369
205 56
210 65
214 371
215 74
221 82
224 159
224 371
229 168
231 86
232 153
234 371
239 172
240 147
241 86
244 369
249 92
249 172
250 145
254 366
256 137
258 97
259 116
259 126
259 174
260 241
261 251
261 261
261 271
263 106
264 369
269 178
269 236
269 278
274 371
277 228
279 182
279 276
283 214
284 371
285 190
287 200
289 276
294 369
299 276
302 363
309 280
310 355
313 290
313 338
315 300
315 310
315 320
