86 252
86 262
94 188
94 218
94 269
96 248
99 227
102 195
104 218
104 273
106 248
107 186
109 227
112 195
114 218
114 269
116 248
117 186
119 227
122 195
124 218
124 269
126 248
127 186
129 227
132 195
134 218
134 269
136 248
137 186
139 227
140 22
140 32
140 42
140 52
140 62
140 72
140 82
140 92
140 102
140 112
140 122
140 132
140 142
141 152
142 195
144 218
144 269
146 248
147 186
149 227
150 20
151 153
152 195
154 218
154 269
156 248
157 186
159 227
160 20
161 153
162 195
164 218
164 271
166 248
167 186
169 227
170 20
171 153
172 195
174 218
174 269
176 248
177 186
179 227
180 20
181 153
182 195
184 218
184 269
186 248
187 186
189 227
190 20
191 153
192 195
194 218
194 269
196 248
197 185
198 161
198 171
198 203
198 232
200 20
204 269
210 20
214 269
220 20
224 269
230 20
234 272
240 20
243 154
243 164
243 174
243 184
243 196
243 206
243 216
243 228
243 238
244 248
244 269
250 20
253 153
253 186
253 218
254 248
254 269
258 195
258 227
260 20
263 153
263 186
263 218
264 248
264 269
267 28
267 38
267 48
267 58
267 68
267 78
267 88
267 98
267 108
267 118
267 128
267 138
268 195
268 227
273 186
273 218
274 248
274 269
278 195
284 248
284 269
294 248
294 269
304 248
304 269
314 251
314 267
