70 250
70 260
75 269
80 248
85 272
90 248
95 269
100 248
102 190
102 220
105 269
110 227
110 248
111 195
115 218
115 269
116 22
116 32
116 42
116 52
116 62
116 72
116 82
116 92
116 102
116 112
116 122
116 132
116 142
116 186
117 152
120 227
120 248
121 195
125 218
125 269
126 20
126 186
127 153
130 227
130 248
131 195
135 218
135 269
136 20
136 186
137 153
140 227
140 248
141 195
145 218
145 271
146 20
146 186
147 153
150 227
150 248
151 195
155 217
155 269
156 20
156 158
156 168
156 178
156 204
156 235
165 269
166 20
175 269
176 20
185 269
186 20
195 269
196 20
205 269
206 20
207 154
207 164
207 174
207 184
207 196
207 206
207 216
207 228
207 238
208 248
215 269
216 20
217 153
217 186
217 218
218 248
222 195
222 227
225 269
226 20
227 153
227 186
227 218
228 248
232 195
232 227
235 269
236 20
237 153
237 186
237 218
238 248
242 195
242 227
245 269
246 20
247 153
247 186
247 218
248 248
252 195
252 227
255 269
256 20
257 153
257 186
257 218
258 248
262 195
262 227
265 269
266 20
267 153
267 186
267 218
268 248
272 195
272 227
275 25
275 35
275 45
275 55
275 65
275 75
275 85
275 95
275 105
275 115
275 125
275 135
275 145
275 269
277 186
277 218
278 248
282 195
282 227
285 269
287 186
287 218
288 248
292 195
292 227
295 269
297 186
297 218
298 248
302 195
302 227
305 269
307 186
307 218
308 248
312 195
312 227
315 273
317 186
317 218
318 248
325 269
328 249
329 259
