50 252
50 262
57 270
60 248
67 273
68 190
68 220
70 248
76 227
77 195
77 269
78 22
78 32
78 42
78 52
78 62
78 72
78 82
78 92
78 102
78 112
78 122
78 132
78 142
79 152
80 248
81 218
82 186
86 227
87 195
87 269
88 20
89 153
90 248
91 218
92 186
96 227
97 195
97 269
98 20
99 153
100 248
101 218
102 186
106 227
107 195
107 269
108 20
109 153
110 248
111 218
112 186
116 227
117 195
117 269
118 20
119 153
120 248
121 218
122 186
126 227
127 195
127 269
128 20
129 153
130 248
131 218
132 186
136 227
137 195
137 269
138 20
139 153
140 248
141 218
142 186
146 227
147 195
147 269
148 20
149 153
150 248
151 218
152 186
156 227
157 195
157 269
158 20
159 153
160 248
161 218
162 186
166 227
167 195
167 269
168 20
168 158
168 168
168 178
168 205
168 237
177 269
178 20
187 269
188 20
197 269
198 20
207 269
208 20
217 269
218 20
227 154
227 164
227 174
227 184
227 196
227 206
227 216
227 228
227 238
227 269
228 20
228 248
237 153
237 186
237 218
237 269
238 20
238 248
242 195
242 227
247 153
247 186
247 218
247 269
248 20
248 248
252 195
252 227
257 153
257 186
257 218
257 269
258 20
258 248
262 195
262 227
267 153
267 186
267 218
267 269
268 20
268 248
272 195
272 227
277 153
277 186
277 218
277 269
278 20
278 248
282 195
282 227
287 153
287 186
287 218
287 269
288 20
288 248
292 195
292 227
297 153
297 186
297 218
297 269
298 20
298 248
302 195
302 227
307 153
307 186
307 218
307 269
308 20
308 248
312 195
312 227
317 150
317 186
317 218
317 269
318 23
318 248
319 33
319 43
319 53
319 63
319 73
319 83
319 93
319 103
319 113
319 123
319 133
322 195
322 227
327 186
327 218
327 269
328 248
332 195
337 273
338 248
347 268
348 250
