54 250
54 260
57 270
64 248
67 271
68 188
68 220
74 248
76 195
76 227
77 269
80 22
80 32
80 42
80 52
80 62
80 72
80 82
80 92
80 102
80 112
80 122
80 132
80 142
81 152
81 186
81 218
84 248
86 195
86 227
87 269
90 20
91 153
91 186
91 218
94 248
96 195
96 227
97 269
100 20
101 153
101 186
101 218
104 248
106 195
106 227
107 269
110 20
111 153
111 186
111 218
114 248
116 195
116 227
117 269
120 20
121 153
121 186
121 218
124 248
126 195
126 227
127 269
130 20
131 153
131 186
131 218
134 248
136 195
136 227
137 269
140 20
141 153
141 186
141 218
144 248
146 195
146 227
147 269
150 20
151 153
151 186
151 218
152 254
156 195
156 227
157 269
160 20
160 248
161 153
161 186
161 218
166 195
166 227
167 269
168 254
170 20
170 158
170 168
170 178
170 205
170 237
177 269
180 20
187 269
190 20
197 269
200 20
207 269
210 20
217 269
220 20
227 154
227 164
227 174
227 184
227 196
227 206
227 216
227 228
227 238
227 269
228 248
230 20
236 254
237 153
237 186
237 218
237 269
240 20
242 195
242 227
244 248
247 153
247 186
247 218
247 269
250 20
252 195
252 227
254 248
257 153
257 186
257 218
257 269
260 20
262 195
262 227
264 248
267 153
267 186
267 218
267 269
270 20
272 195
272 227
274 248
277 153
277 186
277 218
277 269
280 20
282 195
282 227
284 248
287 153
287 186
287 218
287 269
290 20
292 195
292 227
294 248
297 153
297 186
297 218
297 269
300 20
302 195
302 227
304 248
307 153
307 186
307 218
307 269
310 20
312 195
312 227
314 248
317 153
317 186
317 218
317 269
320 23
320 143
321 33
321 43
321 53
321 63
321 73
321 83
321 93
321 103
321 113
321 123
321 133
322 195
322 227
324 248
327 186
327 218
327 269
334 248
337 271
344 251
345 261
