50 250
50 260
55 269
60 248
62 190
62 220
65 273
70 227
70 248
71 195
75 218
75 269
76 186
80 227
80 248
81 195
85 218
85 269
86 186
90 227
90 248
91 195
95 218
95 269
96 22
96 32
96 42
96 52
96 62
96 72
96 82
96 92
96 102
96 112
96 122
96 132
96 142
96 186
98 152
100 227
100 248
101 195
105 218
105 269
106 20
106 186
108 153
110 227
110 248
111 195
115 218
115 269
116 20
116 186
118 153
120 227
120 248
121 195
125 218
125 269
126 20
126 186
128 153
130 227
130 248
131 195
135 218
135 269
136 20
136 186
138 153
138 254
140 227
141 195
145 218
145 269
146 20
146 186
146 248
148 153
150 227
151 195
154 254
155 218
155 269
156 20
156 186
158 153
160 227
161 195
162 248
165 218
165 269
166 20
166 186
168 153
170 227
170 254
171 195
175 218
175 269
176 20
176 186
178 153
178 248
180 227
181 195
182 163
182 173
182 205
182 237
185 269
186 20
195 269
196 20
205 269
206 20
215 269
216 20
225 269
226 20
235 269
236 20
239 154
239 164
239 174
239 184
239 196
239 206
239 216
239 228
239 238
240 248
245 269
246 20
248 254
249 153
249 186
249 218
254 195
254 227
255 269
256 20
256 248
259 153
259 186
259 218
264 195
264 227
264 254
265 269
266 20
269 153
269 186
269 218
272 248
274 195
274 227
275 269
276 20
279 153
279 186
279 218
282 248
284 195
284 227
285 269
286 20
289 153
289 186
289 218
292 248
294 195
294 227
295 273
296 20
299 153
299 186
299 218
302 248
304 195
304 227
305 269
306 21
307 31
307 41
307 51
307 61
307 71
307 81
307 91
307 101
307 111
307 121
307 131
307 141
309 186
309 218
312 248
314 195
314 227
315 269
319 218
322 248
325 269
332 248
335 273
342 248
345 269
349 256
