24 252
32 246
40 252
45 261
48 246
48 271
50 281
56 289
58 246
60 299
66 307
66 432
68 246
71 441
72 424
74 314
78 246
80 322
80 418
81 445
86 330
86 410
88 246
91 445
92 338
92 402
96 348
98 246
99 358
100 394
101 447
102 368
102 378
108 246
111 447
118 246
121 447
128 246
131 449
138 246
141 449
148 246
151 449
158 246
161 449
168 246
171 449
172 108
172 118
172 128
172 138
172 148
172 158
172 168
174 92
174 178
176 78
176 188
178 246
179 198
180 68
181 447
182 208
184 54
185 218
188 246
189 45
189 228
191 447
195 37
201 447
203 31
211 445
213 28
217 410
218 37
219 420
221 444
222 401
227 426
228 40
230 393
230 439
237 384
238 40
243 376
248 40
249 366
255 358
257 35
259 346
264 337
267 32
269 328
275 38
277 320
283 44
285 314
293 44
294 309
302 303
303 46
311 298
313 48
317 288
319 56
321 66
323 280
325 76
325 86
327 96
327 106
327 116
327 266
329 126
329 136
329 146
329 156
329 166
331 176
331 186
331 196
331 246
331 256
332 206
333 216
333 226
333 236
