44 216
44 226
44 236
45 246
46 186
46 196
46 206
46 256
48 156
48 166
48 176
50 126
50 136
50 146
50 266
52 102
52 112
52 276
54 80
54 90
56 66
57 285
60 54
63 293
68 48
70 301
78 46
79 306
86 40
87 312
94 34
95 318
102 326
104 30
106 336
110 346
112 36
113 356
117 366
122 40
122 375
127 384
128 426
128 436
132 40
132 393
136 443
137 421
138 401
142 40
142 411
146 445
152 40
156 447
162 40
166 447
172 40
176 30
176 447
186 30
186 447
195 35
196 449
204 40
206 447
211 210
211 220
211 230
211 240
212 47
216 201
216 447
217 56
219 246
220 191
221 66
223 180
225 76
226 447
227 86
227 162
229 96
229 148
229 246
231 106
231 116
231 126
231 136
235 372
235 382
235 392
236 447
239 246
239 358
241 400
243 348
246 445
247 408
248 339
249 246
252 417
253 328
256 443
259 246
259 320
260 424
264 437
265 312
269 246
271 304
277 294
279 246
282 285
285 272
289 246
289 262
298 257
299 246
308 253
