78 248
84 256
88 246
90 90
90 100
90 110
90 120
90 130
90 140
90 264
91 274
92 80
92 150
94 70
94 160
95 284
96 170
98 246
99 61
99 180
100 210
100 220
100 230
100 293
102 190
102 200
103 51
104 303
110 311
111 45
116 319
118 428
119 37
119 438
121 328
126 337
126 422
127 445
128 32
132 345
132 414
134 355
137 405
137 447
138 30
138 365
140 375
142 385
142 395
147 35
147 447
156 40
157 449
166 40
167 449
176 40
177 449
186 40
187 449
196 40
197 447
206 40
207 447
209 398
212 408
213 384
216 40
217 370
217 417
217 445
219 358
220 30
221 346
223 334
225 424
226 439
229 324
230 29
235 316
240 33
240 307
248 299
249 38
255 290
256 46
261 280
262 54
265 174
265 262
268 62
269 164
269 184
269 194
269 204
269 246
271 72
271 214
271 224
271 234
273 82
273 144
273 154
275 92
275 102
275 124
275 134
277 112
