34 737
34 712
39 677
44 652
54 617
64 587
76 565
85 541
99 517
114 492
129 472
147 454
162 434
180 416
200 401
219 384
239 369
261 355
284 342
308 334
330 321
354 314
377 304
402 299
427 294
452 294
477 289
502 289
527 289
544 262
544 237
535 213
524 190
514 167
499 147
481 129
469 107
505 122
549 191
566 225
574 192
586 170
599 142
614 122
632 104
655 94
678 84
703 79
728 74
753 69
778 70
785 105
770 125
760 150
749 177
737 199
722 219
704 237
684 252
665 270
645 285
672 294
697 294
722 299
747 304
770 314
795 319
818 329
841 339
863 351
885 364
905 379
925 394
945 409
964 426
982 444
997 464
1015 482
1027 504
1042 524
1054 546
1065 569
1075 592
1083 616
1090 640
1095 665
1100 690
1105 715
1105 740
1105 765
1100 805
1095 840
1090 865
1080 900
1070 925
1058 958
1045 980
1032 1004
1017 1024
1002 1044
987 1064
969 1082
950 1100
930 1115
910 1130
890 1145
868 1158
846 1170
824 1182
800 1190
776 1200
752 1209
727 1215
702 1220
677 1220
652 1225
627 1225
602 1225
577 1224
552 1220
527 1225
502 1225
477 1225
452 1220
427 1220
402 1215
377 1209
353 1200
329 1192
307 1180
284 1170
261 1159
240 1145
220 1130
201 1113
181 1098
163 1080
148 1060
130 1042
115 1022
103 1000
91 978
79 956
69 933
59 910
54 885
44 862
39 837
39 812
34 787
34 762
