181 1029
169 1007
184 987
189 947
213 939
224 912
236 890
239 857
234 832
249 807
254 782
264 727
269 692
264 667
259 642
264 615
259 590
254 537
245 513
234 490
232 465
229 427
249 412
267 394
287 379
307 364
327 349
350 339
371 325
395 316
419 307
443 299
467 289
492 284
517 279
542 279
567 274
592 274
617 274
624 239
617 215
609 191
596 169
584 147
566 129
551 109
527 100
509 82
547 84
575 102
593 120
608 140
620 162
634 186
639 142
649 107
661 85
676 65
696 49
717 34
740 24
765 19
790 19
805 39
805 80
800 110
795 150
781 185
766 205
754 227
735 245
715 260
752 264
777 264
802 264
827 269
852 274
877 279
900 289
925 294
948 305
972 314
992 329
1014 341
1034 356
1054 371
1074 386
1092 404
1110 422
1125 442
1140 462
1155 482
1167 504
1180 526
1190 549
1200 572
1210 595
1217 619
1225 643
1230 668
1230 693
1235 718
1235 743
1235 768
1230 800
1225 840
1220 865
1210 900
1202 929
1193 953
1180 975
1165 1000
1151 1025
1139 1047
1120 1065
1104 1087
1086 1105
1068 1123
1048 1138
1028 1153
1008 1168
985 1180
963 1193
939 1202
915 1210
891 1220
866 1225
841 1230
816 1235
791 1240
766 1240
741 1240
716 1240
691 1240
666 1240
641 1240
616 1240
591 1240
566 1240
541 1235
516 1233
491 1228
466 1223
442 1215
419 1205
395 1197
371 1189
350 1175
327 1165
307 1150
287 1135
267 1120
249 1102
229 1087
214 1067
196 1049
