39 2467
39 2442
54 2422
79 2419
104 2419
124 2404
149 2397
171 2385
189 2367
213 2359
238 2364
256 2345
281 2344
304 2334
324 2319
346 2305
364 2287
379 2267
394 2247
414 2227
434 2202
454 2187
464 2162
484 2147
496 2125
514 2107
534 2087
554 2067
574 2052
586 2030
606 2015
631 2009
639 1977
659 1962
681 1950
704 1939
729 1932
754 1929
777 1919
800 1909
825 1909
846 1895
866 1879
882 1859
904 1832
922 1814
940 1796
952 1774
970 1756
985 1736
1004 1717
1022 1699
1037 1679
1060 1669
1074 1637
1096 1625
1111 1605
1096 1573
1074 1561
1052 1549
1035 1530
1010 1535
990 1550
975 1575
950 1575
930 1590
922 1624
898 1633
878 1648
855 1660
840 1680
821 1700
801 1715
789 1737
770 1755
745 1755
720 1755
709 1787
684 1792
665 1810
640 1815
625 1835
607 1854
590 1835
565 1835
545 1860
545 1885
545 1910
523 1930
504 1913
494 1890
474 1875
464 1852
482 1834
500 1816
519 1799
544 1792
559 1762
579 1742
604 1739
627 1729
647 1714
672 1709
687 1689
699 1657
721 1644
741 1629
766 1629
782 1609
802 1594
825 1584
846 1570
861 1550
881 1534
905 1526
920 1506
942 1494
966 1485
989 1467
1011 1454
1036 1450
1061 1449
1086 1449
1111 1449
1136 1454
1159 1464
1184 1466
1195 1489
1220 1489
1244 1467
1269 1464
1294 1457
1292 1425
1284 1401
1284 1376
1269 1356
1264 1331
1264 1306
1254 1283
1244 1260
1244 1235
1244 1210
1244 1185
1234 1162
1244 1122
1254 1097
1254 1072
1266 1050
1269 1012
1269 972
1257 930
1254 905
1244 882
1244 857
1229 837
1211 819
1204 795
1204 770
1184 755
1159 755
1149 732
1144 707
1164 687
1186 675
1200 654
1223 644
1243 660
1235 685
1245 708
1268 719
1290 731
1310 747
1310 772
1330 787
1330 812
1335 837
1343 861
1350 885
1371 899
1370 925
1375 950
1365 980
1365 1005
1355 1040
1345 1070
1335 1100
1335 1125
1315 1150
1310 1185
1329 1202
1344 1222
1356 1244
1365 1268
1375 1291
1380 1316
1398 1334
1423 1334
1443 1349
1461 1330
1474 1307
1484 1284
1501 1265
1516 1245
1541 1239
1534 1210
1519 1190
1509 1096
1499 1073
1489 1050
1479 1027
1474 1002
1474 972
1474 937
1459 917
1454 892
1454 867
1454 835
1454 810
1449 785
1439 762
1454 725
1439 705
1429 682
1429 657
1439 627
1419 612
1419 587
1419 562
1414 537
1421 504
1413 480
1401 458
1389 436
1389 411
1379 388
1374 363
1364 340
1354 317
1349 292
1333 260
1314 243
1304 220
1289 200
1273 180
1248 180
1229 163
1219 140
1204 120
1194 97
1209 77
1233 69
1255 81
1275 97
1293 115
1313 130
1335 142
1350 162
1365 182
1370 207
1380 230
1400 245
1419 262
1430 285
1430 310
1440 333
1452 355
1472 370
1460 395
1475 415
1477 440
1480 480
1497 499
1500 524
1500 549
1500 575
1510 598
1515 635
1515 680
1522 704
1542 719
1550 743
1550 768
1550 793
1550 818
1555 845
1560 870
1560 895
1560 920
1574 941
1580 966
1590 989
1590 1014
1590 1039
1590 1064
1595 1089
1610 1109
1630 1124
1640 1147
1659 1164
1674 1142
1684 1119
1701 1100
1725 1107
1737 1129
1738 1163
1725 1185
1732 1209
1754 1221
1775 1235
1780 1260
1787 1284
1807 1269
1824 1247
1848 1239
1873 1239
1893 1255
1893 1283
1878 1303
1855 1315
1872 1334
1892 1349
1917 1354
1940 1364
1965 1369
1990 1369
2015 1374
2040 1369
2065 1371
2090 1377
2114 1384
2139 1377
2164 1374
2187 1364
2209 1376
2234 1374
2259 1374
2284 1372
2308 1365
2333 1369
2358 1369
2383 1369
2408 1369
2433 1364
2458 1369
2483 1369
2508 1370
2533 1369
2558 1374
2581 1384
2606 1384
2631 1384
2656 1384
2675 1401
2700 1404
2725 1409
2750 1414
2775 1417
2800 1414
2823 1424
2840 1443
2865 1449
2890 1449
2909 1466
2919 1489
2944 1494
2967 1504
2989 1516
3007 1534
3010 1559
3000 1595
2977 1605
2957 1590
2932 1585
2912 1570
2896 1550
2876 1535
2853 1525
2833 1510
2809 1502
2785 1495
2760 1492
2735 1490
2710 1485
2687 1475
2664 1465
2639 1465
2616 1475
2593 1465
2570 1455
2545 1455
2520 1455
2497 1465
2474 1455
2449 1450
2424 1452
2399 1455
2374 1455
2349 1455
2324 1455
2299 1455
2276 1465
2253 1475
2230 1465
2205 1465
2180 1475
2157 1465
2134 1475
2111 1465
2086 1465
2061 1465
2037 1474
2013 1465
1988 1465
1963 1465
1938 1463
1915 1475
1892 1465
1869 1455
1844 1452
1820 1445
1795 1445
1791 1490
1773 1508
1760 1530
1735 1535
1715 1550
1722 1574
1725 1599
1735 1622
1760 1624
1784 1631
1809 1634
1832 1644
1855 1654
1875 1669
1898 1659
1923 1654
1946 1644
1966 1629
1991 1629
2007 1609
2032 1604
2057 1604
2072 1584
2095 1574
2112 1554
2137 1554
2157 1569
2182 1574
2207 1574
2232 1569
2252 1584
2277 1584
2302 1589
2327 1594
2347 1609
2359 1631
2377 1649
2392 1669
2417 1669
2440 1679
2434 1712
2415 1730
2392 1740
2372 1755
2347 1750
2329 1732
2316 1700
2293 1710
2281 1688
2259 1675
2234 1670
2209 1670
2186 1660
2162 1669
2138 1660
2115 1670
2090 1670
2065 1675
2043 1690
2020 1700
1995 1710
1970 1715
1945 1720
1920 1720
1900 1735
1875 1740
1850 1750
1825 1750
1800 1750
1775 1750
1750 1750
1727 1740
1704 1730
1679 1727
1655 1720
1630 1715
1610 1730
1610 1755
1600 1800
1600 1825
1610 1848
1630 1863
1640 1886
1655 1906
1660 1931
1674 1952
1675 1977
1670 2020
1660 2055
1650 2080
1635 2115
1620 2155
1608 2178
1595 2200
1580 2225
1573 2253
1560 2275
1554 2312
1543 2335
1520 2345
1510 2385
1495 2415
1499 2442
1480 2460
1497 2479
1494 2507
1475 2525
1455 2540
1440 2565
1420 2590
1416 2625
1391 2629
1369 2617
1347 2605
1329 2587
1314 2567
1332 2549
1357 2549
1375 2531
1384 2505
1374 2482
1374 2457
1392 2439
1407 2419
1419 2392
1419 2367
1431 2345
1449 2327
1444 2300
1434 2277
1452 2259
1472 2244
1487 2224
1499 2197
1514 2162
1532 2144
1537 2119
1555 2101
1570 2081
1589 2062
1589 2037
1589 1996
1574 1976
1556 1958
1538 1940
1515 1930
1500 1955
1485 1975
1470 1995
1455 2015
1435 2040
1427 2064
1409 2082
1390 2100
1370 2125
1355 2145
1344 2172
1329 2192
1314 2212
1290 2220
1280 2245
1265 2265
1265 2290
1255 2315
1265 2338
1255 2385
1255 2415
1235 2445
1229 2472
1210 2490
1196 2520
1184 2542
1165 2560
1152 2589
1134 2607
1115 2625
1108 2658
1084 2667
1069 2687
1054 2707
1036 2725
1024 2747
1005 2765
985 2780
980 2805
965 2825
945 2840
943 2868
930 2890
925 2925
925 2950
930 2975
920 3005
905 3025
905 3050
905 3075
890 3110
903 3133
884 3150
859 3154
844 3134
827 3115
802 3110
784 3092
784 3067
809 3064
832 3054
844 3012
829 2992
824 2967
842 2949
844 2907
849 2862
864 2832
879 2800
854 2805
829 2805
819 2782
837 2764
859 2752
883 2744
903 2729
921 2710
944 2687
968 2679
988 2664
1004 2642
1019 2622
1034 2602
1054 2587
1066 2565
1080 2544
1105 2539
1120 2519
1134 2492
1149 2467
1154 2429
1152 2404
1135 2385
1123 2413
1108 2433
1085 2445
1070 2465
1055 2485
1038 2505
1019 2522
1000 2540
982 2559
964 2577
942 2589
927 2609
912 2630
888 2638
865 2650
845 2665
825 2680
800 2680
777 2670
752 2670
727 2670
705 2658
684 2644
663 2630
638 2625
613 2620
593 2605
579 2584
576 2559
559 2540
544 2520
525 2503
514 2480
504 2457
504 2432
504 2407
504 2382
522 2364
534 2337
546 2315
559 2287
574 2267
584 2242
602 2224
614 2202
626 2180
641 2160
659 2142
674 2122
689 2102
707 2084
722 2064
705 2040
680 2040
660 2055
640 2075
625 2100
610 2120
585 2120
577 2144
559 2162
544 2182
525 2200
505 2220
495 2255
480 2275
465 2295
459 2322
440 2340
440 2365
425 2385
404 2412
386 2394
365 2380
343 2405
320 2415
295 2420
276 2445
254 2457
230 2465
205 2465
180 2460
155 2465
135 2480
122 2505
97 2510
72 2505
57 2485
