154 332
154 307
164 282
182 264
202 249
224 232
239 212
261 199
281 184
304 174
329 169
354 169
379 169
403 176
425 188
449 196
467 214
482 234
494 256
500 281
505 306
510 331
515 356
515 381
520 406
530 429
540 452
555 472
570 492
588 510
608 525
625 544
648 555
668 570
690 582
714 591
736 604
760 612
782 624
805 634
829 641
853 650
875 662
897 674
920 684
943 694
966 704
990 712
1014 721
1036 734
1061 739
1086 744
1110 752
1135 754
1160 754
1185 759
1210 764
1235 766
1260 764
1285 764
1310 764
1335 769
1360 766
1385 769
1410 772
1435 774
1458 785
1440 810
1464 817
1480 837
1479 862
1455 870
1474 887
1492 905
1504 927
1490 955
1465 955
1475 978
1465 1010
1443 1023
1419 1030
1394 1035
1369 1030
1344 1025
1319 1020
1294 1015
1269 1010
1246 1000
1221 995
1198 985
1174 977
1150 970
1127 960
1102 955
1077 959
1052 960
1027 960
1003 968
983 983
960 995
938 1008
916 1020
893 1030
873 1045
850 1055
827 1065
802 1070
777 1070
752 1069
727 1065
703 1073
688 1093
675 1115
675 1140
692 1169
691 1198
671 1183
646 1185
621 1183
596 1180
571 1175
546 1170
519 1207
514 1182
524 1157
542 1139
567 1139
592 1139
617 1134
634 1112
639 1075
619 1060
594 1055
571 1045
548 1035
525 1025
502 1015
482 1000
467 980
445 967
425 952
405 937
390 917
372 899
354 881
339 861
324 841
309 821
299 798
289 775
279 752
274 727
269 702
269 677
269 652
269 627
274 602
274 577
279 542
289 502
294 477
304 432
309 400
309 375
304 350
289 330
264 332
240 340
215 345
193 360
174 377
159 357
