559 872
559 847
564 817
569 792
574 762
579 737
589 707
599 672
609 642
614 607
624 577
636 555
644 527
654 497
664 467
674 442
679 412
679 387
679 362
679 337
701 324
726 324
748 336
750 361
745 390
745 415
745 440
745 465
745 490
745 515
750 540
750 565
752 590
760 614
765 639
770 664
775 689
775 714
780 739
775 785
775 810
775 835
770 875
765 920
760 950
755 975
750 1000
750 1025
745 1055
721 1070
696 1070
671 1070
648 1060
623 1055
598 1050
574 1042
559 1022
559 997
559 972
559 947
559 922
559 897
