294 1242
294 1217
306 1195
321 1175
334 1147
349 1122
369 1107
387 1089
394 1042
394 1017
389 992
389 967
389 942
411 929
436 929
461 929
486 929
511 929
536 929
561 934
583 946
605 958
630 964
653 974
675 987
695 1002
719 1009
744 1004
769 1004
794 999
819 994
844 994
869 989
894 984
919 979
944 977
968 969
993 964
1016 954
1041 949
1066 949
1091 954
1115 962
1137 974
1152 994
1172 1009
1192 1024
1215 1034
1235 1049
1260 1049
1284 1042
1309 1039
1334 1032
1358 1024
1383 1024
1406 1034
1410 1059
1415 1084
1425 1107
1430 1132
1425 1180
1409 1202
1397 1224
1379 1242
1364 1262
1345 1280
1347 1305
1359 1327
1365 1352
1365 1377
1365 1402
1343 1425
1318 1425
1293 1425
1268 1425
1243 1425
1218 1425
1193 1425
1170 1415
1147 1405
1124 1395
1101 1385
1076 1380
1053 1370
1033 1355
1008 1355
983 1358
958 1365
933 1365
908 1365
883 1370
860 1380
835 1385
810 1390
785 1390
761 1400
738 1410
715 1420
690 1420
667 1410
644 1400
619 1395
596 1384
576 1369
556 1354
539 1335
524 1315
499 1317
474 1320
449 1325
424 1325
399 1325
374 1327
349 1330
324 1335
309 1315
299 1292
299 1267
