354 1232
354 1207
366 1185
386 1170
401 1150
416 1130
436 1114
446 1090
439 1057
449 1022
459 982
464 947
484 932
509 927
533 919
558 919
583 920
603 935
623 950
643 965
665 977
689 984
714 984
739 984
764 979
789 977
814 974
839 974
864 969
889 964
914 964
939 962
964 959
989 959
1014 959
1039 959
1064 959
1089 959
1114 964
1135 978
1153 996
1177 1004
1197 1019
1220 1029
1243 1040
1267 1049
1292 1049
1317 1049
1342 1049
1366 1040
1391 1034
1416 1030
1441 1029
1460 1046
1470 1069
1475 1094
1480 1119
1470 1165
1457 1199
1439 1217
1420 1235
1405 1255
1405 1280
1410 1305
1417 1329
1420 1354
1425 1379
1403 1405
1378 1410
1354 1417
1330 1425
1305 1430
1280 1430
1255 1425
1230 1420
1207 1410
1184 1400
1161 1390
1138 1380
1113 1375
1088 1375
1063 1378
1038 1380
1013 1380
988 1380
963 1380
938 1380
913 1380
888 1380
863 1383
838 1385
813 1385
788 1390
765 1400
742 1410
719 1420
699 1405
676 1394
656 1379
634 1367
610 1360
587 1350
567 1335
547 1320
529 1302
505 1295
482 1305
457 1310
433 1318
409 1325
384 1325
369 1305
359 1282
354 1257
