319 482
319 457
329 427
339 397
351 375
371 359
396 354
409 332
424 307
439 282
454 257
474 242
489 217
489 192
504 172
522 154
542 139
566 130
589 119
614 121
638 129
663 134
686 144
700 185
695 215
695 250
685 275
680 305
680 330
680 355
685 380
685 405
695 428
704 452
713 476
725 498
740 518
755 538
775 554
798 564
821 574
846 579
871 584
894 574
919 567
941 555
961 540
976 520
994 502
1012 484
1021 460
1039 439
1018 425
994 417
974 402
969 377
969 352
979 317
991 295
1009 267
1027 249
1050 239
1071 225
1095 216
1119 209
1144 204
1169 201
1193 210
1217 219
1230 241
1244 262
1255 285
1260 310
1284 302
1299 282
1314 262
1336 249
1357 234
1382 229
1407 224
1432 219
1457 219
1482 219
1502 234
1522 249
1540 267
1555 287
1560 312
1560 337
1565 362
1570 387
1570 412
1570 437
1555 465
1530 470
1505 470
1480 475
1480 500
1485 525
1499 546
1515 566
1532 585
1550 603
1565 623
1580 643
1595 663
1605 686
1615 709
1625 732
1635 755
1645 778
1654 802
1660 827
1665 852
1665 900
1660 940
1655 970
1645 1015
1635 1045
1635 1070
1635 1095
1630 1135
1621 1175
1601 1190
1579 1177
1564 1157
1559 1132
1559 1107
1569 1077
1584 1052
1594 1017
1599 987
1604 957
1604 932
1604 907
1604 882
1590 840
1585 865
1580 890
1570 925
1560 955
1550 985
1550 1010
1540 1035
1530 1070
1523 1098
1510 1120
1510 1145
1510 1170
1515 1195
1510 1230
1510 1255
1510 1280
1510 1305
1505 1335
1505 1360
1510 1385
1505 1410
1505 1435
1495 1460
1478 1483
1456 1495
1432 1504
1407 1504
1382 1505
1357 1500
1334 1490
1309 1485
1294 1465
1284 1442
1302 1424
1322 1409
1334 1382
1334 1342
1334 1317
1329 1292
1324 1267
1316 1243
1304 1221
1299 1196
1294 1171
1284 1148
1274 1125
1264 1102
1259 1077
1255 1052
1230 1050
1205 1055
1180 1055
1155 1055
1130 1055
1105 1055
1080 1050
1055 1050
1030 1045
1015 1065
1005 1105
995 1140
990 1175
985 1210
985 1235
985 1260
980 1300
985 1325
980 1370
980 1395
980 1420
985 1445
980 1490
969 1522
947 1534
922 1540
897 1540
874 1530
851 1519
829 1507
814 1487
826 1465
841 1445
859 1427
874 1397
874 1372
874 1347
869 1322
864 1297
864 1272
864 1247
859 1222
854 1197
849 1172
827 1160
802 1159
777 1159
752 1159
731 1145
709 1132
694 1112
674 1097
656 1079
644 1057
634 1034
624 1011
611 989
599 967
579 952
564 932
554 909
554 884
549 859
542 835
534 811
521 789
512 765
509 740
504 715
494 692
494 667
504 632
504 607
504 582
509 557
515 510
497 529
477 544
453 553
429 560
404 560
380 553
369 530
346 520
324 507
