509 762
509 737
527 719
547 704
570 694
595 689
620 689
645 689
670 689
695 686
720 684
741 670
761 654
784 664
806 650
826 634
851 634
876 634
889 612
899 582
914 562
936 549
961 549
986 549
1011 554
1036 554
1061 559
1086 559
1111 564
1136 564
1161 569
1180 586
1180 611
1180 636
1185 661
1209 669
1234 669
1259 664
1284 664
1309 664
1334 664
1355 678
1375 693
1380 725
1370 750
1358 773
1345 795
1339 827
1320 845
1295 850
1280 870
1270 895
1260 935
1236 945
1211 943
1193 925
1170 915
1145 915
1120 915
1095 915
1070 915
1045 915
1020 915
995 915
988 943
973 963
951 975
926 980
904 967
884 952
862 940
837 935
812 930
787 929
763 920
738 915
713 915
688 910
663 910
638 913
625 935
601 950
576 945
556 929
539 910
529 887
524 862
519 837
514 812
514 787
