369 772
369 747
387 729
410 719
434 702
458 694
483 694
508 694
533 694
558 694
583 689
608 689
626 670
649 659
672 649
697 644
720 654
744 637
756 615
771 595
791 579
816 574
841 570
866 569
891 569
916 569
941 569
966 569
991 574
1006 594
1018 616
1020 641
1030 664
1053 675
1078 679
1103 684
1128 689
1153 694
1178 699
1200 712
1200 737
1200 762
1198 788
1185 810
1170 830
1150 845
1130 860
1130 885
1112 905
1089 915
1064 915
1039 912
1027 890
1004 880
979 880
954 880
929 880
904 880
879 880
854 880
831 890
811 905
799 927
777 940
752 945
729 935
710 918
700 895
675 890
650 890
625 890
600 890
575 890
550 890
525 890
500 890
475 890
450 890
427 900
404 890
394 867
394 842
389 817
374 797
