489 757
484 732
499 712
519 697
541 685
564 672
588 664
613 659
638 654
663 649
688 649
713 644
725 621
749 614
774 607
796 594
821 589
846 594
861 614
886 614
904 582
904 557
904 532
919 512
939 497
964 494
989 494
1014 494
1039 494
1064 499
1089 504
1113 511
1138 514
1161 524
1183 536
1190 560
1190 585
1190 610
1214 619
1235 633
1260 639
1285 639
1310 639
1335 639
1360 639
1385 639
1400 659
1400 684
1395 710
1380 730
1370 765
1359 812
1335 820
1325 845
1314 872
1295 890
1273 903
1249 910
1229 895
1206 885
1181 890
1156 890
1131 895
1106 895
1081 895
1056 895
1031 895
1006 900
991 920
979 942
955 950
930 947
906 940
884 927
869 907
845 900
820 900
795 900
770 900
745 900
720 900
695 905
670 905
645 905
633 928
609 935
584 930
559 930
536 920
524 898
516 874
509 850
509 825
509 800
507 775
