499 767
499 742
514 717
532 699
556 690
581 684
606 679
631 679
656 679
681 679
706 679
731 674
744 652
769 654
791 640
816 634
841 634
864 644
889 622
889 597
901 575
919 557
943 549
968 549
993 549
1018 549
1043 549
1068 549
1093 549
1118 554
1143 559
1168 564
1188 580
1190 605
1192 630
1200 654
1215 674
1240 674
1265 674
1290 669
1315 664
1340 664
1365 664
1385 679
1400 699
1395 725
1385 755
1370 780
1370 805
1370 830
1368 858
1355 880
1343 908
1331 930
1311 945
1286 950
1261 948
1236 945
1213 935
1195 917
1173 905
1148 905
1123 910
1098 913
1073 915
1048 915
1023 915
1000 925
982 944
959 955
934 955
909 955
884 955
860 948
849 925
826 915
801 915
776 915
751 915
726 915
701 915
676 915
651 915
636 935
616 950
591 955
566 949
549 930
543 905
524 888
519 863
519 838
519 813
509 790
