514 767
514 742
532 724
552 709
577 704
602 699
627 694
652 694
677 689
702 689
727 684
749 667
771 655
796 654
819 642
843 634
868 634
890 647
914 637
919 592
934 572
956 559
979 549
1004 549
1029 551
1054 554
1079 554
1104 554
1129 554
1154 554
1175 568
1180 593
1180 618
1200 634
1215 654
1238 665
1262 674
1287 679
1312 679
1337 684
1362 684
1380 702
1385 727
1385 752
1380 795
1366 820
1351 840
1333 858
1313 873
1300 895
1284 920
1261 930
1236 935
1211 934
1204 910
1179 905
1154 905
1129 905
1104 905
1079 905
1054 905
1029 910
1004 912
989 932
971 950
946 955
921 955
896 949
879 930
864 910
841 900
816 900
791 900
766 900
741 905
716 905
691 910
666 910
641 915
623 933
598 940
573 945
549 937
544 912
535 888
524 865
524 840
524 815
514 792
