379 1002
386 1040
409 1030
428 1013
452 1005
459 1029
469 1052
489 1067
499 1090
499 1115
499 1140
494 1187
489 1212
484 1242
496 1264
520 1250
525 1220
525 1195
540 1175
553 1153
573 1138
598 1135
623 1135
648 1135
673 1135
684 1158
694 1181
694 1206
694 1231
702 1255
727 1259
747 1244
750 1205
750 1180
750 1155
775 1155
800 1155
809 1179
809 1204
814 1229
819 1254
839 1270
859 1285
882 1295
906 1303
931 1305
955 1295
975 1280
988 1258
995 1219
995 1194
995 1169
987 1145
985 1120
1008 1110
1023 1130
1035 1152
1044 1176
1052 1200
1064 1222
1088 1230
1113 1230
1138 1225
1162 1234
1174 1256
1186 1278
1201 1298
1223 1310
1246 1320
1269 1330
1294 1330
1319 1330
1342 1320
1362 1304
1374 1282
1389 1262
1395 1236
1395 1211
1395 1186
1393 1161
1380 1139
1365 1119
1360 1094
1360 1069
1360 1044
1353 1020
1330 1009
1305 1009
1280 1004
1260 988
1242 970
1233 946
1221 924
1206 904
1186 920
1171 940
1159 962
1148 989
1124 997
1101 1010
1089 1032
1070 1054
1045 1059
1020 1053
1015 1028
1010 1003
1010 978
1005 953
997 929
990 905
983 881
959 874
936 885
924 907
934 930
931 955
909 967
889 982
867 994
849 1012
844 1042
825 1076
801 1084
783 1066
775 1042
757 1024
734 1014
709 1014
685 1007
661 999
636 999
611 999
586 999
561 999
541 984
521 969
503 951
485 933
463 921
439 914
416 925
404 947
391 980
