547 984
551 1015
576 1020
599 1010
624 1005
635 1028
644 1052
656 1074
664 1098
664 1123
659 1157
649 1197
649 1222
649 1247
654 1272
679 1275
695 1255
705 1215
710 1175
725 1155
750 1155
775 1155
800 1155
825 1155
850 1155
875 1155
899 1162
899 1187
904 1212
904 1237
904 1262
914 1285
939 1287
951 1265
965 1235
970 1190
970 1165
995 1165
1014 1182
1014 1207
1014 1232
1024 1255
1035 1278
1050 1298
1069 1315
1092 1325
1117 1330
1142 1330
1165 1320
1178 1298
1180 1265
1185 1220
1208 1210
1233 1210
1258 1210
1283 1210
1308 1210
1333 1210
1358 1210
1383 1215
1401 1233
1409 1257
1421 1279
1439 1297
1461 1309
1484 1320
1509 1325
1534 1325
1559 1325
1580 1310
1593 1288
1602 1264
1610 1234
1610 1209
1610 1184
1607 1159
1595 1137
1585 1114
1574 1091
1555 1074
1555 1049
1550 1024
1540 1001
1518 989
1493 989
1469 982
1447 970
1435 948
1423 926
1401 914
1376 914
1351 914
1329 927
1334 952
1339 977
1334 1004
1311 1015
1299 1037
1294 1062
1274 1097
1250 1104
1225 1102
1215 1079
1210 1054
1200 1031
1195 1006
1195 981
1195 956
1195 931
1194 906
1175 889
1152 879
1134 897
1134 922
1134 947
1121 975
1099 987
1079 1002
1064 1022
1054 1052
1035 1079
1010 1084
985 1084
960 1084
935 1085
935 1060
925 1037
900 1034
875 1029
852 1019
827 1019
802 1019
780 1007
756 999
733 989
710 979
687 969
667 954
647 939
627 924
602 929
584 947
564 962
