214 252
214 227
232 209
257 204
282 204
307 204
332 204
357 204
382 204
407 199
432 199
457 199
482 199
507 199
532 194
555 184
580 179
605 174
630 174
655 174
680 174
705 169
730 169
755 169
780 169
805 169
830 169
855 169
880 169
905 169
930 172
955 174
980 174
1005 174
1030 179
1055 179
1080 179
1105 179
1130 179
1155 179
1180 179
1205 179
1230 179
1255 179
1280 179
1305 179
1330 176
1355 174
1380 174
1405 174
1430 174
1455 174
1480 174
1505 174
1530 174
1555 174
1580 174
1605 174
1630 179
1655 179
1680 179
1705 179
1730 184
1755 184
1780 189
1805 194
1828 205
1845 224
1855 247
1860 272
1860 297
1860 322
1865 347
1865 372
1865 397
1865 422
1865 470
1865 495
1865 520
1865 545
1860 570
1860 595
1855 630
1843 663
1824 680
1799 685
1774 690
1749 695
1724 695
1699 700
1674 695
1649 700
1624 700
1599 700
1574 700
1549 700
1524 705
1499 705
1474 705
1449 705
1424 710
1399 710
1374 710
1351 700
1326 695
1301 700
1276 695
1251 700
1226 705
1201 703
1179 690
1154 690
1129 690
1104 690
1079 690
1054 690
1029 690
1004 695
979 695
954 695
929 695
904 697
879 700
854 700
829 705
804 707
780 715
755 715
732 704
707 700
682 700
657 705
632 700
609 690
584 685
559 680
534 675
511 664
490 650
476 629
464 607
449 587
444 562
444 537
444 502
444 477
444 452
444 427
444 402
444 377
449 330
447 305
424 295
399 295
374 290
349 290
324 290
299 290
274 290
249 285
226 274
