124 202
124 177
146 164
171 164
196 164
221 159
246 159
271 159
296 159
321 159
346 155
371 149
396 149
421 149
446 154
471 154
496 154
521 154
546 154
571 154
596 154
621 154
646 154
671 154
696 154
721 154
746 154
771 154
796 154
821 154
846 154
871 154
896 154
921 154
946 154
971 154
996 154
1021 154
1046 154
1071 154
1096 154
1121 154
1146 154
1171 154
1196 154
1221 154
1246 154
1271 154
1296 154
1321 154
1346 154
1371 154
1396 159
1421 154
1446 154
1471 154
1496 159
1521 159
1546 159
1571 159
1596 159
1621 159
1646 159
1671 159
1696 159
1721 159
1746 159
1771 164
1796 164
1821 164
1845 172
1865 187
1883 205
1895 227
1903 251
1910 275
1915 300
1915 325
1920 350
1920 375
1920 400
1920 425
1925 450
1925 475
1920 520
1920 545
1920 570
1915 595
1910 625
1900 670
1886 695
1868 713
1846 725
1824 737
1799 740
1774 740
1749 740
1724 740
1699 740
1674 740
1649 740
1624 740
1599 740
1574 740
1549 740
1524 740
1499 740
1474 740
1449 740
1424 740
1399 740
1374 740
1349 740
1324 740
1299 740
1274 740
1249 740
1224 740
1199 740
1174 740
1149 740
1124 740
1099 740
1074 740
1049 740
1024 740
999 740
974 740
949 740
924 740
899 740
874 740
849 740
824 740
799 740
774 740
749 740
724 740
699 740
674 740
649 740
624 740
599 740
574 740
549 740
524 740
499 740
474 740
449 740
424 735
401 724
386 704
371 684
364 660
359 635
354 572
359 523
359 498
359 473
359 448
359 423
359 398
359 373
359 348
359 323
359 298
359 273
342 254
317 255
292 255
267 254
242 250
217 250
192 249
167 245
142 245
124 227
