204 552
199 527
211 505
224 482
244 467
259 447
252 415
234 397
219 377
214 352
214 327
224 302
242 284
264 272
286 260
311 259
336 264
361 269
383 281
403 296
418 316
425 340
420 370
420 410
410 440
412 465
427 485
435 509
440 534
440 565
440 590
450 613
460 636
470 659
480 682
498 700
510 730
504 762
480 770
460 785
445 815
425 830
420 875
410 900
405 940
400 970
390 1000
407 1019
427 1034
452 1039
467 1069
444 1080
421 1090
396 1095
371 1095
346 1095
321 1090
296 1085
274 1072
269 1047
274 1022
269 977
264 952
264 927
274 902
284 866
271 844
254 825
244 802
239 777
234 752
229 727
229 702
230 673
224 648
224 623
224 598
214 575
