429 872
429 847
434 822
439 797
449 767
459 742
471 720
489 702
511 690
531 675
551 660
574 647
594 632
616 620
639 609
664 602
688 594
713 589
738 584
763 584
788 584
813 584
838 584
837 550
831 510
797 505
779 487
779 462
791 440
814 429
839 429
864 429
889 429
914 429
939 429
954 457
939 477
915 485
890 485
895 530
895 555
912 574
937 579
962 574
977 554
1002 549
1027 554
1050 564
1073 575
1095 587
1120 589
1145 589
1170 589
1195 594
1208 628
1188 643
1165 655
1140 655
1115 660
1090 660
1097 684
1122 684
1147 679
1172 679
1197 674
1222 674
1247 669
1272 669
1297 669
1322 664
1347 664
1372 659
1397 659
1422 659
1446 650
1471 644
1494 634
1519 629
1544 629
1568 636
1588 651
1595 690
1578 710
1553 715
1528 718
1503 720
1479 727
1455 735
1430 740
1410 755
1385 760
1361 770
1338 780
1315 790
1291 800
1267 809
1243 818
1218 825
1193 828
1168 830
1143 835
1120 845
1120 870
1145 874
1170 869
1190 884
1200 907
1193 933
1181 955
1159 967
1135 975
1110 975
1085 975
1060 975
1035 975
1010 975
985 975
960 980
960 1005
942 1030
917 1035
892 1040
867 1045
842 1050
819 1060
794 1065
769 1070
744 1075
719 1080
694 1085
669 1087
644 1090
619 1090
594 1090
569 1095
544 1095
519 1095
494 1095
469 1095
444 1092
429 1072
429 1047
444 1027
469 1026
491 1039
516 1044
541 1044
566 1044
591 1044
616 1044
641 1044
665 1015
640 1015
615 1015
590 1010
565 1010
540 1005
515 1000
492 990
469 980
446 969
434 947
429 922
429 897
