509 997
509 972
531 959
556 954
574 972
593 989
618 989
643 989
656 950
631 950
606 953
586 938
574 916
561 894
549 872
549 847
549 822
549 797
549 772
549 747
549 722
549 697
559 667
569 642
581 620
599 602
617 584
639 572
661 559
682 544
705 534
730 529
753 519
778 519
803 514
828 509
853 504
878 509
884 476
871 454
854 435
849 410
824 410
799 405
789 382
809 367
834 364
859 359
884 354
909 354
934 354
953 371
945 415
925 430
900 435
910 460
910 485
934 494
959 499
984 499
1009 499
1034 504
1059 504
1084 509
1109 514
1133 521
1140 545
1142 579
1124 597
1090 605
1111 619
1136 619
1161 619
1186 619
1211 619
1236 619
1261 619
1286 619
1311 619
1336 619
1361 619
1386 619
1411 619
1436 624
1435 655
1414 670
1389 675
1366 685
1344 697
1320 705
1298 718
1275 730
1252 740
1229 750
1206 760
1184 772
1165 790
1172 814
1197 819
1219 831
1237 849
1240 874
1234 907
1212 919
1187 925
1163 933
1138 940
1114 947
1089 952
1064 955
1039 960
1014 960
989 960
964 960
939 960
916 970
896 985
871 990
846 995
821 1000
798 1010
773 1015
748 1020
723 1025
698 1030
673 1035
649 1042
624 1045
599 1050
574 1050
549 1050
524 1045
514 1022
