254 392
254 367
269 347
293 339
318 334
343 329
368 324
393 319
418 319
443 314
468 309
493 309
518 309
543 304
568 304
593 304
618 304
643 299
668 299
693 299
718 299
743 299
768 294
793 294
818 294
843 294
868 289
893 289
918 289
943 289
968 289
993 289
1018 289
1043 294
1068 294
1093 294
1118 289
1143 284
1168 284
1193 284
1218 284
1243 289
1266 299
1290 307
1310 322
1315 347
1315 372
1320 397
1344 404
1364 387
1386 374
1411 369
1436 369
1461 364
1486 369
1511 369
1536 374
1556 389
1579 399
1600 413
1618 431
1633 451
1645 473
1657 495
1660 520
1660 545
1660 570
1650 610
1650 635
1640 660
1625 690
1616 715
1604 737
1589 757
1571 775
1556 795
1536 810
1514 822
1495 840
1480 860
1460 875
1440 890
1432 914
1414 932
1389 937
1370 955
1358 979
1334 997
1334 972
1334 947
1339 917
1339 892
1344 852
1359 832
1381 819
1402 804
1422 789
1442 774
1462 759
1477 739
1497 724
1515 706
1530 686
1542 664
1554 637
1566 615
1569 587
1571 554
1566 529
1557 505
1539 487
1520 470
1497 460
1472 455
1447 455
1423 463
1400 475
1380 490
1365 510
1355 535
1345 565
1330 595
1315 615
1310 640
1310 665
1310 690
1310 715
1310 740
1310 765
1310 790
1310 815
1310 840
1310 865
1310 890
1310 915
1310 940
1310 965
1305 1000
1305 1025
1300 1060
1300 1085
1295 1120
1289 1162
1271 1180
1251 1195
1231 1210
1208 1220
1185 1230
1161 1240
1137 1249
1112 1255
1087 1260
1062 1265
1039 1275
1014 1275
989 1280
964 1280
939 1285
914 1290
889 1290
864 1295
839 1295
814 1295
789 1295
764 1295
739 1295
714 1295
689 1295
664 1290
639 1290
614 1285
589 1285
564 1280
539 1280
514 1275
489 1270
464 1265
441 1255
418 1245
396 1233
374 1220
351 1210
329 1197
311 1179
299 1157
294 1132
304 1092
309 1065
309 1040
309 1015
307 990
304 965
304 940
304 915
304 890
299 865
299 840
294 815
289 790
289 765
279 742
279 717
279 692
274 667
274 642
274 617
269 592
269 567
269 542
264 517
264 492
259 467
259 442
259 417
