169 352
169 327
181 305
201 290
226 284
251 279
276 279
301 274
326 274
351 269
376 269
401 269
426 264
451 264
476 264
501 259
526 254
551 254
576 249
601 249
626 249
651 244
676 244
701 239
726 239
751 239
776 239
801 244
826 244
849 234
874 239
899 239
924 239
949 239
974 239
999 234
1024 234
1049 234
1074 234
1099 234
1124 234
1149 234
1174 234
1199 234
1224 234
1249 234
1272 244
1287 264
1295 288
1295 313
1295 338
1300 363
1300 388
1300 413
1300 438
1305 463
1328 474
1353 469
1378 469
1403 464
1428 464
1453 464
1476 474
1501 479
1525 487
1549 496
1560 519
1570 542
1582 564
1595 586
1609 607
1620 630
1627 654
1630 679
1635 704
1645 727
1653 751
1660 775
1665 800
1670 825
1670 850
1675 875
1680 900
1675 945
1670 970
1665 1010
1665 1035
1665 1060
1655 1105
1645 1135
1630 1160
1615 1180
1595 1195
1575 1210
1553 1225
1530 1235
1508 1248
1485 1260
1460 1265
1437 1275
1414 1285
1391 1295
1367 1304
1343 1313
1321 1325
1301 1340
1279 1352
1284 1312
1289 1272
1294 1232
1299 1202
1323 1194
1345 1181
1364 1162
1388 1154
1413 1154
1437 1144
1459 1132
1479 1117
1499 1102
1517 1084
1534 1062
1549 1037
1554 1012
1554 987
1559 962
1559 937
1559 912
1554 887
1554 862
1549 837
1549 812
1540 788
1536 763
1529 739
1524 714
1514 691
1499 671
1484 651
1474 628
1460 607
1438 595
1415 585
1390 585
1370 600
1350 615
1335 635
1320 655
1308 683
1295 705
1285 740
1285 765
1285 790
1285 815
1280 850
1275 890
1275 915
1275 940
1275 965
1275 990
1280 1015
1280 1040
1275 1070
1270 1095
1270 1120
1270 1145
1270 1170
1275 1195
1270 1220
1265 1260
1260 1300
1255 1340
1250 1385
1250 1410
1250 1435
1250 1460
1245 1505
1245 1530
1239 1567
1224 1587
1209 1607
1190 1625
1170 1640
1150 1655
1128 1668
1106 1680
1084 1692
1062 1704
1038 1713
1014 1720
991 1730
967 1739
943 1748
919 1757
895 1765
870 1770
845 1775
820 1775
795 1780
770 1780
745 1780
720 1775
695 1775
670 1775
645 1775
620 1775
595 1775
570 1775
545 1775
521 1768
497 1759
473 1750
448 1745
426 1733
404 1721
384 1706
369 1686
359 1663
354 1638
349 1613
345 1588
340 1563
331 1539
319 1517
314 1492
319 1446
319 1421
314 1396
314 1371
309 1346
304 1321
299 1296
294 1271
289 1246
284 1221
279 1196
279 1171
274 1146
269 1121
264 1096
254 1073
254 1048
254 1023
249 998
249 973
244 948
244 923
239 898
229 875
224 850
224 825
219 800
219 775
219 750
214 725
209 700
204 675
199 650
194 625
184 602
184 577
189 552
184 527
179 502
179 477
179 452
174 427
174 402
169 377
