269 372
269 347
281 325
299 307
323 299
348 299
373 299
398 299
423 299
448 299
473 299
498 294
523 294
548 294
573 289
598 289
623 289
648 289
673 289
698 289
723 289
748 289
773 289
798 289
823 289
848 289
873 289
898 284
923 284
948 284
973 279
998 279
1023 279
1048 279
1073 279
1098 280
1123 284
1148 284
1173 284
1198 284
1223 289
1248 289
1273 294
1296 304
1311 324
1315 349
1315 374
1315 399
1310 440
1305 475
1305 500
1305 525
1312 549
1327 569
1347 584
1372 589
1397 584
1421 575
1445 566
1467 554
1491 545
1515 536
1537 524
1560 514
1585 509
1610 512
1630 527
1640 550
1645 575
1650 600
1650 625
1650 650
1650 675
1655 700
1655 725
1655 750
1655 775
1655 800
1655 825
1660 850
1665 875
1670 900
1675 925
1682 949
1690 973
1695 998
1700 1023
1709 1047
1715 1072
1725 1095
1725 1140
1712 1169
1694 1187
1675 1205
1653 1218
1633 1233
1610 1245
1590 1260
1570 1275
1550 1290
1530 1305
1510 1320
1490 1335
1472 1354
1454 1372
1436 1390
1416 1405
1394 1417
1374 1432
1359 1452
1344 1472
1319 1497
1319 1472
1319 1447
1319 1422
1319 1397
1319 1372
1319 1347
1319 1322
1314 1297
1314 1272
1339 1276
1364 1274
1387 1264
1407 1249
1429 1237
1451 1224
1472 1209
1490 1191
1509 1172
1527 1154
1545 1136
1560 1116
1574 1087
1579 1042
1574 1017
1569 992
1564 967
1564 942
1559 917
1554 892
1549 867
1544 842
1539 817
1534 792
1529 767
1529 742
1524 717
1512 695
1494 677
1472 665
1447 665
1423 673
1399 682
1375 690
1353 703
1331 715
1313 733
1298 753
1285 775
1280 805
1280 830
1275 870
1275 895
1275 920
1270 960
1275 985
1275 1010
1280 1035
1280 1060
1285 1085
1285 1110
1290 1135
1290 1160
1285 1190
1290 1215
1290 1240
1290 1265
1290 1290
1290 1315
1295 1340
1295 1365
1295 1390
1295 1415
1295 1440
1295 1465
1295 1490
1295 1515
1300 1540
1295 1565
1295 1590
1300 1615
1295 1640
1291 1665
1276 1685
1258 1703
1236 1715
1213 1725
1189 1732
1165 1740
1140 1745
1116 1755
1093 1765
1069 1772
1045 1780
1020 1785
995 1790
970 1790
945 1795
920 1795
895 1800
870 1800
845 1800
820 1800
795 1805
770 1805
745 1805
720 1800
695 1795
670 1790
645 1785
620 1785
595 1785
570 1782
545 1777
521 1770
498 1760
473 1755
450 1745
425 1740
402 1730
379 1720
359 1705
339 1690
319 1675
300 1658
289 1635
279 1612
279 1587
274 1562
279 1532
279 1507
279 1482
284 1442
289 1417
294 1392
299 1362
309 1327
319 1297
329 1272
339 1247
349 1222
359 1187
369 1157
379 1113
379 1088
379 1063
379 1038
379 1013
379 988
374 963
370 938
369 913
361 889
354 865
349 840
339 817
330 793
324 768
316 744
314 719
314 694
314 669
314 644
314 619
309 594
306 569
301 544
296 519
289 495
284 470
274 447
274 422
269 397
