269 322
269 297
279 272
294 252
314 237
334 222
358 214
383 209
408 204
433 199
458 199
483 194
508 194
533 194
558 194
583 194
608 194
633 189
658 189
683 189
708 189
733 189
758 189
783 189
808 189
833 194
858 195
883 199
908 199
933 204
958 204
983 209
1008 209
1033 209
1058 209
1083 209
1108 209
1133 209
1158 214
1183 220
1207 229
1230 239
1253 250
1273 265
1293 280
1305 302
1315 325
1320 350
1320 375
1320 400
1315 435
1315 460
1317 485
1338 499
1363 494
1388 494
1413 489
1438 489
1463 489
1488 489
1513 490
1537 499
1560 509
1583 520
1603 535
1623 550
1638 570
1653 590
1668 610
1680 632
1692 654
1705 676
1715 699
1725 722
1735 745
1742 769
1750 793
1760 816
1765 841
1768 866
1770 891
1775 916
1775 941
1775 966
1775 991
1775 1016
1770 1050
1760 1075
1745 1100
1728 1123
1708 1138
1686 1150
1664 1162
1642 1174
1617 1180
1594 1190
1569 1195
1544 1200
1519 1205
1494 1210
1469 1215
1446 1225
1424 1237
1404 1252
1384 1267
1364 1282
1345 1300
1327 1319
1309 1337
1284 1337
1284 1312
1284 1287
1289 1262
1289 1237
1289 1212
1289 1187
1294 1162
1294 1137
1294 1112
1294 1087
1319 1084
1344 1084
1369 1084
1394 1082
1419 1079
1444 1074
1469 1069
1494 1064
1519 1059
1544 1052
1568 1044
1590 1031
1610 1016
1630 1001
1644 977
1654 937
1659 912
1654 887
1654 862
1645 838
1639 813
1629 790
1619 767
1607 745
1599 721
1587 699
1575 677
1563 655
1548 635
1528 620
1508 605
1485 595
1460 595
1435 595
1413 608
1393 623
1378 643
1365 665
1355 690
1346 715
1334 737
1319 757
1300 775
1285 795
1275 820
1270 850
1270 875
1270 900
1270 925
1270 950
1270 975
1270 1000
1270 1025
1270 1050
1270 1075
1270 1100
1270 1125
1265 1170
1265 1195
1265 1220
1265 1245
1260 1270
1260 1295
1260 1320
1260 1345
1255 1370
1255 1395
1255 1420
1255 1445
1255 1470
1255 1495
1250 1535
1250 1560
1240 1585
1233 1613
1221 1635
1206 1655
1186 1670
1166 1685
1146 1700
1126 1715
1104 1727
1082 1739
1058 1748
1034 1755
1011 1765
986 1770
961 1775
936 1780
911 1785
886 1790
861 1790
836 1790
811 1790
786 1790
761 1790
736 1790
711 1790
686 1788
662 1780
637 1774
612 1770
587 1769
562 1765
537 1760
512 1760
487 1755
462 1755
440 1742
420 1727
402 1709
384 1691
369 1671
356 1649
349 1625
339 1602
339 1577
339 1552
339 1527
339 1502
339 1477
339 1452
339 1427
334 1402
334 1377
334 1352
329 1327
329 1302
329 1277
329 1252
329 1222
329 1197
329 1172
324 1147
324 1122
324 1097
324 1072
324 1047
319 1022
319 997
314 972
314 947
309 922
309 897
309 872
309 847
309 822
309 797
309 772
309 747
304 722
304 697
299 672
299 647
299 622
294 597
294 572
289 547
289 522
284 497
284 472
279 447
279 422
274 397
274 372
269 347
