289 972
307 954
332 959
324 927
309 907
319 882
314 857
309 832
319 807
316 764
301 744
307 704
332 709
321 679
309 657
314 612
309 587
319 562
337 540
361 549
386 554
411 549
436 549
460 541
484 534
507 544
530 554
553 544
549 512
571 524
586 544
611 549
636 554
661 549
686 549
709 539
734 534
757 544
780 554
799 512
821 524
836 544
861 549
886 550
911 549
936 545
960 536
985 534
1005 549
1030 554
1049 537
1044 512
1073 530
1090 549
1115 549
1140 552
1165 546
1190 546
1212 534
1237 539
1260 549
1285 549
1294 512
1316 524
1331 544
1356 549
1381 550
1406 549
1431 545
1455 536
1480 534
1500 549
1525 554
1544 537
1539 512
1568 530
1585 549
1610 549
1635 552
1660 546
1685 546
1707 534
1732 539
1755 549
1780 549
1789 512
1811 524
1826 544
1851 549
1876 550
1901 549
1926 545
1950 536
1975 534
1995 549
2020 554
2039 537
2034 512
2063 530
2080 549
2105 549
2130 552
2155 546
2180 546
2202 534
2227 539
2250 549
2275 549
2284 512
2306 524
2321 544
2346 549
2371 550
2396 549
2421 545
2445 536
2470 534
2490 549
2515 554
2534 571
2540 596
2550 619
2530 650
2532 675
2547 695
2550 740
2545 770
2520 775
2525 800
2535 823
2540 848
2550 885
2530 900
2532 925
2547 945
2550 990
2543 1015
2520 1025
2525 1050
2535 1073
2530 1115
2507 1125
2482 1119
2460 1107
2438 1095
2415 1105
2400 1127
2381 1110
2359 1122
2334 1126
2312 1114
2287 1114
2264 1125
2239 1121
2217 1109
2195 1097
2170 1100
2168 1129
2144 1122
2124 1107
2109 1127
2084 1125
2064 1110
2039 1115
2016 1125
1991 1120
1968 1110
1945 1100
1933 1125
1910 1135
1917 1159
1929 1181
1930 1206
1915 1230
1900 1250
1915 1270
1905 1295
1885 1310
1880 1355
1880 1380
1890 1403
1890 1430
1865 1435
1865 1460
1855 1485
1855 1510
1855 1535
1850 1565
1840 1610
1825 1635
1825 1660
1835 1683
1835 1710
1810 1710
1785 1715
1795 1738
1810 1758
1815 1785
1803 1813
1790 1835
1790 1875
1770 1890
1777 1914
1765 1945
1767 1970
1779 1992
1770 2025
1745 2030
1750 2055
1740 2080
1740 2105
1740 2135
1730 2175
1715 2195
1710 2230
1712 2255
1720 2279
1700 2300
1675 2305
1685 2328
1700 2348
1690 2390
1684 2427
1660 2435
1663 2463
1644 2480
1619 2485
1596 2495
1573 2485
1553 2470
1530 2460
1510 2475
1512 2510
1490 2498
1472 2480
1447 2485
1422 2480
1397 2480
1372 2485
1349 2495
1326 2485
1306 2470
1283 2460
1259 2467
1239 2452
1234 2427
1244 2391
1231 2369
1216 2349
1199 2330
1189 2307
1214 2304
1206 2259
1189 2207
1184 2182
1184 2152
1176 2084
1159 2065
1149 2042
1159 2012
1149 1989
1144 1964
1134 1941
1124 1918
1124 1893
1116 1869
1104 1847
1099 1822
1104 1785
1099 1760
1092 1710
1077 1690
1059 1672
1054 1647
1079 1644
1087 1620
1069 1602
1059 1579
1045 1558
1034 1535
1024 1512
1044 1497
1054 1467
1046 1434
1029 1415
1019 1392
1024 1350
1014 1327
1012 1300
1000 1278
994 1253
994 1228
984 1205
974 1182
959 1162
969 1137
973 1110
953 1095
930 1105
915 1127
896 1110
874 1122
849 1126
827 1114
802 1114
779 1125
754 1121
732 1109
710 1097
685 1100
682 1130
659 1120
636 1110
621 1130
596 1124
575 1110
550 1115
527 1125
502 1119
480 1107
458 1095
435 1105
421 1129
404 1110
381 1120
358 1130
338 1115
314 1107
309 1082
319 1057
316 1014
301 994
