289 972
307 954
332 959
324 927
309 907
319 882
314 857
309 832
319 807
316 764
301 744
307 704
332 709
321 679
309 657
314 612
309 587
319 562
337 544
357 559
382 564
405 574
430 574
454 581
476 594
499 604
524 609
549 602
574 601
592 619
615 629
634 612
656 624
674 642
684 612
709 609
732 619
750 637
768 655
793 654
808 634
833 639
853 655
878 654
903 654
925 667
950 666
972 654
995 664
1018 674
1041 684
1066 679
1087 664
1102 684
1126 691
1141 670
1165 679
1188 689
1208 674
1233 670
1257 679
1280 689
1305 689
1329 681
1351 694
1376 695
1394 677
1416 689
1441 689
1461 674
1486 674
1510 682
1534 689
1559 687
1583 679
1603 694
1625 681
1647 669
1667 684
1692 679
1710 661
1735 667
1759 676
1784 679
1804 652
1829 651
1849 666
1873 659
1898 655
1922 664
1942 649
1957 629
1979 641
2001 654
2026 650
2044 632
2069 631
2091 644
2114 632
2138 625
2159 639
2169 607
2193 599
2216 609
2239 619
2264 614
2284 597
2306 584
2326 599
2347 584
2372 579
2397 574
2422 574
2447 579
2464 552
2489 554
2514 554
2533 571
2540 595
2550 618
2530 650
2532 675
2547 695
2550 740
2545 770
2520 775
2525 800
2535 823
2540 848
2550 885
2530 900
2532 925
2547 945
2550 990
2543 1015
2520 1025
2525 1050
2535 1073
2526 1110
2501 1108
2477 1100
2454 1090
2434 1075
2411 1065
2386 1065
2363 1055
2338 1050
2318 1035
2303 1015
2280 1005
2271 1045
2246 1044
2225 1030
2200 1030
2178 1045
2153 1048
2128 1055
2103 1055
2078 1060
2055 1050
2033 1063
2020 1085
1998 1105
1973 1100
1948 1095
1925 1105
1914 1130
1889 1132
1870 1150
1845 1155
1820 1160
1820 1195
1795 1195
1770 1200
1772 1225
1767 1264
1745 1252
1720 1250
1722 1275
1724 1302
1700 1310
1675 1310
1680 1335
1690 1358
1675 1395
1655 1410
1635 1425
1635 1450
1640 1475
1640 1500
1635 1525
1620 1545
1619 1572
1600 1590
1607 1614
1615 1638
1606 1665
1575 1670
1594 1687
1610 1707
1595 1730
1597 1755
1598 1793
1585 1815
1587 1840
1599 1862
1610 1885
1597 1909
1570 1910
1584 1931
1604 1946
1595 1990
1605 2013
1605 2038
1608 2063
1595 2085
1605 2108
1615 2131
1615 2156
1618 2181
1630 2203
1635 2228
1644 2252
1635 2285
1642 2309
1657 2329
1660 2365
1659 2402
1640 2420
1650 2443
1644 2480
1619 2485
1596 2495
1573 2485
1553 2470
1530 2460
1510 2475
1512 2510
1490 2498
1472 2480
1447 2485
1422 2480
1397 2480
1372 2485
1349 2495
1326 2485
1306 2470
1283 2460
1259 2467
1254 2442
1264 2405
1259 2312
1264 2277
1289 2274
1290 2243
1279 2220
1269 2197
1279 2160
1279 2072
1289 2049
1306 2030
1299 1995
1284 1975
1274 1952
1292 1934
1284 1907
1284 1842
1284 1817
1296 1795
1304 1762
1289 1742
1274 1722
1274 1697
1275 1668
1264 1645
1264 1620
1254 1597
1254 1572
1254 1542
1239 1522
1239 1497
1268 1506
1259 1482
1239 1467
1224 1447
1224 1422
1222 1385
1207 1365
1189 1347
1174 1327
1169 1302
1159 1266
1147 1244
1132 1224
1112 1209
1091 1195
1068 1185
1046 1173
1024 1160
1009 1140
990 1123
972 1105
952 1090
927 1090
902 1090
882 1075
857 1070
832 1065
812 1050
788 1058
763 1055
743 1040
718 1038
704 1060
681 1050
656 1050
631 1050
606 1050
583 1040
558 1043
535 1055
510 1052
485 1050
479 1080
454 1075
429 1070
405 1077
380 1080
368 1103
344 1110
319 1105
309 1082
319 1057
316 1014
301 994
