24 1257
34 1297
59 1300
82 1310
107 1315
132 1320
157 1320
182 1325
207 1329
232 1329
257 1330
282 1330
307 1335
332 1335
357 1335
382 1340
407 1340
432 1340
457 1344
482 1345
507 1345
532 1350
557 1350
582 1355
607 1359
632 1360
656 1368
681 1373
706 1375
731 1380
756 1380
781 1383
806 1380
831 1380
856 1380
881 1380
906 1375
931 1370
956 1370
988 1363
1013 1365
976 1385
954 1399
931 1410
909 1422
887 1434
867 1449
845 1461
827 1479
805 1491
785 1506
765 1521
747 1539
732 1559
714 1577
695 1596
677 1614
659 1632
639 1647
620 1666
602 1684
580 1696
562 1714
544 1732
522 1744
504 1762
482 1774
464 1792
446 1810
424 1822
384 1852
366 1870
351 1890
329 1902
310 1926
292 1944
274 1962
262 1984
244 2002
259 2025
284 2020
307 2010
330 2000
353 1990
378 1983
398 1968
418 1953
442 1945
462 1930
482 1915
504 1902
524 1887
548 1878
568 1863
588 1848
610 1835
633 1823
653 1808
675 1795
695 1780
718 1770
741 1760
761 1745
783 1733
805 1720
829 1712
853 1703
875 1690
898 1678
920 1665
940 1650
960 1635
980 1615
1003 1603
1021 1585
1039 1567
1058 1550
1075 1530
1095 1515
1099 1542
1087 1564
1075 1586
1066 1610
1054 1632
1044 1657
1034 1682
1024 1712
1014 1747
1004 1782
999 1812
999 1837
994 1867
989 1892
984 1922
979 1947
971 1990
966 2015
961 2040
949 2062
939 2102
934 2127
924 2167
914 2202
904 2227
894 2272
889 2297
884 2322
879 2347
874 2382
869 2422
869 2447
874 2472
874 2497
899 2472
914 2452
929 2432
941 2410
953 2388
965 2365
975 2335
985 2310
1000 2290
1010 2265
1020 2235
1030 2205
1043 2183
1052 2159
1060 2130
1070 2105
1080 2080
1090 2055
1100 2030
1113 2008
1122 1984
1134 1962
1143 1938
1155 1915
1168 1893
1180 1870
1195 1845
1205 1820
1215 1795
1225 1770
1235 1730
1245 1695
1255 1670
1255 1645
1265 1620
1265 1595
1270 1565
1289 1602
1294 1627
1299 1652
1304 1677
1309 1702
1314 1727
1324 1750
1329 1775
1339 1798
1349 1821
1357 1845
1369 1867
1384 1887
1394 1910
1405 1933
1417 1955
1426 1979
1439 2001
1447 2025
1459 2047
1469 2070
1474 2095
1484 2118
1494 2141
1504 2164
1514 2187
1524 2210
1529 2235
1536 2259
1545 2283
1557 2305
1569 2327
1579 2350
1594 2370
1599 2395
1614 2415
1624 2438
1654 2477
1666 2499
1675 2460
1677 2430
1675 2405
1670 2380
1670 2355
1665 2330
1660 2305
1655 2280
1650 2255
1643 2231
1639 2206
1627 2184
1620 2160
1615 2135
1610 2110
1605 2085
1600 2060
1590 2037
1584 2012
1579 1987
1574 1962
1570 1937
1565 1912
1560 1887
1555 1862
1550 1837
1550 1812
1549 1787
1540 1763
1535 1738
1527 1714
1520 1690
1510 1667
1500 1644
1492 1620
1483 1596
1470 1574
1460 1551
1450 1528
1440 1505
1475 1530
1494 1547
1512 1565
1530 1583
1549 1600
1569 1615
1589 1630
1609 1645
1629 1660
1649 1675
1672 1685
1692 1700
1716 1708
1740 1717
1762 1729
1786 1738
1806 1753
1828 1765
1850 1777
1872 1789
1892 1804
1912 1819
1936 1828
1956 1843
1976 1858
1998 1870
2020 1882
2040 1897
2060 1912
2082 1924
2104 1936
2125 1950
2146 1964
2166 1979
2191 1985
2214 1995
2237 2005
2260 2015
2283 2025
2307 2010
2289 1992
2274 1972
2259 1952
2241 1934
2223 1916
2208 1896
2188 1881
2170 1863
2152 1845
2130 1833
2112 1815
2090 1803
2072 1785
2054 1767
2032 1755
2015 1736
1994 1722
1976 1704
1958 1686
1936 1674
1918 1656
1900 1638
1880 1623
1863 1604
1844 1587
1829 1567
1810 1550
1793 1531
1775 1513
1755 1498
1735 1483
1715 1468
1693 1456
1673 1441
1651 1429
1631 1414
1609 1402
1587 1390
1561 1379
1540 1365
1582 1365
1607 1370
1632 1375
1657 1375
1682 1380
1707 1380
1732 1380
1757 1380
1782 1384
1807 1380
1832 1379
1857 1375
1880 1365
1905 1360
1930 1360
1955 1355
1980 1350
2005 1350
2030 1345
2055 1340
2080 1340
2105 1340
2130 1337
2155 1340
2180 1335
2205 1335
2230 1330
2255 1330
2280 1330
2305 1325
2330 1325
2355 1325
2380 1320
2405 1320
2430 1315
2455 1310
2479 1302
2504 1300
2520 1275
2510 1252
2485 1247
2461 1239
2436 1234
2411 1229
2386 1229
2361 1225
2336 1224
2311 1224
2286 1219
2261 1219
2236 1224
2211 1219
2186 1214
2161 1214
2136 1214
2111 1209
2086 1209
2061 1209
2036 1209
2011 1204
1986 1204
1961 1199
1936 1194
1911 1194
1888 1184
1863 1179
1838 1179
1813 1174
1788 1170
1763 1174
1738 1174
1713 1174
1688 1174
1663 1179
1638 1184
1613 1184
1588 1189
1545 1185
1568 1173
1590 1160
1613 1150
1635 1135
1658 1123
1680 1110
1700 1095
1720 1080
1740 1065
1763 1053
1781 1035
1799 1017
1817 999
1834 980
1850 960
1869 942
1887 924
1907 909
1925 890
1944 872
1965 855
1985 840
2004 822
2025 805
2044 787
2066 775
2084 757
2102 739
2124 727
2142 709
2164 697
2179 677
2198 660
2218 643
2235 620
2255 600
2270 580
2285 560
2292 524
2267 529
2243 539
2219 547
2196 559
2171 565
2151 580
2131 595
2107 604
2087 619
2067 634
2046 649
2024 662
2001 675
1979 689
1959 704
1939 719
1916 730
1896 745
1875 759
1852 769
1831 784
1809 797
1786 810
1764 822
1741 834
1718 844
1694 852
1672 864
1650 876
1630 891
1610 906
1590 921
1572 939
1550 951
1532 969
1514 987
1496 1005
1478 1024
1440 1040
1453 1018
1465 990
1478 968
1487 944
1499 922
1508 898
1517 874
1525 850
1535 810
1540 785
1550 745
1550 720
1555 690
1560 660
1565 635
1570 605
1575 580
1580 555
1590 510
1600 485
1610 440
1620 400
1630 355
1640 330
1650 290
1655 265
1660 240
1665 210
1670 175
1675 150
1675 125
1675 84
1664 52
1652 74
1634 92
1616 115
1604 137
1591 165
1579 187
1569 212
1554 237
1544 267
1534 292
1524 322
1509 352
1499 377
1489 407
1479 432
1471 465
1459 487
1449 512
1439 537
1426 570
1414 592
1399 622
1389 647
1359 692
1349 717
1339 742
1329 772
1319 802
1309 842
1299 877
1294 912
1275 997
1270 972
1265 947
1260 922
1255 897
1250 872
1245 847
1239 822
1230 798
1220 775
1215 745
1205 722
1195 699
1180 679
1169 656
1157 634
1145 612
1135 589
1125 566
1115 543
1105 520
1094 497
1085 473
1075 450
1068 426
1060 402
1050 379
1040 356
1030 333
1020 310
1013 286
1005 262
995 239
980 219
970 196
964 171
950 150
940 127
922 109
910 87
894 67
874 52
869 87
869 112
874 162
879 187
879 212
884 237
889 262
894 287
899 312
911 334
919 358
924 383
929 408
934 433
940 458
949 482
959 505
964 530
969 555
974 580
979 605
984 630
989 655
994 680
999 705
999 730
1002 755
1009 779
1014 804
1021 828
1029 852
1039 875
1046 899
1055 923
1067 945
1076 969
1089 991
1106 1049
1088 1031
1069 1014
1050 997
1035 977
1015 962
995 947
977 929
957 914
937 899
915 887
895 872
873 859
850 849
827 839
804 829
781 819
759 806
739 791
717 779
697 764
674 754
653 740
630 729
610 714
590 699
568 686
548 671
526 659
504 646
484 631
464 616
442 604
419 594
399 579
376 569
354 556
330 549
307 539
284 529
259 524
244 545
261 564
274 586
289 606
309 621
324 641
344 656
362 674
380 692
400 707
420 722
440 737
458 755
478 770
498 785
516 803
538 815
556 833
574 851
596 863
614 881
634 896
652 914
672 929
687 949
705 967
723 985
741 1003
759 1021
777 1039
797 1055
817 1070
835 1088
857 1100
877 1115
900 1125
921 1139
944 1150
966 1163
991 1175
1008 1194
970 1189
945 1184
920 1179
895 1179
870 1174
845 1174
820 1174
795 1174
770 1169
745 1174
720 1174
695 1176
671 1184
646 1189
621 1194
596 1194
571 1200
546 1204
521 1204
496 1204
471 1209
446 1209
421 1209
396 1214
371 1214
346 1214
321 1214
296 1219
271 1219
246 1219
221 1224
196 1220
171 1225
146 1229
121 1230
96 1234
73 1244
48 1249
