399 977
384 957
408 950
433 954
458 954
483 959
508 964
533 969
558 974
583 979
608 984
633 984
634 947
619 927
629 904
654 909
678 916
702 924
727 929
752 934
756 899
741 879
729 857
764 869
787 879
809 891
829 906
850 920
873 930
890 949
913 960
935 972
954 951
941 929
966 929
984 947
1004 962
1022 980
1046 989
1042 945
1030 923
1019 900
1055 922
1074 939
1084 896
1074 873
1066 849
1059 825
1049 802
1044 777
1039 752
1066 764
1084 742
1084 717
1079 692
1079 667
1074 642
1074 617
1069 592
1069 567
1091 579
1106 599
1118 621
1130 643
1155 646
1164 612
1164 587
1164 562
1169 522
1169 497
1174 467
1184 442
1204 457
1223 474
1247 464
1259 432
1269 392
1279 357
1294 332
1312 350
1320 374
1325 399
1330 424
1335 449
1335 474
1340 499
1340 524
1345 549
1350 574
1373 584
1391 565
1404 542
1422 524
1430 548
1430 573
1430 598
1430 623
1430 648
1435 673
1460 676
1479 652
1497 634
1505 658
1495 700
1485 735
1480 760
1470 795
1460 835
1460 860
1481 874
1497 854
1515 836
1495 895
1488 923
1475 945
1475 970
1500 966
1519 947
1537 929
1555 911
1545 953
1530 975
1547 994
1569 982
1589 967
1607 949
1629 932
1651 919
1672 904
1692 889
1700 913
1714 934
1739 927
1761 915
1784 904
1807 894
1830 884
1853 874
1876 864
1864 902
1849 922
1830 940
1832 965
1857 969
1881 960
1906 955
1931 949
1955 941
1979 934
2004 932
2029 929
2025 960
2025 985
2046 999
2071 999
2096 999
2121 999
2146 994
2171 999
2158 1028
2138 1043
2116 1055
2094 1067
2072 1079
2048 1088
2026 1100
2003 1110
1980 1120
1960 1135
1967 1159
1990 1169
2027 1174
2013 1195
1990 1205
1965 1210
1941 1220
1918 1230
1895 1240
1897 1265
1921 1274
1955 1289
1935 1305
1910 1305
1885 1310
1860 1310
1835 1315
1810 1315
1785 1315
1760 1315
1735 1320
1710 1325
1720 1348
1744 1356
1761 1375
1725 1373
1700 1370
1675 1370
1650 1365
1625 1370
1635 1393
1664 1409
1698 1425
1713 1445
1675 1435
1650 1430
1625 1430
1632 1454
1654 1466
1674 1481
1694 1496
1716 1509
1734 1527
1754 1542
1764 1565
1735 1570
1737 1595
1755 1613
1773 1631
1791 1649
1806 1669
1824 1687
1839 1707
1860 1732
1835 1732
1811 1724
1789 1712
1765 1705
1740 1710
1747 1734
1760 1756
1774 1777
1786 1799
1801 1819
1815 1840
1825 1863
1825 1900
1800 1895
1775 1900
1775 1925
1780 1950
1790 1973
1800 1996
1807 2020
1807 2055
1784 2045
1765 2028
1747 2010
1727 1995
1712 1975
1697 1955
1677 1940
1662 1920
1644 1902
1625 1885
1600 1890
1600 1915
1600 1940
1596 1968
1576 1953
1561 1933
1546 1913
1531 1893
1516 1873
1498 1855
1475 1865
1475 1890
1461 1923
1449 1901
1436 1879
1424 1857
1416 1833
1404 1811
1399 1786
1389 1763
1382 1739
1370 1717
1345 1715
1329 1755
1319 1732
1314 1707
1309 1682
1304 1657
1285 1640
1270 1660
1269 1687
1249 1744
1246 1719
1244 1694
1241 1669
1220 1655
1210 1680
1200 1710
1190 1750
1180 1780
1170 1805
1149 1825
1133 1805
1110 1815
1098 1838
1085 1860
1073 1883
1060 1905
1045 1930
1033 1954
1009 1947
1014 1922
1014 1897
1018 1865
994 1857
974 1872
959 1892
940 1910
927 1934
912 1954
894 1972
874 1987
849 1983
846 1958
824 1945
801 1955
781 1970
763 1988
740 2000
718 2020
694 2012
704 1977
716 1955
729 1927
744 1902
756 1880
771 1860
784 1832
796 1810
787 1775
762 1780
739 1790
714 1787
726 1765
741 1745
756 1725
771 1705
784 1682
783 1650
758 1653
734 1660
709 1657
724 1637
742 1619
762 1604
782 1589
802 1574
819 1552
839 1537
861 1524
880 1506
870 1480
834 1472
856 1459
879 1447
899 1432
921 1419
928 1395
897 1395
872 1400
833 1394
855 1381
877 1369
885 1340
860 1340
835 1340
810 1340
785 1340
760 1340
735 1340
721 1319
725 1292
701 1285
676 1280
651 1275
626 1270
601 1265
576 1260
551 1254
561 1230
586 1224
611 1219
635 1211
614 1175
590 1167
568 1155
543 1150
521 1138
497 1130
477 1115
459 1097
481 1084
499 1053
482 1034
461 1020
439 1007
417 995
