464 1267
459 1242
479 1227
499 1212
519 1197
539 1182
559 1167
579 1152
599 1137
619 1122
639 1107
659 1092
679 1077
699 1062
719 1047
739 1032
759 1017
779 1002
799 987
819 972
839 957
861 944
881 929
901 914
921 899
941 884
961 869
981 854
1001 839
1022 824
1042 809
1062 794
1082 779
1102 764
1122 749
1142 734
1162 719
1182 704
1202 689
1222 674
1242 659
1262 644
1282 629
1302 614
1322 599
1342 584
1362 569
1382 554
1402 539
1422 524
1444 536
1464 551
1484 566
1504 581
1524 596
1544 611
1564 626
1584 641
1604 656
1624 671
1644 686
1666 699
1686 714
1706 729
1726 744
1746 759
1766 774
1786 789
1806 804
1826 819
1846 834
1866 849
1886 864
1906 879
1926 894
1946 909
1966 924
1986 939
2006 954
2026 969
2046 984
2066 999
2086 1014
2108 1026
2128 1041
2148 1056
2168 1071
2188 1086
2208 1101
2228 1116
2248 1131
2268 1146
2288 1161
2308 1176
2328 1191
2348 1206
2368 1221
2388 1236
2385 1280
2375 1310
2365 1340
2355 1370
2345 1405
2335 1435
2325 1465
2315 1500
2305 1530
2295 1560
2285 1590
2275 1625
2265 1655
2255 1685
2245 1715
2235 1750
2225 1780
2215 1810
2205 1845
2195 1875
2185 1905
2175 1935
2165 1970
2155 2000
2145 2030
2135 2060
2125 2095
2115 2125
2105 2155
2095 2190
2085 2220
2075 2250
2065 2280
2055 2315
2045 2345
2035 2375
2023 2405
1998 2405
1973 2405
1948 2405
1923 2405
1898 2405
1873 2405
1848 2405
1823 2405
1798 2405
1773 2405
1748 2405
1723 2405
1698 2405
1673 2405
1648 2405
1623 2405
1598 2405
1573 2405
1548 2405
1523 2405
1498 2405
1473 2405
1448 2405
1423 2405
1398 2405
1373 2405
1348 2405
1323 2405
1298 2405
1273 2405
1248 2405
1223 2405
1198 2405
1173 2405
1148 2405
1123 2405
1098 2405
1073 2405
1048 2405
1023 2405
998 2405
973 2405
948 2405
923 2405
898 2405
873 2405
848 2405
824 2396
814 2373
806 2349
799 2325
794 2300
784 2277
775 2253
769 2228
761 2204
754 2180
744 2157
739 2132
730 2108
724 2083
714 2060
709 2035
699 2012
694 1987
684 1964
679 1939
669 1916
664 1891
654 1868
646 1844
639 1820
634 1795
624 1772
615 1748
609 1723
601 1699
594 1675
584 1652
579 1627
570 1603
564 1578
554 1555
549 1530
539 1507
534 1482
524 1459
517 1435
509 1411
504 1386
494 1363
486 1339
479 1315
474 1290
