399 1482
404 1507
409 1532
414 1557
419 1582
424 1607
429 1632
434 1657
444 1680
449 1705
459 1728
469 1751
474 1776
486 1798
494 1822
506 1844
519 1866
529 1889
543 1910
555 1932
569 1953
582 1975
597 1995
609 2017
627 2035
642 2055
660 2073
679 2090
694 2110
714 2125
731 2144
749 2162
769 2177
787 2195
807 2210
827 2225
847 2240
869 2252
891 2265
914 2275
934 2290
957 2300
979 2312
1001 2324
1025 2332
1049 2340
1072 2350
1096 2358
1120 2365
1144 2372
1169 2375
1192 2385
1217 2389
1242 2390
1267 2395
1292 2395
1317 2400
1342 2400
1338 2361
1325 2339
1317 2315
1312 2290
1310 2265
1310 2240
1320 2205
1330 2180
1345 2155
1360 2135
1379 2117
1404 2120
1419 2140
1434 2160
1445 2183
1454 2207
1454 2272
1449 2297
1439 2332
1426 2365
1414 2387
1438 2395
1463 2395
1488 2395
1513 2395
1538 2390
1563 2388
1588 2385
1613 2378
1637 2370
1662 2365
1687 2359
1711 2350
1734 2340
1757 2330
1780 2320
1803 2310
1826 2300
1848 2288
1870 2275
1893 2263
1915 2250
1935 2235
1958 2223
1978 2208
1998 2193
2016 2175
2036 2160
2054 2142
2072 2124
2090 2105
2109 2087
2127 2069
2142 2049
2160 2030
2175 2010
2190 1990
2205 1965
2220 1945
2233 1923
2245 1900
2260 1875
2273 1853
2285 1825
2295 1800
2305 1775
2315 1750
2325 1720
2335 1690
2345 1655
2355 1610
2365 1580
2365 1555
2370 1520
2375 1475
2380 1450
2375 1425
2375 1398
2375 1373
2367 1349
2349 1367
2329 1382
2307 1394
2284 1404
2259 1409
2234 1409
2209 1404
2185 1397
2161 1389
2141 1374
2119 1362
2100 1345
2119 1327
2139 1312
2159 1297
2183 1288
2207 1280
2232 1275
2257 1275
2282 1280
2307 1285
2331 1293
2355 1302
2377 1314
2375 1279
2370 1254
2365 1229
2360 1204
2355 1179
2350 1154
2345 1129
2337 1105
2330 1081
2320 1058
2315 1033
2305 1010
2294 987
2285 963
2273 941
2260 919
2249 896
2237 874
2225 852
2210 832
2195 812
2183 790
2165 772
2150 752
2135 732
2117 714
2099 696
2080 679
2063 660
2045 642
2027 624
2007 609
1987 594
1967 579
1947 564
1927 549
1905 537
1883 524
1860 514
1840 499
1817 489
1794 479
1771 469
1748 459
1725 449
1702 439
1677 434
1653 426
1629 419
1604 414
1579 409
1554 404
1529 399
1504 399
1479 394
1454 394
1429 391
1404 389
1394 412
1404 435
1415 458
1424 482
1434 505
1439 530
1444 555
1444 580
1444 605
1439 637
1434 662
1424 692
1414 717
1399 742
1381 764
1363 746
1345 728
1330 708
1318 686
1305 664
1300 639
1292 615
1287 590
1285 565
1285 540
1290 505
1295 480
1305 445
1315 420
1324 396
1299 394
1274 399
1249 401
1224 404
1199 409
1174 414
1149 419
1126 429
1101 434
1078 444
1054 452
1030 459
1007 469
984 479
961 490
939 502
916 515
894 527
872 539
852 554
831 569
811 584
789 597
770 616
750 631
732 649
714 667
694 682
675 706
657 724
639 742
624 762
609 782
594 802
579 822
564 847
549 867
536 890
524 912
512 939
500 961
491 985
479 1007
469 1032
459 1057
449 1087
439 1122
429 1157
419 1197
414 1232
409 1262
404 1332
404 1357
404 1382
423 1419
444 1405
467 1395
492 1389
517 1385
542 1385
567 1385
592 1390
615 1400
638 1410
660 1422
656 1455
636 1470
615 1484
592 1494
568 1504
544 1511
519 1514
494 1514
469 1509
446 1499
423 1489
