384 412
384 387
409 384
432 394
457 394
480 404
503 414
528 420
550 432
572 444
594 456
616 469
636 484
656 499
676 514
700 522
719 539
739 554
760 568
780 583
800 598
820 613
840 628
862 640
880 658
902 670
922 685
942 700
962 715
982 730
1002 745
1022 760
1040 778
1060 794
1079 811
1099 757
1109 732
1119 702
1131 680
1140 656
1149 632
1161 610
1174 582
1189 557
1201 535
1214 512
1226 490
1239 467
1251 445
1264 422
1289 426
1300 449
1310 472
1325 492
1337 514
1350 536
1360 559
1373 581
1385 603
1395 626
1405 649
1415 672
1427 694
1435 718
1445 741
1452 765
1460 789
1475 809
1494 792
1514 772
1534 757
1554 742
1574 727
1592 709
1614 697
1634 682
1654 667
1674 652
1696 639
1716 624
1737 609
1757 594
1777 579
1797 564
1819 552
1839 537
1859 522
1881 509
1901 494
1922 479
1942 464
1965 454
1988 444
2010 432
2032 419
2055 409
2079 401
2103 394
2128 389
2153 384
2155 425
2147 469
2138 493
2125 515
2115 540
2100 570
2085 595
2073 618
2061 640
2049 662
2030 680
2018 703
2003 723
1988 743
1975 765
1960 785
1945 805
1930 825
1915 850
1900 870
1885 890
1870 910
1855 935
1840 955
1827 979
1809 997
1794 1017
1775 1035
1759 1057
1740 1075
1761 1089
1785 1097
1809 1106
1833 1114
1856 1124
1878 1136
1902 1144
1924 1156
1946 1169
1968 1181
1992 1189
2014 1201
2034 1216
2056 1229
2078 1241
2100 1253
2122 1265
2108 1293
2085 1305
2063 1318
2040 1330
2018 1343
1995 1355
1973 1370
1950 1380
1928 1393
1905 1405
1882 1415
1859 1425
1836 1435
1813 1445
1789 1452
1765 1460
1740 1465
1754 1486
1769 1506
1785 1526
1802 1545
1817 1565
1832 1585
1847 1605
1862 1625
1877 1645
1889 1667
1904 1687
1919 1707
1934 1727
1946 1749
1961 1769
1976 1789
1988 1811
2003 1831
2018 1851
2033 1871
2045 1893
2060 1913
2072 1935
2084 1957
2096 1979
2110 2000
2120 2023
2132 2045
2144 2067
2149 2092
2155 2120
2160 2145
2136 2163
2112 2155
2089 2145
2064 2141
2042 2129
2018 2120
1998 2105
1974 2096
1952 2084
1932 2069
1908 2060
1890 2042
1870 2027
1848 2015
1828 2000
1808 1985
1785 1975
1766 1958
1746 1943
1724 1930
1704 1915
1684 1900
1664 1885
1641 1874
1621 1859
1601 1844
1580 1830
1560 1815
1541 1798
1521 1783
1503 1765
1483 1750
1460 1760
1450 1790
1440 1820
1430 1845
1420 1870
1405 1895
1395 1920
1383 1948
1370 1970
1355 1995
1343 2018
1330 2040
1318 2063
1305 2085
1290 2110
1265 2122
1253 2100
1241 2078
1229 2056
1216 2034
1204 2012
1189 1992
1181 1968
1169 1946
1156 1924
1144 1902
1136 1878
1124 1856
1114 1833
1106 1809
1097 1785
1089 1761
1067 1749
1049 1767
1030 1785
1010 1800
990 1815
970 1830
950 1845
930 1860
908 1873
888 1888
868 1903
848 1918
825 1930
805 1945
785 1960
765 1975
743 1988
723 2003
703 2018
681 2030
663 2048
640 2060
618 2073
598 2088
575 2100
553 2113
529 2122
505 2130
483 2143
458 2150
434 2157
409 2162
384 2162
384 2137
389 2102
399 2077
409 2052
421 2030
430 2006
442 1984
454 1962
466 1940
479 1917
494 1897
509 1877
524 1852
539 1832
554 1812
569 1792
584 1772
599 1752
614 1727
629 1707
644 1682
662 1664
677 1644
689 1622
707 1604
719 1582
737 1564
749 1542
767 1524
782 1504
800 1486
785 1460
762 1450
737 1445
714 1435
691 1425
668 1415
645 1405
622 1394
600 1382
578 1370
556 1358
532 1350
512 1335
489 1325
469 1310
446 1299
424 1287
426 1260
449 1249
472 1239
492 1224
515 1214
536 1200
559 1189
581 1175
605 1166
629 1152
653 1144
676 1134
699 1122
723 1114
746 1104
770 1097
795 1091
787 1049
769 1031
754 1011
739 991
721 973
709 951
694 931
679 911
664 891
649 871
634 851
619 831
607 809
590 790
576 769
559 750
546 728
531 708
516 688
504 666
489 646
474 626
464 603
454 580
439 560
429 537
406 484
399 460
389 437
