439 2252
424 2277
448 2285
473 2285
498 2283
523 2280
548 2278
573 2275
598 2275
623 2270
648 2268
673 2265
698 2260
723 2260
748 2255
773 2253
798 2250
823 2245
848 2245
873 2240
898 2238
923 2235
948 2230
973 2230
998 2228
1023 2225
1048 2220
1073 2220
1098 2218
1123 2215
1148 2215
1173 2210
1191 2228
1211 2243
1233 2255
1253 2270
1275 2282
1299 2290
1322 2300
1347 2305
1372 2310
1397 2315
1422 2315
1447 2315
1472 2315
1497 2314
1522 2310
1547 2305
1572 2300
1595 2290
1619 2282
1641 2270
1663 2258
1683 2243
1703 2228
1727 2220
1752 2220
1777 2225
1802 2229
1827 2230
1852 2234
1877 2235
1902 2240
1927 2244
1952 2245
1977 2250
2002 2250
2027 2255
2052 2259
2077 2260
2102 2265
2127 2265
2152 2270
2177 2270
2202 2275
2227 2275
2252 2280
2277 2280
2302 2285
2327 2285
2352 2285
2377 2285
2402 2290
2417 2265
2402 2245
2390 2223
2378 2201
2363 2181
2350 2159
2335 2139
2320 2119
2309 2096
2295 2075
2280 2055
2266 2034
2251 2014
2239 1992
2224 1972
2209 1952
2195 1931
2180 1911
2167 1889
2152 1869
2137 1849
2122 1829
2110 1807
2095 1787
2080 1767
2067 1745
2052 1725
2040 1703
2025 1683
2010 1663
1998 1641
1983 1621
1968 1601
1955 1579
1940 1559
1929 1536
1915 1515
1901 1494
1889 1472
1874 1452
1862 1430
1847 1410
1835 1388
1823 1366
1810 1344
1795 1324
1784 1301
1770 1280
1759 1257
1745 1236
1735 1213
1720 1193
1699 1179
1674 1179
1649 1174
1625 1167
1603 1155
1580 1144
1560 1129
1540 1114
1525 1094
1510 1074
1499 1051
1487 1029
1480 1005
1475 980
1470 955
1470 930
1470 905
1475 875
1485 840
1495 815
1505 792
1505 767
1500 742
1495 717
1494 692
1490 667
1485 642
1480 617
1475 592
1470 567
1465 542
1460 517
1455 492
1454 467
1450 442
1445 417
1440 392
1435 367
1430 342
1414 322
1404 357
1394 397
1384 432
1374 467
1364 507
1354 547
1344 582
1334 617
1324 657
1314 692
1304 727
1294 767
1284 797
1274 837
1264 867
1254 907
1244 937
1234 972
1244 995
1249 1020
1254 1045
1254 1077
1254 1102
1244 1137
1235 1166
1220 1186
1205 1206
1186 1224
1163 1234
1139 1242
1114 1242
1089 1242
1074 1267
1061 1290
1049 1312
1037 1334
1011 1380
996 1400
984 1422
969 1442
954 1467
941 1490
929 1512
914 1532
899 1557
886 1580
871 1600
859 1622
844 1642
829 1667
814 1687
799 1712
784 1732
769 1757
754 1777
739 1802
724 1822
709 1847
694 1867
681 1890
666 1910
651 1930
639 1952
624 1972
609 1992
594 2017
579 2037
566 2060
551 2080
536 2100
524 2122
509 2142
494 2162
479 2187
466 2210
451 2230
