459 1402
479 1382
474 1342
474 1317
471 1274
459 1252
481 1240
485 1198
474 1175
464 1152
488 1145
508 1160
532 1169
557 1169
566 1145
591 1149
611 1164
635 1156
660 1154
683 1165
706 1155
729 1144
750 1158
773 1169
798 1174
809 1147
827 1165
845 1183
860 1203
878 1221
900 1234
920 1249
939 1266
955 1246
977 1234
999 1246
1023 1254
1048 1249
1066 1230
1081 1210
1106 1204
1129 1192
1139 1167
1164 1164
1171 1140
1174 1097
1159 1077
1154 1052
1169 1029
1162 1005
1159 980
1149 957
1144 932
1166 919
1179 897
1194 872
1184 840
1174 817
1198 810
1221 789
1214 765
1214 740
1209 715
1209 690
1199 667
1194 642
1179 602
1164 582
1159 557
1169 528
1159 505
1159 480
1149 457
1174 459
1199 454
1223 461
1247 469
1270 459
1294 466
1314 481
1338 489
1344 457
1369 459
1394 454
1419 456
1444 454
1468 461
1492 469
1516 460
1540 467
1560 482
1584 489
1614 459
1628 483
1615 505
1600 525
1589 557
1570 575
1575 600
1585 623
1575 655
1550 655
1552 680
1567 700
1580 722
1580 747
1585 772
1580 815
1582 840
1595 862
1610 882
1620 910
1620 935
1627 959
1635 983
1635 1008
1625 1040
1627 1065
1635 1100
1610 1100
1615 1125
1625 1148
1650 1154
1673 1165
1696 1155
1719 1144
1740 1158
1763 1169
1788 1174
1799 1147
1824 1144
1844 1159
1869 1157
1894 1154
1917 1164
1942 1159
1957 1139
1979 1151
2001 1164
2025 1172
2034 1147
2052 1129
2077 1134
2099 1122
2109 1092
2134 1094
2159 1087
2184 1086
2206 1099
2228 1111
2248 1126
2266 1144
2286 1129
2308 1141
2313 1166
2325 1188
2305 1212
2280 1215
2287 1239
2302 1259
2315 1300
2305 1335
2310 1360
2310 1385
2310 1410
2324 1431
2330 1456
2305 1460
2280 1465
2290 1488
2305 1508
2315 1550
2305 1580
2307 1605
2298 1633
2289 1657
2270 1675
2245 1680
2221 1690
2199 1702
2177 1715
2152 1710
2127 1704
2105 1692
2083 1680
2059 1671
2037 1659
2057 1644
2043 1623
2023 1638
1998 1640
1980 1622
1960 1607
1935 1605
1934 1637
1909 1642
1887 1630
1863 1638
1838 1635
1818 1620
1793 1623
1773 1640
1748 1635
1728 1620
1708 1605
1685 1615
1667 1644
1645 1632
1620 1635
1620 1665
1600 1680
1590 1720
1590 1745
1593 1788
1580 1810
1582 1835
1594 1857
1609 1877
1610 1902
1615 1927
1633 1945
1645 1967
1655 1990
1669 2011
1655 2050
1665 2073
1677 2095
1670 2135
1650 2150
1630 2165
1632 2190
1610 2212
1585 2215
1580 2260
1580 2285
1587 2309
1633 2330
1610 2320
1582 2335
1557 2329
1532 2325
1509 2315
1484 2312
1460 2320
1435 2315
1422 2349
1400 2337
1378 2325
1353 2328
1328 2335
1305 2325
1280 2322
1256 2313
1231 2315
1203 2315
1181 2344
1174 2320
1164 2297
1189 2294
1217 2294
1217 2265
1195 2253
1175 2238
1160 2218
1145 2198
1130 2178
1129 2153
1121 2129
1109 2107
1104 2082
1119 2057
1119 2032
1134 2012
1139 1987
1144 1957
1139 1932
1161 1919
1185 1911
1194 1887
1199 1852
1184 1832
1179 1807
1203 1799
1185 1763
1169 1743
1159 1720
1149 1697
1144 1672
1168 1664
1154 1625
1125 1585
1108 1610
1090 1592
1075 1572
1053 1560
1028 1560
1005 1550
980 1545
979 1577
955 1570
930 1565
905 1570
880 1575
865 1595
849 1617
825 1610
803 1623
783 1640
758 1635
738 1620
718 1605
695 1615
674 1640
651 1630
626 1635
601 1634
580 1620
555 1620
537 1639
512 1639
494 1621
481 1599
481 1555
469 1520
459 1497
483 1489
484 1445
474 1422
