479 1187
479 1162
504 1164
528 1171
552 1179
577 1184
602 1189
627 1194
650 1204
675 1209
700 1214
725 1219
749 1226
773 1234
798 1239
823 1244
848 1250
872 1259
897 1264
922 1269
945 1279
970 1284
995 1289
1020 1294
1044 1301
1068 1309
1093 1314
1118 1319
1138 1304
1149 1277
1164 1257
1182 1239
1197 1219
1217 1204
1239 1192
1261 1180
1285 1171
1309 1164
1309 1137
1300 1113
1295 1088
1291 1063
1284 1039
1279 1014
1274 989
1269 964
1264 939
1259 914
1254 889
1249 864
1244 839
1239 814
1234 789
1227 765
1222 740
1217 715
1214 690
1204 667
1199 642
1194 617
1189 592
1184 567
1179 542
1174 517
1169 492
1164 467
1189 464
1214 464
1239 464
1264 464
1289 464
1314 464
1339 464
1364 464
1389 464
1414 464
1439 464
1464 464
1489 464
1514 464
1539 464
1564 464
1589 464
1614 464
1615 495
1605 535
1595 570
1585 605
1575 640
1565 675
1555 710
1545 745
1535 780
1525 815
1515 850
1505 885
1495 920
1485 955
1475 995
1465 1030
1455 1065
1445 1100
1435 1135
1425 1170
1448 1180
1470 1192
1492 1204
1510 1222
1528 1240
1545 1259
1560 1279
1570 1302
1580 1325
1605 1324
1630 1319
1655 1314
1679 1307
1704 1302
1728 1294
1753 1289
1778 1284
1803 1279
1828 1274
1852 1264
1877 1259
1902 1254
1927 1249
1952 1244
1976 1235
2001 1230
2026 1224
2051 1219
2076 1214
2101 1209
2125 1201
2149 1194
2174 1189
2199 1184
2224 1179
2249 1174
2274 1167
2298 1159
2310 1181
2310 1206
2310 1231
2310 1256
2310 1281
2310 1306
2310 1331
2310 1356
2310 1381
2310 1406
2310 1431
2310 1456
2310 1481
2310 1506
2310 1531
2310 1556
2310 1581
2310 1606
2296 1628
2272 1620
2247 1615
2222 1610
2199 1600
2174 1595
2149 1590
2124 1585
2100 1577
2076 1570
2051 1565
2026 1560
2003 1550
1978 1545
1953 1540
1928 1535
1904 1527
1880 1520
1855 1515
1830 1510
1806 1503
1782 1495
1757 1490
1732 1485
1709 1475
1684 1470
1659 1465
1634 1460
1610 1452
1585 1450
1575 1480
1565 1505
1552 1529
1537 1549
1519 1567
1501 1585
1481 1600
1459 1612
1435 1620
1440 1645
1445 1670
1452 1694
1460 1718
1465 1743
1470 1768
1480 1791
1485 1816
1492 1840
1500 1864
1505 1889
1510 1914
1520 1937
1525 1962
1533 1986
1540 2010
1545 2035
1552 2059
1560 2083
1565 2108
1574 2132
1580 2157
1585 2182
1593 2206
1600 2230
1607 2254
1615 2278
1611 2325
1586 2325
1561 2325
1536 2325
1511 2325
1486 2325
1461 2325
1436 2325
1411 2325
1386 2325
1361 2325
1336 2325
1311 2325
1286 2325
1261 2325
1236 2325
1211 2325
1186 2325
1164 2312
1169 2282
1174 2257
1184 2212
1189 2187
1199 2162
1199 2137
1209 2092
1214 2067
1224 2042
1224 2017
1234 1972
1239 1947
1249 1902
1254 1877
1259 1852
1269 1807
1274 1782
1279 1757
1289 1712
1294 1687
1299 1662
1290 1627
1266 1619
1244 1607
1222 1595
1202 1580
1184 1562
1169 1542
1154 1522
1139 1502
1131 1478
1113 1460
1088 1465
1064 1472
1040 1480
1015 1485
990 1490
966 1500
941 1505
916 1510
893 1520
868 1525
844 1532
820 1540
795 1545
770 1550
746 1560
721 1565
696 1570
673 1580
648 1585
623 1590
600 1600
575 1605
550 1610
526 1620
501 1625
479 1612
479 1587
479 1562
479 1537
479 1512
479 1487
479 1462
479 1437
479 1412
479 1387
479 1362
479 1337
479 1312
479 1287
479 1262
479 1237
479 1212
