309 2417
299 2447
321 2460
346 2455
370 2445
395 2440
418 2430
443 2423
467 2414
489 2402
513 2393
535 2380
558 2370
581 2360
603 2348
625 2335
648 2325
671 2315
693 2303
715 2290
738 2280
761 2270
784 2260
807 2250
830 2240
853 2230
878 2223
902 2215
925 2205
950 2200
975 2195
1000 2190
1025 2185
1050 2180
1075 2180
1100 2175
1125 2175
1150 2175
1175 2175
1200 2180
1225 2180
1250 2185
1275 2190
1300 2195
1325 2200
1350 2205
1375 2210
1399 2217
1423 2225
1448 2230
1472 2239
1497 2245
1521 2253
1545 2260
1569 2267
1593 2275
1618 2280
1641 2290
1666 2295
1690 2302
1714 2310
1739 2315
1764 2320
1789 2325
1814 2330
1839 2335
1864 2340
1889 2340
1914 2345
1939 2345
1964 2350
1989 2350
2014 2350
2039 2350
2064 2350
2089 2350
2114 2350
2139 2350
2164 2350
2189 2350
2214 2345
2239 2345
2264 2340
2289 2340
2314 2337
2339 2335
2364 2335
2389 2330
2414 2330
2439 2325
2429 2296
2414 2276
2399 2256
2384 2236
2369 2216
2355 2195
2341 2174
2326 2154
2314 2132
2299 2112
2285 2091
2272 2069
2260 2047
2245 2027
2227 2009
2202 2009
2177 2014
2152 2014
2127 2014
2102 2014
2077 2019
2052 2014
2027 2019
2002 2014
1977 2014
1952 2009
1927 2009
1902 2009
1877 2004
1852 1999
1827 1999
1802 1994
1777 1989
1752 1984
1727 1979
1702 1974
1678 1965
1653 1959
1628 1954
1605 1944
1580 1939
1557 1929
1532 1924
1508 1915
1483 1909
1459 1901
1435 1894
1410 1889
1387 1879
1362 1874
1337 1869
1312 1864
1287 1859
1262 1854
1237 1849
1212 1849
1187 1844
1162 1844
1137 1844
1112 1844
1087 1844
1062 1849
1037 1849
1012 1854
987 1859
962 1864
937 1869
914 1879
890 1886
865 1890
870 1855
870 1830
885 1810
908 1800
933 1795
956 1785
981 1780
1006 1775
1031 1770
1056 1770
1081 1765
1106 1765
1131 1765
1156 1765
1181 1768
1206 1770
1231 1773
1256 1775
1281 1780
1306 1785
1331 1790
1355 1797
1379 1805
1404 1810
1429 1815
1452 1825
1476 1833
1500 1840
1524 1847
1548 1855
1573 1860
1596 1870
1621 1875
1644 1885
1669 1890
1694 1895
1717 1905
1742 1910
1767 1915
1792 1920
1817 1925
1842 1930
1867 1935
1892 1935
1917 1940
1942 1940
1967 1945
1992 1945
2017 1945
2042 1945
2067 1950
2092 1945
2117 1945
2142 1945
2167 1945
2190 1929
2180 1906
2170 1883
2158 1861
2145 1839
2135 1816
2125 1793
2113 1771
2104 1747
2092 1725
2080 1703
2072 1679
2060 1657
2050 1634
2040 1611
2030 1588
2020 1565
2010 1542
2000 1519
1990 1496
1980 1473
1970 1450
1960 1427
1950 1404
1942 1380
1933 1356
1920 1334
1912 1310
1903 1286
1895 1262
1885 1239
1875 1216
1865 1193
1855 1170
1845 1147
1840 1122
1830 1099
1820 1076
1810 1053
1802 1029
1782 1014
1757 1009
1732 1004
1708 995
1683 989
1658 984
1635 974
1610 969
1585 964
1562 954
1538 945
1513 939
1489 931
1465 924
1440 919
1417 909
1392 904
1375 885
1380 850
1395 830
1419 837
1443 845
1468 850
1491 860
1516 865
1539 875
1564 880
1587 890
1612 895
1635 905
1660 910
1683 920
1708 925
1733 930
1758 933
1755 903
1745 880
1735 857
1725 834
1717 810
1708 786
1699 762
1690 738
1680 715
1669 692
1660 668
1648 646
1639 622
1627 600
1615 578
1605 555
1594 532
1582 510
1570 488
1558 466
1546 444
1534 422
1520 401
1507 379
1495 357
1480 337
1461 320
1449 342
1439 367
1426 395
1414 417
1401 440
1389 462
1376 485
1364 507
1349 527
1334 552
1319 577
1304 597
1289 622
1274 642
1259 667
1244 687
1229 707
1214 732
1199 752
1184 772
1169 797
1154 817
1139 837
1124 857
1109 882
1094 902
1079 927
1064 947
1049 972
1034 992
1019 1017
1004 1037
989 1062
976 1085
961 1105
949 1127
936 1150
921 1170
909 1192
894 1217
881 1240
869 1262
896 1260
921 1255
944 1245
969 1240
994 1235
1019 1230
1044 1227
1069 1225
1094 1222
1119 1220
1144 1220
1169 1220
1194 1225
1219 1225
1244 1230
1269 1235
1294 1235
1319 1240
1342 1250
1367 1255
1392 1260
1417 1265
1440 1275
1465 1280
1488 1290
1513 1295
1537 1304
1562 1310
1586 1318
1610 1325
1634 1332
1658 1340
1683 1345
1708 1350
1732 1359
1757 1364
1774 1432
1768 1464
1743 1459
1718 1454
1694 1446
1670 1439
1645 1434
1622 1424
1597 1419
1573 1410
1548 1404
1525 1394
1500 1389
1477 1379
1453 1371
1429 1364
1405 1357
1381 1349
1356 1344
1331 1339
1306 1334
1283 1324
1258 1320
1233 1315
1208 1314
1183 1310
1158 1309
1133 1309
1108 1309
1083 1309
1058 1309
1033 1314
1008 1315
983 1319
958 1324
934 1332
909 1339
885 1346
861 1354
838 1364
814 1372
796 1390
784 1412
771 1435
759 1457
746 1480
734 1502
719 1527
706 1555
694 1577
681 1600
669 1622
654 1647
641 1675
629 1697
616 1720
604 1742
589 1772
576 1800
564 1822
551 1850
539 1872
526 1900
514 1922
501 1950
489 1972
476 2000
464 2022
451 2055
439 2077
429 2102
420 2126
411 2150
399 2172
389 2197
379 2222
369 2247
359 2272
349 2302
339 2332
329 2357
319 2387
