384 2232
394 2260
419 2260
444 2260
469 2260
494 2260
519 2260
544 2260
569 2260
594 2260
619 2260
644 2260
669 2260
694 2260
719 2260
744 2260
769 2260
794 2260
819 2260
844 2260
869 2260
894 2260
919 2260
944 2260
969 2260
994 2260
1019 2260
1044 2260
1069 2260
1094 2260
1119 2260
1144 2260
1169 2260
1194 2260
1219 2260
1244 2260
1269 2260
1294 2260
1319 2260
1344 2260
1369 2260
1394 2260
1419 2260
1444 2260
1469 2260
1494 2260
1519 2260
1544 2260
1569 2260
1594 2260
1619 2260
1644 2260
1669 2260
1694 2260
1719 2260
1744 2260
1769 2260
1794 2260
1819 2260
1844 2260
1869 2260
1894 2260
1919 2260
1944 2260
1969 2260
1994 2260
2019 2260
2044 2260
2069 2260
2094 2260
2119 2260
2144 2260
2169 2260
2194 2260
2219 2260
2244 2260
2269 2260
2294 2260
2303 2231
2290 2209
2279 2186
2265 2165
2254 2142
2240 2121
2227 2099
2215 2077
2202 2055
2190 2033
2178 2011
2165 1989
2154 1966
2140 1945
2129 1922
2115 1901
2102 1879
2090 1857
2077 1835
2065 1813
2053 1791
2040 1769
2029 1746
2015 1725
2004 1702
1990 1681
1977 1659
1965 1637
1952 1615
1940 1593
1928 1571
1916 1549
1904 1527
1890 1506
1880 1483
1865 1463
1855 1440
1841 1419
1829 1397
1817 1375
1805 1353
1793 1331
1780 1309
1765 1289
1755 1266
1742 1244
1730 1222
1717 1200
1705 1178
1693 1156
1680 1134
1669 1111
1655 1090
1644 1067
1630 1046
1617 1024
1605 1002
1592 980
1580 958
1568 936
1555 914
1544 891
1530 870
1520 847
1505 827
1492 805
1480 783
1468 761
1456 739
1444 717
1430 696
1420 673
1405 653
1395 630
1381 609
1369 587
1357 565
1339 547
1324 572
1311 595
1299 617
1284 642
1271 665
1259 687
1246 710
1234 732
1219 757
1206 780
1194 802
1179 827
1166 850
1154 872
1141 895
1129 917
1114 942
1101 965
1089 987
1076 1010
1064 1032
1049 1057
1036 1080
1024 1102
1009 1127
996 1150
984 1172
969 1197
956 1220
944 1242
931 1265
919 1287
904 1312
891 1335
879 1357
866 1380
854 1402
839 1427
826 1450
814 1472
799 1497
786 1520
774 1542
761 1565
749 1587
734 1612
721 1635
709 1657
696 1680
684 1702
669 1727
656 1750
644 1772
631 1795
619 1817
604 1842
591 1865
579 1887
564 1912
551 1935
539 1957
526 1980
514 2002
499 2027
486 2050
474 2072
461 2095
449 2117
434 2142
421 2165
409 2187
396 2210
