489 1227
494 1252
524 1280
549 1275
574 1270
598 1263
623 1258
647 1250
672 1245
697 1244
722 1239
747 1235
772 1230
797 1225
822 1225
847 1220
872 1220
897 1219
922 1215
947 1215
972 1215
997 1215
1022 1220
1047 1220
1072 1225
1097 1230
1092 1274
1067 1274
1042 1274
1017 1269
992 1269
967 1264
942 1269
917 1264
892 1269
867 1269
842 1274
817 1274
792 1279
767 1279
742 1284
717 1289
692 1294
667 1299
642 1304
617 1309
592 1314
567 1319
543 1329
519 1337
524 1362
529 1387
554 1390
579 1385
604 1380
628 1373
653 1368
677 1360
702 1355
727 1354
752 1350
777 1345
802 1340
827 1340
852 1335
877 1335
902 1335
927 1334
952 1335
977 1335
1002 1335
1027 1339
1049 1351
1036 1380
1012 1389
987 1384
962 1384
937 1384
912 1384
887 1384
862 1384
837 1384
812 1389
787 1394
762 1394
737 1399
712 1404
687 1409
662 1414
637 1419
612 1424
587 1429
563 1439
544 1472
549 1497
554 1522
559 1547
564 1572
569 1597
574 1622
579 1647
584 1672
589 1697
594 1722
599 1747
604 1772
609 1797
614 1822
624 1845
629 1870
634 1895
641 1919
649 1943
654 1968
660 1993
669 2017
674 2042
684 2065
689 2090
699 2113
709 2136
714 2161
724 2184
734 2207
739 2232
749 2255
759 2278
765 2303
774 2327
784 2350
794 2373
807 2395
832 2390
857 2390
882 2390
907 2390
932 2390
957 2390
982 2390
1007 2390
1032 2390
1057 2390
1082 2390
1107 2394
1132 2395
1157 2395
1182 2395
1207 2399
1232 2400
1257 2400
1282 2400
1307 2400
1332 2405
1357 2405
1382 2405
1407 2410
1432 2410
1457 2410
1482 2414
1507 2415
1532 2415
1557 2415
1582 2415
1607 2420
1632 2420
1657 2420
1682 2420
1707 2420
1732 2420
1757 2420
1782 2420
1807 2420
1832 2420
1857 2420
1882 2420
1907 2420
1932 2420
1957 2420
1982 2415
2007 2415
2015 2385
2025 2345
2030 2320
2040 2285
2050 2245
2060 2210
2070 2175
2080 2140
2090 2110
2100 2080
2110 2054
2107 2029
2082 2029
2057 2034
2032 2034
2007 2034
1982 2039
1957 2039
1932 2039
1907 2044
1882 2044
1857 2044
1832 2044
1807 2044
1782 2044
1757 2039
1732 2039
1715 2020
1710 1995
1735 1992
1760 1995
1785 1995
1810 1995
1835 1995
1860 1995
1885 1995
1910 1995
1935 1995
1960 1990
1985 1990
2010 1990
2035 1985
2060 1985
2085 1980
2110 1980
2135 1975
2148 1953
2157 1929
2165 1905
2175 1880
2185 1855
2198 1833
2207 1809
2215 1785
2228 1763
2237 1739
2249 1717
2247 1689
2222 1694
2197 1699
2172 1704
2147 1709
2122 1714
2097 1719
2072 1719
2047 1724
2022 1729
1997 1734
1972 1734
1947 1734
1922 1739
1897 1739
1872 1739
1847 1739
1822 1739
1797 1739
1772 1739
1747 1739
1740 1715
1750 1685
1775 1680
1800 1680
1825 1682
1850 1680
1875 1680
1900 1680
1925 1680
1950 1677
1975 1675
2000 1670
2025 1670
2050 1665
2075 1660
2100 1655
2125 1655
2150 1650
2175 1645
2200 1640
2225 1635
2249 1627
2273 1620
2295 1595
2308 1573
2317 1549
2325 1525
2335 1495
2345 1470
2355 1445
2365 1415
2375 1390
2385 1360
2395 1330
2400 1297
2376 1289
2351 1295
2327 1304
2302 1309
2277 1314
2253 1324
2228 1329
2203 1334
2178 1339
2154 1347
2129 1352
2104 1357
2079 1362
2054 1367
2029 1369
2004 1374
1979 1377
1954 1379
1929 1379
1904 1382
1879 1384
1855 1375
1865 1340
1890 1335
1915 1335
1940 1335
1965 1332
1990 1330
2015 1325
2040 1325
2065 1320
2090 1315
2115 1310
2140 1305
2165 1300
2190 1295
2214 1287
2238 1280
2263 1275
2288 1268
2312 1260
2297 1239
2277 1224
2257 1209
2237 1194
2217 1179
2195 1167
2177 1149
2157 1134
2137 1119
2119 1101
2099 1086
2080 1069
2063 1050
2045 1032
2027 1014
2009 996
1990 979
1973 960
1955 942
1939 922
1921 904
1903 886
1888 866
1870 848
1852 830
1834 812
1816 794
1798 776
1780 758
1762 740
1744 722
1726 704
1708 686
1689 669
1670 652
1652 634
1632 619
1612 604
1594 586
1574 571
1554 556
1529 560
1534 585
1539 610
1544 635
1549 660
1554 685
1559 710
1564 735
1567 760
1569 785
1574 810
1574 835
1579 860
1579 885
1579 912
1579 992
1579 1017
1574 1052
1569 1087
1564 1117
1559 1142
1549 1182
1539 1212
1529 1237
1519 1262
1506 1290
1494 1312
1479 1337
1464 1357
1445 1381
1430 1401
1412 1419
1394 1437
1379 1457
1364 1477
1349 1497
1336 1520
1324 1542
1314 1567
1304 1592
1294 1617
1284 1652
1274 1692
1269 1722
1264 1762
1264 1787
1264 1812
1264 1892
1241 1904
1220 1890
1220 1865
1220 1840
1220 1815
1220 1790
1225 1760
1225 1735
1230 1700
1235 1675
1245 1635
1255 1600
1265 1570
1275 1545
1288 1523
1300 1495
1315 1470
1330 1450
1345 1430
1360 1410
1379 1392
1397 1374
1412 1354
1427 1334
1442 1314
1455 1290
1470 1265
1483 1243
1492 1219
1500 1195
1510 1165
1520 1125
1525 1100
1530 1070
1535 1030
1540 985
1540 960
1540 935
1540 910
1540 885
1540 860
1535 835
1535 810
1530 785
1525 760
1522 735
1517 710
1515 685
1508 661
1503 636
1498 611
1490 587
1472 569
1452 584
1432 599
1412 614
1391 629
1369 642
1347 654
1326 669
1303 679
1283 694
1260 704
1237 714
1215 726
1193 739
1169 747
1146 759
1123 769
1100 779
1077 789
1055 801
1033 814
1009 822
987 834
964 844
941 855
919 867
896 880
874 892
851 904
829 917
806 930
784 942
762 954
741 969
719 982
699 997
677 1009
657 1024
637 1039
617 1054
597 1069
577 1084
557 1099
537 1114
517 1129
499 1147
523 1155
548 1150
573 1145
598 1138
623 1133
648 1130
673 1125
698 1120
723 1115
748 1110
773 1108
798 1105
823 1100
848 1100
873 1100
898 1095
923 1095
948 1095
973 1095
998 1095
1023 1095
1048 1100
1073 1100
1098 1105
1123 1110
1148 1115
1154 1152
1138 1174
1113 1169
1088 1164
1063 1160
1038 1159
1013 1159
988 1155
963 1154
938 1154
913 1154
888 1159
863 1159
838 1164
813 1164
788 1165
763 1169
738 1174
713 1179
688 1184
663 1189
638 1194
613 1199
588 1204
563 1209
538 1214
513 1219
