19 897
19 872
31 850
46 830
59 792
81 779
94 757
106 735
119 712
131 690
144 657
154 632
164 592
174 567
174 542
179 517
184 472
189 432
194 397
194 362
194 337
204 302
214 277
226 255
241 235
256 215
274 187
289 162
304 137
319 112
337 94
357 79
381 70
406 64
431 64
456 64
481 64
506 59
526 44
551 44
576 44
601 44
626 44
651 44
676 44
700 52
724 61
744 76
760 96
775 116
800 119
823 109
848 104
873 99
896 89
921 84
946 84
971 89
993 101
1017 109
1035 127
1054 144
1075 158
1093 176
1111 194
1126 214
1144 232
1162 250
1180 268
1190 291
1205 311
1219 332
1230 355
1247 374
1255 398
1265 421
1265 446
1272 470
1284 492
1293 516
1298 541
1305 565
1315 588
1320 613
1325 638
1330 663
1335 688
1335 713
1340 738
1340 763
1345 788
1354 812
1366 834
1381 854
1390 878
1408 896
1415 920
1403 950
1378 950
1354 943
1354 918
1354 893
1349 868
1338 845
1326 823
1319 799
1314 774
1314 749
1309 724
1309 699
1302 675
1299 650
1294 625
1288 600
1270 545
1265 585
1265 610
1255 655
1245 690
1235 715
1230 745
1230 770
1230 795
1230 820
1230 845
1240 868
1240 893
1240 918
1245 943
1250 968
1255 993
1260 1018
1265 1043
1275 1066
1285 1089
1290 1114
1290 1140
1290 1165
1290 1190
1275 1215
1260 1235
1235 1240
1219 1260
1194 1260
1171 1249
1159 1227
1159 1202
1174 1182
1169 1157
1159 1134
1156 1109
1151 1084
1144 1060
1139 1035
1129 1012
1114 992
1095 975
1085 1010
1085 1035
1075 1075
1075 1100
1075 1125
1075 1150
1075 1175
1075 1200
1063 1223
1044 1240
1019 1240
994 1240
969 1245
944 1240
924 1225
914 1202
919 1177
931 1155
946 1135
959 1112
959 1087
964 1060
964 1035
964 1010
964 985
964 960
963 935
945 917
920 915
895 915
870 915
845 915
820 915
810 940
805 965
805 990
805 1015
810 1040
810 1065
810 1090
800 1130
790 1170
785 1215
769 1235
744 1232
719 1235
694 1232
674 1217
662 1195
661 1115
674 1088
674 1063
674 1038
669 1013
661 989
649 967
644 942
620 935
620 960
627 984
625 1030
625 1055
630 1080
635 1105
640 1130
640 1155
642 1180
648 1218
633 1238
610 1250
590 1265
568 1278
544 1285
519 1285
504 1265
489 1245
479 1222
474 1197
474 1172
479 1132
474 1107
469 1082
464 1057
454 1034
451 1009
444 985
439 960
429 937
424 912
419 887
414 862
414 837
414 812
414 787
409 762
409 737
400 695
390 720
380 755
368 778
355 800
337 819
317 834
293 843
280 865
275 890
270 920
270 945
270 970
270 995
270 1020
272 1045
280 1069
285 1094
285 1119
276 1155
254 1167
230 1175
207 1165
202 1140
199 1115
197 1090
194 1065
194 1040
194 1015
189 990
187 965
182 940
179 915
179 890
176 865
154 852
149 827
174 824
179 777
166 755
151 775
139 797
124 817
105 835
85 855
65 875
44 895
