69 797
69 772
74 747
86 725
101 705
124 694
129 657
124 632
119 607
114 582
114 557
109 532
109 507
104 482
104 457
104 432
104 407
104 382
114 352
129 327
139 302
154 282
169 257
187 239
202 219
220 201
235 181
254 162
274 147
296 135
319 122
341 110
364 99
387 89
410 79
433 69
458 69
483 64
508 64
533 64
558 69
583 69
608 74
628 89
648 104
670 117
690 132
702 154
727 159
752 159
777 164
799 176
821 189
839 207
861 219
881 234
899 252
908 276
923 296
930 320
935 345
940 370
940 395
940 420
940 445
940 470
940 495
940 520
940 545
945 570
945 595
945 620
945 645
945 670
962 689
974 711
985 734
990 759
990 784
990 809
985 855
975 880
965 920
951 950
933 968
913 983
898 1003
885 1025
885 1050
880 1090
875 1115
866 1145
851 1165
839 1187
820 1205
820 1230
820 1255
810 1280
810 1305
800 1340
790 1370
780 1395
768 1428
753 1448
733 1465
710 1475
690 1490
670 1505
650 1520
628 1533
609 1550
586 1560
566 1575
542 1584
517 1590
492 1585
469 1575
446 1565
423 1555
401 1543
383 1525
365 1507
347 1489
329 1471
311 1453
299 1431
289 1408
279 1385
269 1362
254 1342
254 1317
259 1292
264 1258
264 1233
264 1208
264 1183
264 1158
264 1133
259 1108
244 1088
234 1065
219 1045
203 1025
180 1015
160 1000
146 979
134 957
124 934
110 913
95 893
84 870
74 847
69 822
