4 212
4 187
19 162
43 154
68 159
93 164
116 174
141 179
165 187
184 162
206 149
227 134
252 129
276 120
299 109
324 104
349 99
372 89
395 79
418 69
441 59
466 54
491 59
511 74
533 86
551 104
572 89
595 79
618 69
641 59
666 54
691 49
716 44
739 34
764 27
786 15
809 4
830 18
850 33
865 53
880 73
903 84
928 79
953 79
978 74
1003 74
1028 74
1053 69
1076 79
1085 103
1100 123
1120 138
1132 160
1147 180
1160 202
1148 238
1123 245
1098 250
1073 255
1049 262
1025 270
1000 270
975 275
950 270
935 290
921 325
909 347
886 359
874 337
892 319
910 301
915 275
890 280
869 295
844 300
819 305
794 305
769 310
744 310
719 310
694 312
670 305
645 305
630 325
618 348
598 363
575 375
550 380
525 380
500 380
475 380
450 380
425 380
400 377
375 375
350 370
325 365
302 355
279 345
256 334
234 322
214 307
196 289
213 270
188 265
163 270
139 277
117 289
94 300
69 305
44 300
24 285
14 262
9 237
