820 2266
824 2291
841 2310
866 2315
891 2318
916 2320
936 2305
948 2283
957 2259
970 2220
980 2175
980 2150
985 2125
990 2090
995 2060
1000 2025
1005 2000
1015 1965
1020 1940
1030 1905
1040 1865
1050 1840
1060 1805
1070 1775
1080 1745
1090 1710
1100 1685
1110 1655
1120 1625
1133 1603
1145 1575
1158 1553
1173 1533
1185 1510
1195 1485
1208 1463
1215 1435
1230 1410
1243 1388
1255 1365
1268 1343
1280 1320
1290 1295
1300 1255
1300 1230
1300 1205
1305 1165
1305 1140
1328 1150
1352 1159
1377 1165
1400 1175
1425 1180
1448 1168
1460 1130
1470 1100
1483 1078
1498 1058
1513 1038
1525 1015
1545 995
1555 965
1570 945
1583 923
1590 895
1610 875
1629 857
1640 825
1659 807
1677 789
1690 765
1705 745
1725 725
1745 705
1764 687
1782 669
1800 650
1815 625
1830 605
1840 580
1845 543
1827 525
1802 525
1784 543
1771 565
1759 588
1744 608
1725 626
1710 646
1690 666
1674 688
1655 706
1640 726
1625 746
1605 766
1585 786
1575 816
1555 836
1540 856
1525 876
1518 904
1505 926
1490 946
1474 978
1459 998
1445 1020
1428 1039
1415 1061
1404 1088
1382 1100
1359 1090
1336 1080
1311 1079
1289 1067
1270 1050
1283 1028
1295 1000
1308 978
1320 950
1333 928
1345 900
1358 878
1370 850
1383 828
1398 808
1413 788
1428 768
1443 748
1455 725
1475 710
1490 690
1510 670
1533 658
1555 645
1579 637
1601 625
1623 613
1638 593
1634 566
1614 551
1589 553
1566 565
1543 575
1520 586
1498 599
1475 611
1457 630
1439 648
1424 668
1405 686
1386 705
1374 728
1355 746
1343 769
1328 789
1315 811
1300 836
1288 869
1275 891
1263 919
1250 941
1239 968
1226 990
1214 1013
1190 1020
1195 985
1190 960
1203 938
1218 918
1230 890
1235 860
1235 835
1235 810
1240 775
1245 730
1255 705
1268 683
1283 663
1295 635
1310 610
1323 588
1325 552
1313 530
1293 515
1275 497
1256 480
1240 460
1225 440
1211 419
1190 405
1165 411
1150 431
1154 456
1171 475
1190 492
1202 514
1220 532
1238 550
1253 570
1240 596
1228 619
1215 641
1200 661
1185 686
1175 716
1175 741
1170 766
1165 801
1165 826
1165 851
1160 876
1143 899
1130 921
1120 946
1120 971
1124 1000
1100 1008
1080 992
1080 967
1080 942
1075 917
1070 892
1060 869
1052 845
1045 821
1039 796
1025 775
1024 746
1009 726
995 705
985 665
976 630
969 606
955 585
946 550
939 526
925 505
920 463
910 440
903 416
895 392
883 370
860 360
835 366
820 386
825 411
836 434
845 458
855 481
863 505
870 529
876 554
890 575
900 598
900 623
915 643
925 666
930 691
938 715
940 740
954 761
966 783
970 808
980 831
988 855
995 879
1001 904
1005 929
1010 954
1010 979
1010 1004
1010 1029
1020 1052
1042 1065
1067 1065
1092 1065
1113 1079
1138 1079
1140 1104
1145 1129
1135 1161
1125 1206
1115 1236
1110 1266
1100 1296
1085 1316
1080 1356
1070 1386
1055 1406
1050 1436
1035 1456
1030 1496
1015 1516
1010 1556
995 1576
1000 1601
990 1626
975 1646
970 1686
955 1706
960 1731
945 1766
940 1806
925 1826
930 1851
915 1876
920 1901
905 1926
905 1951
895 1976
900 2001
885 2026
875 2066
865 2106
855 2136
845 2166
835 2206
830 2236
