865 346
865 321
870 291
885 271
910 265
931 279
940 303
935 330
935 355
935 380
935 405
935 430
936 455
940 480
945 505
950 530
955 555
960 580
970 603
975 628
985 651
999 672
1014 692
1030 712
1048 730
1063 750
1080 769
1100 784
1115 804
1138 815
1161 825
1143 780
1135 756
1130 731
1125 706
1120 681
1115 656
1110 631
1104 606
1100 581
1095 556
1094 531
1090 506
1085 481
1085 456
1085 431
1085 406
1085 381
1085 356
1085 331
1085 306
1100 286
1125 280
1146 294
1155 318
1155 343
1155 368
1155 393
1155 418
1155 443
1155 468
1160 493
1164 518
1165 543
1170 568
1174 593
1180 618
1185 643
1190 668
1195 693
1200 718
1205 743
1215 766
1225 789
1245 805
1269 798
1285 776
1298 754
1305 721
1315 676
1320 646
1325 621
1330 591
1335 566
1340 541
1350 501
1360 466
1365 421
1369 381
1365 356
1365 331
1365 306
1380 286
1405 280
1426 294
1435 318
1435 343
1439 368
1440 393
1435 435
1430 475
1425 500
1415 535
1405 575
1400 600
1395 630
1390 660
1385 685
1380 710
1370 755
1358 793
1345 815
1330 835
1360 835
1385 830
1409 823
1427 805
1449 793
1464 773
1484 758
1499 738
1517 720
1535 696
1555 676
1570 656
1585 636
1598 614
1616 595
1620 566
1630 536
1635 506
1640 476
1645 436
1644 411
1640 386
1640 361
1640 336
1640 311
1640 286
1635 261
1650 241
1675 235
1698 245
1710 267
1710 292
1710 317
1710 342
1710 367
1710 392
1715 417
1715 442
1710 485
1705 520
1700 545
1690 575
1680 605
1671 635
1653 653
1640 675
1621 695
1609 717
1590 735
1574 757
1555 775
1540 795
1522 814
1502 829
1484 847
1464 862
1446 880
1424 892
1400 900
1375 905
1350 910
1325 910
1300 910
1300 935
1300 960
1300 985
1300 1010
1300 1035
1300 1060
1295 1095
1290 1135
1285 1170
1285 1195
1285 1220
1280 1245
1280 1270
1275 1295
1270 1325
1265 1355
1260 1380
1250 1425
1240 1465
1240 1490
1235 1520
1225 1555
1220 1600
1215 1630
1215 1655
1215 1680
1215 1705
1215 1730
1215 1755
1215 1780
1220 1805
1226 1830
1230 1855
1235 1880
1240 1905
1240 1930
1240 1955
1240 1980
1229 2017
1209 2032
1185 2040
1160 2036
1140 2021
1135 1996
1150 1976
1170 1944
1170 1919
1165 1894
1160 1869
1160 1844
1155 1819
1145 1796
1145 1771
1145 1746
1145 1721
1145 1696
1145 1671
1145 1646
1145 1621
1150 1591
1155 1556
1165 1511
1170 1466
1180 1426
1190 1396
1190 1371
1195 1346
1200 1316
1205 1286
1210 1261
1210 1236
1215 1211
1215 1186
1215 1161
1220 1121
1225 1086
1230 1054
1230 1029
1230 1004
1230 979
1230 954
1227 929
1220 905
1195 905
1170 901
1145 895
1122 884
1100 871
1080 856
1061 839
1040 825
1021 808
1006 788
994 766
975 749
958 730
943 710
930 688
919 665
905 644
900 619
893 595
885 571
880 546
875 521
870 496
870 471
865 446
865 421
865 396
865 371
