404 1042
399 1017
409 992
421 970
436 950
454 932
472 914
494 902
518 894
541 884
560 866
582 854
591 830
609 812
631 799
654 789
679 784
702 774
727 769
751 760
776 754
801 749
826 749
851 744
864 722
879 697
884 667
884 642
884 617
879 592
857 580
832 580
807 580
782 580
764 562
776 540
799 529
824 524
849 524
874 524
899 524
899 480
889 457
889 432
889 407
907 389
932 384
950 402
950 427
950 452
950 477
950 502
972 514
997 514
1022 514
1047 514
1064 547
1046 565
1023 575
998 580
973 585
950 595
950 620
950 645
955 670
965 693
985 709
1010 714
1035 717
1059 724
1082 734
1107 739
1130 749
1155 749
1180 754
1205 759
1224 776
1232 800
1240 824
1240 849
1260 864
1283 874
1308 879
1331 889
1354 899
1373 916
1393 931
1408 951
1426 969
1445 986
1443 1018
1430 1040
1416 1065
1396 1080
1376 1095
1353 1105
1330 1115
1310 1130
1290 1145
1268 1158
1243 1163
1218 1170
1193 1175
1168 1180
1143 1183
1118 1188
1093 1195
1068 1200
1043 1205
1018 1205
993 1210
968 1210
943 1210
918 1210
893 1210
868 1210
843 1205
820 1195
796 1188
772 1180
747 1175
722 1169
698 1160
675 1150
652 1140
627 1135
602 1130
577 1130
552 1125
529 1115
504 1115
481 1104
459 1092
439 1077
419 1062
