404 1012
399 1037
414 1057
436 1070
457 1084
480 1095
504 1102
528 1110
553 1115
578 1120
603 1125
627 1134
652 1140
677 1145
701 1153
725 1160
750 1165
775 1165
800 1165
824 1172
849 1175
872 1185
897 1190
922 1190
947 1190
972 1195
997 1195
1022 1195
1047 1200
1072 1200
1097 1200
1122 1200
1147 1195
1172 1195
1197 1190
1220 1180
1243 1170
1266 1160
1289 1150
1310 1135
1333 1125
1356 1115
1376 1100
1396 1085
1416 1070
1431 1050
1435 1011
1429 986
1414 966
1395 949
1378 930
1358 915
1335 904
1312 894
1289 884
1265 877
1247 859
1240 835
1240 810
1226 789
1201 784
1176 784
1151 784
1126 779
1101 774
1076 769
1051 764
1026 759
1001 754
976 754
955 740
955 715
955 690
955 665
950 640
950 615
950 590
973 578
998 573
1023 570
1048 565
1073 560
1055 534
1030 529
1005 529
980 524
955 524
945 501
943 476
935 452
930 427
912 409
894 427
899 452
899 477
896 520
872 529
847 529
822 529
797 529
801 560
826 560
851 565
874 575
884 598
884 623
884 648
874 672
869 697
862 729
840 741
816 749
793 759
768 764
743 769
719 777
694 779
671 789
646 795
624 807
605 826
590 846
566 855
542 864
522 879
502 894
484 912
469 932
449 952
434 972
419 992
