154 1002
154 977
174 955
164 932
159 907
159 882
159 857
159 832
164 797
174 767
184 737
194 702
206 680
219 657
237 639
255 621
275 606
297 594
319 582
341 570
325 610
315 640
305 670
305 695
305 720
310 745
317 769
332 789
345 811
355 834
380 834
405 834
430 834
455 834
480 834
505 834
530 834
555 834
580 834
605 834
630 834
655 834
680 834
705 834
730 834
755 834
780 834
805 834
830 834
855 834
880 834
905 834
930 834
955 834
980 834
1005 834
1030 834
1055 834
1080 834
1105 834
1130 834
1145 854
1145 879
1145 904
1127 940
1102 940
1077 940
1052 940
1027 940
1002 940
977 940
952 940
927 940
902 940
877 940
852 940
827 940
802 940
777 940
752 940
727 940
702 940
677 940
652 940
627 940
602 940
577 940
552 940
527 940
502 940
477 940
452 940
427 940
402 940
377 940
353 948
340 970
365 974
370 999
370 1024
370 1049
370 1074
370 1099
364 1125
339 1125
314 1125
289 1125
264 1125
239 1125
214 1125
189 1125
164 1125
154 1102
154 1077
154 1052
154 1027
