229 1292
229 1267
234 1232
234 1207
234 1182
234 1157
246 1135
249 1097
259 1067
274 1047
289 1022
304 1002
319 982
337 964
361 955
386 949
411 944
436 944
461 949
486 954
508 966
528 981
545 1000
569 1009
594 1014
619 1019
642 1029
654 1007
669 977
679 942
694 922
704 897
719 872
734 852
752 834
767 814
785 796
805 781
825 766
845 751
864 734
887 724
909 712
933 704
956 694
977 679
1000 669
1023 659
1047 649
1072 649
1097 644
1122 639
1147 639
1172 639
1197 639
1222 639
1247 639
1272 639
1297 639
1322 644
1347 649
1372 654
1397 659
1420 669
1443 680
1465 692
1487 704
1512 709
1535 719
1560 724
1583 735
1605 747
1629 756
1651 769
1673 781
1695 794
1718 805
1739 819
1760 833
1783 844
1805 857
1827 869
1850 879
1870 894
1890 909
1910 924
1933 935
1950 954
1969 971
1993 964
2013 949
2033 934
2058 929
2083 929
2108 934
2128 950
2143 970
2160 989
2175 1009
2185 1032
2195 1055
2200 1080
2205 1105
2210 1130
2220 1153
2225 1178
2225 1203
2230 1228
2230 1253
2230 1278
2230 1303
2222 1344
2213 1368
2198 1388
2183 1408
2170 1430
2161 1455
2146 1475
2128 1493
2105 1505
2083 1518
2058 1520
2033 1520
2008 1515
1988 1500
1964 1492
1949 1512
1930 1530
1915 1550
1895 1565
1880 1585
1862 1604
1844 1622
1824 1637
1806 1655
1784 1667
1764 1682
1746 1700
1726 1715
1706 1730
1686 1745
1666 1760
1642 1769
1622 1784
1598 1793
1575 1805
1555 1820
1530 1825
1508 1838
1486 1850
1463 1860
1440 1870
1417 1880
1392 1880
1367 1885
1342 1890
1317 1895
1292 1895
1267 1895
1242 1895
1217 1895
1192 1895
1167 1895
1142 1895
1117 1894
1092 1889
1068 1880
1043 1875
1018 1870
995 1860
970 1855
946 1848
922 1839
902 1824
880 1812
860 1797
840 1782
816 1774
794 1762
779 1742
761 1724
744 1705
729 1685
716 1663
704 1641
694 1618
684 1595
671 1573
653 1555
628 1560
603 1565
578 1570
559 1587
541 1605
523 1623
501 1635
476 1635
451 1640
426 1635
403 1625
380 1615
357 1604
337 1589
319 1571
306 1549
291 1529
274 1510
264 1487
254 1464
249 1439
244 1414
241 1389
229 1367
229 1342
229 1317
