129 547
124 577
129 602
129 627
129 652
134 677
146 699
164 717
186 730
209 740
232 750
254 762
278 770
301 780
322 794
329 818
335 843
354 860
374 875
384 898
394 921
416 933
431 953
451 968
476 970
501 975
526 975
551 975
576 970
594 952
614 937
629 917
647 899
665 880
685 865
705 850
729 842
754 840
778 833
798 818
820 805
843 793
867 785
892 780
917 775
939 762
954 742
969 722
989 707
1011 695
1036 695
1061 695
1084 685
1109 690
1134 690
1159 690
1184 690
1209 687
1234 685
1259 690
1283 683
1307 675
1332 670
1355 660
1378 650
1398 635
1423 630
1448 625
1473 630
1498 635
1523 630
1548 635
1573 640
1597 649
1622 650
1647 649
1671 640
1691 625
1711 610
1729 592
1740 549
1740 524
1740 499
1740 474
1723 455
1703 439
1679 431
1654 429
1629 429
1604 429
1579 429
1554 429
1529 429
1504 429
1479 434
1454 434
1429 434
1404 434
1379 434
1354 439
1329 439
1304 439
1279 439
1254 439
1229 444
1204 444
1179 444
1154 444
1129 444
1104 449
1079 449
1054 449
1029 449
1004 449
979 454
954 459
929 464
904 464
879 464
856 454
838 436
818 421
794 414
769 409
744 404
725 387
707 369
682 369
657 369
632 364
612 349
590 337
570 322
560 299
552 275
530 263
515 243
498 224
473 219
449 227
429 242
409 257
387 269
367 284
349 302
339 342
319 357
304 377
304 402
289 427
267 439
246 454
224 467
204 482
182 494
161 509
141 525
