169 582
169 557
179 527
189 497
199 472
209 442
219 417
234 392
254 377
269 357
287 339
307 324
327 309
347 294
370 284
393 274
416 264
439 254
464 247
488 239
513 234
538 229
563 224
588 219
613 219
638 214
663 214
688 214
713 219
738 224
761 234
784 244
805 258
823 276
841 294
855 315
865 338
875 361
885 384
890 409
900 432
910 455
929 472
953 479
975 492
995 507
1019 514
1042 504
1067 499
1092 499
1117 499
1142 499
1167 499
1192 499
1217 499
1242 499
1267 499
1292 499
1317 499
1342 499
1367 494
1392 494
1417 494
1442 499
1465 509
1490 514
1515 519
1540 519
1565 519
1590 519
1615 524
1640 529
1665 529
1689 536
1713 544
1738 544
1763 539
1788 539
1812 529
1837 529
1861 520
1886 524
1909 534
1930 548
1950 563
1968 581
1980 620
1958 633
1936 645
1914 657
1892 669
1869 680
1844 675
1820 667
1795 665
1770 665
1745 660
1720 655
1695 660
1670 665
1645 670
1620 675
1595 680
1570 685
1545 690
1520 690
1495 690
1470 695
1447 705
1424 715
1399 715
1374 717
1349 720
1324 720
1299 720
1274 720
1249 720
1224 720
1199 720
1174 725
1149 725
1124 725
1099 725
1074 725
1049 725
1024 725
999 725
974 730
949 730
924 732
905 750
900 785
895 810
888 843
883 868
870 890
859 917
844 937
829 957
811 975
791 990
768 1000
745 1010
720 1015
695 1020
670 1020
645 1020
620 1020
595 1017
570 1015
545 1010
520 1005
495 1000
471 993
447 985
422 979
398 970
376 958
354 945
334 930
314 915
295 898
277 880
259 862
244 842
232 820
220 798
211 774
204 750
189 730
184 705
179 680
169 657
169 632
169 607
