274 197
274 172
298 164
321 154
346 154
371 154
396 154
421 154
446 159
462 139
482 124
502 109
524 97
548 89
573 84
598 79
623 79
648 84
673 89
696 99
718 111
738 126
756 144
771 164
796 164
821 169
845 177
869 186
891 199
913 211
905 240
894 280
870 272
848 260
825 250
800 245
802 270
826 279
846 294
864 312
862 359
853 383
839 405
824 385
808 360
788 345
765 355
782 374
800 392
815 412
825 435
815 470
802 494
779 506
770 482
758 460
744 439
725 422
703 410
680 420
687 444
695 468
704 492
710 517
692 550
667 550
642 550
634 526
629 501
620 477
605 457
580 460
570 495
569 527
557 550
532 550
507 545
489 527
494 492
504 452
514 420
491 410
473 428
460 450
447 474
432 495
414 477
394 462
389 427
399 402
414 382
432 364
428 335
403 338
379 347
360 365
345 385
321 399
306 379
294 357
289 332
307 314
325 296
345 281
367 269
392 264
414 252
402 230
377 230
352 230
327 230
303 238
279 247
279 222
