154 1132
139 1152
157 1170
175 1188
197 1200
215 1180
230 1160
245 1135
260 1100
275 1070
280 1028
280 1003
275 978
267 954
260 930
255 905
250 880
250 855
260 825
275 805
290 785
313 773
294 822
284 847
284 872
284 897
284 922
292 959
299 985
304 1010
309 1035
314 1060
304 1097
294 1122
284 1147
269 1167
254 1192
278 1200
303 1200
328 1205
345 1185
360 1155
375 1120
385 1085
390 1048
385 1023
380 998
375 973
365 950
360 925
360 900
360 875
360 850
375 830
398 820
399 847
389 882
389 907
389 932
395 957
404 981
409 1006
414 1031
419 1056
424 1081
424 1117
424 1142
414 1167
399 1197
419 1212
444 1215
469 1220
485 1190
495 1155
500 1120
500 1087
499 1062
490 1038
490 1013
485 988
475 965
470 940
465 915
465 890
475 865
499 872
489 897
489 922
494 947
509 995
519 1018
524 1043
524 1068
529 1093
529 1118
529 1143
529 1168
519 1207
541 1220
566 1220
591 1220
600 1195
605 1146
605 1121
605 1096
600 1071
600 1046
595 1021
590 996
580 973
570 950
565 925
565 900
575 875
600 880
625 880
650 880
675 880
700 875
709 899
709 942
699 967
689 1002
689 1027
689 1052
689 1077
689 1102
689 1127
689 1152
699 1175
704 1200
727 1210
752 1210
777 1205
770 1160
765 1135
765 1110
765 1085
765 1060
765 1035
765 1010
775 975
790 940
790 915
785 890
780 865
809 897
804 962
794 997
788 1024
789 1092
789 1117
801 1139
814 1161
829 1181
850 1195
875 1195
900 1195
917 1169
902 1149
884 1131
870 1110
865 1085
860 1060
860 1035
870 1010
880 965
885 918
885 893
885 868
870 848
860 825
910 867
919 891
924 916
929 941
929 966
924 992
919 1027
919 1052
919 1077
924 1102
929 1127
944 1147
959 1167
983 1175
1008 1168
1032 1160
1022 1124
1007 1104
1000 1080
995 1055
995 1030
1000 995
1005 962
1005 937
1000 912
1000 887
990 864
980 841
967 819
949 801
935 780
963 780
983 795
1001 813
1019 831
1031 853
1043 875
1049 900
1054 925
1059 950
1059 975
1059 1000
1064 1025
1069 1050
1084 1070
1091 1094
1106 1114
1119 1136
1144 1132
1162 1114
1175 1089
1164 1066
1152 1044
1140 1022
1135 997
1135 972
1135 947
1130 922
1125 897
1119 872
1110 848
1101 824
1086 804
1074 782
1056 764
1041 744
1019 732
1000 715
1015 695
1030 670
1043 648
1055 620
1065 595
1075 555
1080 525
1085 494
1085 469
1085 444
1080 419
1075 394
1067 370
1058 346
1049 322
1035 301
1022 279
1007 259
992 239
974 221
955 204
938 185
918 170
895 159
875 144
852 134
830 122
806 114
783 104
758 99
733 94
708 89
683 84
658 84
633 84
608 84
583 89
558 89
533 94
510 104
485 109
462 119
439 129
416 140
394 152
374 167
352 179
334 197
315 216
297 234
279 252
264 272
249 297
234 322
224 347
214 372
204 412
199 442
199 467
199 492
199 517
204 542
209 567
214 592
224 615
234 638
247 660
259 682
262 714
242 729
227 749
209 767
194 787
184 812
174 847
174 872
174 897
179 922
189 945
194 970
201 994
204 1019
204 1044
194 1067
187 1094
172 1114
