349 457
349 432
359 402
371 380
389 362
407 344
427 329
450 319
474 312
499 307
524 304
549 299
574 299
599 299
624 299
649 299
674 296
699 299
724 299
749 299
774 299
799 299
824 299
848 306
870 318
890 333
913 344
938 339
958 324
980 311
1004 304
1029 304
1054 304
1079 304
1104 304
1129 304
1154 304
1179 306
1204 309
1229 309
1254 309
1279 304
1304 304
1329 304
1354 304
1379 304
1404 304
1429 304
1454 304
1479 304
1504 309
1529 304
1554 309
1579 309
1604 314
1628 321
1650 333
1675 339
1700 344
1723 354
1748 359
1773 364
1798 370
1823 375
1848 380
1872 389
1897 389
1920 399
1930 422
1912 440
1887 445
1862 450
1838 458
1813 465
1789 472
1765 480
1740 485
1717 495
1694 505
1669 510
1646 520
1628 538
1603 545
1579 552
1554 555
1529 555
1504 560
1479 560
1454 560
1429 560
1404 560
1379 560
1354 560
1329 560
1304 560
1279 560
1254 560
1229 555
1204 555
1179 555
1154 555
1129 555
1104 555
1079 550
1054 550
1029 550
1004 545
980 538
962 520
939 510
914 510
891 520
873 538
850 550
826 560
802 569
777 570
752 570
727 570
702 570
677 575
652 575
627 575
602 575
577 575
552 575
527 575
502 570
477 565
452 560
429 550
409 535
389 520
374 500
359 480
