69 482
69 457
79 422
89 397
107 379
125 361
149 354
174 354
199 354
224 354
249 354
274 349
299 349
324 349
349 349
374 349
399 349
424 349
449 347
474 344
499 344
524 344
549 344
574 344
599 344
624 344
649 339
674 339
699 339
724 339
749 339
774 339
799 339
824 334
849 334
874 334
899 334
924 334
949 334
974 334
999 329
1024 329
1049 329
1074 329
1099 329
1124 329
1149 329
1174 327
1199 324
1224 324
1249 324
1274 324
1299 324
1324 324
1349 324
1374 319
1399 319
1424 319
1449 319
1474 319
1499 319
1524 319
1549 314
1574 314
1599 314
1624 314
1649 314
1674 314
1699 314
1724 309
1749 309
1774 309
1799 309
1824 309
1849 309
1874 309
1899 307
1924 304
1949 304
1974 304
1999 304
2024 304
2049 304
2074 304
2099 299
2124 299
2145 313
2165 328
2190 329
2215 329
2235 344
2245 367
2245 392
2240 435
2230 460
2206 470
2181 470
2159 482
2135 490
2110 490
2085 490
2060 495
2035 495
2010 495
1985 495
1960 495
1935 500
1910 500
1885 500
1860 500
1835 505
1810 505
1785 505
1760 505
1735 510
1710 510
1685 510
1660 510
1635 510
1610 515
1585 515
1560 515
1535 515
1510 515
1485 520
1460 520
1435 520
1410 520
1385 520
1360 525
1335 525
1310 525
1285 525
1260 530
1235 530
1210 530
1185 530
1160 530
1135 535
1110 535
1085 535
1060 535
1035 535
1010 540
985 540
960 540
935 540
910 545
885 545
860 545
835 545
810 545
785 550
760 550
735 550
710 550
685 550
660 555
635 555
610 555
585 560
570 580
551 605
526 610
501 610
476 615
451 615
426 615
401 620
376 620
351 625
326 625
301 625
276 630
251 630
226 635
201 630
176 625
151 620
126 614
106 599
91 579
89 554
86 529
79 505
