674 1147
689 1175
714 1170
739 1170
764 1170
789 1175
814 1180
839 1180
864 1185
885 1170
890 1135
890 1110
890 1085
890 1060
915 1055
940 1055
965 1055
984 1072
984 1097
974 1127
974 1152
996 1165
1021 1165
1046 1165
1071 1165
1096 1165
1121 1160
1146 1160
1171 1160
1195 1167
1215 1149
1204 1126
1180 1119
1155 1114
1130 1114
1105 1119
1080 1121
1055 1124
1030 1125
1030 1100
1050 1085
1065 1065
1080 1040
1105 1035
1130 1035
1155 1035
1180 1030
1205 1025
1229 1017
1253 1010
1276 1000
1298 988
1316 970
1330 940
1330 915
1330 890
1330 865
1330 840
1330 815
1335 790
1345 765
1365 750
1374 714
1351 724
1329 737
1309 752
1294 777
1289 802
1284 842
1274 882
1264 917
1254 942
1234 967
1211 980
1187 989
1162 989
1137 989
1112 989
1087 989
1075 967
1069 942
1060 918
1055 893
1047 869
1040 845
1040 820
1035 795
1035 770
1035 745
1060 745
1081 759
1099 777
1114 797
1126 819
1139 841
1154 861
1179 862
1180 820
1201 834
1224 845
1249 842
1240 807
1220 792
1196 784
1173 774
1150 764
1135 744
1115 729
1095 714
1072 704
1047 699
1030 680
1030 655
1054 647
1078 640
1101 630
1116 610
1125 575
1150 575
1175 575
1200 575
1225 570
1249 562
1273 555
1293 538
1308 518
1320 490
1325 448
1325 423
1315 400
1310 375
1299 352
1284 332
1266 314
1243 304
1219 296
1194 294
1169 294
1146 305
1126 320
1111 340
1099 362
1085 386
1061 394
1040 380
1040 355
1045 330
1055 295
1053 270
1038 250
1020 232
1002 214
982 199
958 191
934 184
909 184
884 184
861 195
846 215
834 237
824 272
819 297
814 327
814 352
814 377
819 402
837 420
854 457
839 482
824 507
814 532
804 557
796 590
784 612
774 647
759 672
746 700
734 722
721 745
709 767
694 787
716 800
739 790
762 780
785 770
810 765
835 765
860 760
885 760
910 755
899 782
886 810
874 832
861 855
852 879
840 901
831 925
819 947
819 972
819 997
814 1022
814 1047
824 1070
839 1090
836 1119
811 1119
786 1119
761 1119
736 1119
711 1119
686 1125
