154 1172
154 1147
164 1112
176 1090
185 1066
199 1042
211 1020
229 997
247 979
262 959
277 939
292 919
310 901
325 881
340 861
360 846
375 826
395 811
414 792
432 774
450 756
469 737
487 719
505 701
524 684
544 667
562 649
577 629
595 611
614 592
632 574
650 556
662 534
682 519
697 499
712 479
727 459
744 437
765 451
760 500
755 525
745 560
735 600
720 630
705 665
690 685
675 705
661 730
649 752
630 770
615 795
600 815
585 835
570 860
554 882
542 904
524 922
509 942
490 960
475 980
458 1003
443 1023
428 1043
413 1063
398 1083
383 1103
370 1125
353 1148
340 1170
330 1195
320 1225
310 1250
310 1275
334 1282
358 1274
383 1269
408 1264
430 1251
454 1244
479 1239
502 1229
525 1219
548 1209
570 1196
594 1187
614 1172
636 1159
659 1147
681 1134
700 1116
722 1104
742 1089
765 1079
786 1065
806 1050
826 1035
844 1017
866 1004
887 989
905 971
925 956
945 941
965 926
984 909
1004 892
1028 884
1048 869
1068 854
1072 829
1097 829
1122 834
1146 825
1171 819
1196 814
1221 809
1246 809
1267 794
1292 799
1312 784
1334 772
1356 759
1377 744
1399 732
1419 717
1437 699
1457 684
1477 669
1497 654
1519 642
1541 629
1564 619
1589 614
1614 609
1639 612
1664 609
1689 604
1714 599
1739 599
1745 630
1770 634
1768 673
1756 695
1741 715
1723 733
1703 748
1681 760
1661 775
1641 790
1621 805
1601 820
1577 829
1559 847
1539 862
1521 880
1501 895
1481 910
1461 925
1441 940
1421 955
1401 970
1381 985
1361 1000
1341 1015
1321 1030
1301 1045
1281 1060
1261 1075
1241 1090
1219 1102
1200 1120
1180 1135
1158 1148
1138 1163
1116 1175
1096 1190
1074 1202
1056 1220
1033 1230
1010 1240
989 1255
966 1265
946 1280
926 1295
904 1307
882 1319
862 1334
838 1343
815 1355
800 1375
788 1408
775 1430
760 1450
740 1465
719 1480
696 1490
672 1499
647 1505
623 1513
599 1520
574 1522
549 1525
524 1525
499 1525
474 1520
450 1528
432 1510
409 1500
384 1495
361 1485
338 1475
315 1465
292 1454
272 1439
254 1421
234 1406
219 1386
204 1366
191 1344
179 1322
174 1297
169 1272
169 1247
164 1222
159 1197
