104 702
104 762
109 787
109 812
119 835
126 859
139 881
151 903
169 921
187 939
207 954
227 970
247 985
271 993
293 1005
318 1010
341 1020
366 1025
391 1030
416 1030
441 1025
466 1020
491 1015
515 1005
535 990
559 982
579 967
599 952
617 934
635 915
650 895
665 870
680 850
695 825
715 810
720 780
733 758
745 735
760 710
773 688
788 668
800 645
815 625
830 605
845 585
864 567
876 545
891 525
895 492
877 474
859 492
839 512
819 527
799 542
780 561
762 579
747 599
729 617
714 637
699 657
684 682
669 707
656 730
644 752
629 772
616 795
604 817
590 841
572 859
554 877
534 897
511 909
488 919
465 929
440 929
415 929
390 932
366 924
341 924
318 914
295 903
273 891
258 871
240 853
228 831
215 809
207 785
205 760
205 735
205 710
215 685
230 660
245 640
264 622
284 607
306 595
326 580
348 568
370 555
390 540
413 528
435 515
458 503
480 490
503 480
525 465
550 460
573 448
597 439
621 430
643 418
665 405
685 390
708 380
731 370
755 360
775 345
798 335
821 325
844 315
867 305
890 295
913 285
936 275
960 265
983 255
1008 250
1030 235
1049 217
1071 205
1091 190
1113 178
1128 158
1114 124
1089 119
1064 122
1040 129
1015 131
991 139
966 145
942 154
922 169
900 181
876 189
854 202
834 217
810 224
787 234
764 244
741 254
718 264
694 272
672 284
649 294
626 305
602 314
578 324
558 339
535 349
512 359
490 371
466 380
444 392
421 404
399 417
376 430
355 444
335 459
312 469
292 484
272 499
250 511
230 526
210 541
192 559
172 574
154 592
139 617
126 640
114 662
