204 677
209 702
204 727
209 752
204 787
199 827
209 850
214 877
219 902
229 925
234 957
239 982
249 1005
254 1030
265 1053
274 1077
274 1102
279 1127
289 1150
304 1170
311 1194
326 1214
329 1239
339 1262
349 1285
354 1310
369 1330
369 1355
386 1374
389 1399
396 1423
409 1445
409 1470
429 1485
439 1508
449 1531
454 1567
464 1590
469 1615
474 1640
489 1660
492 1685
504 1707
509 1732
524 1752
539 1772
544 1797
562 1815
574 1837
579 1862
594 1882
616 1894
624 1918
643 1935
659 1955
674 1975
696 1988
719 1998
720 2023
739 2040
754 2060
774 2075
797 2085
822 2080
845 2065
840 2025
847 1994
830 1975
840 1945
823 1926
820 1901
807 1879
800 1855
795 1830
780 1810
780 1785
785 1745
795 1717
780 1697
780 1672
774 1647
770 1622
770 1597
750 1581
749 1556
734 1536
720 1515
715 1490
705 1467
705 1442
687 1424
672 1404
660 1382
650 1359
642 1335
635 1311
625 1288
610 1268
602 1244
590 1222
584 1197
572 1175
570 1150
559 1127
550 1103
545 1078
540 1053
535 1028
513 1016
510 991
504 966
490 945
485 920
470 900
470 875
453 856
450 831
449 806
435 785
434 746
420 725
429 696
415 675
420 645
425 615
435 578
425 555
445 535
455 505
468 483
483 463
495 435
518 423
533 403
551 385
566 365
588 353
606 335
626 320
649 310
673 303
698 300
723 300
748 300
773 305
798 310
821 320
844 330
866 343
891 345
907 365
929 377
947 395
965 413
977 435
992 455
1007 475
1019 497
1024 522
1029 557
1039 597
1039 622
1049 645
1044 677
1049 702
1049 727
1049 752
1049 777
1049 802
1049 827
1049 852
1044 877
1034 907
1019 927
1024 952
1049 955
1070 925
1085 905
1100 885
1105 855
1118 833
1130 810
1125 785
1135 755
1140 715
1140 670
1140 645
1140 610
1140 585
1140 558
1130 535
1130 510
1125 485
1120 448
1110 425
1105 400
1091 379
1079 357
1064 337
1050 316
1038 294
1020 276
1007 254
992 234
972 219
952 204
929 194
906 184
884 171
860 164
835 163
814 149
789 144
764 142
739 139
714 136
689 139
664 137
639 144
614 142
589 149
566 160
542 169
519 179
499 194
476 205
452 214
434 232
416 250
396 265
374 277
364 307
346 325
324 337
322 364
304 382
294 407
279 427
259 447
259 477
244 497
249 522
236 555
224 577
214 617
214 642
