124 767
124 742
129 707
139 682
149 652
164 627
179 607
197 589
217 574
237 559
259 547
281 535
304 524
329 517
354 514
379 509
404 509
429 509
454 509
479 507
504 504
529 502
553 495
578 500
603 504
628 499
653 499
678 494
703 494
728 489
753 484
778 479
803 479
828 474
848 459
866 440
886 425
901 405
909 367
927 349
952 354
970 336
989 319
1012 309
1032 294
1044 267
1054 242
1072 224
1092 209
1116 200
1136 185
1151 165
1166 145
1189 134
1214 134
1239 134
1264 134
1289 134
1314 139
1339 144
1364 149
1389 154
1414 159
1438 166
1462 174
1487 179
1510 189
1535 194
1558 204
1581 214
1604 224
1625 238
1647 250
1668 264
1690 277
1710 292
1728 310
1745 329
1760 349
1775 369
1785 392
1790 417
1790 450
1795 475
1802 499
1810 523
1810 548
1815 573
1820 598
1820 623
1820 648
1815 680
1815 705
1805 730
1810 755
1810 790
1800 835
1795 875
1790 905
1785 940
1780 965
1773 993
1760 1015
1741 1035
1721 1050
1698 1060
1675 1070
1650 1075
1625 1080
1600 1085
1575 1085
1550 1085
1525 1080
1500 1077
1475 1075
1450 1070
1425 1065
1400 1060
1375 1055
1350 1050
1325 1045
1302 1035
1280 1023
1279 998
1274 973
1260 952
1235 950
1210 945
1185 945
1160 945
1135 945
1110 945
1085 945
1070 965
1065 1010
1060 1050
1054 1092
1034 1107
1029 1082
1024 1057
1034 1012
1034 987
1013 963
988 970
965 980
943 993
919 1002
897 1014
874 1025
851 1035
827 1044
803 1053
778 1060
753 1065
728 1070
703 1070
678 1070
653 1070
628 1070
603 1065
578 1065
553 1060
528 1055
503 1050
478 1045
453 1040
428 1035
404 1027
380 1020
356 1013
332 1005
309 995
285 987
261 978
239 965
216 955
194 942
174 927
156 909
141 889
134 865
124 842
124 817
124 792
