69 647
69 622
79 587
91 565
104 537
122 519
137 499
152 479
167 459
187 444
207 429
230 419
253 409
276 399
301 394
324 384
349 379
374 374
399 369
424 364
449 359
474 354
499 349
524 344
549 344
574 339
599 339
624 339
649 334
674 329
699 324
724 319
749 314
774 309
799 304
824 304
849 299
874 299
899 299
924 297
949 294
974 294
999 292
1024 289
1049 287
1071 275
1094 262
1114 247
1136 235
1159 224
1182 214
1205 204
1228 194
1252 184
1277 179
1265 220
1275 243
1300 244
1324 237
1349 234
1374 232
1399 229
1424 224
1449 219
1474 214
1499 209
1522 199
1547 199
1572 194
1597 189
1620 179
1645 179
1670 179
1695 179
1720 179
1745 179
1770 179
1795 179
1820 179
1845 179
1870 179
1895 179
1920 179
1945 179
1970 179
1995 179
2020 184
2045 189
2065 204
2090 204
2110 219
2135 224
2160 229
2185 234
2209 241
2233 249
2256 259
2279 269
2302 279
2322 294
2342 309
2357 329
2370 351
2380 374
2390 397
2395 422
2400 447
2405 472
2405 497
2410 522
2410 555
2410 580
2405 610
2400 640
2390 670
2380 705
2370 730
2370 755
2365 785
2360 810
2350 850
2340 880
2333 908
2324 932
2312 954
2297 974
2282 994
2264 1012
2245 1030
2223 1043
2201 1055
2177 1064
2152 1070
2127 1075
2102 1075
2077 1080
2052 1080
2027 1084
2002 1080
1977 1075
1952 1075
1927 1070
1902 1070
1877 1065
1852 1060
1827 1055
1802 1055
1777 1050
1752 1045
1727 1040
1702 1035
1677 1030
1652 1025
1627 1019
1605 1007
1587 989
1572 969
1548 960
1523 955
1498 950
1473 950
1448 945
1423 945
1398 940
1373 940
1348 940
1323 945
1298 945
1273 945
1248 950
1223 955
1198 960
1173 965
1148 970
1125 980
1100 985
1077 995
1053 1003
1029 1010
1004 1015
981 1025
958 1035
933 1035
910 1045
885 1045
860 1050
835 1050
810 1050
785 1055
760 1050
735 1050
710 1050
685 1045
660 1040
635 1037
610 1035
585 1030
562 1020
537 1020
514 1010
489 1007
465 1000
442 990
417 985
394 975
370 967
346 960
323 950
300 940
277 930
254 920
234 905
211 894
191 879
171 864
151 849
134 830
119 810
104 790
89 770
79 747
74 722
69 697
69 672
