69 867
69 842
79 802
89 777
101 755
114 732
134 717
152 699
172 684
192 669
212 654
235 644
258 634
281 624
305 616
329 609
354 604
377 594
402 589
427 584
451 575
476 570
501 565
526 564
549 554
572 544
596 535
620 526
644 517
668 509
691 499
716 494
741 489
766 484
791 479
816 479
841 475
866 474
891 474
916 470
941 469
966 469
991 464
1016 464
1040 456
1059 437
1079 422
1089 397
1101 375
1121 359
1137 339
1149 317
1173 309
1193 294
1208 274
1228 259
1248 244
1268 229
1290 216
1309 197
1329 182
1349 167
1371 155
1394 144
1419 137
1443 129
1468 124
1493 119
1518 114
1543 109
1568 109
1593 109
1618 109
1643 109
1668 109
1693 114
1718 119
1743 120
1767 129
1792 134
1817 139
1840 149
1865 154
1889 161
1913 170
1937 179
1960 189
1983 199
2006 209
2028 221
2050 233
2070 248
2090 263
2105 283
2120 303
2138 321
2163 324
2186 334
2205 351
2215 374
2225 397
2230 422
2240 445
2235 480
2215 495
2215 520
2204 552
2180 560
2182 585
2185 610
2180 635
2180 660
2180 685
2175 710
2175 735
2165 760
2155 795
2145 835
2135 870
2130 900
2120 935
2110 965
2100 990
2093 1018
2081 1040
2069 1062
2054 1082
2035 1100
2015 1115
1993 1128
1968 1135
1944 1142
1919 1145
1894 1150
1869 1150
1844 1150
1819 1150
1794 1150
1769 1150
1744 1150
1719 1145
1694 1140
1669 1140
1644 1135
1619 1130
1594 1125
1569 1120
1544 1115
1520 1108
1500 1093
1496 1068
1474 1055
1449 1055
1424 1055
1399 1055
1374 1055
1349 1055
1324 1055
1299 1055
1274 1060
1249 1060
1224 1065
1199 1070
1174 1072
1150 1080
1125 1085
1100 1090
1077 1100
1053 1108
1031 1120
1007 1129
983 1138
959 1147
937 1159
913 1168
888 1175
864 1182
840 1190
815 1195
790 1195
765 1200
740 1200
715 1200
690 1200
665 1195
640 1195
615 1192
590 1190
565 1185
540 1180
515 1185
490 1180
465 1175
442 1164
417 1160
394 1150
369 1145
344 1140
320 1132
296 1125
273 1115
249 1107
225 1100
205 1085
182 1075
160 1063
142 1045
122 1029
104 1011
91 989
79 967
74 942
69 917
69 892
