109 687
109 662
119 627
134 602
149 582
167 564
185 546
204 527
224 512
246 499
269 487
293 479
317 469
342 464
367 459
391 450
416 445
441 440
466 439
491 434
516 429
541 424
566 419
591 419
616 414
641 409
666 404
691 404
716 399
741 394
766 389
791 385
816 384
841 379
866 375
891 374
916 369
941 369
966 369
991 369
1016 364
1040 356
1039 322
1054 302
1074 287
1094 272
1114 257
1134 242
1154 227
1178 220
1195 239
1215 254
1234 237
1254 222
1278 215
1302 224
1327 219
1352 214
1375 204
1400 199
1425 194
1450 194
1473 204
1498 210
1523 215
1548 220
1573 225
1598 230
1623 235
1647 244
1672 249
1697 254
1722 259
1747 264
1772 269
1797 269
1822 264
1845 274
1870 274
1895 274
1918 284
1943 284
1968 289
1993 289
2018 289
2043 289
2068 289
2093 289
2118 289
2143 294
2166 304
2191 304
2216 304
2241 304
2265 312
2287 324
2305 342
2324 359
2344 374
2365 388
2380 408
2389 432
2395 457
2405 480
2415 503
2424 527
2430 552
2435 577
2435 602
2440 627
2440 652
2440 677
2435 715
2435 740
2425 765
2420 790
2425 815
2425 840
2415 875
2405 920
2395 955
2393 993
2381 1015
2363 1033
2348 1053
2328 1068
2308 1083
2285 1095
2262 1105
2239 1115
2214 1120
2189 1125
2164 1125
2139 1130
2114 1130
2089 1125
2064 1125
2039 1125
2014 1120
1989 1120
1964 1115
1939 1110
1914 1105
1889 1100
1864 1095
1839 1092
1815 1085
1790 1082
1765 1077
1741 1068
1723 1050
1711 1028
1701 1005
1678 995
1653 990
1628 985
1603 980
1578 980
1553 975
1528 975
1503 970
1478 970
1453 970
1428 970
1403 970
1378 973
1355 985
1335 1000
1313 1015
1290 1025
1267 1035
1249 1017
1229 1002
1207 990
1183 998
1158 1005
1135 1015
1110 1020
1086 1030
1062 1039
1037 1045
1013 1053
989 1060
964 1065
939 1070
914 1075
889 1080
864 1080
839 1085
814 1085
789 1085
764 1080
739 1080
714 1075
689 1070
664 1070
639 1065
614 1060
590 1052
566 1045
541 1040
518 1030
493 1025
470 1015
446 1008
422 999
398 990
375 980
352 970
332 955
309 945
286 934
266 919
244 907
224 892
204 877
184 862
166 844
149 825
130 808
119 785
109 762
109 737
109 712
