1277 870
1259 852
1283 844
1308 839
1323 819
1331 795
1340 771
1344 742
1359 717
1379 702
1399 687
1419 662
1410 638
1392 620
1369 610
1346 599
1339 575
1319 560
1299 545
1289 522
1311 509
1336 509
1356 524
1376 539
1401 539
1425 547
1449 556
1471 569
1489 587
1504 607
1510 632
1532 644
1545 666
1545 691
1545 716
1545 741
1555 764
1578 774
1601 784
1626 784
1649 794
1668 811
1680 833
1682 869
1657 869
1635 857
1615 842
1597 824
1577 809
1556 795
1533 785
1509 777
1494 757
1486 733
1476 710
1451 715
1426 720
1403 730
1380 740
1380 765
1370 795
1363 823
1354 847
1335 865
1320 895
1297 885
