449 882
449 857
461 835
481 819
506 819
531 819
556 819
581 819
605 827
625 842
643 860
663 875
675 897
679 840
679 815
674 790
669 765
669 740
644 737
620 730
595 725
570 725
545 725
522 715
504 697
489 677
474 657
474 632
474 607
479 582
484 557
489 527
499 502
514 482
534 467
558 459
583 459
608 459
630 472
642 494
650 518
659 542
683 549
705 536
729 529
754 524
746 489
739 465
739 440
724 420
701 410
684 391
671 369
664 345
654 322
649 297
659 272
681 259
706 254
731 254
756 254
764 227
764 202
764 177
774 137
784 112
802 94
827 89
850 99
873 110
895 122
919 131
943 139
968 144
993 144
1018 139
1040 126
1062 114
1085 104
1110 104
1130 119
1143 141
1150 165
1167 184
1187 199
1210 209
1229 226
1243 268
1220 280
1230 303
1221 345
1209 367
1190 385
1176 410
1153 420
1130 430
1130 455
1130 480
1132 505
1150 523
1175 524
1200 524
1224 531
1244 546
1248 571
1263 591
1281 609
1299 627
1314 647
1332 665
1350 683
1365 703
1383 721
1395 743
1400 768
1390 795
1374 817
1355 835
1372 854
1390 872
1395 897
1395 922
1385 960
1375 990
1366 1015
1351 1035
1336 1055
1321 1075
1303 1093
1290 1115
1275 1135
1265 1160
1245 1175
1220 1180
1195 1180
1172 1170
1150 1158
1132 1140
1114 1122
1094 1107
1074 1092
1055 1075
1035 1095
1010 1095
985 1095
961 1105
936 1105
911 1110
886 1108
866 1093
843 1083
820 1095
798 1108
776 1120
753 1130
730 1140
708 1153
684 1160
659 1160
634 1160
609 1155
586 1145
566 1129
551 1109
539 1087
534 1062
522 1040
510 1018
499 995
484 975
469 955
459 932
454 907
