84 1355
74 1332
92 1314
116 1305
139 1294
162 1284
185 1274
206 1260
229 1249
249 1232
273 1224
295 1211
315 1196
339 1182
361 1169
381 1154
404 1137
426 1124
447 1109
464 1087
486 1074
507 1059
530 1049
545 1029
568 1019
586 1000
626 975
601 975
576 975
551 975
526 975
501 975
476 975
451 975
426 975
401 975
376 970
351 975
326 975
301 975
276 975
251 980
226 980
201 975
179 962
174 937
192 919
215 909
240 906
264 897
288 889
310 876
334 869
356 855
379 844
399 827
423 819
445 806
467 794
487 779
507 764
530 754
549 737
569 722
587 704
602 684
624 672
644 652
659 632
677 614
694 595
659 595
634 595
609 595
584 595
559 595
534 595
510 588
492 570
489 545
479 522
497 504
521 495
546 489
567 474
587 459
609 442
631 429
651 414
674 397
696 384
717 369
735 351
750 331
772 319
790 301
804 277
819 242
834 222
834 197
844 174
851 150
854 117
854 92
872 74
896 65
921 69
945 77
960 97
965 122
980 142
992 164
1007 184
1030 194
1045 214
1064 231
1084 246
1100 266
1123 276
1140 295
1155 315
1174 332
1193 349
1215 362
1230 382
1250 397
1272 409
1292 424
1310 442
1332 454
1354 466
1372 484
1397 489
1417 504
1440 514
1463 524
1485 537
1485 570
1465 590
1440 595
1415 595
1390 595
1365 595
1340 595
1315 595
1290 595
1265 595
1240 590
1215 590
1175 595
1196 609
1216 624
1236 639
1261 644
1280 661
1298 679
1321 689
1344 699
1363 716
1385 728
1405 744
1428 755
1445 774
1470 779
1493 789
1516 799
1539 809
1550 845
1533 868
1510 880
1485 885
1460 885
1435 880
1410 875
1385 875
1362 865
1337 865
1312 865
1286 855
1245 850
1264 867
1292 880
1313 894
1336 904
1359 914
1382 924
1405 934
1425 949
1448 959
1471 969
1494 979
1517 989
1535 1007
1560 1009
1585 1014
1605 1029
1625 1044
1650 1049
1675 1054
1698 1065
1722 1074
1745 1084
1768 1095
1790 1107
1814 1114
1837 1124
1860 1134
1885 1139
1905 1154
1905 1180
1907 1209
1889 1227
1865 1235
1840 1240
1815 1240
1790 1245
1765 1245
1740 1250
1715 1250
1690 1250
1665 1250
1640 1250
1615 1250
1590 1245
1565 1250
1540 1255
1515 1260
1490 1260
1465 1260
1440 1260
1415 1260
1390 1260
1365 1260
1340 1260
1315 1260
1290 1260
1265 1255
1240 1255
1215 1255
1190 1250
1165 1250
1140 1245
1115 1245
1115 1270
1115 1295
1115 1320
1115 1345
1115 1370
1115 1395
1115 1420
1115 1445
1115 1470
1115 1495
1110 1535
1115 1560
1115 1585
1115 1610
1115 1635
1115 1660
1100 1685
1110 1708
1110 1733
1100 1770
1110 1793
1103 1830
1084 1847
1065 1865
1041 1875
1016 1870
993 1860
968 1855
943 1855
918 1855
893 1850
869 1842
854 1822
854 1797
854 1772
854 1747
854 1722
854 1697
854 1672
854 1647
854 1622
854 1597
854 1572
854 1529
851 1504
839 1482
839 1457
824 1437
824 1412
819 1365
809 1342
809 1317
796 1295
771 1295
746 1295
721 1300
696 1300
671 1305
646 1310
621 1315
596 1315
571 1320
546 1325
521 1320
496 1325
471 1325
446 1325
424 1337
400 1345
375 1340
350 1345
326 1355
301 1355
276 1355
251 1355
227 1364
202 1360
179 1370
154 1375
129 1375
104 1370
