464 642
464 617
469 577
479 552
489 527
504 502
519 472
534 447
534 402
512 415
492 430
474 412
486 390
499 362
511 340
520 316
529 277
539 242
544 217
554 172
564 142
576 120
584 87
602 69
611 45
635 52
639 77
644 102
649 127
667 145
682 165
694 187
699 212
705 237
710 262
710 287
710 312
710 337
710 362
710 387
725 407
707 425
685 438
695 461
705 484
720 504
730 527
738 551
745 575
755 598
760 623
775 643
762 665
739 655
715 663
720 688
725 713
735 736
742 760
750 784
760 807
775 827
787 849
795 873
807 895
822 915
803 945
778 945
753 945
725 945
739 966
747 990
750 1015
750 1040
750 1065
750 1090
755 1115
757 1159
734 1170
709 1175
684 1175
659 1175
634 1172
619 1152
619 1127
619 1102
609 1079
609 1054
604 1029
604 1004
599 979
599 954
582 935
557 935
532 940
507 945
484 955
474 932
474 907
484 872
484 847
494 822
494 797
504 752
514 717
519 692
529 662
524 637
505 655
488 674
464 667
