1084 887
1084 862
1106 849
1131 844
1156 839
1181 834
1206 829
1231 824
1256 819
1281 814
1305 806
1327 794
1339 772
1354 752
1379 754
1404 754
1429 754
1454 754
1478 761
1480 786
1495 806
1509 827
1524 847
1546 859
1570 867
1580 890
1595 910
1614 927
1605 955
1580 955
1580 980
1570 1015
1546 1025
1524 1012
1512 990
1487 990
1462 995
1437 1000
1413 1008
1390 1020
1365 1020
1340 1020
1315 1015
1290 1015
1266 1008
1242 1000
1217 1004
1197 1019
1172 1020
1147 1020
1122 1025
1104 1007
1099 982
1099 957
1117 939
1141 930
1127 905
1102 905
