969 907
969 882
987 864
1009 852
1031 839
1056 834
1081 829
1106 824
1131 824
1156 824
1181 824
1189 792
1209 777
1233 769
1258 764
1283 759
1308 759
1331 769
1335 794
1340 819
1359 836
1367 860
1391 869
1415 877
1423 901
1441 919
1443 958
1420 970
1403 1010
1380 1020
1355 1020
1330 1015
1305 1015
1280 1015
1255 1020
1230 1025
1205 1022
1181 1015
1156 1015
1131 1015
1106 1020
1082 1029
1057 1030
1032 1030
1009 1020
999 997
1014 957
1039 952
1037 920
1012 920
987 925
