89 407
89 382
94 352
94 327
116 315
139 304
164 304
189 304
214 309
239 309
264 309
288 316
306 334
328 346
346 364
368 376
383 396
407 389
422 369
445 359
470 359
495 362
520 367
545 366
569 357
591 345
616 340
641 334
664 322
688 315
713 320
737 329
762 334
787 334
812 334
837 339
862 344
887 349
912 354
934 366
956 379
976 394
1001 399
1025 406
1050 412
1072 424
1092 439
1110 457
1125 477
1140 497
1158 515
1175 534
1194 551
1214 566
1232 584
1252 599
1270 617
1285 637
1300 657
1315 677
1327 699
1339 721
1345 746
1355 769
1360 794
1360 819
1365 844
1370 869
1375 894
1370 925
1375 950
1389 971
1400 994
1390 1025
1365 1020
1342 1009
1318 1000
1293 995
1270 1005
1248 1018
1220 1025
1239 1042
1259 1057
1255 1085
1257 1110
1250 1135
1235 1155
1215 1170
1193 1183
1168 1185
1148 1200
1128 1185
1105 1195
1080 1190
1066 1169
1054 1147
1064 1117
1082 1099
1099 1066
1087 1044
1067 1029
1043 1020
1020 1010
995 1012
970 1007
945 1005
920 1005
897 995
872 995
847 990
822 990
797 985
772 980
749 970
724 965
701 955
676 949
655 935
630 935
611 918
591 903
567 895
545 882
520 885
510 910
495 940
472 950
449 960
426 950
401 955
378 965
354 957
334 942
334 887
349 862
367 844
392 839
407 819
429 747
419 722
407 700
389 682
384 657
379 632
367 610
349 592
327 580
307 564
286 550
264 537
242 525
227 505
205 493
187 475
164 465
149 445
124 440
101 429
