49 402
49 377
59 352
74 332
94 317
119 314
144 314
169 314
194 319
219 319
244 319
269 319
294 321
319 324
344 324
369 324
394 324
419 329
444 329
469 329
494 329
519 334
544 334
569 329
594 329
619 329
644 329
669 329
694 329
719 324
744 324
769 324
794 319
819 319
844 319
869 319
894 314
919 314
944 314
969 314
994 314
1019 309
1044 309
1069 309
1094 309
1119 309
1144 309
1169 304
1194 304
1219 304
1244 304
1269 302
1287 284
1312 279
1337 279
1362 274
1379 252
1401 239
1424 227
1448 219
1473 214
1498 214
1523 214
1548 220
1572 229
1594 241
1612 259
1632 274
1655 284
1680 284
1703 295
1727 304
1752 304
1777 309
1802 309
1827 309
1852 314
1877 314
1902 314
1927 319
1952 319
1977 319
2002 319
2027 319
2052 324
2077 324
2102 324
2127 324
2152 324
2177 329
2202 329
2227 329
2252 329
2277 334
2302 334
2327 334
2352 334
2377 334
2399 346
2410 369
2415 394
2415 419
2415 444
2410 475
2399 510
2374 515
2349 515
2324 515
2299 515
2274 520
2249 520
2224 520
2199 525
2174 525
2149 525
2124 525
2099 530
2074 530
2049 530
2024 530
1999 530
1974 530
1949 535
1924 535
1899 535
1874 535
1849 535
1824 540
1799 540
1774 540
1749 540
1724 540
1701 550
1681 565
1656 565
1631 570
1609 582
1591 600
1569 612
1545 620
1520 625
1497 635
1472 630
1447 624
1423 615
1401 603
1381 588
1363 570
1343 555
1318 558
1293 560
1273 545
1248 540
1223 540
1198 535
1173 535
1148 535
1123 530
1098 530
1073 530
1048 525
1023 525
998 525
973 525
948 525
923 520
898 520
873 520
848 520
823 520
798 515
773 515
748 515
723 515
698 510
673 510
648 510
623 510
598 510
573 510
548 505
523 510
498 510
473 510
448 510
423 510
398 510
373 510
348 505
323 505
298 505
273 500
248 500
223 500
198 500
173 495
148 495
123 495
99 487
81 469
64 450
54 427
