134 352
134 327
149 307
171 294
194 282
218 274
242 264
265 254
290 254
315 254
340 251
362 239
387 239
412 239
437 244
462 244
487 244
512 244
537 244
562 244
587 244
612 244
637 244
662 244
687 244
712 244
737 244
762 244
787 244
812 249
837 249
862 249
887 249
912 249
937 249
962 249
987 249
1012 249
1037 249
1062 249
1087 249
1112 244
1137 244
1162 244
1187 244
1212 244
1237 239
1262 234
1284 222
1304 207
1326 194
1346 179
1369 169
1394 164
1419 159
1444 154
1469 149
1494 144
1519 149
1544 149
1569 149
1594 154
1619 154
1642 164
1665 174
1688 184
1708 200
1723 220
1738 240
1759 254
1784 249
1809 251
1833 259
1858 259
1883 259
1908 259
1933 259
1958 254
1983 254
2008 254
2033 254
2058 254
2083 254
2108 254
2133 254
2158 259
2183 259
2208 259
2233 259
2258 259
2283 264
2306 274
2324 292
2330 317
2330 342
2330 367
2330 392
2335 417
2335 442
2335 467
2335 492
2335 517
2335 542
2325 565
2300 565
2275 565
2250 570
2225 570
2200 570
2175 570
2150 570
2125 570
2100 570
2075 570
2050 570
2025 570
2000 570
1975 570
1950 570
1925 570
1900 570
1875 570
1850 570
1825 570
1800 575
1778 588
1756 600
1738 618
1725 640
1701 650
1678 660
1654 667
1630 675
1607 685
1582 690
1557 695
1532 695
1507 700
1482 695
1457 694
1432 690
1407 685
1382 679
1361 665
1338 655
1316 643
1296 628
1281 608
1263 590
1245 572
1223 560
1198 560
1173 560
1148 565
1123 565
1098 565
1073 565
1048 565
1023 565
998 565
973 565
948 570
923 570
898 570
873 570
848 570
823 570
798 570
773 570
748 570
723 570
698 570
673 570
648 570
623 570
598 570
573 570
548 565
523 565
498 565
473 565
448 565
423 565
398 565
373 565
348 565
323 565
298 565
273 565
248 570
223 570
199 561
179 546
166 524
154 502
149 477
144 452
144 427
139 402
134 377
