394 525
394 550
394 587
394 612
404 635
404 660
404 685
411 709
436 715
461 715
486 715
511 715
536 715
561 715
586 715
611 710
636 705
661 705
686 705
711 710
734 720
759 715
780 700
805 695
830 695
853 685
878 690
903 690
928 690
953 688
978 685
1001 695
1026 700
1051 705
1075 712
1097 724
1120 735
1140 750
1163 760
1187 769
1212 775
1237 779
1262 780
1287 775
1312 770
1337 764
1359 752
1381 740
1401 725
1419 707
1441 695
1464 685
1487 675
1512 670
1535 660
1560 655
1585 660
1610 660
1635 655
1660 650
1685 655
1710 650
1735 650
1759 642
1784 640
1809 645
1834 645
1859 645
1882 635
1907 639
1932 635
1957 629
1982 625
2007 620
2032 620
2057 615
2082 615
2107 615
2132 610
2150 590
2150 555
2150 520
2150 495
2145 470
2144 427
2140 402
2122 384
2097 384
2072 384
2047 384
2022 384
1997 384
1972 389
1947 389
1922 389
1897 389
1872 389
1847 394
1822 399
1797 399
1772 404
1747 404
1722 409
1697 409
1672 409
1648 419
1623 419
1598 414
1573 419
1548 419
1525 429
1502 419
1477 414
1452 409
1429 399
1406 389
1384 376
1362 364
1342 349
1317 344
1292 339
1267 334
1247 319
1222 324
1202 339
1178 349
1154 357
1131 370
1111 385
1091 400
1070 414
1047 424
1023 434
998 439
974 447
949 454
924 449
899 454
874 454
850 461
825 459
800 459
775 459
752 449
729 439
704 444
681 455
656 460
631 464
606 464
581 464
556 464
531 469
506 474
481 474
456 479
431 484
406 489
384 502
