<?xml version="1.0" encoding="UTF-8" standalone="no"?>
<!-- Created with CurveBenchmark -->
<svg
	xmlns:dc="http://purl.org/dc/elements/1.1/"
	xmlns:cc="http://creativecommons.org/ns#"
	xmlns:rdf="http://www.w3.org/1999/02/22-rdf-syntax-ns#"
	xmlns:svg="http://www.w3.org/2000/svg"
	xmlns="http://www.w3.org/2000/svg"
	xmlns:sodipodi="http://sodipodi.sourceforge.net/DTD/sodipodi-0.dtd"
	xmlns:inkscape="http://www.inkscape.org/namespaces/inkscape"
	width="1000"
	height="1000"
	id="svg2"
	version="1.1"
	sodipodi:docname="multiple-curves/crawl-toilet275.png.txt">
<defs
	id="defs4" />
<metadata
	id="metadata7">
	<rdf:RDF>
		<cc:Work
			rdf:about="">
			<dc:format>image/svg+xml</dc:format>
			<dc:type
				rdf:resource="http://purl.org/dc/dcmitype/StillImage" />
			<dc:title></dc:title>
		</cc:Work>
	</rdf:RDF>
</metadata>
<g
	inkscape:label="Layer 1"
	inkscape:groupmode="layer"
	id="layer1">
	<path style="fill:none;stroke:red;stroke-width:1px;stroke-linecap:butt;stroke-linejoin:miter;stroke-opacity:1" d="M 126.469,503.674 65.2346,503.674 z" id="boundary" inkscape:connector-curvature="0" />
	<path style="fill:none;stroke:red;stroke-width:1px;stroke-linecap:butt;stroke-linejoin:miter;stroke-opacity:1" d="M 126.469,503.674 187.704,503.674 z" id="boundary" inkscape:connector-curvature="0" />
	<path style="fill:none;stroke:red;stroke-width:1px;stroke-linecap:butt;stroke-linejoin:miter;stroke-opacity:1" d="M 187.704,503.674 248.938,503.674 z" id="boundary" inkscape:connector-curvature="0" />
	<path style="fill:none;stroke:red;stroke-width:1px;stroke-linecap:butt;stroke-linejoin:miter;stroke-opacity:1" d="M 248.938,503.674 310.173,503.674 z" id="boundary" inkscape:connector-curvature="0" />
	<path style="fill:none;stroke:red;stroke-width:1px;stroke-linecap:butt;stroke-linejoin:miter;stroke-opacity:1" d="M 310.173,503.674 371.407,503.674 z" id="boundary" inkscape:connector-curvature="0" />
	<path style="fill:none;stroke:red;stroke-width:1px;stroke-linecap:butt;stroke-linejoin:miter;stroke-opacity:1" d="M 371.407,503.674 432.642,503.674 z" id="boundary" inkscape:connector-curvature="0" />
	<path style="fill:none;stroke:red;stroke-width:1px;stroke-linecap:butt;stroke-linejoin:miter;stroke-opacity:1" d="M 65.2346,503.674 4,508.573 z" id="boundary" inkscape:connector-curvature="0" />
	<path style="fill:none;stroke:red;stroke-width:1px;stroke-linecap:butt;stroke-linejoin:miter;stroke-opacity:1" d="M 4,508.573 33.3926,562.459 z" id="boundary" inkscape:connector-curvature="0" />
	<path style="fill:none;stroke:red;stroke-width:1px;stroke-linecap:butt;stroke-linejoin:miter;stroke-opacity:1" d="M 33.3926,562.459 57.8864,618.795 z" id="boundary" inkscape:connector-curvature="0" />
	<path style="fill:none;stroke:red;stroke-width:1px;stroke-linecap:butt;stroke-linejoin:miter;stroke-opacity:1" d="M 432.642,503.674 488.978,479.18 z" id="boundary" inkscape:connector-curvature="0" />
	<path style="fill:none;stroke:red;stroke-width:1px;stroke-linecap:butt;stroke-linejoin:miter;stroke-opacity:1" d="M 57.8864,618.795 97.0765,667.783 z" id="boundary" inkscape:connector-curvature="0" />
	<path style="fill:none;stroke:red;stroke-width:1px;stroke-linecap:butt;stroke-linejoin:miter;stroke-opacity:1" d="M 97.0765,667.783 138.716,714.321 z" id="boundary" inkscape:connector-curvature="0" />
	<path style="fill:none;stroke:red;stroke-width:1px;stroke-linecap:butt;stroke-linejoin:miter;stroke-opacity:1" d="M 138.716,714.321 165.659,770.657 z" id="boundary" inkscape:connector-curvature="0" />
	<path style="fill:none;stroke:red;stroke-width:1px;stroke-linecap:butt;stroke-linejoin:miter;stroke-opacity:1" d="M 488.978,479.18 484.079,410.598 z" id="boundary" inkscape:connector-curvature="0" />
	<path style="fill:none;stroke:red;stroke-width:1px;stroke-linecap:butt;stroke-linejoin:miter;stroke-opacity:1" d="M 165.659,770.657 160.76,866.183 z" id="boundary" inkscape:connector-curvature="0" />
	<path style="fill:none;stroke:red;stroke-width:1px;stroke-linecap:butt;stroke-linejoin:miter;stroke-opacity:1" d="M 160.76,866.183 119.121,912.721 z" id="boundary" inkscape:connector-curvature="0" />
	<path style="fill:none;stroke:red;stroke-width:1px;stroke-linecap:butt;stroke-linejoin:miter;stroke-opacity:1" d="M 119.121,912.721 77.4815,959.259 z" id="boundary" inkscape:connector-curvature="0" />
	<path style="fill:none;stroke:red;stroke-width:1px;stroke-linecap:butt;stroke-linejoin:miter;stroke-opacity:1" d="M 77.4815,959.259 131.368,991.101 z" id="boundary" inkscape:connector-curvature="0" />
	<path style="fill:none;stroke:red;stroke-width:1px;stroke-linecap:butt;stroke-linejoin:miter;stroke-opacity:1" d="M 131.368,991.101 192.602,996 z" id="boundary" inkscape:connector-curvature="0" />
	<path style="fill:none;stroke:red;stroke-width:1px;stroke-linecap:butt;stroke-linejoin:miter;stroke-opacity:1" d="M 192.602,996 253.837,996 z" id="boundary" inkscape:connector-curvature="0" />
	<path style="fill:none;stroke:red;stroke-width:1px;stroke-linecap:butt;stroke-linejoin:miter;stroke-opacity:1" d="M 253.837,996 315.072,996 z" id="boundary" inkscape:connector-curvature="0" />
	<path style="fill:none;stroke:red;stroke-width:1px;stroke-linecap:butt;stroke-linejoin:miter;stroke-opacity:1" d="M 315.072,996 376.306,996 z" id="boundary" inkscape:connector-curvature="0" />
	<path style="fill:none;stroke:red;stroke-width:1px;stroke-linecap:butt;stroke-linejoin:miter;stroke-opacity:1" d="M 376.306,996 437.541,991.101 z" id="boundary" inkscape:connector-curvature="0" />
	<path style="fill:none;stroke:red;stroke-width:1px;stroke-linecap:butt;stroke-linejoin:miter;stroke-opacity:1" d="M 437.541,991.101 498.775,976.405 z" id="boundary" inkscape:connector-curvature="0" />
	<path style="fill:none;stroke:red;stroke-width:1px;stroke-linecap:butt;stroke-linejoin:miter;stroke-opacity:1" d="M 498.775,976.405 462.035,912.721 z" id="boundary" inkscape:connector-curvature="0" />
	<path style="fill:none;stroke:red;stroke-width:1px;stroke-linecap:butt;stroke-linejoin:miter;stroke-opacity:1" d="M 462.035,912.721 498.775,863.733 z" id="boundary" inkscape:connector-curvature="0" />
	<path style="fill:none;stroke:red;stroke-width:1px;stroke-linecap:butt;stroke-linejoin:miter;stroke-opacity:1" d="M 498.775,863.733 537.965,814.746 z" id="boundary" inkscape:connector-curvature="0" />
	<path style="fill:none;stroke:red;stroke-width:1px;stroke-linecap:butt;stroke-linejoin:miter;stroke-opacity:1" d="M 537.965,814.746 569.807,758.41 z" id="boundary" inkscape:connector-curvature="0" />
	<path style="fill:none;stroke:red;stroke-width:1px;stroke-linecap:butt;stroke-linejoin:miter;stroke-opacity:1" d="M 569.807,758.41 604.099,704.523 z" id="boundary" inkscape:connector-curvature="0" />
	<path style="fill:none;stroke:red;stroke-width:1px;stroke-linecap:butt;stroke-linejoin:miter;stroke-opacity:1" d="M 604.099,704.523 650.637,662.884 z" id="boundary" inkscape:connector-curvature="0" />
	<path style="fill:none;stroke:red;stroke-width:1px;stroke-linecap:butt;stroke-linejoin:miter;stroke-opacity:1" d="M 650.637,662.884 697.175,621.244 z" id="boundary" inkscape:connector-curvature="0" />
	<path style="fill:none;stroke:red;stroke-width:1px;stroke-linecap:butt;stroke-linejoin:miter;stroke-opacity:1" d="M 697.175,621.244 721.669,562.459 z" id="boundary" inkscape:connector-curvature="0" />
	<path style="fill:none;stroke:red;stroke-width:1px;stroke-linecap:butt;stroke-linejoin:miter;stroke-opacity:1" d="M 484.079,410.598 488.978,307.723 z" id="boundary" inkscape:connector-curvature="0" />
	<path style="fill:none;stroke:red;stroke-width:1px;stroke-linecap:butt;stroke-linejoin:miter;stroke-opacity:1" d="M 488.978,307.723 493.877,239.141 z" id="boundary" inkscape:connector-curvature="0" />
	<path style="fill:none;stroke:red;stroke-width:1px;stroke-linecap:butt;stroke-linejoin:miter;stroke-opacity:1" d="M 493.877,239.141 498.775,175.457 z" id="boundary" inkscape:connector-curvature="0" />
	<path style="fill:none;stroke:red;stroke-width:1px;stroke-linecap:butt;stroke-linejoin:miter;stroke-opacity:1" d="M 498.775,175.457 508.573,77.4815 z" id="boundary" inkscape:connector-curvature="0" />
	<path style="fill:none;stroke:red;stroke-width:1px;stroke-linecap:butt;stroke-linejoin:miter;stroke-opacity:1" d="M 508.573,77.4815 518.37,8.89877 z" id="boundary" inkscape:connector-curvature="0" />
	<path style="fill:none;stroke:red;stroke-width:1px;stroke-linecap:butt;stroke-linejoin:miter;stroke-opacity:1" d="M 518.37,8.89877 579.605,8.89877 z" id="boundary" inkscape:connector-curvature="0" />
	<path style="fill:none;stroke:red;stroke-width:1px;stroke-linecap:butt;stroke-linejoin:miter;stroke-opacity:1" d="M 579.605,8.89877 640.84,4 z" id="boundary" inkscape:connector-curvature="0" />
	<path style="fill:none;stroke:red;stroke-width:1px;stroke-linecap:butt;stroke-linejoin:miter;stroke-opacity:1" d="M 640.84,4 702.074,18.6963 z" id="boundary" inkscape:connector-curvature="0" />
	<path style="fill:none;stroke:red;stroke-width:1px;stroke-linecap:butt;stroke-linejoin:miter;stroke-opacity:1" d="M 702.074,18.6963 726.568,75.0321 z" id="boundary" inkscape:connector-curvature="0" />
	<path style="fill:none;stroke:red;stroke-width:1px;stroke-linecap:butt;stroke-linejoin:miter;stroke-opacity:1" d="M 726.568,75.0321 726.568,136.267 z" id="boundary" inkscape:connector-curvature="0" />
	<path style="fill:none;stroke:red;stroke-width:1px;stroke-linecap:butt;stroke-linejoin:miter;stroke-opacity:1" d="M 726.568,136.267 731.467,197.501 z" id="boundary" inkscape:connector-curvature="0" />
	<path style="fill:none;stroke:red;stroke-width:1px;stroke-linecap:butt;stroke-linejoin:miter;stroke-opacity:1" d="M 731.467,197.501 731.467,258.736 z" id="boundary" inkscape:connector-curvature="0" />
	<path style="fill:none;stroke:red;stroke-width:1px;stroke-linecap:butt;stroke-linejoin:miter;stroke-opacity:1" d="M 731.467,258.736 736.365,319.97 z" id="boundary" inkscape:connector-curvature="0" />
	<path style="fill:none;stroke:red;stroke-width:1px;stroke-linecap:butt;stroke-linejoin:miter;stroke-opacity:1" d="M 736.365,319.97 736.365,381.205 z" id="boundary" inkscape:connector-curvature="0" />
	<path style="fill:none;stroke:red;stroke-width:1px;stroke-linecap:butt;stroke-linejoin:miter;stroke-opacity:1" d="M 736.365,381.205 736.365,442.44 z" id="boundary" inkscape:connector-curvature="0" />
	<path style="fill:none;stroke:red;stroke-width:1px;stroke-linecap:butt;stroke-linejoin:miter;stroke-opacity:1" d="M 736.365,442.44 721.669,562.459 z" id="boundary" inkscape:connector-curvature="0" />
	<path style="fill:none;stroke:red;stroke-width:1px;stroke-linecap:butt;stroke-linejoin:miter;stroke-opacity:1" d="M 427.743,861.284 398.351,807.398 z" id="boundary" inkscape:connector-curvature="0" />
	<path style="fill:none;stroke:red;stroke-width:1px;stroke-linecap:butt;stroke-linejoin:miter;stroke-opacity:1" d="M 427.743,861.284 464.484,807.398 z" id="boundary" inkscape:connector-curvature="0" />
	<path style="fill:none;stroke:red;stroke-width:1px;stroke-linecap:butt;stroke-linejoin:miter;stroke-opacity:1" d="M 398.351,807.398 417.946,743.714 z" id="boundary" inkscape:connector-curvature="0" />
	<path style="fill:none;stroke:red;stroke-width:1px;stroke-linecap:butt;stroke-linejoin:miter;stroke-opacity:1" d="M 417.946,743.714 462.035,699.625 z" id="boundary" inkscape:connector-curvature="0" />
	<circle cx="4" cy="508.573" r="4" fill="#0" id="circle0"/>
	<circle cx="33.3926" cy="562.459" r="4" fill="#0" id="circle1"/>
	<circle cx="57.8864" cy="618.795" r="4" fill="#0" id="circle2"/>
	<circle cx="65.2346" cy="503.674" r="4" fill="#0" id="circle3"/>
	<circle cx="77.4815" cy="959.259" r="4" fill="#0" id="circle4"/>
	<circle cx="97.0765" cy="667.783" r="4" fill="#0" id="circle5"/>
	<circle cx="119.121" cy="912.721" r="4" fill="#0" id="circle6"/>
	<circle cx="126.469" cy="503.674" r="4" fill="#0" id="circle7"/>
	<circle cx="131.368" cy="991.101" r="4" fill="#0" id="circle8"/>
	<circle cx="138.716" cy="714.321" r="4" fill="#0" id="circle9"/>
	<circle cx="160.76" cy="866.183" r="4" fill="#0" id="circle10"/>
	<circle cx="165.659" cy="770.657" r="4" fill="#0" id="circle11"/>
	<circle cx="187.704" cy="503.674" r="4" fill="#0" id="circle12"/>
	<circle cx="192.602" cy="996" r="4" fill="#0" id="circle13"/>
	<circle cx="248.938" cy="503.674" r="4" fill="#0" id="circle14"/>
	<circle cx="253.837" cy="996" r="4" fill="#0" id="circle15"/>
	<circle cx="310.173" cy="503.674" r="4" fill="#0" id="circle16"/>
	<circle cx="315.072" cy="996" r="4" fill="#0" id="circle17"/>
	<circle cx="371.407" cy="503.674" r="4" fill="#0" id="circle18"/>
	<circle cx="376.306" cy="996" r="4" fill="#0" id="circle19"/>
	<circle cx="398.351" cy="807.398" r="4" fill="#0" id="circle20"/>
	<circle cx="417.946" cy="743.714" r="4" fill="#0" id="circle21"/>
	<circle cx="427.743" cy="861.284" r="4" fill="#0" id="circle22"/>
	<circle cx="432.642" cy="503.674" r="4" fill="#0" id="circle23"/>
	<circle cx="437.541" cy="991.101" r="4" fill="#0" id="circle24"/>
	<circle cx="462.035" cy="699.625" r="4" fill="#0" id="circle25"/>
	<circle cx="462.035" cy="912.721" r="4" fill="#0" id="circle26"/>
	<circle cx="464.484" cy="807.398" r="4" fill="#0" id="circle27"/>
	<circle cx="484.079" cy="410.598" r="4" fill="#0" id="circle28"/>
	<circle cx="488.978" cy="307.723" r="4" fill="#0" id="circle29"/>
	<circle cx="488.978" cy="479.18" r="4" fill="#0" id="circle30"/>
	<circle cx="493.877" cy="239.141" r="4" fill="#0" id="circle31"/>
	<circle cx="498.775" cy="175.457" r="4" fill="#0" id="circle32"/>
	<circle cx="498.775" cy="863.733" r="4" fill="#0" id="circle33"/>
	<circle cx="498.775" cy="976.405" r="4" fill="#0" id="circle34"/>
	<circle cx="508.573" cy="77.4815" r="4" fill="#0" id="circle35"/>
	<circle cx="518.37" cy="8.89877" r="4" fill="#0" id="circle36"/>
	<circle cx="537.965" cy="814.746" r="4" fill="#0" id="circle37"/>
	<circle cx="569.807" cy="758.41" r="4" fill="#0" id="circle38"/>
	<circle cx="579.605" cy="8.89877" r="4" fill="#0" id="circle39"/>
	<circle cx="604.099" cy="704.523" r="4" fill="#0" id="circle40"/>
	<circle cx="640.84" cy="4" r="4" fill="#0" id="circle41"/>
	<circle cx="650.637" cy="662.884" r="4" fill="#0" id="circle42"/>
	<circle cx="697.175" cy="621.244" r="4" fill="#0" id="circle43"/>
	<circle cx="702.074" cy="18.6963" r="4" fill="#0" id="circle44"/>
	<circle cx="721.669" cy="562.459" r="4" fill="#0" id="circle45"/>
	<circle cx="726.568" cy="75.0321" r="4" fill="#0" id="circle46"/>
	<circle cx="726.568" cy="136.267" r="4" fill="#0" id="circle47"/>
	<circle cx="731.467" cy="197.501" r="4" fill="#0" id="circle48"/>
	<circle cx="731.467" cy="258.736" r="4" fill="#0" id="circle49"/>
	<circle cx="736.365" cy="319.97" r="4" fill="#0" id="circle50"/>
	<circle cx="736.365" cy="381.205" r="4" fill="#0" id="circle51"/>
	<circle cx="736.365" cy="442.44" r="4" fill="#0" id="circle52"/>
	</g>
</svg>