<?xml version="1.0" encoding="UTF-8" standalone="no"?>
<!-- Created with CurveBenchmark -->
<svg
	xmlns:dc="http://purl.org/dc/elements/1.1/"
	xmlns:cc="http://creativecommons.org/ns#"
	xmlns:rdf="http://www.w3.org/1999/02/22-rdf-syntax-ns#"
	xmlns:svg="http://www.w3.org/2000/svg"
	xmlns="http://www.w3.org/2000/svg"
	xmlns:sodipodi="http://sodipodi.sourceforge.net/DTD/sodipodi-0.dtd"
	xmlns:inkscape="http://www.inkscape.org/namespaces/inkscape"
	width="1000"
	height="1000"
	id="svg2"
	version="1.1"
	sodipodi:docname="multiple-curves/discur-mc39.txt">
<defs
	id="defs4" />
<metadata
	id="metadata7">
	<rdf:RDF>
		<cc:Work
			rdf:about="">
			<dc:format>image/svg+xml</dc:format>
			<dc:type
				rdf:resource="http://purl.org/dc/dcmitype/StillImage" />
			<dc:title></dc:title>
		</cc:Work>
	</rdf:RDF>
</metadata>
<g
	inkscape:label="Layer 1"
	inkscape:groupmode="layer"
	id="layer1">
	<path style="fill:none;stroke:red;stroke-width:1px;stroke-linecap:butt;stroke-linejoin:miter;stroke-opacity:1" d="M 13.277,368.733 23.6341,355.625 z" id="boundary" inkscape:connector-curvature="0" />
	<path style="fill:none;stroke:red;stroke-width:1px;stroke-linecap:butt;stroke-linejoin:miter;stroke-opacity:1" d="M 13.277,368.733 4,386.84 z" id="boundary" inkscape:connector-curvature="0" />
	<path style="fill:none;stroke:red;stroke-width:1px;stroke-linecap:butt;stroke-linejoin:miter;stroke-opacity:1" d="M 23.6341,355.625 32.0492,339.216 z" id="boundary" inkscape:connector-curvature="0" />
	<path style="fill:none;stroke:red;stroke-width:1px;stroke-linecap:butt;stroke-linejoin:miter;stroke-opacity:1" d="M 32.0492,390.683 46.2902,384.21 z" id="boundary" inkscape:connector-curvature="0" />
	<path style="fill:none;stroke:red;stroke-width:1px;stroke-linecap:butt;stroke-linejoin:miter;stroke-opacity:1" d="M 32.0492,390.683 19.6603,395.48 z" id="boundary" inkscape:connector-curvature="0" />
	<path style="fill:none;stroke:red;stroke-width:1px;stroke-linecap:butt;stroke-linejoin:miter;stroke-opacity:1" d="M 32.0492,419.283 46.2902,423.52 z" id="boundary" inkscape:connector-curvature="0" />
	<path style="fill:none;stroke:red;stroke-width:1px;stroke-linecap:butt;stroke-linejoin:miter;stroke-opacity:1" d="M 32.0492,419.283 17.5003,411.681 z" id="boundary" inkscape:connector-curvature="0" />
	<path style="fill:none;stroke:red;stroke-width:1px;stroke-linecap:butt;stroke-linejoin:miter;stroke-opacity:1" d="M 32.0492,339.216 38.5224,324.716 z" id="boundary" inkscape:connector-curvature="0" />
	<path style="fill:none;stroke:red;stroke-width:1px;stroke-linecap:butt;stroke-linejoin:miter;stroke-opacity:1" d="M 38.5224,324.716 44.9955,310.604 z" id="boundary" inkscape:connector-curvature="0" />
	<path style="fill:none;stroke:red;stroke-width:1px;stroke-linecap:butt;stroke-linejoin:miter;stroke-opacity:1" d="M 46.2902,384.21 60.5311,377.443 z" id="boundary" inkscape:connector-curvature="0" />
	<path style="fill:none;stroke:red;stroke-width:1px;stroke-linecap:butt;stroke-linejoin:miter;stroke-opacity:1" d="M 46.2902,423.52 60.5311,423.343 z" id="boundary" inkscape:connector-curvature="0" />
	<path style="fill:none;stroke:red;stroke-width:1px;stroke-linecap:butt;stroke-linejoin:miter;stroke-opacity:1" d="M 44.9955,310.604 52.116,296.342 z" id="boundary" inkscape:connector-curvature="0" />
	<path style="fill:none;stroke:red;stroke-width:1px;stroke-linecap:butt;stroke-linejoin:miter;stroke-opacity:1" d="M 52.116,296.342 59.8838,282.101 z" id="boundary" inkscape:connector-curvature="0" />
	<path style="fill:none;stroke:red;stroke-width:1px;stroke-linecap:butt;stroke-linejoin:miter;stroke-opacity:1" d="M 60.5311,377.443 74.7721,370.087 z" id="boundary" inkscape:connector-curvature="0" />
	<path style="fill:none;stroke:red;stroke-width:1px;stroke-linecap:butt;stroke-linejoin:miter;stroke-opacity:1" d="M 60.5311,423.343 74.7721,419.106 z" id="boundary" inkscape:connector-curvature="0" />
	<path style="fill:none;stroke:red;stroke-width:1px;stroke-linecap:butt;stroke-linejoin:miter;stroke-opacity:1" d="M 59.8838,282.101 68.2989,267.475 z" id="boundary" inkscape:connector-curvature="0" />
	<path style="fill:none;stroke:red;stroke-width:1px;stroke-linecap:butt;stroke-linejoin:miter;stroke-opacity:1" d="M 68.2989,267.475 77.3614,253.234 z" id="boundary" inkscape:connector-curvature="0" />
	<path style="fill:none;stroke:red;stroke-width:1px;stroke-linecap:butt;stroke-linejoin:miter;stroke-opacity:1" d="M 74.7721,370.087 89.013,360.142 z" id="boundary" inkscape:connector-curvature="0" />
	<path style="fill:none;stroke:red;stroke-width:1px;stroke-linecap:butt;stroke-linejoin:miter;stroke-opacity:1" d="M 74.7721,419.106 89.013,412.692 z" id="boundary" inkscape:connector-curvature="0" />
	<path style="fill:none;stroke:red;stroke-width:1px;stroke-linecap:butt;stroke-linejoin:miter;stroke-opacity:1" d="M 77.3614,253.234 87.7184,238.479 z" id="boundary" inkscape:connector-curvature="0" />
	<path style="fill:none;stroke:red;stroke-width:1px;stroke-linecap:butt;stroke-linejoin:miter;stroke-opacity:1" d="M 87.7184,238.479 100.017,223.54 z" id="boundary" inkscape:connector-curvature="0" />
	<path style="fill:none;stroke:red;stroke-width:1px;stroke-linecap:butt;stroke-linejoin:miter;stroke-opacity:1" d="M 89.013,360.142 103.254,347.784 z" id="boundary" inkscape:connector-curvature="0" />
	<path style="fill:none;stroke:red;stroke-width:1px;stroke-linecap:butt;stroke-linejoin:miter;stroke-opacity:1" d="M 89.013,412.692 103.254,406.807 z" id="boundary" inkscape:connector-curvature="0" />
	<path style="fill:none;stroke:red;stroke-width:1px;stroke-linecap:butt;stroke-linejoin:miter;stroke-opacity:1" d="M 100.017,223.54 113.611,210.67 z" id="boundary" inkscape:connector-curvature="0" />
	<path style="fill:none;stroke:red;stroke-width:1px;stroke-linecap:butt;stroke-linejoin:miter;stroke-opacity:1" d="M 103.254,347.784 117.495,334.661 z" id="boundary" inkscape:connector-curvature="0" />
	<path style="fill:none;stroke:red;stroke-width:1px;stroke-linecap:butt;stroke-linejoin:miter;stroke-opacity:1" d="M 103.254,406.807 117.495,403.453 z" id="boundary" inkscape:connector-curvature="0" />
	<path style="fill:none;stroke:red;stroke-width:1px;stroke-linecap:butt;stroke-linejoin:miter;stroke-opacity:1" d="M 113.611,210.67 127.852,202.667 z" id="boundary" inkscape:connector-curvature="0" />
	<path style="fill:none;stroke:red;stroke-width:1px;stroke-linecap:butt;stroke-linejoin:miter;stroke-opacity:1" d="M 117.495,334.661 131.736,323.127 z" id="boundary" inkscape:connector-curvature="0" />
	<path style="fill:none;stroke:red;stroke-width:1px;stroke-linecap:butt;stroke-linejoin:miter;stroke-opacity:1" d="M 117.495,403.453 131.736,402.394 z" id="boundary" inkscape:connector-curvature="0" />
	<path style="fill:none;stroke:red;stroke-width:1px;stroke-linecap:butt;stroke-linejoin:miter;stroke-opacity:1" d="M 127.852,202.667 142.093,202.196 z" id="boundary" inkscape:connector-curvature="0" />
	<path style="fill:none;stroke:red;stroke-width:1px;stroke-linecap:butt;stroke-linejoin:miter;stroke-opacity:1" d="M 131.736,323.127 145.977,314.947 z" id="boundary" inkscape:connector-curvature="0" />
	<path style="fill:none;stroke:red;stroke-width:1px;stroke-linecap:butt;stroke-linejoin:miter;stroke-opacity:1" d="M 131.736,402.394 145.977,402.394 z" id="boundary" inkscape:connector-curvature="0" />
	<path style="fill:none;stroke:red;stroke-width:1px;stroke-linecap:butt;stroke-linejoin:miter;stroke-opacity:1" d="M 142.093,202.196 156.334,199.96 z" id="boundary" inkscape:connector-curvature="0" />
	<path style="fill:none;stroke:red;stroke-width:1px;stroke-linecap:butt;stroke-linejoin:miter;stroke-opacity:1" d="M 145.977,314.947 160.218,310.887 z" id="boundary" inkscape:connector-curvature="0" />
	<path style="fill:none;stroke:red;stroke-width:1px;stroke-linecap:butt;stroke-linejoin:miter;stroke-opacity:1" d="M 145.977,402.394 160.218,402.394 z" id="boundary" inkscape:connector-curvature="0" />
	<path style="fill:none;stroke:red;stroke-width:1px;stroke-linecap:butt;stroke-linejoin:miter;stroke-opacity:1" d="M 156.334,199.96 170.575,194.605 z" id="boundary" inkscape:connector-curvature="0" />
	<path style="fill:none;stroke:red;stroke-width:1px;stroke-linecap:butt;stroke-linejoin:miter;stroke-opacity:1" d="M 160.218,310.887 174.459,311.24 z" id="boundary" inkscape:connector-curvature="0" />
	<path style="fill:none;stroke:red;stroke-width:1px;stroke-linecap:butt;stroke-linejoin:miter;stroke-opacity:1" d="M 160.218,402.394 174.459,402.747 z" id="boundary" inkscape:connector-curvature="0" />
	<path style="fill:none;stroke:red;stroke-width:1px;stroke-linecap:butt;stroke-linejoin:miter;stroke-opacity:1" d="M 170.575,194.605 184.816,188.367 z" id="boundary" inkscape:connector-curvature="0" />
	<path style="fill:none;stroke:red;stroke-width:1px;stroke-linecap:butt;stroke-linejoin:miter;stroke-opacity:1" d="M 174.459,311.24 188.7,315.006 z" id="boundary" inkscape:connector-curvature="0" />
	<path style="fill:none;stroke:red;stroke-width:1px;stroke-linecap:butt;stroke-linejoin:miter;stroke-opacity:1" d="M 174.459,402.747 188.7,403.688 z" id="boundary" inkscape:connector-curvature="0" />
	<path style="fill:none;stroke:red;stroke-width:1px;stroke-linecap:butt;stroke-linejoin:miter;stroke-opacity:1" d="M 184.816,188.367 199.057,181.188 z" id="boundary" inkscape:connector-curvature="0" />
	<path style="fill:none;stroke:red;stroke-width:1px;stroke-linecap:butt;stroke-linejoin:miter;stroke-opacity:1" d="M 188.7,315.006 202.941,320.773 z" id="boundary" inkscape:connector-curvature="0" />
	<path style="fill:none;stroke:red;stroke-width:1px;stroke-linecap:butt;stroke-linejoin:miter;stroke-opacity:1" d="M 188.7,403.688 202.941,404.748 z" id="boundary" inkscape:connector-curvature="0" />
	<path style="fill:none;stroke:red;stroke-width:1px;stroke-linecap:butt;stroke-linejoin:miter;stroke-opacity:1" d="M 199.057,181.188 213.298,173.126 z" id="boundary" inkscape:connector-curvature="0" />
	<path style="fill:none;stroke:red;stroke-width:1px;stroke-linecap:butt;stroke-linejoin:miter;stroke-opacity:1" d="M 202.941,320.773 217.182,327.776 z" id="boundary" inkscape:connector-curvature="0" />
	<path style="fill:none;stroke:red;stroke-width:1px;stroke-linecap:butt;stroke-linejoin:miter;stroke-opacity:1" d="M 202.941,404.748 217.182,405.983 z" id="boundary" inkscape:connector-curvature="0" />
	<path style="fill:none;stroke:red;stroke-width:1px;stroke-linecap:butt;stroke-linejoin:miter;stroke-opacity:1" d="M 213.298,173.126 227.539,164.181 z" id="boundary" inkscape:connector-curvature="0" />
	<path style="fill:none;stroke:red;stroke-width:1px;stroke-linecap:butt;stroke-linejoin:miter;stroke-opacity:1" d="M 217.182,327.776 229.481,334.749 z" id="boundary" inkscape:connector-curvature="0" />
	<path style="fill:none;stroke:red;stroke-width:1px;stroke-linecap:butt;stroke-linejoin:miter;stroke-opacity:1" d="M 217.182,405.983 231.423,407.455 z" id="boundary" inkscape:connector-curvature="0" />
	<path style="fill:none;stroke:red;stroke-width:1px;stroke-linecap:butt;stroke-linejoin:miter;stroke-opacity:1" d="M 227.539,164.181 241.78,154.589 z" id="boundary" inkscape:connector-curvature="0" />
	<path style="fill:none;stroke:red;stroke-width:1px;stroke-linecap:butt;stroke-linejoin:miter;stroke-opacity:1" d="M 222.037,234.092 227.539,250.274 z" id="boundary" inkscape:connector-curvature="0" />
	<path style="fill:none;stroke:red;stroke-width:1px;stroke-linecap:butt;stroke-linejoin:miter;stroke-opacity:1" d="M 222.037,234.092 220.004,218.897 z" id="boundary" inkscape:connector-curvature="0" />
	<path style="fill:none;stroke:red;stroke-width:1px;stroke-linecap:butt;stroke-linejoin:miter;stroke-opacity:1" d="M 230.128,188.838 244.369,182.777 z" id="boundary" inkscape:connector-curvature="0" />
	<path style="fill:none;stroke:red;stroke-width:1px;stroke-linecap:butt;stroke-linejoin:miter;stroke-opacity:1" d="M 230.128,188.838 222.164,201.616 z" id="boundary" inkscape:connector-curvature="0" />
	<path style="fill:none;stroke:red;stroke-width:1px;stroke-linecap:butt;stroke-linejoin:miter;stroke-opacity:1" d="M 227.539,250.274 235.307,264.7 z" id="boundary" inkscape:connector-curvature="0" />
	<path style="fill:none;stroke:red;stroke-width:1px;stroke-linecap:butt;stroke-linejoin:miter;stroke-opacity:1" d="M 231.423,407.455 245.664,408.985 z" id="boundary" inkscape:connector-curvature="0" />
	<path style="fill:none;stroke:red;stroke-width:1px;stroke-linecap:butt;stroke-linejoin:miter;stroke-opacity:1" d="M 235.307,264.7 246.958,278.697 z" id="boundary" inkscape:connector-curvature="0" />
	<path style="fill:none;stroke:red;stroke-width:1px;stroke-linecap:butt;stroke-linejoin:miter;stroke-opacity:1" d="M 241.78,154.589 256.021,144.409 z" id="boundary" inkscape:connector-curvature="0" />
	<path style="fill:none;stroke:red;stroke-width:1px;stroke-linecap:butt;stroke-linejoin:miter;stroke-opacity:1" d="M 244.369,182.777 258.61,182.247 z" id="boundary" inkscape:connector-curvature="0" />
	<path style="fill:none;stroke:red;stroke-width:1px;stroke-linecap:butt;stroke-linejoin:miter;stroke-opacity:1" d="M 245.664,408.985 259.905,410.75 z" id="boundary" inkscape:connector-curvature="0" />
	<path style="fill:none;stroke:red;stroke-width:1px;stroke-linecap:butt;stroke-linejoin:miter;stroke-opacity:1" d="M 246.958,278.697 261.199,289.29 z" id="boundary" inkscape:connector-curvature="0" />
	<path style="fill:none;stroke:red;stroke-width:1px;stroke-linecap:butt;stroke-linejoin:miter;stroke-opacity:1" d="M 256.021,144.409 270.262,133.64 z" id="boundary" inkscape:connector-curvature="0" />
	<path style="fill:none;stroke:red;stroke-width:1px;stroke-linecap:butt;stroke-linejoin:miter;stroke-opacity:1" d="M 258.61,182.247 272.851,186.425 z" id="boundary" inkscape:connector-curvature="0" />
	<path style="fill:none;stroke:red;stroke-width:1px;stroke-linecap:butt;stroke-linejoin:miter;stroke-opacity:1" d="M 254.985,240.824 263.788,258.925 z" id="boundary" inkscape:connector-curvature="0" />
	<path style="fill:none;stroke:red;stroke-width:1px;stroke-linecap:butt;stroke-linejoin:miter;stroke-opacity:1" d="M 254.985,240.824 256.725,228.077 z" id="boundary" inkscape:connector-curvature="0" />
	<path style="fill:none;stroke:red;stroke-width:1px;stroke-linecap:butt;stroke-linejoin:miter;stroke-opacity:1" d="M 259.905,410.75 274.145,412.457 z" id="boundary" inkscape:connector-curvature="0" />
	<path style="fill:none;stroke:red;stroke-width:1px;stroke-linecap:butt;stroke-linejoin:miter;stroke-opacity:1" d="M 261.199,289.29 275.44,295.175 z" id="boundary" inkscape:connector-curvature="0" />
	<path style="fill:none;stroke:red;stroke-width:1px;stroke-linecap:butt;stroke-linejoin:miter;stroke-opacity:1" d="M 263.788,220.969 273.498,224.382 z" id="boundary" inkscape:connector-curvature="0" />
	<path style="fill:none;stroke:red;stroke-width:1px;stroke-linecap:butt;stroke-linejoin:miter;stroke-opacity:1" d="M 263.788,220.969 256.725,228.077 z" id="boundary" inkscape:connector-curvature="0" />
	<path style="fill:none;stroke:red;stroke-width:1px;stroke-linecap:butt;stroke-linejoin:miter;stroke-opacity:1" d="M 263.788,258.925 274.145,253.77 z" id="boundary" inkscape:connector-curvature="0" />
	<path style="fill:none;stroke:red;stroke-width:1px;stroke-linecap:butt;stroke-linejoin:miter;stroke-opacity:1" d="M 270.262,133.64 284.503,122.635 z" id="boundary" inkscape:connector-curvature="0" />
	<path style="fill:none;stroke:red;stroke-width:1px;stroke-linecap:butt;stroke-linejoin:miter;stroke-opacity:1" d="M 272.851,186.425 284.503,198.489 z" id="boundary" inkscape:connector-curvature="0" />
	<path style="fill:none;stroke:red;stroke-width:1px;stroke-linecap:butt;stroke-linejoin:miter;stroke-opacity:1" d="M 274.145,412.457 288.386,414.457 z" id="boundary" inkscape:connector-curvature="0" />
	<path style="fill:none;stroke:red;stroke-width:1px;stroke-linecap:butt;stroke-linejoin:miter;stroke-opacity:1" d="M 275.44,295.175 289.681,295.645 z" id="boundary" inkscape:connector-curvature="0" />
	<path style="fill:none;stroke:red;stroke-width:1px;stroke-linecap:butt;stroke-linejoin:miter;stroke-opacity:1" d="M 273.498,224.382 277.382,237.328 z" id="boundary" inkscape:connector-curvature="0" />
	<path style="fill:none;stroke:red;stroke-width:1px;stroke-linecap:butt;stroke-linejoin:miter;stroke-opacity:1" d="M 274.145,253.77 277.382,237.328 z" id="boundary" inkscape:connector-curvature="0" />
	<path style="fill:none;stroke:red;stroke-width:1px;stroke-linecap:butt;stroke-linejoin:miter;stroke-opacity:1" d="M 284.503,122.635 298.744,111.219 z" id="boundary" inkscape:connector-curvature="0" />
	<path style="fill:none;stroke:red;stroke-width:1px;stroke-linecap:butt;stroke-linejoin:miter;stroke-opacity:1" d="M 284.503,198.489 292.27,212.083 z" id="boundary" inkscape:connector-curvature="0" />
	<path style="fill:none;stroke:red;stroke-width:1px;stroke-linecap:butt;stroke-linejoin:miter;stroke-opacity:1" d="M 288.386,414.457 302.627,416.458 z" id="boundary" inkscape:connector-curvature="0" />
	<path style="fill:none;stroke:red;stroke-width:1px;stroke-linecap:butt;stroke-linejoin:miter;stroke-opacity:1" d="M 289.681,295.645 301.333,289.668 z" id="boundary" inkscape:connector-curvature="0" />
	<path style="fill:none;stroke:red;stroke-width:1px;stroke-linecap:butt;stroke-linejoin:miter;stroke-opacity:1" d="M 292.27,212.083 298.096,226 z" id="boundary" inkscape:connector-curvature="0" />
	<path style="fill:none;stroke:red;stroke-width:1px;stroke-linecap:butt;stroke-linejoin:miter;stroke-opacity:1" d="M 298.744,111.219 312.984,99.9793 z" id="boundary" inkscape:connector-curvature="0" />
	<path style="fill:none;stroke:red;stroke-width:1px;stroke-linecap:butt;stroke-linejoin:miter;stroke-opacity:1" d="M 297.449,356.823 303.922,372.229 z" id="boundary" inkscape:connector-curvature="0" />
	<path style="fill:none;stroke:red;stroke-width:1px;stroke-linecap:butt;stroke-linejoin:miter;stroke-opacity:1" d="M 298.096,226 302.627,241.428 z" id="boundary" inkscape:connector-curvature="0" />
	<path style="fill:none;stroke:red;stroke-width:1px;stroke-linecap:butt;stroke-linejoin:miter;stroke-opacity:1" d="M 302.627,416.458 312.346,419.241 z" id="boundary" inkscape:connector-curvature="0" />
	<path style="fill:none;stroke:red;stroke-width:1px;stroke-linecap:butt;stroke-linejoin:miter;stroke-opacity:1" d="M 301.333,289.668 307.159,278.109 z" id="boundary" inkscape:connector-curvature="0" />
	<path style="fill:none;stroke:red;stroke-width:1px;stroke-linecap:butt;stroke-linejoin:miter;stroke-opacity:1" d="M 302.627,241.428 306.511,258.042 z" id="boundary" inkscape:connector-curvature="0" />
	<path style="fill:none;stroke:red;stroke-width:1px;stroke-linecap:butt;stroke-linejoin:miter;stroke-opacity:1" d="M 303.922,372.229 310.395,386.729 z" id="boundary" inkscape:connector-curvature="0" />
	<path style="fill:none;stroke:red;stroke-width:1px;stroke-linecap:butt;stroke-linejoin:miter;stroke-opacity:1" d="M 306.511,258.042 307.159,278.109 z" id="boundary" inkscape:connector-curvature="0" />
	<path style="fill:none;stroke:red;stroke-width:1px;stroke-linecap:butt;stroke-linejoin:miter;stroke-opacity:1" d="M 312.984,99.9793 327.225,88.7396 z" id="boundary" inkscape:connector-curvature="0" />
	<path style="fill:none;stroke:red;stroke-width:1px;stroke-linecap:butt;stroke-linejoin:miter;stroke-opacity:1" d="M 310.395,386.729 316.868,399.675 z" id="boundary" inkscape:connector-curvature="0" />
	<path style="fill:none;stroke:red;stroke-width:1px;stroke-linecap:butt;stroke-linejoin:miter;stroke-opacity:1" d="M 316.868,399.675 322.606,408.44 z" id="boundary" inkscape:connector-curvature="0" />
	<path style="fill:none;stroke:red;stroke-width:1px;stroke-linecap:butt;stroke-linejoin:miter;stroke-opacity:1" d="M 327.225,88.7396 341.466,77.6175 z" id="boundary" inkscape:connector-curvature="0" />
	<path style="fill:none;stroke:red;stroke-width:1px;stroke-linecap:butt;stroke-linejoin:miter;stroke-opacity:1" d="M 341.466,77.6175 355.707,66.9662 z" id="boundary" inkscape:connector-curvature="0" />
	<path style="fill:none;stroke:red;stroke-width:1px;stroke-linecap:butt;stroke-linejoin:miter;stroke-opacity:1" d="M 340.172,435.335 353.118,447.765 z" id="boundary" inkscape:connector-curvature="0" />
	<path style="fill:none;stroke:red;stroke-width:1px;stroke-linecap:butt;stroke-linejoin:miter;stroke-opacity:1" d="M 340.172,435.335 329.627,426.261 z" id="boundary" inkscape:connector-curvature="0" />
	<path style="fill:none;stroke:red;stroke-width:1px;stroke-linecap:butt;stroke-linejoin:miter;stroke-opacity:1" d="M 353.118,447.765 367.359,456.886 z" id="boundary" inkscape:connector-curvature="0" />
	<path style="fill:none;stroke:red;stroke-width:1px;stroke-linecap:butt;stroke-linejoin:miter;stroke-opacity:1" d="M 355.707,66.9662 369.948,56.8445 z" id="boundary" inkscape:connector-curvature="0" />
	<path style="fill:none;stroke:red;stroke-width:1px;stroke-linecap:butt;stroke-linejoin:miter;stroke-opacity:1" d="M 367.359,456.886 381.6,464.771 z" id="boundary" inkscape:connector-curvature="0" />
	<path style="fill:none;stroke:red;stroke-width:1px;stroke-linecap:butt;stroke-linejoin:miter;stroke-opacity:1" d="M 369.948,56.8445 384.189,47.3113 z" id="boundary" inkscape:connector-curvature="0" />
	<path style="fill:none;stroke:red;stroke-width:1px;stroke-linecap:butt;stroke-linejoin:miter;stroke-opacity:1" d="M 381.6,464.771 395.841,471.539 z" id="boundary" inkscape:connector-curvature="0" />
	<path style="fill:none;stroke:red;stroke-width:1px;stroke-linecap:butt;stroke-linejoin:miter;stroke-opacity:1" d="M 384.189,47.3113 398.43,38.602 z" id="boundary" inkscape:connector-curvature="0" />
	<path style="fill:none;stroke:red;stroke-width:1px;stroke-linecap:butt;stroke-linejoin:miter;stroke-opacity:1" d="M 395.841,471.539 410.082,477.482 z" id="boundary" inkscape:connector-curvature="0" />
	<path style="fill:none;stroke:red;stroke-width:1px;stroke-linecap:butt;stroke-linejoin:miter;stroke-opacity:1" d="M 398.43,38.602 412.671,30.54 z" id="boundary" inkscape:connector-curvature="0" />
	<path style="fill:none;stroke:red;stroke-width:1px;stroke-linecap:butt;stroke-linejoin:miter;stroke-opacity:1" d="M 410.082,477.482 424.323,482.426 z" id="boundary" inkscape:connector-curvature="0" />
	<path style="fill:none;stroke:red;stroke-width:1px;stroke-linecap:butt;stroke-linejoin:miter;stroke-opacity:1" d="M 412.671,30.54 426.912,23.596 z" id="boundary" inkscape:connector-curvature="0" />
	<path style="fill:none;stroke:red;stroke-width:1px;stroke-linecap:butt;stroke-linejoin:miter;stroke-opacity:1" d="M 424.323,482.426 438.564,486.78 z" id="boundary" inkscape:connector-curvature="0" />
	<path style="fill:none;stroke:red;stroke-width:1px;stroke-linecap:butt;stroke-linejoin:miter;stroke-opacity:1" d="M 426.912,23.596 441.153,17.5936 z" id="boundary" inkscape:connector-curvature="0" />
	<path style="fill:none;stroke:red;stroke-width:1px;stroke-linecap:butt;stroke-linejoin:miter;stroke-opacity:1" d="M 434.68,378.325 448.921,383.622 z" id="boundary" inkscape:connector-curvature="0" />
	<path style="fill:none;stroke:red;stroke-width:1px;stroke-linecap:butt;stroke-linejoin:miter;stroke-opacity:1" d="M 438.564,486.78 452.805,489.84 z" id="boundary" inkscape:connector-curvature="0" />
	<path style="fill:none;stroke:red;stroke-width:1px;stroke-linecap:butt;stroke-linejoin:miter;stroke-opacity:1" d="M 441.153,17.5936 455.394,12.6505 z" id="boundary" inkscape:connector-curvature="0" />
	<path style="fill:none;stroke:red;stroke-width:1px;stroke-linecap:butt;stroke-linejoin:miter;stroke-opacity:1" d="M 448.921,383.622 463.701,386.849 z" id="boundary" inkscape:connector-curvature="0" />
	<path style="fill:none;stroke:red;stroke-width:1px;stroke-linecap:butt;stroke-linejoin:miter;stroke-opacity:1" d="M 452.805,489.84 467.046,491.9 z" id="boundary" inkscape:connector-curvature="0" />
	<path style="fill:none;stroke:red;stroke-width:1px;stroke-linecap:butt;stroke-linejoin:miter;stroke-opacity:1" d="M 455.394,12.6505 469.635,8.82545 z" id="boundary" inkscape:connector-curvature="0" />
	<path style="fill:none;stroke:red;stroke-width:1px;stroke-linecap:butt;stroke-linejoin:miter;stroke-opacity:1" d="M 463.701,386.849 477.403,395.626 z" id="boundary" inkscape:connector-curvature="0" />
	<path style="fill:none;stroke:red;stroke-width:1px;stroke-linecap:butt;stroke-linejoin:miter;stroke-opacity:1" d="M 467.046,491.9 481.287,493.018 z" id="boundary" inkscape:connector-curvature="0" />
	<path style="fill:none;stroke:red;stroke-width:1px;stroke-linecap:butt;stroke-linejoin:miter;stroke-opacity:1" d="M 469.635,8.82545 483.876,5.76541 z" id="boundary" inkscape:connector-curvature="0" />
	<path style="fill:none;stroke:red;stroke-width:1px;stroke-linecap:butt;stroke-linejoin:miter;stroke-opacity:1" d="M 477.403,374.383 491.644,364.614 z" id="boundary" inkscape:connector-curvature="0" />
	<path style="fill:none;stroke:red;stroke-width:1px;stroke-linecap:butt;stroke-linejoin:miter;stroke-opacity:1" d="M 477.403,395.626 491.644,402.747 z" id="boundary" inkscape:connector-curvature="0" />
	<path style="fill:none;stroke:red;stroke-width:1px;stroke-linecap:butt;stroke-linejoin:miter;stroke-opacity:1" d="M 481.287,493.018 495.528,492.194 z" id="boundary" inkscape:connector-curvature="0" />
	<path style="fill:none;stroke:red;stroke-width:1px;stroke-linecap:butt;stroke-linejoin:miter;stroke-opacity:1" d="M 483.876,5.76541 498.117,4 z" id="boundary" inkscape:connector-curvature="0" />
	<path style="fill:none;stroke:red;stroke-width:1px;stroke-linecap:butt;stroke-linejoin:miter;stroke-opacity:1" d="M 491.644,364.614 505.885,355.199 z" id="boundary" inkscape:connector-curvature="0" />
	<path style="fill:none;stroke:red;stroke-width:1px;stroke-linecap:butt;stroke-linejoin:miter;stroke-opacity:1" d="M 491.644,402.747 505.885,411.28 z" id="boundary" inkscape:connector-curvature="0" />
	<path style="fill:none;stroke:red;stroke-width:1px;stroke-linecap:butt;stroke-linejoin:miter;stroke-opacity:1" d="M 495.528,492.194 509.769,489.605 z" id="boundary" inkscape:connector-curvature="0" />
	<path style="fill:none;stroke:red;stroke-width:1px;stroke-linecap:butt;stroke-linejoin:miter;stroke-opacity:1" d="M 498.117,4 511.063,8.72955 z" id="boundary" inkscape:connector-curvature="0" />
	<path style="fill:none;stroke:red;stroke-width:1px;stroke-linecap:butt;stroke-linejoin:miter;stroke-opacity:1" d="M 505.885,355.199 520.126,345.96 z" id="boundary" inkscape:connector-curvature="0" />
	<path style="fill:none;stroke:red;stroke-width:1px;stroke-linecap:butt;stroke-linejoin:miter;stroke-opacity:1" d="M 505.885,411.28 520.126,421.99 z" id="boundary" inkscape:connector-curvature="0" />
	<path style="fill:none;stroke:red;stroke-width:1px;stroke-linecap:butt;stroke-linejoin:miter;stroke-opacity:1" d="M 509.769,489.605 524.01,484.721 z" id="boundary" inkscape:connector-curvature="0" />
	<path style="fill:none;stroke:red;stroke-width:1px;stroke-linecap:butt;stroke-linejoin:miter;stroke-opacity:1" d="M 511.063,8.72955 516.889,30.996 z" id="boundary" inkscape:connector-curvature="0" />
	<path style="fill:none;stroke:red;stroke-width:1px;stroke-linecap:butt;stroke-linejoin:miter;stroke-opacity:1" d="M 516.889,30.996 529.188,42.7801 z" id="boundary" inkscape:connector-curvature="0" />
	<path style="fill:none;stroke:red;stroke-width:1px;stroke-linecap:butt;stroke-linejoin:miter;stroke-opacity:1" d="M 520.126,345.96 534.367,336.956 z" id="boundary" inkscape:connector-curvature="0" />
	<path style="fill:none;stroke:red;stroke-width:1px;stroke-linecap:butt;stroke-linejoin:miter;stroke-opacity:1" d="M 520.126,421.99 533.072,435.263 z" id="boundary" inkscape:connector-curvature="0" />
	<path style="fill:none;stroke:red;stroke-width:1px;stroke-linecap:butt;stroke-linejoin:miter;stroke-opacity:1" d="M 524.01,484.721 538.251,476.364 z" id="boundary" inkscape:connector-curvature="0" />
	<path style="fill:none;stroke:red;stroke-width:1px;stroke-linecap:butt;stroke-linejoin:miter;stroke-opacity:1" d="M 529.188,42.7801 543.429,51.0187 z" id="boundary" inkscape:connector-curvature="0" />
	<path style="fill:none;stroke:red;stroke-width:1px;stroke-linecap:butt;stroke-linejoin:miter;stroke-opacity:1" d="M 534.367,336.956 548.608,328.364 z" id="boundary" inkscape:connector-curvature="0" />
	<path style="fill:none;stroke:red;stroke-width:1px;stroke-linecap:butt;stroke-linejoin:miter;stroke-opacity:1" d="M 533.072,435.263 542.134,449.259 z" id="boundary" inkscape:connector-curvature="0" />
	<path style="fill:none;stroke:red;stroke-width:1px;stroke-linecap:butt;stroke-linejoin:miter;stroke-opacity:1" d="M 538.251,476.364 546.45,464.536 z" id="boundary" inkscape:connector-curvature="0" />
	<path style="fill:none;stroke:red;stroke-width:1px;stroke-linecap:butt;stroke-linejoin:miter;stroke-opacity:1" d="M 543.429,51.0187 557.67,56.0207 z" id="boundary" inkscape:connector-curvature="0" />
	<path style="fill:none;stroke:red;stroke-width:1px;stroke-linecap:butt;stroke-linejoin:miter;stroke-opacity:1" d="M 542.134,449.259 546.45,464.536 z" id="boundary" inkscape:connector-curvature="0" />
	<path style="fill:none;stroke:red;stroke-width:1px;stroke-linecap:butt;stroke-linejoin:miter;stroke-opacity:1" d="M 548.608,328.364 562.849,320.008 z" id="boundary" inkscape:connector-curvature="0" />
	<path style="fill:none;stroke:red;stroke-width:1px;stroke-linecap:butt;stroke-linejoin:miter;stroke-opacity:1" d="M 557.67,56.0207 571.911,59.1984 z" id="boundary" inkscape:connector-curvature="0" />
	<path style="fill:none;stroke:red;stroke-width:1px;stroke-linecap:butt;stroke-linejoin:miter;stroke-opacity:1" d="M 562.849,320.008 577.09,312.652 z" id="boundary" inkscape:connector-curvature="0" />
	<path style="fill:none;stroke:red;stroke-width:1px;stroke-linecap:butt;stroke-linejoin:miter;stroke-opacity:1" d="M 571.911,59.1984 586.152,61.2581 z" id="boundary" inkscape:connector-curvature="0" />
	<path style="fill:none;stroke:red;stroke-width:1px;stroke-linecap:butt;stroke-linejoin:miter;stroke-opacity:1" d="M 577.09,312.652 591.33,305.002 z" id="boundary" inkscape:connector-curvature="0" />
	<path style="fill:none;stroke:red;stroke-width:1px;stroke-linecap:butt;stroke-linejoin:miter;stroke-opacity:1" d="M 586.152,61.2581 600.393,62.4939 z" id="boundary" inkscape:connector-curvature="0" />
	<path style="fill:none;stroke:red;stroke-width:1px;stroke-linecap:butt;stroke-linejoin:miter;stroke-opacity:1" d="M 591.33,305.002 605.571,297.882 z" id="boundary" inkscape:connector-curvature="0" />
	<path style="fill:none;stroke:red;stroke-width:1px;stroke-linecap:butt;stroke-linejoin:miter;stroke-opacity:1" d="M 600.393,62.4939 614.634,63.3177 z" id="boundary" inkscape:connector-curvature="0" />
	<path style="fill:none;stroke:red;stroke-width:1px;stroke-linecap:butt;stroke-linejoin:miter;stroke-opacity:1" d="M 605.571,297.882 619.812,290.702 z" id="boundary" inkscape:connector-curvature="0" />
	<path style="fill:none;stroke:red;stroke-width:1px;stroke-linecap:butt;stroke-linejoin:miter;stroke-opacity:1" d="M 614.634,63.3177 628.875,64.2593 z" id="boundary" inkscape:connector-curvature="0" />
	<path style="fill:none;stroke:red;stroke-width:1px;stroke-linecap:butt;stroke-linejoin:miter;stroke-opacity:1" d="M 619.812,290.702 634.053,283.641 z" id="boundary" inkscape:connector-curvature="0" />
	<path style="fill:none;stroke:red;stroke-width:1px;stroke-linecap:butt;stroke-linejoin:miter;stroke-opacity:1" d="M 628.875,64.2593 643.116,65.0831 z" id="boundary" inkscape:connector-curvature="0" />
	<path style="fill:none;stroke:red;stroke-width:1px;stroke-linecap:butt;stroke-linejoin:miter;stroke-opacity:1" d="M 634.053,283.641 648.294,276.638 z" id="boundary" inkscape:connector-curvature="0" />
	<path style="fill:none;stroke:red;stroke-width:1px;stroke-linecap:butt;stroke-linejoin:miter;stroke-opacity:1" d="M 643.116,65.0831 657.357,66.3778 z" id="boundary" inkscape:connector-curvature="0" />
	<path style="fill:none;stroke:red;stroke-width:1px;stroke-linecap:butt;stroke-linejoin:miter;stroke-opacity:1" d="M 648.294,276.638 662.535,270.282 z" id="boundary" inkscape:connector-curvature="0" />
	<path style="fill:none;stroke:red;stroke-width:1px;stroke-linecap:butt;stroke-linejoin:miter;stroke-opacity:1" d="M 657.357,66.3778 671.598,68.2609 z" id="boundary" inkscape:connector-curvature="0" />
	<path style="fill:none;stroke:red;stroke-width:1px;stroke-linecap:butt;stroke-linejoin:miter;stroke-opacity:1" d="M 662.535,270.282 676.776,264.221 z" id="boundary" inkscape:connector-curvature="0" />
	<path style="fill:none;stroke:red;stroke-width:1px;stroke-linecap:butt;stroke-linejoin:miter;stroke-opacity:1" d="M 671.598,68.2609 685.839,71.262 z" id="boundary" inkscape:connector-curvature="0" />
	<path style="fill:none;stroke:red;stroke-width:1px;stroke-linecap:butt;stroke-linejoin:miter;stroke-opacity:1" d="M 676.776,264.221 691.017,258.984 z" id="boundary" inkscape:connector-curvature="0" />
	<path style="fill:none;stroke:red;stroke-width:1px;stroke-linecap:butt;stroke-linejoin:miter;stroke-opacity:1" d="M 685.839,71.262 700.08,75.7933 z" id="boundary" inkscape:connector-curvature="0" />
	<path style="fill:none;stroke:red;stroke-width:1px;stroke-linecap:butt;stroke-linejoin:miter;stroke-opacity:1" d="M 691.017,258.984 705.258,254.158 z" id="boundary" inkscape:connector-curvature="0" />
	<path style="fill:none;stroke:red;stroke-width:1px;stroke-linecap:butt;stroke-linejoin:miter;stroke-opacity:1" d="M 700.08,75.7933 714.321,82.6784 z" id="boundary" inkscape:connector-curvature="0" />
	<path style="fill:none;stroke:red;stroke-width:1px;stroke-linecap:butt;stroke-linejoin:miter;stroke-opacity:1" d="M 705.258,254.158 719.499,249.98 z" id="boundary" inkscape:connector-curvature="0" />
	<path style="fill:none;stroke:red;stroke-width:1px;stroke-linecap:butt;stroke-linejoin:miter;stroke-opacity:1" d="M 714.321,82.6784 728.562,92.7412 z" id="boundary" inkscape:connector-curvature="0" />
	<path style="fill:none;stroke:red;stroke-width:1px;stroke-linecap:butt;stroke-linejoin:miter;stroke-opacity:1" d="M 719.499,249.98 733.74,246.567 z" id="boundary" inkscape:connector-curvature="0" />
	<path style="fill:none;stroke:red;stroke-width:1px;stroke-linecap:butt;stroke-linejoin:miter;stroke-opacity:1" d="M 728.562,92.7412 742.802,105.923 z" id="boundary" inkscape:connector-curvature="0" />
	<path style="fill:none;stroke:red;stroke-width:1px;stroke-linecap:butt;stroke-linejoin:miter;stroke-opacity:1" d="M 733.74,246.567 747.981,243.86 z" id="boundary" inkscape:connector-curvature="0" />
	<path style="fill:none;stroke:red;stroke-width:1px;stroke-linecap:butt;stroke-linejoin:miter;stroke-opacity:1" d="M 742.802,105.923 756.396,119.97 z" id="boundary" inkscape:connector-curvature="0" />
	<path style="fill:none;stroke:red;stroke-width:1px;stroke-linecap:butt;stroke-linejoin:miter;stroke-opacity:1" d="M 747.981,243.86 762.222,242.565 z" id="boundary" inkscape:connector-curvature="0" />
	<path style="fill:none;stroke:red;stroke-width:1px;stroke-linecap:butt;stroke-linejoin:miter;stroke-opacity:1" d="M 756.396,119.97 768.695,134.189 z" id="boundary" inkscape:connector-curvature="0" />
	<path style="fill:none;stroke:red;stroke-width:1px;stroke-linecap:butt;stroke-linejoin:miter;stroke-opacity:1" d="M 762.222,242.565 776.463,243.389 z" id="boundary" inkscape:connector-curvature="0" />
	<path style="fill:none;stroke:red;stroke-width:1px;stroke-linecap:butt;stroke-linejoin:miter;stroke-opacity:1" d="M 768.695,134.189 779.7,147.837 z" id="boundary" inkscape:connector-curvature="0" />
	<path style="fill:none;stroke:red;stroke-width:1px;stroke-linecap:butt;stroke-linejoin:miter;stroke-opacity:1" d="M 776.463,243.389 789.716,243.197 z" id="boundary" inkscape:connector-curvature="0" />
	<path style="fill:none;stroke:red;stroke-width:1px;stroke-linecap:butt;stroke-linejoin:miter;stroke-opacity:1" d="M 779.7,147.837 790.704,162.239 z" id="boundary" inkscape:connector-curvature="0" />
	<path style="fill:none;stroke:red;stroke-width:1px;stroke-linecap:butt;stroke-linejoin:miter;stroke-opacity:1" d="M 788.115,327.717 784.856,319.879 z" id="boundary" inkscape:connector-curvature="0" />
	<path style="fill:none;stroke:red;stroke-width:1px;stroke-linecap:butt;stroke-linejoin:miter;stroke-opacity:1" d="M 788.115,327.717 796.196,322.579 z" id="boundary" inkscape:connector-curvature="0" />
	<path style="fill:none;stroke:red;stroke-width:1px;stroke-linecap:butt;stroke-linejoin:miter;stroke-opacity:1" d="M 790.704,162.239 801.708,177.451 z" id="boundary" inkscape:connector-curvature="0" />
	<path style="fill:none;stroke:red;stroke-width:1px;stroke-linecap:butt;stroke-linejoin:miter;stroke-opacity:1" d="M 786.388,295.371 789.409,273.362 z" id="boundary" inkscape:connector-curvature="0" />
	<path style="fill:none;stroke:red;stroke-width:1px;stroke-linecap:butt;stroke-linejoin:miter;stroke-opacity:1" d="M 786.388,295.371 785.936,309.078 z" id="boundary" inkscape:connector-curvature="0" />
	<path style="fill:none;stroke:red;stroke-width:1px;stroke-linecap:butt;stroke-linejoin:miter;stroke-opacity:1" d="M 789.409,273.362 791.336,265.338 z" id="boundary" inkscape:connector-curvature="0" />
	<path style="fill:none;stroke:red;stroke-width:1px;stroke-linecap:butt;stroke-linejoin:miter;stroke-opacity:1" d="M 801.708,177.451 814.007,192.663 z" id="boundary" inkscape:connector-curvature="0" />
	<path style="fill:none;stroke:red;stroke-width:1px;stroke-linecap:butt;stroke-linejoin:miter;stroke-opacity:1" d="M 804.298,312.223 817.891,298.176 z" id="boundary" inkscape:connector-curvature="0" />
	<path style="fill:none;stroke:red;stroke-width:1px;stroke-linecap:butt;stroke-linejoin:miter;stroke-opacity:1" d="M 804.298,312.223 796.196,322.579 z" id="boundary" inkscape:connector-curvature="0" />
	<path style="fill:none;stroke:red;stroke-width:1px;stroke-linecap:butt;stroke-linejoin:miter;stroke-opacity:1" d="M 814.007,192.663 828.248,196.959 z" id="boundary" inkscape:connector-curvature="0" />
	<path style="fill:none;stroke:red;stroke-width:1px;stroke-linecap:butt;stroke-linejoin:miter;stroke-opacity:1" d="M 817.891,298.176 831.485,284.388 z" id="boundary" inkscape:connector-curvature="0" />
	<path style="fill:none;stroke:red;stroke-width:1px;stroke-linecap:butt;stroke-linejoin:miter;stroke-opacity:1" d="M 828.248,196.959 842.489,199.019 z" id="boundary" inkscape:connector-curvature="0" />
	<path style="fill:none;stroke:red;stroke-width:1px;stroke-linecap:butt;stroke-linejoin:miter;stroke-opacity:1" d="M 831.485,284.388 845.078,271.165 z" id="boundary" inkscape:connector-curvature="0" />
	<path style="fill:none;stroke:red;stroke-width:1px;stroke-linecap:butt;stroke-linejoin:miter;stroke-opacity:1" d="M 842.489,199.019 856.73,201.49 z" id="boundary" inkscape:connector-curvature="0" />
	<path style="fill:none;stroke:red;stroke-width:1px;stroke-linecap:butt;stroke-linejoin:miter;stroke-opacity:1" d="M 845.078,271.165 859.319,262.338 z" id="boundary" inkscape:connector-curvature="0" />
	<path style="fill:none;stroke:red;stroke-width:1px;stroke-linecap:butt;stroke-linejoin:miter;stroke-opacity:1" d="M 856.73,201.49 870.971,204.197 z" id="boundary" inkscape:connector-curvature="0" />
	<path style="fill:none;stroke:red;stroke-width:1px;stroke-linecap:butt;stroke-linejoin:miter;stroke-opacity:1" d="M 859.319,262.338 873.56,263.397 z" id="boundary" inkscape:connector-curvature="0" />
	<path style="fill:none;stroke:red;stroke-width:1px;stroke-linecap:butt;stroke-linejoin:miter;stroke-opacity:1" d="M 870.971,204.197 885.212,207.14 z" id="boundary" inkscape:connector-curvature="0" />
	<path style="fill:none;stroke:red;stroke-width:1px;stroke-linecap:butt;stroke-linejoin:miter;stroke-opacity:1" d="M 873.56,263.397 887.801,265.575 z" id="boundary" inkscape:connector-curvature="0" />
	<path style="fill:none;stroke:red;stroke-width:1px;stroke-linecap:butt;stroke-linejoin:miter;stroke-opacity:1" d="M 885.212,207.14 899.453,210.494 z" id="boundary" inkscape:connector-curvature="0" />
	<path style="fill:none;stroke:red;stroke-width:1px;stroke-linecap:butt;stroke-linejoin:miter;stroke-opacity:1" d="M 887.801,265.575 902.042,267.811 z" id="boundary" inkscape:connector-curvature="0" />
	<path style="fill:none;stroke:red;stroke-width:1px;stroke-linecap:butt;stroke-linejoin:miter;stroke-opacity:1" d="M 899.453,210.494 913.694,214.437 z" id="boundary" inkscape:connector-curvature="0" />
	<path style="fill:none;stroke:red;stroke-width:1px;stroke-linecap:butt;stroke-linejoin:miter;stroke-opacity:1" d="M 902.042,267.811 916.283,269.988 z" id="boundary" inkscape:connector-curvature="0" />
	<path style="fill:none;stroke:red;stroke-width:1px;stroke-linecap:butt;stroke-linejoin:miter;stroke-opacity:1" d="M 913.694,214.437 927.935,218.85 z" id="boundary" inkscape:connector-curvature="0" />
	<path style="fill:none;stroke:red;stroke-width:1px;stroke-linecap:butt;stroke-linejoin:miter;stroke-opacity:1" d="M 916.283,269.988 930.524,272.224 z" id="boundary" inkscape:connector-curvature="0" />
	<path style="fill:none;stroke:red;stroke-width:1px;stroke-linecap:butt;stroke-linejoin:miter;stroke-opacity:1" d="M 927.935,218.85 942.176,224.205 z" id="boundary" inkscape:connector-curvature="0" />
	<path style="fill:none;stroke:red;stroke-width:1px;stroke-linecap:butt;stroke-linejoin:miter;stroke-opacity:1" d="M 930.524,272.224 944.765,274.461 z" id="boundary" inkscape:connector-curvature="0" />
	<path style="fill:none;stroke:red;stroke-width:1px;stroke-linecap:butt;stroke-linejoin:miter;stroke-opacity:1" d="M 942.176,224.205 956.417,230.973 z" id="boundary" inkscape:connector-curvature="0" />
	<path style="fill:none;stroke:red;stroke-width:1px;stroke-linecap:butt;stroke-linejoin:miter;stroke-opacity:1" d="M 944.765,274.461 959.006,276.638 z" id="boundary" inkscape:connector-curvature="0" />
	<path style="fill:none;stroke:red;stroke-width:1px;stroke-linecap:butt;stroke-linejoin:miter;stroke-opacity:1" d="M 956.417,230.973 970.658,241.389 z" id="boundary" inkscape:connector-curvature="0" />
	<path style="fill:none;stroke:red;stroke-width:1px;stroke-linecap:butt;stroke-linejoin:miter;stroke-opacity:1" d="M 959.006,276.638 973.247,278.874 z" id="boundary" inkscape:connector-curvature="0" />
	<path style="fill:none;stroke:red;stroke-width:1px;stroke-linecap:butt;stroke-linejoin:miter;stroke-opacity:1" d="M 970.658,241.389 983.604,255.669 z" id="boundary" inkscape:connector-curvature="0" />
	<path style="fill:none;stroke:red;stroke-width:1px;stroke-linecap:butt;stroke-linejoin:miter;stroke-opacity:1" d="M 973.247,278.874 984.66,281.538 z" id="boundary" inkscape:connector-curvature="0" />
	<path style="fill:none;stroke:red;stroke-width:1px;stroke-linecap:butt;stroke-linejoin:miter;stroke-opacity:1" d="M 983.604,255.669 991.14,265.338 z" id="boundary" inkscape:connector-curvature="0" />
	<path style="fill:none;stroke:red;stroke-width:1px;stroke-linecap:butt;stroke-linejoin:miter;stroke-opacity:1" d="M 9.40011,400.34 4,386.84 z" id="boundary" inkscape:connector-curvature="0" />
	<path style="fill:none;stroke:red;stroke-width:1px;stroke-linecap:butt;stroke-linejoin:miter;stroke-opacity:1" d="M 9.40011,400.34 19.6603,395.48 z" id="boundary" inkscape:connector-curvature="0" />
	<path style="fill:none;stroke:red;stroke-width:1px;stroke-linecap:butt;stroke-linejoin:miter;stroke-opacity:1" d="M 322.606,408.44 322.606,418.161 z" id="boundary" inkscape:connector-curvature="0" />
	<path style="fill:none;stroke:red;stroke-width:1px;stroke-linecap:butt;stroke-linejoin:miter;stroke-opacity:1" d="M 798.356,247.517 807.536,248.057 z" id="boundary" inkscape:connector-curvature="0" />
	<path style="fill:none;stroke:red;stroke-width:1px;stroke-linecap:butt;stroke-linejoin:miter;stroke-opacity:1" d="M 798.356,247.517 796.196,256.157 z" id="boundary" inkscape:connector-curvature="0" />
	<path style="fill:none;stroke:red;stroke-width:1px;stroke-linecap:butt;stroke-linejoin:miter;stroke-opacity:1" d="M 807.536,248.057 817.796,249.137 z" id="boundary" inkscape:connector-curvature="0" />
	<path style="fill:none;stroke:red;stroke-width:1px;stroke-linecap:butt;stroke-linejoin:miter;stroke-opacity:1" d="M 796.196,256.157 791.336,265.338 z" id="boundary" inkscape:connector-curvature="0" />
	<path style="fill:none;stroke:red;stroke-width:1px;stroke-linecap:butt;stroke-linejoin:miter;stroke-opacity:1" d="M 785.936,309.078 784.856,319.879 z" id="boundary" inkscape:connector-curvature="0" />
	<path style="fill:none;stroke:red;stroke-width:1px;stroke-linecap:butt;stroke-linejoin:miter;stroke-opacity:1" d="M 984.66,281.538 996,278.298 z" id="boundary" inkscape:connector-curvature="0" />
	<path style="fill:none;stroke:red;stroke-width:1px;stroke-linecap:butt;stroke-linejoin:miter;stroke-opacity:1" d="M 991.14,265.338 996,278.298 z" id="boundary" inkscape:connector-curvature="0" />
	<path style="fill:none;stroke:red;stroke-width:1px;stroke-linecap:butt;stroke-linejoin:miter;stroke-opacity:1" d="M 322.606,418.161 312.346,419.241 z" id="boundary" inkscape:connector-curvature="0" />
	<path style="fill:none;stroke:red;stroke-width:1px;stroke-linecap:butt;stroke-linejoin:miter;stroke-opacity:1" d="M 222.164,201.616 220.004,218.897 z" id="boundary" inkscape:connector-curvature="0" />
	<circle cx="13.277" cy="368.733" r="4" fill="#0" id="circle0"/>
	<circle cx="23.6341" cy="355.625" r="4" fill="#0" id="circle1"/>
	<circle cx="32.0492" cy="390.683" r="4" fill="#0" id="circle2"/>
	<circle cx="32.0492" cy="419.283" r="4" fill="#0" id="circle3"/>
	<circle cx="32.0492" cy="339.216" r="4" fill="#0" id="circle4"/>
	<circle cx="38.5224" cy="324.716" r="4" fill="#0" id="circle5"/>
	<circle cx="46.2902" cy="384.21" r="4" fill="#0" id="circle6"/>
	<circle cx="46.2902" cy="423.52" r="4" fill="#0" id="circle7"/>
	<circle cx="44.9955" cy="310.604" r="4" fill="#0" id="circle8"/>
	<circle cx="52.116" cy="296.342" r="4" fill="#0" id="circle9"/>
	<circle cx="60.5311" cy="377.443" r="4" fill="#0" id="circle10"/>
	<circle cx="60.5311" cy="423.343" r="4" fill="#0" id="circle11"/>
	<circle cx="59.8838" cy="282.101" r="4" fill="#0" id="circle12"/>
	<circle cx="68.2989" cy="267.475" r="4" fill="#0" id="circle13"/>
	<circle cx="74.7721" cy="370.087" r="4" fill="#0" id="circle14"/>
	<circle cx="74.7721" cy="419.106" r="4" fill="#0" id="circle15"/>
	<circle cx="77.3614" cy="253.234" r="4" fill="#0" id="circle16"/>
	<circle cx="87.7184" cy="238.479" r="4" fill="#0" id="circle17"/>
	<circle cx="89.013" cy="360.142" r="4" fill="#0" id="circle18"/>
	<circle cx="89.013" cy="412.692" r="4" fill="#0" id="circle19"/>
	<circle cx="100.017" cy="223.54" r="4" fill="#0" id="circle20"/>
	<circle cx="103.254" cy="347.784" r="4" fill="#0" id="circle21"/>
	<circle cx="103.254" cy="406.807" r="4" fill="#0" id="circle22"/>
	<circle cx="113.611" cy="210.67" r="4" fill="#0" id="circle23"/>
	<circle cx="117.495" cy="334.661" r="4" fill="#0" id="circle24"/>
	<circle cx="117.495" cy="403.453" r="4" fill="#0" id="circle25"/>
	<circle cx="127.852" cy="202.667" r="4" fill="#0" id="circle26"/>
	<circle cx="131.736" cy="323.127" r="4" fill="#0" id="circle27"/>
	<circle cx="131.736" cy="402.394" r="4" fill="#0" id="circle28"/>
	<circle cx="142.093" cy="202.196" r="4" fill="#0" id="circle29"/>
	<circle cx="145.977" cy="314.947" r="4" fill="#0" id="circle30"/>
	<circle cx="145.977" cy="402.394" r="4" fill="#0" id="circle31"/>
	<circle cx="156.334" cy="199.96" r="4" fill="#0" id="circle32"/>
	<circle cx="160.218" cy="310.887" r="4" fill="#0" id="circle33"/>
	<circle cx="160.218" cy="402.394" r="4" fill="#0" id="circle34"/>
	<circle cx="170.575" cy="194.605" r="4" fill="#0" id="circle35"/>
	<circle cx="174.459" cy="311.24" r="4" fill="#0" id="circle36"/>
	<circle cx="174.459" cy="402.747" r="4" fill="#0" id="circle37"/>
	<circle cx="184.816" cy="188.367" r="4" fill="#0" id="circle38"/>
	<circle cx="188.7" cy="315.006" r="4" fill="#0" id="circle39"/>
	<circle cx="188.7" cy="403.688" r="4" fill="#0" id="circle40"/>
	<circle cx="199.057" cy="181.188" r="4" fill="#0" id="circle41"/>
	<circle cx="202.941" cy="320.773" r="4" fill="#0" id="circle42"/>
	<circle cx="202.941" cy="404.748" r="4" fill="#0" id="circle43"/>
	<circle cx="213.298" cy="173.126" r="4" fill="#0" id="circle44"/>
	<circle cx="217.182" cy="327.776" r="4" fill="#0" id="circle45"/>
	<circle cx="217.182" cy="405.983" r="4" fill="#0" id="circle46"/>
	<circle cx="227.539" cy="164.181" r="4" fill="#0" id="circle47"/>
	<circle cx="222.037" cy="234.092" r="4" fill="#0" id="circle48"/>
	<circle cx="230.128" cy="188.838" r="4" fill="#0" id="circle49"/>
	<circle cx="227.539" cy="250.274" r="4" fill="#0" id="circle50"/>
	<circle cx="229.481" cy="334.749" r="4" fill="#0" id="circle51"/>
	<circle cx="231.423" cy="407.455" r="4" fill="#0" id="circle52"/>
	<circle cx="235.307" cy="264.7" r="4" fill="#0" id="circle53"/>
	<circle cx="241.78" cy="154.589" r="4" fill="#0" id="circle54"/>
	<circle cx="244.369" cy="182.777" r="4" fill="#0" id="circle55"/>
	<circle cx="245.664" cy="408.985" r="4" fill="#0" id="circle56"/>
	<circle cx="246.958" cy="278.697" r="4" fill="#0" id="circle57"/>
	<circle cx="256.021" cy="144.409" r="4" fill="#0" id="circle58"/>
	<circle cx="258.61" cy="182.247" r="4" fill="#0" id="circle59"/>
	<circle cx="254.985" cy="240.824" r="4" fill="#0" id="circle60"/>
	<circle cx="259.905" cy="410.75" r="4" fill="#0" id="circle61"/>
	<circle cx="261.199" cy="289.29" r="4" fill="#0" id="circle62"/>
	<circle cx="263.788" cy="220.969" r="4" fill="#0" id="circle63"/>
	<circle cx="263.788" cy="258.925" r="4" fill="#0" id="circle64"/>
	<circle cx="270.262" cy="133.64" r="4" fill="#0" id="circle65"/>
	<circle cx="272.851" cy="186.425" r="4" fill="#0" id="circle66"/>
	<circle cx="274.145" cy="412.457" r="4" fill="#0" id="circle67"/>
	<circle cx="275.44" cy="295.175" r="4" fill="#0" id="circle68"/>
	<circle cx="273.498" cy="224.382" r="4" fill="#0" id="circle69"/>
	<circle cx="274.145" cy="253.77" r="4" fill="#0" id="circle70"/>
	<circle cx="277.382" cy="237.328" r="4" fill="#0" id="circle71"/>
	<circle cx="284.503" cy="122.635" r="4" fill="#0" id="circle72"/>
	<circle cx="284.503" cy="198.489" r="4" fill="#0" id="circle73"/>
	<circle cx="288.386" cy="414.457" r="4" fill="#0" id="circle74"/>
	<circle cx="289.681" cy="295.645" r="4" fill="#0" id="circle75"/>
	<circle cx="292.27" cy="212.083" r="4" fill="#0" id="circle76"/>
	<circle cx="298.744" cy="111.219" r="4" fill="#0" id="circle77"/>
	<circle cx="297.449" cy="356.823" r="4" fill="#0" id="circle78"/>
	<circle cx="298.096" cy="226" r="4" fill="#0" id="circle79"/>
	<circle cx="302.627" cy="416.458" r="4" fill="#0" id="circle80"/>
	<circle cx="301.333" cy="289.668" r="4" fill="#0" id="circle81"/>
	<circle cx="302.627" cy="241.428" r="4" fill="#0" id="circle82"/>
	<circle cx="303.922" cy="372.229" r="4" fill="#0" id="circle83"/>
	<circle cx="306.511" cy="258.042" r="4" fill="#0" id="circle84"/>
	<circle cx="312.984" cy="99.9793" r="4" fill="#0" id="circle85"/>
	<circle cx="307.159" cy="278.109" r="4" fill="#0" id="circle86"/>
	<circle cx="310.395" cy="386.729" r="4" fill="#0" id="circle87"/>
	<circle cx="316.868" cy="399.675" r="4" fill="#0" id="circle88"/>
	<circle cx="327.225" cy="88.7396" r="4" fill="#0" id="circle89"/>
	<circle cx="341.466" cy="77.6175" r="4" fill="#0" id="circle90"/>
	<circle cx="340.172" cy="435.335" r="4" fill="#0" id="circle91"/>
	<circle cx="353.118" cy="447.765" r="4" fill="#0" id="circle92"/>
	<circle cx="355.707" cy="66.9662" r="4" fill="#0" id="circle93"/>
	<circle cx="367.359" cy="456.886" r="4" fill="#0" id="circle94"/>
	<circle cx="369.948" cy="56.8445" r="4" fill="#0" id="circle95"/>
	<circle cx="381.6" cy="464.771" r="4" fill="#0" id="circle96"/>
	<circle cx="384.189" cy="47.3113" r="4" fill="#0" id="circle97"/>
	<circle cx="395.841" cy="471.539" r="4" fill="#0" id="circle98"/>
	<circle cx="398.43" cy="38.602" r="4" fill="#0" id="circle99"/>
	<circle cx="410.082" cy="477.482" r="4" fill="#0" id="circle100"/>
	<circle cx="412.671" cy="30.54" r="4" fill="#0" id="circle101"/>
	<circle cx="424.323" cy="482.426" r="4" fill="#0" id="circle102"/>
	<circle cx="426.912" cy="23.596" r="4" fill="#0" id="circle103"/>
	<circle cx="434.68" cy="378.325" r="4" fill="#0" id="circle104"/>
	<circle cx="438.564" cy="486.78" r="4" fill="#0" id="circle105"/>
	<circle cx="441.153" cy="17.5936" r="4" fill="#0" id="circle106"/>
	<circle cx="448.921" cy="383.622" r="4" fill="#0" id="circle107"/>
	<circle cx="452.805" cy="489.84" r="4" fill="#0" id="circle108"/>
	<circle cx="455.394" cy="12.6505" r="4" fill="#0" id="circle109"/>
	<circle cx="463.701" cy="386.849" r="4" fill="#0" id="circle110"/>
	<circle cx="467.046" cy="491.9" r="4" fill="#0" id="circle111"/>
	<circle cx="469.635" cy="8.82545" r="4" fill="#0" id="circle112"/>
	<circle cx="477.403" cy="374.383" r="4" fill="#0" id="circle113"/>
	<circle cx="477.403" cy="395.626" r="4" fill="#0" id="circle114"/>
	<circle cx="481.287" cy="493.018" r="4" fill="#0" id="circle115"/>
	<circle cx="483.876" cy="5.76541" r="4" fill="#0" id="circle116"/>
	<circle cx="491.644" cy="364.614" r="4" fill="#0" id="circle117"/>
	<circle cx="491.644" cy="402.747" r="4" fill="#0" id="circle118"/>
	<circle cx="495.528" cy="492.194" r="4" fill="#0" id="circle119"/>
	<circle cx="498.117" cy="4" r="4" fill="#0" id="circle120"/>
	<circle cx="505.885" cy="355.199" r="4" fill="#0" id="circle121"/>
	<circle cx="505.885" cy="411.28" r="4" fill="#0" id="circle122"/>
	<circle cx="509.769" cy="489.605" r="4" fill="#0" id="circle123"/>
	<circle cx="511.063" cy="8.72955" r="4" fill="#0" id="circle124"/>
	<circle cx="516.889" cy="30.996" r="4" fill="#0" id="circle125"/>
	<circle cx="520.126" cy="345.96" r="4" fill="#0" id="circle126"/>
	<circle cx="520.126" cy="421.99" r="4" fill="#0" id="circle127"/>
	<circle cx="524.01" cy="484.721" r="4" fill="#0" id="circle128"/>
	<circle cx="529.188" cy="42.7801" r="4" fill="#0" id="circle129"/>
	<circle cx="534.367" cy="336.956" r="4" fill="#0" id="circle130"/>
	<circle cx="533.072" cy="435.263" r="4" fill="#0" id="circle131"/>
	<circle cx="538.251" cy="476.364" r="4" fill="#0" id="circle132"/>
	<circle cx="543.429" cy="51.0187" r="4" fill="#0" id="circle133"/>
	<circle cx="542.134" cy="449.259" r="4" fill="#0" id="circle134"/>
	<circle cx="548.608" cy="328.364" r="4" fill="#0" id="circle135"/>
	<circle cx="546.45" cy="464.536" r="4" fill="#0" id="circle136"/>
	<circle cx="557.67" cy="56.0207" r="4" fill="#0" id="circle137"/>
	<circle cx="562.849" cy="320.008" r="4" fill="#0" id="circle138"/>
	<circle cx="571.911" cy="59.1984" r="4" fill="#0" id="circle139"/>
	<circle cx="577.09" cy="312.652" r="4" fill="#0" id="circle140"/>
	<circle cx="586.152" cy="61.2581" r="4" fill="#0" id="circle141"/>
	<circle cx="591.33" cy="305.002" r="4" fill="#0" id="circle142"/>
	<circle cx="600.393" cy="62.4939" r="4" fill="#0" id="circle143"/>
	<circle cx="605.571" cy="297.882" r="4" fill="#0" id="circle144"/>
	<circle cx="614.634" cy="63.3177" r="4" fill="#0" id="circle145"/>
	<circle cx="619.812" cy="290.702" r="4" fill="#0" id="circle146"/>
	<circle cx="628.875" cy="64.2593" r="4" fill="#0" id="circle147"/>
	<circle cx="634.053" cy="283.641" r="4" fill="#0" id="circle148"/>
	<circle cx="643.116" cy="65.0831" r="4" fill="#0" id="circle149"/>
	<circle cx="648.294" cy="276.638" r="4" fill="#0" id="circle150"/>
	<circle cx="657.357" cy="66.3778" r="4" fill="#0" id="circle151"/>
	<circle cx="662.535" cy="270.282" r="4" fill="#0" id="circle152"/>
	<circle cx="671.598" cy="68.2609" r="4" fill="#0" id="circle153"/>
	<circle cx="676.776" cy="264.221" r="4" fill="#0" id="circle154"/>
	<circle cx="685.839" cy="71.262" r="4" fill="#0" id="circle155"/>
	<circle cx="691.017" cy="258.984" r="4" fill="#0" id="circle156"/>
	<circle cx="700.08" cy="75.7933" r="4" fill="#0" id="circle157"/>
	<circle cx="705.258" cy="254.158" r="4" fill="#0" id="circle158"/>
	<circle cx="714.321" cy="82.6784" r="4" fill="#0" id="circle159"/>
	<circle cx="719.499" cy="249.98" r="4" fill="#0" id="circle160"/>
	<circle cx="728.562" cy="92.7412" r="4" fill="#0" id="circle161"/>
	<circle cx="733.74" cy="246.567" r="4" fill="#0" id="circle162"/>
	<circle cx="742.802" cy="105.923" r="4" fill="#0" id="circle163"/>
	<circle cx="747.981" cy="243.86" r="4" fill="#0" id="circle164"/>
	<circle cx="756.396" cy="119.97" r="4" fill="#0" id="circle165"/>
	<circle cx="762.222" cy="242.565" r="4" fill="#0" id="circle166"/>
	<circle cx="768.695" cy="134.189" r="4" fill="#0" id="circle167"/>
	<circle cx="776.463" cy="243.389" r="4" fill="#0" id="circle168"/>
	<circle cx="779.7" cy="147.837" r="4" fill="#0" id="circle169"/>
	<circle cx="788.115" cy="327.717" r="4" fill="#0" id="circle170"/>
	<circle cx="790.704" cy="162.239" r="4" fill="#0" id="circle171"/>
	<circle cx="786.388" cy="295.371" r="4" fill="#0" id="circle172"/>
	<circle cx="789.409" cy="273.362" r="4" fill="#0" id="circle173"/>
	<circle cx="801.708" cy="177.451" r="4" fill="#0" id="circle174"/>
	<circle cx="804.298" cy="312.223" r="4" fill="#0" id="circle175"/>
	<circle cx="814.007" cy="192.663" r="4" fill="#0" id="circle176"/>
	<circle cx="817.891" cy="298.176" r="4" fill="#0" id="circle177"/>
	<circle cx="828.248" cy="196.959" r="4" fill="#0" id="circle178"/>
	<circle cx="831.485" cy="284.388" r="4" fill="#0" id="circle179"/>
	<circle cx="842.489" cy="199.019" r="4" fill="#0" id="circle180"/>
	<circle cx="845.078" cy="271.165" r="4" fill="#0" id="circle181"/>
	<circle cx="856.73" cy="201.49" r="4" fill="#0" id="circle182"/>
	<circle cx="859.319" cy="262.338" r="4" fill="#0" id="circle183"/>
	<circle cx="870.971" cy="204.197" r="4" fill="#0" id="circle184"/>
	<circle cx="873.56" cy="263.397" r="4" fill="#0" id="circle185"/>
	<circle cx="885.212" cy="207.14" r="4" fill="#0" id="circle186"/>
	<circle cx="887.801" cy="265.575" r="4" fill="#0" id="circle187"/>
	<circle cx="899.453" cy="210.494" r="4" fill="#0" id="circle188"/>
	<circle cx="902.042" cy="267.811" r="4" fill="#0" id="circle189"/>
	<circle cx="913.694" cy="214.437" r="4" fill="#0" id="circle190"/>
	<circle cx="916.283" cy="269.988" r="4" fill="#0" id="circle191"/>
	<circle cx="927.935" cy="218.85" r="4" fill="#0" id="circle192"/>
	<circle cx="930.524" cy="272.224" r="4" fill="#0" id="circle193"/>
	<circle cx="942.176" cy="224.205" r="4" fill="#0" id="circle194"/>
	<circle cx="944.765" cy="274.461" r="4" fill="#0" id="circle195"/>
	<circle cx="956.417" cy="230.973" r="4" fill="#0" id="circle196"/>
	<circle cx="959.006" cy="276.638" r="4" fill="#0" id="circle197"/>
	<circle cx="970.658" cy="241.389" r="4" fill="#0" id="circle198"/>
	<circle cx="973.247" cy="278.874" r="4" fill="#0" id="circle199"/>
	<circle cx="983.604" cy="255.669" r="4" fill="#0" id="circle200"/>
	<circle cx="9.40011" cy="400.34" r="4" fill="#0" id="circle201"/>
	<circle cx="4" cy="386.84" r="4" fill="#0" id="circle202"/>
	<circle cx="17.5003" cy="411.681" r="4" fill="#0" id="circle203"/>
	<circle cx="322.606" cy="408.44" r="4" fill="#0" id="circle204"/>
	<circle cx="798.356" cy="247.517" r="4" fill="#0" id="circle205"/>
	<circle cx="807.536" cy="248.057" r="4" fill="#0" id="circle206"/>
	<circle cx="796.196" cy="256.157" r="4" fill="#0" id="circle207"/>
	<circle cx="789.716" cy="243.197" r="4" fill="#0" id="circle208"/>
	<circle cx="791.336" cy="265.338" r="4" fill="#0" id="circle209"/>
	<circle cx="785.936" cy="309.078" r="4" fill="#0" id="circle210"/>
	<circle cx="784.856" cy="319.879" r="4" fill="#0" id="circle211"/>
	<circle cx="796.196" cy="322.579" r="4" fill="#0" id="circle212"/>
	<circle cx="984.66" cy="281.538" r="4" fill="#0" id="circle213"/>
	<circle cx="991.14" cy="265.338" r="4" fill="#0" id="circle214"/>
	<circle cx="329.627" cy="426.261" r="4" fill="#0" id="circle215"/>
	<circle cx="322.606" cy="418.161" r="4" fill="#0" id="circle216"/>
	<circle cx="312.346" cy="419.241" r="4" fill="#0" id="circle217"/>
	<circle cx="19.6603" cy="395.48" r="4" fill="#0" id="circle218"/>
	<circle cx="256.725" cy="228.077" r="4" fill="#0" id="circle219"/>
	<circle cx="817.796" cy="249.137" r="4" fill="#0" id="circle220"/>
	<circle cx="996" cy="278.298" r="4" fill="#0" id="circle221"/>
	<circle cx="222.164" cy="201.616" r="4" fill="#0" id="circle222"/>
	<circle cx="220.004" cy="218.897" r="4" fill="#0" id="circle223"/>
	</g>
</svg>