<?xml version="1.0" encoding="UTF-8" standalone="no"?>
<!-- Created with CurveBenchmark -->
<svg
	xmlns:dc="http://purl.org/dc/elements/1.1/"
	xmlns:cc="http://creativecommons.org/ns#"
	xmlns:rdf="http://www.w3.org/1999/02/22-rdf-syntax-ns#"
	xmlns:svg="http://www.w3.org/2000/svg"
	xmlns="http://www.w3.org/2000/svg"
	xmlns:sodipodi="http://sodipodi.sourceforge.net/DTD/sodipodi-0.dtd"
	xmlns:inkscape="http://www.inkscape.org/namespaces/inkscape"
	width="1000"
	height="1000"
	id="svg2"
	version="1.1"
	sodipodi:docname="multiple-curves/discur-mc28.txt">
<defs
	id="defs4" />
<metadata
	id="metadata7">
	<rdf:RDF>
		<cc:Work
			rdf:about="">
			<dc:format>image/svg+xml</dc:format>
			<dc:type
				rdf:resource="http://purl.org/dc/dcmitype/StillImage" />
			<dc:title></dc:title>
		</cc:Work>
	</rdf:RDF>
</metadata>
<g
	inkscape:label="Layer 1"
	inkscape:groupmode="layer"
	id="layer1">
	<path style="fill:none;stroke:red;stroke-width:1px;stroke-linecap:butt;stroke-linejoin:miter;stroke-opacity:1" d="M 41.7493,4 25.1484,58.3612 z" id="boundary" inkscape:connector-curvature="0" />
	<path style="fill:none;stroke:red;stroke-width:1px;stroke-linecap:butt;stroke-linejoin:miter;stroke-opacity:1" d="M 41.7493,4 82.5229,62.8867 z" id="boundary" inkscape:connector-curvature="0" />
	<path style="fill:none;stroke:red;stroke-width:1px;stroke-linecap:butt;stroke-linejoin:miter;stroke-opacity:1" d="M 25.1484,58.3612 5.51218,109.698 z" id="boundary" inkscape:connector-curvature="0" />
	<path style="fill:none;stroke:red;stroke-width:1px;stroke-linecap:butt;stroke-linejoin:miter;stroke-opacity:1" d="M 5.51218,109.698 77.9864,114.223 z" id="boundary" inkscape:connector-curvature="0" />
	<path style="fill:none;stroke:red;stroke-width:1px;stroke-linecap:butt;stroke-linejoin:miter;stroke-opacity:1" d="M 4,188.21 10.0487,224.447 z" id="boundary" inkscape:connector-curvature="0" />
	<path style="fill:none;stroke:red;stroke-width:1px;stroke-linecap:butt;stroke-linejoin:miter;stroke-opacity:1" d="M 4,188.21 65.911,179.148 z" id="boundary" inkscape:connector-curvature="0" />
	<path style="fill:none;stroke:red;stroke-width:1px;stroke-linecap:butt;stroke-linejoin:miter;stroke-opacity:1" d="M 10.0487,224.447 74.973,224.447 z" id="boundary" inkscape:connector-curvature="0" />
	<path style="fill:none;stroke:red;stroke-width:1px;stroke-linecap:butt;stroke-linejoin:miter;stroke-opacity:1" d="M 74.973,224.447 65.911,179.148 z" id="boundary" inkscape:connector-curvature="0" />
	<path style="fill:none;stroke:red;stroke-width:1px;stroke-linecap:butt;stroke-linejoin:miter;stroke-opacity:1" d="M 77.9864,114.223 82.5229,62.8867 z" id="boundary" inkscape:connector-curvature="0" />
	<path style="fill:none;stroke:red;stroke-width:1px;stroke-linecap:butt;stroke-linejoin:miter;stroke-opacity:1" d="M 395.069,35.7116 358.832,97.6116 z" id="boundary" inkscape:connector-curvature="0" />
	<path style="fill:none;stroke:red;stroke-width:1px;stroke-linecap:butt;stroke-linejoin:miter;stroke-opacity:1" d="M 395.069,35.7116 414.694,85.5362 z" id="boundary" inkscape:connector-curvature="0" />
	<path style="fill:none;stroke:red;stroke-width:1px;stroke-linecap:butt;stroke-linejoin:miter;stroke-opacity:1" d="M 358.832,97.6116 414.694,85.5362 z" id="boundary" inkscape:connector-curvature="0" />
	<path style="fill:none;stroke:red;stroke-width:1px;stroke-linecap:butt;stroke-linejoin:miter;stroke-opacity:1" d="M 361.845,177.636 360.344,248.598 z" id="boundary" inkscape:connector-curvature="0" />
	<path style="fill:none;stroke:red;stroke-width:1px;stroke-linecap:butt;stroke-linejoin:miter;stroke-opacity:1" d="M 361.845,177.636 441.869,148.948 z" id="boundary" inkscape:connector-curvature="0" />
	<path style="fill:none;stroke:red;stroke-width:1px;stroke-linecap:butt;stroke-linejoin:miter;stroke-opacity:1" d="M 360.344,248.598 352.794,328.622 z" id="boundary" inkscape:connector-curvature="0" />
	<path style="fill:none;stroke:red;stroke-width:1px;stroke-linecap:butt;stroke-linejoin:miter;stroke-opacity:1" d="M 352.794,328.622 354.296,417.708 z" id="boundary" inkscape:connector-curvature="0" />
	<path style="fill:none;stroke:red;stroke-width:1px;stroke-linecap:butt;stroke-linejoin:miter;stroke-opacity:1" d="M 354.296,417.708 352.794,484.144 z" id="boundary" inkscape:connector-curvature="0" />
	<path style="fill:none;stroke:red;stroke-width:1px;stroke-linecap:butt;stroke-linejoin:miter;stroke-opacity:1" d="M 352.794,484.144 352.794,508.306 z" id="boundary" inkscape:connector-curvature="0" />
	<path style="fill:none;stroke:red;stroke-width:1px;stroke-linecap:butt;stroke-linejoin:miter;stroke-opacity:1" d="M 352.794,508.306 357.32,536.993 z" id="boundary" inkscape:connector-curvature="0" />
	<path style="fill:none;stroke:red;stroke-width:1px;stroke-linecap:butt;stroke-linejoin:miter;stroke-opacity:1" d="M 357.32,536.993 413.182,535.481 z" id="boundary" inkscape:connector-curvature="0" />
	<path style="fill:none;stroke:red;stroke-width:1px;stroke-linecap:butt;stroke-linejoin:miter;stroke-opacity:1" d="M 413.182,535.481 432.818,515.856 z" id="boundary" inkscape:connector-curvature="0" />
	<path style="fill:none;stroke:red;stroke-width:1px;stroke-linecap:butt;stroke-linejoin:miter;stroke-opacity:1" d="M 432.818,515.856 434.32,472.069 z" id="boundary" inkscape:connector-curvature="0" />
	<path style="fill:none;stroke:red;stroke-width:1px;stroke-linecap:butt;stroke-linejoin:miter;stroke-opacity:1" d="M 434.32,472.069 437.344,390.533 z" id="boundary" inkscape:connector-curvature="0" />
	<path style="fill:none;stroke:red;stroke-width:1px;stroke-linecap:butt;stroke-linejoin:miter;stroke-opacity:1" d="M 437.344,390.533 446.406,318.058 z" id="boundary" inkscape:connector-curvature="0" />
	<path style="fill:none;stroke:red;stroke-width:1px;stroke-linecap:butt;stroke-linejoin:miter;stroke-opacity:1" d="M 446.406,318.058 447.907,233.509 z" id="boundary" inkscape:connector-curvature="0" />
	<path style="fill:none;stroke:red;stroke-width:1px;stroke-linecap:butt;stroke-linejoin:miter;stroke-opacity:1" d="M 447.907,233.509 441.869,148.948 z" id="boundary" inkscape:connector-curvature="0" />
	<path style="fill:none;stroke:red;stroke-width:1px;stroke-linecap:butt;stroke-linejoin:miter;stroke-opacity:1" d="M 790.653,248.598 799.715,268.234 z" id="boundary" inkscape:connector-curvature="0" />
	<path style="fill:none;stroke:red;stroke-width:1px;stroke-linecap:butt;stroke-linejoin:miter;stroke-opacity:1" d="M 790.653,248.598 869.176,239.547 z" id="boundary" inkscape:connector-curvature="0" />
	<path style="fill:none;stroke:red;stroke-width:1px;stroke-linecap:butt;stroke-linejoin:miter;stroke-opacity:1" d="M 799.715,268.234 840.488,289.371 z" id="boundary" inkscape:connector-curvature="0" />
	<path style="fill:none;stroke:red;stroke-width:1px;stroke-linecap:butt;stroke-linejoin:miter;stroke-opacity:1" d="M 840.488,289.371 869.176,295.409 z" id="boundary" inkscape:connector-curvature="0" />
	<path style="fill:none;stroke:red;stroke-width:1px;stroke-linecap:butt;stroke-linejoin:miter;stroke-opacity:1" d="M 869.176,295.409 893.326,304.471 z" id="boundary" inkscape:connector-curvature="0" />
	<path style="fill:none;stroke:red;stroke-width:1px;stroke-linecap:butt;stroke-linejoin:miter;stroke-opacity:1" d="M 893.326,304.471 899.364,343.721 z" id="boundary" inkscape:connector-curvature="0" />
	<path style="fill:none;stroke:red;stroke-width:1px;stroke-linecap:butt;stroke-linejoin:miter;stroke-opacity:1" d="M 899.364,343.721 890.313,360.333 z" id="boundary" inkscape:connector-curvature="0" />
	<path style="fill:none;stroke:red;stroke-width:1px;stroke-linecap:butt;stroke-linejoin:miter;stroke-opacity:1" d="M 890.313,360.333 872.189,378.457 z" id="boundary" inkscape:connector-curvature="0" />
	<path style="fill:none;stroke:red;stroke-width:1px;stroke-linecap:butt;stroke-linejoin:miter;stroke-opacity:1" d="M 872.189,378.457 841.99,375.433 z" id="boundary" inkscape:connector-curvature="0" />
	<path style="fill:none;stroke:red;stroke-width:1px;stroke-linecap:butt;stroke-linejoin:miter;stroke-opacity:1" d="M 841.99,375.433 811.79,379.958 z" id="boundary" inkscape:connector-curvature="0" />
	<path style="fill:none;stroke:red;stroke-width:1px;stroke-linecap:butt;stroke-linejoin:miter;stroke-opacity:1" d="M 811.79,379.958 789.152,423.745 z" id="boundary" inkscape:connector-curvature="0" />
	<path style="fill:none;stroke:red;stroke-width:1px;stroke-linecap:butt;stroke-linejoin:miter;stroke-opacity:1" d="M 789.152,423.745 861.626,467.532 z" id="boundary" inkscape:connector-curvature="0" />
	<path style="fill:none;stroke:red;stroke-width:1px;stroke-linecap:butt;stroke-linejoin:miter;stroke-opacity:1" d="M 861.626,467.532 938.626,429.794 z" id="boundary" inkscape:connector-curvature="0" />
	<path style="fill:none;stroke:red;stroke-width:1px;stroke-linecap:butt;stroke-linejoin:miter;stroke-opacity:1" d="M 938.626,429.794 996,392.045 z" id="boundary" inkscape:connector-curvature="0" />
	<path style="fill:none;stroke:red;stroke-width:1px;stroke-linecap:butt;stroke-linejoin:miter;stroke-opacity:1" d="M 996,392.045 983.925,334.67 z" id="boundary" inkscape:connector-curvature="0" />
	<path style="fill:none;stroke:red;stroke-width:1px;stroke-linecap:butt;stroke-linejoin:miter;stroke-opacity:1" d="M 983.925,334.67 958.251,281.821 z" id="boundary" inkscape:connector-curvature="0" />
	<path style="fill:none;stroke:red;stroke-width:1px;stroke-linecap:butt;stroke-linejoin:miter;stroke-opacity:1" d="M 958.251,281.821 915.976,245.584 z" id="boundary" inkscape:connector-curvature="0" />
	<path style="fill:none;stroke:red;stroke-width:1px;stroke-linecap:butt;stroke-linejoin:miter;stroke-opacity:1" d="M 915.976,245.584 869.176,239.547 z" id="boundary" inkscape:connector-curvature="0" />
	<circle cx="41.7493" cy="4" r="4" fill="#0" id="circle0"/>
	<circle cx="25.1484" cy="58.3612" r="4" fill="#0" id="circle1"/>
	<circle cx="5.51218" cy="109.698" r="4" fill="#0" id="circle2"/>
	<circle cx="4" cy="188.21" r="4" fill="#0" id="circle3"/>
	<circle cx="10.0487" cy="224.447" r="4" fill="#0" id="circle4"/>
	<circle cx="74.973" cy="224.447" r="4" fill="#0" id="circle5"/>
	<circle cx="65.911" cy="179.148" r="4" fill="#0" id="circle6"/>
	<circle cx="77.9864" cy="114.223" r="4" fill="#0" id="circle7"/>
	<circle cx="82.5229" cy="62.8867" r="4" fill="#0" id="circle8"/>
	<circle cx="395.069" cy="35.7116" r="4" fill="#0" id="circle9"/>
	<circle cx="358.832" cy="97.6116" r="4" fill="#0" id="circle10"/>
	<circle cx="361.845" cy="177.636" r="4" fill="#0" id="circle11"/>
	<circle cx="360.344" cy="248.598" r="4" fill="#0" id="circle12"/>
	<circle cx="352.794" cy="328.622" r="4" fill="#0" id="circle13"/>
	<circle cx="354.296" cy="417.708" r="4" fill="#0" id="circle14"/>
	<circle cx="352.794" cy="484.144" r="4" fill="#0" id="circle15"/>
	<circle cx="352.794" cy="508.306" r="4" fill="#0" id="circle16"/>
	<circle cx="357.32" cy="536.993" r="4" fill="#0" id="circle17"/>
	<circle cx="413.182" cy="535.481" r="4" fill="#0" id="circle18"/>
	<circle cx="432.818" cy="515.856" r="4" fill="#0" id="circle19"/>
	<circle cx="434.32" cy="472.069" r="4" fill="#0" id="circle20"/>
	<circle cx="437.344" cy="390.533" r="4" fill="#0" id="circle21"/>
	<circle cx="446.406" cy="318.058" r="4" fill="#0" id="circle22"/>
	<circle cx="447.907" cy="233.509" r="4" fill="#0" id="circle23"/>
	<circle cx="441.869" cy="148.948" r="4" fill="#0" id="circle24"/>
	<circle cx="414.694" cy="85.5362" r="4" fill="#0" id="circle25"/>
	<circle cx="790.653" cy="248.598" r="4" fill="#0" id="circle26"/>
	<circle cx="799.715" cy="268.234" r="4" fill="#0" id="circle27"/>
	<circle cx="840.488" cy="289.371" r="4" fill="#0" id="circle28"/>
	<circle cx="869.176" cy="295.409" r="4" fill="#0" id="circle29"/>
	<circle cx="893.326" cy="304.471" r="4" fill="#0" id="circle30"/>
	<circle cx="899.364" cy="343.721" r="4" fill="#0" id="circle31"/>
	<circle cx="890.313" cy="360.333" r="4" fill="#0" id="circle32"/>
	<circle cx="872.189" cy="378.457" r="4" fill="#0" id="circle33"/>
	<circle cx="841.99" cy="375.433" r="4" fill="#0" id="circle34"/>
	<circle cx="811.79" cy="379.958" r="4" fill="#0" id="circle35"/>
	<circle cx="789.152" cy="423.745" r="4" fill="#0" id="circle36"/>
	<circle cx="861.626" cy="467.532" r="4" fill="#0" id="circle37"/>
	<circle cx="938.626" cy="429.794" r="4" fill="#0" id="circle38"/>
	<circle cx="996" cy="392.045" r="4" fill="#0" id="circle39"/>
	<circle cx="983.925" cy="334.67" r="4" fill="#0" id="circle40"/>
	<circle cx="958.251" cy="281.821" r="4" fill="#0" id="circle41"/>
	<circle cx="915.976" cy="245.584" r="4" fill="#0" id="circle42"/>
	<circle cx="869.176" cy="239.547" r="4" fill="#0" id="circle43"/>
	</g>
</svg>