<?xml version="1.0" encoding="UTF-8" standalone="no"?>
<!-- Created with CurveBenchmark -->
<svg
	xmlns:dc="http://purl.org/dc/elements/1.1/"
	xmlns:cc="http://creativecommons.org/ns#"
	xmlns:rdf="http://www.w3.org/1999/02/22-rdf-syntax-ns#"
	xmlns:svg="http://www.w3.org/2000/svg"
	xmlns="http://www.w3.org/2000/svg"
	xmlns:sodipodi="http://sodipodi.sourceforge.net/DTD/sodipodi-0.dtd"
	xmlns:inkscape="http://www.inkscape.org/namespaces/inkscape"
	width="1000"
	height="1000"
	id="svg2"
	version="1.1"
	sodipodi:docname="multiple-curves/fitconnect-mc51.txt">
<defs
	id="defs4" />
<metadata
	id="metadata7">
	<rdf:RDF>
		<cc:Work
			rdf:about="">
			<dc:format>image/svg+xml</dc:format>
			<dc:type
				rdf:resource="http://purl.org/dc/dcmitype/StillImage" />
			<dc:title></dc:title>
		</cc:Work>
	</rdf:RDF>
</metadata>
<g
	inkscape:label="Layer 1"
	inkscape:groupmode="layer"
	id="layer1">
	<path style="fill:none;stroke:red;stroke-width:1px;stroke-linecap:butt;stroke-linejoin:miter;stroke-opacity:1" d="M 4,223.418 285.779,525.984 z" id="boundary" inkscape:connector-curvature="0" />
	<path style="fill:none;stroke:red;stroke-width:1px;stroke-linecap:butt;stroke-linejoin:miter;stroke-opacity:1" d="M 4,223.418 22.4773,213.024 z" id="boundary" inkscape:connector-curvature="0" />
	<path style="fill:none;stroke:red;stroke-width:1px;stroke-linecap:butt;stroke-linejoin:miter;stroke-opacity:1" d="M 135.651,39.7998 543.306,99.851 z" id="boundary" inkscape:connector-curvature="0" />
	<path style="fill:none;stroke:red;stroke-width:1px;stroke-linecap:butt;stroke-linejoin:miter;stroke-opacity:1" d="M 135.651,39.7998 22.4773,213.024 z" id="boundary" inkscape:connector-curvature="0" />
	<path style="fill:none;stroke:red;stroke-width:1px;stroke-linecap:butt;stroke-linejoin:miter;stroke-opacity:1" d="M 543.306,99.851 574.487,180.689 z" id="boundary" inkscape:connector-curvature="0" />
	<path style="fill:none;stroke:red;stroke-width:1px;stroke-linecap:butt;stroke-linejoin:miter;stroke-opacity:1" d="M 574.487,180.689 983.297,233.811 z" id="boundary" inkscape:connector-curvature="0" />
	<path style="fill:none;stroke:red;stroke-width:1px;stroke-linecap:butt;stroke-linejoin:miter;stroke-opacity:1" d="M 983.297,233.811 996,258.063 z" id="boundary" inkscape:connector-curvature="0" />
	<circle cx="4" cy="223.418" r="4" fill="#0" id="circle0"/>
	<circle cx="38.6449" cy="144.889" r="4" fill="#0" id="circle1"/>
	<circle cx="52.5029" cy="109.09" r="4" fill="#0" id="circle2"/>
	<circle cx="135.651" cy="39.7998" r="4" fill="#0" id="circle3"/>
	<circle cx="211.87" cy="17.858" r="4" fill="#0" id="circle4"/>
	<circle cx="312.34" cy="4" r="4" fill="#0" id="circle5"/>
	<circle cx="403.572" cy="19.0128" r="4" fill="#0" id="circle6"/>
	<circle cx="495.958" cy="51.3481" r="4" fill="#0" id="circle7"/>
	<circle cx="543.306" cy="99.851" r="4" fill="#0" id="circle8"/>
	<circle cx="574.487" cy="180.689" r="4" fill="#0" id="circle9"/>
	<circle cx="545.616" cy="163.367" r="4" fill="#0" id="circle10"/>
	<circle cx="507.506" cy="151.818" r="4" fill="#0" id="circle11"/>
	<circle cx="467.087" cy="144.889" r="4" fill="#0" id="circle12"/>
	<circle cx="442.836" cy="156.438" r="4" fill="#0" id="circle13"/>
	<circle cx="439.371" cy="172.605" r="4" fill="#0" id="circle14"/>
	<circle cx="437.062" cy="187.618" r="4" fill="#0" id="circle15"/>
	<circle cx="427.823" cy="204.941" r="4" fill="#0" id="circle16"/>
	<circle cx="416.275" cy="186.463" r="4" fill="#0" id="circle17"/>
	<circle cx="413.965" cy="166.831" r="4" fill="#0" id="circle18"/>
	<circle cx="400.107" cy="147.199" r="4" fill="#0" id="circle19"/>
	<circle cx="379.32" cy="146.044" r="4" fill="#0" id="circle20"/>
	<circle cx="351.604" cy="143.735" r="4" fill="#0" id="circle21"/>
	<circle cx="345.83" cy="154.128" r="4" fill="#0" id="circle22"/>
	<circle cx="342.366" cy="173.76" r="4" fill="#0" id="circle23"/>
	<circle cx="340.056" cy="193.392" r="4" fill="#0" id="circle24"/>
	<circle cx="337.746" cy="216.489" r="4" fill="#0" id="circle25"/>
	<circle cx="343.52" cy="234.966" r="4" fill="#0" id="circle26"/>
	<circle cx="345.83" cy="258.063" r="4" fill="#0" id="circle27"/>
	<circle cx="343.52" cy="284.624" r="4" fill="#0" id="circle28"/>
	<circle cx="345.83" cy="320.424" r="4" fill="#0" id="circle29"/>
	<circle cx="350.36" cy="373.501" r="4" fill="#0" id="circle30"/>
	<circle cx="360.843" cy="491.339" r="4" fill="#0" id="circle31"/>
	<circle cx="360.843" cy="525.984" r="4" fill="#0" id="circle32"/>
	<circle cx="285.779" cy="525.984" r="4" fill="#0" id="circle33"/>
	<circle cx="288.088" cy="480.945" r="4" fill="#0" id="circle34"/>
	<circle cx="286.889" cy="424.403" r="4" fill="#0" id="circle35"/>
	<circle cx="292.663" cy="341.643" r="4" fill="#0" id="circle36"/>
	<circle cx="288.088" cy="291.553" r="4" fill="#0" id="circle37"/>
	<circle cx="288.088" cy="256.908" r="4" fill="#0" id="circle38"/>
	<circle cx="285.779" cy="225.728" r="4" fill="#0" id="circle39"/>
	<circle cx="283.469" cy="203.786" r="4" fill="#0" id="circle40"/>
	<circle cx="283.469" cy="192.237" r="4" fill="#0" id="circle41"/>
	<circle cx="283.469" cy="166.831" r="4" fill="#0" id="circle42"/>
	<circle cx="281.159" cy="143.735" r="4" fill="#0" id="circle43"/>
	<circle cx="252.289" cy="152.973" r="4" fill="#0" id="circle44"/>
	<circle cx="223.418" cy="166.831" r="4" fill="#0" id="circle45"/>
	<circle cx="210.715" cy="176.07" r="4" fill="#0" id="circle46"/>
	<circle cx="207.25" cy="187.618" r="4" fill="#0" id="circle47"/>
	<circle cx="196.857" cy="208.405" r="4" fill="#0" id="circle48"/>
	<circle cx="188.773" cy="226.882" r="4" fill="#0" id="circle49"/>
	<circle cx="167.986" cy="200.321" r="4" fill="#0" id="circle50"/>
	<circle cx="158.747" cy="185.309" r="4" fill="#0" id="circle51"/>
	<circle cx="156.438" cy="164.522" r="4" fill="#0" id="circle52"/>
	<circle cx="146.044" cy="146.044" r="4" fill="#0" id="circle53"/>
	<circle cx="129.877" cy="154.128" r="4" fill="#0" id="circle54"/>
	<circle cx="112.554" cy="174.915" r="4" fill="#0" id="circle55"/>
	<circle cx="73.2899" cy="180.689" r="4" fill="#0" id="circle56"/>
	<circle cx="55.9674" cy="188.773" r="4" fill="#0" id="circle57"/>
	<circle cx="22.4773" cy="213.024" r="4" fill="#0" id="circle58"/>
	<circle cx="875.898" cy="218.799" r="4" fill="#0" id="circle59"/>
	<circle cx="907.033" cy="207.206" r="4" fill="#0" id="circle60"/>
	<circle cx="917.471" cy="173.716" r="4" fill="#0" id="circle61"/>
	<circle cx="927.865" cy="142.58" r="4" fill="#0" id="circle62"/>
	<circle cx="941.723" cy="103.315" r="4" fill="#0" id="circle63"/>
	<circle cx="950.962" cy="60.5867" r="4" fill="#0" id="circle64"/>
	<circle cx="961.355" cy="109.09" r="4" fill="#0" id="circle65"/>
	<circle cx="964.82" cy="176.07" r="4" fill="#0" id="circle66"/>
	<circle cx="972.903" cy="213.024" r="4" fill="#0" id="circle67"/>
	<circle cx="983.297" cy="233.811" r="4" fill="#0" id="circle68"/>
	<circle cx="996" cy="258.063" r="4" fill="#0" id="circle69"/>
	</g>
</svg>