<?xml version="1.0" encoding="UTF-8" standalone="no"?>
<!-- Created with CurveBenchmark -->
<svg
	xmlns:dc="http://purl.org/dc/elements/1.1/"
	xmlns:cc="http://creativecommons.org/ns#"
	xmlns:rdf="http://www.w3.org/1999/02/22-rdf-syntax-ns#"
	xmlns:svg="http://www.w3.org/2000/svg"
	xmlns="http://www.w3.org/2000/svg"
	xmlns:sodipodi="http://sodipodi.sourceforge.net/DTD/sodipodi-0.dtd"
	xmlns:inkscape="http://www.inkscape.org/namespaces/inkscape"
	width="1000"
	height="1000"
	id="svg2"
	version="1.1"
	sodipodi:docname="multiple-curves/hnncrust-mc20.txt">
<defs
	id="defs4" />
<metadata
	id="metadata7">
	<rdf:RDF>
		<cc:Work
			rdf:about="">
			<dc:format>image/svg+xml</dc:format>
			<dc:type
				rdf:resource="http://purl.org/dc/dcmitype/StillImage" />
			<dc:title></dc:title>
		</cc:Work>
	</rdf:RDF>
</metadata>
<g
	inkscape:label="Layer 1"
	inkscape:groupmode="layer"
	id="layer1">
	<path style="fill:none;stroke:red;stroke-width:1px;stroke-linecap:butt;stroke-linejoin:miter;stroke-opacity:1" d="M 4,964.95 15.0178,864.488 z" id="boundary" inkscape:connector-curvature="0" />
	<path style="fill:none;stroke:red;stroke-width:1px;stroke-linecap:butt;stroke-linejoin:miter;stroke-opacity:1" d="M 4,964.95 52.0775,996 z" id="boundary" inkscape:connector-curvature="0" />
	<path style="fill:none;stroke:red;stroke-width:1px;stroke-linecap:butt;stroke-linejoin:miter;stroke-opacity:1" d="M 15.0178,864.488 63.0953,795.376 z" id="boundary" inkscape:connector-curvature="0" />
	<path style="fill:none;stroke:red;stroke-width:1px;stroke-linecap:butt;stroke-linejoin:miter;stroke-opacity:1" d="M 52.0775,996 122.191,955.935 z" id="boundary" inkscape:connector-curvature="0" />
	<path style="fill:none;stroke:red;stroke-width:1px;stroke-linecap:butt;stroke-linejoin:miter;stroke-opacity:1" d="M 63.0953,795.376 132.207,718.753 z" id="boundary" inkscape:connector-curvature="0" />
	<path style="fill:none;stroke:red;stroke-width:1px;stroke-linecap:butt;stroke-linejoin:miter;stroke-opacity:1" d="M 122.191,955.935 190.3,864.788 z" id="boundary" inkscape:connector-curvature="0" />
	<path style="fill:none;stroke:red;stroke-width:1px;stroke-linecap:butt;stroke-linejoin:miter;stroke-opacity:1" d="M 132.207,718.753 154.242,658.656 z" id="boundary" inkscape:connector-curvature="0" />
	<path style="fill:none;stroke:red;stroke-width:1px;stroke-linecap:butt;stroke-linejoin:miter;stroke-opacity:1" d="M 140.22,484.375 154.242,658.656 z" id="boundary" inkscape:connector-curvature="0" />
	<path style="fill:none;stroke:red;stroke-width:1px;stroke-linecap:butt;stroke-linejoin:miter;stroke-opacity:1" d="M 140.22,484.375 168.265,358.171 z" id="boundary" inkscape:connector-curvature="0" />
	<path style="fill:none;stroke:red;stroke-width:1px;stroke-linecap:butt;stroke-linejoin:miter;stroke-opacity:1" d="M 168.265,358.171 190.3,215.141 z" id="boundary" inkscape:connector-curvature="0" />
	<path style="fill:none;stroke:red;stroke-width:1px;stroke-linecap:butt;stroke-linejoin:miter;stroke-opacity:1" d="M 190.3,215.141 244.388,97.7512 z" id="boundary" inkscape:connector-curvature="0" />
	<path style="fill:none;stroke:red;stroke-width:1px;stroke-linecap:butt;stroke-linejoin:miter;stroke-opacity:1" d="M 190.3,864.788 248.394,784.258 z" id="boundary" inkscape:connector-curvature="0" />
	<path style="fill:none;stroke:red;stroke-width:1px;stroke-linecap:butt;stroke-linejoin:miter;stroke-opacity:1" d="M 244.388,97.7512 360.575,15.6187 z" id="boundary" inkscape:connector-curvature="0" />
	<path style="fill:none;stroke:red;stroke-width:1px;stroke-linecap:butt;stroke-linejoin:miter;stroke-opacity:1" d="M 248.394,784.258 306.488,747.399 z" id="boundary" inkscape:connector-curvature="0" />
	<path style="fill:none;stroke:red;stroke-width:1px;stroke-linecap:butt;stroke-linejoin:miter;stroke-opacity:1" d="M 306.488,747.399 386.617,738.785 z" id="boundary" inkscape:connector-curvature="0" />
	<path style="fill:none;stroke:red;stroke-width:1px;stroke-linecap:butt;stroke-linejoin:miter;stroke-opacity:1" d="M 360.575,15.6187 526.843,4 z" id="boundary" inkscape:connector-curvature="0" />
	<path style="fill:none;stroke:red;stroke-width:1px;stroke-linecap:butt;stroke-linejoin:miter;stroke-opacity:1" d="M 386.617,738.785 558.895,727.166 z" id="boundary" inkscape:connector-curvature="0" />
	<path style="fill:none;stroke:red;stroke-width:1px;stroke-linecap:butt;stroke-linejoin:miter;stroke-opacity:1" d="M 394.63,332.129 394.63,429.687 z" id="boundary" inkscape:connector-curvature="0" />
	<path style="fill:none;stroke:red;stroke-width:1px;stroke-linecap:butt;stroke-linejoin:miter;stroke-opacity:1" d="M 394.63,332.129 456.73,217.945 z" id="boundary" inkscape:connector-curvature="0" />
	<path style="fill:none;stroke:red;stroke-width:1px;stroke-linecap:butt;stroke-linejoin:miter;stroke-opacity:1" d="M 394.63,429.687 504.808,469.751 z" id="boundary" inkscape:connector-curvature="0" />
	<path style="fill:none;stroke:red;stroke-width:1px;stroke-linecap:butt;stroke-linejoin:miter;stroke-opacity:1" d="M 456.73,217.945 532.853,200.918 z" id="boundary" inkscape:connector-curvature="0" />
	<path style="fill:none;stroke:red;stroke-width:1px;stroke-linecap:butt;stroke-linejoin:miter;stroke-opacity:1" d="M 504.808,469.751 635.018,406.449 z" id="boundary" inkscape:connector-curvature="0" />
	<path style="fill:none;stroke:red;stroke-width:1px;stroke-linecap:butt;stroke-linejoin:miter;stroke-opacity:1" d="M 526.843,4 657.053,23.231 z" id="boundary" inkscape:connector-curvature="0" />
	<path style="fill:none;stroke:red;stroke-width:1px;stroke-linecap:butt;stroke-linejoin:miter;stroke-opacity:1" d="M 532.853,200.918 627.005,223.955 z" id="boundary" inkscape:connector-curvature="0" />
	<path style="fill:none;stroke:red;stroke-width:1px;stroke-linecap:butt;stroke-linejoin:miter;stroke-opacity:1" d="M 558.895,727.166 655.05,676.485 z" id="boundary" inkscape:connector-curvature="0" />
	<path style="fill:none;stroke:red;stroke-width:1px;stroke-linecap:butt;stroke-linejoin:miter;stroke-opacity:1" d="M 627.005,223.955 657.053,281.047 z" id="boundary" inkscape:connector-curvature="0" />
	<path style="fill:none;stroke:red;stroke-width:1px;stroke-linecap:butt;stroke-linejoin:miter;stroke-opacity:1" d="M 635.018,406.449 657.053,281.047 z" id="boundary" inkscape:connector-curvature="0" />
	<path style="fill:none;stroke:red;stroke-width:1px;stroke-linecap:butt;stroke-linejoin:miter;stroke-opacity:1" d="M 655.05,676.485 769.234,556.09 z" id="boundary" inkscape:connector-curvature="0" />
	<path style="fill:none;stroke:red;stroke-width:1px;stroke-linecap:butt;stroke-linejoin:miter;stroke-opacity:1" d="M 657.053,23.231 769.234,80.5234 z" id="boundary" inkscape:connector-curvature="0" />
	<path style="fill:none;stroke:red;stroke-width:1px;stroke-linecap:butt;stroke-linejoin:miter;stroke-opacity:1" d="M 769.234,80.5234 847.36,252.2 z" id="boundary" inkscape:connector-curvature="0" />
	<path style="fill:none;stroke:red;stroke-width:1px;stroke-linecap:butt;stroke-linejoin:miter;stroke-opacity:1" d="M 769.234,556.09 861.383,409.654 z" id="boundary" inkscape:connector-curvature="0" />
	<path style="fill:none;stroke:red;stroke-width:1px;stroke-linecap:butt;stroke-linejoin:miter;stroke-opacity:1" d="M 847.36,252.2 861.383,409.654 z" id="boundary" inkscape:connector-curvature="0" />
	<circle cx="4" cy="964.95" r="4" fill="#0" id="circle0"/>
	<circle cx="15.0178" cy="864.488" r="4" fill="#0" id="circle1"/>
	<circle cx="52.0775" cy="996" r="4" fill="#0" id="circle2"/>
	<circle cx="63.0953" cy="795.376" r="4" fill="#0" id="circle3"/>
	<circle cx="122.191" cy="955.935" r="4" fill="#0" id="circle4"/>
	<circle cx="132.207" cy="718.753" r="4" fill="#0" id="circle5"/>
	<circle cx="140.22" cy="484.375" r="4" fill="#0" id="circle6"/>
	<circle cx="154.242" cy="658.656" r="4" fill="#0" id="circle7"/>
	<circle cx="168.265" cy="358.171" r="4" fill="#0" id="circle8"/>
	<circle cx="190.3" cy="215.141" r="4" fill="#0" id="circle9"/>
	<circle cx="190.3" cy="864.788" r="4" fill="#0" id="circle10"/>
	<circle cx="244.388" cy="97.7512" r="4" fill="#0" id="circle11"/>
	<circle cx="248.394" cy="784.258" r="4" fill="#0" id="circle12"/>
	<circle cx="306.488" cy="747.399" r="4" fill="#0" id="circle13"/>
	<circle cx="360.575" cy="15.6187" r="4" fill="#0" id="circle14"/>
	<circle cx="386.617" cy="738.785" r="4" fill="#0" id="circle15"/>
	<circle cx="394.63" cy="332.129" r="4" fill="#0" id="circle16"/>
	<circle cx="394.63" cy="429.687" r="4" fill="#0" id="circle17"/>
	<circle cx="456.73" cy="217.945" r="4" fill="#0" id="circle18"/>
	<circle cx="504.808" cy="469.751" r="4" fill="#0" id="circle19"/>
	<circle cx="526.843" cy="4" r="4" fill="#0" id="circle20"/>
	<circle cx="532.853" cy="200.918" r="4" fill="#0" id="circle21"/>
	<circle cx="558.895" cy="727.166" r="4" fill="#0" id="circle22"/>
	<circle cx="627.005" cy="223.955" r="4" fill="#0" id="circle23"/>
	<circle cx="635.018" cy="406.449" r="4" fill="#0" id="circle24"/>
	<circle cx="655.05" cy="676.485" r="4" fill="#0" id="circle25"/>
	<circle cx="657.053" cy="23.231" r="4" fill="#0" id="circle26"/>
	<circle cx="657.053" cy="281.047" r="4" fill="#0" id="circle27"/>
	<circle cx="769.234" cy="80.5234" r="4" fill="#0" id="circle28"/>
	<circle cx="769.234" cy="556.09" r="4" fill="#0" id="circle29"/>
	<circle cx="847.36" cy="252.2" r="4" fill="#0" id="circle30"/>
	<circle cx="861.383" cy="409.654" r="4" fill="#0" id="circle31"/>
	</g>
</svg>