<?xml version="1.0" encoding="UTF-8" standalone="no"?>
<!-- Created with CurveBenchmark -->
<svg
	xmlns:dc="http://purl.org/dc/elements/1.1/"
	xmlns:cc="http://creativecommons.org/ns#"
	xmlns:rdf="http://www.w3.org/1999/02/22-rdf-syntax-ns#"
	xmlns:svg="http://www.w3.org/2000/svg"
	xmlns="http://www.w3.org/2000/svg"
	xmlns:sodipodi="http://sodipodi.sourceforge.net/DTD/sodipodi-0.dtd"
	xmlns:inkscape="http://www.inkscape.org/namespaces/inkscape"
	width="1000"
	height="1000"
	id="svg2"
	version="1.1"
	sodipodi:docname="multiple-curves/peel-mc35.txt">
<defs
	id="defs4" />
<metadata
	id="metadata7">
	<rdf:RDF>
		<cc:Work
			rdf:about="">
			<dc:format>image/svg+xml</dc:format>
			<dc:type
				rdf:resource="http://purl.org/dc/dcmitype/StillImage" />
			<dc:title></dc:title>
		</cc:Work>
	</rdf:RDF>
</metadata>
<g
	inkscape:label="Layer 1"
	inkscape:groupmode="layer"
	id="layer1">
	<path style="fill:none;stroke:red;stroke-width:1px;stroke-linecap:butt;stroke-linejoin:miter;stroke-opacity:1" d="M 4,334.597 8.06476,307.714 z" id="boundary" inkscape:connector-curvature="0" />
	<path style="fill:none;stroke:red;stroke-width:1px;stroke-linecap:butt;stroke-linejoin:miter;stroke-opacity:1" d="M 8.06476,307.714 15.1781,291.795 z" id="boundary" inkscape:connector-curvature="0" />
	<path style="fill:none;stroke:red;stroke-width:1px;stroke-linecap:butt;stroke-linejoin:miter;stroke-opacity:1" d="M 4,334.597 8.31881,358.498 z" id="boundary" inkscape:connector-curvature="0" />
	<path style="fill:none;stroke:red;stroke-width:1px;stroke-linecap:butt;stroke-linejoin:miter;stroke-opacity:1" d="M 8.31881,358.498 16.1943,374.335 z" id="boundary" inkscape:connector-curvature="0" />
	<path style="fill:none;stroke:red;stroke-width:1px;stroke-linecap:butt;stroke-linejoin:miter;stroke-opacity:1" d="M 15.1781,291.795 25.34,276.202 z" id="boundary" inkscape:connector-curvature="0" />
	<path style="fill:none;stroke:red;stroke-width:1px;stroke-linecap:butt;stroke-linejoin:miter;stroke-opacity:1" d="M 16.1943,374.335 27.6264,389.893 z" id="boundary" inkscape:connector-curvature="0" />
	<path style="fill:none;stroke:red;stroke-width:1px;stroke-linecap:butt;stroke-linejoin:miter;stroke-opacity:1" d="M 42.1071,404.648 57.8581,417.31 z" id="boundary" inkscape:connector-curvature="0" />
	<path style="fill:none;stroke:red;stroke-width:1px;stroke-linecap:butt;stroke-linejoin:miter;stroke-opacity:1" d="M 25.34,276.202 38.8045,260.71 z" id="boundary" inkscape:connector-curvature="0" />
	<path style="fill:none;stroke:red;stroke-width:1px;stroke-linecap:butt;stroke-linejoin:miter;stroke-opacity:1" d="M 203.173,562.656 196.822,546.514 z" id="boundary" inkscape:connector-curvature="0" />
	<path style="fill:none;stroke:red;stroke-width:1px;stroke-linecap:butt;stroke-linejoin:miter;stroke-opacity:1" d="M 101.554,230.438 85.8033,231.027 z" id="boundary" inkscape:connector-curvature="0" />
	<path style="fill:none;stroke:red;stroke-width:1px;stroke-linecap:butt;stroke-linejoin:miter;stroke-opacity:1" d="M 185.136,514.656 178.785,498.321 z" id="boundary" inkscape:connector-curvature="0" />
	<path style="fill:none;stroke:red;stroke-width:1px;stroke-linecap:butt;stroke-linejoin:miter;stroke-opacity:1" d="M 54.3014,246.539 70.0524,235.595 z" id="boundary" inkscape:connector-curvature="0" />
	<path style="fill:none;stroke:red;stroke-width:1px;stroke-linecap:butt;stroke-linejoin:miter;stroke-opacity:1" d="M 70.0524,235.595 85.8033,231.027 z" id="boundary" inkscape:connector-curvature="0" />
	<path style="fill:none;stroke:red;stroke-width:1px;stroke-linecap:butt;stroke-linejoin:miter;stroke-opacity:1" d="M 185.136,514.656 190.979,530.539 z" id="boundary" inkscape:connector-curvature="0" />
	<path style="fill:none;stroke:red;stroke-width:1px;stroke-linecap:butt;stroke-linejoin:miter;stroke-opacity:1" d="M 163.034,466.473 151.348,450.565 z" id="boundary" inkscape:connector-curvature="0" />
	<path style="fill:none;stroke:red;stroke-width:1px;stroke-linecap:butt;stroke-linejoin:miter;stroke-opacity:1" d="M 171.671,482.316 178.785,498.321 z" id="boundary" inkscape:connector-curvature="0" />
	<path style="fill:none;stroke:red;stroke-width:1px;stroke-linecap:butt;stroke-linejoin:miter;stroke-opacity:1" d="M 57.8581,417.31 73.609,425.612 z" id="boundary" inkscape:connector-curvature="0" />
	<path style="fill:none;stroke:red;stroke-width:1px;stroke-linecap:butt;stroke-linejoin:miter;stroke-opacity:1" d="M 73.609,425.612 89.36,428.259 z" id="boundary" inkscape:connector-curvature="0" />
	<path style="fill:none;stroke:red;stroke-width:1px;stroke-linecap:butt;stroke-linejoin:miter;stroke-opacity:1" d="M 151.348,450.565 136.613,437.42 z" id="boundary" inkscape:connector-curvature="0" />
	<path style="fill:none;stroke:red;stroke-width:1px;stroke-linecap:butt;stroke-linejoin:miter;stroke-opacity:1" d="M 136.613,437.42 120.862,430.815 z" id="boundary" inkscape:connector-curvature="0" />
	<path style="fill:none;stroke:red;stroke-width:1px;stroke-linecap:butt;stroke-linejoin:miter;stroke-opacity:1" d="M 38.8045,260.71 54.3014,246.539 z" id="boundary" inkscape:connector-curvature="0" />
	<path style="fill:none;stroke:red;stroke-width:1px;stroke-linecap:butt;stroke-linejoin:miter;stroke-opacity:1" d="M 163.034,466.473 171.671,482.316 z" id="boundary" inkscape:connector-curvature="0" />
	<path style="fill:none;stroke:red;stroke-width:1px;stroke-linecap:butt;stroke-linejoin:miter;stroke-opacity:1" d="M 105.111,429.011 120.862,430.815 z" id="boundary" inkscape:connector-curvature="0" />
	<path style="fill:none;stroke:red;stroke-width:1px;stroke-linecap:butt;stroke-linejoin:miter;stroke-opacity:1" d="M 133.056,224.31 117.305,229.813 z" id="boundary" inkscape:connector-curvature="0" />
	<path style="fill:none;stroke:red;stroke-width:1px;stroke-linecap:butt;stroke-linejoin:miter;stroke-opacity:1" d="M 175.055,289.915 188.439,296.861 z" id="boundary" inkscape:connector-curvature="0" />
	<path style="fill:none;stroke:red;stroke-width:1px;stroke-linecap:butt;stroke-linejoin:miter;stroke-opacity:1" d="M 89.36,428.259 105.111,429.011 z" id="boundary" inkscape:connector-curvature="0" />
	<path style="fill:none;stroke:red;stroke-width:1px;stroke-linecap:butt;stroke-linejoin:miter;stroke-opacity:1" d="M 133.056,224.31 147.537,211.288 z" id="boundary" inkscape:connector-curvature="0" />
	<path style="fill:none;stroke:red;stroke-width:1px;stroke-linecap:butt;stroke-linejoin:miter;stroke-opacity:1" d="M 117.305,229.813 101.554,230.438 z" id="boundary" inkscape:connector-curvature="0" />
	<path style="fill:none;stroke:red;stroke-width:1px;stroke-linecap:butt;stroke-linejoin:miter;stroke-opacity:1" d="M 179.872,369.122 171.306,379.823 z" id="boundary" inkscape:connector-curvature="0" />
	<path style="fill:none;stroke:red;stroke-width:1px;stroke-linecap:butt;stroke-linejoin:miter;stroke-opacity:1" d="M 171.306,379.823 175.055,393.74 z" id="boundary" inkscape:connector-curvature="0" />
	<path style="fill:none;stroke:red;stroke-width:1px;stroke-linecap:butt;stroke-linejoin:miter;stroke-opacity:1" d="M 175.589,264.765 187.93,257.885 z" id="boundary" inkscape:connector-curvature="0" />
	<path style="fill:none;stroke:red;stroke-width:1px;stroke-linecap:butt;stroke-linejoin:miter;stroke-opacity:1" d="M 27.6264,389.893 42.1071,404.648 z" id="boundary" inkscape:connector-curvature="0" />
	<path style="fill:none;stroke:red;stroke-width:1px;stroke-linecap:butt;stroke-linejoin:miter;stroke-opacity:1" d="M 147.537,211.288 158.715,195.349 z" id="boundary" inkscape:connector-curvature="0" />
	<path style="fill:none;stroke:red;stroke-width:1px;stroke-linecap:butt;stroke-linejoin:miter;stroke-opacity:1" d="M 158.715,195.349 166.59,179.374 z" id="boundary" inkscape:connector-curvature="0" />
	<path style="fill:none;stroke:red;stroke-width:1px;stroke-linecap:butt;stroke-linejoin:miter;stroke-opacity:1" d="M 172.688,163.252 177.769,146.744 z" id="boundary" inkscape:connector-curvature="0" />
	<path style="fill:none;stroke:red;stroke-width:1px;stroke-linecap:butt;stroke-linejoin:miter;stroke-opacity:1" d="M 175.055,393.74 189.963,403.739 z" id="boundary" inkscape:connector-curvature="0" />
	<path style="fill:none;stroke:red;stroke-width:1px;stroke-linecap:butt;stroke-linejoin:miter;stroke-opacity:1" d="M 166.59,179.374 172.688,163.252 z" id="boundary" inkscape:connector-curvature="0" />
	<path style="fill:none;stroke:red;stroke-width:1px;stroke-linecap:butt;stroke-linejoin:miter;stroke-opacity:1" d="M 190.979,530.539 196.822,546.514 z" id="boundary" inkscape:connector-curvature="0" />
	<path style="fill:none;stroke:red;stroke-width:1px;stroke-linecap:butt;stroke-linejoin:miter;stroke-opacity:1" d="M 347.218,123.463 341.375,107.362 z" id="boundary" inkscape:connector-curvature="0" />
	<path style="fill:none;stroke:red;stroke-width:1px;stroke-linecap:butt;stroke-linejoin:miter;stroke-opacity:1" d="M 177.769,146.744 182.087,130.536 z" id="boundary" inkscape:connector-curvature="0" />
	<path style="fill:none;stroke:red;stroke-width:1px;stroke-linecap:butt;stroke-linejoin:miter;stroke-opacity:1" d="M 182.087,130.536 186.152,114.084 z" id="boundary" inkscape:connector-curvature="0" />
	<path style="fill:none;stroke:red;stroke-width:1px;stroke-linecap:butt;stroke-linejoin:miter;stroke-opacity:1" d="M 189.963,403.739 202.884,409.257 z" id="boundary" inkscape:connector-curvature="0" />
	<path style="fill:none;stroke:red;stroke-width:1px;stroke-linecap:butt;stroke-linejoin:miter;stroke-opacity:1" d="M 214.097,31.9656 227.054,16.7075 z" id="boundary" inkscape:connector-curvature="0" />
	<path style="fill:none;stroke:red;stroke-width:1px;stroke-linecap:butt;stroke-linejoin:miter;stroke-opacity:1" d="M 203.681,252.972 187.93,257.885 z" id="boundary" inkscape:connector-curvature="0" />
	<path style="fill:none;stroke:red;stroke-width:1px;stroke-linecap:butt;stroke-linejoin:miter;stroke-opacity:1" d="M 214.123,391.062 213.051,380.895 z" id="boundary" inkscape:connector-curvature="0" />
	<path style="fill:none;stroke:red;stroke-width:1px;stroke-linecap:butt;stroke-linejoin:miter;stroke-opacity:1" d="M 213.051,380.895 224.823,376.612 z" id="boundary" inkscape:connector-curvature="0" />
	<path style="fill:none;stroke:red;stroke-width:1px;stroke-linecap:butt;stroke-linejoin:miter;stroke-opacity:1" d="M 322.322,58.4272 314.446,42.788 z" id="boundary" inkscape:connector-curvature="0" />
	<path style="fill:none;stroke:red;stroke-width:1px;stroke-linecap:butt;stroke-linejoin:miter;stroke-opacity:1" d="M 190.217,97.5708 194.536,80.89 z" id="boundary" inkscape:connector-curvature="0" />
	<path style="fill:none;stroke:red;stroke-width:1px;stroke-linecap:butt;stroke-linejoin:miter;stroke-opacity:1" d="M 186.152,114.084 190.217,97.5708 z" id="boundary" inkscape:connector-curvature="0" />
	<path style="fill:none;stroke:red;stroke-width:1px;stroke-linecap:butt;stroke-linejoin:miter;stroke-opacity:1" d="M 203.173,562.656 210.541,578.656 z" id="boundary" inkscape:connector-curvature="0" />
	<path style="fill:none;stroke:red;stroke-width:1px;stroke-linecap:butt;stroke-linejoin:miter;stroke-opacity:1" d="M 204.19,301.662 188.439,296.861 z" id="boundary" inkscape:connector-curvature="0" />
	<path style="fill:none;stroke:red;stroke-width:1px;stroke-linecap:butt;stroke-linejoin:miter;stroke-opacity:1" d="M 217.867,411.934 231.246,413.001 z" id="boundary" inkscape:connector-curvature="0" />
	<path style="fill:none;stroke:red;stroke-width:1px;stroke-linecap:butt;stroke-linejoin:miter;stroke-opacity:1" d="M 210.541,578.656 219.94,594.574 z" id="boundary" inkscape:connector-curvature="0" />
	<path style="fill:none;stroke:red;stroke-width:1px;stroke-linecap:butt;stroke-linejoin:miter;stroke-opacity:1" d="M 205.714,360.068 189.963,364.976 z" id="boundary" inkscape:connector-curvature="0" />
	<path style="fill:none;stroke:red;stroke-width:1px;stroke-linecap:butt;stroke-linejoin:miter;stroke-opacity:1" d="M 199.363,64.6971 205.46,48.5193 z" id="boundary" inkscape:connector-curvature="0" />
	<path style="fill:none;stroke:red;stroke-width:1px;stroke-linecap:butt;stroke-linejoin:miter;stroke-opacity:1" d="M 221.465,358.127 205.714,360.068 z" id="boundary" inkscape:connector-curvature="0" />
	<path style="fill:none;stroke:red;stroke-width:1px;stroke-linecap:butt;stroke-linejoin:miter;stroke-opacity:1" d="M 219.94,594.574 233.151,609.401 z" id="boundary" inkscape:connector-curvature="0" />
	<path style="fill:none;stroke:red;stroke-width:1px;stroke-linecap:butt;stroke-linejoin:miter;stroke-opacity:1" d="M 258.556,4 242.805,7.24673 z" id="boundary" inkscape:connector-curvature="0" />
	<path style="fill:none;stroke:red;stroke-width:1px;stroke-linecap:butt;stroke-linejoin:miter;stroke-opacity:1" d="M 194.536,80.89 199.363,64.6971 z" id="boundary" inkscape:connector-curvature="0" />
	<path style="fill:none;stroke:red;stroke-width:1px;stroke-linecap:butt;stroke-linejoin:miter;stroke-opacity:1" d="M 237.216,358.381 221.465,358.127 z" id="boundary" inkscape:connector-curvature="0" />
	<path style="fill:none;stroke:red;stroke-width:1px;stroke-linecap:butt;stroke-linejoin:miter;stroke-opacity:1" d="M 219.432,250.975 203.681,252.972 z" id="boundary" inkscape:connector-curvature="0" />
	<path style="fill:none;stroke:red;stroke-width:1px;stroke-linecap:butt;stroke-linejoin:miter;stroke-opacity:1" d="M 242.805,7.24673 227.054,16.7075 z" id="boundary" inkscape:connector-curvature="0" />
	<path style="fill:none;stroke:red;stroke-width:1px;stroke-linecap:butt;stroke-linejoin:miter;stroke-opacity:1" d="M 258.556,4 274.307,5.48872 z" id="boundary" inkscape:connector-curvature="0" />
	<path style="fill:none;stroke:red;stroke-width:1px;stroke-linecap:butt;stroke-linejoin:miter;stroke-opacity:1" d="M 274.307,5.48872 290.058,13.227 z" id="boundary" inkscape:connector-curvature="0" />
	<path style="fill:none;stroke:red;stroke-width:1px;stroke-linecap:butt;stroke-linejoin:miter;stroke-opacity:1" d="M 210.912,282.421 219.473,286.704 z" id="boundary" inkscape:connector-curvature="0" />
	<path style="fill:none;stroke:red;stroke-width:1px;stroke-linecap:butt;stroke-linejoin:miter;stroke-opacity:1" d="M 205.46,48.5193 214.097,31.9656 z" id="boundary" inkscape:connector-curvature="0" />
	<path style="fill:none;stroke:red;stroke-width:1px;stroke-linecap:butt;stroke-linejoin:miter;stroke-opacity:1" d="M 219.94,303.537 204.19,301.662 z" id="boundary" inkscape:connector-curvature="0" />
	<path style="fill:none;stroke:red;stroke-width:1px;stroke-linecap:butt;stroke-linejoin:miter;stroke-opacity:1" d="M 219.432,250.975 235.183,251.244 z" id="boundary" inkscape:connector-curvature="0" />
	<path style="fill:none;stroke:red;stroke-width:1px;stroke-linecap:butt;stroke-linejoin:miter;stroke-opacity:1" d="M 304.03,27.0116 290.058,13.227 z" id="boundary" inkscape:connector-curvature="0" />
	<path style="fill:none;stroke:red;stroke-width:1px;stroke-linecap:butt;stroke-linejoin:miter;stroke-opacity:1" d="M 235.691,303.192 219.94,303.537 z" id="boundary" inkscape:connector-curvature="0" />
	<path style="fill:none;stroke:red;stroke-width:1px;stroke-linecap:butt;stroke-linejoin:miter;stroke-opacity:1" d="M 237.668,283.493 230.102,286.669 z" id="boundary" inkscape:connector-curvature="0" />
	<path style="fill:none;stroke:red;stroke-width:1px;stroke-linecap:butt;stroke-linejoin:miter;stroke-opacity:1" d="M 250.934,253.861 235.183,251.244 z" id="boundary" inkscape:connector-curvature="0" />
	<path style="fill:none;stroke:red;stroke-width:1px;stroke-linecap:butt;stroke-linejoin:miter;stroke-opacity:1" d="M 268.718,401.747 252.967,407.773 z" id="boundary" inkscape:connector-curvature="0" />
	<path style="fill:none;stroke:red;stroke-width:1px;stroke-linecap:butt;stroke-linejoin:miter;stroke-opacity:1" d="M 230.61,270.247 221.612,268.509 z" id="boundary" inkscape:connector-curvature="0" />
	<path style="fill:none;stroke:red;stroke-width:1px;stroke-linecap:butt;stroke-linejoin:miter;stroke-opacity:1" d="M 237.668,283.493 240.772,277.691 z" id="boundary" inkscape:connector-curvature="0" />
	<path style="fill:none;stroke:red;stroke-width:1px;stroke-linecap:butt;stroke-linejoin:miter;stroke-opacity:1" d="M 240.772,277.691 230.61,270.247 z" id="boundary" inkscape:connector-curvature="0" />
	<path style="fill:none;stroke:red;stroke-width:1px;stroke-linecap:butt;stroke-linejoin:miter;stroke-opacity:1" d="M 233.659,378.39 224.823,376.612 z" id="boundary" inkscape:connector-curvature="0" />
	<path style="fill:none;stroke:red;stroke-width:1px;stroke-linecap:butt;stroke-linejoin:miter;stroke-opacity:1" d="M 252.967,360.967 237.216,358.381 z" id="boundary" inkscape:connector-curvature="0" />
	<path style="fill:none;stroke:red;stroke-width:1px;stroke-linecap:butt;stroke-linejoin:miter;stroke-opacity:1" d="M 304.03,27.0116 314.446,42.788 z" id="boundary" inkscape:connector-curvature="0" />
	<path style="fill:none;stroke:red;stroke-width:1px;stroke-linecap:butt;stroke-linejoin:miter;stroke-opacity:1" d="M 266.685,259.867 250.934,253.861 z" id="boundary" inkscape:connector-curvature="0" />
	<path style="fill:none;stroke:red;stroke-width:1px;stroke-linecap:butt;stroke-linejoin:miter;stroke-opacity:1" d="M 233.151,609.401 248.902,619.207 z" id="boundary" inkscape:connector-curvature="0" />
	<path style="fill:none;stroke:red;stroke-width:1px;stroke-linecap:butt;stroke-linejoin:miter;stroke-opacity:1" d="M 248.902,619.207 264.653,622.911 z" id="boundary" inkscape:connector-curvature="0" />
	<path style="fill:none;stroke:red;stroke-width:1px;stroke-linecap:butt;stroke-linejoin:miter;stroke-opacity:1" d="M 235.691,303.192 251.442,300.524 z" id="boundary" inkscape:connector-curvature="0" />
	<path style="fill:none;stroke:red;stroke-width:1px;stroke-linecap:butt;stroke-linejoin:miter;stroke-opacity:1" d="M 329.181,74.6862 322.322,58.4272 z" id="boundary" inkscape:connector-curvature="0" />
	<path style="fill:none;stroke:red;stroke-width:1px;stroke-linecap:butt;stroke-linejoin:miter;stroke-opacity:1" d="M 267.193,294.361 251.442,300.524 z" id="boundary" inkscape:connector-curvature="0" />
	<path style="fill:none;stroke:red;stroke-width:1px;stroke-linecap:butt;stroke-linejoin:miter;stroke-opacity:1" d="M 268.718,366.958 252.967,360.967 z" id="boundary" inkscape:connector-curvature="0" />
	<path style="fill:none;stroke:red;stroke-width:1px;stroke-linecap:butt;stroke-linejoin:miter;stroke-opacity:1" d="M 239.273,391.062 243.018,382.5 z" id="boundary" inkscape:connector-curvature="0" />
	<path style="fill:none;stroke:red;stroke-width:1px;stroke-linecap:butt;stroke-linejoin:miter;stroke-opacity:1" d="M 277.609,286.379 267.193,294.361 z" id="boundary" inkscape:connector-curvature="0" />
	<path style="fill:none;stroke:red;stroke-width:1px;stroke-linecap:butt;stroke-linejoin:miter;stroke-opacity:1" d="M 277.609,286.379 278.625,271.893 z" id="boundary" inkscape:connector-curvature="0" />
	<path style="fill:none;stroke:red;stroke-width:1px;stroke-linecap:butt;stroke-linejoin:miter;stroke-opacity:1" d="M 278.625,271.893 266.685,259.867 z" id="boundary" inkscape:connector-curvature="0" />
	<path style="fill:none;stroke:red;stroke-width:1px;stroke-linecap:butt;stroke-linejoin:miter;stroke-opacity:1" d="M 335.532,91.3263 341.375,107.362 z" id="boundary" inkscape:connector-curvature="0" />
	<path style="fill:none;stroke:red;stroke-width:1px;stroke-linecap:butt;stroke-linejoin:miter;stroke-opacity:1" d="M 951.089,473.333 966.84,486.396 z" id="boundary" inkscape:connector-curvature="0" />
	<path style="fill:none;stroke:red;stroke-width:1px;stroke-linecap:butt;stroke-linejoin:miter;stroke-opacity:1" d="M 280.658,379.04 268.718,366.958 z" id="boundary" inkscape:connector-curvature="0" />
	<path style="fill:none;stroke:red;stroke-width:1px;stroke-linecap:butt;stroke-linejoin:miter;stroke-opacity:1" d="M 279.388,393.79 280.658,379.04 z" id="boundary" inkscape:connector-curvature="0" />
	<path style="fill:none;stroke:red;stroke-width:1px;stroke-linecap:butt;stroke-linejoin:miter;stroke-opacity:1" d="M 329.181,74.6862 335.532,91.3263 z" id="boundary" inkscape:connector-curvature="0" />
	<path style="fill:none;stroke:red;stroke-width:1px;stroke-linecap:butt;stroke-linejoin:miter;stroke-opacity:1" d="M 268.718,401.747 279.388,393.79 z" id="boundary" inkscape:connector-curvature="0" />
	<path style="fill:none;stroke:red;stroke-width:1px;stroke-linecap:butt;stroke-linejoin:miter;stroke-opacity:1" d="M 264.653,622.911 280.404,622.194 z" id="boundary" inkscape:connector-curvature="0" />
	<path style="fill:none;stroke:red;stroke-width:1px;stroke-linecap:butt;stroke-linejoin:miter;stroke-opacity:1" d="M 280.404,622.194 296.155,616.575 z" id="boundary" inkscape:connector-curvature="0" />
	<path style="fill:none;stroke:red;stroke-width:1px;stroke-linecap:butt;stroke-linejoin:miter;stroke-opacity:1" d="M 311.906,605.148 325.878,589.737 z" id="boundary" inkscape:connector-curvature="0" />
	<path style="fill:none;stroke:red;stroke-width:1px;stroke-linecap:butt;stroke-linejoin:miter;stroke-opacity:1" d="M 296.155,616.575 311.906,605.148 z" id="boundary" inkscape:connector-curvature="0" />
	<path style="fill:none;stroke:red;stroke-width:1px;stroke-linecap:butt;stroke-linejoin:miter;stroke-opacity:1" d="M 355.094,541.961 346.202,558.215 z" id="boundary" inkscape:connector-curvature="0" />
	<path style="fill:none;stroke:red;stroke-width:1px;stroke-linecap:butt;stroke-linejoin:miter;stroke-opacity:1" d="M 464.842,433.178 449.091,432.284 z" id="boundary" inkscape:connector-curvature="0" />
	<path style="fill:none;stroke:red;stroke-width:1px;stroke-linecap:butt;stroke-linejoin:miter;stroke-opacity:1" d="M 381.007,494.058 371.861,510.291 z" id="boundary" inkscape:connector-curvature="0" />
	<path style="fill:none;stroke:red;stroke-width:1px;stroke-linecap:butt;stroke-linejoin:miter;stroke-opacity:1" d="M 340.359,231.357 355.094,246.895 z" id="boundary" inkscape:connector-curvature="0" />
	<path style="fill:none;stroke:red;stroke-width:1px;stroke-linecap:butt;stroke-linejoin:miter;stroke-opacity:1" d="M 325.878,589.737 336.802,574.017 z" id="boundary" inkscape:connector-curvature="0" />
	<path style="fill:none;stroke:red;stroke-width:1px;stroke-linecap:butt;stroke-linejoin:miter;stroke-opacity:1" d="M 336.802,574.017 346.202,558.215 z" id="boundary" inkscape:connector-curvature="0" />
	<path style="fill:none;stroke:red;stroke-width:1px;stroke-linecap:butt;stroke-linejoin:miter;stroke-opacity:1" d="M 493.804,460.432 508.03,476.356 z" id="boundary" inkscape:connector-curvature="0" />
	<path style="fill:none;stroke:red;stroke-width:1px;stroke-linecap:butt;stroke-linejoin:miter;stroke-opacity:1" d="M 353.315,139.362 347.218,123.463 z" id="boundary" inkscape:connector-curvature="0" />
	<path style="fill:none;stroke:red;stroke-width:1px;stroke-linecap:butt;stroke-linejoin:miter;stroke-opacity:1" d="M 480.085,444.092 493.804,460.432 z" id="boundary" inkscape:connector-curvature="0" />
	<path style="fill:none;stroke:red;stroke-width:1px;stroke-linecap:butt;stroke-linejoin:miter;stroke-opacity:1" d="M 338.581,398.851 352.299,382.826 z" id="boundary" inkscape:connector-curvature="0" />
	<path style="fill:none;stroke:red;stroke-width:1px;stroke-linecap:butt;stroke-linejoin:miter;stroke-opacity:1" d="M 352.299,382.826 367.796,369.493 z" id="boundary" inkscape:connector-curvature="0" />
	<path style="fill:none;stroke:red;stroke-width:1px;stroke-linecap:butt;stroke-linejoin:miter;stroke-opacity:1" d="M 355.094,246.895 370.845,258.881 z" id="boundary" inkscape:connector-curvature="0" />
	<path style="fill:none;stroke:red;stroke-width:1px;stroke-linecap:butt;stroke-linejoin:miter;stroke-opacity:1" d="M 480.085,444.092 464.842,433.178 z" id="boundary" inkscape:connector-curvature="0" />
	<path style="fill:none;stroke:red;stroke-width:1px;stroke-linecap:butt;stroke-linejoin:miter;stroke-opacity:1" d="M 359.921,155.021 353.315,139.362 z" id="boundary" inkscape:connector-curvature="0" />
	<path style="fill:none;stroke:red;stroke-width:1px;stroke-linecap:butt;stroke-linejoin:miter;stroke-opacity:1" d="M 367.796,170.914 377.958,187.016 z" id="boundary" inkscape:connector-curvature="0" />
	<path style="fill:none;stroke:red;stroke-width:1px;stroke-linecap:butt;stroke-linejoin:miter;stroke-opacity:1" d="M 367.796,170.914 359.921,155.021 z" id="boundary" inkscape:connector-curvature="0" />
	<path style="fill:none;stroke:red;stroke-width:1px;stroke-linecap:butt;stroke-linejoin:miter;stroke-opacity:1" d="M 363.477,526.068 355.094,541.961 z" id="boundary" inkscape:connector-curvature="0" />
	<path style="fill:none;stroke:red;stroke-width:1px;stroke-linecap:butt;stroke-linejoin:miter;stroke-opacity:1" d="M 433.34,437.436 449.091,432.284 z" id="boundary" inkscape:connector-curvature="0" />
	<path style="fill:none;stroke:red;stroke-width:1px;stroke-linecap:butt;stroke-linejoin:miter;stroke-opacity:1" d="M 367.796,369.493 383.547,359.535 z" id="boundary" inkscape:connector-curvature="0" />
	<path style="fill:none;stroke:red;stroke-width:1px;stroke-linecap:butt;stroke-linejoin:miter;stroke-opacity:1" d="M 433.34,437.436 417.589,447.633 z" id="boundary" inkscape:connector-curvature="0" />
	<path style="fill:none;stroke:red;stroke-width:1px;stroke-linecap:butt;stroke-linejoin:miter;stroke-opacity:1" d="M 391.677,201.796 377.958,187.016 z" id="boundary" inkscape:connector-curvature="0" />
	<path style="fill:none;stroke:red;stroke-width:1px;stroke-linecap:butt;stroke-linejoin:miter;stroke-opacity:1" d="M 371.861,510.291 363.477,526.068 z" id="boundary" inkscape:connector-curvature="0" />
	<path style="fill:none;stroke:red;stroke-width:1px;stroke-linecap:butt;stroke-linejoin:miter;stroke-opacity:1" d="M 417.589,447.633 403.109,462.043 z" id="boundary" inkscape:connector-curvature="0" />
	<path style="fill:none;stroke:red;stroke-width:1px;stroke-linecap:butt;stroke-linejoin:miter;stroke-opacity:1" d="M 386.596,266.899 370.845,258.881 z" id="boundary" inkscape:connector-curvature="0" />
	<path style="fill:none;stroke:red;stroke-width:1px;stroke-linecap:butt;stroke-linejoin:miter;stroke-opacity:1" d="M 383.547,359.535 399.298,352.365 z" id="boundary" inkscape:connector-curvature="0" />
	<path style="fill:none;stroke:red;stroke-width:1px;stroke-linecap:butt;stroke-linejoin:miter;stroke-opacity:1" d="M 407.428,211.318 391.677,201.796 z" id="boundary" inkscape:connector-curvature="0" />
	<path style="fill:none;stroke:red;stroke-width:1px;stroke-linecap:butt;stroke-linejoin:miter;stroke-opacity:1" d="M 391.169,477.845 381.007,494.058 z" id="boundary" inkscape:connector-curvature="0" />
	<path style="fill:none;stroke:red;stroke-width:1px;stroke-linecap:butt;stroke-linejoin:miter;stroke-opacity:1" d="M 403.109,462.043 391.169,477.845 z" id="boundary" inkscape:connector-curvature="0" />
	<path style="fill:none;stroke:red;stroke-width:1px;stroke-linecap:butt;stroke-linejoin:miter;stroke-opacity:1" d="M 386.596,266.899 402.347,271.756 z" id="boundary" inkscape:connector-curvature="0" />
	<path style="fill:none;stroke:red;stroke-width:1px;stroke-linecap:butt;stroke-linejoin:miter;stroke-opacity:1" d="M 415.049,347.325 399.298,352.365 z" id="boundary" inkscape:connector-curvature="0" />
	<path style="fill:none;stroke:red;stroke-width:1px;stroke-linecap:butt;stroke-linejoin:miter;stroke-opacity:1" d="M 407.428,211.318 423.179,214.697 z" id="boundary" inkscape:connector-curvature="0" />
	<path style="fill:none;stroke:red;stroke-width:1px;stroke-linecap:butt;stroke-linejoin:miter;stroke-opacity:1" d="M 415.049,347.325 430.8,344.094 z" id="boundary" inkscape:connector-curvature="0" />
	<path style="fill:none;stroke:red;stroke-width:1px;stroke-linecap:butt;stroke-linejoin:miter;stroke-opacity:1" d="M 402.347,271.756 418.098,274.124 z" id="boundary" inkscape:connector-curvature="0" />
	<path style="fill:none;stroke:red;stroke-width:1px;stroke-linecap:butt;stroke-linejoin:miter;stroke-opacity:1" d="M 418.098,274.124 433.849,274.51 z" id="boundary" inkscape:connector-curvature="0" />
	<path style="fill:none;stroke:red;stroke-width:1px;stroke-linecap:butt;stroke-linejoin:miter;stroke-opacity:1" d="M 508.03,476.356 523.781,484.821 z" id="boundary" inkscape:connector-curvature="0" />
	<path style="fill:none;stroke:red;stroke-width:1px;stroke-linecap:butt;stroke-linejoin:miter;stroke-opacity:1" d="M 430.8,344.094 446.551,342.381 z" id="boundary" inkscape:connector-curvature="0" />
	<path style="fill:none;stroke:red;stroke-width:1px;stroke-linecap:butt;stroke-linejoin:miter;stroke-opacity:1" d="M 423.179,214.697 438.929,209.174 z" id="boundary" inkscape:connector-curvature="0" />
	<path style="fill:none;stroke:red;stroke-width:1px;stroke-linecap:butt;stroke-linejoin:miter;stroke-opacity:1" d="M 433.849,274.51 449.599,273.387 z" id="boundary" inkscape:connector-curvature="0" />
	<path style="fill:none;stroke:red;stroke-width:1px;stroke-linecap:butt;stroke-linejoin:miter;stroke-opacity:1" d="M 530.895,181.661 532.165,204.845 z" id="boundary" inkscape:connector-curvature="0" />
	<path style="fill:none;stroke:red;stroke-width:1px;stroke-linecap:butt;stroke-linejoin:miter;stroke-opacity:1" d="M 446.551,342.381 462.302,341.934 z" id="boundary" inkscape:connector-curvature="0" />
	<path style="fill:none;stroke:red;stroke-width:1px;stroke-linecap:butt;stroke-linejoin:miter;stroke-opacity:1" d="M 438.929,209.174 451.632,194.338 z" id="boundary" inkscape:connector-curvature="0" />
	<path style="fill:none;stroke:red;stroke-width:1px;stroke-linecap:butt;stroke-linejoin:miter;stroke-opacity:1" d="M 449.599,273.387 465.35,271.192 z" id="boundary" inkscape:connector-curvature="0" />
	<path style="fill:none;stroke:red;stroke-width:1px;stroke-linecap:butt;stroke-linejoin:miter;stroke-opacity:1" d="M 451.632,194.338 460.778,178.104 z" id="boundary" inkscape:connector-curvature="0" />
	<path style="fill:none;stroke:red;stroke-width:1px;stroke-linecap:butt;stroke-linejoin:miter;stroke-opacity:1" d="M 462.302,341.934 478.053,342.737 z" id="boundary" inkscape:connector-curvature="0" />
	<path style="fill:none;stroke:red;stroke-width:1px;stroke-linecap:butt;stroke-linejoin:miter;stroke-opacity:1" d="M 460.778,178.104 470.177,161.479 z" id="boundary" inkscape:connector-curvature="0" />
	<path style="fill:none;stroke:red;stroke-width:1px;stroke-linecap:butt;stroke-linejoin:miter;stroke-opacity:1" d="M 465.35,271.192 481.101,268.331 z" id="boundary" inkscape:connector-curvature="0" />
	<path style="fill:none;stroke:red;stroke-width:1px;stroke-linecap:butt;stroke-linejoin:miter;stroke-opacity:1" d="M 483.134,146.485 470.177,161.479 z" id="boundary" inkscape:connector-curvature="0" />
	<path style="fill:none;stroke:red;stroke-width:1px;stroke-linecap:butt;stroke-linejoin:miter;stroke-opacity:1" d="M 481.101,268.331 496.852,265.08 z" id="boundary" inkscape:connector-curvature="0" />
	<path style="fill:none;stroke:red;stroke-width:1px;stroke-linecap:butt;stroke-linejoin:miter;stroke-opacity:1" d="M 478.053,342.737 493.804,344.627 z" id="boundary" inkscape:connector-curvature="0" />
	<path style="fill:none;stroke:red;stroke-width:1px;stroke-linecap:butt;stroke-linejoin:miter;stroke-opacity:1" d="M 514.128,149.361 498.885,141.079 z" id="boundary" inkscape:connector-curvature="0" />
	<path style="fill:none;stroke:red;stroke-width:1px;stroke-linecap:butt;stroke-linejoin:miter;stroke-opacity:1" d="M 498.885,141.079 483.134,146.485 z" id="boundary" inkscape:connector-curvature="0" />
	<path style="fill:none;stroke:red;stroke-width:1px;stroke-linecap:butt;stroke-linejoin:miter;stroke-opacity:1" d="M 493.804,344.627 509.555,347.523 z" id="boundary" inkscape:connector-curvature="0" />
	<path style="fill:none;stroke:red;stroke-width:1px;stroke-linecap:butt;stroke-linejoin:miter;stroke-opacity:1" d="M 523.781,484.821 539.532,480.476 z" id="boundary" inkscape:connector-curvature="0" />
	<path style="fill:none;stroke:red;stroke-width:1px;stroke-linecap:butt;stroke-linejoin:miter;stroke-opacity:1" d="M 525.56,165.61 514.128,149.361 z" id="boundary" inkscape:connector-curvature="0" />
	<path style="fill:none;stroke:red;stroke-width:1px;stroke-linecap:butt;stroke-linejoin:miter;stroke-opacity:1" d="M 525.306,351.375 509.555,347.523 z" id="boundary" inkscape:connector-curvature="0" />
	<path style="fill:none;stroke:red;stroke-width:1px;stroke-linecap:butt;stroke-linejoin:miter;stroke-opacity:1" d="M 554.486,404.979 568.494,406.239 z" id="boundary" inkscape:connector-curvature="0" />
	<path style="fill:none;stroke:red;stroke-width:1px;stroke-linecap:butt;stroke-linejoin:miter;stroke-opacity:1" d="M 554.486,404.979 545.391,417.818 z" id="boundary" inkscape:connector-curvature="0" />
	<path style="fill:none;stroke:red;stroke-width:1px;stroke-linecap:butt;stroke-linejoin:miter;stroke-opacity:1" d="M 496.852,265.08 512.603,261.858 z" id="boundary" inkscape:connector-curvature="0" />
	<path style="fill:none;stroke:red;stroke-width:1px;stroke-linecap:butt;stroke-linejoin:miter;stroke-opacity:1" d="M 530.895,181.661 525.56,165.61 z" id="boundary" inkscape:connector-curvature="0" />
	<path style="fill:none;stroke:red;stroke-width:1px;stroke-linecap:butt;stroke-linejoin:miter;stroke-opacity:1" d="M 528.354,259.038 512.603,261.858 z" id="boundary" inkscape:connector-curvature="0" />
	<path style="fill:none;stroke:red;stroke-width:1px;stroke-linecap:butt;stroke-linejoin:miter;stroke-opacity:1" d="M 542.073,215.82 532.165,204.845 z" id="boundary" inkscape:connector-curvature="0" />
	<path style="fill:none;stroke:red;stroke-width:1px;stroke-linecap:butt;stroke-linejoin:miter;stroke-opacity:1" d="M 944.23,433.422 939.276,444.046 z" id="boundary" inkscape:connector-curvature="0" />
	<path style="fill:none;stroke:red;stroke-width:1px;stroke-linecap:butt;stroke-linejoin:miter;stroke-opacity:1" d="M 673.161,312.485 688.912,308.964 z" id="boundary" inkscape:connector-curvature="0" />
	<path style="fill:none;stroke:red;stroke-width:1px;stroke-linecap:butt;stroke-linejoin:miter;stroke-opacity:1" d="M 525.306,351.375 538.516,355.261 z" id="boundary" inkscape:connector-curvature="0" />
	<path style="fill:none;stroke:red;stroke-width:1px;stroke-linecap:butt;stroke-linejoin:miter;stroke-opacity:1" d="M 573.575,213.417 584.753,221.47 z" id="boundary" inkscape:connector-curvature="0" />
	<path style="fill:none;stroke:red;stroke-width:1px;stroke-linecap:butt;stroke-linejoin:miter;stroke-opacity:1" d="M 573.575,213.417 557.824,215.007 z" id="boundary" inkscape:connector-curvature="0" />
	<path style="fill:none;stroke:red;stroke-width:1px;stroke-linecap:butt;stroke-linejoin:miter;stroke-opacity:1" d="M 704.663,306.555 688.912,308.964 z" id="boundary" inkscape:connector-curvature="0" />
	<path style="fill:none;stroke:red;stroke-width:1px;stroke-linecap:butt;stroke-linejoin:miter;stroke-opacity:1" d="M 542.073,215.82 557.824,215.007 z" id="boundary" inkscape:connector-curvature="0" />
	<path style="fill:none;stroke:red;stroke-width:1px;stroke-linecap:butt;stroke-linejoin:miter;stroke-opacity:1" d="M 539.532,480.476 551.473,465.02 z" id="boundary" inkscape:connector-curvature="0" />
	<path style="fill:none;stroke:red;stroke-width:1px;stroke-linecap:butt;stroke-linejoin:miter;stroke-opacity:1" d="M 556.045,449.147 552.743,436.755 z" id="boundary" inkscape:connector-curvature="0" />
	<path style="fill:none;stroke:red;stroke-width:1px;stroke-linecap:butt;stroke-linejoin:miter;stroke-opacity:1" d="M 584.753,221.47 589.326,238.77 z" id="boundary" inkscape:connector-curvature="0" />
	<path style="fill:none;stroke:red;stroke-width:1px;stroke-linecap:butt;stroke-linejoin:miter;stroke-opacity:1" d="M 584.245,408.51 596.439,402.474 z" id="boundary" inkscape:connector-curvature="0" />
	<path style="fill:none;stroke:red;stroke-width:1px;stroke-linecap:butt;stroke-linejoin:miter;stroke-opacity:1" d="M 556.045,449.147 551.473,465.02 z" id="boundary" inkscape:connector-curvature="0" />
	<path style="fill:none;stroke:red;stroke-width:1px;stroke-linecap:butt;stroke-linejoin:miter;stroke-opacity:1" d="M 552.743,436.755 545.391,417.818 z" id="boundary" inkscape:connector-curvature="0" />
	<path style="fill:none;stroke:red;stroke-width:1px;stroke-linecap:butt;stroke-linejoin:miter;stroke-opacity:1" d="M 568.494,406.239 584.245,408.51 z" id="boundary" inkscape:connector-curvature="0" />
	<path style="fill:none;stroke:red;stroke-width:1px;stroke-linecap:butt;stroke-linejoin:miter;stroke-opacity:1" d="M 596.439,402.474 600.758,386.296 z" id="boundary" inkscape:connector-curvature="0" />
	<path style="fill:none;stroke:red;stroke-width:1px;stroke-linecap:butt;stroke-linejoin:miter;stroke-opacity:1" d="M 595.169,259.003 589.326,238.77 z" id="boundary" inkscape:connector-curvature="0" />
	<path style="fill:none;stroke:red;stroke-width:1px;stroke-linecap:butt;stroke-linejoin:miter;stroke-opacity:1" d="M 641.659,323.749 657.41,317.352 z" id="boundary" inkscape:connector-curvature="0" />
	<path style="fill:none;stroke:red;stroke-width:1px;stroke-linecap:butt;stroke-linejoin:miter;stroke-opacity:1" d="M 600.758,386.296 600.041,362.659 z" id="boundary" inkscape:connector-curvature="0" />
	<path style="fill:none;stroke:red;stroke-width:1px;stroke-linecap:butt;stroke-linejoin:miter;stroke-opacity:1" d="M 625.909,332.214 641.659,323.749 z" id="boundary" inkscape:connector-curvature="0" />
	<path style="fill:none;stroke:red;stroke-width:1px;stroke-linecap:butt;stroke-linejoin:miter;stroke-opacity:1" d="M 595.169,259.003 607.617,264.109 z" id="boundary" inkscape:connector-curvature="0" />
	<path style="fill:none;stroke:red;stroke-width:1px;stroke-linecap:butt;stroke-linejoin:miter;stroke-opacity:1" d="M 600.041,362.659 610.158,343.326 z" id="boundary" inkscape:connector-curvature="0" />
	<path style="fill:none;stroke:red;stroke-width:1px;stroke-linecap:butt;stroke-linejoin:miter;stroke-opacity:1" d="M 610.158,343.326 625.909,332.214 z" id="boundary" inkscape:connector-curvature="0" />
	<path style="fill:none;stroke:red;stroke-width:1px;stroke-linecap:butt;stroke-linejoin:miter;stroke-opacity:1" d="M 607.617,264.109 623.368,264.48 z" id="boundary" inkscape:connector-curvature="0" />
	<path style="fill:none;stroke:red;stroke-width:1px;stroke-linecap:butt;stroke-linejoin:miter;stroke-opacity:1" d="M 657.41,317.352 673.161,312.485 z" id="boundary" inkscape:connector-curvature="0" />
	<path style="fill:none;stroke:red;stroke-width:1px;stroke-linecap:butt;stroke-linejoin:miter;stroke-opacity:1" d="M 623.368,264.48 639.119,264.48 z" id="boundary" inkscape:connector-curvature="0" />
	<path style="fill:none;stroke:red;stroke-width:1px;stroke-linecap:butt;stroke-linejoin:miter;stroke-opacity:1" d="M 639.119,264.48 654.87,264.48 z" id="boundary" inkscape:connector-curvature="0" />
	<path style="fill:none;stroke:red;stroke-width:1px;stroke-linecap:butt;stroke-linejoin:miter;stroke-opacity:1" d="M 736.165,304.62 720.414,305.204 z" id="boundary" inkscape:connector-curvature="0" />
	<path style="fill:none;stroke:red;stroke-width:1px;stroke-linecap:butt;stroke-linejoin:miter;stroke-opacity:1" d="M 720.414,305.204 704.663,306.555 z" id="boundary" inkscape:connector-curvature="0" />
	<path style="fill:none;stroke:red;stroke-width:1px;stroke-linecap:butt;stroke-linejoin:miter;stroke-opacity:1" d="M 654.87,264.48 670.621,264.48 z" id="boundary" inkscape:connector-curvature="0" />
	<path style="fill:none;stroke:red;stroke-width:1px;stroke-linecap:butt;stroke-linejoin:miter;stroke-opacity:1" d="M 670.621,264.48 686.372,264.226 z" id="boundary" inkscape:connector-curvature="0" />
	<path style="fill:none;stroke:red;stroke-width:1px;stroke-linecap:butt;stroke-linejoin:miter;stroke-opacity:1" d="M 751.916,304.991 736.165,304.62 z" id="boundary" inkscape:connector-curvature="0" />
	<path style="fill:none;stroke:red;stroke-width:1px;stroke-linecap:butt;stroke-linejoin:miter;stroke-opacity:1" d="M 686.372,264.226 702.123,263.972 z" id="boundary" inkscape:connector-curvature="0" />
	<path style="fill:none;stroke:red;stroke-width:1px;stroke-linecap:butt;stroke-linejoin:miter;stroke-opacity:1" d="M 767.667,306.113 751.916,304.991 z" id="boundary" inkscape:connector-curvature="0" />
	<path style="fill:none;stroke:red;stroke-width:1px;stroke-linecap:butt;stroke-linejoin:miter;stroke-opacity:1" d="M 702.123,263.972 717.874,263.85 z" id="boundary" inkscape:connector-curvature="0" />
	<path style="fill:none;stroke:red;stroke-width:1px;stroke-linecap:butt;stroke-linejoin:miter;stroke-opacity:1" d="M 783.418,307.963 767.667,306.113 z" id="boundary" inkscape:connector-curvature="0" />
	<path style="fill:none;stroke:red;stroke-width:1px;stroke-linecap:butt;stroke-linejoin:miter;stroke-opacity:1" d="M 717.874,263.85 733.625,263.708 z" id="boundary" inkscape:connector-curvature="0" />
	<path style="fill:none;stroke:red;stroke-width:1px;stroke-linecap:butt;stroke-linejoin:miter;stroke-opacity:1" d="M 799.169,310.493 814.92,313.775 z" id="boundary" inkscape:connector-curvature="0" />
	<path style="fill:none;stroke:red;stroke-width:1px;stroke-linecap:butt;stroke-linejoin:miter;stroke-opacity:1" d="M 733.625,263.708 749.376,263.957 z" id="boundary" inkscape:connector-curvature="0" />
	<path style="fill:none;stroke:red;stroke-width:1px;stroke-linecap:butt;stroke-linejoin:miter;stroke-opacity:1" d="M 749.376,263.957 765.127,264.511 z" id="boundary" inkscape:connector-curvature="0" />
	<path style="fill:none;stroke:red;stroke-width:1px;stroke-linecap:butt;stroke-linejoin:miter;stroke-opacity:1" d="M 877.924,334.679 862.173,328.083 z" id="boundary" inkscape:connector-curvature="0" />
	<path style="fill:none;stroke:red;stroke-width:1px;stroke-linecap:butt;stroke-linejoin:miter;stroke-opacity:1" d="M 765.127,264.511 780.878,265.613 z" id="boundary" inkscape:connector-curvature="0" />
	<path style="fill:none;stroke:red;stroke-width:1px;stroke-linecap:butt;stroke-linejoin:miter;stroke-opacity:1" d="M 893.675,343.372 909.426,354.87 z" id="boundary" inkscape:connector-curvature="0" />
	<path style="fill:none;stroke:red;stroke-width:1px;stroke-linecap:butt;stroke-linejoin:miter;stroke-opacity:1" d="M 780.878,265.613 796.629,267.452 z" id="boundary" inkscape:connector-curvature="0" />
	<path style="fill:none;stroke:red;stroke-width:1px;stroke-linecap:butt;stroke-linejoin:miter;stroke-opacity:1" d="M 783.418,307.963 799.169,310.493 z" id="boundary" inkscape:connector-curvature="0" />
	<path style="fill:none;stroke:red;stroke-width:1px;stroke-linecap:butt;stroke-linejoin:miter;stroke-opacity:1" d="M 943.722,400.563 935.847,384.726 z" id="boundary" inkscape:connector-curvature="0" />
	<path style="fill:none;stroke:red;stroke-width:1px;stroke-linecap:butt;stroke-linejoin:miter;stroke-opacity:1" d="M 796.629,267.452 812.379,270.12 z" id="boundary" inkscape:connector-curvature="0" />
	<path style="fill:none;stroke:red;stroke-width:1px;stroke-linecap:butt;stroke-linejoin:miter;stroke-opacity:1" d="M 939.276,444.046 931.248,455.28 z" id="boundary" inkscape:connector-curvature="0" />
	<path style="fill:none;stroke:red;stroke-width:1px;stroke-linecap:butt;stroke-linejoin:miter;stroke-opacity:1" d="M 812.379,270.12 828.13,273.783 z" id="boundary" inkscape:connector-curvature="0" />
	<path style="fill:none;stroke:red;stroke-width:1px;stroke-linecap:butt;stroke-linejoin:miter;stroke-opacity:1" d="M 814.92,313.775 830.671,317.779 z" id="boundary" inkscape:connector-curvature="0" />
	<path style="fill:none;stroke:red;stroke-width:1px;stroke-linecap:butt;stroke-linejoin:miter;stroke-opacity:1" d="M 935.847,384.726 924.16,369.148 z" id="boundary" inkscape:connector-curvature="0" />
	<path style="fill:none;stroke:red;stroke-width:1px;stroke-linecap:butt;stroke-linejoin:miter;stroke-opacity:1" d="M 828.13,273.783 843.881,278.585 z" id="boundary" inkscape:connector-curvature="0" />
	<path style="fill:none;stroke:red;stroke-width:1px;stroke-linecap:butt;stroke-linejoin:miter;stroke-opacity:1" d="M 830.671,317.779 846.422,322.56 z" id="boundary" inkscape:connector-curvature="0" />
	<path style="fill:none;stroke:red;stroke-width:1px;stroke-linecap:butt;stroke-linejoin:miter;stroke-opacity:1" d="M 924.16,369.148 909.426,354.87 z" id="boundary" inkscape:connector-curvature="0" />
	<path style="fill:none;stroke:red;stroke-width:1px;stroke-linecap:butt;stroke-linejoin:miter;stroke-opacity:1" d="M 843.881,278.585 859.632,284.601 z" id="boundary" inkscape:connector-curvature="0" />
	<path style="fill:none;stroke:red;stroke-width:1px;stroke-linecap:butt;stroke-linejoin:miter;stroke-opacity:1" d="M 859.632,284.601 875.383,291.861 z" id="boundary" inkscape:connector-curvature="0" />
	<path style="fill:none;stroke:red;stroke-width:1px;stroke-linecap:butt;stroke-linejoin:miter;stroke-opacity:1" d="M 877.924,334.679 893.675,343.372 z" id="boundary" inkscape:connector-curvature="0" />
	<path style="fill:none;stroke:red;stroke-width:1px;stroke-linecap:butt;stroke-linejoin:miter;stroke-opacity:1" d="M 846.422,322.56 862.173,328.083 z" id="boundary" inkscape:connector-curvature="0" />
	<path style="fill:none;stroke:red;stroke-width:1px;stroke-linecap:butt;stroke-linejoin:miter;stroke-opacity:1" d="M 875.383,291.861 891.134,300.433 z" id="boundary" inkscape:connector-curvature="0" />
	<path style="fill:none;stroke:red;stroke-width:1px;stroke-linecap:butt;stroke-linejoin:miter;stroke-opacity:1" d="M 891.134,300.433 906.885,310.285 z" id="boundary" inkscape:connector-curvature="0" />
	<path style="fill:none;stroke:red;stroke-width:1px;stroke-linecap:butt;stroke-linejoin:miter;stroke-opacity:1" d="M 906.885,310.285 922.636,321.854 z" id="boundary" inkscape:connector-curvature="0" />
	<path style="fill:none;stroke:red;stroke-width:1px;stroke-linecap:butt;stroke-linejoin:miter;stroke-opacity:1" d="M 922.636,321.854 938.387,335.776 z" id="boundary" inkscape:connector-curvature="0" />
	<path style="fill:none;stroke:red;stroke-width:1px;stroke-linecap:butt;stroke-linejoin:miter;stroke-opacity:1" d="M 938.387,335.776 952.614,351.375 z" id="boundary" inkscape:connector-curvature="0" />
	<path style="fill:none;stroke:red;stroke-width:1px;stroke-linecap:butt;stroke-linejoin:miter;stroke-opacity:1" d="M 931.248,455.28 939.276,464.38 z" id="boundary" inkscape:connector-curvature="0" />
	<path style="fill:none;stroke:red;stroke-width:1px;stroke-linecap:butt;stroke-linejoin:miter;stroke-opacity:1" d="M 966.84,486.396 975.666,492.742 z" id="boundary" inkscape:connector-curvature="0" />
	<path style="fill:none;stroke:red;stroke-width:1px;stroke-linecap:butt;stroke-linejoin:miter;stroke-opacity:1" d="M 975.666,492.742 985.833,501.842 z" id="boundary" inkscape:connector-curvature="0" />
	<path style="fill:none;stroke:red;stroke-width:1px;stroke-linecap:butt;stroke-linejoin:miter;stroke-opacity:1" d="M 964.046,367.065 952.614,351.375 z" id="boundary" inkscape:connector-curvature="0" />
	<path style="fill:none;stroke:red;stroke-width:1px;stroke-linecap:butt;stroke-linejoin:miter;stroke-opacity:1" d="M 964.046,367.065 973.192,382.821 z" id="boundary" inkscape:connector-curvature="0" />
	<path style="fill:none;stroke:red;stroke-width:1px;stroke-linecap:butt;stroke-linejoin:miter;stroke-opacity:1" d="M 985.64,414.592 980.305,398.49 z" id="boundary" inkscape:connector-curvature="0" />
	<path style="fill:none;stroke:red;stroke-width:1px;stroke-linecap:butt;stroke-linejoin:miter;stroke-opacity:1" d="M 944.23,433.422 948.041,417.361 z" id="boundary" inkscape:connector-curvature="0" />
	<path style="fill:none;stroke:red;stroke-width:1px;stroke-linecap:butt;stroke-linejoin:miter;stroke-opacity:1" d="M 948.041,417.361 943.722,400.563 z" id="boundary" inkscape:connector-curvature="0" />
	<path style="fill:none;stroke:red;stroke-width:1px;stroke-linecap:butt;stroke-linejoin:miter;stroke-opacity:1" d="M 980.305,398.49 973.192,382.821 z" id="boundary" inkscape:connector-curvature="0" />
	<path style="fill:none;stroke:red;stroke-width:1px;stroke-linecap:butt;stroke-linejoin:miter;stroke-opacity:1" d="M 989.451,430.206 985.64,414.592 z" id="boundary" inkscape:connector-curvature="0" />
	<path style="fill:none;stroke:red;stroke-width:1px;stroke-linecap:butt;stroke-linejoin:miter;stroke-opacity:1" d="M 992.245,446.226 989.451,430.206 z" id="boundary" inkscape:connector-curvature="0" />
	<path style="fill:none;stroke:red;stroke-width:1px;stroke-linecap:butt;stroke-linejoin:miter;stroke-opacity:1" d="M 994.481,465.584 992.245,446.226 z" id="boundary" inkscape:connector-curvature="0" />
	<path style="fill:none;stroke:red;stroke-width:1px;stroke-linecap:butt;stroke-linejoin:miter;stroke-opacity:1" d="M 994.481,465.584 995.548,479.851 z" id="boundary" inkscape:connector-curvature="0" />
	<path style="fill:none;stroke:red;stroke-width:1px;stroke-linecap:butt;stroke-linejoin:miter;stroke-opacity:1" d="M 189.963,364.976 179.872,369.122 z" id="boundary" inkscape:connector-curvature="0" />
	<path style="fill:none;stroke:red;stroke-width:1px;stroke-linecap:butt;stroke-linejoin:miter;stroke-opacity:1" d="M 175.055,289.915 168.633,277.071 z" id="boundary" inkscape:connector-curvature="0" />
	<path style="fill:none;stroke:red;stroke-width:1px;stroke-linecap:butt;stroke-linejoin:miter;stroke-opacity:1" d="M 168.633,277.071 175.589,264.765 z" id="boundary" inkscape:connector-curvature="0" />
	<path style="fill:none;stroke:red;stroke-width:1px;stroke-linecap:butt;stroke-linejoin:miter;stroke-opacity:1" d="M 210.912,271.72 210.912,282.421 z" id="boundary" inkscape:connector-curvature="0" />
	<path style="fill:none;stroke:red;stroke-width:1px;stroke-linecap:butt;stroke-linejoin:miter;stroke-opacity:1" d="M 230.102,286.669 219.473,286.704 z" id="boundary" inkscape:connector-curvature="0" />
	<path style="fill:none;stroke:red;stroke-width:1px;stroke-linecap:butt;stroke-linejoin:miter;stroke-opacity:1" d="M 210.912,271.72 221.612,268.509 z" id="boundary" inkscape:connector-curvature="0" />
	<path style="fill:none;stroke:red;stroke-width:1px;stroke-linecap:butt;stroke-linejoin:miter;stroke-opacity:1" d="M 226.967,394.807 214.123,391.062 z" id="boundary" inkscape:connector-curvature="0" />
	<path style="fill:none;stroke:red;stroke-width:1px;stroke-linecap:butt;stroke-linejoin:miter;stroke-opacity:1" d="M 239.273,391.062 226.967,394.807 z" id="boundary" inkscape:connector-curvature="0" />
	<path style="fill:none;stroke:red;stroke-width:1px;stroke-linecap:butt;stroke-linejoin:miter;stroke-opacity:1" d="M 243.018,382.5 233.659,378.39 z" id="boundary" inkscape:connector-curvature="0" />
	<path style="fill:none;stroke:red;stroke-width:1px;stroke-linecap:butt;stroke-linejoin:miter;stroke-opacity:1" d="M 252.967,407.773 243.557,410.862 z" id="boundary" inkscape:connector-curvature="0" />
	<path style="fill:none;stroke:red;stroke-width:1px;stroke-linecap:butt;stroke-linejoin:miter;stroke-opacity:1" d="M 939.276,464.38 951.089,473.333 z" id="boundary" inkscape:connector-curvature="0" />
	<path style="fill:none;stroke:red;stroke-width:1px;stroke-linecap:butt;stroke-linejoin:miter;stroke-opacity:1" d="M 217.867,411.934 202.884,409.257 z" id="boundary" inkscape:connector-curvature="0" />
	<path style="fill:none;stroke:red;stroke-width:1px;stroke-linecap:butt;stroke-linejoin:miter;stroke-opacity:1" d="M 243.557,410.862 231.246,413.001 z" id="boundary" inkscape:connector-curvature="0" />
	<path style="fill:none;stroke:red;stroke-width:1px;stroke-linecap:butt;stroke-linejoin:miter;stroke-opacity:1" d="M 985.833,501.842 994.394,503.981 z" id="boundary" inkscape:connector-curvature="0" />
	<path style="fill:none;stroke:red;stroke-width:1px;stroke-linecap:butt;stroke-linejoin:miter;stroke-opacity:1" d="M 996,493.814 995.548,479.851 z" id="boundary" inkscape:connector-curvature="0" />
	<path style="fill:none;stroke:red;stroke-width:1px;stroke-linecap:butt;stroke-linejoin:miter;stroke-opacity:1" d="M 996,493.814 994.394,503.981 z" id="boundary" inkscape:connector-curvature="0" />
	<circle cx="4" cy="334.597" r="4" fill="#0" id="circle0"/>
	<circle cx="8.06476" cy="307.714" r="4" fill="#0" id="circle1"/>
	<circle cx="8.31881" cy="358.498" r="4" fill="#0" id="circle2"/>
	<circle cx="15.1781" cy="291.795" r="4" fill="#0" id="circle3"/>
	<circle cx="16.1943" cy="374.335" r="4" fill="#0" id="circle4"/>
	<circle cx="25.34" cy="276.202" r="4" fill="#0" id="circle5"/>
	<circle cx="27.6264" cy="389.893" r="4" fill="#0" id="circle6"/>
	<circle cx="38.8045" cy="260.71" r="4" fill="#0" id="circle7"/>
	<circle cx="42.1071" cy="404.648" r="4" fill="#0" id="circle8"/>
	<circle cx="54.3014" cy="246.539" r="4" fill="#0" id="circle9"/>
	<circle cx="57.8581" cy="417.31" r="4" fill="#0" id="circle10"/>
	<circle cx="70.0524" cy="235.595" r="4" fill="#0" id="circle11"/>
	<circle cx="73.609" cy="425.612" r="4" fill="#0" id="circle12"/>
	<circle cx="85.8033" cy="231.027" r="4" fill="#0" id="circle13"/>
	<circle cx="89.36" cy="428.259" r="4" fill="#0" id="circle14"/>
	<circle cx="101.554" cy="230.438" r="4" fill="#0" id="circle15"/>
	<circle cx="105.111" cy="429.011" r="4" fill="#0" id="circle16"/>
	<circle cx="117.305" cy="229.813" r="4" fill="#0" id="circle17"/>
	<circle cx="120.862" cy="430.815" r="4" fill="#0" id="circle18"/>
	<circle cx="133.056" cy="224.31" r="4" fill="#0" id="circle19"/>
	<circle cx="136.613" cy="437.42" r="4" fill="#0" id="circle20"/>
	<circle cx="147.537" cy="211.288" r="4" fill="#0" id="circle21"/>
	<circle cx="151.348" cy="450.565" r="4" fill="#0" id="circle22"/>
	<circle cx="158.715" cy="195.349" r="4" fill="#0" id="circle23"/>
	<circle cx="163.034" cy="466.473" r="4" fill="#0" id="circle24"/>
	<circle cx="166.59" cy="179.374" r="4" fill="#0" id="circle25"/>
	<circle cx="171.671" cy="482.316" r="4" fill="#0" id="circle26"/>
	<circle cx="172.688" cy="163.252" r="4" fill="#0" id="circle27"/>
	<circle cx="177.769" cy="146.744" r="4" fill="#0" id="circle28"/>
	<circle cx="178.785" cy="498.321" r="4" fill="#0" id="circle29"/>
	<circle cx="182.087" cy="130.536" r="4" fill="#0" id="circle30"/>
	<circle cx="187.93" cy="257.885" r="4" fill="#0" id="circle31"/>
	<circle cx="188.439" cy="296.861" r="4" fill="#0" id="circle32"/>
	<circle cx="189.963" cy="364.976" r="4" fill="#0" id="circle33"/>
	<circle cx="189.963" cy="403.739" r="4" fill="#0" id="circle34"/>
	<circle cx="185.136" cy="514.656" r="4" fill="#0" id="circle35"/>
	<circle cx="186.152" cy="114.084" r="4" fill="#0" id="circle36"/>
	<circle cx="190.217" cy="97.5708" r="4" fill="#0" id="circle37"/>
	<circle cx="190.979" cy="530.539" r="4" fill="#0" id="circle38"/>
	<circle cx="194.536" cy="80.89" r="4" fill="#0" id="circle39"/>
	<circle cx="196.822" cy="546.514" r="4" fill="#0" id="circle40"/>
	<circle cx="203.681" cy="252.972" r="4" fill="#0" id="circle41"/>
	<circle cx="204.19" cy="301.662" r="4" fill="#0" id="circle42"/>
	<circle cx="199.363" cy="64.6971" r="4" fill="#0" id="circle43"/>
	<circle cx="205.714" cy="360.068" r="4" fill="#0" id="circle44"/>
	<circle cx="203.173" cy="562.656" r="4" fill="#0" id="circle45"/>
	<circle cx="205.46" cy="48.5193" r="4" fill="#0" id="circle46"/>
	<circle cx="210.541" cy="578.656" r="4" fill="#0" id="circle47"/>
	<circle cx="214.097" cy="31.9656" r="4" fill="#0" id="circle48"/>
	<circle cx="219.432" cy="250.975" r="4" fill="#0" id="circle49"/>
	<circle cx="219.94" cy="303.537" r="4" fill="#0" id="circle50"/>
	<circle cx="221.465" cy="358.127" r="4" fill="#0" id="circle51"/>
	<circle cx="219.94" cy="594.574" r="4" fill="#0" id="circle52"/>
	<circle cx="227.054" cy="16.7075" r="4" fill="#0" id="circle53"/>
	<circle cx="230.61" cy="270.247" r="4" fill="#0" id="circle54"/>
	<circle cx="230.102" cy="286.669" r="4" fill="#0" id="circle55"/>
	<circle cx="233.151" cy="609.401" r="4" fill="#0" id="circle56"/>
	<circle cx="233.659" cy="378.39" r="4" fill="#0" id="circle57"/>
	<circle cx="235.183" cy="251.244" r="4" fill="#0" id="circle58"/>
	<circle cx="235.691" cy="303.192" r="4" fill="#0" id="circle59"/>
	<circle cx="237.216" cy="358.381" r="4" fill="#0" id="circle60"/>
	<circle cx="242.805" cy="7.24673" r="4" fill="#0" id="circle61"/>
	<circle cx="240.772" cy="277.691" r="4" fill="#0" id="circle62"/>
	<circle cx="248.902" cy="619.207" r="4" fill="#0" id="circle63"/>
	<circle cx="250.934" cy="253.861" r="4" fill="#0" id="circle64"/>
	<circle cx="251.442" cy="300.524" r="4" fill="#0" id="circle65"/>
	<circle cx="252.967" cy="360.967" r="4" fill="#0" id="circle66"/>
	<circle cx="252.967" cy="407.773" r="4" fill="#0" id="circle67"/>
	<circle cx="258.556" cy="4" r="4" fill="#0" id="circle68"/>
	<circle cx="264.653" cy="622.911" r="4" fill="#0" id="circle69"/>
	<circle cx="266.685" cy="259.867" r="4" fill="#0" id="circle70"/>
	<circle cx="267.193" cy="294.361" r="4" fill="#0" id="circle71"/>
	<circle cx="268.718" cy="366.958" r="4" fill="#0" id="circle72"/>
	<circle cx="268.718" cy="401.747" r="4" fill="#0" id="circle73"/>
	<circle cx="274.307" cy="5.48872" r="4" fill="#0" id="circle74"/>
	<circle cx="280.404" cy="622.194" r="4" fill="#0" id="circle75"/>
	<circle cx="278.625" cy="271.893" r="4" fill="#0" id="circle76"/>
	<circle cx="277.609" cy="286.379" r="4" fill="#0" id="circle77"/>
	<circle cx="280.658" cy="379.04" r="4" fill="#0" id="circle78"/>
	<circle cx="279.388" cy="393.79" r="4" fill="#0" id="circle79"/>
	<circle cx="290.058" cy="13.227" r="4" fill="#0" id="circle80"/>
	<circle cx="296.155" cy="616.575" r="4" fill="#0" id="circle81"/>
	<circle cx="304.03" cy="27.0116" r="4" fill="#0" id="circle82"/>
	<circle cx="311.906" cy="605.148" r="4" fill="#0" id="circle83"/>
	<circle cx="314.446" cy="42.788" r="4" fill="#0" id="circle84"/>
	<circle cx="322.322" cy="58.4272" r="4" fill="#0" id="circle85"/>
	<circle cx="325.878" cy="589.737" r="4" fill="#0" id="circle86"/>
	<circle cx="329.181" cy="74.6862" r="4" fill="#0" id="circle87"/>
	<circle cx="336.802" cy="574.017" r="4" fill="#0" id="circle88"/>
	<circle cx="335.532" cy="91.3263" r="4" fill="#0" id="circle89"/>
	<circle cx="338.581" cy="398.851" r="4" fill="#0" id="circle90"/>
	<circle cx="340.359" cy="231.357" r="4" fill="#0" id="circle91"/>
	<circle cx="341.375" cy="107.362" r="4" fill="#0" id="circle92"/>
	<circle cx="346.202" cy="558.215" r="4" fill="#0" id="circle93"/>
	<circle cx="347.218" cy="123.463" r="4" fill="#0" id="circle94"/>
	<circle cx="352.299" cy="382.826" r="4" fill="#0" id="circle95"/>
	<circle cx="355.094" cy="246.895" r="4" fill="#0" id="circle96"/>
	<circle cx="353.315" cy="139.362" r="4" fill="#0" id="circle97"/>
	<circle cx="355.094" cy="541.961" r="4" fill="#0" id="circle98"/>
	<circle cx="359.921" cy="155.021" r="4" fill="#0" id="circle99"/>
	<circle cx="363.477" cy="526.068" r="4" fill="#0" id="circle100"/>
	<circle cx="367.796" cy="369.493" r="4" fill="#0" id="circle101"/>
	<circle cx="370.845" cy="258.881" r="4" fill="#0" id="circle102"/>
	<circle cx="367.796" cy="170.914" r="4" fill="#0" id="circle103"/>
	<circle cx="371.861" cy="510.291" r="4" fill="#0" id="circle104"/>
	<circle cx="377.958" cy="187.016" r="4" fill="#0" id="circle105"/>
	<circle cx="383.547" cy="359.535" r="4" fill="#0" id="circle106"/>
	<circle cx="381.007" cy="494.058" r="4" fill="#0" id="circle107"/>
	<circle cx="386.596" cy="266.899" r="4" fill="#0" id="circle108"/>
	<circle cx="391.677" cy="201.796" r="4" fill="#0" id="circle109"/>
	<circle cx="391.169" cy="477.845" r="4" fill="#0" id="circle110"/>
	<circle cx="399.298" cy="352.365" r="4" fill="#0" id="circle111"/>
	<circle cx="402.347" cy="271.756" r="4" fill="#0" id="circle112"/>
	<circle cx="403.109" cy="462.043" r="4" fill="#0" id="circle113"/>
	<circle cx="407.428" cy="211.318" r="4" fill="#0" id="circle114"/>
	<circle cx="415.049" cy="347.325" r="4" fill="#0" id="circle115"/>
	<circle cx="417.589" cy="447.633" r="4" fill="#0" id="circle116"/>
	<circle cx="418.098" cy="274.124" r="4" fill="#0" id="circle117"/>
	<circle cx="423.179" cy="214.697" r="4" fill="#0" id="circle118"/>
	<circle cx="430.8" cy="344.094" r="4" fill="#0" id="circle119"/>
	<circle cx="433.34" cy="437.436" r="4" fill="#0" id="circle120"/>
	<circle cx="433.849" cy="274.51" r="4" fill="#0" id="circle121"/>
	<circle cx="438.929" cy="209.174" r="4" fill="#0" id="circle122"/>
	<circle cx="446.551" cy="342.381" r="4" fill="#0" id="circle123"/>
	<circle cx="449.091" cy="432.284" r="4" fill="#0" id="circle124"/>
	<circle cx="449.599" cy="273.387" r="4" fill="#0" id="circle125"/>
	<circle cx="451.632" cy="194.338" r="4" fill="#0" id="circle126"/>
	<circle cx="462.302" cy="341.934" r="4" fill="#0" id="circle127"/>
	<circle cx="460.778" cy="178.104" r="4" fill="#0" id="circle128"/>
	<circle cx="464.842" cy="433.178" r="4" fill="#0" id="circle129"/>
	<circle cx="465.35" cy="271.192" r="4" fill="#0" id="circle130"/>
	<circle cx="470.177" cy="161.479" r="4" fill="#0" id="circle131"/>
	<circle cx="478.053" cy="342.737" r="4" fill="#0" id="circle132"/>
	<circle cx="480.085" cy="444.092" r="4" fill="#0" id="circle133"/>
	<circle cx="481.101" cy="268.331" r="4" fill="#0" id="circle134"/>
	<circle cx="483.134" cy="146.485" r="4" fill="#0" id="circle135"/>
	<circle cx="493.804" cy="344.627" r="4" fill="#0" id="circle136"/>
	<circle cx="493.804" cy="460.432" r="4" fill="#0" id="circle137"/>
	<circle cx="496.852" cy="265.08" r="4" fill="#0" id="circle138"/>
	<circle cx="498.885" cy="141.079" r="4" fill="#0" id="circle139"/>
	<circle cx="508.03" cy="476.356" r="4" fill="#0" id="circle140"/>
	<circle cx="509.555" cy="347.523" r="4" fill="#0" id="circle141"/>
	<circle cx="512.603" cy="261.858" r="4" fill="#0" id="circle142"/>
	<circle cx="514.128" cy="149.361" r="4" fill="#0" id="circle143"/>
	<circle cx="523.781" cy="484.821" r="4" fill="#0" id="circle144"/>
	<circle cx="525.306" cy="351.375" r="4" fill="#0" id="circle145"/>
	<circle cx="528.354" cy="259.038" r="4" fill="#0" id="circle146"/>
	<circle cx="525.56" cy="165.61" r="4" fill="#0" id="circle147"/>
	<circle cx="530.895" cy="181.661" r="4" fill="#0" id="circle148"/>
	<circle cx="532.165" cy="204.845" r="4" fill="#0" id="circle149"/>
	<circle cx="539.532" cy="480.476" r="4" fill="#0" id="circle150"/>
	<circle cx="538.516" cy="355.261" r="4" fill="#0" id="circle151"/>
	<circle cx="542.073" cy="215.82" r="4" fill="#0" id="circle152"/>
	<circle cx="551.473" cy="465.02" r="4" fill="#0" id="circle153"/>
	<circle cx="557.824" cy="215.007" r="4" fill="#0" id="circle154"/>
	<circle cx="552.743" cy="436.755" r="4" fill="#0" id="circle155"/>
	<circle cx="556.045" cy="449.147" r="4" fill="#0" id="circle156"/>
	<circle cx="568.494" cy="406.239" r="4" fill="#0" id="circle157"/>
	<circle cx="573.575" cy="213.417" r="4" fill="#0" id="circle158"/>
	<circle cx="584.245" cy="408.51" r="4" fill="#0" id="circle159"/>
	<circle cx="584.753" cy="221.47" r="4" fill="#0" id="circle160"/>
	<circle cx="589.326" cy="238.77" r="4" fill="#0" id="circle161"/>
	<circle cx="595.169" cy="259.003" r="4" fill="#0" id="circle162"/>
	<circle cx="596.439" cy="402.474" r="4" fill="#0" id="circle163"/>
	<circle cx="600.041" cy="362.659" r="4" fill="#0" id="circle164"/>
	<circle cx="607.617" cy="264.109" r="4" fill="#0" id="circle165"/>
	<circle cx="600.758" cy="386.296" r="4" fill="#0" id="circle166"/>
	<circle cx="610.158" cy="343.326" r="4" fill="#0" id="circle167"/>
	<circle cx="623.368" cy="264.48" r="4" fill="#0" id="circle168"/>
	<circle cx="625.909" cy="332.214" r="4" fill="#0" id="circle169"/>
	<circle cx="639.119" cy="264.48" r="4" fill="#0" id="circle170"/>
	<circle cx="641.659" cy="323.749" r="4" fill="#0" id="circle171"/>
	<circle cx="654.87" cy="264.48" r="4" fill="#0" id="circle172"/>
	<circle cx="657.41" cy="317.352" r="4" fill="#0" id="circle173"/>
	<circle cx="670.621" cy="264.48" r="4" fill="#0" id="circle174"/>
	<circle cx="673.161" cy="312.485" r="4" fill="#0" id="circle175"/>
	<circle cx="686.372" cy="264.226" r="4" fill="#0" id="circle176"/>
	<circle cx="688.912" cy="308.964" r="4" fill="#0" id="circle177"/>
	<circle cx="702.123" cy="263.972" r="4" fill="#0" id="circle178"/>
	<circle cx="704.663" cy="306.555" r="4" fill="#0" id="circle179"/>
	<circle cx="717.874" cy="263.85" r="4" fill="#0" id="circle180"/>
	<circle cx="720.414" cy="305.204" r="4" fill="#0" id="circle181"/>
	<circle cx="733.625" cy="263.708" r="4" fill="#0" id="circle182"/>
	<circle cx="736.165" cy="304.62" r="4" fill="#0" id="circle183"/>
	<circle cx="749.376" cy="263.957" r="4" fill="#0" id="circle184"/>
	<circle cx="751.916" cy="304.991" r="4" fill="#0" id="circle185"/>
	<circle cx="765.127" cy="264.511" r="4" fill="#0" id="circle186"/>
	<circle cx="767.667" cy="306.113" r="4" fill="#0" id="circle187"/>
	<circle cx="780.878" cy="265.613" r="4" fill="#0" id="circle188"/>
	<circle cx="783.418" cy="307.963" r="4" fill="#0" id="circle189"/>
	<circle cx="796.629" cy="267.452" r="4" fill="#0" id="circle190"/>
	<circle cx="799.169" cy="310.493" r="4" fill="#0" id="circle191"/>
	<circle cx="812.379" cy="270.12" r="4" fill="#0" id="circle192"/>
	<circle cx="814.92" cy="313.775" r="4" fill="#0" id="circle193"/>
	<circle cx="828.13" cy="273.783" r="4" fill="#0" id="circle194"/>
	<circle cx="830.671" cy="317.779" r="4" fill="#0" id="circle195"/>
	<circle cx="843.881" cy="278.585" r="4" fill="#0" id="circle196"/>
	<circle cx="846.422" cy="322.56" r="4" fill="#0" id="circle197"/>
	<circle cx="859.632" cy="284.601" r="4" fill="#0" id="circle198"/>
	<circle cx="862.173" cy="328.083" r="4" fill="#0" id="circle199"/>
	<circle cx="875.383" cy="291.861" r="4" fill="#0" id="circle200"/>
	<circle cx="877.924" cy="334.679" r="4" fill="#0" id="circle201"/>
	<circle cx="891.134" cy="300.433" r="4" fill="#0" id="circle202"/>
	<circle cx="893.675" cy="343.372" r="4" fill="#0" id="circle203"/>
	<circle cx="906.885" cy="310.285" r="4" fill="#0" id="circle204"/>
	<circle cx="909.426" cy="354.87" r="4" fill="#0" id="circle205"/>
	<circle cx="922.636" cy="321.854" r="4" fill="#0" id="circle206"/>
	<circle cx="924.16" cy="369.148" r="4" fill="#0" id="circle207"/>
	<circle cx="938.387" cy="335.776" r="4" fill="#0" id="circle208"/>
	<circle cx="935.847" cy="384.726" r="4" fill="#0" id="circle209"/>
	<circle cx="943.722" cy="400.563" r="4" fill="#0" id="circle210"/>
	<circle cx="944.23" cy="433.422" r="4" fill="#0" id="circle211"/>
	<circle cx="951.089" cy="473.333" r="4" fill="#0" id="circle212"/>
	<circle cx="952.614" cy="351.375" r="4" fill="#0" id="circle213"/>
	<circle cx="948.041" cy="417.361" r="4" fill="#0" id="circle214"/>
	<circle cx="964.046" cy="367.065" r="4" fill="#0" id="circle215"/>
	<circle cx="966.84" cy="486.396" r="4" fill="#0" id="circle216"/>
	<circle cx="973.192" cy="382.821" r="4" fill="#0" id="circle217"/>
	<circle cx="980.305" cy="398.49" r="4" fill="#0" id="circle218"/>
	<circle cx="985.64" cy="414.592" r="4" fill="#0" id="circle219"/>
	<circle cx="989.451" cy="430.206" r="4" fill="#0" id="circle220"/>
	<circle cx="992.245" cy="446.226" r="4" fill="#0" id="circle221"/>
	<circle cx="994.481" cy="465.584" r="4" fill="#0" id="circle222"/>
	<circle cx="995.548" cy="479.851" r="4" fill="#0" id="circle223"/>
	<circle cx="175.055" cy="289.915" r="4" fill="#0" id="circle224"/>
	<circle cx="168.633" cy="277.071" r="4" fill="#0" id="circle225"/>
	<circle cx="175.589" cy="264.765" r="4" fill="#0" id="circle226"/>
	<circle cx="210.912" cy="282.421" r="4" fill="#0" id="circle227"/>
	<circle cx="219.473" cy="286.704" r="4" fill="#0" id="circle228"/>
	<circle cx="210.912" cy="271.72" r="4" fill="#0" id="circle229"/>
	<circle cx="221.612" cy="268.509" r="4" fill="#0" id="circle230"/>
	<circle cx="237.668" cy="283.493" r="4" fill="#0" id="circle231"/>
	<circle cx="224.823" cy="376.612" r="4" fill="#0" id="circle232"/>
	<circle cx="213.051" cy="380.895" r="4" fill="#0" id="circle233"/>
	<circle cx="214.123" cy="391.062" r="4" fill="#0" id="circle234"/>
	<circle cx="226.967" cy="394.807" r="4" fill="#0" id="circle235"/>
	<circle cx="239.273" cy="391.062" r="4" fill="#0" id="circle236"/>
	<circle cx="243.018" cy="382.5" r="4" fill="#0" id="circle237"/>
	<circle cx="175.055" cy="393.74" r="4" fill="#0" id="circle238"/>
	<circle cx="171.306" cy="379.823" r="4" fill="#0" id="circle239"/>
	<circle cx="179.872" cy="369.122" r="4" fill="#0" id="circle240"/>
	<circle cx="939.276" cy="444.046" r="4" fill="#0" id="circle241"/>
	<circle cx="931.248" cy="455.28" r="4" fill="#0" id="circle242"/>
	<circle cx="939.276" cy="464.38" r="4" fill="#0" id="circle243"/>
	<circle cx="545.391" cy="417.818" r="4" fill="#0" id="circle244"/>
	<circle cx="554.486" cy="404.979" r="4" fill="#0" id="circle245"/>
	<circle cx="202.884" cy="409.257" r="4" fill="#0" id="circle246"/>
	<circle cx="217.867" cy="411.934" r="4" fill="#0" id="circle247"/>
	<circle cx="231.246" cy="413.001" r="4" fill="#0" id="circle248"/>
	<circle cx="243.557" cy="410.862" r="4" fill="#0" id="circle249"/>
	<circle cx="975.666" cy="492.742" r="4" fill="#0" id="circle250"/>
	<circle cx="985.833" cy="501.842" r="4" fill="#0" id="circle251"/>
	<circle cx="996" cy="493.814" r="4" fill="#0" id="circle252"/>
	<circle cx="994.394" cy="503.981" r="4" fill="#0" id="circle253"/>
	</g>
</svg>