<?xml version="1.0" encoding="UTF-8" standalone="no"?>
<!-- Created with CurveBenchmark -->
<svg
	xmlns:dc="http://purl.org/dc/elements/1.1/"
	xmlns:cc="http://creativecommons.org/ns#"
	xmlns:rdf="http://www.w3.org/1999/02/22-rdf-syntax-ns#"
	xmlns:svg="http://www.w3.org/2000/svg"
	xmlns="http://www.w3.org/2000/svg"
	xmlns:sodipodi="http://sodipodi.sourceforge.net/DTD/sodipodi-0.dtd"
	xmlns:inkscape="http://www.inkscape.org/namespaces/inkscape"
	width="1000"
	height="1000"
	id="svg2"
	version="1.1"
	sodipodi:docname="outliers-5/crust-mc29.txt">
<defs
	id="defs4" />
<metadata
	id="metadata7">
	<rdf:RDF>
		<cc:Work
			rdf:about="">
			<dc:format>image/svg+xml</dc:format>
			<dc:type
				rdf:resource="http://purl.org/dc/dcmitype/StillImage" />
			<dc:title></dc:title>
		</cc:Work>
	</rdf:RDF>
</metadata>
<g
	inkscape:label="Layer 1"
	inkscape:groupmode="layer"
	id="layer1">
	<path style="fill:none;stroke:red;stroke-width:1px;stroke-linecap:butt;stroke-linejoin:miter;stroke-opacity:1" d="M 33.8013,265.061 21.4657,230.12 z" id="boundary" inkscape:connector-curvature="0" />
	<path style="fill:none;stroke:red;stroke-width:1px;stroke-linecap:butt;stroke-linejoin:miter;stroke-opacity:1" d="M 200.31,108.83 190.032,162.279 z" id="boundary" inkscape:connector-curvature="0" />
	<path style="fill:none;stroke:red;stroke-width:1px;stroke-linecap:butt;stroke-linejoin:miter;stroke-opacity:1" d="M 206.473,73.8899 200.31,108.83 z" id="boundary" inkscape:connector-curvature="0" />
	<path style="fill:none;stroke:red;stroke-width:1px;stroke-linecap:butt;stroke-linejoin:miter;stroke-opacity:1" d="M 182.835,207.506 190.032,162.279 z" id="boundary" inkscape:connector-curvature="0" />
	<path style="fill:none;stroke:red;stroke-width:1px;stroke-linecap:butt;stroke-linejoin:miter;stroke-opacity:1" d="M 170.5,253.758 182.835,207.506 z" id="boundary" inkscape:connector-curvature="0" />
	<path style="fill:none;stroke:red;stroke-width:1px;stroke-linecap:butt;stroke-linejoin:miter;stroke-opacity:1" d="M 48.1944,291.789 33.8013,265.061 z" id="boundary" inkscape:connector-curvature="0" />
	<path style="fill:none;stroke:red;stroke-width:1px;stroke-linecap:butt;stroke-linejoin:miter;stroke-opacity:1" d="M 48.1944,291.789 58.4726,314.394 z" id="boundary" inkscape:connector-curvature="0" />
	<path style="fill:none;stroke:red;stroke-width:1px;stroke-linecap:butt;stroke-linejoin:miter;stroke-opacity:1" d="M 4,321.591 8.10584,424.373 z" id="boundary" inkscape:connector-curvature="0" />
	<path style="fill:none;stroke:red;stroke-width:1px;stroke-linecap:butt;stroke-linejoin:miter;stroke-opacity:1" d="M 170.5,253.758 159.197,303.092 z" id="boundary" inkscape:connector-curvature="0" />
	<path style="fill:none;stroke:red;stroke-width:1px;stroke-linecap:butt;stroke-linejoin:miter;stroke-opacity:1" d="M 95.4705,337.008 58.4726,314.394 z" id="boundary" inkscape:connector-curvature="0" />
	<path style="fill:none;stroke:red;stroke-width:1px;stroke-linecap:butt;stroke-linejoin:miter;stroke-opacity:1" d="M 159.197,303.092 137.617,334.951 z" id="boundary" inkscape:connector-curvature="0" />
	<path style="fill:none;stroke:red;stroke-width:1px;stroke-linecap:butt;stroke-linejoin:miter;stroke-opacity:1" d="M 238.341,77.9958 230.111,50.2519 z" id="boundary" inkscape:connector-curvature="0" />
	<path style="fill:none;stroke:red;stroke-width:1px;stroke-linecap:butt;stroke-linejoin:miter;stroke-opacity:1" d="M 238.341,77.9958 243.48,110.888 z" id="boundary" inkscape:connector-curvature="0" />
	<path style="fill:none;stroke:red;stroke-width:1px;stroke-linecap:butt;stroke-linejoin:miter;stroke-opacity:1" d="M 243.48,110.888 247.586,142.756 z" id="boundary" inkscape:connector-curvature="0" />
	<path style="fill:none;stroke:red;stroke-width:1px;stroke-linecap:butt;stroke-linejoin:miter;stroke-opacity:1" d="M 230.111,50.2519 221.891,21.4657 z" id="boundary" inkscape:connector-curvature="0" />
	<path style="fill:none;stroke:red;stroke-width:1px;stroke-linecap:butt;stroke-linejoin:miter;stroke-opacity:1" d="M 247.586,142.756 254.783,173.59 z" id="boundary" inkscape:connector-curvature="0" />
	<path style="fill:none;stroke:red;stroke-width:1px;stroke-linecap:butt;stroke-linejoin:miter;stroke-opacity:1" d="M 254.783,173.59 266.085,209.564 z" id="boundary" inkscape:connector-curvature="0" />
	<path style="fill:none;stroke:red;stroke-width:1px;stroke-linecap:butt;stroke-linejoin:miter;stroke-opacity:1" d="M 277.641,264.281 266.085,209.564 z" id="boundary" inkscape:connector-curvature="0" />
	<path style="fill:none;stroke:red;stroke-width:1px;stroke-linecap:butt;stroke-linejoin:miter;stroke-opacity:1" d="M 277.641,264.281 288.699,311.313 z" id="boundary" inkscape:connector-curvature="0" />
	<path style="fill:none;stroke:red;stroke-width:1px;stroke-linecap:butt;stroke-linejoin:miter;stroke-opacity:1" d="M 313.37,329.812 345.229,345.229 z" id="boundary" inkscape:connector-curvature="0" />
	<path style="fill:none;stroke:red;stroke-width:1px;stroke-linecap:butt;stroke-linejoin:miter;stroke-opacity:1" d="M 313.37,329.812 288.699,311.313 z" id="boundary" inkscape:connector-curvature="0" />
	<path style="fill:none;stroke:red;stroke-width:1px;stroke-linecap:butt;stroke-linejoin:miter;stroke-opacity:1" d="M 8.10584,424.373 39.9737,504.541 z" id="boundary" inkscape:connector-curvature="0" />
	<path style="fill:none;stroke:red;stroke-width:1px;stroke-linecap:butt;stroke-linejoin:miter;stroke-opacity:1" d="M 95.4705,337.008 137.617,334.951 z" id="boundary" inkscape:connector-curvature="0" />
	<path style="fill:none;stroke:red;stroke-width:1px;stroke-linecap:butt;stroke-linejoin:miter;stroke-opacity:1" d="M 250.668,453.15 227.791,471.522 z" id="boundary" inkscape:connector-curvature="0" />
	<path style="fill:none;stroke:red;stroke-width:1px;stroke-linecap:butt;stroke-linejoin:miter;stroke-opacity:1" d="M 121.574,555.533 39.9737,504.541 z" id="boundary" inkscape:connector-curvature="0" />
	<path style="fill:none;stroke:red;stroke-width:1px;stroke-linecap:butt;stroke-linejoin:miter;stroke-opacity:1" d="M 121.574,555.533 174.85,598.159 z" id="boundary" inkscape:connector-curvature="0" />
	<path style="fill:none;stroke:red;stroke-width:1px;stroke-linecap:butt;stroke-linejoin:miter;stroke-opacity:1" d="M 174.85,598.159 238.794,617.692 z" id="boundary" inkscape:connector-curvature="0" />
	<path style="fill:none;stroke:red;stroke-width:1px;stroke-linecap:butt;stroke-linejoin:miter;stroke-opacity:1" d="M 238.794,617.692 292.07,646.106 z" id="boundary" inkscape:connector-curvature="0" />
	<path style="fill:none;stroke:red;stroke-width:1px;stroke-linecap:butt;stroke-linejoin:miter;stroke-opacity:1" d="M 272.257,440.814 250.668,453.15 z" id="boundary" inkscape:connector-curvature="0" />
	<path style="fill:none;stroke:red;stroke-width:1px;stroke-linecap:butt;stroke-linejoin:miter;stroke-opacity:1" d="M 300.01,433.627 272.257,440.814 z" id="boundary" inkscape:connector-curvature="0" />
	<path style="fill:none;stroke:red;stroke-width:1px;stroke-linecap:butt;stroke-linejoin:miter;stroke-opacity:1" d="M 329.812,432.594 300.01,433.627 z" id="boundary" inkscape:connector-curvature="0" />
	<path style="fill:none;stroke:red;stroke-width:1px;stroke-linecap:butt;stroke-linejoin:miter;stroke-opacity:1" d="M 302.059,476.788 343.171,475.764 z" id="boundary" inkscape:connector-curvature="0" />
	<path style="fill:none;stroke:red;stroke-width:1px;stroke-linecap:butt;stroke-linejoin:miter;stroke-opacity:1" d="M 302.059,476.788 264.154,477.576 z" id="boundary" inkscape:connector-curvature="0" />
	<path style="fill:none;stroke:red;stroke-width:1px;stroke-linecap:butt;stroke-linejoin:miter;stroke-opacity:1" d="M 299.176,688.733 292.07,646.106 z" id="boundary" inkscape:connector-curvature="0" />
	<path style="fill:none;stroke:red;stroke-width:1px;stroke-linecap:butt;stroke-linejoin:miter;stroke-opacity:1" d="M 297.4,736.689 299.176,688.733 z" id="boundary" inkscape:connector-curvature="0" />
	<path style="fill:none;stroke:red;stroke-width:1px;stroke-linecap:butt;stroke-linejoin:miter;stroke-opacity:1" d="M 366.664,820.165 300.953,823.718 z" id="boundary" inkscape:connector-curvature="0" />
	<path style="fill:none;stroke:red;stroke-width:1px;stroke-linecap:butt;stroke-linejoin:miter;stroke-opacity:1" d="M 302.729,994.224 370.217,996 z" id="boundary" inkscape:connector-curvature="0" />
	<path style="fill:none;stroke:red;stroke-width:1px;stroke-linecap:butt;stroke-linejoin:miter;stroke-opacity:1" d="M 423.349,89.3072 423.349,58.4726 z" id="boundary" inkscape:connector-curvature="0" />
	<path style="fill:none;stroke:red;stroke-width:1px;stroke-linecap:butt;stroke-linejoin:miter;stroke-opacity:1" d="M 423.349,58.4726 441.848,69.775 z" id="boundary" inkscape:connector-curvature="0" />
	<path style="fill:none;stroke:red;stroke-width:1px;stroke-linecap:butt;stroke-linejoin:miter;stroke-opacity:1" d="M 423.349,89.3072 420.258,127.338 z" id="boundary" inkscape:connector-curvature="0" />
	<path style="fill:none;stroke:red;stroke-width:1px;stroke-linecap:butt;stroke-linejoin:miter;stroke-opacity:1" d="M 417.176,170.5 412.164,210.226 z" id="boundary" inkscape:connector-curvature="0" />
	<path style="fill:none;stroke:red;stroke-width:1px;stroke-linecap:butt;stroke-linejoin:miter;stroke-opacity:1" d="M 417.176,170.5 420.258,127.338 z" id="boundary" inkscape:connector-curvature="0" />
	<path style="fill:none;stroke:red;stroke-width:1px;stroke-linecap:butt;stroke-linejoin:miter;stroke-opacity:1" d="M 429.512,33.8013 433.627,4 z" id="boundary" inkscape:connector-curvature="0" />
	<path style="fill:none;stroke:red;stroke-width:1px;stroke-linecap:butt;stroke-linejoin:miter;stroke-opacity:1" d="M 429.512,33.8013 423.349,58.4726 z" id="boundary" inkscape:connector-curvature="0" />
	<path style="fill:none;stroke:red;stroke-width:1px;stroke-linecap:butt;stroke-linejoin:miter;stroke-opacity:1" d="M 405.874,283.56 401.759,313.615 z" id="boundary" inkscape:connector-curvature="0" />
	<path style="fill:none;stroke:red;stroke-width:1px;stroke-linecap:butt;stroke-linejoin:miter;stroke-opacity:1" d="M 407.025,256.051 405.874,283.56 z" id="boundary" inkscape:connector-curvature="0" />
	<path style="fill:none;stroke:red;stroke-width:1px;stroke-linecap:butt;stroke-linejoin:miter;stroke-opacity:1" d="M 407.025,256.051 412.164,210.226 z" id="boundary" inkscape:connector-curvature="0" />
	<path style="fill:none;stroke:red;stroke-width:1px;stroke-linecap:butt;stroke-linejoin:miter;stroke-opacity:1" d="M 454.183,156.115 449.044,113.969 z" id="boundary" inkscape:connector-curvature="0" />
	<path style="fill:none;stroke:red;stroke-width:1px;stroke-linecap:butt;stroke-linejoin:miter;stroke-opacity:1" d="M 454.183,156.115 455.207,189.008 z" id="boundary" inkscape:connector-curvature="0" />
	<path style="fill:none;stroke:red;stroke-width:1px;stroke-linecap:butt;stroke-linejoin:miter;stroke-opacity:1" d="M 463.428,213.67 455.207,189.008 z" id="boundary" inkscape:connector-curvature="0" />
	<path style="fill:none;stroke:red;stroke-width:1px;stroke-linecap:butt;stroke-linejoin:miter;stroke-opacity:1" d="M 463.428,213.67 465.486,249.643 z" id="boundary" inkscape:connector-curvature="0" />
	<path style="fill:none;stroke:red;stroke-width:1px;stroke-linecap:butt;stroke-linejoin:miter;stroke-opacity:1" d="M 640.215,230.12 590.564,199.971 z" id="boundary" inkscape:connector-curvature="0" />
	<path style="fill:none;stroke:red;stroke-width:1px;stroke-linecap:butt;stroke-linejoin:miter;stroke-opacity:1" d="M 472.682,278.421 483.985,307.207 z" id="boundary" inkscape:connector-curvature="0" />
	<path style="fill:none;stroke:red;stroke-width:1px;stroke-linecap:butt;stroke-linejoin:miter;stroke-opacity:1" d="M 532.294,322.615 483.985,307.207 z" id="boundary" inkscape:connector-curvature="0" />
	<path style="fill:none;stroke:red;stroke-width:1px;stroke-linecap:butt;stroke-linejoin:miter;stroke-opacity:1" d="M 472.682,278.421 465.486,249.643 z" id="boundary" inkscape:connector-curvature="0" />
	<path style="fill:none;stroke:red;stroke-width:1px;stroke-linecap:butt;stroke-linejoin:miter;stroke-opacity:1" d="M 615.544,294.871 630.961,268.142 z" id="boundary" inkscape:connector-curvature="0" />
	<path style="fill:none;stroke:red;stroke-width:1px;stroke-linecap:butt;stroke-linejoin:miter;stroke-opacity:1" d="M 630.961,268.142 640.215,230.12 z" id="boundary" inkscape:connector-curvature="0" />
	<path style="fill:none;stroke:red;stroke-width:1px;stroke-linecap:butt;stroke-linejoin:miter;stroke-opacity:1" d="M 615.544,294.871 575.464,317.476 z" id="boundary" inkscape:connector-curvature="0" />
	<path style="fill:none;stroke:red;stroke-width:1px;stroke-linecap:butt;stroke-linejoin:miter;stroke-opacity:1" d="M 647.411,327.754 615.544,294.871 z" id="boundary" inkscape:connector-curvature="0" />
	<path style="fill:none;stroke:red;stroke-width:1px;stroke-linecap:butt;stroke-linejoin:miter;stroke-opacity:1" d="M 355.507,433.627 329.812,432.594 z" id="boundary" inkscape:connector-curvature="0" />
	<path style="fill:none;stroke:red;stroke-width:1px;stroke-linecap:butt;stroke-linejoin:miter;stroke-opacity:1" d="M 355.507,433.627 384.284,441.848 z" id="boundary" inkscape:connector-curvature="0" />
	<path style="fill:none;stroke:red;stroke-width:1px;stroke-linecap:butt;stroke-linejoin:miter;stroke-opacity:1" d="M 375.039,326.73 345.229,345.229 z" id="boundary" inkscape:connector-curvature="0" />
	<path style="fill:none;stroke:red;stroke-width:1px;stroke-linecap:butt;stroke-linejoin:miter;stroke-opacity:1" d="M 375.039,326.73 401.759,313.615 z" id="boundary" inkscape:connector-curvature="0" />
	<path style="fill:none;stroke:red;stroke-width:1px;stroke-linecap:butt;stroke-linejoin:miter;stroke-opacity:1" d="M 403.816,453.15 380.178,467.543 z" id="boundary" inkscape:connector-curvature="0" />
	<path style="fill:none;stroke:red;stroke-width:1px;stroke-linecap:butt;stroke-linejoin:miter;stroke-opacity:1" d="M 384.284,441.848 403.816,453.15 z" id="boundary" inkscape:connector-curvature="0" />
	<path style="fill:none;stroke:red;stroke-width:1px;stroke-linecap:butt;stroke-linejoin:miter;stroke-opacity:1" d="M 374.006,672.074 365.785,721.416 z" id="boundary" inkscape:connector-curvature="0" />
	<path style="fill:none;stroke:red;stroke-width:1px;stroke-linecap:butt;stroke-linejoin:miter;stroke-opacity:1" d="M 450.068,598.078 412.037,617.601 z" id="boundary" inkscape:connector-curvature="0" />
	<path style="fill:none;stroke:red;stroke-width:1px;stroke-linecap:butt;stroke-linejoin:miter;stroke-opacity:1" d="M 412.037,617.601 374.006,672.074 z" id="boundary" inkscape:connector-curvature="0" />
	<path style="fill:none;stroke:red;stroke-width:1px;stroke-linecap:butt;stroke-linejoin:miter;stroke-opacity:1" d="M 370.217,962.247 370.217,996 z" id="boundary" inkscape:connector-curvature="0" />
	<path style="fill:none;stroke:red;stroke-width:1px;stroke-linecap:butt;stroke-linejoin:miter;stroke-opacity:1" d="M 343.171,475.764 380.178,467.543 z" id="boundary" inkscape:connector-curvature="0" />
	<path style="fill:none;stroke:red;stroke-width:1px;stroke-linecap:butt;stroke-linejoin:miter;stroke-opacity:1" d="M 647.411,327.754 629.937,398.677 z" id="boundary" inkscape:connector-curvature="0" />
	<path style="fill:none;stroke:red;stroke-width:1px;stroke-linecap:butt;stroke-linejoin:miter;stroke-opacity:1" d="M 629.937,398.677 596.02,487.066 z" id="boundary" inkscape:connector-curvature="0" />
	<path style="fill:none;stroke:red;stroke-width:1px;stroke-linecap:butt;stroke-linejoin:miter;stroke-opacity:1" d="M 532.294,322.615 575.464,317.476 z" id="boundary" inkscape:connector-curvature="0" />
	<path style="fill:none;stroke:red;stroke-width:1px;stroke-linecap:butt;stroke-linejoin:miter;stroke-opacity:1" d="M 561.071,542.572 450.068,598.078 z" id="boundary" inkscape:connector-curvature="0" />
	<path style="fill:none;stroke:red;stroke-width:1px;stroke-linecap:butt;stroke-linejoin:miter;stroke-opacity:1" d="M 561.071,542.572 596.02,487.066 z" id="boundary" inkscape:connector-curvature="0" />
	<circle cx="366.664" cy="820.165" r="4" fill="#0" id="circle0"/>
	<circle cx="300.953" cy="823.718" r="4" fill="#0" id="circle1"/>
	<circle cx="297.4" cy="736.689" r="4" fill="#0" id="circle2"/>
	<circle cx="299.176" cy="688.733" r="4" fill="#0" id="circle3"/>
	<circle cx="292.07" cy="646.106" r="4" fill="#0" id="circle4"/>
	<circle cx="238.794" cy="617.692" r="4" fill="#0" id="circle5"/>
	<circle cx="174.85" cy="598.159" r="4" fill="#0" id="circle6"/>
	<circle cx="121.574" cy="555.533" r="4" fill="#0" id="circle7"/>
	<circle cx="39.9737" cy="504.541" r="4" fill="#0" id="circle8"/>
	<circle cx="8.10584" cy="424.373" r="4" fill="#0" id="circle9"/>
	<circle cx="4" cy="321.591" r="4" fill="#0" id="circle10"/>
	<circle cx="48.1944" cy="291.789" r="4" fill="#0" id="circle11"/>
	<circle cx="58.4726" cy="314.394" r="4" fill="#0" id="circle12"/>
	<circle cx="95.4705" cy="337.008" r="4" fill="#0" id="circle13"/>
	<circle cx="137.617" cy="334.951" r="4" fill="#0" id="circle14"/>
	<circle cx="159.197" cy="303.092" r="4" fill="#0" id="circle15"/>
	<circle cx="170.5" cy="253.758" r="4" fill="#0" id="circle16"/>
	<circle cx="182.835" cy="207.506" r="4" fill="#0" id="circle17"/>
	<circle cx="190.032" cy="162.279" r="4" fill="#0" id="circle18"/>
	<circle cx="200.31" cy="108.83" r="4" fill="#0" id="circle19"/>
	<circle cx="206.473" cy="73.8899" r="4" fill="#0" id="circle20"/>
	<circle cx="238.341" cy="77.9958" r="4" fill="#0" id="circle21"/>
	<circle cx="230.111" cy="50.2519" r="4" fill="#0" id="circle22"/>
	<circle cx="221.891" cy="21.4657" r="4" fill="#0" id="circle23"/>
	<circle cx="243.48" cy="110.888" r="4" fill="#0" id="circle24"/>
	<circle cx="247.586" cy="142.756" r="4" fill="#0" id="circle25"/>
	<circle cx="254.783" cy="173.59" r="4" fill="#0" id="circle26"/>
	<circle cx="266.085" cy="209.564" r="4" fill="#0" id="circle27"/>
	<circle cx="277.641" cy="264.281" r="4" fill="#0" id="circle28"/>
	<circle cx="288.699" cy="311.313" r="4" fill="#0" id="circle29"/>
	<circle cx="313.37" cy="329.812" r="4" fill="#0" id="circle30"/>
	<circle cx="345.229" cy="345.229" r="4" fill="#0" id="circle31"/>
	<circle cx="375.039" cy="326.73" r="4" fill="#0" id="circle32"/>
	<circle cx="401.759" cy="313.615" r="4" fill="#0" id="circle33"/>
	<circle cx="405.874" cy="283.56" r="4" fill="#0" id="circle34"/>
	<circle cx="407.025" cy="256.051" r="4" fill="#0" id="circle35"/>
	<circle cx="412.164" cy="210.226" r="4" fill="#0" id="circle36"/>
	<circle cx="417.176" cy="170.5" r="4" fill="#0" id="circle37"/>
	<circle cx="454.183" cy="156.115" r="4" fill="#0" id="circle38"/>
	<circle cx="455.207" cy="189.008" r="4" fill="#0" id="circle39"/>
	<circle cx="463.428" cy="213.67" r="4" fill="#0" id="circle40"/>
	<circle cx="465.486" cy="249.643" r="4" fill="#0" id="circle41"/>
	<circle cx="472.682" cy="278.421" r="4" fill="#0" id="circle42"/>
	<circle cx="483.985" cy="307.207" r="4" fill="#0" id="circle43"/>
	<circle cx="532.294" cy="322.615" r="4" fill="#0" id="circle44"/>
	<circle cx="575.464" cy="317.476" r="4" fill="#0" id="circle45"/>
	<circle cx="615.544" cy="294.871" r="4" fill="#0" id="circle46"/>
	<circle cx="630.961" cy="268.142" r="4" fill="#0" id="circle47"/>
	<circle cx="640.215" cy="230.12" r="4" fill="#0" id="circle48"/>
	<circle cx="647.411" cy="327.754" r="4" fill="#0" id="circle49"/>
	<circle cx="629.937" cy="398.677" r="4" fill="#0" id="circle50"/>
	<circle cx="596.02" cy="487.066" r="4" fill="#0" id="circle51"/>
	<circle cx="561.071" cy="542.572" r="4" fill="#0" id="circle52"/>
	<circle cx="450.068" cy="598.078" r="4" fill="#0" id="circle53"/>
	<circle cx="412.037" cy="617.601" r="4" fill="#0" id="circle54"/>
	<circle cx="374.006" cy="672.074" r="4" fill="#0" id="circle55"/>
	<circle cx="365.785" cy="721.416" r="4" fill="#0" id="circle56"/>
	<circle cx="370.217" cy="962.247" r="4" fill="#0" id="circle57"/>
	<circle cx="370.217" cy="996" r="4" fill="#0" id="circle58"/>
	<circle cx="302.729" cy="994.224" r="4" fill="#0" id="circle59"/>
	<circle cx="302.059" cy="476.788" r="4" fill="#0" id="circle60"/>
	<circle cx="264.154" cy="477.576" r="4" fill="#0" id="circle61"/>
	<circle cx="250.668" cy="453.15" r="4" fill="#0" id="circle62"/>
	<circle cx="272.257" cy="440.814" r="4" fill="#0" id="circle63"/>
	<circle cx="300.01" cy="433.627" r="4" fill="#0" id="circle64"/>
	<circle cx="329.812" cy="432.594" r="4" fill="#0" id="circle65"/>
	<circle cx="355.507" cy="433.627" r="4" fill="#0" id="circle66"/>
	<circle cx="384.284" cy="441.848" r="4" fill="#0" id="circle67"/>
	<circle cx="403.816" cy="453.15" r="4" fill="#0" id="circle68"/>
	<circle cx="380.178" cy="467.543" r="4" fill="#0" id="circle69"/>
	<circle cx="343.171" cy="475.764" r="4" fill="#0" id="circle70"/>
	<circle cx="227.791" cy="471.522" r="4" fill="#0" id="circle71"/>
	<circle cx="33.8013" cy="265.061" r="4" fill="#0" id="circle72"/>
	<circle cx="21.4657" cy="230.12" r="4" fill="#0" id="circle73"/>
	<circle cx="420.258" cy="127.338" r="4" fill="#0" id="circle74"/>
	<circle cx="449.044" cy="113.969" r="4" fill="#0" id="circle75"/>
	<circle cx="423.349" cy="89.3072" r="4" fill="#0" id="circle76"/>
	<circle cx="441.848" cy="69.775" r="4" fill="#0" id="circle77"/>
	<circle cx="423.349" cy="58.4726" r="4" fill="#0" id="circle78"/>
	<circle cx="429.512" cy="33.8013" r="4" fill="#0" id="circle79"/>
	<circle cx="433.627" cy="4" r="4" fill="#0" id="circle80"/>
	<circle cx="544.586" cy="395.228" r="4" fill="#0" id="circle81"/>
	<circle cx="507.855" cy="796.053" r="4" fill="#0" id="circle82"/>
	<circle cx="590.564" cy="199.971" r="4" fill="#0" id="circle83"/>
	<circle cx="219.686" cy="766.084" r="4" fill="#0" id="circle84"/>
	</g>
</svg>