<?xml version="1.0" encoding="UTF-8" standalone="no"?>
<!-- Created with CurveBenchmark -->
<svg
	xmlns:dc="http://purl.org/dc/elements/1.1/"
	xmlns:cc="http://creativecommons.org/ns#"
	xmlns:rdf="http://www.w3.org/1999/02/22-rdf-syntax-ns#"
	xmlns:svg="http://www.w3.org/2000/svg"
	xmlns="http://www.w3.org/2000/svg"
	xmlns:sodipodi="http://sodipodi.sourceforge.net/DTD/sodipodi-0.dtd"
	xmlns:inkscape="http://www.inkscape.org/namespaces/inkscape"
	width="1000"
	height="1000"
	id="svg2"
	version="1.1"
	sodipodi:docname="outliers-5/gathan1-mc15.txt">
<defs
	id="defs4" />
<metadata
	id="metadata7">
	<rdf:RDF>
		<cc:Work
			rdf:about="">
			<dc:format>image/svg+xml</dc:format>
			<dc:type
				rdf:resource="http://purl.org/dc/dcmitype/StillImage" />
			<dc:title></dc:title>
		</cc:Work>
	</rdf:RDF>
</metadata>
<g
	inkscape:label="Layer 1"
	inkscape:groupmode="layer"
	id="layer1">
	<path style="fill:none;stroke:red;stroke-width:1px;stroke-linecap:butt;stroke-linejoin:miter;stroke-opacity:1" d="M 4,46.2985 8.02843,27.1635 z" id="boundary" inkscape:connector-curvature="0" />
	<path style="fill:none;stroke:red;stroke-width:1px;stroke-linecap:butt;stroke-linejoin:miter;stroke-opacity:1" d="M 8.02843,27.1635 29.1777,25.1492 z" id="boundary" inkscape:connector-curvature="0" />
	<path style="fill:none;stroke:red;stroke-width:1px;stroke-linecap:butt;stroke-linejoin:miter;stroke-opacity:1" d="M 11.0497,67.4477 4,46.2985 z" id="boundary" inkscape:connector-curvature="0" />
	<path style="fill:none;stroke:red;stroke-width:1px;stroke-linecap:butt;stroke-linejoin:miter;stroke-opacity:1" d="M 29.1777,25.1492 58.3838,23.135 z" id="boundary" inkscape:connector-curvature="0" />
	<path style="fill:none;stroke:red;stroke-width:1px;stroke-linecap:butt;stroke-linejoin:miter;stroke-opacity:1" d="M 114.782,23.135 89.6041,23.135 z" id="boundary" inkscape:connector-curvature="0" />
	<path style="fill:none;stroke:red;stroke-width:1px;stroke-linecap:butt;stroke-linejoin:miter;stroke-opacity:1" d="M 58.3838,23.135 89.6041,23.135 z" id="boundary" inkscape:connector-curvature="0" />
	<path style="fill:none;stroke:red;stroke-width:1px;stroke-linecap:butt;stroke-linejoin:miter;stroke-opacity:1" d="M 50.3269,89.6041 23.135,90.6112 z" id="boundary" inkscape:connector-curvature="0" />
	<path style="fill:none;stroke:red;stroke-width:1px;stroke-linecap:butt;stroke-linejoin:miter;stroke-opacity:1" d="M 23.135,90.6112 11.0497,67.4477 z" id="boundary" inkscape:connector-curvature="0" />
	<path style="fill:none;stroke:red;stroke-width:1px;stroke-linecap:butt;stroke-linejoin:miter;stroke-opacity:1" d="M 79.533,87.5898 108.739,87.5898 z" id="boundary" inkscape:connector-curvature="0" />
	<path style="fill:none;stroke:red;stroke-width:1px;stroke-linecap:butt;stroke-linejoin:miter;stroke-opacity:1" d="M 79.533,87.5898 50.3269,89.6041 z" id="boundary" inkscape:connector-curvature="0" />
	<path style="fill:none;stroke:red;stroke-width:1px;stroke-linecap:butt;stroke-linejoin:miter;stroke-opacity:1" d="M 121.831,112.768 114.06,111.938 z" id="boundary" inkscape:connector-curvature="0" />
	<path style="fill:none;stroke:red;stroke-width:1px;stroke-linecap:butt;stroke-linejoin:miter;stroke-opacity:1" d="M 108.739,87.5898 121.831,112.768 z" id="boundary" inkscape:connector-curvature="0" />
	<path style="fill:none;stroke:red;stroke-width:1px;stroke-linecap:butt;stroke-linejoin:miter;stroke-opacity:1" d="M 114.06,111.938 125.86,142.981 z" id="boundary" inkscape:connector-curvature="0" />
	<path style="fill:none;stroke:red;stroke-width:1px;stroke-linecap:butt;stroke-linejoin:miter;stroke-opacity:1" d="M 114.782,23.135 135.931,23.135 z" id="boundary" inkscape:connector-curvature="0" />
	<path style="fill:none;stroke:red;stroke-width:1px;stroke-linecap:butt;stroke-linejoin:miter;stroke-opacity:1" d="M 135.931,23.135 172.187,23.135 z" id="boundary" inkscape:connector-curvature="0" />
	<path style="fill:none;stroke:red;stroke-width:1px;stroke-linecap:butt;stroke-linejoin:miter;stroke-opacity:1" d="M 198.372,23.135 217.507,21.1208 z" id="boundary" inkscape:connector-curvature="0" />
	<path style="fill:none;stroke:red;stroke-width:1px;stroke-linecap:butt;stroke-linejoin:miter;stroke-opacity:1" d="M 198.372,23.135 172.187,23.135 z" id="boundary" inkscape:connector-curvature="0" />
	<path style="fill:none;stroke:red;stroke-width:1px;stroke-linecap:butt;stroke-linejoin:miter;stroke-opacity:1" d="M 242.684,21.1208 217.507,21.1208 z" id="boundary" inkscape:connector-curvature="0" />
	<path style="fill:none;stroke:red;stroke-width:1px;stroke-linecap:butt;stroke-linejoin:miter;stroke-opacity:1" d="M 269.876,19.1066 242.684,21.1208 z" id="boundary" inkscape:connector-curvature="0" />
	<path style="fill:none;stroke:red;stroke-width:1px;stroke-linecap:butt;stroke-linejoin:miter;stroke-opacity:1" d="M 198.372,129.888 186.286,119.817 z" id="boundary" inkscape:connector-curvature="0" />
	<path style="fill:none;stroke:red;stroke-width:1px;stroke-linecap:butt;stroke-linejoin:miter;stroke-opacity:1" d="M 186.286,119.817 211.464,114.782 z" id="boundary" inkscape:connector-curvature="0" />
	<path style="fill:none;stroke:red;stroke-width:1px;stroke-linecap:butt;stroke-linejoin:miter;stroke-opacity:1" d="M 211.464,114.782 228.951,114.551 z" id="boundary" inkscape:connector-curvature="0" />
	<path style="fill:none;stroke:red;stroke-width:1px;stroke-linecap:butt;stroke-linejoin:miter;stroke-opacity:1" d="M 228.951,114.551 244.698,114.782 z" id="boundary" inkscape:connector-curvature="0" />
	<path style="fill:none;stroke:red;stroke-width:1px;stroke-linecap:butt;stroke-linejoin:miter;stroke-opacity:1" d="M 130.626,157.568 135.931,174.201 z" id="boundary" inkscape:connector-curvature="0" />
	<path style="fill:none;stroke:red;stroke-width:1px;stroke-linecap:butt;stroke-linejoin:miter;stroke-opacity:1" d="M 141.974,197.364 135.931,174.201 z" id="boundary" inkscape:connector-curvature="0" />
	<path style="fill:none;stroke:red;stroke-width:1px;stroke-linecap:butt;stroke-linejoin:miter;stroke-opacity:1" d="M 130.626,157.568 125.86,142.981 z" id="boundary" inkscape:connector-curvature="0" />
	<path style="fill:none;stroke:red;stroke-width:1px;stroke-linecap:butt;stroke-linejoin:miter;stroke-opacity:1" d="M 146.002,217.507 141.974,197.364 z" id="boundary" inkscape:connector-curvature="0" />
	<path style="fill:none;stroke:red;stroke-width:1px;stroke-linecap:butt;stroke-linejoin:miter;stroke-opacity:1" d="M 146.002,217.507 149.023,236.642 z" id="boundary" inkscape:connector-curvature="0" />
	<path style="fill:none;stroke:red;stroke-width:1px;stroke-linecap:butt;stroke-linejoin:miter;stroke-opacity:1" d="M 149.023,236.642 157.08,257.791 z" id="boundary" inkscape:connector-curvature="0" />
	<path style="fill:none;stroke:red;stroke-width:1px;stroke-linecap:butt;stroke-linejoin:miter;stroke-opacity:1" d="M 163.123,278.94 157.08,257.791 z" id="boundary" inkscape:connector-curvature="0" />
	<path style="fill:none;stroke:red;stroke-width:1px;stroke-linecap:butt;stroke-linejoin:miter;stroke-opacity:1" d="M 163.123,278.94 171.18,303.111 z" id="boundary" inkscape:connector-curvature="0" />
	<path style="fill:none;stroke:red;stroke-width:1px;stroke-linecap:butt;stroke-linejoin:miter;stroke-opacity:1" d="M 169.165,192.329 178.229,213.478 z" id="boundary" inkscape:connector-curvature="0" />
	<path style="fill:none;stroke:red;stroke-width:1px;stroke-linecap:butt;stroke-linejoin:miter;stroke-opacity:1" d="M 184.272,230.599 178.229,213.478 z" id="boundary" inkscape:connector-curvature="0" />
	<path style="fill:none;stroke:red;stroke-width:1px;stroke-linecap:butt;stroke-linejoin:miter;stroke-opacity:1" d="M 184.272,230.599 190.315,253.762 z" id="boundary" inkscape:connector-curvature="0" />
	<path style="fill:none;stroke:red;stroke-width:1px;stroke-linecap:butt;stroke-linejoin:miter;stroke-opacity:1" d="M 228.585,180.244 209.45,170.173 z" id="boundary" inkscape:connector-curvature="0" />
	<path style="fill:none;stroke:red;stroke-width:1px;stroke-linecap:butt;stroke-linejoin:miter;stroke-opacity:1" d="M 228.585,180.244 246.713,192.329 z" id="boundary" inkscape:connector-curvature="0" />
	<path style="fill:none;stroke:red;stroke-width:1px;stroke-linecap:butt;stroke-linejoin:miter;stroke-opacity:1" d="M 176.215,324.26 182.258,345.409 z" id="boundary" inkscape:connector-curvature="0" />
	<path style="fill:none;stroke:red;stroke-width:1px;stroke-linecap:butt;stroke-linejoin:miter;stroke-opacity:1" d="M 184.272,364.544 182.258,345.409 z" id="boundary" inkscape:connector-curvature="0" />
	<path style="fill:none;stroke:red;stroke-width:1px;stroke-linecap:butt;stroke-linejoin:miter;stroke-opacity:1" d="M 171.18,303.111 176.215,324.26 z" id="boundary" inkscape:connector-curvature="0" />
	<path style="fill:none;stroke:red;stroke-width:1px;stroke-linecap:butt;stroke-linejoin:miter;stroke-opacity:1" d="M 196.357,278.94 190.315,253.762 z" id="boundary" inkscape:connector-curvature="0" />
	<path style="fill:none;stroke:red;stroke-width:1px;stroke-linecap:butt;stroke-linejoin:miter;stroke-opacity:1" d="M 192.329,384.686 184.272,364.544 z" id="boundary" inkscape:connector-curvature="0" />
	<path style="fill:none;stroke:red;stroke-width:1px;stroke-linecap:butt;stroke-linejoin:miter;stroke-opacity:1" d="M 271.89,115.789 244.698,114.782 z" id="boundary" inkscape:connector-curvature="0" />
	<path style="fill:none;stroke:red;stroke-width:1px;stroke-linecap:butt;stroke-linejoin:miter;stroke-opacity:1" d="M 305.125,115.789 271.89,115.789 z" id="boundary" inkscape:connector-curvature="0" />
	<path style="fill:none;stroke:red;stroke-width:1px;stroke-linecap:butt;stroke-linejoin:miter;stroke-opacity:1" d="M 269.876,19.1066 293.04,19.1066 z" id="boundary" inkscape:connector-curvature="0" />
	<path style="fill:none;stroke:red;stroke-width:1px;stroke-linecap:butt;stroke-linejoin:miter;stroke-opacity:1" d="M 293.04,19.1066 322.246,19.1066 z" id="boundary" inkscape:connector-curvature="0" />
	<path style="fill:none;stroke:red;stroke-width:1px;stroke-linecap:butt;stroke-linejoin:miter;stroke-opacity:1" d="M 286.997,172.187 261.819,157.08 z" id="boundary" inkscape:connector-curvature="0" />
	<path style="fill:none;stroke:red;stroke-width:1px;stroke-linecap:butt;stroke-linejoin:miter;stroke-opacity:1" d="M 269.876,203.407 246.713,192.329 z" id="boundary" inkscape:connector-curvature="0" />
	<path style="fill:none;stroke:red;stroke-width:1px;stroke-linecap:butt;stroke-linejoin:miter;stroke-opacity:1" d="M 295.054,215.492 269.876,203.407 z" id="boundary" inkscape:connector-curvature="0" />
	<path style="fill:none;stroke:red;stroke-width:1px;stroke-linecap:butt;stroke-linejoin:miter;stroke-opacity:1" d="M 316.203,226.571 295.054,215.492 z" id="boundary" inkscape:connector-curvature="0" />
	<path style="fill:none;stroke:red;stroke-width:1px;stroke-linecap:butt;stroke-linejoin:miter;stroke-opacity:1" d="M 286.997,172.187 310.16,184.272 z" id="boundary" inkscape:connector-curvature="0" />
	<path style="fill:none;stroke:red;stroke-width:1px;stroke-linecap:butt;stroke-linejoin:miter;stroke-opacity:1" d="M 310.16,184.272 330.303,194.343 z" id="boundary" inkscape:connector-curvature="0" />
	<path style="fill:none;stroke:red;stroke-width:1px;stroke-linecap:butt;stroke-linejoin:miter;stroke-opacity:1" d="M 305.125,115.789 330.303,114.782 z" id="boundary" inkscape:connector-curvature="0" />
	<path style="fill:none;stroke:red;stroke-width:1px;stroke-linecap:butt;stroke-linejoin:miter;stroke-opacity:1" d="M 322.246,19.1066 347.423,19.1066 z" id="boundary" inkscape:connector-curvature="0" />
	<path style="fill:none;stroke:red;stroke-width:1px;stroke-linecap:butt;stroke-linejoin:miter;stroke-opacity:1" d="M 378.644,17.0924 347.423,19.1066 z" id="boundary" inkscape:connector-curvature="0" />
	<path style="fill:none;stroke:red;stroke-width:1px;stroke-linecap:butt;stroke-linejoin:miter;stroke-opacity:1" d="M 357.494,112.768 330.303,114.782 z" id="boundary" inkscape:connector-curvature="0" />
	<path style="fill:none;stroke:red;stroke-width:1px;stroke-linecap:butt;stroke-linejoin:miter;stroke-opacity:1" d="M 378.644,17.0924 411.878,17.0924 z" id="boundary" inkscape:connector-curvature="0" />
	<path style="fill:none;stroke:red;stroke-width:1px;stroke-linecap:butt;stroke-linejoin:miter;stroke-opacity:1" d="M 411.878,17.0924 441.084,17.0924 z" id="boundary" inkscape:connector-curvature="0" />
	<path style="fill:none;stroke:red;stroke-width:1px;stroke-linecap:butt;stroke-linejoin:miter;stroke-opacity:1" d="M 374.615,112.768 357.494,112.768 z" id="boundary" inkscape:connector-curvature="0" />
	<path style="fill:none;stroke:red;stroke-width:1px;stroke-linecap:butt;stroke-linejoin:miter;stroke-opacity:1" d="M 424.971,110.753 399.793,112.768 z" id="boundary" inkscape:connector-curvature="0" />
	<path style="fill:none;stroke:red;stroke-width:1px;stroke-linecap:butt;stroke-linejoin:miter;stroke-opacity:1" d="M 353.466,207.436 330.303,194.343 z" id="boundary" inkscape:connector-curvature="0" />
	<path style="fill:none;stroke:red;stroke-width:1px;stroke-linecap:butt;stroke-linejoin:miter;stroke-opacity:1" d="M 378.644,219.521 353.466,207.436 z" id="boundary" inkscape:connector-curvature="0" />
	<path style="fill:none;stroke:red;stroke-width:1px;stroke-linecap:butt;stroke-linejoin:miter;stroke-opacity:1" d="M 399.793,112.768 374.615,112.768 z" id="boundary" inkscape:connector-curvature="0" />
	<path style="fill:none;stroke:red;stroke-width:1px;stroke-linecap:butt;stroke-linejoin:miter;stroke-opacity:1" d="M 401.807,228.585 378.644,219.521 z" id="boundary" inkscape:connector-curvature="0" />
	<path style="fill:none;stroke:red;stroke-width:1px;stroke-linecap:butt;stroke-linejoin:miter;stroke-opacity:1" d="M 339.366,238.656 316.203,226.571 z" id="boundary" inkscape:connector-curvature="0" />
	<path style="fill:none;stroke:red;stroke-width:1px;stroke-linecap:butt;stroke-linejoin:miter;stroke-opacity:1" d="M 450.148,217.507 433.027,226.571 z" id="boundary" inkscape:connector-curvature="0" />
	<path style="fill:none;stroke:red;stroke-width:1px;stroke-linecap:butt;stroke-linejoin:miter;stroke-opacity:1" d="M 271.89,310.16 248.727,318.217 z" id="boundary" inkscape:connector-curvature="0" />
	<path style="fill:none;stroke:red;stroke-width:1px;stroke-linecap:butt;stroke-linejoin:miter;stroke-opacity:1" d="M 293.04,297.068 271.89,310.16 z" id="boundary" inkscape:connector-curvature="0" />
	<path style="fill:none;stroke:red;stroke-width:1px;stroke-linecap:butt;stroke-linejoin:miter;stroke-opacity:1" d="M 314.189,284.983 339.366,271.89 z" id="boundary" inkscape:connector-curvature="0" />
	<path style="fill:none;stroke:red;stroke-width:1px;stroke-linecap:butt;stroke-linejoin:miter;stroke-opacity:1" d="M 314.189,284.983 293.04,297.068 z" id="boundary" inkscape:connector-curvature="0" />
	<path style="fill:none;stroke:red;stroke-width:1px;stroke-linecap:butt;stroke-linejoin:miter;stroke-opacity:1" d="M 277.933,362.53 263.834,357.494 z" id="boundary" inkscape:connector-curvature="0" />
	<path style="fill:none;stroke:red;stroke-width:1px;stroke-linecap:butt;stroke-linejoin:miter;stroke-opacity:1" d="M 332.317,360.516 314.189,362.53 z" id="boundary" inkscape:connector-curvature="0" />
	<path style="fill:none;stroke:red;stroke-width:1px;stroke-linecap:butt;stroke-linejoin:miter;stroke-opacity:1" d="M 416.914,234.627 433.027,226.571 z" id="boundary" inkscape:connector-curvature="0" />
	<path style="fill:none;stroke:red;stroke-width:1px;stroke-linecap:butt;stroke-linejoin:miter;stroke-opacity:1" d="M 401.807,228.585 416.914,234.627 z" id="boundary" inkscape:connector-curvature="0" />
	<path style="fill:none;stroke:red;stroke-width:1px;stroke-linecap:butt;stroke-linejoin:miter;stroke-opacity:1" d="M 439.07,282.969 414.899,271.89 z" id="boundary" inkscape:connector-curvature="0" />
	<path style="fill:none;stroke:red;stroke-width:1px;stroke-linecap:butt;stroke-linejoin:miter;stroke-opacity:1" d="M 373.708,361.73 357.494,360.516 z" id="boundary" inkscape:connector-curvature="0" />
	<path style="fill:none;stroke:red;stroke-width:1px;stroke-linecap:butt;stroke-linejoin:miter;stroke-opacity:1" d="M 335.338,318.217 359.509,306.132 z" id="boundary" inkscape:connector-curvature="0" />
	<path style="fill:none;stroke:red;stroke-width:1px;stroke-linecap:butt;stroke-linejoin:miter;stroke-opacity:1" d="M 386.701,362.53 373.708,361.73 z" id="boundary" inkscape:connector-curvature="0" />
	<path style="fill:none;stroke:red;stroke-width:1px;stroke-linecap:butt;stroke-linejoin:miter;stroke-opacity:1" d="M 409.864,362.53 386.701,362.53 z" id="boundary" inkscape:connector-curvature="0" />
	<path style="fill:none;stroke:red;stroke-width:1px;stroke-linecap:butt;stroke-linejoin:miter;stroke-opacity:1" d="M 439.07,364.544 409.864,362.53 z" id="boundary" inkscape:connector-curvature="0" />
	<path style="fill:none;stroke:red;stroke-width:1px;stroke-linecap:butt;stroke-linejoin:miter;stroke-opacity:1" d="M 359.509,306.132 386.701,289.011 z" id="boundary" inkscape:connector-curvature="0" />
	<path style="fill:none;stroke:red;stroke-width:1px;stroke-linecap:butt;stroke-linejoin:miter;stroke-opacity:1" d="M 314.189,362.53 297.068,364.544 z" id="boundary" inkscape:connector-curvature="0" />
	<path style="fill:none;stroke:red;stroke-width:1px;stroke-linecap:butt;stroke-linejoin:miter;stroke-opacity:1" d="M 192.329,384.686 194.343,405.836 z" id="boundary" inkscape:connector-curvature="0" />
	<path style="fill:none;stroke:red;stroke-width:1px;stroke-linecap:butt;stroke-linejoin:miter;stroke-opacity:1" d="M 194.343,405.836 199.379,424.971 z" id="boundary" inkscape:connector-curvature="0" />
	<path style="fill:none;stroke:red;stroke-width:1px;stroke-linecap:butt;stroke-linejoin:miter;stroke-opacity:1" d="M 236.642,435.042 230.599,414.899 z" id="boundary" inkscape:connector-curvature="0" />
	<path style="fill:none;stroke:red;stroke-width:1px;stroke-linecap:butt;stroke-linejoin:miter;stroke-opacity:1" d="M 205.421,444.106 199.379,424.971 z" id="boundary" inkscape:connector-curvature="0" />
	<path style="fill:none;stroke:red;stroke-width:1px;stroke-linecap:butt;stroke-linejoin:miter;stroke-opacity:1" d="M 211.464,465.255 215.492,487.411 z" id="boundary" inkscape:connector-curvature="0" />
	<path style="fill:none;stroke:red;stroke-width:1px;stroke-linecap:butt;stroke-linejoin:miter;stroke-opacity:1" d="M 211.464,465.255 205.421,444.106 z" id="boundary" inkscape:connector-curvature="0" />
	<path style="fill:none;stroke:red;stroke-width:1px;stroke-linecap:butt;stroke-linejoin:miter;stroke-opacity:1" d="M 226.571,531.724 221.535,510.575 z" id="boundary" inkscape:connector-curvature="0" />
	<path style="fill:none;stroke:red;stroke-width:1px;stroke-linecap:butt;stroke-linejoin:miter;stroke-opacity:1" d="M 221.535,510.575 215.492,487.411 z" id="boundary" inkscape:connector-curvature="0" />
	<path style="fill:none;stroke:red;stroke-width:1px;stroke-linecap:butt;stroke-linejoin:miter;stroke-opacity:1" d="M 236.642,435.042 242.684,458.205 z" id="boundary" inkscape:connector-curvature="0" />
	<path style="fill:none;stroke:red;stroke-width:1px;stroke-linecap:butt;stroke-linejoin:miter;stroke-opacity:1" d="M 248.727,479.354 242.684,458.205 z" id="boundary" inkscape:connector-curvature="0" />
	<path style="fill:none;stroke:red;stroke-width:1px;stroke-linecap:butt;stroke-linejoin:miter;stroke-opacity:1" d="M 252.755,393.75 277.933,391.736 z" id="boundary" inkscape:connector-curvature="0" />
	<path style="fill:none;stroke:red;stroke-width:1px;stroke-linecap:butt;stroke-linejoin:miter;stroke-opacity:1" d="M 303.111,393.75 277.933,391.736 z" id="boundary" inkscape:connector-curvature="0" />
	<path style="fill:none;stroke:red;stroke-width:1px;stroke-linecap:butt;stroke-linejoin:miter;stroke-opacity:1" d="M 257.791,500.504 248.727,479.354 z" id="boundary" inkscape:connector-curvature="0" />
	<path style="fill:none;stroke:red;stroke-width:1px;stroke-linecap:butt;stroke-linejoin:miter;stroke-opacity:1" d="M 312.175,531.724 293.04,529.71 z" id="boundary" inkscape:connector-curvature="0" />
	<path style="fill:none;stroke:red;stroke-width:1px;stroke-linecap:butt;stroke-linejoin:miter;stroke-opacity:1" d="M 313.331,513.294 310.16,500.504 z" id="boundary" inkscape:connector-curvature="0" />
	<path style="fill:none;stroke:red;stroke-width:1px;stroke-linecap:butt;stroke-linejoin:miter;stroke-opacity:1" d="M 310.16,500.504 335.338,500.504 z" id="boundary" inkscape:connector-curvature="0" />
	<path style="fill:none;stroke:red;stroke-width:1px;stroke-linecap:butt;stroke-linejoin:miter;stroke-opacity:1" d="M 312.175,531.724 332.317,531.724 z" id="boundary" inkscape:connector-curvature="0" />
	<path style="fill:none;stroke:red;stroke-width:1px;stroke-linecap:butt;stroke-linejoin:miter;stroke-opacity:1" d="M 232.613,552.873 239.548,553.538 z" id="boundary" inkscape:connector-curvature="0" />
	<path style="fill:none;stroke:red;stroke-width:1px;stroke-linecap:butt;stroke-linejoin:miter;stroke-opacity:1" d="M 232.613,552.873 226.571,531.724 z" id="boundary" inkscape:connector-curvature="0" />
	<path style="fill:none;stroke:red;stroke-width:1px;stroke-linecap:butt;stroke-linejoin:miter;stroke-opacity:1" d="M 277.933,580.065 267.862,562.944 z" id="boundary" inkscape:connector-curvature="0" />
	<path style="fill:none;stroke:red;stroke-width:1px;stroke-linecap:butt;stroke-linejoin:miter;stroke-opacity:1" d="M 246.713,607.257 238.656,576.037 z" id="boundary" inkscape:connector-curvature="0" />
	<path style="fill:none;stroke:red;stroke-width:1px;stroke-linecap:butt;stroke-linejoin:miter;stroke-opacity:1" d="M 120.37,801.743 124.077,606.113 z" id="boundary" inkscape:connector-curvature="0" />
	<path style="fill:none;stroke:red;stroke-width:1px;stroke-linecap:butt;stroke-linejoin:miter;stroke-opacity:1" d="M 17.8226,244.944 124.077,606.113 z" id="boundary" inkscape:connector-curvature="0" />
	<path style="fill:none;stroke:red;stroke-width:1px;stroke-linecap:butt;stroke-linejoin:miter;stroke-opacity:1" d="M 246.713,607.257 250.741,626.392 z" id="boundary" inkscape:connector-curvature="0" />
	<path style="fill:none;stroke:red;stroke-width:1px;stroke-linecap:butt;stroke-linejoin:miter;stroke-opacity:1" d="M 255.777,648.548 250.741,626.392 z" id="boundary" inkscape:connector-curvature="0" />
	<path style="fill:none;stroke:red;stroke-width:1px;stroke-linecap:butt;stroke-linejoin:miter;stroke-opacity:1" d="M 255.777,648.548 261.819,669.697 z" id="boundary" inkscape:connector-curvature="0" />
	<path style="fill:none;stroke:red;stroke-width:1px;stroke-linecap:butt;stroke-linejoin:miter;stroke-opacity:1" d="M 280.954,669.697 261.819,669.697 z" id="boundary" inkscape:connector-curvature="0" />
	<path style="fill:none;stroke:red;stroke-width:1px;stroke-linecap:butt;stroke-linejoin:miter;stroke-opacity:1" d="M 277.933,580.065 280.954,598.193 z" id="boundary" inkscape:connector-curvature="0" />
	<path style="fill:none;stroke:red;stroke-width:1px;stroke-linecap:butt;stroke-linejoin:miter;stroke-opacity:1" d="M 286.997,619.342 305.125,625.385 z" id="boundary" inkscape:connector-curvature="0" />
	<path style="fill:none;stroke:red;stroke-width:1px;stroke-linecap:butt;stroke-linejoin:miter;stroke-opacity:1" d="M 286.997,619.342 280.954,598.193 z" id="boundary" inkscape:connector-curvature="0" />
	<path style="fill:none;stroke:red;stroke-width:1px;stroke-linecap:butt;stroke-linejoin:miter;stroke-opacity:1" d="M 301.096,667.683 280.954,669.697 z" id="boundary" inkscape:connector-curvature="0" />
	<path style="fill:none;stroke:red;stroke-width:1px;stroke-linecap:butt;stroke-linejoin:miter;stroke-opacity:1" d="M 305.125,625.385 322.246,625.385 z" id="boundary" inkscape:connector-curvature="0" />
	<path style="fill:none;stroke:red;stroke-width:1px;stroke-linecap:butt;stroke-linejoin:miter;stroke-opacity:1" d="M 301.096,667.683 320.231,665.669 z" id="boundary" inkscape:connector-curvature="0" />
	<path style="fill:none;stroke:red;stroke-width:1px;stroke-linecap:butt;stroke-linejoin:miter;stroke-opacity:1" d="M 288.263,766.084 310.16,772.422 z" id="boundary" inkscape:connector-curvature="0" />
	<path style="fill:none;stroke:red;stroke-width:1px;stroke-linecap:butt;stroke-linejoin:miter;stroke-opacity:1" d="M 289.011,774.437 288.263,766.084 z" id="boundary" inkscape:connector-curvature="0" />
	<path style="fill:none;stroke:red;stroke-width:1px;stroke-linecap:butt;stroke-linejoin:miter;stroke-opacity:1" d="M 310.16,797.6 299.082,787.529 z" id="boundary" inkscape:connector-curvature="0" />
	<path style="fill:none;stroke:red;stroke-width:1px;stroke-linecap:butt;stroke-linejoin:miter;stroke-opacity:1" d="M 299.082,787.529 289.011,774.437 z" id="boundary" inkscape:connector-curvature="0" />
	<path style="fill:none;stroke:red;stroke-width:1px;stroke-linecap:butt;stroke-linejoin:miter;stroke-opacity:1" d="M 310.16,797.6 324.26,811.699 z" id="boundary" inkscape:connector-curvature="0" />
	<path style="fill:none;stroke:red;stroke-width:1px;stroke-linecap:butt;stroke-linejoin:miter;stroke-opacity:1" d="M 310.16,772.422 328.288,770.408 z" id="boundary" inkscape:connector-curvature="0" />
	<path style="fill:none;stroke:red;stroke-width:1px;stroke-linecap:butt;stroke-linejoin:miter;stroke-opacity:1" d="M 322.246,625.385 341.381,625.385 z" id="boundary" inkscape:connector-curvature="0" />
	<path style="fill:none;stroke:red;stroke-width:1px;stroke-linecap:butt;stroke-linejoin:miter;stroke-opacity:1" d="M 326.274,389.722 351.452,387.708 z" id="boundary" inkscape:connector-curvature="0" />
	<path style="fill:none;stroke:red;stroke-width:1px;stroke-linecap:butt;stroke-linejoin:miter;stroke-opacity:1" d="M 326.274,389.722 303.111,393.75 z" id="boundary" inkscape:connector-curvature="0" />
	<path style="fill:none;stroke:red;stroke-width:1px;stroke-linecap:butt;stroke-linejoin:miter;stroke-opacity:1" d="M 360.516,498.489 335.338,500.504 z" id="boundary" inkscape:connector-curvature="0" />
	<path style="fill:none;stroke:red;stroke-width:1px;stroke-linecap:butt;stroke-linejoin:miter;stroke-opacity:1" d="M 386.701,498.489 360.516,498.489 z" id="boundary" inkscape:connector-curvature="0" />
	<path style="fill:none;stroke:red;stroke-width:1px;stroke-linecap:butt;stroke-linejoin:miter;stroke-opacity:1" d="M 386.701,498.489 403.821,491.44 z" id="boundary" inkscape:connector-curvature="0" />
	<path style="fill:none;stroke:red;stroke-width:1px;stroke-linecap:butt;stroke-linejoin:miter;stroke-opacity:1" d="M 378.644,389.722 351.452,387.708 z" id="boundary" inkscape:connector-curvature="0" />
	<path style="fill:none;stroke:red;stroke-width:1px;stroke-linecap:butt;stroke-linejoin:miter;stroke-opacity:1" d="M 360.516,625.385 341.381,625.385 z" id="boundary" inkscape:connector-curvature="0" />
	<path style="fill:none;stroke:red;stroke-width:1px;stroke-linecap:butt;stroke-linejoin:miter;stroke-opacity:1" d="M 357.494,527.695 332.317,531.724 z" id="boundary" inkscape:connector-curvature="0" />
	<path style="fill:none;stroke:red;stroke-width:1px;stroke-linecap:butt;stroke-linejoin:miter;stroke-opacity:1" d="M 343.395,665.669 320.231,665.669 z" id="boundary" inkscape:connector-curvature="0" />
	<path style="fill:none;stroke:red;stroke-width:1px;stroke-linecap:butt;stroke-linejoin:miter;stroke-opacity:1" d="M 382.672,626.392 360.516,625.385 z" id="boundary" inkscape:connector-curvature="0" />
	<path style="fill:none;stroke:red;stroke-width:1px;stroke-linecap:butt;stroke-linejoin:miter;stroke-opacity:1" d="M 357.494,527.695 378.644,529.71 z" id="boundary" inkscape:connector-curvature="0" />
	<path style="fill:none;stroke:red;stroke-width:1px;stroke-linecap:butt;stroke-linejoin:miter;stroke-opacity:1" d="M 378.644,529.71 399.793,529.71 z" id="boundary" inkscape:connector-curvature="0" />
	<path style="fill:none;stroke:red;stroke-width:1px;stroke-linecap:butt;stroke-linejoin:miter;stroke-opacity:1" d="M 403.821,426.985 403.821,407.85 z" id="boundary" inkscape:connector-curvature="0" />
	<path style="fill:none;stroke:red;stroke-width:1px;stroke-linecap:butt;stroke-linejoin:miter;stroke-opacity:1" d="M 405.836,391.736 403.821,407.85 z" id="boundary" inkscape:connector-curvature="0" />
	<path style="fill:none;stroke:red;stroke-width:1px;stroke-linecap:butt;stroke-linejoin:miter;stroke-opacity:1" d="M 437.056,431.013 437.056,411.878 z" id="boundary" inkscape:connector-curvature="0" />
	<path style="fill:none;stroke:red;stroke-width:1px;stroke-linecap:butt;stroke-linejoin:miter;stroke-opacity:1" d="M 403.821,448.134 403.821,469.283 z" id="boundary" inkscape:connector-curvature="0" />
	<path style="fill:none;stroke:red;stroke-width:1px;stroke-linecap:butt;stroke-linejoin:miter;stroke-opacity:1" d="M 439.07,452.162 437.056,431.013 z" id="boundary" inkscape:connector-curvature="0" />
	<path style="fill:none;stroke:red;stroke-width:1px;stroke-linecap:butt;stroke-linejoin:miter;stroke-opacity:1" d="M 446.12,529.71 422.956,529.71 z" id="boundary" inkscape:connector-curvature="0" />
	<path style="fill:none;stroke:red;stroke-width:1px;stroke-linecap:butt;stroke-linejoin:miter;stroke-opacity:1" d="M 403.821,448.134 403.821,426.985 z" id="boundary" inkscape:connector-curvature="0" />
	<path style="fill:none;stroke:red;stroke-width:1px;stroke-linecap:butt;stroke-linejoin:miter;stroke-opacity:1" d="M 422.956,529.71 399.793,529.71 z" id="boundary" inkscape:connector-curvature="0" />
	<path style="fill:none;stroke:red;stroke-width:1px;stroke-linecap:butt;stroke-linejoin:miter;stroke-opacity:1" d="M 349.438,706.96 347.423,730.124 z" id="boundary" inkscape:connector-curvature="0" />
	<path style="fill:none;stroke:red;stroke-width:1px;stroke-linecap:butt;stroke-linejoin:miter;stroke-opacity:1" d="M 351.452,684.804 349.438,706.96 z" id="boundary" inkscape:connector-curvature="0" />
	<path style="fill:none;stroke:red;stroke-width:1px;stroke-linecap:butt;stroke-linejoin:miter;stroke-opacity:1" d="M 380.658,720.053 378.644,741.202 z" id="boundary" inkscape:connector-curvature="0" />
	<path style="fill:none;stroke:red;stroke-width:1px;stroke-linecap:butt;stroke-linejoin:miter;stroke-opacity:1" d="M 349.438,751.273 347.423,730.124 z" id="boundary" inkscape:connector-curvature="0" />
	<path style="fill:none;stroke:red;stroke-width:1px;stroke-linecap:butt;stroke-linejoin:miter;stroke-opacity:1" d="M 351.452,684.804 343.395,665.669 z" id="boundary" inkscape:connector-curvature="0" />
	<path style="fill:none;stroke:red;stroke-width:1px;stroke-linecap:butt;stroke-linejoin:miter;stroke-opacity:1" d="M 341.381,820.763 324.26,811.699 z" id="boundary" inkscape:connector-curvature="0" />
	<path style="fill:none;stroke:red;stroke-width:1px;stroke-linecap:butt;stroke-linejoin:miter;stroke-opacity:1" d="M 376.629,853.998 357.494,838.891 z" id="boundary" inkscape:connector-curvature="0" />
	<path style="fill:none;stroke:red;stroke-width:1px;stroke-linecap:butt;stroke-linejoin:miter;stroke-opacity:1" d="M 357.494,838.891 341.381,820.763 z" id="boundary" inkscape:connector-curvature="0" />
	<path style="fill:none;stroke:red;stroke-width:1px;stroke-linecap:butt;stroke-linejoin:miter;stroke-opacity:1" d="M 378.644,764.365 399.793,768.394 z" id="boundary" inkscape:connector-curvature="0" />
	<path style="fill:none;stroke:red;stroke-width:1px;stroke-linecap:butt;stroke-linejoin:miter;stroke-opacity:1" d="M 382.672,663.655 382.672,680.776 z" id="boundary" inkscape:connector-curvature="0" />
	<path style="fill:none;stroke:red;stroke-width:1px;stroke-linecap:butt;stroke-linejoin:miter;stroke-opacity:1" d="M 384.686,644.52 382.672,663.655 z" id="boundary" inkscape:connector-curvature="0" />
	<path style="fill:none;stroke:red;stroke-width:1px;stroke-linecap:butt;stroke-linejoin:miter;stroke-opacity:1" d="M 382.672,680.776 380.658,700.918 z" id="boundary" inkscape:connector-curvature="0" />
	<path style="fill:none;stroke:red;stroke-width:1px;stroke-linecap:butt;stroke-linejoin:miter;stroke-opacity:1" d="M 382.672,626.392 408.825,627.84 z" id="boundary" inkscape:connector-curvature="0" />
	<path style="fill:none;stroke:red;stroke-width:1px;stroke-linecap:butt;stroke-linejoin:miter;stroke-opacity:1" d="M 380.658,720.053 380.658,700.918 z" id="boundary" inkscape:connector-curvature="0" />
	<path style="fill:none;stroke:red;stroke-width:1px;stroke-linecap:butt;stroke-linejoin:miter;stroke-opacity:1" d="M 424.971,768.394 399.793,768.394 z" id="boundary" inkscape:connector-curvature="0" />
	<path style="fill:none;stroke:red;stroke-width:1px;stroke-linecap:butt;stroke-linejoin:miter;stroke-opacity:1" d="M 395.764,869.105 376.629,853.998 z" id="boundary" inkscape:connector-curvature="0" />
	<path style="fill:none;stroke:red;stroke-width:1px;stroke-linecap:butt;stroke-linejoin:miter;stroke-opacity:1" d="M 411.878,885.218 395.764,869.105 z" id="boundary" inkscape:connector-curvature="0" />
	<path style="fill:none;stroke:red;stroke-width:1px;stroke-linecap:butt;stroke-linejoin:miter;stroke-opacity:1" d="M 411.878,885.218 431.013,902.339 z" id="boundary" inkscape:connector-curvature="0" />
	<path style="fill:none;stroke:red;stroke-width:1px;stroke-linecap:butt;stroke-linejoin:miter;stroke-opacity:1" d="M 450.148,916.439 431.013,902.339 z" id="boundary" inkscape:connector-curvature="0" />
	<path style="fill:none;stroke:red;stroke-width:1px;stroke-linecap:butt;stroke-linejoin:miter;stroke-opacity:1" d="M 439.07,452.162 439.07,469.283 z" id="boundary" inkscape:connector-curvature="0" />
	<path style="fill:none;stroke:red;stroke-width:1px;stroke-linecap:butt;stroke-linejoin:miter;stroke-opacity:1" d="M 439.07,282.969 466.262,293.04 z" id="boundary" inkscape:connector-curvature="0" />
	<path style="fill:none;stroke:red;stroke-width:1px;stroke-linecap:butt;stroke-linejoin:miter;stroke-opacity:1" d="M 441.084,17.0924 475.326,17.0924 z" id="boundary" inkscape:connector-curvature="0" />
	<path style="fill:none;stroke:red;stroke-width:1px;stroke-linecap:butt;stroke-linejoin:miter;stroke-opacity:1" d="M 483.383,110.753 460.219,110.753 z" id="boundary" inkscape:connector-curvature="0" />
	<path style="fill:none;stroke:red;stroke-width:1px;stroke-linecap:butt;stroke-linejoin:miter;stroke-opacity:1" d="M 424.971,110.753 460.219,110.753 z" id="boundary" inkscape:connector-curvature="0" />
	<path style="fill:none;stroke:red;stroke-width:1px;stroke-linecap:butt;stroke-linejoin:miter;stroke-opacity:1" d="M 508.56,110.753 483.383,110.753 z" id="boundary" inkscape:connector-curvature="0" />
	<path style="fill:none;stroke:red;stroke-width:1px;stroke-linecap:butt;stroke-linejoin:miter;stroke-opacity:1" d="M 475.326,17.0924 502.518,17.0924 z" id="boundary" inkscape:connector-curvature="0" />
	<path style="fill:none;stroke:red;stroke-width:1px;stroke-linecap:butt;stroke-linejoin:miter;stroke-opacity:1" d="M 531.724,17.0924 502.518,17.0924 z" id="boundary" inkscape:connector-curvature="0" />
	<path style="fill:none;stroke:red;stroke-width:1px;stroke-linecap:butt;stroke-linejoin:miter;stroke-opacity:1" d="M 564.958,15.0782 531.724,17.0924 z" id="boundary" inkscape:connector-curvature="0" />
	<path style="fill:none;stroke:red;stroke-width:1px;stroke-linecap:butt;stroke-linejoin:miter;stroke-opacity:1" d="M 489.425,196.357 467.269,209.45 z" id="boundary" inkscape:connector-curvature="0" />
	<path style="fill:none;stroke:red;stroke-width:1px;stroke-linecap:butt;stroke-linejoin:miter;stroke-opacity:1" d="M 508.56,186.286 489.425,196.357 z" id="boundary" inkscape:connector-curvature="0" />
	<path style="fill:none;stroke:red;stroke-width:1px;stroke-linecap:butt;stroke-linejoin:miter;stroke-opacity:1" d="M 529.71,174.201 508.56,186.286 z" id="boundary" inkscape:connector-curvature="0" />
	<path style="fill:none;stroke:red;stroke-width:1px;stroke-linecap:butt;stroke-linejoin:miter;stroke-opacity:1" d="M 508.56,110.753 535.752,110.753 z" id="boundary" inkscape:connector-curvature="0" />
	<path style="fill:none;stroke:red;stroke-width:1px;stroke-linecap:butt;stroke-linejoin:miter;stroke-opacity:1" d="M 547.838,167.151 529.71,174.201 z" id="boundary" inkscape:connector-curvature="0" />
	<path style="fill:none;stroke:red;stroke-width:1px;stroke-linecap:butt;stroke-linejoin:miter;stroke-opacity:1" d="M 564.958,110.753 535.752,110.753 z" id="boundary" inkscape:connector-curvature="0" />
	<path style="fill:none;stroke:red;stroke-width:1px;stroke-linecap:butt;stroke-linejoin:miter;stroke-opacity:1" d="M 467.269,209.45 450.148,217.507 z" id="boundary" inkscape:connector-curvature="0" />
	<path style="fill:none;stroke:red;stroke-width:1px;stroke-linecap:butt;stroke-linejoin:miter;stroke-opacity:1" d="M 586.108,108.739 564.958,110.753 z" id="boundary" inkscape:connector-curvature="0" />
	<path style="fill:none;stroke:red;stroke-width:1px;stroke-linecap:butt;stroke-linejoin:miter;stroke-opacity:1" d="M 564.958,15.0782 600.207,13.064 z" id="boundary" inkscape:connector-curvature="0" />
	<path style="fill:none;stroke:red;stroke-width:1px;stroke-linecap:butt;stroke-linejoin:miter;stroke-opacity:1" d="M 586.108,108.739 611.285,108.739 z" id="boundary" inkscape:connector-curvature="0" />
	<path style="fill:none;stroke:red;stroke-width:1px;stroke-linecap:butt;stroke-linejoin:miter;stroke-opacity:1" d="M 600.207,13.064 621.356,13.064 z" id="boundary" inkscape:connector-curvature="0" />
	<path style="fill:none;stroke:red;stroke-width:1px;stroke-linecap:butt;stroke-linejoin:miter;stroke-opacity:1" d="M 576.037,196.357 552.873,211.464 z" id="boundary" inkscape:connector-curvature="0" />
	<path style="fill:none;stroke:red;stroke-width:1px;stroke-linecap:butt;stroke-linejoin:miter;stroke-opacity:1" d="M 566.973,159.094 547.838,167.151 z" id="boundary" inkscape:connector-curvature="0" />
	<path style="fill:none;stroke:red;stroke-width:1px;stroke-linecap:butt;stroke-linejoin:miter;stroke-opacity:1" d="M 594.164,180.244 576.037,196.357 z" id="boundary" inkscape:connector-curvature="0" />
	<path style="fill:none;stroke:red;stroke-width:1px;stroke-linecap:butt;stroke-linejoin:miter;stroke-opacity:1" d="M 613.299,170.173 594.164,180.244 z" id="boundary" inkscape:connector-curvature="0" />
	<path style="fill:none;stroke:red;stroke-width:1px;stroke-linecap:butt;stroke-linejoin:miter;stroke-opacity:1" d="M 552.873,211.464 529.71,217.507 z" id="boundary" inkscape:connector-curvature="0" />
	<path style="fill:none;stroke:red;stroke-width:1px;stroke-linecap:butt;stroke-linejoin:miter;stroke-opacity:1" d="M 493.454,240.67 512.589,226.571 z" id="boundary" inkscape:connector-curvature="0" />
	<path style="fill:none;stroke:red;stroke-width:1px;stroke-linecap:butt;stroke-linejoin:miter;stroke-opacity:1" d="M 483.383,362.53 460.219,362.53 z" id="boundary" inkscape:connector-curvature="0" />
	<path style="fill:none;stroke:red;stroke-width:1px;stroke-linecap:butt;stroke-linejoin:miter;stroke-opacity:1" d="M 460.219,362.53 439.07,364.544 z" id="boundary" inkscape:connector-curvature="0" />
	<path style="fill:none;stroke:red;stroke-width:1px;stroke-linecap:butt;stroke-linejoin:miter;stroke-opacity:1" d="M 466.262,293.04 485.397,304.118 z" id="boundary" inkscape:connector-curvature="0" />
	<path style="fill:none;stroke:red;stroke-width:1px;stroke-linecap:butt;stroke-linejoin:miter;stroke-opacity:1" d="M 500.504,362.53 483.383,362.53 z" id="boundary" inkscape:connector-curvature="0" />
	<path style="fill:none;stroke:red;stroke-width:1px;stroke-linecap:butt;stroke-linejoin:miter;stroke-opacity:1" d="M 520.646,362.53 500.504,362.53 z" id="boundary" inkscape:connector-curvature="0" />
	<path style="fill:none;stroke:red;stroke-width:1px;stroke-linecap:butt;stroke-linejoin:miter;stroke-opacity:1" d="M 512.589,226.571 529.71,217.507 z" id="boundary" inkscape:connector-curvature="0" />
	<path style="fill:none;stroke:red;stroke-width:1px;stroke-linecap:butt;stroke-linejoin:miter;stroke-opacity:1" d="M 537.766,284.983 552.873,297.068 z" id="boundary" inkscape:connector-curvature="0" />
	<path style="fill:none;stroke:red;stroke-width:1px;stroke-linecap:butt;stroke-linejoin:miter;stroke-opacity:1" d="M 552.873,297.068 576.037,304.118 z" id="boundary" inkscape:connector-curvature="0" />
	<path style="fill:none;stroke:red;stroke-width:1px;stroke-linecap:butt;stroke-linejoin:miter;stroke-opacity:1" d="M 598.193,314.189 576.037,304.118 z" id="boundary" inkscape:connector-curvature="0" />
	<path style="fill:none;stroke:red;stroke-width:1px;stroke-linecap:butt;stroke-linejoin:miter;stroke-opacity:1" d="M 535.752,330.303 552.873,335.338 z" id="boundary" inkscape:connector-curvature="0" />
	<path style="fill:none;stroke:red;stroke-width:1px;stroke-linecap:butt;stroke-linejoin:miter;stroke-opacity:1" d="M 560.93,387.708 541.795,385.693 z" id="boundary" inkscape:connector-curvature="0" />
	<path style="fill:none;stroke:red;stroke-width:1px;stroke-linecap:butt;stroke-linejoin:miter;stroke-opacity:1" d="M 598.193,314.189 613.299,322.246 z" id="boundary" inkscape:connector-curvature="0" />
	<path style="fill:none;stroke:red;stroke-width:1px;stroke-linecap:butt;stroke-linejoin:miter;stroke-opacity:1" d="M 541.795,385.693 520.646,389.722 z" id="boundary" inkscape:connector-curvature="0" />
	<path style="fill:none;stroke:red;stroke-width:1px;stroke-linecap:butt;stroke-linejoin:miter;stroke-opacity:1" d="M 642.737,107.04 630.42,106.725 z" id="boundary" inkscape:connector-curvature="0" />
	<path style="fill:none;stroke:red;stroke-width:1px;stroke-linecap:butt;stroke-linejoin:miter;stroke-opacity:1" d="M 621.356,13.064 652.577,13.064 z" id="boundary" inkscape:connector-curvature="0" />
	<path style="fill:none;stroke:red;stroke-width:1px;stroke-linecap:butt;stroke-linejoin:miter;stroke-opacity:1" d="M 611.285,108.739 630.42,106.725 z" id="boundary" inkscape:connector-curvature="0" />
	<path style="fill:none;stroke:red;stroke-width:1px;stroke-linecap:butt;stroke-linejoin:miter;stroke-opacity:1" d="M 686.818,11.0497 652.577,13.064 z" id="boundary" inkscape:connector-curvature="0" />
	<path style="fill:none;stroke:red;stroke-width:1px;stroke-linecap:butt;stroke-linejoin:miter;stroke-opacity:1" d="M 716.024,9.03553 686.818,11.0497 z" id="boundary" inkscape:connector-curvature="0" />
	<path style="fill:none;stroke:red;stroke-width:1px;stroke-linecap:butt;stroke-linejoin:miter;stroke-opacity:1" d="M 652.577,108.739 642.737,107.04 z" id="boundary" inkscape:connector-curvature="0" />
	<path style="fill:none;stroke:red;stroke-width:1px;stroke-linecap:butt;stroke-linejoin:miter;stroke-opacity:1" d="M 652.577,108.739 644.52,119.817 z" id="boundary" inkscape:connector-curvature="0" />
	<path style="fill:none;stroke:red;stroke-width:1px;stroke-linecap:butt;stroke-linejoin:miter;stroke-opacity:1" d="M 659.626,151.038 640.491,163.123 z" id="boundary" inkscape:connector-curvature="0" />
	<path style="fill:none;stroke:red;stroke-width:1px;stroke-linecap:butt;stroke-linejoin:miter;stroke-opacity:1" d="M 747.245,9.03553 784.508,8.02843 z" id="boundary" inkscape:connector-curvature="0" />
	<path style="fill:none;stroke:red;stroke-width:1px;stroke-linecap:butt;stroke-linejoin:miter;stroke-opacity:1" d="M 747.245,9.03553 716.024,9.03553 z" id="boundary" inkscape:connector-curvature="0" />
	<path style="fill:none;stroke:red;stroke-width:1px;stroke-linecap:butt;stroke-linejoin:miter;stroke-opacity:1" d="M 815.728,8.02843 784.508,8.02843 z" id="boundary" inkscape:connector-curvature="0" />
	<path style="fill:none;stroke:red;stroke-width:1px;stroke-linecap:butt;stroke-linejoin:miter;stroke-opacity:1" d="M 849.97,4 815.728,8.02843 z" id="boundary" inkscape:connector-curvature="0" />
	<path style="fill:none;stroke:red;stroke-width:1px;stroke-linecap:butt;stroke-linejoin:miter;stroke-opacity:1" d="M 849.97,4 851.984,27.1635 z" id="boundary" inkscape:connector-curvature="0" />
	<path style="fill:none;stroke:red;stroke-width:1px;stroke-linecap:butt;stroke-linejoin:miter;stroke-opacity:1" d="M 838.891,60.398 851.984,27.1635 z" id="boundary" inkscape:connector-curvature="0" />
	<path style="fill:none;stroke:red;stroke-width:1px;stroke-linecap:butt;stroke-linejoin:miter;stroke-opacity:1" d="M 838.891,60.398 815.728,62.4122 z" id="boundary" inkscape:connector-curvature="0" />
	<path style="fill:none;stroke:red;stroke-width:1px;stroke-linecap:butt;stroke-linejoin:miter;stroke-opacity:1" d="M 716.024,139.959 722.067,114.782 z" id="boundary" inkscape:connector-curvature="0" />
	<path style="fill:none;stroke:red;stroke-width:1px;stroke-linecap:butt;stroke-linejoin:miter;stroke-opacity:1" d="M 728.11,89.6041 722.067,114.782 z" id="boundary" inkscape:connector-curvature="0" />
	<path style="fill:none;stroke:red;stroke-width:1px;stroke-linecap:butt;stroke-linejoin:miter;stroke-opacity:1" d="M 786.522,65.4335 763.358,67.4477 z" id="boundary" inkscape:connector-curvature="0" />
	<path style="fill:none;stroke:red;stroke-width:1px;stroke-linecap:butt;stroke-linejoin:miter;stroke-opacity:1" d="M 737.174,69.4619 763.358,67.4477 z" id="boundary" inkscape:connector-curvature="0" />
	<path style="fill:none;stroke:red;stroke-width:1px;stroke-linecap:butt;stroke-linejoin:miter;stroke-opacity:1" d="M 728.11,89.6041 737.174,69.4619 z" id="boundary" inkscape:connector-curvature="0" />
	<path style="fill:none;stroke:red;stroke-width:1px;stroke-linecap:butt;stroke-linejoin:miter;stroke-opacity:1" d="M 815.728,62.4122 786.522,65.4335 z" id="boundary" inkscape:connector-curvature="0" />
	<path style="fill:none;stroke:red;stroke-width:1px;stroke-linecap:butt;stroke-linejoin:miter;stroke-opacity:1" d="M 716.024,139.959 711.996,161.109 z" id="boundary" inkscape:connector-curvature="0" />
	<path style="fill:none;stroke:red;stroke-width:1px;stroke-linecap:butt;stroke-linejoin:miter;stroke-opacity:1" d="M 650.562,269.876 646.534,289.011 z" id="boundary" inkscape:connector-curvature="0" />
	<path style="fill:none;stroke:red;stroke-width:1px;stroke-linecap:butt;stroke-linejoin:miter;stroke-opacity:1" d="M 640.491,163.123 613.299,170.173 z" id="boundary" inkscape:connector-curvature="0" />
	<path style="fill:none;stroke:red;stroke-width:1px;stroke-linecap:butt;stroke-linejoin:miter;stroke-opacity:1" d="M 669.697,205.421 661.641,230.599 z" id="boundary" inkscape:connector-curvature="0" />
	<path style="fill:none;stroke:red;stroke-width:1px;stroke-linecap:butt;stroke-linejoin:miter;stroke-opacity:1" d="M 655.598,251.748 650.562,269.876 z" id="boundary" inkscape:connector-curvature="0" />
	<path style="fill:none;stroke:red;stroke-width:1px;stroke-linecap:butt;stroke-linejoin:miter;stroke-opacity:1" d="M 661.641,230.599 655.598,251.748 z" id="boundary" inkscape:connector-curvature="0" />
	<path style="fill:none;stroke:red;stroke-width:1px;stroke-linecap:butt;stroke-linejoin:miter;stroke-opacity:1" d="M 644.52,308.146 646.534,289.011 z" id="boundary" inkscape:connector-curvature="0" />
	<path style="fill:none;stroke:red;stroke-width:1px;stroke-linecap:butt;stroke-linejoin:miter;stroke-opacity:1" d="M 613.299,322.246 636.463,331.31 z" id="boundary" inkscape:connector-curvature="0" />
	<path style="fill:none;stroke:red;stroke-width:1px;stroke-linecap:butt;stroke-linejoin:miter;stroke-opacity:1" d="M 659.626,357.494 652.577,378.644 z" id="boundary" inkscape:connector-curvature="0" />
	<path style="fill:none;stroke:red;stroke-width:1px;stroke-linecap:butt;stroke-linejoin:miter;stroke-opacity:1" d="M 663.655,339.366 659.626,357.494 z" id="boundary" inkscape:connector-curvature="0" />
	<path style="fill:none;stroke:red;stroke-width:1px;stroke-linecap:butt;stroke-linejoin:miter;stroke-opacity:1" d="M 652.577,378.644 648.548,399.793 z" id="boundary" inkscape:connector-curvature="0" />
	<path style="fill:none;stroke:red;stroke-width:1px;stroke-linecap:butt;stroke-linejoin:miter;stroke-opacity:1" d="M 704.946,182.258 698.904,201.393 z" id="boundary" inkscape:connector-curvature="0" />
	<path style="fill:none;stroke:red;stroke-width:1px;stroke-linecap:butt;stroke-linejoin:miter;stroke-opacity:1" d="M 698.904,201.393 692.861,228.585 z" id="boundary" inkscape:connector-curvature="0" />
	<path style="fill:none;stroke:red;stroke-width:1px;stroke-linecap:butt;stroke-linejoin:miter;stroke-opacity:1" d="M 704.946,182.258 711.996,161.109 z" id="boundary" inkscape:connector-curvature="0" />
	<path style="fill:none;stroke:red;stroke-width:1px;stroke-linecap:butt;stroke-linejoin:miter;stroke-opacity:1" d="M 663.655,339.366 669.697,316.203 z" id="boundary" inkscape:connector-curvature="0" />
	<path style="fill:none;stroke:red;stroke-width:1px;stroke-linecap:butt;stroke-linejoin:miter;stroke-opacity:1" d="M 677.754,295.054 669.697,316.203 z" id="boundary" inkscape:connector-curvature="0" />
	<path style="fill:none;stroke:red;stroke-width:1px;stroke-linecap:butt;stroke-linejoin:miter;stroke-opacity:1" d="M 690.847,248.727 692.861,228.585 z" id="boundary" inkscape:connector-curvature="0" />
	<path style="fill:none;stroke:red;stroke-width:1px;stroke-linecap:butt;stroke-linejoin:miter;stroke-opacity:1" d="M 777.062,199.971 851.072,220.511 z" id="boundary" inkscape:connector-curvature="0" />
	<path style="fill:none;stroke:red;stroke-width:1px;stroke-linecap:butt;stroke-linejoin:miter;stroke-opacity:1" d="M 682.79,267.862 690.847,248.727 z" id="boundary" inkscape:connector-curvature="0" />
	<path style="fill:none;stroke:red;stroke-width:1px;stroke-linecap:butt;stroke-linejoin:miter;stroke-opacity:1" d="M 677.754,295.054 682.79,267.862 z" id="boundary" inkscape:connector-curvature="0" />
	<path style="fill:none;stroke:red;stroke-width:1px;stroke-linecap:butt;stroke-linejoin:miter;stroke-opacity:1" d="M 851.072,220.511 716.466,395.228 z" id="boundary" inkscape:connector-curvature="0" />
	<path style="fill:none;stroke:red;stroke-width:1px;stroke-linecap:butt;stroke-linejoin:miter;stroke-opacity:1" d="M 467.269,498.489 452.162,498.489 z" id="boundary" inkscape:connector-curvature="0" />
	<path style="fill:none;stroke:red;stroke-width:1px;stroke-linecap:butt;stroke-linejoin:miter;stroke-opacity:1" d="M 456.191,393.75 479.354,393.75 z" id="boundary" inkscape:connector-curvature="0" />
	<path style="fill:none;stroke:red;stroke-width:1px;stroke-linecap:butt;stroke-linejoin:miter;stroke-opacity:1" d="M 437.056,491.44 452.162,498.489 z" id="boundary" inkscape:connector-curvature="0" />
	<path style="fill:none;stroke:red;stroke-width:1px;stroke-linecap:butt;stroke-linejoin:miter;stroke-opacity:1" d="M 487.411,498.489 467.269,498.489 z" id="boundary" inkscape:connector-curvature="0" />
	<path style="fill:none;stroke:red;stroke-width:1px;stroke-linecap:butt;stroke-linejoin:miter;stroke-opacity:1" d="M 479.354,393.75 498.489,391.736 z" id="boundary" inkscape:connector-curvature="0" />
	<path style="fill:none;stroke:red;stroke-width:1px;stroke-linecap:butt;stroke-linejoin:miter;stroke-opacity:1" d="M 473.312,623.371 458.205,626.392 z" id="boundary" inkscape:connector-curvature="0" />
	<path style="fill:none;stroke:red;stroke-width:1px;stroke-linecap:butt;stroke-linejoin:miter;stroke-opacity:1" d="M 471.297,525.681 487.411,527.695 z" id="boundary" inkscape:connector-curvature="0" />
	<path style="fill:none;stroke:red;stroke-width:1px;stroke-linecap:butt;stroke-linejoin:miter;stroke-opacity:1" d="M 491.44,621.356 473.312,623.371 z" id="boundary" inkscape:connector-curvature="0" />
	<path style="fill:none;stroke:red;stroke-width:1px;stroke-linecap:butt;stroke-linejoin:miter;stroke-opacity:1" d="M 446.12,529.71 471.297,525.681 z" id="boundary" inkscape:connector-curvature="0" />
	<path style="fill:none;stroke:red;stroke-width:1px;stroke-linecap:butt;stroke-linejoin:miter;stroke-opacity:1" d="M 487.411,498.489 508.56,498.489 z" id="boundary" inkscape:connector-curvature="0" />
	<path style="fill:none;stroke:red;stroke-width:1px;stroke-linecap:butt;stroke-linejoin:miter;stroke-opacity:1" d="M 523.667,496.475 508.56,498.489 z" id="boundary" inkscape:connector-curvature="0" />
	<path style="fill:none;stroke:red;stroke-width:1px;stroke-linecap:butt;stroke-linejoin:miter;stroke-opacity:1" d="M 498.489,391.736 520.646,389.722 z" id="boundary" inkscape:connector-curvature="0" />
	<path style="fill:none;stroke:red;stroke-width:1px;stroke-linecap:butt;stroke-linejoin:miter;stroke-opacity:1" d="M 508.56,527.695 487.411,527.695 z" id="boundary" inkscape:connector-curvature="0" />
	<path style="fill:none;stroke:red;stroke-width:1px;stroke-linecap:butt;stroke-linejoin:miter;stroke-opacity:1" d="M 523.667,496.475 545.823,498.489 z" id="boundary" inkscape:connector-curvature="0" />
	<path style="fill:none;stroke:red;stroke-width:1px;stroke-linecap:butt;stroke-linejoin:miter;stroke-opacity:1" d="M 544.634,524.093 554.887,529.71 z" id="boundary" inkscape:connector-curvature="0" />
	<path style="fill:none;stroke:red;stroke-width:1px;stroke-linecap:butt;stroke-linejoin:miter;stroke-opacity:1" d="M 533.738,527.695 544.634,524.093 z" id="boundary" inkscape:connector-curvature="0" />
	<path style="fill:none;stroke:red;stroke-width:1px;stroke-linecap:butt;stroke-linejoin:miter;stroke-opacity:1" d="M 510.575,625.385 491.44,621.356 z" id="boundary" inkscape:connector-curvature="0" />
	<path style="fill:none;stroke:red;stroke-width:1px;stroke-linecap:butt;stroke-linejoin:miter;stroke-opacity:1" d="M 508.56,527.695 533.738,527.695 z" id="boundary" inkscape:connector-curvature="0" />
	<path style="fill:none;stroke:red;stroke-width:1px;stroke-linecap:butt;stroke-linejoin:miter;stroke-opacity:1" d="M 558.916,659.626 545.823,659.626 z" id="boundary" inkscape:connector-curvature="0" />
	<path style="fill:none;stroke:red;stroke-width:1px;stroke-linecap:butt;stroke-linejoin:miter;stroke-opacity:1" d="M 510.575,625.385 539.781,626.392 z" id="boundary" inkscape:connector-curvature="0" />
	<path style="fill:none;stroke:red;stroke-width:1px;stroke-linecap:butt;stroke-linejoin:miter;stroke-opacity:1" d="M 558.916,605.243 539.781,626.392 z" id="boundary" inkscape:connector-curvature="0" />
	<path style="fill:none;stroke:red;stroke-width:1px;stroke-linecap:butt;stroke-linejoin:miter;stroke-opacity:1" d="M 545.823,659.626 531.724,661.641 z" id="boundary" inkscape:connector-curvature="0" />
	<path style="fill:none;stroke:red;stroke-width:1px;stroke-linecap:butt;stroke-linejoin:miter;stroke-opacity:1" d="M 491.44,690.847 489.425,714.01 z" id="boundary" inkscape:connector-curvature="0" />
	<path style="fill:none;stroke:red;stroke-width:1px;stroke-linecap:butt;stroke-linejoin:miter;stroke-opacity:1" d="M 456.191,711.996 456.191,686.818 z" id="boundary" inkscape:connector-curvature="0" />
	<path style="fill:none;stroke:red;stroke-width:1px;stroke-linecap:butt;stroke-linejoin:miter;stroke-opacity:1" d="M 489.425,714.01 489.425,737.174 z" id="boundary" inkscape:connector-curvature="0" />
	<path style="fill:none;stroke:red;stroke-width:1px;stroke-linecap:butt;stroke-linejoin:miter;stroke-opacity:1" d="M 456.191,711.996 456.191,739.188 z" id="boundary" inkscape:connector-curvature="0" />
	<path style="fill:none;stroke:red;stroke-width:1px;stroke-linecap:butt;stroke-linejoin:miter;stroke-opacity:1" d="M 489.425,753.287 489.425,737.174 z" id="boundary" inkscape:connector-curvature="0" />
	<path style="fill:none;stroke:red;stroke-width:1px;stroke-linecap:butt;stroke-linejoin:miter;stroke-opacity:1" d="M 496.475,772.422 514.603,774.437 z" id="boundary" inkscape:connector-curvature="0" />
	<path style="fill:none;stroke:red;stroke-width:1px;stroke-linecap:butt;stroke-linejoin:miter;stroke-opacity:1" d="M 487.411,947.659 469.283,931.545 z" id="boundary" inkscape:connector-curvature="0" />
	<path style="fill:none;stroke:red;stroke-width:1px;stroke-linecap:butt;stroke-linejoin:miter;stroke-opacity:1" d="M 469.283,931.545 450.148,916.439 z" id="boundary" inkscape:connector-curvature="0" />
	<path style="fill:none;stroke:red;stroke-width:1px;stroke-linecap:butt;stroke-linejoin:miter;stroke-opacity:1" d="M 487.411,947.659 504.532,964.78 z" id="boundary" inkscape:connector-curvature="0" />
	<path style="fill:none;stroke:red;stroke-width:1px;stroke-linecap:butt;stroke-linejoin:miter;stroke-opacity:1" d="M 539.781,774.437 514.603,774.437 z" id="boundary" inkscape:connector-curvature="0" />
	<path style="fill:none;stroke:red;stroke-width:1px;stroke-linecap:butt;stroke-linejoin:miter;stroke-opacity:1" d="M 514.603,661.641 531.724,661.641 z" id="boundary" inkscape:connector-curvature="0" />
	<path style="fill:none;stroke:red;stroke-width:1px;stroke-linecap:butt;stroke-linejoin:miter;stroke-opacity:1" d="M 523.667,977.872 504.532,964.78 z" id="boundary" inkscape:connector-curvature="0" />
	<path style="fill:none;stroke:red;stroke-width:1px;stroke-linecap:butt;stroke-linejoin:miter;stroke-opacity:1" d="M 533.738,945.645 541.795,960.751 z" id="boundary" inkscape:connector-curvature="0" />
	<path style="fill:none;stroke:red;stroke-width:1px;stroke-linecap:butt;stroke-linejoin:miter;stroke-opacity:1" d="M 523.667,977.872 543.809,991.972 z" id="boundary" inkscape:connector-curvature="0" />
	<path style="fill:none;stroke:red;stroke-width:1px;stroke-linecap:butt;stroke-linejoin:miter;stroke-opacity:1" d="M 539.781,931.545 548.845,925.503 z" id="boundary" inkscape:connector-curvature="0" />
	<path style="fill:none;stroke:red;stroke-width:1px;stroke-linecap:butt;stroke-linejoin:miter;stroke-opacity:1" d="M 541.795,960.751 548.845,966.794 z" id="boundary" inkscape:connector-curvature="0" />
	<path style="fill:none;stroke:red;stroke-width:1px;stroke-linecap:butt;stroke-linejoin:miter;stroke-opacity:1" d="M 533.738,945.645 539.781,931.545 z" id="boundary" inkscape:connector-curvature="0" />
	<path style="fill:none;stroke:red;stroke-width:1px;stroke-linecap:butt;stroke-linejoin:miter;stroke-opacity:1" d="M 558.916,780.479 539.781,774.437 z" id="boundary" inkscape:connector-curvature="0" />
	<path style="fill:none;stroke:red;stroke-width:1px;stroke-linecap:butt;stroke-linejoin:miter;stroke-opacity:1" d="M 545.823,498.489 562.944,500.504 z" id="boundary" inkscape:connector-curvature="0" />
	<path style="fill:none;stroke:red;stroke-width:1px;stroke-linecap:butt;stroke-linejoin:miter;stroke-opacity:1" d="M 605.243,426.985 600.207,450.148 z" id="boundary" inkscape:connector-curvature="0" />
	<path style="fill:none;stroke:red;stroke-width:1px;stroke-linecap:butt;stroke-linejoin:miter;stroke-opacity:1" d="M 592.15,491.44 594.164,471.297 z" id="boundary" inkscape:connector-curvature="0" />
	<path style="fill:none;stroke:red;stroke-width:1px;stroke-linecap:butt;stroke-linejoin:miter;stroke-opacity:1" d="M 600.207,450.148 594.164,471.297 z" id="boundary" inkscape:connector-curvature="0" />
	<path style="fill:none;stroke:red;stroke-width:1px;stroke-linecap:butt;stroke-linejoin:miter;stroke-opacity:1" d="M 560.93,387.708 586.108,385.693 z" id="boundary" inkscape:connector-curvature="0" />
	<path style="fill:none;stroke:red;stroke-width:1px;stroke-linecap:butt;stroke-linejoin:miter;stroke-opacity:1" d="M 592.15,491.44 586.108,504.532 z" id="boundary" inkscape:connector-curvature="0" />
	<path style="fill:none;stroke:red;stroke-width:1px;stroke-linecap:butt;stroke-linejoin:miter;stroke-opacity:1" d="M 571.001,560.93 562.944,580.065 z" id="boundary" inkscape:connector-curvature="0" />
	<path style="fill:none;stroke:red;stroke-width:1px;stroke-linecap:butt;stroke-linejoin:miter;stroke-opacity:1" d="M 562.944,580.065 558.916,605.243 z" id="boundary" inkscape:connector-curvature="0" />
	<path style="fill:none;stroke:red;stroke-width:1px;stroke-linecap:butt;stroke-linejoin:miter;stroke-opacity:1" d="M 576.037,535.752 573.015,531.724 z" id="boundary" inkscape:connector-curvature="0" />
	<path style="fill:none;stroke:red;stroke-width:1px;stroke-linecap:butt;stroke-linejoin:miter;stroke-opacity:1" d="M 644.52,418.928 638.477,440.077 z" id="boundary" inkscape:connector-curvature="0" />
	<path style="fill:none;stroke:red;stroke-width:1px;stroke-linecap:butt;stroke-linejoin:miter;stroke-opacity:1" d="M 613.299,405.836 605.243,426.985 z" id="boundary" inkscape:connector-curvature="0" />
	<path style="fill:none;stroke:red;stroke-width:1px;stroke-linecap:butt;stroke-linejoin:miter;stroke-opacity:1" d="M 638.477,440.077 632.435,460.219 z" id="boundary" inkscape:connector-curvature="0" />
	<path style="fill:none;stroke:red;stroke-width:1px;stroke-linecap:butt;stroke-linejoin:miter;stroke-opacity:1" d="M 644.52,418.928 648.548,399.793 z" id="boundary" inkscape:connector-curvature="0" />
	<path style="fill:none;stroke:red;stroke-width:1px;stroke-linecap:butt;stroke-linejoin:miter;stroke-opacity:1" d="M 602.221,592.15 605.243,568.987 z" id="boundary" inkscape:connector-curvature="0" />
	<path style="fill:none;stroke:red;stroke-width:1px;stroke-linecap:butt;stroke-linejoin:miter;stroke-opacity:1" d="M 605.243,568.987 611.285,550.859 z" id="boundary" inkscape:connector-curvature="0" />
	<path style="fill:none;stroke:red;stroke-width:1px;stroke-linecap:butt;stroke-linejoin:miter;stroke-opacity:1" d="M 611.285,550.859 617.328,523.667 z" id="boundary" inkscape:connector-curvature="0" />
	<path style="fill:none;stroke:red;stroke-width:1px;stroke-linecap:butt;stroke-linejoin:miter;stroke-opacity:1" d="M 627.399,481.369 632.435,460.219 z" id="boundary" inkscape:connector-curvature="0" />
	<path style="fill:none;stroke:red;stroke-width:1px;stroke-linecap:butt;stroke-linejoin:miter;stroke-opacity:1" d="M 627.399,481.369 621.356,504.532 z" id="boundary" inkscape:connector-curvature="0" />
	<path style="fill:none;stroke:red;stroke-width:1px;stroke-linecap:butt;stroke-linejoin:miter;stroke-opacity:1" d="M 617.328,523.667 621.356,504.532 z" id="boundary" inkscape:connector-curvature="0" />
	<path style="fill:none;stroke:red;stroke-width:1px;stroke-linecap:butt;stroke-linejoin:miter;stroke-opacity:1" d="M 558.916,659.626 576.037,659.626 z" id="boundary" inkscape:connector-curvature="0" />
	<path style="fill:none;stroke:red;stroke-width:1px;stroke-linecap:butt;stroke-linejoin:miter;stroke-opacity:1" d="M 584.093,640.491 576.037,659.626 z" id="boundary" inkscape:connector-curvature="0" />
	<path style="fill:none;stroke:red;stroke-width:1px;stroke-linecap:butt;stroke-linejoin:miter;stroke-opacity:1" d="M 558.916,780.479 564.958,807.671 z" id="boundary" inkscape:connector-curvature="0" />
	<path style="fill:none;stroke:red;stroke-width:1px;stroke-linecap:butt;stroke-linejoin:miter;stroke-opacity:1" d="M 571.001,832.849 564.958,807.671 z" id="boundary" inkscape:connector-curvature="0" />
	<path style="fill:none;stroke:red;stroke-width:1px;stroke-linecap:butt;stroke-linejoin:miter;stroke-opacity:1" d="M 580.065,862.055 586.108,883.204 z" id="boundary" inkscape:connector-curvature="0" />
	<path style="fill:none;stroke:red;stroke-width:1px;stroke-linecap:butt;stroke-linejoin:miter;stroke-opacity:1" d="M 571.001,832.849 580.065,862.055 z" id="boundary" inkscape:connector-curvature="0" />
	<path style="fill:none;stroke:red;stroke-width:1px;stroke-linecap:butt;stroke-linejoin:miter;stroke-opacity:1" d="M 576.037,968.808 564.958,972.837 z" id="boundary" inkscape:connector-curvature="0" />
	<path style="fill:none;stroke:red;stroke-width:1px;stroke-linecap:butt;stroke-linejoin:miter;stroke-opacity:1" d="M 582.079,956.723 576.037,968.808 z" id="boundary" inkscape:connector-curvature="0" />
	<path style="fill:none;stroke:red;stroke-width:1px;stroke-linecap:butt;stroke-linejoin:miter;stroke-opacity:1" d="M 548.845,925.503 562.944,923.488 z" id="boundary" inkscape:connector-curvature="0" />
	<path style="fill:none;stroke:red;stroke-width:1px;stroke-linecap:butt;stroke-linejoin:miter;stroke-opacity:1" d="M 562.944,923.488 576.037,931.545 z" id="boundary" inkscape:connector-curvature="0" />
	<path style="fill:none;stroke:red;stroke-width:1px;stroke-linecap:butt;stroke-linejoin:miter;stroke-opacity:1" d="M 566.973,996 543.809,991.972 z" id="boundary" inkscape:connector-curvature="0" />
	<path style="fill:none;stroke:red;stroke-width:1px;stroke-linecap:butt;stroke-linejoin:miter;stroke-opacity:1" d="M 564.958,972.837 548.845,966.794 z" id="boundary" inkscape:connector-curvature="0" />
	<path style="fill:none;stroke:red;stroke-width:1px;stroke-linecap:butt;stroke-linejoin:miter;stroke-opacity:1" d="M 576.037,931.545 582.079,943.63 z" id="boundary" inkscape:connector-curvature="0" />
	<path style="fill:none;stroke:red;stroke-width:1px;stroke-linecap:butt;stroke-linejoin:miter;stroke-opacity:1" d="M 590.136,987.943 566.973,996 z" id="boundary" inkscape:connector-curvature="0" />
	<path style="fill:none;stroke:red;stroke-width:1px;stroke-linecap:butt;stroke-linejoin:miter;stroke-opacity:1" d="M 586.108,883.204 592.15,906.368 z" id="boundary" inkscape:connector-curvature="0" />
	<path style="fill:none;stroke:red;stroke-width:1px;stroke-linecap:butt;stroke-linejoin:miter;stroke-opacity:1" d="M 592.15,615.314 602.221,592.15 z" id="boundary" inkscape:connector-curvature="0" />
	<path style="fill:none;stroke:red;stroke-width:1px;stroke-linecap:butt;stroke-linejoin:miter;stroke-opacity:1" d="M 600.207,929.531 592.15,906.368 z" id="boundary" inkscape:connector-curvature="0" />
	<path style="fill:none;stroke:red;stroke-width:1px;stroke-linecap:butt;stroke-linejoin:miter;stroke-opacity:1" d="M 584.093,640.491 592.15,615.314 z" id="boundary" inkscape:connector-curvature="0" />
	<path style="fill:none;stroke:red;stroke-width:1px;stroke-linecap:butt;stroke-linejoin:miter;stroke-opacity:1" d="M 602.221,972.837 590.136,987.943 z" id="boundary" inkscape:connector-curvature="0" />
	<path style="fill:none;stroke:red;stroke-width:1px;stroke-linecap:butt;stroke-linejoin:miter;stroke-opacity:1" d="M 582.079,956.723 582.079,943.63 z" id="boundary" inkscape:connector-curvature="0" />
	<path style="fill:none;stroke:red;stroke-width:1px;stroke-linecap:butt;stroke-linejoin:miter;stroke-opacity:1" d="M 605.243,948.666 600.207,929.531 z" id="boundary" inkscape:connector-curvature="0" />
	<path style="fill:none;stroke:red;stroke-width:1px;stroke-linecap:butt;stroke-linejoin:miter;stroke-opacity:1" d="M 668.055,796.053 811.475,912.866 z" id="boundary" inkscape:connector-curvature="0" />
	<path style="fill:none;stroke:red;stroke-width:1px;stroke-linecap:butt;stroke-linejoin:miter;stroke-opacity:1" d="M 602.221,972.837 605.243,948.666 z" id="boundary" inkscape:connector-curvature="0" />
	<circle cx="23.135" cy="90.6112" r="4" fill="#0" id="circle0"/>
	<circle cx="50.3269" cy="89.6041" r="4" fill="#0" id="circle1"/>
	<circle cx="79.533" cy="87.5898" r="4" fill="#0" id="circle2"/>
	<circle cx="108.739" cy="87.5898" r="4" fill="#0" id="circle3"/>
	<circle cx="121.831" cy="112.768" r="4" fill="#0" id="circle4"/>
	<circle cx="125.86" cy="142.981" r="4" fill="#0" id="circle5"/>
	<circle cx="135.931" cy="174.201" r="4" fill="#0" id="circle6"/>
	<circle cx="141.974" cy="197.364" r="4" fill="#0" id="circle7"/>
	<circle cx="146.002" cy="217.507" r="4" fill="#0" id="circle8"/>
	<circle cx="149.023" cy="236.642" r="4" fill="#0" id="circle9"/>
	<circle cx="157.08" cy="257.791" r="4" fill="#0" id="circle10"/>
	<circle cx="163.123" cy="278.94" r="4" fill="#0" id="circle11"/>
	<circle cx="171.18" cy="303.111" r="4" fill="#0" id="circle12"/>
	<circle cx="176.215" cy="324.26" r="4" fill="#0" id="circle13"/>
	<circle cx="182.258" cy="345.409" r="4" fill="#0" id="circle14"/>
	<circle cx="184.272" cy="364.544" r="4" fill="#0" id="circle15"/>
	<circle cx="192.329" cy="384.686" r="4" fill="#0" id="circle16"/>
	<circle cx="194.343" cy="405.836" r="4" fill="#0" id="circle17"/>
	<circle cx="199.379" cy="424.971" r="4" fill="#0" id="circle18"/>
	<circle cx="205.421" cy="444.106" r="4" fill="#0" id="circle19"/>
	<circle cx="211.464" cy="465.255" r="4" fill="#0" id="circle20"/>
	<circle cx="215.492" cy="487.411" r="4" fill="#0" id="circle21"/>
	<circle cx="221.535" cy="510.575" r="4" fill="#0" id="circle22"/>
	<circle cx="226.571" cy="531.724" r="4" fill="#0" id="circle23"/>
	<circle cx="232.613" cy="552.873" r="4" fill="#0" id="circle24"/>
	<circle cx="238.656" cy="576.037" r="4" fill="#0" id="circle25"/>
	<circle cx="246.713" cy="607.257" r="4" fill="#0" id="circle26"/>
	<circle cx="250.741" cy="626.392" r="4" fill="#0" id="circle27"/>
	<circle cx="255.777" cy="648.548" r="4" fill="#0" id="circle28"/>
	<circle cx="261.819" cy="669.697" r="4" fill="#0" id="circle29"/>
	<circle cx="280.954" cy="669.697" r="4" fill="#0" id="circle30"/>
	<circle cx="301.096" cy="667.683" r="4" fill="#0" id="circle31"/>
	<circle cx="320.231" cy="665.669" r="4" fill="#0" id="circle32"/>
	<circle cx="343.395" cy="665.669" r="4" fill="#0" id="circle33"/>
	<circle cx="351.452" cy="684.804" r="4" fill="#0" id="circle34"/>
	<circle cx="349.438" cy="706.96" r="4" fill="#0" id="circle35"/>
	<circle cx="347.423" cy="730.124" r="4" fill="#0" id="circle36"/>
	<circle cx="349.438" cy="751.273" r="4" fill="#0" id="circle37"/>
	<circle cx="349.438" cy="770.408" r="4" fill="#0" id="circle38"/>
	<circle cx="328.288" cy="770.408" r="4" fill="#0" id="circle39"/>
	<circle cx="310.16" cy="772.422" r="4" fill="#0" id="circle40"/>
	<circle cx="289.011" cy="774.437" r="4" fill="#0" id="circle41"/>
	<circle cx="299.082" cy="787.529" r="4" fill="#0" id="circle42"/>
	<circle cx="310.16" cy="797.6" r="4" fill="#0" id="circle43"/>
	<circle cx="324.26" cy="811.699" r="4" fill="#0" id="circle44"/>
	<circle cx="341.381" cy="820.763" r="4" fill="#0" id="circle45"/>
	<circle cx="357.494" cy="838.891" r="4" fill="#0" id="circle46"/>
	<circle cx="376.629" cy="853.998" r="4" fill="#0" id="circle47"/>
	<circle cx="395.764" cy="869.105" r="4" fill="#0" id="circle48"/>
	<circle cx="411.878" cy="885.218" r="4" fill="#0" id="circle49"/>
	<circle cx="450.148" cy="916.439" r="4" fill="#0" id="circle50"/>
	<circle cx="431.013" cy="902.339" r="4" fill="#0" id="circle51"/>
	<circle cx="469.283" cy="931.545" r="4" fill="#0" id="circle52"/>
	<circle cx="487.411" cy="947.659" r="4" fill="#0" id="circle53"/>
	<circle cx="504.532" cy="964.78" r="4" fill="#0" id="circle54"/>
	<circle cx="523.667" cy="977.872" r="4" fill="#0" id="circle55"/>
	<circle cx="543.809" cy="991.972" r="4" fill="#0" id="circle56"/>
	<circle cx="566.973" cy="996" r="4" fill="#0" id="circle57"/>
	<circle cx="590.136" cy="987.943" r="4" fill="#0" id="circle58"/>
	<circle cx="602.221" cy="972.837" r="4" fill="#0" id="circle59"/>
	<circle cx="605.243" cy="948.666" r="4" fill="#0" id="circle60"/>
	<circle cx="600.207" cy="929.531" r="4" fill="#0" id="circle61"/>
	<circle cx="592.15" cy="906.368" r="4" fill="#0" id="circle62"/>
	<circle cx="586.108" cy="883.204" r="4" fill="#0" id="circle63"/>
	<circle cx="580.065" cy="862.055" r="4" fill="#0" id="circle64"/>
	<circle cx="571.001" cy="832.849" r="4" fill="#0" id="circle65"/>
	<circle cx="564.958" cy="807.671" r="4" fill="#0" id="circle66"/>
	<circle cx="558.916" cy="780.479" r="4" fill="#0" id="circle67"/>
	<circle cx="539.781" cy="774.437" r="4" fill="#0" id="circle68"/>
	<circle cx="514.603" cy="774.437" r="4" fill="#0" id="circle69"/>
	<circle cx="496.475" cy="772.422" r="4" fill="#0" id="circle70"/>
	<circle cx="491.44" cy="667.683" r="4" fill="#0" id="circle71"/>
	<circle cx="491.44" cy="690.847" r="4" fill="#0" id="circle72"/>
	<circle cx="489.425" cy="714.01" r="4" fill="#0" id="circle73"/>
	<circle cx="489.425" cy="737.174" r="4" fill="#0" id="circle74"/>
	<circle cx="489.425" cy="753.287" r="4" fill="#0" id="circle75"/>
	<circle cx="514.603" cy="661.641" r="4" fill="#0" id="circle76"/>
	<circle cx="531.724" cy="661.641" r="4" fill="#0" id="circle77"/>
	<circle cx="545.823" cy="659.626" r="4" fill="#0" id="circle78"/>
	<circle cx="558.916" cy="659.626" r="4" fill="#0" id="circle79"/>
	<circle cx="576.037" cy="659.626" r="4" fill="#0" id="circle80"/>
	<circle cx="737.174" cy="69.4619" r="4" fill="#0" id="circle81"/>
	<circle cx="728.11" cy="89.6041" r="4" fill="#0" id="circle82"/>
	<circle cx="722.067" cy="114.782" r="4" fill="#0" id="circle83"/>
	<circle cx="716.024" cy="139.959" r="4" fill="#0" id="circle84"/>
	<circle cx="711.996" cy="161.109" r="4" fill="#0" id="circle85"/>
	<circle cx="704.946" cy="182.258" r="4" fill="#0" id="circle86"/>
	<circle cx="698.904" cy="201.393" r="4" fill="#0" id="circle87"/>
	<circle cx="692.861" cy="228.585" r="4" fill="#0" id="circle88"/>
	<circle cx="690.847" cy="248.727" r="4" fill="#0" id="circle89"/>
	<circle cx="682.79" cy="267.862" r="4" fill="#0" id="circle90"/>
	<circle cx="677.754" cy="295.054" r="4" fill="#0" id="circle91"/>
	<circle cx="669.697" cy="316.203" r="4" fill="#0" id="circle92"/>
	<circle cx="663.655" cy="339.366" r="4" fill="#0" id="circle93"/>
	<circle cx="659.626" cy="357.494" r="4" fill="#0" id="circle94"/>
	<circle cx="652.577" cy="378.644" r="4" fill="#0" id="circle95"/>
	<circle cx="648.548" cy="399.793" r="4" fill="#0" id="circle96"/>
	<circle cx="644.52" cy="418.928" r="4" fill="#0" id="circle97"/>
	<circle cx="638.477" cy="440.077" r="4" fill="#0" id="circle98"/>
	<circle cx="632.435" cy="460.219" r="4" fill="#0" id="circle99"/>
	<circle cx="627.399" cy="481.369" r="4" fill="#0" id="circle100"/>
	<circle cx="621.356" cy="504.532" r="4" fill="#0" id="circle101"/>
	<circle cx="617.328" cy="523.667" r="4" fill="#0" id="circle102"/>
	<circle cx="611.285" cy="550.859" r="4" fill="#0" id="circle103"/>
	<circle cx="605.243" cy="568.987" r="4" fill="#0" id="circle104"/>
	<circle cx="602.221" cy="592.15" r="4" fill="#0" id="circle105"/>
	<circle cx="592.15" cy="615.314" r="4" fill="#0" id="circle106"/>
	<circle cx="584.093" cy="640.491" r="4" fill="#0" id="circle107"/>
	<circle cx="763.358" cy="67.4477" r="4" fill="#0" id="circle108"/>
	<circle cx="786.522" cy="65.4335" r="4" fill="#0" id="circle109"/>
	<circle cx="815.728" cy="62.4122" r="4" fill="#0" id="circle110"/>
	<circle cx="838.891" cy="60.398" r="4" fill="#0" id="circle111"/>
	<circle cx="8.02843" cy="27.1635" r="4" fill="#0" id="circle112"/>
	<circle cx="4" cy="46.2985" r="4" fill="#0" id="circle113"/>
	<circle cx="11.0497" cy="67.4477" r="4" fill="#0" id="circle114"/>
	<circle cx="849.97" cy="4" r="4" fill="#0" id="circle115"/>
	<circle cx="851.984" cy="27.1635" r="4" fill="#0" id="circle116"/>
	<circle cx="29.1777" cy="25.1492" r="4" fill="#0" id="circle117"/>
	<circle cx="58.3838" cy="23.135" r="4" fill="#0" id="circle118"/>
	<circle cx="89.6041" cy="23.135" r="4" fill="#0" id="circle119"/>
	<circle cx="114.782" cy="23.135" r="4" fill="#0" id="circle120"/>
	<circle cx="135.931" cy="23.135" r="4" fill="#0" id="circle121"/>
	<circle cx="172.187" cy="23.135" r="4" fill="#0" id="circle122"/>
	<circle cx="198.372" cy="23.135" r="4" fill="#0" id="circle123"/>
	<circle cx="217.507" cy="21.1208" r="4" fill="#0" id="circle124"/>
	<circle cx="242.684" cy="21.1208" r="4" fill="#0" id="circle125"/>
	<circle cx="269.876" cy="19.1066" r="4" fill="#0" id="circle126"/>
	<circle cx="293.04" cy="19.1066" r="4" fill="#0" id="circle127"/>
	<circle cx="322.246" cy="19.1066" r="4" fill="#0" id="circle128"/>
	<circle cx="347.423" cy="19.1066" r="4" fill="#0" id="circle129"/>
	<circle cx="378.644" cy="17.0924" r="4" fill="#0" id="circle130"/>
	<circle cx="411.878" cy="17.0924" r="4" fill="#0" id="circle131"/>
	<circle cx="441.084" cy="17.0924" r="4" fill="#0" id="circle132"/>
	<circle cx="475.326" cy="17.0924" r="4" fill="#0" id="circle133"/>
	<circle cx="502.518" cy="17.0924" r="4" fill="#0" id="circle134"/>
	<circle cx="531.724" cy="17.0924" r="4" fill="#0" id="circle135"/>
	<circle cx="564.958" cy="15.0782" r="4" fill="#0" id="circle136"/>
	<circle cx="600.207" cy="13.064" r="4" fill="#0" id="circle137"/>
	<circle cx="621.356" cy="13.064" r="4" fill="#0" id="circle138"/>
	<circle cx="652.577" cy="13.064" r="4" fill="#0" id="circle139"/>
	<circle cx="686.818" cy="11.0497" r="4" fill="#0" id="circle140"/>
	<circle cx="716.024" cy="9.03553" r="4" fill="#0" id="circle141"/>
	<circle cx="747.245" cy="9.03553" r="4" fill="#0" id="circle142"/>
	<circle cx="784.508" cy="8.02843" r="4" fill="#0" id="circle143"/>
	<circle cx="815.728" cy="8.02843" r="4" fill="#0" id="circle144"/>
	<circle cx="186.286" cy="119.817" r="4" fill="#0" id="circle145"/>
	<circle cx="211.464" cy="114.782" r="4" fill="#0" id="circle146"/>
	<circle cx="244.698" cy="114.782" r="4" fill="#0" id="circle147"/>
	<circle cx="271.89" cy="115.789" r="4" fill="#0" id="circle148"/>
	<circle cx="305.125" cy="115.789" r="4" fill="#0" id="circle149"/>
	<circle cx="330.303" cy="114.782" r="4" fill="#0" id="circle150"/>
	<circle cx="357.494" cy="112.768" r="4" fill="#0" id="circle151"/>
	<circle cx="374.615" cy="112.768" r="4" fill="#0" id="circle152"/>
	<circle cx="399.793" cy="112.768" r="4" fill="#0" id="circle153"/>
	<circle cx="424.971" cy="110.753" r="4" fill="#0" id="circle154"/>
	<circle cx="460.219" cy="110.753" r="4" fill="#0" id="circle155"/>
	<circle cx="483.383" cy="110.753" r="4" fill="#0" id="circle156"/>
	<circle cx="508.56" cy="110.753" r="4" fill="#0" id="circle157"/>
	<circle cx="535.752" cy="110.753" r="4" fill="#0" id="circle158"/>
	<circle cx="564.958" cy="110.753" r="4" fill="#0" id="circle159"/>
	<circle cx="586.108" cy="108.739" r="4" fill="#0" id="circle160"/>
	<circle cx="611.285" cy="108.739" r="4" fill="#0" id="circle161"/>
	<circle cx="630.42" cy="106.725" r="4" fill="#0" id="circle162"/>
	<circle cx="652.577" cy="108.739" r="4" fill="#0" id="circle163"/>
	<circle cx="644.52" cy="119.817" r="4" fill="#0" id="circle164"/>
	<circle cx="625.385" cy="129.888" r="4" fill="#0" id="circle165"/>
	<circle cx="607.257" cy="139.959" r="4" fill="#0" id="circle166"/>
	<circle cx="588.122" cy="149.023" r="4" fill="#0" id="circle167"/>
	<circle cx="566.973" cy="159.094" r="4" fill="#0" id="circle168"/>
	<circle cx="198.372" cy="129.888" r="4" fill="#0" id="circle169"/>
	<circle cx="217.507" cy="139.959" r="4" fill="#0" id="circle170"/>
	<circle cx="238.656" cy="147.009" r="4" fill="#0" id="circle171"/>
	<circle cx="261.819" cy="157.08" r="4" fill="#0" id="circle172"/>
	<circle cx="286.997" cy="172.187" r="4" fill="#0" id="circle173"/>
	<circle cx="310.16" cy="184.272" r="4" fill="#0" id="circle174"/>
	<circle cx="330.303" cy="194.343" r="4" fill="#0" id="circle175"/>
	<circle cx="353.466" cy="207.436" r="4" fill="#0" id="circle176"/>
	<circle cx="378.644" cy="219.521" r="4" fill="#0" id="circle177"/>
	<circle cx="401.807" cy="228.585" r="4" fill="#0" id="circle178"/>
	<circle cx="416.914" cy="234.627" r="4" fill="#0" id="circle179"/>
	<circle cx="433.027" cy="226.571" r="4" fill="#0" id="circle180"/>
	<circle cx="450.148" cy="217.507" r="4" fill="#0" id="circle181"/>
	<circle cx="467.269" cy="209.45" r="4" fill="#0" id="circle182"/>
	<circle cx="489.425" cy="196.357" r="4" fill="#0" id="circle183"/>
	<circle cx="508.56" cy="186.286" r="4" fill="#0" id="circle184"/>
	<circle cx="529.71" cy="174.201" r="4" fill="#0" id="circle185"/>
	<circle cx="547.838" cy="167.151" r="4" fill="#0" id="circle186"/>
	<circle cx="163.123" cy="153.052" r="4" fill="#0" id="circle187"/>
	<circle cx="163.123" cy="172.187" r="4" fill="#0" id="circle188"/>
	<circle cx="184.272" cy="161.109" r="4" fill="#0" id="circle189"/>
	<circle cx="209.45" cy="170.173" r="4" fill="#0" id="circle190"/>
	<circle cx="228.585" cy="180.244" r="4" fill="#0" id="circle191"/>
	<circle cx="246.713" cy="192.329" r="4" fill="#0" id="circle192"/>
	<circle cx="269.876" cy="203.407" r="4" fill="#0" id="circle193"/>
	<circle cx="295.054" cy="215.492" r="4" fill="#0" id="circle194"/>
	<circle cx="316.203" cy="226.571" r="4" fill="#0" id="circle195"/>
	<circle cx="339.366" cy="238.656" r="4" fill="#0" id="circle196"/>
	<circle cx="366.558" cy="255.777" r="4" fill="#0" id="circle197"/>
	<circle cx="339.366" cy="271.89" r="4" fill="#0" id="circle198"/>
	<circle cx="314.189" cy="284.983" r="4" fill="#0" id="circle199"/>
	<circle cx="293.04" cy="297.068" r="4" fill="#0" id="circle200"/>
	<circle cx="271.89" cy="310.16" r="4" fill="#0" id="circle201"/>
	<circle cx="248.727" cy="318.217" r="4" fill="#0" id="circle202"/>
	<circle cx="221.535" cy="333.324" r="4" fill="#0" id="circle203"/>
	<circle cx="207.436" cy="310.16" r="4" fill="#0" id="circle204"/>
	<circle cx="169.165" cy="192.329" r="4" fill="#0" id="circle205"/>
	<circle cx="178.229" cy="213.478" r="4" fill="#0" id="circle206"/>
	<circle cx="184.272" cy="230.599" r="4" fill="#0" id="circle207"/>
	<circle cx="190.315" cy="253.762" r="4" fill="#0" id="circle208"/>
	<circle cx="196.357" cy="278.94" r="4" fill="#0" id="circle209"/>
	<circle cx="263.834" cy="357.494" r="4" fill="#0" id="circle210"/>
	<circle cx="286.997" cy="337.352" r="4" fill="#0" id="circle211"/>
	<circle cx="297.068" cy="364.544" r="4" fill="#0" id="circle212"/>
	<circle cx="310.16" cy="328.288" r="4" fill="#0" id="circle213"/>
	<circle cx="335.338" cy="318.217" r="4" fill="#0" id="circle214"/>
	<circle cx="359.509" cy="306.132" r="4" fill="#0" id="circle215"/>
	<circle cx="386.701" cy="289.011" r="4" fill="#0" id="circle216"/>
	<circle cx="414.899" cy="271.89" r="4" fill="#0" id="circle217"/>
	<circle cx="439.07" cy="282.969" r="4" fill="#0" id="circle218"/>
	<circle cx="466.262" cy="293.04" r="4" fill="#0" id="circle219"/>
	<circle cx="485.397" cy="304.118" r="4" fill="#0" id="circle220"/>
	<circle cx="514.603" cy="318.217" r="4" fill="#0" id="circle221"/>
	<circle cx="535.752" cy="330.303" r="4" fill="#0" id="circle222"/>
	<circle cx="552.873" cy="335.338" r="4" fill="#0" id="circle223"/>
	<circle cx="578.051" cy="353.466" r="4" fill="#0" id="circle224"/>
	<circle cx="541.795" cy="362.53" r="4" fill="#0" id="circle225"/>
	<circle cx="332.317" cy="360.516" r="4" fill="#0" id="circle226"/>
	<circle cx="357.494" cy="360.516" r="4" fill="#0" id="circle227"/>
	<circle cx="386.701" cy="362.53" r="4" fill="#0" id="circle228"/>
	<circle cx="409.864" cy="362.53" r="4" fill="#0" id="circle229"/>
	<circle cx="439.07" cy="364.544" r="4" fill="#0" id="circle230"/>
	<circle cx="460.219" cy="362.53" r="4" fill="#0" id="circle231"/>
	<circle cx="483.383" cy="362.53" r="4" fill="#0" id="circle232"/>
	<circle cx="500.504" cy="362.53" r="4" fill="#0" id="circle233"/>
	<circle cx="520.646" cy="362.53" r="4" fill="#0" id="circle234"/>
	<circle cx="226.571" cy="395.764" r="4" fill="#0" id="circle235"/>
	<circle cx="252.755" cy="393.75" r="4" fill="#0" id="circle236"/>
	<circle cx="277.933" cy="391.736" r="4" fill="#0" id="circle237"/>
	<circle cx="303.111" cy="393.75" r="4" fill="#0" id="circle238"/>
	<circle cx="326.274" cy="389.722" r="4" fill="#0" id="circle239"/>
	<circle cx="351.452" cy="387.708" r="4" fill="#0" id="circle240"/>
	<circle cx="378.644" cy="389.722" r="4" fill="#0" id="circle241"/>
	<circle cx="405.836" cy="391.736" r="4" fill="#0" id="circle242"/>
	<circle cx="403.821" cy="407.85" r="4" fill="#0" id="circle243"/>
	<circle cx="403.821" cy="426.985" r="4" fill="#0" id="circle244"/>
	<circle cx="403.821" cy="448.134" r="4" fill="#0" id="circle245"/>
	<circle cx="403.821" cy="469.283" r="4" fill="#0" id="circle246"/>
	<circle cx="403.821" cy="491.44" r="4" fill="#0" id="circle247"/>
	<circle cx="257.791" cy="500.504" r="4" fill="#0" id="circle248"/>
	<circle cx="282.969" cy="500.504" r="4" fill="#0" id="circle249"/>
	<circle cx="310.16" cy="500.504" r="4" fill="#0" id="circle250"/>
	<circle cx="335.338" cy="500.504" r="4" fill="#0" id="circle251"/>
	<circle cx="360.516" cy="498.489" r="4" fill="#0" id="circle252"/>
	<circle cx="386.701" cy="498.489" r="4" fill="#0" id="circle253"/>
	<circle cx="230.599" cy="414.899" r="4" fill="#0" id="circle254"/>
	<circle cx="242.684" cy="458.205" r="4" fill="#0" id="circle255"/>
	<circle cx="236.642" cy="435.042" r="4" fill="#0" id="circle256"/>
	<circle cx="248.727" cy="479.354" r="4" fill="#0" id="circle257"/>
	<circle cx="437.056" cy="391.736" r="4" fill="#0" id="circle258"/>
	<circle cx="437.056" cy="411.878" r="4" fill="#0" id="circle259"/>
	<circle cx="437.056" cy="431.013" r="4" fill="#0" id="circle260"/>
	<circle cx="439.07" cy="452.162" r="4" fill="#0" id="circle261"/>
	<circle cx="439.07" cy="469.283" r="4" fill="#0" id="circle262"/>
	<circle cx="437.056" cy="491.44" r="4" fill="#0" id="circle263"/>
	<circle cx="452.162" cy="498.489" r="4" fill="#0" id="circle264"/>
	<circle cx="467.269" cy="498.489" r="4" fill="#0" id="circle265"/>
	<circle cx="508.56" cy="498.489" r="4" fill="#0" id="circle266"/>
	<circle cx="487.411" cy="498.489" r="4" fill="#0" id="circle267"/>
	<circle cx="545.823" cy="498.489" r="4" fill="#0" id="circle268"/>
	<circle cx="562.944" cy="500.504" r="4" fill="#0" id="circle269"/>
	<circle cx="586.108" cy="504.532" r="4" fill="#0" id="circle270"/>
	<circle cx="456.191" cy="393.75" r="4" fill="#0" id="circle271"/>
	<circle cx="479.354" cy="393.75" r="4" fill="#0" id="circle272"/>
	<circle cx="498.489" cy="391.736" r="4" fill="#0" id="circle273"/>
	<circle cx="520.646" cy="389.722" r="4" fill="#0" id="circle274"/>
	<circle cx="541.795" cy="385.693" r="4" fill="#0" id="circle275"/>
	<circle cx="560.93" cy="387.708" r="4" fill="#0" id="circle276"/>
	<circle cx="586.108" cy="385.693" r="4" fill="#0" id="circle277"/>
	<circle cx="611.285" cy="384.686" r="4" fill="#0" id="circle278"/>
	<circle cx="613.299" cy="405.836" r="4" fill="#0" id="circle279"/>
	<circle cx="605.243" cy="426.985" r="4" fill="#0" id="circle280"/>
	<circle cx="600.207" cy="450.148" r="4" fill="#0" id="circle281"/>
	<circle cx="594.164" cy="471.297" r="4" fill="#0" id="circle282"/>
	<circle cx="592.15" cy="491.44" r="4" fill="#0" id="circle283"/>
	<circle cx="475.326" cy="251.748" r="4" fill="#0" id="circle284"/>
	<circle cx="491.44" cy="265.848" r="4" fill="#0" id="circle285"/>
	<circle cx="493.454" cy="240.67" r="4" fill="#0" id="circle286"/>
	<circle cx="512.589" cy="226.571" r="4" fill="#0" id="circle287"/>
	<circle cx="529.71" cy="217.507" r="4" fill="#0" id="circle288"/>
	<circle cx="552.873" cy="211.464" r="4" fill="#0" id="circle289"/>
	<circle cx="576.037" cy="196.357" r="4" fill="#0" id="circle290"/>
	<circle cx="594.164" cy="180.244" r="4" fill="#0" id="circle291"/>
	<circle cx="613.299" cy="170.173" r="4" fill="#0" id="circle292"/>
	<circle cx="640.491" cy="163.123" r="4" fill="#0" id="circle293"/>
	<circle cx="659.626" cy="151.038" r="4" fill="#0" id="circle294"/>
	<circle cx="679.769" cy="137.945" r="4" fill="#0" id="circle295"/>
	<circle cx="682.79" cy="157.08" r="4" fill="#0" id="circle296"/>
	<circle cx="677.754" cy="180.244" r="4" fill="#0" id="circle297"/>
	<circle cx="669.697" cy="205.421" r="4" fill="#0" id="circle298"/>
	<circle cx="661.641" cy="230.599" r="4" fill="#0" id="circle299"/>
	<circle cx="655.598" cy="251.748" r="4" fill="#0" id="circle300"/>
	<circle cx="650.562" cy="269.876" r="4" fill="#0" id="circle301"/>
	<circle cx="646.534" cy="289.011" r="4" fill="#0" id="circle302"/>
	<circle cx="644.52" cy="308.146" r="4" fill="#0" id="circle303"/>
	<circle cx="636.463" cy="331.31" r="4" fill="#0" id="circle304"/>
	<circle cx="512.589" cy="273.905" r="4" fill="#0" id="circle305"/>
	<circle cx="537.766" cy="284.983" r="4" fill="#0" id="circle306"/>
	<circle cx="552.873" cy="297.068" r="4" fill="#0" id="circle307"/>
	<circle cx="576.037" cy="304.118" r="4" fill="#0" id="circle308"/>
	<circle cx="598.193" cy="314.189" r="4" fill="#0" id="circle309"/>
	<circle cx="613.299" cy="322.246" r="4" fill="#0" id="circle310"/>
	<circle cx="265.848" cy="533.738" r="4" fill="#0" id="circle311"/>
	<circle cx="293.04" cy="529.71" r="4" fill="#0" id="circle312"/>
	<circle cx="267.862" cy="562.944" r="4" fill="#0" id="circle313"/>
	<circle cx="277.933" cy="580.065" r="4" fill="#0" id="circle314"/>
	<circle cx="280.954" cy="598.193" r="4" fill="#0" id="circle315"/>
	<circle cx="286.997" cy="619.342" r="4" fill="#0" id="circle316"/>
	<circle cx="305.125" cy="625.385" r="4" fill="#0" id="circle317"/>
	<circle cx="322.246" cy="625.385" r="4" fill="#0" id="circle318"/>
	<circle cx="341.381" cy="625.385" r="4" fill="#0" id="circle319"/>
	<circle cx="360.516" cy="625.385" r="4" fill="#0" id="circle320"/>
	<circle cx="382.672" cy="626.392" r="4" fill="#0" id="circle321"/>
	<circle cx="384.686" cy="644.52" r="4" fill="#0" id="circle322"/>
	<circle cx="382.672" cy="663.655" r="4" fill="#0" id="circle323"/>
	<circle cx="382.672" cy="680.776" r="4" fill="#0" id="circle324"/>
	<circle cx="380.658" cy="700.918" r="4" fill="#0" id="circle325"/>
	<circle cx="380.658" cy="720.053" r="4" fill="#0" id="circle326"/>
	<circle cx="378.644" cy="741.202" r="4" fill="#0" id="circle327"/>
	<circle cx="378.644" cy="764.365" r="4" fill="#0" id="circle328"/>
	<circle cx="399.793" cy="768.394" r="4" fill="#0" id="circle329"/>
	<circle cx="424.971" cy="768.394" r="4" fill="#0" id="circle330"/>
	<circle cx="462.234" cy="766.38" r="4" fill="#0" id="circle331"/>
	<circle cx="456.191" cy="739.188" r="4" fill="#0" id="circle332"/>
	<circle cx="456.191" cy="711.996" r="4" fill="#0" id="circle333"/>
	<circle cx="456.191" cy="686.818" r="4" fill="#0" id="circle334"/>
	<circle cx="460.219" cy="653.584" r="4" fill="#0" id="circle335"/>
	<circle cx="458.205" cy="626.392" r="4" fill="#0" id="circle336"/>
	<circle cx="473.312" cy="623.371" r="4" fill="#0" id="circle337"/>
	<circle cx="491.44" cy="621.356" r="4" fill="#0" id="circle338"/>
	<circle cx="510.575" cy="625.385" r="4" fill="#0" id="circle339"/>
	<circle cx="539.781" cy="626.392" r="4" fill="#0" id="circle340"/>
	<circle cx="576.037" cy="535.752" r="4" fill="#0" id="circle341"/>
	<circle cx="571.001" cy="560.93" r="4" fill="#0" id="circle342"/>
	<circle cx="562.944" cy="580.065" r="4" fill="#0" id="circle343"/>
	<circle cx="558.916" cy="605.243" r="4" fill="#0" id="circle344"/>
	<circle cx="312.175" cy="531.724" r="4" fill="#0" id="circle345"/>
	<circle cx="332.317" cy="531.724" r="4" fill="#0" id="circle346"/>
	<circle cx="357.494" cy="527.695" r="4" fill="#0" id="circle347"/>
	<circle cx="378.644" cy="529.71" r="4" fill="#0" id="circle348"/>
	<circle cx="399.793" cy="529.71" r="4" fill="#0" id="circle349"/>
	<circle cx="422.956" cy="529.71" r="4" fill="#0" id="circle350"/>
	<circle cx="446.12" cy="529.71" r="4" fill="#0" id="circle351"/>
	<circle cx="471.297" cy="525.681" r="4" fill="#0" id="circle352"/>
	<circle cx="487.411" cy="527.695" r="4" fill="#0" id="circle353"/>
	<circle cx="508.56" cy="527.695" r="4" fill="#0" id="circle354"/>
	<circle cx="533.738" cy="527.695" r="4" fill="#0" id="circle355"/>
	<circle cx="573.015" cy="531.724" r="4" fill="#0" id="circle356"/>
	<circle cx="554.887" cy="529.71" r="4" fill="#0" id="circle357"/>
	<circle cx="523.667" cy="496.475" r="4" fill="#0" id="circle358"/>
	<circle cx="314.189" cy="362.53" r="4" fill="#0" id="circle359"/>
	<circle cx="277.933" cy="362.53" r="4" fill="#0" id="circle360"/>
	<circle cx="558.916" cy="360.516" r="4" fill="#0" id="circle361"/>
	<circle cx="548.845" cy="925.503" r="4" fill="#0" id="circle362"/>
	<circle cx="562.944" cy="923.488" r="4" fill="#0" id="circle363"/>
	<circle cx="576.037" cy="931.545" r="4" fill="#0" id="circle364"/>
	<circle cx="582.079" cy="943.63" r="4" fill="#0" id="circle365"/>
	<circle cx="582.079" cy="956.723" r="4" fill="#0" id="circle366"/>
	<circle cx="576.037" cy="968.808" r="4" fill="#0" id="circle367"/>
	<circle cx="564.958" cy="972.837" r="4" fill="#0" id="circle368"/>
	<circle cx="548.845" cy="966.794" r="4" fill="#0" id="circle369"/>
	<circle cx="541.795" cy="960.751" r="4" fill="#0" id="circle370"/>
	<circle cx="533.738" cy="945.645" r="4" fill="#0" id="circle371"/>
	<circle cx="539.781" cy="931.545" r="4" fill="#0" id="circle372"/>
	<circle cx="130.626" cy="157.568" r="4" fill="#0" id="circle373"/>
	<circle cx="228.951" cy="114.551" r="4" fill="#0" id="circle374"/>
	<circle cx="642.737" cy="107.04" r="4" fill="#0" id="circle375"/>
	<circle cx="373.708" cy="361.73" r="4" fill="#0" id="circle376"/>
	<circle cx="716.466" cy="395.228" r="4" fill="#0" id="circle377"/>
	<circle cx="668.055" cy="796.053" r="4" fill="#0" id="circle378"/>
	<circle cx="777.062" cy="199.971" r="4" fill="#0" id="circle379"/>
	<circle cx="288.263" cy="766.084" r="4" fill="#0" id="circle380"/>
	<circle cx="239.548" cy="553.538" r="4" fill="#0" id="circle381"/>
	<circle cx="408.825" cy="627.84" r="4" fill="#0" id="circle382"/>
	<circle cx="313.331" cy="513.294" r="4" fill="#0" id="circle383"/>
	<circle cx="811.475" cy="912.866" r="4" fill="#0" id="circle384"/>
	<circle cx="543.073" cy="715.559" r="4" fill="#0" id="circle385"/>
	<circle cx="124.077" cy="606.113" r="4" fill="#0" id="circle386"/>
	<circle cx="17.8226" cy="244.944" r="4" fill="#0" id="circle387"/>
	<circle cx="120.37" cy="801.743" r="4" fill="#0" id="circle388"/>
	<circle cx="136.861" cy="401.737" r="4" fill="#0" id="circle389"/>
	<circle cx="114.06" cy="111.938" r="4" fill="#0" id="circle390"/>
	<circle cx="851.072" cy="220.511" r="4" fill="#0" id="circle391"/>
	<circle cx="438.958" cy="836.399" r="4" fill="#0" id="circle392"/>
	<circle cx="523.509" cy="297.663" r="4" fill="#0" id="circle393"/>
	<circle cx="544.634" cy="524.093" r="4" fill="#0" id="circle394"/>
	</g>
</svg>