<?xml version="1.0" encoding="UTF-8" standalone="no"?>
<!-- Created with CurveBenchmark -->
<svg
	xmlns:dc="http://purl.org/dc/elements/1.1/"
	xmlns:cc="http://creativecommons.org/ns#"
	xmlns:rdf="http://www.w3.org/1999/02/22-rdf-syntax-ns#"
	xmlns:svg="http://www.w3.org/2000/svg"
	xmlns="http://www.w3.org/2000/svg"
	xmlns:sodipodi="http://sodipodi.sourceforge.net/DTD/sodipodi-0.dtd"
	xmlns:inkscape="http://www.inkscape.org/namespaces/inkscape"
	width="1000"
	height="1000"
	id="svg2"
	version="1.1"
	sodipodi:docname="outliers-5/peel-mc26.txt">
<defs
	id="defs4" />
<metadata
	id="metadata7">
	<rdf:RDF>
		<cc:Work
			rdf:about="">
			<dc:format>image/svg+xml</dc:format>
			<dc:type
				rdf:resource="http://purl.org/dc/dcmitype/StillImage" />
			<dc:title></dc:title>
		</cc:Work>
	</rdf:RDF>
</metadata>
<g
	inkscape:label="Layer 1"
	inkscape:groupmode="layer"
	id="layer1">
	<path style="fill:none;stroke:red;stroke-width:1px;stroke-linecap:butt;stroke-linejoin:miter;stroke-opacity:1" d="M 186.204,95.102 479.755,4 z" id="boundary" inkscape:connector-curvature="0" />
	<path style="fill:none;stroke:red;stroke-width:1px;stroke-linecap:butt;stroke-linejoin:miter;stroke-opacity:1" d="M 484.816,315.265 375.798,348.872 z" id="boundary" inkscape:connector-curvature="0" />
	<path style="fill:none;stroke:red;stroke-width:1px;stroke-linecap:butt;stroke-linejoin:miter;stroke-opacity:1" d="M 773.306,96.8229 479.755,4 z" id="boundary" inkscape:connector-curvature="0" />
	<path style="fill:none;stroke:red;stroke-width:1px;stroke-linecap:butt;stroke-linejoin:miter;stroke-opacity:1" d="M 4,346.442 4,651.837 z" id="boundary" inkscape:connector-curvature="0" />
	<path style="fill:none;stroke:red;stroke-width:1px;stroke-linecap:butt;stroke-linejoin:miter;stroke-opacity:1" d="M 803.447,395.228 955.51,346.442 z" id="boundary" inkscape:connector-curvature="0" />
	<path style="fill:none;stroke:red;stroke-width:1px;stroke-linecap:butt;stroke-linejoin:miter;stroke-opacity:1" d="M 479.755,996 186.204,903.177 z" id="boundary" inkscape:connector-curvature="0" />
	<path style="fill:none;stroke:red;stroke-width:1px;stroke-linecap:butt;stroke-linejoin:miter;stroke-opacity:1" d="M 661.453,555.673 663.275,443.517 z" id="boundary" inkscape:connector-curvature="0" />
	<path style="fill:none;stroke:red;stroke-width:1px;stroke-linecap:butt;stroke-linejoin:miter;stroke-opacity:1" d="M 594.847,650.318 484.816,682.204 z" id="boundary" inkscape:connector-curvature="0" />
	<path style="fill:none;stroke:red;stroke-width:1px;stroke-linecap:butt;stroke-linejoin:miter;stroke-opacity:1" d="M 773.306,901.558 955.51,653.558 z" id="boundary" inkscape:connector-curvature="0" />
	<path style="fill:none;stroke:red;stroke-width:1px;stroke-linecap:butt;stroke-linejoin:miter;stroke-opacity:1" d="M 374.077,653.861 484.816,682.204 z" id="boundary" inkscape:connector-curvature="0" />
	<path style="fill:none;stroke:red;stroke-width:1px;stroke-linecap:butt;stroke-linejoin:miter;stroke-opacity:1" d="M 296.944,441.796 375.798,348.872 z" id="boundary" inkscape:connector-curvature="0" />
	<path style="fill:none;stroke:red;stroke-width:1px;stroke-linecap:butt;stroke-linejoin:miter;stroke-opacity:1" d="M 293.401,557.394 296.944,441.796 z" id="boundary" inkscape:connector-curvature="0" />
	<path style="fill:none;stroke:red;stroke-width:1px;stroke-linecap:butt;stroke-linejoin:miter;stroke-opacity:1" d="M 374.077,653.861 293.401,557.394 z" id="boundary" inkscape:connector-curvature="0" />
	<path style="fill:none;stroke:red;stroke-width:1px;stroke-linecap:butt;stroke-linejoin:miter;stroke-opacity:1" d="M 484.816,315.265 593.127,350.593 z" id="boundary" inkscape:connector-curvature="0" />
	<path style="fill:none;stroke:red;stroke-width:1px;stroke-linecap:butt;stroke-linejoin:miter;stroke-opacity:1" d="M 661.453,555.673 594.847,650.318 z" id="boundary" inkscape:connector-curvature="0" />
	<path style="fill:none;stroke:red;stroke-width:1px;stroke-linecap:butt;stroke-linejoin:miter;stroke-opacity:1" d="M 663.275,443.517 593.127,350.593 z" id="boundary" inkscape:connector-curvature="0" />
	<circle cx="4" cy="346.442" r="4" fill="#0" id="circle0"/>
	<circle cx="4" cy="651.837" r="4" fill="#0" id="circle1"/>
	<circle cx="186.204" cy="95.102" r="4" fill="#0" id="circle2"/>
	<circle cx="186.204" cy="903.177" r="4" fill="#0" id="circle3"/>
	<circle cx="479.755" cy="4" r="4" fill="#0" id="circle4"/>
	<circle cx="484.816" cy="315.265" r="4" fill="#0" id="circle5"/>
	<circle cx="484.816" cy="682.204" r="4" fill="#0" id="circle6"/>
	<circle cx="479.755" cy="996" r="4" fill="#0" id="circle7"/>
	<circle cx="773.306" cy="96.8229" r="4" fill="#0" id="circle8"/>
	<circle cx="773.306" cy="901.558" r="4" fill="#0" id="circle9"/>
	<circle cx="955.51" cy="346.442" r="4" fill="#0" id="circle10"/>
	<circle cx="955.51" cy="653.558" r="4" fill="#0" id="circle11"/>
	<circle cx="375.798" cy="348.872" r="4" fill="#0" id="circle12"/>
	<circle cx="296.944" cy="441.796" r="4" fill="#0" id="circle13"/>
	<circle cx="293.401" cy="557.394" r="4" fill="#0" id="circle14"/>
	<circle cx="374.077" cy="653.861" r="4" fill="#0" id="circle15"/>
	<circle cx="594.847" cy="650.318" r="4" fill="#0" id="circle16"/>
	<circle cx="661.453" cy="555.673" r="4" fill="#0" id="circle17"/>
	<circle cx="663.275" cy="443.517" r="4" fill="#0" id="circle18"/>
	<circle cx="593.127" cy="350.593" r="4" fill="#0" id="circle19"/>
	<circle cx="803.447" cy="395.228" r="4" fill="#0" id="circle20"/>
	</g>
</svg>