59 707
59 732
59 757
59 782
64 672
64 807
64 832
74 632
74 855
79 880
84 602
86 904
94 577
95 928
106 555
107 950
119 527
119 972
131 994
134 502
144 1016
149 482
162 1034
164 462
177 1054
182 444
195 1072
200 426
213 1090
219 407
233 1105
239 392
251 1123
259 377
273 1135
279 362
293 1150
301 349
315 1162
324 337
337 1174
346 325
360 1185
370 316
384 1192
394 307
408 1200
418 299
432 1209
443 294
457 1215
468 289
482 1220
493 284
507 1220
518 279
532 1225
543 279
549 87
557 1225
561 109
568 279
574 86
574 131
582 1225
586 153
590 106
593 279
598 175
604 127
606 199
607 1225
614 223
618 279
619 147
619 248
628 171
632 1220
635 195
642 219
645 244
657 1224
669 217
675 265
679 192
682 1225
694 167
696 279
703 255
707 1225
712 149
721 279
726 245
730 131
732 1225
746 279
751 240
752 119
757 1224
771 284
774 230
775 109
782 1220
796 289
797 220
798 99
807 1215
820 210
821 294
823 94
832 1210
840 195
846 299
848 89
855 1200
859 177
870 307
871 155
873 89
880 130
880 1195
894 314
903 1185
917 324
926 1175
939 336
948 1163
961 349
970 1150
983 361
990 1135
1003 376
1010 1120
1023 391
1030 1105
1041 409
1049 1087
1059 427
1067 1069
1077 445
1085 1050
1092 465
1100 1030
1110 483
1115 1010
1122 505
1128 988
1135 527
1140 965
1147 549
1153 943
1159 571
1162 919
1167 595
1170 895
1175 619
1180 644
1180 860
1185 669
1185 835
1190 694
1190 800
1195 719
1195 744
1195 769
