49 712
49 737
49 762
49 787
54 677
54 812
54 837
59 652
59 862
69 617
69 885
74 910
79 587
84 933
91 565
94 956
104 537
106 978
116 515
118 1000
131 495
133 1020
146 475
148 1040
161 455
163 1060
179 437
181 1078
197 419
199 1096
215 401
217 1114
235 386
237 1129
255 371
257 1144
277 359
279 1156
299 347
301 1168
321 335
323 1180
344 324
346 1190
369 317
370 1197
393 309
394 1205
418 304
419 1210
443 299
444 1215
468 294
469 1220
493 294
494 1220
514 187
518 294
519 1220
529 207
536 174
543 294
544 1220
547 225
556 189
559 247
564 272
569 1215
574 207
585 230
594 1212
609 217
619 1210
629 202
644 1215
647 184
665 166
665 285
669 1215
685 270
689 157
694 1215
702 289
708 258
711 145
719 1215
726 240
727 294
736 139
744 222
744 1210
752 294
759 202
761 139
769 1205
777 184
777 299
779 157
794 1200
800 309
817 1190
825 314
840 1180
848 324
864 1172
871 334
886 1160
893 346
908 1148
915 359
930 1135
935 374
949 1117
955 389
969 1102
974 406
987 1084
992 424
1005 1065
1010 442
1020 1045
1025 462
1035 1025
1040 482
1050 1005
1055 502
1065 980
1067 524
1078 958
1079 546
1090 569
1090 925
1095 594
1100 895
1105 617
1110 642
1110 860
1115 667
1115 835
1120 692
1120 800
1125 717
1125 742
1125 767
