549 897
549 922
549 947
549 972
549 997
549 1022
554 862
554 1047
559 837
566 1069
569 772
569 797
574 732
579 692
589 657
591 1075
601 635
616 1080
619 617
634 587
641 1080
644 562
649 537
654 512
659 482
664 457
666 1080
669 422
674 387
684 347
691 1080
708 339
716 1080
733 339
741 1075
755 1040
758 344
760 505
760 530
760 555
760 580
760 605
760 1015
765 475
765 985
767 629
770 945
775 450
775 653
775 920
780 678
780 890
783 350
785 425
785 703
785 728
785 753
785 778
785 803
785 828
785 853
790 374
790 399
