474 492
474 517
474 542
474 567
489 472
492 585
504 452
517 585
522 434
542 419
542 580
554 302
559 327
560 401
564 352
567 579
569 377
576 289
591 570
600 281
616 565
625 276
641 560
649 269
664 570
674 264
684 585
699 259
704 600
724 264
727 610
745 278
752 614
765 293
777 615
783 311
795 333
802 620
819 341
827 625
844 344
852 625
869 344
877 625
894 344
902 625
919 344
927 625
944 339
952 620
969 334
977 615
994 329
1002 610
1019 324
1027 605
1042 314
1052 599
1067 309
1077 595
1092 309
1102 590
1117 304
1127 590
1142 304
1152 595
1167 304
1176 603
1190 314
1195 620
1213 325
1216 634
1235 337
1239 645
1257 349
1262 655
1277 364
1287 660
1302 369
1312 660
1327 369
1337 665
1351 360
1362 665
1376 354
1387 665
1401 354
1405 545
1405 570
1412 665
1415 593
1420 520
1426 359
1427 615
1437 659
1439 502
1449 369
1459 487
1465 389
1471 465
1480 409
1483 443
