319 457
319 482
324 507
329 427
339 397
346 520
351 375
369 530
371 359
380 553
396 354
404 560
409 332
424 307
429 560
439 282
453 553
454 257
474 242
477 544
489 192
489 217
494 667
494 692
497 529
504 172
504 582
504 607
504 632
504 715
509 557
509 740
512 765
515 510
521 789
522 154
534 811
542 139
542 835
549 859
554 884
554 909
564 932
566 130
579 952
589 119
599 967
611 989
614 121
624 1011
634 1034
638 129
644 1057
656 1079
663 134
674 1097
680 305
680 330
680 355
685 275
685 380
685 405
686 144
694 1112
695 215
695 250
695 428
700 185
704 452
709 1132
713 476
725 498
731 1145
740 518
752 1159
755 538
775 554
777 1159
798 564
802 1159
814 1487
821 574
826 1465
827 1160
829 1507
841 1445
846 579
849 1172
851 1519
854 1197
859 1222
859 1427
864 1247
864 1272
864 1297
869 1322
871 584
874 1347
874 1372
874 1397
874 1530
894 574
897 1540
919 567
922 1540
941 555
947 1534
961 540
969 352
969 377
969 1522
974 402
976 520
979 317
980 1300
980 1370
980 1395
980 1420
980 1490
985 1210
985 1235
985 1260
985 1325
985 1445
990 1175
991 295
994 417
994 502
995 1140
1005 1105
1009 267
1012 484
1015 1065
1018 425
1021 460
1027 249
1030 1045
1039 439
1050 239
1055 1050
1071 225
1080 1050
1095 216
1105 1055
1119 209
1130 1055
1144 204
1155 1055
1169 201
1180 1055
1193 210
1205 1055
1217 219
1230 241
1230 1050
1244 262
1255 285
1255 1052
1259 1077
1260 310
1264 1102
1274 1125
1284 302
1284 1148
1284 1442
1294 1171
1294 1465
1299 282
1299 1196
1302 1424
1304 1221
1309 1485
1314 262
1316 1243
1322 1409
1324 1267
1329 1292
1334 1317
1334 1342
1334 1382
1334 1490
1336 249
1357 234
1357 1500
1382 229
1382 1505
1407 224
1407 1504
1432 219
1432 1504
1456 1495
1457 219
1478 1483
1480 475
1480 500
1482 219
1485 525
1495 1460
1499 546
1502 234
1505 470
1505 1335
1505 1360
1505 1410
1505 1435
1510 1120
1510 1145
1510 1170
1510 1230
1510 1255
1510 1280
1510 1305
1510 1385
1515 566
1515 1195
1522 249
1523 1098
1530 470
1530 1070
1532 585
1540 267
1540 1035
1550 603
1550 985
1550 1010
1555 287
1555 465
1559 1107
1559 1132
1560 312
1560 337
1560 955
1564 1157
1565 362
1565 623
1569 1077
1570 387
1570 412
1570 437
1570 925
1579 1177
1580 643
1580 890
1584 1052
1585 865
1590 840
1594 1017
1595 663
1599 987
1601 1190
1604 882
1604 907
1604 932
1604 957
1605 686
1615 709
1621 1175
1625 732
1630 1135
1635 755
1635 1045
1635 1070
1635 1095
1645 778
1645 1015
1654 802
1655 970
1660 827
1660 940
1665 852
1665 900
