494 747
506 769
509 727
509 794
509 819
511 844
520 868
531 714
539 885
550 908
552 699
574 687
574 915
597 925
598 679
620 666
622 919
644 659
646 910
669 654
671 910
694 654
696 910
719 652
721 910
743 644
746 910
768 649
771 910
792 639
796 905
812 624
821 905
832 609
846 905
855 599
871 900
875 614
889 918
898 624
899 941
914 572
914 597
923 950
924 547
936 525
948 955
961 519
973 953
986 519
991 935
1009 917
1011 519
1031 905
1036 519
1056 905
1061 524
1081 905
1086 529
1106 905
1111 529
1131 905
1136 534
1156 905
1161 534
1181 905
1186 534
1195 560
1200 585
1206 900
1210 608
1225 628
1230 907
1243 646
1252 920
1268 649
1277 925
1293 649
1299 912
1318 649
1319 897
1334 877
1343 654
1343 853
1345 825
1368 659
1368 813
1380 785
1390 760
1393 664
1395 730
1410 683
1410 710
