514 742
514 767
514 792
524 815
524 840
524 865
532 724
535 888
544 912
549 937
552 709
573 945
577 704
598 940
602 699
623 933
627 694
641 915
652 694
666 910
677 689
691 910
702 689
716 905
727 684
741 905
749 667
766 900
771 655
791 900
796 654
816 900
819 642
841 900
843 634
864 910
868 634
879 930
890 647
896 949
914 637
919 592
921 955
934 572
946 955
956 559
971 950
979 549
989 932
1004 549
1004 912
1029 551
1029 910
1054 554
1054 905
1079 554
1079 905
1104 554
1104 905
1129 554
1129 905
1154 554
1154 905
1175 568
1179 905
1180 593
1180 618
1200 634
1204 910
1211 934
1215 654
1236 935
1238 665
1261 930
1262 674
1284 920
1287 679
1300 895
1312 679
1313 873
1333 858
1337 684
1351 840
1362 684
1366 820
1380 702
1380 795
1385 727
1385 752
