574 727
579 752
589 775
592 709
604 795
604 820
604 845
604 870
604 895
604 920
609 945
614 697
620 968
636 685
645 970
656 670
670 970
679 659
695 965
704 652
718 955
729 649
740 940
754 649
765 935
779 644
790 935
804 644
815 935
829 644
840 935
849 622
861 600
865 935
884 589
890 935
909 594
915 935
932 584
940 935
954 572
965 935
978 565
990 930
995 584
1005 910
1018 594
1020 890
1039 567
1040 875
1049 532
1050 898
1054 923
1055 948
1059 507
1070 968
1077 489
1089 985
1099 477
1114 990
1123 469
1137 979
1148 469
1155 960
1165 930
1173 469
1175 905
1198 469
1200 900
1223 469
1225 895
1248 469
1250 895
1273 469
1275 890
1298 474
1300 890
1323 474
1325 890
1348 479
1350 885
1371 489
1375 885
1386 509
1395 533
1400 558
1400 885
1405 583
1425 599
1425 885
1432 909
1444 931
1448 609
1465 945
1471 619
1489 937
1496 624
1504 917
1519 897
1521 624
1525 865
1545 850
1546 629
1565 835
1571 634
1584 817
1595 642
1600 790
1605 750
1615 657
1615 682
1620 730
1630 702
