364 1027
379 1002
386 1040
391 980
404 947
409 1030
416 925
428 1013
439 914
452 1005
459 1029
463 921
469 1052
484 1242
485 933
489 1067
489 1212
494 1187
496 1264
499 1090
499 1115
499 1140
503 951
520 1250
521 969
525 1195
525 1220
540 1175
541 984
553 1153
561 999
573 1138
586 999
598 1135
611 999
623 1135
636 999
648 1135
661 999
673 1135
684 1158
685 1007
694 1181
694 1206
694 1231
702 1255
709 1014
727 1259
734 1014
747 1244
750 1155
750 1180
750 1205
757 1024
775 1042
775 1155
783 1066
800 1155
801 1084
809 1179
809 1204
814 1229
819 1254
825 1076
839 1270
844 1042
849 1012
859 1285
867 994
882 1295
889 982
906 1303
909 967
924 907
931 955
931 1305
934 930
936 885
955 1295
959 874
975 1280
983 881
985 1120
987 1145
988 1258
990 905
995 1169
995 1194
995 1219
997 929
1005 953
1008 1110
1010 978
1010 1003
1015 1028
1020 1053
1023 1130
1035 1152
1044 1176
1045 1059
1052 1200
1064 1222
1070 1054
1088 1230
1089 1032
1101 1010
1113 1230
1124 997
1138 1225
1148 989
1159 962
1162 1234
1171 940
1174 1256
1186 920
1186 1278
1201 1298
1206 904
1221 924
1223 1310
1233 946
1242 970
1246 1320
1260 988
1269 1330
1280 1004
1294 1330
1305 1009
1319 1330
1330 1009
1342 1320
1353 1020
1360 1044
1360 1069
1360 1094
1362 1304
1365 1119
1374 1282
1380 1139
1389 1262
1393 1161
1395 1186
1395 1211
1395 1236
