174 122
174 147
179 172
192 104
201 185
217 99
226 190
242 99
251 190
267 99
276 190
292 99
301 190
317 94
326 190
342 94
351 193
367 94
376 195
392 89
401 195
417 89
426 195
442 89
444 347
444 372
444 397
444 432
444 457
449 287
449 312
449 482
449 507
449 532
451 198
454 227
454 252
454 557
454 582
464 605
467 84
474 628
490 648
492 84
512 660
517 84
535 670
542 84
560 675
567 84
585 680
592 79
610 680
617 79
635 680
642 79
660 680
667 79
685 685
692 74
710 685
717 74
735 685
742 74
760 685
767 74
783 695
792 74
808 690
817 79
833 685
842 79
858 685
867 79
883 685
892 79
908 690
917 79
933 688
942 84
958 683
967 84
983 680
992 84
1008 680
1017 84
1033 685
1042 84
1058 685
1067 84
1083 685
1092 84
1108 680
1117 84
1133 680
1142 84
1158 680
1167 84
1183 680
1192 84
1208 680
1217 84
1233 680
1242 84
1258 685
1267 84
1283 685
1292 84
1308 685
1317 84
1333 685
1342 79
1358 690
1367 79
1383 690
1392 74
1408 690
1417 74
1433 690
1442 74
1458 690
1467 79
1483 690
1492 79
1508 690
1517 79
1533 690
1542 79
1558 690
1567 84
1583 690
1592 84
1608 690
1617 84
1631 680
1642 89
1656 680
1667 94
1681 675
1692 94
1706 675
1717 99
1731 670
1742 99
1756 670
1767 99
1781 670
1792 104
1805 660
1814 116
1824 642
1825 139
1830 164
1830 189
1830 214
1830 239
1830 264
1830 289
1830 500
1830 525
1830 550
1830 575
1830 600
1835 314
1835 339
1835 364
1840 389
1840 414
1840 439
1840 464
