194 527
199 552
204 337
204 577
206 505
209 362
209 602
209 627
214 307
214 652
219 385
219 482
219 677
229 700
232 289
232 725
234 405
234 750
239 467
239 775
249 425
249 798
252 274
255 823
264 932
269 957
269 1042
269 1067
274 840
274 982
275 264
276 910
279 1007
287 1085
289 860
289 885
300 264
312 1089
325 267
337 1095
350 272
362 1095
372 284
387 1095
390 1000
392 299
395 455
400 970
405 425
407 319
407 1019
409 476
410 344
410 370
410 925
412 395
412 1090
415 900
420 499
425 524
428 878
429 1031
430 565
430 825
430 850
432 590
434 1077
444 612
450 637
450 810
453 1039
458 661
459 1072
460 775
470 683
475 708
479 757
485 731
