184 522
184 547
184 572
189 622
189 647
194 595
194 672
196 500
199 697
204 322
204 347
204 372
209 720
209 762
211 480
216 300
216 394
219 785
229 808
231 465
234 282
234 412
239 831
249 432
256 270
259 927
259 952
260 845
264 977
269 897
269 1042
269 1067
274 866
274 1000
281 264
287 1085
306 264
312 1089
331 269
337 1095
356 274
362 1095
376 289
387 1095
390 990
395 455
396 304
397 1014
400 430
400 965
409 476
410 325
410 350
410 375
410 400
410 925
412 1090
415 900
419 1026
420 499
425 524
425 575
425 825
427 850
428 878
430 549
432 599
432 1075
440 623
443 1034
444 807
445 648
450 775
454 1062
455 671
460 696
465 755
467 720
