474 1032
479 837
479 862
479 887
479 912
484 777
484 802
484 937
484 1055
489 1012
494 742
496 959
506 720
509 1060
513 1005
519 697
519 970
533 1020
534 677
534 1060
544 970
550 1039
552 659
559 1065
569 970
572 644
584 1059
590 626
594 970
609 1047
610 611
619 970
627 1065
631 1035
632 599
644 970
652 1065
654 587
656 1029
669 970
677 1065
678 579
681 1029
694 970
702 1065
703 574
704 993
704 1018
727 1065
728 574
752 1065
753 574
777 1065
778 574
802 1065
803 579
814 447
824 470
827 1065
828 579
836 434
847 480
852 1064
853 579
859 537
861 439
871 488
874 517
877 1059
878 579
879 552
886 439
902 1055
910 485
911 444
925 505
925 530
925 555
927 1050
933 473
939 576
950 975
950 1000
950 1040
961 589
975 970
984 577
1000 970
1004 562
1025 970
1026 550
1050 970
1051 544
1075 970
1076 549
1098 561
1100 970
1110 670
1113 581
1125 970
1133 660
1138 584
1150 679
1150 970
1156 650
1163 584
1175 679
1175 845
1175 970
1181 645
1188 590
1192 864
1198 835
1200 612
1200 679
1200 965
1210 882
1223 828
1225 679
1225 902
1225 960
1240 922
1247 820
1250 674
1272 815
1275 674
1295 805
1300 674
1318 795
1325 674
1343 788
1350 674
1365 775
1375 669
1388 763
1400 664
1410 750
1425 659
1433 738
1450 654
1457 729
1475 654
1479 717
1500 654
1503 710
1525 654
1526 700
1550 654
1551 695
1574 685
1575 654
