404 897
404 922
409 862
414 945
419 832
429 807
429 965
439 777
444 1072
449 980
456 1050
457 759
462 1090
469 737
472 990
481 1044
487 719
487 1095
497 995
504 1054
505 701
512 1095
522 995
527 689
529 1054
537 1095
547 674
547 995
554 1054
562 1095
570 664
572 995
579 1054
587 1095
593 654
597 995
604 1049
612 1095
613 639
622 995
629 1042
635 626
637 1095
647 995
653 1034
657 614
662 1095
680 604
687 1094
704 597
711 1085
729 594
736 1080
754 594
761 1075
774 497
779 594
786 1070
789 517
794 482
804 594
811 1065
813 525
814 550
816 470
829 570
836 1060
840 461
861 1055
864 452
870 505
870 530
870 555
877 579
884 467
886 1050
897 594
911 1045
922 589
936 1040
945 579
958 1028
965 960
965 985
968 569
990 955
993 569
1015 955
1018 569
1040 955
1043 575
1065 587
1065 955
1075 665
1082 689
1087 599
1090 955
1100 660
1107 689
1112 599
1115 950
1125 655
1132 689
1137 599
1140 845
1140 870
1140 945
1150 650
1157 689
1157 889
1160 930
1162 604
1163 835
1174 642
1182 684
1188 833
1207 684
1213 828
1232 679
1237 820
1255 669
1260 810
1278 659
1284 802
1303 654
1306 790
1328 649
1329 780
1352 770
1353 644
1377 765
1378 639
1402 760
1403 639
1427 754
1428 634
1451 745
1453 629
1476 740
1478 624
1500 730
1503 624
1525 725
1528 624
1548 713
1553 624
1572 704
1578 624
1592 689
1601 634
1610 670
