264 1007
264 1032
269 917
269 977
269 1057
274 1082
279 952
284 1105
287 899
291 930
299 1125
312 894
314 1145
332 879
337 1155
354 832
354 857
357 1170
369 812
381 1178
391 799
406 1180
416 799
431 1175
440 807
455 1165
464 797
474 767
478 1153
492 749
496 1135
512 734
521 1135
537 729
542 1149
557 1169
562 729
572 1189
587 729
594 1201
612 729
616 1213
637 729
640 1220
662 729
665 1220
687 729
690 1220
712 729
714 1212
736 1200
737 729
754 1182
762 724
772 1164
787 724
787 1144
799 1122
805 1090
812 724
830 1090
837 724
855 1090
862 724
880 1085
887 724
905 1085
912 719
930 1090
937 714
955 1095
959 557
962 714
974 692
979 572
979 597
979 622
979 647
980 1095
989 549
1005 1095
1014 544
1030 1095
1039 539
1055 1095
1064 534
1080 1095
1089 532
1105 1095
1114 529
1130 1095
1139 524
1155 1095
1164 524
1180 1095
1189 519
1205 1095
1214 519
1230 1095
1239 519
1255 1095
1264 514
1280 1095
1289 514
1305 1095
1314 514
1330 1095
1339 514
1355 1095
1364 514
1380 1095
1389 509
1405 1090
1414 509
1430 1090
1439 509
1455 1087
1464 509
1470 1107
1489 509
1492 1120
1514 509
1515 1130
1539 509
1540 1132
1564 511
1565 1135
1589 514
1589 1127
1611 1115
1614 514
1634 1105
1639 519
1654 1090
1664 519
1675 1075
1689 519
1700 1075
1714 519
1725 1075
1739 519
1750 1077
1764 519
1775 1080
1789 519
1796 1094
1809 1116
1814 519
1827 1134
1839 519
1847 1149
1864 524
1870 1160
1889 524
1895 1165
1914 524
1920 1165
1939 526
1944 1157
1963 534
1966 1145
1986 1130
1988 539
2001 1110
2013 540
2013 1088
2020 1055
2025 995
2025 1020
2033 555
2040 605
2040 645
2040 670
2040 755
2040 780
2040 805
2045 577
2045 730
2046 1034
2047 694
2059 822
2065 960
2071 1040
2074 842
2075 983
2080 867
2080 892
2080 917
2080 1008
