254 367
254 392
259 417
259 442
259 467
264 492
264 517
269 347
269 542
269 567
269 592
274 617
274 642
274 667
279 692
279 717
279 742
289 765
289 790
293 339
294 815
294 1132
299 840
299 865
299 1157
304 890
304 915
304 940
304 965
304 1092
307 990
309 1015
309 1040
309 1065
311 1179
318 334
329 1197
343 329
351 1210
368 324
374 1220
393 319
396 1233
418 319
418 1245
441 1255
443 314
464 1265
468 309
489 1270
493 309
514 1275
518 309
539 1280
543 304
564 1280
568 304
589 1285
593 304
614 1285
618 304
639 1290
643 299
664 1290
668 299
689 1295
693 299
714 1295
718 299
739 1295
743 299
764 1295
768 294
789 1295
793 294
814 1295
818 294
839 1295
843 294
864 1295
868 289
889 1290
893 289
914 1290
918 289
939 1285
943 289
964 1280
968 289
989 1280
993 289
1014 1275
1018 289
1039 1275
1043 294
1062 1265
1068 294
1087 1260
1093 294
1112 1255
1118 289
1137 1249
1143 284
1161 1240
1168 284
1185 1230
1193 284
1208 1220
1218 284
1231 1210
1243 289
1251 1195
1266 299
1271 1180
1289 1162
1290 307
1295 1120
1300 1060
1300 1085
1305 1000
1305 1025
1310 322
1310 640
1310 665
1310 690
1310 715
1310 740
1310 765
1310 790
1310 815
1310 840
1310 865
1310 890
1310 915
1310 940
1310 965
1315 347
1315 372
1315 615
1320 397
1330 595
1334 947
1334 972
1334 997
1339 892
1339 917
1344 404
1344 852
1345 565
1355 535
1358 979
1359 832
1364 387
1365 510
1370 955
1380 490
1381 819
1386 374
1389 937
1400 475
1402 804
1411 369
1414 932
1422 789
1423 463
1432 914
1436 369
1440 890
1442 774
1447 455
1460 875
1461 364
1462 759
1472 455
1477 739
1480 860
1486 369
1495 840
1497 460
1497 724
1511 369
1514 822
1515 706
1520 470
1530 686
1536 374
1536 810
1539 487
1542 664
1554 637
1556 389
1556 795
1557 505
1566 529
1566 615
1569 587
1571 554
1571 775
1579 399
1589 757
1600 413
1604 737
1616 715
1618 431
1625 690
1633 451
1640 660
1645 473
1650 610
1650 635
1657 495
1660 520
1660 545
1660 570
