554 1182
554 1207
554 1237
554 1267
554 1522
554 1547
554 1572
554 1597
559 1292
559 1317
559 1342
559 1367
559 1392
559 1417
559 1442
559 1467
559 1492
576 1610
579 1179
601 1610
604 1179
626 1605
629 1182
651 1605
654 1184
676 1605
679 1184
701 1605
704 1184
726 1603
729 1184
751 1600
754 1186
776 1600
779 1189
801 1600
804 1189
826 1600
829 1189
851 1595
854 1189
876 1595
879 1194
901 1590
904 1196
922 1214
923 1578
940 1232
945 1565
960 1247
968 1553
982 1259
990 1540
1005 1269
1015 1535
1030 1274
1040 1530
1055 1274
1065 1530
1080 1271
1090 1532
1104 1264
1115 1537
1127 1254
1139 1545
1150 1244
1154 1952
1154 1977
1154 2002
1154 2027
1159 2052
1162 1555
1164 1917
1169 2075
1171 1230
1174 1892
1176 2099
1182 1570
1184 537
1184 562
1184 587
1184 612
1184 2247
1186 1870
1189 637
1189 2121
1191 1215
1194 662
1199 687
1199 982
1199 1007
1199 1032
1199 1057
1199 1847
1202 1585
1204 1082
1204 1107
1204 1132
1204 1157
1204 1182
1204 1610
1204 1635
1204 1660
1204 2141
1204 2232
1209 537
1209 710
1211 960
1214 735
1214 1822
1215 1683
1219 2161
1219 2212
1220 936
1222 2250
1224 758
1224 1792
1227 1705
1229 902
1229 1767
1229 2184
1234 539
1234 781
1234 877
1234 1729
1239 806
1239 831
1247 2250
1259 539
1272 2250
1284 539
1297 2249
1309 539
1322 2245
1334 542
1347 2249
1359 541
1372 2245
1384 542
1397 2245
1409 541
1422 2245
1434 542
1447 2245
1459 539
1472 2245
1484 539
1497 2245
1509 539
1522 2250
1534 539
1545 790
1547 815
1547 2250
1550 725
1550 750
1550 840
1555 695
1555 865
1555 1685
1555 1710
1555 2160
1555 2185
1559 539
1560 670
1560 890
1560 1655
1560 1735
1560 1760
1565 915
1565 1785
1565 2208
1570 635
1570 1620
1572 939
1572 2250
1574 2142
1575 1808
1580 600
1580 963
1580 1590
1580 1833
1584 536
1585 1040
1585 1065
1585 1090
1585 1115
1585 1140
1585 1165
1585 1190
1586 2229
1590 575
1590 986
1590 1011
1592 1855
1594 2127
1599 2251
1603 553
1605 1590
1607 1875
1609 1199
1609 2107
1618 2083
1619 1897
1625 2050
1628 1921
1630 1590
1630 1946
1630 2020
1634 1199
1635 1971
1655 1590
1659 1199
1680 1590
1684 1199
1705 1590
1709 1199
1730 1590
1734 1199
1755 1590
1759 1199
1780 1590
1784 1197
1805 1590
1809 1194
1830 1595
1834 1194
1855 1595
1859 1194
1880 1595
1884 1194
1905 1595
1909 1194
1930 1595
1934 1189
1953 1605
1957 1179
1973 1620
1977 1164
1993 1635
1999 1152
2015 1647
2021 1140
2037 1659
2046 1134
2062 1665
2070 1126
2087 1670
2095 1124
2112 1674
2120 1127
2137 1670
2145 1132
2160 1660
2169 1139
2183 1650
2192 1149
2203 1635
2212 1164
2223 1618
2230 1215
2230 1240
2230 1265
2230 1290
2230 1315
2230 1340
2230 1365
2230 1390
2230 1415
2230 1440
2230 1465
2230 1490
2230 1515
2230 1540
2230 1565
2232 1179
2235 1590
