459 1252
459 1402
459 1497
464 1157
469 1520
469 1577
471 1274
474 1317
474 1342
474 1422
476 1179
479 1382
481 1240
481 1555
481 1599
483 1489
484 1445
488 1150
489 1201
494 1621
508 1165
518 1630
532 1174
541 1620
555 1184
561 1605
580 1184
586 1608
603 1194
609 1618
615 1590
626 1204
638 1580
651 1209
663 1583
674 1219
683 1568
699 1219
708 1570
724 1216
731 1580
740 1555
746 1229
765 1550
766 1244
790 1550
791 1249
810 1535
816 1254
835 1535
839 1264
849 1237
860 1535
873 1245
883 1525
897 1254
905 1510
917 1269
930 1505
939 1281
955 1500
961 1294
979 1262
980 1500
1001 1274
1003 1510
1015 1295
1015 1470
1034 1312
1040 1465
1058 1319
1061 1479
1083 1324
1084 1490
1105 1465
1107 1314
1125 1450
1130 1324
1134 1297
1139 1471
1144 1496
1149 457
1152 1279
1159 480
1159 1516
1159 1542
1159 2292
1164 1257
1164 2317
1166 504
1169 562
1169 1565
1174 459
1174 587
1174 2227
1176 2339
1177 2274
1179 526
1182 1239
1189 2067
1189 2197
1189 2315
1191 1578
1192 605
1199 454
1199 2090
1199 2142
1199 2167
1200 1221
1204 652
1209 624
1209 677
1209 702
1209 2113
1213 1590
1213 2059
1214 1197
1214 2320
1219 725
1223 461
1224 750
1224 1992
1224 2017
1229 775
1229 1952
1233 1605
1234 847
1236 1184
1237 2310
1239 798
1244 823
1244 870
1247 469
1249 1837
1249 1937
1253 1620
1254 893
1254 1862
1254 1887
1259 1912
1261 1179
1261 1815
1262 2315
1264 916
1264 957
1269 1787
1270 459
1273 1635
1274 980
1274 1707
1284 1730
1285 2325
1286 1179
1291 999
1292 1689
1294 466
1294 1057
1294 1082
1294 1782
1295 1620
1299 1107
1299 1750
1304 1021
1304 1644
1309 1152
1310 2327
1311 1668
1314 481
1314 1127
1334 2335
1338 489
1344 457
1357 2324
1369 459
1382 2325
1394 454
1402 2340
1415 1135
1415 1635
1419 456
1420 1160
1425 1658
1427 2345
1435 1620
1435 2315
1437 1179
1439 1127
1444 454
1445 1674
1445 1745
1450 1080
1450 1600
1455 1005
1455 1105
1457 1030
1459 1766
1460 2320
1462 1179
1464 1691
1465 1054
1468 461
1469 1737
1475 1602
1479 1781
1480 1000
1482 1194
1484 2312
1485 910
1485 935
1490 960
1490 1218
1490 1815
1492 469
1497 1839
1500 1605
1500 1890
1505 895
1505 1238
1509 2315
1510 1865
1515 1910
1516 460
1519 1587
1520 780
1520 845
1520 875
1520 2015
1525 1254
1525 1560
1527 804
1530 2038
1532 2325
1534 1927
1535 1525
1539 762
1540 467
1540 1965
1540 2000
1545 1500
1545 2058
1550 655
1550 1259
1552 680
1555 1300
1555 2145
1557 2080
1557 2329
1560 482
1560 740
1562 2169
1564 702
1565 1323
1568 1278
1569 1507
1572 2100
1575 650
1580 585
1580 2145
1580 2187
1582 2335
1584 489
1584 1487
1585 1339
1585 1440
1587 609
1587 2120
1589 457
1595 565
1595 633
1600 2202
1600 2240
1604 1322
1605 540
1605 2325
1610 1445
1610 2263
1614 459
1615 2288
1618 518
1627 2310
1629 1326
1630 479
1634 1452
1639 2332
1649 1307
1651 1339
1658 1460
1671 1294
1680 1472
1694 1304
1704 1465
1719 1302
1724 1480
1729 1267
1739 1500
1751 1279
1755 1480
1773 1291
1780 1475
1796 1280
1801 1489
1821 1279
1821 1504
1841 1519
1846 1274
1856 1250
1866 1525
1881 1249
1891 1525
1906 1254
1916 1520
1928 1266
1939 1530
1942 1244
1962 1229
1964 1530
1985 1239
1989 1535
2008 1249
2009 1550
2029 1222
2034 1555
2051 1210
2059 1560
2075 1201
2079 1575
2100 1207
2104 1570
2125 1209
2129 1575
2145 1194
2152 1585
2168 1204
2177 1585
2188 1189
2201 1593
2206 1170
2223 1605
2231 1169
2243 1620
2256 1174
2266 1630
2280 1215
2280 1465
2281 1174
2287 1239
2288 1618
2290 1488
2294 1152
2302 1259
2305 1212
2305 1335
2305 1460
2305 1508
2305 1580
2310 1360
2310 1385
2310 1410
2314 1167
2315 1300
2315 1550
2324 1431
2326 1189
2330 1456
