19 1277
41 1264
41 1290
62 1304
64 1254
85 1315
89 1247
108 1325
113 1239
130 1337
138 1234
154 1345
163 1229
179 1345
188 1224
202 1355
213 1224
227 1360
238 1219
252 1365
254 2007
259 537
263 1214
266 1985
271 559
275 1961
277 1365
279 2007
283 529
284 581
287 1939
288 1210
296 603
302 1370
302 1919
303 2000
308 534
313 1214
314 621
314 1897
327 1375
328 1995
331 544
332 639
332 1879
338 1209
349 1852
350 657
351 1985
352 1379
356 544
363 1209
365 677
367 1834
374 1975
377 1380
380 552
384 694
385 1816
388 1204
397 1965
402 1385
404 559
404 710
404 1797
413 1199
419 1777
419 1952
421 729
427 1385
429 564
438 1204
439 1762
441 744
443 1943
449 579
452 1390
459 762
459 1747
463 1199
465 1930
472 589
477 1390
477 1729
479 777
488 1199
488 1920
495 599
497 795
497 1714
502 1395
508 1905
513 1194
514 1692
517 810
518 609
527 1400
530 1890
532 1674
535 828
538 1194
540 622
552 1400
552 1659
553 1880
555 843
562 634
563 1194
570 1641
573 1865
574 860
577 1405
585 644
588 1189
590 1626
594 875
596 1855
602 1409
605 659
609 1607
613 1189
614 890
618 1843
627 1414
627 1589
628 669
631 909
638 1189
640 1830
645 1571
648 684
651 924
652 1415
660 1815
663 1184
665 1556
669 942
671 694
677 1415
680 1800
684 1537
688 1184
689 957
691 709
702 1420
703 1790
704 1522
707 975
713 721
713 1179
722 1504
725 993
725 1775
727 1420
737 729
738 1179
742 1489
747 1005
748 1763
752 1425
757 744
762 1474
763 1179
765 1023
770 1750
777 1425
780 754
780 1456
785 1038
788 1179
793 1738
800 769
800 1441
804 1055
813 1175
813 1723
823 780
824 1070
835 1710
838 1179
844 794
844 1085
858 1698
859 182
859 212
863 1179
864 157
864 237
864 262
864 287
864 1100
867 804
869 122
869 312
874 337
878 1683
879 82
879 362
879 387
879 2382
879 2427
884 1115
884 2352
884 2452
887 819
888 1179
889 410
889 2297
889 2322
894 435
894 460
894 2272
900 1670
901 94
901 484
904 1130
904 2232
909 508
909 533
909 831
909 2207
909 2452
913 1179
916 114
919 556
919 2167
920 1655
924 581
927 1140
927 2434
929 606
929 631
929 846
929 2127
930 135
934 656
938 1184
939 2067
939 2092
942 680
943 1643
945 155
945 2410
947 705
947 1155
949 2027
951 859
952 730
957 755
959 176
959 2002
961 1625
963 1184
964 779
964 1977
964 2392
969 804
970 199
973 871
974 1932
976 828
976 2370
979 1907
980 222
983 1613
984 1882
988 1180
994 1842
994 2352
998 240
1001 1595
1004 1802
1005 264
1006 2330
1014 1767
1015 287
1018 2308
1023 1583
1024 1737
1030 307
1033 2288
1034 1697
1035 332
1041 1565
1042 2264
1044 1667
1047 354
1054 1642
1055 378
1055 2235
1061 1550
1064 1607
1065 401
1068 2213
1075 424
1076 1585
1080 1530
1080 2185
1085 447
1085 1561
1095 470
1095 2160
1103 1520
1105 493
1105 2130
1114 517
1118 2108
1120 542
1130 2085
1132 564
1140 588
1140 2060
1150 2035
1155 608
1160 633
1165 2005
1172 655
1180 679
1180 1975
1190 702
1193 1953
1200 725
1205 1925
1210 748
1215 773
1218 1903
1225 796
1225 1875
1235 819
1240 844
1240 1845
1245 869
1250 1820
1255 892
1260 917
1263 1798
1265 942
1270 967
1272 1774
1289 932
1289 1793
1294 902
1299 1816
1304 872
1307 1840
1309 847
1319 817
1319 1862
1329 787
1329 1885
1340 1908
1341 765
1349 737
1349 1932
1359 707
1361 1954
1370 1978
1371 685
1379 652
1384 1999
1394 627
1394 2022
1404 597
1404 2045
1414 2068
1416 575
1424 2091
1425 551
1434 522
1436 2113
1446 500
1448 2135
1450 1520
1454 2160
1455 476
1460 1543
1464 452
1469 2180
1470 1566
1476 430
1479 2203
1480 1589
1484 402
1485 1542
1489 2226
1490 1612
1495 1637
1496 380
1501 2248
1503 1560
1504 352
1505 1660
1509 2272
1512 1684
1516 330
1520 1708
1523 1575
1524 2292
1525 306
1525 1733
1534 282
1534 1757
1536 2314
1540 1782
1543 1590
1545 1807
1549 247
1549 2336
1555 1830
1560 880
1560 1855
1561 2358
1563 1605
1564 227
1565 1180
1565 1880
1570 845
1570 1905
1574 202
1575 1930
1579 2376
1580 810
1580 1955
1583 1620
1584 872
1585 780
1585 1165
1585 1980
1589 177
1592 2004
1594 2396
1595 745
1600 720
1600 2028
1601 155
1602 1184
1603 1635
1604 857
1605 695
1605 2053
1608 1155
1609 2416
1610 670
1610 2078
1615 645
1615 2103
1619 137
1620 605
1620 2128
1623 1650
1624 2436
1625 2153
1626 845
1627 1184
1630 565
1630 1135
1630 2178
1631 115
1635 525
1635 2203
1640 2228
1642 2454
1643 1665
1645 485
1646 95
1649 832
1649 2252
1650 450
1652 1179
1654 1127
1654 2277
1655 2302
1659 2327
1660 410
1660 2352
1660 2472
1665 375
1665 1677
1665 2377
1665 2402
1665 2427
1666 79
1670 104
1671 819
1674 1112
1675 129
1675 315
1675 340
1677 1179
1680 154
1680 240
1680 270
1685 179
1685 204
1687 1690
1691 804
1694 1097
1702 1179
1709 1702
1713 1080
1714 792
1727 1179
1731 1715
1733 1063
1736 779
1740 1425
1752 1179
1752 1729
1753 1048
1757 1444
1759 767
1772 1744
1774 1425
1775 1035
1777 1179
1777 1459
1781 755
1794 1017
1795 1477
1795 1755
1799 1425
1802 1179
1804 742
1813 1000
1814 1494
1816 1769
1824 1420
1826 729
1827 1184
1833 983
1833 1511
1839 1780
1847 714
1849 1417
1852 1184
1853 968
1853 1526
1859 1795
1869 702
1871 950
1871 1544
1874 1415
1877 1184
1881 1808
1889 932
1889 1562
1893 694
1899 1415
1902 1184
1903 1820
1908 1579
1909 917
1913 679
1924 1410
1925 1832
1927 899
1927 1189
1928 1595
1936 669
1945 880
1945 1614
1947 1845
1949 1405
1952 1189
1956 654
1964 1631
1968 868
1969 1857
1974 1400
1977 1194
1979 642
1982 1649
1983 848
1989 1872
1999 1400
2002 1194
2002 1664
2003 634
2003 833
2011 1884
2020 1682
2021 815
2023 619
2024 1397
2027 1194
2034 1895
2035 1702
2041 800
2045 606
2048 1390
2052 1199
2054 1719
2054 1910
2061 785
2069 597
2073 1388
2073 1736
2076 765
2077 1199
2077 1920
2091 585
2093 1751
2096 750
2097 1935
2098 1388
2102 1204
2111 1769
2114 574
2116 735
2119 1947
2122 1380
2127 1204
2129 1787
2134 717
2137 564
2141 1959
2147 1380
2147 1805
2152 699
2152 1204
2162 559
2165 1823
2165 1967
2172 684
2172 1375
2177 1209
2183 1841
2185 549
2187 664
2187 1979
2197 1375
2198 1861
2202 1209
2205 645
2210 544
2211 1988
2215 1880
2222 1370
2225 630
2227 1214
2232 1899
2233 534
2235 1995
2240 610
2244 1921
2247 1365
2252 1219
2255 590
2258 530
2258 2005
2259 1941
2270 570
2270 1964
2272 1364
2277 1214
2280 545
2282 2014
2283 1986
2297 1359
2302 1219
2322 1355
2327 1224
2345 1345
2352 1229
2370 1345
2377 1229
2394 1337
2402 1234
2418 1330
2427 1239
2441 1320
2450 1249
2465 1310
2475 1252
2488 1300
2497 1264
2510 1286
