9 1292
19 1262
31 1305
41 1249
54 1315
65 1241
77 1325
89 1234
100 1335
114 1229
123 1345
137 1219
147 1354
162 1214
172 1360
186 1205
194 1372
211 1199
218 1380
229 2027
234 517
236 1194
238 1395
241 2005
244 540
250 1981
254 2027
258 1410
259 514
259 560
261 1189
264 1952
270 583
276 1428
278 2020
279 1932
284 519
284 1179
289 600
294 1446
294 1907
299 623
303 2015
309 524
309 1174
309 1887
315 643
315 1460
324 1867
326 2005
330 663
334 529
334 1167
336 1845
338 1470
349 680
349 1817
351 2000
358 1159
359 534
361 1795
363 1475
364 700
369 1757
374 1722
374 1990
381 719
381 1149
382 544
384 1697
388 1480
394 741
396 1675
398 1983
404 1139
407 549
411 1655
412 759
413 1485
420 1970
427 779
427 1129
429 1637
432 554
438 1485
445 797
445 1965
447 1619
452 1124
457 559
457 819
463 1490
465 1601
468 1955
472 839
477 1119
482 564
484 861
485 1586
488 1490
491 1945
499 881
502 1114
505 1571
507 564
513 1490
514 901
515 1935
525 1556
527 1114
529 921
532 564
538 1490
539 1927
545 1541
547 939
552 1114
557 559
563 1490
563 1918
564 1522
567 954
577 1114
582 559
584 1504
585 972
587 1910
602 1114
605 987
607 559
612 1905
627 1000
627 1114
632 564
637 1899
647 1015
652 1114
655 574
662 1894
667 1030
677 1119
678 585
686 1885
687 1045
698 600
702 1119
709 1057
709 1875
722 609
727 1124
730 1860
731 1069
742 624
752 1124
753 1850
754 1080
762 639
775 1835
776 1093
777 1129
782 654
795 1820
798 1105
799 412
799 437
799 462
802 1134
804 487
804 666
809 387
809 512
814 537
815 1805
819 562
821 365
822 1119
824 681
829 585
832 610
834 332
838 1793
839 634
844 287
848 689
849 227
849 252
849 657
854 152
854 177
854 202
855 1770
859 107
864 77
869 52
869 2317
869 2342
869 2367
869 2392
869 2417
869 2442
874 2017
874 2042
874 2067
874 2247
874 2272
874 2467
874 2492
878 1758
879 1982
879 2092
879 2117
879 2142
879 2167
879 2192
879 2217
884 1957
891 64
894 1922
895 1735
899 2487
904 1892
909 82
914 1862
915 2465
918 1723
921 104
924 1832
935 2450
936 1705
936 1810
939 122
944 1782
950 2430
954 142
954 1687
956 1760
965 165
965 2410
969 1727
972 1669
982 184
984 1692
984 2392
993 1655
994 206
999 2372
1009 226
1014 2352
1020 249
1032 2334
1033 271
1047 2314
1048 291
1060 313
1067 2299
1075 333
1088 2285
1090 353
1105 373
1111 2275
1120 393
1131 2260
1138 411
1153 431
1153 2248
1165 453
1168 2228
1180 473
1180 2205
1190 496
1193 2183
1200 519
1205 2160
1210 542
1215 567
1215 2135
1220 592
1225 2110
1230 615
1235 640
1235 2080
1240 665
1245 690
1245 2055
1250 715
1255 740
1255 2030
1260 765
1265 790
1265 2005
1284 772
1288 2015
1289 747
1294 2040
1299 697
1299 722
1305 2063
1309 657
1314 632
1314 2087
1324 602
1324 2110
1331 2134
1334 562
1340 2158
1344 537
1352 2180
1354 512
1364 487
1364 2202
1376 465
1379 2222
1389 437
1394 2242
1407 419
1412 2260
1419 397
1434 2272
1437 379
1452 359
1456 2284
1467 339
1479 2295
1482 319
1497 299
1499 2310
1509 277
1514 2330
1524 252
1531 2349
1539 227
1546 2369
1550 1655
1554 207
1555 1680
1564 2387
1565 1703
1566 185
1576 2409
1577 1725
1578 1670
1584 162
1585 1749
1594 2427
1596 140
1596 1688
1598 1771
1609 2447
1610 1793
1611 120
1614 1706
1615 1818
1627 1840
1629 97
1629 2462
1632 1724
1635 1864
1640 1889
1644 2482
1647 79
1650 1912
1654 1736
1658 1936
1662 59
1664 2497
1665 1960
1669 1756
1670 1985
1670 2010
1670 2070
1670 2095
1670 2120
1670 2145
1670 2170
1670 2195
1670 2220
1672 2245
1675 2035
1675 2270
1675 2295
1675 2465
1680 2320
1680 2345
1680 2370
1680 2395
1680 2420
1682 74
1685 99
1690 124
1690 149
1690 1770
1695 174
1695 199
1695 224
1700 249
1700 274
1700 655
1700 680
1705 299
1709 1787
1710 324
1710 625
1715 349
1720 585
1720 1120
1725 681
1729 1802
1730 369
1730 550
1735 525
1740 392
1741 1134
1745 480
1745 666
1747 1109
1747 1820
1750 415
1750 440
1766 1129
1767 654
1768 1095
1769 1832
1787 639
1789 1847
1791 1085
1791 1125
1807 624
1811 1070
1811 1860
1816 1124
1827 609
1834 1060
1834 1870
1841 1120
1851 600
1855 1045
1857 1880
1866 1119
1871 585
1875 1030
1880 1890
1891 1115
1894 574
1898 1018
1905 1895
1916 1114
1917 564
1920 1000
1929 1902
1941 1114
1942 559
1943 988
1953 1910
1963 973
1965 1495
1966 1114
1967 559
1978 1915
1979 1516
1981 955
1990 1490
1991 1114
1992 559
1997 1534
2001 940
2001 1925
2015 1490
2016 1114
2017 564
2017 1549
2019 922
2024 1935
2035 900
2035 1567
2040 1490
2041 1114
2042 564
2049 1940
2050 880
2055 1582
2065 860
2065 1490
2066 1119
2067 564
2071 1953
2075 1597
2078 838
2090 1485
2091 1124
2092 559
2093 818
2095 1612
2095 1960
2105 795
2115 1485
2115 1627
2116 1129
2117 554
2118 1970
2124 777
2130 1647
2139 757
2140 1137
2140 1485
2142 549
2142 1979
2145 1667
2155 735
2160 1687
2164 1146
2165 1480
2165 1990
2167 544
2170 715
2170 1710
2175 1735
2180 1760
2185 695
2185 1785
2186 1159
2189 1997
2190 534
2190 1475
2195 1808
2204 677
2205 1831
2211 1164
2213 2005
2214 1467
2215 529
2219 1852
2220 655
2231 1874
2234 1174
2235 635
2237 2014
2238 1458
2240 524
2245 1895
2254 617
2258 1443
2259 1179
2259 1916
2262 2020
2265 519
2269 597
2274 1936
2276 1425
2281 575
2283 1186
2285 1959
2287 2025
2290 514
2293 553
2294 1407
2298 1981
2307 1194
2307 2005
2310 529
2312 2030
2314 1392
2332 1199
2336 1380
2357 1204
2358 1368
2380 1214
2382 1360
2405 1219
2405 1350
2429 1226
2429 1342
2453 1333
2454 1231
2477 1324
2478 1239
2499 1312
2501 1249
2523 1303
2525 1257
2549 1282
