389 1372
389 1402
389 1427
389 1492
394 1302
394 1327
394 1517
399 1267
399 1542
404 1232
404 1567
409 1207
409 1592
413 1499
414 1427
414 1617
419 1167
419 1642
424 1667
429 1132
434 1690
436 1415
436 1509
439 1097
439 1715
446 1739
449 1067
455 1763
459 1042
461 1410
461 1514
464 1787
469 1017
474 1810
479 992
484 1400
484 1833
486 1519
489 967
494 1856
504 942
509 1395
509 1876
511 1519
516 920
519 1899
529 897
529 1922
534 1392
536 1519
541 875
544 1942
556 855
556 1964
559 1390
561 1519
569 832
571 1984
584 812
584 1390
586 1519
586 2004
599 792
599 2026
609 1387
611 1519
614 772
617 2044
629 752
632 2064
634 1390
636 1514
654 751
657 2065
659 1385
661 1509
678 760
680 2055
684 1387
686 1505
702 769
705 2050
709 1390
711 1500
725 779
728 2040
729 652
729 2147
734 1390
734 2122
736 1495
739 675
739 2092
739 2170
744 2067
746 699
747 634
748 789
754 723
756 2189
759 1390
761 1489
764 746
767 619
771 799
772 770
776 2204
784 1395
786 1484
787 604
796 2219
807 589
809 1400
811 1479
816 2234
827 574
834 1400
834 1469
836 2249
847 559
859 1405
859 1464
859 2260
869 547
879 2275
884 1405
884 1457
891 535
901 2288
908 1449
909 1410
914 522
923 2300
933 1444
934 1415
936 510
945 2312
956 1434
959 499
969 2320
982 489
991 2333
1005 479
1015 2342
1028 469
1039 2350
1051 459
1062 2360
1075 451
1086 2368
1099 444
1110 2375
1122 434
1133 2385
1147 429
1158 2390
1172 424
1183 2395
1197 419
1208 2400
1222 414
1233 2405
1247 409
1258 2405
1270 625
1272 409
1275 555
1275 580
1275 650
1275 675
1277 700
1280 520
1280 725
1283 2405
1285 495
1285 750
1287 775
1292 800
1295 455
1297 404
1297 825
1300 2165
1300 2190
1300 2215
1300 2240
1300 2265
1305 428
1305 849
1305 2130
1305 2290
1308 2410
1310 874
1310 2100
1310 2315
1315 899
1315 2340
1320 2055
1325 922
1325 2363
1330 2020
1333 946
1333 2410
1340 970
1340 1985
1350 993
1350 1955
1355 1018
1360 1925
1369 402
1370 976
1370 1900
1379 947
1384 422
1385 1922
1389 907
1394 399
1394 445
1394 1946
1399 867
1404 468
1404 842
1404 1969
1404 2397
1409 493
1409 817
1409 1994
1414 792
1416 2375
1419 401
1419 516
1419 762
1419 2017
1424 541
1424 566
1424 717
1424 2042
1424 2347
1428 2405
1429 591
1429 616
1429 641
1429 666
1429 691
1429 2067
1434 2092
1434 2307
1439 2117
1439 2277
1444 404
1444 2142
1444 2167
1444 2192
1444 2217
1444 2242
1453 2405
1469 406
1478 2405
1494 409
1503 2405
1519 409
1528 2405
1544 414
1553 2400
1569 419
1578 2395
1594 424
1603 2390
1618 431
1628 2383
1642 439
1652 2375
1667 444
1677 2369
1690 454
1701 2360
1715 459
1715 1365
1724 2350
1738 469
1739 1374
1748 2343
1756 1355
1761 479
1764 1379
1770 2330
1781 1350
1784 489
1789 1384
1794 2322
1806 1345
1807 499
1814 1389
1816 2310
1829 511
1830 1335
1839 1394
1839 2300
1851 524
1855 1330
1860 2285
1864 1399
1873 536
1880 1325
1883 2273
1889 1404
1895 549
1905 1320
1905 2260
1914 1406
1915 564
1925 2245
1930 1315
1938 575
1939 1409
1945 2230
1955 1310
1958 590
1964 1414
1968 2218
1978 605
1980 1305
1988 2203
1989 1414
1990 780
1998 620
2000 750
2005 1305
2006 2185
2010 715
2014 1419
2015 639
2015 784
2020 685
2026 2170
2030 659
2030 1300
2038 774
2039 1419
2044 2152
2050 1930
2055 1295
2060 1953
2062 764
2064 1421
2064 2137
2072 1975
2078 1935
2080 1295
2082 2119
2084 1997
2087 759
2089 1424
2096 2019
2097 2099
2102 1944
2105 1290
2108 2041
2110 749
2114 1424
2115 2080
2127 1950
2130 1290
2134 756
2139 1424
2149 776
2152 1955
2155 1290
2164 1424
2165 796
2177 1960
2179 817
2180 1290
2189 1422
2194 837
2202 1964
2205 1290
2209 857
2214 1419
2217 1944
2221 879
2229 1922
2230 1290
2233 901
2239 1414
2241 1900
2245 923
2253 1878
2255 1295
2257 945
2264 1409
2265 1855
2269 967
2275 1830
2280 990
2280 1295
2287 1399
2288 1808
2290 1013
2297 1784
2299 1037
2305 1300
2305 1755
2308 1061
2311 1390
2315 1730
2317 1085
2325 1109
2325 1695
2328 1310
2330 1134
2334 1377
2335 1660
2340 1157
2345 1182
2345 1620
2350 1207
2352 1319
2354 1362
2355 1232
2355 1565
2355 1590
2359 1257
2360 1282
2360 1525
2365 1385
2365 1410
2365 1435
2365 1475
2365 1500
