194 1627
209 1647
214 1612
224 1667
234 1592
242 1685
254 1577
257 1705
274 1562
275 1723
294 1547
295 1738
314 1532
314 1755
331 1774
334 1517
349 1792
354 1502
369 1807
374 1487
389 1822
396 1475
409 1837
416 1460
431 1850
439 1447
452 1864
459 667
461 1434
464 692
469 632
476 714
477 1865
479 602
484 1422
485 738
489 572
497 760
499 547
502 1860
506 1410
509 782
511 525
520 501
521 804
527 1859
529 1399
532 479
534 826
544 452
549 846
552 1389
552 1855
559 427
561 868
574 402
574 890
575 1379
577 1850
589 377
591 909
598 1369
602 1845
606 929
607 359
620 1356
621 949
627 1840
629 371
636 969
644 1349
649 386
650 1830
654 987
667 1339
672 1005
673 395
675 1825
690 1023
691 1330
693 410
700 1820
709 1040
713 425
716 1324
723 1810
729 1055
733 440
740 1316
746 1074
748 1803
755 452
764 1309
766 1089
770 1790
775 467
786 1104
789 1304
794 1782
795 482
801 1124
814 1146
814 1297
815 497
816 1770
824 1169
830 517
838 1190
839 1292
839 1760
850 532
850 1212
862 1749
864 1289
865 1232
870 547
883 1250
883 1735
888 565
889 1284
905 584
905 1720
924 601
928 1710
939 621
948 1695
959 636
970 1680
974 656
990 676
995 1680
1007 695
1020 1675
1022 715
1037 735
1045 1670
1055 753
1065 776
1070 1665
1080 796
1093 1655
1094 817
1109 837
1116 1645
1120 860
1130 883
1140 1635
1142 905
1149 1742
1149 1767
1149 1792
1149 1817
1149 1842
1149 1867
1149 1892
1149 1917
1154 1692
1154 1717
1154 1942
1154 1967
1159 1657
1159 1992
1159 2017
1163 919
1164 2042
1169 2067
1174 892
1174 2092
1179 2117
1184 2142
1189 872
1189 2167
1199 2190
1204 852
1204 2215
1209 2240
1219 832
1219 2263
1229 2286
1234 2311
1237 814
1244 2334
1254 2357
1255 796
1264 2380
1274 777
1275 2403
1284 752
1294 727
1300 2405
1304 702
1314 677
1323 2395
1326 655
1335 631
1346 2385
1350 611
1362 589
1368 2373
1374 567
1386 545
1390 2360
1399 522
1413 2350
1417 504
1429 482
1436 2340
1447 464
1456 2325
1462 444
1478 2313
1480 426
1495 406
1500 2300
1514 387
1520 2285
1532 369
1540 2270
1550 351
1560 2255
1565 1680
1569 332
1570 1705
1575 1045
1575 1490
1575 1635
1580 1515
1580 1540
1580 1595
1580 1728
1580 2240
1585 1565
1585 1753
1589 317
1590 1778
1590 2195
1594 1027
1595 1803
1596 1059
1599 1497
1600 1828
1600 2145
1600 2170
1605 1853
1605 2110
1610 1878
1610 1903
1610 2055
1610 2080
1612 1009
1613 309
1615 1928
1615 1953
1615 1978
1615 2003
1615 2028
1621 1064
1621 1509
1627 989
1638 309
1644 1520
1645 970
1645 1072
1660 950
1663 309
1667 1530
1669 1081
1675 930
1688 309
1690 1540
1693 1090
1694 912
1709 892
1713 310
1714 1547
1715 1102
1721 870
1736 850
1737 1114
1738 314
1738 1555
1751 830
1760 1124
1761 1565
1763 315
1763 808
1778 788
1785 1124
1785 1572
1788 319
1790 760
1803 738
1809 1580
1810 1124
1813 324
1815 710
1828 688
1832 1590
1835 1127
1838 329
1840 660
1853 638
1857 1594
1860 1129
1862 614
1863 334
1870 585
1882 1599
1883 563
1885 1134
1888 339
1890 535
1900 500
1907 1605
1910 470
1910 1134
1913 344
1920 430
1930 390
1932 1610
1935 365
1935 1139
1957 1615
1960 1144
1982 1619
1984 1151
2007 1620
2008 1159
2032 1625
2033 1164
2056 1174
2057 1625
2081 1179
2082 1630
2104 1189
2107 1630
2127 1199
2132 1630
2150 1209
2157 1635
2174 1216
2182 1635
2196 1229
2207 1635
2218 1241
2232 1635
2240 1253
2257 1630
2262 1265
2282 1630
2283 1279
2295 1301
2305 1324
2307 1630
2310 1349
2320 1372
2325 1397
2330 1422
2332 1625
2335 1447
2340 1472
2345 1497
2350 1522
2354 1547
2355 1572
2355 1597
2357 1624
