294 717
304 740
309 587
314 612
314 652
318 709
319 562
319 760
324 675
329 837
331 540
334 780
334 807
339 695
339 860
344 885
347 910
354 551
359 932
377 950
378 559
384 974
391 998
403 564
413 1010
428 564
435 1022
451 574
454 1039
459 1064
474 584
476 1083
489 557
498 1095
499 580
522 569
522 1104
547 569
547 1099
572 569
572 1094
590 1112
595 579
610 1127
620 576
635 1120
645 579
658 1130
670 584
678 1145
690 1115
695 584
715 1110
718 595
736 1124
742 604
751 1144
765 614
771 1159
789 607
795 1150
804 587
810 1130
826 599
834 1137
844 617
854 1152
866 605
879 1150
889 594
904 1145
910 608
924 1160
932 594
948 1153
957 599
957 1129
980 609
982 1134
1002 1149
1003 620
1025 1160
1028 624
1044 1142
1050 611
1063 1125
1075 614
1087 1134
1095 629
1109 1837
1109 2087
1112 1140
1114 1862
1114 2112
1119 1602
1119 1912
1119 2042
1120 626
1124 1627
1124 1662
1124 1687
1124 1777
1124 1802
1124 1885
1124 1937
1124 2152
1124 2177
1129 2012
1130 1120
1131 2064
1133 1830
1134 1372
1134 1417
1134 1442
1134 1547
1134 1710
1134 1737
1134 1960
1134 1985
1135 2089
1136 2199
1142 614
1144 1465
1144 1492
1144 1570
1144 1601
1144 2223
1144 2287
1149 1182
1149 1302
1149 1517
1150 2248
1154 1127
1154 1207
1154 2310
1159 1232
1159 1325
1159 1374
1162 629
1164 1257
1164 1282
1169 2330
1174 1179
1174 1345
1178 1134
1179 607
1179 2353
1179 2378
1180 1100
1189 2401
1199 2424
1203 600
1216 2443
1225 612
1234 2461
1244 2484
1245 627
1261 2465
1269 634
1284 2455
1292 624
1307 2465
1317 619
1330 2475
1339 631
1354 2467
1363 2443
1364 634
1381 615
1387 2435
1402 629
1412 2434
1426 636
1429 607
1437 2435
1454 604
1462 2435
1475 618
1482 2450
1498 629
1507 2455
1523 629
1532 2454
1546 619
1554 2466
1571 619
1572 2484
1591 634
1592 2500
1615 626
1615 2490
1634 2472
1635 2425
1637 614
1650 1190
1655 632
1655 2410
1660 1213
1665 1238
1665 1305
1670 1330
1670 2300
1674 607
1674 1182
1674 1262
1675 1100
1675 1135
1675 1560
1677 2324
1679 2402
1682 1584
1685 1285
1685 1350
1685 1810
1685 2060
1685 2375
1690 1385
1690 1415
1690 1445
1690 2346
1692 1834
1692 2084
1695 1470
1695 1495
1695 2295
1698 600
1700 1102
1700 1555
1700 1602
1700 2195
1700 2220
1700 2245
1705 1518
1705 1645
1705 1670
1705 1695
1705 1730
1705 1930
1705 2150
1707 1755
1710 1810
1710 1852
1710 1905
1710 1955
1710 1980
1710 2005
1710 2055
1710 2102
1710 2268
1718 2126
1719 1777
1720 612
1720 1875
1720 2028
1722 1114
1742 624
1742 1130
1760 1148
1767 624
1783 1138
1790 614
1805 1125
1815 612
1828 1135
1837 624
1848 1150
1859 612
1873 1148
1881 599
1898 1150
1904 609
1918 1165
1924 594
1943 1158
1949 596
1961 1140
1971 609
1982 1154
1996 614
2005 1165
2021 610
2028 1175
2039 592
2048 1158
2064 589
2070 1145
2080 609
2091 1159
2097 589
2116 1155
2122 584
2141 1150
2147 589
2164 1160
2170 579
2187 1149
2192 1124
2194 586
2217 1124
2218 595
2240 1135
2243 599
2263 584
2264 1127
2283 569
2286 1115
2308 564
2311 1110
2332 1124
2333 569
2355 1105
2358 569
2374 1087
2383 569
2398 1078
2408 564
2422 1070
2433 569
2445 1020
2445 1060
2454 547
2468 1010
2479 544
2490 955
2490 980
2502 554
2510 900
2512 925
2515 780
2515 950
2522 804
2527 559
2529 882
2530 655
2530 828
2530 853
2537 679
2538 768
2539 581
2547 605
2550 640
2550 701
2550 740
