219 1242
224 1267
234 1290
237 1224
249 1310
259 1236
260 1333
264 1202
275 1353
282 1184
284 1377
302 1169
302 1395
311 1145
324 1407
326 1125
344 1422
351 1119
362 1440
369 1092
380 1458
384 1072
389 1482
406 1060
413 1490
431 1054
433 1505
454 1022
455 1517
476 1009
479 1525
489 662
489 1897
494 1922
499 685
499 1762
499 1827
501 1014
502 710
502 1535
504 767
504 1877
504 1945
507 644
507 735
509 1682
509 1707
509 1737
509 1850
509 1970
509 1995
511 1784
512 2020
514 597
514 790
517 1809
519 542
519 977
522 624
522 1550
524 567
524 813
525 838
527 2040
529 902
529 1642
534 492
534 517
534 862
534 1667
541 924
543 969
544 1622
545 1560
549 1585
552 2034
555 2000
556 944
559 494
565 982
574 2017
580 508
589 2037
600 523
614 2040
625 516
637 2050
649 507
662 2050
674 504
687 2049
699 509
710 2060
724 509
725 2030
747 519
750 2035
767 534
773 2045
774 492
798 485
798 2038
815 504
818 2023
835 519
840 2035
858 529
865 2030
883 530
890 2025
908 529
910 2010
933 534
935 2005
955 521
958 1995
976 2013
980 519
996 2028
1005 516
1009 467
1009 2072
1014 2046
1024 2092
1034 464
1039 422
1044 2107
1044 2137
1051 444
1054 2160
1057 404
1059 469
1068 2115
1074 2175
1082 404
1094 367
1094 2190
1104 390
1106 345
1117 2200
1131 339
1135 2218
1144 307
1150 2238
1166 294
1169 2255
1184 2275
1191 294
1204 257
1204 2290
1219 237
1227 2300
1244 241
1249 2312
1264 207
1266 254
1271 2325
1288 199
1296 2325
1312 189
1320 2315
1337 194
1340 2300
1345 218
1359 2282
1365 233
1370 2250
1380 253
1389 2232
1395 273
1410 293
1414 2230
1425 313
1435 2215
1443 331
1454 2197
1455 360
1455 2155
1469 381
1470 410
1470 2135
1484 431
1495 2130
1499 451
1518 2118
1521 439
1533 2098
1535 2035
1535 2060
1539 457
1548 2013
1550 480
1560 503
1573 2008
1575 523
1585 546
1597 2015
1610 544
1622 2015
1634 537
1647 2015
1656 524
1671 2023
1681 519
1696 2025
1706 514
1721 2020
1731 519
1742 2034
1753 531
1764 487
1765 2045
1789 484
1790 2040
1810 498
1815 2040
1830 513
1838 2050
1855 514
1863 2050
1878 504
1888 2050
1903 499
1913 2050
1926 509
1938 2055
1951 509
1955 2030
1975 517
1980 2027
1990 965
1995 532
2000 1585
2002 2039
2005 945
2010 905
2014 972
2014 1606
2015 1635
2017 544
2019 1567
2020 780
2020 1660
2020 1985
2020 2010
2025 885
2025 1735
2025 1760
2027 804
2027 1785
2028 935
2030 566
2030 655
2030 850
2034 1547
2035 1809
2035 1890
2037 590
2037 1679
2037 1915
2039 976
2040 678
2040 765
2044 1977
2045 614
2045 1832
2049 1527
2049 1742
2052 700
2052 1935
2055 735
2055 1697
2055 1875
2057 994
2073 1535
2075 1012
2093 1030
2096 1525
2113 1045
2118 1513
2133 1060
2136 1495
2148 1473
2153 1075
2168 1458
2175 1087
2190 1445
2197 1099
2213 1435
2217 1114
2232 1134
2235 1420
2245 1156
2245 1390
2260 1370
2262 1175
2270 1345
2275 1220
2283 1189
2289 1241
2294 1337
2303 1205
2309 1256
2314 1322
2323 1220
2329 1302
2331 1269
