99 1282
111 1304
114 1262
129 1322
132 1244
149 1222
149 1337
167 1355
169 1207
187 1370
189 1192
207 1385
211 1179
227 1400
231 1164
247 1415
250 1146
264 1434
269 1127
281 1453
287 1109
294 1475
305 1091
305 1498
317 1069
319 1519
329 1047
333 1540
341 1025
351 1558
356 1005
371 1573
374 987
393 1585
398 979
416 1595
420 966
440 1602
444 959
465 1607
467 949
490 1610
492 944
515 1615
517 939
538 1625
542 934
559 712
559 737
559 772
563 1630
566 925
569 687
569 795
569 1792
569 1817
574 1767
579 827
579 1840
581 665
584 1737
586 1640
589 1863
590 641
591 849
591 924
594 1712
599 612
599 1886
604 442
604 472
604 497
604 522
604 567
604 871
604 1911
606 1690
607 1654
609 417
612 1935
614 387
614 902
614 1960
614 1997
614 2022
614 2047
614 2072
614 2097
619 2122
624 2147
626 365
634 2170
635 341
645 2193
650 321
660 2213
670 306
675 2233
692 294
695 2248
714 2265
715 304
738 2258
740 306
763 2255
764 314
788 2255
789 314
813 2255
814 314
838 2255
839 309
863 2260
864 309
888 2265
889 304
913 2265
914 304
938 2260
939 309
963 316
963 2253
985 2240
987 324
1008 2228
1009 336
1029 351
1030 2210
1050 370
1050 2195
1070 2180
1071 384
1090 2165
1091 399
1106 419
1110 2150
1128 431
1130 2135
1151 441
1153 2125
1173 454
1178 2118
1198 459
1203 2113
1223 464
1227 2105
1246 474
1249 2092
1269 2077
1271 470
1289 452
1294 2080
1311 439
1314 2095
1335 431
1339 2100
1360 426
1362 2110
1384 419
1387 2114
1407 409
1410 2125
1429 397
1431 2139
1449 382
1451 2155
1469 367
1471 2170
1490 2187
1491 354
1510 336
1510 2202
1530 321
1530 2217
1552 309
1552 2230
1574 297
1575 2240
1598 289
1598 2250
1623 284
1623 2255
1647 274
1648 2255
1672 279
1673 2255
1697 284
1698 2250
1722 289
1723 2250
1747 289
1748 2245
1772 289
1773 2245
1797 284
1798 2250
1822 284
1823 2255
1840 302
1848 2260
1860 317
1871 2250
1875 337
1889 2232
1893 355
1901 2210
1905 377
1915 400
1916 2190
1920 425
1922 450
1925 475
1925 500
1925 525
1925 550
1925 575
1925 600
1925 2165
1930 625
1930 855
1930 2135
1935 650
1935 1650
1935 2055
1935 2080
1935 2105
1937 879
1937 1675
1940 1965
1940 1990
1940 2015
1945 673
1945 825
1945 1940
1950 1697
1950 1915
1954 697
1955 800
1957 894
1958 1638
1960 1720
1960 1885
1965 720
1965 755
1970 1743
1973 1863
1980 904
1980 1766
1982 1629
1982 1839
1983 1791
2003 914
2007 1624
2028 915
2031 1615
2050 927
2056 1610
2075 929
2081 1605
2100 934
2106 1600
2123 944
2129 1590
2148 950
2153 1583
2170 962
2175 1570
2194 971
2195 1555
2212 989
2214 1537
2229 1517
2230 1007
2240 1485
2245 1027
2255 1050
2255 1460
2265 1073
2270 1440
2280 1093
2289 1422
2295 1113
2308 1405
2313 1131
2328 1388
2333 1146
2350 1375
2351 1164
2369 1357
2373 1176
2388 1340
2393 1191
2408 1323
2411 1209
2426 1305
2430 1226
2445 1285
2450 1242
2460 1265
