19 1287
37 1305
41 1275
60 1315
64 1264
83 1325
87 1254
106 1335
107 1239
129 1345
130 1229
152 1355
153 1219
175 1365
177 1209
198 1375
200 1199
222 1384
224 1192
246 1180
247 1390
270 1400
271 1174
295 1405
296 1169
318 1415
319 1159
343 1420
344 1154
367 1144
368 1425
392 1139
393 1430
417 1134
418 1435
442 1129
443 1440
467 1124
468 1445
492 1119
493 1450
517 1119
518 1450
542 1114
543 1455
567 1109
568 1455
592 1109
593 1455
617 1109
618 1455
624 197
629 222
629 247
629 272
634 297
634 322
639 347
642 1109
643 1460
644 372
644 397
649 422
651 209
654 447
654 2277
654 2302
654 2327
654 2352
659 472
659 2222
659 2247
664 2182
667 1109
668 1455
669 495
669 2152
673 221
674 520
674 2122
679 545
679 2092
679 2352
689 568
689 2047
692 1109
693 236
693 1455
694 593
699 2012
701 2340
704 616
709 1977
712 640
715 248
717 1109
718 1455
719 1947
721 2325
724 662
729 1917
734 685
735 264
739 1892
741 709
742 1109
743 1455
743 2313
749 1867
754 731
758 275
759 1842
762 755
763 2298
767 1114
768 1450
769 1817
774 777
775 294
781 1795
783 2283
786 799
792 1114
793 1448
794 1772
795 309
799 821
801 2265
806 1750
814 841
815 324
817 1119
818 1445
819 1722
821 2250
826 863
834 341
834 1697
839 885
841 2235
842 1119
843 1440
849 1672
854 356
854 905
859 2217
867 1124
867 1654
868 1435
869 925
872 374
878 2200
879 1632
884 945
891 1610
892 389
892 1129
893 1430
898 2183
899 965
909 1592
910 407
916 984
916 2165
917 1134
918 1425
924 1572
928 425
934 1002
934 2147
939 1552
942 1139
943 1418
945 444
949 1022
949 2127
957 1534
960 464
964 1042
965 1149
967 1410
967 2109
974 1512
979 481
982 1060
985 2090
990 1154
990 1400
992 1494
995 501
1000 1078
1000 2070
1010 1476
1012 520
1014 1161
1015 1395
1019 2052
1020 1093
1025 542
1029 1457
1034 2032
1038 1169
1038 1385
1040 1108
1043 560
1047 1439
1049 2012
1058 580
1059 1125
1061 1179
1063 1378
1064 1992
1067 1424
1073 600
1076 1970
1079 1140
1085 622
1085 1187
1087 1369
1087 1409
1088 1948
1096 1159
1097 644
1103 1928
1105 1391
1109 1196
1109 1357
1110 666
1115 1905
1119 1170
1125 686
1127 1379
1130 1880
1131 1209
1133 1348
1135 709
1139 1185
1143 1858
1145 732
1155 1217
1155 1335
1155 1825
1160 752
1168 1803
1170 775
1180 798
1180 1775
1185 823
1190 1750
1197 845
1200 1720
1205 869
1210 1695
1215 892
1220 917
1220 1660
1230 940
1230 1630
1235 965
1240 990
1240 1585
1245 1015
1245 1560
1250 1040
1250 1535
1255 1065
1255 1505
1260 1090
1260 1115
1260 1470
1265 1140
1265 1415
1265 1440
1280 1395
1283 1104
1284 1062
1288 1450
1289 1027
1289 1475
1294 997
1294 1500
1299 972
1299 1525
1304 1550
1309 932
1309 1575
1314 1600
1319 892
1319 1625
1326 1649
1329 857
1335 1673
1339 827
1344 1697
1349 802
1354 1720
1359 777
1361 1744
1369 752
1374 1766
1375 1200
1379 1791
1380 1330
1381 730
1390 706
1390 1353
1394 1811
1396 1214
1398 1188
1402 684
1404 1834
1410 1368
1414 662
1414 1857
1418 1173
1420 1345
1426 640
1426 1879
1432 1194
1432 1380
1438 1158
1439 617
1439 1901
1443 1355
1450 1398
1451 595
1451 1923
1455 1184
1458 1143
1464 572
1466 1365
1466 1943
1472 1410
1476 1125
1478 1174
1479 547
1479 1965
1489 1375
1490 1428
1494 1107
1494 1985
1497 529
1501 1164
1509 507
1509 2005
1510 1444
1512 1089
1512 1385
1524 487
1524 1154
1524 2025
1529 1461
1530 1070
1537 1390
1539 2045
1542 469
1547 1144
1547 1479
1549 1052
1556 2064
1559 447
1560 1400
1565 1497
1567 1034
1571 2084
1572 1139
1574 427
1583 1515
1584 1407
1585 1015
1589 2102
1592 409
1595 1129
1600 995
1600 1534
1604 2122
1609 1410
1610 391
1619 977
1619 1551
1620 1124
1622 2140
1629 372
1630 1574
1632 1420
1634 957
1640 2158
1644 1117
1647 354
1649 937
1649 1591
1657 1425
1659 2175
1660 1614
1661 915
1665 336
1669 1112
1679 897
1679 1631
1679 2190
1682 1430
1685 321
1690 1654
1691 875
1693 1104
1696 2209
1703 853
1704 302
1705 1674
1707 1435
1715 830
1716 2224
1718 1104
1720 1694
1724 287
1728 808
1732 1439
1733 1716
1734 2242
1740 785
1742 269
1743 1099
1745 1738
1750 760
1754 2257
1757 1440
1757 1760
1762 254
1763 738
1768 1094
1770 1782
1774 2272
1775 710
1780 1805
1782 239
1782 1445
1788 688
1790 1828
1792 2290
1793 1089
1795 660
1802 224
1802 1850
1805 635
1807 1445
1810 1874
1815 605
1815 2300
1818 1089
1820 1897
1824 212
1825 570
1830 1920
1832 1449
1834 2317
1835 535
1837 1944
1843 1084
1844 197
1845 495
1845 1968
1854 1992
1855 445
1855 470
1856 2330
1857 1450
1860 420
1860 2017
1864 182
1865 390
1865 2042
1868 1084
1870 355
1875 300
1875 325
1875 2065
1877 2344
1880 202
1880 227
1880 252
1880 2090
1882 1450
1885 2115
1890 2140
1892 2165
1893 1084
1895 2190
1900 2215
1900 2355
1902 2240
1905 2265
1905 2290
1907 1450
1910 2315
1918 1084
1932 1450
1943 1084
1957 1450
1968 1084
1982 1445
1993 1084
2007 1445
2018 1089
2032 1440
2043 1089
2057 1439
2068 1094
2082 1435
2093 1095
2107 1430
2118 1099
2132 1425
2143 1104
2157 1420
2168 1109
2182 1415
2193 1114
2205 1405
2218 1120
2230 1400
2242 1129
2255 1395
2267 1134
2279 1387
2290 1144
2303 1380
2315 1149
2326 1370
2338 1159
2350 1360
2363 1165
2374 1352
2387 1174
2396 1340
2410 1184
2421 1335
2433 1195
2443 1323
2455 1207
2465 1310
2479 1216
2488 1300
2501 1229
2510 1285
2524 1239
2533 1273
