25 1231
35 1261
38 1209
46 1284
60 1171
60 1196
60 1305
67 1329
75 1151
88 1129
92 1330
103 1109
108 1350
115 1071
130 1041
133 1355
149 1023
150 936
150 986
153 1370
161 959
165 831
165 856
165 881
165 916
175 806
176 1380
194 788
201 1380
210 756
226 1375
230 740
245 716
249 1365
258 694
274 1362
280 666
296 1350
300 650
308 1328
323 640
330 616
330 1315
353 604
355 1310
375 591
378 1298
398 579
402 1289
417 1269
419 565
435 1250
444 560
454 1232
467 550
479 1230
489 562
504 1230
514 563
527 1240
536 575
550 1251
561 575
572 1264
586 575
587 1284
590 1309
606 1329
610 583
610 1354
626 1374
635 583
651 1380
657 595
670 1397
679 1421
682 595
690 1444
704 1465
707 600
719 1485
732 600
734 1505
750 1525
754 612
770 1540
776 624
791 1554
795 641
814 1565
816 655
821 1589
834 673
841 1605
855 1626
858 680
865 704
866 1649
888 715
889 1660
896 1684
903 735
910 1781
910 1831
910 1856
915 1701
920 1804
920 1879
920 1904
925 748
933 1769
935 1716
935 1741
936 1924
947 760
955 1941
972 765
976 1955
980 789
986 1978
1003 800
1008 1990
1026 2008
1028 795
1044 2026
1053 789
1053 2050
1071 2068
1074 775
1086 2088
1099 775
1105 2105
1124 773
1126 2119
1149 775
1149 2130
1172 2140
1174 775
1193 2154
1197 785
1216 2165
1220 775
1239 2155
1240 1980
1243 785
1255 2000
1261 2025
1264 2155
1268 790
1270 1980
1270 2055
1280 2003
1280 2105
1284 2076
1285 2140
1286 2028
1291 780
1304 2046
1305 2101
1314 790
1315 2141
1319 2166
1325 2191
1333 2215
1339 790
1350 2234
1360 2257
1362 780
1370 2280
1377 2304
1380 2329
1380 2521
1387 780
1390 2352
1391 2544
1395 2481
1399 2376
1405 2421
1405 2446
1405 2565
1412 780
1419 2586
1437 775
1443 2593
1455 2565
1462 775
1478 2555
1482 760
1500 2515
1500 2540
1504 748
1510 1780
1513 2493
1520 1803
1520 1835
1520 1860
1522 2469
1529 748
1530 1883
1533 1768
1544 2457
1545 1745
1545 1955
1545 2005
1545 2095
1545 2255
1545 2280
1545 2320
1545 2345
1545 2370
1548 1901
1551 735
1555 2060
1555 2145
1555 2393
1556 2435
1558 2233
1560 1923
1560 1975
1560 2025
1560 2115
1565 2168
1568 1733
1570 2193
1570 2413
1574 725
1585 1710
1599 725
1610 1705
1624 718
1630 1690
1642 700
1653 1680
1665 690
1678 1680
1688 680
1700 1665
1705 1620
1713 674
1715 1643
1728 1608
1735 661
1745 1627
1758 649
1770 1625
1775 1595
1780 636
1793 1613
1799 618
1802 1589
1820 1555
1821 605
1843 1545
1846 600
1866 1535
1870 591
1880 1505
1893 579
1905 1505
1918 574
1928 1493
1940 561
1953 1490
1963 549
1976 1480
1981 530
1996 1465
2004 518
2018 1453
2026 505
2040 1440
2049 493
2063 1428
2074 490
2081 1410
2094 475
2099 1392
2117 465
2124 1390
2142 465
2149 1387
2167 460
2170 1401
2175 421
2192 1414
2194 403
2200 341
2200 366
2200 1438
2219 323
2225 1440
2235 281
2245 1455
2250 261
2263 239
2270 191
2270 1461
2278 219
2280 156
2295 1461
2299 138
2320 1465
2321 125
2345 1466
2346 129
2360 150
2366 1480
2384 157
2389 1490
2395 180
2411 200
2414 1490
2420 224
2429 1510
2430 247
2430 272
2430 297
2430 355
2430 380
2430 480
2436 505
2440 320
2440 403
2445 428
2449 462
2454 523
2454 1515
2476 535
2479 1515
2490 556
2499 1530
2507 575
2524 1535
2532 575
2546 1548
2557 580
2571 1553
2577 595
2590 1731
2593 1565
2597 610
2600 1681
2600 1706
2607 1750
2611 1583
2620 1665
2622 615
2623 1605
2625 1320
2626 1640
2628 1764
2645 1335
2647 620
2648 1309
2653 1763
2664 1352
2671 1745
2672 620
2673 1315
2686 1365
2694 1755
2697 625
2698 1315
2709 1376
2710 665
2713 1738
2718 1330
2720 688
2720 755
2720 780
2732 710
2734 1380
2735 800
2735 1725
2740 740
2740 1630
2740 1695
2743 1330
2750 1653
2755 1590
2757 1390
2760 796
2765 1555
2768 1330
2779 1402
2783 784
2788 1345
2788 1543
2797 1420
2800 1445
2800 1505
2803 800
2810 1468
2811 1355
2820 819
2829 843
2834 1365
2839 866
2859 1365
2864 866
2865 891
2882 910
2882 1355
2900 928
2904 1342
2920 943
2929 1340
2942 955
2949 1355
2957 975
2970 1030
2972 1344
2980 985
2990 1015
2993 1040
2997 1340
3018 1045
3020 1075
3022 1340
3036 1095
3040 1120
3047 1340
3055 1140
3071 1333
3078 1150
3094 1322
3103 1155
3119 1322
3128 1159
3143 1330
3148 1174
3168 1330
3170 1161
3188 1345
3195 1160
3210 1357
3220 1160
3220 1380
3241 1394
3245 1165
3264 1405
3269 1172
3285 1390
3287 1190
3290 1215
3296 1240
3308 1378
3319 1251
3330 1274
3330 1365
3340 1297
3340 1322
3349 1347
