4 302
4 327
4 352
4 377
14 272
14 400
19 442
29 247
39 457
44 227
61 470
62 209
81 485
82 194
104 182
106 488
128 174
131 485
153 175
156 480
177 184
181 475
199 196
205 465
219 211
230 460
239 226
255 455
259 241
280 450
281 254
301 269
303 440
321 284
328 435
339 302
353 435
363 309
364 272
378 435
382 254
402 239
403 440
424 227
428 440
448 219
449 487
453 445
467 469
467 505
468 204
482 525
493 199
502 540
511 180
524 552
534 167
549 555
558 159
573 139
574 560
595 126
599 560
617 114
624 565
639 102
649 565
664 99
674 560
689 99
699 557
714 99
723 550
739 99
748 543
764 104
770 530
789 106
793 520
813 503
814 109
835 490
839 114
855 475
862 124
870 455
883 433
885 134
895 405
908 144
918 395
928 129
939 102
943 395
949 57
954 82
968 395
974 52
992 34
993 390
1012 19
1018 395
1037 24
1043 395
1051 419
1059 12
1076 420
1084 14
1089 442
1109 14
1114 440
1134 16
1139 435
1154 455
1156 29
1177 445
1178 41
1199 432
1200 54
1209 455
1225 54
1230 440
1249 47
1249 422
1269 407
1274 42
1279 437
1279 462
1284 487
1293 414
1299 39
1299 507
1301 450
1315 485
1324 34
1328 463
1348 448
1349 34
1353 423
1358 398
1360 355
1374 34
1375 335
1399 29
1400 275
1400 325
1405 300
1424 29
1425 270
1449 24
1450 265
1474 17
1474 257
1496 5
1498 248
1520 12
1520 235
1540 27
1543 223
1562 39
1565 210
1585 49
1588 198
1606 180
1608 60
1624 162
1630 72
1630 100
1635 135
