4 187
4 212
14 157
14 235
21 259
26 135
41 275
46 120
66 270
71 119
90 260
94 129
115 255
119 134
138 245
143 141
163 240
165 154
184 112
184 272
188 144
188 240
189 297
196 90
207 315
216 75
230 325
236 60
253 335
261 54
277 344
284 44
302 350
309 39
327 355
334 34
352 360
359 34
377 360
384 29
402 365
409 29
427 365
434 29
452 365
459 29
477 365
484 29
502 369
509 29
527 365
534 34
552 370
559 34
577 370
584 34
602 375
609 34
627 375
634 34
650 365
659 34
673 353
684 34
691 335
706 315
709 34
731 310
734 34
756 310
759 31
781 310
784 29
806 310
809 27
831 315
833 19
856 315
858 14
881 310
883 9
906 310
908 15
923 35
931 310
940 54
956 305
963 64
964 382
974 357
981 305
986 335
988 59
989 377
1005 352
1013 54
1013 328
1015 300
1038 54
1038 290
1063 54
1063 285
1081 35
1088 278
1106 39
1108 263
1110 64
1112 14
1120 87
1130 250
1132 109
1140 133
1150 235
1152 155
1165 177
1169 217
