385 1126
385 1151
385 1176
385 1201
385 1291
385 1331
390 1356
402 1220
410 1120
410 1285
410 1371
415 1026
420 991
422 1050
425 956
427 1220
430 931
435 1120
435 1290
435 1375
445 846
447 1050
450 821
452 1220
455 935
460 791
460 1120
460 1290
460 1381
462 865
470 766
472 1050
477 1224
480 741
480 940
484 1297
485 1123
485 1380
487 865
497 1054
500 726
502 1230
505 945
509 1300
510 1125
510 1385
511 873
522 1060
525 725
526 1238
530 950
532 1310
533 1135
535 1385
536 878
547 1065
550 725
551 1240
555 955
557 1315
558 1135
558 1395
560 885
572 1065
575 725
576 1245
580 960
582 1315
583 1140
583 1394
585 886
595 1075
600 725
601 1248
605 965
607 1320
608 1145
608 1395
610 890
620 1076
625 725
626 1250
630 965
632 1325
632 1404
633 1150
635 895
645 1080
650 725
651 1255
655 968
657 1325
657 1410
658 1155
660 895
670 1085
673 735
676 1260
680 970
680 1421
682 1330
683 1155
685 900
695 1086
698 740
701 1260
702 1434
705 975
707 1335
708 1160
710 901
720 1091
723 735
725 1445
726 1265
730 978
732 1335
733 1165
735 905
745 1095
746 745
748 1455
751 1265
755 980
757 1340
758 1170
760 910
770 1100
771 745
773 1460
776 1270
780 985
782 1340
783 1170
785 915
795 1101
796 745
798 1460
801 1270
805 990
807 1340
808 1175
810 920
820 1105
821 745
821 1450
826 1270
830 995
832 1345
833 1180
835 925
844 1460
845 1110
846 750
851 1275
855 1000
857 1345
858 1185
860 925
866 1473
870 1115
871 745
876 1275
880 1000
882 1345
883 1185
885 930
891 1470
895 1115
896 745
900 1282
904 1333
905 1005
908 1185
910 931
911 1455
915 1302
920 1115
921 740
929 1437
930 1001
933 1180
934 940
943 1125
946 740
949 1422
950 981
950 1161
967 1404
969 751
985 1385
991 764
1004 1367
1009 782
1024 802
1024 1352
1036 824
1042 1334
1045 1195
1045 1230
1050 1160
1054 842
1055 1310
1059 1251
1060 1276
1070 862
1075 887
1075 912
1075 937
1075 1160
1080 962
1100 1160
1104 970
1125 1165
1129 965
1150 1170
1154 965
1175 1175
1179 960
1200 1181
1204 955
1224 1190
1229 955
1244 1205
1254 955
1269 1205
1279 955
1294 1200
1304 960
1318 1209
1325 974
1343 1215
1350 980
1368 1220
1375 985
1393 1225
1398 995
1418 1230
1421 1005
1441 1020
1442 1239
1466 1025
1467 1240
1489 1035
1490 1250
1512 1045
1515 1256
1537 1050
1539 1265
1562 1055
1563 1274
1585 1065
1588 1280
1608 1075
1613 1280
1633 1075
1638 1285
1656 1085
1663 1289
1681 1090
1688 1295
1706 1095
1713 1300
1731 1100
1738 1305
1755 1108
1761 1315
1779 1115
1786 1320
1804 1116
1811 1325
1829 1120
1836 1330
1854 1126
1861 1335
1878 1135
1886 1340
1903 1140
1910 1347
1928 1140
1932 1359
1953 1140
1957 1365
1976 1150
1981 1373
2001 1150
2005 1380
2026 1150
2028 1390
2051 1155
2053 1390
2076 1155
2078 1395
2101 1159
2102 1404
2126 1160
2127 1400
2151 1165
2152 1405
2176 1170
2177 1410
2201 1170
2202 1410
2223 1424
2226 1170
2248 1425
2251 1175
2273 1430
2276 1180
2297 1439
2301 1180
2322 1445
2326 1180
2347 1450
2351 1180
2372 1450
2376 1180
2397 1454
2401 1185
2422 1460
2426 1185
2447 1460
2450 1193
2472 1460
2474 1200
2497 1210
2497 1459
2520 1220
2521 1450
2541 1234
2546 1445
2564 1245
2570 1435
2580 1390
2585 1415
2589 1251
2599 1372
2604 1271
2605 1296
2610 1345
2612 1320
