525 571
535 546
536 594
555 611
559 556
563 635
576 575
583 650
591 595
600 669
604 617
610 692
619 637
625 466
625 712
634 657
638 444
640 486
643 730
646 679
658 750
659 458
660 501
661 699
670 772
674 478
674 721
678 519
680 796
688 820
690 541
691 740
693 495
703 840
705 561
706 760
710 514
716 584
720 859
721 780
723 536
730 605
734 802
736 879
741 554
747 624
749 822
749 901
759 572
762 644
765 921
767 840
777 590
777 664
779 862
783 939
792 610
795 682
795 961
797 880
807 704
810 628
815 898
817 974
820 321
825 722
828 646
833 916
835 341
837 989
840 305
840 668
840 742
853 359
855 688
857 925
858 760
862 989
863 295
870 378
870 782
873 706
878 315
881 934
883 400
884 729
887 994
888 800
893 335
900 419
900 749
904 358
905 819
906 930
912 994
914 776
916 439
919 378
921 839
929 918
931 400
931 795
935 456
935 861
937 989
938 894
946 420
949 813
950 476
961 440
961 499
962 984
968 830
979 458
980 516
985 849
987 979
991 480
995 206
995 536
1008 860
1009 498
1010 969
1013 224
1013 554
1018 195
1024 518
1025 576
1030 243
1031 954
1033 865
1036 540
1040 596
1043 190
1049 260
1051 939
1054 558
1055 616
1058 859
1063 205
1064 581
1066 279
1071 924
1073 634
1076 840
1080 224
1081 600
1085 296
1085 656
1090 811
1091 909
1095 244
1096 620
1100 316
1103 674
1105 781
1110 756
1111 640
1111 894
1114 261
1118 334
1118 694
1125 718
1129 281
1129 658
1135 353
1136 893
1140 304
1141 680
1148 375
1159 321
1161 893
1163 395
1164 691
1174 341
1175 417
1181 908
1184 364
1187 439
1189 695
1196 928
1198 385
1199 461
1209 408
1212 705
1214 946
1215 481
1224 428
1225 504
1230 971
1235 531
1236 450
1237 700
1248 989
1250 551
1251 470
1259 688
1260 574
1263 1009
1264 492
1270 597
1275 622
1275 1031
1279 673
1279 766
1282 510
1284 791
1288 649
1289 731
1290 1051
1294 532
1301 810
1304 701
1305 1071
1306 554
1314 578
1315 1094
1319 666
1319 828
1324 606
1325 1117
1329 631
1338 845
1340 1137
1349 1161
1355 864
1360 1186
1368 886
1375 1206
1383 906
1385 1229
1394 931
1395 1256
1409 951
1410 1276
1420 974
1425 1296
1434 995
1440 1316
1444 1018
1455 1336
1459 1038
1469 1061
1470 1356
1478 1380
1484 1081
1490 1402
1491 1105
1500 1129
1500 1426
1513 1151
1515 1446
1520 1471
1525 1173
1537 1195
1540 1486
1549 1217
1550 1511
1561 1239
1565 1531
1576 1259
1580 1551
1588 1281
1590 1574
1599 1306
1600 1597
1614 1326
1615 1617
1625 1349
1627 1639
1639 1370
1645 1657
1649 1393
1657 1679
1664 1413
1669 1701
1676 1435
1680 1724
1691 1455
1694 1745
1706 1475
1709 1765
1719 1497
1720 1788
1734 1517
1739 1805
1752 1535
1754 1825
1764 1557
1765 1848
1779 1577
1780 1868
1794 1597
1795 1888
1808 1910
1809 1621
1820 1936
1824 1641
1835 1956
1839 1661
1846 1979
1854 1681
1865 1996
1871 1700
1880 2016
1889 1718
1898 2034
1908 1735
1915 2053
1925 1754
1934 2070
1944 1771
1951 2089
1959 1791
1974 2099
1976 1810
1989 1832
1995 2113
2004 1852
2019 2120
2022 1870
2037 1890
2044 2124
2049 1912
2064 1932
2069 2116
2076 1954
2088 2098
2089 1976
2100 1999
2104 2066
2109 2023
