424 962
424 987
424 1012
434 1035
436 940
445 1058
454 922
460 1078
474 907
475 1098
495 1113
496 895
519 882
519 1120
541 870
542 1130
564 859
567 1135
587 849
590 1145
602 829
613 1155
614 807
636 794
638 1160
659 784
663 1165
682 774
687 1174
705 764
712 1175
728 754
737 1180
753 749
762 1185
778 744
787 1190
803 739
804 547
812 1190
814 570
826 534
828 739
836 583
837 1190
851 529
853 739
860 592
862 1190
873 724
874 657
874 682
876 529
884 600
884 632
887 1190
889 412
889 467
894 437
894 492
911 399
912 1190
936 399
937 1190
950 435
950 460
950 485
950 510
958 411
962 1190
975 514
975 590
975 615
975 640
975 665
975 690
975 715
975 740
987 1185
996 754
1000 514
1000 585
1012 1185
1018 766
1025 517
1025 580
1037 1185
1042 774
1050 522
1050 575
1062 1185
1067 774
1073 565
1075 527
1087 1185
1092 774
1112 1180
1117 774
1135 1170
1140 784
1160 1165
1164 791
1185 1160
1186 804
1209 814
1210 1155
1225 834
1234 1147
1245 849
1256 1135
1270 849
1281 1130
1293 859
1304 1120
1315 872
1327 1110
1334 889
1352 1104
1355 903
1373 921
1376 1095
1391 939
1394 1077
1406 959
1412 1059
1415 983
1424 1037
1425 1006
