409 987
409 1012
409 1037
414 962
419 1060
429 942
434 1080
447 924
457 1090
469 912
479 1102
491 900
501 1114
514 887
525 1122
536 875
549 1130
559 864
572 1140
579 832
591 810
597 1145
611 795
620 1155
635 786
645 1160
657 774
670 1165
680 764
693 1175
703 754
718 1180
728 749
743 1180
753 744
768 1185
778 744
793 1185
794 552
803 739
812 534
812 570
818 1185
828 739
835 524
835 580
843 1185
853 734
858 514
859 587
864 692
868 1185
874 667
877 605
879 630
883 514
893 1185
899 417
899 442
908 514
909 465
918 1185
921 404
943 1185
946 404
955 428
960 453
960 478
965 503
968 1185
970 590
970 615
970 640
970 665
970 690
970 715
974 527
975 740
993 1185
994 582
999 529
1000 744
1018 575
1018 1185
1024 529
1025 744
1043 570
1043 1185
1049 529
1050 749
1066 560
1068 1185
1073 536
1075 754
1093 1185
1100 759
1118 1185
1125 764
1143 1183
1150 767
1168 1178
1175 772
1192 1170
1200 777
1217 1165
1225 782
1242 1160
1247 794
1250 819
1250 844
1265 1150
1273 854
1288 1140
1296 864
1311 1130
1318 876
1331 1115
1340 888
1353 1103
1360 903
1371 1085
1382 915
1390 1065
1405 1045
1406 924
1418 1023
1429 934
1430 995
1440 957
