79 302
79 327
79 352
79 377
79 402
97 420
104 299
122 420
129 299
147 420
154 299
172 420
179 299
197 420
204 299
222 420
229 299
247 420
254 299
272 420
279 299
297 420
304 299
322 420
329 299
347 420
354 299
372 420
379 299
397 420
404 299
422 420
429 299
447 420
454 299
472 420
479 299
497 420
504 299
522 420
529 299
547 420
554 299
572 420
579 299
597 420
604 299
622 420
629 299
647 420
654 299
672 420
679 299
697 420
704 299
722 420
729 299
747 420
754 299
772 420
779 299
797 420
804 299
822 420
829 299
847 420
854 299
872 420
879 299
897 420
899 647
904 299
911 625
919 147
919 172
919 197
919 222
919 247
919 272
919 592
922 420
924 562
926 645
929 299
934 512
934 537
939 472
944 144
944 432
950 635
969 144
974 627
994 144
994 612
1018 603
1019 144
1038 588
1044 144
1056 570
1069 144
1071 550
1083 528
1094 144
1098 508
1110 485
1119 144
1120 460
1133 438
1138 413
1140 275
1140 300
1140 325
1140 350
1140 375
1144 144
1160 164
1160 189
1160 214
1160 239
