4 287
4 312
26 274
29 318
47 259
53 310
54 27
54 52
59 77
59 102
59 222
64 127
64 152
64 177
76 14
78 305
101 9
103 300
126 9
128 295
151 4
153 290
176 4
178 290
201 4
203 290
226 4
228 290
251 4
253 290
276 4
278 295
301 9
303 300
325 60
325 85
325 110
325 135
325 160
325 185
326 14
328 305
330 210
332 235
347 255
352 314
368 269
377 315
388 285
