209 582
209 607
209 632
209 657
209 682
209 707
219 547
219 730
229 512
229 753
239 487
239 776
249 799
254 467
259 822
272 449
274 842
289 862
290 431
301 884
309 412
316 904
327 394
331 924
345 376
349 942
367 364
367 960
387 349
387 975
407 334
409 987
429 322
433 995
451 310
456 1005
474 299
479 1015
499 294
504 1020
522 284
529 1020
547 284
554 1020
572 284
579 1020
597 284
604 1025
622 284
629 1025
647 284
654 1025
672 284
679 1020
697 284
704 1017
722 284
729 1015
747 284
754 1010
770 294
779 1005
795 299
804 1000
818 309
829 997
843 315
854 995
867 324
875 980
888 958
889 336
897 934
905 356
905 905
915 880
919 377
920 402
925 427
925 850
935 825
940 447
952 469
958 815
965 491
983 815
987 504
1008 820
1012 504
1033 820
1037 504
1058 820
1062 504
1083 815
1087 499
1108 810
1112 494
1130 795
1135 504
1153 785
1155 519
1178 529
1178 780
1203 535
1203 775
1225 547
1228 768
1247 559
1252 760
1270 569
1272 775
1295 569
1295 785
1316 555
1320 790
1340 546
1345 792
1365 544
1370 795
1390 539
1395 790
1415 539
1420 785
1439 546
1445 785
1463 554
1470 780
1488 559
1494 772
1511 569
1519 775
1534 579
1542 785
1559 574
1565 795
1582 564
1590 795
1607 559
1615 795
1632 559
1640 795
1655 569
1660 780
1680 574
1680 765
1699 591
1700 750
1717 609
1720 735
1735 627
1743 723
1750 647
1763 708
1765 667
