360 1621
360 1666
360 1691
360 1731
365 1761
370 1786
375 1816
379 1603
380 1841
380 1871
385 1896
396 1919
404 1601
405 1630
405 1655
405 1680
405 1943
405 1968
410 1705
410 1730
410 1993
416 1755
420 1785
420 2016
420 2046
430 1808
430 2069
435 1833
435 2101
440 1858
446 2124
450 1581
450 1895
451 2149
460 2173
465 1561
465 1915
468 1599
470 2196
475 1938
475 2226
480 1970
485 1618
485 2249
486 1995
490 1555
490 2274
495 2020
496 2299
498 1640
505 2323
510 2040
510 2351
515 1560
515 2376
516 1658
516 2065
520 2406
525 2090
525 2431
525 3036
525 3081
525 3106
525 3151
525 3191
528 1680
530 2456
530 2486
530 2981
530 3011
530 3216
530 3246
530 3301
535 2113
535 2516
535 2876
535 2901
535 2926
535 2956
535 3271
535 3326
539 1567
540 1702
540 2541
540 2816
540 2846
540 3351
545 2136
545 2566
545 2596
545 2651
545 2706
545 2736
545 2761
545 2791
545 3381
549 2621
550 2676
550 3406
552 1724
552 2160
554 1587
560 2184
560 3429
565 1610
565 1746
565 2210
570 1635
570 3452
575 3477
579 2231
582 1765
584 1656
585 2265
587 3499
595 2288
595 2313
599 1676
600 1783
600 3521
610 2333
610 2358
610 3546
614 1696
615 1803
615 2383
625 2406
625 2431
625 3571
629 1716
630 2465
630 2515
634 1820
635 2490
640 2540
640 3591
645 2570
645 2595
649 1731
650 2630
650 2720
650 2815
650 2900
654 1835
655 2655
655 2680
655 2755
655 2845
655 2940
655 3035
655 3065
655 3105
655 3145
655 3611
656 2780
660 2870
660 2970
660 2995
660 3180
660 3215
664 1751
665 3245
665 3270
666 3295
666 3634
671 1854
675 3319
675 3350
680 1526
684 1766
685 1696
685 3373
685 3651
686 1874
690 1656
693 1720
695 1566
695 1611
695 3396
700 1746
703 1515
705 1780
705 3419
705 3666
706 1889
715 3442
716 3689
725 1528
725 3465
726 1905
736 3704
744 3482
745 1543
745 1635
747 1919
750 1660
755 1605
755 1685
755 1710
756 3504
756 3719
760 1563
765 1733
767 1934
770 1636
770 3740
771 3524
777 1755
778 1660
780 1691
789 1946
790 3755
791 3540
795 1630
806 3560
809 1961
810 2311
811 3769
816 1644
820 2271
826 3575
828 2329
829 1976
830 1730
830 1760
830 2246
835 1785
835 3776
836 1659
840 2216
843 1708
844 3593
845 1683
846 1995
850 1745
850 2186
852 2320
855 2156
859 3785
864 1722
866 3605
867 2009
870 2136
874 2307
880 2106
882 2029
883 3794
885 2061
886 1735
889 2287
889 3616
890 1815
890 1840
890 2245
891 1865
900 1785
900 2215
901 1755
908 3795
911 1880
914 3621
915 1676
915 1706
915 1731
915 1816
919 2197
920 1841
922 1769
925 2170
928 1654
930 2145
931 3805
938 3630
943 1634
945 2115
955 1611
956 3805
958 3645
965 2100
979 1603
980 3812
983 3645
989 2092
1004 1600
1005 3811
1008 3645
1013 2085
1029 1600
1030 3811
1033 3645
1038 2078
1054 1605
1055 3810
1056 2060
1058 3639
1074 2042
1077 1615
1080 3805
1083 3635
1089 2022
1095 1995
1097 1630
1100 1571
1105 1501
1105 1526
1105 1596
1105 1970
1105 3805
1106 3625
1110 1476
1110 2101
1110 2156
1110 2201
1113 2014
1115 1446
1115 2039
1115 2064
1115 2126
1120 1416
1120 2224
1125 2256
1125 2281
1128 3795
1130 2311
1131 3624
1135 1386
1135 2336
1140 1361
1140 2366
1150 2389
1153 3798
1154 3613
1155 1336
1155 2421
1165 1306
1165 2444
1170 2476
1175 2501
1175 3785
1178 3604
1180 1281
1183 2525
1191 2549
1195 1251
1200 2573
1200 3591
1200 3780
1205 2598
1214 1233
1215 2621
1219 1208
1224 3583
1225 2644
1225 3775
1231 1185
1235 2667
1240 526
1244 3568
1245 1156
1247 2689
1248 550
1248 3765
1259 2711
1260 1136
1262 3550
1264 518
1265 2736
1266 568
1270 416
1270 3750
1273 1114
1275 592
1275 2759
1280 3531
1285 436
1285 621
1285 1086
1285 2782
1289 516
1290 400
1293 3740
1295 646
1295 2806
1295 3511
1300 456
1300 686
1300 1061
1305 481
1305 716
1305 2829
1310 741
1310 3491
1313 505
1315 396
1315 1041
1315 2852
1316 3730
1320 3461
1325 761
1325 2875
1330 786
1330 1016
1335 2901
1335 3441
1336 410
1336 3715
1340 2926
1348 804
1350 440
1350 996
1350 3411
1355 2946
1358 3703
1360 417
1360 826
1365 386
1365 976
1365 2969
1365 3381
1370 351
1370 2996
1370 3356
1376 3685
1377 845
1380 3019
1384 958
1385 3051
1385 3326
1394 3667
1395 348
1395 863
1395 3081
1395 3301
1396 935
1400 3106
1400 3276
1405 3141
1410 2280
1410 3166
1410 3191
1410 3216
1410 3241
1411 915
1413 3650
1415 363
1415 878
1420 2303
1420 2328
1420 2353
1425 386
1425 411
1425 525
1425 2378
1430 3625
1435 605
1435 2401
1435 2426
1440 2451
1442 430
1443 2314
1444 507
1445 628
1445 2476
1448 535
1450 2501
1453 483
1453 3613
1455 590
1457 650
1460 448
1460 2333
1460 2524
1465 554
1465 2549
1465 3585
1475 668
1475 2353
1475 2572
1484 692
1484 3567
1485 2595
1490 2373
1495 2618
1495 2643
1496 3545
1500 2125
1503 675
1505 2393
1505 2666
1510 2148
1514 3527
1515 2689
1520 651
1520 2413
1523 2115
1524 2713
1525 3490
1528 2166
1530 2738
1533 2435
1535 631
1540 2761
1540 3465
1545 2790
1546 2105
1549 2180
1550 3435
1553 2450
1555 1845
1555 2813
1555 2838
1558 619
1560 2320
1560 2863
1560 3410
1568 2470
1569 2095
1570 1820
1570 2240
1570 2886
1570 3370
1574 2183
1577 2910
1580 1850
1580 2208
1580 2370
1580 2492
1580 3340
1582 610
1585 1800
1585 2934
1585 3310
1590 2075
1590 2255
1590 2393
1590 2515
1590 2959
1590 3275
1595 1775
1595 2984
1595 3230
1600 2541
1600 3009
1602 595
1605 1853
1605 3034
1605 3059
1605 3084
1605 3110
1605 3145
1605 3170
1605 3200
1608 2411
1610 1750
1610 2060
1615 571
1615 2260
1615 2561
1620 1725
1623 2431
1626 2584
1628 549
1629 1861
1633 1703
1633 2048
1634 2277
1635 2453
1640 526
1641 2604
1645 1675
1645 2476
1645 2766
1646 2629
1647 2424
1650 496
1654 1865
1655 1650
1655 2035
1655 2499
1655 2653
1655 2706
1655 2789
1656 2289
1660 471
1660 2678
1660 2731
1662 2444
1665 1620
1665 2522
1670 426
1670 1595
1673 2546
1675 2020
1675 2380
1675 2466
1677 1875
1678 2301
1680 1565
1680 2570
1680 2785
1683 2490
1685 401
1685 2350
1689 2401
1690 1540
1690 2323
1690 2516
1694 2002
1695 2590
1699 1887
1700 371
1700 2539
1700 2760
1703 1518
1705 2613
1706 1980
1709 2416
1710 2562
1714 1907
1714 2637
1715 1480
1715 2665
1718 1958
1720 356
1720 1455
1720 2735
1723 1931
1724 2436
1725 2688
1730 1420
1730 2577
1734 2712
1735 1390
1739 2456
1740 341
1748 2558
1750 1365
1750 2479
1755 2504
1757 2534
1760 326
1760 1335
1770 1290
1780 311
1780 1265
1785 1235
1795 1210
1800 296
1800 1170
1810 1130
1820 276
1820 1070
1820 1105
1830 1030
1840 260
1849 1012
1855 236
1874 1007
1875 221
1898 209
1898 998
1910 825
1913 978
1918 194
1920 850
1925 885
1925 955
1929 807
1935 175
1935 908
1941 785
1956 160
1956 765
1970 740
1976 145
1993 728
1999 133
2010 705
2014 113
2025 685
2029 93
2048 673
2051 80
2068 658
2076 75
2077 634
2085 610
2090 580
2101 80
2109 562
2120 535
2126 84
2133 513
2140 480
2145 455
2146 99
2150 345
2150 385
2150 430
2160 315
2165 280
2166 114
2170 250
2175 205
2178 136
2180 165
