84 737
89 762
94 712
99 785
109 692
119 800
129 677
139 815
149 587
149 612
149 657
154 562
164 537
164 815
179 517
189 820
197 499
204 840
217 484
219 860
239 472
239 875
262 885
263 464
287 890
288 459
312 890
313 459
337 895
338 454
362 895
363 449
383 434
387 895
391 410
400 386
409 907
412 364
427 925
430 346
442 945
452 334
462 960
477 329
482 975
502 324
505 985
527 324
530 415
530 990
540 390
549 336
550 365
551 429
555 995
576 429
580 995
601 429
605 990
626 424
630 990
651 424
653 980
673 965
676 419
695 950
701 415
714 932
726 414
734 917
751 414
758 910
776 409
783 910
801 409
808 915
826 404
833 915
851 400
858 915
876 399
883 915
901 399
908 920
926 394
933 920
951 389
958 920
970 371
983 920
985 351
1004 332
1008 920
1019 312
1033 920
1034 292
1051 938
1052 274
1059 962
1069 985
1072 259
1084 1005
1090 241
1099 1025
1110 226
1116 1044
1129 207
1136 1060
1149 192
1157 1074
1167 174
1180 1085
1189 162
1203 1095
1209 147
1228 1100
1231 135
1253 1100
1255 126
1278 1098
1279 119
1303 1095
1304 114
1328 1088
1329 114
1352 1080
1354 114
1375 1070
1379 109
1395 1055
1404 109
1414 1037
1429 109
1432 1019
1447 999
1454 109
1459 977
1470 950
1479 109
1480 925
1493 903
1504 111
1517 895
1529 109
1542 890
1554 109
1567 895
1579 109
1587 910
1604 109
1610 920
1629 109
1633 930
1654 114
1656 940
1679 109
1681 945
1704 109
1706 945
1729 114
1731 940
1754 114
1756 935
1779 114
1781 930
1801 915
1804 114
1821 900
1829 119
1839 882
1854 119
1863 875
1879 119
1888 875
1904 124
1913 870
1929 129
1938 870
1954 129
1963 870
1979 134
1988 870
2002 144
2010 882
2022 904
2027 149
2034 926
2046 948
2050 159
2064 966
2075 164
2082 984
2098 174
2104 996
2120 187
2125 1010
2142 199
2149 1017
2164 211
2174 1020
2184 226
2199 1025
2204 241
2224 256
2224 1025
2244 271
2249 1020
2262 289
2272 1010
2282 304
2295 1000
2302 319
2315 985
2322 334
2335 970
2340 352
2350 950
2362 364
2365 930
2375 905
2382 379
2388 883
2395 855
2404 391
2408 833
2426 404
2432 825
2446 419
2457 820
2469 429
2482 820
2490 443
2507 814
2512 455
2530 473
2532 809
2548 491
2556 800
2560 513
2565 538
2570 563
2570 588
2570 613
2570 645
2574 782
2575 670
2589 691
2589 762
2590 735
