404 577
409 552
409 602
414 512
419 477
419 625
424 447
424 650
429 675
434 412
434 700
441 724
444 382
454 746
456 360
471 340
474 761
486 320
495 775
499 297
514 277
520 770
529 257
545 770
547 239
565 221
568 758
584 202
588 743
602 184
605 720
622 169
625 705
642 154
650 705
666 145
675 705
690 136
700 705
714 129
725 705
737 119
750 705
762 114
775 710
786 105
800 710
811 99
825 715
836 99
850 715
861 94
875 715
886 94
900 720
911 94
925 720
936 94
950 725
961 94
975 730
986 99
994 747
1011 99
1014 762
1036 99
1036 775
1059 785
1061 99
1082 795
1086 99
1107 800
1111 104
1132 800
1136 104
1157 800
1161 109
1182 800
1186 109
1207 795
1211 114
1232 789
1236 119
1254 777
1261 119
1274 762
1286 124
1296 750
1311 129
1319 740
1335 137
1344 740
1359 144
1369 735
1382 154
1394 735
1405 164
1419 735
1428 175
1444 730
1449 189
1469 730
1472 199
1494 211
1494 735
1516 224
1519 735
1536 239
1544 740
1556 254
1569 740
1574 272
1594 287
1594 740
1614 302
1617 750
1634 317
1637 765
1656 329
1657 780
1680 337
1680 790
1704 344
1705 790
1727 354
1730 785
1752 359
1755 785
1775 369
1780 785
1798 379
1805 780
1821 389
1828 768
1843 401
1843 748
1861 730
1865 414
1883 718
1885 429
1900 449
1907 710
1915 469
1915 605
1915 630
1920 580
1922 654
1925 492
1925 517
1925 555
1927 694
