159 592
159 617
159 642
159 667
159 692
159 717
164 532
164 557
164 742
174 765
182 514
189 785
207 509
211 798
231 500
235 807
254 487
260 810
274 472
284 817
294 457
294 840
301 864
314 442
314 886
329 906
336 429
349 921
356 414
369 936
377 399
391 948
399 387
415 955
419 372
439 357
440 955
461 345
465 950
484 332
489 942
508 324
513 933
528 309
533 918
551 299
551 900
573 888
574 289
597 279
598 890
620 269
623 895
644 262
648 900
668 254
673 905
693 249
698 905
716 239
723 910
741 239
748 915
766 234
773 920
791 234
798 925
816 229
823 930
841 229
848 935
866 229
873 940
891 229
898 945
916 229
923 950
941 224
948 955
966 224
973 960
991 220
997 969
1009 991
1014 197
1017 1015
1019 172
1029 127
1029 1037
1047 109
1047 1055
1065 1073
1072 104
1085 1088
1097 104
1107 1100
1122 109
1130 1110
1135 131
1135 156
1140 181
1145 206
1155 1115
1163 224
1180 1120
1188 224
1205 1120
1213 229
1228 1110
1238 229
1251 1100
1263 234
1274 1090
1288 239
1293 1073
1311 1055
1313 244
1329 1037
1336 254
1351 1025
1360 262
1376 1025
1382 274
1401 1025
1404 286
1426 299
1426 1030
1446 314
1451 1033
1464 332
1476 1035
1484 347
1501 1040
1504 362
1524 377
1526 1040
1542 395
1551 1040
1560 413
1576 1040
1578 431
1596 449
1601 1045
1621 454
1626 1045
1646 459
1651 1045
1671 459
1676 1045
1696 464
1701 1050
1721 469
1726 1055
1746 469
1751 1050
1771 474
1776 1050
1796 479
1801 1045
1821 479
1826 1045
1846 484
1851 1050
1871 489
1876 1055
1896 489
1901 1055
1921 494
1926 1055
1946 499
1948 1043
1970 1030
1971 499
1993 1018
1996 504
2017 1010
2021 509
2042 1005
2044 519
2067 1000
2069 519
2092 529
2092 995
2117 534
2117 990
2140 544
2142 985
2163 555
2167 980
2185 567
2192 975
2207 579
2217 969
2227 594
2241 960
2245 612
2259 942
2260 632
2278 650
2279 927
2290 672
2295 697
2299 912
2300 722
2300 747
2300 772
2300 797
2308 821
2311 890
2320 843
