634 1127
652 1145
654 1112
677 1145
678 1104
702 1145
703 1104
704 772
714 747
722 790
724 722
727 1150
728 1104
729 692
739 667
744 777
749 642
752 1150
753 1105
761 620
768 770
774 592
777 1114
777 1155
784 567
791 760
794 307
794 332
794 357
794 382
794 407
794 537
802 1119
802 1160
804 277
804 430
809 512
815 453
816 755
819 257
819 1042
819 1067
824 1002
825 1129
827 494
827 1160
829 922
829 947
829 972
829 1090
834 237
839 897
841 750
844 1110
849 862
851 1134
852 219
852 1160
861 840
866 750
874 207
874 812
877 1159
886 790
890 1125
891 750
895 1040
895 1065
895 1090
896 194
920 186
920 1040
944 179
945 1040
969 184
970 1040
974 1142
989 1117
990 198
993 1050
994 1075
996 1155
1008 216
1015 395
1020 238
1020 675
1021 1155
1025 360
1032 260
1035 335
1039 404
1040 660
1040 1030
1040 1055
1040 1080
1040 1105
1043 685
1045 310
1045 760
1045 785
1045 810
1045 835
1045 860
1046 1158
1047 280
1050 885
1055 910
1060 645
1060 935
1063 1020
1064 404
1064 1114
1067 694
1070 760
1070 958
1071 1160
1080 630
1088 1020
1089 404
1089 706
1089 1114
1093 770
1095 964
1096 1160
1099 362
1104 337
1104 622
1104 793
1111 719
1113 1020
1114 307
1114 816
1114 1114
1120 600
1120 964
1121 1163
1129 287
1130 736
1131 835
1138 1025
1139 1114
1140 585
1140 759
1145 967
1146 1165
1151 275
1152 849
1163 769
1163 1030
1164 1114
1165 585
1170 969
1171 1170
1176 274
1177 844
1188 769
1188 1030
1189 1119
1190 585
1195 969
1196 1170
1198 830
1201 274
1212 1129
1213 775
1213 1035
1215 585
1219 962
1223 823
1226 274
1235 787
1237 944
1238 575
1238 1035
1251 274
1252 924
1260 1020
1263 570
1264 897
1274 872
1275 1000
1276 279
1285 555
1288 978
1289 852
1293 953
1295 910
1300 287
1301 830
1304 537
1305 885
1314 792
1315 860
1319 517
1322 299
1324 757
1325 837
1330 490
1333 813
1336 735
1339 787
1340 317
1340 460
1349 762
1350 340
1350 415
1351 715
1355 365
1355 390
1361 740
1374 704
1385 730
1399 704
1413 725
