149 542
149 567
149 592
154 507
154 617
159 642
159 742
164 472
174 447
177 724
181 655
183 749
186 425
199 397
200 714
204 357
205 645
207 740
210 615
220 580
221 700
226 345
230 555
232 735
241 325
243 533
244 687
252 509
254 302
257 729
264 487
266 675
270 455
272 284
281 720
290 266
290 415
291 669
295 455
303 393
305 710
309 247
314 659
315 370
324 227
330 350
330 705
339 652
344 212
345 330
355 705
360 310
363 644
366 199
378 695
379 292
387 184
388 639
397 274
403 693
409 172
413 634
417 259
428 690
431 160
437 244
438 629
453 685
454 147
459 232
463 624
476 135
478 680
479 217
488 619
501 129
503 208
503 680
513 614
524 119
525 195
528 675
537 604
549 114
550 190
553 670
562 599
574 109
575 185
578 665
587 594
599 104
599 177
603 660
612 589
624 99
624 175
628 655
635 579
649 99
649 175
653 648
659 572
674 99
674 170
678 643
683 564
699 99
699 175
702 634
708 559
724 99
724 175
724 622
731 549
747 185
749 104
749 617
754 537
770 195
773 610
774 109
774 522
793 205
795 123
795 595
796 509
811 223
815 491
815 580
818 134
829 241
830 471
838 568
841 144
844 447
847 259
854 283
858 553
859 422
861 159
864 306
869 331
871 400
874 356
879 177
880 540
895 520
897 195
910 217
910 495
920 470
922 239
933 448
935 261
940 286
940 420
945 311
950 375
955 334
