199 827
204 677
204 727
204 787
209 702
209 752
209 850
214 617
214 642
214 877
219 902
224 577
229 925
234 957
236 555
239 982
244 497
249 522
249 1005
254 1030
259 447
259 477
265 1053
274 1077
274 1102
279 427
279 1127
289 1150
294 407
304 382
304 1170
311 1194
322 364
324 337
326 1214
329 1239
339 1262
346 325
349 1285
354 1310
364 307
369 1330
369 1355
374 277
386 1374
389 1399
396 265
396 1423
409 1445
409 1470
415 675
416 250
420 645
420 725
425 555
425 615
429 696
429 1485
434 232
434 746
435 578
435 785
439 1508
445 535
449 806
449 1531
450 831
452 214
453 856
454 1567
455 505
464 1590
468 483
469 1615
470 875
470 900
474 1640
476 205
483 463
485 920
489 1660
490 945
492 1685
495 435
499 194
504 966
504 1707
509 1732
510 991
513 1016
518 423
519 179
524 1752
533 403
535 1028
539 1772
540 1053
542 169
544 1797
545 1078
550 1103
551 385
559 1127
562 1815
566 160
566 365
570 1150
572 1175
574 1837
579 1862
584 1197
588 353
589 149
590 1222
594 1882
602 1244
606 335
610 1268
614 142
616 1894
624 1918
625 1288
626 320
635 1311
639 144
642 1335
643 1935
649 310
650 1359
659 1955
660 1382
664 137
672 1404
673 303
674 1975
687 1424
689 139
696 1988
698 300
705 1442
705 1467
714 136
715 1490
719 1998
720 1515
720 2023
723 300
734 1536
739 139
739 2040
748 300
749 1556
750 1581
754 2060
764 142
770 1597
770 1622
773 305
774 1647
774 2075
780 1672
780 1697
780 1785
780 1810
785 1745
789 144
795 1717
795 1830
797 2085
798 310
800 1855
807 1879
814 149
820 1901
821 320
822 2080
823 1926
830 1975
835 163
840 1945
840 2025
844 330
845 2065
847 1994
860 164
866 343
884 171
891 345
906 184
907 365
929 194
929 377
947 395
952 204
965 413
972 219
977 435
992 234
992 455
1007 254
1007 475
1019 497
1019 927
1020 276
1024 522
1024 952
1029 557
1034 907
1038 294
1039 597
1039 622
1044 677
1044 877
1049 645
1049 702
1049 727
1049 752
1049 777
1049 802
1049 827
1049 852
1049 955
1050 316
1064 337
1070 925
1079 357
1085 905
1091 379
1100 885
1105 400
1105 855
1110 425
1118 833
1120 448
1125 485
1125 785
1130 510
1130 535
1130 810
1135 755
1140 558
1140 585
1140 610
1140 645
1140 670
1140 715
