49 382
49 407
49 432
54 457
59 347
64 480
69 322
74 503
81 300
87 525
90 400
90 425
94 277
95 375
95 450
102 474
105 350
107 540
112 259
118 328
122 489
127 239
130 305
130 550
146 496
147 224
149 287
155 550
165 206
167 269
171 490
179 542
187 194
188 255
195 481
201 530
210 184
211 245
214 462
219 512
229 442
231 230
233 174
237 494
244 422
252 474
254 220
255 161
256 400
267 454
271 380
277 149
277 209
280 430
286 360
293 408
297 134
298 195
301 340
308 388
316 320
317 119
320 180
323 368
334 302
335 345
337 104
345 175
352 284
354 327
360 94
367 264
369 167
369 307
382 244
384 287
385 89
389 152
394 222
396 265
409 96
410 242
411 140
412 204
429 122
