139 822
139 847
139 872
139 897
139 922
139 947
144 797
149 772
149 970
156 994
159 747
164 1018
169 1043
175 1068
177 729
187 1090
195 711
202 1110
217 699
222 1125
240 689
242 1140
262 1155
263 679
282 1170
286 669
304 1182
309 657
324 1197
327 639
346 1210
349 627
369 612
371 1215
391 599
396 1220
412 584
420 1227
436 575
438 1245
458 1260
461 569
482 1269
486 564
507 1275
510 556
530 1285
534 549
555 1290
559 544
578 1300
584 539
603 1305
609 532
628 1310
633 524
653 1315
658 519
678 1320
683 514
703 1325
708 509
728 1325
733 504
753 1325
758 499
778 1320
783 494
803 1320
808 494
826 1330
833 494
851 1330
858 494
876 1330
883 489
901 1325
906 479
926 1325
929 467
951 454
951 1320
974 442
976 1315
998 434
1001 1310
1018 419
1025 1300
1041 409
1050 1295
1064 399
1073 1285
1087 389
1096 1275
1112 384
1118 1263
1134 372
1140 1250
1154 357
1160 1235
1172 339
1180 1220
1189 252
1189 277
1192 324
1199 192
1199 217
1199 300
1200 1205
1209 167
1223 1193
1224 142
1242 124
1243 1178
1265 114
1265 1165
1285 99
1290 1160
1308 89
1314 1152
1333 89
1339 1150
1358 94
1363 1143
1383 100
1387 1134
1403 115
1412 1130
1420 134
1435 154
1437 1130
1448 176
1455 200
1462 1135
1472 219
1487 1130
1497 214
1509 192
1512 1130
1533 184
1537 1125
1556 174
1562 1125
1579 164
1587 1125
1601 150
1612 1125
1625 141
1637 1125
1650 139
1662 1129
1675 139
1687 1130
1700 142
1712 1135
1724 149
1732 1150
1747 159
1754 1162
1770 169
1774 1177
1795 174
1796 1190
1820 179
1821 1195
1845 184
1846 1200
1869 1210
1870 187
1894 1215
1895 192
1919 199
1919 1220
1944 204
1944 1220
1968 211
1969 1220
1992 219
1994 1220
2017 224
2019 1217
2040 234
2044 1215
2065 234
2069 1220
2090 234
2094 1217
2115 234
2119 1212
2140 229
2144 1210
2165 224
2169 1207
2189 217
2193 1200
2214 212
2218 1195
2238 204
2243 1190
2263 199
2266 1180
2288 204
2289 1170
2310 1155
2313 210
2330 1140
2337 219
2350 1125
2357 234
2369 1107
2375 252
2385 1085
2390 272
2402 294
2404 1067
2410 318
2416 1045
2422 340
2428 1023
2434 362
2437 999
2445 960
2446 384
2455 925
2458 406
2460 885
2465 860
2470 428
2475 830
2480 451
2485 805
2490 474
2498 783
2500 497
2500 522
2507 759
2510 545
2515 570
2515 595
2515 620
2515 645
2515 670
2515 695
2515 720
