449 957
449 982
449 1007
449 1032
449 1057
454 932
459 1080
462 1105
464 887
469 1129
474 857
484 832
484 1149
494 67
494 92
496 810
499 1169
506 114
509 47
514 792
516 1188
519 136
524 161
529 186
529 772
531 34
534 211
535 1205
539 236
544 261
547 754
549 286
554 311
554 336
555 1220
556 34
559 361
564 386
564 411
564 702
564 727
569 436
569 461
569 657
574 486
574 511
574 536
574 561
574 586
574 611
576 49
578 1230
594 67
600 1242
605 90
610 115
615 140
622 164
624 1250
625 189
635 212
639 237
644 262
645 850
645 875
645 900
645 925
645 950
645 975
645 1000
645 1025
649 1247
650 287
650 312
650 805
650 1050
652 1075
655 337
655 362
655 760
660 387
660 412
660 715
660 1099
665 437
665 462
665 665
665 690
665 1124
669 1232
670 487
670 512
670 537
670 562
670 587
670 612
670 637
670 1149
675 1174
680 1199
