54 912
54 937
66 959
69 892
84 977
87 874
106 990
107 859
129 847
131 995
151 835
156 990
174 824
181 985
194 809
203 973
214 794
225 960
236 780
248 948
256 765
270 935
279 752
290 920
301 739
309 902
322 724
331 890
342 709
351 875
364 697
371 860
384 682
393 848
404 667
411 830
422 649
431 815
444 637
449 797
464 622
469 782
484 607
487 764
504 592
507 749
524 577
527 734
546 565
549 722
569 554
569 707
589 692
591 540
607 674
609 522
627 659
631 510
645 640
651 495
664 622
669 477
674 382
674 407
674 432
679 357
682 604
689 327
701 305
702 589
716 285
717 569
731 265
734 550
749 247
759 555
767 229
784 560
787 214
807 199
809 560
830 189
834 565
853 179
859 565
875 166
884 565
899 159
909 560
922 149
932 550
947 144
955 540
970 134
978 528
995 129
998 513
1018 498
1020 124
1038 483
1045 124
1056 465
1070 124
1076 450
1094 432
1095 129
1112 414
1118 140
1130 390
1138 155
1143 368
1155 174
1155 345
1165 310
1170 194
1178 288
1180 217
1180 242
