30 421
30 446
35 396
38 470
40 356
43 495
53 334
55 517
60 542
61 310
70 286
70 565
80 435
84 586
85 266
85 405
86 460
90 380
95 355
95 484
99 606
100 509
104 248
110 320
110 532
117 624
120 226
121 555
125 300
125 386
129 411
130 361
135 642
136 575
140 210
140 280
140 331
140 434
150 457
151 595
157 655
159 262
159 313
160 195
162 479
171 610
174 293
175 395
178 245
180 370
180 665
182 495
183 184
185 340
185 418
192 275
196 610
197 440
200 230
200 315
204 170
205 505
205 665
212 260
217 455
221 610
223 218
223 303
227 160
230 505
230 665
232 245
242 450
245 290
246 610
247 210
252 155
255 235
255 411
255 500
255 660
266 595
270 200
270 290
275 145
278 400
278 488
278 648
280 235
291 590
295 195
295 291
295 455
300 140
300 413
302 639
303 245
314 578
316 305
319 187
324 133
324 627
326 255
334 563
339 315
344 182
345 610
348 125
349 265
355 546
356 334
368 173
368 598
369 281
371 115
375 351
375 530
385 506
386 300
388 583
390 371
393 170
396 115
400 476
404 318
405 391
408 568
410 426
410 451
418 165
421 110
423 335
425 545
438 523
440 354
443 160
446 110
450 377
450 480
460 450
464 398
465 423
468 160
471 110
493 165
496 115
510 1291
510 1316
510 1341
515 1156
515 1181
515 1211
515 1236
515 1261
515 1366
518 170
521 120
525 1116
530 1386
538 185
540 876
540 901
540 926
540 951
540 976
540 1001
540 1026
540 1066
540 1096
541 1409
544 130
545 811
545 851
555 726
555 751
555 776
556 203
560 701
560 1426
564 145
570 224
570 626
570 651
570 676
578 1444
580 601
585 159
585 244
585 551
585 576
590 875
590 900
590 925
590 950
590 975
590 1000
591 1025
595 267
595 486
595 516
595 805
595 830
595 1463
595 1488
596 1050
598 181
600 292
600 745
605 317
605 456
605 770
605 1511
609 1072
610 203
610 342
610 367
610 392
610 417
610 690
610 715
610 1536
614 1561
615 645
620 1596
624 1092
625 610
625 1621
628 221
630 570
635 1644
636 1669
640 243
640 535
640 1112
641 1694
644 268
645 500
650 293
650 475
650 1718
655 318
655 1743
658 1130
660 343
660 368
660 393
660 418
660 443
660 1768
665 1580
665 1793
670 1605
673 1150
675 1630
675 1816
675 1841
684 1173
685 1653
686 1864
689 1572
690 1198
690 1678
694 1223
698 1548
699 1702
700 1500
700 1727
700 1885
705 1246
705 1752
710 1470
710 1908
715 1269
715 1365
715 1390
715 1415
715 1775
715 1800
720 1294
720 1440
723 1930
725 1319
725 1823
730 1848
740 1949
748 1866
755 1636
755 1661
755 1686
755 1711
755 1890
756 1969
760 1736
765 1761
770 1611
770 1786
770 1910
776 1984
778 1810
786 1930
790 1595
790 1832
799 1995
805 1645
805 1670
805 1695
805 1720
806 1575
806 1945
808 1850
815 1743
819 1768
822 2005
824 1793
825 1630
828 1865
829 1563
829 1955
839 1813
844 1612
847 2005
851 1550
851 1875
854 1955
859 1828
864 1597
872 2005
874 1540
874 1885
875 1736
879 1761
879 1955
883 1835
885 1701
889 1595
897 1779
897 1895
897 2005
899 1540
900 1676
904 1955
906 1845
914 1595
919 1658
919 1767
922 1900
922 2005
924 1541
928 1743
929 1955
931 1845
935 1715
937 1640
939 1600
947 1895
947 2005
948 1550
954 1697
954 1833
954 1950
962 1635
964 1605
969 1882
970 1995
973 1555
974 1818
977 1940
978 1689
987 1640
989 1610
990 1796
990 1865
993 1985
995 1708
996 1565
997 1925
1005 1731
1005 1756
1009 1652
1010 1850
1012 1620
1015 1906
1015 1965
1020 1573
1029 1667
1029 1832
1030 1638
1034 1888
1035 1950
1044 1581
1044 1687
1044 1812
1053 1711
1054 1645
1054 1873
1056 1790
1058 1938
1060 1735
1060 1760
1061 1600
1069 1853
1070 1665
1076 1920
1084 1833
1085 1608
1090 1681
1091 1900
1096 1810
1100 1628
1105 1701
1105 1776
1109 1882
1110 1726
1110 1751
1119 1645
1124 1862
1135 1835
1139 1661
1150 1684
1150 1795
1160 1707
1160 1760
1165 1732
