165 2361
165 2386
165 2411
170 2336
170 2436
175 2461
180 2311
180 2486
190 2509
195 2291
200 2532
212 2554
214 2273
225 2576
232 2255
235 2370
235 2395
240 2420
241 2445
243 2594
245 2340
250 2469
252 2240
255 2494
260 2320
260 2613
268 2516
270 2221
273 2635
279 2302
280 2538
291 2653
293 2209
298 2556
299 2287
310 2371
310 2396
310 2421
310 2446
311 2668
315 2191
315 2471
315 2575
318 2270
320 2336
330 2491
331 2595
331 2683
335 2176
335 2311
341 2260
345 2511
349 2613
349 2701
354 2293
356 2240
360 2170
360 2531
369 2628
370 2715
374 2278
377 2550
380 2385
380 2410
380 2435
381 2235
383 2159
386 2460
388 2645
390 2355
390 2731
395 2568
396 2265
401 2480
403 2223
407 2150
408 2660
409 2337
411 2745
415 2583
419 2255
419 2498
427 2215
428 2675
431 2325
432 2145
435 2598
435 2752
439 2513
440 2366
440 2391
440 2416
444 2255
450 2205
451 2439
451 2685
452 2339
455 2135
458 2609
459 2528
459 2760
469 2256
471 2454
475 2205
476 2690
480 2131
481 2540
483 2615
484 2765
489 2271
496 2455
498 2195
501 2695
505 2125
506 2545
508 2615
509 2286
509 2765
521 2455
523 2195
526 2695
530 2125
531 2299
531 2540
533 2610
534 2765
544 2445
548 2195
551 2314
551 2695
554 2528
555 2125
556 2600
559 2765
565 2335
565 2430
570 2360
573 2200
576 2385
576 2695
578 2520
579 2590
580 2130
580 2410
584 2765
593 2215
598 2504
601 2695
602 2580
603 2140
609 2765
613 2230
620 2486
625 2153
625 2570
626 2690
631 2248
633 2464
634 2762
640 2436
645 2168
645 2401
645 2555
649 2680
650 2376
651 2263
655 2336
658 2753
660 2287
660 2535
665 2183
672 2670
680 2515
680 2740
683 2201
690 2646
695 2495
701 2219
703 2728
705 2465
705 2626
715 2415
715 2440
716 2239
720 2385
723 2713
724 2608
725 2345
728 2261
730 2286
730 2311
730 2581
741 2695
745 2561
756 2675
760 2541
770 676
770 701
770 726
770 751
770 776
770 801
774 2657
775 826
775 851
775 2516
780 636
780 2481
783 875
785 596
785 991
785 1046
785 2451
785 2630
790 506
790 531
790 556
790 899
790 924
790 949
790 1016
790 1071
790 1096
790 1121
790 1146
790 1171
790 1196
790 1221
790 1246
795 1271
795 1296
795 1321
795 1346
795 1371
795 2406
795 2600
800 451
800 476
803 1395
805 396
805 421
805 1420
805 1445
805 1470
805 1495
805 1520
805 2346
805 2371
810 371
810 1545
810 1570
810 2291
810 2316
815 1595
815 1726
815 1781
815 1821
815 1861
815 1901
815 1941
815 1981
815 2246
815 2580
818 1620
820 341
820 1645
820 1670
820 1695
820 1751
820 2006
820 2031
820 2056
820 2081
820 2106
820 2131
820 2156
820 2181
820 2206
828 2558
830 316
835 281
835 2530
840 2500
845 256
845 1430
850 2465
855 2430
860 236
865 2405
879 218
880 2370
890 730
890 755
890 780
890 805
890 2345
891 195
895 830
895 855
896 880
900 2245
900 2270
900 2295
900 2320
905 904
905 929
905 2215
910 176
910 525
910 615
910 715
910 2190
915 565
915 952
915 2160
920 490
920 590
920 638
920 663
920 688
920 977
920 2130
925 156
925 1002
925 1027
925 1052
925 1080
925 1105
925 1135
925 1250
925 1275
925 2090
930 1160
930 2055
935 1205
935 1298
935 1910
935 1935
935 1960
935 1985
935 2010
940 1230
940 1323
944 138
945 485
945 1348
945 1385
945 1425
945 1475
945 1525
945 1575
945 1615
945 1665
945 1715
945 1755
945 1795
945 1835
945 1860
945 1885
950 1450
950 1500
950 1550
950 1640
950 1690
964 467
966 125
973 443
975 400
985 106
988 378
997 354
1005 91
1012 334
1025 310
1028 79
1048 300
1052 70
1071 290
1077 65
1095 280
1102 65
1119 272
1125 566
1125 591
1127 65
1130 616
1135 541
1135 641
1141 260
1143 665
1145 516
1150 689
1152 65
1160 491
1160 712
1164 250
1172 734
1177 70
1180 476
1180 758
1185 235
1193 454
1195 575
1195 778
1200 600
1202 75
1205 625
1208 553
1210 230
1210 650
1211 435
1215 793
1220 530
1220 673
1226 84
1229 697
1230 416
1235 235
1235 505
1237 805
1241 719
1245 396
1250 485
1251 85
1253 825
1256 739
1260 241
1265 381
1270 465
1275 93
1275 837
1276 754
1284 250
1285 366
1290 450
1294 772
1295 852
1299 100
1305 430
1307 260
1310 360
1316 784
1317 865
1322 110
1328 420
1332 265
1333 349
1336 799
1340 876
1342 125
1353 413
1357 270
1357 340
1358 811
1364 885
1365 541
1365 566
1366 134
1373 590
1375 400
1380 330
1380 516
1380 823
1382 275
1387 895
1388 146
1391 608
1395 496
1400 400
1404 830
1405 330
1406 283
1408 161
1410 625
1410 906
1420 490
1425 401
1427 840
1428 176
1430 291
1430 330
1431 639
1434 915
1441 504
1446 194
1449 410
1451 344
1452 845
1454 300
1454 650
1459 915
1464 515
1466 210
1470 424
1473 356
1476 313
1477 845
1479 655
1484 915
1487 525
1489 221
1489 441
1493 371
1498 325
1502 845
1503 664
1504 461
1509 236
1509 915
1510 486
1511 389
1512 530
1518 340
1524 256
1527 840
1528 665
1529 407
1534 910
1538 355
1544 427
1545 270
1547 825
1551 655
1556 373
1559 905
1562 445
1565 285
1565 806
1566 635
1570 610
1574 391
1575 467
1580 890
1583 588
1584 302
1584 788
1585 490
1589 411
1590 515
1595 540
1595 565
1595 870
1599 768
1602 320
1604 431
1611 745
1615 855
1616 453
1620 338
1620 716
1625 477
1630 835
1633 694
1635 358
1635 500
1640 656
1642 524
1645 549
1649 817
1650 574
1650 616
1653 376
1661 795
1668 396
1675 765
1680 418
1688 743
1689 442
1695 705
1698 466
1705 490
1708 683
1713 658
1715 513
1715 538
1720 563
1725 588
1725 613
