454 852
459 877
464 902
464 927
469 832
474 950
484 812
489 970
494 492
494 517
494 542
494 567
494 592
499 617
504 642
504 990
506 470
506 799
514 665
519 1010
529 457
529 789
534 680
534 1030
549 1050
551 445
554 695
554 794
564 1070
574 434
574 1093
575 808
579 700
593 1110
595 823
599 429
604 700
613 841
618 1110
619 267
619 292
620 443
624 317
624 342
626 713
628 861
630 738
634 247
634 365
634 763
634 788
634 813
638 461
643 1110
646 879
649 385
653 481
656 234
660 505
668 1110
674 390
679 222
685 509
693 1110
699 390
703 214
710 509
718 1105
719 405
728 214
729 428
733 499
734 453
739 102
739 187
743 1100
744 127
748 479
749 152
751 80
765 1085
771 65
778 1063
793 1043
796 64
818 1045
820 72
830 1067
842 84
855 1070
865 94
880 1065
890 99
905 1065
915 104
930 1060
940 109
955 1060
965 109
980 1060
990 109
1005 1060
1015 104
1030 1060
1040 99
1055 1060
1063 89
1080 1065
1086 79
1101 1079
1105 430
1105 455
1111 84
1119 1097
1120 475
1123 106
1124 412
1132 130
1137 1115
1140 154
1141 489
1148 403
1159 1127
1163 165
1166 494
1172 395
1175 187
1183 1135
1187 209
1191 494
1195 385
1207 224
1207 1144
1214 367
1215 250
1216 494
1225 340
1229 271
1230 296
1230 515
1232 540
1232 1145
1252 555
1257 1139
1272 570
1279 1127
1292 585
1297 1109
1312 600
1315 1090
1330 618
1330 1070
1343 1048
1345 638
1360 1025
1363 656
1375 800
1375 825
1375 1000
1380 675
1385 775
1385 848
1385 975
1390 698
1395 723
1395 871
1395 950
1398 753
1405 894
1405 919
