329 772
344 557
351 759
362 539
364 307
370 741
371 775
380 521
382 555
386 295
389 722
396 775
400 506
404 702
405 545
406 310
415 286
419 487
419 677
421 780
429 462
430 540
434 657
436 300
437 274
439 437
446 780
449 637
454 412
455 535
459 262
461 295
464 617
466 390
471 785
479 247
479 362
479 592
480 537
486 298
489 561
491 340
496 788
499 232
517 214
520 795
534 816
535 196
539 841
544 866
544 891
544 916
544 941
544 966
544 991
544 1016
549 1041
549 1066
549 1091
550 176
554 1116
562 154
562 1140
567 1165
574 132
582 1185
589 112
601 90
605 1195
625 82
630 107
630 1195
642 129
655 151
655 1200
665 174
675 285
677 310
680 194
680 1200
685 334
690 359
698 275
699 211
700 560
702 585
703 381
705 1205
710 805
712 830
714 607
715 403
717 229
720 854
720 879
721 285
723 550
725 785
725 904
725 929
725 954
725 979
725 1004
726 629
730 423
730 1029
730 1205
735 247
735 1054
740 446
740 650
740 1079
742 299
745 1104
745 1175
747 559
750 785
750 1129
753 265
754 467
757 669
765 310
768 285
769 487
770 570
773 795
775 687
787 505
788 300
793 705
795 575
798 795
805 523
810 724
820 580
823 541
823 795
829 741
845 553
845 580
847 759
848 795
867 774
868 564
