264 737
276 759
282 719
300 701
301 765
315 681
326 760
330 661
345 641
351 760
359 482
360 621
371 504
374 597
376 760
377 464
386 575
389 442
396 505
401 555
401 760
409 422
410 531
421 500
424 297
424 402
426 765
436 319
439 382
444 282
451 770
454 362
461 320
464 267
476 770
484 252
499 232
501 770
517 214
524 780
524 805
524 830
524 855
524 880
529 192
529 905
529 930
534 955
534 980
534 1005
534 1030
539 1055
546 1079
547 174
559 152
569 1090
574 127
594 1090
596 114
614 132
619 1090
629 152
644 1095
647 170
655 780
660 805
660 830
660 855
660 880
660 905
660 930
665 188
665 955
669 1092
670 980
670 1005
675 1030
675 1055
680 208
680 780
695 228
705 780
715 243
720 315
730 780
733 261
734 336
748 315
749 356
753 276
755 780
764 376
770 295
780 780
782 394
800 412
805 505
805 775
818 430
819 526
830 770
832 504
833 450
834 546
848 470
849 566
855 770
857 590
872 610
880 770
885 632
897 654
905 770
912 674
927 694
930 770
942 714
954 762
955 736
