1049 872
1049 897
1064 852
1067 915
1079 957
1079 982
1079 1007
1086 840
1092 915
1099 939
1099 1022
1111 834
1124 1025
1136 830
1149 1025
1161 824
1174 1020
1186 819
1197 1010
1211 819
1222 1010
1236 814
1247 1010
1261 809
1272 1014
1284 777
1297 1020
1299 757
1322 1020
1324 754
1347 1020
1349 754
1372 1019
1374 754
1389 1000
1399 754
1414 1000
1424 754
1439 1000
1445 768
1455 791
1460 816
1464 995
1470 839
1484 1010
1490 854
1505 874
1505 899
1509 1015
1525 914
1534 1017
1545 965
1550 917
1550 990
1565 950
