969 882
969 907
987 864
987 925
994 972
999 997
1009 852
1009 1020
1012 920
1014 957
1031 839
1032 1030
1037 920
1039 952
1056 834
1057 1030
1081 829
1082 1029
1106 824
1106 1020
1131 824
1131 1015
1156 824
1156 1015
1181 824
1181 1015
1189 792
1205 1022
1209 777
1230 1025
1233 769
1255 1020
1258 764
1280 1015
1283 759
1305 1015
1308 759
1330 1015
1331 769
1335 794
1340 819
1355 1020
1359 836
1367 860
1380 1020
1391 869
1403 1010
1415 877
1420 970
1423 901
1441 919
1443 958
