84 797
84 822
89 847
94 772
94 872
109 752
112 890
127 734
132 905
150 724
157 905
173 714
180 895
196 704
205 890
219 694
228 880
242 684
251 870
266 675
276 865
290 666
299 855
314 657
324 850
338 649
347 840
361 639
372 835
384 629
397 829
407 619
421 820
432 614
445 810
456 605
469 802
481 599
493 795
505 591
518 790
529 584
543 783
554 579
567 775
577 569
592 769
602 564
616 760
625 554
641 755
650 549
665 745
673 539
690 740
698 534
715 735
721 524
738 725
746 519
763 720
769 509
788 713
794 502
813 708
818 494
837 700
843 489
862 695
867 479
885 685
892 474
910 680
917 469
935 675
942 464
960 670
966 455
985 665
991 449
1009 657
1016 444
1034 652
1041 439
1058 645
1066 434
1083 640
1091 429
1104 397
1108 635
1119 377
1133 630
1139 362
1153 645
1159 347
1173 660
1177 329
1196 670
1197 314
1215 296
1221 665
1237 284
1246 668
1260 274
1270 675
1285 269
1295 680
1310 269
1320 680
1335 269
1344 687
1360 274
1369 682
1384 281
1384 662
1406 650
1409 284
1424 632
1434 286
1442 614
1454 301
1460 595
1476 314
1484 587
1501 310
1506 575
1520 535
1525 301
1535 515
1549 294
1559 507
1574 289
1583 500
1597 279
1608 495
1622 274
1633 490
1646 265
1658 483
1671 259
1682 475
1696 254
1707 469
1721 249
1731 460
1744 239
1756 455
1769 234
1780 445
1794 229
1805 440
1819 224
1829 432
1842 214
1853 425
1867 209
1878 418
1892 204
1902 409
1914 192
1926 400
1936 179
1951 400
1961 174
1976 400
1986 174
2001 395
2011 174
2019 377
2032 159
2041 365
2056 150
2066 363
2081 144
2091 365
2106 140
2114 355
2129 129
2134 340
2154 122
2159 345
2178 114
2184 345
2203 109
2209 340
2228 110
2234 335
2248 125
2258 328
2265 144
2275 167
2276 310
2290 187
2290 280
2295 212
2295 237
