134 327
134 352
134 377
139 402
144 427
144 452
149 307
149 477
154 502
166 524
171 294
179 546
194 282
199 561
218 274
223 570
242 264
248 570
265 254
273 565
290 254
298 565
315 254
323 565
340 251
348 565
362 239
373 565
387 239
398 565
412 239
423 565
437 244
448 565
462 244
473 565
487 244
498 565
512 244
523 565
537 244
548 565
562 244
573 570
587 244
598 570
612 244
623 570
637 244
648 570
662 244
673 570
687 244
698 570
712 244
723 570
737 244
748 570
762 244
773 570
787 244
798 570
812 249
823 570
837 249
848 570
862 249
873 570
887 249
898 570
912 249
923 570
937 249
948 570
962 249
973 565
987 249
998 565
1012 249
1023 565
1037 249
1048 565
1062 249
1073 565
1087 249
1098 565
1112 244
1123 565
1137 244
1148 565
1162 244
1173 560
1187 244
1198 560
1212 244
1223 560
1237 239
1245 572
1262 234
1263 590
1281 608
1284 222
1296 628
1304 207
1316 643
1326 194
1338 655
1346 179
1361 665
1369 169
1382 679
1394 164
1407 685
1419 159
1432 690
1444 154
1457 694
1469 149
1482 695
1494 144
1507 700
1519 149
1532 695
1544 149
1557 695
1569 149
1582 690
1594 154
1607 685
1619 154
1630 675
1642 164
1654 667
1665 174
1678 660
1688 184
1701 650
1708 200
1723 220
1725 640
1738 240
1738 618
1756 600
1759 254
1778 588
1784 249
1800 575
1809 251
1825 570
1833 259
1850 570
1858 259
1875 570
1883 259
1900 570
1908 259
1925 570
1933 259
1950 570
1958 254
1975 570
1983 254
2000 570
2008 254
2025 570
2033 254
2050 570
2058 254
2075 570
2083 254
2100 570
2108 254
2125 570
2133 254
2150 570
2158 259
2175 570
2183 259
2200 570
2208 259
2225 570
2233 259
2250 570
2258 259
2275 565
2283 264
2300 565
2306 274
2324 292
2325 565
2330 317
2330 342
2330 367
2330 392
2335 417
2335 442
2335 467
2335 492
2335 517
2335 542
