<?xml version="1.0" encoding="UTF-8" standalone="no"?>
<!-- Created with CurveBenchmark -->
<svg
	xmlns:dc="http://purl.org/dc/elements/1.1/"
	xmlns:cc="http://creativecommons.org/ns#"
	xmlns:rdf="http://www.w3.org/1999/02/22-rdf-syntax-ns#"
	xmlns:svg="http://www.w3.org/2000/svg"
	xmlns="http://www.w3.org/2000/svg"
	xmlns:sodipodi="http://sodipodi.sourceforge.net/DTD/sodipodi-0.dtd"
	xmlns:inkscape="http://www.inkscape.org/namespaces/inkscape"
	width="1000"
	height="1000"
	id="svg2"
	version="1.1"
	sodipodi:docname="sampling-noise-0.1/gathan1-bunny.svg">
<defs
	id="defs4" />
<metadata
	id="metadata7">
	<rdf:RDF>
		<cc:Work
			rdf:about="">
			<dc:format>image/svg+xml</dc:format>
			<dc:type
				rdf:resource="http://purl.org/dc/dcmitype/StillImage" />
			<dc:title></dc:title>
		</cc:Work>
	</rdf:RDF>
</metadata>
<g
	inkscape:label="Layer 1"
	inkscape:groupmode="layer"
	id="layer1">
	<path style="fill:none;stroke:red;stroke-width:1px;stroke-linecap:butt;stroke-linejoin:miter;stroke-opacity:1" d="M 131.99,40.3515 134.762,34.0585 z" id="boundary" inkscape:connector-curvature="0" />
	<path style="fill:none;stroke:red;stroke-width:1px;stroke-linecap:butt;stroke-linejoin:miter;stroke-opacity:1" d="M 140.156,49.7409 131.99,40.3515 z" id="boundary" inkscape:connector-curvature="0" />
	<path style="fill:none;stroke:red;stroke-width:1px;stroke-linecap:butt;stroke-linejoin:miter;stroke-opacity:1" d="M 134.762,34.0585 140.782,29.8114 z" id="boundary" inkscape:connector-curvature="0" />
	<path style="fill:none;stroke:red;stroke-width:1px;stroke-linecap:butt;stroke-linejoin:miter;stroke-opacity:1" d="M 140.782,29.8114 149.734,28.065 z" id="boundary" inkscape:connector-curvature="0" />
	<path style="fill:none;stroke:red;stroke-width:1px;stroke-linecap:butt;stroke-linejoin:miter;stroke-opacity:1" d="M 148.119,58.9247 140.156,49.7409 z" id="boundary" inkscape:connector-curvature="0" />
	<path style="fill:none;stroke:red;stroke-width:1px;stroke-linecap:butt;stroke-linejoin:miter;stroke-opacity:1" d="M 136.119,98.4539 131.477,106.701 z" id="boundary" inkscape:connector-curvature="0" />
	<path style="fill:none;stroke:red;stroke-width:1px;stroke-linecap:butt;stroke-linejoin:miter;stroke-opacity:1" d="M 130.893,72.9348 133.931,81.0862 z" id="boundary" inkscape:connector-curvature="0" />
	<path style="fill:none;stroke:red;stroke-width:1px;stroke-linecap:butt;stroke-linejoin:miter;stroke-opacity:1" d="M 122.865,122.79 126.998,88.906 z" id="boundary" inkscape:connector-curvature="0" />
	<path style="fill:none;stroke:red;stroke-width:1px;stroke-linecap:butt;stroke-linejoin:miter;stroke-opacity:1" d="M 130.893,72.9348 135.327,64.7446 z" id="boundary" inkscape:connector-curvature="0" />
	<path style="fill:none;stroke:red;stroke-width:1px;stroke-linecap:butt;stroke-linejoin:miter;stroke-opacity:1" d="M 136.119,98.4539 138.088,114.955 z" id="boundary" inkscape:connector-curvature="0" />
	<path style="fill:none;stroke:red;stroke-width:1px;stroke-linecap:butt;stroke-linejoin:miter;stroke-opacity:1" d="M 204.937,94.2895 203.748,111.024 z" id="boundary" inkscape:connector-curvature="0" />
	<path style="fill:none;stroke:red;stroke-width:1px;stroke-linecap:butt;stroke-linejoin:miter;stroke-opacity:1" d="M 176.471,4 171.24,11.285 z" id="boundary" inkscape:connector-curvature="0" />
	<path style="fill:none;stroke:red;stroke-width:1px;stroke-linecap:butt;stroke-linejoin:miter;stroke-opacity:1" d="M 176.471,4 182.53,5.58183 z" id="boundary" inkscape:connector-curvature="0" />
	<path style="fill:none;stroke:red;stroke-width:1px;stroke-linecap:butt;stroke-linejoin:miter;stroke-opacity:1" d="M 171.24,11.285 167.202,16.2449 z" id="boundary" inkscape:connector-curvature="0" />
	<path style="fill:none;stroke:red;stroke-width:1px;stroke-linecap:butt;stroke-linejoin:miter;stroke-opacity:1" d="M 182.53,5.58183 199.608,13.2872 z" id="boundary" inkscape:connector-curvature="0" />
	<path style="fill:none;stroke:red;stroke-width:1px;stroke-linecap:butt;stroke-linejoin:miter;stroke-opacity:1" d="M 188.771,18.0996 185.335,14.6071 z" id="boundary" inkscape:connector-curvature="0" />
	<path style="fill:none;stroke:red;stroke-width:1px;stroke-linecap:butt;stroke-linejoin:miter;stroke-opacity:1" d="M 151.216,16.4972 157.916,16.8439 z" id="boundary" inkscape:connector-curvature="0" />
	<path style="fill:none;stroke:red;stroke-width:1px;stroke-linecap:butt;stroke-linejoin:miter;stroke-opacity:1" d="M 146.392,19.6715 151.216,16.4972 z" id="boundary" inkscape:connector-curvature="0" />
	<path style="fill:none;stroke:red;stroke-width:1px;stroke-linecap:butt;stroke-linejoin:miter;stroke-opacity:1" d="M 157.916,16.8439 167.202,16.2449 z" id="boundary" inkscape:connector-curvature="0" />
	<path style="fill:none;stroke:red;stroke-width:1px;stroke-linecap:butt;stroke-linejoin:miter;stroke-opacity:1" d="M 188.771,18.0996 196.722,23.2694 z" id="boundary" inkscape:connector-curvature="0" />
	<path style="fill:none;stroke:red;stroke-width:1px;stroke-linecap:butt;stroke-linejoin:miter;stroke-opacity:1" d="M 204.11,25.1017 196.722,23.2694 z" id="boundary" inkscape:connector-curvature="0" />
	<path style="fill:none;stroke:red;stroke-width:1px;stroke-linecap:butt;stroke-linejoin:miter;stroke-opacity:1" d="M 122.865,122.79 121.295,131.598 z" id="boundary" inkscape:connector-curvature="0" />
	<path style="fill:none;stroke:red;stroke-width:1px;stroke-linecap:butt;stroke-linejoin:miter;stroke-opacity:1" d="M 121.295,131.598 119.334,140.829 z" id="boundary" inkscape:connector-curvature="0" />
	<path style="fill:none;stroke:red;stroke-width:1px;stroke-linecap:butt;stroke-linejoin:miter;stroke-opacity:1" d="M 142.322,184.763 134.954,193.787 z" id="boundary" inkscape:connector-curvature="0" />
	<path style="fill:none;stroke:red;stroke-width:1px;stroke-linecap:butt;stroke-linejoin:miter;stroke-opacity:1" d="M 137.938,150.766 142.349,160.829 z" id="boundary" inkscape:connector-curvature="0" />
	<path style="fill:none;stroke:red;stroke-width:1px;stroke-linecap:butt;stroke-linejoin:miter;stroke-opacity:1" d="M 120.965,203.602 119.334,140.829 z" id="boundary" inkscape:connector-curvature="0" />
	<path style="fill:none;stroke:red;stroke-width:1px;stroke-linecap:butt;stroke-linejoin:miter;stroke-opacity:1" d="M 120.003,263.771 119.483,247.19 z" id="boundary" inkscape:connector-curvature="0" />
	<path style="fill:none;stroke:red;stroke-width:1px;stroke-linecap:butt;stroke-linejoin:miter;stroke-opacity:1" d="M 120.965,203.602 126.823,212.927 z" id="boundary" inkscape:connector-curvature="0" />
	<path style="fill:none;stroke:red;stroke-width:1px;stroke-linecap:butt;stroke-linejoin:miter;stroke-opacity:1" d="M 122.491,271.993 120.003,263.771 z" id="boundary" inkscape:connector-curvature="0" />
	<path style="fill:none;stroke:red;stroke-width:1px;stroke-linecap:butt;stroke-linejoin:miter;stroke-opacity:1" d="M 130.24,238.052 119.483,247.19 z" id="boundary" inkscape:connector-curvature="0" />
	<path style="fill:none;stroke:red;stroke-width:1px;stroke-linecap:butt;stroke-linejoin:miter;stroke-opacity:1" d="M 126.823,212.927 138.883,221.8 z" id="boundary" inkscape:connector-curvature="0" />
	<path style="fill:none;stroke:red;stroke-width:1px;stroke-linecap:butt;stroke-linejoin:miter;stroke-opacity:1" d="M 142.349,160.829 143.453,176.698 z" id="boundary" inkscape:connector-curvature="0" />
	<path style="fill:none;stroke:red;stroke-width:1px;stroke-linecap:butt;stroke-linejoin:miter;stroke-opacity:1" d="M 204.577,175.699 204.008,183.204 z" id="boundary" inkscape:connector-curvature="0" />
	<path style="fill:none;stroke:red;stroke-width:1px;stroke-linecap:butt;stroke-linejoin:miter;stroke-opacity:1" d="M 142.322,184.763 143.453,176.698 z" id="boundary" inkscape:connector-curvature="0" />
	<path style="fill:none;stroke:red;stroke-width:1px;stroke-linecap:butt;stroke-linejoin:miter;stroke-opacity:1" d="M 141.508,230.202 138.883,221.8 z" id="boundary" inkscape:connector-curvature="0" />
	<path style="fill:none;stroke:red;stroke-width:1px;stroke-linecap:butt;stroke-linejoin:miter;stroke-opacity:1" d="M 201.444,259.73 200.779,266.643 z" id="boundary" inkscape:connector-curvature="0" />
	<path style="fill:none;stroke:red;stroke-width:1px;stroke-linecap:butt;stroke-linejoin:miter;stroke-opacity:1" d="M 202.817,252.415 202.932,244.553 z" id="boundary" inkscape:connector-curvature="0" />
	<path style="fill:none;stroke:red;stroke-width:1px;stroke-linecap:butt;stroke-linejoin:miter;stroke-opacity:1" d="M 202.817,252.415 201.444,259.73 z" id="boundary" inkscape:connector-curvature="0" />
	<path style="fill:none;stroke:red;stroke-width:1px;stroke-linecap:butt;stroke-linejoin:miter;stroke-opacity:1" d="M 202.932,244.553 203.678,236.277 z" id="boundary" inkscape:connector-curvature="0" />
	<path style="fill:none;stroke:red;stroke-width:1px;stroke-linecap:butt;stroke-linejoin:miter;stroke-opacity:1" d="M 204.008,183.204 204.357,186.868 z" id="boundary" inkscape:connector-curvature="0" />
	<path style="fill:none;stroke:red;stroke-width:1px;stroke-linecap:butt;stroke-linejoin:miter;stroke-opacity:1" d="M 200.779,266.643 201.562,273.211 z" id="boundary" inkscape:connector-curvature="0" />
	<path style="fill:none;stroke:red;stroke-width:1px;stroke-linecap:butt;stroke-linejoin:miter;stroke-opacity:1" d="M 207.193,54.9189 207.379,66.8956 z" id="boundary" inkscape:connector-curvature="0" />
	<path style="fill:none;stroke:red;stroke-width:1px;stroke-linecap:butt;stroke-linejoin:miter;stroke-opacity:1" d="M 204.11,25.1017 210.694,28.5752 z" id="boundary" inkscape:connector-curvature="0" />
	<path style="fill:none;stroke:red;stroke-width:1px;stroke-linecap:butt;stroke-linejoin:miter;stroke-opacity:1" d="M 209.112,88.7191 204.937,94.2895 z" id="boundary" inkscape:connector-curvature="0" />
	<path style="fill:none;stroke:red;stroke-width:1px;stroke-linecap:butt;stroke-linejoin:miter;stroke-opacity:1" d="M 206.685,36.1609 209.521,41.7973 z" id="boundary" inkscape:connector-curvature="0" />
	<path style="fill:none;stroke:red;stroke-width:1px;stroke-linecap:butt;stroke-linejoin:miter;stroke-opacity:1" d="M 210.731,120.266 207.614,124.779 z" id="boundary" inkscape:connector-curvature="0" />
	<path style="fill:none;stroke:red;stroke-width:1px;stroke-linecap:butt;stroke-linejoin:miter;stroke-opacity:1" d="M 204.582,152.959 204.162,157.748 z" id="boundary" inkscape:connector-curvature="0" />
	<path style="fill:none;stroke:red;stroke-width:1px;stroke-linecap:butt;stroke-linejoin:miter;stroke-opacity:1" d="M 205.332,134.026 205.626,143.451 z" id="boundary" inkscape:connector-curvature="0" />
	<path style="fill:none;stroke:red;stroke-width:1px;stroke-linecap:butt;stroke-linejoin:miter;stroke-opacity:1" d="M 204.582,152.959 207.497,148.204 z" id="boundary" inkscape:connector-curvature="0" />
	<path style="fill:none;stroke:red;stroke-width:1px;stroke-linecap:butt;stroke-linejoin:miter;stroke-opacity:1" d="M 207.497,148.204 205.626,143.451 z" id="boundary" inkscape:connector-curvature="0" />
	<path style="fill:none;stroke:red;stroke-width:1px;stroke-linecap:butt;stroke-linejoin:miter;stroke-opacity:1" d="M 207.614,124.779 210.162,129.464 z" id="boundary" inkscape:connector-curvature="0" />
	<path style="fill:none;stroke:red;stroke-width:1px;stroke-linecap:butt;stroke-linejoin:miter;stroke-opacity:1" d="M 205.423,162.529 204.162,157.748 z" id="boundary" inkscape:connector-curvature="0" />
	<path style="fill:none;stroke:red;stroke-width:1px;stroke-linecap:butt;stroke-linejoin:miter;stroke-opacity:1" d="M 214.544,72.4313 212.393,77.7795 z" id="boundary" inkscape:connector-curvature="0" />
	<path style="fill:none;stroke:red;stroke-width:1px;stroke-linecap:butt;stroke-linejoin:miter;stroke-opacity:1" d="M 214.386,47.714 209.521,41.7973 z" id="boundary" inkscape:connector-curvature="0" />
	<path style="fill:none;stroke:red;stroke-width:1px;stroke-linecap:butt;stroke-linejoin:miter;stroke-opacity:1" d="M 212.393,77.7795 215.976,83.2055 z" id="boundary" inkscape:connector-curvature="0" />
	<path style="fill:none;stroke:red;stroke-width:1px;stroke-linecap:butt;stroke-linejoin:miter;stroke-opacity:1" d="M 216.267,60.1768 214.544,72.4313 z" id="boundary" inkscape:connector-curvature="0" />
	<path style="fill:none;stroke:red;stroke-width:1px;stroke-linecap:butt;stroke-linejoin:miter;stroke-opacity:1" d="M 216.267,60.1768 214.386,47.714 z" id="boundary" inkscape:connector-curvature="0" />
	<path style="fill:none;stroke:red;stroke-width:1px;stroke-linecap:butt;stroke-linejoin:miter;stroke-opacity:1" d="M 212.239,138.827 210.162,129.464 z" id="boundary" inkscape:connector-curvature="0" />
	<path style="fill:none;stroke:red;stroke-width:1px;stroke-linecap:butt;stroke-linejoin:miter;stroke-opacity:1" d="M 210.731,120.266 214.366,115.81 z" id="boundary" inkscape:connector-curvature="0" />
	<path style="fill:none;stroke:red;stroke-width:1px;stroke-linecap:butt;stroke-linejoin:miter;stroke-opacity:1" d="M 215.332,106.118 214.366,115.81 z" id="boundary" inkscape:connector-curvature="0" />
	<path style="fill:none;stroke:red;stroke-width:1px;stroke-linecap:butt;stroke-linejoin:miter;stroke-opacity:1" d="M 215.332,106.118 216.021,100.258 z" id="boundary" inkscape:connector-curvature="0" />
	<path style="fill:none;stroke:red;stroke-width:1px;stroke-linecap:butt;stroke-linejoin:miter;stroke-opacity:1" d="M 199.608,13.2872 210.694,28.5752 z" id="boundary" inkscape:connector-curvature="0" />
	<path style="fill:none;stroke:red;stroke-width:1px;stroke-linecap:butt;stroke-linejoin:miter;stroke-opacity:1" d="M 208.658,190.49 204.357,186.868 z" id="boundary" inkscape:connector-curvature="0" />
	<path style="fill:none;stroke:red;stroke-width:1px;stroke-linecap:butt;stroke-linejoin:miter;stroke-opacity:1" d="M 207.473,171.796 204.577,175.699 z" id="boundary" inkscape:connector-curvature="0" />
	<path style="fill:none;stroke:red;stroke-width:1px;stroke-linecap:butt;stroke-linejoin:miter;stroke-opacity:1" d="M 211.073,211.256 206.865,214.387 z" id="boundary" inkscape:connector-curvature="0" />
	<path style="fill:none;stroke:red;stroke-width:1px;stroke-linecap:butt;stroke-linejoin:miter;stroke-opacity:1" d="M 205.423,162.529 209.09,167.236 z" id="boundary" inkscape:connector-curvature="0" />
	<path style="fill:none;stroke:red;stroke-width:1px;stroke-linecap:butt;stroke-linejoin:miter;stroke-opacity:1" d="M 209.09,167.236 207.473,171.796 z" id="boundary" inkscape:connector-curvature="0" />
	<path style="fill:none;stroke:red;stroke-width:1px;stroke-linecap:butt;stroke-linejoin:miter;stroke-opacity:1" d="M 208.279,256.583 209.701,263.882 z" id="boundary" inkscape:connector-curvature="0" />
	<path style="fill:none;stroke:red;stroke-width:1px;stroke-linecap:butt;stroke-linejoin:miter;stroke-opacity:1" d="M 204.844,232.008 203.678,236.277 z" id="boundary" inkscape:connector-curvature="0" />
	<path style="fill:none;stroke:red;stroke-width:1px;stroke-linecap:butt;stroke-linejoin:miter;stroke-opacity:1" d="M 208.585,227.744 204.844,232.008 z" id="boundary" inkscape:connector-curvature="0" />
	<path style="fill:none;stroke:red;stroke-width:1px;stroke-linecap:butt;stroke-linejoin:miter;stroke-opacity:1" d="M 205.119,223.001 208.585,227.744 z" id="boundary" inkscape:connector-curvature="0" />
	<path style="fill:none;stroke:red;stroke-width:1px;stroke-linecap:butt;stroke-linejoin:miter;stroke-opacity:1" d="M 206.865,214.387 205.942,218.35 z" id="boundary" inkscape:connector-curvature="0" />
	<path style="fill:none;stroke:red;stroke-width:1px;stroke-linecap:butt;stroke-linejoin:miter;stroke-opacity:1" d="M 209.345,248.994 208.279,256.583 z" id="boundary" inkscape:connector-curvature="0" />
	<path style="fill:none;stroke:red;stroke-width:1px;stroke-linecap:butt;stroke-linejoin:miter;stroke-opacity:1" d="M 205.119,223.001 205.942,218.35 z" id="boundary" inkscape:connector-curvature="0" />
	<path style="fill:none;stroke:red;stroke-width:1px;stroke-linecap:butt;stroke-linejoin:miter;stroke-opacity:1" d="M 209.701,263.882 205.054,270.261 z" id="boundary" inkscape:connector-curvature="0" />
	<path style="fill:none;stroke:red;stroke-width:1px;stroke-linecap:butt;stroke-linejoin:miter;stroke-opacity:1" d="M 210.576,204.538 207.196,207.829 z" id="boundary" inkscape:connector-curvature="0" />
	<path style="fill:none;stroke:red;stroke-width:1px;stroke-linecap:butt;stroke-linejoin:miter;stroke-opacity:1" d="M 208.658,190.49 211.653,194.092 z" id="boundary" inkscape:connector-curvature="0" />
	<path style="fill:none;stroke:red;stroke-width:1px;stroke-linecap:butt;stroke-linejoin:miter;stroke-opacity:1" d="M 213.445,201.154 210.576,204.538 z" id="boundary" inkscape:connector-curvature="0" />
	<path style="fill:none;stroke:red;stroke-width:1px;stroke-linecap:butt;stroke-linejoin:miter;stroke-opacity:1" d="M 211.653,194.092 214.105,197.664 z" id="boundary" inkscape:connector-curvature="0" />
	<path style="fill:none;stroke:red;stroke-width:1px;stroke-linecap:butt;stroke-linejoin:miter;stroke-opacity:1" d="M 214.105,197.664 213.445,201.154 z" id="boundary" inkscape:connector-curvature="0" />
	<path style="fill:none;stroke:red;stroke-width:1px;stroke-linecap:butt;stroke-linejoin:miter;stroke-opacity:1" d="M 233.997,249.982 232.234,253.897 z" id="boundary" inkscape:connector-curvature="0" />
	<path style="fill:none;stroke:red;stroke-width:1px;stroke-linecap:butt;stroke-linejoin:miter;stroke-opacity:1" d="M 209.31,240.856 209.345,248.994 z" id="boundary" inkscape:connector-curvature="0" />
	<path style="fill:none;stroke:red;stroke-width:1px;stroke-linecap:butt;stroke-linejoin:miter;stroke-opacity:1" d="M 230.182,261.539 231.516,269.156 z" id="boundary" inkscape:connector-curvature="0" />
	<path style="fill:none;stroke:red;stroke-width:1px;stroke-linecap:butt;stroke-linejoin:miter;stroke-opacity:1" d="M 231.516,269.156 233.187,272.946 z" id="boundary" inkscape:connector-curvature="0" />
	<path style="fill:none;stroke:red;stroke-width:1px;stroke-linecap:butt;stroke-linejoin:miter;stroke-opacity:1" d="M 4,509.529 17.3105,439.924 z" id="boundary" inkscape:connector-curvature="0" />
	<path style="fill:none;stroke:red;stroke-width:1px;stroke-linecap:butt;stroke-linejoin:miter;stroke-opacity:1" d="M 17.3105,439.924 45.1175,421.755 z" id="boundary" inkscape:connector-curvature="0" />
	<path style="fill:none;stroke:red;stroke-width:1px;stroke-linecap:butt;stroke-linejoin:miter;stroke-opacity:1" d="M 34.9453,471.845 49.1006,494.492 z" id="boundary" inkscape:connector-curvature="0" />
	<path style="fill:none;stroke:red;stroke-width:1px;stroke-linecap:butt;stroke-linejoin:miter;stroke-opacity:1" d="M 49.1006,494.492 49.3366,524.229 z" id="boundary" inkscape:connector-curvature="0" />
	<path style="fill:none;stroke:red;stroke-width:1px;stroke-linecap:butt;stroke-linejoin:miter;stroke-opacity:1" d="M 47.9747,536.736 49.3366,524.229 z" id="boundary" inkscape:connector-curvature="0" />
	<path style="fill:none;stroke:red;stroke-width:1px;stroke-linecap:butt;stroke-linejoin:miter;stroke-opacity:1" d="M 39.0703,550.563 49.7195,558.37 z" id="boundary" inkscape:connector-curvature="0" />
	<path style="fill:none;stroke:red;stroke-width:1px;stroke-linecap:butt;stroke-linejoin:miter;stroke-opacity:1" d="M 33.4122,576.322 4,509.529 z" id="boundary" inkscape:connector-curvature="0" />
	<path style="fill:none;stroke:red;stroke-width:1px;stroke-linecap:butt;stroke-linejoin:miter;stroke-opacity:1" d="M 47.9747,536.736 39.0703,550.563 z" id="boundary" inkscape:connector-curvature="0" />
	<path style="fill:none;stroke:red;stroke-width:1px;stroke-linecap:butt;stroke-linejoin:miter;stroke-opacity:1" d="M 56.6345,576.93 57.8106,586.045 z" id="boundary" inkscape:connector-curvature="0" />
	<path style="fill:none;stroke:red;stroke-width:1px;stroke-linecap:butt;stroke-linejoin:miter;stroke-opacity:1" d="M 68.9235,588.488 56.6345,576.93 z" id="boundary" inkscape:connector-curvature="0" />
	<path style="fill:none;stroke:red;stroke-width:1px;stroke-linecap:butt;stroke-linejoin:miter;stroke-opacity:1" d="M 62.3337,608.235 33.4122,576.322 z" id="boundary" inkscape:connector-curvature="0" />
	<path style="fill:none;stroke:red;stroke-width:1px;stroke-linecap:butt;stroke-linejoin:miter;stroke-opacity:1" d="M 45.1175,421.755 79.3112,412.659 z" id="boundary" inkscape:connector-curvature="0" />
	<path style="fill:none;stroke:red;stroke-width:1px;stroke-linecap:butt;stroke-linejoin:miter;stroke-opacity:1" d="M 129.595,305.127 122.083,321.423 z" id="boundary" inkscape:connector-curvature="0" />
	<path style="fill:none;stroke:red;stroke-width:1px;stroke-linecap:butt;stroke-linejoin:miter;stroke-opacity:1" d="M 118.459,295.119 118.202,311.43 z" id="boundary" inkscape:connector-curvature="0" />
	<path style="fill:none;stroke:red;stroke-width:1px;stroke-linecap:butt;stroke-linejoin:miter;stroke-opacity:1" d="M 111.606,326.67 118.202,311.43 z" id="boundary" inkscape:connector-curvature="0" />
	<path style="fill:none;stroke:red;stroke-width:1px;stroke-linecap:butt;stroke-linejoin:miter;stroke-opacity:1" d="M 134.481,288.678 129.595,305.127 z" id="boundary" inkscape:connector-curvature="0" />
	<path style="fill:none;stroke:red;stroke-width:1px;stroke-linecap:butt;stroke-linejoin:miter;stroke-opacity:1" d="M 133.319,280.84 134.481,288.678 z" id="boundary" inkscape:connector-curvature="0" />
	<path style="fill:none;stroke:red;stroke-width:1px;stroke-linecap:butt;stroke-linejoin:miter;stroke-opacity:1" d="M 120.842,342.961 122.083,321.423 z" id="boundary" inkscape:connector-curvature="0" />
	<path style="fill:none;stroke:red;stroke-width:1px;stroke-linecap:butt;stroke-linejoin:miter;stroke-opacity:1" d="M 71.6258,381.514 88.8788,371.255 z" id="boundary" inkscape:connector-curvature="0" />
	<path style="fill:none;stroke:red;stroke-width:1px;stroke-linecap:butt;stroke-linejoin:miter;stroke-opacity:1" d="M 71.6258,381.514 92.6986,337.855 z" id="boundary" inkscape:connector-curvature="0" />
	<path style="fill:none;stroke:red;stroke-width:1px;stroke-linecap:butt;stroke-linejoin:miter;stroke-opacity:1" d="M 88.8788,371.255 100.048,360.029 z" id="boundary" inkscape:connector-curvature="0" />
	<path style="fill:none;stroke:red;stroke-width:1px;stroke-linecap:butt;stroke-linejoin:miter;stroke-opacity:1" d="M 92.6986,337.855 111.606,326.67 z" id="boundary" inkscape:connector-curvature="0" />
	<path style="fill:none;stroke:red;stroke-width:1px;stroke-linecap:butt;stroke-linejoin:miter;stroke-opacity:1" d="M 100.048,360.029 120.842,342.961 z" id="boundary" inkscape:connector-curvature="0" />
	<path style="fill:none;stroke:red;stroke-width:1px;stroke-linecap:butt;stroke-linejoin:miter;stroke-opacity:1" d="M 77.3438,625.688 62.3337,608.235 z" id="boundary" inkscape:connector-curvature="0" />
	<path style="fill:none;stroke:red;stroke-width:1px;stroke-linecap:butt;stroke-linejoin:miter;stroke-opacity:1" d="M 68.9235,588.488 80.2677,602.738 z" id="boundary" inkscape:connector-curvature="0" />
	<path style="fill:none;stroke:red;stroke-width:1px;stroke-linecap:butt;stroke-linejoin:miter;stroke-opacity:1" d="M 88.9472,630.345 94.6586,650.182 z" id="boundary" inkscape:connector-curvature="0" />
	<path style="fill:none;stroke:red;stroke-width:1px;stroke-linecap:butt;stroke-linejoin:miter;stroke-opacity:1" d="M 77.3438,625.688 88.9472,630.345 z" id="boundary" inkscape:connector-curvature="0" />
	<path style="fill:none;stroke:red;stroke-width:1px;stroke-linecap:butt;stroke-linejoin:miter;stroke-opacity:1" d="M 106.014,662.379 133.577,650.311 z" id="boundary" inkscape:connector-curvature="0" />
	<path style="fill:none;stroke:red;stroke-width:1px;stroke-linecap:butt;stroke-linejoin:miter;stroke-opacity:1" d="M 106.014,662.379 94.6586,650.182 z" id="boundary" inkscape:connector-curvature="0" />
	<path style="fill:none;stroke:red;stroke-width:1px;stroke-linecap:butt;stroke-linejoin:miter;stroke-opacity:1" d="M 158.166,651.658 133.577,650.311 z" id="boundary" inkscape:connector-curvature="0" />
	<path style="fill:none;stroke:red;stroke-width:1px;stroke-linecap:butt;stroke-linejoin:miter;stroke-opacity:1" d="M 172.624,903.413 163.116,896.884 z" id="boundary" inkscape:connector-curvature="0" />
	<path style="fill:none;stroke:red;stroke-width:1px;stroke-linecap:butt;stroke-linejoin:miter;stroke-opacity:1" d="M 172.624,903.413 179.791,908.303 z" id="boundary" inkscape:connector-curvature="0" />
	<path style="fill:none;stroke:red;stroke-width:1px;stroke-linecap:butt;stroke-linejoin:miter;stroke-opacity:1" d="M 173.292,919.058 173.903,929.444 z" id="boundary" inkscape:connector-curvature="0" />
	<path style="fill:none;stroke:red;stroke-width:1px;stroke-linecap:butt;stroke-linejoin:miter;stroke-opacity:1" d="M 189.493,678.6 168.322,677.613 z" id="boundary" inkscape:connector-curvature="0" />
	<path style="fill:none;stroke:red;stroke-width:1px;stroke-linecap:butt;stroke-linejoin:miter;stroke-opacity:1" d="M 178.517,857.003 181.074,868.245 z" id="boundary" inkscape:connector-curvature="0" />
	<path style="fill:none;stroke:red;stroke-width:1px;stroke-linecap:butt;stroke-linejoin:miter;stroke-opacity:1" d="M 181.074,868.245 176.432,873.845 z" id="boundary" inkscape:connector-curvature="0" />
	<path style="fill:none;stroke:red;stroke-width:1px;stroke-linecap:butt;stroke-linejoin:miter;stroke-opacity:1" d="M 181.569,882.216 176.432,873.845 z" id="boundary" inkscape:connector-curvature="0" />
	<path style="fill:none;stroke:red;stroke-width:1px;stroke-linecap:butt;stroke-linejoin:miter;stroke-opacity:1" d="M 182.64,847.999 178.517,857.003 z" id="boundary" inkscape:connector-curvature="0" />
	<path style="fill:none;stroke:red;stroke-width:1px;stroke-linecap:butt;stroke-linejoin:miter;stroke-opacity:1" d="M 189.493,678.6 203.055,692.053 z" id="boundary" inkscape:connector-curvature="0" />
	<path style="fill:none;stroke:red;stroke-width:1px;stroke-linecap:butt;stroke-linejoin:miter;stroke-opacity:1" d="M 197.333,921.817 187.305,925.9 z" id="boundary" inkscape:connector-curvature="0" />
	<path style="fill:none;stroke:red;stroke-width:1px;stroke-linecap:butt;stroke-linejoin:miter;stroke-opacity:1" d="M 197.333,921.817 216.584,928.443 z" id="boundary" inkscape:connector-curvature="0" />
	<path style="fill:none;stroke:red;stroke-width:1px;stroke-linecap:butt;stroke-linejoin:miter;stroke-opacity:1" d="M 180.502,889.068 181.569,882.216 z" id="boundary" inkscape:connector-curvature="0" />
	<path style="fill:none;stroke:red;stroke-width:1px;stroke-linecap:butt;stroke-linejoin:miter;stroke-opacity:1" d="M 197.393,938.244 203.51,944.506 z" id="boundary" inkscape:connector-curvature="0" />
	<path style="fill:none;stroke:red;stroke-width:1px;stroke-linecap:butt;stroke-linejoin:miter;stroke-opacity:1" d="M 198.685,857.331 206.376,856.21 z" id="boundary" inkscape:connector-curvature="0" />
	<path style="fill:none;stroke:red;stroke-width:1px;stroke-linecap:butt;stroke-linejoin:miter;stroke-opacity:1" d="M 207.012,279.58 206.231,282.36 z" id="boundary" inkscape:connector-curvature="0" />
	<path style="fill:none;stroke:red;stroke-width:1px;stroke-linecap:butt;stroke-linejoin:miter;stroke-opacity:1" d="M 205.371,285.468 205.018,292.063 z" id="boundary" inkscape:connector-curvature="0" />
	<path style="fill:none;stroke:red;stroke-width:1px;stroke-linecap:butt;stroke-linejoin:miter;stroke-opacity:1" d="M 206.231,282.36 205.371,285.468 z" id="boundary" inkscape:connector-curvature="0" />
	<path style="fill:none;stroke:red;stroke-width:1px;stroke-linecap:butt;stroke-linejoin:miter;stroke-opacity:1" d="M 206.028,295.033 205.018,292.063 z" id="boundary" inkscape:connector-curvature="0" />
	<path style="fill:none;stroke:red;stroke-width:1px;stroke-linecap:butt;stroke-linejoin:miter;stroke-opacity:1" d="M 201.989,276.324 201.562,273.211 z" id="boundary" inkscape:connector-curvature="0" />
	<path style="fill:none;stroke:red;stroke-width:1px;stroke-linecap:butt;stroke-linejoin:miter;stroke-opacity:1" d="M 200.666,298.106 201.323,300.826 z" id="boundary" inkscape:connector-curvature="0" />
	<path style="fill:none;stroke:red;stroke-width:1px;stroke-linecap:butt;stroke-linejoin:miter;stroke-opacity:1" d="M 201.323,300.826 201.912,305.845 z" id="boundary" inkscape:connector-curvature="0" />
	<path style="fill:none;stroke:red;stroke-width:1px;stroke-linecap:butt;stroke-linejoin:miter;stroke-opacity:1" d="M 201.912,305.845 202.654,308.352 z" id="boundary" inkscape:connector-curvature="0" />
	<path style="fill:none;stroke:red;stroke-width:1px;stroke-linecap:butt;stroke-linejoin:miter;stroke-opacity:1" d="M 204.521,310.527 202.654,308.352 z" id="boundary" inkscape:connector-curvature="0" />
	<path style="fill:none;stroke:red;stroke-width:1px;stroke-linecap:butt;stroke-linejoin:miter;stroke-opacity:1" d="M 207.09,311.841 204.521,310.527 z" id="boundary" inkscape:connector-curvature="0" />
	<path style="fill:none;stroke:red;stroke-width:1px;stroke-linecap:butt;stroke-linejoin:miter;stroke-opacity:1" d="M 230.718,285.578 230.44,288.482 z" id="boundary" inkscape:connector-curvature="0" />
	<path style="fill:none;stroke:red;stroke-width:1px;stroke-linecap:butt;stroke-linejoin:miter;stroke-opacity:1" d="M 230.718,285.578 232.39,282.788 z" id="boundary" inkscape:connector-curvature="0" />
	<path style="fill:none;stroke:red;stroke-width:1px;stroke-linecap:butt;stroke-linejoin:miter;stroke-opacity:1" d="M 230.731,279.318 232.39,282.788 z" id="boundary" inkscape:connector-curvature="0" />
	<path style="fill:none;stroke:red;stroke-width:1px;stroke-linecap:butt;stroke-linejoin:miter;stroke-opacity:1" d="M 231.593,291.556 230.44,288.482 z" id="boundary" inkscape:connector-curvature="0" />
	<path style="fill:none;stroke:red;stroke-width:1px;stroke-linecap:butt;stroke-linejoin:miter;stroke-opacity:1" d="M 225.117,307.916 222.718,309.171 z" id="boundary" inkscape:connector-curvature="0" />
	<path style="fill:none;stroke:red;stroke-width:1px;stroke-linecap:butt;stroke-linejoin:miter;stroke-opacity:1" d="M 225.591,296.744 229.03,300.813 z" id="boundary" inkscape:connector-curvature="0" />
	<path style="fill:none;stroke:red;stroke-width:1px;stroke-linecap:butt;stroke-linejoin:miter;stroke-opacity:1" d="M 229.03,300.813 229.861,304.121 z" id="boundary" inkscape:connector-curvature="0" />
	<path style="fill:none;stroke:red;stroke-width:1px;stroke-linecap:butt;stroke-linejoin:miter;stroke-opacity:1" d="M 228.698,306.64 225.117,307.916 z" id="boundary" inkscape:connector-curvature="0" />
	<path style="fill:none;stroke:red;stroke-width:1px;stroke-linecap:butt;stroke-linejoin:miter;stroke-opacity:1" d="M 229.861,304.121 228.698,306.64 z" id="boundary" inkscape:connector-curvature="0" />
	<path style="fill:none;stroke:red;stroke-width:1px;stroke-linecap:butt;stroke-linejoin:miter;stroke-opacity:1" d="M 225.591,296.744 227.013,293.733 z" id="boundary" inkscape:connector-curvature="0" />
	<path style="fill:none;stroke:red;stroke-width:1px;stroke-linecap:butt;stroke-linejoin:miter;stroke-opacity:1" d="M 207.09,311.841 209.878,312.16 z" id="boundary" inkscape:connector-curvature="0" />
	<path style="fill:none;stroke:red;stroke-width:1px;stroke-linecap:butt;stroke-linejoin:miter;stroke-opacity:1" d="M 211.894,314.579 210.216,314.434 z" id="boundary" inkscape:connector-curvature="0" />
	<path style="fill:none;stroke:red;stroke-width:1px;stroke-linecap:butt;stroke-linejoin:miter;stroke-opacity:1" d="M 210.216,314.434 212.199,318.018 z" id="boundary" inkscape:connector-curvature="0" />
	<path style="fill:none;stroke:red;stroke-width:1px;stroke-linecap:butt;stroke-linejoin:miter;stroke-opacity:1" d="M 216.709,318.188 213.748,317.959 z" id="boundary" inkscape:connector-curvature="0" />
	<path style="fill:none;stroke:red;stroke-width:1px;stroke-linecap:butt;stroke-linejoin:miter;stroke-opacity:1" d="M 213.748,317.959 212.199,318.018 z" id="boundary" inkscape:connector-curvature="0" />
	<path style="fill:none;stroke:red;stroke-width:1px;stroke-linecap:butt;stroke-linejoin:miter;stroke-opacity:1" d="M 214.001,853.962 206.376,856.21 z" id="boundary" inkscape:connector-curvature="0" />
	<path style="fill:none;stroke:red;stroke-width:1px;stroke-linecap:butt;stroke-linejoin:miter;stroke-opacity:1" d="M 218.612,840.735 214.001,853.962 z" id="boundary" inkscape:connector-curvature="0" />
	<path style="fill:none;stroke:red;stroke-width:1px;stroke-linecap:butt;stroke-linejoin:miter;stroke-opacity:1" d="M 225.135,828.318 218.612,840.735 z" id="boundary" inkscape:connector-curvature="0" />
	<path style="fill:none;stroke:red;stroke-width:1px;stroke-linecap:butt;stroke-linejoin:miter;stroke-opacity:1" d="M 224.136,934.325 216.584,928.443 z" id="boundary" inkscape:connector-curvature="0" />
	<path style="fill:none;stroke:red;stroke-width:1px;stroke-linecap:butt;stroke-linejoin:miter;stroke-opacity:1" d="M 225.376,689.962 203.055,692.053 z" id="boundary" inkscape:connector-curvature="0" />
	<path style="fill:none;stroke:red;stroke-width:1px;stroke-linecap:butt;stroke-linejoin:miter;stroke-opacity:1" d="M 215.732,315.127 217.703,315.568 z" id="boundary" inkscape:connector-curvature="0" />
	<path style="fill:none;stroke:red;stroke-width:1px;stroke-linecap:butt;stroke-linejoin:miter;stroke-opacity:1" d="M 217.703,315.568 219.301,314.399 z" id="boundary" inkscape:connector-curvature="0" />
	<path style="fill:none;stroke:red;stroke-width:1px;stroke-linecap:butt;stroke-linejoin:miter;stroke-opacity:1" d="M 219.301,314.399 221.24,313.022 z" id="boundary" inkscape:connector-curvature="0" />
	<path style="fill:none;stroke:red;stroke-width:1px;stroke-linecap:butt;stroke-linejoin:miter;stroke-opacity:1" d="M 222.674,316.206 224.693,313.946 z" id="boundary" inkscape:connector-curvature="0" />
	<path style="fill:none;stroke:red;stroke-width:1px;stroke-linecap:butt;stroke-linejoin:miter;stroke-opacity:1" d="M 224.693,313.946 225.926,312.897 z" id="boundary" inkscape:connector-curvature="0" />
	<path style="fill:none;stroke:red;stroke-width:1px;stroke-linecap:butt;stroke-linejoin:miter;stroke-opacity:1" d="M 221.24,313.022 222.718,309.171 z" id="boundary" inkscape:connector-curvature="0" />
	<path style="fill:none;stroke:red;stroke-width:1px;stroke-linecap:butt;stroke-linejoin:miter;stroke-opacity:1" d="M 219.775,317.843 222.674,316.206 z" id="boundary" inkscape:connector-curvature="0" />
	<path style="fill:none;stroke:red;stroke-width:1px;stroke-linecap:butt;stroke-linejoin:miter;stroke-opacity:1" d="M 225.135,828.318 234.337,828.483 z" id="boundary" inkscape:connector-curvature="0" />
	<path style="fill:none;stroke:red;stroke-width:1px;stroke-linecap:butt;stroke-linejoin:miter;stroke-opacity:1" d="M 231.328,951.315 203.51,944.506 z" id="boundary" inkscape:connector-curvature="0" />
	<path style="fill:none;stroke:red;stroke-width:1px;stroke-linecap:butt;stroke-linejoin:miter;stroke-opacity:1" d="M 242.461,953.966 231.328,951.315 z" id="boundary" inkscape:connector-curvature="0" />
	<path style="fill:none;stroke:red;stroke-width:1px;stroke-linecap:butt;stroke-linejoin:miter;stroke-opacity:1" d="M 216.709,318.188 219.775,317.843 z" id="boundary" inkscape:connector-curvature="0" />
	<path style="fill:none;stroke:red;stroke-width:1px;stroke-linecap:butt;stroke-linejoin:miter;stroke-opacity:1" d="M 222.94,718.362 247.307,748.214 z" id="boundary" inkscape:connector-curvature="0" />
	<path style="fill:none;stroke:red;stroke-width:1px;stroke-linecap:butt;stroke-linejoin:miter;stroke-opacity:1" d="M 225.376,689.962 247.15,713.069 z" id="boundary" inkscape:connector-curvature="0" />
	<path style="fill:none;stroke:red;stroke-width:1px;stroke-linecap:butt;stroke-linejoin:miter;stroke-opacity:1" d="M 232.234,253.897 234.711,258.225 z" id="boundary" inkscape:connector-curvature="0" />
	<path style="fill:none;stroke:red;stroke-width:1px;stroke-linecap:butt;stroke-linejoin:miter;stroke-opacity:1" d="M 250.112,135.919 247.646,139.966 z" id="boundary" inkscape:connector-curvature="0" />
	<path style="fill:none;stroke:red;stroke-width:1px;stroke-linecap:butt;stroke-linejoin:miter;stroke-opacity:1" d="M 247.646,139.966 246.849,148.598 z" id="boundary" inkscape:connector-curvature="0" />
	<path style="fill:none;stroke:red;stroke-width:1px;stroke-linecap:butt;stroke-linejoin:miter;stroke-opacity:1" d="M 254.46,127.794 250.112,135.919 z" id="boundary" inkscape:connector-curvature="0" />
	<path style="fill:none;stroke:red;stroke-width:1px;stroke-linecap:butt;stroke-linejoin:miter;stroke-opacity:1" d="M 251.415,121.654 249.632,115.701 z" id="boundary" inkscape:connector-curvature="0" />
	<path style="fill:none;stroke:red;stroke-width:1px;stroke-linecap:butt;stroke-linejoin:miter;stroke-opacity:1" d="M 249.165,93.2249 253.764,99.4484 z" id="boundary" inkscape:connector-curvature="0" />
	<path style="fill:none;stroke:red;stroke-width:1px;stroke-linecap:butt;stroke-linejoin:miter;stroke-opacity:1" d="M 249.16,161.954 248.776,165.895 z" id="boundary" inkscape:connector-curvature="0" />
	<path style="fill:none;stroke:red;stroke-width:1px;stroke-linecap:butt;stroke-linejoin:miter;stroke-opacity:1" d="M 248.776,165.895 248.806,173.75 z" id="boundary" inkscape:connector-curvature="0" />
	<path style="fill:none;stroke:red;stroke-width:1px;stroke-linecap:butt;stroke-linejoin:miter;stroke-opacity:1" d="M 249.16,161.954 250.972,158.157 z" id="boundary" inkscape:connector-curvature="0" />
	<path style="fill:none;stroke:red;stroke-width:1px;stroke-linecap:butt;stroke-linejoin:miter;stroke-opacity:1" d="M 250.972,158.157 253.698,153.85 z" id="boundary" inkscape:connector-curvature="0" />
	<path style="fill:none;stroke:red;stroke-width:1px;stroke-linecap:butt;stroke-linejoin:miter;stroke-opacity:1" d="M 243.458,176.952 243.478,169.176 z" id="boundary" inkscape:connector-curvature="0" />
	<path style="fill:none;stroke:red;stroke-width:1px;stroke-linecap:butt;stroke-linejoin:miter;stroke-opacity:1" d="M 251.415,121.654 254.46,127.794 z" id="boundary" inkscape:connector-curvature="0" />
	<path style="fill:none;stroke:red;stroke-width:1px;stroke-linecap:butt;stroke-linejoin:miter;stroke-opacity:1" d="M 253.101,77.8089 260.948,73.6356 z" id="boundary" inkscape:connector-curvature="0" />
	<path style="fill:none;stroke:red;stroke-width:1px;stroke-linecap:butt;stroke-linejoin:miter;stroke-opacity:1" d="M 260.385,84.4185 257.64,89.2142 z" id="boundary" inkscape:connector-curvature="0" />
	<path style="fill:none;stroke:red;stroke-width:1px;stroke-linecap:butt;stroke-linejoin:miter;stroke-opacity:1" d="M 262.373,55.8027 265.333,62.4978 z" id="boundary" inkscape:connector-curvature="0" />
	<path style="fill:none;stroke:red;stroke-width:1px;stroke-linecap:butt;stroke-linejoin:miter;stroke-opacity:1" d="M 269.644,69.4816 260.385,84.4185 z" id="boundary" inkscape:connector-curvature="0" />
	<path style="fill:none;stroke:red;stroke-width:1px;stroke-linecap:butt;stroke-linejoin:miter;stroke-opacity:1" d="M 262.373,55.8027 259.899,47.9984 z" id="boundary" inkscape:connector-curvature="0" />
	<path style="fill:none;stroke:red;stroke-width:1px;stroke-linecap:butt;stroke-linejoin:miter;stroke-opacity:1" d="M 253.698,153.85 252.92,145 z" id="boundary" inkscape:connector-curvature="0" />
	<path style="fill:none;stroke:red;stroke-width:1px;stroke-linecap:butt;stroke-linejoin:miter;stroke-opacity:1" d="M 253.764,99.4484 254.787,105.143 z" id="boundary" inkscape:connector-curvature="0" />
	<path style="fill:none;stroke:red;stroke-width:1px;stroke-linecap:butt;stroke-linejoin:miter;stroke-opacity:1" d="M 259.28,111.368 254.787,105.143 z" id="boundary" inkscape:connector-curvature="0" />
	<path style="fill:none;stroke:red;stroke-width:1px;stroke-linecap:butt;stroke-linejoin:miter;stroke-opacity:1" d="M 265.333,62.4978 269.644,69.4816 z" id="boundary" inkscape:connector-curvature="0" />
	<path style="fill:none;stroke:red;stroke-width:1px;stroke-linecap:butt;stroke-linejoin:miter;stroke-opacity:1" d="M 235.091,232.453 234.553,228.489 z" id="boundary" inkscape:connector-curvature="0" />
	<path style="fill:none;stroke:red;stroke-width:1px;stroke-linecap:butt;stroke-linejoin:miter;stroke-opacity:1" d="M 234.553,228.489 235.425,225.411 z" id="boundary" inkscape:connector-curvature="0" />
	<path style="fill:none;stroke:red;stroke-width:1px;stroke-linecap:butt;stroke-linejoin:miter;stroke-opacity:1" d="M 235.091,232.453 235.467,237.079 z" id="boundary" inkscape:connector-curvature="0" />
	<path style="fill:none;stroke:red;stroke-width:1px;stroke-linecap:butt;stroke-linejoin:miter;stroke-opacity:1" d="M 234.978,218.862 236.204,222.276 z" id="boundary" inkscape:connector-curvature="0" />
	<path style="fill:none;stroke:red;stroke-width:1px;stroke-linecap:butt;stroke-linejoin:miter;stroke-opacity:1" d="M 236.204,222.276 235.425,225.411 z" id="boundary" inkscape:connector-curvature="0" />
	<path style="fill:none;stroke:red;stroke-width:1px;stroke-linecap:butt;stroke-linejoin:miter;stroke-opacity:1" d="M 235.945,208.866 236.467,212.342 z" id="boundary" inkscape:connector-curvature="0" />
	<path style="fill:none;stroke:red;stroke-width:1px;stroke-linecap:butt;stroke-linejoin:miter;stroke-opacity:1" d="M 234.711,258.225 236.363,266.149 z" id="boundary" inkscape:connector-curvature="0" />
	<path style="fill:none;stroke:red;stroke-width:1px;stroke-linecap:butt;stroke-linejoin:miter;stroke-opacity:1" d="M 242.166,242.337 235.674,245.937 z" id="boundary" inkscape:connector-curvature="0" />
	<path style="fill:none;stroke:red;stroke-width:1px;stroke-linecap:butt;stroke-linejoin:miter;stroke-opacity:1" d="M 233.997,249.982 235.674,245.937 z" id="boundary" inkscape:connector-curvature="0" />
	<path style="fill:none;stroke:red;stroke-width:1px;stroke-linecap:butt;stroke-linejoin:miter;stroke-opacity:1" d="M 236.363,266.149 236.734,276.928 z" id="boundary" inkscape:connector-curvature="0" />
	<path style="fill:none;stroke:red;stroke-width:1px;stroke-linecap:butt;stroke-linejoin:miter;stroke-opacity:1" d="M 239.079,195.101 238.785,191.419 z" id="boundary" inkscape:connector-curvature="0" />
	<path style="fill:none;stroke:red;stroke-width:1px;stroke-linecap:butt;stroke-linejoin:miter;stroke-opacity:1" d="M 242.352,184.419 238.785,191.419 z" id="boundary" inkscape:connector-curvature="0" />
	<path style="fill:none;stroke:red;stroke-width:1px;stroke-linecap:butt;stroke-linejoin:miter;stroke-opacity:1" d="M 239.757,205.843 235.945,208.866 z" id="boundary" inkscape:connector-curvature="0" />
	<path style="fill:none;stroke:red;stroke-width:1px;stroke-linecap:butt;stroke-linejoin:miter;stroke-opacity:1" d="M 247.554,181.273 248.564,188.896 z" id="boundary" inkscape:connector-curvature="0" />
	<path style="fill:none;stroke:red;stroke-width:1px;stroke-linecap:butt;stroke-linejoin:miter;stroke-opacity:1" d="M 248.806,173.75 247.554,181.273 z" id="boundary" inkscape:connector-curvature="0" />
	<path style="fill:none;stroke:red;stroke-width:1px;stroke-linecap:butt;stroke-linejoin:miter;stroke-opacity:1" d="M 242.352,184.419 243.458,176.952 z" id="boundary" inkscape:connector-curvature="0" />
	<path style="fill:none;stroke:red;stroke-width:1px;stroke-linecap:butt;stroke-linejoin:miter;stroke-opacity:1" d="M 248.564,188.896 246.149,199.528 z" id="boundary" inkscape:connector-curvature="0" />
	<path style="fill:none;stroke:red;stroke-width:1px;stroke-linecap:butt;stroke-linejoin:miter;stroke-opacity:1" d="M 237.824,215.866 236.467,212.342 z" id="boundary" inkscape:connector-curvature="0" />
	<path style="fill:none;stroke:red;stroke-width:1px;stroke-linecap:butt;stroke-linejoin:miter;stroke-opacity:1" d="M 242.015,202.597 246.149,199.528 z" id="boundary" inkscape:connector-curvature="0" />
	<path style="fill:none;stroke:red;stroke-width:1px;stroke-linecap:butt;stroke-linejoin:miter;stroke-opacity:1" d="M 239.757,205.843 242.015,202.597 z" id="boundary" inkscape:connector-curvature="0" />
	<path style="fill:none;stroke:red;stroke-width:1px;stroke-linecap:butt;stroke-linejoin:miter;stroke-opacity:1" d="M 282.479,18.2664 293.067,15.1061 z" id="boundary" inkscape:connector-curvature="0" />
	<path style="fill:none;stroke:red;stroke-width:1px;stroke-linecap:butt;stroke-linejoin:miter;stroke-opacity:1" d="M 298.757,23.7595 290.831,23.1905 z" id="boundary" inkscape:connector-curvature="0" />
	<path style="fill:none;stroke:red;stroke-width:1px;stroke-linecap:butt;stroke-linejoin:miter;stroke-opacity:1" d="M 290.831,23.1905 282.69,26.6043 z" id="boundary" inkscape:connector-curvature="0" />
	<path style="fill:none;stroke:red;stroke-width:1px;stroke-linecap:butt;stroke-linejoin:miter;stroke-opacity:1" d="M 298.757,23.7595 303.601,18.1476 z" id="boundary" inkscape:connector-curvature="0" />
	<path style="fill:none;stroke:red;stroke-width:1px;stroke-linecap:butt;stroke-linejoin:miter;stroke-opacity:1" d="M 309.596,14.716 303.601,18.1476 z" id="boundary" inkscape:connector-curvature="0" />
	<path style="fill:none;stroke:red;stroke-width:1px;stroke-linecap:butt;stroke-linejoin:miter;stroke-opacity:1" d="M 268.115,36.7616 274.063,33.1999 z" id="boundary" inkscape:connector-curvature="0" />
	<path style="fill:none;stroke:red;stroke-width:1px;stroke-linecap:butt;stroke-linejoin:miter;stroke-opacity:1" d="M 259.899,47.9984 268.115,36.7616 z" id="boundary" inkscape:connector-curvature="0" />
	<path style="fill:none;stroke:red;stroke-width:1px;stroke-linecap:butt;stroke-linejoin:miter;stroke-opacity:1" d="M 274.063,33.1999 277.107,28.6994 z" id="boundary" inkscape:connector-curvature="0" />
	<path style="fill:none;stroke:red;stroke-width:1px;stroke-linecap:butt;stroke-linejoin:miter;stroke-opacity:1" d="M 277.107,28.6994 282.69,26.6043 z" id="boundary" inkscape:connector-curvature="0" />
	<path style="fill:none;stroke:red;stroke-width:1px;stroke-linecap:butt;stroke-linejoin:miter;stroke-opacity:1" d="M 309.596,14.716 315.192,17.0124 z" id="boundary" inkscape:connector-curvature="0" />
	<path style="fill:none;stroke:red;stroke-width:1px;stroke-linecap:butt;stroke-linejoin:miter;stroke-opacity:1" d="M 315.192,17.0124 320.027,20.2661 z" id="boundary" inkscape:connector-curvature="0" />
	<path style="fill:none;stroke:red;stroke-width:1px;stroke-linecap:butt;stroke-linejoin:miter;stroke-opacity:1" d="M 320.027,20.2661 321.376,28.2328 z" id="boundary" inkscape:connector-curvature="0" />
	<path style="fill:none;stroke:red;stroke-width:1px;stroke-linecap:butt;stroke-linejoin:miter;stroke-opacity:1" d="M 848.696,341.687 714.109,278.623 z" id="boundary" inkscape:connector-curvature="0" />
	<path style="fill:none;stroke:red;stroke-width:1px;stroke-linecap:butt;stroke-linejoin:miter;stroke-opacity:1" d="M 321.376,28.2328 322.345,34.5808 z" id="boundary" inkscape:connector-curvature="0" />
	<path style="fill:none;stroke:red;stroke-width:1px;stroke-linecap:butt;stroke-linejoin:miter;stroke-opacity:1" d="M 332.96,35.097 336.345,41.4003 z" id="boundary" inkscape:connector-curvature="0" />
	<path style="fill:none;stroke:red;stroke-width:1px;stroke-linecap:butt;stroke-linejoin:miter;stroke-opacity:1" d="M 341.105,47.9656 336.345,41.4003 z" id="boundary" inkscape:connector-curvature="0" />
	<path style="fill:none;stroke:red;stroke-width:1px;stroke-linecap:butt;stroke-linejoin:miter;stroke-opacity:1" d="M 331.588,73.3526 333.57,57.6791 z" id="boundary" inkscape:connector-curvature="0" />
	<path style="fill:none;stroke:red;stroke-width:1px;stroke-linecap:butt;stroke-linejoin:miter;stroke-opacity:1" d="M 341.105,47.9656 344.732,64.096 z" id="boundary" inkscape:connector-curvature="0" />
	<path style="fill:none;stroke:red;stroke-width:1px;stroke-linecap:butt;stroke-linejoin:miter;stroke-opacity:1" d="M 350.678,81.2753 344.259,90.098 z" id="boundary" inkscape:connector-curvature="0" />
	<path style="fill:none;stroke:red;stroke-width:1px;stroke-linecap:butt;stroke-linejoin:miter;stroke-opacity:1" d="M 350.678,81.2753 344.732,64.096 z" id="boundary" inkscape:connector-curvature="0" />
	<path style="fill:none;stroke:red;stroke-width:1px;stroke-linecap:butt;stroke-linejoin:miter;stroke-opacity:1" d="M 342.866,99.2567 344.259,90.098 z" id="boundary" inkscape:connector-curvature="0" />
	<path style="fill:none;stroke:red;stroke-width:1px;stroke-linecap:butt;stroke-linejoin:miter;stroke-opacity:1" d="M 310.981,215.447 308.143,233.132 z" id="boundary" inkscape:connector-curvature="0" />
	<path style="fill:none;stroke:red;stroke-width:1px;stroke-linecap:butt;stroke-linejoin:miter;stroke-opacity:1" d="M 322.019,208.232 321.458,226.321 z" id="boundary" inkscape:connector-curvature="0" />
	<path style="fill:none;stroke:red;stroke-width:1px;stroke-linecap:butt;stroke-linejoin:miter;stroke-opacity:1" d="M 316.041,167.851 317.48,159.337 z" id="boundary" inkscape:connector-curvature="0" />
	<path style="fill:none;stroke:red;stroke-width:1px;stroke-linecap:butt;stroke-linejoin:miter;stroke-opacity:1" d="M 320.297,178.92 316.041,167.851 z" id="boundary" inkscape:connector-curvature="0" />
	<path style="fill:none;stroke:red;stroke-width:1px;stroke-linecap:butt;stroke-linejoin:miter;stroke-opacity:1" d="M 308.002,241.887 308.143,233.132 z" id="boundary" inkscape:connector-curvature="0" />
	<path style="fill:none;stroke:red;stroke-width:1px;stroke-linecap:butt;stroke-linejoin:miter;stroke-opacity:1" d="M 305.344,283.336 301.813,292.683 z" id="boundary" inkscape:connector-curvature="0" />
	<path style="fill:none;stroke:red;stroke-width:1px;stroke-linecap:butt;stroke-linejoin:miter;stroke-opacity:1" d="M 303.595,249.99 297.584,266.37 z" id="boundary" inkscape:connector-curvature="0" />
	<path style="fill:none;stroke:red;stroke-width:1px;stroke-linecap:butt;stroke-linejoin:miter;stroke-opacity:1" d="M 322.483,259.899 317.964,275.016 z" id="boundary" inkscape:connector-curvature="0" />
	<path style="fill:none;stroke:red;stroke-width:1px;stroke-linecap:butt;stroke-linejoin:miter;stroke-opacity:1" d="M 303.595,249.99 308.002,241.887 z" id="boundary" inkscape:connector-curvature="0" />
	<path style="fill:none;stroke:red;stroke-width:1px;stroke-linecap:butt;stroke-linejoin:miter;stroke-opacity:1" d="M 309.008,301.029 301.813,292.683 z" id="boundary" inkscape:connector-curvature="0" />
	<path style="fill:none;stroke:red;stroke-width:1px;stroke-linecap:butt;stroke-linejoin:miter;stroke-opacity:1" d="M 321.458,226.321 322.483,259.899 z" id="boundary" inkscape:connector-curvature="0" />
	<path style="fill:none;stroke:red;stroke-width:1px;stroke-linecap:butt;stroke-linejoin:miter;stroke-opacity:1" d="M 327.401,132.943 324.147,123.48 z" id="boundary" inkscape:connector-curvature="0" />
	<path style="fill:none;stroke:red;stroke-width:1px;stroke-linecap:butt;stroke-linejoin:miter;stroke-opacity:1" d="M 331.093,107.578 324.147,123.48 z" id="boundary" inkscape:connector-curvature="0" />
	<path style="fill:none;stroke:red;stroke-width:1px;stroke-linecap:butt;stroke-linejoin:miter;stroke-opacity:1" d="M 342.296,145.197 335.162,153.482 z" id="boundary" inkscape:connector-curvature="0" />
	<path style="fill:none;stroke:red;stroke-width:1px;stroke-linecap:butt;stroke-linejoin:miter;stroke-opacity:1" d="M 337.59,116.816 342.296,145.197 z" id="boundary" inkscape:connector-curvature="0" />
	<path style="fill:none;stroke:red;stroke-width:1px;stroke-linecap:butt;stroke-linejoin:miter;stroke-opacity:1" d="M 337.59,116.816 342.866,99.2567 z" id="boundary" inkscape:connector-curvature="0" />
	<path style="fill:none;stroke:red;stroke-width:1px;stroke-linecap:butt;stroke-linejoin:miter;stroke-opacity:1" d="M 323.646,189.521 320.297,178.92 z" id="boundary" inkscape:connector-curvature="0" />
	<path style="fill:none;stroke:red;stroke-width:1px;stroke-linecap:butt;stroke-linejoin:miter;stroke-opacity:1" d="M 322.057,198.81 322.019,208.232 z" id="boundary" inkscape:connector-curvature="0" />
	<path style="fill:none;stroke:red;stroke-width:1px;stroke-linecap:butt;stroke-linejoin:miter;stroke-opacity:1" d="M 322.057,198.81 323.646,189.521 z" id="boundary" inkscape:connector-curvature="0" />
	<path style="fill:none;stroke:red;stroke-width:1px;stroke-linecap:butt;stroke-linejoin:miter;stroke-opacity:1" d="M 324.632,307.101 325.897,315.669 z" id="boundary" inkscape:connector-curvature="0" />
	<path style="fill:none;stroke:red;stroke-width:1px;stroke-linecap:butt;stroke-linejoin:miter;stroke-opacity:1" d="M 325.897,315.669 324.496,325.458 z" id="boundary" inkscape:connector-curvature="0" />
	<path style="fill:none;stroke:red;stroke-width:1px;stroke-linecap:butt;stroke-linejoin:miter;stroke-opacity:1" d="M 324.496,325.458 326.506,334.902 z" id="boundary" inkscape:connector-curvature="0" />
	<path style="fill:none;stroke:red;stroke-width:1px;stroke-linecap:butt;stroke-linejoin:miter;stroke-opacity:1" d="M 326.506,334.902 339.316,354.079 z" id="boundary" inkscape:connector-curvature="0" />
	<path style="fill:none;stroke:red;stroke-width:1px;stroke-linecap:butt;stroke-linejoin:miter;stroke-opacity:1" d="M 358.979,367.022 339.144,371.826 z" id="boundary" inkscape:connector-curvature="0" />
	<path style="fill:none;stroke:red;stroke-width:1px;stroke-linecap:butt;stroke-linejoin:miter;stroke-opacity:1" d="M 339.144,371.826 312.484,355.53 z" id="boundary" inkscape:connector-curvature="0" />
	<path style="fill:none;stroke:red;stroke-width:1px;stroke-linecap:butt;stroke-linejoin:miter;stroke-opacity:1" d="M 372.756,366.926 358.979,367.022 z" id="boundary" inkscape:connector-curvature="0" />
	<path style="fill:none;stroke:red;stroke-width:1px;stroke-linecap:butt;stroke-linejoin:miter;stroke-opacity:1" d="M 256.846,753.959 247.307,748.214 z" id="boundary" inkscape:connector-curvature="0" />
	<path style="fill:none;stroke:red;stroke-width:1px;stroke-linecap:butt;stroke-linejoin:miter;stroke-opacity:1" d="M 247.15,713.069 261.387,720.515 z" id="boundary" inkscape:connector-curvature="0" />
	<path style="fill:none;stroke:red;stroke-width:1px;stroke-linecap:butt;stroke-linejoin:miter;stroke-opacity:1" d="M 256.846,753.959 262.012,762.442 z" id="boundary" inkscape:connector-curvature="0" />
	<path style="fill:none;stroke:red;stroke-width:1px;stroke-linecap:butt;stroke-linejoin:miter;stroke-opacity:1" d="M 275.919,767.827 262.012,762.442 z" id="boundary" inkscape:connector-curvature="0" />
	<path style="fill:none;stroke:red;stroke-width:1px;stroke-linecap:butt;stroke-linejoin:miter;stroke-opacity:1" d="M 471.233,357.616 491.179,346.589 z" id="boundary" inkscape:connector-curvature="0" />
	<path style="fill:none;stroke:red;stroke-width:1px;stroke-linecap:butt;stroke-linejoin:miter;stroke-opacity:1" d="M 383.181,372.178 372.756,366.926 z" id="boundary" inkscape:connector-curvature="0" />
	<path style="fill:none;stroke:red;stroke-width:1px;stroke-linecap:butt;stroke-linejoin:miter;stroke-opacity:1" d="M 584.234,338.258 556.709,357.294 z" id="boundary" inkscape:connector-curvature="0" />
	<path style="fill:none;stroke:red;stroke-width:1px;stroke-linecap:butt;stroke-linejoin:miter;stroke-opacity:1" d="M 556.709,357.294 516.287,336.781 z" id="boundary" inkscape:connector-curvature="0" />
	<path style="fill:none;stroke:red;stroke-width:1px;stroke-linecap:butt;stroke-linejoin:miter;stroke-opacity:1" d="M 516.287,336.781 491.179,346.589 z" id="boundary" inkscape:connector-curvature="0" />
	<path style="fill:none;stroke:red;stroke-width:1px;stroke-linecap:butt;stroke-linejoin:miter;stroke-opacity:1" d="M 383.181,372.178 394.38,377.267 z" id="boundary" inkscape:connector-curvature="0" />
	<path style="fill:none;stroke:red;stroke-width:1px;stroke-linecap:butt;stroke-linejoin:miter;stroke-opacity:1" d="M 394.38,377.267 422.083,381.251 z" id="boundary" inkscape:connector-curvature="0" />
	<path style="fill:none;stroke:red;stroke-width:1px;stroke-linecap:butt;stroke-linejoin:miter;stroke-opacity:1" d="M 439.029,392.735 422.083,381.251 z" id="boundary" inkscape:connector-curvature="0" />
	<path style="fill:none;stroke:red;stroke-width:1px;stroke-linecap:butt;stroke-linejoin:miter;stroke-opacity:1" d="M 439.029,392.735 462.059,404.767 z" id="boundary" inkscape:connector-curvature="0" />
	<path style="fill:none;stroke:red;stroke-width:1px;stroke-linecap:butt;stroke-linejoin:miter;stroke-opacity:1" d="M 462.059,404.767 403.297,409.733 z" id="boundary" inkscape:connector-curvature="0" />
	<path style="fill:none;stroke:red;stroke-width:1px;stroke-linecap:butt;stroke-linejoin:miter;stroke-opacity:1" d="M 664.271,362.6 630.461,377.492 z" id="boundary" inkscape:connector-curvature="0" />
	<path style="fill:none;stroke:red;stroke-width:1px;stroke-linecap:butt;stroke-linejoin:miter;stroke-opacity:1" d="M 268.486,808.825 262.932,814.832 z" id="boundary" inkscape:connector-curvature="0" />
	<path style="fill:none;stroke:red;stroke-width:1px;stroke-linecap:butt;stroke-linejoin:miter;stroke-opacity:1" d="M 269.866,801.19 268.486,808.825 z" id="boundary" inkscape:connector-curvature="0" />
	<path style="fill:none;stroke:red;stroke-width:1px;stroke-linecap:butt;stroke-linejoin:miter;stroke-opacity:1" d="M 262.932,814.832 257.169,820.027 z" id="boundary" inkscape:connector-curvature="0" />
	<path style="fill:none;stroke:red;stroke-width:1px;stroke-linecap:butt;stroke-linejoin:miter;stroke-opacity:1" d="M 277.41,794.494 269.866,801.19 z" id="boundary" inkscape:connector-curvature="0" />
	<path style="fill:none;stroke:red;stroke-width:1px;stroke-linecap:butt;stroke-linejoin:miter;stroke-opacity:1" d="M 279.664,785.679 277.41,794.494 z" id="boundary" inkscape:connector-curvature="0" />
	<path style="fill:none;stroke:red;stroke-width:1px;stroke-linecap:butt;stroke-linejoin:miter;stroke-opacity:1" d="M 275.919,767.827 279.664,785.679 z" id="boundary" inkscape:connector-curvature="0" />
	<path style="fill:none;stroke:red;stroke-width:1px;stroke-linecap:butt;stroke-linejoin:miter;stroke-opacity:1" d="M 244.881,831.667 234.337,828.483 z" id="boundary" inkscape:connector-curvature="0" />
	<path style="fill:none;stroke:red;stroke-width:1px;stroke-linecap:butt;stroke-linejoin:miter;stroke-opacity:1" d="M 244.881,831.667 256.724,834.881 z" id="boundary" inkscape:connector-curvature="0" />
	<path style="fill:none;stroke:red;stroke-width:1px;stroke-linecap:butt;stroke-linejoin:miter;stroke-opacity:1" d="M 257.805,926.285 284.682,932.004 z" id="boundary" inkscape:connector-curvature="0" />
	<path style="fill:none;stroke:red;stroke-width:1px;stroke-linecap:butt;stroke-linejoin:miter;stroke-opacity:1" d="M 298.556,966.117 242.461,953.966 z" id="boundary" inkscape:connector-curvature="0" />
	<path style="fill:none;stroke:red;stroke-width:1px;stroke-linecap:butt;stroke-linejoin:miter;stroke-opacity:1" d="M 316.927,941.238 284.682,932.004 z" id="boundary" inkscape:connector-curvature="0" />
	<path style="fill:none;stroke:red;stroke-width:1px;stroke-linecap:butt;stroke-linejoin:miter;stroke-opacity:1" d="M 450.069,942.692 424.153,931.376 z" id="boundary" inkscape:connector-curvature="0" />
	<path style="fill:none;stroke:red;stroke-width:1px;stroke-linecap:butt;stroke-linejoin:miter;stroke-opacity:1" d="M 519.601,944.365 450.069,942.692 z" id="boundary" inkscape:connector-curvature="0" />
	<path style="fill:none;stroke:red;stroke-width:1px;stroke-linecap:butt;stroke-linejoin:miter;stroke-opacity:1" d="M 424.153,931.376 399.568,938.936 z" id="boundary" inkscape:connector-curvature="0" />
	<path style="fill:none;stroke:red;stroke-width:1px;stroke-linecap:butt;stroke-linejoin:miter;stroke-opacity:1" d="M 376.099,965.498 399.568,938.936 z" id="boundary" inkscape:connector-curvature="0" />
	<path style="fill:none;stroke:red;stroke-width:1px;stroke-linecap:butt;stroke-linejoin:miter;stroke-opacity:1" d="M 334.257,975.213 298.556,966.117 z" id="boundary" inkscape:connector-curvature="0" />
	<path style="fill:none;stroke:red;stroke-width:1px;stroke-linecap:butt;stroke-linejoin:miter;stroke-opacity:1" d="M 354.811,958.331 376.099,965.498 z" id="boundary" inkscape:connector-curvature="0" />
	<path style="fill:none;stroke:red;stroke-width:1px;stroke-linecap:butt;stroke-linejoin:miter;stroke-opacity:1" d="M 519.601,944.365 561.299,961.481 z" id="boundary" inkscape:connector-curvature="0" />
	<path style="fill:none;stroke:red;stroke-width:1px;stroke-linecap:butt;stroke-linejoin:miter;stroke-opacity:1" d="M 561.299,961.481 483.016,986.45 z" id="boundary" inkscape:connector-curvature="0" />
	<path style="fill:none;stroke:red;stroke-width:1px;stroke-linecap:butt;stroke-linejoin:miter;stroke-opacity:1" d="M 483.016,986.45 334.257,975.213 z" id="boundary" inkscape:connector-curvature="0" />
	<path style="fill:none;stroke:red;stroke-width:1px;stroke-linecap:butt;stroke-linejoin:miter;stroke-opacity:1" d="M 610.059,908.549 655.85,957.038 z" id="boundary" inkscape:connector-curvature="0" />
	<path style="fill:none;stroke:red;stroke-width:1px;stroke-linecap:butt;stroke-linejoin:miter;stroke-opacity:1" d="M 751.57,343.356 789.454,363.319 z" id="boundary" inkscape:connector-curvature="0" />
	<path style="fill:none;stroke:red;stroke-width:1px;stroke-linecap:butt;stroke-linejoin:miter;stroke-opacity:1" d="M 876.255,470.358 865.977,439.574 z" id="boundary" inkscape:connector-curvature="0" />
	<path style="fill:none;stroke:red;stroke-width:1px;stroke-linecap:butt;stroke-linejoin:miter;stroke-opacity:1" d="M 865.977,439.574 856.545,399.881 z" id="boundary" inkscape:connector-curvature="0" />
	<path style="fill:none;stroke:red;stroke-width:1px;stroke-linecap:butt;stroke-linejoin:miter;stroke-opacity:1" d="M 848.696,341.687 856.545,399.881 z" id="boundary" inkscape:connector-curvature="0" />
	<path style="fill:none;stroke:red;stroke-width:1px;stroke-linecap:butt;stroke-linejoin:miter;stroke-opacity:1" d="M 901.477,547.997 876.255,470.358 z" id="boundary" inkscape:connector-curvature="0" />
	<path style="fill:none;stroke:red;stroke-width:1px;stroke-linecap:butt;stroke-linejoin:miter;stroke-opacity:1" d="M 901.477,547.997 924.834,665.891 z" id="boundary" inkscape:connector-curvature="0" />
	<path style="fill:none;stroke:red;stroke-width:1px;stroke-linecap:butt;stroke-linejoin:miter;stroke-opacity:1" d="M 919.438,723.926 918.452,708.465 z" id="boundary" inkscape:connector-curvature="0" />
	<path style="fill:none;stroke:red;stroke-width:1px;stroke-linecap:butt;stroke-linejoin:miter;stroke-opacity:1" d="M 924.834,665.891 926.167,680.991 z" id="boundary" inkscape:connector-curvature="0" />
	<path style="fill:none;stroke:red;stroke-width:1px;stroke-linecap:butt;stroke-linejoin:miter;stroke-opacity:1" d="M 926.167,680.991 936.371,696.736 z" id="boundary" inkscape:connector-curvature="0" />
	<path style="fill:none;stroke:red;stroke-width:1px;stroke-linecap:butt;stroke-linejoin:miter;stroke-opacity:1" d="M 954.29,577.523 944.066,606.962 z" id="boundary" inkscape:connector-curvature="0" />
	<path style="fill:none;stroke:red;stroke-width:1px;stroke-linecap:butt;stroke-linejoin:miter;stroke-opacity:1" d="M 954.29,577.523 967.75,632.095 z" id="boundary" inkscape:connector-curvature="0" />
	<path style="fill:none;stroke:red;stroke-width:1px;stroke-linecap:butt;stroke-linejoin:miter;stroke-opacity:1" d="M 967.75,632.095 956.157,652.491 z" id="boundary" inkscape:connector-curvature="0" />
	<path style="fill:none;stroke:red;stroke-width:1px;stroke-linecap:butt;stroke-linejoin:miter;stroke-opacity:1" d="M 932.235,748.692 930.129,736.227 z" id="boundary" inkscape:connector-curvature="0" />
	<path style="fill:none;stroke:red;stroke-width:1px;stroke-linecap:butt;stroke-linejoin:miter;stroke-opacity:1" d="M 930.129,736.227 919.438,723.926 z" id="boundary" inkscape:connector-curvature="0" />
	<path style="fill:none;stroke:red;stroke-width:1px;stroke-linecap:butt;stroke-linejoin:miter;stroke-opacity:1" d="M 959.678,759.518 957.37,773.312 z" id="boundary" inkscape:connector-curvature="0" />
	<path style="fill:none;stroke:red;stroke-width:1px;stroke-linecap:butt;stroke-linejoin:miter;stroke-opacity:1" d="M 974.199,782.107 968.229,775.411 z" id="boundary" inkscape:connector-curvature="0" />
	<path style="fill:none;stroke:red;stroke-width:1px;stroke-linecap:butt;stroke-linejoin:miter;stroke-opacity:1" d="M 957.37,773.312 968.229,775.411 z" id="boundary" inkscape:connector-curvature="0" />
	<path style="fill:none;stroke:red;stroke-width:1px;stroke-linecap:butt;stroke-linejoin:miter;stroke-opacity:1" d="M 956.216,751.15 959.678,759.518 z" id="boundary" inkscape:connector-curvature="0" />
	<path style="fill:none;stroke:red;stroke-width:1px;stroke-linecap:butt;stroke-linejoin:miter;stroke-opacity:1" d="M 940.944,469.58 959.078,503.551 z" id="boundary" inkscape:connector-curvature="0" />
	<path style="fill:none;stroke:red;stroke-width:1px;stroke-linecap:butt;stroke-linejoin:miter;stroke-opacity:1" d="M 796.33,950.561 765.557,919.534 z" id="boundary" inkscape:connector-curvature="0" />
	<path style="fill:none;stroke:red;stroke-width:1px;stroke-linecap:butt;stroke-linejoin:miter;stroke-opacity:1" d="M 890.793,945.298 867.046,928.344 z" id="boundary" inkscape:connector-curvature="0" />
	<path style="fill:none;stroke:red;stroke-width:1px;stroke-linecap:butt;stroke-linejoin:miter;stroke-opacity:1" d="M 923.259,927.138 930.679,906.712 z" id="boundary" inkscape:connector-curvature="0" />
	<path style="fill:none;stroke:red;stroke-width:1px;stroke-linecap:butt;stroke-linejoin:miter;stroke-opacity:1" d="M 957.889,900.898 947.766,910.763 z" id="boundary" inkscape:connector-curvature="0" />
	<path style="fill:none;stroke:red;stroke-width:1px;stroke-linecap:butt;stroke-linejoin:miter;stroke-opacity:1" d="M 914.445,958.71 923.259,927.138 z" id="boundary" inkscape:connector-curvature="0" />
	<path style="fill:none;stroke:red;stroke-width:1px;stroke-linecap:butt;stroke-linejoin:miter;stroke-opacity:1" d="M 914.445,958.71 890.793,945.298 z" id="boundary" inkscape:connector-curvature="0" />
	<path style="fill:none;stroke:red;stroke-width:1px;stroke-linecap:butt;stroke-linejoin:miter;stroke-opacity:1" d="M 655.85,957.038 696.961,969.935 z" id="boundary" inkscape:connector-curvature="0" />
	<path style="fill:none;stroke:red;stroke-width:1px;stroke-linecap:butt;stroke-linejoin:miter;stroke-opacity:1" d="M 696.961,969.935 733.871,996 z" id="boundary" inkscape:connector-curvature="0" />
	<path style="fill:none;stroke:red;stroke-width:1px;stroke-linecap:butt;stroke-linejoin:miter;stroke-opacity:1" d="M 825.724,970.643 849.056,958.837 z" id="boundary" inkscape:connector-curvature="0" />
	<path style="fill:none;stroke:red;stroke-width:1px;stroke-linecap:butt;stroke-linejoin:miter;stroke-opacity:1" d="M 825.724,970.643 796.33,950.561 z" id="boundary" inkscape:connector-curvature="0" />
	<path style="fill:none;stroke:red;stroke-width:1px;stroke-linecap:butt;stroke-linejoin:miter;stroke-opacity:1" d="M 981.41,811.029 976.085,804.644 z" id="boundary" inkscape:connector-curvature="0" />
	<path style="fill:none;stroke:red;stroke-width:1px;stroke-linecap:butt;stroke-linejoin:miter;stroke-opacity:1" d="M 976.085,804.644 974.363,795.196 z" id="boundary" inkscape:connector-curvature="0" />
	<path style="fill:none;stroke:red;stroke-width:1px;stroke-linecap:butt;stroke-linejoin:miter;stroke-opacity:1" d="M 974.363,795.196 974.199,782.107 z" id="boundary" inkscape:connector-curvature="0" />
	<path style="fill:none;stroke:red;stroke-width:1px;stroke-linecap:butt;stroke-linejoin:miter;stroke-opacity:1" d="M 981.41,811.029 991.465,817.291 z" id="boundary" inkscape:connector-curvature="0" />
	<path style="fill:none;stroke:red;stroke-width:1px;stroke-linecap:butt;stroke-linejoin:miter;stroke-opacity:1" d="M 991.465,817.291 992.073,827.093 z" id="boundary" inkscape:connector-curvature="0" />
	<path style="fill:none;stroke:red;stroke-width:1px;stroke-linecap:butt;stroke-linejoin:miter;stroke-opacity:1" d="M 992.073,827.093 982.447,837.779 z" id="boundary" inkscape:connector-curvature="0" />
	<path style="fill:none;stroke:red;stroke-width:1px;stroke-linecap:butt;stroke-linejoin:miter;stroke-opacity:1" d="M 969.384,893.848 957.889,900.898 z" id="boundary" inkscape:connector-curvature="0" />
	<path style="fill:none;stroke:red;stroke-width:1px;stroke-linecap:butt;stroke-linejoin:miter;stroke-opacity:1" d="M 987.969,888.819 969.384,893.848 z" id="boundary" inkscape:connector-curvature="0" />
	<path style="fill:none;stroke:red;stroke-width:1px;stroke-linecap:butt;stroke-linejoin:miter;stroke-opacity:1" d="M 978.568,847.1 982.447,837.779 z" id="boundary" inkscape:connector-curvature="0" />
	<path style="fill:none;stroke:red;stroke-width:1px;stroke-linecap:butt;stroke-linejoin:miter;stroke-opacity:1" d="M 978.568,847.1 973.74,857.457 z" id="boundary" inkscape:connector-curvature="0" />
	<path style="fill:none;stroke:red;stroke-width:1px;stroke-linecap:butt;stroke-linejoin:miter;stroke-opacity:1" d="M 971.214,867.964 973.74,857.457 z" id="boundary" inkscape:connector-curvature="0" />
	<circle cx="264.99" cy="778.513" r="4" fill="#0" id="circle0"/>
	<circle cx="275.919" cy="767.827" r="4" fill="#0" id="circle1"/>
	<circle cx="262.012" cy="762.442" r="4" fill="#0" id="circle2"/>
	<circle cx="256.846" cy="753.959" r="4" fill="#0" id="circle3"/>
	<circle cx="247.307" cy="748.214" r="4" fill="#0" id="circle4"/>
	<circle cx="261.387" cy="720.515" r="4" fill="#0" id="circle5"/>
	<circle cx="247.15" cy="713.069" r="4" fill="#0" id="circle6"/>
	<circle cx="222.94" cy="718.362" r="4" fill="#0" id="circle7"/>
	<circle cx="225.376" cy="689.962" r="4" fill="#0" id="circle8"/>
	<circle cx="203.055" cy="692.053" r="4" fill="#0" id="circle9"/>
	<circle cx="189.493" cy="678.6" r="4" fill="#0" id="circle10"/>
	<circle cx="168.322" cy="677.613" r="4" fill="#0" id="circle11"/>
	<circle cx="158.166" cy="651.658" r="4" fill="#0" id="circle12"/>
	<circle cx="133.577" cy="650.311" r="4" fill="#0" id="circle13"/>
	<circle cx="106.014" cy="662.379" r="4" fill="#0" id="circle14"/>
	<circle cx="94.6586" cy="650.182" r="4" fill="#0" id="circle15"/>
	<circle cx="88.9472" cy="630.345" r="4" fill="#0" id="circle16"/>
	<circle cx="77.3438" cy="625.688" r="4" fill="#0" id="circle17"/>
	<circle cx="80.2677" cy="602.738" r="4" fill="#0" id="circle18"/>
	<circle cx="62.3337" cy="608.235" r="4" fill="#0" id="circle19"/>
	<circle cx="68.9235" cy="588.488" r="4" fill="#0" id="circle20"/>
	<circle cx="57.8106" cy="586.045" r="4" fill="#0" id="circle21"/>
	<circle cx="56.6345" cy="576.93" r="4" fill="#0" id="circle22"/>
	<circle cx="33.4122" cy="576.322" r="4" fill="#0" id="circle23"/>
	<circle cx="49.7195" cy="558.37" r="4" fill="#0" id="circle24"/>
	<circle cx="39.0703" cy="550.563" r="4" fill="#0" id="circle25"/>
	<circle cx="47.9747" cy="536.736" r="4" fill="#0" id="circle26"/>
	<circle cx="49.3366" cy="524.229" r="4" fill="#0" id="circle27"/>
	<circle cx="4" cy="509.529" r="4" fill="#0" id="circle28"/>
	<circle cx="49.1006" cy="494.492" r="4" fill="#0" id="circle29"/>
	<circle cx="34.9453" cy="471.845" r="4" fill="#0" id="circle30"/>
	<circle cx="17.3105" cy="439.924" r="4" fill="#0" id="circle31"/>
	<circle cx="45.1175" cy="421.755" r="4" fill="#0" id="circle32"/>
	<circle cx="79.3112" cy="412.659" r="4" fill="#0" id="circle33"/>
	<circle cx="71.6258" cy="381.514" r="4" fill="#0" id="circle34"/>
	<circle cx="88.8788" cy="371.255" r="4" fill="#0" id="circle35"/>
	<circle cx="100.048" cy="360.029" r="4" fill="#0" id="circle36"/>
	<circle cx="92.6986" cy="337.855" r="4" fill="#0" id="circle37"/>
	<circle cx="120.842" cy="342.961" r="4" fill="#0" id="circle38"/>
	<circle cx="111.606" cy="326.67" r="4" fill="#0" id="circle39"/>
	<circle cx="122.083" cy="321.423" r="4" fill="#0" id="circle40"/>
	<circle cx="118.202" cy="311.43" r="4" fill="#0" id="circle41"/>
	<circle cx="129.595" cy="305.127" r="4" fill="#0" id="circle42"/>
	<circle cx="118.459" cy="295.119" r="4" fill="#0" id="circle43"/>
	<circle cx="134.481" cy="288.678" r="4" fill="#0" id="circle44"/>
	<circle cx="133.319" cy="280.84" r="4" fill="#0" id="circle45"/>
	<circle cx="122.491" cy="271.993" r="4" fill="#0" id="circle46"/>
	<circle cx="120.003" cy="263.771" r="4" fill="#0" id="circle47"/>
	<circle cx="141.388" cy="256.256" r="4" fill="#0" id="circle48"/>
	<circle cx="119.483" cy="247.19" r="4" fill="#0" id="circle49"/>
	<circle cx="130.24" cy="238.052" r="4" fill="#0" id="circle50"/>
	<circle cx="141.508" cy="230.202" r="4" fill="#0" id="circle51"/>
	<circle cx="138.883" cy="221.8" r="4" fill="#0" id="circle52"/>
	<circle cx="126.823" cy="212.927" r="4" fill="#0" id="circle53"/>
	<circle cx="120.965" cy="203.602" r="4" fill="#0" id="circle54"/>
	<circle cx="134.954" cy="193.787" r="4" fill="#0" id="circle55"/>
	<circle cx="142.322" cy="184.763" r="4" fill="#0" id="circle56"/>
	<circle cx="143.453" cy="176.698" r="4" fill="#0" id="circle57"/>
	<circle cx="132.17" cy="168.591" r="4" fill="#0" id="circle58"/>
	<circle cx="142.349" cy="160.829" r="4" fill="#0" id="circle59"/>
	<circle cx="137.938" cy="150.766" r="4" fill="#0" id="circle60"/>
	<circle cx="119.334" cy="140.829" r="4" fill="#0" id="circle61"/>
	<circle cx="121.295" cy="131.598" r="4" fill="#0" id="circle62"/>
	<circle cx="122.865" cy="122.79" r="4" fill="#0" id="circle63"/>
	<circle cx="138.088" cy="114.955" r="4" fill="#0" id="circle64"/>
	<circle cx="131.477" cy="106.701" r="4" fill="#0" id="circle65"/>
	<circle cx="136.119" cy="98.4539" r="4" fill="#0" id="circle66"/>
	<circle cx="126.998" cy="88.906" r="4" fill="#0" id="circle67"/>
	<circle cx="133.931" cy="81.0862" r="4" fill="#0" id="circle68"/>
	<circle cx="130.893" cy="72.9348" r="4" fill="#0" id="circle69"/>
	<circle cx="135.327" cy="64.7446" r="4" fill="#0" id="circle70"/>
	<circle cx="148.119" cy="58.9247" r="4" fill="#0" id="circle71"/>
	<circle cx="140.156" cy="49.7409" r="4" fill="#0" id="circle72"/>
	<circle cx="131.99" cy="40.3515" r="4" fill="#0" id="circle73"/>
	<circle cx="134.762" cy="34.0585" r="4" fill="#0" id="circle74"/>
	<circle cx="140.782" cy="29.8114" r="4" fill="#0" id="circle75"/>
	<circle cx="149.734" cy="28.065" r="4" fill="#0" id="circle76"/>
	<circle cx="146.392" cy="19.6715" r="4" fill="#0" id="circle77"/>
	<circle cx="151.216" cy="16.4972" r="4" fill="#0" id="circle78"/>
	<circle cx="157.916" cy="16.8439" r="4" fill="#0" id="circle79"/>
	<circle cx="160.013" cy="9.77792" r="4" fill="#0" id="circle80"/>
	<circle cx="167.202" cy="16.2449" r="4" fill="#0" id="circle81"/>
	<circle cx="171.24" cy="11.285" r="4" fill="#0" id="circle82"/>
	<circle cx="176.471" cy="4" r="4" fill="#0" id="circle83"/>
	<circle cx="182.53" cy="5.58183" r="4" fill="#0" id="circle84"/>
	<circle cx="185.335" cy="14.6071" r="4" fill="#0" id="circle85"/>
	<circle cx="188.771" cy="18.0996" r="4" fill="#0" id="circle86"/>
	<circle cx="199.608" cy="13.2872" r="4" fill="#0" id="circle87"/>
	<circle cx="196.722" cy="23.2694" r="4" fill="#0" id="circle88"/>
	<circle cx="204.11" cy="25.1017" r="4" fill="#0" id="circle89"/>
	<circle cx="210.694" cy="28.5752" r="4" fill="#0" id="circle90"/>
	<circle cx="206.685" cy="36.1609" r="4" fill="#0" id="circle91"/>
	<circle cx="209.521" cy="41.7973" r="4" fill="#0" id="circle92"/>
	<circle cx="214.386" cy="47.714" r="4" fill="#0" id="circle93"/>
	<circle cx="207.193" cy="54.9189" r="4" fill="#0" id="circle94"/>
	<circle cx="216.267" cy="60.1768" r="4" fill="#0" id="circle95"/>
	<circle cx="207.379" cy="66.8956" r="4" fill="#0" id="circle96"/>
	<circle cx="214.544" cy="72.4313" r="4" fill="#0" id="circle97"/>
	<circle cx="212.393" cy="77.7795" r="4" fill="#0" id="circle98"/>
	<circle cx="215.976" cy="83.2055" r="4" fill="#0" id="circle99"/>
	<circle cx="209.112" cy="88.7191" r="4" fill="#0" id="circle100"/>
	<circle cx="204.937" cy="94.2895" r="4" fill="#0" id="circle101"/>
	<circle cx="216.021" cy="100.258" r="4" fill="#0" id="circle102"/>
	<circle cx="215.332" cy="106.118" r="4" fill="#0" id="circle103"/>
	<circle cx="203.748" cy="111.024" r="4" fill="#0" id="circle104"/>
	<circle cx="214.366" cy="115.81" r="4" fill="#0" id="circle105"/>
	<circle cx="210.731" cy="120.266" r="4" fill="#0" id="circle106"/>
	<circle cx="207.614" cy="124.779" r="4" fill="#0" id="circle107"/>
	<circle cx="210.162" cy="129.464" r="4" fill="#0" id="circle108"/>
	<circle cx="205.332" cy="134.026" r="4" fill="#0" id="circle109"/>
	<circle cx="212.239" cy="138.827" r="4" fill="#0" id="circle110"/>
	<circle cx="205.626" cy="143.451" r="4" fill="#0" id="circle111"/>
	<circle cx="207.497" cy="148.204" r="4" fill="#0" id="circle112"/>
	<circle cx="204.582" cy="152.959" r="4" fill="#0" id="circle113"/>
	<circle cx="204.162" cy="157.748" r="4" fill="#0" id="circle114"/>
	<circle cx="205.423" cy="162.529" r="4" fill="#0" id="circle115"/>
	<circle cx="209.09" cy="167.236" r="4" fill="#0" id="circle116"/>
	<circle cx="207.473" cy="171.796" r="4" fill="#0" id="circle117"/>
	<circle cx="204.577" cy="175.699" r="4" fill="#0" id="circle118"/>
	<circle cx="213.511" cy="179.356" r="4" fill="#0" id="circle119"/>
	<circle cx="204.008" cy="183.204" r="4" fill="#0" id="circle120"/>
	<circle cx="204.357" cy="186.868" r="4" fill="#0" id="circle121"/>
	<circle cx="208.658" cy="190.49" r="4" fill="#0" id="circle122"/>
	<circle cx="211.653" cy="194.092" r="4" fill="#0" id="circle123"/>
	<circle cx="214.105" cy="197.664" r="4" fill="#0" id="circle124"/>
	<circle cx="213.445" cy="201.154" r="4" fill="#0" id="circle125"/>
	<circle cx="210.576" cy="204.538" r="4" fill="#0" id="circle126"/>
	<circle cx="207.196" cy="207.829" r="4" fill="#0" id="circle127"/>
	<circle cx="211.073" cy="211.256" r="4" fill="#0" id="circle128"/>
	<circle cx="206.865" cy="214.387" r="4" fill="#0" id="circle129"/>
	<circle cx="205.942" cy="218.35" r="4" fill="#0" id="circle130"/>
	<circle cx="205.119" cy="223.001" r="4" fill="#0" id="circle131"/>
	<circle cx="208.585" cy="227.744" r="4" fill="#0" id="circle132"/>
	<circle cx="204.844" cy="232.008" r="4" fill="#0" id="circle133"/>
	<circle cx="203.678" cy="236.277" r="4" fill="#0" id="circle134"/>
	<circle cx="209.31" cy="240.856" r="4" fill="#0" id="circle135"/>
	<circle cx="202.932" cy="244.553" r="4" fill="#0" id="circle136"/>
	<circle cx="209.345" cy="248.994" r="4" fill="#0" id="circle137"/>
	<circle cx="202.817" cy="252.415" r="4" fill="#0" id="circle138"/>
	<circle cx="208.279" cy="256.583" r="4" fill="#0" id="circle139"/>
	<circle cx="201.444" cy="259.73" r="4" fill="#0" id="circle140"/>
	<circle cx="209.701" cy="263.882" r="4" fill="#0" id="circle141"/>
	<circle cx="200.779" cy="266.643" r="4" fill="#0" id="circle142"/>
	<circle cx="205.054" cy="270.261" r="4" fill="#0" id="circle143"/>
	<circle cx="201.562" cy="273.211" r="4" fill="#0" id="circle144"/>
	<circle cx="201.989" cy="276.324" r="4" fill="#0" id="circle145"/>
	<circle cx="207.012" cy="279.58" r="4" fill="#0" id="circle146"/>
	<circle cx="206.231" cy="282.36" r="4" fill="#0" id="circle147"/>
	<circle cx="205.371" cy="285.468" r="4" fill="#0" id="circle148"/>
	<circle cx="207.988" cy="288.929" r="4" fill="#0" id="circle149"/>
	<circle cx="205.018" cy="292.063" r="4" fill="#0" id="circle150"/>
	<circle cx="206.028" cy="295.033" r="4" fill="#0" id="circle151"/>
	<circle cx="200.666" cy="298.106" r="4" fill="#0" id="circle152"/>
	<circle cx="201.323" cy="300.826" r="4" fill="#0" id="circle153"/>
	<circle cx="204.614" cy="302.958" r="4" fill="#0" id="circle154"/>
	<circle cx="201.912" cy="305.845" r="4" fill="#0" id="circle155"/>
	<circle cx="202.654" cy="308.352" r="4" fill="#0" id="circle156"/>
	<circle cx="204.521" cy="310.527" r="4" fill="#0" id="circle157"/>
	<circle cx="207.09" cy="311.841" r="4" fill="#0" id="circle158"/>
	<circle cx="209.878" cy="312.16" r="4" fill="#0" id="circle159"/>
	<circle cx="210.216" cy="314.434" r="4" fill="#0" id="circle160"/>
	<circle cx="211.894" cy="314.579" r="4" fill="#0" id="circle161"/>
	<circle cx="212.199" cy="318.018" r="4" fill="#0" id="circle162"/>
	<circle cx="213.748" cy="317.959" r="4" fill="#0" id="circle163"/>
	<circle cx="215.732" cy="315.127" r="4" fill="#0" id="circle164"/>
	<circle cx="216.709" cy="318.188" r="4" fill="#0" id="circle165"/>
	<circle cx="217.703" cy="315.568" r="4" fill="#0" id="circle166"/>
	<circle cx="219.775" cy="317.843" r="4" fill="#0" id="circle167"/>
	<circle cx="219.301" cy="314.399" r="4" fill="#0" id="circle168"/>
	<circle cx="222.674" cy="316.206" r="4" fill="#0" id="circle169"/>
	<circle cx="221.24" cy="313.022" r="4" fill="#0" id="circle170"/>
	<circle cx="224.693" cy="313.946" r="4" fill="#0" id="circle171"/>
	<circle cx="225.926" cy="312.897" r="4" fill="#0" id="circle172"/>
	<circle cx="222.718" cy="309.171" r="4" fill="#0" id="circle173"/>
	<circle cx="225.117" cy="307.916" r="4" fill="#0" id="circle174"/>
	<circle cx="228.698" cy="306.64" r="4" fill="#0" id="circle175"/>
	<circle cx="229.861" cy="304.121" r="4" fill="#0" id="circle176"/>
	<circle cx="229.03" cy="300.813" r="4" fill="#0" id="circle177"/>
	<circle cx="225.591" cy="296.744" r="4" fill="#0" id="circle178"/>
	<circle cx="227.013" cy="293.733" r="4" fill="#0" id="circle179"/>
	<circle cx="231.593" cy="291.556" r="4" fill="#0" id="circle180"/>
	<circle cx="230.44" cy="288.482" r="4" fill="#0" id="circle181"/>
	<circle cx="230.718" cy="285.578" r="4" fill="#0" id="circle182"/>
	<circle cx="232.39" cy="282.788" r="4" fill="#0" id="circle183"/>
	<circle cx="230.731" cy="279.318" r="4" fill="#0" id="circle184"/>
	<circle cx="236.734" cy="276.928" r="4" fill="#0" id="circle185"/>
	<circle cx="233.187" cy="272.946" r="4" fill="#0" id="circle186"/>
	<circle cx="231.516" cy="269.156" r="4" fill="#0" id="circle187"/>
	<circle cx="236.363" cy="266.149" r="4" fill="#0" id="circle188"/>
	<circle cx="230.182" cy="261.539" r="4" fill="#0" id="circle189"/>
	<circle cx="234.711" cy="258.225" r="4" fill="#0" id="circle190"/>
	<circle cx="232.234" cy="253.897" r="4" fill="#0" id="circle191"/>
	<circle cx="233.997" cy="249.982" r="4" fill="#0" id="circle192"/>
	<circle cx="235.674" cy="245.937" r="4" fill="#0" id="circle193"/>
	<circle cx="242.166" cy="242.337" r="4" fill="#0" id="circle194"/>
	<circle cx="235.467" cy="237.079" r="4" fill="#0" id="circle195"/>
	<circle cx="235.091" cy="232.453" r="4" fill="#0" id="circle196"/>
	<circle cx="234.553" cy="228.489" r="4" fill="#0" id="circle197"/>
	<circle cx="235.425" cy="225.411" r="4" fill="#0" id="circle198"/>
	<circle cx="236.204" cy="222.276" r="4" fill="#0" id="circle199"/>
	<circle cx="234.978" cy="218.862" r="4" fill="#0" id="circle200"/>
	<circle cx="237.824" cy="215.866" r="4" fill="#0" id="circle201"/>
	<circle cx="236.467" cy="212.342" r="4" fill="#0" id="circle202"/>
	<circle cx="235.945" cy="208.866" r="4" fill="#0" id="circle203"/>
	<circle cx="239.757" cy="205.843" r="4" fill="#0" id="circle204"/>
	<circle cx="242.015" cy="202.597" r="4" fill="#0" id="circle205"/>
	<circle cx="246.149" cy="199.528" r="4" fill="#0" id="circle206"/>
	<circle cx="239.079" cy="195.101" r="4" fill="#0" id="circle207"/>
	<circle cx="238.785" cy="191.419" r="4" fill="#0" id="circle208"/>
	<circle cx="248.564" cy="188.896" r="4" fill="#0" id="circle209"/>
	<circle cx="242.352" cy="184.419" r="4" fill="#0" id="circle210"/>
	<circle cx="247.554" cy="181.273" r="4" fill="#0" id="circle211"/>
	<circle cx="243.458" cy="176.952" r="4" fill="#0" id="circle212"/>
	<circle cx="248.806" cy="173.75" r="4" fill="#0" id="circle213"/>
	<circle cx="243.478" cy="169.176" r="4" fill="#0" id="circle214"/>
	<circle cx="248.776" cy="165.895" r="4" fill="#0" id="circle215"/>
	<circle cx="249.16" cy="161.954" r="4" fill="#0" id="circle216"/>
	<circle cx="250.972" cy="158.157" r="4" fill="#0" id="circle217"/>
	<circle cx="253.698" cy="153.85" r="4" fill="#0" id="circle218"/>
	<circle cx="246.849" cy="148.598" r="4" fill="#0" id="circle219"/>
	<circle cx="252.92" cy="145" r="4" fill="#0" id="circle220"/>
	<circle cx="247.646" cy="139.966" r="4" fill="#0" id="circle221"/>
	<circle cx="250.112" cy="135.919" r="4" fill="#0" id="circle222"/>
	<circle cx="244.194" cy="130.82" r="4" fill="#0" id="circle223"/>
	<circle cx="254.46" cy="127.794" r="4" fill="#0" id="circle224"/>
	<circle cx="251.415" cy="121.654" r="4" fill="#0" id="circle225"/>
	<circle cx="249.632" cy="115.701" r="4" fill="#0" id="circle226"/>
	<circle cx="259.28" cy="111.368" r="4" fill="#0" id="circle227"/>
	<circle cx="254.787" cy="105.143" r="4" fill="#0" id="circle228"/>
	<circle cx="253.764" cy="99.4484" r="4" fill="#0" id="circle229"/>
	<circle cx="249.165" cy="93.2249" r="4" fill="#0" id="circle230"/>
	<circle cx="257.64" cy="89.2142" r="4" fill="#0" id="circle231"/>
	<circle cx="260.385" cy="84.4185" r="4" fill="#0" id="circle232"/>
	<circle cx="253.101" cy="77.8089" r="4" fill="#0" id="circle233"/>
	<circle cx="260.948" cy="73.6356" r="4" fill="#0" id="circle234"/>
	<circle cx="269.644" cy="69.4816" r="4" fill="#0" id="circle235"/>
	<circle cx="265.333" cy="62.4978" r="4" fill="#0" id="circle236"/>
	<circle cx="262.373" cy="55.8027" r="4" fill="#0" id="circle237"/>
	<circle cx="259.899" cy="47.9984" r="4" fill="#0" id="circle238"/>
	<circle cx="273.429" cy="45.9294" r="4" fill="#0" id="circle239"/>
	<circle cx="268.115" cy="36.7616" r="4" fill="#0" id="circle240"/>
	<circle cx="274.063" cy="33.1999" r="4" fill="#0" id="circle241"/>
	<circle cx="277.107" cy="28.6994" r="4" fill="#0" id="circle242"/>
	<circle cx="282.69" cy="26.6043" r="4" fill="#0" id="circle243"/>
	<circle cx="282.479" cy="18.2664" r="4" fill="#0" id="circle244"/>
	<circle cx="290.831" cy="23.1905" r="4" fill="#0" id="circle245"/>
	<circle cx="293.067" cy="15.1061" r="4" fill="#0" id="circle246"/>
	<circle cx="298.757" cy="23.7595" r="4" fill="#0" id="circle247"/>
	<circle cx="303.601" cy="18.1476" r="4" fill="#0" id="circle248"/>
	<circle cx="309.596" cy="14.716" r="4" fill="#0" id="circle249"/>
	<circle cx="315.192" cy="17.0124" r="4" fill="#0" id="circle250"/>
	<circle cx="320.027" cy="20.2661" r="4" fill="#0" id="circle251"/>
	<circle cx="321.376" cy="28.2328" r="4" fill="#0" id="circle252"/>
	<circle cx="322.345" cy="34.5808" r="4" fill="#0" id="circle253"/>
	<circle cx="332.96" cy="35.097" r="4" fill="#0" id="circle254"/>
	<circle cx="336.345" cy="41.4003" r="4" fill="#0" id="circle255"/>
	<circle cx="341.105" cy="47.9656" r="4" fill="#0" id="circle256"/>
	<circle cx="333.57" cy="57.6791" r="4" fill="#0" id="circle257"/>
	<circle cx="344.732" cy="64.096" r="4" fill="#0" id="circle258"/>
	<circle cx="331.588" cy="73.3526" r="4" fill="#0" id="circle259"/>
	<circle cx="350.678" cy="81.2753" r="4" fill="#0" id="circle260"/>
	<circle cx="344.259" cy="90.098" r="4" fill="#0" id="circle261"/>
	<circle cx="342.866" cy="99.2567" r="4" fill="#0" id="circle262"/>
	<circle cx="331.093" cy="107.578" r="4" fill="#0" id="circle263"/>
	<circle cx="337.59" cy="116.816" r="4" fill="#0" id="circle264"/>
	<circle cx="324.147" cy="123.48" r="4" fill="#0" id="circle265"/>
	<circle cx="327.401" cy="132.943" r="4" fill="#0" id="circle266"/>
	<circle cx="342.296" cy="145.197" r="4" fill="#0" id="circle267"/>
	<circle cx="335.162" cy="153.482" r="4" fill="#0" id="circle268"/>
	<circle cx="317.48" cy="159.337" r="4" fill="#0" id="circle269"/>
	<circle cx="316.041" cy="167.851" r="4" fill="#0" id="circle270"/>
	<circle cx="320.297" cy="178.92" r="4" fill="#0" id="circle271"/>
	<circle cx="323.646" cy="189.521" r="4" fill="#0" id="circle272"/>
	<circle cx="322.057" cy="198.81" r="4" fill="#0" id="circle273"/>
	<circle cx="322.019" cy="208.232" r="4" fill="#0" id="circle274"/>
	<circle cx="310.981" cy="215.447" r="4" fill="#0" id="circle275"/>
	<circle cx="321.458" cy="226.321" r="4" fill="#0" id="circle276"/>
	<circle cx="308.143" cy="233.132" r="4" fill="#0" id="circle277"/>
	<circle cx="308.002" cy="241.887" r="4" fill="#0" id="circle278"/>
	<circle cx="303.595" cy="249.99" r="4" fill="#0" id="circle279"/>
	<circle cx="322.483" cy="259.899" r="4" fill="#0" id="circle280"/>
	<circle cx="297.584" cy="266.37" r="4" fill="#0" id="circle281"/>
	<circle cx="317.964" cy="275.016" r="4" fill="#0" id="circle282"/>
	<circle cx="305.344" cy="283.336" r="4" fill="#0" id="circle283"/>
	<circle cx="301.813" cy="292.683" r="4" fill="#0" id="circle284"/>
	<circle cx="309.008" cy="301.029" r="4" fill="#0" id="circle285"/>
	<circle cx="324.632" cy="307.101" r="4" fill="#0" id="circle286"/>
	<circle cx="325.897" cy="315.669" r="4" fill="#0" id="circle287"/>
	<circle cx="324.496" cy="325.458" r="4" fill="#0" id="circle288"/>
	<circle cx="326.506" cy="334.902" r="4" fill="#0" id="circle289"/>
	<circle cx="312.484" cy="355.53" r="4" fill="#0" id="circle290"/>
	<circle cx="339.316" cy="354.079" r="4" fill="#0" id="circle291"/>
	<circle cx="339.144" cy="371.826" r="4" fill="#0" id="circle292"/>
	<circle cx="358.979" cy="367.022" r="4" fill="#0" id="circle293"/>
	<circle cx="372.756" cy="366.926" r="4" fill="#0" id="circle294"/>
	<circle cx="383.181" cy="372.178" r="4" fill="#0" id="circle295"/>
	<circle cx="394.38" cy="377.267" r="4" fill="#0" id="circle296"/>
	<circle cx="403.297" cy="409.733" r="4" fill="#0" id="circle297"/>
	<circle cx="422.083" cy="381.251" r="4" fill="#0" id="circle298"/>
	<circle cx="439.029" cy="392.735" r="4" fill="#0" id="circle299"/>
	<circle cx="462.059" cy="404.767" r="4" fill="#0" id="circle300"/>
	<circle cx="471.233" cy="357.616" r="4" fill="#0" id="circle301"/>
	<circle cx="491.179" cy="346.589" r="4" fill="#0" id="circle302"/>
	<circle cx="516.287" cy="336.781" r="4" fill="#0" id="circle303"/>
	<circle cx="556.709" cy="357.294" r="4" fill="#0" id="circle304"/>
	<circle cx="584.234" cy="338.258" r="4" fill="#0" id="circle305"/>
	<circle cx="630.461" cy="377.492" r="4" fill="#0" id="circle306"/>
	<circle cx="664.271" cy="362.6" r="4" fill="#0" id="circle307"/>
	<circle cx="714.109" cy="278.623" r="4" fill="#0" id="circle308"/>
	<circle cx="751.57" cy="343.356" r="4" fill="#0" id="circle309"/>
	<circle cx="789.454" cy="363.319" r="4" fill="#0" id="circle310"/>
	<circle cx="848.696" cy="341.687" r="4" fill="#0" id="circle311"/>
	<circle cx="856.545" cy="399.881" r="4" fill="#0" id="circle312"/>
	<circle cx="865.977" cy="439.574" r="4" fill="#0" id="circle313"/>
	<circle cx="876.255" cy="470.358" r="4" fill="#0" id="circle314"/>
	<circle cx="940.944" cy="469.58" r="4" fill="#0" id="circle315"/>
	<circle cx="959.078" cy="503.551" r="4" fill="#0" id="circle316"/>
	<circle cx="901.477" cy="547.997" r="4" fill="#0" id="circle317"/>
	<circle cx="954.29" cy="577.523" r="4" fill="#0" id="circle318"/>
	<circle cx="944.066" cy="606.962" r="4" fill="#0" id="circle319"/>
	<circle cx="967.75" cy="632.095" r="4" fill="#0" id="circle320"/>
	<circle cx="956.157" cy="652.491" r="4" fill="#0" id="circle321"/>
	<circle cx="924.834" cy="665.891" r="4" fill="#0" id="circle322"/>
	<circle cx="926.167" cy="680.991" r="4" fill="#0" id="circle323"/>
	<circle cx="936.371" cy="696.736" r="4" fill="#0" id="circle324"/>
	<circle cx="918.452" cy="708.465" r="4" fill="#0" id="circle325"/>
	<circle cx="919.438" cy="723.926" r="4" fill="#0" id="circle326"/>
	<circle cx="930.129" cy="736.227" r="4" fill="#0" id="circle327"/>
	<circle cx="932.235" cy="748.692" r="4" fill="#0" id="circle328"/>
	<circle cx="956.216" cy="751.15" r="4" fill="#0" id="circle329"/>
	<circle cx="959.678" cy="759.518" r="4" fill="#0" id="circle330"/>
	<circle cx="957.37" cy="773.312" r="4" fill="#0" id="circle331"/>
	<circle cx="968.229" cy="775.411" r="4" fill="#0" id="circle332"/>
	<circle cx="974.199" cy="782.107" r="4" fill="#0" id="circle333"/>
	<circle cx="974.363" cy="795.196" r="4" fill="#0" id="circle334"/>
	<circle cx="976.085" cy="804.644" r="4" fill="#0" id="circle335"/>
	<circle cx="981.41" cy="811.029" r="4" fill="#0" id="circle336"/>
	<circle cx="991.465" cy="817.291" r="4" fill="#0" id="circle337"/>
	<circle cx="992.073" cy="827.093" r="4" fill="#0" id="circle338"/>
	<circle cx="982.447" cy="837.779" r="4" fill="#0" id="circle339"/>
	<circle cx="978.568" cy="847.1" r="4" fill="#0" id="circle340"/>
	<circle cx="973.74" cy="857.457" r="4" fill="#0" id="circle341"/>
	<circle cx="971.214" cy="867.964" r="4" fill="#0" id="circle342"/>
	<circle cx="987.969" cy="888.819" r="4" fill="#0" id="circle343"/>
	<circle cx="969.384" cy="893.848" r="4" fill="#0" id="circle344"/>
	<circle cx="957.889" cy="900.898" r="4" fill="#0" id="circle345"/>
	<circle cx="947.766" cy="910.763" r="4" fill="#0" id="circle346"/>
	<circle cx="930.679" cy="906.712" r="4" fill="#0" id="circle347"/>
	<circle cx="923.259" cy="927.138" r="4" fill="#0" id="circle348"/>
	<circle cx="914.445" cy="958.71" r="4" fill="#0" id="circle349"/>
	<circle cx="890.793" cy="945.298" r="4" fill="#0" id="circle350"/>
	<circle cx="867.046" cy="928.344" r="4" fill="#0" id="circle351"/>
	<circle cx="849.056" cy="958.837" r="4" fill="#0" id="circle352"/>
	<circle cx="825.724" cy="970.643" r="4" fill="#0" id="circle353"/>
	<circle cx="796.33" cy="950.561" r="4" fill="#0" id="circle354"/>
	<circle cx="765.557" cy="919.534" r="4" fill="#0" id="circle355"/>
	<circle cx="733.871" cy="996" r="4" fill="#0" id="circle356"/>
	<circle cx="696.961" cy="969.935" r="4" fill="#0" id="circle357"/>
	<circle cx="655.85" cy="957.038" r="4" fill="#0" id="circle358"/>
	<circle cx="610.059" cy="908.549" r="4" fill="#0" id="circle359"/>
	<circle cx="561.299" cy="961.481" r="4" fill="#0" id="circle360"/>
	<circle cx="519.601" cy="944.365" r="4" fill="#0" id="circle361"/>
	<circle cx="483.016" cy="986.45" r="4" fill="#0" id="circle362"/>
	<circle cx="450.069" cy="942.692" r="4" fill="#0" id="circle363"/>
	<circle cx="424.153" cy="931.376" r="4" fill="#0" id="circle364"/>
	<circle cx="399.568" cy="938.936" r="4" fill="#0" id="circle365"/>
	<circle cx="376.099" cy="965.498" r="4" fill="#0" id="circle366"/>
	<circle cx="354.811" cy="958.331" r="4" fill="#0" id="circle367"/>
	<circle cx="334.257" cy="975.213" r="4" fill="#0" id="circle368"/>
	<circle cx="316.927" cy="941.238" r="4" fill="#0" id="circle369"/>
	<circle cx="298.556" cy="966.117" r="4" fill="#0" id="circle370"/>
	<circle cx="284.682" cy="932.004" r="4" fill="#0" id="circle371"/>
	<circle cx="269.46" cy="942.729" r="4" fill="#0" id="circle372"/>
	<circle cx="257.805" cy="926.285" r="4" fill="#0" id="circle373"/>
	<circle cx="242.461" cy="953.966" r="4" fill="#0" id="circle374"/>
	<circle cx="231.328" cy="951.315" r="4" fill="#0" id="circle375"/>
	<circle cx="224.136" cy="934.325" r="4" fill="#0" id="circle376"/>
	<circle cx="216.584" cy="928.443" r="4" fill="#0" id="circle377"/>
	<circle cx="203.51" cy="944.506" r="4" fill="#0" id="circle378"/>
	<circle cx="197.393" cy="938.244" r="4" fill="#0" id="circle379"/>
	<circle cx="197.333" cy="921.817" r="4" fill="#0" id="circle380"/>
	<circle cx="187.305" cy="925.9" r="4" fill="#0" id="circle381"/>
	<circle cx="173.903" cy="929.444" r="4" fill="#0" id="circle382"/>
	<circle cx="173.292" cy="919.058" r="4" fill="#0" id="circle383"/>
	<circle cx="179.791" cy="908.303" r="4" fill="#0" id="circle384"/>
	<circle cx="172.624" cy="903.413" r="4" fill="#0" id="circle385"/>
	<circle cx="163.116" cy="896.884" r="4" fill="#0" id="circle386"/>
	<circle cx="180.502" cy="889.068" r="4" fill="#0" id="circle387"/>
	<circle cx="181.569" cy="882.216" r="4" fill="#0" id="circle388"/>
	<circle cx="176.432" cy="873.845" r="4" fill="#0" id="circle389"/>
	<circle cx="181.074" cy="868.245" r="4" fill="#0" id="circle390"/>
	<circle cx="178.517" cy="857.003" r="4" fill="#0" id="circle391"/>
	<circle cx="182.64" cy="847.999" r="4" fill="#0" id="circle392"/>
	<circle cx="198.685" cy="857.331" r="4" fill="#0" id="circle393"/>
	<circle cx="206.376" cy="856.21" r="4" fill="#0" id="circle394"/>
	<circle cx="214.001" cy="853.962" r="4" fill="#0" id="circle395"/>
	<circle cx="218.612" cy="840.735" r="4" fill="#0" id="circle396"/>
	<circle cx="225.135" cy="828.318" r="4" fill="#0" id="circle397"/>
	<circle cx="234.337" cy="828.483" r="4" fill="#0" id="circle398"/>
	<circle cx="244.881" cy="831.667" r="4" fill="#0" id="circle399"/>
	<circle cx="256.724" cy="834.881" r="4" fill="#0" id="circle400"/>
	<circle cx="257.169" cy="820.027" r="4" fill="#0" id="circle401"/>
	<circle cx="262.932" cy="814.832" r="4" fill="#0" id="circle402"/>
	<circle cx="268.486" cy="808.825" r="4" fill="#0" id="circle403"/>
	<circle cx="269.866" cy="801.19" r="4" fill="#0" id="circle404"/>
	<circle cx="277.41" cy="794.494" r="4" fill="#0" id="circle405"/>
	<circle cx="279.664" cy="785.679" r="4" fill="#0" id="circle406"/>
	</g>
</svg>