<?xml version="1.0" encoding="UTF-8" standalone="no"?>
<!-- Created with CurveBenchmark -->
<svg
	xmlns:dc="http://purl.org/dc/elements/1.1/"
	xmlns:cc="http://creativecommons.org/ns#"
	xmlns:rdf="http://www.w3.org/1999/02/22-rdf-syntax-ns#"
	xmlns:svg="http://www.w3.org/2000/svg"
	xmlns="http://www.w3.org/2000/svg"
	xmlns:sodipodi="http://sodipodi.sourceforge.net/DTD/sodipodi-0.dtd"
	xmlns:inkscape="http://www.inkscape.org/namespaces/inkscape"
	width="1000"
	height="1000"
	id="svg2"
	version="1.1"
	sodipodi:docname="lfsnoise-0.5/crust-bunny.svg">
<defs
	id="defs4" />
<metadata
	id="metadata7">
	<rdf:RDF>
		<cc:Work
			rdf:about="">
			<dc:format>image/svg+xml</dc:format>
			<dc:type
				rdf:resource="http://purl.org/dc/dcmitype/StillImage" />
			<dc:title></dc:title>
		</cc:Work>
	</rdf:RDF>
</metadata>
<g
	inkscape:label="Layer 1"
	inkscape:groupmode="layer"
	id="layer1">
	<path style="fill:none;stroke:red;stroke-width:1px;stroke-linecap:butt;stroke-linejoin:miter;stroke-opacity:1" d="M 131.754,29.3196 132.434,4 z" id="boundary" inkscape:connector-curvature="0" />
	<path style="fill:none;stroke:red;stroke-width:1px;stroke-linecap:butt;stroke-linejoin:miter;stroke-opacity:1" d="M 126.373,40.0737 131.754,29.3196 z" id="boundary" inkscape:connector-curvature="0" />
	<path style="fill:none;stroke:red;stroke-width:1px;stroke-linecap:butt;stroke-linejoin:miter;stroke-opacity:1" d="M 121.638,78.145 95.616,99.0789 z" id="boundary" inkscape:connector-curvature="0" />
	<path style="fill:none;stroke:red;stroke-width:1px;stroke-linecap:butt;stroke-linejoin:miter;stroke-opacity:1" d="M 121.638,78.145 115.721,55.1784 z" id="boundary" inkscape:connector-curvature="0" />
	<path style="fill:none;stroke:red;stroke-width:1px;stroke-linecap:butt;stroke-linejoin:miter;stroke-opacity:1" d="M 115.721,55.1784 126.373,40.0737 z" id="boundary" inkscape:connector-curvature="0" />
	<path style="fill:none;stroke:red;stroke-width:1px;stroke-linecap:butt;stroke-linejoin:miter;stroke-opacity:1" d="M 119.773,124.719 95.616,99.0789 z" id="boundary" inkscape:connector-curvature="0" />
	<path style="fill:none;stroke:red;stroke-width:1px;stroke-linecap:butt;stroke-linejoin:miter;stroke-opacity:1" d="M 150.524,20.1839 131.754,29.3196 z" id="boundary" inkscape:connector-curvature="0" />
	<path style="fill:none;stroke:red;stroke-width:1px;stroke-linecap:butt;stroke-linejoin:miter;stroke-opacity:1" d="M 164.895,17.2958 150.524,20.1839 z" id="boundary" inkscape:connector-curvature="0" />
	<path style="fill:none;stroke:red;stroke-width:1px;stroke-linecap:butt;stroke-linejoin:miter;stroke-opacity:1" d="M 119.773,124.719 115.213,148.029 z" id="boundary" inkscape:connector-curvature="0" />
	<path style="fill:none;stroke:red;stroke-width:1px;stroke-linecap:butt;stroke-linejoin:miter;stroke-opacity:1" d="M 115.213,148.029 123.745,171.86 z" id="boundary" inkscape:connector-curvature="0" />
	<path style="fill:none;stroke:red;stroke-width:1px;stroke-linecap:butt;stroke-linejoin:miter;stroke-opacity:1" d="M 123.745,171.86 101.03,196.717 z" id="boundary" inkscape:connector-curvature="0" />
	<path style="fill:none;stroke:red;stroke-width:1px;stroke-linecap:butt;stroke-linejoin:miter;stroke-opacity:1" d="M 101.03,196.717 118.805,221.138 z" id="boundary" inkscape:connector-curvature="0" />
	<path style="fill:none;stroke:red;stroke-width:1px;stroke-linecap:butt;stroke-linejoin:miter;stroke-opacity:1" d="M 96.7814,243.998 118.805,221.138 z" id="boundary" inkscape:connector-curvature="0" />
	<path style="fill:none;stroke:red;stroke-width:1px;stroke-linecap:butt;stroke-linejoin:miter;stroke-opacity:1" d="M 99.4349,267.354 96.7814,243.998 z" id="boundary" inkscape:connector-curvature="0" />
	<path style="fill:none;stroke:red;stroke-width:1px;stroke-linecap:butt;stroke-linejoin:miter;stroke-opacity:1" d="M 182.845,43.1064 176.667,61.4812 z" id="boundary" inkscape:connector-curvature="0" />
	<path style="fill:none;stroke:red;stroke-width:1px;stroke-linecap:butt;stroke-linejoin:miter;stroke-opacity:1" d="M 164.895,17.2958 181.829,24.8961 z" id="boundary" inkscape:connector-curvature="0" />
	<path style="fill:none;stroke:red;stroke-width:1px;stroke-linecap:butt;stroke-linejoin:miter;stroke-opacity:1" d="M 176.667,61.4812 186.22,77.0683 z" id="boundary" inkscape:connector-curvature="0" />
	<path style="fill:none;stroke:red;stroke-width:1px;stroke-linecap:butt;stroke-linejoin:miter;stroke-opacity:1" d="M 181.829,24.8961 182.845,43.1064 z" id="boundary" inkscape:connector-curvature="0" />
	<path style="fill:none;stroke:red;stroke-width:1px;stroke-linecap:butt;stroke-linejoin:miter;stroke-opacity:1" d="M 186.22,77.0683 183.437,91.9307 z" id="boundary" inkscape:connector-curvature="0" />
	<path style="fill:none;stroke:red;stroke-width:1px;stroke-linecap:butt;stroke-linejoin:miter;stroke-opacity:1" d="M 187.236,145.615 182.232,158.105 z" id="boundary" inkscape:connector-curvature="0" />
	<path style="fill:none;stroke:red;stroke-width:1px;stroke-linecap:butt;stroke-linejoin:miter;stroke-opacity:1" d="M 182.471,106.146 183.437,91.9307 z" id="boundary" inkscape:connector-curvature="0" />
	<path style="fill:none;stroke:red;stroke-width:1px;stroke-linecap:butt;stroke-linejoin:miter;stroke-opacity:1" d="M 177.604,133.064 187.236,145.615 z" id="boundary" inkscape:connector-curvature="0" />
	<path style="fill:none;stroke:red;stroke-width:1px;stroke-linecap:butt;stroke-linejoin:miter;stroke-opacity:1" d="M 182.471,106.146 192.492,119.731 z" id="boundary" inkscape:connector-curvature="0" />
	<path style="fill:none;stroke:red;stroke-width:1px;stroke-linecap:butt;stroke-linejoin:miter;stroke-opacity:1" d="M 182.232,158.105 186.937,170.59 z" id="boundary" inkscape:connector-curvature="0" />
	<path style="fill:none;stroke:red;stroke-width:1px;stroke-linecap:butt;stroke-linejoin:miter;stroke-opacity:1" d="M 186.937,170.59 180.386,182.177 z" id="boundary" inkscape:connector-curvature="0" />
	<path style="fill:none;stroke:red;stroke-width:1px;stroke-linecap:butt;stroke-linejoin:miter;stroke-opacity:1" d="M 179.483,213.467 178.518,203.495 z" id="boundary" inkscape:connector-curvature="0" />
	<path style="fill:none;stroke:red;stroke-width:1px;stroke-linecap:butt;stroke-linejoin:miter;stroke-opacity:1" d="M 188.889,193.119 178.518,203.495 z" id="boundary" inkscape:connector-curvature="0" />
	<path style="fill:none;stroke:red;stroke-width:1px;stroke-linecap:butt;stroke-linejoin:miter;stroke-opacity:1" d="M 186.279,224.031 179.483,213.467 z" id="boundary" inkscape:connector-curvature="0" />
	<path style="fill:none;stroke:red;stroke-width:1px;stroke-linecap:butt;stroke-linejoin:miter;stroke-opacity:1" d="M 188.889,193.119 180.386,182.177 z" id="boundary" inkscape:connector-curvature="0" />
	<path style="fill:none;stroke:red;stroke-width:1px;stroke-linecap:butt;stroke-linejoin:miter;stroke-opacity:1" d="M 187.348,234.627 186.279,224.031 z" id="boundary" inkscape:connector-curvature="0" />
	<path style="fill:none;stroke:red;stroke-width:1px;stroke-linecap:butt;stroke-linejoin:miter;stroke-opacity:1" d="M 186.343,253.729 179.367,262.996 z" id="boundary" inkscape:connector-curvature="0" />
	<path style="fill:none;stroke:red;stroke-width:1px;stroke-linecap:butt;stroke-linejoin:miter;stroke-opacity:1" d="M 88.8713,338.313 81.882,309.223 z" id="boundary" inkscape:connector-curvature="0" />
	<path style="fill:none;stroke:red;stroke-width:1px;stroke-linecap:butt;stroke-linejoin:miter;stroke-opacity:1" d="M 87.7181,288.954 81.882,309.223 z" id="boundary" inkscape:connector-curvature="0" />
	<path style="fill:none;stroke:red;stroke-width:1px;stroke-linecap:butt;stroke-linejoin:miter;stroke-opacity:1" d="M 99.4349,267.354 87.7181,288.954 z" id="boundary" inkscape:connector-curvature="0" />
	<path style="fill:none;stroke:red;stroke-width:1px;stroke-linecap:butt;stroke-linejoin:miter;stroke-opacity:1" d="M 16.3488,414.419 9.23025,489.562 z" id="boundary" inkscape:connector-curvature="0" />
	<path style="fill:none;stroke:red;stroke-width:1px;stroke-linecap:butt;stroke-linejoin:miter;stroke-opacity:1" d="M 4,536.323 9.23025,489.562 z" id="boundary" inkscape:connector-curvature="0" />
	<path style="fill:none;stroke:red;stroke-width:1px;stroke-linecap:butt;stroke-linejoin:miter;stroke-opacity:1" d="M 74.3443,377.072 16.3488,414.419 z" id="boundary" inkscape:connector-curvature="0" />
	<path style="fill:none;stroke:red;stroke-width:1px;stroke-linecap:butt;stroke-linejoin:miter;stroke-opacity:1" d="M 74.3443,377.072 88.8713,338.313 z" id="boundary" inkscape:connector-curvature="0" />
	<path style="fill:none;stroke:red;stroke-width:1px;stroke-linecap:butt;stroke-linejoin:miter;stroke-opacity:1" d="M 25.9949,564.068 4,536.323 z" id="boundary" inkscape:connector-curvature="0" />
	<path style="fill:none;stroke:red;stroke-width:1px;stroke-linecap:butt;stroke-linejoin:miter;stroke-opacity:1" d="M 25.9949,564.068 19.6191,601.668 z" id="boundary" inkscape:connector-curvature="0" />
	<path style="fill:none;stroke:red;stroke-width:1px;stroke-linecap:butt;stroke-linejoin:miter;stroke-opacity:1" d="M 95.5949,615.075 56.8646,607.104 z" id="boundary" inkscape:connector-curvature="0" />
	<path style="fill:none;stroke:red;stroke-width:1px;stroke-linecap:butt;stroke-linejoin:miter;stroke-opacity:1" d="M 56.8646,607.104 19.6191,601.668 z" id="boundary" inkscape:connector-curvature="0" />
	<path style="fill:none;stroke:red;stroke-width:1px;stroke-linecap:butt;stroke-linejoin:miter;stroke-opacity:1" d="M 95.5949,615.075 118.095,699.957 z" id="boundary" inkscape:connector-curvature="0" />
	<path style="fill:none;stroke:red;stroke-width:1px;stroke-linecap:butt;stroke-linejoin:miter;stroke-opacity:1" d="M 171.584,711.303 118.095,699.957 z" id="boundary" inkscape:connector-curvature="0" />
	<path style="fill:none;stroke:red;stroke-width:1px;stroke-linecap:butt;stroke-linejoin:miter;stroke-opacity:1" d="M 158.174,876.588 150.511,847.896 z" id="boundary" inkscape:connector-curvature="0" />
	<path style="fill:none;stroke:red;stroke-width:1px;stroke-linecap:butt;stroke-linejoin:miter;stroke-opacity:1" d="M 135.713,896.4 161.422,907.194 z" id="boundary" inkscape:connector-curvature="0" />
	<path style="fill:none;stroke:red;stroke-width:1px;stroke-linecap:butt;stroke-linejoin:miter;stroke-opacity:1" d="M 161.422,907.194 162.766,933.13 z" id="boundary" inkscape:connector-curvature="0" />
	<path style="fill:none;stroke:red;stroke-width:1px;stroke-linecap:butt;stroke-linejoin:miter;stroke-opacity:1" d="M 182.286,857.052 158.174,876.588 z" id="boundary" inkscape:connector-curvature="0" />
	<path style="fill:none;stroke:red;stroke-width:1px;stroke-linecap:butt;stroke-linejoin:miter;stroke-opacity:1" d="M 173.507,280.679 172.457,271.455 z" id="boundary" inkscape:connector-curvature="0" />
	<path style="fill:none;stroke:red;stroke-width:1px;stroke-linecap:butt;stroke-linejoin:miter;stroke-opacity:1" d="M 179.367,262.996 172.457,271.455 z" id="boundary" inkscape:connector-curvature="0" />
	<path style="fill:none;stroke:red;stroke-width:1px;stroke-linecap:butt;stroke-linejoin:miter;stroke-opacity:1" d="M 179.555,289.421 173.507,280.679 z" id="boundary" inkscape:connector-curvature="0" />
	<path style="fill:none;stroke:red;stroke-width:1px;stroke-linecap:butt;stroke-linejoin:miter;stroke-opacity:1" d="M 182.229,297.215 179.555,289.421 z" id="boundary" inkscape:connector-curvature="0" />
	<path style="fill:none;stroke:red;stroke-width:1px;stroke-linecap:butt;stroke-linejoin:miter;stroke-opacity:1" d="M 182.229,297.215 176.496,304.95 z" id="boundary" inkscape:connector-curvature="0" />
	<path style="fill:none;stroke:red;stroke-width:1px;stroke-linecap:butt;stroke-linejoin:miter;stroke-opacity:1" d="M 176.496,304.95 176.072,312.477 z" id="boundary" inkscape:connector-curvature="0" />
	<path style="fill:none;stroke:red;stroke-width:1px;stroke-linecap:butt;stroke-linejoin:miter;stroke-opacity:1" d="M 208.325,261.403 203.568,270.077 z" id="boundary" inkscape:connector-curvature="0" />
	<path style="fill:none;stroke:red;stroke-width:1px;stroke-linecap:butt;stroke-linejoin:miter;stroke-opacity:1" d="M 207.681,279.828 203.963,288.014 z" id="boundary" inkscape:connector-curvature="0" />
	<path style="fill:none;stroke:red;stroke-width:1px;stroke-linecap:butt;stroke-linejoin:miter;stroke-opacity:1" d="M 205.686,297.139 196.864,302.969 z" id="boundary" inkscape:connector-curvature="0" />
	<path style="fill:none;stroke:red;stroke-width:1px;stroke-linecap:butt;stroke-linejoin:miter;stroke-opacity:1" d="M 196.864,302.969 195.385,308.803 z" id="boundary" inkscape:connector-curvature="0" />
	<path style="fill:none;stroke:red;stroke-width:1px;stroke-linecap:butt;stroke-linejoin:miter;stroke-opacity:1" d="M 203.568,270.077 207.681,279.828 z" id="boundary" inkscape:connector-curvature="0" />
	<path style="fill:none;stroke:red;stroke-width:1px;stroke-linecap:butt;stroke-linejoin:miter;stroke-opacity:1" d="M 195.385,308.803 193.832,312.482 z" id="boundary" inkscape:connector-curvature="0" />
	<path style="fill:none;stroke:red;stroke-width:1px;stroke-linecap:butt;stroke-linejoin:miter;stroke-opacity:1" d="M 180.82,318.064 176.072,312.477 z" id="boundary" inkscape:connector-curvature="0" />
	<path style="fill:none;stroke:red;stroke-width:1px;stroke-linecap:butt;stroke-linejoin:miter;stroke-opacity:1" d="M 186.836,317.462 180.82,318.064 z" id="boundary" inkscape:connector-curvature="0" />
	<path style="fill:none;stroke:red;stroke-width:1px;stroke-linecap:butt;stroke-linejoin:miter;stroke-opacity:1" d="M 171.584,711.303 206.049,732.221 z" id="boundary" inkscape:connector-curvature="0" />
	<path style="fill:none;stroke:red;stroke-width:1px;stroke-linecap:butt;stroke-linejoin:miter;stroke-opacity:1" d="M 186.836,317.462 190.354,320.22 z" id="boundary" inkscape:connector-curvature="0" />
	<path style="fill:none;stroke:red;stroke-width:1px;stroke-linecap:butt;stroke-linejoin:miter;stroke-opacity:1" d="M 194.445,317.95 190.354,320.22 z" id="boundary" inkscape:connector-curvature="0" />
	<path style="fill:none;stroke:red;stroke-width:1px;stroke-linecap:butt;stroke-linejoin:miter;stroke-opacity:1" d="M 194.445,317.95 193.832,312.482 z" id="boundary" inkscape:connector-curvature="0" />
	<path style="fill:none;stroke:red;stroke-width:1px;stroke-linecap:butt;stroke-linejoin:miter;stroke-opacity:1" d="M 190.118,920.85 217.669,925.612 z" id="boundary" inkscape:connector-curvature="0" />
	<path style="fill:none;stroke:red;stroke-width:1px;stroke-linecap:butt;stroke-linejoin:miter;stroke-opacity:1" d="M 162.766,933.13 190.118,920.85 z" id="boundary" inkscape:connector-curvature="0" />
	<path style="fill:none;stroke:red;stroke-width:1px;stroke-linecap:butt;stroke-linejoin:miter;stroke-opacity:1" d="M 203.963,288.014 205.686,297.139 z" id="boundary" inkscape:connector-curvature="0" />
	<path style="fill:none;stroke:red;stroke-width:1px;stroke-linecap:butt;stroke-linejoin:miter;stroke-opacity:1" d="M 220.379,130.506 225.686,144.13 z" id="boundary" inkscape:connector-curvature="0" />
	<path style="fill:none;stroke:red;stroke-width:1px;stroke-linecap:butt;stroke-linejoin:miter;stroke-opacity:1" d="M 225.686,144.13 218.344,156.196 z" id="boundary" inkscape:connector-curvature="0" />
	<path style="fill:none;stroke:red;stroke-width:1px;stroke-linecap:butt;stroke-linejoin:miter;stroke-opacity:1" d="M 233.42,118.026 220.379,130.506 z" id="boundary" inkscape:connector-curvature="0" />
	<path style="fill:none;stroke:red;stroke-width:1px;stroke-linecap:butt;stroke-linejoin:miter;stroke-opacity:1" d="M 218.344,156.196 215.073,167.91 z" id="boundary" inkscape:connector-curvature="0" />
	<path style="fill:none;stroke:red;stroke-width:1px;stroke-linecap:butt;stroke-linejoin:miter;stroke-opacity:1" d="M 242.106,59.4314 225.163,72.4427 z" id="boundary" inkscape:connector-curvature="0" />
	<path style="fill:none;stroke:red;stroke-width:1px;stroke-linecap:butt;stroke-linejoin:miter;stroke-opacity:1" d="M 225.163,72.4427 221.511,87.4485 z" id="boundary" inkscape:connector-curvature="0" />
	<path style="fill:none;stroke:red;stroke-width:1px;stroke-linecap:butt;stroke-linejoin:miter;stroke-opacity:1" d="M 250.837,43.9842 242.106,59.4314 z" id="boundary" inkscape:connector-curvature="0" />
	<path style="fill:none;stroke:red;stroke-width:1px;stroke-linecap:butt;stroke-linejoin:miter;stroke-opacity:1" d="M 246.071,21.3564 250.837,43.9842 z" id="boundary" inkscape:connector-curvature="0" />
	<path style="fill:none;stroke:red;stroke-width:1px;stroke-linecap:butt;stroke-linejoin:miter;stroke-opacity:1" d="M 229.446,103.627 233.42,118.026 z" id="boundary" inkscape:connector-curvature="0" />
	<path style="fill:none;stroke:red;stroke-width:1px;stroke-linecap:butt;stroke-linejoin:miter;stroke-opacity:1" d="M 229.446,103.627 221.511,87.4485 z" id="boundary" inkscape:connector-curvature="0" />
	<path style="fill:none;stroke:red;stroke-width:1px;stroke-linecap:butt;stroke-linejoin:miter;stroke-opacity:1" d="M 208.371,200.774 207.376,211.074 z" id="boundary" inkscape:connector-curvature="0" />
	<path style="fill:none;stroke:red;stroke-width:1px;stroke-linecap:butt;stroke-linejoin:miter;stroke-opacity:1" d="M 212.982,190.493 208.371,200.774 z" id="boundary" inkscape:connector-curvature="0" />
	<path style="fill:none;stroke:red;stroke-width:1px;stroke-linecap:butt;stroke-linejoin:miter;stroke-opacity:1" d="M 214.189,221.846 207.376,211.074 z" id="boundary" inkscape:connector-curvature="0" />
	<path style="fill:none;stroke:red;stroke-width:1px;stroke-linecap:butt;stroke-linejoin:miter;stroke-opacity:1" d="M 219.122,232.757 214.189,221.846 z" id="boundary" inkscape:connector-curvature="0" />
	<path style="fill:none;stroke:red;stroke-width:1px;stroke-linecap:butt;stroke-linejoin:miter;stroke-opacity:1" d="M 221.979,180.374 212.982,190.493 z" id="boundary" inkscape:connector-curvature="0" />
	<path style="fill:none;stroke:red;stroke-width:1px;stroke-linecap:butt;stroke-linejoin:miter;stroke-opacity:1" d="M 210.356,242.321 207.177,251.908 z" id="boundary" inkscape:connector-curvature="0" />
	<path style="fill:none;stroke:red;stroke-width:1px;stroke-linecap:butt;stroke-linejoin:miter;stroke-opacity:1" d="M 219.122,232.757 210.356,242.321 z" id="boundary" inkscape:connector-curvature="0" />
	<path style="fill:none;stroke:red;stroke-width:1px;stroke-linecap:butt;stroke-linejoin:miter;stroke-opacity:1" d="M 208.325,261.403 207.177,251.908 z" id="boundary" inkscape:connector-curvature="0" />
	<path style="fill:none;stroke:red;stroke-width:1px;stroke-linecap:butt;stroke-linejoin:miter;stroke-opacity:1" d="M 215.073,167.91 221.979,180.374 z" id="boundary" inkscape:connector-curvature="0" />
	<path style="fill:none;stroke:red;stroke-width:1px;stroke-linecap:butt;stroke-linejoin:miter;stroke-opacity:1" d="M 246.071,21.3564 266.197,23.7691 z" id="boundary" inkscape:connector-curvature="0" />
	<path style="fill:none;stroke:red;stroke-width:1px;stroke-linecap:butt;stroke-linejoin:miter;stroke-opacity:1" d="M 280.9,16.059 266.197,23.7691 z" id="boundary" inkscape:connector-curvature="0" />
	<path style="fill:none;stroke:red;stroke-width:1px;stroke-linecap:butt;stroke-linejoin:miter;stroke-opacity:1" d="M 280.9,16.059 302.041,17.5915 z" id="boundary" inkscape:connector-curvature="0" />
	<path style="fill:none;stroke:red;stroke-width:1px;stroke-linecap:butt;stroke-linejoin:miter;stroke-opacity:1" d="M 307.524,40.9224 302.041,17.5915 z" id="boundary" inkscape:connector-curvature="0" />
	<path style="fill:none;stroke:red;stroke-width:1px;stroke-linecap:butt;stroke-linejoin:miter;stroke-opacity:1" d="M 316.226,61.379 307.524,40.9224 z" id="boundary" inkscape:connector-curvature="0" />
	<path style="fill:none;stroke:red;stroke-width:1px;stroke-linecap:butt;stroke-linejoin:miter;stroke-opacity:1" d="M 326.217,85.7902 307.772,110.411 z" id="boundary" inkscape:connector-curvature="0" />
	<path style="fill:none;stroke:red;stroke-width:1px;stroke-linecap:butt;stroke-linejoin:miter;stroke-opacity:1" d="M 307.772,110.411 323.686,138.625 z" id="boundary" inkscape:connector-curvature="0" />
	<path style="fill:none;stroke:red;stroke-width:1px;stroke-linecap:butt;stroke-linejoin:miter;stroke-opacity:1" d="M 326.217,85.7902 316.226,61.379 z" id="boundary" inkscape:connector-curvature="0" />
	<path style="fill:none;stroke:red;stroke-width:1px;stroke-linecap:butt;stroke-linejoin:miter;stroke-opacity:1" d="M 297.411,159.719 307.48,187.974 z" id="boundary" inkscape:connector-curvature="0" />
	<path style="fill:none;stroke:red;stroke-width:1px;stroke-linecap:butt;stroke-linejoin:miter;stroke-opacity:1" d="M 307.48,187.974 297.343,210.338 z" id="boundary" inkscape:connector-curvature="0" />
	<path style="fill:none;stroke:red;stroke-width:1px;stroke-linecap:butt;stroke-linejoin:miter;stroke-opacity:1" d="M 283.042,254.41 271.655,277.281 z" id="boundary" inkscape:connector-curvature="0" />
	<path style="fill:none;stroke:red;stroke-width:1px;stroke-linecap:butt;stroke-linejoin:miter;stroke-opacity:1" d="M 301.558,234.132 283.042,254.41 z" id="boundary" inkscape:connector-curvature="0" />
	<path style="fill:none;stroke:red;stroke-width:1px;stroke-linecap:butt;stroke-linejoin:miter;stroke-opacity:1" d="M 301.558,234.132 297.343,210.338 z" id="boundary" inkscape:connector-curvature="0" />
	<path style="fill:none;stroke:red;stroke-width:1px;stroke-linecap:butt;stroke-linejoin:miter;stroke-opacity:1" d="M 301.522,299.726 271.655,277.281 z" id="boundary" inkscape:connector-curvature="0" />
	<path style="fill:none;stroke:red;stroke-width:1px;stroke-linecap:butt;stroke-linejoin:miter;stroke-opacity:1" d="M 686.994,270.525 568.645,381.083 z" id="boundary" inkscape:connector-curvature="0" />
	<path style="fill:none;stroke:red;stroke-width:1px;stroke-linecap:butt;stroke-linejoin:miter;stroke-opacity:1" d="M 775.293,407.739 686.994,270.525 z" id="boundary" inkscape:connector-curvature="0" />
	<path style="fill:none;stroke:red;stroke-width:1px;stroke-linecap:butt;stroke-linejoin:miter;stroke-opacity:1" d="M 297.411,159.719 323.686,138.625 z" id="boundary" inkscape:connector-curvature="0" />
	<path style="fill:none;stroke:red;stroke-width:1px;stroke-linecap:butt;stroke-linejoin:miter;stroke-opacity:1" d="M 307.651,321.529 286.366,370.747 z" id="boundary" inkscape:connector-curvature="0" />
	<path style="fill:none;stroke:red;stroke-width:1px;stroke-linecap:butt;stroke-linejoin:miter;stroke-opacity:1" d="M 307.651,321.529 301.522,299.726 z" id="boundary" inkscape:connector-curvature="0" />
	<path style="fill:none;stroke:red;stroke-width:1px;stroke-linecap:butt;stroke-linejoin:miter;stroke-opacity:1" d="M 307.651,321.529 343.19,360.539 z" id="boundary" inkscape:connector-curvature="0" />
	<path style="fill:none;stroke:red;stroke-width:1px;stroke-linecap:butt;stroke-linejoin:miter;stroke-opacity:1" d="M 369.304,384.773 343.19,360.539 z" id="boundary" inkscape:connector-curvature="0" />
	<path style="fill:none;stroke:red;stroke-width:1px;stroke-linecap:butt;stroke-linejoin:miter;stroke-opacity:1" d="M 369.304,384.773 414.319,401.172 z" id="boundary" inkscape:connector-curvature="0" />
	<path style="fill:none;stroke:red;stroke-width:1px;stroke-linecap:butt;stroke-linejoin:miter;stroke-opacity:1" d="M 244.743,745.963 206.049,732.221 z" id="boundary" inkscape:connector-curvature="0" />
	<path style="fill:none;stroke:red;stroke-width:1px;stroke-linecap:butt;stroke-linejoin:miter;stroke-opacity:1" d="M 471.481,363.63 414.319,401.172 z" id="boundary" inkscape:connector-curvature="0" />
	<path style="fill:none;stroke:red;stroke-width:1px;stroke-linecap:butt;stroke-linejoin:miter;stroke-opacity:1" d="M 244.743,745.963 233.438,776.001 z" id="boundary" inkscape:connector-curvature="0" />
	<path style="fill:none;stroke:red;stroke-width:1px;stroke-linecap:butt;stroke-linejoin:miter;stroke-opacity:1" d="M 259.918,786.23 240.434,807.485 z" id="boundary" inkscape:connector-curvature="0" />
	<path style="fill:none;stroke:red;stroke-width:1px;stroke-linecap:butt;stroke-linejoin:miter;stroke-opacity:1" d="M 251.782,948.056 217.669,925.612 z" id="boundary" inkscape:connector-curvature="0" />
	<path style="fill:none;stroke:red;stroke-width:1px;stroke-linecap:butt;stroke-linejoin:miter;stroke-opacity:1" d="M 232.469,838.641 240.434,807.485 z" id="boundary" inkscape:connector-curvature="0" />
	<path style="fill:none;stroke:red;stroke-width:1px;stroke-linecap:butt;stroke-linejoin:miter;stroke-opacity:1" d="M 251.782,948.056 293.592,925.396 z" id="boundary" inkscape:connector-curvature="0" />
	<path style="fill:none;stroke:red;stroke-width:1px;stroke-linecap:butt;stroke-linejoin:miter;stroke-opacity:1" d="M 293.592,925.396 344.68,927.346 z" id="boundary" inkscape:connector-curvature="0" />
	<path style="fill:none;stroke:red;stroke-width:1px;stroke-linecap:butt;stroke-linejoin:miter;stroke-opacity:1" d="M 413.851,930.886 508.74,996 z" id="boundary" inkscape:connector-curvature="0" />
	<path style="fill:none;stroke:red;stroke-width:1px;stroke-linecap:butt;stroke-linejoin:miter;stroke-opacity:1" d="M 344.68,927.346 413.851,930.886 z" id="boundary" inkscape:connector-curvature="0" />
	<path style="fill:none;stroke:red;stroke-width:1px;stroke-linecap:butt;stroke-linejoin:miter;stroke-opacity:1" d="M 471.481,363.63 568.645,381.083 z" id="boundary" inkscape:connector-curvature="0" />
	<path style="fill:none;stroke:red;stroke-width:1px;stroke-linecap:butt;stroke-linejoin:miter;stroke-opacity:1" d="M 864.694,452.371 863.736,544.636 z" id="boundary" inkscape:connector-curvature="0" />
	<path style="fill:none;stroke:red;stroke-width:1px;stroke-linecap:butt;stroke-linejoin:miter;stroke-opacity:1" d="M 775.293,407.739 864.694,452.371 z" id="boundary" inkscape:connector-curvature="0" />
	<path style="fill:none;stroke:red;stroke-width:1px;stroke-linecap:butt;stroke-linejoin:miter;stroke-opacity:1" d="M 863.736,544.636 879.223,625.656 z" id="boundary" inkscape:connector-curvature="0" />
	<path style="fill:none;stroke:red;stroke-width:1px;stroke-linecap:butt;stroke-linejoin:miter;stroke-opacity:1" d="M 879.223,625.656 891.618,675.885 z" id="boundary" inkscape:connector-curvature="0" />
	<path style="fill:none;stroke:red;stroke-width:1px;stroke-linecap:butt;stroke-linejoin:miter;stroke-opacity:1" d="M 891.618,675.885 905.101,717.43 z" id="boundary" inkscape:connector-curvature="0" />
	<path style="fill:none;stroke:red;stroke-width:1px;stroke-linecap:butt;stroke-linejoin:miter;stroke-opacity:1" d="M 905.101,717.43 904.282,752.429 z" id="boundary" inkscape:connector-curvature="0" />
	<path style="fill:none;stroke:red;stroke-width:1px;stroke-linecap:butt;stroke-linejoin:miter;stroke-opacity:1" d="M 508.74,996 650.06,927.969 z" id="boundary" inkscape:connector-curvature="0" />
	<path style="fill:none;stroke:red;stroke-width:1px;stroke-linecap:butt;stroke-linejoin:miter;stroke-opacity:1" d="M 650.06,927.969 751.136,973.92 z" id="boundary" inkscape:connector-curvature="0" />
	<path style="fill:none;stroke:red;stroke-width:1px;stroke-linecap:butt;stroke-linejoin:miter;stroke-opacity:1" d="M 830.33,988.03 751.136,973.92 z" id="boundary" inkscape:connector-curvature="0" />
	<path style="fill:none;stroke:red;stroke-width:1px;stroke-linecap:butt;stroke-linejoin:miter;stroke-opacity:1" d="M 830.33,988.03 890.733,967.799 z" id="boundary" inkscape:connector-curvature="0" />
	<path style="fill:none;stroke:red;stroke-width:1px;stroke-linecap:butt;stroke-linejoin:miter;stroke-opacity:1" d="M 904.282,752.429 915.178,788.538 z" id="boundary" inkscape:connector-curvature="0" />
	<path style="fill:none;stroke:red;stroke-width:1px;stroke-linecap:butt;stroke-linejoin:miter;stroke-opacity:1" d="M 915.178,788.538 938.637,822.215 z" id="boundary" inkscape:connector-curvature="0" />
	<path style="fill:none;stroke:red;stroke-width:1px;stroke-linecap:butt;stroke-linejoin:miter;stroke-opacity:1" d="M 958.294,784.824 938.637,822.215 z" id="boundary" inkscape:connector-curvature="0" />
	<path style="fill:none;stroke:red;stroke-width:1px;stroke-linecap:butt;stroke-linejoin:miter;stroke-opacity:1" d="M 938.637,822.215 938.448,846.275 z" id="boundary" inkscape:connector-curvature="0" />
	<path style="fill:none;stroke:red;stroke-width:1px;stroke-linecap:butt;stroke-linejoin:miter;stroke-opacity:1" d="M 930.316,928.218 890.733,967.799 z" id="boundary" inkscape:connector-curvature="0" />
	<path style="fill:none;stroke:red;stroke-width:1px;stroke-linecap:butt;stroke-linejoin:miter;stroke-opacity:1" d="M 948.675,882.694 930.316,928.218 z" id="boundary" inkscape:connector-curvature="0" />
	<path style="fill:none;stroke:red;stroke-width:1px;stroke-linecap:butt;stroke-linejoin:miter;stroke-opacity:1" d="M 938.448,846.275 948.675,882.694 z" id="boundary" inkscape:connector-curvature="0" />
	<circle cx="233.438" cy="776.001" r="4" fill="#0" id="circle0"/>
	<circle cx="244.743" cy="745.963" r="4" fill="#0" id="circle1"/>
	<circle cx="206.049" cy="732.221" r="4" fill="#0" id="circle2"/>
	<circle cx="171.584" cy="711.303" r="4" fill="#0" id="circle3"/>
	<circle cx="118.095" cy="699.957" r="4" fill="#0" id="circle4"/>
	<circle cx="95.5949" cy="615.075" r="4" fill="#0" id="circle5"/>
	<circle cx="56.8646" cy="607.104" r="4" fill="#0" id="circle6"/>
	<circle cx="19.6191" cy="601.668" r="4" fill="#0" id="circle7"/>
	<circle cx="25.9949" cy="564.068" r="4" fill="#0" id="circle8"/>
	<circle cx="4" cy="536.323" r="4" fill="#0" id="circle9"/>
	<circle cx="9.23025" cy="489.562" r="4" fill="#0" id="circle10"/>
	<circle cx="16.3488" cy="414.419" r="4" fill="#0" id="circle11"/>
	<circle cx="74.3443" cy="377.072" r="4" fill="#0" id="circle12"/>
	<circle cx="88.8713" cy="338.313" r="4" fill="#0" id="circle13"/>
	<circle cx="81.882" cy="309.223" r="4" fill="#0" id="circle14"/>
	<circle cx="87.7181" cy="288.954" r="4" fill="#0" id="circle15"/>
	<circle cx="99.4349" cy="267.354" r="4" fill="#0" id="circle16"/>
	<circle cx="96.7814" cy="243.998" r="4" fill="#0" id="circle17"/>
	<circle cx="118.805" cy="221.138" r="4" fill="#0" id="circle18"/>
	<circle cx="101.03" cy="196.717" r="4" fill="#0" id="circle19"/>
	<circle cx="123.745" cy="171.86" r="4" fill="#0" id="circle20"/>
	<circle cx="115.213" cy="148.029" r="4" fill="#0" id="circle21"/>
	<circle cx="119.773" cy="124.719" r="4" fill="#0" id="circle22"/>
	<circle cx="95.616" cy="99.0789" r="4" fill="#0" id="circle23"/>
	<circle cx="121.638" cy="78.145" r="4" fill="#0" id="circle24"/>
	<circle cx="115.721" cy="55.1784" r="4" fill="#0" id="circle25"/>
	<circle cx="126.373" cy="40.0737" r="4" fill="#0" id="circle26"/>
	<circle cx="131.754" cy="29.3196" r="4" fill="#0" id="circle27"/>
	<circle cx="132.434" cy="4" r="4" fill="#0" id="circle28"/>
	<circle cx="150.524" cy="20.1839" r="4" fill="#0" id="circle29"/>
	<circle cx="164.895" cy="17.2958" r="4" fill="#0" id="circle30"/>
	<circle cx="181.829" cy="24.8961" r="4" fill="#0" id="circle31"/>
	<circle cx="182.845" cy="43.1064" r="4" fill="#0" id="circle32"/>
	<circle cx="176.667" cy="61.4812" r="4" fill="#0" id="circle33"/>
	<circle cx="186.22" cy="77.0683" r="4" fill="#0" id="circle34"/>
	<circle cx="183.437" cy="91.9307" r="4" fill="#0" id="circle35"/>
	<circle cx="182.471" cy="106.146" r="4" fill="#0" id="circle36"/>
	<circle cx="192.492" cy="119.731" r="4" fill="#0" id="circle37"/>
	<circle cx="177.604" cy="133.064" r="4" fill="#0" id="circle38"/>
	<circle cx="187.236" cy="145.615" r="4" fill="#0" id="circle39"/>
	<circle cx="182.232" cy="158.105" r="4" fill="#0" id="circle40"/>
	<circle cx="186.937" cy="170.59" r="4" fill="#0" id="circle41"/>
	<circle cx="180.386" cy="182.177" r="4" fill="#0" id="circle42"/>
	<circle cx="188.889" cy="193.119" r="4" fill="#0" id="circle43"/>
	<circle cx="178.518" cy="203.495" r="4" fill="#0" id="circle44"/>
	<circle cx="179.483" cy="213.467" r="4" fill="#0" id="circle45"/>
	<circle cx="186.279" cy="224.031" r="4" fill="#0" id="circle46"/>
	<circle cx="187.348" cy="234.627" r="4" fill="#0" id="circle47"/>
	<circle cx="173.88" cy="243.654" r="4" fill="#0" id="circle48"/>
	<circle cx="186.343" cy="253.729" r="4" fill="#0" id="circle49"/>
	<circle cx="179.367" cy="262.996" r="4" fill="#0" id="circle50"/>
	<circle cx="172.457" cy="271.455" r="4" fill="#0" id="circle51"/>
	<circle cx="173.507" cy="280.679" r="4" fill="#0" id="circle52"/>
	<circle cx="179.555" cy="289.421" r="4" fill="#0" id="circle53"/>
	<circle cx="182.229" cy="297.215" r="4" fill="#0" id="circle54"/>
	<circle cx="176.496" cy="304.95" r="4" fill="#0" id="circle55"/>
	<circle cx="176.072" cy="312.477" r="4" fill="#0" id="circle56"/>
	<circle cx="180.82" cy="318.064" r="4" fill="#0" id="circle57"/>
	<circle cx="186.836" cy="317.462" r="4" fill="#0" id="circle58"/>
	<circle cx="190.354" cy="320.22" r="4" fill="#0" id="circle59"/>
	<circle cx="194.445" cy="317.95" r="4" fill="#0" id="circle60"/>
	<circle cx="193.832" cy="312.482" r="4" fill="#0" id="circle61"/>
	<circle cx="195.385" cy="308.803" r="4" fill="#0" id="circle62"/>
	<circle cx="196.864" cy="302.969" r="4" fill="#0" id="circle63"/>
	<circle cx="205.686" cy="297.139" r="4" fill="#0" id="circle64"/>
	<circle cx="203.963" cy="288.014" r="4" fill="#0" id="circle65"/>
	<circle cx="207.681" cy="279.828" r="4" fill="#0" id="circle66"/>
	<circle cx="203.568" cy="270.077" r="4" fill="#0" id="circle67"/>
	<circle cx="208.325" cy="261.403" r="4" fill="#0" id="circle68"/>
	<circle cx="207.177" cy="251.908" r="4" fill="#0" id="circle69"/>
	<circle cx="210.356" cy="242.321" r="4" fill="#0" id="circle70"/>
	<circle cx="219.122" cy="232.757" r="4" fill="#0" id="circle71"/>
	<circle cx="214.189" cy="221.846" r="4" fill="#0" id="circle72"/>
	<circle cx="207.376" cy="211.074" r="4" fill="#0" id="circle73"/>
	<circle cx="208.371" cy="200.774" r="4" fill="#0" id="circle74"/>
	<circle cx="212.982" cy="190.493" r="4" fill="#0" id="circle75"/>
	<circle cx="221.979" cy="180.374" r="4" fill="#0" id="circle76"/>
	<circle cx="215.073" cy="167.91" r="4" fill="#0" id="circle77"/>
	<circle cx="218.344" cy="156.196" r="4" fill="#0" id="circle78"/>
	<circle cx="225.686" cy="144.13" r="4" fill="#0" id="circle79"/>
	<circle cx="220.379" cy="130.506" r="4" fill="#0" id="circle80"/>
	<circle cx="233.42" cy="118.026" r="4" fill="#0" id="circle81"/>
	<circle cx="229.446" cy="103.627" r="4" fill="#0" id="circle82"/>
	<circle cx="221.511" cy="87.4485" r="4" fill="#0" id="circle83"/>
	<circle cx="225.163" cy="72.4427" r="4" fill="#0" id="circle84"/>
	<circle cx="242.106" cy="59.4314" r="4" fill="#0" id="circle85"/>
	<circle cx="250.837" cy="43.9842" r="4" fill="#0" id="circle86"/>
	<circle cx="246.071" cy="21.3564" r="4" fill="#0" id="circle87"/>
	<circle cx="266.197" cy="23.7691" r="4" fill="#0" id="circle88"/>
	<circle cx="280.9" cy="16.059" r="4" fill="#0" id="circle89"/>
	<circle cx="302.041" cy="17.5915" r="4" fill="#0" id="circle90"/>
	<circle cx="307.524" cy="40.9224" r="4" fill="#0" id="circle91"/>
	<circle cx="316.226" cy="61.379" r="4" fill="#0" id="circle92"/>
	<circle cx="326.217" cy="85.7902" r="4" fill="#0" id="circle93"/>
	<circle cx="307.772" cy="110.411" r="4" fill="#0" id="circle94"/>
	<circle cx="323.686" cy="138.625" r="4" fill="#0" id="circle95"/>
	<circle cx="297.411" cy="159.719" r="4" fill="#0" id="circle96"/>
	<circle cx="307.48" cy="187.974" r="4" fill="#0" id="circle97"/>
	<circle cx="297.343" cy="210.338" r="4" fill="#0" id="circle98"/>
	<circle cx="301.558" cy="234.132" r="4" fill="#0" id="circle99"/>
	<circle cx="283.042" cy="254.41" r="4" fill="#0" id="circle100"/>
	<circle cx="271.655" cy="277.281" r="4" fill="#0" id="circle101"/>
	<circle cx="301.522" cy="299.726" r="4" fill="#0" id="circle102"/>
	<circle cx="307.651" cy="321.529" r="4" fill="#0" id="circle103"/>
	<circle cx="286.366" cy="370.747" r="4" fill="#0" id="circle104"/>
	<circle cx="343.19" cy="360.539" r="4" fill="#0" id="circle105"/>
	<circle cx="369.304" cy="384.773" r="4" fill="#0" id="circle106"/>
	<circle cx="414.319" cy="401.172" r="4" fill="#0" id="circle107"/>
	<circle cx="471.481" cy="363.63" r="4" fill="#0" id="circle108"/>
	<circle cx="568.645" cy="381.083" r="4" fill="#0" id="circle109"/>
	<circle cx="686.994" cy="270.525" r="4" fill="#0" id="circle110"/>
	<circle cx="775.293" cy="407.739" r="4" fill="#0" id="circle111"/>
	<circle cx="864.694" cy="452.371" r="4" fill="#0" id="circle112"/>
	<circle cx="863.736" cy="544.636" r="4" fill="#0" id="circle113"/>
	<circle cx="879.223" cy="625.656" r="4" fill="#0" id="circle114"/>
	<circle cx="891.618" cy="675.885" r="4" fill="#0" id="circle115"/>
	<circle cx="905.101" cy="717.43" r="4" fill="#0" id="circle116"/>
	<circle cx="904.282" cy="752.429" r="4" fill="#0" id="circle117"/>
	<circle cx="915.178" cy="788.538" r="4" fill="#0" id="circle118"/>
	<circle cx="958.294" cy="784.824" r="4" fill="#0" id="circle119"/>
	<circle cx="938.637" cy="822.215" r="4" fill="#0" id="circle120"/>
	<circle cx="938.448" cy="846.275" r="4" fill="#0" id="circle121"/>
	<circle cx="948.675" cy="882.694" r="4" fill="#0" id="circle122"/>
	<circle cx="930.316" cy="928.218" r="4" fill="#0" id="circle123"/>
	<circle cx="890.733" cy="967.799" r="4" fill="#0" id="circle124"/>
	<circle cx="830.33" cy="988.03" r="4" fill="#0" id="circle125"/>
	<circle cx="751.136" cy="973.92" r="4" fill="#0" id="circle126"/>
	<circle cx="650.06" cy="927.969" r="4" fill="#0" id="circle127"/>
	<circle cx="508.74" cy="996" r="4" fill="#0" id="circle128"/>
	<circle cx="413.851" cy="930.886" r="4" fill="#0" id="circle129"/>
	<circle cx="344.68" cy="927.346" r="4" fill="#0" id="circle130"/>
	<circle cx="293.592" cy="925.396" r="4" fill="#0" id="circle131"/>
	<circle cx="251.782" cy="948.056" r="4" fill="#0" id="circle132"/>
	<circle cx="217.669" cy="925.612" r="4" fill="#0" id="circle133"/>
	<circle cx="190.118" cy="920.85" r="4" fill="#0" id="circle134"/>
	<circle cx="162.766" cy="933.13" r="4" fill="#0" id="circle135"/>
	<circle cx="161.422" cy="907.194" r="4" fill="#0" id="circle136"/>
	<circle cx="135.713" cy="896.4" r="4" fill="#0" id="circle137"/>
	<circle cx="158.174" cy="876.588" r="4" fill="#0" id="circle138"/>
	<circle cx="150.511" cy="847.896" r="4" fill="#0" id="circle139"/>
	<circle cx="182.286" cy="857.052" r="4" fill="#0" id="circle140"/>
	<circle cx="194.251" cy="813.788" r="4" fill="#0" id="circle141"/>
	<circle cx="232.469" cy="838.641" r="4" fill="#0" id="circle142"/>
	<circle cx="240.434" cy="807.485" r="4" fill="#0" id="circle143"/>
	<circle cx="259.918" cy="786.23" r="4" fill="#0" id="circle144"/>
	</g>
</svg>