39.28267 256.42857
62.74316 212.78116
78.01976 161.49544
93.84195 109.66413
106.93617 69.83587
125.48632 26.18845
152.22036 78.01976
170.22492 129.85106
194.23100 166.40578
222.05623 208.41641
255.33739 188.77508
291.34650 159.31307
340.99544 114.02888
386.27964 70.38146
423.92553 31.64438
418.46960 98.75228
413.01368 154.94833
405.37538 206.23404
395.55471 254.24620
