26 105
22 95
27 85
35 79
45 74
55 74
65 74
73 80
78 89
88 89
98 89
108 90
118 91
128 95
138 98
148 101
158 105
166 112
175 117
183 123
192 128
200 134
208 140
213 149
204 162
194 163
184 163
174 161
164 159
154 157
144 154
134 151
124 148
114 144
104 141
95 136
86 131
78 124
73 115
64 110
54 112
44 113
34 111
