11 148
9 138
14 129
20 120
26 112
35 107
29 93
39 89
49 90
59 89
69 88
78 83
88 82
98 80
108 83
118 81
128 81
138 82
148 86
158 86
167 91
176 96
186 98
192 106
202 109
210 115
219 120
226 128
235 133
240 142
249 147
257 154
265 160
275 162
278 172
288 171
292 181
298 189
306 195
313 203
322 208
331 213
338 221
347 226
353 234
363 238
373 242
378 251
384 259
393 264
399 272
407 279
413 287
423 291
431 298
437 306
446 311
453 319
461 325
469 331
477 338
485 344
493 350
502 355
508 363
516 369
525 374
531 382
540 387
548 393
557 398
565 404
574 409
580 417
586 425
596 427
602 435
609 443
618 448
626 454
634 460
642 466
651 471
659 477
668 482
673 491
683 493
691 499
697 507
706 512
715 517
723 524
733 526
740 534
750 537
758 543
766 550
772 558
778 566
786 572
792 580
802 582
808 590
817 595
827 592
835 598
845 601
847 611
853 619
858 628
866 634
874 640
882 646
891 651
899 657
907 664
917 668
927 672
931 682
940 687
948 693
957 698
967 702
973 710
981 716
990 721
998 727
1006 733
1015 738
1022 746
1032 750
1041 755
1049 761
1057 767
1063 775
1073 777
1079 785
1088 790
1096 796
1105 801
1113 807
1122 812
1131 817
1138 825
1147 830
1157 834
1166 839
1175 844
1185 847
1188 857
1198 861
1208 863
1215 871
1225 875
1235 879
1243 886
1251 892
1257 900
1267 901
1276 906
1285 911
1290 920
1299 925
1307 931
1315 937
1323 943
1331 949
1340 954
1348 961
1357 966
1365 973
1375 977
1382 985
1390 991
1398 997
1407 1002
1415 1009
1423 1015
1431 1021
1439 1027
1447 1033
1455 1039
1465 1042
1474 1047
1479 1056
1488 1061
1497 1066
1503 1074
1512 1079
1521 1084
1529 1091
1539 1094
1545 1102
1553 1109
1561 1115
1570 1120
1576 1128
1586 1131
1594 1137
1602 1143
1610 1150
1618 1156
1626 1162
1636 1166
1644 1172
1649 1181
1658 1186
1667 1191
1675 1197
1684 1202
1692 1208
1700 1214
1708 1221
1718 1225
1723 1234
1731 1241
1739 1247
1749 1249
1754 1258
1762 1264
1770 1271
1778 1277
1786 1283
1794 1289
1803 1294
1811 1301
1821 1304
1826 1313
1836 1315
1841 1324
1850 1329
1858 1335
1866 1341
1872 1349
1880 1356
1888 1362
1897 1367
1904 1375
1912 1381
1920 1387
1930 1391
1936 1399
1944 1405
1953 1410
1961 1417
1969 1423
1977 1429
1976 1440
1985 1448
1975 1451
1965 1450
1959 1461
1949 1464
1941 1472
1934 1480
1924 1483
1924 1493
1914 1495
1906 1503
1896 1506
1886 1510
1880 1519
1870 1522
1860 1522
1850 1523
1841 1518
1833 1512
1831 1502
1821 1500
1812 1495
1803 1490
1793 1486
1785 1480
1775 1477
1765 1474
1757 1467
1749 1461
1741 1455
1732 1450
1722 1446
1712 1446
1704 1439
1696 1432
1688 1426
1679 1421
1669 1419
1660 1414
1650 1414
1632 1423
1640 1415
1635 1402
1627 1395
1620 1387
1611 1382
1601 1378
1593 1372
1585 1366
1575 1362
1567 1356
1559 1350
1549 1346
1541 1339
1531 1336
1523 1330
1514 1325
1505 1320
1496 1315
1488 1309
1483 1300
1473 1303
1466 1295
1458 1288
1448 1285
1439 1280
1433 1272
1428 1263
1423 1254
1418 1245
1412 1237
1405 1229
1401 1219
1395 1211
1387 1204
1382 1195
1376 1187
1371 1178
1363 1171
1357 1163
1350 1155
1342 1149
1336 1141
1329 1133
1321 1126
1313 1120
1305 1114
1295 1111
1286 1106
1278 1100
1268 1097
1260 1091
1250 1087
1240 1084
1230 1083
1220 1081
1210 1079
1200 1076
1199 1066
1194 1057
1186 1064
1176 1066
1166 1066
1161 1057
1151 1055
1142 1050
1134 1044
1126 1037
1117 1032
1108 1027
1098 1026
1095 1016
1090 1007
1084 999
1078 991
1068 987
1060 981
1050 979
1040 976
1036 966
1029 958
1021 952
1011 948
1001 944
992 939
986 931
980 923
971 918
961 917
953 911
947 903
940 895
932 889
923 884
913 881
906 873
899 865
890 860
882 854
872 850
862 847
858 837
850 831
842 825
834 819
824 818
817 810
812 801
804 795
795 790
787 784
777 780
769 774
760 769
757 759
747 758
741 750
732 745
725 737
719 729
710 724
703 716
693 714
684 709
676 703
667 698
663 688
654 683
644 682
638 674
631 666
625 658
615 655
609 647
599 645
593 637
588 628
580 621
571 616
562 611
554 605
548 597
540 591
530 588
524 580
515 575
507 568
499 561
494 552
486 546
477 541
468 536
459 531
453 523
446 513
437 508
427 512
417 508
409 515
399 521
398 510
406 504
414 491
406 485
400 477
392 471
384 464
376 458
370 450
361 445
355 437
347 444
341 436
339 426
332 418
323 413
314 408
304 404
296 397
291 388
286 379
276 376
270 368
260 368
255 359
247 353
237 349
234 339
226 332
216 328
211 318
203 312
199 302
189 298
179 295
169 294
167 284
158 279
157 269
147 267
138 262
135 252
126 247
120 239
111 234
101 235
98 246
91 238
85 230
84 216
74 213
69 204
61 198
54 190
48 198
49 213
48 223
39 218
29 214
22 206
16 198
16 183
21 172
19 155
