98 249
98 239
99 225
103 213
107 203
113 195
121 187
130 182
140 180
150 180
159 185
168 190
177 195
187 199
195 206
203 212
212 217
220 223
229 228
238 233
246 239
254 246
263 251
271 257
279 263
288 268
296 274
305 279
313 285
322 290
330 297
338 303
347 308
356 313
364 319
373 324
381 330
390 335
399 340
407 347
415 353
424 358
433 363
441 369
449 375
458 380
467 385
476 390
484 396
492 402
502 406
510 412
519 417
527 423
535 429
544 434
553 439
561 445
570 450
578 456
587 461
596 466
604 472
612 478
622 482
630 488
638 494
647 499
656 504
665 509
673 515
682 520
690 526
699 531
708 536
716 542
725 547
733 554
741 560
750 565
759 570
768 575
776 581
784 587
793 592
802 597
811 602
820 607
828 613
836 620
845 625
854 630
863 635
871 641
880 646
888 652
896 658
906 662
914 668
923 673
931 679
939 685
949 689
957 696
965 702
973 708
981 714
989 721
997 727
1006 732
1015 737
1024 742
1029 751
1039 754
1048 759
1057 764
1066 769
1075 774
1081 782
1091 786
1101 790
1110 795
1116 803
1126 806
1135 811
1143 817
1152 822
1161 827
1169 833
1179 837
1187 843
1196 848
1205 853
1213 859
1222 864
1231 869
1239 876
1248 881
1256 887
1266 890
1275 895
1283 901
1292 906
1301 911
1309 917
1318 922
1327 927
1336 932
1346 936
1354 943
1364 946
1372 952
1380 958
1390 962
1399 967
1408 972
1416 978
1426 981
1435 986
1443 992
1452 997
1461 1002
1470 1007
1480 1011
1488 1017
1497 1022
1507 1026
1516 1031
1524 1037
1534 1040
1542 1046
1552 1050
1560 1056
1570 1060
1579 1065
1589 1069
1597 1075
1607 1078
1617 1081
1625 1087
1634 1092
1644 1095
1653 1100
1662 1105
1672 1109
1682 1113
1692 1117
1702 1120
1710 1126
1720 1129
1730 1133
1740 1137
1750 1141
1760 1145
1770 1147
1779 1152
1789 1156
1798 1161
1808 1165
1816 1171
1825 1176
1833 1182
1839 1190
1845 1198
1848 1208
1853 1217
1855 1227
1855 1246
1855 1256
1853 1266
1849 1276
1845 1288
1840 1299
1834 1307
1827 1315
1820 1323
1812 1329
1804 1335
1795 1340
1785 1344
1775 1348
1765 1350
1755 1351
1745 1350
1735 1347
1725 1343
1720 1334
1711 1329
1705 1321
1695 1320
1690 1311
1680 1308
1675 1299
1666 1294
1658 1288
1651 1280
1643 1274
1635 1267
1627 1261
1625 1251
1615 1253
1607 1247
1601 1239
1593 1233
1584 1228
1576 1221
1568 1214
1565 1204
1555 1205
1546 1200
1538 1193
1530 1187
1522 1180
1517 1171
1507 1171
1498 1166
1494 1156
1484 1154
1476 1148
1468 1142
1458 1138
1450 1132
1442 1125
1433 1117
1423 1113
1414 1108
1406 1101
1396 1097
1388 1091
1380 1085
1372 1079
1367 1070
1357 1070
1348 1065
1341 1057
1332 1052
1326 1044
1316 1044
1311 1035
1301 1035
1293 1029
1284 1024
1276 1018
1267 1013
1257 1009
1251 1001
1243 994
1233 991
1225 985
1219 977
1209 978
1201 972
1193 966
1187 958
1177 957
1169 951
1159 947
1154 938
1146 932
1136 931
1131 922
1121 919
1111 917
1103 911
1097 903
1087 902
1078 897
1070 891
1062 885
1053 880
1045 874
1036 869
1027 864
1018 859
1010 853
1002 847
992 843
982 839
974 832
964 829
956 822
946 818
937 813
927 812
919 806
909 803
899 800
889 797
879 798
869 802
860 807
851 813
841 817
831 813
821 810
812 805
802 801
793 796
784 791
774 787
766 781
756 777
747 772
738 767
729 762
721 756
712 751
703 746
694 741
685 736
676 731
667 726
658 721
649 716
640 711
631 706
622 701
613 696
605 690
596 685
587 680
579 674
570 669
561 664
553 658
544 653
536 647
527 642
519 636
510 631
502 625
494 619
485 614
477 608
469 602
460 597
452 591
443 586
435 580
427 574
419 568
410 563
402 557
394 551
386 545
377 540
369 534
361 528
353 522
345 516
337 510
329 504
321 498
313 492
305 486
297 479
288 474
281 466
273 460
265 454
257 447
249 440
241 434
233 428
226 420
218 413
210 407
203 399
195 393
188 385
180 378
173 370
167 362
159 355
152 347
146 339
139 331
134 322
129 313
123 305
117 297
112 288
108 278
103 269
100 259
