330 689
338 696
348 694
358 691
368 690
378 687
388 685
398 683
408 681
418 678
428 676
438 673
448 671
458 670
468 668
478 666
488 664
498 663
508 662
518 661
528 660
538 658
548 657
558 656
568 655
578 654
588 654
598 653
608 653
618 653
628 653
638 653
642 663
632 665
622 664
612 666
602 669
592 672
582 673
572 675
562 676
552 678
542 679
532 682
525 696
519 685
509 686
511 696
501 699
499 689
489 690
479 692
469 695
459 697
449 700
439 702
429 704
419 707
409 709
399 712
389 714
379 717
369 720
359 723
349 725
339 728
325 733
334 738
345 736
355 733
365 731
375 729
385 727
395 725
405 723
415 721
425 719
435 717
445 715
455 713
465 712
475 710
485 708
495 707
509 706
519 705
531 704
541 703
551 702
561 701
571 700
581 700
591 699
601 699
611 699
621 699
631 699
641 701
635 712
625 712
615 713
605 715
595 717
585 719
575 720
565 722
555 723
545 724
535 726
527 735
519 729
509 730
502 738
493 733
483 735
473 737
463 739
453 741
443 743
433 745
423 747
413 749
403 751
393 753
383 755
373 758
363 760
353 763
343 766
330 769
338 775
351 773
361 771
371 770
381 768
391 766
401 765
411 764
421 762
431 761
441 759
451 756
461 752
471 754
481 753
491 751
501 751
511 751
521 750
531 749
541 749
551 748
561 747
571 746
581 746
591 746
601 745
611 746
621 745
631 746
640 756
630 758
620 758
610 759
600 762
590 764
580 765
570 766
560 767
550 768
540 769
530 771
536 779
527 785
518 780
512 790
506 782
497 777
487 778
477 780
467 781
457 783
447 785
437 787
427 789
417 791
407 792
397 794
387 796
377 799
367 800
357 803
351 812
361 816
371 816
381 815
391 815
401 814
411 814
421 813
431 812
441 812
451 811
461 810
471 806
481 805
491 805
501 801
511 804
521 806
531 806
541 806
551 805
561 805
571 804
581 804
591 804
601 804
611 804
621 804
631 804
641 803
651 803
661 803
671 803
681 802
691 802
701 801
711 800
721 798
731 796
741 793
751 789
761 785
770 779
778 773
786 765
794 757
802 749
811 744
821 741
831 739
841 739
851 739
861 739
871 739
881 739
891 739
901 739
911 739
921 739
931 739
941 739
951 739
961 740
971 740
981 739
991 739
1001 739
1011 738
1021 738
1031 738
1041 738
1051 737
1061 737
1071 737
1081 737
1091 737
1101 736
1111 737
1121 736
1131 736
1141 737
1151 737
1161 737
1171 737
1181 738
1191 738
1201 738
1211 739
1221 740
1231 740
1241 741
1251 741
1261 742
1271 743
1281 743
1291 744
1301 745
1311 745
1321 746
1331 748
1341 749
1351 750
1361 751
1371 752
1381 752
1391 752
1401 753
1411 754
1421 755
1431 756
1441 757
1451 758
1461 759
1471 759
1481 760
1491 760
1501 761
1511 762
1521 762
1531 763
1541 763
1551 764
1561 764
1571 764
1581 765
1591 765
1601 764
1611 764
1621 764
1631 763
1641 763
1651 762
1661 760
1671 757
1681 754
1691 750
1701 746
1710 740
1718 733
1723 721
1721 711
1714 703
1707 695
1699 689
1689 685
1680 680
1670 676
1660 673
1650 669
1640 666
1630 663
1620 661
1610 659
1600 656
1590 654
1580 655
1570 656
1560 655
1550 655
1540 655
1530 655
1520 656
1510 656
1500 657
1490 657
1480 657
1470 657
1460 658
1450 659
1440 660
1430 661
1420 662
1410 663
1400 664
1390 666
1380 667
1370 669
1360 671
1350 673
1340 675
1330 677
1320 678
1310 680
1300 681
1290 683
1280 685
1270 686
1260 687
1250 688
1240 690
1230 691
1220 692
1210 693
1200 695
1190 696
1180 697
1170 698
1160 698
1150 699
1140 700
1130 701
1120 702
1110 702
1100 703
1090 703
1080 704
1070 705
1060 705
1050 705
1040 706
1030 707
1020 707
1010 707
1000 708
990 708
980 707
970 708
960 708
950 707
940 707
930 707
920 707
910 706
900 706
890 706
880 705
870 705
860 704
850 702
840 701
830 698
820 695
810 691
802 685
794 679
787 671
780 663
773 655
766 647
758 640
750 633
740 630
731 625
721 621
711 619
701 617
691 614
681 612
671 611
661 610
651 611
641 611
632 606
622 606
612 607
602 612
592 615
582 617
572 618
562 620
552 622
542 623
532 625
522 627
525 642
516 648
504 632
490 635
480 638
470 640
460 643
450 647
440 650
430 653
420 656
410 659
400 663
390 666
380 670
370 673
360 677
350 681
340 685
