399 801
407 808
417 810
427 811
437 813
447 814
457 815
467 816
477 817
487 819
497 819
507 820
517 822
527 823
537 824
547 824
557 826
567 827
577 828
587 829
597 831
607 833
615 839
605 844
595 845
585 844
575 843
565 843
555 844
545 844
535 843
525 843
515 843
505 842
495 842
485 841
475 841
465 839
455 839
445 840
435 839
425 839
415 839
405 838
395 839
399 849
409 850
419 852
429 853
439 854
449 856
459 857
469 859
479 860
489 861
499 863
509 864
519 865
529 867
539 868
549 870
559 871
569 872
579 874
589 876
599 878
609 880
619 879
629 880
639 880
649 881
659 885
669 885
679 885
689 885
699 885
709 884
719 883
729 880
739 876
749 872
759 868
768 863
778 859
784 851
792 845
801 840
811 840
821 838
831 840
841 843
851 845
861 846
871 847
881 848
891 850
901 851
911 852
921 854
931 853
941 855
951 857
961 857
971 858
981 860
991 863
1001 863
1011 865
1021 865
1031 867
1041 869
1051 870
1061 871
1071 872
1081 874
1091 875
1101 877
1111 877
1121 879
1131 881
1141 883
1151 884
1161 887
1171 888
1181 890
1190 895
1200 895
1210 897
1220 899
1230 900
1240 901
1250 899
1260 900
1270 900
1280 901
1290 903
1300 903
1310 904
1320 905
1330 907
1340 908
1350 909
1360 911
1370 912
1380 913
1390 914
1400 916
1410 917
1420 918
1430 919
1440 921
1450 923
1460 925
1470 925
1480 927
1490 928
1500 929
1510 930
1520 931
1530 931
1540 932
1550 932
1557 923
1561 913
1564 897
1567 886
1567 876
1567 866
1566 856
1564 845
1557 837
1547 835
1537 835
1527 835
1517 832
1507 832
1497 830
1487 830
1477 830
1467 831
1457 832
1447 832
1437 830
1427 831
1417 831
1407 830
1397 830
1387 828
1377 829
1367 828
1357 827
1347 826
1337 826
1327 825
1317 825
1307 824
1297 823
1287 823
1277 821
1267 819
1257 819
1247 819
1237 819
1227 819
1217 818
1207 819
1197 819
1187 819
1177 818
1167 818
1157 816
1147 816
1137 816
1127 815
1117 815
1107 815
1097 814
1087 814
1077 814
1067 812
1057 813
1047 812
1037 811
1027 811
1017 810
1007 810
997 809
987 810
977 809
967 808
957 808
947 808
937 807
927 807
917 807
907 806
897 805
887 805
877 805
867 804
857 804
847 804
837 803
827 803
817 800
808 795
798 791
792 783
786 775
781 766
772 761
763 756
755 750
746 745
736 741
727 736
717 733
707 731
697 728
687 728
677 727
667 727
657 726
647 725
637 722
627 721
617 723
607 720
597 721
587 719
577 720
567 718
557 717
547 716
537 715
527 715
517 714
507 714
497 713
487 712
477 712
467 712
457 712
447 710
437 710
427 709
417 709
407 711
413 719
423 721
433 723
443 724
453 726
463 727
473 729
483 730
493 732
503 734
513 735
523 736
533 739
543 740
553 741
563 743
573 744
583 746
593 747
603 749
613 751
622 756
614 764
604 764
594 764
584 763
574 762
564 763
554 762
544 760
534 761
524 758
514 759
504 759
494 758
484 755
474 756
464 755
454 755
444 754
434 754
424 753
414 752
404 754
410 762
420 764
430 765
440 767
450 769
460 770
470 772
480 773
490 774
500 776
510 777
520 778
530 780
540 781
550 782
560 784
570 785
580 786
590 787
600 790
610 791
612 802
602 805
592 805
582 803
572 804
562 804
552 802
542 803
532 803
522 802
512 802
502 800
492 799
482 801
472 801
462 800
452 800
442 799
432 799
422 799
412 799
