582 337
578 327
605 349
611 357
619 363
625 371
630 380
637 388
645 395
653 401
659 409
667 415
673 423
681 429
689 436
694 445
703 450
708 459
716 465
723 473
730 481
736 489
744 495
752 502
758 510
767 515
772 524
780 530
789 535
797 542
806 547
805 532
797 525
791 517
785 509
779 501
771 495
765 487
757 481
749 474
742 466
735 458
727 452
720 444
714 436
707 428
699 421
693 413
687 405
681 397
688 389
696 396
702 404
710 410
718 417
726 423
732 431
738 439
747 444
753 452
760 460
767 468
775 474
782 482
791 487
797 495
805 502
814 507
821 515
831 517
827 503
820 495
813 487
807 479
800 471
792 465
785 457
777 451
770 443
764 435
756 428
748 422
745 412
737 405
728 400
723 391
715 384
710 375
702 369
694 363
688 355
682 347
674 341
668 333
660 326
653 318
646 310
641 301
651 300
659 307
667 314
676 327
684 333
698 353
708 357
715 365
723 375
732 380
738 388
746 395
753 406
762 411
770 418
777 426
785 433
793 440
801 446
807 454
815 460
821 468
830 473
838 480
846 486
856 489
854 476
846 469
838 463
833 454
826 446
818 440
812 432
805 424
797 417
789 410
783 402
775 396
769 388
761 382
754 374
748 366
741 358
733 352
725 345
719 337
711 330
705 322
698 314
690 308
684 300
677 292
670 284
663 276
656 268
650 260
645 251
666 266
674 272
681 280
687 289
695 296
704 301
712 308
718 316
725 324
733 331
741 337
749 344
757 351
765 357
771 365
779 372
787 379
793 387
801 393
808 401
815 409
823 416
831 422
838 430
846 437
852 445
860 452
868 458
876 465
882 473
889 481
894 490
902 497
907 506
912 515
917 524
922 533
926 543
929 553
932 563
935 573
940 582
944 592
950 600
958 607
963 616
969 624
975 632
981 640
989 647
995 655
1002 663
1008 671
1014 679
1022 685
1028 693
1036 699
1041 708
1050 713
1055 722
1064 727
1071 735
1079 742
1085 750
1093 756
1101 762
1109 769
1115 777
1124 782
1130 790
1139 795
1146 803
1154 809
1161 817
1169 823
1177 829
1185 836
1192 844
1200 850
1207 858
1215 864
1224 869
1232 876
1240 883
1248 889
1255 897
1264 902
1272 908
1280 914
1288 921
1296 927
1304 934
1312 940
1320 946
1328 952
1336 959
1344 965
1352 972
1360 978
1368 984
1374 992
1378 1004
1380 1014
1380 1030
1374 1040
1372 1050
1364 1058
1356 1064
1346 1069
1336 1072
1326 1073
1316 1072
1306 1069
1297 1064
1291 1056
1283 1049
1277 1041
1272 1032
1265 1024
1259 1016
1252 1008
1247 999
1239 993
1234 984
1228 976
1222 968
1216 960
1210 952
1205 943
1200 934
1193 926
1186 918
1181 909
1175 901
1169 893
1163 885
1156 877
1149 869
1143 861
1136 853
1130 845
1123 837
1116 829
1110 821
1104 813
1098 805
1092 797
1084 790
1077 782
1070 774
1064 766
1057 758
1052 749
1044 742
1036 735
1029 727
1022 719
1014 712
1009 703
1001 697
993 691
986 683
978 676
971 668
965 660
957 654
949 648
941 641
933 635
925 629
916 624
907 619
897 616
887 613
877 611
867 609
857 605
847 603
838 598
829 593
819 589
810 584
802 578
794 572
787 564
779 558
773 550
765 543
759 535
751 528
745 520
737 514
729 507
723 499
715 492
708 484
701 476
695 468
687 462
681 454
674 446
667 438
661 430
653 423
646 415
641 406
635 398
627 392
619 385
614 376
608 368
600 361
595 352
590 343
