16 48
15 38
24 32
34 33
44 34
54 34
64 35
74 35
84 35
94 35
104 35
114 35
124 35
134 35
144 35
154 35
164 35
174 35
184 35
194 35
204 35
214 35
224 35
234 35
244 36
254 36
264 36
274 36
284 36
294 36
304 36
314 33
324 34
334 34
343 29
353 29
363 28
373 27
383 27
393 26
403 26
413 25
423 25
433 24
443 24
453 23
463 22
473 22
483 21
493 21
503 20
513 20
523 19
533 19
543 18
553 18
563 19
572 24
580 31
584 41
583 55
577 65
568 70
558 74
548 75
538 75
528 76
518 77
508 77
498 77
488 77
478 77
468 77
458 77
448 76
438 76
428 76
418 76
408 75
398 75
388 75
378 74
368 74
358 73
348 72
338 71
328 70
318 68
308 68
299 74
292 82
282 84
272 85
262 85
252 84
242 84
232 85
222 84
212 83
202 83
192 83
182 82
172 82
162 81
152 81
142 81
132 81
122 80
112 79
102 78
92 77
82 75
72 73
62 71
52 68
42 64
32 60
24 54
