508 256
504 246
525 265
532 273
539 281
542 291
551 296
556 305
561 314
569 321
574 330
581 338
589 345
594 354
600 362
608 369
616 376
621 385
627 393
631 403
637 411
643 419
651 425
655 435
661 443
667 451
675 445
671 435
663 429
662 419
653 414
647 406
644 394
637 386
631 378
626 369
621 360
615 352
610 343
603 335
598 326
592 318
586 310
580 302
575 293
569 285
563 277
558 268
551 255
544 247
542 237
561 255
567 263
574 271
581 279
589 285
593 295
599 303
605 311
611 319
617 327
621 337
629 344
637 350
643 358
648 367
654 375
661 383
665 393
673 399
683 403
688 412
691 422
697 430
707 434
705 420
700 411
694 403
689 394
683 386
678 377
670 370
663 362
660 352
652 345
649 335
641 328
635 320
631 310
626 301
618 294
612 286
608 276
600 270
594 262
589 253
583 245
578 236
572 228
566 220
561 211
557 201
576 218
582 226
588 234
595 242
603 248
607 258
614 266
618 276
626 282
633 290
639 298
644 307
653 312
658 321
666 328
671 337
679 344
684 353
690 361
696 369
704 376
712 383
713 368
707 360
699 353
695 343
692 333
682 329
675 321
671 311
665 303
660 294
653 286
647 278
641 270
635 262
630 253
623 245
619 235
610 228
604 220
598 212
592 204
588 194
583 185
598 190
603 199
610 207
616 215
622 223
630 230
638 236
643 245
651 252
657 260
663 268
669 276
677 282
683 290
691 297
696 306
705 311
711 319
718 327
725 335
733 342
739 350
747 357
755 364
760 373
765 382
771 390
777 398
783 406
788 415
796 421
798 431
806 438
811 447
813 457
818 466
822 476
824 488
825 498
827 508
828 518
826 529
826 540
826 550
830 560
838 567
840 577
845 586
852 594
859 602
868 607
874 615
882 622
890 628
897 636
907 640
914 648
921 656
926 665
934 671
940 679
946 687
951 696
957 704
962 713
970 720
976 728
981 737
987 745
995 751
999 761
1008 766
1012 776
1018 784
1024 792
1030 800
1036 808
1043 816
1048 825
1054 833
1060 841
1067 849
1073 857
1079 865
1085 873
1091 881
1099 888
1105 896
1112 904
1117 913
1122 922
1129 930
1135 938
1141 946
1147 954
1154 962
1162 969
1167 978
1172 987
1180 993
1186 1001
1192 1009
1195 1019
1202 1027
1208 1035
1215 1043
1223 1050
1228 1059
1236 1065
1239 1075
1247 1081
1253 1089
1259 1097
1264 1106
1273 1111
1276 1121
1283 1129
1292 1134
1293 1144
1301 1150
1305 1160
1311 1168
1317 1176
1319 1188
1315 1198
1306 1203
1297 1210
1289 1217
1280 1222
1271 1217
1266 1208
1268 1196
1258 1200
1250 1194
1245 1185
1238 1177
1232 1169
1224 1162
1219 1153
1215 1143
1209 1135
1201 1129
1195 1121
1189 1113
1182 1105
1177 1096
1171 1088
1165 1080
1157 1074
1154 1064
1146 1057
1140 1049
1135 1040
1128 1032
1120 1026
1116 1016
1109 1008
1103 1000
1097 992
1091 984
1083 977
1077 969
1072 960
1066 952
1058 946
1053 937
1047 929
1041 921
1035 913
1029 905
1023 897
1017 889
1011 881
1005 873
999 865
991 858
986 849
979 841
973 833
967 825
961 817
955 809
949 801
942 793
935 785
929 777
923 769
917 761
911 753
905 745
899 737
893 729
887 721
881 713
873 706
869 696
863 688
858 679
855 669
850 660
846 650
843 640
837 632
832 623
826 615
819 607
814 598
806 592
800 584
794 576
784 576
774 572
764 569
754 567
744 563
734 559
724 557
714 555
708 547
700 541
691 536
686 527
678 521
672 513
666 505
660 497
654 489
648 481
641 473
635 465
629 457
625 447
618 439
613 430
608 421
600 415
598 405
592 397
587 388
583 378
577 370
572 361
568 351
560 344
557 334
551 325
543 318
540 308
532 302
529 292
525 282
519 274
515 264
