413 79
412 69
418 61
424 69
433 74
441 80
447 88
455 94
464 99
470 107
477 115
486 120
494 126
502 132
510 138
517 146
525 152
533 159
539 167
548 172
556 178
565 183
572 191
580 197
588 204
596 210
604 216
610 224
619 229
628 234
634 242
643 247
651 254
659 260
667 267
675 274
683 280
692 285
697 294
706 299
714 306
723 311
732 316
740 323
748 329
756 336
764 342
773 347
779 355
787 361
796 366
804 372
812 378
821 383
829 389
837 396
846 401
854 407
864 411
870 419
880 423
886 431
895 436
903 443
911 449
920 454
928 460
936 466
944 472
952 478
961 483
969 490
977 496
986 501
994 508
1003 513
1011 520
1021 524
1027 532
1035 538
1044 543
1052 549
1060 556
1069 561
1077 568
1085 574
1093 581
1101 587
1109 593
1119 597
1124 606
1132 612
1140 619
1146 627
1154 633
1162 640
1170 647
1179 652
1185 660
1193 667
1202 672
1208 680
1216 686
1224 693
1231 701
1240 706
1247 714
1255 720
1262 728
1271 733
1279 739
1285 747
1294 752
1302 758
1310 764
1316 772
1324 778
1332 784
1338 792
1344 800
1351 808
1361 809
1370 814
1379 819
1387 826
1395 833
1404 838
1411 846
1420 851
1430 854
1435 863
1443 869
1451 875
1459 881
1467 887
1474 895
1482 901
1491 906
1499 913
1507 919
1516 924
1524 930
1532 936
1540 943
1547 951
1555 957
1564 962
1573 967
1579 975
1588 980
1596 986
1603 994
1612 999
1620 1005
1628 1012
1636 1018
1643 1026
1651 1032
1659 1038
1668 1043
1676 1050
1685 1055
1693 1061
1700 1069
1708 1075
1716 1081
1726 1085
1732 1093
1741 1098
1747 1106
1755 1112
1764 1117
1773 1122
1779 1130
1787 1136
1795 1142
1802 1150
1812 1154
1819 1162
1825 1170
1834 1175
1841 1183
1847 1191
1855 1198
1862 1206
1870 1212
1877 1220
1884 1228
1893 1233
1898 1242
1905 1250
1913 1257
1919 1265
1923 1275
1926 1285
1928 1295
1928 1308
1922 1318
1920 1330
1914 1338
1904 1342
1894 1347
1884 1350
1875 1356
1865 1359
1855 1361
1845 1362
1835 1362
1825 1363
1816 1358
1808 1352
1800 1345
1791 1340
1785 1332
1782 1322
1774 1315
1767 1307
1762 1298
1754 1291
1749 1282
1744 1273
1736 1267
1731 1258
1723 1251
1718 1242
1708 1238
1702 1230
1696 1222
1688 1215
1680 1209
1672 1203
1666 1195
1658 1189
1650 1183
1644 1175
1634 1171
1627 1163
1619 1157
1611 1151
1602 1146
1596 1138
1588 1132
1578 1128
1572 1120
1564 1114
1555 1109
1549 1101
1540 1096
1533 1088
1524 1083
1519 1074
1509 1070
1501 1064
1496 1055
1486 1051
1480 1043
1472 1036
1464 1030
1458 1022
1450 1016
1442 1010
1434 1004
1428 996
1420 989
1412 983
1406 975
1396 971
1390 963
1381 958
1374 950
1366 944
1359 936
1351 929
1343 923
1337 915
1327 911
1321 903
1313 897
1306 889
1300 881
1290 878
1280 879
1273 871
1267 863
1257 860
1252 851
1244 845
1236 839
1228 833
1220 826
1212 820
1205 812
1199 804
1189 800
1181 793
1173 787
1165 780
1159 772
1150 767
1142 761
1134 755
1125 750
1119 742
1111 736
1101 732
1095 724
1087 718
1078 713
1070 707
1060 705
1056 695
1048 688
1039 683
1033 675
1025 669
1015 666
1010 657
1000 654
994 646
986 639
978 633
968 629
960 623
953 615
944 610
936 604
928 597
920 590
912 583
903 578
895 572
887 565
879 559
871 553
863 547
855 541
847 535
839 529
831 523
822 518
814 512
807 504
799 498
791 492
781 488
775 480
767 474
759 468
751 462
743 455
735 449
727 442
719 435
710 430
701 425
695 417
687 411
679 405
671 399
662 394
655 386
647 379
639 373
631 367
623 361
615 354
608 346
599 341
591 335
584 327
576 321
569 313
561 307
555 299
547 292
540 284
531 279
527 269
517 265
512 256
506 248
500 239
492 233
488 223
480 217
476 207
471 198
463 191
459 181
453 173
448 164
443 155
437 147
437 137
432 128
426 120
423 110
418 99
416 89
