301 737
301 727
310 721
320 717
329 712
339 708
348 703
358 699
368 696
378 696
386 702
394 708
404 712
414 715
424 716
434 718
444 718
454 717
464 718
474 714
484 713
494 713
504 712
514 708
524 707
534 706
544 702
554 702
564 701
574 698
584 695
594 695
604 695
614 693
624 693
634 692
644 693
654 693
664 694
674 694
684 697
694 698
704 698
714 699
724 699
734 700
744 700
754 701
764 704
774 706
784 705
794 705
804 705
814 704
824 702
834 702
844 698
854 693
864 690
873 684
881 675
891 673
899 679
904 669
914 669
924 668
934 667
944 667
954 667
964 667
974 666
984 665
994 665
1004 663
1014 664
1024 664
1034 663
1044 663
1054 662
1064 662
1074 660
1084 662
1094 661
1104 661
1114 660
1124 660
1134 660
1144 660
1154 661
1164 661
1174 660
1184 660
1194 660
1204 659
1214 660
1224 660
1234 661
1244 661
1254 661
1264 661
1274 661
1284 662
1294 662
1304 663
1314 663
1324 663
1334 664
1344 664
1354 665
1364 665
1374 666
1384 667
1394 668
1404 668
1414 669
1424 670
1434 671
1444 672
1454 672
1464 674
1474 675
1484 678
1494 679
1504 681
1514 683
1524 685
1534 688
1544 690
1554 694
1557 706
1547 709
1537 712
1527 715
1517 718
1507 721
1497 724
1487 726
1477 729
1467 731
1457 733
1447 735
1437 737
1427 739
1417 741
1407 742
1397 743
1387 745
1377 746
1367 747
1357 748
1347 750
1337 751
1327 752
1317 753
1307 754
1297 755
1287 756
1277 757
1267 758
1257 758
1247 759
1237 760
1227 761
1217 761
1207 762
1197 763
1187 764
1177 764
1167 765
1157 766
1147 766
1137 767
1127 768
1117 768
1107 769
1097 769
1087 770
1077 770
1067 771
1057 772
1047 772
1037 773
1027 774
1017 774
1007 775
997 775
987 776
977 776
967 777
957 778
947 778
937 778
932 769
922 769
912 768
902 769
892 769
882 772
872 774
862 774
852 775
842 776
832 776
822 777
812 777
802 779
792 778
782 780
772 780
762 782
752 782
742 783
732 783
722 783
712 782
702 785
692 787
682 786
672 787
662 789
652 790
642 791
632 791
622 792
612 792
602 793
592 793
582 794
572 794
562 795
552 796
542 797
532 798
522 796
512 797
502 796
492 797
482 799
472 800
462 801
452 799
442 801
432 802
422 802
412 802
402 801
392 800
382 799
372 799
362 797
352 793
342 789
332 789
329 779
323 771
315 764
309 756
306 746
