340 160
339 150
349 144
359 143
369 140
379 137
389 135
399 133
409 131
419 134
429 134
439 134
449 136
459 137
469 137
479 141
489 145
498 150
508 152
517 157
526 162
535 167
545 169
554 174
561 182
571 184
580 189
588 195
597 200
605 206
615 209
620 218
630 221
638 227
646 233
652 241
662 245
670 252
679 257
687 264
695 270
703 276
708 285
716 291
725 296
733 302
737 312
745 318
754 323
759 332
767 339
776 344
782 352
790 358
796 366
804 373
814 375
820 383
826 391
835 396
843 403
848 412
858 415
864 423
870 431
878 437
885 445
893 451
902 456
910 463
915 472
923 479
931 485
937 493
946 498
952 506
959 514
968 519
977 524
982 533
990 539
998 546
1006 552
1014 559
1022 566
1030 573
1037 581
1045 587
1052 595
1060 601
1069 606
1074 615
1082 621
1090 627
1099 632
1106 640
1111 649
1119 655
1128 660
1134 668
1144 672
1150 680
1158 687
1166 694
1172 702
1180 709
1189 714
1197 720
1206 725
1211 734
1217 742
1225 748
1233 754
1242 759
1247 768
1256 773
1264 779
1272 785
1277 794
1287 797
1297 798
1303 806
1311 813
1320 818
1328 824
1336 830
1342 838
1347 847
1357 850
1361 860
1369 866
1377 872
1382 881
1392 885
1401 890
1407 898
1416 903
1426 907
1436 908
1444 915
1452 921
1456 931
1466 935
1472 943
1482 946
1487 955
1492 964
1501 969
1511 973
1519 979
1524 988
1532 995
1538 1003
1547 1008
1555 1014
1561 1022
1569 1028
1577 1034
1582 1043
1592 1046
1597 1055
1606 1060
1615 1065
1620 1074
1628 1081
1637 1086
1641 1096
1649 1102
1657 1109
1664 1117
1673 1122
1681 1128
1687 1136
1695 1142
1703 1148
1711 1154
1717 1162
1727 1166
1733 1174
1741 1180
1750 1185
1756 1193
1762 1201
1770 1207
1777 1215
1785 1221
1793 1227
1800 1235
1808 1241
1813 1250
1821 1257
1827 1265
1836 1270
1843 1278
1850 1286
1858 1292
1865 1300
1870 1309
1879 1314
1885 1322
1892 1330
1897 1343
1895 1353
1890 1368
1884 1378
1878 1387
1873 1399
1865 1406
1857 1415
1849 1423
1839 1427
1833 1435
1825 1442
1815 1446
1807 1455
1799 1461
1789 1459
1779 1460
1769 1457
1759 1455
1751 1449
1745 1441
1738 1433
1730 1427
1721 1422
1711 1418
1711 1408
1701 1407
1695 1399
1694 1385
1684 1382
1678 1374
1669 1369
1661 1362
1653 1356
1647 1348
1639 1342
1633 1334
1626 1326
1620 1318
1611 1313
1601 1309
1596 1300
1590 1292
1582 1286
1576 1278
1571 1269
1563 1262
1554 1257
1546 1251
1540 1243
1532 1237
1524 1231
1518 1223
1509 1218
1499 1215
1498 1205
1490 1199
1484 1191
1478 1183
1470 1177
1466 1167
1458 1161
1450 1154
1442 1148
1434 1142
1424 1138
1420 1128
1414 1120
1406 1114
1398 1107
1390 1101
1383 1093
1375 1086
1367 1080
1359 1074
1351 1068
1345 1060
1335 1056
1330 1047
1322 1041
1317 1032
1316 1018
1308 1011
1306 1001
1296 997
1288 991
1280 985
1272 979
1265 971
1259 963
1250 958
1244 950
1234 947
1229 938
1223 930
1214 925
1207 917
1199 911
1195 901
1190 892
1186 882
1178 876
1168 874
1162 866
1152 869
1142 869
1134 875
1125 880
1117 886
1112 895
1104 902
1096 909
1087 915
1081 926
1075 934
1065 939
1058 947
1051 955
1043 963
1033 967
1023 970
1018 961
1010 955
1002 949
994 943
986 937
980 929
972 922
965 914
959 906
952 898
943 893
935 886
929 878
921 872
915 864
908 856
900 850
891 845
886 836
878 830
871 822
865 814
858 806
851 798
843 792
836 784
827 779
822 770
815 762
809 754
801 748
793 741
788 732
780 725
772 719
766 711
760 703
753 695
745 689
739 681
731 674
724 666
718 658
710 652
706 642
698 636
690 629
684 621
677 613
670 605
662 598
655 590
648 582
642 574
634 567
629 558
621 552
615 544
607 537
603 527
595 521
588 513
581 505
575 497
569 489
561 483
556 474
550 466
541 461
537 451
531 443
525 435
517 429
511 421
505 413
499 405
493 397
487 389
480 381
474 373
468 365
462 357
456 349
450 341
444 333
437 325
429 319
428 309
422 301
416 293
411 284
405 276
400 267
394 259
390 249
383 241
377 233
372 224
366 216
361 207
356 198
352 188
346 180
342 170
