231 110
230 100
232 90
238 82
248 78
258 75
268 71
278 68
288 66
298 62
308 60
318 57
327 62
331 72
333 82
334 92
334 102
334 112
334 122
334 132
333 144
333 154
331 167
329 179
326 194
323 206
320 217
316 229
313 239
310 250
307 263
305 273
303 290
302 303
302 313
302 323
302 333
302 343
302 353
302 363
303 373
303 383
303 393
304 403
304 413
305 423
305 433
305 443
306 453
306 463
307 473
307 483
308 493
308 503
306 517
299 526
290 531
280 529
272 522
270 512
269 502
269 492
269 482
269 472
269 462
269 452
269 442
270 430
270 420
270 410
270 400
270 390
270 380
270 370
270 360
270 350
270 340
270 330
270 320
270 310
270 300
270 290
269 280
267 270
265 260
262 250
259 240
256 230
254 220
251 210
248 200
245 190
243 180
240 170
238 160
236 150
235 140
233 130
232 120
