269 1777
266 1767
274 1761
284 1759
294 1759
304 1759
314 1757
324 1755
334 1751
343 1746
353 1742
363 1741
373 1740
383 1738
393 1736
403 1734
413 1733
423 1731
433 1728
443 1727
453 1727
463 1727
473 1730
483 1730
492 1735
502 1737
512 1733
522 1729
532 1725
541 1720
551 1716
561 1711
571 1708
581 1706
591 1702
601 1701
611 1699
621 1699
631 1698
641 1700
651 1702
661 1704
671 1707
681 1711
690 1716
700 1719
710 1718
720 1713
728 1706
738 1702
746 1696
754 1690
764 1685
774 1682
784 1678
794 1674
804 1671
814 1668
824 1667
834 1666
844 1666
854 1666
864 1667
874 1668
884 1670
894 1673
904 1676
914 1675
924 1674
934 1672
944 1670
954 1669
964 1669
974 1669
984 1669
994 1669
1004 1669
1014 1664
1022 1658
1032 1654
1041 1649
1051 1645
1061 1640
1071 1637
1081 1635
1091 1632
1101 1630
1111 1629
1121 1628
1131 1629
1141 1629
1151 1630
1161 1631
1171 1633
1181 1635
1191 1638
1201 1638
1211 1636
1221 1635
1231 1634
1241 1633
1251 1632
1261 1632
1271 1629
1279 1623
1288 1617
1297 1612
1307 1608
1317 1605
1327 1603
1337 1602
1347 1602
1357 1603
1367 1605
1377 1606
1387 1610
1397 1612
1407 1611
1417 1609
1427 1606
1437 1602
1447 1598
1457 1595
1467 1592
1477 1590
1487 1588
1497 1586
1507 1586
1517 1586
1527 1587
1537 1588
1547 1588
1557 1589
1567 1590
1577 1591
1587 1593
1597 1594
1607 1595
1617 1596
1627 1598
1637 1600
1647 1601
1657 1602
1667 1604
1677 1605
1687 1606
1697 1608
1707 1609
1717 1610
1727 1612
1737 1613
1747 1614
1757 1616
1767 1617
1777 1618
1787 1620
1797 1622
1807 1623
1817 1624
1827 1626
1834 1634
1843 1639
1853 1639
1863 1639
1873 1637
1883 1635
1893 1634
1903 1633
1913 1631
1923 1629
1933 1627
1943 1626
1953 1626
1963 1624
1973 1620
1983 1619
1993 1619
2003 1615
2013 1614
2023 1610
2031 1604
2040 1599
2050 1594
2059 1589
2069 1584
2079 1580
2089 1575
2098 1570
2108 1566
2117 1561
2127 1557
2136 1552
2146 1548
2155 1543
2165 1539
2174 1534
2183 1529
2193 1524
2203 1520
2212 1515
2222 1510
2232 1506
2241 1501
2251 1499
2261 1497
2271 1494
2281 1493
2291 1491
2301 1491
2311 1489
2321 1487
2331 1487
2341 1484
2351 1483
2361 1483
2371 1481
2381 1479
2391 1477
2401 1476
2411 1475
2421 1473
2431 1472
2441 1471
2451 1469
2461 1468
2471 1466
2481 1465
2491 1464
2501 1463
2511 1462
2521 1462
2531 1463
2541 1464
2551 1467
2561 1468
2571 1471
2581 1472
2591 1475
2601 1476
2611 1479
2621 1480
2631 1482
2641 1484
2651 1486
2661 1488
2671 1490
2681 1492
2691 1494
2701 1496
2711 1497
2721 1499
2731 1500
2741 1503
2751 1506
2761 1507
2771 1510
2781 1514
2791 1515
2801 1516
2811 1516
2821 1516
2831 1515
2841 1515
2851 1515
2861 1516
2871 1516
2881 1515
2891 1515
2901 1515
2911 1515
2921 1515
2931 1515
2941 1516
2951 1516
2961 1516
2971 1516
2981 1516
2991 1517
3001 1517
3011 1517
3021 1519
3031 1520
3041 1520
3051 1520
3061 1520
3071 1521
3081 1522
3091 1523
3101 1524
3111 1524
3121 1525
3131 1525
3141 1526
3151 1527
3161 1528
3171 1530
3181 1531
3191 1531
3201 1532
3211 1534
3221 1535
3231 1536
3241 1538
3251 1539
3261 1540
3271 1541
3281 1543
3291 1545
3301 1547
3311 1549
3321 1551
3331 1552
3341 1554
3351 1556
3361 1558
3371 1560
3381 1562
3391 1564
3401 1566
3411 1569
3421 1572
3431 1574
3441 1575
3451 1575
3461 1573
3471 1570
3481 1567
3491 1563
3500 1558
3509 1553
3519 1548
3528 1542
3537 1537
3546 1531
3554 1524
3562 1517
3570 1510
3578 1502
3585 1494
3592 1486
3598 1477
3605 1469
3612 1459
3617 1449
3623 1441
3628 1432
3633 1422
3638 1413
3641 1401
3645 1390
3650 1379
3651 1369
3653 1357
3656 1339
3658 1321
3660 1304
3659 1294
3659 1279
3659 1269
3658 1259
3657 1249
3655 1239
3652 1229
3650 1219
3648 1209
3643 1200
3640 1190
3636 1180
3631 1171
3627 1161
3622 1152
3618 1142
3612 1134
3606 1126
3599 1118
3593 1110
3587 1102
3580 1094
3573 1086
3565 1079
3557 1072
3549 1065
3541 1058
3533 1052
3524 1047
3515 1042
3507 1036
3497 1032
3488 1027
3479 1022
3469 1018
3459 1015
3449 1011
3439 1008
3429 1006
3419 1004
3409 1004
3399 1002
3389 1001
3379 1001
3369 1001
3359 1002
3349 1003
3339 1003
3329 1005
3321 1011
3324 1021
3323 1036
3313 1038
3303 1039
3293 1041
3283 1042
3273 1042
3263 1044
3253 1045
3243 1047
3233 1047
3223 1049
3213 1051
3203 1053
3193 1056
3183 1059
3173 1060
3163 1062
3153 1063
3143 1067
3134 1072
3124 1076
3114 1079
3104 1081
3094 1083
3084 1085
3074 1086
3064 1087
3054 1089
3044 1090
3034 1092
3024 1093
3014 1094
3004 1095
2994 1097
2984 1098
2974 1100
2964 1101
2954 1103
2944 1104
2934 1106
2924 1107
2914 1108
2904 1110
2894 1112
2884 1113
2874 1113
2864 1115
2854 1116
2844 1116
2834 1114
2826 1107
2821 1098
2816 1089
2811 1080
2807 1070
2803 1060
2798 1051
2795 1041
2787 1034
2777 1033
2767 1032
2757 1033
2747 1033
2737 1033
2727 1033
2717 1033
2707 1033
2697 1035
2687 1036
2677 1038
2667 1039
2657 1041
2647 1042
2637 1043
2627 1044
2617 1046
2607 1047
2597 1049
2587 1051
2577 1053
2567 1054
2557 1056
2547 1057
2537 1058
2527 1059
2517 1059
2507 1058
2497 1057
2487 1055
2477 1054
2467 1052
2457 1050
2447 1048
2437 1046
2427 1044
2417 1042
2407 1040
2397 1039
2387 1037
2377 1034
2367 1032
2357 1031
2347 1029
2337 1027
2327 1026
2317 1025
2307 1023
2297 1020
2287 1018
2277 1015
2267 1013
2257 1010
2247 1006
2238 1001
2229 996
2220 991
2210 987
2201 982
2193 976
2184 971
2174 967
2165 962
2157 956
2148 951
2139 946
2129 942
2120 937
2110 933
2102 927
2092 923
2083 918
2073 915
2063 913
2053 909
2043 907
2033 905
2023 903
2013 901
2003 900
1993 898
1983 897
1973 895
1963 893
1953 891
1943 889
1933 889
1924 884
1914 883
1904 882
1894 880
1884 878
1874 878
1864 879
1854 879
1844 879
1834 880
1824 881
1814 882
1804 882
1794 883
1784 884
1774 885
1764 886
1754 887
1744 887
1734 889
1724 889
1714 890
1704 891
1694 892
1684 893
1674 893
1664 894
1654 895
1644 896
1634 897
1624 897
1614 898
1604 899
1594 899
1584 901
1574 901
1564 901
1554 903
1544 904
1534 905
1524 905
1514 903
1504 900
1494 898
1484 896
1474 892
1464 888
1455 883
1447 877
1437 874
1427 878
1417 882
1407 885
1397 887
1387 887
1377 888
1367 888
1357 888
1347 886
1337 883
1327 879
1318 874
1310 868
1302 862
1294 855
1286 848
1278 842
1269 837
1259 838
1249 841
1239 845
1229 848
1219 851
1209 854
1199 855
1189 856
1179 856
1169 857
1159 857
1149 856
1139 854
1129 852
1119 850
1109 847
1099 845
1090 840
1080 837
1071 832
1063 826
1054 821
1046 815
1038 809
1030 802
1022 795
1014 789
1006 783
996 781
986 783
976 787
966 792
957 797
947 800
937 803
927 806
917 808
907 809
897 809
887 808
877 808
867 807
857 804
847 801
837 797
827 793
817 789
808 784
799 779
791 773
783 766
774 761
766 755
758 749
748 747
738 748
729 753
719 757
709 759
699 761
689 762
679 762
669 762
659 761
649 759
639 755
629 752
619 750
611 744
602 739
593 734
584 729
575 724
567 718
557 717
547 716
537 720
527 719
517 719
507 719
497 719
487 717
477 715
467 712
458 707
449 702
439 700
429 697
419 696
411 690
402 685
393 680
383 676
374 671
364 667
354 663
344 659
335 654
328 646
326 636
334 630
342 624
351 619
361 615
370 610
380 608
390 604
399 598
409 595
419 593
428 588
438 586
448 583
458 579
468 576
478 573
488 571
498 568
508 565
517 560
527 558
537 557
547 554
557 552
567 550
577 547
587 544
597 543
607 540
617 540
627 539
637 536
647 535
657 534
667 532
677 531
687 529
697 528
707 528
717 528
727 526
737 526
747 526
757 525
767 524
777 524
787 524
797 524
807 524
817 525
827 527
837 526
847 525
857 525
867 526
877 526
887 528
897 529
907 530
917 531
927 532
937 534
947 536
957 537
967 539
977 540
987 542
997 544
1007 546
1017 548
1027 550
1037 553
1047 556
1057 557
1067 560
1077 563
1087 565
1097 568
1107 572
1117 574
1127 578
1137 581
1147 585
1157 587
1167 590
1176 595
1186 599
1195 604
1205 608
1215 612
1225 616
1234 621
1244 625
1254 629
1264 633
1273 638
1282 643
1290 649
1300 653
1309 658
1317 664
1327 668
1336 673
1346 675
1356 677
1366 679
1376 682
1386 683
1396 684
1406 687
1416 690
1426 692
1436 694
1446 696
1456 698
1466 700
1476 702
1486 704
1496 706
1506 708
1516 711
1526 713
1536 715
1546 717
1556 719
1566 721
1576 723
1586 725
1596 726
1606 729
1616 731
1626 733
1636 736
1646 738
1656 739
1666 741
1676 743
1686 745
1696 747
1706 749
1716 751
1726 753
1736 755
1746 757
1756 759
1766 761
1776 763
1786 766
1796 767
1806 768
1816 771
1826 773
1836 775
1846 777
1856 779
1866 781
1876 782
1886 784
1896 787
1906 789
1916 791
1926 792
1936 794
1946 797
1956 798
1966 800
1976 802
1986 804
1996 806
2006 808
2016 810
2026 812
2036 815
2046 816
2056 818
2066 820
2076 822
2086 824
2096 827
2106 828
2116 830
2126 832
2136 834
2146 836
2156 838
2166 840
2176 842
2186 844
2196 846
2206 847
2216 850
2226 851
2236 853
2246 855
2256 857
2266 859
2276 859
2286 857
2296 856
2306 859
2313 867
2323 870
2333 871
2343 870
2353 867
2363 868
2371 874
2379 880
2389 882
2399 883
2409 881
2419 879
2429 883
2437 889
2447 893
2457 894
2467 893
2477 891
2487 891
2495 898
2504 903
2514 904
2524 905
2534 902
2544 901
2553 906
2562 911
2571 916
2581 917
2591 916
2601 912
2611 914
2619 920
2629 924
2639 926
2649 928
2659 929
2669 931
2679 933
2689 934
2699 935
2709 937
2719 938
2729 939
2739 940
2749 941
2759 943
2769 944
2779 945
2789 946
2799 947
2809 947
2819 949
2829 950
2839 951
2849 951
2859 951
2869 953
2879 952
2889 954
2899 954
2909 955
2919 955
2929 955
2939 956
2949 956
2959 956
2969 956
2979 957
2989 956
2999 957
3009 957
3019 956
3029 957
3039 957
3049 957
3059 957
3069 956
3079 956
3089 956
3099 956
3109 955
3119 955
3129 955
3139 954
3149 953
3159 953
3169 953
3179 952
3189 952
3199 951
3209 949
3219 947
3229 947
3239 947
3249 945
3259 944
3269 942
3279 941
3289 940
3299 939
3309 938
3319 937
3329 936
3339 934
3349 933
3359 932
3369 931
3379 930
3389 928
3399 927
3409 926
3419 925
3429 925
3439 921
3449 920
3459 918
3469 915
3479 914
3489 912
3499 912
3509 911
3519 909
3529 909
3539 909
3549 909
3559 910
3569 912
3579 912
3589 914
3599 916
3609 919
3619 921
3629 924
3639 928
3649 930
3659 934
3669 938
3679 942
3688 947
3697 952
3707 956
3715 962
3723 968
3732 973
3741 978
3748 986
3756 992
3764 998
3772 1005
3780 1012
3787 1020
3795 1026
3801 1034
3808 1042
3815 1050
3822 1058
3828 1066
3833 1075
3838 1084
3844 1092
3849 1101
3854 1110
3859 1119
3862 1129
3867 1138
3871 1148
3875 1158
3878 1168
3882 1178
3884 1188
3886 1198
3889 1208
3891 1218
3892 1228
3894 1238
3896 1248
3897 1258
3897 1268
3897 1278
3896 1290
3896 1300
3896 1310
3894 1320
3892 1337
3890 1350
3888 1365
3885 1378
3881 1391
3878 1401
3873 1413
3869 1423
3866 1433
3861 1443
3856 1453
3850 1464
3845 1474
3841 1484
3835 1493
3829 1501
3822 1509
3815 1517
3808 1525
3801 1533
3793 1541
3785 1549
3777 1557
3769 1563
3761 1570
3752 1576
3743 1582
3735 1589
3727 1595
3719 1601
3709 1605
3699 1609
3689 1613
3680 1618
3670 1622
3660 1626
3650 1628
3640 1631
3630 1634
3620 1636
3610 1639
3600 1640
3590 1642
3580 1642
3570 1644
3560 1645
3550 1644
3540 1644
3530 1644
3520 1643
3510 1642
3500 1642
3490 1640
3480 1638
3470 1637
3460 1635
3450 1634
3440 1634
3430 1633
3420 1631
3410 1629
3400 1628
3390 1626
3380 1623
3370 1621
3360 1619
3350 1617
3340 1615
3330 1612
3320 1610
3310 1607
3300 1605
3290 1604
3280 1602
3270 1601
3260 1600
3250 1597
3240 1596
3230 1594
3220 1593
3210 1591
3200 1590
3190 1589
3180 1588
3170 1587
3160 1585
3150 1584
3140 1584
3130 1583
3120 1581
3110 1580
3100 1580
3090 1579
3080 1578
3070 1578
3060 1577
3050 1576
3040 1575
3030 1575
3020 1575
3010 1574
3000 1574
2990 1573
2980 1573
2970 1573
2960 1572
2950 1572
2940 1572
2930 1572
2920 1572
2910 1572
2900 1572
2890 1572
2880 1572
2870 1573
2860 1573
2850 1573
2840 1573
2830 1573
2820 1573
2810 1574
2800 1575
2790 1575
2780 1575
2770 1576
2760 1576
2750 1577
2740 1578
2730 1578
2720 1578
2710 1579
2700 1581
2690 1581
2680 1582
2670 1583
2660 1584
2650 1585
2640 1586
2630 1588
2620 1589
2611 1594
2603 1600
2593 1601
2583 1598
2573 1595
2563 1595
2553 1598
2545 1606
2535 1610
2525 1607
2515 1603
2505 1603
2495 1603
2486 1609
2478 1616
2468 1618
2458 1615
2448 1612
2438 1612
2428 1614
2420 1622
2410 1627
2400 1625
2390 1621
2380 1621
2370 1621
2361 1626
2353 1633
2343 1636
2333 1632
2323 1629
2313 1630
2303 1632
2295 1638
2287 1644
2277 1644
2267 1640
2257 1638
2247 1639
2237 1641
2227 1642
2217 1643
2207 1645
2197 1646
2187 1648
2177 1650
2167 1651
2157 1652
2147 1654
2137 1656
2127 1657
2117 1659
2107 1660
2097 1662
2087 1663
2077 1665
2067 1667
2057 1668
2047 1669
2037 1671
2027 1672
2017 1674
2007 1675
1997 1677
1987 1679
1977 1680
1967 1682
1957 1683
1947 1684
1937 1687
1927 1689
1917 1690
1907 1692
1897 1693
1887 1695
1877 1696
1867 1698
1857 1700
1847 1701
1837 1702
1827 1703
1817 1705
1807 1706
1797 1708
1787 1709
1777 1711
1767 1713
1757 1714
1747 1715
1737 1717
1727 1718
1717 1719
1707 1721
1697 1723
1687 1725
1677 1727
1667 1728
1657 1729
1647 1731
1637 1732
1627 1734
1617 1736
1607 1738
1597 1739
1587 1740
1577 1742
1567 1744
1557 1746
1547 1747
1537 1748
1527 1750
1517 1752
1507 1753
1497 1755
1487 1756
1477 1758
1467 1760
1457 1761
1447 1762
1437 1765
1427 1767
1417 1768
1407 1769
1397 1771
1387 1773
1377 1774
1367 1776
1357 1778
1347 1780
1337 1782
1327 1783
1317 1785
1307 1789
1297 1794
1288 1799
1278 1803
1269 1809
1260 1814
1251 1819
1242 1824
1232 1828
1223 1833
1213 1837
1203 1841
1194 1846
1184 1850
1174 1854
1164 1858
1154 1861
1144 1864
1134 1868
1124 1871
1114 1874
1104 1877
1094 1880
1084 1882
1074 1884
1064 1887
1054 1890
1044 1892
1034 1895
1024 1898
1014 1899
1004 1900
994 1903
984 1904
974 1906
964 1908
954 1910
944 1912
934 1914
924 1914
914 1915
904 1917
894 1920
884 1920
874 1920
864 1921
854 1921
844 1923
834 1924
824 1924
814 1924
804 1925
794 1924
784 1924
774 1924
764 1924
754 1923
744 1922
734 1922
724 1921
714 1920
704 1919
694 1917
684 1916
674 1916
664 1915
654 1914
644 1914
634 1911
624 1908
614 1907
604 1905
594 1903
584 1901
574 1898
564 1896
554 1894
544 1892
534 1890
524 1887
514 1884
504 1881
494 1878
484 1876
474 1872
464 1869
454 1865
444 1863
435 1858
425 1854
415 1851
405 1848
396 1843
386 1839
376 1837
366 1833
357 1828
348 1823
338 1820
330 1814
320 1811
311 1806
302 1801
294 1795
285 1790
277 1784
