251 1351
251 1375
252 1385
253 1395
257 1405
263 1413
271 1419
281 1419
291 1417
301 1416
311 1413
321 1411
331 1409
341 1407
351 1404
361 1402
371 1400
381 1399
391 1397
401 1394
411 1396
421 1392
431 1390
441 1389
451 1388
461 1388
471 1391
479 1398
485 1406
490 1415
493 1425
493 1435
492 1446
487 1457
481 1466
475 1474
466 1480
457 1485
448 1490
438 1494
428 1498
419 1503
410 1508
401 1513
391 1517
381 1521
371 1523
361 1527
351 1530
342 1535
333 1540
323 1543
315 1550
317 1560
322 1569
329 1577
334 1586
339 1595
346 1603
354 1609
360 1617
368 1624
376 1630
384 1637
392 1643
401 1648
409 1654
418 1659
428 1663
438 1666
448 1667
458 1663
468 1658
476 1652
484 1646
493 1641
501 1635
510 1629
518 1622
528 1619
536 1613
544 1605
553 1600
563 1598
570 1590
579 1585
587 1578
593 1570
599 1560
608 1555
618 1552
628 1550
637 1555
644 1563
650 1571
652 1581
652 1596
649 1606
644 1615
639 1625
633 1634
627 1642
621 1650
615 1659
607 1667
600 1675
594 1683
586 1692
578 1699
570 1707
564 1716
568 1726
576 1732
586 1736
596 1739
606 1742
616 1743
626 1743
636 1744
646 1745
656 1745
666 1745
676 1743
686 1742
696 1738
705 1733
711 1724
717 1715
722 1705
728 1695
733 1685
739 1673
747 1666
756 1661
766 1662
774 1653
779 1642
784 1632
787 1622
791 1611
795 1600
799 1589
803 1577
808 1568
818 1571
828 1572
838 1571
848 1570
855 1578
855 1593
855 1603
854 1616
853 1627
851 1637
848 1651
845 1663
842 1676
838 1689
834 1700
830 1711
834 1721
844 1723
854 1723
864 1722
874 1719
884 1717
894 1714
904 1712
914 1709
924 1706
934 1702
944 1698
953 1693
962 1687
970 1679
977 1671
983 1662
988 1651
993 1641
996 1631
1000 1620
1004 1608
1010 1600
1017 1592
1025 1585
1033 1575
1039 1567
1041 1554
1039 1544
1038 1534
1039 1516
1048 1511
1053 1500
1061 1493
1071 1489
1081 1486
1091 1485
1100 1490
1106 1498
1110 1508
1111 1518
1112 1528
1111 1540
1110 1554
1108 1564
1106 1575
1104 1585
1101 1598
1098 1612
1100 1622
1110 1623
1120 1620
1130 1615
1140 1611
1150 1607
1159 1602
1168 1597
1176 1591
1185 1585
1195 1580
1205 1575
1215 1570
1224 1565
1233 1559
1243 1554
1251 1548
1261 1543
1269 1537
1278 1532
1287 1527
1296 1522
1306 1519
1316 1515
1326 1511
1335 1506
1344 1501
1353 1496
1363 1491
1372 1486
1381 1481
1391 1477
1400 1472
1409 1467
1419 1463
1429 1458
1439 1453
1449 1450
1459 1446
1469 1442
1479 1439
1489 1435
1499 1431
1509 1428
1519 1424
1529 1422
1539 1419
1549 1416
1559 1414
1569 1410
1579 1408
1589 1405
1599 1402
1609 1400
1619 1398
1629 1396
1639 1394
1649 1392
1659 1388
1669 1386
1679 1385
1689 1383
1699 1381
1709 1380
1719 1377
1729 1375
1739 1372
1749 1370
1759 1368
1769 1364
1779 1362
1789 1361
1798 1356
1807 1350
1816 1345
1826 1343
1836 1343
1846 1340
1856 1338
1866 1338
1876 1336
1886 1338
1891 1347
1898 1355
1906 1362
1916 1364
1926 1365
1936 1365
1946 1366
1956 1367
1966 1367
1976 1368
1986 1369
1996 1370
2006 1371
2016 1371
2026 1372
2036 1373
2046 1375
2056 1375
2064 1363
2063 1353
2061 1343
2063 1327
2069 1319
2079 1320
2089 1321
2099 1323
2108 1328
2118 1329
2128 1329
2136 1322
2146 1319
2156 1323
2165 1328
2175 1331
2185 1332
2195 1332
2205 1333
2215 1334
2225 1334
2235 1334
2245 1334
2255 1335
2265 1335
2275 1334
2285 1334
2295 1334
2305 1333
2315 1333
2325 1334
2335 1334
2345 1334
2355 1334
2365 1334
2375 1334
2385 1334
2395 1334
2405 1335
2415 1336
2425 1336
2435 1336
2445 1336
2455 1336
2465 1337
2475 1338
2485 1338
2495 1338
2505 1338
2515 1338
2525 1338
2535 1338
2545 1338
2555 1338
2565 1338
2575 1338
2585 1338
2595 1338
2605 1338
2615 1339
2625 1339
2635 1338
2645 1339
2655 1339
2665 1339
2675 1339
2685 1339
2695 1339
2705 1340
2715 1341
2725 1341
2735 1341
2745 1341
2755 1341
2765 1341
2775 1341
2785 1341
2795 1345
2805 1345
2815 1345
2825 1345
2835 1345
2845 1345
2855 1345
2865 1346
2875 1347
2885 1348
2895 1349
2905 1349
2915 1349
2925 1350
2935 1352
2945 1352
2955 1352
2965 1353
2975 1353
2985 1353
2995 1353
3005 1354
3015 1354
3025 1355
3035 1354
3045 1354
3055 1354
3065 1354
3075 1354
3085 1354
3095 1354
3105 1355
3115 1354
3125 1355
3135 1355
3145 1355
3155 1355
3165 1355
3175 1355
3185 1355
3195 1354
3205 1355
3215 1356
3225 1357
3235 1357
3245 1357
3255 1357
3265 1357
3275 1357
3285 1357
3295 1356
3305 1355
3315 1355
3325 1354
3335 1354
3345 1354
3355 1354
3365 1354
3375 1354
3385 1353
3395 1352
3405 1352
3415 1352
3425 1351
3435 1351
3445 1348
3455 1347
3465 1347
3475 1346
3485 1345
3495 1345
3505 1343
3515 1341
3525 1338
3535 1338
3545 1338
3555 1337
3565 1336
3575 1333
3585 1331
3595 1329
3605 1329
3615 1328
3625 1327
3635 1326
3645 1325
3655 1322
3665 1321
3675 1321
3685 1320
3695 1316
3705 1312
3715 1311
3725 1310
3735 1309
3745 1307
3755 1306
3765 1303
3774 1298
3784 1298
3794 1295
3804 1291
3814 1288
3824 1284
3834 1282
3844 1281
3854 1278
3861 1270
3871 1272
3880 1267
3890 1264
3900 1260
3910 1257
3919 1252
3929 1248
3939 1243
3947 1235
3953 1227
3961 1221
3969 1214
3979 1212
3989 1211
3999 1206
4008 1200
4017 1195
4027 1191
4037 1188
4045 1181
4054 1175
4063 1170
4071 1162
4077 1152
4079 1142
4079 1132
4089 1128
4099 1127
4109 1127
4117 1121
4125 1115
4126 1104
4126 1094
4126 1084
4126 1074
4126 1064
4126 1054
4126 1044
4121 1035
4111 1032
4101 1033
4093 1027
4084 1022
4074 1020
4064 1018
4054 1014
4044 1011
4034 1010
4024 1008
4014 1006
4004 1003
3994 1000
3984 999
3974 998
3964 997
3954 995
3944 994
3934 991
3924 989
3914 987
3904 985
3894 982
3884 981
3874 980
3864 979
3854 978
3844 978
3834 978
3824 979
3814 978
3804 978
3794 978
3784 978
3774 979
3764 979
3754 980
3744 980
3734 980
3724 981
3714 981
3704 981
3694 981
3684 981
3674 982
3664 983
3654 983
3644 982
3634 983
3624 986
3614 986
3604 987
3594 989
3584 991
3574 992
3564 992
3554 993
3544 993
3534 994
3524 995
3514 996
3504 997
3494 999
3484 1002
3474 1003
3464 1003
3454 1004
3444 1005
3434 1006
3424 1008
3414 1009
3404 1010
3394 1011
3384 1012
3374 1012
3364 1012
3354 1014
3344 1016
3334 1016
3324 1019
3314 1020
3304 1020
3294 1021
3284 1025
3274 1025
3264 1027
3254 1029
3244 1030
3234 1033
3224 1035
3214 1037
3204 1038
3194 1039
3184 1040
3174 1040
3164 1042
3154 1041
3144 1043
3134 1045
3124 1050
3114 1052
3104 1052
3094 1052
3084 1052
3074 1052
3064 1054
3054 1056
3044 1058
3034 1058
3024 1060
3014 1062
3004 1064
2994 1065
2984 1066
2974 1068
2964 1069
2954 1069
2944 1071
2934 1075
2924 1074
2914 1074
2904 1077
2894 1080
2884 1083
2874 1082
2864 1081
2854 1078
2844 1079
2834 1082
2824 1085
2814 1084
2804 1085
2794 1085
2784 1086
2774 1088
2764 1090
2754 1089
2744 1090
2734 1091
2724 1092
2714 1095
2704 1097
2694 1099
2684 1101
2674 1101
2664 1102
2654 1103
2644 1104
2634 1104
2624 1106
2614 1107
2604 1108
2594 1110
2584 1112
2574 1115
2564 1117
2554 1117
2544 1117
2534 1118
2524 1119
2514 1121
2504 1122
2494 1123
2484 1124
2474 1126
2464 1128
2454 1129
2444 1130
2434 1133
2424 1133
2414 1134
2404 1134
2394 1135
2384 1136
2374 1138
2364 1139
2354 1140
2344 1141
2334 1142
2324 1144
2314 1145
2304 1147
2294 1147
2284 1148
2274 1149
2264 1152
2254 1154
2244 1155
2234 1156
2224 1157
2214 1159
2204 1159
2194 1160
2184 1162
2174 1163
2164 1164
2154 1165
2144 1166
2134 1167
2124 1167
2114 1168
2104 1169
2094 1169
2084 1171
2074 1173
2069 1164
2073 1153
2077 1140
2069 1134
2059 1134
2049 1134
2039 1134
2029 1134
2019 1135
2009 1135
1999 1135
1989 1133
1979 1132
1969 1131
1959 1132
1949 1131
1939 1131
1929 1132
1919 1135
1914 1144
1910 1154
1905 1165
1899 1175
1889 1176
1879 1175
1869 1174
1859 1173
1849 1173
1839 1172
1829 1172
1819 1170
1809 1171
1799 1171
1789 1171
1779 1170
1769 1169
1759 1169
1749 1168
1739 1167
1729 1166
1719 1166
1709 1165
1699 1163
1689 1161
1679 1161
1669 1158
1659 1158
1649 1155
1639 1155
1629 1155
1619 1152
1609 1151
1599 1150
1589 1148
1579 1146
1569 1144
1559 1142
1549 1140
1539 1138
1529 1136
1519 1134
1509 1131
1499 1129
1489 1126
1479 1124
1469 1123
1459 1120
1449 1116
1439 1112
1429 1109
1419 1107
1409 1105
1399 1101
1389 1097
1379 1095
1369 1093
1359 1090
1349 1086
1339 1082
1329 1078
1320 1073
1310 1069
1300 1066
1290 1062
1280 1059
1271 1054
1261 1050
1251 1046
1241 1042
1231 1038
1221 1034
1211 1030
1202 1025
1192 1021
1182 1017
1172 1014
1163 1009
1153 1005
1144 1000
1134 996
1124 992
1114 988
1104 985
1094 982
1084 980
1074 984
1076 994
1079 1004
1082 1014
1084 1024
1086 1034
1088 1044
1090 1054
1090 1064
1091 1074
1091 1084
1088 1097
1081 1105
1073 1112
1063 1114
1053 1112
1045 1105
1037 1098
1031 1090
1023 1083
1015 1077
1009 1069
1004 1060
999 1051
995 1041
991 1031
986 1022
981 1013
976 1004
970 996
965 987
962 977
960 967
957 957
951 949
943 943
933 939
923 936
913 933
903 930
893 928
883 926
873 924
863 922
853 921
843 919
833 918
823 918
813 919
805 925
806 935
808 945
812 955
817 964
819 974
821 984
823 994
825 1004
827 1014
828 1024
828 1034
827 1052
821 1062
813 1068
804 1073
794 1075
785 1070
778 1062
770 1056
760 1053
750 1049
744 1041
739 1032
734 1023
730 1013
725 1004
720 995
714 987
708 979
702 971
696 963
692 953
688 943
684 933
676 927
666 925
656 924
646 923
636 923
626 923
616 923
606 923
596 925
586 926
576 928
566 930
556 932
546 935
538 942
539 952
547 959
554 967
562 973
570 980
577 988
584 996
592 1003
598 1011
604 1019
611 1027
618 1035
624 1043
627 1053
627 1063
625 1074
621 1085
615 1094
607 1101
597 1103
588 1098
578 1094
568 1094
560 1088
554 1080
544 1079
534 1076
525 1071
517 1065
509 1059
501 1053
491 1050
482 1045
472 1041
462 1037
454 1031
445 1026
436 1021
427 1016
417 1015
407 1019
397 1024
388 1029
380 1035
370 1039
362 1045
354 1051
347 1059
339 1067
333 1076
327 1085
321 1093
316 1102
311 1112
307 1122
304 1133
306 1143
314 1150
324 1154
334 1156
344 1159
354 1163
364 1165
374 1168
384 1172
394 1176
404 1178
414 1181
424 1185
434 1188
444 1191
453 1196
462 1201
470 1207
475 1216
478 1226
477 1244
474 1255
469 1266
461 1276
452 1281
442 1281
432 1281
422 1281
412 1280
402 1279
392 1277
382 1276
372 1275
362 1274
352 1273
342 1271
332 1271
322 1270
312 1268
302 1268
292 1267
282 1266
272 1266
264 1273
259 1282
254 1296
255 1314
253 1326
252 1340
