956 751
956 741
957 728
958 715
961 705
965 692
971 682
977 672
983 663
991 656
999 649
1007 643
1016 638
1025 633
1035 629
1045 625
1055 622
1065 619
1075 618
1085 617
1095 616
1105 617
1115 617
1125 618
1135 620
1145 623
1155 624
1165 628
1175 632
1185 635
1194 640
1204 644
1213 649
1222 654
1231 659
1239 665
1247 671
1255 677
1263 683
1271 690
1279 696
1287 703
1293 711
1301 717
1309 724
1316 732
1323 740
1330 748
1337 756
1343 764
1350 772
1356 780
1362 788
1367 797
1373 805
1379 813
1383 823
1389 831
1394 840
1398 850
1404 858
1409 867
1414 876
1419 885
1425 893
1431 901
1436 910
1443 918
1449 926
1457 933
1465 940
1473 947
1481 953
1490 958
1498 964
1507 969
1516 974
1524 980
1533 985
1541 991
1551 995
1559 1002
1568 1007
1577 1012
1585 1018
1594 1023
1603 1028
1611 1034
1620 1039
1628 1045
1637 1050
1645 1056
1654 1061
1663 1066
1671 1072
1680 1077
1688 1083
1697 1088
1705 1094
1714 1099
1723 1104
1731 1110
1740 1115
1748 1121
1757 1126
1766 1131
1774 1137
1783 1142
1791 1148
1800 1153
1808 1159
1817 1164
1826 1169
1834 1175
1843 1180
1852 1185
1860 1191
1868 1197
1877 1202
1885 1208
1894 1213
1902 1219
1911 1224
1920 1229
1928 1235
1937 1240
1945 1246
1955 1248
1965 1251
1975 1253
1985 1256
2004 1260
1994 1261
1969 1261
1978 1266
1986 1272
1995 1277
2003 1283
2010 1291
2012 1301
2012 1314
2007 1326
1997 1331
1987 1335
1977 1336
1967 1332
1957 1328
1949 1321
1941 1315
1932 1310
1924 1304
1915 1299
1906 1294
1898 1288
1890 1282
1881 1277
1872 1272
1864 1266
1855 1261
1846 1256
1838 1250
1829 1245
1820 1240
1812 1234
1804 1228
1795 1223
1786 1218
1778 1211
1769 1206
1760 1201
1751 1196
1743 1190
1734 1185
1726 1179
1717 1174
1709 1168
1700 1163
1691 1158
1682 1153
1674 1147
1665 1142
1657 1136
1648 1131
1640 1125
1631 1120
1623 1114
1614 1109
1605 1104
1596 1099
1588 1093
1579 1088
1570 1083
1561 1078
1553 1072
1545 1066
1536 1061
1527 1056
1519 1050
1510 1045
1501 1040
1493 1034
1484 1029
1475 1024
1467 1018
1457 1014
1449 1008
1440 1003
1431 998
1421 994
1411 991
1401 988
1391 986
1381 983
1371 982
1361 981
1351 980
1341 980
1331 979
1321 979
1311 978
1301 977
1291 977
1281 976
1271 976
1261 975
1251 974
1241 972
1231 970
1221 969
1211 967
1201 964
1191 961
1181 958
1171 955
1161 951
1151 948
1141 944
1131 941
1122 936
1113 931
1103 927
1094 922
1085 917
1076 912
1067 907
1059 901
1051 895
1042 890
1034 884
1026 878
1019 870
1011 863
1003 856
996 848
989 840
983 832
978 823
973 814
968 805
964 795
961 785
958 775
958 765
