244 1171
240 1182
245 1191
254 1196
256 1213
254 1229
254 1239
255 1249
260 1258
269 1263
279 1260
289 1255
297 1249
305 1243
314 1238
324 1233
333 1227
341 1221
350 1216
359 1211
367 1205
377 1200
385 1193
394 1187
404 1182
413 1176
422 1171
431 1165
439 1158
448 1152
458 1148
468 1144
477 1138
485 1130
494 1125
503 1120
511 1113
519 1105
529 1101
539 1097
549 1092
557 1086
566 1081
574 1075
582 1067
592 1063
600 1057
609 1052
618 1046
627 1041
635 1033
645 1030
653 1022
663 1018
672 1013
680 1005
690 1001
698 995
707 990
717 986
725 978
735 975
743 969
751 962
759 956
769 956
777 949
785 943
792 935
801 930
811 928
821 923
827 915
836 910
844 903
854 900
862 892
872 890
881 884
889 877
899 872
907 866
916 860
924 853
933 847
943 845
953 840
958 830
968 830
976 822
986 819
995 814
1004 809
1012 802
1019 794
1029 789
1038 783
1048 782
1057 777
1066 771
1075 766
1083 759
1093 755
1101 748
1109 741
1119 738
1129 733
1137 727
1147 724
1156 719
1165 714
1174 709
1184 708
1194 704
1204 707
1214 708
1224 707
1234 707
1244 705
1254 705
1264 701
1274 699
1283 694
1293 691
1303 688
1312 683
1321 677
1330 672
1340 668
1348 662
1357 657
1367 652
1375 646
1384 641
1394 636
1403 631
1413 626
1422 621
1431 615
1440 609
1448 603
1457 597
1466 592
1474 585
1482 578
1490 571
1498 565
1505 557
1512 549
1520 541
1526 533
1532 524
1538 514
1541 498
1544 485
1547 467
1549 456
1551 437
1551 427
1550 417
1548 407
1545 397
1542 387
1537 378
1532 369
1526 361
1520 353
1513 345
1505 338
1497 332
1487 328
1477 326
1467 328
1457 327
1456 315
1446 315
1432 313
1438 321
1447 326
1439 335
1429 331
1421 324
1411 325
1409 337
1399 336
1389 338
1380 333
1369 337
1374 325
1364 322
1354 324
1344 328
1334 332
1324 337
1314 342
1305 347
1296 353
1288 359
1280 365
1272 372
1263 377
1255 384
1247 391
1240 399
1233 407
1226 415
1220 423
1214 433
1208 441
1203 450
1198 460
1193 469
1189 479
1184 490
1180 501
1176 511
1171 521
1166 533
1160 542
1155 552
1149 561
1141 569
1133 575
1125 581
1116 587
1107 592
1099 598
1090 604
1081 610
1072 615
1064 621
1055 627
1046 632
1037 638
1028 644
1019 649
1010 655
1001 661
992 667
983 673
974 679
966 685
958 693
949 699
941 706
932 712
922 717
912 722
902 726
894 732
884 737
875 743
866 749
857 754
848 760
839 765
830 771
821 777
812 783
803 789
795 795
786 800
777 806
769 812
760 817
751 822
742 828
733 834
724 840
716 846
707 851
698 857
689 863
680 868
671 874
662 880
653 886
645 892
637 899
627 903
618 909
609 914
600 920
592 926
584 932
575 938
566 944
558 950
549 956
541 962
531 966
523 973
514 979
505 984
497 991
491 999
482 1004
473 1009
465 1016
456 1021
447 1027
438 1032
429 1037
422 1046
413 1051
403 1053
394 1058
385 1064
375 1069
367 1076
359 1082
350 1087
341 1092
332 1098
323 1104
314 1110
306 1117
297 1123
288 1128
280 1135
270 1139
262 1145
253 1151
247 1159
