640 475
638 494
642 504
646 514
652 524
660 531
664 541
672 548
672 558
677 567
684 575
691 583
700 588
701 598
710 603
713 613
721 620
727 628
736 633
744 639
750 647
762 651
772 652
777 666
783 674
793 677
801 684
809 690
815 698
821 706
830 711
840 715
848 721
856 727
865 732
875 735
885 738
895 740
905 741
915 745
924 750
932 756
942 756
952 757
962 760
972 759
982 759
992 763
1002 761
1012 761
1022 760
1032 762
1042 762
1053 766
1063 768
1073 769
1083 771
1091 777
1101 778
1111 778
1120 783
1125 792
1135 795
1142 803
1150 809
1158 816
1166 822
1174 828
1184 831
1191 839
1195 849
1205 853
1212 861
1220 867
1228 873
1237 878
1243 886
1248 895
1256 901
1265 906
1274 911
1279 920
1287 926
1294 934
1303 939
1311 945
1319 951
1328 956
1335 964
1343 970
1352 975
1358 983
1366 989
1374 995
1382 1002
1388 1010
1397 1015
1404 1023
1413 1028
1421 1034
1427 1042
1435 1048
1444 1053
1452 1059
1460 1065
1468 1072
1477 1077
1483 1085
1488 1094
1496 1100
1506 1102
1509 1112
1518 1117
1526 1123
1536 1126
1544 1133
1549 1142
1556 1150
1564 1156
1572 1163
1582 1166
1587 1175
1595 1181
1602 1189
1611 1194
1621 1197
1626 1206
1634 1213
1642 1220
1651 1225
1660 1230
1665 1239
1674 1244
1682 1250
1688 1258
1696 1264
1704 1271
1712 1277
1720 1283
1728 1290
1736 1296
1743 1304
1751 1310
1759 1316
1767 1322
1775 1329
1780 1338
1790 1341
1798 1348
1805 1356
1814 1361
1824 1365
1830 1373
1840 1373
1850 1376
1860 1377
1868 1383
1878 1382
1888 1378
1898 1376
1906 1369
1911 1360
1919 1353
1925 1344
1932 1332
1940 1325
1946 1313
1950 1298
1949 1288
1948 1278
1945 1267
1939 1259
1932 1251
1924 1244
1916 1238
1908 1232
1900 1225
1891 1220
1883 1214
1875 1207
1867 1201
1857 1197
1850 1189
1842 1183
1833 1178
1825 1172
1817 1166
1808 1161
1798 1157
1791 1149
1782 1144
1773 1139
1765 1133
1757 1127
1748 1122
1741 1114
1731 1110
1723 1104
1714 1099
1706 1093
1697 1088
1689 1081
1681 1074
1671 1071
1662 1066
1654 1060
1646 1053
1637 1048
1629 1042
1620 1037
1613 1029
1604 1024
1598 1016
1588 1014
1580 1007
1570 1003
1563 995
1554 990
1546 984
1538 977
1529 972
1521 966
1512 961
1504 955
1494 951
1486 945
1478 939
1469 934
1461 928
1453 922
1443 919
1434 914
1426 907
1418 901
1410 895
1402 889
1393 884
1385 878
1376 873
1369 865
1360 860
1351 855
1343 849
1335 843
1326 838
1318 832
1309 827
1301 820
1293 814
1283 810
1277 802
1267 798
1259 792
1251 786
1243 779
1235 773
1226 768
1220 760
1211 755
1203 748
1196 740
1191 731
1181 728
1173 721
1168 712
1162 704
1156 696
1151 687
1144 679
1140 669
1134 661
1130 651
1124 643
1121 633
1118 623
1114 613
1110 603
1108 593
1105 583
1100 574
1095 565
1090 556
1086 546
1078 539
1074 529
1065 524
1060 515
1055 506
1047 500
1039 493
1029 491
1021 484
1013 478
1009 468
1001 461
993 455
985 449
975 445
965 443
962 433
954 427
945 422
935 425
935 415
927 408
917 405
907 402
897 398
890 390
880 386
870 384
860 382
852 376
842 374
832 371
822 368
812 365
802 365
792 362
782 362
772 364
762 365
752 367
744 373
734 372
725 377
717 385
707 384
698 394
688 399
682 410
673 416
665 424
657 432
658 442
648 444
646 454
642 464
