239 545
238 535
242 516
245 503
250 493
258 485
265 477
271 468
279 461
288 455
296 449
306 445
316 441
326 438
336 435
346 431
356 429
366 428
376 427
386 426
396 425
406 424
416 424
426 424
436 423
446 425
456 424
466 425
476 425
486 426
496 427
506 430
516 432
526 433
536 437
546 440
556 444
566 445
576 449
586 453
595 458
603 464
613 468
622 473
631 478
639 485
647 491
656 496
664 502
672 508
679 516
688 521
696 527
704 533
712 540
720 546
728 553
734 561
740 569
748 575
756 582
763 590
771 597
776 606
782 614
789 622
797 629
803 637
809 645
817 652
823 660
832 665
841 670
850 675
858 681
868 684
878 687
887 692
897 695
907 699
916 704
926 707
936 711
946 714
956 717
966 719
976 723
986 727
996 730
1006 734
1016 738
1026 741
1036 743
1045 748
1055 751
1065 755
1075 757
1085 760
1095 763
1105 767
1115 770
1125 774
1135 777
1145 781
1155 784
1165 788
1175 790
1184 795
1194 798
1204 800
1214 804
1224 807
1233 812
1243 814
1253 817
1263 820
1273 823
1283 826
1293 830
1303 834
1313 838
1323 841
1332 846
1342 848
1352 851
1362 854
1371 859
1381 861
1391 865
1400 870
1410 871
1420 875
1430 878
1439 883
1449 886
1459 889
1469 891
1478 896
1488 899
1498 902
1508 905
1518 908
1528 911
1538 914
1548 917
1558 920
1568 923
1578 926
1587 931
1597 934
1607 937
1617 941
1627 945
1637 948
1647 950
1656 955
1666 958
1676 962
1686 965
1696 968
1705 973
1715 977
1725 979
1735 982
1745 985
1755 988
1765 992
1775 994
1785 998
1794 1003
1804 1006
1814 1008
1824 1012
1834 1016
1843 1021
1853 1023
1863 1027
1873 1029
1882 1034
1891 1039
1899 1045
1905 1053
1907 1063
1904 1073
1898 1082
1890 1089
1880 1093
1870 1093
1860 1090
1850 1086
1840 1084
1830 1081
1820 1078
1810 1075
1800 1072
1790 1070
1780 1068
1770 1066
1760 1062
1751 1057
1741 1053
1731 1049
1721 1047
1711 1044
1701 1040
1691 1036
1681 1032
1671 1028
1661 1025
1651 1022
1641 1020
1631 1017
1622 1012
1612 1008
1602 1004
1592 1002
1582 998
1572 994
1562 990
1552 987
1542 983
1532 980
1522 978
1512 974
1502 971
1492 967
1482 963
1472 960
1462 956
1452 952
1442 950
1432 946
1422 943
1412 939
1402 935
1392 931
1382 929
1372 927
1363 922
1353 919
1343 915
1333 911
1323 908
1313 905
1303 902
1293 899
1283 895
1273 892
1263 889
1253 886
1243 884
1234 879
1224 875
1214 872
1204 870
1194 866
1184 863
1174 859
1164 856
1154 853
1144 849
1134 846
1124 842
1114 839
1104 836
1094 832
1084 828
1074 824
1064 822
1054 820
1044 817
1034 814
1024 811
1014 807
1005 802
996 797
986 794
976 791
966 787
956 784
946 781
936 779
926 775
916 772
906 768
896 765
886 762
876 759
866 758
857 753
847 750
837 748
827 746
817 744
807 743
797 742
787 742
777 743
767 746
757 748
747 751
737 754
727 756
717 758
707 762
697 762
687 763
677 765
667 766
657 769
647 769
637 769
627 770
617 770
607 770
597 769
587 769
577 769
567 769
557 768
547 768
537 768
527 767
517 765
507 763
497 761
487 759
477 755
467 753
458 748
448 747
438 743
428 740
419 735
409 733
399 729
391 723
382 718
374 712
364 708
354 704
345 699
337 693
328 688
320 681
312 674
304 668
295 663
288 655
282 647
275 639
268 631
262 623
256 615
251 606
247 596
245 586
242 576
241 566
241 555
