148 294
148 284
149 269
152 256
155 246
155 236
158 225
161 215
165 205
170 196
176 186
182 176
190 168
198 161
204 153
210 145
218 137
226 131
236 126
246 122
256 120
266 118
276 116
286 117
296 117
306 116
316 116
326 116
336 117
346 118
356 120
366 121
376 123
386 126
396 129
406 132
416 135
426 138
436 142
445 147
454 152
464 156
473 161
482 166
491 171
501 175
509 181
517 187
525 193
533 199
541 205
549 211
557 217
565 223
573 229
581 235
589 242
595 250
601 258
610 263
618 269
626 275
633 283
639 291
645 299
651 307
659 314
665 322
670 331
674 341
680 349
687 357
692 366
696 376
701 385
706 394
710 404
715 413
719 423
724 432
729 441
731 451
733 461
738 470
743 479
746 489
750 499
753 509
758 518
761 528
764 538
767 548
772 557
778 565
784 573
790 581
798 588
804 596
811 604
817 612
824 620
833 625
841 631
849 638
857 645
865 652
873 658
881 664
889 670
897 677
905 684
913 690
922 695
930 701
938 707
946 713
954 719
962 725
970 732
978 738
986 744
994 750
1002 756
1011 761
1019 767
1027 773
1036 778
1044 785
1052 791
1060 797
1068 803
1076 810
1084 816
1092 822
1100 828
1108 835
1116 841
1124 847
1132 853
1140 859
1148 865
1157 870
1165 877
1173 883
1180 891
1189 896
1197 902
1206 907
1214 914
1222 920
1230 927
1239 932
1247 938
1255 944
1263 950
1271 957
1279 963
1287 969
1295 975
1303 981
1311 987
1319 993
1327 999
1335 1005
1343 1011
1351 1018
1359 1025
1367 1031
1375 1038
1383 1044
1392 1049
1400 1055
1408 1061
1416 1067
1424 1073
1432 1080
1440 1086
1449 1091
1457 1097
1465 1103
1473 1109
1481 1116
1489 1122
1497 1128
1505 1134
1513 1140
1521 1146
1529 1152
1538 1157
1546 1163
1554 1169
1562 1175
1570 1182
1578 1188
1586 1194
1594 1201
1601 1209
1609 1215
1617 1221
1623 1229
1631 1235
1641 1236
1650 1241
1658 1247
1666 1253
1674 1259
1682 1265
1690 1272
1698 1278
1706 1285
1714 1292
1723 1297
1731 1303
1740 1308
1748 1314
1757 1319
1765 1326
1773 1333
1781 1339
1789 1346
1797 1353
1805 1359
1814 1364
1822 1370
1830 1376
1838 1382
1846 1388
1853 1396
1861 1402
1867 1410
1873 1418
1876 1428
1874 1440
1871 1450
1865 1460
1857 1466
1848 1471
1840 1477
1831 1483
1822 1489
1812 1493
1802 1491
1794 1485
1788 1477
1780 1470
1770 1466
1760 1462
1753 1454
1746 1446
1736 1442
1726 1438
1718 1432
1710 1425
1702 1419
1694 1412
1688 1404
1680 1398
1671 1393
1662 1388
1654 1382
1646 1376
1638 1370
1629 1365
1621 1359
1613 1353
1606 1345
1598 1339
1589 1334
1581 1327
1573 1321
1565 1314
1559 1306
1551 1300
1543 1294
1534 1289
1526 1283
1518 1277
1510 1270
1502 1263
1496 1255
1490 1247
1480 1245
1471 1240
1463 1233
1454 1228
1446 1222
1438 1216
1429 1211
1421 1205
1413 1198
1405 1192
1396 1187
1388 1181
1379 1176
1371 1170
1363 1164
1355 1157
1347 1150
1339 1143
1331 1137
1322 1132
1315 1124
1308 1116
1300 1110
1291 1105
1283 1099
1275 1093
1266 1088
1258 1082
1249 1077
1241 1071
1234 1063
1226 1056
1219 1048
1211 1041
1203 1035
1197 1027
1189 1021
1179 1018
1170 1013
1160 1009
1152 1003
1144 997
1136 991
1128 985
1121 977
1113 971
1105 964
1098 956
1090 950
1081 945
1073 939
1065 933
1057 926
1049 920
1041 913
1032 908
1024 902
1016 896
1008 889
1000 882
993 874
984 869
974 865
966 858
958 852
949 847
941 841
935 833
929 825
921 819
913 813
903 810
895 804
887 798
879 792
872 784
864 778
856 772
848 765
838 761
829 756
821 750
812 745
804 739
796 732
788 726
779 721
769 719
761 712
752 707
743 702
733 699
723 698
713 696
703 692
693 689
684 684
674 680
664 679
654 682
644 685
634 687
624 689
614 686
604 684
594 681
588 673
578 673
568 672
558 671
548 675
539 680
529 681
519 679
509 678
499 674
491 667
481 664
471 663
463 657
454 652
444 650
434 648
424 644
415 639
409 631
401 624
391 623
381 621
377 611
367 611
357 612
348 607
341 599
335 591
328 583
320 577
312 571
304 565
296 558
286 556
277 551
272 542
269 532
261 526
253 519
248 510
241 502
232 497
226 489
219 481
213 473
205 467
198 459
194 449
190 439
185 430
179 422
174 413
170 403
166 393
164 383
162 373
161 363
159 353
154 344
152 334
151 324
150 314
149 304
