<?xml version="1.0" encoding="UTF-8" standalone="no"?>
<!-- Created with CurveBenchmark -->
<svg
	xmlns:dc="http://purl.org/dc/elements/1.1/"
	xmlns:cc="http://creativecommons.org/ns#"
	xmlns:rdf="http://www.w3.org/1999/02/22-rdf-syntax-ns#"
	xmlns:svg="http://www.w3.org/2000/svg"
	xmlns="http://www.w3.org/2000/svg"
	xmlns:sodipodi="http://sodipodi.sourceforge.net/DTD/sodipodi-0.dtd"
	xmlns:inkscape="http://www.inkscape.org/namespaces/inkscape"
	width="1000"
	height="1000"
	id="svg2"
	version="1.1"
	sodipodi:docname="noisy-0.01/ccrust-mc20.txt">
<defs
	id="defs4" />
<metadata
	id="metadata7">
	<rdf:RDF>
		<cc:Work
			rdf:about="">
			<dc:format>image/svg+xml</dc:format>
			<dc:type
				rdf:resource="http://purl.org/dc/dcmitype/StillImage" />
			<dc:title></dc:title>
		</cc:Work>
	</rdf:RDF>
</metadata>
<g
	inkscape:label="Layer 1"
	inkscape:groupmode="layer"
	id="layer1">
	<path style="fill:none;stroke:red;stroke-width:1px;stroke-linecap:butt;stroke-linejoin:miter;stroke-opacity:1" d="M 171.099,354.252 150.47,483.841 z" id="boundary" inkscape:connector-curvature="0" />
	<path style="fill:none;stroke:red;stroke-width:1px;stroke-linecap:butt;stroke-linejoin:miter;stroke-opacity:1" d="M 139.668,711.743 149.109,645.12 z" id="boundary" inkscape:connector-curvature="0" />
	<path style="fill:none;stroke:red;stroke-width:1px;stroke-linecap:butt;stroke-linejoin:miter;stroke-opacity:1" d="M 150.47,483.841 149.109,645.12 z" id="boundary" inkscape:connector-curvature="0" />
	<path style="fill:none;stroke:red;stroke-width:1px;stroke-linecap:butt;stroke-linejoin:miter;stroke-opacity:1" d="M 139.668,711.743 75.259,783.625 z" id="boundary" inkscape:connector-curvature="0" />
	<path style="fill:none;stroke:red;stroke-width:1px;stroke-linecap:butt;stroke-linejoin:miter;stroke-opacity:1" d="M 205.57,216.203 258.964,95.4688 z" id="boundary" inkscape:connector-curvature="0" />
	<path style="fill:none;stroke:red;stroke-width:1px;stroke-linecap:butt;stroke-linejoin:miter;stroke-opacity:1" d="M 171.099,354.252 205.57,216.203 z" id="boundary" inkscape:connector-curvature="0" />
	<path style="fill:none;stroke:red;stroke-width:1px;stroke-linecap:butt;stroke-linejoin:miter;stroke-opacity:1" d="M 258.964,95.4688 351.16,29.6963 z" id="boundary" inkscape:connector-curvature="0" />
	<path style="fill:none;stroke:red;stroke-width:1px;stroke-linecap:butt;stroke-linejoin:miter;stroke-opacity:1" d="M 389.368,726.046 320.331,753.397 z" id="boundary" inkscape:connector-curvature="0" />
	<path style="fill:none;stroke:red;stroke-width:1px;stroke-linecap:butt;stroke-linejoin:miter;stroke-opacity:1" d="M 4,960.328 16.3283,850.926 z" id="boundary" inkscape:connector-curvature="0" />
	<path style="fill:none;stroke:red;stroke-width:1px;stroke-linecap:butt;stroke-linejoin:miter;stroke-opacity:1" d="M 75.259,783.625 16.3283,850.926 z" id="boundary" inkscape:connector-curvature="0" />
	<path style="fill:none;stroke:red;stroke-width:1px;stroke-linecap:butt;stroke-linejoin:miter;stroke-opacity:1" d="M 134.958,947.325 49.515,996 z" id="boundary" inkscape:connector-curvature="0" />
	<path style="fill:none;stroke:red;stroke-width:1px;stroke-linecap:butt;stroke-linejoin:miter;stroke-opacity:1" d="M 49.515,996 4,960.328 z" id="boundary" inkscape:connector-curvature="0" />
	<path style="fill:none;stroke:red;stroke-width:1px;stroke-linecap:butt;stroke-linejoin:miter;stroke-opacity:1" d="M 262.408,782.16 320.331,753.397 z" id="boundary" inkscape:connector-curvature="0" />
	<path style="fill:none;stroke:red;stroke-width:1px;stroke-linecap:butt;stroke-linejoin:miter;stroke-opacity:1" d="M 208.807,865.573 262.408,782.16 z" id="boundary" inkscape:connector-curvature="0" />
	<path style="fill:none;stroke:red;stroke-width:1px;stroke-linecap:butt;stroke-linejoin:miter;stroke-opacity:1" d="M 208.807,865.573 134.958,947.325 z" id="boundary" inkscape:connector-curvature="0" />
	<path style="fill:none;stroke:red;stroke-width:1px;stroke-linecap:butt;stroke-linejoin:miter;stroke-opacity:1" d="M 389.368,726.046 565.01,727.172 z" id="boundary" inkscape:connector-curvature="0" />
	<path style="fill:none;stroke:red;stroke-width:1px;stroke-linecap:butt;stroke-linejoin:miter;stroke-opacity:1" d="M 536.336,194.841 458.936,209.516 z" id="boundary" inkscape:connector-curvature="0" />
	<path style="fill:none;stroke:red;stroke-width:1px;stroke-linecap:butt;stroke-linejoin:miter;stroke-opacity:1" d="M 618.558,216.824 536.336,194.841 z" id="boundary" inkscape:connector-curvature="0" />
	<path style="fill:none;stroke:red;stroke-width:1px;stroke-linecap:butt;stroke-linejoin:miter;stroke-opacity:1" d="M 618.558,216.824 646.027,287.794 z" id="boundary" inkscape:connector-curvature="0" />
	<path style="fill:none;stroke:red;stroke-width:1px;stroke-linecap:butt;stroke-linejoin:miter;stroke-opacity:1" d="M 394.686,339.48 458.936,209.516 z" id="boundary" inkscape:connector-curvature="0" />
	<path style="fill:none;stroke:red;stroke-width:1px;stroke-linecap:butt;stroke-linejoin:miter;stroke-opacity:1" d="M 527.147,4 664.058,25.7004 z" id="boundary" inkscape:connector-curvature="0" />
	<path style="fill:none;stroke:red;stroke-width:1px;stroke-linecap:butt;stroke-linejoin:miter;stroke-opacity:1" d="M 777.875,98.7545 850.339,243.316 z" id="boundary" inkscape:connector-curvature="0" />
	<path style="fill:none;stroke:red;stroke-width:1px;stroke-linecap:butt;stroke-linejoin:miter;stroke-opacity:1" d="M 850.339,243.316 847.002,401.515 z" id="boundary" inkscape:connector-curvature="0" />
	<path style="fill:none;stroke:red;stroke-width:1px;stroke-linecap:butt;stroke-linejoin:miter;stroke-opacity:1" d="M 664.058,25.7004 777.875,98.7545 z" id="boundary" inkscape:connector-curvature="0" />
	<path style="fill:none;stroke:red;stroke-width:1px;stroke-linecap:butt;stroke-linejoin:miter;stroke-opacity:1" d="M 394.042,429.687 394.686,339.48 z" id="boundary" inkscape:connector-curvature="0" />
	<path style="fill:none;stroke:red;stroke-width:1px;stroke-linecap:butt;stroke-linejoin:miter;stroke-opacity:1" d="M 511.491,462.772 394.042,429.687 z" id="boundary" inkscape:connector-curvature="0" />
	<path style="fill:none;stroke:red;stroke-width:1px;stroke-linecap:butt;stroke-linejoin:miter;stroke-opacity:1" d="M 653.463,684.127 565.01,727.172 z" id="boundary" inkscape:connector-curvature="0" />
	<path style="fill:none;stroke:red;stroke-width:1px;stroke-linecap:butt;stroke-linejoin:miter;stroke-opacity:1" d="M 847.002,401.515 767.709,566.121 z" id="boundary" inkscape:connector-curvature="0" />
	<path style="fill:none;stroke:red;stroke-width:1px;stroke-linecap:butt;stroke-linejoin:miter;stroke-opacity:1" d="M 646.027,287.794 645.515,395.816 z" id="boundary" inkscape:connector-curvature="0" />
	<path style="fill:none;stroke:red;stroke-width:1px;stroke-linecap:butt;stroke-linejoin:miter;stroke-opacity:1" d="M 645.515,395.816 511.491,462.772 z" id="boundary" inkscape:connector-curvature="0" />
	<path style="fill:none;stroke:red;stroke-width:1px;stroke-linecap:butt;stroke-linejoin:miter;stroke-opacity:1" d="M 767.709,566.121 653.463,684.127 z" id="boundary" inkscape:connector-curvature="0" />
	<path style="fill:none;stroke:red;stroke-width:1px;stroke-linecap:butt;stroke-linejoin:miter;stroke-opacity:1" d="M 351.16,29.6963 527.147,4 z" id="boundary" inkscape:connector-curvature="0" />
	<circle cx="4" cy="960.328" r="4" fill="#0" id="circle0"/>
	<circle cx="16.3283" cy="850.926" r="4" fill="#0" id="circle1"/>
	<circle cx="49.515" cy="996" r="4" fill="#0" id="circle2"/>
	<circle cx="75.259" cy="783.625" r="4" fill="#0" id="circle3"/>
	<circle cx="134.958" cy="947.325" r="4" fill="#0" id="circle4"/>
	<circle cx="139.668" cy="711.743" r="4" fill="#0" id="circle5"/>
	<circle cx="150.47" cy="483.841" r="4" fill="#0" id="circle6"/>
	<circle cx="149.109" cy="645.12" r="4" fill="#0" id="circle7"/>
	<circle cx="171.099" cy="354.252" r="4" fill="#0" id="circle8"/>
	<circle cx="205.57" cy="216.203" r="4" fill="#0" id="circle9"/>
	<circle cx="208.807" cy="865.573" r="4" fill="#0" id="circle10"/>
	<circle cx="258.964" cy="95.4688" r="4" fill="#0" id="circle11"/>
	<circle cx="262.408" cy="782.16" r="4" fill="#0" id="circle12"/>
	<circle cx="320.331" cy="753.397" r="4" fill="#0" id="circle13"/>
	<circle cx="351.16" cy="29.6963" r="4" fill="#0" id="circle14"/>
	<circle cx="389.368" cy="726.046" r="4" fill="#0" id="circle15"/>
	<circle cx="394.686" cy="339.48" r="4" fill="#0" id="circle16"/>
	<circle cx="394.042" cy="429.687" r="4" fill="#0" id="circle17"/>
	<circle cx="458.936" cy="209.516" r="4" fill="#0" id="circle18"/>
	<circle cx="511.491" cy="462.772" r="4" fill="#0" id="circle19"/>
	<circle cx="527.147" cy="4" r="4" fill="#0" id="circle20"/>
	<circle cx="536.336" cy="194.841" r="4" fill="#0" id="circle21"/>
	<circle cx="565.01" cy="727.172" r="4" fill="#0" id="circle22"/>
	<circle cx="618.558" cy="216.824" r="4" fill="#0" id="circle23"/>
	<circle cx="645.515" cy="395.816" r="4" fill="#0" id="circle24"/>
	<circle cx="653.463" cy="684.127" r="4" fill="#0" id="circle25"/>
	<circle cx="664.058" cy="25.7004" r="4" fill="#0" id="circle26"/>
	<circle cx="646.027" cy="287.794" r="4" fill="#0" id="circle27"/>
	<circle cx="777.875" cy="98.7545" r="4" fill="#0" id="circle28"/>
	<circle cx="767.709" cy="566.121" r="4" fill="#0" id="circle29"/>
	<circle cx="850.339" cy="243.316" r="4" fill="#0" id="circle30"/>
	<circle cx="847.002" cy="401.515" r="4" fill="#0" id="circle31"/>
	</g>
</svg>