<?xml version="1.0" encoding="UTF-8" standalone="no"?>
<!-- Created with CurveBenchmark -->
<svg
	xmlns:dc="http://purl.org/dc/elements/1.1/"
	xmlns:cc="http://creativecommons.org/ns#"
	xmlns:rdf="http://www.w3.org/1999/02/22-rdf-syntax-ns#"
	xmlns:svg="http://www.w3.org/2000/svg"
	xmlns="http://www.w3.org/2000/svg"
	xmlns:sodipodi="http://sodipodi.sourceforge.net/DTD/sodipodi-0.dtd"
	xmlns:inkscape="http://www.inkscape.org/namespaces/inkscape"
	width="1000"
	height="1000"
	id="svg2"
	version="1.1"
	sodipodi:docname="noisy-0.01/crawl-mc11.txt">
<defs
	id="defs4" />
<metadata
	id="metadata7">
	<rdf:RDF>
		<cc:Work
			rdf:about="">
			<dc:format>image/svg+xml</dc:format>
			<dc:type
				rdf:resource="http://purl.org/dc/dcmitype/StillImage" />
			<dc:title></dc:title>
		</cc:Work>
	</rdf:RDF>
</metadata>
<g
	inkscape:label="Layer 1"
	inkscape:groupmode="layer"
	id="layer1">
	<path style="fill:none;stroke:red;stroke-width:1px;stroke-linecap:butt;stroke-linejoin:miter;stroke-opacity:1" d="M 85.027,301.564 86.0451,300.829 z" id="boundary" inkscape:connector-curvature="0" />
	<path style="fill:none;stroke:red;stroke-width:1px;stroke-linecap:butt;stroke-linejoin:miter;stroke-opacity:1" d="M 85.027,301.564 56.7361,330.784 z" id="boundary" inkscape:connector-curvature="0" />
	<path style="fill:none;stroke:red;stroke-width:1px;stroke-linecap:butt;stroke-linejoin:miter;stroke-opacity:1" d="M 56.7361,330.784 62.5796,362.849 z" id="boundary" inkscape:connector-curvature="0" />
	<path style="fill:none;stroke:red;stroke-width:1px;stroke-linecap:butt;stroke-linejoin:miter;stroke-opacity:1" d="M 62.5796,362.849 39.8769,390.002 z" id="boundary" inkscape:connector-curvature="0" />
	<path style="fill:none;stroke:red;stroke-width:1px;stroke-linecap:butt;stroke-linejoin:miter;stroke-opacity:1" d="M 39.8769,390.002 39.5262,393.076 z" id="boundary" inkscape:connector-curvature="0" />
	<path style="fill:none;stroke:red;stroke-width:1px;stroke-linecap:butt;stroke-linejoin:miter;stroke-opacity:1" d="M 39.5262,393.076 14.5967,426.992 z" id="boundary" inkscape:connector-curvature="0" />
	<path style="fill:none;stroke:red;stroke-width:1px;stroke-linecap:butt;stroke-linejoin:miter;stroke-opacity:1" d="M 14.5967,426.992 22.7848,462.279 z" id="boundary" inkscape:connector-curvature="0" />
	<path style="fill:none;stroke:red;stroke-width:1px;stroke-linecap:butt;stroke-linejoin:miter;stroke-opacity:1" d="M 22.7848,462.279 16.2256,487.203 z" id="boundary" inkscape:connector-curvature="0" />
	<path style="fill:none;stroke:red;stroke-width:1px;stroke-linecap:butt;stroke-linejoin:miter;stroke-opacity:1" d="M 16.2256,487.203 8.90546,521.631 z" id="boundary" inkscape:connector-curvature="0" />
	<path style="fill:none;stroke:red;stroke-width:1px;stroke-linecap:butt;stroke-linejoin:miter;stroke-opacity:1" d="M 8.90546,521.631 8.40137,567.764 z" id="boundary" inkscape:connector-curvature="0" />
	<path style="fill:none;stroke:red;stroke-width:1px;stroke-linecap:butt;stroke-linejoin:miter;stroke-opacity:1" d="M 8.40137,567.764 13.3453,572.464 z" id="boundary" inkscape:connector-curvature="0" />
	<path style="fill:none;stroke:red;stroke-width:1px;stroke-linecap:butt;stroke-linejoin:miter;stroke-opacity:1" d="M 13.3453,572.464 4,605.1 z" id="boundary" inkscape:connector-curvature="0" />
	<path style="fill:none;stroke:red;stroke-width:1px;stroke-linecap:butt;stroke-linejoin:miter;stroke-opacity:1" d="M 4,605.1 24.7791,631.697 z" id="boundary" inkscape:connector-curvature="0" />
	<path style="fill:none;stroke:red;stroke-width:1px;stroke-linecap:butt;stroke-linejoin:miter;stroke-opacity:1" d="M 24.7791,631.697 21.528,668.922 z" id="boundary" inkscape:connector-curvature="0" />
	<path style="fill:none;stroke:red;stroke-width:1px;stroke-linecap:butt;stroke-linejoin:miter;stroke-opacity:1" d="M 21.528,668.922 27.6428,699.725 z" id="boundary" inkscape:connector-curvature="0" />
	<path style="fill:none;stroke:red;stroke-width:1px;stroke-linecap:butt;stroke-linejoin:miter;stroke-opacity:1" d="M 27.6428,699.725 46.4924,706.681 z" id="boundary" inkscape:connector-curvature="0" />
	<path style="fill:none;stroke:red;stroke-width:1px;stroke-linecap:butt;stroke-linejoin:miter;stroke-opacity:1" d="M 46.4924,706.681 48.5087,745.814 z" id="boundary" inkscape:connector-curvature="0" />
	<path style="fill:none;stroke:red;stroke-width:1px;stroke-linecap:butt;stroke-linejoin:miter;stroke-opacity:1" d="M 48.5087,745.814 71.7546,754.303 z" id="boundary" inkscape:connector-curvature="0" />
	<path style="fill:none;stroke:red;stroke-width:1px;stroke-linecap:butt;stroke-linejoin:miter;stroke-opacity:1" d="M 71.7546,754.303 84.5371,781.908 z" id="boundary" inkscape:connector-curvature="0" />
	<path style="fill:none;stroke:red;stroke-width:1px;stroke-linecap:butt;stroke-linejoin:miter;stroke-opacity:1" d="M 84.5371,781.908 83.2774,806.641 z" id="boundary" inkscape:connector-curvature="0" />
	<path style="fill:none;stroke:red;stroke-width:1px;stroke-linecap:butt;stroke-linejoin:miter;stroke-opacity:1" d="M 83.2774,806.641 107.176,815.495 z" id="boundary" inkscape:connector-curvature="0" />
	<path style="fill:none;stroke:red;stroke-width:1px;stroke-linecap:butt;stroke-linejoin:miter;stroke-opacity:1" d="M 107.176,815.495 126.462,833.45 z" id="boundary" inkscape:connector-curvature="0" />
	<path style="fill:none;stroke:red;stroke-width:1px;stroke-linecap:butt;stroke-linejoin:miter;stroke-opacity:1" d="M 126.462,833.45 147.231,856.018 z" id="boundary" inkscape:connector-curvature="0" />
	<path style="fill:none;stroke:red;stroke-width:1px;stroke-linecap:butt;stroke-linejoin:miter;stroke-opacity:1" d="M 147.231,856.018 159.358,869.466 z" id="boundary" inkscape:connector-curvature="0" />
	<path style="fill:none;stroke:red;stroke-width:1px;stroke-linecap:butt;stroke-linejoin:miter;stroke-opacity:1" d="M 159.358,869.466 185.602,906.292 z" id="boundary" inkscape:connector-curvature="0" />
	<path style="fill:none;stroke:red;stroke-width:1px;stroke-linecap:butt;stroke-linejoin:miter;stroke-opacity:1" d="M 185.602,906.292 194.149,903.667 z" id="boundary" inkscape:connector-curvature="0" />
	<path style="fill:none;stroke:red;stroke-width:1px;stroke-linecap:butt;stroke-linejoin:miter;stroke-opacity:1" d="M 194.149,903.667 239.965,918.23 z" id="boundary" inkscape:connector-curvature="0" />
	<path style="fill:none;stroke:red;stroke-width:1px;stroke-linecap:butt;stroke-linejoin:miter;stroke-opacity:1" d="M 239.965,918.23 250.295,942.402 z" id="boundary" inkscape:connector-curvature="0" />
	<path style="fill:none;stroke:red;stroke-width:1px;stroke-linecap:butt;stroke-linejoin:miter;stroke-opacity:1" d="M 250.295,942.402 279.155,959.921 z" id="boundary" inkscape:connector-curvature="0" />
	<path style="fill:none;stroke:red;stroke-width:1px;stroke-linecap:butt;stroke-linejoin:miter;stroke-opacity:1" d="M 279.155,959.921 300.588,969.064 z" id="boundary" inkscape:connector-curvature="0" />
	<path style="fill:none;stroke:red;stroke-width:1px;stroke-linecap:butt;stroke-linejoin:miter;stroke-opacity:1" d="M 300.588,969.064 335.379,977.365 z" id="boundary" inkscape:connector-curvature="0" />
	<path style="fill:none;stroke:red;stroke-width:1px;stroke-linecap:butt;stroke-linejoin:miter;stroke-opacity:1" d="M 335.379,977.365 368.07,982.19 z" id="boundary" inkscape:connector-curvature="0" />
	<path style="fill:none;stroke:red;stroke-width:1px;stroke-linecap:butt;stroke-linejoin:miter;stroke-opacity:1" d="M 368.07,982.19 384.151,984.633 z" id="boundary" inkscape:connector-curvature="0" />
	<path style="fill:none;stroke:red;stroke-width:1px;stroke-linecap:butt;stroke-linejoin:miter;stroke-opacity:1" d="M 384.151,984.633 418.978,974.134 z" id="boundary" inkscape:connector-curvature="0" />
	<path style="fill:none;stroke:red;stroke-width:1px;stroke-linecap:butt;stroke-linejoin:miter;stroke-opacity:1" d="M 418.978,974.134 447.796,996 z" id="boundary" inkscape:connector-curvature="0" />
	<path style="fill:none;stroke:red;stroke-width:1px;stroke-linecap:butt;stroke-linejoin:miter;stroke-opacity:1" d="M 447.796,996 465.719,979.231 z" id="boundary" inkscape:connector-curvature="0" />
	<path style="fill:none;stroke:red;stroke-width:1px;stroke-linecap:butt;stroke-linejoin:miter;stroke-opacity:1" d="M 465.719,979.231 484.768,974.618 z" id="boundary" inkscape:connector-curvature="0" />
	<path style="fill:none;stroke:red;stroke-width:1px;stroke-linecap:butt;stroke-linejoin:miter;stroke-opacity:1" d="M 484.768,974.618 517.307,985.514 z" id="boundary" inkscape:connector-curvature="0" />
	<path style="fill:none;stroke:red;stroke-width:1px;stroke-linecap:butt;stroke-linejoin:miter;stroke-opacity:1" d="M 517.307,985.514 538.952,982.207 z" id="boundary" inkscape:connector-curvature="0" />
	<path style="fill:none;stroke:red;stroke-width:1px;stroke-linecap:butt;stroke-linejoin:miter;stroke-opacity:1" d="M 538.952,982.207 576.827,979.662 z" id="boundary" inkscape:connector-curvature="0" />
	<path style="fill:none;stroke:red;stroke-width:1px;stroke-linecap:butt;stroke-linejoin:miter;stroke-opacity:1" d="M 576.827,979.662 593.755,970.731 z" id="boundary" inkscape:connector-curvature="0" />
	<path style="fill:none;stroke:red;stroke-width:1px;stroke-linecap:butt;stroke-linejoin:miter;stroke-opacity:1" d="M 593.755,970.731 631.008,950.458 z" id="boundary" inkscape:connector-curvature="0" />
	<path style="fill:none;stroke:red;stroke-width:1px;stroke-linecap:butt;stroke-linejoin:miter;stroke-opacity:1" d="M 631.008,950.458 657.551,938.997 z" id="boundary" inkscape:connector-curvature="0" />
	<path style="fill:none;stroke:red;stroke-width:1px;stroke-linecap:butt;stroke-linejoin:miter;stroke-opacity:1" d="M 657.551,938.997 678.671,925.515 z" id="boundary" inkscape:connector-curvature="0" />
	<path style="fill:none;stroke:red;stroke-width:1px;stroke-linecap:butt;stroke-linejoin:miter;stroke-opacity:1" d="M 678.671,925.515 704.411,906.564 z" id="boundary" inkscape:connector-curvature="0" />
	<path style="fill:none;stroke:red;stroke-width:1px;stroke-linecap:butt;stroke-linejoin:miter;stroke-opacity:1" d="M 704.411,906.564 728.364,905.591 z" id="boundary" inkscape:connector-curvature="0" />
	<path style="fill:none;stroke:red;stroke-width:1px;stroke-linecap:butt;stroke-linejoin:miter;stroke-opacity:1" d="M 728.364,905.591 743.546,897.04 z" id="boundary" inkscape:connector-curvature="0" />
	<path style="fill:none;stroke:red;stroke-width:1px;stroke-linecap:butt;stroke-linejoin:miter;stroke-opacity:1" d="M 743.546,897.04 746.797,864.339 z" id="boundary" inkscape:connector-curvature="0" />
	<path style="fill:none;stroke:red;stroke-width:1px;stroke-linecap:butt;stroke-linejoin:miter;stroke-opacity:1" d="M 746.797,864.339 770.212,838.452 z" id="boundary" inkscape:connector-curvature="0" />
	<path style="fill:none;stroke:red;stroke-width:1px;stroke-linecap:butt;stroke-linejoin:miter;stroke-opacity:1" d="M 770.212,838.452 791.575,821.8 z" id="boundary" inkscape:connector-curvature="0" />
	<path style="fill:none;stroke:red;stroke-width:1px;stroke-linecap:butt;stroke-linejoin:miter;stroke-opacity:1" d="M 791.575,821.8 823.228,816.174 z" id="boundary" inkscape:connector-curvature="0" />
	<path style="fill:none;stroke:red;stroke-width:1px;stroke-linecap:butt;stroke-linejoin:miter;stroke-opacity:1" d="M 823.228,816.174 827.94,791.84 z" id="boundary" inkscape:connector-curvature="0" />
	<path style="fill:none;stroke:red;stroke-width:1px;stroke-linecap:butt;stroke-linejoin:miter;stroke-opacity:1" d="M 86.0451,300.829 112.866,260.79 z" id="boundary" inkscape:connector-curvature="0" />
	<path style="fill:none;stroke:red;stroke-width:1px;stroke-linecap:butt;stroke-linejoin:miter;stroke-opacity:1" d="M 112.866,260.79 106.89,245.6 z" id="boundary" inkscape:connector-curvature="0" />
	<path style="fill:none;stroke:red;stroke-width:1px;stroke-linecap:butt;stroke-linejoin:miter;stroke-opacity:1" d="M 106.89,245.6 134.283,244.584 z" id="boundary" inkscape:connector-curvature="0" />
	<path style="fill:none;stroke:red;stroke-width:1px;stroke-linecap:butt;stroke-linejoin:miter;stroke-opacity:1" d="M 134.283,244.584 145.953,216.804 z" id="boundary" inkscape:connector-curvature="0" />
	<path style="fill:none;stroke:red;stroke-width:1px;stroke-linecap:butt;stroke-linejoin:miter;stroke-opacity:1" d="M 145.953,216.804 156.14,205.258 z" id="boundary" inkscape:connector-curvature="0" />
	<path style="fill:none;stroke:red;stroke-width:1px;stroke-linecap:butt;stroke-linejoin:miter;stroke-opacity:1" d="M 156.14,205.258 178.322,187.999 z" id="boundary" inkscape:connector-curvature="0" />
	<path style="fill:none;stroke:red;stroke-width:1px;stroke-linecap:butt;stroke-linejoin:miter;stroke-opacity:1" d="M 178.322,187.999 188.999,167.914 z" id="boundary" inkscape:connector-curvature="0" />
	<path style="fill:none;stroke:red;stroke-width:1px;stroke-linecap:butt;stroke-linejoin:miter;stroke-opacity:1" d="M 188.999,167.914 202.415,168.697 z" id="boundary" inkscape:connector-curvature="0" />
	<path style="fill:none;stroke:red;stroke-width:1px;stroke-linecap:butt;stroke-linejoin:miter;stroke-opacity:1" d="M 202.415,168.697 221.525,166.12 z" id="boundary" inkscape:connector-curvature="0" />
	<path style="fill:none;stroke:red;stroke-width:1px;stroke-linecap:butt;stroke-linejoin:miter;stroke-opacity:1" d="M 221.525,166.12 240.151,141.925 z" id="boundary" inkscape:connector-curvature="0" />
	<path style="fill:none;stroke:red;stroke-width:1px;stroke-linecap:butt;stroke-linejoin:miter;stroke-opacity:1" d="M 240.151,141.925 246.987,144.804 z" id="boundary" inkscape:connector-curvature="0" />
	<path style="fill:none;stroke:red;stroke-width:1px;stroke-linecap:butt;stroke-linejoin:miter;stroke-opacity:1" d="M 246.987,144.804 285.951,139.087 z" id="boundary" inkscape:connector-curvature="0" />
	<path style="fill:none;stroke:red;stroke-width:1px;stroke-linecap:butt;stroke-linejoin:miter;stroke-opacity:1" d="M 285.951,139.087 303.691,123.984 z" id="boundary" inkscape:connector-curvature="0" />
	<path style="fill:none;stroke:red;stroke-width:1px;stroke-linecap:butt;stroke-linejoin:miter;stroke-opacity:1" d="M 303.691,123.984 304.205,92.4145 z" id="boundary" inkscape:connector-curvature="0" />
	<path style="fill:none;stroke:red;stroke-width:1px;stroke-linecap:butt;stroke-linejoin:miter;stroke-opacity:1" d="M 304.205,92.4145 307.402,87.5693 z" id="boundary" inkscape:connector-curvature="0" />
	<path style="fill:none;stroke:red;stroke-width:1px;stroke-linecap:butt;stroke-linejoin:miter;stroke-opacity:1" d="M 307.402,87.5693 328.312,81.8786 z" id="boundary" inkscape:connector-curvature="0" />
	<path style="fill:none;stroke:red;stroke-width:1px;stroke-linecap:butt;stroke-linejoin:miter;stroke-opacity:1" d="M 328.312,81.8786 329.032,94.9127 z" id="boundary" inkscape:connector-curvature="0" />
	<path style="fill:none;stroke:red;stroke-width:1px;stroke-linecap:butt;stroke-linejoin:miter;stroke-opacity:1" d="M 329.032,94.9127 357.436,83.0754 z" id="boundary" inkscape:connector-curvature="0" />
	<path style="fill:none;stroke:red;stroke-width:1px;stroke-linecap:butt;stroke-linejoin:miter;stroke-opacity:1" d="M 357.436,83.0754 367.063,69.8237 z" id="boundary" inkscape:connector-curvature="0" />
	<path style="fill:none;stroke:red;stroke-width:1px;stroke-linecap:butt;stroke-linejoin:miter;stroke-opacity:1" d="M 367.063,69.8237 376.229,82.2902 z" id="boundary" inkscape:connector-curvature="0" />
	<path style="fill:none;stroke:red;stroke-width:1px;stroke-linecap:butt;stroke-linejoin:miter;stroke-opacity:1" d="M 376.229,82.2902 375.286,86.8786 z" id="boundary" inkscape:connector-curvature="0" />
	<path style="fill:none;stroke:red;stroke-width:1px;stroke-linecap:butt;stroke-linejoin:miter;stroke-opacity:1" d="M 375.286,86.8786 398.976,84.1168 z" id="boundary" inkscape:connector-curvature="0" />
	<path style="fill:none;stroke:red;stroke-width:1px;stroke-linecap:butt;stroke-linejoin:miter;stroke-opacity:1" d="M 398.976,84.1168 403.146,100.905 z" id="boundary" inkscape:connector-curvature="0" />
	<path style="fill:none;stroke:red;stroke-width:1px;stroke-linecap:butt;stroke-linejoin:miter;stroke-opacity:1" d="M 403.146,100.905 408.262,127.752 z" id="boundary" inkscape:connector-curvature="0" />
	<path style="fill:none;stroke:red;stroke-width:1px;stroke-linecap:butt;stroke-linejoin:miter;stroke-opacity:1" d="M 408.262,127.752 400.949,155.589 z" id="boundary" inkscape:connector-curvature="0" />
	<path style="fill:none;stroke:red;stroke-width:1px;stroke-linecap:butt;stroke-linejoin:miter;stroke-opacity:1" d="M 400.949,155.589 404.565,186.396 z" id="boundary" inkscape:connector-curvature="0" />
	<path style="fill:none;stroke:red;stroke-width:1px;stroke-linecap:butt;stroke-linejoin:miter;stroke-opacity:1" d="M 404.565,186.396 408.828,189.991 z" id="boundary" inkscape:connector-curvature="0" />
	<path style="fill:none;stroke:red;stroke-width:1px;stroke-linecap:butt;stroke-linejoin:miter;stroke-opacity:1" d="M 408.828,189.991 401.957,214.905 z" id="boundary" inkscape:connector-curvature="0" />
	<path style="fill:none;stroke:red;stroke-width:1px;stroke-linecap:butt;stroke-linejoin:miter;stroke-opacity:1" d="M 401.957,214.905 382.204,230.893 z" id="boundary" inkscape:connector-curvature="0" />
	<path style="fill:none;stroke:red;stroke-width:1px;stroke-linecap:butt;stroke-linejoin:miter;stroke-opacity:1" d="M 382.204,230.893 354.385,227.615 z" id="boundary" inkscape:connector-curvature="0" />
	<path style="fill:none;stroke:red;stroke-width:1px;stroke-linecap:butt;stroke-linejoin:miter;stroke-opacity:1" d="M 354.385,227.615 333.082,252.204 z" id="boundary" inkscape:connector-curvature="0" />
	<path style="fill:none;stroke:red;stroke-width:1px;stroke-linecap:butt;stroke-linejoin:miter;stroke-opacity:1" d="M 333.082,252.204 294.333,253.354 z" id="boundary" inkscape:connector-curvature="0" />
	<path style="fill:none;stroke:red;stroke-width:1px;stroke-linecap:butt;stroke-linejoin:miter;stroke-opacity:1" d="M 294.333,253.354 281.848,280.389 z" id="boundary" inkscape:connector-curvature="0" />
	<path style="fill:none;stroke:red;stroke-width:1px;stroke-linecap:butt;stroke-linejoin:miter;stroke-opacity:1" d="M 281.848,280.389 252.502,291.839 z" id="boundary" inkscape:connector-curvature="0" />
	<path style="fill:none;stroke:red;stroke-width:1px;stroke-linecap:butt;stroke-linejoin:miter;stroke-opacity:1" d="M 252.502,291.839 225.622,311.131 z" id="boundary" inkscape:connector-curvature="0" />
	<path style="fill:none;stroke:red;stroke-width:1px;stroke-linecap:butt;stroke-linejoin:miter;stroke-opacity:1" d="M 225.622,311.131 221.419,332.619 z" id="boundary" inkscape:connector-curvature="0" />
	<path style="fill:none;stroke:red;stroke-width:1px;stroke-linecap:butt;stroke-linejoin:miter;stroke-opacity:1" d="M 221.419,332.619 196.298,344.037 z" id="boundary" inkscape:connector-curvature="0" />
	<path style="fill:none;stroke:red;stroke-width:1px;stroke-linecap:butt;stroke-linejoin:miter;stroke-opacity:1" d="M 196.298,344.037 173.554,372.889 z" id="boundary" inkscape:connector-curvature="0" />
	<path style="fill:none;stroke:red;stroke-width:1px;stroke-linecap:butt;stroke-linejoin:miter;stroke-opacity:1" d="M 173.554,372.889 163.56,404.064 z" id="boundary" inkscape:connector-curvature="0" />
	<path style="fill:none;stroke:red;stroke-width:1px;stroke-linecap:butt;stroke-linejoin:miter;stroke-opacity:1" d="M 163.56,404.064 165.356,433.35 z" id="boundary" inkscape:connector-curvature="0" />
	<path style="fill:none;stroke:red;stroke-width:1px;stroke-linecap:butt;stroke-linejoin:miter;stroke-opacity:1" d="M 165.356,433.35 143.209,441.316 z" id="boundary" inkscape:connector-curvature="0" />
	<path style="fill:none;stroke:red;stroke-width:1px;stroke-linecap:butt;stroke-linejoin:miter;stroke-opacity:1" d="M 827.94,791.84 848.791,748.13 z" id="boundary" inkscape:connector-curvature="0" />
	<path style="fill:none;stroke:red;stroke-width:1px;stroke-linecap:butt;stroke-linejoin:miter;stroke-opacity:1" d="M 848.791,748.13 847.482,732.786 z" id="boundary" inkscape:connector-curvature="0" />
	<path style="fill:none;stroke:red;stroke-width:1px;stroke-linecap:butt;stroke-linejoin:miter;stroke-opacity:1" d="M 847.482,732.786 869.821,703.211 z" id="boundary" inkscape:connector-curvature="0" />
	<path style="fill:none;stroke:red;stroke-width:1px;stroke-linecap:butt;stroke-linejoin:miter;stroke-opacity:1" d="M 869.821,703.211 873.112,690.047 z" id="boundary" inkscape:connector-curvature="0" />
	<path style="fill:none;stroke:red;stroke-width:1px;stroke-linecap:butt;stroke-linejoin:miter;stroke-opacity:1" d="M 873.112,690.047 892.102,651.544 z" id="boundary" inkscape:connector-curvature="0" />
	<path style="fill:none;stroke:red;stroke-width:1px;stroke-linecap:butt;stroke-linejoin:miter;stroke-opacity:1" d="M 892.102,651.544 894.616,610.779 z" id="boundary" inkscape:connector-curvature="0" />
	<path style="fill:none;stroke:red;stroke-width:1px;stroke-linecap:butt;stroke-linejoin:miter;stroke-opacity:1" d="M 894.616,610.779 905.893,593.415 z" id="boundary" inkscape:connector-curvature="0" />
	<path style="fill:none;stroke:red;stroke-width:1px;stroke-linecap:butt;stroke-linejoin:miter;stroke-opacity:1" d="M 905.893,593.415 913.535,568.06 z" id="boundary" inkscape:connector-curvature="0" />
	<path style="fill:none;stroke:red;stroke-width:1px;stroke-linecap:butt;stroke-linejoin:miter;stroke-opacity:1" d="M 913.535,568.06 906.805,555.305 z" id="boundary" inkscape:connector-curvature="0" />
	<path style="fill:none;stroke:red;stroke-width:1px;stroke-linecap:butt;stroke-linejoin:miter;stroke-opacity:1" d="M 906.805,555.305 896.976,524.754 z" id="boundary" inkscape:connector-curvature="0" />
	<path style="fill:none;stroke:red;stroke-width:1px;stroke-linecap:butt;stroke-linejoin:miter;stroke-opacity:1" d="M 896.976,524.754 897.627,501.242 z" id="boundary" inkscape:connector-curvature="0" />
	<path style="fill:none;stroke:red;stroke-width:1px;stroke-linecap:butt;stroke-linejoin:miter;stroke-opacity:1" d="M 897.627,501.242 894.632,469.99 z" id="boundary" inkscape:connector-curvature="0" />
	<path style="fill:none;stroke:red;stroke-width:1px;stroke-linecap:butt;stroke-linejoin:miter;stroke-opacity:1" d="M 894.632,469.99 882.158,447.449 z" id="boundary" inkscape:connector-curvature="0" />
	<path style="fill:none;stroke:red;stroke-width:1px;stroke-linecap:butt;stroke-linejoin:miter;stroke-opacity:1" d="M 882.158,447.449 895.17,401.713 z" id="boundary" inkscape:connector-curvature="0" />
	<path style="fill:none;stroke:red;stroke-width:1px;stroke-linecap:butt;stroke-linejoin:miter;stroke-opacity:1" d="M 895.17,401.713 872.036,388.367 z" id="boundary" inkscape:connector-curvature="0" />
	<path style="fill:none;stroke:red;stroke-width:1px;stroke-linecap:butt;stroke-linejoin:miter;stroke-opacity:1" d="M 872.036,388.367 858.405,347.22 z" id="boundary" inkscape:connector-curvature="0" />
	<path style="fill:none;stroke:red;stroke-width:1px;stroke-linecap:butt;stroke-linejoin:miter;stroke-opacity:1" d="M 858.405,347.22 844.093,330.187 z" id="boundary" inkscape:connector-curvature="0" />
	<path style="fill:none;stroke:red;stroke-width:1px;stroke-linecap:butt;stroke-linejoin:miter;stroke-opacity:1" d="M 844.093,330.187 834.599,305.739 z" id="boundary" inkscape:connector-curvature="0" />
	<path style="fill:none;stroke:red;stroke-width:1px;stroke-linecap:butt;stroke-linejoin:miter;stroke-opacity:1" d="M 834.599,305.739 819.666,278.644 z" id="boundary" inkscape:connector-curvature="0" />
	<path style="fill:none;stroke:red;stroke-width:1px;stroke-linecap:butt;stroke-linejoin:miter;stroke-opacity:1" d="M 819.666,278.644 827.223,262.426 z" id="boundary" inkscape:connector-curvature="0" />
	<path style="fill:none;stroke:red;stroke-width:1px;stroke-linecap:butt;stroke-linejoin:miter;stroke-opacity:1" d="M 827.223,262.426 789.942,243.427 z" id="boundary" inkscape:connector-curvature="0" />
	<path style="fill:none;stroke:red;stroke-width:1px;stroke-linecap:butt;stroke-linejoin:miter;stroke-opacity:1" d="M 789.942,243.427 777.236,218.402 z" id="boundary" inkscape:connector-curvature="0" />
	<path style="fill:none;stroke:red;stroke-width:1px;stroke-linecap:butt;stroke-linejoin:miter;stroke-opacity:1" d="M 777.236,218.402 765.992,195.691 z" id="boundary" inkscape:connector-curvature="0" />
	<path style="fill:none;stroke:red;stroke-width:1px;stroke-linecap:butt;stroke-linejoin:miter;stroke-opacity:1" d="M 765.992,195.691 740.324,185.91 z" id="boundary" inkscape:connector-curvature="0" />
	<path style="fill:none;stroke:red;stroke-width:1px;stroke-linecap:butt;stroke-linejoin:miter;stroke-opacity:1" d="M 740.324,185.91 716.503,187.302 z" id="boundary" inkscape:connector-curvature="0" />
	<path style="fill:none;stroke:red;stroke-width:1px;stroke-linecap:butt;stroke-linejoin:miter;stroke-opacity:1" d="M 716.503,187.302 691.065,161.982 z" id="boundary" inkscape:connector-curvature="0" />
	<path style="fill:none;stroke:red;stroke-width:1px;stroke-linecap:butt;stroke-linejoin:miter;stroke-opacity:1" d="M 691.065,161.982 674.747,145.811 z" id="boundary" inkscape:connector-curvature="0" />
	<path style="fill:none;stroke:red;stroke-width:1px;stroke-linecap:butt;stroke-linejoin:miter;stroke-opacity:1" d="M 674.747,145.811 640.564,127.919 z" id="boundary" inkscape:connector-curvature="0" />
	<path style="fill:none;stroke:red;stroke-width:1px;stroke-linecap:butt;stroke-linejoin:miter;stroke-opacity:1" d="M 640.564,127.919 637.964,128.907 z" id="boundary" inkscape:connector-curvature="0" />
	<path style="fill:none;stroke:red;stroke-width:1px;stroke-linecap:butt;stroke-linejoin:miter;stroke-opacity:1" d="M 637.964,128.907 629.178,111.363 z" id="boundary" inkscape:connector-curvature="0" />
	<path style="fill:none;stroke:red;stroke-width:1px;stroke-linecap:butt;stroke-linejoin:miter;stroke-opacity:1" d="M 629.178,111.363 590.199,104.661 z" id="boundary" inkscape:connector-curvature="0" />
	<path style="fill:none;stroke:red;stroke-width:1px;stroke-linecap:butt;stroke-linejoin:miter;stroke-opacity:1" d="M 590.199,104.661 580.957,102.244 z" id="boundary" inkscape:connector-curvature="0" />
	<path style="fill:none;stroke:red;stroke-width:1px;stroke-linecap:butt;stroke-linejoin:miter;stroke-opacity:1" d="M 580.957,102.244 562.728,91.1281 z" id="boundary" inkscape:connector-curvature="0" />
	<path style="fill:none;stroke:red;stroke-width:1px;stroke-linecap:butt;stroke-linejoin:miter;stroke-opacity:1" d="M 562.728,91.1281 557.165,79.6948 z" id="boundary" inkscape:connector-curvature="0" />
	<path style="fill:none;stroke:red;stroke-width:1px;stroke-linecap:butt;stroke-linejoin:miter;stroke-opacity:1" d="M 557.165,79.6948 544.244,55.291 z" id="boundary" inkscape:connector-curvature="0" />
	<path style="fill:none;stroke:red;stroke-width:1px;stroke-linecap:butt;stroke-linejoin:miter;stroke-opacity:1" d="M 544.244,55.291 526.224,47.2864 z" id="boundary" inkscape:connector-curvature="0" />
	<path style="fill:none;stroke:red;stroke-width:1px;stroke-linecap:butt;stroke-linejoin:miter;stroke-opacity:1" d="M 526.224,47.2864 516.839,60.191 z" id="boundary" inkscape:connector-curvature="0" />
	<path style="fill:none;stroke:red;stroke-width:1px;stroke-linecap:butt;stroke-linejoin:miter;stroke-opacity:1" d="M 516.839,60.191 513.624,84.0796 z" id="boundary" inkscape:connector-curvature="0" />
	<path style="fill:none;stroke:red;stroke-width:1px;stroke-linecap:butt;stroke-linejoin:miter;stroke-opacity:1" d="M 513.624,84.0796 513.367,110.786 z" id="boundary" inkscape:connector-curvature="0" />
	<path style="fill:none;stroke:red;stroke-width:1px;stroke-linecap:butt;stroke-linejoin:miter;stroke-opacity:1" d="M 513.367,110.786 508.597,117.713 z" id="boundary" inkscape:connector-curvature="0" />
	<path style="fill:none;stroke:red;stroke-width:1px;stroke-linecap:butt;stroke-linejoin:miter;stroke-opacity:1" d="M 508.597,117.713 513.215,151.154 z" id="boundary" inkscape:connector-curvature="0" />
	<path style="fill:none;stroke:red;stroke-width:1px;stroke-linecap:butt;stroke-linejoin:miter;stroke-opacity:1" d="M 513.215,151.154 516.405,177.779 z" id="boundary" inkscape:connector-curvature="0" />
	<path style="fill:none;stroke:red;stroke-width:1px;stroke-linecap:butt;stroke-linejoin:miter;stroke-opacity:1" d="M 516.405,177.779 523.593,180.276 z" id="boundary" inkscape:connector-curvature="0" />
	<path style="fill:none;stroke:red;stroke-width:1px;stroke-linecap:butt;stroke-linejoin:miter;stroke-opacity:1" d="M 523.593,180.276 511.112,225.591 z" id="boundary" inkscape:connector-curvature="0" />
	<path style="fill:none;stroke:red;stroke-width:1px;stroke-linecap:butt;stroke-linejoin:miter;stroke-opacity:1" d="M 511.112,225.591 543.528,230.812 z" id="boundary" inkscape:connector-curvature="0" />
	<path style="fill:none;stroke:red;stroke-width:1px;stroke-linecap:butt;stroke-linejoin:miter;stroke-opacity:1" d="M 543.528,230.812 555.828,229.61 z" id="boundary" inkscape:connector-curvature="0" />
	<path style="fill:none;stroke:red;stroke-width:1px;stroke-linecap:butt;stroke-linejoin:miter;stroke-opacity:1" d="M 555.828,229.61 575.594,248.728 z" id="boundary" inkscape:connector-curvature="0" />
	<path style="fill:none;stroke:red;stroke-width:1px;stroke-linecap:butt;stroke-linejoin:miter;stroke-opacity:1" d="M 575.594,248.728 598.539,259.809 z" id="boundary" inkscape:connector-curvature="0" />
	<path style="fill:none;stroke:red;stroke-width:1px;stroke-linecap:butt;stroke-linejoin:miter;stroke-opacity:1" d="M 598.539,259.809 633.703,274.717 z" id="boundary" inkscape:connector-curvature="0" />
	<path style="fill:none;stroke:red;stroke-width:1px;stroke-linecap:butt;stroke-linejoin:miter;stroke-opacity:1" d="M 633.703,274.717 636.079,295.629 z" id="boundary" inkscape:connector-curvature="0" />
	<path style="fill:none;stroke:red;stroke-width:1px;stroke-linecap:butt;stroke-linejoin:miter;stroke-opacity:1" d="M 636.079,295.629 656.219,300.493 z" id="boundary" inkscape:connector-curvature="0" />
	<path style="fill:none;stroke:red;stroke-width:1px;stroke-linecap:butt;stroke-linejoin:miter;stroke-opacity:1" d="M 656.219,300.493 687.192,319.407 z" id="boundary" inkscape:connector-curvature="0" />
	<path style="fill:none;stroke:red;stroke-width:1px;stroke-linecap:butt;stroke-linejoin:miter;stroke-opacity:1" d="M 687.192,319.407 691.565,313.708 z" id="boundary" inkscape:connector-curvature="0" />
	<path style="fill:none;stroke:red;stroke-width:1px;stroke-linecap:butt;stroke-linejoin:miter;stroke-opacity:1" d="M 691.565,313.708 708.305,344.9 z" id="boundary" inkscape:connector-curvature="0" />
	<path style="fill:none;stroke:red;stroke-width:1px;stroke-linecap:butt;stroke-linejoin:miter;stroke-opacity:1" d="M 708.305,344.9 738.851,363.703 z" id="boundary" inkscape:connector-curvature="0" />
	<path style="fill:none;stroke:red;stroke-width:1px;stroke-linecap:butt;stroke-linejoin:miter;stroke-opacity:1" d="M 738.851,363.703 740.518,383.505 z" id="boundary" inkscape:connector-curvature="0" />
	<path style="fill:none;stroke:red;stroke-width:1px;stroke-linecap:butt;stroke-linejoin:miter;stroke-opacity:1" d="M 740.518,383.505 736.808,394.513 z" id="boundary" inkscape:connector-curvature="0" />
	<path style="fill:none;stroke:red;stroke-width:1px;stroke-linecap:butt;stroke-linejoin:miter;stroke-opacity:1" d="M 736.808,394.513 748.793,434.263 z" id="boundary" inkscape:connector-curvature="0" />
	<path style="fill:none;stroke:red;stroke-width:1px;stroke-linecap:butt;stroke-linejoin:miter;stroke-opacity:1" d="M 748.793,434.263 756.748,450.989 z" id="boundary" inkscape:connector-curvature="0" />
	<path style="fill:none;stroke:red;stroke-width:1px;stroke-linecap:butt;stroke-linejoin:miter;stroke-opacity:1" d="M 756.748,450.989 776.018,467.388 z" id="boundary" inkscape:connector-curvature="0" />
	<path style="fill:none;stroke:red;stroke-width:1px;stroke-linecap:butt;stroke-linejoin:miter;stroke-opacity:1" d="M 776.018,467.388 765.983,491.577 z" id="boundary" inkscape:connector-curvature="0" />
	<path style="fill:none;stroke:red;stroke-width:1px;stroke-linecap:butt;stroke-linejoin:miter;stroke-opacity:1" d="M 765.983,491.577 776.859,527.74 z" id="boundary" inkscape:connector-curvature="0" />
	<path style="fill:none;stroke:red;stroke-width:1px;stroke-linecap:butt;stroke-linejoin:miter;stroke-opacity:1" d="M 776.859,527.74 785.724,565.253 z" id="boundary" inkscape:connector-curvature="0" />
	<path style="fill:none;stroke:red;stroke-width:1px;stroke-linecap:butt;stroke-linejoin:miter;stroke-opacity:1" d="M 785.724,565.253 764.714,587.769 z" id="boundary" inkscape:connector-curvature="0" />
	<path style="fill:none;stroke:red;stroke-width:1px;stroke-linecap:butt;stroke-linejoin:miter;stroke-opacity:1" d="M 764.714,587.769 770.39,604.177 z" id="boundary" inkscape:connector-curvature="0" />
	<path style="fill:none;stroke:red;stroke-width:1px;stroke-linecap:butt;stroke-linejoin:miter;stroke-opacity:1" d="M 770.39,604.177 758.465,647.215 z" id="boundary" inkscape:connector-curvature="0" />
	<path style="fill:none;stroke:red;stroke-width:1px;stroke-linecap:butt;stroke-linejoin:miter;stroke-opacity:1" d="M 758.465,647.215 759.426,660.196 z" id="boundary" inkscape:connector-curvature="0" />
	<path style="fill:none;stroke:red;stroke-width:1px;stroke-linecap:butt;stroke-linejoin:miter;stroke-opacity:1" d="M 759.426,660.196 735.123,696.746 z" id="boundary" inkscape:connector-curvature="0" />
	<path style="fill:none;stroke:red;stroke-width:1px;stroke-linecap:butt;stroke-linejoin:miter;stroke-opacity:1" d="M 735.123,696.746 726.112,709.547 z" id="boundary" inkscape:connector-curvature="0" />
	<path style="fill:none;stroke:red;stroke-width:1px;stroke-linecap:butt;stroke-linejoin:miter;stroke-opacity:1" d="M 726.112,709.547 707.599,719.411 z" id="boundary" inkscape:connector-curvature="0" />
	<path style="fill:none;stroke:red;stroke-width:1px;stroke-linecap:butt;stroke-linejoin:miter;stroke-opacity:1" d="M 707.599,719.411 711.511,752.369 z" id="boundary" inkscape:connector-curvature="0" />
	<path style="fill:none;stroke:red;stroke-width:1px;stroke-linecap:butt;stroke-linejoin:miter;stroke-opacity:1" d="M 711.511,752.369 683.363,773.482 z" id="boundary" inkscape:connector-curvature="0" />
	<path style="fill:none;stroke:red;stroke-width:1px;stroke-linecap:butt;stroke-linejoin:miter;stroke-opacity:1" d="M 683.363,773.482 673.205,788.071 z" id="boundary" inkscape:connector-curvature="0" />
	<path style="fill:none;stroke:red;stroke-width:1px;stroke-linecap:butt;stroke-linejoin:miter;stroke-opacity:1" d="M 673.205,788.071 647.362,791.418 z" id="boundary" inkscape:connector-curvature="0" />
	<path style="fill:none;stroke:red;stroke-width:1px;stroke-linecap:butt;stroke-linejoin:miter;stroke-opacity:1" d="M 647.362,791.418 611.022,809.447 z" id="boundary" inkscape:connector-curvature="0" />
	<path style="fill:none;stroke:red;stroke-width:1px;stroke-linecap:butt;stroke-linejoin:miter;stroke-opacity:1" d="M 611.022,809.447 590.775,819.027 z" id="boundary" inkscape:connector-curvature="0" />
	<path style="fill:none;stroke:red;stroke-width:1px;stroke-linecap:butt;stroke-linejoin:miter;stroke-opacity:1" d="M 590.775,819.027 569.03,842.868 z" id="boundary" inkscape:connector-curvature="0" />
	<path style="fill:none;stroke:red;stroke-width:1px;stroke-linecap:butt;stroke-linejoin:miter;stroke-opacity:1" d="M 569.03,842.868 544.657,844.149 z" id="boundary" inkscape:connector-curvature="0" />
	<path style="fill:none;stroke:red;stroke-width:1px;stroke-linecap:butt;stroke-linejoin:miter;stroke-opacity:1" d="M 544.657,844.149 510.694,860.87 z" id="boundary" inkscape:connector-curvature="0" />
	<path style="fill:none;stroke:red;stroke-width:1px;stroke-linecap:butt;stroke-linejoin:miter;stroke-opacity:1" d="M 510.694,860.87 494.499,869.486 z" id="boundary" inkscape:connector-curvature="0" />
	<path style="fill:none;stroke:red;stroke-width:1px;stroke-linecap:butt;stroke-linejoin:miter;stroke-opacity:1" d="M 494.499,869.486 468.584,854.296 z" id="boundary" inkscape:connector-curvature="0" />
	<path style="fill:none;stroke:red;stroke-width:1px;stroke-linecap:butt;stroke-linejoin:miter;stroke-opacity:1" d="M 468.584,854.296 435.992,863.784 z" id="boundary" inkscape:connector-curvature="0" />
	<path style="fill:none;stroke:red;stroke-width:1px;stroke-linecap:butt;stroke-linejoin:miter;stroke-opacity:1" d="M 435.992,863.784 402.401,865.304 z" id="boundary" inkscape:connector-curvature="0" />
	<path style="fill:none;stroke:red;stroke-width:1px;stroke-linecap:butt;stroke-linejoin:miter;stroke-opacity:1" d="M 402.401,865.304 370.343,833.172 z" id="boundary" inkscape:connector-curvature="0" />
	<path style="fill:none;stroke:red;stroke-width:1px;stroke-linecap:butt;stroke-linejoin:miter;stroke-opacity:1" d="M 370.343,833.172 340.749,843.543 z" id="boundary" inkscape:connector-curvature="0" />
	<path style="fill:none;stroke:red;stroke-width:1px;stroke-linecap:butt;stroke-linejoin:miter;stroke-opacity:1" d="M 340.749,843.543 323.161,814.7 z" id="boundary" inkscape:connector-curvature="0" />
	<path style="fill:none;stroke:red;stroke-width:1px;stroke-linecap:butt;stroke-linejoin:miter;stroke-opacity:1" d="M 323.161,814.7 288.414,815.094 z" id="boundary" inkscape:connector-curvature="0" />
	<path style="fill:none;stroke:red;stroke-width:1px;stroke-linecap:butt;stroke-linejoin:miter;stroke-opacity:1" d="M 288.414,815.094 266.706,794.663 z" id="boundary" inkscape:connector-curvature="0" />
	<path style="fill:none;stroke:red;stroke-width:1px;stroke-linecap:butt;stroke-linejoin:miter;stroke-opacity:1" d="M 266.706,794.663 257.941,778.323 z" id="boundary" inkscape:connector-curvature="0" />
	<path style="fill:none;stroke:red;stroke-width:1px;stroke-linecap:butt;stroke-linejoin:miter;stroke-opacity:1" d="M 257.941,778.323 228.035,766.219 z" id="boundary" inkscape:connector-curvature="0" />
	<path style="fill:none;stroke:red;stroke-width:1px;stroke-linecap:butt;stroke-linejoin:miter;stroke-opacity:1" d="M 228.035,766.219 215.779,737.596 z" id="boundary" inkscape:connector-curvature="0" />
	<path style="fill:none;stroke:red;stroke-width:1px;stroke-linecap:butt;stroke-linejoin:miter;stroke-opacity:1" d="M 215.779,737.596 210.525,734.682 z" id="boundary" inkscape:connector-curvature="0" />
	<path style="fill:none;stroke:red;stroke-width:1px;stroke-linecap:butt;stroke-linejoin:miter;stroke-opacity:1" d="M 210.525,734.682 178.199,712.932 z" id="boundary" inkscape:connector-curvature="0" />
	<path style="fill:none;stroke:red;stroke-width:1px;stroke-linecap:butt;stroke-linejoin:miter;stroke-opacity:1" d="M 178.199,712.932 178.078,673.212 z" id="boundary" inkscape:connector-curvature="0" />
	<path style="fill:none;stroke:red;stroke-width:1px;stroke-linecap:butt;stroke-linejoin:miter;stroke-opacity:1" d="M 178.078,673.212 171.122,654.628 z" id="boundary" inkscape:connector-curvature="0" />
	<path style="fill:none;stroke:red;stroke-width:1px;stroke-linecap:butt;stroke-linejoin:miter;stroke-opacity:1" d="M 171.122,654.628 141.044,636.435 z" id="boundary" inkscape:connector-curvature="0" />
	<path style="fill:none;stroke:red;stroke-width:1px;stroke-linecap:butt;stroke-linejoin:miter;stroke-opacity:1" d="M 141.044,636.435 154.648,600.559 z" id="boundary" inkscape:connector-curvature="0" />
	<path style="fill:none;stroke:red;stroke-width:1px;stroke-linecap:butt;stroke-linejoin:miter;stroke-opacity:1" d="M 154.648,600.559 127.998,568.542 z" id="boundary" inkscape:connector-curvature="0" />
	<path style="fill:none;stroke:red;stroke-width:1px;stroke-linecap:butt;stroke-linejoin:miter;stroke-opacity:1" d="M 127.998,568.542 150.312,547.091 z" id="boundary" inkscape:connector-curvature="0" />
	<path style="fill:none;stroke:red;stroke-width:1px;stroke-linecap:butt;stroke-linejoin:miter;stroke-opacity:1" d="M 150.312,547.091 131.194,507.922 z" id="boundary" inkscape:connector-curvature="0" />
	<path style="fill:none;stroke:red;stroke-width:1px;stroke-linecap:butt;stroke-linejoin:miter;stroke-opacity:1" d="M 131.194,507.922 150,491.966 z" id="boundary" inkscape:connector-curvature="0" />
	<path style="fill:none;stroke:red;stroke-width:1px;stroke-linecap:butt;stroke-linejoin:miter;stroke-opacity:1" d="M 150,491.966 143.209,441.316 z" id="boundary" inkscape:connector-curvature="0" />
	<path style="fill:none;stroke:red;stroke-width:1px;stroke-linecap:butt;stroke-linejoin:miter;stroke-opacity:1" d="M 597.533,23.3939 601.681,24.6236 z" id="boundary" inkscape:connector-curvature="0" />
	<path style="fill:none;stroke:red;stroke-width:1px;stroke-linecap:butt;stroke-linejoin:miter;stroke-opacity:1" d="M 601.681,24.6236 621.353,23.0182 z" id="boundary" inkscape:connector-curvature="0" />
	<path style="fill:none;stroke:red;stroke-width:1px;stroke-linecap:butt;stroke-linejoin:miter;stroke-opacity:1" d="M 597.533,23.3939 576.667,33.7566 z" id="boundary" inkscape:connector-curvature="0" />
	<path style="fill:none;stroke:red;stroke-width:1px;stroke-linecap:butt;stroke-linejoin:miter;stroke-opacity:1" d="M 576.667,33.7566 567.956,41.436 z" id="boundary" inkscape:connector-curvature="0" />
	<path style="fill:none;stroke:red;stroke-width:1px;stroke-linecap:butt;stroke-linejoin:miter;stroke-opacity:1" d="M 621.353,23.0182 619.732,47.0472 z" id="boundary" inkscape:connector-curvature="0" />
	<path style="fill:none;stroke:red;stroke-width:1px;stroke-linecap:butt;stroke-linejoin:miter;stroke-opacity:1" d="M 619.732,47.0472 611.35,61.81 z" id="boundary" inkscape:connector-curvature="0" />
	<path style="fill:none;stroke:red;stroke-width:1px;stroke-linecap:butt;stroke-linejoin:miter;stroke-opacity:1" d="M 611.35,61.81 601.059,56.1653 z" id="boundary" inkscape:connector-curvature="0" />
	<path style="fill:none;stroke:red;stroke-width:1px;stroke-linecap:butt;stroke-linejoin:miter;stroke-opacity:1" d="M 601.059,56.1653 609.994,76.158 z" id="boundary" inkscape:connector-curvature="0" />
	<path style="fill:none;stroke:red;stroke-width:1px;stroke-linecap:butt;stroke-linejoin:miter;stroke-opacity:1" d="M 609.994,76.158 621.866,69.9359 z" id="boundary" inkscape:connector-curvature="0" />
	<path style="fill:none;stroke:red;stroke-width:1px;stroke-linecap:butt;stroke-linejoin:miter;stroke-opacity:1" d="M 621.866,69.9359 644.766,68.3605 z" id="boundary" inkscape:connector-curvature="0" />
	<path style="fill:none;stroke:red;stroke-width:1px;stroke-linecap:butt;stroke-linejoin:miter;stroke-opacity:1" d="M 567.956,41.436 566.988,8.82312 z" id="boundary" inkscape:connector-curvature="0" />
	<path style="fill:none;stroke:red;stroke-width:1px;stroke-linecap:butt;stroke-linejoin:miter;stroke-opacity:1" d="M 566.988,8.82312 549.034,4.66874 z" id="boundary" inkscape:connector-curvature="0" />
	<path style="fill:none;stroke:red;stroke-width:1px;stroke-linecap:butt;stroke-linejoin:miter;stroke-opacity:1" d="M 549.034,4.66874 534.781,20.9251 z" id="boundary" inkscape:connector-curvature="0" />
	<path style="fill:none;stroke:red;stroke-width:1px;stroke-linecap:butt;stroke-linejoin:miter;stroke-opacity:1" d="M 534.781,20.9251 413.819,11.5342 z" id="boundary" inkscape:connector-curvature="0" />
	<path style="fill:none;stroke:red;stroke-width:1px;stroke-linecap:butt;stroke-linejoin:miter;stroke-opacity:1" d="M 413.819,11.5342 392.391,8.48207 z" id="boundary" inkscape:connector-curvature="0" />
	<path style="fill:none;stroke:red;stroke-width:1px;stroke-linecap:butt;stroke-linejoin:miter;stroke-opacity:1" d="M 392.391,8.48207 381.676,11.692 z" id="boundary" inkscape:connector-curvature="0" />
	<path style="fill:none;stroke:red;stroke-width:1px;stroke-linecap:butt;stroke-linejoin:miter;stroke-opacity:1" d="M 381.676,11.692 366.851,30.2328 z" id="boundary" inkscape:connector-curvature="0" />
	<path style="fill:none;stroke:red;stroke-width:1px;stroke-linecap:butt;stroke-linejoin:miter;stroke-opacity:1" d="M 366.851,30.2328 358.016,6.02861 z" id="boundary" inkscape:connector-curvature="0" />
	<path style="fill:none;stroke:red;stroke-width:1px;stroke-linecap:butt;stroke-linejoin:miter;stroke-opacity:1" d="M 358.016,6.02861 326.789,19.8828 z" id="boundary" inkscape:connector-curvature="0" />
	<path style="fill:none;stroke:red;stroke-width:1px;stroke-linecap:butt;stroke-linejoin:miter;stroke-opacity:1" d="M 326.789,19.8828 310.505,4 z" id="boundary" inkscape:connector-curvature="0" />
	<path style="fill:none;stroke:red;stroke-width:1px;stroke-linecap:butt;stroke-linejoin:miter;stroke-opacity:1" d="M 310.505,4 289.315,14.6801 z" id="boundary" inkscape:connector-curvature="0" />
	<path style="fill:none;stroke:red;stroke-width:1px;stroke-linecap:butt;stroke-linejoin:miter;stroke-opacity:1" d="M 289.315,14.6801 283.893,18.1087 z" id="boundary" inkscape:connector-curvature="0" />
	<path style="fill:none;stroke:red;stroke-width:1px;stroke-linecap:butt;stroke-linejoin:miter;stroke-opacity:1" d="M 283.893,18.1087 292.26,39.3571 z" id="boundary" inkscape:connector-curvature="0" />
	<path style="fill:none;stroke:red;stroke-width:1px;stroke-linecap:butt;stroke-linejoin:miter;stroke-opacity:1" d="M 292.26,39.3571 305.32,60.7246 z" id="boundary" inkscape:connector-curvature="0" />
	<path style="fill:none;stroke:red;stroke-width:1px;stroke-linecap:butt;stroke-linejoin:miter;stroke-opacity:1" d="M 305.32,60.7246 324.929,56.721 z" id="boundary" inkscape:connector-curvature="0" />
	<path style="fill:none;stroke:red;stroke-width:1px;stroke-linecap:butt;stroke-linejoin:miter;stroke-opacity:1" d="M 324.929,56.721 339.447,38.8678 z" id="boundary" inkscape:connector-curvature="0" />
	<path style="fill:none;stroke:red;stroke-width:1px;stroke-linecap:butt;stroke-linejoin:miter;stroke-opacity:1" d="M 413.206,44.7004 414.343,51.1083 z" id="boundary" inkscape:connector-curvature="0" />
	<path style="fill:none;stroke:red;stroke-width:1px;stroke-linecap:butt;stroke-linejoin:miter;stroke-opacity:1" d="M 414.343,51.1083 385.936,59.3946 z" id="boundary" inkscape:connector-curvature="0" />
	<circle cx="289.315" cy="14.6801" r="4" fill="#0" id="circle0"/>
	<circle cx="310.505" cy="4" r="4" fill="#0" id="circle1"/>
	<circle cx="326.789" cy="19.8828" r="4" fill="#0" id="circle2"/>
	<circle cx="358.016" cy="6.02861" r="4" fill="#0" id="circle3"/>
	<circle cx="381.676" cy="11.692" r="4" fill="#0" id="circle4"/>
	<circle cx="392.391" cy="8.48207" r="4" fill="#0" id="circle5"/>
	<circle cx="413.819" cy="11.5342" r="4" fill="#0" id="circle6"/>
	<circle cx="283.893" cy="18.1087" r="4" fill="#0" id="circle7"/>
	<circle cx="292.26" cy="39.3571" r="4" fill="#0" id="circle8"/>
	<circle cx="305.32" cy="60.7246" r="4" fill="#0" id="circle9"/>
	<circle cx="307.402" cy="87.5693" r="4" fill="#0" id="circle10"/>
	<circle cx="304.205" cy="92.4145" r="4" fill="#0" id="circle11"/>
	<circle cx="303.691" cy="123.984" r="4" fill="#0" id="circle12"/>
	<circle cx="285.951" cy="139.087" r="4" fill="#0" id="circle13"/>
	<circle cx="246.987" cy="144.804" r="4" fill="#0" id="circle14"/>
	<circle cx="240.151" cy="141.925" r="4" fill="#0" id="circle15"/>
	<circle cx="221.525" cy="166.12" r="4" fill="#0" id="circle16"/>
	<circle cx="202.415" cy="168.697" r="4" fill="#0" id="circle17"/>
	<circle cx="188.999" cy="167.914" r="4" fill="#0" id="circle18"/>
	<circle cx="178.322" cy="187.999" r="4" fill="#0" id="circle19"/>
	<circle cx="156.14" cy="205.258" r="4" fill="#0" id="circle20"/>
	<circle cx="145.953" cy="216.804" r="4" fill="#0" id="circle21"/>
	<circle cx="134.283" cy="244.584" r="4" fill="#0" id="circle22"/>
	<circle cx="106.89" cy="245.6" r="4" fill="#0" id="circle23"/>
	<circle cx="112.866" cy="260.79" r="4" fill="#0" id="circle24"/>
	<circle cx="86.0451" cy="300.829" r="4" fill="#0" id="circle25"/>
	<circle cx="85.027" cy="301.564" r="4" fill="#0" id="circle26"/>
	<circle cx="56.7361" cy="330.784" r="4" fill="#0" id="circle27"/>
	<circle cx="62.5796" cy="362.849" r="4" fill="#0" id="circle28"/>
	<circle cx="39.8769" cy="390.002" r="4" fill="#0" id="circle29"/>
	<circle cx="39.5262" cy="393.076" r="4" fill="#0" id="circle30"/>
	<circle cx="14.5967" cy="426.992" r="4" fill="#0" id="circle31"/>
	<circle cx="22.7848" cy="462.279" r="4" fill="#0" id="circle32"/>
	<circle cx="16.2256" cy="487.203" r="4" fill="#0" id="circle33"/>
	<circle cx="8.90546" cy="521.631" r="4" fill="#0" id="circle34"/>
	<circle cx="8.40137" cy="567.764" r="4" fill="#0" id="circle35"/>
	<circle cx="13.3453" cy="572.464" r="4" fill="#0" id="circle36"/>
	<circle cx="4" cy="605.1" r="4" fill="#0" id="circle37"/>
	<circle cx="24.7791" cy="631.697" r="4" fill="#0" id="circle38"/>
	<circle cx="21.528" cy="668.922" r="4" fill="#0" id="circle39"/>
	<circle cx="27.6428" cy="699.725" r="4" fill="#0" id="circle40"/>
	<circle cx="46.4924" cy="706.681" r="4" fill="#0" id="circle41"/>
	<circle cx="48.5087" cy="745.814" r="4" fill="#0" id="circle42"/>
	<circle cx="71.7546" cy="754.303" r="4" fill="#0" id="circle43"/>
	<circle cx="84.5371" cy="781.908" r="4" fill="#0" id="circle44"/>
	<circle cx="83.2774" cy="806.641" r="4" fill="#0" id="circle45"/>
	<circle cx="107.176" cy="815.495" r="4" fill="#0" id="circle46"/>
	<circle cx="126.462" cy="833.45" r="4" fill="#0" id="circle47"/>
	<circle cx="147.231" cy="856.018" r="4" fill="#0" id="circle48"/>
	<circle cx="159.358" cy="869.466" r="4" fill="#0" id="circle49"/>
	<circle cx="185.602" cy="906.292" r="4" fill="#0" id="circle50"/>
	<circle cx="194.149" cy="903.667" r="4" fill="#0" id="circle51"/>
	<circle cx="239.965" cy="918.23" r="4" fill="#0" id="circle52"/>
	<circle cx="250.295" cy="942.402" r="4" fill="#0" id="circle53"/>
	<circle cx="279.155" cy="959.921" r="4" fill="#0" id="circle54"/>
	<circle cx="300.588" cy="969.064" r="4" fill="#0" id="circle55"/>
	<circle cx="335.379" cy="977.365" r="4" fill="#0" id="circle56"/>
	<circle cx="368.07" cy="982.19" r="4" fill="#0" id="circle57"/>
	<circle cx="384.151" cy="984.633" r="4" fill="#0" id="circle58"/>
	<circle cx="418.978" cy="974.134" r="4" fill="#0" id="circle59"/>
	<circle cx="447.796" cy="996" r="4" fill="#0" id="circle60"/>
	<circle cx="465.719" cy="979.231" r="4" fill="#0" id="circle61"/>
	<circle cx="484.768" cy="974.618" r="4" fill="#0" id="circle62"/>
	<circle cx="517.307" cy="985.514" r="4" fill="#0" id="circle63"/>
	<circle cx="538.952" cy="982.207" r="4" fill="#0" id="circle64"/>
	<circle cx="576.827" cy="979.662" r="4" fill="#0" id="circle65"/>
	<circle cx="593.755" cy="970.731" r="4" fill="#0" id="circle66"/>
	<circle cx="631.008" cy="950.458" r="4" fill="#0" id="circle67"/>
	<circle cx="657.551" cy="938.997" r="4" fill="#0" id="circle68"/>
	<circle cx="678.671" cy="925.515" r="4" fill="#0" id="circle69"/>
	<circle cx="704.411" cy="906.564" r="4" fill="#0" id="circle70"/>
	<circle cx="728.364" cy="905.591" r="4" fill="#0" id="circle71"/>
	<circle cx="743.546" cy="897.04" r="4" fill="#0" id="circle72"/>
	<circle cx="746.797" cy="864.339" r="4" fill="#0" id="circle73"/>
	<circle cx="770.212" cy="838.452" r="4" fill="#0" id="circle74"/>
	<circle cx="791.575" cy="821.8" r="4" fill="#0" id="circle75"/>
	<circle cx="823.228" cy="816.174" r="4" fill="#0" id="circle76"/>
	<circle cx="827.94" cy="791.84" r="4" fill="#0" id="circle77"/>
	<circle cx="534.781" cy="20.9251" r="4" fill="#0" id="circle78"/>
	<circle cx="549.034" cy="4.66874" r="4" fill="#0" id="circle79"/>
	<circle cx="566.988" cy="8.82312" r="4" fill="#0" id="circle80"/>
	<circle cx="601.681" cy="24.6236" r="4" fill="#0" id="circle81"/>
	<circle cx="597.533" cy="23.3939" r="4" fill="#0" id="circle82"/>
	<circle cx="621.353" cy="23.0182" r="4" fill="#0" id="circle83"/>
	<circle cx="619.732" cy="47.0472" r="4" fill="#0" id="circle84"/>
	<circle cx="621.866" cy="69.9359" r="4" fill="#0" id="circle85"/>
	<circle cx="644.766" cy="68.3605" r="4" fill="#0" id="circle86"/>
	<circle cx="629.178" cy="111.363" r="4" fill="#0" id="circle87"/>
	<circle cx="640.564" cy="127.919" r="4" fill="#0" id="circle88"/>
	<circle cx="637.964" cy="128.907" r="4" fill="#0" id="circle89"/>
	<circle cx="674.747" cy="145.811" r="4" fill="#0" id="circle90"/>
	<circle cx="691.065" cy="161.982" r="4" fill="#0" id="circle91"/>
	<circle cx="716.503" cy="187.302" r="4" fill="#0" id="circle92"/>
	<circle cx="740.324" cy="185.91" r="4" fill="#0" id="circle93"/>
	<circle cx="765.992" cy="195.691" r="4" fill="#0" id="circle94"/>
	<circle cx="777.236" cy="218.402" r="4" fill="#0" id="circle95"/>
	<circle cx="789.942" cy="243.427" r="4" fill="#0" id="circle96"/>
	<circle cx="827.223" cy="262.426" r="4" fill="#0" id="circle97"/>
	<circle cx="819.666" cy="278.644" r="4" fill="#0" id="circle98"/>
	<circle cx="834.599" cy="305.739" r="4" fill="#0" id="circle99"/>
	<circle cx="844.093" cy="330.187" r="4" fill="#0" id="circle100"/>
	<circle cx="858.405" cy="347.22" r="4" fill="#0" id="circle101"/>
	<circle cx="872.036" cy="388.367" r="4" fill="#0" id="circle102"/>
	<circle cx="895.17" cy="401.713" r="4" fill="#0" id="circle103"/>
	<circle cx="882.158" cy="447.449" r="4" fill="#0" id="circle104"/>
	<circle cx="894.632" cy="469.99" r="4" fill="#0" id="circle105"/>
	<circle cx="897.627" cy="501.242" r="4" fill="#0" id="circle106"/>
	<circle cx="896.976" cy="524.754" r="4" fill="#0" id="circle107"/>
	<circle cx="906.805" cy="555.305" r="4" fill="#0" id="circle108"/>
	<circle cx="913.535" cy="568.06" r="4" fill="#0" id="circle109"/>
	<circle cx="905.893" cy="593.415" r="4" fill="#0" id="circle110"/>
	<circle cx="894.616" cy="610.779" r="4" fill="#0" id="circle111"/>
	<circle cx="892.102" cy="651.544" r="4" fill="#0" id="circle112"/>
	<circle cx="873.112" cy="690.047" r="4" fill="#0" id="circle113"/>
	<circle cx="869.821" cy="703.211" r="4" fill="#0" id="circle114"/>
	<circle cx="847.482" cy="732.786" r="4" fill="#0" id="circle115"/>
	<circle cx="848.791" cy="748.13" r="4" fill="#0" id="circle116"/>
	<circle cx="413.206" cy="44.7004" r="4" fill="#0" id="circle117"/>
	<circle cx="414.343" cy="51.1083" r="4" fill="#0" id="circle118"/>
	<circle cx="398.976" cy="84.1168" r="4" fill="#0" id="circle119"/>
	<circle cx="403.146" cy="100.905" r="4" fill="#0" id="circle120"/>
	<circle cx="408.262" cy="127.752" r="4" fill="#0" id="circle121"/>
	<circle cx="400.949" cy="155.589" r="4" fill="#0" id="circle122"/>
	<circle cx="404.565" cy="186.396" r="4" fill="#0" id="circle123"/>
	<circle cx="408.828" cy="189.991" r="4" fill="#0" id="circle124"/>
	<circle cx="401.957" cy="214.905" r="4" fill="#0" id="circle125"/>
	<circle cx="526.224" cy="47.2864" r="4" fill="#0" id="circle126"/>
	<circle cx="516.839" cy="60.191" r="4" fill="#0" id="circle127"/>
	<circle cx="513.624" cy="84.0796" r="4" fill="#0" id="circle128"/>
	<circle cx="513.367" cy="110.786" r="4" fill="#0" id="circle129"/>
	<circle cx="508.597" cy="117.713" r="4" fill="#0" id="circle130"/>
	<circle cx="513.215" cy="151.154" r="4" fill="#0" id="circle131"/>
	<circle cx="516.405" cy="177.779" r="4" fill="#0" id="circle132"/>
	<circle cx="523.593" cy="180.276" r="4" fill="#0" id="circle133"/>
	<circle cx="511.112" cy="225.591" r="4" fill="#0" id="circle134"/>
	<circle cx="543.528" cy="230.812" r="4" fill="#0" id="circle135"/>
	<circle cx="555.828" cy="229.61" r="4" fill="#0" id="circle136"/>
	<circle cx="575.594" cy="248.728" r="4" fill="#0" id="circle137"/>
	<circle cx="598.539" cy="259.809" r="4" fill="#0" id="circle138"/>
	<circle cx="633.703" cy="274.717" r="4" fill="#0" id="circle139"/>
	<circle cx="636.079" cy="295.629" r="4" fill="#0" id="circle140"/>
	<circle cx="656.219" cy="300.493" r="4" fill="#0" id="circle141"/>
	<circle cx="691.565" cy="313.708" r="4" fill="#0" id="circle142"/>
	<circle cx="687.192" cy="319.407" r="4" fill="#0" id="circle143"/>
	<circle cx="708.305" cy="344.9" r="4" fill="#0" id="circle144"/>
	<circle cx="738.851" cy="363.703" r="4" fill="#0" id="circle145"/>
	<circle cx="740.518" cy="383.505" r="4" fill="#0" id="circle146"/>
	<circle cx="736.808" cy="394.513" r="4" fill="#0" id="circle147"/>
	<circle cx="748.793" cy="434.263" r="4" fill="#0" id="circle148"/>
	<circle cx="756.748" cy="450.989" r="4" fill="#0" id="circle149"/>
	<circle cx="776.018" cy="467.388" r="4" fill="#0" id="circle150"/>
	<circle cx="765.983" cy="491.577" r="4" fill="#0" id="circle151"/>
	<circle cx="776.859" cy="527.74" r="4" fill="#0" id="circle152"/>
	<circle cx="785.724" cy="565.253" r="4" fill="#0" id="circle153"/>
	<circle cx="764.714" cy="587.769" r="4" fill="#0" id="circle154"/>
	<circle cx="770.39" cy="604.177" r="4" fill="#0" id="circle155"/>
	<circle cx="758.465" cy="647.215" r="4" fill="#0" id="circle156"/>
	<circle cx="759.426" cy="660.196" r="4" fill="#0" id="circle157"/>
	<circle cx="735.123" cy="696.746" r="4" fill="#0" id="circle158"/>
	<circle cx="726.112" cy="709.547" r="4" fill="#0" id="circle159"/>
	<circle cx="707.599" cy="719.411" r="4" fill="#0" id="circle160"/>
	<circle cx="711.511" cy="752.369" r="4" fill="#0" id="circle161"/>
	<circle cx="683.363" cy="773.482" r="4" fill="#0" id="circle162"/>
	<circle cx="673.205" cy="788.071" r="4" fill="#0" id="circle163"/>
	<circle cx="647.362" cy="791.418" r="4" fill="#0" id="circle164"/>
	<circle cx="611.022" cy="809.447" r="4" fill="#0" id="circle165"/>
	<circle cx="590.775" cy="819.027" r="4" fill="#0" id="circle166"/>
	<circle cx="569.03" cy="842.868" r="4" fill="#0" id="circle167"/>
	<circle cx="544.657" cy="844.149" r="4" fill="#0" id="circle168"/>
	<circle cx="510.694" cy="860.87" r="4" fill="#0" id="circle169"/>
	<circle cx="494.499" cy="869.486" r="4" fill="#0" id="circle170"/>
	<circle cx="468.584" cy="854.296" r="4" fill="#0" id="circle171"/>
	<circle cx="435.992" cy="863.784" r="4" fill="#0" id="circle172"/>
	<circle cx="402.401" cy="865.304" r="4" fill="#0" id="circle173"/>
	<circle cx="370.343" cy="833.172" r="4" fill="#0" id="circle174"/>
	<circle cx="382.204" cy="230.893" r="4" fill="#0" id="circle175"/>
	<circle cx="354.385" cy="227.615" r="4" fill="#0" id="circle176"/>
	<circle cx="333.082" cy="252.204" r="4" fill="#0" id="circle177"/>
	<circle cx="294.333" cy="253.354" r="4" fill="#0" id="circle178"/>
	<circle cx="281.848" cy="280.389" r="4" fill="#0" id="circle179"/>
	<circle cx="252.502" cy="291.839" r="4" fill="#0" id="circle180"/>
	<circle cx="225.622" cy="311.131" r="4" fill="#0" id="circle181"/>
	<circle cx="221.419" cy="332.619" r="4" fill="#0" id="circle182"/>
	<circle cx="196.298" cy="344.037" r="4" fill="#0" id="circle183"/>
	<circle cx="173.554" cy="372.889" r="4" fill="#0" id="circle184"/>
	<circle cx="163.56" cy="404.064" r="4" fill="#0" id="circle185"/>
	<circle cx="165.356" cy="433.35" r="4" fill="#0" id="circle186"/>
	<circle cx="143.209" cy="441.316" r="4" fill="#0" id="circle187"/>
	<circle cx="150" cy="491.966" r="4" fill="#0" id="circle188"/>
	<circle cx="131.194" cy="507.922" r="4" fill="#0" id="circle189"/>
	<circle cx="150.312" cy="547.091" r="4" fill="#0" id="circle190"/>
	<circle cx="127.998" cy="568.542" r="4" fill="#0" id="circle191"/>
	<circle cx="154.648" cy="600.559" r="4" fill="#0" id="circle192"/>
	<circle cx="141.044" cy="636.435" r="4" fill="#0" id="circle193"/>
	<circle cx="171.122" cy="654.628" r="4" fill="#0" id="circle194"/>
	<circle cx="178.078" cy="673.212" r="4" fill="#0" id="circle195"/>
	<circle cx="178.199" cy="712.932" r="4" fill="#0" id="circle196"/>
	<circle cx="210.525" cy="734.682" r="4" fill="#0" id="circle197"/>
	<circle cx="215.779" cy="737.596" r="4" fill="#0" id="circle198"/>
	<circle cx="228.035" cy="766.219" r="4" fill="#0" id="circle199"/>
	<circle cx="257.941" cy="778.323" r="4" fill="#0" id="circle200"/>
	<circle cx="266.706" cy="794.663" r="4" fill="#0" id="circle201"/>
	<circle cx="288.414" cy="815.094" r="4" fill="#0" id="circle202"/>
	<circle cx="323.161" cy="814.7" r="4" fill="#0" id="circle203"/>
	<circle cx="340.749" cy="843.543" r="4" fill="#0" id="circle204"/>
	<circle cx="324.929" cy="56.721" r="4" fill="#0" id="circle205"/>
	<circle cx="339.447" cy="38.8678" r="4" fill="#0" id="circle206"/>
	<circle cx="366.851" cy="30.2328" r="4" fill="#0" id="circle207"/>
	<circle cx="385.936" cy="59.3946" r="4" fill="#0" id="circle208"/>
	<circle cx="367.063" cy="69.8237" r="4" fill="#0" id="circle209"/>
	<circle cx="328.312" cy="81.8786" r="4" fill="#0" id="circle210"/>
	<circle cx="329.032" cy="94.9127" r="4" fill="#0" id="circle211"/>
	<circle cx="357.436" cy="83.0754" r="4" fill="#0" id="circle212"/>
	<circle cx="376.229" cy="82.2902" r="4" fill="#0" id="circle213"/>
	<circle cx="375.286" cy="86.8786" r="4" fill="#0" id="circle214"/>
	<circle cx="567.956" cy="41.436" r="4" fill="#0" id="circle215"/>
	<circle cx="576.667" cy="33.7566" r="4" fill="#0" id="circle216"/>
	<circle cx="601.059" cy="56.1653" r="4" fill="#0" id="circle217"/>
	<circle cx="611.35" cy="61.81" r="4" fill="#0" id="circle218"/>
	<circle cx="609.994" cy="76.158" r="4" fill="#0" id="circle219"/>
	<circle cx="544.244" cy="55.291" r="4" fill="#0" id="circle220"/>
	<circle cx="557.165" cy="79.6948" r="4" fill="#0" id="circle221"/>
	<circle cx="562.728" cy="91.1281" r="4" fill="#0" id="circle222"/>
	<circle cx="580.957" cy="102.244" r="4" fill="#0" id="circle223"/>
	<circle cx="590.199" cy="104.661" r="4" fill="#0" id="circle224"/>
	</g>
</svg>