<?xml version="1.0" encoding="UTF-8" standalone="no"?>
<!-- Created with CurveBenchmark -->
<svg
	xmlns:dc="http://purl.org/dc/elements/1.1/"
	xmlns:cc="http://creativecommons.org/ns#"
	xmlns:rdf="http://www.w3.org/1999/02/22-rdf-syntax-ns#"
	xmlns:svg="http://www.w3.org/2000/svg"
	xmlns="http://www.w3.org/2000/svg"
	xmlns:sodipodi="http://sodipodi.sourceforge.net/DTD/sodipodi-0.dtd"
	xmlns:inkscape="http://www.inkscape.org/namespaces/inkscape"
	width="1000"
	height="1000"
	id="svg2"
	version="1.1"
	sodipodi:docname="noisy-0.01/crawl-mc26.txt">
<defs
	id="defs4" />
<metadata
	id="metadata7">
	<rdf:RDF>
		<cc:Work
			rdf:about="">
			<dc:format>image/svg+xml</dc:format>
			<dc:type
				rdf:resource="http://purl.org/dc/dcmitype/StillImage" />
			<dc:title></dc:title>
		</cc:Work>
	</rdf:RDF>
</metadata>
<g
	inkscape:label="Layer 1"
	inkscape:groupmode="layer"
	id="layer1">
	<path style="fill:none;stroke:red;stroke-width:1px;stroke-linecap:butt;stroke-linejoin:miter;stroke-opacity:1" d="M 607.158,664.035 502.894,690.208 z" id="boundary" inkscape:connector-curvature="0" />
	<path style="fill:none;stroke:red;stroke-width:1px;stroke-linecap:butt;stroke-linejoin:miter;stroke-opacity:1" d="M 607.158,664.035 673.747,562.092 z" id="boundary" inkscape:connector-curvature="0" />
	<path style="fill:none;stroke:red;stroke-width:1px;stroke-linecap:butt;stroke-linejoin:miter;stroke-opacity:1" d="M 502.894,690.208 386.917,652.532 z" id="boundary" inkscape:connector-curvature="0" />
	<path style="fill:none;stroke:red;stroke-width:1px;stroke-linecap:butt;stroke-linejoin:miter;stroke-opacity:1" d="M 386.917,652.532 291.927,572.329 z" id="boundary" inkscape:connector-curvature="0" />
	<path style="fill:none;stroke:red;stroke-width:1px;stroke-linecap:butt;stroke-linejoin:miter;stroke-opacity:1" d="M 291.927,572.329 319.642,458.597 z" id="boundary" inkscape:connector-curvature="0" />
	<path style="fill:none;stroke:red;stroke-width:1px;stroke-linecap:butt;stroke-linejoin:miter;stroke-opacity:1" d="M 673.747,562.092 679.586,436.343 z" id="boundary" inkscape:connector-curvature="0" />
	<path style="fill:none;stroke:red;stroke-width:1px;stroke-linecap:butt;stroke-linejoin:miter;stroke-opacity:1" d="M 679.586,436.343 614.309,348.07 z" id="boundary" inkscape:connector-curvature="0" />
	<path style="fill:none;stroke:red;stroke-width:1px;stroke-linecap:butt;stroke-linejoin:miter;stroke-opacity:1" d="M 614.309,348.07 499.767,316.342 z" id="boundary" inkscape:connector-curvature="0" />
	<path style="fill:none;stroke:red;stroke-width:1px;stroke-linecap:butt;stroke-linejoin:miter;stroke-opacity:1" d="M 499.767,316.342 398.549,356.618 z" id="boundary" inkscape:connector-curvature="0" />
	<path style="fill:none;stroke:red;stroke-width:1px;stroke-linecap:butt;stroke-linejoin:miter;stroke-opacity:1" d="M 398.549,356.618 319.642,458.597 z" id="boundary" inkscape:connector-curvature="0" />
	<path style="fill:none;stroke:red;stroke-width:1px;stroke-linecap:butt;stroke-linejoin:miter;stroke-opacity:1" d="M 202.075,906.345 481.468,996 z" id="boundary" inkscape:connector-curvature="0" />
	<path style="fill:none;stroke:red;stroke-width:1px;stroke-linecap:butt;stroke-linejoin:miter;stroke-opacity:1" d="M 202.075,906.345 5.58535,651.617 z" id="boundary" inkscape:connector-curvature="0" />
	<path style="fill:none;stroke:red;stroke-width:1px;stroke-linecap:butt;stroke-linejoin:miter;stroke-opacity:1" d="M 5.58535,651.617 4,354.347 z" id="boundary" inkscape:connector-curvature="0" />
	<path style="fill:none;stroke:red;stroke-width:1px;stroke-linecap:butt;stroke-linejoin:miter;stroke-opacity:1" d="M 4,354.347 186.067,105.924 z" id="boundary" inkscape:connector-curvature="0" />
	<path style="fill:none;stroke:red;stroke-width:1px;stroke-linecap:butt;stroke-linejoin:miter;stroke-opacity:1" d="M 186.067,105.924 500.198,4 z" id="boundary" inkscape:connector-curvature="0" />
	<path style="fill:none;stroke:red;stroke-width:1px;stroke-linecap:butt;stroke-linejoin:miter;stroke-opacity:1" d="M 500.198,4 786.785,93.2285 z" id="boundary" inkscape:connector-curvature="0" />
	<path style="fill:none;stroke:red;stroke-width:1px;stroke-linecap:butt;stroke-linejoin:miter;stroke-opacity:1" d="M 481.468,996 800.507,909.187 z" id="boundary" inkscape:connector-curvature="0" />
	<path style="fill:none;stroke:red;stroke-width:1px;stroke-linecap:butt;stroke-linejoin:miter;stroke-opacity:1" d="M 800.507,909.187 984.68,653.196 z" id="boundary" inkscape:connector-curvature="0" />
	<path style="fill:none;stroke:red;stroke-width:1px;stroke-linecap:butt;stroke-linejoin:miter;stroke-opacity:1" d="M 984.68,653.196 988.038,358.554 z" id="boundary" inkscape:connector-curvature="0" />
	<circle cx="4" cy="354.347" r="4" fill="#0" id="circle0"/>
	<circle cx="5.58535" cy="651.617" r="4" fill="#0" id="circle1"/>
	<circle cx="186.067" cy="105.924" r="4" fill="#0" id="circle2"/>
	<circle cx="202.075" cy="906.345" r="4" fill="#0" id="circle3"/>
	<circle cx="500.198" cy="4" r="4" fill="#0" id="circle4"/>
	<circle cx="499.767" cy="316.342" r="4" fill="#0" id="circle5"/>
	<circle cx="502.894" cy="690.208" r="4" fill="#0" id="circle6"/>
	<circle cx="481.468" cy="996" r="4" fill="#0" id="circle7"/>
	<circle cx="786.785" cy="93.2285" r="4" fill="#0" id="circle8"/>
	<circle cx="800.507" cy="909.187" r="4" fill="#0" id="circle9"/>
	<circle cx="988.038" cy="358.554" r="4" fill="#0" id="circle10"/>
	<circle cx="984.68" cy="653.196" r="4" fill="#0" id="circle11"/>
	<circle cx="398.549" cy="356.618" r="4" fill="#0" id="circle12"/>
	<circle cx="319.642" cy="458.597" r="4" fill="#0" id="circle13"/>
	<circle cx="291.927" cy="572.329" r="4" fill="#0" id="circle14"/>
	<circle cx="386.917" cy="652.532" r="4" fill="#0" id="circle15"/>
	<circle cx="607.158" cy="664.035" r="4" fill="#0" id="circle16"/>
	<circle cx="673.747" cy="562.092" r="4" fill="#0" id="circle17"/>
	<circle cx="679.586" cy="436.343" r="4" fill="#0" id="circle18"/>
	<circle cx="614.309" cy="348.07" r="4" fill="#0" id="circle19"/>
	</g>
</svg>