<?xml version="1.0" encoding="UTF-8" standalone="no"?>
<!-- Created with CurveBenchmark -->
<svg
	xmlns:dc="http://purl.org/dc/elements/1.1/"
	xmlns:cc="http://creativecommons.org/ns#"
	xmlns:rdf="http://www.w3.org/1999/02/22-rdf-syntax-ns#"
	xmlns:svg="http://www.w3.org/2000/svg"
	xmlns="http://www.w3.org/2000/svg"
	xmlns:sodipodi="http://sodipodi.sourceforge.net/DTD/sodipodi-0.dtd"
	xmlns:inkscape="http://www.inkscape.org/namespaces/inkscape"
	width="1000"
	height="1000"
	id="svg2"
	version="1.1"
	sodipodi:docname="noisy-0.01/crust-mc19.txt">
<defs
	id="defs4" />
<metadata
	id="metadata7">
	<rdf:RDF>
		<cc:Work
			rdf:about="">
			<dc:format>image/svg+xml</dc:format>
			<dc:type
				rdf:resource="http://purl.org/dc/dcmitype/StillImage" />
			<dc:title></dc:title>
		</cc:Work>
	</rdf:RDF>
</metadata>
<g
	inkscape:label="Layer 1"
	inkscape:groupmode="layer"
	id="layer1">
	<path style="fill:none;stroke:red;stroke-width:1px;stroke-linecap:butt;stroke-linejoin:miter;stroke-opacity:1" d="M 86.4687,576.912 4,679.81 z" id="boundary" inkscape:connector-curvature="0" />
	<path style="fill:none;stroke:red;stroke-width:1px;stroke-linecap:butt;stroke-linejoin:miter;stroke-opacity:1" d="M 65.439,732.097 4,679.81 z" id="boundary" inkscape:connector-curvature="0" />
	<path style="fill:none;stroke:red;stroke-width:1px;stroke-linecap:butt;stroke-linejoin:miter;stroke-opacity:1" d="M 86.4687,576.912 244.788,453.352 z" id="boundary" inkscape:connector-curvature="0" />
	<path style="fill:none;stroke:red;stroke-width:1px;stroke-linecap:butt;stroke-linejoin:miter;stroke-opacity:1" d="M 65.439,732.097 181.178,778.13 z" id="boundary" inkscape:connector-curvature="0" />
	<path style="fill:none;stroke:red;stroke-width:1px;stroke-linecap:butt;stroke-linejoin:miter;stroke-opacity:1" d="M 181.178,778.13 302.806,809.392 z" id="boundary" inkscape:connector-curvature="0" />
	<path style="fill:none;stroke:red;stroke-width:1px;stroke-linecap:butt;stroke-linejoin:miter;stroke-opacity:1" d="M 312.808,810.151 302.806,809.392 z" id="boundary" inkscape:connector-curvature="0" />
	<path style="fill:none;stroke:red;stroke-width:1px;stroke-linecap:butt;stroke-linejoin:miter;stroke-opacity:1" d="M 369.524,786.663 312.808,810.151 z" id="boundary" inkscape:connector-curvature="0" />
	<path style="fill:none;stroke:red;stroke-width:1px;stroke-linecap:butt;stroke-linejoin:miter;stroke-opacity:1" d="M 361.903,429.152 244.788,453.352 z" id="boundary" inkscape:connector-curvature="0" />
	<path style="fill:none;stroke:red;stroke-width:1px;stroke-linecap:butt;stroke-linejoin:miter;stroke-opacity:1" d="M 440.879,780.44 369.524,786.663 z" id="boundary" inkscape:connector-curvature="0" />
	<path style="fill:none;stroke:red;stroke-width:1px;stroke-linecap:butt;stroke-linejoin:miter;stroke-opacity:1" d="M 361.903,429.152 471.192,448.841 z" id="boundary" inkscape:connector-curvature="0" />
	<path style="fill:none;stroke:red;stroke-width:1px;stroke-linecap:butt;stroke-linejoin:miter;stroke-opacity:1" d="M 334.913,884.884 329.708,863.96 z" id="boundary" inkscape:connector-curvature="0" />
	<path style="fill:none;stroke:red;stroke-width:1px;stroke-linecap:butt;stroke-linejoin:miter;stroke-opacity:1" d="M 334.913,884.884 329.071,916.483 z" id="boundary" inkscape:connector-curvature="0" />
	<path style="fill:none;stroke:red;stroke-width:1px;stroke-linecap:butt;stroke-linejoin:miter;stroke-opacity:1" d="M 351.25,918.892 329.071,916.483 z" id="boundary" inkscape:connector-curvature="0" />
	<path style="fill:none;stroke:red;stroke-width:1px;stroke-linecap:butt;stroke-linejoin:miter;stroke-opacity:1" d="M 371.494,901.256 351.25,918.892 z" id="boundary" inkscape:connector-curvature="0" />
	<path style="fill:none;stroke:red;stroke-width:1px;stroke-linecap:butt;stroke-linejoin:miter;stroke-opacity:1" d="M 351.357,845.285 381.555,877.836 z" id="boundary" inkscape:connector-curvature="0" />
	<path style="fill:none;stroke:red;stroke-width:1px;stroke-linecap:butt;stroke-linejoin:miter;stroke-opacity:1" d="M 329.708,863.96 351.357,845.285 z" id="boundary" inkscape:connector-curvature="0" />
	<path style="fill:none;stroke:red;stroke-width:1px;stroke-linecap:butt;stroke-linejoin:miter;stroke-opacity:1" d="M 381.555,877.836 371.494,901.256 z" id="boundary" inkscape:connector-curvature="0" />
	<path style="fill:none;stroke:red;stroke-width:1px;stroke-linecap:butt;stroke-linejoin:miter;stroke-opacity:1" d="M 270.76,971.993 304.037,965.59 z" id="boundary" inkscape:connector-curvature="0" />
	<path style="fill:none;stroke:red;stroke-width:1px;stroke-linecap:butt;stroke-linejoin:miter;stroke-opacity:1" d="M 327.394,942.337 304.037,965.59 z" id="boundary" inkscape:connector-curvature="0" />
	<path style="fill:none;stroke:red;stroke-width:1px;stroke-linecap:butt;stroke-linejoin:miter;stroke-opacity:1" d="M 340.054,981.894 326.382,978.525 z" id="boundary" inkscape:connector-curvature="0" />
	<path style="fill:none;stroke:red;stroke-width:1px;stroke-linecap:butt;stroke-linejoin:miter;stroke-opacity:1" d="M 326.382,978.525 316.509,994 z" id="boundary" inkscape:connector-curvature="0" />
	<path style="fill:none;stroke:red;stroke-width:1px;stroke-linecap:butt;stroke-linejoin:miter;stroke-opacity:1" d="M 329.071,916.483 327.394,942.337 z" id="boundary" inkscape:connector-curvature="0" />
	<path style="fill:none;stroke:red;stroke-width:1px;stroke-linecap:butt;stroke-linejoin:miter;stroke-opacity:1" d="M 260.395,984.23 251.861,994.002 z" id="boundary" inkscape:connector-curvature="0" />
	<path style="fill:none;stroke:red;stroke-width:1px;stroke-linecap:butt;stroke-linejoin:miter;stroke-opacity:1" d="M 270.76,971.993 260.395,984.23 z" id="boundary" inkscape:connector-curvature="0" />
	<path style="fill:none;stroke:red;stroke-width:1px;stroke-linecap:butt;stroke-linejoin:miter;stroke-opacity:1" d="M 251.861,994.002 246.168,994.409 z" id="boundary" inkscape:connector-curvature="0" />
	<path style="fill:none;stroke:red;stroke-width:1px;stroke-linecap:butt;stroke-linejoin:miter;stroke-opacity:1" d="M 316.509,994 294.739,992.894 z" id="boundary" inkscape:connector-curvature="0" />
	<path style="fill:none;stroke:red;stroke-width:1px;stroke-linecap:butt;stroke-linejoin:miter;stroke-opacity:1" d="M 356.753,949.642 357.86,950.176 z" id="boundary" inkscape:connector-curvature="0" />
	<path style="fill:none;stroke:red;stroke-width:1px;stroke-linecap:butt;stroke-linejoin:miter;stroke-opacity:1" d="M 402.856,981.33 383.588,965.657 z" id="boundary" inkscape:connector-curvature="0" />
	<path style="fill:none;stroke:red;stroke-width:1px;stroke-linecap:butt;stroke-linejoin:miter;stroke-opacity:1" d="M 366.394,969.053 357.86,950.176 z" id="boundary" inkscape:connector-curvature="0" />
	<path style="fill:none;stroke:red;stroke-width:1px;stroke-linecap:butt;stroke-linejoin:miter;stroke-opacity:1" d="M 383.588,965.657 366.394,969.053 z" id="boundary" inkscape:connector-curvature="0" />
	<path style="fill:none;stroke:red;stroke-width:1px;stroke-linecap:butt;stroke-linejoin:miter;stroke-opacity:1" d="M 348.496,982.917 340.054,981.894 z" id="boundary" inkscape:connector-curvature="0" />
	<path style="fill:none;stroke:red;stroke-width:1px;stroke-linecap:butt;stroke-linejoin:miter;stroke-opacity:1" d="M 348.496,982.917 368.776,991.077 z" id="boundary" inkscape:connector-curvature="0" />
	<path style="fill:none;stroke:red;stroke-width:1px;stroke-linecap:butt;stroke-linejoin:miter;stroke-opacity:1" d="M 402.856,981.33 404.404,996 z" id="boundary" inkscape:connector-curvature="0" />
	<path style="fill:none;stroke:red;stroke-width:1px;stroke-linecap:butt;stroke-linejoin:miter;stroke-opacity:1" d="M 580.829,19.4029 557.606,46.3996 z" id="boundary" inkscape:connector-curvature="0" />
	<path style="fill:none;stroke:red;stroke-width:1px;stroke-linecap:butt;stroke-linejoin:miter;stroke-opacity:1" d="M 580.829,19.4029 618.36,4 z" id="boundary" inkscape:connector-curvature="0" />
	<path style="fill:none;stroke:red;stroke-width:1px;stroke-linecap:butt;stroke-linejoin:miter;stroke-opacity:1" d="M 580.829,19.4029 600.47,36.8167 z" id="boundary" inkscape:connector-curvature="0" />
	<path style="fill:none;stroke:red;stroke-width:1px;stroke-linecap:butt;stroke-linejoin:miter;stroke-opacity:1" d="M 508.408,70.1743 557.606,46.3996 z" id="boundary" inkscape:connector-curvature="0" />
	<path style="fill:none;stroke:red;stroke-width:1px;stroke-linecap:butt;stroke-linejoin:miter;stroke-opacity:1" d="M 508.408,70.1743 477.197,78.6908 z" id="boundary" inkscape:connector-curvature="0" />
	<path style="fill:none;stroke:red;stroke-width:1px;stroke-linecap:butt;stroke-linejoin:miter;stroke-opacity:1" d="M 607.528,48.1493 600.47,36.8167 z" id="boundary" inkscape:connector-curvature="0" />
	<path style="fill:none;stroke:red;stroke-width:1px;stroke-linecap:butt;stroke-linejoin:miter;stroke-opacity:1" d="M 480.619,95.854 477.197,78.6908 z" id="boundary" inkscape:connector-curvature="0" />
	<path style="fill:none;stroke:red;stroke-width:1px;stroke-linecap:butt;stroke-linejoin:miter;stroke-opacity:1" d="M 508.408,70.1743 513.178,96.4838 z" id="boundary" inkscape:connector-curvature="0" />
	<path style="fill:none;stroke:red;stroke-width:1px;stroke-linecap:butt;stroke-linejoin:miter;stroke-opacity:1" d="M 480.619,95.854 513.178,96.4838 z" id="boundary" inkscape:connector-curvature="0" />
	<path style="fill:none;stroke:red;stroke-width:1px;stroke-linecap:butt;stroke-linejoin:miter;stroke-opacity:1" d="M 529.878,110.916 513.178,96.4838 z" id="boundary" inkscape:connector-curvature="0" />
	<path style="fill:none;stroke:red;stroke-width:1px;stroke-linecap:butt;stroke-linejoin:miter;stroke-opacity:1" d="M 636.962,76.1997 599.825,99.8966 z" id="boundary" inkscape:connector-curvature="0" />
	<path style="fill:none;stroke:red;stroke-width:1px;stroke-linecap:butt;stroke-linejoin:miter;stroke-opacity:1" d="M 529.878,110.916 561.069,97.1881 z" id="boundary" inkscape:connector-curvature="0" />
	<path style="fill:none;stroke:red;stroke-width:1px;stroke-linecap:butt;stroke-linejoin:miter;stroke-opacity:1" d="M 599.825,99.8966 561.069,97.1881 z" id="boundary" inkscape:connector-curvature="0" />
	<path style="fill:none;stroke:red;stroke-width:1px;stroke-linecap:butt;stroke-linejoin:miter;stroke-opacity:1" d="M 607.528,48.1493 617.307,50.3861 z" id="boundary" inkscape:connector-curvature="0" />
	<path style="fill:none;stroke:red;stroke-width:1px;stroke-linecap:butt;stroke-linejoin:miter;stroke-opacity:1" d="M 618.36,4 642.107,4.63039 z" id="boundary" inkscape:connector-curvature="0" />
	<path style="fill:none;stroke:red;stroke-width:1px;stroke-linecap:butt;stroke-linejoin:miter;stroke-opacity:1" d="M 627.179,50.2421 617.307,50.3861 z" id="boundary" inkscape:connector-curvature="0" />
	<path style="fill:none;stroke:red;stroke-width:1px;stroke-linecap:butt;stroke-linejoin:miter;stroke-opacity:1" d="M 642.107,4.63039 706.15,18.6752 z" id="boundary" inkscape:connector-curvature="0" />
	<path style="fill:none;stroke:red;stroke-width:1px;stroke-linecap:butt;stroke-linejoin:miter;stroke-opacity:1" d="M 738.128,35.35 706.15,18.6752 z" id="boundary" inkscape:connector-curvature="0" />
	<path style="fill:none;stroke:red;stroke-width:1px;stroke-linecap:butt;stroke-linejoin:miter;stroke-opacity:1" d="M 628.677,56.3598 627.179,50.2421 z" id="boundary" inkscape:connector-curvature="0" />
	<path style="fill:none;stroke:red;stroke-width:1px;stroke-linecap:butt;stroke-linejoin:miter;stroke-opacity:1" d="M 636.962,76.1997 628.677,56.3598 z" id="boundary" inkscape:connector-curvature="0" />
	<path style="fill:none;stroke:red;stroke-width:1px;stroke-linecap:butt;stroke-linejoin:miter;stroke-opacity:1" d="M 738.128,35.35 792.039,91.6596 z" id="boundary" inkscape:connector-curvature="0" />
	<path style="fill:none;stroke:red;stroke-width:1px;stroke-linecap:butt;stroke-linejoin:miter;stroke-opacity:1" d="M 706.699,103.381 701.473,74.8677 z" id="boundary" inkscape:connector-curvature="0" />
	<path style="fill:none;stroke:red;stroke-width:1px;stroke-linecap:butt;stroke-linejoin:miter;stroke-opacity:1" d="M 792.039,91.6596 797.393,117.147 z" id="boundary" inkscape:connector-curvature="0" />
	<path style="fill:none;stroke:red;stroke-width:1px;stroke-linecap:butt;stroke-linejoin:miter;stroke-opacity:1" d="M 677.242,325.201 583.758,424.434 z" id="boundary" inkscape:connector-curvature="0" />
	<path style="fill:none;stroke:red;stroke-width:1px;stroke-linecap:butt;stroke-linejoin:miter;stroke-opacity:1" d="M 471.192,448.841 583.758,424.434 z" id="boundary" inkscape:connector-curvature="0" />
	<path style="fill:none;stroke:red;stroke-width:1px;stroke-linecap:butt;stroke-linejoin:miter;stroke-opacity:1" d="M 746.924,170.919 709.469,253.465 z" id="boundary" inkscape:connector-curvature="0" />
	<path style="fill:none;stroke:red;stroke-width:1px;stroke-linecap:butt;stroke-linejoin:miter;stroke-opacity:1" d="M 709.469,253.465 677.242,325.201 z" id="boundary" inkscape:connector-curvature="0" />
	<path style="fill:none;stroke:red;stroke-width:1px;stroke-linecap:butt;stroke-linejoin:miter;stroke-opacity:1" d="M 667.445,706.756 592.002,752.938 z" id="boundary" inkscape:connector-curvature="0" />
	<path style="fill:none;stroke:red;stroke-width:1px;stroke-linecap:butt;stroke-linejoin:miter;stroke-opacity:1" d="M 440.879,780.44 592.002,752.938 z" id="boundary" inkscape:connector-curvature="0" />
	<path style="fill:none;stroke:red;stroke-width:1px;stroke-linecap:butt;stroke-linejoin:miter;stroke-opacity:1" d="M 743.977,627.511 667.445,706.756 z" id="boundary" inkscape:connector-curvature="0" />
	<path style="fill:none;stroke:red;stroke-width:1px;stroke-linecap:butt;stroke-linejoin:miter;stroke-opacity:1" d="M 706.699,103.381 746.924,170.919 z" id="boundary" inkscape:connector-curvature="0" />
	<path style="fill:none;stroke:red;stroke-width:1px;stroke-linecap:butt;stroke-linejoin:miter;stroke-opacity:1" d="M 797.393,117.147 825.634,184.185 z" id="boundary" inkscape:connector-curvature="0" />
	<path style="fill:none;stroke:red;stroke-width:1px;stroke-linecap:butt;stroke-linejoin:miter;stroke-opacity:1" d="M 812.426,270.618 828.483,211.796 z" id="boundary" inkscape:connector-curvature="0" />
	<path style="fill:none;stroke:red;stroke-width:1px;stroke-linecap:butt;stroke-linejoin:miter;stroke-opacity:1" d="M 825.634,184.185 828.483,211.796 z" id="boundary" inkscape:connector-curvature="0" />
	<path style="fill:none;stroke:red;stroke-width:1px;stroke-linecap:butt;stroke-linejoin:miter;stroke-opacity:1" d="M 812.426,270.618 809.041,327.126 z" id="boundary" inkscape:connector-curvature="0" />
	<path style="fill:none;stroke:red;stroke-width:1px;stroke-linecap:butt;stroke-linejoin:miter;stroke-opacity:1" d="M 789.846,436.888 780.038,369.496 z" id="boundary" inkscape:connector-curvature="0" />
	<path style="fill:none;stroke:red;stroke-width:1px;stroke-linecap:butt;stroke-linejoin:miter;stroke-opacity:1" d="M 809.041,327.126 780.038,369.496 z" id="boundary" inkscape:connector-curvature="0" />
	<path style="fill:none;stroke:red;stroke-width:1px;stroke-linecap:butt;stroke-linejoin:miter;stroke-opacity:1" d="M 791.229,520.381 789.846,436.888 z" id="boundary" inkscape:connector-curvature="0" />
	<path style="fill:none;stroke:red;stroke-width:1px;stroke-linecap:butt;stroke-linejoin:miter;stroke-opacity:1" d="M 743.977,627.511 776.562,549.864 z" id="boundary" inkscape:connector-curvature="0" />
	<path style="fill:none;stroke:red;stroke-width:1px;stroke-linecap:butt;stroke-linejoin:miter;stroke-opacity:1" d="M 791.229,520.381 776.562,549.864 z" id="boundary" inkscape:connector-curvature="0" />
	<circle cx="4" cy="679.81" r="4" fill="#0" id="circle0"/>
	<circle cx="65.439" cy="732.097" r="4" fill="#0" id="circle1"/>
	<circle cx="86.4687" cy="576.912" r="4" fill="#0" id="circle2"/>
	<circle cx="181.178" cy="778.13" r="4" fill="#0" id="circle3"/>
	<circle cx="244.788" cy="453.352" r="4" fill="#0" id="circle4"/>
	<circle cx="246.168" cy="994.409" r="4" fill="#0" id="circle5"/>
	<circle cx="260.395" cy="984.23" r="4" fill="#0" id="circle6"/>
	<circle cx="251.861" cy="994.002" r="4" fill="#0" id="circle7"/>
	<circle cx="270.76" cy="971.993" r="4" fill="#0" id="circle8"/>
	<circle cx="294.739" cy="992.894" r="4" fill="#0" id="circle9"/>
	<circle cx="302.806" cy="809.392" r="4" fill="#0" id="circle10"/>
	<circle cx="304.037" cy="965.59" r="4" fill="#0" id="circle11"/>
	<circle cx="316.509" cy="994" r="4" fill="#0" id="circle12"/>
	<circle cx="326.382" cy="978.525" r="4" fill="#0" id="circle13"/>
	<circle cx="312.808" cy="810.151" r="4" fill="#0" id="circle14"/>
	<circle cx="327.394" cy="942.337" r="4" fill="#0" id="circle15"/>
	<circle cx="329.708" cy="863.96" r="4" fill="#0" id="circle16"/>
	<circle cx="329.071" cy="916.483" r="4" fill="#0" id="circle17"/>
	<circle cx="334.913" cy="884.884" r="4" fill="#0" id="circle18"/>
	<circle cx="340.054" cy="981.894" r="4" fill="#0" id="circle19"/>
	<circle cx="351.357" cy="845.285" r="4" fill="#0" id="circle20"/>
	<circle cx="356.753" cy="949.642" r="4" fill="#0" id="circle21"/>
	<circle cx="361.903" cy="429.152" r="4" fill="#0" id="circle22"/>
	<circle cx="348.496" cy="982.917" r="4" fill="#0" id="circle23"/>
	<circle cx="369.524" cy="786.663" r="4" fill="#0" id="circle24"/>
	<circle cx="357.86" cy="950.176" r="4" fill="#0" id="circle25"/>
	<circle cx="366.394" cy="969.053" r="4" fill="#0" id="circle26"/>
	<circle cx="351.25" cy="918.892" r="4" fill="#0" id="circle27"/>
	<circle cx="381.555" cy="877.836" r="4" fill="#0" id="circle28"/>
	<circle cx="371.494" cy="901.256" r="4" fill="#0" id="circle29"/>
	<circle cx="383.588" cy="965.657" r="4" fill="#0" id="circle30"/>
	<circle cx="368.776" cy="991.077" r="4" fill="#0" id="circle31"/>
	<circle cx="402.856" cy="981.33" r="4" fill="#0" id="circle32"/>
	<circle cx="404.404" cy="996" r="4" fill="#0" id="circle33"/>
	<circle cx="440.879" cy="780.44" r="4" fill="#0" id="circle34"/>
	<circle cx="471.192" cy="448.841" r="4" fill="#0" id="circle35"/>
	<circle cx="480.619" cy="95.854" r="4" fill="#0" id="circle36"/>
	<circle cx="477.197" cy="78.6908" r="4" fill="#0" id="circle37"/>
	<circle cx="513.178" cy="96.4838" r="4" fill="#0" id="circle38"/>
	<circle cx="508.408" cy="70.1743" r="4" fill="#0" id="circle39"/>
	<circle cx="529.878" cy="110.916" r="4" fill="#0" id="circle40"/>
	<circle cx="561.069" cy="97.1881" r="4" fill="#0" id="circle41"/>
	<circle cx="557.606" cy="46.3996" r="4" fill="#0" id="circle42"/>
	<circle cx="583.758" cy="424.434" r="4" fill="#0" id="circle43"/>
	<circle cx="592.002" cy="752.938" r="4" fill="#0" id="circle44"/>
	<circle cx="580.829" cy="19.4029" r="4" fill="#0" id="circle45"/>
	<circle cx="599.825" cy="99.8966" r="4" fill="#0" id="circle46"/>
	<circle cx="618.36" cy="4" r="4" fill="#0" id="circle47"/>
	<circle cx="642.107" cy="4.63039" r="4" fill="#0" id="circle48"/>
	<circle cx="636.962" cy="76.1997" r="4" fill="#0" id="circle49"/>
	<circle cx="677.242" cy="325.201" r="4" fill="#0" id="circle50"/>
	<circle cx="667.445" cy="706.756" r="4" fill="#0" id="circle51"/>
	<circle cx="701.473" cy="74.8677" r="4" fill="#0" id="circle52"/>
	<circle cx="706.15" cy="18.6752" r="4" fill="#0" id="circle53"/>
	<circle cx="706.699" cy="103.381" r="4" fill="#0" id="circle54"/>
	<circle cx="709.469" cy="253.465" r="4" fill="#0" id="circle55"/>
	<circle cx="738.128" cy="35.35" r="4" fill="#0" id="circle56"/>
	<circle cx="746.924" cy="170.919" r="4" fill="#0" id="circle57"/>
	<circle cx="743.977" cy="627.511" r="4" fill="#0" id="circle58"/>
	<circle cx="776.562" cy="549.864" r="4" fill="#0" id="circle59"/>
	<circle cx="791.229" cy="520.381" r="4" fill="#0" id="circle60"/>
	<circle cx="789.846" cy="436.888" r="4" fill="#0" id="circle61"/>
	<circle cx="780.038" cy="369.496" r="4" fill="#0" id="circle62"/>
	<circle cx="792.039" cy="91.6596" r="4" fill="#0" id="circle63"/>
	<circle cx="797.393" cy="117.147" r="4" fill="#0" id="circle64"/>
	<circle cx="809.041" cy="327.126" r="4" fill="#0" id="circle65"/>
	<circle cx="812.426" cy="270.618" r="4" fill="#0" id="circle66"/>
	<circle cx="825.634" cy="184.185" r="4" fill="#0" id="circle67"/>
	<circle cx="828.483" cy="211.796" r="4" fill="#0" id="circle68"/>
	<circle cx="607.528" cy="48.1493" r="4" fill="#0" id="circle69"/>
	<circle cx="617.307" cy="50.3861" r="4" fill="#0" id="circle70"/>
	<circle cx="628.677" cy="56.3598" r="4" fill="#0" id="circle71"/>
	<circle cx="627.179" cy="50.2421" r="4" fill="#0" id="circle72"/>
	<circle cx="600.47" cy="36.8167" r="4" fill="#0" id="circle73"/>
	</g>
</svg>