<?xml version="1.0" encoding="UTF-8" standalone="no"?>
<!-- Created with CurveBenchmark -->
<svg
	xmlns:dc="http://purl.org/dc/elements/1.1/"
	xmlns:cc="http://creativecommons.org/ns#"
	xmlns:rdf="http://www.w3.org/1999/02/22-rdf-syntax-ns#"
	xmlns:svg="http://www.w3.org/2000/svg"
	xmlns="http://www.w3.org/2000/svg"
	xmlns:sodipodi="http://sodipodi.sourceforge.net/DTD/sodipodi-0.dtd"
	xmlns:inkscape="http://www.inkscape.org/namespaces/inkscape"
	width="1000"
	height="1000"
	id="svg2"
	version="1.1"
	sodipodi:docname="noisy-0.01/fitconnect-mc9.txt">
<defs
	id="defs4" />
<metadata
	id="metadata7">
	<rdf:RDF>
		<cc:Work
			rdf:about="">
			<dc:format>image/svg+xml</dc:format>
			<dc:type
				rdf:resource="http://purl.org/dc/dcmitype/StillImage" />
			<dc:title></dc:title>
		</cc:Work>
	</rdf:RDF>
</metadata>
<g
	inkscape:label="Layer 1"
	inkscape:groupmode="layer"
	id="layer1">
	<path style="fill:none;stroke:red;stroke-width:1px;stroke-linecap:butt;stroke-linejoin:miter;stroke-opacity:1" d="M 202.469,152.484 232.652,159.538 z" id="boundary" inkscape:connector-curvature="0" />
	<path style="fill:none;stroke:red;stroke-width:1px;stroke-linecap:butt;stroke-linejoin:miter;stroke-opacity:1" d="M 202.469,152.484 189.568,240.909 z" id="boundary" inkscape:connector-curvature="0" />
	<path style="fill:none;stroke:red;stroke-width:1px;stroke-linecap:butt;stroke-linejoin:miter;stroke-opacity:1" d="M 146.996,396.87 153.612,422.995 z" id="boundary" inkscape:connector-curvature="0" />
	<path style="fill:none;stroke:red;stroke-width:1px;stroke-linecap:butt;stroke-linejoin:miter;stroke-opacity:1" d="M 146.996,396.87 189.568,240.909 z" id="boundary" inkscape:connector-curvature="0" />
	<path style="fill:none;stroke:red;stroke-width:1px;stroke-linecap:butt;stroke-linejoin:miter;stroke-opacity:1" d="M 153.612,422.995 171.581,461.527 z" id="boundary" inkscape:connector-curvature="0" />
	<path style="fill:none;stroke:red;stroke-width:1px;stroke-linecap:butt;stroke-linejoin:miter;stroke-opacity:1" d="M 171.581,461.527 201.15,489.775 z" id="boundary" inkscape:connector-curvature="0" />
	<path style="fill:none;stroke:red;stroke-width:1px;stroke-linecap:butt;stroke-linejoin:miter;stroke-opacity:1" d="M 201.15,489.775 233.231,499.169 z" id="boundary" inkscape:connector-curvature="0" />
	<path style="fill:none;stroke:red;stroke-width:1px;stroke-linecap:butt;stroke-linejoin:miter;stroke-opacity:1" d="M 233.231,499.169 271.683,520.269 z" id="boundary" inkscape:connector-curvature="0" />
	<path style="fill:none;stroke:red;stroke-width:1px;stroke-linecap:butt;stroke-linejoin:miter;stroke-opacity:1" d="M 271.683,520.269 293.293,550.156 z" id="boundary" inkscape:connector-curvature="0" />
	<path style="fill:none;stroke:red;stroke-width:1px;stroke-linecap:butt;stroke-linejoin:miter;stroke-opacity:1" d="M 293.293,550.156 316.938,551.635 z" id="boundary" inkscape:connector-curvature="0" />
	<path style="fill:none;stroke:red;stroke-width:1px;stroke-linecap:butt;stroke-linejoin:miter;stroke-opacity:1" d="M 316.938,551.635 340.255,553.201 z" id="boundary" inkscape:connector-curvature="0" />
	<path style="fill:none;stroke:red;stroke-width:1px;stroke-linecap:butt;stroke-linejoin:miter;stroke-opacity:1" d="M 340.255,553.201 364.125,560.281 z" id="boundary" inkscape:connector-curvature="0" />
	<path style="fill:none;stroke:red;stroke-width:1px;stroke-linecap:butt;stroke-linejoin:miter;stroke-opacity:1" d="M 364.125,560.281 375.944,559.613 z" id="boundary" inkscape:connector-curvature="0" />
	<path style="fill:none;stroke:red;stroke-width:1px;stroke-linecap:butt;stroke-linejoin:miter;stroke-opacity:1" d="M 375.944,559.613 397.366,577.012 z" id="boundary" inkscape:connector-curvature="0" />
	<path style="fill:none;stroke:red;stroke-width:1px;stroke-linecap:butt;stroke-linejoin:miter;stroke-opacity:1" d="M 397.366,577.012 406.56,563.991 z" id="boundary" inkscape:connector-curvature="0" />
	<path style="fill:none;stroke:red;stroke-width:1px;stroke-linecap:butt;stroke-linejoin:miter;stroke-opacity:1" d="M 406.56,563.991 441.699,566.411 z" id="boundary" inkscape:connector-curvature="0" />
	<path style="fill:none;stroke:red;stroke-width:1px;stroke-linecap:butt;stroke-linejoin:miter;stroke-opacity:1" d="M 441.699,566.411 448.78,576.664 z" id="boundary" inkscape:connector-curvature="0" />
	<path style="fill:none;stroke:red;stroke-width:1px;stroke-linecap:butt;stroke-linejoin:miter;stroke-opacity:1" d="M 448.78,576.664 472.2,583.167 z" id="boundary" inkscape:connector-curvature="0" />
	<path style="fill:none;stroke:red;stroke-width:1px;stroke-linecap:butt;stroke-linejoin:miter;stroke-opacity:1" d="M 472.2,583.167 486.747,582.564 z" id="boundary" inkscape:connector-curvature="0" />
	<path style="fill:none;stroke:red;stroke-width:1px;stroke-linecap:butt;stroke-linejoin:miter;stroke-opacity:1" d="M 486.747,582.564 512.831,585.95 z" id="boundary" inkscape:connector-curvature="0" />
	<path style="fill:none;stroke:red;stroke-width:1px;stroke-linecap:butt;stroke-linejoin:miter;stroke-opacity:1" d="M 512.831,585.95 538.627,584.806 z" id="boundary" inkscape:connector-curvature="0" />
	<path style="fill:none;stroke:red;stroke-width:1px;stroke-linecap:butt;stroke-linejoin:miter;stroke-opacity:1" d="M 538.627,584.806 548.551,580.075 z" id="boundary" inkscape:connector-curvature="0" />
	<path style="fill:none;stroke:red;stroke-width:1px;stroke-linecap:butt;stroke-linejoin:miter;stroke-opacity:1" d="M 548.551,580.075 578.785,568.881 z" id="boundary" inkscape:connector-curvature="0" />
	<path style="fill:none;stroke:red;stroke-width:1px;stroke-linecap:butt;stroke-linejoin:miter;stroke-opacity:1" d="M 578.785,568.881 598.645,586.705 z" id="boundary" inkscape:connector-curvature="0" />
	<path style="fill:none;stroke:red;stroke-width:1px;stroke-linecap:butt;stroke-linejoin:miter;stroke-opacity:1" d="M 598.645,586.705 608.035,572.222 z" id="boundary" inkscape:connector-curvature="0" />
	<path style="fill:none;stroke:red;stroke-width:1px;stroke-linecap:butt;stroke-linejoin:miter;stroke-opacity:1" d="M 608.035,572.222 613.681,565.18 z" id="boundary" inkscape:connector-curvature="0" />
	<path style="fill:none;stroke:red;stroke-width:1px;stroke-linecap:butt;stroke-linejoin:miter;stroke-opacity:1" d="M 613.681,565.18 637.352,571.662 z" id="boundary" inkscape:connector-curvature="0" />
	<path style="fill:none;stroke:red;stroke-width:1px;stroke-linecap:butt;stroke-linejoin:miter;stroke-opacity:1" d="M 637.352,571.662 658.792,568.937 z" id="boundary" inkscape:connector-curvature="0" />
	<path style="fill:none;stroke:red;stroke-width:1px;stroke-linecap:butt;stroke-linejoin:miter;stroke-opacity:1" d="M 658.792,568.937 682.952,564.407 z" id="boundary" inkscape:connector-curvature="0" />
	<path style="fill:none;stroke:red;stroke-width:1px;stroke-linecap:butt;stroke-linejoin:miter;stroke-opacity:1" d="M 682.952,564.407 690.081,556.485 z" id="boundary" inkscape:connector-curvature="0" />
	<path style="fill:none;stroke:red;stroke-width:1px;stroke-linecap:butt;stroke-linejoin:miter;stroke-opacity:1" d="M 690.081,556.485 715.234,536.178 z" id="boundary" inkscape:connector-curvature="0" />
	<path style="fill:none;stroke:red;stroke-width:1px;stroke-linecap:butt;stroke-linejoin:miter;stroke-opacity:1" d="M 715.234,536.178 731.136,524.078 z" id="boundary" inkscape:connector-curvature="0" />
	<path style="fill:none;stroke:red;stroke-width:1px;stroke-linecap:butt;stroke-linejoin:miter;stroke-opacity:1" d="M 731.136,524.078 744.013,514.482 z" id="boundary" inkscape:connector-curvature="0" />
	<path style="fill:none;stroke:red;stroke-width:1px;stroke-linecap:butt;stroke-linejoin:miter;stroke-opacity:1" d="M 744.013,514.482 762.873,496.042 z" id="boundary" inkscape:connector-curvature="0" />
	<path style="fill:none;stroke:red;stroke-width:1px;stroke-linecap:butt;stroke-linejoin:miter;stroke-opacity:1" d="M 762.873,496.042 778.663,496.653 z" id="boundary" inkscape:connector-curvature="0" />
	<path style="fill:none;stroke:red;stroke-width:1px;stroke-linecap:butt;stroke-linejoin:miter;stroke-opacity:1" d="M 778.663,496.653 789.598,490.851 z" id="boundary" inkscape:connector-curvature="0" />
	<path style="fill:none;stroke:red;stroke-width:1px;stroke-linecap:butt;stroke-linejoin:miter;stroke-opacity:1" d="M 789.598,490.851 789.165,465.846 z" id="boundary" inkscape:connector-curvature="0" />
	<path style="fill:none;stroke:red;stroke-width:1px;stroke-linecap:butt;stroke-linejoin:miter;stroke-opacity:1" d="M 789.165,465.846 803.091,443.67 z" id="boundary" inkscape:connector-curvature="0" />
	<path style="fill:none;stroke:red;stroke-width:1px;stroke-linecap:butt;stroke-linejoin:miter;stroke-opacity:1" d="M 803.091,443.67 812.654,430.066 z" id="boundary" inkscape:connector-curvature="0" />
	<path style="fill:none;stroke:red;stroke-width:1px;stroke-linecap:butt;stroke-linejoin:miter;stroke-opacity:1" d="M 812.654,430.066 831.234,425.987 z" id="boundary" inkscape:connector-curvature="0" />
	<path style="fill:none;stroke:red;stroke-width:1px;stroke-linecap:butt;stroke-linejoin:miter;stroke-opacity:1" d="M 831.234,425.987 832.193,413.522 z" id="boundary" inkscape:connector-curvature="0" />
	<path style="fill:none;stroke:red;stroke-width:1px;stroke-linecap:butt;stroke-linejoin:miter;stroke-opacity:1" d="M 832.193,413.522 859.288,404.52 z" id="boundary" inkscape:connector-curvature="0" />
	<path style="fill:none;stroke:red;stroke-width:1px;stroke-linecap:butt;stroke-linejoin:miter;stroke-opacity:1" d="M 859.288,404.52 865.638,382.836 z" id="boundary" inkscape:connector-curvature="0" />
	<path style="fill:none;stroke:red;stroke-width:1px;stroke-linecap:butt;stroke-linejoin:miter;stroke-opacity:1" d="M 865.638,382.836 875.313,370.542 z" id="boundary" inkscape:connector-curvature="0" />
	<path style="fill:none;stroke:red;stroke-width:1px;stroke-linecap:butt;stroke-linejoin:miter;stroke-opacity:1" d="M 875.313,370.542 902.504,368.901 z" id="boundary" inkscape:connector-curvature="0" />
	<path style="fill:none;stroke:red;stroke-width:1px;stroke-linecap:butt;stroke-linejoin:miter;stroke-opacity:1" d="M 902.504,368.901 890.031,352.551 z" id="boundary" inkscape:connector-curvature="0" />
	<path style="fill:none;stroke:red;stroke-width:1px;stroke-linecap:butt;stroke-linejoin:miter;stroke-opacity:1" d="M 890.031,352.551 900.187,340.593 z" id="boundary" inkscape:connector-curvature="0" />
	<path style="fill:none;stroke:red;stroke-width:1px;stroke-linecap:butt;stroke-linejoin:miter;stroke-opacity:1" d="M 900.187,340.593 903.84,325.408 z" id="boundary" inkscape:connector-curvature="0" />
	<path style="fill:none;stroke:red;stroke-width:1px;stroke-linecap:butt;stroke-linejoin:miter;stroke-opacity:1" d="M 903.84,325.408 912.861,308.174 z" id="boundary" inkscape:connector-curvature="0" />
	<path style="fill:none;stroke:red;stroke-width:1px;stroke-linecap:butt;stroke-linejoin:miter;stroke-opacity:1" d="M 912.861,308.174 928.349,267.49 z" id="boundary" inkscape:connector-curvature="0" />
	<path style="fill:none;stroke:red;stroke-width:1px;stroke-linecap:butt;stroke-linejoin:miter;stroke-opacity:1" d="M 937.226,270.407 928.349,267.49 z" id="boundary" inkscape:connector-curvature="0" />
	<path style="fill:none;stroke:red;stroke-width:1px;stroke-linecap:butt;stroke-linejoin:miter;stroke-opacity:1" d="M 937.226,270.407 941.241,244.32 z" id="boundary" inkscape:connector-curvature="0" />
	<path style="fill:none;stroke:red;stroke-width:1px;stroke-linecap:butt;stroke-linejoin:miter;stroke-opacity:1" d="M 941.241,244.32 927.179,217.733 z" id="boundary" inkscape:connector-curvature="0" />
	<path style="fill:none;stroke:red;stroke-width:1px;stroke-linecap:butt;stroke-linejoin:miter;stroke-opacity:1" d="M 927.179,217.733 945.94,208.547 z" id="boundary" inkscape:connector-curvature="0" />
	<path style="fill:none;stroke:red;stroke-width:1px;stroke-linecap:butt;stroke-linejoin:miter;stroke-opacity:1" d="M 945.94,208.547 948.553,198.597 z" id="boundary" inkscape:connector-curvature="0" />
	<path style="fill:none;stroke:red;stroke-width:1px;stroke-linecap:butt;stroke-linejoin:miter;stroke-opacity:1" d="M 948.553,198.597 958.317,191.367 z" id="boundary" inkscape:connector-curvature="0" />
	<path style="fill:none;stroke:red;stroke-width:1px;stroke-linecap:butt;stroke-linejoin:miter;stroke-opacity:1" d="M 958.317,191.367 974.122,162.594 z" id="boundary" inkscape:connector-curvature="0" />
	<path style="fill:none;stroke:red;stroke-width:1px;stroke-linecap:butt;stroke-linejoin:miter;stroke-opacity:1" d="M 974.122,162.594 989.995,149.588 z" id="boundary" inkscape:connector-curvature="0" />
	<path style="fill:none;stroke:red;stroke-width:1px;stroke-linecap:butt;stroke-linejoin:miter;stroke-opacity:1" d="M 989.995,149.588 996,138.446 z" id="boundary" inkscape:connector-curvature="0" />
	<path style="fill:none;stroke:red;stroke-width:1px;stroke-linecap:butt;stroke-linejoin:miter;stroke-opacity:1" d="M 996,138.446 966.304,133.394 z" id="boundary" inkscape:connector-curvature="0" />
	<path style="fill:none;stroke:red;stroke-width:1px;stroke-linecap:butt;stroke-linejoin:miter;stroke-opacity:1" d="M 918.72,139.537 951.8,136.823 z" id="boundary" inkscape:connector-curvature="0" />
	<path style="fill:none;stroke:red;stroke-width:1px;stroke-linecap:butt;stroke-linejoin:miter;stroke-opacity:1" d="M 918.72,139.537 918.812,148.615 z" id="boundary" inkscape:connector-curvature="0" />
	<path style="fill:none;stroke:red;stroke-width:1px;stroke-linecap:butt;stroke-linejoin:miter;stroke-opacity:1" d="M 951.8,136.823 966.304,133.394 z" id="boundary" inkscape:connector-curvature="0" />
	<path style="fill:none;stroke:red;stroke-width:1px;stroke-linecap:butt;stroke-linejoin:miter;stroke-opacity:1" d="M 797.249,280.614 817.331,269.025 z" id="boundary" inkscape:connector-curvature="0" />
	<path style="fill:none;stroke:red;stroke-width:1px;stroke-linecap:butt;stroke-linejoin:miter;stroke-opacity:1" d="M 797.249,280.614 799.672,268.78 z" id="boundary" inkscape:connector-curvature="0" />
	<path style="fill:none;stroke:red;stroke-width:1px;stroke-linecap:butt;stroke-linejoin:miter;stroke-opacity:1" d="M 817.331,269.025 836.488,269.428 z" id="boundary" inkscape:connector-curvature="0" />
	<path style="fill:none;stroke:red;stroke-width:1px;stroke-linecap:butt;stroke-linejoin:miter;stroke-opacity:1" d="M 836.488,269.428 861.727,245.015 z" id="boundary" inkscape:connector-curvature="0" />
	<path style="fill:none;stroke:red;stroke-width:1px;stroke-linecap:butt;stroke-linejoin:miter;stroke-opacity:1" d="M 861.727,245.015 857.406,240.803 z" id="boundary" inkscape:connector-curvature="0" />
	<path style="fill:none;stroke:red;stroke-width:1px;stroke-linecap:butt;stroke-linejoin:miter;stroke-opacity:1" d="M 857.406,240.803 870.512,217.026 z" id="boundary" inkscape:connector-curvature="0" />
	<path style="fill:none;stroke:red;stroke-width:1px;stroke-linecap:butt;stroke-linejoin:miter;stroke-opacity:1" d="M 870.512,217.026 875.56,200.641 z" id="boundary" inkscape:connector-curvature="0" />
	<path style="fill:none;stroke:red;stroke-width:1px;stroke-linecap:butt;stroke-linejoin:miter;stroke-opacity:1" d="M 875.56,200.641 884.637,184.879 z" id="boundary" inkscape:connector-curvature="0" />
	<path style="fill:none;stroke:red;stroke-width:1px;stroke-linecap:butt;stroke-linejoin:miter;stroke-opacity:1" d="M 884.637,184.879 902.299,173.071 z" id="boundary" inkscape:connector-curvature="0" />
	<path style="fill:none;stroke:red;stroke-width:1px;stroke-linecap:butt;stroke-linejoin:miter;stroke-opacity:1" d="M 902.299,173.071 918.812,148.615 z" id="boundary" inkscape:connector-curvature="0" />
	<path style="fill:none;stroke:red;stroke-width:1px;stroke-linecap:butt;stroke-linejoin:miter;stroke-opacity:1" d="M 782.4,201.708 780.434,211.21 z" id="boundary" inkscape:connector-curvature="0" />
	<path style="fill:none;stroke:red;stroke-width:1px;stroke-linecap:butt;stroke-linejoin:miter;stroke-opacity:1" d="M 782.4,201.708 765.802,197.381 z" id="boundary" inkscape:connector-curvature="0" />
	<path style="fill:none;stroke:red;stroke-width:1px;stroke-linecap:butt;stroke-linejoin:miter;stroke-opacity:1" d="M 780.434,211.21 791.814,239.266 z" id="boundary" inkscape:connector-curvature="0" />
	<path style="fill:none;stroke:red;stroke-width:1px;stroke-linecap:butt;stroke-linejoin:miter;stroke-opacity:1" d="M 791.814,239.266 787.9,264.435 z" id="boundary" inkscape:connector-curvature="0" />
	<path style="fill:none;stroke:red;stroke-width:1px;stroke-linecap:butt;stroke-linejoin:miter;stroke-opacity:1" d="M 787.9,264.435 799.672,268.78 z" id="boundary" inkscape:connector-curvature="0" />
	<path style="fill:none;stroke:red;stroke-width:1px;stroke-linecap:butt;stroke-linejoin:miter;stroke-opacity:1" d="M 700.212,111.497 729.379,110.083 z" id="boundary" inkscape:connector-curvature="0" />
	<path style="fill:none;stroke:red;stroke-width:1px;stroke-linecap:butt;stroke-linejoin:miter;stroke-opacity:1" d="M 700.212,111.497 686.986,108.276 z" id="boundary" inkscape:connector-curvature="0" />
	<path style="fill:none;stroke:red;stroke-width:1px;stroke-linecap:butt;stroke-linejoin:miter;stroke-opacity:1" d="M 729.379,110.083 739.369,141.591 z" id="boundary" inkscape:connector-curvature="0" />
	<path style="fill:none;stroke:red;stroke-width:1px;stroke-linecap:butt;stroke-linejoin:miter;stroke-opacity:1" d="M 739.369,141.591 752.113,144.818 z" id="boundary" inkscape:connector-curvature="0" />
	<path style="fill:none;stroke:red;stroke-width:1px;stroke-linecap:butt;stroke-linejoin:miter;stroke-opacity:1" d="M 752.113,144.818 747.081,166.901 z" id="boundary" inkscape:connector-curvature="0" />
	<path style="fill:none;stroke:red;stroke-width:1px;stroke-linecap:butt;stroke-linejoin:miter;stroke-opacity:1" d="M 747.081,166.901 756.798,176.501 z" id="boundary" inkscape:connector-curvature="0" />
	<path style="fill:none;stroke:red;stroke-width:1px;stroke-linecap:butt;stroke-linejoin:miter;stroke-opacity:1" d="M 756.798,176.501 765.802,197.381 z" id="boundary" inkscape:connector-curvature="0" />
	<path style="fill:none;stroke:red;stroke-width:1px;stroke-linecap:butt;stroke-linejoin:miter;stroke-opacity:1" d="M 532.767,90.107 556.231,94.8706 z" id="boundary" inkscape:connector-curvature="0" />
	<path style="fill:none;stroke:red;stroke-width:1px;stroke-linecap:butt;stroke-linejoin:miter;stroke-opacity:1" d="M 532.767,90.107 520.717,62.4525 z" id="boundary" inkscape:connector-curvature="0" />
	<path style="fill:none;stroke:red;stroke-width:1px;stroke-linecap:butt;stroke-linejoin:miter;stroke-opacity:1" d="M 556.231,94.8706 582.377,79.9144 z" id="boundary" inkscape:connector-curvature="0" />
	<path style="fill:none;stroke:red;stroke-width:1px;stroke-linecap:butt;stroke-linejoin:miter;stroke-opacity:1" d="M 582.377,79.9144 594.787,81.2464 z" id="boundary" inkscape:connector-curvature="0" />
	<path style="fill:none;stroke:red;stroke-width:1px;stroke-linecap:butt;stroke-linejoin:miter;stroke-opacity:1" d="M 594.787,81.2464 620.594,93.1174 z" id="boundary" inkscape:connector-curvature="0" />
	<path style="fill:none;stroke:red;stroke-width:1px;stroke-linecap:butt;stroke-linejoin:miter;stroke-opacity:1" d="M 620.594,93.1174 629.899,87.6008 z" id="boundary" inkscape:connector-curvature="0" />
	<path style="fill:none;stroke:red;stroke-width:1px;stroke-linecap:butt;stroke-linejoin:miter;stroke-opacity:1" d="M 629.899,87.6008 642.41,95.9507 z" id="boundary" inkscape:connector-curvature="0" />
	<path style="fill:none;stroke:red;stroke-width:1px;stroke-linecap:butt;stroke-linejoin:miter;stroke-opacity:1" d="M 642.41,95.9507 657.476,100.36 z" id="boundary" inkscape:connector-curvature="0" />
	<path style="fill:none;stroke:red;stroke-width:1px;stroke-linecap:butt;stroke-linejoin:miter;stroke-opacity:1" d="M 657.476,100.36 667.115,95.4585 z" id="boundary" inkscape:connector-curvature="0" />
	<path style="fill:none;stroke:red;stroke-width:1px;stroke-linecap:butt;stroke-linejoin:miter;stroke-opacity:1" d="M 667.115,95.4585 686.986,108.276 z" id="boundary" inkscape:connector-curvature="0" />
	<path style="fill:none;stroke:red;stroke-width:1px;stroke-linecap:butt;stroke-linejoin:miter;stroke-opacity:1" d="M 232.652,159.538 248.033,124.692 z" id="boundary" inkscape:connector-curvature="0" />
	<path style="fill:none;stroke:red;stroke-width:1px;stroke-linecap:butt;stroke-linejoin:miter;stroke-opacity:1" d="M 248.033,124.692 282.013,113.536 z" id="boundary" inkscape:connector-curvature="0" />
	<path style="fill:none;stroke:red;stroke-width:1px;stroke-linecap:butt;stroke-linejoin:miter;stroke-opacity:1" d="M 282.013,113.536 302.97,101.441 z" id="boundary" inkscape:connector-curvature="0" />
	<path style="fill:none;stroke:red;stroke-width:1px;stroke-linecap:butt;stroke-linejoin:miter;stroke-opacity:1" d="M 302.97,101.441 315.762,96.8638 z" id="boundary" inkscape:connector-curvature="0" />
	<path style="fill:none;stroke:red;stroke-width:1px;stroke-linecap:butt;stroke-linejoin:miter;stroke-opacity:1" d="M 315.762,96.8638 350.748,98.7794 z" id="boundary" inkscape:connector-curvature="0" />
	<path style="fill:none;stroke:red;stroke-width:1px;stroke-linecap:butt;stroke-linejoin:miter;stroke-opacity:1" d="M 350.748,98.7794 374.205,89.7647 z" id="boundary" inkscape:connector-curvature="0" />
	<path style="fill:none;stroke:red;stroke-width:1px;stroke-linecap:butt;stroke-linejoin:miter;stroke-opacity:1" d="M 374.205,89.7647 405.614,84.3096 z" id="boundary" inkscape:connector-curvature="0" />
	<path style="fill:none;stroke:red;stroke-width:1px;stroke-linecap:butt;stroke-linejoin:miter;stroke-opacity:1" d="M 405.614,84.3096 430.666,75.2575 z" id="boundary" inkscape:connector-curvature="0" />
	<path style="fill:none;stroke:red;stroke-width:1px;stroke-linecap:butt;stroke-linejoin:miter;stroke-opacity:1" d="M 430.666,75.2575 423.864,45.2949 z" id="boundary" inkscape:connector-curvature="0" />
	<path style="fill:none;stroke:red;stroke-width:1px;stroke-linecap:butt;stroke-linejoin:miter;stroke-opacity:1" d="M 423.864,45.2949 431.538,20.6137 z" id="boundary" inkscape:connector-curvature="0" />
	<path style="fill:none;stroke:red;stroke-width:1px;stroke-linecap:butt;stroke-linejoin:miter;stroke-opacity:1" d="M 431.538,20.6137 458.157,6.3509 z" id="boundary" inkscape:connector-curvature="0" />
	<path style="fill:none;stroke:red;stroke-width:1px;stroke-linecap:butt;stroke-linejoin:miter;stroke-opacity:1" d="M 458.157,6.3509 460.992,4 z" id="boundary" inkscape:connector-curvature="0" />
	<path style="fill:none;stroke:red;stroke-width:1px;stroke-linecap:butt;stroke-linejoin:miter;stroke-opacity:1" d="M 460.992,4 487.203,10.7982 z" id="boundary" inkscape:connector-curvature="0" />
	<path style="fill:none;stroke:red;stroke-width:1px;stroke-linecap:butt;stroke-linejoin:miter;stroke-opacity:1" d="M 487.203,10.7982 507.884,12.7114 z" id="boundary" inkscape:connector-curvature="0" />
	<path style="fill:none;stroke:red;stroke-width:1px;stroke-linecap:butt;stroke-linejoin:miter;stroke-opacity:1" d="M 510.148,17.6994 507.884,12.7114 z" id="boundary" inkscape:connector-curvature="0" />
	<path style="fill:none;stroke:red;stroke-width:1px;stroke-linecap:butt;stroke-linejoin:miter;stroke-opacity:1" d="M 510.148,17.6994 529.266,6.10036 z" id="boundary" inkscape:connector-curvature="0" />
	<path style="fill:none;stroke:red;stroke-width:1px;stroke-linecap:butt;stroke-linejoin:miter;stroke-opacity:1" d="M 529.266,6.10036 543.816,23.4231 z" id="boundary" inkscape:connector-curvature="0" />
	<path style="fill:none;stroke:red;stroke-width:1px;stroke-linecap:butt;stroke-linejoin:miter;stroke-opacity:1" d="M 543.816,23.4231 544.644,52.8823 z" id="boundary" inkscape:connector-curvature="0" />
	<path style="fill:none;stroke:red;stroke-width:1px;stroke-linecap:butt;stroke-linejoin:miter;stroke-opacity:1" d="M 544.644,52.8823 532.197,53.9878 z" id="boundary" inkscape:connector-curvature="0" />
	<path style="fill:none;stroke:red;stroke-width:1px;stroke-linecap:butt;stroke-linejoin:miter;stroke-opacity:1" d="M 532.197,53.9878 520.717,62.4525 z" id="boundary" inkscape:connector-curvature="0" />
	<circle cx="216.453" cy="161.708" r="4" fill="#0" id="circle0"/>
	<circle cx="202.469" cy="152.484" r="4" fill="#0" id="circle1"/>
	<circle cx="182.719" cy="166.202" r="4" fill="#0" id="circle2"/>
	<circle cx="180.591" cy="153.173" r="4" fill="#0" id="circle3"/>
	<circle cx="166.615" cy="156.536" r="4" fill="#0" id="circle4"/>
	<circle cx="146.772" cy="154.826" r="4" fill="#0" id="circle5"/>
	<circle cx="135.584" cy="158.991" r="4" fill="#0" id="circle6"/>
	<circle cx="106.885" cy="149.795" r="4" fill="#0" id="circle7"/>
	<circle cx="98.8228" cy="154.336" r="4" fill="#0" id="circle8"/>
	<circle cx="94.8171" cy="158.384" r="4" fill="#0" id="circle9"/>
	<circle cx="83.9187" cy="169.752" r="4" fill="#0" id="circle10"/>
	<circle cx="64.3413" cy="159.995" r="4" fill="#0" id="circle11"/>
	<circle cx="50.1384" cy="173.787" r="4" fill="#0" id="circle12"/>
	<circle cx="36.995" cy="188.1" r="4" fill="#0" id="circle13"/>
	<circle cx="7.98016" cy="196.303" r="4" fill="#0" id="circle14"/>
	<circle cx="11.4314" cy="192.83" r="4" fill="#0" id="circle15"/>
	<circle cx="6.09754" cy="218.988" r="4" fill="#0" id="circle16"/>
	<circle cx="4" cy="232.12" r="4" fill="#0" id="circle17"/>
	<circle cx="10.3444" cy="237.169" r="4" fill="#0" id="circle18"/>
	<circle cx="16.4634" cy="255.527" r="4" fill="#0" id="circle19"/>
	<circle cx="14.1736" cy="269.317" r="4" fill="#0" id="circle20"/>
	<circle cx="24.7058" cy="281.828" r="4" fill="#0" id="circle21"/>
	<circle cx="33.49" cy="304.837" r="4" fill="#0" id="circle22"/>
	<circle cx="29.1618" cy="302.603" r="4" fill="#0" id="circle23"/>
	<circle cx="53.6516" cy="314.14" r="4" fill="#0" id="circle24"/>
	<circle cx="53.9372" cy="344.55" r="4" fill="#0" id="circle25"/>
	<circle cx="72.2588" cy="342.075" r="4" fill="#0" id="circle26"/>
	<circle cx="63.9671" cy="356.895" r="4" fill="#0" id="circle27"/>
	<circle cx="91.9985" cy="375.104" r="4" fill="#0" id="circle28"/>
	<circle cx="96.7716" cy="381.765" r="4" fill="#0" id="circle29"/>
	<circle cx="117.069" cy="367.159" r="4" fill="#0" id="circle30"/>
	<circle cx="118.728" cy="380.594" r="4" fill="#0" id="circle31"/>
	<circle cx="146.996" cy="396.87" r="4" fill="#0" id="circle32"/>
	<circle cx="153.689" cy="404.067" r="4" fill="#0" id="circle33"/>
	<circle cx="153.612" cy="422.995" r="4" fill="#0" id="circle34"/>
	<circle cx="159.291" cy="451.1" r="4" fill="#0" id="circle35"/>
	<circle cx="170.609" cy="444.482" r="4" fill="#0" id="circle36"/>
	<circle cx="171.581" cy="461.527" r="4" fill="#0" id="circle37"/>
	<circle cx="197.042" cy="471.827" r="4" fill="#0" id="circle38"/>
	<circle cx="201.15" cy="489.775" r="4" fill="#0" id="circle39"/>
	<circle cx="213.816" cy="504.771" r="4" fill="#0" id="circle40"/>
	<circle cx="233.231" cy="499.169" r="4" fill="#0" id="circle41"/>
	<circle cx="241.165" cy="522.421" r="4" fill="#0" id="circle42"/>
	<circle cx="271.683" cy="520.269" r="4" fill="#0" id="circle43"/>
	<circle cx="288.785" cy="537.216" r="4" fill="#0" id="circle44"/>
	<circle cx="293.293" cy="550.156" r="4" fill="#0" id="circle45"/>
	<circle cx="316.938" cy="551.635" r="4" fill="#0" id="circle46"/>
	<circle cx="340.255" cy="553.201" r="4" fill="#0" id="circle47"/>
	<circle cx="364.125" cy="560.281" r="4" fill="#0" id="circle48"/>
	<circle cx="375.944" cy="559.613" r="4" fill="#0" id="circle49"/>
	<circle cx="397.366" cy="577.012" r="4" fill="#0" id="circle50"/>
	<circle cx="406.56" cy="563.991" r="4" fill="#0" id="circle51"/>
	<circle cx="441.699" cy="566.411" r="4" fill="#0" id="circle52"/>
	<circle cx="448.78" cy="576.664" r="4" fill="#0" id="circle53"/>
	<circle cx="472.2" cy="583.167" r="4" fill="#0" id="circle54"/>
	<circle cx="486.747" cy="582.564" r="4" fill="#0" id="circle55"/>
	<circle cx="512.831" cy="585.95" r="4" fill="#0" id="circle56"/>
	<circle cx="538.627" cy="584.806" r="4" fill="#0" id="circle57"/>
	<circle cx="548.551" cy="580.075" r="4" fill="#0" id="circle58"/>
	<circle cx="578.785" cy="568.881" r="4" fill="#0" id="circle59"/>
	<circle cx="598.645" cy="586.705" r="4" fill="#0" id="circle60"/>
	<circle cx="608.035" cy="572.222" r="4" fill="#0" id="circle61"/>
	<circle cx="613.681" cy="565.18" r="4" fill="#0" id="circle62"/>
	<circle cx="637.352" cy="571.662" r="4" fill="#0" id="circle63"/>
	<circle cx="658.792" cy="568.937" r="4" fill="#0" id="circle64"/>
	<circle cx="682.952" cy="564.407" r="4" fill="#0" id="circle65"/>
	<circle cx="690.081" cy="556.485" r="4" fill="#0" id="circle66"/>
	<circle cx="715.234" cy="536.178" r="4" fill="#0" id="circle67"/>
	<circle cx="731.136" cy="524.078" r="4" fill="#0" id="circle68"/>
	<circle cx="744.013" cy="514.482" r="4" fill="#0" id="circle69"/>
	<circle cx="762.873" cy="496.042" r="4" fill="#0" id="circle70"/>
	<circle cx="778.663" cy="496.653" r="4" fill="#0" id="circle71"/>
	<circle cx="789.598" cy="490.851" r="4" fill="#0" id="circle72"/>
	<circle cx="789.165" cy="465.846" r="4" fill="#0" id="circle73"/>
	<circle cx="803.091" cy="443.67" r="4" fill="#0" id="circle74"/>
	<circle cx="812.654" cy="430.066" r="4" fill="#0" id="circle75"/>
	<circle cx="831.234" cy="425.987" r="4" fill="#0" id="circle76"/>
	<circle cx="832.193" cy="413.522" r="4" fill="#0" id="circle77"/>
	<circle cx="859.288" cy="404.52" r="4" fill="#0" id="circle78"/>
	<circle cx="865.638" cy="382.836" r="4" fill="#0" id="circle79"/>
	<circle cx="875.313" cy="370.542" r="4" fill="#0" id="circle80"/>
	<circle cx="902.504" cy="368.901" r="4" fill="#0" id="circle81"/>
	<circle cx="890.031" cy="352.551" r="4" fill="#0" id="circle82"/>
	<circle cx="900.187" cy="340.593" r="4" fill="#0" id="circle83"/>
	<circle cx="903.84" cy="325.408" r="4" fill="#0" id="circle84"/>
	<circle cx="912.861" cy="308.174" r="4" fill="#0" id="circle85"/>
	<circle cx="937.226" cy="270.407" r="4" fill="#0" id="circle86"/>
	<circle cx="928.349" cy="267.49" r="4" fill="#0" id="circle87"/>
	<circle cx="941.241" cy="244.32" r="4" fill="#0" id="circle88"/>
	<circle cx="927.179" cy="217.733" r="4" fill="#0" id="circle89"/>
	<circle cx="945.94" cy="208.547" r="4" fill="#0" id="circle90"/>
	<circle cx="948.553" cy="198.597" r="4" fill="#0" id="circle91"/>
	<circle cx="958.317" cy="191.367" r="4" fill="#0" id="circle92"/>
	<circle cx="974.122" cy="162.594" r="4" fill="#0" id="circle93"/>
	<circle cx="989.995" cy="149.588" r="4" fill="#0" id="circle94"/>
	<circle cx="996" cy="138.446" r="4" fill="#0" id="circle95"/>
	<circle cx="918.72" cy="139.537" r="4" fill="#0" id="circle96"/>
	<circle cx="951.8" cy="136.823" r="4" fill="#0" id="circle97"/>
	<circle cx="950.401" cy="134.298" r="4" fill="#0" id="circle98"/>
	<circle cx="966.304" cy="133.394" r="4" fill="#0" id="circle99"/>
	<circle cx="797.249" cy="280.614" r="4" fill="#0" id="circle100"/>
	<circle cx="817.331" cy="269.025" r="4" fill="#0" id="circle101"/>
	<circle cx="836.488" cy="269.428" r="4" fill="#0" id="circle102"/>
	<circle cx="861.727" cy="245.015" r="4" fill="#0" id="circle103"/>
	<circle cx="857.406" cy="240.803" r="4" fill="#0" id="circle104"/>
	<circle cx="870.512" cy="217.026" r="4" fill="#0" id="circle105"/>
	<circle cx="875.56" cy="200.641" r="4" fill="#0" id="circle106"/>
	<circle cx="884.637" cy="184.879" r="4" fill="#0" id="circle107"/>
	<circle cx="902.299" cy="173.071" r="4" fill="#0" id="circle108"/>
	<circle cx="918.812" cy="148.615" r="4" fill="#0" id="circle109"/>
	<circle cx="782.4" cy="201.708" r="4" fill="#0" id="circle110"/>
	<circle cx="780.434" cy="211.21" r="4" fill="#0" id="circle111"/>
	<circle cx="791.814" cy="239.266" r="4" fill="#0" id="circle112"/>
	<circle cx="787.9" cy="264.435" r="4" fill="#0" id="circle113"/>
	<circle cx="799.672" cy="268.78" r="4" fill="#0" id="circle114"/>
	<circle cx="700.212" cy="111.497" r="4" fill="#0" id="circle115"/>
	<circle cx="729.379" cy="110.083" r="4" fill="#0" id="circle116"/>
	<circle cx="739.369" cy="141.591" r="4" fill="#0" id="circle117"/>
	<circle cx="752.113" cy="144.818" r="4" fill="#0" id="circle118"/>
	<circle cx="747.081" cy="166.901" r="4" fill="#0" id="circle119"/>
	<circle cx="756.798" cy="176.501" r="4" fill="#0" id="circle120"/>
	<circle cx="765.802" cy="197.381" r="4" fill="#0" id="circle121"/>
	<circle cx="532.767" cy="90.107" r="4" fill="#0" id="circle122"/>
	<circle cx="556.231" cy="94.8706" r="4" fill="#0" id="circle123"/>
	<circle cx="582.377" cy="79.9144" r="4" fill="#0" id="circle124"/>
	<circle cx="594.787" cy="81.2464" r="4" fill="#0" id="circle125"/>
	<circle cx="620.594" cy="93.1174" r="4" fill="#0" id="circle126"/>
	<circle cx="629.899" cy="87.6008" r="4" fill="#0" id="circle127"/>
	<circle cx="642.41" cy="95.9507" r="4" fill="#0" id="circle128"/>
	<circle cx="657.476" cy="100.36" r="4" fill="#0" id="circle129"/>
	<circle cx="667.115" cy="95.4585" r="4" fill="#0" id="circle130"/>
	<circle cx="686.986" cy="108.276" r="4" fill="#0" id="circle131"/>
	<circle cx="232.652" cy="159.538" r="4" fill="#0" id="circle132"/>
	<circle cx="248.033" cy="124.692" r="4" fill="#0" id="circle133"/>
	<circle cx="252.073" cy="130.352" r="4" fill="#0" id="circle134"/>
	<circle cx="282.013" cy="113.536" r="4" fill="#0" id="circle135"/>
	<circle cx="288.205" cy="99.0772" r="4" fill="#0" id="circle136"/>
	<circle cx="302.97" cy="101.441" r="4" fill="#0" id="circle137"/>
	<circle cx="315.762" cy="96.8638" r="4" fill="#0" id="circle138"/>
	<circle cx="347.35" cy="97.5866" r="4" fill="#0" id="circle139"/>
	<circle cx="350.748" cy="98.7794" r="4" fill="#0" id="circle140"/>
	<circle cx="374.205" cy="89.7647" r="4" fill="#0" id="circle141"/>
	<circle cx="405.614" cy="84.3096" r="4" fill="#0" id="circle142"/>
	<circle cx="406.368" cy="73.2958" r="4" fill="#0" id="circle143"/>
	<circle cx="430.666" cy="75.2575" r="4" fill="#0" id="circle144"/>
	<circle cx="463.708" cy="74.0321" r="4" fill="#0" id="circle145"/>
	<circle cx="457.71" cy="56.7242" r="4" fill="#0" id="circle146"/>
	<circle cx="432.713" cy="41.2538" r="4" fill="#0" id="circle147"/>
	<circle cx="423.864" cy="45.2949" r="4" fill="#0" id="circle148"/>
	<circle cx="431.538" cy="20.6137" r="4" fill="#0" id="circle149"/>
	<circle cx="458.157" cy="6.3509" r="4" fill="#0" id="circle150"/>
	<circle cx="460.992" cy="4" r="4" fill="#0" id="circle151"/>
	<circle cx="487.203" cy="10.7982" r="4" fill="#0" id="circle152"/>
	<circle cx="510.148" cy="17.6994" r="4" fill="#0" id="circle153"/>
	<circle cx="507.884" cy="12.7114" r="4" fill="#0" id="circle154"/>
	<circle cx="529.266" cy="6.10036" r="4" fill="#0" id="circle155"/>
	<circle cx="543.816" cy="23.4231" r="4" fill="#0" id="circle156"/>
	<circle cx="563.25" cy="28.2072" r="4" fill="#0" id="circle157"/>
	<circle cx="544.644" cy="52.8823" r="4" fill="#0" id="circle158"/>
	<circle cx="532.197" cy="53.9878" r="4" fill="#0" id="circle159"/>
	<circle cx="520.717" cy="62.4525" r="4" fill="#0" id="circle160"/>
	<circle cx="77.1649" cy="239.022" r="4" fill="#0" id="circle161"/>
	<circle cx="75.9672" cy="224.507" r="4" fill="#0" id="circle162"/>
	<circle cx="94.8939" cy="209.873" r="4" fill="#0" id="circle163"/>
	<circle cx="107.449" cy="190.712" r="4" fill="#0" id="circle164"/>
	<circle cx="110.941" cy="194.727" r="4" fill="#0" id="circle165"/>
	<circle cx="129.393" cy="187.194" r="4" fill="#0" id="circle166"/>
	<circle cx="153.987" cy="198.225" r="4" fill="#0" id="circle167"/>
	<circle cx="171.598" cy="187.774" r="4" fill="#0" id="circle168"/>
	<circle cx="186.574" cy="196.904" r="4" fill="#0" id="circle169"/>
	<circle cx="213.837" cy="202.687" r="4" fill="#0" id="circle170"/>
	<circle cx="81.8287" cy="244.602" r="4" fill="#0" id="circle171"/>
	<circle cx="77.5188" cy="265.027" r="4" fill="#0" id="circle172"/>
	<circle cx="87.4268" cy="284.813" r="4" fill="#0" id="circle173"/>
	<circle cx="91.3516" cy="279.319" r="4" fill="#0" id="circle174"/>
	<circle cx="96.9557" cy="305.294" r="4" fill="#0" id="circle175"/>
	<circle cx="102.883" cy="307.722" r="4" fill="#0" id="circle176"/>
	<circle cx="119.025" cy="333.751" r="4" fill="#0" id="circle177"/>
	<circle cx="120.694" cy="336.817" r="4" fill="#0" id="circle178"/>
	<circle cx="142.794" cy="358.586" r="4" fill="#0" id="circle179"/>
	<circle cx="152.584" cy="341.371" r="4" fill="#0" id="circle180"/>
	<circle cx="150.952" cy="325.282" r="4" fill="#0" id="circle181"/>
	<circle cx="167.379" cy="308.498" r="4" fill="#0" id="circle182"/>
	<circle cx="162.421" cy="284.544" r="4" fill="#0" id="circle183"/>
	<circle cx="161.174" cy="273.058" r="4" fill="#0" id="circle184"/>
	<circle cx="170.811" cy="257.8" r="4" fill="#0" id="circle185"/>
	<circle cx="189.568" cy="240.909" r="4" fill="#0" id="circle186"/>
	<circle cx="191.765" cy="211.123" r="4" fill="#0" id="circle187"/>
	<circle cx="212.114" cy="212.427" r="4" fill="#0" id="circle188"/>
	</g>
</svg>