<?xml version="1.0" encoding="UTF-8" standalone="no"?>
<!-- Created with CurveBenchmark -->
<svg
	xmlns:dc="http://purl.org/dc/elements/1.1/"
	xmlns:cc="http://creativecommons.org/ns#"
	xmlns:rdf="http://www.w3.org/1999/02/22-rdf-syntax-ns#"
	xmlns:svg="http://www.w3.org/2000/svg"
	xmlns="http://www.w3.org/2000/svg"
	xmlns:sodipodi="http://sodipodi.sourceforge.net/DTD/sodipodi-0.dtd"
	xmlns:inkscape="http://www.inkscape.org/namespaces/inkscape"
	width="1000"
	height="1000"
	id="svg2"
	version="1.1"
	sodipodi:docname="noisy-0.01/fitconnect-mc24.txt">
<defs
	id="defs4" />
<metadata
	id="metadata7">
	<rdf:RDF>
		<cc:Work
			rdf:about="">
			<dc:format>image/svg+xml</dc:format>
			<dc:type
				rdf:resource="http://purl.org/dc/dcmitype/StillImage" />
			<dc:title></dc:title>
		</cc:Work>
	</rdf:RDF>
</metadata>
<g
	inkscape:label="Layer 1"
	inkscape:groupmode="layer"
	id="layer1">
	<path style="fill:none;stroke:red;stroke-width:1px;stroke-linecap:butt;stroke-linejoin:miter;stroke-opacity:1" d="M 50.9246,298.817 530.779,719.738 z" id="boundary" inkscape:connector-curvature="0" />
	<path style="fill:none;stroke:red;stroke-width:1px;stroke-linecap:butt;stroke-linejoin:miter;stroke-opacity:1" d="M 50.9246,298.817 653.756,228.408 z" id="boundary" inkscape:connector-curvature="0" />
	<path style="fill:none;stroke:red;stroke-width:1px;stroke-linecap:butt;stroke-linejoin:miter;stroke-opacity:1" d="M 294.518,4 410.332,13.7175 z" id="boundary" inkscape:connector-curvature="0" />
	<path style="fill:none;stroke:red;stroke-width:1px;stroke-linecap:butt;stroke-linejoin:miter;stroke-opacity:1" d="M 410.332,13.7175 536.495,19.3399 z" id="boundary" inkscape:connector-curvature="0" />
	<path style="fill:none;stroke:red;stroke-width:1px;stroke-linecap:butt;stroke-linejoin:miter;stroke-opacity:1" d="M 536.495,19.3399 601.075,110.847 z" id="boundary" inkscape:connector-curvature="0" />
	<path style="fill:none;stroke:red;stroke-width:1px;stroke-linecap:butt;stroke-linejoin:miter;stroke-opacity:1" d="M 530.779,719.738 640.959,669.261 z" id="boundary" inkscape:connector-curvature="0" />
	<path style="fill:none;stroke:red;stroke-width:1px;stroke-linecap:butt;stroke-linejoin:miter;stroke-opacity:1" d="M 653.756,228.408 737.764,289.163 z" id="boundary" inkscape:connector-curvature="0" />
	<path style="fill:none;stroke:red;stroke-width:1px;stroke-linecap:butt;stroke-linejoin:miter;stroke-opacity:1" d="M 640.959,669.261 822.842,570.889 z" id="boundary" inkscape:connector-curvature="0" />
	<path style="fill:none;stroke:red;stroke-width:1px;stroke-linecap:butt;stroke-linejoin:miter;stroke-opacity:1" d="M 737.764,289.163 804.268,263.183 z" id="boundary" inkscape:connector-curvature="0" />
	<path style="fill:none;stroke:red;stroke-width:1px;stroke-linecap:butt;stroke-linejoin:miter;stroke-opacity:1" d="M 804.268,263.183 842.889,209.329 z" id="boundary" inkscape:connector-curvature="0" />
	<path style="fill:none;stroke:red;stroke-width:1px;stroke-linecap:butt;stroke-linejoin:miter;stroke-opacity:1" d="M 822.842,570.889 958.453,440.141 z" id="boundary" inkscape:connector-curvature="0" />
	<path style="fill:none;stroke:red;stroke-width:1px;stroke-linecap:butt;stroke-linejoin:miter;stroke-opacity:1" d="M 842.889,209.329 904.763,169.844 z" id="boundary" inkscape:connector-curvature="0" />
	<path style="fill:none;stroke:red;stroke-width:1px;stroke-linecap:butt;stroke-linejoin:miter;stroke-opacity:1" d="M 904.763,169.844 972.379,206.255 z" id="boundary" inkscape:connector-curvature="0" />
	<path style="fill:none;stroke:red;stroke-width:1px;stroke-linecap:butt;stroke-linejoin:miter;stroke-opacity:1" d="M 958.453,440.141 996,346.435 z" id="boundary" inkscape:connector-curvature="0" />
	<path style="fill:none;stroke:red;stroke-width:1px;stroke-linecap:butt;stroke-linejoin:miter;stroke-opacity:1" d="M 972.379,206.255 996,346.435 z" id="boundary" inkscape:connector-curvature="0" />
	<circle cx="4" cy="170.721" r="4" fill="#0" id="circle0"/>
	<circle cx="15.8221" cy="84.1729" r="4" fill="#0" id="circle1"/>
	<circle cx="50.9246" cy="298.817" r="4" fill="#0" id="circle2"/>
	<circle cx="114.818" cy="38.3506" r="4" fill="#0" id="circle3"/>
	<circle cx="137.078" cy="422.591" r="4" fill="#0" id="circle4"/>
	<circle cx="219.115" cy="534.531" r="4" fill="#0" id="circle5"/>
	<circle cx="258.944" cy="328.306" r="4" fill="#0" id="circle6"/>
	<circle cx="264.307" cy="262.137" r="4" fill="#0" id="circle7"/>
	<circle cx="274.349" cy="380.481" r="4" fill="#0" id="circle8"/>
	<circle cx="294.518" cy="4" r="4" fill="#0" id="circle9"/>
	<circle cx="335.815" cy="249.854" r="4" fill="#0" id="circle10"/>
	<circle cx="332.864" cy="672.064" r="4" fill="#0" id="circle11"/>
	<circle cx="353.247" cy="416.429" r="4" fill="#0" id="circle12"/>
	<circle cx="411.842" cy="253.126" r="4" fill="#0" id="circle13"/>
	<circle cx="410.332" cy="13.7175" r="4" fill="#0" id="circle14"/>
	<circle cx="422.192" cy="727.898" r="4" fill="#0" id="circle15"/>
	<circle cx="438.299" cy="409.626" r="4" fill="#0" id="circle16"/>
	<circle cx="478.248" cy="280.902" r="4" fill="#0" id="circle17"/>
	<circle cx="491.031" cy="336.1" r="4" fill="#0" id="circle18"/>
	<circle cx="536.495" cy="19.3399" r="4" fill="#0" id="circle19"/>
	<circle cx="530.779" cy="719.738" r="4" fill="#0" id="circle20"/>
	<circle cx="601.075" cy="110.847" r="4" fill="#0" id="circle21"/>
	<circle cx="653.756" cy="228.408" r="4" fill="#0" id="circle22"/>
	<circle cx="640.959" cy="669.261" r="4" fill="#0" id="circle23"/>
	<circle cx="737.764" cy="289.163" r="4" fill="#0" id="circle24"/>
	<circle cx="804.268" cy="263.183" r="4" fill="#0" id="circle25"/>
	<circle cx="822.842" cy="570.889" r="4" fill="#0" id="circle26"/>
	<circle cx="842.889" cy="209.329" r="4" fill="#0" id="circle27"/>
	<circle cx="904.763" cy="169.844" r="4" fill="#0" id="circle28"/>
	<circle cx="953.099" cy="131.087" r="4" fill="#0" id="circle29"/>
	<circle cx="958.453" cy="440.141" r="4" fill="#0" id="circle30"/>
	<circle cx="972.379" cy="206.255" r="4" fill="#0" id="circle31"/>
	<circle cx="996" cy="346.435" r="4" fill="#0" id="circle32"/>
	</g>
</svg>