<?xml version="1.0" encoding="UTF-8" standalone="no"?>
<!-- Created with CurveBenchmark -->
<svg
	xmlns:dc="http://purl.org/dc/elements/1.1/"
	xmlns:cc="http://creativecommons.org/ns#"
	xmlns:rdf="http://www.w3.org/1999/02/22-rdf-syntax-ns#"
	xmlns:svg="http://www.w3.org/2000/svg"
	xmlns="http://www.w3.org/2000/svg"
	xmlns:sodipodi="http://sodipodi.sourceforge.net/DTD/sodipodi-0.dtd"
	xmlns:inkscape="http://www.inkscape.org/namespaces/inkscape"
	width="1000"
	height="1000"
	id="svg2"
	version="1.1"
	sodipodi:docname="noisy-0.01/gathang-mc10.txt">
<defs
	id="defs4" />
<metadata
	id="metadata7">
	<rdf:RDF>
		<cc:Work
			rdf:about="">
			<dc:format>image/svg+xml</dc:format>
			<dc:type
				rdf:resource="http://purl.org/dc/dcmitype/StillImage" />
			<dc:title></dc:title>
		</cc:Work>
	</rdf:RDF>
</metadata>
<g
	inkscape:label="Layer 1"
	inkscape:groupmode="layer"
	id="layer1">
	<path style="fill:none;stroke:red;stroke-width:1px;stroke-linecap:butt;stroke-linejoin:miter;stroke-opacity:1" d="M 16.8384,77.8741 26.1231,34.0868 z" id="boundary" inkscape:connector-curvature="0" />
	<path style="fill:none;stroke:red;stroke-width:1px;stroke-linecap:butt;stroke-linejoin:miter;stroke-opacity:1" d="M 26.1231,34.0868 39.9164,38.1493 z" id="boundary" inkscape:connector-curvature="0" />
	<path style="fill:none;stroke:red;stroke-width:1px;stroke-linecap:butt;stroke-linejoin:miter;stroke-opacity:1" d="M 16.8384,77.8741 9.11612,90.0768 z" id="boundary" inkscape:connector-curvature="0" />
	<path style="fill:none;stroke:red;stroke-width:1px;stroke-linecap:butt;stroke-linejoin:miter;stroke-opacity:1" d="M 39.9164,38.1493 59.9494,45.2091 z" id="boundary" inkscape:connector-curvature="0" />
	<path style="fill:none;stroke:red;stroke-width:1px;stroke-linecap:butt;stroke-linejoin:miter;stroke-opacity:1" d="M 11.6201,143.627 8.21468,163.184 z" id="boundary" inkscape:connector-curvature="0" />
	<path style="fill:none;stroke:red;stroke-width:1px;stroke-linecap:butt;stroke-linejoin:miter;stroke-opacity:1" d="M 11.6201,143.627 16.531,109.058 z" id="boundary" inkscape:connector-curvature="0" />
	<path style="fill:none;stroke:red;stroke-width:1px;stroke-linecap:butt;stroke-linejoin:miter;stroke-opacity:1" d="M 9.11612,90.0768 16.531,109.058 z" id="boundary" inkscape:connector-curvature="0" />
	<path style="fill:none;stroke:red;stroke-width:1px;stroke-linecap:butt;stroke-linejoin:miter;stroke-opacity:1" d="M 13.6528,180.654 8.21468,163.184 z" id="boundary" inkscape:connector-curvature="0" />
	<path style="fill:none;stroke:red;stroke-width:1px;stroke-linecap:butt;stroke-linejoin:miter;stroke-opacity:1" d="M 13.6528,180.654 10.3523,199.353 z" id="boundary" inkscape:connector-curvature="0" />
	<path style="fill:none;stroke:red;stroke-width:1px;stroke-linecap:butt;stroke-linejoin:miter;stroke-opacity:1" d="M 59.9494,45.2091 80.0802,49.4627 z" id="boundary" inkscape:connector-curvature="0" />
	<path style="fill:none;stroke:red;stroke-width:1px;stroke-linecap:butt;stroke-linejoin:miter;stroke-opacity:1" d="M 96.1774,38.0609 120.321,48.1619 z" id="boundary" inkscape:connector-curvature="0" />
	<path style="fill:none;stroke:red;stroke-width:1px;stroke-linecap:butt;stroke-linejoin:miter;stroke-opacity:1" d="M 80.0802,49.4627 96.1774,38.0609 z" id="boundary" inkscape:connector-curvature="0" />
	<path style="fill:none;stroke:red;stroke-width:1px;stroke-linecap:butt;stroke-linejoin:miter;stroke-opacity:1" d="M 140.988,52.1698 120.321,48.1619 z" id="boundary" inkscape:connector-curvature="0" />
	<path style="fill:none;stroke:red;stroke-width:1px;stroke-linecap:butt;stroke-linejoin:miter;stroke-opacity:1" d="M 237.93,42.7692 226.02,48.2418 z" id="boundary" inkscape:connector-curvature="0" />
	<path style="fill:none;stroke:red;stroke-width:1px;stroke-linecap:butt;stroke-linejoin:miter;stroke-opacity:1" d="M 226.02,48.2418 188.259,54.5709 z" id="boundary" inkscape:connector-curvature="0" />
	<path style="fill:none;stroke:red;stroke-width:1px;stroke-linecap:butt;stroke-linejoin:miter;stroke-opacity:1" d="M 219.469,180.949 201.327,177.448 z" id="boundary" inkscape:connector-curvature="0" />
	<path style="fill:none;stroke:red;stroke-width:1px;stroke-linecap:butt;stroke-linejoin:miter;stroke-opacity:1" d="M 201.327,177.448 195.181,196.515 z" id="boundary" inkscape:connector-curvature="0" />
	<path style="fill:none;stroke:red;stroke-width:1px;stroke-linecap:butt;stroke-linejoin:miter;stroke-opacity:1" d="M 258.207,179.89 234.776,185.555 z" id="boundary" inkscape:connector-curvature="0" />
	<path style="fill:none;stroke:red;stroke-width:1px;stroke-linecap:butt;stroke-linejoin:miter;stroke-opacity:1" d="M 234.776,185.555 219.469,180.949 z" id="boundary" inkscape:connector-curvature="0" />
	<path style="fill:none;stroke:red;stroke-width:1px;stroke-linecap:butt;stroke-linejoin:miter;stroke-opacity:1" d="M 7.89713,225.6 10.3523,199.353 z" id="boundary" inkscape:connector-curvature="0" />
	<path style="fill:none;stroke:red;stroke-width:1px;stroke-linecap:butt;stroke-linejoin:miter;stroke-opacity:1" d="M 18.1624,239.891 7.89713,225.6 z" id="boundary" inkscape:connector-curvature="0" />
	<path style="fill:none;stroke:red;stroke-width:1px;stroke-linecap:butt;stroke-linejoin:miter;stroke-opacity:1" d="M 18.3654,279.815 18.1624,239.891 z" id="boundary" inkscape:connector-curvature="0" />
	<path style="fill:none;stroke:red;stroke-width:1px;stroke-linecap:butt;stroke-linejoin:miter;stroke-opacity:1" d="M 18.3654,279.815 16.0459,280.68 z" id="boundary" inkscape:connector-curvature="0" />
	<path style="fill:none;stroke:red;stroke-width:1px;stroke-linecap:butt;stroke-linejoin:miter;stroke-opacity:1" d="M 4,307.006 15.1724,325.294 z" id="boundary" inkscape:connector-curvature="0" />
	<path style="fill:none;stroke:red;stroke-width:1px;stroke-linecap:butt;stroke-linejoin:miter;stroke-opacity:1" d="M 10.5902,356.978 20.9685,368.385 z" id="boundary" inkscape:connector-curvature="0" />
	<path style="fill:none;stroke:red;stroke-width:1px;stroke-linecap:butt;stroke-linejoin:miter;stroke-opacity:1" d="M 4,307.006 16.0459,280.68 z" id="boundary" inkscape:connector-curvature="0" />
	<path style="fill:none;stroke:red;stroke-width:1px;stroke-linecap:butt;stroke-linejoin:miter;stroke-opacity:1" d="M 192.111,235.84 189.347,222.629 z" id="boundary" inkscape:connector-curvature="0" />
	<path style="fill:none;stroke:red;stroke-width:1px;stroke-linecap:butt;stroke-linejoin:miter;stroke-opacity:1" d="M 195.181,196.515 189.347,222.629 z" id="boundary" inkscape:connector-curvature="0" />
	<path style="fill:none;stroke:red;stroke-width:1px;stroke-linecap:butt;stroke-linejoin:miter;stroke-opacity:1" d="M 199.826,252.221 192.111,235.84 z" id="boundary" inkscape:connector-curvature="0" />
	<path style="fill:none;stroke:red;stroke-width:1px;stroke-linecap:butt;stroke-linejoin:miter;stroke-opacity:1" d="M 228.441,289.228 202.529,288.387 z" id="boundary" inkscape:connector-curvature="0" />
	<path style="fill:none;stroke:red;stroke-width:1px;stroke-linecap:butt;stroke-linejoin:miter;stroke-opacity:1" d="M 274.363,269.126 228.441,289.228 z" id="boundary" inkscape:connector-curvature="0" />
	<path style="fill:none;stroke:red;stroke-width:1px;stroke-linecap:butt;stroke-linejoin:miter;stroke-opacity:1" d="M 188.444,284.945 202.529,288.387 z" id="boundary" inkscape:connector-curvature="0" />
	<path style="fill:none;stroke:red;stroke-width:1px;stroke-linecap:butt;stroke-linejoin:miter;stroke-opacity:1" d="M 188.444,284.945 199.826,252.221 z" id="boundary" inkscape:connector-curvature="0" />
	<path style="fill:none;stroke:red;stroke-width:1px;stroke-linecap:butt;stroke-linejoin:miter;stroke-opacity:1" d="M 22.3008,410.443 14.2461,381.24 z" id="boundary" inkscape:connector-curvature="0" />
	<path style="fill:none;stroke:red;stroke-width:1px;stroke-linecap:butt;stroke-linejoin:miter;stroke-opacity:1" d="M 257.439,48.6899 237.93,42.7692 z" id="boundary" inkscape:connector-curvature="0" />
	<path style="fill:none;stroke:red;stroke-width:1px;stroke-linecap:butt;stroke-linejoin:miter;stroke-opacity:1" d="M 276.493,46.1541 257.439,48.6899 z" id="boundary" inkscape:connector-curvature="0" />
	<path style="fill:none;stroke:red;stroke-width:1px;stroke-linecap:butt;stroke-linejoin:miter;stroke-opacity:1" d="M 307.396,51.0297 276.493,46.1541 z" id="boundary" inkscape:connector-curvature="0" />
	<path style="fill:none;stroke:red;stroke-width:1px;stroke-linecap:butt;stroke-linejoin:miter;stroke-opacity:1" d="M 336.356,48.9535 371.432,36.3455 z" id="boundary" inkscape:connector-curvature="0" />
	<path style="fill:none;stroke:red;stroke-width:1px;stroke-linecap:butt;stroke-linejoin:miter;stroke-opacity:1" d="M 307.396,51.0297 311.013,55.4287 z" id="boundary" inkscape:connector-curvature="0" />
	<path style="fill:none;stroke:red;stroke-width:1px;stroke-linecap:butt;stroke-linejoin:miter;stroke-opacity:1" d="M 311.013,55.4287 336.356,48.9535 z" id="boundary" inkscape:connector-curvature="0" />
	<path style="fill:none;stroke:red;stroke-width:1px;stroke-linecap:butt;stroke-linejoin:miter;stroke-opacity:1" d="M 280.338,191.381 258.207,179.89 z" id="boundary" inkscape:connector-curvature="0" />
	<path style="fill:none;stroke:red;stroke-width:1px;stroke-linecap:butt;stroke-linejoin:miter;stroke-opacity:1" d="M 400.188,40.2678 371.432,36.3455 z" id="boundary" inkscape:connector-curvature="0" />
	<path style="fill:none;stroke:red;stroke-width:1px;stroke-linecap:butt;stroke-linejoin:miter;stroke-opacity:1" d="M 429.292,44.3994 437.961,51.9461 z" id="boundary" inkscape:connector-curvature="0" />
	<path style="fill:none;stroke:red;stroke-width:1px;stroke-linecap:butt;stroke-linejoin:miter;stroke-opacity:1" d="M 437.961,51.9461 426.233,80.7405 z" id="boundary" inkscape:connector-curvature="0" />
	<path style="fill:none;stroke:red;stroke-width:1px;stroke-linecap:butt;stroke-linejoin:miter;stroke-opacity:1" d="M 400.188,40.2678 429.292,44.3994 z" id="boundary" inkscape:connector-curvature="0" />
	<path style="fill:none;stroke:red;stroke-width:1px;stroke-linecap:butt;stroke-linejoin:miter;stroke-opacity:1" d="M 421.43,111.489 434.644,133.933 z" id="boundary" inkscape:connector-curvature="0" />
	<path style="fill:none;stroke:red;stroke-width:1px;stroke-linecap:butt;stroke-linejoin:miter;stroke-opacity:1" d="M 424.62,109.242 426.233,80.7405 z" id="boundary" inkscape:connector-curvature="0" />
	<path style="fill:none;stroke:red;stroke-width:1px;stroke-linecap:butt;stroke-linejoin:miter;stroke-opacity:1" d="M 444.668,157.657 434.644,133.933 z" id="boundary" inkscape:connector-curvature="0" />
	<path style="fill:none;stroke:red;stroke-width:1px;stroke-linecap:butt;stroke-linejoin:miter;stroke-opacity:1" d="M 421.43,111.489 424.62,109.242 z" id="boundary" inkscape:connector-curvature="0" />
	<path style="fill:none;stroke:red;stroke-width:1px;stroke-linecap:butt;stroke-linejoin:miter;stroke-opacity:1" d="M 444.668,157.657 439.282,194.058 z" id="boundary" inkscape:connector-curvature="0" />
	<path style="fill:none;stroke:red;stroke-width:1px;stroke-linecap:butt;stroke-linejoin:miter;stroke-opacity:1" d="M 439.282,194.058 422.872,185.627 z" id="boundary" inkscape:connector-curvature="0" />
	<path style="fill:none;stroke:red;stroke-width:1px;stroke-linecap:butt;stroke-linejoin:miter;stroke-opacity:1" d="M 422.872,185.627 396.495,195.117 z" id="boundary" inkscape:connector-curvature="0" />
	<path style="fill:none;stroke:red;stroke-width:1px;stroke-linecap:butt;stroke-linejoin:miter;stroke-opacity:1" d="M 280.338,191.381 309.45,198.766 z" id="boundary" inkscape:connector-curvature="0" />
	<path style="fill:none;stroke:red;stroke-width:1px;stroke-linecap:butt;stroke-linejoin:miter;stroke-opacity:1" d="M 309.45,198.766 335.464,194.725 z" id="boundary" inkscape:connector-curvature="0" />
	<path style="fill:none;stroke:red;stroke-width:1px;stroke-linecap:butt;stroke-linejoin:miter;stroke-opacity:1" d="M 353.757,195.171 335.464,194.725 z" id="boundary" inkscape:connector-curvature="0" />
	<path style="fill:none;stroke:red;stroke-width:1px;stroke-linecap:butt;stroke-linejoin:miter;stroke-opacity:1" d="M 274.363,269.126 283.335,284.13 z" id="boundary" inkscape:connector-curvature="0" />
	<path style="fill:none;stroke:red;stroke-width:1px;stroke-linecap:butt;stroke-linejoin:miter;stroke-opacity:1" d="M 313.874,277.864 316.517,269.024 z" id="boundary" inkscape:connector-curvature="0" />
	<path style="fill:none;stroke:red;stroke-width:1px;stroke-linecap:butt;stroke-linejoin:miter;stroke-opacity:1" d="M 313.874,277.864 283.335,284.13 z" id="boundary" inkscape:connector-curvature="0" />
	<path style="fill:none;stroke:red;stroke-width:1px;stroke-linecap:butt;stroke-linejoin:miter;stroke-opacity:1" d="M 355.056,275.338 363.848,278.971 z" id="boundary" inkscape:connector-curvature="0" />
	<path style="fill:none;stroke:red;stroke-width:1px;stroke-linecap:butt;stroke-linejoin:miter;stroke-opacity:1" d="M 353.757,195.171 368.62,193.098 z" id="boundary" inkscape:connector-curvature="0" />
	<path style="fill:none;stroke:red;stroke-width:1px;stroke-linecap:butt;stroke-linejoin:miter;stroke-opacity:1" d="M 396.495,195.117 368.62,193.098 z" id="boundary" inkscape:connector-curvature="0" />
	<path style="fill:none;stroke:red;stroke-width:1px;stroke-linecap:butt;stroke-linejoin:miter;stroke-opacity:1" d="M 429.073,285.569 406.991,271.771 z" id="boundary" inkscape:connector-curvature="0" />
	<path style="fill:none;stroke:red;stroke-width:1px;stroke-linecap:butt;stroke-linejoin:miter;stroke-opacity:1" d="M 381.659,286.038 363.848,278.971 z" id="boundary" inkscape:connector-curvature="0" />
	<path style="fill:none;stroke:red;stroke-width:1px;stroke-linecap:butt;stroke-linejoin:miter;stroke-opacity:1" d="M 426.502,304.515 422.63,323.013 z" id="boundary" inkscape:connector-curvature="0" />
	<path style="fill:none;stroke:red;stroke-width:1px;stroke-linecap:butt;stroke-linejoin:miter;stroke-opacity:1" d="M 426.502,304.515 429.073,285.569 z" id="boundary" inkscape:connector-curvature="0" />
	<path style="fill:none;stroke:red;stroke-width:1px;stroke-linecap:butt;stroke-linejoin:miter;stroke-opacity:1" d="M 446.304,350.836 435.257,363.436 z" id="boundary" inkscape:connector-curvature="0" />
	<path style="fill:none;stroke:red;stroke-width:1px;stroke-linecap:butt;stroke-linejoin:miter;stroke-opacity:1" d="M 436.628,387.372 435.257,363.436 z" id="boundary" inkscape:connector-curvature="0" />
	<path style="fill:none;stroke:red;stroke-width:1px;stroke-linecap:butt;stroke-linejoin:miter;stroke-opacity:1" d="M 22.3008,410.443 26.6417,426.643 z" id="boundary" inkscape:connector-curvature="0" />
	<path style="fill:none;stroke:red;stroke-width:1px;stroke-linecap:butt;stroke-linejoin:miter;stroke-opacity:1" d="M 66.7814,430.765 81.943,426.641 z" id="boundary" inkscape:connector-curvature="0" />
	<path style="fill:none;stroke:red;stroke-width:1px;stroke-linecap:butt;stroke-linejoin:miter;stroke-opacity:1" d="M 81.943,426.641 115.763,440.952 z" id="boundary" inkscape:connector-curvature="0" />
	<path style="fill:none;stroke:red;stroke-width:1px;stroke-linecap:butt;stroke-linejoin:miter;stroke-opacity:1" d="M 66.7814,430.765 48.0531,445.755 z" id="boundary" inkscape:connector-curvature="0" />
	<path style="fill:none;stroke:red;stroke-width:1px;stroke-linecap:butt;stroke-linejoin:miter;stroke-opacity:1" d="M 48.0531,445.755 26.6417,426.643 z" id="boundary" inkscape:connector-curvature="0" />
	<path style="fill:none;stroke:red;stroke-width:1px;stroke-linecap:butt;stroke-linejoin:miter;stroke-opacity:1" d="M 66.3613,519.389 59.9477,514.507 z" id="boundary" inkscape:connector-curvature="0" />
	<path style="fill:none;stroke:red;stroke-width:1px;stroke-linecap:butt;stroke-linejoin:miter;stroke-opacity:1" d="M 137.125,440.023 115.763,440.952 z" id="boundary" inkscape:connector-curvature="0" />
	<path style="fill:none;stroke:red;stroke-width:1px;stroke-linecap:butt;stroke-linejoin:miter;stroke-opacity:1" d="M 172.07,440.701 185.57,442.959 z" id="boundary" inkscape:connector-curvature="0" />
	<path style="fill:none;stroke:red;stroke-width:1px;stroke-linecap:butt;stroke-linejoin:miter;stroke-opacity:1" d="M 218.687,431.434 185.57,442.959 z" id="boundary" inkscape:connector-curvature="0" />
	<path style="fill:none;stroke:red;stroke-width:1px;stroke-linecap:butt;stroke-linejoin:miter;stroke-opacity:1" d="M 172.07,440.701 137.125,440.023 z" id="boundary" inkscape:connector-curvature="0" />
	<path style="fill:none;stroke:red;stroke-width:1px;stroke-linecap:butt;stroke-linejoin:miter;stroke-opacity:1" d="M 218.687,431.434 240.956,429.985 z" id="boundary" inkscape:connector-curvature="0" />
	<path style="fill:none;stroke:red;stroke-width:1px;stroke-linecap:butt;stroke-linejoin:miter;stroke-opacity:1" d="M 147.522,508.799 139.03,505.97 z" id="boundary" inkscape:connector-curvature="0" />
	<path style="fill:none;stroke:red;stroke-width:1px;stroke-linecap:butt;stroke-linejoin:miter;stroke-opacity:1" d="M 187.99,516.151 208.332,509.669 z" id="boundary" inkscape:connector-curvature="0" />
	<path style="fill:none;stroke:red;stroke-width:1px;stroke-linecap:butt;stroke-linejoin:miter;stroke-opacity:1" d="M 187.99,516.151 147.522,508.799 z" id="boundary" inkscape:connector-curvature="0" />
	<path style="fill:none;stroke:red;stroke-width:1px;stroke-linecap:butt;stroke-linejoin:miter;stroke-opacity:1" d="M 226.72,511.855 208.332,509.669 z" id="boundary" inkscape:connector-curvature="0" />
	<path style="fill:none;stroke:red;stroke-width:1px;stroke-linecap:butt;stroke-linejoin:miter;stroke-opacity:1" d="M 20.6738,563.832 17.6844,588.34 z" id="boundary" inkscape:connector-curvature="0" />
	<path style="fill:none;stroke:red;stroke-width:1px;stroke-linecap:butt;stroke-linejoin:miter;stroke-opacity:1" d="M 22.1637,557.481 20.6738,563.832 z" id="boundary" inkscape:connector-curvature="0" />
	<path style="fill:none;stroke:red;stroke-width:1px;stroke-linecap:butt;stroke-linejoin:miter;stroke-opacity:1" d="M 32.9733,525.599 22.1637,557.481 z" id="boundary" inkscape:connector-curvature="0" />
	<path style="fill:none;stroke:red;stroke-width:1px;stroke-linecap:butt;stroke-linejoin:miter;stroke-opacity:1" d="M 11.5508,674.839 16.3388,648.863 z" id="boundary" inkscape:connector-curvature="0" />
	<path style="fill:none;stroke:red;stroke-width:1px;stroke-linecap:butt;stroke-linejoin:miter;stroke-opacity:1" d="M 17.6844,588.34 24.4915,607.394 z" id="boundary" inkscape:connector-curvature="0" />
	<path style="fill:none;stroke:red;stroke-width:1px;stroke-linecap:butt;stroke-linejoin:miter;stroke-opacity:1" d="M 24.4915,607.394 19.7406,620.451 z" id="boundary" inkscape:connector-curvature="0" />
	<path style="fill:none;stroke:red;stroke-width:1px;stroke-linecap:butt;stroke-linejoin:miter;stroke-opacity:1" d="M 16.3388,648.863 19.7406,620.451 z" id="boundary" inkscape:connector-curvature="0" />
	<path style="fill:none;stroke:red;stroke-width:1px;stroke-linecap:butt;stroke-linejoin:miter;stroke-opacity:1" d="M 66.3613,519.389 104.968,527.159 z" id="boundary" inkscape:connector-curvature="0" />
	<path style="fill:none;stroke:red;stroke-width:1px;stroke-linecap:butt;stroke-linejoin:miter;stroke-opacity:1" d="M 104.968,527.159 114.758,526.142 z" id="boundary" inkscape:connector-curvature="0" />
	<path style="fill:none;stroke:red;stroke-width:1px;stroke-linecap:butt;stroke-linejoin:miter;stroke-opacity:1" d="M 62.0375,679.49 102.381,666.006 z" id="boundary" inkscape:connector-curvature="0" />
	<path style="fill:none;stroke:red;stroke-width:1px;stroke-linecap:butt;stroke-linejoin:miter;stroke-opacity:1" d="M 102.381,666.006 134.279,671.068 z" id="boundary" inkscape:connector-curvature="0" />
	<path style="fill:none;stroke:red;stroke-width:1px;stroke-linecap:butt;stroke-linejoin:miter;stroke-opacity:1" d="M 134.279,671.068 161.377,669.299 z" id="boundary" inkscape:connector-curvature="0" />
	<path style="fill:none;stroke:red;stroke-width:1px;stroke-linecap:butt;stroke-linejoin:miter;stroke-opacity:1" d="M 161.377,669.299 197.125,672.027 z" id="boundary" inkscape:connector-curvature="0" />
	<path style="fill:none;stroke:red;stroke-width:1px;stroke-linecap:butt;stroke-linejoin:miter;stroke-opacity:1" d="M 213.785,661.237 197.125,672.027 z" id="boundary" inkscape:connector-curvature="0" />
	<path style="fill:none;stroke:red;stroke-width:1px;stroke-linecap:butt;stroke-linejoin:miter;stroke-opacity:1" d="M 213.785,661.237 249.261,665.937 z" id="boundary" inkscape:connector-curvature="0" />
	<path style="fill:none;stroke:red;stroke-width:1px;stroke-linecap:butt;stroke-linejoin:miter;stroke-opacity:1" d="M 62.0375,679.49 11.5508,674.839 z" id="boundary" inkscape:connector-curvature="0" />
	<path style="fill:none;stroke:red;stroke-width:1px;stroke-linecap:butt;stroke-linejoin:miter;stroke-opacity:1" d="M 260.405,432.402 282.881,428.83 z" id="boundary" inkscape:connector-curvature="0" />
	<path style="fill:none;stroke:red;stroke-width:1px;stroke-linecap:butt;stroke-linejoin:miter;stroke-opacity:1" d="M 282.881,428.83 299.945,438.955 z" id="boundary" inkscape:connector-curvature="0" />
	<path style="fill:none;stroke:red;stroke-width:1px;stroke-linecap:butt;stroke-linejoin:miter;stroke-opacity:1" d="M 260.405,432.402 240.956,429.985 z" id="boundary" inkscape:connector-curvature="0" />
	<path style="fill:none;stroke:red;stroke-width:1px;stroke-linecap:butt;stroke-linejoin:miter;stroke-opacity:1" d="M 324.33,431.422 317.383,445.607 z" id="boundary" inkscape:connector-curvature="0" />
	<path style="fill:none;stroke:red;stroke-width:1px;stroke-linecap:butt;stroke-linejoin:miter;stroke-opacity:1" d="M 317.383,445.607 299.945,438.955 z" id="boundary" inkscape:connector-curvature="0" />
	<path style="fill:none;stroke:red;stroke-width:1px;stroke-linecap:butt;stroke-linejoin:miter;stroke-opacity:1" d="M 270.484,506.887 279.192,511.87 z" id="boundary" inkscape:connector-curvature="0" />
	<path style="fill:none;stroke:red;stroke-width:1px;stroke-linecap:butt;stroke-linejoin:miter;stroke-opacity:1" d="M 328.059,520.539 314.829,512.727 z" id="boundary" inkscape:connector-curvature="0" />
	<path style="fill:none;stroke:red;stroke-width:1px;stroke-linecap:butt;stroke-linejoin:miter;stroke-opacity:1" d="M 314.829,512.727 279.192,511.87 z" id="boundary" inkscape:connector-curvature="0" />
	<path style="fill:none;stroke:red;stroke-width:1px;stroke-linecap:butt;stroke-linejoin:miter;stroke-opacity:1" d="M 324.33,431.422 350.572,424.603 z" id="boundary" inkscape:connector-curvature="0" />
	<path style="fill:none;stroke:red;stroke-width:1px;stroke-linecap:butt;stroke-linejoin:miter;stroke-opacity:1" d="M 373.883,429.51 350.572,424.603 z" id="boundary" inkscape:connector-curvature="0" />
	<path style="fill:none;stroke:red;stroke-width:1px;stroke-linecap:butt;stroke-linejoin:miter;stroke-opacity:1" d="M 436.628,387.372 445.879,423.538 z" id="boundary" inkscape:connector-curvature="0" />
	<path style="fill:none;stroke:red;stroke-width:1px;stroke-linecap:butt;stroke-linejoin:miter;stroke-opacity:1" d="M 445.879,423.538 429.838,438.528 z" id="boundary" inkscape:connector-curvature="0" />
	<path style="fill:none;stroke:red;stroke-width:1px;stroke-linecap:butt;stroke-linejoin:miter;stroke-opacity:1" d="M 408.417,444.274 373.883,429.51 z" id="boundary" inkscape:connector-curvature="0" />
	<path style="fill:none;stroke:red;stroke-width:1px;stroke-linecap:butt;stroke-linejoin:miter;stroke-opacity:1" d="M 408.417,444.274 417.423,445.613 z" id="boundary" inkscape:connector-curvature="0" />
	<path style="fill:none;stroke:red;stroke-width:1px;stroke-linecap:butt;stroke-linejoin:miter;stroke-opacity:1" d="M 417.423,445.613 429.838,438.528 z" id="boundary" inkscape:connector-curvature="0" />
	<path style="fill:none;stroke:red;stroke-width:1px;stroke-linecap:butt;stroke-linejoin:miter;stroke-opacity:1" d="M 411.578,509.069 380.853,521.1 z" id="boundary" inkscape:connector-curvature="0" />
	<path style="fill:none;stroke:red;stroke-width:1px;stroke-linecap:butt;stroke-linejoin:miter;stroke-opacity:1" d="M 346.015,524.983 328.059,520.539 z" id="boundary" inkscape:connector-curvature="0" />
	<path style="fill:none;stroke:red;stroke-width:1px;stroke-linecap:butt;stroke-linejoin:miter;stroke-opacity:1" d="M 288.932,671.089 249.261,665.937 z" id="boundary" inkscape:connector-curvature="0" />
	<path style="fill:none;stroke:red;stroke-width:1px;stroke-linecap:butt;stroke-linejoin:miter;stroke-opacity:1" d="M 380.853,521.1 346.015,524.983 z" id="boundary" inkscape:connector-curvature="0" />
	<path style="fill:none;stroke:red;stroke-width:1px;stroke-linecap:butt;stroke-linejoin:miter;stroke-opacity:1" d="M 288.932,671.089 317.343,679.692 z" id="boundary" inkscape:connector-curvature="0" />
	<path style="fill:none;stroke:red;stroke-width:1px;stroke-linecap:butt;stroke-linejoin:miter;stroke-opacity:1" d="M 428.818,565.918 434.298,589.826 z" id="boundary" inkscape:connector-curvature="0" />
	<path style="fill:none;stroke:red;stroke-width:1px;stroke-linecap:butt;stroke-linejoin:miter;stroke-opacity:1" d="M 434.298,589.826 433.327,606.333 z" id="boundary" inkscape:connector-curvature="0" />
	<path style="fill:none;stroke:red;stroke-width:1px;stroke-linecap:butt;stroke-linejoin:miter;stroke-opacity:1" d="M 430.727,628.237 433.327,606.333 z" id="boundary" inkscape:connector-curvature="0" />
	<path style="fill:none;stroke:red;stroke-width:1px;stroke-linecap:butt;stroke-linejoin:miter;stroke-opacity:1" d="M 417.595,666.876 430.51,679.708 z" id="boundary" inkscape:connector-curvature="0" />
	<path style="fill:none;stroke:red;stroke-width:1px;stroke-linecap:butt;stroke-linejoin:miter;stroke-opacity:1" d="M 423.658,653.705 430.727,628.237 z" id="boundary" inkscape:connector-curvature="0" />
	<path style="fill:none;stroke:red;stroke-width:1px;stroke-linecap:butt;stroke-linejoin:miter;stroke-opacity:1" d="M 423.658,653.705 417.595,666.876 z" id="boundary" inkscape:connector-curvature="0" />
	<path style="fill:none;stroke:red;stroke-width:1px;stroke-linecap:butt;stroke-linejoin:miter;stroke-opacity:1" d="M 625.19,62.454 643.774,59.9058 z" id="boundary" inkscape:connector-curvature="0" />
	<path style="fill:none;stroke:red;stroke-width:1px;stroke-linecap:butt;stroke-linejoin:miter;stroke-opacity:1" d="M 621.976,81.7938 589.506,103.287 z" id="boundary" inkscape:connector-curvature="0" />
	<path style="fill:none;stroke:red;stroke-width:1px;stroke-linecap:butt;stroke-linejoin:miter;stroke-opacity:1" d="M 676.177,38.83 643.774,59.9058 z" id="boundary" inkscape:connector-curvature="0" />
	<path style="fill:none;stroke:red;stroke-width:1px;stroke-linecap:butt;stroke-linejoin:miter;stroke-opacity:1" d="M 530.67,196.95 533.849,158.688 z" id="boundary" inkscape:connector-curvature="0" />
	<path style="fill:none;stroke:red;stroke-width:1px;stroke-linecap:butt;stroke-linejoin:miter;stroke-opacity:1" d="M 589.506,103.287 577.165,114.285 z" id="boundary" inkscape:connector-curvature="0" />
	<path style="fill:none;stroke:red;stroke-width:1px;stroke-linecap:butt;stroke-linejoin:miter;stroke-opacity:1" d="M 577.165,114.285 562.836,120.005 z" id="boundary" inkscape:connector-curvature="0" />
	<path style="fill:none;stroke:red;stroke-width:1px;stroke-linecap:butt;stroke-linejoin:miter;stroke-opacity:1" d="M 747.437,9.44028 760.275,6.73336 z" id="boundary" inkscape:connector-curvature="0" />
	<path style="fill:none;stroke:red;stroke-width:1px;stroke-linecap:butt;stroke-linejoin:miter;stroke-opacity:1" d="M 760.275,6.73336 781.985,14.4611 z" id="boundary" inkscape:connector-curvature="0" />
	<path style="fill:none;stroke:red;stroke-width:1px;stroke-linecap:butt;stroke-linejoin:miter;stroke-opacity:1" d="M 797.619,180.386 783.118,178.745 z" id="boundary" inkscape:connector-curvature="0" />
	<path style="fill:none;stroke:red;stroke-width:1px;stroke-linecap:butt;stroke-linejoin:miter;stroke-opacity:1" d="M 794.382,9.89425 781.985,14.4611 z" id="boundary" inkscape:connector-curvature="0" />
	<path style="fill:none;stroke:red;stroke-width:1px;stroke-linecap:butt;stroke-linejoin:miter;stroke-opacity:1" d="M 689.147,34.9435 716.395,16.9363 z" id="boundary" inkscape:connector-curvature="0" />
	<path style="fill:none;stroke:red;stroke-width:1px;stroke-linecap:butt;stroke-linejoin:miter;stroke-opacity:1" d="M 689.147,34.9435 676.177,38.83 z" id="boundary" inkscape:connector-curvature="0" />
	<path style="fill:none;stroke:red;stroke-width:1px;stroke-linecap:butt;stroke-linejoin:miter;stroke-opacity:1" d="M 746.938,196.196 762.029,186.513 z" id="boundary" inkscape:connector-curvature="0" />
	<path style="fill:none;stroke:red;stroke-width:1px;stroke-linecap:butt;stroke-linejoin:miter;stroke-opacity:1" d="M 783.118,178.745 762.029,186.513 z" id="boundary" inkscape:connector-curvature="0" />
	<path style="fill:none;stroke:red;stroke-width:1px;stroke-linecap:butt;stroke-linejoin:miter;stroke-opacity:1" d="M 716.395,16.9363 747.437,9.44028 z" id="boundary" inkscape:connector-curvature="0" />
	<path style="fill:none;stroke:red;stroke-width:1px;stroke-linecap:butt;stroke-linejoin:miter;stroke-opacity:1" d="M 746.938,196.196 719.19,202.673 z" id="boundary" inkscape:connector-curvature="0" />
	<path style="fill:none;stroke:red;stroke-width:1px;stroke-linecap:butt;stroke-linejoin:miter;stroke-opacity:1" d="M 488.544,251.408 506.402,244.998 z" id="boundary" inkscape:connector-curvature="0" />
	<path style="fill:none;stroke:red;stroke-width:1px;stroke-linecap:butt;stroke-linejoin:miter;stroke-opacity:1" d="M 479.076,286.69 488.544,251.408 z" id="boundary" inkscape:connector-curvature="0" />
	<path style="fill:none;stroke:red;stroke-width:1px;stroke-linecap:butt;stroke-linejoin:miter;stroke-opacity:1" d="M 530.67,196.95 526.403,224.629 z" id="boundary" inkscape:connector-curvature="0" />
	<path style="fill:none;stroke:red;stroke-width:1px;stroke-linecap:butt;stroke-linejoin:miter;stroke-opacity:1" d="M 526.403,224.629 506.402,244.998 z" id="boundary" inkscape:connector-curvature="0" />
	<path style="fill:none;stroke:red;stroke-width:1px;stroke-linecap:butt;stroke-linejoin:miter;stroke-opacity:1" d="M 483.597,313.381 477.967,340.582 z" id="boundary" inkscape:connector-curvature="0" />
	<path style="fill:none;stroke:red;stroke-width:1px;stroke-linecap:butt;stroke-linejoin:miter;stroke-opacity:1" d="M 483.597,313.381 479.076,286.69 z" id="boundary" inkscape:connector-curvature="0" />
	<path style="fill:none;stroke:red;stroke-width:1px;stroke-linecap:butt;stroke-linejoin:miter;stroke-opacity:1" d="M 661.016,319.347 663.367,323.856 z" id="boundary" inkscape:connector-curvature="0" />
	<path style="fill:none;stroke:red;stroke-width:1px;stroke-linecap:butt;stroke-linejoin:miter;stroke-opacity:1" d="M 663.367,323.856 663.061,341.448 z" id="boundary" inkscape:connector-curvature="0" />
	<path style="fill:none;stroke:red;stroke-width:1px;stroke-linecap:butt;stroke-linejoin:miter;stroke-opacity:1" d="M 663.061,341.448 653.239,378.235 z" id="boundary" inkscape:connector-curvature="0" />
	<path style="fill:none;stroke:red;stroke-width:1px;stroke-linecap:butt;stroke-linejoin:miter;stroke-opacity:1" d="M 677.071,262.273 693.488,258.991 z" id="boundary" inkscape:connector-curvature="0" />
	<path style="fill:none;stroke:red;stroke-width:1px;stroke-linecap:butt;stroke-linejoin:miter;stroke-opacity:1" d="M 679.415,280.182 677.071,262.273 z" id="boundary" inkscape:connector-curvature="0" />
	<path style="fill:none;stroke:red;stroke-width:1px;stroke-linecap:butt;stroke-linejoin:miter;stroke-opacity:1" d="M 704.999,234.472 693.488,258.991 z" id="boundary" inkscape:connector-curvature="0" />
	<path style="fill:none;stroke:red;stroke-width:1px;stroke-linecap:butt;stroke-linejoin:miter;stroke-opacity:1" d="M 719.19,202.673 718.537,219.004 z" id="boundary" inkscape:connector-curvature="0" />
	<path style="fill:none;stroke:red;stroke-width:1px;stroke-linecap:butt;stroke-linejoin:miter;stroke-opacity:1" d="M 718.537,219.004 704.999,234.472 z" id="boundary" inkscape:connector-curvature="0" />
	<path style="fill:none;stroke:red;stroke-width:1px;stroke-linecap:butt;stroke-linejoin:miter;stroke-opacity:1" d="M 661.016,319.347 679.415,280.182 z" id="boundary" inkscape:connector-curvature="0" />
	<path style="fill:none;stroke:red;stroke-width:1px;stroke-linecap:butt;stroke-linejoin:miter;stroke-opacity:1" d="M 768.772,304.365 788.548,287.01 z" id="boundary" inkscape:connector-curvature="0" />
	<path style="fill:none;stroke:red;stroke-width:1px;stroke-linecap:butt;stroke-linejoin:miter;stroke-opacity:1" d="M 774.326,328.932 768.772,304.365 z" id="boundary" inkscape:connector-curvature="0" />
	<path style="fill:none;stroke:red;stroke-width:1px;stroke-linecap:butt;stroke-linejoin:miter;stroke-opacity:1" d="M 788.548,287.01 808.544,285.693 z" id="boundary" inkscape:connector-curvature="0" />
	<path style="fill:none;stroke:red;stroke-width:1px;stroke-linecap:butt;stroke-linejoin:miter;stroke-opacity:1" d="M 774.326,328.932 772.658,360.187 z" id="boundary" inkscape:connector-curvature="0" />
	<path style="fill:none;stroke:red;stroke-width:1px;stroke-linecap:butt;stroke-linejoin:miter;stroke-opacity:1" d="M 794.382,9.89425 817.697,10.9252 z" id="boundary" inkscape:connector-curvature="0" />
	<path style="fill:none;stroke:red;stroke-width:1px;stroke-linecap:butt;stroke-linejoin:miter;stroke-opacity:1" d="M 817.697,10.9252 846.856,4 z" id="boundary" inkscape:connector-curvature="0" />
	<path style="fill:none;stroke:red;stroke-width:1px;stroke-linecap:butt;stroke-linejoin:miter;stroke-opacity:1" d="M 860.633,27.4833 883.72,27.5938 z" id="boundary" inkscape:connector-curvature="0" />
	<path style="fill:none;stroke:red;stroke-width:1px;stroke-linecap:butt;stroke-linejoin:miter;stroke-opacity:1" d="M 908.398,35.0264 883.72,27.5938 z" id="boundary" inkscape:connector-curvature="0" />
	<path style="fill:none;stroke:red;stroke-width:1px;stroke-linecap:butt;stroke-linejoin:miter;stroke-opacity:1" d="M 797.619,180.386 819.993,178.607 z" id="boundary" inkscape:connector-curvature="0" />
	<path style="fill:none;stroke:red;stroke-width:1px;stroke-linecap:butt;stroke-linejoin:miter;stroke-opacity:1" d="M 848.31,171.194 874.257,170.436 z" id="boundary" inkscape:connector-curvature="0" />
	<path style="fill:none;stroke:red;stroke-width:1px;stroke-linecap:butt;stroke-linejoin:miter;stroke-opacity:1" d="M 874.257,170.436 898.225,185.235 z" id="boundary" inkscape:connector-curvature="0" />
	<path style="fill:none;stroke:red;stroke-width:1px;stroke-linecap:butt;stroke-linejoin:miter;stroke-opacity:1" d="M 819.993,178.607 848.31,171.194 z" id="boundary" inkscape:connector-curvature="0" />
	<path style="fill:none;stroke:red;stroke-width:1px;stroke-linecap:butt;stroke-linejoin:miter;stroke-opacity:1" d="M 925.506,43.0937 908.398,35.0264 z" id="boundary" inkscape:connector-curvature="0" />
	<path style="fill:none;stroke:red;stroke-width:1px;stroke-linecap:butt;stroke-linejoin:miter;stroke-opacity:1" d="M 975.028,90.5182 961.641,73.9099 z" id="boundary" inkscape:connector-curvature="0" />
	<path style="fill:none;stroke:red;stroke-width:1px;stroke-linecap:butt;stroke-linejoin:miter;stroke-opacity:1" d="M 961.641,73.9099 954.162,59.0477 z" id="boundary" inkscape:connector-curvature="0" />
	<path style="fill:none;stroke:red;stroke-width:1px;stroke-linecap:butt;stroke-linejoin:miter;stroke-opacity:1" d="M 925.506,43.0937 954.162,59.0477 z" id="boundary" inkscape:connector-curvature="0" />
	<path style="fill:none;stroke:red;stroke-width:1px;stroke-linecap:butt;stroke-linejoin:miter;stroke-opacity:1" d="M 975.028,90.5182 976.686,111.846 z" id="boundary" inkscape:connector-curvature="0" />
	<path style="fill:none;stroke:red;stroke-width:1px;stroke-linecap:butt;stroke-linejoin:miter;stroke-opacity:1" d="M 911.69,192.854 898.225,185.235 z" id="boundary" inkscape:connector-curvature="0" />
	<path style="fill:none;stroke:red;stroke-width:1px;stroke-linecap:butt;stroke-linejoin:miter;stroke-opacity:1" d="M 976.686,111.846 973.303,146.36 z" id="boundary" inkscape:connector-curvature="0" />
	<path style="fill:none;stroke:red;stroke-width:1px;stroke-linecap:butt;stroke-linejoin:miter;stroke-opacity:1" d="M 927.619,209.447 911.69,192.854 z" id="boundary" inkscape:connector-curvature="0" />
	<path style="fill:none;stroke:red;stroke-width:1px;stroke-linecap:butt;stroke-linejoin:miter;stroke-opacity:1" d="M 903.695,269.061 879.095,273.693 z" id="boundary" inkscape:connector-curvature="0" />
	<path style="fill:none;stroke:red;stroke-width:1px;stroke-linecap:butt;stroke-linejoin:miter;stroke-opacity:1" d="M 879.095,273.693 868.708,266.373 z" id="boundary" inkscape:connector-curvature="0" />
	<path style="fill:none;stroke:red;stroke-width:1px;stroke-linecap:butt;stroke-linejoin:miter;stroke-opacity:1" d="M 927.619,209.447 934.187,237.419 z" id="boundary" inkscape:connector-curvature="0" />
	<path style="fill:none;stroke:red;stroke-width:1px;stroke-linecap:butt;stroke-linejoin:miter;stroke-opacity:1" d="M 868.708,266.373 854.028,277.33 z" id="boundary" inkscape:connector-curvature="0" />
	<path style="fill:none;stroke:red;stroke-width:1px;stroke-linecap:butt;stroke-linejoin:miter;stroke-opacity:1" d="M 933.379,281.75 903.695,269.061 z" id="boundary" inkscape:connector-curvature="0" />
	<path style="fill:none;stroke:red;stroke-width:1px;stroke-linecap:butt;stroke-linejoin:miter;stroke-opacity:1" d="M 823.882,285.527 808.544,285.693 z" id="boundary" inkscape:connector-curvature="0" />
	<path style="fill:none;stroke:red;stroke-width:1px;stroke-linecap:butt;stroke-linejoin:miter;stroke-opacity:1" d="M 823.882,285.527 854.028,277.33 z" id="boundary" inkscape:connector-curvature="0" />
	<path style="fill:none;stroke:red;stroke-width:1px;stroke-linecap:butt;stroke-linejoin:miter;stroke-opacity:1" d="M 934.187,237.419 947.914,248.759 z" id="boundary" inkscape:connector-curvature="0" />
	<path style="fill:none;stroke:red;stroke-width:1px;stroke-linecap:butt;stroke-linejoin:miter;stroke-opacity:1" d="M 963.03,262.3 954.872,274.097 z" id="boundary" inkscape:connector-curvature="0" />
	<path style="fill:none;stroke:red;stroke-width:1px;stroke-linecap:butt;stroke-linejoin:miter;stroke-opacity:1" d="M 966.96,227.353 963.03,262.3 z" id="boundary" inkscape:connector-curvature="0" />
	<path style="fill:none;stroke:red;stroke-width:1px;stroke-linecap:butt;stroke-linejoin:miter;stroke-opacity:1" d="M 966.12,214.668 967.209,201.297 z" id="boundary" inkscape:connector-curvature="0" />
	<path style="fill:none;stroke:red;stroke-width:1px;stroke-linecap:butt;stroke-linejoin:miter;stroke-opacity:1" d="M 966.96,227.353 966.12,214.668 z" id="boundary" inkscape:connector-curvature="0" />
	<path style="fill:none;stroke:red;stroke-width:1px;stroke-linecap:butt;stroke-linejoin:miter;stroke-opacity:1" d="M 967.209,201.297 970.904,174.691 z" id="boundary" inkscape:connector-curvature="0" />
	<path style="fill:none;stroke:red;stroke-width:1px;stroke-linecap:butt;stroke-linejoin:miter;stroke-opacity:1" d="M 479.345,379.057 483.478,409.779 z" id="boundary" inkscape:connector-curvature="0" />
	<path style="fill:none;stroke:red;stroke-width:1px;stroke-linecap:butt;stroke-linejoin:miter;stroke-opacity:1" d="M 477.967,340.582 479.345,379.057 z" id="boundary" inkscape:connector-curvature="0" />
	<path style="fill:none;stroke:red;stroke-width:1px;stroke-linecap:butt;stroke-linejoin:miter;stroke-opacity:1" d="M 662.663,401.412 653.239,378.235 z" id="boundary" inkscape:connector-curvature="0" />
	<path style="fill:none;stroke:red;stroke-width:1px;stroke-linecap:butt;stroke-linejoin:miter;stroke-opacity:1" d="M 662.663,401.412 659.854,424.365 z" id="boundary" inkscape:connector-curvature="0" />
	<path style="fill:none;stroke:red;stroke-width:1px;stroke-linecap:butt;stroke-linejoin:miter;stroke-opacity:1" d="M 483.143,423.765 483.478,409.779 z" id="boundary" inkscape:connector-curvature="0" />
	<path style="fill:none;stroke:red;stroke-width:1px;stroke-linecap:butt;stroke-linejoin:miter;stroke-opacity:1" d="M 514.859,471.519 486.394,448.018 z" id="boundary" inkscape:connector-curvature="0" />
	<path style="fill:none;stroke:red;stroke-width:1px;stroke-linecap:butt;stroke-linejoin:miter;stroke-opacity:1" d="M 486.394,448.018 483.143,423.765 z" id="boundary" inkscape:connector-curvature="0" />
	<path style="fill:none;stroke:red;stroke-width:1px;stroke-linecap:butt;stroke-linejoin:miter;stroke-opacity:1" d="M 514.859,471.519 515.643,503.581 z" id="boundary" inkscape:connector-curvature="0" />
	<path style="fill:none;stroke:red;stroke-width:1px;stroke-linecap:butt;stroke-linejoin:miter;stroke-opacity:1" d="M 688.933,447.671 659.854,424.365 z" id="boundary" inkscape:connector-curvature="0" />
	<path style="fill:none;stroke:red;stroke-width:1px;stroke-linecap:butt;stroke-linejoin:miter;stroke-opacity:1" d="M 779.402,399.862 778.893,405.769 z" id="boundary" inkscape:connector-curvature="0" />
	<path style="fill:none;stroke:red;stroke-width:1px;stroke-linecap:butt;stroke-linejoin:miter;stroke-opacity:1" d="M 778.893,405.769 768.355,426.811 z" id="boundary" inkscape:connector-curvature="0" />
	<path style="fill:none;stroke:red;stroke-width:1px;stroke-linecap:butt;stroke-linejoin:miter;stroke-opacity:1" d="M 786.858,367.668 779.402,399.862 z" id="boundary" inkscape:connector-curvature="0" />
	<path style="fill:none;stroke:red;stroke-width:1px;stroke-linecap:butt;stroke-linejoin:miter;stroke-opacity:1" d="M 772.658,360.187 786.858,367.668 z" id="boundary" inkscape:connector-curvature="0" />
	<path style="fill:none;stroke:red;stroke-width:1px;stroke-linecap:butt;stroke-linejoin:miter;stroke-opacity:1" d="M 688.933,447.671 700.339,452.034 z" id="boundary" inkscape:connector-curvature="0" />
	<path style="fill:none;stroke:red;stroke-width:1px;stroke-linecap:butt;stroke-linejoin:miter;stroke-opacity:1" d="M 729.63,492.304 709.051,476.641 z" id="boundary" inkscape:connector-curvature="0" />
	<path style="fill:none;stroke:red;stroke-width:1px;stroke-linecap:butt;stroke-linejoin:miter;stroke-opacity:1" d="M 790.827,432.007 768.355,426.811 z" id="boundary" inkscape:connector-curvature="0" />
	<path style="fill:none;stroke:red;stroke-width:1px;stroke-linecap:butt;stroke-linejoin:miter;stroke-opacity:1" d="M 790.827,432.007 812.691,447.563 z" id="boundary" inkscape:connector-curvature="0" />
	<path style="fill:none;stroke:red;stroke-width:1px;stroke-linecap:butt;stroke-linejoin:miter;stroke-opacity:1" d="M 515.643,503.581 519.913,519.816 z" id="boundary" inkscape:connector-curvature="0" />
	<path style="fill:none;stroke:red;stroke-width:1px;stroke-linecap:butt;stroke-linejoin:miter;stroke-opacity:1" d="M 543.176,537.311 519.913,519.816 z" id="boundary" inkscape:connector-curvature="0" />
	<path style="fill:none;stroke:red;stroke-width:1px;stroke-linecap:butt;stroke-linejoin:miter;stroke-opacity:1" d="M 543.176,537.311 572.657,562.412 z" id="boundary" inkscape:connector-curvature="0" />
	<path style="fill:none;stroke:red;stroke-width:1px;stroke-linecap:butt;stroke-linejoin:miter;stroke-opacity:1" d="M 572.657,562.412 585.492,581.65 z" id="boundary" inkscape:connector-curvature="0" />
	<path style="fill:none;stroke:red;stroke-width:1px;stroke-linecap:butt;stroke-linejoin:miter;stroke-opacity:1" d="M 585.492,581.65 607.46,593.393 z" id="boundary" inkscape:connector-curvature="0" />
	<path style="fill:none;stroke:red;stroke-width:1px;stroke-linecap:butt;stroke-linejoin:miter;stroke-opacity:1" d="M 607.46,593.393 614.678,608.956 z" id="boundary" inkscape:connector-curvature="0" />
	<path style="fill:none;stroke:red;stroke-width:1px;stroke-linecap:butt;stroke-linejoin:miter;stroke-opacity:1" d="M 656.404,626.285 636.099,629.063 z" id="boundary" inkscape:connector-curvature="0" />
	<path style="fill:none;stroke:red;stroke-width:1px;stroke-linecap:butt;stroke-linejoin:miter;stroke-opacity:1" d="M 636.099,629.063 614.678,608.956 z" id="boundary" inkscape:connector-curvature="0" />
	<path style="fill:none;stroke:red;stroke-width:1px;stroke-linecap:butt;stroke-linejoin:miter;stroke-opacity:1" d="M 694.538,654.774 656.404,626.285 z" id="boundary" inkscape:connector-curvature="0" />
	<path style="fill:none;stroke:red;stroke-width:1px;stroke-linecap:butt;stroke-linejoin:miter;stroke-opacity:1" d="M 791.177,520.007 746.552,513.068 z" id="boundary" inkscape:connector-curvature="0" />
	<path style="fill:none;stroke:red;stroke-width:1px;stroke-linecap:butt;stroke-linejoin:miter;stroke-opacity:1" d="M 746.552,513.068 729.63,492.304 z" id="boundary" inkscape:connector-curvature="0" />
	<path style="fill:none;stroke:red;stroke-width:1px;stroke-linecap:butt;stroke-linejoin:miter;stroke-opacity:1" d="M 808.302,509.182 791.177,520.007 z" id="boundary" inkscape:connector-curvature="0" />
	<path style="fill:none;stroke:red;stroke-width:1px;stroke-linecap:butt;stroke-linejoin:miter;stroke-opacity:1" d="M 814.424,666.827 797.301,667.878 z" id="boundary" inkscape:connector-curvature="0" />
	<path style="fill:none;stroke:red;stroke-width:1px;stroke-linecap:butt;stroke-linejoin:miter;stroke-opacity:1" d="M 694.538,654.774 726.051,671.329 z" id="boundary" inkscape:connector-curvature="0" />
	<path style="fill:none;stroke:red;stroke-width:1px;stroke-linecap:butt;stroke-linejoin:miter;stroke-opacity:1" d="M 797.301,667.878 767.322,674.494 z" id="boundary" inkscape:connector-curvature="0" />
	<path style="fill:none;stroke:red;stroke-width:1px;stroke-linecap:butt;stroke-linejoin:miter;stroke-opacity:1" d="M 726.051,671.329 743.144,662.337 z" id="boundary" inkscape:connector-curvature="0" />
	<path style="fill:none;stroke:red;stroke-width:1px;stroke-linecap:butt;stroke-linejoin:miter;stroke-opacity:1" d="M 808.302,509.182 833.307,520.993 z" id="boundary" inkscape:connector-curvature="0" />
	<path style="fill:none;stroke:red;stroke-width:1px;stroke-linecap:butt;stroke-linejoin:miter;stroke-opacity:1" d="M 858.118,439.936 843.788,445.096 z" id="boundary" inkscape:connector-curvature="0" />
	<path style="fill:none;stroke:red;stroke-width:1px;stroke-linecap:butt;stroke-linejoin:miter;stroke-opacity:1" d="M 907.507,436.189 899.878,443.576 z" id="boundary" inkscape:connector-curvature="0" />
	<path style="fill:none;stroke:red;stroke-width:1px;stroke-linecap:butt;stroke-linejoin:miter;stroke-opacity:1" d="M 899.878,443.576 869.499,441.96 z" id="boundary" inkscape:connector-curvature="0" />
	<path style="fill:none;stroke:red;stroke-width:1px;stroke-linecap:butt;stroke-linejoin:miter;stroke-opacity:1" d="M 869.499,441.96 858.118,439.936 z" id="boundary" inkscape:connector-curvature="0" />
	<path style="fill:none;stroke:red;stroke-width:1px;stroke-linecap:butt;stroke-linejoin:miter;stroke-opacity:1" d="M 885.616,521.475 868.478,518.791 z" id="boundary" inkscape:connector-curvature="0" />
	<path style="fill:none;stroke:red;stroke-width:1px;stroke-linecap:butt;stroke-linejoin:miter;stroke-opacity:1" d="M 868.478,518.791 833.307,520.993 z" id="boundary" inkscape:connector-curvature="0" />
	<path style="fill:none;stroke:red;stroke-width:1px;stroke-linecap:butt;stroke-linejoin:miter;stroke-opacity:1" d="M 812.691,447.563 819.887,435.223 z" id="boundary" inkscape:connector-curvature="0" />
	<path style="fill:none;stroke:red;stroke-width:1px;stroke-linecap:butt;stroke-linejoin:miter;stroke-opacity:1" d="M 907.507,436.189 923.103,445.832 z" id="boundary" inkscape:connector-curvature="0" />
	<path style="fill:none;stroke:red;stroke-width:1px;stroke-linecap:butt;stroke-linejoin:miter;stroke-opacity:1" d="M 994.975,403.753 981.616,419.711 z" id="boundary" inkscape:connector-curvature="0" />
	<path style="fill:none;stroke:red;stroke-width:1px;stroke-linecap:butt;stroke-linejoin:miter;stroke-opacity:1" d="M 996,369.814 994.975,403.753 z" id="boundary" inkscape:connector-curvature="0" />
	<path style="fill:none;stroke:red;stroke-width:1px;stroke-linecap:butt;stroke-linejoin:miter;stroke-opacity:1" d="M 986.139,361.752 996,369.814 z" id="boundary" inkscape:connector-curvature="0" />
	<path style="fill:none;stroke:red;stroke-width:1px;stroke-linecap:butt;stroke-linejoin:miter;stroke-opacity:1" d="M 986.139,361.752 988.173,348.593 z" id="boundary" inkscape:connector-curvature="0" />
	<path style="fill:none;stroke:red;stroke-width:1px;stroke-linecap:butt;stroke-linejoin:miter;stroke-opacity:1" d="M 980.415,435.119 981.616,419.711 z" id="boundary" inkscape:connector-curvature="0" />
	<path style="fill:none;stroke:red;stroke-width:1px;stroke-linecap:butt;stroke-linejoin:miter;stroke-opacity:1" d="M 923.103,445.832 944.254,449.337 z" id="boundary" inkscape:connector-curvature="0" />
	<path style="fill:none;stroke:red;stroke-width:1px;stroke-linecap:butt;stroke-linejoin:miter;stroke-opacity:1" d="M 980.415,435.119 972.3,452.424 z" id="boundary" inkscape:connector-curvature="0" />
	<path style="fill:none;stroke:red;stroke-width:1px;stroke-linecap:butt;stroke-linejoin:miter;stroke-opacity:1" d="M 972.3,452.424 944.254,449.337 z" id="boundary" inkscape:connector-curvature="0" />
	<path style="fill:none;stroke:red;stroke-width:1px;stroke-linecap:butt;stroke-linejoin:miter;stroke-opacity:1" d="M 959.291,526.165 939.183,511.724 z" id="boundary" inkscape:connector-curvature="0" />
	<path style="fill:none;stroke:red;stroke-width:1px;stroke-linecap:butt;stroke-linejoin:miter;stroke-opacity:1" d="M 838.595,672.398 814.424,666.827 z" id="boundary" inkscape:connector-curvature="0" />
	<path style="fill:none;stroke:red;stroke-width:1px;stroke-linecap:butt;stroke-linejoin:miter;stroke-opacity:1" d="M 885.616,521.475 910.68,525.444 z" id="boundary" inkscape:connector-curvature="0" />
	<path style="fill:none;stroke:red;stroke-width:1px;stroke-linecap:butt;stroke-linejoin:miter;stroke-opacity:1" d="M 873.592,677.839 896.656,683.055 z" id="boundary" inkscape:connector-curvature="0" />
	<path style="fill:none;stroke:red;stroke-width:1px;stroke-linecap:butt;stroke-linejoin:miter;stroke-opacity:1" d="M 873.592,677.839 838.595,672.398 z" id="boundary" inkscape:connector-curvature="0" />
	<path style="fill:none;stroke:red;stroke-width:1px;stroke-linecap:butt;stroke-linejoin:miter;stroke-opacity:1" d="M 896.656,683.055 901.025,680.779 z" id="boundary" inkscape:connector-curvature="0" />
	<path style="fill:none;stroke:red;stroke-width:1px;stroke-linecap:butt;stroke-linejoin:miter;stroke-opacity:1" d="M 928.023,668.938 901.025,680.779 z" id="boundary" inkscape:connector-curvature="0" />
	<path style="fill:none;stroke:red;stroke-width:1px;stroke-linecap:butt;stroke-linejoin:miter;stroke-opacity:1" d="M 928.023,668.938 966.21,679.698 z" id="boundary" inkscape:connector-curvature="0" />
	<path style="fill:none;stroke:red;stroke-width:1px;stroke-linecap:butt;stroke-linejoin:miter;stroke-opacity:1" d="M 990.145,536.285 993.651,564.397 z" id="boundary" inkscape:connector-curvature="0" />
	<path style="fill:none;stroke:red;stroke-width:1px;stroke-linecap:butt;stroke-linejoin:miter;stroke-opacity:1" d="M 976.833,590.314 973.967,610.166 z" id="boundary" inkscape:connector-curvature="0" />
	<path style="fill:none;stroke:red;stroke-width:1px;stroke-linecap:butt;stroke-linejoin:miter;stroke-opacity:1" d="M 993.651,564.397 992.293,597.88 z" id="boundary" inkscape:connector-curvature="0" />
	<path style="fill:none;stroke:red;stroke-width:1px;stroke-linecap:butt;stroke-linejoin:miter;stroke-opacity:1" d="M 994.841,635.37 992.293,597.88 z" id="boundary" inkscape:connector-curvature="0" />
	<path style="fill:none;stroke:red;stroke-width:1px;stroke-linecap:butt;stroke-linejoin:miter;stroke-opacity:1" d="M 990.145,536.285 985.246,524.923 z" id="boundary" inkscape:connector-curvature="0" />
	<path style="fill:none;stroke:red;stroke-width:1px;stroke-linecap:butt;stroke-linejoin:miter;stroke-opacity:1" d="M 973.967,610.166 976.824,649.305 z" id="boundary" inkscape:connector-curvature="0" />
	<path style="fill:none;stroke:red;stroke-width:1px;stroke-linecap:butt;stroke-linejoin:miter;stroke-opacity:1" d="M 994.841,635.37 974.95,667.133 z" id="boundary" inkscape:connector-curvature="0" />
	<path style="fill:none;stroke:red;stroke-width:1px;stroke-linecap:butt;stroke-linejoin:miter;stroke-opacity:1" d="M 974.95,667.133 966.21,679.698 z" id="boundary" inkscape:connector-curvature="0" />
	<path style="fill:none;stroke:red;stroke-width:1px;stroke-linecap:butt;stroke-linejoin:miter;stroke-opacity:1" d="M 959.291,526.165 985.246,524.923 z" id="boundary" inkscape:connector-curvature="0" />
	<circle cx="11.5508" cy="674.839" r="4" fill="#0" id="circle0"/>
	<circle cx="40.8956" cy="665.292" r="4" fill="#0" id="circle1"/>
	<circle cx="62.0375" cy="679.49" r="4" fill="#0" id="circle2"/>
	<circle cx="102.381" cy="666.006" r="4" fill="#0" id="circle3"/>
	<circle cx="134.279" cy="671.068" r="4" fill="#0" id="circle4"/>
	<circle cx="161.377" cy="669.299" r="4" fill="#0" id="circle5"/>
	<circle cx="197.125" cy="672.027" r="4" fill="#0" id="circle6"/>
	<circle cx="213.785" cy="661.237" r="4" fill="#0" id="circle7"/>
	<circle cx="249.261" cy="665.937" r="4" fill="#0" id="circle8"/>
	<circle cx="288.932" cy="671.089" r="4" fill="#0" id="circle9"/>
	<circle cx="317.343" cy="679.692" r="4" fill="#0" id="circle10"/>
	<circle cx="337.393" cy="666.429" r="4" fill="#0" id="circle11"/>
	<circle cx="358.566" cy="677.229" r="4" fill="#0" id="circle12"/>
	<circle cx="384.653" cy="684.132" r="4" fill="#0" id="circle13"/>
	<circle cx="383.204" cy="681.546" r="4" fill="#0" id="circle14"/>
	<circle cx="417.595" cy="666.876" r="4" fill="#0" id="circle15"/>
	<circle cx="430.51" cy="679.708" r="4" fill="#0" id="circle16"/>
	<circle cx="16.3388" cy="648.863" r="4" fill="#0" id="circle17"/>
	<circle cx="19.7406" cy="620.451" r="4" fill="#0" id="circle18"/>
	<circle cx="24.4915" cy="607.394" r="4" fill="#0" id="circle19"/>
	<circle cx="17.6844" cy="588.34" r="4" fill="#0" id="circle20"/>
	<circle cx="20.6738" cy="563.832" r="4" fill="#0" id="circle21"/>
	<circle cx="22.1637" cy="557.481" r="4" fill="#0" id="circle22"/>
	<circle cx="9.7727" cy="525.006" r="4" fill="#0" id="circle23"/>
	<circle cx="28.4824" cy="507.746" r="4" fill="#0" id="circle24"/>
	<circle cx="32.9733" cy="525.599" r="4" fill="#0" id="circle25"/>
	<circle cx="59.9477" cy="514.507" r="4" fill="#0" id="circle26"/>
	<circle cx="66.3613" cy="519.389" r="4" fill="#0" id="circle27"/>
	<circle cx="104.968" cy="527.159" r="4" fill="#0" id="circle28"/>
	<circle cx="114.758" cy="526.142" r="4" fill="#0" id="circle29"/>
	<circle cx="139.03" cy="505.97" r="4" fill="#0" id="circle30"/>
	<circle cx="147.522" cy="508.799" r="4" fill="#0" id="circle31"/>
	<circle cx="187.99" cy="516.151" r="4" fill="#0" id="circle32"/>
	<circle cx="208.332" cy="509.669" r="4" fill="#0" id="circle33"/>
	<circle cx="226.72" cy="511.855" r="4" fill="#0" id="circle34"/>
	<circle cx="246.631" cy="527.977" r="4" fill="#0" id="circle35"/>
	<circle cx="270.484" cy="506.887" r="4" fill="#0" id="circle36"/>
	<circle cx="279.192" cy="511.87" r="4" fill="#0" id="circle37"/>
	<circle cx="314.829" cy="512.727" r="4" fill="#0" id="circle38"/>
	<circle cx="328.059" cy="520.539" r="4" fill="#0" id="circle39"/>
	<circle cx="346.015" cy="524.983" r="4" fill="#0" id="circle40"/>
	<circle cx="369.685" cy="508.11" r="4" fill="#0" id="circle41"/>
	<circle cx="380.853" cy="521.1" r="4" fill="#0" id="circle42"/>
	<circle cx="411.578" cy="509.069" r="4" fill="#0" id="circle43"/>
	<circle cx="429.071" cy="513.953" r="4" fill="#0" id="circle44"/>
	<circle cx="423.658" cy="653.705" r="4" fill="#0" id="circle45"/>
	<circle cx="430.727" cy="628.237" r="4" fill="#0" id="circle46"/>
	<circle cx="433.327" cy="606.333" r="4" fill="#0" id="circle47"/>
	<circle cx="434.298" cy="589.826" r="4" fill="#0" id="circle48"/>
	<circle cx="428.818" cy="565.918" r="4" fill="#0" id="circle49"/>
	<circle cx="433.585" cy="560.709" r="4" fill="#0" id="circle50"/>
	<circle cx="422.533" cy="524.98" r="4" fill="#0" id="circle51"/>
	<circle cx="26.6417" cy="426.643" r="4" fill="#0" id="circle52"/>
	<circle cx="429.838" cy="438.528" r="4" fill="#0" id="circle53"/>
	<circle cx="429.073" cy="285.569" r="4" fill="#0" id="circle54"/>
	<circle cx="188.444" cy="284.945" r="4" fill="#0" id="circle55"/>
	<circle cx="195.181" cy="196.515" r="4" fill="#0" id="circle56"/>
	<circle cx="439.282" cy="194.058" r="4" fill="#0" id="circle57"/>
	<circle cx="429.292" cy="44.3994" r="4" fill="#0" id="circle58"/>
	<circle cx="26.1231" cy="34.0868" r="4" fill="#0" id="circle59"/>
	<circle cx="48.0531" cy="445.755" r="4" fill="#0" id="circle60"/>
	<circle cx="66.7814" cy="430.765" r="4" fill="#0" id="circle61"/>
	<circle cx="81.943" cy="426.641" r="4" fill="#0" id="circle62"/>
	<circle cx="115.763" cy="440.952" r="4" fill="#0" id="circle63"/>
	<circle cx="137.125" cy="440.023" r="4" fill="#0" id="circle64"/>
	<circle cx="172.07" cy="440.701" r="4" fill="#0" id="circle65"/>
	<circle cx="185.57" cy="442.959" r="4" fill="#0" id="circle66"/>
	<circle cx="218.687" cy="431.434" r="4" fill="#0" id="circle67"/>
	<circle cx="240.956" cy="429.985" r="4" fill="#0" id="circle68"/>
	<circle cx="260.405" cy="432.402" r="4" fill="#0" id="circle69"/>
	<circle cx="282.881" cy="428.83" r="4" fill="#0" id="circle70"/>
	<circle cx="299.945" cy="438.955" r="4" fill="#0" id="circle71"/>
	<circle cx="317.383" cy="445.607" r="4" fill="#0" id="circle72"/>
	<circle cx="324.33" cy="431.422" r="4" fill="#0" id="circle73"/>
	<circle cx="350.572" cy="424.603" r="4" fill="#0" id="circle74"/>
	<circle cx="373.883" cy="429.51" r="4" fill="#0" id="circle75"/>
	<circle cx="408.417" cy="444.274" r="4" fill="#0" id="circle76"/>
	<circle cx="417.423" cy="445.613" r="4" fill="#0" id="circle77"/>
	<circle cx="445.879" cy="423.538" r="4" fill="#0" id="circle78"/>
	<circle cx="436.628" cy="387.372" r="4" fill="#0" id="circle79"/>
	<circle cx="435.257" cy="363.436" r="4" fill="#0" id="circle80"/>
	<circle cx="446.304" cy="350.836" r="4" fill="#0" id="circle81"/>
	<circle cx="422.63" cy="323.013" r="4" fill="#0" id="circle82"/>
	<circle cx="426.502" cy="304.515" r="4" fill="#0" id="circle83"/>
	<circle cx="202.529" cy="288.387" r="4" fill="#0" id="circle84"/>
	<circle cx="228.441" cy="289.228" r="4" fill="#0" id="circle85"/>
	<circle cx="274.363" cy="269.126" r="4" fill="#0" id="circle86"/>
	<circle cx="283.335" cy="284.13" r="4" fill="#0" id="circle87"/>
	<circle cx="313.874" cy="277.864" r="4" fill="#0" id="circle88"/>
	<circle cx="316.517" cy="269.024" r="4" fill="#0" id="circle89"/>
	<circle cx="355.056" cy="275.338" r="4" fill="#0" id="circle90"/>
	<circle cx="363.848" cy="278.971" r="4" fill="#0" id="circle91"/>
	<circle cx="381.659" cy="286.038" r="4" fill="#0" id="circle92"/>
	<circle cx="406.991" cy="271.771" r="4" fill="#0" id="circle93"/>
	<circle cx="199.826" cy="252.221" r="4" fill="#0" id="circle94"/>
	<circle cx="192.111" cy="235.84" r="4" fill="#0" id="circle95"/>
	<circle cx="189.347" cy="222.629" r="4" fill="#0" id="circle96"/>
	<circle cx="204.907" cy="203.276" r="4" fill="#0" id="circle97"/>
	<circle cx="201.327" cy="177.448" r="4" fill="#0" id="circle98"/>
	<circle cx="219.469" cy="180.949" r="4" fill="#0" id="circle99"/>
	<circle cx="234.776" cy="185.555" r="4" fill="#0" id="circle100"/>
	<circle cx="258.207" cy="179.89" r="4" fill="#0" id="circle101"/>
	<circle cx="280.338" cy="191.381" r="4" fill="#0" id="circle102"/>
	<circle cx="308.765" cy="180.973" r="4" fill="#0" id="circle103"/>
	<circle cx="309.45" cy="198.766" r="4" fill="#0" id="circle104"/>
	<circle cx="335.464" cy="194.725" r="4" fill="#0" id="circle105"/>
	<circle cx="353.757" cy="195.171" r="4" fill="#0" id="circle106"/>
	<circle cx="368.62" cy="193.098" r="4" fill="#0" id="circle107"/>
	<circle cx="396.495" cy="195.117" r="4" fill="#0" id="circle108"/>
	<circle cx="422.872" cy="185.627" r="4" fill="#0" id="circle109"/>
	<circle cx="22.3008" cy="410.443" r="4" fill="#0" id="circle110"/>
	<circle cx="14.2461" cy="381.24" r="4" fill="#0" id="circle111"/>
	<circle cx="20.9685" cy="368.385" r="4" fill="#0" id="circle112"/>
	<circle cx="10.5902" cy="356.978" r="4" fill="#0" id="circle113"/>
	<circle cx="15.1724" cy="325.294" r="4" fill="#0" id="circle114"/>
	<circle cx="4" cy="307.006" r="4" fill="#0" id="circle115"/>
	<circle cx="18.3654" cy="279.815" r="4" fill="#0" id="circle116"/>
	<circle cx="16.0459" cy="280.68" r="4" fill="#0" id="circle117"/>
	<circle cx="18.1624" cy="239.891" r="4" fill="#0" id="circle118"/>
	<circle cx="7.89713" cy="225.6" r="4" fill="#0" id="circle119"/>
	<circle cx="10.3523" cy="199.353" r="4" fill="#0" id="circle120"/>
	<circle cx="13.6528" cy="180.654" r="4" fill="#0" id="circle121"/>
	<circle cx="8.21468" cy="163.184" r="4" fill="#0" id="circle122"/>
	<circle cx="11.6201" cy="143.627" r="4" fill="#0" id="circle123"/>
	<circle cx="16.531" cy="109.058" r="4" fill="#0" id="circle124"/>
	<circle cx="9.11612" cy="90.0768" r="4" fill="#0" id="circle125"/>
	<circle cx="16.8384" cy="77.8741" r="4" fill="#0" id="circle126"/>
	<circle cx="39.9164" cy="38.1493" r="4" fill="#0" id="circle127"/>
	<circle cx="59.9494" cy="45.2091" r="4" fill="#0" id="circle128"/>
	<circle cx="80.0802" cy="49.4627" r="4" fill="#0" id="circle129"/>
	<circle cx="96.1774" cy="38.0609" r="4" fill="#0" id="circle130"/>
	<circle cx="120.321" cy="48.1619" r="4" fill="#0" id="circle131"/>
	<circle cx="140.988" cy="52.1698" r="4" fill="#0" id="circle132"/>
	<circle cx="172.865" cy="36.0546" r="4" fill="#0" id="circle133"/>
	<circle cx="188.259" cy="54.5709" r="4" fill="#0" id="circle134"/>
	<circle cx="226.02" cy="48.2418" r="4" fill="#0" id="circle135"/>
	<circle cx="237.93" cy="42.7692" r="4" fill="#0" id="circle136"/>
	<circle cx="257.439" cy="48.6899" r="4" fill="#0" id="circle137"/>
	<circle cx="276.493" cy="46.1541" r="4" fill="#0" id="circle138"/>
	<circle cx="307.396" cy="51.0297" r="4" fill="#0" id="circle139"/>
	<circle cx="311.013" cy="55.4287" r="4" fill="#0" id="circle140"/>
	<circle cx="336.356" cy="48.9535" r="4" fill="#0" id="circle141"/>
	<circle cx="370.547" cy="47.7447" r="4" fill="#0" id="circle142"/>
	<circle cx="371.432" cy="36.3455" r="4" fill="#0" id="circle143"/>
	<circle cx="400.188" cy="40.2678" r="4" fill="#0" id="circle144"/>
	<circle cx="444.668" cy="157.657" r="4" fill="#0" id="circle145"/>
	<circle cx="434.644" cy="133.933" r="4" fill="#0" id="circle146"/>
	<circle cx="421.43" cy="111.489" r="4" fill="#0" id="circle147"/>
	<circle cx="424.62" cy="109.242" r="4" fill="#0" id="circle148"/>
	<circle cx="426.233" cy="80.7405" r="4" fill="#0" id="circle149"/>
	<circle cx="437.961" cy="51.9461" r="4" fill="#0" id="circle150"/>
	<circle cx="768.355" cy="426.811" r="4" fill="#0" id="circle151"/>
	<circle cx="980.415" cy="435.119" r="4" fill="#0" id="circle152"/>
	<circle cx="788.548" cy="287.01" r="4" fill="#0" id="circle153"/>
	<circle cx="960.305" cy="280.575" r="4" fill="#0" id="circle154"/>
	<circle cx="778.893" cy="405.769" r="4" fill="#0" id="circle155"/>
	<circle cx="779.402" cy="399.862" r="4" fill="#0" id="circle156"/>
	<circle cx="786.858" cy="367.668" r="4" fill="#0" id="circle157"/>
	<circle cx="772.658" cy="360.187" r="4" fill="#0" id="circle158"/>
	<circle cx="774.326" cy="328.932" r="4" fill="#0" id="circle159"/>
	<circle cx="768.772" cy="304.365" r="4" fill="#0" id="circle160"/>
	<circle cx="808.544" cy="285.693" r="4" fill="#0" id="circle161"/>
	<circle cx="823.882" cy="285.527" r="4" fill="#0" id="circle162"/>
	<circle cx="854.028" cy="277.33" r="4" fill="#0" id="circle163"/>
	<circle cx="868.708" cy="266.373" r="4" fill="#0" id="circle164"/>
	<circle cx="879.095" cy="273.693" r="4" fill="#0" id="circle165"/>
	<circle cx="903.695" cy="269.061" r="4" fill="#0" id="circle166"/>
	<circle cx="933.379" cy="281.75" r="4" fill="#0" id="circle167"/>
	<circle cx="954.872" cy="274.097" r="4" fill="#0" id="circle168"/>
	<circle cx="981.616" cy="419.711" r="4" fill="#0" id="circle169"/>
	<circle cx="994.975" cy="403.753" r="4" fill="#0" id="circle170"/>
	<circle cx="996" cy="369.814" r="4" fill="#0" id="circle171"/>
	<circle cx="986.139" cy="361.752" r="4" fill="#0" id="circle172"/>
	<circle cx="988.173" cy="348.593" r="4" fill="#0" id="circle173"/>
	<circle cx="985.906" cy="310.851" r="4" fill="#0" id="circle174"/>
	<circle cx="982.214" cy="310.115" r="4" fill="#0" id="circle175"/>
	<circle cx="790.827" cy="432.007" r="4" fill="#0" id="circle176"/>
	<circle cx="812.691" cy="447.563" r="4" fill="#0" id="circle177"/>
	<circle cx="819.887" cy="435.223" r="4" fill="#0" id="circle178"/>
	<circle cx="843.788" cy="445.096" r="4" fill="#0" id="circle179"/>
	<circle cx="858.118" cy="439.936" r="4" fill="#0" id="circle180"/>
	<circle cx="869.499" cy="441.96" r="4" fill="#0" id="circle181"/>
	<circle cx="899.878" cy="443.576" r="4" fill="#0" id="circle182"/>
	<circle cx="907.507" cy="436.189" r="4" fill="#0" id="circle183"/>
	<circle cx="923.103" cy="445.832" r="4" fill="#0" id="circle184"/>
	<circle cx="944.254" cy="449.337" r="4" fill="#0" id="circle185"/>
	<circle cx="972.3" cy="452.424" r="4" fill="#0" id="circle186"/>
	<circle cx="974.95" cy="667.133" r="4" fill="#0" id="circle187"/>
	<circle cx="985.246" cy="524.923" r="4" fill="#0" id="circle188"/>
	<circle cx="976.824" cy="649.305" r="4" fill="#0" id="circle189"/>
	<circle cx="994.841" cy="635.37" r="4" fill="#0" id="circle190"/>
	<circle cx="973.967" cy="610.166" r="4" fill="#0" id="circle191"/>
	<circle cx="992.293" cy="597.88" r="4" fill="#0" id="circle192"/>
	<circle cx="976.833" cy="590.314" r="4" fill="#0" id="circle193"/>
	<circle cx="993.651" cy="564.397" r="4" fill="#0" id="circle194"/>
	<circle cx="990.145" cy="536.285" r="4" fill="#0" id="circle195"/>
	<circle cx="746.552" cy="513.068" r="4" fill="#0" id="circle196"/>
	<circle cx="791.177" cy="520.007" r="4" fill="#0" id="circle197"/>
	<circle cx="808.302" cy="509.182" r="4" fill="#0" id="circle198"/>
	<circle cx="833.307" cy="520.993" r="4" fill="#0" id="circle199"/>
	<circle cx="868.478" cy="518.791" r="4" fill="#0" id="circle200"/>
	<circle cx="885.616" cy="521.475" r="4" fill="#0" id="circle201"/>
	<circle cx="910.68" cy="525.444" r="4" fill="#0" id="circle202"/>
	<circle cx="939.183" cy="511.724" r="4" fill="#0" id="circle203"/>
	<circle cx="959.291" cy="526.165" r="4" fill="#0" id="circle204"/>
	<circle cx="729.63" cy="492.304" r="4" fill="#0" id="circle205"/>
	<circle cx="709.051" cy="476.641" r="4" fill="#0" id="circle206"/>
	<circle cx="700.339" cy="452.034" r="4" fill="#0" id="circle207"/>
	<circle cx="688.933" cy="447.671" r="4" fill="#0" id="circle208"/>
	<circle cx="659.854" cy="424.365" r="4" fill="#0" id="circle209"/>
	<circle cx="662.663" cy="401.412" r="4" fill="#0" id="circle210"/>
	<circle cx="653.239" cy="378.235" r="4" fill="#0" id="circle211"/>
	<circle cx="663.061" cy="341.448" r="4" fill="#0" id="circle212"/>
	<circle cx="663.367" cy="323.856" r="4" fill="#0" id="circle213"/>
	<circle cx="661.016" cy="319.347" r="4" fill="#0" id="circle214"/>
	<circle cx="679.415" cy="280.182" r="4" fill="#0" id="circle215"/>
	<circle cx="677.071" cy="262.273" r="4" fill="#0" id="circle216"/>
	<circle cx="693.488" cy="258.991" r="4" fill="#0" id="circle217"/>
	<circle cx="704.999" cy="234.472" r="4" fill="#0" id="circle218"/>
	<circle cx="718.537" cy="219.004" r="4" fill="#0" id="circle219"/>
	<circle cx="719.19" cy="202.673" r="4" fill="#0" id="circle220"/>
	<circle cx="746.938" cy="196.196" r="4" fill="#0" id="circle221"/>
	<circle cx="762.029" cy="186.513" r="4" fill="#0" id="circle222"/>
	<circle cx="783.118" cy="178.745" r="4" fill="#0" id="circle223"/>
	<circle cx="797.619" cy="180.386" r="4" fill="#0" id="circle224"/>
	<circle cx="819.993" cy="178.607" r="4" fill="#0" id="circle225"/>
	<circle cx="848.31" cy="171.194" r="4" fill="#0" id="circle226"/>
	<circle cx="874.257" cy="170.436" r="4" fill="#0" id="circle227"/>
	<circle cx="898.225" cy="185.235" r="4" fill="#0" id="circle228"/>
	<circle cx="911.69" cy="192.854" r="4" fill="#0" id="circle229"/>
	<circle cx="927.619" cy="209.447" r="4" fill="#0" id="circle230"/>
	<circle cx="947.914" cy="248.759" r="4" fill="#0" id="circle231"/>
	<circle cx="963.03" cy="262.3" r="4" fill="#0" id="circle232"/>
	<circle cx="966.96" cy="227.353" r="4" fill="#0" id="circle233"/>
	<circle cx="966.12" cy="214.668" r="4" fill="#0" id="circle234"/>
	<circle cx="967.209" cy="201.297" r="4" fill="#0" id="circle235"/>
	<circle cx="970.904" cy="174.691" r="4" fill="#0" id="circle236"/>
	<circle cx="960.513" cy="154.027" r="4" fill="#0" id="circle237"/>
	<circle cx="973.303" cy="146.36" r="4" fill="#0" id="circle238"/>
	<circle cx="976.686" cy="111.846" r="4" fill="#0" id="circle239"/>
	<circle cx="975.028" cy="90.5182" r="4" fill="#0" id="circle240"/>
	<circle cx="961.641" cy="73.9099" r="4" fill="#0" id="circle241"/>
	<circle cx="526.403" cy="224.629" r="4" fill="#0" id="circle242"/>
	<circle cx="530.67" cy="196.95" r="4" fill="#0" id="circle243"/>
	<circle cx="533.849" cy="158.688" r="4" fill="#0" id="circle244"/>
	<circle cx="561.598" cy="151.798" r="4" fill="#0" id="circle245"/>
	<circle cx="562.836" cy="120.005" r="4" fill="#0" id="circle246"/>
	<circle cx="577.165" cy="114.285" r="4" fill="#0" id="circle247"/>
	<circle cx="589.506" cy="103.287" r="4" fill="#0" id="circle248"/>
	<circle cx="621.976" cy="81.7938" r="4" fill="#0" id="circle249"/>
	<circle cx="625.19" cy="62.454" r="4" fill="#0" id="circle250"/>
	<circle cx="643.774" cy="59.9058" r="4" fill="#0" id="circle251"/>
	<circle cx="676.177" cy="38.83" r="4" fill="#0" id="circle252"/>
	<circle cx="689.147" cy="34.9435" r="4" fill="#0" id="circle253"/>
	<circle cx="716.395" cy="16.9363" r="4" fill="#0" id="circle254"/>
	<circle cx="747.437" cy="9.44028" r="4" fill="#0" id="circle255"/>
	<circle cx="760.275" cy="6.73336" r="4" fill="#0" id="circle256"/>
	<circle cx="781.985" cy="14.4611" r="4" fill="#0" id="circle257"/>
	<circle cx="794.382" cy="9.89425" r="4" fill="#0" id="circle258"/>
	<circle cx="817.697" cy="10.9252" r="4" fill="#0" id="circle259"/>
	<circle cx="846.856" cy="4" r="4" fill="#0" id="circle260"/>
	<circle cx="860.633" cy="27.4833" r="4" fill="#0" id="circle261"/>
	<circle cx="883.72" cy="27.5938" r="4" fill="#0" id="circle262"/>
	<circle cx="908.398" cy="35.0264" r="4" fill="#0" id="circle263"/>
	<circle cx="925.506" cy="43.0937" r="4" fill="#0" id="circle264"/>
	<circle cx="954.162" cy="59.0477" r="4" fill="#0" id="circle265"/>
	<circle cx="506.402" cy="244.998" r="4" fill="#0" id="circle266"/>
	<circle cx="488.544" cy="251.408" r="4" fill="#0" id="circle267"/>
	<circle cx="479.076" cy="286.69" r="4" fill="#0" id="circle268"/>
	<circle cx="483.597" cy="313.381" r="4" fill="#0" id="circle269"/>
	<circle cx="477.967" cy="340.582" r="4" fill="#0" id="circle270"/>
	<circle cx="479.345" cy="379.057" r="4" fill="#0" id="circle271"/>
	<circle cx="483.478" cy="409.779" r="4" fill="#0" id="circle272"/>
	<circle cx="483.143" cy="423.765" r="4" fill="#0" id="circle273"/>
	<circle cx="486.394" cy="448.018" r="4" fill="#0" id="circle274"/>
	<circle cx="514.859" cy="471.519" r="4" fill="#0" id="circle275"/>
	<circle cx="515.643" cy="503.581" r="4" fill="#0" id="circle276"/>
	<circle cx="519.913" cy="519.816" r="4" fill="#0" id="circle277"/>
	<circle cx="543.176" cy="537.311" r="4" fill="#0" id="circle278"/>
	<circle cx="572.657" cy="562.412" r="4" fill="#0" id="circle279"/>
	<circle cx="585.492" cy="581.65" r="4" fill="#0" id="circle280"/>
	<circle cx="607.46" cy="593.393" r="4" fill="#0" id="circle281"/>
	<circle cx="614.678" cy="608.956" r="4" fill="#0" id="circle282"/>
	<circle cx="636.099" cy="629.063" r="4" fill="#0" id="circle283"/>
	<circle cx="656.404" cy="626.285" r="4" fill="#0" id="circle284"/>
	<circle cx="685.384" cy="658.224" r="4" fill="#0" id="circle285"/>
	<circle cx="694.538" cy="654.774" r="4" fill="#0" id="circle286"/>
	<circle cx="726.051" cy="671.329" r="4" fill="#0" id="circle287"/>
	<circle cx="743.144" cy="662.337" r="4" fill="#0" id="circle288"/>
	<circle cx="767.322" cy="674.494" r="4" fill="#0" id="circle289"/>
	<circle cx="797.301" cy="667.878" r="4" fill="#0" id="circle290"/>
	<circle cx="814.424" cy="666.827" r="4" fill="#0" id="circle291"/>
	<circle cx="838.595" cy="672.398" r="4" fill="#0" id="circle292"/>
	<circle cx="873.592" cy="677.839" r="4" fill="#0" id="circle293"/>
	<circle cx="896.656" cy="683.055" r="4" fill="#0" id="circle294"/>
	<circle cx="901.025" cy="680.779" r="4" fill="#0" id="circle295"/>
	<circle cx="928.023" cy="668.938" r="4" fill="#0" id="circle296"/>
	<circle cx="966.21" cy="679.698" r="4" fill="#0" id="circle297"/>
	<circle cx="977.568" cy="275.372" r="4" fill="#0" id="circle298"/>
	<circle cx="934.187" cy="237.419" r="4" fill="#0" id="circle299"/>
	</g>
</svg>