<?xml version="1.0" encoding="UTF-8" standalone="no"?>
<!-- Created with CurveBenchmark -->
<svg
	xmlns:dc="http://purl.org/dc/elements/1.1/"
	xmlns:cc="http://creativecommons.org/ns#"
	xmlns:rdf="http://www.w3.org/1999/02/22-rdf-syntax-ns#"
	xmlns:svg="http://www.w3.org/2000/svg"
	xmlns="http://www.w3.org/2000/svg"
	xmlns:sodipodi="http://sodipodi.sourceforge.net/DTD/sodipodi-0.dtd"
	xmlns:inkscape="http://www.inkscape.org/namespaces/inkscape"
	width="1000"
	height="1000"
	id="svg2"
	version="1.1"
	sodipodi:docname="noisy-0.01/nncrust-mc6.txt">
<defs
	id="defs4" />
<metadata
	id="metadata7">
	<rdf:RDF>
		<cc:Work
			rdf:about="">
			<dc:format>image/svg+xml</dc:format>
			<dc:type
				rdf:resource="http://purl.org/dc/dcmitype/StillImage" />
			<dc:title></dc:title>
		</cc:Work>
	</rdf:RDF>
</metadata>
<g
	inkscape:label="Layer 1"
	inkscape:groupmode="layer"
	id="layer1">
	<path style="fill:none;stroke:red;stroke-width:1px;stroke-linecap:butt;stroke-linejoin:miter;stroke-opacity:1" d="M 29.4335,155.864 46.5122,164.39 z" id="boundary" inkscape:connector-curvature="0" />
	<path style="fill:none;stroke:red;stroke-width:1px;stroke-linecap:butt;stroke-linejoin:miter;stroke-opacity:1" d="M 46.5122,164.39 48.4864,188.789 z" id="boundary" inkscape:connector-curvature="0" />
	<path style="fill:none;stroke:red;stroke-width:1px;stroke-linecap:butt;stroke-linejoin:miter;stroke-opacity:1" d="M 29.4335,155.864 33.2835,110.181 z" id="boundary" inkscape:connector-curvature="0" />
	<path style="fill:none;stroke:red;stroke-width:1px;stroke-linecap:butt;stroke-linejoin:miter;stroke-opacity:1" d="M 33.2835,110.181 51.631,102.913 z" id="boundary" inkscape:connector-curvature="0" />
	<path style="fill:none;stroke:red;stroke-width:1px;stroke-linecap:butt;stroke-linejoin:miter;stroke-opacity:1" d="M 51.631,102.913 62.7369,106.595 z" id="boundary" inkscape:connector-curvature="0" />
	<path style="fill:none;stroke:red;stroke-width:1px;stroke-linecap:butt;stroke-linejoin:miter;stroke-opacity:1" d="M 91.7147,131.578 84.642,133.618 z" id="boundary" inkscape:connector-curvature="0" />
	<path style="fill:none;stroke:red;stroke-width:1px;stroke-linecap:butt;stroke-linejoin:miter;stroke-opacity:1" d="M 84.642,133.618 62.7369,106.595 z" id="boundary" inkscape:connector-curvature="0" />
	<path style="fill:none;stroke:red;stroke-width:1px;stroke-linecap:butt;stroke-linejoin:miter;stroke-opacity:1" d="M 128.867,146.003 91.7147,131.578 z" id="boundary" inkscape:connector-curvature="0" />
	<path style="fill:none;stroke:red;stroke-width:1px;stroke-linecap:butt;stroke-linejoin:miter;stroke-opacity:1" d="M 151.349,184.48 133.436,169.513 z" id="boundary" inkscape:connector-curvature="0" />
	<path style="fill:none;stroke:red;stroke-width:1px;stroke-linecap:butt;stroke-linejoin:miter;stroke-opacity:1" d="M 133.436,169.513 128.867,146.003 z" id="boundary" inkscape:connector-curvature="0" />
	<path style="fill:none;stroke:red;stroke-width:1px;stroke-linecap:butt;stroke-linejoin:miter;stroke-opacity:1" d="M 167.034,201.332 151.349,184.48 z" id="boundary" inkscape:connector-curvature="0" />
	<path style="fill:none;stroke:red;stroke-width:1px;stroke-linecap:butt;stroke-linejoin:miter;stroke-opacity:1" d="M 84.2215,215.448 48.4864,188.789 z" id="boundary" inkscape:connector-curvature="0" />
	<path style="fill:none;stroke:red;stroke-width:1px;stroke-linecap:butt;stroke-linejoin:miter;stroke-opacity:1" d="M 119.11,227.324 94.8781,229.991 z" id="boundary" inkscape:connector-curvature="0" />
	<path style="fill:none;stroke:red;stroke-width:1px;stroke-linecap:butt;stroke-linejoin:miter;stroke-opacity:1" d="M 94.8781,229.991 84.2215,215.448 z" id="boundary" inkscape:connector-curvature="0" />
	<path style="fill:none;stroke:red;stroke-width:1px;stroke-linecap:butt;stroke-linejoin:miter;stroke-opacity:1" d="M 119.11,227.324 121.84,245.475 z" id="boundary" inkscape:connector-curvature="0" />
	<path style="fill:none;stroke:red;stroke-width:1px;stroke-linecap:butt;stroke-linejoin:miter;stroke-opacity:1" d="M 151.417,265.93 121.84,245.475 z" id="boundary" inkscape:connector-curvature="0" />
	<path style="fill:none;stroke:red;stroke-width:1px;stroke-linecap:butt;stroke-linejoin:miter;stroke-opacity:1" d="M 162.575,272.67 151.417,265.93 z" id="boundary" inkscape:connector-curvature="0" />
	<path style="fill:none;stroke:red;stroke-width:1px;stroke-linecap:butt;stroke-linejoin:miter;stroke-opacity:1" d="M 167.034,201.332 193.917,216.693 z" id="boundary" inkscape:connector-curvature="0" />
	<path style="fill:none;stroke:red;stroke-width:1px;stroke-linecap:butt;stroke-linejoin:miter;stroke-opacity:1" d="M 176.967,288.279 162.575,272.67 z" id="boundary" inkscape:connector-curvature="0" />
	<path style="fill:none;stroke:red;stroke-width:1px;stroke-linecap:butt;stroke-linejoin:miter;stroke-opacity:1" d="M 191.258,492.455 169.353,501.483 z" id="boundary" inkscape:connector-curvature="0" />
	<path style="fill:none;stroke:red;stroke-width:1px;stroke-linecap:butt;stroke-linejoin:miter;stroke-opacity:1" d="M 195.253,488.095 191.258,492.455 z" id="boundary" inkscape:connector-curvature="0" />
	<path style="fill:none;stroke:red;stroke-width:1px;stroke-linecap:butt;stroke-linejoin:miter;stroke-opacity:1" d="M 176.967,288.279 195.918,315.762 z" id="boundary" inkscape:connector-curvature="0" />
	<path style="fill:none;stroke:red;stroke-width:1px;stroke-linecap:butt;stroke-linejoin:miter;stroke-opacity:1" d="M 163.971,519.674 169.353,501.483 z" id="boundary" inkscape:connector-curvature="0" />
	<path style="fill:none;stroke:red;stroke-width:1px;stroke-linecap:butt;stroke-linejoin:miter;stroke-opacity:1" d="M 193.917,216.693 213.227,227.207 z" id="boundary" inkscape:connector-curvature="0" />
	<path style="fill:none;stroke:red;stroke-width:1px;stroke-linecap:butt;stroke-linejoin:miter;stroke-opacity:1" d="M 224.429,241.537 213.227,227.207 z" id="boundary" inkscape:connector-curvature="0" />
	<path style="fill:none;stroke:red;stroke-width:1px;stroke-linecap:butt;stroke-linejoin:miter;stroke-opacity:1" d="M 254.307,246.175 224.429,241.537 z" id="boundary" inkscape:connector-curvature="0" />
	<path style="fill:none;stroke:red;stroke-width:1px;stroke-linecap:butt;stroke-linejoin:miter;stroke-opacity:1" d="M 195.918,315.762 211.562,315.364 z" id="boundary" inkscape:connector-curvature="0" />
	<path style="fill:none;stroke:red;stroke-width:1px;stroke-linecap:butt;stroke-linejoin:miter;stroke-opacity:1" d="M 211.562,315.364 216.136,335.535 z" id="boundary" inkscape:connector-curvature="0" />
	<path style="fill:none;stroke:red;stroke-width:1px;stroke-linecap:butt;stroke-linejoin:miter;stroke-opacity:1" d="M 244.017,344.83 216.136,335.535 z" id="boundary" inkscape:connector-curvature="0" />
	<path style="fill:none;stroke:red;stroke-width:1px;stroke-linecap:butt;stroke-linejoin:miter;stroke-opacity:1" d="M 298.85,39.7981 306.366,59.8541 z" id="boundary" inkscape:connector-curvature="0" />
	<path style="fill:none;stroke:red;stroke-width:1px;stroke-linecap:butt;stroke-linejoin:miter;stroke-opacity:1" d="M 306.366,59.8541 300.083,67.3242 z" id="boundary" inkscape:connector-curvature="0" />
	<path style="fill:none;stroke:red;stroke-width:1px;stroke-linecap:butt;stroke-linejoin:miter;stroke-opacity:1" d="M 273.215,278.968 283.9,278.475 z" id="boundary" inkscape:connector-curvature="0" />
	<path style="fill:none;stroke:red;stroke-width:1px;stroke-linecap:butt;stroke-linejoin:miter;stroke-opacity:1" d="M 283.9,278.475 288.56,286.233 z" id="boundary" inkscape:connector-curvature="0" />
	<path style="fill:none;stroke:red;stroke-width:1px;stroke-linecap:butt;stroke-linejoin:miter;stroke-opacity:1" d="M 273.215,278.968 254.307,246.175 z" id="boundary" inkscape:connector-curvature="0" />
	<path style="fill:none;stroke:red;stroke-width:1px;stroke-linecap:butt;stroke-linejoin:miter;stroke-opacity:1" d="M 288.56,286.233 310.709,312.018 z" id="boundary" inkscape:connector-curvature="0" />
	<path style="fill:none;stroke:red;stroke-width:1px;stroke-linecap:butt;stroke-linejoin:miter;stroke-opacity:1" d="M 195.253,488.095 225.393,472.405 z" id="boundary" inkscape:connector-curvature="0" />
	<path style="fill:none;stroke:red;stroke-width:1px;stroke-linecap:butt;stroke-linejoin:miter;stroke-opacity:1" d="M 240.619,466.999 225.393,472.405 z" id="boundary" inkscape:connector-curvature="0" />
	<path style="fill:none;stroke:red;stroke-width:1px;stroke-linecap:butt;stroke-linejoin:miter;stroke-opacity:1" d="M 253.575,366.909 268.013,384.637 z" id="boundary" inkscape:connector-curvature="0" />
	<path style="fill:none;stroke:red;stroke-width:1px;stroke-linecap:butt;stroke-linejoin:miter;stroke-opacity:1" d="M 244.017,344.83 253.575,366.909 z" id="boundary" inkscape:connector-curvature="0" />
	<path style="fill:none;stroke:red;stroke-width:1px;stroke-linecap:butt;stroke-linejoin:miter;stroke-opacity:1" d="M 268.013,384.637 289,382.38 z" id="boundary" inkscape:connector-curvature="0" />
	<path style="fill:none;stroke:red;stroke-width:1px;stroke-linecap:butt;stroke-linejoin:miter;stroke-opacity:1" d="M 289,382.38 295.88,408.119 z" id="boundary" inkscape:connector-curvature="0" />
	<path style="fill:none;stroke:red;stroke-width:1px;stroke-linecap:butt;stroke-linejoin:miter;stroke-opacity:1" d="M 324.674,407.269 295.88,408.119 z" id="boundary" inkscape:connector-curvature="0" />
	<path style="fill:none;stroke:red;stroke-width:1px;stroke-linecap:butt;stroke-linejoin:miter;stroke-opacity:1" d="M 263.315,452.255 283.941,442.321 z" id="boundary" inkscape:connector-curvature="0" />
	<path style="fill:none;stroke:red;stroke-width:1px;stroke-linecap:butt;stroke-linejoin:miter;stroke-opacity:1" d="M 283.941,442.321 301.957,458.407 z" id="boundary" inkscape:connector-curvature="0" />
	<path style="fill:none;stroke:red;stroke-width:1px;stroke-linecap:butt;stroke-linejoin:miter;stroke-opacity:1" d="M 240.619,466.999 263.315,452.255 z" id="boundary" inkscape:connector-curvature="0" />
	<path style="fill:none;stroke:red;stroke-width:1px;stroke-linecap:butt;stroke-linejoin:miter;stroke-opacity:1" d="M 300.083,67.3242 305.515,85.9706 z" id="boundary" inkscape:connector-curvature="0" />
	<path style="fill:none;stroke:red;stroke-width:1px;stroke-linecap:butt;stroke-linejoin:miter;stroke-opacity:1" d="M 109.213,611.525 67.3859,616.417 z" id="boundary" inkscape:connector-curvature="0" />
	<path style="fill:none;stroke:red;stroke-width:1px;stroke-linecap:butt;stroke-linejoin:miter;stroke-opacity:1" d="M 67.3859,616.417 41.1726,599.232 z" id="boundary" inkscape:connector-curvature="0" />
	<path style="fill:none;stroke:red;stroke-width:1px;stroke-linecap:butt;stroke-linejoin:miter;stroke-opacity:1" d="M 12.7867,619.807 41.1726,599.232 z" id="boundary" inkscape:connector-curvature="0" />
	<path style="fill:none;stroke:red;stroke-width:1px;stroke-linecap:butt;stroke-linejoin:miter;stroke-opacity:1" d="M 109.213,611.525 135.672,625.956 z" id="boundary" inkscape:connector-curvature="0" />
	<path style="fill:none;stroke:red;stroke-width:1px;stroke-linecap:butt;stroke-linejoin:miter;stroke-opacity:1" d="M 172.462,565.041 171.624,576.35 z" id="boundary" inkscape:connector-curvature="0" />
	<path style="fill:none;stroke:red;stroke-width:1px;stroke-linecap:butt;stroke-linejoin:miter;stroke-opacity:1" d="M 172.462,565.041 163.971,519.674 z" id="boundary" inkscape:connector-curvature="0" />
	<path style="fill:none;stroke:red;stroke-width:1px;stroke-linecap:butt;stroke-linejoin:miter;stroke-opacity:1" d="M 222.443,560.516 172.462,565.041 z" id="boundary" inkscape:connector-curvature="0" />
	<path style="fill:none;stroke:red;stroke-width:1px;stroke-linecap:butt;stroke-linejoin:miter;stroke-opacity:1" d="M 168.426,593.28 171.624,576.35 z" id="boundary" inkscape:connector-curvature="0" />
	<path style="fill:none;stroke:red;stroke-width:1px;stroke-linecap:butt;stroke-linejoin:miter;stroke-opacity:1" d="M 165.29,612.12 152.561,633.984 z" id="boundary" inkscape:connector-curvature="0" />
	<path style="fill:none;stroke:red;stroke-width:1px;stroke-linecap:butt;stroke-linejoin:miter;stroke-opacity:1" d="M 152.561,633.984 135.672,625.956 z" id="boundary" inkscape:connector-curvature="0" />
	<path style="fill:none;stroke:red;stroke-width:1px;stroke-linecap:butt;stroke-linejoin:miter;stroke-opacity:1" d="M 168.426,593.28 165.29,612.12 z" id="boundary" inkscape:connector-curvature="0" />
	<path style="fill:none;stroke:red;stroke-width:1px;stroke-linecap:butt;stroke-linejoin:miter;stroke-opacity:1" d="M 237.334,633.604 174.428,644.292 z" id="boundary" inkscape:connector-curvature="0" />
	<path style="fill:none;stroke:red;stroke-width:1px;stroke-linecap:butt;stroke-linejoin:miter;stroke-opacity:1" d="M 174.428,644.292 152.561,633.984 z" id="boundary" inkscape:connector-curvature="0" />
	<path style="fill:none;stroke:red;stroke-width:1px;stroke-linecap:butt;stroke-linejoin:miter;stroke-opacity:1" d="M 9.87429,670.258 4,641.933 z" id="boundary" inkscape:connector-curvature="0" />
	<path style="fill:none;stroke:red;stroke-width:1px;stroke-linecap:butt;stroke-linejoin:miter;stroke-opacity:1" d="M 33.8501,671.245 9.87429,670.258 z" id="boundary" inkscape:connector-curvature="0" />
	<path style="fill:none;stroke:red;stroke-width:1px;stroke-linecap:butt;stroke-linejoin:miter;stroke-opacity:1" d="M 53.2777,688.035 77.9538,709.694 z" id="boundary" inkscape:connector-curvature="0" />
	<path style="fill:none;stroke:red;stroke-width:1px;stroke-linecap:butt;stroke-linejoin:miter;stroke-opacity:1" d="M 53.2777,688.035 33.8501,671.245 z" id="boundary" inkscape:connector-curvature="0" />
	<path style="fill:none;stroke:red;stroke-width:1px;stroke-linecap:butt;stroke-linejoin:miter;stroke-opacity:1" d="M 89.5868,709.578 77.9538,709.694 z" id="boundary" inkscape:connector-curvature="0" />
	<path style="fill:none;stroke:red;stroke-width:1px;stroke-linecap:butt;stroke-linejoin:miter;stroke-opacity:1" d="M 4,641.933 12.7867,619.807 z" id="boundary" inkscape:connector-curvature="0" />
	<path style="fill:none;stroke:red;stroke-width:1px;stroke-linecap:butt;stroke-linejoin:miter;stroke-opacity:1" d="M 106.264,729.758 89.5868,709.578 z" id="boundary" inkscape:connector-curvature="0" />
	<path style="fill:none;stroke:red;stroke-width:1px;stroke-linecap:butt;stroke-linejoin:miter;stroke-opacity:1" d="M 123.486,744.177 138.862,741.238 z" id="boundary" inkscape:connector-curvature="0" />
	<path style="fill:none;stroke:red;stroke-width:1px;stroke-linecap:butt;stroke-linejoin:miter;stroke-opacity:1" d="M 138.862,741.238 166.103,764.267 z" id="boundary" inkscape:connector-curvature="0" />
	<path style="fill:none;stroke:red;stroke-width:1px;stroke-linecap:butt;stroke-linejoin:miter;stroke-opacity:1" d="M 123.486,744.177 106.264,729.758 z" id="boundary" inkscape:connector-curvature="0" />
	<path style="fill:none;stroke:red;stroke-width:1px;stroke-linecap:butt;stroke-linejoin:miter;stroke-opacity:1" d="M 166.103,764.267 188.15,783.524 z" id="boundary" inkscape:connector-curvature="0" />
	<path style="fill:none;stroke:red;stroke-width:1px;stroke-linecap:butt;stroke-linejoin:miter;stroke-opacity:1" d="M 222.443,560.516 237.59,548.424 z" id="boundary" inkscape:connector-curvature="0" />
	<path style="fill:none;stroke:red;stroke-width:1px;stroke-linecap:butt;stroke-linejoin:miter;stroke-opacity:1" d="M 235.372,571.09 222.443,560.516 z" id="boundary" inkscape:connector-curvature="0" />
	<path style="fill:none;stroke:red;stroke-width:1px;stroke-linecap:butt;stroke-linejoin:miter;stroke-opacity:1" d="M 239.505,605.059 237.334,633.604 z" id="boundary" inkscape:connector-curvature="0" />
	<path style="fill:none;stroke:red;stroke-width:1px;stroke-linecap:butt;stroke-linejoin:miter;stroke-opacity:1" d="M 239.505,605.059 235.372,571.09 z" id="boundary" inkscape:connector-curvature="0" />
	<path style="fill:none;stroke:red;stroke-width:1px;stroke-linecap:butt;stroke-linejoin:miter;stroke-opacity:1" d="M 235.372,571.09 264.512,561.064 z" id="boundary" inkscape:connector-curvature="0" />
	<path style="fill:none;stroke:red;stroke-width:1px;stroke-linecap:butt;stroke-linejoin:miter;stroke-opacity:1" d="M 239.505,605.059 266.622,631.871 z" id="boundary" inkscape:connector-curvature="0" />
	<path style="fill:none;stroke:red;stroke-width:1px;stroke-linecap:butt;stroke-linejoin:miter;stroke-opacity:1" d="M 237.59,548.424 264.512,561.064 z" id="boundary" inkscape:connector-curvature="0" />
	<path style="fill:none;stroke:red;stroke-width:1px;stroke-linecap:butt;stroke-linejoin:miter;stroke-opacity:1" d="M 237.334,633.604 255.354,676.304 z" id="boundary" inkscape:connector-curvature="0" />
	<path style="fill:none;stroke:red;stroke-width:1px;stroke-linecap:butt;stroke-linejoin:miter;stroke-opacity:1" d="M 266.622,631.871 265.741,641.06 z" id="boundary" inkscape:connector-curvature="0" />
	<path style="fill:none;stroke:red;stroke-width:1px;stroke-linecap:butt;stroke-linejoin:miter;stroke-opacity:1" d="M 265.741,641.06 237.334,633.604 z" id="boundary" inkscape:connector-curvature="0" />
	<path style="fill:none;stroke:red;stroke-width:1px;stroke-linecap:butt;stroke-linejoin:miter;stroke-opacity:1" d="M 297.014,640.882 287.003,669.569 z" id="boundary" inkscape:connector-curvature="0" />
	<path style="fill:none;stroke:red;stroke-width:1px;stroke-linecap:butt;stroke-linejoin:miter;stroke-opacity:1" d="M 292.32,677.77 287.003,669.569 z" id="boundary" inkscape:connector-curvature="0" />
	<path style="fill:none;stroke:red;stroke-width:1px;stroke-linecap:butt;stroke-linejoin:miter;stroke-opacity:1" d="M 290.014,559.702 304.633,578.248 z" id="boundary" inkscape:connector-curvature="0" />
	<path style="fill:none;stroke:red;stroke-width:1px;stroke-linecap:butt;stroke-linejoin:miter;stroke-opacity:1" d="M 264.512,561.064 290.014,559.702 z" id="boundary" inkscape:connector-curvature="0" />
	<path style="fill:none;stroke:red;stroke-width:1px;stroke-linecap:butt;stroke-linejoin:miter;stroke-opacity:1" d="M 262.577,676.34 265.741,641.06 z" id="boundary" inkscape:connector-curvature="0" />
	<path style="fill:none;stroke:red;stroke-width:1px;stroke-linecap:butt;stroke-linejoin:miter;stroke-opacity:1" d="M 287.003,669.569 262.577,676.34 z" id="boundary" inkscape:connector-curvature="0" />
	<path style="fill:none;stroke:red;stroke-width:1px;stroke-linecap:butt;stroke-linejoin:miter;stroke-opacity:1" d="M 211.611,779.591 188.15,783.524 z" id="boundary" inkscape:connector-curvature="0" />
	<path style="fill:none;stroke:red;stroke-width:1px;stroke-linecap:butt;stroke-linejoin:miter;stroke-opacity:1" d="M 255.354,676.304 257.288,686.674 z" id="boundary" inkscape:connector-curvature="0" />
	<path style="fill:none;stroke:red;stroke-width:1px;stroke-linecap:butt;stroke-linejoin:miter;stroke-opacity:1" d="M 211.611,779.591 215.744,810.512 z" id="boundary" inkscape:connector-curvature="0" />
	<path style="fill:none;stroke:red;stroke-width:1px;stroke-linecap:butt;stroke-linejoin:miter;stroke-opacity:1" d="M 211.611,779.591 243.975,825.89 z" id="boundary" inkscape:connector-curvature="0" />
	<path style="fill:none;stroke:red;stroke-width:1px;stroke-linecap:butt;stroke-linejoin:miter;stroke-opacity:1" d="M 243.975,825.89 215.744,810.512 z" id="boundary" inkscape:connector-curvature="0" />
	<path style="fill:none;stroke:red;stroke-width:1px;stroke-linecap:butt;stroke-linejoin:miter;stroke-opacity:1" d="M 251.102,828.507 243.975,825.89 z" id="boundary" inkscape:connector-curvature="0" />
	<path style="fill:none;stroke:red;stroke-width:1px;stroke-linecap:butt;stroke-linejoin:miter;stroke-opacity:1" d="M 251.102,828.507 266.548,844.937 z" id="boundary" inkscape:connector-curvature="0" />
	<path style="fill:none;stroke:red;stroke-width:1px;stroke-linecap:butt;stroke-linejoin:miter;stroke-opacity:1" d="M 283.84,699.083 257.288,686.674 z" id="boundary" inkscape:connector-curvature="0" />
	<path style="fill:none;stroke:red;stroke-width:1px;stroke-linecap:butt;stroke-linejoin:miter;stroke-opacity:1" d="M 255.354,676.304 262.577,676.34 z" id="boundary" inkscape:connector-curvature="0" />
	<path style="fill:none;stroke:red;stroke-width:1px;stroke-linecap:butt;stroke-linejoin:miter;stroke-opacity:1" d="M 292.32,677.77 283.84,699.083 z" id="boundary" inkscape:connector-curvature="0" />
	<path style="fill:none;stroke:red;stroke-width:1px;stroke-linecap:butt;stroke-linejoin:miter;stroke-opacity:1" d="M 344.134,733.549 281.565,854.633 z" id="boundary" inkscape:connector-curvature="0" />
	<path style="fill:none;stroke:red;stroke-width:1px;stroke-linecap:butt;stroke-linejoin:miter;stroke-opacity:1" d="M 281.565,854.633 266.548,844.937 z" id="boundary" inkscape:connector-curvature="0" />
	<path style="fill:none;stroke:red;stroke-width:1px;stroke-linecap:butt;stroke-linejoin:miter;stroke-opacity:1" d="M 304.831,715.466 283.84,699.083 z" id="boundary" inkscape:connector-curvature="0" />
	<path style="fill:none;stroke:red;stroke-width:1px;stroke-linecap:butt;stroke-linejoin:miter;stroke-opacity:1" d="M 301.957,458.407 310.328,473.938 z" id="boundary" inkscape:connector-curvature="0" />
	<path style="fill:none;stroke:red;stroke-width:1px;stroke-linecap:butt;stroke-linejoin:miter;stroke-opacity:1" d="M 298.85,39.7981 320.447,19.5612 z" id="boundary" inkscape:connector-curvature="0" />
	<path style="fill:none;stroke:red;stroke-width:1px;stroke-linecap:butt;stroke-linejoin:miter;stroke-opacity:1" d="M 329.717,160.202 310.136,120.232 z" id="boundary" inkscape:connector-curvature="0" />
	<path style="fill:none;stroke:red;stroke-width:1px;stroke-linecap:butt;stroke-linejoin:miter;stroke-opacity:1" d="M 310.136,120.232 305.515,85.9706 z" id="boundary" inkscape:connector-curvature="0" />
	<path style="fill:none;stroke:red;stroke-width:1px;stroke-linecap:butt;stroke-linejoin:miter;stroke-opacity:1" d="M 329.717,160.202 338.269,175.278 z" id="boundary" inkscape:connector-curvature="0" />
	<path style="fill:none;stroke:red;stroke-width:1px;stroke-linecap:butt;stroke-linejoin:miter;stroke-opacity:1" d="M 367.343,55.4719 356.029,75.7527 z" id="boundary" inkscape:connector-curvature="0" />
	<path style="fill:none;stroke:red;stroke-width:1px;stroke-linecap:butt;stroke-linejoin:miter;stroke-opacity:1" d="M 346.106,20.9189 367.343,55.4719 z" id="boundary" inkscape:connector-curvature="0" />
	<path style="fill:none;stroke:red;stroke-width:1px;stroke-linecap:butt;stroke-linejoin:miter;stroke-opacity:1" d="M 349.406,192.908 355.171,224.571 z" id="boundary" inkscape:connector-curvature="0" />
	<path style="fill:none;stroke:red;stroke-width:1px;stroke-linecap:butt;stroke-linejoin:miter;stroke-opacity:1" d="M 349.406,192.908 338.269,175.278 z" id="boundary" inkscape:connector-curvature="0" />
	<path style="fill:none;stroke:red;stroke-width:1px;stroke-linecap:butt;stroke-linejoin:miter;stroke-opacity:1" d="M 361.839,242.873 359.305,273.292 z" id="boundary" inkscape:connector-curvature="0" />
	<path style="fill:none;stroke:red;stroke-width:1px;stroke-linecap:butt;stroke-linejoin:miter;stroke-opacity:1" d="M 320.447,19.5612 331.149,4 z" id="boundary" inkscape:connector-curvature="0" />
	<path style="fill:none;stroke:red;stroke-width:1px;stroke-linecap:butt;stroke-linejoin:miter;stroke-opacity:1" d="M 331.149,4 346.106,20.9189 z" id="boundary" inkscape:connector-curvature="0" />
	<path style="fill:none;stroke:red;stroke-width:1px;stroke-linecap:butt;stroke-linejoin:miter;stroke-opacity:1" d="M 355.171,224.571 361.839,242.873 z" id="boundary" inkscape:connector-curvature="0" />
	<path style="fill:none;stroke:red;stroke-width:1px;stroke-linecap:butt;stroke-linejoin:miter;stroke-opacity:1" d="M 326.699,323.964 310.709,312.018 z" id="boundary" inkscape:connector-curvature="0" />
	<path style="fill:none;stroke:red;stroke-width:1px;stroke-linecap:butt;stroke-linejoin:miter;stroke-opacity:1" d="M 351.671,311.218 326.699,323.964 z" id="boundary" inkscape:connector-curvature="0" />
	<path style="fill:none;stroke:red;stroke-width:1px;stroke-linecap:butt;stroke-linejoin:miter;stroke-opacity:1" d="M 324.755,484.803 310.328,473.938 z" id="boundary" inkscape:connector-curvature="0" />
	<path style="fill:none;stroke:red;stroke-width:1px;stroke-linecap:butt;stroke-linejoin:miter;stroke-opacity:1" d="M 324.674,407.269 341.358,427.347 z" id="boundary" inkscape:connector-curvature="0" />
	<path style="fill:none;stroke:red;stroke-width:1px;stroke-linecap:butt;stroke-linejoin:miter;stroke-opacity:1" d="M 341.358,427.347 343.431,441.143 z" id="boundary" inkscape:connector-curvature="0" />
	<path style="fill:none;stroke:red;stroke-width:1px;stroke-linecap:butt;stroke-linejoin:miter;stroke-opacity:1" d="M 342.844,502.557 290.014,559.702 z" id="boundary" inkscape:connector-curvature="0" />
	<path style="fill:none;stroke:red;stroke-width:1px;stroke-linecap:butt;stroke-linejoin:miter;stroke-opacity:1" d="M 354.228,336.673 324.674,407.269 z" id="boundary" inkscape:connector-curvature="0" />
	<path style="fill:none;stroke:red;stroke-width:1px;stroke-linecap:butt;stroke-linejoin:miter;stroke-opacity:1" d="M 354.228,336.673 351.671,311.218 z" id="boundary" inkscape:connector-curvature="0" />
	<path style="fill:none;stroke:red;stroke-width:1px;stroke-linecap:butt;stroke-linejoin:miter;stroke-opacity:1" d="M 359.305,273.292 351.671,311.218 z" id="boundary" inkscape:connector-curvature="0" />
	<path style="fill:none;stroke:red;stroke-width:1px;stroke-linecap:butt;stroke-linejoin:miter;stroke-opacity:1" d="M 348.663,488.069 324.755,484.803 z" id="boundary" inkscape:connector-curvature="0" />
	<path style="fill:none;stroke:red;stroke-width:1px;stroke-linecap:butt;stroke-linejoin:miter;stroke-opacity:1" d="M 359.745,454.535 343.431,441.143 z" id="boundary" inkscape:connector-curvature="0" />
	<path style="fill:none;stroke:red;stroke-width:1px;stroke-linecap:butt;stroke-linejoin:miter;stroke-opacity:1" d="M 348.663,488.069 342.844,502.557 z" id="boundary" inkscape:connector-curvature="0" />
	<path style="fill:none;stroke:red;stroke-width:1px;stroke-linecap:butt;stroke-linejoin:miter;stroke-opacity:1" d="M 356.029,75.7527 366.214,104.621 z" id="boundary" inkscape:connector-curvature="0" />
	<path style="fill:none;stroke:red;stroke-width:1px;stroke-linecap:butt;stroke-linejoin:miter;stroke-opacity:1" d="M 369.637,131.389 366.214,104.621 z" id="boundary" inkscape:connector-curvature="0" />
	<path style="fill:none;stroke:red;stroke-width:1px;stroke-linecap:butt;stroke-linejoin:miter;stroke-opacity:1" d="M 369.637,131.389 380.206,150.358 z" id="boundary" inkscape:connector-curvature="0" />
	<path style="fill:none;stroke:red;stroke-width:1px;stroke-linecap:butt;stroke-linejoin:miter;stroke-opacity:1" d="M 407.147,150.884 380.206,150.358 z" id="boundary" inkscape:connector-curvature="0" />
	<path style="fill:none;stroke:red;stroke-width:1px;stroke-linecap:butt;stroke-linejoin:miter;stroke-opacity:1" d="M 401.833,186.71 407.147,150.884 z" id="boundary" inkscape:connector-curvature="0" />
	<path style="fill:none;stroke:red;stroke-width:1px;stroke-linecap:butt;stroke-linejoin:miter;stroke-opacity:1" d="M 407.147,150.884 415.25,199.466 z" id="boundary" inkscape:connector-curvature="0" />
	<path style="fill:none;stroke:red;stroke-width:1px;stroke-linecap:butt;stroke-linejoin:miter;stroke-opacity:1" d="M 415.25,199.466 401.833,186.71 z" id="boundary" inkscape:connector-curvature="0" />
	<path style="fill:none;stroke:red;stroke-width:1px;stroke-linecap:butt;stroke-linejoin:miter;stroke-opacity:1" d="M 415.25,199.466 408.325,211.294 z" id="boundary" inkscape:connector-curvature="0" />
	<path style="fill:none;stroke:red;stroke-width:1px;stroke-linecap:butt;stroke-linejoin:miter;stroke-opacity:1" d="M 424.47,242.399 427.339,269.798 z" id="boundary" inkscape:connector-curvature="0" />
	<path style="fill:none;stroke:red;stroke-width:1px;stroke-linecap:butt;stroke-linejoin:miter;stroke-opacity:1" d="M 424.47,242.399 408.325,211.294 z" id="boundary" inkscape:connector-curvature="0" />
	<path style="fill:none;stroke:red;stroke-width:1px;stroke-linecap:butt;stroke-linejoin:miter;stroke-opacity:1" d="M 427.339,269.798 428.823,306.675 z" id="boundary" inkscape:connector-curvature="0" />
	<path style="fill:none;stroke:red;stroke-width:1px;stroke-linecap:butt;stroke-linejoin:miter;stroke-opacity:1" d="M 432.291,315.356 439.246,341.148 z" id="boundary" inkscape:connector-curvature="0" />
	<path style="fill:none;stroke:red;stroke-width:1px;stroke-linecap:butt;stroke-linejoin:miter;stroke-opacity:1" d="M 432.291,315.356 428.823,306.675 z" id="boundary" inkscape:connector-curvature="0" />
	<path style="fill:none;stroke:red;stroke-width:1px;stroke-linecap:butt;stroke-linejoin:miter;stroke-opacity:1" d="M 380.51,473.836 359.745,454.535 z" id="boundary" inkscape:connector-curvature="0" />
	<path style="fill:none;stroke:red;stroke-width:1px;stroke-linecap:butt;stroke-linejoin:miter;stroke-opacity:1" d="M 456.588,427.871 380.51,473.836 z" id="boundary" inkscape:connector-curvature="0" />
	<path style="fill:none;stroke:red;stroke-width:1px;stroke-linecap:butt;stroke-linejoin:miter;stroke-opacity:1" d="M 380.51,473.836 348.663,488.069 z" id="boundary" inkscape:connector-curvature="0" />
	<path style="fill:none;stroke:red;stroke-width:1px;stroke-linecap:butt;stroke-linejoin:miter;stroke-opacity:1" d="M 437.081,370.81 433.296,395.693 z" id="boundary" inkscape:connector-curvature="0" />
	<path style="fill:none;stroke:red;stroke-width:1px;stroke-linecap:butt;stroke-linejoin:miter;stroke-opacity:1" d="M 437.081,370.81 439.246,341.148 z" id="boundary" inkscape:connector-curvature="0" />
	<path style="fill:none;stroke:red;stroke-width:1px;stroke-linecap:butt;stroke-linejoin:miter;stroke-opacity:1" d="M 456.824,416.306 456.588,427.871 z" id="boundary" inkscape:connector-curvature="0" />
	<path style="fill:none;stroke:red;stroke-width:1px;stroke-linecap:butt;stroke-linejoin:miter;stroke-opacity:1" d="M 433.296,395.693 456.824,416.306 z" id="boundary" inkscape:connector-curvature="0" />
	<path style="fill:none;stroke:red;stroke-width:1px;stroke-linecap:butt;stroke-linejoin:miter;stroke-opacity:1" d="M 469.263,455.147 472.723,482.263 z" id="boundary" inkscape:connector-curvature="0" />
	<path style="fill:none;stroke:red;stroke-width:1px;stroke-linecap:butt;stroke-linejoin:miter;stroke-opacity:1" d="M 469.263,455.147 456.588,427.871 z" id="boundary" inkscape:connector-curvature="0" />
	<path style="fill:none;stroke:red;stroke-width:1px;stroke-linecap:butt;stroke-linejoin:miter;stroke-opacity:1" d="M 472.723,482.263 470.534,500.2 z" id="boundary" inkscape:connector-curvature="0" />
	<path style="fill:none;stroke:red;stroke-width:1px;stroke-linecap:butt;stroke-linejoin:miter;stroke-opacity:1" d="M 343.003,631.842 297.014,640.882 z" id="boundary" inkscape:connector-curvature="0" />
	<path style="fill:none;stroke:red;stroke-width:1px;stroke-linecap:butt;stroke-linejoin:miter;stroke-opacity:1" d="M 328.333,601.75 304.633,578.248 z" id="boundary" inkscape:connector-curvature="0" />
	<path style="fill:none;stroke:red;stroke-width:1px;stroke-linecap:butt;stroke-linejoin:miter;stroke-opacity:1" d="M 340.918,604.519 328.333,601.75 z" id="boundary" inkscape:connector-curvature="0" />
	<path style="fill:none;stroke:red;stroke-width:1px;stroke-linecap:butt;stroke-linejoin:miter;stroke-opacity:1" d="M 333.036,725.977 306.719,720.313 z" id="boundary" inkscape:connector-curvature="0" />
	<path style="fill:none;stroke:red;stroke-width:1px;stroke-linecap:butt;stroke-linejoin:miter;stroke-opacity:1" d="M 306.719,720.313 304.831,715.466 z" id="boundary" inkscape:connector-curvature="0" />
	<path style="fill:none;stroke:red;stroke-width:1px;stroke-linecap:butt;stroke-linejoin:miter;stroke-opacity:1" d="M 340.067,694.342 340.339,700.784 z" id="boundary" inkscape:connector-curvature="0" />
	<path style="fill:none;stroke:red;stroke-width:1px;stroke-linecap:butt;stroke-linejoin:miter;stroke-opacity:1" d="M 341.591,660.15 340.067,694.342 z" id="boundary" inkscape:connector-curvature="0" />
	<path style="fill:none;stroke:red;stroke-width:1px;stroke-linecap:butt;stroke-linejoin:miter;stroke-opacity:1" d="M 343.003,631.842 340.918,604.519 z" id="boundary" inkscape:connector-curvature="0" />
	<path style="fill:none;stroke:red;stroke-width:1px;stroke-linecap:butt;stroke-linejoin:miter;stroke-opacity:1" d="M 343.003,631.842 343.716,655.583 z" id="boundary" inkscape:connector-curvature="0" />
	<path style="fill:none;stroke:red;stroke-width:1px;stroke-linecap:butt;stroke-linejoin:miter;stroke-opacity:1" d="M 341.591,660.15 343.716,655.583 z" id="boundary" inkscape:connector-curvature="0" />
	<path style="fill:none;stroke:red;stroke-width:1px;stroke-linecap:butt;stroke-linejoin:miter;stroke-opacity:1" d="M 340.339,700.784 333.036,725.977 z" id="boundary" inkscape:connector-curvature="0" />
	<path style="fill:none;stroke:red;stroke-width:1px;stroke-linecap:butt;stroke-linejoin:miter;stroke-opacity:1" d="M 333.036,725.977 344.134,733.549 z" id="boundary" inkscape:connector-curvature="0" />
	<path style="fill:none;stroke:red;stroke-width:1px;stroke-linecap:butt;stroke-linejoin:miter;stroke-opacity:1" d="M 317.627,888.065 338.541,890.489 z" id="boundary" inkscape:connector-curvature="0" />
	<path style="fill:none;stroke:red;stroke-width:1px;stroke-linecap:butt;stroke-linejoin:miter;stroke-opacity:1" d="M 338.541,890.489 337.571,931.72 z" id="boundary" inkscape:connector-curvature="0" />
	<path style="fill:none;stroke:red;stroke-width:1px;stroke-linecap:butt;stroke-linejoin:miter;stroke-opacity:1" d="M 317.627,888.065 314.694,868.442 z" id="boundary" inkscape:connector-curvature="0" />
	<path style="fill:none;stroke:red;stroke-width:1px;stroke-linecap:butt;stroke-linejoin:miter;stroke-opacity:1" d="M 338.541,890.489 358.512,915.284 z" id="boundary" inkscape:connector-curvature="0" />
	<path style="fill:none;stroke:red;stroke-width:1px;stroke-linecap:butt;stroke-linejoin:miter;stroke-opacity:1" d="M 358.512,915.284 337.571,931.72 z" id="boundary" inkscape:connector-curvature="0" />
	<path style="fill:none;stroke:red;stroke-width:1px;stroke-linecap:butt;stroke-linejoin:miter;stroke-opacity:1" d="M 314.694,868.442 281.565,854.633 z" id="boundary" inkscape:connector-curvature="0" />
	<path style="fill:none;stroke:red;stroke-width:1px;stroke-linecap:butt;stroke-linejoin:miter;stroke-opacity:1" d="M 355.425,950.152 337.571,931.72 z" id="boundary" inkscape:connector-curvature="0" />
	<path style="fill:none;stroke:red;stroke-width:1px;stroke-linecap:butt;stroke-linejoin:miter;stroke-opacity:1" d="M 407.66,976.337 358.512,915.284 z" id="boundary" inkscape:connector-curvature="0" />
	<path style="fill:none;stroke:red;stroke-width:1px;stroke-linecap:butt;stroke-linejoin:miter;stroke-opacity:1" d="M 385.182,965.944 355.425,950.152 z" id="boundary" inkscape:connector-curvature="0" />
	<path style="fill:none;stroke:red;stroke-width:1px;stroke-linecap:butt;stroke-linejoin:miter;stroke-opacity:1" d="M 407.66,976.337 398.736,973.671 z" id="boundary" inkscape:connector-curvature="0" />
	<path style="fill:none;stroke:red;stroke-width:1px;stroke-linecap:butt;stroke-linejoin:miter;stroke-opacity:1" d="M 398.736,973.671 385.182,965.944 z" id="boundary" inkscape:connector-curvature="0" />
	<path style="fill:none;stroke:red;stroke-width:1px;stroke-linecap:butt;stroke-linejoin:miter;stroke-opacity:1" d="M 407.66,976.337 434.641,996 z" id="boundary" inkscape:connector-curvature="0" />
	<path style="fill:none;stroke:red;stroke-width:1px;stroke-linecap:butt;stroke-linejoin:miter;stroke-opacity:1" d="M 475.772,536.16 470.534,500.2 z" id="boundary" inkscape:connector-curvature="0" />
	<path style="fill:none;stroke:red;stroke-width:1px;stroke-linecap:butt;stroke-linejoin:miter;stroke-opacity:1" d="M 490.787,557.847 475.772,536.16 z" id="boundary" inkscape:connector-curvature="0" />
	<path style="fill:none;stroke:red;stroke-width:1px;stroke-linecap:butt;stroke-linejoin:miter;stroke-opacity:1" d="M 481.965,621.111 486.287,654.463 z" id="boundary" inkscape:connector-curvature="0" />
	<path style="fill:none;stroke:red;stroke-width:1px;stroke-linecap:butt;stroke-linejoin:miter;stroke-opacity:1" d="M 481.965,621.111 476.665,599.714 z" id="boundary" inkscape:connector-curvature="0" />
	<path style="fill:none;stroke:red;stroke-width:1px;stroke-linecap:butt;stroke-linejoin:miter;stroke-opacity:1" d="M 476.665,599.714 490.787,557.847 z" id="boundary" inkscape:connector-curvature="0" />
	<path style="fill:none;stroke:red;stroke-width:1px;stroke-linecap:butt;stroke-linejoin:miter;stroke-opacity:1" d="M 486.287,654.463 488.586,677.706 z" id="boundary" inkscape:connector-curvature="0" />
	<path style="fill:none;stroke:red;stroke-width:1px;stroke-linecap:butt;stroke-linejoin:miter;stroke-opacity:1" d="M 498.761,702.845 488.586,677.706 z" id="boundary" inkscape:connector-curvature="0" />
	<path style="fill:none;stroke:red;stroke-width:1px;stroke-linecap:butt;stroke-linejoin:miter;stroke-opacity:1" d="M 504.401,715.259 498.761,702.845 z" id="boundary" inkscape:connector-curvature="0" />
	<path style="fill:none;stroke:red;stroke-width:1px;stroke-linecap:butt;stroke-linejoin:miter;stroke-opacity:1" d="M 501.089,738.108 494.731,756.196 z" id="boundary" inkscape:connector-curvature="0" />
	<path style="fill:none;stroke:red;stroke-width:1px;stroke-linecap:butt;stroke-linejoin:miter;stroke-opacity:1" d="M 504.401,715.259 501.089,738.108 z" id="boundary" inkscape:connector-curvature="0" />
	<path style="fill:none;stroke:red;stroke-width:1px;stroke-linecap:butt;stroke-linejoin:miter;stroke-opacity:1" d="M 499.84,788.867 494.731,756.196 z" id="boundary" inkscape:connector-curvature="0" />
	<path style="fill:none;stroke:red;stroke-width:1px;stroke-linecap:butt;stroke-linejoin:miter;stroke-opacity:1" d="M 491.461,937.208 487.206,954.94 z" id="boundary" inkscape:connector-curvature="0" />
	<path style="fill:none;stroke:red;stroke-width:1px;stroke-linecap:butt;stroke-linejoin:miter;stroke-opacity:1" d="M 491.461,937.208 519.712,919.445 z" id="boundary" inkscape:connector-curvature="0" />
	<path style="fill:none;stroke:red;stroke-width:1px;stroke-linecap:butt;stroke-linejoin:miter;stroke-opacity:1" d="M 455.527,986.431 434.641,996 z" id="boundary" inkscape:connector-curvature="0" />
	<path style="fill:none;stroke:red;stroke-width:1px;stroke-linecap:butt;stroke-linejoin:miter;stroke-opacity:1" d="M 487.206,954.94 481.806,974.38 z" id="boundary" inkscape:connector-curvature="0" />
	<path style="fill:none;stroke:red;stroke-width:1px;stroke-linecap:butt;stroke-linejoin:miter;stroke-opacity:1" d="M 481.806,974.38 455.527,986.431 z" id="boundary" inkscape:connector-curvature="0" />
	<path style="fill:none;stroke:red;stroke-width:1px;stroke-linecap:butt;stroke-linejoin:miter;stroke-opacity:1" d="M 513.034,834.334 514.184,856.845 z" id="boundary" inkscape:connector-curvature="0" />
	<path style="fill:none;stroke:red;stroke-width:1px;stroke-linecap:butt;stroke-linejoin:miter;stroke-opacity:1" d="M 493.985,827.516 513.034,834.334 z" id="boundary" inkscape:connector-curvature="0" />
	<path style="fill:none;stroke:red;stroke-width:1px;stroke-linecap:butt;stroke-linejoin:miter;stroke-opacity:1" d="M 531.526,875.179 514.184,856.845 z" id="boundary" inkscape:connector-curvature="0" />
	<path style="fill:none;stroke:red;stroke-width:1px;stroke-linecap:butt;stroke-linejoin:miter;stroke-opacity:1" d="M 525.477,911.32 519.712,919.445 z" id="boundary" inkscape:connector-curvature="0" />
	<path style="fill:none;stroke:red;stroke-width:1px;stroke-linecap:butt;stroke-linejoin:miter;stroke-opacity:1" d="M 531.526,875.179 525.477,911.32 z" id="boundary" inkscape:connector-curvature="0" />
	<path style="fill:none;stroke:red;stroke-width:1px;stroke-linecap:butt;stroke-linejoin:miter;stroke-opacity:1" d="M 493.985,827.516 499.84,788.867 z" id="boundary" inkscape:connector-curvature="0" />
	<circle cx="12.7867" cy="619.807" r="4" fill="#0" id="circle0"/>
	<circle cx="41.1726" cy="599.232" r="4" fill="#0" id="circle1"/>
	<circle cx="67.3859" cy="616.417" r="4" fill="#0" id="circle2"/>
	<circle cx="109.213" cy="611.525" r="4" fill="#0" id="circle3"/>
	<circle cx="135.672" cy="625.956" r="4" fill="#0" id="circle4"/>
	<circle cx="152.561" cy="633.984" r="4" fill="#0" id="circle5"/>
	<circle cx="174.428" cy="644.292" r="4" fill="#0" id="circle6"/>
	<circle cx="165.29" cy="612.12" r="4" fill="#0" id="circle7"/>
	<circle cx="168.426" cy="593.28" r="4" fill="#0" id="circle8"/>
	<circle cx="171.624" cy="576.35" r="4" fill="#0" id="circle9"/>
	<circle cx="172.462" cy="565.041" r="4" fill="#0" id="circle10"/>
	<circle cx="163.971" cy="519.674" r="4" fill="#0" id="circle11"/>
	<circle cx="169.353" cy="501.483" r="4" fill="#0" id="circle12"/>
	<circle cx="191.258" cy="492.455" r="4" fill="#0" id="circle13"/>
	<circle cx="195.253" cy="488.095" r="4" fill="#0" id="circle14"/>
	<circle cx="225.393" cy="472.405" r="4" fill="#0" id="circle15"/>
	<circle cx="240.619" cy="466.999" r="4" fill="#0" id="circle16"/>
	<circle cx="263.315" cy="452.255" r="4" fill="#0" id="circle17"/>
	<circle cx="283.941" cy="442.321" r="4" fill="#0" id="circle18"/>
	<circle cx="301.957" cy="458.407" r="4" fill="#0" id="circle19"/>
	<circle cx="310.328" cy="473.938" r="4" fill="#0" id="circle20"/>
	<circle cx="324.755" cy="484.803" r="4" fill="#0" id="circle21"/>
	<circle cx="342.844" cy="502.557" r="4" fill="#0" id="circle22"/>
	<circle cx="348.663" cy="488.069" r="4" fill="#0" id="circle23"/>
	<circle cx="380.51" cy="473.836" r="4" fill="#0" id="circle24"/>
	<circle cx="29.4335" cy="155.864" r="4" fill="#0" id="circle25"/>
	<circle cx="46.5122" cy="164.39" r="4" fill="#0" id="circle26"/>
	<circle cx="48.4864" cy="188.789" r="4" fill="#0" id="circle27"/>
	<circle cx="84.2215" cy="215.448" r="4" fill="#0" id="circle28"/>
	<circle cx="94.8781" cy="229.991" r="4" fill="#0" id="circle29"/>
	<circle cx="119.11" cy="227.324" r="4" fill="#0" id="circle30"/>
	<circle cx="121.84" cy="245.475" r="4" fill="#0" id="circle31"/>
	<circle cx="151.417" cy="265.93" r="4" fill="#0" id="circle32"/>
	<circle cx="162.575" cy="272.67" r="4" fill="#0" id="circle33"/>
	<circle cx="176.967" cy="288.279" r="4" fill="#0" id="circle34"/>
	<circle cx="195.918" cy="315.762" r="4" fill="#0" id="circle35"/>
	<circle cx="211.562" cy="315.364" r="4" fill="#0" id="circle36"/>
	<circle cx="216.136" cy="335.535" r="4" fill="#0" id="circle37"/>
	<circle cx="244.017" cy="344.83" r="4" fill="#0" id="circle38"/>
	<circle cx="253.575" cy="366.909" r="4" fill="#0" id="circle39"/>
	<circle cx="268.013" cy="384.637" r="4" fill="#0" id="circle40"/>
	<circle cx="289" cy="382.38" r="4" fill="#0" id="circle41"/>
	<circle cx="295.88" cy="408.119" r="4" fill="#0" id="circle42"/>
	<circle cx="324.674" cy="407.269" r="4" fill="#0" id="circle43"/>
	<circle cx="341.358" cy="427.347" r="4" fill="#0" id="circle44"/>
	<circle cx="343.431" cy="441.143" r="4" fill="#0" id="circle45"/>
	<circle cx="359.745" cy="454.535" r="4" fill="#0" id="circle46"/>
	<circle cx="33.2835" cy="110.181" r="4" fill="#0" id="circle47"/>
	<circle cx="51.631" cy="102.913" r="4" fill="#0" id="circle48"/>
	<circle cx="62.7369" cy="106.595" r="4" fill="#0" id="circle49"/>
	<circle cx="84.642" cy="133.618" r="4" fill="#0" id="circle50"/>
	<circle cx="91.7147" cy="131.578" r="4" fill="#0" id="circle51"/>
	<circle cx="128.867" cy="146.003" r="4" fill="#0" id="circle52"/>
	<circle cx="133.436" cy="169.513" r="4" fill="#0" id="circle53"/>
	<circle cx="151.349" cy="184.48" r="4" fill="#0" id="circle54"/>
	<circle cx="167.034" cy="201.332" r="4" fill="#0" id="circle55"/>
	<circle cx="193.917" cy="216.693" r="4" fill="#0" id="circle56"/>
	<circle cx="213.227" cy="227.207" r="4" fill="#0" id="circle57"/>
	<circle cx="224.429" cy="241.537" r="4" fill="#0" id="circle58"/>
	<circle cx="254.307" cy="246.175" r="4" fill="#0" id="circle59"/>
	<circle cx="273.215" cy="278.968" r="4" fill="#0" id="circle60"/>
	<circle cx="283.9" cy="278.475" r="4" fill="#0" id="circle61"/>
	<circle cx="288.56" cy="286.233" r="4" fill="#0" id="circle62"/>
	<circle cx="310.709" cy="312.018" r="4" fill="#0" id="circle63"/>
	<circle cx="326.699" cy="323.964" r="4" fill="#0" id="circle64"/>
	<circle cx="354.228" cy="336.673" r="4" fill="#0" id="circle65"/>
	<circle cx="351.671" cy="311.218" r="4" fill="#0" id="circle66"/>
	<circle cx="359.305" cy="273.292" r="4" fill="#0" id="circle67"/>
	<circle cx="361.839" cy="242.873" r="4" fill="#0" id="circle68"/>
	<circle cx="355.171" cy="224.571" r="4" fill="#0" id="circle69"/>
	<circle cx="349.406" cy="192.908" r="4" fill="#0" id="circle70"/>
	<circle cx="338.269" cy="175.278" r="4" fill="#0" id="circle71"/>
	<circle cx="329.717" cy="160.202" r="4" fill="#0" id="circle72"/>
	<circle cx="310.136" cy="120.232" r="4" fill="#0" id="circle73"/>
	<circle cx="305.515" cy="85.9706" r="4" fill="#0" id="circle74"/>
	<circle cx="300.083" cy="67.3242" r="4" fill="#0" id="circle75"/>
	<circle cx="306.366" cy="59.8541" r="4" fill="#0" id="circle76"/>
	<circle cx="298.85" cy="39.7981" r="4" fill="#0" id="circle77"/>
	<circle cx="320.447" cy="19.5612" r="4" fill="#0" id="circle78"/>
	<circle cx="331.149" cy="4" r="4" fill="#0" id="circle79"/>
	<circle cx="346.106" cy="20.9189" r="4" fill="#0" id="circle80"/>
	<circle cx="367.343" cy="55.4719" r="4" fill="#0" id="circle81"/>
	<circle cx="356.029" cy="75.7527" r="4" fill="#0" id="circle82"/>
	<circle cx="366.214" cy="104.621" r="4" fill="#0" id="circle83"/>
	<circle cx="369.637" cy="131.389" r="4" fill="#0" id="circle84"/>
	<circle cx="380.206" cy="150.358" r="4" fill="#0" id="circle85"/>
	<circle cx="407.147" cy="150.884" r="4" fill="#0" id="circle86"/>
	<circle cx="401.833" cy="186.71" r="4" fill="#0" id="circle87"/>
	<circle cx="415.25" cy="199.466" r="4" fill="#0" id="circle88"/>
	<circle cx="408.325" cy="211.294" r="4" fill="#0" id="circle89"/>
	<circle cx="424.47" cy="242.399" r="4" fill="#0" id="circle90"/>
	<circle cx="427.339" cy="269.798" r="4" fill="#0" id="circle91"/>
	<circle cx="428.823" cy="306.675" r="4" fill="#0" id="circle92"/>
	<circle cx="432.291" cy="315.356" r="4" fill="#0" id="circle93"/>
	<circle cx="439.246" cy="341.148" r="4" fill="#0" id="circle94"/>
	<circle cx="437.081" cy="370.81" r="4" fill="#0" id="circle95"/>
	<circle cx="433.296" cy="395.693" r="4" fill="#0" id="circle96"/>
	<circle cx="456.824" cy="416.306" r="4" fill="#0" id="circle97"/>
	<circle cx="456.588" cy="427.871" r="4" fill="#0" id="circle98"/>
	<circle cx="469.263" cy="455.147" r="4" fill="#0" id="circle99"/>
	<circle cx="472.723" cy="482.263" r="4" fill="#0" id="circle100"/>
	<circle cx="470.534" cy="500.2" r="4" fill="#0" id="circle101"/>
	<circle cx="475.772" cy="536.16" r="4" fill="#0" id="circle102"/>
	<circle cx="490.787" cy="557.847" r="4" fill="#0" id="circle103"/>
	<circle cx="476.665" cy="599.714" r="4" fill="#0" id="circle104"/>
	<circle cx="481.965" cy="621.111" r="4" fill="#0" id="circle105"/>
	<circle cx="486.287" cy="654.463" r="4" fill="#0" id="circle106"/>
	<circle cx="488.586" cy="677.706" r="4" fill="#0" id="circle107"/>
	<circle cx="498.761" cy="702.845" r="4" fill="#0" id="circle108"/>
	<circle cx="504.401" cy="715.259" r="4" fill="#0" id="circle109"/>
	<circle cx="501.089" cy="738.108" r="4" fill="#0" id="circle110"/>
	<circle cx="494.731" cy="756.196" r="4" fill="#0" id="circle111"/>
	<circle cx="499.84" cy="788.867" r="4" fill="#0" id="circle112"/>
	<circle cx="493.985" cy="827.516" r="4" fill="#0" id="circle113"/>
	<circle cx="513.034" cy="834.334" r="4" fill="#0" id="circle114"/>
	<circle cx="514.184" cy="856.845" r="4" fill="#0" id="circle115"/>
	<circle cx="531.526" cy="875.179" r="4" fill="#0" id="circle116"/>
	<circle cx="525.477" cy="911.32" r="4" fill="#0" id="circle117"/>
	<circle cx="519.712" cy="919.445" r="4" fill="#0" id="circle118"/>
	<circle cx="491.461" cy="937.208" r="4" fill="#0" id="circle119"/>
	<circle cx="487.206" cy="954.94" r="4" fill="#0" id="circle120"/>
	<circle cx="481.806" cy="974.38" r="4" fill="#0" id="circle121"/>
	<circle cx="4" cy="641.933" r="4" fill="#0" id="circle122"/>
	<circle cx="9.87429" cy="670.258" r="4" fill="#0" id="circle123"/>
	<circle cx="33.8501" cy="671.245" r="4" fill="#0" id="circle124"/>
	<circle cx="53.2777" cy="688.035" r="4" fill="#0" id="circle125"/>
	<circle cx="77.9538" cy="709.694" r="4" fill="#0" id="circle126"/>
	<circle cx="89.5868" cy="709.578" r="4" fill="#0" id="circle127"/>
	<circle cx="106.264" cy="729.758" r="4" fill="#0" id="circle128"/>
	<circle cx="123.486" cy="744.177" r="4" fill="#0" id="circle129"/>
	<circle cx="138.862" cy="741.238" r="4" fill="#0" id="circle130"/>
	<circle cx="166.103" cy="764.267" r="4" fill="#0" id="circle131"/>
	<circle cx="188.15" cy="783.524" r="4" fill="#0" id="circle132"/>
	<circle cx="211.611" cy="779.591" r="4" fill="#0" id="circle133"/>
	<circle cx="215.744" cy="810.512" r="4" fill="#0" id="circle134"/>
	<circle cx="243.975" cy="825.89" r="4" fill="#0" id="circle135"/>
	<circle cx="251.102" cy="828.507" r="4" fill="#0" id="circle136"/>
	<circle cx="266.548" cy="844.937" r="4" fill="#0" id="circle137"/>
	<circle cx="281.565" cy="854.633" r="4" fill="#0" id="circle138"/>
	<circle cx="314.694" cy="868.442" r="4" fill="#0" id="circle139"/>
	<circle cx="317.627" cy="888.065" r="4" fill="#0" id="circle140"/>
	<circle cx="338.541" cy="890.489" r="4" fill="#0" id="circle141"/>
	<circle cx="358.512" cy="915.284" r="4" fill="#0" id="circle142"/>
	<circle cx="337.571" cy="931.72" r="4" fill="#0" id="circle143"/>
	<circle cx="355.425" cy="950.152" r="4" fill="#0" id="circle144"/>
	<circle cx="385.182" cy="965.944" r="4" fill="#0" id="circle145"/>
	<circle cx="398.736" cy="973.671" r="4" fill="#0" id="circle146"/>
	<circle cx="407.66" cy="976.337" r="4" fill="#0" id="circle147"/>
	<circle cx="434.641" cy="996" r="4" fill="#0" id="circle148"/>
	<circle cx="455.527" cy="986.431" r="4" fill="#0" id="circle149"/>
	<circle cx="255.354" cy="676.304" r="4" fill="#0" id="circle150"/>
	<circle cx="257.288" cy="686.674" r="4" fill="#0" id="circle151"/>
	<circle cx="283.84" cy="699.083" r="4" fill="#0" id="circle152"/>
	<circle cx="304.831" cy="715.466" r="4" fill="#0" id="circle153"/>
	<circle cx="306.719" cy="720.313" r="4" fill="#0" id="circle154"/>
	<circle cx="333.036" cy="725.977" r="4" fill="#0" id="circle155"/>
	<circle cx="262.577" cy="676.34" r="4" fill="#0" id="circle156"/>
	<circle cx="287.003" cy="669.569" r="4" fill="#0" id="circle157"/>
	<circle cx="292.32" cy="677.77" r="4" fill="#0" id="circle158"/>
	<circle cx="297.014" cy="640.882" r="4" fill="#0" id="circle159"/>
	<circle cx="266.622" cy="631.871" r="4" fill="#0" id="circle160"/>
	<circle cx="265.741" cy="641.06" r="4" fill="#0" id="circle161"/>
	<circle cx="237.334" cy="633.604" r="4" fill="#0" id="circle162"/>
	<circle cx="239.505" cy="605.059" r="4" fill="#0" id="circle163"/>
	<circle cx="235.372" cy="571.09" r="4" fill="#0" id="circle164"/>
	<circle cx="222.443" cy="560.516" r="4" fill="#0" id="circle165"/>
	<circle cx="237.59" cy="548.424" r="4" fill="#0" id="circle166"/>
	<circle cx="264.512" cy="561.064" r="4" fill="#0" id="circle167"/>
	<circle cx="290.014" cy="559.702" r="4" fill="#0" id="circle168"/>
	<circle cx="304.633" cy="578.248" r="4" fill="#0" id="circle169"/>
	<circle cx="328.333" cy="601.75" r="4" fill="#0" id="circle170"/>
	<circle cx="340.918" cy="604.519" r="4" fill="#0" id="circle171"/>
	<circle cx="343.003" cy="631.842" r="4" fill="#0" id="circle172"/>
	<circle cx="343.716" cy="655.583" r="4" fill="#0" id="circle173"/>
	<circle cx="341.591" cy="660.15" r="4" fill="#0" id="circle174"/>
	<circle cx="340.067" cy="694.342" r="4" fill="#0" id="circle175"/>
	<circle cx="340.339" cy="700.784" r="4" fill="#0" id="circle176"/>
	<circle cx="344.134" cy="733.549" r="4" fill="#0" id="circle177"/>
	</g>
</svg>