<?xml version="1.0" encoding="UTF-8" standalone="no"?>
<!-- Created with CurveBenchmark -->
<svg
	xmlns:dc="http://purl.org/dc/elements/1.1/"
	xmlns:cc="http://creativecommons.org/ns#"
	xmlns:rdf="http://www.w3.org/1999/02/22-rdf-syntax-ns#"
	xmlns:svg="http://www.w3.org/2000/svg"
	xmlns="http://www.w3.org/2000/svg"
	xmlns:sodipodi="http://sodipodi.sourceforge.net/DTD/sodipodi-0.dtd"
	xmlns:inkscape="http://www.inkscape.org/namespaces/inkscape"
	width="1000"
	height="1000"
	id="svg2"
	version="1.1"
	sodipodi:docname="noisy-0.01/peel-mc47.txt">
<defs
	id="defs4" />
<metadata
	id="metadata7">
	<rdf:RDF>
		<cc:Work
			rdf:about="">
			<dc:format>image/svg+xml</dc:format>
			<dc:type
				rdf:resource="http://purl.org/dc/dcmitype/StillImage" />
			<dc:title></dc:title>
		</cc:Work>
	</rdf:RDF>
</metadata>
<g
	inkscape:label="Layer 1"
	inkscape:groupmode="layer"
	id="layer1">
	<path style="fill:none;stroke:red;stroke-width:1px;stroke-linecap:butt;stroke-linejoin:miter;stroke-opacity:1" d="M 176.837,392.888 162.834,351.749 z" id="boundary" inkscape:connector-curvature="0" />
	<path style="fill:none;stroke:red;stroke-width:1px;stroke-linecap:butt;stroke-linejoin:miter;stroke-opacity:1" d="M 162.834,351.749 123.909,302.518 z" id="boundary" inkscape:connector-curvature="0" />
	<path style="fill:none;stroke:red;stroke-width:1px;stroke-linecap:butt;stroke-linejoin:miter;stroke-opacity:1" d="M 4,142.249 13.7784,92.3563 z" id="boundary" inkscape:connector-curvature="0" />
	<path style="fill:none;stroke:red;stroke-width:1px;stroke-linecap:butt;stroke-linejoin:miter;stroke-opacity:1" d="M 13.7784,92.3563 44.6153,75.747 z" id="boundary" inkscape:connector-curvature="0" />
	<path style="fill:none;stroke:red;stroke-width:1px;stroke-linecap:butt;stroke-linejoin:miter;stroke-opacity:1" d="M 44.6153,75.747 79.4275,78.4852 z" id="boundary" inkscape:connector-curvature="0" />
	<path style="fill:none;stroke:red;stroke-width:1px;stroke-linecap:butt;stroke-linejoin:miter;stroke-opacity:1" d="M 4,142.249 21.5983,201.59 z" id="boundary" inkscape:connector-curvature="0" />
	<path style="fill:none;stroke:red;stroke-width:1px;stroke-linecap:butt;stroke-linejoin:miter;stroke-opacity:1" d="M 94.987,258.799 123.909,302.518 z" id="boundary" inkscape:connector-curvature="0" />
	<path style="fill:none;stroke:red;stroke-width:1px;stroke-linecap:butt;stroke-linejoin:miter;stroke-opacity:1" d="M 94.987,258.799 58.4551,236.189 z" id="boundary" inkscape:connector-curvature="0" />
	<path style="fill:none;stroke:red;stroke-width:1px;stroke-linecap:butt;stroke-linejoin:miter;stroke-opacity:1" d="M 152.602,124.973 103.48,78.7093 z" id="boundary" inkscape:connector-curvature="0" />
	<path style="fill:none;stroke:red;stroke-width:1px;stroke-linecap:butt;stroke-linejoin:miter;stroke-opacity:1" d="M 103.48,78.7093 79.4275,78.4852 z" id="boundary" inkscape:connector-curvature="0" />
	<path style="fill:none;stroke:red;stroke-width:1px;stroke-linecap:butt;stroke-linejoin:miter;stroke-opacity:1" d="M 179.428,446.363 176.837,392.888 z" id="boundary" inkscape:connector-curvature="0" />
	<path style="fill:none;stroke:red;stroke-width:1px;stroke-linecap:butt;stroke-linejoin:miter;stroke-opacity:1" d="M 58.4551,236.189 21.5983,201.59 z" id="boundary" inkscape:connector-curvature="0" />
	<path style="fill:none;stroke:red;stroke-width:1px;stroke-linecap:butt;stroke-linejoin:miter;stroke-opacity:1" d="M 178.786,148.03 152.602,124.973 z" id="boundary" inkscape:connector-curvature="0" />
	<path style="fill:none;stroke:red;stroke-width:1px;stroke-linecap:butt;stroke-linejoin:miter;stroke-opacity:1" d="M 188.778,165.22 178.786,148.03 z" id="boundary" inkscape:connector-curvature="0" />
	<path style="fill:none;stroke:red;stroke-width:1px;stroke-linecap:butt;stroke-linejoin:miter;stroke-opacity:1" d="M 173.149,486.649 179.428,446.363 z" id="boundary" inkscape:connector-curvature="0" />
	<path style="fill:none;stroke:red;stroke-width:1px;stroke-linecap:butt;stroke-linejoin:miter;stroke-opacity:1" d="M 214.55,153.849 188.778,165.22 z" id="boundary" inkscape:connector-curvature="0" />
	<path style="fill:none;stroke:red;stroke-width:1px;stroke-linecap:butt;stroke-linejoin:miter;stroke-opacity:1" d="M 173.149,486.649 213.955,526.855 z" id="boundary" inkscape:connector-curvature="0" />
	<path style="fill:none;stroke:red;stroke-width:1px;stroke-linecap:butt;stroke-linejoin:miter;stroke-opacity:1" d="M 277.113,110.444 247.155,112.961 z" id="boundary" inkscape:connector-curvature="0" />
	<path style="fill:none;stroke:red;stroke-width:1px;stroke-linecap:butt;stroke-linejoin:miter;stroke-opacity:1" d="M 247.155,112.961 214.55,153.849 z" id="boundary" inkscape:connector-curvature="0" />
	<path style="fill:none;stroke:red;stroke-width:1px;stroke-linecap:butt;stroke-linejoin:miter;stroke-opacity:1" d="M 275.85,351.44 263.255,293.792 z" id="boundary" inkscape:connector-curvature="0" />
	<path style="fill:none;stroke:red;stroke-width:1px;stroke-linecap:butt;stroke-linejoin:miter;stroke-opacity:1" d="M 263.255,293.792 273.516,252.737 z" id="boundary" inkscape:connector-curvature="0" />
	<path style="fill:none;stroke:red;stroke-width:1px;stroke-linecap:butt;stroke-linejoin:miter;stroke-opacity:1" d="M 273.516,252.737 304.224,228.083 z" id="boundary" inkscape:connector-curvature="0" />
	<path style="fill:none;stroke:red;stroke-width:1px;stroke-linecap:butt;stroke-linejoin:miter;stroke-opacity:1" d="M 300.795,395.437 275.85,351.44 z" id="boundary" inkscape:connector-curvature="0" />
	<path style="fill:none;stroke:red;stroke-width:1px;stroke-linecap:butt;stroke-linejoin:miter;stroke-opacity:1" d="M 298.301,561.52 329.805,592.773 z" id="boundary" inkscape:connector-curvature="0" />
	<path style="fill:none;stroke:red;stroke-width:1px;stroke-linecap:butt;stroke-linejoin:miter;stroke-opacity:1" d="M 298.301,561.52 256.784,553.13 z" id="boundary" inkscape:connector-curvature="0" />
	<path style="fill:none;stroke:red;stroke-width:1px;stroke-linecap:butt;stroke-linejoin:miter;stroke-opacity:1" d="M 296.252,88.0018 327.645,80.2383 z" id="boundary" inkscape:connector-curvature="0" />
	<path style="fill:none;stroke:red;stroke-width:1px;stroke-linecap:butt;stroke-linejoin:miter;stroke-opacity:1" d="M 213.955,526.855 256.784,553.13 z" id="boundary" inkscape:connector-curvature="0" />
	<path style="fill:none;stroke:red;stroke-width:1px;stroke-linecap:butt;stroke-linejoin:miter;stroke-opacity:1" d="M 277.113,110.444 296.252,88.0018 z" id="boundary" inkscape:connector-curvature="0" />
	<path style="fill:none;stroke:red;stroke-width:1px;stroke-linecap:butt;stroke-linejoin:miter;stroke-opacity:1" d="M 300.795,395.437 336.505,396.635 z" id="boundary" inkscape:connector-curvature="0" />
	<path style="fill:none;stroke:red;stroke-width:1px;stroke-linecap:butt;stroke-linejoin:miter;stroke-opacity:1" d="M 357.769,568.774 377.479,579.729 z" id="boundary" inkscape:connector-curvature="0" />
	<path style="fill:none;stroke:red;stroke-width:1px;stroke-linecap:butt;stroke-linejoin:miter;stroke-opacity:1" d="M 357.769,568.774 329.805,592.773 z" id="boundary" inkscape:connector-curvature="0" />
	<path style="fill:none;stroke:red;stroke-width:1px;stroke-linecap:butt;stroke-linejoin:miter;stroke-opacity:1" d="M 336.505,396.635 353.926,436.204 z" id="boundary" inkscape:connector-curvature="0" />
	<path style="fill:none;stroke:red;stroke-width:1px;stroke-linecap:butt;stroke-linejoin:miter;stroke-opacity:1" d="M 327.645,80.2383 367.359,48.6381 z" id="boundary" inkscape:connector-curvature="0" />
	<path style="fill:none;stroke:red;stroke-width:1px;stroke-linecap:butt;stroke-linejoin:miter;stroke-opacity:1" d="M 377.479,579.729 415.742,591.327 z" id="boundary" inkscape:connector-curvature="0" />
	<path style="fill:none;stroke:red;stroke-width:1px;stroke-linecap:butt;stroke-linejoin:miter;stroke-opacity:1" d="M 415.742,591.327 424.146,630.77 z" id="boundary" inkscape:connector-curvature="0" />
	<path style="fill:none;stroke:red;stroke-width:1px;stroke-linecap:butt;stroke-linejoin:miter;stroke-opacity:1" d="M 304.224,228.083 327.486,173.729 z" id="boundary" inkscape:connector-curvature="0" />
	<path style="fill:none;stroke:red;stroke-width:1px;stroke-linecap:butt;stroke-linejoin:miter;stroke-opacity:1" d="M 327.486,173.729 367.708,197.039 z" id="boundary" inkscape:connector-curvature="0" />
	<path style="fill:none;stroke:red;stroke-width:1px;stroke-linecap:butt;stroke-linejoin:miter;stroke-opacity:1" d="M 420.73,219.88 439.205,236.462 z" id="boundary" inkscape:connector-curvature="0" />
	<path style="fill:none;stroke:red;stroke-width:1px;stroke-linecap:butt;stroke-linejoin:miter;stroke-opacity:1" d="M 353.926,436.204 374.778,442.545 z" id="boundary" inkscape:connector-curvature="0" />
	<path style="fill:none;stroke:red;stroke-width:1px;stroke-linecap:butt;stroke-linejoin:miter;stroke-opacity:1" d="M 424.146,630.77 463.797,671.828 z" id="boundary" inkscape:connector-curvature="0" />
	<path style="fill:none;stroke:red;stroke-width:1px;stroke-linecap:butt;stroke-linejoin:miter;stroke-opacity:1" d="M 374.778,442.545 406.608,478.915 z" id="boundary" inkscape:connector-curvature="0" />
	<path style="fill:none;stroke:red;stroke-width:1px;stroke-linecap:butt;stroke-linejoin:miter;stroke-opacity:1" d="M 367.708,197.039 410.113,191.876 z" id="boundary" inkscape:connector-curvature="0" />
	<path style="fill:none;stroke:red;stroke-width:1px;stroke-linecap:butt;stroke-linejoin:miter;stroke-opacity:1" d="M 460.978,364.272 454.394,309.152 z" id="boundary" inkscape:connector-curvature="0" />
	<path style="fill:none;stroke:red;stroke-width:1px;stroke-linecap:butt;stroke-linejoin:miter;stroke-opacity:1" d="M 454.394,309.152 459.996,263.836 z" id="boundary" inkscape:connector-curvature="0" />
	<path style="fill:none;stroke:red;stroke-width:1px;stroke-linecap:butt;stroke-linejoin:miter;stroke-opacity:1" d="M 367.359,48.6381 404.534,39.9271 z" id="boundary" inkscape:connector-curvature="0" />
	<path style="fill:none;stroke:red;stroke-width:1px;stroke-linecap:butt;stroke-linejoin:miter;stroke-opacity:1" d="M 442.503,447.62 458.175,397.041 z" id="boundary" inkscape:connector-curvature="0" />
	<path style="fill:none;stroke:red;stroke-width:1px;stroke-linecap:butt;stroke-linejoin:miter;stroke-opacity:1" d="M 406.608,478.915 442.503,447.62 z" id="boundary" inkscape:connector-curvature="0" />
	<path style="fill:none;stroke:red;stroke-width:1px;stroke-linecap:butt;stroke-linejoin:miter;stroke-opacity:1" d="M 442.821,15.053 404.534,39.9271 z" id="boundary" inkscape:connector-curvature="0" />
	<path style="fill:none;stroke:red;stroke-width:1px;stroke-linecap:butt;stroke-linejoin:miter;stroke-opacity:1" d="M 507.468,12.3266 467.104,4 z" id="boundary" inkscape:connector-curvature="0" />
	<path style="fill:none;stroke:red;stroke-width:1px;stroke-linecap:butt;stroke-linejoin:miter;stroke-opacity:1" d="M 467.104,4 442.821,15.053 z" id="boundary" inkscape:connector-curvature="0" />
	<path style="fill:none;stroke:red;stroke-width:1px;stroke-linecap:butt;stroke-linejoin:miter;stroke-opacity:1" d="M 458.175,397.041 460.978,364.272 z" id="boundary" inkscape:connector-curvature="0" />
	<path style="fill:none;stroke:red;stroke-width:1px;stroke-linecap:butt;stroke-linejoin:miter;stroke-opacity:1" d="M 439.205,236.462 459.996,263.836 z" id="boundary" inkscape:connector-curvature="0" />
	<path style="fill:none;stroke:red;stroke-width:1px;stroke-linecap:butt;stroke-linejoin:miter;stroke-opacity:1" d="M 569.817,377.824 570.584,338.696 z" id="boundary" inkscape:connector-curvature="0" />
	<path style="fill:none;stroke:red;stroke-width:1px;stroke-linecap:butt;stroke-linejoin:miter;stroke-opacity:1" d="M 558.756,34.9007 507.468,12.3266 z" id="boundary" inkscape:connector-curvature="0" />
	<path style="fill:none;stroke:red;stroke-width:1px;stroke-linecap:butt;stroke-linejoin:miter;stroke-opacity:1" d="M 463.797,671.828 506.382,673.809 z" id="boundary" inkscape:connector-curvature="0" />
	<path style="fill:none;stroke:red;stroke-width:1px;stroke-linecap:butt;stroke-linejoin:miter;stroke-opacity:1" d="M 542.616,646.562 566.023,608.19 z" id="boundary" inkscape:connector-curvature="0" />
	<path style="fill:none;stroke:red;stroke-width:1px;stroke-linecap:butt;stroke-linejoin:miter;stroke-opacity:1" d="M 566.023,608.19 620.892,582.718 z" id="boundary" inkscape:connector-curvature="0" />
	<path style="fill:none;stroke:red;stroke-width:1px;stroke-linecap:butt;stroke-linejoin:miter;stroke-opacity:1" d="M 506.382,673.809 527.286,673.2 z" id="boundary" inkscape:connector-curvature="0" />
	<path style="fill:none;stroke:red;stroke-width:1px;stroke-linecap:butt;stroke-linejoin:miter;stroke-opacity:1" d="M 527.286,673.2 542.616,646.562 z" id="boundary" inkscape:connector-curvature="0" />
	<path style="fill:none;stroke:red;stroke-width:1px;stroke-linecap:butt;stroke-linejoin:miter;stroke-opacity:1" d="M 583.86,435.723 569.817,377.824 z" id="boundary" inkscape:connector-curvature="0" />
	<path style="fill:none;stroke:red;stroke-width:1px;stroke-linecap:butt;stroke-linejoin:miter;stroke-opacity:1" d="M 570.584,338.696 580.664,281.31 z" id="boundary" inkscape:connector-curvature="0" />
	<path style="fill:none;stroke:red;stroke-width:1px;stroke-linecap:butt;stroke-linejoin:miter;stroke-opacity:1" d="M 577.709,247.363 586.114,223.301 z" id="boundary" inkscape:connector-curvature="0" />
	<path style="fill:none;stroke:red;stroke-width:1px;stroke-linecap:butt;stroke-linejoin:miter;stroke-opacity:1" d="M 583.86,435.723 598.604,470.15 z" id="boundary" inkscape:connector-curvature="0" />
	<path style="fill:none;stroke:red;stroke-width:1px;stroke-linecap:butt;stroke-linejoin:miter;stroke-opacity:1" d="M 610.572,201.612 586.114,223.301 z" id="boundary" inkscape:connector-curvature="0" />
	<path style="fill:none;stroke:red;stroke-width:1px;stroke-linecap:butt;stroke-linejoin:miter;stroke-opacity:1" d="M 577.709,247.363 580.664,281.31 z" id="boundary" inkscape:connector-curvature="0" />
	<path style="fill:none;stroke:red;stroke-width:1px;stroke-linecap:butt;stroke-linejoin:miter;stroke-opacity:1" d="M 656.257,56.6225 626.763,26.7704 z" id="boundary" inkscape:connector-curvature="0" />
	<path style="fill:none;stroke:red;stroke-width:1px;stroke-linecap:butt;stroke-linejoin:miter;stroke-opacity:1" d="M 626.763,26.7704 580.434,24.4843 z" id="boundary" inkscape:connector-curvature="0" />
	<path style="fill:none;stroke:red;stroke-width:1px;stroke-linecap:butt;stroke-linejoin:miter;stroke-opacity:1" d="M 558.756,34.9007 580.434,24.4843 z" id="boundary" inkscape:connector-curvature="0" />
	<path style="fill:none;stroke:red;stroke-width:1px;stroke-linecap:butt;stroke-linejoin:miter;stroke-opacity:1" d="M 620.892,582.718 652.111,566.461 z" id="boundary" inkscape:connector-curvature="0" />
	<path style="fill:none;stroke:red;stroke-width:1px;stroke-linecap:butt;stroke-linejoin:miter;stroke-opacity:1" d="M 652.111,566.461 662.186,578.339 z" id="boundary" inkscape:connector-curvature="0" />
	<path style="fill:none;stroke:red;stroke-width:1px;stroke-linecap:butt;stroke-linejoin:miter;stroke-opacity:1" d="M 610.572,201.612 660.944,191.669 z" id="boundary" inkscape:connector-curvature="0" />
	<path style="fill:none;stroke:red;stroke-width:1px;stroke-linecap:butt;stroke-linejoin:miter;stroke-opacity:1" d="M 662.186,578.339 705.817,587.38 z" id="boundary" inkscape:connector-curvature="0" />
	<path style="fill:none;stroke:red;stroke-width:1px;stroke-linecap:butt;stroke-linejoin:miter;stroke-opacity:1" d="M 598.604,470.15 648.363,460.661 z" id="boundary" inkscape:connector-curvature="0" />
	<path style="fill:none;stroke:red;stroke-width:1px;stroke-linecap:butt;stroke-linejoin:miter;stroke-opacity:1" d="M 707.965,206.419 660.944,191.669 z" id="boundary" inkscape:connector-curvature="0" />
	<path style="fill:none;stroke:red;stroke-width:1px;stroke-linecap:butt;stroke-linejoin:miter;stroke-opacity:1" d="M 648.363,460.661 677.229,431.583 z" id="boundary" inkscape:connector-curvature="0" />
	<path style="fill:none;stroke:red;stroke-width:1px;stroke-linecap:butt;stroke-linejoin:miter;stroke-opacity:1" d="M 656.257,56.6225 674.408,57.5875 z" id="boundary" inkscape:connector-curvature="0" />
	<path style="fill:none;stroke:red;stroke-width:1px;stroke-linecap:butt;stroke-linejoin:miter;stroke-opacity:1" d="M 677.229,431.583 724.918,391.465 z" id="boundary" inkscape:connector-curvature="0" />
	<path style="fill:none;stroke:red;stroke-width:1px;stroke-linecap:butt;stroke-linejoin:miter;stroke-opacity:1" d="M 723.811,87.774 674.408,57.5875 z" id="boundary" inkscape:connector-curvature="0" />
	<path style="fill:none;stroke:red;stroke-width:1px;stroke-linecap:butt;stroke-linejoin:miter;stroke-opacity:1" d="M 799.609,155.241 821.473,166.588 z" id="boundary" inkscape:connector-curvature="0" />
	<path style="fill:none;stroke:red;stroke-width:1px;stroke-linecap:butt;stroke-linejoin:miter;stroke-opacity:1" d="M 752.953,123.376 723.811,87.774 z" id="boundary" inkscape:connector-curvature="0" />
	<path style="fill:none;stroke:red;stroke-width:1px;stroke-linecap:butt;stroke-linejoin:miter;stroke-opacity:1" d="M 799.609,155.241 776.861,122.223 z" id="boundary" inkscape:connector-curvature="0" />
	<path style="fill:none;stroke:red;stroke-width:1px;stroke-linecap:butt;stroke-linejoin:miter;stroke-opacity:1" d="M 776.861,122.223 752.953,123.376 z" id="boundary" inkscape:connector-curvature="0" />
	<path style="fill:none;stroke:red;stroke-width:1px;stroke-linecap:butt;stroke-linejoin:miter;stroke-opacity:1" d="M 707.965,206.419 726.267,205.366 z" id="boundary" inkscape:connector-curvature="0" />
	<path style="fill:none;stroke:red;stroke-width:1px;stroke-linecap:butt;stroke-linejoin:miter;stroke-opacity:1" d="M 726.267,205.366 738.814,262.65 z" id="boundary" inkscape:connector-curvature="0" />
	<path style="fill:none;stroke:red;stroke-width:1px;stroke-linecap:butt;stroke-linejoin:miter;stroke-opacity:1" d="M 705.817,587.38 734.175,571.54 z" id="boundary" inkscape:connector-curvature="0" />
	<path style="fill:none;stroke:red;stroke-width:1px;stroke-linecap:butt;stroke-linejoin:miter;stroke-opacity:1" d="M 743.478,296.448 738.814,262.65 z" id="boundary" inkscape:connector-curvature="0" />
	<path style="fill:none;stroke:red;stroke-width:1px;stroke-linecap:butt;stroke-linejoin:miter;stroke-opacity:1" d="M 742.284,375.66 752.148,358.413 z" id="boundary" inkscape:connector-curvature="0" />
	<path style="fill:none;stroke:red;stroke-width:1px;stroke-linecap:butt;stroke-linejoin:miter;stroke-opacity:1" d="M 752.148,358.413 743.478,296.448 z" id="boundary" inkscape:connector-curvature="0" />
	<path style="fill:none;stroke:red;stroke-width:1px;stroke-linecap:butt;stroke-linejoin:miter;stroke-opacity:1" d="M 782.082,536.735 734.175,571.54 z" id="boundary" inkscape:connector-curvature="0" />
	<path style="fill:none;stroke:red;stroke-width:1px;stroke-linecap:butt;stroke-linejoin:miter;stroke-opacity:1" d="M 800.2,480.807 824.657,443.803 z" id="boundary" inkscape:connector-curvature="0" />
	<path style="fill:none;stroke:red;stroke-width:1px;stroke-linecap:butt;stroke-linejoin:miter;stroke-opacity:1" d="M 800.2,480.807 782.082,536.735 z" id="boundary" inkscape:connector-curvature="0" />
	<path style="fill:none;stroke:red;stroke-width:1px;stroke-linecap:butt;stroke-linejoin:miter;stroke-opacity:1" d="M 974.118,201.351 954.084,222.107 z" id="boundary" inkscape:connector-curvature="0" />
	<path style="fill:none;stroke:red;stroke-width:1px;stroke-linecap:butt;stroke-linejoin:miter;stroke-opacity:1" d="M 842.308,397.8 824.657,443.803 z" id="boundary" inkscape:connector-curvature="0" />
	<path style="fill:none;stroke:red;stroke-width:1px;stroke-linecap:butt;stroke-linejoin:miter;stroke-opacity:1" d="M 821.473,166.588 838.568,155.283 z" id="boundary" inkscape:connector-curvature="0" />
	<path style="fill:none;stroke:red;stroke-width:1px;stroke-linecap:butt;stroke-linejoin:miter;stroke-opacity:1" d="M 856.566,360.51 842.308,397.8 z" id="boundary" inkscape:connector-curvature="0" />
	<path style="fill:none;stroke:red;stroke-width:1px;stroke-linecap:butt;stroke-linejoin:miter;stroke-opacity:1" d="M 861.881,323.784 893.5,307.937 z" id="boundary" inkscape:connector-curvature="0" />
	<path style="fill:none;stroke:red;stroke-width:1px;stroke-linecap:butt;stroke-linejoin:miter;stroke-opacity:1" d="M 861.881,323.784 856.566,360.51 z" id="boundary" inkscape:connector-curvature="0" />
	<path style="fill:none;stroke:red;stroke-width:1px;stroke-linecap:butt;stroke-linejoin:miter;stroke-opacity:1" d="M 897.826,80.1945 866.887,98.2489 z" id="boundary" inkscape:connector-curvature="0" />
	<path style="fill:none;stroke:red;stroke-width:1px;stroke-linecap:butt;stroke-linejoin:miter;stroke-opacity:1" d="M 838.568,155.283 866.887,98.2489 z" id="boundary" inkscape:connector-curvature="0" />
	<path style="fill:none;stroke:red;stroke-width:1px;stroke-linecap:butt;stroke-linejoin:miter;stroke-opacity:1" d="M 900.088,261.402 893.5,307.937 z" id="boundary" inkscape:connector-curvature="0" />
	<path style="fill:none;stroke:red;stroke-width:1px;stroke-linecap:butt;stroke-linejoin:miter;stroke-opacity:1" d="M 980.234,119.238 975.345,74.6486 z" id="boundary" inkscape:connector-curvature="0" />
	<path style="fill:none;stroke:red;stroke-width:1px;stroke-linecap:butt;stroke-linejoin:miter;stroke-opacity:1" d="M 975.345,74.6486 930.739,60.3417 z" id="boundary" inkscape:connector-curvature="0" />
	<path style="fill:none;stroke:red;stroke-width:1px;stroke-linecap:butt;stroke-linejoin:miter;stroke-opacity:1" d="M 900.088,261.402 918.466,236.155 z" id="boundary" inkscape:connector-curvature="0" />
	<path style="fill:none;stroke:red;stroke-width:1px;stroke-linecap:butt;stroke-linejoin:miter;stroke-opacity:1" d="M 918.466,236.155 954.084,222.107 z" id="boundary" inkscape:connector-curvature="0" />
	<path style="fill:none;stroke:red;stroke-width:1px;stroke-linecap:butt;stroke-linejoin:miter;stroke-opacity:1" d="M 897.826,80.1945 930.739,60.3417 z" id="boundary" inkscape:connector-curvature="0" />
	<path style="fill:none;stroke:red;stroke-width:1px;stroke-linecap:butt;stroke-linejoin:miter;stroke-opacity:1" d="M 974.118,201.351 996,167.665 z" id="boundary" inkscape:connector-curvature="0" />
	<path style="fill:none;stroke:red;stroke-width:1px;stroke-linecap:butt;stroke-linejoin:miter;stroke-opacity:1" d="M 980.234,119.238 996,167.665 z" id="boundary" inkscape:connector-curvature="0" />
	<path style="fill:none;stroke:red;stroke-width:1px;stroke-linecap:butt;stroke-linejoin:miter;stroke-opacity:1" d="M 410.113,191.876 420.73,219.88 z" id="boundary" inkscape:connector-curvature="0" />
	<path style="fill:none;stroke:red;stroke-width:1px;stroke-linecap:butt;stroke-linejoin:miter;stroke-opacity:1" d="M 724.918,391.465 742.284,375.66 z" id="boundary" inkscape:connector-curvature="0" />
	<circle cx="4" cy="142.249" r="4" fill="#0" id="circle0"/>
	<circle cx="13.7784" cy="92.3563" r="4" fill="#0" id="circle1"/>
	<circle cx="21.5983" cy="201.59" r="4" fill="#0" id="circle2"/>
	<circle cx="44.6153" cy="75.747" r="4" fill="#0" id="circle3"/>
	<circle cx="58.4551" cy="236.189" r="4" fill="#0" id="circle4"/>
	<circle cx="79.4275" cy="78.4852" r="4" fill="#0" id="circle5"/>
	<circle cx="94.987" cy="258.799" r="4" fill="#0" id="circle6"/>
	<circle cx="103.48" cy="78.7093" r="4" fill="#0" id="circle7"/>
	<circle cx="123.909" cy="302.518" r="4" fill="#0" id="circle8"/>
	<circle cx="152.602" cy="124.973" r="4" fill="#0" id="circle9"/>
	<circle cx="162.834" cy="351.749" r="4" fill="#0" id="circle10"/>
	<circle cx="176.837" cy="392.888" r="4" fill="#0" id="circle11"/>
	<circle cx="178.786" cy="148.03" r="4" fill="#0" id="circle12"/>
	<circle cx="179.428" cy="446.363" r="4" fill="#0" id="circle13"/>
	<circle cx="173.149" cy="486.649" r="4" fill="#0" id="circle14"/>
	<circle cx="188.778" cy="165.22" r="4" fill="#0" id="circle15"/>
	<circle cx="214.55" cy="153.849" r="4" fill="#0" id="circle16"/>
	<circle cx="213.955" cy="526.855" r="4" fill="#0" id="circle17"/>
	<circle cx="247.155" cy="112.961" r="4" fill="#0" id="circle18"/>
	<circle cx="256.784" cy="553.13" r="4" fill="#0" id="circle19"/>
	<circle cx="263.255" cy="293.792" r="4" fill="#0" id="circle20"/>
	<circle cx="273.516" cy="252.737" r="4" fill="#0" id="circle21"/>
	<circle cx="277.113" cy="110.444" r="4" fill="#0" id="circle22"/>
	<circle cx="275.85" cy="351.44" r="4" fill="#0" id="circle23"/>
	<circle cx="298.301" cy="561.52" r="4" fill="#0" id="circle24"/>
	<circle cx="296.252" cy="88.0018" r="4" fill="#0" id="circle25"/>
	<circle cx="304.224" cy="228.083" r="4" fill="#0" id="circle26"/>
	<circle cx="300.795" cy="395.437" r="4" fill="#0" id="circle27"/>
	<circle cx="329.805" cy="592.773" r="4" fill="#0" id="circle28"/>
	<circle cx="327.645" cy="80.2383" r="4" fill="#0" id="circle29"/>
	<circle cx="336.505" cy="396.635" r="4" fill="#0" id="circle30"/>
	<circle cx="327.486" cy="173.729" r="4" fill="#0" id="circle31"/>
	<circle cx="353.926" cy="436.204" r="4" fill="#0" id="circle32"/>
	<circle cx="357.769" cy="568.774" r="4" fill="#0" id="circle33"/>
	<circle cx="367.359" cy="48.6381" r="4" fill="#0" id="circle34"/>
	<circle cx="367.708" cy="197.039" r="4" fill="#0" id="circle35"/>
	<circle cx="374.778" cy="442.545" r="4" fill="#0" id="circle36"/>
	<circle cx="377.479" cy="579.729" r="4" fill="#0" id="circle37"/>
	<circle cx="410.113" cy="191.876" r="4" fill="#0" id="circle38"/>
	<circle cx="404.534" cy="39.9271" r="4" fill="#0" id="circle39"/>
	<circle cx="406.608" cy="478.915" r="4" fill="#0" id="circle40"/>
	<circle cx="415.742" cy="591.327" r="4" fill="#0" id="circle41"/>
	<circle cx="424.146" cy="630.77" r="4" fill="#0" id="circle42"/>
	<circle cx="442.503" cy="447.62" r="4" fill="#0" id="circle43"/>
	<circle cx="442.821" cy="15.053" r="4" fill="#0" id="circle44"/>
	<circle cx="439.205" cy="236.462" r="4" fill="#0" id="circle45"/>
	<circle cx="454.394" cy="309.152" r="4" fill="#0" id="circle46"/>
	<circle cx="459.996" cy="263.836" r="4" fill="#0" id="circle47"/>
	<circle cx="460.978" cy="364.272" r="4" fill="#0" id="circle48"/>
	<circle cx="458.175" cy="397.041" r="4" fill="#0" id="circle49"/>
	<circle cx="463.797" cy="671.828" r="4" fill="#0" id="circle50"/>
	<circle cx="467.104" cy="4" r="4" fill="#0" id="circle51"/>
	<circle cx="506.382" cy="673.809" r="4" fill="#0" id="circle52"/>
	<circle cx="507.468" cy="12.3266" r="4" fill="#0" id="circle53"/>
	<circle cx="527.286" cy="673.2" r="4" fill="#0" id="circle54"/>
	<circle cx="542.616" cy="646.562" r="4" fill="#0" id="circle55"/>
	<circle cx="558.756" cy="34.9007" r="4" fill="#0" id="circle56"/>
	<circle cx="570.584" cy="338.696" r="4" fill="#0" id="circle57"/>
	<circle cx="569.817" cy="377.824" r="4" fill="#0" id="circle58"/>
	<circle cx="580.664" cy="281.31" r="4" fill="#0" id="circle59"/>
	<circle cx="583.86" cy="435.723" r="4" fill="#0" id="circle60"/>
	<circle cx="577.709" cy="247.363" r="4" fill="#0" id="circle61"/>
	<circle cx="566.023" cy="608.19" r="4" fill="#0" id="circle62"/>
	<circle cx="580.434" cy="24.4843" r="4" fill="#0" id="circle63"/>
	<circle cx="586.114" cy="223.301" r="4" fill="#0" id="circle64"/>
	<circle cx="598.604" cy="470.15" r="4" fill="#0" id="circle65"/>
	<circle cx="610.572" cy="201.612" r="4" fill="#0" id="circle66"/>
	<circle cx="620.892" cy="582.718" r="4" fill="#0" id="circle67"/>
	<circle cx="626.763" cy="26.7704" r="4" fill="#0" id="circle68"/>
	<circle cx="648.363" cy="460.661" r="4" fill="#0" id="circle69"/>
	<circle cx="652.111" cy="566.461" r="4" fill="#0" id="circle70"/>
	<circle cx="656.257" cy="56.6225" r="4" fill="#0" id="circle71"/>
	<circle cx="660.944" cy="191.669" r="4" fill="#0" id="circle72"/>
	<circle cx="662.186" cy="578.339" r="4" fill="#0" id="circle73"/>
	<circle cx="674.408" cy="57.5875" r="4" fill="#0" id="circle74"/>
	<circle cx="677.229" cy="431.583" r="4" fill="#0" id="circle75"/>
	<circle cx="707.965" cy="206.419" r="4" fill="#0" id="circle76"/>
	<circle cx="705.817" cy="587.38" r="4" fill="#0" id="circle77"/>
	<circle cx="723.811" cy="87.774" r="4" fill="#0" id="circle78"/>
	<circle cx="724.918" cy="391.465" r="4" fill="#0" id="circle79"/>
	<circle cx="726.267" cy="205.366" r="4" fill="#0" id="circle80"/>
	<circle cx="752.953" cy="123.376" r="4" fill="#0" id="circle81"/>
	<circle cx="734.175" cy="571.54" r="4" fill="#0" id="circle82"/>
	<circle cx="738.814" cy="262.65" r="4" fill="#0" id="circle83"/>
	<circle cx="743.478" cy="296.448" r="4" fill="#0" id="circle84"/>
	<circle cx="752.148" cy="358.413" r="4" fill="#0" id="circle85"/>
	<circle cx="776.861" cy="122.223" r="4" fill="#0" id="circle86"/>
	<circle cx="782.082" cy="536.735" r="4" fill="#0" id="circle87"/>
	<circle cx="799.609" cy="155.241" r="4" fill="#0" id="circle88"/>
	<circle cx="800.2" cy="480.807" r="4" fill="#0" id="circle89"/>
	<circle cx="821.473" cy="166.588" r="4" fill="#0" id="circle90"/>
	<circle cx="824.657" cy="443.803" r="4" fill="#0" id="circle91"/>
	<circle cx="838.568" cy="155.283" r="4" fill="#0" id="circle92"/>
	<circle cx="842.308" cy="397.8" r="4" fill="#0" id="circle93"/>
	<circle cx="856.566" cy="360.51" r="4" fill="#0" id="circle94"/>
	<circle cx="861.881" cy="323.784" r="4" fill="#0" id="circle95"/>
	<circle cx="866.887" cy="98.2489" r="4" fill="#0" id="circle96"/>
	<circle cx="893.5" cy="307.937" r="4" fill="#0" id="circle97"/>
	<circle cx="897.826" cy="80.1945" r="4" fill="#0" id="circle98"/>
	<circle cx="900.088" cy="261.402" r="4" fill="#0" id="circle99"/>
	<circle cx="918.466" cy="236.155" r="4" fill="#0" id="circle100"/>
	<circle cx="930.739" cy="60.3417" r="4" fill="#0" id="circle101"/>
	<circle cx="954.084" cy="222.107" r="4" fill="#0" id="circle102"/>
	<circle cx="975.345" cy="74.6486" r="4" fill="#0" id="circle103"/>
	<circle cx="974.118" cy="201.351" r="4" fill="#0" id="circle104"/>
	<circle cx="980.234" cy="119.238" r="4" fill="#0" id="circle105"/>
	<circle cx="996" cy="167.665" r="4" fill="#0" id="circle106"/>
	<circle cx="420.73" cy="219.88" r="4" fill="#0" id="circle107"/>
	<circle cx="742.284" cy="375.66" r="4" fill="#0" id="circle108"/>
	</g>
</svg>