<?xml version="1.0" encoding="UTF-8" standalone="no"?>
<!-- Created with CurveBenchmark -->
<svg
	xmlns:dc="http://purl.org/dc/elements/1.1/"
	xmlns:cc="http://creativecommons.org/ns#"
	xmlns:rdf="http://www.w3.org/1999/02/22-rdf-syntax-ns#"
	xmlns:svg="http://www.w3.org/2000/svg"
	xmlns="http://www.w3.org/2000/svg"
	xmlns:sodipodi="http://sodipodi.sourceforge.net/DTD/sodipodi-0.dtd"
	xmlns:inkscape="http://www.inkscape.org/namespaces/inkscape"
	width="1000"
	height="1000"
	id="svg2"
	version="1.1"
	sodipodi:docname="noisy-0.01/peel-mc16.txt">
<defs
	id="defs4" />
<metadata
	id="metadata7">
	<rdf:RDF>
		<cc:Work
			rdf:about="">
			<dc:format>image/svg+xml</dc:format>
			<dc:type
				rdf:resource="http://purl.org/dc/dcmitype/StillImage" />
			<dc:title></dc:title>
		</cc:Work>
	</rdf:RDF>
</metadata>
<g
	inkscape:label="Layer 1"
	inkscape:groupmode="layer"
	id="layer1">
	<path style="fill:none;stroke:red;stroke-width:1px;stroke-linecap:butt;stroke-linejoin:miter;stroke-opacity:1" d="M 413.453,260.074 451.554,258.369 z" id="boundary" inkscape:connector-curvature="0" />
	<path style="fill:none;stroke:red;stroke-width:1px;stroke-linecap:butt;stroke-linejoin:miter;stroke-opacity:1" d="M 239.034,391.852 253.172,379.966 z" id="boundary" inkscape:connector-curvature="0" />
	<path style="fill:none;stroke:red;stroke-width:1px;stroke-linecap:butt;stroke-linejoin:miter;stroke-opacity:1" d="M 145.688,184.452 148.416,221.207 z" id="boundary" inkscape:connector-curvature="0" />
	<path style="fill:none;stroke:red;stroke-width:1px;stroke-linecap:butt;stroke-linejoin:miter;stroke-opacity:1" d="M 145.008,365.418 143.045,384.095 z" id="boundary" inkscape:connector-curvature="0" />
	<path style="fill:none;stroke:red;stroke-width:1px;stroke-linecap:butt;stroke-linejoin:miter;stroke-opacity:1" d="M 146.931,100.042 170.849,80.6679 z" id="boundary" inkscape:connector-curvature="0" />
	<path style="fill:none;stroke:red;stroke-width:1px;stroke-linecap:butt;stroke-linejoin:miter;stroke-opacity:1" d="M 309.172,320.923 330.782,301.26 z" id="boundary" inkscape:connector-curvature="0" />
	<path style="fill:none;stroke:red;stroke-width:1px;stroke-linecap:butt;stroke-linejoin:miter;stroke-opacity:1" d="M 330.782,301.26 359.697,287.942 z" id="boundary" inkscape:connector-curvature="0" />
	<path style="fill:none;stroke:red;stroke-width:1px;stroke-linecap:butt;stroke-linejoin:miter;stroke-opacity:1" d="M 212.443,117.418 187.68,137.09 z" id="boundary" inkscape:connector-curvature="0" />
	<path style="fill:none;stroke:red;stroke-width:1px;stroke-linecap:butt;stroke-linejoin:miter;stroke-opacity:1" d="M 359.697,287.942 375.474,264.074 z" id="boundary" inkscape:connector-curvature="0" />
	<path style="fill:none;stroke:red;stroke-width:1px;stroke-linecap:butt;stroke-linejoin:miter;stroke-opacity:1" d="M 187.68,137.09 166.398,146.353 z" id="boundary" inkscape:connector-curvature="0" />
	<path style="fill:none;stroke:red;stroke-width:1px;stroke-linecap:butt;stroke-linejoin:miter;stroke-opacity:1" d="M 375.474,264.074 413.453,260.074 z" id="boundary" inkscape:connector-curvature="0" />
	<path style="fill:none;stroke:red;stroke-width:1px;stroke-linecap:butt;stroke-linejoin:miter;stroke-opacity:1" d="M 252.738,125.674 236.546,119.655 z" id="boundary" inkscape:connector-curvature="0" />
	<path style="fill:none;stroke:red;stroke-width:1px;stroke-linecap:butt;stroke-linejoin:miter;stroke-opacity:1" d="M 287.632,342.135 309.172,320.923 z" id="boundary" inkscape:connector-curvature="0" />
	<path style="fill:none;stroke:red;stroke-width:1px;stroke-linecap:butt;stroke-linejoin:miter;stroke-opacity:1" d="M 256.574,143.979 257.039,170.775 z" id="boundary" inkscape:connector-curvature="0" />
	<path style="fill:none;stroke:red;stroke-width:1px;stroke-linecap:butt;stroke-linejoin:miter;stroke-opacity:1" d="M 223.38,432.208 235.18,463.355 z" id="boundary" inkscape:connector-curvature="0" />
	<path style="fill:none;stroke:red;stroke-width:1px;stroke-linecap:butt;stroke-linejoin:miter;stroke-opacity:1" d="M 235.18,463.355 217.792,479.842 z" id="boundary" inkscape:connector-curvature="0" />
	<path style="fill:none;stroke:red;stroke-width:1px;stroke-linecap:butt;stroke-linejoin:miter;stroke-opacity:1" d="M 217.792,479.842 210.212,522.527 z" id="boundary" inkscape:connector-curvature="0" />
	<path style="fill:none;stroke:red;stroke-width:1px;stroke-linecap:butt;stroke-linejoin:miter;stroke-opacity:1" d="M 210.212,522.527 210.942,559.844 z" id="boundary" inkscape:connector-curvature="0" />
	<path style="fill:none;stroke:red;stroke-width:1px;stroke-linecap:butt;stroke-linejoin:miter;stroke-opacity:1" d="M 207.587,603.474 211.931,647.606 z" id="boundary" inkscape:connector-curvature="0" />
	<path style="fill:none;stroke:red;stroke-width:1px;stroke-linecap:butt;stroke-linejoin:miter;stroke-opacity:1" d="M 207.587,603.474 187.336,588.604 z" id="boundary" inkscape:connector-curvature="0" />
	<path style="fill:none;stroke:red;stroke-width:1px;stroke-linecap:butt;stroke-linejoin:miter;stroke-opacity:1" d="M 210.942,559.844 187.336,588.604 z" id="boundary" inkscape:connector-curvature="0" />
	<path style="fill:none;stroke:red;stroke-width:1px;stroke-linecap:butt;stroke-linejoin:miter;stroke-opacity:1" d="M 211.931,647.606 226.533,668.438 z" id="boundary" inkscape:connector-curvature="0" />
	<path style="fill:none;stroke:red;stroke-width:1px;stroke-linecap:butt;stroke-linejoin:miter;stroke-opacity:1" d="M 261.761,705.213 273.028,729.933 z" id="boundary" inkscape:connector-curvature="0" />
	<path style="fill:none;stroke:red;stroke-width:1px;stroke-linecap:butt;stroke-linejoin:miter;stroke-opacity:1" d="M 226.533,668.438 242.196,680.938 z" id="boundary" inkscape:connector-curvature="0" />
	<path style="fill:none;stroke:red;stroke-width:1px;stroke-linecap:butt;stroke-linejoin:miter;stroke-opacity:1" d="M 18.0522,386.38 18.8227,359.096 z" id="boundary" inkscape:connector-curvature="0" />
	<path style="fill:none;stroke:red;stroke-width:1px;stroke-linecap:butt;stroke-linejoin:miter;stroke-opacity:1" d="M 242.196,680.938 261.761,705.213 z" id="boundary" inkscape:connector-curvature="0" />
	<path style="fill:none;stroke:red;stroke-width:1px;stroke-linecap:butt;stroke-linejoin:miter;stroke-opacity:1" d="M 273.028,729.933 295.269,741.909 z" id="boundary" inkscape:connector-curvature="0" />
	<path style="fill:none;stroke:red;stroke-width:1px;stroke-linecap:butt;stroke-linejoin:miter;stroke-opacity:1" d="M 321.81,775.245 363.009,788.525 z" id="boundary" inkscape:connector-curvature="0" />
	<path style="fill:none;stroke:red;stroke-width:1px;stroke-linecap:butt;stroke-linejoin:miter;stroke-opacity:1" d="M 363.009,788.525 377.649,827.251 z" id="boundary" inkscape:connector-curvature="0" />
	<path style="fill:none;stroke:red;stroke-width:1px;stroke-linecap:butt;stroke-linejoin:miter;stroke-opacity:1" d="M 295.269,741.909 316.074,775.355 z" id="boundary" inkscape:connector-curvature="0" />
	<path style="fill:none;stroke:red;stroke-width:1px;stroke-linecap:butt;stroke-linejoin:miter;stroke-opacity:1" d="M 316.074,775.355 321.81,775.245 z" id="boundary" inkscape:connector-curvature="0" />
	<path style="fill:none;stroke:red;stroke-width:1px;stroke-linecap:butt;stroke-linejoin:miter;stroke-opacity:1" d="M 51.4519,731.476 54.8467,759.378 z" id="boundary" inkscape:connector-curvature="0" />
	<path style="fill:none;stroke:red;stroke-width:1px;stroke-linecap:butt;stroke-linejoin:miter;stroke-opacity:1" d="M 421.819,838.917 475.988,853.725 z" id="boundary" inkscape:connector-curvature="0" />
	<path style="fill:none;stroke:red;stroke-width:1px;stroke-linecap:butt;stroke-linejoin:miter;stroke-opacity:1" d="M 377.649,827.251 411.395,823.328 z" id="boundary" inkscape:connector-curvature="0" />
	<path style="fill:none;stroke:red;stroke-width:1px;stroke-linecap:butt;stroke-linejoin:miter;stroke-opacity:1" d="M 411.395,823.328 421.819,838.917 z" id="boundary" inkscape:connector-curvature="0" />
	<path style="fill:none;stroke:red;stroke-width:1px;stroke-linecap:butt;stroke-linejoin:miter;stroke-opacity:1" d="M 528.444,831.158 575.088,833.733 z" id="boundary" inkscape:connector-curvature="0" />
	<path style="fill:none;stroke:red;stroke-width:1px;stroke-linecap:butt;stroke-linejoin:miter;stroke-opacity:1" d="M 475.988,853.725 494.681,854.906 z" id="boundary" inkscape:connector-curvature="0" />
	<path style="fill:none;stroke:red;stroke-width:1px;stroke-linecap:butt;stroke-linejoin:miter;stroke-opacity:1" d="M 494.681,854.906 520.621,830.257 z" id="boundary" inkscape:connector-curvature="0" />
	<path style="fill:none;stroke:red;stroke-width:1px;stroke-linecap:butt;stroke-linejoin:miter;stroke-opacity:1" d="M 575.088,833.733 601.522,818.342 z" id="boundary" inkscape:connector-curvature="0" />
	<path style="fill:none;stroke:red;stroke-width:1px;stroke-linecap:butt;stroke-linejoin:miter;stroke-opacity:1" d="M 520.621,830.257 528.444,831.158 z" id="boundary" inkscape:connector-curvature="0" />
	<path style="fill:none;stroke:red;stroke-width:1px;stroke-linecap:butt;stroke-linejoin:miter;stroke-opacity:1" d="M 601.522,818.342 622.473,811.453 z" id="boundary" inkscape:connector-curvature="0" />
	<path style="fill:none;stroke:red;stroke-width:1px;stroke-linecap:butt;stroke-linejoin:miter;stroke-opacity:1" d="M 622.473,811.453 648.987,817.944 z" id="boundary" inkscape:connector-curvature="0" />
	<path style="fill:none;stroke:red;stroke-width:1px;stroke-linecap:butt;stroke-linejoin:miter;stroke-opacity:1" d="M 678.57,772.547 686.331,760.645 z" id="boundary" inkscape:connector-curvature="0" />
	<path style="fill:none;stroke:red;stroke-width:1px;stroke-linecap:butt;stroke-linejoin:miter;stroke-opacity:1" d="M 686.331,760.645 726.221,743.713 z" id="boundary" inkscape:connector-curvature="0" />
	<path style="fill:none;stroke:red;stroke-width:1px;stroke-linecap:butt;stroke-linejoin:miter;stroke-opacity:1" d="M 648.987,817.944 678.57,772.547 z" id="boundary" inkscape:connector-curvature="0" />
	<path style="fill:none;stroke:red;stroke-width:1px;stroke-linecap:butt;stroke-linejoin:miter;stroke-opacity:1" d="M 914.23,790.491 910.342,777.931 z" id="boundary" inkscape:connector-curvature="0" />
	<path style="fill:none;stroke:red;stroke-width:1px;stroke-linecap:butt;stroke-linejoin:miter;stroke-opacity:1" d="M 915.599,671.685 913.819,655.913 z" id="boundary" inkscape:connector-curvature="0" />
	<path style="fill:none;stroke:red;stroke-width:1px;stroke-linecap:butt;stroke-linejoin:miter;stroke-opacity:1" d="M 497.832,258.594 465.05,255.836 z" id="boundary" inkscape:connector-curvature="0" />
	<path style="fill:none;stroke:red;stroke-width:1px;stroke-linecap:butt;stroke-linejoin:miter;stroke-opacity:1" d="M 465.05,255.836 451.554,258.369 z" id="boundary" inkscape:connector-curvature="0" />
	<path style="fill:none;stroke:red;stroke-width:1px;stroke-linecap:butt;stroke-linejoin:miter;stroke-opacity:1" d="M 272.653,39.8487 297.439,42.5459 z" id="boundary" inkscape:connector-curvature="0" />
	<path style="fill:none;stroke:red;stroke-width:1px;stroke-linecap:butt;stroke-linejoin:miter;stroke-opacity:1" d="M 236.546,119.655 212.443,117.418 z" id="boundary" inkscape:connector-curvature="0" />
	<path style="fill:none;stroke:red;stroke-width:1px;stroke-linecap:butt;stroke-linejoin:miter;stroke-opacity:1" d="M 497.832,258.594 533.944,241.549 z" id="boundary" inkscape:connector-curvature="0" />
	<path style="fill:none;stroke:red;stroke-width:1px;stroke-linecap:butt;stroke-linejoin:miter;stroke-opacity:1" d="M 533.944,241.549 550.407,261.181 z" id="boundary" inkscape:connector-curvature="0" />
	<path style="fill:none;stroke:red;stroke-width:1px;stroke-linecap:butt;stroke-linejoin:miter;stroke-opacity:1" d="M 628.045,283.548 619.826,273.834 z" id="boundary" inkscape:connector-curvature="0" />
	<path style="fill:none;stroke:red;stroke-width:1px;stroke-linecap:butt;stroke-linejoin:miter;stroke-opacity:1" d="M 550.407,261.181 596.092,255.291 z" id="boundary" inkscape:connector-curvature="0" />
	<path style="fill:none;stroke:red;stroke-width:1px;stroke-linecap:butt;stroke-linejoin:miter;stroke-opacity:1" d="M 596.092,255.291 619.826,273.834 z" id="boundary" inkscape:connector-curvature="0" />
	<path style="fill:none;stroke:red;stroke-width:1px;stroke-linecap:butt;stroke-linejoin:miter;stroke-opacity:1" d="M 497.232,4 541.238,15.3482 z" id="boundary" inkscape:connector-curvature="0" />
	<path style="fill:none;stroke:red;stroke-width:1px;stroke-linecap:butt;stroke-linejoin:miter;stroke-opacity:1" d="M 497.232,4 478.595,19.0723 z" id="boundary" inkscape:connector-curvature="0" />
	<path style="fill:none;stroke:red;stroke-width:1px;stroke-linecap:butt;stroke-linejoin:miter;stroke-opacity:1" d="M 738.626,340.985 734.479,322.125 z" id="boundary" inkscape:connector-curvature="0" />
	<path style="fill:none;stroke:red;stroke-width:1px;stroke-linecap:butt;stroke-linejoin:miter;stroke-opacity:1" d="M 734.479,322.125 709.017,327.943 z" id="boundary" inkscape:connector-curvature="0" />
	<path style="fill:none;stroke:red;stroke-width:1px;stroke-linecap:butt;stroke-linejoin:miter;stroke-opacity:1" d="M 657.326,290.317 628.045,283.548 z" id="boundary" inkscape:connector-curvature="0" />
	<path style="fill:none;stroke:red;stroke-width:1px;stroke-linecap:butt;stroke-linejoin:miter;stroke-opacity:1" d="M 709.017,327.943 721.061,356.814 z" id="boundary" inkscape:connector-curvature="0" />
	<path style="fill:none;stroke:red;stroke-width:1px;stroke-linecap:butt;stroke-linejoin:miter;stroke-opacity:1" d="M 734.905,200.571 738.343,174.503 z" id="boundary" inkscape:connector-curvature="0" />
	<path style="fill:none;stroke:red;stroke-width:1px;stroke-linecap:butt;stroke-linejoin:miter;stroke-opacity:1" d="M 678.518,299.121 683.626,308.876 z" id="boundary" inkscape:connector-curvature="0" />
	<path style="fill:none;stroke:red;stroke-width:1px;stroke-linecap:butt;stroke-linejoin:miter;stroke-opacity:1" d="M 678.518,299.121 657.326,290.317 z" id="boundary" inkscape:connector-curvature="0" />
	<path style="fill:none;stroke:red;stroke-width:1px;stroke-linecap:butt;stroke-linejoin:miter;stroke-opacity:1" d="M 738.16,270.751 731.737,236.387 z" id="boundary" inkscape:connector-curvature="0" />
	<path style="fill:none;stroke:red;stroke-width:1px;stroke-linecap:butt;stroke-linejoin:miter;stroke-opacity:1" d="M 754.613,377.855 755.315,414.734 z" id="boundary" inkscape:connector-curvature="0" />
	<path style="fill:none;stroke:red;stroke-width:1px;stroke-linecap:butt;stroke-linejoin:miter;stroke-opacity:1" d="M 721.061,356.814 723.188,357.139 z" id="boundary" inkscape:connector-curvature="0" />
	<path style="fill:none;stroke:red;stroke-width:1px;stroke-linecap:butt;stroke-linejoin:miter;stroke-opacity:1" d="M 754.17,281.693 738.16,270.751 z" id="boundary" inkscape:connector-curvature="0" />
	<path style="fill:none;stroke:red;stroke-width:1px;stroke-linecap:butt;stroke-linejoin:miter;stroke-opacity:1" d="M 776.06,468.653 768.826,438.812 z" id="boundary" inkscape:connector-curvature="0" />
	<path style="fill:none;stroke:red;stroke-width:1px;stroke-linecap:butt;stroke-linejoin:miter;stroke-opacity:1" d="M 768.826,438.812 755.315,414.734 z" id="boundary" inkscape:connector-curvature="0" />
	<path style="fill:none;stroke:red;stroke-width:1px;stroke-linecap:butt;stroke-linejoin:miter;stroke-opacity:1" d="M 581.857,946.431 613.76,943.841 z" id="boundary" inkscape:connector-curvature="0" />
	<path style="fill:none;stroke:red;stroke-width:1px;stroke-linecap:butt;stroke-linejoin:miter;stroke-opacity:1" d="M 613.76,943.841 654.651,953.787 z" id="boundary" inkscape:connector-curvature="0" />
	<path style="fill:none;stroke:red;stroke-width:1px;stroke-linecap:butt;stroke-linejoin:miter;stroke-opacity:1" d="M 773.677,356.745 754.613,377.855 z" id="boundary" inkscape:connector-curvature="0" />
	<path style="fill:none;stroke:red;stroke-width:1px;stroke-linecap:butt;stroke-linejoin:miter;stroke-opacity:1" d="M 773.677,356.745 755.63,347.375 z" id="boundary" inkscape:connector-curvature="0" />
	<path style="fill:none;stroke:red;stroke-width:1px;stroke-linecap:butt;stroke-linejoin:miter;stroke-opacity:1" d="M 926.776,560.285 918.443,549.954 z" id="boundary" inkscape:connector-curvature="0" />
	<path style="fill:none;stroke:red;stroke-width:1px;stroke-linecap:butt;stroke-linejoin:miter;stroke-opacity:1" d="M 726.221,743.713 739.43,732.95 z" id="boundary" inkscape:connector-curvature="0" />
	<path style="fill:none;stroke:red;stroke-width:1px;stroke-linecap:butt;stroke-linejoin:miter;stroke-opacity:1" d="M 933.893,481.807 920.412,467.995 z" id="boundary" inkscape:connector-curvature="0" />
	<path style="fill:none;stroke:red;stroke-width:1px;stroke-linecap:butt;stroke-linejoin:miter;stroke-opacity:1" d="M 739.43,732.95 758.231,709.258 z" id="boundary" inkscape:connector-curvature="0" />
	<path style="fill:none;stroke:red;stroke-width:1px;stroke-linecap:butt;stroke-linejoin:miter;stroke-opacity:1" d="M 758.231,709.258 759.964,683.118 z" id="boundary" inkscape:connector-curvature="0" />
	<path style="fill:none;stroke:red;stroke-width:1px;stroke-linecap:butt;stroke-linejoin:miter;stroke-opacity:1" d="M 759.964,683.118 785.749,646.296 z" id="boundary" inkscape:connector-curvature="0" />
	<path style="fill:none;stroke:red;stroke-width:1px;stroke-linecap:butt;stroke-linejoin:miter;stroke-opacity:1" d="M 866.982,390.678 870.114,375.873 z" id="boundary" inkscape:connector-curvature="0" />
	<path style="fill:none;stroke:red;stroke-width:1px;stroke-linecap:butt;stroke-linejoin:miter;stroke-opacity:1" d="M 936.016,628.572 913.819,655.913 z" id="boundary" inkscape:connector-curvature="0" />
	<path style="fill:none;stroke:red;stroke-width:1px;stroke-linecap:butt;stroke-linejoin:miter;stroke-opacity:1" d="M 936.016,628.572 930.557,602.284 z" id="boundary" inkscape:connector-curvature="0" />
	<path style="fill:none;stroke:red;stroke-width:1px;stroke-linecap:butt;stroke-linejoin:miter;stroke-opacity:1" d="M 785.749,646.296 792.255,638.119 z" id="boundary" inkscape:connector-curvature="0" />
	<path style="fill:none;stroke:red;stroke-width:1px;stroke-linecap:butt;stroke-linejoin:miter;stroke-opacity:1" d="M 792.255,638.119 788.652,598.558 z" id="boundary" inkscape:connector-curvature="0" />
	<path style="fill:none;stroke:red;stroke-width:1px;stroke-linecap:butt;stroke-linejoin:miter;stroke-opacity:1" d="M 788.652,598.558 781.239,569.137 z" id="boundary" inkscape:connector-curvature="0" />
	<path style="fill:none;stroke:red;stroke-width:1px;stroke-linecap:butt;stroke-linejoin:miter;stroke-opacity:1" d="M 781.239,569.137 789.395,550.041 z" id="boundary" inkscape:connector-curvature="0" />
	<path style="fill:none;stroke:red;stroke-width:1px;stroke-linecap:butt;stroke-linejoin:miter;stroke-opacity:1" d="M 776.06,468.653 794.119,488.324 z" id="boundary" inkscape:connector-curvature="0" />
	<path style="fill:none;stroke:red;stroke-width:1px;stroke-linecap:butt;stroke-linejoin:miter;stroke-opacity:1" d="M 850.097,381.75 866.982,390.678 z" id="boundary" inkscape:connector-curvature="0" />
	<path style="fill:none;stroke:red;stroke-width:1px;stroke-linecap:butt;stroke-linejoin:miter;stroke-opacity:1" d="M 789.395,550.041 789.972,516.352 z" id="boundary" inkscape:connector-curvature="0" />
	<path style="fill:none;stroke:red;stroke-width:1px;stroke-linecap:butt;stroke-linejoin:miter;stroke-opacity:1" d="M 789.972,516.352 794.119,488.324 z" id="boundary" inkscape:connector-curvature="0" />
	<path style="fill:none;stroke:red;stroke-width:1px;stroke-linecap:butt;stroke-linejoin:miter;stroke-opacity:1" d="M 145.688,184.452 135.127,175.369 z" id="boundary" inkscape:connector-curvature="0" />
	<path style="fill:none;stroke:red;stroke-width:1px;stroke-linecap:butt;stroke-linejoin:miter;stroke-opacity:1" d="M 135.127,175.369 166.398,146.353 z" id="boundary" inkscape:connector-curvature="0" />
	<path style="fill:none;stroke:red;stroke-width:1px;stroke-linecap:butt;stroke-linejoin:miter;stroke-opacity:1" d="M 275.393,217.127 260.278,250.399 z" id="boundary" inkscape:connector-curvature="0" />
	<path style="fill:none;stroke:red;stroke-width:1px;stroke-linecap:butt;stroke-linejoin:miter;stroke-opacity:1" d="M 275.393,217.127 257.039,170.775 z" id="boundary" inkscape:connector-curvature="0" />
	<path style="fill:none;stroke:red;stroke-width:1px;stroke-linecap:butt;stroke-linejoin:miter;stroke-opacity:1" d="M 263.05,289.026 273.683,278.698 z" id="boundary" inkscape:connector-curvature="0" />
	<path style="fill:none;stroke:red;stroke-width:1px;stroke-linecap:butt;stroke-linejoin:miter;stroke-opacity:1" d="M 252.738,125.674 262.569,116.723 z" id="boundary" inkscape:connector-curvature="0" />
	<path style="fill:none;stroke:red;stroke-width:1px;stroke-linecap:butt;stroke-linejoin:miter;stroke-opacity:1" d="M 123.304,269.096 120.316,246.974 z" id="boundary" inkscape:connector-curvature="0" />
	<path style="fill:none;stroke:red;stroke-width:1px;stroke-linecap:butt;stroke-linejoin:miter;stroke-opacity:1" d="M 334.748,36.1469 297.439,42.5459 z" id="boundary" inkscape:connector-curvature="0" />
	<path style="fill:none;stroke:red;stroke-width:1px;stroke-linecap:butt;stroke-linejoin:miter;stroke-opacity:1" d="M 86.3674,119.275 112.995,103.373 z" id="boundary" inkscape:connector-curvature="0" />
	<path style="fill:none;stroke:red;stroke-width:1px;stroke-linecap:butt;stroke-linejoin:miter;stroke-opacity:1" d="M 86.3674,119.275 85.7664,127.314 z" id="boundary" inkscape:connector-curvature="0" />
	<path style="fill:none;stroke:red;stroke-width:1px;stroke-linecap:butt;stroke-linejoin:miter;stroke-opacity:1" d="M 272.653,39.8487 239.742,67.2096 z" id="boundary" inkscape:connector-curvature="0" />
	<path style="fill:none;stroke:red;stroke-width:1px;stroke-linecap:butt;stroke-linejoin:miter;stroke-opacity:1" d="M 194.404,77.4266 170.849,80.6679 z" id="boundary" inkscape:connector-curvature="0" />
	<path style="fill:none;stroke:red;stroke-width:1px;stroke-linecap:butt;stroke-linejoin:miter;stroke-opacity:1" d="M 229.432,333.03 254.389,323.123 z" id="boundary" inkscape:connector-curvature="0" />
	<path style="fill:none;stroke:red;stroke-width:1px;stroke-linecap:butt;stroke-linejoin:miter;stroke-opacity:1" d="M 260.278,250.399 273.683,278.698 z" id="boundary" inkscape:connector-curvature="0" />
	<path style="fill:none;stroke:red;stroke-width:1px;stroke-linecap:butt;stroke-linejoin:miter;stroke-opacity:1" d="M 256.484,315.447 263.05,289.026 z" id="boundary" inkscape:connector-curvature="0" />
	<path style="fill:none;stroke:red;stroke-width:1px;stroke-linecap:butt;stroke-linejoin:miter;stroke-opacity:1" d="M 207.55,362.645 229.432,333.03 z" id="boundary" inkscape:connector-curvature="0" />
	<path style="fill:none;stroke:red;stroke-width:1px;stroke-linecap:butt;stroke-linejoin:miter;stroke-opacity:1" d="M 145.008,365.418 131.346,367.504 z" id="boundary" inkscape:connector-curvature="0" />
	<path style="fill:none;stroke:red;stroke-width:1px;stroke-linecap:butt;stroke-linejoin:miter;stroke-opacity:1" d="M 148.416,221.207 120.316,246.974 z" id="boundary" inkscape:connector-curvature="0" />
	<path style="fill:none;stroke:red;stroke-width:1px;stroke-linecap:butt;stroke-linejoin:miter;stroke-opacity:1" d="M 123.304,269.096 120.375,293.366 z" id="boundary" inkscape:connector-curvature="0" />
	<path style="fill:none;stroke:red;stroke-width:1px;stroke-linecap:butt;stroke-linejoin:miter;stroke-opacity:1" d="M 123.832,322.252 120.375,293.366 z" id="boundary" inkscape:connector-curvature="0" />
	<path style="fill:none;stroke:red;stroke-width:1px;stroke-linecap:butt;stroke-linejoin:miter;stroke-opacity:1" d="M 123.832,322.252 147.363,322.651 z" id="boundary" inkscape:connector-curvature="0" />
	<path style="fill:none;stroke:red;stroke-width:1px;stroke-linecap:butt;stroke-linejoin:miter;stroke-opacity:1" d="M 68.5942,597.685 57.1025,591.691 z" id="boundary" inkscape:connector-curvature="0" />
	<path style="fill:none;stroke:red;stroke-width:1px;stroke-linecap:butt;stroke-linejoin:miter;stroke-opacity:1" d="M 57.1025,591.691 56.7948,559.727 z" id="boundary" inkscape:connector-curvature="0" />
	<path style="fill:none;stroke:red;stroke-width:1px;stroke-linecap:butt;stroke-linejoin:miter;stroke-opacity:1" d="M 57.9738,457.921 78.8991,458.096 z" id="boundary" inkscape:connector-curvature="0" />
	<path style="fill:none;stroke:red;stroke-width:1px;stroke-linecap:butt;stroke-linejoin:miter;stroke-opacity:1" d="M 177.682,364.449 192.853,360.111 z" id="boundary" inkscape:connector-curvature="0" />
	<path style="fill:none;stroke:red;stroke-width:1px;stroke-linecap:butt;stroke-linejoin:miter;stroke-opacity:1" d="M 192.853,360.111 207.55,362.645 z" id="boundary" inkscape:connector-curvature="0" />
	<path style="fill:none;stroke:red;stroke-width:1px;stroke-linecap:butt;stroke-linejoin:miter;stroke-opacity:1" d="M 254.389,323.123 256.484,315.447 z" id="boundary" inkscape:connector-curvature="0" />
	<path style="fill:none;stroke:red;stroke-width:1px;stroke-linecap:butt;stroke-linejoin:miter;stroke-opacity:1" d="M 731.737,236.387 732.022,220.569 z" id="boundary" inkscape:connector-curvature="0" />
	<path style="fill:none;stroke:red;stroke-width:1px;stroke-linecap:butt;stroke-linejoin:miter;stroke-opacity:1" d="M 761.613,128.862 738.313,137.894 z" id="boundary" inkscape:connector-curvature="0" />
	<path style="fill:none;stroke:red;stroke-width:1px;stroke-linecap:butt;stroke-linejoin:miter;stroke-opacity:1" d="M 870.114,375.873 864.857,349.884 z" id="boundary" inkscape:connector-curvature="0" />
	<path style="fill:none;stroke:red;stroke-width:1px;stroke-linecap:butt;stroke-linejoin:miter;stroke-opacity:1" d="M 732.022,220.569 734.905,200.571 z" id="boundary" inkscape:connector-curvature="0" />
	<path style="fill:none;stroke:red;stroke-width:1px;stroke-linecap:butt;stroke-linejoin:miter;stroke-opacity:1" d="M 757.661,156.995 738.343,174.503 z" id="boundary" inkscape:connector-curvature="0" />
	<path style="fill:none;stroke:red;stroke-width:1px;stroke-linecap:butt;stroke-linejoin:miter;stroke-opacity:1" d="M 757.661,156.995 778.168,142.113 z" id="boundary" inkscape:connector-curvature="0" />
	<path style="fill:none;stroke:red;stroke-width:1px;stroke-linecap:butt;stroke-linejoin:miter;stroke-opacity:1" d="M 755.63,347.375 738.626,340.985 z" id="boundary" inkscape:connector-curvature="0" />
	<path style="fill:none;stroke:red;stroke-width:1px;stroke-linecap:butt;stroke-linejoin:miter;stroke-opacity:1" d="M 850.097,381.75 829.477,368.137 z" id="boundary" inkscape:connector-curvature="0" />
	<path style="fill:none;stroke:red;stroke-width:1px;stroke-linecap:butt;stroke-linejoin:miter;stroke-opacity:1" d="M 829.477,368.137 806.107,370.818 z" id="boundary" inkscape:connector-curvature="0" />
	<path style="fill:none;stroke:red;stroke-width:1px;stroke-linecap:butt;stroke-linejoin:miter;stroke-opacity:1" d="M 778.168,142.113 761.613,128.862 z" id="boundary" inkscape:connector-curvature="0" />
	<path style="fill:none;stroke:red;stroke-width:1px;stroke-linecap:butt;stroke-linejoin:miter;stroke-opacity:1" d="M 918.704,415.683 933.893,403.086 z" id="boundary" inkscape:connector-curvature="0" />
	<path style="fill:none;stroke:red;stroke-width:1px;stroke-linecap:butt;stroke-linejoin:miter;stroke-opacity:1" d="M 918.558,457.371 918.704,415.683 z" id="boundary" inkscape:connector-curvature="0" />
	<path style="fill:none;stroke:red;stroke-width:1px;stroke-linecap:butt;stroke-linejoin:miter;stroke-opacity:1" d="M 920.412,467.995 918.558,457.371 z" id="boundary" inkscape:connector-curvature="0" />
	<path style="fill:none;stroke:red;stroke-width:1px;stroke-linecap:butt;stroke-linejoin:miter;stroke-opacity:1" d="M 876.419,258.883 873.752,301.798 z" id="boundary" inkscape:connector-curvature="0" />
	<path style="fill:none;stroke:red;stroke-width:1px;stroke-linecap:butt;stroke-linejoin:miter;stroke-opacity:1" d="M 876.419,258.883 859.906,248.504 z" id="boundary" inkscape:connector-curvature="0" />
	<path style="fill:none;stroke:red;stroke-width:1px;stroke-linecap:butt;stroke-linejoin:miter;stroke-opacity:1" d="M 882.649,178.927 866.018,217.715 z" id="boundary" inkscape:connector-curvature="0" />
	<path style="fill:none;stroke:red;stroke-width:1px;stroke-linecap:butt;stroke-linejoin:miter;stroke-opacity:1" d="M 870.398,227.028 859.906,248.504 z" id="boundary" inkscape:connector-curvature="0" />
	<path style="fill:none;stroke:red;stroke-width:1px;stroke-linecap:butt;stroke-linejoin:miter;stroke-opacity:1" d="M 870.398,227.028 866.018,217.715 z" id="boundary" inkscape:connector-curvature="0" />
	<path style="fill:none;stroke:red;stroke-width:1px;stroke-linecap:butt;stroke-linejoin:miter;stroke-opacity:1" d="M 933.889,149.156 937.273,172.405 z" id="boundary" inkscape:connector-curvature="0" />
	<path style="fill:none;stroke:red;stroke-width:1px;stroke-linecap:butt;stroke-linejoin:miter;stroke-opacity:1" d="M 937.273,172.405 938.473,181.789 z" id="boundary" inkscape:connector-curvature="0" />
	<path style="fill:none;stroke:red;stroke-width:1px;stroke-linecap:butt;stroke-linejoin:miter;stroke-opacity:1" d="M 873.752,301.798 876.185,307.961 z" id="boundary" inkscape:connector-curvature="0" />
	<path style="fill:none;stroke:red;stroke-width:1px;stroke-linecap:butt;stroke-linejoin:miter;stroke-opacity:1" d="M 876.185,307.961 862.923,336.668 z" id="boundary" inkscape:connector-curvature="0" />
	<path style="fill:none;stroke:red;stroke-width:1px;stroke-linecap:butt;stroke-linejoin:miter;stroke-opacity:1" d="M 980.318,529.171 991.878,513.719 z" id="boundary" inkscape:connector-curvature="0" />
	<path style="fill:none;stroke:red;stroke-width:1px;stroke-linecap:butt;stroke-linejoin:miter;stroke-opacity:1" d="M 916.879,290.227 944.765,267.469 z" id="boundary" inkscape:connector-curvature="0" />
	<path style="fill:none;stroke:red;stroke-width:1px;stroke-linecap:butt;stroke-linejoin:miter;stroke-opacity:1" d="M 864.857,349.884 862.923,336.668 z" id="boundary" inkscape:connector-curvature="0" />
	<path style="fill:none;stroke:red;stroke-width:1px;stroke-linecap:butt;stroke-linejoin:miter;stroke-opacity:1" d="M 940.322,218.233 944.765,267.469 z" id="boundary" inkscape:connector-curvature="0" />
	<path style="fill:none;stroke:red;stroke-width:1px;stroke-linecap:butt;stroke-linejoin:miter;stroke-opacity:1" d="M 940.322,218.233 924.693,212.513 z" id="boundary" inkscape:connector-curvature="0" />
	<path style="fill:none;stroke:red;stroke-width:1px;stroke-linecap:butt;stroke-linejoin:miter;stroke-opacity:1" d="M 820.238,147.059 803.793,133.722 z" id="boundary" inkscape:connector-curvature="0" />
	<path style="fill:none;stroke:red;stroke-width:1px;stroke-linecap:butt;stroke-linejoin:miter;stroke-opacity:1" d="M 800.814,70.4777 781.549,77.26 z" id="boundary" inkscape:connector-curvature="0" />
	<path style="fill:none;stroke:red;stroke-width:1px;stroke-linecap:butt;stroke-linejoin:miter;stroke-opacity:1" d="M 846.767,98.959 838.793,98.9734 z" id="boundary" inkscape:connector-curvature="0" />
	<path style="fill:none;stroke:red;stroke-width:1px;stroke-linecap:butt;stroke-linejoin:miter;stroke-opacity:1" d="M 882.649,178.927 858.497,174.642 z" id="boundary" inkscape:connector-curvature="0" />
	<path style="fill:none;stroke:red;stroke-width:1px;stroke-linecap:butt;stroke-linejoin:miter;stroke-opacity:1" d="M 858.497,174.642 820.238,147.059 z" id="boundary" inkscape:connector-curvature="0" />
	<path style="fill:none;stroke:red;stroke-width:1px;stroke-linecap:butt;stroke-linejoin:miter;stroke-opacity:1" d="M 70.6453,240.482 83.1262,215.354 z" id="boundary" inkscape:connector-curvature="0" />
	<path style="fill:none;stroke:red;stroke-width:1px;stroke-linecap:butt;stroke-linejoin:miter;stroke-opacity:1" d="M 71.0665,306.676 75.7462,268.346 z" id="boundary" inkscape:connector-curvature="0" />
	<path style="fill:none;stroke:red;stroke-width:1px;stroke-linecap:butt;stroke-linejoin:miter;stroke-opacity:1" d="M 70.6453,240.482 67.8491,265.025 z" id="boundary" inkscape:connector-curvature="0" />
	<path style="fill:none;stroke:red;stroke-width:1px;stroke-linecap:butt;stroke-linejoin:miter;stroke-opacity:1" d="M 67.4672,370.648 65.2911,389.251 z" id="boundary" inkscape:connector-curvature="0" />
	<path style="fill:none;stroke:red;stroke-width:1px;stroke-linecap:butt;stroke-linejoin:miter;stroke-opacity:1" d="M 65.2911,389.251 47.7099,378.763 z" id="boundary" inkscape:connector-curvature="0" />
	<path style="fill:none;stroke:red;stroke-width:1px;stroke-linecap:butt;stroke-linejoin:miter;stroke-opacity:1" d="M 56.7948,559.727 58.0052,540.223 z" id="boundary" inkscape:connector-curvature="0" />
	<path style="fill:none;stroke:red;stroke-width:1px;stroke-linecap:butt;stroke-linejoin:miter;stroke-opacity:1" d="M 40.3945,396.293 30.7915,400.816 z" id="boundary" inkscape:connector-curvature="0" />
	<path style="fill:none;stroke:red;stroke-width:1px;stroke-linecap:butt;stroke-linejoin:miter;stroke-opacity:1" d="M 40.3945,396.293 47.7099,378.763 z" id="boundary" inkscape:connector-curvature="0" />
	<path style="fill:none;stroke:red;stroke-width:1px;stroke-linecap:butt;stroke-linejoin:miter;stroke-opacity:1" d="M 61.5384,437.443 59.6256,433.421 z" id="boundary" inkscape:connector-curvature="0" />
	<path style="fill:none;stroke:red;stroke-width:1px;stroke-linecap:butt;stroke-linejoin:miter;stroke-opacity:1" d="M 47.5534,450.823 41.3426,458.169 z" id="boundary" inkscape:connector-curvature="0" />
	<path style="fill:none;stroke:red;stroke-width:1px;stroke-linecap:butt;stroke-linejoin:miter;stroke-opacity:1" d="M 19.8049,437.9 38.0646,435.933 z" id="boundary" inkscape:connector-curvature="0" />
	<path style="fill:none;stroke:red;stroke-width:1px;stroke-linecap:butt;stroke-linejoin:miter;stroke-opacity:1" d="M 57.9738,457.921 47.5534,450.823 z" id="boundary" inkscape:connector-curvature="0" />
	<path style="fill:none;stroke:red;stroke-width:1px;stroke-linecap:butt;stroke-linejoin:miter;stroke-opacity:1" d="M 49.2558,498.915 47.1925,505.552 z" id="boundary" inkscape:connector-curvature="0" />
	<path style="fill:none;stroke:red;stroke-width:1px;stroke-linecap:butt;stroke-linejoin:miter;stroke-opacity:1" d="M 49.2558,498.915 33.6426,487.385 z" id="boundary" inkscape:connector-curvature="0" />
	<path style="fill:none;stroke:red;stroke-width:1px;stroke-linecap:butt;stroke-linejoin:miter;stroke-opacity:1" d="M 18.1268,513.389 14.9198,506.583 z" id="boundary" inkscape:connector-curvature="0" />
	<path style="fill:none;stroke:red;stroke-width:1px;stroke-linecap:butt;stroke-linejoin:miter;stroke-opacity:1" d="M 47.1925,505.552 58.8551,516.171 z" id="boundary" inkscape:connector-curvature="0" />
	<path style="fill:none;stroke:red;stroke-width:1px;stroke-linecap:butt;stroke-linejoin:miter;stroke-opacity:1" d="M 59.6256,433.421 77.4081,409.56 z" id="boundary" inkscape:connector-curvature="0" />
	<path style="fill:none;stroke:red;stroke-width:1px;stroke-linecap:butt;stroke-linejoin:miter;stroke-opacity:1" d="M 946.235,379.764 942.041,383.71 z" id="boundary" inkscape:connector-curvature="0" />
	<path style="fill:none;stroke:red;stroke-width:1px;stroke-linecap:butt;stroke-linejoin:miter;stroke-opacity:1" d="M 947.867,496.537 933.893,481.807 z" id="boundary" inkscape:connector-curvature="0" />
	<path style="fill:none;stroke:red;stroke-width:1px;stroke-linecap:butt;stroke-linejoin:miter;stroke-opacity:1" d="M 926.776,560.285 917.548,571.349 z" id="boundary" inkscape:connector-curvature="0" />
	<path style="fill:none;stroke:red;stroke-width:1px;stroke-linecap:butt;stroke-linejoin:miter;stroke-opacity:1" d="M 944.892,522.468 941.596,539.878 z" id="boundary" inkscape:connector-curvature="0" />
	<path style="fill:none;stroke:red;stroke-width:1px;stroke-linecap:butt;stroke-linejoin:miter;stroke-opacity:1" d="M 942.041,383.71 941.028,383.159 z" id="boundary" inkscape:connector-curvature="0" />
	<path style="fill:none;stroke:red;stroke-width:1px;stroke-linecap:butt;stroke-linejoin:miter;stroke-opacity:1" d="M 941.596,539.878 952.202,550.044 z" id="boundary" inkscape:connector-curvature="0" />
	<path style="fill:none;stroke:red;stroke-width:1px;stroke-linecap:butt;stroke-linejoin:miter;stroke-opacity:1" d="M 977.01,449.828 968.8,441.967 z" id="boundary" inkscape:connector-curvature="0" />
	<path style="fill:none;stroke:red;stroke-width:1px;stroke-linecap:butt;stroke-linejoin:miter;stroke-opacity:1" d="M 961.107,469.224 960.229,466.748 z" id="boundary" inkscape:connector-curvature="0" />
	<path style="fill:none;stroke:red;stroke-width:1px;stroke-linecap:butt;stroke-linejoin:miter;stroke-opacity:1" d="M 978.231,391.422 987.584,387.813 z" id="boundary" inkscape:connector-curvature="0" />
	<path style="fill:none;stroke:red;stroke-width:1px;stroke-linecap:butt;stroke-linejoin:miter;stroke-opacity:1" d="M 968.8,441.967 956.29,439.143 z" id="boundary" inkscape:connector-curvature="0" />
	<path style="fill:none;stroke:red;stroke-width:1px;stroke-linecap:butt;stroke-linejoin:miter;stroke-opacity:1" d="M 931.234,312.216 921.863,332.771 z" id="boundary" inkscape:connector-curvature="0" />
	<path style="fill:none;stroke:red;stroke-width:1px;stroke-linecap:butt;stroke-linejoin:miter;stroke-opacity:1" d="M 931.234,312.216 916.879,290.227 z" id="boundary" inkscape:connector-curvature="0" />
	<path style="fill:none;stroke:red;stroke-width:1px;stroke-linecap:butt;stroke-linejoin:miter;stroke-opacity:1" d="M 962.511,416.121 971.211,402.808 z" id="boundary" inkscape:connector-curvature="0" />
	<path style="fill:none;stroke:red;stroke-width:1px;stroke-linecap:butt;stroke-linejoin:miter;stroke-opacity:1" d="M 956.29,439.143 962.511,416.121 z" id="boundary" inkscape:connector-curvature="0" />
	<path style="fill:none;stroke:red;stroke-width:1px;stroke-linecap:butt;stroke-linejoin:miter;stroke-opacity:1" d="M 892.844,128.697 933.889,149.156 z" id="boundary" inkscape:connector-curvature="0" />
	<path style="fill:none;stroke:red;stroke-width:1px;stroke-linecap:butt;stroke-linejoin:miter;stroke-opacity:1" d="M 85.7664,127.314 73.2044,152.238 z" id="boundary" inkscape:connector-curvature="0" />
	<path style="fill:none;stroke:red;stroke-width:1px;stroke-linecap:butt;stroke-linejoin:miter;stroke-opacity:1" d="M 146.931,100.042 112.995,103.373 z" id="boundary" inkscape:connector-curvature="0" />
	<path style="fill:none;stroke:red;stroke-width:1px;stroke-linecap:butt;stroke-linejoin:miter;stroke-opacity:1" d="M 368.576,7.36491 407.818,20.835 z" id="boundary" inkscape:connector-curvature="0" />
	<path style="fill:none;stroke:red;stroke-width:1px;stroke-linecap:butt;stroke-linejoin:miter;stroke-opacity:1" d="M 368.576,7.36491 334.748,36.1469 z" id="boundary" inkscape:connector-curvature="0" />
	<path style="fill:none;stroke:red;stroke-width:1px;stroke-linecap:butt;stroke-linejoin:miter;stroke-opacity:1" d="M 407.818,20.835 444.56,5.00427 z" id="boundary" inkscape:connector-curvature="0" />
	<path style="fill:none;stroke:red;stroke-width:1px;stroke-linecap:butt;stroke-linejoin:miter;stroke-opacity:1" d="M 478.595,19.0723 444.56,5.00427 z" id="boundary" inkscape:connector-curvature="0" />
	<path style="fill:none;stroke:red;stroke-width:1px;stroke-linecap:butt;stroke-linejoin:miter;stroke-opacity:1" d="M 541.238,15.3482 575.414,16.4693 z" id="boundary" inkscape:connector-curvature="0" />
	<path style="fill:none;stroke:red;stroke-width:1px;stroke-linecap:butt;stroke-linejoin:miter;stroke-opacity:1" d="M 575.414,16.4693 611.502,24.385 z" id="boundary" inkscape:connector-curvature="0" />
	<path style="fill:none;stroke:red;stroke-width:1px;stroke-linecap:butt;stroke-linejoin:miter;stroke-opacity:1" d="M 663.841,32.1185 611.502,24.385 z" id="boundary" inkscape:connector-curvature="0" />
	<path style="fill:none;stroke:red;stroke-width:1px;stroke-linecap:butt;stroke-linejoin:miter;stroke-opacity:1" d="M 707.194,45.8897 680.049,30.6787 z" id="boundary" inkscape:connector-curvature="0" />
	<path style="fill:none;stroke:red;stroke-width:1px;stroke-linecap:butt;stroke-linejoin:miter;stroke-opacity:1" d="M 680.049,30.6787 663.841,32.1185 z" id="boundary" inkscape:connector-curvature="0" />
	<path style="fill:none;stroke:red;stroke-width:1px;stroke-linecap:butt;stroke-linejoin:miter;stroke-opacity:1" d="M 734.245,63.1335 742.953,101.757 z" id="boundary" inkscape:connector-curvature="0" />
	<path style="fill:none;stroke:red;stroke-width:1px;stroke-linecap:butt;stroke-linejoin:miter;stroke-opacity:1" d="M 734.245,63.1335 707.194,45.8897 z" id="boundary" inkscape:connector-curvature="0" />
	<path style="fill:none;stroke:red;stroke-width:1px;stroke-linecap:butt;stroke-linejoin:miter;stroke-opacity:1" d="M 838.793,98.9734 800.814,70.4777 z" id="boundary" inkscape:connector-curvature="0" />
	<path style="fill:none;stroke:red;stroke-width:1px;stroke-linecap:butt;stroke-linejoin:miter;stroke-opacity:1" d="M 892.844,128.697 895.971,120.447 z" id="boundary" inkscape:connector-curvature="0" />
	<path style="fill:none;stroke:red;stroke-width:1px;stroke-linecap:butt;stroke-linejoin:miter;stroke-opacity:1" d="M 895.971,120.447 846.767,98.959 z" id="boundary" inkscape:connector-curvature="0" />
	<path style="fill:none;stroke:red;stroke-width:1px;stroke-linecap:butt;stroke-linejoin:miter;stroke-opacity:1" d="M 938.473,181.789 958.068,185.711 z" id="boundary" inkscape:connector-curvature="0" />
	<path style="fill:none;stroke:red;stroke-width:1px;stroke-linecap:butt;stroke-linejoin:miter;stroke-opacity:1" d="M 73.9295,172.551 70.8589,185.257 z" id="boundary" inkscape:connector-curvature="0" />
	<path style="fill:none;stroke:red;stroke-width:1px;stroke-linecap:butt;stroke-linejoin:miter;stroke-opacity:1" d="M 73.9295,172.551 73.2044,152.238 z" id="boundary" inkscape:connector-curvature="0" />
	<path style="fill:none;stroke:red;stroke-width:1px;stroke-linecap:butt;stroke-linejoin:miter;stroke-opacity:1" d="M 70.8589,185.257 65.2136,201.72 z" id="boundary" inkscape:connector-curvature="0" />
	<path style="fill:none;stroke:red;stroke-width:1px;stroke-linecap:butt;stroke-linejoin:miter;stroke-opacity:1" d="M 65.2136,201.72 83.1262,215.354 z" id="boundary" inkscape:connector-curvature="0" />
	<path style="fill:none;stroke:red;stroke-width:1px;stroke-linecap:butt;stroke-linejoin:miter;stroke-opacity:1" d="M 58.2068,336.166 35.8828,348.915 z" id="boundary" inkscape:connector-curvature="0" />
	<path style="fill:none;stroke:red;stroke-width:1px;stroke-linecap:butt;stroke-linejoin:miter;stroke-opacity:1" d="M 35.8828,348.915 36.726,359.664 z" id="boundary" inkscape:connector-curvature="0" />
	<path style="fill:none;stroke:red;stroke-width:1px;stroke-linecap:butt;stroke-linejoin:miter;stroke-opacity:1" d="M 67.8491,265.025 75.7462,268.346 z" id="boundary" inkscape:connector-curvature="0" />
	<path style="fill:none;stroke:red;stroke-width:1px;stroke-linecap:butt;stroke-linejoin:miter;stroke-opacity:1" d="M 69.8008,312.287 71.0665,306.676 z" id="boundary" inkscape:connector-curvature="0" />
	<path style="fill:none;stroke:red;stroke-width:1px;stroke-linecap:butt;stroke-linejoin:miter;stroke-opacity:1" d="M 67.2005,333.88 69.8008,312.287 z" id="boundary" inkscape:connector-curvature="0" />
	<path style="fill:none;stroke:red;stroke-width:1px;stroke-linecap:butt;stroke-linejoin:miter;stroke-opacity:1" d="M 58.2068,336.166 67.2005,333.88 z" id="boundary" inkscape:connector-curvature="0" />
	<path style="fill:none;stroke:red;stroke-width:1px;stroke-linecap:butt;stroke-linejoin:miter;stroke-opacity:1" d="M 955.956,368.597 967.328,360.282 z" id="boundary" inkscape:connector-curvature="0" />
	<path style="fill:none;stroke:red;stroke-width:1px;stroke-linecap:butt;stroke-linejoin:miter;stroke-opacity:1" d="M 921.863,332.771 934.617,336.796 z" id="boundary" inkscape:connector-curvature="0" />
	<path style="fill:none;stroke:red;stroke-width:1px;stroke-linecap:butt;stroke-linejoin:miter;stroke-opacity:1" d="M 21.0435,389.852 23.4414,401.092 z" id="boundary" inkscape:connector-curvature="0" />
	<path style="fill:none;stroke:red;stroke-width:1px;stroke-linecap:butt;stroke-linejoin:miter;stroke-opacity:1" d="M 23.4414,401.092 30.7915,400.816 z" id="boundary" inkscape:connector-curvature="0" />
	<path style="fill:none;stroke:red;stroke-width:1px;stroke-linecap:butt;stroke-linejoin:miter;stroke-opacity:1" d="M 36.726,359.664 18.8227,359.096 z" id="boundary" inkscape:connector-curvature="0" />
	<path style="fill:none;stroke:red;stroke-width:1px;stroke-linecap:butt;stroke-linejoin:miter;stroke-opacity:1" d="M 21.0435,389.852 18.0522,386.38 z" id="boundary" inkscape:connector-curvature="0" />
	<path style="fill:none;stroke:red;stroke-width:1px;stroke-linecap:butt;stroke-linejoin:miter;stroke-opacity:1" d="M 16.6732,451.112 18.9726,466.526 z" id="boundary" inkscape:connector-curvature="0" />
	<path style="fill:none;stroke:red;stroke-width:1px;stroke-linecap:butt;stroke-linejoin:miter;stroke-opacity:1" d="M 18.9726,466.526 10.7742,483.378 z" id="boundary" inkscape:connector-curvature="0" />
	<path style="fill:none;stroke:red;stroke-width:1px;stroke-linecap:butt;stroke-linejoin:miter;stroke-opacity:1" d="M 16.6732,451.112 19.8049,437.9 z" id="boundary" inkscape:connector-curvature="0" />
	<path style="fill:none;stroke:red;stroke-width:1px;stroke-linecap:butt;stroke-linejoin:miter;stroke-opacity:1" d="M 10.7742,483.378 10.1617,505.989 z" id="boundary" inkscape:connector-curvature="0" />
	<path style="fill:none;stroke:red;stroke-width:1px;stroke-linecap:butt;stroke-linejoin:miter;stroke-opacity:1" d="M 18.1268,513.389 33.4514,526.349 z" id="boundary" inkscape:connector-curvature="0" />
	<path style="fill:none;stroke:red;stroke-width:1px;stroke-linecap:butt;stroke-linejoin:miter;stroke-opacity:1" d="M 10.1617,505.989 14.9198,506.583 z" id="boundary" inkscape:connector-curvature="0" />
	<path style="fill:none;stroke:red;stroke-width:1px;stroke-linecap:butt;stroke-linejoin:miter;stroke-opacity:1" d="M 37.2769,521.369 46.5745,526.701 z" id="boundary" inkscape:connector-curvature="0" />
	<path style="fill:none;stroke:red;stroke-width:1px;stroke-linecap:butt;stroke-linejoin:miter;stroke-opacity:1" d="M 33.4514,526.349 37.2769,521.369 z" id="boundary" inkscape:connector-curvature="0" />
	<path style="fill:none;stroke:red;stroke-width:1px;stroke-linecap:butt;stroke-linejoin:miter;stroke-opacity:1" d="M 58.8551,516.171 46.5745,526.701 z" id="boundary" inkscape:connector-curvature="0" />
	<path style="fill:none;stroke:red;stroke-width:1px;stroke-linecap:butt;stroke-linejoin:miter;stroke-opacity:1" d="M 969.019,551.916 952.202,550.044 z" id="boundary" inkscape:connector-curvature="0" />
	<path style="fill:none;stroke:red;stroke-width:1px;stroke-linecap:butt;stroke-linejoin:miter;stroke-opacity:1" d="M 917.548,571.349 930.557,602.284 z" id="boundary" inkscape:connector-curvature="0" />
	<path style="fill:none;stroke:red;stroke-width:1px;stroke-linecap:butt;stroke-linejoin:miter;stroke-opacity:1" d="M 966.929,523.627 980.318,529.171 z" id="boundary" inkscape:connector-curvature="0" />
	<path style="fill:none;stroke:red;stroke-width:1px;stroke-linecap:butt;stroke-linejoin:miter;stroke-opacity:1" d="M 990.935,466.069 996,446.291 z" id="boundary" inkscape:connector-curvature="0" />
	<path style="fill:none;stroke:red;stroke-width:1px;stroke-linecap:butt;stroke-linejoin:miter;stroke-opacity:1" d="M 996,446.291 977.01,449.828 z" id="boundary" inkscape:connector-curvature="0" />
	<path style="fill:none;stroke:red;stroke-width:1px;stroke-linecap:butt;stroke-linejoin:miter;stroke-opacity:1" d="M 966.929,523.627 970.725,512.657 z" id="boundary" inkscape:connector-curvature="0" />
	<path style="fill:none;stroke:red;stroke-width:1px;stroke-linecap:butt;stroke-linejoin:miter;stroke-opacity:1" d="M 991.878,513.719 994.304,478.359 z" id="boundary" inkscape:connector-curvature="0" />
	<path style="fill:none;stroke:red;stroke-width:1px;stroke-linecap:butt;stroke-linejoin:miter;stroke-opacity:1" d="M 990.935,466.069 994.304,478.359 z" id="boundary" inkscape:connector-curvature="0" />
	<path style="fill:none;stroke:red;stroke-width:1px;stroke-linecap:butt;stroke-linejoin:miter;stroke-opacity:1" d="M 955.956,368.597 946.235,379.764 z" id="boundary" inkscape:connector-curvature="0" />
	<path style="fill:none;stroke:red;stroke-width:1px;stroke-linecap:butt;stroke-linejoin:miter;stroke-opacity:1" d="M 971.211,402.808 978.231,391.422 z" id="boundary" inkscape:connector-curvature="0" />
	<path style="fill:none;stroke:red;stroke-width:1px;stroke-linecap:butt;stroke-linejoin:miter;stroke-opacity:1" d="M 934.617,336.796 936.735,364.993 z" id="boundary" inkscape:connector-curvature="0" />
	<path style="fill:none;stroke:red;stroke-width:1px;stroke-linecap:butt;stroke-linejoin:miter;stroke-opacity:1" d="M 68.5942,597.685 55.7093,621.974 z" id="boundary" inkscape:connector-curvature="0" />
	<path style="fill:none;stroke:red;stroke-width:1px;stroke-linecap:butt;stroke-linejoin:miter;stroke-opacity:1" d="M 55.7093,621.974 59.2392,632.67 z" id="boundary" inkscape:connector-curvature="0" />
	<path style="fill:none;stroke:red;stroke-width:1px;stroke-linecap:butt;stroke-linejoin:miter;stroke-opacity:1" d="M 59.2392,632.67 70.6274,657.512 z" id="boundary" inkscape:connector-curvature="0" />
	<path style="fill:none;stroke:red;stroke-width:1px;stroke-linecap:butt;stroke-linejoin:miter;stroke-opacity:1" d="M 70.6274,657.512 61.9816,679.656 z" id="boundary" inkscape:connector-curvature="0" />
	<path style="fill:none;stroke:red;stroke-width:1px;stroke-linecap:butt;stroke-linejoin:miter;stroke-opacity:1" d="M 61.9816,679.656 63.5307,717.032 z" id="boundary" inkscape:connector-curvature="0" />
	<path style="fill:none;stroke:red;stroke-width:1px;stroke-linecap:butt;stroke-linejoin:miter;stroke-opacity:1" d="M 63.5307,717.032 51.4519,731.476 z" id="boundary" inkscape:connector-curvature="0" />
	<path style="fill:none;stroke:red;stroke-width:1px;stroke-linecap:butt;stroke-linejoin:miter;stroke-opacity:1" d="M 54.8467,759.378 59.1092,768.472 z" id="boundary" inkscape:connector-curvature="0" />
	<path style="fill:none;stroke:red;stroke-width:1px;stroke-linecap:butt;stroke-linejoin:miter;stroke-opacity:1" d="M 53.2124,818.288 51.5409,807.845 z" id="boundary" inkscape:connector-curvature="0" />
	<path style="fill:none;stroke:red;stroke-width:1px;stroke-linecap:butt;stroke-linejoin:miter;stroke-opacity:1" d="M 59.1092,768.472 51.5409,807.845 z" id="boundary" inkscape:connector-curvature="0" />
	<path style="fill:none;stroke:red;stroke-width:1px;stroke-linecap:butt;stroke-linejoin:miter;stroke-opacity:1" d="M 53.2124,818.288 59.6369,838.347 z" id="boundary" inkscape:connector-curvature="0" />
	<path style="fill:none;stroke:red;stroke-width:1px;stroke-linecap:butt;stroke-linejoin:miter;stroke-opacity:1" d="M 59.6369,838.347 55.8983,858.535 z" id="boundary" inkscape:connector-curvature="0" />
	<path style="fill:none;stroke:red;stroke-width:1px;stroke-linecap:butt;stroke-linejoin:miter;stroke-opacity:1" d="M 55.8983,858.535 72.1722,886.041 z" id="boundary" inkscape:connector-curvature="0" />
	<path style="fill:none;stroke:red;stroke-width:1px;stroke-linecap:butt;stroke-linejoin:miter;stroke-opacity:1" d="M 72.1722,886.041 68.8794,915.551 z" id="boundary" inkscape:connector-curvature="0" />
	<path style="fill:none;stroke:red;stroke-width:1px;stroke-linecap:butt;stroke-linejoin:miter;stroke-opacity:1" d="M 68.8794,915.551 70.6319,920.095 z" id="boundary" inkscape:connector-curvature="0" />
	<path style="fill:none;stroke:red;stroke-width:1px;stroke-linecap:butt;stroke-linejoin:miter;stroke-opacity:1" d="M 119.819,944.598 146.543,946.036 z" id="boundary" inkscape:connector-curvature="0" />
	<path style="fill:none;stroke:red;stroke-width:1px;stroke-linecap:butt;stroke-linejoin:miter;stroke-opacity:1" d="M 146.543,946.036 177.509,961.892 z" id="boundary" inkscape:connector-curvature="0" />
	<path style="fill:none;stroke:red;stroke-width:1px;stroke-linecap:butt;stroke-linejoin:miter;stroke-opacity:1" d="M 70.6319,920.095 82.6295,943.174 z" id="boundary" inkscape:connector-curvature="0" />
	<path style="fill:none;stroke:red;stroke-width:1px;stroke-linecap:butt;stroke-linejoin:miter;stroke-opacity:1" d="M 82.6295,943.174 119.819,944.598 z" id="boundary" inkscape:connector-curvature="0" />
	<path style="fill:none;stroke:red;stroke-width:1px;stroke-linecap:butt;stroke-linejoin:miter;stroke-opacity:1" d="M 241.266,954.198 278.824,954.283 z" id="boundary" inkscape:connector-curvature="0" />
	<path style="fill:none;stroke:red;stroke-width:1px;stroke-linecap:butt;stroke-linejoin:miter;stroke-opacity:1" d="M 177.509,961.892 210.494,965.026 z" id="boundary" inkscape:connector-curvature="0" />
	<path style="fill:none;stroke:red;stroke-width:1px;stroke-linecap:butt;stroke-linejoin:miter;stroke-opacity:1" d="M 210.494,965.026 241.266,954.198 z" id="boundary" inkscape:connector-curvature="0" />
	<path style="fill:none;stroke:red;stroke-width:1px;stroke-linecap:butt;stroke-linejoin:miter;stroke-opacity:1" d="M 394.498,957.824 440.432,953.641 z" id="boundary" inkscape:connector-curvature="0" />
	<path style="fill:none;stroke:red;stroke-width:1px;stroke-linecap:butt;stroke-linejoin:miter;stroke-opacity:1" d="M 394.498,957.824 368.671,966.954 z" id="boundary" inkscape:connector-curvature="0" />
	<path style="fill:none;stroke:red;stroke-width:1px;stroke-linecap:butt;stroke-linejoin:miter;stroke-opacity:1" d="M 278.824,954.283 338.338,954.968 z" id="boundary" inkscape:connector-curvature="0" />
	<path style="fill:none;stroke:red;stroke-width:1px;stroke-linecap:butt;stroke-linejoin:miter;stroke-opacity:1" d="M 338.338,954.968 368.671,966.954 z" id="boundary" inkscape:connector-curvature="0" />
	<path style="fill:none;stroke:red;stroke-width:1px;stroke-linecap:butt;stroke-linejoin:miter;stroke-opacity:1" d="M 440.432,953.641 491.449,954.702 z" id="boundary" inkscape:connector-curvature="0" />
	<path style="fill:none;stroke:red;stroke-width:1px;stroke-linecap:butt;stroke-linejoin:miter;stroke-opacity:1" d="M 491.449,954.702 534.486,957.224 z" id="boundary" inkscape:connector-curvature="0" />
	<path style="fill:none;stroke:red;stroke-width:1px;stroke-linecap:butt;stroke-linejoin:miter;stroke-opacity:1" d="M 534.486,957.224 581.857,946.431 z" id="boundary" inkscape:connector-curvature="0" />
	<path style="fill:none;stroke:red;stroke-width:1px;stroke-linecap:butt;stroke-linejoin:miter;stroke-opacity:1" d="M 691.595,941.243 737.049,968.605 z" id="boundary" inkscape:connector-curvature="0" />
	<path style="fill:none;stroke:red;stroke-width:1px;stroke-linecap:butt;stroke-linejoin:miter;stroke-opacity:1" d="M 691.595,941.243 654.651,953.787 z" id="boundary" inkscape:connector-curvature="0" />
	<path style="fill:none;stroke:red;stroke-width:1px;stroke-linecap:butt;stroke-linejoin:miter;stroke-opacity:1" d="M 737.049,968.605 758.849,954.4 z" id="boundary" inkscape:connector-curvature="0" />
	<path style="fill:none;stroke:red;stroke-width:1px;stroke-linecap:butt;stroke-linejoin:miter;stroke-opacity:1" d="M 758.849,954.4 800.764,964.653 z" id="boundary" inkscape:connector-curvature="0" />
	<path style="fill:none;stroke:red;stroke-width:1px;stroke-linecap:butt;stroke-linejoin:miter;stroke-opacity:1" d="M 800.764,964.653 827.301,943.189 z" id="boundary" inkscape:connector-curvature="0" />
	<path style="fill:none;stroke:red;stroke-width:1px;stroke-linecap:butt;stroke-linejoin:miter;stroke-opacity:1" d="M 827.301,943.189 856.109,955.7 z" id="boundary" inkscape:connector-curvature="0" />
	<path style="fill:none;stroke:red;stroke-width:1px;stroke-linecap:butt;stroke-linejoin:miter;stroke-opacity:1" d="M 932.275,713.723 916.075,737.079 z" id="boundary" inkscape:connector-curvature="0" />
	<path style="fill:none;stroke:red;stroke-width:1px;stroke-linecap:butt;stroke-linejoin:miter;stroke-opacity:1" d="M 932.275,713.723 915.599,671.685 z" id="boundary" inkscape:connector-curvature="0" />
	<path style="fill:none;stroke:red;stroke-width:1px;stroke-linecap:butt;stroke-linejoin:miter;stroke-opacity:1" d="M 914.23,790.491 925.903,832.763 z" id="boundary" inkscape:connector-curvature="0" />
	<path style="fill:none;stroke:red;stroke-width:1px;stroke-linecap:butt;stroke-linejoin:miter;stroke-opacity:1" d="M 910.342,777.931 916.075,737.079 z" id="boundary" inkscape:connector-curvature="0" />
	<path style="fill:none;stroke:red;stroke-width:1px;stroke-linecap:butt;stroke-linejoin:miter;stroke-opacity:1" d="M 918.509,855.664 925.903,832.763 z" id="boundary" inkscape:connector-curvature="0" />
	<path style="fill:none;stroke:red;stroke-width:1px;stroke-linecap:butt;stroke-linejoin:miter;stroke-opacity:1" d="M 918.509,855.664 914.492,887.865 z" id="boundary" inkscape:connector-curvature="0" />
	<path style="fill:none;stroke:red;stroke-width:1px;stroke-linecap:butt;stroke-linejoin:miter;stroke-opacity:1" d="M 904.228,926.925 916.058,912.655 z" id="boundary" inkscape:connector-curvature="0" />
	<path style="fill:none;stroke:red;stroke-width:1px;stroke-linecap:butt;stroke-linejoin:miter;stroke-opacity:1" d="M 916.058,912.655 914.492,887.865 z" id="boundary" inkscape:connector-curvature="0" />
	<path style="fill:none;stroke:red;stroke-width:1px;stroke-linecap:butt;stroke-linejoin:miter;stroke-opacity:1" d="M 904.228,926.925 893.622,947.52 z" id="boundary" inkscape:connector-curvature="0" />
	<path style="fill:none;stroke:red;stroke-width:1px;stroke-linecap:butt;stroke-linejoin:miter;stroke-opacity:1" d="M 856.109,955.7 893.622,947.52 z" id="boundary" inkscape:connector-curvature="0" />
	<circle cx="223.38" cy="432.208" r="4" fill="#0" id="circle0"/>
	<circle cx="239.034" cy="391.852" r="4" fill="#0" id="circle1"/>
	<circle cx="253.172" cy="379.966" r="4" fill="#0" id="circle2"/>
	<circle cx="287.632" cy="342.135" r="4" fill="#0" id="circle3"/>
	<circle cx="309.172" cy="320.923" r="4" fill="#0" id="circle4"/>
	<circle cx="330.782" cy="301.26" r="4" fill="#0" id="circle5"/>
	<circle cx="359.697" cy="287.942" r="4" fill="#0" id="circle6"/>
	<circle cx="375.474" cy="264.074" r="4" fill="#0" id="circle7"/>
	<circle cx="413.453" cy="260.074" r="4" fill="#0" id="circle8"/>
	<circle cx="451.554" cy="258.369" r="4" fill="#0" id="circle9"/>
	<circle cx="235.18" cy="463.355" r="4" fill="#0" id="circle10"/>
	<circle cx="217.792" cy="479.842" r="4" fill="#0" id="circle11"/>
	<circle cx="210.212" cy="522.527" r="4" fill="#0" id="circle12"/>
	<circle cx="210.942" cy="559.844" r="4" fill="#0" id="circle13"/>
	<circle cx="187.336" cy="588.604" r="4" fill="#0" id="circle14"/>
	<circle cx="207.587" cy="603.474" r="4" fill="#0" id="circle15"/>
	<circle cx="211.931" cy="647.606" r="4" fill="#0" id="circle16"/>
	<circle cx="226.533" cy="668.438" r="4" fill="#0" id="circle17"/>
	<circle cx="242.196" cy="680.938" r="4" fill="#0" id="circle18"/>
	<circle cx="261.761" cy="705.213" r="4" fill="#0" id="circle19"/>
	<circle cx="273.028" cy="729.933" r="4" fill="#0" id="circle20"/>
	<circle cx="295.269" cy="741.909" r="4" fill="#0" id="circle21"/>
	<circle cx="316.074" cy="775.355" r="4" fill="#0" id="circle22"/>
	<circle cx="321.81" cy="775.245" r="4" fill="#0" id="circle23"/>
	<circle cx="363.009" cy="788.525" r="4" fill="#0" id="circle24"/>
	<circle cx="377.649" cy="827.251" r="4" fill="#0" id="circle25"/>
	<circle cx="411.395" cy="823.328" r="4" fill="#0" id="circle26"/>
	<circle cx="421.819" cy="838.917" r="4" fill="#0" id="circle27"/>
	<circle cx="475.988" cy="853.725" r="4" fill="#0" id="circle28"/>
	<circle cx="494.681" cy="854.906" r="4" fill="#0" id="circle29"/>
	<circle cx="520.621" cy="830.257" r="4" fill="#0" id="circle30"/>
	<circle cx="528.444" cy="831.158" r="4" fill="#0" id="circle31"/>
	<circle cx="575.088" cy="833.733" r="4" fill="#0" id="circle32"/>
	<circle cx="601.522" cy="818.342" r="4" fill="#0" id="circle33"/>
	<circle cx="622.473" cy="811.453" r="4" fill="#0" id="circle34"/>
	<circle cx="648.987" cy="817.944" r="4" fill="#0" id="circle35"/>
	<circle cx="678.57" cy="772.547" r="4" fill="#0" id="circle36"/>
	<circle cx="686.331" cy="760.645" r="4" fill="#0" id="circle37"/>
	<circle cx="726.221" cy="743.713" r="4" fill="#0" id="circle38"/>
	<circle cx="465.05" cy="255.836" r="4" fill="#0" id="circle39"/>
	<circle cx="497.832" cy="258.594" r="4" fill="#0" id="circle40"/>
	<circle cx="533.944" cy="241.549" r="4" fill="#0" id="circle41"/>
	<circle cx="550.407" cy="261.181" r="4" fill="#0" id="circle42"/>
	<circle cx="596.092" cy="255.291" r="4" fill="#0" id="circle43"/>
	<circle cx="619.826" cy="273.834" r="4" fill="#0" id="circle44"/>
	<circle cx="628.045" cy="283.548" r="4" fill="#0" id="circle45"/>
	<circle cx="657.326" cy="290.317" r="4" fill="#0" id="circle46"/>
	<circle cx="678.518" cy="299.121" r="4" fill="#0" id="circle47"/>
	<circle cx="709.017" cy="327.943" r="4" fill="#0" id="circle48"/>
	<circle cx="683.626" cy="308.876" r="4" fill="#0" id="circle49"/>
	<circle cx="723.188" cy="357.139" r="4" fill="#0" id="circle50"/>
	<circle cx="721.061" cy="356.814" r="4" fill="#0" id="circle51"/>
	<circle cx="754.613" cy="377.855" r="4" fill="#0" id="circle52"/>
	<circle cx="755.315" cy="414.734" r="4" fill="#0" id="circle53"/>
	<circle cx="768.826" cy="438.812" r="4" fill="#0" id="circle54"/>
	<circle cx="776.06" cy="468.653" r="4" fill="#0" id="circle55"/>
	<circle cx="739.43" cy="732.95" r="4" fill="#0" id="circle56"/>
	<circle cx="758.231" cy="709.258" r="4" fill="#0" id="circle57"/>
	<circle cx="759.964" cy="683.118" r="4" fill="#0" id="circle58"/>
	<circle cx="785.749" cy="646.296" r="4" fill="#0" id="circle59"/>
	<circle cx="792.255" cy="638.119" r="4" fill="#0" id="circle60"/>
	<circle cx="788.652" cy="598.558" r="4" fill="#0" id="circle61"/>
	<circle cx="781.239" cy="569.137" r="4" fill="#0" id="circle62"/>
	<circle cx="789.395" cy="550.041" r="4" fill="#0" id="circle63"/>
	<circle cx="789.972" cy="516.352" r="4" fill="#0" id="circle64"/>
	<circle cx="794.119" cy="488.324" r="4" fill="#0" id="circle65"/>
	<circle cx="135.127" cy="175.369" r="4" fill="#0" id="circle66"/>
	<circle cx="145.688" cy="184.452" r="4" fill="#0" id="circle67"/>
	<circle cx="166.398" cy="146.353" r="4" fill="#0" id="circle68"/>
	<circle cx="187.68" cy="137.09" r="4" fill="#0" id="circle69"/>
	<circle cx="212.443" cy="117.418" r="4" fill="#0" id="circle70"/>
	<circle cx="236.546" cy="119.655" r="4" fill="#0" id="circle71"/>
	<circle cx="262.569" cy="116.723" r="4" fill="#0" id="circle72"/>
	<circle cx="252.738" cy="125.674" r="4" fill="#0" id="circle73"/>
	<circle cx="256.574" cy="143.979" r="4" fill="#0" id="circle74"/>
	<circle cx="257.039" cy="170.775" r="4" fill="#0" id="circle75"/>
	<circle cx="275.393" cy="217.127" r="4" fill="#0" id="circle76"/>
	<circle cx="260.278" cy="250.399" r="4" fill="#0" id="circle77"/>
	<circle cx="273.683" cy="278.698" r="4" fill="#0" id="circle78"/>
	<circle cx="263.05" cy="289.026" r="4" fill="#0" id="circle79"/>
	<circle cx="256.484" cy="315.447" r="4" fill="#0" id="circle80"/>
	<circle cx="148.416" cy="221.207" r="4" fill="#0" id="circle81"/>
	<circle cx="120.316" cy="246.974" r="4" fill="#0" id="circle82"/>
	<circle cx="123.304" cy="269.096" r="4" fill="#0" id="circle83"/>
	<circle cx="120.375" cy="293.366" r="4" fill="#0" id="circle84"/>
	<circle cx="123.832" cy="322.252" r="4" fill="#0" id="circle85"/>
	<circle cx="147.363" cy="322.651" r="4" fill="#0" id="circle86"/>
	<circle cx="131.346" cy="367.504" r="4" fill="#0" id="circle87"/>
	<circle cx="143.045" cy="384.095" r="4" fill="#0" id="circle88"/>
	<circle cx="145.008" cy="365.418" r="4" fill="#0" id="circle89"/>
	<circle cx="177.682" cy="364.449" r="4" fill="#0" id="circle90"/>
	<circle cx="192.853" cy="360.111" r="4" fill="#0" id="circle91"/>
	<circle cx="207.55" cy="362.645" r="4" fill="#0" id="circle92"/>
	<circle cx="229.432" cy="333.03" r="4" fill="#0" id="circle93"/>
	<circle cx="254.389" cy="323.123" r="4" fill="#0" id="circle94"/>
	<circle cx="742.953" cy="101.757" r="4" fill="#0" id="circle95"/>
	<circle cx="738.313" cy="137.894" r="4" fill="#0" id="circle96"/>
	<circle cx="757.661" cy="156.995" r="4" fill="#0" id="circle97"/>
	<circle cx="738.343" cy="174.503" r="4" fill="#0" id="circle98"/>
	<circle cx="734.905" cy="200.571" r="4" fill="#0" id="circle99"/>
	<circle cx="732.022" cy="220.569" r="4" fill="#0" id="circle100"/>
	<circle cx="731.737" cy="236.387" r="4" fill="#0" id="circle101"/>
	<circle cx="738.16" cy="270.751" r="4" fill="#0" id="circle102"/>
	<circle cx="754.17" cy="281.693" r="4" fill="#0" id="circle103"/>
	<circle cx="734.479" cy="322.125" r="4" fill="#0" id="circle104"/>
	<circle cx="738.626" cy="340.985" r="4" fill="#0" id="circle105"/>
	<circle cx="755.63" cy="347.375" r="4" fill="#0" id="circle106"/>
	<circle cx="773.677" cy="356.745" r="4" fill="#0" id="circle107"/>
	<circle cx="806.107" cy="370.818" r="4" fill="#0" id="circle108"/>
	<circle cx="829.477" cy="368.137" r="4" fill="#0" id="circle109"/>
	<circle cx="850.097" cy="381.75" r="4" fill="#0" id="circle110"/>
	<circle cx="866.982" cy="390.678" r="4" fill="#0" id="circle111"/>
	<circle cx="882.649" cy="178.927" r="4" fill="#0" id="circle112"/>
	<circle cx="866.018" cy="217.715" r="4" fill="#0" id="circle113"/>
	<circle cx="870.398" cy="227.028" r="4" fill="#0" id="circle114"/>
	<circle cx="859.906" cy="248.504" r="4" fill="#0" id="circle115"/>
	<circle cx="876.419" cy="258.883" r="4" fill="#0" id="circle116"/>
	<circle cx="873.752" cy="301.798" r="4" fill="#0" id="circle117"/>
	<circle cx="876.185" cy="307.961" r="4" fill="#0" id="circle118"/>
	<circle cx="862.923" cy="336.668" r="4" fill="#0" id="circle119"/>
	<circle cx="864.857" cy="349.884" r="4" fill="#0" id="circle120"/>
	<circle cx="870.114" cy="375.873" r="4" fill="#0" id="circle121"/>
	<circle cx="761.613" cy="128.862" r="4" fill="#0" id="circle122"/>
	<circle cx="778.168" cy="142.113" r="4" fill="#0" id="circle123"/>
	<circle cx="803.793" cy="133.722" r="4" fill="#0" id="circle124"/>
	<circle cx="820.238" cy="147.059" r="4" fill="#0" id="circle125"/>
	<circle cx="858.497" cy="174.642" r="4" fill="#0" id="circle126"/>
	<circle cx="67.4672" cy="370.648" r="4" fill="#0" id="circle127"/>
	<circle cx="47.7099" cy="378.763" r="4" fill="#0" id="circle128"/>
	<circle cx="40.3945" cy="396.293" r="4" fill="#0" id="circle129"/>
	<circle cx="30.7915" cy="400.816" r="4" fill="#0" id="circle130"/>
	<circle cx="38.0646" cy="435.933" r="4" fill="#0" id="circle131"/>
	<circle cx="41.3426" cy="458.169" r="4" fill="#0" id="circle132"/>
	<circle cx="47.5534" cy="450.823" r="4" fill="#0" id="circle133"/>
	<circle cx="33.6426" cy="487.385" r="4" fill="#0" id="circle134"/>
	<circle cx="49.2558" cy="498.915" r="4" fill="#0" id="circle135"/>
	<circle cx="47.1925" cy="505.552" r="4" fill="#0" id="circle136"/>
	<circle cx="58.8551" cy="516.171" r="4" fill="#0" id="circle137"/>
	<circle cx="65.2911" cy="389.251" r="4" fill="#0" id="circle138"/>
	<circle cx="77.4081" cy="409.56" r="4" fill="#0" id="circle139"/>
	<circle cx="59.6256" cy="433.421" r="4" fill="#0" id="circle140"/>
	<circle cx="61.5384" cy="437.443" r="4" fill="#0" id="circle141"/>
	<circle cx="78.8991" cy="458.096" r="4" fill="#0" id="circle142"/>
	<circle cx="57.9738" cy="457.921" r="4" fill="#0" id="circle143"/>
	<circle cx="60.8859" cy="480.346" r="4" fill="#0" id="circle144"/>
	<circle cx="941.028" cy="383.159" r="4" fill="#0" id="circle145"/>
	<circle cx="933.893" cy="403.086" r="4" fill="#0" id="circle146"/>
	<circle cx="918.704" cy="415.683" r="4" fill="#0" id="circle147"/>
	<circle cx="918.558" cy="457.371" r="4" fill="#0" id="circle148"/>
	<circle cx="920.412" cy="467.995" r="4" fill="#0" id="circle149"/>
	<circle cx="933.893" cy="481.807" r="4" fill="#0" id="circle150"/>
	<circle cx="917.261" cy="509.679" r="4" fill="#0" id="circle151"/>
	<circle cx="944.892" cy="522.468" r="4" fill="#0" id="circle152"/>
	<circle cx="966.929" cy="523.627" r="4" fill="#0" id="circle153"/>
	<circle cx="947.867" cy="496.537" r="4" fill="#0" id="circle154"/>
	<circle cx="961.107" cy="469.224" r="4" fill="#0" id="circle155"/>
	<circle cx="960.229" cy="466.748" r="4" fill="#0" id="circle156"/>
	<circle cx="968.8" cy="441.967" r="4" fill="#0" id="circle157"/>
	<circle cx="956.29" cy="439.143" r="4" fill="#0" id="circle158"/>
	<circle cx="942.041" cy="383.71" r="4" fill="#0" id="circle159"/>
	<circle cx="946.235" cy="379.764" r="4" fill="#0" id="circle160"/>
	<circle cx="971.211" cy="402.808" r="4" fill="#0" id="circle161"/>
	<circle cx="962.511" cy="416.121" r="4" fill="#0" id="circle162"/>
	<circle cx="73.2044" cy="152.238" r="4" fill="#0" id="circle163"/>
	<circle cx="85.7664" cy="127.314" r="4" fill="#0" id="circle164"/>
	<circle cx="86.3674" cy="119.275" r="4" fill="#0" id="circle165"/>
	<circle cx="112.995" cy="103.373" r="4" fill="#0" id="circle166"/>
	<circle cx="146.931" cy="100.042" r="4" fill="#0" id="circle167"/>
	<circle cx="170.849" cy="80.6679" r="4" fill="#0" id="circle168"/>
	<circle cx="194.404" cy="77.4266" r="4" fill="#0" id="circle169"/>
	<circle cx="239.742" cy="67.2096" r="4" fill="#0" id="circle170"/>
	<circle cx="272.653" cy="39.8487" r="4" fill="#0" id="circle171"/>
	<circle cx="297.439" cy="42.5459" r="4" fill="#0" id="circle172"/>
	<circle cx="334.748" cy="36.1469" r="4" fill="#0" id="circle173"/>
	<circle cx="368.576" cy="7.36491" r="4" fill="#0" id="circle174"/>
	<circle cx="407.818" cy="20.835" r="4" fill="#0" id="circle175"/>
	<circle cx="444.56" cy="5.00427" r="4" fill="#0" id="circle176"/>
	<circle cx="478.595" cy="19.0723" r="4" fill="#0" id="circle177"/>
	<circle cx="497.232" cy="4" r="4" fill="#0" id="circle178"/>
	<circle cx="541.238" cy="15.3482" r="4" fill="#0" id="circle179"/>
	<circle cx="575.414" cy="16.4693" r="4" fill="#0" id="circle180"/>
	<circle cx="611.502" cy="24.385" r="4" fill="#0" id="circle181"/>
	<circle cx="663.841" cy="32.1185" r="4" fill="#0" id="circle182"/>
	<circle cx="680.049" cy="30.6787" r="4" fill="#0" id="circle183"/>
	<circle cx="707.194" cy="45.8897" r="4" fill="#0" id="circle184"/>
	<circle cx="734.245" cy="63.1335" r="4" fill="#0" id="circle185"/>
	<circle cx="781.549" cy="77.26" r="4" fill="#0" id="circle186"/>
	<circle cx="800.814" cy="70.4777" r="4" fill="#0" id="circle187"/>
	<circle cx="838.793" cy="98.9734" r="4" fill="#0" id="circle188"/>
	<circle cx="846.767" cy="98.959" r="4" fill="#0" id="circle189"/>
	<circle cx="895.971" cy="120.447" r="4" fill="#0" id="circle190"/>
	<circle cx="892.844" cy="128.697" r="4" fill="#0" id="circle191"/>
	<circle cx="933.889" cy="149.156" r="4" fill="#0" id="circle192"/>
	<circle cx="937.273" cy="172.405" r="4" fill="#0" id="circle193"/>
	<circle cx="958.068" cy="185.711" r="4" fill="#0" id="circle194"/>
	<circle cx="938.473" cy="181.789" r="4" fill="#0" id="circle195"/>
	<circle cx="924.693" cy="212.513" r="4" fill="#0" id="circle196"/>
	<circle cx="70.8589" cy="185.257" r="4" fill="#0" id="circle197"/>
	<circle cx="73.9295" cy="172.551" r="4" fill="#0" id="circle198"/>
	<circle cx="65.2136" cy="201.72" r="4" fill="#0" id="circle199"/>
	<circle cx="83.1262" cy="215.354" r="4" fill="#0" id="circle200"/>
	<circle cx="70.6453" cy="240.482" r="4" fill="#0" id="circle201"/>
	<circle cx="67.8491" cy="265.025" r="4" fill="#0" id="circle202"/>
	<circle cx="75.7462" cy="268.346" r="4" fill="#0" id="circle203"/>
	<circle cx="71.0665" cy="306.676" r="4" fill="#0" id="circle204"/>
	<circle cx="69.8008" cy="312.287" r="4" fill="#0" id="circle205"/>
	<circle cx="67.2005" cy="333.88" r="4" fill="#0" id="circle206"/>
	<circle cx="940.322" cy="218.233" r="4" fill="#0" id="circle207"/>
	<circle cx="944.765" cy="267.469" r="4" fill="#0" id="circle208"/>
	<circle cx="916.879" cy="290.227" r="4" fill="#0" id="circle209"/>
	<circle cx="931.234" cy="312.216" r="4" fill="#0" id="circle210"/>
	<circle cx="921.863" cy="332.771" r="4" fill="#0" id="circle211"/>
	<circle cx="934.617" cy="336.796" r="4" fill="#0" id="circle212"/>
	<circle cx="58.2068" cy="336.166" r="4" fill="#0" id="circle213"/>
	<circle cx="36.726" cy="359.664" r="4" fill="#0" id="circle214"/>
	<circle cx="35.8828" cy="348.915" r="4" fill="#0" id="circle215"/>
	<circle cx="18.8227" cy="359.096" r="4" fill="#0" id="circle216"/>
	<circle cx="18.0522" cy="386.38" r="4" fill="#0" id="circle217"/>
	<circle cx="21.0435" cy="389.852" r="4" fill="#0" id="circle218"/>
	<circle cx="23.4414" cy="401.092" r="4" fill="#0" id="circle219"/>
	<circle cx="4" cy="413.977" r="4" fill="#0" id="circle220"/>
	<circle cx="19.8049" cy="437.9" r="4" fill="#0" id="circle221"/>
	<circle cx="16.6732" cy="451.112" r="4" fill="#0" id="circle222"/>
	<circle cx="18.9726" cy="466.526" r="4" fill="#0" id="circle223"/>
	<circle cx="10.7742" cy="483.378" r="4" fill="#0" id="circle224"/>
	<circle cx="10.1617" cy="505.989" r="4" fill="#0" id="circle225"/>
	<circle cx="14.9198" cy="506.583" r="4" fill="#0" id="circle226"/>
	<circle cx="18.1268" cy="513.389" r="4" fill="#0" id="circle227"/>
	<circle cx="33.4514" cy="526.349" r="4" fill="#0" id="circle228"/>
	<circle cx="37.2769" cy="521.369" r="4" fill="#0" id="circle229"/>
	<circle cx="46.5745" cy="526.701" r="4" fill="#0" id="circle230"/>
	<circle cx="58.0052" cy="540.223" r="4" fill="#0" id="circle231"/>
	<circle cx="926.776" cy="560.285" r="4" fill="#0" id="circle232"/>
	<circle cx="941.596" cy="539.878" r="4" fill="#0" id="circle233"/>
	<circle cx="952.202" cy="550.044" r="4" fill="#0" id="circle234"/>
	<circle cx="969.019" cy="551.916" r="4" fill="#0" id="circle235"/>
	<circle cx="980.318" cy="529.171" r="4" fill="#0" id="circle236"/>
	<circle cx="970.725" cy="512.657" r="4" fill="#0" id="circle237"/>
	<circle cx="991.878" cy="513.719" r="4" fill="#0" id="circle238"/>
	<circle cx="994.304" cy="478.359" r="4" fill="#0" id="circle239"/>
	<circle cx="990.935" cy="466.069" r="4" fill="#0" id="circle240"/>
	<circle cx="977.01" cy="449.828" r="4" fill="#0" id="circle241"/>
	<circle cx="996" cy="446.291" r="4" fill="#0" id="circle242"/>
	<circle cx="987.74" cy="424.063" r="4" fill="#0" id="circle243"/>
	<circle cx="978.231" cy="391.422" r="4" fill="#0" id="circle244"/>
	<circle cx="987.584" cy="387.813" r="4" fill="#0" id="circle245"/>
	<circle cx="967.328" cy="360.282" r="4" fill="#0" id="circle246"/>
	<circle cx="955.956" cy="368.597" r="4" fill="#0" id="circle247"/>
	<circle cx="936.735" cy="364.993" r="4" fill="#0" id="circle248"/>
	<circle cx="77.3922" cy="549.125" r="4" fill="#0" id="circle249"/>
	<circle cx="56.7948" cy="559.727" r="4" fill="#0" id="circle250"/>
	<circle cx="57.1025" cy="591.691" r="4" fill="#0" id="circle251"/>
	<circle cx="68.5942" cy="597.685" r="4" fill="#0" id="circle252"/>
	<circle cx="55.7093" cy="621.974" r="4" fill="#0" id="circle253"/>
	<circle cx="59.2392" cy="632.67" r="4" fill="#0" id="circle254"/>
	<circle cx="70.6274" cy="657.512" r="4" fill="#0" id="circle255"/>
	<circle cx="61.9816" cy="679.656" r="4" fill="#0" id="circle256"/>
	<circle cx="63.5307" cy="717.032" r="4" fill="#0" id="circle257"/>
	<circle cx="51.4519" cy="731.476" r="4" fill="#0" id="circle258"/>
	<circle cx="54.8467" cy="759.378" r="4" fill="#0" id="circle259"/>
	<circle cx="59.1092" cy="768.472" r="4" fill="#0" id="circle260"/>
	<circle cx="51.5409" cy="807.845" r="4" fill="#0" id="circle261"/>
	<circle cx="53.2124" cy="818.288" r="4" fill="#0" id="circle262"/>
	<circle cx="59.6369" cy="838.347" r="4" fill="#0" id="circle263"/>
	<circle cx="55.8983" cy="858.535" r="4" fill="#0" id="circle264"/>
	<circle cx="72.1722" cy="886.041" r="4" fill="#0" id="circle265"/>
	<circle cx="68.8794" cy="915.551" r="4" fill="#0" id="circle266"/>
	<circle cx="70.6319" cy="920.095" r="4" fill="#0" id="circle267"/>
	<circle cx="82.6295" cy="943.174" r="4" fill="#0" id="circle268"/>
	<circle cx="119.819" cy="944.598" r="4" fill="#0" id="circle269"/>
	<circle cx="146.543" cy="946.036" r="4" fill="#0" id="circle270"/>
	<circle cx="177.509" cy="961.892" r="4" fill="#0" id="circle271"/>
	<circle cx="210.494" cy="965.026" r="4" fill="#0" id="circle272"/>
	<circle cx="241.266" cy="954.198" r="4" fill="#0" id="circle273"/>
	<circle cx="278.824" cy="954.283" r="4" fill="#0" id="circle274"/>
	<circle cx="338.338" cy="954.968" r="4" fill="#0" id="circle275"/>
	<circle cx="368.671" cy="966.954" r="4" fill="#0" id="circle276"/>
	<circle cx="394.498" cy="957.824" r="4" fill="#0" id="circle277"/>
	<circle cx="440.432" cy="953.641" r="4" fill="#0" id="circle278"/>
	<circle cx="491.449" cy="954.702" r="4" fill="#0" id="circle279"/>
	<circle cx="534.486" cy="957.224" r="4" fill="#0" id="circle280"/>
	<circle cx="581.857" cy="946.431" r="4" fill="#0" id="circle281"/>
	<circle cx="613.76" cy="943.841" r="4" fill="#0" id="circle282"/>
	<circle cx="654.651" cy="953.787" r="4" fill="#0" id="circle283"/>
	<circle cx="691.595" cy="941.243" r="4" fill="#0" id="circle284"/>
	<circle cx="737.049" cy="968.605" r="4" fill="#0" id="circle285"/>
	<circle cx="758.849" cy="954.4" r="4" fill="#0" id="circle286"/>
	<circle cx="800.764" cy="964.653" r="4" fill="#0" id="circle287"/>
	<circle cx="827.301" cy="943.189" r="4" fill="#0" id="circle288"/>
	<circle cx="856.109" cy="955.7" r="4" fill="#0" id="circle289"/>
	<circle cx="893.622" cy="947.52" r="4" fill="#0" id="circle290"/>
	<circle cx="918.443" cy="549.954" r="4" fill="#0" id="circle291"/>
	<circle cx="917.548" cy="571.349" r="4" fill="#0" id="circle292"/>
	<circle cx="930.557" cy="602.284" r="4" fill="#0" id="circle293"/>
	<circle cx="936.016" cy="628.572" r="4" fill="#0" id="circle294"/>
	<circle cx="913.819" cy="655.913" r="4" fill="#0" id="circle295"/>
	<circle cx="915.599" cy="671.685" r="4" fill="#0" id="circle296"/>
	<circle cx="932.275" cy="713.723" r="4" fill="#0" id="circle297"/>
	<circle cx="916.075" cy="737.079" r="4" fill="#0" id="circle298"/>
	<circle cx="910.342" cy="777.931" r="4" fill="#0" id="circle299"/>
	<circle cx="914.23" cy="790.491" r="4" fill="#0" id="circle300"/>
	<circle cx="925.903" cy="832.763" r="4" fill="#0" id="circle301"/>
	<circle cx="918.509" cy="855.664" r="4" fill="#0" id="circle302"/>
	<circle cx="914.492" cy="887.865" r="4" fill="#0" id="circle303"/>
	<circle cx="916.058" cy="912.655" r="4" fill="#0" id="circle304"/>
	<circle cx="904.228" cy="926.925" r="4" fill="#0" id="circle305"/>
	</g>
</svg>