<?xml version="1.0" encoding="UTF-8" standalone="no"?>
<!-- Created with CurveBenchmark -->
<svg
	xmlns:dc="http://purl.org/dc/elements/1.1/"
	xmlns:cc="http://creativecommons.org/ns#"
	xmlns:rdf="http://www.w3.org/1999/02/22-rdf-syntax-ns#"
	xmlns:svg="http://www.w3.org/2000/svg"
	xmlns="http://www.w3.org/2000/svg"
	xmlns:sodipodi="http://sodipodi.sourceforge.net/DTD/sodipodi-0.dtd"
	xmlns:inkscape="http://www.inkscape.org/namespaces/inkscape"
	width="1000"
	height="1000"
	id="svg2"
	version="1.1"
	sodipodi:docname="noisy-0.01/stretchdenoise-mc3.txt">
<defs
	id="defs4" />
<metadata
	id="metadata7">
	<rdf:RDF>
		<cc:Work
			rdf:about="">
			<dc:format>image/svg+xml</dc:format>
			<dc:type
				rdf:resource="http://purl.org/dc/dcmitype/StillImage" />
			<dc:title></dc:title>
		</cc:Work>
	</rdf:RDF>
</metadata>
<g
	inkscape:label="Layer 1"
	inkscape:groupmode="layer"
	id="layer1">
	<path style="fill:none;stroke:red;stroke-width:1px;stroke-linecap:butt;stroke-linejoin:miter;stroke-opacity:1" d="M 421.901,427.962 428.424,360.191 z" id="boundary" inkscape:connector-curvature="0" />
	<path style="fill:none;stroke:red;stroke-width:1px;stroke-linecap:butt;stroke-linejoin:miter;stroke-opacity:1" d="M 421.901,427.962 416.914,447.793 z" id="boundary" inkscape:connector-curvature="0" />
	<path style="fill:none;stroke:red;stroke-width:1px;stroke-linecap:butt;stroke-linejoin:miter;stroke-opacity:1" d="M 428.424,360.191 417.91,318.963 z" id="boundary" inkscape:connector-curvature="0" />
	<path style="fill:none;stroke:red;stroke-width:1px;stroke-linecap:butt;stroke-linejoin:miter;stroke-opacity:1" d="M 417.91,318.963 421.509,268.216 z" id="boundary" inkscape:connector-curvature="0" />
	<path style="fill:none;stroke:red;stroke-width:1px;stroke-linecap:butt;stroke-linejoin:miter;stroke-opacity:1" d="M 421.509,268.216 398.604,235.579 z" id="boundary" inkscape:connector-curvature="0" />
	<path style="fill:none;stroke:red;stroke-width:1px;stroke-linecap:butt;stroke-linejoin:miter;stroke-opacity:1" d="M 398.604,235.579 359.824,212.497 z" id="boundary" inkscape:connector-curvature="0" />
	<path style="fill:none;stroke:red;stroke-width:1px;stroke-linecap:butt;stroke-linejoin:miter;stroke-opacity:1" d="M 359.824,212.497 327.903,201.67 z" id="boundary" inkscape:connector-curvature="0" />
	<path style="fill:none;stroke:red;stroke-width:1px;stroke-linecap:butt;stroke-linejoin:miter;stroke-opacity:1" d="M 327.903,201.67 278.439,194.101 z" id="boundary" inkscape:connector-curvature="0" />
	<path style="fill:none;stroke:red;stroke-width:1px;stroke-linecap:butt;stroke-linejoin:miter;stroke-opacity:1" d="M 278.439,194.101 255.627,210.062 z" id="boundary" inkscape:connector-curvature="0" />
	<path style="fill:none;stroke:red;stroke-width:1px;stroke-linecap:butt;stroke-linejoin:miter;stroke-opacity:1" d="M 255.627,210.062 234.246,227.138 z" id="boundary" inkscape:connector-curvature="0" />
	<path style="fill:none;stroke:red;stroke-width:1px;stroke-linecap:butt;stroke-linejoin:miter;stroke-opacity:1" d="M 234.246,227.138 204.409,256.41 z" id="boundary" inkscape:connector-curvature="0" />
	<path style="fill:none;stroke:red;stroke-width:1px;stroke-linecap:butt;stroke-linejoin:miter;stroke-opacity:1" d="M 204.409,256.41 169.572,268.985 z" id="boundary" inkscape:connector-curvature="0" />
	<path style="fill:none;stroke:red;stroke-width:1px;stroke-linecap:butt;stroke-linejoin:miter;stroke-opacity:1" d="M 169.572,268.985 135.742,311.597 z" id="boundary" inkscape:connector-curvature="0" />
	<path style="fill:none;stroke:red;stroke-width:1px;stroke-linecap:butt;stroke-linejoin:miter;stroke-opacity:1" d="M 135.742,311.597 104.964,352.92 z" id="boundary" inkscape:connector-curvature="0" />
	<path style="fill:none;stroke:red;stroke-width:1px;stroke-linecap:butt;stroke-linejoin:miter;stroke-opacity:1" d="M 104.964,352.92 54.7646,386.697 z" id="boundary" inkscape:connector-curvature="0" />
	<path style="fill:none;stroke:red;stroke-width:1px;stroke-linecap:butt;stroke-linejoin:miter;stroke-opacity:1" d="M 54.7646,386.697 48.8677,404.592 z" id="boundary" inkscape:connector-curvature="0" />
	<path style="fill:none;stroke:red;stroke-width:1px;stroke-linecap:butt;stroke-linejoin:miter;stroke-opacity:1" d="M 48.8677,404.592 32.1418,454.597 z" id="boundary" inkscape:connector-curvature="0" />
	<path style="fill:none;stroke:red;stroke-width:1px;stroke-linecap:butt;stroke-linejoin:miter;stroke-opacity:1" d="M 32.1418,454.597 19.1977,488.579 z" id="boundary" inkscape:connector-curvature="0" />
	<path style="fill:none;stroke:red;stroke-width:1px;stroke-linecap:butt;stroke-linejoin:miter;stroke-opacity:1" d="M 19.1977,488.579 17.8795,514.737 z" id="boundary" inkscape:connector-curvature="0" />
	<path style="fill:none;stroke:red;stroke-width:1px;stroke-linecap:butt;stroke-linejoin:miter;stroke-opacity:1" d="M 17.8795,514.737 16.4176,560.564 z" id="boundary" inkscape:connector-curvature="0" />
	<path style="fill:none;stroke:red;stroke-width:1px;stroke-linecap:butt;stroke-linejoin:miter;stroke-opacity:1" d="M 16.4176,560.564 6.49205,599.133 z" id="boundary" inkscape:connector-curvature="0" />
	<path style="fill:none;stroke:red;stroke-width:1px;stroke-linecap:butt;stroke-linejoin:miter;stroke-opacity:1" d="M 6.49205,599.133 9.94601,643.062 z" id="boundary" inkscape:connector-curvature="0" />
	<path style="fill:none;stroke:red;stroke-width:1px;stroke-linecap:butt;stroke-linejoin:miter;stroke-opacity:1" d="M 9.94601,643.062 14.9206,699.944 z" id="boundary" inkscape:connector-curvature="0" />
	<path style="fill:none;stroke:red;stroke-width:1px;stroke-linecap:butt;stroke-linejoin:miter;stroke-opacity:1" d="M 14.9206,699.944 4,722.858 z" id="boundary" inkscape:connector-curvature="0" />
	<path style="fill:none;stroke:red;stroke-width:1px;stroke-linecap:butt;stroke-linejoin:miter;stroke-opacity:1" d="M 4,722.858 29.5634,764.053 z" id="boundary" inkscape:connector-curvature="0" />
	<path style="fill:none;stroke:red;stroke-width:1px;stroke-linecap:butt;stroke-linejoin:miter;stroke-opacity:1" d="M 29.5634,764.053 24.0222,828.113 z" id="boundary" inkscape:connector-curvature="0" />
	<path style="fill:none;stroke:red;stroke-width:1px;stroke-linecap:butt;stroke-linejoin:miter;stroke-opacity:1" d="M 24.0222,828.113 43.7002,848.993 z" id="boundary" inkscape:connector-curvature="0" />
	<path style="fill:none;stroke:red;stroke-width:1px;stroke-linecap:butt;stroke-linejoin:miter;stroke-opacity:1" d="M 43.7002,848.993 40.2503,894.42 z" id="boundary" inkscape:connector-curvature="0" />
	<path style="fill:none;stroke:red;stroke-width:1px;stroke-linecap:butt;stroke-linejoin:miter;stroke-opacity:1" d="M 40.2503,894.42 85.7566,936.772 z" id="boundary" inkscape:connector-curvature="0" />
	<path style="fill:none;stroke:red;stroke-width:1px;stroke-linecap:butt;stroke-linejoin:miter;stroke-opacity:1" d="M 85.7566,936.772 104.699,974.085 z" id="boundary" inkscape:connector-curvature="0" />
	<path style="fill:none;stroke:red;stroke-width:1px;stroke-linecap:butt;stroke-linejoin:miter;stroke-opacity:1" d="M 104.699,974.085 142.253,970.112 z" id="boundary" inkscape:connector-curvature="0" />
	<path style="fill:none;stroke:red;stroke-width:1px;stroke-linecap:butt;stroke-linejoin:miter;stroke-opacity:1" d="M 142.253,970.112 157.242,987.393 z" id="boundary" inkscape:connector-curvature="0" />
	<path style="fill:none;stroke:red;stroke-width:1px;stroke-linecap:butt;stroke-linejoin:miter;stroke-opacity:1" d="M 157.242,987.393 208.026,996 z" id="boundary" inkscape:connector-curvature="0" />
	<path style="fill:none;stroke:red;stroke-width:1px;stroke-linecap:butt;stroke-linejoin:miter;stroke-opacity:1" d="M 208.026,996 236.56,982.915 z" id="boundary" inkscape:connector-curvature="0" />
	<path style="fill:none;stroke:red;stroke-width:1px;stroke-linecap:butt;stroke-linejoin:miter;stroke-opacity:1" d="M 236.56,982.915 264.298,957.445 z" id="boundary" inkscape:connector-curvature="0" />
	<path style="fill:none;stroke:red;stroke-width:1px;stroke-linecap:butt;stroke-linejoin:miter;stroke-opacity:1" d="M 264.298,957.445 284.761,937.973 z" id="boundary" inkscape:connector-curvature="0" />
	<path style="fill:none;stroke:red;stroke-width:1px;stroke-linecap:butt;stroke-linejoin:miter;stroke-opacity:1" d="M 284.761,937.973 294.353,873.104 z" id="boundary" inkscape:connector-curvature="0" />
	<path style="fill:none;stroke:red;stroke-width:1px;stroke-linecap:butt;stroke-linejoin:miter;stroke-opacity:1" d="M 294.353,873.104 282.543,833.386 z" id="boundary" inkscape:connector-curvature="0" />
	<path style="fill:none;stroke:red;stroke-width:1px;stroke-linecap:butt;stroke-linejoin:miter;stroke-opacity:1" d="M 282.543,833.386 302.082,794.372 z" id="boundary" inkscape:connector-curvature="0" />
	<path style="fill:none;stroke:red;stroke-width:1px;stroke-linecap:butt;stroke-linejoin:miter;stroke-opacity:1" d="M 302.082,794.372 299.316,759.444 z" id="boundary" inkscape:connector-curvature="0" />
	<path style="fill:none;stroke:red;stroke-width:1px;stroke-linecap:butt;stroke-linejoin:miter;stroke-opacity:1" d="M 299.316,759.444 303.216,722.598 z" id="boundary" inkscape:connector-curvature="0" />
	<path style="fill:none;stroke:red;stroke-width:1px;stroke-linecap:butt;stroke-linejoin:miter;stroke-opacity:1" d="M 303.216,722.598 317.05,669.643 z" id="boundary" inkscape:connector-curvature="0" />
	<path style="fill:none;stroke:red;stroke-width:1px;stroke-linecap:butt;stroke-linejoin:miter;stroke-opacity:1" d="M 317.05,669.643 315.113,642.772 z" id="boundary" inkscape:connector-curvature="0" />
	<path style="fill:none;stroke:red;stroke-width:1px;stroke-linecap:butt;stroke-linejoin:miter;stroke-opacity:1" d="M 315.113,642.772 345.636,592.219 z" id="boundary" inkscape:connector-curvature="0" />
	<path style="fill:none;stroke:red;stroke-width:1px;stroke-linecap:butt;stroke-linejoin:miter;stroke-opacity:1" d="M 345.636,592.219 356.298,564.648 z" id="boundary" inkscape:connector-curvature="0" />
	<path style="fill:none;stroke:red;stroke-width:1px;stroke-linecap:butt;stroke-linejoin:miter;stroke-opacity:1" d="M 356.298,564.648 360.637,528.835 z" id="boundary" inkscape:connector-curvature="0" />
	<path style="fill:none;stroke:red;stroke-width:1px;stroke-linecap:butt;stroke-linejoin:miter;stroke-opacity:1" d="M 360.637,528.835 391.618,486.353 z" id="boundary" inkscape:connector-curvature="0" />
	<path style="fill:none;stroke:red;stroke-width:1px;stroke-linecap:butt;stroke-linejoin:miter;stroke-opacity:1" d="M 391.618,486.353 416.914,447.793 z" id="boundary" inkscape:connector-curvature="0" />
	<path style="fill:none;stroke:red;stroke-width:1px;stroke-linecap:butt;stroke-linejoin:miter;stroke-opacity:1" d="M 640.427,445.545 637.803,383.354 z" id="boundary" inkscape:connector-curvature="0" />
	<path style="fill:none;stroke:red;stroke-width:1px;stroke-linecap:butt;stroke-linejoin:miter;stroke-opacity:1" d="M 640.427,445.545 626.75,489.343 z" id="boundary" inkscape:connector-curvature="0" />
	<path style="fill:none;stroke:red;stroke-width:1px;stroke-linecap:butt;stroke-linejoin:miter;stroke-opacity:1" d="M 637.803,383.354 639.862,348.231 z" id="boundary" inkscape:connector-curvature="0" />
	<path style="fill:none;stroke:red;stroke-width:1px;stroke-linecap:butt;stroke-linejoin:miter;stroke-opacity:1" d="M 639.862,348.231 623.465,283.286 z" id="boundary" inkscape:connector-curvature="0" />
	<path style="fill:none;stroke:red;stroke-width:1px;stroke-linecap:butt;stroke-linejoin:miter;stroke-opacity:1" d="M 623.465,283.286 640.336,245.837 z" id="boundary" inkscape:connector-curvature="0" />
	<path style="fill:none;stroke:red;stroke-width:1px;stroke-linecap:butt;stroke-linejoin:miter;stroke-opacity:1" d="M 640.336,245.837 619.729,216.19 z" id="boundary" inkscape:connector-curvature="0" />
	<path style="fill:none;stroke:red;stroke-width:1px;stroke-linecap:butt;stroke-linejoin:miter;stroke-opacity:1" d="M 619.729,216.19 613.317,187.077 z" id="boundary" inkscape:connector-curvature="0" />
	<path style="fill:none;stroke:red;stroke-width:1px;stroke-linecap:butt;stroke-linejoin:miter;stroke-opacity:1" d="M 613.317,187.077 601.725,153.078 z" id="boundary" inkscape:connector-curvature="0" />
	<path style="fill:none;stroke:red;stroke-width:1px;stroke-linecap:butt;stroke-linejoin:miter;stroke-opacity:1" d="M 601.725,153.078 609.318,115.044 z" id="boundary" inkscape:connector-curvature="0" />
	<path style="fill:none;stroke:red;stroke-width:1px;stroke-linecap:butt;stroke-linejoin:miter;stroke-opacity:1" d="M 609.318,115.044 626.978,73.3855 z" id="boundary" inkscape:connector-curvature="0" />
	<path style="fill:none;stroke:red;stroke-width:1px;stroke-linecap:butt;stroke-linejoin:miter;stroke-opacity:1" d="M 626.978,73.3855 641.325,34.4958 z" id="boundary" inkscape:connector-curvature="0" />
	<path style="fill:none;stroke:red;stroke-width:1px;stroke-linecap:butt;stroke-linejoin:miter;stroke-opacity:1" d="M 641.325,34.4958 685.261,5.21976 z" id="boundary" inkscape:connector-curvature="0" />
	<path style="fill:none;stroke:red;stroke-width:1px;stroke-linecap:butt;stroke-linejoin:miter;stroke-opacity:1" d="M 685.261,5.21976 718.613,19.7367 z" id="boundary" inkscape:connector-curvature="0" />
	<path style="fill:none;stroke:red;stroke-width:1px;stroke-linecap:butt;stroke-linejoin:miter;stroke-opacity:1" d="M 718.613,19.7367 741.071,4 z" id="boundary" inkscape:connector-curvature="0" />
	<path style="fill:none;stroke:red;stroke-width:1px;stroke-linecap:butt;stroke-linejoin:miter;stroke-opacity:1" d="M 741.071,4 760.855,13.1982 z" id="boundary" inkscape:connector-curvature="0" />
	<path style="fill:none;stroke:red;stroke-width:1px;stroke-linecap:butt;stroke-linejoin:miter;stroke-opacity:1" d="M 760.855,13.1982 798.903,47.6722 z" id="boundary" inkscape:connector-curvature="0" />
	<path style="fill:none;stroke:red;stroke-width:1px;stroke-linecap:butt;stroke-linejoin:miter;stroke-opacity:1" d="M 798.903,47.6722 828.623,77.8422 z" id="boundary" inkscape:connector-curvature="0" />
	<path style="fill:none;stroke:red;stroke-width:1px;stroke-linecap:butt;stroke-linejoin:miter;stroke-opacity:1" d="M 828.623,77.8422 872.703,118.376 z" id="boundary" inkscape:connector-curvature="0" />
	<path style="fill:none;stroke:red;stroke-width:1px;stroke-linecap:butt;stroke-linejoin:miter;stroke-opacity:1" d="M 872.703,118.376 883.962,153.065 z" id="boundary" inkscape:connector-curvature="0" />
	<path style="fill:none;stroke:red;stroke-width:1px;stroke-linecap:butt;stroke-linejoin:miter;stroke-opacity:1" d="M 883.962,153.065 911.634,179.896 z" id="boundary" inkscape:connector-curvature="0" />
	<path style="fill:none;stroke:red;stroke-width:1px;stroke-linecap:butt;stroke-linejoin:miter;stroke-opacity:1" d="M 911.634,179.896 926.385,213.229 z" id="boundary" inkscape:connector-curvature="0" />
	<path style="fill:none;stroke:red;stroke-width:1px;stroke-linecap:butt;stroke-linejoin:miter;stroke-opacity:1" d="M 926.385,213.229 937.579,249.586 z" id="boundary" inkscape:connector-curvature="0" />
	<path style="fill:none;stroke:red;stroke-width:1px;stroke-linecap:butt;stroke-linejoin:miter;stroke-opacity:1" d="M 937.579,249.586 950.555,285.962 z" id="boundary" inkscape:connector-curvature="0" />
	<path style="fill:none;stroke:red;stroke-width:1px;stroke-linecap:butt;stroke-linejoin:miter;stroke-opacity:1" d="M 950.555,285.962 963.419,331.047 z" id="boundary" inkscape:connector-curvature="0" />
	<path style="fill:none;stroke:red;stroke-width:1px;stroke-linecap:butt;stroke-linejoin:miter;stroke-opacity:1" d="M 963.419,331.047 965.263,379.083 z" id="boundary" inkscape:connector-curvature="0" />
	<path style="fill:none;stroke:red;stroke-width:1px;stroke-linecap:butt;stroke-linejoin:miter;stroke-opacity:1" d="M 965.263,379.083 956.884,398.776 z" id="boundary" inkscape:connector-curvature="0" />
	<path style="fill:none;stroke:red;stroke-width:1px;stroke-linecap:butt;stroke-linejoin:miter;stroke-opacity:1" d="M 956.884,398.776 964.28,451.844 z" id="boundary" inkscape:connector-curvature="0" />
	<path style="fill:none;stroke:red;stroke-width:1px;stroke-linecap:butt;stroke-linejoin:miter;stroke-opacity:1" d="M 964.28,451.844 957.747,517.108 z" id="boundary" inkscape:connector-curvature="0" />
	<path style="fill:none;stroke:red;stroke-width:1px;stroke-linecap:butt;stroke-linejoin:miter;stroke-opacity:1" d="M 957.747,517.108 967.544,569.356 z" id="boundary" inkscape:connector-curvature="0" />
	<path style="fill:none;stroke:red;stroke-width:1px;stroke-linecap:butt;stroke-linejoin:miter;stroke-opacity:1" d="M 967.544,569.356 940.02,609.443 z" id="boundary" inkscape:connector-curvature="0" />
	<path style="fill:none;stroke:red;stroke-width:1px;stroke-linecap:butt;stroke-linejoin:miter;stroke-opacity:1" d="M 940.02,609.443 938.424,642.732 z" id="boundary" inkscape:connector-curvature="0" />
	<path style="fill:none;stroke:red;stroke-width:1px;stroke-linecap:butt;stroke-linejoin:miter;stroke-opacity:1" d="M 938.424,642.732 906.618,660.802 z" id="boundary" inkscape:connector-curvature="0" />
	<path style="fill:none;stroke:red;stroke-width:1px;stroke-linecap:butt;stroke-linejoin:miter;stroke-opacity:1" d="M 906.618,660.802 880.768,699.343 z" id="boundary" inkscape:connector-curvature="0" />
	<path style="fill:none;stroke:red;stroke-width:1px;stroke-linecap:butt;stroke-linejoin:miter;stroke-opacity:1" d="M 880.768,699.343 867.122,747.342 z" id="boundary" inkscape:connector-curvature="0" />
	<path style="fill:none;stroke:red;stroke-width:1px;stroke-linecap:butt;stroke-linejoin:miter;stroke-opacity:1" d="M 867.122,747.342 811.218,781.082 z" id="boundary" inkscape:connector-curvature="0" />
	<path style="fill:none;stroke:red;stroke-width:1px;stroke-linecap:butt;stroke-linejoin:miter;stroke-opacity:1" d="M 811.218,781.082 780.98,811.275 z" id="boundary" inkscape:connector-curvature="0" />
	<path style="fill:none;stroke:red;stroke-width:1px;stroke-linecap:butt;stroke-linejoin:miter;stroke-opacity:1" d="M 780.98,811.275 748.237,827.252 z" id="boundary" inkscape:connector-curvature="0" />
	<path style="fill:none;stroke:red;stroke-width:1px;stroke-linecap:butt;stroke-linejoin:miter;stroke-opacity:1" d="M 748.237,827.252 714.971,830.251 z" id="boundary" inkscape:connector-curvature="0" />
	<path style="fill:none;stroke:red;stroke-width:1px;stroke-linecap:butt;stroke-linejoin:miter;stroke-opacity:1" d="M 714.971,830.251 709.084,801.546 z" id="boundary" inkscape:connector-curvature="0" />
	<path style="fill:none;stroke:red;stroke-width:1px;stroke-linecap:butt;stroke-linejoin:miter;stroke-opacity:1" d="M 709.084,801.546 661.307,804.508 z" id="boundary" inkscape:connector-curvature="0" />
	<path style="fill:none;stroke:red;stroke-width:1px;stroke-linecap:butt;stroke-linejoin:miter;stroke-opacity:1" d="M 661.307,804.508 639.909,761.908 z" id="boundary" inkscape:connector-curvature="0" />
	<path style="fill:none;stroke:red;stroke-width:1px;stroke-linecap:butt;stroke-linejoin:miter;stroke-opacity:1" d="M 639.909,761.908 603.477,716.838 z" id="boundary" inkscape:connector-curvature="0" />
	<path style="fill:none;stroke:red;stroke-width:1px;stroke-linecap:butt;stroke-linejoin:miter;stroke-opacity:1" d="M 603.477,716.838 604.738,689.181 z" id="boundary" inkscape:connector-curvature="0" />
	<path style="fill:none;stroke:red;stroke-width:1px;stroke-linecap:butt;stroke-linejoin:miter;stroke-opacity:1" d="M 604.738,689.181 593.41,651.658 z" id="boundary" inkscape:connector-curvature="0" />
	<path style="fill:none;stroke:red;stroke-width:1px;stroke-linecap:butt;stroke-linejoin:miter;stroke-opacity:1" d="M 593.41,651.658 593.937,617.609 z" id="boundary" inkscape:connector-curvature="0" />
	<path style="fill:none;stroke:red;stroke-width:1px;stroke-linecap:butt;stroke-linejoin:miter;stroke-opacity:1" d="M 593.937,617.609 605.258,564.457 z" id="boundary" inkscape:connector-curvature="0" />
	<path style="fill:none;stroke:red;stroke-width:1px;stroke-linecap:butt;stroke-linejoin:miter;stroke-opacity:1" d="M 605.258,564.457 620.257,519.455 z" id="boundary" inkscape:connector-curvature="0" />
	<path style="fill:none;stroke:red;stroke-width:1px;stroke-linecap:butt;stroke-linejoin:miter;stroke-opacity:1" d="M 620.257,519.455 626.75,489.343 z" id="boundary" inkscape:connector-curvature="0" />
	<circle cx="421.901" cy="427.962" r="4" fill="#0" id="circle0"/>
	<circle cx="428.424" cy="360.191" r="4" fill="#0" id="circle1"/>
	<circle cx="417.91" cy="318.963" r="4" fill="#0" id="circle2"/>
	<circle cx="421.509" cy="268.216" r="4" fill="#0" id="circle3"/>
	<circle cx="398.604" cy="235.579" r="4" fill="#0" id="circle4"/>
	<circle cx="359.824" cy="212.497" r="4" fill="#0" id="circle5"/>
	<circle cx="327.903" cy="201.67" r="4" fill="#0" id="circle6"/>
	<circle cx="278.439" cy="194.101" r="4" fill="#0" id="circle7"/>
	<circle cx="255.627" cy="210.062" r="4" fill="#0" id="circle8"/>
	<circle cx="234.246" cy="227.138" r="4" fill="#0" id="circle9"/>
	<circle cx="204.409" cy="256.41" r="4" fill="#0" id="circle10"/>
	<circle cx="169.572" cy="268.985" r="4" fill="#0" id="circle11"/>
	<circle cx="135.742" cy="311.597" r="4" fill="#0" id="circle12"/>
	<circle cx="104.964" cy="352.92" r="4" fill="#0" id="circle13"/>
	<circle cx="54.7646" cy="386.697" r="4" fill="#0" id="circle14"/>
	<circle cx="48.8677" cy="404.592" r="4" fill="#0" id="circle15"/>
	<circle cx="32.1418" cy="454.597" r="4" fill="#0" id="circle16"/>
	<circle cx="19.1977" cy="488.579" r="4" fill="#0" id="circle17"/>
	<circle cx="17.8795" cy="514.737" r="4" fill="#0" id="circle18"/>
	<circle cx="16.4176" cy="560.564" r="4" fill="#0" id="circle19"/>
	<circle cx="6.49205" cy="599.133" r="4" fill="#0" id="circle20"/>
	<circle cx="9.94601" cy="643.062" r="4" fill="#0" id="circle21"/>
	<circle cx="14.9206" cy="699.944" r="4" fill="#0" id="circle22"/>
	<circle cx="4" cy="722.858" r="4" fill="#0" id="circle23"/>
	<circle cx="29.5634" cy="764.053" r="4" fill="#0" id="circle24"/>
	<circle cx="24.0222" cy="828.113" r="4" fill="#0" id="circle25"/>
	<circle cx="43.7002" cy="848.993" r="4" fill="#0" id="circle26"/>
	<circle cx="40.2503" cy="894.42" r="4" fill="#0" id="circle27"/>
	<circle cx="85.7566" cy="936.772" r="4" fill="#0" id="circle28"/>
	<circle cx="104.699" cy="974.085" r="4" fill="#0" id="circle29"/>
	<circle cx="142.253" cy="970.112" r="4" fill="#0" id="circle30"/>
	<circle cx="157.242" cy="987.393" r="4" fill="#0" id="circle31"/>
	<circle cx="208.026" cy="996" r="4" fill="#0" id="circle32"/>
	<circle cx="236.56" cy="982.915" r="4" fill="#0" id="circle33"/>
	<circle cx="264.298" cy="957.445" r="4" fill="#0" id="circle34"/>
	<circle cx="284.761" cy="937.973" r="4" fill="#0" id="circle35"/>
	<circle cx="294.353" cy="873.104" r="4" fill="#0" id="circle36"/>
	<circle cx="282.543" cy="833.386" r="4" fill="#0" id="circle37"/>
	<circle cx="302.082" cy="794.372" r="4" fill="#0" id="circle38"/>
	<circle cx="299.316" cy="759.444" r="4" fill="#0" id="circle39"/>
	<circle cx="303.216" cy="722.598" r="4" fill="#0" id="circle40"/>
	<circle cx="317.05" cy="669.643" r="4" fill="#0" id="circle41"/>
	<circle cx="315.113" cy="642.772" r="4" fill="#0" id="circle42"/>
	<circle cx="345.636" cy="592.219" r="4" fill="#0" id="circle43"/>
	<circle cx="356.298" cy="564.648" r="4" fill="#0" id="circle44"/>
	<circle cx="360.637" cy="528.835" r="4" fill="#0" id="circle45"/>
	<circle cx="391.618" cy="486.353" r="4" fill="#0" id="circle46"/>
	<circle cx="416.914" cy="447.793" r="4" fill="#0" id="circle47"/>
	<circle cx="640.427" cy="445.545" r="4" fill="#0" id="circle48"/>
	<circle cx="637.803" cy="383.354" r="4" fill="#0" id="circle49"/>
	<circle cx="639.862" cy="348.231" r="4" fill="#0" id="circle50"/>
	<circle cx="623.465" cy="283.286" r="4" fill="#0" id="circle51"/>
	<circle cx="640.336" cy="245.837" r="4" fill="#0" id="circle52"/>
	<circle cx="619.729" cy="216.19" r="4" fill="#0" id="circle53"/>
	<circle cx="613.317" cy="187.077" r="4" fill="#0" id="circle54"/>
	<circle cx="601.725" cy="153.078" r="4" fill="#0" id="circle55"/>
	<circle cx="609.318" cy="115.044" r="4" fill="#0" id="circle56"/>
	<circle cx="626.978" cy="73.3855" r="4" fill="#0" id="circle57"/>
	<circle cx="641.325" cy="34.4958" r="4" fill="#0" id="circle58"/>
	<circle cx="685.261" cy="5.21976" r="4" fill="#0" id="circle59"/>
	<circle cx="718.613" cy="19.7367" r="4" fill="#0" id="circle60"/>
	<circle cx="741.071" cy="4" r="4" fill="#0" id="circle61"/>
	<circle cx="760.855" cy="13.1982" r="4" fill="#0" id="circle62"/>
	<circle cx="798.903" cy="47.6722" r="4" fill="#0" id="circle63"/>
	<circle cx="828.623" cy="77.8422" r="4" fill="#0" id="circle64"/>
	<circle cx="872.703" cy="118.376" r="4" fill="#0" id="circle65"/>
	<circle cx="883.962" cy="153.065" r="4" fill="#0" id="circle66"/>
	<circle cx="911.634" cy="179.896" r="4" fill="#0" id="circle67"/>
	<circle cx="926.385" cy="213.229" r="4" fill="#0" id="circle68"/>
	<circle cx="937.579" cy="249.586" r="4" fill="#0" id="circle69"/>
	<circle cx="950.555" cy="285.962" r="4" fill="#0" id="circle70"/>
	<circle cx="963.419" cy="331.047" r="4" fill="#0" id="circle71"/>
	<circle cx="965.263" cy="379.083" r="4" fill="#0" id="circle72"/>
	<circle cx="956.884" cy="398.776" r="4" fill="#0" id="circle73"/>
	<circle cx="964.28" cy="451.844" r="4" fill="#0" id="circle74"/>
	<circle cx="957.747" cy="517.108" r="4" fill="#0" id="circle75"/>
	<circle cx="967.544" cy="569.356" r="4" fill="#0" id="circle76"/>
	<circle cx="940.02" cy="609.443" r="4" fill="#0" id="circle77"/>
	<circle cx="938.424" cy="642.732" r="4" fill="#0" id="circle78"/>
	<circle cx="906.618" cy="660.802" r="4" fill="#0" id="circle79"/>
	<circle cx="880.768" cy="699.343" r="4" fill="#0" id="circle80"/>
	<circle cx="867.122" cy="747.342" r="4" fill="#0" id="circle81"/>
	<circle cx="811.218" cy="781.082" r="4" fill="#0" id="circle82"/>
	<circle cx="780.98" cy="811.275" r="4" fill="#0" id="circle83"/>
	<circle cx="748.237" cy="827.252" r="4" fill="#0" id="circle84"/>
	<circle cx="714.971" cy="830.251" r="4" fill="#0" id="circle85"/>
	<circle cx="709.084" cy="801.546" r="4" fill="#0" id="circle86"/>
	<circle cx="661.307" cy="804.508" r="4" fill="#0" id="circle87"/>
	<circle cx="639.909" cy="761.908" r="4" fill="#0" id="circle88"/>
	<circle cx="603.477" cy="716.838" r="4" fill="#0" id="circle89"/>
	<circle cx="604.738" cy="689.181" r="4" fill="#0" id="circle90"/>
	<circle cx="593.41" cy="651.658" r="4" fill="#0" id="circle91"/>
	<circle cx="593.937" cy="617.609" r="4" fill="#0" id="circle92"/>
	<circle cx="605.258" cy="564.457" r="4" fill="#0" id="circle93"/>
	<circle cx="620.257" cy="519.455" r="4" fill="#0" id="circle94"/>
	<circle cx="626.75" cy="489.343" r="4" fill="#0" id="circle95"/>
	</g>
</svg>