<?xml version="1.0" encoding="UTF-8" standalone="no"?>
<!-- Created with CurveBenchmark -->
<svg
	xmlns:dc="http://purl.org/dc/elements/1.1/"
	xmlns:cc="http://creativecommons.org/ns#"
	xmlns:rdf="http://www.w3.org/1999/02/22-rdf-syntax-ns#"
	xmlns:svg="http://www.w3.org/2000/svg"
	xmlns="http://www.w3.org/2000/svg"
	xmlns:sodipodi="http://sodipodi.sourceforge.net/DTD/sodipodi-0.dtd"
	xmlns:inkscape="http://www.inkscape.org/namespaces/inkscape"
	width="1000"
	height="1000"
	id="svg2"
	version="1.1"
	sodipodi:docname="noisy-0.01/vicur-mc8.txt">
<defs
	id="defs4" />
<metadata
	id="metadata7">
	<rdf:RDF>
		<cc:Work
			rdf:about="">
			<dc:format>image/svg+xml</dc:format>
			<dc:type
				rdf:resource="http://purl.org/dc/dcmitype/StillImage" />
			<dc:title></dc:title>
		</cc:Work>
	</rdf:RDF>
</metadata>
<g
	inkscape:label="Layer 1"
	inkscape:groupmode="layer"
	id="layer1">
	<path style="fill:none;stroke:red;stroke-width:1px;stroke-linecap:butt;stroke-linejoin:miter;stroke-opacity:1" d="M 31.2627,22.3827 16.5272,53.9085 z" id="boundary" inkscape:connector-curvature="0" />
	<path style="fill:none;stroke:red;stroke-width:1px;stroke-linecap:butt;stroke-linejoin:miter;stroke-opacity:1" d="M 31.2627,22.3827 26.0662,59.3085 z" id="boundary" inkscape:connector-curvature="0" />
	<path style="fill:none;stroke:red;stroke-width:1px;stroke-linecap:butt;stroke-linejoin:miter;stroke-opacity:1" d="M 26.0662,59.3085 22.5763,84.4161 z" id="boundary" inkscape:connector-curvature="0" />
	<path style="fill:none;stroke:red;stroke-width:1px;stroke-linecap:butt;stroke-linejoin:miter;stroke-opacity:1" d="M 22.5763,84.4161 14.2766,100.62 z" id="boundary" inkscape:connector-curvature="0" />
	<path style="fill:none;stroke:red;stroke-width:1px;stroke-linecap:butt;stroke-linejoin:miter;stroke-opacity:1" d="M 14.2766,100.62 17.1038,123.246 z" id="boundary" inkscape:connector-curvature="0" />
	<path style="fill:none;stroke:red;stroke-width:1px;stroke-linecap:butt;stroke-linejoin:miter;stroke-opacity:1" d="M 17.1038,123.246 4,129.574 z" id="boundary" inkscape:connector-curvature="0" />
	<path style="fill:none;stroke:red;stroke-width:1px;stroke-linecap:butt;stroke-linejoin:miter;stroke-opacity:1" d="M 4,129.574 20.1665,154.296 z" id="boundary" inkscape:connector-curvature="0" />
	<path style="fill:none;stroke:red;stroke-width:1px;stroke-linecap:butt;stroke-linejoin:miter;stroke-opacity:1" d="M 20.1665,154.296 37.5032,175.151 z" id="boundary" inkscape:connector-curvature="0" />
	<path style="fill:none;stroke:red;stroke-width:1px;stroke-linecap:butt;stroke-linejoin:miter;stroke-opacity:1" d="M 37.5032,175.151 47.2251,200.73 z" id="boundary" inkscape:connector-curvature="0" />
	<path style="fill:none;stroke:red;stroke-width:1px;stroke-linecap:butt;stroke-linejoin:miter;stroke-opacity:1" d="M 47.2251,200.73 52.4094,204.723 z" id="boundary" inkscape:connector-curvature="0" />
	<path style="fill:none;stroke:red;stroke-width:1px;stroke-linecap:butt;stroke-linejoin:miter;stroke-opacity:1" d="M 52.4094,204.723 60.1415,231.287 z" id="boundary" inkscape:connector-curvature="0" />
	<path style="fill:none;stroke:red;stroke-width:1px;stroke-linecap:butt;stroke-linejoin:miter;stroke-opacity:1" d="M 60.1415,231.287 69.0368,256.704 z" id="boundary" inkscape:connector-curvature="0" />
	<path style="fill:none;stroke:red;stroke-width:1px;stroke-linecap:butt;stroke-linejoin:miter;stroke-opacity:1" d="M 69.0368,256.704 75.8567,271.25 z" id="boundary" inkscape:connector-curvature="0" />
	<path style="fill:none;stroke:red;stroke-width:1px;stroke-linecap:butt;stroke-linejoin:miter;stroke-opacity:1" d="M 75.8567,271.25 83.2179,299.681 z" id="boundary" inkscape:connector-curvature="0" />
	<path style="fill:none;stroke:red;stroke-width:1px;stroke-linecap:butt;stroke-linejoin:miter;stroke-opacity:1" d="M 83.2179,299.681 87.5246,308.745 z" id="boundary" inkscape:connector-curvature="0" />
	<path style="fill:none;stroke:red;stroke-width:1px;stroke-linecap:butt;stroke-linejoin:miter;stroke-opacity:1" d="M 87.5246,308.745 99.3592,310.638 z" id="boundary" inkscape:connector-curvature="0" />
	<path style="fill:none;stroke:red;stroke-width:1px;stroke-linecap:butt;stroke-linejoin:miter;stroke-opacity:1" d="M 99.3592,310.638 112.627,332.135 z" id="boundary" inkscape:connector-curvature="0" />
	<path style="fill:none;stroke:red;stroke-width:1px;stroke-linecap:butt;stroke-linejoin:miter;stroke-opacity:1" d="M 112.627,332.135 118.255,348.61 z" id="boundary" inkscape:connector-curvature="0" />
	<path style="fill:none;stroke:red;stroke-width:1px;stroke-linecap:butt;stroke-linejoin:miter;stroke-opacity:1" d="M 118.255,348.61 134.582,361.998 z" id="boundary" inkscape:connector-curvature="0" />
	<path style="fill:none;stroke:red;stroke-width:1px;stroke-linecap:butt;stroke-linejoin:miter;stroke-opacity:1" d="M 134.582,361.998 147.382,390.328 z" id="boundary" inkscape:connector-curvature="0" />
	<path style="fill:none;stroke:red;stroke-width:1px;stroke-linecap:butt;stroke-linejoin:miter;stroke-opacity:1" d="M 147.382,390.328 172.472,406.578 z" id="boundary" inkscape:connector-curvature="0" />
	<path style="fill:none;stroke:red;stroke-width:1px;stroke-linecap:butt;stroke-linejoin:miter;stroke-opacity:1" d="M 172.472,406.578 172.526,443.047 z" id="boundary" inkscape:connector-curvature="0" />
	<path style="fill:none;stroke:red;stroke-width:1px;stroke-linecap:butt;stroke-linejoin:miter;stroke-opacity:1" d="M 172.526,443.047 183.109,469.33 z" id="boundary" inkscape:connector-curvature="0" />
	<path style="fill:none;stroke:red;stroke-width:1px;stroke-linecap:butt;stroke-linejoin:miter;stroke-opacity:1" d="M 190.77,448.286 183.109,469.33 z" id="boundary" inkscape:connector-curvature="0" />
	<path style="fill:none;stroke:red;stroke-width:1px;stroke-linecap:butt;stroke-linejoin:miter;stroke-opacity:1" d="M 213.711,489.093 215.34,506.096 z" id="boundary" inkscape:connector-curvature="0" />
	<path style="fill:none;stroke:red;stroke-width:1px;stroke-linecap:butt;stroke-linejoin:miter;stroke-opacity:1" d="M 213.711,489.093 234.001,496.465 z" id="boundary" inkscape:connector-curvature="0" />
	<path style="fill:none;stroke:red;stroke-width:1px;stroke-linecap:butt;stroke-linejoin:miter;stroke-opacity:1" d="M 215.34,506.096 230.486,512.622 z" id="boundary" inkscape:connector-curvature="0" />
	<path style="fill:none;stroke:red;stroke-width:1px;stroke-linecap:butt;stroke-linejoin:miter;stroke-opacity:1" d="M 234.001,496.465 230.486,512.622 z" id="boundary" inkscape:connector-curvature="0" />
	<path style="fill:none;stroke:red;stroke-width:1px;stroke-linecap:butt;stroke-linejoin:miter;stroke-opacity:1" d="M 261.236,523.722 268.375,531.337 z" id="boundary" inkscape:connector-curvature="0" />
	<path style="fill:none;stroke:red;stroke-width:1px;stroke-linecap:butt;stroke-linejoin:miter;stroke-opacity:1" d="M 268.375,531.337 276.436,541.881 z" id="boundary" inkscape:connector-curvature="0" />
	<path style="fill:none;stroke:red;stroke-width:1px;stroke-linecap:butt;stroke-linejoin:miter;stroke-opacity:1" d="M 276.436,541.881 294.041,565.878 z" id="boundary" inkscape:connector-curvature="0" />
	<path style="fill:none;stroke:red;stroke-width:1px;stroke-linecap:butt;stroke-linejoin:miter;stroke-opacity:1" d="M 294.041,565.878 328.407,566.849 z" id="boundary" inkscape:connector-curvature="0" />
	<path style="fill:none;stroke:red;stroke-width:1px;stroke-linecap:butt;stroke-linejoin:miter;stroke-opacity:1" d="M 328.407,566.849 364.365,572.984 z" id="boundary" inkscape:connector-curvature="0" />
	<path style="fill:none;stroke:red;stroke-width:1px;stroke-linecap:butt;stroke-linejoin:miter;stroke-opacity:1" d="M 364.365,572.984 371.876,589.211 z" id="boundary" inkscape:connector-curvature="0" />
	<path style="fill:none;stroke:red;stroke-width:1px;stroke-linecap:butt;stroke-linejoin:miter;stroke-opacity:1" d="M 371.876,589.211 390.402,600.509 z" id="boundary" inkscape:connector-curvature="0" />
	<path style="fill:none;stroke:red;stroke-width:1px;stroke-linecap:butt;stroke-linejoin:miter;stroke-opacity:1" d="M 390.402,600.509 418.089,602.959 z" id="boundary" inkscape:connector-curvature="0" />
	<path style="fill:none;stroke:red;stroke-width:1px;stroke-linecap:butt;stroke-linejoin:miter;stroke-opacity:1" d="M 418.089,602.959 449.599,593.756 z" id="boundary" inkscape:connector-curvature="0" />
	<path style="fill:none;stroke:red;stroke-width:1px;stroke-linecap:butt;stroke-linejoin:miter;stroke-opacity:1" d="M 449.599,593.756 444.907,613.741 z" id="boundary" inkscape:connector-curvature="0" />
	<path style="fill:none;stroke:red;stroke-width:1px;stroke-linecap:butt;stroke-linejoin:miter;stroke-opacity:1" d="M 444.907,613.741 421.47,629.355 z" id="boundary" inkscape:connector-curvature="0" />
	<path style="fill:none;stroke:red;stroke-width:1px;stroke-linecap:butt;stroke-linejoin:miter;stroke-opacity:1" d="M 421.47,629.355 419.117,637.37 z" id="boundary" inkscape:connector-curvature="0" />
	<path style="fill:none;stroke:red;stroke-width:1px;stroke-linecap:butt;stroke-linejoin:miter;stroke-opacity:1" d="M 419.117,637.37 414.72,645.595 z" id="boundary" inkscape:connector-curvature="0" />
	<path style="fill:none;stroke:red;stroke-width:1px;stroke-linecap:butt;stroke-linejoin:miter;stroke-opacity:1" d="M 414.72,645.595 402.6,659.845 z" id="boundary" inkscape:connector-curvature="0" />
	<path style="fill:none;stroke:red;stroke-width:1px;stroke-linecap:butt;stroke-linejoin:miter;stroke-opacity:1" d="M 402.6,659.845 382.273,665.65 z" id="boundary" inkscape:connector-curvature="0" />
	<path style="fill:none;stroke:red;stroke-width:1px;stroke-linecap:butt;stroke-linejoin:miter;stroke-opacity:1" d="M 382.273,665.65 372.541,689.678 z" id="boundary" inkscape:connector-curvature="0" />
	<path style="fill:none;stroke:red;stroke-width:1px;stroke-linecap:butt;stroke-linejoin:miter;stroke-opacity:1" d="M 372.541,689.678 353,695.992 z" id="boundary" inkscape:connector-curvature="0" />
	<path style="fill:none;stroke:red;stroke-width:1px;stroke-linecap:butt;stroke-linejoin:miter;stroke-opacity:1" d="M 353,695.992 335.681,725.352 z" id="boundary" inkscape:connector-curvature="0" />
	<path style="fill:none;stroke:red;stroke-width:1px;stroke-linecap:butt;stroke-linejoin:miter;stroke-opacity:1" d="M 335.681,725.352 339.508,745.581 z" id="boundary" inkscape:connector-curvature="0" />
	<path style="fill:none;stroke:red;stroke-width:1px;stroke-linecap:butt;stroke-linejoin:miter;stroke-opacity:1" d="M 339.508,745.581 350.125,759.714 z" id="boundary" inkscape:connector-curvature="0" />
	<path style="fill:none;stroke:red;stroke-width:1px;stroke-linecap:butt;stroke-linejoin:miter;stroke-opacity:1" d="M 350.125,759.714 378.364,769.975 z" id="boundary" inkscape:connector-curvature="0" />
	<path style="fill:none;stroke:red;stroke-width:1px;stroke-linecap:butt;stroke-linejoin:miter;stroke-opacity:1" d="M 378.364,769.975 404.607,776.937 z" id="boundary" inkscape:connector-curvature="0" />
	<path style="fill:none;stroke:red;stroke-width:1px;stroke-linecap:butt;stroke-linejoin:miter;stroke-opacity:1" d="M 404.607,776.937 420.005,778.348 z" id="boundary" inkscape:connector-curvature="0" />
	<path style="fill:none;stroke:red;stroke-width:1px;stroke-linecap:butt;stroke-linejoin:miter;stroke-opacity:1" d="M 420.005,778.348 452.733,769.327 z" id="boundary" inkscape:connector-curvature="0" />
	<path style="fill:none;stroke:red;stroke-width:1px;stroke-linecap:butt;stroke-linejoin:miter;stroke-opacity:1" d="M 452.733,769.327 475.773,790.571 z" id="boundary" inkscape:connector-curvature="0" />
	<path style="fill:none;stroke:red;stroke-width:1px;stroke-linecap:butt;stroke-linejoin:miter;stroke-opacity:1" d="M 475.773,790.571 488.94,779.577 z" id="boundary" inkscape:connector-curvature="0" />
	<path style="fill:none;stroke:red;stroke-width:1px;stroke-linecap:butt;stroke-linejoin:miter;stroke-opacity:1" d="M 488.94,779.577 502.961,773.551 z" id="boundary" inkscape:connector-curvature="0" />
	<path style="fill:none;stroke:red;stroke-width:1px;stroke-linecap:butt;stroke-linejoin:miter;stroke-opacity:1" d="M 502.961,773.551 531.871,784.116 z" id="boundary" inkscape:connector-curvature="0" />
	<path style="fill:none;stroke:red;stroke-width:1px;stroke-linecap:butt;stroke-linejoin:miter;stroke-opacity:1" d="M 531.871,784.116 554.892,784.481 z" id="boundary" inkscape:connector-curvature="0" />
	<path style="fill:none;stroke:red;stroke-width:1px;stroke-linecap:butt;stroke-linejoin:miter;stroke-opacity:1" d="M 554.892,784.481 586.059,787.905 z" id="boundary" inkscape:connector-curvature="0" />
	<path style="fill:none;stroke:red;stroke-width:1px;stroke-linecap:butt;stroke-linejoin:miter;stroke-opacity:1" d="M 586.059,787.905 601.785,782.668 z" id="boundary" inkscape:connector-curvature="0" />
	<path style="fill:none;stroke:red;stroke-width:1px;stroke-linecap:butt;stroke-linejoin:miter;stroke-opacity:1" d="M 601.785,782.668 632.361,763.847 z" id="boundary" inkscape:connector-curvature="0" />
	<path style="fill:none;stroke:red;stroke-width:1px;stroke-linecap:butt;stroke-linejoin:miter;stroke-opacity:1" d="M 632.361,763.847 652.766,752.443 z" id="boundary" inkscape:connector-curvature="0" />
	<path style="fill:none;stroke:red;stroke-width:1px;stroke-linecap:butt;stroke-linejoin:miter;stroke-opacity:1" d="M 652.766,752.443 671.523,743.796 z" id="boundary" inkscape:connector-curvature="0" />
	<path style="fill:none;stroke:red;stroke-width:1px;stroke-linecap:butt;stroke-linejoin:miter;stroke-opacity:1" d="M 671.523,743.796 686.924,718.92 z" id="boundary" inkscape:connector-curvature="0" />
	<path style="fill:none;stroke:red;stroke-width:1px;stroke-linecap:butt;stroke-linejoin:miter;stroke-opacity:1" d="M 686.924,718.92 685.832,708.306 z" id="boundary" inkscape:connector-curvature="0" />
	<path style="fill:none;stroke:red;stroke-width:1px;stroke-linecap:butt;stroke-linejoin:miter;stroke-opacity:1" d="M 685.832,708.306 674.507,702.222 z" id="boundary" inkscape:connector-curvature="0" />
	<path style="fill:none;stroke:red;stroke-width:1px;stroke-linecap:butt;stroke-linejoin:miter;stroke-opacity:1" d="M 647.394,678.347 636.145,660.946 z" id="boundary" inkscape:connector-curvature="0" />
	<path style="fill:none;stroke:red;stroke-width:1px;stroke-linecap:butt;stroke-linejoin:miter;stroke-opacity:1" d="M 647.394,678.347 610.824,663.761 z" id="boundary" inkscape:connector-curvature="0" />
	<path style="fill:none;stroke:red;stroke-width:1px;stroke-linecap:butt;stroke-linejoin:miter;stroke-opacity:1" d="M 636.145,660.946 616.845,656.295 z" id="boundary" inkscape:connector-curvature="0" />
	<path style="fill:none;stroke:red;stroke-width:1px;stroke-linecap:butt;stroke-linejoin:miter;stroke-opacity:1" d="M 616.845,656.295 586.756,637.351 z" id="boundary" inkscape:connector-curvature="0" />
	<path style="fill:none;stroke:red;stroke-width:1px;stroke-linecap:butt;stroke-linejoin:miter;stroke-opacity:1" d="M 610.824,663.761 583.672,653.675 z" id="boundary" inkscape:connector-curvature="0" />
	<path style="fill:none;stroke:red;stroke-width:1px;stroke-linecap:butt;stroke-linejoin:miter;stroke-opacity:1" d="M 583.672,653.675 586.756,637.351 z" id="boundary" inkscape:connector-curvature="0" />
	<path style="fill:none;stroke:red;stroke-width:1px;stroke-linecap:butt;stroke-linejoin:miter;stroke-opacity:1" d="M 571.995,600.538 588.913,598.859 z" id="boundary" inkscape:connector-curvature="0" />
	<path style="fill:none;stroke:red;stroke-width:1px;stroke-linecap:butt;stroke-linejoin:miter;stroke-opacity:1" d="M 588.913,598.859 614.37,601.19 z" id="boundary" inkscape:connector-curvature="0" />
	<path style="fill:none;stroke:red;stroke-width:1px;stroke-linecap:butt;stroke-linejoin:miter;stroke-opacity:1" d="M 614.37,601.19 638.504,594.949 z" id="boundary" inkscape:connector-curvature="0" />
	<path style="fill:none;stroke:red;stroke-width:1px;stroke-linecap:butt;stroke-linejoin:miter;stroke-opacity:1" d="M 638.504,594.949 657.169,593.456 z" id="boundary" inkscape:connector-curvature="0" />
	<path style="fill:none;stroke:red;stroke-width:1px;stroke-linecap:butt;stroke-linejoin:miter;stroke-opacity:1" d="M 657.169,593.456 673.516,586.421 z" id="boundary" inkscape:connector-curvature="0" />
	<path style="fill:none;stroke:red;stroke-width:1px;stroke-linecap:butt;stroke-linejoin:miter;stroke-opacity:1" d="M 714.995,560.131 714.985,570.556 z" id="boundary" inkscape:connector-curvature="0" />
	<path style="fill:none;stroke:red;stroke-width:1px;stroke-linecap:butt;stroke-linejoin:miter;stroke-opacity:1" d="M 714.995,560.131 739.854,539.709 z" id="boundary" inkscape:connector-curvature="0" />
	<path style="fill:none;stroke:red;stroke-width:1px;stroke-linecap:butt;stroke-linejoin:miter;stroke-opacity:1" d="M 739.854,539.709 770.199,536.553 z" id="boundary" inkscape:connector-curvature="0" />
	<path style="fill:none;stroke:red;stroke-width:1px;stroke-linecap:butt;stroke-linejoin:miter;stroke-opacity:1" d="M 770.199,536.553 796.483,519.975 z" id="boundary" inkscape:connector-curvature="0" />
	<path style="fill:none;stroke:red;stroke-width:1px;stroke-linecap:butt;stroke-linejoin:miter;stroke-opacity:1" d="M 796.483,519.975 813.566,488.668 z" id="boundary" inkscape:connector-curvature="0" />
	<path style="fill:none;stroke:red;stroke-width:1px;stroke-linecap:butt;stroke-linejoin:miter;stroke-opacity:1" d="M 813.566,488.668 830.759,467.974 z" id="boundary" inkscape:connector-curvature="0" />
	<path style="fill:none;stroke:red;stroke-width:1px;stroke-linecap:butt;stroke-linejoin:miter;stroke-opacity:1" d="M 830.759,467.974 837.066,459.343 z" id="boundary" inkscape:connector-curvature="0" />
	<path style="fill:none;stroke:red;stroke-width:1px;stroke-linecap:butt;stroke-linejoin:miter;stroke-opacity:1" d="M 837.066,459.343 842.641,449.148 z" id="boundary" inkscape:connector-curvature="0" />
	<path style="fill:none;stroke:red;stroke-width:1px;stroke-linecap:butt;stroke-linejoin:miter;stroke-opacity:1" d="M 842.641,449.148 870.39,429.722 z" id="boundary" inkscape:connector-curvature="0" />
	<path style="fill:none;stroke:red;stroke-width:1px;stroke-linecap:butt;stroke-linejoin:miter;stroke-opacity:1" d="M 870.39,429.722 865.157,410.468 z" id="boundary" inkscape:connector-curvature="0" />
	<path style="fill:none;stroke:red;stroke-width:1px;stroke-linecap:butt;stroke-linejoin:miter;stroke-opacity:1" d="M 865.157,410.468 875.659,398.042 z" id="boundary" inkscape:connector-curvature="0" />
	<path style="fill:none;stroke:red;stroke-width:1px;stroke-linecap:butt;stroke-linejoin:miter;stroke-opacity:1" d="M 875.659,398.042 882.858,382.147 z" id="boundary" inkscape:connector-curvature="0" />
	<path style="fill:none;stroke:red;stroke-width:1px;stroke-linecap:butt;stroke-linejoin:miter;stroke-opacity:1" d="M 882.858,382.147 892.988,358.042 z" id="boundary" inkscape:connector-curvature="0" />
	<path style="fill:none;stroke:red;stroke-width:1px;stroke-linecap:butt;stroke-linejoin:miter;stroke-opacity:1" d="M 892.988,358.042 912.077,352.169 z" id="boundary" inkscape:connector-curvature="0" />
	<path style="fill:none;stroke:red;stroke-width:1px;stroke-linecap:butt;stroke-linejoin:miter;stroke-opacity:1" d="M 912.077,352.169 922.943,329.839 z" id="boundary" inkscape:connector-curvature="0" />
	<path style="fill:none;stroke:red;stroke-width:1px;stroke-linecap:butt;stroke-linejoin:miter;stroke-opacity:1" d="M 932.923,327.375 922.943,329.839 z" id="boundary" inkscape:connector-curvature="0" />
	<path style="fill:none;stroke:red;stroke-width:1px;stroke-linecap:butt;stroke-linejoin:miter;stroke-opacity:1" d="M 932.923,327.375 937.168,307.46 z" id="boundary" inkscape:connector-curvature="0" />
	<path style="fill:none;stroke:red;stroke-width:1px;stroke-linecap:butt;stroke-linejoin:miter;stroke-opacity:1" d="M 937.168,307.46 947.54,291.496 z" id="boundary" inkscape:connector-curvature="0" />
	<path style="fill:none;stroke:red;stroke-width:1px;stroke-linecap:butt;stroke-linejoin:miter;stroke-opacity:1" d="M 947.54,291.496 955.618,271.209 z" id="boundary" inkscape:connector-curvature="0" />
	<path style="fill:none;stroke:red;stroke-width:1px;stroke-linecap:butt;stroke-linejoin:miter;stroke-opacity:1" d="M 955.618,271.209 973.173,253.625 z" id="boundary" inkscape:connector-curvature="0" />
	<path style="fill:none;stroke:red;stroke-width:1px;stroke-linecap:butt;stroke-linejoin:miter;stroke-opacity:1" d="M 973.173,253.625 982.854,220.527 z" id="boundary" inkscape:connector-curvature="0" />
	<path style="fill:none;stroke:red;stroke-width:1px;stroke-linecap:butt;stroke-linejoin:miter;stroke-opacity:1" d="M 982.854,220.527 988.965,197.057 z" id="boundary" inkscape:connector-curvature="0" />
	<path style="fill:none;stroke:red;stroke-width:1px;stroke-linecap:butt;stroke-linejoin:miter;stroke-opacity:1" d="M 988.965,197.057 985.047,166 z" id="boundary" inkscape:connector-curvature="0" />
	<path style="fill:none;stroke:red;stroke-width:1px;stroke-linecap:butt;stroke-linejoin:miter;stroke-opacity:1" d="M 985.047,166 994.126,155.306 z" id="boundary" inkscape:connector-curvature="0" />
	<path style="fill:none;stroke:red;stroke-width:1px;stroke-linecap:butt;stroke-linejoin:miter;stroke-opacity:1" d="M 994.126,155.306 986.387,143.155 z" id="boundary" inkscape:connector-curvature="0" />
	<path style="fill:none;stroke:red;stroke-width:1px;stroke-linecap:butt;stroke-linejoin:miter;stroke-opacity:1" d="M 986.387,143.155 995.894,106.465 z" id="boundary" inkscape:connector-curvature="0" />
	<path style="fill:none;stroke:red;stroke-width:1px;stroke-linecap:butt;stroke-linejoin:miter;stroke-opacity:1" d="M 995.894,106.465 984.023,90.2913 z" id="boundary" inkscape:connector-curvature="0" />
	<path style="fill:none;stroke:red;stroke-width:1px;stroke-linecap:butt;stroke-linejoin:miter;stroke-opacity:1" d="M 984.023,90.2913 996,50.7393 z" id="boundary" inkscape:connector-curvature="0" />
	<path style="fill:none;stroke:red;stroke-width:1px;stroke-linecap:butt;stroke-linejoin:miter;stroke-opacity:1" d="M 996,50.7393 979.344,19.1824 z" id="boundary" inkscape:connector-curvature="0" />
	<path style="fill:none;stroke:red;stroke-width:1px;stroke-linecap:butt;stroke-linejoin:miter;stroke-opacity:1" d="M 979.344,19.1824 950.644,13.539 z" id="boundary" inkscape:connector-curvature="0" />
	<path style="fill:none;stroke:red;stroke-width:1px;stroke-linecap:butt;stroke-linejoin:miter;stroke-opacity:1" d="M 950.644,13.539 933.233,4 z" id="boundary" inkscape:connector-curvature="0" />
	<path style="fill:none;stroke:red;stroke-width:1px;stroke-linecap:butt;stroke-linejoin:miter;stroke-opacity:1" d="M 933.233,4 918.365,8.46856 z" id="boundary" inkscape:connector-curvature="0" />
	<path style="fill:none;stroke:red;stroke-width:1px;stroke-linecap:butt;stroke-linejoin:miter;stroke-opacity:1" d="M 918.365,8.46856 896.146,14.8277 z" id="boundary" inkscape:connector-curvature="0" />
	<path style="fill:none;stroke:red;stroke-width:1px;stroke-linecap:butt;stroke-linejoin:miter;stroke-opacity:1" d="M 896.146,14.8277 880.613,16.7346 z" id="boundary" inkscape:connector-curvature="0" />
	<path style="fill:none;stroke:red;stroke-width:1px;stroke-linecap:butt;stroke-linejoin:miter;stroke-opacity:1" d="M 880.613,16.7346 864.225,32.9958 z" id="boundary" inkscape:connector-curvature="0" />
	<path style="fill:none;stroke:red;stroke-width:1px;stroke-linecap:butt;stroke-linejoin:miter;stroke-opacity:1" d="M 864.225,32.9958 842.835,54.6316 z" id="boundary" inkscape:connector-curvature="0" />
	<path style="fill:none;stroke:red;stroke-width:1px;stroke-linecap:butt;stroke-linejoin:miter;stroke-opacity:1" d="M 862.565,55.8772 842.835,54.6316 z" id="boundary" inkscape:connector-curvature="0" />
	<path style="fill:none;stroke:red;stroke-width:1px;stroke-linecap:butt;stroke-linejoin:miter;stroke-opacity:1" d="M 862.565,55.8772 878.953,61.9148 z" id="boundary" inkscape:connector-curvature="0" />
	<path style="fill:none;stroke:red;stroke-width:1px;stroke-linecap:butt;stroke-linejoin:miter;stroke-opacity:1" d="M 829.918,80.2154 824.742,98.1791 z" id="boundary" inkscape:connector-curvature="0" />
	<path style="fill:none;stroke:red;stroke-width:1px;stroke-linecap:butt;stroke-linejoin:miter;stroke-opacity:1" d="M 829.918,80.2154 811.991,100.861 z" id="boundary" inkscape:connector-curvature="0" />
	<path style="fill:none;stroke:red;stroke-width:1px;stroke-linecap:butt;stroke-linejoin:miter;stroke-opacity:1" d="M 824.742,98.1791 813.783,126.39 z" id="boundary" inkscape:connector-curvature="0" />
	<path style="fill:none;stroke:red;stroke-width:1px;stroke-linecap:butt;stroke-linejoin:miter;stroke-opacity:1" d="M 811.991,100.861 813.783,126.39 z" id="boundary" inkscape:connector-curvature="0" />
	<path style="fill:none;stroke:red;stroke-width:1px;stroke-linecap:butt;stroke-linejoin:miter;stroke-opacity:1" d="M 802.726,197.749 784.465,213.307 z" id="boundary" inkscape:connector-curvature="0" />
	<path style="fill:none;stroke:red;stroke-width:1px;stroke-linecap:butt;stroke-linejoin:miter;stroke-opacity:1" d="M 802.726,197.749 843.272,191.705 z" id="boundary" inkscape:connector-curvature="0" />
	<path style="fill:none;stroke:red;stroke-width:1px;stroke-linecap:butt;stroke-linejoin:miter;stroke-opacity:1" d="M 784.465,213.307 780.565,242.323 z" id="boundary" inkscape:connector-curvature="0" />
	<path style="fill:none;stroke:red;stroke-width:1px;stroke-linecap:butt;stroke-linejoin:miter;stroke-opacity:1" d="M 780.565,242.323 771.247,260.416 z" id="boundary" inkscape:connector-curvature="0" />
	<path style="fill:none;stroke:red;stroke-width:1px;stroke-linecap:butt;stroke-linejoin:miter;stroke-opacity:1" d="M 771.247,260.416 744.242,264.232 z" id="boundary" inkscape:connector-curvature="0" />
	<path style="fill:none;stroke:red;stroke-width:1px;stroke-linecap:butt;stroke-linejoin:miter;stroke-opacity:1" d="M 72.2397,24.5114 72.2417,29.1853 z" id="boundary" inkscape:connector-curvature="0" />
	<path style="fill:none;stroke:red;stroke-width:1px;stroke-linecap:butt;stroke-linejoin:miter;stroke-opacity:1" d="M 72.2397,24.5114 94.267,24.2414 z" id="boundary" inkscape:connector-curvature="0" />
	<path style="fill:none;stroke:red;stroke-width:1px;stroke-linecap:butt;stroke-linejoin:miter;stroke-opacity:1" d="M 72.2417,29.1853 78.513,93.3751 z" id="boundary" inkscape:connector-curvature="0" />
	<path style="fill:none;stroke:red;stroke-width:1px;stroke-linecap:butt;stroke-linejoin:miter;stroke-opacity:1" d="M 94.267,24.2414 120.563,25.934 z" id="boundary" inkscape:connector-curvature="0" />
	<path style="fill:none;stroke:red;stroke-width:1px;stroke-linecap:butt;stroke-linejoin:miter;stroke-opacity:1" d="M 125.11,28.1812 120.563,25.934 z" id="boundary" inkscape:connector-curvature="0" />
	<path style="fill:none;stroke:red;stroke-width:1px;stroke-linecap:butt;stroke-linejoin:miter;stroke-opacity:1" d="M 125.11,28.1812 136.936,42.9618 z" id="boundary" inkscape:connector-curvature="0" />
	<path style="fill:none;stroke:red;stroke-width:1px;stroke-linecap:butt;stroke-linejoin:miter;stroke-opacity:1" d="M 162.961,56.4478 167.875,67.377 z" id="boundary" inkscape:connector-curvature="0" />
	<path style="fill:none;stroke:red;stroke-width:1px;stroke-linecap:butt;stroke-linejoin:miter;stroke-opacity:1" d="M 167.875,67.377 163.7,75.3205 z" id="boundary" inkscape:connector-curvature="0" />
	<path style="fill:none;stroke:red;stroke-width:1px;stroke-linecap:butt;stroke-linejoin:miter;stroke-opacity:1" d="M 163.7,75.3205 175.599,106.366 z" id="boundary" inkscape:connector-curvature="0" />
	<path style="fill:none;stroke:red;stroke-width:1px;stroke-linecap:butt;stroke-linejoin:miter;stroke-opacity:1" d="M 175.599,106.366 183.889,112.514 z" id="boundary" inkscape:connector-curvature="0" />
	<path style="fill:none;stroke:red;stroke-width:1px;stroke-linecap:butt;stroke-linejoin:miter;stroke-opacity:1" d="M 183.889,112.514 192.486,132.278 z" id="boundary" inkscape:connector-curvature="0" />
	<path style="fill:none;stroke:red;stroke-width:1px;stroke-linecap:butt;stroke-linejoin:miter;stroke-opacity:1" d="M 192.486,132.278 209.393,154.55 z" id="boundary" inkscape:connector-curvature="0" />
	<path style="fill:none;stroke:red;stroke-width:1px;stroke-linecap:butt;stroke-linejoin:miter;stroke-opacity:1" d="M 209.393,154.55 224.389,178.58 z" id="boundary" inkscape:connector-curvature="0" />
	<path style="fill:none;stroke:red;stroke-width:1px;stroke-linecap:butt;stroke-linejoin:miter;stroke-opacity:1" d="M 224.389,178.58 226.699,200.311 z" id="boundary" inkscape:connector-curvature="0" />
	<path style="fill:none;stroke:red;stroke-width:1px;stroke-linecap:butt;stroke-linejoin:miter;stroke-opacity:1" d="M 226.699,200.311 234.108,232.402 z" id="boundary" inkscape:connector-curvature="0" />
	<path style="fill:none;stroke:red;stroke-width:1px;stroke-linecap:butt;stroke-linejoin:miter;stroke-opacity:1" d="M 234.108,232.402 246.962,238.971 z" id="boundary" inkscape:connector-curvature="0" />
	<path style="fill:none;stroke:red;stroke-width:1px;stroke-linecap:butt;stroke-linejoin:miter;stroke-opacity:1" d="M 246.962,238.971 264.973,251.117 z" id="boundary" inkscape:connector-curvature="0" />
	<path style="fill:none;stroke:red;stroke-width:1px;stroke-linecap:butt;stroke-linejoin:miter;stroke-opacity:1" d="M 238.157,265.809 254.433,256.937 z" id="boundary" inkscape:connector-curvature="0" />
	<path style="fill:none;stroke:red;stroke-width:1px;stroke-linecap:butt;stroke-linejoin:miter;stroke-opacity:1" d="M 254.433,256.937 264.973,251.117 z" id="boundary" inkscape:connector-curvature="0" />
	<path style="fill:none;stroke:red;stroke-width:1px;stroke-linecap:butt;stroke-linejoin:miter;stroke-opacity:1" d="M 299.625,263.727 309.667,264.611 z" id="boundary" inkscape:connector-curvature="0" />
	<path style="fill:none;stroke:red;stroke-width:1px;stroke-linecap:butt;stroke-linejoin:miter;stroke-opacity:1" d="M 309.667,264.611 338.44,258.607 z" id="boundary" inkscape:connector-curvature="0" />
	<path style="fill:none;stroke:red;stroke-width:1px;stroke-linecap:butt;stroke-linejoin:miter;stroke-opacity:1" d="M 338.44,258.607 358.559,248.75 z" id="boundary" inkscape:connector-curvature="0" />
	<path style="fill:none;stroke:red;stroke-width:1px;stroke-linecap:butt;stroke-linejoin:miter;stroke-opacity:1" d="M 358.559,248.75 383.374,245.472 z" id="boundary" inkscape:connector-curvature="0" />
	<path style="fill:none;stroke:red;stroke-width:1px;stroke-linecap:butt;stroke-linejoin:miter;stroke-opacity:1" d="M 383.374,245.472 413.302,254.314 z" id="boundary" inkscape:connector-curvature="0" />
	<path style="fill:none;stroke:red;stroke-width:1px;stroke-linecap:butt;stroke-linejoin:miter;stroke-opacity:1" d="M 413.302,254.314 432.295,246.183 z" id="boundary" inkscape:connector-curvature="0" />
	<path style="fill:none;stroke:red;stroke-width:1px;stroke-linecap:butt;stroke-linejoin:miter;stroke-opacity:1" d="M 432.295,246.183 443.349,256.224 z" id="boundary" inkscape:connector-curvature="0" />
	<path style="fill:none;stroke:red;stroke-width:1px;stroke-linecap:butt;stroke-linejoin:miter;stroke-opacity:1" d="M 443.349,256.224 469.635,262.546 z" id="boundary" inkscape:connector-curvature="0" />
	<path style="fill:none;stroke:red;stroke-width:1px;stroke-linecap:butt;stroke-linejoin:miter;stroke-opacity:1" d="M 469.635,262.546 488.807,246.475 z" id="boundary" inkscape:connector-curvature="0" />
	<path style="fill:none;stroke:red;stroke-width:1px;stroke-linecap:butt;stroke-linejoin:miter;stroke-opacity:1" d="M 488.807,246.475 498.827,255.486 z" id="boundary" inkscape:connector-curvature="0" />
	<path style="fill:none;stroke:red;stroke-width:1px;stroke-linecap:butt;stroke-linejoin:miter;stroke-opacity:1" d="M 498.827,255.486 516.076,262.079 z" id="boundary" inkscape:connector-curvature="0" />
	<path style="fill:none;stroke:red;stroke-width:1px;stroke-linecap:butt;stroke-linejoin:miter;stroke-opacity:1" d="M 516.076,262.079 531.752,240.907 z" id="boundary" inkscape:connector-curvature="0" />
	<path style="fill:none;stroke:red;stroke-width:1px;stroke-linecap:butt;stroke-linejoin:miter;stroke-opacity:1" d="M 531.752,240.907 567.041,243.599 z" id="boundary" inkscape:connector-curvature="0" />
	<path style="fill:none;stroke:red;stroke-width:1px;stroke-linecap:butt;stroke-linejoin:miter;stroke-opacity:1" d="M 567.041,243.599 595.934,248.66 z" id="boundary" inkscape:connector-curvature="0" />
	<path style="fill:none;stroke:red;stroke-width:1px;stroke-linecap:butt;stroke-linejoin:miter;stroke-opacity:1" d="M 595.934,248.66 621.546,259.15 z" id="boundary" inkscape:connector-curvature="0" />
	<path style="fill:none;stroke:red;stroke-width:1px;stroke-linecap:butt;stroke-linejoin:miter;stroke-opacity:1" d="M 621.546,259.15 636.986,252.024 z" id="boundary" inkscape:connector-curvature="0" />
	<path style="fill:none;stroke:red;stroke-width:1px;stroke-linecap:butt;stroke-linejoin:miter;stroke-opacity:1" d="M 636.986,252.024 648.231,252.822 z" id="boundary" inkscape:connector-curvature="0" />
	<path style="fill:none;stroke:red;stroke-width:1px;stroke-linecap:butt;stroke-linejoin:miter;stroke-opacity:1" d="M 681.017,256.183 683.637,248.334 z" id="boundary" inkscape:connector-curvature="0" />
	<path style="fill:none;stroke:red;stroke-width:1px;stroke-linecap:butt;stroke-linejoin:miter;stroke-opacity:1" d="M 683.637,248.334 693.662,255.876 z" id="boundary" inkscape:connector-curvature="0" />
	<path style="fill:none;stroke:red;stroke-width:1px;stroke-linecap:butt;stroke-linejoin:miter;stroke-opacity:1" d="M 693.662,255.876 713.937,260.951 z" id="boundary" inkscape:connector-curvature="0" />
	<path style="fill:none;stroke:red;stroke-width:1px;stroke-linecap:butt;stroke-linejoin:miter;stroke-opacity:1" d="M 713.937,260.951 744.242,264.232 z" id="boundary" inkscape:connector-curvature="0" />
	<path style="fill:none;stroke:red;stroke-width:1px;stroke-linecap:butt;stroke-linejoin:miter;stroke-opacity:1" d="M 99.4457,93.8007 95.7199,113.354 z" id="boundary" inkscape:connector-curvature="0" />
	<path style="fill:none;stroke:red;stroke-width:1px;stroke-linecap:butt;stroke-linejoin:miter;stroke-opacity:1" d="M 99.4457,93.8007 112.235,84.5548 z" id="boundary" inkscape:connector-curvature="0" />
	<path style="fill:none;stroke:red;stroke-width:1px;stroke-linecap:butt;stroke-linejoin:miter;stroke-opacity:1" d="M 78.513,93.3751 70.5448,121.651 z" id="boundary" inkscape:connector-curvature="0" />
	<path style="fill:none;stroke:red;stroke-width:1px;stroke-linecap:butt;stroke-linejoin:miter;stroke-opacity:1" d="M 95.7199,113.354 90.0159,142.322 z" id="boundary" inkscape:connector-curvature="0" />
	<path style="fill:none;stroke:red;stroke-width:1px;stroke-linecap:butt;stroke-linejoin:miter;stroke-opacity:1" d="M 70.5448,121.651 76.8778,165.014 z" id="boundary" inkscape:connector-curvature="0" />
	<path style="fill:none;stroke:red;stroke-width:1px;stroke-linecap:butt;stroke-linejoin:miter;stroke-opacity:1" d="M 90.0159,142.322 97.7428,170.912 z" id="boundary" inkscape:connector-curvature="0" />
	<path style="fill:none;stroke:red;stroke-width:1px;stroke-linecap:butt;stroke-linejoin:miter;stroke-opacity:1" d="M 76.8778,165.014 88.1502,203.521 z" id="boundary" inkscape:connector-curvature="0" />
	<path style="fill:none;stroke:red;stroke-width:1px;stroke-linecap:butt;stroke-linejoin:miter;stroke-opacity:1" d="M 97.7428,170.912 95.9546,177.178 z" id="boundary" inkscape:connector-curvature="0" />
	<path style="fill:none;stroke:red;stroke-width:1px;stroke-linecap:butt;stroke-linejoin:miter;stroke-opacity:1" d="M 95.9546,177.178 88.1502,203.521 z" id="boundary" inkscape:connector-curvature="0" />
	<path style="fill:none;stroke:red;stroke-width:1px;stroke-linecap:butt;stroke-linejoin:miter;stroke-opacity:1" d="M 113.746,218.639 106.836,215.173 z" id="boundary" inkscape:connector-curvature="0" />
	<path style="fill:none;stroke:red;stroke-width:1px;stroke-linecap:butt;stroke-linejoin:miter;stroke-opacity:1" d="M 106.836,215.173 109.172,236.818 z" id="boundary" inkscape:connector-curvature="0" />
	<path style="fill:none;stroke:red;stroke-width:1px;stroke-linecap:butt;stroke-linejoin:miter;stroke-opacity:1" d="M 109.172,236.818 131.777,247.921 z" id="boundary" inkscape:connector-curvature="0" />
	<path style="fill:none;stroke:red;stroke-width:1px;stroke-linecap:butt;stroke-linejoin:miter;stroke-opacity:1" d="M 131.777,247.921 128.459,264.217 z" id="boundary" inkscape:connector-curvature="0" />
	<path style="fill:none;stroke:red;stroke-width:1px;stroke-linecap:butt;stroke-linejoin:miter;stroke-opacity:1" d="M 128.459,264.217 134.623,281.586 z" id="boundary" inkscape:connector-curvature="0" />
	<path style="fill:none;stroke:red;stroke-width:1px;stroke-linecap:butt;stroke-linejoin:miter;stroke-opacity:1" d="M 134.623,281.586 148.499,279.869 z" id="boundary" inkscape:connector-curvature="0" />
	<path style="fill:none;stroke:red;stroke-width:1px;stroke-linecap:butt;stroke-linejoin:miter;stroke-opacity:1" d="M 148.499,279.869 152.394,312.712 z" id="boundary" inkscape:connector-curvature="0" />
	<path style="fill:none;stroke:red;stroke-width:1px;stroke-linecap:butt;stroke-linejoin:miter;stroke-opacity:1" d="M 152.394,312.712 157.271,316.929 z" id="boundary" inkscape:connector-curvature="0" />
	<path style="fill:none;stroke:red;stroke-width:1px;stroke-linecap:butt;stroke-linejoin:miter;stroke-opacity:1" d="M 157.271,316.929 165.261,328.313 z" id="boundary" inkscape:connector-curvature="0" />
	<path style="fill:none;stroke:red;stroke-width:1px;stroke-linecap:butt;stroke-linejoin:miter;stroke-opacity:1" d="M 165.261,328.313 184.797,335.6 z" id="boundary" inkscape:connector-curvature="0" />
	<path style="fill:none;stroke:red;stroke-width:1px;stroke-linecap:butt;stroke-linejoin:miter;stroke-opacity:1" d="M 184.797,335.6 198.774,332.504 z" id="boundary" inkscape:connector-curvature="0" />
	<path style="fill:none;stroke:red;stroke-width:1px;stroke-linecap:butt;stroke-linejoin:miter;stroke-opacity:1" d="M 197.122,367.102 183.912,376.832 z" id="boundary" inkscape:connector-curvature="0" />
	<path style="fill:none;stroke:red;stroke-width:1px;stroke-linecap:butt;stroke-linejoin:miter;stroke-opacity:1" d="M 197.122,367.102 203.228,385.295 z" id="boundary" inkscape:connector-curvature="0" />
	<path style="fill:none;stroke:red;stroke-width:1px;stroke-linecap:butt;stroke-linejoin:miter;stroke-opacity:1" d="M 203.228,385.295 206.075,396.807 z" id="boundary" inkscape:connector-curvature="0" />
	<path style="fill:none;stroke:red;stroke-width:1px;stroke-linecap:butt;stroke-linejoin:miter;stroke-opacity:1" d="M 206.075,396.807 227.728,383.703 z" id="boundary" inkscape:connector-curvature="0" />
	<path style="fill:none;stroke:red;stroke-width:1px;stroke-linecap:butt;stroke-linejoin:miter;stroke-opacity:1" d="M 227.728,383.703 226.409,370.498 z" id="boundary" inkscape:connector-curvature="0" />
	<path style="fill:none;stroke:red;stroke-width:1px;stroke-linecap:butt;stroke-linejoin:miter;stroke-opacity:1" d="M 226.409,370.498 222.671,356.468 z" id="boundary" inkscape:connector-curvature="0" />
	<path style="fill:none;stroke:red;stroke-width:1px;stroke-linecap:butt;stroke-linejoin:miter;stroke-opacity:1" d="M 198.774,332.504 209.472,338.73 z" id="boundary" inkscape:connector-curvature="0" />
	<path style="fill:none;stroke:red;stroke-width:1px;stroke-linecap:butt;stroke-linejoin:miter;stroke-opacity:1" d="M 213.791,328.674 209.472,338.73 z" id="boundary" inkscape:connector-curvature="0" />
	<path style="fill:none;stroke:red;stroke-width:1px;stroke-linecap:butt;stroke-linejoin:miter;stroke-opacity:1" d="M 213.791,328.674 195.729,310.204 z" id="boundary" inkscape:connector-curvature="0" />
	<path style="fill:none;stroke:red;stroke-width:1px;stroke-linecap:butt;stroke-linejoin:miter;stroke-opacity:1" d="M 112.235,84.5548 128.152,74.7279 z" id="boundary" inkscape:connector-curvature="0" />
	<path style="fill:none;stroke:red;stroke-width:1px;stroke-linecap:butt;stroke-linejoin:miter;stroke-opacity:1" d="M 128.152,74.7279 141.875,81.3875 z" id="boundary" inkscape:connector-curvature="0" />
	<path style="fill:none;stroke:red;stroke-width:1px;stroke-linecap:butt;stroke-linejoin:miter;stroke-opacity:1" d="M 141.875,81.3875 134.855,90.1257 z" id="boundary" inkscape:connector-curvature="0" />
	<path style="fill:none;stroke:red;stroke-width:1px;stroke-linecap:butt;stroke-linejoin:miter;stroke-opacity:1" d="M 134.855,90.1257 154.396,111.268 z" id="boundary" inkscape:connector-curvature="0" />
	<path style="fill:none;stroke:red;stroke-width:1px;stroke-linecap:butt;stroke-linejoin:miter;stroke-opacity:1" d="M 154.396,111.268 154.79,125.239 z" id="boundary" inkscape:connector-curvature="0" />
	<path style="fill:none;stroke:red;stroke-width:1px;stroke-linecap:butt;stroke-linejoin:miter;stroke-opacity:1" d="M 154.79,125.239 160.203,137.959 z" id="boundary" inkscape:connector-curvature="0" />
	<path style="fill:none;stroke:red;stroke-width:1px;stroke-linecap:butt;stroke-linejoin:miter;stroke-opacity:1" d="M 160.203,137.959 157.558,156.911 z" id="boundary" inkscape:connector-curvature="0" />
	<path style="fill:none;stroke:red;stroke-width:1px;stroke-linecap:butt;stroke-linejoin:miter;stroke-opacity:1" d="M 157.558,156.911 160.28,173.582 z" id="boundary" inkscape:connector-curvature="0" />
	<path style="fill:none;stroke:red;stroke-width:1px;stroke-linecap:butt;stroke-linejoin:miter;stroke-opacity:1" d="M 160.28,173.582 167.966,179.15 z" id="boundary" inkscape:connector-curvature="0" />
	<path style="fill:none;stroke:red;stroke-width:1px;stroke-linecap:butt;stroke-linejoin:miter;stroke-opacity:1" d="M 167.966,179.15 174.776,183.383 z" id="boundary" inkscape:connector-curvature="0" />
	<path style="fill:none;stroke:red;stroke-width:1px;stroke-linecap:butt;stroke-linejoin:miter;stroke-opacity:1" d="M 174.776,183.383 179.193,200.382 z" id="boundary" inkscape:connector-curvature="0" />
	<path style="fill:none;stroke:red;stroke-width:1px;stroke-linecap:butt;stroke-linejoin:miter;stroke-opacity:1" d="M 179.193,200.382 176.797,208.402 z" id="boundary" inkscape:connector-curvature="0" />
	<path style="fill:none;stroke:red;stroke-width:1px;stroke-linecap:butt;stroke-linejoin:miter;stroke-opacity:1" d="M 176.797,208.402 176.73,225.955 z" id="boundary" inkscape:connector-curvature="0" />
	<path style="fill:none;stroke:red;stroke-width:1px;stroke-linecap:butt;stroke-linejoin:miter;stroke-opacity:1" d="M 176.73,225.955 179.718,254.892 z" id="boundary" inkscape:connector-curvature="0" />
	<path style="fill:none;stroke:red;stroke-width:1px;stroke-linecap:butt;stroke-linejoin:miter;stroke-opacity:1" d="M 179.718,254.892 185.955,274.081 z" id="boundary" inkscape:connector-curvature="0" />
	<path style="fill:none;stroke:red;stroke-width:1px;stroke-linecap:butt;stroke-linejoin:miter;stroke-opacity:1" d="M 185.955,274.081 190.434,269.486 z" id="boundary" inkscape:connector-curvature="0" />
	<path style="fill:none;stroke:red;stroke-width:1px;stroke-linecap:butt;stroke-linejoin:miter;stroke-opacity:1" d="M 190.434,269.486 191.576,289.334 z" id="boundary" inkscape:connector-curvature="0" />
	<path style="fill:none;stroke:red;stroke-width:1px;stroke-linecap:butt;stroke-linejoin:miter;stroke-opacity:1" d="M 191.576,289.334 195.729,310.204 z" id="boundary" inkscape:connector-curvature="0" />
	<path style="fill:none;stroke:red;stroke-width:1px;stroke-linecap:butt;stroke-linejoin:miter;stroke-opacity:1" d="M 787.032,410.107 800.037,409.859 z" id="boundary" inkscape:connector-curvature="0" />
	<path style="fill:none;stroke:red;stroke-width:1px;stroke-linecap:butt;stroke-linejoin:miter;stroke-opacity:1" d="M 800.037,409.859 814.536,401.076 z" id="boundary" inkscape:connector-curvature="0" />
	<path style="fill:none;stroke:red;stroke-width:1px;stroke-linecap:butt;stroke-linejoin:miter;stroke-opacity:1" d="M 823.652,401.69 841.03,375.028 z" id="boundary" inkscape:connector-curvature="0" />
	<path style="fill:none;stroke:red;stroke-width:1px;stroke-linecap:butt;stroke-linejoin:miter;stroke-opacity:1" d="M 809.029,378.705 804.379,365.192 z" id="boundary" inkscape:connector-curvature="0" />
	<path style="fill:none;stroke:red;stroke-width:1px;stroke-linecap:butt;stroke-linejoin:miter;stroke-opacity:1" d="M 809.029,378.705 814.536,401.076 z" id="boundary" inkscape:connector-curvature="0" />
	<path style="fill:none;stroke:red;stroke-width:1px;stroke-linecap:butt;stroke-linejoin:miter;stroke-opacity:1" d="M 804.379,365.192 825.803,340.002 z" id="boundary" inkscape:connector-curvature="0" />
	<path style="fill:none;stroke:red;stroke-width:1px;stroke-linecap:butt;stroke-linejoin:miter;stroke-opacity:1" d="M 828.508,361.221 835.672,354.265 z" id="boundary" inkscape:connector-curvature="0" />
	<path style="fill:none;stroke:red;stroke-width:1px;stroke-linecap:butt;stroke-linejoin:miter;stroke-opacity:1" d="M 825.803,340.002 840.427,303.473 z" id="boundary" inkscape:connector-curvature="0" />
	<path style="fill:none;stroke:red;stroke-width:1px;stroke-linecap:butt;stroke-linejoin:miter;stroke-opacity:1" d="M 840.427,303.473 833.153,270.249 z" id="boundary" inkscape:connector-curvature="0" />
	<path style="fill:none;stroke:red;stroke-width:1px;stroke-linecap:butt;stroke-linejoin:miter;stroke-opacity:1" d="M 833.153,270.249 832.906,236.072 z" id="boundary" inkscape:connector-curvature="0" />
	<path style="fill:none;stroke:red;stroke-width:1px;stroke-linecap:butt;stroke-linejoin:miter;stroke-opacity:1" d="M 835.672,354.265 845.292,349.991 z" id="boundary" inkscape:connector-curvature="0" />
	<path style="fill:none;stroke:red;stroke-width:1px;stroke-linecap:butt;stroke-linejoin:miter;stroke-opacity:1" d="M 845.292,349.991 864.663,322.266 z" id="boundary" inkscape:connector-curvature="0" />
	<path style="fill:none;stroke:red;stroke-width:1px;stroke-linecap:butt;stroke-linejoin:miter;stroke-opacity:1" d="M 864.663,322.266 862.618,313.097 z" id="boundary" inkscape:connector-curvature="0" />
	<path style="fill:none;stroke:red;stroke-width:1px;stroke-linecap:butt;stroke-linejoin:miter;stroke-opacity:1" d="M 862.618,313.097 875.743,286.989 z" id="boundary" inkscape:connector-curvature="0" />
	<path style="fill:none;stroke:red;stroke-width:1px;stroke-linecap:butt;stroke-linejoin:miter;stroke-opacity:1" d="M 875.743,286.989 895.018,272.343 z" id="boundary" inkscape:connector-curvature="0" />
	<path style="fill:none;stroke:red;stroke-width:1px;stroke-linecap:butt;stroke-linejoin:miter;stroke-opacity:1" d="M 895.018,272.343 904.899,247.207 z" id="boundary" inkscape:connector-curvature="0" />
	<path style="fill:none;stroke:red;stroke-width:1px;stroke-linecap:butt;stroke-linejoin:miter;stroke-opacity:1" d="M 895.247,254.086 902.908,225.876 z" id="boundary" inkscape:connector-curvature="0" />
	<path style="fill:none;stroke:red;stroke-width:1px;stroke-linecap:butt;stroke-linejoin:miter;stroke-opacity:1" d="M 832.906,236.072 837.688,221.495 z" id="boundary" inkscape:connector-curvature="0" />
	<path style="fill:none;stroke:red;stroke-width:1px;stroke-linecap:butt;stroke-linejoin:miter;stroke-opacity:1" d="M 843.272,191.705 837.921,185.527 z" id="boundary" inkscape:connector-curvature="0" />
	<path style="fill:none;stroke:red;stroke-width:1px;stroke-linecap:butt;stroke-linejoin:miter;stroke-opacity:1" d="M 837.921,185.527 844.398,159.157 z" id="boundary" inkscape:connector-curvature="0" />
	<path style="fill:none;stroke:red;stroke-width:1px;stroke-linecap:butt;stroke-linejoin:miter;stroke-opacity:1" d="M 844.398,159.157 855.268,138.445 z" id="boundary" inkscape:connector-curvature="0" />
	<path style="fill:none;stroke:red;stroke-width:1px;stroke-linecap:butt;stroke-linejoin:miter;stroke-opacity:1" d="M 855.268,138.445 856.745,119.467 z" id="boundary" inkscape:connector-curvature="0" />
	<path style="fill:none;stroke:red;stroke-width:1px;stroke-linecap:butt;stroke-linejoin:miter;stroke-opacity:1" d="M 856.745,119.467 879.193,103.996 z" id="boundary" inkscape:connector-curvature="0" />
	<path style="fill:none;stroke:red;stroke-width:1px;stroke-linecap:butt;stroke-linejoin:miter;stroke-opacity:1" d="M 877.835,107.811 879.193,103.996 z" id="boundary" inkscape:connector-curvature="0" />
	<path style="fill:none;stroke:red;stroke-width:1px;stroke-linecap:butt;stroke-linejoin:miter;stroke-opacity:1" d="M 875.968,71.6734 878.953,61.9148 z" id="boundary" inkscape:connector-curvature="0" />
	<path style="fill:none;stroke:red;stroke-width:1px;stroke-linecap:butt;stroke-linejoin:miter;stroke-opacity:1" d="M 900.38,55.0126 905.614,59.1007 z" id="boundary" inkscape:connector-curvature="0" />
	<path style="fill:none;stroke:red;stroke-width:1px;stroke-linecap:butt;stroke-linejoin:miter;stroke-opacity:1" d="M 925.871,156.29 914.951,165.935 z" id="boundary" inkscape:connector-curvature="0" />
	<path style="fill:none;stroke:red;stroke-width:1px;stroke-linecap:butt;stroke-linejoin:miter;stroke-opacity:1" d="M 914.951,165.935 919.387,179.038 z" id="boundary" inkscape:connector-curvature="0" />
	<path style="fill:none;stroke:red;stroke-width:1px;stroke-linecap:butt;stroke-linejoin:miter;stroke-opacity:1" d="M 919.387,179.038 928.493,193.169 z" id="boundary" inkscape:connector-curvature="0" />
	<path style="fill:none;stroke:red;stroke-width:1px;stroke-linecap:butt;stroke-linejoin:miter;stroke-opacity:1" d="M 928.493,193.169 921.805,213.473 z" id="boundary" inkscape:connector-curvature="0" />
	<path style="fill:none;stroke:red;stroke-width:1px;stroke-linecap:butt;stroke-linejoin:miter;stroke-opacity:1" d="M 921.805,213.473 902.908,225.876 z" id="boundary" inkscape:connector-curvature="0" />
	<circle cx="44.626" cy="24.3063" r="4" fill="#0" id="circle0"/>
	<circle cx="31.2627" cy="22.3827" r="4" fill="#0" id="circle1"/>
	<circle cx="16.5272" cy="53.9085" r="4" fill="#0" id="circle2"/>
	<circle cx="26.0662" cy="59.3085" r="4" fill="#0" id="circle3"/>
	<circle cx="22.5763" cy="84.4161" r="4" fill="#0" id="circle4"/>
	<circle cx="14.2766" cy="100.62" r="4" fill="#0" id="circle5"/>
	<circle cx="17.1038" cy="123.246" r="4" fill="#0" id="circle6"/>
	<circle cx="4" cy="129.574" r="4" fill="#0" id="circle7"/>
	<circle cx="20.1665" cy="154.296" r="4" fill="#0" id="circle8"/>
	<circle cx="37.5032" cy="175.151" r="4" fill="#0" id="circle9"/>
	<circle cx="47.2251" cy="200.73" r="4" fill="#0" id="circle10"/>
	<circle cx="52.4094" cy="204.723" r="4" fill="#0" id="circle11"/>
	<circle cx="60.1415" cy="231.287" r="4" fill="#0" id="circle12"/>
	<circle cx="69.0368" cy="256.704" r="4" fill="#0" id="circle13"/>
	<circle cx="55.4374" cy="272.04" r="4" fill="#0" id="circle14"/>
	<circle cx="75.8567" cy="271.25" r="4" fill="#0" id="circle15"/>
	<circle cx="83.2179" cy="299.681" r="4" fill="#0" id="circle16"/>
	<circle cx="87.5246" cy="308.745" r="4" fill="#0" id="circle17"/>
	<circle cx="99.3592" cy="310.638" r="4" fill="#0" id="circle18"/>
	<circle cx="112.627" cy="332.135" r="4" fill="#0" id="circle19"/>
	<circle cx="118.255" cy="348.61" r="4" fill="#0" id="circle20"/>
	<circle cx="134.582" cy="361.998" r="4" fill="#0" id="circle21"/>
	<circle cx="147.382" cy="390.328" r="4" fill="#0" id="circle22"/>
	<circle cx="145.725" cy="392.544" r="4" fill="#0" id="circle23"/>
	<circle cx="172.472" cy="406.578" r="4" fill="#0" id="circle24"/>
	<circle cx="172.526" cy="443.047" r="4" fill="#0" id="circle25"/>
	<circle cx="190.77" cy="448.286" r="4" fill="#0" id="circle26"/>
	<circle cx="183.109" cy="469.33" r="4" fill="#0" id="circle27"/>
	<circle cx="213.711" cy="489.093" r="4" fill="#0" id="circle28"/>
	<circle cx="215.34" cy="506.096" r="4" fill="#0" id="circle29"/>
	<circle cx="234.001" cy="496.465" r="4" fill="#0" id="circle30"/>
	<circle cx="230.486" cy="512.622" r="4" fill="#0" id="circle31"/>
	<circle cx="261.236" cy="523.722" r="4" fill="#0" id="circle32"/>
	<circle cx="268.375" cy="531.337" r="4" fill="#0" id="circle33"/>
	<circle cx="276.436" cy="541.881" r="4" fill="#0" id="circle34"/>
	<circle cx="294.041" cy="565.878" r="4" fill="#0" id="circle35"/>
	<circle cx="319.415" cy="553.335" r="4" fill="#0" id="circle36"/>
	<circle cx="328.407" cy="566.849" r="4" fill="#0" id="circle37"/>
	<circle cx="364.365" cy="572.984" r="4" fill="#0" id="circle38"/>
	<circle cx="371.876" cy="589.211" r="4" fill="#0" id="circle39"/>
	<circle cx="390.402" cy="600.509" r="4" fill="#0" id="circle40"/>
	<circle cx="411.419" cy="584.225" r="4" fill="#0" id="circle41"/>
	<circle cx="418.089" cy="602.959" r="4" fill="#0" id="circle42"/>
	<circle cx="449.599" cy="593.756" r="4" fill="#0" id="circle43"/>
	<circle cx="444.907" cy="613.741" r="4" fill="#0" id="circle44"/>
	<circle cx="421.47" cy="629.355" r="4" fill="#0" id="circle45"/>
	<circle cx="419.117" cy="637.37" r="4" fill="#0" id="circle46"/>
	<circle cx="414.72" cy="645.595" r="4" fill="#0" id="circle47"/>
	<circle cx="402.6" cy="659.845" r="4" fill="#0" id="circle48"/>
	<circle cx="382.273" cy="665.65" r="4" fill="#0" id="circle49"/>
	<circle cx="372.541" cy="689.678" r="4" fill="#0" id="circle50"/>
	<circle cx="344.359" cy="680.217" r="4" fill="#0" id="circle51"/>
	<circle cx="353" cy="695.992" r="4" fill="#0" id="circle52"/>
	<circle cx="335.681" cy="725.352" r="4" fill="#0" id="circle53"/>
	<circle cx="339.508" cy="745.581" r="4" fill="#0" id="circle54"/>
	<circle cx="350.125" cy="759.714" r="4" fill="#0" id="circle55"/>
	<circle cx="378.364" cy="769.975" r="4" fill="#0" id="circle56"/>
	<circle cx="404.607" cy="776.937" r="4" fill="#0" id="circle57"/>
	<circle cx="420.005" cy="778.348" r="4" fill="#0" id="circle58"/>
	<circle cx="452.733" cy="769.327" r="4" fill="#0" id="circle59"/>
	<circle cx="475.773" cy="790.571" r="4" fill="#0" id="circle60"/>
	<circle cx="488.94" cy="779.577" r="4" fill="#0" id="circle61"/>
	<circle cx="502.961" cy="773.551" r="4" fill="#0" id="circle62"/>
	<circle cx="531.871" cy="784.116" r="4" fill="#0" id="circle63"/>
	<circle cx="554.892" cy="784.481" r="4" fill="#0" id="circle64"/>
	<circle cx="586.059" cy="787.905" r="4" fill="#0" id="circle65"/>
	<circle cx="601.785" cy="782.668" r="4" fill="#0" id="circle66"/>
	<circle cx="632.361" cy="763.847" r="4" fill="#0" id="circle67"/>
	<circle cx="652.766" cy="752.443" r="4" fill="#0" id="circle68"/>
	<circle cx="671.523" cy="743.796" r="4" fill="#0" id="circle69"/>
	<circle cx="686.924" cy="718.92" r="4" fill="#0" id="circle70"/>
	<circle cx="685.832" cy="708.306" r="4" fill="#0" id="circle71"/>
	<circle cx="674.507" cy="702.222" r="4" fill="#0" id="circle72"/>
	<circle cx="647.394" cy="678.347" r="4" fill="#0" id="circle73"/>
	<circle cx="636.145" cy="660.946" r="4" fill="#0" id="circle74"/>
	<circle cx="616.845" cy="656.295" r="4" fill="#0" id="circle75"/>
	<circle cx="610.824" cy="663.761" r="4" fill="#0" id="circle76"/>
	<circle cx="583.672" cy="653.675" r="4" fill="#0" id="circle77"/>
	<circle cx="586.756" cy="637.351" r="4" fill="#0" id="circle78"/>
	<circle cx="571.995" cy="600.538" r="4" fill="#0" id="circle79"/>
	<circle cx="588.913" cy="598.859" r="4" fill="#0" id="circle80"/>
	<circle cx="620.087" cy="608.934" r="4" fill="#0" id="circle81"/>
	<circle cx="614.37" cy="601.19" r="4" fill="#0" id="circle82"/>
	<circle cx="638.504" cy="594.949" r="4" fill="#0" id="circle83"/>
	<circle cx="657.169" cy="593.456" r="4" fill="#0" id="circle84"/>
	<circle cx="673.516" cy="586.421" r="4" fill="#0" id="circle85"/>
	<circle cx="714.995" cy="560.131" r="4" fill="#0" id="circle86"/>
	<circle cx="714.985" cy="570.556" r="4" fill="#0" id="circle87"/>
	<circle cx="740.596" cy="558.675" r="4" fill="#0" id="circle88"/>
	<circle cx="739.854" cy="539.709" r="4" fill="#0" id="circle89"/>
	<circle cx="770.199" cy="536.553" r="4" fill="#0" id="circle90"/>
	<circle cx="781.108" cy="525.911" r="4" fill="#0" id="circle91"/>
	<circle cx="796.483" cy="519.975" r="4" fill="#0" id="circle92"/>
	<circle cx="813.566" cy="488.668" r="4" fill="#0" id="circle93"/>
	<circle cx="830.759" cy="467.974" r="4" fill="#0" id="circle94"/>
	<circle cx="837.066" cy="459.343" r="4" fill="#0" id="circle95"/>
	<circle cx="842.641" cy="449.148" r="4" fill="#0" id="circle96"/>
	<circle cx="870.39" cy="429.722" r="4" fill="#0" id="circle97"/>
	<circle cx="865.157" cy="410.468" r="4" fill="#0" id="circle98"/>
	<circle cx="875.659" cy="398.042" r="4" fill="#0" id="circle99"/>
	<circle cx="882.858" cy="382.147" r="4" fill="#0" id="circle100"/>
	<circle cx="892.988" cy="358.042" r="4" fill="#0" id="circle101"/>
	<circle cx="912.077" cy="352.169" r="4" fill="#0" id="circle102"/>
	<circle cx="932.923" cy="327.375" r="4" fill="#0" id="circle103"/>
	<circle cx="922.943" cy="329.839" r="4" fill="#0" id="circle104"/>
	<circle cx="937.168" cy="307.46" r="4" fill="#0" id="circle105"/>
	<circle cx="947.54" cy="291.496" r="4" fill="#0" id="circle106"/>
	<circle cx="955.618" cy="271.209" r="4" fill="#0" id="circle107"/>
	<circle cx="973.173" cy="253.625" r="4" fill="#0" id="circle108"/>
	<circle cx="982.854" cy="220.527" r="4" fill="#0" id="circle109"/>
	<circle cx="988.965" cy="197.057" r="4" fill="#0" id="circle110"/>
	<circle cx="985.047" cy="166" r="4" fill="#0" id="circle111"/>
	<circle cx="994.126" cy="155.306" r="4" fill="#0" id="circle112"/>
	<circle cx="986.387" cy="143.155" r="4" fill="#0" id="circle113"/>
	<circle cx="995.894" cy="106.465" r="4" fill="#0" id="circle114"/>
	<circle cx="984.023" cy="90.2913" r="4" fill="#0" id="circle115"/>
	<circle cx="996" cy="50.7393" r="4" fill="#0" id="circle116"/>
	<circle cx="986.959" cy="48.9226" r="4" fill="#0" id="circle117"/>
	<circle cx="979.344" cy="19.1824" r="4" fill="#0" id="circle118"/>
	<circle cx="950.644" cy="13.539" r="4" fill="#0" id="circle119"/>
	<circle cx="933.233" cy="4" r="4" fill="#0" id="circle120"/>
	<circle cx="918.365" cy="8.46856" r="4" fill="#0" id="circle121"/>
	<circle cx="896.146" cy="14.8277" r="4" fill="#0" id="circle122"/>
	<circle cx="885.26" cy="24.9611" r="4" fill="#0" id="circle123"/>
	<circle cx="880.613" cy="16.7346" r="4" fill="#0" id="circle124"/>
	<circle cx="864.225" cy="32.9958" r="4" fill="#0" id="circle125"/>
	<circle cx="862.565" cy="55.8772" r="4" fill="#0" id="circle126"/>
	<circle cx="842.835" cy="54.6316" r="4" fill="#0" id="circle127"/>
	<circle cx="829.918" cy="80.2154" r="4" fill="#0" id="circle128"/>
	<circle cx="824.742" cy="98.1791" r="4" fill="#0" id="circle129"/>
	<circle cx="811.991" cy="100.861" r="4" fill="#0" id="circle130"/>
	<circle cx="813.783" cy="126.39" r="4" fill="#0" id="circle131"/>
	<circle cx="810.237" cy="148.731" r="4" fill="#0" id="circle132"/>
	<circle cx="808.844" cy="148.633" r="4" fill="#0" id="circle133"/>
	<circle cx="794.87" cy="183.103" r="4" fill="#0" id="circle134"/>
	<circle cx="802.726" cy="197.749" r="4" fill="#0" id="circle135"/>
	<circle cx="784.465" cy="213.307" r="4" fill="#0" id="circle136"/>
	<circle cx="780.565" cy="242.323" r="4" fill="#0" id="circle137"/>
	<circle cx="771.247" cy="260.416" r="4" fill="#0" id="circle138"/>
	<circle cx="72.2397" cy="24.5114" r="4" fill="#0" id="circle139"/>
	<circle cx="72.2417" cy="29.1853" r="4" fill="#0" id="circle140"/>
	<circle cx="94.267" cy="24.2414" r="4" fill="#0" id="circle141"/>
	<circle cx="125.11" cy="28.1812" r="4" fill="#0" id="circle142"/>
	<circle cx="120.563" cy="25.934" r="4" fill="#0" id="circle143"/>
	<circle cx="136.936" cy="42.9618" r="4" fill="#0" id="circle144"/>
	<circle cx="162.961" cy="56.4478" r="4" fill="#0" id="circle145"/>
	<circle cx="167.875" cy="67.377" r="4" fill="#0" id="circle146"/>
	<circle cx="163.7" cy="75.3205" r="4" fill="#0" id="circle147"/>
	<circle cx="175.599" cy="106.366" r="4" fill="#0" id="circle148"/>
	<circle cx="183.889" cy="112.514" r="4" fill="#0" id="circle149"/>
	<circle cx="202.927" cy="118.349" r="4" fill="#0" id="circle150"/>
	<circle cx="192.486" cy="132.278" r="4" fill="#0" id="circle151"/>
	<circle cx="209.393" cy="154.55" r="4" fill="#0" id="circle152"/>
	<circle cx="224.389" cy="178.58" r="4" fill="#0" id="circle153"/>
	<circle cx="211.702" cy="191.178" r="4" fill="#0" id="circle154"/>
	<circle cx="226.699" cy="200.311" r="4" fill="#0" id="circle155"/>
	<circle cx="234.108" cy="232.402" r="4" fill="#0" id="circle156"/>
	<circle cx="246.962" cy="238.971" r="4" fill="#0" id="circle157"/>
	<circle cx="238.157" cy="265.809" r="4" fill="#0" id="circle158"/>
	<circle cx="254.433" cy="256.937" r="4" fill="#0" id="circle159"/>
	<circle cx="264.973" cy="251.117" r="4" fill="#0" id="circle160"/>
	<circle cx="299.625" cy="263.727" r="4" fill="#0" id="circle161"/>
	<circle cx="309.667" cy="264.611" r="4" fill="#0" id="circle162"/>
	<circle cx="338.44" cy="258.607" r="4" fill="#0" id="circle163"/>
	<circle cx="351.841" cy="240.972" r="4" fill="#0" id="circle164"/>
	<circle cx="358.559" cy="248.75" r="4" fill="#0" id="circle165"/>
	<circle cx="383.374" cy="245.472" r="4" fill="#0" id="circle166"/>
	<circle cx="413.302" cy="254.314" r="4" fill="#0" id="circle167"/>
	<circle cx="432.295" cy="246.183" r="4" fill="#0" id="circle168"/>
	<circle cx="443.349" cy="256.224" r="4" fill="#0" id="circle169"/>
	<circle cx="469.635" cy="262.546" r="4" fill="#0" id="circle170"/>
	<circle cx="488.807" cy="246.475" r="4" fill="#0" id="circle171"/>
	<circle cx="498.827" cy="255.486" r="4" fill="#0" id="circle172"/>
	<circle cx="516.076" cy="262.079" r="4" fill="#0" id="circle173"/>
	<circle cx="531.752" cy="240.907" r="4" fill="#0" id="circle174"/>
	<circle cx="547.556" cy="257.703" r="4" fill="#0" id="circle175"/>
	<circle cx="567.041" cy="243.599" r="4" fill="#0" id="circle176"/>
	<circle cx="589.425" cy="257.131" r="4" fill="#0" id="circle177"/>
	<circle cx="595.934" cy="248.66" r="4" fill="#0" id="circle178"/>
	<circle cx="621.546" cy="259.15" r="4" fill="#0" id="circle179"/>
	<circle cx="636.986" cy="252.024" r="4" fill="#0" id="circle180"/>
	<circle cx="648.231" cy="252.822" r="4" fill="#0" id="circle181"/>
	<circle cx="681.017" cy="256.183" r="4" fill="#0" id="circle182"/>
	<circle cx="683.637" cy="248.334" r="4" fill="#0" id="circle183"/>
	<circle cx="693.662" cy="255.876" r="4" fill="#0" id="circle184"/>
	<circle cx="713.937" cy="260.951" r="4" fill="#0" id="circle185"/>
	<circle cx="744.242" cy="264.232" r="4" fill="#0" id="circle186"/>
	<circle cx="751.332" cy="246.57" r="4" fill="#0" id="circle187"/>
	<circle cx="99.4457" cy="93.8007" r="4" fill="#0" id="circle188"/>
	<circle cx="78.513" cy="93.3751" r="4" fill="#0" id="circle189"/>
	<circle cx="95.7199" cy="113.354" r="4" fill="#0" id="circle190"/>
	<circle cx="70.5448" cy="121.651" r="4" fill="#0" id="circle191"/>
	<circle cx="90.0159" cy="142.322" r="4" fill="#0" id="circle192"/>
	<circle cx="76.8778" cy="165.014" r="4" fill="#0" id="circle193"/>
	<circle cx="97.7428" cy="170.912" r="4" fill="#0" id="circle194"/>
	<circle cx="95.9546" cy="177.178" r="4" fill="#0" id="circle195"/>
	<circle cx="88.1502" cy="203.521" r="4" fill="#0" id="circle196"/>
	<circle cx="113.746" cy="218.639" r="4" fill="#0" id="circle197"/>
	<circle cx="106.836" cy="215.173" r="4" fill="#0" id="circle198"/>
	<circle cx="109.172" cy="236.818" r="4" fill="#0" id="circle199"/>
	<circle cx="131.777" cy="247.921" r="4" fill="#0" id="circle200"/>
	<circle cx="128.459" cy="264.217" r="4" fill="#0" id="circle201"/>
	<circle cx="134.623" cy="281.586" r="4" fill="#0" id="circle202"/>
	<circle cx="148.499" cy="279.869" r="4" fill="#0" id="circle203"/>
	<circle cx="152.394" cy="312.712" r="4" fill="#0" id="circle204"/>
	<circle cx="157.271" cy="316.929" r="4" fill="#0" id="circle205"/>
	<circle cx="165.261" cy="328.313" r="4" fill="#0" id="circle206"/>
	<circle cx="184.797" cy="335.6" r="4" fill="#0" id="circle207"/>
	<circle cx="197.122" cy="367.102" r="4" fill="#0" id="circle208"/>
	<circle cx="183.912" cy="376.832" r="4" fill="#0" id="circle209"/>
	<circle cx="203.228" cy="385.295" r="4" fill="#0" id="circle210"/>
	<circle cx="206.075" cy="396.807" r="4" fill="#0" id="circle211"/>
	<circle cx="227.728" cy="383.703" r="4" fill="#0" id="circle212"/>
	<circle cx="226.409" cy="370.498" r="4" fill="#0" id="circle213"/>
	<circle cx="198.774" cy="332.504" r="4" fill="#0" id="circle214"/>
	<circle cx="213.791" cy="328.674" r="4" fill="#0" id="circle215"/>
	<circle cx="209.472" cy="338.73" r="4" fill="#0" id="circle216"/>
	<circle cx="112.235" cy="84.5548" r="4" fill="#0" id="circle217"/>
	<circle cx="128.152" cy="74.7279" r="4" fill="#0" id="circle218"/>
	<circle cx="141.875" cy="81.3875" r="4" fill="#0" id="circle219"/>
	<circle cx="134.855" cy="90.1257" r="4" fill="#0" id="circle220"/>
	<circle cx="154.396" cy="111.268" r="4" fill="#0" id="circle221"/>
	<circle cx="154.79" cy="125.239" r="4" fill="#0" id="circle222"/>
	<circle cx="160.203" cy="137.959" r="4" fill="#0" id="circle223"/>
	<circle cx="157.558" cy="156.911" r="4" fill="#0" id="circle224"/>
	<circle cx="160.28" cy="173.582" r="4" fill="#0" id="circle225"/>
	<circle cx="167.966" cy="179.15" r="4" fill="#0" id="circle226"/>
	<circle cx="174.776" cy="183.383" r="4" fill="#0" id="circle227"/>
	<circle cx="179.193" cy="200.382" r="4" fill="#0" id="circle228"/>
	<circle cx="176.797" cy="208.402" r="4" fill="#0" id="circle229"/>
	<circle cx="176.73" cy="225.955" r="4" fill="#0" id="circle230"/>
	<circle cx="179.718" cy="254.892" r="4" fill="#0" id="circle231"/>
	<circle cx="185.955" cy="274.081" r="4" fill="#0" id="circle232"/>
	<circle cx="190.434" cy="269.486" r="4" fill="#0" id="circle233"/>
	<circle cx="191.576" cy="289.334" r="4" fill="#0" id="circle234"/>
	<circle cx="195.729" cy="310.204" r="4" fill="#0" id="circle235"/>
	<circle cx="222.671" cy="356.468" r="4" fill="#0" id="circle236"/>
	<circle cx="787.032" cy="410.107" r="4" fill="#0" id="circle237"/>
	<circle cx="800.037" cy="409.859" r="4" fill="#0" id="circle238"/>
	<circle cx="823.652" cy="401.69" r="4" fill="#0" id="circle239"/>
	<circle cx="809.029" cy="378.705" r="4" fill="#0" id="circle240"/>
	<circle cx="804.379" cy="365.192" r="4" fill="#0" id="circle241"/>
	<circle cx="828.508" cy="361.221" r="4" fill="#0" id="circle242"/>
	<circle cx="825.803" cy="340.002" r="4" fill="#0" id="circle243"/>
	<circle cx="823.589" cy="306.955" r="4" fill="#0" id="circle244"/>
	<circle cx="840.427" cy="303.473" r="4" fill="#0" id="circle245"/>
	<circle cx="833.153" cy="270.249" r="4" fill="#0" id="circle246"/>
	<circle cx="838.438" cy="266.368" r="4" fill="#0" id="circle247"/>
	<circle cx="814.536" cy="401.076" r="4" fill="#0" id="circle248"/>
	<circle cx="841.03" cy="375.028" r="4" fill="#0" id="circle249"/>
	<circle cx="835.672" cy="354.265" r="4" fill="#0" id="circle250"/>
	<circle cx="845.292" cy="349.991" r="4" fill="#0" id="circle251"/>
	<circle cx="864.663" cy="322.266" r="4" fill="#0" id="circle252"/>
	<circle cx="862.618" cy="313.097" r="4" fill="#0" id="circle253"/>
	<circle cx="875.743" cy="286.989" r="4" fill="#0" id="circle254"/>
	<circle cx="895.018" cy="272.343" r="4" fill="#0" id="circle255"/>
	<circle cx="895.247" cy="254.086" r="4" fill="#0" id="circle256"/>
	<circle cx="904.899" cy="247.207" r="4" fill="#0" id="circle257"/>
	<circle cx="832.906" cy="236.072" r="4" fill="#0" id="circle258"/>
	<circle cx="837.688" cy="221.495" r="4" fill="#0" id="circle259"/>
	<circle cx="843.272" cy="191.705" r="4" fill="#0" id="circle260"/>
	<circle cx="837.921" cy="185.527" r="4" fill="#0" id="circle261"/>
	<circle cx="844.398" cy="159.157" r="4" fill="#0" id="circle262"/>
	<circle cx="855.268" cy="138.445" r="4" fill="#0" id="circle263"/>
	<circle cx="856.745" cy="119.467" r="4" fill="#0" id="circle264"/>
	<circle cx="877.835" cy="107.811" r="4" fill="#0" id="circle265"/>
	<circle cx="879.193" cy="103.996" r="4" fill="#0" id="circle266"/>
	<circle cx="875.968" cy="71.6734" r="4" fill="#0" id="circle267"/>
	<circle cx="878.953" cy="61.9148" r="4" fill="#0" id="circle268"/>
	<circle cx="900.38" cy="55.0126" r="4" fill="#0" id="circle269"/>
	<circle cx="905.614" cy="59.1007" r="4" fill="#0" id="circle270"/>
	<circle cx="918.587" cy="84.7351" r="4" fill="#0" id="circle271"/>
	<circle cx="922.503" cy="99.14" r="4" fill="#0" id="circle272"/>
	<circle cx="924.376" cy="100.112" r="4" fill="#0" id="circle273"/>
	<circle cx="921.069" cy="113.342" r="4" fill="#0" id="circle274"/>
	<circle cx="937.5" cy="130.414" r="4" fill="#0" id="circle275"/>
	<circle cx="925.871" cy="156.29" r="4" fill="#0" id="circle276"/>
	<circle cx="914.951" cy="165.935" r="4" fill="#0" id="circle277"/>
	<circle cx="919.387" cy="179.038" r="4" fill="#0" id="circle278"/>
	<circle cx="928.493" cy="193.169" r="4" fill="#0" id="circle279"/>
	<circle cx="920.974" cy="208.124" r="4" fill="#0" id="circle280"/>
	<circle cx="921.805" cy="213.473" r="4" fill="#0" id="circle281"/>
	<circle cx="902.908" cy="225.876" r="4" fill="#0" id="circle282"/>
	</g>
</svg>