24 202
29 192
34 205
39 189
44 205
49 189
53 200
58 184
63 200
67 179
73 200
77 174
83 200
84 157
89 147
92 205
97 139
99 213
99 223
99 233
99 243
99 253
99 263
99 273
99 283
100 293
104 303
105 313
106 134
113 320
115 129
117 330
124 124
125 337
132 345
134 124
140 352
144 124
147 360
154 124
155 367
162 375
163 129
172 379
173 130
181 384
182 135
189 390
190 142
194 152
199 390
199 557
200 160
200 170
200 180
205 189
205 565
209 390
209 552
210 198
215 565
218 395
219 547
220 199
224 560
228 395
229 204
229 544
234 560
238 395
239 204
239 542
243 555
244 532
247 400
249 206
249 522
253 553
254 512
257 404
259 209
259 414
259 477
259 487
259 497
259 567
260 525
260 535
260 545
264 447
264 457
264 467
265 422
265 515
265 575
268 214
269 432
269 562
270 485
270 495
270 505
275 405
275 415
275 460
275 470
275 575
277 554
278 214
280 424
280 445
282 544
284 400
284 527
285 433
285 575
287 219
289 409
289 497
289 507
289 517
290 560
294 418
294 477
294 487
295 428
295 535
295 545
296 224
299 438
299 448
299 458
299 468
300 405
300 495
300 505
300 515
300 525
305 395
305 414
305 480
306 224
310 423
310 465
315 229
315 395
315 432
315 442
315 452
324 390
325 232
333 239
333 395
343 240
343 395
352 245
353 395
362 249
363 393
371 254
373 390
381 254
382 385
390 259
391 380
400 262
401 380
410 264
410 375
419 269
420 370
429 269
430 370
438 274
440 365
448 274
450 365
458 274
460 365
468 275
469 360
478 279
478 355
487 350
488 280
497 349
498 284
507 345
508 284
517 345
518 284
526 340
528 284
536 340
537 289
546 340
547 289
555 335
557 289
565 335
567 289
575 295
575 335
577 305
585 292
585 335
587 309
595 335
597 309
605 335
607 309
615 335
617 309
624 330
627 309
634 330
637 309
644 330
647 309
654 327
657 309
664 325
667 309
674 322
