384 1272
389 427
389 437
389 2112
389 2122
390 1280
394 446
394 1269
394 2102
397 419
397 2129
399 455
399 2087
400 1280
402 465
404 407
404 1269
404 2137
409 2077
410 472
410 1280
410 2145
414 404
414 1267
419 477
419 487
419 1285
419 2062
419 2072
419 2150
420 396
424 1264
425 2158
428 389
429 490
429 500
429 1285
429 2047
429 2057
434 1264
435 2160
438 390
438 505
439 515
439 1285
439 2032
439 2042
444 1262
444 2155
447 395
448 520
448 1290
449 530
449 2017
449 2027
453 2150
454 1259
457 399
458 535
458 1290
459 2007
462 545
463 2148
464 587
464 597
464 1257
464 1952
464 1962
464 1997
465 405
467 554
467 1295
469 606
469 1227
469 1317
469 1942
469 2140
472 1989
473 411
474 562
474 572
474 582
474 615
474 1252
474 1932
474 1965
474 1975
475 1235
475 1325
475 2130
477 1299
479 419
479 1224
479 1309
483 620
484 630
484 1917
484 1927
485 1325
485 2130
489 421
489 1224
490 2120
493 635
494 1914
495 429
495 1325
499 643
499 1224
499 1902
500 2120
505 432
505 1327
505 2110
507 650
508 1219
509 660
509 1887
509 1897
513 439
515 1330
515 2110
518 665
518 1219
519 1877
520 447
520 2100
522 675
525 1330
528 1219
529 1874
530 449
530 2100
532 675
535 458
535 1330
535 1866
535 2090
537 684
538 1219
544 692
544 1857
545 462
545 1330
545 2085
548 1219
549 701
549 1847
554 467
554 737
554 1807
555 1330
555 2080
558 1219
559 705
559 746
559 1797
559 1816
559 1837
562 474
562 715
562 729
564 755
564 1825
564 2075
565 1330
568 1219
569 764
569 1782
569 1792
572 474
574 1192
574 1335
574 1357
574 2075
577 770
577 1214
579 1772
582 474
582 779
583 1340
584 1189
584 1199
584 1350
584 1360
584 2075
587 464
587 2085
589 1769
592 780
594 1189
594 1360
595 1761
597 464
597 789
597 2084
604 797
604 1189
604 1360
604 1747
606 469
607 2079
610 805
614 1189
614 1360
614 1744
615 474
617 2074
619 810
620 483
620 1736
622 2065
624 1189
624 1360
628 815
629 1727
630 484
632 825
632 2064
634 1189
634 1360
635 493
635 2050
639 1724
642 825
643 499
644 1189
644 1360
645 1716
645 2050
647 834
650 507
650 2040
654 842
654 1189
654 1360
654 1707
659 877
659 1672
660 509
660 2040
662 849
662 1699
664 859
664 1189
664 1360
664 1681
665 518
665 2030
669 880
669 1662
672 890
674 1189
674 1360
675 522
675 532
675 2015
675 2025
679 1652
680 897
684 537
684 1167
684 1187
684 1360
684 1382
685 2005
689 902
689 1176
689 1369
689 1642
692 544
694 1164
694 1385
695 910
695 2000
699 1639
701 549
704 915
704 1164
704 1385
705 559
705 1631
705 1990
713 920
714 1164
714 1385
714 1622
715 562
715 1985
717 930
723 1169
723 1380
724 1619
725 564
725 1985
727 930
729 940
729 1607
733 1169
733 1380
734 557
734 1990
738 945
739 1604
743 1169
743 1380
744 556
744 1992
747 950
748 1599
753 561
753 1169
753 1380
754 1987
755 957
755 1591
759 569
762 1980
763 1169
763 1380
764 962
765 1586
769 571
770 1970
772 1174
772 1375
774 965
775 579
775 1581
779 974
779 984
779 994
779 1552
779 1562
780 588
780 1955
780 1965
782 1174
782 1375
787 1000
788 595
789 1547
790 1945
792 1169
792 1379
793 604
794 1157
794 1389
796 1005
799 1537
800 1945
801 1014
802 1395
803 605
804 1154
805 615
805 1930
809 1020
809 1527
811 1390
813 621
813 1159
815 1920
818 1025
819 629
819 1524
821 1390
823 1159
825 637
825 1033
825 1516
825 1905
825 1915
831 1390
832 645
833 1159
835 1035
835 1514
835 1895
837 654
840 1385
841 1043
841 1505
842 1164
845 1890
846 659
850 1385
851 1045
851 1504
852 1164
854 1885
855 664
856 1054
856 1495
860 1385
862 1164
864 1885
865 664
866 1055
866 1494
869 1380
871 1169
874 1885
875 661
875 1060
875 1489
879 1380
881 669
881 1169
883 1880
884 1065
884 1482
889 1380
890 674
890 1870
891 1169
893 1070
894 1477
898 680
899 1162
899 1380
900 1078
900 1860
902 1390
902 1469
903 689
909 1083
909 1093
909 1159
909 1452
910 697
910 1845
910 1855
912 1389
917 705
917 1100
918 1164
919 1447
920 1835
922 714
922 1385
926 1105
928 1164
929 1442
930 720
930 1820
930 1830
932 1385
935 729
935 1110
938 1164
939 1439
940 1820
942 1384
944 1115
945 732
945 742
945 1431
945 1805
947 1169
950 751
950 1795
952 1380
953 1120
955 1429
957 1169
959 756
960 1128
960 1785
961 1375
961 1420
963 766
965 1775
966 1174
968 775
970 1130
971 1375
971 1419
974 1770
976 1174
978 779
979 1135
980 1370
980 1414
984 1770
985 1179
988 779
989 1135
989 1407
990 1370
992 1145
994 1770
995 1179
998 780
999 1404
1000 1370
1000 1760
1002 790
1002 1145
1005 1176
1005 1750
1007 799
1008 1399
1009 1375
1011 1150
1015 805
1015 1174
1015 1740
1018 1399
1019 1156
1019 1372
1022 1389
1023 811
1024 1179
1025 821
1025 1725
1025 1735
1029 1160
1029 1367
1032 1384
1033 1184
1034 826
1035 836
1035 1710
1035 1720
1038 1165
1039 1365
1042 1384
1043 1184
1044 841
1045 851
1045 1695
1045 1705
1047 1170
1049 1365
1049 1375
1054 856
1055 866
1055 1680
1055 1690
1060 875
1060 1665
1065 884
1070 893
1070 1655
1078 900
1078 1648
1083 909
1084 1640
1093 909
1094 1640
1100 917
1100 1630
1105 926
1105 1620
1110 935
1110 1605
1115 944
1120 953
1120 1590
1120 1600
1128 960
1130 970
1130 1575
1130 1585
1135 979
1135 989
1135 1560
1145 992
1145 1002
1145 1545
1145 1555
1150 1011
1150 1530
1154 797
1154 807
1154 1742
1154 1752
1156 1019
1159 816
1159 826
1159 836
1159 902
1159 912
1159 1637
1159 1647
1159 1712
1159 1722
1159 1732
1160 1029
1160 1520
1164 687
1164 697
1164 707
1164 717
1164 794
1164 845
1164 855
1164 921
1164 931
1164 941
1164 1607
1164 1617
1164 1627
1164 1687
1164 1697
1164 1755
1164 1832
1164 1842
1164 1852
1164 1862
1165 1038
1165 1505
1167 865
1169 726
1169 736
1169 746
1169 756
1169 766
1169 875
1169 885
1169 895
1169 950
1169 1592
1169 1650
1169 1660
1169 1670
1169 1782
1169 1792
1169 1802
1169 1812
1169 1822
1170 1047
1172 960
1173 789
1173 1760
1174 689
1174 775
1174 970
1174 1007
1174 1017
1174 1500
1174 1532
1174 1542
1174 1572
1174 1582
1174 1770
1174 1860
1177 980
1179 990
1179 1026
1179 1522
1179 1551
1179 1561
1180 1049
1184 687
1184 1035
1184 1500
1184 1510
1184 1860
1189 577
1189 587
1189 597
1189 607
1189 617
1189 627
1189 637
1189 647
1189 657
1189 667
1189 677
1189 1869
1189 1879
1189 1889
1189 1899
1189 1909
1189 1919
1189 1929
1189 1939
1189 1949
1189 1959
1189 1969
1199 584
1199 1965
1209 582
1209 1965
1214 572
1214 1974
1219 507
1219 517
1219 527
1219 537
1219 547
1219 557
1219 1983
1219 1993
1219 2003
1219 2013
1219 2023
1219 2033
1220 2043
1224 472
1224 482
1224 492
1224 2053
1224 2063
1224 2073
1232 2079
1234 471
1237 2070
1240 479
1247 2070
1250 476
1254 2078
1255 466
1259 447
1259 2087
1259 2097
1264 417
1264 427
1264 437
1264 2106
1264 2116
1264 2126
1269 387
1269 397
1269 407
1269 2135
1269 2145
1269 2155
1272 2165
1279 386
1280 396
1280 406
1280 2135
1280 2145
1280 2155
1283 416
1285 426
1285 436
1285 2105
1285 2115
1285 2125
1288 446
1290 456
1290 2085
1290 2095
1293 466
1295 2075
1298 475
1304 2070
1308 479
1314 2070
1315 471
1317 2080
1325 472
1325 482
1325 492
1325 502
1325 2045
1325 2055
1325 2065
1330 511
1330 521
1330 531
1330 541
1330 551
1330 561
1330 1980
1330 1990
1330 2000
1330 2010
1330 2020
1330 2030
1333 571
1335 1970
1338 580
1344 1965
1348 584
1354 1965
1355 576
1357 1975
1360 585
1360 595
1360 605
1360 615
1360 625
1360 635
1360 645
1360 655
1360 665
1360 675
1360 1865
1360 1875
1360 1885
1360 1895
1360 1905
1360 1915
1360 1925
1360 1935
1360 1945
1360 1955
1362 685
1365 1030
1365 1040
1365 1500
1365 1510
1367 1520
1369 1860
1370 980
1370 990
1370 1000
1370 1020
1370 1049
1370 1545
1370 1555
1370 1565
1372 689
1372 1529
1375 770
1375 780
1375 960
1375 970
1375 1009
1375 1500
1375 1574
1375 1584
1375 1760
1375 1770
1377 790
1377 1780
1379 1860
1380 720
1380 730
1380 740
1380 750
1380 760
1380 865
1380 875
1380 885
1380 895
1380 945
1380 1046
1380 1593
1380 1603
1380 1650
1380 1660
1380 1670
1380 1680
1380 1790
1380 1800
1380 1810
1380 1820
1382 684
1382 1830
1384 1032
1384 1505
1384 1515
1384 1755
1385 694
1385 704
1385 840
1385 850
1385 915
1385 925
1385 935
1385 1612
1385 1622
1385 1632
1385 1689
1385 1699
1385 1709
1385 1840
1385 1850
1387 794
1388 901
1389 1022
1389 1524
1390 810
1390 820
1390 830
1390 1641
1390 1718
1390 1728
1390 1738
1394 1752
1395 800
1397 1530
1399 1007
1399 1017
1399 1540
1404 992
1404 1549
1406 1559
1414 977
1414 987
1414 1565
1417 1575
1419 962
1419 1585
1428 1590
1429 947
1429 957
1429 1600
1438 1605
1439 932
1439 942
1439 1615
1444 922
1444 1624
1449 912
1449 1633
1457 1640
1459 909
1467 1640
1469 902
1472 1649
1477 894
1479 1657
1482 884
1485 1665
1489 872
1489 1675
1494 857
1494 1684
1496 1694
1500 1170
1500 1180
1500 1365
1500 1375
1504 842
1504 852
1504 1700
1505 1384
1507 1710
1509 1165
1510 1184
1510 1365
1514 827
1514 837
1514 1718
1515 1384
1519 1162
1520 1181
1520 1367
1522 1725
1524 812
1524 822
1524 1389
1524 1735
1529 1157
1529 1372
1530 1176
1530 1397
1533 1740
1534 802
1537 1150
1537 1750
1539 1375
1540 1174
1540 1399
1544 792
1545 1757
1546 1145
1548 1370
1549 782
1549 1179
1549 1404
1549 1767
1556 1145
1558 1370
1559 779
1559 1179
1559 1406
1559 1770
1560 1135
1565 1414
1568 1370
1569 779
1569 1177
1569 1770
1570 1135
1575 1417
1577 1375
1579 777
1579 1130
1579 1174
1579 1770
1584 767
1584 1779
1585 1419
1587 1375
1589 757
1589 1127
1589 1172
1589 1788
1590 1428
1596 1380
1597 1120
1597 1795
1599 747
1599 1169
1600 1429
1602 1804
1604 732
1604 1814
1605 1110
1605 1438
1606 1383
1608 1164
1612 1820
1614 729
1615 1110
1615 1439
1616 1385
1618 1164
1619 717
1619 1828
1624 1105
1624 1444
1626 1385
1627 1835
1628 1164
1629 707
1632 1844
1633 1100
1633 1449
1636 1388
1637 1159
1639 692
1639 702
1639 1852
1640 1080
1640 1090
1640 1457
1640 1467
1645 1860
1646 1390
1647 1159
1649 682
1649 1472
1650 1075
1650 1169
1650 1380
1651 1868
1657 1479
1659 672
1659 1070
1659 1874
1660 1169
1660 1380
1665 1060
1665 1485
1667 1880
1669 662
1670 1169
1670 1380
1672 1889
1675 1060
1675 1489
1679 664
1680 1169
1680 1380
1682 1885
1684 1055
1684 1494
1689 664
1689 1164
1689 1385
1692 1885
1694 1052
1694 1496
1699 662
1699 1164
1699 1385
1700 1504
1702 1045
1702 1889
1707 654
1709 1162
1709 1385
1710 1035
1710 1507
1710 1895
1715 646
1716 1903
1718 1390
1718 1514
1719 1159
1720 1035
1724 632
1724 1909
1725 1025
1725 1522
1726 1919
1728 1390
1729 1159
1734 622
1734 1925
1735 1025
1735 1524
1738 1390
1739 1157
1740 1015
1740 1533
1743 1930
1744 607
1744 617
1744 1940
1747 1395
1749 1154
1750 1005
1750 1537
1753 1945
1754 604
1755 1162
1755 1380
1757 1545
1759 1172
1760 596
1760 1000
1760 1953
1764 1375
1767 1549
1769 582
1769 1174
1769 1958
1770 970
1770 980
1770 990
1770 1559
1770 1569
1770 1579
1770 1968
1774 1375
1779 572
1779 965
1779 1172
1779 1584
1779 1973
1783 1380
1787 1980
1788 960
1788 1589
1789 569
1789 1169
1793 1380
1795 561
1795 950
1795 1597
1795 1987
1799 1169
1803 1380
1804 1602
1804 1992
1805 556
1805 945
1809 1169
1813 1380
1814 1604
1814 1992
1815 557
1815 945
1819 1169
1820 930
1820 1612
1822 1985
1823 564
1823 1380
1828 1619
1829 1167
1830 930
1832 1385
1832 1985
1833 564
1835 920
1835 1627
1839 1164
1841 1990
1842 559
1842 1385
1844 1632
1845 910
1846 1999
1847 549
1849 1164
1852 1385
1852 1639
1855 910
1856 2003
1857 544
1859 1164
1860 900
1860 1174
1860 1184
1860 1365
1860 1375
1860 1645
1862 1385
1864 2009
1865 536
1868 1651
1869 1189
1869 1360
1870 890
1872 2015
1874 522
1874 1659
1874 2025
1879 1189
1879 1360
1880 880
1880 1667
1883 2030
1884 512
1885 850
1885 860
1885 870
1885 1676
1885 1686
1885 1696
1887 2040
1889 1189
1889 1360
1891 1704
1893 843
1894 509
1895 1714
1897 2040
1899 835
1899 1189
1899 1360
1900 501
1902 2049
1905 825
1905 1717
1909 1189
1909 1360
1910 499
1912 2050
1913 1724
1914 487
1914 2060
1915 825
1919 1189
1919 1360
1920 815
1920 1732
1923 2065
1924 484
1929 1189
1929 1360
1929 1737
1930 476
1930 805
1930 2073
1937 1744
1939 1189
1939 1360
1940 471
1940 805
1940 2077
1945 790
1945 1750
1949 1189
1949 1360
1949 2082
1950 466
1950 1759
1955 780
1955 1768
1959 1189
1959 1360
1959 2085
1960 464
1965 473
1965 780
1965 1197
1965 1207
1965 1340
1965 1350
1965 1769
1965 2075
1969 1360
1970 770
1970 1778
1971 1189
1973 1214
1974 1335
1975 474
1975 2075
1980 755
1980 765
1980 1782
1980 1792
1982 1219
1983 1330
1985 474
1985 715
1985 725
1985 1820
1985 1830
1985 2075
1989 1797
1990 705
1990 734
1990 745
1990 1839
1992 1219
1993 1330
1993 1813
1994 467
1994 2080
1998 1845
2000 695
2002 1219
2002 1855
2003 1330
2003 2085
2004 462
2005 685
2007 1864
2012 1219
2012 2090
2013 1330
2014 452
2015 675
2015 1870
2017 2099
2022 1219
2023 1330
2024 449
2025 675
2025 1874
2027 2100
2030 441
2030 665
2030 1883
2032 1219
2032 2109
2033 1330
2040 439
2040 650
2040 660
2040 1887
2040 1897
2042 1219
2042 2110
2043 1328
2046 430
2047 2119
2049 1902
2050 635
2050 645
2050 1912
2051 1224
2053 1325
2056 429
2057 2120
2060 635
2060 1914
2061 420
2061 1224
2062 2129
2063 1325
2065 620
2065 1923
2070 1235
2070 1245
2070 1300
2070 1310
2071 419
2071 1224
2072 2130
2073 1325
2073 1930
2075 560
2075 570
2075 580
2075 610
2075 1254
2075 1965
2075 1975
2075 1985
2076 410
2077 1940
2077 2139
2078 1316
2079 1295
2080 600
2080 1229
2080 1994
2082 1949
2083 553
2083 586
2084 402
2084 2147
2085 1257
2085 1959
2085 2003
2088 543
2088 1290
2090 2012
2094 399
2094 535
2094 2150
2095 1259
2098 1290
2099 2017
2100 520
2100 2027
2103 394
2103 2155
2105 1262
2107 1285
2109 2032
2110 505
2110 515
2110 2042
2112 389
2112 2160
2115 1264
2117 1285
2119 2047
2120 490
2120 500
2120 2057
2122 389
2122 2159
2125 1264
2127 1285
2129 397
2129 2062
2130 475
2130 485
2130 2072
2130 2145
2135 1267
2136 1280
2137 404
2139 2077
2140 465
2140 2145
2145 410
2145 1269
2145 2130
2146 1280
2147 2084
2150 419
2150 450
2150 460
2150 2094
2155 440
2155 1269
2155 2103
2155 2125
2156 1280
2158 425
2160 2112
2165 1272
