399 1392
399 1412
404 1312
404 1322
404 1332
404 1342
404 1352
404 1362
404 1372
404 1382
404 1401
404 1421
404 1431
404 1441
404 1451
404 1461
404 1471
404 1487
409 1496
409 1506
409 1516
409 1526
409 1537
414 1232
414 1242
414 1252
414 1309
414 1546
414 1556
419 1197
419 1207
419 1217
419 1565
419 1575
419 1585
419 1595
420 1260
424 1177
424 1187
424 1309
424 1604
424 1614
429 1157
429 1167
429 1623
429 1633
430 1260
434 1137
434 1147
434 1309
434 1642
434 1652
439 1122
439 1661
439 1671
440 1260
444 1102
444 1112
444 1309
444 1680
444 1690
449 1087
449 1699
450 1260
451 1709
454 1072
454 1309
454 1719
459 1057
459 1728
460 1260
460 1738
464 1047
464 1309
465 1747
469 1032
469 1757
470 1260
474 1017
474 1309
474 1766
474 1776
479 1007
479 1785
480 1260
484 997
484 1309
484 1794
489 987
489 1803
490 1260
490 1813
494 972
494 1309
495 1822
499 962
499 1832
500 1260
504 952
504 1309
504 1841
509 942
509 1850
510 1260
514 932
514 1309
514 1859
519 922
519 1868
520 1260
524 912
524 1309
524 1877
529 902
529 1886
530 1260
534 892
534 1309
534 1895
537 1905
540 1260
542 884
544 1309
544 1913
547 874
549 1922
550 1260
552 864
554 1309
554 1931
559 852
559 1940
560 1260
564 1309
565 1948
567 844
570 1260
570 1957
572 834
574 1309
577 1965
579 822
580 1260
582 1974
584 1309
587 814
589 1982
590 1260
592 804
594 1309
594 1991
599 792
599 2000
600 1260
604 1309
605 2008
607 784
610 1260
610 2017
614 772
614 1309
617 2025
620 1260
622 764
624 1309
625 2032
630 756
630 1260
632 2040
634 1309
637 2049
638 749
640 1260
642 739
644 1309
644 2057
650 731
650 1260
652 2064
654 1309
658 724
659 2072
660 1260
664 1309
665 716
667 2079
670 1260
673 709
674 1309
674 2087
680 701
680 1260
682 2094
684 1309
685 691
686 2104
690 1260
694 682
694 1309
694 2110
700 1260
703 2115
704 672
704 1309
707 2125
710 1260
710 1465
710 1475
710 1485
710 1495
710 1505
710 1515
714 667
714 1309
717 2129
720 1260
720 1465
720 1519
722 659
724 1309
724 2137
730 651
730 1260
730 1465
730 1519
732 2144
734 1309
738 644
739 2152
740 1260
740 1465
740 1519
744 1309
745 636
747 2159
750 1260
750 1465
750 1519
753 629
754 1309
754 2167
760 621
760 1260
760 1465
760 1519
762 2174
764 1309
770 616
770 1260
770 1465
770 1519
771 2179
774 1309
778 609
779 2185
780 1260
780 1465
780 1519
784 1309
785 601
785 2193
790 1260
790 1465
790 1519
793 594
793 2200
794 1309
800 1260
800 1465
800 1519
802 589
802 2205
804 1309
810 1260
810 1465
810 1519
810 2212
811 584
814 1309
819 577
819 2217
820 1260
820 1465
820 1519
824 1309
827 569
827 2224
830 1260
830 1465
830 1519
834 1309
836 2229
837 564
840 1260
840 1465
840 1519
844 1309
844 2235
846 559
850 1260
850 1465
850 1519
853 2240
854 552
854 1309
860 1260
860 1465
860 1519
862 2245
864 547
864 1309
870 1260
870 1465
870 1519
870 2252
872 539
874 1309
879 2257
880 1260
880 1465
880 1519
882 534
884 1309
887 2264
890 1260
890 1465
890 1519
892 529
894 1309
896 2269
900 1260
900 1465
900 1519
901 524
904 1309
906 2273
910 519
910 1260
910 1465
910 1519
914 1309
915 2278
919 514
920 1260
920 1465
920 1519
924 1309
925 2282
928 509
930 1260
930 1465
930 1519
932 2290
934 1309
937 504
940 1260
940 1465
940 1519
942 2294
944 1309
946 499
950 1260
950 1465
950 1519
951 2299
954 1309
955 494
960 1260
960 1465
960 1519
961 2303
964 489
964 1309
970 1260
970 1465
970 1519
970 2308
973 484
974 1309
980 1260
980 1465
980 1519
980 2312
982 479
984 1309
990 1260
990 1465
990 1519
990 2315
992 479
994 1309
999 2320
1000 1260
1000 1465
1000 1519
1001 474
1004 1309
1008 2325
1010 469
1010 1260
1010 1465
1010 1519
1014 1309
1017 2330
1019 464
1020 1260
1020 1465
1020 1519
1024 1309
1027 2334
1028 459
1030 1260
1030 1465
1030 1519
1034 1309
1037 2335
1038 459
1040 1260
1040 1465
1040 1519
1044 1309
1046 2340
1047 454
1050 1260
1050 1465
1050 1519
1054 1309
1056 2343
1057 449
1060 1260
1060 1465
1060 1519
1064 1309
1065 2348
1067 444
1070 1260
1070 1465
1070 1519
1074 1309
1075 2350
1077 444
1080 1260
1080 1465
1080 1519
1084 1309
1084 2355
1086 439
1090 1260
1090 1465
1090 1519
1094 1309
1094 2355
1096 435
1100 1260
1100 1465
1100 1519
1103 2360
1104 1309
1106 434
1110 1260
1110 1465
1110 1519
1112 2365
1114 1309
1115 429
1120 1260
1120 1465
1120 1519
1122 2365
1124 1309
1125 429
1130 1260
1130 1465
1130 1519
1132 2369
1134 424
1134 1309
1140 1260
1140 1465
1140 1519
1142 2370
1144 422
1144 1309
1150 1260
1150 1465
1150 1519
1151 2375
1154 419
1154 1309
1160 1260
1160 1465
1160 1519
1161 2375
1164 419
1164 1309
1170 1260
1170 1465
1170 1519
1171 2378
1173 414
1174 1309
1180 1260
1180 1465
1180 1519
1181 2380
1183 414
1184 1309
1190 1260
1190 1465
1190 1519
1191 2383
1192 409
1194 1309
1200 1260
1200 1465
1200 1519
1201 2385
1202 409
1204 1309
1210 1260
1210 1465
1210 1519
1211 2385
1212 409
1214 1309
1220 1260
1220 1465
1220 1519
1220 2390
1221 404
1224 1309
1230 1260
1230 1465
1230 1519
1230 2390
1231 404
1234 1309
1240 1260
1240 1465
1240 1519
1240 2390
1241 404
1244 1309
1250 1260
1250 1465
1250 1519
1250 2390
1251 404
1254 1309
1259 2395
1260 399
1260 1260
1260 1465
1260 1519
1264 1309
1269 2395
1270 399
1270 1260
1270 1465
1270 1519
1274 1309
1279 2395
1280 399
1280 1260
1280 1465
1280 1519
1284 1309
1288 2400
1290 396
1290 1260
1290 1465
1290 1519
1294 1309
1298 2400
1300 394
1300 1260
1300 1465
1300 1519
1304 1309
1308 2400
1310 394
1310 1260
1310 1465
1310 1519
1314 1309
1318 2400
1320 394
1320 1260
1320 1465
1320 1519
1324 1309
1327 2405
1330 394
1330 1260
1330 1465
1330 1519
1334 1309
1337 2404
1340 394
1340 1260
1340 1465
1340 1519
1344 1309
1347 2400
1350 394
1350 1260
1350 1465
1350 1519
1354 1309
1355 403
1355 413
1355 423
1355 433
1355 443
1355 453
1355 463
1355 473
1355 483
1355 493
1355 503
1355 513
1355 523
1355 533
1355 543
1355 553
1355 563
1355 573
1355 583
1355 593
1355 603
1355 613
1355 623
1355 633
1355 643
1355 653
1355 663
1355 673
1355 683
1355 693
1355 703
1355 713
1355 723
1355 733
1355 743
1355 753
1355 763
1355 773
1355 783
1355 793
1355 803
1355 813
1355 823
1355 833
1355 843
1355 853
1355 863
1355 873
1355 883
1355 893
1355 903
1355 913
1355 923
1355 933
1355 943
1355 953
1355 963
1355 973
1355 983
1355 993
1355 1003
1355 1013
1355 1023
1355 1033
1355 1043
1355 1053
1355 1063
1355 1073
1355 1083
1355 1093
1355 1103
1355 1113
1355 1123
1355 1133
1355 1143
1355 1153
1356 2405
1360 1260
1360 1465
1360 1519
1363 1159
1364 1309
1365 1630
1365 1640
1365 1650
1365 1660
1365 1670
1365 1680
1365 1690
1365 1700
1365 1710
1365 1720
1365 1730
1365 1740
1365 1750
1365 1760
1365 1770
1365 1780
1365 1790
1365 1800
1365 1810
1365 1820
1365 1830
1365 1840
1365 1850
1365 1860
1365 1870
1365 1880
1365 1890
1365 1900
1365 1910
1365 1920
1365 1930
1365 1940
1365 1950
1365 1960
1365 1970
1365 1980
1365 1990
1365 2000
1365 2010
1365 2020
1365 2030
1365 2040
1365 2050
1365 2060
1365 2070
1365 2080
1365 2090
1365 2100
1365 2110
1365 2120
1365 2130
1365 2140
1365 2150
1365 2160
1365 2170
1365 2180
1365 2190
1365 2200
1365 2210
1365 2220
1365 2230
1365 2240
1365 2250
1365 2260
1365 2270
1365 2280
1365 2290
1365 2300
1365 2310
1365 2320
1365 2330
1365 2340
1365 2350
1365 2360
1365 2370
1365 2380
1365 2390
1365 2400
1370 1260
1370 1465
1370 1519
1373 1159
1374 1309
1375 1630
1380 1260
1380 1465
1380 1519
1383 1159
1384 1309
1385 1630
1390 1260
1390 1465
1390 1519
1393 1159
1394 392
1394 402
1394 412
1394 422
1394 432
1394 442
1394 452
1394 462
1394 472
1394 482
1394 492
1394 502
1394 512
1394 522
1394 532
1394 542
1394 552
1394 562
1394 572
1394 582
1394 592
1394 602
1394 612
1394 622
1394 632
1394 642
1394 652
1394 662
1394 672
1394 682
1394 692
1394 702
1394 712
1394 722
1394 732
1394 742
1394 752
1394 762
1394 772
1394 782
1394 792
1394 802
1394 812
1394 822
1394 832
1394 842
1394 852
1394 862
1394 872
1394 882
1394 892
1394 902
1394 912
1394 922
1394 932
1394 942
1394 952
1394 962
1394 972
1394 982
1394 992
1394 1002
1394 1012
1394 1022
1394 1032
1394 1042
1394 1052
1394 1062
1394 1072
1394 1082
1394 1092
1394 1102
1394 1112
1394 1122
1394 1132
1394 1142
1394 1309
1395 1630
1400 1260
1400 1465
1400 1519
1404 391
1404 1309
1405 1630
1409 1640
1409 1650
1409 1660
1409 1670
1409 1680
1409 1690
1409 1700
1409 1710
1409 1720
1409 1730
1409 1740
1409 1750
1409 1760
1409 1770
1409 1780
1409 1790
1409 1800
1409 1810
1409 1820
1409 1830
1409 1840
1409 1850
1409 1860
1409 1870
1409 1880
1409 1890
1409 1900
1409 1910
1409 1920
1409 1930
1409 1940
1409 1950
1409 1960
1409 1970
1409 1980
1409 1990
1409 2000
1409 2010
1409 2020
1409 2030
1409 2040
1409 2050
1409 2060
1409 2070
1409 2080
1409 2090
1409 2100
1409 2110
1409 2120
1409 2130
1409 2140
1409 2150
1409 2160
1409 2170
1409 2180
1409 2190
1409 2200
1409 2210
1409 2220
1409 2230
1409 2240
1409 2250
1409 2260
1409 2270
1409 2280
1409 2290
1409 2300
1409 2310
1409 2320
1409 2330
1409 2340
1409 2350
1409 2360
1409 2370
1409 2380
1409 2390
1409 2400
1410 1260
1410 1465
1410 1519
1414 389
1414 1309
1418 2405
1420 1260
1420 1465
1420 1519
1423 394
1424 1309
1428 2403
1430 1260
1430 1465
1430 1519
1433 394
1434 1309
1438 2405
1440 1260
1440 1465
1440 1519
1443 394
1444 1309
1447 2400
1450 1260
1450 1465
1450 1519
1453 394
1454 1309
1457 2400
1460 1260
1460 1465
1460 1519
1463 394
1464 1309
1467 2400
1470 1260
1470 1465
1470 1519
1473 394
1474 1309
1477 2400
1480 1260
1480 1465
1480 1519
1483 394
1484 1309
1487 2400
1490 1260
1490 1465
1490 1519
1492 399
1494 1309
1496 2395
1500 1260
1500 1465
1500 1519
1502 399
1504 1309
1506 2395
1510 1260
1510 1465
1510 1519
1512 399
1514 1309
1516 2395
1520 1260
1520 1465
1520 1519
1522 399
1524 1309
1526 2395
1530 1260
1530 1465
1530 1519
1532 399
1534 1309
1535 2390
1540 1260
1540 1465
1540 1519
1541 404
1544 1309
1545 2390
1550 1260
1550 1465
1550 1519
1551 404
1554 1309
1555 2390
1560 1260
1560 1465
1560 1519
1561 404
1564 1309
1565 2385
1570 409
1570 1260
1570 1465
1570 1519
1574 1309
1575 2385
1580 409
1580 1260
1580 1465
1580 1519
1584 1309
1585 2385
1590 409
1590 1260
1590 1465
1590 1519
1594 1309
1595 2380
1599 414
1600 1260
1600 1465
1600 1519
1604 1309
1605 2380
1609 414
1610 1260
1610 1465
1610 1519
1614 1309
1615 2375
1618 419
1620 1260
1620 1465
1620 1519
1624 1309
1625 2375
1628 419
1630 1260
1630 1465
1630 1519
1634 1309
1635 2370
1637 424
1640 1260
1640 1465
1640 1519
1644 1309
1645 2370
1647 424
1650 1260
1650 1465
1650 1519
1654 1309
1655 2365
1656 429
1660 1260
1660 1465
1660 1519
1664 1309
1665 2365
1666 429
1670 1260
1670 1465
1670 1519
1674 1309
1674 2360
1675 434
1680 1260
1680 1465
1680 1519
1684 1309
1684 2360
1685 434
1690 1260
1690 1465
1690 1519
1693 2355
1694 439
1694 1309
1700 1260
1700 1465
1700 1519
1703 2353
1704 441
1704 1309
1710 1260
1710 1465
1710 1519
1713 2350
1714 444
1714 1309
1720 1260
1720 1465
1720 1519
1722 2345
1723 449
1724 1309
1730 1260
1730 1465
1730 1519
1731 2340
1732 454
1734 1309
1740 1260
1740 1465
1740 1519
1741 2340
1742 454
1744 1309
1750 1260
1750 1465
1750 1519
1750 2335
1751 459
1754 1309
1759 2330
1760 464
1760 1260
1760 1465
1760 1519
1764 1309
1769 2327
1770 467
1770 1260
1770 1465
1770 1519
1774 1309
1779 472
1779 2322
1780 1260
1780 1465
1780 1519
1784 1309
1789 476
1789 2317
1790 1260
1790 1465
1790 1519
1794 1309
1799 479
1799 2312
1800 1260
1800 1465
1800 1519
1804 1309
1808 484
1809 2307
1810 1260
1810 1465
1810 1519
1814 1309
1817 489
1819 2305
1820 1260
1820 1465
1820 1519
1824 1309
1826 494
1828 2300
1830 1260
1830 1465
1830 1519
1834 1309
1835 499
1837 2294
1840 1260
1840 1465
1840 1519
1844 1309
1845 502
1847 2289
1850 1260
1850 1465
1850 1519
1853 509
1854 1309
1857 2284
1860 1260
1860 1465
1860 1519
1862 514
1864 1309
1867 2279
1870 1260
1870 1465
1870 1519
1871 519
1874 1309
1877 2274
1880 524
1880 1260
1880 1465
1880 1519
1884 1309
1887 2269
1890 527
1890 1260
1890 1465
1890 1519
1894 1309
1895 2260
1898 534
1900 1260
1900 1465
1900 1519
1904 1309
1905 2255
1907 539
1910 1260
1910 1465
1910 1519
1914 1309
1915 2250
1916 544
1920 1260
1920 1465
1920 1519
1924 1309
1924 2245
1925 549
1930 1260
1930 1465
1930 1519
1932 2239
1933 555
1934 1309
1940 1260
1940 1465
1940 1519
1942 560
1942 2234
1944 1309
1950 567
1950 1260
1950 1465
1950 1519
1950 2225
1954 1309
1958 574
1960 1260
1960 1465
1960 1519
1960 2220
1964 1309
1967 579
1968 2213
1970 1260
1970 1465
1970 1519
1974 1309
1976 584
1978 2208
1980 1260
1980 1465
1980 1519
1984 591
1984 1309
1985 2200
1990 599
1990 1260
1990 1465
1990 1519
1994 1309
1994 2195
2000 602
2000 1260
2000 1465
2000 1519
2002 2189
2004 1309
2007 610
2010 1260
2010 1465
2010 1519
2010 2180
2014 1309
2015 617
2018 2173
2020 1260
2020 1465
2020 1519
2023 624
2024 1309
2025 2165
2030 1260
2030 1465
2030 1519
2032 629
2034 1309
2035 2160
2039 637
2040 1260
2040 1465
2040 1519
2043 2153
2044 1309
2047 644
2050 1260
2050 1465
2050 1519
2050 2145
2054 652
2054 1309
2058 2138
2060 1260
2060 1465
2060 1519
2062 659
2064 1309
2065 2130
2069 667
2070 1260
2070 1465
2070 1519
2073 2123
2074 1309
2077 674
2080 1260
2080 1465
2080 1519
2080 2115
2084 682
2084 1309
2088 2108
2090 1260
2090 1465
2090 1519
2092 689
2094 1309
2095 2100
2099 697
2100 1260
2100 1465
2100 1519
2103 2093
2104 1309
2107 704
2110 1260
2110 1465
2110 1519
2110 2085
2114 712
2114 1309
2118 2078
2119 1265
2119 1275
2119 1285
2119 1295
2120 1465
2120 1519
2122 719
2125 2070
2129 727
2130 1465
2130 1519
2133 2063
2137 734
2140 744
2140 1465
2140 1519
2140 2050
2148 750
2148 2043
2150 1465
2150 1519
2155 758
2155 2035
2160 1465
2160 1519
2163 765
2163 2028
2167 775
2168 2018
2170 1465
2170 1519
2175 782
2175 2010
2180 1465
2180 1519
2180 2000
2182 790
2187 799
2188 1993
2190 1465
2190 1519
2194 807
2195 1980
2199 816
2200 1465
2200 1519
2203 1973
2205 824
2208 1963
2210 833
2210 1465
2210 1519
2215 842
2215 1950
2220 1465
2220 1519
2222 850
2223 1943
2227 859
2228 1933
2230 869
2230 1465
2230 1519
2233 1923
2238 875
2240 1465
2240 1519
2240 1910
2242 885
2245 1900
2247 894
2250 1465
2250 1519
2250 1890
2254 902
2258 1883
2259 911
2260 1465
2260 1519
2263 921
2263 1873
2268 930
2268 1863
2270 1465
2270 1519
2272 940
2273 1853
2277 949
2278 1843
2280 959
2280 1465
2280 1519
2283 1833
2285 968
2288 1823
2290 977
2290 1465
2290 1519
2290 1810
2294 987
2295 1800
2299 996
2300 1465
2300 1519
2300 1790
2303 1006
2305 1016
2305 1775
2310 1025
2310 1465
2310 1519
2310 1765
2315 1034
2315 1044
2315 1750
2320 1053
2320 1465
2320 1519
2320 1735
2325 1062
2325 1072
2325 1720
2330 1081
2330 1465
2330 1519
2330 1705
2333 1091
2335 1101
2335 1690
2340 1110
2340 1120
2340 1465
2340 1519
2340 1670
2340 1680
2345 1129
2345 1139
2345 1655
2350 1148
2350 1158
2350 1465
2350 1519
2350 1635
2350 1645
2355 1167
2355 1177
2355 1610
2355 1620
2359 1187
2360 1197
2360 1465
2360 1519
2360 1590
2360 1600
2364 1207
2365 1217
2365 1227
2365 1240
2365 1555
2365 1565
2365 1575
2370 1249
2370 1259
2370 1269
2370 1279
2370 1465
2370 1519
2370 1529
2370 1539
2375 1288
2375 1298
2375 1308
2380 1317
2380 1327
2380 1337
2380 1347
2380 1357
2380 1367
2380 1377
2380 1387
2380 1397
2380 1407
2380 1417
2380 1427
2380 1437
2380 1447
2380 1457
