479 1162
479 1172
479 1182
479 1192
479 1202
479 1212
479 1222
479 1232
479 1242
479 1252
479 1262
479 1272
479 1282
479 1292
479 1302
479 1312
479 1322
479 1332
479 1342
479 1352
479 1362
479 1372
479 1382
479 1392
479 1402
479 1412
479 1422
479 1432
479 1442
479 1452
479 1462
479 1472
479 1482
479 1492
479 1502
479 1512
479 1522
479 1532
479 1542
479 1552
479 1562
479 1572
479 1582
479 1592
479 1602
479 1612
479 1622
487 1629
489 1161
497 1625
499 1164
507 1624
509 1164
517 1620
518 1169
527 1619
528 1170
537 1615
538 1174
547 1614
548 1175
557 1610
558 1179
566 1605
568 1179
576 1605
577 1184
585 1600
587 1184
595 1600
596 1189
605 1595
606 1189
615 1194
615 1595
624 1590
625 1194
634 1199
634 1590
643 1585
644 1199
653 1204
653 1585
662 1580
663 1204
672 1209
672 1580
681 1575
682 1209
691 1214
691 1575
700 1570
701 1214
710 1219
710 1570
719 1565
720 1219
729 1565
730 1222
738 1560
740 1224
748 1558
750 1227
758 1555
760 1229
768 1553
770 1232
778 1550
780 1234
788 1548
790 1237
798 1545
800 1239
807 1540
810 1242
817 1540
820 1244
826 1535
830 1247
836 1535
840 1249
845 1530
850 1252
855 1530
860 1254
864 1525
870 1257
874 1525
880 1259
883 1520
889 1264
893 1520
899 1264
902 1515
908 1269
912 1514
918 1269
922 1510
927 1274
932 1509
937 1274
942 1505
946 1279
952 1504
956 1279
962 1500
965 1284
971 1495
975 1284
981 1495
985 1287
990 1490
995 1289
1000 1490
1005 1292
1010 1485
1015 1294
1020 1485
1025 1297
1029 1480
1035 1299
1039 1480
1045 1302
1048 1475
1055 1304
1058 1475
1065 1307
1067 1470
1075 1309
1077 1469
1085 1312
1087 1465
1095 1314
1097 1464
1105 1317
1107 1460
1115 1319
1117 1459
1125 1322
1126 1464
1129 1474
1132 1314
1134 1483
1137 1304
1139 1492
1139 1502
1142 1294
1147 1284
1147 1509
1151 1519
1152 1274
1156 1528
1159 1262
1164 467
1164 477
1164 1535
1164 2312
1164 2322
1167 1254
1169 486
1169 496
1169 1544
1169 2282
1169 2292
1169 2302
1174 464
1174 505
1174 515
1174 525
1174 2257
1174 2267
1174 2325
1175 1246
1175 1552
1179 534
1179 544
1179 2237
1179 2247
1182 1560
1183 1239
1184 464
1184 553
1184 563
1184 2212
1184 2222
1184 2325
1185 573
1189 583
1189 593
1189 1227
1189 2187
1189 2197
1190 1567
1194 464
1194 602
1194 612
1194 2167
1194 2177
1194 2325
1197 1219
1197 1575
1199 621
1199 631
1199 641
1199 2137
1199 2147
1199 2157
1204 464
1204 650
1204 660
1204 2117
1204 2127
1204 2325
1205 1582
1207 670
1207 1214
1209 680
1209 2092
1209 2102
1212 690
1214 464
1214 700
1214 710
1214 1587
1214 2067
1214 2077
1214 2325
1215 1206
1219 719
1219 729
1219 2047
1219 2057
1221 739
1222 1594
1224 464
1224 749
1224 759
1224 2017
1224 2027
1224 2037
1224 2325
1225 1201
1229 768
1229 778
1229 1997
1229 2007
1231 1599
1233 1194
1234 464
1234 787
1234 797
1234 807
1234 1972
1234 1982
1234 2325
1239 816
1239 826
1239 1605
1239 1947
1239 1957
1242 1189
1244 464
1244 835
1244 845
1244 1927
1244 1937
1244 2325
1247 855
1248 1610
1249 865
1249 875
1249 1902
1249 1912
1252 1184
1254 464
1254 884
1254 894
1254 1877
1254 1887
1254 2325
1256 904
1257 1615
1259 914
1259 1852
1259 1862
1261 924
1262 1179
1264 464
1264 934
1264 944
1264 1832
1264 1842
1264 2325
1267 1619
1269 953
1269 963
1269 1807
1269 1817
1270 973
1272 1174
1274 464
1274 983
1274 1782
1274 1792
1274 2325
1275 993
1276 1624
1279 1003
1279 1013
1279 1757
1279 1767
1282 1174
1284 464
1284 1022
1284 1032
1284 1042
1284 1737
1284 1747
1284 2325
1286 1625
1289 1051
1289 1061
1289 1712
1289 1722
1291 1169
1294 464
1294 1070
1294 1080
1294 1687
1294 1697
1294 2325
1295 1630
1297 1090
1299 1100
1299 1110
1299 1662
1299 1672
1301 1169
1304 464
1304 1119
1304 1129
1304 1642
1304 1652
1304 2325
1305 1630
1309 1138
1309 1148
1310 1158
1314 464
1314 2325
1324 464
1324 2325
1334 464
1334 2325
1344 464
1344 2325
1354 464
1354 2325
1364 464
1364 2325
1374 464
1374 2325
1384 464
1384 2325
1394 464
1394 2325
1404 464
1404 2325
1414 464
1414 2325
1424 464
1424 2325
1425 1170
1430 1150
1430 1160
1434 464
1434 2325
1435 1135
1435 1174
1435 1620
1435 1630
1437 1640
1440 1115
1440 1125
1440 1650
1442 1660
1444 464
1444 1179
1444 2325
1445 1100
1445 1620
1445 1670
1447 1680
1450 1080
1450 1090
1450 1690
1453 1184
1454 464
1454 1615
1454 2325
1455 1065
1455 1699
1455 1709
1460 1045
1460 1055
1460 1718
1460 1728
1462 1189
1463 1610
1464 464
1464 2325
1465 1030
1465 1737
1465 1747
1470 1010
1470 1020
1470 1756
1470 1766
1471 1194
1472 1604
1474 464
1474 2325
1475 995
1475 1775
1477 1785
1480 975
1480 985
1480 1199
1480 1795
1482 1599
1482 1805
1484 464
1484 2325
1485 955
1485 965
1485 1815
1487 1825
1489 1204
1490 940
1490 1590
1490 1835
1494 464
1494 2325
1495 920
1495 930
1495 1844
1495 1854
1497 1210
1499 1585
1500 905
1500 1863
1500 1873
1504 464
1504 2325
1505 885
1505 895
1505 1217
1505 1882
1505 1892
1507 1579
1510 870
1510 1901
1510 1911
1513 1224
1514 464
1514 2325
1515 850
1515 860
1515 1570
1515 1920
1517 1930
1520 835
1520 1232
1520 1940
1522 1950
1523 1563
1524 464
1524 2325
1525 815
1525 825
1525 1960
1527 1240
1530 800
1530 1555
1530 1969
1530 1979
1534 464
1534 2325
1535 780
1535 790
1535 1247
1535 1988
1535 1998
1538 1548
1540 765
1540 2007
1540 2017
1542 1255
1543 1538
1544 464
1544 2325
1545 745
1545 755
1545 2026
1545 2036
1550 725
1550 735
1550 1262
1550 1530
1550 2045
1550 2055
1554 464
1554 1272
1554 2325
1555 710
1555 1520
1555 2064
1555 2074
1560 690
1560 700
1560 1280
1560 2083
1560 2093
1563 1513
1564 464
1564 2325
1565 675
1565 1289
1565 2102
1568 1503
1569 2112
1570 655
1570 665
1570 1298
1570 1490
1570 2122
1574 464
1574 2132
1574 2325
1575 640
1575 1307
1575 1480
1575 2142
1579 1317
1579 2152
1580 620
1580 630
1580 1327
1580 1465
1580 2162
1584 464
1584 2325
1585 605
1585 1450
1585 2171
1585 2181
1590 585
1590 595
1590 1329
1590 2190
1590 2200
1594 464
1594 1445
1594 2325
1595 570
1595 2209
1595 2219
1600 550
1600 560
1600 1326
1600 2228
1600 2238
1603 1450
1604 464
1604 2325
1605 535
1605 2247
1609 2257
1610 515
1610 525
1610 1324
1610 2267
1612 1455
1614 464
1614 2277
1614 2325
1615 495
1615 505
1615 2287
1619 2297
1620 480
1620 1321
1620 2307
1622 1455
1624 466
1624 2322
1630 1319
1632 1459
1640 1316
1642 1460
1650 1314
1652 1464
1660 1311
1662 1465
1670 1309
1672 1469
1680 1306
1682 1470
1690 1304
1692 1474
1700 1304
1702 1475
1709 1299
1712 1479
1719 1299
1722 1480
1728 1294
1732 1484
1738 1294
1742 1485
1747 1289
1752 1489
1757 1289
1762 1490
1767 1284
1771 1495
1777 1284
1781 1495
1787 1279
1790 1500
1797 1279
1800 1500
1807 1279
1809 1505
1816 1274
1819 1505
1826 1274
1828 1510
1835 1269
1838 1510
1845 1269
1847 1515
1854 1264
1857 1515
1864 1264
1867 1519
1873 1259
1877 1520
1883 1259
1887 1524
1892 1254
1897 1525
1902 1254
1907 1529
1912 1254
1917 1530
1921 1249
1927 1534
1931 1249
1937 1535
1940 1244
1947 1539
1950 1244
1957 1540
1959 1239
1967 1544
1969 1239
1977 1545
1978 1234
1987 1549
1988 1234
1997 1550
1998 1234
2007 1229
2007 1554
2017 1229
2017 1555
2026 1224
2026 1560
2036 1224
2036 1560
2045 1219
2045 1565
2055 1219
2055 1565
2064 1214
2064 1570
2074 1214
2074 1570
2083 1575
2084 1212
2093 1575
2094 1209
2102 1580
2104 1207
2112 1580
2114 1204
2122 1584
2124 1202
2132 1585
2134 1199
2142 1589
2144 1197
2152 1590
2154 1194
2162 1594
2164 1194
2172 1595
2173 1189
2182 1599
2183 1189
2192 1184
2192 1600
2202 1184
2202 1604
2212 1179
2212 1605
2222 1179
2222 1609
2232 1174
2232 1610
2242 1174
2242 1614
2252 1174
2252 1615
2261 1169
2262 1619
2271 1169
2272 1620
2280 1164
2281 1625
2290 1164
2291 1625
2299 1159
2300 1630
2308 1623
2309 1161
2310 1171
2310 1181
2310 1191
2310 1201
2310 1211
2310 1221
2310 1231
2310 1241
2310 1251
2310 1261
2310 1271
2310 1281
2310 1291
2310 1301
2310 1311
2310 1321
2310 1331
2310 1341
2310 1351
2310 1361
2310 1371
2310 1381
2310 1391
2310 1401
2310 1411
2310 1421
2310 1431
2310 1441
2310 1451
2310 1461
2310 1471
2310 1481
2310 1491
2310 1501
2310 1511
2310 1521
2310 1531
2310 1541
2310 1551
2310 1561
2310 1571
2310 1581
2310 1591
2310 1601
2310 1611
