524 1267
524 1512
524 1522
529 1242
529 1252
529 1276
529 1286
529 1472
529 1482
529 1492
529 1502
529 1531
534 1222
534 1232
534 1295
534 1540
534 1647
537 1305
537 1550
539 1315
539 1469
539 1560
539 1637
539 1656
544 1221
544 1324
544 1334
544 1569
544 1579
544 1589
544 1627
544 1665
546 1599
549 1469
549 1609
549 1674
550 1342
554 1224
554 1432
555 1682
559 1441
559 1467
560 1345
562 1424
563 1219
564 1207
564 1450
565 1680
570 1345
571 1419
574 1204
575 1680
579 1350
580 1414
583 1199
584 1675
588 1355
590 1417
593 1200
594 1675
598 1355
600 1419
603 1204
603 1680
607 1350
609 1424
610 1688
612 1209
616 1345
618 1429
620 1690
621 1214
625 1340
628 1429
629 1695
631 1214
635 1340
637 1689
638 1429
640 1219
644 1345
645 1421
645 1680
650 1219
653 1350
654 1675
655 1416
660 1217
660 1358
664 1675
665 1417
670 1219
670 1362
673 1680
675 1419
679 1367
680 1222
680 1688
684 1424
689 1365
690 1224
690 1690
694 1426
698 1683
699 1219
699 1362
704 1429
705 1675
708 1214
709 1357
714 1429
714 1670
717 1209
719 1355
723 1434
723 1665
727 1209
729 1355
733 1435
733 1665
735 1345
736 1214
740 1335
743 1439
743 1665
744 1221
749 1330
750 1229
752 1670
753 1439
759 1234
759 1330
760 1431
762 1674
765 1421
768 1239
768 1335
772 1675
774 1207
775 1419
778 1239
778 1335
779 1216
779 1226
782 1199
782 1679
785 1419
787 1340
792 1199
792 1680
794 1424
797 1344
802 1199
802 1680
803 1429
807 1345
811 1204
812 1424
812 1680
817 1345
820 1416
821 1204
822 1680
826 1350
830 1199
830 1414
831 1675
836 1353
840 1199
840 1417
841 1678
846 1355
849 1204
849 1422
850 1683
855 1350
859 1206
859 1424
860 1687
864 1345
868 1211
868 1429
869 1692
873 1340
878 1214
878 1429
879 1692
883 1340
887 1219
887 1424
889 1687
892 1345
895 1675
897 1219
897 1419
900 1352
905 1675
906 1214
906 1414
909 1357
915 1219
915 1419
915 1677
917 1364
922 1685
925 1219
925 1422
927 1365
932 1689
934 1224
935 1424
937 1365
942 1685
943 1219
944 1429
946 1360
951 1680
952 1214
954 1429
955 1355
959 1672
962 1209
964 1431
965 1355
967 1665
972 1209
974 1434
975 1355
977 1665
981 1214
983 1439
985 1340
985 1350
987 1665
989 1221
990 1330
993 1439
996 1670
998 1226
1000 1330
1002 1434
1005 1234
1006 1670
1010 1330
1010 1426
1014 1239
1015 1675
1018 1419
1019 1335
1024 1202
1024 1212
1024 1239
1025 1677
1028 1340
1028 1419
1029 1221
1034 1199
1035 1680
1037 1424
1038 1340
1044 1199
1045 1680
1046 1429
1047 1345
1054 1201
1054 1685
1056 1425
1057 1345
1063 1680
1064 1204
1064 1419
1067 1345
1073 1414
1073 1678
1074 1202
1076 1350
1083 1415
1083 1675
1084 1199
1085 1355
1092 1680
1093 1204
1093 1419
1095 1355
1102 1424
1102 1684
1103 1205
1104 1350
1110 1690
1111 1429
1112 1210
1112 1344
1120 1692
1121 1429
1122 1214
1122 1340
1130 1690
1131 1429
1132 1214
1132 1340
1138 1683
1139 1422
1140 1347
1141 1219
1145 1675
1149 1352
1149 1417
1151 1215
1155 1675
1157 1359
1159 1416
1161 1219
1164 1680
1166 1364
1169 1419
1171 1219
1173 1685
1176 1368
1178 1424
1180 1224
1182 1690
1186 1365
1188 1425
1190 1221
1191 1685
1195 1360
1198 1429
1199 582
1199 592
1199 832
1199 1077
1199 1087
1199 1677
1199 1822
1199 2067
1199 2077
1199 2317
1200 1216
1204 841
1204 1831
1204 2326
1205 1355
1207 599
1207 1094
1207 1670
1207 2084
1208 1209
1208 1429
1209 579
1209 827
1209 850
1209 1074
1209 1402
1209 1412
1209 1817
1209 1840
1209 2064
1209 2312
1209 2335
1214 607
1214 1102
1214 1360
1214 1392
1214 2092
1215 858
1215 1848
1215 2343
1216 1665
1217 1204
1217 1370
1219 517
1219 579
1219 687
1219 697
1219 707
1219 717
1219 727
1219 737
1219 747
1219 757
1219 767
1219 824
1219 937
1219 947
1219 957
1219 967
1219 977
1219 987
1219 997
1219 1007
1219 1017
1219 1074
1219 1182
1219 1192
1219 1380
1219 1677
1219 1687
1219 1697
1219 1707
1219 1717
1219 1727
1219 1737
1219 1747
1219 1757
1219 1814
1219 1927
1219 1937
1219 1947
1219 1957
1219 1967
1219 1977
1219 1987
1219 1997
1219 2007
1219 2064
1219 2172
1219 2182
1219 2192
1219 2202
1219 2212
1219 2222
1219 2232
1219 2242
1219 2252
1219 2309
1222 614
1222 1109
1222 2099
1223 865
1223 1855
1223 2350
1224 526
1224 536
1224 776
1224 1026
1224 1766
1224 2016
1224 2261
1226 624
1226 1119
1226 1665
1226 2109
1227 679
1227 929
1227 1174
1227 1919
1227 2164
1228 574
1228 1069
1228 2059
1229 545
1229 634
1229 785
1229 817
1229 873
1229 1035
1229 1129
1229 1775
1229 1807
1229 1863
1229 2025
1229 2119
1229 2270
1229 2302
1229 2358
1230 883
1230 1873
1230 2368
1232 519
1232 795
1232 1045
1232 1785
1232 2035
1232 2280
1234 554
1234 564
1234 643
1234 653
1234 663
1234 805
1234 893
1234 903
1234 913
1234 1055
1234 1138
1234 1148
1234 1158
1234 1795
1234 1883
1234 1893
1234 1903
1234 2045
1234 2128
1234 2138
1234 2148
1234 2290
1238 2375
1241 524
1248 2375
1249 531
1258 536
1258 2375
1268 539
1268 2375
1274 492
1274 502
1274 512
1277 534
1278 2375
1279 521
1282 484
1288 2375
1290 715
1290 725
1290 735
1290 965
1290 975
1291 489
1292 985
1295 499
1295 744
1297 994
1298 2375
1299 960
1300 715
1300 753
1303 505
1304 1002
1308 760
1308 2375
1309 960
1310 513
1310 590
1310 600
1310 610
1310 715
1310 835
1310 845
1310 855
1310 1010
1310 1085
1310 1095
1310 1105
1315 522
1315 570
1315 580
1315 619
1315 629
1315 639
1315 649
1315 659
1315 669
1315 768
1315 820
1315 864
1315 874
1315 884
1315 894
1315 904
1315 914
1315 1019
1315 1065
1315 1075
1315 1114
1315 1124
1315 1134
1315 1144
1315 1154
1315 1164
1318 965
1318 2375
1320 531
1320 560
1320 678
1320 715
1320 777
1320 805
1320 923
1320 1028
1320 1055
1320 1173
1325 540
1325 550
1325 786
1325 796
1325 932
1325 1037
1327 2380
1328 685
1328 965
1328 1180
1329 720
1332 695
1332 940
1332 1190
1337 714
1337 949
1337 959
1337 2384
1340 702
1340 1197
1346 2389
1348 1204
1349 667
1349 677
1349 917
1349 927
1349 1162
1349 1172
1354 686
1354 752
1354 936
1354 997
1354 1181
1356 2390
1357 909
1357 1209
1359 664
1359 695
1359 737
1359 761
1359 945
1359 987
1359 1006
1359 1016
1359 1159
1359 1190
1364 527
1364 537
1364 547
1364 557
1364 567
1364 704
1364 714
1364 724
1364 770
1364 780
1364 790
1364 800
1364 810
1364 954
1364 964
1364 974
1364 1025
1364 1035
1364 1045
1364 1055
1364 1199
1365 2365
1365 2375
1365 2385
1367 909
1367 1065
1369 576
1369 586
1369 596
1369 606
1369 616
1369 626
1369 664
1369 819
1369 829
1369 839
1369 849
1369 859
1369 869
1369 1075
1369 1085
1369 1095
1369 1105
1369 1115
1369 1159
1370 2355
1372 519
1372 1125
1374 635
1374 878
1375 888
1376 914
1377 1134
1379 644
1379 664
1379 1144
1379 1159
1379 2350
1380 897
1381 654
1382 519
1384 907
1388 2355
1391 514
1397 2360
1401 514
1407 2364
1411 514
1414 2372
1421 514
1424 2375
1425 1885
1425 2130
1427 2140
1430 1894
1431 514
1432 2149
1434 1880
1434 2375
1435 1903
1435 2130
1439 2157
1440 519
1440 1735
1440 1745
1440 1755
1440 1985
1440 1995
1440 2230
1440 2240
1440 2250
1442 2005
1443 1910
1444 1880
1444 2375
1445 1764
1445 1975
1445 2125
1445 2259
1447 2014
1447 2164
1448 1728
1448 2223
1450 516
1450 1670
1450 1773
1450 1815
1450 1825
1450 1918
1450 2060
1450 2070
1450 2268
1450 2310
1450 2320
1454 1877
1454 2022
1454 2172
1454 2372
1455 1679
1455 1805
1455 1834
1455 1927
1455 1970
1455 2050
1455 2079
1455 2125
1455 2300
1455 2329
1458 1663
1458 1725
1458 1780
1458 2220
1458 2275
1459 2031
1460 514
1460 1688
1460 1790
1460 1843
1460 2041
1460 2088
1460 2180
1460 2285
1460 2338
1462 1935
1463 2118
1464 1872
1464 2367
1465 1697
1465 1852
1465 1862
1465 1970
1465 2097
1465 2107
1465 2189
1465 2347
1465 2357
1467 1719
1467 1944
1467 2214
1468 1660
1470 514
1470 1706
1470 1954
1470 2198
1478 1660
1479 519
1487 525
1487 1665
1494 1673
1494 1683
1494 1693
1494 1897
1494 1907
1494 1917
1494 1927
1494 1937
1494 2142
1494 2152
1494 2162
1494 2172
1494 2182
1494 2192
1497 529
1499 1702
1499 1712
1499 1722
1499 1757
1499 1767
1499 1946
1499 1956
1499 1966
1499 2002
1499 2012
1499 2201
1499 2211
1499 2252
1499 2262
1502 1889
1502 2134
1504 1731
1504 1741
1504 1776
1504 1975
1504 1985
1504 2021
1504 2220
1504 2230
1504 2240
1504 2271
1506 534
1509 1785
1509 1827
1509 1837
1509 2030
1509 2077
1509 2087
1509 2280
1509 2322
1509 2332
1510 1881
1510 2126
1512 2040
1514 1794
1514 1804
1514 1814
1514 1846
1514 2050
1514 2060
1514 2096
1514 2289
1514 2299
1514 2309
1514 2341
1514 2367
1515 539
1515 1871
1515 2116
1519 497
1519 1855
1519 2105
1519 2350
1520 2375
1524 506
1524 516
1524 532
1527 489
1530 2375
1536 484
1540 2375
1545 489
1550 2375
1553 495
1560 503
1560 2375
1568 510
1570 2375
1577 515
1579 2380
1585 522
1588 2385
1595 524
1597 2390
1605 524
1607 2389
1615 524
1615 2355
1615 2365
1615 2375
1624 519
1624 2350
1634 517
1634 2350
1643 2355
1644 514
1650 2363
1654 514
1658 2370
1664 514
1665 565
1665 575
1665 810
1665 820
1665 1060
1665 1070
1665 1555
1665 1565
1665 1800
1665 1810
1665 2050
1665 2060
1665 2295
1665 2305
1667 585
1667 830
1667 1080
1667 1575
1667 1820
1667 2070
1667 2315
1667 2375
1672 839
1672 1584
1672 1829
1672 2324
1673 558
1673 1053
1673 1548
1673 2043
1674 516
1674 805
1674 1795
1674 2290
1675 592
1675 740
1675 750
1675 990
1675 1000
1675 1087
1675 1730
1675 1740
1675 1980
1675 1990
1675 2077
1675 2225
1675 2235
1676 2380
1677 760
1677 1750
1677 2245
1679 602
1679 847
1679 1097
1679 1837
1679 2087
1679 2332
1680 705
1680 715
1680 725
1680 955
1680 965
1680 975
1680 1009
1680 1200
1680 1210
1680 1695
1680 1705
1680 1715
1680 1945
1680 1955
1680 1965
1680 1999
1680 2190
1680 2200
1680 2210
1682 769
1682 1579
1682 1759
1682 2254
1683 521
1683 555
1683 800
1683 1050
1683 1545
1683 1790
1683 2040
1683 2285
1685 650
1685 660
1685 690
1685 855
1685 900
1685 910
1685 940
1685 1018
1685 1145
1685 1155
1685 1185
1685 1219
1685 1685
1685 1845
1685 1890
1685 1900
1685 1930
1685 2008
1685 2135
1685 2145
1685 2175
1685 2340
1686 2380
1687 609
1687 1104
1687 2094
1689 777
1689 1767
1689 2262
1690 529
1690 619
1690 635
1690 669
1690 679
1690 864
1690 885
1690 919
1690 929
1690 1027
1690 1114
1690 1130
1690 1164
1690 1174
1690 1515
1690 1854
1690 1875
1690 1909
1690 1919
1690 2017
1690 2104
1690 2120
1690 2154
1690 2164
1690 2349
1690 2370
1691 1584
1692 549
1692 1044
1692 1540
1692 2034
1693 798
1693 1678
1693 1788
1693 2283
1695 538
1695 785
1695 873
1695 1216
1695 1524
1695 1775
1695 1863
1695 2270
1695 2358
1700 1515
1700 1533
1700 1589
1700 1670
1703 1209
1710 1515
1710 1592
1710 1665
1713 1209
1719 1597
1720 1515
1720 1665
1723 1210
1729 1601
1730 1218
1730 1517
1730 1665
1738 1225
1739 1522
1739 1604
1739 1670
1745 1233
1747 1529
1748 1609
1749 1670
1755 1237
1756 1534
1758 1609
1758 1675
1764 1207
1765 1239
1766 1535
1768 1609
1768 1675
1769 1216
1769 1226
1772 1199
1775 1485
1775 1495
1775 1530
1777 1604
1777 1680
1780 1504
1780 1514
1782 1199
1785 1485
1787 1599
1787 1680
1792 1199
1795 1487
1795 1591
1797 1684
1801 1204
1802 1495
1803 1584
1807 1680
1811 1204
1812 1499
1812 1589
1817 1679
1819 1507
1819 1597
1820 1199
1827 1514
1827 1604
1827 1675
1830 1199
1834 1522
1836 1609
1836 1680
1839 1204
1844 1525
1845 1614
1845 1685
1849 1206
1854 1525
1854 1607
1854 1690
1858 1211
1859 1587
1859 1597
1863 1695
1864 1525
1868 1214
1869 1584
1872 1690
1874 1522
1877 1219
1879 1584
1881 1685
1884 1520
1885 1675
1887 1219
1888 1589
1893 1515
1895 1675
1896 1214
1897 1594
1903 1515
1905 1219
1905 1677
1907 1594
1912 1685
1913 1515
1915 1219
1915 1586
1922 1689
1923 1515
1924 1224
1925 1581
1932 1685
1933 1219
1933 1515
1935 1582
1941 1680
1942 1214
1943 1515
1945 1584
1949 1672
1952 1209
1953 1515
1954 1589
1957 1665
1962 1209
1963 1515
1963 1594
1967 1665
1971 1214
1972 1599
1973 1515
1977 1665
1979 1221
1981 1604
1982 1520
1986 1670
1988 1226
1991 1525
1991 1604
1995 1234
1996 1670
2000 1530
2000 1609
2004 1239
2005 1675
2009 1535
2010 1609
2014 1202
2014 1212
2014 1239
2015 1677
2019 1221
2019 1535
2020 1606
2024 1199
2025 1485
2025 1495
2025 1505
2025 1680
2027 1529
2030 1514
2030 1601
2034 1199
2035 1485
2035 1680
2038 1594
2044 1201
2044 1685
2045 1487
2045 1586
2052 1495
2053 1680
2054 1204
2055 1587
2060 1502
2063 1678
2064 1202
2064 1592
2067 1510
2072 1599
2073 1675
2074 1199
2075 1517
2079 1607
2082 1680
2083 1204
2084 1522
2087 1614
2092 1684
2093 1205
2094 1525
2097 1614
2100 1690
2102 1210
2104 1525
2104 1592
2104 1602
2110 1692
2112 1214
2112 1584
2114 1525
2120 1690
2122 1214
2122 1584
2124 1522
2128 1683
2131 1219
2132 1584
2134 1520
2135 1675
2139 1592
2141 1215
2143 1515
2145 1675
2149 1594
2151 1219
2153 1515
2154 1680
2158 1589
2161 1219
2163 1515
2163 1685
2167 1584
2170 1224
2172 1690
2173 1515
2177 1579
2180 1221
2181 1685
2183 1515
2186 1584
2189 1677
2190 1216
2193 1515
2195 1589
2197 1670
2198 1209
2203 1515
2205 1592
2206 1665
2208 1209
2213 1515
2214 1597
2216 1665
2218 1210
2223 1515
2224 1601
2225 1218
2226 1665
2232 1520
2233 1225
2234 1604
2235 1670
2240 1233
2240 1527
2243 1609
2245 1672
2249 1532
2250 1237
2253 1609
2255 1675
2259 1207
2259 1535
2260 1239
2263 1609
2264 1216
2264 1226
2265 1677
2267 1199
2269 1532
2270 1485
2270 1495
2272 1604
2275 1504
2275 1514
2275 1524
2275 1680
2277 1199
2280 1485
2282 1599
2285 1680
2287 1199
2290 1487
2290 1591
2295 1680
2296 1204
2297 1495
2298 1584
2305 1680
2306 1204
2307 1499
2307 1589
2314 1507
2314 1597
2315 1199
2315 1675
2322 1514
2322 1604
2325 1199
2325 1677
2329 1522
2331 1609
2334 1204
2334 1682
2339 1525
2340 1614
2344 1206
2344 1685
2349 1525
2349 1607
2350 1420
2350 1665
2350 1675
2352 1430
2353 1211
2353 1690
2354 1587
2354 1597
2355 1230
2355 1240
2355 1250
2355 1480
2355 1490
2355 1500
2357 1260
2357 1439
2359 1522
2360 1219
2360 1295
2360 1305
2360 1420
2360 1449
2360 1465
2360 1509
2360 1665
2362 1269
2364 1584
2365 1279
2365 1314
2365 1324
2365 1345
2365 1355
2365 1365
2365 1595
2365 1605
2367 1615
2369 1670
2370 1333
2370 1374
2370 1384
2370 1422
2370 1625
2375 1393
2375 1634
2379 1670
2380 1402
2380 1420
2380 1643
2380 1653
2385 1662
