45 187
48 197
55 183
58 201
65 180
67 206
75 178
77 210
85 176
87 214
95 174
97 217
105 172
107 221
115 169
117 224
125 167
127 227
135 166
137 231
145 164
147 234
155 162
157 237
165 160
167 240
175 158
177 243
185 157
187 246
195 155
197 248
205 154
207 251
215 152
217 253
225 151
227 254
235 149
237 256
245 148
247 258
255 147
257 259
265 146
267 261
275 144
277 262
285 143
287 264
295 142
297 265
305 141
307 266
315 140
317 267
325 140
327 267
335 139
337 268
345 138
347 269
355 137
357 270
365 137
367 271
375 136
377 271
385 135
387 272
395 135
397 272
405 134
407 272
415 134
417 270
425 133
425 264
433 256
435 132
441 249
444 127
449 242
451 172
453 182
454 123
457 236
458 191
463 180
464 122
465 199
466 230
471 187
473 206
474 122
475 225
479 193
481 213
484 121
488 198
494 121
498 202
504 121
508 205
514 120
518 207
524 120
528 207
534 119
538 206
544 119
548 205
554 119
558 203
564 119
568 201
574 119
578 200
584 119
588 199
594 119
598 198
604 119
608 197
614 119
618 197
624 119
628 196
634 119
638 196
644 119
648 197
654 119
658 198
664 119
668 199
674 120
678 200
684 121
688 202
694 122
698 203
704 122
708 204
714 123
718 205
724 124
728 206
734 124
738 207
744 125
748 207
754 126
758 207
764 127
768 208
774 127
778 207
784 128
788 207
794 129
798 206
804 130
808 204
814 130
818 203
824 131
828 202
834 133
838 200
844 134
848 198
854 134
858 196
864 135
868 194
874 137
878 192
884 139
888 189
894 140
898 187
904 141
908 185
914 143
918 182
924 145
928 180
934 146
938 177
944 148
948 174
954 151
958 172
963 156
