412 69
413 79
416 89
418 61
418 99
423 110
424 69
426 120
432 128
433 74
437 137
437 147
441 80
443 155
447 88
448 164
453 173
455 94
459 181
463 191
464 99
470 107
471 198
476 207
477 115
480 217
486 120
488 223
492 233
494 126
500 239
502 132
506 248
510 138
512 256
517 146
517 265
525 152
527 269
531 279
533 159
539 167
540 284
547 292
548 172
555 299
556 178
561 307
565 183
569 313
572 191
576 321
580 197
584 327
588 204
591 335
596 210
599 341
604 216
608 346
610 224
615 354
619 229
623 361
628 234
631 367
634 242
639 373
643 247
647 379
651 254
655 386
659 260
662 394
667 267
671 399
675 274
679 405
683 280
687 411
692 285
695 417
697 294
701 425
706 299
710 430
714 306
719 435
723 311
727 442
732 316
735 449
740 323
743 455
748 329
751 462
756 336
759 468
764 342
767 474
773 347
775 480
779 355
781 488
787 361
791 492
796 366
799 498
804 372
807 504
812 378
814 512
821 383
822 518
829 389
831 523
837 396
839 529
846 401
847 535
854 407
855 541
863 547
864 411
870 419
871 553
879 559
880 423
886 431
887 565
895 436
895 572
903 443
903 578
911 449
912 583
920 454
920 590
928 460
928 597
936 466
936 604
944 472
944 610
952 478
953 615
960 623
961 483
968 629
969 490
977 496
978 633
986 501
986 639
994 508
994 646
1000 654
1003 513
1010 657
1011 520
1015 666
1021 524
1025 669
1027 532
1033 675
1035 538
1039 683
1044 543
1048 688
1052 549
1056 695
1060 556
1060 705
1069 561
1070 707
1077 568
1078 713
1085 574
1087 718
1093 581
1095 724
1101 587
1101 732
1109 593
1111 736
1119 597
1119 742
1124 606
1125 750
1132 612
1134 755
1140 619
1142 761
1146 627
1150 767
1154 633
1159 772
1162 640
1165 780
1170 647
1173 787
1179 652
1181 793
1185 660
1189 800
1193 667
1199 804
1202 672
1205 812
1208 680
1212 820
1216 686
1220 826
1224 693
1228 833
1231 701
1236 839
1240 706
1244 845
1247 714
1252 851
1255 720
1257 860
1262 728
1267 863
1271 733
1273 871
1279 739
1280 879
1285 747
1290 878
1294 752
1300 881
1302 758
1306 889
1310 764
1313 897
1316 772
1321 903
1324 778
1327 911
1332 784
1337 915
1338 792
1343 923
1344 800
1351 808
1351 929
1359 936
1361 809
1366 944
1370 814
1374 950
1379 819
1381 958
1387 826
1390 963
1395 833
1396 971
1404 838
1406 975
1411 846
1412 983
1420 851
1420 989
1428 996
1430 854
1434 1004
1435 863
1442 1010
1443 869
1450 1016
1451 875
1458 1022
1459 881
1464 1030
1467 887
1472 1036
1474 895
1480 1043
1482 901
1486 1051
1491 906
1496 1055
1499 913
1501 1064
1507 919
1509 1070
1516 924
1519 1074
1524 930
1524 1083
1532 936
1533 1088
1540 943
1540 1096
1547 951
1549 1101
1555 957
1555 1109
1564 962
1564 1114
1572 1120
1573 967
1578 1128
1579 975
1588 980
1588 1132
1596 986
1596 1138
1602 1146
1603 994
1611 1151
1612 999
1619 1157
1620 1005
1627 1163
1628 1012
1634 1171
1636 1018
1643 1026
1644 1175
1650 1183
1651 1032
1658 1189
1659 1038
1666 1195
1668 1043
1672 1203
1676 1050
1680 1209
1685 1055
1688 1215
1693 1061
1696 1222
1700 1069
1702 1230
1708 1075
1708 1238
1716 1081
1718 1242
1723 1251
1726 1085
1731 1258
1732 1093
1736 1267
1741 1098
1744 1273
1747 1106
1749 1282
1754 1291
1755 1112
1762 1298
1764 1117
1767 1307
1773 1122
1774 1315
1779 1130
1782 1322
1785 1332
1787 1136
1791 1340
1795 1142
1800 1345
1802 1150
1808 1352
1812 1154
1816 1358
1819 1162
1825 1170
1825 1363
1834 1175
1835 1362
1841 1183
1845 1362
1847 1191
1855 1198
1855 1361
1862 1206
1865 1359
1870 1212
1875 1356
1877 1220
1884 1228
1884 1350
1893 1233
1894 1347
1898 1242
1904 1342
1905 1250
1913 1257
1914 1338
1919 1265
1920 1330
1922 1318
1923 1275
1926 1285
1928 1295
1928 1308
