19 207
25 215
27 199
34 220
37 199
43 225
46 194
52 230
56 190
60 237
64 182
67 245
74 177
76 250
84 172
84 256
91 264
94 167
99 270
104 162
108 275
114 157
115 283
123 290
124 154
130 298
133 149
138 305
140 141
145 313
150 136
153 320
157 330
158 129
159 340
164 349
165 121
166 359
173 114
174 365
174 375
177 104
180 383
185 96
185 392
189 402
190 86
194 411
195 76
200 66
201 419
208 59
209 425
212 49
218 430
219 37
227 29
227 435
235 21
236 430
243 14
245 425
253 14
254 420
262 19
263 415
269 27
272 409
277 34
280 400
284 42
290 395
292 49
299 390
301 54
307 384
309 61
315 69
315 375
320 78
320 365
328 85
328 358
335 93
335 350
340 102
340 335
345 111
345 320
348 121
350 131
353 313
355 140
355 150
360 159
360 169
360 305
368 298
370 172
370 205
372 215
375 275
375 290
378 198
379 177
380 187
380 265
382 219
390 260
392 219
400 260
402 219
410 255
412 219
420 255
422 219
430 255
432 219
440 255
441 224
450 250
451 224
460 250
461 224
470 250
471 224
480 250
481 224
490 250
491 224
500 250
501 224
510 250
511 224
519 245
521 224
529 245
531 224
539 245
541 224
549 245
551 224
559 245
561 224
569 245
571 224
579 242
581 224
589 240
591 224
599 240
601 224
609 240
610 229
619 240
627 234
