69 227
69 237
69 247
74 202
74 212
74 256
74 266
79 275
84 187
84 197
84 284
89 172
90 292
99 167
99 297
99 307
104 152
104 316
114 147
114 320
119 137
123 325
129 134
130 333
138 129
138 340
148 129
148 340
152 119
157 345
162 119
164 522
164 532
165 352
169 497
169 507
171 114
174 530
175 355
179 107
179 467
179 477
179 487
180 520
184 437
184 447
184 457
185 357
189 104
189 515
194 407
194 417
194 427
195 360
197 509
198 99
199 377
199 387
199 397
202 500
208 99
211 495
215 91
215 485
225 89
225 480
230 470
234 84
239 465
244 84
245 455
254 84
254 450
260 440
264 77
269 435
274 74
275 425
284 74
284 420
292 414
294 74
297 405
304 74
306 400
310 390
314 74
320 390
323 69
330 390
333 69
340 390
343 69
350 390
353 69
360 390
363 69
370 385
372 74
380 385
382 74
390 385
392 74
400 385
402 74
410 385
412 74
420 385
422 74
425 84
425 375
435 84
435 375
445 84
445 375
455 84
455 375
465 87
465 370
475 89
475 370
480 98
485 360
490 99
495 360
500 102
505 355
510 104
515 113
515 355
525 114
525 355
530 345
534 119
540 345
544 121
549 340
550 129
559 337
560 132
569 335
570 134
575 143
575 325
583 150
583 318
585 160
589 310
593 166
595 295
600 174
600 184
604 290
610 187
610 197
610 275
615 206
615 216
615 250
615 260
621 224
625 234
625 244
