94 112
94 122
94 132
94 142
94 152
94 162
94 172
94 182
94 192
94 202
94 212
94 222
94 232
94 242
94 252
94 262
94 272
94 282
104 109
104 285
104 295
104 305
104 315
104 325
104 335
104 345
104 355
104 365
104 375
104 385
104 395
113 400
114 109
123 400
124 109
133 400
134 109
143 400
144 109
153 400
154 109
160 101
163 400
170 99
173 400
180 99
183 400
190 99
192 405
200 99
202 405
207 414
210 99
215 420
220 99
224 425
230 99
233 430
240 99
242 435
250 99
250 442
257 450
260 99
267 450
270 99
272 459
280 99
281 464
286 473
290 99
296 475
300 99
300 395
300 405
300 415
300 425
305 434
305 480
310 99
310 395
315 437
315 447
315 457
315 467
315 477
320 99
320 395
330 99
330 395
340 99
340 395
350 99
350 395
360 99
360 395
369 94
370 395
379 94
380 395
389 94
390 395
399 94
400 395
409 94
410 395
419 94
420 395
425 385
429 94
435 385
439 94
445 385
449 94
455 385
459 94
465 385
469 94
475 385
479 94
485 385
489 94
495 385
499 94
505 385
509 94
515 385
519 94
525 385
529 94
535 385
539 94
545 385
549 94
555 385
559 94
565 385
569 96
570 106
570 116
570 126
570 136
570 146
570 156
570 166
570 176
570 186
570 196
570 206
570 216
573 226
575 236
575 246
575 256
575 266
575 276
575 286
575 296
575 306
575 316
575 326
575 336
575 346
575 356
575 366
575 376
