154 157
159 137
159 147
159 166
159 176
159 186
159 196
159 206
159 216
159 226
159 236
159 246
159 256
159 266
159 276
159 286
159 296
159 306
159 316
159 326
159 336
159 346
164 355
167 129
173 360
177 129
179 368
184 377
185 121
194 380
195 119
204 380
205 119
213 385
215 119
223 385
224 114
233 385
234 114
243 385
244 114
253 385
254 107
263 385
264 104
273 385
274 104
283 385
284 104
293 385
294 104
303 385
304 104
313 385
314 104
323 385
324 104
333 385
334 104
343 385
344 104
353 385
354 104
363 385
364 104
373 385
374 104
382 380
384 104
392 380
394 104
402 380
404 104
412 380
414 104
422 380
424 104
432 380
434 104
442 380
444 104
444 390
447 400
452 409
454 104
454 419
462 425
464 104
469 433
469 443
473 99
474 452
474 462
483 99
484 465
490 473
493 99
495 482
499 492
503 99
509 495
509 505
512 515
513 99
514 525
520 533
523 99
530 537
533 99
539 542
539 552
543 99
544 561
544 571
553 99
554 575
555 380
555 390
555 400
555 410
555 420
555 430
555 440
555 450
555 460
557 470
560 480
560 583
563 99
565 380
565 489
565 499
565 509
565 519
565 529
565 539
565 549
565 559
565 569
573 99
574 375
580 365
582 104
590 110
590 360
600 114
600 360
610 117
610 355
615 126
619 350
621 134
625 144
625 154
625 164
625 174
625 184
625 194
625 204
625 214
625 224
625 234
625 244
625 254
625 330
625 340
630 263
630 273
630 283
630 293
630 303
630 313
