59 292
59 302
59 312
65 320
69 262
69 272
69 282
69 330
72 340
74 247
74 350
83 355
84 242
84 365
89 232
90 373
99 227
99 378
104 217
104 387
114 214
114 390
117 400
123 209
126 405
130 201
134 411
140 199
144 415
149 194
153 420
157 430
158 189
167 430
168 189
172 179
177 430
182 179
186 435
191 174
194 441
199 167
204 445
209 164
214 445
219 164
223 450
229 162
233 450
239 159
243 450
249 159
250 458
259 159
260 460
269 159
270 460
275 151
280 460
285 149
290 460
294 132
294 142
300 460
304 107
304 117
304 127
309 97
310 462
319 82
319 92
320 465
324 57
324 67
329 42
330 465
334 32
340 465
342 24
349 32
350 465
354 41
355 51
360 60
360 70
360 460
365 79
370 88
370 460
375 97
380 460
382 105
385 115
385 125
390 134
390 144
390 460
400 147
400 460
405 156
410 460
415 159
420 450
425 159
430 450
435 162
440 450
445 164
450 450
455 164
459 445
465 167
469 445
473 174
479 442
483 174
487 435
493 175
497 434
502 180
507 189
507 430
517 189
517 429
522 420
526 194
532 419
535 199
542 414
545 199
547 405
550 208
557 404
560 212
565 390
570 214
575 223
575 385
580 375
583 229
590 237
590 370
595 355
597 245
600 255
600 340
608 261
610 271
610 281
610 291
610 301
610 311
610 321
610 331
