129 140
128 130
133 121
141 115
150 110
160 106
170 104
180 100
190 98
200 96
210 92
220 90
230 90
240 86
248 78
258 76
268 72
274 62
282 54
292 54
301 59
309 66
317 72
327 76
336 81
342 89
352 90
362 92
372 94
382 97
392 100
402 102
412 106
422 109
431 114
440 119
446 127
445 142
439 150
437 160
437 170
437 180
442 189
448 197
458 200
467 195
477 191
486 186
496 187
505 192
515 196
524 201
534 205
543 210
553 212
563 212
573 212
583 214
593 216
603 216
613 218
623 220
633 224
643 226
653 230
662 235
668 243
667 258
659 266
659 276
657 290
657 300
657 310
658 320
661 330
659 348
656 363
648 357
648 347
648 337
644 327
634 327
624 327
614 329
604 333
594 335
586 329
576 325
566 325
556 327
546 331
536 335
526 339
516 341
506 343
496 345
486 345
476 344
466 341
456 338
446 335
443 348
441 363
432 358
432 348
432 338
428 328
418 325
408 325
398 327
389 332
379 333
369 331
359 327
349 327
339 327
331 334
329 350
326 361
316 361
316 351
314 341
314 331
307 323
297 323
287 323
277 323
267 323
257 323
247 323
237 323
227 323
217 323
207 323
197 323
187 323
177 323
167 323
157 321
147 322
147 332
145 346
144 361
134 360
133 350
132 340
132 330
132 320
130 310
130 300
130 290
130 280
130 270
132 254
132 244
134 230
136 212
138 199
138 189
138 179
136 169
136 159
134 149
