156 138
156 128
162 120
170 114
180 110
190 106
200 104
210 100
220 98
230 96
240 94
250 92
260 90
270 88
278 80
288 76
298 74
308 66
316 56
326 54
336 55
343 63
348 72
358 74
368 78
377 83
385 90
395 90
405 92
415 94
425 96
435 100
445 102
455 104
465 108
475 112
484 117
491 125
493 138
485 150
485 160
483 172
483 182
483 192
484 202
494 201
501 209
511 210
521 212
531 212
541 214
551 214
561 216
571 216
581 218
591 220
601 222
611 226
621 230
631 234
638 242
641 252
635 262
629 270
629 280
629 290
629 300
629 310
629 320
632 330
634 341
629 350
624 363
618 355
618 345
616 335
610 327
600 327
590 327
580 329
570 333
560 335
552 329
542 325
532 325
522 327
512 329
502 333
493 338
490 351
482 361
478 351
472 343
462 345
452 345
442 345
432 343
422 341
412 338
402 334
392 331
382 328
372 325
362 325
352 327
343 332
333 333
323 331
313 329
303 327
293 327
283 328
279 338
278 357
269 363
264 354
262 342
262 332
255 323
245 323
235 323
225 323
215 323
205 323
195 323
185 323
175 322
175 332
173 342
173 352
168 363
160 356
160 344
158 334
160 320
159 310
158 300
158 290
158 280
160 268
160 258
160 248
162 232
164 218
166 207
166 197
166 187
166 177
166 167
164 157
161 147
