150 152
150 142
152 130
152 120
152 110
152 100
152 90
160 76
160 66
160 56
170 55
173 68
173 78
173 88
173 98
171 116
171 126
173 136
169 148
169 158
169 168
169 178
179 173
188 168
198 164
208 164
218 166
226 172
234 178
244 178
254 178
264 176
274 176
284 179
294 182
303 187
312 192
320 198
326 206
331 215
335 225
344 230
354 230
364 230
374 230
384 230
394 230
404 230
414 230
424 230
434 230
444 230
454 230
464 230
474 230
484 230
494 230
504 230
514 232
524 232
534 232
544 232
554 233
564 234
574 235
584 236
594 236
604 238
614 240
622 234
622 224
622 214
626 198
626 188
636 188
641 197
641 216
641 226
643 236
643 246
645 256
643 268
643 278
643 288
643 298
643 308
641 324
642 341
638 351
638 363
628 361
626 351
626 341
624 331
620 321
610 323
600 323
590 323
580 323
570 323
560 323
550 323
540 323
530 323
520 323
510 323
500 323
490 323
480 323
470 323
460 323
450 323
440 323
430 323
420 323
410 323
400 323
390 323
380 323
370 323
360 323
350 323
340 323
330 323
320 323
310 323
300 323
290 323
280 323
270 323
260 323
250 323
240 323
230 323
220 323
210 323
200 323
190 323
180 321
170 321
171 331
168 349
173 358
164 363
156 356
156 346
156 336
154 326
152 316
150 306
150 296
150 286
150 276
150 266
150 256
150 246
150 236
150 226
152 212
152 202
152 192
152 182
152 172
152 162
