98 292
98 282
100 268
100 258
100 248
100 238
102 222
102 212
104 196
104 186
104 176
102 166
102 156
102 146
100 136
100 126
105 117
113 109
122 104
130 98
140 94
150 90
158 82
166 74
172 64
176 54
186 54
194 61
197 71
205 77
211 85
217 93
226 98
235 103
243 109
251 115
257 123
259 133
253 148
253 158
261 164
271 168
280 173
290 176
300 174
310 174
320 176
330 180
340 184
349 189
357 195
365 202
372 210
380 217
385 226
395 230
405 230
415 230
425 230
435 230
445 230
455 230
465 230
475 230
485 230
495 230
505 230
515 232
525 232
534 226
543 221
553 217
563 214
573 212
583 209
588 200
596 194
604 186
614 186
622 193
630 200
636 208
646 212
656 214
666 217
676 221
685 226
692 234
697 243
698 255
693 264
691 276
691 286
691 296
691 306
691 316
693 326
697 336
692 351
688 363
680 357
680 347
680 337
676 327
666 331
656 333
650 325
640 329
632 335
624 341
614 345
604 344
595 339
587 333
579 327
569 328
561 335
553 329
543 328
543 338
539 350
538 363
528 361
526 351
526 341
524 331
517 323
507 323
497 323
487 323
477 323
467 323
457 323
447 323
437 323
427 323
417 323
407 323
397 323
387 323
377 323
367 323
357 323
347 323
337 323
327 323
317 323
307 323
297 323
287 323
277 323
267 323
257 324
257 334
255 346
255 362
245 360
242 350
242 333
239 323
229 323
219 323
209 323
199 323
189 323
179 323
169 323
159 323
149 323
139 323
129 321
119 322
119 332
117 346
119 356
109 361
104 352
104 342
104 332
101 322
100 312
98 302
