140 138
140 128
146 120
154 114
164 110
174 106
184 104
194 100
204 98
214 96
224 94
234 92
244 90
254 88
260 80
270 76
280 72
288 66
296 56
306 54
316 55
323 63
328 72
338 74
348 78
356 84
364 90
374 91
384 93
394 95
404 97
414 100
424 102
434 106
444 109
453 114
463 118
469 126
469 136
461 150
459 166
459 176
459 186
469 186
479 188
488 193
498 197
508 200
516 206
526 210
536 212
546 212
556 213
566 214
576 215
586 216
596 218
606 220
616 222
626 226
636 229
645 234
653 240
653 256
645 266
643 282
643 292
643 302
643 312
644 322
647 332
644 351
647 361
637 363
632 354
632 344
632 332
623 327
613 327
603 328
593 331
583 333
573 332
564 327
554 325
544 325
534 329
524 331
514 335
504 339
494 343
484 345
474 345
465 350
460 362
454 354
454 344
444 341
434 339
424 335
414 331
404 327
394 325
384 325
374 327
365 332
355 333
345 331
335 329
325 327
315 327
305 330
303 340
303 350
296 363
288 356
286 342
286 332
279 323
269 323
259 323
249 323
239 323
229 323
219 323
209 323
199 323
189 323
179 323
169 323
159 322
159 332
157 344
157 354
151 363
146 354
144 344
144 334
144 324
143 314
142 304
142 294
142 284
142 274
144 256
144 246
146 230
148 216
150 197
150 187
150 177
150 167
148 157
145 147
