138 268
138 258
140 240
140 230
140 220
140 210
140 200
140 190
140 180
140 170
140 160
140 150
140 140
140 130
142 118
146 104
151 95
157 87
160 76
162 58
172 55
177 64
178 74
179 84
179 94
183 104
186 114
188 124
189 134
185 150
185 160
193 166
203 164
213 166
223 170
232 175
240 181
250 178
260 176
270 176
280 179
290 182
299 187
308 192
316 198
322 206
328 214
332 224
340 230
350 230
360 230
370 230
380 230
390 230
400 230
410 230
420 230
430 230
440 230
450 230
460 230
470 230
480 230
490 230
500 230
510 230
520 232
530 232
540 232
550 232
560 233
570 236
580 236
590 236
600 236
608 230
613 221
621 213
624 198
628 188
638 188
643 197
643 207
648 216
653 225
657 235
659 245
657 258
657 268
657 278
657 288
657 298
655 316
657 326
659 336
655 350
657 360
647 361
642 352
639 342
629 342
623 350
617 363
612 354
610 344
610 334
608 324
598 323
588 323
578 323
568 323
558 323
548 323
538 323
528 323
518 323
508 323
498 323
488 323
478 323
468 323
458 323
448 323
438 323
428 323
418 323
408 323
398 323
388 323
378 323
368 323
358 323
348 323
338 323
328 323
318 323
308 323
298 323
288 323
278 323
268 323
258 323
248 323
238 323
228 323
218 323
208 323
198 323
188 323
188 333
185 348
186 361
176 361
174 351
174 341
172 331
169 321
159 322
159 332
157 348
161 358
152 363
144 356
144 346
142 328
140 318
139 308
138 298
138 288
138 278
