174 138
174 128
180 120
188 114
198 110
208 106
218 104
228 100
238 98
248 96
258 94
268 92
278 90
288 88
296 82
306 78
316 74
326 72
331 63
338 54
348 54
357 59
365 65
373 72
383 76
393 80
400 88
410 90
420 92
430 94
440 96
450 98
460 100
470 103
480 106
490 110
500 114
509 119
515 127
515 138
507 150
507 160
505 174
505 184
505 194
505 204
511 212
521 214
531 214
541 216
551 216
561 218
571 220
581 222
591 226
601 228
611 232
619 238
621 256
613 266
611 284
611 294
611 304
611 314
612 324
615 334
612 351
606 363
600 355
600 345
598 335
591 327
581 327
571 327
561 330
551 333
541 335
533 329
523 325
513 326
515 336
512 351
510 363
502 357
500 347
500 337
494 329
484 333
474 335
464 339
454 343
444 345
434 345
424 345
414 344
404 342
394 339
384 336
374 332
364 329
354 326
344 325
334 325
324 329
315 335
305 331
295 329
285 327
275 327
265 327
257 334
255 350
248 363
240 356
240 341
240 331
233 323
223 323
213 323
203 323
193 322
191 336
191 346
189 358
179 360
178 350
176 340
176 330
178 314
176 304
176 294
176 284
176 274
176 264
178 250
180 234
182 220
184 207
184 197
184 187
184 177
184 167
182 157
179 147
