144 138
144 128
150 120
159 115
168 110
178 106
188 104
198 102
208 98
218 96
228 94
238 92
248 90
257 85
265 79
275 76
285 72
292 64
298 56
308 54
316 61
324 67
332 73
342 76
350 82
358 89
368 91
378 93
388 96
398 98
408 100
418 102
428 106
438 108
448 112
457 117
465 123
467 142
459 150
457 168
457 178
458 188
468 186
477 191
487 194
495 200
505 202
513 208
523 210
533 212
543 212
553 214
563 216
573 216
583 218
593 218
603 220
613 224
623 226
633 230
642 235
650 241
651 252
647 262
641 270
641 280
639 294
639 304
639 314
641 324
645 334
642 349
636 363
632 353
632 343
630 333
622 327
612 327
602 327
592 329
582 331
572 335
564 329
554 325
544 325
534 327
524 329
514 333
504 337
494 341
484 343
474 345
464 349
464 361
454 359
454 349
446 343
436 341
426 337
416 333
406 329
396 326
386 324
376 325
366 329
357 335
347 331
337 329
327 327
317 327
307 328
305 338
305 348
300 361
290 359
290 349
288 339
288 329
281 321
271 321
261 321
251 321
241 321
231 321
221 321
211 321
201 321
191 321
181 321
171 321
161 322
161 332
159 346
158 359
148 358
146 348
146 338
146 328
146 318
144 308
144 298
144 288
144 278
146 268
146 258
146 248
148 234
150 220
152 207
152 197
152 187
152 177
152 167
150 157
149 147
