176 140
176 130
181 121
190 116
200 112
210 108
220 106
230 102
240 100
250 98
260 96
270 94
280 92
290 90
296 82
306 78
316 74
326 70
334 62
342 54
352 55
359 63
365 71
375 74
385 78
395 82
401 90
411 92
421 94
431 96
441 98
451 100
461 102
471 104
481 106
491 110
501 114
509 120
516 128
515 142
507 150
505 168
505 178
505 188
505 198
505 208
515 212
525 214
535 216
545 217
555 218
565 220
575 222
585 224
595 228
605 230
613 236
621 242
619 258
611 266
611 276
609 292
609 302
609 312
611 322
613 332
611 348
615 358
605 362
600 353
600 343
599 333
591 327
581 327
571 327
561 329
551 331
541 335
532 330
523 325
513 324
515 334
512 349
508 361
500 354
500 344
499 334
490 329
480 333
470 335
460 339
450 343
440 345
430 345
420 345
410 344
400 342
390 339
380 335
370 331
360 328
350 325
340 323
330 325
320 329
312 335
302 331
292 329
282 327
272 327
262 327
257 336
255 352
248 363
240 356
240 339
240 329
233 321
223 321
213 321
203 321
193 322
193 332
191 348
189 361
180 356
178 346
178 336
178 326
178 316
178 306
178 296
178 286
178 276
178 266
180 252
180 242
182 230
184 214
186 198
186 188
186 178
186 168
184 158
182 148
