148 252
148 262
150 272
150 282
150 292
150 302
150 312
150 322
151 344
152 358
162 359
163 346
163 336
165 322
175 321
185 321
195 321
205 321
215 321
225 321
235 321
245 321
255 321
265 321
275 321
285 321
295 321
305 321
315 321
325 321
335 321
345 321
355 321
365 321
375 321
385 321
395 321
405 321
415 321
425 321
435 321
445 321
455 321
465 321
475 321
485 321
495 321
505 321
515 321
525 321
535 321
545 321
555 321
565 321
575 321
585 321
595 321
605 321
615 321
625 321
630 340
630 358
640 359
639 345
641 330
645 316
645 306
647 293
647 283
647 273
645 263
645 253
645 243
645 233
645 223
645 213
645 203
645 193
645 183
645 173
645 163
645 153
645 143
643 133
643 123
643 113
643 103
643 93
637 85
634 54
628 70
628 80
628 90
628 100
628 110
630 120
628 134
631 144
632 154
632 164
624 174
614 172
606 166
596 164
586 166
576 170
568 176
560 182
550 180
540 180
530 178
520 180
510 182
500 186
490 190
482 196
474 204
468 212
463 223
455 231
445 234
435 234
425 234
415 234
405 234
395 234
385 234
375 234
365 234
355 234
345 234
335 234
325 234
315 234
305 234
295 234
285 234
275 234
265 234
255 236
245 236
235 236
225 236
215 238
205 238
195 238
185 240
175 244
167 238
167 228
167 218
163 208
163 198
162 188
152 190
152 200
148 212
