93 260
90 250
95 241
103 233
112 228
122 224
132 222
142 218
152 216
162 214
172 214
178 206
187 201
195 195
203 188
213 190
221 196
229 202
237 208
245 214
255 214
265 216
275 218
285 222
295 224
305 228
313 234
323 234
333 234
343 234
353 234
363 234
373 234
383 233
392 228
397 219
405 212
413 205
421 197
429 191
438 186
448 182
458 180
468 178
478 178
488 178
496 170
506 166
506 156
502 146
498 136
498 126
506 118
514 112
522 106
532 102
542 98
552 94
562 92
566 82
574 76
582 68
588 58
598 54
604 62
607 72
617 76
625 82
631 90
641 92
651 96
661 98
671 102
681 106
688 114
697 119
703 127
701 142
699 158
699 168
699 178
699 188
699 198
699 208
699 218
701 228
701 238
703 248
703 258
703 268
703 278
703 288
703 298
703 308
701 324
699 338
699 354
690 359
690 349
688 339
681 321
671 321
661 321
651 321
641 321
631 321
621 321
611 321
601 321
591 321
581 321
571 321
561 321
551 321
541 321
531 321
521 321
511 324
508 335
508 354
498 358
500 348
498 338
489 321
479 321
469 321
459 321
449 321
439 321
429 321
419 321
409 321
399 321
389 321
379 321
369 321
359 321
349 321
339 321
329 321
319 322
319 332
317 348
314 363
308 355
306 345
306 335
303 325
293 325
283 328
275 334
267 328
258 323
248 325
240 331
231 336
221 341
211 344
201 345
191 341
181 337
173 331
164 326
154 323
144 327
136 334
127 329
117 325
107 327
104 339
105 349
104 361
95 346
94 336
98 322
102 309
102 299
98 289
98 279
98 269
