130 254
130 244
136 236
145 231
154 226
164 224
174 220
184 218
194 216
204 216
214 214
224 214
234 212
244 212
254 210
264 206
272 200
282 196
292 192
302 188
312 186
321 191
331 194
340 199
350 198
356 190
362 177
362 167
360 157
357 147
352 138
352 128
358 120
366 114
376 110
386 106
396 102
406 100
416 98
426 94
436 92
446 90
456 90
462 82
471 77
481 73
490 66
498 56
508 54
518 55
525 63
530 72
540 75
550 78
558 85
568 89
578 90
588 92
598 95
608 98
618 100
628 103
638 106
648 110
657 115
665 121
670 130
669 140
663 150
663 160
661 170
661 180
661 190
661 200
661 210
663 220
664 230
665 240
667 250
667 260
668 270
669 280
669 290
669 300
667 316
667 326
667 336
665 350
664 361
654 359
654 349
652 339
652 329
645 321
635 323
625 323
615 323
605 323
595 323
585 323
575 323
565 323
555 323
545 323
535 323
525 323
515 323
505 323
495 323
485 324
485 334
483 348
475 363
470 354
468 344
468 334
460 327
450 327
440 327
430 331
420 333
410 333
402 327
392 325
382 325
372 327
367 336
367 346
367 356
359 363
354 354
354 340
344 337
334 341
324 343
314 345
304 345
294 344
284 342
274 339
264 335
254 331
244 327
234 325
224 325
214 329
206 335
196 333
186 329
176 327
166 327
156 327
151 336
151 346
144 363
136 356
136 342
136 332
140 320
142 302
142 292
140 282
140 272
135 263
