979 1552
974 1562
980 1570
989 1575
998 1580
1007 1585
1016 1590
1024 1596
1031 1604
1041 1605
1051 1605
1060 1610
1069 1615
1078 1620
1087 1625
1097 1629
1106 1634
1116 1635
1125 1640
1135 1640
1144 1645
1153 1650
1163 1650
1173 1650
1183 1650
1192 1655
1201 1660
1211 1663
1221 1665
1231 1668
1241 1670
1251 1670
1260 1675
1270 1675
1279 1680
1289 1680
1299 1680
1308 1685
1318 1685
1327 1690
1337 1690
1347 1690
1357 1690
1367 1690
1369 1700
1369 1710
1369 1720
1369 1730
1374 1739
1380 1747
1387 1755
1396 1760
1405 1765
1415 1765
1425 1765
1435 1760
1445 1755
1453 1748
1460 1735
1465 1725
1465 1715
1465 1705
1465 1695
1475 1695
1485 1690
1495 1690
1504 1685
1514 1685
1524 1682
1534 1680
1544 1680
1554 1680
1563 1675
1572 1670
1582 1670
1592 1669
1602 1665
1612 1664
1622 1660
1632 1659
1642 1655
1651 1650
1660 1645
1670 1645
1680 1640
1690 1640
1700 1635
1710 1635
1720 1630
1730 1630
1739 1625
1748 1620
1758 1620
1767 1615
1777 1614
1787 1609
1797 1605
1807 1605
1817 1605
1826 1600
1835 1595
1845 1590
1847 1579
1842 1570
1838 1560
1833 1551
1829 1541
1824 1532
1820 1522
1815 1513
1810 1504
1805 1495
1805 1485
1800 1476
1800 1466
1798 1456
1794 1446
1789 1437
1785 1427
1784 1417
1780 1407
1775 1398
1770 1389
1765 1380
1765 1370
1762 1360
1760 1350
1755 1341
1750 1332
1745 1323
1745 1313
1745 1303
1740 1294
1735 1285
1735 1275
1730 1266
1728 1256
1725 1246
1720 1237
1720 1227
1719 1217
1715 1207
1715 1197
1710 1188
1710 1178
1710 1168
1705 1159
1705 1149
1700 1140
1700 1130
1695 1121
1695 1111
1690 1102
1690 1092
1685 1083
1685 1073
1685 1063
1680 1054
1675 1045
1675 1035
1675 1025
1672 1015
1670 1005
1670 995
1670 985
1665 976
1665 966
1664 956
1659 947
1655 937
1655 927
1655 917
1655 907
1655 897
1654 887
1650 877
1650 867
1650 857
1650 847
1645 838
1645 828
1645 818
1645 808
1645 798
1645 788
1645 778
1645 768
1645 758
1640 749
1635 740
1635 730
1627 724
1619 717
1612 709
1604 702
1595 697
1585 693
1578 685
1570 678
1565 669
1560 660
1560 650
1560 640
1560 630
1565 620
1570 602
1570 592
1570 582
1565 573
1560 564
1557 554
1552 545
1545 537
1540 528
1533 520
1525 514
1519 506
1511 499
1502 494
1493 489
1484 484
1475 479
1465 479
1455 479
1445 479
1435 479
1425 479
1415 479
1405 479
1395 481
1385 486
1375 491
1365 496
1358 504
1350 511
1342 519
1333 524
1325 531
1317 539
1309 547
1304 557
1299 567
1294 582
1294 592
1289 607
1294 616
1299 625
1302 635
1304 645
1304 655
1299 672
1294 682
1286 690
1276 695
1266 699
1256 699
1247 704
1238 709
1230 716
1222 724
1217 734
1209 742
1209 752
1204 762
1204 772
1204 782
1204 792
1204 802
1204 812
1204 822
1204 832
1204 842
1199 852
1199 862
1199 872
1194 882
1194 892
1194 902
1194 912
1189 927
1189 937
1184 952
1184 962
1179 977
1179 987
1174 997
1174 1007
1169 1017
1164 1027
1159 1042
1154 1052
1154 1062
1149 1072
1144 1082
1144 1092
1144 1102
1139 1112
1139 1122
1134 1137
1134 1147
1129 1157
1124 1167
1124 1177
1124 1187
1124 1197
1124 1207
1119 1222
1114 1232
1109 1247
1109 1257
1104 1267
1099 1282
1094 1297
1089 1307
1084 1317
1079 1332
1079 1342
1074 1357
1069 1367
1064 1377
1059 1392
1054 1402
1049 1417
1044 1427
1039 1437
1039 1447
1034 1457
1027 1469
1019 1477
1014 1487
1007 1499
999 1507
994 1517
989 1527
984 1537
