29 421
24 412
34 407
44 404
54 404
64 404
74 404
84 402
92 394
100 386
110 381
120 379
130 379
140 379
150 379
159 384
168 389
178 390
185 398
195 402
199 412
205 420
210 429
218 435
225 443
235 444
244 449
252 455
262 459
271 464
280 469
289 474
297 480
307 484
316 489
325 494
335 497
344 502
354 499
363 494
372 489
382 489
392 489
402 489
412 489
422 489
432 484
442 484
452 484
462 479
472 479
481 474
491 474
500 469
510 469
519 464
529 464
539 462
549 457
559 454
568 449
577 444
587 444
595 436
605 431
613 424
622 419
630 411
638 404
647 399
655 391
663 384
672 379
682 374
690 366
698 359
707 354
715 346
723 339
732 334
740 326
748 319
757 314
767 309
777 304
786 299
794 292
802 284
810 276
815 266
823 259
830 251
838 244
847 239
856 234
864 227
869 217
874 207
882 199
889 182
894 172
902 164
912 159
915 169
915 179
923 185
925 195
923 213
915 220
905 230
898 243
890 250
885 260
878 268
870 275
863 283
855 290
848 298
840 305
835 315
830 330
830 340
823 348
815 355
808 363
800 370
793 378
785 385
778 393
770 400
763 408
758 418
753 428
745 435
735 440
726 445
717 450
708 455
699 460
690 465
683 478
678 488
670 495
660 500
651 505
642 510
632 514
622 519
612 524
604 530
595 535
587 544
579 550
569 550
560 555
550 560
542 569
532 570
523 575
513 575
503 575
494 580
484 580
474 580
464 580
454 580
444 582
434 585
424 585
415 590
420 599
430 599
439 604
448 609
458 610
465 618
467 629
458 635
448 635
438 635
428 635
418 635
408 635
398 635
388 635
379 630
370 635
363 645
353 645
343 643
333 648
325 655
315 655
310 665
315 674
320 683
320 693
320 710
315 720
310 730
305 740
305 750
307 760
312 769
321 774
315 785
305 785
295 783
286 778
276 780
266 780
256 779
247 774
249 762
259 759
268 754
278 754
285 746
293 739
297 729
299 717
304 707
304 697
300 687
294 679
289 670
280 665
270 670
265 680
265 690
265 700
260 710
250 715
243 723
235 730
228 738
220 745
213 758
205 765
196 775
186 775
177 780
168 785
159 780
149 777
149 767
157 759
165 751
175 749
185 749
195 746
203 739
210 731
218 724
225 716
233 709
240 701
244 687
249 672
245 662
235 660
226 655
216 655
207 650
198 645
189 640
181 633
171 630
162 625
155 617
145 613
139 605
129 602
122 594
117 585
114 575
109 566
104 557
104 547
104 537
99 528
99 518
99 508
99 498
99 488
94 479
89 470
84 461
79 452
75 442
67 435
58 430
48 430
39 425
