74 128
74 118
78 108
83 99
88 90
94 80
102 72
110 64
118 56
124 48
132 42
140 34
150 30
159 25
169 21
179 20
189 20
199 20
209 24
219 28
229 32
235 40
239 50
243 60
250 52
256 44
266 40
276 38
286 38
295 43
303 50
305 60
311 68
317 76
323 84
322 95
312 91
304 84
296 78
287 73
277 69
267 66
267 76
267 86
265 102
258 111
248 115
238 113
230 107
226 97
224 87
221 77
211 80
205 88
201 100
199 112
197 124
195 134
191 150
187 166
185 176
185 186
184 197
185 207
187 217
187 227
189 237
191 247
193 257
202 262
216 264
221 273
211 273
201 275
191 275
181 275
171 272
170 262
168 252
167 242
166 232
164 222
162 212
162 202
160 192
160 182
160 172
160 162
160 152
160 142
160 132
160 122
153 114
144 119
134 123
124 127
114 131
104 131
94 127
84 131
