30 190
24 182
32 174
41 169
49 162
59 157
67 149
77 149
87 149
97 149
107 149
116 154
126 154
135 159
143 165
147 175
150 185
150 195
150 205
145 215
145 225
145 235
145 245
147 255
155 262
164 267
174 271
183 276
193 279
202 284
212 284
221 289
230 294
240 294
249 299
259 301
269 304
278 309
288 310
297 315
307 319
316 324
325 329
334 334
342 340
352 344
361 349
370 354
379 359
387 365
397 369
404 377
412 384
419 392
424 401
430 409
438 415
442 425
450 432
455 441
460 450
465 459
475 462
485 464
494 469
503 474
512 479
521 484
530 489
539 494
548 499
557 504
567 504
576 509
585 514
595 517
605 519
614 524
623 529
633 530
642 535
652 539
661 544
670 549
680 549
689 554
698 559
708 560
717 565
727 569
736 574
745 579
754 584
762 590
770 597
777 605
780 615
773 630
764 635
755 630
748 638
740 645
730 645
720 645
713 655
703 655
694 650
684 650
674 647
665 642
655 638
646 633
636 629
627 624
617 620
608 615
599 610
590 605
581 600
572 595
563 590
554 585
545 580
536 575
527 570
518 565
509 560
501 553
491 549
484 541
476 535
467 530
460 522
450 518
443 510
434 505
426 499
419 491
411 485
402 480
393 475
383 475
374 480
364 480
354 480
344 480
334 480
324 480
314 480
305 475
295 480
295 490
293 503
285 510
278 523
273 533
265 540
263 553
255 560
252 579
244 585
234 585
224 581
219 572
227 564
237 559
245 551
253 544
257 534
264 522
272 514
277 504
279 490
278 480
269 475
260 470
250 470
240 470
240 480
232 494
222 499
214 505
205 510
195 510
185 510
177 519
172 529
163 535
154 530
144 527
144 517
154 512
162 504
172 499
182 499
192 499
201 494
211 490
213 475
205 468
198 460
190 453
184 445
174 442
167 434
159 427
150 422
140 418
134 410
126 403
121 394
114 386
109 377
104 368
99 359
97 349
92 340
89 330
87 320
84 310
84 300
84 290
84 280
84 270
84 260
84 250
79 241
74 232
69 223
62 215
55 207
47 200
40 192
