156 88
156 78
158 68
160 52
165 43
170 32
178 26
188 22
198 20
208 20
218 24
226 30
232 38
237 47
239 57
241 67
243 77
243 87
245 97
241 112
241 122
235 131
225 130
225 140
225 150
223 168
223 178
223 188
223 198
223 208
221 222
221 232
221 242
221 252
221 262
219 274
209 274
205 264
210 246
210 236
210 226
210 216
212 200
212 177
210 167
210 157
210 147
210 137
207 127
197 120
197 130
197 140
197 150
197 160
197 170
198 180
199 190
197 204
197 214
197 224
195 240
195 250
195 260
196 270
187 275
177 274
170 266
180 262
184 248
184 238
186 221
186 211
186 201
186 191
186 181
186 171
184 161
182 151
180 141
180 131
178 121
176 111
172 101
164 95
