24 577
24 567
32 559
39 542
44 532
52 524
57 514
62 504
69 487
74 472
79 462
84 447
89 432
94 417
99 407
104 397
109 385
109 375
107 365
104 355
99 346
99 336
94 327
99 312
107 304
112 294
121 289
126 280
134 274
143 269
153 269
163 269
173 269
183 269
193 270
203 274
213 274
223 274
233 274
242 269
249 252
249 242
249 232
254 222
254 212
259 197
267 189
275 181
285 176
293 169
302 164
312 164
321 159
331 155
341 150
351 149
361 145
371 144
381 140
391 139
401 139
411 139
421 139
431 139
441 139
451 139
460 144
470 144
479 149
489 149
499 151
509 154
519 154
529 156
539 159
549 159
558 164
568 164
578 164
588 164
597 169
607 169
617 169
627 169
637 169
647 169
657 169
667 169
677 169
687 169
697 169
707 169
717 169
727 169
737 169
747 169
757 169
767 169
770 179
770 189
775 198
767 209
757 210
747 210
737 210
728 215
718 218
708 220
699 225
690 230
681 235
671 235
662 240
654 247
644 250
635 255
625 255
615 265
607 279
597 284
589 290
580 295
575 305
573 318
565 325
560 335
555 345
550 355
543 368
538 378
530 385
530 395
530 405
535 414
540 423
548 430
552 440
555 450
551 465
541 464
537 454
532 445
524 439
522 429
514 422
514 412
514 402
514 392
514 382
519 372
524 362
532 354
539 342
547 334
552 324
554 311
548 303
538 305
529 310
519 312
509 317
499 320
490 325
480 325
470 330
470 340
470 350
472 360
477 369
480 379
485 388
485 398
490 407
495 416
495 426
493 443
485 450
483 468
475 475
470 490
465 505
460 515
455 525
455 535
450 545
445 555
440 565
440 575
435 585
433 598
425 605
427 615
423 628
415 635
407 644
399 650
390 655
380 660
370 660
364 652
374 647
382 639
392 634
399 622
407 614
409 597
414 587
419 577
424 567
424 557
429 547
437 539
439 527
444 517
449 502
454 492
459 477
464 462
469 452
474 435
474 425
474 415
472 405
469 395
467 385
464 375
459 366
454 357
454 347
447 339
437 335
427 335
417 335
407 335
397 335
387 334
377 330
367 329
357 325
348 320
338 320
329 315
320 310
310 307
300 305
290 310
285 325
279 335
270 340
260 345
250 350
243 358
233 360
224 365
214 365
204 365
194 365
185 370
175 370
168 378
160 385
153 393
143 398
133 403
128 413
123 423
118 433
113 443
108 453
103 463
98 473
93 483
88 493
83 503
78 513
70 520
65 530
55 540
55 550
48 558
40 565
34 577
