79 512
79 502
84 492
92 484
100 476
108 469
117 464
126 469
135 474
145 477
155 479
164 484
174 477
179 467
187 459
194 447
199 437
207 429
214 417
219 407
227 399
234 387
239 377
247 369
252 359
257 349
264 337
272 329
277 319
282 309
290 301
295 291
300 281
308 274
312 264
320 256
325 246
330 236
338 229
342 219
347 209
354 197
359 187
367 179
372 169
379 157
384 147
392 139
394 123
394 113
389 104
384 95
379 86
374 77
374 67
379 57
387 49
395 41
403 34
410 26
420 24
430 24
440 24
450 24
460 24
468 30
475 38
475 48
475 58
480 67
484 77
485 87
490 96
493 106
495 116
501 124
509 117
514 107
519 97
527 89
537 89
544 97
549 106
550 116
555 125
553 138
545 145
540 155
532 164
527 174
517 175
507 175
498 170
488 170
478 170
469 165
460 160
450 160
440 165
433 178
428 188
423 198
415 205
408 218
400 225
395 235
388 243
383 253
378 263
370 270
365 280
358 288
353 298
348 308
340 315
333 328
328 338
323 348
315 355
308 363
300 370
295 380
288 393
283 403
275 410
270 420
265 430
258 438
253 448
245 455
240 465
235 475
228 483
220 490
215 500
210 510
210 520
215 529
215 539
215 549
220 558
220 568
218 578
210 585
202 594
194 600
185 605
176 610
167 605
157 604
147 600
138 595
129 590
124 581
124 571
124 561
124 551
119 542
119 532
119 522
112 514
104 522
99 532
89 530
84 521
