79 512
79 502
84 492
92 484
100 476
108 469
117 464
126 469
135 474
145 474
154 479
162 485
171 480
179 472
187 464
192 454
197 444
204 432
212 424
217 414
222 404
229 392
234 382
242 374
249 362
254 352
262 344
267 334
274 322
279 312
287 304
294 292
299 282
307 274
312 264
320 256
325 246
330 236
338 229
342 219
347 209
354 197
359 187
367 179
372 169
379 157
384 147
392 139
394 123
394 113
389 104
384 95
379 86
374 77
374 67
379 57
387 49
395 41
403 34
410 26
420 24
430 24
440 24
450 24
460 24
465 33
465 43
470 52
470 62
470 72
470 82
478 89
488 89
497 84
507 79
517 79
526 74
535 79
540 88
545 97
549 107
550 117
555 126
553 138
545 145
540 155
532 164
527 174
517 175
507 175
498 170
488 170
478 170
469 165
460 160
450 160
440 165
433 178
428 188
423 198
415 205
408 218
400 225
395 235
388 243
383 253
378 263
370 270
365 280
358 288
353 298
348 308
340 315
333 328
328 338
323 348
315 355
308 363
300 370
295 380
288 393
283 403
275 410
270 420
265 430
258 438
253 448
245 455
240 465
235 475
228 483
220 490
215 500
210 510
210 520
215 529
215 539
215 549
220 558
220 568
215 580
208 588
200 595
190 600
180 605
170 607
160 605
151 600
142 595
132 594
129 572
134 558
127 550
117 550
107 550
98 545
89 540
84 531
84 521
