24 82
24 72
32 64
41 69
50 74
60 77
70 79
78 85
87 90
97 94
106 99
115 104
125 107
133 114
142 119
151 124
160 129
168 135
175 143
185 147
192 155
202 159
209 167
219 171
225 179
233 185
240 193
248 200
257 205
267 209
277 209
287 209
296 214
306 214
315 219
325 219
335 222
344 227
352 234
350 250
345 265
340 275
340 285
340 295
345 304
350 313
358 320
365 328
373 335
377 345
385 352
392 360
397 369
404 377
412 384
419 392
427 399
436 404
445 409
455 409
464 414
474 416
484 419
493 424
503 425
512 430
522 434
531 439
540 444
550 447
553 458
543 460
533 460
523 460
514 455
504 455
494 455
485 450
475 450
465 450
455 455
450 470
450 480
450 490
445 500
437 515
430 507
424 499
419 490
417 480
414 470
412 460
409 450
407 440
404 430
396 423
390 415
380 415
371 420
361 420
352 415
344 409
344 399
339 390
335 380
329 372
320 367
312 360
303 355
295 348
288 340
279 335
270 340
261 345
251 345
241 344
234 336
229 327
229 317
234 308
231 298
226 289
219 281
211 275
202 270
195 262
187 255
178 250
170 243
163 235
155 228
148 220
140 213
133 205
125 198
119 190
109 186
104 177
97 169
89 162
85 152
77 145
70 137
62 130
55 122
47 115
44 105
36 99
29 91
