79 512
79 502
84 492
92 484
100 476
108 469
117 464
126 469
135 474
145 474
154 479
163 484
169 472
174 462
179 452
179 442
179 432
184 422
189 407
194 392
194 382
199 367
204 352
209 337
209 327
214 312
219 297
219 287
224 277
232 269
240 261
248 254
255 246
263 239
272 234
282 229
290 221
298 214
305 206
313 199
322 194
330 186
338 179
345 171
355 166
365 161
373 154
380 146
388 139
394 124
389 115
387 105
384 95
379 86
374 77
374 67
379 57
387 49
395 41
400 31
410 26
420 24
430 24
440 24
450 24
460 24
468 30
475 38
480 47
480 57
485 66
495 69
505 69
515 69
524 74
532 80
540 87
540 97
545 106
550 115
552 125
550 140
543 148
535 155
529 167
521 175
511 175
501 174
492 169
482 165
472 165
462 165
453 160
444 165
435 170
428 178
418 183
408 188
400 195
393 203
385 210
378 218
370 225
363 233
353 238
345 245
337 254
329 260
320 265
312 274
304 280
295 285
288 293
280 300
275 310
270 320
265 335
260 350
255 360
250 375
250 385
245 400
240 415
235 425
230 440
225 455
220 465
220 475
215 490
210 505
210 515
212 525
215 535
215 545
220 554
220 564
215 580
208 588
200 595
190 600
180 605
170 607
160 605
151 600
142 595
132 594
129 572
134 558
127 550
117 550
107 550
98 545
89 540
84 531
84 521
