8 27
7 17
14 9
24 7
34 10
43 15
52 20
60 26
69 31
78 36
86 42
95 47
104 52
112 58
121 63
130 68
138 74
145 82
153 88
163 89
172 94
181 99
190 104
199 109
208 114
217 119
226 124
234 130
243 135
252 140
261 145
269 151
278 156
287 161
296 166
305 171
313 177
322 182
331 187
339 193
339 208
329 209
320 204
311 199
302 194
293 189
283 185
275 179
266 174
257 169
247 165
239 159
230 154
221 149
212 144
203 139
194 134
185 129
175 125
166 120
157 115
148 110
139 105
129 101
120 96
110 95
102 88
94 82
84 78
75 73
66 68
57 63
49 57
39 53
30 48
20 44
13 36
