149 147
149 137
157 129
165 121
173 114
180 106
190 101
195 91
203 84
199 66
194 57
194 47
194 37
199 27
209 24
219 24
229 24
239 24
249 24
259 24
269 24
279 24
289 26
298 31
308 35
315 43
320 52
329 57
339 59
349 59
359 59
369 59
379 59
389 59
399 59
409 59
419 59
429 59
439 59
449 59
458 54
467 49
477 49
487 49
497 44
507 44
517 44
526 49
535 54
545 57
554 62
564 66
573 71
580 79
589 84
599 82
609 77
619 72
629 69
639 69
648 64
658 64
668 65
672 75
675 85
680 94
680 104
673 113
665 120
660 130
655 140
648 153
640 160
640 170
640 180
640 190
640 200
645 209
647 224
637 225
627 225
617 229
607 230
597 234
587 235
577 235
567 235
557 235
550 227
542 220
533 215
524 210
516 204
507 199
497 195
488 190
478 190
469 195
459 195
449 197
439 200
429 200
419 200
410 205
400 205
390 205
381 210
371 210
361 210
351 210
341 210
331 210
321 208
311 204
302 199
292 195
283 190
274 185
264 182
255 177
245 175
235 175
225 175
215 180
205 180
195 185
186 190
176 189
169 181
164 172
164 162
157 154
