104 202
104 226
104 236
111 244
119 250
128 255
138 255
148 255
157 260
167 264
176 269
184 275
190 283
198 290
207 295
216 300
224 306
229 315
234 324
239 333
232 349
222 354
212 359
204 367
207 384
215 390
225 390
235 390
245 390
255 390
265 390
275 390
285 390
295 390
305 390
315 390
325 390
335 390
345 390
355 390
365 390
375 390
385 392
395 390
405 390
415 390
425 390
435 390
445 390
455 390
465 390
470 374
465 365
475 365
485 365
495 365
505 365
514 360
524 357
532 349
535 335
530 326
525 317
515 314
510 305
510 295
515 280
520 267
515 258
515 248
510 239
507 229
499 222
492 214
487 205
485 195
477 189
467 185
460 177
452 170
443 165
435 159
429 151
419 149
409 149
399 146
389 144
379 144
369 144
359 144
349 144
339 144
329 144
319 147
309 149
299 149
289 149
279 149
269 149
259 149
250 154
240 150
245 140
253 133
258 123
263 113
265 96
265 86
263 76
255 70
260 54
251 49
241 49
232 54
224 62
214 72
209 82
204 92
202 104
194 112
194 122
194 132
185 139
176 144
166 144
156 145
146 149
137 154
129 162
122 174
117 184
109 192
