299 1342
299 1332
304 1322
309 1312
309 1302
314 1287
319 1277
319 1267
319 1257
324 1247
324 1237
324 1227
324 1217
329 1207
329 1197
329 1187
329 1177
329 1167
334 1157
339 1142
344 1132
344 1122
349 1106
349 1096
349 1086
349 1076
349 1066
344 1057
344 1047
344 1037
344 1027
344 1017
344 1007
349 997
357 989
367 989
376 984
382 970
378 960
370 953
366 943
361 934
354 926
349 917
349 907
342 899
337 890
334 880
329 871
329 861
329 851
324 842
324 832
324 822
324 812
324 802
324 792
332 784
341 779
349 772
349 762
354 752
362 744
371 739
379 732
387 724
397 719
406 714
415 709
424 702
432 694
440 686
448 679
457 674
462 664
469 647
474 632
479 622
484 607
489 592
494 582
494 572
499 557
499 547
499 537
499 527
504 512
504 502
504 492
509 477
509 467
514 452
519 437
519 427
524 412
524 402
529 387
534 377
539 362
544 352
549 342
554 332
559 322
564 312
569 302
574 287
582 279
587 269
595 261
600 251
608 244
615 236
623 229
630 221
640 219
649 214
658 209
668 209
677 214
687 214
696 219
706 219
714 226
724 229
732 235
740 242
749 247
759 251
765 259
770 268
775 277
782 285
790 292
790 302
795 311
800 320
805 329
805 339
810 348
815 357
815 367
820 376
823 386
825 396
828 406
830 416
830 426
833 436
835 446
835 456
840 465
840 475
845 484
845 494
845 504
850 513
850 523
858 529
867 524
875 516
879 497
884 487
889 477
889 467
894 452
899 437
899 427
904 412
909 397
909 387
914 372
919 357
924 342
924 332
929 317
934 302
934 292
942 284
947 274
952 264
957 254
964 242
969 232
977 224
987 219
992 209
1001 204
1009 197
1017 189
1027 184
1036 179
1046 179
1056 175
1066 174
1076 174
1085 179
1095 179
1104 184
1113 189
1123 190
1132 195
1140 202
1147 210
1155 217
1160 226
1166 234
1174 241
1175 251
1180 260
1180 270
1182 280
1190 287
1194 297
1195 307
1195 317
1200 326
1200 336
1200 346
1200 356
1203 366
1205 376
1205 386
1205 396
1205 406
1205 416
1210 425
1210 435
1210 445
1210 455
1212 465
1217 474
1227 474
1229 462
1229 452
1234 442
1234 432
1239 417
1244 407
1244 397
1249 387
1254 377
1259 362
1264 346
1264 336
1259 327
1259 317
1267 309
1277 304
1287 304
1296 299
1304 292
1312 284
1320 276
1328 269
1337 264
1345 256
1353 249
1360 241
1368 234
1375 226
1383 219
1392 214
1400 206
1405 196
1413 189
1422 184
1430 176
1440 171
1450 166
1460 164
1469 157
1479 152
1489 149
1499 149
1509 149
1519 149
1529 151
1539 154
1548 159
1557 164
1560 174
1565 183
1570 192
1577 200
1585 207
1585 217
1590 226
1593 236
1600 244
1608 250
1617 255
1627 259
1636 264
1646 260
1656 255
1666 254
1676 254
1685 249
1695 249
1705 249
1715 252
1724 257
1732 264
1741 269
1749 276
1755 284
1763 290
1770 298
1775 307
1770 320
1768 333
1760 340
1754 352
1746 360
1737 365
1729 372
1719 377
1709 382
1699 387
1689 392
1679 395
1670 400
1660 405
1650 410
1640 410
1630 415
1620 415
1612 424
1604 432
1594 435
1585 440
1580 450
1580 460
1575 475
1573 493
1568 503
1560 510
1560 520
1560 530
1560 540
1555 550
1555 560
1550 570
1550 580
1545 590
1545 600
1547 610
1550 620
1555 629
1555 639
1555 650
1555 660
1555 670
1550 685
1545 695
1538 703
1530 710
1530 720
1530 730
1532 740
1535 750
1535 760
1530 770
1530 780
1530 790
1532 800
1535 810
1530 820
1530 830
1530 840
1525 855
1525 865
1520 880
1520 890
1515 905
1510 920
1505 935
1500 945
1495 955
1490 970
1483 983
1475 990
1468 998
1458 1000
1448 1000
1438 1000
1429 995
1420 1000
1413 1008
1405 1015
1398 1023
1390 1030
1383 1038
1373 1043
1363 1048
1355 1055
1348 1063
1338 1065
1329 1060
1324 1051
1319 1042
1327 1034
1329 1020
1320 1015
1312 1024
1302 1029
1292 1034
1282 1039
1272 1040
1263 1035
1255 1028
1248 1020
1238 1023
1230 1030
1230 1040
1230 1050
1232 1060
1235 1070
1240 1079
1240 1089
1240 1099
1240 1109
1240 1119
1240 1129
1240 1139
1245 1148
1250 1157
1254 1167
1262 1174
1269 1182
1275 1190
1280 1199
1285 1208
1285 1218
1290 1227
1285 1240
1285 1250
1280 1265
1280 1275
1275 1290
1275 1300
1275 1310
1275 1320
1275 1330
1275 1340
1275 1350
1280 1359
1280 1369
1280 1379
1285 1388
1290 1397
1294 1407
1299 1416
1303 1426
1310 1434
1318 1440
1325 1448
1335 1452
1345 1454
1355 1454
1364 1449
1373 1444
1380 1436
1388 1429
1394 1417
1399 1407
1407 1399
1417 1394
1427 1389
1437 1384
1447 1384
1457 1384
1466 1389
1474 1396
1480 1404
1485 1413
1493 1420
1502 1425
1510 1432
1517 1440
1525 1447
1530 1456
1535 1465
1538 1483
1530 1490
1523 1498
1515 1505
1507 1514
1499 1520
1490 1525
1482 1534
1474 1540
1465 1545
1457 1554
1449 1560
1440 1565
1433 1573
1423 1578
1413 1583
1405 1590
1395 1590
1385 1595
1376 1600
1366 1600
1356 1600
1347 1605
1337 1609
1327 1614
1317 1619
1307 1624
1297 1625
1287 1625
1280 1617
1275 1608
1269 1600
1261 1594
1254 1586
1249 1577
1249 1567
1249 1557
1254 1539
1249 1530
1249 1520
1247 1510
1244 1500
1239 1491
1234 1482
1234 1472
1229 1463
1229 1453
1229 1443
1229 1433
1229 1423
1229 1413
1229 1403
1229 1393
1229 1383
1224 1374
1219 1365
1217 1355
1210 1347
1204 1339
1199 1330
1191 1324
1184 1316
1179 1307
1174 1298
1169 1289
1167 1279
1162 1270
1159 1260
1159 1250
1159 1240
1159 1230
1159 1220
1157 1210
1154 1200
1154 1190
1152 1180
1149 1170
1149 1160
1144 1151
1139 1142
1135 1132
1127 1125
1123 1115
1115 1108
1108 1100
1098 1103
1090 1110
1085 1120
1080 1130
1080 1140
1073 1148
1068 1158
1063 1168
1055 1175
1048 1183
1040 1190
1035 1200
1035 1210
1037 1220
1040 1230
1040 1240
1040 1250
1035 1260
1030 1275
1025 1285
1020 1295
1015 1310
1010 1320
1005 1330
1000 1345
1000 1355
1000 1365
1000 1375
1000 1385
1000 1395
1000 1405
1000 1415
1000 1425
995 1440
995 1450
995 1460
995 1470
990 1485
990 1495
985 1510
985 1520
985 1530
985 1540
985 1550
980 1565
980 1575
975 1585
975 1595
975 1605
980 1614
985 1623
993 1629
1002 1634
1011 1639
1019 1646
1028 1651
1035 1659
1043 1665
1052 1670
1060 1677
1064 1687
1070 1695
1072 1705
1075 1715
1078 1733
1070 1740
1063 1748
1053 1753
1045 1760
1040 1770
1035 1780
1026 1785
1017 1790
1007 1790
997 1790
987 1790
977 1790
967 1790
957 1790
947 1789
937 1785
927 1785
917 1784
907 1780
897 1780
887 1779
879 1772
870 1767
862 1760
853 1755
845 1748
838 1740
830 1733
824 1725
824 1715
819 1706
819 1696
814 1687
814 1677
822 1669
832 1664
840 1656
848 1649
857 1644
864 1632
869 1616
869 1606
864 1597
864 1587
864 1577
864 1567
869 1557
874 1547
879 1537
887 1529
889 1512
894 1502
899 1492
904 1482
909 1467
909 1457
914 1446
914 1436
909 1427
909 1417
914 1402
919 1392
919 1382
924 1372
924 1362
929 1345
929 1335
929 1325
929 1315
929 1305
929 1295
924 1286
924 1276
919 1267
919 1257
919 1247
919 1237
919 1227
919 1217
924 1207
932 1199
942 1194
949 1182
954 1172
959 1157
964 1142
964 1132
964 1122
964 1112
969 1097
969 1087
969 1077
969 1067
965 1057
955 1055
946 1060
937 1065
927 1069
917 1074
907 1079
897 1084
889 1090
879 1092
869 1095
860 1100
850 1100
840 1105
830 1105
820 1105
811 1110
801 1110
792 1115
782 1115
773 1120
763 1120
753 1120
743 1120
733 1120
723 1120
713 1120
703 1120
693 1120
683 1120
673 1120
663 1120
653 1120
644 1125
635 1130
630 1140
630 1150
630 1160
630 1170
630 1180
632 1190
637 1199
640 1209
645 1218
650 1227
650 1237
655 1246
655 1256
660 1265
662 1275
667 1284
670 1294
675 1303
680 1312
685 1321
690 1330
692 1340
697 1349
700 1359
708 1365
712 1375
715 1385
720 1394
729 1399
739 1401
749 1404
759 1404
769 1404
779 1404
789 1404
799 1404
809 1406
819 1409
829 1411
839 1414
847 1420
855 1427
860 1436
865 1445
870 1454
870 1464
868 1483
863 1493
855 1500
845 1505
837 1514
829 1520
819 1522
809 1525
799 1527
789 1532
779 1535
769 1535
759 1537
749 1540
739 1542
729 1545
720 1550
710 1550
700 1550
691 1545
682 1540
673 1535
663 1535
655 1528
649 1520
641 1514
632 1509
622 1505
615 1497
607 1490
604 1480
604 1470
604 1460
604 1450
604 1440
599 1431
599 1421
599 1411
594 1402
594 1392
589 1383
589 1373
584 1364
584 1354
582 1344
577 1335
574 1325
572 1315
569 1305
564 1296
559 1287
554 1278
549 1269
546 1259
544 1249
544 1239
541 1229
539 1219
537 1209
532 1200
525 1192
517 1185
508 1180
500 1173
494 1165
486 1159
479 1151
474 1142
474 1132
482 1124
491 1119
500 1114
509 1107
517 1099
524 1085
515 1080
505 1080
498 1088
488 1093
480 1100
470 1105
460 1110
453 1118
448 1128
440 1135
440 1145
435 1155
435 1165
430 1180
430 1190
425 1205
425 1215
420 1225
420 1235
415 1250
415 1260
410 1275
410 1285
405 1295
405 1305
405 1315
405 1325
405 1335
405 1345
405 1355
410 1364
415 1373
420 1382
429 1387
437 1394
446 1399
454 1406
460 1414
465 1423
473 1430
477 1440
485 1447
492 1455
497 1464
500 1474
505 1483
513 1490
517 1500
522 1509
529 1517
527 1529
519 1537
514 1547
509 1557
501 1565
492 1570
484 1577
474 1582
466 1590
456 1590
447 1595
437 1595
428 1600
418 1600
408 1600
398 1600
388 1600
379 1595
369 1595
360 1590
350 1587
342 1580
333 1575
325 1568
319 1560
311 1554
304 1546
304 1536
304 1526
304 1516
304 1506
299 1497
299 1487
304 1472
309 1462
309 1452
314 1437
319 1422
321 1409
317 1399
312 1390
309 1380
304 1371
299 1362
299 1352
