239 1082
239 1072
244 1062
244 1052
244 1042
249 1032
249 1022
249 1012
254 997
254 987
254 977
254 967
259 952
264 942
269 932
277 924
279 912
279 902
284 887
289 877
289 867
297 859
302 849
310 841
315 831
323 824
327 814
335 806
343 799
350 791
358 784
365 776
373 769
379 757
384 747
392 739
400 731
408 724
409 712
409 702
414 692
419 682
424 665
424 655
424 645
424 635
422 625
419 615
414 606
409 597
409 587
409 577
414 567
414 557
422 549
427 539
429 527
434 514
431 504
424 496
419 487
419 477
427 469
435 461
439 442
444 427
452 419
462 414
467 404
475 396
485 391
493 384
500 376
508 369
517 364
527 364
537 359
547 354
552 344
560 336
568 329
578 329
587 334
597 334
607 334
616 329
626 329
636 329
646 329
655 334
664 339
673 334
683 334
693 334
702 329
712 329
721 324
729 331
738 336
745 344
753 350
760 358
768 365
775 373
783 380
785 390
790 399
795 408
803 415
810 423
815 432
819 442
820 452
825 461
830 470
830 480
830 490
830 500
830 510
830 520
830 530
830 540
830 550
830 560
830 570
825 585
820 595
820 605
820 615
815 625
815 635
810 650
805 660
810 669
820 666
824 647
829 630
829 620
831 610
834 592
839 575
839 565
839 555
839 545
841 535
844 524
839 515
839 505
839 495
845 486
853 479
854 465
849 456
844 447
844 437
849 427
857 419
864 402
872 394
882 394
892 394
902 394
912 394
922 394
930 386
938 379
945 371
955 369
965 369
975 369
983 375
993 379
1003 379
1012 374
1022 374
1031 379
1039 386
1049 389
1059 389
1069 387
1079 386
1088 391
1095 399
1103 405
1110 413
1118 420
1127 425
1137 429
1144 437
1152 444
1155 454
1155 464
1150 475
1150 485
1150 495
1150 505
1150 515
1150 525
1150 535
1150 545
1150 555
1150 565
1150 575
1150 585
1150 595
1150 605
1145 615
1145 625
1145 635
1150 644
1159 637
1159 627
1164 612
1164 602
1164 592
1164 582
1164 572
1164 562
1169 552
1169 542
1174 532
1179 517
1187 509
1189 497
1197 489
1189 475
1179 471
1174 462
1182 454
1192 449
1189 436
1184 427
1189 417
1189 407
1197 399
1204 385
1199 376
1194 367
1194 357
1194 347
1194 337
1202 329
1212 324
1221 319
1230 314
1240 311
1250 309
1260 309
1270 309
1280 306
1290 301
1300 299
1309 292
1314 282
1322 274
1330 266
1340 264
1350 264
1358 270
1367 275
1377 279
1387 279
1397 279
1407 279
1417 279
1427 279
1437 279
1446 284
1456 280
1466 284
1476 284
1486 284
1495 289
1504 294
1513 299
1522 304
1531 309
1541 309
1549 316
1558 321
1568 325
1577 330
1587 334
1594 342
1604 344
1612 350
1617 359
1620 369
1625 378
1630 387
1634 397
1635 407
1635 417
1635 427
1640 436
1640 446
1640 456
1640 466
1635 480
1633 498
1625 505
1618 513
1608 515
1599 520
1589 520
1580 525
1570 525
1560 530
1550 527
1540 525
1530 530
1523 538
1515 545
1508 553
1500 560
1493 568
1485 575
1475 580
1465 585
1458 593
1450 600
1450 610
1445 620
1445 630
1445 640
1445 650
1445 660
1440 670
1440 680
1435 690
1435 700
1435 710
1430 720
1430 730
1425 745
1425 755
1425 765
1425 775
1425 785
1425 795
1425 805
1425 815
1425 825
1425 835
1425 845
1425 855
1420 865
1420 875
1420 885
1420 895
1415 910
1415 920
1415 930
1415 940
1410 950
1410 960
1405 970
1400 985
1400 995
1398 1008
1390 1015
1385 1025
1385 1035
1380 1050
1375 1060
1370 1070
1365 1080
1363 1093
1358 1103
1350 1110
1343 1123
1338 1133
1330 1140
1323 1148
1315 1155
1310 1165
1303 1173
1295 1180
1297 1190
1307 1194
1316 1199
1325 1204
1335 1207
1343 1214
1352 1219
1359 1227
1367 1234
1374 1242
1382 1249
1385 1259
1380 1270
1375 1280
1370 1290
1363 1303
1355 1310
1348 1323
1340 1330
1335 1340
1335 1350
1330 1365
1330 1375
1332 1385
1335 1395
1337 1405
1345 1412
1349 1422
1350 1432
1355 1441
1355 1451
1355 1461
1360 1470
1360 1480
1360 1490
1360 1500
1360 1510
1360 1520
1360 1530
1360 1540
1358 1553
1353 1563
1345 1570
1341 1585
1332 1590
1323 1595
1314 1590
1304 1587
1297 1579
1289 1572
1282 1564
1274 1557
1265 1552
1257 1545
1250 1537
1242 1530
1235 1522
1230 1513
1223 1505
1215 1498
1208 1490
1200 1483
1194 1475
1186 1469
1182 1459
1174 1452
1174 1442
1174 1432
1174 1422
1179 1412
1187 1404
1192 1394
1201 1389
1211 1385
1221 1384
1231 1380
1241 1375
1244 1357
1244 1347
1249 1332
1254 1317
1254 1307
1259 1295
1251 1288
1241 1285
1232 1280
1222 1280
1212 1280
1202 1280
1193 1285
1183 1285
1173 1285
1163 1288
1153 1290
1144 1295
1135 1300
1128 1313
1120 1320
1120 1330
1120 1340
1120 1350
1120 1360
1120 1370
1120 1380
1120 1390
1115 1400
1117 1410
1120 1420
1120 1430
1115 1440
1115 1450
1115 1460
1115 1470
1120 1479
1125 1488
1133 1494
1143 1495
1153 1499
1162 1504
1171 1509
1181 1509
1190 1514
1200 1517
1208 1524
1217 1529
1226 1534
1234 1541
1240 1549
1245 1558
1250 1567
1250 1577
1250 1587
1245 1605
1236 1610
1227 1615
1218 1620
1209 1625
1199 1625
1189 1627
1179 1630
1169 1632
1159 1635
1149 1635
1139 1635
1129 1635
1119 1635
1110 1640
1100 1640
1091 1635
1081 1633
1071 1630
1062 1625
1052 1624
1042 1620
1032 1619
1022 1615
1012 1615
1003 1610
994 1615
984 1615
975 1610
967 1604
959 1597
959 1587
964 1572
972 1564
977 1554
979 1542
984 1532
992 1524
1000 1516
1008 1509
1014 1492
1019 1483
1019 1473
1019 1463
1019 1453
1019 1443
1019 1433
1015 1423
1014 1413
1014 1403
1014 1393
1014 1383
1014 1373
1009 1364
1004 1355
999 1346
994 1337
994 1327
999 1311
994 1302
990 1292
982 1285
973 1280
963 1280
954 1285
945 1280
935 1280
925 1280
915 1280
905 1280
895 1280
886 1275
877 1270
867 1270
858 1265
849 1260
839 1260
829 1260
820 1265
820 1275
825 1284
825 1294
825 1304
830 1313
830 1323
835 1332
835 1342
830 1355
830 1365
825 1375
820 1390
820 1400
815 1415
810 1430
810 1440
805 1450
800 1460
800 1470
802 1480
810 1487
817 1495
827 1499
834 1507
842 1514
849 1522
854 1531
860 1539
868 1545
875 1553
880 1562
880 1572
885 1581
885 1591
890 1600
890 1610
890 1620
888 1638
880 1645
871 1650
861 1653
851 1650
841 1648
831 1645
821 1643
811 1640
801 1640
792 1635
782 1635
773 1630
764 1625
756 1618
746 1614
737 1609
729 1602
720 1597
712 1590
703 1585
695 1578
689 1570
681 1564
677 1554
669 1547
662 1539
654 1532
654 1522
654 1512
662 1504
672 1499
679 1487
687 1479
692 1469
699 1457
704 1447
709 1432
714 1417
719 1407
724 1392
724 1382
729 1372
729 1362
734 1348
727 1340
720 1332
712 1325
705 1317
697 1310
690 1302
682 1295
675 1287
665 1285
657 1279
647 1275
638 1270
629 1275
620 1280
613 1288
605 1295
597 1304
587 1309
579 1315
570 1320
560 1325
550 1330
540 1335
530 1340
520 1345
510 1345
503 1353
495 1360
495 1370
495 1380
495 1390
495 1400
495 1410
495 1420
495 1430
495 1440
500 1449
500 1459
500 1469
505 1478
505 1488
510 1497
514 1507
524 1509
534 1511
544 1514
553 1519
563 1520
572 1525
582 1529
592 1529
599 1537
609 1541
618 1546
628 1550
635 1558
645 1562
652 1570
655 1580
655 1590
650 1605
643 1613
638 1623
630 1630
621 1635
611 1635
601 1635
592 1640
583 1635
574 1630
564 1630
554 1630
544 1630
534 1630
525 1635
516 1630
506 1630
496 1630
486 1630
476 1630
466 1630
457 1625
447 1625
437 1624
429 1617
420 1612
410 1610
400 1608
394 1600
389 1591
384 1582
384 1572
384 1562
389 1552
397 1544
405 1536
409 1522
409 1512
414 1502
419 1487
419 1477
419 1467
419 1457
424 1442
424 1432
424 1422
424 1412
424 1402
424 1392
429 1377
434 1365
432 1355
429 1345
429 1335
424 1326
424 1316
419 1307
419 1297
419 1287
419 1277
419 1267
424 1257
424 1247
429 1237
429 1227
429 1217
434 1200
432 1190
429 1180
429 1170
429 1160
429 1150
424 1141
419 1132
415 1122
409 1114
404 1105
395 1100
385 1100
380 1110
375 1120
368 1133
363 1143
358 1153
353 1163
345 1170
339 1182
329 1185
320 1190
310 1190
301 1195
292 1190
282 1190
275 1182
267 1175
264 1165
256 1159
254 1149
254 1139
254 1129
249 1120
249 1110
244 1101
244 1091
