24 167
24 157
32 149
42 144
50 136
60 131
70 129
80 126
90 124
100 124
110 124
120 124
130 124
140 124
150 124
160 124
170 121
174 107
182 99
192 94
202 94
212 94
220 86
228 79
238 79
247 74
256 79
260 89
269 94
278 89
279 72
279 62
279 52
284 42
292 34
301 29
310 24
320 24
330 24
339 29
349 29
359 31
369 34
379 36
385 44
395 44
405 44
415 44
425 47
435 49
445 46
455 47
455 57
455 70
455 85
460 94
465 103
475 102
483 109
493 110
503 114
513 114
522 119
532 119
542 114
551 119
560 114
569 119
579 121
580 131
589 136
590 146
590 156
585 165
575 170
570 180
570 190
568 208
558 213
548 215
539 220
530 225
530 235
530 245
528 258
520 265
510 270
501 275
491 275
481 275
472 270
465 262
457 255
454 245
444 245
434 245
424 245
414 245
404 245
394 245
384 245
374 245
364 245
355 250
345 250
340 265
336 275
327 280
322 289
312 294
303 300
293 300
284 295
276 289
274 279
269 270
269 260
268 250
259 245
250 250
241 255
232 260
223 265
213 265
203 265
197 275
193 265
184 270
174 270
165 265
157 275
153 265
144 270
134 270
125 265
116 273
110 265
104 275
95 270
90 280
81 285
71 285
61 285
52 280
44 274
41 264
39 254
39 244
34 235
34 225
34 215
34 205
34 195
29 186
29 176
