394 992
394 1002
394 1021
404 1025
413 1030
423 1030
432 1024
440 1015
445 1005
450 995
455 985
464 980
473 975
483 975
489 983
489 993
489 1003
490 1013
495 1022
502 1030
504 1040
504 1050
504 1060
504 1070
504 1080
504 1090
504 1100
504 1110
504 1120
504 1130
504 1140
504 1150
504 1160
504 1170
504 1180
504 1190
504 1200
499 1212
494 1222
489 1232
484 1247
479 1257
479 1267
484 1276
491 1284
501 1280
510 1275
515 1265
520 1250
520 1240
520 1230
520 1220
520 1210
520 1200
525 1190
530 1180
538 1173
545 1165
553 1158
563 1153
568 1143
575 1130
585 1130
595 1130
605 1130
615 1125
625 1125
634 1120
644 1120
653 1115
663 1115
673 1115
683 1115
693 1115
703 1115
713 1115
723 1115
727 1125
729 1135
729 1145
729 1155
729 1165
734 1174
734 1184
734 1194
734 1204
734 1214
734 1224
734 1234
734 1244
734 1254
739 1263
747 1270
756 1275
765 1270
773 1263
778 1253
780 1240
785 1225
790 1215
790 1205
787 1195
785 1185
785 1175
785 1165
785 1155
785 1145
794 1140
803 1135
813 1135
823 1135
833 1135
843 1135
852 1140
860 1147
869 1152
869 1162
869 1172
869 1182
869 1192
869 1202
869 1212
869 1222
869 1232
874 1241
879 1250
884 1259
889 1268
894 1277
902 1284
911 1289
921 1290
931 1290
941 1290
951 1290
961 1290
971 1290
980 1285
990 1280
1000 1275
1010 1270
1018 1263
1025 1250
1030 1240
1035 1225
1040 1215
1040 1205
1040 1195
1040 1185
1040 1175
1040 1165
1040 1155
1040 1145
1040 1135
1040 1125
1040 1115
1050 1115
1059 1120
1065 1128
1073 1135
1080 1143
1084 1153
1089 1162
1089 1172
1089 1182
1094 1191
1099 1200
1102 1210
1110 1217
1120 1220
1130 1220
1140 1220
1150 1220
1160 1220
1170 1220
1180 1220
1190 1220
1200 1220
1210 1220
1220 1220
1226 1228
1230 1238
1235 1247
1239 1257
1244 1266
1249 1275
1252 1285
1260 1292
1269 1297
1279 1300
1288 1305
1297 1310
1307 1314
1317 1315
1327 1315
1337 1315
1347 1315
1357 1315
1367 1314
1377 1309
1387 1304
1395 1295
1405 1290
1413 1283
1420 1275
1428 1268
1433 1258
1440 1250
1445 1240
1450 1230
1455 1220
1460 1205
1460 1195
1465 1182
1465 1172
1460 1163
1455 1154
1449 1146
1441 1139
1435 1131
1430 1122
1422 1115
1415 1107
1415 1097
1415 1087
1414 1077
1410 1067
1409 1057
1405 1047
1400 1038
1395 1029
1395 1019
1390 1010
1388 1000
1383 991
1374 986
1364 984
1354 984
1344 984
1334 984
1324 984
1314 984
1305 979
1295 978
1290 969
1290 959
1287 949
1282 940
1278 930
1270 924
1261 919
1251 919
1242 924
1234 932
1234 942
1234 952
1234 962
1234 972
1225 979
1216 984
1206 985
1196 989
1187 994
1178 999
1170 1006
1162 1014
1154 1022
1147 1034
1139 1042
1134 1052
1134 1062
1124 1072
1114 1074
1105 1079
1095 1081
1085 1084
1075 1084
1070 1075
1070 1065
1070 1055
1070 1045
1070 1035
1070 1025
1070 1015
1070 1005
1070 995
1075 978
1075 968
1070 959
1065 950
1063 940
1058 931
1054 921
1049 912
1042 904
1037 895
1033 885
1025 879
1022 869
1014 862
1007 854
997 854
987 859
979 867
974 877
974 887
969 897
964 912
964 922
964 932
964 942
962 954
958 964
950 971
942 979
934 987
929 997
924 1007
924 1017
924 1027
924 1037
924 1047
919 1057
919 1067
914 1082
905 1094
895 1094
885 1096
875 1099
865 1101
855 1104
845 1104
835 1104
830 1095
825 1086
820 1077
815 1068
810 1059
807 1049
802 1040
798 1030
790 1023
785 1014
780 1005
775 996
770 987
760 984
751 979
741 980
731 984
722 989
712 989
702 994
692 994
683 999
673 999
663 999
653 999
643 999
633 999
623 999
613 999
603 999
594 994
585 989
579 981
569 977
560 972
552 965
544 959
535 954
526 949
517 944
507 944
498 939
489 934
480 929
471 924
461 924
452 919
442 919
432 919
427 929
422 939
417 949
412 959
404 967
399 977
