624 1017
624 1007
629 992
634 982
639 972
644 962
649 952
657 944
662 934
672 929
682 929
692 929
702 929
712 929
722 929
731 934
741 934
750 939
759 944
768 949
777 954
784 962
792 969
801 974
809 981
815 989
823 995
827 1005
837 1009
847 1009
857 1009
867 1009
877 1009
887 1009
897 1009
907 1009
917 1009
927 1009
937 1009
947 1009
957 1009
967 1009
977 1009
987 1009
996 1014
1005 1019
1015 1022
1019 1032
1024 1041
1025 1051
1030 1060
1032 1070
1037 1079
1040 1089
1045 1098
1053 1104
1062 1109
1072 1109
1082 1109
1092 1109
1102 1109
1112 1109
1121 1104
1131 1104
1141 1104
1149 1095
1149 1085
1149 1075
1149 1065
1149 1055
1149 1045
1149 1035
1144 1026
1139 1017
1147 1009
1156 1004
1165 999
1175 999
1184 994
1194 994
1204 986
1204 976
1204 966
1204 956
1199 947
1199 937
1199 927
1199 917
1199 907
1199 897
1199 887
1199 877
1209 872
1219 871
1225 879
1233 885
1240 893
1245 902
1249 912
1254 921
1255 931
1260 940
1262 950
1265 960
1265 970
1265 980
1265 990
1265 1000
1265 1010
1265 1020
1265 1030
1270 1039
1275 1048
1283 1055
1290 1063
1295 1072
1302 1080
1312 1084
1322 1084
1332 1084
1342 1084
1349 1072
1349 1062
1349 1052
1349 1042
1354 1027
1359 1017
1369 1012
1379 1009
1389 1009
1399 1009
1408 1004
1417 999
1419 987
1419 977
1419 967
1419 957
1424 947
1429 937
1439 932
1449 929
1459 929
1468 924
1478 924
1487 929
1494 937
1502 944
1505 954
1513 960
1520 968
1525 977
1533 984
1543 984
1553 984
1563 984
1573 984
1583 984
1593 984
1603 985
1612 990
1620 997
1624 1007
1625 1017
1620 1035
1620 1045
1620 1055
1620 1065
1620 1075
1622 1085
1625 1095
1627 1105
1637 1109
1646 1114
1655 1119
1660 1128
1665 1137
1672 1145
1677 1154
1680 1164
1685 1173
1685 1183
1685 1193
1685 1203
1685 1213
1685 1223
1680 1240
1680 1250
1678 1268
1673 1278
1665 1285
1660 1295
1655 1305
1648 1313
1640 1320
1631 1325
1622 1330
1612 1330
1602 1330
1592 1330
1583 1325
1573 1325
1564 1320
1554 1320
1545 1315
1537 1309
1527 1305
1517 1304
1507 1300
1498 1295
1488 1295
1479 1290
1470 1285
1464 1277
1459 1268
1454 1259
1452 1249
1444 1242
1437 1234
1429 1227
1425 1217
1415 1215
1405 1215
1395 1215
1385 1215
1375 1215
1365 1215
1355 1215
1345 1215
1335 1215
1325 1215
1315 1215
1305 1215
1295 1215
1285 1215
1275 1215
1265 1215
1255 1215
1255 1225
1255 1235
1250 1250
1250 1260
1250 1270
1245 1285
1240 1295
1232 1309
1222 1314
1212 1319
1202 1320
1192 1320
1183 1315
1173 1315
1163 1315
1154 1310
1145 1305
1137 1299
1129 1292
1124 1283
1119 1274
1114 1265
1109 1256
1104 1247
1100 1237
1095 1228
1094 1218
1094 1208
1094 1198
1094 1188
1090 1178
1089 1168
1080 1163
1074 1155
1064 1155
1054 1155
1045 1160
1045 1170
1045 1180
1045 1190
1045 1200
1050 1209
1050 1219
1058 1225
1065 1233
1070 1242
1070 1252
1065 1270
1060 1280
1052 1289
1044 1295
1034 1295
1025 1290
1015 1290
1005 1287
995 1285
987 1279
979 1272
979 1262
984 1247
984 1237
984 1227
984 1217
984 1207
984 1197
984 1187
980 1177
972 1170
965 1162
957 1155
948 1150
939 1145
931 1138
921 1134
912 1129
902 1125
892 1125
882 1125
872 1125
862 1125
852 1125
843 1130
834 1135
825 1140
825 1150
825 1160
825 1170
830 1179
830 1189
835 1198
840 1207
840 1217
840 1227
840 1237
840 1247
835 1265
835 1275
828 1283
820 1290
811 1295
801 1295
791 1295
781 1295
771 1295
761 1295
751 1295
741 1295
731 1293
721 1289
714 1281
709 1272
709 1262
709 1252
709 1242
709 1232
709 1222
714 1207
719 1192
724 1177
729 1162
734 1152
739 1142
744 1132
752 1124
757 1114
759 1095
757 1085
754 1075
753 1065
745 1058
741 1048
736 1039
732 1029
727 1020
724 1010
724 1000
715 995
705 995
695 995
685 1000
675 1005
675 1015
670 1025
664 1037
656 1045
646 1045
636 1044
629 1036
624 1027
