34 102
29 112
34 121
44 125
54 127
62 119
72 115
80 121
84 131
89 140
89 150
98 155
99 165
99 175
99 185
99 195
99 205
99 215
94 232
89 247
94 256
99 265
109 265
117 259
120 245
120 235
120 225
120 215
120 205
125 190
135 185
145 180
154 175
164 175
174 175
184 175
194 175
204 175
214 175
219 184
224 193
224 207
224 217
224 227
224 237
224 247
230 255
236 263
246 260
254 252
255 240
255 230
255 215
265 210
275 210
284 231
284 241
289 250
294 259
300 267
309 272
319 270
328 275
337 280
346 275
356 275
366 275
375 265
383 258
385 239
385 229
385 219
385 209
385 199
380 190
380 180
380 170
390 170
399 175
405 183
413 190
419 198
424 207
430 215
439 235
448 240
457 245
467 245
477 245
487 245
492 254
499 262
505 270
511 278
521 280
531 283
539 290
549 290
559 290
569 290
579 290
589 287
599 282
607 274
615 265
620 255
620 245
625 231
625 221
625 211
620 202
619 192
612 184
604 177
600 167
590 167
580 164
575 155
580 146
580 136
580 126
579 116
569 112
562 104
552 104
543 109
535 102
530 93
525 84
525 74
516 69
506 69
496 69
487 74
479 82
479 92
478 109
469 114
459 117
452 129
447 139
442 149
432 149
423 144
413 144
405 138
405 128
405 118
405 108
405 98
398 90
393 81
390 71
390 61
385 52
380 43
375 34
366 29
356 29
347 34
339 42
344 66
348 79
340 86
330 91
322 99
314 107
314 117
314 127
314 137
305 144
295 144
285 144
275 142
265 138
265 128
258 120
250 114
240 114
230 114
220 114
210 114
200 114
190 114
180 114
170 114
160 114
150 114
144 106
136 99
127 94
119 87
110 82
100 79
91 74
82 69
73 64
65 71
57 79
47 84
42 94
