24 112
24 102
34 99
43 94
53 94
62 89
72 84
82 79
91 84
100 89
109 82
114 72
124 71
130 79
139 72
147 64
154 72
150 85
150 95
150 105
150 115
150 125
155 134
155 144
155 154
160 163
160 173
165 182
170 191
180 194
190 194
200 194
210 194
219 189
229 189
239 187
249 184
259 184
269 184
279 184
289 184
299 184
309 184
319 184
329 184
339 184
349 184
359 184
369 184
378 189
388 189
398 190
408 194
418 194
427 199
437 199
446 204
456 204
466 204
475 199
485 196
495 194
501 185
511 184
521 184
531 180
541 175
551 170
561 165
566 155
574 149
574 139
574 129
569 120
560 115
552 109
542 105
533 100
523 100
514 95
504 95
495 90
489 82
499 77
509 74
519 74
529 74
538 79
548 79
557 84
567 84
574 92
582 99
591 104
599 111
605 119
610 128
615 137
615 147
615 157
610 170
605 180
595 185
588 198
578 203
570 210
561 215
551 215
542 220
532 224
523 230
513 233
503 238
493 243
485 250
487 260
490 270
495 279
495 289
495 299
495 309
495 319
495 329
500 338
505 347
509 357
510 367
514 377
520 385
520 395
528 401
534 409
543 414
550 422
559 427
560 437
560 447
565 456
570 465
565 475
565 485
565 495
565 505
565 515
559 532
549 537
539 535
529 535
519 532
519 522
527 514
534 499
534 489
534 479
529 470
529 460
521 454
517 444
507 440
503 430
494 425
485 420
485 430
485 440
490 449
495 458
500 467
495 480
490 490
490 500
490 510
485 520
485 530
480 540
475 550
473 563
465 570
456 575
446 575
436 574
429 566
424 557
424 547
432 539
442 534
449 522
454 512
454 502
459 490
454 481
449 472
445 462
437 455
429 448
422 440
415 432
407 425
403 415
395 408
391 398
386 389
382 379
377 370
373 360
365 353
359 345
350 340
340 340
330 340
320 345
312 354
302 355
293 360
284 365
274 367
264 370
254 370
244 370
234 370
224 370
214 370
205 375
200 385
200 395
200 405
200 420
195 430
195 440
195 450
195 460
195 470
195 480
195 490
195 500
195 510
190 520
185 530
180 540
173 548
163 550
154 545
144 541
139 532
147 524
157 519
159 505
159 495
159 485
159 475
157 465
154 455
145 460
140 470
135 480
135 490
125 500
118 513
110 520
102 535
92 535
82 535
72 534
64 527
64 517
74 514
84 512
94 509
99 492
99 482
104 472
104 462
104 452
104 442
104 432
109 422
114 412
114 402
114 392
114 382
109 373
105 363
99 355
98 345
90 338
84 330
79 321
74 312
74 302
69 293
69 283
69 273
69 263
69 253
69 243
69 233
69 223
69 213
69 203
64 194
64 184
64 174
62 164
52 160
43 155
34 150
29 141
29 131
24 122
