24 342
24 332
29 317
29 307
34 292
39 282
49 272
54 256
49 247
49 237
59 236
65 244
74 249
79 232
87 224
96 229
100 239
108 245
115 253
123 260
133 264
143 264
153 264
163 264
173 264
183 264
193 264
202 269
212 269
221 274
231 274
241 270
251 269
260 264
270 264
280 261
290 259
300 259
310 256
320 251
330 251
340 246
350 244
360 241
370 244
380 244
390 244
400 244
410 244
420 244
430 244
440 244
450 244
460 242
470 244
480 247
489 252
499 252
509 254
519 254
528 259
538 260
548 260
558 264
567 269
577 269
586 274
596 274
606 274
615 279
625 282
634 287
644 289
654 291
660 299
670 302
679 307
687 314
694 322
702 329
709 337
717 344
720 354
725 363
730 372
735 381
735 391
735 401
735 411
735 421
735 431
735 441
735 451
735 461
734 477
724 477
717 469
709 462
704 453
699 444
699 434
694 425
692 415
689 405
684 396
684 386
679 377
674 368
668 360
660 353
654 345
644 341
636 335
627 330
617 329
607 325
597 325
588 320
578 320
569 315
559 315
549 315
539 315
529 315
520 320
520 330
525 339
525 349
525 359
525 369
525 379
525 389
525 399
530 408
538 414
547 419
550 429
550 439
550 449
550 459
550 469
550 479
550 489
548 508
540 515
530 520
520 520
510 520
500 520
494 512
494 502
502 494
512 494
519 483
519 473
515 463
508 455
499 450
490 445
480 443
473 435
464 430
455 435
450 445
452 455
450 465
445 480
438 493
430 500
420 505
413 513
403 518
395 525
387 534
377 535
367 535
357 535
347 534
339 527
339 517
347 509
357 504
367 504
377 504
384 492
392 484
394 472
394 462
394 452
394 442
389 433
382 425
379 415
369 415
359 415
349 415
339 415
330 420
320 420
310 425
305 435
305 445
300 460
300 470
300 480
300 490
297 509
289 517
284 527
276 535
266 535
256 535
246 535
236 535
226 534
219 526
214 517
224 512
234 507
244 504
254 498
254 488
254 478
254 468
250 458
249 448
242 440
233 435
223 438
215 445
210 455
205 465
203 478
195 485
188 498
183 508
175 515
169 530
159 530
149 530
139 530
129 530
119 530
109 526
104 517
112 509
121 504
131 504
141 500
149 487
154 477
159 467
164 457
169 442
169 432
169 422
162 414
154 407
147 399
139 392
132 384
124 377
117 369
107 365
98 360
88 360
78 360
68 360
58 360
48 360
39 355
29 351
