24 242
24 232
32 224
41 219
50 214
56 205
66 200
74 194
83 189
93 189
103 189
104 177
109 167
117 159
125 165
135 169
143 175
147 185
150 195
155 204
163 210
168 219
175 227
182 235
190 242
199 247
209 249
219 251
229 251
239 249
249 249
259 249
269 247
279 244
288 239
298 239
308 239
317 234
327 234
337 234
347 234
357 234
367 234
376 239
386 239
396 239
406 239
416 239
426 239
436 239
446 239
456 239
466 239
476 239
485 234
494 227
499 217
507 209
512 199
517 189
519 172
524 157
529 142
529 132
534 117
539 107
539 97
539 87
544 77
544 67
549 57
559 52
567 44
577 44
580 54
575 70
575 80
575 90
575 100
570 110
570 120
565 135
565 145
565 155
560 165
555 180
550 195
545 205
540 220
535 230
530 245
525 255
525 265
525 275
525 285
525 295
525 305
525 315
525 325
520 335
520 345
515 355
515 365
510 375
510 385
512 395
520 402
520 412
520 422
520 432
520 442
515 455
510 470
507 489
502 499
494 507
484 510
474 506
469 497
469 487
477 479
483 465
473 468
465 475
457 484
447 489
439 495
430 500
420 500
410 500
404 492
404 482
414 477
424 474
434 467
442 459
441 440
432 435
422 435
413 430
404 425
394 425
384 425
374 425
364 425
354 425
344 425
334 425
325 430
325 440
325 450
325 460
325 470
320 485
320 495
320 505
320 515
315 525
310 540
302 554
294 560
284 560
274 560
264 557
264 547
272 539
280 531
284 515
284 505
284 495
284 485
279 476
279 466
274 457
270 447
262 440
253 435
244 430
238 438
230 445
223 453
218 463
213 473
205 480
198 493
190 500
183 513
175 520
167 529
162 539
157 549
149 557
139 560
129 560
119 560
109 556
104 547
112 539
122 534
132 534
140 526
145 516
150 506
155 496
159 482
164 472
164 462
169 445
169 435
169 425
164 416
159 407
155 397
147 390
144 380
136 374
134 364
129 355
124 346
124 336
119 327
112 319
107 310
98 305
90 298
83 290
74 285
65 280
56 275
46 273
36 269
29 261
24 252
