24 252
24 242
32 234
42 234
49 222
49 212
54 202
59 192
59 182
59 172
59 162
59 145
59 135
54 126
54 116
59 104
69 104
79 104
89 106
99 109
109 111
119 114
129 114
139 114
149 116
159 119
165 127
174 132
179 141
185 149
193 155
200 163
208 170
217 175
227 179
236 184
246 184
255 189
265 187
274 192
284 189
294 189
304 189
314 189
324 189
334 189
344 189
353 194
362 189
371 184
381 184
391 184
401 184
411 184
421 184
431 184
440 189
449 194
459 196
468 201
478 205
487 210
495 217
504 222
512 229
519 237
524 246
528 256
530 266
535 275
537 285
540 295
545 304
545 314
550 323
550 333
555 342
555 352
555 362
560 371
563 381
565 391
571 399
579 406
588 411
594 419
602 425
612 429
615 439
623 445
620 455
615 465
605 470
595 475
586 470
576 470
567 465
558 460
550 453
544 445
535 450
530 465
530 475
525 490
517 504
509 512
499 517
489 522
479 525
469 522
462 514
454 507
454 497
454 487
459 477
464 463
464 453
460 443
454 435
445 440
443 458
438 468
433 478
425 485
417 494
407 499
397 500
387 500
377 499
367 495
364 485
359 476
362 459
367 449
375 441
383 434
389 423
385 413
378 405
370 398
364 390
355 385
345 382
335 380
325 380
315 380
305 380
295 385
295 395
295 405
290 420
290 430
290 440
290 450
285 465
285 475
280 490
275 505
273 518
265 525
258 538
248 540
238 540
228 540
218 540
208 540
199 535
194 526
194 502
199 492
204 482
204 472
209 455
209 445
209 435
207 425
204 415
202 405
195 397
189 389
184 380
176 373
166 369
162 359
154 352
150 342
142 335
139 325
134 316
134 306
129 297
125 287
120 278
113 270
103 270
93 270
84 265
75 260
65 260
55 265
46 270
36 269
29 261
