24 232
24 222
32 214
34 202
34 192
39 182
49 177
57 169
62 159
67 149
75 141
83 134
90 142
90 152
99 157
109 159
117 165
127 169
134 177
140 185
148 191
158 195
167 200
177 204
186 209
195 204
205 204
215 201
225 199
235 199
245 196
255 194
265 194
274 189
284 189
294 189
303 184
313 184
323 184
333 184
343 184
353 184
363 184
372 189
382 189
391 194
401 194
411 195
421 199
430 204
440 207
450 209
460 212
470 214
480 214
490 214
499 219
509 219
518 224
527 229
536 234
545 239
550 248
558 255
562 265
570 272
574 282
582 289
589 297
594 306
600 314
605 323
610 332
618 339
625 347
625 357
617 364
607 364
599 357
590 352
582 345
575 337
570 328
563 320
555 313
549 305
545 295
537 289
532 280
523 275
515 268
509 260
500 255
490 255
490 265
490 275
485 290
480 300
478 313
470 320
470 330
470 340
470 350
470 360
470 370
470 380
470 390
472 400
475 410
480 419
485 428
480 440
475 450
470 460
465 470
460 480
453 493
445 500
436 505
427 510
417 509
409 502
409 492
419 487
429 477
437 469
439 452
439 440
438 430
428 428
420 435
415 445
409 455
400 460
392 474
383 480
374 485
364 485
354 485
344 481
339 472
349 467
357 459
367 454
375 446
380 436
380 418
374 410
372 400
365 392
357 385
350 377
342 370
332 370
322 370
312 370
302 370
292 370
282 370
273 375
263 375
253 373
245 380
240 395
240 405
235 415
230 430
225 440
225 450
220 460
215 475
210 485
204 497
199 507
189 512
179 515
170 510
164 502
172 494
180 486
188 479
189 467
189 457
194 439
189 430
180 435
180 445
175 455
172 469
167 479
158 485
149 490
139 490
129 486
124 477
132 469
142 464
144 452
144 442
149 432
149 422
154 409
154 399
154 389
154 379
149 370
149 360
139 356
134 347
130 337
122 330
118 320
110 313
104 305
99 296
94 287
89 278
83 270
75 263
69 255
59 257
49 260
40 255
32 249
24 242
