84 232
84 222
89 212
89 202
94 192
99 182
109 177
119 174
129 174
139 174
149 174
159 176
169 179
179 179
189 179
199 179
209 179
219 179
229 179
239 179
249 179
259 179
269 179
278 184
288 184
297 179
307 179
316 184
326 184
336 180
344 174
353 169
363 169
373 169
383 169
393 169
403 169
413 169
423 169
433 169
443 169
453 169
463 169
473 170
483 174
493 174
503 174
513 174
522 169
532 169
542 169
552 164
562 164
572 164
582 159
592 159
602 159
612 159
622 159
632 159
642 154
652 154
662 154
672 154
682 154
692 154
702 154
712 154
722 154
732 154
742 154
752 154
762 154
772 154
782 154
792 154
802 154
812 154
822 154
832 154
842 154
852 154
862 154
872 154
882 154
892 154
902 154
912 154
922 154
932 154
942 154
952 154
962 154
972 154
982 154
992 154
1002 154
1012 154
1021 159
1031 159
1041 159
1051 159
1061 159
1071 159
1081 159
1091 159
1101 159
1111 159
1121 159
1131 159
1141 159
1151 159
1161 159
1171 159
1181 159
1191 159
1201 159
1211 159
1221 159
1231 159
1241 159
1250 164
1260 164
1269 159
1279 159
1289 159
1299 159
1309 159
1319 159
1329 159
1338 164
1348 164
1358 164
1368 164
1378 164
1388 164
1398 164
1408 164
1418 164
1428 164
1438 164
1448 164
1458 164
1468 164
1478 164
1488 164
1498 164
1508 164
1518 164
1528 164
1538 164
1548 164
1558 164
1568 164
1578 164
1588 164
1598 164
1608 164
1617 159
1627 159
1637 159
1647 159
1657 159
1667 159
1677 159
1687 159
1696 164
1706 164
1716 164
1726 164
1736 164
1746 164
1756 164
1766 164
1776 164
1786 164
1796 164
1806 164
1816 164
1826 164
1836 164
1845 169
1855 169
1865 169
1875 169
1885 169
1895 169
1905 169
1915 169
1925 169
1935 169
1945 169
1955 172
1965 174
1974 179
1984 181
1994 184
2003 189
2012 194
2019 202
2029 206
2035 214
2040 223
2045 232
2050 241
2050 251
2050 261
2050 271
2050 281
2050 291
2050 301
2050 311
2050 321
2050 331
2050 341
2050 351
2050 361
2050 371
2050 381
2050 391
2050 401
2050 411
2050 421
2050 431
2050 441
2050 451
2050 461
2050 471
2050 481
2050 491
2050 501
2045 510
2045 520
2045 530
2045 540
2045 550
2045 560
2040 570
2040 580
2040 590
2040 600
2040 610
2035 620
2035 630
2035 640
2035 650
2035 660
2030 670
2025 680
2018 688
2008 693
1998 698
1988 700
1978 703
1968 705
1958 705
1948 705
1939 710
1929 710
1919 710
1909 710
1899 710
1890 715
1880 715
1870 715
1860 715
1850 715
1840 715
1830 715
1820 715
1810 715
1801 720
1791 720
1781 720
1771 720
1761 720
1751 720
1741 720
1731 720
1721 720
1712 725
1702 725
1692 725
1682 725
1672 725
1662 725
1652 729
1642 730
1632 730
1622 730
1612 730
1602 730
1592 730
1582 730
1572 730
1562 730
1552 730
1542 730
1532 730
1522 730
1512 730
1502 730
1492 730
1482 730
1472 730
1462 730
1452 734
1442 735
1432 735
1422 735
1412 735
1402 735
1392 735
1382 735
1372 735
1362 735
1352 735
1343 740
1333 740
1323 740
1313 740
1303 740
1293 740
1283 740
1273 740
1263 740
1253 740
1243 740
1233 740
1223 740
1213 740
1203 740
1193 740
1183 740
1173 740
1163 743
1153 745
1143 745
1133 745
1123 745
1114 750
1104 750
1094 750
1084 750
1074 750
1064 750
1054 752
1044 755
1034 755
1024 755
1014 757
1004 760
994 760
984 760
974 760
964 760
954 760
945 765
935 765
925 765
915 770
905 775
895 775
885 775
875 772
865 770
855 770
845 770
835 770
825 770
815 770
805 770
795 770
785 770
775 770
765 770
755 770
746 775
736 775
726 775
716 775
706 775
696 775
686 775
677 770
667 770
657 770
647 769
637 765
627 765
617 765
607 765
597 765
587 764
577 760
567 760
557 760
548 755
538 755
528 755
518 755
508 755
498 755
488 755
478 755
469 750
459 750
449 750
439 750
430 745
420 745
411 740
402 735
393 730
385 723
378 715
370 708
364 700
359 691
354 682
349 673
345 663
344 653
339 644
339 634
336 624
334 614
334 604
329 595
329 585
329 575
324 566
324 556
319 547
319 537
319 527
319 517
319 507
324 496
324 486
319 477
319 467
319 457
324 447
324 437
329 422
329 412
329 402
329 392
329 382
329 372
329 362
334 352
334 342
334 332
334 322
334 312
337 299
332 290
322 290
312 289
302 285
292 285
282 285
272 285
262 285
252 285
242 285
232 285
222 285
212 285
202 285
193 280
183 280
173 280
163 280
153 280
143 280
133 280
123 280
113 280
104 275
96 269
89 261
89 251
84 242
