99 401
94 392
102 384
109 372
114 356
114 346
114 336
109 327
109 317
119 321
125 329
130 338
130 348
140 349
150 346
160 341
168 334
174 317
174 307
174 297
174 287
179 277
179 267
179 257
189 254
198 249
204 232
214 229
223 224
233 224
229 212
229 202
234 190
229 181
229 171
224 162
224 152
224 142
224 132
229 122
237 114
245 106
253 99
260 91
270 86
280 81
290 76
300 71
310 66
320 64
330 64
340 64
350 64
360 64
370 67
379 72
387 79
396 84
404 91
410 99
415 108
415 118
423 125
430 133
435 142
439 152
444 161
450 169
450 179
450 189
455 198
455 208
455 218
453 228
445 235
440 250
434 262
424 267
416 275
407 280
398 285
389 290
380 295
380 305
380 315
388 321
398 325
405 333
413 340
420 348
428 355
435 363
440 372
447 380
455 387
465 389
475 389
484 394
493 399
502 404
509 412
519 416
528 421
538 424
548 424
557 429
566 434
576 430
586 429
595 434
605 437
605 447
605 457
610 466
610 476
605 485
605 495
605 505
603 518
595 525
585 530
575 535
565 535
559 552
549 555
539 555
531 549
529 539
524 530
514 530
504 530
495 525
485 530
479 540
469 542
459 545
450 550
441 555
432 560
422 564
412 569
402 570
392 570
382 570
372 569
362 565
352 565
342 564
332 560
325 552
315 550
305 547
295 545
286 540
276 540
266 539
257 534
247 530
240 522
232 515
223 510
215 503
206 498
200 490
191 485
182 480
172 480
163 475
153 473
143 478
135 485
127 499
122 509
117 519
109 527
99 527
99 517
99 507
107 499
109 487
114 477
114 467
122 459
124 442
124 432
134 429
142 435
150 442
159 447
169 447
177 439
179 421
179 396
174 387
174 377
165 372
155 370
145 370
135 370
125 380
125 390
117 399
109 405
