189 532
189 522
194 512
199 502
204 492
212 484
220 476
230 471
238 464
244 452
249 441
249 431
244 422
237 414
229 407
222 399
217 390
214 380
209 371
204 362
204 352
204 342
204 332
204 322
209 312
214 302
222 294
230 286
240 281
248 274
257 269
267 264
277 264
287 264
297 264
307 264
317 264
326 269
336 269
345 274
355 274
364 279
373 284
382 289
389 297
397 304
400 314
405 323
410 332
410 342
410 352
410 362
410 372
410 382
410 392
410 402
405 420
400 435
395 450
395 460
400 469
408 475
415 483
420 492
425 501
425 511
425 521
430 530
432 540
435 550
435 560
430 570
430 580
432 590
435 600
440 609
445 618
445 628
450 637
450 647
455 656
458 666
460 676
465 685
465 695
470 704
470 714
475 723
480 732
477 749
472 759
464 765
455 770
450 780
452 790
453 803
445 810
438 818
430 825
430 835
432 845
435 855
435 865
430 880
425 890
420 900
415 915
415 925
410 940
405 955
400 970
395 980
390 995
392 1005
400 1012
408 1019
417 1024
426 1029
435 1034
445 1034
455 1037
462 1045
470 1052
465 1065
458 1073
448 1075
438 1075
429 1080
420 1085
412 1094
402 1095
392 1095
382 1095
372 1095
362 1095
352 1095
342 1095
332 1095
323 1090
313 1090
304 1085
294 1085
285 1080
277 1074
269 1067
269 1057
269 1047
274 1037
274 1027
279 1009
274 1000
272 990
269 980
264 971
264 961
259 952
259 942
259 932
264 917
269 907
274 892
279 882
279 872
279 862
274 853
268 845
259 840
251 833
246 824
239 816
239 806
234 797
234 787
229 778
225 768
224 758
224 748
224 738
220 728
219 718
219 708
215 698
214 688
209 679
209 669
204 660
202 650
199 640
199 630
199 620
199 610
199 600
199 590
194 581
189 572
189 562
189 552
189 542
