204 532
204 522
209 512
217 504
222 494
230 486
238 479
245 471
253 464
259 452
264 435
262 425
255 417
247 410
240 402
234 394
229 385
224 376
219 367
219 357
219 347
219 337
219 327
219 317
224 307
232 299
240 291
248 284
257 279
266 274
275 269
284 264
294 262
304 259
313 264
323 264
333 264
343 265
353 269
362 274
372 274
381 279
389 286
398 291
405 299
413 305
420 313
425 322
425 332
425 342
425 352
425 362
420 380
420 390
425 399
420 415
415 425
415 435
410 445
410 455
415 464
420 473
428 480
432 490
435 500
437 510
440 520
442 530
445 540
445 550
445 560
445 570
445 580
450 589
455 598
460 607
464 617
465 627
470 636
473 646
478 655
480 665
485 674
490 683
498 690
507 695
517 699
526 704
528 714
523 723
515 730
520 739
525 748
520 760
510 765
503 773
493 778
483 780
473 783
465 790
460 805
453 813
443 818
433 823
425 830
425 840
425 850
425 860
420 875
415 890
410 900
410 910
410 920
410 930
405 945
405 955
400 965
400 975
395 985
390 1000
395 1009
403 1015
412 1020
420 1027
428 1034
437 1039
447 1039
456 1044
464 1051
470 1059
465 1070
458 1078
448 1080
439 1085
429 1085
420 1090
411 1095
401 1095
391 1095
381 1095
371 1095
361 1095
351 1095
341 1095
331 1093
321 1090
311 1088
301 1085
291 1083
281 1079
274 1071
269 1062
269 1052
269 1042
274 1032
274 1022
279 1010
279 1000
277 990
274 980
269 971
269 961
264 952
264 942
269 927
274 917
279 907
284 897
289 881
289 871
289 861
284 852
277 844
267 840
260 832
254 824
249 815
247 805
244 795
242 785
239 775
234 766
234 756
234 746
234 736
229 727
229 717
229 707
234 697
239 682
244 665
242 655
239 645
239 635
239 625
239 615
237 605
234 595
226 589
222 579
217 570
214 560
214 550
209 541
