24 252
19 262
24 271
24 281
24 291
24 301
29 310
32 320
34 330
34 340
34 350
37 360
39 370
39 380
42 390
44 400
44 410
44 420
49 429
51 439
54 449
54 459
59 468
64 477
69 486
79 490
82 500
84 510
84 520
79 532
74 547
74 571
79 580
79 590
84 599
84 609
84 619
84 629
79 642
84 651
89 660
98 665
107 670
117 670
127 670
136 675
146 675
156 675
166 675
175 670
185 670
194 665
204 662
214 657
219 641
211 634
201 634
192 629
184 622
177 614
172 605
170 595
175 585
180 570
180 560
185 545
185 535
190 525
195 510
195 500
195 490
195 480
204 475
212 469
215 455
215 445
223 438
230 430
235 420
230 411
230 401
228 391
225 381
220 372
219 362
215 352
210 343
205 334
205 324
200 315
197 305
195 295
200 281
195 272
195 262
195 252
190 243
185 234
182 224
177 215
175 205
175 195
180 180
185 162
185 152
185 142
185 132
185 122
180 113
175 104
169 96
159 92
152 84
142 80
133 75
123 74
113 74
103 74
93 74
83 74
75 81
65 86
55 91
47 99
39 107
34 117
34 127
34 137
34 147
39 156
44 165
50 173
58 180
64 188
64 198
63 214
55 221
48 229
40 236
32 244
