29 297
29 287
34 277
34 267
34 257
39 247
44 236
47 219
49 207
54 187
62 179
70 171
78 164
85 156
93 149
102 144
111 139
120 134
129 127
137 119
147 119
156 114
166 115
176 114
186 114
196 114
206 110
216 114
225 109
235 106
244 97
237 89
237 74
233 60
223 60
214 55
204 57
204 47
212 39
222 39
232 39
241 34
250 29
260 29
270 29
280 32
275 45
265 50
255 50
255 60
255 70
263 76
265 86
268 96
278 99
288 99
298 99
307 104
317 104
327 104
337 104
347 104
357 104
360 114
369 119
379 116
389 116
398 121
405 129
405 145
400 155
390 155
380 155
370 160
360 165
365 174
373 180
383 184
392 179
402 174
411 179
421 179
430 174
440 172
450 171
458 164
468 164
478 164
488 164
498 164
508 164
518 164
528 164
538 164
548 164
558 164
568 164
575 172
569 180
560 185
555 195
545 195
535 200
525 200
515 200
507 209
499 215
490 220
480 220
472 229
464 235
455 240
445 245
435 245
425 250
415 255
405 255
405 265
410 274
420 274
430 277
435 286
438 296
440 306
434 315
424 317
414 315
405 320
396 325
387 330
378 325
369 330
359 330
349 330
339 330
329 330
319 330
309 330
299 330
289 330
279 330
270 335
270 345
270 355
266 370
256 370
247 375
239 382
229 380
220 385
210 385
200 385
192 394
182 390
173 395
164 400
155 395
146 400
136 400
126 400
116 400
106 400
96 400
86 400
76 400
66 400
56 400
47 395
37 394
29 387
29 377
37 369
47 369
56 374
65 379
75 379
85 377
95 379
105 376
115 371
125 374
134 369
143 364
144 345
134 342
124 340
115 335
106 330
97 335
88 330
78 330
69 325
59 325
49 325
39 325
34 316
29 307
