509 1047
509 1037
519 1034
525 1042
535 1044
545 1044
555 1044
565 1044
575 1044
585 1044
595 1044
605 1044
614 1039
624 1039
633 1034
642 1029
652 1029
661 1024
671 1024
674 1009
674 999
674 989
674 979
674 969
674 959
666 953
656 950
646 950
636 950
626 948
616 945
606 943
596 940
587 935
577 934
567 930
558 925
548 925
539 920
534 911
529 902
529 892
529 882
529 872
529 862
529 852
529 842
529 832
534 817
534 807
539 792
539 782
544 767
549 757
554 742
559 732
559 722
559 712
564 702
569 687
569 677
574 667
579 657
584 647
592 639
600 631
608 624
617 619
625 611
635 606
643 599
650 591
658 584
664 572
672 564
680 556
688 549
698 549
708 549
717 544
727 544
737 544
747 544
757 544
767 544
777 544
787 544
796 549
805 554
814 549
824 547
834 544
844 544
854 544
864 544
874 542
879 530
879 520
879 510
870 505
860 505
852 499
849 482
859 477
864 465
864 455
861 445
851 445
841 445
831 445
822 440
812 440
803 435
794 430
784 426
784 407
794 402
804 399
814 399
824 399
834 399
844 399
853 394
863 394
873 394
877 384
887 379
897 379
906 374
916 374
925 379
930 388
935 397
932 414
927 424
919 430
910 435
900 440
900 450
905 459
914 464
915 480
915 490
917 500
920 510
925 519
935 519
944 524
954 524
964 524
974 524
984 524
994 524
1004 526
1014 529
1024 529
1034 529
1044 529
1054 529
1064 529
1072 535
1080 542
1090 544
1100 544
1110 544
1120 547
1129 552
1135 560
1140 569
1145 578
1145 588
1145 605
1138 615
1129 620
1119 622
1109 625
1099 625
1090 630
1092 640
1100 647
1107 655
1117 659
1127 659
1137 659
1147 659
1157 659
1167 659
1177 659
1187 659
1197 659
1207 659
1217 659
1227 659
1237 659
1247 659
1257 659
1267 659
1277 654
1287 654
1297 654
1307 654
1316 649
1326 649
1335 644
1345 644
1354 639
1364 639
1374 639
1384 639
1394 639
1404 639
1414 641
1423 646
1430 654
1434 667
1429 677
1419 682
1409 687
1399 692
1389 695
1380 700
1370 700
1360 705
1350 710
1340 715
1331 720
1321 720
1312 725
1303 730
1293 733
1285 740
1277 749
1267 754
1259 760
1250 765
1240 770
1232 779
1224 787
1214 792
1204 797
1194 802
1184 805
1174 805
1165 810
1165 820
1170 829
1180 829
1190 829
1200 832
1207 840
1210 850
1215 859
1223 865
1225 875
1225 885
1230 894
1230 904
1227 919
1217 924
1207 925
1197 929
1187 930
1177 930
1167 930
1157 930
1148 935
1138 935
1128 935
1118 935
1109 940
1099 940
1089 940
1079 942
1069 945
1059 947
1049 950
1039 952
1029 955
1019 955
1009 955
999 955
989 955
980 960
970 960
960 960
950 960
940 960
930 960
920 965
920 975
920 985
917 999
909 1007
899 1010
889 1012
879 1015
869 1015
859 1017
849 1020
839 1020
829 1022
819 1025
809 1025
799 1027
789 1030
779 1032
769 1035
759 1035
750 1040
740 1040
730 1040
720 1045
710 1045
700 1050
690 1050
680 1055
670 1055
660 1060
650 1060
641 1065
631 1065
621 1065
611 1065
601 1065
591 1065
581 1065
571 1065
561 1065
551 1065
541 1065
531 1065
521 1064
514 1056
