29 192
37 184
39 172
44 162
49 147
57 139
66 134
71 125
79 117
89 112
97 104
107 99
116 94
125 89
135 89
144 84
154 84
164 84
174 84
184 84
194 84
204 84
214 84
224 84
234 84
238 70
229 65
224 50
214 46
209 37
217 29
227 29
237 29
247 29
250 39
250 49
255 58
255 68
260 77
268 84
278 84
288 84
298 84
308 84
318 84
327 79
336 84
345 89
354 94
363 89
373 89
383 90
390 98
382 114
372 115
363 120
353 123
345 130
350 139
359 144
368 149
377 144
387 144
397 144
407 139
417 139
427 139
437 139
447 139
457 139
467 139
477 139
487 139
496 134
506 130
516 129
526 125
536 124
546 120
556 119
566 119
575 125
575 135
567 144
558 150
548 150
539 155
529 155
520 160
513 168
503 168
493 173
483 173
473 175
463 178
453 178
445 185
436 190
426 190
417 195
407 195
398 200
389 205
379 205
369 205
360 210
360 220
365 229
375 227
385 227
395 227
402 235
403 253
393 255
384 260
374 260
364 260
354 262
344 260
334 260
324 260
314 260
304 260
294 260
285 265
275 265
275 280
272 299
262 304
252 309
242 310
232 310
223 305
214 310
204 310
194 310
184 310
174 310
164 310
154 312
144 315
134 317
124 315
114 315
104 315
94 315
84 315
74 315
64 315
54 317
44 316
39 307
39 297
49 294
59 296
69 299
78 304
88 304
98 304
108 304
117 299
127 299
137 294
134 280
125 285
115 285
105 285
95 285
86 280
76 278
66 275
57 270
48 265
39 260
29 256
29 246
29 236
29 226
29 202
