19 156
22 139
31 144
30 131
35 121
43 114
52 109
59 92
67 84
76 89
92 74
97 64
107 64
117 64
127 64
137 64
146 69
155 64
165 64
175 64
185 64
195 64
205 64
215 64
221 55
224 37
232 29
242 29
252 24
262 24
272 24
282 24
291 19
301 19
311 19
321 19
331 19
341 19
351 15
361 15
371 15
381 15
391 15
401 15
411 15
421 19
431 19
441 19
450 24
460 24
470 27
479 32
487 39
490 49
495 58
495 70
495 80
505 81
515 84
525 82
529 92
530 102
530 112
537 120
540 130
540 140
540 150
550 152
555 161
547 170
538 175
529 170
519 170
509 170
500 175
498 188
490 195
482 204
474 210
464 210
454 210
444 207
435 202
427 195
423 185
414 180
408 188
400 195
391 200
381 200
371 200
361 200
352 195
344 189
342 179
332 179
322 179
312 179
302 180
293 175
284 180
274 180
264 180
254 180
244 180
234 180
224 180
214 180
204 180
198 188
190 195
183 203
173 208
163 210
153 210
143 210
134 205
124 202
120 192
112 185
104 192
96 200
86 200
77 205
68 200
58 200
49 195
41 188
36 179
34 169
29 160
