424 1182
424 1172
434 1171
444 1174
454 1174
463 1179
473 1179
483 1180
493 1184
503 1185
513 1189
523 1189
532 1194
542 1194
552 1194
561 1199
571 1199
580 1204
590 1204
600 1207
610 1209
620 1209
629 1214
639 1214
648 1219
658 1219
668 1220
678 1224
688 1225
698 1229
708 1229
717 1234
727 1234
737 1234
746 1239
756 1239
765 1244
775 1244
785 1247
795 1249
805 1252
815 1254
825 1254
834 1259
844 1259
854 1261
864 1264
874 1266
884 1269
894 1269
903 1274
913 1274
923 1275
933 1279
943 1280
953 1284
963 1284
972 1289
982 1289
991 1294
1001 1294
1011 1294
1020 1299
1030 1299
1040 1302
1050 1304
1060 1307
1070 1309
1080 1309
1089 1314
1099 1314
1108 1319
1118 1319
1128 1320
1138 1324
1148 1324
1157 1329
1167 1329
1176 1334
1186 1334
1196 1334
1205 1339
1215 1339
1224 1344
1234 1344
1244 1346
1254 1349
1264 1351
1274 1354
1284 1354
1293 1359
1303 1359
1313 1360
1319 1347
1319 1337
1319 1327
1319 1317
1319 1307
1319 1297
1319 1287
1319 1277
1319 1267
1319 1257
1319 1247
1319 1237
1319 1227
1319 1217
1319 1207
1319 1197
1319 1187
1319 1177
1319 1167
1319 1157
1319 1147
1319 1137
1319 1127
1319 1117
1319 1107
1319 1097
1319 1087
1319 1077
1319 1067
1319 1057
1319 1047
1319 1037
1319 1027
1319 1017
1319 1007
1319 997
1319 987
1319 977
1319 967
1319 957
1319 947
1319 937
1319 927
1319 917
1319 907
1319 897
1319 887
1319 877
1319 867
1319 857
1319 847
1319 837
1319 827
1319 817
1319 807
1319 797
1319 787
1319 777
1319 767
1319 757
1319 747
1319 737
1319 727
1319 717
1319 707
1319 697
1319 687
1319 677
1319 667
1319 657
1312 649
1304 655
1295 660
1287 669
1279 675
1270 680
1263 688
1253 693
1245 700
1235 705
1227 714
1219 720
1210 725
1202 734
1194 740
1185 745
1178 753
1168 758
1160 765
1150 770
1143 778
1135 785
1125 790
1117 799
1109 805
1100 810
1093 818
1083 823
1075 830
1065 835
1058 843
1050 850
1040 855
1032 864
1024 870
1015 875
1008 883
998 888
990 895
983 903
973 908
965 915
955 920
947 929
939 935
930 940
923 948
913 953
905 960
898 968
888 973
880 980
870 985
862 994
854 1000
845 1005
838 1013
828 1018
820 1025
813 1033
803 1038
795 1045
785 1050
777 1059
769 1065
760 1070
752 1079
744 1085
735 1090
727 1099
717 1104
709 1112
699 1117
691 1125
682 1130
674 1137
667 1145
658 1140
648 1140
639 1135
630 1130
620 1128
611 1123
601 1120
592 1115
582 1114
572 1110
563 1105
554 1100
544 1096
539 1087
547 1079
557 1074
565 1066
575 1061
583 1054
592 1049
600 1041
608 1034
617 1029
625 1021
635 1016
643 1009
652 1004
660 996
670 991
678 984
687 979
695 971
703 964
712 959
720 951
730 946
738 939
747 934
755 926
763 919
772 914
780 906
790 901
798 894
807 889
815 881
825 876
833 869
842 864
850 856
858 849
867 844
875 836
885 831
893 824
902 819
910 811
918 804
927 799
935 791
945 786
953 779
962 774
970 766
980 761
988 754
997 749
1005 741
1013 734
1022 729
1030 721
1040 716
1048 709
1057 704
1065 696
1073 689
1082 684
1091 679
1099 672
1107 664
1117 659
1125 651
1135 646
1143 639
1152 634
1160 626
1168 619
1177 614
1185 606
1195 601
1203 594
1212 589
1220 581
1228 574
1237 569
1246 564
1254 557
1262 549
1272 544
1280 536
1290 531
1298 524
1307 519
1315 511
1323 504
1332 499
1340 491
1350 486
1358 479
1367 474
1375 466
1385 461
1393 455
1395 465
1397 475
1395 485
1395 500
1400 509
1400 519
1400 529
1400 539
1400 549
1400 559
1400 569
1400 579
1400 589
1400 599
1400 609
1400 619
1400 630
1405 639
1400 650
1405 659
1405 669
1405 679
1405 689
1405 699
1405 709
1405 719
1405 729
1405 739
1405 749
1405 759
1405 769
1405 779
1405 790
1410 799
1405 810
1410 819
1410 829
1410 839
1410 849
1410 859
1410 869
1410 879
1410 889
1410 899
1410 909
1410 919
1410 929
1410 940
1415 949
1410 960
1415 969
1415 979
1415 989
1415 999
1415 1009
1415 1019
1415 1029
1415 1039
1415 1049
1415 1059
1415 1069
1415 1079
1420 1088
1415 1100
1420 1109
1420 1119
1420 1129
1420 1139
1420 1149
1420 1159
1420 1169
1420 1179
1420 1189
1420 1199
1420 1209
1420 1219
1420 1229
1420 1245
1425 1254
1420 1265
1425 1274
1425 1284
1425 1294
1425 1304
1425 1314
1425 1324
1425 1334
1425 1344
1425 1354
1425 1364
1425 1374
1425 1384
1425 1394
1434 1399
1443 1394
1453 1394
1462 1389
1471 1384
1481 1380
1491 1379
1500 1374
1510 1371
1520 1366
1530 1364
1539 1359
1549 1357
1559 1354
1568 1349
1577 1344
1587 1344
1596 1339
1606 1335
1616 1334
1625 1329
1634 1324
1644 1322
1654 1319
1663 1314
1673 1314
1682 1309
1692 1304
1702 1299
1712 1299
1721 1294
1731 1290
1741 1289
1750 1284
1759 1279
1769 1277
1779 1274
1788 1269
1798 1269
1807 1264
1816 1259
1826 1255
1836 1254
1845 1249
1855 1246
1865 1241
1875 1239
1884 1234
1894 1232
1904 1229
1913 1224
1922 1219
1932 1219
1941 1214
1951 1210
1961 1209
1970 1204
1980 1201
1990 1196
2000 1194
2009 1189
2019 1187
2029 1184
2038 1179
2047 1174
2057 1174
2066 1169
2076 1165
2086 1164
2095 1159
2104 1154
2114 1152
2124 1149
2133 1144
2143 1144
2153 1139
2148 1130
2139 1125
2131 1118
2121 1114
2114 1106
2106 1100
2097 1095
2088 1090
2080 1083
2073 1075
2064 1070
2056 1063
2046 1059
2039 1051
2031 1045
2022 1040
2013 1035
2005 1028
1998 1020
1989 1015
1981 1009
1972 1004
1964 997
1955 992
1947 985
1938 980
1930 973
1923 965
1914 960
1906 954
1897 949
1889 942
1880 937
1872 930
1863 925
1855 918
1848 910
1839 905
1830 900
1822 894
1814 887
1805 882
1797 875
1788 870
1780 863
1774 855
1764 851
1756 845
1747 840
1740 832
1730 828
1723 820
1714 815
1706 808
1696 804
1689 796
1681 790
1672 785
1665 777
1655 773
1648 765
1639 760
1631 753
1621 749
1614 741
1606 735
1597 730
1590 722
1580 718
1573 710
1564 705
1556 698
1546 694
1539 686
1531 680
1522 675
1515 667
1505 663
1498 655
1489 650
1481 643
1471 639
1464 631
1459 622
1459 612
1459 602
1459 592
1459 582
1459 572
1459 562
1459 552
1459 542
1459 532
1459 522
1459 512
1469 516
1478 521
1485 529
1494 534
1502 540
1512 544
1519 552
1527 559
1536 564
1544 571
1553 576
1560 584
1569 589
1577 595
1587 599
1594 607
1602 614
1611 619
1619 626
1628 631
1635 639
1645 642
1652 650
1662 654
1669 662
1677 669
1686 674
1694 681
1703 686
1710 694
1720 697
1727 705
1737 709
1744 717
1752 724
1761 729
1770 734
1778 740
1785 748
1795 752
1802 760
1812 764
1819 772
1827 779
1836 784
1845 789
1853 795
1860 803
1870 807
1877 815
1887 819
1894 827
1902 834
1911 839
1920 844
1928 850
1935 858
1945 862
1953 869
1962 874
1969 882
1979 886
1985 894
1994 899
2002 905
2010 912
2019 917
2027 924
2036 929
2044 936
2053 941
2060 949
2069 954
2077 960
2085 967
2094 972
2102 979
2111 984
2119 991
2128 996
2135 1004
2144 1009
2152 1015
2160 1022
2169 1027
2177 1034
2186 1039
2194 1046
2203 1051
2210 1059
2219 1064
2227 1070
2237 1074
2244 1082
2252 1089
2261 1094
2269 1101
2278 1106
2285 1114
2294 1119
2302 1125
2312 1129
2319 1137
2327 1144
2336 1149
2344 1156
2353 1161
2360 1169
2352 1180
2342 1184
2332 1185
2323 1190
2313 1193
2303 1195
2294 1200
2284 1200
2275 1205
2265 1205
2255 1210
2246 1215
2236 1215
2227 1220
2217 1224
2207 1225
2198 1230
2188 1233
2178 1235
2169 1240
2159 1242
2149 1245
2140 1250
2130 1250
2120 1255
2111 1260
2101 1260
2092 1265
2082 1265
2073 1270
2063 1273
2053 1275
2044 1280
2034 1282
2024 1285
2015 1290
2005 1290
1995 1295
1986 1300
1976 1300
1967 1305
1957 1309
1947 1310
1938 1315
1928 1318
1918 1320
1909 1325
1899 1327
1889 1330
1879 1332
1869 1335
1860 1340
1850 1340
1840 1345
1831 1350
1821 1350
1812 1355
1802 1359
1792 1360
1783 1365
1773 1368
1763 1370
1754 1375
1744 1377
1734 1380
1725 1385
1715 1385
1706 1390
1696 1390
1687 1395
1677 1399
1667 1400
1658 1405
1648 1408
1638 1410
1629 1415
1619 1417
1609 1420
1600 1425
1590 1425
1580 1430
1571 1435
1561 1435
1552 1440
1542 1444
1532 1445
1523 1450
1513 1453
1503 1455
1493 1458
1483 1460
1474 1465
1464 1467
1454 1470
1445 1475
1435 1475
1437 1485
1445 1492
1450 1501
1456 1509
1464 1516
1470 1524
1475 1533
1483 1540
1490 1548
1498 1555
1502 1565
1510 1572
1517 1580
1522 1589
1529 1597
1537 1604
1544 1612
1549 1621
1555 1629
1563 1635
1570 1643
1575 1652
1582 1660
1590 1667
1594 1677
1602 1684
1609 1692
1615 1700
1620 1709
1628 1715
1635 1723
1640 1732
1647 1740
1655 1747
1660 1756
1666 1764
1674 1771
1680 1779
1685 1788
1693 1795
1700 1803
1705 1812
1712 1820
1720 1827
1727 1835
1732 1844
1739 1852
1747 1859
1750 1869
1758 1875
1765 1883
1773 1890
1777 1900
1785 1907
1792 1915
1800 1922
1804 1932
1812 1939
1819 1947
1824 1956
1830 1964
1838 1970
1845 1978
1850 1987
1857 1995
1865 2002
1870 2011
1876 2019
1884 2026
1890 2034
1895 2043
1903 2050
1910 2058
1915 2067
1922 2075
1930 2082
1934 2072
1939 2062
1939 2052
1944 2037
1949 2022
1954 2007
1959 1992
1964 1977
1969 1962
1974 1952
1974 1942
1979 1927
1984 1912
1989 1897
1994 1882
1999 1867
2004 1857
2004 1847
2009 1832
2014 1817
2019 1802
2024 1787
2029 1772
2034 1762
2034 1752
2039 1737
2044 1722
2049 1707
2054 1692
2059 1677
2064 1667
2064 1657
2069 1642
2074 1627
2079 1612
2084 1597
2089 1582
2094 1572
2094 1562
2099 1547
2104 1532
2109 1517
2114 1502
2119 1487
2124 1472
2129 1462
2129 1452
2134 1437
2139 1422
2144 1407
2149 1392
2154 1377
2159 1362
2164 1352
2164 1342
2169 1327
2174 1317
2182 1309
2191 1304
2200 1299
2209 1294
2218 1289
2227 1284
2237 1279
2247 1279
2256 1274
2265 1269
2274 1264
2283 1259
2292 1254
2302 1249
2305 1259
2300 1270
2295 1285
2295 1295
2290 1305
2285 1320
2285 1330
2280 1340
2275 1355
2275 1365
2270 1375
2265 1390
2265 1400
2260 1410
2255 1425
2255 1435
2250 1445
2245 1460
2240 1475
2240 1485
2235 1495
2230 1510
2230 1520
2225 1530
2220 1545
2220 1555
2215 1565
2210 1580
2210 1590
2205 1600
2200 1615
2200 1625
2195 1635
2190 1650
2185 1665
2185 1675
2180 1685
2175 1700
2175 1710
2170 1720
2165 1735
2165 1745
2160 1755
2155 1770
2155 1780
2150 1790
2145 1805
2140 1820
2140 1830
2135 1840
2130 1855
2130 1865
2125 1875
2120 1890
2120 1900
2115 1910
2110 1925
2110 1935
2105 1945
2100 1960
2100 1970
2095 1980
2090 1995
2085 2010
2085 2020
2080 2030
2075 2045
2075 2055
2070 2065
2065 2080
2065 2090
2060 2100
2055 2115
2055 2125
2050 2135
2045 2150
2045 2160
2040 2170
2035 2185
2030 2200
2030 2210
2025 2220
2020 2235
2020 2245
2015 2255
2010 2270
2010 2280
2005 2290
2000 2305
2000 2315
1995 2325
1987 2335
1984 2325
1976 2319
1969 2311
1964 2302
1957 2294
1949 2287
1945 2277
1937 2270
1930 2262
1925 2253
1919 2245
1911 2238
1906 2229
1899 2221
1894 2212
1887 2204
1879 2197
1874 2188
1867 2180
1860 2172
1855 2163
1849 2155
1841 2148
1836 2139
1829 2131
1824 2122
1817 2114
1809 2107
1804 2098
1797 2090
1790 2082
1785 2073
1779 2065
1771 2059
1767 2049
1759 2042
1752 2034
1747 2025
1740 2017
1734 2009
1729 2000
1721 1994
1714 1986
1709 1977
1702 1969
1697 1960
1690 1952
1682 1945
1679 1935
1671 1929
1664 1921
1659 1912
1652 1904
1644 1897
1640 1887
1632 1880
1629 1870
1621 1864
1614 1856
1609 1847
1602 1839
1594 1832
1589 1823
1582 1815
1575 1807
1570 1798
1564 1790
1556 1783
1551 1774
1544 1766
1539 1757
1532 1749
1524 1742
1519 1733
1512 1725
1505 1717
1500 1708
1494 1700
1486 1694
1482 1684
1474 1677
1469 1668
1462 1660
1455 1652
1449 1644
1444 1635
1436 1629
1432 1619
1424 1612
1417 1604
1412 1595
1405 1587
1399 1579
1394 1570
1385 1565
1378 1578
1373 1588
1365 1595
1358 1608
1353 1618
1345 1625
1338 1638
1333 1648
1325 1655
1318 1668
1313 1678
1305 1685
1300 1695
1293 1708
1288 1718
1280 1725
1273 1738
1268 1748
1260 1755
1253 1768
1248 1778
1240 1785
1233 1798
1228 1808
1220 1815
1213 1828
1208 1838
1200 1845
1195 1855
1188 1868
1183 1878
1175 1885
1168 1898
1163 1908
1155 1915
1148 1928
1143 1938
1135 1945
1128 1958
1123 1968
1115 1975
1108 1988
1103 1998
1098 2008
1090 2015
1083 2028
1078 2038
1070 2045
1063 2058
1058 2068
1050 2075
1043 2088
1038 2098
1030 2105
1023 2118
1018 2128
1010 2135
1003 2148
998 2158
993 2168
985 2175
978 2188
973 2198
965 2205
975 2209
985 2209
995 2209
1005 2209
1015 2209
1025 2209
1035 2209
1045 2209
1055 2209
1065 2209
1075 2209
1085 2209
1095 2209
1105 2209
1115 2209
1125 2209
1135 2209
1145 2209
1155 2209
1165 2209
1175 2209
1185 2209
1195 2209
1205 2209
1215 2209
1225 2209
1235 2209
1245 2209
1255 2209
1265 2209
1275 2209
1285 2209
1295 2209
1305 2209
1315 2209
1325 2209
1335 2209
1345 2209
1355 2209
1365 2209
1375 2209
1385 2209
1395 2209
1405 2209
1415 2209
1425 2209
1435 2209
1445 2209
1455 2209
1465 2209
1475 2209
1485 2209
1495 2209
1505 2209
1515 2209
1525 2209
1535 2209
1545 2209
1555 2209
1565 2209
1575 2209
1585 2209
1595 2209
1605 2209
1615 2209
1625 2209
1635 2209
1645 2209
1655 2209
1665 2209
1675 2209
1685 2209
1695 2209
1705 2209
1715 2209
1725 2209
1735 2209
1745 2209
1755 2209
1765 2209
1775 2209
1785 2209
1793 2215
1800 2223
1805 2232
1812 2240
1817 2249
1824 2257
1829 2266
1835 2274
1840 2283
1848 2290
1855 2298
1860 2307
1867 2315
1872 2324
1870 2335
1860 2335
1850 2335
1840 2335
1830 2335
1820 2335
1810 2335
1800 2335
1790 2335
1780 2335
1770 2335
1760 2335
1750 2335
1740 2335
1730 2335
1720 2335
1710 2335
1700 2335
1690 2335
1680 2335
1670 2335
1660 2335
1650 2335
1640 2335
1630 2335
1620 2335
1610 2335
1600 2335
1590 2335
1580 2335
1570 2335
1560 2335
1550 2335
1540 2335
1530 2335
1520 2335
1510 2335
1500 2335
1490 2335
1480 2335
1470 2335
1460 2335
1450 2335
1440 2335
1430 2335
1420 2335
1410 2335
1400 2335
1390 2335
1380 2335
1370 2335
1360 2335
1350 2335
1340 2335
1330 2335
1320 2335
1310 2335
1300 2335
1290 2335
1280 2335
1270 2335
1260 2335
1250 2335
1240 2335
1230 2335
1220 2335
1210 2335
1200 2335
1190 2335
1180 2335
1170 2335
1160 2335
1150 2335
1140 2335
1130 2335
1120 2335
1110 2335
1100 2335
1090 2335
1080 2335
1070 2335
1060 2335
1050 2335
1040 2335
1030 2335
1020 2335
1010 2335
1000 2335
990 2335
980 2335
970 2335
960 2335
950 2335
940 2335
930 2335
920 2335
910 2335
900 2335
890 2335
880 2335
870 2335
860 2335
850 2335
840 2335
830 2335
820 2335
810 2335
800 2335
794 2327
799 2317
807 2309
812 2299
817 2289
824 2277
832 2269
837 2259
842 2249
849 2237
854 2227
862 2219
867 2209
874 2197
879 2187
887 2179
892 2169
897 2159
904 2147
909 2137
917 2129
922 2119
927 2109
934 2097
942 2089
947 2079
952 2069
959 2057
964 2047
972 2039
977 2029
984 2017
989 2007
997 1999
1002 1989
1007 1979
1014 1967
1022 1959
1027 1949
1032 1939
1039 1927
1047 1919
1052 1909
1057 1899
1064 1887
1069 1877
1077 1869
1082 1859
1089 1847
1094 1837
1102 1829
1107 1819
1112 1809
1119 1797
1127 1789
1132 1779
1137 1769
1144 1757
1152 1749
1157 1739
1162 1729
1169 1717
1174 1707
1182 1699
1187 1689
1194 1677
1199 1667
1207 1659
1212 1649
1217 1639
1224 1627
1232 1619
1237 1609
1242 1599
1249 1587
1254 1577
1262 1569
1267 1559
1274 1547
1279 1537
1287 1529
1292 1519
1299 1507
1304 1497
1312 1489
1311 1475
1301 1475
1291 1473
1281 1470
1271 1470
1262 1465
1252 1465
1242 1464
1232 1460
1222 1460
1213 1455
1203 1455
1194 1450
1184 1450
1174 1450
1165 1445
1155 1445
1146 1440
1136 1440
1126 1438
1116 1435
1106 1435
1097 1430
1087 1430
1077 1429
1067 1425
1057 1425
1048 1420
1038 1420
1029 1415
1019 1415
1009 1415
1000 1410
990 1410
981 1405
971 1405
961 1403
951 1400
941 1400
932 1395
922 1395
912 1394
902 1390
892 1390
883 1385
873 1385
864 1380
854 1380
844 1380
835 1375
825 1375
816 1370
806 1370
796 1368
786 1365
776 1365
767 1360
757 1360
747 1359
737 1355
727 1354
717 1350
707 1350
698 1345
688 1345
678 1345
669 1340
659 1340
650 1335
640 1335
630 1332
620 1330
610 1330
612 1340
615 1350
620 1359
620 1369
625 1378
630 1387
630 1397
635 1406
635 1416
640 1425
642 1435
645 1445
650 1454
650 1464
655 1473
660 1482
660 1492
664 1502
665 1512
670 1521
673 1531
675 1541
680 1550
682 1560
685 1570
687 1580
690 1590
695 1599
695 1609
700 1618
705 1627
705 1637
710 1646
710 1656
715 1665
717 1675
720 1685
725 1694
725 1704
730 1713
735 1722
735 1732
739 1742
740 1752
745 1761
748 1771
750 1781
755 1790
757 1800
760 1810
762 1820
765 1830
770 1839
770 1849
775 1858
780 1867
780 1877
784 1887
789 1896
790 1906
793 1916
795 1926
800 1935
802 1945
805 1955
807 1965
810 1975
815 1984
815 1994
820 2003
825 2012
825 2022
830 2031
830 2041
835 2050
837 2060
840 2070
845 2079
845 2089
850 2098
855 2107
855 2117
853 2128
845 2135
840 2145
833 2153
825 2160
818 2168
810 2175
803 2183
795 2190
785 2200
780 2210
773 2218
765 2225
757 2234
749 2242
741 2250
731 2254
729 2244
726 2234
724 2224
719 2215
719 2205
714 2196
714 2186
709 2177
709 2167
704 2158
700 2148
699 2138
695 2128
694 2118
689 2109
689 2099
684 2090
682 2080
679 2070
677 2060
674 2050
669 2041
669 2031
664 2022
664 2012
659 2003
659 1993
654 1984
651 1974
649 1964
646 1954
644 1944
639 1935
639 1925
634 1916
634 1906
629 1897
629 1887
624 1878
620 1868
619 1858
615 1848
614 1838
609 1829
609 1819
604 1810
602 1800
599 1790
597 1780
594 1770
589 1761
589 1751
584 1742
584 1732
579 1723
579 1713
574 1704
571 1694
569 1684
566 1674
564 1664
559 1655
559 1645
554 1636
554 1626
549 1617
549 1607
544 1598
540 1588
539 1578
535 1568
534 1558
529 1549
529 1539
524 1530
522 1520
519 1510
517 1500
514 1490
509 1481
509 1471
504 1462
504 1452
499 1443
499 1433
494 1424
491 1414
489 1404
486 1394
484 1384
479 1375
479 1365
474 1356
474 1346
469 1337
469 1327
464 1318
460 1308
459 1298
455 1288
454 1278
450 1268
449 1258
444 1249
444 1239
439 1230
437 1220
434 1210
434 1200
429 1191
