202 1634
206 1644
214 1650
217 1660
225 1667
232 1675
240 1682
247 1690
254 1698
259 1707
267 1714
274 1722
284 1725
290 1733
298 1740
305 1748
313 1755
320 1763
328 1770
335 1778
343 1785
350 1793
360 1797
367 1805
375 1812
384 1817
392 1824
400 1830
409 1835
418 1840
425 1848
435 1852
442 1860
452 1864
462 1865
472 1865
482 1865
492 1864
502 1860
512 1860
522 1860
531 1855
541 1855
551 1855
561 1855
570 1850
580 1850
590 1845
600 1845
610 1840
620 1840
630 1840
639 1835
649 1832
659 1830
669 1830
678 1825
688 1823
698 1820
707 1815
716 1810
726 1810
735 1805
745 1805
754 1800
763 1795
772 1790
782 1789
792 1784
802 1779
812 1774
822 1769
832 1764
842 1759
852 1754
862 1749
872 1744
880 1735
890 1730
900 1725
909 1720
918 1715
927 1710
935 1700
945 1695
955 1690
964 1685
973 1680
983 1680
993 1680
1002 1675
1012 1675
1022 1675
1032 1674
1042 1670
1052 1670
1061 1665
1071 1665
1080 1660
1090 1655
1100 1655
1109 1650
1118 1645
1127 1640
1137 1639
1147 1634
1157 1630
1164 1638
1164 1648
1159 1657
1159 1667
1159 1677
1154 1692
1154 1702
1154 1712
1154 1722
1154 1732
1149 1742
1149 1752
1149 1762
1149 1772
1149 1782
1149 1792
1149 1802
1149 1812
1149 1822
1149 1832
1149 1842
1149 1852
1149 1862
1149 1872
1149 1882
1149 1892
1149 1902
1149 1912
1149 1922
1149 1932
1154 1941
1154 1951
1154 1961
1154 1971
1154 1981
1159 1990
1159 2000
1159 2010
1159 2020
1164 2029
1164 2039
1164 2049
1169 2058
1169 2068
1169 2078
1174 2087
1174 2097
1174 2107
1179 2116
1179 2126
1184 2135
1184 2145
1189 2154
1189 2164
1191 2174
1194 2184
1199 2193
1200 2203
1204 2213
1204 2223
1209 2232
1209 2242
1214 2251
1219 2260
1222 2270
1224 2280
1229 2289
1231 2299
1234 2309
1240 2317
1244 2327
1244 2337
1249 2346
1254 2355
1259 2364
1261 2374
1266 2383
1269 2393
1274 2402
1282 2409
1292 2405
1302 2404
1312 2399
1322 2395
1331 2390
1340 2385
1350 2380
1360 2375
1370 2370
1380 2365
1390 2360
1400 2355
1410 2350
1420 2345
1430 2340
1440 2335
1449 2330
1458 2325
1467 2320
1476 2315
1485 2310
1493 2303
1503 2298
1510 2290
1520 2285
1529 2280
1537 2274
1545 2265
1555 2260
1563 2253
1570 2245
1579 2240
1585 2230
1585 2220
1590 2205
1590 2195
1595 2185
1595 2175
1600 2165
1600 2155
1600 2145
1605 2130
1605 2120
1605 2110
1610 2095
1610 2085
1610 2075
1610 2065
1610 2055
1615 2043
1615 2033
1615 2023
1615 2013
1615 2003
1615 1993
1615 1983
1615 1973
1615 1963
1615 1953
1615 1943
1615 1933
1615 1923
1610 1914
1610 1904
1610 1894
1610 1884
1610 1874
1605 1865
1605 1855
1605 1845
1602 1835
1600 1825
1600 1815
1597 1805
1595 1795
1592 1785
1590 1775
1590 1765
1585 1756
1585 1746
1580 1737
1580 1727
1575 1718
1570 1709
1570 1699
1565 1690
1565 1680
1570 1670
1570 1660
1575 1645
1575 1635
1580 1625
1580 1615
1580 1605
1580 1595
1585 1580
1585 1570
1585 1560
1582 1550
1580 1540
1580 1530
1580 1520
1577 1510
1575 1500
1575 1490
1585 1490
1594 1495
1603 1500
1612 1505
1622 1509
1630 1515
1640 1517
1650 1520
1659 1525
1668 1530
1677 1535
1687 1539
1697 1540
1706 1545
1716 1548
1725 1553
1735 1555
1744 1560
1754 1560
1763 1565
1772 1570
1782 1570
1791 1575
1801 1578
1811 1580
1820 1585
1830 1587
1840 1590
1850 1590
1859 1595
1869 1595
1879 1595
1888 1600
1897 1605
1907 1605
1917 1609
1927 1610
1937 1610
1947 1610
1956 1615
1966 1615
1976 1615
1985 1620
1995 1620
2005 1620
2014 1625
2024 1625
2034 1625
2044 1625
2054 1625
2063 1630
2073 1630
2083 1630
2093 1630
2103 1630
2113 1630
2123 1630
2133 1630
2142 1635
2152 1635
2162 1635
2172 1635
2182 1635
2192 1635
2202 1635
2212 1635
2222 1635
2232 1635
2241 1630
2251 1630
2261 1630
2271 1630
2281 1630
2291 1630
2301 1630
2311 1630
2320 1625
2330 1625
2340 1625
2350 1625
2360 1615
2357 1605
2355 1595
2355 1585
2355 1575
2355 1565
2355 1555
2352 1545
2350 1535
2350 1525
2350 1515
2347 1505
2345 1495
2345 1485
2342 1475
2340 1465
2340 1455
2335 1446
2335 1436
2333 1426
2330 1416
2328 1406
2325 1396
2323 1386
2320 1376
2315 1367
2315 1357
2310 1348
2310 1338
2305 1329
2302 1319
2297 1310
2295 1300
2292 1290
2288 1280
2278 1276
2269 1271
2261 1264
2252 1259
2242 1255
2234 1249
2225 1244
2216 1239
2207 1234
2197 1230
2189 1224
2180 1219
2171 1214
2162 1209
2152 1209
2142 1205
2133 1200
2123 1196
2114 1191
2104 1189
2095 1184
2086 1179
2076 1179
2067 1174
2057 1174
2048 1169
2038 1165
2028 1164
2019 1159
2009 1159
2000 1154
1990 1154
1981 1149
1971 1149
1962 1144
1952 1144
1942 1144
1933 1139
1923 1139
1913 1135
1903 1134
1893 1134
1883 1134
1874 1129
1864 1129
1854 1129
1844 1129
1834 1126
1824 1124
1814 1124
1804 1124
1794 1124
1784 1124
1774 1124
1764 1124
1754 1124
1745 1119
1736 1114
1727 1109
1718 1104
1709 1099
1700 1094
1691 1089
1682 1084
1672 1084
1663 1079
1654 1074
1644 1071
1634 1069
1625 1064
1615 1064
1605 1062
1595 1059
1585 1059
1575 1055
1575 1045
1580 1035
1590 1030
1598 1023
1605 1015
1613 1008
1620 1000
1625 990
1633 983
1640 975
1648 968
1655 955
1663 948
1670 940
1675 930
1683 923
1690 915
1695 905
1703 898
1710 890
1715 880
1720 870
1728 863
1733 853
1740 845
1745 835
1753 828
1755 815
1763 808
1770 795
1778 788
1780 775
1788 768
1793 758
1798 748
1803 738
1810 730
1810 720
1815 710
1823 703
1825 690
1833 683
1835 670
1840 660
1845 645
1853 638
1855 625
1860 615
1865 600
1870 585
1875 570
1883 563
1885 550
1890 535
1895 525
1895 515
1900 500
1905 485
1910 470
1915 455
1920 440
1920 430
1925 415
1930 400
1930 390
1935 375
1935 365
1939 351
1929 349
1919 346
1909 344
1899 341
1889 339
1879 336
1869 334
1859 331
1849 329
1839 329
1829 326
1819 324
1809 324
1800 319
1790 319
1780 319
1770 319
1761 314
1751 314
1741 314
1731 314
1721 314
1712 309
1702 309
1692 309
1682 309
1672 309
1662 309
1652 309
1642 309
1632 309
1622 309
1612 309
1602 309
1593 314
1585 321
1577 329
1568 334
1560 341
1553 349
1545 356
1537 364
1527 369
1523 379
1515 386
1508 394
1500 401
1493 409
1485 416
1480 426
1470 431
1465 441
1457 449
1452 459
1442 464
1437 474
1429 482
1422 494
1417 504
1409 512
1399 522
1394 532
1387 544
1382 554
1377 564
1369 572
1364 582
1359 592
1354 602
1347 614
1339 622
1334 632
1329 647
1324 657
1319 667
1314 677
1309 687
1304 702
1299 712
1294 727
1289 742
1284 752
1279 767
1273 779
1265 786
1257 794
1249 802
1239 807
1233 819
1225 826
1218 834
1210 841
1205 851
1197 859
1192 869
1184 877
1176 890
1171 900
1166 910
1160 919
1150 918
1145 909
1140 900
1138 890
1130 884
1125 875
1122 865
1118 855
1110 848
1110 838
1103 830
1095 823
1090 814
1086 804
1080 796
1075 787
1067 780
1063 770
1055 764
1055 754
1049 746
1041 739
1035 731
1030 722
1022 715
1015 707
1010 698
1003 690
995 684
990 675
984 667
977 659
969 652
965 642
957 635
950 627
940 624
935 615
929 607
922 599
914 592
907 584
898 579
890 573
885 564
879 556
871 549
862 544
854 537
847 529
839 522
830 517
822 510
815 502
808 494
800 487
792 480
783 475
775 469
769 461
759 457
752 449
742 449
734 442
727 434
717 430
709 424
700 419
694 411
684 407
677 399
668 394
659 389
649 387
642 379
632 375
624 369
615 364
606 359
597 364
592 374
587 384
579 392
574 402
567 414
562 424
557 434
552 444
544 452
539 462
534 472
529 482
524 492
519 502
514 517
509 527
504 537
499 547
494 562
489 572
484 587
479 602
474 617
469 632
464 647
464 657
459 667
459 677
464 686
469 695
472 705
477 714
479 724
484 733
489 742
494 751
499 760
502 770
507 779
514 787
519 796
524 805
527 815
534 823
539 832
544 841
549 850
555 858
560 867
564 877
572 884
576 894
584 900
590 908
595 917
602 925
609 933
617 940
622 949
629 957
634 966
644 970
649 979
655 987
664 992
669 1001
676 1009
684 1015
690 1023
698 1030
705 1038
715 1042
719 1052
729 1055
735 1063
743 1070
752 1075
760 1082
767 1090
776 1095
784 1101
794 1105
799 1114
801 1124
806 1133
810 1143
815 1152
819 1162
824 1171
829 1180
835 1188
840 1197
847 1205
852 1214
859 1222
864 1231
871 1239
879 1245
885 1253
893 1260
899 1268
899 1278
891 1284
881 1284
871 1285
861 1289
851 1289
841 1290
831 1294
821 1294
812 1299
802 1299
793 1304
783 1304
774 1309
764 1309
754 1312
744 1314
735 1319
725 1321
715 1324
706 1329
696 1329
687 1334
677 1334
668 1339
659 1344
649 1347
639 1349
630 1354
620 1356
612 1364
602 1364
592 1369
583 1374
574 1379
564 1382
554 1387
544 1389
536 1395
526 1399
517 1404
508 1409
499 1414
489 1417
480 1424
471 1429
462 1434
453 1439
444 1444
435 1449
426 1454
417 1459
407 1464
399 1472
390 1479
381 1484
372 1489
363 1494
355 1501
345 1506
337 1514
328 1519
320 1526
312 1534
303 1539
295 1546
285 1551
277 1559
268 1564
260 1571
252 1579
243 1584
235 1591
230 1601
220 1606
212 1614
204 1622
