25 1295
19 1287
29 1284
38 1279
47 1274
55 1266
65 1264
74 1257
84 1254
93 1249
102 1244
111 1239
121 1235
129 1229
139 1227
147 1219
157 1219
166 1214
176 1210
186 1205
196 1200
206 1199
215 1194
225 1191
235 1186
245 1181
255 1179
264 1174
274 1172
284 1169
294 1169
303 1164
312 1159
322 1159
331 1154
341 1154
351 1150
361 1149
370 1144
380 1144
389 1139
399 1139
408 1134
418 1134
428 1134
437 1129
447 1129
457 1124
467 1124
477 1124
487 1119
497 1119
507 1119
517 1119
527 1114
537 1114
547 1114
557 1114
567 1109
577 1109
587 1109
597 1109
607 1109
617 1109
627 1109
637 1109
647 1109
657 1109
667 1109
677 1109
687 1109
697 1109
707 1109
717 1109
727 1109
737 1109
747 1109
757 1109
766 1114
776 1114
786 1114
796 1114
806 1114
815 1119
825 1119
835 1119
845 1122
855 1124
865 1124
875 1124
884 1129
894 1129
903 1134
913 1134
923 1135
933 1139
943 1140
953 1144
962 1149
972 1149
981 1154
991 1154
1000 1159
1010 1159
1019 1164
1029 1166
1039 1169
1048 1174
1058 1175
1068 1179
1077 1184
1086 1189
1096 1189
1105 1194
1114 1199
1123 1204
1132 1209
1142 1209
1151 1214
1160 1219
1169 1205
1160 1200
1152 1194
1142 1190
1135 1182
1125 1178
1119 1170
1111 1163
1101 1160
1092 1155
1085 1147
1077 1140
1068 1135
1060 1128
1054 1120
1046 1114
1039 1106
1031 1100
1022 1095
1015 1087
1007 1080
998 1075
990 1068
983 1060
975 1053
969 1045
961 1039
954 1031
949 1022
944 1013
938 1005
930 998
923 990
915 983
908 975
900 968
894 960
889 951
884 942
877 934
869 927
864 918
857 910
853 900
845 893
839 885
834 876
829 867
824 858
817 850
813 840
805 833
801 823
796 814
792 804
784 797
780 787
775 778
769 770
769 760
761 754
759 744
754 735
749 726
744 717
740 707
735 698
734 688
729 679
724 670
724 660
719 651
714 642
709 633
705 623
704 613
699 604
694 595
692 585
689 575
689 565
684 556
679 547
679 537
674 528
674 518
670 508
669 498
664 489
664 479
659 470
659 460
654 451
654 441
654 431
649 422
649 412
649 402
644 393
644 383
644 373
639 364
639 354
639 344
639 334
634 325
634 315
634 305
634 295
634 285
629 276
629 266
629 256
629 246
629 236
629 226
629 216
624 207
624 197
634 199
642 205
652 209
661 214
670 219
678 225
685 233
695 237
704 242
714 246
720 254
728 260
737 265
745 272
755 274
763 280
770 288
778 294
787 299
794 307
802 314
811 319
819 326
825 334
833 340
840 348
850 352
857 360
865 367
872 375
880 382
889 387
897 394
904 402
912 409
919 417
927 424
934 432
942 439
949 447
954 456
960 464
968 470
975 478
983 485
990 493
995 502
1002 510
1010 517
1017 525
1025 532
1025 542
1032 550
1040 557
1047 565
1052 574
1059 582
1064 591
1070 599
1075 608
1080 617
1087 625
1092 634
1095 644
1103 650
1110 658
1110 668
1118 675
1125 683
1125 693
1133 700
1135 710
1140 719
1145 728
1150 737
1155 746
1160 755
1162 765
1170 772
1170 782
1175 791
1180 800
1182 810
1185 820
1190 829
1195 838
1200 847
1200 857
1204 867
1209 876
1210 886
1215 895
1217 905
1220 915
1222 925
1227 934
1230 944
1230 954
1235 963
1235 973
1240 982
1240 992
1245 1001
1245 1011
1245 1021
1250 1030
1250 1040
1252 1050
1255 1060
1255 1070
1257 1080
1260 1090
1260 1100
1260 1110
1262 1120
1265 1130
1265 1140
1265 1150
1275 1154
1279 1137
1279 1127
1279 1117
1279 1107
1284 1092
1284 1082
1284 1072
1284 1062
1289 1047
1289 1037
1289 1027
1294 1017
1294 1007
1294 997
1299 982
1299 972
1304 962
1304 952
1309 942
1309 932
1314 922
1314 912
1319 902
1319 892
1324 877
1329 867
1329 857
1334 842
1339 827
1344 817
1349 802
1354 787
1359 777
1364 762
1369 752
1374 737
1382 729
1384 717
1389 707
1394 697
1399 687
1404 677
1409 667
1417 659
1419 647
1427 639
1429 627
1437 619
1444 602
1452 594
1459 577
1467 569
1475 561
1479 547
1487 539
1495 531
1503 524
1507 514
1512 504
1520 496
1525 486
1533 479
1540 471
1548 464
1555 456
1560 446
1565 436
1573 429
1580 421
1588 414
1595 406
1600 396
1610 391
1618 384
1625 376
1633 369
1640 361
1648 354
1655 346
1663 339
1670 331
1680 326
1688 319
1695 311
1703 304
1710 296
1720 291
1728 284
1735 276
1743 269
1752 264
1760 256
1768 249
1777 244
1785 236
1793 229
1802 224
1810 216
1820 214
1829 207
1837 199
1847 194
1855 186
1865 181
1875 176
1880 185
1880 195
1880 205
1880 215
1880 225
1880 235
1880 245
1880 255
1880 265
1880 275
1880 285
1875 300
1875 310
1875 320
1875 330
1875 340
1870 355
1870 365
1870 375
1865 390
1865 400
1865 410
1860 420
1860 430
1855 445
1855 455
1855 465
1850 475
1850 485
1845 495
1845 505
1840 520
1835 535
1835 545
1830 555
1825 570
1825 580
1820 590
1815 605
1810 620
1805 635
1800 645
1795 660
1790 675
1788 688
1780 695
1775 710
1770 720
1768 733
1760 740
1758 753
1750 760
1745 775
1740 785
1735 795
1728 808
1723 818
1718 828
1710 835
1710 845
1703 853
1695 860
1695 870
1688 878
1680 885
1678 898
1670 905
1663 913
1658 923
1653 933
1645 940
1638 948
1633 958
1625 965
1618 978
1610 985
1603 993
1595 1000
1590 1010
1583 1018
1575 1025
1568 1033
1560 1040
1553 1048
1545 1055
1538 1063
1530 1070
1523 1078
1515 1085
1508 1093
1500 1100
1493 1108
1485 1115
1478 1123
1470 1130
1462 1139
1454 1145
1445 1150
1438 1158
1428 1163
1420 1170
1410 1175
1402 1184
1394 1192
1384 1195
1375 1200
1375 1210
1385 1214
1395 1214
1404 1207
1414 1202
1422 1194
1432 1194
1441 1189
1450 1184
1460 1181
1468 1174
1478 1174
1487 1169
1496 1164
1506 1160
1516 1159
1525 1154
1534 1149
1544 1147
1554 1144
1564 1142
1574 1137
1584 1134
1593 1129
1603 1129
1612 1124
1622 1124
1632 1119
1642 1119
1651 1114
1661 1114
1671 1110
1681 1109
1691 1105
1701 1104
1711 1104
1721 1100
1731 1099
1741 1099
1751 1095
1761 1094
1771 1094
1781 1094
1790 1089
1800 1089
1810 1089
1820 1089
1830 1089
1840 1086
1850 1084
1860 1084
1870 1084
1880 1084
1890 1084
1900 1084
1910 1084
1920 1084
1930 1084
1940 1084
1950 1084
1960 1084
1970 1084
1980 1084
1990 1084
2000 1084
2009 1089
2019 1089
2029 1089
2039 1089
2049 1089
2058 1094
2068 1094
2078 1094
2088 1094
2097 1099
2107 1099
2117 1099
2126 1104
2136 1104
2146 1104
2155 1109
2165 1109
2175 1109
2184 1114
2194 1114
2204 1116
2214 1119
2223 1124
2233 1124
2242 1129
2252 1129
2261 1134
2271 1134
2280 1139
2290 1142
2300 1144
2309 1149
2319 1151
2329 1154
2338 1159
2348 1160
2358 1164
2367 1169
2377 1169
2386 1174
2395 1179
2404 1184
2414 1186
2424 1189
2432 1195
2442 1199
2451 1204
2460 1209
2470 1212
2479 1217
2489 1219
2497 1225
2507 1229
2516 1234
2525 1239
2534 1244
2540 1252
2535 1270
2528 1278
2518 1283
2508 1288
2498 1293
2490 1300
2480 1300
2473 1308
2463 1310
2454 1315
2445 1320
2435 1325
2426 1330
2417 1335
2407 1339
2397 1340
2389 1347
2379 1350
2370 1355
2360 1355
2351 1360
2342 1365
2333 1370
2323 1373
2313 1375
2304 1380
2294 1382
2284 1385
2275 1390
2265 1390
2256 1395
2246 1395
2237 1400
2227 1404
2217 1405
2207 1405
2198 1410
2189 1415
2179 1415
2169 1417
2159 1420
2149 1422
2139 1425
2129 1425
2119 1427
2109 1430
2099 1432
2089 1435
2079 1435
2069 1435
2059 1437
2049 1440
2039 1440
2029 1440
2020 1445
2010 1445
2000 1445
1990 1445
1980 1445
1970 1445
1961 1450
1951 1450
1941 1450
1931 1450
1921 1450
1911 1450
1901 1450
1891 1450
1881 1450
1871 1450
1861 1450
1851 1450
1841 1450
1831 1448
1821 1445
1811 1445
1801 1445
1791 1445
1781 1445
1771 1445
1762 1440
1752 1440
1742 1440
1732 1439
1722 1435
1712 1435
1702 1435
1693 1430
1683 1430
1673 1430
1664 1425
1654 1425
1645 1420
1635 1420
1626 1415
1616 1415
1607 1410
1597 1410
1587 1410
1578 1405
1569 1400
1559 1400
1550 1395
1540 1392
1530 1390
1521 1385
1511 1383
1501 1380
1492 1375
1482 1375
1473 1370
1464 1365
1454 1361
1446 1355
1436 1354
1427 1349
1417 1345
1408 1340
1399 1335
1390 1330
1380 1330
1380 1340
1385 1349
1393 1355
1402 1360
1410 1367
1419 1372
1427 1379
1436 1384
1444 1391
1450 1399
1459 1404
1469 1406
1475 1414
1483 1420
1490 1428
1498 1435
1505 1443
1515 1447
1522 1455
1530 1462
1537 1470
1545 1477
1552 1485
1560 1492
1567 1500
1575 1507
1582 1515
1590 1522
1597 1530
1605 1537
1612 1545
1620 1552
1620 1562
1627 1570
1635 1577
1642 1585
1650 1592
1657 1600
1660 1610
1665 1619
1673 1625
1680 1633
1685 1642
1689 1652
1697 1659
1704 1667
1709 1676
1713 1686
1720 1694
1725 1703
1730 1712
1735 1721
1741 1729
1745 1739
1750 1748
1755 1757
1760 1766
1766 1774
1770 1784
1775 1793
1780 1802
1784 1812
1789 1821
1793 1831
1798 1840
1802 1850
1805 1860
1810 1869
1815 1878
1815 1888
1820 1897
1824 1907
1829 1916
1830 1926
1835 1935
1837 1945
1840 1955
1845 1964
1845 1974
1850 1983
1855 1992
1855 2002
1859 2012
1860 2022
1865 2031
1865 2041
1870 2050
1872 2060
1875 2070
1875 2080
1880 2089
1880 2099
1885 2108
1885 2118
1885 2128
1890 2137
1890 2147
1890 2157
1894 2167
1895 2177
1895 2187
1899 2197
1900 2207
1900 2217
1900 2227
1900 2237
1905 2246
1905 2256
1905 2266
1905 2276
1905 2286
1905 2296
1908 2306
1910 2316
1910 2326
1910 2336
1910 2346
1902 2355
1892 2355
1885 2347
1875 2343
1869 2335
1860 2330
1850 2327
1842 2320
1833 2315
1825 2308
1819 2300
1809 2297
1800 2292
1790 2288
1784 2280
1776 2274
1767 2269
1759 2262
1752 2254
1744 2247
1735 2242
1727 2235
1720 2227
1712 2220
1703 2215
1695 2208
1689 2200
1681 2194
1674 2186
1666 2180
1657 2175
1650 2167
1642 2160
1635 2152
1627 2145
1620 2137
1612 2130
1605 2122
1600 2113
1593 2105
1585 2098
1579 2090
1571 2084
1564 2076
1559 2067
1552 2059
1544 2052
1537 2044
1529 2037
1524 2028
1519 2019
1514 2010
1506 2004
1499 1996
1494 1987
1489 1978
1482 1970
1479 1960
1471 1953
1466 1944
1459 1936
1454 1927
1449 1918
1444 1909
1439 1900
1434 1891
1429 1882
1424 1873
1417 1865
1414 1855
1409 1846
1404 1837
1400 1827
1394 1819
1391 1809
1384 1801
1379 1792
1379 1782
1374 1773
1370 1763
1364 1755
1364 1745
1359 1736
1354 1727
1350 1717
1345 1708
1344 1698
1339 1689
1339 1679
1334 1670
1334 1660
1329 1651
1324 1642
1324 1632
1319 1623
1319 1613
1315 1603
1314 1593
1310 1583
1309 1573
1305 1563
1304 1553
1300 1543
1299 1533
1299 1523
1294 1514
1294 1504
1294 1494
1291 1484
1289 1474
1289 1464
1289 1454
1284 1445
1284 1435
1284 1425
1284 1415
1284 1405
1280 1395
1270 1395
1270 1405
1265 1415
1265 1425
1265 1435
1265 1445
1265 1455
1260 1470
1260 1480
1260 1490
1255 1505
1255 1515
1255 1525
1250 1535
1250 1545
1245 1560
1245 1570
1240 1585
1240 1595
1235 1610
1235 1620
1230 1630
1225 1640
1225 1650
1220 1660
1215 1675
1215 1685
1210 1695
1205 1710
1200 1720
1195 1735
1190 1750
1185 1760
1180 1775
1178 1788
1170 1795
1165 1805
1163 1818
1155 1825
1150 1840
1145 1850
1140 1860
1135 1870
1130 1880
1123 1893
1118 1903
1113 1913
1105 1920
1100 1930
1093 1943
1085 1950
1085 1960
1078 1968
1070 1975
1065 1985
1058 1998
1050 2005
1045 2015
1038 2023
1033 2033
1025 2040
1020 2050
1013 2058
1005 2065
998 2073
990 2080
983 2093
975 2100
968 2108
960 2115
953 2123
945 2130
938 2143
930 2150
923 2158
915 2165
908 2173
900 2180
893 2188
885 2195
875 2200
868 2208
860 2215
853 2223
845 2230
835 2235
828 2243
820 2250
813 2258
803 2263
795 2270
787 2279
779 2285
770 2290
762 2299
754 2305
745 2310
735 2315
725 2320
717 2329
709 2335
700 2340
692 2349
682 2350
674 2357
664 2362
654 2367
654 2357
654 2347
654 2337
654 2327
654 2317
654 2307
654 2297
654 2287
654 2277
659 2262
659 2252
659 2242
659 2232
659 2222
664 2212
664 2202
664 2192
664 2182
669 2172
669 2162
669 2152
674 2142
674 2132
674 2122
679 2112
679 2102
679 2092
684 2082
684 2072
689 2057
689 2047
694 2032
699 2022
699 2012
704 1997
709 1987
709 1977
714 1962
719 1947
724 1932
729 1917
734 1907
739 1892
744 1877
749 1867
754 1857
759 1842
764 1832
769 1817
777 1809
779 1797
787 1789
789 1777
797 1769
799 1757
807 1749
812 1739
817 1729
822 1719
829 1707
834 1697
842 1689
849 1672
857 1664
865 1656
869 1642
877 1634
885 1626
889 1612
897 1604
905 1596
913 1589
919 1577
927 1569
932 1559
940 1551
948 1544
955 1536
963 1529
970 1521
975 1511
983 1504
990 1496
998 1489
1005 1481
1013 1474
1020 1466
1028 1459
1035 1451
1043 1444
1050 1436
1058 1429
1067 1424
1077 1419
1085 1411
1093 1404
1100 1396
1108 1389
1117 1384
1126 1379
1134 1372
1142 1364
1152 1359
1160 1351
1168 1344
1169 1330
1159 1332
1149 1337
1139 1342
1131 1350
1121 1350
1112 1355
1103 1360
1093 1363
1085 1370
1075 1370
1066 1375
1057 1380
1047 1384
1037 1385
1028 1390
1019 1395
1009 1395
1000 1400
990 1400
980 1405
971 1410
961 1410
952 1415
942 1419
932 1420
922 1424
912 1425
902 1429
892 1430
882 1434
872 1435
862 1435
852 1439
842 1440
832 1440
823 1445
813 1445
803 1445
793 1448
783 1450
773 1450
763 1450
753 1450
744 1455
734 1455
724 1455
714 1455
704 1455
694 1455
684 1455
674 1455
664 1455
654 1455
645 1460
635 1457
625 1455
615 1455
605 1455
595 1455
585 1455
575 1455
565 1455
555 1455
545 1455
535 1452
525 1450
515 1450
505 1450
495 1450
486 1445
476 1445
466 1445
456 1443
446 1440
436 1440
426 1438
416 1435
406 1433
396 1430
386 1430
376 1428
366 1425
356 1425
347 1420
337 1419
327 1415
317 1414
307 1410
298 1405
288 1405
279 1400
269 1400
260 1395
250 1392
240 1390
231 1385
221 1383
211 1380
202 1375
192 1375
183 1370
174 1365
165 1360
155 1357
145 1355
137 1349
127 1345
118 1340
109 1335
99 1332
90 1327
80 1323
71 1318
61 1315
52 1310
43 1305
34 1300
