424 1182
424 1172
432 1164
441 1159
449 1152
457 1144
467 1139
475 1131
485 1126
493 1119
502 1114
510 1106
520 1101
528 1094
537 1089
545 1081
553 1074
562 1069
570 1061
580 1056
588 1049
597 1044
605 1036
613 1029
622 1024
631 1019
639 1012
647 1004
657 999
665 991
675 986
683 979
692 974
700 966
708 959
717 954
725 946
735 941
743 934
752 929
760 921
770 916
778 909
787 904
795 896
803 889
812 884
820 876
830 871
838 864
847 859
855 851
863 844
872 839
881 834
889 827
897 819
907 814
915 806
925 801
933 794
942 789
950 781
958 774
967 769
975 761
985 756
993 749
1002 744
1010 736
1020 731
1028 724
1037 719
1045 711
1053 704
1062 699
1070 691
1080 686
1088 679
1097 674
1105 666
1113 659
1122 654
1131 649
1139 642
1147 634
1157 629
1165 621
1175 616
1183 609
1192 604
1200 596
1208 589
1217 584
1225 576
1235 571
1243 564
1252 559
1260 551
1270 546
1278 539
1287 534
1295 526
1303 519
1312 514
1320 506
1330 501
1338 494
1347 489
1355 481
1363 474
1372 469
1381 464
1389 457
1399 456
1405 464
1414 469
1422 475
1430 482
1439 487
1447 494
1456 499
1464 506
1473 511
1480 519
1489 524
1497 530
1505 537
1514 542
1522 549
1531 554
1539 561
1545 569
1555 572
1563 579
1572 584
1579 592
1589 596
1595 604
1604 609
1612 615
1620 622
1629 627
1637 634
1646 639
1654 646
1660 654
1670 657
1678 664
1687 669
1694 677
1704 681
1710 689
1719 694
1727 700
1735 707
1744 712
1752 719
1761 724
1769 731
1775 739
1785 742
1793 749
1802 754
1809 762
1819 766
1825 774
1834 779
1842 785
1850 792
1859 797
1867 804
1876 809
1875 820
1865 825
1857 834
1849 840
1840 845
1832 854
1824 860
1815 865
1808 873
1798 878
1790 885
1780 890
1772 899
1764 905
1755 910
1748 918
1738 923
1730 930
1720 935
1713 943
1705 950
1695 955
1687 964
1679 970
1670 975
1663 983
1653 988
1645 995
1635 1000
1627 1009
1619 1015
1610 1020
1602 1029
1594 1035
1585 1040
1578 1048
1568 1053
1560 1060
1550 1065
1542 1074
1534 1080
1525 1085
1518 1093
1508 1098
1500 1105
1493 1113
1483 1118
1475 1125
1465 1130
1457 1139
1449 1145
1440 1150
1433 1158
1423 1163
1415 1170
1405 1175
1397 1184
1389 1190
1380 1195
1372 1204
1364 1210
1355 1215
1348 1223
1338 1228
1330 1235
1320 1240
1312 1249
1304 1255
1295 1260
1288 1268
1278 1273
1270 1280
1263 1288
1253 1293
1245 1300
1235 1305
1227 1314
1219 1320
1210 1325
1203 1333
1193 1338
1185 1345
1175 1350
1167 1359
1159 1365
1150 1370
1142 1379
1134 1385
1125 1390
1118 1398
1108 1403
1100 1410
1090 1415
1082 1424
1074 1430
1065 1435
1058 1443
1048 1448
1040 1455
1033 1463
1023 1468
1015 1475
1005 1480
997 1489
989 1495
980 1500
973 1508
963 1513
955 1520
945 1525
938 1533
930 1540
920 1545
925 1554
933 1560
940 1568
948 1575
955 1583
963 1590
970 1598
978 1604
985 1612
994 1617
1002 1624
1010 1616
1020 1611
1028 1604
1037 1599
1045 1591
1053 1584
1062 1579
1070 1571
1078 1564
1087 1559
1095 1551
1103 1544
1112 1539
1120 1531
1130 1526
1138 1519
1145 1511
1155 1506
1163 1499
1172 1494
1180 1486
1188 1479
1197 1474
1205 1466
1213 1459
1222 1454
1230 1446
1238 1439
1247 1434
1255 1426
1265 1421
1273 1414
1280 1406
1290 1401
1298 1394
1307 1389
1315 1381
1323 1374
1332 1369
1340 1361
1348 1354
1357 1349
1365 1341
1373 1334
1382 1329
1390 1321
1400 1316
1408 1309
1415 1301
1425 1296
1433 1289
1442 1284
1450 1276
1458 1269
1467 1264
1475 1256
1483 1249
1492 1244
1500 1236
1508 1229
1517 1224
1525 1216
1533 1209
1542 1204
1550 1196
1560 1191
1568 1184
1575 1176
1585 1171
1593 1164
1602 1159
1610 1151
1618 1144
1627 1139
1635 1131
1643 1124
1652 1119
1660 1111
1668 1104
1677 1099
1685 1091
1695 1086
1703 1079
1710 1071
1720 1066
1728 1059
1737 1054
1745 1046
1753 1039
1762 1034
1770 1026
1778 1019
1787 1014
1795 1006
1803 999
1812 994
1820 986
1830 981
1838 974
1845 966
1855 961
1863 954
1872 949
1880 941
1888 934
1897 929
1905 921
1913 914
1922 909
1930 901
1938 894
1947 889
1955 881
1965 879
1975 882
1982 890
1992 894
1999 902
2009 906
2015 914
2024 919
2032 925
2040 932
2049 937
2057 944
2066 949
2074 956
2080 964
2090 967
2098 974
2107 979
2114 987
2124 991
2130 999
2139 1004
2147 1010
2155 1017
2164 1022
2172 1029
2181 1034
2189 1041
2198 1046
2205 1054
2214 1059
2222 1065
2230 1072
2239 1077
2247 1084
2256 1089
2264 1096
2270 1104
2280 1107
2288 1114
2297 1119
2304 1127
2314 1131
2320 1139
2329 1144
2337 1150
2345 1157
2354 1162
2362 1169
2360 1185
2355 1200
2350 1215
2345 1230
2340 1245
2335 1260
2330 1275
2330 1285
2325 1295
2320 1310
2315 1325
2310 1340
2305 1355
2300 1370
2295 1385
2290 1400
2290 1410
2285 1420
2280 1435
2275 1450
2270 1465
2265 1480
2260 1495
2255 1510
2250 1525
2250 1535
2245 1545
2240 1560
2235 1575
2230 1590
2225 1605
2220 1620
2215 1635
2210 1650
2210 1660
2205 1670
2200 1685
2195 1700
2190 1715
2185 1730
2180 1745
2175 1760
2170 1775
2170 1785
2165 1795
2160 1810
2155 1825
2150 1840
2145 1855
2140 1870
2135 1885
2130 1900
2130 1910
2125 1920
2120 1935
2115 1950
2110 1965
2105 1980
2100 1995
2095 2010
2090 2025
2090 2035
2085 2045
2080 2060
2075 2075
2070 2090
2065 2105
2060 2120
2055 2135
2050 2150
2050 2160
2045 2170
2040 2185
2035 2200
2030 2215
2025 2230
2020 2245
2015 2260
2010 2275
2010 2285
2005 2295
2000 2310
1995 2325
1989 2335
1979 2335
1969 2335
1959 2335
1949 2335
1939 2335
1929 2335
1919 2335
1909 2335
1899 2335
1889 2335
1879 2335
1869 2335
1859 2335
1849 2335
1839 2335
1829 2335
1819 2335
1809 2335
1799 2335
1789 2335
1779 2335
1769 2335
1759 2335
1749 2335
1739 2335
1729 2335
1719 2335
1709 2335
1699 2335
1689 2335
1679 2335
1669 2335
1659 2335
1649 2335
1639 2335
1629 2335
1619 2335
1609 2335
1599 2335
1589 2335
1579 2335
1569 2335
1559 2335
1549 2335
1539 2335
1529 2335
1519 2335
1509 2335
1499 2335
1489 2335
1479 2335
1469 2335
1459 2335
1449 2335
1439 2335
1429 2335
1419 2335
1409 2335
1399 2335
1389 2335
1379 2335
1369 2335
1359 2335
1349 2335
1339 2335
1329 2335
1319 2335
1309 2335
1299 2335
1289 2335
1279 2335
1269 2335
1259 2335
1249 2335
1239 2335
1229 2335
1219 2335
1209 2335
1199 2335
1189 2335
1179 2335
1169 2335
1159 2335
1149 2335
1139 2335
1129 2335
1119 2335
1109 2335
1099 2335
1089 2335
1079 2335
1069 2335
1059 2335
1049 2335
1039 2335
1029 2335
1019 2335
1009 2335
999 2335
989 2335
979 2335
969 2335
959 2335
949 2335
939 2335
929 2335
919 2335
909 2335
899 2335
889 2335
879 2335
869 2335
859 2335
849 2335
839 2335
829 2335
819 2335
809 2335
799 2335
789 2335
779 2335
769 2335
759 2335
757 2324
766 2319
774 2312
782 2304
792 2299
800 2291
810 2286
818 2279
827 2274
835 2266
843 2259
852 2254
860 2246
868 2239
877 2234
885 2226
895 2221
903 2214
912 2209
920 2201
928 2194
937 2189
945 2181
955 2176
963 2169
972 2164
980 2156
988 2149
997 2144
1005 2136
1013 2129
1022 2124
1030 2116
1040 2111
1048 2104
1057 2099
1065 2091
1073 2084
1082 2079
1090 2071
1100 2066
1108 2059
1115 2051
1125 2046
1133 2039
1142 2034
1150 2026
1158 2019
1167 2014
1175 2006
1185 2001
1193 1994
1202 1989
1210 1981
1218 1974
1227 1969
1235 1961
1245 1956
1253 1949
1260 1941
1270 1936
1278 1929
1287 1924
1295 1916
1303 1909
1312 1904
1320 1896
1330 1891
1338 1884
1347 1879
1355 1871
1363 1864
1372 1859
1380 1851
1390 1846
1398 1839
1405 1831
1415 1826
1423 1819
1432 1814
1440 1806
1448 1799
1457 1794
1465 1786
1475 1781
1483 1774
1492 1769
1500 1761
1508 1754
1517 1749
1525 1741
1535 1736
1543 1729
1550 1721
1560 1716
1568 1709
1577 1704
1585 1696
1593 1689
1602 1684
1610 1676
1620 1671
1628 1664
1637 1659
1645 1651
1653 1644
1662 1639
1670 1631
1678 1624
1687 1619
1695 1611
1705 1606
1713 1599
1722 1594
1730 1586
1738 1579
1747 1574
1755 1566
1765 1561
1773 1554
1782 1549
1790 1541
1798 1534
1807 1529
1815 1521
1823 1514
1832 1509
1840 1501
1850 1496
1858 1489
1867 1484
1875 1476
1883 1469
1892 1464
1900 1456
1910 1451
1918 1444
1927 1439
1935 1431
1943 1424
1952 1419
1959 1404
1956 1394
1952 1384
1947 1375
1944 1365
1939 1356
1934 1347
1934 1337
1929 1328
1924 1319
1919 1310
1917 1300
1913 1290
1903 1293
1893 1298
1885 1305
1877 1314
1869 1320
1860 1325
1852 1334
1844 1340
1835 1345
1828 1353
1820 1360
1810 1365
1803 1373
1795 1380
1788 1388
1778 1393
1770 1400
1762 1409
1754 1415
1745 1420
1737 1429
1729 1435
1720 1440
1713 1448
1705 1455
1695 1460
1688 1468
1680 1475
1673 1483
1663 1488
1655 1495
1647 1504
1639 1510
1630 1515
1622 1524
1614 1530
1605 1535
1598 1543
1590 1550
1580 1555
1573 1563
1565 1570
1558 1578
1548 1583
1540 1590
1532 1599
1524 1605
1515 1610
1507 1619
1499 1625
1490 1630
1483 1638
1475 1645
1465 1650
1458 1658
1450 1665
1443 1673
1433 1678
1425 1685
1417 1694
1409 1700
1400 1705
1392 1714
1384 1720
1375 1725
1368 1733
1360 1740
1350 1745
1343 1753
1335 1760
1328 1768
1318 1773
1310 1780
1302 1789
1294 1795
1285 1800
1277 1809
1269 1815
1260 1820
1253 1828
1245 1835
1235 1840
1228 1848
1220 1855
1213 1863
1203 1868
1195 1875
1187 1884
1179 1890
1170 1895
1162 1904
1154 1910
1145 1915
1138 1923
1130 1930
1120 1935
1113 1943
1105 1950
1098 1958
1088 1963
1080 1970
1072 1979
1064 1985
1055 1990
1048 1998
1040 2005
1030 2010
1023 2018
1015 2025
1005 2030
998 2038
990 2045
983 2053
973 2058
965 2065
957 2074
949 2080
940 2085
933 2093
925 2100
915 2105
908 2113
900 2120
890 2125
883 2133
875 2140
868 2148
858 2153
850 2160
842 2169
834 2175
825 2180
818 2188
810 2195
800 2200
793 2208
785 2215
775 2220
768 2228
760 2235
750 2237
745 2228
744 2218
739 2209
739 2199
734 2190
734 2180
729 2171
724 2162
724 2152
719 2143
719 2133
714 2124
711 2114
709 2104
704 2095
702 2085
699 2075
699 2065
694 2056
689 2047
689 2037
684 2028
680 2018
679 2008
675 1998
674 1988
669 1979
666 1969
664 1959
661 1949
659 1939
654 1930
652 1920
649 1910
644 1901
644 1891
639 1882
639 1872
634 1863
630 1853
629 1843
624 1834
624 1824
619 1815
617 1805
614 1795
609 1786
609 1776
604 1767
604 1757
599 1748
595 1738
594 1728
589 1719
589 1709
584 1700
584 1690
579 1681
574 1672
574 1662
569 1653
569 1643
564 1634
561 1624
559 1614
554 1605
552 1595
549 1585
549 1575
544 1566
539 1557
539 1547
534 1538
530 1528
529 1518
525 1508
524 1498
519 1489
516 1479
514 1469
511 1459
509 1449
504 1440
502 1430
499 1420
494 1411
494 1401
489 1392
489 1382
484 1373
480 1363
479 1353
474 1344
474 1334
469 1325
467 1315
464 1305
459 1296
459 1286
454 1277
454 1267
449 1258
445 1248
444 1238
439 1229
439 1219
434 1210
434 1200
429 1191
