374 2242
377 2259
387 2260
397 2260
407 2259
417 2259
427 2259
437 2255
447 2255
457 2255
467 2255
477 2255
487 2254
497 2254
507 2250
517 2250
527 2250
537 2250
547 2249
557 2249
567 2245
577 2245
587 2245
597 2245
606 2240
616 2240
626 2240
636 2240
646 2240
656 2240
665 2235
675 2235
685 2235
695 2235
705 2235
715 2235
725 2235
734 2230
744 2230
754 2230
764 2230
774 2230
784 2230
794 2230
804 2230
814 2227
824 2230
833 2225
843 2225
853 2225
863 2225
872 2230
881 2225
891 2225
901 2225
911 2225
921 2225
931 2225
941 2225
951 2228
961 2228
971 2228
981 2228
991 2225
1000 2230
1010 2230
1020 2230
1030 2230
1040 2230
1050 2230
1060 2230
1070 2230
1079 2235
1089 2235
1099 2235
1109 2235
1119 2235
1129 2237
1139 2240
1149 2240
1159 2240
1169 2240
1179 2242
1189 2245
1199 2245
1209 2245
1219 2245
1229 2245
1238 2250
1248 2250
1258 2250
1267 2255
1277 2254
1287 2255
1297 2255
1307 2255
1317 2255
1326 2260
1336 2260
1346 2260
1356 2263
1366 2265
1376 2265
1386 2265
1396 2265
1406 2265
1415 2270
1425 2270
1435 2270
1445 2272
1455 2272
1465 2275
1475 2275
1485 2275
1495 2275
1505 2275
1514 2280
1524 2280
1534 2280
1544 2280
1554 2280
1564 2282
1574 2285
1584 2285
1594 2285
1604 2285
1614 2285
1624 2285
1634 2285
1644 2285
1654 2285
1663 2290
1673 2290
1683 2290
1693 2290
1703 2290
1713 2290
1723 2290
1733 2290
1743 2290
1753 2290
1763 2290
1773 2290
1783 2290
1793 2290
1802 2295
1811 2290
1821 2290
1831 2290
1841 2290
1851 2290
1861 2290
1871 2290
1881 2290
1891 2290
1901 2290
1911 2290
1921 2290
1931 2290
1941 2290
1951 2290
1961 2290
1971 2290
1981 2290
1991 2288
2001 2288
2011 2285
2021 2285
2031 2285
2041 2285
2051 2285
2061 2285
2071 2285
2080 2280
2090 2280
2100 2280
2110 2280
2120 2280
2130 2280
2140 2280
2150 2280
2160 2275
2170 2275
2180 2275
2190 2275
2200 2275
2210 2275
2220 2275
2230 2275
2239 2270
2249 2270
2259 2270
2269 2270
2279 2270
2289 2270
2299 2270
2307 2264
2302 2255
2298 2245
2290 2238
2285 2229
2279 2221
2271 2214
2265 2206
2260 2197
2252 2190
2245 2182
2237 2175
2233 2165
2225 2158
2218 2150
2210 2144
2203 2136
2199 2126
2190 2121
2185 2112
2177 2105
2170 2097
2162 2090
2155 2082
2147 2075
2140 2067
2133 2059
2125 2052
2120 2043
2113 2035
2105 2028
2098 2020
2090 2013
2083 2005
2075 1998
2068 1990
2063 1981
2054 1976
2049 1967
2042 1959
2034 1952
2027 1944
2019 1937
2012 1929
2007 1920
2000 1912
1992 1905
1985 1897
1980 1888
1973 1880
1965 1874
1958 1866
1954 1856
1946 1849
1940 1841
1935 1832
1927 1825
1923 1815
1915 1808
1910 1799
1903 1791
1899 1781
1894 1772
1887 1764
1882 1755
1875 1747
1870 1738
1865 1729
1862 1719
1857 1710
1850 1702
1849 1692
1845 1682
1840 1673
1835 1664
1830 1655
1827 1645
1825 1635
1820 1626
1815 1617
1814 1607
1810 1597
1810 1587
1805 1578
1800 1569
1800 1559
1795 1550
1795 1537
1795 1527
1790 1518
1790 1508
1790 1498
1785 1489
1785 1479
1780 1470
1780 1452
1780 1442
1780 1432
1775 1423
1775 1413
1775 1403
1775 1393
1775 1383
1770 1374
1770 1364
1770 1354
1770 1344
1770 1334
1765 1325
1765 1312
1765 1302
1765 1292
1765 1282
1764 1272
1760 1262
1760 1252
1760 1242
1759 1232
1755 1222
1755 1212
1754 1202
1750 1192
1750 1182
1749 1172
1745 1162
1745 1152
1740 1143
1740 1133
1740 1123
1735 1114
1735 1104
1730 1095
1730 1085
1725 1076
1725 1066
1720 1057
1720 1047
1715 1038
1710 1029
1710 1019
1705 1010
1705 1000
1700 991
1695 982
1694 972
1690 962
1685 953
1680 944
1680 934
1675 925
1670 916
1669 906
1664 897
1660 887
1655 878
1650 869
1647 859
1642 850
1638 840
1630 834
1630 824
1623 816
1619 806
1614 797
1610 787
1605 778
1600 769
1593 761
1589 751
1584 742
1580 732
1572 725
1568 715
1560 708
1555 699
1550 690
1544 682
1540 672
1535 663
1528 655
1520 649
1516 639
1510 631
1505 622
1500 613
1493 605
1485 599
1482 589
1474 582
1470 572
1462 565
1455 557
1449 549
1439 547
1434 562
1429 577
1424 587
1419 602
1414 617
1409 627
1404 642
1399 652
1397 664
1392 674
1387 684
1382 694
1377 704
1372 714
1367 724
1362 734
1357 744
1352 754
1344 762
1339 772
1332 784
1327 794
1319 802
1312 814
1307 824
1299 832
1292 844
1284 852
1274 862
1268 874
1260 881
1252 889
1244 897
1234 907
1224 917
1217 929
1207 934
1203 944
1195 951
1185 956
1178 964
1170 971
1162 979
1154 987
1144 992
1135 1001
1128 1009
1120 1016
1112 1024
1103 1029
1095 1036
1088 1044
1080 1051
1070 1056
1063 1064
1055 1071
1048 1079
1040 1086
1030 1091
1023 1099
1015 1106
1008 1114
1000 1121
992 1129
982 1134
977 1144
968 1149
960 1156
953 1164
945 1171
938 1179
930 1186
923 1194
915 1201
907 1209
899 1217
889 1227
883 1239
875 1246
867 1254
859 1262
850 1271
845 1281
838 1289
830 1296
825 1306
817 1314
813 1324
805 1331
797 1339
792 1349
784 1357
777 1369
769 1377
762 1389
757 1399
749 1407
742 1419
737 1429
729 1437
722 1449
717 1459
712 1469
704 1477
699 1487
692 1499
687 1509
682 1519
677 1529
672 1539
664 1547
659 1557
654 1567
649 1577
644 1587
639 1597
634 1607
629 1617
624 1627
619 1642
614 1652
609 1662
604 1672
599 1682
594 1692
589 1707
584 1717
579 1727
574 1742
569 1752
564 1762
559 1777
554 1787
549 1802
544 1812
539 1827
534 1837
529 1852
524 1862
519 1877
514 1892
509 1907
504 1917
499 1932
494 1947
489 1957
484 1972
479 1987
474 1997
474 2007
469 2017
464 2027
459 2037
454 2052
449 2067
444 2082
439 2092
434 2102
429 2117
424 2132
419 2142
414 2152
409 2167
404 2177
399 2187
397 2199
392 2209
384 2217
379 2232
