17 1284
19 1295
25 1303
35 1305
44 1310
53 1315
63 1315
70 1323
80 1327
90 1330
99 1335
109 1335
118 1340
127 1345
137 1345
145 1352
155 1355
164 1360
174 1360
183 1365
192 1370
201 1375
211 1378
220 1383
230 1387
237 1395
246 1400
254 1406
261 1414
269 1420
275 1428
283 1435
290 1443
298 1450
307 1455
316 1460
325 1465
335 1467
344 1472
354 1475
364 1475
373 1480
383 1480
393 1480
402 1485
412 1485
422 1485
432 1485
442 1485
452 1485
462 1489
472 1490
482 1490
492 1490
502 1490
512 1490
522 1490
532 1490
542 1490
552 1490
562 1490
571 1495
581 1495
580 1511
570 1516
563 1524
555 1531
548 1539
540 1546
530 1551
523 1559
515 1566
505 1571
497 1579
488 1584
480 1591
472 1599
463 1604
455 1611
447 1619
437 1624
433 1634
425 1641
418 1649
410 1656
405 1666
397 1674
392 1684
387 1694
379 1702
379 1712
374 1722
374 1732
374 1742
369 1757
369 1767
364 1782
359 1797
354 1807
349 1817
344 1827
337 1844
329 1852
325 1866
317 1874
312 1884
304 1892
297 1904
292 1914
284 1922
277 1934
272 1944
264 1952
262 1964
257 1974
249 1982
244 1992
242 2004
234 2012
229 2027
239 2030
249 2030
258 2025
268 2025
277 2020
287 2020
296 2015
306 2015
315 2010
325 2005
335 2005
345 2005
354 2000
363 1995
372 1990
382 1990
391 1985
400 1980
410 1975
420 1970
430 1970
440 1965
450 1960
460 1955
470 1955
480 1950
490 1945
499 1940
509 1940
518 1935
528 1933
538 1928
548 1925
557 1920
566 1915
576 1915
585 1910
595 1910
605 1905
615 1905
624 1900
634 1900
643 1895
653 1895
663 1893
673 1890
682 1885
691 1880
701 1880
710 1875
719 1870
727 1864
737 1860
746 1855
755 1850
763 1843
773 1838
780 1830
790 1825
799 1820
805 1810
815 1805
824 1800
833 1795
840 1785
849 1780
855 1770
865 1765
874 1760
880 1750
890 1745
895 1735
905 1730
914 1725
920 1715
929 1710
937 1704
942 1695
951 1690
959 1682
967 1674
975 1665
983 1658
993 1655
999 1663
997 1674
992 1684
984 1692
982 1709
974 1717
969 1727
967 1744
959 1752
954 1762
949 1772
944 1782
939 1792
939 1802
934 1812
929 1822
924 1832
919 1842
919 1852
914 1862
909 1872
909 1882
904 1892
899 1902
899 1912
894 1922
889 1937
889 1947
884 1957
884 1967
879 1982
879 1992
879 2002
874 2017
874 2027
874 2037
874 2047
874 2057
874 2067
879 2076
879 2086
879 2096
879 2106
879 2116
879 2126
879 2136
879 2146
879 2156
879 2166
879 2176
879 2186
879 2196
879 2206
879 2216
879 2226
879 2236
874 2247
874 2257
874 2267
874 2277
874 2287
874 2297
874 2307
869 2317
869 2327
869 2337
869 2347
869 2357
869 2367
869 2377
869 2387
869 2397
869 2407
869 2417
869 2427
869 2437
869 2447
869 2457
874 2466
874 2476
874 2486
874 2496
884 2497
892 2490
901 2485
909 2477
915 2465
923 2458
930 2450
940 2440
948 2433
955 2420
963 2413
973 2408
978 2398
985 2385
993 2378
1000 2370
1005 2360
1013 2353
1020 2345
1028 2338
1035 2330
1043 2323
1048 2313
1055 2305
1065 2300
1073 2293
1083 2288
1093 2283
1103 2278
1113 2273
1123 2268
1130 2260
1140 2255
1149 2250
1155 2240
1163 2233
1170 2220
1178 2213
1183 2203
1190 2195
1190 2185
1198 2178
1205 2170
1205 2160
1210 2145
1215 2135
1220 2120
1225 2110
1230 2095
1235 2080
1240 2065
1245 2055
1250 2045
1255 2030
1260 2015
1265 2005
1274 2000
1284 2000
1284 2010
1289 2019
1291 2029
1294 2039
1299 2048
1304 2057
1309 2066
1309 2076
1314 2085
1317 2095
1319 2105
1324 2114
1329 2123
1330 2133
1335 2142
1339 2152
1344 2161
1344 2171
1351 2179
1359 2185
1359 2195
1365 2203
1370 2212
1377 2220
1382 2229
1389 2237
1394 2246
1404 2250
1410 2258
1420 2262
1427 2270
1437 2274
1446 2279
1456 2283
1465 2288
1475 2292
1482 2300
1491 2305
1499 2311
1504 2320
1510 2328
1518 2335
1525 2343
1533 2350
1540 2358
1545 2367
1552 2375
1560 2382
1564 2392
1572 2399
1576 2409
1586 2413
1594 2420
1597 2430
1605 2437
1609 2447
1619 2450
1625 2458
1633 2465
1637 2475
1645 2482
1652 2490
1662 2494
1669 2502
1675 2485
1675 2475
1675 2465
1680 2448
1680 2438
1680 2428
1680 2418
1680 2408
1680 2398
1680 2388
1680 2378
1680 2368
1680 2358
1680 2348
1680 2338
1680 2328
1680 2318
1675 2309
1675 2299
1675 2289
1675 2279
1675 2269
1675 2259
1675 2249
1670 2240
1670 2230
1670 2220
1670 2210
1670 2200
1670 2190
1670 2180
1670 2170
1670 2160
1670 2150
1670 2140
1670 2130
1670 2120
1670 2110
1670 2100
1670 2090
1670 2080
1670 2070
1675 2056
1675 2046
1675 2036
1675 2026
1673 2016
1670 2006
1670 1996
1670 1986
1665 1977
1665 1967
1664 1957
1660 1947
1660 1937
1655 1928
1650 1919
1650 1909
1647 1899
1642 1890
1640 1880
1638 1870
1633 1861
1630 1851
1628 1841
1624 1831
1619 1822
1615 1812
1610 1803
1610 1793
1605 1784
1600 1775
1595 1766
1590 1757
1585 1748
1580 1739
1580 1729
1575 1720
1569 1712
1565 1702
1564 1692
1557 1684
1552 1675
1550 1665
1550 1655
1560 1655
1569 1660
1575 1668
1583 1675
1590 1683
1598 1690
1607 1695
1612 1704
1620 1710
1629 1715
1632 1725
1642 1729
1650 1735
1656 1743
1664 1750
1670 1758
1680 1762
1687 1770
1695 1777
1704 1782
1709 1791
1719 1795
1728 1800
1735 1808
1744 1813
1752 1820
1760 1827
1769 1832
1777 1839
1786 1844
1794 1850
1803 1855
1812 1860
1822 1864
1830 1870
1839 1875
1848 1880
1858 1880
1867 1885
1876 1890
1886 1893
1896 1895
1906 1895
1915 1900
1925 1900
1934 1905
1944 1905
1953 1910
1963 1910
1972 1915
1982 1915
1991 1920
2000 1925
2010 1927
2019 1932
2029 1935
2038 1940
2048 1940
2057 1945
2066 1950
2075 1955
2085 1955
2094 1960
2103 1965
2112 1970
2122 1970
2132 1974
2141 1979
2151 1983
2160 1988
2170 1990
2180 1992
2189 1997
2199 2000
2208 2005
2218 2005
2227 2010
2237 2014
2247 2015
2257 2019
2267 2020
2277 2024
2287 2025
2297 2029
2307 2030
2317 2034
2315 2019
2311 2009
2305 2001
2304 1991
2299 1982
2292 1974
2287 1965
2285 1955
2279 1947
2275 1937
2267 1930
2263 1920
2255 1914
2251 1904
2245 1896
2240 1887
2235 1878
2228 1870
2220 1863
2220 1853
2213 1845
2205 1838
2205 1828
2200 1819
2195 1810
2190 1801
2185 1792
2184 1782
2180 1772
2180 1762
2175 1753
2175 1743
2175 1733
2175 1723
2170 1714
2170 1704
2164 1696
2159 1687
2155 1677
2147 1670
2140 1662
2135 1653
2128 1645
2120 1639
2115 1630
2107 1624
2099 1617
2092 1609
2084 1602
2075 1597
2067 1590
2059 1584
2050 1579
2044 1571
2034 1567
2027 1559
2019 1552
2010 1547
2002 1540
1995 1532
1987 1525
1980 1517
1970 1514
1965 1505
1965 1495
1975 1495
1985 1490
1995 1490
2005 1490
2015 1490
2025 1490
2035 1490
2045 1490
2055 1490
2065 1490
2075 1490
2085 1490
2094 1485
2104 1485
2114 1485
2124 1485
2134 1485
2144 1485
2153 1480
2163 1480
2173 1480
2182 1475
2192 1475
2202 1474
2212 1469
2222 1465
2231 1460
2240 1455
2250 1450
2258 1443
2265 1435
2273 1428
2280 1420
2288 1413
2295 1405
2304 1400
2312 1394
2320 1385
2330 1380
2340 1375
2350 1375
2358 1368
2368 1365
2377 1360
2387 1359
2397 1355
2406 1350
2415 1345
2425 1345
2433 1338
2443 1335
2453 1333
2463 1330
2472 1325
2481 1320
2490 1315
2500 1310
2510 1305
2520 1305
2528 1298
2525 1285
2525 1275
2535 1264
2526 1259
2517 1254
2508 1249
2498 1249
2489 1244
2480 1239
2471 1234
2461 1234
2452 1229
2442 1229
2432 1229
2423 1224
2414 1219
2404 1219
2395 1214
2385 1214
2375 1212
2365 1209
2356 1204
2346 1204
2337 1199
2327 1199
2318 1194
2308 1194
2299 1189
2289 1189
2280 1184
2270 1184
2261 1179
2251 1179
2242 1174
2232 1174
2223 1169
2213 1166
2204 1161
2194 1159
2184 1156
2174 1152
2165 1147
2155 1144
2146 1139
2137 1134
2127 1134
2118 1129
2108 1129
2099 1124
2089 1121
2079 1119
2069 1119
2059 1116
2049 1114
2039 1114
2029 1114
2019 1114
2009 1114
1999 1114
1989 1114
1979 1114
1969 1114
1959 1114
1949 1114
1939 1114
1929 1114
1919 1114
1909 1114
1899 1114
1889 1117
1879 1119
1869 1119
1859 1119
1849 1119
1839 1122
1829 1124
1819 1124
1809 1124
1799 1124
1789 1127
1779 1129
1769 1129
1759 1129
1750 1134
1740 1134
1730 1134
1720 1130
1720 1120
1730 1115
1739 1110
1749 1107
1759 1102
1767 1095
1776 1090
1785 1085
1795 1080
1804 1075
1813 1070
1822 1065
1831 1060
1840 1055
1849 1050
1858 1045
1865 1035
1875 1030
1885 1025
1895 1020
1904 1015
1913 1010
1920 1000
1930 995
1939 990
1947 984
1957 979
1965 965
1975 960
1983 953
1993 948
2000 940
2008 933
2015 925
2023 918
2030 910
2035 900
2043 893
2050 880
2055 870
2063 863
2070 850
2075 840
2083 833
2088 823
2095 815
2100 800
2108 793
2115 785
2123 778
2128 768
2135 760
2140 750
2149 745
2155 735
2163 728
2168 718
2178 713
2183 703
2189 695
2197 689
2202 679
2207 670
2216 665
2220 655
2230 645
2235 635
2244 630
2250 620
2255 610
2260 600
2270 590
2278 583
2283 573
2288 563
2293 553
2303 548
2308 538
2310 525
2310 514
2300 514
2290 514
2280 516
2270 519
2260 519
2250 521
2240 524
2230 526
2220 529
2210 529
2201 534
2191 534
2182 539
2172 539
2162 544
2153 549
2143 549
2133 549
2124 554
2114 554
2105 559
2095 559
2086 564
2076 564
2066 564
2056 564
2046 564
2036 564
2026 564
2016 564
2006 564
1996 564
1987 559
1977 559
1967 559
1957 559
1947 559
1937 559
1928 564
1918 564
1909 569
1900 574
1890 576
1882 584
1872 584
1864 592
1854 597
1845 604
1835 606
1825 611
1817 619
1808 624
1800 631
1790 636
1782 644
1772 649
1762 654
1753 659
1745 666
1737 674
1728 679
1719 684
1710 689
1700 685
1700 675
1700 665
1700 655
1705 645
1710 635
1710 625
1715 610
1720 595
1720 585
1725 570
1730 560
1730 550
1735 535
1735 525
1740 510
1745 500
1745 490
1745 480
1750 468
1750 458
1750 448
1750 438
1750 428
1750 418
1745 409
1745 399
1740 390
1735 381
1730 372
1725 363
1720 354
1715 345
1715 335
1710 326
1708 316
1705 306
1705 296
1703 286
1700 276
1700 266
1700 256
1700 246
1700 236
1698 226
1695 216
1695 206
1695 196
1695 186
1695 176
1695 166
1695 156
1690 147
1690 137
1690 127
1690 117
1689 107
1685 97
1685 87
1684 77
1680 67
1680 57
1674 49
1664 52
1657 64
1652 74
1642 79
1638 89
1630 96
1622 104
1617 114
1609 122
1604 132
1595 141
1590 151
1585 161
1577 169
1569 177
1564 187
1559 197
1554 207
1544 217
1539 227
1532 239
1527 249
1522 259
1517 269
1509 277
1502 289
1498 299
1490 306
1485 316
1477 324
1472 334
1464 342
1458 354
1450 361
1445 371
1437 379
1432 389
1422 394
1417 404
1409 412
1399 422
1392 434
1387 444
1382 454
1377 464
1369 472
1367 484
1359 492
1357 509
1349 517
1347 534
1339 542
1339 552
1334 562
1334 572
1329 582
1329 592
1324 602
1319 612
1319 622
1314 632
1314 642
1309 657
1309 667
1304 677
1304 687
1299 697
1299 707
1299 717
1294 727
1294 737
1289 747
1289 757
1284 772
1284 782
1279 797
1271 804
1265 796
1265 786
1265 776
1260 767
1260 757
1259 747
1255 737
1255 727
1250 718
1250 708
1250 698
1245 689
1245 679
1240 670
1240 660
1235 651
1235 641
1233 631
1230 621
1229 611
1224 602
1220 592
1219 582
1215 572
1214 562
1210 552
1210 542
1202 535
1200 525
1198 515
1190 508
1190 498
1185 489
1180 480
1178 470
1170 463
1165 454
1162 444
1157 435
1150 427
1143 419
1138 410
1130 404
1126 394
1117 389
1112 380
1105 372
1100 363
1093 355
1085 349
1081 339
1075 331
1070 322
1062 315
1058 305
1050 298
1045 289
1040 280
1034 272
1030 262
1025 253
1020 244
1014 236
1009 227
1005 217
995 213
990 204
987 194
982 185
978 175
970 169
964 161
959 152
955 142
945 139
942 129
937 120
930 112
923 104
918 95
910 89
906 79
897 74
892 65
885 57
879 49
869 52
869 62
864 77
864 87
864 97
859 107
859 117
859 127
859 137
854 152
854 162
854 172
854 182
854 192
854 202
854 212
849 227
849 237
849 247
849 257
849 267
849 277
844 287
844 297
844 307
839 317
834 332
832 349
824 357
819 367
814 377
809 387
804 397
799 412
799 422
799 432
799 442
799 452
799 462
799 472
804 481
804 491
804 501
809 510
809 520
814 529
814 539
816 549
819 559
821 569
824 579
829 588
829 598
830 608
834 618
839 627
839 637
844 646
849 655
849 665
849 675
847 689
837 689
828 684
820 677
810 673
803 665
795 659
786 654
777 649
767 645
760 637
750 634
743 626
734 621
726 614
717 609
708 604
698 600
690 594
681 589
672 584
662 580
654 574
644 572
635 567
625 564
615 564
606 559
596 559
587 554
577 559
567 559
557 559
548 564
538 564
528 564
518 564
508 564
498 564
488 564
478 564
468 564
458 560
448 559
438 555
428 554
418 550
408 549
398 549
389 544
379 541
369 539
360 534
350 534
341 529
331 529
321 529
312 524
302 524
293 519
283 519
273 519
264 514
254 514
244 514
234 517
239 526
239 536
244 545
253 550
259 558
264 567
269 576
274 585
279 594
287 600
292 609
296 619
301 628
310 633
315 642
319 652
329 655
332 665
341 670
346 679
351 688
359 695
365 703
370 712
379 717
384 726
391 734
396 743
405 748
410 757
417 765
424 773
429 782
437 789
444 797
449 806
454 815
460 823
465 832
472 840
477 849
481 859
489 865
494 874
499 883
504 892
512 899
516 909
524 915
530 923
538 930
545 938
553 945
562 950
570 957
577 965
585 972
592 980
602 984
610 990
619 995
628 1000
632 1010
642 1014
651 1019
659 1025
668 1030
677 1035
685 1042
694 1047
704 1050
710 1058
720 1062
729 1067
739 1070
748 1075
755 1083
765 1087
774 1092
784 1095
790 1103
800 1107
810 1110
819 1115
828 1120
829 1130
819 1134
809 1134
799 1134
790 1129
780 1129
770 1129
760 1129
751 1124
741 1124
731 1124
721 1124
711 1124
702 1119
692 1119
682 1119
672 1119
662 1119
653 1114
643 1114
633 1114
623 1114
613 1114
603 1114
593 1114
583 1114
573 1114
563 1114
553 1114
543 1114
533 1114
523 1114
513 1114
503 1114
493 1114
484 1119
474 1119
464 1119
455 1124
445 1126
435 1129
425 1131
415 1134
406 1139
397 1144
387 1144
378 1149
369 1154
360 1159
350 1159
341 1164
332 1169
322 1169
312 1174
303 1179
293 1179
283 1179
274 1184
264 1187
254 1189
244 1192
234 1194
224 1197
214 1199
204 1202
194 1204
184 1207
174 1212
164 1214
154 1214
145 1219
135 1219
126 1224
117 1229
107 1229
97 1229
87 1234
77 1234
67 1239
57 1244
47 1249
37 1249
27 1254
29 1265
26 1279
