24 167
24 157
29 147
29 137
37 129
39 117
47 109
52 99
60 91
68 84
75 76
85 71
93 64
102 59
112 59
121 54
131 54
141 54
150 59
160 59
169 64
178 69
187 74
196 79
204 86
210 94
218 100
225 108
230 117
237 125
245 132
250 141
256 149
264 156
270 164
275 173
283 180
290 188
295 197
302 205
310 212
314 222
324 226
328 236
335 244
343 250
350 258
358 265
362 275
370 282
377 290
385 297
392 305
400 312
407 320
415 327
419 337
427 344
435 350
440 359
448 365
455 373
465 377
472 385
480 392
488 399
497 404
504 412
512 419
521 424
530 429
539 434
548 439
557 444
567 444
576 449
586 449
596 449
605 454
615 454
625 454
635 454
644 459
654 459
664 459
674 459
684 459
694 459
704 459
713 464
723 464
733 464
743 464
753 464
763 465
758 478
750 485
742 494
734 502
724 507
716 515
706 515
697 520
688 525
678 528
668 530
658 530
649 535
639 535
629 535
620 540
610 540
600 540
590 540
580 540
570 540
570 550
570 560
575 569
575 579
570 595
565 610
565 620
565 630
565 640
565 650
570 659
570 669
565 685
565 695
560 705
553 713
545 720
536 725
526 725
516 725
506 723
496 719
489 711
484 702
484 692
484 682
484 672
489 661
489 651
489 641
489 631
489 621
489 611
489 601
489 591
484 582
477 574
467 570
457 570
448 565
438 565
428 565
418 565
408 565
398 565
388 565
378 565
369 570
360 575
362 585
370 592
378 599
387 604
396 609
404 616
410 624
415 633
415 643
415 653
410 670
410 680
409 697
404 707
399 717
391 725
382 730
372 730
363 725
353 725
344 720
334 716
329 707
329 697
329 687
334 676
334 666
329 657
322 649
314 642
307 634
299 627
290 622
284 614
279 605
274 596
269 587
269 577
274 567
279 552
287 544
292 534
299 523
294 514
289 505
281 498
276 489
272 479
264 472
264 462
259 453
254 444
254 434
249 425
249 415
249 405
249 395
249 385
247 375
244 365
240 355
230 355
220 360
215 370
215 380
217 390
222 399
225 409
222 419
212 420
205 412
202 400
199 390
190 395
190 405
195 414
186 424
179 416
174 407
174 397
177 385
167 389
159 382
159 372
164 362
174 357
182 349
192 349
201 344
210 339
220 336
230 334
239 325
238 315
228 315
218 315
208 315
198 318
190 325
183 333
175 340
169 332
169 322
167 310
159 317
149 316
144 307
152 299
161 294
170 289
180 289
190 289
200 289
210 289
220 289
230 289
239 283
239 273
239 263
233 255
225 248
218 240
209 235
200 230
190 230
185 245
180 255
176 265
167 270
159 277
149 280
140 285
130 283
124 275
119 266
114 257
117 244
109 220
109 210
100 205
95 215
90 225
88 238
80 245
74 260
68 268
58 270
49 265
41 259
32 254
24 247
24 237
24 227
24 217
24 207
24 197
24 187
24 177
