104 267
107 284
115 290
123 283
130 275
138 268
148 263
155 255
163 248
170 240
178 233
183 223
193 218
200 210
210 210
219 215
222 225
224 235
229 244
231 254
234 264
239 273
239 283
244 292
244 302
249 311
249 321
249 331
244 347
239 357
237 369
232 379
227 389
222 399
217 409
212 419
207 429
202 439
197 449
189 457
184 467
182 479
177 489
172 499
167 509
162 519
154 527
149 542
149 552
149 562
149 572
155 580
165 575
174 570
180 560
188 553
195 545
200 535
205 525
213 518
218 508
225 495
233 488
238 478
245 465
253 458
258 448
263 438
270 425
275 415
283 408
290 400
300 400
309 405
312 415
320 422
327 430
335 437
342 445
347 454
354 462
359 471
369 475
372 485
380 492
387 500
392 509
399 517
405 525
414 530
417 540
425 547
432 555
440 562
449 567
457 574
467 575
475 569
475 559
470 550
467 540
463 530
455 524
451 514
445 506
440 497
435 488
428 480
423 471
419 461
411 454
405 446
400 437
392 430
388 420
380 413
375 404
370 395
364 387
360 377
355 368
350 359
345 350
342 340
340 330
340 320
340 310
345 300
345 290
350 275
350 265
355 250
355 240
360 225
360 215
360 205
370 200
380 202
389 207
397 214
406 219
416 223
424 230
433 235
443 233
449 222
445 212
437 205
430 197
422 190
415 182
407 175
400 167
392 160
384 154
375 149
365 149
355 149
345 149
335 149
335 139
330 130
330 120
335 109
335 99
330 90
328 80
320 73
315 64
306 59
297 54
287 54
278 59
270 66
262 74
254 82
249 97
249 107
254 116
254 126
247 139
237 144
227 144
217 144
208 149
198 149
190 156
182 164
173 169
165 176
160 186
155 196
147 204
143 214
135 221
130 231
122 239
117 249
109 257
