104 272
104 262
109 252
117 244
125 236
133 229
137 219
144 207
152 199
159 187
164 177
172 169
181 164
189 157
197 149
207 149
216 144
226 144
236 144
246 140
254 126
249 117
249 107
249 97
249 87
257 79
265 71
273 64
280 56
290 54
300 54
309 59
317 65
322 74
329 82
334 91
335 101
335 111
330 125
332 135
340 142
350 144
360 144
370 144
380 147
389 152
397 159
406 164
414 171
418 181
425 189
433 195
437 205
445 212
450 221
456 229
460 239
468 245
472 255
480 262
485 271
490 280
495 289
487 300
478 305
470 298
464 290
454 287
447 279
439 272
434 263
428 255
420 248
414 240
406 234
402 224
394 217
385 212
375 210
365 210
360 220
360 230
355 240
355 250
350 265
350 275
345 290
345 300
340 310
340 320
340 330
335 340
340 349
345 358
345 368
350 377
355 386
360 395
365 404
370 413
375 422
379 432
385 440
390 449
395 458
400 467
405 476
411 484
415 494
420 503
425 512
429 522
430 532
422 540
412 540
405 532
395 528
394 518
387 510
384 500
374 496
369 487
365 477
357 470
354 460
346 454
342 444
334 437
329 428
322 420
318 410
310 403
303 395
294 400
285 405
278 413
273 423
265 430
258 438
253 448
245 455
238 463
230 470
223 483
215 490
208 498
203 508
195 515
188 523
180 530
172 539
162 544
152 544
144 537
144 527
149 512
154 502
159 492
167 484
172 474
177 464
182 454
189 442
197 434
202 424
209 412
217 404
222 394
227 384
234 372
239 357
244 347
249 331
249 321
249 311
244 302
244 292
239 283
239 273
234 264
231 254
229 244
224 235
222 225
219 215
210 210
200 210
193 218
183 223
178 233
170 240
163 248
155 255
148 263
138 268
130 275
122 284
112 289
104 282
