24 307
24 297
29 287
37 279
47 274
49 257
49 247
49 237
49 227
49 217
49 207
49 197
49 187
49 177
49 167
54 152
59 142
64 132
72 124
79 107
84 97
92 89
101 84
110 79
119 72
127 64
137 59
147 54
157 54
166 49
175 44
185 41
195 36
205 31
215 29
225 29
235 29
244 34
254 34
263 39
272 44
275 54
285 57
295 59
305 59
314 64
323 69
332 74
341 79
350 84
355 93
363 100
367 110
370 120
370 130
375 139
375 149
375 159
375 169
375 179
375 189
375 199
375 209
375 219
375 229
375 239
375 249
375 259
380 268
385 277
390 286
393 296
395 306
395 316
390 325
385 340
380 350
380 360
375 375
375 385
368 393
360 400
355 410
355 420
350 435
350 445
348 458
340 465
333 478
325 485
325 495
325 505
320 520
320 530
320 540
315 555
310 565
305 575
298 583
290 590
280 595
272 604
264 610
255 615
246 620
237 625
228 630
219 635
209 637
199 640
190 635
181 630
172 625
163 620
155 613
149 605
139 602
132 594
124 587
120 577
115 568
111 558
106 549
99 541
99 516
99 506
99 496
99 486
99 476
99 466
99 456
99 446
94 437
90 427
85 418
78 410
69 405
61 399
57 389
49 382
44 373
39 364
36 354
29 346
24 337
24 327
24 317
