69 782
69 772
74 757
74 747
79 737
84 727
92 719
97 709
105 701
113 694
123 694
133 694
134 679
129 670
129 660
127 650
124 640
124 630
122 620
119 610
117 600
114 590
114 580
114 570
114 560
114 550
109 541
109 531
109 521
109 511
109 501
109 491
104 482
104 472
104 462
104 452
104 442
104 432
104 422
104 412
104 402
104 392
104 382
109 372
114 362
114 352
122 344
127 334
132 324
137 314
139 302
147 294
154 282
159 272
167 264
172 254
180 246
188 239
195 231
200 221
208 214
215 206
223 199
229 187
237 179
245 171
253 164
260 156
270 151
278 144
287 139
297 134
305 126
315 124
324 117
334 114
343 109
352 104
361 99
371 99
380 94
389 89
398 84
407 79
417 79
426 74
435 69
445 69
455 69
465 66
475 64
485 64
495 64
505 64
515 64
525 64
535 64
544 69
554 69
564 69
574 69
584 69
594 69
604 71
613 76
620 84
629 89
637 95
645 102
654 107
664 111
670 119
680 122
687 130
695 137
699 147
704 156
714 159
724 159
734 159
744 159
754 159
764 159
774 161
783 166
790 174
800 177
810 179
818 185
825 193
833 200
840 208
850 212
858 219
868 220
875 228
883 235
890 243
898 250
902 260
905 270
910 279
915 288
923 295
925 305
927 315
930 325
930 335
935 344
935 354
940 363
940 373
940 383
940 393
940 403
940 413
940 423
940 433
940 443
940 453
940 463
940 473
940 483
940 493
940 503
940 513
940 523
940 533
940 543
945 552
945 562
945 572
945 582
945 592
945 602
945 612
945 622
945 632
945 642
945 652
945 662
945 672
952 680
960 687
965 696
968 706
975 714
980 723
985 732
985 742
985 752
990 761
990 771
990 781
990 791
990 801
990 811
990 821
990 831
990 841
985 855
980 870
975 880
975 890
970 900
970 910
965 920
963 933
958 943
950 950
943 958
935 965
927 974
919 980
910 985
903 993
898 1003
890 1010
885 1025
885 1035
885 1045
885 1055
885 1065
885 1075
880 1090
880 1100
875 1115
870 1130
865 1145
858 1153
853 1163
848 1173
843 1183
835 1190
828 1198
820 1205
820 1215
820 1225
820 1235
820 1245
815 1260
815 1270
810 1280
810 1290
810 1300
810 1310
805 1320
805 1330
800 1340
800 1350
798 1363
790 1370
785 1385
780 1395
778 1408
773 1418
768 1428
763 1438
755 1445
748 1453
740 1460
730 1465
720 1470
710 1475
703 1483
693 1488
685 1495
675 1500
665 1505
657 1514
649 1520
640 1525
630 1530
623 1538
615 1545
605 1550
596 1555
587 1560
579 1567
569 1572
559 1577
549 1580
540 1585
531 1590
521 1593
511 1590
501 1588
491 1584
482 1579
472 1575
462 1575
453 1570
444 1565
435 1560
425 1557
415 1553
409 1545
399 1542
392 1534
384 1527
379 1518
372 1510
363 1505
355 1498
348 1490
340 1483
333 1475
325 1468
318 1460
310 1453
304 1445
299 1436
299 1426
294 1417
289 1408
285 1398
279 1390
279 1380
274 1371
269 1362
262 1354
254 1347
254 1337
254 1327
254 1317
259 1302
259 1292
264 1275
264 1265
264 1255
264 1245
264 1235
264 1225
264 1215
264 1205
264 1195
264 1185
264 1175
264 1165
264 1155
264 1145
264 1135
262 1125
259 1115
258 1105
250 1098
244 1090
243 1080
235 1073
234 1063
228 1055
220 1048
219 1038
212 1030
203 1025
194 1020
185 1015
175 1013
169 1005
160 1000
154 992
149 983
143 975
135 968
134 958
129 949
124 940
122 930
115 922
110 913
104 905
99 896
94 887
87 879
82 870
79 860
74 851
74 841
74 831
69 822
69 812
69 802
69 792
