69 782
69 772
74 757
74 747
79 737
84 727
92 719
97 709
105 701
113 694
123 694
133 694
134 679
129 670
129 660
127 650
124 640
124 630
122 620
119 610
117 600
114 590
114 580
114 570
114 560
114 550
109 541
109 531
109 521
109 511
109 501
109 491
104 482
104 472
104 462
104 452
104 442
104 432
104 422
104 412
104 402
104 392
104 382
109 372
114 362
114 352
122 344
127 334
132 324
137 314
139 302
147 294
154 282
159 272
167 264
172 254
180 246
188 239
195 231
200 221
208 214
215 206
223 199
229 187
237 179
245 171
253 164
260 156
270 151
278 144
287 139
297 134
305 126
315 124
324 117
334 114
343 109
352 104
361 99
371 99
380 94
389 89
398 84
407 79
417 79
426 74
435 69
445 69
455 69
465 66
475 64
485 64
495 64
505 64
515 64
525 64
535 64
544 69
554 69
564 69
574 69
584 69
594 69
604 71
613 76
620 84
629 89
637 95
645 102
654 107
664 111
670 119
680 122
687 130
695 137
699 147
704 156
714 154
724 152
734 149
744 147
754 144
764 144
774 144
784 146
794 149
803 154
813 154
823 155
832 160
842 164
851 169
860 174
870 177
879 182
887 189
894 197
904 201
910 209
918 215
925 223
930 232
937 240
945 247
950 256
955 265
957 275
960 285
965 294
965 304
965 314
965 324
970 333
970 343
970 353
970 363
970 373
970 383
970 393
970 403
970 413
970 423
970 433
970 443
970 453
970 463
970 473
965 485
965 495
965 505
960 520
960 530
960 540
960 550
955 560
955 570
955 580
950 590
950 600
945 615
945 625
945 635
945 645
945 655
945 665
945 675
953 681
960 689
965 698
970 707
977 715
980 725
985 734
985 744
985 754
990 763
990 773
990 783
990 793
990 803
990 813
990 823
990 833
980 840
975 850
968 863
963 873
955 880
950 890
945 905
940 915
940 925
940 935
935 945
935 955
935 965
927 974
919 980
910 985
903 993
898 1003
890 1010
885 1025
885 1035
885 1045
885 1055
885 1065
885 1075
880 1090
880 1100
875 1115
870 1130
865 1145
858 1153
853 1163
848 1173
843 1183
835 1190
828 1198
820 1205
820 1215
820 1225
820 1235
820 1245
815 1260
815 1270
810 1280
810 1290
810 1300
810 1310
805 1320
805 1330
800 1340
800 1350
798 1363
790 1370
785 1385
780 1395
778 1408
773 1418
768 1428
763 1438
755 1445
748 1453
740 1460
730 1465
720 1470
710 1475
703 1483
693 1488
685 1495
675 1500
665 1505
657 1514
649 1520
640 1525
630 1530
623 1538
615 1545
605 1550
596 1555
587 1560
579 1567
569 1572
559 1577
549 1580
540 1585
530 1588
523 1580
513 1580
504 1575
494 1572
487 1564
477 1560
470 1552
462 1545
455 1537
450 1528
444 1520
436 1513
431 1504
427 1494
419 1487
414 1478
410 1468
404 1460
396 1454
394 1444
389 1435
387 1425
383 1415
375 1408
369 1400
361 1394
354 1386
349 1377
342 1369
334 1362
327 1354
319 1347
315 1337
310 1328
304 1320
295 1315
287 1309
282 1300
279 1290
278 1280
270 1273
264 1265
264 1255
264 1245
264 1235
264 1225
264 1215
264 1205
264 1195
264 1185
264 1175
264 1165
264 1155
264 1145
264 1135
262 1125
259 1115
258 1105
250 1098
244 1090
243 1080
235 1073
234 1063
228 1055
220 1048
219 1038
212 1030
203 1025
194 1020
185 1015
175 1013
169 1005
160 1000
154 992
149 983
143 975
135 968
134 958
129 949
124 940
122 930
115 922
110 913
104 905
99 896
94 887
87 879
82 870
79 860
74 851
74 841
74 831
69 822
69 812
69 802
69 792
