244 777
244 767
252 759
260 751
268 744
278 744
288 744
298 744
304 730
299 721
299 711
299 701
294 692
294 682
294 672
294 662
294 652
294 642
294 632
294 622
294 612
294 602
294 592
294 582
294 572
294 562
294 552
294 542
294 532
294 522
299 507
304 497
304 487
309 477
314 462
319 452
319 442
324 427
329 417
334 407
334 397
342 389
347 379
352 369
359 357
367 349
375 341
380 331
388 324
394 312
402 304
410 296
418 289
425 281
433 274
440 266
448 259
455 251
463 244
467 234
475 226
483 219
490 211
495 201
503 194
510 186
518 179
525 171
533 164
539 152
547 144
557 144
567 144
577 144
586 139
594 132
604 132
614 127
624 122
634 119
643 114
653 114
662 109
672 109
682 109
692 109
702 109
711 114
721 114
731 114
740 119
750 119
760 122
770 124
780 127
789 132
797 139
806 144
815 149
823 155
830 163
835 172
843 179
853 179
862 174
871 169
881 169
891 169
901 169
911 169
920 174
930 174
939 179
947 185
955 192
963 199
973 200
982 205
990 212
997 220
1005 227
1014 232
1020 240
1025 249
1030 258
1035 267
1042 275
1047 284
1054 292
1055 302
1060 311
1063 321
1068 330
1075 338
1080 347
1084 357
1085 367
1090 376
1096 384
1100 394
1100 404
1100 414
1100 424
1100 434
1100 444
1100 454
1100 464
1100 474
1100 484
1100 494
1100 504
1100 514
1100 524
1100 534
1100 544
1100 554
1100 564
1100 574
1105 583
1105 593
1105 603
1105 613
1105 623
1105 633
1105 643
1105 653
1105 663
1105 673
1110 682
1110 692
1115 701
1125 704
1135 704
1145 707
1154 712
1164 714
1172 720
1180 727
1180 737
1180 747
1180 757
1180 767
1180 777
1180 787
1180 797
1180 807
1180 817
1180 827
1180 837
1175 855
1173 868
1165 875
1163 888
1155 895
1153 908
1145 915
1140 925
1140 935
1140 945
1135 960
1135 970
1130 980
1128 993
1123 1003
1118 1013
1110 1020
1105 1030
1097 1039
1089 1047
1084 1057
1074 1060
1065 1055
1060 1065
1060 1075
1055 1090
1055 1100
1050 1115
1048 1128
1043 1138
1035 1145
1033 1158
1028 1168
1020 1175
1015 1185
1010 1200
1010 1210
1010 1220
1010 1230
1010 1240
1010 1250
1010 1260
1010 1270
1010 1280
1010 1290
1010 1300
1005 1315
1005 1325
1000 1335
998 1348
990 1355
988 1373
983 1383
975 1390
970 1400
963 1413
958 1423
950 1430
943 1443
935 1450
930 1460
923 1468
918 1478
910 1485
903 1493
895 1500
888 1510
879 1515
873 1523
865 1530
855 1535
845 1540
835 1545
828 1553
820 1560
811 1565
802 1570
792 1574
782 1579
772 1580
764 1587
754 1590
744 1592
734 1595
725 1600
715 1600
705 1600
695 1597
685 1593
679 1585
670 1580
660 1578
653 1570
644 1565
636 1559
627 1554
619 1547
612 1539
602 1535
593 1530
585 1523
578 1515
570 1508
564 1500
555 1495
547 1489
539 1482
532 1474
524 1467
517 1459
509 1452
502 1444
494 1437
487 1429
479 1422
472 1414
467 1405
464 1395
459 1386
454 1377
454 1367
454 1357
454 1347
454 1337
454 1327
454 1317
454 1307
459 1292
459 1282
464 1264
459 1255
450 1250
442 1244
437 1235
428 1230
420 1223
416 1213
411 1204
404 1196
399 1187
395 1177
389 1169
386 1159
384 1149
384 1139
384 1129
384 1119
384 1109
379 1100
369 1097
362 1089
354 1082
347 1074
339 1067
335 1057
330 1048
323 1040
315 1033
311 1023
306 1014
302 1004
294 997
290 987
284 979
279 970
277 960
274 950
274 940
269 931
269 921
269 911
264 902
264 892
264 882
265 872
260 863
254 855
254 845
249 836
244 827
244 817
244 807
244 797
244 787
