177 149
177 164
185 170
195 170
204 175
209 184
214 193
209 202
204 217
199 232
199 242
194 252
194 276
189 287
189 297
189 307
199 310
209 312
214 302
224 297
232 290
229 307
229 317
229 327
229 346
229 356
229 366
224 382
224 392
219 412
219 422
219 432
214 442
214 452
214 462
214 472
219 490
229 490
239 492
244 482
249 472
257 465
259 475
262 485
264 506
269 515
272 525
274 535
279 544
285 552
292 560
301 565
310 570
320 572
330 575
340 575
350 575
360 575
370 575
379 570
389 567
399 567
407 559
415 545
420 535
425 525
430 515
430 505
430 495
435 480
435 465
440 455
440 440
445 430
445 420
450 410
455 400
460 390
460 380
465 370
465 360
470 345
470 335
467 325
465 315
467 305
465 295
460 286
459 276
454 267
447 259
442 250
440 240
449 235
458 230
465 220
475 220
485 222
495 225
505 227
514 232
524 235
530 243
540 242
550 245
558 238
560 228
560 218
555 209
549 201
544 192
535 187
527 180
520 172
512 165
503 160
495 154
490 145
487 135
480 127
472 120
464 114
455 109
446 104
436 104
427 99
418 94
408 90
398 89
388 89
378 85
368 84
358 84
348 84
338 84
328 84
318 84
309 89
299 89
289 92
279 94
270 99
260 101
250 106
240 111
230 116
222 124
212 124
202 129
193 134
185 141
