4 177
4 167
9 157
9 147
9 137
14 127
14 117
14 107
19 97
24 87
29 77
37 69
47 69
57 69
67 69
76 74
86 74
94 81
103 86
113 89
122 94
132 94
141 99
150 104
160 107
168 114
178 115
188 119
197 124
207 124
217 124
227 124
237 119
247 119
256 114
249 106
244 97
244 87
244 77
254 72
264 69
273 64
283 64
292 59
302 54
312 49
322 49
332 49
342 49
351 44
361 44
371 44
381 44
391 44
401 44
411 44
421 44
431 44
441 44
451 44
460 39
470 39
480 36
490 34
499 29
509 27
519 24
529 24
539 22
549 19
558 24
568 24
578 25
585 33
590 42
597 50
600 60
610 64
616 55
624 47
634 42
644 39
654 37
664 34
674 34
683 29
693 29
702 24
712 24
722 24
732 24
742 24
752 19
762 19
772 19
782 19
792 14
802 14
812 14
822 14
832 9
842 9
851 4
861 4
871 4
881 4
890 9
898 15
907 20
915 27
919 37
924 46
930 54
935 63
945 64
955 64
965 64
974 59
984 57
994 54
1003 49
1013 49
1023 49
1033 49
1043 49
1052 44
1062 44
1071 49
1081 49
1089 56
1095 64
1103 70
1110 78
1115 87
1122 95
1130 102
1134 112
1139 121
1143 131
1145 141
1150 150
1150 160
1150 175
1150 185
1142 194
1134 202
1126 210
1117 215
1108 220
1098 223
1088 228
1080 235
1070 240
1060 240
1050 245
1040 245
1030 245
1020 250
1010 250
1000 250
990 250
990 260
985 270
957 330
954 320
954 310
945 315
939 307
947 299
955 291
965 286
970 276
972 260
963 265
953 265
944 270
934 270
925 275
915 275
906 280
896 280
886 280
877 285
867 285
858 290
848 290
839 285
830 290
820 290
810 290
800 290
790 290
780 290
770 290
760 290
750 290
740 290
730 290
720 290
710 290
700 290
690 290
680 290
670 290
660 287
650 285
640 285
630 285
620 285
610 285
600 285
600 295
599 307
589 305
579 307
569 305
565 295
555 300
548 308
538 310
529 315
519 315
510 320
500 320
490 320
481 325
471 325
461 328
451 325
441 325
431 325
421 325
411 328
401 330
391 330
382 325
372 324
362 320
352 320
342 319
332 315
322 315
313 310
304 305
296 298
286 294
277 289
267 285
258 280
249 275
240 270
232 264
224 257
224 247
242 240
232 240
222 234
212 230
203 225
194 220
184 222
174 225
164 225
154 225
144 225
135 230
125 230
115 230
105 235
95 235
85 235
75 235
65 235
55 235
45 235
35 238
28 230
20 223
14 215
9 206
9 196
4 187
