4 197
4 187
12 179
17 169
22 159
31 154
41 154
51 154
61 154
70 159
80 159
90 162
99 167
109 171
119 174
129 176
139 179
149 181
159 184
168 189
178 189
182 179
184 162
192 154
202 149
212 144
221 139
230 134
240 131
250 129
259 124
269 124
278 119
287 114
297 109
307 109
317 104
327 104
336 99
346 99
356 95
366 90
376 85
386 84
395 79
405 76
415 71
425 66
433 59
443 59
452 54
462 54
472 54
481 59
491 59
499 66
505 74
515 77
524 82
534 86
540 94
548 100
555 108
561 100
569 92
577 84
587 79
597 79
606 74
616 70
626 65
636 60
646 59
656 55
666 54
676 50
686 49
696 49
705 44
715 44
725 41
733 34
743 34
752 29
762 29
771 24
780 19
789 12
797 4
807 4
817 4
826 9
830 19
838 25
847 30
852 39
859 47
867 54
874 62
880 70
888 76
894 84
904 84
914 82
924 79
934 79
944 79
954 77
964 74
974 74
984 74
994 74
1004 74
1014 74
1024 74
1034 74
1044 72
1054 69
1063 74
1073 75
1080 83
1085 92
1085 102
1092 110
1100 117
1107 125
1115 132
1120 141
1123 151
1130 159
1138 165
1142 175
1150 182
1155 191
1160 200
1165 209
1162 219
1157 229
1149 237
1139 242
1129 245
1119 247
1109 250
1099 250
1090 255
1080 255
1070 255
1061 260
1051 260
1042 265
1033 270
1023 270
1013 270
1003 270
993 273
983 275
973 275
963 275
954 270
944 270
935 275
935 285
930 300
928 313
923 323
915 330
915 340
908 348
900 355
892 364
892 349
899 340
899 330
890 335
880 345
874 337
882 329
890 321
898 314
902 304
912 299
914 287
912 275
902 279
892 280
884 287
874 292
864 295
854 297
844 300
834 300
825 305
815 305
805 305
795 305
785 305
776 310
766 310
756 310
746 310
736 310
726 310
716 310
707 315
698 310
688 310
679 305
669 305
659 305
649 305
640 310
632 324
627 334
622 344
614 352
604 357
596 365
587 370
578 375
568 375
558 378
548 380
538 380
528 380
518 380
508 380
498 380
488 380
478 380
468 380
458 380
448 380
438 380
428 380
418 380
408 380
399 375
389 375
379 375
369 375
359 375
350 370
340 370
330 367
320 363
311 358
301 355
292 350
282 350
273 345
264 340
256 334
247 329
237 325
228 320
220 313
214 305
206 299
199 291
194 282
204 278
210 270
197 270
188 265
178 265
168 268
158 270
149 275
139 277
129 280
120 285
113 293
103 295
94 300
84 300
75 305
65 305
55 305
45 303
39 295
29 292
24 283
19 274
14 265
14 255
9 246
9 236
9 226
4 217
4 207
