24 47
24 37
34 34
44 36
53 41
63 45
70 53
80 57
85 66
95 69
103 75
110 83
120 87
127 95
135 102
145 104
155 104
165 107
170 116
170 126
176 134
184 141
190 149
195 158
203 165
210 173
218 180
225 188
230 197
237 205
245 212
250 221
256 229
264 236
270 244
275 253
283 259
292 264
301 269
310 274
320 277
320 290
310 290
310 300
315 309
320 318
325 327
330 336
335 345
340 354
345 363
350 372
354 382
360 390
368 396
375 404
385 407
394 412
404 414
414 414
423 419
432 424
441 429
451 429
459 436
464 450
454 450
444 450
435 445
425 445
415 442
405 440
395 440
390 450
390 460
390 470
390 480
382 494
374 487
370 477
364 469
361 459
359 449
354 440
352 430
349 420
348 410
340 403
333 395
325 388
319 380
309 376
304 367
295 362
287 355
279 348
270 343
264 335
254 332
250 322
240 318
234 310
225 305
215 305
205 303
199 295
191 289
189 279
186 269
182 259
174 252
165 247
155 243
148 235
139 230
134 221
126 215
117 210
108 205
99 200
91 194
89 184
89 174
89 164
87 154
82 145
78 135
70 128
66 118
61 109
54 101
49 92
45 82
39 74
34 65
29 56
