19 352
19 362
29 365
39 365
48 370
57 375
67 375
77 375
86 380
96 380
106 380
116 380
126 380
135 385
145 385
155 387
165 390
174 395
177 405
179 415
179 425
179 435
182 445
184 455
187 465
192 474
194 484
200 492
207 500
215 485
215 475
215 465
220 455
220 445
220 435
225 425
234 420
242 414
250 405
260 400
270 400
280 400
290 400
300 400
310 400
320 400
330 400
340 400
350 400
359 395
368 390
378 390
388 390
398 390
405 398
415 402
425 400
433 393
440 385
445 375
455 375
465 370
475 370
485 372
494 377
504 380
514 382
520 370
529 365
538 360
548 360
557 365
565 372
572 380
580 387
587 395
595 402
605 405
614 410
620 402
615 393
610 384
605 375
605 365
610 355
618 348
625 340
633 333
640 325
650 320
658 313
665 305
673 298
680 290
689 285
699 285
707 279
712 269
720 262
713 254
703 254
694 259
684 262
674 264
665 269
656 274
647 279
638 284
628 284
619 289
610 294
601 299
592 304
582 309
572 314
564 322
554 327
544 329
534 327
527 319
517 315
509 309
499 312
489 317
479 319
469 316
459 314
449 314
439 314
429 314
420 309
410 309
400 309
390 309
380 309
370 309
360 309
350 307
340 304
330 304
320 300
328 290
320 283
315 274
310 265
305 256
305 246
300 237
290 236
282 244
274 252
269 262
264 272
259 287
251 295
241 299
231 299
222 304
212 304
202 304
192 304
183 309
173 309
163 309
154 314
144 314
134 317
124 319
115 324
105 324
96 329
86 329
77 334
67 334
57 339
47 339
38 344
29 349
