4 137
4 127
12 119
14 107
19 97
29 92
37 84
47 84
57 84
66 89
76 89
85 94
95 94
105 94
114 99
124 101
133 106
143 110
153 114
163 114
169 97
177 89
185 81
195 76
205 71
215 66
223 59
232 54
242 54
251 49
261 45
271 44
281 44
290 39
300 39
309 34
319 34
329 32
339 29
349 29
358 24
368 24
378 24
388 24
397 19
407 19
417 14
427 14
437 14
446 9
456 9
466 9
476 9
486 9
496 9
506 9
515 4
525 4
535 4
545 4
555 4
565 4
575 4
585 7
595 9
605 9
615 9
625 9
634 14
644 14
652 20
662 24
671 29
675 39
680 48
690 49
700 49
710 49
720 49
730 49
740 49
750 49
760 49
769 54
779 54
789 54
799 54
809 54
818 59
828 60
838 64
844 56
844 46
839 37
839 27
849 31
855 39
855 49
860 58
860 68
870 69
879 74
889 74
899 76
909 74
918 79
927 84
937 84
947 84
956 89
966 89
975 94
985 94
995 91
1003 84
1010 92
1020 89
1025 100
1018 108
1010 115
1015 124
1015 134
1015 144
1010 160
1015 169
1024 174
1032 180
1026 190
1017 185
1007 185
998 180
988 180
978 183
968 188
958 190
948 193
938 198
928 203
918 205
908 208
898 210
888 210
879 215
869 215
859 217
849 220
840 225
835 235
830 245
823 253
818 263
808 265
799 270
764 292
764 282
772 274
780 266
790 261
794 251
794 241
781 225
771 225
761 225
751 225
741 225
732 230
723 225
714 230
705 225
695 230
685 230
675 230
665 230
655 227
645 225
635 225
625 225
615 225
605 225
598 233
590 240
582 249
572 254
562 255
552 255
542 255
533 250
523 250
513 250
503 250
493 250
483 250
473 250
463 250
454 245
444 245
434 245
424 245
414 245
404 245
395 240
385 240
375 240
365 240
355 240
346 235
336 235
326 235
316 235
306 233
296 230
286 230
276 230
266 230
256 228
246 225
236 225
226 225
217 220
207 220
198 215
189 210
179 206
174 197
170 187
162 180
152 184
142 185
133 190
123 193
113 198
103 203
93 205
83 208
73 210
64 215
54 217
44 220
35 215
26 210
17 205
14 195
9 186
4 177
4 167
4 157
4 147
