14 332
14 322
24 317
34 314
44 314
54 312
64 309
74 309
84 309
93 304
103 304
113 304
123 304
133 304
143 304
153 304
163 304
173 304
183 304
193 304
203 304
213 304
223 304
233 304
243 304
253 304
262 309
272 309
282 309
292 309
302 309
312 309
322 309
331 314
341 314
351 314
361 314
371 314
380 319
390 319
399 314
408 309
417 304
426 299
430 309
438 315
445 323
453 329
463 329
472 334
482 334
492 334
501 329
511 325
521 324
531 320
541 319
550 314
560 314
569 309
579 309
588 304
598 304
608 304
617 299
627 299
637 294
647 294
657 294
667 294
677 294
687 294
697 294
703 308
695 315
685 315
675 320
665 320
655 320
645 325
635 330
626 335
617 340
607 344
598 350
589 355
580 360
570 365
563 373
553 378
545 385
535 390
525 390
516 385
507 380
498 375
489 370
479 370
469 370
460 375
451 380
441 380
431 378
421 375
412 370
402 374
394 382
384 385
375 390
365 390
355 395
345 395
335 392
327 385
317 385
307 385
297 385
287 385
277 385
267 385
258 390
248 390
238 390
228 390
218 393
213 403
205 410
199 422
192 430
183 425
175 418
169 410
161 404
157 394
149 387
140 382
130 380
121 375
111 375
101 375
92 370
82 370
72 369
62 365
52 365
45 357
37 350
33 340
24 335
