111 106
108 96
116 88
125 83
133 76
143 72
153 68
163 64
173 60
183 58
193 50
192 40
201 35
205 25
215 25
225 27
235 30
245 34
253 40
261 46
269 52
279 55
288 50
298 48
307 53
315 60
322 68
328 76
333 85
343 83
352 78
361 73
370 68
380 64
390 65
387 84
385 96
385 106
386 116
388 126
386 143
376 141
366 138
357 133
349 127
341 121
331 120
331 130
327 140
322 151
312 153
302 151
292 148
282 145
272 147
262 147
252 147
242 149
245 159
247 169
243 186
233 183
224 178
214 177
206 185
196 185
190 177
186 167
184 157
177 149
167 147
158 142
148 139
138 135
129 130
123 122
117 114
