194 74
194 64
204 65
210 73
218 62
222 50
232 47
240 40
245 31
251 23
261 22
261 32
265 42
265 52
273 58
282 63
290 69
299 74
301 84
302 94
305 104
304 115
300 125
294 133
288 141
278 145
281 155
283 165
277 180
271 172
266 163
262 153
253 148
247 156
241 164
235 174
228 182
224 166
229 155
231 144
221 149
215 141
205 137
195 138
194 128
196 114
196 104
196 94
196 84
