14 357
14 347
24 342
34 337
44 334
54 332
64 329
74 327
84 324
94 322
104 319
114 317
124 314
134 314
143 309
153 309
162 304
172 304
182 304
192 304
202 304
212 304
222 304
232 299
242 294
252 289
259 277
269 267
277 259
287 254
295 246
303 239
313 239
320 247
315 265
315 275
315 285
317 295
325 302
334 307
344 311
354 314
364 314
373 319
383 319
393 319
403 320
413 324
423 324
433 324
442 329
452 329
462 324
472 324
481 319
490 314
499 309
505 317
512 325
517 334
527 334
534 342
544 344
554 344
563 339
572 334
577 324
587 319
595 311
603 304
610 296
620 291
628 284
637 279
645 271
653 264
662 259
672 254
682 249
690 241
700 239
698 253
693 263
688 273
678 278
670 285
664 295
658 303
650 310
645 320
638 328
630 335
620 345
615 355
615 365
615 375
620 384
628 390
622 405
612 405
603 400
593 400
584 395
575 390
567 384
557 380
548 375
538 375
529 380
520 385
512 394
504 402
494 405
485 400
475 398
468 390
459 385
449 385
439 385
429 385
420 390
410 390
400 400
394 410
385 415
375 413
366 408
356 404
347 399
337 395
327 395
317 395
307 395
297 395
287 395
277 395
267 395
258 390
248 390
238 393
230 400
225 410
220 420
220 430
220 440
215 450
217 460
218 478
208 480
199 475
191 469
187 459
182 450
179 440
174 431
169 422
169 412
164 403
157 395
148 390
138 390
128 390
118 390
109 385
99 385
90 380
80 380
70 377
60 375
50 372
40 370
30 370
22 364
