89 105
96 113
102 121
110 128
119 133
129 137
139 141
149 145
159 149
169 151
178 156
181 166
186 175
194 182
203 187
213 182
223 185
233 185
239 169
237 159
234 149
244 147
254 147
264 147
274 147
284 145
294 145
304 149
314 152
324 153
334 151
339 142
343 130
344 119
354 119
363 124
371 130
380 135
390 139
400 142
410 143
415 134
412 124
409 114
409 104
409 94
413 78
416 67
406 64
396 66
386 70
377 75
368 80
358 84
348 85
342 77
336 69
328 62
321 54
312 49
302 48
292 52
282 56
272 54
265 46
255 42
245 38
237 32
227 30
217 26
207 27
197 25
192 34
182 40
179 56
169 58
159 60
149 64
139 68
129 71
119 75
110 80
101 85
92 90
84 96
